2012-09-24 00:00:00,2012-09-24 00:00:00,TMP,surface,-107.813,25.0393,299.711
2012-09-24 00:00:00,2012-09-24 00:00:00,TMP,surface,-106.875,25.0393,293.97
2012-09-24 00:00:00,2012-09-24 00:00:00,TMP,surface,-105.938,25.0393,288.796
2012-09-24 00:00:00,2012-09-24 00:00:00,TMP,surface,-105,25.0393,286.183
2012-09-24 00:00:00,2012-09-24 00:00:00,TMP,surface,-104.063,25.0393,289.08
2012-09-24 00:00:00,2012-09-24 00:00:00,TMP,surface,-103.125,25.0393,291.789
2012-09-24 00:00:00,2012-09-24 00:00:00,TMP,surface,-102.188,25.0393,291.847
2012-09-24 00:00:00,2012-09-24 00:00:00,TMP,surface,-101.25,25.0393,290.216
2012-09-24 00:00:00,2012-09-24 00:00:00,TMP,surface,-100.313,25.0393,290.821
2012-09-24 00:00:00,2012-09-24 00:00:00,TMP,surface,-99.3754,25.0393,294.696
2012-09-24 00:00:00,2012-09-24 00:00:00,TMP,surface,-98.4379,25.0393,298.608
2012-09-24 00:00:00,2012-09-24 00:00:00,TMP,surface,-97.5004,25.0393,301.669
2012-09-24 00:00:00,2012-09-24 00:00:00,TMP,surface,-96.5629,25.0393,301.874
2012-09-24 00:00:00,2012-09-24 00:00:00,TMP,surface,-95.6254,25.0393,301.656
2012-09-24 00:00:00,2012-09-24 00:00:00,TMP,surface,-94.6879,25.0393,301.517
2012-09-24 00:00:00,2012-09-24 00:00:00,TMP,surface,-93.7504,25.0393,301.32
2012-09-24 00:00:00,2012-09-24 00:00:00,TMP,surface,-92.8129,25.0393,301.197
2012-09-24 00:00:00,2012-09-24 00:00:00,TMP,surface,-107.813,25.9842,294.837
2012-09-24 00:00:00,2012-09-24 00:00:00,TMP,surface,-106.875,25.9842,289.906
2012-09-24 00:00:00,2012-09-24 00:00:00,TMP,surface,-105.938,25.9842,287.02
2012-09-24 00:00:00,2012-09-24 00:00:00,TMP,surface,-105,25.9842,287.956
2012-09-24 00:00:00,2012-09-24 00:00:00,TMP,surface,-104.063,25.9842,292.461
2012-09-24 00:00:00,2012-09-24 00:00:00,TMP,surface,-103.125,25.9842,294.527
2012-09-24 00:00:00,2012-09-24 00:00:00,TMP,surface,-102.188,25.9842,293.853
2012-09-24 00:00:00,2012-09-24 00:00:00,TMP,surface,-101.25,25.9842,292.986
2012-09-24 00:00:00,2012-09-24 00:00:00,TMP,surface,-100.313,25.9842,293.797
2012-09-24 00:00:00,2012-09-24 00:00:00,TMP,surface,-99.3754,25.9842,297.586
2012-09-24 00:00:00,2012-09-24 00:00:00,TMP,surface,-98.4379,25.9842,299.541
2012-09-24 00:00:00,2012-09-24 00:00:00,TMP,surface,-97.5004,25.9842,299.487
2012-09-24 00:00:00,2012-09-24 00:00:00,TMP,surface,-96.5629,25.9842,301.332
2012-09-24 00:00:00,2012-09-24 00:00:00,TMP,surface,-95.6254,25.9842,301.389
2012-09-24 00:00:00,2012-09-24 00:00:00,TMP,surface,-94.6879,25.9842,301.293
2012-09-24 00:00:00,2012-09-24 00:00:00,TMP,surface,-93.7504,25.9842,301.172
2012-09-24 00:00:00,2012-09-24 00:00:00,TMP,surface,-92.8129,25.9842,301.138
2012-09-24 00:00:00,2012-09-24 00:00:00,TMP,surface,-107.813,26.929,290.74
2012-09-24 00:00:00,2012-09-24 00:00:00,TMP,surface,-106.875,26.929,287.296
2012-09-24 00:00:00,2012-09-24 00:00:00,TMP,surface,-105.938,26.929,288.008
2012-09-24 00:00:00,2012-09-24 00:00:00,TMP,surface,-105,26.929,291.584
2012-09-24 00:00:00,2012-09-24 00:00:00,TMP,surface,-104.063,26.929,294.26
2012-09-24 00:00:00,2012-09-24 00:00:00,TMP,surface,-103.125,26.929,294.389
2012-09-24 00:00:00,2012-09-24 00:00:00,TMP,surface,-102.188,26.929,293.444
2012-09-24 00:00:00,2012-09-24 00:00:00,TMP,surface,-101.25,26.929,294.159
2012-09-24 00:00:00,2012-09-24 00:00:00,TMP,surface,-100.313,26.929,296.41
2012-09-24 00:00:00,2012-09-24 00:00:00,TMP,surface,-99.3754,26.929,298.773
2012-09-24 00:00:00,2012-09-24 00:00:00,TMP,surface,-98.4379,26.929,298.696
2012-09-24 00:00:00,2012-09-24 00:00:00,TMP,surface,-97.5004,26.929,300.496
2012-09-24 00:00:00,2012-09-24 00:00:00,TMP,surface,-96.5629,26.929,300.93
2012-09-24 00:00:00,2012-09-24 00:00:00,TMP,surface,-95.6254,26.929,301.336
2012-09-24 00:00:00,2012-09-24 00:00:00,TMP,surface,-94.6879,26.929,301.375
2012-09-24 00:00:00,2012-09-24 00:00:00,TMP,surface,-93.7504,26.929,301.189
2012-09-24 00:00:00,2012-09-24 00:00:00,TMP,surface,-92.8129,26.929,300.984
2012-09-24 00:00:00,2012-09-24 00:00:00,TMP,surface,-107.813,27.8739,287.96
2012-09-24 00:00:00,2012-09-24 00:00:00,TMP,surface,-106.875,27.8739,286.445
2012-09-24 00:00:00,2012-09-24 00:00:00,TMP,surface,-105.938,27.8739,289.228
2012-09-24 00:00:00,2012-09-24 00:00:00,TMP,surface,-105,27.8739,292.65
2012-09-24 00:00:00,2012-09-24 00:00:00,TMP,surface,-104.063,27.8739,293.778
2012-09-24 00:00:00,2012-09-24 00:00:00,TMP,surface,-103.125,27.8739,292.868
2012-09-24 00:00:00,2012-09-24 00:00:00,TMP,surface,-102.188,27.8739,292.277
2012-09-24 00:00:00,2012-09-24 00:00:00,TMP,surface,-101.25,27.8739,294.327
2012-09-24 00:00:00,2012-09-24 00:00:00,TMP,surface,-100.313,27.8739,296.77
2012-09-24 00:00:00,2012-09-24 00:00:00,TMP,surface,-99.3754,27.8739,297.714
2012-09-24 00:00:00,2012-09-24 00:00:00,TMP,surface,-98.4379,27.8739,297.488
2012-09-24 00:00:00,2012-09-24 00:00:00,TMP,surface,-97.5004,27.8739,298.932
2012-09-24 00:00:00,2012-09-24 00:00:00,TMP,surface,-96.5629,27.8739,300.81
2012-09-24 00:00:00,2012-09-24 00:00:00,TMP,surface,-95.6254,27.8739,301.048
2012-09-24 00:00:00,2012-09-24 00:00:00,TMP,surface,-94.6879,27.8739,300.978
2012-09-24 00:00:00,2012-09-24 00:00:00,TMP,surface,-93.7504,27.8739,300.711
2012-09-24 00:00:00,2012-09-24 00:00:00,TMP,surface,-92.8129,27.8739,300.348
2012-09-24 00:00:00,2012-09-24 00:00:00,TMP,surface,-107.813,28.8188,286.407
2012-09-24 00:00:00,2012-09-24 00:00:00,TMP,surface,-106.875,28.8188,286.836
2012-09-24 00:00:00,2012-09-24 00:00:00,TMP,surface,-105.938,28.8188,290.336
2012-09-24 00:00:00,2012-09-24 00:00:00,TMP,surface,-105,28.8188,292.848
2012-09-24 00:00:00,2012-09-24 00:00:00,TMP,surface,-104.063,28.8188,292.714
2012-09-24 00:00:00,2012-09-24 00:00:00,TMP,surface,-103.125,28.8188,292.549
2012-09-24 00:00:00,2012-09-24 00:00:00,TMP,surface,-102.188,28.8188,292.333
2012-09-24 00:00:00,2012-09-24 00:00:00,TMP,surface,-101.25,28.8188,294.02
2012-09-24 00:00:00,2012-09-24 00:00:00,TMP,surface,-100.313,28.8188,295.092
2012-09-24 00:00:00,2012-09-24 00:00:00,TMP,surface,-99.3754,28.8188,294.964
2012-09-24 00:00:00,2012-09-24 00:00:00,TMP,surface,-98.4379,28.8188,294.82
2012-09-24 00:00:00,2012-09-24 00:00:00,TMP,surface,-97.5004,28.8188,294.928
2012-09-24 00:00:00,2012-09-24 00:00:00,TMP,surface,-96.5629,28.8188,295.365
2012-09-24 00:00:00,2012-09-24 00:00:00,TMP,surface,-95.6254,28.8188,297.612
2012-09-24 00:00:00,2012-09-24 00:00:00,TMP,surface,-94.6879,28.8188,300.471
2012-09-24 00:00:00,2012-09-24 00:00:00,TMP,surface,-93.7504,28.8188,300.25
2012-09-24 00:00:00,2012-09-24 00:00:00,TMP,surface,-92.8129,28.8188,299.965
2012-09-24 00:00:00,2012-09-24 00:00:00,TMP,surface,-107.813,29.7637,287.986
2012-09-24 00:00:00,2012-09-24 00:00:00,TMP,surface,-106.875,29.7637,289.37
2012-09-24 00:00:00,2012-09-24 00:00:00,TMP,surface,-105.938,29.7637,291.832
2012-09-24 00:00:00,2012-09-24 00:00:00,TMP,surface,-105,29.7637,292.333
2012-09-24 00:00:00,2012-09-24 00:00:00,TMP,surface,-104.063,29.7637,292.559
2012-09-24 00:00:00,2012-09-24 00:00:00,TMP,surface,-103.125,29.7637,293.068
2012-09-24 00:00:00,2012-09-24 00:00:00,TMP,surface,-102.188,29.7637,293.788
2012-09-24 00:00:00,2012-09-24 00:00:00,TMP,surface,-101.25,29.7637,294.181
2012-09-24 00:00:00,2012-09-24 00:00:00,TMP,surface,-100.313,29.7637,293.4
2012-09-24 00:00:00,2012-09-24 00:00:00,TMP,surface,-99.3754,29.7637,292.562
2012-09-24 00:00:00,2012-09-24 00:00:00,TMP,surface,-98.4379,29.7637,292.519
2012-09-24 00:00:00,2012-09-24 00:00:00,TMP,surface,-97.5004,29.7637,292.86
2012-09-24 00:00:00,2012-09-24 00:00:00,TMP,surface,-96.5629,29.7637,293.314
2012-09-24 00:00:00,2012-09-24 00:00:00,TMP,surface,-95.6254,29.7637,293.802
2012-09-24 00:00:00,2012-09-24 00:00:00,TMP,surface,-94.6879,29.7637,295.746
2012-09-24 00:00:00,2012-09-24 00:00:00,TMP,surface,-93.7504,29.7637,298.103
2012-09-24 00:00:00,2012-09-24 00:00:00,TMP,surface,-92.8129,29.7637,293.512
2012-09-24 00:00:00,2012-09-24 00:00:00,TMP,surface,-107.813,30.7085,291.33
2012-09-24 00:00:00,2012-09-24 00:00:00,TMP,surface,-106.875,30.7085,292.429
2012-09-24 00:00:00,2012-09-24 00:00:00,TMP,surface,-105.938,30.7085,292.464
2012-09-24 00:00:00,2012-09-24 00:00:00,TMP,surface,-105,30.7085,292.412
2012-09-24 00:00:00,2012-09-24 00:00:00,TMP,surface,-104.063,30.7085,291.684
2012-09-24 00:00:00,2012-09-24 00:00:00,TMP,surface,-103.125,30.7085,293.076
2012-09-24 00:00:00,2012-09-24 00:00:00,TMP,surface,-102.188,30.7085,293.989
2012-09-24 00:00:00,2012-09-24 00:00:00,TMP,surface,-101.25,30.7085,293.684
2012-09-24 00:00:00,2012-09-24 00:00:00,TMP,surface,-100.313,30.7085,292.818
2012-09-24 00:00:00,2012-09-24 00:00:00,TMP,surface,-99.3754,30.7085,292.109
2012-09-24 00:00:00,2012-09-24 00:00:00,TMP,surface,-98.4379,30.7085,292.023
2012-09-24 00:00:00,2012-09-24 00:00:00,TMP,surface,-97.5004,30.7085,292.284
2012-09-24 00:00:00,2012-09-24 00:00:00,TMP,surface,-96.5629,30.7085,292.77
2012-09-24 00:00:00,2012-09-24 00:00:00,TMP,surface,-95.6254,30.7085,293.159
2012-09-24 00:00:00,2012-09-24 00:00:00,TMP,surface,-94.6879,30.7085,292.919
2012-09-24 00:00:00,2012-09-24 00:00:00,TMP,surface,-93.7504,30.7085,292.314
2012-09-24 00:00:00,2012-09-24 00:00:00,TMP,surface,-92.8129,30.7085,291.322
2012-09-24 00:00:00,2012-09-24 00:00:00,TMP,surface,-107.813,31.6534,291.858
2012-09-24 00:00:00,2012-09-24 00:00:00,TMP,surface,-106.875,31.6534,292.431
2012-09-24 00:00:00,2012-09-24 00:00:00,TMP,surface,-105.938,31.6534,292.18
2012-09-24 00:00:00,2012-09-24 00:00:00,TMP,surface,-105,31.6534,291.877
2012-09-24 00:00:00,2012-09-24 00:00:00,TMP,surface,-104.063,31.6534,292.388
2012-09-24 00:00:00,2012-09-24 00:00:00,TMP,surface,-103.125,31.6534,293.184
2012-09-24 00:00:00,2012-09-24 00:00:00,TMP,surface,-102.188,31.6534,293.471
2012-09-24 00:00:00,2012-09-24 00:00:00,TMP,surface,-101.25,31.6534,293.316
2012-09-24 00:00:00,2012-09-24 00:00:00,TMP,surface,-100.313,31.6534,293.037
2012-09-24 00:00:00,2012-09-24 00:00:00,TMP,surface,-99.3754,31.6534,292.549
2012-09-24 00:00:00,2012-09-24 00:00:00,TMP,surface,-98.4379,31.6534,292.221
2012-09-24 00:00:00,2012-09-24 00:00:00,TMP,surface,-97.5004,31.6534,292.212
2012-09-24 00:00:00,2012-09-24 00:00:00,TMP,surface,-96.5629,31.6534,292.471
2012-09-24 00:00:00,2012-09-24 00:00:00,TMP,surface,-95.6254,31.6534,292.664
2012-09-24 00:00:00,2012-09-24 00:00:00,TMP,surface,-94.6879,31.6534,292.284
2012-09-24 00:00:00,2012-09-24 00:00:00,TMP,surface,-93.7504,31.6534,291.474
2012-09-24 00:00:00,2012-09-24 00:00:00,TMP,surface,-92.8129,31.6534,290.786
2012-09-24 00:00:00,2012-09-24 00:00:00,TMP,surface,-107.813,32.5983,288.901
2012-09-24 00:00:00,2012-09-24 00:00:00,TMP,surface,-106.875,32.5983,289.621
2012-09-24 00:00:00,2012-09-24 00:00:00,TMP,surface,-105.938,32.5983,290.164
2012-09-24 00:00:00,2012-09-24 00:00:00,TMP,surface,-105,32.5983,290.696
2012-09-24 00:00:00,2012-09-24 00:00:00,TMP,surface,-104.063,32.5983,291.751
2012-09-24 00:00:00,2012-09-24 00:00:00,TMP,surface,-103.125,32.5983,292.408
2012-09-24 00:00:00,2012-09-24 00:00:00,TMP,surface,-102.188,32.5983,292.653
2012-09-24 00:00:00,2012-09-24 00:00:00,TMP,surface,-101.25,32.5983,292.903
2012-09-24 00:00:00,2012-09-24 00:00:00,TMP,surface,-100.313,32.5983,293.157
2012-09-24 00:00:00,2012-09-24 00:00:00,TMP,surface,-99.3754,32.5983,292.788
2012-09-24 00:00:00,2012-09-24 00:00:00,TMP,surface,-98.4379,32.5983,292.109
2012-09-24 00:00:00,2012-09-24 00:00:00,TMP,surface,-97.5004,32.5983,291.717
2012-09-24 00:00:00,2012-09-24 00:00:00,TMP,surface,-96.5629,32.5983,291.892
2012-09-24 00:00:00,2012-09-24 00:00:00,TMP,surface,-95.6254,32.5983,292.13
2012-09-24 00:00:00,2012-09-24 00:00:00,TMP,surface,-94.6879,32.5983,291.698
2012-09-24 00:00:00,2012-09-24 00:00:00,TMP,surface,-93.7504,32.5983,290.904
2012-09-24 00:00:00,2012-09-24 00:00:00,TMP,surface,-92.8129,32.5983,290.48
2012-09-24 00:00:00,2012-09-24 00:00:00,TMP,surface,-107.813,33.5432,285.828
2012-09-24 00:00:00,2012-09-24 00:00:00,TMP,surface,-106.875,33.5432,287.58
2012-09-24 00:00:00,2012-09-24 00:00:00,TMP,surface,-105.938,33.5432,288.701
2012-09-24 00:00:00,2012-09-24 00:00:00,TMP,surface,-105,33.5432,289.9
2012-09-24 00:00:00,2012-09-24 00:00:00,TMP,surface,-104.063,33.5432,291.168
2012-09-24 00:00:00,2012-09-24 00:00:00,TMP,surface,-103.125,33.5432,291.748
2012-09-24 00:00:00,2012-09-24 00:00:00,TMP,surface,-102.188,33.5432,291.69
2012-09-24 00:00:00,2012-09-24 00:00:00,TMP,surface,-101.25,33.5432,292.068
2012-09-24 00:00:00,2012-09-24 00:00:00,TMP,surface,-100.313,33.5432,292.776
2012-09-24 00:00:00,2012-09-24 00:00:00,TMP,surface,-99.3754,33.5432,292.676
2012-09-24 00:00:00,2012-09-24 00:00:00,TMP,surface,-98.4379,33.5432,291.837
2012-09-24 00:00:00,2012-09-24 00:00:00,TMP,surface,-97.5004,33.5432,291.076
2012-09-24 00:00:00,2012-09-24 00:00:00,TMP,surface,-96.5629,33.5432,290.791
2012-09-24 00:00:00,2012-09-24 00:00:00,TMP,surface,-95.6254,33.5432,290.874
2012-09-24 00:00:00,2012-09-24 00:00:00,TMP,surface,-94.6879,33.5432,290.807
2012-09-24 00:00:00,2012-09-24 00:00:00,TMP,surface,-93.7504,33.5432,290.18
2012-09-24 00:00:00,2012-09-24 00:00:00,TMP,surface,-92.8129,33.5432,289.727
2012-09-24 00:00:00,2012-09-24 00:00:00,TMP,surface,-107.813,34.4881,284.247
2012-09-24 00:00:00,2012-09-24 00:00:00,TMP,surface,-106.875,34.4881,286.232
2012-09-24 00:00:00,2012-09-24 00:00:00,TMP,surface,-105.938,34.4881,287.456
2012-09-24 00:00:00,2012-09-24 00:00:00,TMP,surface,-105,34.4881,288.73
2012-09-24 00:00:00,2012-09-24 00:00:00,TMP,surface,-104.063,34.4881,289.957
2012-09-24 00:00:00,2012-09-24 00:00:00,TMP,surface,-103.125,34.4881,290.556
2012-09-24 00:00:00,2012-09-24 00:00:00,TMP,surface,-102.188,34.4881,290.908
2012-09-24 00:00:00,2012-09-24 00:00:00,TMP,surface,-101.25,34.4881,291.343
2012-09-24 00:00:00,2012-09-24 00:00:00,TMP,surface,-100.313,34.4881,291.736
2012-09-24 00:00:00,2012-09-24 00:00:00,TMP,surface,-99.3754,34.4881,291.653
2012-09-24 00:00:00,2012-09-24 00:00:00,TMP,surface,-98.4379,34.4881,290.949
2012-09-24 00:00:00,2012-09-24 00:00:00,TMP,surface,-97.5004,34.4881,290.199
2012-09-24 00:00:00,2012-09-24 00:00:00,TMP,surface,-96.5629,34.4881,290.055
2012-09-24 00:00:00,2012-09-24 00:00:00,TMP,surface,-95.6254,34.4881,289.981
2012-09-24 00:00:00,2012-09-24 00:00:00,TMP,surface,-94.6879,34.4881,289.308
2012-09-24 00:00:00,2012-09-24 00:00:00,TMP,surface,-93.7504,34.4881,288.757
2012-09-24 00:00:00,2012-09-24 00:00:00,TMP,surface,-92.8129,34.4881,288.576
2012-09-24 00:00:00,2012-09-24 00:00:00,TMP,surface,-107.813,35.4329,283.936
2012-09-24 00:00:00,2012-09-24 00:00:00,TMP,surface,-106.875,35.4329,284.644
2012-09-24 00:00:00,2012-09-24 00:00:00,TMP,surface,-105.938,35.4329,285.652
2012-09-24 00:00:00,2012-09-24 00:00:00,TMP,surface,-105,35.4329,286.812
2012-09-24 00:00:00,2012-09-24 00:00:00,TMP,surface,-104.063,35.4329,288.655
2012-09-24 00:00:00,2012-09-24 00:00:00,TMP,surface,-103.125,35.4329,289.962
2012-09-24 00:00:00,2012-09-24 00:00:00,TMP,surface,-102.188,35.4329,290.621
2012-09-24 00:00:00,2012-09-24 00:00:00,TMP,surface,-101.25,35.4329,290.837
2012-09-24 00:00:00,2012-09-24 00:00:00,TMP,surface,-100.313,35.4329,290.709
2012-09-24 00:00:00,2012-09-24 00:00:00,TMP,surface,-99.3754,35.4329,290.384
2012-09-24 00:00:00,2012-09-24 00:00:00,TMP,surface,-98.4379,35.4329,289.983
2012-09-24 00:00:00,2012-09-24 00:00:00,TMP,surface,-97.5004,35.4329,289.671
2012-09-24 00:00:00,2012-09-24 00:00:00,TMP,surface,-96.5629,35.4329,289.493
2012-09-24 00:00:00,2012-09-24 00:00:00,TMP,surface,-95.6254,35.4329,289.336
2012-09-24 00:00:00,2012-09-24 00:00:00,TMP,surface,-94.6879,35.4329,288.948
2012-09-24 00:00:00,2012-09-24 00:00:00,TMP,surface,-93.7504,35.4329,288.204
2012-09-24 00:00:00,2012-09-24 00:00:00,TMP,surface,-92.8129,35.4329,287.656
2012-09-24 00:00:00,2012-09-24 00:00:00,TMP,surface,-107.813,36.3778,283.53
2012-09-24 00:00:00,2012-09-24 00:00:00,TMP,surface,-106.875,36.3778,281.829
2012-09-24 00:00:00,2012-09-24 00:00:00,TMP,surface,-105.938,36.3778,282.876
2012-09-24 00:00:00,2012-09-24 00:00:00,TMP,surface,-105,36.3778,284.495
2012-09-24 00:00:00,2012-09-24 00:00:00,TMP,surface,-104.063,36.3778,286.93
2012-09-24 00:00:00,2012-09-24 00:00:00,TMP,surface,-103.125,36.3778,288.391
2012-09-24 00:00:00,2012-09-24 00:00:00,TMP,surface,-102.188,36.3778,289.404
2012-09-24 00:00:00,2012-09-24 00:00:00,TMP,surface,-101.25,36.3778,289.935
2012-09-24 00:00:00,2012-09-24 00:00:00,TMP,surface,-100.313,36.3778,290.013
2012-09-24 00:00:00,2012-09-24 00:00:00,TMP,surface,-99.3754,36.3778,289.688
2012-09-24 00:00:00,2012-09-24 00:00:00,TMP,surface,-98.4379,36.3778,289.213
2012-09-24 00:00:00,2012-09-24 00:00:00,TMP,surface,-97.5004,36.3778,288.984
2012-09-24 00:00:00,2012-09-24 00:00:00,TMP,surface,-96.5629,36.3778,288.892
2012-09-24 00:00:00,2012-09-24 00:00:00,TMP,surface,-95.6254,36.3778,288.682
2012-09-24 00:00:00,2012-09-24 00:00:00,TMP,surface,-94.6879,36.3778,288.207
2012-09-24 00:00:00,2012-09-24 00:00:00,TMP,surface,-93.7504,36.3778,287.346
2012-09-24 00:00:00,2012-09-24 00:00:00,TMP,surface,-92.8129,36.3778,286.829
2012-09-24 00:00:00,2012-09-24 00:00:00,PRATE,surface,-107.813,25.0393,3.1e-06
2012-09-24 00:00:00,2012-09-24 00:00:00,PRATE,surface,-106.875,25.0393,1.74e-05
2012-09-24 00:00:00,2012-09-24 00:00:00,PRATE,surface,-105.938,25.0393,1.99e-05
2012-09-24 00:00:00,2012-09-24 00:00:00,PRATE,surface,-105,25.0393,6.9e-06
2012-09-24 00:00:00,2012-09-24 00:00:00,PRATE,surface,-104.063,25.0393,8e-07
2012-09-24 00:00:00,2012-09-24 00:00:00,PRATE,surface,-103.125,25.0393,0
2012-09-24 00:00:00,2012-09-24 00:00:00,PRATE,surface,-102.188,25.0393,2.6e-06
2012-09-24 00:00:00,2012-09-24 00:00:00,PRATE,surface,-101.25,25.0393,5.2e-06
2012-09-24 00:00:00,2012-09-24 00:00:00,PRATE,surface,-100.313,25.0393,7.1e-06
2012-09-24 00:00:00,2012-09-24 00:00:00,PRATE,surface,-99.3754,25.0393,1.9e-06
2012-09-24 00:00:00,2012-09-24 00:00:00,PRATE,surface,-98.4379,25.0393,5e-07
2012-09-24 00:00:00,2012-09-24 00:00:00,PRATE,surface,-97.5004,25.0393,1.07e-05
2012-09-24 00:00:00,2012-09-24 00:00:00,PRATE,surface,-96.5629,25.0393,2.89e-05
2012-09-24 00:00:00,2012-09-24 00:00:00,PRATE,surface,-95.6254,25.0393,5.45e-05
2012-09-24 00:00:00,2012-09-24 00:00:00,PRATE,surface,-94.6879,25.0393,6.25e-05
2012-09-24 00:00:00,2012-09-24 00:00:00,PRATE,surface,-93.7504,25.0393,3.99e-05
2012-09-24 00:00:00,2012-09-24 00:00:00,PRATE,surface,-92.8129,25.0393,1.47e-05
2012-09-24 00:00:00,2012-09-24 00:00:00,PRATE,surface,-107.813,25.9842,7.9e-06
2012-09-24 00:00:00,2012-09-24 00:00:00,PRATE,surface,-106.875,25.9842,2.05e-05
2012-09-24 00:00:00,2012-09-24 00:00:00,PRATE,surface,-105.938,25.9842,9.6e-06
2012-09-24 00:00:00,2012-09-24 00:00:00,PRATE,surface,-105,25.9842,1.3e-06
2012-09-24 00:00:00,2012-09-24 00:00:00,PRATE,surface,-104.063,25.9842,1e-07
2012-09-24 00:00:00,2012-09-24 00:00:00,PRATE,surface,-103.125,25.9842,0
2012-09-24 00:00:00,2012-09-24 00:00:00,PRATE,surface,-102.188,25.9842,1e-06
2012-09-24 00:00:00,2012-09-24 00:00:00,PRATE,surface,-101.25,25.9842,3.8e-06
2012-09-24 00:00:00,2012-09-24 00:00:00,PRATE,surface,-100.313,25.9842,7e-06
2012-09-24 00:00:00,2012-09-24 00:00:00,PRATE,surface,-99.3754,25.9842,1.3e-06
2012-09-24 00:00:00,2012-09-24 00:00:00,PRATE,surface,-98.4379,25.9842,1.7e-06
2012-09-24 00:00:00,2012-09-24 00:00:00,PRATE,surface,-97.5004,25.9842,8.2e-06
2012-09-24 00:00:00,2012-09-24 00:00:00,PRATE,surface,-96.5629,25.9842,3.68e-05
2012-09-24 00:00:00,2012-09-24 00:00:00,PRATE,surface,-95.6254,25.9842,7.83e-05
2012-09-24 00:00:00,2012-09-24 00:00:00,PRATE,surface,-94.6879,25.9842,7.76e-05
2012-09-24 00:00:00,2012-09-24 00:00:00,PRATE,surface,-93.7504,25.9842,4.28e-05
2012-09-24 00:00:00,2012-09-24 00:00:00,PRATE,surface,-92.8129,25.9842,1.91e-05
2012-09-24 00:00:00,2012-09-24 00:00:00,PRATE,surface,-107.813,26.929,1.8e-05
2012-09-24 00:00:00,2012-09-24 00:00:00,PRATE,surface,-106.875,26.929,1.04e-05
2012-09-24 00:00:00,2012-09-24 00:00:00,PRATE,surface,-105.938,26.929,3.3e-06
2012-09-24 00:00:00,2012-09-24 00:00:00,PRATE,surface,-105,26.929,3e-07
2012-09-24 00:00:00,2012-09-24 00:00:00,PRATE,surface,-104.063,26.929,3e-07
2012-09-24 00:00:00,2012-09-24 00:00:00,PRATE,surface,-103.125,26.929,1.4e-06
2012-09-24 00:00:00,2012-09-24 00:00:00,PRATE,surface,-102.188,26.929,2.7e-06
2012-09-24 00:00:00,2012-09-24 00:00:00,PRATE,surface,-101.25,26.929,8.4e-06
2012-09-24 00:00:00,2012-09-24 00:00:00,PRATE,surface,-100.313,26.929,3.9e-06
2012-09-24 00:00:00,2012-09-24 00:00:00,PRATE,surface,-99.3754,26.929,2.1e-06
2012-09-24 00:00:00,2012-09-24 00:00:00,PRATE,surface,-98.4379,26.929,5.1e-06
2012-09-24 00:00:00,2012-09-24 00:00:00,PRATE,surface,-97.5004,26.929,9.6e-06
2012-09-24 00:00:00,2012-09-24 00:00:00,PRATE,surface,-96.5629,26.929,1.77e-05
2012-09-24 00:00:00,2012-09-24 00:00:00,PRATE,surface,-95.6254,26.929,5.76e-05
2012-09-24 00:00:00,2012-09-24 00:00:00,PRATE,surface,-94.6879,26.929,7.16e-05
2012-09-24 00:00:00,2012-09-24 00:00:00,PRATE,surface,-93.7504,26.929,6.59e-05
2012-09-24 00:00:00,2012-09-24 00:00:00,PRATE,surface,-92.8129,26.929,3.73e-05
2012-09-24 00:00:00,2012-09-24 00:00:00,PRATE,surface,-107.813,27.8739,1.61e-05
2012-09-24 00:00:00,2012-09-24 00:00:00,PRATE,surface,-106.875,27.8739,9.1e-06
2012-09-24 00:00:00,2012-09-24 00:00:00,PRATE,surface,-105.938,27.8739,2.4e-06
2012-09-24 00:00:00,2012-09-24 00:00:00,PRATE,surface,-105,27.8739,5e-07
2012-09-24 00:00:00,2012-09-24 00:00:00,PRATE,surface,-104.063,27.8739,2.2e-06
2012-09-24 00:00:00,2012-09-24 00:00:00,PRATE,surface,-103.125,27.8739,3.9e-06
2012-09-24 00:00:00,2012-09-24 00:00:00,PRATE,surface,-102.188,27.8739,7e-06
2012-09-24 00:00:00,2012-09-24 00:00:00,PRATE,surface,-101.25,27.8739,3.3e-06
2012-09-24 00:00:00,2012-09-24 00:00:00,PRATE,surface,-100.313,27.8739,1.6e-06
2012-09-24 00:00:00,2012-09-24 00:00:00,PRATE,surface,-99.3754,27.8739,3.4e-06
2012-09-24 00:00:00,2012-09-24 00:00:00,PRATE,surface,-98.4379,27.8739,5.7e-06
2012-09-24 00:00:00,2012-09-24 00:00:00,PRATE,surface,-97.5004,27.8739,9.6e-06
2012-09-24 00:00:00,2012-09-24 00:00:00,PRATE,surface,-96.5629,27.8739,1.57e-05
2012-09-24 00:00:00,2012-09-24 00:00:00,PRATE,surface,-95.6254,27.8739,2.65e-05
2012-09-24 00:00:00,2012-09-24 00:00:00,PRATE,surface,-94.6879,27.8739,4.39e-05
2012-09-24 00:00:00,2012-09-24 00:00:00,PRATE,surface,-93.7504,27.8739,5.9e-05
2012-09-24 00:00:00,2012-09-24 00:00:00,PRATE,surface,-92.8129,27.8739,6.23e-05
2012-09-24 00:00:00,2012-09-24 00:00:00,PRATE,surface,-107.813,28.8188,1.45e-05
2012-09-24 00:00:00,2012-09-24 00:00:00,PRATE,surface,-106.875,28.8188,7.9e-06
2012-09-24 00:00:00,2012-09-24 00:00:00,PRATE,surface,-105.938,28.8188,1.6e-06
2012-09-24 00:00:00,2012-09-24 00:00:00,PRATE,surface,-105,28.8188,3e-07
2012-09-24 00:00:00,2012-09-24 00:00:00,PRATE,surface,-104.063,28.8188,4.7e-06
2012-09-24 00:00:00,2012-09-24 00:00:00,PRATE,surface,-103.125,28.8188,7.5e-06
2012-09-24 00:00:00,2012-09-24 00:00:00,PRATE,surface,-102.188,28.8188,4.5e-06
2012-09-24 00:00:00,2012-09-24 00:00:00,PRATE,surface,-101.25,28.8188,1.7e-06
2012-09-24 00:00:00,2012-09-24 00:00:00,PRATE,surface,-100.313,28.8188,1.3e-06
2012-09-24 00:00:00,2012-09-24 00:00:00,PRATE,surface,-99.3754,28.8188,4.2e-06
2012-09-24 00:00:00,2012-09-24 00:00:00,PRATE,surface,-98.4379,28.8188,7.4e-06
2012-09-24 00:00:00,2012-09-24 00:00:00,PRATE,surface,-97.5004,28.8188,9.6e-06
2012-09-24 00:00:00,2012-09-24 00:00:00,PRATE,surface,-96.5629,28.8188,1.21e-05
2012-09-24 00:00:00,2012-09-24 00:00:00,PRATE,surface,-95.6254,28.8188,2.05e-05
2012-09-24 00:00:00,2012-09-24 00:00:00,PRATE,surface,-94.6879,28.8188,4.05e-05
2012-09-24 00:00:00,2012-09-24 00:00:00,PRATE,surface,-93.7504,28.8188,5.98e-05
2012-09-24 00:00:00,2012-09-24 00:00:00,PRATE,surface,-92.8129,28.8188,5.89e-05
2012-09-24 00:00:00,2012-09-24 00:00:00,PRATE,surface,-107.813,29.7637,9.1e-06
2012-09-24 00:00:00,2012-09-24 00:00:00,PRATE,surface,-106.875,29.7637,7.9e-06
2012-09-24 00:00:00,2012-09-24 00:00:00,PRATE,surface,-105.938,29.7637,2.5e-06
2012-09-24 00:00:00,2012-09-24 00:00:00,PRATE,surface,-105,29.7637,2.7e-06
2012-09-24 00:00:00,2012-09-24 00:00:00,PRATE,surface,-104.063,29.7637,6.8e-06
2012-09-24 00:00:00,2012-09-24 00:00:00,PRATE,surface,-103.125,29.7637,6e-06
2012-09-24 00:00:00,2012-09-24 00:00:00,PRATE,surface,-102.188,29.7637,3.8e-06
2012-09-24 00:00:00,2012-09-24 00:00:00,PRATE,surface,-101.25,29.7637,1.6e-06
2012-09-24 00:00:00,2012-09-24 00:00:00,PRATE,surface,-100.313,29.7637,2.3e-06
2012-09-24 00:00:00,2012-09-24 00:00:00,PRATE,surface,-99.3754,29.7637,5.9e-06
2012-09-24 00:00:00,2012-09-24 00:00:00,PRATE,surface,-98.4379,29.7637,6.6e-06
2012-09-24 00:00:00,2012-09-24 00:00:00,PRATE,surface,-97.5004,29.7637,5.5e-06
2012-09-24 00:00:00,2012-09-24 00:00:00,PRATE,surface,-96.5629,29.7637,9.3e-06
2012-09-24 00:00:00,2012-09-24 00:00:00,PRATE,surface,-95.6254,29.7637,1.71e-05
2012-09-24 00:00:00,2012-09-24 00:00:00,PRATE,surface,-94.6879,29.7637,2.66e-05
2012-09-24 00:00:00,2012-09-24 00:00:00,PRATE,surface,-93.7504,29.7637,4.08e-05
2012-09-24 00:00:00,2012-09-24 00:00:00,PRATE,surface,-92.8129,29.7637,4.95e-05
2012-09-24 00:00:00,2012-09-24 00:00:00,PRATE,surface,-107.813,30.7085,6e-07
2012-09-24 00:00:00,2012-09-24 00:00:00,PRATE,surface,-106.875,30.7085,1.3e-06
2012-09-24 00:00:00,2012-09-24 00:00:00,PRATE,surface,-105.938,30.7085,4e-06
2012-09-24 00:00:00,2012-09-24 00:00:00,PRATE,surface,-105,30.7085,5.3e-06
2012-09-24 00:00:00,2012-09-24 00:00:00,PRATE,surface,-104.063,30.7085,7.8e-06
2012-09-24 00:00:00,2012-09-24 00:00:00,PRATE,surface,-103.125,30.7085,5.4e-06
2012-09-24 00:00:00,2012-09-24 00:00:00,PRATE,surface,-102.188,30.7085,3.5e-06
2012-09-24 00:00:00,2012-09-24 00:00:00,PRATE,surface,-101.25,30.7085,4.5e-06
2012-09-24 00:00:00,2012-09-24 00:00:00,PRATE,surface,-100.313,30.7085,3.8e-06
2012-09-24 00:00:00,2012-09-24 00:00:00,PRATE,surface,-99.3754,30.7085,4.5e-06
2012-09-24 00:00:00,2012-09-24 00:00:00,PRATE,surface,-98.4379,30.7085,4.2e-06
2012-09-24 00:00:00,2012-09-24 00:00:00,PRATE,surface,-97.5004,30.7085,3.5e-06
2012-09-24 00:00:00,2012-09-24 00:00:00,PRATE,surface,-96.5629,30.7085,5.5e-06
2012-09-24 00:00:00,2012-09-24 00:00:00,PRATE,surface,-95.6254,30.7085,1.07e-05
2012-09-24 00:00:00,2012-09-24 00:00:00,PRATE,surface,-94.6879,30.7085,1.69e-05
2012-09-24 00:00:00,2012-09-24 00:00:00,PRATE,surface,-93.7504,30.7085,2.39e-05
2012-09-24 00:00:00,2012-09-24 00:00:00,PRATE,surface,-92.8129,30.7085,3.46e-05
2012-09-24 00:00:00,2012-09-24 00:00:00,PRATE,surface,-107.813,31.6534,1.2e-06
2012-09-24 00:00:00,2012-09-24 00:00:00,PRATE,surface,-106.875,31.6534,1.7e-06
2012-09-24 00:00:00,2012-09-24 00:00:00,PRATE,surface,-105.938,31.6534,5.4e-06
2012-09-24 00:00:00,2012-09-24 00:00:00,PRATE,surface,-105,31.6534,9.4e-06
2012-09-24 00:00:00,2012-09-24 00:00:00,PRATE,surface,-104.063,31.6534,8.8e-06
2012-09-24 00:00:00,2012-09-24 00:00:00,PRATE,surface,-103.125,31.6534,7.5e-06
2012-09-24 00:00:00,2012-09-24 00:00:00,PRATE,surface,-102.188,31.6534,3.4e-06
2012-09-24 00:00:00,2012-09-24 00:00:00,PRATE,surface,-101.25,31.6534,2.6e-06
2012-09-24 00:00:00,2012-09-24 00:00:00,PRATE,surface,-100.313,31.6534,2.6e-06
2012-09-24 00:00:00,2012-09-24 00:00:00,PRATE,surface,-99.3754,31.6534,2.2e-06
2012-09-24 00:00:00,2012-09-24 00:00:00,PRATE,surface,-98.4379,31.6534,2.7e-06
2012-09-24 00:00:00,2012-09-24 00:00:00,PRATE,surface,-97.5004,31.6534,4.3e-06
2012-09-24 00:00:00,2012-09-24 00:00:00,PRATE,surface,-96.5629,31.6534,6.1e-06
2012-09-24 00:00:00,2012-09-24 00:00:00,PRATE,surface,-95.6254,31.6534,7.3e-06
2012-09-24 00:00:00,2012-09-24 00:00:00,PRATE,surface,-94.6879,31.6534,9.2e-06
2012-09-24 00:00:00,2012-09-24 00:00:00,PRATE,surface,-93.7504,31.6534,1.4e-05
2012-09-24 00:00:00,2012-09-24 00:00:00,PRATE,surface,-92.8129,31.6534,2.05e-05
2012-09-24 00:00:00,2012-09-24 00:00:00,PRATE,surface,-107.813,32.5983,3.8e-06
2012-09-24 00:00:00,2012-09-24 00:00:00,PRATE,surface,-106.875,32.5983,2.9e-06
2012-09-24 00:00:00,2012-09-24 00:00:00,PRATE,surface,-105.938,32.5983,5.4e-06
2012-09-24 00:00:00,2012-09-24 00:00:00,PRATE,surface,-105,32.5983,9.5e-06
2012-09-24 00:00:00,2012-09-24 00:00:00,PRATE,surface,-104.063,32.5983,7.7e-06
2012-09-24 00:00:00,2012-09-24 00:00:00,PRATE,surface,-103.125,32.5983,5.5e-06
2012-09-24 00:00:00,2012-09-24 00:00:00,PRATE,surface,-102.188,32.5983,5.7e-06
2012-09-24 00:00:00,2012-09-24 00:00:00,PRATE,surface,-101.25,32.5983,2.9e-06
2012-09-24 00:00:00,2012-09-24 00:00:00,PRATE,surface,-100.313,32.5983,2.7e-06
2012-09-24 00:00:00,2012-09-24 00:00:00,PRATE,surface,-99.3754,32.5983,2.3e-06
2012-09-24 00:00:00,2012-09-24 00:00:00,PRATE,surface,-98.4379,32.5983,4e-06
2012-09-24 00:00:00,2012-09-24 00:00:00,PRATE,surface,-97.5004,32.5983,8.1e-06
2012-09-24 00:00:00,2012-09-24 00:00:00,PRATE,surface,-96.5629,32.5983,9.9e-06
2012-09-24 00:00:00,2012-09-24 00:00:00,PRATE,surface,-95.6254,32.5983,8.2e-06
2012-09-24 00:00:00,2012-09-24 00:00:00,PRATE,surface,-94.6879,32.5983,7.4e-06
2012-09-24 00:00:00,2012-09-24 00:00:00,PRATE,surface,-93.7504,32.5983,8.7e-06
2012-09-24 00:00:00,2012-09-24 00:00:00,PRATE,surface,-92.8129,32.5983,9.8e-06
2012-09-24 00:00:00,2012-09-24 00:00:00,PRATE,surface,-107.813,33.5432,7.5e-06
2012-09-24 00:00:00,2012-09-24 00:00:00,PRATE,surface,-106.875,33.5432,5e-06
2012-09-24 00:00:00,2012-09-24 00:00:00,PRATE,surface,-105.938,33.5432,5e-06
2012-09-24 00:00:00,2012-09-24 00:00:00,PRATE,surface,-105,33.5432,6e-06
2012-09-24 00:00:00,2012-09-24 00:00:00,PRATE,surface,-104.063,33.5432,7.8e-06
2012-09-24 00:00:00,2012-09-24 00:00:00,PRATE,surface,-103.125,33.5432,7.7e-06
2012-09-24 00:00:00,2012-09-24 00:00:00,PRATE,surface,-102.188,33.5432,7.8e-06
2012-09-24 00:00:00,2012-09-24 00:00:00,PRATE,surface,-101.25,33.5432,4.2e-06
2012-09-24 00:00:00,2012-09-24 00:00:00,PRATE,surface,-100.313,33.5432,3.9e-06
2012-09-24 00:00:00,2012-09-24 00:00:00,PRATE,surface,-99.3754,33.5432,5.3e-06
2012-09-24 00:00:00,2012-09-24 00:00:00,PRATE,surface,-98.4379,33.5432,8.4e-06
2012-09-24 00:00:00,2012-09-24 00:00:00,PRATE,surface,-97.5004,33.5432,1.29e-05
2012-09-24 00:00:00,2012-09-24 00:00:00,PRATE,surface,-96.5629,33.5432,1.45e-05
2012-09-24 00:00:00,2012-09-24 00:00:00,PRATE,surface,-95.6254,33.5432,1.22e-05
2012-09-24 00:00:00,2012-09-24 00:00:00,PRATE,surface,-94.6879,33.5432,1.14e-05
2012-09-24 00:00:00,2012-09-24 00:00:00,PRATE,surface,-93.7504,33.5432,1.3e-05
2012-09-24 00:00:00,2012-09-24 00:00:00,PRATE,surface,-92.8129,33.5432,1.34e-05
2012-09-24 00:00:00,2012-09-24 00:00:00,PRATE,surface,-107.813,34.4881,9.4e-06
2012-09-24 00:00:00,2012-09-24 00:00:00,PRATE,surface,-106.875,34.4881,4.2e-06
2012-09-24 00:00:00,2012-09-24 00:00:00,PRATE,surface,-105.938,34.4881,2.8e-06
2012-09-24 00:00:00,2012-09-24 00:00:00,PRATE,surface,-105,34.4881,5.8e-06
2012-09-24 00:00:00,2012-09-24 00:00:00,PRATE,surface,-104.063,34.4881,8e-06
2012-09-24 00:00:00,2012-09-24 00:00:00,PRATE,surface,-103.125,34.4881,1.16e-05
2012-09-24 00:00:00,2012-09-24 00:00:00,PRATE,surface,-102.188,34.4881,1.09e-05
2012-09-24 00:00:00,2012-09-24 00:00:00,PRATE,surface,-101.25,34.4881,1.08e-05
2012-09-24 00:00:00,2012-09-24 00:00:00,PRATE,surface,-100.313,34.4881,8.6e-06
2012-09-24 00:00:00,2012-09-24 00:00:00,PRATE,surface,-99.3754,34.4881,9.8e-06
2012-09-24 00:00:00,2012-09-24 00:00:00,PRATE,surface,-98.4379,34.4881,1.58e-05
2012-09-24 00:00:00,2012-09-24 00:00:00,PRATE,surface,-97.5004,34.4881,2.23e-05
2012-09-24 00:00:00,2012-09-24 00:00:00,PRATE,surface,-96.5629,34.4881,2.45e-05
2012-09-24 00:00:00,2012-09-24 00:00:00,PRATE,surface,-95.6254,34.4881,2.25e-05
2012-09-24 00:00:00,2012-09-24 00:00:00,PRATE,surface,-94.6879,34.4881,2.02e-05
2012-09-24 00:00:00,2012-09-24 00:00:00,PRATE,surface,-93.7504,34.4881,1.9e-05
2012-09-24 00:00:00,2012-09-24 00:00:00,PRATE,surface,-92.8129,34.4881,1.88e-05
2012-09-24 00:00:00,2012-09-24 00:00:00,PRATE,surface,-107.813,35.4329,1.04e-05
2012-09-24 00:00:00,2012-09-24 00:00:00,PRATE,surface,-106.875,35.4329,6.5e-06
2012-09-24 00:00:00,2012-09-24 00:00:00,PRATE,surface,-105.938,35.4329,5.5e-06
2012-09-24 00:00:00,2012-09-24 00:00:00,PRATE,surface,-105,35.4329,5.6e-06
2012-09-24 00:00:00,2012-09-24 00:00:00,PRATE,surface,-104.063,35.4329,6.2e-06
2012-09-24 00:00:00,2012-09-24 00:00:00,PRATE,surface,-103.125,35.4329,1.22e-05
2012-09-24 00:00:00,2012-09-24 00:00:00,PRATE,surface,-102.188,35.4329,1.26e-05
2012-09-24 00:00:00,2012-09-24 00:00:00,PRATE,surface,-101.25,35.4329,1.22e-05
2012-09-24 00:00:00,2012-09-24 00:00:00,PRATE,surface,-100.313,35.4329,1.48e-05
2012-09-24 00:00:00,2012-09-24 00:00:00,PRATE,surface,-99.3754,35.4329,1.69e-05
2012-09-24 00:00:00,2012-09-24 00:00:00,PRATE,surface,-98.4379,35.4329,2.01e-05
2012-09-24 00:00:00,2012-09-24 00:00:00,PRATE,surface,-97.5004,35.4329,2.59e-05
2012-09-24 00:00:00,2012-09-24 00:00:00,PRATE,surface,-96.5629,35.4329,3.03e-05
2012-09-24 00:00:00,2012-09-24 00:00:00,PRATE,surface,-95.6254,35.4329,3.13e-05
2012-09-24 00:00:00,2012-09-24 00:00:00,PRATE,surface,-94.6879,35.4329,3.11e-05
2012-09-24 00:00:00,2012-09-24 00:00:00,PRATE,surface,-93.7504,35.4329,2.99e-05
2012-09-24 00:00:00,2012-09-24 00:00:00,PRATE,surface,-92.8129,35.4329,2.94e-05
2012-09-24 00:00:00,2012-09-24 00:00:00,PRATE,surface,-107.813,36.3778,1.38e-05
2012-09-24 00:00:00,2012-09-24 00:00:00,PRATE,surface,-106.875,36.3778,1.32e-05
2012-09-24 00:00:00,2012-09-24 00:00:00,PRATE,surface,-105.938,36.3778,1.03e-05
2012-09-24 00:00:00,2012-09-24 00:00:00,PRATE,surface,-105,36.3778,6.1e-06
2012-09-24 00:00:00,2012-09-24 00:00:00,PRATE,surface,-104.063,36.3778,4.3e-06
2012-09-24 00:00:00,2012-09-24 00:00:00,PRATE,surface,-103.125,36.3778,6.7e-06
2012-09-24 00:00:00,2012-09-24 00:00:00,PRATE,surface,-102.188,36.3778,1.22e-05
2012-09-24 00:00:00,2012-09-24 00:00:00,PRATE,surface,-101.25,36.3778,1.47e-05
2012-09-24 00:00:00,2012-09-24 00:00:00,PRATE,surface,-100.313,36.3778,1.54e-05
2012-09-24 00:00:00,2012-09-24 00:00:00,PRATE,surface,-99.3754,36.3778,1.65e-05
2012-09-24 00:00:00,2012-09-24 00:00:00,PRATE,surface,-98.4379,36.3778,1.77e-05
2012-09-24 00:00:00,2012-09-24 00:00:00,PRATE,surface,-97.5004,36.3778,1.96e-05
2012-09-24 00:00:00,2012-09-24 00:00:00,PRATE,surface,-96.5629,36.3778,2.48e-05
2012-09-24 00:00:00,2012-09-24 00:00:00,PRATE,surface,-95.6254,36.3778,3.17e-05
2012-09-24 00:00:00,2012-09-24 00:00:00,PRATE,surface,-94.6879,36.3778,3.73e-05
2012-09-24 00:00:00,2012-09-24 00:00:00,PRATE,surface,-93.7504,36.3778,4.11e-05
2012-09-24 00:00:00,2012-09-24 00:00:00,PRATE,surface,-92.8129,36.3778,3.82e-05
