2014-05-05 00:00:00,2014-05-05 00:00:00,TMP,surface,-107.813,25.0393,301.056
2014-05-05 00:00:00,2014-05-05 00:00:00,TMP,surface,-106.875,25.0393,294.086
2014-05-05 00:00:00,2014-05-05 00:00:00,TMP,surface,-105.938,25.0393,289.801
2014-05-05 00:00:00,2014-05-05 00:00:00,TMP,surface,-105,25.0393,288.378
2014-05-05 00:00:00,2014-05-05 00:00:00,TMP,surface,-104.063,25.0393,292.16
2014-05-05 00:00:00,2014-05-05 00:00:00,TMP,surface,-103.125,25.0393,296.121
2014-05-05 00:00:00,2014-05-05 00:00:00,TMP,surface,-102.188,25.0393,295.645
2014-05-05 00:00:00,2014-05-05 00:00:00,TMP,surface,-101.25,25.0393,293.017
2014-05-05 00:00:00,2014-05-05 00:00:00,TMP,surface,-100.313,25.0393,293.587
2014-05-05 00:00:00,2014-05-05 00:00:00,TMP,surface,-99.3754,25.0393,297.83
2014-05-05 00:00:00,2014-05-05 00:00:00,TMP,surface,-98.4379,25.0393,301.36
2014-05-05 00:00:00,2014-05-05 00:00:00,TMP,surface,-97.5004,25.0393,302.387
2014-05-05 00:00:00,2014-05-05 00:00:00,TMP,surface,-96.5629,25.0393,302.505
2014-05-05 00:00:00,2014-05-05 00:00:00,TMP,surface,-95.6254,25.0393,302.752
2014-05-05 00:00:00,2014-05-05 00:00:00,TMP,surface,-94.6879,25.0393,303.28
2014-05-05 00:00:00,2014-05-05 00:00:00,TMP,surface,-93.7504,25.0393,303.27
2014-05-05 00:00:00,2014-05-05 00:00:00,TMP,surface,-92.8129,25.0393,303.277
2014-05-05 00:00:00,2014-05-05 00:00:00,TMP,surface,-107.813,25.9842,295.593
2014-05-05 00:00:00,2014-05-05 00:00:00,TMP,surface,-106.875,25.9842,290.925
2014-05-05 00:00:00,2014-05-05 00:00:00,TMP,surface,-105.938,25.9842,288.678
2014-05-05 00:00:00,2014-05-05 00:00:00,TMP,surface,-105,25.9842,290.118
2014-05-05 00:00:00,2014-05-05 00:00:00,TMP,surface,-104.063,25.9842,295.449
2014-05-05 00:00:00,2014-05-05 00:00:00,TMP,surface,-103.125,25.9842,298.31
2014-05-05 00:00:00,2014-05-05 00:00:00,TMP,surface,-102.188,25.9842,297.424
2014-05-05 00:00:00,2014-05-05 00:00:00,TMP,surface,-101.25,25.9842,296.208
2014-05-05 00:00:00,2014-05-05 00:00:00,TMP,surface,-100.313,25.9842,297.664
2014-05-05 00:00:00,2014-05-05 00:00:00,TMP,surface,-99.3754,25.9842,301.203
2014-05-05 00:00:00,2014-05-05 00:00:00,TMP,surface,-98.4379,25.9842,302.925
2014-05-05 00:00:00,2014-05-05 00:00:00,TMP,surface,-97.5004,25.9842,302.224
2014-05-05 00:00:00,2014-05-05 00:00:00,TMP,surface,-96.5629,25.9842,301.485
2014-05-05 00:00:00,2014-05-05 00:00:00,TMP,surface,-95.6254,25.9842,302.409
2014-05-05 00:00:00,2014-05-05 00:00:00,TMP,surface,-94.6879,25.9842,302.912
2014-05-05 00:00:00,2014-05-05 00:00:00,TMP,surface,-93.7504,25.9842,303.014
2014-05-05 00:00:00,2014-05-05 00:00:00,TMP,surface,-92.8129,25.9842,303.197
2014-05-05 00:00:00,2014-05-05 00:00:00,TMP,surface,-107.813,26.929,291.75
2014-05-05 00:00:00,2014-05-05 00:00:00,TMP,surface,-106.875,26.929,288.832
2014-05-05 00:00:00,2014-05-05 00:00:00,TMP,surface,-105.938,26.929,289.734
2014-05-05 00:00:00,2014-05-05 00:00:00,TMP,surface,-105,26.929,292.944
2014-05-05 00:00:00,2014-05-05 00:00:00,TMP,surface,-104.063,26.929,296.496
2014-05-05 00:00:00,2014-05-05 00:00:00,TMP,surface,-103.125,26.929,297.104
2014-05-05 00:00:00,2014-05-05 00:00:00,TMP,surface,-102.188,26.929,297.085
2014-05-05 00:00:00,2014-05-05 00:00:00,TMP,surface,-101.25,26.929,297.965
2014-05-05 00:00:00,2014-05-05 00:00:00,TMP,surface,-100.313,26.929,301.129
2014-05-05 00:00:00,2014-05-05 00:00:00,TMP,surface,-99.3754,26.929,303.184
2014-05-05 00:00:00,2014-05-05 00:00:00,TMP,surface,-98.4379,26.929,302.675
2014-05-05 00:00:00,2014-05-05 00:00:00,TMP,surface,-97.5004,26.929,300.793
2014-05-05 00:00:00,2014-05-05 00:00:00,TMP,surface,-96.5629,26.929,301.481
2014-05-05 00:00:00,2014-05-05 00:00:00,TMP,surface,-95.6254,26.929,302.633
2014-05-05 00:00:00,2014-05-05 00:00:00,TMP,surface,-94.6879,26.929,302.96
2014-05-05 00:00:00,2014-05-05 00:00:00,TMP,surface,-93.7504,26.929,303.19
2014-05-05 00:00:00,2014-05-05 00:00:00,TMP,surface,-92.8129,26.929,303.43
2014-05-05 00:00:00,2014-05-05 00:00:00,TMP,surface,-107.813,27.8739,289.782
2014-05-05 00:00:00,2014-05-05 00:00:00,TMP,surface,-106.875,27.8739,288.333
2014-05-05 00:00:00,2014-05-05 00:00:00,TMP,surface,-105.938,27.8739,291.075
2014-05-05 00:00:00,2014-05-05 00:00:00,TMP,surface,-105,27.8739,294.448
2014-05-05 00:00:00,2014-05-05 00:00:00,TMP,surface,-104.063,27.8739,296.16
2014-05-05 00:00:00,2014-05-05 00:00:00,TMP,surface,-103.125,27.8739,295.536
2014-05-05 00:00:00,2014-05-05 00:00:00,TMP,surface,-102.188,27.8739,296.246
2014-05-05 00:00:00,2014-05-05 00:00:00,TMP,surface,-101.25,27.8739,299.309
2014-05-05 00:00:00,2014-05-05 00:00:00,TMP,surface,-100.313,27.8739,301.971
2014-05-05 00:00:00,2014-05-05 00:00:00,TMP,surface,-99.3754,27.8739,302.63
2014-05-05 00:00:00,2014-05-05 00:00:00,TMP,surface,-98.4379,27.8739,301.977
2014-05-05 00:00:00,2014-05-05 00:00:00,TMP,surface,-97.5004,27.8739,301.968
2014-05-05 00:00:00,2014-05-05 00:00:00,TMP,surface,-96.5629,27.8739,302.63
2014-05-05 00:00:00,2014-05-05 00:00:00,TMP,surface,-95.6254,27.8739,303.005
2014-05-05 00:00:00,2014-05-05 00:00:00,TMP,surface,-94.6879,27.8739,303.219
2014-05-05 00:00:00,2014-05-05 00:00:00,TMP,surface,-93.7504,27.8739,303.369
2014-05-05 00:00:00,2014-05-05 00:00:00,TMP,surface,-92.8129,27.8739,303.465
2014-05-05 00:00:00,2014-05-05 00:00:00,TMP,surface,-107.813,28.8188,288.659
2014-05-05 00:00:00,2014-05-05 00:00:00,TMP,surface,-106.875,28.8188,289.091
2014-05-05 00:00:00,2014-05-05 00:00:00,TMP,surface,-105.938,28.8188,292.393
2014-05-05 00:00:00,2014-05-05 00:00:00,TMP,surface,-105,28.8188,294.857
2014-05-05 00:00:00,2014-05-05 00:00:00,TMP,surface,-104.063,28.8188,294.589
2014-05-05 00:00:00,2014-05-05 00:00:00,TMP,surface,-103.125,28.8188,294.909
2014-05-05 00:00:00,2014-05-05 00:00:00,TMP,surface,-102.188,28.8188,296.576
2014-05-05 00:00:00,2014-05-05 00:00:00,TMP,surface,-101.25,28.8188,299.366
2014-05-05 00:00:00,2014-05-05 00:00:00,TMP,surface,-100.313,28.8188,301.04
2014-05-05 00:00:00,2014-05-05 00:00:00,TMP,surface,-99.3754,28.8188,300.995
2014-05-05 00:00:00,2014-05-05 00:00:00,TMP,surface,-98.4379,28.8188,300.768
2014-05-05 00:00:00,2014-05-05 00:00:00,TMP,surface,-97.5004,28.8188,301.094
2014-05-05 00:00:00,2014-05-05 00:00:00,TMP,surface,-96.5629,28.8188,301.51
2014-05-05 00:00:00,2014-05-05 00:00:00,TMP,surface,-95.6254,28.8188,301.67
2014-05-05 00:00:00,2014-05-05 00:00:00,TMP,surface,-94.6879,28.8188,301.84
2014-05-05 00:00:00,2014-05-05 00:00:00,TMP,surface,-93.7504,28.8188,302.301
2014-05-05 00:00:00,2014-05-05 00:00:00,TMP,surface,-92.8129,28.8188,302.755
2014-05-05 00:00:00,2014-05-05 00:00:00,TMP,surface,-107.813,29.7637,290.893
2014-05-05 00:00:00,2014-05-05 00:00:00,TMP,surface,-106.875,29.7637,291.859
2014-05-05 00:00:00,2014-05-05 00:00:00,TMP,surface,-105.938,29.7637,294.323
2014-05-05 00:00:00,2014-05-05 00:00:00,TMP,surface,-105,29.7637,294.611
2014-05-05 00:00:00,2014-05-05 00:00:00,TMP,surface,-104.063,29.7637,294.633
2014-05-05 00:00:00,2014-05-05 00:00:00,TMP,surface,-103.125,29.7637,296.025
2014-05-05 00:00:00,2014-05-05 00:00:00,TMP,surface,-102.188,29.7637,297.977
2014-05-05 00:00:00,2014-05-05 00:00:00,TMP,surface,-101.25,29.7637,299.229
2014-05-05 00:00:00,2014-05-05 00:00:00,TMP,surface,-100.313,29.7637,299.331
2014-05-05 00:00:00,2014-05-05 00:00:00,TMP,surface,-99.3754,29.7637,299.104
2014-05-05 00:00:00,2014-05-05 00:00:00,TMP,surface,-98.4379,29.7637,299.936
2014-05-05 00:00:00,2014-05-05 00:00:00,TMP,surface,-97.5004,29.7637,301.158
2014-05-05 00:00:00,2014-05-05 00:00:00,TMP,surface,-96.5629,29.7637,301.603
2014-05-05 00:00:00,2014-05-05 00:00:00,TMP,surface,-95.6254,29.7637,301.251
2014-05-05 00:00:00,2014-05-05 00:00:00,TMP,surface,-94.6879,29.7637,301.011
2014-05-05 00:00:00,2014-05-05 00:00:00,TMP,surface,-93.7504,29.7637,301.177
2014-05-05 00:00:00,2014-05-05 00:00:00,TMP,surface,-92.8129,29.7637,300.083
2014-05-05 00:00:00,2014-05-05 00:00:00,TMP,surface,-107.813,30.7085,295.213
2014-05-05 00:00:00,2014-05-05 00:00:00,TMP,surface,-106.875,30.7085,296.265
2014-05-05 00:00:00,2014-05-05 00:00:00,TMP,surface,-105.938,30.7085,295.869
2014-05-05 00:00:00,2014-05-05 00:00:00,TMP,surface,-105,30.7085,295.04
2014-05-05 00:00:00,2014-05-05 00:00:00,TMP,surface,-104.063,30.7085,294.669
2014-05-05 00:00:00,2014-05-05 00:00:00,TMP,surface,-103.125,30.7085,296.784
2014-05-05 00:00:00,2014-05-05 00:00:00,TMP,surface,-102.188,30.7085,298.509
2014-05-05 00:00:00,2014-05-05 00:00:00,TMP,surface,-101.25,30.7085,298.803
2014-05-05 00:00:00,2014-05-05 00:00:00,TMP,surface,-100.313,30.7085,298.537
2014-05-05 00:00:00,2014-05-05 00:00:00,TMP,surface,-99.3754,30.7085,298.717
2014-05-05 00:00:00,2014-05-05 00:00:00,TMP,surface,-98.4379,30.7085,300.057
2014-05-05 00:00:00,2014-05-05 00:00:00,TMP,surface,-97.5004,30.7085,301.414
2014-05-05 00:00:00,2014-05-05 00:00:00,TMP,surface,-96.5629,30.7085,301.529
2014-05-05 00:00:00,2014-05-05 00:00:00,TMP,surface,-95.6254,30.7085,300.723
2014-05-05 00:00:00,2014-05-05 00:00:00,TMP,surface,-94.6879,30.7085,299.91
2014-05-05 00:00:00,2014-05-05 00:00:00,TMP,surface,-93.7504,30.7085,299.401
2014-05-05 00:00:00,2014-05-05 00:00:00,TMP,surface,-92.8129,30.7085,298.963
2014-05-05 00:00:00,2014-05-05 00:00:00,TMP,surface,-107.813,31.6534,296.733
2014-05-05 00:00:00,2014-05-05 00:00:00,TMP,surface,-106.875,31.6534,297.081
2014-05-05 00:00:00,2014-05-05 00:00:00,TMP,surface,-105.938,31.6534,296.211
2014-05-05 00:00:00,2014-05-05 00:00:00,TMP,surface,-105,31.6534,295.264
2014-05-05 00:00:00,2014-05-05 00:00:00,TMP,surface,-104.063,31.6534,296
2014-05-05 00:00:00,2014-05-05 00:00:00,TMP,surface,-103.125,31.6534,297.315
2014-05-05 00:00:00,2014-05-05 00:00:00,TMP,surface,-102.188,31.6534,298.169
2014-05-05 00:00:00,2014-05-05 00:00:00,TMP,surface,-101.25,31.6534,298.422
2014-05-05 00:00:00,2014-05-05 00:00:00,TMP,surface,-100.313,31.6534,298.435
2014-05-05 00:00:00,2014-05-05 00:00:00,TMP,surface,-99.3754,31.6534,299.245
2014-05-05 00:00:00,2014-05-05 00:00:00,TMP,surface,-98.4379,31.6534,300.621
2014-05-05 00:00:00,2014-05-05 00:00:00,TMP,surface,-97.5004,31.6534,301.673
2014-05-05 00:00:00,2014-05-05 00:00:00,TMP,surface,-96.5629,31.6534,301.709
2014-05-05 00:00:00,2014-05-05 00:00:00,TMP,surface,-95.6254,31.6534,300.998
2014-05-05 00:00:00,2014-05-05 00:00:00,TMP,surface,-94.6879,31.6534,300.31
2014-05-05 00:00:00,2014-05-05 00:00:00,TMP,surface,-93.7504,31.6534,299.766
2014-05-05 00:00:00,2014-05-05 00:00:00,TMP,surface,-92.8129,31.6534,299.325
2014-05-05 00:00:00,2014-05-05 00:00:00,TMP,surface,-107.813,32.5983,293.993
2014-05-05 00:00:00,2014-05-05 00:00:00,TMP,surface,-106.875,32.5983,294.541
2014-05-05 00:00:00,2014-05-05 00:00:00,TMP,surface,-105.938,32.5983,294.928
2014-05-05 00:00:00,2014-05-05 00:00:00,TMP,surface,-105,32.5983,294.979
2014-05-05 00:00:00,2014-05-05 00:00:00,TMP,surface,-104.063,32.5983,296.297
2014-05-05 00:00:00,2014-05-05 00:00:00,TMP,surface,-103.125,32.5983,297.497
2014-05-05 00:00:00,2014-05-05 00:00:00,TMP,surface,-102.188,32.5983,297.475
2014-05-05 00:00:00,2014-05-05 00:00:00,TMP,surface,-101.25,32.5983,297.792
2014-05-05 00:00:00,2014-05-05 00:00:00,TMP,surface,-100.313,32.5983,298.826
2014-05-05 00:00:00,2014-05-05 00:00:00,TMP,surface,-99.3754,32.5983,300.221
2014-05-05 00:00:00,2014-05-05 00:00:00,TMP,surface,-98.4379,32.5983,301.155
2014-05-05 00:00:00,2014-05-05 00:00:00,TMP,surface,-97.5004,32.5983,301.67
2014-05-05 00:00:00,2014-05-05 00:00:00,TMP,surface,-96.5629,32.5983,301.645
2014-05-05 00:00:00,2014-05-05 00:00:00,TMP,surface,-95.6254,32.5983,301.062
2014-05-05 00:00:00,2014-05-05 00:00:00,TMP,surface,-94.6879,32.5983,300.477
2014-05-05 00:00:00,2014-05-05 00:00:00,TMP,surface,-93.7504,32.5983,299.942
2014-05-05 00:00:00,2014-05-05 00:00:00,TMP,surface,-92.8129,32.5983,299.613
2014-05-05 00:00:00,2014-05-05 00:00:00,TMP,surface,-107.813,33.5432,290.659
2014-05-05 00:00:00,2014-05-05 00:00:00,TMP,surface,-106.875,33.5432,292.153
2014-05-05 00:00:00,2014-05-05 00:00:00,TMP,surface,-105.938,33.5432,293.184
2014-05-05 00:00:00,2014-05-05 00:00:00,TMP,surface,-105,33.5432,294.269
2014-05-05 00:00:00,2014-05-05 00:00:00,TMP,surface,-104.063,33.5432,296.169
2014-05-05 00:00:00,2014-05-05 00:00:00,TMP,surface,-103.125,33.5432,296.902
2014-05-05 00:00:00,2014-05-05 00:00:00,TMP,surface,-102.188,33.5432,296.867
2014-05-05 00:00:00,2014-05-05 00:00:00,TMP,surface,-101.25,33.5432,297.193
2014-05-05 00:00:00,2014-05-05 00:00:00,TMP,surface,-100.313,33.5432,298.55
2014-05-05 00:00:00,2014-05-05 00:00:00,TMP,surface,-99.3754,33.5432,300.115
2014-05-05 00:00:00,2014-05-05 00:00:00,TMP,surface,-98.4379,33.5432,300.835
2014-05-05 00:00:00,2014-05-05 00:00:00,TMP,surface,-97.5004,33.5432,300.973
2014-05-05 00:00:00,2014-05-05 00:00:00,TMP,surface,-96.5629,33.5432,301.062
2014-05-05 00:00:00,2014-05-05 00:00:00,TMP,surface,-95.6254,33.5432,300.826
2014-05-05 00:00:00,2014-05-05 00:00:00,TMP,surface,-94.6879,33.5432,300.083
2014-05-05 00:00:00,2014-05-05 00:00:00,TMP,surface,-93.7504,33.5432,299.401
2014-05-05 00:00:00,2014-05-05 00:00:00,TMP,surface,-92.8129,33.5432,298.979
2014-05-05 00:00:00,2014-05-05 00:00:00,TMP,surface,-107.813,34.4881,289.609
2014-05-05 00:00:00,2014-05-05 00:00:00,TMP,surface,-106.875,34.4881,291.475
2014-05-05 00:00:00,2014-05-05 00:00:00,TMP,surface,-105.938,34.4881,292.534
2014-05-05 00:00:00,2014-05-05 00:00:00,TMP,surface,-105,34.4881,293.936
2014-05-05 00:00:00,2014-05-05 00:00:00,TMP,surface,-104.063,34.4881,295.056
2014-05-05 00:00:00,2014-05-05 00:00:00,TMP,surface,-103.125,34.4881,295.658
2014-05-05 00:00:00,2014-05-05 00:00:00,TMP,surface,-102.188,34.4881,295.638
2014-05-05 00:00:00,2014-05-05 00:00:00,TMP,surface,-101.25,34.4881,296.409
2014-05-05 00:00:00,2014-05-05 00:00:00,TMP,surface,-100.313,34.4881,297.501
2014-05-05 00:00:00,2014-05-05 00:00:00,TMP,surface,-99.3754,34.4881,298.461
2014-05-05 00:00:00,2014-05-05 00:00:00,TMP,surface,-98.4379,34.4881,299.117
2014-05-05 00:00:00,2014-05-05 00:00:00,TMP,surface,-97.5004,34.4881,299.411
2014-05-05 00:00:00,2014-05-05 00:00:00,TMP,surface,-96.5629,34.4881,299.587
2014-05-05 00:00:00,2014-05-05 00:00:00,TMP,surface,-95.6254,34.4881,299.485
2014-05-05 00:00:00,2014-05-05 00:00:00,TMP,surface,-94.6879,34.4881,298.656
2014-05-05 00:00:00,2014-05-05 00:00:00,TMP,surface,-93.7504,34.4881,297.67
2014-05-05 00:00:00,2014-05-05 00:00:00,TMP,surface,-92.8129,34.4881,297.443
2014-05-05 00:00:00,2014-05-05 00:00:00,TMP,surface,-107.813,35.4329,290.553
2014-05-05 00:00:00,2014-05-05 00:00:00,TMP,surface,-106.875,35.4329,290.793
2014-05-05 00:00:00,2014-05-05 00:00:00,TMP,surface,-105.938,35.4329,290.938
2014-05-05 00:00:00,2014-05-05 00:00:00,TMP,surface,-105,35.4329,291.712
2014-05-05 00:00:00,2014-05-05 00:00:00,TMP,surface,-104.063,35.4329,293.632
2014-05-05 00:00:00,2014-05-05 00:00:00,TMP,surface,-103.125,35.4329,294.873
2014-05-05 00:00:00,2014-05-05 00:00:00,TMP,surface,-102.188,35.4329,295.139
2014-05-05 00:00:00,2014-05-05 00:00:00,TMP,surface,-101.25,35.4329,295.533
2014-05-05 00:00:00,2014-05-05 00:00:00,TMP,surface,-100.313,35.4329,295.974
2014-05-05 00:00:00,2014-05-05 00:00:00,TMP,surface,-99.3754,35.4329,296.672
2014-05-05 00:00:00,2014-05-05 00:00:00,TMP,surface,-98.4379,35.4329,297.245
2014-05-05 00:00:00,2014-05-05 00:00:00,TMP,surface,-97.5004,35.4329,297.789
2014-05-05 00:00:00,2014-05-05 00:00:00,TMP,surface,-96.5629,35.4329,298.374
2014-05-05 00:00:00,2014-05-05 00:00:00,TMP,surface,-95.6254,35.4329,298.313
2014-05-05 00:00:00,2014-05-05 00:00:00,TMP,surface,-94.6879,35.4329,297.417
2014-05-05 00:00:00,2014-05-05 00:00:00,TMP,surface,-93.7504,35.4329,296.515
2014-05-05 00:00:00,2014-05-05 00:00:00,TMP,surface,-92.8129,35.4329,296.045
2014-05-05 00:00:00,2014-05-05 00:00:00,TMP,surface,-107.813,36.3778,290.089
2014-05-05 00:00:00,2014-05-05 00:00:00,TMP,surface,-106.875,36.3778,287.821
2014-05-05 00:00:00,2014-05-05 00:00:00,TMP,surface,-105.938,36.3778,288.313
2014-05-05 00:00:00,2014-05-05 00:00:00,TMP,surface,-105,36.3778,289.062
2014-05-05 00:00:00,2014-05-05 00:00:00,TMP,surface,-104.063,36.3778,291.385
2014-05-05 00:00:00,2014-05-05 00:00:00,TMP,surface,-103.125,36.3778,293.213
2014-05-05 00:00:00,2014-05-05 00:00:00,TMP,surface,-102.188,36.3778,294.425
2014-05-05 00:00:00,2014-05-05 00:00:00,TMP,surface,-101.25,36.3778,294.998
2014-05-05 00:00:00,2014-05-05 00:00:00,TMP,surface,-100.313,36.3778,295.529
2014-05-05 00:00:00,2014-05-05 00:00:00,TMP,surface,-99.3754,36.3778,296.08
2014-05-05 00:00:00,2014-05-05 00:00:00,TMP,surface,-98.4379,36.3778,296.342
2014-05-05 00:00:00,2014-05-05 00:00:00,TMP,surface,-97.5004,36.3778,296.602
2014-05-05 00:00:00,2014-05-05 00:00:00,TMP,surface,-96.5629,36.3778,297.094
2014-05-05 00:00:00,2014-05-05 00:00:00,TMP,surface,-95.6254,36.3778,297.286
2014-05-05 00:00:00,2014-05-05 00:00:00,TMP,surface,-94.6879,36.3778,296.643
2014-05-05 00:00:00,2014-05-05 00:00:00,TMP,surface,-93.7504,36.3778,295.648
2014-05-05 00:00:00,2014-05-05 00:00:00,TMP,surface,-92.8129,36.3778,295.174
2014-05-05 00:00:00,2014-05-05 00:00:00,PRATE,surface,-107.813,25.0393,3.51e-05
2014-05-05 00:00:00,2014-05-05 00:00:00,PRATE,surface,-106.875,25.0393,0.0001284
2014-05-05 00:00:00,2014-05-05 00:00:00,PRATE,surface,-105.938,25.0393,0.0001935
2014-05-05 00:00:00,2014-05-05 00:00:00,PRATE,surface,-105,25.0393,0.0001532
2014-05-05 00:00:00,2014-05-05 00:00:00,PRATE,surface,-104.063,25.0393,9.69e-05
2014-05-05 00:00:00,2014-05-05 00:00:00,PRATE,surface,-103.125,25.0393,2.15e-05
2014-05-05 00:00:00,2014-05-05 00:00:00,PRATE,surface,-102.188,25.0393,2.35e-05
2014-05-05 00:00:00,2014-05-05 00:00:00,PRATE,surface,-101.25,25.0393,4.45e-05
2014-05-05 00:00:00,2014-05-05 00:00:00,PRATE,surface,-100.313,25.0393,5.26e-05
2014-05-05 00:00:00,2014-05-05 00:00:00,PRATE,surface,-99.3754,25.0393,2.89e-05
2014-05-05 00:00:00,2014-05-05 00:00:00,PRATE,surface,-98.4379,25.0393,2.09e-05
2014-05-05 00:00:00,2014-05-05 00:00:00,PRATE,surface,-97.5004,25.0393,2.9e-05
2014-05-05 00:00:00,2014-05-05 00:00:00,PRATE,surface,-96.5629,25.0393,2.96e-05
2014-05-05 00:00:00,2014-05-05 00:00:00,PRATE,surface,-95.6254,25.0393,3.15e-05
2014-05-05 00:00:00,2014-05-05 00:00:00,PRATE,surface,-94.6879,25.0393,3.18e-05
2014-05-05 00:00:00,2014-05-05 00:00:00,PRATE,surface,-93.7504,25.0393,7.35e-05
2014-05-05 00:00:00,2014-05-05 00:00:00,PRATE,surface,-92.8129,25.0393,9.44e-05
2014-05-05 00:00:00,2014-05-05 00:00:00,PRATE,surface,-107.813,25.9842,7.34e-05
2014-05-05 00:00:00,2014-05-05 00:00:00,PRATE,surface,-106.875,25.9842,0.0001073
2014-05-05 00:00:00,2014-05-05 00:00:00,PRATE,surface,-105.938,25.9842,0.0001239
2014-05-05 00:00:00,2014-05-05 00:00:00,PRATE,surface,-105,25.9842,0.0001267
2014-05-05 00:00:00,2014-05-05 00:00:00,PRATE,surface,-104.063,25.9842,4.06e-05
2014-05-05 00:00:00,2014-05-05 00:00:00,PRATE,surface,-103.125,25.9842,1.44e-05
2014-05-05 00:00:00,2014-05-05 00:00:00,PRATE,surface,-102.188,25.9842,2.21e-05
2014-05-05 00:00:00,2014-05-05 00:00:00,PRATE,surface,-101.25,25.9842,2.9e-05
2014-05-05 00:00:00,2014-05-05 00:00:00,PRATE,surface,-100.313,25.9842,3.01e-05
2014-05-05 00:00:00,2014-05-05 00:00:00,PRATE,surface,-99.3754,25.9842,1.43e-05
2014-05-05 00:00:00,2014-05-05 00:00:00,PRATE,surface,-98.4379,25.9842,1.47e-05
2014-05-05 00:00:00,2014-05-05 00:00:00,PRATE,surface,-97.5004,25.9842,2.56e-05
2014-05-05 00:00:00,2014-05-05 00:00:00,PRATE,surface,-96.5629,25.9842,3.96e-05
2014-05-05 00:00:00,2014-05-05 00:00:00,PRATE,surface,-95.6254,25.9842,4.71e-05
2014-05-05 00:00:00,2014-05-05 00:00:00,PRATE,surface,-94.6879,25.9842,3.83e-05
2014-05-05 00:00:00,2014-05-05 00:00:00,PRATE,surface,-93.7504,25.9842,6.9e-05
2014-05-05 00:00:00,2014-05-05 00:00:00,PRATE,surface,-92.8129,25.9842,7.76e-05
2014-05-05 00:00:00,2014-05-05 00:00:00,PRATE,surface,-107.813,26.929,8.29e-05
2014-05-05 00:00:00,2014-05-05 00:00:00,PRATE,surface,-106.875,26.929,8.86e-05
2014-05-05 00:00:00,2014-05-05 00:00:00,PRATE,surface,-105.938,26.929,9.92e-05
2014-05-05 00:00:00,2014-05-05 00:00:00,PRATE,surface,-105,26.929,9.83e-05
2014-05-05 00:00:00,2014-05-05 00:00:00,PRATE,surface,-104.063,26.929,4.66e-05
2014-05-05 00:00:00,2014-05-05 00:00:00,PRATE,surface,-103.125,26.929,3.98e-05
2014-05-05 00:00:00,2014-05-05 00:00:00,PRATE,surface,-102.188,26.929,3.39e-05
2014-05-05 00:00:00,2014-05-05 00:00:00,PRATE,surface,-101.25,26.929,1.93e-05
2014-05-05 00:00:00,2014-05-05 00:00:00,PRATE,surface,-100.313,26.929,8.8e-06
2014-05-05 00:00:00,2014-05-05 00:00:00,PRATE,surface,-99.3754,26.929,6.8e-06
2014-05-05 00:00:00,2014-05-05 00:00:00,PRATE,surface,-98.4379,26.929,1.3e-05
2014-05-05 00:00:00,2014-05-05 00:00:00,PRATE,surface,-97.5004,26.929,3.3e-05
2014-05-05 00:00:00,2014-05-05 00:00:00,PRATE,surface,-96.5629,26.929,3.5e-05
2014-05-05 00:00:00,2014-05-05 00:00:00,PRATE,surface,-95.6254,26.929,3.75e-05
2014-05-05 00:00:00,2014-05-05 00:00:00,PRATE,surface,-94.6879,26.929,3.22e-05
2014-05-05 00:00:00,2014-05-05 00:00:00,PRATE,surface,-93.7504,26.929,4.68e-05
2014-05-05 00:00:00,2014-05-05 00:00:00,PRATE,surface,-92.8129,26.929,6.93e-05
2014-05-05 00:00:00,2014-05-05 00:00:00,PRATE,surface,-107.813,27.8739,0.0001001
2014-05-05 00:00:00,2014-05-05 00:00:00,PRATE,surface,-106.875,27.8739,9.32e-05
2014-05-05 00:00:00,2014-05-05 00:00:00,PRATE,surface,-105.938,27.8739,6.94e-05
2014-05-05 00:00:00,2014-05-05 00:00:00,PRATE,surface,-105,27.8739,4.57e-05
2014-05-05 00:00:00,2014-05-05 00:00:00,PRATE,surface,-104.063,27.8739,6.3e-05
2014-05-05 00:00:00,2014-05-05 00:00:00,PRATE,surface,-103.125,27.8739,6.57e-05
2014-05-05 00:00:00,2014-05-05 00:00:00,PRATE,surface,-102.188,27.8739,5.4e-05
2014-05-05 00:00:00,2014-05-05 00:00:00,PRATE,surface,-101.25,27.8739,1.83e-05
2014-05-05 00:00:00,2014-05-05 00:00:00,PRATE,surface,-100.313,27.8739,1.1e-05
2014-05-05 00:00:00,2014-05-05 00:00:00,PRATE,surface,-99.3754,27.8739,1.39e-05
2014-05-05 00:00:00,2014-05-05 00:00:00,PRATE,surface,-98.4379,27.8739,2.47e-05
2014-05-05 00:00:00,2014-05-05 00:00:00,PRATE,surface,-97.5004,27.8739,3.22e-05
2014-05-05 00:00:00,2014-05-05 00:00:00,PRATE,surface,-96.5629,27.8739,2.64e-05
2014-05-05 00:00:00,2014-05-05 00:00:00,PRATE,surface,-95.6254,27.8739,2.93e-05
2014-05-05 00:00:00,2014-05-05 00:00:00,PRATE,surface,-94.6879,27.8739,5.29e-05
2014-05-05 00:00:00,2014-05-05 00:00:00,PRATE,surface,-93.7504,27.8739,7.43e-05
2014-05-05 00:00:00,2014-05-05 00:00:00,PRATE,surface,-92.8129,27.8739,8.96e-05
2014-05-05 00:00:00,2014-05-05 00:00:00,PRATE,surface,-107.813,28.8188,9.94e-05
2014-05-05 00:00:00,2014-05-05 00:00:00,PRATE,surface,-106.875,28.8188,8.62e-05
2014-05-05 00:00:00,2014-05-05 00:00:00,PRATE,surface,-105.938,28.8188,5.03e-05
2014-05-05 00:00:00,2014-05-05 00:00:00,PRATE,surface,-105,28.8188,4.13e-05
2014-05-05 00:00:00,2014-05-05 00:00:00,PRATE,surface,-104.063,28.8188,8.37e-05
2014-05-05 00:00:00,2014-05-05 00:00:00,PRATE,surface,-103.125,28.8188,6.58e-05
2014-05-05 00:00:00,2014-05-05 00:00:00,PRATE,surface,-102.188,28.8188,3.62e-05
2014-05-05 00:00:00,2014-05-05 00:00:00,PRATE,surface,-101.25,28.8188,1.42e-05
2014-05-05 00:00:00,2014-05-05 00:00:00,PRATE,surface,-100.313,28.8188,1.62e-05
2014-05-05 00:00:00,2014-05-05 00:00:00,PRATE,surface,-99.3754,28.8188,3.6e-05
2014-05-05 00:00:00,2014-05-05 00:00:00,PRATE,surface,-98.4379,28.8188,4.68e-05
2014-05-05 00:00:00,2014-05-05 00:00:00,PRATE,surface,-97.5004,28.8188,3.88e-05
2014-05-05 00:00:00,2014-05-05 00:00:00,PRATE,surface,-96.5629,28.8188,3.04e-05
2014-05-05 00:00:00,2014-05-05 00:00:00,PRATE,surface,-95.6254,28.8188,3.72e-05
2014-05-05 00:00:00,2014-05-05 00:00:00,PRATE,surface,-94.6879,28.8188,5.39e-05
2014-05-05 00:00:00,2014-05-05 00:00:00,PRATE,surface,-93.7504,28.8188,6.59e-05
2014-05-05 00:00:00,2014-05-05 00:00:00,PRATE,surface,-92.8129,28.8188,6.41e-05
2014-05-05 00:00:00,2014-05-05 00:00:00,PRATE,surface,-107.813,29.7637,3.81e-05
2014-05-05 00:00:00,2014-05-05 00:00:00,PRATE,surface,-106.875,29.7637,4.42e-05
2014-05-05 00:00:00,2014-05-05 00:00:00,PRATE,surface,-105.938,29.7637,2.97e-05
2014-05-05 00:00:00,2014-05-05 00:00:00,PRATE,surface,-105,29.7637,4.68e-05
2014-05-05 00:00:00,2014-05-05 00:00:00,PRATE,surface,-104.063,29.7637,7.86e-05
2014-05-05 00:00:00,2014-05-05 00:00:00,PRATE,surface,-103.125,29.7637,5.33e-05
2014-05-05 00:00:00,2014-05-05 00:00:00,PRATE,surface,-102.188,29.7637,3.01e-05
2014-05-05 00:00:00,2014-05-05 00:00:00,PRATE,surface,-101.25,29.7637,1.84e-05
2014-05-05 00:00:00,2014-05-05 00:00:00,PRATE,surface,-100.313,29.7637,2.73e-05
2014-05-05 00:00:00,2014-05-05 00:00:00,PRATE,surface,-99.3754,29.7637,4.81e-05
2014-05-05 00:00:00,2014-05-05 00:00:00,PRATE,surface,-98.4379,29.7637,3.87e-05
2014-05-05 00:00:00,2014-05-05 00:00:00,PRATE,surface,-97.5004,29.7637,1.85e-05
2014-05-05 00:00:00,2014-05-05 00:00:00,PRATE,surface,-96.5629,29.7637,1.54e-05
2014-05-05 00:00:00,2014-05-05 00:00:00,PRATE,surface,-95.6254,29.7637,2.67e-05
2014-05-05 00:00:00,2014-05-05 00:00:00,PRATE,surface,-94.6879,29.7637,4.35e-05
2014-05-05 00:00:00,2014-05-05 00:00:00,PRATE,surface,-93.7504,29.7637,5.07e-05
2014-05-05 00:00:00,2014-05-05 00:00:00,PRATE,surface,-92.8129,29.7637,5.36e-05
2014-05-05 00:00:00,2014-05-05 00:00:00,PRATE,surface,-107.813,30.7085,3.1e-06
2014-05-05 00:00:00,2014-05-05 00:00:00,PRATE,surface,-106.875,30.7085,5.8e-06
2014-05-05 00:00:00,2014-05-05 00:00:00,PRATE,surface,-105.938,30.7085,1.17e-05
2014-05-05 00:00:00,2014-05-05 00:00:00,PRATE,surface,-105,30.7085,3.46e-05
2014-05-05 00:00:00,2014-05-05 00:00:00,PRATE,surface,-104.063,30.7085,5.09e-05
2014-05-05 00:00:00,2014-05-05 00:00:00,PRATE,surface,-103.125,30.7085,3.68e-05
2014-05-05 00:00:00,2014-05-05 00:00:00,PRATE,surface,-102.188,30.7085,2.29e-05
2014-05-05 00:00:00,2014-05-05 00:00:00,PRATE,surface,-101.25,30.7085,2.43e-05
2014-05-05 00:00:00,2014-05-05 00:00:00,PRATE,surface,-100.313,30.7085,3.61e-05
2014-05-05 00:00:00,2014-05-05 00:00:00,PRATE,surface,-99.3754,30.7085,4.08e-05
2014-05-05 00:00:00,2014-05-05 00:00:00,PRATE,surface,-98.4379,30.7085,2.04e-05
2014-05-05 00:00:00,2014-05-05 00:00:00,PRATE,surface,-97.5004,30.7085,4.3e-06
2014-05-05 00:00:00,2014-05-05 00:00:00,PRATE,surface,-96.5629,30.7085,8e-06
2014-05-05 00:00:00,2014-05-05 00:00:00,PRATE,surface,-95.6254,30.7085,1.74e-05
2014-05-05 00:00:00,2014-05-05 00:00:00,PRATE,surface,-94.6879,30.7085,2.6e-05
2014-05-05 00:00:00,2014-05-05 00:00:00,PRATE,surface,-93.7504,30.7085,2.87e-05
2014-05-05 00:00:00,2014-05-05 00:00:00,PRATE,surface,-92.8129,30.7085,3.11e-05
2014-05-05 00:00:00,2014-05-05 00:00:00,PRATE,surface,-107.813,31.6534,1.3e-06
2014-05-05 00:00:00,2014-05-05 00:00:00,PRATE,surface,-106.875,31.6534,1.3e-06
2014-05-05 00:00:00,2014-05-05 00:00:00,PRATE,surface,-105.938,31.6534,4.7e-06
2014-05-05 00:00:00,2014-05-05 00:00:00,PRATE,surface,-105,31.6534,2e-05
2014-05-05 00:00:00,2014-05-05 00:00:00,PRATE,surface,-104.063,31.6534,2.53e-05
2014-05-05 00:00:00,2014-05-05 00:00:00,PRATE,surface,-103.125,31.6534,2.34e-05
2014-05-05 00:00:00,2014-05-05 00:00:00,PRATE,surface,-102.188,31.6534,2.25e-05
2014-05-05 00:00:00,2014-05-05 00:00:00,PRATE,surface,-101.25,31.6534,2.05e-05
2014-05-05 00:00:00,2014-05-05 00:00:00,PRATE,surface,-100.313,31.6534,3.02e-05
2014-05-05 00:00:00,2014-05-05 00:00:00,PRATE,surface,-99.3754,31.6534,2.57e-05
2014-05-05 00:00:00,2014-05-05 00:00:00,PRATE,surface,-98.4379,31.6534,1.21e-05
2014-05-05 00:00:00,2014-05-05 00:00:00,PRATE,surface,-97.5004,31.6534,5.7e-06
2014-05-05 00:00:00,2014-05-05 00:00:00,PRATE,surface,-96.5629,31.6534,8.4e-06
2014-05-05 00:00:00,2014-05-05 00:00:00,PRATE,surface,-95.6254,31.6534,1.27e-05
2014-05-05 00:00:00,2014-05-05 00:00:00,PRATE,surface,-94.6879,31.6534,1.31e-05
2014-05-05 00:00:00,2014-05-05 00:00:00,PRATE,surface,-93.7504,31.6534,1.48e-05
2014-05-05 00:00:00,2014-05-05 00:00:00,PRATE,surface,-92.8129,31.6534,2.25e-05
2014-05-05 00:00:00,2014-05-05 00:00:00,PRATE,surface,-107.813,32.5983,3.1e-06
2014-05-05 00:00:00,2014-05-05 00:00:00,PRATE,surface,-106.875,32.5983,1.8e-06
2014-05-05 00:00:00,2014-05-05 00:00:00,PRATE,surface,-105.938,32.5983,3.4e-06
2014-05-05 00:00:00,2014-05-05 00:00:00,PRATE,surface,-105,32.5983,8.6e-06
2014-05-05 00:00:00,2014-05-05 00:00:00,PRATE,surface,-104.063,32.5983,1.34e-05
2014-05-05 00:00:00,2014-05-05 00:00:00,PRATE,surface,-103.125,32.5983,1.19e-05
2014-05-05 00:00:00,2014-05-05 00:00:00,PRATE,surface,-102.188,32.5983,2.13e-05
2014-05-05 00:00:00,2014-05-05 00:00:00,PRATE,surface,-101.25,32.5983,2.88e-05
2014-05-05 00:00:00,2014-05-05 00:00:00,PRATE,surface,-100.313,32.5983,2.47e-05
2014-05-05 00:00:00,2014-05-05 00:00:00,PRATE,surface,-99.3754,32.5983,1.43e-05
2014-05-05 00:00:00,2014-05-05 00:00:00,PRATE,surface,-98.4379,32.5983,1e-05
2014-05-05 00:00:00,2014-05-05 00:00:00,PRATE,surface,-97.5004,32.5983,6.6e-06
2014-05-05 00:00:00,2014-05-05 00:00:00,PRATE,surface,-96.5629,32.5983,5.3e-06
2014-05-05 00:00:00,2014-05-05 00:00:00,PRATE,surface,-95.6254,32.5983,8.7e-06
2014-05-05 00:00:00,2014-05-05 00:00:00,PRATE,surface,-94.6879,32.5983,9.9e-06
2014-05-05 00:00:00,2014-05-05 00:00:00,PRATE,surface,-93.7504,32.5983,1.38e-05
2014-05-05 00:00:00,2014-05-05 00:00:00,PRATE,surface,-92.8129,32.5983,2.24e-05
2014-05-05 00:00:00,2014-05-05 00:00:00,PRATE,surface,-107.813,33.5432,1.27e-05
2014-05-05 00:00:00,2014-05-05 00:00:00,PRATE,surface,-106.875,33.5432,5e-06
2014-05-05 00:00:00,2014-05-05 00:00:00,PRATE,surface,-105.938,33.5432,3e-06
2014-05-05 00:00:00,2014-05-05 00:00:00,PRATE,surface,-105,33.5432,6.4e-06
2014-05-05 00:00:00,2014-05-05 00:00:00,PRATE,surface,-104.063,33.5432,6.6e-06
2014-05-05 00:00:00,2014-05-05 00:00:00,PRATE,surface,-103.125,33.5432,7.9e-06
2014-05-05 00:00:00,2014-05-05 00:00:00,PRATE,surface,-102.188,33.5432,1.43e-05
2014-05-05 00:00:00,2014-05-05 00:00:00,PRATE,surface,-101.25,33.5432,2.39e-05
2014-05-05 00:00:00,2014-05-05 00:00:00,PRATE,surface,-100.313,33.5432,2.47e-05
2014-05-05 00:00:00,2014-05-05 00:00:00,PRATE,surface,-99.3754,33.5432,1.72e-05
2014-05-05 00:00:00,2014-05-05 00:00:00,PRATE,surface,-98.4379,33.5432,1.35e-05
2014-05-05 00:00:00,2014-05-05 00:00:00,PRATE,surface,-97.5004,33.5432,1.36e-05
2014-05-05 00:00:00,2014-05-05 00:00:00,PRATE,surface,-96.5629,33.5432,1.16e-05
2014-05-05 00:00:00,2014-05-05 00:00:00,PRATE,surface,-95.6254,33.5432,8.2e-06
2014-05-05 00:00:00,2014-05-05 00:00:00,PRATE,surface,-94.6879,33.5432,8.1e-06
2014-05-05 00:00:00,2014-05-05 00:00:00,PRATE,surface,-93.7504,33.5432,1.35e-05
2014-05-05 00:00:00,2014-05-05 00:00:00,PRATE,surface,-92.8129,33.5432,1.78e-05
2014-05-05 00:00:00,2014-05-05 00:00:00,PRATE,surface,-107.813,34.4881,8e-06
2014-05-05 00:00:00,2014-05-05 00:00:00,PRATE,surface,-106.875,34.4881,2.1e-06
2014-05-05 00:00:00,2014-05-05 00:00:00,PRATE,surface,-105.938,34.4881,1.1e-06
2014-05-05 00:00:00,2014-05-05 00:00:00,PRATE,surface,-105,34.4881,5.4e-06
2014-05-05 00:00:00,2014-05-05 00:00:00,PRATE,surface,-104.063,34.4881,4.8e-06
2014-05-05 00:00:00,2014-05-05 00:00:00,PRATE,surface,-103.125,34.4881,6e-06
2014-05-05 00:00:00,2014-05-05 00:00:00,PRATE,surface,-102.188,34.4881,1.22e-05
2014-05-05 00:00:00,2014-05-05 00:00:00,PRATE,surface,-101.25,34.4881,1.47e-05
2014-05-05 00:00:00,2014-05-05 00:00:00,PRATE,surface,-100.313,34.4881,2.22e-05
2014-05-05 00:00:00,2014-05-05 00:00:00,PRATE,surface,-99.3754,34.4881,2.74e-05
2014-05-05 00:00:00,2014-05-05 00:00:00,PRATE,surface,-98.4379,34.4881,2.34e-05
2014-05-05 00:00:00,2014-05-05 00:00:00,PRATE,surface,-97.5004,34.4881,2.04e-05
2014-05-05 00:00:00,2014-05-05 00:00:00,PRATE,surface,-96.5629,34.4881,1.7e-05
2014-05-05 00:00:00,2014-05-05 00:00:00,PRATE,surface,-95.6254,34.4881,1.02e-05
2014-05-05 00:00:00,2014-05-05 00:00:00,PRATE,surface,-94.6879,34.4881,9e-06
2014-05-05 00:00:00,2014-05-05 00:00:00,PRATE,surface,-93.7504,34.4881,1.14e-05
2014-05-05 00:00:00,2014-05-05 00:00:00,PRATE,surface,-92.8129,34.4881,1.44e-05
2014-05-05 00:00:00,2014-05-05 00:00:00,PRATE,surface,-107.813,35.4329,8e-07
2014-05-05 00:00:00,2014-05-05 00:00:00,PRATE,surface,-106.875,35.4329,1.7e-06
2014-05-05 00:00:00,2014-05-05 00:00:00,PRATE,surface,-105.938,35.4329,3.6e-06
2014-05-05 00:00:00,2014-05-05 00:00:00,PRATE,surface,-105,35.4329,1.01e-05
2014-05-05 00:00:00,2014-05-05 00:00:00,PRATE,surface,-104.063,35.4329,1.23e-05
2014-05-05 00:00:00,2014-05-05 00:00:00,PRATE,surface,-103.125,35.4329,1.17e-05
2014-05-05 00:00:00,2014-05-05 00:00:00,PRATE,surface,-102.188,35.4329,1.15e-05
2014-05-05 00:00:00,2014-05-05 00:00:00,PRATE,surface,-101.25,35.4329,1.39e-05
2014-05-05 00:00:00,2014-05-05 00:00:00,PRATE,surface,-100.313,35.4329,2.11e-05
2014-05-05 00:00:00,2014-05-05 00:00:00,PRATE,surface,-99.3754,35.4329,3.29e-05
2014-05-05 00:00:00,2014-05-05 00:00:00,PRATE,surface,-98.4379,35.4329,4.11e-05
2014-05-05 00:00:00,2014-05-05 00:00:00,PRATE,surface,-97.5004,35.4329,3.47e-05
2014-05-05 00:00:00,2014-05-05 00:00:00,PRATE,surface,-96.5629,35.4329,2.35e-05
2014-05-05 00:00:00,2014-05-05 00:00:00,PRATE,surface,-95.6254,35.4329,1.98e-05
2014-05-05 00:00:00,2014-05-05 00:00:00,PRATE,surface,-94.6879,35.4329,1.68e-05
2014-05-05 00:00:00,2014-05-05 00:00:00,PRATE,surface,-93.7504,35.4329,1.37e-05
2014-05-05 00:00:00,2014-05-05 00:00:00,PRATE,surface,-92.8129,35.4329,1.94e-05
2014-05-05 00:00:00,2014-05-05 00:00:00,PRATE,surface,-107.813,36.3778,2.1e-06
2014-05-05 00:00:00,2014-05-05 00:00:00,PRATE,surface,-106.875,36.3778,3.2e-06
2014-05-05 00:00:00,2014-05-05 00:00:00,PRATE,surface,-105.938,36.3778,5.3e-06
2014-05-05 00:00:00,2014-05-05 00:00:00,PRATE,surface,-105,36.3778,9.8e-06
2014-05-05 00:00:00,2014-05-05 00:00:00,PRATE,surface,-104.063,36.3778,1.29e-05
2014-05-05 00:00:00,2014-05-05 00:00:00,PRATE,surface,-103.125,36.3778,1.05e-05
2014-05-05 00:00:00,2014-05-05 00:00:00,PRATE,surface,-102.188,36.3778,1.09e-05
2014-05-05 00:00:00,2014-05-05 00:00:00,PRATE,surface,-101.25,36.3778,1.53e-05
2014-05-05 00:00:00,2014-05-05 00:00:00,PRATE,surface,-100.313,36.3778,2.37e-05
2014-05-05 00:00:00,2014-05-05 00:00:00,PRATE,surface,-99.3754,36.3778,2.87e-05
2014-05-05 00:00:00,2014-05-05 00:00:00,PRATE,surface,-98.4379,36.3778,4.49e-05
2014-05-05 00:00:00,2014-05-05 00:00:00,PRATE,surface,-97.5004,36.3778,5.69e-05
2014-05-05 00:00:00,2014-05-05 00:00:00,PRATE,surface,-96.5629,36.3778,4.61e-05
2014-05-05 00:00:00,2014-05-05 00:00:00,PRATE,surface,-95.6254,36.3778,3e-05
2014-05-05 00:00:00,2014-05-05 00:00:00,PRATE,surface,-94.6879,36.3778,2.61e-05
2014-05-05 00:00:00,2014-05-05 00:00:00,PRATE,surface,-93.7504,36.3778,2.53e-05
2014-05-05 00:00:00,2014-05-05 00:00:00,PRATE,surface,-92.8129,36.3778,2.59e-05
