2013-08-25 00:00:00,2013-08-25 00:00:00,TMP,surface,-107.813,25.0393,293.358
2013-08-25 00:00:00,2013-08-25 00:00:00,TMP,surface,-106.875,25.0393,288.102
2013-08-25 00:00:00,2013-08-25 00:00:00,TMP,surface,-105.938,25.0393,282.923
2013-08-25 00:00:00,2013-08-25 00:00:00,TMP,surface,-105,25.0393,283.433
2013-08-25 00:00:00,2013-08-25 00:00:00,TMP,surface,-104.063,25.0393,287.779
2013-08-25 00:00:00,2013-08-25 00:00:00,TMP,surface,-103.125,25.0393,289.83
2013-08-25 00:00:00,2013-08-25 00:00:00,TMP,surface,-102.188,25.0393,289.055
2013-08-25 00:00:00,2013-08-25 00:00:00,TMP,surface,-101.25,25.0393,287.769
2013-08-25 00:00:00,2013-08-25 00:00:00,TMP,surface,-100.313,25.0393,288.15
2013-08-25 00:00:00,2013-08-25 00:00:00,TMP,surface,-99.3754,25.0393,290.687
2013-08-25 00:00:00,2013-08-25 00:00:00,TMP,surface,-98.4379,25.0393,293.596
2013-08-25 00:00:00,2013-08-25 00:00:00,TMP,surface,-97.5004,25.0393,293.764
2013-08-25 00:00:00,2013-08-25 00:00:00,TMP,surface,-96.5629,25.0393,294.044
2013-08-25 00:00:00,2013-08-25 00:00:00,TMP,surface,-95.6254,25.0393,294.623
2013-08-25 00:00:00,2013-08-25 00:00:00,TMP,surface,-94.6879,25.0393,294.991
2013-08-25 00:00:00,2013-08-25 00:00:00,TMP,surface,-93.7504,25.0393,295.183
2013-08-25 00:00:00,2013-08-25 00:00:00,TMP,surface,-92.8129,25.0393,295.038
2013-08-25 00:00:00,2013-08-25 00:00:00,TMP,surface,-107.813,25.9842,289.47
2013-08-25 00:00:00,2013-08-25 00:00:00,TMP,surface,-106.875,25.9842,283.873
2013-08-25 00:00:00,2013-08-25 00:00:00,TMP,surface,-105.938,25.9842,282.367
2013-08-25 00:00:00,2013-08-25 00:00:00,TMP,surface,-105,25.9842,286.331
2013-08-25 00:00:00,2013-08-25 00:00:00,TMP,surface,-104.063,25.9842,290.556
2013-08-25 00:00:00,2013-08-25 00:00:00,TMP,surface,-103.125,25.9842,291.454
2013-08-25 00:00:00,2013-08-25 00:00:00,TMP,surface,-102.188,25.9842,290.755
2013-08-25 00:00:00,2013-08-25 00:00:00,TMP,surface,-101.25,25.9842,289.572
2013-08-25 00:00:00,2013-08-25 00:00:00,TMP,surface,-100.313,25.9842,289.87
2013-08-25 00:00:00,2013-08-25 00:00:00,TMP,surface,-99.3754,25.9842,292.206
2013-08-25 00:00:00,2013-08-25 00:00:00,TMP,surface,-98.4379,25.9842,293.145
2013-08-25 00:00:00,2013-08-25 00:00:00,TMP,surface,-97.5004,25.9842,293.052
2013-08-25 00:00:00,2013-08-25 00:00:00,TMP,surface,-96.5629,25.9842,292.835
2013-08-25 00:00:00,2013-08-25 00:00:00,TMP,surface,-95.6254,25.9842,293.702
2013-08-25 00:00:00,2013-08-25 00:00:00,TMP,surface,-94.6879,25.9842,294.187
2013-08-25 00:00:00,2013-08-25 00:00:00,TMP,surface,-93.7504,25.9842,294.575
2013-08-25 00:00:00,2013-08-25 00:00:00,TMP,surface,-92.8129,25.9842,294.721
2013-08-25 00:00:00,2013-08-25 00:00:00,TMP,surface,-107.813,26.929,284.636
2013-08-25 00:00:00,2013-08-25 00:00:00,TMP,surface,-106.875,26.929,281.593
2013-08-25 00:00:00,2013-08-25 00:00:00,TMP,surface,-105.938,26.929,284.548
2013-08-25 00:00:00,2013-08-25 00:00:00,TMP,surface,-105,26.929,289.075
2013-08-25 00:00:00,2013-08-25 00:00:00,TMP,surface,-104.063,26.929,290.564
2013-08-25 00:00:00,2013-08-25 00:00:00,TMP,surface,-103.125,26.929,290.126
2013-08-25 00:00:00,2013-08-25 00:00:00,TMP,surface,-102.188,26.929,289.623
2013-08-25 00:00:00,2013-08-25 00:00:00,TMP,surface,-101.25,26.929,290.089
2013-08-25 00:00:00,2013-08-25 00:00:00,TMP,surface,-100.313,26.929,290.859
2013-08-25 00:00:00,2013-08-25 00:00:00,TMP,surface,-99.3754,26.929,291.511
2013-08-25 00:00:00,2013-08-25 00:00:00,TMP,surface,-98.4379,26.929,291.083
2013-08-25 00:00:00,2013-08-25 00:00:00,TMP,surface,-97.5004,26.929,291.74
2013-08-25 00:00:00,2013-08-25 00:00:00,TMP,surface,-96.5629,26.929,291.825
2013-08-25 00:00:00,2013-08-25 00:00:00,TMP,surface,-95.6254,26.929,292.391
2013-08-25 00:00:00,2013-08-25 00:00:00,TMP,surface,-94.6879,26.929,293.033
2013-08-25 00:00:00,2013-08-25 00:00:00,TMP,surface,-93.7504,26.929,293.615
2013-08-25 00:00:00,2013-08-25 00:00:00,TMP,surface,-92.8129,26.929,293.947
2013-08-25 00:00:00,2013-08-25 00:00:00,TMP,surface,-107.813,27.8739,281.807
2013-08-25 00:00:00,2013-08-25 00:00:00,TMP,surface,-106.875,27.8739,281.751
2013-08-25 00:00:00,2013-08-25 00:00:00,TMP,surface,-105.938,27.8739,286.459
2013-08-25 00:00:00,2013-08-25 00:00:00,TMP,surface,-105,27.8739,289.406
2013-08-25 00:00:00,2013-08-25 00:00:00,TMP,surface,-104.063,27.8739,289.321
2013-08-25 00:00:00,2013-08-25 00:00:00,TMP,surface,-103.125,27.8739,288.515
2013-08-25 00:00:00,2013-08-25 00:00:00,TMP,surface,-102.188,27.8739,288.326
2013-08-25 00:00:00,2013-08-25 00:00:00,TMP,surface,-101.25,27.8739,289.171
2013-08-25 00:00:00,2013-08-25 00:00:00,TMP,surface,-100.313,27.8739,289.729
2013-08-25 00:00:00,2013-08-25 00:00:00,TMP,surface,-99.3754,27.8739,289.457
2013-08-25 00:00:00,2013-08-25 00:00:00,TMP,surface,-98.4379,27.8739,289.081
2013-08-25 00:00:00,2013-08-25 00:00:00,TMP,surface,-97.5004,27.8739,290.353
2013-08-25 00:00:00,2013-08-25 00:00:00,TMP,surface,-96.5629,27.8739,291.857
2013-08-25 00:00:00,2013-08-25 00:00:00,TMP,surface,-95.6254,27.8739,292.057
2013-08-25 00:00:00,2013-08-25 00:00:00,TMP,surface,-94.6879,27.8739,292.222
2013-08-25 00:00:00,2013-08-25 00:00:00,TMP,surface,-93.7504,27.8739,292.531
2013-08-25 00:00:00,2013-08-25 00:00:00,TMP,surface,-92.8129,27.8739,292.772
2013-08-25 00:00:00,2013-08-25 00:00:00,TMP,surface,-107.813,28.8188,280.756
2013-08-25 00:00:00,2013-08-25 00:00:00,TMP,surface,-106.875,28.8188,282.782
2013-08-25 00:00:00,2013-08-25 00:00:00,TMP,surface,-105.938,28.8188,286.902
2013-08-25 00:00:00,2013-08-25 00:00:00,TMP,surface,-105,28.8188,288.684
2013-08-25 00:00:00,2013-08-25 00:00:00,TMP,surface,-104.063,28.8188,288.099
2013-08-25 00:00:00,2013-08-25 00:00:00,TMP,surface,-103.125,28.8188,287.572
2013-08-25 00:00:00,2013-08-25 00:00:00,TMP,surface,-102.188,28.8188,287.692
2013-08-25 00:00:00,2013-08-25 00:00:00,TMP,surface,-101.25,28.8188,288.283
2013-08-25 00:00:00,2013-08-25 00:00:00,TMP,surface,-100.313,28.8188,287.921
2013-08-25 00:00:00,2013-08-25 00:00:00,TMP,surface,-99.3754,28.8188,287.239
2013-08-25 00:00:00,2013-08-25 00:00:00,TMP,surface,-98.4379,28.8188,287.121
2013-08-25 00:00:00,2013-08-25 00:00:00,TMP,surface,-97.5004,28.8188,287.62
2013-08-25 00:00:00,2013-08-25 00:00:00,TMP,surface,-96.5629,28.8188,288.239
2013-08-25 00:00:00,2013-08-25 00:00:00,TMP,surface,-95.6254,28.8188,289.665
2013-08-25 00:00:00,2013-08-25 00:00:00,TMP,surface,-94.6879,28.8188,291.579
2013-08-25 00:00:00,2013-08-25 00:00:00,TMP,surface,-93.7504,28.8188,291.678
2013-08-25 00:00:00,2013-08-25 00:00:00,TMP,surface,-92.8129,28.8188,291.775
2013-08-25 00:00:00,2013-08-25 00:00:00,TMP,surface,-107.813,29.7637,282.39
2013-08-25 00:00:00,2013-08-25 00:00:00,TMP,surface,-106.875,29.7637,284.391
2013-08-25 00:00:00,2013-08-25 00:00:00,TMP,surface,-105.938,29.7637,286.795
2013-08-25 00:00:00,2013-08-25 00:00:00,TMP,surface,-105,29.7637,287.076
2013-08-25 00:00:00,2013-08-25 00:00:00,TMP,surface,-104.063,29.7637,287.126
2013-08-25 00:00:00,2013-08-25 00:00:00,TMP,surface,-103.125,29.7637,287.582
2013-08-25 00:00:00,2013-08-25 00:00:00,TMP,surface,-102.188,29.7637,287.94
2013-08-25 00:00:00,2013-08-25 00:00:00,TMP,surface,-101.25,29.7637,287.377
2013-08-25 00:00:00,2013-08-25 00:00:00,TMP,surface,-100.313,29.7637,286.153
2013-08-25 00:00:00,2013-08-25 00:00:00,TMP,surface,-99.3754,29.7637,285.375
2013-08-25 00:00:00,2013-08-25 00:00:00,TMP,surface,-98.4379,29.7637,285.404
2013-08-25 00:00:00,2013-08-25 00:00:00,TMP,surface,-97.5004,29.7637,285.875
2013-08-25 00:00:00,2013-08-25 00:00:00,TMP,surface,-96.5629,29.7637,286.371
2013-08-25 00:00:00,2013-08-25 00:00:00,TMP,surface,-95.6254,29.7637,286.923
2013-08-25 00:00:00,2013-08-25 00:00:00,TMP,surface,-94.6879,29.7637,288.711
2013-08-25 00:00:00,2013-08-25 00:00:00,TMP,surface,-93.7504,29.7637,290.691
2013-08-25 00:00:00,2013-08-25 00:00:00,TMP,surface,-92.8129,29.7637,287.982
2013-08-25 00:00:00,2013-08-25 00:00:00,TMP,surface,-107.813,30.7085,284.807
2013-08-25 00:00:00,2013-08-25 00:00:00,TMP,surface,-106.875,30.7085,286.081
2013-08-25 00:00:00,2013-08-25 00:00:00,TMP,surface,-105.938,30.7085,286.38
2013-08-25 00:00:00,2013-08-25 00:00:00,TMP,surface,-105,30.7085,285.863
2013-08-25 00:00:00,2013-08-25 00:00:00,TMP,surface,-104.063,30.7085,286.011
2013-08-25 00:00:00,2013-08-25 00:00:00,TMP,surface,-103.125,30.7085,287.262
2013-08-25 00:00:00,2013-08-25 00:00:00,TMP,surface,-102.188,30.7085,287.347
2013-08-25 00:00:00,2013-08-25 00:00:00,TMP,surface,-101.25,30.7085,286.134
2013-08-25 00:00:00,2013-08-25 00:00:00,TMP,surface,-100.313,30.7085,284.82
2013-08-25 00:00:00,2013-08-25 00:00:00,TMP,surface,-99.3754,30.7085,284.297
2013-08-25 00:00:00,2013-08-25 00:00:00,TMP,surface,-98.4379,30.7085,284.503
2013-08-25 00:00:00,2013-08-25 00:00:00,TMP,surface,-97.5004,30.7085,284.956
2013-08-25 00:00:00,2013-08-25 00:00:00,TMP,surface,-96.5629,30.7085,285.491
2013-08-25 00:00:00,2013-08-25 00:00:00,TMP,surface,-95.6254,30.7085,285.963
2013-08-25 00:00:00,2013-08-25 00:00:00,TMP,surface,-94.6879,30.7085,286.139
2013-08-25 00:00:00,2013-08-25 00:00:00,TMP,surface,-93.7504,30.7085,286.067
2013-08-25 00:00:00,2013-08-25 00:00:00,TMP,surface,-92.8129,30.7085,285.585
2013-08-25 00:00:00,2013-08-25 00:00:00,TMP,surface,-107.813,31.6534,284.953
2013-08-25 00:00:00,2013-08-25 00:00:00,TMP,surface,-106.875,31.6534,285.739
2013-08-25 00:00:00,2013-08-25 00:00:00,TMP,surface,-105.938,31.6534,285.334
2013-08-25 00:00:00,2013-08-25 00:00:00,TMP,surface,-105,31.6534,284.841
2013-08-25 00:00:00,2013-08-25 00:00:00,TMP,surface,-104.063,31.6534,285.54
2013-08-25 00:00:00,2013-08-25 00:00:00,TMP,surface,-103.125,31.6534,286.601
2013-08-25 00:00:00,2013-08-25 00:00:00,TMP,surface,-102.188,31.6534,286.303
2013-08-25 00:00:00,2013-08-25 00:00:00,TMP,surface,-101.25,31.6534,285.142
2013-08-25 00:00:00,2013-08-25 00:00:00,TMP,surface,-100.313,31.6534,284.209
2013-08-25 00:00:00,2013-08-25 00:00:00,TMP,surface,-99.3754,31.6534,283.943
2013-08-25 00:00:00,2013-08-25 00:00:00,TMP,surface,-98.4379,31.6534,284.103
2013-08-25 00:00:00,2013-08-25 00:00:00,TMP,surface,-97.5004,31.6534,284.377
2013-08-25 00:00:00,2013-08-25 00:00:00,TMP,surface,-96.5629,31.6534,284.767
2013-08-25 00:00:00,2013-08-25 00:00:00,TMP,surface,-95.6254,31.6534,285.041
2013-08-25 00:00:00,2013-08-25 00:00:00,TMP,surface,-94.6879,31.6534,284.871
2013-08-25 00:00:00,2013-08-25 00:00:00,TMP,surface,-93.7504,31.6534,284.587
2013-08-25 00:00:00,2013-08-25 00:00:00,TMP,surface,-92.8129,31.6534,284.363
2013-08-25 00:00:00,2013-08-25 00:00:00,TMP,surface,-107.813,32.5983,281.819
2013-08-25 00:00:00,2013-08-25 00:00:00,TMP,surface,-106.875,32.5983,282.601
2013-08-25 00:00:00,2013-08-25 00:00:00,TMP,surface,-105.938,32.5983,283.027
2013-08-25 00:00:00,2013-08-25 00:00:00,TMP,surface,-105,32.5983,283.497
2013-08-25 00:00:00,2013-08-25 00:00:00,TMP,surface,-104.063,32.5983,284.916
2013-08-25 00:00:00,2013-08-25 00:00:00,TMP,surface,-103.125,32.5983,285.596
2013-08-25 00:00:00,2013-08-25 00:00:00,TMP,surface,-102.188,32.5983,284.891
2013-08-25 00:00:00,2013-08-25 00:00:00,TMP,surface,-101.25,32.5983,284.095
2013-08-25 00:00:00,2013-08-25 00:00:00,TMP,surface,-100.313,32.5983,283.887
2013-08-25 00:00:00,2013-08-25 00:00:00,TMP,surface,-99.3754,32.5983,284.03
2013-08-25 00:00:00,2013-08-25 00:00:00,TMP,surface,-98.4379,32.5983,284.086
2013-08-25 00:00:00,2013-08-25 00:00:00,TMP,surface,-97.5004,32.5983,284.012
2013-08-25 00:00:00,2013-08-25 00:00:00,TMP,surface,-96.5629,32.5983,284.051
2013-08-25 00:00:00,2013-08-25 00:00:00,TMP,surface,-95.6254,32.5983,284.121
2013-08-25 00:00:00,2013-08-25 00:00:00,TMP,surface,-94.6879,32.5983,283.913
2013-08-25 00:00:00,2013-08-25 00:00:00,TMP,surface,-93.7504,32.5983,283.611
2013-08-25 00:00:00,2013-08-25 00:00:00,TMP,surface,-92.8129,32.5983,283.587
2013-08-25 00:00:00,2013-08-25 00:00:00,TMP,surface,-107.813,33.5432,277.947
2013-08-25 00:00:00,2013-08-25 00:00:00,TMP,surface,-106.875,33.5432,279.436
2013-08-25 00:00:00,2013-08-25 00:00:00,TMP,surface,-105.938,33.5432,280.609
2013-08-25 00:00:00,2013-08-25 00:00:00,TMP,surface,-105,33.5432,281.979
2013-08-25 00:00:00,2013-08-25 00:00:00,TMP,surface,-104.063,33.5432,283.579
2013-08-25 00:00:00,2013-08-25 00:00:00,TMP,surface,-103.125,33.5432,283.734
2013-08-25 00:00:00,2013-08-25 00:00:00,TMP,surface,-102.188,33.5432,282.98
2013-08-25 00:00:00,2013-08-25 00:00:00,TMP,surface,-101.25,33.5432,282.559
2013-08-25 00:00:00,2013-08-25 00:00:00,TMP,surface,-100.313,33.5432,282.91
2013-08-25 00:00:00,2013-08-25 00:00:00,TMP,surface,-99.3754,33.5432,283.267
2013-08-25 00:00:00,2013-08-25 00:00:00,TMP,surface,-98.4379,33.5432,283.305
2013-08-25 00:00:00,2013-08-25 00:00:00,TMP,surface,-97.5004,33.5432,283.119
2013-08-25 00:00:00,2013-08-25 00:00:00,TMP,surface,-96.5629,33.5432,283.044
2013-08-25 00:00:00,2013-08-25 00:00:00,TMP,surface,-95.6254,33.5432,283.139
2013-08-25 00:00:00,2013-08-25 00:00:00,TMP,surface,-94.6879,33.5432,283.007
2013-08-25 00:00:00,2013-08-25 00:00:00,TMP,surface,-93.7504,33.5432,282.625
2013-08-25 00:00:00,2013-08-25 00:00:00,TMP,surface,-92.8129,33.5432,282.491
2013-08-25 00:00:00,2013-08-25 00:00:00,TMP,surface,-107.813,34.4881,276.347
2013-08-25 00:00:00,2013-08-25 00:00:00,TMP,surface,-106.875,34.4881,277.934
2013-08-25 00:00:00,2013-08-25 00:00:00,TMP,surface,-105.938,34.4881,279.126
2013-08-25 00:00:00,2013-08-25 00:00:00,TMP,surface,-105,34.4881,280.471
2013-08-25 00:00:00,2013-08-25 00:00:00,TMP,surface,-104.063,34.4881,281.403
2013-08-25 00:00:00,2013-08-25 00:00:00,TMP,surface,-103.125,34.4881,281.508
2013-08-25 00:00:00,2013-08-25 00:00:00,TMP,surface,-102.188,34.4881,281.087
2013-08-25 00:00:00,2013-08-25 00:00:00,TMP,surface,-101.25,34.4881,281.015
2013-08-25 00:00:00,2013-08-25 00:00:00,TMP,surface,-100.313,34.4881,281.473
2013-08-25 00:00:00,2013-08-25 00:00:00,TMP,surface,-99.3754,34.4881,281.95
2013-08-25 00:00:00,2013-08-25 00:00:00,TMP,surface,-98.4379,34.4881,282.039
2013-08-25 00:00:00,2013-08-25 00:00:00,TMP,surface,-97.5004,34.4881,281.967
2013-08-25 00:00:00,2013-08-25 00:00:00,TMP,surface,-96.5629,34.4881,282.07
2013-08-25 00:00:00,2013-08-25 00:00:00,TMP,surface,-95.6254,34.4881,282.139
2013-08-25 00:00:00,2013-08-25 00:00:00,TMP,surface,-94.6879,34.4881,281.767
2013-08-25 00:00:00,2013-08-25 00:00:00,TMP,surface,-93.7504,34.4881,281.196
2013-08-25 00:00:00,2013-08-25 00:00:00,TMP,surface,-92.8129,34.4881,281.065
2013-08-25 00:00:00,2013-08-25 00:00:00,TMP,surface,-107.813,35.4329,276.271
2013-08-25 00:00:00,2013-08-25 00:00:00,TMP,surface,-106.875,35.4329,276.614
2013-08-25 00:00:00,2013-08-25 00:00:00,TMP,surface,-105.938,35.4329,277.087
2013-08-25 00:00:00,2013-08-25 00:00:00,TMP,surface,-105,35.4329,278.126
2013-08-25 00:00:00,2013-08-25 00:00:00,TMP,surface,-104.063,35.4329,279.705
2013-08-25 00:00:00,2013-08-25 00:00:00,TMP,surface,-103.125,35.4329,280.073
2013-08-25 00:00:00,2013-08-25 00:00:00,TMP,surface,-102.188,35.4329,279.71
2013-08-25 00:00:00,2013-08-25 00:00:00,TMP,surface,-101.25,35.4329,279.572
2013-08-25 00:00:00,2013-08-25 00:00:00,TMP,surface,-100.313,35.4329,279.891
2013-08-25 00:00:00,2013-08-25 00:00:00,TMP,surface,-99.3754,35.4329,280.247
2013-08-25 00:00:00,2013-08-25 00:00:00,TMP,surface,-98.4379,35.4329,280.535
2013-08-25 00:00:00,2013-08-25 00:00:00,TMP,surface,-97.5004,35.4329,280.867
2013-08-25 00:00:00,2013-08-25 00:00:00,TMP,surface,-96.5629,35.4329,281.092
2013-08-25 00:00:00,2013-08-25 00:00:00,TMP,surface,-95.6254,35.4329,280.991
2013-08-25 00:00:00,2013-08-25 00:00:00,TMP,surface,-94.6879,35.4329,280.518
2013-08-25 00:00:00,2013-08-25 00:00:00,TMP,surface,-93.7504,35.4329,279.857
2013-08-25 00:00:00,2013-08-25 00:00:00,TMP,surface,-92.8129,35.4329,279.625
2013-08-25 00:00:00,2013-08-25 00:00:00,TMP,surface,-107.813,36.3778,275.295
2013-08-25 00:00:00,2013-08-25 00:00:00,TMP,surface,-106.875,36.3778,273.391
2013-08-25 00:00:00,2013-08-25 00:00:00,TMP,surface,-105.938,36.3778,273.854
2013-08-25 00:00:00,2013-08-25 00:00:00,TMP,surface,-105,36.3778,275.807
2013-08-25 00:00:00,2013-08-25 00:00:00,TMP,surface,-104.063,36.3778,277.795
2013-08-25 00:00:00,2013-08-25 00:00:00,TMP,surface,-103.125,36.3778,278.23
2013-08-25 00:00:00,2013-08-25 00:00:00,TMP,surface,-102.188,36.3778,278.23
2013-08-25 00:00:00,2013-08-25 00:00:00,TMP,surface,-101.25,36.3778,278.158
2013-08-25 00:00:00,2013-08-25 00:00:00,TMP,surface,-100.313,36.3778,278.55
2013-08-25 00:00:00,2013-08-25 00:00:00,TMP,surface,-99.3754,36.3778,278.951
2013-08-25 00:00:00,2013-08-25 00:00:00,TMP,surface,-98.4379,36.3778,279.14
2013-08-25 00:00:00,2013-08-25 00:00:00,TMP,surface,-97.5004,36.3778,279.529
2013-08-25 00:00:00,2013-08-25 00:00:00,TMP,surface,-96.5629,36.3778,279.972
2013-08-25 00:00:00,2013-08-25 00:00:00,TMP,surface,-95.6254,36.3778,279.932
2013-08-25 00:00:00,2013-08-25 00:00:00,TMP,surface,-94.6879,36.3778,279.358
2013-08-25 00:00:00,2013-08-25 00:00:00,TMP,surface,-93.7504,36.3778,278.583
2013-08-25 00:00:00,2013-08-25 00:00:00,TMP,surface,-92.8129,36.3778,278.219
2013-08-25 00:00:00,2013-08-25 00:00:00,PRATE,surface,-107.813,25.0393,0
2013-08-25 00:00:00,2013-08-25 00:00:00,PRATE,surface,-106.875,25.0393,0
2013-08-25 00:00:00,2013-08-25 00:00:00,PRATE,surface,-105.938,25.0393,2.1e-06
2013-08-25 00:00:00,2013-08-25 00:00:00,PRATE,surface,-105,25.0393,6.1e-06
2013-08-25 00:00:00,2013-08-25 00:00:00,PRATE,surface,-104.063,25.0393,4.7e-06
2013-08-25 00:00:00,2013-08-25 00:00:00,PRATE,surface,-103.125,25.0393,1.1e-06
2013-08-25 00:00:00,2013-08-25 00:00:00,PRATE,surface,-102.188,25.0393,3.5e-06
2013-08-25 00:00:00,2013-08-25 00:00:00,PRATE,surface,-101.25,25.0393,8.9e-06
2013-08-25 00:00:00,2013-08-25 00:00:00,PRATE,surface,-100.313,25.0393,2.65e-05
2013-08-25 00:00:00,2013-08-25 00:00:00,PRATE,surface,-99.3754,25.0393,2.4e-05
2013-08-25 00:00:00,2013-08-25 00:00:00,PRATE,surface,-98.4379,25.0393,5.3e-06
2013-08-25 00:00:00,2013-08-25 00:00:00,PRATE,surface,-97.5004,25.0393,4.7e-06
2013-08-25 00:00:00,2013-08-25 00:00:00,PRATE,surface,-96.5629,25.0393,1.09e-05
2013-08-25 00:00:00,2013-08-25 00:00:00,PRATE,surface,-95.6254,25.0393,1.66e-05
2013-08-25 00:00:00,2013-08-25 00:00:00,PRATE,surface,-94.6879,25.0393,1.68e-05
2013-08-25 00:00:00,2013-08-25 00:00:00,PRATE,surface,-93.7504,25.0393,1.44e-05
2013-08-25 00:00:00,2013-08-25 00:00:00,PRATE,surface,-92.8129,25.0393,7.5e-06
2013-08-25 00:00:00,2013-08-25 00:00:00,PRATE,surface,-107.813,25.9842,7e-07
2013-08-25 00:00:00,2013-08-25 00:00:00,PRATE,surface,-106.875,25.9842,2e-06
2013-08-25 00:00:00,2013-08-25 00:00:00,PRATE,surface,-105.938,25.9842,3.1e-06
2013-08-25 00:00:00,2013-08-25 00:00:00,PRATE,surface,-105,25.9842,3.7e-06
2013-08-25 00:00:00,2013-08-25 00:00:00,PRATE,surface,-104.063,25.9842,1e-06
2013-08-25 00:00:00,2013-08-25 00:00:00,PRATE,surface,-103.125,25.9842,3e-07
2013-08-25 00:00:00,2013-08-25 00:00:00,PRATE,surface,-102.188,25.9842,5e-07
2013-08-25 00:00:00,2013-08-25 00:00:00,PRATE,surface,-101.25,25.9842,4e-06
2013-08-25 00:00:00,2013-08-25 00:00:00,PRATE,surface,-100.313,25.9842,9.3e-06
2013-08-25 00:00:00,2013-08-25 00:00:00,PRATE,surface,-99.3754,25.9842,8.2e-06
2013-08-25 00:00:00,2013-08-25 00:00:00,PRATE,surface,-98.4379,25.9842,8.4e-06
2013-08-25 00:00:00,2013-08-25 00:00:00,PRATE,surface,-97.5004,25.9842,8.9e-06
2013-08-25 00:00:00,2013-08-25 00:00:00,PRATE,surface,-96.5629,25.9842,1.25e-05
2013-08-25 00:00:00,2013-08-25 00:00:00,PRATE,surface,-95.6254,25.9842,1.38e-05
2013-08-25 00:00:00,2013-08-25 00:00:00,PRATE,surface,-94.6879,25.9842,1.76e-05
2013-08-25 00:00:00,2013-08-25 00:00:00,PRATE,surface,-93.7504,25.9842,1.69e-05
2013-08-25 00:00:00,2013-08-25 00:00:00,PRATE,surface,-92.8129,25.9842,1.67e-05
2013-08-25 00:00:00,2013-08-25 00:00:00,PRATE,surface,-107.813,26.929,4.7e-06
2013-08-25 00:00:00,2013-08-25 00:00:00,PRATE,surface,-106.875,26.929,5.8e-06
2013-08-25 00:00:00,2013-08-25 00:00:00,PRATE,surface,-105.938,26.929,2.4e-06
2013-08-25 00:00:00,2013-08-25 00:00:00,PRATE,surface,-105,26.929,1.3e-06
2013-08-25 00:00:00,2013-08-25 00:00:00,PRATE,surface,-104.063,26.929,7e-07
2013-08-25 00:00:00,2013-08-25 00:00:00,PRATE,surface,-103.125,26.929,4e-07
2013-08-25 00:00:00,2013-08-25 00:00:00,PRATE,surface,-102.188,26.929,1.8e-06
2013-08-25 00:00:00,2013-08-25 00:00:00,PRATE,surface,-101.25,26.929,5.6e-06
2013-08-25 00:00:00,2013-08-25 00:00:00,PRATE,surface,-100.313,26.929,9e-06
2013-08-25 00:00:00,2013-08-25 00:00:00,PRATE,surface,-99.3754,26.929,1.6e-05
2013-08-25 00:00:00,2013-08-25 00:00:00,PRATE,surface,-98.4379,26.929,1.7e-05
2013-08-25 00:00:00,2013-08-25 00:00:00,PRATE,surface,-97.5004,26.929,1.37e-05
2013-08-25 00:00:00,2013-08-25 00:00:00,PRATE,surface,-96.5629,26.929,1.36e-05
2013-08-25 00:00:00,2013-08-25 00:00:00,PRATE,surface,-95.6254,26.929,1.37e-05
2013-08-25 00:00:00,2013-08-25 00:00:00,PRATE,surface,-94.6879,26.929,1.87e-05
2013-08-25 00:00:00,2013-08-25 00:00:00,PRATE,surface,-93.7504,26.929,2.27e-05
2013-08-25 00:00:00,2013-08-25 00:00:00,PRATE,surface,-92.8129,26.929,2.66e-05
2013-08-25 00:00:00,2013-08-25 00:00:00,PRATE,surface,-107.813,27.8739,9.9e-06
2013-08-25 00:00:00,2013-08-25 00:00:00,PRATE,surface,-106.875,27.8739,6.9e-06
2013-08-25 00:00:00,2013-08-25 00:00:00,PRATE,surface,-105.938,27.8739,6e-07
2013-08-25 00:00:00,2013-08-25 00:00:00,PRATE,surface,-105,27.8739,2e-07
2013-08-25 00:00:00,2013-08-25 00:00:00,PRATE,surface,-104.063,27.8739,2e-07
2013-08-25 00:00:00,2013-08-25 00:00:00,PRATE,surface,-103.125,27.8739,2.2e-06
2013-08-25 00:00:00,2013-08-25 00:00:00,PRATE,surface,-102.188,27.8739,8e-06
2013-08-25 00:00:00,2013-08-25 00:00:00,PRATE,surface,-101.25,27.8739,1.55e-05
2013-08-25 00:00:00,2013-08-25 00:00:00,PRATE,surface,-100.313,27.8739,1.97e-05
2013-08-25 00:00:00,2013-08-25 00:00:00,PRATE,surface,-99.3754,27.8739,2.45e-05
2013-08-25 00:00:00,2013-08-25 00:00:00,PRATE,surface,-98.4379,27.8739,2.73e-05
2013-08-25 00:00:00,2013-08-25 00:00:00,PRATE,surface,-97.5004,27.8739,2.24e-05
2013-08-25 00:00:00,2013-08-25 00:00:00,PRATE,surface,-96.5629,27.8739,1.55e-05
2013-08-25 00:00:00,2013-08-25 00:00:00,PRATE,surface,-95.6254,27.8739,1.65e-05
2013-08-25 00:00:00,2013-08-25 00:00:00,PRATE,surface,-94.6879,27.8739,2.56e-05
2013-08-25 00:00:00,2013-08-25 00:00:00,PRATE,surface,-93.7504,27.8739,3.7e-05
2013-08-25 00:00:00,2013-08-25 00:00:00,PRATE,surface,-92.8129,27.8739,4.53e-05
2013-08-25 00:00:00,2013-08-25 00:00:00,PRATE,surface,-107.813,28.8188,8.5e-06
2013-08-25 00:00:00,2013-08-25 00:00:00,PRATE,surface,-106.875,28.8188,4.2e-06
2013-08-25 00:00:00,2013-08-25 00:00:00,PRATE,surface,-105.938,28.8188,1.3e-06
2013-08-25 00:00:00,2013-08-25 00:00:00,PRATE,surface,-105,28.8188,1e-06
2013-08-25 00:00:00,2013-08-25 00:00:00,PRATE,surface,-104.063,28.8188,2.5e-06
2013-08-25 00:00:00,2013-08-25 00:00:00,PRATE,surface,-103.125,28.8188,5.3e-06
2013-08-25 00:00:00,2013-08-25 00:00:00,PRATE,surface,-102.188,28.8188,1.19e-05
2013-08-25 00:00:00,2013-08-25 00:00:00,PRATE,surface,-101.25,28.8188,1.77e-05
2013-08-25 00:00:00,2013-08-25 00:00:00,PRATE,surface,-100.313,28.8188,2.82e-05
2013-08-25 00:00:00,2013-08-25 00:00:00,PRATE,surface,-99.3754,28.8188,3.79e-05
2013-08-25 00:00:00,2013-08-25 00:00:00,PRATE,surface,-98.4379,28.8188,3.84e-05
2013-08-25 00:00:00,2013-08-25 00:00:00,PRATE,surface,-97.5004,28.8188,3.2e-05
2013-08-25 00:00:00,2013-08-25 00:00:00,PRATE,surface,-96.5629,28.8188,2.85e-05
2013-08-25 00:00:00,2013-08-25 00:00:00,PRATE,surface,-95.6254,28.8188,3.42e-05
2013-08-25 00:00:00,2013-08-25 00:00:00,PRATE,surface,-94.6879,28.8188,4.52e-05
2013-08-25 00:00:00,2013-08-25 00:00:00,PRATE,surface,-93.7504,28.8188,5.16e-05
2013-08-25 00:00:00,2013-08-25 00:00:00,PRATE,surface,-92.8129,28.8188,5.35e-05
2013-08-25 00:00:00,2013-08-25 00:00:00,PRATE,surface,-107.813,29.7637,3.2e-06
2013-08-25 00:00:00,2013-08-25 00:00:00,PRATE,surface,-106.875,29.7637,1.5e-06
2013-08-25 00:00:00,2013-08-25 00:00:00,PRATE,surface,-105.938,29.7637,1.8e-06
2013-08-25 00:00:00,2013-08-25 00:00:00,PRATE,surface,-105,29.7637,2.2e-06
2013-08-25 00:00:00,2013-08-25 00:00:00,PRATE,surface,-104.063,29.7637,4.2e-06
2013-08-25 00:00:00,2013-08-25 00:00:00,PRATE,surface,-103.125,29.7637,5.2e-06
2013-08-25 00:00:00,2013-08-25 00:00:00,PRATE,surface,-102.188,29.7637,1e-05
2013-08-25 00:00:00,2013-08-25 00:00:00,PRATE,surface,-101.25,29.7637,2.18e-05
2013-08-25 00:00:00,2013-08-25 00:00:00,PRATE,surface,-100.313,29.7637,3.76e-05
2013-08-25 00:00:00,2013-08-25 00:00:00,PRATE,surface,-99.3754,29.7637,4.25e-05
2013-08-25 00:00:00,2013-08-25 00:00:00,PRATE,surface,-98.4379,29.7637,4e-05
2013-08-25 00:00:00,2013-08-25 00:00:00,PRATE,surface,-97.5004,29.7637,3.94e-05
2013-08-25 00:00:00,2013-08-25 00:00:00,PRATE,surface,-96.5629,29.7637,4.32e-05
2013-08-25 00:00:00,2013-08-25 00:00:00,PRATE,surface,-95.6254,29.7637,4.94e-05
2013-08-25 00:00:00,2013-08-25 00:00:00,PRATE,surface,-94.6879,29.7637,5.62e-05
2013-08-25 00:00:00,2013-08-25 00:00:00,PRATE,surface,-93.7504,29.7637,5.97e-05
2013-08-25 00:00:00,2013-08-25 00:00:00,PRATE,surface,-92.8129,29.7637,5.5e-05
2013-08-25 00:00:00,2013-08-25 00:00:00,PRATE,surface,-107.813,30.7085,2.8e-06
2013-08-25 00:00:00,2013-08-25 00:00:00,PRATE,surface,-106.875,30.7085,2e-06
2013-08-25 00:00:00,2013-08-25 00:00:00,PRATE,surface,-105.938,30.7085,3.3e-06
2013-08-25 00:00:00,2013-08-25 00:00:00,PRATE,surface,-105,30.7085,5.4e-06
2013-08-25 00:00:00,2013-08-25 00:00:00,PRATE,surface,-104.063,30.7085,6.1e-06
2013-08-25 00:00:00,2013-08-25 00:00:00,PRATE,surface,-103.125,30.7085,6e-06
2013-08-25 00:00:00,2013-08-25 00:00:00,PRATE,surface,-102.188,30.7085,9.4e-06
2013-08-25 00:00:00,2013-08-25 00:00:00,PRATE,surface,-101.25,30.7085,2.78e-05
2013-08-25 00:00:00,2013-08-25 00:00:00,PRATE,surface,-100.313,30.7085,3.98e-05
2013-08-25 00:00:00,2013-08-25 00:00:00,PRATE,surface,-99.3754,30.7085,3.99e-05
2013-08-25 00:00:00,2013-08-25 00:00:00,PRATE,surface,-98.4379,30.7085,3.63e-05
2013-08-25 00:00:00,2013-08-25 00:00:00,PRATE,surface,-97.5004,30.7085,3.57e-05
2013-08-25 00:00:00,2013-08-25 00:00:00,PRATE,surface,-96.5629,30.7085,3.95e-05
2013-08-25 00:00:00,2013-08-25 00:00:00,PRATE,surface,-95.6254,30.7085,4.54e-05
2013-08-25 00:00:00,2013-08-25 00:00:00,PRATE,surface,-94.6879,30.7085,4.93e-05
2013-08-25 00:00:00,2013-08-25 00:00:00,PRATE,surface,-93.7504,30.7085,5.15e-05
2013-08-25 00:00:00,2013-08-25 00:00:00,PRATE,surface,-92.8129,30.7085,5.65e-05
2013-08-25 00:00:00,2013-08-25 00:00:00,PRATE,surface,-107.813,31.6534,2.2e-06
2013-08-25 00:00:00,2013-08-25 00:00:00,PRATE,surface,-106.875,31.6534,1.5e-06
2013-08-25 00:00:00,2013-08-25 00:00:00,PRATE,surface,-105.938,31.6534,3e-06
2013-08-25 00:00:00,2013-08-25 00:00:00,PRATE,surface,-105,31.6534,5.6e-06
2013-08-25 00:00:00,2013-08-25 00:00:00,PRATE,surface,-104.063,31.6534,7.9e-06
2013-08-25 00:00:00,2013-08-25 00:00:00,PRATE,surface,-103.125,31.6534,7.3e-06
2013-08-25 00:00:00,2013-08-25 00:00:00,PRATE,surface,-102.188,31.6534,1.23e-05
2013-08-25 00:00:00,2013-08-25 00:00:00,PRATE,surface,-101.25,31.6534,2.53e-05
2013-08-25 00:00:00,2013-08-25 00:00:00,PRATE,surface,-100.313,31.6534,3.45e-05
2013-08-25 00:00:00,2013-08-25 00:00:00,PRATE,surface,-99.3754,31.6534,4.04e-05
2013-08-25 00:00:00,2013-08-25 00:00:00,PRATE,surface,-98.4379,31.6534,4.28e-05
2013-08-25 00:00:00,2013-08-25 00:00:00,PRATE,surface,-97.5004,31.6534,4.2e-05
2013-08-25 00:00:00,2013-08-25 00:00:00,PRATE,surface,-96.5629,31.6534,4.08e-05
2013-08-25 00:00:00,2013-08-25 00:00:00,PRATE,surface,-95.6254,31.6534,4.22e-05
2013-08-25 00:00:00,2013-08-25 00:00:00,PRATE,surface,-94.6879,31.6534,4.51e-05
2013-08-25 00:00:00,2013-08-25 00:00:00,PRATE,surface,-93.7504,31.6534,4.56e-05
2013-08-25 00:00:00,2013-08-25 00:00:00,PRATE,surface,-92.8129,31.6534,4.74e-05
2013-08-25 00:00:00,2013-08-25 00:00:00,PRATE,surface,-107.813,32.5983,7.6e-06
2013-08-25 00:00:00,2013-08-25 00:00:00,PRATE,surface,-106.875,32.5983,8.1e-06
2013-08-25 00:00:00,2013-08-25 00:00:00,PRATE,surface,-105.938,32.5983,1.04e-05
2013-08-25 00:00:00,2013-08-25 00:00:00,PRATE,surface,-105,32.5983,6.6e-06
2013-08-25 00:00:00,2013-08-25 00:00:00,PRATE,surface,-104.063,32.5983,6.5e-06
2013-08-25 00:00:00,2013-08-25 00:00:00,PRATE,surface,-103.125,32.5983,8.9e-06
2013-08-25 00:00:00,2013-08-25 00:00:00,PRATE,surface,-102.188,32.5983,1.83e-05
2013-08-25 00:00:00,2013-08-25 00:00:00,PRATE,surface,-101.25,32.5983,2.67e-05
2013-08-25 00:00:00,2013-08-25 00:00:00,PRATE,surface,-100.313,32.5983,2.94e-05
2013-08-25 00:00:00,2013-08-25 00:00:00,PRATE,surface,-99.3754,32.5983,3.26e-05
2013-08-25 00:00:00,2013-08-25 00:00:00,PRATE,surface,-98.4379,32.5983,3.89e-05
2013-08-25 00:00:00,2013-08-25 00:00:00,PRATE,surface,-97.5004,32.5983,4.57e-05
2013-08-25 00:00:00,2013-08-25 00:00:00,PRATE,surface,-96.5629,32.5983,4.94e-05
2013-08-25 00:00:00,2013-08-25 00:00:00,PRATE,surface,-95.6254,32.5983,5.11e-05
2013-08-25 00:00:00,2013-08-25 00:00:00,PRATE,surface,-94.6879,32.5983,5.16e-05
2013-08-25 00:00:00,2013-08-25 00:00:00,PRATE,surface,-93.7504,32.5983,4.7e-05
2013-08-25 00:00:00,2013-08-25 00:00:00,PRATE,surface,-92.8129,32.5983,4.08e-05
2013-08-25 00:00:00,2013-08-25 00:00:00,PRATE,surface,-107.813,33.5432,2.74e-05
2013-08-25 00:00:00,2013-08-25 00:00:00,PRATE,surface,-106.875,33.5432,2.82e-05
2013-08-25 00:00:00,2013-08-25 00:00:00,PRATE,surface,-105.938,33.5432,2.39e-05
2013-08-25 00:00:00,2013-08-25 00:00:00,PRATE,surface,-105,33.5432,1.87e-05
2013-08-25 00:00:00,2013-08-25 00:00:00,PRATE,surface,-104.063,33.5432,1.22e-05
2013-08-25 00:00:00,2013-08-25 00:00:00,PRATE,surface,-103.125,33.5432,1.69e-05
2013-08-25 00:00:00,2013-08-25 00:00:00,PRATE,surface,-102.188,33.5432,2.38e-05
2013-08-25 00:00:00,2013-08-25 00:00:00,PRATE,surface,-101.25,33.5432,2.82e-05
2013-08-25 00:00:00,2013-08-25 00:00:00,PRATE,surface,-100.313,33.5432,2.6e-05
2013-08-25 00:00:00,2013-08-25 00:00:00,PRATE,surface,-99.3754,33.5432,2.77e-05
2013-08-25 00:00:00,2013-08-25 00:00:00,PRATE,surface,-98.4379,33.5432,3.76e-05
2013-08-25 00:00:00,2013-08-25 00:00:00,PRATE,surface,-97.5004,33.5432,5.02e-05
2013-08-25 00:00:00,2013-08-25 00:00:00,PRATE,surface,-96.5629,33.5432,5.54e-05
2013-08-25 00:00:00,2013-08-25 00:00:00,PRATE,surface,-95.6254,33.5432,5.26e-05
2013-08-25 00:00:00,2013-08-25 00:00:00,PRATE,surface,-94.6879,33.5432,4.96e-05
2013-08-25 00:00:00,2013-08-25 00:00:00,PRATE,surface,-93.7504,33.5432,4.53e-05
2013-08-25 00:00:00,2013-08-25 00:00:00,PRATE,surface,-92.8129,33.5432,3.88e-05
2013-08-25 00:00:00,2013-08-25 00:00:00,PRATE,surface,-107.813,34.4881,3.48e-05
2013-08-25 00:00:00,2013-08-25 00:00:00,PRATE,surface,-106.875,34.4881,3.11e-05
2013-08-25 00:00:00,2013-08-25 00:00:00,PRATE,surface,-105.938,34.4881,3.07e-05
2013-08-25 00:00:00,2013-08-25 00:00:00,PRATE,surface,-105,34.4881,2.94e-05
2013-08-25 00:00:00,2013-08-25 00:00:00,PRATE,surface,-104.063,34.4881,2.65e-05
2013-08-25 00:00:00,2013-08-25 00:00:00,PRATE,surface,-103.125,34.4881,2.25e-05
2013-08-25 00:00:00,2013-08-25 00:00:00,PRATE,surface,-102.188,34.4881,2.96e-05
2013-08-25 00:00:00,2013-08-25 00:00:00,PRATE,surface,-101.25,34.4881,3.35e-05
2013-08-25 00:00:00,2013-08-25 00:00:00,PRATE,surface,-100.313,34.4881,2.93e-05
2013-08-25 00:00:00,2013-08-25 00:00:00,PRATE,surface,-99.3754,34.4881,3.26e-05
2013-08-25 00:00:00,2013-08-25 00:00:00,PRATE,surface,-98.4379,34.4881,4.44e-05
2013-08-25 00:00:00,2013-08-25 00:00:00,PRATE,surface,-97.5004,34.4881,5.66e-05
2013-08-25 00:00:00,2013-08-25 00:00:00,PRATE,surface,-96.5629,34.4881,5.88e-05
2013-08-25 00:00:00,2013-08-25 00:00:00,PRATE,surface,-95.6254,34.4881,5.31e-05
2013-08-25 00:00:00,2013-08-25 00:00:00,PRATE,surface,-94.6879,34.4881,4.97e-05
2013-08-25 00:00:00,2013-08-25 00:00:00,PRATE,surface,-93.7504,34.4881,4.43e-05
2013-08-25 00:00:00,2013-08-25 00:00:00,PRATE,surface,-92.8129,34.4881,3.5e-05
2013-08-25 00:00:00,2013-08-25 00:00:00,PRATE,surface,-107.813,35.4329,2.81e-05
2013-08-25 00:00:00,2013-08-25 00:00:00,PRATE,surface,-106.875,35.4329,2.46e-05
2013-08-25 00:00:00,2013-08-25 00:00:00,PRATE,surface,-105.938,35.4329,2.86e-05
2013-08-25 00:00:00,2013-08-25 00:00:00,PRATE,surface,-105,35.4329,3.05e-05
2013-08-25 00:00:00,2013-08-25 00:00:00,PRATE,surface,-104.063,35.4329,2.76e-05
2013-08-25 00:00:00,2013-08-25 00:00:00,PRATE,surface,-103.125,35.4329,2.8e-05
2013-08-25 00:00:00,2013-08-25 00:00:00,PRATE,surface,-102.188,35.4329,3.28e-05
2013-08-25 00:00:00,2013-08-25 00:00:00,PRATE,surface,-101.25,35.4329,3.42e-05
2013-08-25 00:00:00,2013-08-25 00:00:00,PRATE,surface,-100.313,35.4329,3.33e-05
2013-08-25 00:00:00,2013-08-25 00:00:00,PRATE,surface,-99.3754,35.4329,3.57e-05
2013-08-25 00:00:00,2013-08-25 00:00:00,PRATE,surface,-98.4379,35.4329,4.14e-05
2013-08-25 00:00:00,2013-08-25 00:00:00,PRATE,surface,-97.5004,35.4329,4.81e-05
2013-08-25 00:00:00,2013-08-25 00:00:00,PRATE,surface,-96.5629,35.4329,5.41e-05
2013-08-25 00:00:00,2013-08-25 00:00:00,PRATE,surface,-95.6254,35.4329,5.74e-05
2013-08-25 00:00:00,2013-08-25 00:00:00,PRATE,surface,-94.6879,35.4329,5.72e-05
2013-08-25 00:00:00,2013-08-25 00:00:00,PRATE,surface,-93.7504,35.4329,5.39e-05
2013-08-25 00:00:00,2013-08-25 00:00:00,PRATE,surface,-92.8129,35.4329,4.46e-05
2013-08-25 00:00:00,2013-08-25 00:00:00,PRATE,surface,-107.813,36.3778,2.55e-05
2013-08-25 00:00:00,2013-08-25 00:00:00,PRATE,surface,-106.875,36.3778,3.04e-05
2013-08-25 00:00:00,2013-08-25 00:00:00,PRATE,surface,-105.938,36.3778,3.13e-05
2013-08-25 00:00:00,2013-08-25 00:00:00,PRATE,surface,-105,36.3778,2.78e-05
2013-08-25 00:00:00,2013-08-25 00:00:00,PRATE,surface,-104.063,36.3778,2.51e-05
2013-08-25 00:00:00,2013-08-25 00:00:00,PRATE,surface,-103.125,36.3778,2.76e-05
2013-08-25 00:00:00,2013-08-25 00:00:00,PRATE,surface,-102.188,36.3778,3.11e-05
2013-08-25 00:00:00,2013-08-25 00:00:00,PRATE,surface,-101.25,36.3778,3.18e-05
2013-08-25 00:00:00,2013-08-25 00:00:00,PRATE,surface,-100.313,36.3778,3.3e-05
2013-08-25 00:00:00,2013-08-25 00:00:00,PRATE,surface,-99.3754,36.3778,3.6e-05
2013-08-25 00:00:00,2013-08-25 00:00:00,PRATE,surface,-98.4379,36.3778,3.96e-05
2013-08-25 00:00:00,2013-08-25 00:00:00,PRATE,surface,-97.5004,36.3778,4.21e-05
2013-08-25 00:00:00,2013-08-25 00:00:00,PRATE,surface,-96.5629,36.3778,4.67e-05
2013-08-25 00:00:00,2013-08-25 00:00:00,PRATE,surface,-95.6254,36.3778,5.41e-05
2013-08-25 00:00:00,2013-08-25 00:00:00,PRATE,surface,-94.6879,36.3778,5.8e-05
2013-08-25 00:00:00,2013-08-25 00:00:00,PRATE,surface,-93.7504,36.3778,5.71e-05
2013-08-25 00:00:00,2013-08-25 00:00:00,PRATE,surface,-92.8129,36.3778,5.51e-05
