2018-08-19 00:00:00,2018-08-19 00:00:00,TMP,surface,-107.813,25.0393,298.927
2018-08-19 00:00:00,2018-08-19 00:00:00,TMP,surface,-106.875,25.0393,293.436
2018-08-19 00:00:00,2018-08-19 00:00:00,TMP,surface,-105.938,25.0393,288.841
2018-08-19 00:00:00,2018-08-19 00:00:00,TMP,surface,-105,25.0393,287.175
2018-08-19 00:00:00,2018-08-19 00:00:00,TMP,surface,-104.063,25.0393,290.535
2018-08-19 00:00:00,2018-08-19 00:00:00,TMP,surface,-103.125,25.0393,293.206
2018-08-19 00:00:00,2018-08-19 00:00:00,TMP,surface,-102.188,25.0393,293.095
2018-08-19 00:00:00,2018-08-19 00:00:00,TMP,surface,-101.25,25.0393,290.987
2018-08-19 00:00:00,2018-08-19 00:00:00,TMP,surface,-100.313,25.0393,291.395
2018-08-19 00:00:00,2018-08-19 00:00:00,TMP,surface,-99.3754,25.0393,294.804
2018-08-19 00:00:00,2018-08-19 00:00:00,TMP,surface,-98.4379,25.0393,298.174
2018-08-19 00:00:00,2018-08-19 00:00:00,TMP,surface,-97.5004,25.0393,302.134
2018-08-19 00:00:00,2018-08-19 00:00:00,TMP,surface,-96.5629,25.0393,302.447
2018-08-19 00:00:00,2018-08-19 00:00:00,TMP,surface,-95.6254,25.0393,302.596
2018-08-19 00:00:00,2018-08-19 00:00:00,TMP,surface,-94.6879,25.0393,302.73
2018-08-19 00:00:00,2018-08-19 00:00:00,TMP,surface,-93.7504,25.0393,302.665
2018-08-19 00:00:00,2018-08-19 00:00:00,TMP,surface,-92.8129,25.0393,302.617
2018-08-19 00:00:00,2018-08-19 00:00:00,TMP,surface,-107.813,25.9842,294.316
2018-08-19 00:00:00,2018-08-19 00:00:00,TMP,surface,-106.875,25.9842,289.707
2018-08-19 00:00:00,2018-08-19 00:00:00,TMP,surface,-105.938,25.9842,287.481
2018-08-19 00:00:00,2018-08-19 00:00:00,TMP,surface,-105,25.9842,288.999
2018-08-19 00:00:00,2018-08-19 00:00:00,TMP,surface,-104.063,25.9842,293.262
2018-08-19 00:00:00,2018-08-19 00:00:00,TMP,surface,-103.125,25.9842,295.166
2018-08-19 00:00:00,2018-08-19 00:00:00,TMP,surface,-102.188,25.9842,294.499
2018-08-19 00:00:00,2018-08-19 00:00:00,TMP,surface,-101.25,25.9842,293.318
2018-08-19 00:00:00,2018-08-19 00:00:00,TMP,surface,-100.313,25.9842,293.753
2018-08-19 00:00:00,2018-08-19 00:00:00,TMP,surface,-99.3754,25.9842,296.918
2018-08-19 00:00:00,2018-08-19 00:00:00,TMP,surface,-98.4379,25.9842,298.947
2018-08-19 00:00:00,2018-08-19 00:00:00,TMP,surface,-97.5004,25.9842,299.519
2018-08-19 00:00:00,2018-08-19 00:00:00,TMP,surface,-96.5629,25.9842,302.026
2018-08-19 00:00:00,2018-08-19 00:00:00,TMP,surface,-95.6254,25.9842,302.246
2018-08-19 00:00:00,2018-08-19 00:00:00,TMP,surface,-94.6879,25.9842,302.428
2018-08-19 00:00:00,2018-08-19 00:00:00,TMP,surface,-93.7504,25.9842,302.474
2018-08-19 00:00:00,2018-08-19 00:00:00,TMP,surface,-92.8129,25.9842,302.539
2018-08-19 00:00:00,2018-08-19 00:00:00,TMP,surface,-107.813,26.929,290.29
2018-08-19 00:00:00,2018-08-19 00:00:00,TMP,surface,-106.875,26.929,287.356
2018-08-19 00:00:00,2018-08-19 00:00:00,TMP,surface,-105.938,26.929,288.771
2018-08-19 00:00:00,2018-08-19 00:00:00,TMP,surface,-105,26.929,291.617
2018-08-19 00:00:00,2018-08-19 00:00:00,TMP,surface,-104.063,26.929,294.012
2018-08-19 00:00:00,2018-08-19 00:00:00,TMP,surface,-103.125,26.929,293.802
2018-08-19 00:00:00,2018-08-19 00:00:00,TMP,surface,-102.188,26.929,293.622
2018-08-19 00:00:00,2018-08-19 00:00:00,TMP,surface,-101.25,26.929,294.471
2018-08-19 00:00:00,2018-08-19 00:00:00,TMP,surface,-100.313,26.929,296.268
2018-08-19 00:00:00,2018-08-19 00:00:00,TMP,surface,-99.3754,26.929,297.996
2018-08-19 00:00:00,2018-08-19 00:00:00,TMP,surface,-98.4379,26.929,297.978
2018-08-19 00:00:00,2018-08-19 00:00:00,TMP,surface,-97.5004,26.929,300.87
2018-08-19 00:00:00,2018-08-19 00:00:00,TMP,surface,-96.5629,26.929,301.463
2018-08-19 00:00:00,2018-08-19 00:00:00,TMP,surface,-95.6254,26.929,301.905
2018-08-19 00:00:00,2018-08-19 00:00:00,TMP,surface,-94.6879,26.929,302.203
2018-08-19 00:00:00,2018-08-19 00:00:00,TMP,surface,-93.7504,26.929,302.211
2018-08-19 00:00:00,2018-08-19 00:00:00,TMP,surface,-92.8129,26.929,302.267
2018-08-19 00:00:00,2018-08-19 00:00:00,TMP,surface,-107.813,27.8739,288.171
2018-08-19 00:00:00,2018-08-19 00:00:00,TMP,surface,-106.875,27.8739,287.199
2018-08-19 00:00:00,2018-08-19 00:00:00,TMP,surface,-105.938,27.8739,290.199
2018-08-19 00:00:00,2018-08-19 00:00:00,TMP,surface,-105,27.8739,293.116
2018-08-19 00:00:00,2018-08-19 00:00:00,TMP,surface,-104.063,27.8739,293.689
2018-08-19 00:00:00,2018-08-19 00:00:00,TMP,surface,-103.125,27.8739,292.588
2018-08-19 00:00:00,2018-08-19 00:00:00,TMP,surface,-102.188,27.8739,292.59
2018-08-19 00:00:00,2018-08-19 00:00:00,TMP,surface,-101.25,27.8739,294.599
2018-08-19 00:00:00,2018-08-19 00:00:00,TMP,surface,-100.313,27.8739,296.609
2018-08-19 00:00:00,2018-08-19 00:00:00,TMP,surface,-99.3754,27.8739,297.166
2018-08-19 00:00:00,2018-08-19 00:00:00,TMP,surface,-98.4379,27.8739,296.974
2018-08-19 00:00:00,2018-08-19 00:00:00,TMP,surface,-97.5004,27.8739,298.99
2018-08-19 00:00:00,2018-08-19 00:00:00,TMP,surface,-96.5629,27.8739,301.31
2018-08-19 00:00:00,2018-08-19 00:00:00,TMP,surface,-95.6254,27.8739,301.58
2018-08-19 00:00:00,2018-08-19 00:00:00,TMP,surface,-94.6879,27.8739,301.636
2018-08-19 00:00:00,2018-08-19 00:00:00,TMP,surface,-93.7504,27.8739,301.617
2018-08-19 00:00:00,2018-08-19 00:00:00,TMP,surface,-92.8129,27.8739,301.564
2018-08-19 00:00:00,2018-08-19 00:00:00,TMP,surface,-107.813,28.8188,287.009
2018-08-19 00:00:00,2018-08-19 00:00:00,TMP,surface,-106.875,28.8188,288.132
2018-08-19 00:00:00,2018-08-19 00:00:00,TMP,surface,-105.938,28.8188,291.398
2018-08-19 00:00:00,2018-08-19 00:00:00,TMP,surface,-105,28.8188,293.566
2018-08-19 00:00:00,2018-08-19 00:00:00,TMP,surface,-104.063,28.8188,292.9
2018-08-19 00:00:00,2018-08-19 00:00:00,TMP,surface,-103.125,28.8188,292.18
2018-08-19 00:00:00,2018-08-19 00:00:00,TMP,surface,-102.188,28.8188,292.676
2018-08-19 00:00:00,2018-08-19 00:00:00,TMP,surface,-101.25,28.8188,294.326
2018-08-19 00:00:00,2018-08-19 00:00:00,TMP,surface,-100.313,28.8188,295.178
2018-08-19 00:00:00,2018-08-19 00:00:00,TMP,surface,-99.3754,28.8188,295.007
2018-08-19 00:00:00,2018-08-19 00:00:00,TMP,surface,-98.4379,28.8188,294.916
2018-08-19 00:00:00,2018-08-19 00:00:00,TMP,surface,-97.5004,28.8188,295.3
2018-08-19 00:00:00,2018-08-19 00:00:00,TMP,surface,-96.5629,28.8188,296.003
2018-08-19 00:00:00,2018-08-19 00:00:00,TMP,surface,-95.6254,28.8188,298.209
2018-08-19 00:00:00,2018-08-19 00:00:00,TMP,surface,-94.6879,28.8188,301.014
2018-08-19 00:00:00,2018-08-19 00:00:00,TMP,surface,-93.7504,28.8188,300.988
2018-08-19 00:00:00,2018-08-19 00:00:00,TMP,surface,-92.8129,28.8188,300.995
2018-08-19 00:00:00,2018-08-19 00:00:00,TMP,surface,-107.813,29.7637,288.395
2018-08-19 00:00:00,2018-08-19 00:00:00,TMP,surface,-106.875,29.7637,290.059
2018-08-19 00:00:00,2018-08-19 00:00:00,TMP,surface,-105.938,29.7637,292.443
2018-08-19 00:00:00,2018-08-19 00:00:00,TMP,surface,-105,29.7637,292.85
2018-08-19 00:00:00,2018-08-19 00:00:00,TMP,surface,-104.063,29.7637,293.022
2018-08-19 00:00:00,2018-08-19 00:00:00,TMP,surface,-103.125,29.7637,293.239
2018-08-19 00:00:00,2018-08-19 00:00:00,TMP,surface,-102.188,29.7637,293.95
2018-08-19 00:00:00,2018-08-19 00:00:00,TMP,surface,-101.25,29.7637,294.183
2018-08-19 00:00:00,2018-08-19 00:00:00,TMP,surface,-100.313,29.7637,293.465
2018-08-19 00:00:00,2018-08-19 00:00:00,TMP,surface,-99.3754,29.7637,292.783
2018-08-19 00:00:00,2018-08-19 00:00:00,TMP,surface,-98.4379,29.7637,292.804
2018-08-19 00:00:00,2018-08-19 00:00:00,TMP,surface,-97.5004,29.7637,293.319
2018-08-19 00:00:00,2018-08-19 00:00:00,TMP,surface,-96.5629,29.7637,293.906
2018-08-19 00:00:00,2018-08-19 00:00:00,TMP,surface,-95.6254,29.7637,294.492
2018-08-19 00:00:00,2018-08-19 00:00:00,TMP,surface,-94.6879,29.7637,296.66
2018-08-19 00:00:00,2018-08-19 00:00:00,TMP,surface,-93.7504,29.7637,299.074
2018-08-19 00:00:00,2018-08-19 00:00:00,TMP,surface,-92.8129,29.7637,294.777
2018-08-19 00:00:00,2018-08-19 00:00:00,TMP,surface,-107.813,30.7085,290.817
2018-08-19 00:00:00,2018-08-19 00:00:00,TMP,surface,-106.875,30.7085,292.564
2018-08-19 00:00:00,2018-08-19 00:00:00,TMP,surface,-105.938,30.7085,292.623
2018-08-19 00:00:00,2018-08-19 00:00:00,TMP,surface,-105,30.7085,292.273
2018-08-19 00:00:00,2018-08-19 00:00:00,TMP,surface,-104.063,30.7085,292.182
2018-08-19 00:00:00,2018-08-19 00:00:00,TMP,surface,-103.125,30.7085,293.583
2018-08-19 00:00:00,2018-08-19 00:00:00,TMP,surface,-102.188,30.7085,294.214
2018-08-19 00:00:00,2018-08-19 00:00:00,TMP,surface,-101.25,30.7085,293.59
2018-08-19 00:00:00,2018-08-19 00:00:00,TMP,surface,-100.313,30.7085,292.529
2018-08-19 00:00:00,2018-08-19 00:00:00,TMP,surface,-99.3754,30.7085,291.972
2018-08-19 00:00:00,2018-08-19 00:00:00,TMP,surface,-98.4379,30.7085,292.148
2018-08-19 00:00:00,2018-08-19 00:00:00,TMP,surface,-97.5004,30.7085,292.633
2018-08-19 00:00:00,2018-08-19 00:00:00,TMP,surface,-96.5629,30.7085,292.977
2018-08-19 00:00:00,2018-08-19 00:00:00,TMP,surface,-95.6254,30.7085,293.159
2018-08-19 00:00:00,2018-08-19 00:00:00,TMP,surface,-94.6879,30.7085,293.252
2018-08-19 00:00:00,2018-08-19 00:00:00,TMP,surface,-93.7504,30.7085,293.023
2018-08-19 00:00:00,2018-08-19 00:00:00,TMP,surface,-92.8129,30.7085,292.415
2018-08-19 00:00:00,2018-08-19 00:00:00,TMP,surface,-107.813,31.6534,291.171
2018-08-19 00:00:00,2018-08-19 00:00:00,TMP,surface,-106.875,31.6534,292.323
2018-08-19 00:00:00,2018-08-19 00:00:00,TMP,surface,-105.938,31.6534,291.458
2018-08-19 00:00:00,2018-08-19 00:00:00,TMP,surface,-105,31.6534,291.351
2018-08-19 00:00:00,2018-08-19 00:00:00,TMP,surface,-104.063,31.6534,292.308
2018-08-19 00:00:00,2018-08-19 00:00:00,TMP,surface,-103.125,31.6534,293.458
2018-08-19 00:00:00,2018-08-19 00:00:00,TMP,surface,-102.188,31.6534,293.782
2018-08-19 00:00:00,2018-08-19 00:00:00,TMP,surface,-101.25,31.6534,293.23
2018-08-19 00:00:00,2018-08-19 00:00:00,TMP,surface,-100.313,31.6534,292.514
2018-08-19 00:00:00,2018-08-19 00:00:00,TMP,surface,-99.3754,31.6534,292.193
2018-08-19 00:00:00,2018-08-19 00:00:00,TMP,surface,-98.4379,31.6534,292.366
2018-08-19 00:00:00,2018-08-19 00:00:00,TMP,surface,-97.5004,31.6534,292.634
2018-08-19 00:00:00,2018-08-19 00:00:00,TMP,surface,-96.5629,31.6534,292.748
2018-08-19 00:00:00,2018-08-19 00:00:00,TMP,surface,-95.6254,31.6534,292.644
2018-08-19 00:00:00,2018-08-19 00:00:00,TMP,surface,-94.6879,31.6534,292.342
2018-08-19 00:00:00,2018-08-19 00:00:00,TMP,surface,-93.7504,31.6534,292.074
2018-08-19 00:00:00,2018-08-19 00:00:00,TMP,surface,-92.8129,31.6534,291.886
2018-08-19 00:00:00,2018-08-19 00:00:00,TMP,surface,-107.813,32.5983,288.113
2018-08-19 00:00:00,2018-08-19 00:00:00,TMP,surface,-106.875,32.5983,288.863
2018-08-19 00:00:00,2018-08-19 00:00:00,TMP,surface,-105.938,32.5983,289.767
2018-08-19 00:00:00,2018-08-19 00:00:00,TMP,surface,-105,32.5983,290.177
2018-08-19 00:00:00,2018-08-19 00:00:00,TMP,surface,-104.063,32.5983,291.7
2018-08-19 00:00:00,2018-08-19 00:00:00,TMP,surface,-103.125,32.5983,292.625
2018-08-19 00:00:00,2018-08-19 00:00:00,TMP,surface,-102.188,32.5983,292.764
2018-08-19 00:00:00,2018-08-19 00:00:00,TMP,surface,-101.25,32.5983,292.678
2018-08-19 00:00:00,2018-08-19 00:00:00,TMP,surface,-100.313,32.5983,292.806
2018-08-19 00:00:00,2018-08-19 00:00:00,TMP,surface,-99.3754,32.5983,292.879
2018-08-19 00:00:00,2018-08-19 00:00:00,TMP,surface,-98.4379,32.5983,292.689
2018-08-19 00:00:00,2018-08-19 00:00:00,TMP,surface,-97.5004,32.5983,292.479
2018-08-19 00:00:00,2018-08-19 00:00:00,TMP,surface,-96.5629,32.5983,292.43
2018-08-19 00:00:00,2018-08-19 00:00:00,TMP,surface,-95.6254,32.5983,292.283
2018-08-19 00:00:00,2018-08-19 00:00:00,TMP,surface,-94.6879,32.5983,291.878
2018-08-19 00:00:00,2018-08-19 00:00:00,TMP,surface,-93.7504,32.5983,291.611
2018-08-19 00:00:00,2018-08-19 00:00:00,TMP,surface,-92.8129,32.5983,291.786
2018-08-19 00:00:00,2018-08-19 00:00:00,TMP,surface,-107.813,33.5432,285.052
2018-08-19 00:00:00,2018-08-19 00:00:00,TMP,surface,-106.875,33.5432,286.697
2018-08-19 00:00:00,2018-08-19 00:00:00,TMP,surface,-105.938,33.5432,287.766
2018-08-19 00:00:00,2018-08-19 00:00:00,TMP,surface,-105,33.5432,289.044
2018-08-19 00:00:00,2018-08-19 00:00:00,TMP,surface,-104.063,33.5432,290.574
2018-08-19 00:00:00,2018-08-19 00:00:00,TMP,surface,-103.125,33.5432,290.954
2018-08-19 00:00:00,2018-08-19 00:00:00,TMP,surface,-102.188,33.5432,291.079
2018-08-19 00:00:00,2018-08-19 00:00:00,TMP,surface,-101.25,33.5432,291.433
2018-08-19 00:00:00,2018-08-19 00:00:00,TMP,surface,-100.313,33.5432,292.191
2018-08-19 00:00:00,2018-08-19 00:00:00,TMP,surface,-99.3754,33.5432,292.649
2018-08-19 00:00:00,2018-08-19 00:00:00,TMP,surface,-98.4379,33.5432,292.283
2018-08-19 00:00:00,2018-08-19 00:00:00,TMP,surface,-97.5004,33.5432,291.601
2018-08-19 00:00:00,2018-08-19 00:00:00,TMP,surface,-96.5629,33.5432,291.102
2018-08-19 00:00:00,2018-08-19 00:00:00,TMP,surface,-95.6254,33.5432,290.969
2018-08-19 00:00:00,2018-08-19 00:00:00,TMP,surface,-94.6879,33.5432,290.977
2018-08-19 00:00:00,2018-08-19 00:00:00,TMP,surface,-93.7504,33.5432,290.57
2018-08-19 00:00:00,2018-08-19 00:00:00,TMP,surface,-92.8129,33.5432,290.502
2018-08-19 00:00:00,2018-08-19 00:00:00,TMP,surface,-107.813,34.4881,283.595
2018-08-19 00:00:00,2018-08-19 00:00:00,TMP,surface,-106.875,34.4881,285.188
2018-08-19 00:00:00,2018-08-19 00:00:00,TMP,surface,-105.938,34.4881,286.228
2018-08-19 00:00:00,2018-08-19 00:00:00,TMP,surface,-105,34.4881,287.626
2018-08-19 00:00:00,2018-08-19 00:00:00,TMP,surface,-104.063,34.4881,288.401
2018-08-19 00:00:00,2018-08-19 00:00:00,TMP,surface,-103.125,34.4881,288.863
2018-08-19 00:00:00,2018-08-19 00:00:00,TMP,surface,-102.188,34.4881,289.29
2018-08-19 00:00:00,2018-08-19 00:00:00,TMP,surface,-101.25,34.4881,289.969
2018-08-19 00:00:00,2018-08-19 00:00:00,TMP,surface,-100.313,34.4881,290.854
2018-08-19 00:00:00,2018-08-19 00:00:00,TMP,surface,-99.3754,34.4881,291.335
2018-08-19 00:00:00,2018-08-19 00:00:00,TMP,surface,-98.4379,34.4881,291.026
2018-08-19 00:00:00,2018-08-19 00:00:00,TMP,surface,-97.5004,34.4881,290.324
2018-08-19 00:00:00,2018-08-19 00:00:00,TMP,surface,-96.5629,34.4881,289.988
2018-08-19 00:00:00,2018-08-19 00:00:00,TMP,surface,-95.6254,34.4881,289.898
2018-08-19 00:00:00,2018-08-19 00:00:00,TMP,surface,-94.6879,34.4881,289.447
2018-08-19 00:00:00,2018-08-19 00:00:00,TMP,surface,-93.7504,34.4881,288.978
2018-08-19 00:00:00,2018-08-19 00:00:00,TMP,surface,-92.8129,34.4881,289.06
2018-08-19 00:00:00,2018-08-19 00:00:00,TMP,surface,-107.813,35.4329,283.524
2018-08-19 00:00:00,2018-08-19 00:00:00,TMP,surface,-106.875,35.4329,283.886
2018-08-19 00:00:00,2018-08-19 00:00:00,TMP,surface,-105.938,35.4329,284.41
2018-08-19 00:00:00,2018-08-19 00:00:00,TMP,surface,-105,35.4329,285.257
2018-08-19 00:00:00,2018-08-19 00:00:00,TMP,surface,-104.063,35.4329,286.99
2018-08-19 00:00:00,2018-08-19 00:00:00,TMP,surface,-103.125,35.4329,287.993
2018-08-19 00:00:00,2018-08-19 00:00:00,TMP,surface,-102.188,35.4329,288.225
2018-08-19 00:00:00,2018-08-19 00:00:00,TMP,surface,-101.25,35.4329,288.673
2018-08-19 00:00:00,2018-08-19 00:00:00,TMP,surface,-100.313,35.4329,289.228
2018-08-19 00:00:00,2018-08-19 00:00:00,TMP,surface,-99.3754,35.4329,289.626
2018-08-19 00:00:00,2018-08-19 00:00:00,TMP,surface,-98.4379,35.4329,289.695
2018-08-19 00:00:00,2018-08-19 00:00:00,TMP,surface,-97.5004,35.4329,289.628
2018-08-19 00:00:00,2018-08-19 00:00:00,TMP,surface,-96.5629,35.4329,289.543
2018-08-19 00:00:00,2018-08-19 00:00:00,TMP,surface,-95.6254,35.4329,289.326
2018-08-19 00:00:00,2018-08-19 00:00:00,TMP,surface,-94.6879,35.4329,288.881
2018-08-19 00:00:00,2018-08-19 00:00:00,TMP,surface,-93.7504,35.4329,288.257
2018-08-19 00:00:00,2018-08-19 00:00:00,TMP,surface,-92.8129,35.4329,287.841
2018-08-19 00:00:00,2018-08-19 00:00:00,TMP,surface,-107.813,36.3778,283.043
2018-08-19 00:00:00,2018-08-19 00:00:00,TMP,surface,-106.875,36.3778,281.278
2018-08-19 00:00:00,2018-08-19 00:00:00,TMP,surface,-105.938,36.3778,281.922
2018-08-19 00:00:00,2018-08-19 00:00:00,TMP,surface,-105,36.3778,282.798
2018-08-19 00:00:00,2018-08-19 00:00:00,TMP,surface,-104.063,36.3778,284.791
2018-08-19 00:00:00,2018-08-19 00:00:00,TMP,surface,-103.125,36.3778,286.118
2018-08-19 00:00:00,2018-08-19 00:00:00,TMP,surface,-102.188,36.3778,286.906
2018-08-19 00:00:00,2018-08-19 00:00:00,TMP,surface,-101.25,36.3778,287.457
2018-08-19 00:00:00,2018-08-19 00:00:00,TMP,surface,-100.313,36.3778,288.174
2018-08-19 00:00:00,2018-08-19 00:00:00,TMP,surface,-99.3754,36.3778,288.738
2018-08-19 00:00:00,2018-08-19 00:00:00,TMP,surface,-98.4379,36.3778,288.951
2018-08-19 00:00:00,2018-08-19 00:00:00,TMP,surface,-97.5004,36.3778,289.063
2018-08-19 00:00:00,2018-08-19 00:00:00,TMP,surface,-96.5629,36.3778,289.036
2018-08-19 00:00:00,2018-08-19 00:00:00,TMP,surface,-95.6254,36.3778,288.66
2018-08-19 00:00:00,2018-08-19 00:00:00,TMP,surface,-94.6879,36.3778,287.972
2018-08-19 00:00:00,2018-08-19 00:00:00,TMP,surface,-93.7504,36.3778,287.188
2018-08-19 00:00:00,2018-08-19 00:00:00,TMP,surface,-92.8129,36.3778,286.822
2018-08-19 00:00:00,2018-08-19 00:00:00,PRATE,surface,-107.813,25.0393,5.44e-05
2018-08-19 00:00:00,2018-08-19 00:00:00,PRATE,surface,-106.875,25.0393,7.16e-05
2018-08-19 00:00:00,2018-08-19 00:00:00,PRATE,surface,-105.938,25.0393,0.000103
2018-08-19 00:00:00,2018-08-19 00:00:00,PRATE,surface,-105,25.0393,6.03e-05
2018-08-19 00:00:00,2018-08-19 00:00:00,PRATE,surface,-104.063,25.0393,3.64e-05
2018-08-19 00:00:00,2018-08-19 00:00:00,PRATE,surface,-103.125,25.0393,1.42e-05
2018-08-19 00:00:00,2018-08-19 00:00:00,PRATE,surface,-102.188,25.0393,2.13e-05
2018-08-19 00:00:00,2018-08-19 00:00:00,PRATE,surface,-101.25,25.0393,4.3e-05
2018-08-19 00:00:00,2018-08-19 00:00:00,PRATE,surface,-100.313,25.0393,7.7e-05
2018-08-19 00:00:00,2018-08-19 00:00:00,PRATE,surface,-99.3754,25.0393,6.78e-05
2018-08-19 00:00:00,2018-08-19 00:00:00,PRATE,surface,-98.4379,25.0393,4.12e-05
2018-08-19 00:00:00,2018-08-19 00:00:00,PRATE,surface,-97.5004,25.0393,5.35e-05
2018-08-19 00:00:00,2018-08-19 00:00:00,PRATE,surface,-96.5629,25.0393,4.31e-05
2018-08-19 00:00:00,2018-08-19 00:00:00,PRATE,surface,-95.6254,25.0393,3.54e-05
2018-08-19 00:00:00,2018-08-19 00:00:00,PRATE,surface,-94.6879,25.0393,4.58e-05
2018-08-19 00:00:00,2018-08-19 00:00:00,PRATE,surface,-93.7504,25.0393,7.2e-05
2018-08-19 00:00:00,2018-08-19 00:00:00,PRATE,surface,-92.8129,25.0393,7.32e-05
2018-08-19 00:00:00,2018-08-19 00:00:00,PRATE,surface,-107.813,25.9842,7.57e-05
2018-08-19 00:00:00,2018-08-19 00:00:00,PRATE,surface,-106.875,25.9842,8.33e-05
2018-08-19 00:00:00,2018-08-19 00:00:00,PRATE,surface,-105.938,25.9842,7.54e-05
2018-08-19 00:00:00,2018-08-19 00:00:00,PRATE,surface,-105,25.9842,6.62e-05
2018-08-19 00:00:00,2018-08-19 00:00:00,PRATE,surface,-104.063,25.9842,1.93e-05
2018-08-19 00:00:00,2018-08-19 00:00:00,PRATE,surface,-103.125,25.9842,1.29e-05
2018-08-19 00:00:00,2018-08-19 00:00:00,PRATE,surface,-102.188,25.9842,2e-05
2018-08-19 00:00:00,2018-08-19 00:00:00,PRATE,surface,-101.25,25.9842,3.93e-05
2018-08-19 00:00:00,2018-08-19 00:00:00,PRATE,surface,-100.313,25.9842,7.17e-05
2018-08-19 00:00:00,2018-08-19 00:00:00,PRATE,surface,-99.3754,25.9842,4.77e-05
2018-08-19 00:00:00,2018-08-19 00:00:00,PRATE,surface,-98.4379,25.9842,4.85e-05
2018-08-19 00:00:00,2018-08-19 00:00:00,PRATE,surface,-97.5004,25.9842,6.68e-05
2018-08-19 00:00:00,2018-08-19 00:00:00,PRATE,surface,-96.5629,25.9842,0.0001085
2018-08-19 00:00:00,2018-08-19 00:00:00,PRATE,surface,-95.6254,25.9842,8.38e-05
2018-08-19 00:00:00,2018-08-19 00:00:00,PRATE,surface,-94.6879,25.9842,5.58e-05
2018-08-19 00:00:00,2018-08-19 00:00:00,PRATE,surface,-93.7504,25.9842,5.36e-05
2018-08-19 00:00:00,2018-08-19 00:00:00,PRATE,surface,-92.8129,25.9842,3.55e-05
2018-08-19 00:00:00,2018-08-19 00:00:00,PRATE,surface,-107.813,26.929,7.3e-05
2018-08-19 00:00:00,2018-08-19 00:00:00,PRATE,surface,-106.875,26.929,5.77e-05
2018-08-19 00:00:00,2018-08-19 00:00:00,PRATE,surface,-105.938,26.929,5.36e-05
2018-08-19 00:00:00,2018-08-19 00:00:00,PRATE,surface,-105,26.929,3.98e-05
2018-08-19 00:00:00,2018-08-19 00:00:00,PRATE,surface,-104.063,26.929,2.51e-05
2018-08-19 00:00:00,2018-08-19 00:00:00,PRATE,surface,-103.125,26.929,3.56e-05
2018-08-19 00:00:00,2018-08-19 00:00:00,PRATE,surface,-102.188,26.929,4.05e-05
2018-08-19 00:00:00,2018-08-19 00:00:00,PRATE,surface,-101.25,26.929,4.7e-05
2018-08-19 00:00:00,2018-08-19 00:00:00,PRATE,surface,-100.313,26.929,4.64e-05
2018-08-19 00:00:00,2018-08-19 00:00:00,PRATE,surface,-99.3754,26.929,4.55e-05
2018-08-19 00:00:00,2018-08-19 00:00:00,PRATE,surface,-98.4379,26.929,8.12e-05
2018-08-19 00:00:00,2018-08-19 00:00:00,PRATE,surface,-97.5004,26.929,0.0001414
2018-08-19 00:00:00,2018-08-19 00:00:00,PRATE,surface,-96.5629,26.929,0.000173
2018-08-19 00:00:00,2018-08-19 00:00:00,PRATE,surface,-95.6254,26.929,9.9e-05
2018-08-19 00:00:00,2018-08-19 00:00:00,PRATE,surface,-94.6879,26.929,5.31e-05
2018-08-19 00:00:00,2018-08-19 00:00:00,PRATE,surface,-93.7504,26.929,4.5e-05
2018-08-19 00:00:00,2018-08-19 00:00:00,PRATE,surface,-92.8129,26.929,4.19e-05
2018-08-19 00:00:00,2018-08-19 00:00:00,PRATE,surface,-107.813,27.8739,4.48e-05
2018-08-19 00:00:00,2018-08-19 00:00:00,PRATE,surface,-106.875,27.8739,3.3e-05
2018-08-19 00:00:00,2018-08-19 00:00:00,PRATE,surface,-105.938,27.8739,2.77e-05
2018-08-19 00:00:00,2018-08-19 00:00:00,PRATE,surface,-105,27.8739,2e-05
2018-08-19 00:00:00,2018-08-19 00:00:00,PRATE,surface,-104.063,27.8739,2.62e-05
2018-08-19 00:00:00,2018-08-19 00:00:00,PRATE,surface,-103.125,27.8739,5.56e-05
2018-08-19 00:00:00,2018-08-19 00:00:00,PRATE,surface,-102.188,27.8739,7.75e-05
2018-08-19 00:00:00,2018-08-19 00:00:00,PRATE,surface,-101.25,27.8739,5.26e-05
2018-08-19 00:00:00,2018-08-19 00:00:00,PRATE,surface,-100.313,27.8739,4.15e-05
2018-08-19 00:00:00,2018-08-19 00:00:00,PRATE,surface,-99.3754,27.8739,6.07e-05
2018-08-19 00:00:00,2018-08-19 00:00:00,PRATE,surface,-98.4379,27.8739,9.12e-05
2018-08-19 00:00:00,2018-08-19 00:00:00,PRATE,surface,-97.5004,27.8739,0.0001198
2018-08-19 00:00:00,2018-08-19 00:00:00,PRATE,surface,-96.5629,27.8739,9.79e-05
2018-08-19 00:00:00,2018-08-19 00:00:00,PRATE,surface,-95.6254,27.8739,4.83e-05
2018-08-19 00:00:00,2018-08-19 00:00:00,PRATE,surface,-94.6879,27.8739,4.63e-05
2018-08-19 00:00:00,2018-08-19 00:00:00,PRATE,surface,-93.7504,27.8739,5.42e-05
2018-08-19 00:00:00,2018-08-19 00:00:00,PRATE,surface,-92.8129,27.8739,5.49e-05
2018-08-19 00:00:00,2018-08-19 00:00:00,PRATE,surface,-107.813,28.8188,2.96e-05
2018-08-19 00:00:00,2018-08-19 00:00:00,PRATE,surface,-106.875,28.8188,2.09e-05
2018-08-19 00:00:00,2018-08-19 00:00:00,PRATE,surface,-105.938,28.8188,1.95e-05
2018-08-19 00:00:00,2018-08-19 00:00:00,PRATE,surface,-105,28.8188,1.71e-05
2018-08-19 00:00:00,2018-08-19 00:00:00,PRATE,surface,-104.063,28.8188,2.32e-05
2018-08-19 00:00:00,2018-08-19 00:00:00,PRATE,surface,-103.125,28.8188,4.5e-05
2018-08-19 00:00:00,2018-08-19 00:00:00,PRATE,surface,-102.188,28.8188,4.63e-05
2018-08-19 00:00:00,2018-08-19 00:00:00,PRATE,surface,-101.25,28.8188,4.91e-05
2018-08-19 00:00:00,2018-08-19 00:00:00,PRATE,surface,-100.313,28.8188,7.05e-05
2018-08-19 00:00:00,2018-08-19 00:00:00,PRATE,surface,-99.3754,28.8188,9.53e-05
2018-08-19 00:00:00,2018-08-19 00:00:00,PRATE,surface,-98.4379,28.8188,0.0001041
2018-08-19 00:00:00,2018-08-19 00:00:00,PRATE,surface,-97.5004,28.8188,8.84e-05
2018-08-19 00:00:00,2018-08-19 00:00:00,PRATE,surface,-96.5629,28.8188,5.97e-05
2018-08-19 00:00:00,2018-08-19 00:00:00,PRATE,surface,-95.6254,28.8188,3.82e-05
2018-08-19 00:00:00,2018-08-19 00:00:00,PRATE,surface,-94.6879,28.8188,3.11e-05
2018-08-19 00:00:00,2018-08-19 00:00:00,PRATE,surface,-93.7504,28.8188,2.69e-05
2018-08-19 00:00:00,2018-08-19 00:00:00,PRATE,surface,-92.8129,28.8188,1.24e-05
2018-08-19 00:00:00,2018-08-19 00:00:00,PRATE,surface,-107.813,29.7637,2.04e-05
2018-08-19 00:00:00,2018-08-19 00:00:00,PRATE,surface,-106.875,29.7637,1.77e-05
2018-08-19 00:00:00,2018-08-19 00:00:00,PRATE,surface,-105.938,29.7637,1.87e-05
2018-08-19 00:00:00,2018-08-19 00:00:00,PRATE,surface,-105,29.7637,2.1e-05
2018-08-19 00:00:00,2018-08-19 00:00:00,PRATE,surface,-104.063,29.7637,2.2e-05
2018-08-19 00:00:00,2018-08-19 00:00:00,PRATE,surface,-103.125,29.7637,2.95e-05
2018-08-19 00:00:00,2018-08-19 00:00:00,PRATE,surface,-102.188,29.7637,3.35e-05
2018-08-19 00:00:00,2018-08-19 00:00:00,PRATE,surface,-101.25,29.7637,4.54e-05
2018-08-19 00:00:00,2018-08-19 00:00:00,PRATE,surface,-100.313,29.7637,7.56e-05
2018-08-19 00:00:00,2018-08-19 00:00:00,PRATE,surface,-99.3754,29.7637,0.0001033
2018-08-19 00:00:00,2018-08-19 00:00:00,PRATE,surface,-98.4379,29.7637,9.85e-05
2018-08-19 00:00:00,2018-08-19 00:00:00,PRATE,surface,-97.5004,29.7637,6.19e-05
2018-08-19 00:00:00,2018-08-19 00:00:00,PRATE,surface,-96.5629,29.7637,3.63e-05
2018-08-19 00:00:00,2018-08-19 00:00:00,PRATE,surface,-95.6254,29.7637,3.3e-05
2018-08-19 00:00:00,2018-08-19 00:00:00,PRATE,surface,-94.6879,29.7637,2.34e-05
2018-08-19 00:00:00,2018-08-19 00:00:00,PRATE,surface,-93.7504,29.7637,1.47e-05
2018-08-19 00:00:00,2018-08-19 00:00:00,PRATE,surface,-92.8129,29.7637,1.63e-05
2018-08-19 00:00:00,2018-08-19 00:00:00,PRATE,surface,-107.813,30.7085,1.9e-05
2018-08-19 00:00:00,2018-08-19 00:00:00,PRATE,surface,-106.875,30.7085,1.64e-05
2018-08-19 00:00:00,2018-08-19 00:00:00,PRATE,surface,-105.938,30.7085,1.91e-05
2018-08-19 00:00:00,2018-08-19 00:00:00,PRATE,surface,-105,30.7085,2.4e-05
2018-08-19 00:00:00,2018-08-19 00:00:00,PRATE,surface,-104.063,30.7085,2.15e-05
2018-08-19 00:00:00,2018-08-19 00:00:00,PRATE,surface,-103.125,30.7085,2.26e-05
2018-08-19 00:00:00,2018-08-19 00:00:00,PRATE,surface,-102.188,30.7085,3.54e-05
2018-08-19 00:00:00,2018-08-19 00:00:00,PRATE,surface,-101.25,30.7085,5.15e-05
2018-08-19 00:00:00,2018-08-19 00:00:00,PRATE,surface,-100.313,30.7085,6.49e-05
2018-08-19 00:00:00,2018-08-19 00:00:00,PRATE,surface,-99.3754,30.7085,7.46e-05
2018-08-19 00:00:00,2018-08-19 00:00:00,PRATE,surface,-98.4379,30.7085,6.8e-05
2018-08-19 00:00:00,2018-08-19 00:00:00,PRATE,surface,-97.5004,30.7085,4.46e-05
2018-08-19 00:00:00,2018-08-19 00:00:00,PRATE,surface,-96.5629,30.7085,2.83e-05
2018-08-19 00:00:00,2018-08-19 00:00:00,PRATE,surface,-95.6254,30.7085,2.46e-05
2018-08-19 00:00:00,2018-08-19 00:00:00,PRATE,surface,-94.6879,30.7085,1.75e-05
2018-08-19 00:00:00,2018-08-19 00:00:00,PRATE,surface,-93.7504,30.7085,1.25e-05
2018-08-19 00:00:00,2018-08-19 00:00:00,PRATE,surface,-92.8129,30.7085,1.25e-05
2018-08-19 00:00:00,2018-08-19 00:00:00,PRATE,surface,-107.813,31.6534,2.09e-05
2018-08-19 00:00:00,2018-08-19 00:00:00,PRATE,surface,-106.875,31.6534,1.94e-05
2018-08-19 00:00:00,2018-08-19 00:00:00,PRATE,surface,-105.938,31.6534,2.31e-05
2018-08-19 00:00:00,2018-08-19 00:00:00,PRATE,surface,-105,31.6534,2.71e-05
2018-08-19 00:00:00,2018-08-19 00:00:00,PRATE,surface,-104.063,31.6534,1.7e-05
2018-08-19 00:00:00,2018-08-19 00:00:00,PRATE,surface,-103.125,31.6534,2.08e-05
2018-08-19 00:00:00,2018-08-19 00:00:00,PRATE,surface,-102.188,31.6534,3.71e-05
2018-08-19 00:00:00,2018-08-19 00:00:00,PRATE,surface,-101.25,31.6534,4.72e-05
2018-08-19 00:00:00,2018-08-19 00:00:00,PRATE,surface,-100.313,31.6534,4.72e-05
2018-08-19 00:00:00,2018-08-19 00:00:00,PRATE,surface,-99.3754,31.6534,4.3e-05
2018-08-19 00:00:00,2018-08-19 00:00:00,PRATE,surface,-98.4379,31.6534,4.28e-05
2018-08-19 00:00:00,2018-08-19 00:00:00,PRATE,surface,-97.5004,31.6534,4.29e-05
2018-08-19 00:00:00,2018-08-19 00:00:00,PRATE,surface,-96.5629,31.6534,3.95e-05
2018-08-19 00:00:00,2018-08-19 00:00:00,PRATE,surface,-95.6254,31.6534,3.07e-05
2018-08-19 00:00:00,2018-08-19 00:00:00,PRATE,surface,-94.6879,31.6534,1.94e-05
2018-08-19 00:00:00,2018-08-19 00:00:00,PRATE,surface,-93.7504,31.6534,1.62e-05
2018-08-19 00:00:00,2018-08-19 00:00:00,PRATE,surface,-92.8129,31.6534,1.46e-05
2018-08-19 00:00:00,2018-08-19 00:00:00,PRATE,surface,-107.813,32.5983,2.7e-05
2018-08-19 00:00:00,2018-08-19 00:00:00,PRATE,surface,-106.875,32.5983,2.73e-05
2018-08-19 00:00:00,2018-08-19 00:00:00,PRATE,surface,-105.938,32.5983,2.83e-05
2018-08-19 00:00:00,2018-08-19 00:00:00,PRATE,surface,-105,32.5983,2.84e-05
2018-08-19 00:00:00,2018-08-19 00:00:00,PRATE,surface,-104.063,32.5983,1.87e-05
2018-08-19 00:00:00,2018-08-19 00:00:00,PRATE,surface,-103.125,32.5983,2.66e-05
2018-08-19 00:00:00,2018-08-19 00:00:00,PRATE,surface,-102.188,32.5983,4.19e-05
2018-08-19 00:00:00,2018-08-19 00:00:00,PRATE,surface,-101.25,32.5983,5.59e-05
2018-08-19 00:00:00,2018-08-19 00:00:00,PRATE,surface,-100.313,32.5983,4.01e-05
2018-08-19 00:00:00,2018-08-19 00:00:00,PRATE,surface,-99.3754,32.5983,2.7e-05
2018-08-19 00:00:00,2018-08-19 00:00:00,PRATE,surface,-98.4379,32.5983,3.09e-05
2018-08-19 00:00:00,2018-08-19 00:00:00,PRATE,surface,-97.5004,32.5983,3.81e-05
2018-08-19 00:00:00,2018-08-19 00:00:00,PRATE,surface,-96.5629,32.5983,3.39e-05
2018-08-19 00:00:00,2018-08-19 00:00:00,PRATE,surface,-95.6254,32.5983,2.45e-05
2018-08-19 00:00:00,2018-08-19 00:00:00,PRATE,surface,-94.6879,32.5983,2.32e-05
2018-08-19 00:00:00,2018-08-19 00:00:00,PRATE,surface,-93.7504,32.5983,2.22e-05
2018-08-19 00:00:00,2018-08-19 00:00:00,PRATE,surface,-92.8129,32.5983,1.47e-05
2018-08-19 00:00:00,2018-08-19 00:00:00,PRATE,surface,-107.813,33.5432,2.73e-05
2018-08-19 00:00:00,2018-08-19 00:00:00,PRATE,surface,-106.875,33.5432,2.8e-05
2018-08-19 00:00:00,2018-08-19 00:00:00,PRATE,surface,-105.938,33.5432,2.84e-05
2018-08-19 00:00:00,2018-08-19 00:00:00,PRATE,surface,-105,33.5432,2.89e-05
2018-08-19 00:00:00,2018-08-19 00:00:00,PRATE,surface,-104.063,33.5432,3.03e-05
2018-08-19 00:00:00,2018-08-19 00:00:00,PRATE,surface,-103.125,33.5432,3.17e-05
2018-08-19 00:00:00,2018-08-19 00:00:00,PRATE,surface,-102.188,33.5432,4.28e-05
2018-08-19 00:00:00,2018-08-19 00:00:00,PRATE,surface,-101.25,33.5432,5.83e-05
2018-08-19 00:00:00,2018-08-19 00:00:00,PRATE,surface,-100.313,33.5432,4.48e-05
2018-08-19 00:00:00,2018-08-19 00:00:00,PRATE,surface,-99.3754,33.5432,2.9e-05
2018-08-19 00:00:00,2018-08-19 00:00:00,PRATE,surface,-98.4379,33.5432,3.04e-05
2018-08-19 00:00:00,2018-08-19 00:00:00,PRATE,surface,-97.5004,33.5432,3.4e-05
2018-08-19 00:00:00,2018-08-19 00:00:00,PRATE,surface,-96.5629,33.5432,2.96e-05
2018-08-19 00:00:00,2018-08-19 00:00:00,PRATE,surface,-95.6254,33.5432,2.16e-05
2018-08-19 00:00:00,2018-08-19 00:00:00,PRATE,surface,-94.6879,33.5432,1.87e-05
2018-08-19 00:00:00,2018-08-19 00:00:00,PRATE,surface,-93.7504,33.5432,2.67e-05
2018-08-19 00:00:00,2018-08-19 00:00:00,PRATE,surface,-92.8129,33.5432,2.73e-05
2018-08-19 00:00:00,2018-08-19 00:00:00,PRATE,surface,-107.813,34.4881,2.99e-05
2018-08-19 00:00:00,2018-08-19 00:00:00,PRATE,surface,-106.875,34.4881,3.2e-05
2018-08-19 00:00:00,2018-08-19 00:00:00,PRATE,surface,-105.938,34.4881,3.41e-05
2018-08-19 00:00:00,2018-08-19 00:00:00,PRATE,surface,-105,34.4881,3.78e-05
2018-08-19 00:00:00,2018-08-19 00:00:00,PRATE,surface,-104.063,34.4881,4e-05
2018-08-19 00:00:00,2018-08-19 00:00:00,PRATE,surface,-103.125,34.4881,4.1e-05
2018-08-19 00:00:00,2018-08-19 00:00:00,PRATE,surface,-102.188,34.4881,5.03e-05
2018-08-19 00:00:00,2018-08-19 00:00:00,PRATE,surface,-101.25,34.4881,6.18e-05
2018-08-19 00:00:00,2018-08-19 00:00:00,PRATE,surface,-100.313,34.4881,5.05e-05
2018-08-19 00:00:00,2018-08-19 00:00:00,PRATE,surface,-99.3754,34.4881,3.83e-05
2018-08-19 00:00:00,2018-08-19 00:00:00,PRATE,surface,-98.4379,34.4881,3.72e-05
2018-08-19 00:00:00,2018-08-19 00:00:00,PRATE,surface,-97.5004,34.4881,3.93e-05
2018-08-19 00:00:00,2018-08-19 00:00:00,PRATE,surface,-96.5629,34.4881,3.4e-05
2018-08-19 00:00:00,2018-08-19 00:00:00,PRATE,surface,-95.6254,34.4881,2.34e-05
2018-08-19 00:00:00,2018-08-19 00:00:00,PRATE,surface,-94.6879,34.4881,1.94e-05
2018-08-19 00:00:00,2018-08-19 00:00:00,PRATE,surface,-93.7504,34.4881,2.24e-05
2018-08-19 00:00:00,2018-08-19 00:00:00,PRATE,surface,-92.8129,34.4881,2.35e-05
2018-08-19 00:00:00,2018-08-19 00:00:00,PRATE,surface,-107.813,35.4329,2.63e-05
2018-08-19 00:00:00,2018-08-19 00:00:00,PRATE,surface,-106.875,35.4329,3.24e-05
2018-08-19 00:00:00,2018-08-19 00:00:00,PRATE,surface,-105.938,35.4329,3.23e-05
2018-08-19 00:00:00,2018-08-19 00:00:00,PRATE,surface,-105,35.4329,4e-05
2018-08-19 00:00:00,2018-08-19 00:00:00,PRATE,surface,-104.063,35.4329,5.02e-05
2018-08-19 00:00:00,2018-08-19 00:00:00,PRATE,surface,-103.125,35.4329,6e-05
2018-08-19 00:00:00,2018-08-19 00:00:00,PRATE,surface,-102.188,35.4329,6.24e-05
2018-08-19 00:00:00,2018-08-19 00:00:00,PRATE,surface,-101.25,35.4329,6.64e-05
2018-08-19 00:00:00,2018-08-19 00:00:00,PRATE,surface,-100.313,35.4329,5.7e-05
2018-08-19 00:00:00,2018-08-19 00:00:00,PRATE,surface,-99.3754,35.4329,4.35e-05
2018-08-19 00:00:00,2018-08-19 00:00:00,PRATE,surface,-98.4379,35.4329,4.02e-05
2018-08-19 00:00:00,2018-08-19 00:00:00,PRATE,surface,-97.5004,35.4329,3.79e-05
2018-08-19 00:00:00,2018-08-19 00:00:00,PRATE,surface,-96.5629,35.4329,2.81e-05
2018-08-19 00:00:00,2018-08-19 00:00:00,PRATE,surface,-95.6254,35.4329,1.86e-05
2018-08-19 00:00:00,2018-08-19 00:00:00,PRATE,surface,-94.6879,35.4329,1.61e-05
2018-08-19 00:00:00,2018-08-19 00:00:00,PRATE,surface,-93.7504,35.4329,1.56e-05
2018-08-19 00:00:00,2018-08-19 00:00:00,PRATE,surface,-92.8129,35.4329,1.23e-05
2018-08-19 00:00:00,2018-08-19 00:00:00,PRATE,surface,-107.813,36.3778,3.17e-05
2018-08-19 00:00:00,2018-08-19 00:00:00,PRATE,surface,-106.875,36.3778,3.77e-05
2018-08-19 00:00:00,2018-08-19 00:00:00,PRATE,surface,-105.938,36.3778,3.26e-05
2018-08-19 00:00:00,2018-08-19 00:00:00,PRATE,surface,-105,36.3778,3.99e-05
2018-08-19 00:00:00,2018-08-19 00:00:00,PRATE,surface,-104.063,36.3778,5.56e-05
2018-08-19 00:00:00,2018-08-19 00:00:00,PRATE,surface,-103.125,36.3778,7.35e-05
2018-08-19 00:00:00,2018-08-19 00:00:00,PRATE,surface,-102.188,36.3778,8.42e-05
2018-08-19 00:00:00,2018-08-19 00:00:00,PRATE,surface,-101.25,36.3778,8.16e-05
2018-08-19 00:00:00,2018-08-19 00:00:00,PRATE,surface,-100.313,36.3778,6.41e-05
2018-08-19 00:00:00,2018-08-19 00:00:00,PRATE,surface,-99.3754,36.3778,4.68e-05
2018-08-19 00:00:00,2018-08-19 00:00:00,PRATE,surface,-98.4379,36.3778,3.8e-05
2018-08-19 00:00:00,2018-08-19 00:00:00,PRATE,surface,-97.5004,36.3778,3.18e-05
2018-08-19 00:00:00,2018-08-19 00:00:00,PRATE,surface,-96.5629,36.3778,2.38e-05
2018-08-19 00:00:00,2018-08-19 00:00:00,PRATE,surface,-95.6254,36.3778,2.03e-05
2018-08-19 00:00:00,2018-08-19 00:00:00,PRATE,surface,-94.6879,36.3778,2.29e-05
2018-08-19 00:00:00,2018-08-19 00:00:00,PRATE,surface,-93.7504,36.3778,2.19e-05
2018-08-19 00:00:00,2018-08-19 00:00:00,PRATE,surface,-92.8129,36.3778,1.74e-05
