2014-07-23 00:00:00,2014-07-23 00:00:00,TMP,surface,-107.813,25.0393,293.928
2014-07-23 00:00:00,2014-07-23 00:00:00,TMP,surface,-106.875,25.0393,287.547
2014-07-23 00:00:00,2014-07-23 00:00:00,TMP,surface,-105.938,25.0393,282.066
2014-07-23 00:00:00,2014-07-23 00:00:00,TMP,surface,-105,25.0393,280.979
2014-07-23 00:00:00,2014-07-23 00:00:00,TMP,surface,-104.063,25.0393,284.501
2014-07-23 00:00:00,2014-07-23 00:00:00,TMP,surface,-103.125,25.0393,286.888
2014-07-23 00:00:00,2014-07-23 00:00:00,TMP,surface,-102.188,25.0393,286.979
2014-07-23 00:00:00,2014-07-23 00:00:00,TMP,surface,-101.25,25.0393,285.634
2014-07-23 00:00:00,2014-07-23 00:00:00,TMP,surface,-100.313,25.0393,286.214
2014-07-23 00:00:00,2014-07-23 00:00:00,TMP,surface,-99.3754,25.0393,288.867
2014-07-23 00:00:00,2014-07-23 00:00:00,TMP,surface,-98.4379,25.0393,292.224
2014-07-23 00:00:00,2014-07-23 00:00:00,TMP,surface,-97.5004,25.0393,296.176
2014-07-23 00:00:00,2014-07-23 00:00:00,TMP,surface,-96.5629,25.0393,296.043
2014-07-23 00:00:00,2014-07-23 00:00:00,TMP,surface,-95.6254,25.0393,295.966
2014-07-23 00:00:00,2014-07-23 00:00:00,TMP,surface,-94.6879,25.0393,295.907
2014-07-23 00:00:00,2014-07-23 00:00:00,TMP,surface,-93.7504,25.0393,295.789
2014-07-23 00:00:00,2014-07-23 00:00:00,TMP,surface,-92.8129,25.0393,295.845
2014-07-23 00:00:00,2014-07-23 00:00:00,TMP,surface,-107.813,25.9842,288.274
2014-07-23 00:00:00,2014-07-23 00:00:00,TMP,surface,-106.875,25.9842,282.669
2014-07-23 00:00:00,2014-07-23 00:00:00,TMP,surface,-105.938,25.9842,280.558
2014-07-23 00:00:00,2014-07-23 00:00:00,TMP,surface,-105,25.9842,283.038
2014-07-23 00:00:00,2014-07-23 00:00:00,TMP,surface,-104.063,25.9842,286.507
2014-07-23 00:00:00,2014-07-23 00:00:00,TMP,surface,-103.125,25.9842,287.918
2014-07-23 00:00:00,2014-07-23 00:00:00,TMP,surface,-102.188,25.9842,287.718
2014-07-23 00:00:00,2014-07-23 00:00:00,TMP,surface,-101.25,25.9842,286.989
2014-07-23 00:00:00,2014-07-23 00:00:00,TMP,surface,-100.313,25.9842,287.179
2014-07-23 00:00:00,2014-07-23 00:00:00,TMP,surface,-99.3754,25.9842,289.726
2014-07-23 00:00:00,2014-07-23 00:00:00,TMP,surface,-98.4379,25.9842,291.987
2014-07-23 00:00:00,2014-07-23 00:00:00,TMP,surface,-97.5004,25.9842,293.506
2014-07-23 00:00:00,2014-07-23 00:00:00,TMP,surface,-96.5629,25.9842,295.398
2014-07-23 00:00:00,2014-07-23 00:00:00,TMP,surface,-95.6254,25.9842,295.499
2014-07-23 00:00:00,2014-07-23 00:00:00,TMP,surface,-94.6879,25.9842,295.491
2014-07-23 00:00:00,2014-07-23 00:00:00,TMP,surface,-93.7504,25.9842,295.326
2014-07-23 00:00:00,2014-07-23 00:00:00,TMP,surface,-92.8129,25.9842,295.322
2014-07-23 00:00:00,2014-07-23 00:00:00,TMP,surface,-107.813,26.929,283.301
2014-07-23 00:00:00,2014-07-23 00:00:00,TMP,surface,-106.875,26.929,279.664
2014-07-23 00:00:00,2014-07-23 00:00:00,TMP,surface,-105.938,26.929,282.222
2014-07-23 00:00:00,2014-07-23 00:00:00,TMP,surface,-105,26.929,285.406
2014-07-23 00:00:00,2014-07-23 00:00:00,TMP,surface,-104.063,26.929,286.765
2014-07-23 00:00:00,2014-07-23 00:00:00,TMP,surface,-103.125,26.929,286.15
2014-07-23 00:00:00,2014-07-23 00:00:00,TMP,surface,-102.188,26.929,286.093
2014-07-23 00:00:00,2014-07-23 00:00:00,TMP,surface,-101.25,26.929,286.685
2014-07-23 00:00:00,2014-07-23 00:00:00,TMP,surface,-100.313,26.929,287.989
2014-07-23 00:00:00,2014-07-23 00:00:00,TMP,surface,-99.3754,26.929,289.67
2014-07-23 00:00:00,2014-07-23 00:00:00,TMP,surface,-98.4379,26.929,290.581
2014-07-23 00:00:00,2014-07-23 00:00:00,TMP,surface,-97.5004,26.929,294.496
2014-07-23 00:00:00,2014-07-23 00:00:00,TMP,surface,-96.5629,26.929,294.634
2014-07-23 00:00:00,2014-07-23 00:00:00,TMP,surface,-95.6254,26.929,294.851
2014-07-23 00:00:00,2014-07-23 00:00:00,TMP,surface,-94.6879,26.929,295.002
2014-07-23 00:00:00,2014-07-23 00:00:00,TMP,surface,-93.7504,26.929,294.84
2014-07-23 00:00:00,2014-07-23 00:00:00,TMP,surface,-92.8129,26.929,294.691
2014-07-23 00:00:00,2014-07-23 00:00:00,TMP,surface,-107.813,27.8739,280.221
2014-07-23 00:00:00,2014-07-23 00:00:00,TMP,surface,-106.875,27.8739,279.69
2014-07-23 00:00:00,2014-07-23 00:00:00,TMP,surface,-105.938,27.8739,283.288
2014-07-23 00:00:00,2014-07-23 00:00:00,TMP,surface,-105,27.8739,285.813
2014-07-23 00:00:00,2014-07-23 00:00:00,TMP,surface,-104.063,27.8739,285.832
2014-07-23 00:00:00,2014-07-23 00:00:00,TMP,surface,-103.125,27.8739,284.789
2014-07-23 00:00:00,2014-07-23 00:00:00,TMP,surface,-102.188,27.8739,284.766
2014-07-23 00:00:00,2014-07-23 00:00:00,TMP,surface,-101.25,27.8739,286.013
2014-07-23 00:00:00,2014-07-23 00:00:00,TMP,surface,-100.313,27.8739,287.488
2014-07-23 00:00:00,2014-07-23 00:00:00,TMP,surface,-99.3754,27.8739,288.318
2014-07-23 00:00:00,2014-07-23 00:00:00,TMP,surface,-98.4379,27.8739,289.016
2014-07-23 00:00:00,2014-07-23 00:00:00,TMP,surface,-97.5004,27.8739,292.13
2014-07-23 00:00:00,2014-07-23 00:00:00,TMP,surface,-96.5629,27.8739,294.824
2014-07-23 00:00:00,2014-07-23 00:00:00,TMP,surface,-95.6254,27.8739,294.594
2014-07-23 00:00:00,2014-07-23 00:00:00,TMP,surface,-94.6879,27.8739,294.202
2014-07-23 00:00:00,2014-07-23 00:00:00,TMP,surface,-93.7504,27.8739,293.984
2014-07-23 00:00:00,2014-07-23 00:00:00,TMP,surface,-92.8129,27.8739,293.902
2014-07-23 00:00:00,2014-07-23 00:00:00,TMP,surface,-107.813,28.8188,279.099
2014-07-23 00:00:00,2014-07-23 00:00:00,TMP,surface,-106.875,28.8188,280.219
2014-07-23 00:00:00,2014-07-23 00:00:00,TMP,surface,-105.938,28.8188,283.435
2014-07-23 00:00:00,2014-07-23 00:00:00,TMP,surface,-105,28.8188,284.816
2014-07-23 00:00:00,2014-07-23 00:00:00,TMP,surface,-104.063,28.8188,284.261
2014-07-23 00:00:00,2014-07-23 00:00:00,TMP,surface,-103.125,28.8188,283.635
2014-07-23 00:00:00,2014-07-23 00:00:00,TMP,surface,-102.188,28.8188,284.09
2014-07-23 00:00:00,2014-07-23 00:00:00,TMP,surface,-101.25,28.8188,285.344
2014-07-23 00:00:00,2014-07-23 00:00:00,TMP,surface,-100.313,28.8188,285.978
2014-07-23 00:00:00,2014-07-23 00:00:00,TMP,surface,-99.3754,28.8188,286.194
2014-07-23 00:00:00,2014-07-23 00:00:00,TMP,surface,-98.4379,28.8188,286.779
2014-07-23 00:00:00,2014-07-23 00:00:00,TMP,surface,-97.5004,28.8188,287.898
2014-07-23 00:00:00,2014-07-23 00:00:00,TMP,surface,-96.5629,28.8188,289.056
2014-07-23 00:00:00,2014-07-23 00:00:00,TMP,surface,-95.6254,28.8188,291.403
2014-07-23 00:00:00,2014-07-23 00:00:00,TMP,surface,-94.6879,28.8188,294.29
2014-07-23 00:00:00,2014-07-23 00:00:00,TMP,surface,-93.7504,28.8188,294.147
2014-07-23 00:00:00,2014-07-23 00:00:00,TMP,surface,-92.8129,28.8188,294.118
2014-07-23 00:00:00,2014-07-23 00:00:00,TMP,surface,-107.813,29.7637,280.146
2014-07-23 00:00:00,2014-07-23 00:00:00,TMP,surface,-106.875,29.7637,281.243
2014-07-23 00:00:00,2014-07-23 00:00:00,TMP,surface,-105.938,29.7637,282.949
2014-07-23 00:00:00,2014-07-23 00:00:00,TMP,surface,-105,29.7637,283.002
2014-07-23 00:00:00,2014-07-23 00:00:00,TMP,surface,-104.063,29.7637,283.11
2014-07-23 00:00:00,2014-07-23 00:00:00,TMP,surface,-103.125,29.7637,283.363
2014-07-23 00:00:00,2014-07-23 00:00:00,TMP,surface,-102.188,29.7637,284.043
2014-07-23 00:00:00,2014-07-23 00:00:00,TMP,surface,-101.25,29.7637,284.341
2014-07-23 00:00:00,2014-07-23 00:00:00,TMP,surface,-100.313,29.7637,284.138
2014-07-23 00:00:00,2014-07-23 00:00:00,TMP,surface,-99.3754,29.7637,284.128
2014-07-23 00:00:00,2014-07-23 00:00:00,TMP,surface,-98.4379,29.7637,284.698
2014-07-23 00:00:00,2014-07-23 00:00:00,TMP,surface,-97.5004,29.7637,285.562
2014-07-23 00:00:00,2014-07-23 00:00:00,TMP,surface,-96.5629,29.7637,286.389
2014-07-23 00:00:00,2014-07-23 00:00:00,TMP,surface,-95.6254,29.7637,287.106
2014-07-23 00:00:00,2014-07-23 00:00:00,TMP,surface,-94.6879,29.7637,289.789
2014-07-23 00:00:00,2014-07-23 00:00:00,TMP,surface,-93.7504,29.7637,292.952
2014-07-23 00:00:00,2014-07-23 00:00:00,TMP,surface,-92.8129,29.7637,287.515
2014-07-23 00:00:00,2014-07-23 00:00:00,TMP,surface,-107.813,30.7085,281.853
2014-07-23 00:00:00,2014-07-23 00:00:00,TMP,surface,-106.875,30.7085,282.405
2014-07-23 00:00:00,2014-07-23 00:00:00,TMP,surface,-105.938,30.7085,282.154
2014-07-23 00:00:00,2014-07-23 00:00:00,TMP,surface,-105,30.7085,281.875
2014-07-23 00:00:00,2014-07-23 00:00:00,TMP,surface,-104.063,30.7085,281.922
2014-07-23 00:00:00,2014-07-23 00:00:00,TMP,surface,-103.125,30.7085,282.725
2014-07-23 00:00:00,2014-07-23 00:00:00,TMP,surface,-102.188,30.7085,283.304
2014-07-23 00:00:00,2014-07-23 00:00:00,TMP,surface,-101.25,30.7085,283.126
2014-07-23 00:00:00,2014-07-23 00:00:00,TMP,surface,-100.313,30.7085,282.81
2014-07-23 00:00:00,2014-07-23 00:00:00,TMP,surface,-99.3754,30.7085,282.87
2014-07-23 00:00:00,2014-07-23 00:00:00,TMP,surface,-98.4379,30.7085,283.346
2014-07-23 00:00:00,2014-07-23 00:00:00,TMP,surface,-97.5004,30.7085,283.915
2014-07-23 00:00:00,2014-07-23 00:00:00,TMP,surface,-96.5629,30.7085,284.373
2014-07-23 00:00:00,2014-07-23 00:00:00,TMP,surface,-95.6254,30.7085,284.75
2014-07-23 00:00:00,2014-07-23 00:00:00,TMP,surface,-94.6879,30.7085,284.981
2014-07-23 00:00:00,2014-07-23 00:00:00,TMP,surface,-93.7504,30.7085,284.827
2014-07-23 00:00:00,2014-07-23 00:00:00,TMP,surface,-92.8129,30.7085,284.397
2014-07-23 00:00:00,2014-07-23 00:00:00,TMP,surface,-107.813,31.6534,281.539
2014-07-23 00:00:00,2014-07-23 00:00:00,TMP,surface,-106.875,31.6534,281.771
2014-07-23 00:00:00,2014-07-23 00:00:00,TMP,surface,-105.938,31.6534,281.16
2014-07-23 00:00:00,2014-07-23 00:00:00,TMP,surface,-105,31.6534,280.992
2014-07-23 00:00:00,2014-07-23 00:00:00,TMP,surface,-104.063,31.6534,281.342
2014-07-23 00:00:00,2014-07-23 00:00:00,TMP,surface,-103.125,31.6534,281.963
2014-07-23 00:00:00,2014-07-23 00:00:00,TMP,surface,-102.188,31.6534,282.229
2014-07-23 00:00:00,2014-07-23 00:00:00,TMP,surface,-101.25,31.6534,282.061
2014-07-23 00:00:00,2014-07-23 00:00:00,TMP,surface,-100.313,31.6534,281.989
2014-07-23 00:00:00,2014-07-23 00:00:00,TMP,surface,-99.3754,31.6534,282.171
2014-07-23 00:00:00,2014-07-23 00:00:00,TMP,surface,-98.4379,31.6534,282.454
2014-07-23 00:00:00,2014-07-23 00:00:00,TMP,surface,-97.5004,31.6534,282.696
2014-07-23 00:00:00,2014-07-23 00:00:00,TMP,surface,-96.5629,31.6534,282.882
2014-07-23 00:00:00,2014-07-23 00:00:00,TMP,surface,-95.6254,31.6534,282.987
2014-07-23 00:00:00,2014-07-23 00:00:00,TMP,surface,-94.6879,31.6534,282.906
2014-07-23 00:00:00,2014-07-23 00:00:00,TMP,surface,-93.7504,31.6534,282.688
2014-07-23 00:00:00,2014-07-23 00:00:00,TMP,surface,-92.8129,31.6534,282.595
2014-07-23 00:00:00,2014-07-23 00:00:00,TMP,surface,-107.813,32.5983,278.782
2014-07-23 00:00:00,2014-07-23 00:00:00,TMP,surface,-106.875,32.5983,279.165
2014-07-23 00:00:00,2014-07-23 00:00:00,TMP,surface,-105.938,32.5983,279.365
2014-07-23 00:00:00,2014-07-23 00:00:00,TMP,surface,-105,32.5983,279.798
2014-07-23 00:00:00,2014-07-23 00:00:00,TMP,surface,-104.063,32.5983,280.342
2014-07-23 00:00:00,2014-07-23 00:00:00,TMP,surface,-103.125,32.5983,280.718
2014-07-23 00:00:00,2014-07-23 00:00:00,TMP,surface,-102.188,32.5983,280.827
2014-07-23 00:00:00,2014-07-23 00:00:00,TMP,surface,-101.25,32.5983,280.963
2014-07-23 00:00:00,2014-07-23 00:00:00,TMP,surface,-100.313,32.5983,281.282
2014-07-23 00:00:00,2014-07-23 00:00:00,TMP,surface,-99.3754,32.5983,281.573
2014-07-23 00:00:00,2014-07-23 00:00:00,TMP,surface,-98.4379,32.5983,281.624
2014-07-23 00:00:00,2014-07-23 00:00:00,TMP,surface,-97.5004,32.5983,281.574
2014-07-23 00:00:00,2014-07-23 00:00:00,TMP,surface,-96.5629,32.5983,281.558
2014-07-23 00:00:00,2014-07-23 00:00:00,TMP,surface,-95.6254,32.5983,281.486
2014-07-23 00:00:00,2014-07-23 00:00:00,TMP,surface,-94.6879,32.5983,281.307
2014-07-23 00:00:00,2014-07-23 00:00:00,TMP,surface,-93.7504,32.5983,281.206
2014-07-23 00:00:00,2014-07-23 00:00:00,TMP,surface,-92.8129,32.5983,281.41
2014-07-23 00:00:00,2014-07-23 00:00:00,TMP,surface,-107.813,33.5432,275.594
2014-07-23 00:00:00,2014-07-23 00:00:00,TMP,surface,-106.875,33.5432,276.938
2014-07-23 00:00:00,2014-07-23 00:00:00,TMP,surface,-105.938,33.5432,277.954
2014-07-23 00:00:00,2014-07-23 00:00:00,TMP,surface,-105,33.5432,278.691
2014-07-23 00:00:00,2014-07-23 00:00:00,TMP,surface,-104.063,33.5432,279.261
2014-07-23 00:00:00,2014-07-23 00:00:00,TMP,surface,-103.125,33.5432,279.488
2014-07-23 00:00:00,2014-07-23 00:00:00,TMP,surface,-102.188,33.5432,279.461
2014-07-23 00:00:00,2014-07-23 00:00:00,TMP,surface,-101.25,33.5432,279.573
2014-07-23 00:00:00,2014-07-23 00:00:00,TMP,surface,-100.313,33.5432,279.989
2014-07-23 00:00:00,2014-07-23 00:00:00,TMP,surface,-99.3754,33.5432,280.25
2014-07-23 00:00:00,2014-07-23 00:00:00,TMP,surface,-98.4379,33.5432,280.122
2014-07-23 00:00:00,2014-07-23 00:00:00,TMP,surface,-97.5004,33.5432,279.875
2014-07-23 00:00:00,2014-07-23 00:00:00,TMP,surface,-96.5629,33.5432,279.853
2014-07-23 00:00:00,2014-07-23 00:00:00,TMP,surface,-95.6254,33.5432,279.882
2014-07-23 00:00:00,2014-07-23 00:00:00,TMP,surface,-94.6879,33.5432,279.682
2014-07-23 00:00:00,2014-07-23 00:00:00,TMP,surface,-93.7504,33.5432,279.579
2014-07-23 00:00:00,2014-07-23 00:00:00,TMP,surface,-92.8129,33.5432,279.827
2014-07-23 00:00:00,2014-07-23 00:00:00,TMP,surface,-107.813,34.4881,273.886
2014-07-23 00:00:00,2014-07-23 00:00:00,TMP,surface,-106.875,34.4881,275.366
2014-07-23 00:00:00,2014-07-23 00:00:00,TMP,surface,-105.938,34.4881,276.339
2014-07-23 00:00:00,2014-07-23 00:00:00,TMP,surface,-105,34.4881,277.018
2014-07-23 00:00:00,2014-07-23 00:00:00,TMP,surface,-104.063,34.4881,277.832
2014-07-23 00:00:00,2014-07-23 00:00:00,TMP,surface,-103.125,34.4881,278.069
2014-07-23 00:00:00,2014-07-23 00:00:00,TMP,surface,-102.188,34.4881,277.989
2014-07-23 00:00:00,2014-07-23 00:00:00,TMP,surface,-101.25,34.4881,277.95
2014-07-23 00:00:00,2014-07-23 00:00:00,TMP,surface,-100.313,34.4881,278.054
2014-07-23 00:00:00,2014-07-23 00:00:00,TMP,surface,-99.3754,34.4881,278.131
2014-07-23 00:00:00,2014-07-23 00:00:00,TMP,surface,-98.4379,34.4881,278.056
2014-07-23 00:00:00,2014-07-23 00:00:00,TMP,surface,-97.5004,34.4881,277.99
2014-07-23 00:00:00,2014-07-23 00:00:00,TMP,surface,-96.5629,34.4881,278.051
2014-07-23 00:00:00,2014-07-23 00:00:00,TMP,surface,-95.6254,34.4881,278.038
2014-07-23 00:00:00,2014-07-23 00:00:00,TMP,surface,-94.6879,34.4881,277.794
2014-07-23 00:00:00,2014-07-23 00:00:00,TMP,surface,-93.7504,34.4881,277.603
2014-07-23 00:00:00,2014-07-23 00:00:00,TMP,surface,-92.8129,34.4881,277.827
2014-07-23 00:00:00,2014-07-23 00:00:00,TMP,surface,-107.813,35.4329,273.347
2014-07-23 00:00:00,2014-07-23 00:00:00,TMP,surface,-106.875,35.4329,273.602
2014-07-23 00:00:00,2014-07-23 00:00:00,TMP,surface,-105.938,35.4329,274.259
2014-07-23 00:00:00,2014-07-23 00:00:00,TMP,surface,-105,35.4329,275.15
2014-07-23 00:00:00,2014-07-23 00:00:00,TMP,surface,-104.063,35.4329,276.36
2014-07-23 00:00:00,2014-07-23 00:00:00,TMP,surface,-103.125,35.4329,276.96
2014-07-23 00:00:00,2014-07-23 00:00:00,TMP,surface,-102.188,35.4329,276.784
2014-07-23 00:00:00,2014-07-23 00:00:00,TMP,surface,-101.25,35.4329,276.477
2014-07-23 00:00:00,2014-07-23 00:00:00,TMP,surface,-100.313,35.4329,276.312
2014-07-23 00:00:00,2014-07-23 00:00:00,TMP,surface,-99.3754,35.4329,276.157
2014-07-23 00:00:00,2014-07-23 00:00:00,TMP,surface,-98.4379,35.4329,276.08
2014-07-23 00:00:00,2014-07-23 00:00:00,TMP,surface,-97.5004,35.4329,276.227
2014-07-23 00:00:00,2014-07-23 00:00:00,TMP,surface,-96.5629,35.4329,276.44
2014-07-23 00:00:00,2014-07-23 00:00:00,TMP,surface,-95.6254,35.4329,276.416
2014-07-23 00:00:00,2014-07-23 00:00:00,TMP,surface,-94.6879,35.4329,276.077
2014-07-23 00:00:00,2014-07-23 00:00:00,TMP,surface,-93.7504,35.4329,275.688
2014-07-23 00:00:00,2014-07-23 00:00:00,TMP,surface,-92.8129,35.4329,275.693
2014-07-23 00:00:00,2014-07-23 00:00:00,TMP,surface,-107.813,36.3778,272.018
2014-07-23 00:00:00,2014-07-23 00:00:00,TMP,surface,-106.875,36.3778,270.358
2014-07-23 00:00:00,2014-07-23 00:00:00,TMP,surface,-105.938,36.3778,271.291
2014-07-23 00:00:00,2014-07-23 00:00:00,TMP,surface,-105,36.3778,272.842
2014-07-23 00:00:00,2014-07-23 00:00:00,TMP,surface,-104.063,36.3778,274.389
2014-07-23 00:00:00,2014-07-23 00:00:00,TMP,surface,-103.125,36.3778,275.014
2014-07-23 00:00:00,2014-07-23 00:00:00,TMP,surface,-102.188,36.3778,275.138
2014-07-23 00:00:00,2014-07-23 00:00:00,TMP,surface,-101.25,36.3778,275.069
2014-07-23 00:00:00,2014-07-23 00:00:00,TMP,surface,-100.313,36.3778,274.854
2014-07-23 00:00:00,2014-07-23 00:00:00,TMP,surface,-99.3754,36.3778,274.602
2014-07-23 00:00:00,2014-07-23 00:00:00,TMP,surface,-98.4379,36.3778,274.368
2014-07-23 00:00:00,2014-07-23 00:00:00,TMP,surface,-97.5004,36.3778,274.507
2014-07-23 00:00:00,2014-07-23 00:00:00,TMP,surface,-96.5629,36.3778,274.79
2014-07-23 00:00:00,2014-07-23 00:00:00,TMP,surface,-95.6254,36.3778,274.701
2014-07-23 00:00:00,2014-07-23 00:00:00,TMP,surface,-94.6879,36.3778,274.248
2014-07-23 00:00:00,2014-07-23 00:00:00,TMP,surface,-93.7504,36.3778,273.709
2014-07-23 00:00:00,2014-07-23 00:00:00,TMP,surface,-92.8129,36.3778,273.518
2014-07-23 00:00:00,2014-07-23 00:00:00,PRATE,surface,-107.813,25.0393,0.0001004
2014-07-23 00:00:00,2014-07-23 00:00:00,PRATE,surface,-106.875,25.0393,0.0001229
2014-07-23 00:00:00,2014-07-23 00:00:00,PRATE,surface,-105.938,25.0393,9.93e-05
2014-07-23 00:00:00,2014-07-23 00:00:00,PRATE,surface,-105,25.0393,5.45e-05
2014-07-23 00:00:00,2014-07-23 00:00:00,PRATE,surface,-104.063,25.0393,3.17e-05
2014-07-23 00:00:00,2014-07-23 00:00:00,PRATE,surface,-103.125,25.0393,2.35e-05
2014-07-23 00:00:00,2014-07-23 00:00:00,PRATE,surface,-102.188,25.0393,2.39e-05
2014-07-23 00:00:00,2014-07-23 00:00:00,PRATE,surface,-101.25,25.0393,2.77e-05
2014-07-23 00:00:00,2014-07-23 00:00:00,PRATE,surface,-100.313,25.0393,3.51e-05
2014-07-23 00:00:00,2014-07-23 00:00:00,PRATE,surface,-99.3754,25.0393,2e-05
2014-07-23 00:00:00,2014-07-23 00:00:00,PRATE,surface,-98.4379,25.0393,1.73e-05
2014-07-23 00:00:00,2014-07-23 00:00:00,PRATE,surface,-97.5004,25.0393,3.76e-05
2014-07-23 00:00:00,2014-07-23 00:00:00,PRATE,surface,-96.5629,25.0393,4.5e-05
2014-07-23 00:00:00,2014-07-23 00:00:00,PRATE,surface,-95.6254,25.0393,3.31e-05
2014-07-23 00:00:00,2014-07-23 00:00:00,PRATE,surface,-94.6879,25.0393,3.94e-05
2014-07-23 00:00:00,2014-07-23 00:00:00,PRATE,surface,-93.7504,25.0393,3.85e-05
2014-07-23 00:00:00,2014-07-23 00:00:00,PRATE,surface,-92.8129,25.0393,3.57e-05
2014-07-23 00:00:00,2014-07-23 00:00:00,PRATE,surface,-107.813,25.9842,0.0001278
2014-07-23 00:00:00,2014-07-23 00:00:00,PRATE,surface,-106.875,25.9842,9.63e-05
2014-07-23 00:00:00,2014-07-23 00:00:00,PRATE,surface,-105.938,25.9842,5.65e-05
2014-07-23 00:00:00,2014-07-23 00:00:00,PRATE,surface,-105,25.9842,3.16e-05
2014-07-23 00:00:00,2014-07-23 00:00:00,PRATE,surface,-104.063,25.9842,2.24e-05
2014-07-23 00:00:00,2014-07-23 00:00:00,PRATE,surface,-103.125,25.9842,2.35e-05
2014-07-23 00:00:00,2014-07-23 00:00:00,PRATE,surface,-102.188,25.9842,3.77e-05
2014-07-23 00:00:00,2014-07-23 00:00:00,PRATE,surface,-101.25,25.9842,4.48e-05
2014-07-23 00:00:00,2014-07-23 00:00:00,PRATE,surface,-100.313,25.9842,4.64e-05
2014-07-23 00:00:00,2014-07-23 00:00:00,PRATE,surface,-99.3754,25.9842,3.32e-05
2014-07-23 00:00:00,2014-07-23 00:00:00,PRATE,surface,-98.4379,25.9842,3.05e-05
2014-07-23 00:00:00,2014-07-23 00:00:00,PRATE,surface,-97.5004,25.9842,4.3e-05
2014-07-23 00:00:00,2014-07-23 00:00:00,PRATE,surface,-96.5629,25.9842,5.57e-05
2014-07-23 00:00:00,2014-07-23 00:00:00,PRATE,surface,-95.6254,25.9842,4.96e-05
2014-07-23 00:00:00,2014-07-23 00:00:00,PRATE,surface,-94.6879,25.9842,4.97e-05
2014-07-23 00:00:00,2014-07-23 00:00:00,PRATE,surface,-93.7504,25.9842,4.46e-05
2014-07-23 00:00:00,2014-07-23 00:00:00,PRATE,surface,-92.8129,25.9842,4.31e-05
2014-07-23 00:00:00,2014-07-23 00:00:00,PRATE,surface,-107.813,26.929,0.0001211
2014-07-23 00:00:00,2014-07-23 00:00:00,PRATE,surface,-106.875,26.929,7.15e-05
2014-07-23 00:00:00,2014-07-23 00:00:00,PRATE,surface,-105.938,26.929,3.89e-05
2014-07-23 00:00:00,2014-07-23 00:00:00,PRATE,surface,-105,26.929,2.64e-05
2014-07-23 00:00:00,2014-07-23 00:00:00,PRATE,surface,-104.063,26.929,2.33e-05
2014-07-23 00:00:00,2014-07-23 00:00:00,PRATE,surface,-103.125,26.929,3.08e-05
2014-07-23 00:00:00,2014-07-23 00:00:00,PRATE,surface,-102.188,26.929,4.88e-05
2014-07-23 00:00:00,2014-07-23 00:00:00,PRATE,surface,-101.25,26.929,5.47e-05
2014-07-23 00:00:00,2014-07-23 00:00:00,PRATE,surface,-100.313,26.929,4.74e-05
2014-07-23 00:00:00,2014-07-23 00:00:00,PRATE,surface,-99.3754,26.929,3.28e-05
2014-07-23 00:00:00,2014-07-23 00:00:00,PRATE,surface,-98.4379,26.929,4.51e-05
2014-07-23 00:00:00,2014-07-23 00:00:00,PRATE,surface,-97.5004,26.929,6.8e-05
2014-07-23 00:00:00,2014-07-23 00:00:00,PRATE,surface,-96.5629,26.929,7.07e-05
2014-07-23 00:00:00,2014-07-23 00:00:00,PRATE,surface,-95.6254,26.929,4.97e-05
2014-07-23 00:00:00,2014-07-23 00:00:00,PRATE,surface,-94.6879,26.929,4.69e-05
2014-07-23 00:00:00,2014-07-23 00:00:00,PRATE,surface,-93.7504,26.929,4.53e-05
2014-07-23 00:00:00,2014-07-23 00:00:00,PRATE,surface,-92.8129,26.929,4.85e-05
2014-07-23 00:00:00,2014-07-23 00:00:00,PRATE,surface,-107.813,27.8739,8.76e-05
2014-07-23 00:00:00,2014-07-23 00:00:00,PRATE,surface,-106.875,27.8739,5.81e-05
2014-07-23 00:00:00,2014-07-23 00:00:00,PRATE,surface,-105.938,27.8739,3.63e-05
2014-07-23 00:00:00,2014-07-23 00:00:00,PRATE,surface,-105,27.8739,2.39e-05
2014-07-23 00:00:00,2014-07-23 00:00:00,PRATE,surface,-104.063,27.8739,2.55e-05
2014-07-23 00:00:00,2014-07-23 00:00:00,PRATE,surface,-103.125,27.8739,3.44e-05
2014-07-23 00:00:00,2014-07-23 00:00:00,PRATE,surface,-102.188,27.8739,5.18e-05
2014-07-23 00:00:00,2014-07-23 00:00:00,PRATE,surface,-101.25,27.8739,6.05e-05
2014-07-23 00:00:00,2014-07-23 00:00:00,PRATE,surface,-100.313,27.8739,5.93e-05
2014-07-23 00:00:00,2014-07-23 00:00:00,PRATE,surface,-99.3754,27.8739,5.34e-05
2014-07-23 00:00:00,2014-07-23 00:00:00,PRATE,surface,-98.4379,27.8739,5.99e-05
2014-07-23 00:00:00,2014-07-23 00:00:00,PRATE,surface,-97.5004,27.8739,7.21e-05
2014-07-23 00:00:00,2014-07-23 00:00:00,PRATE,surface,-96.5629,27.8739,7.58e-05
2014-07-23 00:00:00,2014-07-23 00:00:00,PRATE,surface,-95.6254,27.8739,6.64e-05
2014-07-23 00:00:00,2014-07-23 00:00:00,PRATE,surface,-94.6879,27.8739,4.9e-05
2014-07-23 00:00:00,2014-07-23 00:00:00,PRATE,surface,-93.7504,27.8739,3.88e-05
2014-07-23 00:00:00,2014-07-23 00:00:00,PRATE,surface,-92.8129,27.8739,4.19e-05
2014-07-23 00:00:00,2014-07-23 00:00:00,PRATE,surface,-107.813,28.8188,6.34e-05
2014-07-23 00:00:00,2014-07-23 00:00:00,PRATE,surface,-106.875,28.8188,5.16e-05
2014-07-23 00:00:00,2014-07-23 00:00:00,PRATE,surface,-105.938,28.8188,3.72e-05
2014-07-23 00:00:00,2014-07-23 00:00:00,PRATE,surface,-105,28.8188,2.44e-05
2014-07-23 00:00:00,2014-07-23 00:00:00,PRATE,surface,-104.063,28.8188,2.4e-05
2014-07-23 00:00:00,2014-07-23 00:00:00,PRATE,surface,-103.125,28.8188,2.85e-05
2014-07-23 00:00:00,2014-07-23 00:00:00,PRATE,surface,-102.188,28.8188,3.58e-05
2014-07-23 00:00:00,2014-07-23 00:00:00,PRATE,surface,-101.25,28.8188,4.78e-05
2014-07-23 00:00:00,2014-07-23 00:00:00,PRATE,surface,-100.313,28.8188,5.63e-05
2014-07-23 00:00:00,2014-07-23 00:00:00,PRATE,surface,-99.3754,28.8188,5.82e-05
2014-07-23 00:00:00,2014-07-23 00:00:00,PRATE,surface,-98.4379,28.8188,5.87e-05
2014-07-23 00:00:00,2014-07-23 00:00:00,PRATE,surface,-97.5004,28.8188,6.79e-05
2014-07-23 00:00:00,2014-07-23 00:00:00,PRATE,surface,-96.5629,28.8188,8.13e-05
2014-07-23 00:00:00,2014-07-23 00:00:00,PRATE,surface,-95.6254,28.8188,8.53e-05
2014-07-23 00:00:00,2014-07-23 00:00:00,PRATE,surface,-94.6879,28.8188,7.44e-05
2014-07-23 00:00:00,2014-07-23 00:00:00,PRATE,surface,-93.7504,28.8188,5.17e-05
2014-07-23 00:00:00,2014-07-23 00:00:00,PRATE,surface,-92.8129,28.8188,3.37e-05
2014-07-23 00:00:00,2014-07-23 00:00:00,PRATE,surface,-107.813,29.7637,4.49e-05
2014-07-23 00:00:00,2014-07-23 00:00:00,PRATE,surface,-106.875,29.7637,4.34e-05
2014-07-23 00:00:00,2014-07-23 00:00:00,PRATE,surface,-105.938,29.7637,3.35e-05
2014-07-23 00:00:00,2014-07-23 00:00:00,PRATE,surface,-105,29.7637,2.88e-05
2014-07-23 00:00:00,2014-07-23 00:00:00,PRATE,surface,-104.063,29.7637,2.86e-05
2014-07-23 00:00:00,2014-07-23 00:00:00,PRATE,surface,-103.125,29.7637,2.61e-05
2014-07-23 00:00:00,2014-07-23 00:00:00,PRATE,surface,-102.188,29.7637,2.91e-05
2014-07-23 00:00:00,2014-07-23 00:00:00,PRATE,surface,-101.25,29.7637,4.16e-05
2014-07-23 00:00:00,2014-07-23 00:00:00,PRATE,surface,-100.313,29.7637,5.12e-05
2014-07-23 00:00:00,2014-07-23 00:00:00,PRATE,surface,-99.3754,29.7637,4.75e-05
2014-07-23 00:00:00,2014-07-23 00:00:00,PRATE,surface,-98.4379,29.7637,4.41e-05
2014-07-23 00:00:00,2014-07-23 00:00:00,PRATE,surface,-97.5004,29.7637,5.19e-05
2014-07-23 00:00:00,2014-07-23 00:00:00,PRATE,surface,-96.5629,29.7637,7.13e-05
2014-07-23 00:00:00,2014-07-23 00:00:00,PRATE,surface,-95.6254,29.7637,9.18e-05
2014-07-23 00:00:00,2014-07-23 00:00:00,PRATE,surface,-94.6879,29.7637,9.21e-05
2014-07-23 00:00:00,2014-07-23 00:00:00,PRATE,surface,-93.7504,29.7637,6.55e-05
2014-07-23 00:00:00,2014-07-23 00:00:00,PRATE,surface,-92.8129,29.7637,4.04e-05
2014-07-23 00:00:00,2014-07-23 00:00:00,PRATE,surface,-107.813,30.7085,2.73e-05
2014-07-23 00:00:00,2014-07-23 00:00:00,PRATE,surface,-106.875,30.7085,2.12e-05
2014-07-23 00:00:00,2014-07-23 00:00:00,PRATE,surface,-105.938,30.7085,1.84e-05
2014-07-23 00:00:00,2014-07-23 00:00:00,PRATE,surface,-105,30.7085,2.27e-05
2014-07-23 00:00:00,2014-07-23 00:00:00,PRATE,surface,-104.063,30.7085,2.75e-05
2014-07-23 00:00:00,2014-07-23 00:00:00,PRATE,surface,-103.125,30.7085,2.85e-05
2014-07-23 00:00:00,2014-07-23 00:00:00,PRATE,surface,-102.188,30.7085,3.15e-05
2014-07-23 00:00:00,2014-07-23 00:00:00,PRATE,surface,-101.25,30.7085,4.18e-05
2014-07-23 00:00:00,2014-07-23 00:00:00,PRATE,surface,-100.313,30.7085,4.77e-05
2014-07-23 00:00:00,2014-07-23 00:00:00,PRATE,surface,-99.3754,30.7085,4.5e-05
2014-07-23 00:00:00,2014-07-23 00:00:00,PRATE,surface,-98.4379,30.7085,4.12e-05
2014-07-23 00:00:00,2014-07-23 00:00:00,PRATE,surface,-97.5004,30.7085,4.32e-05
2014-07-23 00:00:00,2014-07-23 00:00:00,PRATE,surface,-96.5629,30.7085,5.16e-05
2014-07-23 00:00:00,2014-07-23 00:00:00,PRATE,surface,-95.6254,30.7085,6.78e-05
2014-07-23 00:00:00,2014-07-23 00:00:00,PRATE,surface,-94.6879,30.7085,8.26e-05
2014-07-23 00:00:00,2014-07-23 00:00:00,PRATE,surface,-93.7504,30.7085,7.34e-05
2014-07-23 00:00:00,2014-07-23 00:00:00,PRATE,surface,-92.8129,30.7085,4.99e-05
2014-07-23 00:00:00,2014-07-23 00:00:00,PRATE,surface,-107.813,31.6534,2.26e-05
2014-07-23 00:00:00,2014-07-23 00:00:00,PRATE,surface,-106.875,31.6534,1.49e-05
2014-07-23 00:00:00,2014-07-23 00:00:00,PRATE,surface,-105.938,31.6534,1.21e-05
2014-07-23 00:00:00,2014-07-23 00:00:00,PRATE,surface,-105,31.6534,1.38e-05
2014-07-23 00:00:00,2014-07-23 00:00:00,PRATE,surface,-104.063,31.6534,1.96e-05
2014-07-23 00:00:00,2014-07-23 00:00:00,PRATE,surface,-103.125,31.6534,2.67e-05
2014-07-23 00:00:00,2014-07-23 00:00:00,PRATE,surface,-102.188,31.6534,3.59e-05
2014-07-23 00:00:00,2014-07-23 00:00:00,PRATE,surface,-101.25,31.6534,4.68e-05
2014-07-23 00:00:00,2014-07-23 00:00:00,PRATE,surface,-100.313,31.6534,4.81e-05
2014-07-23 00:00:00,2014-07-23 00:00:00,PRATE,surface,-99.3754,31.6534,4.48e-05
2014-07-23 00:00:00,2014-07-23 00:00:00,PRATE,surface,-98.4379,31.6534,4.37e-05
2014-07-23 00:00:00,2014-07-23 00:00:00,PRATE,surface,-97.5004,31.6534,4.49e-05
2014-07-23 00:00:00,2014-07-23 00:00:00,PRATE,surface,-96.5629,31.6534,4.72e-05
2014-07-23 00:00:00,2014-07-23 00:00:00,PRATE,surface,-95.6254,31.6534,5.32e-05
2014-07-23 00:00:00,2014-07-23 00:00:00,PRATE,surface,-94.6879,31.6534,6.59e-05
2014-07-23 00:00:00,2014-07-23 00:00:00,PRATE,surface,-93.7504,31.6534,7.45e-05
2014-07-23 00:00:00,2014-07-23 00:00:00,PRATE,surface,-92.8129,31.6534,5.78e-05
2014-07-23 00:00:00,2014-07-23 00:00:00,PRATE,surface,-107.813,32.5983,2.33e-05
2014-07-23 00:00:00,2014-07-23 00:00:00,PRATE,surface,-106.875,32.5983,1.64e-05
2014-07-23 00:00:00,2014-07-23 00:00:00,PRATE,surface,-105.938,32.5983,1.2e-05
2014-07-23 00:00:00,2014-07-23 00:00:00,PRATE,surface,-105,32.5983,1.08e-05
2014-07-23 00:00:00,2014-07-23 00:00:00,PRATE,surface,-104.063,32.5983,1.43e-05
2014-07-23 00:00:00,2014-07-23 00:00:00,PRATE,surface,-103.125,32.5983,2.13e-05
2014-07-23 00:00:00,2014-07-23 00:00:00,PRATE,surface,-102.188,32.5983,3.21e-05
2014-07-23 00:00:00,2014-07-23 00:00:00,PRATE,surface,-101.25,32.5983,4.53e-05
2014-07-23 00:00:00,2014-07-23 00:00:00,PRATE,surface,-100.313,32.5983,4.87e-05
2014-07-23 00:00:00,2014-07-23 00:00:00,PRATE,surface,-99.3754,32.5983,4.83e-05
2014-07-23 00:00:00,2014-07-23 00:00:00,PRATE,surface,-98.4379,32.5983,4.95e-05
2014-07-23 00:00:00,2014-07-23 00:00:00,PRATE,surface,-97.5004,32.5983,5e-05
2014-07-23 00:00:00,2014-07-23 00:00:00,PRATE,surface,-96.5629,32.5983,4.96e-05
2014-07-23 00:00:00,2014-07-23 00:00:00,PRATE,surface,-95.6254,32.5983,5.23e-05
2014-07-23 00:00:00,2014-07-23 00:00:00,PRATE,surface,-94.6879,32.5983,6.26e-05
2014-07-23 00:00:00,2014-07-23 00:00:00,PRATE,surface,-93.7504,32.5983,7.67e-05
2014-07-23 00:00:00,2014-07-23 00:00:00,PRATE,surface,-92.8129,32.5983,7.93e-05
2014-07-23 00:00:00,2014-07-23 00:00:00,PRATE,surface,-107.813,33.5432,2.45e-05
2014-07-23 00:00:00,2014-07-23 00:00:00,PRATE,surface,-106.875,33.5432,1.64e-05
2014-07-23 00:00:00,2014-07-23 00:00:00,PRATE,surface,-105.938,33.5432,1.22e-05
2014-07-23 00:00:00,2014-07-23 00:00:00,PRATE,surface,-105,33.5432,1.13e-05
2014-07-23 00:00:00,2014-07-23 00:00:00,PRATE,surface,-104.063,33.5432,1.27e-05
2014-07-23 00:00:00,2014-07-23 00:00:00,PRATE,surface,-103.125,33.5432,1.58e-05
2014-07-23 00:00:00,2014-07-23 00:00:00,PRATE,surface,-102.188,33.5432,2.45e-05
2014-07-23 00:00:00,2014-07-23 00:00:00,PRATE,surface,-101.25,33.5432,3.54e-05
2014-07-23 00:00:00,2014-07-23 00:00:00,PRATE,surface,-100.313,33.5432,4.07e-05
2014-07-23 00:00:00,2014-07-23 00:00:00,PRATE,surface,-99.3754,33.5432,4.36e-05
2014-07-23 00:00:00,2014-07-23 00:00:00,PRATE,surface,-98.4379,33.5432,4.76e-05
2014-07-23 00:00:00,2014-07-23 00:00:00,PRATE,surface,-97.5004,33.5432,4.86e-05
2014-07-23 00:00:00,2014-07-23 00:00:00,PRATE,surface,-96.5629,33.5432,4.84e-05
2014-07-23 00:00:00,2014-07-23 00:00:00,PRATE,surface,-95.6254,33.5432,5.32e-05
2014-07-23 00:00:00,2014-07-23 00:00:00,PRATE,surface,-94.6879,33.5432,6.13e-05
2014-07-23 00:00:00,2014-07-23 00:00:00,PRATE,surface,-93.7504,33.5432,6.85e-05
2014-07-23 00:00:00,2014-07-23 00:00:00,PRATE,surface,-92.8129,33.5432,7.43e-05
2014-07-23 00:00:00,2014-07-23 00:00:00,PRATE,surface,-107.813,34.4881,1.85e-05
2014-07-23 00:00:00,2014-07-23 00:00:00,PRATE,surface,-106.875,34.4881,1.42e-05
2014-07-23 00:00:00,2014-07-23 00:00:00,PRATE,surface,-105.938,34.4881,1.24e-05
2014-07-23 00:00:00,2014-07-23 00:00:00,PRATE,surface,-105,34.4881,1.4e-05
2014-07-23 00:00:00,2014-07-23 00:00:00,PRATE,surface,-104.063,34.4881,1.39e-05
2014-07-23 00:00:00,2014-07-23 00:00:00,PRATE,surface,-103.125,34.4881,1.35e-05
2014-07-23 00:00:00,2014-07-23 00:00:00,PRATE,surface,-102.188,34.4881,1.75e-05
2014-07-23 00:00:00,2014-07-23 00:00:00,PRATE,surface,-101.25,34.4881,2.58e-05
2014-07-23 00:00:00,2014-07-23 00:00:00,PRATE,surface,-100.313,34.4881,3.27e-05
2014-07-23 00:00:00,2014-07-23 00:00:00,PRATE,surface,-99.3754,34.4881,3.51e-05
2014-07-23 00:00:00,2014-07-23 00:00:00,PRATE,surface,-98.4379,34.4881,3.78e-05
2014-07-23 00:00:00,2014-07-23 00:00:00,PRATE,surface,-97.5004,34.4881,4.08e-05
2014-07-23 00:00:00,2014-07-23 00:00:00,PRATE,surface,-96.5629,34.4881,4.44e-05
2014-07-23 00:00:00,2014-07-23 00:00:00,PRATE,surface,-95.6254,34.4881,5.14e-05
2014-07-23 00:00:00,2014-07-23 00:00:00,PRATE,surface,-94.6879,34.4881,6.1e-05
2014-07-23 00:00:00,2014-07-23 00:00:00,PRATE,surface,-93.7504,34.4881,6.7e-05
2014-07-23 00:00:00,2014-07-23 00:00:00,PRATE,surface,-92.8129,34.4881,6.5e-05
2014-07-23 00:00:00,2014-07-23 00:00:00,PRATE,surface,-107.813,35.4329,2.03e-05
2014-07-23 00:00:00,2014-07-23 00:00:00,PRATE,surface,-106.875,35.4329,1.68e-05
2014-07-23 00:00:00,2014-07-23 00:00:00,PRATE,surface,-105.938,35.4329,1.35e-05
2014-07-23 00:00:00,2014-07-23 00:00:00,PRATE,surface,-105,35.4329,1.5e-05
2014-07-23 00:00:00,2014-07-23 00:00:00,PRATE,surface,-104.063,35.4329,1.57e-05
2014-07-23 00:00:00,2014-07-23 00:00:00,PRATE,surface,-103.125,35.4329,1.42e-05
2014-07-23 00:00:00,2014-07-23 00:00:00,PRATE,surface,-102.188,35.4329,1.37e-05
2014-07-23 00:00:00,2014-07-23 00:00:00,PRATE,surface,-101.25,35.4329,1.67e-05
2014-07-23 00:00:00,2014-07-23 00:00:00,PRATE,surface,-100.313,35.4329,2.22e-05
2014-07-23 00:00:00,2014-07-23 00:00:00,PRATE,surface,-99.3754,35.4329,2.55e-05
2014-07-23 00:00:00,2014-07-23 00:00:00,PRATE,surface,-98.4379,35.4329,2.77e-05
2014-07-23 00:00:00,2014-07-23 00:00:00,PRATE,surface,-97.5004,35.4329,3.16e-05
2014-07-23 00:00:00,2014-07-23 00:00:00,PRATE,surface,-96.5629,35.4329,3.6e-05
2014-07-23 00:00:00,2014-07-23 00:00:00,PRATE,surface,-95.6254,35.4329,4.07e-05
2014-07-23 00:00:00,2014-07-23 00:00:00,PRATE,surface,-94.6879,35.4329,4.84e-05
2014-07-23 00:00:00,2014-07-23 00:00:00,PRATE,surface,-93.7504,35.4329,5.65e-05
2014-07-23 00:00:00,2014-07-23 00:00:00,PRATE,surface,-92.8129,35.4329,5.96e-05
2014-07-23 00:00:00,2014-07-23 00:00:00,PRATE,surface,-107.813,36.3778,4.03e-05
2014-07-23 00:00:00,2014-07-23 00:00:00,PRATE,surface,-106.875,36.3778,3.42e-05
2014-07-23 00:00:00,2014-07-23 00:00:00,PRATE,surface,-105.938,36.3778,1.85e-05
2014-07-23 00:00:00,2014-07-23 00:00:00,PRATE,surface,-105,36.3778,1.23e-05
2014-07-23 00:00:00,2014-07-23 00:00:00,PRATE,surface,-104.063,36.3778,1.3e-05
2014-07-23 00:00:00,2014-07-23 00:00:00,PRATE,surface,-103.125,36.3778,1.27e-05
2014-07-23 00:00:00,2014-07-23 00:00:00,PRATE,surface,-102.188,36.3778,1.26e-05
2014-07-23 00:00:00,2014-07-23 00:00:00,PRATE,surface,-101.25,36.3778,1.41e-05
2014-07-23 00:00:00,2014-07-23 00:00:00,PRATE,surface,-100.313,36.3778,1.93e-05
2014-07-23 00:00:00,2014-07-23 00:00:00,PRATE,surface,-99.3754,36.3778,2.3e-05
2014-07-23 00:00:00,2014-07-23 00:00:00,PRATE,surface,-98.4379,36.3778,2.36e-05
2014-07-23 00:00:00,2014-07-23 00:00:00,PRATE,surface,-97.5004,36.3778,2.49e-05
2014-07-23 00:00:00,2014-07-23 00:00:00,PRATE,surface,-96.5629,36.3778,2.91e-05
2014-07-23 00:00:00,2014-07-23 00:00:00,PRATE,surface,-95.6254,36.3778,3.57e-05
2014-07-23 00:00:00,2014-07-23 00:00:00,PRATE,surface,-94.6879,36.3778,4.39e-05
2014-07-23 00:00:00,2014-07-23 00:00:00,PRATE,surface,-93.7504,36.3778,5.08e-05
2014-07-23 00:00:00,2014-07-23 00:00:00,PRATE,surface,-92.8129,36.3778,5.24e-05
