2011-10-19 00:00:00,2011-10-19 00:00:00,TMP,surface,-107.813,25.0393,294.493
2011-10-19 00:00:00,2011-10-19 00:00:00,TMP,surface,-106.875,25.0393,289.165
2011-10-19 00:00:00,2011-10-19 00:00:00,TMP,surface,-105.938,25.0393,282.953
2011-10-19 00:00:00,2011-10-19 00:00:00,TMP,surface,-105,25.0393,281.362
2011-10-19 00:00:00,2011-10-19 00:00:00,TMP,surface,-104.063,25.0393,284.239
2011-10-19 00:00:00,2011-10-19 00:00:00,TMP,surface,-103.125,25.0393,286.284
2011-10-19 00:00:00,2011-10-19 00:00:00,TMP,surface,-102.188,25.0393,285.453
2011-10-19 00:00:00,2011-10-19 00:00:00,TMP,surface,-101.25,25.0393,284.172
2011-10-19 00:00:00,2011-10-19 00:00:00,TMP,surface,-100.313,25.0393,284.993
2011-10-19 00:00:00,2011-10-19 00:00:00,TMP,surface,-99.3754,25.0393,288.509
2011-10-19 00:00:00,2011-10-19 00:00:00,TMP,surface,-98.4379,25.0393,292.151
2011-10-19 00:00:00,2011-10-19 00:00:00,TMP,surface,-97.5004,25.0393,297.193
2011-10-19 00:00:00,2011-10-19 00:00:00,TMP,surface,-96.5629,25.0393,297.601
2011-10-19 00:00:00,2011-10-19 00:00:00,TMP,surface,-95.6254,25.0393,297.517
2011-10-19 00:00:00,2011-10-19 00:00:00,TMP,surface,-94.6879,25.0393,297.335
2011-10-19 00:00:00,2011-10-19 00:00:00,TMP,surface,-93.7504,25.0393,297.005
2011-10-19 00:00:00,2011-10-19 00:00:00,TMP,surface,-92.8129,25.0393,296.749
2011-10-19 00:00:00,2011-10-19 00:00:00,TMP,surface,-107.813,25.9842,289.743
2011-10-19 00:00:00,2011-10-19 00:00:00,TMP,surface,-106.875,25.9842,284.258
2011-10-19 00:00:00,2011-10-19 00:00:00,TMP,surface,-105.938,25.9842,280.972
2011-10-19 00:00:00,2011-10-19 00:00:00,TMP,surface,-105,25.9842,283.017
2011-10-19 00:00:00,2011-10-19 00:00:00,TMP,surface,-104.063,25.9842,285.921
2011-10-19 00:00:00,2011-10-19 00:00:00,TMP,surface,-103.125,25.9842,286.972
2011-10-19 00:00:00,2011-10-19 00:00:00,TMP,surface,-102.188,25.9842,286.089
2011-10-19 00:00:00,2011-10-19 00:00:00,TMP,surface,-101.25,25.9842,285.973
2011-10-19 00:00:00,2011-10-19 00:00:00,TMP,surface,-100.313,25.9842,286.932
2011-10-19 00:00:00,2011-10-19 00:00:00,TMP,surface,-99.3754,25.9842,290.196
2011-10-19 00:00:00,2011-10-19 00:00:00,TMP,surface,-98.4379,25.9842,292.407
2011-10-19 00:00:00,2011-10-19 00:00:00,TMP,surface,-97.5004,25.9842,293.426
2011-10-19 00:00:00,2011-10-19 00:00:00,TMP,surface,-96.5629,25.9842,297.226
2011-10-19 00:00:00,2011-10-19 00:00:00,TMP,surface,-95.6254,25.9842,297.308
2011-10-19 00:00:00,2011-10-19 00:00:00,TMP,surface,-94.6879,25.9842,297.265
2011-10-19 00:00:00,2011-10-19 00:00:00,TMP,surface,-93.7504,25.9842,297.085
2011-10-19 00:00:00,2011-10-19 00:00:00,TMP,surface,-92.8129,25.9842,296.93
2011-10-19 00:00:00,2011-10-19 00:00:00,TMP,surface,-107.813,26.929,285.317
2011-10-19 00:00:00,2011-10-19 00:00:00,TMP,surface,-106.875,26.929,281.1
2011-10-19 00:00:00,2011-10-19 00:00:00,TMP,surface,-105.938,26.929,282.039
2011-10-19 00:00:00,2011-10-19 00:00:00,TMP,surface,-105,26.929,285.26
2011-10-19 00:00:00,2011-10-19 00:00:00,TMP,surface,-104.063,26.929,286.193
2011-10-19 00:00:00,2011-10-19 00:00:00,TMP,surface,-103.125,26.929,285.554
2011-10-19 00:00:00,2011-10-19 00:00:00,TMP,surface,-102.188,26.929,285.38
2011-10-19 00:00:00,2011-10-19 00:00:00,TMP,surface,-101.25,26.929,286.476
2011-10-19 00:00:00,2011-10-19 00:00:00,TMP,surface,-100.313,26.929,287.909
2011-10-19 00:00:00,2011-10-19 00:00:00,TMP,surface,-99.3754,26.929,290.228
2011-10-19 00:00:00,2011-10-19 00:00:00,TMP,surface,-98.4379,26.929,291.165
2011-10-19 00:00:00,2011-10-19 00:00:00,TMP,surface,-97.5004,26.929,296.012
2011-10-19 00:00:00,2011-10-19 00:00:00,TMP,surface,-96.5629,26.929,296.53
2011-10-19 00:00:00,2011-10-19 00:00:00,TMP,surface,-95.6254,26.929,296.967
2011-10-19 00:00:00,2011-10-19 00:00:00,TMP,surface,-94.6879,26.929,297.001
2011-10-19 00:00:00,2011-10-19 00:00:00,TMP,surface,-93.7504,26.929,296.633
2011-10-19 00:00:00,2011-10-19 00:00:00,TMP,surface,-92.8129,26.929,296.473
2011-10-19 00:00:00,2011-10-19 00:00:00,TMP,surface,-107.813,27.8739,281.858
2011-10-19 00:00:00,2011-10-19 00:00:00,TMP,surface,-106.875,27.8739,280.61
2011-10-19 00:00:00,2011-10-19 00:00:00,TMP,surface,-105.938,27.8739,283.61
2011-10-19 00:00:00,2011-10-19 00:00:00,TMP,surface,-105,27.8739,285.753
2011-10-19 00:00:00,2011-10-19 00:00:00,TMP,surface,-104.063,27.8739,285.223
2011-10-19 00:00:00,2011-10-19 00:00:00,TMP,surface,-103.125,27.8739,284.447
2011-10-19 00:00:00,2011-10-19 00:00:00,TMP,surface,-102.188,27.8739,284.538
2011-10-19 00:00:00,2011-10-19 00:00:00,TMP,surface,-101.25,27.8739,285.836
2011-10-19 00:00:00,2011-10-19 00:00:00,TMP,surface,-100.313,27.8739,287.53
2011-10-19 00:00:00,2011-10-19 00:00:00,TMP,surface,-99.3754,27.8739,288.666
2011-10-19 00:00:00,2011-10-19 00:00:00,TMP,surface,-98.4379,27.8739,289.413
2011-10-19 00:00:00,2011-10-19 00:00:00,TMP,surface,-97.5004,27.8739,292.669
2011-10-19 00:00:00,2011-10-19 00:00:00,TMP,surface,-96.5629,27.8739,295.845
2011-10-19 00:00:00,2011-10-19 00:00:00,TMP,surface,-95.6254,27.8739,296.076
2011-10-19 00:00:00,2011-10-19 00:00:00,TMP,surface,-94.6879,27.8739,295.786
2011-10-19 00:00:00,2011-10-19 00:00:00,TMP,surface,-93.7504,27.8739,295.429
2011-10-19 00:00:00,2011-10-19 00:00:00,TMP,surface,-92.8129,27.8739,295.329
2011-10-19 00:00:00,2011-10-19 00:00:00,TMP,surface,-107.813,28.8188,280.282
2011-10-19 00:00:00,2011-10-19 00:00:00,TMP,surface,-106.875,28.8188,280.831
2011-10-19 00:00:00,2011-10-19 00:00:00,TMP,surface,-105.938,28.8188,283.65
2011-10-19 00:00:00,2011-10-19 00:00:00,TMP,surface,-105,28.8188,284.973
2011-10-19 00:00:00,2011-10-19 00:00:00,TMP,surface,-104.063,28.8188,284.425
2011-10-19 00:00:00,2011-10-19 00:00:00,TMP,surface,-103.125,28.8188,283.753
2011-10-19 00:00:00,2011-10-19 00:00:00,TMP,surface,-102.188,28.8188,283.972
2011-10-19 00:00:00,2011-10-19 00:00:00,TMP,surface,-101.25,28.8188,285.127
2011-10-19 00:00:00,2011-10-19 00:00:00,TMP,surface,-100.313,28.8188,285.911
2011-10-19 00:00:00,2011-10-19 00:00:00,TMP,surface,-99.3754,28.8188,286.165
2011-10-19 00:00:00,2011-10-19 00:00:00,TMP,surface,-98.4379,28.8188,286.7
2011-10-19 00:00:00,2011-10-19 00:00:00,TMP,surface,-97.5004,28.8188,287.732
2011-10-19 00:00:00,2011-10-19 00:00:00,TMP,surface,-96.5629,28.8188,288.802
2011-10-19 00:00:00,2011-10-19 00:00:00,TMP,surface,-95.6254,28.8188,291.589
2011-10-19 00:00:00,2011-10-19 00:00:00,TMP,surface,-94.6879,28.8188,295.135
2011-10-19 00:00:00,2011-10-19 00:00:00,TMP,surface,-93.7504,28.8188,294.681
2011-10-19 00:00:00,2011-10-19 00:00:00,TMP,surface,-92.8129,28.8188,294.554
2011-10-19 00:00:00,2011-10-19 00:00:00,TMP,surface,-107.813,29.7637,280.951
2011-10-19 00:00:00,2011-10-19 00:00:00,TMP,surface,-106.875,29.7637,281.553
2011-10-19 00:00:00,2011-10-19 00:00:00,TMP,surface,-105.938,29.7637,283.09
2011-10-19 00:00:00,2011-10-19 00:00:00,TMP,surface,-105,29.7637,283.333
2011-10-19 00:00:00,2011-10-19 00:00:00,TMP,surface,-104.063,29.7637,283.407
2011-10-19 00:00:00,2011-10-19 00:00:00,TMP,surface,-103.125,29.7637,283.593
2011-10-19 00:00:00,2011-10-19 00:00:00,TMP,surface,-102.188,29.7637,284.233
2011-10-19 00:00:00,2011-10-19 00:00:00,TMP,surface,-101.25,29.7637,284.605
2011-10-19 00:00:00,2011-10-19 00:00:00,TMP,surface,-100.313,29.7637,284.373
2011-10-19 00:00:00,2011-10-19 00:00:00,TMP,surface,-99.3754,29.7637,284.223
2011-10-19 00:00:00,2011-10-19 00:00:00,TMP,surface,-98.4379,29.7637,284.655
2011-10-19 00:00:00,2011-10-19 00:00:00,TMP,surface,-97.5004,29.7637,285.378
2011-10-19 00:00:00,2011-10-19 00:00:00,TMP,surface,-96.5629,29.7637,286.085
2011-10-19 00:00:00,2011-10-19 00:00:00,TMP,surface,-95.6254,29.7637,286.804
2011-10-19 00:00:00,2011-10-19 00:00:00,TMP,surface,-94.6879,29.7637,289.481
2011-10-19 00:00:00,2011-10-19 00:00:00,TMP,surface,-93.7504,29.7637,292.428
2011-10-19 00:00:00,2011-10-19 00:00:00,TMP,surface,-92.8129,29.7637,286.78
2011-10-19 00:00:00,2011-10-19 00:00:00,TMP,surface,-107.813,30.7085,282.026
2011-10-19 00:00:00,2011-10-19 00:00:00,TMP,surface,-106.875,30.7085,282.546
2011-10-19 00:00:00,2011-10-19 00:00:00,TMP,surface,-105.938,30.7085,282.369
2011-10-19 00:00:00,2011-10-19 00:00:00,TMP,surface,-105,30.7085,282.013
2011-10-19 00:00:00,2011-10-19 00:00:00,TMP,surface,-104.063,30.7085,282.071
2011-10-19 00:00:00,2011-10-19 00:00:00,TMP,surface,-103.125,30.7085,282.953
2011-10-19 00:00:00,2011-10-19 00:00:00,TMP,surface,-102.188,30.7085,283.737
2011-10-19 00:00:00,2011-10-19 00:00:00,TMP,surface,-101.25,30.7085,283.855
2011-10-19 00:00:00,2011-10-19 00:00:00,TMP,surface,-100.313,30.7085,283.69
2011-10-19 00:00:00,2011-10-19 00:00:00,TMP,surface,-99.3754,30.7085,283.709
2011-10-19 00:00:00,2011-10-19 00:00:00,TMP,surface,-98.4379,30.7085,284.044
2011-10-19 00:00:00,2011-10-19 00:00:00,TMP,surface,-97.5004,30.7085,284.42
2011-10-19 00:00:00,2011-10-19 00:00:00,TMP,surface,-96.5629,30.7085,284.714
2011-10-19 00:00:00,2011-10-19 00:00:00,TMP,surface,-95.6254,30.7085,284.972
2011-10-19 00:00:00,2011-10-19 00:00:00,TMP,surface,-94.6879,30.7085,285.02
2011-10-19 00:00:00,2011-10-19 00:00:00,TMP,surface,-93.7504,30.7085,284.609
2011-10-19 00:00:00,2011-10-19 00:00:00,TMP,surface,-92.8129,30.7085,283.836
2011-10-19 00:00:00,2011-10-19 00:00:00,TMP,surface,-107.813,31.6534,281.348
2011-10-19 00:00:00,2011-10-19 00:00:00,TMP,surface,-106.875,31.6534,281.642
2011-10-19 00:00:00,2011-10-19 00:00:00,TMP,surface,-105.938,31.6534,280.786
2011-10-19 00:00:00,2011-10-19 00:00:00,TMP,surface,-105,31.6534,280.797
2011-10-19 00:00:00,2011-10-19 00:00:00,TMP,surface,-104.063,31.6534,281.509
2011-10-19 00:00:00,2011-10-19 00:00:00,TMP,surface,-103.125,31.6534,282.353
2011-10-19 00:00:00,2011-10-19 00:00:00,TMP,surface,-102.188,31.6534,282.973
2011-10-19 00:00:00,2011-10-19 00:00:00,TMP,surface,-101.25,31.6534,283.221
2011-10-19 00:00:00,2011-10-19 00:00:00,TMP,surface,-100.313,31.6534,283.54
2011-10-19 00:00:00,2011-10-19 00:00:00,TMP,surface,-99.3754,31.6534,283.794
2011-10-19 00:00:00,2011-10-19 00:00:00,TMP,surface,-98.4379,31.6534,283.906
2011-10-19 00:00:00,2011-10-19 00:00:00,TMP,surface,-97.5004,31.6534,283.871
2011-10-19 00:00:00,2011-10-19 00:00:00,TMP,surface,-96.5629,31.6534,283.897
2011-10-19 00:00:00,2011-10-19 00:00:00,TMP,surface,-95.6254,31.6534,283.906
2011-10-19 00:00:00,2011-10-19 00:00:00,TMP,surface,-94.6879,31.6534,283.546
2011-10-19 00:00:00,2011-10-19 00:00:00,TMP,surface,-93.7504,31.6534,283.028
2011-10-19 00:00:00,2011-10-19 00:00:00,TMP,surface,-92.8129,31.6534,282.655
2011-10-19 00:00:00,2011-10-19 00:00:00,TMP,surface,-107.813,32.5983,278.719
2011-10-19 00:00:00,2011-10-19 00:00:00,TMP,surface,-106.875,32.5983,278.762
2011-10-19 00:00:00,2011-10-19 00:00:00,TMP,surface,-105.938,32.5983,278.82
2011-10-19 00:00:00,2011-10-19 00:00:00,TMP,surface,-105,32.5983,279.466
2011-10-19 00:00:00,2011-10-19 00:00:00,TMP,surface,-104.063,32.5983,280.724
2011-10-19 00:00:00,2011-10-19 00:00:00,TMP,surface,-103.125,32.5983,281.535
2011-10-19 00:00:00,2011-10-19 00:00:00,TMP,surface,-102.188,32.5983,282.036
2011-10-19 00:00:00,2011-10-19 00:00:00,TMP,surface,-101.25,32.5983,282.565
2011-10-19 00:00:00,2011-10-19 00:00:00,TMP,surface,-100.313,32.5983,283.21
2011-10-19 00:00:00,2011-10-19 00:00:00,TMP,surface,-99.3754,32.5983,283.677
2011-10-19 00:00:00,2011-10-19 00:00:00,TMP,surface,-98.4379,32.5983,283.767
2011-10-19 00:00:00,2011-10-19 00:00:00,TMP,surface,-97.5004,32.5983,283.594
2011-10-19 00:00:00,2011-10-19 00:00:00,TMP,surface,-96.5629,32.5983,283.405
2011-10-19 00:00:00,2011-10-19 00:00:00,TMP,surface,-95.6254,32.5983,283.109
2011-10-19 00:00:00,2011-10-19 00:00:00,TMP,surface,-94.6879,32.5983,282.527
2011-10-19 00:00:00,2011-10-19 00:00:00,TMP,surface,-93.7504,32.5983,282.015
2011-10-19 00:00:00,2011-10-19 00:00:00,TMP,surface,-92.8129,32.5983,281.929
2011-10-19 00:00:00,2011-10-19 00:00:00,TMP,surface,-107.813,33.5432,275.802
2011-10-19 00:00:00,2011-10-19 00:00:00,TMP,surface,-106.875,33.5432,276.873
2011-10-19 00:00:00,2011-10-19 00:00:00,TMP,surface,-105.938,33.5432,277.673
2011-10-19 00:00:00,2011-10-19 00:00:00,TMP,surface,-105,33.5432,278.836
2011-10-19 00:00:00,2011-10-19 00:00:00,TMP,surface,-104.063,33.5432,280.063
2011-10-19 00:00:00,2011-10-19 00:00:00,TMP,surface,-103.125,33.5432,280.887
2011-10-19 00:00:00,2011-10-19 00:00:00,TMP,surface,-102.188,33.5432,281.257
2011-10-19 00:00:00,2011-10-19 00:00:00,TMP,surface,-101.25,33.5432,281.725
2011-10-19 00:00:00,2011-10-19 00:00:00,TMP,surface,-100.313,33.5432,282.38
2011-10-19 00:00:00,2011-10-19 00:00:00,TMP,surface,-99.3754,33.5432,282.785
2011-10-19 00:00:00,2011-10-19 00:00:00,TMP,surface,-98.4379,33.5432,282.849
2011-10-19 00:00:00,2011-10-19 00:00:00,TMP,surface,-97.5004,33.5432,282.594
2011-10-19 00:00:00,2011-10-19 00:00:00,TMP,surface,-96.5629,33.5432,282.233
2011-10-19 00:00:00,2011-10-19 00:00:00,TMP,surface,-95.6254,33.5432,281.897
2011-10-19 00:00:00,2011-10-19 00:00:00,TMP,surface,-94.6879,33.5432,281.391
2011-10-19 00:00:00,2011-10-19 00:00:00,TMP,surface,-93.7504,33.5432,280.839
2011-10-19 00:00:00,2011-10-19 00:00:00,TMP,surface,-92.8129,33.5432,280.757
2011-10-19 00:00:00,2011-10-19 00:00:00,TMP,surface,-107.813,34.4881,273.765
2011-10-19 00:00:00,2011-10-19 00:00:00,TMP,surface,-106.875,34.4881,275.279
2011-10-19 00:00:00,2011-10-19 00:00:00,TMP,surface,-105.938,34.4881,276.282
2011-10-19 00:00:00,2011-10-19 00:00:00,TMP,surface,-105,34.4881,277.429
2011-10-19 00:00:00,2011-10-19 00:00:00,TMP,surface,-104.063,34.4881,278.813
2011-10-19 00:00:00,2011-10-19 00:00:00,TMP,surface,-103.125,34.4881,279.657
2011-10-19 00:00:00,2011-10-19 00:00:00,TMP,surface,-102.188,34.4881,280.188
2011-10-19 00:00:00,2011-10-19 00:00:00,TMP,surface,-101.25,34.4881,280.719
2011-10-19 00:00:00,2011-10-19 00:00:00,TMP,surface,-100.313,34.4881,281.127
2011-10-19 00:00:00,2011-10-19 00:00:00,TMP,surface,-99.3754,34.4881,281.338
2011-10-19 00:00:00,2011-10-19 00:00:00,TMP,surface,-98.4379,34.4881,281.442
2011-10-19 00:00:00,2011-10-19 00:00:00,TMP,surface,-97.5004,34.4881,281.385
2011-10-19 00:00:00,2011-10-19 00:00:00,TMP,surface,-96.5629,34.4881,281.191
2011-10-19 00:00:00,2011-10-19 00:00:00,TMP,surface,-95.6254,34.4881,280.661
2011-10-19 00:00:00,2011-10-19 00:00:00,TMP,surface,-94.6879,34.4881,279.737
2011-10-19 00:00:00,2011-10-19 00:00:00,TMP,surface,-93.7504,34.4881,279.145
2011-10-19 00:00:00,2011-10-19 00:00:00,TMP,surface,-92.8129,34.4881,279.133
2011-10-19 00:00:00,2011-10-19 00:00:00,TMP,surface,-107.813,35.4329,272.993
2011-10-19 00:00:00,2011-10-19 00:00:00,TMP,surface,-106.875,35.4329,273.953
2011-10-19 00:00:00,2011-10-19 00:00:00,TMP,surface,-105.938,35.4329,274.954
2011-10-19 00:00:00,2011-10-19 00:00:00,TMP,surface,-105,35.4329,275.938
2011-10-19 00:00:00,2011-10-19 00:00:00,TMP,surface,-104.063,35.4329,277.538
2011-10-19 00:00:00,2011-10-19 00:00:00,TMP,surface,-103.125,35.4329,278.805
2011-10-19 00:00:00,2011-10-19 00:00:00,TMP,surface,-102.188,35.4329,279.393
2011-10-19 00:00:00,2011-10-19 00:00:00,TMP,surface,-101.25,35.4329,279.692
2011-10-19 00:00:00,2011-10-19 00:00:00,TMP,surface,-100.313,35.4329,279.908
2011-10-19 00:00:00,2011-10-19 00:00:00,TMP,surface,-99.3754,35.4329,279.761
2011-10-19 00:00:00,2011-10-19 00:00:00,TMP,surface,-98.4379,35.4329,279.749
2011-10-19 00:00:00,2011-10-19 00:00:00,TMP,surface,-97.5004,35.4329,280.1
2011-10-19 00:00:00,2011-10-19 00:00:00,TMP,surface,-96.5629,35.4329,280.257
2011-10-19 00:00:00,2011-10-19 00:00:00,TMP,surface,-95.6254,35.4329,279.796
2011-10-19 00:00:00,2011-10-19 00:00:00,TMP,surface,-94.6879,35.4329,278.905
2011-10-19 00:00:00,2011-10-19 00:00:00,TMP,surface,-93.7504,35.4329,278.026
2011-10-19 00:00:00,2011-10-19 00:00:00,TMP,surface,-92.8129,35.4329,277.722
2011-10-19 00:00:00,2011-10-19 00:00:00,TMP,surface,-107.813,36.3778,271.874
2011-10-19 00:00:00,2011-10-19 00:00:00,TMP,surface,-106.875,36.3778,271.223
2011-10-19 00:00:00,2011-10-19 00:00:00,TMP,surface,-105.938,36.3778,272.583
2011-10-19 00:00:00,2011-10-19 00:00:00,TMP,surface,-105,36.3778,274.09
2011-10-19 00:00:00,2011-10-19 00:00:00,TMP,surface,-104.063,36.3778,275.869
2011-10-19 00:00:00,2011-10-19 00:00:00,TMP,surface,-103.125,36.3778,277.221
2011-10-19 00:00:00,2011-10-19 00:00:00,TMP,surface,-102.188,36.3778,277.999
2011-10-19 00:00:00,2011-10-19 00:00:00,TMP,surface,-101.25,36.3778,278.642
2011-10-19 00:00:00,2011-10-19 00:00:00,TMP,surface,-100.313,36.3778,278.887
2011-10-19 00:00:00,2011-10-19 00:00:00,TMP,surface,-99.3754,36.3778,278.985
2011-10-19 00:00:00,2011-10-19 00:00:00,TMP,surface,-98.4379,36.3778,278.829
2011-10-19 00:00:00,2011-10-19 00:00:00,TMP,surface,-97.5004,36.3778,278.909
2011-10-19 00:00:00,2011-10-19 00:00:00,TMP,surface,-96.5629,36.3778,279.113
2011-10-19 00:00:00,2011-10-19 00:00:00,TMP,surface,-95.6254,36.3778,278.781
2011-10-19 00:00:00,2011-10-19 00:00:00,TMP,surface,-94.6879,36.3778,277.922
2011-10-19 00:00:00,2011-10-19 00:00:00,TMP,surface,-93.7504,36.3778,277.007
2011-10-19 00:00:00,2011-10-19 00:00:00,TMP,surface,-92.8129,36.3778,276.705
2011-10-19 00:00:00,2011-10-19 00:00:00,PRATE,surface,-107.813,25.0393,3.8e-06
2011-10-19 00:00:00,2011-10-19 00:00:00,PRATE,surface,-106.875,25.0393,1.03e-05
2011-10-19 00:00:00,2011-10-19 00:00:00,PRATE,surface,-105.938,25.0393,1.68e-05
2011-10-19 00:00:00,2011-10-19 00:00:00,PRATE,surface,-105,25.0393,8.6e-06
2011-10-19 00:00:00,2011-10-19 00:00:00,PRATE,surface,-104.063,25.0393,4.4e-06
2011-10-19 00:00:00,2011-10-19 00:00:00,PRATE,surface,-103.125,25.0393,2e-06
2011-10-19 00:00:00,2011-10-19 00:00:00,PRATE,surface,-102.188,25.0393,2.1e-06
2011-10-19 00:00:00,2011-10-19 00:00:00,PRATE,surface,-101.25,25.0393,5.1e-06
2011-10-19 00:00:00,2011-10-19 00:00:00,PRATE,surface,-100.313,25.0393,8.6e-06
2011-10-19 00:00:00,2011-10-19 00:00:00,PRATE,surface,-99.3754,25.0393,5.3e-06
2011-10-19 00:00:00,2011-10-19 00:00:00,PRATE,surface,-98.4379,25.0393,1.2e-05
2011-10-19 00:00:00,2011-10-19 00:00:00,PRATE,surface,-97.5004,25.0393,3.63e-05
2011-10-19 00:00:00,2011-10-19 00:00:00,PRATE,surface,-96.5629,25.0393,5.68e-05
2011-10-19 00:00:00,2011-10-19 00:00:00,PRATE,surface,-95.6254,25.0393,5.9e-05
2011-10-19 00:00:00,2011-10-19 00:00:00,PRATE,surface,-94.6879,25.0393,2.55e-05
2011-10-19 00:00:00,2011-10-19 00:00:00,PRATE,surface,-93.7504,25.0393,2.6e-05
2011-10-19 00:00:00,2011-10-19 00:00:00,PRATE,surface,-92.8129,25.0393,1.86e-05
2011-10-19 00:00:00,2011-10-19 00:00:00,PRATE,surface,-107.813,25.9842,2.5e-06
2011-10-19 00:00:00,2011-10-19 00:00:00,PRATE,surface,-106.875,25.9842,9.1e-06
2011-10-19 00:00:00,2011-10-19 00:00:00,PRATE,surface,-105.938,25.9842,1.06e-05
2011-10-19 00:00:00,2011-10-19 00:00:00,PRATE,surface,-105,25.9842,7.4e-06
2011-10-19 00:00:00,2011-10-19 00:00:00,PRATE,surface,-104.063,25.9842,4.3e-06
2011-10-19 00:00:00,2011-10-19 00:00:00,PRATE,surface,-103.125,25.9842,3.1e-06
2011-10-19 00:00:00,2011-10-19 00:00:00,PRATE,surface,-102.188,25.9842,4e-06
2011-10-19 00:00:00,2011-10-19 00:00:00,PRATE,surface,-101.25,25.9842,7e-06
2011-10-19 00:00:00,2011-10-19 00:00:00,PRATE,surface,-100.313,25.9842,6.7e-06
2011-10-19 00:00:00,2011-10-19 00:00:00,PRATE,surface,-99.3754,25.9842,3.8e-06
2011-10-19 00:00:00,2011-10-19 00:00:00,PRATE,surface,-98.4379,25.9842,6.2e-06
2011-10-19 00:00:00,2011-10-19 00:00:00,PRATE,surface,-97.5004,25.9842,3.52e-05
2011-10-19 00:00:00,2011-10-19 00:00:00,PRATE,surface,-96.5629,25.9842,9.07e-05
2011-10-19 00:00:00,2011-10-19 00:00:00,PRATE,surface,-95.6254,25.9842,0.0001062
2011-10-19 00:00:00,2011-10-19 00:00:00,PRATE,surface,-94.6879,25.9842,8.15e-05
2011-10-19 00:00:00,2011-10-19 00:00:00,PRATE,surface,-93.7504,25.9842,5.23e-05
2011-10-19 00:00:00,2011-10-19 00:00:00,PRATE,surface,-92.8129,25.9842,2.96e-05
2011-10-19 00:00:00,2011-10-19 00:00:00,PRATE,surface,-107.813,26.929,8.1e-06
2011-10-19 00:00:00,2011-10-19 00:00:00,PRATE,surface,-106.875,26.929,5.4e-06
2011-10-19 00:00:00,2011-10-19 00:00:00,PRATE,surface,-105.938,26.929,3.5e-06
2011-10-19 00:00:00,2011-10-19 00:00:00,PRATE,surface,-105,26.929,1.8e-06
2011-10-19 00:00:00,2011-10-19 00:00:00,PRATE,surface,-104.063,26.929,2.8e-06
2011-10-19 00:00:00,2011-10-19 00:00:00,PRATE,surface,-103.125,26.929,5.5e-06
2011-10-19 00:00:00,2011-10-19 00:00:00,PRATE,surface,-102.188,26.929,7.7e-06
2011-10-19 00:00:00,2011-10-19 00:00:00,PRATE,surface,-101.25,26.929,9e-06
2011-10-19 00:00:00,2011-10-19 00:00:00,PRATE,surface,-100.313,26.929,5.5e-06
2011-10-19 00:00:00,2011-10-19 00:00:00,PRATE,surface,-99.3754,26.929,2.2e-06
2011-10-19 00:00:00,2011-10-19 00:00:00,PRATE,surface,-98.4379,26.929,5.3e-06
2011-10-19 00:00:00,2011-10-19 00:00:00,PRATE,surface,-97.5004,26.929,3.58e-05
2011-10-19 00:00:00,2011-10-19 00:00:00,PRATE,surface,-96.5629,26.929,7.16e-05
2011-10-19 00:00:00,2011-10-19 00:00:00,PRATE,surface,-95.6254,26.929,9.6e-05
2011-10-19 00:00:00,2011-10-19 00:00:00,PRATE,surface,-94.6879,26.929,7.85e-05
2011-10-19 00:00:00,2011-10-19 00:00:00,PRATE,surface,-93.7504,26.929,6.58e-05
2011-10-19 00:00:00,2011-10-19 00:00:00,PRATE,surface,-92.8129,26.929,5.13e-05
2011-10-19 00:00:00,2011-10-19 00:00:00,PRATE,surface,-107.813,27.8739,1.11e-05
2011-10-19 00:00:00,2011-10-19 00:00:00,PRATE,surface,-106.875,27.8739,3.9e-06
2011-10-19 00:00:00,2011-10-19 00:00:00,PRATE,surface,-105.938,27.8739,9e-07
2011-10-19 00:00:00,2011-10-19 00:00:00,PRATE,surface,-105,27.8739,4e-07
2011-10-19 00:00:00,2011-10-19 00:00:00,PRATE,surface,-104.063,27.8739,1.2e-06
2011-10-19 00:00:00,2011-10-19 00:00:00,PRATE,surface,-103.125,27.8739,4.4e-06
2011-10-19 00:00:00,2011-10-19 00:00:00,PRATE,surface,-102.188,27.8739,6.6e-06
2011-10-19 00:00:00,2011-10-19 00:00:00,PRATE,surface,-101.25,27.8739,6.7e-06
2011-10-19 00:00:00,2011-10-19 00:00:00,PRATE,surface,-100.313,27.8739,5.3e-06
2011-10-19 00:00:00,2011-10-19 00:00:00,PRATE,surface,-99.3754,27.8739,5e-06
2011-10-19 00:00:00,2011-10-19 00:00:00,PRATE,surface,-98.4379,27.8739,6.3e-06
2011-10-19 00:00:00,2011-10-19 00:00:00,PRATE,surface,-97.5004,27.8739,1.77e-05
2011-10-19 00:00:00,2011-10-19 00:00:00,PRATE,surface,-96.5629,27.8739,3.85e-05
2011-10-19 00:00:00,2011-10-19 00:00:00,PRATE,surface,-95.6254,27.8739,5.32e-05
2011-10-19 00:00:00,2011-10-19 00:00:00,PRATE,surface,-94.6879,27.8739,5.58e-05
2011-10-19 00:00:00,2011-10-19 00:00:00,PRATE,surface,-93.7504,27.8739,5.44e-05
2011-10-19 00:00:00,2011-10-19 00:00:00,PRATE,surface,-92.8129,27.8739,4.49e-05
2011-10-19 00:00:00,2011-10-19 00:00:00,PRATE,surface,-107.813,28.8188,1.26e-05
2011-10-19 00:00:00,2011-10-19 00:00:00,PRATE,surface,-106.875,28.8188,4.5e-06
2011-10-19 00:00:00,2011-10-19 00:00:00,PRATE,surface,-105.938,28.8188,1.5e-06
2011-10-19 00:00:00,2011-10-19 00:00:00,PRATE,surface,-105,28.8188,1.2e-06
2011-10-19 00:00:00,2011-10-19 00:00:00,PRATE,surface,-104.063,28.8188,1.7e-06
2011-10-19 00:00:00,2011-10-19 00:00:00,PRATE,surface,-103.125,28.8188,4e-06
2011-10-19 00:00:00,2011-10-19 00:00:00,PRATE,surface,-102.188,28.8188,6.2e-06
2011-10-19 00:00:00,2011-10-19 00:00:00,PRATE,surface,-101.25,28.8188,6.1e-06
2011-10-19 00:00:00,2011-10-19 00:00:00,PRATE,surface,-100.313,28.8188,7.6e-06
2011-10-19 00:00:00,2011-10-19 00:00:00,PRATE,surface,-99.3754,28.8188,9.8e-06
2011-10-19 00:00:00,2011-10-19 00:00:00,PRATE,surface,-98.4379,28.8188,9e-06
2011-10-19 00:00:00,2011-10-19 00:00:00,PRATE,surface,-97.5004,28.8188,1.3e-05
2011-10-19 00:00:00,2011-10-19 00:00:00,PRATE,surface,-96.5629,28.8188,2.67e-05
2011-10-19 00:00:00,2011-10-19 00:00:00,PRATE,surface,-95.6254,28.8188,4.45e-05
2011-10-19 00:00:00,2011-10-19 00:00:00,PRATE,surface,-94.6879,28.8188,5.25e-05
2011-10-19 00:00:00,2011-10-19 00:00:00,PRATE,surface,-93.7504,28.8188,4.28e-05
2011-10-19 00:00:00,2011-10-19 00:00:00,PRATE,surface,-92.8129,28.8188,3.61e-05
2011-10-19 00:00:00,2011-10-19 00:00:00,PRATE,surface,-107.813,29.7637,7.9e-06
2011-10-19 00:00:00,2011-10-19 00:00:00,PRATE,surface,-106.875,29.7637,5.5e-06
2011-10-19 00:00:00,2011-10-19 00:00:00,PRATE,surface,-105.938,29.7637,3.8e-06
2011-10-19 00:00:00,2011-10-19 00:00:00,PRATE,surface,-105,29.7637,2.5e-06
2011-10-19 00:00:00,2011-10-19 00:00:00,PRATE,surface,-104.063,29.7637,2.8e-06
2011-10-19 00:00:00,2011-10-19 00:00:00,PRATE,surface,-103.125,29.7637,4.5e-06
2011-10-19 00:00:00,2011-10-19 00:00:00,PRATE,surface,-102.188,29.7637,7.3e-06
2011-10-19 00:00:00,2011-10-19 00:00:00,PRATE,surface,-101.25,29.7637,1e-05
2011-10-19 00:00:00,2011-10-19 00:00:00,PRATE,surface,-100.313,29.7637,1.43e-05
2011-10-19 00:00:00,2011-10-19 00:00:00,PRATE,surface,-99.3754,29.7637,1.52e-05
2011-10-19 00:00:00,2011-10-19 00:00:00,PRATE,surface,-98.4379,29.7637,1.2e-05
2011-10-19 00:00:00,2011-10-19 00:00:00,PRATE,surface,-97.5004,29.7637,1.36e-05
2011-10-19 00:00:00,2011-10-19 00:00:00,PRATE,surface,-96.5629,29.7637,2.65e-05
2011-10-19 00:00:00,2011-10-19 00:00:00,PRATE,surface,-95.6254,29.7637,4.11e-05
2011-10-19 00:00:00,2011-10-19 00:00:00,PRATE,surface,-94.6879,29.7637,4.48e-05
2011-10-19 00:00:00,2011-10-19 00:00:00,PRATE,surface,-93.7504,29.7637,3.9e-05
2011-10-19 00:00:00,2011-10-19 00:00:00,PRATE,surface,-92.8129,29.7637,2.55e-05
2011-10-19 00:00:00,2011-10-19 00:00:00,PRATE,surface,-107.813,30.7085,4.3e-06
2011-10-19 00:00:00,2011-10-19 00:00:00,PRATE,surface,-106.875,30.7085,4e-06
2011-10-19 00:00:00,2011-10-19 00:00:00,PRATE,surface,-105.938,30.7085,4.2e-06
2011-10-19 00:00:00,2011-10-19 00:00:00,PRATE,surface,-105,30.7085,4.3e-06
2011-10-19 00:00:00,2011-10-19 00:00:00,PRATE,surface,-104.063,30.7085,3.7e-06
2011-10-19 00:00:00,2011-10-19 00:00:00,PRATE,surface,-103.125,30.7085,3.9e-06
2011-10-19 00:00:00,2011-10-19 00:00:00,PRATE,surface,-102.188,30.7085,4.7e-06
2011-10-19 00:00:00,2011-10-19 00:00:00,PRATE,surface,-101.25,30.7085,7.9e-06
2011-10-19 00:00:00,2011-10-19 00:00:00,PRATE,surface,-100.313,30.7085,1.04e-05
2011-10-19 00:00:00,2011-10-19 00:00:00,PRATE,surface,-99.3754,30.7085,9e-06
2011-10-19 00:00:00,2011-10-19 00:00:00,PRATE,surface,-98.4379,30.7085,7.5e-06
2011-10-19 00:00:00,2011-10-19 00:00:00,PRATE,surface,-97.5004,30.7085,9.8e-06
2011-10-19 00:00:00,2011-10-19 00:00:00,PRATE,surface,-96.5629,30.7085,2.14e-05
2011-10-19 00:00:00,2011-10-19 00:00:00,PRATE,surface,-95.6254,30.7085,3.89e-05
2011-10-19 00:00:00,2011-10-19 00:00:00,PRATE,surface,-94.6879,30.7085,4.63e-05
2011-10-19 00:00:00,2011-10-19 00:00:00,PRATE,surface,-93.7504,30.7085,3.9e-05
2011-10-19 00:00:00,2011-10-19 00:00:00,PRATE,surface,-92.8129,30.7085,2.97e-05
2011-10-19 00:00:00,2011-10-19 00:00:00,PRATE,surface,-107.813,31.6534,4.6e-06
2011-10-19 00:00:00,2011-10-19 00:00:00,PRATE,surface,-106.875,31.6534,3.4e-06
2011-10-19 00:00:00,2011-10-19 00:00:00,PRATE,surface,-105.938,31.6534,3.8e-06
2011-10-19 00:00:00,2011-10-19 00:00:00,PRATE,surface,-105,31.6534,4e-06
2011-10-19 00:00:00,2011-10-19 00:00:00,PRATE,surface,-104.063,31.6534,3.9e-06
2011-10-19 00:00:00,2011-10-19 00:00:00,PRATE,surface,-103.125,31.6534,3.3e-06
2011-10-19 00:00:00,2011-10-19 00:00:00,PRATE,surface,-102.188,31.6534,2.7e-06
2011-10-19 00:00:00,2011-10-19 00:00:00,PRATE,surface,-101.25,31.6534,3e-06
2011-10-19 00:00:00,2011-10-19 00:00:00,PRATE,surface,-100.313,31.6534,3.2e-06
2011-10-19 00:00:00,2011-10-19 00:00:00,PRATE,surface,-99.3754,31.6534,2.5e-06
2011-10-19 00:00:00,2011-10-19 00:00:00,PRATE,surface,-98.4379,31.6534,3e-06
2011-10-19 00:00:00,2011-10-19 00:00:00,PRATE,surface,-97.5004,31.6534,7.1e-06
2011-10-19 00:00:00,2011-10-19 00:00:00,PRATE,surface,-96.5629,31.6534,1.68e-05
2011-10-19 00:00:00,2011-10-19 00:00:00,PRATE,surface,-95.6254,31.6534,3.24e-05
2011-10-19 00:00:00,2011-10-19 00:00:00,PRATE,surface,-94.6879,31.6534,4.69e-05
2011-10-19 00:00:00,2011-10-19 00:00:00,PRATE,surface,-93.7504,31.6534,4.66e-05
2011-10-19 00:00:00,2011-10-19 00:00:00,PRATE,surface,-92.8129,31.6534,3.22e-05
2011-10-19 00:00:00,2011-10-19 00:00:00,PRATE,surface,-107.813,32.5983,6.8e-06
2011-10-19 00:00:00,2011-10-19 00:00:00,PRATE,surface,-106.875,32.5983,6.8e-06
2011-10-19 00:00:00,2011-10-19 00:00:00,PRATE,surface,-105.938,32.5983,6e-06
2011-10-19 00:00:00,2011-10-19 00:00:00,PRATE,surface,-105,32.5983,3.7e-06
2011-10-19 00:00:00,2011-10-19 00:00:00,PRATE,surface,-104.063,32.5983,2.4e-06
2011-10-19 00:00:00,2011-10-19 00:00:00,PRATE,surface,-103.125,32.5983,2.4e-06
2011-10-19 00:00:00,2011-10-19 00:00:00,PRATE,surface,-102.188,32.5983,2.9e-06
2011-10-19 00:00:00,2011-10-19 00:00:00,PRATE,surface,-101.25,32.5983,3.1e-06
2011-10-19 00:00:00,2011-10-19 00:00:00,PRATE,surface,-100.313,32.5983,2.6e-06
2011-10-19 00:00:00,2011-10-19 00:00:00,PRATE,surface,-99.3754,32.5983,2.3e-06
2011-10-19 00:00:00,2011-10-19 00:00:00,PRATE,surface,-98.4379,32.5983,3.2e-06
2011-10-19 00:00:00,2011-10-19 00:00:00,PRATE,surface,-97.5004,32.5983,6.3e-06
2011-10-19 00:00:00,2011-10-19 00:00:00,PRATE,surface,-96.5629,32.5983,1.32e-05
2011-10-19 00:00:00,2011-10-19 00:00:00,PRATE,surface,-95.6254,32.5983,2.49e-05
2011-10-19 00:00:00,2011-10-19 00:00:00,PRATE,surface,-94.6879,32.5983,3.93e-05
2011-10-19 00:00:00,2011-10-19 00:00:00,PRATE,surface,-93.7504,32.5983,4.77e-05
2011-10-19 00:00:00,2011-10-19 00:00:00,PRATE,surface,-92.8129,32.5983,3.87e-05
2011-10-19 00:00:00,2011-10-19 00:00:00,PRATE,surface,-107.813,33.5432,8.2e-06
2011-10-19 00:00:00,2011-10-19 00:00:00,PRATE,surface,-106.875,33.5432,7.1e-06
2011-10-19 00:00:00,2011-10-19 00:00:00,PRATE,surface,-105.938,33.5432,4.4e-06
2011-10-19 00:00:00,2011-10-19 00:00:00,PRATE,surface,-105,33.5432,1.6e-06
2011-10-19 00:00:00,2011-10-19 00:00:00,PRATE,surface,-104.063,33.5432,9e-07
2011-10-19 00:00:00,2011-10-19 00:00:00,PRATE,surface,-103.125,33.5432,9e-07
2011-10-19 00:00:00,2011-10-19 00:00:00,PRATE,surface,-102.188,33.5432,1.2e-06
2011-10-19 00:00:00,2011-10-19 00:00:00,PRATE,surface,-101.25,33.5432,2.4e-06
2011-10-19 00:00:00,2011-10-19 00:00:00,PRATE,surface,-100.313,33.5432,3e-06
2011-10-19 00:00:00,2011-10-19 00:00:00,PRATE,surface,-99.3754,33.5432,2.9e-06
2011-10-19 00:00:00,2011-10-19 00:00:00,PRATE,surface,-98.4379,33.5432,4.5e-06
2011-10-19 00:00:00,2011-10-19 00:00:00,PRATE,surface,-97.5004,33.5432,7.2e-06
2011-10-19 00:00:00,2011-10-19 00:00:00,PRATE,surface,-96.5629,33.5432,1.1e-05
2011-10-19 00:00:00,2011-10-19 00:00:00,PRATE,surface,-95.6254,33.5432,1.88e-05
2011-10-19 00:00:00,2011-10-19 00:00:00,PRATE,surface,-94.6879,33.5432,3.19e-05
2011-10-19 00:00:00,2011-10-19 00:00:00,PRATE,surface,-93.7504,33.5432,4.46e-05
2011-10-19 00:00:00,2011-10-19 00:00:00,PRATE,surface,-92.8129,33.5432,4.68e-05
2011-10-19 00:00:00,2011-10-19 00:00:00,PRATE,surface,-107.813,34.4881,5.7e-06
2011-10-19 00:00:00,2011-10-19 00:00:00,PRATE,surface,-106.875,34.4881,4.9e-06
2011-10-19 00:00:00,2011-10-19 00:00:00,PRATE,surface,-105.938,34.4881,3.3e-06
2011-10-19 00:00:00,2011-10-19 00:00:00,PRATE,surface,-105,34.4881,9e-07
2011-10-19 00:00:00,2011-10-19 00:00:00,PRATE,surface,-104.063,34.4881,5e-07
2011-10-19 00:00:00,2011-10-19 00:00:00,PRATE,surface,-103.125,34.4881,3e-07
2011-10-19 00:00:00,2011-10-19 00:00:00,PRATE,surface,-102.188,34.4881,3e-07
2011-10-19 00:00:00,2011-10-19 00:00:00,PRATE,surface,-101.25,34.4881,3e-07
2011-10-19 00:00:00,2011-10-19 00:00:00,PRATE,surface,-100.313,34.4881,5e-07
2011-10-19 00:00:00,2011-10-19 00:00:00,PRATE,surface,-99.3754,34.4881,1.3e-06
2011-10-19 00:00:00,2011-10-19 00:00:00,PRATE,surface,-98.4379,34.4881,2.9e-06
2011-10-19 00:00:00,2011-10-19 00:00:00,PRATE,surface,-97.5004,34.4881,7.6e-06
2011-10-19 00:00:00,2011-10-19 00:00:00,PRATE,surface,-96.5629,34.4881,1.24e-05
2011-10-19 00:00:00,2011-10-19 00:00:00,PRATE,surface,-95.6254,34.4881,1.72e-05
2011-10-19 00:00:00,2011-10-19 00:00:00,PRATE,surface,-94.6879,34.4881,2.8e-05
2011-10-19 00:00:00,2011-10-19 00:00:00,PRATE,surface,-93.7504,34.4881,4.32e-05
2011-10-19 00:00:00,2011-10-19 00:00:00,PRATE,surface,-92.8129,34.4881,5.51e-05
2011-10-19 00:00:00,2011-10-19 00:00:00,PRATE,surface,-107.813,35.4329,6.1e-06
2011-10-19 00:00:00,2011-10-19 00:00:00,PRATE,surface,-106.875,35.4329,4.8e-06
2011-10-19 00:00:00,2011-10-19 00:00:00,PRATE,surface,-105.938,35.4329,2.2e-06
2011-10-19 00:00:00,2011-10-19 00:00:00,PRATE,surface,-105,35.4329,1.3e-06
2011-10-19 00:00:00,2011-10-19 00:00:00,PRATE,surface,-104.063,35.4329,8e-07
2011-10-19 00:00:00,2011-10-19 00:00:00,PRATE,surface,-103.125,35.4329,6e-07
2011-10-19 00:00:00,2011-10-19 00:00:00,PRATE,surface,-102.188,35.4329,5e-07
2011-10-19 00:00:00,2011-10-19 00:00:00,PRATE,surface,-101.25,35.4329,5e-07
2011-10-19 00:00:00,2011-10-19 00:00:00,PRATE,surface,-100.313,35.4329,9e-07
2011-10-19 00:00:00,2011-10-19 00:00:00,PRATE,surface,-99.3754,35.4329,1.7e-06
2011-10-19 00:00:00,2011-10-19 00:00:00,PRATE,surface,-98.4379,35.4329,3e-06
2011-10-19 00:00:00,2011-10-19 00:00:00,PRATE,surface,-97.5004,35.4329,5.4e-06
2011-10-19 00:00:00,2011-10-19 00:00:00,PRATE,surface,-96.5629,35.4329,8.1e-06
2011-10-19 00:00:00,2011-10-19 00:00:00,PRATE,surface,-95.6254,35.4329,1.29e-05
2011-10-19 00:00:00,2011-10-19 00:00:00,PRATE,surface,-94.6879,35.4329,2.23e-05
2011-10-19 00:00:00,2011-10-19 00:00:00,PRATE,surface,-93.7504,35.4329,3.44e-05
2011-10-19 00:00:00,2011-10-19 00:00:00,PRATE,surface,-92.8129,35.4329,4.84e-05
2011-10-19 00:00:00,2011-10-19 00:00:00,PRATE,surface,-107.813,36.3778,8.6e-06
2011-10-19 00:00:00,2011-10-19 00:00:00,PRATE,surface,-106.875,36.3778,6.6e-06
2011-10-19 00:00:00,2011-10-19 00:00:00,PRATE,surface,-105.938,36.3778,2.9e-06
2011-10-19 00:00:00,2011-10-19 00:00:00,PRATE,surface,-105,36.3778,1.8e-06
2011-10-19 00:00:00,2011-10-19 00:00:00,PRATE,surface,-104.063,36.3778,2e-06
2011-10-19 00:00:00,2011-10-19 00:00:00,PRATE,surface,-103.125,36.3778,1.6e-06
2011-10-19 00:00:00,2011-10-19 00:00:00,PRATE,surface,-102.188,36.3778,1.2e-06
2011-10-19 00:00:00,2011-10-19 00:00:00,PRATE,surface,-101.25,36.3778,1.1e-06
2011-10-19 00:00:00,2011-10-19 00:00:00,PRATE,surface,-100.313,36.3778,1.5e-06
2011-10-19 00:00:00,2011-10-19 00:00:00,PRATE,surface,-99.3754,36.3778,2e-06
2011-10-19 00:00:00,2011-10-19 00:00:00,PRATE,surface,-98.4379,36.3778,2.8e-06
2011-10-19 00:00:00,2011-10-19 00:00:00,PRATE,surface,-97.5004,36.3778,4.3e-06
2011-10-19 00:00:00,2011-10-19 00:00:00,PRATE,surface,-96.5629,36.3778,5.9e-06
2011-10-19 00:00:00,2011-10-19 00:00:00,PRATE,surface,-95.6254,36.3778,8.2e-06
2011-10-19 00:00:00,2011-10-19 00:00:00,PRATE,surface,-94.6879,36.3778,1.35e-05
2011-10-19 00:00:00,2011-10-19 00:00:00,PRATE,surface,-93.7504,36.3778,2.32e-05
2011-10-19 00:00:00,2011-10-19 00:00:00,PRATE,surface,-92.8129,36.3778,3.51e-05
