2015-01-20 00:00:00,2015-01-20 00:00:00,TMP,surface,-107.813,25.0393,296.433
2015-01-20 00:00:00,2015-01-20 00:00:00,TMP,surface,-106.875,25.0393,291.441
2015-01-20 00:00:00,2015-01-20 00:00:00,TMP,surface,-105.938,25.0393,286.977
2015-01-20 00:00:00,2015-01-20 00:00:00,TMP,surface,-105,25.0393,286.562
2015-01-20 00:00:00,2015-01-20 00:00:00,TMP,surface,-104.063,25.0393,291.221
2015-01-20 00:00:00,2015-01-20 00:00:00,TMP,surface,-103.125,25.0393,293.682
2015-01-20 00:00:00,2015-01-20 00:00:00,TMP,surface,-102.188,25.0393,292.671
2015-01-20 00:00:00,2015-01-20 00:00:00,TMP,surface,-101.25,25.0393,290.09
2015-01-20 00:00:00,2015-01-20 00:00:00,TMP,surface,-100.313,25.0393,290.628
2015-01-20 00:00:00,2015-01-20 00:00:00,TMP,surface,-99.3754,25.0393,293.277
2015-01-20 00:00:00,2015-01-20 00:00:00,TMP,surface,-98.4379,25.0393,295.778
2015-01-20 00:00:00,2015-01-20 00:00:00,TMP,surface,-97.5004,25.0393,295.065
2015-01-20 00:00:00,2015-01-20 00:00:00,TMP,surface,-96.5629,25.0393,295.021
2015-01-20 00:00:00,2015-01-20 00:00:00,TMP,surface,-95.6254,25.0393,295.932
2015-01-20 00:00:00,2015-01-20 00:00:00,TMP,surface,-94.6879,25.0393,296.157
2015-01-20 00:00:00,2015-01-20 00:00:00,TMP,surface,-93.7504,25.0393,296.026
2015-01-20 00:00:00,2015-01-20 00:00:00,TMP,surface,-92.8129,25.0393,296.122
2015-01-20 00:00:00,2015-01-20 00:00:00,TMP,surface,-107.813,25.9842,293.01
2015-01-20 00:00:00,2015-01-20 00:00:00,TMP,surface,-106.875,25.9842,287.313
2015-01-20 00:00:00,2015-01-20 00:00:00,TMP,surface,-105.938,25.9842,286.079
2015-01-20 00:00:00,2015-01-20 00:00:00,TMP,surface,-105,25.9842,288.898
2015-01-20 00:00:00,2015-01-20 00:00:00,TMP,surface,-104.063,25.9842,293.721
2015-01-20 00:00:00,2015-01-20 00:00:00,TMP,surface,-103.125,25.9842,295.693
2015-01-20 00:00:00,2015-01-20 00:00:00,TMP,surface,-102.188,25.9842,294.442
2015-01-20 00:00:00,2015-01-20 00:00:00,TMP,surface,-101.25,25.9842,292.909
2015-01-20 00:00:00,2015-01-20 00:00:00,TMP,surface,-100.313,25.9842,293.018
2015-01-20 00:00:00,2015-01-20 00:00:00,TMP,surface,-99.3754,25.9842,295.476
2015-01-20 00:00:00,2015-01-20 00:00:00,TMP,surface,-98.4379,25.9842,296.108
2015-01-20 00:00:00,2015-01-20 00:00:00,TMP,surface,-97.5004,25.9842,295.458
2015-01-20 00:00:00,2015-01-20 00:00:00,TMP,surface,-96.5629,25.9842,292.98
2015-01-20 00:00:00,2015-01-20 00:00:00,TMP,surface,-95.6254,25.9842,294.735
2015-01-20 00:00:00,2015-01-20 00:00:00,TMP,surface,-94.6879,25.9842,295.397
2015-01-20 00:00:00,2015-01-20 00:00:00,TMP,surface,-93.7504,25.9842,295.565
2015-01-20 00:00:00,2015-01-20 00:00:00,TMP,surface,-92.8129,25.9842,295.929
2015-01-20 00:00:00,2015-01-20 00:00:00,TMP,surface,-107.813,26.929,288.079
2015-01-20 00:00:00,2015-01-20 00:00:00,TMP,surface,-106.875,26.929,285.249
2015-01-20 00:00:00,2015-01-20 00:00:00,TMP,surface,-105.938,26.929,287.943
2015-01-20 00:00:00,2015-01-20 00:00:00,TMP,surface,-105,26.929,291.482
2015-01-20 00:00:00,2015-01-20 00:00:00,TMP,surface,-104.063,26.929,294.026
2015-01-20 00:00:00,2015-01-20 00:00:00,TMP,surface,-103.125,26.929,294.012
2015-01-20 00:00:00,2015-01-20 00:00:00,TMP,surface,-102.188,26.929,293.508
2015-01-20 00:00:00,2015-01-20 00:00:00,TMP,surface,-101.25,26.929,293.879
2015-01-20 00:00:00,2015-01-20 00:00:00,TMP,surface,-100.313,26.929,294.829
2015-01-20 00:00:00,2015-01-20 00:00:00,TMP,surface,-99.3754,26.929,295.873
2015-01-20 00:00:00,2015-01-20 00:00:00,TMP,surface,-98.4379,26.929,294.953
2015-01-20 00:00:00,2015-01-20 00:00:00,TMP,surface,-97.5004,26.929,292.705
2015-01-20 00:00:00,2015-01-20 00:00:00,TMP,surface,-96.5629,26.929,292.61
2015-01-20 00:00:00,2015-01-20 00:00:00,TMP,surface,-95.6254,26.929,294.234
2015-01-20 00:00:00,2015-01-20 00:00:00,TMP,surface,-94.6879,26.929,295.02
2015-01-20 00:00:00,2015-01-20 00:00:00,TMP,surface,-93.7504,26.929,295.324
2015-01-20 00:00:00,2015-01-20 00:00:00,TMP,surface,-92.8129,26.929,295.682
2015-01-20 00:00:00,2015-01-20 00:00:00,TMP,surface,-107.813,27.8739,285.65
2015-01-20 00:00:00,2015-01-20 00:00:00,TMP,surface,-106.875,27.8739,285.473
2015-01-20 00:00:00,2015-01-20 00:00:00,TMP,surface,-105.938,27.8739,289.559
2015-01-20 00:00:00,2015-01-20 00:00:00,TMP,surface,-105,27.8739,292.93
2015-01-20 00:00:00,2015-01-20 00:00:00,TMP,surface,-104.063,27.8739,293.477
2015-01-20 00:00:00,2015-01-20 00:00:00,TMP,surface,-103.125,27.8739,292.332
2015-01-20 00:00:00,2015-01-20 00:00:00,TMP,surface,-102.188,27.8739,292.245
2015-01-20 00:00:00,2015-01-20 00:00:00,TMP,surface,-101.25,27.8739,293.525
2015-01-20 00:00:00,2015-01-20 00:00:00,TMP,surface,-100.313,27.8739,294.775
2015-01-20 00:00:00,2015-01-20 00:00:00,TMP,surface,-99.3754,27.8739,294.653
2015-01-20 00:00:00,2015-01-20 00:00:00,TMP,surface,-98.4379,27.8739,293.658
2015-01-20 00:00:00,2015-01-20 00:00:00,TMP,surface,-97.5004,27.8739,292.869
2015-01-20 00:00:00,2015-01-20 00:00:00,TMP,surface,-96.5629,27.8739,292.895
2015-01-20 00:00:00,2015-01-20 00:00:00,TMP,surface,-95.6254,27.8739,293.636
2015-01-20 00:00:00,2015-01-20 00:00:00,TMP,surface,-94.6879,27.8739,294.425
2015-01-20 00:00:00,2015-01-20 00:00:00,TMP,surface,-93.7504,27.8739,294.759
2015-01-20 00:00:00,2015-01-20 00:00:00,TMP,surface,-92.8129,27.8739,294.871
2015-01-20 00:00:00,2015-01-20 00:00:00,TMP,surface,-107.813,28.8188,285.201
2015-01-20 00:00:00,2015-01-20 00:00:00,TMP,surface,-106.875,28.8188,286.794
2015-01-20 00:00:00,2015-01-20 00:00:00,TMP,surface,-105.938,28.8188,290.666
2015-01-20 00:00:00,2015-01-20 00:00:00,TMP,surface,-105,28.8188,293.177
2015-01-20 00:00:00,2015-01-20 00:00:00,TMP,surface,-104.063,28.8188,292.298
2015-01-20 00:00:00,2015-01-20 00:00:00,TMP,surface,-103.125,28.8188,291.436
2015-01-20 00:00:00,2015-01-20 00:00:00,TMP,surface,-102.188,28.8188,291.575
2015-01-20 00:00:00,2015-01-20 00:00:00,TMP,surface,-101.25,28.8188,292.932
2015-01-20 00:00:00,2015-01-20 00:00:00,TMP,surface,-100.313,28.8188,293.185
2015-01-20 00:00:00,2015-01-20 00:00:00,TMP,surface,-99.3754,28.8188,292.572
2015-01-20 00:00:00,2015-01-20 00:00:00,TMP,surface,-98.4379,28.8188,292.191
2015-01-20 00:00:00,2015-01-20 00:00:00,TMP,surface,-97.5004,28.8188,292.289
2015-01-20 00:00:00,2015-01-20 00:00:00,TMP,surface,-96.5629,28.8188,292.581
2015-01-20 00:00:00,2015-01-20 00:00:00,TMP,surface,-95.6254,28.8188,292.578
2015-01-20 00:00:00,2015-01-20 00:00:00,TMP,surface,-94.6879,28.8188,292.485
2015-01-20 00:00:00,2015-01-20 00:00:00,TMP,surface,-93.7504,28.8188,293.053
2015-01-20 00:00:00,2015-01-20 00:00:00,TMP,surface,-92.8129,28.8188,293.247
2015-01-20 00:00:00,2015-01-20 00:00:00,TMP,surface,-107.813,29.7637,287.332
2015-01-20 00:00:00,2015-01-20 00:00:00,TMP,surface,-106.875,29.7637,289.031
2015-01-20 00:00:00,2015-01-20 00:00:00,TMP,surface,-105.938,29.7637,291.837
2015-01-20 00:00:00,2015-01-20 00:00:00,TMP,surface,-105,29.7637,292.005
2015-01-20 00:00:00,2015-01-20 00:00:00,TMP,surface,-104.063,29.7637,291.805
2015-01-20 00:00:00,2015-01-20 00:00:00,TMP,surface,-103.125,29.7637,292.116
2015-01-20 00:00:00,2015-01-20 00:00:00,TMP,surface,-102.188,29.7637,292.908
2015-01-20 00:00:00,2015-01-20 00:00:00,TMP,surface,-101.25,29.7637,292.906
2015-01-20 00:00:00,2015-01-20 00:00:00,TMP,surface,-100.313,29.7637,291.703
2015-01-20 00:00:00,2015-01-20 00:00:00,TMP,surface,-99.3754,29.7637,290.841
2015-01-20 00:00:00,2015-01-20 00:00:00,TMP,surface,-98.4379,29.7637,290.841
2015-01-20 00:00:00,2015-01-20 00:00:00,TMP,surface,-97.5004,29.7637,291.257
2015-01-20 00:00:00,2015-01-20 00:00:00,TMP,surface,-96.5629,29.7637,291.714
2015-01-20 00:00:00,2015-01-20 00:00:00,TMP,surface,-95.6254,29.7637,292.164
2015-01-20 00:00:00,2015-01-20 00:00:00,TMP,surface,-94.6879,29.7637,292.239
2015-01-20 00:00:00,2015-01-20 00:00:00,TMP,surface,-93.7504,29.7637,292.153
2015-01-20 00:00:00,2015-01-20 00:00:00,TMP,surface,-92.8129,29.7637,293.445
2015-01-20 00:00:00,2015-01-20 00:00:00,TMP,surface,-107.813,30.7085,290.844
2015-01-20 00:00:00,2015-01-20 00:00:00,TMP,surface,-106.875,30.7085,292.004
2015-01-20 00:00:00,2015-01-20 00:00:00,TMP,surface,-105.938,30.7085,292.239
2015-01-20 00:00:00,2015-01-20 00:00:00,TMP,surface,-105,30.7085,291.881
2015-01-20 00:00:00,2015-01-20 00:00:00,TMP,surface,-104.063,30.7085,291.668
2015-01-20 00:00:00,2015-01-20 00:00:00,TMP,surface,-103.125,30.7085,292.764
2015-01-20 00:00:00,2015-01-20 00:00:00,TMP,surface,-102.188,30.7085,293.372
2015-01-20 00:00:00,2015-01-20 00:00:00,TMP,surface,-101.25,30.7085,292.655
2015-01-20 00:00:00,2015-01-20 00:00:00,TMP,surface,-100.313,30.7085,291.345
2015-01-20 00:00:00,2015-01-20 00:00:00,TMP,surface,-99.3754,30.7085,290.396
2015-01-20 00:00:00,2015-01-20 00:00:00,TMP,surface,-98.4379,30.7085,290.385
2015-01-20 00:00:00,2015-01-20 00:00:00,TMP,surface,-97.5004,30.7085,290.815
2015-01-20 00:00:00,2015-01-20 00:00:00,TMP,surface,-96.5629,30.7085,291.655
2015-01-20 00:00:00,2015-01-20 00:00:00,TMP,surface,-95.6254,30.7085,292.557
2015-01-20 00:00:00,2015-01-20 00:00:00,TMP,surface,-94.6879,30.7085,292.765
2015-01-20 00:00:00,2015-01-20 00:00:00,TMP,surface,-93.7504,30.7085,292.879
2015-01-20 00:00:00,2015-01-20 00:00:00,TMP,surface,-92.8129,30.7085,292.738
2015-01-20 00:00:00,2015-01-20 00:00:00,TMP,surface,-107.813,31.6534,291.769
2015-01-20 00:00:00,2015-01-20 00:00:00,TMP,surface,-106.875,31.6534,292.372
2015-01-20 00:00:00,2015-01-20 00:00:00,TMP,surface,-105.938,31.6534,292.141
2015-01-20 00:00:00,2015-01-20 00:00:00,TMP,surface,-105,31.6534,291.751
2015-01-20 00:00:00,2015-01-20 00:00:00,TMP,surface,-104.063,31.6534,292.255
2015-01-20 00:00:00,2015-01-20 00:00:00,TMP,surface,-103.125,31.6534,293.09
2015-01-20 00:00:00,2015-01-20 00:00:00,TMP,surface,-102.188,31.6534,293.429
2015-01-20 00:00:00,2015-01-20 00:00:00,TMP,surface,-101.25,31.6534,292.852
2015-01-20 00:00:00,2015-01-20 00:00:00,TMP,surface,-100.313,31.6534,292.023
2015-01-20 00:00:00,2015-01-20 00:00:00,TMP,surface,-99.3754,31.6534,291.13
2015-01-20 00:00:00,2015-01-20 00:00:00,TMP,surface,-98.4379,31.6534,290.727
2015-01-20 00:00:00,2015-01-20 00:00:00,TMP,surface,-97.5004,31.6534,290.778
2015-01-20 00:00:00,2015-01-20 00:00:00,TMP,surface,-96.5629,31.6534,291.429
2015-01-20 00:00:00,2015-01-20 00:00:00,TMP,surface,-95.6254,31.6534,292.29
2015-01-20 00:00:00,2015-01-20 00:00:00,TMP,surface,-94.6879,31.6534,292.49
2015-01-20 00:00:00,2015-01-20 00:00:00,TMP,surface,-93.7504,31.6534,292.45
2015-01-20 00:00:00,2015-01-20 00:00:00,TMP,surface,-92.8129,31.6534,292.437
2015-01-20 00:00:00,2015-01-20 00:00:00,TMP,surface,-107.813,32.5983,288.961
2015-01-20 00:00:00,2015-01-20 00:00:00,TMP,surface,-106.875,32.5983,289.743
2015-01-20 00:00:00,2015-01-20 00:00:00,TMP,surface,-105.938,32.5983,290.279
2015-01-20 00:00:00,2015-01-20 00:00:00,TMP,surface,-105,32.5983,290.829
2015-01-20 00:00:00,2015-01-20 00:00:00,TMP,surface,-104.063,32.5983,291.663
2015-01-20 00:00:00,2015-01-20 00:00:00,TMP,surface,-103.125,32.5983,292.559
2015-01-20 00:00:00,2015-01-20 00:00:00,TMP,surface,-102.188,32.5983,292.949
2015-01-20 00:00:00,2015-01-20 00:00:00,TMP,surface,-101.25,32.5983,292.85
2015-01-20 00:00:00,2015-01-20 00:00:00,TMP,surface,-100.313,32.5983,292.549
2015-01-20 00:00:00,2015-01-20 00:00:00,TMP,surface,-99.3754,32.5983,291.788
2015-01-20 00:00:00,2015-01-20 00:00:00,TMP,surface,-98.4379,32.5983,291.122
2015-01-20 00:00:00,2015-01-20 00:00:00,TMP,surface,-97.5004,32.5983,290.805
2015-01-20 00:00:00,2015-01-20 00:00:00,TMP,surface,-96.5629,32.5983,291.066
2015-01-20 00:00:00,2015-01-20 00:00:00,TMP,surface,-95.6254,32.5983,291.698
2015-01-20 00:00:00,2015-01-20 00:00:00,TMP,surface,-94.6879,32.5983,291.957
2015-01-20 00:00:00,2015-01-20 00:00:00,TMP,surface,-93.7504,32.5983,291.993
2015-01-20 00:00:00,2015-01-20 00:00:00,TMP,surface,-92.8129,32.5983,292.18
2015-01-20 00:00:00,2015-01-20 00:00:00,TMP,surface,-107.813,33.5432,284.869
2015-01-20 00:00:00,2015-01-20 00:00:00,TMP,surface,-106.875,33.5432,286.5
2015-01-20 00:00:00,2015-01-20 00:00:00,TMP,surface,-105.938,33.5432,287.93
2015-01-20 00:00:00,2015-01-20 00:00:00,TMP,surface,-105,33.5432,289.556
2015-01-20 00:00:00,2015-01-20 00:00:00,TMP,surface,-104.063,33.5432,291.074
2015-01-20 00:00:00,2015-01-20 00:00:00,TMP,surface,-103.125,33.5432,291.514
2015-01-20 00:00:00,2015-01-20 00:00:00,TMP,surface,-102.188,33.5432,291.525
2015-01-20 00:00:00,2015-01-20 00:00:00,TMP,surface,-101.25,33.5432,291.545
2015-01-20 00:00:00,2015-01-20 00:00:00,TMP,surface,-100.313,33.5432,291.839
2015-01-20 00:00:00,2015-01-20 00:00:00,TMP,surface,-99.3754,33.5432,291.431
2015-01-20 00:00:00,2015-01-20 00:00:00,TMP,surface,-98.4379,33.5432,290.69
2015-01-20 00:00:00,2015-01-20 00:00:00,TMP,surface,-97.5004,33.5432,290.105
2015-01-20 00:00:00,2015-01-20 00:00:00,TMP,surface,-96.5629,33.5432,289.933
2015-01-20 00:00:00,2015-01-20 00:00:00,TMP,surface,-95.6254,33.5432,290.404
2015-01-20 00:00:00,2015-01-20 00:00:00,TMP,surface,-94.6879,33.5432,291.004
2015-01-20 00:00:00,2015-01-20 00:00:00,TMP,surface,-93.7504,33.5432,291.068
2015-01-20 00:00:00,2015-01-20 00:00:00,TMP,surface,-92.8129,33.5432,291.229
2015-01-20 00:00:00,2015-01-20 00:00:00,TMP,surface,-107.813,34.4881,283.301
2015-01-20 00:00:00,2015-01-20 00:00:00,TMP,surface,-106.875,34.4881,285.175
2015-01-20 00:00:00,2015-01-20 00:00:00,TMP,surface,-105.938,34.4881,286.709
2015-01-20 00:00:00,2015-01-20 00:00:00,TMP,surface,-105,34.4881,288.86
2015-01-20 00:00:00,2015-01-20 00:00:00,TMP,surface,-104.063,34.4881,290.079
2015-01-20 00:00:00,2015-01-20 00:00:00,TMP,surface,-103.125,34.4881,290.373
2015-01-20 00:00:00,2015-01-20 00:00:00,TMP,surface,-102.188,34.4881,290.311
2015-01-20 00:00:00,2015-01-20 00:00:00,TMP,surface,-101.25,34.4881,290.34
2015-01-20 00:00:00,2015-01-20 00:00:00,TMP,surface,-100.313,34.4881,290.341
2015-01-20 00:00:00,2015-01-20 00:00:00,TMP,surface,-99.3754,34.4881,290.127
2015-01-20 00:00:00,2015-01-20 00:00:00,TMP,surface,-98.4379,34.4881,289.65
2015-01-20 00:00:00,2015-01-20 00:00:00,TMP,surface,-97.5004,34.4881,289.255
2015-01-20 00:00:00,2015-01-20 00:00:00,TMP,surface,-96.5629,34.4881,289.493
2015-01-20 00:00:00,2015-01-20 00:00:00,TMP,surface,-95.6254,34.4881,290.055
2015-01-20 00:00:00,2015-01-20 00:00:00,TMP,surface,-94.6879,34.4881,290.106
2015-01-20 00:00:00,2015-01-20 00:00:00,TMP,surface,-93.7504,34.4881,289.882
2015-01-20 00:00:00,2015-01-20 00:00:00,TMP,surface,-92.8129,34.4881,290.084
2015-01-20 00:00:00,2015-01-20 00:00:00,TMP,surface,-107.813,35.4329,283.421
2015-01-20 00:00:00,2015-01-20 00:00:00,TMP,surface,-106.875,35.4329,283.965
2015-01-20 00:00:00,2015-01-20 00:00:00,TMP,surface,-105.938,35.4329,284.794
2015-01-20 00:00:00,2015-01-20 00:00:00,TMP,surface,-105,35.4329,286.492
2015-01-20 00:00:00,2015-01-20 00:00:00,TMP,surface,-104.063,35.4329,288.605
2015-01-20 00:00:00,2015-01-20 00:00:00,TMP,surface,-103.125,35.4329,289.716
2015-01-20 00:00:00,2015-01-20 00:00:00,TMP,surface,-102.188,35.4329,289.938
2015-01-20 00:00:00,2015-01-20 00:00:00,TMP,surface,-101.25,35.4329,289.738
2015-01-20 00:00:00,2015-01-20 00:00:00,TMP,surface,-100.313,35.4329,289.476
2015-01-20 00:00:00,2015-01-20 00:00:00,TMP,surface,-99.3754,35.4329,288.981
2015-01-20 00:00:00,2015-01-20 00:00:00,TMP,surface,-98.4379,35.4329,288.588
2015-01-20 00:00:00,2015-01-20 00:00:00,TMP,surface,-97.5004,35.4329,288.618
2015-01-20 00:00:00,2015-01-20 00:00:00,TMP,surface,-96.5629,35.4329,288.844
2015-01-20 00:00:00,2015-01-20 00:00:00,TMP,surface,-95.6254,35.4329,289.154
2015-01-20 00:00:00,2015-01-20 00:00:00,TMP,surface,-94.6879,35.4329,289.359
2015-01-20 00:00:00,2015-01-20 00:00:00,TMP,surface,-93.7504,35.4329,288.977
2015-01-20 00:00:00,2015-01-20 00:00:00,TMP,surface,-92.8129,35.4329,288.898
2015-01-20 00:00:00,2015-01-20 00:00:00,TMP,surface,-107.813,36.3778,282.327
2015-01-20 00:00:00,2015-01-20 00:00:00,TMP,surface,-106.875,36.3778,280.668
2015-01-20 00:00:00,2015-01-20 00:00:00,TMP,surface,-105.938,36.3778,281.724
2015-01-20 00:00:00,2015-01-20 00:00:00,TMP,surface,-105,36.3778,283.753
2015-01-20 00:00:00,2015-01-20 00:00:00,TMP,surface,-104.063,36.3778,286.717
2015-01-20 00:00:00,2015-01-20 00:00:00,TMP,surface,-103.125,36.3778,288.029
2015-01-20 00:00:00,2015-01-20 00:00:00,TMP,surface,-102.188,36.3778,288.719
2015-01-20 00:00:00,2015-01-20 00:00:00,TMP,surface,-101.25,36.3778,288.935
2015-01-20 00:00:00,2015-01-20 00:00:00,TMP,surface,-100.313,36.3778,288.991
2015-01-20 00:00:00,2015-01-20 00:00:00,TMP,surface,-99.3754,36.3778,288.698
2015-01-20 00:00:00,2015-01-20 00:00:00,TMP,surface,-98.4379,36.3778,288.137
2015-01-20 00:00:00,2015-01-20 00:00:00,TMP,surface,-97.5004,36.3778,288.041
2015-01-20 00:00:00,2015-01-20 00:00:00,TMP,surface,-96.5629,36.3778,288.394
2015-01-20 00:00:00,2015-01-20 00:00:00,TMP,surface,-95.6254,36.3778,288.668
2015-01-20 00:00:00,2015-01-20 00:00:00,TMP,surface,-94.6879,36.3778,288.618
2015-01-20 00:00:00,2015-01-20 00:00:00,TMP,surface,-93.7504,36.3778,288.157
2015-01-20 00:00:00,2015-01-20 00:00:00,TMP,surface,-92.8129,36.3778,287.986
2015-01-20 00:00:00,2015-01-20 00:00:00,PRATE,surface,-107.813,25.0393,3.63e-05
2015-01-20 00:00:00,2015-01-20 00:00:00,PRATE,surface,-106.875,25.0393,3.5e-05
2015-01-20 00:00:00,2015-01-20 00:00:00,PRATE,surface,-105.938,25.0393,3.53e-05
2015-01-20 00:00:00,2015-01-20 00:00:00,PRATE,surface,-105,25.0393,3.21e-05
2015-01-20 00:00:00,2015-01-20 00:00:00,PRATE,surface,-104.063,25.0393,1.63e-05
2015-01-20 00:00:00,2015-01-20 00:00:00,PRATE,surface,-103.125,25.0393,3e-06
2015-01-20 00:00:00,2015-01-20 00:00:00,PRATE,surface,-102.188,25.0393,6.2e-06
2015-01-20 00:00:00,2015-01-20 00:00:00,PRATE,surface,-101.25,25.0393,2.97e-05
2015-01-20 00:00:00,2015-01-20 00:00:00,PRATE,surface,-100.313,25.0393,7.32e-05
2015-01-20 00:00:00,2015-01-20 00:00:00,PRATE,surface,-99.3754,25.0393,3.75e-05
2015-01-20 00:00:00,2015-01-20 00:00:00,PRATE,surface,-98.4379,25.0393,2.68e-05
2015-01-20 00:00:00,2015-01-20 00:00:00,PRATE,surface,-97.5004,25.0393,2.11e-05
2015-01-20 00:00:00,2015-01-20 00:00:00,PRATE,surface,-96.5629,25.0393,3.64e-05
2015-01-20 00:00:00,2015-01-20 00:00:00,PRATE,surface,-95.6254,25.0393,5.12e-05
2015-01-20 00:00:00,2015-01-20 00:00:00,PRATE,surface,-94.6879,25.0393,6.45e-05
2015-01-20 00:00:00,2015-01-20 00:00:00,PRATE,surface,-93.7504,25.0393,7.54e-05
2015-01-20 00:00:00,2015-01-20 00:00:00,PRATE,surface,-92.8129,25.0393,7.77e-05
2015-01-20 00:00:00,2015-01-20 00:00:00,PRATE,surface,-107.813,25.9842,3.48e-05
2015-01-20 00:00:00,2015-01-20 00:00:00,PRATE,surface,-106.875,25.9842,4.39e-05
2015-01-20 00:00:00,2015-01-20 00:00:00,PRATE,surface,-105.938,25.9842,3.89e-05
2015-01-20 00:00:00,2015-01-20 00:00:00,PRATE,surface,-105,25.9842,3.13e-05
2015-01-20 00:00:00,2015-01-20 00:00:00,PRATE,surface,-104.063,25.9842,8.4e-06
2015-01-20 00:00:00,2015-01-20 00:00:00,PRATE,surface,-103.125,25.9842,1.6e-06
2015-01-20 00:00:00,2015-01-20 00:00:00,PRATE,surface,-102.188,25.9842,2.8e-06
2015-01-20 00:00:00,2015-01-20 00:00:00,PRATE,surface,-101.25,25.9842,1.18e-05
2015-01-20 00:00:00,2015-01-20 00:00:00,PRATE,surface,-100.313,25.9842,2.81e-05
2015-01-20 00:00:00,2015-01-20 00:00:00,PRATE,surface,-99.3754,25.9842,1.6e-05
2015-01-20 00:00:00,2015-01-20 00:00:00,PRATE,surface,-98.4379,25.9842,1.03e-05
2015-01-20 00:00:00,2015-01-20 00:00:00,PRATE,surface,-97.5004,25.9842,9.1e-06
2015-01-20 00:00:00,2015-01-20 00:00:00,PRATE,surface,-96.5629,25.9842,5.5e-06
2015-01-20 00:00:00,2015-01-20 00:00:00,PRATE,surface,-95.6254,25.9842,1.4e-05
2015-01-20 00:00:00,2015-01-20 00:00:00,PRATE,surface,-94.6879,25.9842,2.73e-05
2015-01-20 00:00:00,2015-01-20 00:00:00,PRATE,surface,-93.7504,25.9842,5.62e-05
2015-01-20 00:00:00,2015-01-20 00:00:00,PRATE,surface,-92.8129,25.9842,6.45e-05
2015-01-20 00:00:00,2015-01-20 00:00:00,PRATE,surface,-107.813,26.929,4.03e-05
2015-01-20 00:00:00,2015-01-20 00:00:00,PRATE,surface,-106.875,26.929,4.54e-05
2015-01-20 00:00:00,2015-01-20 00:00:00,PRATE,surface,-105.938,26.929,3.58e-05
2015-01-20 00:00:00,2015-01-20 00:00:00,PRATE,surface,-105,26.929,2.34e-05
2015-01-20 00:00:00,2015-01-20 00:00:00,PRATE,surface,-104.063,26.929,1.03e-05
2015-01-20 00:00:00,2015-01-20 00:00:00,PRATE,surface,-103.125,26.929,4.4e-06
2015-01-20 00:00:00,2015-01-20 00:00:00,PRATE,surface,-102.188,26.929,6.5e-06
2015-01-20 00:00:00,2015-01-20 00:00:00,PRATE,surface,-101.25,26.929,2.06e-05
2015-01-20 00:00:00,2015-01-20 00:00:00,PRATE,surface,-100.313,26.929,1.49e-05
2015-01-20 00:00:00,2015-01-20 00:00:00,PRATE,surface,-99.3754,26.929,1.66e-05
2015-01-20 00:00:00,2015-01-20 00:00:00,PRATE,surface,-98.4379,26.929,2.42e-05
2015-01-20 00:00:00,2015-01-20 00:00:00,PRATE,surface,-97.5004,26.929,1.9e-05
2015-01-20 00:00:00,2015-01-20 00:00:00,PRATE,surface,-96.5629,26.929,1.05e-05
2015-01-20 00:00:00,2015-01-20 00:00:00,PRATE,surface,-95.6254,26.929,7.7e-06
2015-01-20 00:00:00,2015-01-20 00:00:00,PRATE,surface,-94.6879,26.929,6.1e-06
2015-01-20 00:00:00,2015-01-20 00:00:00,PRATE,surface,-93.7504,26.929,1.76e-05
2015-01-20 00:00:00,2015-01-20 00:00:00,PRATE,surface,-92.8129,26.929,2.55e-05
2015-01-20 00:00:00,2015-01-20 00:00:00,PRATE,surface,-107.813,27.8739,3.98e-05
2015-01-20 00:00:00,2015-01-20 00:00:00,PRATE,surface,-106.875,27.8739,3.6e-05
2015-01-20 00:00:00,2015-01-20 00:00:00,PRATE,surface,-105.938,27.8739,1.78e-05
2015-01-20 00:00:00,2015-01-20 00:00:00,PRATE,surface,-105,27.8739,8.1e-06
2015-01-20 00:00:00,2015-01-20 00:00:00,PRATE,surface,-104.063,27.8739,1.04e-05
2015-01-20 00:00:00,2015-01-20 00:00:00,PRATE,surface,-103.125,27.8739,1.7e-05
2015-01-20 00:00:00,2015-01-20 00:00:00,PRATE,surface,-102.188,27.8739,1.37e-05
2015-01-20 00:00:00,2015-01-20 00:00:00,PRATE,surface,-101.25,27.8739,1.35e-05
2015-01-20 00:00:00,2015-01-20 00:00:00,PRATE,surface,-100.313,27.8739,9.7e-06
2015-01-20 00:00:00,2015-01-20 00:00:00,PRATE,surface,-99.3754,27.8739,1.26e-05
2015-01-20 00:00:00,2015-01-20 00:00:00,PRATE,surface,-98.4379,27.8739,1.98e-05
2015-01-20 00:00:00,2015-01-20 00:00:00,PRATE,surface,-97.5004,27.8739,2.31e-05
2015-01-20 00:00:00,2015-01-20 00:00:00,PRATE,surface,-96.5629,27.8739,2.29e-05
2015-01-20 00:00:00,2015-01-20 00:00:00,PRATE,surface,-95.6254,27.8739,2.67e-05
2015-01-20 00:00:00,2015-01-20 00:00:00,PRATE,surface,-94.6879,27.8739,3.19e-05
2015-01-20 00:00:00,2015-01-20 00:00:00,PRATE,surface,-93.7504,27.8739,2.51e-05
2015-01-20 00:00:00,2015-01-20 00:00:00,PRATE,surface,-92.8129,27.8739,1.32e-05
2015-01-20 00:00:00,2015-01-20 00:00:00,PRATE,surface,-107.813,28.8188,3.48e-05
2015-01-20 00:00:00,2015-01-20 00:00:00,PRATE,surface,-106.875,28.8188,2.84e-05
2015-01-20 00:00:00,2015-01-20 00:00:00,PRATE,surface,-105.938,28.8188,1.35e-05
2015-01-20 00:00:00,2015-01-20 00:00:00,PRATE,surface,-105,28.8188,5.6e-06
2015-01-20 00:00:00,2015-01-20 00:00:00,PRATE,surface,-104.063,28.8188,8.7e-06
2015-01-20 00:00:00,2015-01-20 00:00:00,PRATE,surface,-103.125,28.8188,1.28e-05
2015-01-20 00:00:00,2015-01-20 00:00:00,PRATE,surface,-102.188,28.8188,8.1e-06
2015-01-20 00:00:00,2015-01-20 00:00:00,PRATE,surface,-101.25,28.8188,8.8e-06
2015-01-20 00:00:00,2015-01-20 00:00:00,PRATE,surface,-100.313,28.8188,7.7e-06
2015-01-20 00:00:00,2015-01-20 00:00:00,PRATE,surface,-99.3754,28.8188,1.25e-05
2015-01-20 00:00:00,2015-01-20 00:00:00,PRATE,surface,-98.4379,28.8188,1.49e-05
2015-01-20 00:00:00,2015-01-20 00:00:00,PRATE,surface,-97.5004,28.8188,1.21e-05
2015-01-20 00:00:00,2015-01-20 00:00:00,PRATE,surface,-96.5629,28.8188,1.29e-05
2015-01-20 00:00:00,2015-01-20 00:00:00,PRATE,surface,-95.6254,28.8188,2.54e-05
2015-01-20 00:00:00,2015-01-20 00:00:00,PRATE,surface,-94.6879,28.8188,4.55e-05
2015-01-20 00:00:00,2015-01-20 00:00:00,PRATE,surface,-93.7504,28.8188,5.52e-05
2015-01-20 00:00:00,2015-01-20 00:00:00,PRATE,surface,-92.8129,28.8188,4.74e-05
2015-01-20 00:00:00,2015-01-20 00:00:00,PRATE,surface,-107.813,29.7637,2.41e-05
2015-01-20 00:00:00,2015-01-20 00:00:00,PRATE,surface,-106.875,29.7637,1.97e-05
2015-01-20 00:00:00,2015-01-20 00:00:00,PRATE,surface,-105.938,29.7637,9.4e-06
2015-01-20 00:00:00,2015-01-20 00:00:00,PRATE,surface,-105,29.7637,9.4e-06
2015-01-20 00:00:00,2015-01-20 00:00:00,PRATE,surface,-104.063,29.7637,1.08e-05
2015-01-20 00:00:00,2015-01-20 00:00:00,PRATE,surface,-103.125,29.7637,7.5e-06
2015-01-20 00:00:00,2015-01-20 00:00:00,PRATE,surface,-102.188,29.7637,4.4e-06
2015-01-20 00:00:00,2015-01-20 00:00:00,PRATE,surface,-101.25,29.7637,7e-06
2015-01-20 00:00:00,2015-01-20 00:00:00,PRATE,surface,-100.313,29.7637,1.41e-05
2015-01-20 00:00:00,2015-01-20 00:00:00,PRATE,surface,-99.3754,29.7637,1.66e-05
2015-01-20 00:00:00,2015-01-20 00:00:00,PRATE,surface,-98.4379,29.7637,1.68e-05
2015-01-20 00:00:00,2015-01-20 00:00:00,PRATE,surface,-97.5004,29.7637,1.48e-05
2015-01-20 00:00:00,2015-01-20 00:00:00,PRATE,surface,-96.5629,29.7637,1.23e-05
2015-01-20 00:00:00,2015-01-20 00:00:00,PRATE,surface,-95.6254,29.7637,1.49e-05
2015-01-20 00:00:00,2015-01-20 00:00:00,PRATE,surface,-94.6879,29.7637,2.47e-05
2015-01-20 00:00:00,2015-01-20 00:00:00,PRATE,surface,-93.7504,29.7637,3.89e-05
2015-01-20 00:00:00,2015-01-20 00:00:00,PRATE,surface,-92.8129,29.7637,4.76e-05
2015-01-20 00:00:00,2015-01-20 00:00:00,PRATE,surface,-107.813,30.7085,6.6e-06
2015-01-20 00:00:00,2015-01-20 00:00:00,PRATE,surface,-106.875,30.7085,5.2e-06
2015-01-20 00:00:00,2015-01-20 00:00:00,PRATE,surface,-105.938,30.7085,4e-06
2015-01-20 00:00:00,2015-01-20 00:00:00,PRATE,surface,-105,30.7085,6.2e-06
2015-01-20 00:00:00,2015-01-20 00:00:00,PRATE,surface,-104.063,30.7085,3.9e-06
2015-01-20 00:00:00,2015-01-20 00:00:00,PRATE,surface,-103.125,30.7085,2.1e-06
2015-01-20 00:00:00,2015-01-20 00:00:00,PRATE,surface,-102.188,30.7085,2.2e-06
2015-01-20 00:00:00,2015-01-20 00:00:00,PRATE,surface,-101.25,30.7085,5.1e-06
2015-01-20 00:00:00,2015-01-20 00:00:00,PRATE,surface,-100.313,30.7085,1.25e-05
2015-01-20 00:00:00,2015-01-20 00:00:00,PRATE,surface,-99.3754,30.7085,1.4e-05
2015-01-20 00:00:00,2015-01-20 00:00:00,PRATE,surface,-98.4379,30.7085,1.42e-05
2015-01-20 00:00:00,2015-01-20 00:00:00,PRATE,surface,-97.5004,30.7085,1.62e-05
2015-01-20 00:00:00,2015-01-20 00:00:00,PRATE,surface,-96.5629,30.7085,1.59e-05
2015-01-20 00:00:00,2015-01-20 00:00:00,PRATE,surface,-95.6254,30.7085,1.4e-05
2015-01-20 00:00:00,2015-01-20 00:00:00,PRATE,surface,-94.6879,30.7085,1.47e-05
2015-01-20 00:00:00,2015-01-20 00:00:00,PRATE,surface,-93.7504,30.7085,1.93e-05
2015-01-20 00:00:00,2015-01-20 00:00:00,PRATE,surface,-92.8129,30.7085,2.83e-05
2015-01-20 00:00:00,2015-01-20 00:00:00,PRATE,surface,-107.813,31.6534,2.5e-06
2015-01-20 00:00:00,2015-01-20 00:00:00,PRATE,surface,-106.875,31.6534,1.7e-06
2015-01-20 00:00:00,2015-01-20 00:00:00,PRATE,surface,-105.938,31.6534,1.3e-06
2015-01-20 00:00:00,2015-01-20 00:00:00,PRATE,surface,-105,31.6534,2.8e-06
2015-01-20 00:00:00,2015-01-20 00:00:00,PRATE,surface,-104.063,31.6534,5e-07
2015-01-20 00:00:00,2015-01-20 00:00:00,PRATE,surface,-103.125,31.6534,3e-07
2015-01-20 00:00:00,2015-01-20 00:00:00,PRATE,surface,-102.188,31.6534,6e-07
2015-01-20 00:00:00,2015-01-20 00:00:00,PRATE,surface,-101.25,31.6534,2.2e-06
2015-01-20 00:00:00,2015-01-20 00:00:00,PRATE,surface,-100.313,31.6534,5.8e-06
2015-01-20 00:00:00,2015-01-20 00:00:00,PRATE,surface,-99.3754,31.6534,7.1e-06
2015-01-20 00:00:00,2015-01-20 00:00:00,PRATE,surface,-98.4379,31.6534,7e-06
2015-01-20 00:00:00,2015-01-20 00:00:00,PRATE,surface,-97.5004,31.6534,1.23e-05
2015-01-20 00:00:00,2015-01-20 00:00:00,PRATE,surface,-96.5629,31.6534,1.9e-05
2015-01-20 00:00:00,2015-01-20 00:00:00,PRATE,surface,-95.6254,31.6534,2e-05
2015-01-20 00:00:00,2015-01-20 00:00:00,PRATE,surface,-94.6879,31.6534,2.08e-05
2015-01-20 00:00:00,2015-01-20 00:00:00,PRATE,surface,-93.7504,31.6534,2.4e-05
2015-01-20 00:00:00,2015-01-20 00:00:00,PRATE,surface,-92.8129,31.6534,1.9e-05
2015-01-20 00:00:00,2015-01-20 00:00:00,PRATE,surface,-107.813,32.5983,3.8e-06
2015-01-20 00:00:00,2015-01-20 00:00:00,PRATE,surface,-106.875,32.5983,1.9e-06
2015-01-20 00:00:00,2015-01-20 00:00:00,PRATE,surface,-105.938,32.5983,1.2e-06
2015-01-20 00:00:00,2015-01-20 00:00:00,PRATE,surface,-105,32.5983,1.3e-06
2015-01-20 00:00:00,2015-01-20 00:00:00,PRATE,surface,-104.063,32.5983,2e-06
2015-01-20 00:00:00,2015-01-20 00:00:00,PRATE,surface,-103.125,32.5983,1.7e-06
2015-01-20 00:00:00,2015-01-20 00:00:00,PRATE,surface,-102.188,32.5983,1e-06
2015-01-20 00:00:00,2015-01-20 00:00:00,PRATE,surface,-101.25,32.5983,1.7e-06
2015-01-20 00:00:00,2015-01-20 00:00:00,PRATE,surface,-100.313,32.5983,4.1e-06
2015-01-20 00:00:00,2015-01-20 00:00:00,PRATE,surface,-99.3754,32.5983,6.5e-06
2015-01-20 00:00:00,2015-01-20 00:00:00,PRATE,surface,-98.4379,32.5983,9.4e-06
2015-01-20 00:00:00,2015-01-20 00:00:00,PRATE,surface,-97.5004,32.5983,1.42e-05
2015-01-20 00:00:00,2015-01-20 00:00:00,PRATE,surface,-96.5629,32.5983,2.08e-05
2015-01-20 00:00:00,2015-01-20 00:00:00,PRATE,surface,-95.6254,32.5983,2.57e-05
2015-01-20 00:00:00,2015-01-20 00:00:00,PRATE,surface,-94.6879,32.5983,2.64e-05
2015-01-20 00:00:00,2015-01-20 00:00:00,PRATE,surface,-93.7504,32.5983,2.41e-05
2015-01-20 00:00:00,2015-01-20 00:00:00,PRATE,surface,-92.8129,32.5983,1.91e-05
2015-01-20 00:00:00,2015-01-20 00:00:00,PRATE,surface,-107.813,33.5432,1.28e-05
2015-01-20 00:00:00,2015-01-20 00:00:00,PRATE,surface,-106.875,33.5432,1.15e-05
2015-01-20 00:00:00,2015-01-20 00:00:00,PRATE,surface,-105.938,33.5432,6.7e-06
2015-01-20 00:00:00,2015-01-20 00:00:00,PRATE,surface,-105,33.5432,2.9e-06
2015-01-20 00:00:00,2015-01-20 00:00:00,PRATE,surface,-104.063,33.5432,3.3e-06
2015-01-20 00:00:00,2015-01-20 00:00:00,PRATE,surface,-103.125,33.5432,7e-06
2015-01-20 00:00:00,2015-01-20 00:00:00,PRATE,surface,-102.188,33.5432,7.7e-06
2015-01-20 00:00:00,2015-01-20 00:00:00,PRATE,surface,-101.25,33.5432,5.2e-06
2015-01-20 00:00:00,2015-01-20 00:00:00,PRATE,surface,-100.313,33.5432,6.4e-06
2015-01-20 00:00:00,2015-01-20 00:00:00,PRATE,surface,-99.3754,33.5432,8.2e-06
2015-01-20 00:00:00,2015-01-20 00:00:00,PRATE,surface,-98.4379,33.5432,1.16e-05
2015-01-20 00:00:00,2015-01-20 00:00:00,PRATE,surface,-97.5004,33.5432,1.67e-05
2015-01-20 00:00:00,2015-01-20 00:00:00,PRATE,surface,-96.5629,33.5432,1.98e-05
2015-01-20 00:00:00,2015-01-20 00:00:00,PRATE,surface,-95.6254,33.5432,2.26e-05
2015-01-20 00:00:00,2015-01-20 00:00:00,PRATE,surface,-94.6879,33.5432,2.77e-05
2015-01-20 00:00:00,2015-01-20 00:00:00,PRATE,surface,-93.7504,33.5432,2.69e-05
2015-01-20 00:00:00,2015-01-20 00:00:00,PRATE,surface,-92.8129,33.5432,1.89e-05
2015-01-20 00:00:00,2015-01-20 00:00:00,PRATE,surface,-107.813,34.4881,1.27e-05
2015-01-20 00:00:00,2015-01-20 00:00:00,PRATE,surface,-106.875,34.4881,9.4e-06
2015-01-20 00:00:00,2015-01-20 00:00:00,PRATE,surface,-105.938,34.4881,5.2e-06
2015-01-20 00:00:00,2015-01-20 00:00:00,PRATE,surface,-105,34.4881,2.1e-06
2015-01-20 00:00:00,2015-01-20 00:00:00,PRATE,surface,-104.063,34.4881,4.1e-06
2015-01-20 00:00:00,2015-01-20 00:00:00,PRATE,surface,-103.125,34.4881,8.1e-06
2015-01-20 00:00:00,2015-01-20 00:00:00,PRATE,surface,-102.188,34.4881,1.3e-05
2015-01-20 00:00:00,2015-01-20 00:00:00,PRATE,surface,-101.25,34.4881,1.65e-05
2015-01-20 00:00:00,2015-01-20 00:00:00,PRATE,surface,-100.313,34.4881,1.39e-05
2015-01-20 00:00:00,2015-01-20 00:00:00,PRATE,surface,-99.3754,34.4881,1.55e-05
2015-01-20 00:00:00,2015-01-20 00:00:00,PRATE,surface,-98.4379,34.4881,1.93e-05
2015-01-20 00:00:00,2015-01-20 00:00:00,PRATE,surface,-97.5004,34.4881,2.18e-05
2015-01-20 00:00:00,2015-01-20 00:00:00,PRATE,surface,-96.5629,34.4881,2.31e-05
2015-01-20 00:00:00,2015-01-20 00:00:00,PRATE,surface,-95.6254,34.4881,2.36e-05
2015-01-20 00:00:00,2015-01-20 00:00:00,PRATE,surface,-94.6879,34.4881,2.41e-05
2015-01-20 00:00:00,2015-01-20 00:00:00,PRATE,surface,-93.7504,34.4881,2.54e-05
2015-01-20 00:00:00,2015-01-20 00:00:00,PRATE,surface,-92.8129,34.4881,2.45e-05
2015-01-20 00:00:00,2015-01-20 00:00:00,PRATE,surface,-107.813,35.4329,9.2e-06
2015-01-20 00:00:00,2015-01-20 00:00:00,PRATE,surface,-106.875,35.4329,6.5e-06
2015-01-20 00:00:00,2015-01-20 00:00:00,PRATE,surface,-105.938,35.4329,4.9e-06
2015-01-20 00:00:00,2015-01-20 00:00:00,PRATE,surface,-105,35.4329,2.2e-06
2015-01-20 00:00:00,2015-01-20 00:00:00,PRATE,surface,-104.063,35.4329,4.1e-06
2015-01-20 00:00:00,2015-01-20 00:00:00,PRATE,surface,-103.125,35.4329,8.1e-06
2015-01-20 00:00:00,2015-01-20 00:00:00,PRATE,surface,-102.188,35.4329,1.47e-05
2015-01-20 00:00:00,2015-01-20 00:00:00,PRATE,surface,-101.25,35.4329,2.19e-05
2015-01-20 00:00:00,2015-01-20 00:00:00,PRATE,surface,-100.313,35.4329,2.26e-05
2015-01-20 00:00:00,2015-01-20 00:00:00,PRATE,surface,-99.3754,35.4329,2.54e-05
2015-01-20 00:00:00,2015-01-20 00:00:00,PRATE,surface,-98.4379,35.4329,3.07e-05
2015-01-20 00:00:00,2015-01-20 00:00:00,PRATE,surface,-97.5004,35.4329,3.19e-05
2015-01-20 00:00:00,2015-01-20 00:00:00,PRATE,surface,-96.5629,35.4329,2.89e-05
2015-01-20 00:00:00,2015-01-20 00:00:00,PRATE,surface,-95.6254,35.4329,2.58e-05
2015-01-20 00:00:00,2015-01-20 00:00:00,PRATE,surface,-94.6879,35.4329,2.31e-05
2015-01-20 00:00:00,2015-01-20 00:00:00,PRATE,surface,-93.7504,35.4329,2.06e-05
2015-01-20 00:00:00,2015-01-20 00:00:00,PRATE,surface,-92.8129,35.4329,1.98e-05
2015-01-20 00:00:00,2015-01-20 00:00:00,PRATE,surface,-107.813,36.3778,1.6e-05
2015-01-20 00:00:00,2015-01-20 00:00:00,PRATE,surface,-106.875,36.3778,1.35e-05
2015-01-20 00:00:00,2015-01-20 00:00:00,PRATE,surface,-105.938,36.3778,1.23e-05
2015-01-20 00:00:00,2015-01-20 00:00:00,PRATE,surface,-105,36.3778,7.9e-06
2015-01-20 00:00:00,2015-01-20 00:00:00,PRATE,surface,-104.063,36.3778,1.03e-05
2015-01-20 00:00:00,2015-01-20 00:00:00,PRATE,surface,-103.125,36.3778,1.6e-05
2015-01-20 00:00:00,2015-01-20 00:00:00,PRATE,surface,-102.188,36.3778,2.13e-05
2015-01-20 00:00:00,2015-01-20 00:00:00,PRATE,surface,-101.25,36.3778,2.71e-05
2015-01-20 00:00:00,2015-01-20 00:00:00,PRATE,surface,-100.313,36.3778,3.37e-05
2015-01-20 00:00:00,2015-01-20 00:00:00,PRATE,surface,-99.3754,36.3778,3.77e-05
2015-01-20 00:00:00,2015-01-20 00:00:00,PRATE,surface,-98.4379,36.3778,3.88e-05
2015-01-20 00:00:00,2015-01-20 00:00:00,PRATE,surface,-97.5004,36.3778,3.74e-05
2015-01-20 00:00:00,2015-01-20 00:00:00,PRATE,surface,-96.5629,36.3778,3.11e-05
2015-01-20 00:00:00,2015-01-20 00:00:00,PRATE,surface,-95.6254,36.3778,2.5e-05
2015-01-20 00:00:00,2015-01-20 00:00:00,PRATE,surface,-94.6879,36.3778,2.38e-05
2015-01-20 00:00:00,2015-01-20 00:00:00,PRATE,surface,-93.7504,36.3778,2.05e-05
2015-01-20 00:00:00,2015-01-20 00:00:00,PRATE,surface,-92.8129,36.3778,1.88e-05
