2014-01-31 00:00:00,2014-01-31 00:00:00,TMP,surface,-107.813,25.0393,303.07
2014-01-31 00:00:00,2014-01-31 00:00:00,TMP,surface,-106.875,25.0393,295.806
2014-01-31 00:00:00,2014-01-31 00:00:00,TMP,surface,-105.938,25.0393,291.796
2014-01-31 00:00:00,2014-01-31 00:00:00,TMP,surface,-105,25.0393,290.346
2014-01-31 00:00:00,2014-01-31 00:00:00,TMP,surface,-104.063,25.0393,294.682
2014-01-31 00:00:00,2014-01-31 00:00:00,TMP,surface,-103.125,25.0393,298.362
2014-01-31 00:00:00,2014-01-31 00:00:00,TMP,surface,-102.188,25.0393,297.482
2014-01-31 00:00:00,2014-01-31 00:00:00,TMP,surface,-101.25,25.0393,294.279
2014-01-31 00:00:00,2014-01-31 00:00:00,TMP,surface,-100.313,25.0393,294.679
2014-01-31 00:00:00,2014-01-31 00:00:00,TMP,surface,-99.3754,25.0393,298.753
2014-01-31 00:00:00,2014-01-31 00:00:00,TMP,surface,-98.4379,25.0393,302.337
2014-01-31 00:00:00,2014-01-31 00:00:00,TMP,surface,-97.5004,25.0393,302.852
2014-01-31 00:00:00,2014-01-31 00:00:00,TMP,surface,-96.5629,25.0393,302.849
2014-01-31 00:00:00,2014-01-31 00:00:00,TMP,surface,-95.6254,25.0393,303.054
2014-01-31 00:00:00,2014-01-31 00:00:00,TMP,surface,-94.6879,25.0393,303.281
2014-01-31 00:00:00,2014-01-31 00:00:00,TMP,surface,-93.7504,25.0393,303.095
2014-01-31 00:00:00,2014-01-31 00:00:00,TMP,surface,-92.8129,25.0393,302.99
2014-01-31 00:00:00,2014-01-31 00:00:00,TMP,surface,-107.813,25.9842,298.788
2014-01-31 00:00:00,2014-01-31 00:00:00,TMP,surface,-106.875,25.9842,292.561
2014-01-31 00:00:00,2014-01-31 00:00:00,TMP,surface,-105.938,25.9842,290.948
2014-01-31 00:00:00,2014-01-31 00:00:00,TMP,surface,-105,25.9842,292.983
2014-01-31 00:00:00,2014-01-31 00:00:00,TMP,surface,-104.063,25.9842,298.554
2014-01-31 00:00:00,2014-01-31 00:00:00,TMP,surface,-103.125,25.9842,300.785
2014-01-31 00:00:00,2014-01-31 00:00:00,TMP,surface,-102.188,25.9842,299.13
2014-01-31 00:00:00,2014-01-31 00:00:00,TMP,surface,-101.25,25.9842,297.924
2014-01-31 00:00:00,2014-01-31 00:00:00,TMP,surface,-100.313,25.9842,299.057
2014-01-31 00:00:00,2014-01-31 00:00:00,TMP,surface,-99.3754,25.9842,302.516
2014-01-31 00:00:00,2014-01-31 00:00:00,TMP,surface,-98.4379,25.9842,303.799
2014-01-31 00:00:00,2014-01-31 00:00:00,TMP,surface,-97.5004,25.9842,302.615
2014-01-31 00:00:00,2014-01-31 00:00:00,TMP,surface,-96.5629,25.9842,302.023
2014-01-31 00:00:00,2014-01-31 00:00:00,TMP,surface,-95.6254,25.9842,302.596
2014-01-31 00:00:00,2014-01-31 00:00:00,TMP,surface,-94.6879,25.9842,302.986
2014-01-31 00:00:00,2014-01-31 00:00:00,TMP,surface,-93.7504,25.9842,302.935
2014-01-31 00:00:00,2014-01-31 00:00:00,TMP,surface,-92.8129,25.9842,302.874
2014-01-31 00:00:00,2014-01-31 00:00:00,TMP,surface,-107.813,26.929,293.978
2014-01-31 00:00:00,2014-01-31 00:00:00,TMP,surface,-106.875,26.929,290.993
2014-01-31 00:00:00,2014-01-31 00:00:00,TMP,surface,-105.938,26.929,292.593
2014-01-31 00:00:00,2014-01-31 00:00:00,TMP,surface,-105,26.929,297.38
2014-01-31 00:00:00,2014-01-31 00:00:00,TMP,surface,-104.063,26.929,300.884
2014-01-31 00:00:00,2014-01-31 00:00:00,TMP,surface,-103.125,26.929,300.535
2014-01-31 00:00:00,2014-01-31 00:00:00,TMP,surface,-102.188,26.929,298.663
2014-01-31 00:00:00,2014-01-31 00:00:00,TMP,surface,-101.25,26.929,299.034
2014-01-31 00:00:00,2014-01-31 00:00:00,TMP,surface,-100.313,26.929,302.868
2014-01-31 00:00:00,2014-01-31 00:00:00,TMP,surface,-99.3754,26.929,304.686
2014-01-31 00:00:00,2014-01-31 00:00:00,TMP,surface,-98.4379,26.929,303.428
2014-01-31 00:00:00,2014-01-31 00:00:00,TMP,surface,-97.5004,26.929,301.034
2014-01-31 00:00:00,2014-01-31 00:00:00,TMP,surface,-96.5629,26.929,301.025
2014-01-31 00:00:00,2014-01-31 00:00:00,TMP,surface,-95.6254,26.929,302.049
2014-01-31 00:00:00,2014-01-31 00:00:00,TMP,surface,-94.6879,26.929,302.727
2014-01-31 00:00:00,2014-01-31 00:00:00,TMP,surface,-93.7504,26.929,302.922
2014-01-31 00:00:00,2014-01-31 00:00:00,TMP,surface,-92.8129,26.929,302.916
2014-01-31 00:00:00,2014-01-31 00:00:00,TMP,surface,-107.813,27.8739,291.93
2014-01-31 00:00:00,2014-01-31 00:00:00,TMP,surface,-106.875,27.8739,290.833
2014-01-31 00:00:00,2014-01-31 00:00:00,TMP,surface,-105.938,27.8739,294.756
2014-01-31 00:00:00,2014-01-31 00:00:00,TMP,surface,-105,27.8739,299.594
2014-01-31 00:00:00,2014-01-31 00:00:00,TMP,surface,-104.063,27.8739,300.702
2014-01-31 00:00:00,2014-01-31 00:00:00,TMP,surface,-103.125,27.8739,299.038
2014-01-31 00:00:00,2014-01-31 00:00:00,TMP,surface,-102.188,27.8739,297.889
2014-01-31 00:00:00,2014-01-31 00:00:00,TMP,surface,-101.25,27.8739,301.236
2014-01-31 00:00:00,2014-01-31 00:00:00,TMP,surface,-100.313,27.8739,304.286
2014-01-31 00:00:00,2014-01-31 00:00:00,TMP,surface,-99.3754,27.8739,304.67
2014-01-31 00:00:00,2014-01-31 00:00:00,TMP,surface,-98.4379,27.8739,303.319
2014-01-31 00:00:00,2014-01-31 00:00:00,TMP,surface,-97.5004,27.8739,302.02
2014-01-31 00:00:00,2014-01-31 00:00:00,TMP,surface,-96.5629,27.8739,301.601
2014-01-31 00:00:00,2014-01-31 00:00:00,TMP,surface,-95.6254,27.8739,301.838
2014-01-31 00:00:00,2014-01-31 00:00:00,TMP,surface,-94.6879,27.8739,302.308
2014-01-31 00:00:00,2014-01-31 00:00:00,TMP,surface,-93.7504,27.8739,302.743
2014-01-31 00:00:00,2014-01-31 00:00:00,TMP,surface,-92.8129,27.8739,302.926
2014-01-31 00:00:00,2014-01-31 00:00:00,TMP,surface,-107.813,28.8188,291.022
2014-01-31 00:00:00,2014-01-31 00:00:00,TMP,surface,-106.875,28.8188,292.071
2014-01-31 00:00:00,2014-01-31 00:00:00,TMP,surface,-105.938,28.8188,296.922
2014-01-31 00:00:00,2014-01-31 00:00:00,TMP,surface,-105,28.8188,300.932
2014-01-31 00:00:00,2014-01-31 00:00:00,TMP,surface,-104.063,28.8188,300.34
2014-01-31 00:00:00,2014-01-31 00:00:00,TMP,surface,-103.125,28.8188,299.246
2014-01-31 00:00:00,2014-01-31 00:00:00,TMP,surface,-102.188,28.8188,299.319
2014-01-31 00:00:00,2014-01-31 00:00:00,TMP,surface,-101.25,28.8188,302.046
2014-01-31 00:00:00,2014-01-31 00:00:00,TMP,surface,-100.313,28.8188,304.11
2014-01-31 00:00:00,2014-01-31 00:00:00,TMP,surface,-99.3754,28.8188,304.062
2014-01-31 00:00:00,2014-01-31 00:00:00,TMP,surface,-98.4379,28.8188,303.226
2014-01-31 00:00:00,2014-01-31 00:00:00,TMP,surface,-97.5004,28.8188,302.692
2014-01-31 00:00:00,2014-01-31 00:00:00,TMP,surface,-96.5629,28.8188,302.337
2014-01-31 00:00:00,2014-01-31 00:00:00,TMP,surface,-95.6254,28.8188,301.121
2014-01-31 00:00:00,2014-01-31 00:00:00,TMP,surface,-94.6879,28.8188,299.937
2014-01-31 00:00:00,2014-01-31 00:00:00,TMP,surface,-93.7504,28.8188,301.166
2014-01-31 00:00:00,2014-01-31 00:00:00,TMP,surface,-92.8129,28.8188,302.154
2014-01-31 00:00:00,2014-01-31 00:00:00,TMP,surface,-107.813,29.7637,293.367
2014-01-31 00:00:00,2014-01-31 00:00:00,TMP,surface,-106.875,29.7637,295.271
2014-01-31 00:00:00,2014-01-31 00:00:00,TMP,surface,-105.938,29.7637,299.15
2014-01-31 00:00:00,2014-01-31 00:00:00,TMP,surface,-105,29.7637,300.452
2014-01-31 00:00:00,2014-01-31 00:00:00,TMP,surface,-104.063,29.7637,300.279
2014-01-31 00:00:00,2014-01-31 00:00:00,TMP,surface,-103.125,29.7637,300.404
2014-01-31 00:00:00,2014-01-31 00:00:00,TMP,surface,-102.188,29.7637,301.575
2014-01-31 00:00:00,2014-01-31 00:00:00,TMP,surface,-101.25,29.7637,302.689
2014-01-31 00:00:00,2014-01-31 00:00:00,TMP,surface,-100.313,29.7637,302.967
2014-01-31 00:00:00,2014-01-31 00:00:00,TMP,surface,-99.3754,29.7637,302.673
2014-01-31 00:00:00,2014-01-31 00:00:00,TMP,surface,-98.4379,29.7637,302.721
2014-01-31 00:00:00,2014-01-31 00:00:00,TMP,surface,-97.5004,29.7637,303.105
2014-01-31 00:00:00,2014-01-31 00:00:00,TMP,surface,-96.5629,29.7637,303.073
2014-01-31 00:00:00,2014-01-31 00:00:00,TMP,surface,-95.6254,29.7637,302.42
2014-01-31 00:00:00,2014-01-31 00:00:00,TMP,surface,-94.6879,29.7637,301.265
2014-01-31 00:00:00,2014-01-31 00:00:00,TMP,surface,-93.7504,29.7637,300.321
2014-01-31 00:00:00,2014-01-31 00:00:00,TMP,surface,-92.8129,29.7637,301.194
2014-01-31 00:00:00,2014-01-31 00:00:00,TMP,surface,-107.813,30.7085,298.289
2014-01-31 00:00:00,2014-01-31 00:00:00,TMP,surface,-106.875,30.7085,300.238
2014-01-31 00:00:00,2014-01-31 00:00:00,TMP,surface,-105.938,30.7085,300.567
2014-01-31 00:00:00,2014-01-31 00:00:00,TMP,surface,-105,30.7085,300.177
2014-01-31 00:00:00,2014-01-31 00:00:00,TMP,surface,-104.063,30.7085,299.799
2014-01-31 00:00:00,2014-01-31 00:00:00,TMP,surface,-103.125,30.7085,301.29
2014-01-31 00:00:00,2014-01-31 00:00:00,TMP,surface,-102.188,30.7085,302.468
2014-01-31 00:00:00,2014-01-31 00:00:00,TMP,surface,-101.25,30.7085,302.618
2014-01-31 00:00:00,2014-01-31 00:00:00,TMP,surface,-100.313,30.7085,302.346
2014-01-31 00:00:00,2014-01-31 00:00:00,TMP,surface,-99.3754,30.7085,302.279
2014-01-31 00:00:00,2014-01-31 00:00:00,TMP,surface,-98.4379,30.7085,302.842
2014-01-31 00:00:00,2014-01-31 00:00:00,TMP,surface,-97.5004,30.7085,303.607
2014-01-31 00:00:00,2014-01-31 00:00:00,TMP,surface,-96.5629,30.7085,303.604
2014-01-31 00:00:00,2014-01-31 00:00:00,TMP,surface,-95.6254,30.7085,302.743
2014-01-31 00:00:00,2014-01-31 00:00:00,TMP,surface,-94.6879,30.7085,301.834
2014-01-31 00:00:00,2014-01-31 00:00:00,TMP,surface,-93.7504,30.7085,301.207
2014-01-31 00:00:00,2014-01-31 00:00:00,TMP,surface,-92.8129,30.7085,300.705
2014-01-31 00:00:00,2014-01-31 00:00:00,TMP,surface,-107.813,31.6534,300.353
2014-01-31 00:00:00,2014-01-31 00:00:00,TMP,surface,-106.875,31.6534,301.182
2014-01-31 00:00:00,2014-01-31 00:00:00,TMP,surface,-105.938,31.6534,300.231
2014-01-31 00:00:00,2014-01-31 00:00:00,TMP,surface,-105,31.6534,299.962
2014-01-31 00:00:00,2014-01-31 00:00:00,TMP,surface,-104.063,31.6534,300.721
2014-01-31 00:00:00,2014-01-31 00:00:00,TMP,surface,-103.125,31.6534,301.85
2014-01-31 00:00:00,2014-01-31 00:00:00,TMP,surface,-102.188,31.6534,302.506
2014-01-31 00:00:00,2014-01-31 00:00:00,TMP,surface,-101.25,31.6534,302.484
2014-01-31 00:00:00,2014-01-31 00:00:00,TMP,surface,-100.313,31.6534,302.414
2014-01-31 00:00:00,2014-01-31 00:00:00,TMP,surface,-99.3754,31.6534,302.884
2014-01-31 00:00:00,2014-01-31 00:00:00,TMP,surface,-98.4379,31.6534,303.61
2014-01-31 00:00:00,2014-01-31 00:00:00,TMP,surface,-97.5004,31.6534,304.116
2014-01-31 00:00:00,2014-01-31 00:00:00,TMP,surface,-96.5629,31.6534,303.95
2014-01-31 00:00:00,2014-01-31 00:00:00,TMP,surface,-95.6254,31.6534,303.175
2014-01-31 00:00:00,2014-01-31 00:00:00,TMP,surface,-94.6879,31.6534,302.292
2014-01-31 00:00:00,2014-01-31 00:00:00,TMP,surface,-93.7504,31.6534,301.527
2014-01-31 00:00:00,2014-01-31 00:00:00,TMP,surface,-92.8129,31.6534,301.14
2014-01-31 00:00:00,2014-01-31 00:00:00,TMP,surface,-107.813,32.5983,297.159
2014-01-31 00:00:00,2014-01-31 00:00:00,TMP,surface,-106.875,32.5983,297.988
2014-01-31 00:00:00,2014-01-31 00:00:00,TMP,surface,-105.938,32.5983,298.791
2014-01-31 00:00:00,2014-01-31 00:00:00,TMP,surface,-105,32.5983,299.127
2014-01-31 00:00:00,2014-01-31 00:00:00,TMP,surface,-104.063,32.5983,300.567
2014-01-31 00:00:00,2014-01-31 00:00:00,TMP,surface,-103.125,32.5983,301.614
2014-01-31 00:00:00,2014-01-31 00:00:00,TMP,surface,-102.188,32.5983,301.822
2014-01-31 00:00:00,2014-01-31 00:00:00,TMP,surface,-101.25,32.5983,302.212
2014-01-31 00:00:00,2014-01-31 00:00:00,TMP,surface,-100.313,32.5983,303.082
2014-01-31 00:00:00,2014-01-31 00:00:00,TMP,surface,-99.3754,32.5983,304.148
2014-01-31 00:00:00,2014-01-31 00:00:00,TMP,surface,-98.4379,32.5983,304.586
2014-01-31 00:00:00,2014-01-31 00:00:00,TMP,surface,-97.5004,32.5983,304.375
2014-01-31 00:00:00,2014-01-31 00:00:00,TMP,surface,-96.5629,32.5983,303.95
2014-01-31 00:00:00,2014-01-31 00:00:00,TMP,surface,-95.6254,32.5983,303.406
2014-01-31 00:00:00,2014-01-31 00:00:00,TMP,surface,-94.6879,32.5983,302.654
2014-01-31 00:00:00,2014-01-31 00:00:00,TMP,surface,-93.7504,32.5983,301.969
2014-01-31 00:00:00,2014-01-31 00:00:00,TMP,surface,-92.8129,32.5983,301.937
2014-01-31 00:00:00,2014-01-31 00:00:00,TMP,surface,-107.813,33.5432,293.303
2014-01-31 00:00:00,2014-01-31 00:00:00,TMP,surface,-106.875,33.5432,294.897
2014-01-31 00:00:00,2014-01-31 00:00:00,TMP,surface,-105.938,33.5432,296.129
2014-01-31 00:00:00,2014-01-31 00:00:00,TMP,surface,-105,33.5432,297.838
2014-01-31 00:00:00,2014-01-31 00:00:00,TMP,surface,-104.063,33.5432,299.806
2014-01-31 00:00:00,2014-01-31 00:00:00,TMP,surface,-103.125,33.5432,300.433
2014-01-31 00:00:00,2014-01-31 00:00:00,TMP,surface,-102.188,33.5432,300.663
2014-01-31 00:00:00,2014-01-31 00:00:00,TMP,surface,-101.25,33.5432,301.649
2014-01-31 00:00:00,2014-01-31 00:00:00,TMP,surface,-100.313,33.5432,303.226
2014-01-31 00:00:00,2014-01-31 00:00:00,TMP,surface,-99.3754,33.5432,304.714
2014-01-31 00:00:00,2014-01-31 00:00:00,TMP,surface,-98.4379,33.5432,305.111
2014-01-31 00:00:00,2014-01-31 00:00:00,TMP,surface,-97.5004,33.5432,304.628
2014-01-31 00:00:00,2014-01-31 00:00:00,TMP,surface,-96.5629,33.5432,303.982
2014-01-31 00:00:00,2014-01-31 00:00:00,TMP,surface,-95.6254,33.5432,303.258
2014-01-31 00:00:00,2014-01-31 00:00:00,TMP,surface,-94.6879,33.5432,302.484
2014-01-31 00:00:00,2014-01-31 00:00:00,TMP,surface,-93.7504,33.5432,302.042
2014-01-31 00:00:00,2014-01-31 00:00:00,TMP,surface,-92.8129,33.5432,301.898
2014-01-31 00:00:00,2014-01-31 00:00:00,TMP,surface,-107.813,34.4881,292.202
2014-01-31 00:00:00,2014-01-31 00:00:00,TMP,surface,-106.875,34.4881,294.052
2014-01-31 00:00:00,2014-01-31 00:00:00,TMP,surface,-105.938,34.4881,295.162
2014-01-31 00:00:00,2014-01-31 00:00:00,TMP,surface,-105,34.4881,296.852
2014-01-31 00:00:00,2014-01-31 00:00:00,TMP,surface,-104.063,34.4881,298.382
2014-01-31 00:00:00,2014-01-31 00:00:00,TMP,surface,-103.125,34.4881,299.207
2014-01-31 00:00:00,2014-01-31 00:00:00,TMP,surface,-102.188,34.4881,300.113
2014-01-31 00:00:00,2014-01-31 00:00:00,TMP,surface,-101.25,34.4881,301.188
2014-01-31 00:00:00,2014-01-31 00:00:00,TMP,surface,-100.313,34.4881,302.836
2014-01-31 00:00:00,2014-01-31 00:00:00,TMP,surface,-99.3754,34.4881,304.142
2014-01-31 00:00:00,2014-01-31 00:00:00,TMP,surface,-98.4379,34.4881,304.628
2014-01-31 00:00:00,2014-01-31 00:00:00,TMP,surface,-97.5004,34.4881,304.353
2014-01-31 00:00:00,2014-01-31 00:00:00,TMP,surface,-96.5629,34.4881,303.569
2014-01-31 00:00:00,2014-01-31 00:00:00,TMP,surface,-95.6254,34.4881,302.727
2014-01-31 00:00:00,2014-01-31 00:00:00,TMP,surface,-94.6879,34.4881,301.943
2014-01-31 00:00:00,2014-01-31 00:00:00,TMP,surface,-93.7504,34.4881,301.159
2014-01-31 00:00:00,2014-01-31 00:00:00,TMP,surface,-92.8129,34.4881,301.098
2014-01-31 00:00:00,2014-01-31 00:00:00,TMP,surface,-107.813,35.4329,293.271
2014-01-31 00:00:00,2014-01-31 00:00:00,TMP,surface,-106.875,35.4329,293.377
2014-01-31 00:00:00,2014-01-31 00:00:00,TMP,surface,-105.938,35.4329,293.226
2014-01-31 00:00:00,2014-01-31 00:00:00,TMP,surface,-105,35.4329,294.007
2014-01-31 00:00:00,2014-01-31 00:00:00,TMP,surface,-104.063,35.4329,297.092
2014-01-31 00:00:00,2014-01-31 00:00:00,TMP,surface,-103.125,35.4329,299.137
2014-01-31 00:00:00,2014-01-31 00:00:00,TMP,surface,-102.188,35.4329,300.366
2014-01-31 00:00:00,2014-01-31 00:00:00,TMP,surface,-101.25,35.4329,301.242
2014-01-31 00:00:00,2014-01-31 00:00:00,TMP,surface,-100.313,35.4329,302.327
2014-01-31 00:00:00,2014-01-31 00:00:00,TMP,surface,-99.3754,35.4329,303.489
2014-01-31 00:00:00,2014-01-31 00:00:00,TMP,surface,-98.4379,35.4329,304.106
2014-01-31 00:00:00,2014-01-31 00:00:00,TMP,surface,-97.5004,35.4329,304.023
2014-01-31 00:00:00,2014-01-31 00:00:00,TMP,surface,-96.5629,35.4329,303.508
2014-01-31 00:00:00,2014-01-31 00:00:00,TMP,surface,-95.6254,35.4329,302.583
2014-01-31 00:00:00,2014-01-31 00:00:00,TMP,surface,-94.6879,35.4329,301.271
2014-01-31 00:00:00,2014-01-31 00:00:00,TMP,surface,-93.7504,35.4329,300.074
2014-01-31 00:00:00,2014-01-31 00:00:00,TMP,surface,-92.8129,35.4329,299.562
2014-01-31 00:00:00,2014-01-31 00:00:00,TMP,surface,-107.813,36.3778,292.513
2014-01-31 00:00:00,2014-01-31 00:00:00,TMP,surface,-106.875,36.3778,289.594
2014-01-31 00:00:00,2014-01-31 00:00:00,TMP,surface,-105.938,36.3778,289.998
2014-01-31 00:00:00,2014-01-31 00:00:00,TMP,surface,-105,36.3778,291.22
2014-01-31 00:00:00,2014-01-31 00:00:00,TMP,surface,-104.063,36.3778,294.663
2014-01-31 00:00:00,2014-01-31 00:00:00,TMP,surface,-103.125,36.3778,298.19
2014-01-31 00:00:00,2014-01-31 00:00:00,TMP,surface,-102.188,36.3778,300.177
2014-01-31 00:00:00,2014-01-31 00:00:00,TMP,surface,-101.25,36.3778,301.406
2014-01-31 00:00:00,2014-01-31 00:00:00,TMP,surface,-100.313,36.3778,302.436
2014-01-31 00:00:00,2014-01-31 00:00:00,TMP,surface,-99.3754,36.3778,303.162
2014-01-31 00:00:00,2014-01-31 00:00:00,TMP,surface,-98.4379,36.3778,303.492
2014-01-31 00:00:00,2014-01-31 00:00:00,TMP,surface,-97.5004,36.3778,303.31
2014-01-31 00:00:00,2014-01-31 00:00:00,TMP,surface,-96.5629,36.3778,302.686
2014-01-31 00:00:00,2014-01-31 00:00:00,TMP,surface,-95.6254,36.3778,301.706
2014-01-31 00:00:00,2014-01-31 00:00:00,TMP,surface,-94.6879,36.3778,300.455
2014-01-31 00:00:00,2014-01-31 00:00:00,TMP,surface,-93.7504,36.3778,299.393
2014-01-31 00:00:00,2014-01-31 00:00:00,TMP,surface,-92.8129,36.3778,298.871
2014-01-31 00:00:00,2014-01-31 00:00:00,PRATE,surface,-107.813,25.0393,3.4e-05
2014-01-31 00:00:00,2014-01-31 00:00:00,PRATE,surface,-106.875,25.0393,0.0001139
2014-01-31 00:00:00,2014-01-31 00:00:00,PRATE,surface,-105.938,25.0393,0.0001195
2014-01-31 00:00:00,2014-01-31 00:00:00,PRATE,surface,-105,25.0393,6.3e-05
2014-01-31 00:00:00,2014-01-31 00:00:00,PRATE,surface,-104.063,25.0393,3.4e-06
2014-01-31 00:00:00,2014-01-31 00:00:00,PRATE,surface,-103.125,25.0393,1e-07
2014-01-31 00:00:00,2014-01-31 00:00:00,PRATE,surface,-102.188,25.0393,2.6e-06
2014-01-31 00:00:00,2014-01-31 00:00:00,PRATE,surface,-101.25,25.0393,1.77e-05
2014-01-31 00:00:00,2014-01-31 00:00:00,PRATE,surface,-100.313,25.0393,2.94e-05
2014-01-31 00:00:00,2014-01-31 00:00:00,PRATE,surface,-99.3754,25.0393,2.29e-05
2014-01-31 00:00:00,2014-01-31 00:00:00,PRATE,surface,-98.4379,25.0393,1.24e-05
2014-01-31 00:00:00,2014-01-31 00:00:00,PRATE,surface,-97.5004,25.0393,3.14e-05
2014-01-31 00:00:00,2014-01-31 00:00:00,PRATE,surface,-96.5629,25.0393,2.52e-05
2014-01-31 00:00:00,2014-01-31 00:00:00,PRATE,surface,-95.6254,25.0393,3.52e-05
2014-01-31 00:00:00,2014-01-31 00:00:00,PRATE,surface,-94.6879,25.0393,2.75e-05
2014-01-31 00:00:00,2014-01-31 00:00:00,PRATE,surface,-93.7504,25.0393,3.68e-05
2014-01-31 00:00:00,2014-01-31 00:00:00,PRATE,surface,-92.8129,25.0393,5.57e-05
2014-01-31 00:00:00,2014-01-31 00:00:00,PRATE,surface,-107.813,25.9842,5.17e-05
2014-01-31 00:00:00,2014-01-31 00:00:00,PRATE,surface,-106.875,25.9842,0.000139
2014-01-31 00:00:00,2014-01-31 00:00:00,PRATE,surface,-105.938,25.9842,8.05e-05
2014-01-31 00:00:00,2014-01-31 00:00:00,PRATE,surface,-105,25.9842,1.35e-05
2014-01-31 00:00:00,2014-01-31 00:00:00,PRATE,surface,-104.063,25.9842,0
2014-01-31 00:00:00,2014-01-31 00:00:00,PRATE,surface,-103.125,25.9842,1e-07
2014-01-31 00:00:00,2014-01-31 00:00:00,PRATE,surface,-102.188,25.9842,4e-07
2014-01-31 00:00:00,2014-01-31 00:00:00,PRATE,surface,-101.25,25.9842,5.5e-06
2014-01-31 00:00:00,2014-01-31 00:00:00,PRATE,surface,-100.313,25.9842,9.8e-06
2014-01-31 00:00:00,2014-01-31 00:00:00,PRATE,surface,-99.3754,25.9842,3.8e-06
2014-01-31 00:00:00,2014-01-31 00:00:00,PRATE,surface,-98.4379,25.9842,1.2e-05
2014-01-31 00:00:00,2014-01-31 00:00:00,PRATE,surface,-97.5004,25.9842,4.33e-05
2014-01-31 00:00:00,2014-01-31 00:00:00,PRATE,surface,-96.5629,25.9842,2.37e-05
2014-01-31 00:00:00,2014-01-31 00:00:00,PRATE,surface,-95.6254,25.9842,4.06e-05
2014-01-31 00:00:00,2014-01-31 00:00:00,PRATE,surface,-94.6879,25.9842,4.92e-05
2014-01-31 00:00:00,2014-01-31 00:00:00,PRATE,surface,-93.7504,25.9842,5.68e-05
2014-01-31 00:00:00,2014-01-31 00:00:00,PRATE,surface,-92.8129,25.9842,6.27e-05
2014-01-31 00:00:00,2014-01-31 00:00:00,PRATE,surface,-107.813,26.929,8.99e-05
2014-01-31 00:00:00,2014-01-31 00:00:00,PRATE,surface,-106.875,26.929,9.23e-05
2014-01-31 00:00:00,2014-01-31 00:00:00,PRATE,surface,-105.938,26.929,4.88e-05
2014-01-31 00:00:00,2014-01-31 00:00:00,PRATE,surface,-105,26.929,4e-07
2014-01-31 00:00:00,2014-01-31 00:00:00,PRATE,surface,-104.063,26.929,1.9e-06
2014-01-31 00:00:00,2014-01-31 00:00:00,PRATE,surface,-103.125,26.929,2e-06
2014-01-31 00:00:00,2014-01-31 00:00:00,PRATE,surface,-102.188,26.929,0
2014-01-31 00:00:00,2014-01-31 00:00:00,PRATE,surface,-101.25,26.929,0
2014-01-31 00:00:00,2014-01-31 00:00:00,PRATE,surface,-100.313,26.929,0
2014-01-31 00:00:00,2014-01-31 00:00:00,PRATE,surface,-99.3754,26.929,4.2e-06
2014-01-31 00:00:00,2014-01-31 00:00:00,PRATE,surface,-98.4379,26.929,2.13e-05
2014-01-31 00:00:00,2014-01-31 00:00:00,PRATE,surface,-97.5004,26.929,2.56e-05
2014-01-31 00:00:00,2014-01-31 00:00:00,PRATE,surface,-96.5629,26.929,2.38e-05
2014-01-31 00:00:00,2014-01-31 00:00:00,PRATE,surface,-95.6254,26.929,1.91e-05
2014-01-31 00:00:00,2014-01-31 00:00:00,PRATE,surface,-94.6879,26.929,4.03e-05
2014-01-31 00:00:00,2014-01-31 00:00:00,PRATE,surface,-93.7504,26.929,6.66e-05
2014-01-31 00:00:00,2014-01-31 00:00:00,PRATE,surface,-92.8129,26.929,6.71e-05
2014-01-31 00:00:00,2014-01-31 00:00:00,PRATE,surface,-107.813,27.8739,0.0001121
2014-01-31 00:00:00,2014-01-31 00:00:00,PRATE,surface,-106.875,27.8739,5.84e-05
2014-01-31 00:00:00,2014-01-31 00:00:00,PRATE,surface,-105.938,27.8739,2.02e-05
2014-01-31 00:00:00,2014-01-31 00:00:00,PRATE,surface,-105,27.8739,2e-07
2014-01-31 00:00:00,2014-01-31 00:00:00,PRATE,surface,-104.063,27.8739,7e-06
2014-01-31 00:00:00,2014-01-31 00:00:00,PRATE,surface,-103.125,27.8739,5.9e-06
2014-01-31 00:00:00,2014-01-31 00:00:00,PRATE,surface,-102.188,27.8739,1.1e-06
2014-01-31 00:00:00,2014-01-31 00:00:00,PRATE,surface,-101.25,27.8739,0
2014-01-31 00:00:00,2014-01-31 00:00:00,PRATE,surface,-100.313,27.8739,0
2014-01-31 00:00:00,2014-01-31 00:00:00,PRATE,surface,-99.3754,27.8739,3.1e-06
2014-01-31 00:00:00,2014-01-31 00:00:00,PRATE,surface,-98.4379,27.8739,1.75e-05
2014-01-31 00:00:00,2014-01-31 00:00:00,PRATE,surface,-97.5004,27.8739,2.2e-05
2014-01-31 00:00:00,2014-01-31 00:00:00,PRATE,surface,-96.5629,27.8739,1.11e-05
2014-01-31 00:00:00,2014-01-31 00:00:00,PRATE,surface,-95.6254,27.8739,1.03e-05
2014-01-31 00:00:00,2014-01-31 00:00:00,PRATE,surface,-94.6879,27.8739,3.4e-05
2014-01-31 00:00:00,2014-01-31 00:00:00,PRATE,surface,-93.7504,27.8739,6.82e-05
2014-01-31 00:00:00,2014-01-31 00:00:00,PRATE,surface,-92.8129,27.8739,9.09e-05
2014-01-31 00:00:00,2014-01-31 00:00:00,PRATE,surface,-107.813,28.8188,7.8e-05
2014-01-31 00:00:00,2014-01-31 00:00:00,PRATE,surface,-106.875,28.8188,4.32e-05
2014-01-31 00:00:00,2014-01-31 00:00:00,PRATE,surface,-105.938,28.8188,1.7e-05
2014-01-31 00:00:00,2014-01-31 00:00:00,PRATE,surface,-105,28.8188,1.1e-06
2014-01-31 00:00:00,2014-01-31 00:00:00,PRATE,surface,-104.063,28.8188,7.8e-06
2014-01-31 00:00:00,2014-01-31 00:00:00,PRATE,surface,-103.125,28.8188,2.9e-06
2014-01-31 00:00:00,2014-01-31 00:00:00,PRATE,surface,-102.188,28.8188,4e-07
2014-01-31 00:00:00,2014-01-31 00:00:00,PRATE,surface,-101.25,28.8188,0
2014-01-31 00:00:00,2014-01-31 00:00:00,PRATE,surface,-100.313,28.8188,0
2014-01-31 00:00:00,2014-01-31 00:00:00,PRATE,surface,-99.3754,28.8188,2.2e-06
2014-01-31 00:00:00,2014-01-31 00:00:00,PRATE,surface,-98.4379,28.8188,7.1e-06
2014-01-31 00:00:00,2014-01-31 00:00:00,PRATE,surface,-97.5004,28.8188,1.17e-05
2014-01-31 00:00:00,2014-01-31 00:00:00,PRATE,surface,-96.5629,28.8188,1.58e-05
2014-01-31 00:00:00,2014-01-31 00:00:00,PRATE,surface,-95.6254,28.8188,1.82e-05
2014-01-31 00:00:00,2014-01-31 00:00:00,PRATE,surface,-94.6879,28.8188,2.47e-05
2014-01-31 00:00:00,2014-01-31 00:00:00,PRATE,surface,-93.7504,28.8188,4.7e-05
2014-01-31 00:00:00,2014-01-31 00:00:00,PRATE,surface,-92.8129,28.8188,6.43e-05
2014-01-31 00:00:00,2014-01-31 00:00:00,PRATE,surface,-107.813,29.7637,5.51e-05
2014-01-31 00:00:00,2014-01-31 00:00:00,PRATE,surface,-106.875,29.7637,3.5e-05
2014-01-31 00:00:00,2014-01-31 00:00:00,PRATE,surface,-105.938,29.7637,5.1e-06
2014-01-31 00:00:00,2014-01-31 00:00:00,PRATE,surface,-105,29.7637,7.6e-06
2014-01-31 00:00:00,2014-01-31 00:00:00,PRATE,surface,-104.063,29.7637,1.11e-05
2014-01-31 00:00:00,2014-01-31 00:00:00,PRATE,surface,-103.125,29.7637,4.3e-06
2014-01-31 00:00:00,2014-01-31 00:00:00,PRATE,surface,-102.188,29.7637,1.4e-06
2014-01-31 00:00:00,2014-01-31 00:00:00,PRATE,surface,-101.25,29.7637,2e-07
2014-01-31 00:00:00,2014-01-31 00:00:00,PRATE,surface,-100.313,29.7637,1.4e-06
2014-01-31 00:00:00,2014-01-31 00:00:00,PRATE,surface,-99.3754,29.7637,2.5e-06
2014-01-31 00:00:00,2014-01-31 00:00:00,PRATE,surface,-98.4379,29.7637,2.2e-06
2014-01-31 00:00:00,2014-01-31 00:00:00,PRATE,surface,-97.5004,29.7637,2.8e-06
2014-01-31 00:00:00,2014-01-31 00:00:00,PRATE,surface,-96.5629,29.7637,8e-06
2014-01-31 00:00:00,2014-01-31 00:00:00,PRATE,surface,-95.6254,29.7637,1.66e-05
2014-01-31 00:00:00,2014-01-31 00:00:00,PRATE,surface,-94.6879,29.7637,2.07e-05
2014-01-31 00:00:00,2014-01-31 00:00:00,PRATE,surface,-93.7504,29.7637,2.3e-05
2014-01-31 00:00:00,2014-01-31 00:00:00,PRATE,surface,-92.8129,29.7637,3.98e-05
2014-01-31 00:00:00,2014-01-31 00:00:00,PRATE,surface,-107.813,30.7085,4.7e-06
2014-01-31 00:00:00,2014-01-31 00:00:00,PRATE,surface,-106.875,30.7085,2.7e-06
2014-01-31 00:00:00,2014-01-31 00:00:00,PRATE,surface,-105.938,30.7085,5.4e-06
2014-01-31 00:00:00,2014-01-31 00:00:00,PRATE,surface,-105,30.7085,1.53e-05
2014-01-31 00:00:00,2014-01-31 00:00:00,PRATE,surface,-104.063,30.7085,6.4e-06
2014-01-31 00:00:00,2014-01-31 00:00:00,PRATE,surface,-103.125,30.7085,2.9e-06
2014-01-31 00:00:00,2014-01-31 00:00:00,PRATE,surface,-102.188,30.7085,7e-07
2014-01-31 00:00:00,2014-01-31 00:00:00,PRATE,surface,-101.25,30.7085,1.5e-06
2014-01-31 00:00:00,2014-01-31 00:00:00,PRATE,surface,-100.313,30.7085,2.7e-06
2014-01-31 00:00:00,2014-01-31 00:00:00,PRATE,surface,-99.3754,30.7085,2.3e-06
2014-01-31 00:00:00,2014-01-31 00:00:00,PRATE,surface,-98.4379,30.7085,1.2e-06
2014-01-31 00:00:00,2014-01-31 00:00:00,PRATE,surface,-97.5004,30.7085,1.3e-06
2014-01-31 00:00:00,2014-01-31 00:00:00,PRATE,surface,-96.5629,30.7085,3.2e-06
2014-01-31 00:00:00,2014-01-31 00:00:00,PRATE,surface,-95.6254,30.7085,6.2e-06
2014-01-31 00:00:00,2014-01-31 00:00:00,PRATE,surface,-94.6879,30.7085,8.4e-06
2014-01-31 00:00:00,2014-01-31 00:00:00,PRATE,surface,-93.7504,30.7085,9.8e-06
2014-01-31 00:00:00,2014-01-31 00:00:00,PRATE,surface,-92.8129,30.7085,1.59e-05
2014-01-31 00:00:00,2014-01-31 00:00:00,PRATE,surface,-107.813,31.6534,2.5e-06
2014-01-31 00:00:00,2014-01-31 00:00:00,PRATE,surface,-106.875,31.6534,4.5e-06
2014-01-31 00:00:00,2014-01-31 00:00:00,PRATE,surface,-105.938,31.6534,8e-06
2014-01-31 00:00:00,2014-01-31 00:00:00,PRATE,surface,-105,31.6534,1.1e-05
2014-01-31 00:00:00,2014-01-31 00:00:00,PRATE,surface,-104.063,31.6534,5.3e-06
2014-01-31 00:00:00,2014-01-31 00:00:00,PRATE,surface,-103.125,31.6534,3.4e-06
2014-01-31 00:00:00,2014-01-31 00:00:00,PRATE,surface,-102.188,31.6534,1e-06
2014-01-31 00:00:00,2014-01-31 00:00:00,PRATE,surface,-101.25,31.6534,9e-07
2014-01-31 00:00:00,2014-01-31 00:00:00,PRATE,surface,-100.313,31.6534,2.9e-06
2014-01-31 00:00:00,2014-01-31 00:00:00,PRATE,surface,-99.3754,31.6534,3e-06
2014-01-31 00:00:00,2014-01-31 00:00:00,PRATE,surface,-98.4379,31.6534,2e-06
2014-01-31 00:00:00,2014-01-31 00:00:00,PRATE,surface,-97.5004,31.6534,1.1e-06
2014-01-31 00:00:00,2014-01-31 00:00:00,PRATE,surface,-96.5629,31.6534,5e-07
2014-01-31 00:00:00,2014-01-31 00:00:00,PRATE,surface,-95.6254,31.6534,1e-06
2014-01-31 00:00:00,2014-01-31 00:00:00,PRATE,surface,-94.6879,31.6534,3e-06
2014-01-31 00:00:00,2014-01-31 00:00:00,PRATE,surface,-93.7504,31.6534,5.3e-06
2014-01-31 00:00:00,2014-01-31 00:00:00,PRATE,surface,-92.8129,31.6534,6.4e-06
2014-01-31 00:00:00,2014-01-31 00:00:00,PRATE,surface,-107.813,32.5983,1.89e-05
2014-01-31 00:00:00,2014-01-31 00:00:00,PRATE,surface,-106.875,32.5983,1.07e-05
2014-01-31 00:00:00,2014-01-31 00:00:00,PRATE,surface,-105.938,32.5983,7.8e-06
2014-01-31 00:00:00,2014-01-31 00:00:00,PRATE,surface,-105,32.5983,5.7e-06
2014-01-31 00:00:00,2014-01-31 00:00:00,PRATE,surface,-104.063,32.5983,7.1e-06
2014-01-31 00:00:00,2014-01-31 00:00:00,PRATE,surface,-103.125,32.5983,2.8e-06
2014-01-31 00:00:00,2014-01-31 00:00:00,PRATE,surface,-102.188,32.5983,3.3e-06
2014-01-31 00:00:00,2014-01-31 00:00:00,PRATE,surface,-101.25,32.5983,2e-06
2014-01-31 00:00:00,2014-01-31 00:00:00,PRATE,surface,-100.313,32.5983,2.4e-06
2014-01-31 00:00:00,2014-01-31 00:00:00,PRATE,surface,-99.3754,32.5983,2.5e-06
2014-01-31 00:00:00,2014-01-31 00:00:00,PRATE,surface,-98.4379,32.5983,3.4e-06
2014-01-31 00:00:00,2014-01-31 00:00:00,PRATE,surface,-97.5004,32.5983,5.8e-06
2014-01-31 00:00:00,2014-01-31 00:00:00,PRATE,surface,-96.5629,32.5983,5.6e-06
2014-01-31 00:00:00,2014-01-31 00:00:00,PRATE,surface,-95.6254,32.5983,2.8e-06
2014-01-31 00:00:00,2014-01-31 00:00:00,PRATE,surface,-94.6879,32.5983,3.2e-06
2014-01-31 00:00:00,2014-01-31 00:00:00,PRATE,surface,-93.7504,32.5983,6.1e-06
2014-01-31 00:00:00,2014-01-31 00:00:00,PRATE,surface,-92.8129,32.5983,8.8e-06
2014-01-31 00:00:00,2014-01-31 00:00:00,PRATE,surface,-107.813,33.5432,4.21e-05
2014-01-31 00:00:00,2014-01-31 00:00:00,PRATE,surface,-106.875,33.5432,3.38e-05
2014-01-31 00:00:00,2014-01-31 00:00:00,PRATE,surface,-105.938,33.5432,2.41e-05
2014-01-31 00:00:00,2014-01-31 00:00:00,PRATE,surface,-105,33.5432,5.9e-06
2014-01-31 00:00:00,2014-01-31 00:00:00,PRATE,surface,-104.063,33.5432,6e-06
2014-01-31 00:00:00,2014-01-31 00:00:00,PRATE,surface,-103.125,33.5432,8.4e-06
2014-01-31 00:00:00,2014-01-31 00:00:00,PRATE,surface,-102.188,33.5432,7.8e-06
2014-01-31 00:00:00,2014-01-31 00:00:00,PRATE,surface,-101.25,33.5432,9.9e-06
2014-01-31 00:00:00,2014-01-31 00:00:00,PRATE,surface,-100.313,33.5432,7.2e-06
2014-01-31 00:00:00,2014-01-31 00:00:00,PRATE,surface,-99.3754,33.5432,3.5e-06
2014-01-31 00:00:00,2014-01-31 00:00:00,PRATE,surface,-98.4379,33.5432,3.7e-06
2014-01-31 00:00:00,2014-01-31 00:00:00,PRATE,surface,-97.5004,33.5432,5.3e-06
2014-01-31 00:00:00,2014-01-31 00:00:00,PRATE,surface,-96.5629,33.5432,5.6e-06
2014-01-31 00:00:00,2014-01-31 00:00:00,PRATE,surface,-95.6254,33.5432,5.2e-06
2014-01-31 00:00:00,2014-01-31 00:00:00,PRATE,surface,-94.6879,33.5432,4.8e-06
2014-01-31 00:00:00,2014-01-31 00:00:00,PRATE,surface,-93.7504,33.5432,5.9e-06
2014-01-31 00:00:00,2014-01-31 00:00:00,PRATE,surface,-92.8129,33.5432,7.5e-06
2014-01-31 00:00:00,2014-01-31 00:00:00,PRATE,surface,-107.813,34.4881,3.32e-05
2014-01-31 00:00:00,2014-01-31 00:00:00,PRATE,surface,-106.875,34.4881,1.42e-05
2014-01-31 00:00:00,2014-01-31 00:00:00,PRATE,surface,-105.938,34.4881,1.21e-05
2014-01-31 00:00:00,2014-01-31 00:00:00,PRATE,surface,-105,34.4881,1.09e-05
2014-01-31 00:00:00,2014-01-31 00:00:00,PRATE,surface,-104.063,34.4881,7.9e-06
2014-01-31 00:00:00,2014-01-31 00:00:00,PRATE,surface,-103.125,34.4881,5.6e-06
2014-01-31 00:00:00,2014-01-31 00:00:00,PRATE,surface,-102.188,34.4881,1e-05
2014-01-31 00:00:00,2014-01-31 00:00:00,PRATE,surface,-101.25,34.4881,1.18e-05
2014-01-31 00:00:00,2014-01-31 00:00:00,PRATE,surface,-100.313,34.4881,9.1e-06
2014-01-31 00:00:00,2014-01-31 00:00:00,PRATE,surface,-99.3754,34.4881,6.8e-06
2014-01-31 00:00:00,2014-01-31 00:00:00,PRATE,surface,-98.4379,34.4881,6.9e-06
2014-01-31 00:00:00,2014-01-31 00:00:00,PRATE,surface,-97.5004,34.4881,8.5e-06
2014-01-31 00:00:00,2014-01-31 00:00:00,PRATE,surface,-96.5629,34.4881,1e-05
2014-01-31 00:00:00,2014-01-31 00:00:00,PRATE,surface,-95.6254,34.4881,1.08e-05
2014-01-31 00:00:00,2014-01-31 00:00:00,PRATE,surface,-94.6879,34.4881,1.18e-05
2014-01-31 00:00:00,2014-01-31 00:00:00,PRATE,surface,-93.7504,34.4881,1.24e-05
2014-01-31 00:00:00,2014-01-31 00:00:00,PRATE,surface,-92.8129,34.4881,1.07e-05
2014-01-31 00:00:00,2014-01-31 00:00:00,PRATE,surface,-107.813,35.4329,1.56e-05
2014-01-31 00:00:00,2014-01-31 00:00:00,PRATE,surface,-106.875,35.4329,1.16e-05
2014-01-31 00:00:00,2014-01-31 00:00:00,PRATE,surface,-105.938,35.4329,1.14e-05
2014-01-31 00:00:00,2014-01-31 00:00:00,PRATE,surface,-105,35.4329,1.98e-05
2014-01-31 00:00:00,2014-01-31 00:00:00,PRATE,surface,-104.063,35.4329,8.1e-06
2014-01-31 00:00:00,2014-01-31 00:00:00,PRATE,surface,-103.125,35.4329,6e-06
2014-01-31 00:00:00,2014-01-31 00:00:00,PRATE,surface,-102.188,35.4329,6.5e-06
2014-01-31 00:00:00,2014-01-31 00:00:00,PRATE,surface,-101.25,35.4329,9.2e-06
2014-01-31 00:00:00,2014-01-31 00:00:00,PRATE,surface,-100.313,35.4329,1.03e-05
2014-01-31 00:00:00,2014-01-31 00:00:00,PRATE,surface,-99.3754,35.4329,8.8e-06
2014-01-31 00:00:00,2014-01-31 00:00:00,PRATE,surface,-98.4379,35.4329,8.4e-06
2014-01-31 00:00:00,2014-01-31 00:00:00,PRATE,surface,-97.5004,35.4329,8.9e-06
2014-01-31 00:00:00,2014-01-31 00:00:00,PRATE,surface,-96.5629,35.4329,9.6e-06
2014-01-31 00:00:00,2014-01-31 00:00:00,PRATE,surface,-95.6254,35.4329,8.5e-06
2014-01-31 00:00:00,2014-01-31 00:00:00,PRATE,surface,-94.6879,35.4329,8.3e-06
2014-01-31 00:00:00,2014-01-31 00:00:00,PRATE,surface,-93.7504,35.4329,1.51e-05
2014-01-31 00:00:00,2014-01-31 00:00:00,PRATE,surface,-92.8129,35.4329,1.57e-05
2014-01-31 00:00:00,2014-01-31 00:00:00,PRATE,surface,-107.813,36.3778,1.61e-05
2014-01-31 00:00:00,2014-01-31 00:00:00,PRATE,surface,-106.875,36.3778,2.53e-05
2014-01-31 00:00:00,2014-01-31 00:00:00,PRATE,surface,-105.938,36.3778,2.55e-05
2014-01-31 00:00:00,2014-01-31 00:00:00,PRATE,surface,-105,36.3778,2.71e-05
2014-01-31 00:00:00,2014-01-31 00:00:00,PRATE,surface,-104.063,36.3778,1.66e-05
2014-01-31 00:00:00,2014-01-31 00:00:00,PRATE,surface,-103.125,36.3778,8.5e-06
2014-01-31 00:00:00,2014-01-31 00:00:00,PRATE,surface,-102.188,36.3778,8.8e-06
2014-01-31 00:00:00,2014-01-31 00:00:00,PRATE,surface,-101.25,36.3778,6.9e-06
2014-01-31 00:00:00,2014-01-31 00:00:00,PRATE,surface,-100.313,36.3778,7.6e-06
2014-01-31 00:00:00,2014-01-31 00:00:00,PRATE,surface,-99.3754,36.3778,7.5e-06
2014-01-31 00:00:00,2014-01-31 00:00:00,PRATE,surface,-98.4379,36.3778,6.4e-06
2014-01-31 00:00:00,2014-01-31 00:00:00,PRATE,surface,-97.5004,36.3778,7.1e-06
2014-01-31 00:00:00,2014-01-31 00:00:00,PRATE,surface,-96.5629,36.3778,8.9e-06
2014-01-31 00:00:00,2014-01-31 00:00:00,PRATE,surface,-95.6254,36.3778,9.8e-06
2014-01-31 00:00:00,2014-01-31 00:00:00,PRATE,surface,-94.6879,36.3778,9.8e-06
2014-01-31 00:00:00,2014-01-31 00:00:00,PRATE,surface,-93.7504,36.3778,1.03e-05
2014-01-31 00:00:00,2014-01-31 00:00:00,PRATE,surface,-92.8129,36.3778,1.47e-05
