2016-11-26 00:00:00,2016-11-26 00:00:00,TMP,surface,-107.813,25.0393,302.538
2016-11-26 00:00:00,2016-11-26 00:00:00,TMP,surface,-106.875,25.0393,294.88
2016-11-26 00:00:00,2016-11-26 00:00:00,TMP,surface,-105.938,25.0393,289.261
2016-11-26 00:00:00,2016-11-26 00:00:00,TMP,surface,-105,25.0393,287.383
2016-11-26 00:00:00,2016-11-26 00:00:00,TMP,surface,-104.063,25.0393,291.322
2016-11-26 00:00:00,2016-11-26 00:00:00,TMP,surface,-103.125,25.0393,294.89
2016-11-26 00:00:00,2016-11-26 00:00:00,TMP,surface,-102.188,25.0393,294.228
2016-11-26 00:00:00,2016-11-26 00:00:00,TMP,surface,-101.25,25.0393,292.112
2016-11-26 00:00:00,2016-11-26 00:00:00,TMP,surface,-100.313,25.0393,293.146
2016-11-26 00:00:00,2016-11-26 00:00:00,TMP,surface,-99.3754,25.0393,297.476
2016-11-26 00:00:00,2016-11-26 00:00:00,TMP,surface,-98.4379,25.0393,301.22
2016-11-26 00:00:00,2016-11-26 00:00:00,TMP,surface,-97.5004,25.0393,302.532
2016-11-26 00:00:00,2016-11-26 00:00:00,TMP,surface,-96.5629,25.0393,303.028
2016-11-26 00:00:00,2016-11-26 00:00:00,TMP,surface,-95.6254,25.0393,303.536
2016-11-26 00:00:00,2016-11-26 00:00:00,TMP,surface,-94.6879,25.0393,303.802
2016-11-26 00:00:00,2016-11-26 00:00:00,TMP,surface,-93.7504,25.0393,303.687
2016-11-26 00:00:00,2016-11-26 00:00:00,TMP,surface,-92.8129,25.0393,303.559
2016-11-26 00:00:00,2016-11-26 00:00:00,TMP,surface,-107.813,25.9842,297.354
2016-11-26 00:00:00,2016-11-26 00:00:00,TMP,surface,-106.875,25.9842,290.922
2016-11-26 00:00:00,2016-11-26 00:00:00,TMP,surface,-105.938,25.9842,287.968
2016-11-26 00:00:00,2016-11-26 00:00:00,TMP,surface,-105,25.9842,289.492
2016-11-26 00:00:00,2016-11-26 00:00:00,TMP,surface,-104.063,25.9842,295.258
2016-11-26 00:00:00,2016-11-26 00:00:00,TMP,surface,-103.125,25.9842,297.428
2016-11-26 00:00:00,2016-11-26 00:00:00,TMP,surface,-102.188,25.9842,296.592
2016-11-26 00:00:00,2016-11-26 00:00:00,TMP,surface,-101.25,25.9842,295.792
2016-11-26 00:00:00,2016-11-26 00:00:00,TMP,surface,-100.313,25.9842,297.018
2016-11-26 00:00:00,2016-11-26 00:00:00,TMP,surface,-99.3754,25.9842,300.65
2016-11-26 00:00:00,2016-11-26 00:00:00,TMP,surface,-98.4379,25.9842,302.448
2016-11-26 00:00:00,2016-11-26 00:00:00,TMP,surface,-97.5004,25.9842,302.09
2016-11-26 00:00:00,2016-11-26 00:00:00,TMP,surface,-96.5629,25.9842,302.368
2016-11-26 00:00:00,2016-11-26 00:00:00,TMP,surface,-95.6254,25.9842,303.268
2016-11-26 00:00:00,2016-11-26 00:00:00,TMP,surface,-94.6879,25.9842,303.44
2016-11-26 00:00:00,2016-11-26 00:00:00,TMP,surface,-93.7504,25.9842,303.405
2016-11-26 00:00:00,2016-11-26 00:00:00,TMP,surface,-92.8129,25.9842,303.415
2016-11-26 00:00:00,2016-11-26 00:00:00,TMP,surface,-107.813,26.929,292.18
2016-11-26 00:00:00,2016-11-26 00:00:00,TMP,surface,-106.875,26.929,288.436
2016-11-26 00:00:00,2016-11-26 00:00:00,TMP,surface,-105.938,26.929,289.239
2016-11-26 00:00:00,2016-11-26 00:00:00,TMP,surface,-105,26.929,292.967
2016-11-26 00:00:00,2016-11-26 00:00:00,TMP,surface,-104.063,26.929,296.711
2016-11-26 00:00:00,2016-11-26 00:00:00,TMP,surface,-103.125,26.929,296.413
2016-11-26 00:00:00,2016-11-26 00:00:00,TMP,surface,-102.188,26.929,296.352
2016-11-26 00:00:00,2016-11-26 00:00:00,TMP,surface,-101.25,26.929,297.61
2016-11-26 00:00:00,2016-11-26 00:00:00,TMP,surface,-100.313,26.929,300.34
2016-11-26 00:00:00,2016-11-26 00:00:00,TMP,surface,-99.3754,26.929,302.381
2016-11-26 00:00:00,2016-11-26 00:00:00,TMP,surface,-98.4379,26.929,301.965
2016-11-26 00:00:00,2016-11-26 00:00:00,TMP,surface,-97.5004,26.929,300.522
2016-11-26 00:00:00,2016-11-26 00:00:00,TMP,surface,-96.5629,26.929,301.482
2016-11-26 00:00:00,2016-11-26 00:00:00,TMP,surface,-95.6254,26.929,302.871
2016-11-26 00:00:00,2016-11-26 00:00:00,TMP,surface,-94.6879,26.929,303.274
2016-11-26 00:00:00,2016-11-26 00:00:00,TMP,surface,-93.7504,26.929,303.188
2016-11-26 00:00:00,2016-11-26 00:00:00,TMP,surface,-92.8129,26.929,303.095
2016-11-26 00:00:00,2016-11-26 00:00:00,TMP,surface,-107.813,27.8739,289.764
2016-11-26 00:00:00,2016-11-26 00:00:00,TMP,surface,-106.875,27.8739,287.863
2016-11-26 00:00:00,2016-11-26 00:00:00,TMP,surface,-105.938,27.8739,290.813
2016-11-26 00:00:00,2016-11-26 00:00:00,TMP,surface,-105,27.8739,295.159
2016-11-26 00:00:00,2016-11-26 00:00:00,TMP,surface,-104.063,27.8739,296.071
2016-11-26 00:00:00,2016-11-26 00:00:00,TMP,surface,-103.125,27.8739,294.868
2016-11-26 00:00:00,2016-11-26 00:00:00,TMP,surface,-102.188,27.8739,295.213
2016-11-26 00:00:00,2016-11-26 00:00:00,TMP,surface,-101.25,27.8739,298.308
2016-11-26 00:00:00,2016-11-26 00:00:00,TMP,surface,-100.313,27.8739,301.274
2016-11-26 00:00:00,2016-11-26 00:00:00,TMP,surface,-99.3754,27.8739,302.029
2016-11-26 00:00:00,2016-11-26 00:00:00,TMP,surface,-98.4379,27.8739,301.408
2016-11-26 00:00:00,2016-11-26 00:00:00,TMP,surface,-97.5004,27.8739,301.197
2016-11-26 00:00:00,2016-11-26 00:00:00,TMP,surface,-96.5629,27.8739,301.604
2016-11-26 00:00:00,2016-11-26 00:00:00,TMP,surface,-95.6254,27.8739,302.096
2016-11-26 00:00:00,2016-11-26 00:00:00,TMP,surface,-94.6879,27.8739,302.56
2016-11-26 00:00:00,2016-11-26 00:00:00,TMP,surface,-93.7504,27.8739,302.688
2016-11-26 00:00:00,2016-11-26 00:00:00,TMP,surface,-92.8129,27.8739,302.624
2016-11-26 00:00:00,2016-11-26 00:00:00,TMP,surface,-107.813,28.8188,288.541
2016-11-26 00:00:00,2016-11-26 00:00:00,TMP,surface,-106.875,28.8188,288.592
2016-11-26 00:00:00,2016-11-26 00:00:00,TMP,surface,-105.938,28.8188,292.535
2016-11-26 00:00:00,2016-11-26 00:00:00,TMP,surface,-105,28.8188,295.837
2016-11-26 00:00:00,2016-11-26 00:00:00,TMP,surface,-104.063,28.8188,294.663
2016-11-26 00:00:00,2016-11-26 00:00:00,TMP,surface,-103.125,28.8188,293.786
2016-11-26 00:00:00,2016-11-26 00:00:00,TMP,surface,-102.188,28.8188,294.989
2016-11-26 00:00:00,2016-11-26 00:00:00,TMP,surface,-101.25,28.8188,298.154
2016-11-26 00:00:00,2016-11-26 00:00:00,TMP,surface,-100.313,28.8188,300.234
2016-11-26 00:00:00,2016-11-26 00:00:00,TMP,surface,-99.3754,28.8188,300.34
2016-11-26 00:00:00,2016-11-26 00:00:00,TMP,surface,-98.4379,28.8188,299.978
2016-11-26 00:00:00,2016-11-26 00:00:00,TMP,surface,-97.5004,28.8188,300.106
2016-11-26 00:00:00,2016-11-26 00:00:00,TMP,surface,-96.5629,28.8188,300.471
2016-11-26 00:00:00,2016-11-26 00:00:00,TMP,surface,-95.6254,28.8188,300.906
2016-11-26 00:00:00,2016-11-26 00:00:00,TMP,surface,-94.6879,28.8188,301.351
2016-11-26 00:00:00,2016-11-26 00:00:00,TMP,surface,-93.7504,28.8188,301.434
2016-11-26 00:00:00,2016-11-26 00:00:00,TMP,surface,-92.8129,28.8188,301.408
2016-11-26 00:00:00,2016-11-26 00:00:00,TMP,surface,-107.813,29.7637,291.05
2016-11-26 00:00:00,2016-11-26 00:00:00,TMP,surface,-106.875,29.7637,291.888
2016-11-26 00:00:00,2016-11-26 00:00:00,TMP,surface,-105.938,29.7637,294.608
2016-11-26 00:00:00,2016-11-26 00:00:00,TMP,surface,-105,29.7637,295.274
2016-11-26 00:00:00,2016-11-26 00:00:00,TMP,surface,-104.063,29.7637,294.532
2016-11-26 00:00:00,2016-11-26 00:00:00,TMP,surface,-103.125,29.7637,295.002
2016-11-26 00:00:00,2016-11-26 00:00:00,TMP,surface,-102.188,29.7637,296.765
2016-11-26 00:00:00,2016-11-26 00:00:00,TMP,surface,-101.25,29.7637,298.013
2016-11-26 00:00:00,2016-11-26 00:00:00,TMP,surface,-100.313,29.7637,298.09
2016-11-26 00:00:00,2016-11-26 00:00:00,TMP,surface,-99.3754,29.7637,297.962
2016-11-26 00:00:00,2016-11-26 00:00:00,TMP,surface,-98.4379,29.7637,298.541
2016-11-26 00:00:00,2016-11-26 00:00:00,TMP,surface,-97.5004,29.7637,299.556
2016-11-26 00:00:00,2016-11-26 00:00:00,TMP,surface,-96.5629,29.7637,300.173
2016-11-26 00:00:00,2016-11-26 00:00:00,TMP,surface,-95.6254,29.7637,300.208
2016-11-26 00:00:00,2016-11-26 00:00:00,TMP,surface,-94.6879,29.7637,300.16
2016-11-26 00:00:00,2016-11-26 00:00:00,TMP,surface,-93.7504,29.7637,300.394
2016-11-26 00:00:00,2016-11-26 00:00:00,TMP,surface,-92.8129,29.7637,300.762
2016-11-26 00:00:00,2016-11-26 00:00:00,TMP,surface,-107.813,30.7085,295.127
2016-11-26 00:00:00,2016-11-26 00:00:00,TMP,surface,-106.875,30.7085,296.026
2016-11-26 00:00:00,2016-11-26 00:00:00,TMP,surface,-105.938,30.7085,295.607
2016-11-26 00:00:00,2016-11-26 00:00:00,TMP,surface,-105,30.7085,294.455
2016-11-26 00:00:00,2016-11-26 00:00:00,TMP,surface,-104.063,30.7085,293.872
2016-11-26 00:00:00,2016-11-26 00:00:00,TMP,surface,-103.125,30.7085,295.61
2016-11-26 00:00:00,2016-11-26 00:00:00,TMP,surface,-102.188,30.7085,297.274
2016-11-26 00:00:00,2016-11-26 00:00:00,TMP,surface,-101.25,30.7085,297.402
2016-11-26 00:00:00,2016-11-26 00:00:00,TMP,surface,-100.313,30.7085,296.868
2016-11-26 00:00:00,2016-11-26 00:00:00,TMP,surface,-99.3754,30.7085,296.823
2016-11-26 00:00:00,2016-11-26 00:00:00,TMP,surface,-98.4379,30.7085,297.895
2016-11-26 00:00:00,2016-11-26 00:00:00,TMP,surface,-97.5004,30.7085,299.424
2016-11-26 00:00:00,2016-11-26 00:00:00,TMP,surface,-96.5629,30.7085,300.084
2016-11-26 00:00:00,2016-11-26 00:00:00,TMP,surface,-95.6254,30.7085,299.789
2016-11-26 00:00:00,2016-11-26 00:00:00,TMP,surface,-94.6879,30.7085,299.565
2016-11-26 00:00:00,2016-11-26 00:00:00,TMP,surface,-93.7504,30.7085,299.642
2016-11-26 00:00:00,2016-11-26 00:00:00,TMP,surface,-92.8129,30.7085,299.792
2016-11-26 00:00:00,2016-11-26 00:00:00,TMP,surface,-107.813,31.6534,296.266
2016-11-26 00:00:00,2016-11-26 00:00:00,TMP,surface,-106.875,31.6534,296.186
2016-11-26 00:00:00,2016-11-26 00:00:00,TMP,surface,-105.938,31.6534,295.239
2016-11-26 00:00:00,2016-11-26 00:00:00,TMP,surface,-105,31.6534,294.362
2016-11-26 00:00:00,2016-11-26 00:00:00,TMP,surface,-104.063,31.6534,294.653
2016-11-26 00:00:00,2016-11-26 00:00:00,TMP,surface,-103.125,31.6534,295.866
2016-11-26 00:00:00,2016-11-26 00:00:00,TMP,surface,-102.188,31.6534,296.89
2016-11-26 00:00:00,2016-11-26 00:00:00,TMP,surface,-101.25,31.6534,296.916
2016-11-26 00:00:00,2016-11-26 00:00:00,TMP,surface,-100.313,31.6534,296.74
2016-11-26 00:00:00,2016-11-26 00:00:00,TMP,surface,-99.3754,31.6534,297.024
2016-11-26 00:00:00,2016-11-26 00:00:00,TMP,surface,-98.4379,31.6534,297.821
2016-11-26 00:00:00,2016-11-26 00:00:00,TMP,surface,-97.5004,31.6534,298.957
2016-11-26 00:00:00,2016-11-26 00:00:00,TMP,surface,-96.5629,31.6534,299.636
2016-11-26 00:00:00,2016-11-26 00:00:00,TMP,surface,-95.6254,31.6534,299.591
2016-11-26 00:00:00,2016-11-26 00:00:00,TMP,surface,-94.6879,31.6534,299.456
2016-11-26 00:00:00,2016-11-26 00:00:00,TMP,surface,-93.7504,31.6534,299.424
2016-11-26 00:00:00,2016-11-26 00:00:00,TMP,surface,-92.8129,31.6534,299.552
2016-11-26 00:00:00,2016-11-26 00:00:00,TMP,surface,-107.813,32.5983,293.597
2016-11-26 00:00:00,2016-11-26 00:00:00,TMP,surface,-106.875,32.5983,293.799
2016-11-26 00:00:00,2016-11-26 00:00:00,TMP,surface,-105.938,32.5983,293.661
2016-11-26 00:00:00,2016-11-26 00:00:00,TMP,surface,-105,32.5983,293.293
2016-11-26 00:00:00,2016-11-26 00:00:00,TMP,surface,-104.063,32.5983,294.653
2016-11-26 00:00:00,2016-11-26 00:00:00,TMP,surface,-103.125,32.5983,295.492
2016-11-26 00:00:00,2016-11-26 00:00:00,TMP,surface,-102.188,32.5983,295.783
2016-11-26 00:00:00,2016-11-26 00:00:00,TMP,surface,-101.25,32.5983,296.272
2016-11-26 00:00:00,2016-11-26 00:00:00,TMP,surface,-100.313,32.5983,297.082
2016-11-26 00:00:00,2016-11-26 00:00:00,TMP,surface,-99.3754,32.5983,297.847
2016-11-26 00:00:00,2016-11-26 00:00:00,TMP,surface,-98.4379,32.5983,298.247
2016-11-26 00:00:00,2016-11-26 00:00:00,TMP,surface,-97.5004,32.5983,298.692
2016-11-26 00:00:00,2016-11-26 00:00:00,TMP,surface,-96.5629,32.5983,299.258
2016-11-26 00:00:00,2016-11-26 00:00:00,TMP,surface,-95.6254,32.5983,299.53
2016-11-26 00:00:00,2016-11-26 00:00:00,TMP,surface,-94.6879,32.5983,299.344
2016-11-26 00:00:00,2016-11-26 00:00:00,TMP,surface,-93.7504,32.5983,299.018
2016-11-26 00:00:00,2016-11-26 00:00:00,TMP,surface,-92.8129,32.5983,299.133
2016-11-26 00:00:00,2016-11-26 00:00:00,TMP,surface,-107.813,33.5432,290.052
2016-11-26 00:00:00,2016-11-26 00:00:00,TMP,surface,-106.875,33.5432,291.082
2016-11-26 00:00:00,2016-11-26 00:00:00,TMP,surface,-105.938,33.5432,291.716
2016-11-26 00:00:00,2016-11-26 00:00:00,TMP,surface,-105,33.5432,292.333
2016-11-26 00:00:00,2016-11-26 00:00:00,TMP,surface,-104.063,33.5432,294.007
2016-11-26 00:00:00,2016-11-26 00:00:00,TMP,surface,-103.125,33.5432,294.397
2016-11-26 00:00:00,2016-11-26 00:00:00,TMP,surface,-102.188,33.5432,294.253
2016-11-26 00:00:00,2016-11-26 00:00:00,TMP,surface,-101.25,33.5432,295.2
2016-11-26 00:00:00,2016-11-26 00:00:00,TMP,surface,-100.313,33.5432,296.842
2016-11-26 00:00:00,2016-11-26 00:00:00,TMP,surface,-99.3754,33.5432,298.058
2016-11-26 00:00:00,2016-11-26 00:00:00,TMP,surface,-98.4379,33.5432,298.192
2016-11-26 00:00:00,2016-11-26 00:00:00,TMP,surface,-97.5004,33.5432,298.055
2016-11-26 00:00:00,2016-11-26 00:00:00,TMP,surface,-96.5629,33.5432,298.452
2016-11-26 00:00:00,2016-11-26 00:00:00,TMP,surface,-95.6254,33.5432,298.813
2016-11-26 00:00:00,2016-11-26 00:00:00,TMP,surface,-94.6879,33.5432,298.452
2016-11-26 00:00:00,2016-11-26 00:00:00,TMP,surface,-93.7504,33.5432,297.898
2016-11-26 00:00:00,2016-11-26 00:00:00,TMP,surface,-92.8129,33.5432,297.652
2016-11-26 00:00:00,2016-11-26 00:00:00,TMP,surface,-107.813,34.4881,288.484
2016-11-26 00:00:00,2016-11-26 00:00:00,TMP,surface,-106.875,34.4881,289.684
2016-11-26 00:00:00,2016-11-26 00:00:00,TMP,surface,-105.938,34.4881,290.522
2016-11-26 00:00:00,2016-11-26 00:00:00,TMP,surface,-105,34.4881,291.52
2016-11-26 00:00:00,2016-11-26 00:00:00,TMP,surface,-104.063,34.4881,292.57
2016-11-26 00:00:00,2016-11-26 00:00:00,TMP,surface,-103.125,34.4881,293.293
2016-11-26 00:00:00,2016-11-26 00:00:00,TMP,surface,-102.188,34.4881,293.831
2016-11-26 00:00:00,2016-11-26 00:00:00,TMP,surface,-101.25,34.4881,294.503
2016-11-26 00:00:00,2016-11-26 00:00:00,TMP,surface,-100.313,34.4881,295.831
2016-11-26 00:00:00,2016-11-26 00:00:00,TMP,surface,-99.3754,34.4881,296.804
2016-11-26 00:00:00,2016-11-26 00:00:00,TMP,surface,-98.4379,34.4881,297.127
2016-11-26 00:00:00,2016-11-26 00:00:00,TMP,surface,-97.5004,34.4881,297.159
2016-11-26 00:00:00,2016-11-26 00:00:00,TMP,surface,-96.5629,34.4881,297.239
2016-11-26 00:00:00,2016-11-26 00:00:00,TMP,surface,-95.6254,34.4881,297.156
2016-11-26 00:00:00,2016-11-26 00:00:00,TMP,surface,-94.6879,34.4881,296.535
2016-11-26 00:00:00,2016-11-26 00:00:00,TMP,surface,-93.7504,34.4881,295.84
2016-11-26 00:00:00,2016-11-26 00:00:00,TMP,surface,-92.8129,34.4881,295.728
2016-11-26 00:00:00,2016-11-26 00:00:00,TMP,surface,-107.813,35.4329,288.637
2016-11-26 00:00:00,2016-11-26 00:00:00,TMP,surface,-106.875,35.4329,288.717
2016-11-26 00:00:00,2016-11-26 00:00:00,TMP,surface,-105.938,35.4329,289.008
2016-11-26 00:00:00,2016-11-26 00:00:00,TMP,surface,-105,35.4329,289.869
2016-11-26 00:00:00,2016-11-26 00:00:00,TMP,surface,-104.063,35.4329,291.85
2016-11-26 00:00:00,2016-11-26 00:00:00,TMP,surface,-103.125,35.4329,293.216
2016-11-26 00:00:00,2016-11-26 00:00:00,TMP,surface,-102.188,35.4329,293.658
2016-11-26 00:00:00,2016-11-26 00:00:00,TMP,surface,-101.25,35.4329,294.061
2016-11-26 00:00:00,2016-11-26 00:00:00,TMP,surface,-100.313,35.4329,294.608
2016-11-26 00:00:00,2016-11-26 00:00:00,TMP,surface,-99.3754,35.4329,295.258
2016-11-26 00:00:00,2016-11-26 00:00:00,TMP,surface,-98.4379,35.4329,295.712
2016-11-26 00:00:00,2016-11-26 00:00:00,TMP,surface,-97.5004,35.4329,295.952
2016-11-26 00:00:00,2016-11-26 00:00:00,TMP,surface,-96.5629,35.4329,296.141
2016-11-26 00:00:00,2016-11-26 00:00:00,TMP,surface,-95.6254,35.4329,296.02
2016-11-26 00:00:00,2016-11-26 00:00:00,TMP,surface,-94.6879,35.4329,295.306
2016-11-26 00:00:00,2016-11-26 00:00:00,TMP,surface,-93.7504,35.4329,294.41
2016-11-26 00:00:00,2016-11-26 00:00:00,TMP,surface,-92.8129,35.4329,293.866
2016-11-26 00:00:00,2016-11-26 00:00:00,TMP,surface,-107.813,36.3778,287.936
2016-11-26 00:00:00,2016-11-26 00:00:00,TMP,surface,-106.875,36.3778,285.661
2016-11-26 00:00:00,2016-11-26 00:00:00,TMP,surface,-105.938,36.3778,286.468
2016-11-26 00:00:00,2016-11-26 00:00:00,TMP,surface,-105,36.3778,287.879
2016-11-26 00:00:00,2016-11-26 00:00:00,TMP,surface,-104.063,36.3778,289.786
2016-11-26 00:00:00,2016-11-26 00:00:00,TMP,surface,-103.125,36.3778,291.671
2016-11-26 00:00:00,2016-11-26 00:00:00,TMP,surface,-102.188,36.3778,293.056
2016-11-26 00:00:00,2016-11-26 00:00:00,TMP,surface,-101.25,36.3778,293.629
2016-11-26 00:00:00,2016-11-26 00:00:00,TMP,surface,-100.313,36.3778,293.991
2016-11-26 00:00:00,2016-11-26 00:00:00,TMP,surface,-99.3754,36.3778,294.256
2016-11-26 00:00:00,2016-11-26 00:00:00,TMP,surface,-98.4379,36.3778,294.429
2016-11-26 00:00:00,2016-11-26 00:00:00,TMP,surface,-97.5004,36.3778,294.551
2016-11-26 00:00:00,2016-11-26 00:00:00,TMP,surface,-96.5629,36.3778,294.701
2016-11-26 00:00:00,2016-11-26 00:00:00,TMP,surface,-95.6254,36.3778,294.567
2016-11-26 00:00:00,2016-11-26 00:00:00,TMP,surface,-94.6879,36.3778,293.77
2016-11-26 00:00:00,2016-11-26 00:00:00,TMP,surface,-93.7504,36.3778,292.826
2016-11-26 00:00:00,2016-11-26 00:00:00,TMP,surface,-92.8129,36.3778,292.57
2016-11-26 00:00:00,2016-11-26 00:00:00,PRATE,surface,-107.813,25.0393,8.6e-06
2016-11-26 00:00:00,2016-11-26 00:00:00,PRATE,surface,-106.875,25.0393,6.72e-05
2016-11-26 00:00:00,2016-11-26 00:00:00,PRATE,surface,-105.938,25.0393,0.0001191
2016-11-26 00:00:00,2016-11-26 00:00:00,PRATE,surface,-105,25.0393,8.02e-05
2016-11-26 00:00:00,2016-11-26 00:00:00,PRATE,surface,-104.063,25.0393,3.82e-05
2016-11-26 00:00:00,2016-11-26 00:00:00,PRATE,surface,-103.125,25.0393,1.53e-05
2016-11-26 00:00:00,2016-11-26 00:00:00,PRATE,surface,-102.188,25.0393,2.93e-05
2016-11-26 00:00:00,2016-11-26 00:00:00,PRATE,surface,-101.25,25.0393,3.96e-05
2016-11-26 00:00:00,2016-11-26 00:00:00,PRATE,surface,-100.313,25.0393,3.71e-05
2016-11-26 00:00:00,2016-11-26 00:00:00,PRATE,surface,-99.3754,25.0393,1.99e-05
2016-11-26 00:00:00,2016-11-26 00:00:00,PRATE,surface,-98.4379,25.0393,1.07e-05
2016-11-26 00:00:00,2016-11-26 00:00:00,PRATE,surface,-97.5004,25.0393,2.27e-05
2016-11-26 00:00:00,2016-11-26 00:00:00,PRATE,surface,-96.5629,25.0393,4.37e-05
2016-11-26 00:00:00,2016-11-26 00:00:00,PRATE,surface,-95.6254,25.0393,7.32e-05
2016-11-26 00:00:00,2016-11-26 00:00:00,PRATE,surface,-94.6879,25.0393,7.77e-05
2016-11-26 00:00:00,2016-11-26 00:00:00,PRATE,surface,-93.7504,25.0393,8.28e-05
2016-11-26 00:00:00,2016-11-26 00:00:00,PRATE,surface,-92.8129,25.0393,9.57e-05
2016-11-26 00:00:00,2016-11-26 00:00:00,PRATE,surface,-107.813,25.9842,3.66e-05
2016-11-26 00:00:00,2016-11-26 00:00:00,PRATE,surface,-106.875,25.9842,8.23e-05
2016-11-26 00:00:00,2016-11-26 00:00:00,PRATE,surface,-105.938,25.9842,7.35e-05
2016-11-26 00:00:00,2016-11-26 00:00:00,PRATE,surface,-105,25.9842,5.85e-05
2016-11-26 00:00:00,2016-11-26 00:00:00,PRATE,surface,-104.063,25.9842,7.7e-06
2016-11-26 00:00:00,2016-11-26 00:00:00,PRATE,surface,-103.125,25.9842,3.3e-06
2016-11-26 00:00:00,2016-11-26 00:00:00,PRATE,surface,-102.188,25.9842,4.7e-06
2016-11-26 00:00:00,2016-11-26 00:00:00,PRATE,surface,-101.25,25.9842,6.6e-06
2016-11-26 00:00:00,2016-11-26 00:00:00,PRATE,surface,-100.313,25.9842,8.8e-06
2016-11-26 00:00:00,2016-11-26 00:00:00,PRATE,surface,-99.3754,25.9842,1.21e-05
2016-11-26 00:00:00,2016-11-26 00:00:00,PRATE,surface,-98.4379,25.9842,1.25e-05
2016-11-26 00:00:00,2016-11-26 00:00:00,PRATE,surface,-97.5004,25.9842,2.65e-05
2016-11-26 00:00:00,2016-11-26 00:00:00,PRATE,surface,-96.5629,25.9842,5.21e-05
2016-11-26 00:00:00,2016-11-26 00:00:00,PRATE,surface,-95.6254,25.9842,9.19e-05
2016-11-26 00:00:00,2016-11-26 00:00:00,PRATE,surface,-94.6879,25.9842,8.89e-05
2016-11-26 00:00:00,2016-11-26 00:00:00,PRATE,surface,-93.7504,25.9842,8.44e-05
2016-11-26 00:00:00,2016-11-26 00:00:00,PRATE,surface,-92.8129,25.9842,7.43e-05
2016-11-26 00:00:00,2016-11-26 00:00:00,PRATE,surface,-107.813,26.929,6.7e-05
2016-11-26 00:00:00,2016-11-26 00:00:00,PRATE,surface,-106.875,26.929,5.54e-05
2016-11-26 00:00:00,2016-11-26 00:00:00,PRATE,surface,-105.938,26.929,4.09e-05
2016-11-26 00:00:00,2016-11-26 00:00:00,PRATE,surface,-105,26.929,2.47e-05
2016-11-26 00:00:00,2016-11-26 00:00:00,PRATE,surface,-104.063,26.929,5.8e-06
2016-11-26 00:00:00,2016-11-26 00:00:00,PRATE,surface,-103.125,26.929,1.78e-05
2016-11-26 00:00:00,2016-11-26 00:00:00,PRATE,surface,-102.188,26.929,9.4e-06
2016-11-26 00:00:00,2016-11-26 00:00:00,PRATE,surface,-101.25,26.929,2.4e-06
2016-11-26 00:00:00,2016-11-26 00:00:00,PRATE,surface,-100.313,26.929,1.3e-06
2016-11-26 00:00:00,2016-11-26 00:00:00,PRATE,surface,-99.3754,26.929,5.6e-06
2016-11-26 00:00:00,2016-11-26 00:00:00,PRATE,surface,-98.4379,26.929,8.6e-06
2016-11-26 00:00:00,2016-11-26 00:00:00,PRATE,surface,-97.5004,26.929,3.56e-05
2016-11-26 00:00:00,2016-11-26 00:00:00,PRATE,surface,-96.5629,26.929,4.45e-05
2016-11-26 00:00:00,2016-11-26 00:00:00,PRATE,surface,-95.6254,26.929,7.02e-05
2016-11-26 00:00:00,2016-11-26 00:00:00,PRATE,surface,-94.6879,26.929,6.4e-05
2016-11-26 00:00:00,2016-11-26 00:00:00,PRATE,surface,-93.7504,26.929,6.89e-05
2016-11-26 00:00:00,2016-11-26 00:00:00,PRATE,surface,-92.8129,26.929,6.88e-05
2016-11-26 00:00:00,2016-11-26 00:00:00,PRATE,surface,-107.813,27.8739,6.1e-05
2016-11-26 00:00:00,2016-11-26 00:00:00,PRATE,surface,-106.875,27.8739,4.84e-05
2016-11-26 00:00:00,2016-11-26 00:00:00,PRATE,surface,-105.938,27.8739,2.58e-05
2016-11-26 00:00:00,2016-11-26 00:00:00,PRATE,surface,-105,27.8739,6.9e-06
2016-11-26 00:00:00,2016-11-26 00:00:00,PRATE,surface,-104.063,27.8739,1.38e-05
2016-11-26 00:00:00,2016-11-26 00:00:00,PRATE,surface,-103.125,27.8739,4.03e-05
2016-11-26 00:00:00,2016-11-26 00:00:00,PRATE,surface,-102.188,27.8739,1.72e-05
2016-11-26 00:00:00,2016-11-26 00:00:00,PRATE,surface,-101.25,27.8739,4.2e-06
2016-11-26 00:00:00,2016-11-26 00:00:00,PRATE,surface,-100.313,27.8739,2.3e-06
2016-11-26 00:00:00,2016-11-26 00:00:00,PRATE,surface,-99.3754,27.8739,4.9e-06
2016-11-26 00:00:00,2016-11-26 00:00:00,PRATE,surface,-98.4379,27.8739,1.24e-05
2016-11-26 00:00:00,2016-11-26 00:00:00,PRATE,surface,-97.5004,27.8739,1.75e-05
2016-11-26 00:00:00,2016-11-26 00:00:00,PRATE,surface,-96.5629,27.8739,2.12e-05
2016-11-26 00:00:00,2016-11-26 00:00:00,PRATE,surface,-95.6254,27.8739,3.05e-05
2016-11-26 00:00:00,2016-11-26 00:00:00,PRATE,surface,-94.6879,27.8739,5.04e-05
2016-11-26 00:00:00,2016-11-26 00:00:00,PRATE,surface,-93.7504,27.8739,7.57e-05
2016-11-26 00:00:00,2016-11-26 00:00:00,PRATE,surface,-92.8129,27.8739,7.51e-05
2016-11-26 00:00:00,2016-11-26 00:00:00,PRATE,surface,-107.813,28.8188,4.43e-05
2016-11-26 00:00:00,2016-11-26 00:00:00,PRATE,surface,-106.875,28.8188,4.29e-05
2016-11-26 00:00:00,2016-11-26 00:00:00,PRATE,surface,-105.938,28.8188,2.07e-05
2016-11-26 00:00:00,2016-11-26 00:00:00,PRATE,surface,-105,28.8188,3.2e-06
2016-11-26 00:00:00,2016-11-26 00:00:00,PRATE,surface,-104.063,28.8188,1.92e-05
2016-11-26 00:00:00,2016-11-26 00:00:00,PRATE,surface,-103.125,28.8188,4.48e-05
2016-11-26 00:00:00,2016-11-26 00:00:00,PRATE,surface,-102.188,28.8188,2.55e-05
2016-11-26 00:00:00,2016-11-26 00:00:00,PRATE,surface,-101.25,28.8188,7.2e-06
2016-11-26 00:00:00,2016-11-26 00:00:00,PRATE,surface,-100.313,28.8188,7.3e-06
2016-11-26 00:00:00,2016-11-26 00:00:00,PRATE,surface,-99.3754,28.8188,1.36e-05
2016-11-26 00:00:00,2016-11-26 00:00:00,PRATE,surface,-98.4379,28.8188,1.82e-05
2016-11-26 00:00:00,2016-11-26 00:00:00,PRATE,surface,-97.5004,28.8188,1.74e-05
2016-11-26 00:00:00,2016-11-26 00:00:00,PRATE,surface,-96.5629,28.8188,1.62e-05
2016-11-26 00:00:00,2016-11-26 00:00:00,PRATE,surface,-95.6254,28.8188,1.91e-05
2016-11-26 00:00:00,2016-11-26 00:00:00,PRATE,surface,-94.6879,28.8188,2.44e-05
2016-11-26 00:00:00,2016-11-26 00:00:00,PRATE,surface,-93.7504,28.8188,3.21e-05
2016-11-26 00:00:00,2016-11-26 00:00:00,PRATE,surface,-92.8129,28.8188,3.74e-05
2016-11-26 00:00:00,2016-11-26 00:00:00,PRATE,surface,-107.813,29.7637,1.98e-05
2016-11-26 00:00:00,2016-11-26 00:00:00,PRATE,surface,-106.875,29.7637,2.62e-05
2016-11-26 00:00:00,2016-11-26 00:00:00,PRATE,surface,-105.938,29.7637,8.6e-06
2016-11-26 00:00:00,2016-11-26 00:00:00,PRATE,surface,-105,29.7637,7.7e-06
2016-11-26 00:00:00,2016-11-26 00:00:00,PRATE,surface,-104.063,29.7637,1.8e-05
2016-11-26 00:00:00,2016-11-26 00:00:00,PRATE,surface,-103.125,29.7637,2.46e-05
2016-11-26 00:00:00,2016-11-26 00:00:00,PRATE,surface,-102.188,29.7637,1.71e-05
2016-11-26 00:00:00,2016-11-26 00:00:00,PRATE,surface,-101.25,29.7637,1.25e-05
2016-11-26 00:00:00,2016-11-26 00:00:00,PRATE,surface,-100.313,29.7637,2.08e-05
2016-11-26 00:00:00,2016-11-26 00:00:00,PRATE,surface,-99.3754,29.7637,2.45e-05
2016-11-26 00:00:00,2016-11-26 00:00:00,PRATE,surface,-98.4379,29.7637,1.89e-05
2016-11-26 00:00:00,2016-11-26 00:00:00,PRATE,surface,-97.5004,29.7637,1.09e-05
2016-11-26 00:00:00,2016-11-26 00:00:00,PRATE,surface,-96.5629,29.7637,7.7e-06
2016-11-26 00:00:00,2016-11-26 00:00:00,PRATE,surface,-95.6254,29.7637,1.14e-05
2016-11-26 00:00:00,2016-11-26 00:00:00,PRATE,surface,-94.6879,29.7637,1.46e-05
2016-11-26 00:00:00,2016-11-26 00:00:00,PRATE,surface,-93.7504,29.7637,1.28e-05
2016-11-26 00:00:00,2016-11-26 00:00:00,PRATE,surface,-92.8129,29.7637,2.06e-05
2016-11-26 00:00:00,2016-11-26 00:00:00,PRATE,surface,-107.813,30.7085,5e-07
2016-11-26 00:00:00,2016-11-26 00:00:00,PRATE,surface,-106.875,30.7085,2.3e-06
2016-11-26 00:00:00,2016-11-26 00:00:00,PRATE,surface,-105.938,30.7085,6.6e-06
2016-11-26 00:00:00,2016-11-26 00:00:00,PRATE,surface,-105,30.7085,2.08e-05
2016-11-26 00:00:00,2016-11-26 00:00:00,PRATE,surface,-104.063,30.7085,2.22e-05
2016-11-26 00:00:00,2016-11-26 00:00:00,PRATE,surface,-103.125,30.7085,1.72e-05
2016-11-26 00:00:00,2016-11-26 00:00:00,PRATE,surface,-102.188,30.7085,1.25e-05
2016-11-26 00:00:00,2016-11-26 00:00:00,PRATE,surface,-101.25,30.7085,1.63e-05
2016-11-26 00:00:00,2016-11-26 00:00:00,PRATE,surface,-100.313,30.7085,3.04e-05
2016-11-26 00:00:00,2016-11-26 00:00:00,PRATE,surface,-99.3754,30.7085,3.52e-05
2016-11-26 00:00:00,2016-11-26 00:00:00,PRATE,surface,-98.4379,30.7085,2.05e-05
2016-11-26 00:00:00,2016-11-26 00:00:00,PRATE,surface,-97.5004,30.7085,6.8e-06
2016-11-26 00:00:00,2016-11-26 00:00:00,PRATE,surface,-96.5629,30.7085,4.3e-06
2016-11-26 00:00:00,2016-11-26 00:00:00,PRATE,surface,-95.6254,30.7085,3.5e-06
2016-11-26 00:00:00,2016-11-26 00:00:00,PRATE,surface,-94.6879,30.7085,2.6e-06
2016-11-26 00:00:00,2016-11-26 00:00:00,PRATE,surface,-93.7504,30.7085,2.6e-06
2016-11-26 00:00:00,2016-11-26 00:00:00,PRATE,surface,-92.8129,30.7085,3.1e-06
2016-11-26 00:00:00,2016-11-26 00:00:00,PRATE,surface,-107.813,31.6534,2e-07
2016-11-26 00:00:00,2016-11-26 00:00:00,PRATE,surface,-106.875,31.6534,1.3e-06
2016-11-26 00:00:00,2016-11-26 00:00:00,PRATE,surface,-105.938,31.6534,5e-06
2016-11-26 00:00:00,2016-11-26 00:00:00,PRATE,surface,-105,31.6534,1.33e-05
2016-11-26 00:00:00,2016-11-26 00:00:00,PRATE,surface,-104.063,31.6534,1.85e-05
2016-11-26 00:00:00,2016-11-26 00:00:00,PRATE,surface,-103.125,31.6534,1.44e-05
2016-11-26 00:00:00,2016-11-26 00:00:00,PRATE,surface,-102.188,31.6534,1.07e-05
2016-11-26 00:00:00,2016-11-26 00:00:00,PRATE,surface,-101.25,31.6534,1.63e-05
2016-11-26 00:00:00,2016-11-26 00:00:00,PRATE,surface,-100.313,31.6534,2.36e-05
2016-11-26 00:00:00,2016-11-26 00:00:00,PRATE,surface,-99.3754,31.6534,2.64e-05
2016-11-26 00:00:00,2016-11-26 00:00:00,PRATE,surface,-98.4379,31.6534,2.22e-05
2016-11-26 00:00:00,2016-11-26 00:00:00,PRATE,surface,-97.5004,31.6534,1.22e-05
2016-11-26 00:00:00,2016-11-26 00:00:00,PRATE,surface,-96.5629,31.6534,5.2e-06
2016-11-26 00:00:00,2016-11-26 00:00:00,PRATE,surface,-95.6254,31.6534,3.1e-06
2016-11-26 00:00:00,2016-11-26 00:00:00,PRATE,surface,-94.6879,31.6534,1e-06
2016-11-26 00:00:00,2016-11-26 00:00:00,PRATE,surface,-93.7504,31.6534,8e-07
2016-11-26 00:00:00,2016-11-26 00:00:00,PRATE,surface,-92.8129,31.6534,5e-07
2016-11-26 00:00:00,2016-11-26 00:00:00,PRATE,surface,-107.813,32.5983,3e-07
2016-11-26 00:00:00,2016-11-26 00:00:00,PRATE,surface,-106.875,32.5983,1.6e-06
2016-11-26 00:00:00,2016-11-26 00:00:00,PRATE,surface,-105.938,32.5983,4.6e-06
2016-11-26 00:00:00,2016-11-26 00:00:00,PRATE,surface,-105,32.5983,1.03e-05
2016-11-26 00:00:00,2016-11-26 00:00:00,PRATE,surface,-104.063,32.5983,7.8e-06
2016-11-26 00:00:00,2016-11-26 00:00:00,PRATE,surface,-103.125,32.5983,8.8e-06
2016-11-26 00:00:00,2016-11-26 00:00:00,PRATE,surface,-102.188,32.5983,9.4e-06
2016-11-26 00:00:00,2016-11-26 00:00:00,PRATE,surface,-101.25,32.5983,1.41e-05
2016-11-26 00:00:00,2016-11-26 00:00:00,PRATE,surface,-100.313,32.5983,1.7e-05
2016-11-26 00:00:00,2016-11-26 00:00:00,PRATE,surface,-99.3754,32.5983,1.83e-05
2016-11-26 00:00:00,2016-11-26 00:00:00,PRATE,surface,-98.4379,32.5983,2.11e-05
2016-11-26 00:00:00,2016-11-26 00:00:00,PRATE,surface,-97.5004,32.5983,1.85e-05
2016-11-26 00:00:00,2016-11-26 00:00:00,PRATE,surface,-96.5629,32.5983,9.3e-06
2016-11-26 00:00:00,2016-11-26 00:00:00,PRATE,surface,-95.6254,32.5983,2.4e-06
2016-11-26 00:00:00,2016-11-26 00:00:00,PRATE,surface,-94.6879,32.5983,1.3e-06
2016-11-26 00:00:00,2016-11-26 00:00:00,PRATE,surface,-93.7504,32.5983,1.2e-06
2016-11-26 00:00:00,2016-11-26 00:00:00,PRATE,surface,-92.8129,32.5983,6e-07
2016-11-26 00:00:00,2016-11-26 00:00:00,PRATE,surface,-107.813,33.5432,3.4e-06
2016-11-26 00:00:00,2016-11-26 00:00:00,PRATE,surface,-106.875,33.5432,6.7e-06
2016-11-26 00:00:00,2016-11-26 00:00:00,PRATE,surface,-105.938,33.5432,7.7e-06
2016-11-26 00:00:00,2016-11-26 00:00:00,PRATE,surface,-105,33.5432,6.9e-06
2016-11-26 00:00:00,2016-11-26 00:00:00,PRATE,surface,-104.063,33.5432,8.4e-06
2016-11-26 00:00:00,2016-11-26 00:00:00,PRATE,surface,-103.125,33.5432,6.6e-06
2016-11-26 00:00:00,2016-11-26 00:00:00,PRATE,surface,-102.188,33.5432,8.9e-06
2016-11-26 00:00:00,2016-11-26 00:00:00,PRATE,surface,-101.25,33.5432,1.28e-05
2016-11-26 00:00:00,2016-11-26 00:00:00,PRATE,surface,-100.313,33.5432,1.63e-05
2016-11-26 00:00:00,2016-11-26 00:00:00,PRATE,surface,-99.3754,33.5432,2.03e-05
2016-11-26 00:00:00,2016-11-26 00:00:00,PRATE,surface,-98.4379,33.5432,2.39e-05
2016-11-26 00:00:00,2016-11-26 00:00:00,PRATE,surface,-97.5004,33.5432,2.15e-05
2016-11-26 00:00:00,2016-11-26 00:00:00,PRATE,surface,-96.5629,33.5432,1.21e-05
2016-11-26 00:00:00,2016-11-26 00:00:00,PRATE,surface,-95.6254,33.5432,3.8e-06
2016-11-26 00:00:00,2016-11-26 00:00:00,PRATE,surface,-94.6879,33.5432,1.9e-06
2016-11-26 00:00:00,2016-11-26 00:00:00,PRATE,surface,-93.7504,33.5432,2.4e-06
2016-11-26 00:00:00,2016-11-26 00:00:00,PRATE,surface,-92.8129,33.5432,6e-07
2016-11-26 00:00:00,2016-11-26 00:00:00,PRATE,surface,-107.813,34.4881,7.2e-06
2016-11-26 00:00:00,2016-11-26 00:00:00,PRATE,surface,-106.875,34.4881,1.08e-05
2016-11-26 00:00:00,2016-11-26 00:00:00,PRATE,surface,-105.938,34.4881,5.9e-06
2016-11-26 00:00:00,2016-11-26 00:00:00,PRATE,surface,-105,34.4881,5.7e-06
2016-11-26 00:00:00,2016-11-26 00:00:00,PRATE,surface,-104.063,34.4881,6.3e-06
2016-11-26 00:00:00,2016-11-26 00:00:00,PRATE,surface,-103.125,34.4881,9e-06
2016-11-26 00:00:00,2016-11-26 00:00:00,PRATE,surface,-102.188,34.4881,1.54e-05
2016-11-26 00:00:00,2016-11-26 00:00:00,PRATE,surface,-101.25,34.4881,1.64e-05
2016-11-26 00:00:00,2016-11-26 00:00:00,PRATE,surface,-100.313,34.4881,1.93e-05
2016-11-26 00:00:00,2016-11-26 00:00:00,PRATE,surface,-99.3754,34.4881,2.5e-05
2016-11-26 00:00:00,2016-11-26 00:00:00,PRATE,surface,-98.4379,34.4881,2.97e-05
2016-11-26 00:00:00,2016-11-26 00:00:00,PRATE,surface,-97.5004,34.4881,2.54e-05
2016-11-26 00:00:00,2016-11-26 00:00:00,PRATE,surface,-96.5629,34.4881,1.54e-05
2016-11-26 00:00:00,2016-11-26 00:00:00,PRATE,surface,-95.6254,34.4881,8.5e-06
2016-11-26 00:00:00,2016-11-26 00:00:00,PRATE,surface,-94.6879,34.4881,5.1e-06
2016-11-26 00:00:00,2016-11-26 00:00:00,PRATE,surface,-93.7504,34.4881,3e-06
2016-11-26 00:00:00,2016-11-26 00:00:00,PRATE,surface,-92.8129,34.4881,6e-07
2016-11-26 00:00:00,2016-11-26 00:00:00,PRATE,surface,-107.813,35.4329,1.41e-05
2016-11-26 00:00:00,2016-11-26 00:00:00,PRATE,surface,-106.875,35.4329,1.02e-05
2016-11-26 00:00:00,2016-11-26 00:00:00,PRATE,surface,-105.938,35.4329,1.01e-05
2016-11-26 00:00:00,2016-11-26 00:00:00,PRATE,surface,-105,35.4329,7.6e-06
2016-11-26 00:00:00,2016-11-26 00:00:00,PRATE,surface,-104.063,35.4329,6.5e-06
2016-11-26 00:00:00,2016-11-26 00:00:00,PRATE,surface,-103.125,35.4329,7.4e-06
2016-11-26 00:00:00,2016-11-26 00:00:00,PRATE,surface,-102.188,35.4329,1.21e-05
2016-11-26 00:00:00,2016-11-26 00:00:00,PRATE,surface,-101.25,35.4329,2.52e-05
2016-11-26 00:00:00,2016-11-26 00:00:00,PRATE,surface,-100.313,35.4329,3.7e-05
2016-11-26 00:00:00,2016-11-26 00:00:00,PRATE,surface,-99.3754,35.4329,4.31e-05
2016-11-26 00:00:00,2016-11-26 00:00:00,PRATE,surface,-98.4379,35.4329,4.38e-05
2016-11-26 00:00:00,2016-11-26 00:00:00,PRATE,surface,-97.5004,35.4329,3.92e-05
2016-11-26 00:00:00,2016-11-26 00:00:00,PRATE,surface,-96.5629,35.4329,3.39e-05
2016-11-26 00:00:00,2016-11-26 00:00:00,PRATE,surface,-95.6254,35.4329,2.97e-05
2016-11-26 00:00:00,2016-11-26 00:00:00,PRATE,surface,-94.6879,35.4329,2.28e-05
2016-11-26 00:00:00,2016-11-26 00:00:00,PRATE,surface,-93.7504,35.4329,1.44e-05
2016-11-26 00:00:00,2016-11-26 00:00:00,PRATE,surface,-92.8129,35.4329,5.4e-06
2016-11-26 00:00:00,2016-11-26 00:00:00,PRATE,surface,-107.813,36.3778,1.99e-05
2016-11-26 00:00:00,2016-11-26 00:00:00,PRATE,surface,-106.875,36.3778,1.86e-05
2016-11-26 00:00:00,2016-11-26 00:00:00,PRATE,surface,-105.938,36.3778,1.48e-05
2016-11-26 00:00:00,2016-11-26 00:00:00,PRATE,surface,-105,36.3778,9.1e-06
2016-11-26 00:00:00,2016-11-26 00:00:00,PRATE,surface,-104.063,36.3778,1.04e-05
2016-11-26 00:00:00,2016-11-26 00:00:00,PRATE,surface,-103.125,36.3778,8.7e-06
2016-11-26 00:00:00,2016-11-26 00:00:00,PRATE,surface,-102.188,36.3778,1.51e-05
2016-11-26 00:00:00,2016-11-26 00:00:00,PRATE,surface,-101.25,36.3778,3.02e-05
2016-11-26 00:00:00,2016-11-26 00:00:00,PRATE,surface,-100.313,36.3778,4.69e-05
2016-11-26 00:00:00,2016-11-26 00:00:00,PRATE,surface,-99.3754,36.3778,5.67e-05
2016-11-26 00:00:00,2016-11-26 00:00:00,PRATE,surface,-98.4379,36.3778,5.47e-05
2016-11-26 00:00:00,2016-11-26 00:00:00,PRATE,surface,-97.5004,36.3778,4.98e-05
2016-11-26 00:00:00,2016-11-26 00:00:00,PRATE,surface,-96.5629,36.3778,4.55e-05
2016-11-26 00:00:00,2016-11-26 00:00:00,PRATE,surface,-95.6254,36.3778,4.09e-05
2016-11-26 00:00:00,2016-11-26 00:00:00,PRATE,surface,-94.6879,36.3778,3.83e-05
2016-11-26 00:00:00,2016-11-26 00:00:00,PRATE,surface,-93.7504,36.3778,3.27e-05
2016-11-26 00:00:00,2016-11-26 00:00:00,PRATE,surface,-92.8129,36.3778,2e-05
