2011-05-10 00:00:00,2011-05-10 00:00:00,TMP,surface,-107.813,25.0393,298.988
2011-05-10 00:00:00,2011-05-10 00:00:00,TMP,surface,-106.875,25.0393,294.943
2011-05-10 00:00:00,2011-05-10 00:00:00,TMP,surface,-105.938,25.0393,288.495
2011-05-10 00:00:00,2011-05-10 00:00:00,TMP,surface,-105,25.0393,292.751
2011-05-10 00:00:00,2011-05-10 00:00:00,TMP,surface,-104.063,25.0393,297.717
2011-05-10 00:00:00,2011-05-10 00:00:00,TMP,surface,-103.125,25.0393,299.372
2011-05-10 00:00:00,2011-05-10 00:00:00,TMP,surface,-102.188,25.0393,297.861
2011-05-10 00:00:00,2011-05-10 00:00:00,TMP,surface,-101.25,25.0393,296.741
2011-05-10 00:00:00,2011-05-10 00:00:00,TMP,surface,-100.313,25.0393,296.143
2011-05-10 00:00:00,2011-05-10 00:00:00,TMP,surface,-99.3754,25.0393,299.356
2011-05-10 00:00:00,2011-05-10 00:00:00,TMP,surface,-98.4379,25.0393,301.785
2011-05-10 00:00:00,2011-05-10 00:00:00,TMP,surface,-97.5004,25.0393,300.108
2011-05-10 00:00:00,2011-05-10 00:00:00,TMP,surface,-96.5629,25.0393,299.423
2011-05-10 00:00:00,2011-05-10 00:00:00,TMP,surface,-95.6254,25.0393,299.237
2011-05-10 00:00:00,2011-05-10 00:00:00,TMP,surface,-94.6879,25.0393,299.385
2011-05-10 00:00:00,2011-05-10 00:00:00,TMP,surface,-93.7504,25.0393,299.436
2011-05-10 00:00:00,2011-05-10 00:00:00,TMP,surface,-92.8129,25.0393,299.426
2011-05-10 00:00:00,2011-05-10 00:00:00,TMP,surface,-107.813,25.9842,296.562
2011-05-10 00:00:00,2011-05-10 00:00:00,TMP,surface,-106.875,25.9842,291.093
2011-05-10 00:00:00,2011-05-10 00:00:00,TMP,surface,-105.938,25.9842,290.588
2011-05-10 00:00:00,2011-05-10 00:00:00,TMP,surface,-105,25.9842,296.165
2011-05-10 00:00:00,2011-05-10 00:00:00,TMP,surface,-104.063,25.9842,300.172
2011-05-10 00:00:00,2011-05-10 00:00:00,TMP,surface,-103.125,25.9842,301.583
2011-05-10 00:00:00,2011-05-10 00:00:00,TMP,surface,-102.188,25.9842,299.861
2011-05-10 00:00:00,2011-05-10 00:00:00,TMP,surface,-101.25,25.9842,298.825
2011-05-10 00:00:00,2011-05-10 00:00:00,TMP,surface,-100.313,25.9842,299.097
2011-05-10 00:00:00,2011-05-10 00:00:00,TMP,surface,-99.3754,25.9842,301.538
2011-05-10 00:00:00,2011-05-10 00:00:00,TMP,surface,-98.4379,25.9842,302.098
2011-05-10 00:00:00,2011-05-10 00:00:00,TMP,surface,-97.5004,25.9842,300.674
2011-05-10 00:00:00,2011-05-10 00:00:00,TMP,surface,-96.5629,25.9842,297.948
2011-05-10 00:00:00,2011-05-10 00:00:00,TMP,surface,-95.6254,25.9842,298.469
2011-05-10 00:00:00,2011-05-10 00:00:00,TMP,surface,-94.6879,25.9842,298.844
2011-05-10 00:00:00,2011-05-10 00:00:00,TMP,surface,-93.7504,25.9842,298.988
2011-05-10 00:00:00,2011-05-10 00:00:00,TMP,surface,-92.8129,25.9842,299.1
2011-05-10 00:00:00,2011-05-10 00:00:00,TMP,surface,-107.813,26.929,291.922
2011-05-10 00:00:00,2011-05-10 00:00:00,TMP,surface,-106.875,26.929,289.964
2011-05-10 00:00:00,2011-05-10 00:00:00,TMP,surface,-105.938,26.929,293.983
2011-05-10 00:00:00,2011-05-10 00:00:00,TMP,surface,-105,26.929,298.761
2011-05-10 00:00:00,2011-05-10 00:00:00,TMP,surface,-104.063,26.929,300.953
2011-05-10 00:00:00,2011-05-10 00:00:00,TMP,surface,-103.125,26.929,301.273
2011-05-10 00:00:00,2011-05-10 00:00:00,TMP,surface,-102.188,26.929,299.887
2011-05-10 00:00:00,2011-05-10 00:00:00,TMP,surface,-101.25,26.929,299.9
2011-05-10 00:00:00,2011-05-10 00:00:00,TMP,surface,-100.313,26.929,300.994
2011-05-10 00:00:00,2011-05-10 00:00:00,TMP,surface,-99.3754,26.929,302.13
2011-05-10 00:00:00,2011-05-10 00:00:00,TMP,surface,-98.4379,26.929,301.173
2011-05-10 00:00:00,2011-05-10 00:00:00,TMP,surface,-97.5004,26.929,297.34
2011-05-10 00:00:00,2011-05-10 00:00:00,TMP,surface,-96.5629,26.929,297.27
2011-05-10 00:00:00,2011-05-10 00:00:00,TMP,surface,-95.6254,26.929,298.22
2011-05-10 00:00:00,2011-05-10 00:00:00,TMP,surface,-94.6879,26.929,298.578
2011-05-10 00:00:00,2011-05-10 00:00:00,TMP,surface,-93.7504,26.929,298.735
2011-05-10 00:00:00,2011-05-10 00:00:00,TMP,surface,-92.8129,26.929,298.77
2011-05-10 00:00:00,2011-05-10 00:00:00,TMP,surface,-107.813,27.8739,289.561
2011-05-10 00:00:00,2011-05-10 00:00:00,TMP,surface,-106.875,27.8739,290.911
2011-05-10 00:00:00,2011-05-10 00:00:00,TMP,surface,-105.938,27.8739,296.428
2011-05-10 00:00:00,2011-05-10 00:00:00,TMP,surface,-105,27.8739,299.375
2011-05-10 00:00:00,2011-05-10 00:00:00,TMP,surface,-104.063,27.8739,299.276
2011-05-10 00:00:00,2011-05-10 00:00:00,TMP,surface,-103.125,27.8739,299.074
2011-05-10 00:00:00,2011-05-10 00:00:00,TMP,surface,-102.188,27.8739,298.386
2011-05-10 00:00:00,2011-05-10 00:00:00,TMP,surface,-101.25,27.8739,299.225
2011-05-10 00:00:00,2011-05-10 00:00:00,TMP,surface,-100.313,27.8739,300.649
2011-05-10 00:00:00,2011-05-10 00:00:00,TMP,surface,-99.3754,27.8739,300.828
2011-05-10 00:00:00,2011-05-10 00:00:00,TMP,surface,-98.4379,27.8739,299.631
2011-05-10 00:00:00,2011-05-10 00:00:00,TMP,surface,-97.5004,27.8739,298.393
2011-05-10 00:00:00,2011-05-10 00:00:00,TMP,surface,-96.5629,27.8739,298.005
2011-05-10 00:00:00,2011-05-10 00:00:00,TMP,surface,-95.6254,27.8739,298.156
2011-05-10 00:00:00,2011-05-10 00:00:00,TMP,surface,-94.6879,27.8739,298.29
2011-05-10 00:00:00,2011-05-10 00:00:00,TMP,surface,-93.7504,27.8739,298.338
2011-05-10 00:00:00,2011-05-10 00:00:00,TMP,surface,-92.8129,27.8739,298.309
2011-05-10 00:00:00,2011-05-10 00:00:00,TMP,surface,-107.813,28.8188,289.001
2011-05-10 00:00:00,2011-05-10 00:00:00,TMP,surface,-106.875,28.8188,292.092
2011-05-10 00:00:00,2011-05-10 00:00:00,TMP,surface,-105.938,28.8188,296.917
2011-05-10 00:00:00,2011-05-10 00:00:00,TMP,surface,-105,28.8188,299.461
2011-05-10 00:00:00,2011-05-10 00:00:00,TMP,surface,-104.063,28.8188,299.298
2011-05-10 00:00:00,2011-05-10 00:00:00,TMP,surface,-103.125,28.8188,298.709
2011-05-10 00:00:00,2011-05-10 00:00:00,TMP,surface,-102.188,28.8188,297.861
2011-05-10 00:00:00,2011-05-10 00:00:00,TMP,surface,-101.25,28.8188,298.415
2011-05-10 00:00:00,2011-05-10 00:00:00,TMP,surface,-100.313,28.8188,298.655
2011-05-10 00:00:00,2011-05-10 00:00:00,TMP,surface,-99.3754,28.8188,298.3
2011-05-10 00:00:00,2011-05-10 00:00:00,TMP,surface,-98.4379,28.8188,298.028
2011-05-10 00:00:00,2011-05-10 00:00:00,TMP,surface,-97.5004,28.8188,297.964
2011-05-10 00:00:00,2011-05-10 00:00:00,TMP,surface,-96.5629,28.8188,298.089
2011-05-10 00:00:00,2011-05-10 00:00:00,TMP,surface,-95.6254,28.8188,297.874
2011-05-10 00:00:00,2011-05-10 00:00:00,TMP,surface,-94.6879,28.8188,297.305
2011-05-10 00:00:00,2011-05-10 00:00:00,TMP,surface,-93.7504,28.8188,297.541
2011-05-10 00:00:00,2011-05-10 00:00:00,TMP,surface,-92.8129,28.8188,297.609
2011-05-10 00:00:00,2011-05-10 00:00:00,TMP,surface,-107.813,29.7637,291.529
2011-05-10 00:00:00,2011-05-10 00:00:00,TMP,surface,-106.875,29.7637,293.964
2011-05-10 00:00:00,2011-05-10 00:00:00,TMP,surface,-105.938,29.7637,296.172
2011-05-10 00:00:00,2011-05-10 00:00:00,TMP,surface,-105,29.7637,298.431
2011-05-10 00:00:00,2011-05-10 00:00:00,TMP,surface,-104.063,29.7637,298.581
2011-05-10 00:00:00,2011-05-10 00:00:00,TMP,surface,-103.125,29.7637,298.786
2011-05-10 00:00:00,2011-05-10 00:00:00,TMP,surface,-102.188,29.7637,298.953
2011-05-10 00:00:00,2011-05-10 00:00:00,TMP,surface,-101.25,29.7637,298.207
2011-05-10 00:00:00,2011-05-10 00:00:00,TMP,surface,-100.313,29.7637,296.844
2011-05-10 00:00:00,2011-05-10 00:00:00,TMP,surface,-99.3754,29.7637,295.903
2011-05-10 00:00:00,2011-05-10 00:00:00,TMP,surface,-98.4379,29.7637,295.954
2011-05-10 00:00:00,2011-05-10 00:00:00,TMP,surface,-97.5004,29.7637,296.613
2011-05-10 00:00:00,2011-05-10 00:00:00,TMP,surface,-96.5629,29.7637,297.266
2011-05-10 00:00:00,2011-05-10 00:00:00,TMP,surface,-95.6254,29.7637,297.74
2011-05-10 00:00:00,2011-05-10 00:00:00,TMP,surface,-94.6879,29.7637,297.823
2011-05-10 00:00:00,2011-05-10 00:00:00,TMP,surface,-93.7504,29.7637,297.714
2011-05-10 00:00:00,2011-05-10 00:00:00,TMP,surface,-92.8129,29.7637,298.7
2011-05-10 00:00:00,2011-05-10 00:00:00,TMP,surface,-107.813,30.7085,295.023
2011-05-10 00:00:00,2011-05-10 00:00:00,TMP,surface,-106.875,30.7085,295.641
2011-05-10 00:00:00,2011-05-10 00:00:00,TMP,surface,-105.938,30.7085,296.025
2011-05-10 00:00:00,2011-05-10 00:00:00,TMP,surface,-105,30.7085,297.298
2011-05-10 00:00:00,2011-05-10 00:00:00,TMP,surface,-104.063,30.7085,297.215
2011-05-10 00:00:00,2011-05-10 00:00:00,TMP,surface,-103.125,30.7085,298.367
2011-05-10 00:00:00,2011-05-10 00:00:00,TMP,surface,-102.188,30.7085,298.802
2011-05-10 00:00:00,2011-05-10 00:00:00,TMP,surface,-101.25,30.7085,297.801
2011-05-10 00:00:00,2011-05-10 00:00:00,TMP,surface,-100.313,30.7085,296.105
2011-05-10 00:00:00,2011-05-10 00:00:00,TMP,surface,-99.3754,30.7085,295.129
2011-05-10 00:00:00,2011-05-10 00:00:00,TMP,surface,-98.4379,30.7085,295.365
2011-05-10 00:00:00,2011-05-10 00:00:00,TMP,surface,-97.5004,30.7085,296.185
2011-05-10 00:00:00,2011-05-10 00:00:00,TMP,surface,-96.5629,30.7085,297.327
2011-05-10 00:00:00,2011-05-10 00:00:00,TMP,surface,-95.6254,30.7085,298.274
2011-05-10 00:00:00,2011-05-10 00:00:00,TMP,surface,-94.6879,30.7085,298.383
2011-05-10 00:00:00,2011-05-10 00:00:00,TMP,surface,-93.7504,30.7085,298.274
2011-05-10 00:00:00,2011-05-10 00:00:00,TMP,surface,-92.8129,30.7085,297.938
2011-05-10 00:00:00,2011-05-10 00:00:00,TMP,surface,-107.813,31.6534,296.031
2011-05-10 00:00:00,2011-05-10 00:00:00,TMP,surface,-106.875,31.6534,295.916
2011-05-10 00:00:00,2011-05-10 00:00:00,TMP,surface,-105.938,31.6534,296.674
2011-05-10 00:00:00,2011-05-10 00:00:00,TMP,surface,-105,31.6534,296.604
2011-05-10 00:00:00,2011-05-10 00:00:00,TMP,surface,-104.063,31.6534,297.212
2011-05-10 00:00:00,2011-05-10 00:00:00,TMP,surface,-103.125,31.6534,297.874
2011-05-10 00:00:00,2011-05-10 00:00:00,TMP,surface,-102.188,31.6534,298.271
2011-05-10 00:00:00,2011-05-10 00:00:00,TMP,surface,-101.25,31.6534,297.449
2011-05-10 00:00:00,2011-05-10 00:00:00,TMP,surface,-100.313,31.6534,296.511
2011-05-10 00:00:00,2011-05-10 00:00:00,TMP,surface,-99.3754,31.6534,295.845
2011-05-10 00:00:00,2011-05-10 00:00:00,TMP,surface,-98.4379,31.6534,295.785
2011-05-10 00:00:00,2011-05-10 00:00:00,TMP,surface,-97.5004,31.6534,296.319
2011-05-10 00:00:00,2011-05-10 00:00:00,TMP,surface,-96.5629,31.6534,297.382
2011-05-10 00:00:00,2011-05-10 00:00:00,TMP,surface,-95.6254,31.6534,298.249
2011-05-10 00:00:00,2011-05-10 00:00:00,TMP,surface,-94.6879,31.6534,298.265
2011-05-10 00:00:00,2011-05-10 00:00:00,TMP,surface,-93.7504,31.6534,298.249
2011-05-10 00:00:00,2011-05-10 00:00:00,TMP,surface,-92.8129,31.6534,298.261
2011-05-10 00:00:00,2011-05-10 00:00:00,TMP,surface,-107.813,32.5983,293.426
2011-05-10 00:00:00,2011-05-10 00:00:00,TMP,surface,-106.875,32.5983,294.345
2011-05-10 00:00:00,2011-05-10 00:00:00,TMP,surface,-105.938,32.5983,294.927
2011-05-10 00:00:00,2011-05-10 00:00:00,TMP,surface,-105,32.5983,295.493
2011-05-10 00:00:00,2011-05-10 00:00:00,TMP,surface,-104.063,32.5983,295.97
2011-05-10 00:00:00,2011-05-10 00:00:00,TMP,surface,-103.125,32.5983,296.994
2011-05-10 00:00:00,2011-05-10 00:00:00,TMP,surface,-102.188,32.5983,297.708
2011-05-10 00:00:00,2011-05-10 00:00:00,TMP,surface,-101.25,32.5983,297.685
2011-05-10 00:00:00,2011-05-10 00:00:00,TMP,surface,-100.313,32.5983,297.564
2011-05-10 00:00:00,2011-05-10 00:00:00,TMP,surface,-99.3754,32.5983,297.148
2011-05-10 00:00:00,2011-05-10 00:00:00,TMP,surface,-98.4379,32.5983,296.738
2011-05-10 00:00:00,2011-05-10 00:00:00,TMP,surface,-97.5004,32.5983,296.594
2011-05-10 00:00:00,2011-05-10 00:00:00,TMP,surface,-96.5629,32.5983,297.071
2011-05-10 00:00:00,2011-05-10 00:00:00,TMP,surface,-95.6254,32.5983,297.826
2011-05-10 00:00:00,2011-05-10 00:00:00,TMP,surface,-94.6879,32.5983,298.111
2011-05-10 00:00:00,2011-05-10 00:00:00,TMP,surface,-93.7504,32.5983,298.239
2011-05-10 00:00:00,2011-05-10 00:00:00,TMP,surface,-92.8129,32.5983,298.239
2011-05-10 00:00:00,2011-05-10 00:00:00,TMP,surface,-107.813,33.5432,289.826
2011-05-10 00:00:00,2011-05-10 00:00:00,TMP,surface,-106.875,33.5432,291.657
2011-05-10 00:00:00,2011-05-10 00:00:00,TMP,surface,-105.938,33.5432,292.834
2011-05-10 00:00:00,2011-05-10 00:00:00,TMP,surface,-105,33.5432,294.197
2011-05-10 00:00:00,2011-05-10 00:00:00,TMP,surface,-104.063,33.5432,295.161
2011-05-10 00:00:00,2011-05-10 00:00:00,TMP,surface,-103.125,33.5432,296.185
2011-05-10 00:00:00,2011-05-10 00:00:00,TMP,surface,-102.188,33.5432,296.924
2011-05-10 00:00:00,2011-05-10 00:00:00,TMP,surface,-101.25,33.5432,297.09
2011-05-10 00:00:00,2011-05-10 00:00:00,TMP,surface,-100.313,33.5432,297.826
2011-05-10 00:00:00,2011-05-10 00:00:00,TMP,surface,-99.3754,33.5432,297.858
2011-05-10 00:00:00,2011-05-10 00:00:00,TMP,surface,-98.4379,33.5432,297.164
2011-05-10 00:00:00,2011-05-10 00:00:00,TMP,surface,-97.5004,33.5432,296.415
2011-05-10 00:00:00,2011-05-10 00:00:00,TMP,surface,-96.5629,33.5432,295.993
2011-05-10 00:00:00,2011-05-10 00:00:00,TMP,surface,-95.6254,33.5432,296.226
2011-05-10 00:00:00,2011-05-10 00:00:00,TMP,surface,-94.6879,33.5432,296.761
2011-05-10 00:00:00,2011-05-10 00:00:00,TMP,surface,-93.7504,33.5432,296.77
2011-05-10 00:00:00,2011-05-10 00:00:00,TMP,surface,-92.8129,33.5432,296.997
2011-05-10 00:00:00,2011-05-10 00:00:00,TMP,surface,-107.813,34.4881,287.9
2011-05-10 00:00:00,2011-05-10 00:00:00,TMP,surface,-106.875,34.4881,290.108
2011-05-10 00:00:00,2011-05-10 00:00:00,TMP,surface,-105.938,34.4881,291.749
2011-05-10 00:00:00,2011-05-10 00:00:00,TMP,surface,-105,34.4881,293.561
2011-05-10 00:00:00,2011-05-10 00:00:00,TMP,surface,-104.063,34.4881,294.809
2011-05-10 00:00:00,2011-05-10 00:00:00,TMP,surface,-103.125,34.4881,295.605
2011-05-10 00:00:00,2011-05-10 00:00:00,TMP,surface,-102.188,34.4881,296.159
2011-05-10 00:00:00,2011-05-10 00:00:00,TMP,surface,-101.25,34.4881,296.687
2011-05-10 00:00:00,2011-05-10 00:00:00,TMP,surface,-100.313,34.4881,297.09
2011-05-10 00:00:00,2011-05-10 00:00:00,TMP,surface,-99.3754,34.4881,297.289
2011-05-10 00:00:00,2011-05-10 00:00:00,TMP,surface,-98.4379,34.4881,296.767
2011-05-10 00:00:00,2011-05-10 00:00:00,TMP,surface,-97.5004,34.4881,295.868
2011-05-10 00:00:00,2011-05-10 00:00:00,TMP,surface,-96.5629,34.4881,295.682
2011-05-10 00:00:00,2011-05-10 00:00:00,TMP,surface,-95.6254,34.4881,295.89
2011-05-10 00:00:00,2011-05-10 00:00:00,TMP,surface,-94.6879,34.4881,295.573
2011-05-10 00:00:00,2011-05-10 00:00:00,TMP,surface,-93.7504,34.4881,295.442
2011-05-10 00:00:00,2011-05-10 00:00:00,TMP,surface,-92.8129,34.4881,295.679
2011-05-10 00:00:00,2011-05-10 00:00:00,TMP,surface,-107.813,35.4329,287.644
2011-05-10 00:00:00,2011-05-10 00:00:00,TMP,surface,-106.875,35.4329,288.636
2011-05-10 00:00:00,2011-05-10 00:00:00,TMP,surface,-105.938,35.4329,289.567
2011-05-10 00:00:00,2011-05-10 00:00:00,TMP,surface,-105,35.4329,290.901
2011-05-10 00:00:00,2011-05-10 00:00:00,TMP,surface,-104.063,35.4329,292.917
2011-05-10 00:00:00,2011-05-10 00:00:00,TMP,surface,-103.125,35.4329,294.687
2011-05-10 00:00:00,2011-05-10 00:00:00,TMP,surface,-102.188,35.4329,295.913
2011-05-10 00:00:00,2011-05-10 00:00:00,TMP,surface,-101.25,35.4329,296.223
2011-05-10 00:00:00,2011-05-10 00:00:00,TMP,surface,-100.313,35.4329,296.047
2011-05-10 00:00:00,2011-05-10 00:00:00,TMP,surface,-99.3754,35.4329,295.938
2011-05-10 00:00:00,2011-05-10 00:00:00,TMP,surface,-98.4379,35.4329,295.769
2011-05-10 00:00:00,2011-05-10 00:00:00,TMP,surface,-97.5004,35.4329,295.337
2011-05-10 00:00:00,2011-05-10 00:00:00,TMP,surface,-96.5629,35.4329,294.825
2011-05-10 00:00:00,2011-05-10 00:00:00,TMP,surface,-95.6254,35.4329,294.703
2011-05-10 00:00:00,2011-05-10 00:00:00,TMP,surface,-94.6879,35.4329,294.78
2011-05-10 00:00:00,2011-05-10 00:00:00,TMP,surface,-93.7504,35.4329,294.383
2011-05-10 00:00:00,2011-05-10 00:00:00,TMP,surface,-92.8129,35.4329,294.306
2011-05-10 00:00:00,2011-05-10 00:00:00,TMP,surface,-107.813,36.3778,286.729
2011-05-10 00:00:00,2011-05-10 00:00:00,TMP,surface,-106.875,36.3778,285.084
2011-05-10 00:00:00,2011-05-10 00:00:00,TMP,surface,-105.938,36.3778,286.367
2011-05-10 00:00:00,2011-05-10 00:00:00,TMP,surface,-105,36.3778,288.514
2011-05-10 00:00:00,2011-05-10 00:00:00,TMP,surface,-104.063,36.3778,291.769
2011-05-10 00:00:00,2011-05-10 00:00:00,TMP,surface,-103.125,36.3778,293.669
2011-05-10 00:00:00,2011-05-10 00:00:00,TMP,surface,-102.188,36.3778,294.879
2011-05-10 00:00:00,2011-05-10 00:00:00,TMP,surface,-101.25,36.3778,295.173
2011-05-10 00:00:00,2011-05-10 00:00:00,TMP,surface,-100.313,36.3778,295.18
2011-05-10 00:00:00,2011-05-10 00:00:00,TMP,surface,-99.3754,36.3778,295.052
2011-05-10 00:00:00,2011-05-10 00:00:00,TMP,surface,-98.4379,36.3778,294.857
2011-05-10 00:00:00,2011-05-10 00:00:00,TMP,surface,-97.5004,36.3778,294.613
2011-05-10 00:00:00,2011-05-10 00:00:00,TMP,surface,-96.5629,36.3778,294.332
2011-05-10 00:00:00,2011-05-10 00:00:00,TMP,surface,-95.6254,36.3778,294.197
2011-05-10 00:00:00,2011-05-10 00:00:00,TMP,surface,-94.6879,36.3778,294.069
2011-05-10 00:00:00,2011-05-10 00:00:00,TMP,surface,-93.7504,36.3778,293.596
2011-05-10 00:00:00,2011-05-10 00:00:00,TMP,surface,-92.8129,36.3778,293.522
2011-05-10 00:00:00,2011-05-10 00:00:00,PRATE,surface,-107.813,25.0393,0
2011-05-10 00:00:00,2011-05-10 00:00:00,PRATE,surface,-106.875,25.0393,0
2011-05-10 00:00:00,2011-05-10 00:00:00,PRATE,surface,-105.938,25.0393,9e-07
2011-05-10 00:00:00,2011-05-10 00:00:00,PRATE,surface,-105,25.0393,6e-06
2011-05-10 00:00:00,2011-05-10 00:00:00,PRATE,surface,-104.063,25.0393,2.6e-06
2011-05-10 00:00:00,2011-05-10 00:00:00,PRATE,surface,-103.125,25.0393,2e-06
2011-05-10 00:00:00,2011-05-10 00:00:00,PRATE,surface,-102.188,25.0393,1.7e-06
2011-05-10 00:00:00,2011-05-10 00:00:00,PRATE,surface,-101.25,25.0393,1.31e-05
2011-05-10 00:00:00,2011-05-10 00:00:00,PRATE,surface,-100.313,25.0393,6.57e-05
2011-05-10 00:00:00,2011-05-10 00:00:00,PRATE,surface,-99.3754,25.0393,5.14e-05
2011-05-10 00:00:00,2011-05-10 00:00:00,PRATE,surface,-98.4379,25.0393,2.01e-05
2011-05-10 00:00:00,2011-05-10 00:00:00,PRATE,surface,-97.5004,25.0393,8.7e-06
2011-05-10 00:00:00,2011-05-10 00:00:00,PRATE,surface,-96.5629,25.0393,1.5e-06
2011-05-10 00:00:00,2011-05-10 00:00:00,PRATE,surface,-95.6254,25.0393,1.7e-06
2011-05-10 00:00:00,2011-05-10 00:00:00,PRATE,surface,-94.6879,25.0393,2e-06
2011-05-10 00:00:00,2011-05-10 00:00:00,PRATE,surface,-93.7504,25.0393,1.3e-06
2011-05-10 00:00:00,2011-05-10 00:00:00,PRATE,surface,-92.8129,25.0393,4e-07
2011-05-10 00:00:00,2011-05-10 00:00:00,PRATE,surface,-107.813,25.9842,0
2011-05-10 00:00:00,2011-05-10 00:00:00,PRATE,surface,-106.875,25.9842,2.9e-06
2011-05-10 00:00:00,2011-05-10 00:00:00,PRATE,surface,-105.938,25.9842,8.2e-06
2011-05-10 00:00:00,2011-05-10 00:00:00,PRATE,surface,-105,25.9842,2.4e-06
2011-05-10 00:00:00,2011-05-10 00:00:00,PRATE,surface,-104.063,25.9842,1e-06
2011-05-10 00:00:00,2011-05-10 00:00:00,PRATE,surface,-103.125,25.9842,2e-07
2011-05-10 00:00:00,2011-05-10 00:00:00,PRATE,surface,-102.188,25.9842,0
2011-05-10 00:00:00,2011-05-10 00:00:00,PRATE,surface,-101.25,25.9842,1.73e-05
2011-05-10 00:00:00,2011-05-10 00:00:00,PRATE,surface,-100.313,25.9842,6.21e-05
2011-05-10 00:00:00,2011-05-10 00:00:00,PRATE,surface,-99.3754,25.9842,3.66e-05
2011-05-10 00:00:00,2011-05-10 00:00:00,PRATE,surface,-98.4379,25.9842,2.35e-05
2011-05-10 00:00:00,2011-05-10 00:00:00,PRATE,surface,-97.5004,25.9842,1.49e-05
2011-05-10 00:00:00,2011-05-10 00:00:00,PRATE,surface,-96.5629,25.9842,1.33e-05
2011-05-10 00:00:00,2011-05-10 00:00:00,PRATE,surface,-95.6254,25.9842,8.6e-06
2011-05-10 00:00:00,2011-05-10 00:00:00,PRATE,surface,-94.6879,25.9842,4.5e-06
2011-05-10 00:00:00,2011-05-10 00:00:00,PRATE,surface,-93.7504,25.9842,5e-07
2011-05-10 00:00:00,2011-05-10 00:00:00,PRATE,surface,-92.8129,25.9842,0
2011-05-10 00:00:00,2011-05-10 00:00:00,PRATE,surface,-107.813,26.929,1.5e-06
2011-05-10 00:00:00,2011-05-10 00:00:00,PRATE,surface,-106.875,26.929,7.9e-06
2011-05-10 00:00:00,2011-05-10 00:00:00,PRATE,surface,-105.938,26.929,2.1e-06
2011-05-10 00:00:00,2011-05-10 00:00:00,PRATE,surface,-105,26.929,7e-07
2011-05-10 00:00:00,2011-05-10 00:00:00,PRATE,surface,-104.063,26.929,2.5e-06
2011-05-10 00:00:00,2011-05-10 00:00:00,PRATE,surface,-103.125,26.929,4.6e-06
2011-05-10 00:00:00,2011-05-10 00:00:00,PRATE,surface,-102.188,26.929,1.48e-05
2011-05-10 00:00:00,2011-05-10 00:00:00,PRATE,surface,-101.25,26.929,3.98e-05
2011-05-10 00:00:00,2011-05-10 00:00:00,PRATE,surface,-100.313,26.929,5.02e-05
2011-05-10 00:00:00,2011-05-10 00:00:00,PRATE,surface,-99.3754,26.929,4.31e-05
2011-05-10 00:00:00,2011-05-10 00:00:00,PRATE,surface,-98.4379,26.929,3.67e-05
2011-05-10 00:00:00,2011-05-10 00:00:00,PRATE,surface,-97.5004,26.929,5.3e-05
2011-05-10 00:00:00,2011-05-10 00:00:00,PRATE,surface,-96.5629,26.929,2.94e-05
2011-05-10 00:00:00,2011-05-10 00:00:00,PRATE,surface,-95.6254,26.929,1.53e-05
2011-05-10 00:00:00,2011-05-10 00:00:00,PRATE,surface,-94.6879,26.929,8.4e-06
2011-05-10 00:00:00,2011-05-10 00:00:00,PRATE,surface,-93.7504,26.929,1.9e-06
2011-05-10 00:00:00,2011-05-10 00:00:00,PRATE,surface,-92.8129,26.929,1e-07
2011-05-10 00:00:00,2011-05-10 00:00:00,PRATE,surface,-107.813,27.8739,2.13e-05
2011-05-10 00:00:00,2011-05-10 00:00:00,PRATE,surface,-106.875,27.8739,1.23e-05
2011-05-10 00:00:00,2011-05-10 00:00:00,PRATE,surface,-105.938,27.8739,7e-07
2011-05-10 00:00:00,2011-05-10 00:00:00,PRATE,surface,-105,27.8739,0
2011-05-10 00:00:00,2011-05-10 00:00:00,PRATE,surface,-104.063,27.8739,4.8e-06
2011-05-10 00:00:00,2011-05-10 00:00:00,PRATE,surface,-103.125,27.8739,2e-05
2011-05-10 00:00:00,2011-05-10 00:00:00,PRATE,surface,-102.188,27.8739,4.13e-05
2011-05-10 00:00:00,2011-05-10 00:00:00,PRATE,surface,-101.25,27.8739,6.6e-05
2011-05-10 00:00:00,2011-05-10 00:00:00,PRATE,surface,-100.313,27.8739,5.37e-05
2011-05-10 00:00:00,2011-05-10 00:00:00,PRATE,surface,-99.3754,27.8739,4.25e-05
2011-05-10 00:00:00,2011-05-10 00:00:00,PRATE,surface,-98.4379,27.8739,4.6e-05
2011-05-10 00:00:00,2011-05-10 00:00:00,PRATE,surface,-97.5004,27.8739,4.71e-05
2011-05-10 00:00:00,2011-05-10 00:00:00,PRATE,surface,-96.5629,27.8739,3.34e-05
2011-05-10 00:00:00,2011-05-10 00:00:00,PRATE,surface,-95.6254,27.8739,1.52e-05
2011-05-10 00:00:00,2011-05-10 00:00:00,PRATE,surface,-94.6879,27.8739,6.4e-06
2011-05-10 00:00:00,2011-05-10 00:00:00,PRATE,surface,-93.7504,27.8739,1.9e-06
2011-05-10 00:00:00,2011-05-10 00:00:00,PRATE,surface,-92.8129,27.8739,7e-07
2011-05-10 00:00:00,2011-05-10 00:00:00,PRATE,surface,-107.813,28.8188,2.53e-05
2011-05-10 00:00:00,2011-05-10 00:00:00,PRATE,surface,-106.875,28.8188,1.87e-05
2011-05-10 00:00:00,2011-05-10 00:00:00,PRATE,surface,-105.938,28.8188,2e-07
2011-05-10 00:00:00,2011-05-10 00:00:00,PRATE,surface,-105,28.8188,3e-07
2011-05-10 00:00:00,2011-05-10 00:00:00,PRATE,surface,-104.063,28.8188,4.5e-06
2011-05-10 00:00:00,2011-05-10 00:00:00,PRATE,surface,-103.125,28.8188,2.87e-05
2011-05-10 00:00:00,2011-05-10 00:00:00,PRATE,surface,-102.188,28.8188,5.07e-05
2011-05-10 00:00:00,2011-05-10 00:00:00,PRATE,surface,-101.25,28.8188,5.79e-05
2011-05-10 00:00:00,2011-05-10 00:00:00,PRATE,surface,-100.313,28.8188,5.22e-05
2011-05-10 00:00:00,2011-05-10 00:00:00,PRATE,surface,-99.3754,28.8188,6.04e-05
2011-05-10 00:00:00,2011-05-10 00:00:00,PRATE,surface,-98.4379,28.8188,6.28e-05
2011-05-10 00:00:00,2011-05-10 00:00:00,PRATE,surface,-97.5004,28.8188,5.63e-05
2011-05-10 00:00:00,2011-05-10 00:00:00,PRATE,surface,-96.5629,28.8188,4.5e-05
2011-05-10 00:00:00,2011-05-10 00:00:00,PRATE,surface,-95.6254,28.8188,2.53e-05
2011-05-10 00:00:00,2011-05-10 00:00:00,PRATE,surface,-94.6879,28.8188,8.3e-06
2011-05-10 00:00:00,2011-05-10 00:00:00,PRATE,surface,-93.7504,28.8188,4.2e-06
2011-05-10 00:00:00,2011-05-10 00:00:00,PRATE,surface,-92.8129,28.8188,5.4e-06
2011-05-10 00:00:00,2011-05-10 00:00:00,PRATE,surface,-107.813,29.7637,8.4e-06
2011-05-10 00:00:00,2011-05-10 00:00:00,PRATE,surface,-106.875,29.7637,6.7e-06
2011-05-10 00:00:00,2011-05-10 00:00:00,PRATE,surface,-105.938,29.7637,1.3e-06
2011-05-10 00:00:00,2011-05-10 00:00:00,PRATE,surface,-105,29.7637,1e-06
2011-05-10 00:00:00,2011-05-10 00:00:00,PRATE,surface,-104.063,29.7637,5.9e-06
2011-05-10 00:00:00,2011-05-10 00:00:00,PRATE,surface,-103.125,29.7637,1.54e-05
2011-05-10 00:00:00,2011-05-10 00:00:00,PRATE,surface,-102.188,29.7637,2.49e-05
2011-05-10 00:00:00,2011-05-10 00:00:00,PRATE,surface,-101.25,29.7637,4.75e-05
2011-05-10 00:00:00,2011-05-10 00:00:00,PRATE,surface,-100.313,29.7637,6.31e-05
2011-05-10 00:00:00,2011-05-10 00:00:00,PRATE,surface,-99.3754,29.7637,8.09e-05
2011-05-10 00:00:00,2011-05-10 00:00:00,PRATE,surface,-98.4379,29.7637,8.68e-05
2011-05-10 00:00:00,2011-05-10 00:00:00,PRATE,surface,-97.5004,29.7637,7.71e-05
2011-05-10 00:00:00,2011-05-10 00:00:00,PRATE,surface,-96.5629,29.7637,6.5e-05
2011-05-10 00:00:00,2011-05-10 00:00:00,PRATE,surface,-95.6254,29.7637,5.25e-05
2011-05-10 00:00:00,2011-05-10 00:00:00,PRATE,surface,-94.6879,29.7637,3.24e-05
2011-05-10 00:00:00,2011-05-10 00:00:00,PRATE,surface,-93.7504,29.7637,1.43e-05
2011-05-10 00:00:00,2011-05-10 00:00:00,PRATE,surface,-92.8129,29.7637,1.98e-05
2011-05-10 00:00:00,2011-05-10 00:00:00,PRATE,surface,-107.813,30.7085,5e-07
2011-05-10 00:00:00,2011-05-10 00:00:00,PRATE,surface,-106.875,30.7085,4e-07
2011-05-10 00:00:00,2011-05-10 00:00:00,PRATE,surface,-105.938,30.7085,1.8e-06
2011-05-10 00:00:00,2011-05-10 00:00:00,PRATE,surface,-105,30.7085,6.8e-06
2011-05-10 00:00:00,2011-05-10 00:00:00,PRATE,surface,-104.063,30.7085,8.6e-06
2011-05-10 00:00:00,2011-05-10 00:00:00,PRATE,surface,-103.125,30.7085,1.08e-05
2011-05-10 00:00:00,2011-05-10 00:00:00,PRATE,surface,-102.188,30.7085,1.7e-05
2011-05-10 00:00:00,2011-05-10 00:00:00,PRATE,surface,-101.25,30.7085,3.5e-05
2011-05-10 00:00:00,2011-05-10 00:00:00,PRATE,surface,-100.313,30.7085,6.11e-05
2011-05-10 00:00:00,2011-05-10 00:00:00,PRATE,surface,-99.3754,30.7085,7.59e-05
2011-05-10 00:00:00,2011-05-10 00:00:00,PRATE,surface,-98.4379,30.7085,7.83e-05
2011-05-10 00:00:00,2011-05-10 00:00:00,PRATE,surface,-97.5004,30.7085,8.42e-05
2011-05-10 00:00:00,2011-05-10 00:00:00,PRATE,surface,-96.5629,30.7085,8.62e-05
2011-05-10 00:00:00,2011-05-10 00:00:00,PRATE,surface,-95.6254,30.7085,6.83e-05
2011-05-10 00:00:00,2011-05-10 00:00:00,PRATE,surface,-94.6879,30.7085,4.17e-05
2011-05-10 00:00:00,2011-05-10 00:00:00,PRATE,surface,-93.7504,30.7085,2.66e-05
2011-05-10 00:00:00,2011-05-10 00:00:00,PRATE,surface,-92.8129,30.7085,2.75e-05
2011-05-10 00:00:00,2011-05-10 00:00:00,PRATE,surface,-107.813,31.6534,1e-07
2011-05-10 00:00:00,2011-05-10 00:00:00,PRATE,surface,-106.875,31.6534,4e-07
2011-05-10 00:00:00,2011-05-10 00:00:00,PRATE,surface,-105.938,31.6534,1.5e-06
2011-05-10 00:00:00,2011-05-10 00:00:00,PRATE,surface,-105,31.6534,3.3e-06
2011-05-10 00:00:00,2011-05-10 00:00:00,PRATE,surface,-104.063,31.6534,7.8e-06
2011-05-10 00:00:00,2011-05-10 00:00:00,PRATE,surface,-103.125,31.6534,1.3e-05
2011-05-10 00:00:00,2011-05-10 00:00:00,PRATE,surface,-102.188,31.6534,1.43e-05
2011-05-10 00:00:00,2011-05-10 00:00:00,PRATE,surface,-101.25,31.6534,2.17e-05
2011-05-10 00:00:00,2011-05-10 00:00:00,PRATE,surface,-100.313,31.6534,2.89e-05
2011-05-10 00:00:00,2011-05-10 00:00:00,PRATE,surface,-99.3754,31.6534,3.72e-05
2011-05-10 00:00:00,2011-05-10 00:00:00,PRATE,surface,-98.4379,31.6534,4.81e-05
2011-05-10 00:00:00,2011-05-10 00:00:00,PRATE,surface,-97.5004,31.6534,5.67e-05
2011-05-10 00:00:00,2011-05-10 00:00:00,PRATE,surface,-96.5629,31.6534,6.25e-05
2011-05-10 00:00:00,2011-05-10 00:00:00,PRATE,surface,-95.6254,31.6534,5.89e-05
2011-05-10 00:00:00,2011-05-10 00:00:00,PRATE,surface,-94.6879,31.6534,4e-05
2011-05-10 00:00:00,2011-05-10 00:00:00,PRATE,surface,-93.7504,31.6534,2.49e-05
2011-05-10 00:00:00,2011-05-10 00:00:00,PRATE,surface,-92.8129,31.6534,2.22e-05
2011-05-10 00:00:00,2011-05-10 00:00:00,PRATE,surface,-107.813,32.5983,2e-06
2011-05-10 00:00:00,2011-05-10 00:00:00,PRATE,surface,-106.875,32.5983,1e-06
2011-05-10 00:00:00,2011-05-10 00:00:00,PRATE,surface,-105.938,32.5983,8e-07
2011-05-10 00:00:00,2011-05-10 00:00:00,PRATE,surface,-105,32.5983,1.2e-06
2011-05-10 00:00:00,2011-05-10 00:00:00,PRATE,surface,-104.063,32.5983,3.8e-06
2011-05-10 00:00:00,2011-05-10 00:00:00,PRATE,surface,-103.125,32.5983,7.6e-06
2011-05-10 00:00:00,2011-05-10 00:00:00,PRATE,surface,-102.188,32.5983,9.7e-06
2011-05-10 00:00:00,2011-05-10 00:00:00,PRATE,surface,-101.25,32.5983,1.14e-05
2011-05-10 00:00:00,2011-05-10 00:00:00,PRATE,surface,-100.313,32.5983,1.61e-05
2011-05-10 00:00:00,2011-05-10 00:00:00,PRATE,surface,-99.3754,32.5983,1.43e-05
2011-05-10 00:00:00,2011-05-10 00:00:00,PRATE,surface,-98.4379,32.5983,1.55e-05
2011-05-10 00:00:00,2011-05-10 00:00:00,PRATE,surface,-97.5004,32.5983,3e-05
2011-05-10 00:00:00,2011-05-10 00:00:00,PRATE,surface,-96.5629,32.5983,4.28e-05
2011-05-10 00:00:00,2011-05-10 00:00:00,PRATE,surface,-95.6254,32.5983,4.28e-05
2011-05-10 00:00:00,2011-05-10 00:00:00,PRATE,surface,-94.6879,32.5983,3.7e-05
2011-05-10 00:00:00,2011-05-10 00:00:00,PRATE,surface,-93.7504,32.5983,2.72e-05
2011-05-10 00:00:00,2011-05-10 00:00:00,PRATE,surface,-92.8129,32.5983,1.99e-05
2011-05-10 00:00:00,2011-05-10 00:00:00,PRATE,surface,-107.813,33.5432,1.02e-05
2011-05-10 00:00:00,2011-05-10 00:00:00,PRATE,surface,-106.875,33.5432,2.4e-06
2011-05-10 00:00:00,2011-05-10 00:00:00,PRATE,surface,-105.938,33.5432,3e-07
2011-05-10 00:00:00,2011-05-10 00:00:00,PRATE,surface,-105,33.5432,1e-06
2011-05-10 00:00:00,2011-05-10 00:00:00,PRATE,surface,-104.063,33.5432,1.8e-06
2011-05-10 00:00:00,2011-05-10 00:00:00,PRATE,surface,-103.125,33.5432,2e-06
2011-05-10 00:00:00,2011-05-10 00:00:00,PRATE,surface,-102.188,33.5432,4.5e-06
2011-05-10 00:00:00,2011-05-10 00:00:00,PRATE,surface,-101.25,33.5432,1.1e-05
2011-05-10 00:00:00,2011-05-10 00:00:00,PRATE,surface,-100.313,33.5432,1.4e-05
2011-05-10 00:00:00,2011-05-10 00:00:00,PRATE,surface,-99.3754,33.5432,1.16e-05
2011-05-10 00:00:00,2011-05-10 00:00:00,PRATE,surface,-98.4379,33.5432,8e-06
2011-05-10 00:00:00,2011-05-10 00:00:00,PRATE,surface,-97.5004,33.5432,1.82e-05
2011-05-10 00:00:00,2011-05-10 00:00:00,PRATE,surface,-96.5629,33.5432,3.13e-05
2011-05-10 00:00:00,2011-05-10 00:00:00,PRATE,surface,-95.6254,33.5432,3.48e-05
2011-05-10 00:00:00,2011-05-10 00:00:00,PRATE,surface,-94.6879,33.5432,4.09e-05
2011-05-10 00:00:00,2011-05-10 00:00:00,PRATE,surface,-93.7504,33.5432,4.86e-05
2011-05-10 00:00:00,2011-05-10 00:00:00,PRATE,surface,-92.8129,33.5432,4.36e-05
2011-05-10 00:00:00,2011-05-10 00:00:00,PRATE,surface,-107.813,34.4881,1.56e-05
2011-05-10 00:00:00,2011-05-10 00:00:00,PRATE,surface,-106.875,34.4881,3.3e-06
2011-05-10 00:00:00,2011-05-10 00:00:00,PRATE,surface,-105.938,34.4881,2e-07
2011-05-10 00:00:00,2011-05-10 00:00:00,PRATE,surface,-105,34.4881,2e-07
2011-05-10 00:00:00,2011-05-10 00:00:00,PRATE,surface,-104.063,34.4881,5e-07
2011-05-10 00:00:00,2011-05-10 00:00:00,PRATE,surface,-103.125,34.4881,1.1e-06
2011-05-10 00:00:00,2011-05-10 00:00:00,PRATE,surface,-102.188,34.4881,1.7e-06
2011-05-10 00:00:00,2011-05-10 00:00:00,PRATE,surface,-101.25,34.4881,5.8e-06
2011-05-10 00:00:00,2011-05-10 00:00:00,PRATE,surface,-100.313,34.4881,1.15e-05
2011-05-10 00:00:00,2011-05-10 00:00:00,PRATE,surface,-99.3754,34.4881,1.71e-05
2011-05-10 00:00:00,2011-05-10 00:00:00,PRATE,surface,-98.4379,34.4881,2.08e-05
2011-05-10 00:00:00,2011-05-10 00:00:00,PRATE,surface,-97.5004,34.4881,2.9e-05
2011-05-10 00:00:00,2011-05-10 00:00:00,PRATE,surface,-96.5629,34.4881,3.33e-05
2011-05-10 00:00:00,2011-05-10 00:00:00,PRATE,surface,-95.6254,34.4881,3.81e-05
2011-05-10 00:00:00,2011-05-10 00:00:00,PRATE,surface,-94.6879,34.4881,5.41e-05
2011-05-10 00:00:00,2011-05-10 00:00:00,PRATE,surface,-93.7504,34.4881,6.23e-05
2011-05-10 00:00:00,2011-05-10 00:00:00,PRATE,surface,-92.8129,34.4881,6.69e-05
2011-05-10 00:00:00,2011-05-10 00:00:00,PRATE,surface,-107.813,35.4329,9.3e-06
2011-05-10 00:00:00,2011-05-10 00:00:00,PRATE,surface,-106.875,35.4329,4.3e-06
2011-05-10 00:00:00,2011-05-10 00:00:00,PRATE,surface,-105.938,35.4329,1.6e-06
2011-05-10 00:00:00,2011-05-10 00:00:00,PRATE,surface,-105,35.4329,4e-07
2011-05-10 00:00:00,2011-05-10 00:00:00,PRATE,surface,-104.063,35.4329,3e-07
2011-05-10 00:00:00,2011-05-10 00:00:00,PRATE,surface,-103.125,35.4329,6e-07
2011-05-10 00:00:00,2011-05-10 00:00:00,PRATE,surface,-102.188,35.4329,2e-06
2011-05-10 00:00:00,2011-05-10 00:00:00,PRATE,surface,-101.25,35.4329,8.8e-06
2011-05-10 00:00:00,2011-05-10 00:00:00,PRATE,surface,-100.313,35.4329,1.28e-05
2011-05-10 00:00:00,2011-05-10 00:00:00,PRATE,surface,-99.3754,35.4329,1.72e-05
2011-05-10 00:00:00,2011-05-10 00:00:00,PRATE,surface,-98.4379,35.4329,2.06e-05
2011-05-10 00:00:00,2011-05-10 00:00:00,PRATE,surface,-97.5004,35.4329,2.48e-05
2011-05-10 00:00:00,2011-05-10 00:00:00,PRATE,surface,-96.5629,35.4329,3.16e-05
2011-05-10 00:00:00,2011-05-10 00:00:00,PRATE,surface,-95.6254,35.4329,3.71e-05
2011-05-10 00:00:00,2011-05-10 00:00:00,PRATE,surface,-94.6879,35.4329,4.51e-05
2011-05-10 00:00:00,2011-05-10 00:00:00,PRATE,surface,-93.7504,35.4329,6.25e-05
2011-05-10 00:00:00,2011-05-10 00:00:00,PRATE,surface,-92.8129,35.4329,7.19e-05
2011-05-10 00:00:00,2011-05-10 00:00:00,PRATE,surface,-107.813,36.3778,1.23e-05
2011-05-10 00:00:00,2011-05-10 00:00:00,PRATE,surface,-106.875,36.3778,1.49e-05
2011-05-10 00:00:00,2011-05-10 00:00:00,PRATE,surface,-105.938,36.3778,8.8e-06
2011-05-10 00:00:00,2011-05-10 00:00:00,PRATE,surface,-105,36.3778,1.9e-06
2011-05-10 00:00:00,2011-05-10 00:00:00,PRATE,surface,-104.063,36.3778,6e-07
2011-05-10 00:00:00,2011-05-10 00:00:00,PRATE,surface,-103.125,36.3778,1.6e-06
2011-05-10 00:00:00,2011-05-10 00:00:00,PRATE,surface,-102.188,36.3778,3.6e-06
2011-05-10 00:00:00,2011-05-10 00:00:00,PRATE,surface,-101.25,36.3778,1.34e-05
2011-05-10 00:00:00,2011-05-10 00:00:00,PRATE,surface,-100.313,36.3778,2.14e-05
2011-05-10 00:00:00,2011-05-10 00:00:00,PRATE,surface,-99.3754,36.3778,2.45e-05
2011-05-10 00:00:00,2011-05-10 00:00:00,PRATE,surface,-98.4379,36.3778,2.53e-05
2011-05-10 00:00:00,2011-05-10 00:00:00,PRATE,surface,-97.5004,36.3778,2.33e-05
2011-05-10 00:00:00,2011-05-10 00:00:00,PRATE,surface,-96.5629,36.3778,2.42e-05
2011-05-10 00:00:00,2011-05-10 00:00:00,PRATE,surface,-95.6254,36.3778,2.82e-05
2011-05-10 00:00:00,2011-05-10 00:00:00,PRATE,surface,-94.6879,36.3778,3.22e-05
2011-05-10 00:00:00,2011-05-10 00:00:00,PRATE,surface,-93.7504,36.3778,4.31e-05
2011-05-10 00:00:00,2011-05-10 00:00:00,PRATE,surface,-92.8129,36.3778,5.49e-05
