2014-03-24 00:00:00,2014-03-24 00:00:00,TMP,surface,-107.813,25.0393,300.904
2014-03-24 00:00:00,2014-03-24 00:00:00,TMP,surface,-106.875,25.0393,296.59
2014-03-24 00:00:00,2014-03-24 00:00:00,TMP,surface,-105.938,25.0393,292.152
2014-03-24 00:00:00,2014-03-24 00:00:00,TMP,surface,-105,25.0393,290.891
2014-03-24 00:00:00,2014-03-24 00:00:00,TMP,surface,-104.063,25.0393,293.659
2014-03-24 00:00:00,2014-03-24 00:00:00,TMP,surface,-103.125,25.0393,295.704
2014-03-24 00:00:00,2014-03-24 00:00:00,TMP,surface,-102.188,25.0393,294.133
2014-03-24 00:00:00,2014-03-24 00:00:00,TMP,surface,-101.25,25.0393,292.024
2014-03-24 00:00:00,2014-03-24 00:00:00,TMP,surface,-100.313,25.0393,291.915
2014-03-24 00:00:00,2014-03-24 00:00:00,TMP,surface,-99.3754,25.0393,295.093
2014-03-24 00:00:00,2014-03-24 00:00:00,TMP,surface,-98.4379,25.0393,297.8
2014-03-24 00:00:00,2014-03-24 00:00:00,TMP,surface,-97.5004,25.0393,296.808
2014-03-24 00:00:00,2014-03-24 00:00:00,TMP,surface,-96.5629,25.0393,297.654
2014-03-24 00:00:00,2014-03-24 00:00:00,TMP,surface,-95.6254,25.0393,299.149
2014-03-24 00:00:00,2014-03-24 00:00:00,TMP,surface,-94.6879,25.0393,299.478
2014-03-24 00:00:00,2014-03-24 00:00:00,TMP,surface,-93.7504,25.0393,299.261
2014-03-24 00:00:00,2014-03-24 00:00:00,TMP,surface,-92.8129,25.0393,299.149
2014-03-24 00:00:00,2014-03-24 00:00:00,TMP,surface,-107.813,25.9842,298.299
2014-03-24 00:00:00,2014-03-24 00:00:00,TMP,surface,-106.875,25.9842,292.821
2014-03-24 00:00:00,2014-03-24 00:00:00,TMP,surface,-105.938,25.9842,290.95
2014-03-24 00:00:00,2014-03-24 00:00:00,TMP,surface,-105,25.9842,292.261
2014-03-24 00:00:00,2014-03-24 00:00:00,TMP,surface,-104.063,25.9842,296.44
2014-03-24 00:00:00,2014-03-24 00:00:00,TMP,surface,-103.125,25.9842,298.129
2014-03-24 00:00:00,2014-03-24 00:00:00,TMP,surface,-102.188,25.9842,296.069
2014-03-24 00:00:00,2014-03-24 00:00:00,TMP,surface,-101.25,25.9842,294.512
2014-03-24 00:00:00,2014-03-24 00:00:00,TMP,surface,-100.313,25.9842,294.955
2014-03-24 00:00:00,2014-03-24 00:00:00,TMP,surface,-99.3754,25.9842,297.787
2014-03-24 00:00:00,2014-03-24 00:00:00,TMP,surface,-98.4379,25.9842,298.393
2014-03-24 00:00:00,2014-03-24 00:00:00,TMP,surface,-97.5004,25.9842,297.737
2014-03-24 00:00:00,2014-03-24 00:00:00,TMP,surface,-96.5629,25.9842,296.789
2014-03-24 00:00:00,2014-03-24 00:00:00,TMP,surface,-95.6254,25.9842,298.357
2014-03-24 00:00:00,2014-03-24 00:00:00,TMP,surface,-94.6879,25.9842,298.918
2014-03-24 00:00:00,2014-03-24 00:00:00,TMP,surface,-93.7504,25.9842,298.905
2014-03-24 00:00:00,2014-03-24 00:00:00,TMP,surface,-92.8129,25.9842,298.718
2014-03-24 00:00:00,2014-03-24 00:00:00,TMP,surface,-107.813,26.929,293.976
2014-03-24 00:00:00,2014-03-24 00:00:00,TMP,surface,-106.875,26.929,291.067
2014-03-24 00:00:00,2014-03-24 00:00:00,TMP,surface,-105.938,26.929,291.776
2014-03-24 00:00:00,2014-03-24 00:00:00,TMP,surface,-105,26.929,294.88
2014-03-24 00:00:00,2014-03-24 00:00:00,TMP,surface,-104.063,26.929,297.445
2014-03-24 00:00:00,2014-03-24 00:00:00,TMP,surface,-103.125,26.929,296.905
2014-03-24 00:00:00,2014-03-24 00:00:00,TMP,surface,-102.188,26.929,295.661
2014-03-24 00:00:00,2014-03-24 00:00:00,TMP,surface,-101.25,26.929,295.835
2014-03-24 00:00:00,2014-03-24 00:00:00,TMP,surface,-100.313,26.929,297.625
2014-03-24 00:00:00,2014-03-24 00:00:00,TMP,surface,-99.3754,26.929,299.112
2014-03-24 00:00:00,2014-03-24 00:00:00,TMP,surface,-98.4379,26.929,298.011
2014-03-24 00:00:00,2014-03-24 00:00:00,TMP,surface,-97.5004,26.929,296.302
2014-03-24 00:00:00,2014-03-24 00:00:00,TMP,surface,-96.5629,26.929,297.302
2014-03-24 00:00:00,2014-03-24 00:00:00,TMP,surface,-95.6254,26.929,298.358
2014-03-24 00:00:00,2014-03-24 00:00:00,TMP,surface,-94.6879,26.929,298.645
2014-03-24 00:00:00,2014-03-24 00:00:00,TMP,surface,-93.7504,26.929,298.488
2014-03-24 00:00:00,2014-03-24 00:00:00,TMP,surface,-92.8129,26.929,298.237
2014-03-24 00:00:00,2014-03-24 00:00:00,TMP,surface,-107.813,27.8739,291.589
2014-03-24 00:00:00,2014-03-24 00:00:00,TMP,surface,-106.875,27.8739,290.659
2014-03-24 00:00:00,2014-03-24 00:00:00,TMP,surface,-105.938,27.8739,293.421
2014-03-24 00:00:00,2014-03-24 00:00:00,TMP,surface,-105,27.8739,296.507
2014-03-24 00:00:00,2014-03-24 00:00:00,TMP,surface,-104.063,27.8739,296.689
2014-03-24 00:00:00,2014-03-24 00:00:00,TMP,surface,-103.125,27.8739,295.161
2014-03-24 00:00:00,2014-03-24 00:00:00,TMP,surface,-102.188,27.8739,294.256
2014-03-24 00:00:00,2014-03-24 00:00:00,TMP,surface,-101.25,27.8739,295.966
2014-03-24 00:00:00,2014-03-24 00:00:00,TMP,surface,-100.313,27.8739,298.038
2014-03-24 00:00:00,2014-03-24 00:00:00,TMP,surface,-99.3754,27.8739,298.233
2014-03-24 00:00:00,2014-03-24 00:00:00,TMP,surface,-98.4379,27.8739,297.046
2014-03-24 00:00:00,2014-03-24 00:00:00,TMP,surface,-97.5004,27.8739,296.539
2014-03-24 00:00:00,2014-03-24 00:00:00,TMP,surface,-96.5629,27.8739,296.808
2014-03-24 00:00:00,2014-03-24 00:00:00,TMP,surface,-95.6254,27.8739,297.185
2014-03-24 00:00:00,2014-03-24 00:00:00,TMP,surface,-94.6879,27.8739,297.713
2014-03-24 00:00:00,2014-03-24 00:00:00,TMP,surface,-93.7504,27.8739,297.773
2014-03-24 00:00:00,2014-03-24 00:00:00,TMP,surface,-92.8129,27.8739,297.6
2014-03-24 00:00:00,2014-03-24 00:00:00,TMP,surface,-107.813,28.8188,291.102
2014-03-24 00:00:00,2014-03-24 00:00:00,TMP,surface,-106.875,28.8188,291.417
2014-03-24 00:00:00,2014-03-24 00:00:00,TMP,surface,-105.938,28.8188,294.419
2014-03-24 00:00:00,2014-03-24 00:00:00,TMP,surface,-105,28.8188,297.232
2014-03-24 00:00:00,2014-03-24 00:00:00,TMP,surface,-104.063,28.8188,296.409
2014-03-24 00:00:00,2014-03-24 00:00:00,TMP,surface,-103.125,28.8188,294.966
2014-03-24 00:00:00,2014-03-24 00:00:00,TMP,surface,-102.188,28.8188,294.366
2014-03-24 00:00:00,2014-03-24 00:00:00,TMP,surface,-101.25,28.8188,295.921
2014-03-24 00:00:00,2014-03-24 00:00:00,TMP,surface,-100.313,28.8188,296.664
2014-03-24 00:00:00,2014-03-24 00:00:00,TMP,surface,-99.3754,28.8188,296.059
2014-03-24 00:00:00,2014-03-24 00:00:00,TMP,surface,-98.4379,28.8188,295.536
2014-03-24 00:00:00,2014-03-24 00:00:00,TMP,surface,-97.5004,28.8188,295.441
2014-03-24 00:00:00,2014-03-24 00:00:00,TMP,surface,-96.5629,28.8188,295.715
2014-03-24 00:00:00,2014-03-24 00:00:00,TMP,surface,-95.6254,28.8188,295.525
2014-03-24 00:00:00,2014-03-24 00:00:00,TMP,surface,-94.6879,28.8188,295.07
2014-03-24 00:00:00,2014-03-24 00:00:00,TMP,surface,-93.7504,28.8188,296.27
2014-03-24 00:00:00,2014-03-24 00:00:00,TMP,surface,-92.8129,28.8188,296.758
2014-03-24 00:00:00,2014-03-24 00:00:00,TMP,surface,-107.813,29.7637,293.056
2014-03-24 00:00:00,2014-03-24 00:00:00,TMP,surface,-106.875,29.7637,293.702
2014-03-24 00:00:00,2014-03-24 00:00:00,TMP,surface,-105.938,29.7637,295.624
2014-03-24 00:00:00,2014-03-24 00:00:00,TMP,surface,-105,29.7637,296.454
2014-03-24 00:00:00,2014-03-24 00:00:00,TMP,surface,-104.063,29.7637,296.419
2014-03-24 00:00:00,2014-03-24 00:00:00,TMP,surface,-103.125,29.7637,296.136
2014-03-24 00:00:00,2014-03-24 00:00:00,TMP,surface,-102.188,29.7637,296.248
2014-03-24 00:00:00,2014-03-24 00:00:00,TMP,surface,-101.25,29.7637,296.261
2014-03-24 00:00:00,2014-03-24 00:00:00,TMP,surface,-100.313,29.7637,295.334
2014-03-24 00:00:00,2014-03-24 00:00:00,TMP,surface,-99.3754,29.7637,294.31
2014-03-24 00:00:00,2014-03-24 00:00:00,TMP,surface,-98.4379,29.7637,293.958
2014-03-24 00:00:00,2014-03-24 00:00:00,TMP,surface,-97.5004,29.7637,294.328
2014-03-24 00:00:00,2014-03-24 00:00:00,TMP,surface,-96.5629,29.7637,294.84
2014-03-24 00:00:00,2014-03-24 00:00:00,TMP,surface,-95.6254,29.7637,295.195
2014-03-24 00:00:00,2014-03-24 00:00:00,TMP,surface,-94.6879,29.7637,295.259
2014-03-24 00:00:00,2014-03-24 00:00:00,TMP,surface,-93.7504,29.7637,295.344
2014-03-24 00:00:00,2014-03-24 00:00:00,TMP,surface,-92.8129,29.7637,296.886
2014-03-24 00:00:00,2014-03-24 00:00:00,TMP,surface,-107.813,30.7085,296.912
2014-03-24 00:00:00,2014-03-24 00:00:00,TMP,surface,-106.875,30.7085,297.249
2014-03-24 00:00:00,2014-03-24 00:00:00,TMP,surface,-105.938,30.7085,296.881
2014-03-24 00:00:00,2014-03-24 00:00:00,TMP,surface,-105,30.7085,296.433
2014-03-24 00:00:00,2014-03-24 00:00:00,TMP,surface,-104.063,30.7085,296.192
2014-03-24 00:00:00,2014-03-24 00:00:00,TMP,surface,-103.125,30.7085,297.08
2014-03-24 00:00:00,2014-03-24 00:00:00,TMP,surface,-102.188,30.7085,297.198
2014-03-24 00:00:00,2014-03-24 00:00:00,TMP,surface,-101.25,30.7085,296.304
2014-03-24 00:00:00,2014-03-24 00:00:00,TMP,surface,-100.313,30.7085,295.091
2014-03-24 00:00:00,2014-03-24 00:00:00,TMP,surface,-99.3754,30.7085,294.177
2014-03-24 00:00:00,2014-03-24 00:00:00,TMP,surface,-98.4379,30.7085,293.99
2014-03-24 00:00:00,2014-03-24 00:00:00,TMP,surface,-97.5004,30.7085,294.318
2014-03-24 00:00:00,2014-03-24 00:00:00,TMP,surface,-96.5629,30.7085,295.283
2014-03-24 00:00:00,2014-03-24 00:00:00,TMP,surface,-95.6254,30.7085,296.245
2014-03-24 00:00:00,2014-03-24 00:00:00,TMP,surface,-94.6879,30.7085,296.313
2014-03-24 00:00:00,2014-03-24 00:00:00,TMP,surface,-93.7504,30.7085,296.456
2014-03-24 00:00:00,2014-03-24 00:00:00,TMP,surface,-92.8129,30.7085,296.553
2014-03-24 00:00:00,2014-03-24 00:00:00,TMP,surface,-107.813,31.6534,297.36
2014-03-24 00:00:00,2014-03-24 00:00:00,TMP,surface,-106.875,31.6534,297.469
2014-03-24 00:00:00,2014-03-24 00:00:00,TMP,surface,-105.938,31.6534,297.029
2014-03-24 00:00:00,2014-03-24 00:00:00,TMP,surface,-105,31.6534,296.328
2014-03-24 00:00:00,2014-03-24 00:00:00,TMP,surface,-104.063,31.6534,296.702
2014-03-24 00:00:00,2014-03-24 00:00:00,TMP,surface,-103.125,31.6534,297.251
2014-03-24 00:00:00,2014-03-24 00:00:00,TMP,surface,-102.188,31.6534,297.317
2014-03-24 00:00:00,2014-03-24 00:00:00,TMP,surface,-101.25,31.6534,296.494
2014-03-24 00:00:00,2014-03-24 00:00:00,TMP,surface,-100.313,31.6534,295.691
2014-03-24 00:00:00,2014-03-24 00:00:00,TMP,surface,-99.3754,31.6534,295.014
2014-03-24 00:00:00,2014-03-24 00:00:00,TMP,surface,-98.4379,31.6534,294.651
2014-03-24 00:00:00,2014-03-24 00:00:00,TMP,surface,-97.5004,31.6534,294.718
2014-03-24 00:00:00,2014-03-24 00:00:00,TMP,surface,-96.5629,31.6534,295.573
2014-03-24 00:00:00,2014-03-24 00:00:00,TMP,surface,-95.6254,31.6534,296.574
2014-03-24 00:00:00,2014-03-24 00:00:00,TMP,surface,-94.6879,31.6534,296.712
2014-03-24 00:00:00,2014-03-24 00:00:00,TMP,surface,-93.7504,31.6534,296.693
2014-03-24 00:00:00,2014-03-24 00:00:00,TMP,surface,-92.8129,31.6534,296.782
2014-03-24 00:00:00,2014-03-24 00:00:00,TMP,surface,-107.813,32.5983,294.224
2014-03-24 00:00:00,2014-03-24 00:00:00,TMP,surface,-106.875,32.5983,294.709
2014-03-24 00:00:00,2014-03-24 00:00:00,TMP,surface,-105.938,32.5983,295.013
2014-03-24 00:00:00,2014-03-24 00:00:00,TMP,surface,-105,32.5983,295.491
2014-03-24 00:00:00,2014-03-24 00:00:00,TMP,surface,-104.063,32.5983,296.253
2014-03-24 00:00:00,2014-03-24 00:00:00,TMP,surface,-103.125,32.5983,296.904
2014-03-24 00:00:00,2014-03-24 00:00:00,TMP,surface,-102.188,32.5983,296.859
2014-03-24 00:00:00,2014-03-24 00:00:00,TMP,surface,-101.25,32.5983,296.672
2014-03-24 00:00:00,2014-03-24 00:00:00,TMP,surface,-100.313,32.5983,296.769
2014-03-24 00:00:00,2014-03-24 00:00:00,TMP,surface,-99.3754,32.5983,296.261
2014-03-24 00:00:00,2014-03-24 00:00:00,TMP,surface,-98.4379,32.5983,295.369
2014-03-24 00:00:00,2014-03-24 00:00:00,TMP,surface,-97.5004,32.5983,294.981
2014-03-24 00:00:00,2014-03-24 00:00:00,TMP,surface,-96.5629,32.5983,295.541
2014-03-24 00:00:00,2014-03-24 00:00:00,TMP,surface,-95.6254,32.5983,296.515
2014-03-24 00:00:00,2014-03-24 00:00:00,TMP,surface,-94.6879,32.5983,296.998
2014-03-24 00:00:00,2014-03-24 00:00:00,TMP,surface,-93.7504,32.5983,296.947
2014-03-24 00:00:00,2014-03-24 00:00:00,TMP,surface,-92.8129,32.5983,296.993
2014-03-24 00:00:00,2014-03-24 00:00:00,TMP,surface,-107.813,33.5432,290.446
2014-03-24 00:00:00,2014-03-24 00:00:00,TMP,surface,-106.875,33.5432,291.982
2014-03-24 00:00:00,2014-03-24 00:00:00,TMP,surface,-105.938,33.5432,292.966
2014-03-24 00:00:00,2014-03-24 00:00:00,TMP,surface,-105,33.5432,294.43
2014-03-24 00:00:00,2014-03-24 00:00:00,TMP,surface,-104.063,33.5432,295.888
2014-03-24 00:00:00,2014-03-24 00:00:00,TMP,surface,-103.125,33.5432,296.245
2014-03-24 00:00:00,2014-03-24 00:00:00,TMP,surface,-102.188,33.5432,296.243
2014-03-24 00:00:00,2014-03-24 00:00:00,TMP,surface,-101.25,33.5432,296.286
2014-03-24 00:00:00,2014-03-24 00:00:00,TMP,surface,-100.313,33.5432,296.921
2014-03-24 00:00:00,2014-03-24 00:00:00,TMP,surface,-99.3754,33.5432,296.68
2014-03-24 00:00:00,2014-03-24 00:00:00,TMP,surface,-98.4379,33.5432,295.584
2014-03-24 00:00:00,2014-03-24 00:00:00,TMP,surface,-97.5004,33.5432,294.758
2014-03-24 00:00:00,2014-03-24 00:00:00,TMP,surface,-96.5629,33.5432,294.633
2014-03-24 00:00:00,2014-03-24 00:00:00,TMP,surface,-95.6254,33.5432,295.294
2014-03-24 00:00:00,2014-03-24 00:00:00,TMP,surface,-94.6879,33.5432,296.216
2014-03-24 00:00:00,2014-03-24 00:00:00,TMP,surface,-93.7504,33.5432,296.227
2014-03-24 00:00:00,2014-03-24 00:00:00,TMP,surface,-92.8129,33.5432,296.217
2014-03-24 00:00:00,2014-03-24 00:00:00,TMP,surface,-107.813,34.4881,289.013
2014-03-24 00:00:00,2014-03-24 00:00:00,TMP,surface,-106.875,34.4881,290.958
2014-03-24 00:00:00,2014-03-24 00:00:00,TMP,surface,-105.938,34.4881,291.997
2014-03-24 00:00:00,2014-03-24 00:00:00,TMP,surface,-105,34.4881,293.96
2014-03-24 00:00:00,2014-03-24 00:00:00,TMP,surface,-104.063,34.4881,295.182
2014-03-24 00:00:00,2014-03-24 00:00:00,TMP,surface,-103.125,34.4881,295.579
2014-03-24 00:00:00,2014-03-24 00:00:00,TMP,surface,-102.188,34.4881,295.701
2014-03-24 00:00:00,2014-03-24 00:00:00,TMP,surface,-101.25,34.4881,295.939
2014-03-24 00:00:00,2014-03-24 00:00:00,TMP,surface,-100.313,34.4881,296.243
2014-03-24 00:00:00,2014-03-24 00:00:00,TMP,surface,-99.3754,34.4881,296.185
2014-03-24 00:00:00,2014-03-24 00:00:00,TMP,surface,-98.4379,34.4881,295.344
2014-03-24 00:00:00,2014-03-24 00:00:00,TMP,surface,-97.5004,34.4881,294.427
2014-03-24 00:00:00,2014-03-24 00:00:00,TMP,surface,-96.5629,34.4881,294.542
2014-03-24 00:00:00,2014-03-24 00:00:00,TMP,surface,-95.6254,34.4881,295.224
2014-03-24 00:00:00,2014-03-24 00:00:00,TMP,surface,-94.6879,34.4881,295.301
2014-03-24 00:00:00,2014-03-24 00:00:00,TMP,surface,-93.7504,34.4881,295.157
2014-03-24 00:00:00,2014-03-24 00:00:00,TMP,surface,-92.8129,34.4881,295.485
2014-03-24 00:00:00,2014-03-24 00:00:00,TMP,surface,-107.813,35.4329,289.677
2014-03-24 00:00:00,2014-03-24 00:00:00,TMP,surface,-106.875,35.4329,290.158
2014-03-24 00:00:00,2014-03-24 00:00:00,TMP,surface,-105.938,35.4329,289.979
2014-03-24 00:00:00,2014-03-24 00:00:00,TMP,surface,-105,35.4329,291.173
2014-03-24 00:00:00,2014-03-24 00:00:00,TMP,surface,-104.063,35.4329,293.641
2014-03-24 00:00:00,2014-03-24 00:00:00,TMP,surface,-103.125,35.4329,295.009
2014-03-24 00:00:00,2014-03-24 00:00:00,TMP,surface,-102.188,35.4329,295.483
2014-03-24 00:00:00,2014-03-24 00:00:00,TMP,surface,-101.25,35.4329,295.622
2014-03-24 00:00:00,2014-03-24 00:00:00,TMP,surface,-100.313,35.4329,295.593
2014-03-24 00:00:00,2014-03-24 00:00:00,TMP,surface,-99.3754,35.4329,295.507
2014-03-24 00:00:00,2014-03-24 00:00:00,TMP,surface,-98.4379,35.4329,295.022
2014-03-24 00:00:00,2014-03-24 00:00:00,TMP,surface,-97.5004,35.4329,294.465
2014-03-24 00:00:00,2014-03-24 00:00:00,TMP,surface,-96.5629,35.4329,294.144
2014-03-24 00:00:00,2014-03-24 00:00:00,TMP,surface,-95.6254,35.4329,294.342
2014-03-24 00:00:00,2014-03-24 00:00:00,TMP,surface,-94.6879,35.4329,294.814
2014-03-24 00:00:00,2014-03-24 00:00:00,TMP,surface,-93.7504,35.4329,294.577
2014-03-24 00:00:00,2014-03-24 00:00:00,TMP,surface,-92.8129,35.4329,294.569
2014-03-24 00:00:00,2014-03-24 00:00:00,TMP,surface,-107.813,36.3778,289.032
2014-03-24 00:00:00,2014-03-24 00:00:00,TMP,surface,-106.875,36.3778,286.753
2014-03-24 00:00:00,2014-03-24 00:00:00,TMP,surface,-105.938,36.3778,286.966
2014-03-24 00:00:00,2014-03-24 00:00:00,TMP,surface,-105,36.3778,288.2
2014-03-24 00:00:00,2014-03-24 00:00:00,TMP,surface,-104.063,36.3778,291.225
2014-03-24 00:00:00,2014-03-24 00:00:00,TMP,surface,-103.125,36.3778,293.187
2014-03-24 00:00:00,2014-03-24 00:00:00,TMP,surface,-102.188,36.3778,294.187
2014-03-24 00:00:00,2014-03-24 00:00:00,TMP,surface,-101.25,36.3778,294.792
2014-03-24 00:00:00,2014-03-24 00:00:00,TMP,surface,-100.313,36.3778,295.24
2014-03-24 00:00:00,2014-03-24 00:00:00,TMP,surface,-99.3754,36.3778,295.216
2014-03-24 00:00:00,2014-03-24 00:00:00,TMP,surface,-98.4379,36.3778,294.878
2014-03-24 00:00:00,2014-03-24 00:00:00,TMP,surface,-97.5004,36.3778,294.462
2014-03-24 00:00:00,2014-03-24 00:00:00,TMP,surface,-96.5629,36.3778,294.165
2014-03-24 00:00:00,2014-03-24 00:00:00,TMP,surface,-95.6254,36.3778,294.193
2014-03-24 00:00:00,2014-03-24 00:00:00,TMP,surface,-94.6879,36.3778,294.222
2014-03-24 00:00:00,2014-03-24 00:00:00,TMP,surface,-93.7504,36.3778,293.813
2014-03-24 00:00:00,2014-03-24 00:00:00,TMP,surface,-92.8129,36.3778,293.761
2014-03-24 00:00:00,2014-03-24 00:00:00,PRATE,surface,-107.813,25.0393,0
2014-03-24 00:00:00,2014-03-24 00:00:00,PRATE,surface,-106.875,25.0393,7e-07
2014-03-24 00:00:00,2014-03-24 00:00:00,PRATE,surface,-105.938,25.0393,1.58e-05
2014-03-24 00:00:00,2014-03-24 00:00:00,PRATE,surface,-105,25.0393,6.54e-05
2014-03-24 00:00:00,2014-03-24 00:00:00,PRATE,surface,-104.063,25.0393,5.97e-05
2014-03-24 00:00:00,2014-03-24 00:00:00,PRATE,surface,-103.125,25.0393,1.5e-05
2014-03-24 00:00:00,2014-03-24 00:00:00,PRATE,surface,-102.188,25.0393,1.96e-05
2014-03-24 00:00:00,2014-03-24 00:00:00,PRATE,surface,-101.25,25.0393,5.07e-05
2014-03-24 00:00:00,2014-03-24 00:00:00,PRATE,surface,-100.313,25.0393,8.37e-05
2014-03-24 00:00:00,2014-03-24 00:00:00,PRATE,surface,-99.3754,25.0393,4.51e-05
2014-03-24 00:00:00,2014-03-24 00:00:00,PRATE,surface,-98.4379,25.0393,2.53e-05
2014-03-24 00:00:00,2014-03-24 00:00:00,PRATE,surface,-97.5004,25.0393,1.42e-05
2014-03-24 00:00:00,2014-03-24 00:00:00,PRATE,surface,-96.5629,25.0393,7.9e-06
2014-03-24 00:00:00,2014-03-24 00:00:00,PRATE,surface,-95.6254,25.0393,4.9e-06
2014-03-24 00:00:00,2014-03-24 00:00:00,PRATE,surface,-94.6879,25.0393,4.6e-06
2014-03-24 00:00:00,2014-03-24 00:00:00,PRATE,surface,-93.7504,25.0393,9.9e-06
2014-03-24 00:00:00,2014-03-24 00:00:00,PRATE,surface,-92.8129,25.0393,1.08e-05
2014-03-24 00:00:00,2014-03-24 00:00:00,PRATE,surface,-107.813,25.9842,0
2014-03-24 00:00:00,2014-03-24 00:00:00,PRATE,surface,-106.875,25.9842,1.1e-06
2014-03-24 00:00:00,2014-03-24 00:00:00,PRATE,surface,-105.938,25.9842,4.28e-05
2014-03-24 00:00:00,2014-03-24 00:00:00,PRATE,surface,-105,25.9842,7.28e-05
2014-03-24 00:00:00,2014-03-24 00:00:00,PRATE,surface,-104.063,25.9842,2.79e-05
2014-03-24 00:00:00,2014-03-24 00:00:00,PRATE,surface,-103.125,25.9842,3.3e-06
2014-03-24 00:00:00,2014-03-24 00:00:00,PRATE,surface,-102.188,25.9842,1.25e-05
2014-03-24 00:00:00,2014-03-24 00:00:00,PRATE,surface,-101.25,25.9842,4.13e-05
2014-03-24 00:00:00,2014-03-24 00:00:00,PRATE,surface,-100.313,25.9842,5.27e-05
2014-03-24 00:00:00,2014-03-24 00:00:00,PRATE,surface,-99.3754,25.9842,2.05e-05
2014-03-24 00:00:00,2014-03-24 00:00:00,PRATE,surface,-98.4379,25.9842,1.73e-05
2014-03-24 00:00:00,2014-03-24 00:00:00,PRATE,surface,-97.5004,25.9842,2.24e-05
2014-03-24 00:00:00,2014-03-24 00:00:00,PRATE,surface,-96.5629,25.9842,1.41e-05
2014-03-24 00:00:00,2014-03-24 00:00:00,PRATE,surface,-95.6254,25.9842,1.09e-05
2014-03-24 00:00:00,2014-03-24 00:00:00,PRATE,surface,-94.6879,25.9842,9e-06
2014-03-24 00:00:00,2014-03-24 00:00:00,PRATE,surface,-93.7504,25.9842,1.49e-05
2014-03-24 00:00:00,2014-03-24 00:00:00,PRATE,surface,-92.8129,25.9842,1.89e-05
2014-03-24 00:00:00,2014-03-24 00:00:00,PRATE,surface,-107.813,26.929,2e-07
2014-03-24 00:00:00,2014-03-24 00:00:00,PRATE,surface,-106.875,26.929,1.5e-05
2014-03-24 00:00:00,2014-03-24 00:00:00,PRATE,surface,-105.938,26.929,5.61e-05
2014-03-24 00:00:00,2014-03-24 00:00:00,PRATE,surface,-105,26.929,5.9e-05
2014-03-24 00:00:00,2014-03-24 00:00:00,PRATE,surface,-104.063,26.929,2.81e-05
2014-03-24 00:00:00,2014-03-24 00:00:00,PRATE,surface,-103.125,26.929,1.85e-05
2014-03-24 00:00:00,2014-03-24 00:00:00,PRATE,surface,-102.188,26.929,2.86e-05
2014-03-24 00:00:00,2014-03-24 00:00:00,PRATE,surface,-101.25,26.929,3.97e-05
2014-03-24 00:00:00,2014-03-24 00:00:00,PRATE,surface,-100.313,26.929,2.02e-05
2014-03-24 00:00:00,2014-03-24 00:00:00,PRATE,surface,-99.3754,26.929,1.85e-05
2014-03-24 00:00:00,2014-03-24 00:00:00,PRATE,surface,-98.4379,26.929,2.13e-05
2014-03-24 00:00:00,2014-03-24 00:00:00,PRATE,surface,-97.5004,26.929,1.63e-05
2014-03-24 00:00:00,2014-03-24 00:00:00,PRATE,surface,-96.5629,26.929,1.07e-05
2014-03-24 00:00:00,2014-03-24 00:00:00,PRATE,surface,-95.6254,26.929,9.8e-06
2014-03-24 00:00:00,2014-03-24 00:00:00,PRATE,surface,-94.6879,26.929,1.49e-05
2014-03-24 00:00:00,2014-03-24 00:00:00,PRATE,surface,-93.7504,26.929,4.91e-05
2014-03-24 00:00:00,2014-03-24 00:00:00,PRATE,surface,-92.8129,26.929,6.83e-05
2014-03-24 00:00:00,2014-03-24 00:00:00,PRATE,surface,-107.813,27.8739,7.9e-06
2014-03-24 00:00:00,2014-03-24 00:00:00,PRATE,surface,-106.875,27.8739,3.96e-05
2014-03-24 00:00:00,2014-03-24 00:00:00,PRATE,surface,-105.938,27.8739,4.2e-05
2014-03-24 00:00:00,2014-03-24 00:00:00,PRATE,surface,-105,27.8739,2.93e-05
2014-03-24 00:00:00,2014-03-24 00:00:00,PRATE,surface,-104.063,27.8739,4.1e-05
2014-03-24 00:00:00,2014-03-24 00:00:00,PRATE,surface,-103.125,27.8739,4.97e-05
2014-03-24 00:00:00,2014-03-24 00:00:00,PRATE,surface,-102.188,27.8739,6.74e-05
2014-03-24 00:00:00,2014-03-24 00:00:00,PRATE,surface,-101.25,27.8739,3.56e-05
2014-03-24 00:00:00,2014-03-24 00:00:00,PRATE,surface,-100.313,27.8739,1.68e-05
2014-03-24 00:00:00,2014-03-24 00:00:00,PRATE,surface,-99.3754,27.8739,1.89e-05
2014-03-24 00:00:00,2014-03-24 00:00:00,PRATE,surface,-98.4379,27.8739,1.78e-05
2014-03-24 00:00:00,2014-03-24 00:00:00,PRATE,surface,-97.5004,27.8739,1.29e-05
2014-03-24 00:00:00,2014-03-24 00:00:00,PRATE,surface,-96.5629,27.8739,8.9e-06
2014-03-24 00:00:00,2014-03-24 00:00:00,PRATE,surface,-95.6254,27.8739,1.17e-05
2014-03-24 00:00:00,2014-03-24 00:00:00,PRATE,surface,-94.6879,27.8739,3.12e-05
2014-03-24 00:00:00,2014-03-24 00:00:00,PRATE,surface,-93.7504,27.8739,5.26e-05
2014-03-24 00:00:00,2014-03-24 00:00:00,PRATE,surface,-92.8129,27.8739,4.97e-05
2014-03-24 00:00:00,2014-03-24 00:00:00,PRATE,surface,-107.813,28.8188,1.76e-05
2014-03-24 00:00:00,2014-03-24 00:00:00,PRATE,surface,-106.875,28.8188,5.93e-05
2014-03-24 00:00:00,2014-03-24 00:00:00,PRATE,surface,-105.938,28.8188,3.63e-05
2014-03-24 00:00:00,2014-03-24 00:00:00,PRATE,surface,-105,28.8188,1.76e-05
2014-03-24 00:00:00,2014-03-24 00:00:00,PRATE,surface,-104.063,28.8188,3.8e-05
2014-03-24 00:00:00,2014-03-24 00:00:00,PRATE,surface,-103.125,28.8188,3.89e-05
2014-03-24 00:00:00,2014-03-24 00:00:00,PRATE,surface,-102.188,28.8188,3.46e-05
2014-03-24 00:00:00,2014-03-24 00:00:00,PRATE,surface,-101.25,28.8188,2.1e-05
2014-03-24 00:00:00,2014-03-24 00:00:00,PRATE,surface,-100.313,28.8188,1.89e-05
2014-03-24 00:00:00,2014-03-24 00:00:00,PRATE,surface,-99.3754,28.8188,2.32e-05
2014-03-24 00:00:00,2014-03-24 00:00:00,PRATE,surface,-98.4379,28.8188,1.97e-05
2014-03-24 00:00:00,2014-03-24 00:00:00,PRATE,surface,-97.5004,28.8188,1.42e-05
2014-03-24 00:00:00,2014-03-24 00:00:00,PRATE,surface,-96.5629,28.8188,1.23e-05
2014-03-24 00:00:00,2014-03-24 00:00:00,PRATE,surface,-95.6254,28.8188,1.63e-05
2014-03-24 00:00:00,2014-03-24 00:00:00,PRATE,surface,-94.6879,28.8188,2.55e-05
2014-03-24 00:00:00,2014-03-24 00:00:00,PRATE,surface,-93.7504,28.8188,2.37e-05
2014-03-24 00:00:00,2014-03-24 00:00:00,PRATE,surface,-92.8129,28.8188,1.23e-05
2014-03-24 00:00:00,2014-03-24 00:00:00,PRATE,surface,-107.813,29.7637,1.67e-05
2014-03-24 00:00:00,2014-03-24 00:00:00,PRATE,surface,-106.875,29.7637,5.07e-05
2014-03-24 00:00:00,2014-03-24 00:00:00,PRATE,surface,-105.938,29.7637,4e-05
2014-03-24 00:00:00,2014-03-24 00:00:00,PRATE,surface,-105,29.7637,4.44e-05
2014-03-24 00:00:00,2014-03-24 00:00:00,PRATE,surface,-104.063,29.7637,3.72e-05
2014-03-24 00:00:00,2014-03-24 00:00:00,PRATE,surface,-103.125,29.7637,2.43e-05
2014-03-24 00:00:00,2014-03-24 00:00:00,PRATE,surface,-102.188,29.7637,1.59e-05
2014-03-24 00:00:00,2014-03-24 00:00:00,PRATE,surface,-101.25,29.7637,1.52e-05
2014-03-24 00:00:00,2014-03-24 00:00:00,PRATE,surface,-100.313,29.7637,2.46e-05
2014-03-24 00:00:00,2014-03-24 00:00:00,PRATE,surface,-99.3754,29.7637,2.8e-05
2014-03-24 00:00:00,2014-03-24 00:00:00,PRATE,surface,-98.4379,29.7637,2.16e-05
2014-03-24 00:00:00,2014-03-24 00:00:00,PRATE,surface,-97.5004,29.7637,1.43e-05
2014-03-24 00:00:00,2014-03-24 00:00:00,PRATE,surface,-96.5629,29.7637,1.21e-05
2014-03-24 00:00:00,2014-03-24 00:00:00,PRATE,surface,-95.6254,29.7637,1.32e-05
2014-03-24 00:00:00,2014-03-24 00:00:00,PRATE,surface,-94.6879,29.7637,1.29e-05
2014-03-24 00:00:00,2014-03-24 00:00:00,PRATE,surface,-93.7504,29.7637,1.04e-05
2014-03-24 00:00:00,2014-03-24 00:00:00,PRATE,surface,-92.8129,29.7637,8.6e-06
2014-03-24 00:00:00,2014-03-24 00:00:00,PRATE,surface,-107.813,30.7085,6.5e-06
2014-03-24 00:00:00,2014-03-24 00:00:00,PRATE,surface,-106.875,30.7085,1.87e-05
2014-03-24 00:00:00,2014-03-24 00:00:00,PRATE,surface,-105.938,30.7085,3.66e-05
2014-03-24 00:00:00,2014-03-24 00:00:00,PRATE,surface,-105,30.7085,5.1e-05
2014-03-24 00:00:00,2014-03-24 00:00:00,PRATE,surface,-104.063,30.7085,3.06e-05
2014-03-24 00:00:00,2014-03-24 00:00:00,PRATE,surface,-103.125,30.7085,1.26e-05
2014-03-24 00:00:00,2014-03-24 00:00:00,PRATE,surface,-102.188,30.7085,7.7e-06
2014-03-24 00:00:00,2014-03-24 00:00:00,PRATE,surface,-101.25,30.7085,1.12e-05
2014-03-24 00:00:00,2014-03-24 00:00:00,PRATE,surface,-100.313,30.7085,1.42e-05
2014-03-24 00:00:00,2014-03-24 00:00:00,PRATE,surface,-99.3754,30.7085,1.7e-05
2014-03-24 00:00:00,2014-03-24 00:00:00,PRATE,surface,-98.4379,30.7085,1.83e-05
2014-03-24 00:00:00,2014-03-24 00:00:00,PRATE,surface,-97.5004,30.7085,1.67e-05
2014-03-24 00:00:00,2014-03-24 00:00:00,PRATE,surface,-96.5629,30.7085,1.36e-05
2014-03-24 00:00:00,2014-03-24 00:00:00,PRATE,surface,-95.6254,30.7085,1.16e-05
2014-03-24 00:00:00,2014-03-24 00:00:00,PRATE,surface,-94.6879,30.7085,1.07e-05
2014-03-24 00:00:00,2014-03-24 00:00:00,PRATE,surface,-93.7504,30.7085,9.4e-06
2014-03-24 00:00:00,2014-03-24 00:00:00,PRATE,surface,-92.8129,30.7085,1.01e-05
2014-03-24 00:00:00,2014-03-24 00:00:00,PRATE,surface,-107.813,31.6534,7e-06
2014-03-24 00:00:00,2014-03-24 00:00:00,PRATE,surface,-106.875,31.6534,1.38e-05
2014-03-24 00:00:00,2014-03-24 00:00:00,PRATE,surface,-105.938,31.6534,3.15e-05
2014-03-24 00:00:00,2014-03-24 00:00:00,PRATE,surface,-105,31.6534,4.79e-05
2014-03-24 00:00:00,2014-03-24 00:00:00,PRATE,surface,-104.063,31.6534,2.48e-05
2014-03-24 00:00:00,2014-03-24 00:00:00,PRATE,surface,-103.125,31.6534,1.11e-05
2014-03-24 00:00:00,2014-03-24 00:00:00,PRATE,surface,-102.188,31.6534,7.4e-06
2014-03-24 00:00:00,2014-03-24 00:00:00,PRATE,surface,-101.25,31.6534,9.2e-06
2014-03-24 00:00:00,2014-03-24 00:00:00,PRATE,surface,-100.313,31.6534,1e-05
2014-03-24 00:00:00,2014-03-24 00:00:00,PRATE,surface,-99.3754,31.6534,9.9e-06
2014-03-24 00:00:00,2014-03-24 00:00:00,PRATE,surface,-98.4379,31.6534,8.2e-06
2014-03-24 00:00:00,2014-03-24 00:00:00,PRATE,surface,-97.5004,31.6534,1.04e-05
2014-03-24 00:00:00,2014-03-24 00:00:00,PRATE,surface,-96.5629,31.6534,1.2e-05
2014-03-24 00:00:00,2014-03-24 00:00:00,PRATE,surface,-95.6254,31.6534,9.4e-06
2014-03-24 00:00:00,2014-03-24 00:00:00,PRATE,surface,-94.6879,31.6534,9.3e-06
2014-03-24 00:00:00,2014-03-24 00:00:00,PRATE,surface,-93.7504,31.6534,1.16e-05
2014-03-24 00:00:00,2014-03-24 00:00:00,PRATE,surface,-92.8129,31.6534,1.41e-05
2014-03-24 00:00:00,2014-03-24 00:00:00,PRATE,surface,-107.813,32.5983,2.22e-05
2014-03-24 00:00:00,2014-03-24 00:00:00,PRATE,surface,-106.875,32.5983,3.12e-05
2014-03-24 00:00:00,2014-03-24 00:00:00,PRATE,surface,-105.938,32.5983,4.77e-05
2014-03-24 00:00:00,2014-03-24 00:00:00,PRATE,surface,-105,32.5983,4.31e-05
2014-03-24 00:00:00,2014-03-24 00:00:00,PRATE,surface,-104.063,32.5983,2.23e-05
2014-03-24 00:00:00,2014-03-24 00:00:00,PRATE,surface,-103.125,32.5983,1.14e-05
2014-03-24 00:00:00,2014-03-24 00:00:00,PRATE,surface,-102.188,32.5983,1.09e-05
2014-03-24 00:00:00,2014-03-24 00:00:00,PRATE,surface,-101.25,32.5983,1.25e-05
2014-03-24 00:00:00,2014-03-24 00:00:00,PRATE,surface,-100.313,32.5983,4.7e-06
2014-03-24 00:00:00,2014-03-24 00:00:00,PRATE,surface,-99.3754,32.5983,2.4e-06
2014-03-24 00:00:00,2014-03-24 00:00:00,PRATE,surface,-98.4379,32.5983,5.2e-06
2014-03-24 00:00:00,2014-03-24 00:00:00,PRATE,surface,-97.5004,32.5983,8.6e-06
2014-03-24 00:00:00,2014-03-24 00:00:00,PRATE,surface,-96.5629,32.5983,1.2e-05
2014-03-24 00:00:00,2014-03-24 00:00:00,PRATE,surface,-95.6254,32.5983,1.22e-05
2014-03-24 00:00:00,2014-03-24 00:00:00,PRATE,surface,-94.6879,32.5983,9.2e-06
2014-03-24 00:00:00,2014-03-24 00:00:00,PRATE,surface,-93.7504,32.5983,9.3e-06
2014-03-24 00:00:00,2014-03-24 00:00:00,PRATE,surface,-92.8129,32.5983,1.04e-05
2014-03-24 00:00:00,2014-03-24 00:00:00,PRATE,surface,-107.813,33.5432,3.46e-05
2014-03-24 00:00:00,2014-03-24 00:00:00,PRATE,surface,-106.875,33.5432,3.6e-05
2014-03-24 00:00:00,2014-03-24 00:00:00,PRATE,surface,-105.938,33.5432,4.29e-05
2014-03-24 00:00:00,2014-03-24 00:00:00,PRATE,surface,-105,33.5432,4.08e-05
2014-03-24 00:00:00,2014-03-24 00:00:00,PRATE,surface,-104.063,33.5432,2.71e-05
2014-03-24 00:00:00,2014-03-24 00:00:00,PRATE,surface,-103.125,33.5432,1.7e-05
2014-03-24 00:00:00,2014-03-24 00:00:00,PRATE,surface,-102.188,33.5432,1.21e-05
2014-03-24 00:00:00,2014-03-24 00:00:00,PRATE,surface,-101.25,33.5432,8.3e-06
2014-03-24 00:00:00,2014-03-24 00:00:00,PRATE,surface,-100.313,33.5432,3.7e-06
2014-03-24 00:00:00,2014-03-24 00:00:00,PRATE,surface,-99.3754,33.5432,3.6e-06
2014-03-24 00:00:00,2014-03-24 00:00:00,PRATE,surface,-98.4379,33.5432,5.1e-06
2014-03-24 00:00:00,2014-03-24 00:00:00,PRATE,surface,-97.5004,33.5432,5.1e-06
2014-03-24 00:00:00,2014-03-24 00:00:00,PRATE,surface,-96.5629,33.5432,8.4e-06
2014-03-24 00:00:00,2014-03-24 00:00:00,PRATE,surface,-95.6254,33.5432,1.05e-05
2014-03-24 00:00:00,2014-03-24 00:00:00,PRATE,surface,-94.6879,33.5432,8.2e-06
2014-03-24 00:00:00,2014-03-24 00:00:00,PRATE,surface,-93.7504,33.5432,1.32e-05
2014-03-24 00:00:00,2014-03-24 00:00:00,PRATE,surface,-92.8129,33.5432,1.16e-05
2014-03-24 00:00:00,2014-03-24 00:00:00,PRATE,surface,-107.813,34.4881,2.38e-05
2014-03-24 00:00:00,2014-03-24 00:00:00,PRATE,surface,-106.875,34.4881,2.08e-05
2014-03-24 00:00:00,2014-03-24 00:00:00,PRATE,surface,-105.938,34.4881,2.95e-05
2014-03-24 00:00:00,2014-03-24 00:00:00,PRATE,surface,-105,34.4881,3.77e-05
2014-03-24 00:00:00,2014-03-24 00:00:00,PRATE,surface,-104.063,34.4881,4.36e-05
2014-03-24 00:00:00,2014-03-24 00:00:00,PRATE,surface,-103.125,34.4881,2.96e-05
2014-03-24 00:00:00,2014-03-24 00:00:00,PRATE,surface,-102.188,34.4881,2.09e-05
2014-03-24 00:00:00,2014-03-24 00:00:00,PRATE,surface,-101.25,34.4881,1.59e-05
2014-03-24 00:00:00,2014-03-24 00:00:00,PRATE,surface,-100.313,34.4881,9.8e-06
2014-03-24 00:00:00,2014-03-24 00:00:00,PRATE,surface,-99.3754,34.4881,5.2e-06
2014-03-24 00:00:00,2014-03-24 00:00:00,PRATE,surface,-98.4379,34.4881,6.4e-06
2014-03-24 00:00:00,2014-03-24 00:00:00,PRATE,surface,-97.5004,34.4881,7.8e-06
2014-03-24 00:00:00,2014-03-24 00:00:00,PRATE,surface,-96.5629,34.4881,6.6e-06
2014-03-24 00:00:00,2014-03-24 00:00:00,PRATE,surface,-95.6254,34.4881,6.8e-06
2014-03-24 00:00:00,2014-03-24 00:00:00,PRATE,surface,-94.6879,34.4881,8.3e-06
2014-03-24 00:00:00,2014-03-24 00:00:00,PRATE,surface,-93.7504,34.4881,8.9e-06
2014-03-24 00:00:00,2014-03-24 00:00:00,PRATE,surface,-92.8129,34.4881,1.23e-05
2014-03-24 00:00:00,2014-03-24 00:00:00,PRATE,surface,-107.813,35.4329,1.51e-05
2014-03-24 00:00:00,2014-03-24 00:00:00,PRATE,surface,-106.875,35.4329,1.59e-05
2014-03-24 00:00:00,2014-03-24 00:00:00,PRATE,surface,-105.938,35.4329,3.14e-05
2014-03-24 00:00:00,2014-03-24 00:00:00,PRATE,surface,-105,35.4329,5.83e-05
2014-03-24 00:00:00,2014-03-24 00:00:00,PRATE,surface,-104.063,35.4329,6.53e-05
2014-03-24 00:00:00,2014-03-24 00:00:00,PRATE,surface,-103.125,35.4329,5.72e-05
2014-03-24 00:00:00,2014-03-24 00:00:00,PRATE,surface,-102.188,35.4329,4.12e-05
2014-03-24 00:00:00,2014-03-24 00:00:00,PRATE,surface,-101.25,35.4329,3.56e-05
2014-03-24 00:00:00,2014-03-24 00:00:00,PRATE,surface,-100.313,35.4329,3.15e-05
2014-03-24 00:00:00,2014-03-24 00:00:00,PRATE,surface,-99.3754,35.4329,2.28e-05
2014-03-24 00:00:00,2014-03-24 00:00:00,PRATE,surface,-98.4379,35.4329,1.6e-05
2014-03-24 00:00:00,2014-03-24 00:00:00,PRATE,surface,-97.5004,35.4329,1.15e-05
2014-03-24 00:00:00,2014-03-24 00:00:00,PRATE,surface,-96.5629,35.4329,8.6e-06
2014-03-24 00:00:00,2014-03-24 00:00:00,PRATE,surface,-95.6254,35.4329,7.9e-06
2014-03-24 00:00:00,2014-03-24 00:00:00,PRATE,surface,-94.6879,35.4329,9.7e-06
2014-03-24 00:00:00,2014-03-24 00:00:00,PRATE,surface,-93.7504,35.4329,1.62e-05
2014-03-24 00:00:00,2014-03-24 00:00:00,PRATE,surface,-92.8129,35.4329,1.82e-05
2014-03-24 00:00:00,2014-03-24 00:00:00,PRATE,surface,-107.813,36.3778,1.13e-05
2014-03-24 00:00:00,2014-03-24 00:00:00,PRATE,surface,-106.875,36.3778,2.31e-05
2014-03-24 00:00:00,2014-03-24 00:00:00,PRATE,surface,-105.938,36.3778,4.51e-05
2014-03-24 00:00:00,2014-03-24 00:00:00,PRATE,surface,-105,36.3778,8.07e-05
2014-03-24 00:00:00,2014-03-24 00:00:00,PRATE,surface,-104.063,36.3778,0.0001029
2014-03-24 00:00:00,2014-03-24 00:00:00,PRATE,surface,-103.125,36.3778,8.95e-05
2014-03-24 00:00:00,2014-03-24 00:00:00,PRATE,surface,-102.188,36.3778,7.1e-05
2014-03-24 00:00:00,2014-03-24 00:00:00,PRATE,surface,-101.25,36.3778,5.87e-05
2014-03-24 00:00:00,2014-03-24 00:00:00,PRATE,surface,-100.313,36.3778,5.15e-05
2014-03-24 00:00:00,2014-03-24 00:00:00,PRATE,surface,-99.3754,36.3778,4.43e-05
2014-03-24 00:00:00,2014-03-24 00:00:00,PRATE,surface,-98.4379,36.3778,3.63e-05
2014-03-24 00:00:00,2014-03-24 00:00:00,PRATE,surface,-97.5004,36.3778,2.85e-05
2014-03-24 00:00:00,2014-03-24 00:00:00,PRATE,surface,-96.5629,36.3778,1.9e-05
2014-03-24 00:00:00,2014-03-24 00:00:00,PRATE,surface,-95.6254,36.3778,1.35e-05
2014-03-24 00:00:00,2014-03-24 00:00:00,PRATE,surface,-94.6879,36.3778,1.88e-05
2014-03-24 00:00:00,2014-03-24 00:00:00,PRATE,surface,-93.7504,36.3778,2.67e-05
2014-03-24 00:00:00,2014-03-24 00:00:00,PRATE,surface,-92.8129,36.3778,3.01e-05
