2018-01-29 00:00:00,2018-01-29 00:00:00,TMP,surface,-107.813,25.0393,294.469
2018-01-29 00:00:00,2018-01-29 00:00:00,TMP,surface,-106.875,25.0393,290.069
2018-01-29 00:00:00,2018-01-29 00:00:00,TMP,surface,-105.938,25.0393,284.842
2018-01-29 00:00:00,2018-01-29 00:00:00,TMP,surface,-105,25.0393,284.043
2018-01-29 00:00:00,2018-01-29 00:00:00,TMP,surface,-104.063,25.0393,287.898
2018-01-29 00:00:00,2018-01-29 00:00:00,TMP,surface,-103.125,25.0393,289.24
2018-01-29 00:00:00,2018-01-29 00:00:00,TMP,surface,-102.188,25.0393,289.098
2018-01-29 00:00:00,2018-01-29 00:00:00,TMP,surface,-101.25,25.0393,287.458
2018-01-29 00:00:00,2018-01-29 00:00:00,TMP,surface,-100.313,25.0393,287.896
2018-01-29 00:00:00,2018-01-29 00:00:00,TMP,surface,-99.3754,25.0393,291.046
2018-01-29 00:00:00,2018-01-29 00:00:00,TMP,surface,-98.4379,25.0393,293.501
2018-01-29 00:00:00,2018-01-29 00:00:00,TMP,surface,-97.5004,25.0393,293.093
2018-01-29 00:00:00,2018-01-29 00:00:00,TMP,surface,-96.5629,25.0393,294.979
2018-01-29 00:00:00,2018-01-29 00:00:00,TMP,surface,-95.6254,25.0393,296.363
2018-01-29 00:00:00,2018-01-29 00:00:00,TMP,surface,-94.6879,25.0393,296.347
2018-01-29 00:00:00,2018-01-29 00:00:00,TMP,surface,-93.7504,25.0393,295.979
2018-01-29 00:00:00,2018-01-29 00:00:00,TMP,surface,-92.8129,25.0393,295.674
2018-01-29 00:00:00,2018-01-29 00:00:00,TMP,surface,-107.813,25.9842,291.099
2018-01-29 00:00:00,2018-01-29 00:00:00,TMP,surface,-106.875,25.9842,285.544
2018-01-29 00:00:00,2018-01-29 00:00:00,TMP,surface,-105.938,25.9842,283.822
2018-01-29 00:00:00,2018-01-29 00:00:00,TMP,surface,-105,25.9842,286.494
2018-01-29 00:00:00,2018-01-29 00:00:00,TMP,surface,-104.063,25.9842,289.872
2018-01-29 00:00:00,2018-01-29 00:00:00,TMP,surface,-103.125,25.9842,291.224
2018-01-29 00:00:00,2018-01-29 00:00:00,TMP,surface,-102.188,25.9842,290.274
2018-01-29 00:00:00,2018-01-29 00:00:00,TMP,surface,-101.25,25.9842,288.842
2018-01-29 00:00:00,2018-01-29 00:00:00,TMP,surface,-100.313,25.9842,289.259
2018-01-29 00:00:00,2018-01-29 00:00:00,TMP,surface,-99.3754,25.9842,291.819
2018-01-29 00:00:00,2018-01-29 00:00:00,TMP,surface,-98.4379,25.9842,293.318
2018-01-29 00:00:00,2018-01-29 00:00:00,TMP,surface,-97.5004,25.9842,293.67
2018-01-29 00:00:00,2018-01-29 00:00:00,TMP,surface,-96.5629,25.9842,292.93
2018-01-29 00:00:00,2018-01-29 00:00:00,TMP,surface,-95.6254,25.9842,295.683
2018-01-29 00:00:00,2018-01-29 00:00:00,TMP,surface,-94.6879,25.9842,295.808
2018-01-29 00:00:00,2018-01-29 00:00:00,TMP,surface,-93.7504,25.9842,295.478
2018-01-29 00:00:00,2018-01-29 00:00:00,TMP,surface,-92.8129,25.9842,295.221
2018-01-29 00:00:00,2018-01-29 00:00:00,TMP,surface,-107.813,26.929,286.918
2018-01-29 00:00:00,2018-01-29 00:00:00,TMP,surface,-106.875,26.929,283.458
2018-01-29 00:00:00,2018-01-29 00:00:00,TMP,surface,-105.938,26.929,285.589
2018-01-29 00:00:00,2018-01-29 00:00:00,TMP,surface,-105,26.929,288.998
2018-01-29 00:00:00,2018-01-29 00:00:00,TMP,surface,-104.063,26.929,290.221
2018-01-29 00:00:00,2018-01-29 00:00:00,TMP,surface,-103.125,26.929,289.766
2018-01-29 00:00:00,2018-01-29 00:00:00,TMP,surface,-102.188,26.929,289.026
2018-01-29 00:00:00,2018-01-29 00:00:00,TMP,surface,-101.25,26.929,289.39
2018-01-29 00:00:00,2018-01-29 00:00:00,TMP,surface,-100.313,26.929,290.501
2018-01-29 00:00:00,2018-01-29 00:00:00,TMP,surface,-99.3754,26.929,291.938
2018-01-29 00:00:00,2018-01-29 00:00:00,TMP,surface,-98.4379,26.929,291.835
2018-01-29 00:00:00,2018-01-29 00:00:00,TMP,surface,-97.5004,26.929,290.496
2018-01-29 00:00:00,2018-01-29 00:00:00,TMP,surface,-96.5629,26.929,292.221
2018-01-29 00:00:00,2018-01-29 00:00:00,TMP,surface,-95.6254,26.929,294.853
2018-01-29 00:00:00,2018-01-29 00:00:00,TMP,surface,-94.6879,26.929,295.157
2018-01-29 00:00:00,2018-01-29 00:00:00,TMP,surface,-93.7504,26.929,294.874
2018-01-29 00:00:00,2018-01-29 00:00:00,TMP,surface,-92.8129,26.929,294.63
2018-01-29 00:00:00,2018-01-29 00:00:00,TMP,surface,-107.813,27.8739,283.898
2018-01-29 00:00:00,2018-01-29 00:00:00,TMP,surface,-106.875,27.8739,283.358
2018-01-29 00:00:00,2018-01-29 00:00:00,TMP,surface,-105.938,27.8739,286.934
2018-01-29 00:00:00,2018-01-29 00:00:00,TMP,surface,-105,27.8739,289.474
2018-01-29 00:00:00,2018-01-29 00:00:00,TMP,surface,-104.063,27.8739,289.266
2018-01-29 00:00:00,2018-01-29 00:00:00,TMP,surface,-103.125,27.8739,287.973
2018-01-29 00:00:00,2018-01-29 00:00:00,TMP,surface,-102.188,27.8739,287.8
2018-01-29 00:00:00,2018-01-29 00:00:00,TMP,surface,-101.25,27.8739,288.774
2018-01-29 00:00:00,2018-01-29 00:00:00,TMP,surface,-100.313,27.8739,290.059
2018-01-29 00:00:00,2018-01-29 00:00:00,TMP,surface,-99.3754,27.8739,290.474
2018-01-29 00:00:00,2018-01-29 00:00:00,TMP,surface,-98.4379,27.8739,290.413
2018-01-29 00:00:00,2018-01-29 00:00:00,TMP,surface,-97.5004,27.8739,291.022
2018-01-29 00:00:00,2018-01-29 00:00:00,TMP,surface,-96.5629,27.8739,292.238
2018-01-29 00:00:00,2018-01-29 00:00:00,TMP,surface,-95.6254,27.8739,293.29
2018-01-29 00:00:00,2018-01-29 00:00:00,TMP,surface,-94.6879,27.8739,293.746
2018-01-29 00:00:00,2018-01-29 00:00:00,TMP,surface,-93.7504,27.8739,293.536
2018-01-29 00:00:00,2018-01-29 00:00:00,TMP,surface,-92.8129,27.8739,293.419
2018-01-29 00:00:00,2018-01-29 00:00:00,TMP,surface,-107.813,28.8188,282.558
2018-01-29 00:00:00,2018-01-29 00:00:00,TMP,surface,-106.875,28.8188,283.877
2018-01-29 00:00:00,2018-01-29 00:00:00,TMP,surface,-105.938,28.8188,287.035
2018-01-29 00:00:00,2018-01-29 00:00:00,TMP,surface,-105,28.8188,288.531
2018-01-29 00:00:00,2018-01-29 00:00:00,TMP,surface,-104.063,28.8188,287.901
2018-01-29 00:00:00,2018-01-29 00:00:00,TMP,surface,-103.125,28.8188,287.066
2018-01-29 00:00:00,2018-01-29 00:00:00,TMP,surface,-102.188,28.8188,287.251
2018-01-29 00:00:00,2018-01-29 00:00:00,TMP,surface,-101.25,28.8188,288.141
2018-01-29 00:00:00,2018-01-29 00:00:00,TMP,surface,-100.313,28.8188,288.57
2018-01-29 00:00:00,2018-01-29 00:00:00,TMP,surface,-99.3754,28.8188,288.55
2018-01-29 00:00:00,2018-01-29 00:00:00,TMP,surface,-98.4379,28.8188,288.696
2018-01-29 00:00:00,2018-01-29 00:00:00,TMP,surface,-97.5004,28.8188,289.141
2018-01-29 00:00:00,2018-01-29 00:00:00,TMP,surface,-96.5629,28.8188,289.613
2018-01-29 00:00:00,2018-01-29 00:00:00,TMP,surface,-95.6254,28.8188,289.899
2018-01-29 00:00:00,2018-01-29 00:00:00,TMP,surface,-94.6879,28.8188,290.056
2018-01-29 00:00:00,2018-01-29 00:00:00,TMP,surface,-93.7504,28.8188,290.165
2018-01-29 00:00:00,2018-01-29 00:00:00,TMP,surface,-92.8129,28.8188,289.949
2018-01-29 00:00:00,2018-01-29 00:00:00,TMP,surface,-107.813,29.7637,283.706
2018-01-29 00:00:00,2018-01-29 00:00:00,TMP,surface,-106.875,29.7637,284.97
2018-01-29 00:00:00,2018-01-29 00:00:00,TMP,surface,-105.938,29.7637,286.904
2018-01-29 00:00:00,2018-01-29 00:00:00,TMP,surface,-105,29.7637,286.947
2018-01-29 00:00:00,2018-01-29 00:00:00,TMP,surface,-104.063,29.7637,287.141
2018-01-29 00:00:00,2018-01-29 00:00:00,TMP,surface,-103.125,29.7637,287.267
2018-01-29 00:00:00,2018-01-29 00:00:00,TMP,surface,-102.188,29.7637,287.766
2018-01-29 00:00:00,2018-01-29 00:00:00,TMP,surface,-101.25,29.7637,287.829
2018-01-29 00:00:00,2018-01-29 00:00:00,TMP,surface,-100.313,29.7637,287.346
2018-01-29 00:00:00,2018-01-29 00:00:00,TMP,surface,-99.3754,29.7637,287.038
2018-01-29 00:00:00,2018-01-29 00:00:00,TMP,surface,-98.4379,29.7637,287.176
2018-01-29 00:00:00,2018-01-29 00:00:00,TMP,surface,-97.5004,29.7637,287.546
2018-01-29 00:00:00,2018-01-29 00:00:00,TMP,surface,-96.5629,29.7637,287.878
2018-01-29 00:00:00,2018-01-29 00:00:00,TMP,surface,-95.6254,29.7637,288.059
2018-01-29 00:00:00,2018-01-29 00:00:00,TMP,surface,-94.6879,29.7637,287.738
2018-01-29 00:00:00,2018-01-29 00:00:00,TMP,surface,-93.7504,29.7637,287.229
2018-01-29 00:00:00,2018-01-29 00:00:00,TMP,surface,-92.8129,29.7637,288.147
2018-01-29 00:00:00,2018-01-29 00:00:00,TMP,surface,-107.813,30.7085,285.795
2018-01-29 00:00:00,2018-01-29 00:00:00,TMP,surface,-106.875,30.7085,286.406
2018-01-29 00:00:00,2018-01-29 00:00:00,TMP,surface,-105.938,30.7085,286.349
2018-01-29 00:00:00,2018-01-29 00:00:00,TMP,surface,-105,30.7085,286.035
2018-01-29 00:00:00,2018-01-29 00:00:00,TMP,surface,-104.063,30.7085,286.237
2018-01-29 00:00:00,2018-01-29 00:00:00,TMP,surface,-103.125,30.7085,287.211
2018-01-29 00:00:00,2018-01-29 00:00:00,TMP,surface,-102.188,30.7085,287.568
2018-01-29 00:00:00,2018-01-29 00:00:00,TMP,surface,-101.25,30.7085,287.133
2018-01-29 00:00:00,2018-01-29 00:00:00,TMP,surface,-100.313,30.7085,286.563
2018-01-29 00:00:00,2018-01-29 00:00:00,TMP,surface,-99.3754,30.7085,286.285
2018-01-29 00:00:00,2018-01-29 00:00:00,TMP,surface,-98.4379,30.7085,286.379
2018-01-29 00:00:00,2018-01-29 00:00:00,TMP,surface,-97.5004,30.7085,286.606
2018-01-29 00:00:00,2018-01-29 00:00:00,TMP,surface,-96.5629,30.7085,286.81
2018-01-29 00:00:00,2018-01-29 00:00:00,TMP,surface,-95.6254,30.7085,286.864
2018-01-29 00:00:00,2018-01-29 00:00:00,TMP,surface,-94.6879,30.7085,286.683
2018-01-29 00:00:00,2018-01-29 00:00:00,TMP,surface,-93.7504,30.7085,286.47
2018-01-29 00:00:00,2018-01-29 00:00:00,TMP,surface,-92.8129,30.7085,286.221
2018-01-29 00:00:00,2018-01-29 00:00:00,TMP,surface,-107.813,31.6534,285.819
2018-01-29 00:00:00,2018-01-29 00:00:00,TMP,surface,-106.875,31.6534,286.021
2018-01-29 00:00:00,2018-01-29 00:00:00,TMP,surface,-105.938,31.6534,285.293
2018-01-29 00:00:00,2018-01-29 00:00:00,TMP,surface,-105,31.6534,285.298
2018-01-29 00:00:00,2018-01-29 00:00:00,TMP,surface,-104.063,31.6534,285.846
2018-01-29 00:00:00,2018-01-29 00:00:00,TMP,surface,-103.125,31.6534,286.518
2018-01-29 00:00:00,2018-01-29 00:00:00,TMP,surface,-102.188,31.6534,286.731
2018-01-29 00:00:00,2018-01-29 00:00:00,TMP,surface,-101.25,31.6534,286.366
2018-01-29 00:00:00,2018-01-29 00:00:00,TMP,surface,-100.313,31.6534,286.078
2018-01-29 00:00:00,2018-01-29 00:00:00,TMP,surface,-99.3754,31.6534,286.051
2018-01-29 00:00:00,2018-01-29 00:00:00,TMP,surface,-98.4379,31.6534,286.078
2018-01-29 00:00:00,2018-01-29 00:00:00,TMP,surface,-97.5004,31.6534,286.032
2018-01-29 00:00:00,2018-01-29 00:00:00,TMP,surface,-96.5629,31.6534,285.957
2018-01-29 00:00:00,2018-01-29 00:00:00,TMP,surface,-95.6254,31.6534,285.778
2018-01-29 00:00:00,2018-01-29 00:00:00,TMP,surface,-94.6879,31.6534,285.416
2018-01-29 00:00:00,2018-01-29 00:00:00,TMP,surface,-93.7504,31.6534,285.109
2018-01-29 00:00:00,2018-01-29 00:00:00,TMP,surface,-92.8129,31.6534,284.982
2018-01-29 00:00:00,2018-01-29 00:00:00,TMP,surface,-107.813,32.5983,283.803
2018-01-29 00:00:00,2018-01-29 00:00:00,TMP,surface,-106.875,32.5983,283.813
2018-01-29 00:00:00,2018-01-29 00:00:00,TMP,surface,-105.938,32.5983,283.918
2018-01-29 00:00:00,2018-01-29 00:00:00,TMP,surface,-105,32.5983,284.437
2018-01-29 00:00:00,2018-01-29 00:00:00,TMP,surface,-104.063,32.5983,285.288
2018-01-29 00:00:00,2018-01-29 00:00:00,TMP,surface,-103.125,32.5983,285.616
2018-01-29 00:00:00,2018-01-29 00:00:00,TMP,surface,-102.188,32.5983,285.621
2018-01-29 00:00:00,2018-01-29 00:00:00,TMP,surface,-101.25,32.5983,285.634
2018-01-29 00:00:00,2018-01-29 00:00:00,TMP,surface,-100.313,32.5983,285.8
2018-01-29 00:00:00,2018-01-29 00:00:00,TMP,surface,-99.3754,32.5983,285.974
2018-01-29 00:00:00,2018-01-29 00:00:00,TMP,surface,-98.4379,32.5983,285.854
2018-01-29 00:00:00,2018-01-29 00:00:00,TMP,surface,-97.5004,32.5983,285.478
2018-01-29 00:00:00,2018-01-29 00:00:00,TMP,surface,-96.5629,32.5983,285.077
2018-01-29 00:00:00,2018-01-29 00:00:00,TMP,surface,-95.6254,32.5983,284.65
2018-01-29 00:00:00,2018-01-29 00:00:00,TMP,surface,-94.6879,32.5983,284.101
2018-01-29 00:00:00,2018-01-29 00:00:00,TMP,surface,-93.7504,32.5983,283.622
2018-01-29 00:00:00,2018-01-29 00:00:00,TMP,surface,-92.8129,32.5983,283.498
2018-01-29 00:00:00,2018-01-29 00:00:00,TMP,surface,-107.813,33.5432,281.179
2018-01-29 00:00:00,2018-01-29 00:00:00,TMP,surface,-106.875,33.5432,282.12
2018-01-29 00:00:00,2018-01-29 00:00:00,TMP,surface,-105.938,33.5432,282.818
2018-01-29 00:00:00,2018-01-29 00:00:00,TMP,surface,-105,33.5432,283.79
2018-01-29 00:00:00,2018-01-29 00:00:00,TMP,surface,-104.063,33.5432,284.368
2018-01-29 00:00:00,2018-01-29 00:00:00,TMP,surface,-103.125,33.5432,284.44
2018-01-29 00:00:00,2018-01-29 00:00:00,TMP,surface,-102.188,33.5432,284.36
2018-01-29 00:00:00,2018-01-29 00:00:00,TMP,surface,-101.25,33.5432,284.454
2018-01-29 00:00:00,2018-01-29 00:00:00,TMP,surface,-100.313,33.5432,284.651
2018-01-29 00:00:00,2018-01-29 00:00:00,TMP,surface,-99.3754,33.5432,284.858
2018-01-29 00:00:00,2018-01-29 00:00:00,TMP,surface,-98.4379,33.5432,284.763
2018-01-29 00:00:00,2018-01-29 00:00:00,TMP,surface,-97.5004,33.5432,284.32
2018-01-29 00:00:00,2018-01-29 00:00:00,TMP,surface,-96.5629,33.5432,283.818
2018-01-29 00:00:00,2018-01-29 00:00:00,TMP,surface,-95.6254,33.5432,283.354
2018-01-29 00:00:00,2018-01-29 00:00:00,TMP,surface,-94.6879,33.5432,282.768
2018-01-29 00:00:00,2018-01-29 00:00:00,TMP,surface,-93.7504,33.5432,282.168
2018-01-29 00:00:00,2018-01-29 00:00:00,TMP,surface,-92.8129,33.5432,281.866
2018-01-29 00:00:00,2018-01-29 00:00:00,TMP,surface,-107.813,34.4881,279.464
2018-01-29 00:00:00,2018-01-29 00:00:00,TMP,surface,-106.875,34.4881,280.837
2018-01-29 00:00:00,2018-01-29 00:00:00,TMP,surface,-105.938,34.4881,281.666
2018-01-29 00:00:00,2018-01-29 00:00:00,TMP,surface,-105,34.4881,282.816
2018-01-29 00:00:00,2018-01-29 00:00:00,TMP,surface,-104.063,34.4881,283.067
2018-01-29 00:00:00,2018-01-29 00:00:00,TMP,surface,-103.125,34.4881,282.802
2018-01-29 00:00:00,2018-01-29 00:00:00,TMP,surface,-102.188,34.4881,282.722
2018-01-29 00:00:00,2018-01-29 00:00:00,TMP,surface,-101.25,34.4881,282.818
2018-01-29 00:00:00,2018-01-29 00:00:00,TMP,surface,-100.313,34.4881,283.013
2018-01-29 00:00:00,2018-01-29 00:00:00,TMP,surface,-99.3754,34.4881,283.094
2018-01-29 00:00:00,2018-01-29 00:00:00,TMP,surface,-98.4379,34.4881,283.003
2018-01-29 00:00:00,2018-01-29 00:00:00,TMP,surface,-97.5004,34.4881,282.778
2018-01-29 00:00:00,2018-01-29 00:00:00,TMP,surface,-96.5629,34.4881,282.523
2018-01-29 00:00:00,2018-01-29 00:00:00,TMP,surface,-95.6254,34.4881,282.099
2018-01-29 00:00:00,2018-01-29 00:00:00,TMP,surface,-94.6879,34.4881,281.325
2018-01-29 00:00:00,2018-01-29 00:00:00,TMP,surface,-93.7504,34.4881,280.557
2018-01-29 00:00:00,2018-01-29 00:00:00,TMP,surface,-92.8129,34.4881,280.171
2018-01-29 00:00:00,2018-01-29 00:00:00,TMP,surface,-107.813,35.4329,278.552
2018-01-29 00:00:00,2018-01-29 00:00:00,TMP,surface,-106.875,35.4329,279.354
2018-01-29 00:00:00,2018-01-29 00:00:00,TMP,surface,-105.938,35.4329,279.89
2018-01-29 00:00:00,2018-01-29 00:00:00,TMP,surface,-105,35.4329,280.662
2018-01-29 00:00:00,2018-01-29 00:00:00,TMP,surface,-104.063,35.4329,281.421
2018-01-29 00:00:00,2018-01-29 00:00:00,TMP,surface,-103.125,35.4329,281.672
2018-01-29 00:00:00,2018-01-29 00:00:00,TMP,surface,-102.188,35.4329,281.429
2018-01-29 00:00:00,2018-01-29 00:00:00,TMP,surface,-101.25,35.4329,281.267
2018-01-29 00:00:00,2018-01-29 00:00:00,TMP,surface,-100.313,35.4329,281.27
2018-01-29 00:00:00,2018-01-29 00:00:00,TMP,surface,-99.3754,35.4329,281.162
2018-01-29 00:00:00,2018-01-29 00:00:00,TMP,surface,-98.4379,35.4329,281.179
2018-01-29 00:00:00,2018-01-29 00:00:00,TMP,surface,-97.5004,35.4329,281.368
2018-01-29 00:00:00,2018-01-29 00:00:00,TMP,surface,-96.5629,35.4329,281.442
2018-01-29 00:00:00,2018-01-29 00:00:00,TMP,surface,-95.6254,35.4329,281.141
2018-01-29 00:00:00,2018-01-29 00:00:00,TMP,surface,-94.6879,35.4329,280.357
2018-01-29 00:00:00,2018-01-29 00:00:00,TMP,surface,-93.7504,35.4329,279.299
2018-01-29 00:00:00,2018-01-29 00:00:00,TMP,surface,-92.8129,35.4329,278.595
2018-01-29 00:00:00,2018-01-29 00:00:00,TMP,surface,-107.813,36.3778,276.749
2018-01-29 00:00:00,2018-01-29 00:00:00,TMP,surface,-106.875,36.3778,276.267
2018-01-29 00:00:00,2018-01-29 00:00:00,TMP,surface,-105.938,36.3778,277.227
2018-01-29 00:00:00,2018-01-29 00:00:00,TMP,surface,-105,36.3778,278.419
2018-01-29 00:00:00,2018-01-29 00:00:00,TMP,surface,-104.063,36.3778,279.693
2018-01-29 00:00:00,2018-01-29 00:00:00,TMP,surface,-103.125,36.3778,280.046
2018-01-29 00:00:00,2018-01-29 00:00:00,TMP,surface,-102.188,36.3778,279.877
2018-01-29 00:00:00,2018-01-29 00:00:00,TMP,surface,-101.25,36.3778,279.802
2018-01-29 00:00:00,2018-01-29 00:00:00,TMP,surface,-100.313,36.3778,279.635
2018-01-29 00:00:00,2018-01-29 00:00:00,TMP,surface,-99.3754,36.3778,279.456
2018-01-29 00:00:00,2018-01-29 00:00:00,TMP,surface,-98.4379,36.3778,279.419
2018-01-29 00:00:00,2018-01-29 00:00:00,TMP,surface,-97.5004,36.3778,279.73
2018-01-29 00:00:00,2018-01-29 00:00:00,TMP,surface,-96.5629,36.3778,280.062
2018-01-29 00:00:00,2018-01-29 00:00:00,TMP,surface,-95.6254,36.3778,279.898
2018-01-29 00:00:00,2018-01-29 00:00:00,TMP,surface,-94.6879,36.3778,279.192
2018-01-29 00:00:00,2018-01-29 00:00:00,TMP,surface,-93.7504,36.3778,278.173
2018-01-29 00:00:00,2018-01-29 00:00:00,TMP,surface,-92.8129,36.3778,277.24
2018-01-29 00:00:00,2018-01-29 00:00:00,PRATE,surface,-107.813,25.0393,1.29e-05
2018-01-29 00:00:00,2018-01-29 00:00:00,PRATE,surface,-106.875,25.0393,1.7e-05
2018-01-29 00:00:00,2018-01-29 00:00:00,PRATE,surface,-105.938,25.0393,3.2e-05
2018-01-29 00:00:00,2018-01-29 00:00:00,PRATE,surface,-105,25.0393,1.95e-05
2018-01-29 00:00:00,2018-01-29 00:00:00,PRATE,surface,-104.063,25.0393,5.3e-06
2018-01-29 00:00:00,2018-01-29 00:00:00,PRATE,surface,-103.125,25.0393,4.1e-06
2018-01-29 00:00:00,2018-01-29 00:00:00,PRATE,surface,-102.188,25.0393,1.41e-05
2018-01-29 00:00:00,2018-01-29 00:00:00,PRATE,surface,-101.25,25.0393,4.25e-05
2018-01-29 00:00:00,2018-01-29 00:00:00,PRATE,surface,-100.313,25.0393,6.12e-05
2018-01-29 00:00:00,2018-01-29 00:00:00,PRATE,surface,-99.3754,25.0393,2.39e-05
2018-01-29 00:00:00,2018-01-29 00:00:00,PRATE,surface,-98.4379,25.0393,1.89e-05
2018-01-29 00:00:00,2018-01-29 00:00:00,PRATE,surface,-97.5004,25.0393,2.33e-05
2018-01-29 00:00:00,2018-01-29 00:00:00,PRATE,surface,-96.5629,25.0393,3.64e-05
2018-01-29 00:00:00,2018-01-29 00:00:00,PRATE,surface,-95.6254,25.0393,4.83e-05
2018-01-29 00:00:00,2018-01-29 00:00:00,PRATE,surface,-94.6879,25.0393,3.39e-05
2018-01-29 00:00:00,2018-01-29 00:00:00,PRATE,surface,-93.7504,25.0393,1.61e-05
2018-01-29 00:00:00,2018-01-29 00:00:00,PRATE,surface,-92.8129,25.0393,2.63e-05
2018-01-29 00:00:00,2018-01-29 00:00:00,PRATE,surface,-107.813,25.9842,2.22e-05
2018-01-29 00:00:00,2018-01-29 00:00:00,PRATE,surface,-106.875,25.9842,2.08e-05
2018-01-29 00:00:00,2018-01-29 00:00:00,PRATE,surface,-105.938,25.9842,2.61e-05
2018-01-29 00:00:00,2018-01-29 00:00:00,PRATE,surface,-105,25.9842,1.23e-05
2018-01-29 00:00:00,2018-01-29 00:00:00,PRATE,surface,-104.063,25.9842,2.7e-06
2018-01-29 00:00:00,2018-01-29 00:00:00,PRATE,surface,-103.125,25.9842,3.3e-06
2018-01-29 00:00:00,2018-01-29 00:00:00,PRATE,surface,-102.188,25.9842,1.21e-05
2018-01-29 00:00:00,2018-01-29 00:00:00,PRATE,surface,-101.25,25.9842,3.67e-05
2018-01-29 00:00:00,2018-01-29 00:00:00,PRATE,surface,-100.313,25.9842,4.91e-05
2018-01-29 00:00:00,2018-01-29 00:00:00,PRATE,surface,-99.3754,25.9842,2.47e-05
2018-01-29 00:00:00,2018-01-29 00:00:00,PRATE,surface,-98.4379,25.9842,1.85e-05
2018-01-29 00:00:00,2018-01-29 00:00:00,PRATE,surface,-97.5004,25.9842,2.57e-05
2018-01-29 00:00:00,2018-01-29 00:00:00,PRATE,surface,-96.5629,25.9842,4.25e-05
2018-01-29 00:00:00,2018-01-29 00:00:00,PRATE,surface,-95.6254,25.9842,6.56e-05
2018-01-29 00:00:00,2018-01-29 00:00:00,PRATE,surface,-94.6879,25.9842,5.63e-05
2018-01-29 00:00:00,2018-01-29 00:00:00,PRATE,surface,-93.7504,25.9842,3.22e-05
2018-01-29 00:00:00,2018-01-29 00:00:00,PRATE,surface,-92.8129,25.9842,2.76e-05
2018-01-29 00:00:00,2018-01-29 00:00:00,PRATE,surface,-107.813,26.929,3.41e-05
2018-01-29 00:00:00,2018-01-29 00:00:00,PRATE,surface,-106.875,26.929,2.02e-05
2018-01-29 00:00:00,2018-01-29 00:00:00,PRATE,surface,-105.938,26.929,1.43e-05
2018-01-29 00:00:00,2018-01-29 00:00:00,PRATE,surface,-105,26.929,6.1e-06
2018-01-29 00:00:00,2018-01-29 00:00:00,PRATE,surface,-104.063,26.929,6.4e-06
2018-01-29 00:00:00,2018-01-29 00:00:00,PRATE,surface,-103.125,26.929,1.39e-05
2018-01-29 00:00:00,2018-01-29 00:00:00,PRATE,surface,-102.188,26.929,2.99e-05
2018-01-29 00:00:00,2018-01-29 00:00:00,PRATE,surface,-101.25,26.929,3.72e-05
2018-01-29 00:00:00,2018-01-29 00:00:00,PRATE,surface,-100.313,26.929,3.81e-05
2018-01-29 00:00:00,2018-01-29 00:00:00,PRATE,surface,-99.3754,26.929,3.37e-05
2018-01-29 00:00:00,2018-01-29 00:00:00,PRATE,surface,-98.4379,26.929,2.52e-05
2018-01-29 00:00:00,2018-01-29 00:00:00,PRATE,surface,-97.5004,26.929,3.1e-05
2018-01-29 00:00:00,2018-01-29 00:00:00,PRATE,surface,-96.5629,26.929,3.27e-05
2018-01-29 00:00:00,2018-01-29 00:00:00,PRATE,surface,-95.6254,26.929,4.48e-05
2018-01-29 00:00:00,2018-01-29 00:00:00,PRATE,surface,-94.6879,26.929,5.09e-05
2018-01-29 00:00:00,2018-01-29 00:00:00,PRATE,surface,-93.7504,26.929,5.35e-05
2018-01-29 00:00:00,2018-01-29 00:00:00,PRATE,surface,-92.8129,26.929,3.75e-05
2018-01-29 00:00:00,2018-01-29 00:00:00,PRATE,surface,-107.813,27.8739,4.53e-05
2018-01-29 00:00:00,2018-01-29 00:00:00,PRATE,surface,-106.875,27.8739,2.69e-05
2018-01-29 00:00:00,2018-01-29 00:00:00,PRATE,surface,-105.938,27.8739,1.26e-05
2018-01-29 00:00:00,2018-01-29 00:00:00,PRATE,surface,-105,27.8739,6.9e-06
2018-01-29 00:00:00,2018-01-29 00:00:00,PRATE,surface,-104.063,27.8739,9.7e-06
2018-01-29 00:00:00,2018-01-29 00:00:00,PRATE,surface,-103.125,27.8739,3.41e-05
2018-01-29 00:00:00,2018-01-29 00:00:00,PRATE,surface,-102.188,27.8739,4.47e-05
2018-01-29 00:00:00,2018-01-29 00:00:00,PRATE,surface,-101.25,27.8739,4.04e-05
2018-01-29 00:00:00,2018-01-29 00:00:00,PRATE,surface,-100.313,27.8739,3.7e-05
2018-01-29 00:00:00,2018-01-29 00:00:00,PRATE,surface,-99.3754,27.8739,4.07e-05
2018-01-29 00:00:00,2018-01-29 00:00:00,PRATE,surface,-98.4379,27.8739,4.18e-05
2018-01-29 00:00:00,2018-01-29 00:00:00,PRATE,surface,-97.5004,27.8739,3.28e-05
2018-01-29 00:00:00,2018-01-29 00:00:00,PRATE,surface,-96.5629,27.8739,2.6e-05
2018-01-29 00:00:00,2018-01-29 00:00:00,PRATE,surface,-95.6254,27.8739,3.19e-05
2018-01-29 00:00:00,2018-01-29 00:00:00,PRATE,surface,-94.6879,27.8739,4.34e-05
2018-01-29 00:00:00,2018-01-29 00:00:00,PRATE,surface,-93.7504,27.8739,5.18e-05
2018-01-29 00:00:00,2018-01-29 00:00:00,PRATE,surface,-92.8129,27.8739,5.03e-05
2018-01-29 00:00:00,2018-01-29 00:00:00,PRATE,surface,-107.813,28.8188,4.7e-05
2018-01-29 00:00:00,2018-01-29 00:00:00,PRATE,surface,-106.875,28.8188,3.82e-05
2018-01-29 00:00:00,2018-01-29 00:00:00,PRATE,surface,-105.938,28.8188,1.54e-05
2018-01-29 00:00:00,2018-01-29 00:00:00,PRATE,surface,-105,28.8188,5.9e-06
2018-01-29 00:00:00,2018-01-29 00:00:00,PRATE,surface,-104.063,28.8188,1.37e-05
2018-01-29 00:00:00,2018-01-29 00:00:00,PRATE,surface,-103.125,28.8188,3.18e-05
2018-01-29 00:00:00,2018-01-29 00:00:00,PRATE,surface,-102.188,28.8188,4.16e-05
2018-01-29 00:00:00,2018-01-29 00:00:00,PRATE,surface,-101.25,28.8188,3.27e-05
2018-01-29 00:00:00,2018-01-29 00:00:00,PRATE,surface,-100.313,28.8188,2.85e-05
2018-01-29 00:00:00,2018-01-29 00:00:00,PRATE,surface,-99.3754,28.8188,4.06e-05
2018-01-29 00:00:00,2018-01-29 00:00:00,PRATE,surface,-98.4379,28.8188,4.65e-05
2018-01-29 00:00:00,2018-01-29 00:00:00,PRATE,surface,-97.5004,28.8188,3.92e-05
2018-01-29 00:00:00,2018-01-29 00:00:00,PRATE,surface,-96.5629,28.8188,3.31e-05
2018-01-29 00:00:00,2018-01-29 00:00:00,PRATE,surface,-95.6254,28.8188,3.71e-05
2018-01-29 00:00:00,2018-01-29 00:00:00,PRATE,surface,-94.6879,28.8188,4.49e-05
2018-01-29 00:00:00,2018-01-29 00:00:00,PRATE,surface,-93.7504,28.8188,4.8e-05
2018-01-29 00:00:00,2018-01-29 00:00:00,PRATE,surface,-92.8129,28.8188,4.99e-05
2018-01-29 00:00:00,2018-01-29 00:00:00,PRATE,surface,-107.813,29.7637,2.74e-05
2018-01-29 00:00:00,2018-01-29 00:00:00,PRATE,surface,-106.875,29.7637,2.74e-05
2018-01-29 00:00:00,2018-01-29 00:00:00,PRATE,surface,-105.938,29.7637,1.88e-05
2018-01-29 00:00:00,2018-01-29 00:00:00,PRATE,surface,-105,29.7637,1.15e-05
2018-01-29 00:00:00,2018-01-29 00:00:00,PRATE,surface,-104.063,29.7637,1.27e-05
2018-01-29 00:00:00,2018-01-29 00:00:00,PRATE,surface,-103.125,29.7637,1.71e-05
2018-01-29 00:00:00,2018-01-29 00:00:00,PRATE,surface,-102.188,29.7637,1.76e-05
2018-01-29 00:00:00,2018-01-29 00:00:00,PRATE,surface,-101.25,29.7637,1.75e-05
2018-01-29 00:00:00,2018-01-29 00:00:00,PRATE,surface,-100.313,29.7637,2.56e-05
2018-01-29 00:00:00,2018-01-29 00:00:00,PRATE,surface,-99.3754,29.7637,4.23e-05
2018-01-29 00:00:00,2018-01-29 00:00:00,PRATE,surface,-98.4379,29.7637,4.85e-05
2018-01-29 00:00:00,2018-01-29 00:00:00,PRATE,surface,-97.5004,29.7637,4.19e-05
2018-01-29 00:00:00,2018-01-29 00:00:00,PRATE,surface,-96.5629,29.7637,3.8e-05
2018-01-29 00:00:00,2018-01-29 00:00:00,PRATE,surface,-95.6254,29.7637,4.42e-05
2018-01-29 00:00:00,2018-01-29 00:00:00,PRATE,surface,-94.6879,29.7637,5.18e-05
2018-01-29 00:00:00,2018-01-29 00:00:00,PRATE,surface,-93.7504,29.7637,5.22e-05
2018-01-29 00:00:00,2018-01-29 00:00:00,PRATE,surface,-92.8129,29.7637,5.04e-05
2018-01-29 00:00:00,2018-01-29 00:00:00,PRATE,surface,-107.813,30.7085,1.36e-05
2018-01-29 00:00:00,2018-01-29 00:00:00,PRATE,surface,-106.875,30.7085,1.33e-05
2018-01-29 00:00:00,2018-01-29 00:00:00,PRATE,surface,-105.938,30.7085,1.2e-05
2018-01-29 00:00:00,2018-01-29 00:00:00,PRATE,surface,-105,30.7085,1.36e-05
2018-01-29 00:00:00,2018-01-29 00:00:00,PRATE,surface,-104.063,30.7085,1.24e-05
2018-01-29 00:00:00,2018-01-29 00:00:00,PRATE,surface,-103.125,30.7085,1.11e-05
2018-01-29 00:00:00,2018-01-29 00:00:00,PRATE,surface,-102.188,30.7085,1.2e-05
2018-01-29 00:00:00,2018-01-29 00:00:00,PRATE,surface,-101.25,30.7085,1.74e-05
2018-01-29 00:00:00,2018-01-29 00:00:00,PRATE,surface,-100.313,30.7085,2.47e-05
2018-01-29 00:00:00,2018-01-29 00:00:00,PRATE,surface,-99.3754,30.7085,3.19e-05
2018-01-29 00:00:00,2018-01-29 00:00:00,PRATE,surface,-98.4379,30.7085,3.87e-05
2018-01-29 00:00:00,2018-01-29 00:00:00,PRATE,surface,-97.5004,30.7085,4.02e-05
2018-01-29 00:00:00,2018-01-29 00:00:00,PRATE,surface,-96.5629,30.7085,3.64e-05
2018-01-29 00:00:00,2018-01-29 00:00:00,PRATE,surface,-95.6254,30.7085,3.6e-05
2018-01-29 00:00:00,2018-01-29 00:00:00,PRATE,surface,-94.6879,30.7085,4.2e-05
2018-01-29 00:00:00,2018-01-29 00:00:00,PRATE,surface,-93.7504,30.7085,4.53e-05
2018-01-29 00:00:00,2018-01-29 00:00:00,PRATE,surface,-92.8129,30.7085,4.29e-05
2018-01-29 00:00:00,2018-01-29 00:00:00,PRATE,surface,-107.813,31.6534,9.4e-06
2018-01-29 00:00:00,2018-01-29 00:00:00,PRATE,surface,-106.875,31.6534,1.06e-05
2018-01-29 00:00:00,2018-01-29 00:00:00,PRATE,surface,-105.938,31.6534,1.28e-05
2018-01-29 00:00:00,2018-01-29 00:00:00,PRATE,surface,-105,31.6534,1.76e-05
2018-01-29 00:00:00,2018-01-29 00:00:00,PRATE,surface,-104.063,31.6534,1.38e-05
2018-01-29 00:00:00,2018-01-29 00:00:00,PRATE,surface,-103.125,31.6534,1.26e-05
2018-01-29 00:00:00,2018-01-29 00:00:00,PRATE,surface,-102.188,31.6534,1.33e-05
2018-01-29 00:00:00,2018-01-29 00:00:00,PRATE,surface,-101.25,31.6534,2.02e-05
2018-01-29 00:00:00,2018-01-29 00:00:00,PRATE,surface,-100.313,31.6534,2.7e-05
2018-01-29 00:00:00,2018-01-29 00:00:00,PRATE,surface,-99.3754,31.6534,2.78e-05
2018-01-29 00:00:00,2018-01-29 00:00:00,PRATE,surface,-98.4379,31.6534,2.65e-05
2018-01-29 00:00:00,2018-01-29 00:00:00,PRATE,surface,-97.5004,31.6534,3.11e-05
2018-01-29 00:00:00,2018-01-29 00:00:00,PRATE,surface,-96.5629,31.6534,4e-05
2018-01-29 00:00:00,2018-01-29 00:00:00,PRATE,surface,-95.6254,31.6534,4.6e-05
2018-01-29 00:00:00,2018-01-29 00:00:00,PRATE,surface,-94.6879,31.6534,4.69e-05
2018-01-29 00:00:00,2018-01-29 00:00:00,PRATE,surface,-93.7504,31.6534,4.48e-05
2018-01-29 00:00:00,2018-01-29 00:00:00,PRATE,surface,-92.8129,31.6534,4.19e-05
2018-01-29 00:00:00,2018-01-29 00:00:00,PRATE,surface,-107.813,32.5983,1e-05
2018-01-29 00:00:00,2018-01-29 00:00:00,PRATE,surface,-106.875,32.5983,1.22e-05
2018-01-29 00:00:00,2018-01-29 00:00:00,PRATE,surface,-105.938,32.5983,1.45e-05
2018-01-29 00:00:00,2018-01-29 00:00:00,PRATE,surface,-105,32.5983,1.68e-05
2018-01-29 00:00:00,2018-01-29 00:00:00,PRATE,surface,-104.063,32.5983,1.4e-05
2018-01-29 00:00:00,2018-01-29 00:00:00,PRATE,surface,-103.125,32.5983,1.36e-05
2018-01-29 00:00:00,2018-01-29 00:00:00,PRATE,surface,-102.188,32.5983,1.98e-05
2018-01-29 00:00:00,2018-01-29 00:00:00,PRATE,surface,-101.25,32.5983,2.37e-05
2018-01-29 00:00:00,2018-01-29 00:00:00,PRATE,surface,-100.313,32.5983,2.16e-05
2018-01-29 00:00:00,2018-01-29 00:00:00,PRATE,surface,-99.3754,32.5983,2.11e-05
2018-01-29 00:00:00,2018-01-29 00:00:00,PRATE,surface,-98.4379,32.5983,2.34e-05
2018-01-29 00:00:00,2018-01-29 00:00:00,PRATE,surface,-97.5004,32.5983,2.87e-05
2018-01-29 00:00:00,2018-01-29 00:00:00,PRATE,surface,-96.5629,32.5983,3.67e-05
2018-01-29 00:00:00,2018-01-29 00:00:00,PRATE,surface,-95.6254,32.5983,4.7e-05
2018-01-29 00:00:00,2018-01-29 00:00:00,PRATE,surface,-94.6879,32.5983,5.43e-05
2018-01-29 00:00:00,2018-01-29 00:00:00,PRATE,surface,-93.7504,32.5983,5.11e-05
2018-01-29 00:00:00,2018-01-29 00:00:00,PRATE,surface,-92.8129,32.5983,4.83e-05
2018-01-29 00:00:00,2018-01-29 00:00:00,PRATE,surface,-107.813,33.5432,1.5e-05
2018-01-29 00:00:00,2018-01-29 00:00:00,PRATE,surface,-106.875,33.5432,1.44e-05
2018-01-29 00:00:00,2018-01-29 00:00:00,PRATE,surface,-105.938,33.5432,1.48e-05
2018-01-29 00:00:00,2018-01-29 00:00:00,PRATE,surface,-105,33.5432,1.55e-05
2018-01-29 00:00:00,2018-01-29 00:00:00,PRATE,surface,-104.063,33.5432,1.38e-05
2018-01-29 00:00:00,2018-01-29 00:00:00,PRATE,surface,-103.125,33.5432,1.54e-05
2018-01-29 00:00:00,2018-01-29 00:00:00,PRATE,surface,-102.188,33.5432,1.26e-05
2018-01-29 00:00:00,2018-01-29 00:00:00,PRATE,surface,-101.25,33.5432,1.53e-05
2018-01-29 00:00:00,2018-01-29 00:00:00,PRATE,surface,-100.313,33.5432,1.51e-05
2018-01-29 00:00:00,2018-01-29 00:00:00,PRATE,surface,-99.3754,33.5432,1.75e-05
2018-01-29 00:00:00,2018-01-29 00:00:00,PRATE,surface,-98.4379,33.5432,2.25e-05
2018-01-29 00:00:00,2018-01-29 00:00:00,PRATE,surface,-97.5004,33.5432,2.8e-05
2018-01-29 00:00:00,2018-01-29 00:00:00,PRATE,surface,-96.5629,33.5432,3.43e-05
2018-01-29 00:00:00,2018-01-29 00:00:00,PRATE,surface,-95.6254,33.5432,4.08e-05
2018-01-29 00:00:00,2018-01-29 00:00:00,PRATE,surface,-94.6879,33.5432,4.69e-05
2018-01-29 00:00:00,2018-01-29 00:00:00,PRATE,surface,-93.7504,33.5432,5.05e-05
2018-01-29 00:00:00,2018-01-29 00:00:00,PRATE,surface,-92.8129,33.5432,4.74e-05
2018-01-29 00:00:00,2018-01-29 00:00:00,PRATE,surface,-107.813,34.4881,1.25e-05
2018-01-29 00:00:00,2018-01-29 00:00:00,PRATE,surface,-106.875,34.4881,9.2e-06
2018-01-29 00:00:00,2018-01-29 00:00:00,PRATE,surface,-105.938,34.4881,1.11e-05
2018-01-29 00:00:00,2018-01-29 00:00:00,PRATE,surface,-105,34.4881,1.48e-05
2018-01-29 00:00:00,2018-01-29 00:00:00,PRATE,surface,-104.063,34.4881,1.63e-05
2018-01-29 00:00:00,2018-01-29 00:00:00,PRATE,surface,-103.125,34.4881,1.5e-05
2018-01-29 00:00:00,2018-01-29 00:00:00,PRATE,surface,-102.188,34.4881,1.5e-05
2018-01-29 00:00:00,2018-01-29 00:00:00,PRATE,surface,-101.25,34.4881,1.66e-05
2018-01-29 00:00:00,2018-01-29 00:00:00,PRATE,surface,-100.313,34.4881,1.92e-05
2018-01-29 00:00:00,2018-01-29 00:00:00,PRATE,surface,-99.3754,34.4881,2.21e-05
2018-01-29 00:00:00,2018-01-29 00:00:00,PRATE,surface,-98.4379,34.4881,2.95e-05
2018-01-29 00:00:00,2018-01-29 00:00:00,PRATE,surface,-97.5004,34.4881,3.73e-05
2018-01-29 00:00:00,2018-01-29 00:00:00,PRATE,surface,-96.5629,34.4881,4.15e-05
2018-01-29 00:00:00,2018-01-29 00:00:00,PRATE,surface,-95.6254,34.4881,4.34e-05
2018-01-29 00:00:00,2018-01-29 00:00:00,PRATE,surface,-94.6879,34.4881,4.46e-05
2018-01-29 00:00:00,2018-01-29 00:00:00,PRATE,surface,-93.7504,34.4881,4.55e-05
2018-01-29 00:00:00,2018-01-29 00:00:00,PRATE,surface,-92.8129,34.4881,4.33e-05
2018-01-29 00:00:00,2018-01-29 00:00:00,PRATE,surface,-107.813,35.4329,1.05e-05
2018-01-29 00:00:00,2018-01-29 00:00:00,PRATE,surface,-106.875,35.4329,6.7e-06
2018-01-29 00:00:00,2018-01-29 00:00:00,PRATE,surface,-105.938,35.4329,9e-06
2018-01-29 00:00:00,2018-01-29 00:00:00,PRATE,surface,-105,35.4329,1.68e-05
2018-01-29 00:00:00,2018-01-29 00:00:00,PRATE,surface,-104.063,35.4329,2.09e-05
2018-01-29 00:00:00,2018-01-29 00:00:00,PRATE,surface,-103.125,35.4329,1.74e-05
2018-01-29 00:00:00,2018-01-29 00:00:00,PRATE,surface,-102.188,35.4329,1.64e-05
2018-01-29 00:00:00,2018-01-29 00:00:00,PRATE,surface,-101.25,35.4329,1.78e-05
2018-01-29 00:00:00,2018-01-29 00:00:00,PRATE,surface,-100.313,35.4329,2.1e-05
2018-01-29 00:00:00,2018-01-29 00:00:00,PRATE,surface,-99.3754,35.4329,2.55e-05
2018-01-29 00:00:00,2018-01-29 00:00:00,PRATE,surface,-98.4379,35.4329,3.15e-05
2018-01-29 00:00:00,2018-01-29 00:00:00,PRATE,surface,-97.5004,35.4329,3.61e-05
2018-01-29 00:00:00,2018-01-29 00:00:00,PRATE,surface,-96.5629,35.4329,3.74e-05
2018-01-29 00:00:00,2018-01-29 00:00:00,PRATE,surface,-95.6254,35.4329,3.62e-05
2018-01-29 00:00:00,2018-01-29 00:00:00,PRATE,surface,-94.6879,35.4329,3.39e-05
2018-01-29 00:00:00,2018-01-29 00:00:00,PRATE,surface,-93.7504,35.4329,3.15e-05
2018-01-29 00:00:00,2018-01-29 00:00:00,PRATE,surface,-92.8129,35.4329,2.96e-05
2018-01-29 00:00:00,2018-01-29 00:00:00,PRATE,surface,-107.813,36.3778,1.61e-05
2018-01-29 00:00:00,2018-01-29 00:00:00,PRATE,surface,-106.875,36.3778,1.34e-05
2018-01-29 00:00:00,2018-01-29 00:00:00,PRATE,surface,-105.938,36.3778,1.3e-05
2018-01-29 00:00:00,2018-01-29 00:00:00,PRATE,surface,-105,36.3778,2.07e-05
2018-01-29 00:00:00,2018-01-29 00:00:00,PRATE,surface,-104.063,36.3778,2.5e-05
2018-01-29 00:00:00,2018-01-29 00:00:00,PRATE,surface,-103.125,36.3778,2.4e-05
2018-01-29 00:00:00,2018-01-29 00:00:00,PRATE,surface,-102.188,36.3778,2.45e-05
2018-01-29 00:00:00,2018-01-29 00:00:00,PRATE,surface,-101.25,36.3778,1.99e-05
2018-01-29 00:00:00,2018-01-29 00:00:00,PRATE,surface,-100.313,36.3778,1.97e-05
2018-01-29 00:00:00,2018-01-29 00:00:00,PRATE,surface,-99.3754,36.3778,2.38e-05
2018-01-29 00:00:00,2018-01-29 00:00:00,PRATE,surface,-98.4379,36.3778,2.81e-05
2018-01-29 00:00:00,2018-01-29 00:00:00,PRATE,surface,-97.5004,36.3778,2.95e-05
2018-01-29 00:00:00,2018-01-29 00:00:00,PRATE,surface,-96.5629,36.3778,2.94e-05
2018-01-29 00:00:00,2018-01-29 00:00:00,PRATE,surface,-95.6254,36.3778,3.02e-05
2018-01-29 00:00:00,2018-01-29 00:00:00,PRATE,surface,-94.6879,36.3778,3.13e-05
2018-01-29 00:00:00,2018-01-29 00:00:00,PRATE,surface,-93.7504,36.3778,3.03e-05
2018-01-29 00:00:00,2018-01-29 00:00:00,PRATE,surface,-92.8129,36.3778,2.74e-05
