2015-02-01 00:00:00,2015-02-01 00:00:00,TMP,surface,-107.813,25.0393,300.915
2015-02-01 00:00:00,2015-02-01 00:00:00,TMP,surface,-106.875,25.0393,295.837
2015-02-01 00:00:00,2015-02-01 00:00:00,TMP,surface,-105.938,25.0393,290.823
2015-02-01 00:00:00,2015-02-01 00:00:00,TMP,surface,-105,25.0393,291.677
2015-02-01 00:00:00,2015-02-01 00:00:00,TMP,surface,-104.063,25.0393,295.725
2015-02-01 00:00:00,2015-02-01 00:00:00,TMP,surface,-103.125,25.0393,297.432
2015-02-01 00:00:00,2015-02-01 00:00:00,TMP,surface,-102.188,25.0393,295.816
2015-02-01 00:00:00,2015-02-01 00:00:00,TMP,surface,-101.25,25.0393,292.971
2015-02-01 00:00:00,2015-02-01 00:00:00,TMP,surface,-100.313,25.0393,292.707
2015-02-01 00:00:00,2015-02-01 00:00:00,TMP,surface,-99.3754,25.0393,294.952
2015-02-01 00:00:00,2015-02-01 00:00:00,TMP,surface,-98.4379,25.0393,297.503
2015-02-01 00:00:00,2015-02-01 00:00:00,TMP,surface,-97.5004,25.0393,298.659
2015-02-01 00:00:00,2015-02-01 00:00:00,TMP,surface,-96.5629,25.0393,299.087
2015-02-01 00:00:00,2015-02-01 00:00:00,TMP,surface,-95.6254,25.0393,299.317
2015-02-01 00:00:00,2015-02-01 00:00:00,TMP,surface,-94.6879,25.0393,299.299
2015-02-01 00:00:00,2015-02-01 00:00:00,TMP,surface,-93.7504,25.0393,299.128
2015-02-01 00:00:00,2015-02-01 00:00:00,TMP,surface,-92.8129,25.0393,299.042
2015-02-01 00:00:00,2015-02-01 00:00:00,TMP,surface,-107.813,25.9842,297.88
2015-02-01 00:00:00,2015-02-01 00:00:00,TMP,surface,-106.875,25.9842,291.744
2015-02-01 00:00:00,2015-02-01 00:00:00,TMP,surface,-105.938,25.9842,290.442
2015-02-01 00:00:00,2015-02-01 00:00:00,TMP,surface,-105,25.9842,294.447
2015-02-01 00:00:00,2015-02-01 00:00:00,TMP,surface,-104.063,25.9842,298.007
2015-02-01 00:00:00,2015-02-01 00:00:00,TMP,surface,-103.125,25.9842,299.085
2015-02-01 00:00:00,2015-02-01 00:00:00,TMP,surface,-102.188,25.9842,297.4
2015-02-01 00:00:00,2015-02-01 00:00:00,TMP,surface,-101.25,25.9842,295.45
2015-02-01 00:00:00,2015-02-01 00:00:00,TMP,surface,-100.313,25.9842,295.144
2015-02-01 00:00:00,2015-02-01 00:00:00,TMP,surface,-99.3754,25.9842,297.37
2015-02-01 00:00:00,2015-02-01 00:00:00,TMP,surface,-98.4379,25.9842,297.941
2015-02-01 00:00:00,2015-02-01 00:00:00,TMP,surface,-97.5004,25.9842,297.535
2015-02-01 00:00:00,2015-02-01 00:00:00,TMP,surface,-96.5629,25.9842,297.133
2015-02-01 00:00:00,2015-02-01 00:00:00,TMP,surface,-95.6254,25.9842,298.21
2015-02-01 00:00:00,2015-02-01 00:00:00,TMP,surface,-94.6879,25.9842,298.599
2015-02-01 00:00:00,2015-02-01 00:00:00,TMP,surface,-93.7504,25.9842,298.567
2015-02-01 00:00:00,2015-02-01 00:00:00,TMP,surface,-92.8129,25.9842,298.639
2015-02-01 00:00:00,2015-02-01 00:00:00,TMP,surface,-107.813,26.929,292.871
2015-02-01 00:00:00,2015-02-01 00:00:00,TMP,surface,-106.875,26.929,290.32
2015-02-01 00:00:00,2015-02-01 00:00:00,TMP,surface,-105.938,26.929,293.05
2015-02-01 00:00:00,2015-02-01 00:00:00,TMP,surface,-105,26.929,296.896
2015-02-01 00:00:00,2015-02-01 00:00:00,TMP,surface,-104.063,26.929,298.533
2015-02-01 00:00:00,2015-02-01 00:00:00,TMP,surface,-103.125,26.929,297.274
2015-02-01 00:00:00,2015-02-01 00:00:00,TMP,surface,-102.188,26.929,295.831
2015-02-01 00:00:00,2015-02-01 00:00:00,TMP,surface,-101.25,26.929,296.111
2015-02-01 00:00:00,2015-02-01 00:00:00,TMP,surface,-100.313,26.929,297.343
2015-02-01 00:00:00,2015-02-01 00:00:00,TMP,surface,-99.3754,26.929,298.387
2015-02-01 00:00:00,2015-02-01 00:00:00,TMP,surface,-98.4379,26.929,297.416
2015-02-01 00:00:00,2015-02-01 00:00:00,TMP,surface,-97.5004,26.929,296.123
2015-02-01 00:00:00,2015-02-01 00:00:00,TMP,surface,-96.5629,26.929,296.215
2015-02-01 00:00:00,2015-02-01 00:00:00,TMP,surface,-95.6254,26.929,297.49
2015-02-01 00:00:00,2015-02-01 00:00:00,TMP,surface,-94.6879,26.929,298.099
2015-02-01 00:00:00,2015-02-01 00:00:00,TMP,surface,-93.7504,26.929,298.037
2015-02-01 00:00:00,2015-02-01 00:00:00,TMP,surface,-92.8129,26.929,298.053
2015-02-01 00:00:00,2015-02-01 00:00:00,TMP,surface,-107.813,27.8739,290.195
2015-02-01 00:00:00,2015-02-01 00:00:00,TMP,surface,-106.875,27.8739,291.027
2015-02-01 00:00:00,2015-02-01 00:00:00,TMP,surface,-105.938,27.8739,295.146
2015-02-01 00:00:00,2015-02-01 00:00:00,TMP,surface,-105,27.8739,297.696
2015-02-01 00:00:00,2015-02-01 00:00:00,TMP,surface,-104.063,27.8739,297.53
2015-02-01 00:00:00,2015-02-01 00:00:00,TMP,surface,-103.125,27.8739,295.147
2015-02-01 00:00:00,2015-02-01 00:00:00,TMP,surface,-102.188,27.8739,294.058
2015-02-01 00:00:00,2015-02-01 00:00:00,TMP,surface,-101.25,27.8739,295.467
2015-02-01 00:00:00,2015-02-01 00:00:00,TMP,surface,-100.313,27.8739,297.28
2015-02-01 00:00:00,2015-02-01 00:00:00,TMP,surface,-99.3754,27.8739,297.455
2015-02-01 00:00:00,2015-02-01 00:00:00,TMP,surface,-98.4379,27.8739,296.304
2015-02-01 00:00:00,2015-02-01 00:00:00,TMP,surface,-97.5004,27.8739,296.05
2015-02-01 00:00:00,2015-02-01 00:00:00,TMP,surface,-96.5629,27.8739,296.727
2015-02-01 00:00:00,2015-02-01 00:00:00,TMP,surface,-95.6254,27.8739,297.234
2015-02-01 00:00:00,2015-02-01 00:00:00,TMP,surface,-94.6879,27.8739,297.576
2015-02-01 00:00:00,2015-02-01 00:00:00,TMP,surface,-93.7504,27.8739,297.53
2015-02-01 00:00:00,2015-02-01 00:00:00,TMP,surface,-92.8129,27.8739,297.472
2015-02-01 00:00:00,2015-02-01 00:00:00,TMP,surface,-107.813,28.8188,289.749
2015-02-01 00:00:00,2015-02-01 00:00:00,TMP,surface,-106.875,28.8188,291.85
2015-02-01 00:00:00,2015-02-01 00:00:00,TMP,surface,-105.938,28.8188,295.627
2015-02-01 00:00:00,2015-02-01 00:00:00,TMP,surface,-105,28.8188,297.781
2015-02-01 00:00:00,2015-02-01 00:00:00,TMP,surface,-104.063,28.8188,296.655
2015-02-01 00:00:00,2015-02-01 00:00:00,TMP,surface,-103.125,28.8188,294.319
2015-02-01 00:00:00,2015-02-01 00:00:00,TMP,surface,-102.188,28.8188,293.383
2015-02-01 00:00:00,2015-02-01 00:00:00,TMP,surface,-101.25,28.8188,294.864
2015-02-01 00:00:00,2015-02-01 00:00:00,TMP,surface,-100.313,28.8188,295.639
2015-02-01 00:00:00,2015-02-01 00:00:00,TMP,surface,-99.3754,28.8188,295.271
2015-02-01 00:00:00,2015-02-01 00:00:00,TMP,surface,-98.4379,28.8188,294.943
2015-02-01 00:00:00,2015-02-01 00:00:00,TMP,surface,-97.5004,28.8188,295.075
2015-02-01 00:00:00,2015-02-01 00:00:00,TMP,surface,-96.5629,28.8188,295.475
2015-02-01 00:00:00,2015-02-01 00:00:00,TMP,surface,-95.6254,28.8188,295.693
2015-02-01 00:00:00,2015-02-01 00:00:00,TMP,surface,-94.6879,28.8188,295.675
2015-02-01 00:00:00,2015-02-01 00:00:00,TMP,surface,-93.7504,28.8188,295.951
2015-02-01 00:00:00,2015-02-01 00:00:00,TMP,surface,-92.8129,28.8188,295.983
2015-02-01 00:00:00,2015-02-01 00:00:00,TMP,surface,-107.813,29.7637,291.293
2015-02-01 00:00:00,2015-02-01 00:00:00,TMP,surface,-106.875,29.7637,293.312
2015-02-01 00:00:00,2015-02-01 00:00:00,TMP,surface,-105.938,29.7637,295.72
2015-02-01 00:00:00,2015-02-01 00:00:00,TMP,surface,-105,29.7637,296.448
2015-02-01 00:00:00,2015-02-01 00:00:00,TMP,surface,-104.063,29.7637,295.917
2015-02-01 00:00:00,2015-02-01 00:00:00,TMP,surface,-103.125,29.7637,295.157
2015-02-01 00:00:00,2015-02-01 00:00:00,TMP,surface,-102.188,29.7637,294.851
2015-02-01 00:00:00,2015-02-01 00:00:00,TMP,surface,-101.25,29.7637,294.775
2015-02-01 00:00:00,2015-02-01 00:00:00,TMP,surface,-100.313,29.7637,294.035
2015-02-01 00:00:00,2015-02-01 00:00:00,TMP,surface,-99.3754,29.7637,293.304
2015-02-01 00:00:00,2015-02-01 00:00:00,TMP,surface,-98.4379,29.7637,293.349
2015-02-01 00:00:00,2015-02-01 00:00:00,TMP,surface,-97.5004,29.7637,293.904
2015-02-01 00:00:00,2015-02-01 00:00:00,TMP,surface,-96.5629,29.7637,294.432
2015-02-01 00:00:00,2015-02-01 00:00:00,TMP,surface,-95.6254,29.7637,294.799
2015-02-01 00:00:00,2015-02-01 00:00:00,TMP,surface,-94.6879,29.7637,294.651
2015-02-01 00:00:00,2015-02-01 00:00:00,TMP,surface,-93.7504,29.7637,294.378
2015-02-01 00:00:00,2015-02-01 00:00:00,TMP,surface,-92.8129,29.7637,295.762
2015-02-01 00:00:00,2015-02-01 00:00:00,TMP,surface,-107.813,30.7085,294.267
2015-02-01 00:00:00,2015-02-01 00:00:00,TMP,surface,-106.875,30.7085,295.328
2015-02-01 00:00:00,2015-02-01 00:00:00,TMP,surface,-105.938,30.7085,295.717
2015-02-01 00:00:00,2015-02-01 00:00:00,TMP,surface,-105,30.7085,295.632
2015-02-01 00:00:00,2015-02-01 00:00:00,TMP,surface,-104.063,30.7085,295.165
2015-02-01 00:00:00,2015-02-01 00:00:00,TMP,surface,-103.125,30.7085,295.634
2015-02-01 00:00:00,2015-02-01 00:00:00,TMP,surface,-102.188,30.7085,295.426
2015-02-01 00:00:00,2015-02-01 00:00:00,TMP,surface,-101.25,30.7085,294.429
2015-02-01 00:00:00,2015-02-01 00:00:00,TMP,surface,-100.313,30.7085,293.33
2015-02-01 00:00:00,2015-02-01 00:00:00,TMP,surface,-99.3754,30.7085,292.515
2015-02-01 00:00:00,2015-02-01 00:00:00,TMP,surface,-98.4379,30.7085,292.607
2015-02-01 00:00:00,2015-02-01 00:00:00,TMP,surface,-97.5004,30.7085,293.255
2015-02-01 00:00:00,2015-02-01 00:00:00,TMP,surface,-96.5629,30.7085,294.264
2015-02-01 00:00:00,2015-02-01 00:00:00,TMP,surface,-95.6254,30.7085,295.133
2015-02-01 00:00:00,2015-02-01 00:00:00,TMP,surface,-94.6879,30.7085,295.176
2015-02-01 00:00:00,2015-02-01 00:00:00,TMP,surface,-93.7504,30.7085,295.112
2015-02-01 00:00:00,2015-02-01 00:00:00,TMP,surface,-92.8129,30.7085,294.899
2015-02-01 00:00:00,2015-02-01 00:00:00,TMP,surface,-107.813,31.6534,294.84
2015-02-01 00:00:00,2015-02-01 00:00:00,TMP,surface,-106.875,31.6534,295.325
2015-02-01 00:00:00,2015-02-01 00:00:00,TMP,surface,-105.938,31.6534,295.439
2015-02-01 00:00:00,2015-02-01 00:00:00,TMP,surface,-105,31.6534,294.867
2015-02-01 00:00:00,2015-02-01 00:00:00,TMP,surface,-104.063,31.6534,295.226
2015-02-01 00:00:00,2015-02-01 00:00:00,TMP,surface,-103.125,31.6534,295.218
2015-02-01 00:00:00,2015-02-01 00:00:00,TMP,surface,-102.188,31.6534,294.994
2015-02-01 00:00:00,2015-02-01 00:00:00,TMP,surface,-101.25,31.6534,294.079
2015-02-01 00:00:00,2015-02-01 00:00:00,TMP,surface,-100.313,31.6534,293.216
2015-02-01 00:00:00,2015-02-01 00:00:00,TMP,surface,-99.3754,31.6534,292.567
2015-02-01 00:00:00,2015-02-01 00:00:00,TMP,surface,-98.4379,31.6534,292.463
2015-02-01 00:00:00,2015-02-01 00:00:00,TMP,surface,-97.5004,31.6534,292.915
2015-02-01 00:00:00,2015-02-01 00:00:00,TMP,surface,-96.5629,31.6534,293.994
2015-02-01 00:00:00,2015-02-01 00:00:00,TMP,surface,-95.6254,31.6534,294.978
2015-02-01 00:00:00,2015-02-01 00:00:00,TMP,surface,-94.6879,31.6534,294.976
2015-02-01 00:00:00,2015-02-01 00:00:00,TMP,surface,-93.7504,31.6534,294.723
2015-02-01 00:00:00,2015-02-01 00:00:00,TMP,surface,-92.8129,31.6534,294.539
2015-02-01 00:00:00,2015-02-01 00:00:00,TMP,surface,-107.813,32.5983,292.189
2015-02-01 00:00:00,2015-02-01 00:00:00,TMP,surface,-106.875,32.5983,292.965
2015-02-01 00:00:00,2015-02-01 00:00:00,TMP,surface,-105.938,32.5983,293.325
2015-02-01 00:00:00,2015-02-01 00:00:00,TMP,surface,-105,32.5983,293.546
2015-02-01 00:00:00,2015-02-01 00:00:00,TMP,surface,-104.063,32.5983,294.227
2015-02-01 00:00:00,2015-02-01 00:00:00,TMP,surface,-103.125,32.5983,294.655
2015-02-01 00:00:00,2015-02-01 00:00:00,TMP,surface,-102.188,32.5983,294.074
2015-02-01 00:00:00,2015-02-01 00:00:00,TMP,surface,-101.25,32.5983,293.424
2015-02-01 00:00:00,2015-02-01 00:00:00,TMP,surface,-100.313,32.5983,293.202
2015-02-01 00:00:00,2015-02-01 00:00:00,TMP,surface,-99.3754,32.5983,292.778
2015-02-01 00:00:00,2015-02-01 00:00:00,TMP,surface,-98.4379,32.5983,292.469
2015-02-01 00:00:00,2015-02-01 00:00:00,TMP,surface,-97.5004,32.5983,292.594
2015-02-01 00:00:00,2015-02-01 00:00:00,TMP,surface,-96.5629,32.5983,293.328
2015-02-01 00:00:00,2015-02-01 00:00:00,TMP,surface,-95.6254,32.5983,294.205
2015-02-01 00:00:00,2015-02-01 00:00:00,TMP,surface,-94.6879,32.5983,294.394
2015-02-01 00:00:00,2015-02-01 00:00:00,TMP,surface,-93.7504,32.5983,294.218
2015-02-01 00:00:00,2015-02-01 00:00:00,TMP,surface,-92.8129,32.5983,294.306
2015-02-01 00:00:00,2015-02-01 00:00:00,TMP,surface,-107.813,33.5432,288.717
2015-02-01 00:00:00,2015-02-01 00:00:00,TMP,surface,-106.875,33.5432,290.179
2015-02-01 00:00:00,2015-02-01 00:00:00,TMP,surface,-105.938,33.5432,290.999
2015-02-01 00:00:00,2015-02-01 00:00:00,TMP,surface,-105,33.5432,291.738
2015-02-01 00:00:00,2015-02-01 00:00:00,TMP,surface,-104.063,33.5432,293.115
2015-02-01 00:00:00,2015-02-01 00:00:00,TMP,surface,-103.125,33.5432,293.33
2015-02-01 00:00:00,2015-02-01 00:00:00,TMP,surface,-102.188,33.5432,292.739
2015-02-01 00:00:00,2015-02-01 00:00:00,TMP,surface,-101.25,33.5432,292.082
2015-02-01 00:00:00,2015-02-01 00:00:00,TMP,surface,-100.313,33.5432,292.395
2015-02-01 00:00:00,2015-02-01 00:00:00,TMP,surface,-99.3754,33.5432,292.339
2015-02-01 00:00:00,2015-02-01 00:00:00,TMP,surface,-98.4379,33.5432,291.931
2015-02-01 00:00:00,2015-02-01 00:00:00,TMP,surface,-97.5004,33.5432,291.794
2015-02-01 00:00:00,2015-02-01 00:00:00,TMP,surface,-96.5629,33.5432,292.058
2015-02-01 00:00:00,2015-02-01 00:00:00,TMP,surface,-95.6254,33.5432,292.757
2015-02-01 00:00:00,2015-02-01 00:00:00,TMP,surface,-94.6879,33.5432,293.459
2015-02-01 00:00:00,2015-02-01 00:00:00,TMP,surface,-93.7504,33.5432,293.443
2015-02-01 00:00:00,2015-02-01 00:00:00,TMP,surface,-92.8129,33.5432,293.474
2015-02-01 00:00:00,2015-02-01 00:00:00,TMP,surface,-107.813,34.4881,287.346
2015-02-01 00:00:00,2015-02-01 00:00:00,TMP,surface,-106.875,34.4881,288.935
2015-02-01 00:00:00,2015-02-01 00:00:00,TMP,surface,-105.938,34.4881,289.325
2015-02-01 00:00:00,2015-02-01 00:00:00,TMP,surface,-105,34.4881,290.051
2015-02-01 00:00:00,2015-02-01 00:00:00,TMP,surface,-104.063,34.4881,291.093
2015-02-01 00:00:00,2015-02-01 00:00:00,TMP,surface,-103.125,34.4881,291.843
2015-02-01 00:00:00,2015-02-01 00:00:00,TMP,surface,-102.188,34.4881,291.771
2015-02-01 00:00:00,2015-02-01 00:00:00,TMP,surface,-101.25,34.4881,291.458
2015-02-01 00:00:00,2015-02-01 00:00:00,TMP,surface,-100.313,34.4881,291.435
2015-02-01 00:00:00,2015-02-01 00:00:00,TMP,surface,-99.3754,34.4881,291.539
2015-02-01 00:00:00,2015-02-01 00:00:00,TMP,surface,-98.4379,34.4881,291.25
2015-02-01 00:00:00,2015-02-01 00:00:00,TMP,surface,-97.5004,34.4881,290.975
2015-02-01 00:00:00,2015-02-01 00:00:00,TMP,surface,-96.5629,34.4881,291.495
2015-02-01 00:00:00,2015-02-01 00:00:00,TMP,surface,-95.6254,34.4881,292.36
2015-02-01 00:00:00,2015-02-01 00:00:00,TMP,surface,-94.6879,34.4881,292.559
2015-02-01 00:00:00,2015-02-01 00:00:00,TMP,surface,-93.7504,34.4881,292.381
2015-02-01 00:00:00,2015-02-01 00:00:00,TMP,surface,-92.8129,34.4881,292.565
2015-02-01 00:00:00,2015-02-01 00:00:00,TMP,surface,-107.813,35.4329,287.363
2015-02-01 00:00:00,2015-02-01 00:00:00,TMP,surface,-106.875,35.4329,287.738
2015-02-01 00:00:00,2015-02-01 00:00:00,TMP,surface,-105.938,35.4329,287.363
2015-02-01 00:00:00,2015-02-01 00:00:00,TMP,surface,-105,35.4329,287.618
2015-02-01 00:00:00,2015-02-01 00:00:00,TMP,surface,-104.063,35.4329,289.738
2015-02-01 00:00:00,2015-02-01 00:00:00,TMP,surface,-103.125,35.4329,290.963
2015-02-01 00:00:00,2015-02-01 00:00:00,TMP,surface,-102.188,35.4329,291.2
2015-02-01 00:00:00,2015-02-01 00:00:00,TMP,surface,-101.25,35.4329,291.045
2015-02-01 00:00:00,2015-02-01 00:00:00,TMP,surface,-100.313,35.4329,290.685
2015-02-01 00:00:00,2015-02-01 00:00:00,TMP,surface,-99.3754,35.4329,290.611
2015-02-01 00:00:00,2015-02-01 00:00:00,TMP,surface,-98.4379,35.4329,290.487
2015-02-01 00:00:00,2015-02-01 00:00:00,TMP,surface,-97.5004,35.4329,290.386
2015-02-01 00:00:00,2015-02-01 00:00:00,TMP,surface,-96.5629,35.4329,290.615
2015-02-01 00:00:00,2015-02-01 00:00:00,TMP,surface,-95.6254,35.4329,291.235
2015-02-01 00:00:00,2015-02-01 00:00:00,TMP,surface,-94.6879,35.4329,291.786
2015-02-01 00:00:00,2015-02-01 00:00:00,TMP,surface,-93.7504,35.4329,291.579
2015-02-01 00:00:00,2015-02-01 00:00:00,TMP,surface,-92.8129,35.4329,291.319
2015-02-01 00:00:00,2015-02-01 00:00:00,TMP,surface,-107.813,36.3778,286.096
2015-02-01 00:00:00,2015-02-01 00:00:00,TMP,surface,-106.875,36.3778,283.84
2015-02-01 00:00:00,2015-02-01 00:00:00,TMP,surface,-105.938,36.3778,284.194
2015-02-01 00:00:00,2015-02-01 00:00:00,TMP,surface,-105,36.3778,285.066
2015-02-01 00:00:00,2015-02-01 00:00:00,TMP,surface,-104.063,36.3778,287.376
2015-02-01 00:00:00,2015-02-01 00:00:00,TMP,surface,-103.125,36.3778,289.243
2015-02-01 00:00:00,2015-02-01 00:00:00,TMP,surface,-102.188,36.3778,290.319
2015-02-01 00:00:00,2015-02-01 00:00:00,TMP,surface,-101.25,36.3778,290.447
2015-02-01 00:00:00,2015-02-01 00:00:00,TMP,surface,-100.313,36.3778,290.378
2015-02-01 00:00:00,2015-02-01 00:00:00,TMP,surface,-99.3754,36.3778,290.317
2015-02-01 00:00:00,2015-02-01 00:00:00,TMP,surface,-98.4379,36.3778,290.085
2015-02-01 00:00:00,2015-02-01 00:00:00,TMP,surface,-97.5004,36.3778,289.914
2015-02-01 00:00:00,2015-02-01 00:00:00,TMP,surface,-96.5629,36.3778,290.099
2015-02-01 00:00:00,2015-02-01 00:00:00,TMP,surface,-95.6254,36.3778,290.639
2015-02-01 00:00:00,2015-02-01 00:00:00,TMP,surface,-94.6879,36.3778,291.018
2015-02-01 00:00:00,2015-02-01 00:00:00,TMP,surface,-93.7504,36.3778,290.714
2015-02-01 00:00:00,2015-02-01 00:00:00,TMP,surface,-92.8129,36.3778,290.482
2015-02-01 00:00:00,2015-02-01 00:00:00,PRATE,surface,-107.813,25.0393,0
2015-02-01 00:00:00,2015-02-01 00:00:00,PRATE,surface,-106.875,25.0393,0
2015-02-01 00:00:00,2015-02-01 00:00:00,PRATE,surface,-105.938,25.0393,4.5e-06
2015-02-01 00:00:00,2015-02-01 00:00:00,PRATE,surface,-105,25.0393,9.6e-06
2015-02-01 00:00:00,2015-02-01 00:00:00,PRATE,surface,-104.063,25.0393,9.7e-06
2015-02-01 00:00:00,2015-02-01 00:00:00,PRATE,surface,-103.125,25.0393,8.8e-06
2015-02-01 00:00:00,2015-02-01 00:00:00,PRATE,surface,-102.188,25.0393,1.64e-05
2015-02-01 00:00:00,2015-02-01 00:00:00,PRATE,surface,-101.25,25.0393,4.07e-05
2015-02-01 00:00:00,2015-02-01 00:00:00,PRATE,surface,-100.313,25.0393,5.36e-05
2015-02-01 00:00:00,2015-02-01 00:00:00,PRATE,surface,-99.3754,25.0393,4.66e-05
2015-02-01 00:00:00,2015-02-01 00:00:00,PRATE,surface,-98.4379,25.0393,3.57e-05
2015-02-01 00:00:00,2015-02-01 00:00:00,PRATE,surface,-97.5004,25.0393,3.44e-05
2015-02-01 00:00:00,2015-02-01 00:00:00,PRATE,surface,-96.5629,25.0393,2.66e-05
2015-02-01 00:00:00,2015-02-01 00:00:00,PRATE,surface,-95.6254,25.0393,4.04e-05
2015-02-01 00:00:00,2015-02-01 00:00:00,PRATE,surface,-94.6879,25.0393,4e-05
2015-02-01 00:00:00,2015-02-01 00:00:00,PRATE,surface,-93.7504,25.0393,4.9e-05
2015-02-01 00:00:00,2015-02-01 00:00:00,PRATE,surface,-92.8129,25.0393,5.81e-05
2015-02-01 00:00:00,2015-02-01 00:00:00,PRATE,surface,-107.813,25.9842,0
2015-02-01 00:00:00,2015-02-01 00:00:00,PRATE,surface,-106.875,25.9842,0
2015-02-01 00:00:00,2015-02-01 00:00:00,PRATE,surface,-105.938,25.9842,4.5e-06
2015-02-01 00:00:00,2015-02-01 00:00:00,PRATE,surface,-105,25.9842,5.1e-06
2015-02-01 00:00:00,2015-02-01 00:00:00,PRATE,surface,-104.063,25.9842,2.8e-06
2015-02-01 00:00:00,2015-02-01 00:00:00,PRATE,surface,-103.125,25.9842,2.2e-06
2015-02-01 00:00:00,2015-02-01 00:00:00,PRATE,surface,-102.188,25.9842,5.4e-06
2015-02-01 00:00:00,2015-02-01 00:00:00,PRATE,surface,-101.25,25.9842,9.2e-06
2015-02-01 00:00:00,2015-02-01 00:00:00,PRATE,surface,-100.313,25.9842,2.06e-05
2015-02-01 00:00:00,2015-02-01 00:00:00,PRATE,surface,-99.3754,25.9842,1.51e-05
2015-02-01 00:00:00,2015-02-01 00:00:00,PRATE,surface,-98.4379,25.9842,1.76e-05
2015-02-01 00:00:00,2015-02-01 00:00:00,PRATE,surface,-97.5004,25.9842,2.7e-05
2015-02-01 00:00:00,2015-02-01 00:00:00,PRATE,surface,-96.5629,25.9842,2.46e-05
2015-02-01 00:00:00,2015-02-01 00:00:00,PRATE,surface,-95.6254,25.9842,3.5e-05
2015-02-01 00:00:00,2015-02-01 00:00:00,PRATE,surface,-94.6879,25.9842,5.35e-05
2015-02-01 00:00:00,2015-02-01 00:00:00,PRATE,surface,-93.7504,25.9842,8.37e-05
2015-02-01 00:00:00,2015-02-01 00:00:00,PRATE,surface,-92.8129,25.9842,8.37e-05
2015-02-01 00:00:00,2015-02-01 00:00:00,PRATE,surface,-107.813,26.929,0
2015-02-01 00:00:00,2015-02-01 00:00:00,PRATE,surface,-106.875,26.929,3e-07
2015-02-01 00:00:00,2015-02-01 00:00:00,PRATE,surface,-105.938,26.929,1.7e-06
2015-02-01 00:00:00,2015-02-01 00:00:00,PRATE,surface,-105,26.929,2.4e-06
2015-02-01 00:00:00,2015-02-01 00:00:00,PRATE,surface,-104.063,26.929,5.7e-06
2015-02-01 00:00:00,2015-02-01 00:00:00,PRATE,surface,-103.125,26.929,1.03e-05
2015-02-01 00:00:00,2015-02-01 00:00:00,PRATE,surface,-102.188,26.929,1.11e-05
2015-02-01 00:00:00,2015-02-01 00:00:00,PRATE,surface,-101.25,26.929,1.07e-05
2015-02-01 00:00:00,2015-02-01 00:00:00,PRATE,surface,-100.313,26.929,9.9e-06
2015-02-01 00:00:00,2015-02-01 00:00:00,PRATE,surface,-99.3754,26.929,1.39e-05
2015-02-01 00:00:00,2015-02-01 00:00:00,PRATE,surface,-98.4379,26.929,1.32e-05
2015-02-01 00:00:00,2015-02-01 00:00:00,PRATE,surface,-97.5004,26.929,3.23e-05
2015-02-01 00:00:00,2015-02-01 00:00:00,PRATE,surface,-96.5629,26.929,2.68e-05
2015-02-01 00:00:00,2015-02-01 00:00:00,PRATE,surface,-95.6254,26.929,2.76e-05
2015-02-01 00:00:00,2015-02-01 00:00:00,PRATE,surface,-94.6879,26.929,2.59e-05
2015-02-01 00:00:00,2015-02-01 00:00:00,PRATE,surface,-93.7504,26.929,3.41e-05
2015-02-01 00:00:00,2015-02-01 00:00:00,PRATE,surface,-92.8129,26.929,3.88e-05
2015-02-01 00:00:00,2015-02-01 00:00:00,PRATE,surface,-107.813,27.8739,2.8e-06
2015-02-01 00:00:00,2015-02-01 00:00:00,PRATE,surface,-106.875,27.8739,2.3e-06
2015-02-01 00:00:00,2015-02-01 00:00:00,PRATE,surface,-105.938,27.8739,9e-07
2015-02-01 00:00:00,2015-02-01 00:00:00,PRATE,surface,-105,27.8739,2e-06
2015-02-01 00:00:00,2015-02-01 00:00:00,PRATE,surface,-104.063,27.8739,5.9e-06
2015-02-01 00:00:00,2015-02-01 00:00:00,PRATE,surface,-103.125,27.8739,1.56e-05
2015-02-01 00:00:00,2015-02-01 00:00:00,PRATE,surface,-102.188,27.8739,2.1e-05
2015-02-01 00:00:00,2015-02-01 00:00:00,PRATE,surface,-101.25,27.8739,1.33e-05
2015-02-01 00:00:00,2015-02-01 00:00:00,PRATE,surface,-100.313,27.8739,1.18e-05
2015-02-01 00:00:00,2015-02-01 00:00:00,PRATE,surface,-99.3754,27.8739,1.57e-05
2015-02-01 00:00:00,2015-02-01 00:00:00,PRATE,surface,-98.4379,27.8739,1.84e-05
2015-02-01 00:00:00,2015-02-01 00:00:00,PRATE,surface,-97.5004,27.8739,2.27e-05
2015-02-01 00:00:00,2015-02-01 00:00:00,PRATE,surface,-96.5629,27.8739,2.97e-05
2015-02-01 00:00:00,2015-02-01 00:00:00,PRATE,surface,-95.6254,27.8739,3.38e-05
2015-02-01 00:00:00,2015-02-01 00:00:00,PRATE,surface,-94.6879,27.8739,3.07e-05
2015-02-01 00:00:00,2015-02-01 00:00:00,PRATE,surface,-93.7504,27.8739,2.68e-05
2015-02-01 00:00:00,2015-02-01 00:00:00,PRATE,surface,-92.8129,27.8739,3.18e-05
2015-02-01 00:00:00,2015-02-01 00:00:00,PRATE,surface,-107.813,28.8188,7.7e-06
2015-02-01 00:00:00,2015-02-01 00:00:00,PRATE,surface,-106.875,28.8188,6.6e-06
2015-02-01 00:00:00,2015-02-01 00:00:00,PRATE,surface,-105.938,28.8188,1.4e-06
2015-02-01 00:00:00,2015-02-01 00:00:00,PRATE,surface,-105,28.8188,2.1e-06
2015-02-01 00:00:00,2015-02-01 00:00:00,PRATE,surface,-104.063,28.8188,7.2e-06
2015-02-01 00:00:00,2015-02-01 00:00:00,PRATE,surface,-103.125,28.8188,1.84e-05
2015-02-01 00:00:00,2015-02-01 00:00:00,PRATE,surface,-102.188,28.8188,2.78e-05
2015-02-01 00:00:00,2015-02-01 00:00:00,PRATE,surface,-101.25,28.8188,2.14e-05
2015-02-01 00:00:00,2015-02-01 00:00:00,PRATE,surface,-100.313,28.8188,1.97e-05
2015-02-01 00:00:00,2015-02-01 00:00:00,PRATE,surface,-99.3754,28.8188,2.1e-05
2015-02-01 00:00:00,2015-02-01 00:00:00,PRATE,surface,-98.4379,28.8188,1.71e-05
2015-02-01 00:00:00,2015-02-01 00:00:00,PRATE,surface,-97.5004,28.8188,1.72e-05
2015-02-01 00:00:00,2015-02-01 00:00:00,PRATE,surface,-96.5629,28.8188,2.52e-05
2015-02-01 00:00:00,2015-02-01 00:00:00,PRATE,surface,-95.6254,28.8188,3.5e-05
2015-02-01 00:00:00,2015-02-01 00:00:00,PRATE,surface,-94.6879,28.8188,4.55e-05
2015-02-01 00:00:00,2015-02-01 00:00:00,PRATE,surface,-93.7504,28.8188,5.55e-05
2015-02-01 00:00:00,2015-02-01 00:00:00,PRATE,surface,-92.8129,28.8188,5.88e-05
2015-02-01 00:00:00,2015-02-01 00:00:00,PRATE,surface,-107.813,29.7637,6.8e-06
2015-02-01 00:00:00,2015-02-01 00:00:00,PRATE,surface,-106.875,29.7637,7.1e-06
2015-02-01 00:00:00,2015-02-01 00:00:00,PRATE,surface,-105.938,29.7637,2.6e-06
2015-02-01 00:00:00,2015-02-01 00:00:00,PRATE,surface,-105,29.7637,3.1e-06
2015-02-01 00:00:00,2015-02-01 00:00:00,PRATE,surface,-104.063,29.7637,1.11e-05
2015-02-01 00:00:00,2015-02-01 00:00:00,PRATE,surface,-103.125,29.7637,1.35e-05
2015-02-01 00:00:00,2015-02-01 00:00:00,PRATE,surface,-102.188,29.7637,2.26e-05
2015-02-01 00:00:00,2015-02-01 00:00:00,PRATE,surface,-101.25,29.7637,2.79e-05
2015-02-01 00:00:00,2015-02-01 00:00:00,PRATE,surface,-100.313,29.7637,3.9e-05
2015-02-01 00:00:00,2015-02-01 00:00:00,PRATE,surface,-99.3754,29.7637,3.84e-05
2015-02-01 00:00:00,2015-02-01 00:00:00,PRATE,surface,-98.4379,29.7637,2.89e-05
2015-02-01 00:00:00,2015-02-01 00:00:00,PRATE,surface,-97.5004,29.7637,2.76e-05
2015-02-01 00:00:00,2015-02-01 00:00:00,PRATE,surface,-96.5629,29.7637,3.43e-05
2015-02-01 00:00:00,2015-02-01 00:00:00,PRATE,surface,-95.6254,29.7637,4.11e-05
2015-02-01 00:00:00,2015-02-01 00:00:00,PRATE,surface,-94.6879,29.7637,4.79e-05
2015-02-01 00:00:00,2015-02-01 00:00:00,PRATE,surface,-93.7504,29.7637,5.46e-05
2015-02-01 00:00:00,2015-02-01 00:00:00,PRATE,surface,-92.8129,29.7637,6.09e-05
2015-02-01 00:00:00,2015-02-01 00:00:00,PRATE,surface,-107.813,30.7085,1.8e-06
2015-02-01 00:00:00,2015-02-01 00:00:00,PRATE,surface,-106.875,30.7085,3.2e-06
2015-02-01 00:00:00,2015-02-01 00:00:00,PRATE,surface,-105.938,30.7085,3.4e-06
2015-02-01 00:00:00,2015-02-01 00:00:00,PRATE,surface,-105,30.7085,3e-06
2015-02-01 00:00:00,2015-02-01 00:00:00,PRATE,surface,-104.063,30.7085,5.8e-06
2015-02-01 00:00:00,2015-02-01 00:00:00,PRATE,surface,-103.125,30.7085,4.7e-06
2015-02-01 00:00:00,2015-02-01 00:00:00,PRATE,surface,-102.188,30.7085,8.7e-06
2015-02-01 00:00:00,2015-02-01 00:00:00,PRATE,surface,-101.25,30.7085,2.22e-05
2015-02-01 00:00:00,2015-02-01 00:00:00,PRATE,surface,-100.313,30.7085,4.14e-05
2015-02-01 00:00:00,2015-02-01 00:00:00,PRATE,surface,-99.3754,30.7085,5.25e-05
2015-02-01 00:00:00,2015-02-01 00:00:00,PRATE,surface,-98.4379,30.7085,5.38e-05
2015-02-01 00:00:00,2015-02-01 00:00:00,PRATE,surface,-97.5004,30.7085,5.04e-05
2015-02-01 00:00:00,2015-02-01 00:00:00,PRATE,surface,-96.5629,30.7085,4.14e-05
2015-02-01 00:00:00,2015-02-01 00:00:00,PRATE,surface,-95.6254,30.7085,3.41e-05
2015-02-01 00:00:00,2015-02-01 00:00:00,PRATE,surface,-94.6879,30.7085,4.01e-05
2015-02-01 00:00:00,2015-02-01 00:00:00,PRATE,surface,-93.7504,30.7085,5.27e-05
2015-02-01 00:00:00,2015-02-01 00:00:00,PRATE,surface,-92.8129,30.7085,6.24e-05
2015-02-01 00:00:00,2015-02-01 00:00:00,PRATE,surface,-107.813,31.6534,2e-07
2015-02-01 00:00:00,2015-02-01 00:00:00,PRATE,surface,-106.875,31.6534,8e-07
2015-02-01 00:00:00,2015-02-01 00:00:00,PRATE,surface,-105.938,31.6534,1.5e-06
2015-02-01 00:00:00,2015-02-01 00:00:00,PRATE,surface,-105,31.6534,2.1e-06
2015-02-01 00:00:00,2015-02-01 00:00:00,PRATE,surface,-104.063,31.6534,3.9e-06
2015-02-01 00:00:00,2015-02-01 00:00:00,PRATE,surface,-103.125,31.6534,6.5e-06
2015-02-01 00:00:00,2015-02-01 00:00:00,PRATE,surface,-102.188,31.6534,8.6e-06
2015-02-01 00:00:00,2015-02-01 00:00:00,PRATE,surface,-101.25,31.6534,1.52e-05
2015-02-01 00:00:00,2015-02-01 00:00:00,PRATE,surface,-100.313,31.6534,3.2e-05
2015-02-01 00:00:00,2015-02-01 00:00:00,PRATE,surface,-99.3754,31.6534,4.97e-05
2015-02-01 00:00:00,2015-02-01 00:00:00,PRATE,surface,-98.4379,31.6534,6.17e-05
2015-02-01 00:00:00,2015-02-01 00:00:00,PRATE,surface,-97.5004,31.6534,7.26e-05
2015-02-01 00:00:00,2015-02-01 00:00:00,PRATE,surface,-96.5629,31.6534,7.52e-05
2015-02-01 00:00:00,2015-02-01 00:00:00,PRATE,surface,-95.6254,31.6534,6.54e-05
2015-02-01 00:00:00,2015-02-01 00:00:00,PRATE,surface,-94.6879,31.6534,5.83e-05
2015-02-01 00:00:00,2015-02-01 00:00:00,PRATE,surface,-93.7504,31.6534,6.35e-05
2015-02-01 00:00:00,2015-02-01 00:00:00,PRATE,surface,-92.8129,31.6534,7.35e-05
2015-02-01 00:00:00,2015-02-01 00:00:00,PRATE,surface,-107.813,32.5983,3e-07
2015-02-01 00:00:00,2015-02-01 00:00:00,PRATE,surface,-106.875,32.5983,5e-07
2015-02-01 00:00:00,2015-02-01 00:00:00,PRATE,surface,-105.938,32.5983,7e-07
2015-02-01 00:00:00,2015-02-01 00:00:00,PRATE,surface,-105,32.5983,2.6e-06
2015-02-01 00:00:00,2015-02-01 00:00:00,PRATE,surface,-104.063,32.5983,6.2e-06
2015-02-01 00:00:00,2015-02-01 00:00:00,PRATE,surface,-103.125,32.5983,5.7e-06
2015-02-01 00:00:00,2015-02-01 00:00:00,PRATE,surface,-102.188,32.5983,9.2e-06
2015-02-01 00:00:00,2015-02-01 00:00:00,PRATE,surface,-101.25,32.5983,1.79e-05
2015-02-01 00:00:00,2015-02-01 00:00:00,PRATE,surface,-100.313,32.5983,2.53e-05
2015-02-01 00:00:00,2015-02-01 00:00:00,PRATE,surface,-99.3754,32.5983,3.1e-05
2015-02-01 00:00:00,2015-02-01 00:00:00,PRATE,surface,-98.4379,32.5983,3.81e-05
2015-02-01 00:00:00,2015-02-01 00:00:00,PRATE,surface,-97.5004,32.5983,6.11e-05
2015-02-01 00:00:00,2015-02-01 00:00:00,PRATE,surface,-96.5629,32.5983,8.77e-05
2015-02-01 00:00:00,2015-02-01 00:00:00,PRATE,surface,-95.6254,32.5983,9.16e-05
2015-02-01 00:00:00,2015-02-01 00:00:00,PRATE,surface,-94.6879,32.5983,7.8e-05
2015-02-01 00:00:00,2015-02-01 00:00:00,PRATE,surface,-93.7504,32.5983,6.91e-05
2015-02-01 00:00:00,2015-02-01 00:00:00,PRATE,surface,-92.8129,32.5983,7.08e-05
2015-02-01 00:00:00,2015-02-01 00:00:00,PRATE,surface,-107.813,33.5432,4.2e-06
2015-02-01 00:00:00,2015-02-01 00:00:00,PRATE,surface,-106.875,33.5432,3.2e-06
2015-02-01 00:00:00,2015-02-01 00:00:00,PRATE,surface,-105.938,33.5432,5.6e-06
2015-02-01 00:00:00,2015-02-01 00:00:00,PRATE,surface,-105,33.5432,8.6e-06
2015-02-01 00:00:00,2015-02-01 00:00:00,PRATE,surface,-104.063,33.5432,1.28e-05
2015-02-01 00:00:00,2015-02-01 00:00:00,PRATE,surface,-103.125,33.5432,1.22e-05
2015-02-01 00:00:00,2015-02-01 00:00:00,PRATE,surface,-102.188,33.5432,1.48e-05
2015-02-01 00:00:00,2015-02-01 00:00:00,PRATE,surface,-101.25,33.5432,2.8e-05
2015-02-01 00:00:00,2015-02-01 00:00:00,PRATE,surface,-100.313,33.5432,3.15e-05
2015-02-01 00:00:00,2015-02-01 00:00:00,PRATE,surface,-99.3754,33.5432,3.51e-05
2015-02-01 00:00:00,2015-02-01 00:00:00,PRATE,surface,-98.4379,33.5432,3.65e-05
2015-02-01 00:00:00,2015-02-01 00:00:00,PRATE,surface,-97.5004,33.5432,5.01e-05
2015-02-01 00:00:00,2015-02-01 00:00:00,PRATE,surface,-96.5629,33.5432,7.5e-05
2015-02-01 00:00:00,2015-02-01 00:00:00,PRATE,surface,-95.6254,33.5432,8.29e-05
2015-02-01 00:00:00,2015-02-01 00:00:00,PRATE,surface,-94.6879,33.5432,6.77e-05
2015-02-01 00:00:00,2015-02-01 00:00:00,PRATE,surface,-93.7504,33.5432,5.46e-05
2015-02-01 00:00:00,2015-02-01 00:00:00,PRATE,surface,-92.8129,33.5432,5.48e-05
2015-02-01 00:00:00,2015-02-01 00:00:00,PRATE,surface,-107.813,34.4881,6.6e-06
2015-02-01 00:00:00,2015-02-01 00:00:00,PRATE,surface,-106.875,34.4881,7.6e-06
2015-02-01 00:00:00,2015-02-01 00:00:00,PRATE,surface,-105.938,34.4881,1.31e-05
2015-02-01 00:00:00,2015-02-01 00:00:00,PRATE,surface,-105,34.4881,2.51e-05
2015-02-01 00:00:00,2015-02-01 00:00:00,PRATE,surface,-104.063,34.4881,2.96e-05
2015-02-01 00:00:00,2015-02-01 00:00:00,PRATE,surface,-103.125,34.4881,2.6e-05
2015-02-01 00:00:00,2015-02-01 00:00:00,PRATE,surface,-102.188,34.4881,2.46e-05
2015-02-01 00:00:00,2015-02-01 00:00:00,PRATE,surface,-101.25,34.4881,3.98e-05
2015-02-01 00:00:00,2015-02-01 00:00:00,PRATE,surface,-100.313,34.4881,4.61e-05
2015-02-01 00:00:00,2015-02-01 00:00:00,PRATE,surface,-99.3754,34.4881,4.61e-05
2015-02-01 00:00:00,2015-02-01 00:00:00,PRATE,surface,-98.4379,34.4881,5.06e-05
2015-02-01 00:00:00,2015-02-01 00:00:00,PRATE,surface,-97.5004,34.4881,5.76e-05
2015-02-01 00:00:00,2015-02-01 00:00:00,PRATE,surface,-96.5629,34.4881,6.25e-05
2015-02-01 00:00:00,2015-02-01 00:00:00,PRATE,surface,-95.6254,34.4881,6.21e-05
2015-02-01 00:00:00,2015-02-01 00:00:00,PRATE,surface,-94.6879,34.4881,5.65e-05
2015-02-01 00:00:00,2015-02-01 00:00:00,PRATE,surface,-93.7504,34.4881,5.22e-05
2015-02-01 00:00:00,2015-02-01 00:00:00,PRATE,surface,-92.8129,34.4881,5.15e-05
2015-02-01 00:00:00,2015-02-01 00:00:00,PRATE,surface,-107.813,35.4329,4.3e-06
2015-02-01 00:00:00,2015-02-01 00:00:00,PRATE,surface,-106.875,35.4329,6.3e-06
2015-02-01 00:00:00,2015-02-01 00:00:00,PRATE,surface,-105.938,35.4329,1.38e-05
2015-02-01 00:00:00,2015-02-01 00:00:00,PRATE,surface,-105,35.4329,3.14e-05
2015-02-01 00:00:00,2015-02-01 00:00:00,PRATE,surface,-104.063,35.4329,4.53e-05
2015-02-01 00:00:00,2015-02-01 00:00:00,PRATE,surface,-103.125,35.4329,4.63e-05
2015-02-01 00:00:00,2015-02-01 00:00:00,PRATE,surface,-102.188,35.4329,3.61e-05
2015-02-01 00:00:00,2015-02-01 00:00:00,PRATE,surface,-101.25,35.4329,3.83e-05
2015-02-01 00:00:00,2015-02-01 00:00:00,PRATE,surface,-100.313,35.4329,5.42e-05
2015-02-01 00:00:00,2015-02-01 00:00:00,PRATE,surface,-99.3754,35.4329,6.75e-05
2015-02-01 00:00:00,2015-02-01 00:00:00,PRATE,surface,-98.4379,35.4329,8.77e-05
2015-02-01 00:00:00,2015-02-01 00:00:00,PRATE,surface,-97.5004,35.4329,0.0001005
2015-02-01 00:00:00,2015-02-01 00:00:00,PRATE,surface,-96.5629,35.4329,9.17e-05
2015-02-01 00:00:00,2015-02-01 00:00:00,PRATE,surface,-95.6254,35.4329,7.19e-05
2015-02-01 00:00:00,2015-02-01 00:00:00,PRATE,surface,-94.6879,35.4329,5.81e-05
2015-02-01 00:00:00,2015-02-01 00:00:00,PRATE,surface,-93.7504,35.4329,5.56e-05
2015-02-01 00:00:00,2015-02-01 00:00:00,PRATE,surface,-92.8129,35.4329,5.2e-05
2015-02-01 00:00:00,2015-02-01 00:00:00,PRATE,surface,-107.813,36.3778,5.2e-06
2015-02-01 00:00:00,2015-02-01 00:00:00,PRATE,surface,-106.875,36.3778,1.17e-05
2015-02-01 00:00:00,2015-02-01 00:00:00,PRATE,surface,-105.938,36.3778,2.69e-05
2015-02-01 00:00:00,2015-02-01 00:00:00,PRATE,surface,-105,36.3778,4.56e-05
2015-02-01 00:00:00,2015-02-01 00:00:00,PRATE,surface,-104.063,36.3778,6.11e-05
2015-02-01 00:00:00,2015-02-01 00:00:00,PRATE,surface,-103.125,36.3778,5.01e-05
2015-02-01 00:00:00,2015-02-01 00:00:00,PRATE,surface,-102.188,36.3778,4.15e-05
2015-02-01 00:00:00,2015-02-01 00:00:00,PRATE,surface,-101.25,36.3778,4.21e-05
2015-02-01 00:00:00,2015-02-01 00:00:00,PRATE,surface,-100.313,36.3778,5.58e-05
2015-02-01 00:00:00,2015-02-01 00:00:00,PRATE,surface,-99.3754,36.3778,7.33e-05
2015-02-01 00:00:00,2015-02-01 00:00:00,PRATE,surface,-98.4379,36.3778,8.93e-05
2015-02-01 00:00:00,2015-02-01 00:00:00,PRATE,surface,-97.5004,36.3778,9.64e-05
2015-02-01 00:00:00,2015-02-01 00:00:00,PRATE,surface,-96.5629,36.3778,9.36e-05
2015-02-01 00:00:00,2015-02-01 00:00:00,PRATE,surface,-95.6254,36.3778,8.42e-05
2015-02-01 00:00:00,2015-02-01 00:00:00,PRATE,surface,-94.6879,36.3778,6.6e-05
2015-02-01 00:00:00,2015-02-01 00:00:00,PRATE,surface,-93.7504,36.3778,4.49e-05
2015-02-01 00:00:00,2015-02-01 00:00:00,PRATE,surface,-92.8129,36.3778,3.99e-05
