2016-12-03 00:00:00,2016-12-03 00:00:00,TMP,surface,-107.813,25.0393,301.607
2016-12-03 00:00:00,2016-12-03 00:00:00,TMP,surface,-106.875,25.0393,294.746
2016-12-03 00:00:00,2016-12-03 00:00:00,TMP,surface,-105.938,25.0393,289.92
2016-12-03 00:00:00,2016-12-03 00:00:00,TMP,surface,-105,25.0393,287.754
2016-12-03 00:00:00,2016-12-03 00:00:00,TMP,surface,-104.063,25.0393,291
2016-12-03 00:00:00,2016-12-03 00:00:00,TMP,surface,-103.125,25.0393,294.093
2016-12-03 00:00:00,2016-12-03 00:00:00,TMP,surface,-102.188,25.0393,293.591
2016-12-03 00:00:00,2016-12-03 00:00:00,TMP,surface,-101.25,25.0393,290.928
2016-12-03 00:00:00,2016-12-03 00:00:00,TMP,surface,-100.313,25.0393,291.194
2016-12-03 00:00:00,2016-12-03 00:00:00,TMP,surface,-99.3754,25.0393,294.724
2016-12-03 00:00:00,2016-12-03 00:00:00,TMP,surface,-98.4379,25.0393,298.588
2016-12-03 00:00:00,2016-12-03 00:00:00,TMP,surface,-97.5004,25.0393,302.711
2016-12-03 00:00:00,2016-12-03 00:00:00,TMP,surface,-96.5629,25.0393,302.932
2016-12-03 00:00:00,2016-12-03 00:00:00,TMP,surface,-95.6254,25.0393,302.829
2016-12-03 00:00:00,2016-12-03 00:00:00,TMP,surface,-94.6879,25.0393,302.818
2016-12-03 00:00:00,2016-12-03 00:00:00,TMP,surface,-93.7504,25.0393,302.674
2016-12-03 00:00:00,2016-12-03 00:00:00,TMP,surface,-92.8129,25.0393,302.528
2016-12-03 00:00:00,2016-12-03 00:00:00,TMP,surface,-107.813,25.9842,296.788
2016-12-03 00:00:00,2016-12-03 00:00:00,TMP,surface,-106.875,25.9842,291.063
2016-12-03 00:00:00,2016-12-03 00:00:00,TMP,surface,-105.938,25.9842,288.373
2016-12-03 00:00:00,2016-12-03 00:00:00,TMP,surface,-105,25.9842,289.252
2016-12-03 00:00:00,2016-12-03 00:00:00,TMP,surface,-104.063,25.9842,293.986
2016-12-03 00:00:00,2016-12-03 00:00:00,TMP,surface,-103.125,25.9842,296.101
2016-12-03 00:00:00,2016-12-03 00:00:00,TMP,surface,-102.188,25.9842,295.143
2016-12-03 00:00:00,2016-12-03 00:00:00,TMP,surface,-101.25,25.9842,293.728
2016-12-03 00:00:00,2016-12-03 00:00:00,TMP,surface,-100.313,25.9842,294.066
2016-12-03 00:00:00,2016-12-03 00:00:00,TMP,surface,-99.3754,25.9842,297.516
2016-12-03 00:00:00,2016-12-03 00:00:00,TMP,surface,-98.4379,25.9842,299.472
2016-12-03 00:00:00,2016-12-03 00:00:00,TMP,surface,-97.5004,25.9842,299.901
2016-12-03 00:00:00,2016-12-03 00:00:00,TMP,surface,-96.5629,25.9842,302.298
2016-12-03 00:00:00,2016-12-03 00:00:00,TMP,surface,-95.6254,25.9842,302.568
2016-12-03 00:00:00,2016-12-03 00:00:00,TMP,surface,-94.6879,25.9842,302.62
2016-12-03 00:00:00,2016-12-03 00:00:00,TMP,surface,-93.7504,25.9842,302.602
2016-12-03 00:00:00,2016-12-03 00:00:00,TMP,surface,-92.8129,25.9842,302.631
2016-12-03 00:00:00,2016-12-03 00:00:00,TMP,surface,-107.813,26.929,292.4
2016-12-03 00:00:00,2016-12-03 00:00:00,TMP,surface,-106.875,26.929,288.698
2016-12-03 00:00:00,2016-12-03 00:00:00,TMP,surface,-105.938,26.929,288.85
2016-12-03 00:00:00,2016-12-03 00:00:00,TMP,surface,-105,26.929,292.101
2016-12-03 00:00:00,2016-12-03 00:00:00,TMP,surface,-104.063,26.929,295.181
2016-12-03 00:00:00,2016-12-03 00:00:00,TMP,surface,-103.125,26.929,294.882
2016-12-03 00:00:00,2016-12-03 00:00:00,TMP,surface,-102.188,26.929,294.356
2016-12-03 00:00:00,2016-12-03 00:00:00,TMP,surface,-101.25,26.929,295.22
2016-12-03 00:00:00,2016-12-03 00:00:00,TMP,surface,-100.313,26.929,297.212
2016-12-03 00:00:00,2016-12-03 00:00:00,TMP,surface,-99.3754,26.929,298.928
2016-12-03 00:00:00,2016-12-03 00:00:00,TMP,surface,-98.4379,26.929,298.445
2016-12-03 00:00:00,2016-12-03 00:00:00,TMP,surface,-97.5004,26.929,300.896
2016-12-03 00:00:00,2016-12-03 00:00:00,TMP,surface,-96.5629,26.929,301.58
2016-12-03 00:00:00,2016-12-03 00:00:00,TMP,surface,-95.6254,26.929,302.213
2016-12-03 00:00:00,2016-12-03 00:00:00,TMP,surface,-94.6879,26.929,302.46
2016-12-03 00:00:00,2016-12-03 00:00:00,TMP,surface,-93.7504,26.929,302.432
2016-12-03 00:00:00,2016-12-03 00:00:00,TMP,surface,-92.8129,26.929,302.447
2016-12-03 00:00:00,2016-12-03 00:00:00,TMP,surface,-107.813,27.8739,290.18
2016-12-03 00:00:00,2016-12-03 00:00:00,TMP,surface,-106.875,27.8739,287.919
2016-12-03 00:00:00,2016-12-03 00:00:00,TMP,surface,-105.938,27.8739,290.036
2016-12-03 00:00:00,2016-12-03 00:00:00,TMP,surface,-105,27.8739,294.031
2016-12-03 00:00:00,2016-12-03 00:00:00,TMP,surface,-104.063,27.8739,294.68
2016-12-03 00:00:00,2016-12-03 00:00:00,TMP,surface,-103.125,27.8739,293.303
2016-12-03 00:00:00,2016-12-03 00:00:00,TMP,surface,-102.188,27.8739,293.319
2016-12-03 00:00:00,2016-12-03 00:00:00,TMP,surface,-101.25,27.8739,295.98
2016-12-03 00:00:00,2016-12-03 00:00:00,TMP,surface,-100.313,27.8739,298.224
2016-12-03 00:00:00,2016-12-03 00:00:00,TMP,surface,-99.3754,27.8739,298.264
2016-12-03 00:00:00,2016-12-03 00:00:00,TMP,surface,-98.4379,27.8739,297.49
2016-12-03 00:00:00,2016-12-03 00:00:00,TMP,surface,-97.5004,27.8739,299.312
2016-12-03 00:00:00,2016-12-03 00:00:00,TMP,surface,-96.5629,27.8739,301.621
2016-12-03 00:00:00,2016-12-03 00:00:00,TMP,surface,-95.6254,27.8739,301.892
2016-12-03 00:00:00,2016-12-03 00:00:00,TMP,surface,-94.6879,27.8739,302.048
2016-12-03 00:00:00,2016-12-03 00:00:00,TMP,surface,-93.7504,27.8739,302.172
2016-12-03 00:00:00,2016-12-03 00:00:00,TMP,surface,-92.8129,27.8739,302.232
2016-12-03 00:00:00,2016-12-03 00:00:00,TMP,surface,-107.813,28.8188,289.026
2016-12-03 00:00:00,2016-12-03 00:00:00,TMP,surface,-106.875,28.8188,288.504
2016-12-03 00:00:00,2016-12-03 00:00:00,TMP,surface,-105.938,28.8188,291.576
2016-12-03 00:00:00,2016-12-03 00:00:00,TMP,surface,-105,28.8188,294.6
2016-12-03 00:00:00,2016-12-03 00:00:00,TMP,surface,-104.063,28.8188,293.506
2016-12-03 00:00:00,2016-12-03 00:00:00,TMP,surface,-103.125,28.8188,292.567
2016-12-03 00:00:00,2016-12-03 00:00:00,TMP,surface,-102.188,28.8188,293.61
2016-12-03 00:00:00,2016-12-03 00:00:00,TMP,surface,-101.25,28.8188,296.087
2016-12-03 00:00:00,2016-12-03 00:00:00,TMP,surface,-100.313,28.8188,297.232
2016-12-03 00:00:00,2016-12-03 00:00:00,TMP,surface,-99.3754,28.8188,296.52
2016-12-03 00:00:00,2016-12-03 00:00:00,TMP,surface,-98.4379,28.8188,295.807
2016-12-03 00:00:00,2016-12-03 00:00:00,TMP,surface,-97.5004,28.8188,295.823
2016-12-03 00:00:00,2016-12-03 00:00:00,TMP,surface,-96.5629,28.8188,296.464
2016-12-03 00:00:00,2016-12-03 00:00:00,TMP,surface,-95.6254,28.8188,298.621
2016-12-03 00:00:00,2016-12-03 00:00:00,TMP,surface,-94.6879,28.8188,301.319
2016-12-03 00:00:00,2016-12-03 00:00:00,TMP,surface,-93.7504,28.8188,301.696
2016-12-03 00:00:00,2016-12-03 00:00:00,TMP,surface,-92.8129,28.8188,301.786
2016-12-03 00:00:00,2016-12-03 00:00:00,TMP,surface,-107.813,29.7637,291.314
2016-12-03 00:00:00,2016-12-03 00:00:00,TMP,surface,-106.875,29.7637,291.381
2016-12-03 00:00:00,2016-12-03 00:00:00,TMP,surface,-105.938,29.7637,293.391
2016-12-03 00:00:00,2016-12-03 00:00:00,TMP,surface,-105,29.7637,294.128
2016-12-03 00:00:00,2016-12-03 00:00:00,TMP,surface,-104.063,29.7637,293.378
2016-12-03 00:00:00,2016-12-03 00:00:00,TMP,surface,-103.125,29.7637,293.701
2016-12-03 00:00:00,2016-12-03 00:00:00,TMP,surface,-102.188,29.7637,295.186
2016-12-03 00:00:00,2016-12-03 00:00:00,TMP,surface,-101.25,29.7637,296.084
2016-12-03 00:00:00,2016-12-03 00:00:00,TMP,surface,-100.313,29.7637,295.696
2016-12-03 00:00:00,2016-12-03 00:00:00,TMP,surface,-99.3754,29.7637,294.78
2016-12-03 00:00:00,2016-12-03 00:00:00,TMP,surface,-98.4379,29.7637,294.482
2016-12-03 00:00:00,2016-12-03 00:00:00,TMP,surface,-97.5004,29.7637,294.914
2016-12-03 00:00:00,2016-12-03 00:00:00,TMP,surface,-96.5629,29.7637,295.6
2016-12-03 00:00:00,2016-12-03 00:00:00,TMP,surface,-95.6254,29.7637,296.407
2016-12-03 00:00:00,2016-12-03 00:00:00,TMP,surface,-94.6879,29.7637,298.304
2016-12-03 00:00:00,2016-12-03 00:00:00,TMP,surface,-93.7504,29.7637,300.471
2016-12-03 00:00:00,2016-12-03 00:00:00,TMP,surface,-92.8129,29.7637,298.588
2016-12-03 00:00:00,2016-12-03 00:00:00,TMP,surface,-107.813,30.7085,294.624
2016-12-03 00:00:00,2016-12-03 00:00:00,TMP,surface,-106.875,30.7085,295.012
2016-12-03 00:00:00,2016-12-03 00:00:00,TMP,surface,-105.938,30.7085,294.674
2016-12-03 00:00:00,2016-12-03 00:00:00,TMP,surface,-105,30.7085,293.847
2016-12-03 00:00:00,2016-12-03 00:00:00,TMP,surface,-104.063,30.7085,293.183
2016-12-03 00:00:00,2016-12-03 00:00:00,TMP,surface,-103.125,30.7085,294.596
2016-12-03 00:00:00,2016-12-03 00:00:00,TMP,surface,-102.188,30.7085,295.823
2016-12-03 00:00:00,2016-12-03 00:00:00,TMP,surface,-101.25,30.7085,295.884
2016-12-03 00:00:00,2016-12-03 00:00:00,TMP,surface,-100.313,30.7085,295.274
2016-12-03 00:00:00,2016-12-03 00:00:00,TMP,surface,-99.3754,30.7085,294.796
2016-12-03 00:00:00,2016-12-03 00:00:00,TMP,surface,-98.4379,30.7085,294.856
2016-12-03 00:00:00,2016-12-03 00:00:00,TMP,surface,-97.5004,30.7085,295.295
2016-12-03 00:00:00,2016-12-03 00:00:00,TMP,surface,-96.5629,30.7085,295.831
2016-12-03 00:00:00,2016-12-03 00:00:00,TMP,surface,-95.6254,30.7085,296.348
2016-12-03 00:00:00,2016-12-03 00:00:00,TMP,surface,-94.6879,30.7085,296.844
2016-12-03 00:00:00,2016-12-03 00:00:00,TMP,surface,-93.7504,30.7085,297.277
2016-12-03 00:00:00,2016-12-03 00:00:00,TMP,surface,-92.8129,30.7085,297.359
2016-12-03 00:00:00,2016-12-03 00:00:00,TMP,surface,-107.813,31.6534,295.949
2016-12-03 00:00:00,2016-12-03 00:00:00,TMP,surface,-106.875,31.6534,296.1
2016-12-03 00:00:00,2016-12-03 00:00:00,TMP,surface,-105.938,31.6534,294.648
2016-12-03 00:00:00,2016-12-03 00:00:00,TMP,surface,-105,31.6534,293.719
2016-12-03 00:00:00,2016-12-03 00:00:00,TMP,surface,-104.063,31.6534,293.951
2016-12-03 00:00:00,2016-12-03 00:00:00,TMP,surface,-103.125,31.6534,295.128
2016-12-03 00:00:00,2016-12-03 00:00:00,TMP,surface,-102.188,31.6534,295.784
2016-12-03 00:00:00,2016-12-03 00:00:00,TMP,surface,-101.25,31.6534,295.704
2016-12-03 00:00:00,2016-12-03 00:00:00,TMP,surface,-100.313,31.6534,295.432
2016-12-03 00:00:00,2016-12-03 00:00:00,TMP,surface,-99.3754,31.6534,295.466
2016-12-03 00:00:00,2016-12-03 00:00:00,TMP,surface,-98.4379,31.6534,295.677
2016-12-03 00:00:00,2016-12-03 00:00:00,TMP,surface,-97.5004,31.6534,295.868
2016-12-03 00:00:00,2016-12-03 00:00:00,TMP,surface,-96.5629,31.6534,295.994
2016-12-03 00:00:00,2016-12-03 00:00:00,TMP,surface,-95.6254,31.6534,296.136
2016-12-03 00:00:00,2016-12-03 00:00:00,TMP,surface,-94.6879,31.6534,296.365
2016-12-03 00:00:00,2016-12-03 00:00:00,TMP,surface,-93.7504,31.6534,296.629
2016-12-03 00:00:00,2016-12-03 00:00:00,TMP,surface,-92.8129,31.6534,296.949
2016-12-03 00:00:00,2016-12-03 00:00:00,TMP,surface,-107.813,32.5983,293.068
2016-12-03 00:00:00,2016-12-03 00:00:00,TMP,surface,-106.875,32.5983,293.271
2016-12-03 00:00:00,2016-12-03 00:00:00,TMP,surface,-105.938,32.5983,293.293
2016-12-03 00:00:00,2016-12-03 00:00:00,TMP,surface,-105,32.5983,293.128
2016-12-03 00:00:00,2016-12-03 00:00:00,TMP,surface,-104.063,32.5983,294.258
2016-12-03 00:00:00,2016-12-03 00:00:00,TMP,surface,-103.125,32.5983,295.14
2016-12-03 00:00:00,2016-12-03 00:00:00,TMP,surface,-102.188,32.5983,295.29
2016-12-03 00:00:00,2016-12-03 00:00:00,TMP,surface,-101.25,32.5983,295.474
2016-12-03 00:00:00,2016-12-03 00:00:00,TMP,surface,-100.313,32.5983,295.999
2016-12-03 00:00:00,2016-12-03 00:00:00,TMP,surface,-99.3754,32.5983,296.423
2016-12-03 00:00:00,2016-12-03 00:00:00,TMP,surface,-98.4379,32.5983,296.311
2016-12-03 00:00:00,2016-12-03 00:00:00,TMP,surface,-97.5004,32.5983,295.997
2016-12-03 00:00:00,2016-12-03 00:00:00,TMP,surface,-96.5629,32.5983,295.922
2016-12-03 00:00:00,2016-12-03 00:00:00,TMP,surface,-95.6254,32.5983,296.023
2016-12-03 00:00:00,2016-12-03 00:00:00,TMP,surface,-94.6879,32.5983,296.032
2016-12-03 00:00:00,2016-12-03 00:00:00,TMP,surface,-93.7504,32.5983,296.005
2016-12-03 00:00:00,2016-12-03 00:00:00,TMP,surface,-92.8129,32.5983,296.346
2016-12-03 00:00:00,2016-12-03 00:00:00,TMP,surface,-107.813,33.5432,289.636
2016-12-03 00:00:00,2016-12-03 00:00:00,TMP,surface,-106.875,33.5432,290.797
2016-12-03 00:00:00,2016-12-03 00:00:00,TMP,surface,-105.938,33.5432,291.6
2016-12-03 00:00:00,2016-12-03 00:00:00,TMP,surface,-105,33.5432,292.572
2016-12-03 00:00:00,2016-12-03 00:00:00,TMP,surface,-104.063,33.5432,294.272
2016-12-03 00:00:00,2016-12-03 00:00:00,TMP,surface,-103.125,33.5432,294.674
2016-12-03 00:00:00,2016-12-03 00:00:00,TMP,surface,-102.188,33.5432,294.874
2016-12-03 00:00:00,2016-12-03 00:00:00,TMP,surface,-101.25,33.5432,295.556
2016-12-03 00:00:00,2016-12-03 00:00:00,TMP,surface,-100.313,33.5432,296.336
2016-12-03 00:00:00,2016-12-03 00:00:00,TMP,surface,-99.3754,33.5432,296.788
2016-12-03 00:00:00,2016-12-03 00:00:00,TMP,surface,-98.4379,33.5432,296.559
2016-12-03 00:00:00,2016-12-03 00:00:00,TMP,surface,-97.5004,33.5432,296.08
2016-12-03 00:00:00,2016-12-03 00:00:00,TMP,surface,-96.5629,33.5432,295.879
2016-12-03 00:00:00,2016-12-03 00:00:00,TMP,surface,-95.6254,33.5432,295.808
2016-12-03 00:00:00,2016-12-03 00:00:00,TMP,surface,-94.6879,33.5432,295.549
2016-12-03 00:00:00,2016-12-03 00:00:00,TMP,surface,-93.7504,33.5432,295.253
2016-12-03 00:00:00,2016-12-03 00:00:00,TMP,surface,-92.8129,33.5432,295.25
2016-12-03 00:00:00,2016-12-03 00:00:00,TMP,surface,-107.813,34.4881,288.9
2016-12-03 00:00:00,2016-12-03 00:00:00,TMP,surface,-106.875,34.4881,290.29
2016-12-03 00:00:00,2016-12-03 00:00:00,TMP,surface,-105.938,34.4881,291.12
2016-12-03 00:00:00,2016-12-03 00:00:00,TMP,surface,-105,34.4881,292.317
2016-12-03 00:00:00,2016-12-03 00:00:00,TMP,surface,-104.063,34.4881,293.394
2016-12-03 00:00:00,2016-12-03 00:00:00,TMP,surface,-103.125,34.4881,294.074
2016-12-03 00:00:00,2016-12-03 00:00:00,TMP,surface,-102.188,34.4881,294.655
2016-12-03 00:00:00,2016-12-03 00:00:00,TMP,surface,-101.25,34.4881,295.125
2016-12-03 00:00:00,2016-12-03 00:00:00,TMP,surface,-100.313,34.4881,295.7
2016-12-03 00:00:00,2016-12-03 00:00:00,TMP,surface,-99.3754,34.4881,295.972
2016-12-03 00:00:00,2016-12-03 00:00:00,TMP,surface,-98.4379,34.4881,295.916
2016-12-03 00:00:00,2016-12-03 00:00:00,TMP,surface,-97.5004,34.4881,295.796
2016-12-03 00:00:00,2016-12-03 00:00:00,TMP,surface,-96.5629,34.4881,295.685
2016-12-03 00:00:00,2016-12-03 00:00:00,TMP,surface,-95.6254,34.4881,295.405
2016-12-03 00:00:00,2016-12-03 00:00:00,TMP,surface,-94.6879,34.4881,294.828
2016-12-03 00:00:00,2016-12-03 00:00:00,TMP,surface,-93.7504,34.4881,294.332
2016-12-03 00:00:00,2016-12-03 00:00:00,TMP,surface,-92.8129,34.4881,294.594
2016-12-03 00:00:00,2016-12-03 00:00:00,TMP,surface,-107.813,35.4329,289.752
2016-12-03 00:00:00,2016-12-03 00:00:00,TMP,surface,-106.875,35.4329,289.792
2016-12-03 00:00:00,2016-12-03 00:00:00,TMP,surface,-105.938,35.4329,289.644
2016-12-03 00:00:00,2016-12-03 00:00:00,TMP,surface,-105,35.4329,290.172
2016-12-03 00:00:00,2016-12-03 00:00:00,TMP,surface,-104.063,35.4329,291.984
2016-12-03 00:00:00,2016-12-03 00:00:00,TMP,surface,-103.125,35.4329,293.498
2016-12-03 00:00:00,2016-12-03 00:00:00,TMP,surface,-102.188,35.4329,294.159
2016-12-03 00:00:00,2016-12-03 00:00:00,TMP,surface,-101.25,35.4329,294.66
2016-12-03 00:00:00,2016-12-03 00:00:00,TMP,surface,-100.313,35.4329,294.783
2016-12-03 00:00:00,2016-12-03 00:00:00,TMP,surface,-99.3754,35.4329,295.076
2016-12-03 00:00:00,2016-12-03 00:00:00,TMP,surface,-98.4379,35.4329,295.341
2016-12-03 00:00:00,2016-12-03 00:00:00,TMP,surface,-97.5004,35.4329,295.653
2016-12-03 00:00:00,2016-12-03 00:00:00,TMP,surface,-96.5629,35.4329,295.964
2016-12-03 00:00:00,2016-12-03 00:00:00,TMP,surface,-95.6254,35.4329,295.684
2016-12-03 00:00:00,2016-12-03 00:00:00,TMP,surface,-94.6879,35.4329,294.76
2016-12-03 00:00:00,2016-12-03 00:00:00,TMP,surface,-93.7504,35.4329,293.919
2016-12-03 00:00:00,2016-12-03 00:00:00,TMP,surface,-92.8129,35.4329,293.564
2016-12-03 00:00:00,2016-12-03 00:00:00,TMP,surface,-107.813,36.3778,289.496
2016-12-03 00:00:00,2016-12-03 00:00:00,TMP,surface,-106.875,36.3778,287.165
2016-12-03 00:00:00,2016-12-03 00:00:00,TMP,surface,-105.938,36.3778,287.09
2016-12-03 00:00:00,2016-12-03 00:00:00,TMP,surface,-105,36.3778,287.944
2016-12-03 00:00:00,2016-12-03 00:00:00,TMP,surface,-104.063,36.3778,290.02
2016-12-03 00:00:00,2016-12-03 00:00:00,TMP,surface,-103.125,36.3778,292.053
2016-12-03 00:00:00,2016-12-03 00:00:00,TMP,surface,-102.188,36.3778,293.648
2016-12-03 00:00:00,2016-12-03 00:00:00,TMP,surface,-101.25,36.3778,294.522
2016-12-03 00:00:00,2016-12-03 00:00:00,TMP,surface,-100.313,36.3778,294.802
2016-12-03 00:00:00,2016-12-03 00:00:00,TMP,surface,-99.3754,36.3778,294.938
2016-12-03 00:00:00,2016-12-03 00:00:00,TMP,surface,-98.4379,36.3778,295.063
2016-12-03 00:00:00,2016-12-03 00:00:00,TMP,surface,-97.5004,36.3778,295.183
2016-12-03 00:00:00,2016-12-03 00:00:00,TMP,surface,-96.5629,36.3778,295.317
2016-12-03 00:00:00,2016-12-03 00:00:00,TMP,surface,-95.6254,36.3778,294.988
2016-12-03 00:00:00,2016-12-03 00:00:00,TMP,surface,-94.6879,36.3778,293.922
2016-12-03 00:00:00,2016-12-03 00:00:00,TMP,surface,-93.7504,36.3778,292.92
2016-12-03 00:00:00,2016-12-03 00:00:00,TMP,surface,-92.8129,36.3778,292.399
2016-12-03 00:00:00,2016-12-03 00:00:00,PRATE,surface,-107.813,25.0393,4.5e-05
2016-12-03 00:00:00,2016-12-03 00:00:00,PRATE,surface,-106.875,25.0393,0.0001376
2016-12-03 00:00:00,2016-12-03 00:00:00,PRATE,surface,-105.938,25.0393,0.0001594
2016-12-03 00:00:00,2016-12-03 00:00:00,PRATE,surface,-105,25.0393,0.0001111
2016-12-03 00:00:00,2016-12-03 00:00:00,PRATE,surface,-104.063,25.0393,7.18e-05
2016-12-03 00:00:00,2016-12-03 00:00:00,PRATE,surface,-103.125,25.0393,2.15e-05
2016-12-03 00:00:00,2016-12-03 00:00:00,PRATE,surface,-102.188,25.0393,1.5e-05
2016-12-03 00:00:00,2016-12-03 00:00:00,PRATE,surface,-101.25,25.0393,4.19e-05
2016-12-03 00:00:00,2016-12-03 00:00:00,PRATE,surface,-100.313,25.0393,9.41e-05
2016-12-03 00:00:00,2016-12-03 00:00:00,PRATE,surface,-99.3754,25.0393,6.71e-05
2016-12-03 00:00:00,2016-12-03 00:00:00,PRATE,surface,-98.4379,25.0393,5e-05
2016-12-03 00:00:00,2016-12-03 00:00:00,PRATE,surface,-97.5004,25.0393,7.17e-05
2016-12-03 00:00:00,2016-12-03 00:00:00,PRATE,surface,-96.5629,25.0393,9.74e-05
2016-12-03 00:00:00,2016-12-03 00:00:00,PRATE,surface,-95.6254,25.0393,6.54e-05
2016-12-03 00:00:00,2016-12-03 00:00:00,PRATE,surface,-94.6879,25.0393,5.65e-05
2016-12-03 00:00:00,2016-12-03 00:00:00,PRATE,surface,-93.7504,25.0393,7.64e-05
2016-12-03 00:00:00,2016-12-03 00:00:00,PRATE,surface,-92.8129,25.0393,7.96e-05
2016-12-03 00:00:00,2016-12-03 00:00:00,PRATE,surface,-107.813,25.9842,8.5e-05
2016-12-03 00:00:00,2016-12-03 00:00:00,PRATE,surface,-106.875,25.9842,0.0001607
2016-12-03 00:00:00,2016-12-03 00:00:00,PRATE,surface,-105.938,25.9842,0.0001322
2016-12-03 00:00:00,2016-12-03 00:00:00,PRATE,surface,-105,25.9842,0.0001046
2016-12-03 00:00:00,2016-12-03 00:00:00,PRATE,surface,-104.063,25.9842,3.89e-05
2016-12-03 00:00:00,2016-12-03 00:00:00,PRATE,surface,-103.125,25.9842,1.29e-05
2016-12-03 00:00:00,2016-12-03 00:00:00,PRATE,surface,-102.188,25.9842,1.62e-05
2016-12-03 00:00:00,2016-12-03 00:00:00,PRATE,surface,-101.25,25.9842,4.26e-05
2016-12-03 00:00:00,2016-12-03 00:00:00,PRATE,surface,-100.313,25.9842,8.96e-05
2016-12-03 00:00:00,2016-12-03 00:00:00,PRATE,surface,-99.3754,25.9842,5.45e-05
2016-12-03 00:00:00,2016-12-03 00:00:00,PRATE,surface,-98.4379,25.9842,5.98e-05
2016-12-03 00:00:00,2016-12-03 00:00:00,PRATE,surface,-97.5004,25.9842,7.54e-05
2016-12-03 00:00:00,2016-12-03 00:00:00,PRATE,surface,-96.5629,25.9842,0.0001435
2016-12-03 00:00:00,2016-12-03 00:00:00,PRATE,surface,-95.6254,25.9842,0.0001248
2016-12-03 00:00:00,2016-12-03 00:00:00,PRATE,surface,-94.6879,25.9842,8.47e-05
2016-12-03 00:00:00,2016-12-03 00:00:00,PRATE,surface,-93.7504,25.9842,7.23e-05
2016-12-03 00:00:00,2016-12-03 00:00:00,PRATE,surface,-92.8129,25.9842,5.08e-05
2016-12-03 00:00:00,2016-12-03 00:00:00,PRATE,surface,-107.813,26.929,0.0001038
2016-12-03 00:00:00,2016-12-03 00:00:00,PRATE,surface,-106.875,26.929,0.0001148
2016-12-03 00:00:00,2016-12-03 00:00:00,PRATE,surface,-105.938,26.929,0.0001006
2016-12-03 00:00:00,2016-12-03 00:00:00,PRATE,surface,-105,26.929,6.91e-05
2016-12-03 00:00:00,2016-12-03 00:00:00,PRATE,surface,-104.063,26.929,2.84e-05
2016-12-03 00:00:00,2016-12-03 00:00:00,PRATE,surface,-103.125,26.929,3.08e-05
2016-12-03 00:00:00,2016-12-03 00:00:00,PRATE,surface,-102.188,26.929,3.83e-05
2016-12-03 00:00:00,2016-12-03 00:00:00,PRATE,surface,-101.25,26.929,5.36e-05
2016-12-03 00:00:00,2016-12-03 00:00:00,PRATE,surface,-100.313,26.929,5.12e-05
2016-12-03 00:00:00,2016-12-03 00:00:00,PRATE,surface,-99.3754,26.929,5.1e-05
2016-12-03 00:00:00,2016-12-03 00:00:00,PRATE,surface,-98.4379,26.929,7.18e-05
2016-12-03 00:00:00,2016-12-03 00:00:00,PRATE,surface,-97.5004,26.929,0.0001291
2016-12-03 00:00:00,2016-12-03 00:00:00,PRATE,surface,-96.5629,26.929,0.0001787
2016-12-03 00:00:00,2016-12-03 00:00:00,PRATE,surface,-95.6254,26.929,0.0001298
2016-12-03 00:00:00,2016-12-03 00:00:00,PRATE,surface,-94.6879,26.929,9.48e-05
2016-12-03 00:00:00,2016-12-03 00:00:00,PRATE,surface,-93.7504,26.929,4.94e-05
2016-12-03 00:00:00,2016-12-03 00:00:00,PRATE,surface,-92.8129,26.929,3.85e-05
2016-12-03 00:00:00,2016-12-03 00:00:00,PRATE,surface,-107.813,27.8739,9.25e-05
2016-12-03 00:00:00,2016-12-03 00:00:00,PRATE,surface,-106.875,27.8739,9.48e-05
2016-12-03 00:00:00,2016-12-03 00:00:00,PRATE,surface,-105.938,27.8739,6.6e-05
2016-12-03 00:00:00,2016-12-03 00:00:00,PRATE,surface,-105,27.8739,2.36e-05
2016-12-03 00:00:00,2016-12-03 00:00:00,PRATE,surface,-104.063,27.8739,4.31e-05
2016-12-03 00:00:00,2016-12-03 00:00:00,PRATE,surface,-103.125,27.8739,6.35e-05
2016-12-03 00:00:00,2016-12-03 00:00:00,PRATE,surface,-102.188,27.8739,5.9e-05
2016-12-03 00:00:00,2016-12-03 00:00:00,PRATE,surface,-101.25,27.8739,3.27e-05
2016-12-03 00:00:00,2016-12-03 00:00:00,PRATE,surface,-100.313,27.8739,2.66e-05
2016-12-03 00:00:00,2016-12-03 00:00:00,PRATE,surface,-99.3754,27.8739,5.49e-05
2016-12-03 00:00:00,2016-12-03 00:00:00,PRATE,surface,-98.4379,27.8739,9.15e-05
2016-12-03 00:00:00,2016-12-03 00:00:00,PRATE,surface,-97.5004,27.8739,0.0001186
2016-12-03 00:00:00,2016-12-03 00:00:00,PRATE,surface,-96.5629,27.8739,0.0001115
2016-12-03 00:00:00,2016-12-03 00:00:00,PRATE,surface,-95.6254,27.8739,8.99e-05
2016-12-03 00:00:00,2016-12-03 00:00:00,PRATE,surface,-94.6879,27.8739,8.87e-05
2016-12-03 00:00:00,2016-12-03 00:00:00,PRATE,surface,-93.7504,27.8739,7.38e-05
2016-12-03 00:00:00,2016-12-03 00:00:00,PRATE,surface,-92.8129,27.8739,5.74e-05
2016-12-03 00:00:00,2016-12-03 00:00:00,PRATE,surface,-107.813,28.8188,7.06e-05
2016-12-03 00:00:00,2016-12-03 00:00:00,PRATE,surface,-106.875,28.8188,6.84e-05
2016-12-03 00:00:00,2016-12-03 00:00:00,PRATE,surface,-105.938,28.8188,4.63e-05
2016-12-03 00:00:00,2016-12-03 00:00:00,PRATE,surface,-105,28.8188,1.83e-05
2016-12-03 00:00:00,2016-12-03 00:00:00,PRATE,surface,-104.063,28.8188,4.38e-05
2016-12-03 00:00:00,2016-12-03 00:00:00,PRATE,surface,-103.125,28.8188,5.22e-05
2016-12-03 00:00:00,2016-12-03 00:00:00,PRATE,surface,-102.188,28.8188,3.98e-05
2016-12-03 00:00:00,2016-12-03 00:00:00,PRATE,surface,-101.25,28.8188,3.21e-05
2016-12-03 00:00:00,2016-12-03 00:00:00,PRATE,surface,-100.313,28.8188,4.18e-05
2016-12-03 00:00:00,2016-12-03 00:00:00,PRATE,surface,-99.3754,28.8188,6.34e-05
2016-12-03 00:00:00,2016-12-03 00:00:00,PRATE,surface,-98.4379,28.8188,9.1e-05
2016-12-03 00:00:00,2016-12-03 00:00:00,PRATE,surface,-97.5004,28.8188,9.73e-05
2016-12-03 00:00:00,2016-12-03 00:00:00,PRATE,surface,-96.5629,28.8188,8.37e-05
2016-12-03 00:00:00,2016-12-03 00:00:00,PRATE,surface,-95.6254,28.8188,7.54e-05
2016-12-03 00:00:00,2016-12-03 00:00:00,PRATE,surface,-94.6879,28.8188,7.27e-05
2016-12-03 00:00:00,2016-12-03 00:00:00,PRATE,surface,-93.7504,28.8188,6.61e-05
2016-12-03 00:00:00,2016-12-03 00:00:00,PRATE,surface,-92.8129,28.8188,5.59e-05
2016-12-03 00:00:00,2016-12-03 00:00:00,PRATE,surface,-107.813,29.7637,3.15e-05
2016-12-03 00:00:00,2016-12-03 00:00:00,PRATE,surface,-106.875,29.7637,3.78e-05
2016-12-03 00:00:00,2016-12-03 00:00:00,PRATE,surface,-105.938,29.7637,2.93e-05
2016-12-03 00:00:00,2016-12-03 00:00:00,PRATE,surface,-105,29.7637,2.25e-05
2016-12-03 00:00:00,2016-12-03 00:00:00,PRATE,surface,-104.063,29.7637,3.83e-05
2016-12-03 00:00:00,2016-12-03 00:00:00,PRATE,surface,-103.125,29.7637,3.34e-05
2016-12-03 00:00:00,2016-12-03 00:00:00,PRATE,surface,-102.188,29.7637,2.88e-05
2016-12-03 00:00:00,2016-12-03 00:00:00,PRATE,surface,-101.25,29.7637,3.3e-05
2016-12-03 00:00:00,2016-12-03 00:00:00,PRATE,surface,-100.313,29.7637,3.88e-05
2016-12-03 00:00:00,2016-12-03 00:00:00,PRATE,surface,-99.3754,29.7637,4.69e-05
2016-12-03 00:00:00,2016-12-03 00:00:00,PRATE,surface,-98.4379,29.7637,6.01e-05
2016-12-03 00:00:00,2016-12-03 00:00:00,PRATE,surface,-97.5004,29.7637,6.31e-05
2016-12-03 00:00:00,2016-12-03 00:00:00,PRATE,surface,-96.5629,29.7637,6.02e-05
2016-12-03 00:00:00,2016-12-03 00:00:00,PRATE,surface,-95.6254,29.7637,6.13e-05
2016-12-03 00:00:00,2016-12-03 00:00:00,PRATE,surface,-94.6879,29.7637,6e-05
2016-12-03 00:00:00,2016-12-03 00:00:00,PRATE,surface,-93.7504,29.7637,5.96e-05
2016-12-03 00:00:00,2016-12-03 00:00:00,PRATE,surface,-92.8129,29.7637,5.4e-05
2016-12-03 00:00:00,2016-12-03 00:00:00,PRATE,surface,-107.813,30.7085,1.02e-05
2016-12-03 00:00:00,2016-12-03 00:00:00,PRATE,surface,-106.875,30.7085,1.59e-05
2016-12-03 00:00:00,2016-12-03 00:00:00,PRATE,surface,-105.938,30.7085,1.78e-05
2016-12-03 00:00:00,2016-12-03 00:00:00,PRATE,surface,-105,30.7085,2.21e-05
2016-12-03 00:00:00,2016-12-03 00:00:00,PRATE,surface,-104.063,30.7085,2.5e-05
2016-12-03 00:00:00,2016-12-03 00:00:00,PRATE,surface,-103.125,30.7085,1.51e-05
2016-12-03 00:00:00,2016-12-03 00:00:00,PRATE,surface,-102.188,30.7085,1.5e-05
2016-12-03 00:00:00,2016-12-03 00:00:00,PRATE,surface,-101.25,30.7085,2.03e-05
2016-12-03 00:00:00,2016-12-03 00:00:00,PRATE,surface,-100.313,30.7085,2.48e-05
2016-12-03 00:00:00,2016-12-03 00:00:00,PRATE,surface,-99.3754,30.7085,2.69e-05
2016-12-03 00:00:00,2016-12-03 00:00:00,PRATE,surface,-98.4379,30.7085,2.86e-05
2016-12-03 00:00:00,2016-12-03 00:00:00,PRATE,surface,-97.5004,30.7085,2.71e-05
2016-12-03 00:00:00,2016-12-03 00:00:00,PRATE,surface,-96.5629,30.7085,2.73e-05
2016-12-03 00:00:00,2016-12-03 00:00:00,PRATE,surface,-95.6254,30.7085,2.98e-05
2016-12-03 00:00:00,2016-12-03 00:00:00,PRATE,surface,-94.6879,30.7085,3.02e-05
2016-12-03 00:00:00,2016-12-03 00:00:00,PRATE,surface,-93.7504,30.7085,3.53e-05
2016-12-03 00:00:00,2016-12-03 00:00:00,PRATE,surface,-92.8129,30.7085,3.74e-05
2016-12-03 00:00:00,2016-12-03 00:00:00,PRATE,surface,-107.813,31.6534,6.3e-06
2016-12-03 00:00:00,2016-12-03 00:00:00,PRATE,surface,-106.875,31.6534,8.8e-06
2016-12-03 00:00:00,2016-12-03 00:00:00,PRATE,surface,-105.938,31.6534,1.8e-05
2016-12-03 00:00:00,2016-12-03 00:00:00,PRATE,surface,-105,31.6534,1.81e-05
2016-12-03 00:00:00,2016-12-03 00:00:00,PRATE,surface,-104.063,31.6534,2.35e-05
2016-12-03 00:00:00,2016-12-03 00:00:00,PRATE,surface,-103.125,31.6534,1.49e-05
2016-12-03 00:00:00,2016-12-03 00:00:00,PRATE,surface,-102.188,31.6534,1.14e-05
2016-12-03 00:00:00,2016-12-03 00:00:00,PRATE,surface,-101.25,31.6534,1.67e-05
2016-12-03 00:00:00,2016-12-03 00:00:00,PRATE,surface,-100.313,31.6534,2.3e-05
2016-12-03 00:00:00,2016-12-03 00:00:00,PRATE,surface,-99.3754,31.6534,2.74e-05
2016-12-03 00:00:00,2016-12-03 00:00:00,PRATE,surface,-98.4379,31.6534,2.64e-05
2016-12-03 00:00:00,2016-12-03 00:00:00,PRATE,surface,-97.5004,31.6534,2.5e-05
2016-12-03 00:00:00,2016-12-03 00:00:00,PRATE,surface,-96.5629,31.6534,2.38e-05
2016-12-03 00:00:00,2016-12-03 00:00:00,PRATE,surface,-95.6254,31.6534,2.05e-05
2016-12-03 00:00:00,2016-12-03 00:00:00,PRATE,surface,-94.6879,31.6534,1.8e-05
2016-12-03 00:00:00,2016-12-03 00:00:00,PRATE,surface,-93.7504,31.6534,1.78e-05
2016-12-03 00:00:00,2016-12-03 00:00:00,PRATE,surface,-92.8129,31.6534,1.98e-05
2016-12-03 00:00:00,2016-12-03 00:00:00,PRATE,surface,-107.813,32.5983,1.31e-05
2016-12-03 00:00:00,2016-12-03 00:00:00,PRATE,surface,-106.875,32.5983,1.53e-05
2016-12-03 00:00:00,2016-12-03 00:00:00,PRATE,surface,-105.938,32.5983,1.9e-05
2016-12-03 00:00:00,2016-12-03 00:00:00,PRATE,surface,-105,32.5983,1.82e-05
2016-12-03 00:00:00,2016-12-03 00:00:00,PRATE,surface,-104.063,32.5983,1.93e-05
2016-12-03 00:00:00,2016-12-03 00:00:00,PRATE,surface,-103.125,32.5983,1.63e-05
2016-12-03 00:00:00,2016-12-03 00:00:00,PRATE,surface,-102.188,32.5983,1.24e-05
2016-12-03 00:00:00,2016-12-03 00:00:00,PRATE,surface,-101.25,32.5983,1.63e-05
2016-12-03 00:00:00,2016-12-03 00:00:00,PRATE,surface,-100.313,32.5983,1.9e-05
2016-12-03 00:00:00,2016-12-03 00:00:00,PRATE,surface,-99.3754,32.5983,2.32e-05
2016-12-03 00:00:00,2016-12-03 00:00:00,PRATE,surface,-98.4379,32.5983,3.35e-05
2016-12-03 00:00:00,2016-12-03 00:00:00,PRATE,surface,-97.5004,32.5983,4.18e-05
2016-12-03 00:00:00,2016-12-03 00:00:00,PRATE,surface,-96.5629,32.5983,4.02e-05
2016-12-03 00:00:00,2016-12-03 00:00:00,PRATE,surface,-95.6254,32.5983,2.94e-05
2016-12-03 00:00:00,2016-12-03 00:00:00,PRATE,surface,-94.6879,32.5983,1.77e-05
2016-12-03 00:00:00,2016-12-03 00:00:00,PRATE,surface,-93.7504,32.5983,1.43e-05
2016-12-03 00:00:00,2016-12-03 00:00:00,PRATE,surface,-92.8129,32.5983,1.29e-05
2016-12-03 00:00:00,2016-12-03 00:00:00,PRATE,surface,-107.813,33.5432,2.31e-05
2016-12-03 00:00:00,2016-12-03 00:00:00,PRATE,surface,-106.875,33.5432,2.2e-05
2016-12-03 00:00:00,2016-12-03 00:00:00,PRATE,surface,-105.938,33.5432,2.07e-05
2016-12-03 00:00:00,2016-12-03 00:00:00,PRATE,surface,-105,33.5432,1.79e-05
2016-12-03 00:00:00,2016-12-03 00:00:00,PRATE,surface,-104.063,33.5432,1.73e-05
2016-12-03 00:00:00,2016-12-03 00:00:00,PRATE,surface,-103.125,33.5432,1.73e-05
2016-12-03 00:00:00,2016-12-03 00:00:00,PRATE,surface,-102.188,33.5432,1.37e-05
2016-12-03 00:00:00,2016-12-03 00:00:00,PRATE,surface,-101.25,33.5432,1.58e-05
2016-12-03 00:00:00,2016-12-03 00:00:00,PRATE,surface,-100.313,33.5432,1.5e-05
2016-12-03 00:00:00,2016-12-03 00:00:00,PRATE,surface,-99.3754,33.5432,1.84e-05
2016-12-03 00:00:00,2016-12-03 00:00:00,PRATE,surface,-98.4379,33.5432,2.79e-05
2016-12-03 00:00:00,2016-12-03 00:00:00,PRATE,surface,-97.5004,33.5432,3.52e-05
2016-12-03 00:00:00,2016-12-03 00:00:00,PRATE,surface,-96.5629,33.5432,3.64e-05
2016-12-03 00:00:00,2016-12-03 00:00:00,PRATE,surface,-95.6254,33.5432,3.22e-05
2016-12-03 00:00:00,2016-12-03 00:00:00,PRATE,surface,-94.6879,33.5432,2.5e-05
2016-12-03 00:00:00,2016-12-03 00:00:00,PRATE,surface,-93.7504,33.5432,1.98e-05
2016-12-03 00:00:00,2016-12-03 00:00:00,PRATE,surface,-92.8129,33.5432,1.59e-05
2016-12-03 00:00:00,2016-12-03 00:00:00,PRATE,surface,-107.813,34.4881,2.63e-05
2016-12-03 00:00:00,2016-12-03 00:00:00,PRATE,surface,-106.875,34.4881,1.83e-05
2016-12-03 00:00:00,2016-12-03 00:00:00,PRATE,surface,-105.938,34.4881,1.43e-05
2016-12-03 00:00:00,2016-12-03 00:00:00,PRATE,surface,-105,34.4881,1.45e-05
2016-12-03 00:00:00,2016-12-03 00:00:00,PRATE,surface,-104.063,34.4881,1.82e-05
2016-12-03 00:00:00,2016-12-03 00:00:00,PRATE,surface,-103.125,34.4881,1.94e-05
2016-12-03 00:00:00,2016-12-03 00:00:00,PRATE,surface,-102.188,34.4881,2e-05
2016-12-03 00:00:00,2016-12-03 00:00:00,PRATE,surface,-101.25,34.4881,2.66e-05
2016-12-03 00:00:00,2016-12-03 00:00:00,PRATE,surface,-100.313,34.4881,2.18e-05
2016-12-03 00:00:00,2016-12-03 00:00:00,PRATE,surface,-99.3754,34.4881,2.03e-05
2016-12-03 00:00:00,2016-12-03 00:00:00,PRATE,surface,-98.4379,34.4881,2.45e-05
2016-12-03 00:00:00,2016-12-03 00:00:00,PRATE,surface,-97.5004,34.4881,2.61e-05
2016-12-03 00:00:00,2016-12-03 00:00:00,PRATE,surface,-96.5629,34.4881,2.61e-05
2016-12-03 00:00:00,2016-12-03 00:00:00,PRATE,surface,-95.6254,34.4881,2.86e-05
2016-12-03 00:00:00,2016-12-03 00:00:00,PRATE,surface,-94.6879,34.4881,3.04e-05
2016-12-03 00:00:00,2016-12-03 00:00:00,PRATE,surface,-93.7504,34.4881,2.83e-05
2016-12-03 00:00:00,2016-12-03 00:00:00,PRATE,surface,-92.8129,34.4881,2.39e-05
2016-12-03 00:00:00,2016-12-03 00:00:00,PRATE,surface,-107.813,35.4329,2e-05
2016-12-03 00:00:00,2016-12-03 00:00:00,PRATE,surface,-106.875,35.4329,1.43e-05
2016-12-03 00:00:00,2016-12-03 00:00:00,PRATE,surface,-105.938,35.4329,1.27e-05
2016-12-03 00:00:00,2016-12-03 00:00:00,PRATE,surface,-105,35.4329,1.88e-05
2016-12-03 00:00:00,2016-12-03 00:00:00,PRATE,surface,-104.063,35.4329,2.71e-05
2016-12-03 00:00:00,2016-12-03 00:00:00,PRATE,surface,-103.125,35.4329,2.62e-05
2016-12-03 00:00:00,2016-12-03 00:00:00,PRATE,surface,-102.188,35.4329,3.15e-05
2016-12-03 00:00:00,2016-12-03 00:00:00,PRATE,surface,-101.25,35.4329,3.55e-05
2016-12-03 00:00:00,2016-12-03 00:00:00,PRATE,surface,-100.313,35.4329,3.29e-05
2016-12-03 00:00:00,2016-12-03 00:00:00,PRATE,surface,-99.3754,35.4329,2.52e-05
2016-12-03 00:00:00,2016-12-03 00:00:00,PRATE,surface,-98.4379,35.4329,1.87e-05
2016-12-03 00:00:00,2016-12-03 00:00:00,PRATE,surface,-97.5004,35.4329,1.56e-05
2016-12-03 00:00:00,2016-12-03 00:00:00,PRATE,surface,-96.5629,35.4329,1.46e-05
2016-12-03 00:00:00,2016-12-03 00:00:00,PRATE,surface,-95.6254,35.4329,1.7e-05
2016-12-03 00:00:00,2016-12-03 00:00:00,PRATE,surface,-94.6879,35.4329,2.47e-05
2016-12-03 00:00:00,2016-12-03 00:00:00,PRATE,surface,-93.7504,35.4329,3.23e-05
2016-12-03 00:00:00,2016-12-03 00:00:00,PRATE,surface,-92.8129,35.4329,3.07e-05
2016-12-03 00:00:00,2016-12-03 00:00:00,PRATE,surface,-107.813,36.3778,1.93e-05
2016-12-03 00:00:00,2016-12-03 00:00:00,PRATE,surface,-106.875,36.3778,2.32e-05
2016-12-03 00:00:00,2016-12-03 00:00:00,PRATE,surface,-105.938,36.3778,2.55e-05
2016-12-03 00:00:00,2016-12-03 00:00:00,PRATE,surface,-105,36.3778,3.15e-05
2016-12-03 00:00:00,2016-12-03 00:00:00,PRATE,surface,-104.063,36.3778,3.44e-05
2016-12-03 00:00:00,2016-12-03 00:00:00,PRATE,surface,-103.125,36.3778,3.25e-05
2016-12-03 00:00:00,2016-12-03 00:00:00,PRATE,surface,-102.188,36.3778,3.18e-05
2016-12-03 00:00:00,2016-12-03 00:00:00,PRATE,surface,-101.25,36.3778,3.14e-05
2016-12-03 00:00:00,2016-12-03 00:00:00,PRATE,surface,-100.313,36.3778,3.14e-05
2016-12-03 00:00:00,2016-12-03 00:00:00,PRATE,surface,-99.3754,36.3778,2.59e-05
2016-12-03 00:00:00,2016-12-03 00:00:00,PRATE,surface,-98.4379,36.3778,2e-05
2016-12-03 00:00:00,2016-12-03 00:00:00,PRATE,surface,-97.5004,36.3778,1.55e-05
2016-12-03 00:00:00,2016-12-03 00:00:00,PRATE,surface,-96.5629,36.3778,1.18e-05
2016-12-03 00:00:00,2016-12-03 00:00:00,PRATE,surface,-95.6254,36.3778,1.32e-05
2016-12-03 00:00:00,2016-12-03 00:00:00,PRATE,surface,-94.6879,36.3778,2e-05
2016-12-03 00:00:00,2016-12-03 00:00:00,PRATE,surface,-93.7504,36.3778,2.73e-05
2016-12-03 00:00:00,2016-12-03 00:00:00,PRATE,surface,-92.8129,36.3778,3.37e-05
