2013-01-08 00:00:00,2013-01-08 00:00:00,TMP,surface,-107.813,25.0393,299.798
2013-01-08 00:00:00,2013-01-08 00:00:00,TMP,surface,-106.875,25.0393,292.694
2013-01-08 00:00:00,2013-01-08 00:00:00,TMP,surface,-105.938,25.0393,288.03
2013-01-08 00:00:00,2013-01-08 00:00:00,TMP,surface,-105,25.0393,286.365
2013-01-08 00:00:00,2013-01-08 00:00:00,TMP,surface,-104.063,25.0393,290.753
2013-01-08 00:00:00,2013-01-08 00:00:00,TMP,surface,-103.125,25.0393,293.496
2013-01-08 00:00:00,2013-01-08 00:00:00,TMP,surface,-102.188,25.0393,292.843
2013-01-08 00:00:00,2013-01-08 00:00:00,TMP,surface,-101.25,25.0393,290.363
2013-01-08 00:00:00,2013-01-08 00:00:00,TMP,surface,-100.313,25.0393,290.678
2013-01-08 00:00:00,2013-01-08 00:00:00,TMP,surface,-99.3754,25.0393,294.56
2013-01-08 00:00:00,2013-01-08 00:00:00,TMP,surface,-98.4379,25.0393,298.209
2013-01-08 00:00:00,2013-01-08 00:00:00,TMP,surface,-97.5004,25.0393,301.064
2013-01-08 00:00:00,2013-01-08 00:00:00,TMP,surface,-96.5629,25.0393,301.361
2013-01-08 00:00:00,2013-01-08 00:00:00,TMP,surface,-95.6254,25.0393,301.438
2013-01-08 00:00:00,2013-01-08 00:00:00,TMP,surface,-94.6879,25.0393,301.384
2013-01-08 00:00:00,2013-01-08 00:00:00,TMP,surface,-93.7504,25.0393,301.15
2013-01-08 00:00:00,2013-01-08 00:00:00,TMP,surface,-92.8129,25.0393,300.953
2013-01-08 00:00:00,2013-01-08 00:00:00,TMP,surface,-107.813,25.9842,294.032
2013-01-08 00:00:00,2013-01-08 00:00:00,TMP,surface,-106.875,25.9842,288.629
2013-01-08 00:00:00,2013-01-08 00:00:00,TMP,surface,-105.938,25.9842,286.421
2013-01-08 00:00:00,2013-01-08 00:00:00,TMP,surface,-105,25.9842,288.593
2013-01-08 00:00:00,2013-01-08 00:00:00,TMP,surface,-104.063,25.9842,293.321
2013-01-08 00:00:00,2013-01-08 00:00:00,TMP,surface,-103.125,25.9842,295.321
2013-01-08 00:00:00,2013-01-08 00:00:00,TMP,surface,-102.188,25.9842,294.158
2013-01-08 00:00:00,2013-01-08 00:00:00,TMP,surface,-101.25,25.9842,292.708
2013-01-08 00:00:00,2013-01-08 00:00:00,TMP,surface,-100.313,25.9842,293.294
2013-01-08 00:00:00,2013-01-08 00:00:00,TMP,surface,-99.3754,25.9842,296.958
2013-01-08 00:00:00,2013-01-08 00:00:00,TMP,surface,-98.4379,25.9842,298.948
2013-01-08 00:00:00,2013-01-08 00:00:00,TMP,surface,-97.5004,25.9842,299.251
2013-01-08 00:00:00,2013-01-08 00:00:00,TMP,surface,-96.5629,25.9842,300.771
2013-01-08 00:00:00,2013-01-08 00:00:00,TMP,surface,-95.6254,25.9842,301.08
2013-01-08 00:00:00,2013-01-08 00:00:00,TMP,surface,-94.6879,25.9842,301.062
2013-01-08 00:00:00,2013-01-08 00:00:00,TMP,surface,-93.7504,25.9842,300.958
2013-01-08 00:00:00,2013-01-08 00:00:00,TMP,surface,-92.8129,25.9842,300.912
2013-01-08 00:00:00,2013-01-08 00:00:00,TMP,surface,-107.813,26.929,289.016
2013-01-08 00:00:00,2013-01-08 00:00:00,TMP,surface,-106.875,26.929,285.625
2013-01-08 00:00:00,2013-01-08 00:00:00,TMP,surface,-105.938,26.929,287.851
2013-01-08 00:00:00,2013-01-08 00:00:00,TMP,surface,-105,26.929,291.419
2013-01-08 00:00:00,2013-01-08 00:00:00,TMP,surface,-104.063,26.929,293.637
2013-01-08 00:00:00,2013-01-08 00:00:00,TMP,surface,-103.125,26.929,293.393
2013-01-08 00:00:00,2013-01-08 00:00:00,TMP,surface,-102.188,26.929,292.899
2013-01-08 00:00:00,2013-01-08 00:00:00,TMP,surface,-101.25,26.929,293.789
2013-01-08 00:00:00,2013-01-08 00:00:00,TMP,surface,-100.313,26.929,295.868
2013-01-08 00:00:00,2013-01-08 00:00:00,TMP,surface,-99.3754,26.929,297.881
2013-01-08 00:00:00,2013-01-08 00:00:00,TMP,surface,-98.4379,26.929,298.056
2013-01-08 00:00:00,2013-01-08 00:00:00,TMP,surface,-97.5004,26.929,299.484
2013-01-08 00:00:00,2013-01-08 00:00:00,TMP,surface,-96.5629,26.929,300.136
2013-01-08 00:00:00,2013-01-08 00:00:00,TMP,surface,-95.6254,26.929,300.854
2013-01-08 00:00:00,2013-01-08 00:00:00,TMP,surface,-94.6879,26.929,300.965
2013-01-08 00:00:00,2013-01-08 00:00:00,TMP,surface,-93.7504,26.929,300.803
2013-01-08 00:00:00,2013-01-08 00:00:00,TMP,surface,-92.8129,26.929,300.699
2013-01-08 00:00:00,2013-01-08 00:00:00,TMP,surface,-107.813,27.8739,286.448
2013-01-08 00:00:00,2013-01-08 00:00:00,TMP,surface,-106.875,27.8739,285.172
2013-01-08 00:00:00,2013-01-08 00:00:00,TMP,surface,-105.938,27.8739,288.923
2013-01-08 00:00:00,2013-01-08 00:00:00,TMP,surface,-105,27.8739,292.19
2013-01-08 00:00:00,2013-01-08 00:00:00,TMP,surface,-104.063,27.8739,292.68
2013-01-08 00:00:00,2013-01-08 00:00:00,TMP,surface,-103.125,27.8739,291.627
2013-01-08 00:00:00,2013-01-08 00:00:00,TMP,surface,-102.188,27.8739,291.659
2013-01-08 00:00:00,2013-01-08 00:00:00,TMP,surface,-101.25,27.8739,293.816
2013-01-08 00:00:00,2013-01-08 00:00:00,TMP,surface,-100.313,27.8739,295.947
2013-01-08 00:00:00,2013-01-08 00:00:00,TMP,surface,-99.3754,27.8739,296.745
2013-01-08 00:00:00,2013-01-08 00:00:00,TMP,surface,-98.4379,27.8739,296.819
2013-01-08 00:00:00,2013-01-08 00:00:00,TMP,surface,-97.5004,27.8739,298.233
2013-01-08 00:00:00,2013-01-08 00:00:00,TMP,surface,-96.5629,27.8739,299.915
2013-01-08 00:00:00,2013-01-08 00:00:00,TMP,surface,-95.6254,27.8739,300.324
2013-01-08 00:00:00,2013-01-08 00:00:00,TMP,surface,-94.6879,27.8739,300.444
2013-01-08 00:00:00,2013-01-08 00:00:00,TMP,surface,-93.7504,27.8739,300.332
2013-01-08 00:00:00,2013-01-08 00:00:00,TMP,surface,-92.8129,27.8739,300.11
2013-01-08 00:00:00,2013-01-08 00:00:00,TMP,surface,-107.813,28.8188,284.731
2013-01-08 00:00:00,2013-01-08 00:00:00,TMP,surface,-106.875,28.8188,285.635
2013-01-08 00:00:00,2013-01-08 00:00:00,TMP,surface,-105.938,28.8188,289.736
2013-01-08 00:00:00,2013-01-08 00:00:00,TMP,surface,-105,28.8188,291.963
2013-01-08 00:00:00,2013-01-08 00:00:00,TMP,surface,-104.063,28.8188,291.049
2013-01-08 00:00:00,2013-01-08 00:00:00,TMP,surface,-103.125,28.8188,290.571
2013-01-08 00:00:00,2013-01-08 00:00:00,TMP,surface,-102.188,28.8188,291.416
2013-01-08 00:00:00,2013-01-08 00:00:00,TMP,surface,-101.25,28.8188,293.512
2013-01-08 00:00:00,2013-01-08 00:00:00,TMP,surface,-100.313,28.8188,294.596
2013-01-08 00:00:00,2013-01-08 00:00:00,TMP,surface,-99.3754,28.8188,294.68
2013-01-08 00:00:00,2013-01-08 00:00:00,TMP,surface,-98.4379,28.8188,294.889
2013-01-08 00:00:00,2013-01-08 00:00:00,TMP,surface,-97.5004,28.8188,295.593
2013-01-08 00:00:00,2013-01-08 00:00:00,TMP,surface,-96.5629,28.8188,296.409
2013-01-08 00:00:00,2013-01-08 00:00:00,TMP,surface,-95.6254,28.8188,297.977
2013-01-08 00:00:00,2013-01-08 00:00:00,TMP,surface,-94.6879,28.8188,299.841
2013-01-08 00:00:00,2013-01-08 00:00:00,TMP,surface,-93.7504,28.8188,299.683
2013-01-08 00:00:00,2013-01-08 00:00:00,TMP,surface,-92.8129,28.8188,299.368
2013-01-08 00:00:00,2013-01-08 00:00:00,TMP,surface,-107.813,29.7637,286.273
2013-01-08 00:00:00,2013-01-08 00:00:00,TMP,surface,-106.875,29.7637,287.608
2013-01-08 00:00:00,2013-01-08 00:00:00,TMP,surface,-105.938,29.7637,290.28
2013-01-08 00:00:00,2013-01-08 00:00:00,TMP,surface,-105,29.7637,290.67
2013-01-08 00:00:00,2013-01-08 00:00:00,TMP,surface,-104.063,29.7637,290.446
2013-01-08 00:00:00,2013-01-08 00:00:00,TMP,surface,-103.125,29.7637,290.873
2013-01-08 00:00:00,2013-01-08 00:00:00,TMP,surface,-102.188,29.7637,292.112
2013-01-08 00:00:00,2013-01-08 00:00:00,TMP,surface,-101.25,29.7637,292.971
2013-01-08 00:00:00,2013-01-08 00:00:00,TMP,surface,-100.313,29.7637,292.733
2013-01-08 00:00:00,2013-01-08 00:00:00,TMP,surface,-99.3754,29.7637,292.344
2013-01-08 00:00:00,2013-01-08 00:00:00,TMP,surface,-98.4379,29.7637,292.766
2013-01-08 00:00:00,2013-01-08 00:00:00,TMP,surface,-97.5004,29.7637,293.686
2013-01-08 00:00:00,2013-01-08 00:00:00,TMP,surface,-96.5629,29.7637,294.502
2013-01-08 00:00:00,2013-01-08 00:00:00,TMP,surface,-95.6254,29.7637,295.092
2013-01-08 00:00:00,2013-01-08 00:00:00,TMP,surface,-94.6879,29.7637,296.472
2013-01-08 00:00:00,2013-01-08 00:00:00,TMP,surface,-93.7504,29.7637,298.077
2013-01-08 00:00:00,2013-01-08 00:00:00,TMP,surface,-92.8129,29.7637,295.718
2013-01-08 00:00:00,2013-01-08 00:00:00,TMP,surface,-107.813,30.7085,289.309
2013-01-08 00:00:00,2013-01-08 00:00:00,TMP,surface,-106.875,30.7085,290.275
2013-01-08 00:00:00,2013-01-08 00:00:00,TMP,surface,-105.938,30.7085,290.163
2013-01-08 00:00:00,2013-01-08 00:00:00,TMP,surface,-105,30.7085,289.574
2013-01-08 00:00:00,2013-01-08 00:00:00,TMP,surface,-104.063,30.7085,289.595
2013-01-08 00:00:00,2013-01-08 00:00:00,TMP,surface,-103.125,30.7085,290.83
2013-01-08 00:00:00,2013-01-08 00:00:00,TMP,surface,-102.188,30.7085,291.905
2013-01-08 00:00:00,2013-01-08 00:00:00,TMP,surface,-101.25,30.7085,291.917
2013-01-08 00:00:00,2013-01-08 00:00:00,TMP,surface,-100.313,30.7085,291.358
2013-01-08 00:00:00,2013-01-08 00:00:00,TMP,surface,-99.3754,30.7085,291.163
2013-01-08 00:00:00,2013-01-08 00:00:00,TMP,surface,-98.4379,30.7085,291.657
2013-01-08 00:00:00,2013-01-08 00:00:00,TMP,surface,-97.5004,30.7085,292.478
2013-01-08 00:00:00,2013-01-08 00:00:00,TMP,surface,-96.5629,30.7085,293.145
2013-01-08 00:00:00,2013-01-08 00:00:00,TMP,surface,-95.6254,30.7085,293.492
2013-01-08 00:00:00,2013-01-08 00:00:00,TMP,surface,-94.6879,30.7085,293.633
2013-01-08 00:00:00,2013-01-08 00:00:00,TMP,surface,-93.7504,30.7085,293.656
2013-01-08 00:00:00,2013-01-08 00:00:00,TMP,surface,-92.8129,30.7085,293.515
2013-01-08 00:00:00,2013-01-08 00:00:00,TMP,surface,-107.813,31.6534,289.701
2013-01-08 00:00:00,2013-01-08 00:00:00,TMP,surface,-106.875,31.6534,290.08
2013-01-08 00:00:00,2013-01-08 00:00:00,TMP,surface,-105.938,31.6534,288.905
2013-01-08 00:00:00,2013-01-08 00:00:00,TMP,surface,-105,31.6534,288.745
2013-01-08 00:00:00,2013-01-08 00:00:00,TMP,surface,-104.063,31.6534,289.494
2013-01-08 00:00:00,2013-01-08 00:00:00,TMP,surface,-103.125,31.6534,290.536
2013-01-08 00:00:00,2013-01-08 00:00:00,TMP,surface,-102.188,31.6534,291.086
2013-01-08 00:00:00,2013-01-08 00:00:00,TMP,surface,-101.25,31.6534,290.969
2013-01-08 00:00:00,2013-01-08 00:00:00,TMP,surface,-100.313,31.6534,290.83
2013-01-08 00:00:00,2013-01-08 00:00:00,TMP,surface,-99.3754,31.6534,291.06
2013-01-08 00:00:00,2013-01-08 00:00:00,TMP,surface,-98.4379,31.6534,291.512
2013-01-08 00:00:00,2013-01-08 00:00:00,TMP,surface,-97.5004,31.6534,291.98
2013-01-08 00:00:00,2013-01-08 00:00:00,TMP,surface,-96.5629,31.6534,292.329
2013-01-08 00:00:00,2013-01-08 00:00:00,TMP,surface,-95.6254,31.6534,292.461
2013-01-08 00:00:00,2013-01-08 00:00:00,TMP,surface,-94.6879,31.6534,292.417
2013-01-08 00:00:00,2013-01-08 00:00:00,TMP,surface,-93.7504,31.6534,292.388
2013-01-08 00:00:00,2013-01-08 00:00:00,TMP,surface,-92.8129,31.6534,292.589
2013-01-08 00:00:00,2013-01-08 00:00:00,TMP,surface,-107.813,32.5983,286.784
2013-01-08 00:00:00,2013-01-08 00:00:00,TMP,surface,-106.875,32.5983,287.206
2013-01-08 00:00:00,2013-01-08 00:00:00,TMP,surface,-105.938,32.5983,287.406
2013-01-08 00:00:00,2013-01-08 00:00:00,TMP,surface,-105,32.5983,287.699
2013-01-08 00:00:00,2013-01-08 00:00:00,TMP,surface,-104.063,32.5983,289.113
2013-01-08 00:00:00,2013-01-08 00:00:00,TMP,surface,-103.125,32.5983,290.072
2013-01-08 00:00:00,2013-01-08 00:00:00,TMP,surface,-102.188,32.5983,290.148
2013-01-08 00:00:00,2013-01-08 00:00:00,TMP,surface,-101.25,32.5983,290.253
2013-01-08 00:00:00,2013-01-08 00:00:00,TMP,surface,-100.313,32.5983,290.812
2013-01-08 00:00:00,2013-01-08 00:00:00,TMP,surface,-99.3754,32.5983,291.436
2013-01-08 00:00:00,2013-01-08 00:00:00,TMP,surface,-98.4379,32.5983,291.744
2013-01-08 00:00:00,2013-01-08 00:00:00,TMP,surface,-97.5004,32.5983,291.838
2013-01-08 00:00:00,2013-01-08 00:00:00,TMP,surface,-96.5629,32.5983,291.939
2013-01-08 00:00:00,2013-01-08 00:00:00,TMP,surface,-95.6254,32.5983,291.934
2013-01-08 00:00:00,2013-01-08 00:00:00,TMP,surface,-94.6879,32.5983,291.664
2013-01-08 00:00:00,2013-01-08 00:00:00,TMP,surface,-93.7504,32.5983,291.467
2013-01-08 00:00:00,2013-01-08 00:00:00,TMP,surface,-92.8129,32.5983,291.864
2013-01-08 00:00:00,2013-01-08 00:00:00,TMP,surface,-107.813,33.5432,283.337
2013-01-08 00:00:00,2013-01-08 00:00:00,TMP,surface,-106.875,33.5432,284.701
2013-01-08 00:00:00,2013-01-08 00:00:00,TMP,surface,-105.938,33.5432,285.702
2013-01-08 00:00:00,2013-01-08 00:00:00,TMP,surface,-105,33.5432,286.768
2013-01-08 00:00:00,2013-01-08 00:00:00,TMP,surface,-104.063,33.5432,288.302
2013-01-08 00:00:00,2013-01-08 00:00:00,TMP,surface,-103.125,33.5432,288.884
2013-01-08 00:00:00,2013-01-08 00:00:00,TMP,surface,-102.188,33.5432,289.032
2013-01-08 00:00:00,2013-01-08 00:00:00,TMP,surface,-101.25,33.5432,289.576
2013-01-08 00:00:00,2013-01-08 00:00:00,TMP,surface,-100.313,33.5432,290.544
2013-01-08 00:00:00,2013-01-08 00:00:00,TMP,surface,-99.3754,33.5432,291.417
2013-01-08 00:00:00,2013-01-08 00:00:00,TMP,surface,-98.4379,33.5432,291.657
2013-01-08 00:00:00,2013-01-08 00:00:00,TMP,surface,-97.5004,33.5432,291.496
2013-01-08 00:00:00,2013-01-08 00:00:00,TMP,surface,-96.5629,33.5432,291.392
2013-01-08 00:00:00,2013-01-08 00:00:00,TMP,surface,-95.6254,33.5432,291.331
2013-01-08 00:00:00,2013-01-08 00:00:00,TMP,surface,-94.6879,33.5432,291.044
2013-01-08 00:00:00,2013-01-08 00:00:00,TMP,surface,-93.7504,33.5432,290.616
2013-01-08 00:00:00,2013-01-08 00:00:00,TMP,surface,-92.8129,33.5432,290.565
2013-01-08 00:00:00,2013-01-08 00:00:00,TMP,surface,-107.813,34.4881,282.097
2013-01-08 00:00:00,2013-01-08 00:00:00,TMP,surface,-106.875,34.4881,283.566
2013-01-08 00:00:00,2013-01-08 00:00:00,TMP,surface,-105.938,34.4881,284.657
2013-01-08 00:00:00,2013-01-08 00:00:00,TMP,surface,-105,34.4881,285.784
2013-01-08 00:00:00,2013-01-08 00:00:00,TMP,surface,-104.063,34.4881,286.777
2013-01-08 00:00:00,2013-01-08 00:00:00,TMP,surface,-103.125,34.4881,287.349
2013-01-08 00:00:00,2013-01-08 00:00:00,TMP,surface,-102.188,34.4881,287.828
2013-01-08 00:00:00,2013-01-08 00:00:00,TMP,surface,-101.25,34.4881,288.566
2013-01-08 00:00:00,2013-01-08 00:00:00,TMP,surface,-100.313,34.4881,289.685
2013-01-08 00:00:00,2013-01-08 00:00:00,TMP,surface,-99.3754,34.4881,290.51
2013-01-08 00:00:00,2013-01-08 00:00:00,TMP,surface,-98.4379,34.4881,290.699
2013-01-08 00:00:00,2013-01-08 00:00:00,TMP,surface,-97.5004,34.4881,290.648
2013-01-08 00:00:00,2013-01-08 00:00:00,TMP,surface,-96.5629,34.4881,290.656
2013-01-08 00:00:00,2013-01-08 00:00:00,TMP,surface,-95.6254,34.4881,290.477
2013-01-08 00:00:00,2013-01-08 00:00:00,TMP,surface,-94.6879,34.4881,289.934
2013-01-08 00:00:00,2013-01-08 00:00:00,TMP,surface,-93.7504,34.4881,289.374
2013-01-08 00:00:00,2013-01-08 00:00:00,TMP,surface,-92.8129,34.4881,289.177
2013-01-08 00:00:00,2013-01-08 00:00:00,TMP,surface,-107.813,35.4329,282.472
2013-01-08 00:00:00,2013-01-08 00:00:00,TMP,surface,-106.875,35.4329,282.71
2013-01-08 00:00:00,2013-01-08 00:00:00,TMP,surface,-105.938,35.4329,283.139
2013-01-08 00:00:00,2013-01-08 00:00:00,TMP,surface,-105,35.4329,283.92
2013-01-08 00:00:00,2013-01-08 00:00:00,TMP,surface,-104.063,35.4329,285.517
2013-01-08 00:00:00,2013-01-08 00:00:00,TMP,surface,-103.125,35.4329,286.737
2013-01-08 00:00:00,2013-01-08 00:00:00,TMP,surface,-102.188,35.4329,287.291
2013-01-08 00:00:00,2013-01-08 00:00:00,TMP,surface,-101.25,35.4329,287.98
2013-01-08 00:00:00,2013-01-08 00:00:00,TMP,surface,-100.313,35.4329,288.507
2013-01-08 00:00:00,2013-01-08 00:00:00,TMP,surface,-99.3754,35.4329,288.776
2013-01-08 00:00:00,2013-01-08 00:00:00,TMP,surface,-98.4379,35.4329,288.937
2013-01-08 00:00:00,2013-01-08 00:00:00,TMP,surface,-97.5004,35.4329,289.184
2013-01-08 00:00:00,2013-01-08 00:00:00,TMP,surface,-96.5629,35.4329,289.544
2013-01-08 00:00:00,2013-01-08 00:00:00,TMP,surface,-95.6254,35.4329,289.627
2013-01-08 00:00:00,2013-01-08 00:00:00,TMP,surface,-94.6879,35.4329,289.07
2013-01-08 00:00:00,2013-01-08 00:00:00,TMP,surface,-93.7504,35.4329,288.217
2013-01-08 00:00:00,2013-01-08 00:00:00,TMP,surface,-92.8129,35.4329,287.712
2013-01-08 00:00:00,2013-01-08 00:00:00,TMP,surface,-107.813,36.3778,281.904
2013-01-08 00:00:00,2013-01-08 00:00:00,TMP,surface,-106.875,36.3778,279.96
2013-01-08 00:00:00,2013-01-08 00:00:00,TMP,surface,-105.938,36.3778,280.568
2013-01-08 00:00:00,2013-01-08 00:00:00,TMP,surface,-105,36.3778,281.817
2013-01-08 00:00:00,2013-01-08 00:00:00,TMP,surface,-104.063,36.3778,283.95
2013-01-08 00:00:00,2013-01-08 00:00:00,TMP,surface,-103.125,36.3778,285.627
2013-01-08 00:00:00,2013-01-08 00:00:00,TMP,surface,-102.188,36.3778,286.793
2013-01-08 00:00:00,2013-01-08 00:00:00,TMP,surface,-101.25,36.3778,287.385
2013-01-08 00:00:00,2013-01-08 00:00:00,TMP,surface,-100.313,36.3778,287.54
2013-01-08 00:00:00,2013-01-08 00:00:00,TMP,surface,-99.3754,36.3778,287.397
2013-01-08 00:00:00,2013-01-08 00:00:00,TMP,surface,-98.4379,36.3778,287.201
2013-01-08 00:00:00,2013-01-08 00:00:00,TMP,surface,-97.5004,36.3778,287.368
2013-01-08 00:00:00,2013-01-08 00:00:00,TMP,surface,-96.5629,36.3778,287.764
2013-01-08 00:00:00,2013-01-08 00:00:00,TMP,surface,-95.6254,36.3778,287.835
2013-01-08 00:00:00,2013-01-08 00:00:00,TMP,surface,-94.6879,36.3778,287.38
2013-01-08 00:00:00,2013-01-08 00:00:00,TMP,surface,-93.7504,36.3778,286.702
2013-01-08 00:00:00,2013-01-08 00:00:00,TMP,surface,-92.8129,36.3778,286.312
2013-01-08 00:00:00,2013-01-08 00:00:00,PRATE,surface,-107.813,25.0393,1.04e-05
2013-01-08 00:00:00,2013-01-08 00:00:00,PRATE,surface,-106.875,25.0393,1.12e-05
2013-01-08 00:00:00,2013-01-08 00:00:00,PRATE,surface,-105.938,25.0393,3.51e-05
2013-01-08 00:00:00,2013-01-08 00:00:00,PRATE,surface,-105,25.0393,3.99e-05
2013-01-08 00:00:00,2013-01-08 00:00:00,PRATE,surface,-104.063,25.0393,2.12e-05
2013-01-08 00:00:00,2013-01-08 00:00:00,PRATE,surface,-103.125,25.0393,1.35e-05
2013-01-08 00:00:00,2013-01-08 00:00:00,PRATE,surface,-102.188,25.0393,2.58e-05
2013-01-08 00:00:00,2013-01-08 00:00:00,PRATE,surface,-101.25,25.0393,5.79e-05
2013-01-08 00:00:00,2013-01-08 00:00:00,PRATE,surface,-100.313,25.0393,7.42e-05
2013-01-08 00:00:00,2013-01-08 00:00:00,PRATE,surface,-99.3754,25.0393,2.79e-05
2013-01-08 00:00:00,2013-01-08 00:00:00,PRATE,surface,-98.4379,25.0393,2.42e-05
2013-01-08 00:00:00,2013-01-08 00:00:00,PRATE,surface,-97.5004,25.0393,3.88e-05
2013-01-08 00:00:00,2013-01-08 00:00:00,PRATE,surface,-96.5629,25.0393,5.02e-05
2013-01-08 00:00:00,2013-01-08 00:00:00,PRATE,surface,-95.6254,25.0393,3.93e-05
2013-01-08 00:00:00,2013-01-08 00:00:00,PRATE,surface,-94.6879,25.0393,2.05e-05
2013-01-08 00:00:00,2013-01-08 00:00:00,PRATE,surface,-93.7504,25.0393,3.62e-05
2013-01-08 00:00:00,2013-01-08 00:00:00,PRATE,surface,-92.8129,25.0393,5.75e-05
2013-01-08 00:00:00,2013-01-08 00:00:00,PRATE,surface,-107.813,25.9842,1.07e-05
2013-01-08 00:00:00,2013-01-08 00:00:00,PRATE,surface,-106.875,25.9842,2.07e-05
2013-01-08 00:00:00,2013-01-08 00:00:00,PRATE,surface,-105.938,25.9842,3.03e-05
2013-01-08 00:00:00,2013-01-08 00:00:00,PRATE,surface,-105,25.9842,2.27e-05
2013-01-08 00:00:00,2013-01-08 00:00:00,PRATE,surface,-104.063,25.9842,1.13e-05
2013-01-08 00:00:00,2013-01-08 00:00:00,PRATE,surface,-103.125,25.9842,7.1e-06
2013-01-08 00:00:00,2013-01-08 00:00:00,PRATE,surface,-102.188,25.9842,1.21e-05
2013-01-08 00:00:00,2013-01-08 00:00:00,PRATE,surface,-101.25,25.9842,5.45e-05
2013-01-08 00:00:00,2013-01-08 00:00:00,PRATE,surface,-100.313,25.9842,6.47e-05
2013-01-08 00:00:00,2013-01-08 00:00:00,PRATE,surface,-99.3754,25.9842,2.67e-05
2013-01-08 00:00:00,2013-01-08 00:00:00,PRATE,surface,-98.4379,25.9842,2.67e-05
2013-01-08 00:00:00,2013-01-08 00:00:00,PRATE,surface,-97.5004,25.9842,3.21e-05
2013-01-08 00:00:00,2013-01-08 00:00:00,PRATE,surface,-96.5629,25.9842,5.09e-05
2013-01-08 00:00:00,2013-01-08 00:00:00,PRATE,surface,-95.6254,25.9842,4.7e-05
2013-01-08 00:00:00,2013-01-08 00:00:00,PRATE,surface,-94.6879,25.9842,2.38e-05
2013-01-08 00:00:00,2013-01-08 00:00:00,PRATE,surface,-93.7504,25.9842,3.89e-05
2013-01-08 00:00:00,2013-01-08 00:00:00,PRATE,surface,-92.8129,25.9842,5.54e-05
2013-01-08 00:00:00,2013-01-08 00:00:00,PRATE,surface,-107.813,26.929,2.09e-05
2013-01-08 00:00:00,2013-01-08 00:00:00,PRATE,surface,-106.875,26.929,2.2e-05
2013-01-08 00:00:00,2013-01-08 00:00:00,PRATE,surface,-105.938,26.929,1.73e-05
2013-01-08 00:00:00,2013-01-08 00:00:00,PRATE,surface,-105,26.929,1.98e-05
2013-01-08 00:00:00,2013-01-08 00:00:00,PRATE,surface,-104.063,26.929,1.59e-05
2013-01-08 00:00:00,2013-01-08 00:00:00,PRATE,surface,-103.125,26.929,2.05e-05
2013-01-08 00:00:00,2013-01-08 00:00:00,PRATE,surface,-102.188,26.929,2.87e-05
2013-01-08 00:00:00,2013-01-08 00:00:00,PRATE,surface,-101.25,26.929,5.1e-05
2013-01-08 00:00:00,2013-01-08 00:00:00,PRATE,surface,-100.313,26.929,5.1e-05
2013-01-08 00:00:00,2013-01-08 00:00:00,PRATE,surface,-99.3754,26.929,2.8e-05
2013-01-08 00:00:00,2013-01-08 00:00:00,PRATE,surface,-98.4379,26.929,2.61e-05
2013-01-08 00:00:00,2013-01-08 00:00:00,PRATE,surface,-97.5004,26.929,4.33e-05
2013-01-08 00:00:00,2013-01-08 00:00:00,PRATE,surface,-96.5629,26.929,5.81e-05
2013-01-08 00:00:00,2013-01-08 00:00:00,PRATE,surface,-95.6254,26.929,3.31e-05
2013-01-08 00:00:00,2013-01-08 00:00:00,PRATE,surface,-94.6879,26.929,1.7e-05
2013-01-08 00:00:00,2013-01-08 00:00:00,PRATE,surface,-93.7504,26.929,2.76e-05
2013-01-08 00:00:00,2013-01-08 00:00:00,PRATE,surface,-92.8129,26.929,4.63e-05
2013-01-08 00:00:00,2013-01-08 00:00:00,PRATE,surface,-107.813,27.8739,2.35e-05
2013-01-08 00:00:00,2013-01-08 00:00:00,PRATE,surface,-106.875,27.8739,2.17e-05
2013-01-08 00:00:00,2013-01-08 00:00:00,PRATE,surface,-105.938,27.8739,1.57e-05
2013-01-08 00:00:00,2013-01-08 00:00:00,PRATE,surface,-105,27.8739,1.2e-05
2013-01-08 00:00:00,2013-01-08 00:00:00,PRATE,surface,-104.063,27.8739,2.65e-05
2013-01-08 00:00:00,2013-01-08 00:00:00,PRATE,surface,-103.125,27.8739,4.02e-05
2013-01-08 00:00:00,2013-01-08 00:00:00,PRATE,surface,-102.188,27.8739,5.19e-05
2013-01-08 00:00:00,2013-01-08 00:00:00,PRATE,surface,-101.25,27.8739,4.6e-05
2013-01-08 00:00:00,2013-01-08 00:00:00,PRATE,surface,-100.313,27.8739,4.2e-05
2013-01-08 00:00:00,2013-01-08 00:00:00,PRATE,surface,-99.3754,27.8739,4.02e-05
2013-01-08 00:00:00,2013-01-08 00:00:00,PRATE,surface,-98.4379,27.8739,3.45e-05
2013-01-08 00:00:00,2013-01-08 00:00:00,PRATE,surface,-97.5004,27.8739,2.59e-05
2013-01-08 00:00:00,2013-01-08 00:00:00,PRATE,surface,-96.5629,27.8739,2.13e-05
2013-01-08 00:00:00,2013-01-08 00:00:00,PRATE,surface,-95.6254,27.8739,2.12e-05
2013-01-08 00:00:00,2013-01-08 00:00:00,PRATE,surface,-94.6879,27.8739,2.6e-05
2013-01-08 00:00:00,2013-01-08 00:00:00,PRATE,surface,-93.7504,27.8739,3.86e-05
2013-01-08 00:00:00,2013-01-08 00:00:00,PRATE,surface,-92.8129,27.8739,4.25e-05
2013-01-08 00:00:00,2013-01-08 00:00:00,PRATE,surface,-107.813,28.8188,2.11e-05
2013-01-08 00:00:00,2013-01-08 00:00:00,PRATE,surface,-106.875,28.8188,2.08e-05
2013-01-08 00:00:00,2013-01-08 00:00:00,PRATE,surface,-105.938,28.8188,1.66e-05
2013-01-08 00:00:00,2013-01-08 00:00:00,PRATE,surface,-105,28.8188,1.29e-05
2013-01-08 00:00:00,2013-01-08 00:00:00,PRATE,surface,-104.063,28.8188,3.2e-05
2013-01-08 00:00:00,2013-01-08 00:00:00,PRATE,surface,-103.125,28.8188,3.93e-05
2013-01-08 00:00:00,2013-01-08 00:00:00,PRATE,surface,-102.188,28.8188,3.5e-05
2013-01-08 00:00:00,2013-01-08 00:00:00,PRATE,surface,-101.25,28.8188,3.14e-05
2013-01-08 00:00:00,2013-01-08 00:00:00,PRATE,surface,-100.313,28.8188,4.53e-05
2013-01-08 00:00:00,2013-01-08 00:00:00,PRATE,surface,-99.3754,28.8188,5.85e-05
2013-01-08 00:00:00,2013-01-08 00:00:00,PRATE,surface,-98.4379,28.8188,4.6e-05
2013-01-08 00:00:00,2013-01-08 00:00:00,PRATE,surface,-97.5004,28.8188,2.5e-05
2013-01-08 00:00:00,2013-01-08 00:00:00,PRATE,surface,-96.5629,28.8188,1.99e-05
2013-01-08 00:00:00,2013-01-08 00:00:00,PRATE,surface,-95.6254,28.8188,3.1e-05
2013-01-08 00:00:00,2013-01-08 00:00:00,PRATE,surface,-94.6879,28.8188,3.79e-05
2013-01-08 00:00:00,2013-01-08 00:00:00,PRATE,surface,-93.7504,28.8188,3.05e-05
2013-01-08 00:00:00,2013-01-08 00:00:00,PRATE,surface,-92.8129,28.8188,3.74e-05
2013-01-08 00:00:00,2013-01-08 00:00:00,PRATE,surface,-107.813,29.7637,2.05e-05
2013-01-08 00:00:00,2013-01-08 00:00:00,PRATE,surface,-106.875,29.7637,2.32e-05
2013-01-08 00:00:00,2013-01-08 00:00:00,PRATE,surface,-105.938,29.7637,2.33e-05
2013-01-08 00:00:00,2013-01-08 00:00:00,PRATE,surface,-105,29.7637,2.19e-05
2013-01-08 00:00:00,2013-01-08 00:00:00,PRATE,surface,-104.063,29.7637,3.63e-05
2013-01-08 00:00:00,2013-01-08 00:00:00,PRATE,surface,-103.125,29.7637,4.28e-05
2013-01-08 00:00:00,2013-01-08 00:00:00,PRATE,surface,-102.188,29.7637,3.7e-05
2013-01-08 00:00:00,2013-01-08 00:00:00,PRATE,surface,-101.25,29.7637,3.48e-05
2013-01-08 00:00:00,2013-01-08 00:00:00,PRATE,surface,-100.313,29.7637,5.51e-05
2013-01-08 00:00:00,2013-01-08 00:00:00,PRATE,surface,-99.3754,29.7637,6.91e-05
2013-01-08 00:00:00,2013-01-08 00:00:00,PRATE,surface,-98.4379,29.7637,5.3e-05
2013-01-08 00:00:00,2013-01-08 00:00:00,PRATE,surface,-97.5004,29.7637,3.19e-05
2013-01-08 00:00:00,2013-01-08 00:00:00,PRATE,surface,-96.5629,29.7637,2.77e-05
2013-01-08 00:00:00,2013-01-08 00:00:00,PRATE,surface,-95.6254,29.7637,3.38e-05
2013-01-08 00:00:00,2013-01-08 00:00:00,PRATE,surface,-94.6879,29.7637,3.61e-05
2013-01-08 00:00:00,2013-01-08 00:00:00,PRATE,surface,-93.7504,29.7637,3.06e-05
2013-01-08 00:00:00,2013-01-08 00:00:00,PRATE,surface,-92.8129,29.7637,3.49e-05
2013-01-08 00:00:00,2013-01-08 00:00:00,PRATE,surface,-107.813,30.7085,2.04e-05
2013-01-08 00:00:00,2013-01-08 00:00:00,PRATE,surface,-106.875,30.7085,2.05e-05
2013-01-08 00:00:00,2013-01-08 00:00:00,PRATE,surface,-105.938,30.7085,2.29e-05
2013-01-08 00:00:00,2013-01-08 00:00:00,PRATE,surface,-105,30.7085,3.3e-05
2013-01-08 00:00:00,2013-01-08 00:00:00,PRATE,surface,-104.063,30.7085,4.11e-05
2013-01-08 00:00:00,2013-01-08 00:00:00,PRATE,surface,-103.125,30.7085,3.94e-05
2013-01-08 00:00:00,2013-01-08 00:00:00,PRATE,surface,-102.188,30.7085,3.9e-05
2013-01-08 00:00:00,2013-01-08 00:00:00,PRATE,surface,-101.25,30.7085,4.73e-05
2013-01-08 00:00:00,2013-01-08 00:00:00,PRATE,surface,-100.313,30.7085,7.08e-05
2013-01-08 00:00:00,2013-01-08 00:00:00,PRATE,surface,-99.3754,30.7085,9.1e-05
2013-01-08 00:00:00,2013-01-08 00:00:00,PRATE,surface,-98.4379,30.7085,8.19e-05
2013-01-08 00:00:00,2013-01-08 00:00:00,PRATE,surface,-97.5004,30.7085,5.3e-05
2013-01-08 00:00:00,2013-01-08 00:00:00,PRATE,surface,-96.5629,30.7085,3.42e-05
2013-01-08 00:00:00,2013-01-08 00:00:00,PRATE,surface,-95.6254,30.7085,3.48e-05
2013-01-08 00:00:00,2013-01-08 00:00:00,PRATE,surface,-94.6879,30.7085,4.26e-05
2013-01-08 00:00:00,2013-01-08 00:00:00,PRATE,surface,-93.7504,30.7085,4.72e-05
2013-01-08 00:00:00,2013-01-08 00:00:00,PRATE,surface,-92.8129,30.7085,4.09e-05
2013-01-08 00:00:00,2013-01-08 00:00:00,PRATE,surface,-107.813,31.6534,1.53e-05
2013-01-08 00:00:00,2013-01-08 00:00:00,PRATE,surface,-106.875,31.6534,2.42e-05
2013-01-08 00:00:00,2013-01-08 00:00:00,PRATE,surface,-105.938,31.6534,3.06e-05
2013-01-08 00:00:00,2013-01-08 00:00:00,PRATE,surface,-105,31.6534,3.76e-05
2013-01-08 00:00:00,2013-01-08 00:00:00,PRATE,surface,-104.063,31.6534,3.64e-05
2013-01-08 00:00:00,2013-01-08 00:00:00,PRATE,surface,-103.125,31.6534,3.48e-05
2013-01-08 00:00:00,2013-01-08 00:00:00,PRATE,surface,-102.188,31.6534,3.48e-05
2013-01-08 00:00:00,2013-01-08 00:00:00,PRATE,surface,-101.25,31.6534,5.05e-05
2013-01-08 00:00:00,2013-01-08 00:00:00,PRATE,surface,-100.313,31.6534,7.63e-05
2013-01-08 00:00:00,2013-01-08 00:00:00,PRATE,surface,-99.3754,31.6534,9.54e-05
2013-01-08 00:00:00,2013-01-08 00:00:00,PRATE,surface,-98.4379,31.6534,9.82e-05
2013-01-08 00:00:00,2013-01-08 00:00:00,PRATE,surface,-97.5004,31.6534,8.29e-05
2013-01-08 00:00:00,2013-01-08 00:00:00,PRATE,surface,-96.5629,31.6534,5.91e-05
2013-01-08 00:00:00,2013-01-08 00:00:00,PRATE,surface,-95.6254,31.6534,4.74e-05
2013-01-08 00:00:00,2013-01-08 00:00:00,PRATE,surface,-94.6879,31.6534,5.28e-05
2013-01-08 00:00:00,2013-01-08 00:00:00,PRATE,surface,-93.7504,31.6534,5.57e-05
2013-01-08 00:00:00,2013-01-08 00:00:00,PRATE,surface,-92.8129,31.6534,4.93e-05
2013-01-08 00:00:00,2013-01-08 00:00:00,PRATE,surface,-107.813,32.5983,1.8e-05
2013-01-08 00:00:00,2013-01-08 00:00:00,PRATE,surface,-106.875,32.5983,1.96e-05
2013-01-08 00:00:00,2013-01-08 00:00:00,PRATE,surface,-105.938,32.5983,2.85e-05
2013-01-08 00:00:00,2013-01-08 00:00:00,PRATE,surface,-105,32.5983,4.01e-05
2013-01-08 00:00:00,2013-01-08 00:00:00,PRATE,surface,-104.063,32.5983,4.24e-05
2013-01-08 00:00:00,2013-01-08 00:00:00,PRATE,surface,-103.125,32.5983,3.51e-05
2013-01-08 00:00:00,2013-01-08 00:00:00,PRATE,surface,-102.188,32.5983,3.37e-05
2013-01-08 00:00:00,2013-01-08 00:00:00,PRATE,surface,-101.25,32.5983,4.42e-05
2013-01-08 00:00:00,2013-01-08 00:00:00,PRATE,surface,-100.313,32.5983,5.62e-05
2013-01-08 00:00:00,2013-01-08 00:00:00,PRATE,surface,-99.3754,32.5983,6.75e-05
2013-01-08 00:00:00,2013-01-08 00:00:00,PRATE,surface,-98.4379,32.5983,7.68e-05
2013-01-08 00:00:00,2013-01-08 00:00:00,PRATE,surface,-97.5004,32.5983,8.37e-05
2013-01-08 00:00:00,2013-01-08 00:00:00,PRATE,surface,-96.5629,32.5983,7.83e-05
2013-01-08 00:00:00,2013-01-08 00:00:00,PRATE,surface,-95.6254,32.5983,6.06e-05
2013-01-08 00:00:00,2013-01-08 00:00:00,PRATE,surface,-94.6879,32.5983,5.66e-05
2013-01-08 00:00:00,2013-01-08 00:00:00,PRATE,surface,-93.7504,32.5983,7.18e-05
2013-01-08 00:00:00,2013-01-08 00:00:00,PRATE,surface,-92.8129,32.5983,6.41e-05
2013-01-08 00:00:00,2013-01-08 00:00:00,PRATE,surface,-107.813,33.5432,2.41e-05
2013-01-08 00:00:00,2013-01-08 00:00:00,PRATE,surface,-106.875,33.5432,1.82e-05
2013-01-08 00:00:00,2013-01-08 00:00:00,PRATE,surface,-105.938,33.5432,2.13e-05
2013-01-08 00:00:00,2013-01-08 00:00:00,PRATE,surface,-105,33.5432,3.33e-05
2013-01-08 00:00:00,2013-01-08 00:00:00,PRATE,surface,-104.063,33.5432,4.32e-05
2013-01-08 00:00:00,2013-01-08 00:00:00,PRATE,surface,-103.125,33.5432,3.67e-05
2013-01-08 00:00:00,2013-01-08 00:00:00,PRATE,surface,-102.188,33.5432,3.2e-05
2013-01-08 00:00:00,2013-01-08 00:00:00,PRATE,surface,-101.25,33.5432,2.79e-05
2013-01-08 00:00:00,2013-01-08 00:00:00,PRATE,surface,-100.313,33.5432,2.44e-05
2013-01-08 00:00:00,2013-01-08 00:00:00,PRATE,surface,-99.3754,33.5432,2.32e-05
2013-01-08 00:00:00,2013-01-08 00:00:00,PRATE,surface,-98.4379,33.5432,3.1e-05
2013-01-08 00:00:00,2013-01-08 00:00:00,PRATE,surface,-97.5004,33.5432,4.29e-05
2013-01-08 00:00:00,2013-01-08 00:00:00,PRATE,surface,-96.5629,33.5432,4.87e-05
2013-01-08 00:00:00,2013-01-08 00:00:00,PRATE,surface,-95.6254,33.5432,4.56e-05
2013-01-08 00:00:00,2013-01-08 00:00:00,PRATE,surface,-94.6879,33.5432,3.96e-05
2013-01-08 00:00:00,2013-01-08 00:00:00,PRATE,surface,-93.7504,33.5432,4.27e-05
2013-01-08 00:00:00,2013-01-08 00:00:00,PRATE,surface,-92.8129,33.5432,5.85e-05
2013-01-08 00:00:00,2013-01-08 00:00:00,PRATE,surface,-107.813,34.4881,2.34e-05
2013-01-08 00:00:00,2013-01-08 00:00:00,PRATE,surface,-106.875,34.4881,1.46e-05
2013-01-08 00:00:00,2013-01-08 00:00:00,PRATE,surface,-105.938,34.4881,1.26e-05
2013-01-08 00:00:00,2013-01-08 00:00:00,PRATE,surface,-105,34.4881,1.96e-05
2013-01-08 00:00:00,2013-01-08 00:00:00,PRATE,surface,-104.063,34.4881,2.53e-05
2013-01-08 00:00:00,2013-01-08 00:00:00,PRATE,surface,-103.125,34.4881,3.05e-05
2013-01-08 00:00:00,2013-01-08 00:00:00,PRATE,surface,-102.188,34.4881,2.84e-05
2013-01-08 00:00:00,2013-01-08 00:00:00,PRATE,surface,-101.25,34.4881,2.82e-05
2013-01-08 00:00:00,2013-01-08 00:00:00,PRATE,surface,-100.313,34.4881,2.7e-05
2013-01-08 00:00:00,2013-01-08 00:00:00,PRATE,surface,-99.3754,34.4881,2.29e-05
2013-01-08 00:00:00,2013-01-08 00:00:00,PRATE,surface,-98.4379,34.4881,1.93e-05
2013-01-08 00:00:00,2013-01-08 00:00:00,PRATE,surface,-97.5004,34.4881,2.12e-05
2013-01-08 00:00:00,2013-01-08 00:00:00,PRATE,surface,-96.5629,34.4881,2.53e-05
2013-01-08 00:00:00,2013-01-08 00:00:00,PRATE,surface,-95.6254,34.4881,2.74e-05
2013-01-08 00:00:00,2013-01-08 00:00:00,PRATE,surface,-94.6879,34.4881,2.74e-05
2013-01-08 00:00:00,2013-01-08 00:00:00,PRATE,surface,-93.7504,34.4881,2.52e-05
2013-01-08 00:00:00,2013-01-08 00:00:00,PRATE,surface,-92.8129,34.4881,3.11e-05
2013-01-08 00:00:00,2013-01-08 00:00:00,PRATE,surface,-107.813,35.4329,1.82e-05
2013-01-08 00:00:00,2013-01-08 00:00:00,PRATE,surface,-106.875,35.4329,1.63e-05
2013-01-08 00:00:00,2013-01-08 00:00:00,PRATE,surface,-105.938,35.4329,1.76e-05
2013-01-08 00:00:00,2013-01-08 00:00:00,PRATE,surface,-105,35.4329,2.21e-05
2013-01-08 00:00:00,2013-01-08 00:00:00,PRATE,surface,-104.063,35.4329,2.75e-05
2013-01-08 00:00:00,2013-01-08 00:00:00,PRATE,surface,-103.125,35.4329,2.66e-05
2013-01-08 00:00:00,2013-01-08 00:00:00,PRATE,surface,-102.188,35.4329,2.55e-05
2013-01-08 00:00:00,2013-01-08 00:00:00,PRATE,surface,-101.25,35.4329,2.26e-05
2013-01-08 00:00:00,2013-01-08 00:00:00,PRATE,surface,-100.313,35.4329,2.59e-05
2013-01-08 00:00:00,2013-01-08 00:00:00,PRATE,surface,-99.3754,35.4329,3.25e-05
2013-01-08 00:00:00,2013-01-08 00:00:00,PRATE,surface,-98.4379,35.4329,2.99e-05
2013-01-08 00:00:00,2013-01-08 00:00:00,PRATE,surface,-97.5004,35.4329,2.9e-05
2013-01-08 00:00:00,2013-01-08 00:00:00,PRATE,surface,-96.5629,35.4329,2.98e-05
2013-01-08 00:00:00,2013-01-08 00:00:00,PRATE,surface,-95.6254,35.4329,2.49e-05
2013-01-08 00:00:00,2013-01-08 00:00:00,PRATE,surface,-94.6879,35.4329,2.17e-05
2013-01-08 00:00:00,2013-01-08 00:00:00,PRATE,surface,-93.7504,35.4329,2.06e-05
2013-01-08 00:00:00,2013-01-08 00:00:00,PRATE,surface,-92.8129,35.4329,2.29e-05
2013-01-08 00:00:00,2013-01-08 00:00:00,PRATE,surface,-107.813,36.3778,1.62e-05
2013-01-08 00:00:00,2013-01-08 00:00:00,PRATE,surface,-106.875,36.3778,2.14e-05
2013-01-08 00:00:00,2013-01-08 00:00:00,PRATE,surface,-105.938,36.3778,2.14e-05
2013-01-08 00:00:00,2013-01-08 00:00:00,PRATE,surface,-105,36.3778,2.65e-05
2013-01-08 00:00:00,2013-01-08 00:00:00,PRATE,surface,-104.063,36.3778,2.51e-05
2013-01-08 00:00:00,2013-01-08 00:00:00,PRATE,surface,-103.125,36.3778,1.84e-05
2013-01-08 00:00:00,2013-01-08 00:00:00,PRATE,surface,-102.188,36.3778,1.36e-05
2013-01-08 00:00:00,2013-01-08 00:00:00,PRATE,surface,-101.25,36.3778,1.43e-05
2013-01-08 00:00:00,2013-01-08 00:00:00,PRATE,surface,-100.313,36.3778,2.15e-05
2013-01-08 00:00:00,2013-01-08 00:00:00,PRATE,surface,-99.3754,36.3778,2.99e-05
2013-01-08 00:00:00,2013-01-08 00:00:00,PRATE,surface,-98.4379,36.3778,3.65e-05
2013-01-08 00:00:00,2013-01-08 00:00:00,PRATE,surface,-97.5004,36.3778,3.74e-05
2013-01-08 00:00:00,2013-01-08 00:00:00,PRATE,surface,-96.5629,36.3778,3.36e-05
2013-01-08 00:00:00,2013-01-08 00:00:00,PRATE,surface,-95.6254,36.3778,3e-05
2013-01-08 00:00:00,2013-01-08 00:00:00,PRATE,surface,-94.6879,36.3778,2.76e-05
2013-01-08 00:00:00,2013-01-08 00:00:00,PRATE,surface,-93.7504,36.3778,2.44e-05
2013-01-08 00:00:00,2013-01-08 00:00:00,PRATE,surface,-92.8129,36.3778,2.25e-05
