2019-02-06 00:00:00,2019-02-06 00:00:00,TMP,surface,-107.813,25.0393,296.694
2019-02-06 00:00:00,2019-02-06 00:00:00,TMP,surface,-106.875,25.0393,289.412
2019-02-06 00:00:00,2019-02-06 00:00:00,TMP,surface,-105.938,25.0393,283.783
2019-02-06 00:00:00,2019-02-06 00:00:00,TMP,surface,-105,25.0393,282.254
2019-02-06 00:00:00,2019-02-06 00:00:00,TMP,surface,-104.063,25.0393,285.831
2019-02-06 00:00:00,2019-02-06 00:00:00,TMP,surface,-103.125,25.0393,288.75
2019-02-06 00:00:00,2019-02-06 00:00:00,TMP,surface,-102.188,25.0393,288.91
2019-02-06 00:00:00,2019-02-06 00:00:00,TMP,surface,-101.25,25.0393,287.522
2019-02-06 00:00:00,2019-02-06 00:00:00,TMP,surface,-100.313,25.0393,288.1
2019-02-06 00:00:00,2019-02-06 00:00:00,TMP,surface,-99.3754,25.0393,291.02
2019-02-06 00:00:00,2019-02-06 00:00:00,TMP,surface,-98.4379,25.0393,294.268
2019-02-06 00:00:00,2019-02-06 00:00:00,TMP,surface,-97.5004,25.0393,299.366
2019-02-06 00:00:00,2019-02-06 00:00:00,TMP,surface,-96.5629,25.0393,299.836
2019-02-06 00:00:00,2019-02-06 00:00:00,TMP,surface,-95.6254,25.0393,299.862
2019-02-06 00:00:00,2019-02-06 00:00:00,TMP,surface,-94.6879,25.0393,299.846
2019-02-06 00:00:00,2019-02-06 00:00:00,TMP,surface,-93.7504,25.0393,299.593
2019-02-06 00:00:00,2019-02-06 00:00:00,TMP,surface,-92.8129,25.0393,299.428
2019-02-06 00:00:00,2019-02-06 00:00:00,TMP,surface,-107.813,25.9842,290.638
2019-02-06 00:00:00,2019-02-06 00:00:00,TMP,surface,-106.875,25.9842,284.662
2019-02-06 00:00:00,2019-02-06 00:00:00,TMP,surface,-105.938,25.9842,282.051
2019-02-06 00:00:00,2019-02-06 00:00:00,TMP,surface,-105,25.9842,284.252
2019-02-06 00:00:00,2019-02-06 00:00:00,TMP,surface,-104.063,25.9842,287.94
2019-02-06 00:00:00,2019-02-06 00:00:00,TMP,surface,-103.125,25.9842,289.263
2019-02-06 00:00:00,2019-02-06 00:00:00,TMP,surface,-102.188,25.9842,289.682
2019-02-06 00:00:00,2019-02-06 00:00:00,TMP,surface,-101.25,25.9842,289.186
2019-02-06 00:00:00,2019-02-06 00:00:00,TMP,surface,-100.313,25.9842,289.66
2019-02-06 00:00:00,2019-02-06 00:00:00,TMP,surface,-99.3754,25.9842,292.199
2019-02-06 00:00:00,2019-02-06 00:00:00,TMP,surface,-98.4379,25.9842,294.423
2019-02-06 00:00:00,2019-02-06 00:00:00,TMP,surface,-97.5004,25.9842,295.883
2019-02-06 00:00:00,2019-02-06 00:00:00,TMP,surface,-96.5629,25.9842,299.222
2019-02-06 00:00:00,2019-02-06 00:00:00,TMP,surface,-95.6254,25.9842,299.449
2019-02-06 00:00:00,2019-02-06 00:00:00,TMP,surface,-94.6879,25.9842,299.418
2019-02-06 00:00:00,2019-02-06 00:00:00,TMP,surface,-93.7504,25.9842,299.324
2019-02-06 00:00:00,2019-02-06 00:00:00,TMP,surface,-92.8129,25.9842,299.35
2019-02-06 00:00:00,2019-02-06 00:00:00,TMP,surface,-107.813,26.929,285.142
2019-02-06 00:00:00,2019-02-06 00:00:00,TMP,surface,-106.875,26.929,281.484
2019-02-06 00:00:00,2019-02-06 00:00:00,TMP,surface,-105.938,26.929,283.491
2019-02-06 00:00:00,2019-02-06 00:00:00,TMP,surface,-105,26.929,286.433
2019-02-06 00:00:00,2019-02-06 00:00:00,TMP,surface,-104.063,26.929,287.786
2019-02-06 00:00:00,2019-02-06 00:00:00,TMP,surface,-103.125,26.929,287.519
2019-02-06 00:00:00,2019-02-06 00:00:00,TMP,surface,-102.188,26.929,288.303
2019-02-06 00:00:00,2019-02-06 00:00:00,TMP,surface,-101.25,26.929,289.503
2019-02-06 00:00:00,2019-02-06 00:00:00,TMP,surface,-100.313,26.929,290.842
2019-02-06 00:00:00,2019-02-06 00:00:00,TMP,surface,-99.3754,26.929,292.289
2019-02-06 00:00:00,2019-02-06 00:00:00,TMP,surface,-98.4379,26.929,293.014
2019-02-06 00:00:00,2019-02-06 00:00:00,TMP,surface,-97.5004,26.929,297.388
2019-02-06 00:00:00,2019-02-06 00:00:00,TMP,surface,-96.5629,26.929,298.1
2019-02-06 00:00:00,2019-02-06 00:00:00,TMP,surface,-95.6254,26.929,298.883
2019-02-06 00:00:00,2019-02-06 00:00:00,TMP,surface,-94.6879,26.929,298.972
2019-02-06 00:00:00,2019-02-06 00:00:00,TMP,surface,-93.7504,26.929,298.659
2019-02-06 00:00:00,2019-02-06 00:00:00,TMP,surface,-92.8129,26.929,298.657
2019-02-06 00:00:00,2019-02-06 00:00:00,TMP,surface,-107.813,27.8739,281.988
2019-02-06 00:00:00,2019-02-06 00:00:00,TMP,surface,-106.875,27.8739,280.942
2019-02-06 00:00:00,2019-02-06 00:00:00,TMP,surface,-105.938,27.8739,284.422
2019-02-06 00:00:00,2019-02-06 00:00:00,TMP,surface,-105,27.8739,287.03
2019-02-06 00:00:00,2019-02-06 00:00:00,TMP,surface,-104.063,27.8739,287.31
2019-02-06 00:00:00,2019-02-06 00:00:00,TMP,surface,-103.125,27.8739,286.474
2019-02-06 00:00:00,2019-02-06 00:00:00,TMP,surface,-102.188,27.8739,286.982
2019-02-06 00:00:00,2019-02-06 00:00:00,TMP,surface,-101.25,27.8739,288.682
2019-02-06 00:00:00,2019-02-06 00:00:00,TMP,surface,-100.313,27.8739,290.324
2019-02-06 00:00:00,2019-02-06 00:00:00,TMP,surface,-99.3754,27.8739,290.754
2019-02-06 00:00:00,2019-02-06 00:00:00,TMP,surface,-98.4379,27.8739,291.126
2019-02-06 00:00:00,2019-02-06 00:00:00,TMP,surface,-97.5004,27.8739,294.443
2019-02-06 00:00:00,2019-02-06 00:00:00,TMP,surface,-96.5629,27.8739,297.732
2019-02-06 00:00:00,2019-02-06 00:00:00,TMP,surface,-95.6254,27.8739,298.066
2019-02-06 00:00:00,2019-02-06 00:00:00,TMP,surface,-94.6879,27.8739,297.839
2019-02-06 00:00:00,2019-02-06 00:00:00,TMP,surface,-93.7504,27.8739,297.471
2019-02-06 00:00:00,2019-02-06 00:00:00,TMP,surface,-92.8129,27.8739,297.404
2019-02-06 00:00:00,2019-02-06 00:00:00,TMP,surface,-107.813,28.8188,280.618
2019-02-06 00:00:00,2019-02-06 00:00:00,TMP,surface,-106.875,28.8188,281.374
2019-02-06 00:00:00,2019-02-06 00:00:00,TMP,surface,-105.938,28.8188,284.662
2019-02-06 00:00:00,2019-02-06 00:00:00,TMP,surface,-105,28.8188,286.283
2019-02-06 00:00:00,2019-02-06 00:00:00,TMP,surface,-104.063,28.8188,285.409
2019-02-06 00:00:00,2019-02-06 00:00:00,TMP,surface,-103.125,28.8188,285.169
2019-02-06 00:00:00,2019-02-06 00:00:00,TMP,surface,-102.188,28.8188,286.111
2019-02-06 00:00:00,2019-02-06 00:00:00,TMP,surface,-101.25,28.8188,287.839
2019-02-06 00:00:00,2019-02-06 00:00:00,TMP,surface,-100.313,28.8188,288.55
2019-02-06 00:00:00,2019-02-06 00:00:00,TMP,surface,-99.3754,28.8188,288.337
2019-02-06 00:00:00,2019-02-06 00:00:00,TMP,surface,-98.4379,28.8188,288.497
2019-02-06 00:00:00,2019-02-06 00:00:00,TMP,surface,-97.5004,28.8188,289.339
2019-02-06 00:00:00,2019-02-06 00:00:00,TMP,surface,-96.5629,28.8188,290.318
2019-02-06 00:00:00,2019-02-06 00:00:00,TMP,surface,-95.6254,28.8188,293.177
2019-02-06 00:00:00,2019-02-06 00:00:00,TMP,surface,-94.6879,28.8188,296.948
2019-02-06 00:00:00,2019-02-06 00:00:00,TMP,surface,-93.7504,28.8188,296.681
2019-02-06 00:00:00,2019-02-06 00:00:00,TMP,surface,-92.8129,28.8188,296.697
2019-02-06 00:00:00,2019-02-06 00:00:00,TMP,surface,-107.813,29.7637,281.663
2019-02-06 00:00:00,2019-02-06 00:00:00,TMP,surface,-106.875,29.7637,282.862
2019-02-06 00:00:00,2019-02-06 00:00:00,TMP,surface,-105.938,29.7637,285.134
2019-02-06 00:00:00,2019-02-06 00:00:00,TMP,surface,-105,29.7637,284.679
2019-02-06 00:00:00,2019-02-06 00:00:00,TMP,surface,-104.063,29.7637,284.681
2019-02-06 00:00:00,2019-02-06 00:00:00,TMP,surface,-103.125,29.7637,285.417
2019-02-06 00:00:00,2019-02-06 00:00:00,TMP,surface,-102.188,29.7637,286.558
2019-02-06 00:00:00,2019-02-06 00:00:00,TMP,surface,-101.25,29.7637,287.15
2019-02-06 00:00:00,2019-02-06 00:00:00,TMP,surface,-100.313,29.7637,286.751
2019-02-06 00:00:00,2019-02-06 00:00:00,TMP,surface,-99.3754,29.7637,286.323
2019-02-06 00:00:00,2019-02-06 00:00:00,TMP,surface,-98.4379,29.7637,286.418
2019-02-06 00:00:00,2019-02-06 00:00:00,TMP,surface,-97.5004,29.7637,286.822
2019-02-06 00:00:00,2019-02-06 00:00:00,TMP,surface,-96.5629,29.7637,287.401
2019-02-06 00:00:00,2019-02-06 00:00:00,TMP,surface,-95.6254,29.7637,288.169
2019-02-06 00:00:00,2019-02-06 00:00:00,TMP,surface,-94.6879,29.7637,291.097
2019-02-06 00:00:00,2019-02-06 00:00:00,TMP,surface,-93.7504,29.7637,294.435
2019-02-06 00:00:00,2019-02-06 00:00:00,TMP,surface,-92.8129,29.7637,288.641
2019-02-06 00:00:00,2019-02-06 00:00:00,TMP,surface,-107.813,30.7085,283.906
2019-02-06 00:00:00,2019-02-06 00:00:00,TMP,surface,-106.875,30.7085,284.982
2019-02-06 00:00:00,2019-02-06 00:00:00,TMP,surface,-105.938,30.7085,284.906
2019-02-06 00:00:00,2019-02-06 00:00:00,TMP,surface,-105,30.7085,283.999
2019-02-06 00:00:00,2019-02-06 00:00:00,TMP,surface,-104.063,30.7085,284.142
2019-02-06 00:00:00,2019-02-06 00:00:00,TMP,surface,-103.125,30.7085,285.383
2019-02-06 00:00:00,2019-02-06 00:00:00,TMP,surface,-102.188,30.7085,286.204
2019-02-06 00:00:00,2019-02-06 00:00:00,TMP,surface,-101.25,30.7085,286.137
2019-02-06 00:00:00,2019-02-06 00:00:00,TMP,surface,-100.313,30.7085,285.606
2019-02-06 00:00:00,2019-02-06 00:00:00,TMP,surface,-99.3754,30.7085,285.366
2019-02-06 00:00:00,2019-02-06 00:00:00,TMP,surface,-98.4379,30.7085,285.489
2019-02-06 00:00:00,2019-02-06 00:00:00,TMP,surface,-97.5004,30.7085,285.665
2019-02-06 00:00:00,2019-02-06 00:00:00,TMP,surface,-96.5629,30.7085,285.823
2019-02-06 00:00:00,2019-02-06 00:00:00,TMP,surface,-95.6254,30.7085,286.062
2019-02-06 00:00:00,2019-02-06 00:00:00,TMP,surface,-94.6879,30.7085,286.23
2019-02-06 00:00:00,2019-02-06 00:00:00,TMP,surface,-93.7504,30.7085,286.044
2019-02-06 00:00:00,2019-02-06 00:00:00,TMP,surface,-92.8129,30.7085,285.655
2019-02-06 00:00:00,2019-02-06 00:00:00,TMP,surface,-107.813,31.6534,283.721
2019-02-06 00:00:00,2019-02-06 00:00:00,TMP,surface,-106.875,31.6534,284.401
2019-02-06 00:00:00,2019-02-06 00:00:00,TMP,surface,-105.938,31.6534,283.636
2019-02-06 00:00:00,2019-02-06 00:00:00,TMP,surface,-105,31.6534,283.497
2019-02-06 00:00:00,2019-02-06 00:00:00,TMP,surface,-104.063,31.6534,284.092
2019-02-06 00:00:00,2019-02-06 00:00:00,TMP,surface,-103.125,31.6534,284.922
2019-02-06 00:00:00,2019-02-06 00:00:00,TMP,surface,-102.188,31.6534,285.158
2019-02-06 00:00:00,2019-02-06 00:00:00,TMP,surface,-101.25,31.6534,284.94
2019-02-06 00:00:00,2019-02-06 00:00:00,TMP,surface,-100.313,31.6534,284.868
2019-02-06 00:00:00,2019-02-06 00:00:00,TMP,surface,-99.3754,31.6534,285.033
2019-02-06 00:00:00,2019-02-06 00:00:00,TMP,surface,-98.4379,31.6534,285.13
2019-02-06 00:00:00,2019-02-06 00:00:00,TMP,surface,-97.5004,31.6534,285.055
2019-02-06 00:00:00,2019-02-06 00:00:00,TMP,surface,-96.5629,31.6534,284.983
2019-02-06 00:00:00,2019-02-06 00:00:00,TMP,surface,-95.6254,31.6534,284.906
2019-02-06 00:00:00,2019-02-06 00:00:00,TMP,surface,-94.6879,31.6534,284.668
2019-02-06 00:00:00,2019-02-06 00:00:00,TMP,surface,-93.7504,31.6534,284.444
2019-02-06 00:00:00,2019-02-06 00:00:00,TMP,surface,-92.8129,31.6534,284.433
2019-02-06 00:00:00,2019-02-06 00:00:00,TMP,surface,-107.813,32.5983,280.892
2019-02-06 00:00:00,2019-02-06 00:00:00,TMP,surface,-106.875,32.5983,281.404
2019-02-06 00:00:00,2019-02-06 00:00:00,TMP,surface,-105.938,32.5983,281.633
2019-02-06 00:00:00,2019-02-06 00:00:00,TMP,surface,-105,32.5983,282.404
2019-02-06 00:00:00,2019-02-06 00:00:00,TMP,surface,-104.063,32.5983,283.737
2019-02-06 00:00:00,2019-02-06 00:00:00,TMP,surface,-103.125,32.5983,284.444
2019-02-06 00:00:00,2019-02-06 00:00:00,TMP,surface,-102.188,32.5983,284.099
2019-02-06 00:00:00,2019-02-06 00:00:00,TMP,surface,-101.25,32.5983,284.022
2019-02-06 00:00:00,2019-02-06 00:00:00,TMP,surface,-100.313,32.5983,284.331
2019-02-06 00:00:00,2019-02-06 00:00:00,TMP,surface,-99.3754,32.5983,284.684
2019-02-06 00:00:00,2019-02-06 00:00:00,TMP,surface,-98.4379,32.5983,284.631
2019-02-06 00:00:00,2019-02-06 00:00:00,TMP,surface,-97.5004,32.5983,284.402
2019-02-06 00:00:00,2019-02-06 00:00:00,TMP,surface,-96.5629,32.5983,284.323
2019-02-06 00:00:00,2019-02-06 00:00:00,TMP,surface,-95.6254,32.5983,284.242
2019-02-06 00:00:00,2019-02-06 00:00:00,TMP,surface,-94.6879,32.5983,283.977
2019-02-06 00:00:00,2019-02-06 00:00:00,TMP,surface,-93.7504,32.5983,283.774
2019-02-06 00:00:00,2019-02-06 00:00:00,TMP,surface,-92.8129,32.5983,284.049
2019-02-06 00:00:00,2019-02-06 00:00:00,TMP,surface,-107.813,33.5432,277.412
2019-02-06 00:00:00,2019-02-06 00:00:00,TMP,surface,-106.875,33.5432,278.991
2019-02-06 00:00:00,2019-02-06 00:00:00,TMP,surface,-105.938,33.5432,280.155
2019-02-06 00:00:00,2019-02-06 00:00:00,TMP,surface,-105,33.5432,281.358
2019-02-06 00:00:00,2019-02-06 00:00:00,TMP,surface,-104.063,33.5432,282.697
2019-02-06 00:00:00,2019-02-06 00:00:00,TMP,surface,-103.125,33.5432,283.281
2019-02-06 00:00:00,2019-02-06 00:00:00,TMP,surface,-102.188,33.5432,283.017
2019-02-06 00:00:00,2019-02-06 00:00:00,TMP,surface,-101.25,33.5432,283.065
2019-02-06 00:00:00,2019-02-06 00:00:00,TMP,surface,-100.313,33.5432,283.57
2019-02-06 00:00:00,2019-02-06 00:00:00,TMP,surface,-99.3754,33.5432,283.95
2019-02-06 00:00:00,2019-02-06 00:00:00,TMP,surface,-98.4379,33.5432,283.738
2019-02-06 00:00:00,2019-02-06 00:00:00,TMP,surface,-97.5004,33.5432,283.321
2019-02-06 00:00:00,2019-02-06 00:00:00,TMP,surface,-96.5629,33.5432,283.22
2019-02-06 00:00:00,2019-02-06 00:00:00,TMP,surface,-95.6254,33.5432,283.294
2019-02-06 00:00:00,2019-02-06 00:00:00,TMP,surface,-94.6879,33.5432,283.193
2019-02-06 00:00:00,2019-02-06 00:00:00,TMP,surface,-93.7504,33.5432,283.078
2019-02-06 00:00:00,2019-02-06 00:00:00,TMP,surface,-92.8129,33.5432,283.231
2019-02-06 00:00:00,2019-02-06 00:00:00,TMP,surface,-107.813,34.4881,275.727
2019-02-06 00:00:00,2019-02-06 00:00:00,TMP,surface,-106.875,34.4881,277.535
2019-02-06 00:00:00,2019-02-06 00:00:00,TMP,surface,-105.938,34.4881,278.67
2019-02-06 00:00:00,2019-02-06 00:00:00,TMP,surface,-105,34.4881,279.777
2019-02-06 00:00:00,2019-02-06 00:00:00,TMP,surface,-104.063,34.4881,280.729
2019-02-06 00:00:00,2019-02-06 00:00:00,TMP,surface,-103.125,34.4881,281.318
2019-02-06 00:00:00,2019-02-06 00:00:00,TMP,surface,-102.188,34.4881,281.654
2019-02-06 00:00:00,2019-02-06 00:00:00,TMP,surface,-101.25,34.4881,282.07
2019-02-06 00:00:00,2019-02-06 00:00:00,TMP,surface,-100.313,34.4881,282.55
2019-02-06 00:00:00,2019-02-06 00:00:00,TMP,surface,-99.3754,34.4881,282.751
2019-02-06 00:00:00,2019-02-06 00:00:00,TMP,surface,-98.4379,34.4881,282.463
2019-02-06 00:00:00,2019-02-06 00:00:00,TMP,surface,-97.5004,34.4881,282.087
2019-02-06 00:00:00,2019-02-06 00:00:00,TMP,surface,-96.5629,34.4881,281.99
2019-02-06 00:00:00,2019-02-06 00:00:00,TMP,surface,-95.6254,34.4881,281.934
2019-02-06 00:00:00,2019-02-06 00:00:00,TMP,surface,-94.6879,34.4881,281.681
2019-02-06 00:00:00,2019-02-06 00:00:00,TMP,surface,-93.7504,34.4881,281.535
2019-02-06 00:00:00,2019-02-06 00:00:00,TMP,surface,-92.8129,34.4881,281.799
2019-02-06 00:00:00,2019-02-06 00:00:00,TMP,surface,-107.813,35.4329,275.385
2019-02-06 00:00:00,2019-02-06 00:00:00,TMP,surface,-106.875,35.4329,276.18
2019-02-06 00:00:00,2019-02-06 00:00:00,TMP,surface,-105.938,35.4329,276.999
2019-02-06 00:00:00,2019-02-06 00:00:00,TMP,surface,-105,35.4329,277.967
2019-02-06 00:00:00,2019-02-06 00:00:00,TMP,surface,-104.063,35.4329,279.692
2019-02-06 00:00:00,2019-02-06 00:00:00,TMP,surface,-103.125,35.4329,280.753
2019-02-06 00:00:00,2019-02-06 00:00:00,TMP,surface,-102.188,35.4329,280.751
2019-02-06 00:00:00,2019-02-06 00:00:00,TMP,surface,-101.25,35.4329,280.929
2019-02-06 00:00:00,2019-02-06 00:00:00,TMP,surface,-100.313,35.4329,281.294
2019-02-06 00:00:00,2019-02-06 00:00:00,TMP,surface,-99.3754,35.4329,281.374
2019-02-06 00:00:00,2019-02-06 00:00:00,TMP,surface,-98.4379,35.4329,281.204
2019-02-06 00:00:00,2019-02-06 00:00:00,TMP,surface,-97.5004,35.4329,281.132
2019-02-06 00:00:00,2019-02-06 00:00:00,TMP,surface,-96.5629,35.4329,281.147
2019-02-06 00:00:00,2019-02-06 00:00:00,TMP,surface,-95.6254,35.4329,280.945
2019-02-06 00:00:00,2019-02-06 00:00:00,TMP,surface,-94.6879,35.4329,280.494
2019-02-06 00:00:00,2019-02-06 00:00:00,TMP,surface,-93.7504,35.4329,280.11
2019-02-06 00:00:00,2019-02-06 00:00:00,TMP,surface,-92.8129,35.4329,280.147
2019-02-06 00:00:00,2019-02-06 00:00:00,TMP,surface,-107.813,36.3778,274.402
2019-02-06 00:00:00,2019-02-06 00:00:00,TMP,surface,-106.875,36.3778,273.113
2019-02-06 00:00:00,2019-02-06 00:00:00,TMP,surface,-105.938,36.3778,273.862
2019-02-06 00:00:00,2019-02-06 00:00:00,TMP,surface,-105,36.3778,275.335
2019-02-06 00:00:00,2019-02-06 00:00:00,TMP,surface,-104.063,36.3778,277.342
2019-02-06 00:00:00,2019-02-06 00:00:00,TMP,surface,-103.125,36.3778,278.47
2019-02-06 00:00:00,2019-02-06 00:00:00,TMP,surface,-102.188,36.3778,279.171
2019-02-06 00:00:00,2019-02-06 00:00:00,TMP,surface,-101.25,36.3778,279.745
2019-02-06 00:00:00,2019-02-06 00:00:00,TMP,surface,-100.313,36.3778,280.339
2019-02-06 00:00:00,2019-02-06 00:00:00,TMP,surface,-99.3754,36.3778,280.652
2019-02-06 00:00:00,2019-02-06 00:00:00,TMP,surface,-98.4379,36.3778,280.399
2019-02-06 00:00:00,2019-02-06 00:00:00,TMP,surface,-97.5004,36.3778,280.273
2019-02-06 00:00:00,2019-02-06 00:00:00,TMP,surface,-96.5629,36.3778,280.391
2019-02-06 00:00:00,2019-02-06 00:00:00,TMP,surface,-95.6254,36.3778,280.203
2019-02-06 00:00:00,2019-02-06 00:00:00,TMP,surface,-94.6879,36.3778,279.667
2019-02-06 00:00:00,2019-02-06 00:00:00,TMP,surface,-93.7504,36.3778,279.103
2019-02-06 00:00:00,2019-02-06 00:00:00,TMP,surface,-92.8129,36.3778,278.974
2019-02-06 00:00:00,2019-02-06 00:00:00,PRATE,surface,-107.813,25.0393,1.6e-06
2019-02-06 00:00:00,2019-02-06 00:00:00,PRATE,surface,-106.875,25.0393,4.3e-06
2019-02-06 00:00:00,2019-02-06 00:00:00,PRATE,surface,-105.938,25.0393,1.8e-06
2019-02-06 00:00:00,2019-02-06 00:00:00,PRATE,surface,-105,25.0393,7e-07
2019-02-06 00:00:00,2019-02-06 00:00:00,PRATE,surface,-104.063,25.0393,4e-07
2019-02-06 00:00:00,2019-02-06 00:00:00,PRATE,surface,-103.125,25.0393,3e-07
2019-02-06 00:00:00,2019-02-06 00:00:00,PRATE,surface,-102.188,25.0393,1.2e-06
2019-02-06 00:00:00,2019-02-06 00:00:00,PRATE,surface,-101.25,25.0393,9.2e-06
2019-02-06 00:00:00,2019-02-06 00:00:00,PRATE,surface,-100.313,25.0393,1.77e-05
2019-02-06 00:00:00,2019-02-06 00:00:00,PRATE,surface,-99.3754,25.0393,3.12e-05
2019-02-06 00:00:00,2019-02-06 00:00:00,PRATE,surface,-98.4379,25.0393,4.63e-05
2019-02-06 00:00:00,2019-02-06 00:00:00,PRATE,surface,-97.5004,25.0393,6.14e-05
2019-02-06 00:00:00,2019-02-06 00:00:00,PRATE,surface,-96.5629,25.0393,6.47e-05
2019-02-06 00:00:00,2019-02-06 00:00:00,PRATE,surface,-95.6254,25.0393,7.14e-05
2019-02-06 00:00:00,2019-02-06 00:00:00,PRATE,surface,-94.6879,25.0393,6.01e-05
2019-02-06 00:00:00,2019-02-06 00:00:00,PRATE,surface,-93.7504,25.0393,5.26e-05
2019-02-06 00:00:00,2019-02-06 00:00:00,PRATE,surface,-92.8129,25.0393,1.84e-05
2019-02-06 00:00:00,2019-02-06 00:00:00,PRATE,surface,-107.813,25.9842,4.3e-06
2019-02-06 00:00:00,2019-02-06 00:00:00,PRATE,surface,-106.875,25.9842,4.9e-06
2019-02-06 00:00:00,2019-02-06 00:00:00,PRATE,surface,-105.938,25.9842,1.4e-06
2019-02-06 00:00:00,2019-02-06 00:00:00,PRATE,surface,-105,25.9842,1e-06
2019-02-06 00:00:00,2019-02-06 00:00:00,PRATE,surface,-104.063,25.9842,2.4e-06
2019-02-06 00:00:00,2019-02-06 00:00:00,PRATE,surface,-103.125,25.9842,4e-06
2019-02-06 00:00:00,2019-02-06 00:00:00,PRATE,surface,-102.188,25.9842,4.4e-06
2019-02-06 00:00:00,2019-02-06 00:00:00,PRATE,surface,-101.25,25.9842,7.1e-06
2019-02-06 00:00:00,2019-02-06 00:00:00,PRATE,surface,-100.313,25.9842,1.56e-05
2019-02-06 00:00:00,2019-02-06 00:00:00,PRATE,surface,-99.3754,25.9842,1.99e-05
2019-02-06 00:00:00,2019-02-06 00:00:00,PRATE,surface,-98.4379,25.9842,3.09e-05
2019-02-06 00:00:00,2019-02-06 00:00:00,PRATE,surface,-97.5004,25.9842,5.15e-05
2019-02-06 00:00:00,2019-02-06 00:00:00,PRATE,surface,-96.5629,25.9842,8.42e-05
2019-02-06 00:00:00,2019-02-06 00:00:00,PRATE,surface,-95.6254,25.9842,8.31e-05
2019-02-06 00:00:00,2019-02-06 00:00:00,PRATE,surface,-94.6879,25.9842,7.09e-05
2019-02-06 00:00:00,2019-02-06 00:00:00,PRATE,surface,-93.7504,25.9842,7.73e-05
2019-02-06 00:00:00,2019-02-06 00:00:00,PRATE,surface,-92.8129,25.9842,6.86e-05
2019-02-06 00:00:00,2019-02-06 00:00:00,PRATE,surface,-107.813,26.929,7e-06
2019-02-06 00:00:00,2019-02-06 00:00:00,PRATE,surface,-106.875,26.929,2.1e-06
2019-02-06 00:00:00,2019-02-06 00:00:00,PRATE,surface,-105.938,26.929,9e-07
2019-02-06 00:00:00,2019-02-06 00:00:00,PRATE,surface,-105,26.929,2e-06
2019-02-06 00:00:00,2019-02-06 00:00:00,PRATE,surface,-104.063,26.929,4.4e-06
2019-02-06 00:00:00,2019-02-06 00:00:00,PRATE,surface,-103.125,26.929,4.6e-06
2019-02-06 00:00:00,2019-02-06 00:00:00,PRATE,surface,-102.188,26.929,6.8e-06
2019-02-06 00:00:00,2019-02-06 00:00:00,PRATE,surface,-101.25,26.929,9.6e-06
2019-02-06 00:00:00,2019-02-06 00:00:00,PRATE,surface,-100.313,26.929,1.29e-05
2019-02-06 00:00:00,2019-02-06 00:00:00,PRATE,surface,-99.3754,26.929,1.4e-05
2019-02-06 00:00:00,2019-02-06 00:00:00,PRATE,surface,-98.4379,26.929,3.46e-05
2019-02-06 00:00:00,2019-02-06 00:00:00,PRATE,surface,-97.5004,26.929,4.73e-05
2019-02-06 00:00:00,2019-02-06 00:00:00,PRATE,surface,-96.5629,26.929,5.87e-05
2019-02-06 00:00:00,2019-02-06 00:00:00,PRATE,surface,-95.6254,26.929,5.9e-05
2019-02-06 00:00:00,2019-02-06 00:00:00,PRATE,surface,-94.6879,26.929,6.16e-05
2019-02-06 00:00:00,2019-02-06 00:00:00,PRATE,surface,-93.7504,26.929,8.71e-05
2019-02-06 00:00:00,2019-02-06 00:00:00,PRATE,surface,-92.8129,26.929,0.0001045
2019-02-06 00:00:00,2019-02-06 00:00:00,PRATE,surface,-107.813,27.8739,7.9e-06
2019-02-06 00:00:00,2019-02-06 00:00:00,PRATE,surface,-106.875,27.8739,1.5e-06
2019-02-06 00:00:00,2019-02-06 00:00:00,PRATE,surface,-105.938,27.8739,5e-07
2019-02-06 00:00:00,2019-02-06 00:00:00,PRATE,surface,-105,27.8739,1.7e-06
2019-02-06 00:00:00,2019-02-06 00:00:00,PRATE,surface,-104.063,27.8739,5.8e-06
2019-02-06 00:00:00,2019-02-06 00:00:00,PRATE,surface,-103.125,27.8739,1.17e-05
2019-02-06 00:00:00,2019-02-06 00:00:00,PRATE,surface,-102.188,27.8739,1.16e-05
2019-02-06 00:00:00,2019-02-06 00:00:00,PRATE,surface,-101.25,27.8739,1.3e-05
2019-02-06 00:00:00,2019-02-06 00:00:00,PRATE,surface,-100.313,27.8739,9.5e-06
2019-02-06 00:00:00,2019-02-06 00:00:00,PRATE,surface,-99.3754,27.8739,1.9e-05
2019-02-06 00:00:00,2019-02-06 00:00:00,PRATE,surface,-98.4379,27.8739,2.63e-05
2019-02-06 00:00:00,2019-02-06 00:00:00,PRATE,surface,-97.5004,27.8739,3.16e-05
2019-02-06 00:00:00,2019-02-06 00:00:00,PRATE,surface,-96.5629,27.8739,4.17e-05
2019-02-06 00:00:00,2019-02-06 00:00:00,PRATE,surface,-95.6254,27.8739,5.15e-05
2019-02-06 00:00:00,2019-02-06 00:00:00,PRATE,surface,-94.6879,27.8739,5.99e-05
2019-02-06 00:00:00,2019-02-06 00:00:00,PRATE,surface,-93.7504,27.8739,7.54e-05
2019-02-06 00:00:00,2019-02-06 00:00:00,PRATE,surface,-92.8129,27.8739,9.72e-05
2019-02-06 00:00:00,2019-02-06 00:00:00,PRATE,surface,-107.813,28.8188,8.4e-06
2019-02-06 00:00:00,2019-02-06 00:00:00,PRATE,surface,-106.875,28.8188,2.8e-06
2019-02-06 00:00:00,2019-02-06 00:00:00,PRATE,surface,-105.938,28.8188,1.2e-06
2019-02-06 00:00:00,2019-02-06 00:00:00,PRATE,surface,-105,28.8188,3.2e-06
2019-02-06 00:00:00,2019-02-06 00:00:00,PRATE,surface,-104.063,28.8188,6.8e-06
2019-02-06 00:00:00,2019-02-06 00:00:00,PRATE,surface,-103.125,28.8188,7.5e-06
2019-02-06 00:00:00,2019-02-06 00:00:00,PRATE,surface,-102.188,28.8188,1.28e-05
2019-02-06 00:00:00,2019-02-06 00:00:00,PRATE,surface,-101.25,28.8188,1.61e-05
2019-02-06 00:00:00,2019-02-06 00:00:00,PRATE,surface,-100.313,28.8188,1.87e-05
2019-02-06 00:00:00,2019-02-06 00:00:00,PRATE,surface,-99.3754,28.8188,2.41e-05
2019-02-06 00:00:00,2019-02-06 00:00:00,PRATE,surface,-98.4379,28.8188,3.18e-05
2019-02-06 00:00:00,2019-02-06 00:00:00,PRATE,surface,-97.5004,28.8188,3.85e-05
2019-02-06 00:00:00,2019-02-06 00:00:00,PRATE,surface,-96.5629,28.8188,4.44e-05
2019-02-06 00:00:00,2019-02-06 00:00:00,PRATE,surface,-95.6254,28.8188,5.04e-05
2019-02-06 00:00:00,2019-02-06 00:00:00,PRATE,surface,-94.6879,28.8188,5.3e-05
2019-02-06 00:00:00,2019-02-06 00:00:00,PRATE,surface,-93.7504,28.8188,5.49e-05
2019-02-06 00:00:00,2019-02-06 00:00:00,PRATE,surface,-92.8129,28.8188,6.73e-05
2019-02-06 00:00:00,2019-02-06 00:00:00,PRATE,surface,-107.813,29.7637,4.8e-06
2019-02-06 00:00:00,2019-02-06 00:00:00,PRATE,surface,-106.875,29.7637,2.6e-06
2019-02-06 00:00:00,2019-02-06 00:00:00,PRATE,surface,-105.938,29.7637,3.9e-06
2019-02-06 00:00:00,2019-02-06 00:00:00,PRATE,surface,-105,29.7637,7.5e-06
2019-02-06 00:00:00,2019-02-06 00:00:00,PRATE,surface,-104.063,29.7637,8.7e-06
2019-02-06 00:00:00,2019-02-06 00:00:00,PRATE,surface,-103.125,29.7637,7.3e-06
2019-02-06 00:00:00,2019-02-06 00:00:00,PRATE,surface,-102.188,29.7637,7.4e-06
2019-02-06 00:00:00,2019-02-06 00:00:00,PRATE,surface,-101.25,29.7637,1.14e-05
2019-02-06 00:00:00,2019-02-06 00:00:00,PRATE,surface,-100.313,29.7637,2.24e-05
2019-02-06 00:00:00,2019-02-06 00:00:00,PRATE,surface,-99.3754,29.7637,2.8e-05
2019-02-06 00:00:00,2019-02-06 00:00:00,PRATE,surface,-98.4379,29.7637,2.97e-05
2019-02-06 00:00:00,2019-02-06 00:00:00,PRATE,surface,-97.5004,29.7637,3.27e-05
2019-02-06 00:00:00,2019-02-06 00:00:00,PRATE,surface,-96.5629,29.7637,3.93e-05
2019-02-06 00:00:00,2019-02-06 00:00:00,PRATE,surface,-95.6254,29.7637,4.69e-05
2019-02-06 00:00:00,2019-02-06 00:00:00,PRATE,surface,-94.6879,29.7637,5.14e-05
2019-02-06 00:00:00,2019-02-06 00:00:00,PRATE,surface,-93.7504,29.7637,5.39e-05
2019-02-06 00:00:00,2019-02-06 00:00:00,PRATE,surface,-92.8129,29.7637,5.56e-05
2019-02-06 00:00:00,2019-02-06 00:00:00,PRATE,surface,-107.813,30.7085,2.1e-06
2019-02-06 00:00:00,2019-02-06 00:00:00,PRATE,surface,-106.875,30.7085,2e-06
2019-02-06 00:00:00,2019-02-06 00:00:00,PRATE,surface,-105.938,30.7085,4.3e-06
2019-02-06 00:00:00,2019-02-06 00:00:00,PRATE,surface,-105,30.7085,6e-06
2019-02-06 00:00:00,2019-02-06 00:00:00,PRATE,surface,-104.063,30.7085,8.1e-06
2019-02-06 00:00:00,2019-02-06 00:00:00,PRATE,surface,-103.125,30.7085,4.3e-06
2019-02-06 00:00:00,2019-02-06 00:00:00,PRATE,surface,-102.188,30.7085,6.7e-06
2019-02-06 00:00:00,2019-02-06 00:00:00,PRATE,surface,-101.25,30.7085,1e-05
2019-02-06 00:00:00,2019-02-06 00:00:00,PRATE,surface,-100.313,30.7085,2.13e-05
2019-02-06 00:00:00,2019-02-06 00:00:00,PRATE,surface,-99.3754,30.7085,2.42e-05
2019-02-06 00:00:00,2019-02-06 00:00:00,PRATE,surface,-98.4379,30.7085,1.96e-05
2019-02-06 00:00:00,2019-02-06 00:00:00,PRATE,surface,-97.5004,30.7085,2.28e-05
2019-02-06 00:00:00,2019-02-06 00:00:00,PRATE,surface,-96.5629,30.7085,3.73e-05
2019-02-06 00:00:00,2019-02-06 00:00:00,PRATE,surface,-95.6254,30.7085,5.12e-05
2019-02-06 00:00:00,2019-02-06 00:00:00,PRATE,surface,-94.6879,30.7085,5.58e-05
2019-02-06 00:00:00,2019-02-06 00:00:00,PRATE,surface,-93.7504,30.7085,5.35e-05
2019-02-06 00:00:00,2019-02-06 00:00:00,PRATE,surface,-92.8129,30.7085,5.24e-05
2019-02-06 00:00:00,2019-02-06 00:00:00,PRATE,surface,-107.813,31.6534,1.9e-06
2019-02-06 00:00:00,2019-02-06 00:00:00,PRATE,surface,-106.875,31.6534,1.5e-06
2019-02-06 00:00:00,2019-02-06 00:00:00,PRATE,surface,-105.938,31.6534,1.8e-06
2019-02-06 00:00:00,2019-02-06 00:00:00,PRATE,surface,-105,31.6534,3.1e-06
2019-02-06 00:00:00,2019-02-06 00:00:00,PRATE,surface,-104.063,31.6534,2.8e-06
2019-02-06 00:00:00,2019-02-06 00:00:00,PRATE,surface,-103.125,31.6534,6.1e-06
2019-02-06 00:00:00,2019-02-06 00:00:00,PRATE,surface,-102.188,31.6534,5.9e-06
2019-02-06 00:00:00,2019-02-06 00:00:00,PRATE,surface,-101.25,31.6534,1.11e-05
2019-02-06 00:00:00,2019-02-06 00:00:00,PRATE,surface,-100.313,31.6534,1.75e-05
2019-02-06 00:00:00,2019-02-06 00:00:00,PRATE,surface,-99.3754,31.6534,1.85e-05
2019-02-06 00:00:00,2019-02-06 00:00:00,PRATE,surface,-98.4379,31.6534,1.75e-05
2019-02-06 00:00:00,2019-02-06 00:00:00,PRATE,surface,-97.5004,31.6534,1.97e-05
2019-02-06 00:00:00,2019-02-06 00:00:00,PRATE,surface,-96.5629,31.6534,2.75e-05
2019-02-06 00:00:00,2019-02-06 00:00:00,PRATE,surface,-95.6254,31.6534,4.08e-05
2019-02-06 00:00:00,2019-02-06 00:00:00,PRATE,surface,-94.6879,31.6534,5.4e-05
2019-02-06 00:00:00,2019-02-06 00:00:00,PRATE,surface,-93.7504,31.6534,5.82e-05
2019-02-06 00:00:00,2019-02-06 00:00:00,PRATE,surface,-92.8129,31.6534,5.67e-05
2019-02-06 00:00:00,2019-02-06 00:00:00,PRATE,surface,-107.813,32.5983,5.2e-06
2019-02-06 00:00:00,2019-02-06 00:00:00,PRATE,surface,-106.875,32.5983,3.1e-06
2019-02-06 00:00:00,2019-02-06 00:00:00,PRATE,surface,-105.938,32.5983,2.3e-06
2019-02-06 00:00:00,2019-02-06 00:00:00,PRATE,surface,-105,32.5983,2.1e-06
2019-02-06 00:00:00,2019-02-06 00:00:00,PRATE,surface,-104.063,32.5983,4.2e-06
2019-02-06 00:00:00,2019-02-06 00:00:00,PRATE,surface,-103.125,32.5983,5e-06
2019-02-06 00:00:00,2019-02-06 00:00:00,PRATE,surface,-102.188,32.5983,6.6e-06
2019-02-06 00:00:00,2019-02-06 00:00:00,PRATE,surface,-101.25,32.5983,1.28e-05
2019-02-06 00:00:00,2019-02-06 00:00:00,PRATE,surface,-100.313,32.5983,1.93e-05
2019-02-06 00:00:00,2019-02-06 00:00:00,PRATE,surface,-99.3754,32.5983,2.01e-05
2019-02-06 00:00:00,2019-02-06 00:00:00,PRATE,surface,-98.4379,32.5983,1.86e-05
2019-02-06 00:00:00,2019-02-06 00:00:00,PRATE,surface,-97.5004,32.5983,1.92e-05
2019-02-06 00:00:00,2019-02-06 00:00:00,PRATE,surface,-96.5629,32.5983,2.28e-05
2019-02-06 00:00:00,2019-02-06 00:00:00,PRATE,surface,-95.6254,32.5983,3.03e-05
2019-02-06 00:00:00,2019-02-06 00:00:00,PRATE,surface,-94.6879,32.5983,4.1e-05
2019-02-06 00:00:00,2019-02-06 00:00:00,PRATE,surface,-93.7504,32.5983,4.95e-05
2019-02-06 00:00:00,2019-02-06 00:00:00,PRATE,surface,-92.8129,32.5983,5.54e-05
2019-02-06 00:00:00,2019-02-06 00:00:00,PRATE,surface,-107.813,33.5432,1.19e-05
2019-02-06 00:00:00,2019-02-06 00:00:00,PRATE,surface,-106.875,33.5432,6.7e-06
2019-02-06 00:00:00,2019-02-06 00:00:00,PRATE,surface,-105.938,33.5432,3.8e-06
2019-02-06 00:00:00,2019-02-06 00:00:00,PRATE,surface,-105,33.5432,2e-06
2019-02-06 00:00:00,2019-02-06 00:00:00,PRATE,surface,-104.063,33.5432,4.6e-06
2019-02-06 00:00:00,2019-02-06 00:00:00,PRATE,surface,-103.125,33.5432,9.4e-06
2019-02-06 00:00:00,2019-02-06 00:00:00,PRATE,surface,-102.188,33.5432,1.33e-05
2019-02-06 00:00:00,2019-02-06 00:00:00,PRATE,surface,-101.25,33.5432,1.71e-05
2019-02-06 00:00:00,2019-02-06 00:00:00,PRATE,surface,-100.313,33.5432,2.14e-05
2019-02-06 00:00:00,2019-02-06 00:00:00,PRATE,surface,-99.3754,33.5432,2.29e-05
2019-02-06 00:00:00,2019-02-06 00:00:00,PRATE,surface,-98.4379,33.5432,2.21e-05
2019-02-06 00:00:00,2019-02-06 00:00:00,PRATE,surface,-97.5004,33.5432,2.37e-05
2019-02-06 00:00:00,2019-02-06 00:00:00,PRATE,surface,-96.5629,33.5432,2.63e-05
2019-02-06 00:00:00,2019-02-06 00:00:00,PRATE,surface,-95.6254,33.5432,2.65e-05
2019-02-06 00:00:00,2019-02-06 00:00:00,PRATE,surface,-94.6879,33.5432,2.93e-05
2019-02-06 00:00:00,2019-02-06 00:00:00,PRATE,surface,-93.7504,33.5432,3.78e-05
2019-02-06 00:00:00,2019-02-06 00:00:00,PRATE,surface,-92.8129,33.5432,4.53e-05
2019-02-06 00:00:00,2019-02-06 00:00:00,PRATE,surface,-107.813,34.4881,1.83e-05
2019-02-06 00:00:00,2019-02-06 00:00:00,PRATE,surface,-106.875,34.4881,1.05e-05
2019-02-06 00:00:00,2019-02-06 00:00:00,PRATE,surface,-105.938,34.4881,4.8e-06
2019-02-06 00:00:00,2019-02-06 00:00:00,PRATE,surface,-105,34.4881,3.3e-06
2019-02-06 00:00:00,2019-02-06 00:00:00,PRATE,surface,-104.063,34.4881,4.5e-06
2019-02-06 00:00:00,2019-02-06 00:00:00,PRATE,surface,-103.125,34.4881,9.3e-06
2019-02-06 00:00:00,2019-02-06 00:00:00,PRATE,surface,-102.188,34.4881,1.72e-05
2019-02-06 00:00:00,2019-02-06 00:00:00,PRATE,surface,-101.25,34.4881,2.01e-05
2019-02-06 00:00:00,2019-02-06 00:00:00,PRATE,surface,-100.313,34.4881,2.23e-05
2019-02-06 00:00:00,2019-02-06 00:00:00,PRATE,surface,-99.3754,34.4881,2.54e-05
2019-02-06 00:00:00,2019-02-06 00:00:00,PRATE,surface,-98.4379,34.4881,2.91e-05
2019-02-06 00:00:00,2019-02-06 00:00:00,PRATE,surface,-97.5004,34.4881,3.24e-05
2019-02-06 00:00:00,2019-02-06 00:00:00,PRATE,surface,-96.5629,34.4881,3.37e-05
2019-02-06 00:00:00,2019-02-06 00:00:00,PRATE,surface,-95.6254,34.4881,3.18e-05
2019-02-06 00:00:00,2019-02-06 00:00:00,PRATE,surface,-94.6879,34.4881,2.89e-05
2019-02-06 00:00:00,2019-02-06 00:00:00,PRATE,surface,-93.7504,34.4881,3.07e-05
2019-02-06 00:00:00,2019-02-06 00:00:00,PRATE,surface,-92.8129,34.4881,3.77e-05
2019-02-06 00:00:00,2019-02-06 00:00:00,PRATE,surface,-107.813,35.4329,2.13e-05
2019-02-06 00:00:00,2019-02-06 00:00:00,PRATE,surface,-106.875,35.4329,1.25e-05
2019-02-06 00:00:00,2019-02-06 00:00:00,PRATE,surface,-105.938,35.4329,6.2e-06
2019-02-06 00:00:00,2019-02-06 00:00:00,PRATE,surface,-105,35.4329,6.2e-06
2019-02-06 00:00:00,2019-02-06 00:00:00,PRATE,surface,-104.063,35.4329,1.06e-05
2019-02-06 00:00:00,2019-02-06 00:00:00,PRATE,surface,-103.125,35.4329,1.82e-05
2019-02-06 00:00:00,2019-02-06 00:00:00,PRATE,surface,-102.188,35.4329,2.38e-05
2019-02-06 00:00:00,2019-02-06 00:00:00,PRATE,surface,-101.25,35.4329,2.57e-05
2019-02-06 00:00:00,2019-02-06 00:00:00,PRATE,surface,-100.313,35.4329,2.75e-05
2019-02-06 00:00:00,2019-02-06 00:00:00,PRATE,surface,-99.3754,35.4329,3.35e-05
2019-02-06 00:00:00,2019-02-06 00:00:00,PRATE,surface,-98.4379,35.4329,3.76e-05
2019-02-06 00:00:00,2019-02-06 00:00:00,PRATE,surface,-97.5004,35.4329,4.14e-05
2019-02-06 00:00:00,2019-02-06 00:00:00,PRATE,surface,-96.5629,35.4329,4.47e-05
2019-02-06 00:00:00,2019-02-06 00:00:00,PRATE,surface,-95.6254,35.4329,4.33e-05
2019-02-06 00:00:00,2019-02-06 00:00:00,PRATE,surface,-94.6879,35.4329,3.86e-05
2019-02-06 00:00:00,2019-02-06 00:00:00,PRATE,surface,-93.7504,35.4329,3.47e-05
2019-02-06 00:00:00,2019-02-06 00:00:00,PRATE,surface,-92.8129,35.4329,3.42e-05
2019-02-06 00:00:00,2019-02-06 00:00:00,PRATE,surface,-107.813,36.3778,2.93e-05
2019-02-06 00:00:00,2019-02-06 00:00:00,PRATE,surface,-106.875,36.3778,2.35e-05
2019-02-06 00:00:00,2019-02-06 00:00:00,PRATE,surface,-105.938,36.3778,1.35e-05
2019-02-06 00:00:00,2019-02-06 00:00:00,PRATE,surface,-105,36.3778,1.57e-05
2019-02-06 00:00:00,2019-02-06 00:00:00,PRATE,surface,-104.063,36.3778,2.08e-05
2019-02-06 00:00:00,2019-02-06 00:00:00,PRATE,surface,-103.125,36.3778,2.56e-05
2019-02-06 00:00:00,2019-02-06 00:00:00,PRATE,surface,-102.188,36.3778,3.53e-05
2019-02-06 00:00:00,2019-02-06 00:00:00,PRATE,surface,-101.25,36.3778,3.88e-05
2019-02-06 00:00:00,2019-02-06 00:00:00,PRATE,surface,-100.313,36.3778,3.92e-05
2019-02-06 00:00:00,2019-02-06 00:00:00,PRATE,surface,-99.3754,36.3778,4.04e-05
2019-02-06 00:00:00,2019-02-06 00:00:00,PRATE,surface,-98.4379,36.3778,4.56e-05
2019-02-06 00:00:00,2019-02-06 00:00:00,PRATE,surface,-97.5004,36.3778,5.1e-05
2019-02-06 00:00:00,2019-02-06 00:00:00,PRATE,surface,-96.5629,36.3778,5.34e-05
2019-02-06 00:00:00,2019-02-06 00:00:00,PRATE,surface,-95.6254,36.3778,5.3e-05
2019-02-06 00:00:00,2019-02-06 00:00:00,PRATE,surface,-94.6879,36.3778,5.03e-05
2019-02-06 00:00:00,2019-02-06 00:00:00,PRATE,surface,-93.7504,36.3778,4.57e-05
2019-02-06 00:00:00,2019-02-06 00:00:00,PRATE,surface,-92.8129,36.3778,3.77e-05
