2015-01-06 00:00:00,2015-01-06 00:00:00,TMP,surface,-107.813,25.0393,303.345
2015-01-06 00:00:00,2015-01-06 00:00:00,TMP,surface,-106.875,25.0393,296.27
2015-01-06 00:00:00,2015-01-06 00:00:00,TMP,surface,-105.938,25.0393,291.755
2015-01-06 00:00:00,2015-01-06 00:00:00,TMP,surface,-105,25.0393,290.449
2015-01-06 00:00:00,2015-01-06 00:00:00,TMP,surface,-104.063,25.0393,294.699
2015-01-06 00:00:00,2015-01-06 00:00:00,TMP,surface,-103.125,25.0393,297.749
2015-01-06 00:00:00,2015-01-06 00:00:00,TMP,surface,-102.188,25.0393,296.312
2015-01-06 00:00:00,2015-01-06 00:00:00,TMP,surface,-101.25,25.0393,293.377
2015-01-06 00:00:00,2015-01-06 00:00:00,TMP,surface,-100.313,25.0393,293.438
2015-01-06 00:00:00,2015-01-06 00:00:00,TMP,surface,-99.3754,25.0393,296.808
2015-01-06 00:00:00,2015-01-06 00:00:00,TMP,surface,-98.4379,25.0393,300.366
2015-01-06 00:00:00,2015-01-06 00:00:00,TMP,surface,-97.5004,25.0393,301.461
2015-01-06 00:00:00,2015-01-06 00:00:00,TMP,surface,-96.5629,25.0393,301.729
2015-01-06 00:00:00,2015-01-06 00:00:00,TMP,surface,-95.6254,25.0393,302.052
2015-01-06 00:00:00,2015-01-06 00:00:00,TMP,surface,-94.6879,25.0393,302.302
2015-01-06 00:00:00,2015-01-06 00:00:00,TMP,surface,-93.7504,25.0393,302.197
2015-01-06 00:00:00,2015-01-06 00:00:00,TMP,surface,-92.8129,25.0393,302.049
2015-01-06 00:00:00,2015-01-06 00:00:00,TMP,surface,-107.813,25.9842,298.792
2015-01-06 00:00:00,2015-01-06 00:00:00,TMP,surface,-106.875,25.9842,292.868
2015-01-06 00:00:00,2015-01-06 00:00:00,TMP,surface,-105.938,25.9842,290.814
2015-01-06 00:00:00,2015-01-06 00:00:00,TMP,surface,-105,25.9842,293.544
2015-01-06 00:00:00,2015-01-06 00:00:00,TMP,surface,-104.063,25.9842,298.443
2015-01-06 00:00:00,2015-01-06 00:00:00,TMP,surface,-103.125,25.9842,299.675
2015-01-06 00:00:00,2015-01-06 00:00:00,TMP,surface,-102.188,25.9842,297.998
2015-01-06 00:00:00,2015-01-06 00:00:00,TMP,surface,-101.25,25.9842,296.683
2015-01-06 00:00:00,2015-01-06 00:00:00,TMP,surface,-100.313,25.9842,297.291
2015-01-06 00:00:00,2015-01-06 00:00:00,TMP,surface,-99.3754,25.9842,300.497
2015-01-06 00:00:00,2015-01-06 00:00:00,TMP,surface,-98.4379,25.9842,301.828
2015-01-06 00:00:00,2015-01-06 00:00:00,TMP,surface,-97.5004,25.9842,301.054
2015-01-06 00:00:00,2015-01-06 00:00:00,TMP,surface,-96.5629,25.9842,300.587
2015-01-06 00:00:00,2015-01-06 00:00:00,TMP,surface,-95.6254,25.9842,301.515
2015-01-06 00:00:00,2015-01-06 00:00:00,TMP,surface,-94.6879,25.9842,301.88
2015-01-06 00:00:00,2015-01-06 00:00:00,TMP,surface,-93.7504,25.9842,301.944
2015-01-06 00:00:00,2015-01-06 00:00:00,TMP,surface,-92.8129,25.9842,301.944
2015-01-06 00:00:00,2015-01-06 00:00:00,TMP,surface,-107.813,26.929,294.565
2015-01-06 00:00:00,2015-01-06 00:00:00,TMP,surface,-106.875,26.929,291.032
2015-01-06 00:00:00,2015-01-06 00:00:00,TMP,surface,-105.938,26.929,292.782
2015-01-06 00:00:00,2015-01-06 00:00:00,TMP,surface,-105,26.929,297.409
2015-01-06 00:00:00,2015-01-06 00:00:00,TMP,surface,-104.063,26.929,300.014
2015-01-06 00:00:00,2015-01-06 00:00:00,TMP,surface,-103.125,26.929,298.859
2015-01-06 00:00:00,2015-01-06 00:00:00,TMP,surface,-102.188,26.929,297.611
2015-01-06 00:00:00,2015-01-06 00:00:00,TMP,surface,-101.25,26.929,298.494
2015-01-06 00:00:00,2015-01-06 00:00:00,TMP,surface,-100.313,26.929,300.789
2015-01-06 00:00:00,2015-01-06 00:00:00,TMP,surface,-99.3754,26.929,302.392
2015-01-06 00:00:00,2015-01-06 00:00:00,TMP,surface,-98.4379,26.929,301.083
2015-01-06 00:00:00,2015-01-06 00:00:00,TMP,surface,-97.5004,26.929,299.301
2015-01-06 00:00:00,2015-01-06 00:00:00,TMP,surface,-96.5629,26.929,300.088
2015-01-06 00:00:00,2015-01-06 00:00:00,TMP,surface,-95.6254,26.929,301.688
2015-01-06 00:00:00,2015-01-06 00:00:00,TMP,surface,-94.6879,26.929,301.982
2015-01-06 00:00:00,2015-01-06 00:00:00,TMP,surface,-93.7504,26.929,301.963
2015-01-06 00:00:00,2015-01-06 00:00:00,TMP,surface,-92.8129,26.929,301.921
2015-01-06 00:00:00,2015-01-06 00:00:00,TMP,surface,-107.813,27.8739,292.145
2015-01-06 00:00:00,2015-01-06 00:00:00,TMP,surface,-106.875,27.8739,291.253
2015-01-06 00:00:00,2015-01-06 00:00:00,TMP,surface,-105.938,27.8739,295.595
2015-01-06 00:00:00,2015-01-06 00:00:00,TMP,surface,-105,27.8739,299.749
2015-01-06 00:00:00,2015-01-06 00:00:00,TMP,surface,-104.063,27.8739,299.716
2015-01-06 00:00:00,2015-01-06 00:00:00,TMP,surface,-103.125,27.8739,297.377
2015-01-06 00:00:00,2015-01-06 00:00:00,TMP,surface,-102.188,27.8739,296.741
2015-01-06 00:00:00,2015-01-06 00:00:00,TMP,surface,-101.25,27.8739,299.198
2015-01-06 00:00:00,2015-01-06 00:00:00,TMP,surface,-100.313,27.8739,301.509
2015-01-06 00:00:00,2015-01-06 00:00:00,TMP,surface,-99.3754,27.8739,301.361
2015-01-06 00:00:00,2015-01-06 00:00:00,TMP,surface,-98.4379,27.8739,300.056
2015-01-06 00:00:00,2015-01-06 00:00:00,TMP,surface,-97.5004,27.8739,300.126
2015-01-06 00:00:00,2015-01-06 00:00:00,TMP,surface,-96.5629,27.8739,301.137
2015-01-06 00:00:00,2015-01-06 00:00:00,TMP,surface,-95.6254,27.8739,301.736
2015-01-06 00:00:00,2015-01-06 00:00:00,TMP,surface,-94.6879,27.8739,302.094
2015-01-06 00:00:00,2015-01-06 00:00:00,TMP,surface,-93.7504,27.8739,302.11
2015-01-06 00:00:00,2015-01-06 00:00:00,TMP,surface,-92.8129,27.8739,302.046
2015-01-06 00:00:00,2015-01-06 00:00:00,TMP,surface,-107.813,28.8188,291.576
2015-01-06 00:00:00,2015-01-06 00:00:00,TMP,surface,-106.875,28.8188,292.635
2015-01-06 00:00:00,2015-01-06 00:00:00,TMP,surface,-105.938,28.8188,297.685
2015-01-06 00:00:00,2015-01-06 00:00:00,TMP,surface,-105,28.8188,300.987
2015-01-06 00:00:00,2015-01-06 00:00:00,TMP,surface,-104.063,28.8188,299.553
2015-01-06 00:00:00,2015-01-06 00:00:00,TMP,surface,-103.125,28.8188,297.678
2015-01-06 00:00:00,2015-01-06 00:00:00,TMP,surface,-102.188,28.8188,297.08
2015-01-06 00:00:00,2015-01-06 00:00:00,TMP,surface,-101.25,28.8188,299.278
2015-01-06 00:00:00,2015-01-06 00:00:00,TMP,surface,-100.313,28.8188,300.078
2015-01-06 00:00:00,2015-01-06 00:00:00,TMP,surface,-99.3754,28.8188,299.297
2015-01-06 00:00:00,2015-01-06 00:00:00,TMP,surface,-98.4379,28.8188,298.584
2015-01-06 00:00:00,2015-01-06 00:00:00,TMP,surface,-97.5004,28.8188,298.581
2015-01-06 00:00:00,2015-01-06 00:00:00,TMP,surface,-96.5629,28.8188,299.237
2015-01-06 00:00:00,2015-01-06 00:00:00,TMP,surface,-95.6254,28.8188,300.052
2015-01-06 00:00:00,2015-01-06 00:00:00,TMP,surface,-94.6879,28.8188,300.686
2015-01-06 00:00:00,2015-01-06 00:00:00,TMP,surface,-93.7504,28.8188,301.384
2015-01-06 00:00:00,2015-01-06 00:00:00,TMP,surface,-92.8129,28.8188,301.489
2015-01-06 00:00:00,2015-01-06 00:00:00,TMP,surface,-107.813,29.7637,293.793
2015-01-06 00:00:00,2015-01-06 00:00:00,TMP,surface,-106.875,29.7637,295.592
2015-01-06 00:00:00,2015-01-06 00:00:00,TMP,surface,-105.938,29.7637,299.598
2015-01-06 00:00:00,2015-01-06 00:00:00,TMP,surface,-105,29.7637,300.596
2015-01-06 00:00:00,2015-01-06 00:00:00,TMP,surface,-104.063,29.7637,299.742
2015-01-06 00:00:00,2015-01-06 00:00:00,TMP,surface,-103.125,29.7637,298.99
2015-01-06 00:00:00,2015-01-06 00:00:00,TMP,surface,-102.188,29.7637,299.505
2015-01-06 00:00:00,2015-01-06 00:00:00,TMP,surface,-101.25,29.7637,299.886
2015-01-06 00:00:00,2015-01-06 00:00:00,TMP,surface,-100.313,29.7637,298.769
2015-01-06 00:00:00,2015-01-06 00:00:00,TMP,surface,-99.3754,29.7637,297.432
2015-01-06 00:00:00,2015-01-06 00:00:00,TMP,surface,-98.4379,29.7637,297.086
2015-01-06 00:00:00,2015-01-06 00:00:00,TMP,surface,-97.5004,29.7637,297.707
2015-01-06 00:00:00,2015-01-06 00:00:00,TMP,surface,-96.5629,29.7637,298.536
2015-01-06 00:00:00,2015-01-06 00:00:00,TMP,surface,-95.6254,29.7637,299.374
2015-01-06 00:00:00,2015-01-06 00:00:00,TMP,surface,-94.6879,29.7637,300.11
2015-01-06 00:00:00,2015-01-06 00:00:00,TMP,surface,-93.7504,29.7637,300.382
2015-01-06 00:00:00,2015-01-06 00:00:00,TMP,surface,-92.8129,29.7637,300.993
2015-01-06 00:00:00,2015-01-06 00:00:00,TMP,surface,-107.813,30.7085,297.982
2015-01-06 00:00:00,2015-01-06 00:00:00,TMP,surface,-106.875,30.7085,300.116
2015-01-06 00:00:00,2015-01-06 00:00:00,TMP,surface,-105.938,30.7085,300.696
2015-01-06 00:00:00,2015-01-06 00:00:00,TMP,surface,-105,30.7085,300.28
2015-01-06 00:00:00,2015-01-06 00:00:00,TMP,surface,-104.063,30.7085,299.349
2015-01-06 00:00:00,2015-01-06 00:00:00,TMP,surface,-103.125,30.7085,299.883
2015-01-06 00:00:00,2015-01-06 00:00:00,TMP,surface,-102.188,30.7085,300.465
2015-01-06 00:00:00,2015-01-06 00:00:00,TMP,surface,-101.25,30.7085,299.876
2015-01-06 00:00:00,2015-01-06 00:00:00,TMP,surface,-100.313,30.7085,298.484
2015-01-06 00:00:00,2015-01-06 00:00:00,TMP,surface,-99.3754,30.7085,297.345
2015-01-06 00:00:00,2015-01-06 00:00:00,TMP,surface,-98.4379,30.7085,297.397
2015-01-06 00:00:00,2015-01-06 00:00:00,TMP,surface,-97.5004,30.7085,298.129
2015-01-06 00:00:00,2015-01-06 00:00:00,TMP,surface,-96.5629,30.7085,299.211
2015-01-06 00:00:00,2015-01-06 00:00:00,TMP,surface,-95.6254,30.7085,300.164
2015-01-06 00:00:00,2015-01-06 00:00:00,TMP,surface,-94.6879,30.7085,300.395
2015-01-06 00:00:00,2015-01-06 00:00:00,TMP,surface,-93.7504,30.7085,300.641
2015-01-06 00:00:00,2015-01-06 00:00:00,TMP,surface,-92.8129,30.7085,300.488
2015-01-06 00:00:00,2015-01-06 00:00:00,TMP,surface,-107.813,31.6534,299.88
2015-01-06 00:00:00,2015-01-06 00:00:00,TMP,surface,-106.875,31.6534,301.141
2015-01-06 00:00:00,2015-01-06 00:00:00,TMP,surface,-105.938,31.6534,300.353
2015-01-06 00:00:00,2015-01-06 00:00:00,TMP,surface,-105,31.6534,299.928
2015-01-06 00:00:00,2015-01-06 00:00:00,TMP,surface,-104.063,31.6534,299.995
2015-01-06 00:00:00,2015-01-06 00:00:00,TMP,surface,-103.125,31.6534,300.417
2015-01-06 00:00:00,2015-01-06 00:00:00,TMP,surface,-102.188,31.6534,300.616
2015-01-06 00:00:00,2015-01-06 00:00:00,TMP,surface,-101.25,31.6534,299.953
2015-01-06 00:00:00,2015-01-06 00:00:00,TMP,surface,-100.313,31.6534,299.156
2015-01-06 00:00:00,2015-01-06 00:00:00,TMP,surface,-99.3754,31.6534,298.459
2015-01-06 00:00:00,2015-01-06 00:00:00,TMP,surface,-98.4379,31.6534,298.436
2015-01-06 00:00:00,2015-01-06 00:00:00,TMP,surface,-97.5004,31.6534,299.006
2015-01-06 00:00:00,2015-01-06 00:00:00,TMP,surface,-96.5629,31.6534,299.909
2015-01-06 00:00:00,2015-01-06 00:00:00,TMP,surface,-95.6254,31.6534,300.517
2015-01-06 00:00:00,2015-01-06 00:00:00,TMP,surface,-94.6879,31.6534,300.427
2015-01-06 00:00:00,2015-01-06 00:00:00,TMP,surface,-93.7504,31.6534,300.488
2015-01-06 00:00:00,2015-01-06 00:00:00,TMP,surface,-92.8129,31.6534,300.609
2015-01-06 00:00:00,2015-01-06 00:00:00,TMP,surface,-107.813,32.5983,296.744
2015-01-06 00:00:00,2015-01-06 00:00:00,TMP,surface,-106.875,32.5983,297.79
2015-01-06 00:00:00,2015-01-06 00:00:00,TMP,surface,-105.938,32.5983,298.552
2015-01-06 00:00:00,2015-01-06 00:00:00,TMP,surface,-105,32.5983,298.481
2015-01-06 00:00:00,2015-01-06 00:00:00,TMP,surface,-104.063,32.5983,299.477
2015-01-06 00:00:00,2015-01-06 00:00:00,TMP,surface,-103.125,32.5983,299.985
2015-01-06 00:00:00,2015-01-06 00:00:00,TMP,surface,-102.188,32.5983,299.912
2015-01-06 00:00:00,2015-01-06 00:00:00,TMP,surface,-101.25,32.5983,299.685
2015-01-06 00:00:00,2015-01-06 00:00:00,TMP,surface,-100.313,32.5983,299.828
2015-01-06 00:00:00,2015-01-06 00:00:00,TMP,surface,-99.3754,32.5983,299.608
2015-01-06 00:00:00,2015-01-06 00:00:00,TMP,surface,-98.4379,32.5983,299.332
2015-01-06 00:00:00,2015-01-06 00:00:00,TMP,surface,-97.5004,32.5983,299.444
2015-01-06 00:00:00,2015-01-06 00:00:00,TMP,surface,-96.5629,32.5983,300.107
2015-01-06 00:00:00,2015-01-06 00:00:00,TMP,surface,-95.6254,32.5983,300.878
2015-01-06 00:00:00,2015-01-06 00:00:00,TMP,surface,-94.6879,32.5983,301.025
2015-01-06 00:00:00,2015-01-06 00:00:00,TMP,surface,-93.7504,32.5983,300.849
2015-01-06 00:00:00,2015-01-06 00:00:00,TMP,surface,-92.8129,32.5983,301.051
2015-01-06 00:00:00,2015-01-06 00:00:00,TMP,surface,-107.813,33.5432,291.892
2015-01-06 00:00:00,2015-01-06 00:00:00,TMP,surface,-106.875,33.5432,293.377
2015-01-06 00:00:00,2015-01-06 00:00:00,TMP,surface,-105.938,33.5432,294.744
2015-01-06 00:00:00,2015-01-06 00:00:00,TMP,surface,-105,33.5432,296.923
2015-01-06 00:00:00,2015-01-06 00:00:00,TMP,surface,-104.063,33.5432,298.977
2015-01-06 00:00:00,2015-01-06 00:00:00,TMP,surface,-103.125,33.5432,299.019
2015-01-06 00:00:00,2015-01-06 00:00:00,TMP,surface,-102.188,33.5432,298.44
2015-01-06 00:00:00,2015-01-06 00:00:00,TMP,surface,-101.25,33.5432,298.478
2015-01-06 00:00:00,2015-01-06 00:00:00,TMP,surface,-100.313,33.5432,299.704
2015-01-06 00:00:00,2015-01-06 00:00:00,TMP,surface,-99.3754,33.5432,300.388
2015-01-06 00:00:00,2015-01-06 00:00:00,TMP,surface,-98.4379,33.5432,299.979
2015-01-06 00:00:00,2015-01-06 00:00:00,TMP,surface,-97.5004,33.5432,299.509
2015-01-06 00:00:00,2015-01-06 00:00:00,TMP,surface,-96.5629,33.5432,299.531
2015-01-06 00:00:00,2015-01-06 00:00:00,TMP,surface,-95.6254,33.5432,300.088
2015-01-06 00:00:00,2015-01-06 00:00:00,TMP,surface,-94.6879,33.5432,300.75
2015-01-06 00:00:00,2015-01-06 00:00:00,TMP,surface,-93.7504,33.5432,300.712
2015-01-06 00:00:00,2015-01-06 00:00:00,TMP,surface,-92.8129,33.5432,300.907
2015-01-06 00:00:00,2015-01-06 00:00:00,TMP,surface,-107.813,34.4881,290.574
2015-01-06 00:00:00,2015-01-06 00:00:00,TMP,surface,-106.875,34.4881,292.385
2015-01-06 00:00:00,2015-01-06 00:00:00,TMP,surface,-105.938,34.4881,293.841
2015-01-06 00:00:00,2015-01-06 00:00:00,TMP,surface,-105,34.4881,296.065
2015-01-06 00:00:00,2015-01-06 00:00:00,TMP,surface,-104.063,34.4881,297.803
2015-01-06 00:00:00,2015-01-06 00:00:00,TMP,surface,-103.125,34.4881,297.915
2015-01-06 00:00:00,2015-01-06 00:00:00,TMP,surface,-102.188,34.4881,297.563
2015-01-06 00:00:00,2015-01-06 00:00:00,TMP,surface,-101.25,34.4881,298.033
2015-01-06 00:00:00,2015-01-06 00:00:00,TMP,surface,-100.313,34.4881,299.243
2015-01-06 00:00:00,2015-01-06 00:00:00,TMP,surface,-99.3754,34.4881,300.264
2015-01-06 00:00:00,2015-01-06 00:00:00,TMP,surface,-98.4379,34.4881,300.139
2015-01-06 00:00:00,2015-01-06 00:00:00,TMP,surface,-97.5004,34.4881,299.444
2015-01-06 00:00:00,2015-01-06 00:00:00,TMP,surface,-96.5629,34.4881,299.601
2015-01-06 00:00:00,2015-01-06 00:00:00,TMP,surface,-95.6254,34.4881,300.408
2015-01-06 00:00:00,2015-01-06 00:00:00,TMP,surface,-94.6879,34.4881,300.449
2015-01-06 00:00:00,2015-01-06 00:00:00,TMP,surface,-93.7504,34.4881,300.04
2015-01-06 00:00:00,2015-01-06 00:00:00,TMP,surface,-92.8129,34.4881,300.436
2015-01-06 00:00:00,2015-01-06 00:00:00,TMP,surface,-107.813,35.4329,291.784
2015-01-06 00:00:00,2015-01-06 00:00:00,TMP,surface,-106.875,35.4329,292.161
2015-01-06 00:00:00,2015-01-06 00:00:00,TMP,surface,-105.938,35.4329,292.312
2015-01-06 00:00:00,2015-01-06 00:00:00,TMP,surface,-105,35.4329,293.316
2015-01-06 00:00:00,2015-01-06 00:00:00,TMP,surface,-104.063,35.4329,296.814
2015-01-06 00:00:00,2015-01-06 00:00:00,TMP,surface,-103.125,35.4329,298.388
2015-01-06 00:00:00,2015-01-06 00:00:00,TMP,surface,-102.188,35.4329,298.561
2015-01-06 00:00:00,2015-01-06 00:00:00,TMP,surface,-101.25,35.4329,298.667
2015-01-06 00:00:00,2015-01-06 00:00:00,TMP,surface,-100.313,35.4329,299.003
2015-01-06 00:00:00,2015-01-06 00:00:00,TMP,surface,-99.3754,35.4329,300.062
2015-01-06 00:00:00,2015-01-06 00:00:00,TMP,surface,-98.4379,35.4329,300.382
2015-01-06 00:00:00,2015-01-06 00:00:00,TMP,surface,-97.5004,35.4329,299.841
2015-01-06 00:00:00,2015-01-06 00:00:00,TMP,surface,-96.5629,35.4329,299.553
2015-01-06 00:00:00,2015-01-06 00:00:00,TMP,surface,-95.6254,35.4329,300.043
2015-01-06 00:00:00,2015-01-06 00:00:00,TMP,surface,-94.6879,35.4329,300.446
2015-01-06 00:00:00,2015-01-06 00:00:00,TMP,surface,-93.7504,35.4329,299.809
2015-01-06 00:00:00,2015-01-06 00:00:00,TMP,surface,-92.8129,35.4329,299.72
2015-01-06 00:00:00,2015-01-06 00:00:00,TMP,surface,-107.813,36.3778,292.081
2015-01-06 00:00:00,2015-01-06 00:00:00,TMP,surface,-106.875,36.3778,289.413
2015-01-06 00:00:00,2015-01-06 00:00:00,TMP,surface,-105.938,36.3778,289.55
2015-01-06 00:00:00,2015-01-06 00:00:00,TMP,surface,-105,36.3778,290.814
2015-01-06 00:00:00,2015-01-06 00:00:00,TMP,surface,-104.063,36.3778,294.424
2015-01-06 00:00:00,2015-01-06 00:00:00,TMP,surface,-103.125,36.3778,297.24
2015-01-06 00:00:00,2015-01-06 00:00:00,TMP,surface,-102.188,36.3778,298.603
2015-01-06 00:00:00,2015-01-06 00:00:00,TMP,surface,-101.25,36.3778,299.272
2015-01-06 00:00:00,2015-01-06 00:00:00,TMP,surface,-100.313,36.3778,299.729
2015-01-06 00:00:00,2015-01-06 00:00:00,TMP,surface,-99.3754,36.3778,300.267
2015-01-06 00:00:00,2015-01-06 00:00:00,TMP,surface,-98.4379,36.3778,300.625
2015-01-06 00:00:00,2015-01-06 00:00:00,TMP,surface,-97.5004,36.3778,300.35
2015-01-06 00:00:00,2015-01-06 00:00:00,TMP,surface,-96.5629,36.3778,299.928
2015-01-06 00:00:00,2015-01-06 00:00:00,TMP,surface,-95.6254,36.3778,300.161
2015-01-06 00:00:00,2015-01-06 00:00:00,TMP,surface,-94.6879,36.3778,300.376
2015-01-06 00:00:00,2015-01-06 00:00:00,TMP,surface,-93.7504,36.3778,299.624
2015-01-06 00:00:00,2015-01-06 00:00:00,TMP,surface,-92.8129,36.3778,299.297
2015-01-06 00:00:00,2015-01-06 00:00:00,PRATE,surface,-107.813,25.0393,4.1e-06
2015-01-06 00:00:00,2015-01-06 00:00:00,PRATE,surface,-106.875,25.0393,0.0001157
2015-01-06 00:00:00,2015-01-06 00:00:00,PRATE,surface,-105.938,25.0393,0.0001594
2015-01-06 00:00:00,2015-01-06 00:00:00,PRATE,surface,-105,25.0393,9.97e-05
2015-01-06 00:00:00,2015-01-06 00:00:00,PRATE,surface,-104.063,25.0393,3.55e-05
2015-01-06 00:00:00,2015-01-06 00:00:00,PRATE,surface,-103.125,25.0393,6.2e-06
2015-01-06 00:00:00,2015-01-06 00:00:00,PRATE,surface,-102.188,25.0393,1.09e-05
2015-01-06 00:00:00,2015-01-06 00:00:00,PRATE,surface,-101.25,25.0393,2.12e-05
2015-01-06 00:00:00,2015-01-06 00:00:00,PRATE,surface,-100.313,25.0393,4.96e-05
2015-01-06 00:00:00,2015-01-06 00:00:00,PRATE,surface,-99.3754,25.0393,3.76e-05
2015-01-06 00:00:00,2015-01-06 00:00:00,PRATE,surface,-98.4379,25.0393,3.27e-05
2015-01-06 00:00:00,2015-01-06 00:00:00,PRATE,surface,-97.5004,25.0393,4.39e-05
2015-01-06 00:00:00,2015-01-06 00:00:00,PRATE,surface,-96.5629,25.0393,3.34e-05
2015-01-06 00:00:00,2015-01-06 00:00:00,PRATE,surface,-95.6254,25.0393,1.6e-05
2015-01-06 00:00:00,2015-01-06 00:00:00,PRATE,surface,-94.6879,25.0393,2.19e-05
2015-01-06 00:00:00,2015-01-06 00:00:00,PRATE,surface,-93.7504,25.0393,5.8e-05
2015-01-06 00:00:00,2015-01-06 00:00:00,PRATE,surface,-92.8129,25.0393,6.98e-05
2015-01-06 00:00:00,2015-01-06 00:00:00,PRATE,surface,-107.813,25.9842,6.85e-05
2015-01-06 00:00:00,2015-01-06 00:00:00,PRATE,surface,-106.875,25.9842,0.000151
2015-01-06 00:00:00,2015-01-06 00:00:00,PRATE,surface,-105.938,25.9842,9.48e-05
2015-01-06 00:00:00,2015-01-06 00:00:00,PRATE,surface,-105,25.9842,3.55e-05
2015-01-06 00:00:00,2015-01-06 00:00:00,PRATE,surface,-104.063,25.9842,8.6e-06
2015-01-06 00:00:00,2015-01-06 00:00:00,PRATE,surface,-103.125,25.9842,1.6e-06
2015-01-06 00:00:00,2015-01-06 00:00:00,PRATE,surface,-102.188,25.9842,1.1e-06
2015-01-06 00:00:00,2015-01-06 00:00:00,PRATE,surface,-101.25,25.9842,9.3e-06
2015-01-06 00:00:00,2015-01-06 00:00:00,PRATE,surface,-100.313,25.9842,2.27e-05
2015-01-06 00:00:00,2015-01-06 00:00:00,PRATE,surface,-99.3754,25.9842,1.61e-05
2015-01-06 00:00:00,2015-01-06 00:00:00,PRATE,surface,-98.4379,25.9842,2.15e-05
2015-01-06 00:00:00,2015-01-06 00:00:00,PRATE,surface,-97.5004,25.9842,4.85e-05
2015-01-06 00:00:00,2015-01-06 00:00:00,PRATE,surface,-96.5629,25.9842,3.86e-05
2015-01-06 00:00:00,2015-01-06 00:00:00,PRATE,surface,-95.6254,25.9842,4.36e-05
2015-01-06 00:00:00,2015-01-06 00:00:00,PRATE,surface,-94.6879,25.9842,4.24e-05
2015-01-06 00:00:00,2015-01-06 00:00:00,PRATE,surface,-93.7504,25.9842,4.51e-05
2015-01-06 00:00:00,2015-01-06 00:00:00,PRATE,surface,-92.8129,25.9842,4.38e-05
2015-01-06 00:00:00,2015-01-06 00:00:00,PRATE,surface,-107.813,26.929,0.0001271
2015-01-06 00:00:00,2015-01-06 00:00:00,PRATE,surface,-106.875,26.929,9.26e-05
2015-01-06 00:00:00,2015-01-06 00:00:00,PRATE,surface,-105.938,26.929,5.2e-05
2015-01-06 00:00:00,2015-01-06 00:00:00,PRATE,surface,-105,26.929,2.11e-05
2015-01-06 00:00:00,2015-01-06 00:00:00,PRATE,surface,-104.063,26.929,2.21e-05
2015-01-06 00:00:00,2015-01-06 00:00:00,PRATE,surface,-103.125,26.929,1.33e-05
2015-01-06 00:00:00,2015-01-06 00:00:00,PRATE,surface,-102.188,26.929,9.2e-06
2015-01-06 00:00:00,2015-01-06 00:00:00,PRATE,surface,-101.25,26.929,1.16e-05
2015-01-06 00:00:00,2015-01-06 00:00:00,PRATE,surface,-100.313,26.929,4.7e-06
2015-01-06 00:00:00,2015-01-06 00:00:00,PRATE,surface,-99.3754,26.929,9.6e-06
2015-01-06 00:00:00,2015-01-06 00:00:00,PRATE,surface,-98.4379,26.929,3.94e-05
2015-01-06 00:00:00,2015-01-06 00:00:00,PRATE,surface,-97.5004,26.929,3.88e-05
2015-01-06 00:00:00,2015-01-06 00:00:00,PRATE,surface,-96.5629,26.929,3.86e-05
2015-01-06 00:00:00,2015-01-06 00:00:00,PRATE,surface,-95.6254,26.929,4.37e-05
2015-01-06 00:00:00,2015-01-06 00:00:00,PRATE,surface,-94.6879,26.929,3.14e-05
2015-01-06 00:00:00,2015-01-06 00:00:00,PRATE,surface,-93.7504,26.929,2.68e-05
2015-01-06 00:00:00,2015-01-06 00:00:00,PRATE,surface,-92.8129,26.929,2.87e-05
2015-01-06 00:00:00,2015-01-06 00:00:00,PRATE,surface,-107.813,27.8739,0.000149
2015-01-06 00:00:00,2015-01-06 00:00:00,PRATE,surface,-106.875,27.8739,6.61e-05
2015-01-06 00:00:00,2015-01-06 00:00:00,PRATE,surface,-105.938,27.8739,1.42e-05
2015-01-06 00:00:00,2015-01-06 00:00:00,PRATE,surface,-105,27.8739,1.26e-05
2015-01-06 00:00:00,2015-01-06 00:00:00,PRATE,surface,-104.063,27.8739,1.83e-05
2015-01-06 00:00:00,2015-01-06 00:00:00,PRATE,surface,-103.125,27.8739,2.49e-05
2015-01-06 00:00:00,2015-01-06 00:00:00,PRATE,surface,-102.188,27.8739,2.28e-05
2015-01-06 00:00:00,2015-01-06 00:00:00,PRATE,surface,-101.25,27.8739,1.04e-05
2015-01-06 00:00:00,2015-01-06 00:00:00,PRATE,surface,-100.313,27.8739,6.7e-06
2015-01-06 00:00:00,2015-01-06 00:00:00,PRATE,surface,-99.3754,27.8739,2.8e-05
2015-01-06 00:00:00,2015-01-06 00:00:00,PRATE,surface,-98.4379,27.8739,4.8e-05
2015-01-06 00:00:00,2015-01-06 00:00:00,PRATE,surface,-97.5004,27.8739,3.94e-05
2015-01-06 00:00:00,2015-01-06 00:00:00,PRATE,surface,-96.5629,27.8739,2.22e-05
2015-01-06 00:00:00,2015-01-06 00:00:00,PRATE,surface,-95.6254,27.8739,2.41e-05
2015-01-06 00:00:00,2015-01-06 00:00:00,PRATE,surface,-94.6879,27.8739,3.53e-05
2015-01-06 00:00:00,2015-01-06 00:00:00,PRATE,surface,-93.7504,27.8739,3.73e-05
2015-01-06 00:00:00,2015-01-06 00:00:00,PRATE,surface,-92.8129,27.8739,3.03e-05
2015-01-06 00:00:00,2015-01-06 00:00:00,PRATE,surface,-107.813,28.8188,0.0001177
2015-01-06 00:00:00,2015-01-06 00:00:00,PRATE,surface,-106.875,28.8188,5.28e-05
2015-01-06 00:00:00,2015-01-06 00:00:00,PRATE,surface,-105.938,28.8188,4e-06
2015-01-06 00:00:00,2015-01-06 00:00:00,PRATE,surface,-105,28.8188,5.7e-06
2015-01-06 00:00:00,2015-01-06 00:00:00,PRATE,surface,-104.063,28.8188,6e-06
2015-01-06 00:00:00,2015-01-06 00:00:00,PRATE,surface,-103.125,28.8188,6.4e-06
2015-01-06 00:00:00,2015-01-06 00:00:00,PRATE,surface,-102.188,28.8188,6.2e-06
2015-01-06 00:00:00,2015-01-06 00:00:00,PRATE,surface,-101.25,28.8188,4.8e-06
2015-01-06 00:00:00,2015-01-06 00:00:00,PRATE,surface,-100.313,28.8188,1.11e-05
2015-01-06 00:00:00,2015-01-06 00:00:00,PRATE,surface,-99.3754,28.8188,2.95e-05
2015-01-06 00:00:00,2015-01-06 00:00:00,PRATE,surface,-98.4379,28.8188,5.76e-05
2015-01-06 00:00:00,2015-01-06 00:00:00,PRATE,surface,-97.5004,28.8188,6.2e-05
2015-01-06 00:00:00,2015-01-06 00:00:00,PRATE,surface,-96.5629,28.8188,4.79e-05
2015-01-06 00:00:00,2015-01-06 00:00:00,PRATE,surface,-95.6254,28.8188,3.6e-05
2015-01-06 00:00:00,2015-01-06 00:00:00,PRATE,surface,-94.6879,28.8188,2.21e-05
2015-01-06 00:00:00,2015-01-06 00:00:00,PRATE,surface,-93.7504,28.8188,1.6e-05
2015-01-06 00:00:00,2015-01-06 00:00:00,PRATE,surface,-92.8129,28.8188,1.26e-05
2015-01-06 00:00:00,2015-01-06 00:00:00,PRATE,surface,-107.813,29.7637,7.26e-05
2015-01-06 00:00:00,2015-01-06 00:00:00,PRATE,surface,-106.875,29.7637,5.12e-05
2015-01-06 00:00:00,2015-01-06 00:00:00,PRATE,surface,-105.938,29.7637,6.5e-06
2015-01-06 00:00:00,2015-01-06 00:00:00,PRATE,surface,-105,29.7637,4.4e-06
2015-01-06 00:00:00,2015-01-06 00:00:00,PRATE,surface,-104.063,29.7637,1e-06
2015-01-06 00:00:00,2015-01-06 00:00:00,PRATE,surface,-103.125,29.7637,2e-07
2015-01-06 00:00:00,2015-01-06 00:00:00,PRATE,surface,-102.188,29.7637,1e-07
2015-01-06 00:00:00,2015-01-06 00:00:00,PRATE,surface,-101.25,29.7637,3e-07
2015-01-06 00:00:00,2015-01-06 00:00:00,PRATE,surface,-100.313,29.7637,7.3e-06
2015-01-06 00:00:00,2015-01-06 00:00:00,PRATE,surface,-99.3754,29.7637,3.38e-05
2015-01-06 00:00:00,2015-01-06 00:00:00,PRATE,surface,-98.4379,29.7637,4.8e-05
2015-01-06 00:00:00,2015-01-06 00:00:00,PRATE,surface,-97.5004,29.7637,3.67e-05
2015-01-06 00:00:00,2015-01-06 00:00:00,PRATE,surface,-96.5629,29.7637,2.68e-05
2015-01-06 00:00:00,2015-01-06 00:00:00,PRATE,surface,-95.6254,29.7637,3.06e-05
2015-01-06 00:00:00,2015-01-06 00:00:00,PRATE,surface,-94.6879,29.7637,2.71e-05
2015-01-06 00:00:00,2015-01-06 00:00:00,PRATE,surface,-93.7504,29.7637,1.57e-05
2015-01-06 00:00:00,2015-01-06 00:00:00,PRATE,surface,-92.8129,29.7637,2.3e-05
2015-01-06 00:00:00,2015-01-06 00:00:00,PRATE,surface,-107.813,30.7085,3.22e-05
2015-01-06 00:00:00,2015-01-06 00:00:00,PRATE,surface,-106.875,30.7085,1.21e-05
2015-01-06 00:00:00,2015-01-06 00:00:00,PRATE,surface,-105.938,30.7085,7.4e-06
2015-01-06 00:00:00,2015-01-06 00:00:00,PRATE,surface,-105,30.7085,2e-06
2015-01-06 00:00:00,2015-01-06 00:00:00,PRATE,surface,-104.063,30.7085,2e-07
2015-01-06 00:00:00,2015-01-06 00:00:00,PRATE,surface,-103.125,30.7085,1e-07
2015-01-06 00:00:00,2015-01-06 00:00:00,PRATE,surface,-102.188,30.7085,1e-07
2015-01-06 00:00:00,2015-01-06 00:00:00,PRATE,surface,-101.25,30.7085,2e-07
2015-01-06 00:00:00,2015-01-06 00:00:00,PRATE,surface,-100.313,30.7085,6.5e-06
2015-01-06 00:00:00,2015-01-06 00:00:00,PRATE,surface,-99.3754,30.7085,1.76e-05
2015-01-06 00:00:00,2015-01-06 00:00:00,PRATE,surface,-98.4379,30.7085,2.06e-05
2015-01-06 00:00:00,2015-01-06 00:00:00,PRATE,surface,-97.5004,30.7085,1.72e-05
2015-01-06 00:00:00,2015-01-06 00:00:00,PRATE,surface,-96.5629,30.7085,1.68e-05
2015-01-06 00:00:00,2015-01-06 00:00:00,PRATE,surface,-95.6254,30.7085,1.94e-05
2015-01-06 00:00:00,2015-01-06 00:00:00,PRATE,surface,-94.6879,30.7085,2.07e-05
2015-01-06 00:00:00,2015-01-06 00:00:00,PRATE,surface,-93.7504,30.7085,1.93e-05
2015-01-06 00:00:00,2015-01-06 00:00:00,PRATE,surface,-92.8129,30.7085,2.1e-05
2015-01-06 00:00:00,2015-01-06 00:00:00,PRATE,surface,-107.813,31.6534,1.53e-05
2015-01-06 00:00:00,2015-01-06 00:00:00,PRATE,surface,-106.875,31.6534,8.3e-06
2015-01-06 00:00:00,2015-01-06 00:00:00,PRATE,surface,-105.938,31.6534,7.6e-06
2015-01-06 00:00:00,2015-01-06 00:00:00,PRATE,surface,-105,31.6534,2.5e-06
2015-01-06 00:00:00,2015-01-06 00:00:00,PRATE,surface,-104.063,31.6534,2e-07
2015-01-06 00:00:00,2015-01-06 00:00:00,PRATE,surface,-103.125,31.6534,0
2015-01-06 00:00:00,2015-01-06 00:00:00,PRATE,surface,-102.188,31.6534,2e-07
2015-01-06 00:00:00,2015-01-06 00:00:00,PRATE,surface,-101.25,31.6534,7e-07
2015-01-06 00:00:00,2015-01-06 00:00:00,PRATE,surface,-100.313,31.6534,2.9e-06
2015-01-06 00:00:00,2015-01-06 00:00:00,PRATE,surface,-99.3754,31.6534,5.7e-06
2015-01-06 00:00:00,2015-01-06 00:00:00,PRATE,surface,-98.4379,31.6534,9.8e-06
2015-01-06 00:00:00,2015-01-06 00:00:00,PRATE,surface,-97.5004,31.6534,1.2e-05
2015-01-06 00:00:00,2015-01-06 00:00:00,PRATE,surface,-96.5629,31.6534,1.25e-05
2015-01-06 00:00:00,2015-01-06 00:00:00,PRATE,surface,-95.6254,31.6534,1.73e-05
2015-01-06 00:00:00,2015-01-06 00:00:00,PRATE,surface,-94.6879,31.6534,2.29e-05
2015-01-06 00:00:00,2015-01-06 00:00:00,PRATE,surface,-93.7504,31.6534,2.37e-05
2015-01-06 00:00:00,2015-01-06 00:00:00,PRATE,surface,-92.8129,31.6534,3.6e-05
2015-01-06 00:00:00,2015-01-06 00:00:00,PRATE,surface,-107.813,32.5983,3.91e-05
2015-01-06 00:00:00,2015-01-06 00:00:00,PRATE,surface,-106.875,32.5983,2.06e-05
2015-01-06 00:00:00,2015-01-06 00:00:00,PRATE,surface,-105.938,32.5983,5.3e-06
2015-01-06 00:00:00,2015-01-06 00:00:00,PRATE,surface,-105,32.5983,3.6e-06
2015-01-06 00:00:00,2015-01-06 00:00:00,PRATE,surface,-104.063,32.5983,6e-07
2015-01-06 00:00:00,2015-01-06 00:00:00,PRATE,surface,-103.125,32.5983,1.3e-06
2015-01-06 00:00:00,2015-01-06 00:00:00,PRATE,surface,-102.188,32.5983,6e-07
2015-01-06 00:00:00,2015-01-06 00:00:00,PRATE,surface,-101.25,32.5983,3.3e-06
2015-01-06 00:00:00,2015-01-06 00:00:00,PRATE,surface,-100.313,32.5983,4.8e-06
2015-01-06 00:00:00,2015-01-06 00:00:00,PRATE,surface,-99.3754,32.5983,6.7e-06
2015-01-06 00:00:00,2015-01-06 00:00:00,PRATE,surface,-98.4379,32.5983,6.6e-06
2015-01-06 00:00:00,2015-01-06 00:00:00,PRATE,surface,-97.5004,32.5983,6.2e-06
2015-01-06 00:00:00,2015-01-06 00:00:00,PRATE,surface,-96.5629,32.5983,7.8e-06
2015-01-06 00:00:00,2015-01-06 00:00:00,PRATE,surface,-95.6254,32.5983,9.6e-06
2015-01-06 00:00:00,2015-01-06 00:00:00,PRATE,surface,-94.6879,32.5983,1.41e-05
2015-01-06 00:00:00,2015-01-06 00:00:00,PRATE,surface,-93.7504,32.5983,2.45e-05
2015-01-06 00:00:00,2015-01-06 00:00:00,PRATE,surface,-92.8129,32.5983,3.03e-05
2015-01-06 00:00:00,2015-01-06 00:00:00,PRATE,surface,-107.813,33.5432,7.87e-05
2015-01-06 00:00:00,2015-01-06 00:00:00,PRATE,surface,-106.875,33.5432,6.41e-05
2015-01-06 00:00:00,2015-01-06 00:00:00,PRATE,surface,-105.938,33.5432,3.78e-05
2015-01-06 00:00:00,2015-01-06 00:00:00,PRATE,surface,-105,33.5432,1.04e-05
2015-01-06 00:00:00,2015-01-06 00:00:00,PRATE,surface,-104.063,33.5432,9.5e-06
2015-01-06 00:00:00,2015-01-06 00:00:00,PRATE,surface,-103.125,33.5432,8.6e-06
2015-01-06 00:00:00,2015-01-06 00:00:00,PRATE,surface,-102.188,33.5432,1.2e-05
2015-01-06 00:00:00,2015-01-06 00:00:00,PRATE,surface,-101.25,33.5432,1.71e-05
2015-01-06 00:00:00,2015-01-06 00:00:00,PRATE,surface,-100.313,33.5432,1.1e-05
2015-01-06 00:00:00,2015-01-06 00:00:00,PRATE,surface,-99.3754,33.5432,5.3e-06
2015-01-06 00:00:00,2015-01-06 00:00:00,PRATE,surface,-98.4379,33.5432,6.5e-06
2015-01-06 00:00:00,2015-01-06 00:00:00,PRATE,surface,-97.5004,33.5432,1.06e-05
2015-01-06 00:00:00,2015-01-06 00:00:00,PRATE,surface,-96.5629,33.5432,1.1e-05
2015-01-06 00:00:00,2015-01-06 00:00:00,PRATE,surface,-95.6254,33.5432,9.3e-06
2015-01-06 00:00:00,2015-01-06 00:00:00,PRATE,surface,-94.6879,33.5432,1.25e-05
2015-01-06 00:00:00,2015-01-06 00:00:00,PRATE,surface,-93.7504,33.5432,1.8e-05
2015-01-06 00:00:00,2015-01-06 00:00:00,PRATE,surface,-92.8129,33.5432,2.14e-05
2015-01-06 00:00:00,2015-01-06 00:00:00,PRATE,surface,-107.813,34.4881,8.79e-05
2015-01-06 00:00:00,2015-01-06 00:00:00,PRATE,surface,-106.875,34.4881,4.58e-05
2015-01-06 00:00:00,2015-01-06 00:00:00,PRATE,surface,-105.938,34.4881,3.08e-05
2015-01-06 00:00:00,2015-01-06 00:00:00,PRATE,surface,-105,34.4881,2.22e-05
2015-01-06 00:00:00,2015-01-06 00:00:00,PRATE,surface,-104.063,34.4881,2.1e-05
2015-01-06 00:00:00,2015-01-06 00:00:00,PRATE,surface,-103.125,34.4881,2.11e-05
2015-01-06 00:00:00,2015-01-06 00:00:00,PRATE,surface,-102.188,34.4881,4e-05
2015-01-06 00:00:00,2015-01-06 00:00:00,PRATE,surface,-101.25,34.4881,4.4e-05
2015-01-06 00:00:00,2015-01-06 00:00:00,PRATE,surface,-100.313,34.4881,2.81e-05
2015-01-06 00:00:00,2015-01-06 00:00:00,PRATE,surface,-99.3754,34.4881,1.11e-05
2015-01-06 00:00:00,2015-01-06 00:00:00,PRATE,surface,-98.4379,34.4881,5.3e-06
2015-01-06 00:00:00,2015-01-06 00:00:00,PRATE,surface,-97.5004,34.4881,9.6e-06
2015-01-06 00:00:00,2015-01-06 00:00:00,PRATE,surface,-96.5629,34.4881,1.33e-05
2015-01-06 00:00:00,2015-01-06 00:00:00,PRATE,surface,-95.6254,34.4881,1.17e-05
2015-01-06 00:00:00,2015-01-06 00:00:00,PRATE,surface,-94.6879,34.4881,1.26e-05
2015-01-06 00:00:00,2015-01-06 00:00:00,PRATE,surface,-93.7504,34.4881,1.91e-05
2015-01-06 00:00:00,2015-01-06 00:00:00,PRATE,surface,-92.8129,34.4881,2.3e-05
2015-01-06 00:00:00,2015-01-06 00:00:00,PRATE,surface,-107.813,35.4329,5.58e-05
2015-01-06 00:00:00,2015-01-06 00:00:00,PRATE,surface,-106.875,35.4329,4.04e-05
2015-01-06 00:00:00,2015-01-06 00:00:00,PRATE,surface,-105.938,35.4329,3.82e-05
2015-01-06 00:00:00,2015-01-06 00:00:00,PRATE,surface,-105,35.4329,4.78e-05
2015-01-06 00:00:00,2015-01-06 00:00:00,PRATE,surface,-104.063,35.4329,3.03e-05
2015-01-06 00:00:00,2015-01-06 00:00:00,PRATE,surface,-103.125,35.4329,3.2e-05
2015-01-06 00:00:00,2015-01-06 00:00:00,PRATE,surface,-102.188,35.4329,3.4e-05
2015-01-06 00:00:00,2015-01-06 00:00:00,PRATE,surface,-101.25,35.4329,2.79e-05
2015-01-06 00:00:00,2015-01-06 00:00:00,PRATE,surface,-100.313,35.4329,1.53e-05
2015-01-06 00:00:00,2015-01-06 00:00:00,PRATE,surface,-99.3754,35.4329,5e-06
2015-01-06 00:00:00,2015-01-06 00:00:00,PRATE,surface,-98.4379,35.4329,2.8e-06
2015-01-06 00:00:00,2015-01-06 00:00:00,PRATE,surface,-97.5004,35.4329,5.6e-06
2015-01-06 00:00:00,2015-01-06 00:00:00,PRATE,surface,-96.5629,35.4329,6.6e-06
2015-01-06 00:00:00,2015-01-06 00:00:00,PRATE,surface,-95.6254,35.4329,6.6e-06
2015-01-06 00:00:00,2015-01-06 00:00:00,PRATE,surface,-94.6879,35.4329,1.2e-05
2015-01-06 00:00:00,2015-01-06 00:00:00,PRATE,surface,-93.7504,35.4329,2.17e-05
2015-01-06 00:00:00,2015-01-06 00:00:00,PRATE,surface,-92.8129,35.4329,2.53e-05
2015-01-06 00:00:00,2015-01-06 00:00:00,PRATE,surface,-107.813,36.3778,5.13e-05
2015-01-06 00:00:00,2015-01-06 00:00:00,PRATE,surface,-106.875,36.3778,6.45e-05
2015-01-06 00:00:00,2015-01-06 00:00:00,PRATE,surface,-105.938,36.3778,7.62e-05
2015-01-06 00:00:00,2015-01-06 00:00:00,PRATE,surface,-105,36.3778,6.75e-05
2015-01-06 00:00:00,2015-01-06 00:00:00,PRATE,surface,-104.063,36.3778,4.05e-05
2015-01-06 00:00:00,2015-01-06 00:00:00,PRATE,surface,-103.125,36.3778,1.97e-05
2015-01-06 00:00:00,2015-01-06 00:00:00,PRATE,surface,-102.188,36.3778,2.1e-05
2015-01-06 00:00:00,2015-01-06 00:00:00,PRATE,surface,-101.25,36.3778,1.57e-05
2015-01-06 00:00:00,2015-01-06 00:00:00,PRATE,surface,-100.313,36.3778,8.1e-06
2015-01-06 00:00:00,2015-01-06 00:00:00,PRATE,surface,-99.3754,36.3778,5.6e-06
2015-01-06 00:00:00,2015-01-06 00:00:00,PRATE,surface,-98.4379,36.3778,6.6e-06
2015-01-06 00:00:00,2015-01-06 00:00:00,PRATE,surface,-97.5004,36.3778,5.7e-06
2015-01-06 00:00:00,2015-01-06 00:00:00,PRATE,surface,-96.5629,36.3778,3.5e-06
2015-01-06 00:00:00,2015-01-06 00:00:00,PRATE,surface,-95.6254,36.3778,3e-06
2015-01-06 00:00:00,2015-01-06 00:00:00,PRATE,surface,-94.6879,36.3778,7.2e-06
2015-01-06 00:00:00,2015-01-06 00:00:00,PRATE,surface,-93.7504,36.3778,1.82e-05
2015-01-06 00:00:00,2015-01-06 00:00:00,PRATE,surface,-92.8129,36.3778,2.54e-05
