2017-04-08 00:00:00,2017-04-08 00:00:00,TMP,surface,-107.813,25.0393,292.204
2017-04-08 00:00:00,2017-04-08 00:00:00,TMP,surface,-106.875,25.0393,286.144
2017-04-08 00:00:00,2017-04-08 00:00:00,TMP,surface,-105.938,25.0393,280.931
2017-04-08 00:00:00,2017-04-08 00:00:00,TMP,surface,-105,25.0393,279.211
2017-04-08 00:00:00,2017-04-08 00:00:00,TMP,surface,-104.063,25.0393,282.838
2017-04-08 00:00:00,2017-04-08 00:00:00,TMP,surface,-103.125,25.0393,284.851
2017-04-08 00:00:00,2017-04-08 00:00:00,TMP,surface,-102.188,25.0393,284.808
2017-04-08 00:00:00,2017-04-08 00:00:00,TMP,surface,-101.25,25.0393,283.619
2017-04-08 00:00:00,2017-04-08 00:00:00,TMP,surface,-100.313,25.0393,284.939
2017-04-08 00:00:00,2017-04-08 00:00:00,TMP,surface,-99.3754,25.0393,288.446
2017-04-08 00:00:00,2017-04-08 00:00:00,TMP,surface,-98.4379,25.0393,292.11
2017-04-08 00:00:00,2017-04-08 00:00:00,TMP,surface,-97.5004,25.0393,297.581
2017-04-08 00:00:00,2017-04-08 00:00:00,TMP,surface,-96.5629,25.0393,297.803
2017-04-08 00:00:00,2017-04-08 00:00:00,TMP,surface,-95.6254,25.0393,297.707
2017-04-08 00:00:00,2017-04-08 00:00:00,TMP,surface,-94.6879,25.0393,297.737
2017-04-08 00:00:00,2017-04-08 00:00:00,TMP,surface,-93.7504,25.0393,297.612
2017-04-08 00:00:00,2017-04-08 00:00:00,TMP,surface,-92.8129,25.0393,297.406
2017-04-08 00:00:00,2017-04-08 00:00:00,TMP,surface,-107.813,25.9842,287.029
2017-04-08 00:00:00,2017-04-08 00:00:00,TMP,surface,-106.875,25.9842,281.334
2017-04-08 00:00:00,2017-04-08 00:00:00,TMP,surface,-105.938,25.9842,279.1
2017-04-08 00:00:00,2017-04-08 00:00:00,TMP,surface,-105,25.9842,281.328
2017-04-08 00:00:00,2017-04-08 00:00:00,TMP,surface,-104.063,25.9842,284.801
2017-04-08 00:00:00,2017-04-08 00:00:00,TMP,surface,-103.125,25.9842,285.836
2017-04-08 00:00:00,2017-04-08 00:00:00,TMP,surface,-102.188,25.9842,285.643
2017-04-08 00:00:00,2017-04-08 00:00:00,TMP,surface,-101.25,25.9842,285.369
2017-04-08 00:00:00,2017-04-08 00:00:00,TMP,surface,-100.313,25.9842,286.302
2017-04-08 00:00:00,2017-04-08 00:00:00,TMP,surface,-99.3754,25.9842,289.19
2017-04-08 00:00:00,2017-04-08 00:00:00,TMP,surface,-98.4379,25.9842,291.556
2017-04-08 00:00:00,2017-04-08 00:00:00,TMP,surface,-97.5004,25.9842,292.928
2017-04-08 00:00:00,2017-04-08 00:00:00,TMP,surface,-96.5629,25.9842,297.379
2017-04-08 00:00:00,2017-04-08 00:00:00,TMP,surface,-95.6254,25.9842,297.272
2017-04-08 00:00:00,2017-04-08 00:00:00,TMP,surface,-94.6879,25.9842,297.293
2017-04-08 00:00:00,2017-04-08 00:00:00,TMP,surface,-93.7504,25.9842,297.324
2017-04-08 00:00:00,2017-04-08 00:00:00,TMP,surface,-92.8129,25.9842,297.419
2017-04-08 00:00:00,2017-04-08 00:00:00,TMP,surface,-107.813,26.929,281.739
2017-04-08 00:00:00,2017-04-08 00:00:00,TMP,surface,-106.875,26.929,278.001
2017-04-08 00:00:00,2017-04-08 00:00:00,TMP,surface,-105.938,26.929,280.142
2017-04-08 00:00:00,2017-04-08 00:00:00,TMP,surface,-105,26.929,283.488
2017-04-08 00:00:00,2017-04-08 00:00:00,TMP,surface,-104.063,26.929,284.776
2017-04-08 00:00:00,2017-04-08 00:00:00,TMP,surface,-103.125,26.929,284.189
2017-04-08 00:00:00,2017-04-08 00:00:00,TMP,surface,-102.188,26.929,284.481
2017-04-08 00:00:00,2017-04-08 00:00:00,TMP,surface,-101.25,26.929,285.606
2017-04-08 00:00:00,2017-04-08 00:00:00,TMP,surface,-100.313,26.929,286.96
2017-04-08 00:00:00,2017-04-08 00:00:00,TMP,surface,-99.3754,26.929,288.72
2017-04-08 00:00:00,2017-04-08 00:00:00,TMP,surface,-98.4379,26.929,289.78
2017-04-08 00:00:00,2017-04-08 00:00:00,TMP,surface,-97.5004,26.929,295.609
2017-04-08 00:00:00,2017-04-08 00:00:00,TMP,surface,-96.5629,26.929,296.388
2017-04-08 00:00:00,2017-04-08 00:00:00,TMP,surface,-95.6254,26.929,296.565
2017-04-08 00:00:00,2017-04-08 00:00:00,TMP,surface,-94.6879,26.929,296.448
2017-04-08 00:00:00,2017-04-08 00:00:00,TMP,surface,-93.7504,26.929,296.368
2017-04-08 00:00:00,2017-04-08 00:00:00,TMP,surface,-92.8129,26.929,296.609
2017-04-08 00:00:00,2017-04-08 00:00:00,TMP,surface,-107.813,27.8739,278.484
2017-04-08 00:00:00,2017-04-08 00:00:00,TMP,surface,-106.875,27.8739,277.397
2017-04-08 00:00:00,2017-04-08 00:00:00,TMP,surface,-105.938,27.8739,280.952
2017-04-08 00:00:00,2017-04-08 00:00:00,TMP,surface,-105,27.8739,283.667
2017-04-08 00:00:00,2017-04-08 00:00:00,TMP,surface,-104.063,27.8739,283.851
2017-04-08 00:00:00,2017-04-08 00:00:00,TMP,surface,-103.125,27.8739,282.94
2017-04-08 00:00:00,2017-04-08 00:00:00,TMP,surface,-102.188,27.8739,283.39
2017-04-08 00:00:00,2017-04-08 00:00:00,TMP,surface,-101.25,27.8739,284.779
2017-04-08 00:00:00,2017-04-08 00:00:00,TMP,surface,-100.313,27.8739,286.273
2017-04-08 00:00:00,2017-04-08 00:00:00,TMP,surface,-99.3754,27.8739,287.096
2017-04-08 00:00:00,2017-04-08 00:00:00,TMP,surface,-98.4379,27.8739,287.785
2017-04-08 00:00:00,2017-04-08 00:00:00,TMP,surface,-97.5004,27.8739,292.035
2017-04-08 00:00:00,2017-04-08 00:00:00,TMP,surface,-96.5629,27.8739,296.072
2017-04-08 00:00:00,2017-04-08 00:00:00,TMP,surface,-95.6254,27.8739,296.041
2017-04-08 00:00:00,2017-04-08 00:00:00,TMP,surface,-94.6879,27.8739,295.464
2017-04-08 00:00:00,2017-04-08 00:00:00,TMP,surface,-93.7504,27.8739,295.129
2017-04-08 00:00:00,2017-04-08 00:00:00,TMP,surface,-92.8129,27.8739,295.233
2017-04-08 00:00:00,2017-04-08 00:00:00,TMP,surface,-107.813,28.8188,277.267
2017-04-08 00:00:00,2017-04-08 00:00:00,TMP,surface,-106.875,28.8188,277.91
2017-04-08 00:00:00,2017-04-08 00:00:00,TMP,surface,-105.938,28.8188,281.078
2017-04-08 00:00:00,2017-04-08 00:00:00,TMP,surface,-105,28.8188,282.643
2017-04-08 00:00:00,2017-04-08 00:00:00,TMP,surface,-104.063,28.8188,281.987
2017-04-08 00:00:00,2017-04-08 00:00:00,TMP,surface,-103.125,28.8188,281.55
2017-04-08 00:00:00,2017-04-08 00:00:00,TMP,surface,-102.188,28.8188,282.409
2017-04-08 00:00:00,2017-04-08 00:00:00,TMP,surface,-101.25,28.8188,283.868
2017-04-08 00:00:00,2017-04-08 00:00:00,TMP,surface,-100.313,28.8188,284.641
2017-04-08 00:00:00,2017-04-08 00:00:00,TMP,surface,-99.3754,28.8188,284.744
2017-04-08 00:00:00,2017-04-08 00:00:00,TMP,surface,-98.4379,28.8188,285.067
2017-04-08 00:00:00,2017-04-08 00:00:00,TMP,surface,-97.5004,28.8188,285.901
2017-04-08 00:00:00,2017-04-08 00:00:00,TMP,surface,-96.5629,28.8188,286.939
2017-04-08 00:00:00,2017-04-08 00:00:00,TMP,surface,-95.6254,28.8188,290.461
2017-04-08 00:00:00,2017-04-08 00:00:00,TMP,surface,-94.6879,28.8188,295.187
2017-04-08 00:00:00,2017-04-08 00:00:00,TMP,surface,-93.7504,28.8188,294.929
2017-04-08 00:00:00,2017-04-08 00:00:00,TMP,surface,-92.8129,28.8188,294.913
2017-04-08 00:00:00,2017-04-08 00:00:00,TMP,surface,-107.813,29.7637,278.297
2017-04-08 00:00:00,2017-04-08 00:00:00,TMP,surface,-106.875,29.7637,279.069
2017-04-08 00:00:00,2017-04-08 00:00:00,TMP,surface,-105.938,29.7637,280.937
2017-04-08 00:00:00,2017-04-08 00:00:00,TMP,surface,-105,29.7637,280.777
2017-04-08 00:00:00,2017-04-08 00:00:00,TMP,surface,-104.063,29.7637,280.728
2017-04-08 00:00:00,2017-04-08 00:00:00,TMP,surface,-103.125,29.7637,281.153
2017-04-08 00:00:00,2017-04-08 00:00:00,TMP,surface,-102.188,29.7637,282.052
2017-04-08 00:00:00,2017-04-08 00:00:00,TMP,surface,-101.25,29.7637,282.78
2017-04-08 00:00:00,2017-04-08 00:00:00,TMP,surface,-100.313,29.7637,282.742
2017-04-08 00:00:00,2017-04-08 00:00:00,TMP,surface,-99.3754,29.7637,282.577
2017-04-08 00:00:00,2017-04-08 00:00:00,TMP,surface,-98.4379,29.7637,282.801
2017-04-08 00:00:00,2017-04-08 00:00:00,TMP,surface,-97.5004,29.7637,283.23
2017-04-08 00:00:00,2017-04-08 00:00:00,TMP,surface,-96.5629,29.7637,283.811
2017-04-08 00:00:00,2017-04-08 00:00:00,TMP,surface,-95.6254,29.7637,284.696
2017-04-08 00:00:00,2017-04-08 00:00:00,TMP,surface,-94.6879,29.7637,288.393
2017-04-08 00:00:00,2017-04-08 00:00:00,TMP,surface,-93.7504,29.7637,292.741
2017-04-08 00:00:00,2017-04-08 00:00:00,TMP,surface,-92.8129,29.7637,285.945
2017-04-08 00:00:00,2017-04-08 00:00:00,TMP,surface,-107.813,30.7085,279.928
2017-04-08 00:00:00,2017-04-08 00:00:00,TMP,surface,-106.875,30.7085,280.659
2017-04-08 00:00:00,2017-04-08 00:00:00,TMP,surface,-105.938,30.7085,280.337
2017-04-08 00:00:00,2017-04-08 00:00:00,TMP,surface,-105,30.7085,279.507
2017-04-08 00:00:00,2017-04-08 00:00:00,TMP,surface,-104.063,30.7085,279.699
2017-04-08 00:00:00,2017-04-08 00:00:00,TMP,surface,-103.125,30.7085,280.563
2017-04-08 00:00:00,2017-04-08 00:00:00,TMP,surface,-102.188,30.7085,281.323
2017-04-08 00:00:00,2017-04-08 00:00:00,TMP,surface,-101.25,30.7085,281.518
2017-04-08 00:00:00,2017-04-08 00:00:00,TMP,surface,-100.313,30.7085,281.392
2017-04-08 00:00:00,2017-04-08 00:00:00,TMP,surface,-99.3754,30.7085,281.416
2017-04-08 00:00:00,2017-04-08 00:00:00,TMP,surface,-98.4379,30.7085,281.627
2017-04-08 00:00:00,2017-04-08 00:00:00,TMP,surface,-97.5004,30.7085,281.891
2017-04-08 00:00:00,2017-04-08 00:00:00,TMP,surface,-96.5629,30.7085,282.121
2017-04-08 00:00:00,2017-04-08 00:00:00,TMP,surface,-95.6254,30.7085,282.387
2017-04-08 00:00:00,2017-04-08 00:00:00,TMP,surface,-94.6879,30.7085,282.736
2017-04-08 00:00:00,2017-04-08 00:00:00,TMP,surface,-93.7504,30.7085,282.878
2017-04-08 00:00:00,2017-04-08 00:00:00,TMP,surface,-92.8129,30.7085,282.665
2017-04-08 00:00:00,2017-04-08 00:00:00,TMP,surface,-107.813,31.6534,279.444
2017-04-08 00:00:00,2017-04-08 00:00:00,TMP,surface,-106.875,31.6534,279.864
2017-04-08 00:00:00,2017-04-08 00:00:00,TMP,surface,-105.938,31.6534,278.865
2017-04-08 00:00:00,2017-04-08 00:00:00,TMP,surface,-105,31.6534,278.637
2017-04-08 00:00:00,2017-04-08 00:00:00,TMP,surface,-104.063,31.6534,279.187
2017-04-08 00:00:00,2017-04-08 00:00:00,TMP,surface,-103.125,31.6534,280.108
2017-04-08 00:00:00,2017-04-08 00:00:00,TMP,surface,-102.188,31.6534,280.595
2017-04-08 00:00:00,2017-04-08 00:00:00,TMP,surface,-101.25,31.6534,280.581
2017-04-08 00:00:00,2017-04-08 00:00:00,TMP,surface,-100.313,31.6534,280.59
2017-04-08 00:00:00,2017-04-08 00:00:00,TMP,surface,-99.3754,31.6534,280.763
2017-04-08 00:00:00,2017-04-08 00:00:00,TMP,surface,-98.4379,31.6534,280.921
2017-04-08 00:00:00,2017-04-08 00:00:00,TMP,surface,-97.5004,31.6534,280.996
2017-04-08 00:00:00,2017-04-08 00:00:00,TMP,surface,-96.5629,31.6534,281.108
2017-04-08 00:00:00,2017-04-08 00:00:00,TMP,surface,-95.6254,31.6534,281.141
2017-04-08 00:00:00,2017-04-08 00:00:00,TMP,surface,-94.6879,31.6534,280.976
2017-04-08 00:00:00,2017-04-08 00:00:00,TMP,surface,-93.7504,31.6534,280.95
2017-04-08 00:00:00,2017-04-08 00:00:00,TMP,surface,-92.8129,31.6534,281.08
2017-04-08 00:00:00,2017-04-08 00:00:00,TMP,surface,-107.813,32.5983,276.845
2017-04-08 00:00:00,2017-04-08 00:00:00,TMP,surface,-106.875,32.5983,277.033
2017-04-08 00:00:00,2017-04-08 00:00:00,TMP,surface,-105.938,32.5983,277.078
2017-04-08 00:00:00,2017-04-08 00:00:00,TMP,surface,-105,32.5983,277.569
2017-04-08 00:00:00,2017-04-08 00:00:00,TMP,surface,-104.063,32.5983,278.926
2017-04-08 00:00:00,2017-04-08 00:00:00,TMP,surface,-103.125,32.5983,279.721
2017-04-08 00:00:00,2017-04-08 00:00:00,TMP,surface,-102.188,32.5983,279.739
2017-04-08 00:00:00,2017-04-08 00:00:00,TMP,surface,-101.25,32.5983,279.798
2017-04-08 00:00:00,2017-04-08 00:00:00,TMP,surface,-100.313,32.5983,280.2
2017-04-08 00:00:00,2017-04-08 00:00:00,TMP,surface,-99.3754,32.5983,280.505
2017-04-08 00:00:00,2017-04-08 00:00:00,TMP,surface,-98.4379,32.5983,280.454
2017-04-08 00:00:00,2017-04-08 00:00:00,TMP,surface,-97.5004,32.5983,280.299
2017-04-08 00:00:00,2017-04-08 00:00:00,TMP,surface,-96.5629,32.5983,280.228
2017-04-08 00:00:00,2017-04-08 00:00:00,TMP,surface,-95.6254,32.5983,280.104
2017-04-08 00:00:00,2017-04-08 00:00:00,TMP,surface,-94.6879,32.5983,279.87
2017-04-08 00:00:00,2017-04-08 00:00:00,TMP,surface,-93.7504,32.5983,279.809
2017-04-08 00:00:00,2017-04-08 00:00:00,TMP,surface,-92.8129,32.5983,280.153
2017-04-08 00:00:00,2017-04-08 00:00:00,TMP,surface,-107.813,33.5432,273.579
2017-04-08 00:00:00,2017-04-08 00:00:00,TMP,surface,-106.875,33.5432,274.657
2017-04-08 00:00:00,2017-04-08 00:00:00,TMP,surface,-105.938,33.5432,275.483
2017-04-08 00:00:00,2017-04-08 00:00:00,TMP,surface,-105,33.5432,276.494
2017-04-08 00:00:00,2017-04-08 00:00:00,TMP,surface,-104.063,33.5432,277.988
2017-04-08 00:00:00,2017-04-08 00:00:00,TMP,surface,-103.125,33.5432,278.745
2017-04-08 00:00:00,2017-04-08 00:00:00,TMP,surface,-102.188,33.5432,278.633
2017-04-08 00:00:00,2017-04-08 00:00:00,TMP,surface,-101.25,33.5432,278.84
2017-04-08 00:00:00,2017-04-08 00:00:00,TMP,surface,-100.313,33.5432,279.357
2017-04-08 00:00:00,2017-04-08 00:00:00,TMP,surface,-99.3754,33.5432,279.645
2017-04-08 00:00:00,2017-04-08 00:00:00,TMP,surface,-98.4379,33.5432,279.517
2017-04-08 00:00:00,2017-04-08 00:00:00,TMP,surface,-97.5004,33.5432,279.12
2017-04-08 00:00:00,2017-04-08 00:00:00,TMP,surface,-96.5629,33.5432,278.805
2017-04-08 00:00:00,2017-04-08 00:00:00,TMP,surface,-95.6254,33.5432,278.686
2017-04-08 00:00:00,2017-04-08 00:00:00,TMP,surface,-94.6879,33.5432,278.601
2017-04-08 00:00:00,2017-04-08 00:00:00,TMP,surface,-93.7504,33.5432,278.638
2017-04-08 00:00:00,2017-04-08 00:00:00,TMP,surface,-92.8129,33.5432,278.947
2017-04-08 00:00:00,2017-04-08 00:00:00,TMP,surface,-107.813,34.4881,271.923
2017-04-08 00:00:00,2017-04-08 00:00:00,TMP,surface,-106.875,34.4881,273.185
2017-04-08 00:00:00,2017-04-08 00:00:00,TMP,surface,-105.938,34.4881,274.142
2017-04-08 00:00:00,2017-04-08 00:00:00,TMP,surface,-105,34.4881,275.304
2017-04-08 00:00:00,2017-04-08 00:00:00,TMP,surface,-104.063,34.4881,276.542
2017-04-08 00:00:00,2017-04-08 00:00:00,TMP,surface,-103.125,34.4881,277.312
2017-04-08 00:00:00,2017-04-08 00:00:00,TMP,surface,-102.188,34.4881,277.446
2017-04-08 00:00:00,2017-04-08 00:00:00,TMP,surface,-101.25,34.4881,277.533
2017-04-08 00:00:00,2017-04-08 00:00:00,TMP,surface,-100.313,34.4881,277.848
2017-04-08 00:00:00,2017-04-08 00:00:00,TMP,surface,-99.3754,34.4881,278.211
2017-04-08 00:00:00,2017-04-08 00:00:00,TMP,surface,-98.4379,34.4881,278.19
2017-04-08 00:00:00,2017-04-08 00:00:00,TMP,surface,-97.5004,34.4881,277.904
2017-04-08 00:00:00,2017-04-08 00:00:00,TMP,surface,-96.5629,34.4881,277.614
2017-04-08 00:00:00,2017-04-08 00:00:00,TMP,surface,-95.6254,34.4881,277.26
2017-04-08 00:00:00,2017-04-08 00:00:00,TMP,surface,-94.6879,34.4881,276.897
2017-04-08 00:00:00,2017-04-08 00:00:00,TMP,surface,-93.7504,34.4881,276.921
2017-04-08 00:00:00,2017-04-08 00:00:00,TMP,surface,-92.8129,34.4881,277.397
2017-04-08 00:00:00,2017-04-08 00:00:00,TMP,surface,-107.813,35.4329,271.701
2017-04-08 00:00:00,2017-04-08 00:00:00,TMP,surface,-106.875,35.4329,272.08
2017-04-08 00:00:00,2017-04-08 00:00:00,TMP,surface,-105.938,35.4329,272.513
2017-04-08 00:00:00,2017-04-08 00:00:00,TMP,surface,-105,35.4329,273.604
2017-04-08 00:00:00,2017-04-08 00:00:00,TMP,surface,-104.063,35.4329,275.581
2017-04-08 00:00:00,2017-04-08 00:00:00,TMP,surface,-103.125,35.4329,276.782
2017-04-08 00:00:00,2017-04-08 00:00:00,TMP,surface,-102.188,35.4329,276.771
2017-04-08 00:00:00,2017-04-08 00:00:00,TMP,surface,-101.25,35.4329,276.579
2017-04-08 00:00:00,2017-04-08 00:00:00,TMP,surface,-100.313,35.4329,276.637
2017-04-08 00:00:00,2017-04-08 00:00:00,TMP,surface,-99.3754,35.4329,276.713
2017-04-08 00:00:00,2017-04-08 00:00:00,TMP,surface,-98.4379,35.4329,276.816
2017-04-08 00:00:00,2017-04-08 00:00:00,TMP,surface,-97.5004,35.4329,276.931
2017-04-08 00:00:00,2017-04-08 00:00:00,TMP,surface,-96.5629,35.4329,276.917
2017-04-08 00:00:00,2017-04-08 00:00:00,TMP,surface,-95.6254,35.4329,276.601
2017-04-08 00:00:00,2017-04-08 00:00:00,TMP,surface,-94.6879,35.4329,276.024
2017-04-08 00:00:00,2017-04-08 00:00:00,TMP,surface,-93.7504,35.4329,275.622
2017-04-08 00:00:00,2017-04-08 00:00:00,TMP,surface,-92.8129,35.4329,275.795
2017-04-08 00:00:00,2017-04-08 00:00:00,TMP,surface,-107.813,36.3778,270.772
2017-04-08 00:00:00,2017-04-08 00:00:00,TMP,surface,-106.875,36.3778,269.496
2017-04-08 00:00:00,2017-04-08 00:00:00,TMP,surface,-105.938,36.3778,269.901
2017-04-08 00:00:00,2017-04-08 00:00:00,TMP,surface,-105,36.3778,271.513
2017-04-08 00:00:00,2017-04-08 00:00:00,TMP,surface,-104.063,36.3778,273.824
2017-04-08 00:00:00,2017-04-08 00:00:00,TMP,surface,-103.125,36.3778,275.123
2017-04-08 00:00:00,2017-04-08 00:00:00,TMP,surface,-102.188,36.3778,275.556
2017-04-08 00:00:00,2017-04-08 00:00:00,TMP,surface,-101.25,36.3778,275.686
2017-04-08 00:00:00,2017-04-08 00:00:00,TMP,surface,-100.313,36.3778,275.961
2017-04-08 00:00:00,2017-04-08 00:00:00,TMP,surface,-99.3754,36.3778,276.089
2017-04-08 00:00:00,2017-04-08 00:00:00,TMP,surface,-98.4379,36.3778,275.884
2017-04-08 00:00:00,2017-04-08 00:00:00,TMP,surface,-97.5004,36.3778,275.915
2017-04-08 00:00:00,2017-04-08 00:00:00,TMP,surface,-96.5629,36.3778,276.115
2017-04-08 00:00:00,2017-04-08 00:00:00,TMP,surface,-95.6254,36.3778,275.873
2017-04-08 00:00:00,2017-04-08 00:00:00,TMP,surface,-94.6879,36.3778,275.201
2017-04-08 00:00:00,2017-04-08 00:00:00,TMP,surface,-93.7504,36.3778,274.56
2017-04-08 00:00:00,2017-04-08 00:00:00,TMP,surface,-92.8129,36.3778,274.494
2017-04-08 00:00:00,2017-04-08 00:00:00,PRATE,surface,-107.813,25.0393,7.07e-05
2017-04-08 00:00:00,2017-04-08 00:00:00,PRATE,surface,-106.875,25.0393,6.4e-05
2017-04-08 00:00:00,2017-04-08 00:00:00,PRATE,surface,-105.938,25.0393,3.61e-05
2017-04-08 00:00:00,2017-04-08 00:00:00,PRATE,surface,-105,25.0393,1.02e-05
2017-04-08 00:00:00,2017-04-08 00:00:00,PRATE,surface,-104.063,25.0393,2.2e-06
2017-04-08 00:00:00,2017-04-08 00:00:00,PRATE,surface,-103.125,25.0393,2.4e-06
2017-04-08 00:00:00,2017-04-08 00:00:00,PRATE,surface,-102.188,25.0393,3.2e-06
2017-04-08 00:00:00,2017-04-08 00:00:00,PRATE,surface,-101.25,25.0393,4.6e-06
2017-04-08 00:00:00,2017-04-08 00:00:00,PRATE,surface,-100.313,25.0393,4.3e-06
2017-04-08 00:00:00,2017-04-08 00:00:00,PRATE,surface,-99.3754,25.0393,2.9e-06
2017-04-08 00:00:00,2017-04-08 00:00:00,PRATE,surface,-98.4379,25.0393,1.3e-06
2017-04-08 00:00:00,2017-04-08 00:00:00,PRATE,surface,-97.5004,25.0393,5.8e-06
2017-04-08 00:00:00,2017-04-08 00:00:00,PRATE,surface,-96.5629,25.0393,2.22e-05
2017-04-08 00:00:00,2017-04-08 00:00:00,PRATE,surface,-95.6254,25.0393,3.72e-05
2017-04-08 00:00:00,2017-04-08 00:00:00,PRATE,surface,-94.6879,25.0393,4.06e-05
2017-04-08 00:00:00,2017-04-08 00:00:00,PRATE,surface,-93.7504,25.0393,4.13e-05
2017-04-08 00:00:00,2017-04-08 00:00:00,PRATE,surface,-92.8129,25.0393,3.77e-05
2017-04-08 00:00:00,2017-04-08 00:00:00,PRATE,surface,-107.813,25.9842,8.83e-05
2017-04-08 00:00:00,2017-04-08 00:00:00,PRATE,surface,-106.875,25.9842,5.77e-05
2017-04-08 00:00:00,2017-04-08 00:00:00,PRATE,surface,-105.938,25.9842,1.9e-05
2017-04-08 00:00:00,2017-04-08 00:00:00,PRATE,surface,-105,25.9842,2.9e-06
2017-04-08 00:00:00,2017-04-08 00:00:00,PRATE,surface,-104.063,25.9842,2.9e-06
2017-04-08 00:00:00,2017-04-08 00:00:00,PRATE,surface,-103.125,25.9842,5.8e-06
2017-04-08 00:00:00,2017-04-08 00:00:00,PRATE,surface,-102.188,25.9842,5.4e-06
2017-04-08 00:00:00,2017-04-08 00:00:00,PRATE,surface,-101.25,25.9842,5.6e-06
2017-04-08 00:00:00,2017-04-08 00:00:00,PRATE,surface,-100.313,25.9842,5.8e-06
2017-04-08 00:00:00,2017-04-08 00:00:00,PRATE,surface,-99.3754,25.9842,5e-06
2017-04-08 00:00:00,2017-04-08 00:00:00,PRATE,surface,-98.4379,25.9842,3.1e-06
2017-04-08 00:00:00,2017-04-08 00:00:00,PRATE,surface,-97.5004,25.9842,1.35e-05
2017-04-08 00:00:00,2017-04-08 00:00:00,PRATE,surface,-96.5629,25.9842,5.95e-05
2017-04-08 00:00:00,2017-04-08 00:00:00,PRATE,surface,-95.6254,25.9842,5.71e-05
2017-04-08 00:00:00,2017-04-08 00:00:00,PRATE,surface,-94.6879,25.9842,4.51e-05
2017-04-08 00:00:00,2017-04-08 00:00:00,PRATE,surface,-93.7504,25.9842,3.72e-05
2017-04-08 00:00:00,2017-04-08 00:00:00,PRATE,surface,-92.8129,25.9842,3.27e-05
2017-04-08 00:00:00,2017-04-08 00:00:00,PRATE,surface,-107.813,26.929,0.0001059
2017-04-08 00:00:00,2017-04-08 00:00:00,PRATE,surface,-106.875,26.929,5.1e-05
2017-04-08 00:00:00,2017-04-08 00:00:00,PRATE,surface,-105.938,26.929,1.08e-05
2017-04-08 00:00:00,2017-04-08 00:00:00,PRATE,surface,-105,26.929,2.2e-06
2017-04-08 00:00:00,2017-04-08 00:00:00,PRATE,surface,-104.063,26.929,2.5e-06
2017-04-08 00:00:00,2017-04-08 00:00:00,PRATE,surface,-103.125,26.929,7.3e-06
2017-04-08 00:00:00,2017-04-08 00:00:00,PRATE,surface,-102.188,26.929,1.09e-05
2017-04-08 00:00:00,2017-04-08 00:00:00,PRATE,surface,-101.25,26.929,1.1e-05
2017-04-08 00:00:00,2017-04-08 00:00:00,PRATE,surface,-100.313,26.929,9.7e-06
2017-04-08 00:00:00,2017-04-08 00:00:00,PRATE,surface,-99.3754,26.929,9e-06
2017-04-08 00:00:00,2017-04-08 00:00:00,PRATE,surface,-98.4379,26.929,1.23e-05
2017-04-08 00:00:00,2017-04-08 00:00:00,PRATE,surface,-97.5004,26.929,3.88e-05
2017-04-08 00:00:00,2017-04-08 00:00:00,PRATE,surface,-96.5629,26.929,5.35e-05
2017-04-08 00:00:00,2017-04-08 00:00:00,PRATE,surface,-95.6254,26.929,5.8e-05
2017-04-08 00:00:00,2017-04-08 00:00:00,PRATE,surface,-94.6879,26.929,5.31e-05
2017-04-08 00:00:00,2017-04-08 00:00:00,PRATE,surface,-93.7504,26.929,5.31e-05
2017-04-08 00:00:00,2017-04-08 00:00:00,PRATE,surface,-92.8129,26.929,4.81e-05
2017-04-08 00:00:00,2017-04-08 00:00:00,PRATE,surface,-107.813,27.8739,8.28e-05
2017-04-08 00:00:00,2017-04-08 00:00:00,PRATE,surface,-106.875,27.8739,3.79e-05
2017-04-08 00:00:00,2017-04-08 00:00:00,PRATE,surface,-105.938,27.8739,1.55e-05
2017-04-08 00:00:00,2017-04-08 00:00:00,PRATE,surface,-105,27.8739,6.6e-06
2017-04-08 00:00:00,2017-04-08 00:00:00,PRATE,surface,-104.063,27.8739,6e-06
2017-04-08 00:00:00,2017-04-08 00:00:00,PRATE,surface,-103.125,27.8739,9.3e-06
2017-04-08 00:00:00,2017-04-08 00:00:00,PRATE,surface,-102.188,27.8739,1.35e-05
2017-04-08 00:00:00,2017-04-08 00:00:00,PRATE,surface,-101.25,27.8739,1.48e-05
2017-04-08 00:00:00,2017-04-08 00:00:00,PRATE,surface,-100.313,27.8739,1.46e-05
2017-04-08 00:00:00,2017-04-08 00:00:00,PRATE,surface,-99.3754,27.8739,1.55e-05
2017-04-08 00:00:00,2017-04-08 00:00:00,PRATE,surface,-98.4379,27.8739,1.96e-05
2017-04-08 00:00:00,2017-04-08 00:00:00,PRATE,surface,-97.5004,27.8739,2.33e-05
2017-04-08 00:00:00,2017-04-08 00:00:00,PRATE,surface,-96.5629,27.8739,3.25e-05
2017-04-08 00:00:00,2017-04-08 00:00:00,PRATE,surface,-95.6254,27.8739,5.13e-05
2017-04-08 00:00:00,2017-04-08 00:00:00,PRATE,surface,-94.6879,27.8739,6.48e-05
2017-04-08 00:00:00,2017-04-08 00:00:00,PRATE,surface,-93.7504,27.8739,6.03e-05
2017-04-08 00:00:00,2017-04-08 00:00:00,PRATE,surface,-92.8129,27.8739,4.73e-05
2017-04-08 00:00:00,2017-04-08 00:00:00,PRATE,surface,-107.813,28.8188,5.57e-05
2017-04-08 00:00:00,2017-04-08 00:00:00,PRATE,surface,-106.875,28.8188,2.98e-05
2017-04-08 00:00:00,2017-04-08 00:00:00,PRATE,surface,-105.938,28.8188,1.76e-05
2017-04-08 00:00:00,2017-04-08 00:00:00,PRATE,surface,-105,28.8188,1.31e-05
2017-04-08 00:00:00,2017-04-08 00:00:00,PRATE,surface,-104.063,28.8188,1.4e-05
2017-04-08 00:00:00,2017-04-08 00:00:00,PRATE,surface,-103.125,28.8188,1.73e-05
2017-04-08 00:00:00,2017-04-08 00:00:00,PRATE,surface,-102.188,28.8188,1.73e-05
2017-04-08 00:00:00,2017-04-08 00:00:00,PRATE,surface,-101.25,28.8188,1.63e-05
2017-04-08 00:00:00,2017-04-08 00:00:00,PRATE,surface,-100.313,28.8188,1.9e-05
2017-04-08 00:00:00,2017-04-08 00:00:00,PRATE,surface,-99.3754,28.8188,1.85e-05
2017-04-08 00:00:00,2017-04-08 00:00:00,PRATE,surface,-98.4379,28.8188,2.03e-05
2017-04-08 00:00:00,2017-04-08 00:00:00,PRATE,surface,-97.5004,28.8188,2.51e-05
2017-04-08 00:00:00,2017-04-08 00:00:00,PRATE,surface,-96.5629,28.8188,3.67e-05
2017-04-08 00:00:00,2017-04-08 00:00:00,PRATE,surface,-95.6254,28.8188,5.79e-05
2017-04-08 00:00:00,2017-04-08 00:00:00,PRATE,surface,-94.6879,28.8188,7.17e-05
2017-04-08 00:00:00,2017-04-08 00:00:00,PRATE,surface,-93.7504,28.8188,6.16e-05
2017-04-08 00:00:00,2017-04-08 00:00:00,PRATE,surface,-92.8129,28.8188,4.47e-05
2017-04-08 00:00:00,2017-04-08 00:00:00,PRATE,surface,-107.813,29.7637,3.47e-05
2017-04-08 00:00:00,2017-04-08 00:00:00,PRATE,surface,-106.875,29.7637,2.83e-05
2017-04-08 00:00:00,2017-04-08 00:00:00,PRATE,surface,-105.938,29.7637,2.22e-05
2017-04-08 00:00:00,2017-04-08 00:00:00,PRATE,surface,-105,29.7637,1.76e-05
2017-04-08 00:00:00,2017-04-08 00:00:00,PRATE,surface,-104.063,29.7637,2.19e-05
2017-04-08 00:00:00,2017-04-08 00:00:00,PRATE,surface,-103.125,29.7637,2.19e-05
2017-04-08 00:00:00,2017-04-08 00:00:00,PRATE,surface,-102.188,29.7637,1.93e-05
2017-04-08 00:00:00,2017-04-08 00:00:00,PRATE,surface,-101.25,29.7637,1.83e-05
2017-04-08 00:00:00,2017-04-08 00:00:00,PRATE,surface,-100.313,29.7637,2.31e-05
2017-04-08 00:00:00,2017-04-08 00:00:00,PRATE,surface,-99.3754,29.7637,2.62e-05
2017-04-08 00:00:00,2017-04-08 00:00:00,PRATE,surface,-98.4379,29.7637,2.66e-05
2017-04-08 00:00:00,2017-04-08 00:00:00,PRATE,surface,-97.5004,29.7637,2.95e-05
2017-04-08 00:00:00,2017-04-08 00:00:00,PRATE,surface,-96.5629,29.7637,4.12e-05
2017-04-08 00:00:00,2017-04-08 00:00:00,PRATE,surface,-95.6254,29.7637,6.14e-05
2017-04-08 00:00:00,2017-04-08 00:00:00,PRATE,surface,-94.6879,29.7637,8.18e-05
2017-04-08 00:00:00,2017-04-08 00:00:00,PRATE,surface,-93.7504,29.7637,8.4e-05
2017-04-08 00:00:00,2017-04-08 00:00:00,PRATE,surface,-92.8129,29.7637,5.47e-05
2017-04-08 00:00:00,2017-04-08 00:00:00,PRATE,surface,-107.813,30.7085,2.12e-05
2017-04-08 00:00:00,2017-04-08 00:00:00,PRATE,surface,-106.875,30.7085,2.12e-05
2017-04-08 00:00:00,2017-04-08 00:00:00,PRATE,surface,-105.938,30.7085,2.39e-05
2017-04-08 00:00:00,2017-04-08 00:00:00,PRATE,surface,-105,30.7085,2.53e-05
2017-04-08 00:00:00,2017-04-08 00:00:00,PRATE,surface,-104.063,30.7085,2.48e-05
2017-04-08 00:00:00,2017-04-08 00:00:00,PRATE,surface,-103.125,30.7085,2.32e-05
2017-04-08 00:00:00,2017-04-08 00:00:00,PRATE,surface,-102.188,30.7085,2.21e-05
2017-04-08 00:00:00,2017-04-08 00:00:00,PRATE,surface,-101.25,30.7085,2.33e-05
2017-04-08 00:00:00,2017-04-08 00:00:00,PRATE,surface,-100.313,30.7085,2.65e-05
2017-04-08 00:00:00,2017-04-08 00:00:00,PRATE,surface,-99.3754,30.7085,2.72e-05
2017-04-08 00:00:00,2017-04-08 00:00:00,PRATE,surface,-98.4379,30.7085,2.72e-05
2017-04-08 00:00:00,2017-04-08 00:00:00,PRATE,surface,-97.5004,30.7085,2.95e-05
2017-04-08 00:00:00,2017-04-08 00:00:00,PRATE,surface,-96.5629,30.7085,3.76e-05
2017-04-08 00:00:00,2017-04-08 00:00:00,PRATE,surface,-95.6254,30.7085,5.46e-05
2017-04-08 00:00:00,2017-04-08 00:00:00,PRATE,surface,-94.6879,30.7085,7.53e-05
2017-04-08 00:00:00,2017-04-08 00:00:00,PRATE,surface,-93.7504,30.7085,8.45e-05
2017-04-08 00:00:00,2017-04-08 00:00:00,PRATE,surface,-92.8129,30.7085,7.47e-05
2017-04-08 00:00:00,2017-04-08 00:00:00,PRATE,surface,-107.813,31.6534,1.51e-05
2017-04-08 00:00:00,2017-04-08 00:00:00,PRATE,surface,-106.875,31.6534,1.47e-05
2017-04-08 00:00:00,2017-04-08 00:00:00,PRATE,surface,-105.938,31.6534,1.78e-05
2017-04-08 00:00:00,2017-04-08 00:00:00,PRATE,surface,-105,31.6534,2.14e-05
2017-04-08 00:00:00,2017-04-08 00:00:00,PRATE,surface,-104.063,31.6534,2.25e-05
2017-04-08 00:00:00,2017-04-08 00:00:00,PRATE,surface,-103.125,31.6534,2.32e-05
2017-04-08 00:00:00,2017-04-08 00:00:00,PRATE,surface,-102.188,31.6534,2.18e-05
2017-04-08 00:00:00,2017-04-08 00:00:00,PRATE,surface,-101.25,31.6534,2.42e-05
2017-04-08 00:00:00,2017-04-08 00:00:00,PRATE,surface,-100.313,31.6534,2.55e-05
2017-04-08 00:00:00,2017-04-08 00:00:00,PRATE,surface,-99.3754,31.6534,2.77e-05
2017-04-08 00:00:00,2017-04-08 00:00:00,PRATE,surface,-98.4379,31.6534,3.08e-05
2017-04-08 00:00:00,2017-04-08 00:00:00,PRATE,surface,-97.5004,31.6534,3.28e-05
2017-04-08 00:00:00,2017-04-08 00:00:00,PRATE,surface,-96.5629,31.6534,3.54e-05
2017-04-08 00:00:00,2017-04-08 00:00:00,PRATE,surface,-95.6254,31.6534,4.49e-05
2017-04-08 00:00:00,2017-04-08 00:00:00,PRATE,surface,-94.6879,31.6534,6.82e-05
2017-04-08 00:00:00,2017-04-08 00:00:00,PRATE,surface,-93.7504,31.6534,9.5e-05
2017-04-08 00:00:00,2017-04-08 00:00:00,PRATE,surface,-92.8129,31.6534,9.45e-05
2017-04-08 00:00:00,2017-04-08 00:00:00,PRATE,surface,-107.813,32.5983,2.15e-05
2017-04-08 00:00:00,2017-04-08 00:00:00,PRATE,surface,-106.875,32.5983,1.81e-05
2017-04-08 00:00:00,2017-04-08 00:00:00,PRATE,surface,-105.938,32.5983,1.61e-05
2017-04-08 00:00:00,2017-04-08 00:00:00,PRATE,surface,-105,32.5983,1.63e-05
2017-04-08 00:00:00,2017-04-08 00:00:00,PRATE,surface,-104.063,32.5983,1.84e-05
2017-04-08 00:00:00,2017-04-08 00:00:00,PRATE,surface,-103.125,32.5983,2.28e-05
2017-04-08 00:00:00,2017-04-08 00:00:00,PRATE,surface,-102.188,32.5983,2.75e-05
2017-04-08 00:00:00,2017-04-08 00:00:00,PRATE,surface,-101.25,32.5983,2.89e-05
2017-04-08 00:00:00,2017-04-08 00:00:00,PRATE,surface,-100.313,32.5983,2.73e-05
2017-04-08 00:00:00,2017-04-08 00:00:00,PRATE,surface,-99.3754,32.5983,2.85e-05
2017-04-08 00:00:00,2017-04-08 00:00:00,PRATE,surface,-98.4379,32.5983,3.39e-05
2017-04-08 00:00:00,2017-04-08 00:00:00,PRATE,surface,-97.5004,32.5983,3.89e-05
2017-04-08 00:00:00,2017-04-08 00:00:00,PRATE,surface,-96.5629,32.5983,4.08e-05
2017-04-08 00:00:00,2017-04-08 00:00:00,PRATE,surface,-95.6254,32.5983,4.65e-05
2017-04-08 00:00:00,2017-04-08 00:00:00,PRATE,surface,-94.6879,32.5983,6.09e-05
2017-04-08 00:00:00,2017-04-08 00:00:00,PRATE,surface,-93.7504,32.5983,7.46e-05
2017-04-08 00:00:00,2017-04-08 00:00:00,PRATE,surface,-92.8129,32.5983,8.13e-05
2017-04-08 00:00:00,2017-04-08 00:00:00,PRATE,surface,-107.813,33.5432,2.83e-05
2017-04-08 00:00:00,2017-04-08 00:00:00,PRATE,surface,-106.875,33.5432,2.29e-05
2017-04-08 00:00:00,2017-04-08 00:00:00,PRATE,surface,-105.938,33.5432,1.72e-05
2017-04-08 00:00:00,2017-04-08 00:00:00,PRATE,surface,-105,33.5432,1.46e-05
2017-04-08 00:00:00,2017-04-08 00:00:00,PRATE,surface,-104.063,33.5432,1.5e-05
2017-04-08 00:00:00,2017-04-08 00:00:00,PRATE,surface,-103.125,33.5432,1.82e-05
2017-04-08 00:00:00,2017-04-08 00:00:00,PRATE,surface,-102.188,33.5432,2.54e-05
2017-04-08 00:00:00,2017-04-08 00:00:00,PRATE,surface,-101.25,33.5432,3.1e-05
2017-04-08 00:00:00,2017-04-08 00:00:00,PRATE,surface,-100.313,33.5432,2.97e-05
2017-04-08 00:00:00,2017-04-08 00:00:00,PRATE,surface,-99.3754,33.5432,2.75e-05
2017-04-08 00:00:00,2017-04-08 00:00:00,PRATE,surface,-98.4379,33.5432,3.17e-05
2017-04-08 00:00:00,2017-04-08 00:00:00,PRATE,surface,-97.5004,33.5432,3.96e-05
2017-04-08 00:00:00,2017-04-08 00:00:00,PRATE,surface,-96.5629,33.5432,4.38e-05
2017-04-08 00:00:00,2017-04-08 00:00:00,PRATE,surface,-95.6254,33.5432,4.62e-05
2017-04-08 00:00:00,2017-04-08 00:00:00,PRATE,surface,-94.6879,33.5432,5.26e-05
2017-04-08 00:00:00,2017-04-08 00:00:00,PRATE,surface,-93.7504,33.5432,5.95e-05
2017-04-08 00:00:00,2017-04-08 00:00:00,PRATE,surface,-92.8129,33.5432,6.78e-05
2017-04-08 00:00:00,2017-04-08 00:00:00,PRATE,surface,-107.813,34.4881,2.19e-05
2017-04-08 00:00:00,2017-04-08 00:00:00,PRATE,surface,-106.875,34.4881,1.74e-05
2017-04-08 00:00:00,2017-04-08 00:00:00,PRATE,surface,-105.938,34.4881,1.29e-05
2017-04-08 00:00:00,2017-04-08 00:00:00,PRATE,surface,-105,34.4881,1.12e-05
2017-04-08 00:00:00,2017-04-08 00:00:00,PRATE,surface,-104.063,34.4881,1.16e-05
2017-04-08 00:00:00,2017-04-08 00:00:00,PRATE,surface,-103.125,34.4881,1.3e-05
2017-04-08 00:00:00,2017-04-08 00:00:00,PRATE,surface,-102.188,34.4881,1.71e-05
2017-04-08 00:00:00,2017-04-08 00:00:00,PRATE,surface,-101.25,34.4881,2.22e-05
2017-04-08 00:00:00,2017-04-08 00:00:00,PRATE,surface,-100.313,34.4881,2.44e-05
2017-04-08 00:00:00,2017-04-08 00:00:00,PRATE,surface,-99.3754,34.4881,2.43e-05
2017-04-08 00:00:00,2017-04-08 00:00:00,PRATE,surface,-98.4379,34.4881,2.65e-05
2017-04-08 00:00:00,2017-04-08 00:00:00,PRATE,surface,-97.5004,34.4881,3.49e-05
2017-04-08 00:00:00,2017-04-08 00:00:00,PRATE,surface,-96.5629,34.4881,4.36e-05
2017-04-08 00:00:00,2017-04-08 00:00:00,PRATE,surface,-95.6254,34.4881,4.59e-05
2017-04-08 00:00:00,2017-04-08 00:00:00,PRATE,surface,-94.6879,34.4881,4.53e-05
2017-04-08 00:00:00,2017-04-08 00:00:00,PRATE,surface,-93.7504,34.4881,4.78e-05
2017-04-08 00:00:00,2017-04-08 00:00:00,PRATE,surface,-92.8129,34.4881,5.41e-05
2017-04-08 00:00:00,2017-04-08 00:00:00,PRATE,surface,-107.813,35.4329,1.88e-05
2017-04-08 00:00:00,2017-04-08 00:00:00,PRATE,surface,-106.875,35.4329,1.53e-05
2017-04-08 00:00:00,2017-04-08 00:00:00,PRATE,surface,-105.938,35.4329,1.23e-05
2017-04-08 00:00:00,2017-04-08 00:00:00,PRATE,surface,-105,35.4329,1.08e-05
2017-04-08 00:00:00,2017-04-08 00:00:00,PRATE,surface,-104.063,35.4329,1.02e-05
2017-04-08 00:00:00,2017-04-08 00:00:00,PRATE,surface,-103.125,35.4329,9.8e-06
2017-04-08 00:00:00,2017-04-08 00:00:00,PRATE,surface,-102.188,35.4329,1.17e-05
2017-04-08 00:00:00,2017-04-08 00:00:00,PRATE,surface,-101.25,35.4329,1.63e-05
2017-04-08 00:00:00,2017-04-08 00:00:00,PRATE,surface,-100.313,35.4329,1.99e-05
2017-04-08 00:00:00,2017-04-08 00:00:00,PRATE,surface,-99.3754,35.4329,2.23e-05
2017-04-08 00:00:00,2017-04-08 00:00:00,PRATE,surface,-98.4379,35.4329,2.46e-05
2017-04-08 00:00:00,2017-04-08 00:00:00,PRATE,surface,-97.5004,35.4329,2.84e-05
2017-04-08 00:00:00,2017-04-08 00:00:00,PRATE,surface,-96.5629,35.4329,3.35e-05
2017-04-08 00:00:00,2017-04-08 00:00:00,PRATE,surface,-95.6254,35.4329,3.9e-05
2017-04-08 00:00:00,2017-04-08 00:00:00,PRATE,surface,-94.6879,35.4329,4.34e-05
2017-04-08 00:00:00,2017-04-08 00:00:00,PRATE,surface,-93.7504,35.4329,4.5e-05
2017-04-08 00:00:00,2017-04-08 00:00:00,PRATE,surface,-92.8129,35.4329,4.63e-05
2017-04-08 00:00:00,2017-04-08 00:00:00,PRATE,surface,-107.813,36.3778,2.36e-05
2017-04-08 00:00:00,2017-04-08 00:00:00,PRATE,surface,-106.875,36.3778,2.13e-05
2017-04-08 00:00:00,2017-04-08 00:00:00,PRATE,surface,-105.938,36.3778,1.47e-05
2017-04-08 00:00:00,2017-04-08 00:00:00,PRATE,surface,-105,36.3778,1.03e-05
2017-04-08 00:00:00,2017-04-08 00:00:00,PRATE,surface,-104.063,36.3778,7.7e-06
2017-04-08 00:00:00,2017-04-08 00:00:00,PRATE,surface,-103.125,36.3778,7.5e-06
2017-04-08 00:00:00,2017-04-08 00:00:00,PRATE,surface,-102.188,36.3778,9e-06
2017-04-08 00:00:00,2017-04-08 00:00:00,PRATE,surface,-101.25,36.3778,1.3e-05
2017-04-08 00:00:00,2017-04-08 00:00:00,PRATE,surface,-100.313,36.3778,1.73e-05
2017-04-08 00:00:00,2017-04-08 00:00:00,PRATE,surface,-99.3754,36.3778,2.15e-05
2017-04-08 00:00:00,2017-04-08 00:00:00,PRATE,surface,-98.4379,36.3778,2.46e-05
2017-04-08 00:00:00,2017-04-08 00:00:00,PRATE,surface,-97.5004,36.3778,2.65e-05
2017-04-08 00:00:00,2017-04-08 00:00:00,PRATE,surface,-96.5629,36.3778,2.88e-05
2017-04-08 00:00:00,2017-04-08 00:00:00,PRATE,surface,-95.6254,36.3778,3.12e-05
2017-04-08 00:00:00,2017-04-08 00:00:00,PRATE,surface,-94.6879,36.3778,3.44e-05
2017-04-08 00:00:00,2017-04-08 00:00:00,PRATE,surface,-93.7504,36.3778,4.06e-05
2017-04-08 00:00:00,2017-04-08 00:00:00,PRATE,surface,-92.8129,36.3778,4.53e-05
