2012-12-18 00:00:00,2012-12-18 00:00:00,TMP,surface,-107.813,25.0393,291.945
2012-12-18 00:00:00,2012-12-18 00:00:00,TMP,surface,-106.875,25.0393,286.817
2012-12-18 00:00:00,2012-12-18 00:00:00,TMP,surface,-105.938,25.0393,282.038
2012-12-18 00:00:00,2012-12-18 00:00:00,TMP,surface,-105,25.0393,281.64
2012-12-18 00:00:00,2012-12-18 00:00:00,TMP,surface,-104.063,25.0393,285.133
2012-12-18 00:00:00,2012-12-18 00:00:00,TMP,surface,-103.125,25.0393,286.973
2012-12-18 00:00:00,2012-12-18 00:00:00,TMP,surface,-102.188,25.0393,286.531
2012-12-18 00:00:00,2012-12-18 00:00:00,TMP,surface,-101.25,25.0393,285.529
2012-12-18 00:00:00,2012-12-18 00:00:00,TMP,surface,-100.313,25.0393,286.731
2012-12-18 00:00:00,2012-12-18 00:00:00,TMP,surface,-99.3754,25.0393,290.518
2012-12-18 00:00:00,2012-12-18 00:00:00,TMP,surface,-98.4379,25.0393,293.835
2012-12-18 00:00:00,2012-12-18 00:00:00,TMP,surface,-97.5004,25.0393,296.803
2012-12-18 00:00:00,2012-12-18 00:00:00,TMP,surface,-96.5629,25.0393,297.667
2012-12-18 00:00:00,2012-12-18 00:00:00,TMP,surface,-95.6254,25.0393,297.651
2012-12-18 00:00:00,2012-12-18 00:00:00,TMP,surface,-94.6879,25.0393,297.681
2012-12-18 00:00:00,2012-12-18 00:00:00,TMP,surface,-93.7504,25.0393,298.021
2012-12-18 00:00:00,2012-12-18 00:00:00,TMP,surface,-92.8129,25.0393,298.125
2012-12-18 00:00:00,2012-12-18 00:00:00,TMP,surface,-107.813,25.9842,286.889
2012-12-18 00:00:00,2012-12-18 00:00:00,TMP,surface,-106.875,25.9842,282.102
2012-12-18 00:00:00,2012-12-18 00:00:00,TMP,surface,-105.938,25.9842,280.724
2012-12-18 00:00:00,2012-12-18 00:00:00,TMP,surface,-105,25.9842,283.596
2012-12-18 00:00:00,2012-12-18 00:00:00,TMP,surface,-104.063,25.9842,286.749
2012-12-18 00:00:00,2012-12-18 00:00:00,TMP,surface,-103.125,25.9842,287.461
2012-12-18 00:00:00,2012-12-18 00:00:00,TMP,surface,-102.188,25.9842,286.792
2012-12-18 00:00:00,2012-12-18 00:00:00,TMP,surface,-101.25,25.9842,286.876
2012-12-18 00:00:00,2012-12-18 00:00:00,TMP,surface,-100.313,25.9842,288.148
2012-12-18 00:00:00,2012-12-18 00:00:00,TMP,surface,-99.3754,25.9842,291.379
2012-12-18 00:00:00,2012-12-18 00:00:00,TMP,surface,-98.4379,25.9842,293.678
2012-12-18 00:00:00,2012-12-18 00:00:00,TMP,surface,-97.5004,25.9842,294.401
2012-12-18 00:00:00,2012-12-18 00:00:00,TMP,surface,-96.5629,25.9842,296.659
2012-12-18 00:00:00,2012-12-18 00:00:00,TMP,surface,-95.6254,25.9842,297.148
2012-12-18 00:00:00,2012-12-18 00:00:00,TMP,surface,-94.6879,25.9842,297.376
2012-12-18 00:00:00,2012-12-18 00:00:00,TMP,surface,-93.7504,25.9842,297.608
2012-12-18 00:00:00,2012-12-18 00:00:00,TMP,surface,-92.8129,25.9842,298
2012-12-18 00:00:00,2012-12-18 00:00:00,TMP,surface,-107.813,26.929,282.492
2012-12-18 00:00:00,2012-12-18 00:00:00,TMP,surface,-106.875,26.929,279.462
2012-12-18 00:00:00,2012-12-18 00:00:00,TMP,surface,-105.938,26.929,281.873
2012-12-18 00:00:00,2012-12-18 00:00:00,TMP,surface,-105,26.929,285.574
2012-12-18 00:00:00,2012-12-18 00:00:00,TMP,surface,-104.063,26.929,286.697
2012-12-18 00:00:00,2012-12-18 00:00:00,TMP,surface,-103.125,26.929,285.872
2012-12-18 00:00:00,2012-12-18 00:00:00,TMP,surface,-102.188,26.929,285.571
2012-12-18 00:00:00,2012-12-18 00:00:00,TMP,surface,-101.25,26.929,286.88
2012-12-18 00:00:00,2012-12-18 00:00:00,TMP,surface,-100.313,26.929,288.697
2012-12-18 00:00:00,2012-12-18 00:00:00,TMP,surface,-99.3754,26.929,291.077
2012-12-18 00:00:00,2012-12-18 00:00:00,TMP,surface,-98.4379,26.929,292.11
2012-12-18 00:00:00,2012-12-18 00:00:00,TMP,surface,-97.5004,26.929,294.057
2012-12-18 00:00:00,2012-12-18 00:00:00,TMP,surface,-96.5629,26.929,295.301
2012-12-18 00:00:00,2012-12-18 00:00:00,TMP,surface,-95.6254,26.929,296.707
2012-12-18 00:00:00,2012-12-18 00:00:00,TMP,surface,-94.6879,26.929,297.235
2012-12-18 00:00:00,2012-12-18 00:00:00,TMP,surface,-93.7504,26.929,297.48
2012-12-18 00:00:00,2012-12-18 00:00:00,TMP,surface,-92.8129,26.929,297.691
2012-12-18 00:00:00,2012-12-18 00:00:00,TMP,surface,-107.813,27.8739,279.556
2012-12-18 00:00:00,2012-12-18 00:00:00,TMP,surface,-106.875,27.8739,279.301
2012-12-18 00:00:00,2012-12-18 00:00:00,TMP,surface,-105.938,27.8739,282.966
2012-12-18 00:00:00,2012-12-18 00:00:00,TMP,surface,-105,27.8739,285.734
2012-12-18 00:00:00,2012-12-18 00:00:00,TMP,surface,-104.063,27.8739,285.444
2012-12-18 00:00:00,2012-12-18 00:00:00,TMP,surface,-103.125,27.8739,284.552
2012-12-18 00:00:00,2012-12-18 00:00:00,TMP,surface,-102.188,27.8739,284.902
2012-12-18 00:00:00,2012-12-18 00:00:00,TMP,surface,-101.25,27.8739,286.212
2012-12-18 00:00:00,2012-12-18 00:00:00,TMP,surface,-100.313,27.8739,288.011
2012-12-18 00:00:00,2012-12-18 00:00:00,TMP,surface,-99.3754,27.8739,289.301
2012-12-18 00:00:00,2012-12-18 00:00:00,TMP,surface,-98.4379,27.8739,290.003
2012-12-18 00:00:00,2012-12-18 00:00:00,TMP,surface,-97.5004,27.8739,292.073
2012-12-18 00:00:00,2012-12-18 00:00:00,TMP,surface,-96.5629,27.8739,294.507
2012-12-18 00:00:00,2012-12-18 00:00:00,TMP,surface,-95.6254,27.8739,295.744
2012-12-18 00:00:00,2012-12-18 00:00:00,TMP,surface,-94.6879,27.8739,296.625
2012-12-18 00:00:00,2012-12-18 00:00:00,TMP,surface,-93.7504,27.8739,296.878
2012-12-18 00:00:00,2012-12-18 00:00:00,TMP,surface,-92.8129,27.8739,296.757
2012-12-18 00:00:00,2012-12-18 00:00:00,TMP,surface,-107.813,28.8188,278.296
2012-12-18 00:00:00,2012-12-18 00:00:00,TMP,surface,-106.875,28.8188,279.421
2012-12-18 00:00:00,2012-12-18 00:00:00,TMP,surface,-105.938,28.8188,282.715
2012-12-18 00:00:00,2012-12-18 00:00:00,TMP,surface,-105,28.8188,284.387
2012-12-18 00:00:00,2012-12-18 00:00:00,TMP,surface,-104.063,28.8188,284.129
2012-12-18 00:00:00,2012-12-18 00:00:00,TMP,surface,-103.125,28.8188,283.816
2012-12-18 00:00:00,2012-12-18 00:00:00,TMP,surface,-102.188,28.8188,284.288
2012-12-18 00:00:00,2012-12-18 00:00:00,TMP,surface,-101.25,28.8188,285.341
2012-12-18 00:00:00,2012-12-18 00:00:00,TMP,surface,-100.313,28.8188,286.142
2012-12-18 00:00:00,2012-12-18 00:00:00,TMP,surface,-99.3754,28.8188,286.589
2012-12-18 00:00:00,2012-12-18 00:00:00,TMP,surface,-98.4379,28.8188,287.152
2012-12-18 00:00:00,2012-12-18 00:00:00,TMP,surface,-97.5004,28.8188,288.041
2012-12-18 00:00:00,2012-12-18 00:00:00,TMP,surface,-96.5629,28.8188,288.974
2012-12-18 00:00:00,2012-12-18 00:00:00,TMP,surface,-95.6254,28.8188,291.337
2012-12-18 00:00:00,2012-12-18 00:00:00,TMP,surface,-94.6879,28.8188,294.424
2012-12-18 00:00:00,2012-12-18 00:00:00,TMP,surface,-93.7504,28.8188,294.283
2012-12-18 00:00:00,2012-12-18 00:00:00,TMP,surface,-92.8129,28.8188,294.056
2012-12-18 00:00:00,2012-12-18 00:00:00,TMP,surface,-107.813,29.7637,278.729
2012-12-18 00:00:00,2012-12-18 00:00:00,TMP,surface,-106.875,29.7637,280.104
2012-12-18 00:00:00,2012-12-18 00:00:00,TMP,surface,-105.938,29.7637,281.825
2012-12-18 00:00:00,2012-12-18 00:00:00,TMP,surface,-105,29.7637,282.254
2012-12-18 00:00:00,2012-12-18 00:00:00,TMP,surface,-104.063,29.7637,282.547
2012-12-18 00:00:00,2012-12-18 00:00:00,TMP,surface,-103.125,29.7637,283.201
2012-12-18 00:00:00,2012-12-18 00:00:00,TMP,surface,-102.188,29.7637,284.161
2012-12-18 00:00:00,2012-12-18 00:00:00,TMP,surface,-101.25,29.7637,284.558
2012-12-18 00:00:00,2012-12-18 00:00:00,TMP,surface,-100.313,29.7637,284.214
2012-12-18 00:00:00,2012-12-18 00:00:00,TMP,surface,-99.3754,29.7637,284.052
2012-12-18 00:00:00,2012-12-18 00:00:00,TMP,surface,-98.4379,29.7637,284.475
2012-12-18 00:00:00,2012-12-18 00:00:00,TMP,surface,-97.5004,29.7637,285.237
2012-12-18 00:00:00,2012-12-18 00:00:00,TMP,surface,-96.5629,29.7637,285.993
2012-12-18 00:00:00,2012-12-18 00:00:00,TMP,surface,-95.6254,29.7637,286.558
2012-12-18 00:00:00,2012-12-18 00:00:00,TMP,surface,-94.6879,29.7637,288.246
2012-12-18 00:00:00,2012-12-18 00:00:00,TMP,surface,-93.7504,29.7637,290.24
2012-12-18 00:00:00,2012-12-18 00:00:00,TMP,surface,-92.8129,29.7637,286.792
2012-12-18 00:00:00,2012-12-18 00:00:00,TMP,surface,-107.813,30.7085,279.533
2012-12-18 00:00:00,2012-12-18 00:00:00,TMP,surface,-106.875,30.7085,280.224
2012-12-18 00:00:00,2012-12-18 00:00:00,TMP,surface,-105.938,30.7085,280.521
2012-12-18 00:00:00,2012-12-18 00:00:00,TMP,surface,-105,30.7085,280.723
2012-12-18 00:00:00,2012-12-18 00:00:00,TMP,surface,-104.063,30.7085,281.238
2012-12-18 00:00:00,2012-12-18 00:00:00,TMP,surface,-103.125,30.7085,282.388
2012-12-18 00:00:00,2012-12-18 00:00:00,TMP,surface,-102.188,30.7085,283.219
2012-12-18 00:00:00,2012-12-18 00:00:00,TMP,surface,-101.25,30.7085,283.413
2012-12-18 00:00:00,2012-12-18 00:00:00,TMP,surface,-100.313,30.7085,283.155
2012-12-18 00:00:00,2012-12-18 00:00:00,TMP,surface,-99.3754,30.7085,283.075
2012-12-18 00:00:00,2012-12-18 00:00:00,TMP,surface,-98.4379,30.7085,283.294
2012-12-18 00:00:00,2012-12-18 00:00:00,TMP,surface,-97.5004,30.7085,283.654
2012-12-18 00:00:00,2012-12-18 00:00:00,TMP,surface,-96.5629,30.7085,284.062
2012-12-18 00:00:00,2012-12-18 00:00:00,TMP,surface,-95.6254,30.7085,284.324
2012-12-18 00:00:00,2012-12-18 00:00:00,TMP,surface,-94.6879,30.7085,284.253
2012-12-18 00:00:00,2012-12-18 00:00:00,TMP,surface,-93.7504,30.7085,283.95
2012-12-18 00:00:00,2012-12-18 00:00:00,TMP,surface,-92.8129,30.7085,283.627
2012-12-18 00:00:00,2012-12-18 00:00:00,TMP,surface,-107.813,31.6534,278.355
2012-12-18 00:00:00,2012-12-18 00:00:00,TMP,surface,-106.875,31.6534,279.054
2012-12-18 00:00:00,2012-12-18 00:00:00,TMP,surface,-105.938,31.6534,278.98
2012-12-18 00:00:00,2012-12-18 00:00:00,TMP,surface,-105,31.6534,279.36
2012-12-18 00:00:00,2012-12-18 00:00:00,TMP,surface,-104.063,31.6534,280.405
2012-12-18 00:00:00,2012-12-18 00:00:00,TMP,surface,-103.125,31.6534,281.449
2012-12-18 00:00:00,2012-12-18 00:00:00,TMP,surface,-102.188,31.6534,282.102
2012-12-18 00:00:00,2012-12-18 00:00:00,TMP,surface,-101.25,31.6534,282.176
2012-12-18 00:00:00,2012-12-18 00:00:00,TMP,surface,-100.313,31.6534,282.305
2012-12-18 00:00:00,2012-12-18 00:00:00,TMP,surface,-99.3754,31.6534,282.496
2012-12-18 00:00:00,2012-12-18 00:00:00,TMP,surface,-98.4379,31.6534,282.726
2012-12-18 00:00:00,2012-12-18 00:00:00,TMP,surface,-97.5004,31.6534,282.957
2012-12-18 00:00:00,2012-12-18 00:00:00,TMP,surface,-96.5629,31.6534,283.11
2012-12-18 00:00:00,2012-12-18 00:00:00,TMP,surface,-95.6254,31.6534,283.032
2012-12-18 00:00:00,2012-12-18 00:00:00,TMP,surface,-94.6879,31.6534,282.681
2012-12-18 00:00:00,2012-12-18 00:00:00,TMP,surface,-93.7504,31.6534,282.382
2012-12-18 00:00:00,2012-12-18 00:00:00,TMP,surface,-92.8129,31.6534,282.31
2012-12-18 00:00:00,2012-12-18 00:00:00,TMP,surface,-107.813,32.5983,275.216
2012-12-18 00:00:00,2012-12-18 00:00:00,TMP,surface,-106.875,32.5983,275.944
2012-12-18 00:00:00,2012-12-18 00:00:00,TMP,surface,-105.938,32.5983,276.464
2012-12-18 00:00:00,2012-12-18 00:00:00,TMP,surface,-105,32.5983,277.702
2012-12-18 00:00:00,2012-12-18 00:00:00,TMP,surface,-104.063,32.5983,278.987
2012-12-18 00:00:00,2012-12-18 00:00:00,TMP,surface,-103.125,32.5983,279.957
2012-12-18 00:00:00,2012-12-18 00:00:00,TMP,surface,-102.188,32.5983,280.521
2012-12-18 00:00:00,2012-12-18 00:00:00,TMP,surface,-101.25,32.5983,280.812
2012-12-18 00:00:00,2012-12-18 00:00:00,TMP,surface,-100.313,32.5983,281.201
2012-12-18 00:00:00,2012-12-18 00:00:00,TMP,surface,-99.3754,32.5983,281.574
2012-12-18 00:00:00,2012-12-18 00:00:00,TMP,surface,-98.4379,32.5983,281.817
2012-12-18 00:00:00,2012-12-18 00:00:00,TMP,surface,-97.5004,32.5983,282.085
2012-12-18 00:00:00,2012-12-18 00:00:00,TMP,surface,-96.5629,32.5983,282.276
2012-12-18 00:00:00,2012-12-18 00:00:00,TMP,surface,-95.6254,32.5983,282.133
2012-12-18 00:00:00,2012-12-18 00:00:00,TMP,surface,-94.6879,32.5983,281.723
2012-12-18 00:00:00,2012-12-18 00:00:00,TMP,surface,-93.7504,32.5983,281.413
2012-12-18 00:00:00,2012-12-18 00:00:00,TMP,surface,-92.8129,32.5983,281.573
2012-12-18 00:00:00,2012-12-18 00:00:00,TMP,surface,-107.813,33.5432,271.47
2012-12-18 00:00:00,2012-12-18 00:00:00,TMP,surface,-106.875,33.5432,273.36
2012-12-18 00:00:00,2012-12-18 00:00:00,TMP,surface,-105.938,33.5432,275.024
2012-12-18 00:00:00,2012-12-18 00:00:00,TMP,surface,-105,33.5432,276.576
2012-12-18 00:00:00,2012-12-18 00:00:00,TMP,surface,-104.063,33.5432,278.06
2012-12-18 00:00:00,2012-12-18 00:00:00,TMP,surface,-103.125,33.5432,278.723
2012-12-18 00:00:00,2012-12-18 00:00:00,TMP,surface,-102.188,33.5432,278.806
2012-12-18 00:00:00,2012-12-18 00:00:00,TMP,surface,-101.25,33.5432,279.257
2012-12-18 00:00:00,2012-12-18 00:00:00,TMP,surface,-100.313,33.5432,279.995
2012-12-18 00:00:00,2012-12-18 00:00:00,TMP,surface,-99.3754,33.5432,280.297
2012-12-18 00:00:00,2012-12-18 00:00:00,TMP,surface,-98.4379,33.5432,280.302
2012-12-18 00:00:00,2012-12-18 00:00:00,TMP,surface,-97.5004,33.5432,280.421
2012-12-18 00:00:00,2012-12-18 00:00:00,TMP,surface,-96.5629,33.5432,280.699
2012-12-18 00:00:00,2012-12-18 00:00:00,TMP,surface,-95.6254,33.5432,280.899
2012-12-18 00:00:00,2012-12-18 00:00:00,TMP,surface,-94.6879,33.5432,280.76
2012-12-18 00:00:00,2012-12-18 00:00:00,TMP,surface,-93.7504,33.5432,280.425
2012-12-18 00:00:00,2012-12-18 00:00:00,TMP,surface,-92.8129,33.5432,280.492
2012-12-18 00:00:00,2012-12-18 00:00:00,TMP,surface,-107.813,34.4881,270.089
2012-12-18 00:00:00,2012-12-18 00:00:00,TMP,surface,-106.875,34.4881,271.867
2012-12-18 00:00:00,2012-12-18 00:00:00,TMP,surface,-105.938,34.4881,273.598
2012-12-18 00:00:00,2012-12-18 00:00:00,TMP,surface,-105,34.4881,275.181
2012-12-18 00:00:00,2012-12-18 00:00:00,TMP,surface,-104.063,34.4881,276.59
2012-12-18 00:00:00,2012-12-18 00:00:00,TMP,surface,-103.125,34.4881,276.947
2012-12-18 00:00:00,2012-12-18 00:00:00,TMP,surface,-102.188,34.4881,277.067
2012-12-18 00:00:00,2012-12-18 00:00:00,TMP,surface,-101.25,34.4881,277.662
2012-12-18 00:00:00,2012-12-18 00:00:00,TMP,surface,-100.313,34.4881,278.126
2012-12-18 00:00:00,2012-12-18 00:00:00,TMP,surface,-99.3754,34.4881,278.393
2012-12-18 00:00:00,2012-12-18 00:00:00,TMP,surface,-98.4379,34.4881,278.547
2012-12-18 00:00:00,2012-12-18 00:00:00,TMP,surface,-97.5004,34.4881,278.67
2012-12-18 00:00:00,2012-12-18 00:00:00,TMP,surface,-96.5629,34.4881,278.894
2012-12-18 00:00:00,2012-12-18 00:00:00,TMP,surface,-95.6254,34.4881,278.958
2012-12-18 00:00:00,2012-12-18 00:00:00,TMP,surface,-94.6879,34.4881,278.701
2012-12-18 00:00:00,2012-12-18 00:00:00,TMP,surface,-93.7504,34.4881,278.646
2012-12-18 00:00:00,2012-12-18 00:00:00,TMP,surface,-92.8129,34.4881,278.857
2012-12-18 00:00:00,2012-12-18 00:00:00,TMP,surface,-107.813,35.4329,269.629
2012-12-18 00:00:00,2012-12-18 00:00:00,TMP,surface,-106.875,35.4329,269.846
2012-12-18 00:00:00,2012-12-18 00:00:00,TMP,surface,-105.938,35.4329,271.219
2012-12-18 00:00:00,2012-12-18 00:00:00,TMP,surface,-105,35.4329,273.181
2012-12-18 00:00:00,2012-12-18 00:00:00,TMP,surface,-104.063,35.4329,274.621
2012-12-18 00:00:00,2012-12-18 00:00:00,TMP,surface,-103.125,35.4329,275.728
2012-12-18 00:00:00,2012-12-18 00:00:00,TMP,surface,-102.188,35.4329,276.313
2012-12-18 00:00:00,2012-12-18 00:00:00,TMP,surface,-101.25,35.4329,276.39
2012-12-18 00:00:00,2012-12-18 00:00:00,TMP,surface,-100.313,35.4329,276.542
2012-12-18 00:00:00,2012-12-18 00:00:00,TMP,surface,-99.3754,35.4329,276.686
2012-12-18 00:00:00,2012-12-18 00:00:00,TMP,surface,-98.4379,35.4329,276.909
2012-12-18 00:00:00,2012-12-18 00:00:00,TMP,surface,-97.5004,35.4329,277.449
2012-12-18 00:00:00,2012-12-18 00:00:00,TMP,surface,-96.5629,35.4329,277.884
2012-12-18 00:00:00,2012-12-18 00:00:00,TMP,surface,-95.6254,35.4329,277.835
2012-12-18 00:00:00,2012-12-18 00:00:00,TMP,surface,-94.6879,35.4329,277.515
2012-12-18 00:00:00,2012-12-18 00:00:00,TMP,surface,-93.7504,35.4329,277.139
2012-12-18 00:00:00,2012-12-18 00:00:00,TMP,surface,-92.8129,35.4329,277.204
2012-12-18 00:00:00,2012-12-18 00:00:00,TMP,surface,-107.813,36.3778,268.539
2012-12-18 00:00:00,2012-12-18 00:00:00,TMP,surface,-106.875,36.3778,266.361
2012-12-18 00:00:00,2012-12-18 00:00:00,TMP,surface,-105.938,36.3778,267.875
2012-12-18 00:00:00,2012-12-18 00:00:00,TMP,surface,-105,36.3778,270.635
2012-12-18 00:00:00,2012-12-18 00:00:00,TMP,surface,-104.063,36.3778,272.701
2012-12-18 00:00:00,2012-12-18 00:00:00,TMP,surface,-103.125,36.3778,274.123
2012-12-18 00:00:00,2012-12-18 00:00:00,TMP,surface,-102.188,36.3778,274.702
2012-12-18 00:00:00,2012-12-18 00:00:00,TMP,surface,-101.25,36.3778,275.108
2012-12-18 00:00:00,2012-12-18 00:00:00,TMP,surface,-100.313,36.3778,275.409
2012-12-18 00:00:00,2012-12-18 00:00:00,TMP,surface,-99.3754,36.3778,275.654
2012-12-18 00:00:00,2012-12-18 00:00:00,TMP,surface,-98.4379,36.3778,275.683
2012-12-18 00:00:00,2012-12-18 00:00:00,TMP,surface,-97.5004,36.3778,276.125
2012-12-18 00:00:00,2012-12-18 00:00:00,TMP,surface,-96.5629,36.3778,276.744
2012-12-18 00:00:00,2012-12-18 00:00:00,TMP,surface,-95.6254,36.3778,276.749
2012-12-18 00:00:00,2012-12-18 00:00:00,TMP,surface,-94.6879,36.3778,276.251
2012-12-18 00:00:00,2012-12-18 00:00:00,TMP,surface,-93.7504,36.3778,275.707
2012-12-18 00:00:00,2012-12-18 00:00:00,TMP,surface,-92.8129,36.3778,275.723
2012-12-18 00:00:00,2012-12-18 00:00:00,PRATE,surface,-107.813,25.0393,4e-07
2012-12-18 00:00:00,2012-12-18 00:00:00,PRATE,surface,-106.875,25.0393,8e-07
2012-12-18 00:00:00,2012-12-18 00:00:00,PRATE,surface,-105.938,25.0393,9e-07
2012-12-18 00:00:00,2012-12-18 00:00:00,PRATE,surface,-105,25.0393,3e-07
2012-12-18 00:00:00,2012-12-18 00:00:00,PRATE,surface,-104.063,25.0393,1e-07
2012-12-18 00:00:00,2012-12-18 00:00:00,PRATE,surface,-103.125,25.0393,1e-07
2012-12-18 00:00:00,2012-12-18 00:00:00,PRATE,surface,-102.188,25.0393,2e-07
2012-12-18 00:00:00,2012-12-18 00:00:00,PRATE,surface,-101.25,25.0393,1e-07
2012-12-18 00:00:00,2012-12-18 00:00:00,PRATE,surface,-100.313,25.0393,1.1e-06
2012-12-18 00:00:00,2012-12-18 00:00:00,PRATE,surface,-99.3754,25.0393,2e-07
2012-12-18 00:00:00,2012-12-18 00:00:00,PRATE,surface,-98.4379,25.0393,7e-07
2012-12-18 00:00:00,2012-12-18 00:00:00,PRATE,surface,-97.5004,25.0393,4.7e-06
2012-12-18 00:00:00,2012-12-18 00:00:00,PRATE,surface,-96.5629,25.0393,2.17e-05
2012-12-18 00:00:00,2012-12-18 00:00:00,PRATE,surface,-95.6254,25.0393,2.33e-05
2012-12-18 00:00:00,2012-12-18 00:00:00,PRATE,surface,-94.6879,25.0393,1.32e-05
2012-12-18 00:00:00,2012-12-18 00:00:00,PRATE,surface,-93.7504,25.0393,2.56e-05
2012-12-18 00:00:00,2012-12-18 00:00:00,PRATE,surface,-92.8129,25.0393,2.46e-05
2012-12-18 00:00:00,2012-12-18 00:00:00,PRATE,surface,-107.813,25.9842,2.4e-06
2012-12-18 00:00:00,2012-12-18 00:00:00,PRATE,surface,-106.875,25.9842,2.8e-06
2012-12-18 00:00:00,2012-12-18 00:00:00,PRATE,surface,-105.938,25.9842,1.2e-06
2012-12-18 00:00:00,2012-12-18 00:00:00,PRATE,surface,-105,25.9842,1e-07
2012-12-18 00:00:00,2012-12-18 00:00:00,PRATE,surface,-104.063,25.9842,0
2012-12-18 00:00:00,2012-12-18 00:00:00,PRATE,surface,-103.125,25.9842,0
2012-12-18 00:00:00,2012-12-18 00:00:00,PRATE,surface,-102.188,25.9842,2e-07
2012-12-18 00:00:00,2012-12-18 00:00:00,PRATE,surface,-101.25,25.9842,1e-07
2012-12-18 00:00:00,2012-12-18 00:00:00,PRATE,surface,-100.313,25.9842,2e-07
2012-12-18 00:00:00,2012-12-18 00:00:00,PRATE,surface,-99.3754,25.9842,5e-07
2012-12-18 00:00:00,2012-12-18 00:00:00,PRATE,surface,-98.4379,25.9842,7e-07
2012-12-18 00:00:00,2012-12-18 00:00:00,PRATE,surface,-97.5004,25.9842,5.6e-06
2012-12-18 00:00:00,2012-12-18 00:00:00,PRATE,surface,-96.5629,25.9842,2.95e-05
2012-12-18 00:00:00,2012-12-18 00:00:00,PRATE,surface,-95.6254,25.9842,2.16e-05
2012-12-18 00:00:00,2012-12-18 00:00:00,PRATE,surface,-94.6879,25.9842,2.11e-05
2012-12-18 00:00:00,2012-12-18 00:00:00,PRATE,surface,-93.7504,25.9842,4.24e-05
2012-12-18 00:00:00,2012-12-18 00:00:00,PRATE,surface,-92.8129,25.9842,4.59e-05
2012-12-18 00:00:00,2012-12-18 00:00:00,PRATE,surface,-107.813,26.929,5.9e-06
2012-12-18 00:00:00,2012-12-18 00:00:00,PRATE,surface,-106.875,26.929,5.5e-06
2012-12-18 00:00:00,2012-12-18 00:00:00,PRATE,surface,-105.938,26.929,1.8e-06
2012-12-18 00:00:00,2012-12-18 00:00:00,PRATE,surface,-105,26.929,2e-07
2012-12-18 00:00:00,2012-12-18 00:00:00,PRATE,surface,-104.063,26.929,0
2012-12-18 00:00:00,2012-12-18 00:00:00,PRATE,surface,-103.125,26.929,0
2012-12-18 00:00:00,2012-12-18 00:00:00,PRATE,surface,-102.188,26.929,3e-07
2012-12-18 00:00:00,2012-12-18 00:00:00,PRATE,surface,-101.25,26.929,7e-07
2012-12-18 00:00:00,2012-12-18 00:00:00,PRATE,surface,-100.313,26.929,6e-07
2012-12-18 00:00:00,2012-12-18 00:00:00,PRATE,surface,-99.3754,26.929,7e-07
2012-12-18 00:00:00,2012-12-18 00:00:00,PRATE,surface,-98.4379,26.929,5.7e-06
2012-12-18 00:00:00,2012-12-18 00:00:00,PRATE,surface,-97.5004,26.929,1.92e-05
2012-12-18 00:00:00,2012-12-18 00:00:00,PRATE,surface,-96.5629,26.929,2.99e-05
2012-12-18 00:00:00,2012-12-18 00:00:00,PRATE,surface,-95.6254,26.929,3.22e-05
2012-12-18 00:00:00,2012-12-18 00:00:00,PRATE,surface,-94.6879,26.929,4.76e-05
2012-12-18 00:00:00,2012-12-18 00:00:00,PRATE,surface,-93.7504,26.929,6.76e-05
2012-12-18 00:00:00,2012-12-18 00:00:00,PRATE,surface,-92.8129,26.929,6.48e-05
2012-12-18 00:00:00,2012-12-18 00:00:00,PRATE,surface,-107.813,27.8739,7.8e-06
2012-12-18 00:00:00,2012-12-18 00:00:00,PRATE,surface,-106.875,27.8739,6.8e-06
2012-12-18 00:00:00,2012-12-18 00:00:00,PRATE,surface,-105.938,27.8739,2.6e-06
2012-12-18 00:00:00,2012-12-18 00:00:00,PRATE,surface,-105,27.8739,7e-07
2012-12-18 00:00:00,2012-12-18 00:00:00,PRATE,surface,-104.063,27.8739,3e-07
2012-12-18 00:00:00,2012-12-18 00:00:00,PRATE,surface,-103.125,27.8739,4e-07
2012-12-18 00:00:00,2012-12-18 00:00:00,PRATE,surface,-102.188,27.8739,1.7e-06
2012-12-18 00:00:00,2012-12-18 00:00:00,PRATE,surface,-101.25,27.8739,2.3e-06
2012-12-18 00:00:00,2012-12-18 00:00:00,PRATE,surface,-100.313,27.8739,2.8e-06
2012-12-18 00:00:00,2012-12-18 00:00:00,PRATE,surface,-99.3754,27.8739,5.2e-06
2012-12-18 00:00:00,2012-12-18 00:00:00,PRATE,surface,-98.4379,27.8739,1.26e-05
2012-12-18 00:00:00,2012-12-18 00:00:00,PRATE,surface,-97.5004,27.8739,2.14e-05
2012-12-18 00:00:00,2012-12-18 00:00:00,PRATE,surface,-96.5629,27.8739,2.69e-05
2012-12-18 00:00:00,2012-12-18 00:00:00,PRATE,surface,-95.6254,27.8739,4.18e-05
2012-12-18 00:00:00,2012-12-18 00:00:00,PRATE,surface,-94.6879,27.8739,7.06e-05
2012-12-18 00:00:00,2012-12-18 00:00:00,PRATE,surface,-93.7504,27.8739,9.1e-05
2012-12-18 00:00:00,2012-12-18 00:00:00,PRATE,surface,-92.8129,27.8739,9.41e-05
2012-12-18 00:00:00,2012-12-18 00:00:00,PRATE,surface,-107.813,28.8188,7.6e-06
2012-12-18 00:00:00,2012-12-18 00:00:00,PRATE,surface,-106.875,28.8188,6.3e-06
2012-12-18 00:00:00,2012-12-18 00:00:00,PRATE,surface,-105.938,28.8188,3.6e-06
2012-12-18 00:00:00,2012-12-18 00:00:00,PRATE,surface,-105,28.8188,2.4e-06
2012-12-18 00:00:00,2012-12-18 00:00:00,PRATE,surface,-104.063,28.8188,2.8e-06
2012-12-18 00:00:00,2012-12-18 00:00:00,PRATE,surface,-103.125,28.8188,2.6e-06
2012-12-18 00:00:00,2012-12-18 00:00:00,PRATE,surface,-102.188,28.8188,2.1e-06
2012-12-18 00:00:00,2012-12-18 00:00:00,PRATE,surface,-101.25,28.8188,3.2e-06
2012-12-18 00:00:00,2012-12-18 00:00:00,PRATE,surface,-100.313,28.8188,7.1e-06
2012-12-18 00:00:00,2012-12-18 00:00:00,PRATE,surface,-99.3754,28.8188,1.07e-05
2012-12-18 00:00:00,2012-12-18 00:00:00,PRATE,surface,-98.4379,28.8188,1.75e-05
2012-12-18 00:00:00,2012-12-18 00:00:00,PRATE,surface,-97.5004,28.8188,2.07e-05
2012-12-18 00:00:00,2012-12-18 00:00:00,PRATE,surface,-96.5629,28.8188,2.8e-05
2012-12-18 00:00:00,2012-12-18 00:00:00,PRATE,surface,-95.6254,28.8188,5.23e-05
2012-12-18 00:00:00,2012-12-18 00:00:00,PRATE,surface,-94.6879,28.8188,8.39e-05
2012-12-18 00:00:00,2012-12-18 00:00:00,PRATE,surface,-93.7504,28.8188,0.0001011
2012-12-18 00:00:00,2012-12-18 00:00:00,PRATE,surface,-92.8129,28.8188,9.3e-05
2012-12-18 00:00:00,2012-12-18 00:00:00,PRATE,surface,-107.813,29.7637,3e-06
2012-12-18 00:00:00,2012-12-18 00:00:00,PRATE,surface,-106.875,29.7637,2.4e-06
2012-12-18 00:00:00,2012-12-18 00:00:00,PRATE,surface,-105.938,29.7637,2.9e-06
2012-12-18 00:00:00,2012-12-18 00:00:00,PRATE,surface,-105,29.7637,4.2e-06
2012-12-18 00:00:00,2012-12-18 00:00:00,PRATE,surface,-104.063,29.7637,5.4e-06
2012-12-18 00:00:00,2012-12-18 00:00:00,PRATE,surface,-103.125,29.7637,5.2e-06
2012-12-18 00:00:00,2012-12-18 00:00:00,PRATE,surface,-102.188,29.7637,3.7e-06
2012-12-18 00:00:00,2012-12-18 00:00:00,PRATE,surface,-101.25,29.7637,4.2e-06
2012-12-18 00:00:00,2012-12-18 00:00:00,PRATE,surface,-100.313,29.7637,1.43e-05
2012-12-18 00:00:00,2012-12-18 00:00:00,PRATE,surface,-99.3754,29.7637,2.66e-05
2012-12-18 00:00:00,2012-12-18 00:00:00,PRATE,surface,-98.4379,29.7637,3.51e-05
2012-12-18 00:00:00,2012-12-18 00:00:00,PRATE,surface,-97.5004,29.7637,3.69e-05
2012-12-18 00:00:00,2012-12-18 00:00:00,PRATE,surface,-96.5629,29.7637,4.22e-05
2012-12-18 00:00:00,2012-12-18 00:00:00,PRATE,surface,-95.6254,29.7637,6.04e-05
2012-12-18 00:00:00,2012-12-18 00:00:00,PRATE,surface,-94.6879,29.7637,8.55e-05
2012-12-18 00:00:00,2012-12-18 00:00:00,PRATE,surface,-93.7504,29.7637,0.0001035
2012-12-18 00:00:00,2012-12-18 00:00:00,PRATE,surface,-92.8129,29.7637,0.0001019
2012-12-18 00:00:00,2012-12-18 00:00:00,PRATE,surface,-107.813,30.7085,2.6e-06
2012-12-18 00:00:00,2012-12-18 00:00:00,PRATE,surface,-106.875,30.7085,2.4e-06
2012-12-18 00:00:00,2012-12-18 00:00:00,PRATE,surface,-105.938,30.7085,2.3e-06
2012-12-18 00:00:00,2012-12-18 00:00:00,PRATE,surface,-105,30.7085,2e-06
2012-12-18 00:00:00,2012-12-18 00:00:00,PRATE,surface,-104.063,30.7085,4e-06
2012-12-18 00:00:00,2012-12-18 00:00:00,PRATE,surface,-103.125,30.7085,4.1e-06
2012-12-18 00:00:00,2012-12-18 00:00:00,PRATE,surface,-102.188,30.7085,4.4e-06
2012-12-18 00:00:00,2012-12-18 00:00:00,PRATE,surface,-101.25,30.7085,4.5e-06
2012-12-18 00:00:00,2012-12-18 00:00:00,PRATE,surface,-100.313,30.7085,1.04e-05
2012-12-18 00:00:00,2012-12-18 00:00:00,PRATE,surface,-99.3754,30.7085,2.74e-05
2012-12-18 00:00:00,2012-12-18 00:00:00,PRATE,surface,-98.4379,30.7085,4.6e-05
2012-12-18 00:00:00,2012-12-18 00:00:00,PRATE,surface,-97.5004,30.7085,5.11e-05
2012-12-18 00:00:00,2012-12-18 00:00:00,PRATE,surface,-96.5629,30.7085,5.35e-05
2012-12-18 00:00:00,2012-12-18 00:00:00,PRATE,surface,-95.6254,30.7085,6.8e-05
2012-12-18 00:00:00,2012-12-18 00:00:00,PRATE,surface,-94.6879,30.7085,8.75e-05
2012-12-18 00:00:00,2012-12-18 00:00:00,PRATE,surface,-93.7504,30.7085,0.0001054
2012-12-18 00:00:00,2012-12-18 00:00:00,PRATE,surface,-92.8129,30.7085,0.0001176
2012-12-18 00:00:00,2012-12-18 00:00:00,PRATE,surface,-107.813,31.6534,4.8e-06
2012-12-18 00:00:00,2012-12-18 00:00:00,PRATE,surface,-106.875,31.6534,4.4e-06
2012-12-18 00:00:00,2012-12-18 00:00:00,PRATE,surface,-105.938,31.6534,4.3e-06
2012-12-18 00:00:00,2012-12-18 00:00:00,PRATE,surface,-105,31.6534,3.6e-06
2012-12-18 00:00:00,2012-12-18 00:00:00,PRATE,surface,-104.063,31.6534,3.1e-06
2012-12-18 00:00:00,2012-12-18 00:00:00,PRATE,surface,-103.125,31.6534,3.2e-06
2012-12-18 00:00:00,2012-12-18 00:00:00,PRATE,surface,-102.188,31.6534,4.7e-06
2012-12-18 00:00:00,2012-12-18 00:00:00,PRATE,surface,-101.25,31.6534,5.7e-06
2012-12-18 00:00:00,2012-12-18 00:00:00,PRATE,surface,-100.313,31.6534,8.6e-06
2012-12-18 00:00:00,2012-12-18 00:00:00,PRATE,surface,-99.3754,31.6534,1.94e-05
2012-12-18 00:00:00,2012-12-18 00:00:00,PRATE,surface,-98.4379,31.6534,3.48e-05
2012-12-18 00:00:00,2012-12-18 00:00:00,PRATE,surface,-97.5004,31.6534,5.21e-05
2012-12-18 00:00:00,2012-12-18 00:00:00,PRATE,surface,-96.5629,31.6534,6.84e-05
2012-12-18 00:00:00,2012-12-18 00:00:00,PRATE,surface,-95.6254,31.6534,8.04e-05
2012-12-18 00:00:00,2012-12-18 00:00:00,PRATE,surface,-94.6879,31.6534,9.13e-05
2012-12-18 00:00:00,2012-12-18 00:00:00,PRATE,surface,-93.7504,31.6534,0.0001076
2012-12-18 00:00:00,2012-12-18 00:00:00,PRATE,surface,-92.8129,31.6534,0.0001262
2012-12-18 00:00:00,2012-12-18 00:00:00,PRATE,surface,-107.813,32.5983,9.1e-06
2012-12-18 00:00:00,2012-12-18 00:00:00,PRATE,surface,-106.875,32.5983,7.7e-06
2012-12-18 00:00:00,2012-12-18 00:00:00,PRATE,surface,-105.938,32.5983,4.7e-06
2012-12-18 00:00:00,2012-12-18 00:00:00,PRATE,surface,-105,32.5983,2.2e-06
2012-12-18 00:00:00,2012-12-18 00:00:00,PRATE,surface,-104.063,32.5983,2.2e-06
2012-12-18 00:00:00,2012-12-18 00:00:00,PRATE,surface,-103.125,32.5983,2.6e-06
2012-12-18 00:00:00,2012-12-18 00:00:00,PRATE,surface,-102.188,32.5983,3.9e-06
2012-12-18 00:00:00,2012-12-18 00:00:00,PRATE,surface,-101.25,32.5983,6.6e-06
2012-12-18 00:00:00,2012-12-18 00:00:00,PRATE,surface,-100.313,32.5983,9.2e-06
2012-12-18 00:00:00,2012-12-18 00:00:00,PRATE,surface,-99.3754,32.5983,1.46e-05
2012-12-18 00:00:00,2012-12-18 00:00:00,PRATE,surface,-98.4379,32.5983,2.88e-05
2012-12-18 00:00:00,2012-12-18 00:00:00,PRATE,surface,-97.5004,32.5983,5.23e-05
2012-12-18 00:00:00,2012-12-18 00:00:00,PRATE,surface,-96.5629,32.5983,7.31e-05
2012-12-18 00:00:00,2012-12-18 00:00:00,PRATE,surface,-95.6254,32.5983,8.59e-05
2012-12-18 00:00:00,2012-12-18 00:00:00,PRATE,surface,-94.6879,32.5983,9.49e-05
2012-12-18 00:00:00,2012-12-18 00:00:00,PRATE,surface,-93.7504,32.5983,9.76e-05
2012-12-18 00:00:00,2012-12-18 00:00:00,PRATE,surface,-92.8129,32.5983,0.0001032
2012-12-18 00:00:00,2012-12-18 00:00:00,PRATE,surface,-107.813,33.5432,1.84e-05
2012-12-18 00:00:00,2012-12-18 00:00:00,PRATE,surface,-106.875,33.5432,1.23e-05
2012-12-18 00:00:00,2012-12-18 00:00:00,PRATE,surface,-105.938,33.5432,6.3e-06
2012-12-18 00:00:00,2012-12-18 00:00:00,PRATE,surface,-105,33.5432,2.6e-06
2012-12-18 00:00:00,2012-12-18 00:00:00,PRATE,surface,-104.063,33.5432,2.9e-06
2012-12-18 00:00:00,2012-12-18 00:00:00,PRATE,surface,-103.125,33.5432,3.1e-06
2012-12-18 00:00:00,2012-12-18 00:00:00,PRATE,surface,-102.188,33.5432,4.4e-06
2012-12-18 00:00:00,2012-12-18 00:00:00,PRATE,surface,-101.25,33.5432,7.4e-06
2012-12-18 00:00:00,2012-12-18 00:00:00,PRATE,surface,-100.313,33.5432,1.03e-05
2012-12-18 00:00:00,2012-12-18 00:00:00,PRATE,surface,-99.3754,33.5432,1.72e-05
2012-12-18 00:00:00,2012-12-18 00:00:00,PRATE,surface,-98.4379,33.5432,2.83e-05
2012-12-18 00:00:00,2012-12-18 00:00:00,PRATE,surface,-97.5004,33.5432,4.67e-05
2012-12-18 00:00:00,2012-12-18 00:00:00,PRATE,surface,-96.5629,33.5432,6.69e-05
2012-12-18 00:00:00,2012-12-18 00:00:00,PRATE,surface,-95.6254,33.5432,8.26e-05
2012-12-18 00:00:00,2012-12-18 00:00:00,PRATE,surface,-94.6879,33.5432,9.19e-05
2012-12-18 00:00:00,2012-12-18 00:00:00,PRATE,surface,-93.7504,33.5432,9.2e-05
2012-12-18 00:00:00,2012-12-18 00:00:00,PRATE,surface,-92.8129,33.5432,8.97e-05
2012-12-18 00:00:00,2012-12-18 00:00:00,PRATE,surface,-107.813,34.4881,2.06e-05
2012-12-18 00:00:00,2012-12-18 00:00:00,PRATE,surface,-106.875,34.4881,1.29e-05
2012-12-18 00:00:00,2012-12-18 00:00:00,PRATE,surface,-105.938,34.4881,7.9e-06
2012-12-18 00:00:00,2012-12-18 00:00:00,PRATE,surface,-105,34.4881,6.2e-06
2012-12-18 00:00:00,2012-12-18 00:00:00,PRATE,surface,-104.063,34.4881,5e-06
2012-12-18 00:00:00,2012-12-18 00:00:00,PRATE,surface,-103.125,34.4881,4e-06
2012-12-18 00:00:00,2012-12-18 00:00:00,PRATE,surface,-102.188,34.4881,4.6e-06
2012-12-18 00:00:00,2012-12-18 00:00:00,PRATE,surface,-101.25,34.4881,8.1e-06
2012-12-18 00:00:00,2012-12-18 00:00:00,PRATE,surface,-100.313,34.4881,1.28e-05
2012-12-18 00:00:00,2012-12-18 00:00:00,PRATE,surface,-99.3754,34.4881,2.16e-05
2012-12-18 00:00:00,2012-12-18 00:00:00,PRATE,surface,-98.4379,34.4881,3.44e-05
2012-12-18 00:00:00,2012-12-18 00:00:00,PRATE,surface,-97.5004,34.4881,4.89e-05
2012-12-18 00:00:00,2012-12-18 00:00:00,PRATE,surface,-96.5629,34.4881,6.47e-05
2012-12-18 00:00:00,2012-12-18 00:00:00,PRATE,surface,-95.6254,34.4881,8.12e-05
2012-12-18 00:00:00,2012-12-18 00:00:00,PRATE,surface,-94.6879,34.4881,9.53e-05
2012-12-18 00:00:00,2012-12-18 00:00:00,PRATE,surface,-93.7504,34.4881,0.0001028
2012-12-18 00:00:00,2012-12-18 00:00:00,PRATE,surface,-92.8129,34.4881,9.74e-05
2012-12-18 00:00:00,2012-12-18 00:00:00,PRATE,surface,-107.813,35.4329,2.14e-05
2012-12-18 00:00:00,2012-12-18 00:00:00,PRATE,surface,-106.875,35.4329,1.53e-05
2012-12-18 00:00:00,2012-12-18 00:00:00,PRATE,surface,-105.938,35.4329,1.27e-05
2012-12-18 00:00:00,2012-12-18 00:00:00,PRATE,surface,-105,35.4329,1.16e-05
2012-12-18 00:00:00,2012-12-18 00:00:00,PRATE,surface,-104.063,35.4329,9.3e-06
2012-12-18 00:00:00,2012-12-18 00:00:00,PRATE,surface,-103.125,35.4329,5.6e-06
2012-12-18 00:00:00,2012-12-18 00:00:00,PRATE,surface,-102.188,35.4329,5e-06
2012-12-18 00:00:00,2012-12-18 00:00:00,PRATE,surface,-101.25,35.4329,8e-06
2012-12-18 00:00:00,2012-12-18 00:00:00,PRATE,surface,-100.313,35.4329,1.31e-05
2012-12-18 00:00:00,2012-12-18 00:00:00,PRATE,surface,-99.3754,35.4329,2.3e-05
2012-12-18 00:00:00,2012-12-18 00:00:00,PRATE,surface,-98.4379,35.4329,4.21e-05
2012-12-18 00:00:00,2012-12-18 00:00:00,PRATE,surface,-97.5004,35.4329,6.15e-05
2012-12-18 00:00:00,2012-12-18 00:00:00,PRATE,surface,-96.5629,35.4329,7.54e-05
2012-12-18 00:00:00,2012-12-18 00:00:00,PRATE,surface,-95.6254,35.4329,8.72e-05
2012-12-18 00:00:00,2012-12-18 00:00:00,PRATE,surface,-94.6879,35.4329,0.0001006
2012-12-18 00:00:00,2012-12-18 00:00:00,PRATE,surface,-93.7504,35.4329,0.0001138
2012-12-18 00:00:00,2012-12-18 00:00:00,PRATE,surface,-92.8129,35.4329,0.0001151
2012-12-18 00:00:00,2012-12-18 00:00:00,PRATE,surface,-107.813,36.3778,2.97e-05
2012-12-18 00:00:00,2012-12-18 00:00:00,PRATE,surface,-106.875,36.3778,2.4e-05
2012-12-18 00:00:00,2012-12-18 00:00:00,PRATE,surface,-105.938,36.3778,1.61e-05
2012-12-18 00:00:00,2012-12-18 00:00:00,PRATE,surface,-105,36.3778,1.56e-05
2012-12-18 00:00:00,2012-12-18 00:00:00,PRATE,surface,-104.063,36.3778,1.32e-05
2012-12-18 00:00:00,2012-12-18 00:00:00,PRATE,surface,-103.125,36.3778,1.21e-05
2012-12-18 00:00:00,2012-12-18 00:00:00,PRATE,surface,-102.188,36.3778,1.3e-05
2012-12-18 00:00:00,2012-12-18 00:00:00,PRATE,surface,-101.25,36.3778,1.48e-05
2012-12-18 00:00:00,2012-12-18 00:00:00,PRATE,surface,-100.313,36.3778,1.57e-05
2012-12-18 00:00:00,2012-12-18 00:00:00,PRATE,surface,-99.3754,36.3778,2.07e-05
2012-12-18 00:00:00,2012-12-18 00:00:00,PRATE,surface,-98.4379,36.3778,3.21e-05
2012-12-18 00:00:00,2012-12-18 00:00:00,PRATE,surface,-97.5004,36.3778,4.4e-05
2012-12-18 00:00:00,2012-12-18 00:00:00,PRATE,surface,-96.5629,36.3778,4.98e-05
2012-12-18 00:00:00,2012-12-18 00:00:00,PRATE,surface,-95.6254,36.3778,5.17e-05
2012-12-18 00:00:00,2012-12-18 00:00:00,PRATE,surface,-94.6879,36.3778,5.92e-05
2012-12-18 00:00:00,2012-12-18 00:00:00,PRATE,surface,-93.7504,36.3778,7.6e-05
2012-12-18 00:00:00,2012-12-18 00:00:00,PRATE,surface,-92.8129,36.3778,9.43e-05
