2018-06-23 00:00:00,2018-06-23 00:00:00,TMP,surface,-107.813,25.0393,302.975
2018-06-23 00:00:00,2018-06-23 00:00:00,TMP,surface,-106.875,25.0393,296.219
2018-06-23 00:00:00,2018-06-23 00:00:00,TMP,surface,-105.938,25.0393,291.819
2018-06-23 00:00:00,2018-06-23 00:00:00,TMP,surface,-105,25.0393,290.309
2018-06-23 00:00:00,2018-06-23 00:00:00,TMP,surface,-104.063,25.0393,294.69
2018-06-23 00:00:00,2018-06-23 00:00:00,TMP,surface,-103.125,25.0393,298.29
2018-06-23 00:00:00,2018-06-23 00:00:00,TMP,surface,-102.188,25.0393,297.387
2018-06-23 00:00:00,2018-06-23 00:00:00,TMP,surface,-101.25,25.0393,294.299
2018-06-23 00:00:00,2018-06-23 00:00:00,TMP,surface,-100.313,25.0393,294.395
2018-06-23 00:00:00,2018-06-23 00:00:00,TMP,surface,-99.3754,25.0393,298.197
2018-06-23 00:00:00,2018-06-23 00:00:00,TMP,surface,-98.4379,25.0393,301.208
2018-06-23 00:00:00,2018-06-23 00:00:00,TMP,surface,-97.5004,25.0393,302.175
2018-06-23 00:00:00,2018-06-23 00:00:00,TMP,surface,-96.5629,25.0393,302.431
2018-06-23 00:00:00,2018-06-23 00:00:00,TMP,surface,-95.6254,25.0393,302.555
2018-06-23 00:00:00,2018-06-23 00:00:00,TMP,surface,-94.6879,25.0393,302.683
2018-06-23 00:00:00,2018-06-23 00:00:00,TMP,surface,-93.7504,25.0393,302.728
2018-06-23 00:00:00,2018-06-23 00:00:00,TMP,surface,-92.8129,25.0393,302.783
2018-06-23 00:00:00,2018-06-23 00:00:00,TMP,surface,-107.813,25.9842,299.039
2018-06-23 00:00:00,2018-06-23 00:00:00,TMP,surface,-106.875,25.9842,292.527
2018-06-23 00:00:00,2018-06-23 00:00:00,TMP,surface,-105.938,25.9842,290.939
2018-06-23 00:00:00,2018-06-23 00:00:00,TMP,surface,-105,25.9842,292.68
2018-06-23 00:00:00,2018-06-23 00:00:00,TMP,surface,-104.063,25.9842,298.863
2018-06-23 00:00:00,2018-06-23 00:00:00,TMP,surface,-103.125,25.9842,300.447
2018-06-23 00:00:00,2018-06-23 00:00:00,TMP,surface,-102.188,25.9842,299.128
2018-06-23 00:00:00,2018-06-23 00:00:00,TMP,surface,-101.25,25.9842,297.506
2018-06-23 00:00:00,2018-06-23 00:00:00,TMP,surface,-100.313,25.9842,298.069
2018-06-23 00:00:00,2018-06-23 00:00:00,TMP,surface,-99.3754,25.9842,301.291
2018-06-23 00:00:00,2018-06-23 00:00:00,TMP,surface,-98.4379,25.9842,302.619
2018-06-23 00:00:00,2018-06-23 00:00:00,TMP,surface,-97.5004,25.9842,301.746
2018-06-23 00:00:00,2018-06-23 00:00:00,TMP,surface,-96.5629,25.9842,301.883
2018-06-23 00:00:00,2018-06-23 00:00:00,TMP,surface,-95.6254,25.9842,302.367
2018-06-23 00:00:00,2018-06-23 00:00:00,TMP,surface,-94.6879,25.9842,302.6
2018-06-23 00:00:00,2018-06-23 00:00:00,TMP,surface,-93.7504,25.9842,302.805
2018-06-23 00:00:00,2018-06-23 00:00:00,TMP,surface,-92.8129,25.9842,302.959
2018-06-23 00:00:00,2018-06-23 00:00:00,TMP,surface,-107.813,26.929,294.392
2018-06-23 00:00:00,2018-06-23 00:00:00,TMP,surface,-106.875,26.929,291.311
2018-06-23 00:00:00,2018-06-23 00:00:00,TMP,surface,-105.938,26.929,292.763
2018-06-23 00:00:00,2018-06-23 00:00:00,TMP,surface,-105,26.929,297.378
2018-06-23 00:00:00,2018-06-23 00:00:00,TMP,surface,-104.063,26.929,300.533
2018-06-23 00:00:00,2018-06-23 00:00:00,TMP,surface,-103.125,26.929,299.771
2018-06-23 00:00:00,2018-06-23 00:00:00,TMP,surface,-102.188,26.929,298.539
2018-06-23 00:00:00,2018-06-23 00:00:00,TMP,surface,-101.25,26.929,299.343
2018-06-23 00:00:00,2018-06-23 00:00:00,TMP,surface,-100.313,26.929,301.688
2018-06-23 00:00:00,2018-06-23 00:00:00,TMP,surface,-99.3754,26.929,303.263
2018-06-23 00:00:00,2018-06-23 00:00:00,TMP,surface,-98.4379,26.929,302.095
2018-06-23 00:00:00,2018-06-23 00:00:00,TMP,surface,-97.5004,26.929,300.159
2018-06-23 00:00:00,2018-06-23 00:00:00,TMP,surface,-96.5629,26.929,300.792
2018-06-23 00:00:00,2018-06-23 00:00:00,TMP,surface,-95.6254,26.929,301.941
2018-06-23 00:00:00,2018-06-23 00:00:00,TMP,surface,-94.6879,26.929,302.667
2018-06-23 00:00:00,2018-06-23 00:00:00,TMP,surface,-93.7504,26.929,302.914
2018-06-23 00:00:00,2018-06-23 00:00:00,TMP,surface,-92.8129,26.929,303.029
2018-06-23 00:00:00,2018-06-23 00:00:00,TMP,surface,-107.813,27.8739,292.565
2018-06-23 00:00:00,2018-06-23 00:00:00,TMP,surface,-106.875,27.8739,291.567
2018-06-23 00:00:00,2018-06-23 00:00:00,TMP,surface,-105.938,27.8739,295.643
2018-06-23 00:00:00,2018-06-23 00:00:00,TMP,surface,-105,27.8739,300.104
2018-06-23 00:00:00,2018-06-23 00:00:00,TMP,surface,-104.063,27.8739,300.171
2018-06-23 00:00:00,2018-06-23 00:00:00,TMP,surface,-103.125,27.8739,298.216
2018-06-23 00:00:00,2018-06-23 00:00:00,TMP,surface,-102.188,27.8739,297.819
2018-06-23 00:00:00,2018-06-23 00:00:00,TMP,surface,-101.25,27.8739,300.357
2018-06-23 00:00:00,2018-06-23 00:00:00,TMP,surface,-100.313,27.8739,302.69
2018-06-23 00:00:00,2018-06-23 00:00:00,TMP,surface,-99.3754,27.8739,302.939
2018-06-23 00:00:00,2018-06-23 00:00:00,TMP,surface,-98.4379,27.8739,301.631
2018-06-23 00:00:00,2018-06-23 00:00:00,TMP,surface,-97.5004,27.8739,301.167
2018-06-23 00:00:00,2018-06-23 00:00:00,TMP,surface,-96.5629,27.8739,301.723
2018-06-23 00:00:00,2018-06-23 00:00:00,TMP,surface,-95.6254,27.8739,302.242
2018-06-23 00:00:00,2018-06-23 00:00:00,TMP,surface,-94.6879,27.8739,302.789
2018-06-23 00:00:00,2018-06-23 00:00:00,TMP,surface,-93.7504,27.8739,303.096
2018-06-23 00:00:00,2018-06-23 00:00:00,TMP,surface,-92.8129,27.8739,303.263
2018-06-23 00:00:00,2018-06-23 00:00:00,TMP,surface,-107.813,28.8188,292.114
2018-06-23 00:00:00,2018-06-23 00:00:00,TMP,surface,-106.875,28.8188,293.17
2018-06-23 00:00:00,2018-06-23 00:00:00,TMP,surface,-105.938,28.8188,297.999
2018-06-23 00:00:00,2018-06-23 00:00:00,TMP,surface,-105,28.8188,301.275
2018-06-23 00:00:00,2018-06-23 00:00:00,TMP,surface,-104.063,28.8188,299.845
2018-06-23 00:00:00,2018-06-23 00:00:00,TMP,surface,-103.125,28.8188,298.607
2018-06-23 00:00:00,2018-06-23 00:00:00,TMP,surface,-102.188,28.8188,298.44
2018-06-23 00:00:00,2018-06-23 00:00:00,TMP,surface,-101.25,28.8188,300.712
2018-06-23 00:00:00,2018-06-23 00:00:00,TMP,surface,-100.313,28.8188,301.855
2018-06-23 00:00:00,2018-06-23 00:00:00,TMP,surface,-99.3754,28.8188,301.391
2018-06-23 00:00:00,2018-06-23 00:00:00,TMP,surface,-98.4379,28.8188,300.424
2018-06-23 00:00:00,2018-06-23 00:00:00,TMP,surface,-97.5004,28.8188,299.765
2018-06-23 00:00:00,2018-06-23 00:00:00,TMP,surface,-96.5629,28.8188,299.89
2018-06-23 00:00:00,2018-06-23 00:00:00,TMP,surface,-95.6254,28.8188,300.987
2018-06-23 00:00:00,2018-06-23 00:00:00,TMP,surface,-94.6879,28.8188,302.315
2018-06-23 00:00:00,2018-06-23 00:00:00,TMP,surface,-93.7504,28.8188,302.882
2018-06-23 00:00:00,2018-06-23 00:00:00,TMP,surface,-92.8129,28.8188,303.227
2018-06-23 00:00:00,2018-06-23 00:00:00,TMP,surface,-107.813,29.7637,294.792
2018-06-23 00:00:00,2018-06-23 00:00:00,TMP,surface,-106.875,29.7637,296.712
2018-06-23 00:00:00,2018-06-23 00:00:00,TMP,surface,-105.938,29.7637,299.951
2018-06-23 00:00:00,2018-06-23 00:00:00,TMP,surface,-105,29.7637,300.632
2018-06-23 00:00:00,2018-06-23 00:00:00,TMP,surface,-104.063,29.7637,300.207
2018-06-23 00:00:00,2018-06-23 00:00:00,TMP,surface,-103.125,29.7637,300.085
2018-06-23 00:00:00,2018-06-23 00:00:00,TMP,surface,-102.188,29.7637,300.856
2018-06-23 00:00:00,2018-06-23 00:00:00,TMP,surface,-101.25,29.7637,301.378
2018-06-23 00:00:00,2018-06-23 00:00:00,TMP,surface,-100.313,29.7637,300.821
2018-06-23 00:00:00,2018-06-23 00:00:00,TMP,surface,-99.3754,29.7637,299.839
2018-06-23 00:00:00,2018-06-23 00:00:00,TMP,surface,-98.4379,29.7637,299.147
2018-06-23 00:00:00,2018-06-23 00:00:00,TMP,surface,-97.5004,29.7637,299.055
2018-06-23 00:00:00,2018-06-23 00:00:00,TMP,surface,-96.5629,29.7637,299.375
2018-06-23 00:00:00,2018-06-23 00:00:00,TMP,surface,-95.6254,29.7637,299.803
2018-06-23 00:00:00,2018-06-23 00:00:00,TMP,surface,-94.6879,29.7637,300.853
2018-06-23 00:00:00,2018-06-23 00:00:00,TMP,surface,-93.7504,29.7637,302.21
2018-06-23 00:00:00,2018-06-23 00:00:00,TMP,surface,-92.8129,29.7637,301.227
2018-06-23 00:00:00,2018-06-23 00:00:00,TMP,surface,-107.813,30.7085,300.549
2018-06-23 00:00:00,2018-06-23 00:00:00,TMP,surface,-106.875,30.7085,301.547
2018-06-23 00:00:00,2018-06-23 00:00:00,TMP,surface,-105.938,30.7085,301.499
2018-06-23 00:00:00,2018-06-23 00:00:00,TMP,surface,-105,30.7085,300.555
2018-06-23 00:00:00,2018-06-23 00:00:00,TMP,surface,-104.063,30.7085,299.979
2018-06-23 00:00:00,2018-06-23 00:00:00,TMP,surface,-103.125,30.7085,301.16
2018-06-23 00:00:00,2018-06-23 00:00:00,TMP,surface,-102.188,30.7085,301.887
2018-06-23 00:00:00,2018-06-23 00:00:00,TMP,surface,-101.25,30.7085,301.506
2018-06-23 00:00:00,2018-06-23 00:00:00,TMP,surface,-100.313,30.7085,300.802
2018-06-23 00:00:00,2018-06-23 00:00:00,TMP,surface,-99.3754,30.7085,300.079
2018-06-23 00:00:00,2018-06-23 00:00:00,TMP,surface,-98.4379,30.7085,299.861
2018-06-23 00:00:00,2018-06-23 00:00:00,TMP,surface,-97.5004,30.7085,299.938
2018-06-23 00:00:00,2018-06-23 00:00:00,TMP,surface,-96.5629,30.7085,300.402
2018-06-23 00:00:00,2018-06-23 00:00:00,TMP,surface,-95.6254,30.7085,301.01
2018-06-23 00:00:00,2018-06-23 00:00:00,TMP,surface,-94.6879,30.7085,301.125
2018-06-23 00:00:00,2018-06-23 00:00:00,TMP,surface,-93.7504,30.7085,301.311
2018-06-23 00:00:00,2018-06-23 00:00:00,TMP,surface,-92.8129,30.7085,301.304
2018-06-23 00:00:00,2018-06-23 00:00:00,TMP,surface,-107.813,31.6534,302.68
2018-06-23 00:00:00,2018-06-23 00:00:00,TMP,surface,-106.875,31.6534,302.895
2018-06-23 00:00:00,2018-06-23 00:00:00,TMP,surface,-105.938,31.6534,301.749
2018-06-23 00:00:00,2018-06-23 00:00:00,TMP,surface,-105,31.6534,300.466
2018-06-23 00:00:00,2018-06-23 00:00:00,TMP,surface,-104.063,31.6534,300.808
2018-06-23 00:00:00,2018-06-23 00:00:00,TMP,surface,-103.125,31.6534,301.765
2018-06-23 00:00:00,2018-06-23 00:00:00,TMP,surface,-102.188,31.6534,302.29
2018-06-23 00:00:00,2018-06-23 00:00:00,TMP,surface,-101.25,31.6534,301.883
2018-06-23 00:00:00,2018-06-23 00:00:00,TMP,surface,-100.313,31.6534,301.496
2018-06-23 00:00:00,2018-06-23 00:00:00,TMP,surface,-99.3754,31.6534,301.41
2018-06-23 00:00:00,2018-06-23 00:00:00,TMP,surface,-98.4379,31.6534,301.544
2018-06-23 00:00:00,2018-06-23 00:00:00,TMP,surface,-97.5004,31.6534,301.723
2018-06-23 00:00:00,2018-06-23 00:00:00,TMP,surface,-96.5629,31.6534,302.056
2018-06-23 00:00:00,2018-06-23 00:00:00,TMP,surface,-95.6254,31.6534,302.261
2018-06-23 00:00:00,2018-06-23 00:00:00,TMP,surface,-94.6879,31.6534,302.037
2018-06-23 00:00:00,2018-06-23 00:00:00,TMP,surface,-93.7504,31.6534,302.069
2018-06-23 00:00:00,2018-06-23 00:00:00,TMP,surface,-92.8129,31.6534,302.325
2018-06-23 00:00:00,2018-06-23 00:00:00,TMP,surface,-107.813,32.5983,299.813
2018-06-23 00:00:00,2018-06-23 00:00:00,TMP,surface,-106.875,32.5983,300.088
2018-06-23 00:00:00,2018-06-23 00:00:00,TMP,surface,-105.938,32.5983,300.021
2018-06-23 00:00:00,2018-06-23 00:00:00,TMP,surface,-105,32.5983,299.586
2018-06-23 00:00:00,2018-06-23 00:00:00,TMP,surface,-104.063,32.5983,300.658
2018-06-23 00:00:00,2018-06-23 00:00:00,TMP,surface,-103.125,32.5983,301.701
2018-06-23 00:00:00,2018-06-23 00:00:00,TMP,surface,-102.188,32.5983,302.216
2018-06-23 00:00:00,2018-06-23 00:00:00,TMP,surface,-101.25,32.5983,302.491
2018-06-23 00:00:00,2018-06-23 00:00:00,TMP,surface,-100.313,32.5983,303.003
2018-06-23 00:00:00,2018-06-23 00:00:00,TMP,surface,-99.3754,32.5983,303.247
2018-06-23 00:00:00,2018-06-23 00:00:00,TMP,surface,-98.4379,32.5983,303.144
2018-06-23 00:00:00,2018-06-23 00:00:00,TMP,surface,-97.5004,32.5983,303.019
2018-06-23 00:00:00,2018-06-23 00:00:00,TMP,surface,-96.5629,32.5983,303.25
2018-06-23 00:00:00,2018-06-23 00:00:00,TMP,surface,-95.6254,32.5983,303.499
2018-06-23 00:00:00,2018-06-23 00:00:00,TMP,surface,-94.6879,32.5983,303.208
2018-06-23 00:00:00,2018-06-23 00:00:00,TMP,surface,-93.7504,32.5983,302.901
2018-06-23 00:00:00,2018-06-23 00:00:00,TMP,surface,-92.8129,32.5983,303.039
2018-06-23 00:00:00,2018-06-23 00:00:00,TMP,surface,-107.813,33.5432,295.439
2018-06-23 00:00:00,2018-06-23 00:00:00,TMP,surface,-106.875,33.5432,296.882
2018-06-23 00:00:00,2018-06-23 00:00:00,TMP,surface,-105.938,33.5432,297.519
2018-06-23 00:00:00,2018-06-23 00:00:00,TMP,surface,-105,33.5432,298.725
2018-06-23 00:00:00,2018-06-23 00:00:00,TMP,surface,-104.063,33.5432,300.565
2018-06-23 00:00:00,2018-06-23 00:00:00,TMP,surface,-103.125,33.5432,301.141
2018-06-23 00:00:00,2018-06-23 00:00:00,TMP,surface,-102.188,33.5432,301.746
2018-06-23 00:00:00,2018-06-23 00:00:00,TMP,surface,-101.25,33.5432,302.603
2018-06-23 00:00:00,2018-06-23 00:00:00,TMP,surface,-100.313,33.5432,303.848
2018-06-23 00:00:00,2018-06-23 00:00:00,TMP,surface,-99.3754,33.5432,304.341
2018-06-23 00:00:00,2018-06-23 00:00:00,TMP,surface,-98.4379,33.5432,304.011
2018-06-23 00:00:00,2018-06-23 00:00:00,TMP,surface,-97.5004,33.5432,303.519
2018-06-23 00:00:00,2018-06-23 00:00:00,TMP,surface,-96.5629,33.5432,303.157
2018-06-23 00:00:00,2018-06-23 00:00:00,TMP,surface,-95.6254,33.5432,303.029
2018-06-23 00:00:00,2018-06-23 00:00:00,TMP,surface,-94.6879,33.5432,303.074
2018-06-23 00:00:00,2018-06-23 00:00:00,TMP,surface,-93.7504,33.5432,302.991
2018-06-23 00:00:00,2018-06-23 00:00:00,TMP,surface,-92.8129,33.5432,303.141
2018-06-23 00:00:00,2018-06-23 00:00:00,TMP,surface,-107.813,34.4881,294.453
2018-06-23 00:00:00,2018-06-23 00:00:00,TMP,surface,-106.875,34.4881,296.37
2018-06-23 00:00:00,2018-06-23 00:00:00,TMP,surface,-105.938,34.4881,297.256
2018-06-23 00:00:00,2018-06-23 00:00:00,TMP,surface,-105,34.4881,299.106
2018-06-23 00:00:00,2018-06-23 00:00:00,TMP,surface,-104.063,34.4881,300.267
2018-06-23 00:00:00,2018-06-23 00:00:00,TMP,surface,-103.125,34.4881,300.69
2018-06-23 00:00:00,2018-06-23 00:00:00,TMP,surface,-102.188,34.4881,301.611
2018-06-23 00:00:00,2018-06-23 00:00:00,TMP,surface,-101.25,34.4881,302.783
2018-06-23 00:00:00,2018-06-23 00:00:00,TMP,surface,-100.313,34.4881,303.899
2018-06-23 00:00:00,2018-06-23 00:00:00,TMP,surface,-99.3754,34.4881,304.459
2018-06-23 00:00:00,2018-06-23 00:00:00,TMP,surface,-98.4379,34.4881,304.219
2018-06-23 00:00:00,2018-06-23 00:00:00,TMP,surface,-97.5004,34.4881,303.538
2018-06-23 00:00:00,2018-06-23 00:00:00,TMP,surface,-96.5629,34.4881,303.279
2018-06-23 00:00:00,2018-06-23 00:00:00,TMP,surface,-95.6254,34.4881,303.24
2018-06-23 00:00:00,2018-06-23 00:00:00,TMP,surface,-94.6879,34.4881,302.607
2018-06-23 00:00:00,2018-06-23 00:00:00,TMP,surface,-93.7504,34.4881,302.12
2018-06-23 00:00:00,2018-06-23 00:00:00,TMP,surface,-92.8129,34.4881,302.568
2018-06-23 00:00:00,2018-06-23 00:00:00,TMP,surface,-107.813,35.4329,295.938
2018-06-23 00:00:00,2018-06-23 00:00:00,TMP,surface,-106.875,35.4329,295.826
2018-06-23 00:00:00,2018-06-23 00:00:00,TMP,surface,-105.938,35.4329,295.423
2018-06-23 00:00:00,2018-06-23 00:00:00,TMP,surface,-105,35.4329,296.571
2018-06-23 00:00:00,2018-06-23 00:00:00,TMP,surface,-104.063,35.4329,299.307
2018-06-23 00:00:00,2018-06-23 00:00:00,TMP,surface,-103.125,35.4329,301.163
2018-06-23 00:00:00,2018-06-23 00:00:00,TMP,surface,-102.188,35.4329,302.469
2018-06-23 00:00:00,2018-06-23 00:00:00,TMP,surface,-101.25,35.4329,303.41
2018-06-23 00:00:00,2018-06-23 00:00:00,TMP,surface,-100.313,35.4329,303.938
2018-06-23 00:00:00,2018-06-23 00:00:00,TMP,surface,-99.3754,35.4329,304.395
2018-06-23 00:00:00,2018-06-23 00:00:00,TMP,surface,-98.4379,35.4329,304.485
2018-06-23 00:00:00,2018-06-23 00:00:00,TMP,surface,-97.5004,35.4329,304.187
2018-06-23 00:00:00,2018-06-23 00:00:00,TMP,surface,-96.5629,35.4329,303.576
2018-06-23 00:00:00,2018-06-23 00:00:00,TMP,surface,-95.6254,35.4329,303.016
2018-06-23 00:00:00,2018-06-23 00:00:00,TMP,surface,-94.6879,35.4329,302.763
2018-06-23 00:00:00,2018-06-23 00:00:00,TMP,surface,-93.7504,35.4329,302.303
2018-06-23 00:00:00,2018-06-23 00:00:00,TMP,surface,-92.8129,35.4329,302.088
2018-06-23 00:00:00,2018-06-23 00:00:00,TMP,surface,-107.813,36.3778,295.365
2018-06-23 00:00:00,2018-06-23 00:00:00,TMP,surface,-106.875,36.3778,292.363
2018-06-23 00:00:00,2018-06-23 00:00:00,TMP,surface,-105.938,36.3778,292.373
2018-06-23 00:00:00,2018-06-23 00:00:00,TMP,surface,-105,36.3778,293.938
2018-06-23 00:00:00,2018-06-23 00:00:00,TMP,surface,-104.063,36.3778,297.416
2018-06-23 00:00:00,2018-06-23 00:00:00,TMP,surface,-103.125,36.3778,300.335
2018-06-23 00:00:00,2018-06-23 00:00:00,TMP,surface,-102.188,36.3778,302.472
2018-06-23 00:00:00,2018-06-23 00:00:00,TMP,surface,-101.25,36.3778,303.781
2018-06-23 00:00:00,2018-06-23 00:00:00,TMP,surface,-100.313,36.3778,304.431
2018-06-23 00:00:00,2018-06-23 00:00:00,TMP,surface,-99.3754,36.3778,304.728
2018-06-23 00:00:00,2018-06-23 00:00:00,TMP,surface,-98.4379,36.3778,304.818
2018-06-23 00:00:00,2018-06-23 00:00:00,TMP,surface,-97.5004,36.3778,304.539
2018-06-23 00:00:00,2018-06-23 00:00:00,TMP,surface,-96.5629,36.3778,303.976
2018-06-23 00:00:00,2018-06-23 00:00:00,TMP,surface,-95.6254,36.3778,303.496
2018-06-23 00:00:00,2018-06-23 00:00:00,TMP,surface,-94.6879,36.3778,303.013
2018-06-23 00:00:00,2018-06-23 00:00:00,TMP,surface,-93.7504,36.3778,302.296
2018-06-23 00:00:00,2018-06-23 00:00:00,TMP,surface,-92.8129,36.3778,302.015
2018-06-23 00:00:00,2018-06-23 00:00:00,PRATE,surface,-107.813,25.0393,5.8e-06
2018-06-23 00:00:00,2018-06-23 00:00:00,PRATE,surface,-106.875,25.0393,0.0001194
2018-06-23 00:00:00,2018-06-23 00:00:00,PRATE,surface,-105.938,25.0393,0.0002271
2018-06-23 00:00:00,2018-06-23 00:00:00,PRATE,surface,-105,25.0393,0.0001284
2018-06-23 00:00:00,2018-06-23 00:00:00,PRATE,surface,-104.063,25.0393,2.89e-05
2018-06-23 00:00:00,2018-06-23 00:00:00,PRATE,surface,-103.125,25.0393,3.8e-06
2018-06-23 00:00:00,2018-06-23 00:00:00,PRATE,surface,-102.188,25.0393,6e-06
2018-06-23 00:00:00,2018-06-23 00:00:00,PRATE,surface,-101.25,25.0393,1.47e-05
2018-06-23 00:00:00,2018-06-23 00:00:00,PRATE,surface,-100.313,25.0393,1.62e-05
2018-06-23 00:00:00,2018-06-23 00:00:00,PRATE,surface,-99.3754,25.0393,1.18e-05
2018-06-23 00:00:00,2018-06-23 00:00:00,PRATE,surface,-98.4379,25.0393,1.27e-05
2018-06-23 00:00:00,2018-06-23 00:00:00,PRATE,surface,-97.5004,25.0393,2.08e-05
2018-06-23 00:00:00,2018-06-23 00:00:00,PRATE,surface,-96.5629,25.0393,3.18e-05
2018-06-23 00:00:00,2018-06-23 00:00:00,PRATE,surface,-95.6254,25.0393,1.78e-05
2018-06-23 00:00:00,2018-06-23 00:00:00,PRATE,surface,-94.6879,25.0393,2.3e-05
2018-06-23 00:00:00,2018-06-23 00:00:00,PRATE,surface,-93.7504,25.0393,3.92e-05
2018-06-23 00:00:00,2018-06-23 00:00:00,PRATE,surface,-92.8129,25.0393,5.41e-05
2018-06-23 00:00:00,2018-06-23 00:00:00,PRATE,surface,-107.813,25.9842,3.84e-05
2018-06-23 00:00:00,2018-06-23 00:00:00,PRATE,surface,-106.875,25.9842,0.0001814
2018-06-23 00:00:00,2018-06-23 00:00:00,PRATE,surface,-105.938,25.9842,0.0001317
2018-06-23 00:00:00,2018-06-23 00:00:00,PRATE,surface,-105,25.9842,5.27e-05
2018-06-23 00:00:00,2018-06-23 00:00:00,PRATE,surface,-104.063,25.9842,3e-06
2018-06-23 00:00:00,2018-06-23 00:00:00,PRATE,surface,-103.125,25.9842,2.2e-06
2018-06-23 00:00:00,2018-06-23 00:00:00,PRATE,surface,-102.188,25.9842,5.3e-06
2018-06-23 00:00:00,2018-06-23 00:00:00,PRATE,surface,-101.25,25.9842,1.82e-05
2018-06-23 00:00:00,2018-06-23 00:00:00,PRATE,surface,-100.313,25.9842,1.96e-05
2018-06-23 00:00:00,2018-06-23 00:00:00,PRATE,surface,-99.3754,25.9842,8e-06
2018-06-23 00:00:00,2018-06-23 00:00:00,PRATE,surface,-98.4379,25.9842,1e-05
2018-06-23 00:00:00,2018-06-23 00:00:00,PRATE,surface,-97.5004,25.9842,3.16e-05
2018-06-23 00:00:00,2018-06-23 00:00:00,PRATE,surface,-96.5629,25.9842,5.01e-05
2018-06-23 00:00:00,2018-06-23 00:00:00,PRATE,surface,-95.6254,25.9842,3.74e-05
2018-06-23 00:00:00,2018-06-23 00:00:00,PRATE,surface,-94.6879,25.9842,2.33e-05
2018-06-23 00:00:00,2018-06-23 00:00:00,PRATE,surface,-93.7504,25.9842,3.43e-05
2018-06-23 00:00:00,2018-06-23 00:00:00,PRATE,surface,-92.8129,25.9842,3.74e-05
2018-06-23 00:00:00,2018-06-23 00:00:00,PRATE,surface,-107.813,26.929,0.0001488
2018-06-23 00:00:00,2018-06-23 00:00:00,PRATE,surface,-106.875,26.929,0.0001153
2018-06-23 00:00:00,2018-06-23 00:00:00,PRATE,surface,-105.938,26.929,6.59e-05
2018-06-23 00:00:00,2018-06-23 00:00:00,PRATE,surface,-105,26.929,1.45e-05
2018-06-23 00:00:00,2018-06-23 00:00:00,PRATE,surface,-104.063,26.929,1e-05
2018-06-23 00:00:00,2018-06-23 00:00:00,PRATE,surface,-103.125,26.929,1.17e-05
2018-06-23 00:00:00,2018-06-23 00:00:00,PRATE,surface,-102.188,26.929,1.89e-05
2018-06-23 00:00:00,2018-06-23 00:00:00,PRATE,surface,-101.25,26.929,2.41e-05
2018-06-23 00:00:00,2018-06-23 00:00:00,PRATE,surface,-100.313,26.929,1.35e-05
2018-06-23 00:00:00,2018-06-23 00:00:00,PRATE,surface,-99.3754,26.929,1.51e-05
2018-06-23 00:00:00,2018-06-23 00:00:00,PRATE,surface,-98.4379,26.929,2.08e-05
2018-06-23 00:00:00,2018-06-23 00:00:00,PRATE,surface,-97.5004,26.929,3.48e-05
2018-06-23 00:00:00,2018-06-23 00:00:00,PRATE,surface,-96.5629,26.929,3.53e-05
2018-06-23 00:00:00,2018-06-23 00:00:00,PRATE,surface,-95.6254,26.929,2.71e-05
2018-06-23 00:00:00,2018-06-23 00:00:00,PRATE,surface,-94.6879,26.929,2.36e-05
2018-06-23 00:00:00,2018-06-23 00:00:00,PRATE,surface,-93.7504,26.929,4.23e-05
2018-06-23 00:00:00,2018-06-23 00:00:00,PRATE,surface,-92.8129,26.929,5.39e-05
2018-06-23 00:00:00,2018-06-23 00:00:00,PRATE,surface,-107.813,27.8739,0.0001505
2018-06-23 00:00:00,2018-06-23 00:00:00,PRATE,surface,-106.875,27.8739,7.93e-05
2018-06-23 00:00:00,2018-06-23 00:00:00,PRATE,surface,-105.938,27.8739,1.73e-05
2018-06-23 00:00:00,2018-06-23 00:00:00,PRATE,surface,-105,27.8739,2.2e-06
2018-06-23 00:00:00,2018-06-23 00:00:00,PRATE,surface,-104.063,27.8739,2.01e-05
2018-06-23 00:00:00,2018-06-23 00:00:00,PRATE,surface,-103.125,27.8739,2.9e-05
2018-06-23 00:00:00,2018-06-23 00:00:00,PRATE,surface,-102.188,27.8739,2.48e-05
2018-06-23 00:00:00,2018-06-23 00:00:00,PRATE,surface,-101.25,27.8739,1.48e-05
2018-06-23 00:00:00,2018-06-23 00:00:00,PRATE,surface,-100.313,27.8739,1.46e-05
2018-06-23 00:00:00,2018-06-23 00:00:00,PRATE,surface,-99.3754,27.8739,1.78e-05
2018-06-23 00:00:00,2018-06-23 00:00:00,PRATE,surface,-98.4379,27.8739,2.66e-05
2018-06-23 00:00:00,2018-06-23 00:00:00,PRATE,surface,-97.5004,27.8739,3.65e-05
2018-06-23 00:00:00,2018-06-23 00:00:00,PRATE,surface,-96.5629,27.8739,3.46e-05
2018-06-23 00:00:00,2018-06-23 00:00:00,PRATE,surface,-95.6254,27.8739,3.16e-05
2018-06-23 00:00:00,2018-06-23 00:00:00,PRATE,surface,-94.6879,27.8739,4.57e-05
2018-06-23 00:00:00,2018-06-23 00:00:00,PRATE,surface,-93.7504,27.8739,6.13e-05
2018-06-23 00:00:00,2018-06-23 00:00:00,PRATE,surface,-92.8129,27.8739,6.56e-05
2018-06-23 00:00:00,2018-06-23 00:00:00,PRATE,surface,-107.813,28.8188,0.0001463
2018-06-23 00:00:00,2018-06-23 00:00:00,PRATE,surface,-106.875,28.8188,5.67e-05
2018-06-23 00:00:00,2018-06-23 00:00:00,PRATE,surface,-105.938,28.8188,8.8e-06
2018-06-23 00:00:00,2018-06-23 00:00:00,PRATE,surface,-105,28.8188,6.8e-06
2018-06-23 00:00:00,2018-06-23 00:00:00,PRATE,surface,-104.063,28.8188,1.61e-05
2018-06-23 00:00:00,2018-06-23 00:00:00,PRATE,surface,-103.125,28.8188,7.7e-06
2018-06-23 00:00:00,2018-06-23 00:00:00,PRATE,surface,-102.188,28.8188,5.4e-06
2018-06-23 00:00:00,2018-06-23 00:00:00,PRATE,surface,-101.25,28.8188,6.1e-06
2018-06-23 00:00:00,2018-06-23 00:00:00,PRATE,surface,-100.313,28.8188,9.1e-06
2018-06-23 00:00:00,2018-06-23 00:00:00,PRATE,surface,-99.3754,28.8188,1.79e-05
2018-06-23 00:00:00,2018-06-23 00:00:00,PRATE,surface,-98.4379,28.8188,2.72e-05
2018-06-23 00:00:00,2018-06-23 00:00:00,PRATE,surface,-97.5004,28.8188,3.04e-05
2018-06-23 00:00:00,2018-06-23 00:00:00,PRATE,surface,-96.5629,28.8188,2.95e-05
2018-06-23 00:00:00,2018-06-23 00:00:00,PRATE,surface,-95.6254,28.8188,3.45e-05
2018-06-23 00:00:00,2018-06-23 00:00:00,PRATE,surface,-94.6879,28.8188,4.72e-05
2018-06-23 00:00:00,2018-06-23 00:00:00,PRATE,surface,-93.7504,28.8188,5.36e-05
2018-06-23 00:00:00,2018-06-23 00:00:00,PRATE,surface,-92.8129,28.8188,5.2e-05
2018-06-23 00:00:00,2018-06-23 00:00:00,PRATE,surface,-107.813,29.7637,6.85e-05
2018-06-23 00:00:00,2018-06-23 00:00:00,PRATE,surface,-106.875,29.7637,2.46e-05
2018-06-23 00:00:00,2018-06-23 00:00:00,PRATE,surface,-105.938,29.7637,8.9e-06
2018-06-23 00:00:00,2018-06-23 00:00:00,PRATE,surface,-105,29.7637,1.66e-05
2018-06-23 00:00:00,2018-06-23 00:00:00,PRATE,surface,-104.063,29.7637,1.08e-05
2018-06-23 00:00:00,2018-06-23 00:00:00,PRATE,surface,-103.125,29.7637,1.7e-06
2018-06-23 00:00:00,2018-06-23 00:00:00,PRATE,surface,-102.188,29.7637,8e-07
2018-06-23 00:00:00,2018-06-23 00:00:00,PRATE,surface,-101.25,29.7637,1.9e-06
2018-06-23 00:00:00,2018-06-23 00:00:00,PRATE,surface,-100.313,29.7637,5.4e-06
2018-06-23 00:00:00,2018-06-23 00:00:00,PRATE,surface,-99.3754,29.7637,1.4e-05
2018-06-23 00:00:00,2018-06-23 00:00:00,PRATE,surface,-98.4379,29.7637,2.56e-05
2018-06-23 00:00:00,2018-06-23 00:00:00,PRATE,surface,-97.5004,29.7637,3.28e-05
2018-06-23 00:00:00,2018-06-23 00:00:00,PRATE,surface,-96.5629,29.7637,3.19e-05
2018-06-23 00:00:00,2018-06-23 00:00:00,PRATE,surface,-95.6254,29.7637,2.81e-05
2018-06-23 00:00:00,2018-06-23 00:00:00,PRATE,surface,-94.6879,29.7637,3.21e-05
2018-06-23 00:00:00,2018-06-23 00:00:00,PRATE,surface,-93.7504,29.7637,4.35e-05
2018-06-23 00:00:00,2018-06-23 00:00:00,PRATE,surface,-92.8129,29.7637,4.65e-05
2018-06-23 00:00:00,2018-06-23 00:00:00,PRATE,surface,-107.813,30.7085,4.3e-06
2018-06-23 00:00:00,2018-06-23 00:00:00,PRATE,surface,-106.875,30.7085,3.4e-06
2018-06-23 00:00:00,2018-06-23 00:00:00,PRATE,surface,-105.938,30.7085,8.8e-06
2018-06-23 00:00:00,2018-06-23 00:00:00,PRATE,surface,-105,30.7085,1.98e-05
2018-06-23 00:00:00,2018-06-23 00:00:00,PRATE,surface,-104.063,30.7085,1e-05
2018-06-23 00:00:00,2018-06-23 00:00:00,PRATE,surface,-103.125,30.7085,1.6e-06
2018-06-23 00:00:00,2018-06-23 00:00:00,PRATE,surface,-102.188,30.7085,3e-07
2018-06-23 00:00:00,2018-06-23 00:00:00,PRATE,surface,-101.25,30.7085,1e-06
2018-06-23 00:00:00,2018-06-23 00:00:00,PRATE,surface,-100.313,30.7085,2.9e-06
2018-06-23 00:00:00,2018-06-23 00:00:00,PRATE,surface,-99.3754,30.7085,9.5e-06
2018-06-23 00:00:00,2018-06-23 00:00:00,PRATE,surface,-98.4379,30.7085,1.12e-05
2018-06-23 00:00:00,2018-06-23 00:00:00,PRATE,surface,-97.5004,30.7085,1.01e-05
2018-06-23 00:00:00,2018-06-23 00:00:00,PRATE,surface,-96.5629,30.7085,1.12e-05
2018-06-23 00:00:00,2018-06-23 00:00:00,PRATE,surface,-95.6254,30.7085,1.32e-05
2018-06-23 00:00:00,2018-06-23 00:00:00,PRATE,surface,-94.6879,30.7085,1.84e-05
2018-06-23 00:00:00,2018-06-23 00:00:00,PRATE,surface,-93.7504,30.7085,2.77e-05
2018-06-23 00:00:00,2018-06-23 00:00:00,PRATE,surface,-92.8129,30.7085,3.44e-05
2018-06-23 00:00:00,2018-06-23 00:00:00,PRATE,surface,-107.813,31.6534,2.7e-06
2018-06-23 00:00:00,2018-06-23 00:00:00,PRATE,surface,-106.875,31.6534,4.1e-06
2018-06-23 00:00:00,2018-06-23 00:00:00,PRATE,surface,-105.938,31.6534,7.1e-06
2018-06-23 00:00:00,2018-06-23 00:00:00,PRATE,surface,-105,31.6534,1.64e-05
2018-06-23 00:00:00,2018-06-23 00:00:00,PRATE,surface,-104.063,31.6534,1.13e-05
2018-06-23 00:00:00,2018-06-23 00:00:00,PRATE,surface,-103.125,31.6534,2.5e-06
2018-06-23 00:00:00,2018-06-23 00:00:00,PRATE,surface,-102.188,31.6534,2e-07
2018-06-23 00:00:00,2018-06-23 00:00:00,PRATE,surface,-101.25,31.6534,1.6e-06
2018-06-23 00:00:00,2018-06-23 00:00:00,PRATE,surface,-100.313,31.6534,2.4e-06
2018-06-23 00:00:00,2018-06-23 00:00:00,PRATE,surface,-99.3754,31.6534,2.3e-06
2018-06-23 00:00:00,2018-06-23 00:00:00,PRATE,surface,-98.4379,31.6534,2.7e-06
2018-06-23 00:00:00,2018-06-23 00:00:00,PRATE,surface,-97.5004,31.6534,5.5e-06
2018-06-23 00:00:00,2018-06-23 00:00:00,PRATE,surface,-96.5629,31.6534,8e-06
2018-06-23 00:00:00,2018-06-23 00:00:00,PRATE,surface,-95.6254,31.6534,1.14e-05
2018-06-23 00:00:00,2018-06-23 00:00:00,PRATE,surface,-94.6879,31.6534,1.83e-05
2018-06-23 00:00:00,2018-06-23 00:00:00,PRATE,surface,-93.7504,31.6534,2.08e-05
2018-06-23 00:00:00,2018-06-23 00:00:00,PRATE,surface,-92.8129,31.6534,2.11e-05
2018-06-23 00:00:00,2018-06-23 00:00:00,PRATE,surface,-107.813,32.5983,6.4e-06
2018-06-23 00:00:00,2018-06-23 00:00:00,PRATE,surface,-106.875,32.5983,6.9e-06
2018-06-23 00:00:00,2018-06-23 00:00:00,PRATE,surface,-105.938,32.5983,1.04e-05
2018-06-23 00:00:00,2018-06-23 00:00:00,PRATE,surface,-105,32.5983,1.85e-05
2018-06-23 00:00:00,2018-06-23 00:00:00,PRATE,surface,-104.063,32.5983,9.7e-06
2018-06-23 00:00:00,2018-06-23 00:00:00,PRATE,surface,-103.125,32.5983,2.9e-06
2018-06-23 00:00:00,2018-06-23 00:00:00,PRATE,surface,-102.188,32.5983,4e-07
2018-06-23 00:00:00,2018-06-23 00:00:00,PRATE,surface,-101.25,32.5983,5e-07
2018-06-23 00:00:00,2018-06-23 00:00:00,PRATE,surface,-100.313,32.5983,3e-07
2018-06-23 00:00:00,2018-06-23 00:00:00,PRATE,surface,-99.3754,32.5983,1e-07
2018-06-23 00:00:00,2018-06-23 00:00:00,PRATE,surface,-98.4379,32.5983,0
2018-06-23 00:00:00,2018-06-23 00:00:00,PRATE,surface,-97.5004,32.5983,0
2018-06-23 00:00:00,2018-06-23 00:00:00,PRATE,surface,-96.5629,32.5983,4e-07
2018-06-23 00:00:00,2018-06-23 00:00:00,PRATE,surface,-95.6254,32.5983,2.7e-06
2018-06-23 00:00:00,2018-06-23 00:00:00,PRATE,surface,-94.6879,32.5983,8.4e-06
2018-06-23 00:00:00,2018-06-23 00:00:00,PRATE,surface,-93.7504,32.5983,1.58e-05
2018-06-23 00:00:00,2018-06-23 00:00:00,PRATE,surface,-92.8129,32.5983,1.82e-05
2018-06-23 00:00:00,2018-06-23 00:00:00,PRATE,surface,-107.813,33.5432,2.56e-05
2018-06-23 00:00:00,2018-06-23 00:00:00,PRATE,surface,-106.875,33.5432,1.35e-05
2018-06-23 00:00:00,2018-06-23 00:00:00,PRATE,surface,-105.938,33.5432,1.52e-05
2018-06-23 00:00:00,2018-06-23 00:00:00,PRATE,surface,-105,33.5432,1.59e-05
2018-06-23 00:00:00,2018-06-23 00:00:00,PRATE,surface,-104.063,33.5432,1.22e-05
2018-06-23 00:00:00,2018-06-23 00:00:00,PRATE,surface,-103.125,33.5432,5.2e-06
2018-06-23 00:00:00,2018-06-23 00:00:00,PRATE,surface,-102.188,33.5432,8e-07
2018-06-23 00:00:00,2018-06-23 00:00:00,PRATE,surface,-101.25,33.5432,0
2018-06-23 00:00:00,2018-06-23 00:00:00,PRATE,surface,-100.313,33.5432,0
2018-06-23 00:00:00,2018-06-23 00:00:00,PRATE,surface,-99.3754,33.5432,0
2018-06-23 00:00:00,2018-06-23 00:00:00,PRATE,surface,-98.4379,33.5432,0
2018-06-23 00:00:00,2018-06-23 00:00:00,PRATE,surface,-97.5004,33.5432,0
2018-06-23 00:00:00,2018-06-23 00:00:00,PRATE,surface,-96.5629,33.5432,1.7e-06
2018-06-23 00:00:00,2018-06-23 00:00:00,PRATE,surface,-95.6254,33.5432,6.2e-06
2018-06-23 00:00:00,2018-06-23 00:00:00,PRATE,surface,-94.6879,33.5432,1.07e-05
2018-06-23 00:00:00,2018-06-23 00:00:00,PRATE,surface,-93.7504,33.5432,1.15e-05
2018-06-23 00:00:00,2018-06-23 00:00:00,PRATE,surface,-92.8129,33.5432,1.2e-05
2018-06-23 00:00:00,2018-06-23 00:00:00,PRATE,surface,-107.813,34.4881,2.78e-05
2018-06-23 00:00:00,2018-06-23 00:00:00,PRATE,surface,-106.875,34.4881,1.25e-05
2018-06-23 00:00:00,2018-06-23 00:00:00,PRATE,surface,-105.938,34.4881,8.6e-06
2018-06-23 00:00:00,2018-06-23 00:00:00,PRATE,surface,-105,34.4881,1.01e-05
2018-06-23 00:00:00,2018-06-23 00:00:00,PRATE,surface,-104.063,34.4881,9.7e-06
2018-06-23 00:00:00,2018-06-23 00:00:00,PRATE,surface,-103.125,34.4881,1.08e-05
2018-06-23 00:00:00,2018-06-23 00:00:00,PRATE,surface,-102.188,34.4881,2.7e-06
2018-06-23 00:00:00,2018-06-23 00:00:00,PRATE,surface,-101.25,34.4881,2e-07
2018-06-23 00:00:00,2018-06-23 00:00:00,PRATE,surface,-100.313,34.4881,0
2018-06-23 00:00:00,2018-06-23 00:00:00,PRATE,surface,-99.3754,34.4881,0
2018-06-23 00:00:00,2018-06-23 00:00:00,PRATE,surface,-98.4379,34.4881,0
2018-06-23 00:00:00,2018-06-23 00:00:00,PRATE,surface,-97.5004,34.4881,0
2018-06-23 00:00:00,2018-06-23 00:00:00,PRATE,surface,-96.5629,34.4881,1.1e-06
2018-06-23 00:00:00,2018-06-23 00:00:00,PRATE,surface,-95.6254,34.4881,4.4e-06
2018-06-23 00:00:00,2018-06-23 00:00:00,PRATE,surface,-94.6879,34.4881,8.2e-06
2018-06-23 00:00:00,2018-06-23 00:00:00,PRATE,surface,-93.7504,34.4881,1.06e-05
2018-06-23 00:00:00,2018-06-23 00:00:00,PRATE,surface,-92.8129,34.4881,1.41e-05
2018-06-23 00:00:00,2018-06-23 00:00:00,PRATE,surface,-107.813,35.4329,4.6e-06
2018-06-23 00:00:00,2018-06-23 00:00:00,PRATE,surface,-106.875,35.4329,6.8e-06
2018-06-23 00:00:00,2018-06-23 00:00:00,PRATE,surface,-105.938,35.4329,1.07e-05
2018-06-23 00:00:00,2018-06-23 00:00:00,PRATE,surface,-105,35.4329,1.8e-05
2018-06-23 00:00:00,2018-06-23 00:00:00,PRATE,surface,-104.063,35.4329,1.26e-05
2018-06-23 00:00:00,2018-06-23 00:00:00,PRATE,surface,-103.125,35.4329,6.3e-06
2018-06-23 00:00:00,2018-06-23 00:00:00,PRATE,surface,-102.188,35.4329,3.4e-06
2018-06-23 00:00:00,2018-06-23 00:00:00,PRATE,surface,-101.25,35.4329,1.3e-06
2018-06-23 00:00:00,2018-06-23 00:00:00,PRATE,surface,-100.313,35.4329,8e-07
2018-06-23 00:00:00,2018-06-23 00:00:00,PRATE,surface,-99.3754,35.4329,3e-07
2018-06-23 00:00:00,2018-06-23 00:00:00,PRATE,surface,-98.4379,35.4329,2e-07
2018-06-23 00:00:00,2018-06-23 00:00:00,PRATE,surface,-97.5004,35.4329,2e-07
2018-06-23 00:00:00,2018-06-23 00:00:00,PRATE,surface,-96.5629,35.4329,2e-07
2018-06-23 00:00:00,2018-06-23 00:00:00,PRATE,surface,-95.6254,35.4329,2e-06
2018-06-23 00:00:00,2018-06-23 00:00:00,PRATE,surface,-94.6879,35.4329,4.9e-06
2018-06-23 00:00:00,2018-06-23 00:00:00,PRATE,surface,-93.7504,35.4329,6.1e-06
2018-06-23 00:00:00,2018-06-23 00:00:00,PRATE,surface,-92.8129,35.4329,7.6e-06
2018-06-23 00:00:00,2018-06-23 00:00:00,PRATE,surface,-107.813,36.3778,8.3e-06
2018-06-23 00:00:00,2018-06-23 00:00:00,PRATE,surface,-106.875,36.3778,1.47e-05
2018-06-23 00:00:00,2018-06-23 00:00:00,PRATE,surface,-105.938,36.3778,3.36e-05
2018-06-23 00:00:00,2018-06-23 00:00:00,PRATE,surface,-105,36.3778,2.53e-05
2018-06-23 00:00:00,2018-06-23 00:00:00,PRATE,surface,-104.063,36.3778,1.74e-05
2018-06-23 00:00:00,2018-06-23 00:00:00,PRATE,surface,-103.125,36.3778,6.4e-06
2018-06-23 00:00:00,2018-06-23 00:00:00,PRATE,surface,-102.188,36.3778,2.5e-06
2018-06-23 00:00:00,2018-06-23 00:00:00,PRATE,surface,-101.25,36.3778,1.3e-06
2018-06-23 00:00:00,2018-06-23 00:00:00,PRATE,surface,-100.313,36.3778,7e-07
2018-06-23 00:00:00,2018-06-23 00:00:00,PRATE,surface,-99.3754,36.3778,2e-07
2018-06-23 00:00:00,2018-06-23 00:00:00,PRATE,surface,-98.4379,36.3778,3e-07
2018-06-23 00:00:00,2018-06-23 00:00:00,PRATE,surface,-97.5004,36.3778,9e-07
2018-06-23 00:00:00,2018-06-23 00:00:00,PRATE,surface,-96.5629,36.3778,1.2e-06
2018-06-23 00:00:00,2018-06-23 00:00:00,PRATE,surface,-95.6254,36.3778,1e-06
2018-06-23 00:00:00,2018-06-23 00:00:00,PRATE,surface,-94.6879,36.3778,2.3e-06
2018-06-23 00:00:00,2018-06-23 00:00:00,PRATE,surface,-93.7504,36.3778,4.8e-06
2018-06-23 00:00:00,2018-06-23 00:00:00,PRATE,surface,-92.8129,36.3778,5.5e-06
