2014-07-08 00:00:00,2014-07-08 00:00:00,TMP,surface,-107.813,25.0393,301.268
2014-07-08 00:00:00,2014-07-08 00:00:00,TMP,surface,-106.875,25.0393,294.734
2014-07-08 00:00:00,2014-07-08 00:00:00,TMP,surface,-105.938,25.0393,290.612
2014-07-08 00:00:00,2014-07-08 00:00:00,TMP,surface,-105,25.0393,289.124
2014-07-08 00:00:00,2014-07-08 00:00:00,TMP,surface,-104.063,25.0393,293.419
2014-07-08 00:00:00,2014-07-08 00:00:00,TMP,surface,-103.125,25.0393,297.025
2014-07-08 00:00:00,2014-07-08 00:00:00,TMP,surface,-102.188,25.0393,296.126
2014-07-08 00:00:00,2014-07-08 00:00:00,TMP,surface,-101.25,25.0393,293.345
2014-07-08 00:00:00,2014-07-08 00:00:00,TMP,surface,-100.313,25.0393,293.924
2014-07-08 00:00:00,2014-07-08 00:00:00,TMP,surface,-99.3754,25.0393,298.184
2014-07-08 00:00:00,2014-07-08 00:00:00,TMP,surface,-98.4379,25.0393,301.879
2014-07-08 00:00:00,2014-07-08 00:00:00,TMP,surface,-97.5004,25.0393,302.705
2014-07-08 00:00:00,2014-07-08 00:00:00,TMP,surface,-96.5629,25.0393,302.67
2014-07-08 00:00:00,2014-07-08 00:00:00,TMP,surface,-95.6254,25.0393,302.932
2014-07-08 00:00:00,2014-07-08 00:00:00,TMP,surface,-94.6879,25.0393,303.336
2014-07-08 00:00:00,2014-07-08 00:00:00,TMP,surface,-93.7504,25.0393,303.576
2014-07-08 00:00:00,2014-07-08 00:00:00,TMP,surface,-92.8129,25.0393,303.79
2014-07-08 00:00:00,2014-07-08 00:00:00,TMP,surface,-107.813,25.9842,296.273
2014-07-08 00:00:00,2014-07-08 00:00:00,TMP,surface,-106.875,25.9842,291.502
2014-07-08 00:00:00,2014-07-08 00:00:00,TMP,surface,-105.938,25.9842,289.496
2014-07-08 00:00:00,2014-07-08 00:00:00,TMP,surface,-105,25.9842,291.15
2014-07-08 00:00:00,2014-07-08 00:00:00,TMP,surface,-104.063,25.9842,296.942
2014-07-08 00:00:00,2014-07-08 00:00:00,TMP,surface,-103.125,25.9842,299.303
2014-07-08 00:00:00,2014-07-08 00:00:00,TMP,surface,-102.188,25.9842,298.135
2014-07-08 00:00:00,2014-07-08 00:00:00,TMP,surface,-101.25,25.9842,296.945
2014-07-08 00:00:00,2014-07-08 00:00:00,TMP,surface,-100.313,25.9842,297.896
2014-07-08 00:00:00,2014-07-08 00:00:00,TMP,surface,-99.3754,25.9842,301.518
2014-07-08 00:00:00,2014-07-08 00:00:00,TMP,surface,-98.4379,25.9842,303.147
2014-07-08 00:00:00,2014-07-08 00:00:00,TMP,surface,-97.5004,25.9842,302.363
2014-07-08 00:00:00,2014-07-08 00:00:00,TMP,surface,-96.5629,25.9842,301.377
2014-07-08 00:00:00,2014-07-08 00:00:00,TMP,surface,-95.6254,25.9842,302.311
2014-07-08 00:00:00,2014-07-08 00:00:00,TMP,surface,-94.6879,25.9842,302.939
2014-07-08 00:00:00,2014-07-08 00:00:00,TMP,surface,-93.7504,25.9842,303.38
2014-07-08 00:00:00,2014-07-08 00:00:00,TMP,surface,-92.8129,25.9842,303.7
2014-07-08 00:00:00,2014-07-08 00:00:00,TMP,surface,-107.813,26.929,292.392
2014-07-08 00:00:00,2014-07-08 00:00:00,TMP,surface,-106.875,26.929,289.473
2014-07-08 00:00:00,2014-07-08 00:00:00,TMP,surface,-105.938,26.929,290.58
2014-07-08 00:00:00,2014-07-08 00:00:00,TMP,surface,-105,26.929,294.743
2014-07-08 00:00:00,2014-07-08 00:00:00,TMP,surface,-104.063,26.929,298.302
2014-07-08 00:00:00,2014-07-08 00:00:00,TMP,surface,-103.125,26.929,298.158
2014-07-08 00:00:00,2014-07-08 00:00:00,TMP,surface,-102.188,26.929,297.889
2014-07-08 00:00:00,2014-07-08 00:00:00,TMP,surface,-101.25,26.929,298.849
2014-07-08 00:00:00,2014-07-08 00:00:00,TMP,surface,-100.313,26.929,301.361
2014-07-08 00:00:00,2014-07-08 00:00:00,TMP,surface,-99.3754,26.929,303.201
2014-07-08 00:00:00,2014-07-08 00:00:00,TMP,surface,-98.4379,26.929,302.548
2014-07-08 00:00:00,2014-07-08 00:00:00,TMP,surface,-97.5004,26.929,301.003
2014-07-08 00:00:00,2014-07-08 00:00:00,TMP,surface,-96.5629,26.929,301.527
2014-07-08 00:00:00,2014-07-08 00:00:00,TMP,surface,-95.6254,26.929,302.705
2014-07-08 00:00:00,2014-07-08 00:00:00,TMP,surface,-94.6879,26.929,303.143
2014-07-08 00:00:00,2014-07-08 00:00:00,TMP,surface,-93.7504,26.929,303.422
2014-07-08 00:00:00,2014-07-08 00:00:00,TMP,surface,-92.8129,26.929,303.579
2014-07-08 00:00:00,2014-07-08 00:00:00,TMP,surface,-107.813,27.8739,290.414
2014-07-08 00:00:00,2014-07-08 00:00:00,TMP,surface,-106.875,27.8739,289.265
2014-07-08 00:00:00,2014-07-08 00:00:00,TMP,surface,-105.938,27.8739,292.481
2014-07-08 00:00:00,2014-07-08 00:00:00,TMP,surface,-105,27.8739,297.041
2014-07-08 00:00:00,2014-07-08 00:00:00,TMP,surface,-104.063,27.8739,297.784
2014-07-08 00:00:00,2014-07-08 00:00:00,TMP,surface,-103.125,27.8739,296.564
2014-07-08 00:00:00,2014-07-08 00:00:00,TMP,surface,-102.188,27.8739,296.843
2014-07-08 00:00:00,2014-07-08 00:00:00,TMP,surface,-101.25,27.8739,299.681
2014-07-08 00:00:00,2014-07-08 00:00:00,TMP,surface,-100.313,27.8739,302.235
2014-07-08 00:00:00,2014-07-08 00:00:00,TMP,surface,-99.3754,27.8739,302.52
2014-07-08 00:00:00,2014-07-08 00:00:00,TMP,surface,-98.4379,27.8739,301.415
2014-07-08 00:00:00,2014-07-08 00:00:00,TMP,surface,-97.5004,27.8739,301.582
2014-07-08 00:00:00,2014-07-08 00:00:00,TMP,surface,-96.5629,27.8739,302.603
2014-07-08 00:00:00,2014-07-08 00:00:00,TMP,surface,-95.6254,27.8739,303.031
2014-07-08 00:00:00,2014-07-08 00:00:00,TMP,surface,-94.6879,27.8739,303.361
2014-07-08 00:00:00,2014-07-08 00:00:00,TMP,surface,-93.7504,27.8739,303.521
2014-07-08 00:00:00,2014-07-08 00:00:00,TMP,surface,-92.8129,27.8739,303.63
2014-07-08 00:00:00,2014-07-08 00:00:00,TMP,surface,-107.813,28.8188,289.307
2014-07-08 00:00:00,2014-07-08 00:00:00,TMP,surface,-106.875,28.8188,289.908
2014-07-08 00:00:00,2014-07-08 00:00:00,TMP,surface,-105.938,28.8188,294.372
2014-07-08 00:00:00,2014-07-08 00:00:00,TMP,surface,-105,28.8188,298.129
2014-07-08 00:00:00,2014-07-08 00:00:00,TMP,surface,-104.063,28.8188,297.031
2014-07-08 00:00:00,2014-07-08 00:00:00,TMP,surface,-103.125,28.8188,296.305
2014-07-08 00:00:00,2014-07-08 00:00:00,TMP,surface,-102.188,28.8188,297.342
2014-07-08 00:00:00,2014-07-08 00:00:00,TMP,surface,-101.25,28.8188,299.828
2014-07-08 00:00:00,2014-07-08 00:00:00,TMP,surface,-100.313,28.8188,301.147
2014-07-08 00:00:00,2014-07-08 00:00:00,TMP,surface,-99.3754,28.8188,300.619
2014-07-08 00:00:00,2014-07-08 00:00:00,TMP,surface,-98.4379,28.8188,299.684
2014-07-08 00:00:00,2014-07-08 00:00:00,TMP,surface,-97.5004,28.8188,299.329
2014-07-08 00:00:00,2014-07-08 00:00:00,TMP,surface,-96.5629,28.8188,299.601
2014-07-08 00:00:00,2014-07-08 00:00:00,TMP,surface,-95.6254,28.8188,301.047
2014-07-08 00:00:00,2014-07-08 00:00:00,TMP,surface,-94.6879,28.8188,302.996
2014-07-08 00:00:00,2014-07-08 00:00:00,TMP,surface,-93.7504,28.8188,303.339
2014-07-08 00:00:00,2014-07-08 00:00:00,TMP,surface,-92.8129,28.8188,303.572
2014-07-08 00:00:00,2014-07-08 00:00:00,TMP,surface,-107.813,29.7637,291.249
2014-07-08 00:00:00,2014-07-08 00:00:00,TMP,surface,-106.875,29.7637,292.676
2014-07-08 00:00:00,2014-07-08 00:00:00,TMP,surface,-105.938,29.7637,296.481
2014-07-08 00:00:00,2014-07-08 00:00:00,TMP,surface,-105,29.7637,297.902
2014-07-08 00:00:00,2014-07-08 00:00:00,TMP,surface,-104.063,29.7637,297.457
2014-07-08 00:00:00,2014-07-08 00:00:00,TMP,surface,-103.125,29.7637,298.052
2014-07-08 00:00:00,2014-07-08 00:00:00,TMP,surface,-102.188,29.7637,299.281
2014-07-08 00:00:00,2014-07-08 00:00:00,TMP,surface,-101.25,29.7637,299.924
2014-07-08 00:00:00,2014-07-08 00:00:00,TMP,surface,-100.313,29.7637,299.422
2014-07-08 00:00:00,2014-07-08 00:00:00,TMP,surface,-99.3754,29.7637,298.318
2014-07-08 00:00:00,2014-07-08 00:00:00,TMP,surface,-98.4379,29.7637,297.809
2014-07-08 00:00:00,2014-07-08 00:00:00,TMP,surface,-97.5004,29.7637,298.081
2014-07-08 00:00:00,2014-07-08 00:00:00,TMP,surface,-96.5629,29.7637,298.478
2014-07-08 00:00:00,2014-07-08 00:00:00,TMP,surface,-95.6254,29.7637,298.702
2014-07-08 00:00:00,2014-07-08 00:00:00,TMP,surface,-94.6879,29.7637,300.12
2014-07-08 00:00:00,2014-07-08 00:00:00,TMP,surface,-93.7504,29.7637,302.139
2014-07-08 00:00:00,2014-07-08 00:00:00,TMP,surface,-92.8129,29.7637,299.675
2014-07-08 00:00:00,2014-07-08 00:00:00,TMP,surface,-107.813,30.7085,295.876
2014-07-08 00:00:00,2014-07-08 00:00:00,TMP,surface,-106.875,30.7085,297.486
2014-07-08 00:00:00,2014-07-08 00:00:00,TMP,surface,-105.938,30.7085,297.886
2014-07-08 00:00:00,2014-07-08 00:00:00,TMP,surface,-105,30.7085,297.889
2014-07-08 00:00:00,2014-07-08 00:00:00,TMP,surface,-104.063,30.7085,297.662
2014-07-08 00:00:00,2014-07-08 00:00:00,TMP,surface,-103.125,30.7085,299.326
2014-07-08 00:00:00,2014-07-08 00:00:00,TMP,surface,-102.188,30.7085,300.151
2014-07-08 00:00:00,2014-07-08 00:00:00,TMP,surface,-101.25,30.7085,299.633
2014-07-08 00:00:00,2014-07-08 00:00:00,TMP,surface,-100.313,30.7085,298.372
2014-07-08 00:00:00,2014-07-08 00:00:00,TMP,surface,-99.3754,30.7085,297.412
2014-07-08 00:00:00,2014-07-08 00:00:00,TMP,surface,-98.4379,30.7085,297.425
2014-07-08 00:00:00,2014-07-08 00:00:00,TMP,surface,-97.5004,30.7085,297.995
2014-07-08 00:00:00,2014-07-08 00:00:00,TMP,surface,-96.5629,30.7085,298.673
2014-07-08 00:00:00,2014-07-08 00:00:00,TMP,surface,-95.6254,30.7085,299.118
2014-07-08 00:00:00,2014-07-08 00:00:00,TMP,surface,-94.6879,30.7085,299.153
2014-07-08 00:00:00,2014-07-08 00:00:00,TMP,surface,-93.7504,30.7085,299.118
2014-07-08 00:00:00,2014-07-08 00:00:00,TMP,surface,-92.8129,30.7085,298.625
2014-07-08 00:00:00,2014-07-08 00:00:00,TMP,surface,-107.813,31.6534,297.972
2014-07-08 00:00:00,2014-07-08 00:00:00,TMP,surface,-106.875,31.6534,298.535
2014-07-08 00:00:00,2014-07-08 00:00:00,TMP,surface,-105.938,31.6534,297.633
2014-07-08 00:00:00,2014-07-08 00:00:00,TMP,surface,-105,31.6534,297.655
2014-07-08 00:00:00,2014-07-08 00:00:00,TMP,surface,-104.063,31.6534,298.747
2014-07-08 00:00:00,2014-07-08 00:00:00,TMP,surface,-103.125,31.6534,299.886
2014-07-08 00:00:00,2014-07-08 00:00:00,TMP,surface,-102.188,31.6534,300.161
2014-07-08 00:00:00,2014-07-08 00:00:00,TMP,surface,-101.25,31.6534,299.342
2014-07-08 00:00:00,2014-07-08 00:00:00,TMP,surface,-100.313,31.6534,298.388
2014-07-08 00:00:00,2014-07-08 00:00:00,TMP,surface,-99.3754,31.6534,298.039
2014-07-08 00:00:00,2014-07-08 00:00:00,TMP,surface,-98.4379,31.6534,298.257
2014-07-08 00:00:00,2014-07-08 00:00:00,TMP,surface,-97.5004,31.6534,298.769
2014-07-08 00:00:00,2014-07-08 00:00:00,TMP,surface,-96.5629,31.6534,299.367
2014-07-08 00:00:00,2014-07-08 00:00:00,TMP,surface,-95.6254,31.6534,299.732
2014-07-08 00:00:00,2014-07-08 00:00:00,TMP,surface,-94.6879,31.6534,299.633
2014-07-08 00:00:00,2014-07-08 00:00:00,TMP,surface,-93.7504,31.6534,299.329
2014-07-08 00:00:00,2014-07-08 00:00:00,TMP,surface,-92.8129,31.6534,299.191
2014-07-08 00:00:00,2014-07-08 00:00:00,TMP,surface,-107.813,32.5983,294.894
2014-07-08 00:00:00,2014-07-08 00:00:00,TMP,surface,-106.875,32.5983,295.624
2014-07-08 00:00:00,2014-07-08 00:00:00,TMP,surface,-105.938,32.5983,296.11
2014-07-08 00:00:00,2014-07-08 00:00:00,TMP,surface,-105,32.5983,296.711
2014-07-08 00:00:00,2014-07-08 00:00:00,TMP,surface,-104.063,32.5983,298.456
2014-07-08 00:00:00,2014-07-08 00:00:00,TMP,surface,-103.125,32.5983,299.444
2014-07-08 00:00:00,2014-07-08 00:00:00,TMP,surface,-102.188,32.5983,299.419
2014-07-08 00:00:00,2014-07-08 00:00:00,TMP,surface,-101.25,32.5983,299.112
2014-07-08 00:00:00,2014-07-08 00:00:00,TMP,surface,-100.313,32.5983,299.278
2014-07-08 00:00:00,2014-07-08 00:00:00,TMP,surface,-99.3754,32.5983,299.649
2014-07-08 00:00:00,2014-07-08 00:00:00,TMP,surface,-98.4379,32.5983,299.771
2014-07-08 00:00:00,2014-07-08 00:00:00,TMP,surface,-97.5004,32.5983,299.739
2014-07-08 00:00:00,2014-07-08 00:00:00,TMP,surface,-96.5629,32.5983,299.927
2014-07-08 00:00:00,2014-07-08 00:00:00,TMP,surface,-95.6254,32.5983,300.184
2014-07-08 00:00:00,2014-07-08 00:00:00,TMP,surface,-94.6879,32.5983,300.11
2014-07-08 00:00:00,2014-07-08 00:00:00,TMP,surface,-93.7504,32.5983,299.944
2014-07-08 00:00:00,2014-07-08 00:00:00,TMP,surface,-92.8129,32.5983,299.944
2014-07-08 00:00:00,2014-07-08 00:00:00,TMP,surface,-107.813,33.5432,291.329
2014-07-08 00:00:00,2014-07-08 00:00:00,TMP,surface,-106.875,33.5432,292.961
2014-07-08 00:00:00,2014-07-08 00:00:00,TMP,surface,-105.938,33.5432,294.324
2014-07-08 00:00:00,2014-07-08 00:00:00,TMP,surface,-105,33.5432,295.956
2014-07-08 00:00:00,2014-07-08 00:00:00,TMP,surface,-104.063,33.5432,297.838
2014-07-08 00:00:00,2014-07-08 00:00:00,TMP,surface,-103.125,33.5432,298.664
2014-07-08 00:00:00,2014-07-08 00:00:00,TMP,surface,-102.188,33.5432,298.68
2014-07-08 00:00:00,2014-07-08 00:00:00,TMP,surface,-101.25,33.5432,299
2014-07-08 00:00:00,2014-07-08 00:00:00,TMP,surface,-100.313,33.5432,299.969
2014-07-08 00:00:00,2014-07-08 00:00:00,TMP,surface,-99.3754,33.5432,300.743
2014-07-08 00:00:00,2014-07-08 00:00:00,TMP,surface,-98.4379,33.5432,300.753
2014-07-08 00:00:00,2014-07-08 00:00:00,TMP,surface,-97.5004,33.5432,300.283
2014-07-08 00:00:00,2014-07-08 00:00:00,TMP,surface,-96.5629,33.5432,300.001
2014-07-08 00:00:00,2014-07-08 00:00:00,TMP,surface,-95.6254,33.5432,299.911
2014-07-08 00:00:00,2014-07-08 00:00:00,TMP,surface,-94.6879,33.5432,299.639
2014-07-08 00:00:00,2014-07-08 00:00:00,TMP,surface,-93.7504,33.5432,299.406
2014-07-08 00:00:00,2014-07-08 00:00:00,TMP,surface,-92.8129,33.5432,299.265
2014-07-08 00:00:00,2014-07-08 00:00:00,TMP,surface,-107.813,34.4881,290.02
2014-07-08 00:00:00,2014-07-08 00:00:00,TMP,surface,-106.875,34.4881,292.084
2014-07-08 00:00:00,2014-07-08 00:00:00,TMP,surface,-105.938,34.4881,293.521
2014-07-08 00:00:00,2014-07-08 00:00:00,TMP,surface,-105,34.4881,295.319
2014-07-08 00:00:00,2014-07-08 00:00:00,TMP,surface,-104.063,34.4881,296.983
2014-07-08 00:00:00,2014-07-08 00:00:00,TMP,surface,-103.125,34.4881,297.732
2014-07-08 00:00:00,2014-07-08 00:00:00,TMP,surface,-102.188,34.4881,298.568
2014-07-08 00:00:00,2014-07-08 00:00:00,TMP,surface,-101.25,34.4881,299.169
2014-07-08 00:00:00,2014-07-08 00:00:00,TMP,surface,-100.313,34.4881,300.094
2014-07-08 00:00:00,2014-07-08 00:00:00,TMP,surface,-99.3754,34.4881,300.635
2014-07-08 00:00:00,2014-07-08 00:00:00,TMP,surface,-98.4379,34.4881,300.529
2014-07-08 00:00:00,2014-07-08 00:00:00,TMP,surface,-97.5004,34.4881,299.998
2014-07-08 00:00:00,2014-07-08 00:00:00,TMP,surface,-96.5629,34.4881,299.62
2014-07-08 00:00:00,2014-07-08 00:00:00,TMP,surface,-95.6254,34.4881,299.352
2014-07-08 00:00:00,2014-07-08 00:00:00,TMP,surface,-94.6879,34.4881,298.689
2014-07-08 00:00:00,2014-07-08 00:00:00,TMP,surface,-93.7504,34.4881,298.1
2014-07-08 00:00:00,2014-07-08 00:00:00,TMP,surface,-92.8129,34.4881,298.043
2014-07-08 00:00:00,2014-07-08 00:00:00,TMP,surface,-107.813,35.4329,290.897
2014-07-08 00:00:00,2014-07-08 00:00:00,TMP,surface,-106.875,35.4329,291.419
2014-07-08 00:00:00,2014-07-08 00:00:00,TMP,surface,-105.938,35.4329,291.848
2014-07-08 00:00:00,2014-07-08 00:00:00,TMP,surface,-105,35.4329,292.987
2014-07-08 00:00:00,2014-07-08 00:00:00,TMP,surface,-104.063,35.4329,295.46
2014-07-08 00:00:00,2014-07-08 00:00:00,TMP,surface,-103.125,35.4329,297.377
2014-07-08 00:00:00,2014-07-08 00:00:00,TMP,surface,-102.188,35.4329,298.494
2014-07-08 00:00:00,2014-07-08 00:00:00,TMP,surface,-101.25,35.4329,299.15
2014-07-08 00:00:00,2014-07-08 00:00:00,TMP,surface,-100.313,35.4329,299.63
2014-07-08 00:00:00,2014-07-08 00:00:00,TMP,surface,-99.3754,35.4329,300.017
2014-07-08 00:00:00,2014-07-08 00:00:00,TMP,surface,-98.4379,35.4329,300.097
2014-07-08 00:00:00,2014-07-08 00:00:00,TMP,surface,-97.5004,35.4329,299.947
2014-07-08 00:00:00,2014-07-08 00:00:00,TMP,surface,-96.5629,35.4329,299.809
2014-07-08 00:00:00,2014-07-08 00:00:00,TMP,surface,-95.6254,35.4329,299.464
2014-07-08 00:00:00,2014-07-08 00:00:00,TMP,surface,-94.6879,35.4329,298.676
2014-07-08 00:00:00,2014-07-08 00:00:00,TMP,surface,-93.7504,35.4329,297.815
2014-07-08 00:00:00,2014-07-08 00:00:00,TMP,surface,-92.8129,35.4329,297.233
2014-07-08 00:00:00,2014-07-08 00:00:00,TMP,surface,-107.813,36.3778,290.695
2014-07-08 00:00:00,2014-07-08 00:00:00,TMP,surface,-106.875,36.3778,288.168
2014-07-08 00:00:00,2014-07-08 00:00:00,TMP,surface,-105.938,36.3778,288.958
2014-07-08 00:00:00,2014-07-08 00:00:00,TMP,surface,-105,36.3778,290.116
2014-07-08 00:00:00,2014-07-08 00:00:00,TMP,surface,-104.063,36.3778,293.409
2014-07-08 00:00:00,2014-07-08 00:00:00,TMP,surface,-103.125,36.3778,296.408
2014-07-08 00:00:00,2014-07-08 00:00:00,TMP,surface,-102.188,36.3778,298.056
2014-07-08 00:00:00,2014-07-08 00:00:00,TMP,surface,-101.25,36.3778,298.823
2014-07-08 00:00:00,2014-07-08 00:00:00,TMP,surface,-100.313,36.3778,299.159
2014-07-08 00:00:00,2014-07-08 00:00:00,TMP,surface,-99.3754,36.3778,299.39
2014-07-08 00:00:00,2014-07-08 00:00:00,TMP,surface,-98.4379,36.3778,299.563
2014-07-08 00:00:00,2014-07-08 00:00:00,TMP,surface,-97.5004,36.3778,299.7
2014-07-08 00:00:00,2014-07-08 00:00:00,TMP,surface,-96.5629,36.3778,299.729
2014-07-08 00:00:00,2014-07-08 00:00:00,TMP,surface,-95.6254,36.3778,299.345
2014-07-08 00:00:00,2014-07-08 00:00:00,TMP,surface,-94.6879,36.3778,298.44
2014-07-08 00:00:00,2014-07-08 00:00:00,TMP,surface,-93.7504,36.3778,297.518
2014-07-08 00:00:00,2014-07-08 00:00:00,TMP,surface,-92.8129,36.3778,297.095
2014-07-08 00:00:00,2014-07-08 00:00:00,PRATE,surface,-107.813,25.0393,1.58e-05
2014-07-08 00:00:00,2014-07-08 00:00:00,PRATE,surface,-106.875,25.0393,0.0001303
2014-07-08 00:00:00,2014-07-08 00:00:00,PRATE,surface,-105.938,25.0393,0.0001519
2014-07-08 00:00:00,2014-07-08 00:00:00,PRATE,surface,-105,25.0393,9.3e-05
2014-07-08 00:00:00,2014-07-08 00:00:00,PRATE,surface,-104.063,25.0393,4.18e-05
2014-07-08 00:00:00,2014-07-08 00:00:00,PRATE,surface,-103.125,25.0393,2.7e-06
2014-07-08 00:00:00,2014-07-08 00:00:00,PRATE,surface,-102.188,25.0393,1.17e-05
2014-07-08 00:00:00,2014-07-08 00:00:00,PRATE,surface,-101.25,25.0393,3.94e-05
2014-07-08 00:00:00,2014-07-08 00:00:00,PRATE,surface,-100.313,25.0393,4.25e-05
2014-07-08 00:00:00,2014-07-08 00:00:00,PRATE,surface,-99.3754,25.0393,2.06e-05
2014-07-08 00:00:00,2014-07-08 00:00:00,PRATE,surface,-98.4379,25.0393,1.27e-05
2014-07-08 00:00:00,2014-07-08 00:00:00,PRATE,surface,-97.5004,25.0393,2.73e-05
2014-07-08 00:00:00,2014-07-08 00:00:00,PRATE,surface,-96.5629,25.0393,3.3e-05
2014-07-08 00:00:00,2014-07-08 00:00:00,PRATE,surface,-95.6254,25.0393,2.12e-05
2014-07-08 00:00:00,2014-07-08 00:00:00,PRATE,surface,-94.6879,25.0393,3.14e-05
2014-07-08 00:00:00,2014-07-08 00:00:00,PRATE,surface,-93.7504,25.0393,5.85e-05
2014-07-08 00:00:00,2014-07-08 00:00:00,PRATE,surface,-92.8129,25.0393,5.57e-05
2014-07-08 00:00:00,2014-07-08 00:00:00,PRATE,surface,-107.813,25.9842,5.96e-05
2014-07-08 00:00:00,2014-07-08 00:00:00,PRATE,surface,-106.875,25.9842,0.0001473
2014-07-08 00:00:00,2014-07-08 00:00:00,PRATE,surface,-105.938,25.9842,0.0001036
2014-07-08 00:00:00,2014-07-08 00:00:00,PRATE,surface,-105,25.9842,6.98e-05
2014-07-08 00:00:00,2014-07-08 00:00:00,PRATE,surface,-104.063,25.9842,1.32e-05
2014-07-08 00:00:00,2014-07-08 00:00:00,PRATE,surface,-103.125,25.9842,2.9e-06
2014-07-08 00:00:00,2014-07-08 00:00:00,PRATE,surface,-102.188,25.9842,2.8e-06
2014-07-08 00:00:00,2014-07-08 00:00:00,PRATE,surface,-101.25,25.9842,6.9e-06
2014-07-08 00:00:00,2014-07-08 00:00:00,PRATE,surface,-100.313,25.9842,1.52e-05
2014-07-08 00:00:00,2014-07-08 00:00:00,PRATE,surface,-99.3754,25.9842,1.48e-05
2014-07-08 00:00:00,2014-07-08 00:00:00,PRATE,surface,-98.4379,25.9842,2.21e-05
2014-07-08 00:00:00,2014-07-08 00:00:00,PRATE,surface,-97.5004,25.9842,3.4e-05
2014-07-08 00:00:00,2014-07-08 00:00:00,PRATE,surface,-96.5629,25.9842,2.49e-05
2014-07-08 00:00:00,2014-07-08 00:00:00,PRATE,surface,-95.6254,25.9842,1.96e-05
2014-07-08 00:00:00,2014-07-08 00:00:00,PRATE,surface,-94.6879,25.9842,2.66e-05
2014-07-08 00:00:00,2014-07-08 00:00:00,PRATE,surface,-93.7504,25.9842,4.33e-05
2014-07-08 00:00:00,2014-07-08 00:00:00,PRATE,surface,-92.8129,25.9842,5.25e-05
2014-07-08 00:00:00,2014-07-08 00:00:00,PRATE,surface,-107.813,26.929,0.0001286
2014-07-08 00:00:00,2014-07-08 00:00:00,PRATE,surface,-106.875,26.929,0.0001018
2014-07-08 00:00:00,2014-07-08 00:00:00,PRATE,surface,-105.938,26.929,8.61e-05
2014-07-08 00:00:00,2014-07-08 00:00:00,PRATE,surface,-105,26.929,4.35e-05
2014-07-08 00:00:00,2014-07-08 00:00:00,PRATE,surface,-104.063,26.929,2.01e-05
2014-07-08 00:00:00,2014-07-08 00:00:00,PRATE,surface,-103.125,26.929,9.2e-06
2014-07-08 00:00:00,2014-07-08 00:00:00,PRATE,surface,-102.188,26.929,3.5e-06
2014-07-08 00:00:00,2014-07-08 00:00:00,PRATE,surface,-101.25,26.929,6.9e-06
2014-07-08 00:00:00,2014-07-08 00:00:00,PRATE,surface,-100.313,26.929,1.03e-05
2014-07-08 00:00:00,2014-07-08 00:00:00,PRATE,surface,-99.3754,26.929,1.84e-05
2014-07-08 00:00:00,2014-07-08 00:00:00,PRATE,surface,-98.4379,26.929,3.2e-05
2014-07-08 00:00:00,2014-07-08 00:00:00,PRATE,surface,-97.5004,26.929,4.77e-05
2014-07-08 00:00:00,2014-07-08 00:00:00,PRATE,surface,-96.5629,26.929,3.7e-05
2014-07-08 00:00:00,2014-07-08 00:00:00,PRATE,surface,-95.6254,26.929,2.26e-05
2014-07-08 00:00:00,2014-07-08 00:00:00,PRATE,surface,-94.6879,26.929,2.81e-05
2014-07-08 00:00:00,2014-07-08 00:00:00,PRATE,surface,-93.7504,26.929,4.83e-05
2014-07-08 00:00:00,2014-07-08 00:00:00,PRATE,surface,-92.8129,26.929,5.11e-05
2014-07-08 00:00:00,2014-07-08 00:00:00,PRATE,surface,-107.813,27.8739,0.0001209
2014-07-08 00:00:00,2014-07-08 00:00:00,PRATE,surface,-106.875,27.8739,7.94e-05
2014-07-08 00:00:00,2014-07-08 00:00:00,PRATE,surface,-105.938,27.8739,4.15e-05
2014-07-08 00:00:00,2014-07-08 00:00:00,PRATE,surface,-105,27.8739,1.03e-05
2014-07-08 00:00:00,2014-07-08 00:00:00,PRATE,surface,-104.063,27.8739,3.88e-05
2014-07-08 00:00:00,2014-07-08 00:00:00,PRATE,surface,-103.125,27.8739,3.92e-05
2014-07-08 00:00:00,2014-07-08 00:00:00,PRATE,surface,-102.188,27.8739,1.9e-05
2014-07-08 00:00:00,2014-07-08 00:00:00,PRATE,surface,-101.25,27.8739,1.37e-05
2014-07-08 00:00:00,2014-07-08 00:00:00,PRATE,surface,-100.313,27.8739,1.61e-05
2014-07-08 00:00:00,2014-07-08 00:00:00,PRATE,surface,-99.3754,27.8739,2.22e-05
2014-07-08 00:00:00,2014-07-08 00:00:00,PRATE,surface,-98.4379,27.8739,3.64e-05
2014-07-08 00:00:00,2014-07-08 00:00:00,PRATE,surface,-97.5004,27.8739,4.53e-05
2014-07-08 00:00:00,2014-07-08 00:00:00,PRATE,surface,-96.5629,27.8739,4.22e-05
2014-07-08 00:00:00,2014-07-08 00:00:00,PRATE,surface,-95.6254,27.8739,5.27e-05
2014-07-08 00:00:00,2014-07-08 00:00:00,PRATE,surface,-94.6879,27.8739,9.21e-05
2014-07-08 00:00:00,2014-07-08 00:00:00,PRATE,surface,-93.7504,27.8739,0.0001254
2014-07-08 00:00:00,2014-07-08 00:00:00,PRATE,surface,-92.8129,27.8739,0.0001245
2014-07-08 00:00:00,2014-07-08 00:00:00,PRATE,surface,-107.813,28.8188,9.3e-05
2014-07-08 00:00:00,2014-07-08 00:00:00,PRATE,surface,-106.875,28.8188,6.71e-05
2014-07-08 00:00:00,2014-07-08 00:00:00,PRATE,surface,-105.938,28.8188,3.04e-05
2014-07-08 00:00:00,2014-07-08 00:00:00,PRATE,surface,-105,28.8188,4.7e-06
2014-07-08 00:00:00,2014-07-08 00:00:00,PRATE,surface,-104.063,28.8188,2.68e-05
2014-07-08 00:00:00,2014-07-08 00:00:00,PRATE,surface,-103.125,28.8188,2.72e-05
2014-07-08 00:00:00,2014-07-08 00:00:00,PRATE,surface,-102.188,28.8188,1.21e-05
2014-07-08 00:00:00,2014-07-08 00:00:00,PRATE,surface,-101.25,28.8188,8.7e-06
2014-07-08 00:00:00,2014-07-08 00:00:00,PRATE,surface,-100.313,28.8188,1.21e-05
2014-07-08 00:00:00,2014-07-08 00:00:00,PRATE,surface,-99.3754,28.8188,1.93e-05
2014-07-08 00:00:00,2014-07-08 00:00:00,PRATE,surface,-98.4379,28.8188,2.9e-05
2014-07-08 00:00:00,2014-07-08 00:00:00,PRATE,surface,-97.5004,28.8188,3.88e-05
2014-07-08 00:00:00,2014-07-08 00:00:00,PRATE,surface,-96.5629,28.8188,4.38e-05
2014-07-08 00:00:00,2014-07-08 00:00:00,PRATE,surface,-95.6254,28.8188,4.74e-05
2014-07-08 00:00:00,2014-07-08 00:00:00,PRATE,surface,-94.6879,28.8188,6.33e-05
2014-07-08 00:00:00,2014-07-08 00:00:00,PRATE,surface,-93.7504,28.8188,7.6e-05
2014-07-08 00:00:00,2014-07-08 00:00:00,PRATE,surface,-92.8129,28.8188,4.78e-05
2014-07-08 00:00:00,2014-07-08 00:00:00,PRATE,surface,-107.813,29.7637,4.1e-05
2014-07-08 00:00:00,2014-07-08 00:00:00,PRATE,surface,-106.875,29.7637,4.01e-05
2014-07-08 00:00:00,2014-07-08 00:00:00,PRATE,surface,-105.938,29.7637,1.94e-05
2014-07-08 00:00:00,2014-07-08 00:00:00,PRATE,surface,-105,29.7637,8.4e-06
2014-07-08 00:00:00,2014-07-08 00:00:00,PRATE,surface,-104.063,29.7637,2.17e-05
2014-07-08 00:00:00,2014-07-08 00:00:00,PRATE,surface,-103.125,29.7637,9.3e-06
2014-07-08 00:00:00,2014-07-08 00:00:00,PRATE,surface,-102.188,29.7637,2.9e-06
2014-07-08 00:00:00,2014-07-08 00:00:00,PRATE,surface,-101.25,29.7637,4.4e-06
2014-07-08 00:00:00,2014-07-08 00:00:00,PRATE,surface,-100.313,29.7637,9.9e-06
2014-07-08 00:00:00,2014-07-08 00:00:00,PRATE,surface,-99.3754,29.7637,1.71e-05
2014-07-08 00:00:00,2014-07-08 00:00:00,PRATE,surface,-98.4379,29.7637,2.42e-05
2014-07-08 00:00:00,2014-07-08 00:00:00,PRATE,surface,-97.5004,29.7637,2.36e-05
2014-07-08 00:00:00,2014-07-08 00:00:00,PRATE,surface,-96.5629,29.7637,2.76e-05
2014-07-08 00:00:00,2014-07-08 00:00:00,PRATE,surface,-95.6254,29.7637,4.45e-05
2014-07-08 00:00:00,2014-07-08 00:00:00,PRATE,surface,-94.6879,29.7637,5.13e-05
2014-07-08 00:00:00,2014-07-08 00:00:00,PRATE,surface,-93.7504,29.7637,4.42e-05
2014-07-08 00:00:00,2014-07-08 00:00:00,PRATE,surface,-92.8129,29.7637,5.21e-05
2014-07-08 00:00:00,2014-07-08 00:00:00,PRATE,surface,-107.813,30.7085,8.9e-06
2014-07-08 00:00:00,2014-07-08 00:00:00,PRATE,surface,-106.875,30.7085,1.61e-05
2014-07-08 00:00:00,2014-07-08 00:00:00,PRATE,surface,-105.938,30.7085,1.56e-05
2014-07-08 00:00:00,2014-07-08 00:00:00,PRATE,surface,-105,30.7085,9.3e-06
2014-07-08 00:00:00,2014-07-08 00:00:00,PRATE,surface,-104.063,30.7085,1.02e-05
2014-07-08 00:00:00,2014-07-08 00:00:00,PRATE,surface,-103.125,30.7085,3.4e-06
2014-07-08 00:00:00,2014-07-08 00:00:00,PRATE,surface,-102.188,30.7085,1.4e-06
2014-07-08 00:00:00,2014-07-08 00:00:00,PRATE,surface,-101.25,30.7085,2.8e-06
2014-07-08 00:00:00,2014-07-08 00:00:00,PRATE,surface,-100.313,30.7085,1.49e-05
2014-07-08 00:00:00,2014-07-08 00:00:00,PRATE,surface,-99.3754,30.7085,2.01e-05
2014-07-08 00:00:00,2014-07-08 00:00:00,PRATE,surface,-98.4379,30.7085,1.56e-05
2014-07-08 00:00:00,2014-07-08 00:00:00,PRATE,surface,-97.5004,30.7085,1.11e-05
2014-07-08 00:00:00,2014-07-08 00:00:00,PRATE,surface,-96.5629,30.7085,1.19e-05
2014-07-08 00:00:00,2014-07-08 00:00:00,PRATE,surface,-95.6254,30.7085,1.7e-05
2014-07-08 00:00:00,2014-07-08 00:00:00,PRATE,surface,-94.6879,30.7085,2.04e-05
2014-07-08 00:00:00,2014-07-08 00:00:00,PRATE,surface,-93.7504,30.7085,1.9e-05
2014-07-08 00:00:00,2014-07-08 00:00:00,PRATE,surface,-92.8129,30.7085,2.7e-05
2014-07-08 00:00:00,2014-07-08 00:00:00,PRATE,surface,-107.813,31.6534,4.7e-06
2014-07-08 00:00:00,2014-07-08 00:00:00,PRATE,surface,-106.875,31.6534,8.6e-06
2014-07-08 00:00:00,2014-07-08 00:00:00,PRATE,surface,-105.938,31.6534,1.83e-05
2014-07-08 00:00:00,2014-07-08 00:00:00,PRATE,surface,-105,31.6534,1.37e-05
2014-07-08 00:00:00,2014-07-08 00:00:00,PRATE,surface,-104.063,31.6534,7.3e-06
2014-07-08 00:00:00,2014-07-08 00:00:00,PRATE,surface,-103.125,31.6534,4.2e-06
2014-07-08 00:00:00,2014-07-08 00:00:00,PRATE,surface,-102.188,31.6534,2.3e-06
2014-07-08 00:00:00,2014-07-08 00:00:00,PRATE,surface,-101.25,31.6534,5.2e-06
2014-07-08 00:00:00,2014-07-08 00:00:00,PRATE,surface,-100.313,31.6534,1.57e-05
2014-07-08 00:00:00,2014-07-08 00:00:00,PRATE,surface,-99.3754,31.6534,1.57e-05
2014-07-08 00:00:00,2014-07-08 00:00:00,PRATE,surface,-98.4379,31.6534,1.04e-05
2014-07-08 00:00:00,2014-07-08 00:00:00,PRATE,surface,-97.5004,31.6534,5.8e-06
2014-07-08 00:00:00,2014-07-08 00:00:00,PRATE,surface,-96.5629,31.6534,2.8e-06
2014-07-08 00:00:00,2014-07-08 00:00:00,PRATE,surface,-95.6254,31.6534,4.1e-06
2014-07-08 00:00:00,2014-07-08 00:00:00,PRATE,surface,-94.6879,31.6534,8.6e-06
2014-07-08 00:00:00,2014-07-08 00:00:00,PRATE,surface,-93.7504,31.6534,1.04e-05
2014-07-08 00:00:00,2014-07-08 00:00:00,PRATE,surface,-92.8129,31.6534,9.5e-06
2014-07-08 00:00:00,2014-07-08 00:00:00,PRATE,surface,-107.813,32.5983,7.1e-06
2014-07-08 00:00:00,2014-07-08 00:00:00,PRATE,surface,-106.875,32.5983,8.8e-06
2014-07-08 00:00:00,2014-07-08 00:00:00,PRATE,surface,-105.938,32.5983,1.54e-05
2014-07-08 00:00:00,2014-07-08 00:00:00,PRATE,surface,-105,32.5983,1.71e-05
2014-07-08 00:00:00,2014-07-08 00:00:00,PRATE,surface,-104.063,32.5983,5.5e-06
2014-07-08 00:00:00,2014-07-08 00:00:00,PRATE,surface,-103.125,32.5983,5.3e-06
2014-07-08 00:00:00,2014-07-08 00:00:00,PRATE,surface,-102.188,32.5983,4.3e-06
2014-07-08 00:00:00,2014-07-08 00:00:00,PRATE,surface,-101.25,32.5983,8.8e-06
2014-07-08 00:00:00,2014-07-08 00:00:00,PRATE,surface,-100.313,32.5983,1.17e-05
2014-07-08 00:00:00,2014-07-08 00:00:00,PRATE,surface,-99.3754,32.5983,9.4e-06
2014-07-08 00:00:00,2014-07-08 00:00:00,PRATE,surface,-98.4379,32.5983,7.2e-06
2014-07-08 00:00:00,2014-07-08 00:00:00,PRATE,surface,-97.5004,32.5983,7.8e-06
2014-07-08 00:00:00,2014-07-08 00:00:00,PRATE,surface,-96.5629,32.5983,8.6e-06
2014-07-08 00:00:00,2014-07-08 00:00:00,PRATE,surface,-95.6254,32.5983,8.4e-06
2014-07-08 00:00:00,2014-07-08 00:00:00,PRATE,surface,-94.6879,32.5983,8.4e-06
2014-07-08 00:00:00,2014-07-08 00:00:00,PRATE,surface,-93.7504,32.5983,7.5e-06
2014-07-08 00:00:00,2014-07-08 00:00:00,PRATE,surface,-92.8129,32.5983,5.3e-06
2014-07-08 00:00:00,2014-07-08 00:00:00,PRATE,surface,-107.813,33.5432,1.4e-05
2014-07-08 00:00:00,2014-07-08 00:00:00,PRATE,surface,-106.875,33.5432,8.5e-06
2014-07-08 00:00:00,2014-07-08 00:00:00,PRATE,surface,-105.938,33.5432,1.05e-05
2014-07-08 00:00:00,2014-07-08 00:00:00,PRATE,surface,-105,33.5432,1.37e-05
2014-07-08 00:00:00,2014-07-08 00:00:00,PRATE,surface,-104.063,33.5432,1.01e-05
2014-07-08 00:00:00,2014-07-08 00:00:00,PRATE,surface,-103.125,33.5432,6e-06
2014-07-08 00:00:00,2014-07-08 00:00:00,PRATE,surface,-102.188,33.5432,8.5e-06
2014-07-08 00:00:00,2014-07-08 00:00:00,PRATE,surface,-101.25,33.5432,1.01e-05
2014-07-08 00:00:00,2014-07-08 00:00:00,PRATE,surface,-100.313,33.5432,9.9e-06
2014-07-08 00:00:00,2014-07-08 00:00:00,PRATE,surface,-99.3754,33.5432,7.4e-06
2014-07-08 00:00:00,2014-07-08 00:00:00,PRATE,surface,-98.4379,33.5432,7.1e-06
2014-07-08 00:00:00,2014-07-08 00:00:00,PRATE,surface,-97.5004,33.5432,1.25e-05
2014-07-08 00:00:00,2014-07-08 00:00:00,PRATE,surface,-96.5629,33.5432,1.56e-05
2014-07-08 00:00:00,2014-07-08 00:00:00,PRATE,surface,-95.6254,33.5432,1.36e-05
2014-07-08 00:00:00,2014-07-08 00:00:00,PRATE,surface,-94.6879,33.5432,1.25e-05
2014-07-08 00:00:00,2014-07-08 00:00:00,PRATE,surface,-93.7504,33.5432,1.03e-05
2014-07-08 00:00:00,2014-07-08 00:00:00,PRATE,surface,-92.8129,33.5432,9.7e-06
2014-07-08 00:00:00,2014-07-08 00:00:00,PRATE,surface,-107.813,34.4881,9.7e-06
2014-07-08 00:00:00,2014-07-08 00:00:00,PRATE,surface,-106.875,34.4881,5.1e-06
2014-07-08 00:00:00,2014-07-08 00:00:00,PRATE,surface,-105.938,34.4881,4.2e-06
2014-07-08 00:00:00,2014-07-08 00:00:00,PRATE,surface,-105,34.4881,6.9e-06
2014-07-08 00:00:00,2014-07-08 00:00:00,PRATE,surface,-104.063,34.4881,4.5e-06
2014-07-08 00:00:00,2014-07-08 00:00:00,PRATE,surface,-103.125,34.4881,6.2e-06
2014-07-08 00:00:00,2014-07-08 00:00:00,PRATE,surface,-102.188,34.4881,6.5e-06
2014-07-08 00:00:00,2014-07-08 00:00:00,PRATE,surface,-101.25,34.4881,8.4e-06
2014-07-08 00:00:00,2014-07-08 00:00:00,PRATE,surface,-100.313,34.4881,6e-06
2014-07-08 00:00:00,2014-07-08 00:00:00,PRATE,surface,-99.3754,34.4881,7.5e-06
2014-07-08 00:00:00,2014-07-08 00:00:00,PRATE,surface,-98.4379,34.4881,8e-06
2014-07-08 00:00:00,2014-07-08 00:00:00,PRATE,surface,-97.5004,34.4881,1.07e-05
2014-07-08 00:00:00,2014-07-08 00:00:00,PRATE,surface,-96.5629,34.4881,1.67e-05
2014-07-08 00:00:00,2014-07-08 00:00:00,PRATE,surface,-95.6254,34.4881,1.87e-05
2014-07-08 00:00:00,2014-07-08 00:00:00,PRATE,surface,-94.6879,34.4881,1.85e-05
2014-07-08 00:00:00,2014-07-08 00:00:00,PRATE,surface,-93.7504,34.4881,2.2e-05
2014-07-08 00:00:00,2014-07-08 00:00:00,PRATE,surface,-92.8129,34.4881,2.19e-05
2014-07-08 00:00:00,2014-07-08 00:00:00,PRATE,surface,-107.813,35.4329,6e-06
2014-07-08 00:00:00,2014-07-08 00:00:00,PRATE,surface,-106.875,35.4329,2.8e-06
2014-07-08 00:00:00,2014-07-08 00:00:00,PRATE,surface,-105.938,35.4329,5.7e-06
2014-07-08 00:00:00,2014-07-08 00:00:00,PRATE,surface,-105,35.4329,7.1e-06
2014-07-08 00:00:00,2014-07-08 00:00:00,PRATE,surface,-104.063,35.4329,8.3e-06
2014-07-08 00:00:00,2014-07-08 00:00:00,PRATE,surface,-103.125,35.4329,3.3e-06
2014-07-08 00:00:00,2014-07-08 00:00:00,PRATE,surface,-102.188,35.4329,4.9e-06
2014-07-08 00:00:00,2014-07-08 00:00:00,PRATE,surface,-101.25,35.4329,1.2e-05
2014-07-08 00:00:00,2014-07-08 00:00:00,PRATE,surface,-100.313,35.4329,1.5e-05
2014-07-08 00:00:00,2014-07-08 00:00:00,PRATE,surface,-99.3754,35.4329,1.5e-05
2014-07-08 00:00:00,2014-07-08 00:00:00,PRATE,surface,-98.4379,35.4329,1.59e-05
2014-07-08 00:00:00,2014-07-08 00:00:00,PRATE,surface,-97.5004,35.4329,1.66e-05
2014-07-08 00:00:00,2014-07-08 00:00:00,PRATE,surface,-96.5629,35.4329,1.59e-05
2014-07-08 00:00:00,2014-07-08 00:00:00,PRATE,surface,-95.6254,35.4329,1.62e-05
2014-07-08 00:00:00,2014-07-08 00:00:00,PRATE,surface,-94.6879,35.4329,1.81e-05
2014-07-08 00:00:00,2014-07-08 00:00:00,PRATE,surface,-93.7504,35.4329,2.05e-05
2014-07-08 00:00:00,2014-07-08 00:00:00,PRATE,surface,-92.8129,35.4329,2.36e-05
2014-07-08 00:00:00,2014-07-08 00:00:00,PRATE,surface,-107.813,36.3778,6.9e-06
2014-07-08 00:00:00,2014-07-08 00:00:00,PRATE,surface,-106.875,36.3778,7.2e-06
2014-07-08 00:00:00,2014-07-08 00:00:00,PRATE,surface,-105.938,36.3778,1.09e-05
2014-07-08 00:00:00,2014-07-08 00:00:00,PRATE,surface,-105,36.3778,8.2e-06
2014-07-08 00:00:00,2014-07-08 00:00:00,PRATE,surface,-104.063,36.3778,5.5e-06
2014-07-08 00:00:00,2014-07-08 00:00:00,PRATE,surface,-103.125,36.3778,2.3e-06
2014-07-08 00:00:00,2014-07-08 00:00:00,PRATE,surface,-102.188,36.3778,1.9e-06
2014-07-08 00:00:00,2014-07-08 00:00:00,PRATE,surface,-101.25,36.3778,5.2e-06
2014-07-08 00:00:00,2014-07-08 00:00:00,PRATE,surface,-100.313,36.3778,1.32e-05
2014-07-08 00:00:00,2014-07-08 00:00:00,PRATE,surface,-99.3754,36.3778,1.55e-05
2014-07-08 00:00:00,2014-07-08 00:00:00,PRATE,surface,-98.4379,36.3778,1.71e-05
2014-07-08 00:00:00,2014-07-08 00:00:00,PRATE,surface,-97.5004,36.3778,1.91e-05
2014-07-08 00:00:00,2014-07-08 00:00:00,PRATE,surface,-96.5629,36.3778,1.84e-05
2014-07-08 00:00:00,2014-07-08 00:00:00,PRATE,surface,-95.6254,36.3778,1.55e-05
2014-07-08 00:00:00,2014-07-08 00:00:00,PRATE,surface,-94.6879,36.3778,1.36e-05
2014-07-08 00:00:00,2014-07-08 00:00:00,PRATE,surface,-93.7504,36.3778,1.82e-05
2014-07-08 00:00:00,2014-07-08 00:00:00,PRATE,surface,-92.8129,36.3778,2.37e-05
