2019-03-08 00:00:00,2019-03-08 00:00:00,TMP,surface,-107.813,25.0393,296.743
2019-03-08 00:00:00,2019-03-08 00:00:00,TMP,surface,-106.875,25.0393,291.608
2019-03-08 00:00:00,2019-03-08 00:00:00,TMP,surface,-105.938,25.0393,286.768
2019-03-08 00:00:00,2019-03-08 00:00:00,TMP,surface,-105,25.0393,287.224
2019-03-08 00:00:00,2019-03-08 00:00:00,TMP,surface,-104.063,25.0393,291.971
2019-03-08 00:00:00,2019-03-08 00:00:00,TMP,surface,-103.125,25.0393,294.421
2019-03-08 00:00:00,2019-03-08 00:00:00,TMP,surface,-102.188,25.0393,293.727
2019-03-08 00:00:00,2019-03-08 00:00:00,TMP,surface,-101.25,25.0393,291.255
2019-03-08 00:00:00,2019-03-08 00:00:00,TMP,surface,-100.313,25.0393,291.445
2019-03-08 00:00:00,2019-03-08 00:00:00,TMP,surface,-99.3754,25.0393,293.684
2019-03-08 00:00:00,2019-03-08 00:00:00,TMP,surface,-98.4379,25.0393,296.034
2019-03-08 00:00:00,2019-03-08 00:00:00,TMP,surface,-97.5004,25.0393,295.363
2019-03-08 00:00:00,2019-03-08 00:00:00,TMP,surface,-96.5629,25.0393,296.064
2019-03-08 00:00:00,2019-03-08 00:00:00,TMP,surface,-95.6254,25.0393,297.284
2019-03-08 00:00:00,2019-03-08 00:00:00,TMP,surface,-94.6879,25.0393,297.634
2019-03-08 00:00:00,2019-03-08 00:00:00,TMP,surface,-93.7504,25.0393,297.725
2019-03-08 00:00:00,2019-03-08 00:00:00,TMP,surface,-92.8129,25.0393,297.752
2019-03-08 00:00:00,2019-03-08 00:00:00,TMP,surface,-107.813,25.9842,293.392
2019-03-08 00:00:00,2019-03-08 00:00:00,TMP,surface,-106.875,25.9842,287.44
2019-03-08 00:00:00,2019-03-08 00:00:00,TMP,surface,-105.938,25.9842,286.383
2019-03-08 00:00:00,2019-03-08 00:00:00,TMP,surface,-105,25.9842,289.754
2019-03-08 00:00:00,2019-03-08 00:00:00,TMP,surface,-104.063,25.9842,294.335
2019-03-08 00:00:00,2019-03-08 00:00:00,TMP,surface,-103.125,25.9842,296.128
2019-03-08 00:00:00,2019-03-08 00:00:00,TMP,surface,-102.188,25.9842,294.69
2019-03-08 00:00:00,2019-03-08 00:00:00,TMP,surface,-101.25,25.9842,293.114
2019-03-08 00:00:00,2019-03-08 00:00:00,TMP,surface,-100.313,25.9842,292.8
2019-03-08 00:00:00,2019-03-08 00:00:00,TMP,surface,-99.3754,25.9842,295.132
2019-03-08 00:00:00,2019-03-08 00:00:00,TMP,surface,-98.4379,25.9842,296.144
2019-03-08 00:00:00,2019-03-08 00:00:00,TMP,surface,-97.5004,25.9842,296.188
2019-03-08 00:00:00,2019-03-08 00:00:00,TMP,surface,-96.5629,25.9842,294.674
2019-03-08 00:00:00,2019-03-08 00:00:00,TMP,surface,-95.6254,25.9842,296.104
2019-03-08 00:00:00,2019-03-08 00:00:00,TMP,surface,-94.6879,25.9842,296.755
2019-03-08 00:00:00,2019-03-08 00:00:00,TMP,surface,-93.7504,25.9842,297.09
2019-03-08 00:00:00,2019-03-08 00:00:00,TMP,surface,-92.8129,25.9842,297.338
2019-03-08 00:00:00,2019-03-08 00:00:00,TMP,surface,-107.813,26.929,288.155
2019-03-08 00:00:00,2019-03-08 00:00:00,TMP,surface,-106.875,26.929,285.418
2019-03-08 00:00:00,2019-03-08 00:00:00,TMP,surface,-105.938,26.929,288.341
2019-03-08 00:00:00,2019-03-08 00:00:00,TMP,surface,-105,26.929,292.525
2019-03-08 00:00:00,2019-03-08 00:00:00,TMP,surface,-104.063,26.929,294.701
2019-03-08 00:00:00,2019-03-08 00:00:00,TMP,surface,-103.125,26.929,294.348
2019-03-08 00:00:00,2019-03-08 00:00:00,TMP,surface,-102.188,26.929,293.392
2019-03-08 00:00:00,2019-03-08 00:00:00,TMP,surface,-101.25,26.929,293.421
2019-03-08 00:00:00,2019-03-08 00:00:00,TMP,surface,-100.313,26.929,294.228
2019-03-08 00:00:00,2019-03-08 00:00:00,TMP,surface,-99.3754,26.929,295.452
2019-03-08 00:00:00,2019-03-08 00:00:00,TMP,surface,-98.4379,26.929,295.2
2019-03-08 00:00:00,2019-03-08 00:00:00,TMP,surface,-97.5004,26.929,293.587
2019-03-08 00:00:00,2019-03-08 00:00:00,TMP,surface,-96.5629,26.929,293.927
2019-03-08 00:00:00,2019-03-08 00:00:00,TMP,surface,-95.6254,26.929,295.405
2019-03-08 00:00:00,2019-03-08 00:00:00,TMP,surface,-94.6879,26.929,296.064
2019-03-08 00:00:00,2019-03-08 00:00:00,TMP,surface,-93.7504,26.929,296.229
2019-03-08 00:00:00,2019-03-08 00:00:00,TMP,surface,-92.8129,26.929,296.391
2019-03-08 00:00:00,2019-03-08 00:00:00,TMP,surface,-107.813,27.8739,285.191
2019-03-08 00:00:00,2019-03-08 00:00:00,TMP,surface,-106.875,27.8739,285.295
2019-03-08 00:00:00,2019-03-08 00:00:00,TMP,surface,-105.938,27.8739,289.887
2019-03-08 00:00:00,2019-03-08 00:00:00,TMP,surface,-105,27.8739,293.32
2019-03-08 00:00:00,2019-03-08 00:00:00,TMP,surface,-104.063,27.8739,293.861
2019-03-08 00:00:00,2019-03-08 00:00:00,TMP,surface,-103.125,27.8739,292.367
2019-03-08 00:00:00,2019-03-08 00:00:00,TMP,surface,-102.188,27.8739,291.941
2019-03-08 00:00:00,2019-03-08 00:00:00,TMP,surface,-101.25,27.8739,293.004
2019-03-08 00:00:00,2019-03-08 00:00:00,TMP,surface,-100.313,27.8739,294.096
2019-03-08 00:00:00,2019-03-08 00:00:00,TMP,surface,-99.3754,27.8739,294.299
2019-03-08 00:00:00,2019-03-08 00:00:00,TMP,surface,-98.4379,27.8739,293.859
2019-03-08 00:00:00,2019-03-08 00:00:00,TMP,surface,-97.5004,27.8739,293.525
2019-03-08 00:00:00,2019-03-08 00:00:00,TMP,surface,-96.5629,27.8739,293.714
2019-03-08 00:00:00,2019-03-08 00:00:00,TMP,surface,-95.6254,27.8739,294.344
2019-03-08 00:00:00,2019-03-08 00:00:00,TMP,surface,-94.6879,27.8739,294.973
2019-03-08 00:00:00,2019-03-08 00:00:00,TMP,surface,-93.7504,27.8739,295.152
2019-03-08 00:00:00,2019-03-08 00:00:00,TMP,surface,-92.8129,27.8739,295.098
2019-03-08 00:00:00,2019-03-08 00:00:00,TMP,surface,-107.813,28.8188,284.693
2019-03-08 00:00:00,2019-03-08 00:00:00,TMP,surface,-106.875,28.8188,286.503
2019-03-08 00:00:00,2019-03-08 00:00:00,TMP,surface,-105.938,28.8188,290.807
2019-03-08 00:00:00,2019-03-08 00:00:00,TMP,surface,-105,28.8188,293.365
2019-03-08 00:00:00,2019-03-08 00:00:00,TMP,surface,-104.063,28.8188,292.479
2019-03-08 00:00:00,2019-03-08 00:00:00,TMP,surface,-103.125,28.8188,291.404
2019-03-08 00:00:00,2019-03-08 00:00:00,TMP,surface,-102.188,28.8188,291.466
2019-03-08 00:00:00,2019-03-08 00:00:00,TMP,surface,-101.25,28.8188,292.591
2019-03-08 00:00:00,2019-03-08 00:00:00,TMP,surface,-100.313,28.8188,292.768
2019-03-08 00:00:00,2019-03-08 00:00:00,TMP,surface,-99.3754,28.8188,292.346
2019-03-08 00:00:00,2019-03-08 00:00:00,TMP,surface,-98.4379,28.8188,292.172
2019-03-08 00:00:00,2019-03-08 00:00:00,TMP,surface,-97.5004,28.8188,292.455
2019-03-08 00:00:00,2019-03-08 00:00:00,TMP,surface,-96.5629,28.8188,292.917
2019-03-08 00:00:00,2019-03-08 00:00:00,TMP,surface,-95.6254,28.8188,293.098
2019-03-08 00:00:00,2019-03-08 00:00:00,TMP,surface,-94.6879,28.8188,293.143
2019-03-08 00:00:00,2019-03-08 00:00:00,TMP,surface,-93.7504,28.8188,293.527
2019-03-08 00:00:00,2019-03-08 00:00:00,TMP,surface,-92.8129,28.8188,293.474
2019-03-08 00:00:00,2019-03-08 00:00:00,TMP,surface,-107.813,29.7637,286.948
2019-03-08 00:00:00,2019-03-08 00:00:00,TMP,surface,-106.875,29.7637,288.76
2019-03-08 00:00:00,2019-03-08 00:00:00,TMP,surface,-105.938,29.7637,291.509
2019-03-08 00:00:00,2019-03-08 00:00:00,TMP,surface,-105,29.7637,292.21
2019-03-08 00:00:00,2019-03-08 00:00:00,TMP,surface,-104.063,29.7637,292.083
2019-03-08 00:00:00,2019-03-08 00:00:00,TMP,surface,-103.125,29.7637,292.125
2019-03-08 00:00:00,2019-03-08 00:00:00,TMP,surface,-102.188,29.7637,292.679
2019-03-08 00:00:00,2019-03-08 00:00:00,TMP,surface,-101.25,29.7637,292.475
2019-03-08 00:00:00,2019-03-08 00:00:00,TMP,surface,-100.313,29.7637,291.354
2019-03-08 00:00:00,2019-03-08 00:00:00,TMP,surface,-99.3754,29.7637,290.61
2019-03-08 00:00:00,2019-03-08 00:00:00,TMP,surface,-98.4379,29.7637,290.556
2019-03-08 00:00:00,2019-03-08 00:00:00,TMP,surface,-97.5004,29.7637,290.941
2019-03-08 00:00:00,2019-03-08 00:00:00,TMP,surface,-96.5629,29.7637,291.41
2019-03-08 00:00:00,2019-03-08 00:00:00,TMP,surface,-95.6254,29.7637,291.73
2019-03-08 00:00:00,2019-03-08 00:00:00,TMP,surface,-94.6879,29.7637,291.952
2019-03-08 00:00:00,2019-03-08 00:00:00,TMP,surface,-93.7504,29.7637,292.168
2019-03-08 00:00:00,2019-03-08 00:00:00,TMP,surface,-92.8129,29.7637,292.351
2019-03-08 00:00:00,2019-03-08 00:00:00,TMP,surface,-107.813,30.7085,290.083
2019-03-08 00:00:00,2019-03-08 00:00:00,TMP,surface,-106.875,30.7085,291.172
2019-03-08 00:00:00,2019-03-08 00:00:00,TMP,surface,-105.938,30.7085,291.579
2019-03-08 00:00:00,2019-03-08 00:00:00,TMP,surface,-105,30.7085,291.599
2019-03-08 00:00:00,2019-03-08 00:00:00,TMP,surface,-104.063,30.7085,291.621
2019-03-08 00:00:00,2019-03-08 00:00:00,TMP,surface,-103.125,30.7085,292.419
2019-03-08 00:00:00,2019-03-08 00:00:00,TMP,surface,-102.188,30.7085,292.78
2019-03-08 00:00:00,2019-03-08 00:00:00,TMP,surface,-101.25,30.7085,291.965
2019-03-08 00:00:00,2019-03-08 00:00:00,TMP,surface,-100.313,30.7085,290.516
2019-03-08 00:00:00,2019-03-08 00:00:00,TMP,surface,-99.3754,30.7085,289.695
2019-03-08 00:00:00,2019-03-08 00:00:00,TMP,surface,-98.4379,30.7085,289.687
2019-03-08 00:00:00,2019-03-08 00:00:00,TMP,surface,-97.5004,30.7085,290.052
2019-03-08 00:00:00,2019-03-08 00:00:00,TMP,surface,-96.5629,30.7085,290.664
2019-03-08 00:00:00,2019-03-08 00:00:00,TMP,surface,-95.6254,30.7085,291.189
2019-03-08 00:00:00,2019-03-08 00:00:00,TMP,surface,-94.6879,30.7085,291.211
2019-03-08 00:00:00,2019-03-08 00:00:00,TMP,surface,-93.7504,30.7085,291.077
2019-03-08 00:00:00,2019-03-08 00:00:00,TMP,surface,-92.8129,30.7085,290.813
2019-03-08 00:00:00,2019-03-08 00:00:00,TMP,surface,-107.813,31.6534,290.52
2019-03-08 00:00:00,2019-03-08 00:00:00,TMP,surface,-106.875,31.6534,291.165
2019-03-08 00:00:00,2019-03-08 00:00:00,TMP,surface,-105.938,31.6534,291.048
2019-03-08 00:00:00,2019-03-08 00:00:00,TMP,surface,-105,31.6534,290.923
2019-03-08 00:00:00,2019-03-08 00:00:00,TMP,surface,-104.063,31.6534,291.415
2019-03-08 00:00:00,2019-03-08 00:00:00,TMP,surface,-103.125,31.6534,292.043
2019-03-08 00:00:00,2019-03-08 00:00:00,TMP,surface,-102.188,31.6534,292.077
2019-03-08 00:00:00,2019-03-08 00:00:00,TMP,surface,-101.25,31.6534,291.226
2019-03-08 00:00:00,2019-03-08 00:00:00,TMP,surface,-100.313,31.6534,290.069
2019-03-08 00:00:00,2019-03-08 00:00:00,TMP,surface,-99.3754,31.6534,289.247
2019-03-08 00:00:00,2019-03-08 00:00:00,TMP,surface,-98.4379,31.6534,289.064
2019-03-08 00:00:00,2019-03-08 00:00:00,TMP,surface,-97.5004,31.6534,289.341
2019-03-08 00:00:00,2019-03-08 00:00:00,TMP,surface,-96.5629,31.6534,289.991
2019-03-08 00:00:00,2019-03-08 00:00:00,TMP,surface,-95.6254,31.6534,290.517
2019-03-08 00:00:00,2019-03-08 00:00:00,TMP,surface,-94.6879,31.6534,290.4
2019-03-08 00:00:00,2019-03-08 00:00:00,TMP,surface,-93.7504,31.6534,290.181
2019-03-08 00:00:00,2019-03-08 00:00:00,TMP,surface,-92.8129,31.6534,290
2019-03-08 00:00:00,2019-03-08 00:00:00,TMP,surface,-107.813,32.5983,287.634
2019-03-08 00:00:00,2019-03-08 00:00:00,TMP,surface,-106.875,32.5983,288.552
2019-03-08 00:00:00,2019-03-08 00:00:00,TMP,surface,-105.938,32.5983,289.176
2019-03-08 00:00:00,2019-03-08 00:00:00,TMP,surface,-105,32.5983,289.666
2019-03-08 00:00:00,2019-03-08 00:00:00,TMP,surface,-104.063,32.5983,290.396
2019-03-08 00:00:00,2019-03-08 00:00:00,TMP,surface,-103.125,32.5983,291.05
2019-03-08 00:00:00,2019-03-08 00:00:00,TMP,surface,-102.188,32.5983,290.677
2019-03-08 00:00:00,2019-03-08 00:00:00,TMP,surface,-101.25,32.5983,289.925
2019-03-08 00:00:00,2019-03-08 00:00:00,TMP,surface,-100.313,32.5983,289.279
2019-03-08 00:00:00,2019-03-08 00:00:00,TMP,surface,-99.3754,32.5983,288.64
2019-03-08 00:00:00,2019-03-08 00:00:00,TMP,surface,-98.4379,32.5983,288.34
2019-03-08 00:00:00,2019-03-08 00:00:00,TMP,surface,-97.5004,32.5983,288.528
2019-03-08 00:00:00,2019-03-08 00:00:00,TMP,surface,-96.5629,32.5983,289.047
2019-03-08 00:00:00,2019-03-08 00:00:00,TMP,surface,-95.6254,32.5983,289.477
2019-03-08 00:00:00,2019-03-08 00:00:00,TMP,surface,-94.6879,32.5983,289.431
2019-03-08 00:00:00,2019-03-08 00:00:00,TMP,surface,-93.7504,32.5983,289.139
2019-03-08 00:00:00,2019-03-08 00:00:00,TMP,surface,-92.8129,32.5983,289.042
2019-03-08 00:00:00,2019-03-08 00:00:00,TMP,surface,-107.813,33.5432,283.64
2019-03-08 00:00:00,2019-03-08 00:00:00,TMP,surface,-106.875,33.5432,285.592
2019-03-08 00:00:00,2019-03-08 00:00:00,TMP,surface,-105.938,33.5432,287.112
2019-03-08 00:00:00,2019-03-08 00:00:00,TMP,surface,-105,33.5432,288.496
2019-03-08 00:00:00,2019-03-08 00:00:00,TMP,surface,-104.063,33.5432,289.564
2019-03-08 00:00:00,2019-03-08 00:00:00,TMP,surface,-103.125,33.5432,289.416
2019-03-08 00:00:00,2019-03-08 00:00:00,TMP,surface,-102.188,33.5432,288.388
2019-03-08 00:00:00,2019-03-08 00:00:00,TMP,surface,-101.25,33.5432,287.448
2019-03-08 00:00:00,2019-03-08 00:00:00,TMP,surface,-100.313,33.5432,287.22
2019-03-08 00:00:00,2019-03-08 00:00:00,TMP,surface,-99.3754,33.5432,286.896
2019-03-08 00:00:00,2019-03-08 00:00:00,TMP,surface,-98.4379,33.5432,286.664
2019-03-08 00:00:00,2019-03-08 00:00:00,TMP,surface,-97.5004,33.5432,286.819
2019-03-08 00:00:00,2019-03-08 00:00:00,TMP,surface,-96.5629,33.5432,287.247
2019-03-08 00:00:00,2019-03-08 00:00:00,TMP,surface,-95.6254,33.5432,287.77
2019-03-08 00:00:00,2019-03-08 00:00:00,TMP,surface,-94.6879,33.5432,288.037
2019-03-08 00:00:00,2019-03-08 00:00:00,TMP,surface,-93.7504,33.5432,287.832
2019-03-08 00:00:00,2019-03-08 00:00:00,TMP,surface,-92.8129,33.5432,287.836
2019-03-08 00:00:00,2019-03-08 00:00:00,TMP,surface,-107.813,34.4881,281.803
2019-03-08 00:00:00,2019-03-08 00:00:00,TMP,surface,-106.875,34.4881,283.888
2019-03-08 00:00:00,2019-03-08 00:00:00,TMP,surface,-105.938,34.4881,285.597
2019-03-08 00:00:00,2019-03-08 00:00:00,TMP,surface,-105,34.4881,287.533
2019-03-08 00:00:00,2019-03-08 00:00:00,TMP,surface,-104.063,34.4881,288.08
2019-03-08 00:00:00,2019-03-08 00:00:00,TMP,surface,-103.125,34.4881,287.547
2019-03-08 00:00:00,2019-03-08 00:00:00,TMP,surface,-102.188,34.4881,286.404
2019-03-08 00:00:00,2019-03-08 00:00:00,TMP,surface,-101.25,34.4881,285.696
2019-03-08 00:00:00,2019-03-08 00:00:00,TMP,surface,-100.313,34.4881,285.267
2019-03-08 00:00:00,2019-03-08 00:00:00,TMP,surface,-99.3754,34.4881,284.991
2019-03-08 00:00:00,2019-03-08 00:00:00,TMP,surface,-98.4379,34.4881,284.863
2019-03-08 00:00:00,2019-03-08 00:00:00,TMP,surface,-97.5004,34.4881,285.047
2019-03-08 00:00:00,2019-03-08 00:00:00,TMP,surface,-96.5629,34.4881,285.655
2019-03-08 00:00:00,2019-03-08 00:00:00,TMP,surface,-95.6254,34.4881,286.307
2019-03-08 00:00:00,2019-03-08 00:00:00,TMP,surface,-94.6879,34.4881,286.475
2019-03-08 00:00:00,2019-03-08 00:00:00,TMP,surface,-93.7504,34.4881,286.309
2019-03-08 00:00:00,2019-03-08 00:00:00,TMP,surface,-92.8129,34.4881,286.394
2019-03-08 00:00:00,2019-03-08 00:00:00,TMP,surface,-107.813,35.4329,281.949
2019-03-08 00:00:00,2019-03-08 00:00:00,TMP,surface,-106.875,35.4329,282.589
2019-03-08 00:00:00,2019-03-08 00:00:00,TMP,surface,-105.938,35.4329,283.556
2019-03-08 00:00:00,2019-03-08 00:00:00,TMP,surface,-105,35.4329,284.879
2019-03-08 00:00:00,2019-03-08 00:00:00,TMP,surface,-104.063,35.4329,286.288
2019-03-08 00:00:00,2019-03-08 00:00:00,TMP,surface,-103.125,35.4329,286.37
2019-03-08 00:00:00,2019-03-08 00:00:00,TMP,surface,-102.188,35.4329,285.535
2019-03-08 00:00:00,2019-03-08 00:00:00,TMP,surface,-101.25,35.4329,284.671
2019-03-08 00:00:00,2019-03-08 00:00:00,TMP,surface,-100.313,35.4329,283.951
2019-03-08 00:00:00,2019-03-08 00:00:00,TMP,surface,-99.3754,35.4329,283.485
2019-03-08 00:00:00,2019-03-08 00:00:00,TMP,surface,-98.4379,35.4329,283.408
2019-03-08 00:00:00,2019-03-08 00:00:00,TMP,surface,-97.5004,35.4329,283.724
2019-03-08 00:00:00,2019-03-08 00:00:00,TMP,surface,-96.5629,35.4329,284.183
2019-03-08 00:00:00,2019-03-08 00:00:00,TMP,surface,-95.6254,35.4329,284.61
2019-03-08 00:00:00,2019-03-08 00:00:00,TMP,surface,-94.6879,35.4329,284.837
2019-03-08 00:00:00,2019-03-08 00:00:00,TMP,surface,-93.7504,35.4329,284.696
2019-03-08 00:00:00,2019-03-08 00:00:00,TMP,surface,-92.8129,35.4329,284.751
2019-03-08 00:00:00,2019-03-08 00:00:00,TMP,surface,-107.813,36.3778,281.005
2019-03-08 00:00:00,2019-03-08 00:00:00,TMP,surface,-106.875,36.3778,279.376
2019-03-08 00:00:00,2019-03-08 00:00:00,TMP,surface,-105.938,36.3778,280.218
2019-03-08 00:00:00,2019-03-08 00:00:00,TMP,surface,-105,36.3778,282.208
2019-03-08 00:00:00,2019-03-08 00:00:00,TMP,surface,-104.063,36.3778,284.388
2019-03-08 00:00:00,2019-03-08 00:00:00,TMP,surface,-103.125,36.3778,284.691
2019-03-08 00:00:00,2019-03-08 00:00:00,TMP,surface,-102.188,36.3778,284.095
2019-03-08 00:00:00,2019-03-08 00:00:00,TMP,surface,-101.25,36.3778,283.32
2019-03-08 00:00:00,2019-03-08 00:00:00,TMP,surface,-100.313,36.3778,282.863
2019-03-08 00:00:00,2019-03-08 00:00:00,TMP,surface,-99.3754,36.3778,282.61
2019-03-08 00:00:00,2019-03-08 00:00:00,TMP,surface,-98.4379,36.3778,282.427
2019-03-08 00:00:00,2019-03-08 00:00:00,TMP,surface,-97.5004,36.3778,282.602
2019-03-08 00:00:00,2019-03-08 00:00:00,TMP,surface,-96.5629,36.3778,283.032
2019-03-08 00:00:00,2019-03-08 00:00:00,TMP,surface,-95.6254,36.3778,283.368
2019-03-08 00:00:00,2019-03-08 00:00:00,TMP,surface,-94.6879,36.3778,283.463
2019-03-08 00:00:00,2019-03-08 00:00:00,TMP,surface,-93.7504,36.3778,283.272
2019-03-08 00:00:00,2019-03-08 00:00:00,TMP,surface,-92.8129,36.3778,283.277
2019-03-08 00:00:00,2019-03-08 00:00:00,PRATE,surface,-107.813,25.0393,7e-07
2019-03-08 00:00:00,2019-03-08 00:00:00,PRATE,surface,-106.875,25.0393,5.9e-06
2019-03-08 00:00:00,2019-03-08 00:00:00,PRATE,surface,-105.938,25.0393,1.8e-05
2019-03-08 00:00:00,2019-03-08 00:00:00,PRATE,surface,-105,25.0393,2.12e-05
2019-03-08 00:00:00,2019-03-08 00:00:00,PRATE,surface,-104.063,25.0393,1.15e-05
2019-03-08 00:00:00,2019-03-08 00:00:00,PRATE,surface,-103.125,25.0393,6e-06
2019-03-08 00:00:00,2019-03-08 00:00:00,PRATE,surface,-102.188,25.0393,6.1e-06
2019-03-08 00:00:00,2019-03-08 00:00:00,PRATE,surface,-101.25,25.0393,4.33e-05
2019-03-08 00:00:00,2019-03-08 00:00:00,PRATE,surface,-100.313,25.0393,0.0001089
2019-03-08 00:00:00,2019-03-08 00:00:00,PRATE,surface,-99.3754,25.0393,0.0001067
2019-03-08 00:00:00,2019-03-08 00:00:00,PRATE,surface,-98.4379,25.0393,6.71e-05
2019-03-08 00:00:00,2019-03-08 00:00:00,PRATE,surface,-97.5004,25.0393,6.53e-05
2019-03-08 00:00:00,2019-03-08 00:00:00,PRATE,surface,-96.5629,25.0393,6.07e-05
2019-03-08 00:00:00,2019-03-08 00:00:00,PRATE,surface,-95.6254,25.0393,5.72e-05
2019-03-08 00:00:00,2019-03-08 00:00:00,PRATE,surface,-94.6879,25.0393,3.1e-05
2019-03-08 00:00:00,2019-03-08 00:00:00,PRATE,surface,-93.7504,25.0393,9.9e-06
2019-03-08 00:00:00,2019-03-08 00:00:00,PRATE,surface,-92.8129,25.0393,8.3e-06
2019-03-08 00:00:00,2019-03-08 00:00:00,PRATE,surface,-107.813,25.9842,3e-07
2019-03-08 00:00:00,2019-03-08 00:00:00,PRATE,surface,-106.875,25.9842,6.9e-06
2019-03-08 00:00:00,2019-03-08 00:00:00,PRATE,surface,-105.938,25.9842,1.5e-05
2019-03-08 00:00:00,2019-03-08 00:00:00,PRATE,surface,-105,25.9842,2.12e-05
2019-03-08 00:00:00,2019-03-08 00:00:00,PRATE,surface,-104.063,25.9842,1.48e-05
2019-03-08 00:00:00,2019-03-08 00:00:00,PRATE,surface,-103.125,25.9842,7e-06
2019-03-08 00:00:00,2019-03-08 00:00:00,PRATE,surface,-102.188,25.9842,1.1e-05
2019-03-08 00:00:00,2019-03-08 00:00:00,PRATE,surface,-101.25,25.9842,3.83e-05
2019-03-08 00:00:00,2019-03-08 00:00:00,PRATE,surface,-100.313,25.9842,9.48e-05
2019-03-08 00:00:00,2019-03-08 00:00:00,PRATE,surface,-99.3754,25.9842,7.56e-05
2019-03-08 00:00:00,2019-03-08 00:00:00,PRATE,surface,-98.4379,25.9842,6.67e-05
2019-03-08 00:00:00,2019-03-08 00:00:00,PRATE,surface,-97.5004,25.9842,7.08e-05
2019-03-08 00:00:00,2019-03-08 00:00:00,PRATE,surface,-96.5629,25.9842,7.17e-05
2019-03-08 00:00:00,2019-03-08 00:00:00,PRATE,surface,-95.6254,25.9842,5.19e-05
2019-03-08 00:00:00,2019-03-08 00:00:00,PRATE,surface,-94.6879,25.9842,3.8e-05
2019-03-08 00:00:00,2019-03-08 00:00:00,PRATE,surface,-93.7504,25.9842,3.67e-05
2019-03-08 00:00:00,2019-03-08 00:00:00,PRATE,surface,-92.8129,25.9842,3.36e-05
2019-03-08 00:00:00,2019-03-08 00:00:00,PRATE,surface,-107.813,26.929,7e-06
2019-03-08 00:00:00,2019-03-08 00:00:00,PRATE,surface,-106.875,26.929,1.24e-05
2019-03-08 00:00:00,2019-03-08 00:00:00,PRATE,surface,-105.938,26.929,1.65e-05
2019-03-08 00:00:00,2019-03-08 00:00:00,PRATE,surface,-105,26.929,2.38e-05
2019-03-08 00:00:00,2019-03-08 00:00:00,PRATE,surface,-104.063,26.929,1.93e-05
2019-03-08 00:00:00,2019-03-08 00:00:00,PRATE,surface,-103.125,26.929,1.46e-05
2019-03-08 00:00:00,2019-03-08 00:00:00,PRATE,surface,-102.188,26.929,3.3e-05
2019-03-08 00:00:00,2019-03-08 00:00:00,PRATE,surface,-101.25,26.929,6.74e-05
2019-03-08 00:00:00,2019-03-08 00:00:00,PRATE,surface,-100.313,26.929,5.68e-05
2019-03-08 00:00:00,2019-03-08 00:00:00,PRATE,surface,-99.3754,26.929,5.15e-05
2019-03-08 00:00:00,2019-03-08 00:00:00,PRATE,surface,-98.4379,26.929,5.86e-05
2019-03-08 00:00:00,2019-03-08 00:00:00,PRATE,surface,-97.5004,26.929,6.39e-05
2019-03-08 00:00:00,2019-03-08 00:00:00,PRATE,surface,-96.5629,26.929,5.66e-05
2019-03-08 00:00:00,2019-03-08 00:00:00,PRATE,surface,-95.6254,26.929,5.33e-05
2019-03-08 00:00:00,2019-03-08 00:00:00,PRATE,surface,-94.6879,26.929,4.29e-05
2019-03-08 00:00:00,2019-03-08 00:00:00,PRATE,surface,-93.7504,26.929,4.9e-05
2019-03-08 00:00:00,2019-03-08 00:00:00,PRATE,surface,-92.8129,26.929,6.51e-05
2019-03-08 00:00:00,2019-03-08 00:00:00,PRATE,surface,-107.813,27.8739,2.27e-05
2019-03-08 00:00:00,2019-03-08 00:00:00,PRATE,surface,-106.875,27.8739,2.56e-05
2019-03-08 00:00:00,2019-03-08 00:00:00,PRATE,surface,-105.938,27.8739,1.83e-05
2019-03-08 00:00:00,2019-03-08 00:00:00,PRATE,surface,-105,27.8739,1.66e-05
2019-03-08 00:00:00,2019-03-08 00:00:00,PRATE,surface,-104.063,27.8739,1.51e-05
2019-03-08 00:00:00,2019-03-08 00:00:00,PRATE,surface,-103.125,27.8739,2.9e-05
2019-03-08 00:00:00,2019-03-08 00:00:00,PRATE,surface,-102.188,27.8739,6.25e-05
2019-03-08 00:00:00,2019-03-08 00:00:00,PRATE,surface,-101.25,27.8739,5.71e-05
2019-03-08 00:00:00,2019-03-08 00:00:00,PRATE,surface,-100.313,27.8739,4.48e-05
2019-03-08 00:00:00,2019-03-08 00:00:00,PRATE,surface,-99.3754,27.8739,4.28e-05
2019-03-08 00:00:00,2019-03-08 00:00:00,PRATE,surface,-98.4379,27.8739,3.89e-05
2019-03-08 00:00:00,2019-03-08 00:00:00,PRATE,surface,-97.5004,27.8739,3.6e-05
2019-03-08 00:00:00,2019-03-08 00:00:00,PRATE,surface,-96.5629,27.8739,3.46e-05
2019-03-08 00:00:00,2019-03-08 00:00:00,PRATE,surface,-95.6254,27.8739,3.5e-05
2019-03-08 00:00:00,2019-03-08 00:00:00,PRATE,surface,-94.6879,27.8739,4.03e-05
2019-03-08 00:00:00,2019-03-08 00:00:00,PRATE,surface,-93.7504,27.8739,4.09e-05
2019-03-08 00:00:00,2019-03-08 00:00:00,PRATE,surface,-92.8129,27.8739,4.74e-05
2019-03-08 00:00:00,2019-03-08 00:00:00,PRATE,surface,-107.813,28.8188,1.56e-05
2019-03-08 00:00:00,2019-03-08 00:00:00,PRATE,surface,-106.875,28.8188,1.64e-05
2019-03-08 00:00:00,2019-03-08 00:00:00,PRATE,surface,-105.938,28.8188,1.25e-05
2019-03-08 00:00:00,2019-03-08 00:00:00,PRATE,surface,-105,28.8188,9.2e-06
2019-03-08 00:00:00,2019-03-08 00:00:00,PRATE,surface,-104.063,28.8188,1.23e-05
2019-03-08 00:00:00,2019-03-08 00:00:00,PRATE,surface,-103.125,28.8188,3.01e-05
2019-03-08 00:00:00,2019-03-08 00:00:00,PRATE,surface,-102.188,28.8188,3.25e-05
2019-03-08 00:00:00,2019-03-08 00:00:00,PRATE,surface,-101.25,28.8188,3.52e-05
2019-03-08 00:00:00,2019-03-08 00:00:00,PRATE,surface,-100.313,28.8188,4.2e-05
2019-03-08 00:00:00,2019-03-08 00:00:00,PRATE,surface,-99.3754,28.8188,5.09e-05
2019-03-08 00:00:00,2019-03-08 00:00:00,PRATE,surface,-98.4379,28.8188,4.89e-05
2019-03-08 00:00:00,2019-03-08 00:00:00,PRATE,surface,-97.5004,28.8188,3.78e-05
2019-03-08 00:00:00,2019-03-08 00:00:00,PRATE,surface,-96.5629,28.8188,3.2e-05
2019-03-08 00:00:00,2019-03-08 00:00:00,PRATE,surface,-95.6254,28.8188,4.09e-05
2019-03-08 00:00:00,2019-03-08 00:00:00,PRATE,surface,-94.6879,28.8188,6.07e-05
2019-03-08 00:00:00,2019-03-08 00:00:00,PRATE,surface,-93.7504,28.8188,7.17e-05
2019-03-08 00:00:00,2019-03-08 00:00:00,PRATE,surface,-92.8129,28.8188,5.98e-05
2019-03-08 00:00:00,2019-03-08 00:00:00,PRATE,surface,-107.813,29.7637,4.9e-06
2019-03-08 00:00:00,2019-03-08 00:00:00,PRATE,surface,-106.875,29.7637,7.3e-06
2019-03-08 00:00:00,2019-03-08 00:00:00,PRATE,surface,-105.938,29.7637,7.2e-06
2019-03-08 00:00:00,2019-03-08 00:00:00,PRATE,surface,-105,29.7637,4.7e-06
2019-03-08 00:00:00,2019-03-08 00:00:00,PRATE,surface,-104.063,29.7637,9.2e-06
2019-03-08 00:00:00,2019-03-08 00:00:00,PRATE,surface,-103.125,29.7637,7.9e-06
2019-03-08 00:00:00,2019-03-08 00:00:00,PRATE,surface,-102.188,29.7637,1.01e-05
2019-03-08 00:00:00,2019-03-08 00:00:00,PRATE,surface,-101.25,29.7637,1.59e-05
2019-03-08 00:00:00,2019-03-08 00:00:00,PRATE,surface,-100.313,29.7637,3.57e-05
2019-03-08 00:00:00,2019-03-08 00:00:00,PRATE,surface,-99.3754,29.7637,5.79e-05
2019-03-08 00:00:00,2019-03-08 00:00:00,PRATE,surface,-98.4379,29.7637,6.24e-05
2019-03-08 00:00:00,2019-03-08 00:00:00,PRATE,surface,-97.5004,29.7637,5.62e-05
2019-03-08 00:00:00,2019-03-08 00:00:00,PRATE,surface,-96.5629,29.7637,5.74e-05
2019-03-08 00:00:00,2019-03-08 00:00:00,PRATE,surface,-95.6254,29.7637,6.38e-05
2019-03-08 00:00:00,2019-03-08 00:00:00,PRATE,surface,-94.6879,29.7637,7.38e-05
2019-03-08 00:00:00,2019-03-08 00:00:00,PRATE,surface,-93.7504,29.7637,9.44e-05
2019-03-08 00:00:00,2019-03-08 00:00:00,PRATE,surface,-92.8129,29.7637,9.69e-05
2019-03-08 00:00:00,2019-03-08 00:00:00,PRATE,surface,-107.813,30.7085,6e-07
2019-03-08 00:00:00,2019-03-08 00:00:00,PRATE,surface,-106.875,30.7085,1.1e-06
2019-03-08 00:00:00,2019-03-08 00:00:00,PRATE,surface,-105.938,30.7085,1.3e-06
2019-03-08 00:00:00,2019-03-08 00:00:00,PRATE,surface,-105,30.7085,2.6e-06
2019-03-08 00:00:00,2019-03-08 00:00:00,PRATE,surface,-104.063,30.7085,3.3e-06
2019-03-08 00:00:00,2019-03-08 00:00:00,PRATE,surface,-103.125,30.7085,3.5e-06
2019-03-08 00:00:00,2019-03-08 00:00:00,PRATE,surface,-102.188,30.7085,5.4e-06
2019-03-08 00:00:00,2019-03-08 00:00:00,PRATE,surface,-101.25,30.7085,1.1e-05
2019-03-08 00:00:00,2019-03-08 00:00:00,PRATE,surface,-100.313,30.7085,3.15e-05
2019-03-08 00:00:00,2019-03-08 00:00:00,PRATE,surface,-99.3754,30.7085,5.31e-05
2019-03-08 00:00:00,2019-03-08 00:00:00,PRATE,surface,-98.4379,30.7085,6.53e-05
2019-03-08 00:00:00,2019-03-08 00:00:00,PRATE,surface,-97.5004,30.7085,7.41e-05
2019-03-08 00:00:00,2019-03-08 00:00:00,PRATE,surface,-96.5629,30.7085,8.43e-05
2019-03-08 00:00:00,2019-03-08 00:00:00,PRATE,surface,-95.6254,30.7085,9.22e-05
2019-03-08 00:00:00,2019-03-08 00:00:00,PRATE,surface,-94.6879,30.7085,9.79e-05
2019-03-08 00:00:00,2019-03-08 00:00:00,PRATE,surface,-93.7504,30.7085,0.0001066
2019-03-08 00:00:00,2019-03-08 00:00:00,PRATE,surface,-92.8129,30.7085,0.0001129
2019-03-08 00:00:00,2019-03-08 00:00:00,PRATE,surface,-107.813,31.6534,5e-07
2019-03-08 00:00:00,2019-03-08 00:00:00,PRATE,surface,-106.875,31.6534,6e-07
2019-03-08 00:00:00,2019-03-08 00:00:00,PRATE,surface,-105.938,31.6534,1.6e-06
2019-03-08 00:00:00,2019-03-08 00:00:00,PRATE,surface,-105,31.6534,1.5e-06
2019-03-08 00:00:00,2019-03-08 00:00:00,PRATE,surface,-104.063,31.6534,1.5e-06
2019-03-08 00:00:00,2019-03-08 00:00:00,PRATE,surface,-103.125,31.6534,3e-06
2019-03-08 00:00:00,2019-03-08 00:00:00,PRATE,surface,-102.188,31.6534,5.8e-06
2019-03-08 00:00:00,2019-03-08 00:00:00,PRATE,surface,-101.25,31.6534,9.4e-06
2019-03-08 00:00:00,2019-03-08 00:00:00,PRATE,surface,-100.313,31.6534,2.75e-05
2019-03-08 00:00:00,2019-03-08 00:00:00,PRATE,surface,-99.3754,31.6534,4.64e-05
2019-03-08 00:00:00,2019-03-08 00:00:00,PRATE,surface,-98.4379,31.6534,6.6e-05
2019-03-08 00:00:00,2019-03-08 00:00:00,PRATE,surface,-97.5004,31.6534,8.87e-05
2019-03-08 00:00:00,2019-03-08 00:00:00,PRATE,surface,-96.5629,31.6534,0.0001036
2019-03-08 00:00:00,2019-03-08 00:00:00,PRATE,surface,-95.6254,31.6534,0.0001061
2019-03-08 00:00:00,2019-03-08 00:00:00,PRATE,surface,-94.6879,31.6534,0.0001067
2019-03-08 00:00:00,2019-03-08 00:00:00,PRATE,surface,-93.7504,31.6534,0.0001146
2019-03-08 00:00:00,2019-03-08 00:00:00,PRATE,surface,-92.8129,31.6534,0.0001269
2019-03-08 00:00:00,2019-03-08 00:00:00,PRATE,surface,-107.813,32.5983,2.8e-06
2019-03-08 00:00:00,2019-03-08 00:00:00,PRATE,surface,-106.875,32.5983,2.1e-06
2019-03-08 00:00:00,2019-03-08 00:00:00,PRATE,surface,-105.938,32.5983,2.1e-06
2019-03-08 00:00:00,2019-03-08 00:00:00,PRATE,surface,-105,32.5983,1.4e-06
2019-03-08 00:00:00,2019-03-08 00:00:00,PRATE,surface,-104.063,32.5983,2e-06
2019-03-08 00:00:00,2019-03-08 00:00:00,PRATE,surface,-103.125,32.5983,4.9e-06
2019-03-08 00:00:00,2019-03-08 00:00:00,PRATE,surface,-102.188,32.5983,9.3e-06
2019-03-08 00:00:00,2019-03-08 00:00:00,PRATE,surface,-101.25,32.5983,1.53e-05
2019-03-08 00:00:00,2019-03-08 00:00:00,PRATE,surface,-100.313,32.5983,2.3e-05
2019-03-08 00:00:00,2019-03-08 00:00:00,PRATE,surface,-99.3754,32.5983,3.23e-05
2019-03-08 00:00:00,2019-03-08 00:00:00,PRATE,surface,-98.4379,32.5983,5.31e-05
2019-03-08 00:00:00,2019-03-08 00:00:00,PRATE,surface,-97.5004,32.5983,8.16e-05
2019-03-08 00:00:00,2019-03-08 00:00:00,PRATE,surface,-96.5629,32.5983,0.0001003
2019-03-08 00:00:00,2019-03-08 00:00:00,PRATE,surface,-95.6254,32.5983,0.0001078
2019-03-08 00:00:00,2019-03-08 00:00:00,PRATE,surface,-94.6879,32.5983,0.0001119
2019-03-08 00:00:00,2019-03-08 00:00:00,PRATE,surface,-93.7504,32.5983,0.000109
2019-03-08 00:00:00,2019-03-08 00:00:00,PRATE,surface,-92.8129,32.5983,0.0001108
2019-03-08 00:00:00,2019-03-08 00:00:00,PRATE,surface,-107.813,33.5432,1.12e-05
2019-03-08 00:00:00,2019-03-08 00:00:00,PRATE,surface,-106.875,33.5432,5.5e-06
2019-03-08 00:00:00,2019-03-08 00:00:00,PRATE,surface,-105.938,33.5432,2.1e-06
2019-03-08 00:00:00,2019-03-08 00:00:00,PRATE,surface,-105,33.5432,1.7e-06
2019-03-08 00:00:00,2019-03-08 00:00:00,PRATE,surface,-104.063,33.5432,3.4e-06
2019-03-08 00:00:00,2019-03-08 00:00:00,PRATE,surface,-103.125,33.5432,1.23e-05
2019-03-08 00:00:00,2019-03-08 00:00:00,PRATE,surface,-102.188,33.5432,2e-05
2019-03-08 00:00:00,2019-03-08 00:00:00,PRATE,surface,-101.25,33.5432,3.04e-05
2019-03-08 00:00:00,2019-03-08 00:00:00,PRATE,surface,-100.313,33.5432,2.8e-05
2019-03-08 00:00:00,2019-03-08 00:00:00,PRATE,surface,-99.3754,33.5432,2.68e-05
2019-03-08 00:00:00,2019-03-08 00:00:00,PRATE,surface,-98.4379,33.5432,3.42e-05
2019-03-08 00:00:00,2019-03-08 00:00:00,PRATE,surface,-97.5004,33.5432,4.96e-05
2019-03-08 00:00:00,2019-03-08 00:00:00,PRATE,surface,-96.5629,33.5432,7.34e-05
2019-03-08 00:00:00,2019-03-08 00:00:00,PRATE,surface,-95.6254,33.5432,9.36e-05
2019-03-08 00:00:00,2019-03-08 00:00:00,PRATE,surface,-94.6879,33.5432,9.99e-05
2019-03-08 00:00:00,2019-03-08 00:00:00,PRATE,surface,-93.7504,33.5432,0.0001038
2019-03-08 00:00:00,2019-03-08 00:00:00,PRATE,surface,-92.8129,33.5432,0.0001054
2019-03-08 00:00:00,2019-03-08 00:00:00,PRATE,surface,-107.813,34.4881,1.58e-05
2019-03-08 00:00:00,2019-03-08 00:00:00,PRATE,surface,-106.875,34.4881,8.2e-06
2019-03-08 00:00:00,2019-03-08 00:00:00,PRATE,surface,-105.938,34.4881,4.1e-06
2019-03-08 00:00:00,2019-03-08 00:00:00,PRATE,surface,-105,34.4881,3.7e-06
2019-03-08 00:00:00,2019-03-08 00:00:00,PRATE,surface,-104.063,34.4881,5.4e-06
2019-03-08 00:00:00,2019-03-08 00:00:00,PRATE,surface,-103.125,34.4881,1.19e-05
2019-03-08 00:00:00,2019-03-08 00:00:00,PRATE,surface,-102.188,34.4881,3.15e-05
2019-03-08 00:00:00,2019-03-08 00:00:00,PRATE,surface,-101.25,34.4881,5.42e-05
2019-03-08 00:00:00,2019-03-08 00:00:00,PRATE,surface,-100.313,34.4881,5.7e-05
2019-03-08 00:00:00,2019-03-08 00:00:00,PRATE,surface,-99.3754,34.4881,4.67e-05
2019-03-08 00:00:00,2019-03-08 00:00:00,PRATE,surface,-98.4379,34.4881,4.72e-05
2019-03-08 00:00:00,2019-03-08 00:00:00,PRATE,surface,-97.5004,34.4881,6.05e-05
2019-03-08 00:00:00,2019-03-08 00:00:00,PRATE,surface,-96.5629,34.4881,7.95e-05
2019-03-08 00:00:00,2019-03-08 00:00:00,PRATE,surface,-95.6254,34.4881,0.0001015
2019-03-08 00:00:00,2019-03-08 00:00:00,PRATE,surface,-94.6879,34.4881,0.0001185
2019-03-08 00:00:00,2019-03-08 00:00:00,PRATE,surface,-93.7504,34.4881,0.0001219
2019-03-08 00:00:00,2019-03-08 00:00:00,PRATE,surface,-92.8129,34.4881,0.0001116
2019-03-08 00:00:00,2019-03-08 00:00:00,PRATE,surface,-107.813,35.4329,1.32e-05
2019-03-08 00:00:00,2019-03-08 00:00:00,PRATE,surface,-106.875,35.4329,1.01e-05
2019-03-08 00:00:00,2019-03-08 00:00:00,PRATE,surface,-105.938,35.4329,9.2e-06
2019-03-08 00:00:00,2019-03-08 00:00:00,PRATE,surface,-105,35.4329,1.2e-05
2019-03-08 00:00:00,2019-03-08 00:00:00,PRATE,surface,-104.063,35.4329,1.21e-05
2019-03-08 00:00:00,2019-03-08 00:00:00,PRATE,surface,-103.125,35.4329,1.82e-05
2019-03-08 00:00:00,2019-03-08 00:00:00,PRATE,surface,-102.188,35.4329,3.46e-05
2019-03-08 00:00:00,2019-03-08 00:00:00,PRATE,surface,-101.25,35.4329,5.95e-05
2019-03-08 00:00:00,2019-03-08 00:00:00,PRATE,surface,-100.313,35.4329,7.35e-05
2019-03-08 00:00:00,2019-03-08 00:00:00,PRATE,surface,-99.3754,35.4329,7.1e-05
2019-03-08 00:00:00,2019-03-08 00:00:00,PRATE,surface,-98.4379,35.4329,6.47e-05
2019-03-08 00:00:00,2019-03-08 00:00:00,PRATE,surface,-97.5004,35.4329,6.38e-05
2019-03-08 00:00:00,2019-03-08 00:00:00,PRATE,surface,-96.5629,35.4329,7.17e-05
2019-03-08 00:00:00,2019-03-08 00:00:00,PRATE,surface,-95.6254,35.4329,8.83e-05
2019-03-08 00:00:00,2019-03-08 00:00:00,PRATE,surface,-94.6879,35.4329,0.0001073
2019-03-08 00:00:00,2019-03-08 00:00:00,PRATE,surface,-93.7504,35.4329,0.000117
2019-03-08 00:00:00,2019-03-08 00:00:00,PRATE,surface,-92.8129,35.4329,0.0001072
2019-03-08 00:00:00,2019-03-08 00:00:00,PRATE,surface,-107.813,36.3778,2.36e-05
2019-03-08 00:00:00,2019-03-08 00:00:00,PRATE,surface,-106.875,36.3778,3.1e-05
2019-03-08 00:00:00,2019-03-08 00:00:00,PRATE,surface,-105.938,36.3778,2.64e-05
2019-03-08 00:00:00,2019-03-08 00:00:00,PRATE,surface,-105,36.3778,1.76e-05
2019-03-08 00:00:00,2019-03-08 00:00:00,PRATE,surface,-104.063,36.3778,1.14e-05
2019-03-08 00:00:00,2019-03-08 00:00:00,PRATE,surface,-103.125,36.3778,1.75e-05
2019-03-08 00:00:00,2019-03-08 00:00:00,PRATE,surface,-102.188,36.3778,3.26e-05
2019-03-08 00:00:00,2019-03-08 00:00:00,PRATE,surface,-101.25,36.3778,5.12e-05
2019-03-08 00:00:00,2019-03-08 00:00:00,PRATE,surface,-100.313,36.3778,6.69e-05
2019-03-08 00:00:00,2019-03-08 00:00:00,PRATE,surface,-99.3754,36.3778,7.31e-05
2019-03-08 00:00:00,2019-03-08 00:00:00,PRATE,surface,-98.4379,36.3778,7.11e-05
2019-03-08 00:00:00,2019-03-08 00:00:00,PRATE,surface,-97.5004,36.3778,6.42e-05
2019-03-08 00:00:00,2019-03-08 00:00:00,PRATE,surface,-96.5629,36.3778,6.1e-05
2019-03-08 00:00:00,2019-03-08 00:00:00,PRATE,surface,-95.6254,36.3778,7.18e-05
2019-03-08 00:00:00,2019-03-08 00:00:00,PRATE,surface,-94.6879,36.3778,9.39e-05
2019-03-08 00:00:00,2019-03-08 00:00:00,PRATE,surface,-93.7504,36.3778,0.0001105
2019-03-08 00:00:00,2019-03-08 00:00:00,PRATE,surface,-92.8129,36.3778,0.0001067
