2015-09-02 00:00:00,2015-09-02 00:00:00,TMP,surface,-107.813,25.0393,295.829
2015-09-02 00:00:00,2015-09-02 00:00:00,TMP,surface,-106.875,25.0393,290.13
2015-09-02 00:00:00,2015-09-02 00:00:00,TMP,surface,-105.938,25.0393,285.504
2015-09-02 00:00:00,2015-09-02 00:00:00,TMP,surface,-105,25.0393,284.831
2015-09-02 00:00:00,2015-09-02 00:00:00,TMP,surface,-104.063,25.0393,288.422
2015-09-02 00:00:00,2015-09-02 00:00:00,TMP,surface,-103.125,25.0393,291.163
2015-09-02 00:00:00,2015-09-02 00:00:00,TMP,surface,-102.188,25.0393,290.995
2015-09-02 00:00:00,2015-09-02 00:00:00,TMP,surface,-101.25,25.0393,289.599
2015-09-02 00:00:00,2015-09-02 00:00:00,TMP,surface,-100.313,25.0393,290.472
2015-09-02 00:00:00,2015-09-02 00:00:00,TMP,surface,-99.3754,25.0393,293.974
2015-09-02 00:00:00,2015-09-02 00:00:00,TMP,surface,-98.4379,25.0393,297.072
2015-09-02 00:00:00,2015-09-02 00:00:00,TMP,surface,-97.5004,25.0393,299.565
2015-09-02 00:00:00,2015-09-02 00:00:00,TMP,surface,-96.5629,25.0393,299.781
2015-09-02 00:00:00,2015-09-02 00:00:00,TMP,surface,-95.6254,25.0393,300.126
2015-09-02 00:00:00,2015-09-02 00:00:00,TMP,surface,-94.6879,25.0393,300.379
2015-09-02 00:00:00,2015-09-02 00:00:00,TMP,surface,-93.7504,25.0393,300.36
2015-09-02 00:00:00,2015-09-02 00:00:00,TMP,surface,-92.8129,25.0393,300.352
2015-09-02 00:00:00,2015-09-02 00:00:00,TMP,surface,-107.813,25.9842,290.395
2015-09-02 00:00:00,2015-09-02 00:00:00,TMP,surface,-106.875,25.9842,285.754
2015-09-02 00:00:00,2015-09-02 00:00:00,TMP,surface,-105.938,25.9842,284.253
2015-09-02 00:00:00,2015-09-02 00:00:00,TMP,surface,-105,25.9842,286.893
2015-09-02 00:00:00,2015-09-02 00:00:00,TMP,surface,-104.063,25.9842,291.045
2015-09-02 00:00:00,2015-09-02 00:00:00,TMP,surface,-103.125,25.9842,292.607
2015-09-02 00:00:00,2015-09-02 00:00:00,TMP,surface,-102.188,25.9842,292.152
2015-09-02 00:00:00,2015-09-02 00:00:00,TMP,surface,-101.25,25.9842,291.715
2015-09-02 00:00:00,2015-09-02 00:00:00,TMP,surface,-100.313,25.9842,292.4
2015-09-02 00:00:00,2015-09-02 00:00:00,TMP,surface,-99.3754,25.9842,295.794
2015-09-02 00:00:00,2015-09-02 00:00:00,TMP,surface,-98.4379,25.9842,297.563
2015-09-02 00:00:00,2015-09-02 00:00:00,TMP,surface,-97.5004,25.9842,297.922
2015-09-02 00:00:00,2015-09-02 00:00:00,TMP,surface,-96.5629,25.9842,298.898
2015-09-02 00:00:00,2015-09-02 00:00:00,TMP,surface,-95.6254,25.9842,299.533
2015-09-02 00:00:00,2015-09-02 00:00:00,TMP,surface,-94.6879,25.9842,300.005
2015-09-02 00:00:00,2015-09-02 00:00:00,TMP,surface,-93.7504,25.9842,300.173
2015-09-02 00:00:00,2015-09-02 00:00:00,TMP,surface,-92.8129,25.9842,300.327
2015-09-02 00:00:00,2015-09-02 00:00:00,TMP,surface,-107.813,26.929,285.701
2015-09-02 00:00:00,2015-09-02 00:00:00,TMP,surface,-106.875,26.929,283.098
2015-09-02 00:00:00,2015-09-02 00:00:00,TMP,surface,-105.938,26.929,285.256
2015-09-02 00:00:00,2015-09-02 00:00:00,TMP,surface,-105,26.929,288.971
2015-09-02 00:00:00,2015-09-02 00:00:00,TMP,surface,-104.063,26.929,291.077
2015-09-02 00:00:00,2015-09-02 00:00:00,TMP,surface,-103.125,26.929,290.759
2015-09-02 00:00:00,2015-09-02 00:00:00,TMP,surface,-102.188,26.929,290.898
2015-09-02 00:00:00,2015-09-02 00:00:00,TMP,surface,-101.25,26.929,291.949
2015-09-02 00:00:00,2015-09-02 00:00:00,TMP,surface,-100.313,26.929,293.816
2015-09-02 00:00:00,2015-09-02 00:00:00,TMP,surface,-99.3754,26.929,295.736
2015-09-02 00:00:00,2015-09-02 00:00:00,TMP,surface,-98.4379,26.929,296.104
2015-09-02 00:00:00,2015-09-02 00:00:00,TMP,surface,-97.5004,26.929,297.715
2015-09-02 00:00:00,2015-09-02 00:00:00,TMP,surface,-96.5629,26.929,298.215
2015-09-02 00:00:00,2015-09-02 00:00:00,TMP,surface,-95.6254,26.929,298.987
2015-09-02 00:00:00,2015-09-02 00:00:00,TMP,surface,-94.6879,26.929,299.357
2015-09-02 00:00:00,2015-09-02 00:00:00,TMP,surface,-93.7504,26.929,299.427
2015-09-02 00:00:00,2015-09-02 00:00:00,TMP,surface,-92.8129,26.929,299.525
2015-09-02 00:00:00,2015-09-02 00:00:00,TMP,surface,-107.813,27.8739,282.915
2015-09-02 00:00:00,2015-09-02 00:00:00,TMP,surface,-106.875,27.8739,282.555
2015-09-02 00:00:00,2015-09-02 00:00:00,TMP,surface,-105.938,27.8739,285.851
2015-09-02 00:00:00,2015-09-02 00:00:00,TMP,surface,-105,27.8739,288.979
2015-09-02 00:00:00,2015-09-02 00:00:00,TMP,surface,-104.063,27.8739,289.469
2015-09-02 00:00:00,2015-09-02 00:00:00,TMP,surface,-103.125,27.8739,288.621
2015-09-02 00:00:00,2015-09-02 00:00:00,TMP,surface,-102.188,27.8739,289.026
2015-09-02 00:00:00,2015-09-02 00:00:00,TMP,surface,-101.25,27.8739,290.798
2015-09-02 00:00:00,2015-09-02 00:00:00,TMP,surface,-100.313,27.8739,292.867
2015-09-02 00:00:00,2015-09-02 00:00:00,TMP,surface,-99.3754,27.8739,293.957
2015-09-02 00:00:00,2015-09-02 00:00:00,TMP,surface,-98.4379,27.8739,294.443
2015-09-02 00:00:00,2015-09-02 00:00:00,TMP,surface,-97.5004,27.8739,296.499
2015-09-02 00:00:00,2015-09-02 00:00:00,TMP,surface,-96.5629,27.8739,298.466
2015-09-02 00:00:00,2015-09-02 00:00:00,TMP,surface,-95.6254,27.8739,298.458
2015-09-02 00:00:00,2015-09-02 00:00:00,TMP,surface,-94.6879,27.8739,298.176
2015-09-02 00:00:00,2015-09-02 00:00:00,TMP,surface,-93.7504,27.8739,298.122
2015-09-02 00:00:00,2015-09-02 00:00:00,TMP,surface,-92.8129,27.8739,298.342
2015-09-02 00:00:00,2015-09-02 00:00:00,TMP,surface,-107.813,28.8188,281.783
2015-09-02 00:00:00,2015-09-02 00:00:00,TMP,surface,-106.875,28.8188,282.597
2015-09-02 00:00:00,2015-09-02 00:00:00,TMP,surface,-105.938,28.8188,285.57
2015-09-02 00:00:00,2015-09-02 00:00:00,TMP,surface,-105,28.8188,287.314
2015-09-02 00:00:00,2015-09-02 00:00:00,TMP,surface,-104.063,28.8188,286.688
2015-09-02 00:00:00,2015-09-02 00:00:00,TMP,surface,-103.125,28.8188,286.462
2015-09-02 00:00:00,2015-09-02 00:00:00,TMP,surface,-102.188,28.8188,287.589
2015-09-02 00:00:00,2015-09-02 00:00:00,TMP,surface,-101.25,28.8188,289.437
2015-09-02 00:00:00,2015-09-02 00:00:00,TMP,surface,-100.313,28.8188,290.811
2015-09-02 00:00:00,2015-09-02 00:00:00,TMP,surface,-99.3754,28.8188,291.549
2015-09-02 00:00:00,2015-09-02 00:00:00,TMP,surface,-98.4379,28.8188,292.272
2015-09-02 00:00:00,2015-09-02 00:00:00,TMP,surface,-97.5004,28.8188,293.253
2015-09-02 00:00:00,2015-09-02 00:00:00,TMP,surface,-96.5629,28.8188,294.267
2015-09-02 00:00:00,2015-09-02 00:00:00,TMP,surface,-95.6254,28.8188,295.893
2015-09-02 00:00:00,2015-09-02 00:00:00,TMP,surface,-94.6879,28.8188,297.667
2015-09-02 00:00:00,2015-09-02 00:00:00,TMP,surface,-93.7504,28.8188,297.707
2015-09-02 00:00:00,2015-09-02 00:00:00,TMP,surface,-92.8129,28.8188,297.909
2015-09-02 00:00:00,2015-09-02 00:00:00,TMP,surface,-107.813,29.7637,282.167
2015-09-02 00:00:00,2015-09-02 00:00:00,TMP,surface,-106.875,29.7637,283.115
2015-09-02 00:00:00,2015-09-02 00:00:00,TMP,surface,-105.938,29.7637,284.872
2015-09-02 00:00:00,2015-09-02 00:00:00,TMP,surface,-105,29.7637,284.928
2015-09-02 00:00:00,2015-09-02 00:00:00,TMP,surface,-104.063,29.7637,284.767
2015-09-02 00:00:00,2015-09-02 00:00:00,TMP,surface,-103.125,29.7637,285.603
2015-09-02 00:00:00,2015-09-02 00:00:00,TMP,surface,-102.188,29.7637,287.215
2015-09-02 00:00:00,2015-09-02 00:00:00,TMP,surface,-101.25,29.7637,288.307
2015-09-02 00:00:00,2015-09-02 00:00:00,TMP,surface,-100.313,29.7637,288.693
2015-09-02 00:00:00,2015-09-02 00:00:00,TMP,surface,-99.3754,29.7637,289.189
2015-09-02 00:00:00,2015-09-02 00:00:00,TMP,surface,-98.4379,29.7637,290.103
2015-09-02 00:00:00,2015-09-02 00:00:00,TMP,surface,-97.5004,29.7637,291.101
2015-09-02 00:00:00,2015-09-02 00:00:00,TMP,surface,-96.5629,29.7637,291.901
2015-09-02 00:00:00,2015-09-02 00:00:00,TMP,surface,-95.6254,29.7637,292.656
2015-09-02 00:00:00,2015-09-02 00:00:00,TMP,surface,-94.6879,29.7637,294.778
2015-09-02 00:00:00,2015-09-02 00:00:00,TMP,surface,-93.7504,29.7637,297.245
2015-09-02 00:00:00,2015-09-02 00:00:00,TMP,surface,-92.8129,29.7637,294.531
2015-09-02 00:00:00,2015-09-02 00:00:00,TMP,surface,-107.813,30.7085,283.154
2015-09-02 00:00:00,2015-09-02 00:00:00,TMP,surface,-106.875,30.7085,283.89
2015-09-02 00:00:00,2015-09-02 00:00:00,TMP,surface,-105.938,30.7085,283.651
2015-09-02 00:00:00,2015-09-02 00:00:00,TMP,surface,-105,30.7085,282.93
2015-09-02 00:00:00,2015-09-02 00:00:00,TMP,surface,-104.063,30.7085,283.123
2015-09-02 00:00:00,2015-09-02 00:00:00,TMP,surface,-103.125,30.7085,284.711
2015-09-02 00:00:00,2015-09-02 00:00:00,TMP,surface,-102.188,30.7085,286.357
2015-09-02 00:00:00,2015-09-02 00:00:00,TMP,surface,-101.25,30.7085,287.047
2015-09-02 00:00:00,2015-09-02 00:00:00,TMP,surface,-100.313,30.7085,287.282
2015-09-02 00:00:00,2015-09-02 00:00:00,TMP,surface,-99.3754,30.7085,287.862
2015-09-02 00:00:00,2015-09-02 00:00:00,TMP,surface,-98.4379,30.7085,288.859
2015-09-02 00:00:00,2015-09-02 00:00:00,TMP,surface,-97.5004,30.7085,289.84
2015-09-02 00:00:00,2015-09-02 00:00:00,TMP,surface,-96.5629,30.7085,290.568
2015-09-02 00:00:00,2015-09-02 00:00:00,TMP,surface,-95.6254,30.7085,291.144
2015-09-02 00:00:00,2015-09-02 00:00:00,TMP,surface,-94.6879,30.7085,291.701
2015-09-02 00:00:00,2015-09-02 00:00:00,TMP,surface,-93.7504,30.7085,292.163
2015-09-02 00:00:00,2015-09-02 00:00:00,TMP,surface,-92.8129,30.7085,292.358
2015-09-02 00:00:00,2015-09-02 00:00:00,TMP,surface,-107.813,31.6534,282.327
2015-09-02 00:00:00,2015-09-02 00:00:00,TMP,surface,-106.875,31.6534,282.965
2015-09-02 00:00:00,2015-09-02 00:00:00,TMP,surface,-105.938,31.6534,282.123
2015-09-02 00:00:00,2015-09-02 00:00:00,TMP,surface,-105,31.6534,281.469
2015-09-02 00:00:00,2015-09-02 00:00:00,TMP,surface,-104.063,31.6534,282.039
2015-09-02 00:00:00,2015-09-02 00:00:00,TMP,surface,-103.125,31.6534,283.709
2015-09-02 00:00:00,2015-09-02 00:00:00,TMP,surface,-102.188,31.6534,285.139
2015-09-02 00:00:00,2015-09-02 00:00:00,TMP,surface,-101.25,31.6534,285.795
2015-09-02 00:00:00,2015-09-02 00:00:00,TMP,surface,-100.313,31.6534,286.299
2015-09-02 00:00:00,2015-09-02 00:00:00,TMP,surface,-99.3754,31.6534,287.083
2015-09-02 00:00:00,2015-09-02 00:00:00,TMP,surface,-98.4379,31.6534,288.118
2015-09-02 00:00:00,2015-09-02 00:00:00,TMP,surface,-97.5004,31.6534,289.055
2015-09-02 00:00:00,2015-09-02 00:00:00,TMP,surface,-96.5629,31.6534,289.742
2015-09-02 00:00:00,2015-09-02 00:00:00,TMP,surface,-95.6254,31.6534,290.182
2015-09-02 00:00:00,2015-09-02 00:00:00,TMP,surface,-94.6879,31.6534,290.394
2015-09-02 00:00:00,2015-09-02 00:00:00,TMP,surface,-93.7504,31.6534,290.658
2015-09-02 00:00:00,2015-09-02 00:00:00,TMP,surface,-92.8129,31.6534,291.163
2015-09-02 00:00:00,2015-09-02 00:00:00,TMP,surface,-107.813,32.5983,279.483
2015-09-02 00:00:00,2015-09-02 00:00:00,TMP,surface,-106.875,32.5983,280.088
2015-09-02 00:00:00,2015-09-02 00:00:00,TMP,surface,-105.938,32.5983,280.475
2015-09-02 00:00:00,2015-09-02 00:00:00,TMP,surface,-105,32.5983,280.656
2015-09-02 00:00:00,2015-09-02 00:00:00,TMP,surface,-104.063,32.5983,281.526
2015-09-02 00:00:00,2015-09-02 00:00:00,TMP,surface,-103.125,32.5983,282.688
2015-09-02 00:00:00,2015-09-02 00:00:00,TMP,surface,-102.188,32.5983,283.568
2015-09-02 00:00:00,2015-09-02 00:00:00,TMP,surface,-101.25,32.5983,284.503
2015-09-02 00:00:00,2015-09-02 00:00:00,TMP,surface,-100.313,32.5983,285.45
2015-09-02 00:00:00,2015-09-02 00:00:00,TMP,surface,-99.3754,32.5983,286.41
2015-09-02 00:00:00,2015-09-02 00:00:00,TMP,surface,-98.4379,32.5983,287.342
2015-09-02 00:00:00,2015-09-02 00:00:00,TMP,surface,-97.5004,32.5983,288.202
2015-09-02 00:00:00,2015-09-02 00:00:00,TMP,surface,-96.5629,32.5983,288.976
2015-09-02 00:00:00,2015-09-02 00:00:00,TMP,surface,-95.6254,32.5983,289.49
2015-09-02 00:00:00,2015-09-02 00:00:00,TMP,surface,-94.6879,32.5983,289.607
2015-09-02 00:00:00,2015-09-02 00:00:00,TMP,surface,-93.7504,32.5983,289.728
2015-09-02 00:00:00,2015-09-02 00:00:00,TMP,surface,-92.8129,32.5983,290.371
2015-09-02 00:00:00,2015-09-02 00:00:00,TMP,surface,-107.813,33.5432,276.559
2015-09-02 00:00:00,2015-09-02 00:00:00,TMP,surface,-106.875,33.5432,277.683
2015-09-02 00:00:00,2015-09-02 00:00:00,TMP,surface,-105.938,33.5432,278.709
2015-09-02 00:00:00,2015-09-02 00:00:00,TMP,surface,-105,33.5432,279.627
2015-09-02 00:00:00,2015-09-02 00:00:00,TMP,surface,-104.063,33.5432,280.789
2015-09-02 00:00:00,2015-09-02 00:00:00,TMP,surface,-103.125,33.5432,281.587
2015-09-02 00:00:00,2015-09-02 00:00:00,TMP,surface,-102.188,33.5432,282.088
2015-09-02 00:00:00,2015-09-02 00:00:00,TMP,surface,-101.25,33.5432,283.039
2015-09-02 00:00:00,2015-09-02 00:00:00,TMP,surface,-100.313,33.5432,284.139
2015-09-02 00:00:00,2015-09-02 00:00:00,TMP,surface,-99.3754,33.5432,285.221
2015-09-02 00:00:00,2015-09-02 00:00:00,TMP,surface,-98.4379,33.5432,286.118
2015-09-02 00:00:00,2015-09-02 00:00:00,TMP,surface,-97.5004,33.5432,286.939
2015-09-02 00:00:00,2015-09-02 00:00:00,TMP,surface,-96.5629,33.5432,287.843
2015-09-02 00:00:00,2015-09-02 00:00:00,TMP,surface,-95.6254,33.5432,288.566
2015-09-02 00:00:00,2015-09-02 00:00:00,TMP,surface,-94.6879,33.5432,288.802
2015-09-02 00:00:00,2015-09-02 00:00:00,TMP,surface,-93.7504,33.5432,288.862
2015-09-02 00:00:00,2015-09-02 00:00:00,TMP,surface,-92.8129,33.5432,289.267
2015-09-02 00:00:00,2015-09-02 00:00:00,TMP,surface,-107.813,34.4881,275.251
2015-09-02 00:00:00,2015-09-02 00:00:00,TMP,surface,-106.875,34.4881,276.477
2015-09-02 00:00:00,2015-09-02 00:00:00,TMP,surface,-105.938,34.4881,277.496
2015-09-02 00:00:00,2015-09-02 00:00:00,TMP,surface,-105,34.4881,278.398
2015-09-02 00:00:00,2015-09-02 00:00:00,TMP,surface,-104.063,34.4881,279.074
2015-09-02 00:00:00,2015-09-02 00:00:00,TMP,surface,-103.125,34.4881,279.997
2015-09-02 00:00:00,2015-09-02 00:00:00,TMP,surface,-102.188,34.4881,280.725
2015-09-02 00:00:00,2015-09-02 00:00:00,TMP,surface,-101.25,34.4881,281.515
2015-09-02 00:00:00,2015-09-02 00:00:00,TMP,surface,-100.313,34.4881,282.565
2015-09-02 00:00:00,2015-09-02 00:00:00,TMP,surface,-99.3754,34.4881,283.568
2015-09-02 00:00:00,2015-09-02 00:00:00,TMP,surface,-98.4379,34.4881,284.426
2015-09-02 00:00:00,2015-09-02 00:00:00,TMP,surface,-97.5004,34.4881,285.35
2015-09-02 00:00:00,2015-09-02 00:00:00,TMP,surface,-96.5629,34.4881,286.487
2015-09-02 00:00:00,2015-09-02 00:00:00,TMP,surface,-95.6254,34.4881,287.414
2015-09-02 00:00:00,2015-09-02 00:00:00,TMP,surface,-94.6879,34.4881,287.677
2015-09-02 00:00:00,2015-09-02 00:00:00,TMP,surface,-93.7504,34.4881,287.651
2015-09-02 00:00:00,2015-09-02 00:00:00,TMP,surface,-92.8129,34.4881,287.918
2015-09-02 00:00:00,2015-09-02 00:00:00,TMP,surface,-107.813,35.4329,275.187
2015-09-02 00:00:00,2015-09-02 00:00:00,TMP,surface,-106.875,35.4329,275.485
2015-09-02 00:00:00,2015-09-02 00:00:00,TMP,surface,-105.938,35.4329,275.864
2015-09-02 00:00:00,2015-09-02 00:00:00,TMP,surface,-105,35.4329,276.555
2015-09-02 00:00:00,2015-09-02 00:00:00,TMP,surface,-104.063,35.4329,277.576
2015-09-02 00:00:00,2015-09-02 00:00:00,TMP,surface,-103.125,35.4329,278.877
2015-09-02 00:00:00,2015-09-02 00:00:00,TMP,surface,-102.188,35.4329,279.525
2015-09-02 00:00:00,2015-09-02 00:00:00,TMP,surface,-101.25,35.4329,280.216
2015-09-02 00:00:00,2015-09-02 00:00:00,TMP,surface,-100.313,35.4329,281.174
2015-09-02 00:00:00,2015-09-02 00:00:00,TMP,surface,-99.3754,35.4329,281.93
2015-09-02 00:00:00,2015-09-02 00:00:00,TMP,surface,-98.4379,35.4329,282.815
2015-09-02 00:00:00,2015-09-02 00:00:00,TMP,surface,-97.5004,35.4329,284.03
2015-09-02 00:00:00,2015-09-02 00:00:00,TMP,surface,-96.5629,35.4329,285.288
2015-09-02 00:00:00,2015-09-02 00:00:00,TMP,surface,-95.6254,35.4329,286.219
2015-09-02 00:00:00,2015-09-02 00:00:00,TMP,surface,-94.6879,35.4329,286.597
2015-09-02 00:00:00,2015-09-02 00:00:00,TMP,surface,-93.7504,35.4329,286.544
2015-09-02 00:00:00,2015-09-02 00:00:00,TMP,surface,-92.8129,35.4329,286.622
2015-09-02 00:00:00,2015-09-02 00:00:00,TMP,surface,-107.813,36.3778,274.579
2015-09-02 00:00:00,2015-09-02 00:00:00,TMP,surface,-106.875,36.3778,273.32
2015-09-02 00:00:00,2015-09-02 00:00:00,TMP,surface,-105.938,36.3778,273.56
2015-09-02 00:00:00,2015-09-02 00:00:00,TMP,surface,-105,36.3778,274.725
2015-09-02 00:00:00,2015-09-02 00:00:00,TMP,surface,-104.063,36.3778,276.053
2015-09-02 00:00:00,2015-09-02 00:00:00,TMP,surface,-103.125,36.3778,277.202
2015-09-02 00:00:00,2015-09-02 00:00:00,TMP,surface,-102.188,36.3778,278.293
2015-09-02 00:00:00,2015-09-02 00:00:00,TMP,surface,-101.25,36.3778,279.299
2015-09-02 00:00:00,2015-09-02 00:00:00,TMP,surface,-100.313,36.3778,280.48
2015-09-02 00:00:00,2015-09-02 00:00:00,TMP,surface,-99.3754,36.3778,281.35
2015-09-02 00:00:00,2015-09-02 00:00:00,TMP,surface,-98.4379,36.3778,281.882
2015-09-02 00:00:00,2015-09-02 00:00:00,TMP,surface,-97.5004,36.3778,282.798
2015-09-02 00:00:00,2015-09-02 00:00:00,TMP,surface,-96.5629,36.3778,283.986
2015-09-02 00:00:00,2015-09-02 00:00:00,TMP,surface,-95.6254,36.3778,284.829
2015-09-02 00:00:00,2015-09-02 00:00:00,TMP,surface,-94.6879,36.3778,285.218
2015-09-02 00:00:00,2015-09-02 00:00:00,TMP,surface,-93.7504,36.3778,285.21
2015-09-02 00:00:00,2015-09-02 00:00:00,TMP,surface,-92.8129,36.3778,285.327
2015-09-02 00:00:00,2015-09-02 00:00:00,PRATE,surface,-107.813,25.0393,0.0001177
2015-09-02 00:00:00,2015-09-02 00:00:00,PRATE,surface,-106.875,25.0393,0.0001428
2015-09-02 00:00:00,2015-09-02 00:00:00,PRATE,surface,-105.938,25.0393,9.33e-05
2015-09-02 00:00:00,2015-09-02 00:00:00,PRATE,surface,-105,25.0393,2.34e-05
2015-09-02 00:00:00,2015-09-02 00:00:00,PRATE,surface,-104.063,25.0393,8.8e-06
2015-09-02 00:00:00,2015-09-02 00:00:00,PRATE,surface,-103.125,25.0393,8.5e-06
2015-09-02 00:00:00,2015-09-02 00:00:00,PRATE,surface,-102.188,25.0393,6.9e-06
2015-09-02 00:00:00,2015-09-02 00:00:00,PRATE,surface,-101.25,25.0393,1.19e-05
2015-09-02 00:00:00,2015-09-02 00:00:00,PRATE,surface,-100.313,25.0393,1.54e-05
2015-09-02 00:00:00,2015-09-02 00:00:00,PRATE,surface,-99.3754,25.0393,6.7e-06
2015-09-02 00:00:00,2015-09-02 00:00:00,PRATE,surface,-98.4379,25.0393,9.3e-06
2015-09-02 00:00:00,2015-09-02 00:00:00,PRATE,surface,-97.5004,25.0393,1.53e-05
2015-09-02 00:00:00,2015-09-02 00:00:00,PRATE,surface,-96.5629,25.0393,1.79e-05
2015-09-02 00:00:00,2015-09-02 00:00:00,PRATE,surface,-95.6254,25.0393,2.83e-05
2015-09-02 00:00:00,2015-09-02 00:00:00,PRATE,surface,-94.6879,25.0393,3.57e-05
2015-09-02 00:00:00,2015-09-02 00:00:00,PRATE,surface,-93.7504,25.0393,4.47e-05
2015-09-02 00:00:00,2015-09-02 00:00:00,PRATE,surface,-92.8129,25.0393,4.3e-05
2015-09-02 00:00:00,2015-09-02 00:00:00,PRATE,surface,-107.813,25.9842,0.0001173
2015-09-02 00:00:00,2015-09-02 00:00:00,PRATE,surface,-106.875,25.9842,0.0001193
2015-09-02 00:00:00,2015-09-02 00:00:00,PRATE,surface,-105.938,25.9842,5.46e-05
2015-09-02 00:00:00,2015-09-02 00:00:00,PRATE,surface,-105,25.9842,1.42e-05
2015-09-02 00:00:00,2015-09-02 00:00:00,PRATE,surface,-104.063,25.9842,3.5e-06
2015-09-02 00:00:00,2015-09-02 00:00:00,PRATE,surface,-103.125,25.9842,2.3e-06
2015-09-02 00:00:00,2015-09-02 00:00:00,PRATE,surface,-102.188,25.9842,5.5e-06
2015-09-02 00:00:00,2015-09-02 00:00:00,PRATE,surface,-101.25,25.9842,7.1e-06
2015-09-02 00:00:00,2015-09-02 00:00:00,PRATE,surface,-100.313,25.9842,1.61e-05
2015-09-02 00:00:00,2015-09-02 00:00:00,PRATE,surface,-99.3754,25.9842,2.1e-06
2015-09-02 00:00:00,2015-09-02 00:00:00,PRATE,surface,-98.4379,25.9842,6.7e-06
2015-09-02 00:00:00,2015-09-02 00:00:00,PRATE,surface,-97.5004,25.9842,2.77e-05
2015-09-02 00:00:00,2015-09-02 00:00:00,PRATE,surface,-96.5629,25.9842,3.14e-05
2015-09-02 00:00:00,2015-09-02 00:00:00,PRATE,surface,-95.6254,25.9842,4.3e-05
2015-09-02 00:00:00,2015-09-02 00:00:00,PRATE,surface,-94.6879,25.9842,4.88e-05
2015-09-02 00:00:00,2015-09-02 00:00:00,PRATE,surface,-93.7504,25.9842,5.1e-05
2015-09-02 00:00:00,2015-09-02 00:00:00,PRATE,surface,-92.8129,25.9842,5.07e-05
2015-09-02 00:00:00,2015-09-02 00:00:00,PRATE,surface,-107.813,26.929,0.0001123
2015-09-02 00:00:00,2015-09-02 00:00:00,PRATE,surface,-106.875,26.929,9.86e-05
2015-09-02 00:00:00,2015-09-02 00:00:00,PRATE,surface,-105.938,26.929,3.81e-05
2015-09-02 00:00:00,2015-09-02 00:00:00,PRATE,surface,-105,26.929,1.29e-05
2015-09-02 00:00:00,2015-09-02 00:00:00,PRATE,surface,-104.063,26.929,6.9e-06
2015-09-02 00:00:00,2015-09-02 00:00:00,PRATE,surface,-103.125,26.929,1.08e-05
2015-09-02 00:00:00,2015-09-02 00:00:00,PRATE,surface,-102.188,26.929,1.12e-05
2015-09-02 00:00:00,2015-09-02 00:00:00,PRATE,surface,-101.25,26.929,1.3e-05
2015-09-02 00:00:00,2015-09-02 00:00:00,PRATE,surface,-100.313,26.929,6.7e-06
2015-09-02 00:00:00,2015-09-02 00:00:00,PRATE,surface,-99.3754,26.929,5.4e-06
2015-09-02 00:00:00,2015-09-02 00:00:00,PRATE,surface,-98.4379,26.929,1.42e-05
2015-09-02 00:00:00,2015-09-02 00:00:00,PRATE,surface,-97.5004,26.929,3.52e-05
2015-09-02 00:00:00,2015-09-02 00:00:00,PRATE,surface,-96.5629,26.929,5e-05
2015-09-02 00:00:00,2015-09-02 00:00:00,PRATE,surface,-95.6254,26.929,4.75e-05
2015-09-02 00:00:00,2015-09-02 00:00:00,PRATE,surface,-94.6879,26.929,3.12e-05
2015-09-02 00:00:00,2015-09-02 00:00:00,PRATE,surface,-93.7504,26.929,2.88e-05
2015-09-02 00:00:00,2015-09-02 00:00:00,PRATE,surface,-92.8129,26.929,2.89e-05
2015-09-02 00:00:00,2015-09-02 00:00:00,PRATE,surface,-107.813,27.8739,8.64e-05
2015-09-02 00:00:00,2015-09-02 00:00:00,PRATE,surface,-106.875,27.8739,7.83e-05
2015-09-02 00:00:00,2015-09-02 00:00:00,PRATE,surface,-105.938,27.8739,3.92e-05
2015-09-02 00:00:00,2015-09-02 00:00:00,PRATE,surface,-105,27.8739,1.62e-05
2015-09-02 00:00:00,2015-09-02 00:00:00,PRATE,surface,-104.063,27.8739,1.69e-05
2015-09-02 00:00:00,2015-09-02 00:00:00,PRATE,surface,-103.125,27.8739,3.14e-05
2015-09-02 00:00:00,2015-09-02 00:00:00,PRATE,surface,-102.188,27.8739,3.67e-05
2015-09-02 00:00:00,2015-09-02 00:00:00,PRATE,surface,-101.25,27.8739,2.16e-05
2015-09-02 00:00:00,2015-09-02 00:00:00,PRATE,surface,-100.313,27.8739,1.22e-05
2015-09-02 00:00:00,2015-09-02 00:00:00,PRATE,surface,-99.3754,27.8739,1.45e-05
2015-09-02 00:00:00,2015-09-02 00:00:00,PRATE,surface,-98.4379,27.8739,2.26e-05
2015-09-02 00:00:00,2015-09-02 00:00:00,PRATE,surface,-97.5004,27.8739,3.3e-05
2015-09-02 00:00:00,2015-09-02 00:00:00,PRATE,surface,-96.5629,27.8739,3.89e-05
2015-09-02 00:00:00,2015-09-02 00:00:00,PRATE,surface,-95.6254,27.8739,3.87e-05
2015-09-02 00:00:00,2015-09-02 00:00:00,PRATE,surface,-94.6879,27.8739,3.49e-05
2015-09-02 00:00:00,2015-09-02 00:00:00,PRATE,surface,-93.7504,27.8739,2.67e-05
2015-09-02 00:00:00,2015-09-02 00:00:00,PRATE,surface,-92.8129,27.8739,2.52e-05
2015-09-02 00:00:00,2015-09-02 00:00:00,PRATE,surface,-107.813,28.8188,6.3e-05
2015-09-02 00:00:00,2015-09-02 00:00:00,PRATE,surface,-106.875,28.8188,5.96e-05
2015-09-02 00:00:00,2015-09-02 00:00:00,PRATE,surface,-105.938,28.8188,5.07e-05
2015-09-02 00:00:00,2015-09-02 00:00:00,PRATE,surface,-105,28.8188,3.8e-05
2015-09-02 00:00:00,2015-09-02 00:00:00,PRATE,surface,-104.063,28.8188,5.03e-05
2015-09-02 00:00:00,2015-09-02 00:00:00,PRATE,surface,-103.125,28.8188,5.96e-05
2015-09-02 00:00:00,2015-09-02 00:00:00,PRATE,surface,-102.188,28.8188,4.1e-05
2015-09-02 00:00:00,2015-09-02 00:00:00,PRATE,surface,-101.25,28.8188,2.67e-05
2015-09-02 00:00:00,2015-09-02 00:00:00,PRATE,surface,-100.313,28.8188,2.28e-05
2015-09-02 00:00:00,2015-09-02 00:00:00,PRATE,surface,-99.3754,28.8188,2.64e-05
2015-09-02 00:00:00,2015-09-02 00:00:00,PRATE,surface,-98.4379,28.8188,3.88e-05
2015-09-02 00:00:00,2015-09-02 00:00:00,PRATE,surface,-97.5004,28.8188,4.86e-05
2015-09-02 00:00:00,2015-09-02 00:00:00,PRATE,surface,-96.5629,28.8188,5.48e-05
2015-09-02 00:00:00,2015-09-02 00:00:00,PRATE,surface,-95.6254,28.8188,6.35e-05
2015-09-02 00:00:00,2015-09-02 00:00:00,PRATE,surface,-94.6879,28.8188,6.28e-05
2015-09-02 00:00:00,2015-09-02 00:00:00,PRATE,surface,-93.7504,28.8188,4.49e-05
2015-09-02 00:00:00,2015-09-02 00:00:00,PRATE,surface,-92.8129,28.8188,3.24e-05
2015-09-02 00:00:00,2015-09-02 00:00:00,PRATE,surface,-107.813,29.7637,4.24e-05
2015-09-02 00:00:00,2015-09-02 00:00:00,PRATE,surface,-106.875,29.7637,4.75e-05
2015-09-02 00:00:00,2015-09-02 00:00:00,PRATE,surface,-105.938,29.7637,5.76e-05
2015-09-02 00:00:00,2015-09-02 00:00:00,PRATE,surface,-105,29.7637,6.21e-05
2015-09-02 00:00:00,2015-09-02 00:00:00,PRATE,surface,-104.063,29.7637,7.36e-05
2015-09-02 00:00:00,2015-09-02 00:00:00,PRATE,surface,-103.125,29.7637,7.47e-05
2015-09-02 00:00:00,2015-09-02 00:00:00,PRATE,surface,-102.188,29.7637,5.14e-05
2015-09-02 00:00:00,2015-09-02 00:00:00,PRATE,surface,-101.25,29.7637,4.23e-05
2015-09-02 00:00:00,2015-09-02 00:00:00,PRATE,surface,-100.313,29.7637,4.26e-05
2015-09-02 00:00:00,2015-09-02 00:00:00,PRATE,surface,-99.3754,29.7637,3.9e-05
2015-09-02 00:00:00,2015-09-02 00:00:00,PRATE,surface,-98.4379,29.7637,4.39e-05
2015-09-02 00:00:00,2015-09-02 00:00:00,PRATE,surface,-97.5004,29.7637,5.67e-05
2015-09-02 00:00:00,2015-09-02 00:00:00,PRATE,surface,-96.5629,29.7637,6.82e-05
2015-09-02 00:00:00,2015-09-02 00:00:00,PRATE,surface,-95.6254,29.7637,7.23e-05
2015-09-02 00:00:00,2015-09-02 00:00:00,PRATE,surface,-94.6879,29.7637,6.6e-05
2015-09-02 00:00:00,2015-09-02 00:00:00,PRATE,surface,-93.7504,29.7637,5.75e-05
2015-09-02 00:00:00,2015-09-02 00:00:00,PRATE,surface,-92.8129,29.7637,5.31e-05
2015-09-02 00:00:00,2015-09-02 00:00:00,PRATE,surface,-107.813,30.7085,3.23e-05
2015-09-02 00:00:00,2015-09-02 00:00:00,PRATE,surface,-106.875,30.7085,4.32e-05
2015-09-02 00:00:00,2015-09-02 00:00:00,PRATE,surface,-105.938,30.7085,6.59e-05
2015-09-02 00:00:00,2015-09-02 00:00:00,PRATE,surface,-105,30.7085,8.53e-05
2015-09-02 00:00:00,2015-09-02 00:00:00,PRATE,surface,-104.063,30.7085,8.96e-05
2015-09-02 00:00:00,2015-09-02 00:00:00,PRATE,surface,-103.125,30.7085,8.52e-05
2015-09-02 00:00:00,2015-09-02 00:00:00,PRATE,surface,-102.188,30.7085,6.86e-05
2015-09-02 00:00:00,2015-09-02 00:00:00,PRATE,surface,-101.25,30.7085,6.06e-05
2015-09-02 00:00:00,2015-09-02 00:00:00,PRATE,surface,-100.313,30.7085,5.5e-05
2015-09-02 00:00:00,2015-09-02 00:00:00,PRATE,surface,-99.3754,30.7085,5e-05
2015-09-02 00:00:00,2015-09-02 00:00:00,PRATE,surface,-98.4379,30.7085,5e-05
2015-09-02 00:00:00,2015-09-02 00:00:00,PRATE,surface,-97.5004,30.7085,5.17e-05
2015-09-02 00:00:00,2015-09-02 00:00:00,PRATE,surface,-96.5629,30.7085,5.74e-05
2015-09-02 00:00:00,2015-09-02 00:00:00,PRATE,surface,-95.6254,30.7085,6.73e-05
2015-09-02 00:00:00,2015-09-02 00:00:00,PRATE,surface,-94.6879,30.7085,6.7e-05
2015-09-02 00:00:00,2015-09-02 00:00:00,PRATE,surface,-93.7504,30.7085,5.52e-05
2015-09-02 00:00:00,2015-09-02 00:00:00,PRATE,surface,-92.8129,30.7085,5.07e-05
2015-09-02 00:00:00,2015-09-02 00:00:00,PRATE,surface,-107.813,31.6534,3.44e-05
2015-09-02 00:00:00,2015-09-02 00:00:00,PRATE,surface,-106.875,31.6534,4.4e-05
2015-09-02 00:00:00,2015-09-02 00:00:00,PRATE,surface,-105.938,31.6534,6.79e-05
2015-09-02 00:00:00,2015-09-02 00:00:00,PRATE,surface,-105,31.6534,9.17e-05
2015-09-02 00:00:00,2015-09-02 00:00:00,PRATE,surface,-104.063,31.6534,0.0001002
2015-09-02 00:00:00,2015-09-02 00:00:00,PRATE,surface,-103.125,31.6534,9.82e-05
2015-09-02 00:00:00,2015-09-02 00:00:00,PRATE,surface,-102.188,31.6534,9.4e-05
2015-09-02 00:00:00,2015-09-02 00:00:00,PRATE,surface,-101.25,31.6534,8.32e-05
2015-09-02 00:00:00,2015-09-02 00:00:00,PRATE,surface,-100.313,31.6534,6.41e-05
2015-09-02 00:00:00,2015-09-02 00:00:00,PRATE,surface,-99.3754,31.6534,5.23e-05
2015-09-02 00:00:00,2015-09-02 00:00:00,PRATE,surface,-98.4379,31.6534,5.23e-05
2015-09-02 00:00:00,2015-09-02 00:00:00,PRATE,surface,-97.5004,31.6534,6.04e-05
2015-09-02 00:00:00,2015-09-02 00:00:00,PRATE,surface,-96.5629,31.6534,6.84e-05
2015-09-02 00:00:00,2015-09-02 00:00:00,PRATE,surface,-95.6254,31.6534,7.46e-05
2015-09-02 00:00:00,2015-09-02 00:00:00,PRATE,surface,-94.6879,31.6534,8.02e-05
2015-09-02 00:00:00,2015-09-02 00:00:00,PRATE,surface,-93.7504,31.6534,7.36e-05
2015-09-02 00:00:00,2015-09-02 00:00:00,PRATE,surface,-92.8129,31.6534,5.48e-05
2015-09-02 00:00:00,2015-09-02 00:00:00,PRATE,surface,-107.813,32.5983,4.65e-05
2015-09-02 00:00:00,2015-09-02 00:00:00,PRATE,surface,-106.875,32.5983,5.16e-05
2015-09-02 00:00:00,2015-09-02 00:00:00,PRATE,surface,-105.938,32.5983,7.17e-05
2015-09-02 00:00:00,2015-09-02 00:00:00,PRATE,surface,-105,32.5983,9.36e-05
2015-09-02 00:00:00,2015-09-02 00:00:00,PRATE,surface,-104.063,32.5983,9.78e-05
2015-09-02 00:00:00,2015-09-02 00:00:00,PRATE,surface,-103.125,32.5983,9.54e-05
2015-09-02 00:00:00,2015-09-02 00:00:00,PRATE,surface,-102.188,32.5983,0.000104
2015-09-02 00:00:00,2015-09-02 00:00:00,PRATE,surface,-101.25,32.5983,9.71e-05
2015-09-02 00:00:00,2015-09-02 00:00:00,PRATE,surface,-100.313,32.5983,7.51e-05
2015-09-02 00:00:00,2015-09-02 00:00:00,PRATE,surface,-99.3754,32.5983,5.95e-05
2015-09-02 00:00:00,2015-09-02 00:00:00,PRATE,surface,-98.4379,32.5983,5.49e-05
2015-09-02 00:00:00,2015-09-02 00:00:00,PRATE,surface,-97.5004,32.5983,6.37e-05
2015-09-02 00:00:00,2015-09-02 00:00:00,PRATE,surface,-96.5629,32.5983,8.21e-05
2015-09-02 00:00:00,2015-09-02 00:00:00,PRATE,surface,-95.6254,32.5983,9.54e-05
2015-09-02 00:00:00,2015-09-02 00:00:00,PRATE,surface,-94.6879,32.5983,9.59e-05
2015-09-02 00:00:00,2015-09-02 00:00:00,PRATE,surface,-93.7504,32.5983,8.8e-05
2015-09-02 00:00:00,2015-09-02 00:00:00,PRATE,surface,-92.8129,32.5983,7.26e-05
2015-09-02 00:00:00,2015-09-02 00:00:00,PRATE,surface,-107.813,33.5432,5.51e-05
2015-09-02 00:00:00,2015-09-02 00:00:00,PRATE,surface,-106.875,33.5432,5.59e-05
2015-09-02 00:00:00,2015-09-02 00:00:00,PRATE,surface,-105.938,33.5432,6.65e-05
2015-09-02 00:00:00,2015-09-02 00:00:00,PRATE,surface,-105,33.5432,9.05e-05
2015-09-02 00:00:00,2015-09-02 00:00:00,PRATE,surface,-104.063,33.5432,8.9e-05
2015-09-02 00:00:00,2015-09-02 00:00:00,PRATE,surface,-103.125,33.5432,9.23e-05
2015-09-02 00:00:00,2015-09-02 00:00:00,PRATE,surface,-102.188,33.5432,0.0001085
2015-09-02 00:00:00,2015-09-02 00:00:00,PRATE,surface,-101.25,33.5432,0.0001147
2015-09-02 00:00:00,2015-09-02 00:00:00,PRATE,surface,-100.313,33.5432,0.0001012
2015-09-02 00:00:00,2015-09-02 00:00:00,PRATE,surface,-99.3754,33.5432,7.97e-05
2015-09-02 00:00:00,2015-09-02 00:00:00,PRATE,surface,-98.4379,33.5432,6.73e-05
2015-09-02 00:00:00,2015-09-02 00:00:00,PRATE,surface,-97.5004,33.5432,6.74e-05
2015-09-02 00:00:00,2015-09-02 00:00:00,PRATE,surface,-96.5629,33.5432,7.93e-05
2015-09-02 00:00:00,2015-09-02 00:00:00,PRATE,surface,-95.6254,33.5432,9.62e-05
2015-09-02 00:00:00,2015-09-02 00:00:00,PRATE,surface,-94.6879,33.5432,0.0001017
2015-09-02 00:00:00,2015-09-02 00:00:00,PRATE,surface,-93.7504,33.5432,9.26e-05
2015-09-02 00:00:00,2015-09-02 00:00:00,PRATE,surface,-92.8129,33.5432,8.2e-05
2015-09-02 00:00:00,2015-09-02 00:00:00,PRATE,surface,-107.813,34.4881,5.07e-05
2015-09-02 00:00:00,2015-09-02 00:00:00,PRATE,surface,-106.875,34.4881,4.91e-05
2015-09-02 00:00:00,2015-09-02 00:00:00,PRATE,surface,-105.938,34.4881,6.03e-05
2015-09-02 00:00:00,2015-09-02 00:00:00,PRATE,surface,-105,34.4881,8.91e-05
2015-09-02 00:00:00,2015-09-02 00:00:00,PRATE,surface,-104.063,34.4881,9.42e-05
2015-09-02 00:00:00,2015-09-02 00:00:00,PRATE,surface,-103.125,34.4881,9.27e-05
2015-09-02 00:00:00,2015-09-02 00:00:00,PRATE,surface,-102.188,34.4881,0.0001068
2015-09-02 00:00:00,2015-09-02 00:00:00,PRATE,surface,-101.25,34.4881,0.0001207
2015-09-02 00:00:00,2015-09-02 00:00:00,PRATE,surface,-100.313,34.4881,0.0001189
2015-09-02 00:00:00,2015-09-02 00:00:00,PRATE,surface,-99.3754,34.4881,0.0001045
2015-09-02 00:00:00,2015-09-02 00:00:00,PRATE,surface,-98.4379,34.4881,9.04e-05
2015-09-02 00:00:00,2015-09-02 00:00:00,PRATE,surface,-97.5004,34.4881,8.25e-05
2015-09-02 00:00:00,2015-09-02 00:00:00,PRATE,surface,-96.5629,34.4881,8.4e-05
2015-09-02 00:00:00,2015-09-02 00:00:00,PRATE,surface,-95.6254,34.4881,9.25e-05
2015-09-02 00:00:00,2015-09-02 00:00:00,PRATE,surface,-94.6879,34.4881,9.96e-05
2015-09-02 00:00:00,2015-09-02 00:00:00,PRATE,surface,-93.7504,34.4881,0.0001006
2015-09-02 00:00:00,2015-09-02 00:00:00,PRATE,surface,-92.8129,34.4881,9.23e-05
2015-09-02 00:00:00,2015-09-02 00:00:00,PRATE,surface,-107.813,35.4329,4.2e-05
2015-09-02 00:00:00,2015-09-02 00:00:00,PRATE,surface,-106.875,35.4329,4.4e-05
2015-09-02 00:00:00,2015-09-02 00:00:00,PRATE,surface,-105.938,35.4329,5.45e-05
2015-09-02 00:00:00,2015-09-02 00:00:00,PRATE,surface,-105,35.4329,8.35e-05
2015-09-02 00:00:00,2015-09-02 00:00:00,PRATE,surface,-104.063,35.4329,9.77e-05
2015-09-02 00:00:00,2015-09-02 00:00:00,PRATE,surface,-103.125,35.4329,0.0001004
2015-09-02 00:00:00,2015-09-02 00:00:00,PRATE,surface,-102.188,35.4329,0.000104
2015-09-02 00:00:00,2015-09-02 00:00:00,PRATE,surface,-101.25,35.4329,0.0001163
2015-09-02 00:00:00,2015-09-02 00:00:00,PRATE,surface,-100.313,35.4329,0.0001203
2015-09-02 00:00:00,2015-09-02 00:00:00,PRATE,surface,-99.3754,35.4329,0.000118
2015-09-02 00:00:00,2015-09-02 00:00:00,PRATE,surface,-98.4379,35.4329,0.0001135
2015-09-02 00:00:00,2015-09-02 00:00:00,PRATE,surface,-97.5004,35.4329,0.0001066
2015-09-02 00:00:00,2015-09-02 00:00:00,PRATE,surface,-96.5629,35.4329,0.0001008
2015-09-02 00:00:00,2015-09-02 00:00:00,PRATE,surface,-95.6254,35.4329,0.0001006
2015-09-02 00:00:00,2015-09-02 00:00:00,PRATE,surface,-94.6879,35.4329,0.0001034
2015-09-02 00:00:00,2015-09-02 00:00:00,PRATE,surface,-93.7504,35.4329,0.0001059
2015-09-02 00:00:00,2015-09-02 00:00:00,PRATE,surface,-92.8129,35.4329,0.0001093
2015-09-02 00:00:00,2015-09-02 00:00:00,PRATE,surface,-107.813,36.3778,4.49e-05
2015-09-02 00:00:00,2015-09-02 00:00:00,PRATE,surface,-106.875,36.3778,4.88e-05
2015-09-02 00:00:00,2015-09-02 00:00:00,PRATE,surface,-105.938,36.3778,5.31e-05
2015-09-02 00:00:00,2015-09-02 00:00:00,PRATE,surface,-105,36.3778,6.72e-05
2015-09-02 00:00:00,2015-09-02 00:00:00,PRATE,surface,-104.063,36.3778,8.48e-05
2015-09-02 00:00:00,2015-09-02 00:00:00,PRATE,surface,-103.125,36.3778,8.82e-05
2015-09-02 00:00:00,2015-09-02 00:00:00,PRATE,surface,-102.188,36.3778,9.09e-05
2015-09-02 00:00:00,2015-09-02 00:00:00,PRATE,surface,-101.25,36.3778,9.87e-05
2015-09-02 00:00:00,2015-09-02 00:00:00,PRATE,surface,-100.313,36.3778,0.000105
2015-09-02 00:00:00,2015-09-02 00:00:00,PRATE,surface,-99.3754,36.3778,0.0001095
2015-09-02 00:00:00,2015-09-02 00:00:00,PRATE,surface,-98.4379,36.3778,0.0001115
2015-09-02 00:00:00,2015-09-02 00:00:00,PRATE,surface,-97.5004,36.3778,0.0001114
2015-09-02 00:00:00,2015-09-02 00:00:00,PRATE,surface,-96.5629,36.3778,0.0001079
2015-09-02 00:00:00,2015-09-02 00:00:00,PRATE,surface,-95.6254,36.3778,0.0001042
2015-09-02 00:00:00,2015-09-02 00:00:00,PRATE,surface,-94.6879,36.3778,0.0001063
2015-09-02 00:00:00,2015-09-02 00:00:00,PRATE,surface,-93.7504,36.3778,0.0001101
2015-09-02 00:00:00,2015-09-02 00:00:00,PRATE,surface,-92.8129,36.3778,0.0001124
