2011-09-26 00:00:00,2011-09-26 00:00:00,TMP,surface,-107.813,25.0393,295.825
2011-09-26 00:00:00,2011-09-26 00:00:00,TMP,surface,-106.875,25.0393,290.963
2011-09-26 00:00:00,2011-09-26 00:00:00,TMP,surface,-105.938,25.0393,286.561
2011-09-26 00:00:00,2011-09-26 00:00:00,TMP,surface,-105,25.0393,287.686
2011-09-26 00:00:00,2011-09-26 00:00:00,TMP,surface,-104.063,25.0393,293.193
2011-09-26 00:00:00,2011-09-26 00:00:00,TMP,surface,-103.125,25.0393,295.384
2011-09-26 00:00:00,2011-09-26 00:00:00,TMP,surface,-102.188,25.0393,294.248
2011-09-26 00:00:00,2011-09-26 00:00:00,TMP,surface,-101.25,25.0393,292.425
2011-09-26 00:00:00,2011-09-26 00:00:00,TMP,surface,-100.313,25.0393,292.683
2011-09-26 00:00:00,2011-09-26 00:00:00,TMP,surface,-99.3754,25.0393,295.528
2011-09-26 00:00:00,2011-09-26 00:00:00,TMP,surface,-98.4379,25.0393,298.678
2011-09-26 00:00:00,2011-09-26 00:00:00,TMP,surface,-97.5004,25.0393,298.147
2011-09-26 00:00:00,2011-09-26 00:00:00,TMP,surface,-96.5629,25.0393,297.737
2011-09-26 00:00:00,2011-09-26 00:00:00,TMP,surface,-95.6254,25.0393,297.875
2011-09-26 00:00:00,2011-09-26 00:00:00,TMP,surface,-94.6879,25.0393,298.029
2011-09-26 00:00:00,2011-09-26 00:00:00,TMP,surface,-93.7504,25.0393,297.825
2011-09-26 00:00:00,2011-09-26 00:00:00,TMP,surface,-92.8129,25.0393,297.597
2011-09-26 00:00:00,2011-09-26 00:00:00,TMP,surface,-107.813,25.9842,292.341
2011-09-26 00:00:00,2011-09-26 00:00:00,TMP,surface,-106.875,25.9842,286.769
2011-09-26 00:00:00,2011-09-26 00:00:00,TMP,surface,-105.938,25.9842,286.08
2011-09-26 00:00:00,2011-09-26 00:00:00,TMP,surface,-105,25.9842,290.865
2011-09-26 00:00:00,2011-09-26 00:00:00,TMP,surface,-104.063,25.9842,296.051
2011-09-26 00:00:00,2011-09-26 00:00:00,TMP,surface,-103.125,25.9842,297.053
2011-09-26 00:00:00,2011-09-26 00:00:00,TMP,surface,-102.188,25.9842,296.149
2011-09-26 00:00:00,2011-09-26 00:00:00,TMP,surface,-101.25,25.9842,295.161
2011-09-26 00:00:00,2011-09-26 00:00:00,TMP,surface,-100.313,25.9842,295.229
2011-09-26 00:00:00,2011-09-26 00:00:00,TMP,surface,-99.3754,25.9842,297.817
2011-09-26 00:00:00,2011-09-26 00:00:00,TMP,surface,-98.4379,25.9842,299.157
2011-09-26 00:00:00,2011-09-26 00:00:00,TMP,surface,-97.5004,25.9842,298.597
2011-09-26 00:00:00,2011-09-26 00:00:00,TMP,surface,-96.5629,25.9842,296.637
2011-09-26 00:00:00,2011-09-26 00:00:00,TMP,surface,-95.6254,25.9842,297.099
2011-09-26 00:00:00,2011-09-26 00:00:00,TMP,surface,-94.6879,25.9842,297.389
2011-09-26 00:00:00,2011-09-26 00:00:00,TMP,surface,-93.7504,25.9842,297.345
2011-09-26 00:00:00,2011-09-26 00:00:00,TMP,surface,-92.8129,25.9842,297.361
2011-09-26 00:00:00,2011-09-26 00:00:00,TMP,surface,-107.813,26.929,287.23
2011-09-26 00:00:00,2011-09-26 00:00:00,TMP,surface,-106.875,26.929,284.715
2011-09-26 00:00:00,2011-09-26 00:00:00,TMP,surface,-105.938,26.929,288.241
2011-09-26 00:00:00,2011-09-26 00:00:00,TMP,surface,-105,26.929,293.854
2011-09-26 00:00:00,2011-09-26 00:00:00,TMP,surface,-104.063,26.929,296.086
2011-09-26 00:00:00,2011-09-26 00:00:00,TMP,surface,-103.125,26.929,295.694
2011-09-26 00:00:00,2011-09-26 00:00:00,TMP,surface,-102.188,26.929,295.331
2011-09-26 00:00:00,2011-09-26 00:00:00,TMP,surface,-101.25,26.929,295.905
2011-09-26 00:00:00,2011-09-26 00:00:00,TMP,surface,-100.313,26.929,297.334
2011-09-26 00:00:00,2011-09-26 00:00:00,TMP,surface,-99.3754,26.929,298.587
2011-09-26 00:00:00,2011-09-26 00:00:00,TMP,surface,-98.4379,26.929,297.877
2011-09-26 00:00:00,2011-09-26 00:00:00,TMP,surface,-97.5004,26.929,295.673
2011-09-26 00:00:00,2011-09-26 00:00:00,TMP,surface,-96.5629,26.929,295.528
2011-09-26 00:00:00,2011-09-26 00:00:00,TMP,surface,-95.6254,26.929,296.185
2011-09-26 00:00:00,2011-09-26 00:00:00,TMP,surface,-94.6879,26.929,296.715
2011-09-26 00:00:00,2011-09-26 00:00:00,TMP,surface,-93.7504,26.929,296.685
2011-09-26 00:00:00,2011-09-26 00:00:00,TMP,surface,-92.8129,26.929,296.709
2011-09-26 00:00:00,2011-09-26 00:00:00,TMP,surface,-107.813,27.8739,284.533
2011-09-26 00:00:00,2011-09-26 00:00:00,TMP,surface,-106.875,27.8739,285.193
2011-09-26 00:00:00,2011-09-26 00:00:00,TMP,surface,-105.938,27.8739,290.52
2011-09-26 00:00:00,2011-09-26 00:00:00,TMP,surface,-105,27.8739,294.307
2011-09-26 00:00:00,2011-09-26 00:00:00,TMP,surface,-104.063,27.8739,294.606
2011-09-26 00:00:00,2011-09-26 00:00:00,TMP,surface,-103.125,27.8739,293.849
2011-09-26 00:00:00,2011-09-26 00:00:00,TMP,surface,-102.188,27.8739,293.707
2011-09-26 00:00:00,2011-09-26 00:00:00,TMP,surface,-101.25,27.8739,295.217
2011-09-26 00:00:00,2011-09-26 00:00:00,TMP,surface,-100.313,27.8739,296.79
2011-09-26 00:00:00,2011-09-26 00:00:00,TMP,surface,-99.3754,27.8739,296.782
2011-09-26 00:00:00,2011-09-26 00:00:00,TMP,surface,-98.4379,27.8739,296.014
2011-09-26 00:00:00,2011-09-26 00:00:00,TMP,surface,-97.5004,27.8739,295.577
2011-09-26 00:00:00,2011-09-26 00:00:00,TMP,surface,-96.5629,27.8739,295.553
2011-09-26 00:00:00,2011-09-26 00:00:00,TMP,surface,-95.6254,27.8739,295.643
2011-09-26 00:00:00,2011-09-26 00:00:00,TMP,surface,-94.6879,27.8739,295.701
2011-09-26 00:00:00,2011-09-26 00:00:00,TMP,surface,-93.7504,27.8739,295.753
2011-09-26 00:00:00,2011-09-26 00:00:00,TMP,surface,-92.8129,27.8739,295.936
2011-09-26 00:00:00,2011-09-26 00:00:00,TMP,surface,-107.813,28.8188,283.654
2011-09-26 00:00:00,2011-09-26 00:00:00,TMP,surface,-106.875,28.8188,286.256
2011-09-26 00:00:00,2011-09-26 00:00:00,TMP,surface,-105.938,28.8188,291.173
2011-09-26 00:00:00,2011-09-26 00:00:00,TMP,surface,-105,28.8188,293.846
2011-09-26 00:00:00,2011-09-26 00:00:00,TMP,surface,-104.063,28.8188,293.259
2011-09-26 00:00:00,2011-09-26 00:00:00,TMP,surface,-103.125,28.8188,292.902
2011-09-26 00:00:00,2011-09-26 00:00:00,TMP,surface,-102.188,28.8188,292.976
2011-09-26 00:00:00,2011-09-26 00:00:00,TMP,surface,-101.25,28.8188,294.094
2011-09-26 00:00:00,2011-09-26 00:00:00,TMP,surface,-100.313,28.8188,294.433
2011-09-26 00:00:00,2011-09-26 00:00:00,TMP,surface,-99.3754,28.8188,294.035
2011-09-26 00:00:00,2011-09-26 00:00:00,TMP,surface,-98.4379,28.8188,293.849
2011-09-26 00:00:00,2011-09-26 00:00:00,TMP,surface,-97.5004,28.8188,294.205
2011-09-26 00:00:00,2011-09-26 00:00:00,TMP,surface,-96.5629,28.8188,294.721
2011-09-26 00:00:00,2011-09-26 00:00:00,TMP,surface,-95.6254,28.8188,294.677
2011-09-26 00:00:00,2011-09-26 00:00:00,TMP,surface,-94.6879,28.8188,294.267
2011-09-26 00:00:00,2011-09-26 00:00:00,TMP,surface,-93.7504,28.8188,294.549
2011-09-26 00:00:00,2011-09-26 00:00:00,TMP,surface,-92.8129,28.8188,294.845
2011-09-26 00:00:00,2011-09-26 00:00:00,TMP,surface,-107.813,29.7637,285.504
2011-09-26 00:00:00,2011-09-26 00:00:00,TMP,surface,-106.875,29.7637,288.069
2011-09-26 00:00:00,2011-09-26 00:00:00,TMP,surface,-105.938,29.7637,291.206
2011-09-26 00:00:00,2011-09-26 00:00:00,TMP,surface,-105,29.7637,292.117
2011-09-26 00:00:00,2011-09-26 00:00:00,TMP,surface,-104.063,29.7637,292.326
2011-09-26 00:00:00,2011-09-26 00:00:00,TMP,surface,-103.125,29.7637,293.221
2011-09-26 00:00:00,2011-09-26 00:00:00,TMP,surface,-102.188,29.7637,293.848
2011-09-26 00:00:00,2011-09-26 00:00:00,TMP,surface,-101.25,29.7637,293.501
2011-09-26 00:00:00,2011-09-26 00:00:00,TMP,surface,-100.313,29.7637,292.337
2011-09-26 00:00:00,2011-09-26 00:00:00,TMP,surface,-99.3754,29.7637,291.582
2011-09-26 00:00:00,2011-09-26 00:00:00,TMP,surface,-98.4379,29.7637,291.779
2011-09-26 00:00:00,2011-09-26 00:00:00,TMP,surface,-97.5004,29.7637,292.381
2011-09-26 00:00:00,2011-09-26 00:00:00,TMP,surface,-96.5629,29.7637,292.926
2011-09-26 00:00:00,2011-09-26 00:00:00,TMP,surface,-95.6254,29.7637,293.427
2011-09-26 00:00:00,2011-09-26 00:00:00,TMP,surface,-94.6879,29.7637,293.789
2011-09-26 00:00:00,2011-09-26 00:00:00,TMP,surface,-93.7504,29.7637,294.113
2011-09-26 00:00:00,2011-09-26 00:00:00,TMP,surface,-92.8129,29.7637,294.833
2011-09-26 00:00:00,2011-09-26 00:00:00,TMP,surface,-107.813,30.7085,288.341
2011-09-26 00:00:00,2011-09-26 00:00:00,TMP,surface,-106.875,30.7085,289.781
2011-09-26 00:00:00,2011-09-26 00:00:00,TMP,surface,-105.938,30.7085,290.629
2011-09-26 00:00:00,2011-09-26 00:00:00,TMP,surface,-105,30.7085,290.941
2011-09-26 00:00:00,2011-09-26 00:00:00,TMP,surface,-104.063,30.7085,291.256
2011-09-26 00:00:00,2011-09-26 00:00:00,TMP,surface,-103.125,30.7085,293.056
2011-09-26 00:00:00,2011-09-26 00:00:00,TMP,surface,-102.188,30.7085,293.872
2011-09-26 00:00:00,2011-09-26 00:00:00,TMP,surface,-101.25,30.7085,292.867
2011-09-26 00:00:00,2011-09-26 00:00:00,TMP,surface,-100.313,30.7085,291.355
2011-09-26 00:00:00,2011-09-26 00:00:00,TMP,surface,-99.3754,30.7085,290.606
2011-09-26 00:00:00,2011-09-26 00:00:00,TMP,surface,-98.4379,30.7085,290.88
2011-09-26 00:00:00,2011-09-26 00:00:00,TMP,surface,-97.5004,30.7085,291.523
2011-09-26 00:00:00,2011-09-26 00:00:00,TMP,surface,-96.5629,30.7085,292.286
2011-09-26 00:00:00,2011-09-26 00:00:00,TMP,surface,-95.6254,30.7085,292.981
2011-09-26 00:00:00,2011-09-26 00:00:00,TMP,surface,-94.6879,30.7085,293.262
2011-09-26 00:00:00,2011-09-26 00:00:00,TMP,surface,-93.7504,30.7085,293.393
2011-09-26 00:00:00,2011-09-26 00:00:00,TMP,surface,-92.8129,30.7085,293.133
2011-09-26 00:00:00,2011-09-26 00:00:00,TMP,surface,-107.813,31.6534,288.654
2011-09-26 00:00:00,2011-09-26 00:00:00,TMP,surface,-106.875,31.6534,289.515
2011-09-26 00:00:00,2011-09-26 00:00:00,TMP,surface,-105.938,31.6534,289.637
2011-09-26 00:00:00,2011-09-26 00:00:00,TMP,surface,-105,31.6534,289.843
2011-09-26 00:00:00,2011-09-26 00:00:00,TMP,surface,-104.063,31.6534,290.793
2011-09-26 00:00:00,2011-09-26 00:00:00,TMP,surface,-103.125,31.6534,292.313
2011-09-26 00:00:00,2011-09-26 00:00:00,TMP,surface,-102.188,31.6534,292.992
2011-09-26 00:00:00,2011-09-26 00:00:00,TMP,surface,-101.25,31.6534,292.195
2011-09-26 00:00:00,2011-09-26 00:00:00,TMP,surface,-100.313,31.6534,291.182
2011-09-26 00:00:00,2011-09-26 00:00:00,TMP,surface,-99.3754,31.6534,290.603
2011-09-26 00:00:00,2011-09-26 00:00:00,TMP,surface,-98.4379,31.6534,290.672
2011-09-26 00:00:00,2011-09-26 00:00:00,TMP,surface,-97.5004,31.6534,291.121
2011-09-26 00:00:00,2011-09-26 00:00:00,TMP,surface,-96.5629,31.6534,291.814
2011-09-26 00:00:00,2011-09-26 00:00:00,TMP,surface,-95.6254,31.6534,292.401
2011-09-26 00:00:00,2011-09-26 00:00:00,TMP,surface,-94.6879,31.6534,292.438
2011-09-26 00:00:00,2011-09-26 00:00:00,TMP,surface,-93.7504,31.6534,292.277
2011-09-26 00:00:00,2011-09-26 00:00:00,TMP,surface,-92.8129,31.6534,292.141
2011-09-26 00:00:00,2011-09-26 00:00:00,TMP,surface,-107.813,32.5983,285.613
2011-09-26 00:00:00,2011-09-26 00:00:00,TMP,surface,-106.875,32.5983,286.688
2011-09-26 00:00:00,2011-09-26 00:00:00,TMP,surface,-105.938,32.5983,287.528
2011-09-26 00:00:00,2011-09-26 00:00:00,TMP,surface,-105,32.5983,288.261
2011-09-26 00:00:00,2011-09-26 00:00:00,TMP,surface,-104.063,32.5983,289.662
2011-09-26 00:00:00,2011-09-26 00:00:00,TMP,surface,-103.125,32.5983,290.889
2011-09-26 00:00:00,2011-09-26 00:00:00,TMP,surface,-102.188,32.5983,291.296
2011-09-26 00:00:00,2011-09-26 00:00:00,TMP,surface,-101.25,32.5983,291.216
2011-09-26 00:00:00,2011-09-26 00:00:00,TMP,surface,-100.313,32.5983,291.149
2011-09-26 00:00:00,2011-09-26 00:00:00,TMP,surface,-99.3754,32.5983,290.984
2011-09-26 00:00:00,2011-09-26 00:00:00,TMP,surface,-98.4379,32.5983,290.811
2011-09-26 00:00:00,2011-09-26 00:00:00,TMP,surface,-97.5004,32.5983,290.808
2011-09-26 00:00:00,2011-09-26 00:00:00,TMP,surface,-96.5629,32.5983,291.149
2011-09-26 00:00:00,2011-09-26 00:00:00,TMP,surface,-95.6254,32.5983,291.59
2011-09-26 00:00:00,2011-09-26 00:00:00,TMP,surface,-94.6879,32.5983,291.641
2011-09-26 00:00:00,2011-09-26 00:00:00,TMP,surface,-93.7504,32.5983,291.465
2011-09-26 00:00:00,2011-09-26 00:00:00,TMP,surface,-92.8129,32.5983,291.472
2011-09-26 00:00:00,2011-09-26 00:00:00,TMP,surface,-107.813,33.5432,281.597
2011-09-26 00:00:00,2011-09-26 00:00:00,TMP,surface,-106.875,33.5432,283.55
2011-09-26 00:00:00,2011-09-26 00:00:00,TMP,surface,-105.938,33.5432,285.264
2011-09-26 00:00:00,2011-09-26 00:00:00,TMP,surface,-105,33.5432,286.921
2011-09-26 00:00:00,2011-09-26 00:00:00,TMP,surface,-104.063,33.5432,288.624
2011-09-26 00:00:00,2011-09-26 00:00:00,TMP,surface,-103.125,33.5432,289.227
2011-09-26 00:00:00,2011-09-26 00:00:00,TMP,surface,-102.188,33.5432,289.536
2011-09-26 00:00:00,2011-09-26 00:00:00,TMP,surface,-101.25,33.5432,289.817
2011-09-26 00:00:00,2011-09-26 00:00:00,TMP,surface,-100.313,33.5432,290.467
2011-09-26 00:00:00,2011-09-26 00:00:00,TMP,surface,-99.3754,33.5432,290.661
2011-09-26 00:00:00,2011-09-26 00:00:00,TMP,surface,-98.4379,33.5432,290.363
2011-09-26 00:00:00,2011-09-26 00:00:00,TMP,surface,-97.5004,33.5432,290.061
2011-09-26 00:00:00,2011-09-26 00:00:00,TMP,surface,-96.5629,33.5432,290.049
2011-09-26 00:00:00,2011-09-26 00:00:00,TMP,surface,-95.6254,33.5432,290.387
2011-09-26 00:00:00,2011-09-26 00:00:00,TMP,surface,-94.6879,33.5432,290.677
2011-09-26 00:00:00,2011-09-26 00:00:00,TMP,surface,-93.7504,33.5432,290.517
2011-09-26 00:00:00,2011-09-26 00:00:00,TMP,surface,-92.8129,33.5432,290.573
2011-09-26 00:00:00,2011-09-26 00:00:00,TMP,surface,-107.813,34.4881,279.665
2011-09-26 00:00:00,2011-09-26 00:00:00,TMP,surface,-106.875,34.4881,281.873
2011-09-26 00:00:00,2011-09-26 00:00:00,TMP,surface,-105.938,34.4881,283.75
2011-09-26 00:00:00,2011-09-26 00:00:00,TMP,surface,-105,34.4881,286.051
2011-09-26 00:00:00,2011-09-26 00:00:00,TMP,surface,-104.063,34.4881,287.174
2011-09-26 00:00:00,2011-09-26 00:00:00,TMP,surface,-103.125,34.4881,287.739
2011-09-26 00:00:00,2011-09-26 00:00:00,TMP,surface,-102.188,34.4881,288.04
2011-09-26 00:00:00,2011-09-26 00:00:00,TMP,surface,-101.25,34.4881,288.478
2011-09-26 00:00:00,2011-09-26 00:00:00,TMP,surface,-100.313,34.4881,288.989
2011-09-26 00:00:00,2011-09-26 00:00:00,TMP,surface,-99.3754,34.4881,289.323
2011-09-26 00:00:00,2011-09-26 00:00:00,TMP,surface,-98.4379,34.4881,289.245
2011-09-26 00:00:00,2011-09-26 00:00:00,TMP,surface,-97.5004,34.4881,289.099
2011-09-26 00:00:00,2011-09-26 00:00:00,TMP,surface,-96.5629,34.4881,289.429
2011-09-26 00:00:00,2011-09-26 00:00:00,TMP,surface,-95.6254,34.4881,289.888
2011-09-26 00:00:00,2011-09-26 00:00:00,TMP,surface,-94.6879,34.4881,289.777
2011-09-26 00:00:00,2011-09-26 00:00:00,TMP,surface,-93.7504,34.4881,289.427
2011-09-26 00:00:00,2011-09-26 00:00:00,TMP,surface,-92.8129,34.4881,289.414
2011-09-26 00:00:00,2011-09-26 00:00:00,TMP,surface,-107.813,35.4329,279.147
2011-09-26 00:00:00,2011-09-26 00:00:00,TMP,surface,-106.875,35.4329,280.133
2011-09-26 00:00:00,2011-09-26 00:00:00,TMP,surface,-105.938,35.4329,281.405
2011-09-26 00:00:00,2011-09-26 00:00:00,TMP,surface,-105,35.4329,283.245
2011-09-26 00:00:00,2011-09-26 00:00:00,TMP,surface,-104.063,35.4329,285.611
2011-09-26 00:00:00,2011-09-26 00:00:00,TMP,surface,-103.125,35.4329,286.789
2011-09-26 00:00:00,2011-09-26 00:00:00,TMP,surface,-102.188,35.4329,287.038
2011-09-26 00:00:00,2011-09-26 00:00:00,TMP,surface,-101.25,35.4329,287.299
2011-09-26 00:00:00,2011-09-26 00:00:00,TMP,surface,-100.313,35.4329,287.613
2011-09-26 00:00:00,2011-09-26 00:00:00,TMP,surface,-99.3754,35.4329,287.765
2011-09-26 00:00:00,2011-09-26 00:00:00,TMP,surface,-98.4379,35.4329,287.872
2011-09-26 00:00:00,2011-09-26 00:00:00,TMP,surface,-97.5004,35.4329,288.096
2011-09-26 00:00:00,2011-09-26 00:00:00,TMP,surface,-96.5629,35.4329,288.374
2011-09-26 00:00:00,2011-09-26 00:00:00,TMP,surface,-95.6254,35.4329,288.659
2011-09-26 00:00:00,2011-09-26 00:00:00,TMP,surface,-94.6879,35.4329,288.712
2011-09-26 00:00:00,2011-09-26 00:00:00,TMP,surface,-93.7504,35.4329,288.256
2011-09-26 00:00:00,2011-09-26 00:00:00,TMP,surface,-92.8129,35.4329,288.097
2011-09-26 00:00:00,2011-09-26 00:00:00,TMP,surface,-107.813,36.3778,277.731
2011-09-26 00:00:00,2011-09-26 00:00:00,TMP,surface,-106.875,36.3778,276.355
2011-09-26 00:00:00,2011-09-26 00:00:00,TMP,surface,-105.938,36.3778,277.403
2011-09-26 00:00:00,2011-09-26 00:00:00,TMP,surface,-105,36.3778,280.161
2011-09-26 00:00:00,2011-09-26 00:00:00,TMP,surface,-104.063,36.3778,283.353
2011-09-26 00:00:00,2011-09-26 00:00:00,TMP,surface,-103.125,36.3778,284.697
2011-09-26 00:00:00,2011-09-26 00:00:00,TMP,surface,-102.188,36.3778,285.281
2011-09-26 00:00:00,2011-09-26 00:00:00,TMP,surface,-101.25,36.3778,285.702
2011-09-26 00:00:00,2011-09-26 00:00:00,TMP,surface,-100.313,36.3778,286.429
2011-09-26 00:00:00,2011-09-26 00:00:00,TMP,surface,-99.3754,36.3778,286.95
2011-09-26 00:00:00,2011-09-26 00:00:00,TMP,surface,-98.4379,36.3778,286.998
2011-09-26 00:00:00,2011-09-26 00:00:00,TMP,surface,-97.5004,36.3778,287.141
2011-09-26 00:00:00,2011-09-26 00:00:00,TMP,surface,-96.5629,36.3778,287.486
2011-09-26 00:00:00,2011-09-26 00:00:00,TMP,surface,-95.6254,36.3778,287.777
2011-09-26 00:00:00,2011-09-26 00:00:00,TMP,surface,-94.6879,36.3778,287.792
2011-09-26 00:00:00,2011-09-26 00:00:00,TMP,surface,-93.7504,36.3778,287.249
2011-09-26 00:00:00,2011-09-26 00:00:00,TMP,surface,-92.8129,36.3778,286.957
2011-09-26 00:00:00,2011-09-26 00:00:00,PRATE,surface,-107.813,25.0393,2.8e-06
2011-09-26 00:00:00,2011-09-26 00:00:00,PRATE,surface,-106.875,25.0393,5.3e-06
2011-09-26 00:00:00,2011-09-26 00:00:00,PRATE,surface,-105.938,25.0393,8.1e-06
2011-09-26 00:00:00,2011-09-26 00:00:00,PRATE,surface,-105,25.0393,5.2e-06
2011-09-26 00:00:00,2011-09-26 00:00:00,PRATE,surface,-104.063,25.0393,3.1e-06
2011-09-26 00:00:00,2011-09-26 00:00:00,PRATE,surface,-103.125,25.0393,1.8e-06
2011-09-26 00:00:00,2011-09-26 00:00:00,PRATE,surface,-102.188,25.0393,2.8e-06
2011-09-26 00:00:00,2011-09-26 00:00:00,PRATE,surface,-101.25,25.0393,2.38e-05
2011-09-26 00:00:00,2011-09-26 00:00:00,PRATE,surface,-100.313,25.0393,9.55e-05
2011-09-26 00:00:00,2011-09-26 00:00:00,PRATE,surface,-99.3754,25.0393,0.0001079
2011-09-26 00:00:00,2011-09-26 00:00:00,PRATE,surface,-98.4379,25.0393,5.44e-05
2011-09-26 00:00:00,2011-09-26 00:00:00,PRATE,surface,-97.5004,25.0393,4.38e-05
2011-09-26 00:00:00,2011-09-26 00:00:00,PRATE,surface,-96.5629,25.0393,1.68e-05
2011-09-26 00:00:00,2011-09-26 00:00:00,PRATE,surface,-95.6254,25.0393,3.7e-06
2011-09-26 00:00:00,2011-09-26 00:00:00,PRATE,surface,-94.6879,25.0393,1.4e-06
2011-09-26 00:00:00,2011-09-26 00:00:00,PRATE,surface,-93.7504,25.0393,1.3e-06
2011-09-26 00:00:00,2011-09-26 00:00:00,PRATE,surface,-92.8129,25.0393,5e-07
2011-09-26 00:00:00,2011-09-26 00:00:00,PRATE,surface,-107.813,25.9842,8e-07
2011-09-26 00:00:00,2011-09-26 00:00:00,PRATE,surface,-106.875,25.9842,2.4e-06
2011-09-26 00:00:00,2011-09-26 00:00:00,PRATE,surface,-105.938,25.9842,4.3e-06
2011-09-26 00:00:00,2011-09-26 00:00:00,PRATE,surface,-105,25.9842,4e-06
2011-09-26 00:00:00,2011-09-26 00:00:00,PRATE,surface,-104.063,25.9842,1.4e-06
2011-09-26 00:00:00,2011-09-26 00:00:00,PRATE,surface,-103.125,25.9842,1.9e-06
2011-09-26 00:00:00,2011-09-26 00:00:00,PRATE,surface,-102.188,25.9842,6.4e-06
2011-09-26 00:00:00,2011-09-26 00:00:00,PRATE,surface,-101.25,25.9842,2.14e-05
2011-09-26 00:00:00,2011-09-26 00:00:00,PRATE,surface,-100.313,25.9842,6.74e-05
2011-09-26 00:00:00,2011-09-26 00:00:00,PRATE,surface,-99.3754,25.9842,5.35e-05
2011-09-26 00:00:00,2011-09-26 00:00:00,PRATE,surface,-98.4379,25.9842,3.91e-05
2011-09-26 00:00:00,2011-09-26 00:00:00,PRATE,surface,-97.5004,25.9842,3.82e-05
2011-09-26 00:00:00,2011-09-26 00:00:00,PRATE,surface,-96.5629,25.9842,1.96e-05
2011-09-26 00:00:00,2011-09-26 00:00:00,PRATE,surface,-95.6254,25.9842,1.01e-05
2011-09-26 00:00:00,2011-09-26 00:00:00,PRATE,surface,-94.6879,25.9842,6e-06
2011-09-26 00:00:00,2011-09-26 00:00:00,PRATE,surface,-93.7504,25.9842,3.3e-06
2011-09-26 00:00:00,2011-09-26 00:00:00,PRATE,surface,-92.8129,25.9842,1.9e-06
2011-09-26 00:00:00,2011-09-26 00:00:00,PRATE,surface,-107.813,26.929,1.9e-06
2011-09-26 00:00:00,2011-09-26 00:00:00,PRATE,surface,-106.875,26.929,1.5e-06
2011-09-26 00:00:00,2011-09-26 00:00:00,PRATE,surface,-105.938,26.929,9e-07
2011-09-26 00:00:00,2011-09-26 00:00:00,PRATE,surface,-105,26.929,1e-06
2011-09-26 00:00:00,2011-09-26 00:00:00,PRATE,surface,-104.063,26.929,4e-07
2011-09-26 00:00:00,2011-09-26 00:00:00,PRATE,surface,-103.125,26.929,5.5e-06
2011-09-26 00:00:00,2011-09-26 00:00:00,PRATE,surface,-102.188,26.929,1.77e-05
2011-09-26 00:00:00,2011-09-26 00:00:00,PRATE,surface,-101.25,26.929,5.35e-05
2011-09-26 00:00:00,2011-09-26 00:00:00,PRATE,surface,-100.313,26.929,4.26e-05
2011-09-26 00:00:00,2011-09-26 00:00:00,PRATE,surface,-99.3754,26.929,3.85e-05
2011-09-26 00:00:00,2011-09-26 00:00:00,PRATE,surface,-98.4379,26.929,5.64e-05
2011-09-26 00:00:00,2011-09-26 00:00:00,PRATE,surface,-97.5004,26.929,4.95e-05
2011-09-26 00:00:00,2011-09-26 00:00:00,PRATE,surface,-96.5629,26.929,1.43e-05
2011-09-26 00:00:00,2011-09-26 00:00:00,PRATE,surface,-95.6254,26.929,5.4e-06
2011-09-26 00:00:00,2011-09-26 00:00:00,PRATE,surface,-94.6879,26.929,2.3e-06
2011-09-26 00:00:00,2011-09-26 00:00:00,PRATE,surface,-93.7504,26.929,2.9e-06
2011-09-26 00:00:00,2011-09-26 00:00:00,PRATE,surface,-92.8129,26.929,1.8e-06
2011-09-26 00:00:00,2011-09-26 00:00:00,PRATE,surface,-107.813,27.8739,3.1e-06
2011-09-26 00:00:00,2011-09-26 00:00:00,PRATE,surface,-106.875,27.8739,1.7e-06
2011-09-26 00:00:00,2011-09-26 00:00:00,PRATE,surface,-105.938,27.8739,9e-07
2011-09-26 00:00:00,2011-09-26 00:00:00,PRATE,surface,-105,27.8739,7e-07
2011-09-26 00:00:00,2011-09-26 00:00:00,PRATE,surface,-104.063,27.8739,1.5e-06
2011-09-26 00:00:00,2011-09-26 00:00:00,PRATE,surface,-103.125,27.8739,1.39e-05
2011-09-26 00:00:00,2011-09-26 00:00:00,PRATE,surface,-102.188,27.8739,4.41e-05
2011-09-26 00:00:00,2011-09-26 00:00:00,PRATE,surface,-101.25,27.8739,4.33e-05
2011-09-26 00:00:00,2011-09-26 00:00:00,PRATE,surface,-100.313,27.8739,2.91e-05
2011-09-26 00:00:00,2011-09-26 00:00:00,PRATE,surface,-99.3754,27.8739,4.18e-05
2011-09-26 00:00:00,2011-09-26 00:00:00,PRATE,surface,-98.4379,27.8739,5.67e-05
2011-09-26 00:00:00,2011-09-26 00:00:00,PRATE,surface,-97.5004,27.8739,4.98e-05
2011-09-26 00:00:00,2011-09-26 00:00:00,PRATE,surface,-96.5629,27.8739,3.03e-05
2011-09-26 00:00:00,2011-09-26 00:00:00,PRATE,surface,-95.6254,27.8739,1.36e-05
2011-09-26 00:00:00,2011-09-26 00:00:00,PRATE,surface,-94.6879,27.8739,5.2e-06
2011-09-26 00:00:00,2011-09-26 00:00:00,PRATE,surface,-93.7504,27.8739,3.2e-06
2011-09-26 00:00:00,2011-09-26 00:00:00,PRATE,surface,-92.8129,27.8739,1.6e-06
2011-09-26 00:00:00,2011-09-26 00:00:00,PRATE,surface,-107.813,28.8188,3.6e-06
2011-09-26 00:00:00,2011-09-26 00:00:00,PRATE,surface,-106.875,28.8188,1.7e-06
2011-09-26 00:00:00,2011-09-26 00:00:00,PRATE,surface,-105.938,28.8188,9e-07
2011-09-26 00:00:00,2011-09-26 00:00:00,PRATE,surface,-105,28.8188,9e-07
2011-09-26 00:00:00,2011-09-26 00:00:00,PRATE,surface,-104.063,28.8188,5.9e-06
2011-09-26 00:00:00,2011-09-26 00:00:00,PRATE,surface,-103.125,28.8188,1.18e-05
2011-09-26 00:00:00,2011-09-26 00:00:00,PRATE,surface,-102.188,28.8188,2.59e-05
2011-09-26 00:00:00,2011-09-26 00:00:00,PRATE,surface,-101.25,28.8188,3.76e-05
2011-09-26 00:00:00,2011-09-26 00:00:00,PRATE,surface,-100.313,28.8188,4.97e-05
2011-09-26 00:00:00,2011-09-26 00:00:00,PRATE,surface,-99.3754,28.8188,5.65e-05
2011-09-26 00:00:00,2011-09-26 00:00:00,PRATE,surface,-98.4379,28.8188,6.58e-05
2011-09-26 00:00:00,2011-09-26 00:00:00,PRATE,surface,-97.5004,28.8188,6.93e-05
2011-09-26 00:00:00,2011-09-26 00:00:00,PRATE,surface,-96.5629,28.8188,5.79e-05
2011-09-26 00:00:00,2011-09-26 00:00:00,PRATE,surface,-95.6254,28.8188,4.22e-05
2011-09-26 00:00:00,2011-09-26 00:00:00,PRATE,surface,-94.6879,28.8188,2.9e-05
2011-09-26 00:00:00,2011-09-26 00:00:00,PRATE,surface,-93.7504,28.8188,1.42e-05
2011-09-26 00:00:00,2011-09-26 00:00:00,PRATE,surface,-92.8129,28.8188,9.1e-06
2011-09-26 00:00:00,2011-09-26 00:00:00,PRATE,surface,-107.813,29.7637,2.1e-06
2011-09-26 00:00:00,2011-09-26 00:00:00,PRATE,surface,-106.875,29.7637,1.3e-06
2011-09-26 00:00:00,2011-09-26 00:00:00,PRATE,surface,-105.938,29.7637,1.8e-06
2011-09-26 00:00:00,2011-09-26 00:00:00,PRATE,surface,-105,29.7637,6.1e-06
2011-09-26 00:00:00,2011-09-26 00:00:00,PRATE,surface,-104.063,29.7637,8.8e-06
2011-09-26 00:00:00,2011-09-26 00:00:00,PRATE,surface,-103.125,29.7637,7.7e-06
2011-09-26 00:00:00,2011-09-26 00:00:00,PRATE,surface,-102.188,29.7637,1.21e-05
2011-09-26 00:00:00,2011-09-26 00:00:00,PRATE,surface,-101.25,29.7637,2.91e-05
2011-09-26 00:00:00,2011-09-26 00:00:00,PRATE,surface,-100.313,29.7637,5.72e-05
2011-09-26 00:00:00,2011-09-26 00:00:00,PRATE,surface,-99.3754,29.7637,7.71e-05
2011-09-26 00:00:00,2011-09-26 00:00:00,PRATE,surface,-98.4379,29.7637,7.76e-05
2011-09-26 00:00:00,2011-09-26 00:00:00,PRATE,surface,-97.5004,29.7637,8.25e-05
2011-09-26 00:00:00,2011-09-26 00:00:00,PRATE,surface,-96.5629,29.7637,9.13e-05
2011-09-26 00:00:00,2011-09-26 00:00:00,PRATE,surface,-95.6254,29.7637,8.25e-05
2011-09-26 00:00:00,2011-09-26 00:00:00,PRATE,surface,-94.6879,29.7637,6.19e-05
2011-09-26 00:00:00,2011-09-26 00:00:00,PRATE,surface,-93.7504,29.7637,4.33e-05
2011-09-26 00:00:00,2011-09-26 00:00:00,PRATE,surface,-92.8129,29.7637,2.67e-05
2011-09-26 00:00:00,2011-09-26 00:00:00,PRATE,surface,-107.813,30.7085,1.2e-06
2011-09-26 00:00:00,2011-09-26 00:00:00,PRATE,surface,-106.875,30.7085,2e-06
2011-09-26 00:00:00,2011-09-26 00:00:00,PRATE,surface,-105.938,30.7085,5.2e-06
2011-09-26 00:00:00,2011-09-26 00:00:00,PRATE,surface,-105,30.7085,1.23e-05
2011-09-26 00:00:00,2011-09-26 00:00:00,PRATE,surface,-104.063,30.7085,1.22e-05
2011-09-26 00:00:00,2011-09-26 00:00:00,PRATE,surface,-103.125,30.7085,7.7e-06
2011-09-26 00:00:00,2011-09-26 00:00:00,PRATE,surface,-102.188,30.7085,9.4e-06
2011-09-26 00:00:00,2011-09-26 00:00:00,PRATE,surface,-101.25,30.7085,2.26e-05
2011-09-26 00:00:00,2011-09-26 00:00:00,PRATE,surface,-100.313,30.7085,4.51e-05
2011-09-26 00:00:00,2011-09-26 00:00:00,PRATE,surface,-99.3754,30.7085,6.27e-05
2011-09-26 00:00:00,2011-09-26 00:00:00,PRATE,surface,-98.4379,30.7085,5.94e-05
2011-09-26 00:00:00,2011-09-26 00:00:00,PRATE,surface,-97.5004,30.7085,6.21e-05
2011-09-26 00:00:00,2011-09-26 00:00:00,PRATE,surface,-96.5629,30.7085,8.39e-05
2011-09-26 00:00:00,2011-09-26 00:00:00,PRATE,surface,-95.6254,30.7085,9.45e-05
2011-09-26 00:00:00,2011-09-26 00:00:00,PRATE,surface,-94.6879,30.7085,8.09e-05
2011-09-26 00:00:00,2011-09-26 00:00:00,PRATE,surface,-93.7504,30.7085,6.77e-05
2011-09-26 00:00:00,2011-09-26 00:00:00,PRATE,surface,-92.8129,30.7085,6.6e-05
2011-09-26 00:00:00,2011-09-26 00:00:00,PRATE,surface,-107.813,31.6534,1.5e-06
2011-09-26 00:00:00,2011-09-26 00:00:00,PRATE,surface,-106.875,31.6534,2.4e-06
2011-09-26 00:00:00,2011-09-26 00:00:00,PRATE,surface,-105.938,31.6534,6.6e-06
2011-09-26 00:00:00,2011-09-26 00:00:00,PRATE,surface,-105,31.6534,1.37e-05
2011-09-26 00:00:00,2011-09-26 00:00:00,PRATE,surface,-104.063,31.6534,1.68e-05
2011-09-26 00:00:00,2011-09-26 00:00:00,PRATE,surface,-103.125,31.6534,1.2e-05
2011-09-26 00:00:00,2011-09-26 00:00:00,PRATE,surface,-102.188,31.6534,1.19e-05
2011-09-26 00:00:00,2011-09-26 00:00:00,PRATE,surface,-101.25,31.6534,2.36e-05
2011-09-26 00:00:00,2011-09-26 00:00:00,PRATE,surface,-100.313,31.6534,3.18e-05
2011-09-26 00:00:00,2011-09-26 00:00:00,PRATE,surface,-99.3754,31.6534,3.97e-05
2011-09-26 00:00:00,2011-09-26 00:00:00,PRATE,surface,-98.4379,31.6534,4.68e-05
2011-09-26 00:00:00,2011-09-26 00:00:00,PRATE,surface,-97.5004,31.6534,4.79e-05
2011-09-26 00:00:00,2011-09-26 00:00:00,PRATE,surface,-96.5629,31.6534,5.57e-05
2011-09-26 00:00:00,2011-09-26 00:00:00,PRATE,surface,-95.6254,31.6534,7.48e-05
2011-09-26 00:00:00,2011-09-26 00:00:00,PRATE,surface,-94.6879,31.6534,8.43e-05
2011-09-26 00:00:00,2011-09-26 00:00:00,PRATE,surface,-93.7504,31.6534,7.91e-05
2011-09-26 00:00:00,2011-09-26 00:00:00,PRATE,surface,-92.8129,31.6534,7.49e-05
2011-09-26 00:00:00,2011-09-26 00:00:00,PRATE,surface,-107.813,32.5983,3.8e-06
2011-09-26 00:00:00,2011-09-26 00:00:00,PRATE,surface,-106.875,32.5983,3.5e-06
2011-09-26 00:00:00,2011-09-26 00:00:00,PRATE,surface,-105.938,32.5983,8e-06
2011-09-26 00:00:00,2011-09-26 00:00:00,PRATE,surface,-105,32.5983,1.8e-05
2011-09-26 00:00:00,2011-09-26 00:00:00,PRATE,surface,-104.063,32.5983,1.96e-05
2011-09-26 00:00:00,2011-09-26 00:00:00,PRATE,surface,-103.125,32.5983,1.7e-05
2011-09-26 00:00:00,2011-09-26 00:00:00,PRATE,surface,-102.188,32.5983,2e-05
2011-09-26 00:00:00,2011-09-26 00:00:00,PRATE,surface,-101.25,32.5983,3.18e-05
2011-09-26 00:00:00,2011-09-26 00:00:00,PRATE,surface,-100.313,32.5983,3.68e-05
2011-09-26 00:00:00,2011-09-26 00:00:00,PRATE,surface,-99.3754,32.5983,3.73e-05
2011-09-26 00:00:00,2011-09-26 00:00:00,PRATE,surface,-98.4379,32.5983,4.57e-05
2011-09-26 00:00:00,2011-09-26 00:00:00,PRATE,surface,-97.5004,32.5983,5.71e-05
2011-09-26 00:00:00,2011-09-26 00:00:00,PRATE,surface,-96.5629,32.5983,6.14e-05
2011-09-26 00:00:00,2011-09-26 00:00:00,PRATE,surface,-95.6254,32.5983,6.4e-05
2011-09-26 00:00:00,2011-09-26 00:00:00,PRATE,surface,-94.6879,32.5983,7.42e-05
2011-09-26 00:00:00,2011-09-26 00:00:00,PRATE,surface,-93.7504,32.5983,8.57e-05
2011-09-26 00:00:00,2011-09-26 00:00:00,PRATE,surface,-92.8129,32.5983,8.55e-05
2011-09-26 00:00:00,2011-09-26 00:00:00,PRATE,surface,-107.813,33.5432,1.31e-05
2011-09-26 00:00:00,2011-09-26 00:00:00,PRATE,surface,-106.875,33.5432,9.2e-06
2011-09-26 00:00:00,2011-09-26 00:00:00,PRATE,surface,-105.938,33.5432,1.02e-05
2011-09-26 00:00:00,2011-09-26 00:00:00,PRATE,surface,-105,33.5432,1.54e-05
2011-09-26 00:00:00,2011-09-26 00:00:00,PRATE,surface,-104.063,33.5432,1.66e-05
2011-09-26 00:00:00,2011-09-26 00:00:00,PRATE,surface,-103.125,33.5432,2.34e-05
2011-09-26 00:00:00,2011-09-26 00:00:00,PRATE,surface,-102.188,33.5432,2.72e-05
2011-09-26 00:00:00,2011-09-26 00:00:00,PRATE,surface,-101.25,33.5432,3.25e-05
2011-09-26 00:00:00,2011-09-26 00:00:00,PRATE,surface,-100.313,33.5432,3.41e-05
2011-09-26 00:00:00,2011-09-26 00:00:00,PRATE,surface,-99.3754,33.5432,3.45e-05
2011-09-26 00:00:00,2011-09-26 00:00:00,PRATE,surface,-98.4379,33.5432,4.57e-05
2011-09-26 00:00:00,2011-09-26 00:00:00,PRATE,surface,-97.5004,33.5432,6.44e-05
2011-09-26 00:00:00,2011-09-26 00:00:00,PRATE,surface,-96.5629,33.5432,6.95e-05
2011-09-26 00:00:00,2011-09-26 00:00:00,PRATE,surface,-95.6254,33.5432,6.14e-05
2011-09-26 00:00:00,2011-09-26 00:00:00,PRATE,surface,-94.6879,33.5432,6.2e-05
2011-09-26 00:00:00,2011-09-26 00:00:00,PRATE,surface,-93.7504,33.5432,7e-05
2011-09-26 00:00:00,2011-09-26 00:00:00,PRATE,surface,-92.8129,33.5432,7.36e-05
2011-09-26 00:00:00,2011-09-26 00:00:00,PRATE,surface,-107.813,34.4881,1.69e-05
2011-09-26 00:00:00,2011-09-26 00:00:00,PRATE,surface,-106.875,34.4881,1e-05
2011-09-26 00:00:00,2011-09-26 00:00:00,PRATE,surface,-105.938,34.4881,5.5e-06
2011-09-26 00:00:00,2011-09-26 00:00:00,PRATE,surface,-105,34.4881,6.5e-06
2011-09-26 00:00:00,2011-09-26 00:00:00,PRATE,surface,-104.063,34.4881,8.8e-06
2011-09-26 00:00:00,2011-09-26 00:00:00,PRATE,surface,-103.125,34.4881,1.68e-05
2011-09-26 00:00:00,2011-09-26 00:00:00,PRATE,surface,-102.188,34.4881,2.69e-05
2011-09-26 00:00:00,2011-09-26 00:00:00,PRATE,surface,-101.25,34.4881,3.67e-05
2011-09-26 00:00:00,2011-09-26 00:00:00,PRATE,surface,-100.313,34.4881,3.89e-05
2011-09-26 00:00:00,2011-09-26 00:00:00,PRATE,surface,-99.3754,34.4881,4.1e-05
2011-09-26 00:00:00,2011-09-26 00:00:00,PRATE,surface,-98.4379,34.4881,5.38e-05
2011-09-26 00:00:00,2011-09-26 00:00:00,PRATE,surface,-97.5004,34.4881,6.52e-05
2011-09-26 00:00:00,2011-09-26 00:00:00,PRATE,surface,-96.5629,34.4881,6.61e-05
2011-09-26 00:00:00,2011-09-26 00:00:00,PRATE,surface,-95.6254,34.4881,6.33e-05
2011-09-26 00:00:00,2011-09-26 00:00:00,PRATE,surface,-94.6879,34.4881,6.18e-05
2011-09-26 00:00:00,2011-09-26 00:00:00,PRATE,surface,-93.7504,34.4881,6.14e-05
2011-09-26 00:00:00,2011-09-26 00:00:00,PRATE,surface,-92.8129,34.4881,6.51e-05
2011-09-26 00:00:00,2011-09-26 00:00:00,PRATE,surface,-107.813,35.4329,2e-05
2011-09-26 00:00:00,2011-09-26 00:00:00,PRATE,surface,-106.875,35.4329,1.23e-05
2011-09-26 00:00:00,2011-09-26 00:00:00,PRATE,surface,-105.938,35.4329,5.1e-06
2011-09-26 00:00:00,2011-09-26 00:00:00,PRATE,surface,-105,35.4329,6.9e-06
2011-09-26 00:00:00,2011-09-26 00:00:00,PRATE,surface,-104.063,35.4329,1.07e-05
2011-09-26 00:00:00,2011-09-26 00:00:00,PRATE,surface,-103.125,35.4329,1.86e-05
2011-09-26 00:00:00,2011-09-26 00:00:00,PRATE,surface,-102.188,35.4329,2.65e-05
2011-09-26 00:00:00,2011-09-26 00:00:00,PRATE,surface,-101.25,35.4329,3.45e-05
2011-09-26 00:00:00,2011-09-26 00:00:00,PRATE,surface,-100.313,35.4329,3.88e-05
2011-09-26 00:00:00,2011-09-26 00:00:00,PRATE,surface,-99.3754,35.4329,4.31e-05
2011-09-26 00:00:00,2011-09-26 00:00:00,PRATE,surface,-98.4379,35.4329,5.33e-05
2011-09-26 00:00:00,2011-09-26 00:00:00,PRATE,surface,-97.5004,35.4329,6.26e-05
2011-09-26 00:00:00,2011-09-26 00:00:00,PRATE,surface,-96.5629,35.4329,6.4e-05
2011-09-26 00:00:00,2011-09-26 00:00:00,PRATE,surface,-95.6254,35.4329,6.17e-05
2011-09-26 00:00:00,2011-09-26 00:00:00,PRATE,surface,-94.6879,35.4329,6.45e-05
2011-09-26 00:00:00,2011-09-26 00:00:00,PRATE,surface,-93.7504,35.4329,7.01e-05
2011-09-26 00:00:00,2011-09-26 00:00:00,PRATE,surface,-92.8129,35.4329,6.25e-05
2011-09-26 00:00:00,2011-09-26 00:00:00,PRATE,surface,-107.813,36.3778,4.24e-05
2011-09-26 00:00:00,2011-09-26 00:00:00,PRATE,surface,-106.875,36.3778,3.06e-05
2011-09-26 00:00:00,2011-09-26 00:00:00,PRATE,surface,-105.938,36.3778,1.76e-05
2011-09-26 00:00:00,2011-09-26 00:00:00,PRATE,surface,-105,36.3778,1.48e-05
2011-09-26 00:00:00,2011-09-26 00:00:00,PRATE,surface,-104.063,36.3778,1.83e-05
2011-09-26 00:00:00,2011-09-26 00:00:00,PRATE,surface,-103.125,36.3778,2.38e-05
2011-09-26 00:00:00,2011-09-26 00:00:00,PRATE,surface,-102.188,36.3778,2.96e-05
2011-09-26 00:00:00,2011-09-26 00:00:00,PRATE,surface,-101.25,36.3778,3.49e-05
2011-09-26 00:00:00,2011-09-26 00:00:00,PRATE,surface,-100.313,36.3778,3.6e-05
2011-09-26 00:00:00,2011-09-26 00:00:00,PRATE,surface,-99.3754,36.3778,3.72e-05
2011-09-26 00:00:00,2011-09-26 00:00:00,PRATE,surface,-98.4379,36.3778,4.43e-05
2011-09-26 00:00:00,2011-09-26 00:00:00,PRATE,surface,-97.5004,36.3778,5.78e-05
2011-09-26 00:00:00,2011-09-26 00:00:00,PRATE,surface,-96.5629,36.3778,6.54e-05
2011-09-26 00:00:00,2011-09-26 00:00:00,PRATE,surface,-95.6254,36.3778,6.48e-05
2011-09-26 00:00:00,2011-09-26 00:00:00,PRATE,surface,-94.6879,36.3778,6.68e-05
2011-09-26 00:00:00,2011-09-26 00:00:00,PRATE,surface,-93.7504,36.3778,6.78e-05
2011-09-26 00:00:00,2011-09-26 00:00:00,PRATE,surface,-92.8129,36.3778,6.37e-05
