2013-04-08 00:00:00,2013-04-08 00:00:00,TMP,surface,-107.813,25.0393,303.582
2013-04-08 00:00:00,2013-04-08 00:00:00,TMP,surface,-106.875,25.0393,296.6
2013-04-08 00:00:00,2013-04-08 00:00:00,TMP,surface,-105.938,25.0393,293.234
2013-04-08 00:00:00,2013-04-08 00:00:00,TMP,surface,-105,25.0393,289.835
2013-04-08 00:00:00,2013-04-08 00:00:00,TMP,surface,-104.063,25.0393,293.861
2013-04-08 00:00:00,2013-04-08 00:00:00,TMP,surface,-103.125,25.0393,297.226
2013-04-08 00:00:00,2013-04-08 00:00:00,TMP,surface,-102.188,25.0393,296.314
2013-04-08 00:00:00,2013-04-08 00:00:00,TMP,surface,-101.25,25.0393,293.675
2013-04-08 00:00:00,2013-04-08 00:00:00,TMP,surface,-100.313,25.0393,294.279
2013-04-08 00:00:00,2013-04-08 00:00:00,TMP,surface,-99.3754,25.0393,298.819
2013-04-08 00:00:00,2013-04-08 00:00:00,TMP,surface,-98.4379,25.0393,302.397
2013-04-08 00:00:00,2013-04-08 00:00:00,TMP,surface,-97.5004,25.0393,303.163
2013-04-08 00:00:00,2013-04-08 00:00:00,TMP,surface,-96.5629,25.0393,303.32
2013-04-08 00:00:00,2013-04-08 00:00:00,TMP,surface,-95.6254,25.0393,303.603
2013-04-08 00:00:00,2013-04-08 00:00:00,TMP,surface,-94.6879,25.0393,303.771
2013-04-08 00:00:00,2013-04-08 00:00:00,TMP,surface,-93.7504,25.0393,303.671
2013-04-08 00:00:00,2013-04-08 00:00:00,TMP,surface,-92.8129,25.0393,303.574
2013-04-08 00:00:00,2013-04-08 00:00:00,TMP,surface,-107.813,25.9842,299.37
2013-04-08 00:00:00,2013-04-08 00:00:00,TMP,surface,-106.875,25.9842,294.034
2013-04-08 00:00:00,2013-04-08 00:00:00,TMP,surface,-105.938,25.9842,291.149
2013-04-08 00:00:00,2013-04-08 00:00:00,TMP,surface,-105,25.9842,292.77
2013-04-08 00:00:00,2013-04-08 00:00:00,TMP,surface,-104.063,25.9842,298.04
2013-04-08 00:00:00,2013-04-08 00:00:00,TMP,surface,-103.125,25.9842,300.074
2013-04-08 00:00:00,2013-04-08 00:00:00,TMP,surface,-102.188,25.9842,298.723
2013-04-08 00:00:00,2013-04-08 00:00:00,TMP,surface,-101.25,25.9842,297.453
2013-04-08 00:00:00,2013-04-08 00:00:00,TMP,surface,-100.313,25.9842,298.861
2013-04-08 00:00:00,2013-04-08 00:00:00,TMP,surface,-99.3754,25.9842,302.421
2013-04-08 00:00:00,2013-04-08 00:00:00,TMP,surface,-98.4379,25.9842,303.842
2013-04-08 00:00:00,2013-04-08 00:00:00,TMP,surface,-97.5004,25.9842,302.552
2013-04-08 00:00:00,2013-04-08 00:00:00,TMP,surface,-96.5629,25.9842,302.618
2013-04-08 00:00:00,2013-04-08 00:00:00,TMP,surface,-95.6254,25.9842,303.498
2013-04-08 00:00:00,2013-04-08 00:00:00,TMP,surface,-94.6879,25.9842,303.784
2013-04-08 00:00:00,2013-04-08 00:00:00,TMP,surface,-93.7504,25.9842,303.898
2013-04-08 00:00:00,2013-04-08 00:00:00,TMP,surface,-92.8129,25.9842,303.96
2013-04-08 00:00:00,2013-04-08 00:00:00,TMP,surface,-107.813,26.929,295.302
2013-04-08 00:00:00,2013-04-08 00:00:00,TMP,surface,-106.875,26.929,292.477
2013-04-08 00:00:00,2013-04-08 00:00:00,TMP,surface,-105.938,26.929,292.845
2013-04-08 00:00:00,2013-04-08 00:00:00,TMP,surface,-105,26.929,297.493
2013-04-08 00:00:00,2013-04-08 00:00:00,TMP,surface,-104.063,26.929,300.544
2013-04-08 00:00:00,2013-04-08 00:00:00,TMP,surface,-103.125,26.929,300.027
2013-04-08 00:00:00,2013-04-08 00:00:00,TMP,surface,-102.188,26.929,298.803
2013-04-08 00:00:00,2013-04-08 00:00:00,TMP,surface,-101.25,26.929,299.789
2013-04-08 00:00:00,2013-04-08 00:00:00,TMP,surface,-100.313,26.929,302.875
2013-04-08 00:00:00,2013-04-08 00:00:00,TMP,surface,-99.3754,26.929,304.523
2013-04-08 00:00:00,2013-04-08 00:00:00,TMP,surface,-98.4379,26.929,303.36
2013-04-08 00:00:00,2013-04-08 00:00:00,TMP,surface,-97.5004,26.929,300.456
2013-04-08 00:00:00,2013-04-08 00:00:00,TMP,surface,-96.5629,26.929,301.698
2013-04-08 00:00:00,2013-04-08 00:00:00,TMP,surface,-95.6254,26.929,303.213
2013-04-08 00:00:00,2013-04-08 00:00:00,TMP,surface,-94.6879,26.929,303.667
2013-04-08 00:00:00,2013-04-08 00:00:00,TMP,surface,-93.7504,26.929,303.813
2013-04-08 00:00:00,2013-04-08 00:00:00,TMP,surface,-92.8129,26.929,303.991
2013-04-08 00:00:00,2013-04-08 00:00:00,TMP,surface,-107.813,27.8739,293.635
2013-04-08 00:00:00,2013-04-08 00:00:00,TMP,surface,-106.875,27.8739,292.498
2013-04-08 00:00:00,2013-04-08 00:00:00,TMP,surface,-105.938,27.8739,295.739
2013-04-08 00:00:00,2013-04-08 00:00:00,TMP,surface,-105,27.8739,299.672
2013-04-08 00:00:00,2013-04-08 00:00:00,TMP,surface,-104.063,27.8739,300.267
2013-04-08 00:00:00,2013-04-08 00:00:00,TMP,surface,-103.125,27.8739,298.426
2013-04-08 00:00:00,2013-04-08 00:00:00,TMP,surface,-102.188,27.8739,298.091
2013-04-08 00:00:00,2013-04-08 00:00:00,TMP,surface,-101.25,27.8739,301.286
2013-04-08 00:00:00,2013-04-08 00:00:00,TMP,surface,-100.313,27.8739,304.125
2013-04-08 00:00:00,2013-04-08 00:00:00,TMP,surface,-99.3754,27.8739,304.414
2013-04-08 00:00:00,2013-04-08 00:00:00,TMP,surface,-98.4379,27.8739,303.069
2013-04-08 00:00:00,2013-04-08 00:00:00,TMP,surface,-97.5004,27.8739,302
2013-04-08 00:00:00,2013-04-08 00:00:00,TMP,surface,-96.5629,27.8739,301.904
2013-04-08 00:00:00,2013-04-08 00:00:00,TMP,surface,-95.6254,27.8739,302.379
2013-04-08 00:00:00,2013-04-08 00:00:00,TMP,surface,-94.6879,27.8739,302.995
2013-04-08 00:00:00,2013-04-08 00:00:00,TMP,surface,-93.7504,27.8739,303.459
2013-04-08 00:00:00,2013-04-08 00:00:00,TMP,surface,-92.8129,27.8739,303.744
2013-04-08 00:00:00,2013-04-08 00:00:00,TMP,surface,-107.813,28.8188,293.274
2013-04-08 00:00:00,2013-04-08 00:00:00,TMP,surface,-106.875,28.8188,294.205
2013-04-08 00:00:00,2013-04-08 00:00:00,TMP,surface,-105.938,28.8188,298.17
2013-04-08 00:00:00,2013-04-08 00:00:00,TMP,surface,-105,28.8188,301.066
2013-04-08 00:00:00,2013-04-08 00:00:00,TMP,surface,-104.063,28.8188,300.235
2013-04-08 00:00:00,2013-04-08 00:00:00,TMP,surface,-103.125,28.8188,298.806
2013-04-08 00:00:00,2013-04-08 00:00:00,TMP,surface,-102.188,28.8188,299.08
2013-04-08 00:00:00,2013-04-08 00:00:00,TMP,surface,-101.25,28.8188,301.815
2013-04-08 00:00:00,2013-04-08 00:00:00,TMP,surface,-100.313,28.8188,303.586
2013-04-08 00:00:00,2013-04-08 00:00:00,TMP,surface,-99.3754,28.8188,303.33
2013-04-08 00:00:00,2013-04-08 00:00:00,TMP,surface,-98.4379,28.8188,302.541
2013-04-08 00:00:00,2013-04-08 00:00:00,TMP,surface,-97.5004,28.8188,302.283
2013-04-08 00:00:00,2013-04-08 00:00:00,TMP,surface,-96.5629,28.8188,302.333
2013-04-08 00:00:00,2013-04-08 00:00:00,TMP,surface,-95.6254,28.8188,301.943
2013-04-08 00:00:00,2013-04-08 00:00:00,TMP,surface,-94.6879,28.8188,301.501
2013-04-08 00:00:00,2013-04-08 00:00:00,TMP,surface,-93.7504,28.8188,302.074
2013-04-08 00:00:00,2013-04-08 00:00:00,TMP,surface,-92.8129,28.8188,302.363
2013-04-08 00:00:00,2013-04-08 00:00:00,TMP,surface,-107.813,29.7637,296.126
2013-04-08 00:00:00,2013-04-08 00:00:00,TMP,surface,-106.875,29.7637,297.526
2013-04-08 00:00:00,2013-04-08 00:00:00,TMP,surface,-105.938,29.7637,299.747
2013-04-08 00:00:00,2013-04-08 00:00:00,TMP,surface,-105,29.7637,301.33
2013-04-08 00:00:00,2013-04-08 00:00:00,TMP,surface,-104.063,29.7637,300.787
2013-04-08 00:00:00,2013-04-08 00:00:00,TMP,surface,-103.125,29.7637,300.4
2013-04-08 00:00:00,2013-04-08 00:00:00,TMP,surface,-102.188,29.7637,301.291
2013-04-08 00:00:00,2013-04-08 00:00:00,TMP,surface,-101.25,29.7637,302.213
2013-04-08 00:00:00,2013-04-08 00:00:00,TMP,surface,-100.313,29.7637,302.101
2013-04-08 00:00:00,2013-04-08 00:00:00,TMP,surface,-99.3754,29.7637,301.65
2013-04-08 00:00:00,2013-04-08 00:00:00,TMP,surface,-98.4379,29.7637,301.987
2013-04-08 00:00:00,2013-04-08 00:00:00,TMP,surface,-97.5004,29.7637,302.768
2013-04-08 00:00:00,2013-04-08 00:00:00,TMP,surface,-96.5629,29.7637,302.909
2013-04-08 00:00:00,2013-04-08 00:00:00,TMP,surface,-95.6254,29.7637,302.21
2013-04-08 00:00:00,2013-04-08 00:00:00,TMP,surface,-94.6879,29.7637,301.341
2013-04-08 00:00:00,2013-04-08 00:00:00,TMP,surface,-93.7504,29.7637,300.887
2013-04-08 00:00:00,2013-04-08 00:00:00,TMP,surface,-92.8129,29.7637,300.902
2013-04-08 00:00:00,2013-04-08 00:00:00,TMP,surface,-107.813,30.7085,300.466
2013-04-08 00:00:00,2013-04-08 00:00:00,TMP,surface,-106.875,30.7085,301.701
2013-04-08 00:00:00,2013-04-08 00:00:00,TMP,surface,-105.938,30.7085,301.686
2013-04-08 00:00:00,2013-04-08 00:00:00,TMP,surface,-105,30.7085,301.651
2013-04-08 00:00:00,2013-04-08 00:00:00,TMP,surface,-104.063,30.7085,300.738
2013-04-08 00:00:00,2013-04-08 00:00:00,TMP,surface,-103.125,30.7085,301.322
2013-04-08 00:00:00,2013-04-08 00:00:00,TMP,surface,-102.188,30.7085,301.923
2013-04-08 00:00:00,2013-04-08 00:00:00,TMP,surface,-101.25,30.7085,301.664
2013-04-08 00:00:00,2013-04-08 00:00:00,TMP,surface,-100.313,30.7085,301.317
2013-04-08 00:00:00,2013-04-08 00:00:00,TMP,surface,-99.3754,30.7085,301.322
2013-04-08 00:00:00,2013-04-08 00:00:00,TMP,surface,-98.4379,30.7085,302.096
2013-04-08 00:00:00,2013-04-08 00:00:00,TMP,surface,-97.5004,30.7085,303.106
2013-04-08 00:00:00,2013-04-08 00:00:00,TMP,surface,-96.5629,30.7085,303.215
2013-04-08 00:00:00,2013-04-08 00:00:00,TMP,surface,-95.6254,30.7085,302.301
2013-04-08 00:00:00,2013-04-08 00:00:00,TMP,surface,-94.6879,30.7085,301.28
2013-04-08 00:00:00,2013-04-08 00:00:00,TMP,surface,-93.7504,30.7085,300.77
2013-04-08 00:00:00,2013-04-08 00:00:00,TMP,surface,-92.8129,30.7085,300.626
2013-04-08 00:00:00,2013-04-08 00:00:00,TMP,surface,-107.813,31.6534,302.467
2013-04-08 00:00:00,2013-04-08 00:00:00,TMP,surface,-106.875,31.6534,302.954
2013-04-08 00:00:00,2013-04-08 00:00:00,TMP,surface,-105.938,31.6534,302.011
2013-04-08 00:00:00,2013-04-08 00:00:00,TMP,surface,-105,31.6534,301.574
2013-04-08 00:00:00,2013-04-08 00:00:00,TMP,surface,-104.063,31.6534,301.429
2013-04-08 00:00:00,2013-04-08 00:00:00,TMP,surface,-103.125,31.6534,301.709
2013-04-08 00:00:00,2013-04-08 00:00:00,TMP,surface,-102.188,31.6534,301.709
2013-04-08 00:00:00,2013-04-08 00:00:00,TMP,surface,-101.25,31.6534,301.368
2013-04-08 00:00:00,2013-04-08 00:00:00,TMP,surface,-100.313,31.6534,301.525
2013-04-08 00:00:00,2013-04-08 00:00:00,TMP,surface,-99.3754,31.6534,302.29
2013-04-08 00:00:00,2013-04-08 00:00:00,TMP,surface,-98.4379,31.6534,303.05
2013-04-08 00:00:00,2013-04-08 00:00:00,TMP,surface,-97.5004,31.6534,303.493
2013-04-08 00:00:00,2013-04-08 00:00:00,TMP,surface,-96.5629,31.6534,303.327
2013-04-08 00:00:00,2013-04-08 00:00:00,TMP,surface,-95.6254,31.6534,302.437
2013-04-08 00:00:00,2013-04-08 00:00:00,TMP,surface,-94.6879,31.6534,301.437
2013-04-08 00:00:00,2013-04-08 00:00:00,TMP,surface,-93.7504,31.6534,300.978
2013-04-08 00:00:00,2013-04-08 00:00:00,TMP,surface,-92.8129,31.6534,300.898
2013-04-08 00:00:00,2013-04-08 00:00:00,TMP,surface,-107.813,32.5983,299.786
2013-04-08 00:00:00,2013-04-08 00:00:00,TMP,surface,-106.875,32.5983,300.378
2013-04-08 00:00:00,2013-04-08 00:00:00,TMP,surface,-105.938,32.5983,300.509
2013-04-08 00:00:00,2013-04-08 00:00:00,TMP,surface,-105,32.5983,300.546
2013-04-08 00:00:00,2013-04-08 00:00:00,TMP,surface,-104.063,32.5983,300.666
2013-04-08 00:00:00,2013-04-08 00:00:00,TMP,surface,-103.125,32.5983,301.104
2013-04-08 00:00:00,2013-04-08 00:00:00,TMP,surface,-102.188,32.5983,301.151
2013-04-08 00:00:00,2013-04-08 00:00:00,TMP,surface,-101.25,32.5983,301.416
2013-04-08 00:00:00,2013-04-08 00:00:00,TMP,surface,-100.313,32.5983,302.594
2013-04-08 00:00:00,2013-04-08 00:00:00,TMP,surface,-99.3754,32.5983,303.85
2013-04-08 00:00:00,2013-04-08 00:00:00,TMP,surface,-98.4379,32.5983,304.259
2013-04-08 00:00:00,2013-04-08 00:00:00,TMP,surface,-97.5004,32.5983,303.728
2013-04-08 00:00:00,2013-04-08 00:00:00,TMP,surface,-96.5629,32.5983,303.045
2013-04-08 00:00:00,2013-04-08 00:00:00,TMP,surface,-95.6254,32.5983,302.456
2013-04-08 00:00:00,2013-04-08 00:00:00,TMP,surface,-94.6879,32.5983,301.525
2013-04-08 00:00:00,2013-04-08 00:00:00,TMP,surface,-93.7504,32.5983,300.725
2013-04-08 00:00:00,2013-04-08 00:00:00,TMP,surface,-92.8129,32.5983,300.651
2013-04-08 00:00:00,2013-04-08 00:00:00,TMP,surface,-107.813,33.5432,296.216
2013-04-08 00:00:00,2013-04-08 00:00:00,TMP,surface,-106.875,33.5432,297.557
2013-04-08 00:00:00,2013-04-08 00:00:00,TMP,surface,-105.938,33.5432,298.186
2013-04-08 00:00:00,2013-04-08 00:00:00,TMP,surface,-105,33.5432,299.483
2013-04-08 00:00:00,2013-04-08 00:00:00,TMP,surface,-104.063,33.5432,300.861
2013-04-08 00:00:00,2013-04-08 00:00:00,TMP,surface,-103.125,33.5432,300.978
2013-04-08 00:00:00,2013-04-08 00:00:00,TMP,surface,-102.188,33.5432,300.962
2013-04-08 00:00:00,2013-04-08 00:00:00,TMP,surface,-101.25,33.5432,301.842
2013-04-08 00:00:00,2013-04-08 00:00:00,TMP,surface,-100.313,33.5432,303.189
2013-04-08 00:00:00,2013-04-08 00:00:00,TMP,surface,-99.3754,33.5432,304.302
2013-04-08 00:00:00,2013-04-08 00:00:00,TMP,surface,-98.4379,33.5432,304.342
2013-04-08 00:00:00,2013-04-08 00:00:00,TMP,surface,-97.5004,33.5432,303.342
2013-04-08 00:00:00,2013-04-08 00:00:00,TMP,surface,-96.5629,33.5432,302.138
2013-04-08 00:00:00,2013-04-08 00:00:00,TMP,surface,-95.6254,33.5432,301.237
2013-04-08 00:00:00,2013-04-08 00:00:00,TMP,surface,-94.6879,33.5432,300.48
2013-04-08 00:00:00,2013-04-08 00:00:00,TMP,surface,-93.7504,33.5432,299.79
2013-04-08 00:00:00,2013-04-08 00:00:00,TMP,surface,-92.8129,33.5432,299.503
2013-04-08 00:00:00,2013-04-08 00:00:00,TMP,surface,-107.813,34.4881,294.608
2013-04-08 00:00:00,2013-04-08 00:00:00,TMP,surface,-106.875,34.4881,296.355
2013-04-08 00:00:00,2013-04-08 00:00:00,TMP,surface,-105.938,34.4881,297.178
2013-04-08 00:00:00,2013-04-08 00:00:00,TMP,surface,-105,34.4881,299.053
2013-04-08 00:00:00,2013-04-08 00:00:00,TMP,surface,-104.063,34.4881,300.327
2013-04-08 00:00:00,2013-04-08 00:00:00,TMP,surface,-103.125,34.4881,300.629
2013-04-08 00:00:00,2013-04-08 00:00:00,TMP,surface,-102.188,34.4881,301.104
2013-04-08 00:00:00,2013-04-08 00:00:00,TMP,surface,-101.25,34.4881,301.714
2013-04-08 00:00:00,2013-04-08 00:00:00,TMP,surface,-100.313,34.4881,302.589
2013-04-08 00:00:00,2013-04-08 00:00:00,TMP,surface,-99.3754,34.4881,303.112
2013-04-08 00:00:00,2013-04-08 00:00:00,TMP,surface,-98.4379,34.4881,302.864
2013-04-08 00:00:00,2013-04-08 00:00:00,TMP,surface,-97.5004,34.4881,301.973
2013-04-08 00:00:00,2013-04-08 00:00:00,TMP,surface,-96.5629,34.4881,301.011
2013-04-08 00:00:00,2013-04-08 00:00:00,TMP,surface,-95.6254,34.4881,300.198
2013-04-08 00:00:00,2013-04-08 00:00:00,TMP,surface,-94.6879,34.4881,299.226
2013-04-08 00:00:00,2013-04-08 00:00:00,TMP,surface,-93.7504,34.4881,298.331
2013-04-08 00:00:00,2013-04-08 00:00:00,TMP,surface,-92.8129,34.4881,298.242
2013-04-08 00:00:00,2013-04-08 00:00:00,TMP,surface,-107.813,35.4329,295.275
2013-04-08 00:00:00,2013-04-08 00:00:00,TMP,surface,-106.875,35.4329,295.435
2013-04-08 00:00:00,2013-04-08 00:00:00,TMP,surface,-105.938,35.4329,295.106
2013-04-08 00:00:00,2013-04-08 00:00:00,TMP,surface,-105,35.4329,295.851
2013-04-08 00:00:00,2013-04-08 00:00:00,TMP,surface,-104.063,35.4329,298.406
2013-04-08 00:00:00,2013-04-08 00:00:00,TMP,surface,-103.125,35.4329,299.968
2013-04-08 00:00:00,2013-04-08 00:00:00,TMP,surface,-102.188,35.4329,300.594
2013-04-08 00:00:00,2013-04-08 00:00:00,TMP,surface,-101.25,35.4329,300.887
2013-04-08 00:00:00,2013-04-08 00:00:00,TMP,surface,-100.313,35.4329,301.136
2013-04-08 00:00:00,2013-04-08 00:00:00,TMP,surface,-99.3754,35.4329,301.342
2013-04-08 00:00:00,2013-04-08 00:00:00,TMP,surface,-98.4379,35.4329,301.189
2013-04-08 00:00:00,2013-04-08 00:00:00,TMP,surface,-97.5004,35.4329,300.955
2013-04-08 00:00:00,2013-04-08 00:00:00,TMP,surface,-96.5629,35.4329,300.819
2013-04-08 00:00:00,2013-04-08 00:00:00,TMP,surface,-95.6254,35.4329,300.258
2013-04-08 00:00:00,2013-04-08 00:00:00,TMP,surface,-94.6879,35.4329,299.074
2013-04-08 00:00:00,2013-04-08 00:00:00,TMP,surface,-93.7504,35.4329,297.923
2013-04-08 00:00:00,2013-04-08 00:00:00,TMP,surface,-92.8129,35.4329,297.24
2013-04-08 00:00:00,2013-04-08 00:00:00,TMP,surface,-107.813,36.3778,294.683
2013-04-08 00:00:00,2013-04-08 00:00:00,TMP,surface,-106.875,36.3778,291.694
2013-04-08 00:00:00,2013-04-08 00:00:00,TMP,surface,-105.938,36.3778,291.754
2013-04-08 00:00:00,2013-04-08 00:00:00,TMP,surface,-105,36.3778,292.573
2013-04-08 00:00:00,2013-04-08 00:00:00,TMP,surface,-104.063,36.3778,295.41
2013-04-08 00:00:00,2013-04-08 00:00:00,TMP,surface,-103.125,36.3778,297.512
2013-04-08 00:00:00,2013-04-08 00:00:00,TMP,surface,-102.188,36.3778,299.234
2013-04-08 00:00:00,2013-04-08 00:00:00,TMP,surface,-101.25,36.3778,300.23
2013-04-08 00:00:00,2013-04-08 00:00:00,TMP,surface,-100.313,36.3778,300.517
2013-04-08 00:00:00,2013-04-08 00:00:00,TMP,surface,-99.3754,36.3778,300.223
2013-04-08 00:00:00,2013-04-08 00:00:00,TMP,surface,-98.4379,36.3778,300.005
2013-04-08 00:00:00,2013-04-08 00:00:00,TMP,surface,-97.5004,36.3778,300.014
2013-04-08 00:00:00,2013-04-08 00:00:00,TMP,surface,-96.5629,36.3778,300.072
2013-04-08 00:00:00,2013-04-08 00:00:00,TMP,surface,-95.6254,36.3778,299.727
2013-04-08 00:00:00,2013-04-08 00:00:00,TMP,surface,-94.6879,36.3778,298.653
2013-04-08 00:00:00,2013-04-08 00:00:00,TMP,surface,-93.7504,36.3778,297.504
2013-04-08 00:00:00,2013-04-08 00:00:00,TMP,surface,-92.8129,36.3778,296.879
2013-04-08 00:00:00,2013-04-08 00:00:00,PRATE,surface,-107.813,25.0393,0
2013-04-08 00:00:00,2013-04-08 00:00:00,PRATE,surface,-106.875,25.0393,6.91e-05
2013-04-08 00:00:00,2013-04-08 00:00:00,PRATE,surface,-105.938,25.0393,8.97e-05
2013-04-08 00:00:00,2013-04-08 00:00:00,PRATE,surface,-105,25.0393,4.71e-05
2013-04-08 00:00:00,2013-04-08 00:00:00,PRATE,surface,-104.063,25.0393,1e-05
2013-04-08 00:00:00,2013-04-08 00:00:00,PRATE,surface,-103.125,25.0393,4.7e-06
2013-04-08 00:00:00,2013-04-08 00:00:00,PRATE,surface,-102.188,25.0393,1.3e-05
2013-04-08 00:00:00,2013-04-08 00:00:00,PRATE,surface,-101.25,25.0393,3.43e-05
2013-04-08 00:00:00,2013-04-08 00:00:00,PRATE,surface,-100.313,25.0393,6.13e-05
2013-04-08 00:00:00,2013-04-08 00:00:00,PRATE,surface,-99.3754,25.0393,3.19e-05
2013-04-08 00:00:00,2013-04-08 00:00:00,PRATE,surface,-98.4379,25.0393,2.16e-05
2013-04-08 00:00:00,2013-04-08 00:00:00,PRATE,surface,-97.5004,25.0393,3.65e-05
2013-04-08 00:00:00,2013-04-08 00:00:00,PRATE,surface,-96.5629,25.0393,4.36e-05
2013-04-08 00:00:00,2013-04-08 00:00:00,PRATE,surface,-95.6254,25.0393,3.24e-05
2013-04-08 00:00:00,2013-04-08 00:00:00,PRATE,surface,-94.6879,25.0393,4.14e-05
2013-04-08 00:00:00,2013-04-08 00:00:00,PRATE,surface,-93.7504,25.0393,5.21e-05
2013-04-08 00:00:00,2013-04-08 00:00:00,PRATE,surface,-92.8129,25.0393,6.19e-05
2013-04-08 00:00:00,2013-04-08 00:00:00,PRATE,surface,-107.813,25.9842,3.61e-05
2013-04-08 00:00:00,2013-04-08 00:00:00,PRATE,surface,-106.875,25.9842,7.36e-05
2013-04-08 00:00:00,2013-04-08 00:00:00,PRATE,surface,-105.938,25.9842,4.4e-05
2013-04-08 00:00:00,2013-04-08 00:00:00,PRATE,surface,-105,25.9842,1.79e-05
2013-04-08 00:00:00,2013-04-08 00:00:00,PRATE,surface,-104.063,25.9842,2e-07
2013-04-08 00:00:00,2013-04-08 00:00:00,PRATE,surface,-103.125,25.9842,1.1e-06
2013-04-08 00:00:00,2013-04-08 00:00:00,PRATE,surface,-102.188,25.9842,3.7e-06
2013-04-08 00:00:00,2013-04-08 00:00:00,PRATE,surface,-101.25,25.9842,1.17e-05
2013-04-08 00:00:00,2013-04-08 00:00:00,PRATE,surface,-100.313,25.9842,3.03e-05
2013-04-08 00:00:00,2013-04-08 00:00:00,PRATE,surface,-99.3754,25.9842,1.93e-05
2013-04-08 00:00:00,2013-04-08 00:00:00,PRATE,surface,-98.4379,25.9842,2e-05
2013-04-08 00:00:00,2013-04-08 00:00:00,PRATE,surface,-97.5004,25.9842,5.09e-05
2013-04-08 00:00:00,2013-04-08 00:00:00,PRATE,surface,-96.5629,25.9842,7.69e-05
2013-04-08 00:00:00,2013-04-08 00:00:00,PRATE,surface,-95.6254,25.9842,7.96e-05
2013-04-08 00:00:00,2013-04-08 00:00:00,PRATE,surface,-94.6879,25.9842,6.57e-05
2013-04-08 00:00:00,2013-04-08 00:00:00,PRATE,surface,-93.7504,25.9842,8.13e-05
2013-04-08 00:00:00,2013-04-08 00:00:00,PRATE,surface,-92.8129,25.9842,6.42e-05
2013-04-08 00:00:00,2013-04-08 00:00:00,PRATE,surface,-107.813,26.929,5.45e-05
2013-04-08 00:00:00,2013-04-08 00:00:00,PRATE,surface,-106.875,26.929,2.92e-05
2013-04-08 00:00:00,2013-04-08 00:00:00,PRATE,surface,-105.938,26.929,1.41e-05
2013-04-08 00:00:00,2013-04-08 00:00:00,PRATE,surface,-105,26.929,1e-07
2013-04-08 00:00:00,2013-04-08 00:00:00,PRATE,surface,-104.063,26.929,1e-06
2013-04-08 00:00:00,2013-04-08 00:00:00,PRATE,surface,-103.125,26.929,4.4e-06
2013-04-08 00:00:00,2013-04-08 00:00:00,PRATE,surface,-102.188,26.929,2.8e-06
2013-04-08 00:00:00,2013-04-08 00:00:00,PRATE,surface,-101.25,26.929,3.3e-06
2013-04-08 00:00:00,2013-04-08 00:00:00,PRATE,surface,-100.313,26.929,6.5e-06
2013-04-08 00:00:00,2013-04-08 00:00:00,PRATE,surface,-99.3754,26.929,1.32e-05
2013-04-08 00:00:00,2013-04-08 00:00:00,PRATE,surface,-98.4379,26.929,2.22e-05
2013-04-08 00:00:00,2013-04-08 00:00:00,PRATE,surface,-97.5004,26.929,3.72e-05
2013-04-08 00:00:00,2013-04-08 00:00:00,PRATE,surface,-96.5629,26.929,4.28e-05
2013-04-08 00:00:00,2013-04-08 00:00:00,PRATE,surface,-95.6254,26.929,5.55e-05
2013-04-08 00:00:00,2013-04-08 00:00:00,PRATE,surface,-94.6879,26.929,6.21e-05
2013-04-08 00:00:00,2013-04-08 00:00:00,PRATE,surface,-93.7504,26.929,7.47e-05
2013-04-08 00:00:00,2013-04-08 00:00:00,PRATE,surface,-92.8129,26.929,6.81e-05
2013-04-08 00:00:00,2013-04-08 00:00:00,PRATE,surface,-107.813,27.8739,7e-05
2013-04-08 00:00:00,2013-04-08 00:00:00,PRATE,surface,-106.875,27.8739,1.96e-05
2013-04-08 00:00:00,2013-04-08 00:00:00,PRATE,surface,-105.938,27.8739,1.9e-06
2013-04-08 00:00:00,2013-04-08 00:00:00,PRATE,surface,-105,27.8739,8e-07
2013-04-08 00:00:00,2013-04-08 00:00:00,PRATE,surface,-104.063,27.8739,2.8e-06
2013-04-08 00:00:00,2013-04-08 00:00:00,PRATE,surface,-103.125,27.8739,1.63e-05
2013-04-08 00:00:00,2013-04-08 00:00:00,PRATE,surface,-102.188,27.8739,7.5e-06
2013-04-08 00:00:00,2013-04-08 00:00:00,PRATE,surface,-101.25,27.8739,2.9e-06
2013-04-08 00:00:00,2013-04-08 00:00:00,PRATE,surface,-100.313,27.8739,5e-06
2013-04-08 00:00:00,2013-04-08 00:00:00,PRATE,surface,-99.3754,27.8739,8.2e-06
2013-04-08 00:00:00,2013-04-08 00:00:00,PRATE,surface,-98.4379,27.8739,1.52e-05
2013-04-08 00:00:00,2013-04-08 00:00:00,PRATE,surface,-97.5004,27.8739,1.95e-05
2013-04-08 00:00:00,2013-04-08 00:00:00,PRATE,surface,-96.5629,27.8739,1.57e-05
2013-04-08 00:00:00,2013-04-08 00:00:00,PRATE,surface,-95.6254,27.8739,1.19e-05
2013-04-08 00:00:00,2013-04-08 00:00:00,PRATE,surface,-94.6879,27.8739,2.12e-05
2013-04-08 00:00:00,2013-04-08 00:00:00,PRATE,surface,-93.7504,27.8739,4.44e-05
2013-04-08 00:00:00,2013-04-08 00:00:00,PRATE,surface,-92.8129,27.8739,5.75e-05
2013-04-08 00:00:00,2013-04-08 00:00:00,PRATE,surface,-107.813,28.8188,4.05e-05
2013-04-08 00:00:00,2013-04-08 00:00:00,PRATE,surface,-106.875,28.8188,1.4e-05
2013-04-08 00:00:00,2013-04-08 00:00:00,PRATE,surface,-105.938,28.8188,1.8e-06
2013-04-08 00:00:00,2013-04-08 00:00:00,PRATE,surface,-105,28.8188,1.9e-06
2013-04-08 00:00:00,2013-04-08 00:00:00,PRATE,surface,-104.063,28.8188,2.2e-06
2013-04-08 00:00:00,2013-04-08 00:00:00,PRATE,surface,-103.125,28.8188,1.02e-05
2013-04-08 00:00:00,2013-04-08 00:00:00,PRATE,surface,-102.188,28.8188,2.8e-06
2013-04-08 00:00:00,2013-04-08 00:00:00,PRATE,surface,-101.25,28.8188,7e-07
2013-04-08 00:00:00,2013-04-08 00:00:00,PRATE,surface,-100.313,28.8188,4.1e-06
2013-04-08 00:00:00,2013-04-08 00:00:00,PRATE,surface,-99.3754,28.8188,7.3e-06
2013-04-08 00:00:00,2013-04-08 00:00:00,PRATE,surface,-98.4379,28.8188,8.6e-06
2013-04-08 00:00:00,2013-04-08 00:00:00,PRATE,surface,-97.5004,28.8188,7.8e-06
2013-04-08 00:00:00,2013-04-08 00:00:00,PRATE,surface,-96.5629,28.8188,7.9e-06
2013-04-08 00:00:00,2013-04-08 00:00:00,PRATE,surface,-95.6254,28.8188,9.3e-06
2013-04-08 00:00:00,2013-04-08 00:00:00,PRATE,surface,-94.6879,28.8188,8.9e-06
2013-04-08 00:00:00,2013-04-08 00:00:00,PRATE,surface,-93.7504,28.8188,1e-05
2013-04-08 00:00:00,2013-04-08 00:00:00,PRATE,surface,-92.8129,28.8188,2.06e-05
2013-04-08 00:00:00,2013-04-08 00:00:00,PRATE,surface,-107.813,29.7637,1.67e-05
2013-04-08 00:00:00,2013-04-08 00:00:00,PRATE,surface,-106.875,29.7637,7.1e-06
2013-04-08 00:00:00,2013-04-08 00:00:00,PRATE,surface,-105.938,29.7637,2.8e-06
2013-04-08 00:00:00,2013-04-08 00:00:00,PRATE,surface,-105,29.7637,4.1e-06
2013-04-08 00:00:00,2013-04-08 00:00:00,PRATE,surface,-104.063,29.7637,2.1e-06
2013-04-08 00:00:00,2013-04-08 00:00:00,PRATE,surface,-103.125,29.7637,2.3e-06
2013-04-08 00:00:00,2013-04-08 00:00:00,PRATE,surface,-102.188,29.7637,1.3e-06
2013-04-08 00:00:00,2013-04-08 00:00:00,PRATE,surface,-101.25,29.7637,1.8e-06
2013-04-08 00:00:00,2013-04-08 00:00:00,PRATE,surface,-100.313,29.7637,3.9e-06
2013-04-08 00:00:00,2013-04-08 00:00:00,PRATE,surface,-99.3754,29.7637,5.1e-06
2013-04-08 00:00:00,2013-04-08 00:00:00,PRATE,surface,-98.4379,29.7637,3.4e-06
2013-04-08 00:00:00,2013-04-08 00:00:00,PRATE,surface,-97.5004,29.7637,2.5e-06
2013-04-08 00:00:00,2013-04-08 00:00:00,PRATE,surface,-96.5629,29.7637,4e-06
2013-04-08 00:00:00,2013-04-08 00:00:00,PRATE,surface,-95.6254,29.7637,7.5e-06
2013-04-08 00:00:00,2013-04-08 00:00:00,PRATE,surface,-94.6879,29.7637,1.08e-05
2013-04-08 00:00:00,2013-04-08 00:00:00,PRATE,surface,-93.7504,29.7637,1.08e-05
2013-04-08 00:00:00,2013-04-08 00:00:00,PRATE,surface,-92.8129,29.7637,1.57e-05
2013-04-08 00:00:00,2013-04-08 00:00:00,PRATE,surface,-107.813,30.7085,2e-06
2013-04-08 00:00:00,2013-04-08 00:00:00,PRATE,surface,-106.875,30.7085,4.1e-06
2013-04-08 00:00:00,2013-04-08 00:00:00,PRATE,surface,-105.938,30.7085,4.4e-06
2013-04-08 00:00:00,2013-04-08 00:00:00,PRATE,surface,-105,30.7085,8.5e-06
2013-04-08 00:00:00,2013-04-08 00:00:00,PRATE,surface,-104.063,30.7085,3.7e-06
2013-04-08 00:00:00,2013-04-08 00:00:00,PRATE,surface,-103.125,30.7085,1e-06
2013-04-08 00:00:00,2013-04-08 00:00:00,PRATE,surface,-102.188,30.7085,2.9e-06
2013-04-08 00:00:00,2013-04-08 00:00:00,PRATE,surface,-101.25,30.7085,1.5e-05
2013-04-08 00:00:00,2013-04-08 00:00:00,PRATE,surface,-100.313,30.7085,1.41e-05
2013-04-08 00:00:00,2013-04-08 00:00:00,PRATE,surface,-99.3754,30.7085,1.01e-05
2013-04-08 00:00:00,2013-04-08 00:00:00,PRATE,surface,-98.4379,30.7085,4.7e-06
2013-04-08 00:00:00,2013-04-08 00:00:00,PRATE,surface,-97.5004,30.7085,1.2e-06
2013-04-08 00:00:00,2013-04-08 00:00:00,PRATE,surface,-96.5629,30.7085,2.8e-06
2013-04-08 00:00:00,2013-04-08 00:00:00,PRATE,surface,-95.6254,30.7085,5.3e-06
2013-04-08 00:00:00,2013-04-08 00:00:00,PRATE,surface,-94.6879,30.7085,7.3e-06
2013-04-08 00:00:00,2013-04-08 00:00:00,PRATE,surface,-93.7504,30.7085,1.16e-05
2013-04-08 00:00:00,2013-04-08 00:00:00,PRATE,surface,-92.8129,30.7085,1.36e-05
2013-04-08 00:00:00,2013-04-08 00:00:00,PRATE,surface,-107.813,31.6534,2.8e-06
2013-04-08 00:00:00,2013-04-08 00:00:00,PRATE,surface,-106.875,31.6534,5.4e-06
2013-04-08 00:00:00,2013-04-08 00:00:00,PRATE,surface,-105.938,31.6534,5.3e-06
2013-04-08 00:00:00,2013-04-08 00:00:00,PRATE,surface,-105,31.6534,1.03e-05
2013-04-08 00:00:00,2013-04-08 00:00:00,PRATE,surface,-104.063,31.6534,6.5e-06
2013-04-08 00:00:00,2013-04-08 00:00:00,PRATE,surface,-103.125,31.6534,1.7e-06
2013-04-08 00:00:00,2013-04-08 00:00:00,PRATE,surface,-102.188,31.6534,6.3e-06
2013-04-08 00:00:00,2013-04-08 00:00:00,PRATE,surface,-101.25,31.6534,2.95e-05
2013-04-08 00:00:00,2013-04-08 00:00:00,PRATE,surface,-100.313,31.6534,1.88e-05
2013-04-08 00:00:00,2013-04-08 00:00:00,PRATE,surface,-99.3754,31.6534,8e-06
2013-04-08 00:00:00,2013-04-08 00:00:00,PRATE,surface,-98.4379,31.6534,3.7e-06
2013-04-08 00:00:00,2013-04-08 00:00:00,PRATE,surface,-97.5004,31.6534,1.3e-06
2013-04-08 00:00:00,2013-04-08 00:00:00,PRATE,surface,-96.5629,31.6534,1.6e-06
2013-04-08 00:00:00,2013-04-08 00:00:00,PRATE,surface,-95.6254,31.6534,4e-06
2013-04-08 00:00:00,2013-04-08 00:00:00,PRATE,surface,-94.6879,31.6534,7.3e-06
2013-04-08 00:00:00,2013-04-08 00:00:00,PRATE,surface,-93.7504,31.6534,9.6e-06
2013-04-08 00:00:00,2013-04-08 00:00:00,PRATE,surface,-92.8129,31.6534,1.33e-05
2013-04-08 00:00:00,2013-04-08 00:00:00,PRATE,surface,-107.813,32.5983,2.1e-06
2013-04-08 00:00:00,2013-04-08 00:00:00,PRATE,surface,-106.875,32.5983,3.7e-06
2013-04-08 00:00:00,2013-04-08 00:00:00,PRATE,surface,-105.938,32.5983,4.4e-06
2013-04-08 00:00:00,2013-04-08 00:00:00,PRATE,surface,-105,32.5983,9.7e-06
2013-04-08 00:00:00,2013-04-08 00:00:00,PRATE,surface,-104.063,32.5983,8.2e-06
2013-04-08 00:00:00,2013-04-08 00:00:00,PRATE,surface,-103.125,32.5983,3.9e-06
2013-04-08 00:00:00,2013-04-08 00:00:00,PRATE,surface,-102.188,32.5983,8.6e-06
2013-04-08 00:00:00,2013-04-08 00:00:00,PRATE,surface,-101.25,32.5983,1.95e-05
2013-04-08 00:00:00,2013-04-08 00:00:00,PRATE,surface,-100.313,32.5983,9e-06
2013-04-08 00:00:00,2013-04-08 00:00:00,PRATE,surface,-99.3754,32.5983,2.4e-06
2013-04-08 00:00:00,2013-04-08 00:00:00,PRATE,surface,-98.4379,32.5983,2.4e-06
2013-04-08 00:00:00,2013-04-08 00:00:00,PRATE,surface,-97.5004,32.5983,3e-06
2013-04-08 00:00:00,2013-04-08 00:00:00,PRATE,surface,-96.5629,32.5983,2.6e-06
2013-04-08 00:00:00,2013-04-08 00:00:00,PRATE,surface,-95.6254,32.5983,2e-06
2013-04-08 00:00:00,2013-04-08 00:00:00,PRATE,surface,-94.6879,32.5983,6.2e-06
2013-04-08 00:00:00,2013-04-08 00:00:00,PRATE,surface,-93.7504,32.5983,1.26e-05
2013-04-08 00:00:00,2013-04-08 00:00:00,PRATE,surface,-92.8129,32.5983,1.04e-05
2013-04-08 00:00:00,2013-04-08 00:00:00,PRATE,surface,-107.813,33.5432,6.2e-06
2013-04-08 00:00:00,2013-04-08 00:00:00,PRATE,surface,-106.875,33.5432,3.9e-06
2013-04-08 00:00:00,2013-04-08 00:00:00,PRATE,surface,-105.938,33.5432,4.2e-06
2013-04-08 00:00:00,2013-04-08 00:00:00,PRATE,surface,-105,33.5432,1.07e-05
2013-04-08 00:00:00,2013-04-08 00:00:00,PRATE,surface,-104.063,33.5432,1.04e-05
2013-04-08 00:00:00,2013-04-08 00:00:00,PRATE,surface,-103.125,33.5432,8.6e-06
2013-04-08 00:00:00,2013-04-08 00:00:00,PRATE,surface,-102.188,33.5432,8.6e-06
2013-04-08 00:00:00,2013-04-08 00:00:00,PRATE,surface,-101.25,33.5432,6e-06
2013-04-08 00:00:00,2013-04-08 00:00:00,PRATE,surface,-100.313,33.5432,2.1e-06
2013-04-08 00:00:00,2013-04-08 00:00:00,PRATE,surface,-99.3754,33.5432,5e-07
2013-04-08 00:00:00,2013-04-08 00:00:00,PRATE,surface,-98.4379,33.5432,2.3e-06
2013-04-08 00:00:00,2013-04-08 00:00:00,PRATE,surface,-97.5004,33.5432,5.7e-06
2013-04-08 00:00:00,2013-04-08 00:00:00,PRATE,surface,-96.5629,33.5432,1.08e-05
2013-04-08 00:00:00,2013-04-08 00:00:00,PRATE,surface,-95.6254,33.5432,1.71e-05
2013-04-08 00:00:00,2013-04-08 00:00:00,PRATE,surface,-94.6879,33.5432,2.37e-05
2013-04-08 00:00:00,2013-04-08 00:00:00,PRATE,surface,-93.7504,33.5432,2.79e-05
2013-04-08 00:00:00,2013-04-08 00:00:00,PRATE,surface,-92.8129,33.5432,2.3e-05
2013-04-08 00:00:00,2013-04-08 00:00:00,PRATE,surface,-107.813,34.4881,1.5e-05
2013-04-08 00:00:00,2013-04-08 00:00:00,PRATE,surface,-106.875,34.4881,4.9e-06
2013-04-08 00:00:00,2013-04-08 00:00:00,PRATE,surface,-105.938,34.4881,5.9e-06
2013-04-08 00:00:00,2013-04-08 00:00:00,PRATE,surface,-105,34.4881,1.27e-05
2013-04-08 00:00:00,2013-04-08 00:00:00,PRATE,surface,-104.063,34.4881,1.94e-05
2013-04-08 00:00:00,2013-04-08 00:00:00,PRATE,surface,-103.125,34.4881,1.7e-05
2013-04-08 00:00:00,2013-04-08 00:00:00,PRATE,surface,-102.188,34.4881,1.28e-05
2013-04-08 00:00:00,2013-04-08 00:00:00,PRATE,surface,-101.25,34.4881,9.8e-06
2013-04-08 00:00:00,2013-04-08 00:00:00,PRATE,surface,-100.313,34.4881,7.3e-06
2013-04-08 00:00:00,2013-04-08 00:00:00,PRATE,surface,-99.3754,34.4881,6e-06
2013-04-08 00:00:00,2013-04-08 00:00:00,PRATE,surface,-98.4379,34.4881,1.03e-05
2013-04-08 00:00:00,2013-04-08 00:00:00,PRATE,surface,-97.5004,34.4881,1.53e-05
2013-04-08 00:00:00,2013-04-08 00:00:00,PRATE,surface,-96.5629,34.4881,2.03e-05
2013-04-08 00:00:00,2013-04-08 00:00:00,PRATE,surface,-95.6254,34.4881,3.15e-05
2013-04-08 00:00:00,2013-04-08 00:00:00,PRATE,surface,-94.6879,34.4881,4.54e-05
2013-04-08 00:00:00,2013-04-08 00:00:00,PRATE,surface,-93.7504,34.4881,4.8e-05
2013-04-08 00:00:00,2013-04-08 00:00:00,PRATE,surface,-92.8129,34.4881,3.69e-05
2013-04-08 00:00:00,2013-04-08 00:00:00,PRATE,surface,-107.813,35.4329,6.5e-06
2013-04-08 00:00:00,2013-04-08 00:00:00,PRATE,surface,-106.875,35.4329,2.6e-06
2013-04-08 00:00:00,2013-04-08 00:00:00,PRATE,surface,-105.938,35.4329,8.1e-06
2013-04-08 00:00:00,2013-04-08 00:00:00,PRATE,surface,-105,35.4329,3.37e-05
2013-04-08 00:00:00,2013-04-08 00:00:00,PRATE,surface,-104.063,35.4329,2.8e-05
2013-04-08 00:00:00,2013-04-08 00:00:00,PRATE,surface,-103.125,35.4329,2.64e-05
2013-04-08 00:00:00,2013-04-08 00:00:00,PRATE,surface,-102.188,35.4329,2.94e-05
2013-04-08 00:00:00,2013-04-08 00:00:00,PRATE,surface,-101.25,35.4329,3.53e-05
2013-04-08 00:00:00,2013-04-08 00:00:00,PRATE,surface,-100.313,35.4329,3.16e-05
2013-04-08 00:00:00,2013-04-08 00:00:00,PRATE,surface,-99.3754,35.4329,2.59e-05
2013-04-08 00:00:00,2013-04-08 00:00:00,PRATE,surface,-98.4379,35.4329,2.49e-05
2013-04-08 00:00:00,2013-04-08 00:00:00,PRATE,surface,-97.5004,35.4329,2.08e-05
2013-04-08 00:00:00,2013-04-08 00:00:00,PRATE,surface,-96.5629,35.4329,1.44e-05
2013-04-08 00:00:00,2013-04-08 00:00:00,PRATE,surface,-95.6254,35.4329,1.44e-05
2013-04-08 00:00:00,2013-04-08 00:00:00,PRATE,surface,-94.6879,35.4329,1.86e-05
2013-04-08 00:00:00,2013-04-08 00:00:00,PRATE,surface,-93.7504,35.4329,1.92e-05
2013-04-08 00:00:00,2013-04-08 00:00:00,PRATE,surface,-92.8129,35.4329,1.77e-05
2013-04-08 00:00:00,2013-04-08 00:00:00,PRATE,surface,-107.813,36.3778,6.7e-06
2013-04-08 00:00:00,2013-04-08 00:00:00,PRATE,surface,-106.875,36.3778,2.1e-05
2013-04-08 00:00:00,2013-04-08 00:00:00,PRATE,surface,-105.938,36.3778,3.63e-05
2013-04-08 00:00:00,2013-04-08 00:00:00,PRATE,surface,-105,36.3778,4.73e-05
2013-04-08 00:00:00,2013-04-08 00:00:00,PRATE,surface,-104.063,36.3778,3.76e-05
2013-04-08 00:00:00,2013-04-08 00:00:00,PRATE,surface,-103.125,36.3778,4.01e-05
2013-04-08 00:00:00,2013-04-08 00:00:00,PRATE,surface,-102.188,36.3778,4.14e-05
2013-04-08 00:00:00,2013-04-08 00:00:00,PRATE,surface,-101.25,36.3778,3.75e-05
2013-04-08 00:00:00,2013-04-08 00:00:00,PRATE,surface,-100.313,36.3778,2.83e-05
2013-04-08 00:00:00,2013-04-08 00:00:00,PRATE,surface,-99.3754,36.3778,2.14e-05
2013-04-08 00:00:00,2013-04-08 00:00:00,PRATE,surface,-98.4379,36.3778,1.77e-05
2013-04-08 00:00:00,2013-04-08 00:00:00,PRATE,surface,-97.5004,36.3778,1.47e-05
2013-04-08 00:00:00,2013-04-08 00:00:00,PRATE,surface,-96.5629,36.3778,1.18e-05
2013-04-08 00:00:00,2013-04-08 00:00:00,PRATE,surface,-95.6254,36.3778,1.06e-05
2013-04-08 00:00:00,2013-04-08 00:00:00,PRATE,surface,-94.6879,36.3778,1.11e-05
2013-04-08 00:00:00,2013-04-08 00:00:00,PRATE,surface,-93.7504,36.3778,1.03e-05
2013-04-08 00:00:00,2013-04-08 00:00:00,PRATE,surface,-92.8129,36.3778,8.7e-06
