2014-09-15 00:00:00,2014-09-15 00:00:00,TMP,surface,-107.813,25.0393,289.194
2014-09-15 00:00:00,2014-09-15 00:00:00,TMP,surface,-106.875,25.0393,283.514
2014-09-15 00:00:00,2014-09-15 00:00:00,TMP,surface,-105.938,25.0393,278.661
2014-09-15 00:00:00,2014-09-15 00:00:00,TMP,surface,-105,25.0393,277.48
2014-09-15 00:00:00,2014-09-15 00:00:00,TMP,surface,-104.063,25.0393,280.747
2014-09-15 00:00:00,2014-09-15 00:00:00,TMP,surface,-103.125,25.0393,282.607
2014-09-15 00:00:00,2014-09-15 00:00:00,TMP,surface,-102.188,25.0393,282.266
2014-09-15 00:00:00,2014-09-15 00:00:00,TMP,surface,-101.25,25.0393,280.216
2014-09-15 00:00:00,2014-09-15 00:00:00,TMP,surface,-100.313,25.0393,279.607
2014-09-15 00:00:00,2014-09-15 00:00:00,TMP,surface,-99.3754,25.0393,280.685
2014-09-15 00:00:00,2014-09-15 00:00:00,TMP,surface,-98.4379,25.0393,282.844
2014-09-15 00:00:00,2014-09-15 00:00:00,TMP,surface,-97.5004,25.0393,291.648
2014-09-15 00:00:00,2014-09-15 00:00:00,TMP,surface,-96.5629,25.0393,292.035
2014-09-15 00:00:00,2014-09-15 00:00:00,TMP,surface,-95.6254,25.0393,292.228
2014-09-15 00:00:00,2014-09-15 00:00:00,TMP,surface,-94.6879,25.0393,292.869
2014-09-15 00:00:00,2014-09-15 00:00:00,TMP,surface,-93.7504,25.0393,293.474
2014-09-15 00:00:00,2014-09-15 00:00:00,TMP,surface,-92.8129,25.0393,293.912
2014-09-15 00:00:00,2014-09-15 00:00:00,TMP,surface,-107.813,25.9842,284.583
2014-09-15 00:00:00,2014-09-15 00:00:00,TMP,surface,-106.875,25.9842,279.154
2014-09-15 00:00:00,2014-09-15 00:00:00,TMP,surface,-105.938,25.9842,276.981
2014-09-15 00:00:00,2014-09-15 00:00:00,TMP,surface,-105,25.9842,278.639
2014-09-15 00:00:00,2014-09-15 00:00:00,TMP,surface,-104.063,25.9842,281.707
2014-09-15 00:00:00,2014-09-15 00:00:00,TMP,surface,-103.125,25.9842,282.338
2014-09-15 00:00:00,2014-09-15 00:00:00,TMP,surface,-102.188,25.9842,281.295
2014-09-15 00:00:00,2014-09-15 00:00:00,TMP,surface,-101.25,25.9842,279.613
2014-09-15 00:00:00,2014-09-15 00:00:00,TMP,surface,-100.313,25.9842,278.732
2014-09-15 00:00:00,2014-09-15 00:00:00,TMP,surface,-99.3754,25.9842,279.612
2014-09-15 00:00:00,2014-09-15 00:00:00,TMP,surface,-98.4379,25.9842,281.568
2014-09-15 00:00:00,2014-09-15 00:00:00,TMP,surface,-97.5004,25.9842,284.138
2014-09-15 00:00:00,2014-09-15 00:00:00,TMP,surface,-96.5629,25.9842,291.591
2014-09-15 00:00:00,2014-09-15 00:00:00,TMP,surface,-95.6254,25.9842,291.639
2014-09-15 00:00:00,2014-09-15 00:00:00,TMP,surface,-94.6879,25.9842,292.128
2014-09-15 00:00:00,2014-09-15 00:00:00,TMP,surface,-93.7504,25.9842,292.541
2014-09-15 00:00:00,2014-09-15 00:00:00,TMP,surface,-92.8129,25.9842,293.088
2014-09-15 00:00:00,2014-09-15 00:00:00,TMP,surface,-107.813,26.929,279.828
2014-09-15 00:00:00,2014-09-15 00:00:00,TMP,surface,-106.875,26.929,276.429
2014-09-15 00:00:00,2014-09-15 00:00:00,TMP,surface,-105.938,26.929,277.821
2014-09-15 00:00:00,2014-09-15 00:00:00,TMP,surface,-105,26.929,280.295
2014-09-15 00:00:00,2014-09-15 00:00:00,TMP,surface,-104.063,26.929,280.836
2014-09-15 00:00:00,2014-09-15 00:00:00,TMP,surface,-103.125,26.929,279.509
2014-09-15 00:00:00,2014-09-15 00:00:00,TMP,surface,-102.188,26.929,278.536
2014-09-15 00:00:00,2014-09-15 00:00:00,TMP,surface,-101.25,26.929,278.159
2014-09-15 00:00:00,2014-09-15 00:00:00,TMP,surface,-100.313,26.929,278.216
2014-09-15 00:00:00,2014-09-15 00:00:00,TMP,surface,-99.3754,26.929,278.594
2014-09-15 00:00:00,2014-09-15 00:00:00,TMP,surface,-98.4379,26.929,279.693
2014-09-15 00:00:00,2014-09-15 00:00:00,TMP,surface,-97.5004,26.929,290.096
2014-09-15 00:00:00,2014-09-15 00:00:00,TMP,surface,-96.5629,26.929,291.272
2014-09-15 00:00:00,2014-09-15 00:00:00,TMP,surface,-95.6254,26.929,291.28
2014-09-15 00:00:00,2014-09-15 00:00:00,TMP,surface,-94.6879,26.929,291.786
2014-09-15 00:00:00,2014-09-15 00:00:00,TMP,surface,-93.7504,26.929,292.069
2014-09-15 00:00:00,2014-09-15 00:00:00,TMP,surface,-92.8129,26.929,292.304
2014-09-15 00:00:00,2014-09-15 00:00:00,TMP,surface,-107.813,27.8739,276.992
2014-09-15 00:00:00,2014-09-15 00:00:00,TMP,surface,-106.875,27.8739,275.844
2014-09-15 00:00:00,2014-09-15 00:00:00,TMP,surface,-105.938,27.8739,278.344
2014-09-15 00:00:00,2014-09-15 00:00:00,TMP,surface,-105,27.8739,280.17
2014-09-15 00:00:00,2014-09-15 00:00:00,TMP,surface,-104.063,27.8739,279.628
2014-09-15 00:00:00,2014-09-15 00:00:00,TMP,surface,-103.125,27.8739,277.442
2014-09-15 00:00:00,2014-09-15 00:00:00,TMP,surface,-102.188,27.8739,276.637
2014-09-15 00:00:00,2014-09-15 00:00:00,TMP,surface,-101.25,27.8739,276.912
2014-09-15 00:00:00,2014-09-15 00:00:00,TMP,surface,-100.313,27.8739,277.309
2014-09-15 00:00:00,2014-09-15 00:00:00,TMP,surface,-99.3754,27.8739,277.332
2014-09-15 00:00:00,2014-09-15 00:00:00,TMP,surface,-98.4379,27.8739,277.752
2014-09-15 00:00:00,2014-09-15 00:00:00,TMP,surface,-97.5004,27.8739,284.823
2014-09-15 00:00:00,2014-09-15 00:00:00,TMP,surface,-96.5629,27.8739,291.747
2014-09-15 00:00:00,2014-09-15 00:00:00,TMP,surface,-95.6254,27.8739,291.893
2014-09-15 00:00:00,2014-09-15 00:00:00,TMP,surface,-94.6879,27.8739,291.603
2014-09-15 00:00:00,2014-09-15 00:00:00,TMP,surface,-93.7504,27.8739,291.525
2014-09-15 00:00:00,2014-09-15 00:00:00,TMP,surface,-92.8129,27.8739,291.613
2014-09-15 00:00:00,2014-09-15 00:00:00,TMP,surface,-107.813,28.8188,275.853
2014-09-15 00:00:00,2014-09-15 00:00:00,TMP,surface,-106.875,28.8188,276.101
2014-09-15 00:00:00,2014-09-15 00:00:00,TMP,surface,-105.938,28.8188,278.021
2014-09-15 00:00:00,2014-09-15 00:00:00,TMP,surface,-105,28.8188,278.8
2014-09-15 00:00:00,2014-09-15 00:00:00,TMP,surface,-104.063,28.8188,277.381
2014-09-15 00:00:00,2014-09-15 00:00:00,TMP,surface,-103.125,28.8188,275.9
2014-09-15 00:00:00,2014-09-15 00:00:00,TMP,surface,-102.188,28.8188,275.803
2014-09-15 00:00:00,2014-09-15 00:00:00,TMP,surface,-101.25,28.8188,276.314
2014-09-15 00:00:00,2014-09-15 00:00:00,TMP,surface,-100.313,28.8188,276.048
2014-09-15 00:00:00,2014-09-15 00:00:00,TMP,surface,-99.3754,28.8188,275.483
2014-09-15 00:00:00,2014-09-15 00:00:00,TMP,surface,-98.4379,28.8188,275.371
2014-09-15 00:00:00,2014-09-15 00:00:00,TMP,surface,-97.5004,28.8188,276.063
2014-09-15 00:00:00,2014-09-15 00:00:00,TMP,surface,-96.5629,28.8188,277.498
2014-09-15 00:00:00,2014-09-15 00:00:00,TMP,surface,-95.6254,28.8188,283.512
2014-09-15 00:00:00,2014-09-15 00:00:00,TMP,surface,-94.6879,28.8188,291.706
2014-09-15 00:00:00,2014-09-15 00:00:00,TMP,surface,-93.7504,28.8188,291.595
2014-09-15 00:00:00,2014-09-15 00:00:00,TMP,surface,-92.8129,28.8188,291.666
2014-09-15 00:00:00,2014-09-15 00:00:00,TMP,surface,-107.813,29.7637,276.172
2014-09-15 00:00:00,2014-09-15 00:00:00,TMP,surface,-106.875,29.7637,276.315
2014-09-15 00:00:00,2014-09-15 00:00:00,TMP,surface,-105.938,29.7637,277.218
2014-09-15 00:00:00,2014-09-15 00:00:00,TMP,surface,-105,29.7637,276.379
2014-09-15 00:00:00,2014-09-15 00:00:00,TMP,surface,-104.063,29.7637,275.509
2014-09-15 00:00:00,2014-09-15 00:00:00,TMP,surface,-103.125,29.7637,275.004
2014-09-15 00:00:00,2014-09-15 00:00:00,TMP,surface,-102.188,29.7637,275.099
2014-09-15 00:00:00,2014-09-15 00:00:00,TMP,surface,-101.25,29.7637,274.819
2014-09-15 00:00:00,2014-09-15 00:00:00,TMP,surface,-100.313,29.7637,274.043
2014-09-15 00:00:00,2014-09-15 00:00:00,TMP,surface,-99.3754,29.7637,273.531
2014-09-15 00:00:00,2014-09-15 00:00:00,TMP,surface,-98.4379,29.7637,273.424
2014-09-15 00:00:00,2014-09-15 00:00:00,TMP,surface,-97.5004,29.7637,273.704
2014-09-15 00:00:00,2014-09-15 00:00:00,TMP,surface,-96.5629,29.7637,274.549
2014-09-15 00:00:00,2014-09-15 00:00:00,TMP,surface,-95.6254,29.7637,276.005
2014-09-15 00:00:00,2014-09-15 00:00:00,TMP,surface,-94.6879,29.7637,281.693
2014-09-15 00:00:00,2014-09-15 00:00:00,TMP,surface,-93.7504,29.7637,288.298
2014-09-15 00:00:00,2014-09-15 00:00:00,TMP,surface,-92.8129,29.7637,278.304
2014-09-15 00:00:00,2014-09-15 00:00:00,TMP,surface,-107.813,30.7085,276.956
2014-09-15 00:00:00,2014-09-15 00:00:00,TMP,surface,-106.875,30.7085,276.805
2014-09-15 00:00:00,2014-09-15 00:00:00,TMP,surface,-105.938,30.7085,275.856
2014-09-15 00:00:00,2014-09-15 00:00:00,TMP,surface,-105,30.7085,274.243
2014-09-15 00:00:00,2014-09-15 00:00:00,TMP,surface,-104.063,30.7085,273.351
2014-09-15 00:00:00,2014-09-15 00:00:00,TMP,surface,-103.125,30.7085,273.362
2014-09-15 00:00:00,2014-09-15 00:00:00,TMP,surface,-102.188,30.7085,273.184
2014-09-15 00:00:00,2014-09-15 00:00:00,TMP,surface,-101.25,30.7085,272.452
2014-09-15 00:00:00,2014-09-15 00:00:00,TMP,surface,-100.313,30.7085,271.754
2014-09-15 00:00:00,2014-09-15 00:00:00,TMP,surface,-99.3754,30.7085,271.562
2014-09-15 00:00:00,2014-09-15 00:00:00,TMP,surface,-98.4379,30.7085,271.719
2014-09-15 00:00:00,2014-09-15 00:00:00,TMP,surface,-97.5004,30.7085,272.168
2014-09-15 00:00:00,2014-09-15 00:00:00,TMP,surface,-96.5629,30.7085,272.919
2014-09-15 00:00:00,2014-09-15 00:00:00,TMP,surface,-95.6254,30.7085,273.81
2014-09-15 00:00:00,2014-09-15 00:00:00,TMP,surface,-94.6879,30.7085,274.539
2014-09-15 00:00:00,2014-09-15 00:00:00,TMP,surface,-93.7504,30.7085,274.773
2014-09-15 00:00:00,2014-09-15 00:00:00,TMP,surface,-92.8129,30.7085,274.602
2014-09-15 00:00:00,2014-09-15 00:00:00,TMP,surface,-107.813,31.6534,275.834
2014-09-15 00:00:00,2014-09-15 00:00:00,TMP,surface,-106.875,31.6534,275.592
2014-09-15 00:00:00,2014-09-15 00:00:00,TMP,surface,-105.938,31.6534,273.973
2014-09-15 00:00:00,2014-09-15 00:00:00,TMP,surface,-105,31.6534,272.572
2014-09-15 00:00:00,2014-09-15 00:00:00,TMP,surface,-104.063,31.6534,271.912
2014-09-15 00:00:00,2014-09-15 00:00:00,TMP,surface,-103.125,31.6534,271.535
2014-09-15 00:00:00,2014-09-15 00:00:00,TMP,surface,-102.188,31.6534,271.228
2014-09-15 00:00:00,2014-09-15 00:00:00,TMP,surface,-101.25,31.6534,270.594
2014-09-15 00:00:00,2014-09-15 00:00:00,TMP,surface,-100.313,31.6534,270.05
2014-09-15 00:00:00,2014-09-15 00:00:00,TMP,surface,-99.3754,31.6534,269.725
2014-09-15 00:00:00,2014-09-15 00:00:00,TMP,surface,-98.4379,31.6534,269.978
2014-09-15 00:00:00,2014-09-15 00:00:00,TMP,surface,-97.5004,31.6534,270.666
2014-09-15 00:00:00,2014-09-15 00:00:00,TMP,surface,-96.5629,31.6534,271.581
2014-09-15 00:00:00,2014-09-15 00:00:00,TMP,surface,-95.6254,31.6534,272.371
2014-09-15 00:00:00,2014-09-15 00:00:00,TMP,surface,-94.6879,31.6534,272.639
2014-09-15 00:00:00,2014-09-15 00:00:00,TMP,surface,-93.7504,31.6534,272.712
2014-09-15 00:00:00,2014-09-15 00:00:00,TMP,surface,-92.8129,31.6534,272.864
2014-09-15 00:00:00,2014-09-15 00:00:00,TMP,surface,-107.813,32.5983,272.799
2014-09-15 00:00:00,2014-09-15 00:00:00,TMP,surface,-106.875,32.5983,272.668
2014-09-15 00:00:00,2014-09-15 00:00:00,TMP,surface,-105.938,32.5983,272.4
2014-09-15 00:00:00,2014-09-15 00:00:00,TMP,surface,-105,32.5983,271.818
2014-09-15 00:00:00,2014-09-15 00:00:00,TMP,surface,-104.063,32.5983,271.114
2014-09-15 00:00:00,2014-09-15 00:00:00,TMP,surface,-103.125,32.5983,270.269
2014-09-15 00:00:00,2014-09-15 00:00:00,TMP,surface,-102.188,32.5983,269.389
2014-09-15 00:00:00,2014-09-15 00:00:00,TMP,surface,-101.25,32.5983,269.052
2014-09-15 00:00:00,2014-09-15 00:00:00,TMP,surface,-100.313,32.5983,268.839
2014-09-15 00:00:00,2014-09-15 00:00:00,TMP,surface,-99.3754,32.5983,268.418
2014-09-15 00:00:00,2014-09-15 00:00:00,TMP,surface,-98.4379,32.5983,268.292
2014-09-15 00:00:00,2014-09-15 00:00:00,TMP,surface,-97.5004,32.5983,268.9
2014-09-15 00:00:00,2014-09-15 00:00:00,TMP,surface,-96.5629,32.5983,270.06
2014-09-15 00:00:00,2014-09-15 00:00:00,TMP,surface,-95.6254,32.5983,270.964
2014-09-15 00:00:00,2014-09-15 00:00:00,TMP,surface,-94.6879,32.5983,271.104
2014-09-15 00:00:00,2014-09-15 00:00:00,TMP,surface,-93.7504,32.5983,271.183
2014-09-15 00:00:00,2014-09-15 00:00:00,TMP,surface,-92.8129,32.5983,271.866
2014-09-15 00:00:00,2014-09-15 00:00:00,TMP,surface,-107.813,33.5432,270.168
2014-09-15 00:00:00,2014-09-15 00:00:00,TMP,surface,-106.875,33.5432,270.872
2014-09-15 00:00:00,2014-09-15 00:00:00,TMP,surface,-105.938,33.5432,271.434
2014-09-15 00:00:00,2014-09-15 00:00:00,TMP,surface,-105,33.5432,271.56
2014-09-15 00:00:00,2014-09-15 00:00:00,TMP,surface,-104.063,33.5432,270.828
2014-09-15 00:00:00,2014-09-15 00:00:00,TMP,surface,-103.125,33.5432,269.856
2014-09-15 00:00:00,2014-09-15 00:00:00,TMP,surface,-102.188,33.5432,268.517
2014-09-15 00:00:00,2014-09-15 00:00:00,TMP,surface,-101.25,33.5432,268.157
2014-09-15 00:00:00,2014-09-15 00:00:00,TMP,surface,-100.313,33.5432,267.962
2014-09-15 00:00:00,2014-09-15 00:00:00,TMP,surface,-99.3754,33.5432,267.4
2014-09-15 00:00:00,2014-09-15 00:00:00,TMP,surface,-98.4379,33.5432,266.948
2014-09-15 00:00:00,2014-09-15 00:00:00,TMP,surface,-97.5004,33.5432,267.088
2014-09-15 00:00:00,2014-09-15 00:00:00,TMP,surface,-96.5629,33.5432,267.808
2014-09-15 00:00:00,2014-09-15 00:00:00,TMP,surface,-95.6254,33.5432,268.8
2014-09-15 00:00:00,2014-09-15 00:00:00,TMP,surface,-94.6879,33.5432,269.504
2014-09-15 00:00:00,2014-09-15 00:00:00,TMP,surface,-93.7504,33.5432,269.707
2014-09-15 00:00:00,2014-09-15 00:00:00,TMP,surface,-92.8129,33.5432,270.309
2014-09-15 00:00:00,2014-09-15 00:00:00,TMP,surface,-107.813,34.4881,268.676
2014-09-15 00:00:00,2014-09-15 00:00:00,TMP,surface,-106.875,34.4881,269.855
2014-09-15 00:00:00,2014-09-15 00:00:00,TMP,surface,-105.938,34.4881,270.733
2014-09-15 00:00:00,2014-09-15 00:00:00,TMP,surface,-105,34.4881,270.938
2014-09-15 00:00:00,2014-09-15 00:00:00,TMP,surface,-104.063,34.4881,270.259
2014-09-15 00:00:00,2014-09-15 00:00:00,TMP,surface,-103.125,34.4881,269.229
2014-09-15 00:00:00,2014-09-15 00:00:00,TMP,surface,-102.188,34.4881,268.139
2014-09-15 00:00:00,2014-09-15 00:00:00,TMP,surface,-101.25,34.4881,267.154
2014-09-15 00:00:00,2014-09-15 00:00:00,TMP,surface,-100.313,34.4881,266.066
2014-09-15 00:00:00,2014-09-15 00:00:00,TMP,surface,-99.3754,34.4881,265.592
2014-09-15 00:00:00,2014-09-15 00:00:00,TMP,surface,-98.4379,34.4881,265.642
2014-09-15 00:00:00,2014-09-15 00:00:00,TMP,surface,-97.5004,34.4881,265.896
2014-09-15 00:00:00,2014-09-15 00:00:00,TMP,surface,-96.5629,34.4881,266.405
2014-09-15 00:00:00,2014-09-15 00:00:00,TMP,surface,-95.6254,34.4881,266.959
2014-09-15 00:00:00,2014-09-15 00:00:00,TMP,surface,-94.6879,34.4881,267.355
2014-09-15 00:00:00,2014-09-15 00:00:00,TMP,surface,-93.7504,34.4881,267.909
2014-09-15 00:00:00,2014-09-15 00:00:00,TMP,surface,-92.8129,34.4881,268.397
2014-09-15 00:00:00,2014-09-15 00:00:00,TMP,surface,-107.813,35.4329,268.528
2014-09-15 00:00:00,2014-09-15 00:00:00,TMP,surface,-106.875,35.4329,269.032
2014-09-15 00:00:00,2014-09-15 00:00:00,TMP,surface,-105.938,35.4329,269.299
2014-09-15 00:00:00,2014-09-15 00:00:00,TMP,surface,-105,35.4329,269.607
2014-09-15 00:00:00,2014-09-15 00:00:00,TMP,surface,-104.063,35.4329,269.328
2014-09-15 00:00:00,2014-09-15 00:00:00,TMP,surface,-103.125,35.4329,268.788
2014-09-15 00:00:00,2014-09-15 00:00:00,TMP,surface,-102.188,35.4329,267.647
2014-09-15 00:00:00,2014-09-15 00:00:00,TMP,surface,-101.25,35.4329,265.735
2014-09-15 00:00:00,2014-09-15 00:00:00,TMP,surface,-100.313,35.4329,264.445
2014-09-15 00:00:00,2014-09-15 00:00:00,TMP,surface,-99.3754,35.4329,264.101
2014-09-15 00:00:00,2014-09-15 00:00:00,TMP,surface,-98.4379,35.4329,264.445
2014-09-15 00:00:00,2014-09-15 00:00:00,TMP,surface,-97.5004,35.4329,264.928
2014-09-15 00:00:00,2014-09-15 00:00:00,TMP,surface,-96.5629,35.4329,265.487
2014-09-15 00:00:00,2014-09-15 00:00:00,TMP,surface,-95.6254,35.4329,266.154
2014-09-15 00:00:00,2014-09-15 00:00:00,TMP,surface,-94.6879,35.4329,266.664
2014-09-15 00:00:00,2014-09-15 00:00:00,TMP,surface,-93.7504,35.4329,267.06
2014-09-15 00:00:00,2014-09-15 00:00:00,TMP,surface,-92.8129,35.4329,267.391
2014-09-15 00:00:00,2014-09-15 00:00:00,TMP,surface,-107.813,36.3778,266.602
2014-09-15 00:00:00,2014-09-15 00:00:00,TMP,surface,-106.875,36.3778,266.042
2014-09-15 00:00:00,2014-09-15 00:00:00,TMP,surface,-105.938,36.3778,266.725
2014-09-15 00:00:00,2014-09-15 00:00:00,TMP,surface,-105,36.3778,267.842
2014-09-15 00:00:00,2014-09-15 00:00:00,TMP,surface,-104.063,36.3778,267.901
2014-09-15 00:00:00,2014-09-15 00:00:00,TMP,surface,-103.125,36.3778,267.732
2014-09-15 00:00:00,2014-09-15 00:00:00,TMP,surface,-102.188,36.3778,266.732
2014-09-15 00:00:00,2014-09-15 00:00:00,TMP,surface,-101.25,36.3778,264.765
2014-09-15 00:00:00,2014-09-15 00:00:00,TMP,surface,-100.313,36.3778,263.765
2014-09-15 00:00:00,2014-09-15 00:00:00,TMP,surface,-99.3754,36.3778,263.559
2014-09-15 00:00:00,2014-09-15 00:00:00,TMP,surface,-98.4379,36.3778,263.664
2014-09-15 00:00:00,2014-09-15 00:00:00,TMP,surface,-97.5004,36.3778,264.231
2014-09-15 00:00:00,2014-09-15 00:00:00,TMP,surface,-96.5629,36.3778,265.055
2014-09-15 00:00:00,2014-09-15 00:00:00,TMP,surface,-95.6254,36.3778,265.631
2014-09-15 00:00:00,2014-09-15 00:00:00,TMP,surface,-94.6879,36.3778,265.936
2014-09-15 00:00:00,2014-09-15 00:00:00,TMP,surface,-93.7504,36.3778,266.304
2014-09-15 00:00:00,2014-09-15 00:00:00,TMP,surface,-92.8129,36.3778,266.948
2014-09-15 00:00:00,2014-09-15 00:00:00,PRATE,surface,-107.813,25.0393,7.08e-05
2014-09-15 00:00:00,2014-09-15 00:00:00,PRATE,surface,-106.875,25.0393,9.61e-05
2014-09-15 00:00:00,2014-09-15 00:00:00,PRATE,surface,-105.938,25.0393,8.81e-05
2014-09-15 00:00:00,2014-09-15 00:00:00,PRATE,surface,-105,25.0393,4.89e-05
2014-09-15 00:00:00,2014-09-15 00:00:00,PRATE,surface,-104.063,25.0393,2.36e-05
2014-09-15 00:00:00,2014-09-15 00:00:00,PRATE,surface,-103.125,25.0393,1.52e-05
2014-09-15 00:00:00,2014-09-15 00:00:00,PRATE,surface,-102.188,25.0393,1.75e-05
2014-09-15 00:00:00,2014-09-15 00:00:00,PRATE,surface,-101.25,25.0393,2.81e-05
2014-09-15 00:00:00,2014-09-15 00:00:00,PRATE,surface,-100.313,25.0393,4.33e-05
2014-09-15 00:00:00,2014-09-15 00:00:00,PRATE,surface,-99.3754,25.0393,4.99e-05
2014-09-15 00:00:00,2014-09-15 00:00:00,PRATE,surface,-98.4379,25.0393,4.91e-05
2014-09-15 00:00:00,2014-09-15 00:00:00,PRATE,surface,-97.5004,25.0393,5.73e-05
2014-09-15 00:00:00,2014-09-15 00:00:00,PRATE,surface,-96.5629,25.0393,8.06e-05
2014-09-15 00:00:00,2014-09-15 00:00:00,PRATE,surface,-95.6254,25.0393,7.73e-05
2014-09-15 00:00:00,2014-09-15 00:00:00,PRATE,surface,-94.6879,25.0393,6.45e-05
2014-09-15 00:00:00,2014-09-15 00:00:00,PRATE,surface,-93.7504,25.0393,5.11e-05
2014-09-15 00:00:00,2014-09-15 00:00:00,PRATE,surface,-92.8129,25.0393,4.31e-05
2014-09-15 00:00:00,2014-09-15 00:00:00,PRATE,surface,-107.813,25.9842,7.29e-05
2014-09-15 00:00:00,2014-09-15 00:00:00,PRATE,surface,-106.875,25.9842,7.79e-05
2014-09-15 00:00:00,2014-09-15 00:00:00,PRATE,surface,-105.938,25.9842,5.41e-05
2014-09-15 00:00:00,2014-09-15 00:00:00,PRATE,surface,-105,25.9842,3.06e-05
2014-09-15 00:00:00,2014-09-15 00:00:00,PRATE,surface,-104.063,25.9842,1.85e-05
2014-09-15 00:00:00,2014-09-15 00:00:00,PRATE,surface,-103.125,25.9842,1.72e-05
2014-09-15 00:00:00,2014-09-15 00:00:00,PRATE,surface,-102.188,25.9842,2.22e-05
2014-09-15 00:00:00,2014-09-15 00:00:00,PRATE,surface,-101.25,25.9842,3.17e-05
2014-09-15 00:00:00,2014-09-15 00:00:00,PRATE,surface,-100.313,25.9842,4.63e-05
2014-09-15 00:00:00,2014-09-15 00:00:00,PRATE,surface,-99.3754,25.9842,5.77e-05
2014-09-15 00:00:00,2014-09-15 00:00:00,PRATE,surface,-98.4379,25.9842,6.48e-05
2014-09-15 00:00:00,2014-09-15 00:00:00,PRATE,surface,-97.5004,25.9842,7.93e-05
2014-09-15 00:00:00,2014-09-15 00:00:00,PRATE,surface,-96.5629,25.9842,9.42e-05
2014-09-15 00:00:00,2014-09-15 00:00:00,PRATE,surface,-95.6254,25.9842,8.85e-05
2014-09-15 00:00:00,2014-09-15 00:00:00,PRATE,surface,-94.6879,25.9842,8.59e-05
2014-09-15 00:00:00,2014-09-15 00:00:00,PRATE,surface,-93.7504,25.9842,8.05e-05
2014-09-15 00:00:00,2014-09-15 00:00:00,PRATE,surface,-92.8129,25.9842,7.15e-05
2014-09-15 00:00:00,2014-09-15 00:00:00,PRATE,surface,-107.813,26.929,7.29e-05
2014-09-15 00:00:00,2014-09-15 00:00:00,PRATE,surface,-106.875,26.929,5.29e-05
2014-09-15 00:00:00,2014-09-15 00:00:00,PRATE,surface,-105.938,26.929,3.21e-05
2014-09-15 00:00:00,2014-09-15 00:00:00,PRATE,surface,-105,26.929,2.05e-05
2014-09-15 00:00:00,2014-09-15 00:00:00,PRATE,surface,-104.063,26.929,1.66e-05
2014-09-15 00:00:00,2014-09-15 00:00:00,PRATE,surface,-103.125,26.929,2.41e-05
2014-09-15 00:00:00,2014-09-15 00:00:00,PRATE,surface,-102.188,26.929,2.98e-05
2014-09-15 00:00:00,2014-09-15 00:00:00,PRATE,surface,-101.25,26.929,3.27e-05
2014-09-15 00:00:00,2014-09-15 00:00:00,PRATE,surface,-100.313,26.929,3.99e-05
2014-09-15 00:00:00,2014-09-15 00:00:00,PRATE,surface,-99.3754,26.929,5.27e-05
2014-09-15 00:00:00,2014-09-15 00:00:00,PRATE,surface,-98.4379,26.929,6.38e-05
2014-09-15 00:00:00,2014-09-15 00:00:00,PRATE,surface,-97.5004,26.929,8.48e-05
2014-09-15 00:00:00,2014-09-15 00:00:00,PRATE,surface,-96.5629,26.929,9.64e-05
2014-09-15 00:00:00,2014-09-15 00:00:00,PRATE,surface,-95.6254,26.929,9.09e-05
2014-09-15 00:00:00,2014-09-15 00:00:00,PRATE,surface,-94.6879,26.929,0.0001069
2014-09-15 00:00:00,2014-09-15 00:00:00,PRATE,surface,-93.7504,26.929,0.0001099
2014-09-15 00:00:00,2014-09-15 00:00:00,PRATE,surface,-92.8129,26.929,0.000104
2014-09-15 00:00:00,2014-09-15 00:00:00,PRATE,surface,-107.813,27.8739,7.08e-05
2014-09-15 00:00:00,2014-09-15 00:00:00,PRATE,surface,-106.875,27.8739,4.16e-05
2014-09-15 00:00:00,2014-09-15 00:00:00,PRATE,surface,-105.938,27.8739,2.12e-05
2014-09-15 00:00:00,2014-09-15 00:00:00,PRATE,surface,-105,27.8739,1.28e-05
2014-09-15 00:00:00,2014-09-15 00:00:00,PRATE,surface,-104.063,27.8739,1.55e-05
2014-09-15 00:00:00,2014-09-15 00:00:00,PRATE,surface,-103.125,27.8739,2.55e-05
2014-09-15 00:00:00,2014-09-15 00:00:00,PRATE,surface,-102.188,27.8739,2.84e-05
2014-09-15 00:00:00,2014-09-15 00:00:00,PRATE,surface,-101.25,27.8739,2.93e-05
2014-09-15 00:00:00,2014-09-15 00:00:00,PRATE,surface,-100.313,27.8739,3.5e-05
2014-09-15 00:00:00,2014-09-15 00:00:00,PRATE,surface,-99.3754,27.8739,4.51e-05
2014-09-15 00:00:00,2014-09-15 00:00:00,PRATE,surface,-98.4379,27.8739,5.74e-05
2014-09-15 00:00:00,2014-09-15 00:00:00,PRATE,surface,-97.5004,27.8739,6.9e-05
2014-09-15 00:00:00,2014-09-15 00:00:00,PRATE,surface,-96.5629,27.8739,8.02e-05
2014-09-15 00:00:00,2014-09-15 00:00:00,PRATE,surface,-95.6254,27.8739,9.9e-05
2014-09-15 00:00:00,2014-09-15 00:00:00,PRATE,surface,-94.6879,27.8739,0.000123
2014-09-15 00:00:00,2014-09-15 00:00:00,PRATE,surface,-93.7504,27.8739,0.0001293
2014-09-15 00:00:00,2014-09-15 00:00:00,PRATE,surface,-92.8129,27.8739,0.0001155
2014-09-15 00:00:00,2014-09-15 00:00:00,PRATE,surface,-107.813,28.8188,6.07e-05
2014-09-15 00:00:00,2014-09-15 00:00:00,PRATE,surface,-106.875,28.8188,3.7e-05
2014-09-15 00:00:00,2014-09-15 00:00:00,PRATE,surface,-105.938,28.8188,2.22e-05
2014-09-15 00:00:00,2014-09-15 00:00:00,PRATE,surface,-105,28.8188,1.59e-05
2014-09-15 00:00:00,2014-09-15 00:00:00,PRATE,surface,-104.063,28.8188,1.72e-05
2014-09-15 00:00:00,2014-09-15 00:00:00,PRATE,surface,-103.125,28.8188,2.11e-05
2014-09-15 00:00:00,2014-09-15 00:00:00,PRATE,surface,-102.188,28.8188,1.97e-05
2014-09-15 00:00:00,2014-09-15 00:00:00,PRATE,surface,-101.25,28.8188,2.1e-05
2014-09-15 00:00:00,2014-09-15 00:00:00,PRATE,surface,-100.313,28.8188,2.65e-05
2014-09-15 00:00:00,2014-09-15 00:00:00,PRATE,surface,-99.3754,28.8188,3.23e-05
2014-09-15 00:00:00,2014-09-15 00:00:00,PRATE,surface,-98.4379,28.8188,3.96e-05
2014-09-15 00:00:00,2014-09-15 00:00:00,PRATE,surface,-97.5004,28.8188,5.05e-05
2014-09-15 00:00:00,2014-09-15 00:00:00,PRATE,surface,-96.5629,28.8188,6.42e-05
2014-09-15 00:00:00,2014-09-15 00:00:00,PRATE,surface,-95.6254,28.8188,8.94e-05
2014-09-15 00:00:00,2014-09-15 00:00:00,PRATE,surface,-94.6879,28.8188,0.0001213
2014-09-15 00:00:00,2014-09-15 00:00:00,PRATE,surface,-93.7504,28.8188,0.0001293
2014-09-15 00:00:00,2014-09-15 00:00:00,PRATE,surface,-92.8129,28.8188,0.0001183
2014-09-15 00:00:00,2014-09-15 00:00:00,PRATE,surface,-107.813,29.7637,4.27e-05
2014-09-15 00:00:00,2014-09-15 00:00:00,PRATE,surface,-106.875,29.7637,3.36e-05
2014-09-15 00:00:00,2014-09-15 00:00:00,PRATE,surface,-105.938,29.7637,2.77e-05
2014-09-15 00:00:00,2014-09-15 00:00:00,PRATE,surface,-105,29.7637,2.24e-05
2014-09-15 00:00:00,2014-09-15 00:00:00,PRATE,surface,-104.063,29.7637,2.15e-05
2014-09-15 00:00:00,2014-09-15 00:00:00,PRATE,surface,-103.125,29.7637,2.09e-05
2014-09-15 00:00:00,2014-09-15 00:00:00,PRATE,surface,-102.188,29.7637,1.87e-05
2014-09-15 00:00:00,2014-09-15 00:00:00,PRATE,surface,-101.25,29.7637,2.05e-05
2014-09-15 00:00:00,2014-09-15 00:00:00,PRATE,surface,-100.313,29.7637,2.35e-05
2014-09-15 00:00:00,2014-09-15 00:00:00,PRATE,surface,-99.3754,29.7637,2.43e-05
2014-09-15 00:00:00,2014-09-15 00:00:00,PRATE,surface,-98.4379,29.7637,2.74e-05
2014-09-15 00:00:00,2014-09-15 00:00:00,PRATE,surface,-97.5004,29.7637,3.63e-05
2014-09-15 00:00:00,2014-09-15 00:00:00,PRATE,surface,-96.5629,29.7637,4.97e-05
2014-09-15 00:00:00,2014-09-15 00:00:00,PRATE,surface,-95.6254,29.7637,6.77e-05
2014-09-15 00:00:00,2014-09-15 00:00:00,PRATE,surface,-94.6879,29.7637,8.89e-05
2014-09-15 00:00:00,2014-09-15 00:00:00,PRATE,surface,-93.7504,29.7637,0.0001028
2014-09-15 00:00:00,2014-09-15 00:00:00,PRATE,surface,-92.8129,29.7637,0.0001004
2014-09-15 00:00:00,2014-09-15 00:00:00,PRATE,surface,-107.813,30.7085,2.97e-05
2014-09-15 00:00:00,2014-09-15 00:00:00,PRATE,surface,-106.875,30.7085,2.58e-05
2014-09-15 00:00:00,2014-09-15 00:00:00,PRATE,surface,-105.938,30.7085,2.7e-05
2014-09-15 00:00:00,2014-09-15 00:00:00,PRATE,surface,-105,30.7085,2.92e-05
2014-09-15 00:00:00,2014-09-15 00:00:00,PRATE,surface,-104.063,30.7085,3.1e-05
2014-09-15 00:00:00,2014-09-15 00:00:00,PRATE,surface,-103.125,30.7085,2.59e-05
2014-09-15 00:00:00,2014-09-15 00:00:00,PRATE,surface,-102.188,30.7085,2.15e-05
2014-09-15 00:00:00,2014-09-15 00:00:00,PRATE,surface,-101.25,30.7085,2.28e-05
2014-09-15 00:00:00,2014-09-15 00:00:00,PRATE,surface,-100.313,30.7085,2.55e-05
2014-09-15 00:00:00,2014-09-15 00:00:00,PRATE,surface,-99.3754,30.7085,2.63e-05
2014-09-15 00:00:00,2014-09-15 00:00:00,PRATE,surface,-98.4379,30.7085,2.72e-05
2014-09-15 00:00:00,2014-09-15 00:00:00,PRATE,surface,-97.5004,30.7085,3.33e-05
2014-09-15 00:00:00,2014-09-15 00:00:00,PRATE,surface,-96.5629,30.7085,4.45e-05
2014-09-15 00:00:00,2014-09-15 00:00:00,PRATE,surface,-95.6254,30.7085,5.58e-05
2014-09-15 00:00:00,2014-09-15 00:00:00,PRATE,surface,-94.6879,30.7085,6.56e-05
2014-09-15 00:00:00,2014-09-15 00:00:00,PRATE,surface,-93.7504,30.7085,7.53e-05
2014-09-15 00:00:00,2014-09-15 00:00:00,PRATE,surface,-92.8129,30.7085,8.19e-05
2014-09-15 00:00:00,2014-09-15 00:00:00,PRATE,surface,-107.813,31.6534,2.49e-05
2014-09-15 00:00:00,2014-09-15 00:00:00,PRATE,surface,-106.875,31.6534,2.26e-05
2014-09-15 00:00:00,2014-09-15 00:00:00,PRATE,surface,-105.938,31.6534,2.57e-05
2014-09-15 00:00:00,2014-09-15 00:00:00,PRATE,surface,-105,31.6534,2.85e-05
2014-09-15 00:00:00,2014-09-15 00:00:00,PRATE,surface,-104.063,31.6534,3e-05
2014-09-15 00:00:00,2014-09-15 00:00:00,PRATE,surface,-103.125,31.6534,2.75e-05
2014-09-15 00:00:00,2014-09-15 00:00:00,PRATE,surface,-102.188,31.6534,2.59e-05
2014-09-15 00:00:00,2014-09-15 00:00:00,PRATE,surface,-101.25,31.6534,2.7e-05
2014-09-15 00:00:00,2014-09-15 00:00:00,PRATE,surface,-100.313,31.6534,2.7e-05
2014-09-15 00:00:00,2014-09-15 00:00:00,PRATE,surface,-99.3754,31.6534,2.88e-05
2014-09-15 00:00:00,2014-09-15 00:00:00,PRATE,surface,-98.4379,31.6534,3.38e-05
2014-09-15 00:00:00,2014-09-15 00:00:00,PRATE,surface,-97.5004,31.6534,3.95e-05
2014-09-15 00:00:00,2014-09-15 00:00:00,PRATE,surface,-96.5629,31.6534,4.58e-05
2014-09-15 00:00:00,2014-09-15 00:00:00,PRATE,surface,-95.6254,31.6534,5.39e-05
2014-09-15 00:00:00,2014-09-15 00:00:00,PRATE,surface,-94.6879,31.6534,6.26e-05
2014-09-15 00:00:00,2014-09-15 00:00:00,PRATE,surface,-93.7504,31.6534,7.08e-05
2014-09-15 00:00:00,2014-09-15 00:00:00,PRATE,surface,-92.8129,31.6534,7.54e-05
2014-09-15 00:00:00,2014-09-15 00:00:00,PRATE,surface,-107.813,32.5983,2.68e-05
2014-09-15 00:00:00,2014-09-15 00:00:00,PRATE,surface,-106.875,32.5983,2.45e-05
2014-09-15 00:00:00,2014-09-15 00:00:00,PRATE,surface,-105.938,32.5983,2.37e-05
2014-09-15 00:00:00,2014-09-15 00:00:00,PRATE,surface,-105,32.5983,2.54e-05
2014-09-15 00:00:00,2014-09-15 00:00:00,PRATE,surface,-104.063,32.5983,2.78e-05
2014-09-15 00:00:00,2014-09-15 00:00:00,PRATE,surface,-103.125,32.5983,2.65e-05
2014-09-15 00:00:00,2014-09-15 00:00:00,PRATE,surface,-102.188,32.5983,2.73e-05
2014-09-15 00:00:00,2014-09-15 00:00:00,PRATE,surface,-101.25,32.5983,2.82e-05
2014-09-15 00:00:00,2014-09-15 00:00:00,PRATE,surface,-100.313,32.5983,2.71e-05
2014-09-15 00:00:00,2014-09-15 00:00:00,PRATE,surface,-99.3754,32.5983,2.77e-05
2014-09-15 00:00:00,2014-09-15 00:00:00,PRATE,surface,-98.4379,32.5983,3.24e-05
2014-09-15 00:00:00,2014-09-15 00:00:00,PRATE,surface,-97.5004,32.5983,3.78e-05
2014-09-15 00:00:00,2014-09-15 00:00:00,PRATE,surface,-96.5629,32.5983,4.31e-05
2014-09-15 00:00:00,2014-09-15 00:00:00,PRATE,surface,-95.6254,32.5983,5.01e-05
2014-09-15 00:00:00,2014-09-15 00:00:00,PRATE,surface,-94.6879,32.5983,5.79e-05
2014-09-15 00:00:00,2014-09-15 00:00:00,PRATE,surface,-93.7504,32.5983,6.38e-05
2014-09-15 00:00:00,2014-09-15 00:00:00,PRATE,surface,-92.8129,32.5983,6.41e-05
2014-09-15 00:00:00,2014-09-15 00:00:00,PRATE,surface,-107.813,33.5432,2.74e-05
2014-09-15 00:00:00,2014-09-15 00:00:00,PRATE,surface,-106.875,33.5432,2.28e-05
2014-09-15 00:00:00,2014-09-15 00:00:00,PRATE,surface,-105.938,33.5432,2.07e-05
2014-09-15 00:00:00,2014-09-15 00:00:00,PRATE,surface,-105,33.5432,2.18e-05
2014-09-15 00:00:00,2014-09-15 00:00:00,PRATE,surface,-104.063,33.5432,2.32e-05
2014-09-15 00:00:00,2014-09-15 00:00:00,PRATE,surface,-103.125,33.5432,2.39e-05
2014-09-15 00:00:00,2014-09-15 00:00:00,PRATE,surface,-102.188,33.5432,2.55e-05
2014-09-15 00:00:00,2014-09-15 00:00:00,PRATE,surface,-101.25,33.5432,2.68e-05
2014-09-15 00:00:00,2014-09-15 00:00:00,PRATE,surface,-100.313,33.5432,2.58e-05
2014-09-15 00:00:00,2014-09-15 00:00:00,PRATE,surface,-99.3754,33.5432,2.59e-05
2014-09-15 00:00:00,2014-09-15 00:00:00,PRATE,surface,-98.4379,33.5432,2.94e-05
2014-09-15 00:00:00,2014-09-15 00:00:00,PRATE,surface,-97.5004,33.5432,3.36e-05
2014-09-15 00:00:00,2014-09-15 00:00:00,PRATE,surface,-96.5629,33.5432,3.78e-05
2014-09-15 00:00:00,2014-09-15 00:00:00,PRATE,surface,-95.6254,33.5432,4.43e-05
2014-09-15 00:00:00,2014-09-15 00:00:00,PRATE,surface,-94.6879,33.5432,5.05e-05
2014-09-15 00:00:00,2014-09-15 00:00:00,PRATE,surface,-93.7504,33.5432,5.25e-05
2014-09-15 00:00:00,2014-09-15 00:00:00,PRATE,surface,-92.8129,33.5432,5.18e-05
2014-09-15 00:00:00,2014-09-15 00:00:00,PRATE,surface,-107.813,34.4881,2.16e-05
2014-09-15 00:00:00,2014-09-15 00:00:00,PRATE,surface,-106.875,34.4881,1.69e-05
2014-09-15 00:00:00,2014-09-15 00:00:00,PRATE,surface,-105.938,34.4881,1.62e-05
2014-09-15 00:00:00,2014-09-15 00:00:00,PRATE,surface,-105,34.4881,1.81e-05
2014-09-15 00:00:00,2014-09-15 00:00:00,PRATE,surface,-104.063,34.4881,2.17e-05
2014-09-15 00:00:00,2014-09-15 00:00:00,PRATE,surface,-103.125,34.4881,2.24e-05
2014-09-15 00:00:00,2014-09-15 00:00:00,PRATE,surface,-102.188,34.4881,2.24e-05
2014-09-15 00:00:00,2014-09-15 00:00:00,PRATE,surface,-101.25,34.4881,2.3e-05
2014-09-15 00:00:00,2014-09-15 00:00:00,PRATE,surface,-100.313,34.4881,2.31e-05
2014-09-15 00:00:00,2014-09-15 00:00:00,PRATE,surface,-99.3754,34.4881,2.37e-05
2014-09-15 00:00:00,2014-09-15 00:00:00,PRATE,surface,-98.4379,34.4881,2.71e-05
2014-09-15 00:00:00,2014-09-15 00:00:00,PRATE,surface,-97.5004,34.4881,3.19e-05
2014-09-15 00:00:00,2014-09-15 00:00:00,PRATE,surface,-96.5629,34.4881,3.55e-05
2014-09-15 00:00:00,2014-09-15 00:00:00,PRATE,surface,-95.6254,34.4881,3.91e-05
2014-09-15 00:00:00,2014-09-15 00:00:00,PRATE,surface,-94.6879,34.4881,4.34e-05
2014-09-15 00:00:00,2014-09-15 00:00:00,PRATE,surface,-93.7504,34.4881,4.48e-05
2014-09-15 00:00:00,2014-09-15 00:00:00,PRATE,surface,-92.8129,34.4881,4.36e-05
2014-09-15 00:00:00,2014-09-15 00:00:00,PRATE,surface,-107.813,35.4329,1.77e-05
2014-09-15 00:00:00,2014-09-15 00:00:00,PRATE,surface,-106.875,35.4329,1.62e-05
2014-09-15 00:00:00,2014-09-15 00:00:00,PRATE,surface,-105.938,35.4329,1.76e-05
2014-09-15 00:00:00,2014-09-15 00:00:00,PRATE,surface,-105,35.4329,1.94e-05
2014-09-15 00:00:00,2014-09-15 00:00:00,PRATE,surface,-104.063,35.4329,2.24e-05
2014-09-15 00:00:00,2014-09-15 00:00:00,PRATE,surface,-103.125,35.4329,2.11e-05
2014-09-15 00:00:00,2014-09-15 00:00:00,PRATE,surface,-102.188,35.4329,2.01e-05
2014-09-15 00:00:00,2014-09-15 00:00:00,PRATE,surface,-101.25,35.4329,2.02e-05
2014-09-15 00:00:00,2014-09-15 00:00:00,PRATE,surface,-100.313,35.4329,2.01e-05
2014-09-15 00:00:00,2014-09-15 00:00:00,PRATE,surface,-99.3754,35.4329,2.07e-05
2014-09-15 00:00:00,2014-09-15 00:00:00,PRATE,surface,-98.4379,35.4329,2.42e-05
2014-09-15 00:00:00,2014-09-15 00:00:00,PRATE,surface,-97.5004,35.4329,2.81e-05
2014-09-15 00:00:00,2014-09-15 00:00:00,PRATE,surface,-96.5629,35.4329,3.04e-05
2014-09-15 00:00:00,2014-09-15 00:00:00,PRATE,surface,-95.6254,35.4329,3.19e-05
2014-09-15 00:00:00,2014-09-15 00:00:00,PRATE,surface,-94.6879,35.4329,3.3e-05
2014-09-15 00:00:00,2014-09-15 00:00:00,PRATE,surface,-93.7504,35.4329,3.47e-05
2014-09-15 00:00:00,2014-09-15 00:00:00,PRATE,surface,-92.8129,35.4329,3.59e-05
2014-09-15 00:00:00,2014-09-15 00:00:00,PRATE,surface,-107.813,36.3778,2.1e-05
2014-09-15 00:00:00,2014-09-15 00:00:00,PRATE,surface,-106.875,36.3778,2.2e-05
2014-09-15 00:00:00,2014-09-15 00:00:00,PRATE,surface,-105.938,36.3778,2.06e-05
2014-09-15 00:00:00,2014-09-15 00:00:00,PRATE,surface,-105,36.3778,1.94e-05
2014-09-15 00:00:00,2014-09-15 00:00:00,PRATE,surface,-104.063,36.3778,2.05e-05
2014-09-15 00:00:00,2014-09-15 00:00:00,PRATE,surface,-103.125,36.3778,2.09e-05
2014-09-15 00:00:00,2014-09-15 00:00:00,PRATE,surface,-102.188,36.3778,1.88e-05
2014-09-15 00:00:00,2014-09-15 00:00:00,PRATE,surface,-101.25,36.3778,1.81e-05
2014-09-15 00:00:00,2014-09-15 00:00:00,PRATE,surface,-100.313,36.3778,1.77e-05
2014-09-15 00:00:00,2014-09-15 00:00:00,PRATE,surface,-99.3754,36.3778,1.86e-05
2014-09-15 00:00:00,2014-09-15 00:00:00,PRATE,surface,-98.4379,36.3778,2.16e-05
2014-09-15 00:00:00,2014-09-15 00:00:00,PRATE,surface,-97.5004,36.3778,2.43e-05
2014-09-15 00:00:00,2014-09-15 00:00:00,PRATE,surface,-96.5629,36.3778,2.56e-05
2014-09-15 00:00:00,2014-09-15 00:00:00,PRATE,surface,-95.6254,36.3778,2.61e-05
2014-09-15 00:00:00,2014-09-15 00:00:00,PRATE,surface,-94.6879,36.3778,2.64e-05
2014-09-15 00:00:00,2014-09-15 00:00:00,PRATE,surface,-93.7504,36.3778,2.69e-05
2014-09-15 00:00:00,2014-09-15 00:00:00,PRATE,surface,-92.8129,36.3778,2.65e-05
