2017-04-04 00:00:00,2017-04-04 00:00:00,TMP,surface,-107.813,25.0393,301.448
2017-04-04 00:00:00,2017-04-04 00:00:00,TMP,surface,-106.875,25.0393,294.619
2017-04-04 00:00:00,2017-04-04 00:00:00,TMP,surface,-105.938,25.0393,289.019
2017-04-04 00:00:00,2017-04-04 00:00:00,TMP,surface,-105,25.0393,286.709
2017-04-04 00:00:00,2017-04-04 00:00:00,TMP,surface,-104.063,25.0393,289.651
2017-04-04 00:00:00,2017-04-04 00:00:00,TMP,surface,-103.125,25.0393,292.296
2017-04-04 00:00:00,2017-04-04 00:00:00,TMP,surface,-102.188,25.0393,291.93
2017-04-04 00:00:00,2017-04-04 00:00:00,TMP,surface,-101.25,25.0393,289.918
2017-04-04 00:00:00,2017-04-04 00:00:00,TMP,surface,-100.313,25.0393,290.448
2017-04-04 00:00:00,2017-04-04 00:00:00,TMP,surface,-99.3754,25.0393,293.883
2017-04-04 00:00:00,2017-04-04 00:00:00,TMP,surface,-98.4379,25.0393,297.719
2017-04-04 00:00:00,2017-04-04 00:00:00,TMP,surface,-97.5004,25.0393,301.522
2017-04-04 00:00:00,2017-04-04 00:00:00,TMP,surface,-96.5629,25.0393,301.701
2017-04-04 00:00:00,2017-04-04 00:00:00,TMP,surface,-95.6254,25.0393,301.834
2017-04-04 00:00:00,2017-04-04 00:00:00,TMP,surface,-94.6879,25.0393,302.029
2017-04-04 00:00:00,2017-04-04 00:00:00,TMP,surface,-93.7504,25.0393,302
2017-04-04 00:00:00,2017-04-04 00:00:00,TMP,surface,-92.8129,25.0393,301.958
2017-04-04 00:00:00,2017-04-04 00:00:00,TMP,surface,-107.813,25.9842,295.594
2017-04-04 00:00:00,2017-04-04 00:00:00,TMP,surface,-106.875,25.9842,290.139
2017-04-04 00:00:00,2017-04-04 00:00:00,TMP,surface,-105.938,25.9842,287.112
2017-04-04 00:00:00,2017-04-04 00:00:00,TMP,surface,-105,25.9842,288.086
2017-04-04 00:00:00,2017-04-04 00:00:00,TMP,surface,-104.063,25.9842,292.013
2017-04-04 00:00:00,2017-04-04 00:00:00,TMP,surface,-103.125,25.9842,293.893
2017-04-04 00:00:00,2017-04-04 00:00:00,TMP,surface,-102.188,25.9842,293.125
2017-04-04 00:00:00,2017-04-04 00:00:00,TMP,surface,-101.25,25.9842,292.178
2017-04-04 00:00:00,2017-04-04 00:00:00,TMP,surface,-100.313,25.9842,292.935
2017-04-04 00:00:00,2017-04-04 00:00:00,TMP,surface,-99.3754,25.9842,296.525
2017-04-04 00:00:00,2017-04-04 00:00:00,TMP,surface,-98.4379,25.9842,298.582
2017-04-04 00:00:00,2017-04-04 00:00:00,TMP,surface,-97.5004,25.9842,299.235
2017-04-04 00:00:00,2017-04-04 00:00:00,TMP,surface,-96.5629,25.9842,301.114
2017-04-04 00:00:00,2017-04-04 00:00:00,TMP,surface,-95.6254,25.9842,301.327
2017-04-04 00:00:00,2017-04-04 00:00:00,TMP,surface,-94.6879,25.9842,301.496
2017-04-04 00:00:00,2017-04-04 00:00:00,TMP,surface,-93.7504,25.9842,301.622
2017-04-04 00:00:00,2017-04-04 00:00:00,TMP,surface,-92.8129,25.9842,301.771
2017-04-04 00:00:00,2017-04-04 00:00:00,TMP,surface,-107.813,26.929,291.053
2017-04-04 00:00:00,2017-04-04 00:00:00,TMP,surface,-106.875,26.929,287.101
2017-04-04 00:00:00,2017-04-04 00:00:00,TMP,surface,-105.938,26.929,287.883
2017-04-04 00:00:00,2017-04-04 00:00:00,TMP,surface,-105,26.929,290.755
2017-04-04 00:00:00,2017-04-04 00:00:00,TMP,surface,-104.063,26.929,293.014
2017-04-04 00:00:00,2017-04-04 00:00:00,TMP,surface,-103.125,26.929,292.589
2017-04-04 00:00:00,2017-04-04 00:00:00,TMP,surface,-102.188,26.929,292.341
2017-04-04 00:00:00,2017-04-04 00:00:00,TMP,surface,-101.25,26.929,293.213
2017-04-04 00:00:00,2017-04-04 00:00:00,TMP,surface,-100.313,26.929,295.165
2017-04-04 00:00:00,2017-04-04 00:00:00,TMP,surface,-99.3754,26.929,297.357
2017-04-04 00:00:00,2017-04-04 00:00:00,TMP,surface,-98.4379,26.929,297.602
2017-04-04 00:00:00,2017-04-04 00:00:00,TMP,surface,-97.5004,26.929,299.872
2017-04-04 00:00:00,2017-04-04 00:00:00,TMP,surface,-96.5629,26.929,300.279
2017-04-04 00:00:00,2017-04-04 00:00:00,TMP,surface,-95.6254,26.929,300.845
2017-04-04 00:00:00,2017-04-04 00:00:00,TMP,surface,-94.6879,26.929,301.165
2017-04-04 00:00:00,2017-04-04 00:00:00,TMP,surface,-93.7504,26.929,301.275
2017-04-04 00:00:00,2017-04-04 00:00:00,TMP,surface,-92.8129,26.929,301.392
2017-04-04 00:00:00,2017-04-04 00:00:00,TMP,surface,-107.813,27.8739,288.347
2017-04-04 00:00:00,2017-04-04 00:00:00,TMP,surface,-106.875,27.8739,286.391
2017-04-04 00:00:00,2017-04-04 00:00:00,TMP,surface,-105.938,27.8739,289.055
2017-04-04 00:00:00,2017-04-04 00:00:00,TMP,surface,-105,27.8739,292.192
2017-04-04 00:00:00,2017-04-04 00:00:00,TMP,surface,-104.063,27.8739,292.615
2017-04-04 00:00:00,2017-04-04 00:00:00,TMP,surface,-103.125,27.8739,291.384
2017-04-04 00:00:00,2017-04-04 00:00:00,TMP,surface,-102.188,27.8739,291.375
2017-04-04 00:00:00,2017-04-04 00:00:00,TMP,surface,-101.25,27.8739,293.269
2017-04-04 00:00:00,2017-04-04 00:00:00,TMP,surface,-100.313,27.8739,295.565
2017-04-04 00:00:00,2017-04-04 00:00:00,TMP,surface,-99.3754,27.8739,296.544
2017-04-04 00:00:00,2017-04-04 00:00:00,TMP,surface,-98.4379,27.8739,296.784
2017-04-04 00:00:00,2017-04-04 00:00:00,TMP,surface,-97.5004,27.8739,298.682
2017-04-04 00:00:00,2017-04-04 00:00:00,TMP,surface,-96.5629,27.8739,300.674
2017-04-04 00:00:00,2017-04-04 00:00:00,TMP,surface,-95.6254,27.8739,300.922
2017-04-04 00:00:00,2017-04-04 00:00:00,TMP,surface,-94.6879,27.8739,300.962
2017-04-04 00:00:00,2017-04-04 00:00:00,TMP,surface,-93.7504,27.8739,301.003
2017-04-04 00:00:00,2017-04-04 00:00:00,TMP,surface,-92.8129,27.8739,301.07
2017-04-04 00:00:00,2017-04-04 00:00:00,TMP,surface,-107.813,28.8188,286.824
2017-04-04 00:00:00,2017-04-04 00:00:00,TMP,surface,-106.875,28.8188,286.879
2017-04-04 00:00:00,2017-04-04 00:00:00,TMP,surface,-105.938,28.8188,289.991
2017-04-04 00:00:00,2017-04-04 00:00:00,TMP,surface,-105,28.8188,292.36
2017-04-04 00:00:00,2017-04-04 00:00:00,TMP,surface,-104.063,28.8188,291.655
2017-04-04 00:00:00,2017-04-04 00:00:00,TMP,surface,-103.125,28.8188,290.541
2017-04-04 00:00:00,2017-04-04 00:00:00,TMP,surface,-102.188,28.8188,291.251
2017-04-04 00:00:00,2017-04-04 00:00:00,TMP,surface,-101.25,28.8188,293.267
2017-04-04 00:00:00,2017-04-04 00:00:00,TMP,surface,-100.313,28.8188,294.642
2017-04-04 00:00:00,2017-04-04 00:00:00,TMP,surface,-99.3754,28.8188,294.891
2017-04-04 00:00:00,2017-04-04 00:00:00,TMP,surface,-98.4379,28.8188,295.09
2017-04-04 00:00:00,2017-04-04 00:00:00,TMP,surface,-97.5004,28.8188,295.984
2017-04-04 00:00:00,2017-04-04 00:00:00,TMP,surface,-96.5629,28.8188,297.043
2017-04-04 00:00:00,2017-04-04 00:00:00,TMP,surface,-95.6254,28.8188,298.599
2017-04-04 00:00:00,2017-04-04 00:00:00,TMP,surface,-94.6879,28.8188,300.431
2017-04-04 00:00:00,2017-04-04 00:00:00,TMP,surface,-93.7504,28.8188,300.525
2017-04-04 00:00:00,2017-04-04 00:00:00,TMP,surface,-92.8129,28.8188,300.694
2017-04-04 00:00:00,2017-04-04 00:00:00,TMP,surface,-107.813,29.7637,288.014
2017-04-04 00:00:00,2017-04-04 00:00:00,TMP,surface,-106.875,29.7637,288.563
2017-04-04 00:00:00,2017-04-04 00:00:00,TMP,surface,-105.938,29.7637,290.826
2017-04-04 00:00:00,2017-04-04 00:00:00,TMP,surface,-105,29.7637,291.267
2017-04-04 00:00:00,2017-04-04 00:00:00,TMP,surface,-104.063,29.7637,291.022
2017-04-04 00:00:00,2017-04-04 00:00:00,TMP,surface,-103.125,29.7637,291.184
2017-04-04 00:00:00,2017-04-04 00:00:00,TMP,surface,-102.188,29.7637,292.162
2017-04-04 00:00:00,2017-04-04 00:00:00,TMP,surface,-101.25,29.7637,292.966
2017-04-04 00:00:00,2017-04-04 00:00:00,TMP,surface,-100.313,29.7637,292.842
2017-04-04 00:00:00,2017-04-04 00:00:00,TMP,surface,-99.3754,29.7637,292.626
2017-04-04 00:00:00,2017-04-04 00:00:00,TMP,surface,-98.4379,29.7637,293.37
2017-04-04 00:00:00,2017-04-04 00:00:00,TMP,surface,-97.5004,29.7637,294.621
2017-04-04 00:00:00,2017-04-04 00:00:00,TMP,surface,-96.5629,29.7637,295.608
2017-04-04 00:00:00,2017-04-04 00:00:00,TMP,surface,-95.6254,29.7637,296.245
2017-04-04 00:00:00,2017-04-04 00:00:00,TMP,surface,-94.6879,29.7637,297.664
2017-04-04 00:00:00,2017-04-04 00:00:00,TMP,surface,-93.7504,29.7637,299.378
2017-04-04 00:00:00,2017-04-04 00:00:00,TMP,surface,-92.8129,29.7637,297.136
2017-04-04 00:00:00,2017-04-04 00:00:00,TMP,surface,-107.813,30.7085,290.629
2017-04-04 00:00:00,2017-04-04 00:00:00,TMP,surface,-106.875,30.7085,291.301
2017-04-04 00:00:00,2017-04-04 00:00:00,TMP,surface,-105.938,30.7085,291.128
2017-04-04 00:00:00,2017-04-04 00:00:00,TMP,surface,-105,30.7085,290.414
2017-04-04 00:00:00,2017-04-04 00:00:00,TMP,surface,-104.063,30.7085,290.152
2017-04-04 00:00:00,2017-04-04 00:00:00,TMP,surface,-103.125,30.7085,291.291
2017-04-04 00:00:00,2017-04-04 00:00:00,TMP,surface,-102.188,30.7085,292.093
2017-04-04 00:00:00,2017-04-04 00:00:00,TMP,surface,-101.25,30.7085,291.978
2017-04-04 00:00:00,2017-04-04 00:00:00,TMP,surface,-100.313,30.7085,291.507
2017-04-04 00:00:00,2017-04-04 00:00:00,TMP,surface,-99.3754,30.7085,291.447
2017-04-04 00:00:00,2017-04-04 00:00:00,TMP,surface,-98.4379,30.7085,292.299
2017-04-04 00:00:00,2017-04-04 00:00:00,TMP,surface,-97.5004,30.7085,293.607
2017-04-04 00:00:00,2017-04-04 00:00:00,TMP,surface,-96.5629,30.7085,294.491
2017-04-04 00:00:00,2017-04-04 00:00:00,TMP,surface,-95.6254,30.7085,294.866
2017-04-04 00:00:00,2017-04-04 00:00:00,TMP,surface,-94.6879,30.7085,295.107
2017-04-04 00:00:00,2017-04-04 00:00:00,TMP,surface,-93.7504,30.7085,295.133
2017-04-04 00:00:00,2017-04-04 00:00:00,TMP,surface,-92.8129,30.7085,295.034
2017-04-04 00:00:00,2017-04-04 00:00:00,TMP,surface,-107.813,31.6534,291.07
2017-04-04 00:00:00,2017-04-04 00:00:00,TMP,surface,-106.875,31.6534,291.515
2017-04-04 00:00:00,2017-04-04 00:00:00,TMP,surface,-105.938,31.6534,290.443
2017-04-04 00:00:00,2017-04-04 00:00:00,TMP,surface,-105,31.6534,289.856
2017-04-04 00:00:00,2017-04-04 00:00:00,TMP,surface,-104.063,31.6534,290.197
2017-04-04 00:00:00,2017-04-04 00:00:00,TMP,surface,-103.125,31.6534,291.064
2017-04-04 00:00:00,2017-04-04 00:00:00,TMP,surface,-102.188,31.6534,291.424
2017-04-04 00:00:00,2017-04-04 00:00:00,TMP,surface,-101.25,31.6534,291.203
2017-04-04 00:00:00,2017-04-04 00:00:00,TMP,surface,-100.313,31.6534,290.858
2017-04-04 00:00:00,2017-04-04 00:00:00,TMP,surface,-99.3754,31.6534,290.898
2017-04-04 00:00:00,2017-04-04 00:00:00,TMP,surface,-98.4379,31.6534,291.445
2017-04-04 00:00:00,2017-04-04 00:00:00,TMP,surface,-97.5004,31.6534,292.392
2017-04-04 00:00:00,2017-04-04 00:00:00,TMP,surface,-96.5629,31.6534,293.259
2017-04-04 00:00:00,2017-04-04 00:00:00,TMP,surface,-95.6254,31.6534,293.771
2017-04-04 00:00:00,2017-04-04 00:00:00,TMP,surface,-94.6879,31.6534,294.051
2017-04-04 00:00:00,2017-04-04 00:00:00,TMP,surface,-93.7504,31.6534,294.077
2017-04-04 00:00:00,2017-04-04 00:00:00,TMP,surface,-92.8129,31.6534,294.077
2017-04-04 00:00:00,2017-04-04 00:00:00,TMP,surface,-107.813,32.5983,288.207
2017-04-04 00:00:00,2017-04-04 00:00:00,TMP,surface,-106.875,32.5983,288.538
2017-04-04 00:00:00,2017-04-04 00:00:00,TMP,surface,-105.938,32.5983,288.667
2017-04-04 00:00:00,2017-04-04 00:00:00,TMP,surface,-105,32.5983,288.725
2017-04-04 00:00:00,2017-04-04 00:00:00,TMP,surface,-104.063,32.5983,289.869
2017-04-04 00:00:00,2017-04-04 00:00:00,TMP,surface,-103.125,32.5983,290.621
2017-04-04 00:00:00,2017-04-04 00:00:00,TMP,surface,-102.188,32.5983,290.562
2017-04-04 00:00:00,2017-04-04 00:00:00,TMP,surface,-101.25,32.5983,290.632
2017-04-04 00:00:00,2017-04-04 00:00:00,TMP,surface,-100.313,32.5983,290.994
2017-04-04 00:00:00,2017-04-04 00:00:00,TMP,surface,-99.3754,32.5983,291.095
2017-04-04 00:00:00,2017-04-04 00:00:00,TMP,surface,-98.4379,32.5983,290.963
2017-04-04 00:00:00,2017-04-04 00:00:00,TMP,surface,-97.5004,32.5983,291.277
2017-04-04 00:00:00,2017-04-04 00:00:00,TMP,surface,-96.5629,32.5983,292.074
2017-04-04 00:00:00,2017-04-04 00:00:00,TMP,surface,-95.6254,32.5983,292.727
2017-04-04 00:00:00,2017-04-04 00:00:00,TMP,surface,-94.6879,32.5983,292.949
2017-04-04 00:00:00,2017-04-04 00:00:00,TMP,surface,-93.7504,32.5983,293.039
2017-04-04 00:00:00,2017-04-04 00:00:00,TMP,surface,-92.8129,32.5983,293.416
2017-04-04 00:00:00,2017-04-04 00:00:00,TMP,surface,-107.813,33.5432,284.786
2017-04-04 00:00:00,2017-04-04 00:00:00,TMP,surface,-106.875,33.5432,286.027
2017-04-04 00:00:00,2017-04-04 00:00:00,TMP,surface,-105.938,33.5432,286.871
2017-04-04 00:00:00,2017-04-04 00:00:00,TMP,surface,-105,33.5432,287.81
2017-04-04 00:00:00,2017-04-04 00:00:00,TMP,surface,-104.063,33.5432,289.317
2017-04-04 00:00:00,2017-04-04 00:00:00,TMP,surface,-103.125,33.5432,289.85
2017-04-04 00:00:00,2017-04-04 00:00:00,TMP,surface,-102.188,33.5432,289.765
2017-04-04 00:00:00,2017-04-04 00:00:00,TMP,surface,-101.25,33.5432,289.928
2017-04-04 00:00:00,2017-04-04 00:00:00,TMP,surface,-100.313,33.5432,290.426
2017-04-04 00:00:00,2017-04-04 00:00:00,TMP,surface,-99.3754,33.5432,290.786
2017-04-04 00:00:00,2017-04-04 00:00:00,TMP,surface,-98.4379,33.5432,290.56
2017-04-04 00:00:00,2017-04-04 00:00:00,TMP,surface,-97.5004,33.5432,290.37
2017-04-04 00:00:00,2017-04-04 00:00:00,TMP,surface,-96.5629,33.5432,290.776
2017-04-04 00:00:00,2017-04-04 00:00:00,TMP,surface,-95.6254,33.5432,291.366
2017-04-04 00:00:00,2017-04-04 00:00:00,TMP,surface,-94.6879,33.5432,291.629
2017-04-04 00:00:00,2017-04-04 00:00:00,TMP,surface,-93.7504,33.5432,291.731
2017-04-04 00:00:00,2017-04-04 00:00:00,TMP,surface,-92.8129,33.5432,292.019
2017-04-04 00:00:00,2017-04-04 00:00:00,TMP,surface,-107.813,34.4881,283.352
2017-04-04 00:00:00,2017-04-04 00:00:00,TMP,surface,-106.875,34.4881,284.869
2017-04-04 00:00:00,2017-04-04 00:00:00,TMP,surface,-105.938,34.4881,285.858
2017-04-04 00:00:00,2017-04-04 00:00:00,TMP,surface,-105,34.4881,286.872
2017-04-04 00:00:00,2017-04-04 00:00:00,TMP,surface,-104.063,34.4881,288.051
2017-04-04 00:00:00,2017-04-04 00:00:00,TMP,surface,-103.125,34.4881,288.829
2017-04-04 00:00:00,2017-04-04 00:00:00,TMP,surface,-102.188,34.4881,289.181
2017-04-04 00:00:00,2017-04-04 00:00:00,TMP,surface,-101.25,34.4881,289.442
2017-04-04 00:00:00,2017-04-04 00:00:00,TMP,surface,-100.313,34.4881,289.907
2017-04-04 00:00:00,2017-04-04 00:00:00,TMP,surface,-99.3754,34.4881,290.096
2017-04-04 00:00:00,2017-04-04 00:00:00,TMP,surface,-98.4379,34.4881,289.84
2017-04-04 00:00:00,2017-04-04 00:00:00,TMP,surface,-97.5004,34.4881,289.669
2017-04-04 00:00:00,2017-04-04 00:00:00,TMP,surface,-96.5629,34.4881,289.915
2017-04-04 00:00:00,2017-04-04 00:00:00,TMP,surface,-95.6254,34.4881,290.133
2017-04-04 00:00:00,2017-04-04 00:00:00,TMP,surface,-94.6879,34.4881,289.958
2017-04-04 00:00:00,2017-04-04 00:00:00,TMP,surface,-93.7504,34.4881,289.858
2017-04-04 00:00:00,2017-04-04 00:00:00,TMP,surface,-92.8129,34.4881,290.254
2017-04-04 00:00:00,2017-04-04 00:00:00,TMP,surface,-107.813,35.4329,283.454
2017-04-04 00:00:00,2017-04-04 00:00:00,TMP,surface,-106.875,35.4329,283.773
2017-04-04 00:00:00,2017-04-04 00:00:00,TMP,surface,-105.938,35.4329,284.552
2017-04-04 00:00:00,2017-04-04 00:00:00,TMP,surface,-105,35.4329,285.467
2017-04-04 00:00:00,2017-04-04 00:00:00,TMP,surface,-104.063,35.4329,287.005
2017-04-04 00:00:00,2017-04-04 00:00:00,TMP,surface,-103.125,35.4329,288.246
2017-04-04 00:00:00,2017-04-04 00:00:00,TMP,surface,-102.188,35.4329,288.615
2017-04-04 00:00:00,2017-04-04 00:00:00,TMP,surface,-101.25,35.4329,288.862
2017-04-04 00:00:00,2017-04-04 00:00:00,TMP,surface,-100.313,35.4329,289.207
2017-04-04 00:00:00,2017-04-04 00:00:00,TMP,surface,-99.3754,35.4329,289.291
2017-04-04 00:00:00,2017-04-04 00:00:00,TMP,surface,-98.4379,35.4329,289.219
2017-04-04 00:00:00,2017-04-04 00:00:00,TMP,surface,-97.5004,35.4329,289.391
2017-04-04 00:00:00,2017-04-04 00:00:00,TMP,surface,-96.5629,35.4329,289.741
2017-04-04 00:00:00,2017-04-04 00:00:00,TMP,surface,-95.6254,35.4329,289.829
2017-04-04 00:00:00,2017-04-04 00:00:00,TMP,surface,-94.6879,35.4329,289.432
2017-04-04 00:00:00,2017-04-04 00:00:00,TMP,surface,-93.7504,35.4329,288.832
2017-04-04 00:00:00,2017-04-04 00:00:00,TMP,surface,-92.8129,35.4329,288.717
2017-04-04 00:00:00,2017-04-04 00:00:00,TMP,surface,-107.813,36.3778,282.688
2017-04-04 00:00:00,2017-04-04 00:00:00,TMP,surface,-106.875,36.3778,280.798
2017-04-04 00:00:00,2017-04-04 00:00:00,TMP,surface,-105.938,36.3778,282.09
2017-04-04 00:00:00,2017-04-04 00:00:00,TMP,surface,-105,36.3778,283.41
2017-04-04 00:00:00,2017-04-04 00:00:00,TMP,surface,-104.063,36.3778,285.419
2017-04-04 00:00:00,2017-04-04 00:00:00,TMP,surface,-103.125,36.3778,287.189
2017-04-04 00:00:00,2017-04-04 00:00:00,TMP,surface,-102.188,36.3778,288.159
2017-04-04 00:00:00,2017-04-04 00:00:00,TMP,surface,-101.25,36.3778,288.551
2017-04-04 00:00:00,2017-04-04 00:00:00,TMP,surface,-100.313,36.3778,288.898
2017-04-04 00:00:00,2017-04-04 00:00:00,TMP,surface,-99.3754,36.3778,289.122
2017-04-04 00:00:00,2017-04-04 00:00:00,TMP,surface,-98.4379,36.3778,289.024
2017-04-04 00:00:00,2017-04-04 00:00:00,TMP,surface,-97.5004,36.3778,289.2
2017-04-04 00:00:00,2017-04-04 00:00:00,TMP,surface,-96.5629,36.3778,289.638
2017-04-04 00:00:00,2017-04-04 00:00:00,TMP,surface,-95.6254,36.3778,289.642
2017-04-04 00:00:00,2017-04-04 00:00:00,TMP,surface,-94.6879,36.3778,289.018
2017-04-04 00:00:00,2017-04-04 00:00:00,TMP,surface,-93.7504,36.3778,288.163
2017-04-04 00:00:00,2017-04-04 00:00:00,TMP,surface,-92.8129,36.3778,287.853
2017-04-04 00:00:00,2017-04-04 00:00:00,PRATE,surface,-107.813,25.0393,5e-07
2017-04-04 00:00:00,2017-04-04 00:00:00,PRATE,surface,-106.875,25.0393,2.87e-05
2017-04-04 00:00:00,2017-04-04 00:00:00,PRATE,surface,-105.938,25.0393,7.76e-05
2017-04-04 00:00:00,2017-04-04 00:00:00,PRATE,surface,-105,25.0393,6.94e-05
2017-04-04 00:00:00,2017-04-04 00:00:00,PRATE,surface,-104.063,25.0393,3.97e-05
2017-04-04 00:00:00,2017-04-04 00:00:00,PRATE,surface,-103.125,25.0393,1.75e-05
2017-04-04 00:00:00,2017-04-04 00:00:00,PRATE,surface,-102.188,25.0393,2.15e-05
2017-04-04 00:00:00,2017-04-04 00:00:00,PRATE,surface,-101.25,25.0393,2.42e-05
2017-04-04 00:00:00,2017-04-04 00:00:00,PRATE,surface,-100.313,25.0393,3.55e-05
2017-04-04 00:00:00,2017-04-04 00:00:00,PRATE,surface,-99.3754,25.0393,2.71e-05
2017-04-04 00:00:00,2017-04-04 00:00:00,PRATE,surface,-98.4379,25.0393,2.75e-05
2017-04-04 00:00:00,2017-04-04 00:00:00,PRATE,surface,-97.5004,25.0393,2.38e-05
2017-04-04 00:00:00,2017-04-04 00:00:00,PRATE,surface,-96.5629,25.0393,6.09e-05
2017-04-04 00:00:00,2017-04-04 00:00:00,PRATE,surface,-95.6254,25.0393,7.01e-05
2017-04-04 00:00:00,2017-04-04 00:00:00,PRATE,surface,-94.6879,25.0393,4.84e-05
2017-04-04 00:00:00,2017-04-04 00:00:00,PRATE,surface,-93.7504,25.0393,8.56e-05
2017-04-04 00:00:00,2017-04-04 00:00:00,PRATE,surface,-92.8129,25.0393,0.0001269
2017-04-04 00:00:00,2017-04-04 00:00:00,PRATE,surface,-107.813,25.9842,5.5e-06
2017-04-04 00:00:00,2017-04-04 00:00:00,PRATE,surface,-106.875,25.9842,3.85e-05
2017-04-04 00:00:00,2017-04-04 00:00:00,PRATE,surface,-105.938,25.9842,4.76e-05
2017-04-04 00:00:00,2017-04-04 00:00:00,PRATE,surface,-105,25.9842,4.63e-05
2017-04-04 00:00:00,2017-04-04 00:00:00,PRATE,surface,-104.063,25.9842,2.55e-05
2017-04-04 00:00:00,2017-04-04 00:00:00,PRATE,surface,-103.125,25.9842,2.31e-05
2017-04-04 00:00:00,2017-04-04 00:00:00,PRATE,surface,-102.188,25.9842,2.79e-05
2017-04-04 00:00:00,2017-04-04 00:00:00,PRATE,surface,-101.25,25.9842,2.97e-05
2017-04-04 00:00:00,2017-04-04 00:00:00,PRATE,surface,-100.313,25.9842,2.64e-05
2017-04-04 00:00:00,2017-04-04 00:00:00,PRATE,surface,-99.3754,25.9842,1.96e-05
2017-04-04 00:00:00,2017-04-04 00:00:00,PRATE,surface,-98.4379,25.9842,2.06e-05
2017-04-04 00:00:00,2017-04-04 00:00:00,PRATE,surface,-97.5004,25.9842,2.51e-05
2017-04-04 00:00:00,2017-04-04 00:00:00,PRATE,surface,-96.5629,25.9842,7.2e-05
2017-04-04 00:00:00,2017-04-04 00:00:00,PRATE,surface,-95.6254,25.9842,8.67e-05
2017-04-04 00:00:00,2017-04-04 00:00:00,PRATE,surface,-94.6879,25.9842,5.6e-05
2017-04-04 00:00:00,2017-04-04 00:00:00,PRATE,surface,-93.7504,25.9842,6.49e-05
2017-04-04 00:00:00,2017-04-04 00:00:00,PRATE,surface,-92.8129,25.9842,9.58e-05
2017-04-04 00:00:00,2017-04-04 00:00:00,PRATE,surface,-107.813,26.929,2.11e-05
2017-04-04 00:00:00,2017-04-04 00:00:00,PRATE,surface,-106.875,26.929,3.05e-05
2017-04-04 00:00:00,2017-04-04 00:00:00,PRATE,surface,-105.938,26.929,3.61e-05
2017-04-04 00:00:00,2017-04-04 00:00:00,PRATE,surface,-105,26.929,2.69e-05
2017-04-04 00:00:00,2017-04-04 00:00:00,PRATE,surface,-104.063,26.929,1.84e-05
2017-04-04 00:00:00,2017-04-04 00:00:00,PRATE,surface,-103.125,26.929,2.83e-05
2017-04-04 00:00:00,2017-04-04 00:00:00,PRATE,surface,-102.188,26.929,3.29e-05
2017-04-04 00:00:00,2017-04-04 00:00:00,PRATE,surface,-101.25,26.929,3.12e-05
2017-04-04 00:00:00,2017-04-04 00:00:00,PRATE,surface,-100.313,26.929,2.15e-05
2017-04-04 00:00:00,2017-04-04 00:00:00,PRATE,surface,-99.3754,26.929,1.72e-05
2017-04-04 00:00:00,2017-04-04 00:00:00,PRATE,surface,-98.4379,26.929,2.65e-05
2017-04-04 00:00:00,2017-04-04 00:00:00,PRATE,surface,-97.5004,26.929,3.49e-05
2017-04-04 00:00:00,2017-04-04 00:00:00,PRATE,surface,-96.5629,26.929,5.69e-05
2017-04-04 00:00:00,2017-04-04 00:00:00,PRATE,surface,-95.6254,26.929,4.73e-05
2017-04-04 00:00:00,2017-04-04 00:00:00,PRATE,surface,-94.6879,26.929,3.84e-05
2017-04-04 00:00:00,2017-04-04 00:00:00,PRATE,surface,-93.7504,26.929,4.2e-05
2017-04-04 00:00:00,2017-04-04 00:00:00,PRATE,surface,-92.8129,26.929,7.8e-05
2017-04-04 00:00:00,2017-04-04 00:00:00,PRATE,surface,-107.813,27.8739,2.42e-05
2017-04-04 00:00:00,2017-04-04 00:00:00,PRATE,surface,-106.875,27.8739,2.7e-05
2017-04-04 00:00:00,2017-04-04 00:00:00,PRATE,surface,-105.938,27.8739,2.14e-05
2017-04-04 00:00:00,2017-04-04 00:00:00,PRATE,surface,-105,27.8739,6.2e-06
2017-04-04 00:00:00,2017-04-04 00:00:00,PRATE,surface,-104.063,27.8739,1.51e-05
2017-04-04 00:00:00,2017-04-04 00:00:00,PRATE,surface,-103.125,27.8739,2.39e-05
2017-04-04 00:00:00,2017-04-04 00:00:00,PRATE,surface,-102.188,27.8739,2.83e-05
2017-04-04 00:00:00,2017-04-04 00:00:00,PRATE,surface,-101.25,27.8739,2.31e-05
2017-04-04 00:00:00,2017-04-04 00:00:00,PRATE,surface,-100.313,27.8739,1.75e-05
2017-04-04 00:00:00,2017-04-04 00:00:00,PRATE,surface,-99.3754,27.8739,1.54e-05
2017-04-04 00:00:00,2017-04-04 00:00:00,PRATE,surface,-98.4379,27.8739,1.76e-05
2017-04-04 00:00:00,2017-04-04 00:00:00,PRATE,surface,-97.5004,27.8739,2.55e-05
2017-04-04 00:00:00,2017-04-04 00:00:00,PRATE,surface,-96.5629,27.8739,2.99e-05
2017-04-04 00:00:00,2017-04-04 00:00:00,PRATE,surface,-95.6254,27.8739,3.14e-05
2017-04-04 00:00:00,2017-04-04 00:00:00,PRATE,surface,-94.6879,27.8739,4.44e-05
2017-04-04 00:00:00,2017-04-04 00:00:00,PRATE,surface,-93.7504,27.8739,5.85e-05
2017-04-04 00:00:00,2017-04-04 00:00:00,PRATE,surface,-92.8129,27.8739,5.29e-05
2017-04-04 00:00:00,2017-04-04 00:00:00,PRATE,surface,-107.813,28.8188,2.4e-05
2017-04-04 00:00:00,2017-04-04 00:00:00,PRATE,surface,-106.875,28.8188,2.36e-05
2017-04-04 00:00:00,2017-04-04 00:00:00,PRATE,surface,-105.938,28.8188,1.33e-05
2017-04-04 00:00:00,2017-04-04 00:00:00,PRATE,surface,-105,28.8188,3.3e-06
2017-04-04 00:00:00,2017-04-04 00:00:00,PRATE,surface,-104.063,28.8188,1.08e-05
2017-04-04 00:00:00,2017-04-04 00:00:00,PRATE,surface,-103.125,28.8188,1.71e-05
2017-04-04 00:00:00,2017-04-04 00:00:00,PRATE,surface,-102.188,28.8188,1.8e-05
2017-04-04 00:00:00,2017-04-04 00:00:00,PRATE,surface,-101.25,28.8188,1.68e-05
2017-04-04 00:00:00,2017-04-04 00:00:00,PRATE,surface,-100.313,28.8188,2.17e-05
2017-04-04 00:00:00,2017-04-04 00:00:00,PRATE,surface,-99.3754,28.8188,2.11e-05
2017-04-04 00:00:00,2017-04-04 00:00:00,PRATE,surface,-98.4379,28.8188,1.78e-05
2017-04-04 00:00:00,2017-04-04 00:00:00,PRATE,surface,-97.5004,28.8188,1.55e-05
2017-04-04 00:00:00,2017-04-04 00:00:00,PRATE,surface,-96.5629,28.8188,1.7e-05
2017-04-04 00:00:00,2017-04-04 00:00:00,PRATE,surface,-95.6254,28.8188,2.79e-05
2017-04-04 00:00:00,2017-04-04 00:00:00,PRATE,surface,-94.6879,28.8188,3.74e-05
2017-04-04 00:00:00,2017-04-04 00:00:00,PRATE,surface,-93.7504,28.8188,2.99e-05
2017-04-04 00:00:00,2017-04-04 00:00:00,PRATE,surface,-92.8129,28.8188,2.46e-05
2017-04-04 00:00:00,2017-04-04 00:00:00,PRATE,surface,-107.813,29.7637,1.57e-05
2017-04-04 00:00:00,2017-04-04 00:00:00,PRATE,surface,-106.875,29.7637,1.76e-05
2017-04-04 00:00:00,2017-04-04 00:00:00,PRATE,surface,-105.938,29.7637,1.1e-05
2017-04-04 00:00:00,2017-04-04 00:00:00,PRATE,surface,-105,29.7637,1.01e-05
2017-04-04 00:00:00,2017-04-04 00:00:00,PRATE,surface,-104.063,29.7637,1.11e-05
2017-04-04 00:00:00,2017-04-04 00:00:00,PRATE,surface,-103.125,29.7637,1.39e-05
2017-04-04 00:00:00,2017-04-04 00:00:00,PRATE,surface,-102.188,29.7637,1.19e-05
2017-04-04 00:00:00,2017-04-04 00:00:00,PRATE,surface,-101.25,29.7637,1.37e-05
2017-04-04 00:00:00,2017-04-04 00:00:00,PRATE,surface,-100.313,29.7637,2.58e-05
2017-04-04 00:00:00,2017-04-04 00:00:00,PRATE,surface,-99.3754,29.7637,2.83e-05
2017-04-04 00:00:00,2017-04-04 00:00:00,PRATE,surface,-98.4379,29.7637,2.07e-05
2017-04-04 00:00:00,2017-04-04 00:00:00,PRATE,surface,-97.5004,29.7637,1.43e-05
2017-04-04 00:00:00,2017-04-04 00:00:00,PRATE,surface,-96.5629,29.7637,1.39e-05
2017-04-04 00:00:00,2017-04-04 00:00:00,PRATE,surface,-95.6254,29.7637,1.87e-05
2017-04-04 00:00:00,2017-04-04 00:00:00,PRATE,surface,-94.6879,29.7637,2.72e-05
2017-04-04 00:00:00,2017-04-04 00:00:00,PRATE,surface,-93.7504,29.7637,3.11e-05
2017-04-04 00:00:00,2017-04-04 00:00:00,PRATE,surface,-92.8129,29.7637,2.23e-05
2017-04-04 00:00:00,2017-04-04 00:00:00,PRATE,surface,-107.813,30.7085,5.6e-06
2017-04-04 00:00:00,2017-04-04 00:00:00,PRATE,surface,-106.875,30.7085,8.2e-06
2017-04-04 00:00:00,2017-04-04 00:00:00,PRATE,surface,-105.938,30.7085,1.03e-05
2017-04-04 00:00:00,2017-04-04 00:00:00,PRATE,surface,-105,30.7085,1.51e-05
2017-04-04 00:00:00,2017-04-04 00:00:00,PRATE,surface,-104.063,30.7085,9.7e-06
2017-04-04 00:00:00,2017-04-04 00:00:00,PRATE,surface,-103.125,30.7085,1.18e-05
2017-04-04 00:00:00,2017-04-04 00:00:00,PRATE,surface,-102.188,30.7085,1.22e-05
2017-04-04 00:00:00,2017-04-04 00:00:00,PRATE,surface,-101.25,30.7085,1.25e-05
2017-04-04 00:00:00,2017-04-04 00:00:00,PRATE,surface,-100.313,30.7085,2.44e-05
2017-04-04 00:00:00,2017-04-04 00:00:00,PRATE,surface,-99.3754,30.7085,3.12e-05
2017-04-04 00:00:00,2017-04-04 00:00:00,PRATE,surface,-98.4379,30.7085,2.48e-05
2017-04-04 00:00:00,2017-04-04 00:00:00,PRATE,surface,-97.5004,30.7085,1.54e-05
2017-04-04 00:00:00,2017-04-04 00:00:00,PRATE,surface,-96.5629,30.7085,1.05e-05
2017-04-04 00:00:00,2017-04-04 00:00:00,PRATE,surface,-95.6254,30.7085,1.02e-05
2017-04-04 00:00:00,2017-04-04 00:00:00,PRATE,surface,-94.6879,30.7085,1.39e-05
2017-04-04 00:00:00,2017-04-04 00:00:00,PRATE,surface,-93.7504,30.7085,1.78e-05
2017-04-04 00:00:00,2017-04-04 00:00:00,PRATE,surface,-92.8129,30.7085,1.92e-05
2017-04-04 00:00:00,2017-04-04 00:00:00,PRATE,surface,-107.813,31.6534,1e-06
2017-04-04 00:00:00,2017-04-04 00:00:00,PRATE,surface,-106.875,31.6534,2.2e-06
2017-04-04 00:00:00,2017-04-04 00:00:00,PRATE,surface,-105.938,31.6534,5.7e-06
2017-04-04 00:00:00,2017-04-04 00:00:00,PRATE,surface,-105,31.6534,9e-06
2017-04-04 00:00:00,2017-04-04 00:00:00,PRATE,surface,-104.063,31.6534,8e-06
2017-04-04 00:00:00,2017-04-04 00:00:00,PRATE,surface,-103.125,31.6534,8.9e-06
2017-04-04 00:00:00,2017-04-04 00:00:00,PRATE,surface,-102.188,31.6534,1.29e-05
2017-04-04 00:00:00,2017-04-04 00:00:00,PRATE,surface,-101.25,31.6534,1.49e-05
2017-04-04 00:00:00,2017-04-04 00:00:00,PRATE,surface,-100.313,31.6534,1.86e-05
2017-04-04 00:00:00,2017-04-04 00:00:00,PRATE,surface,-99.3754,31.6534,2.78e-05
2017-04-04 00:00:00,2017-04-04 00:00:00,PRATE,surface,-98.4379,31.6534,3.25e-05
2017-04-04 00:00:00,2017-04-04 00:00:00,PRATE,surface,-97.5004,31.6534,2.68e-05
2017-04-04 00:00:00,2017-04-04 00:00:00,PRATE,surface,-96.5629,31.6534,1.68e-05
2017-04-04 00:00:00,2017-04-04 00:00:00,PRATE,surface,-95.6254,31.6534,1.1e-05
2017-04-04 00:00:00,2017-04-04 00:00:00,PRATE,surface,-94.6879,31.6534,1.12e-05
2017-04-04 00:00:00,2017-04-04 00:00:00,PRATE,surface,-93.7504,31.6534,1.39e-05
2017-04-04 00:00:00,2017-04-04 00:00:00,PRATE,surface,-92.8129,31.6534,1.76e-05
2017-04-04 00:00:00,2017-04-04 00:00:00,PRATE,surface,-107.813,32.5983,1.7e-06
2017-04-04 00:00:00,2017-04-04 00:00:00,PRATE,surface,-106.875,32.5983,1.5e-06
2017-04-04 00:00:00,2017-04-04 00:00:00,PRATE,surface,-105.938,32.5983,3.7e-06
2017-04-04 00:00:00,2017-04-04 00:00:00,PRATE,surface,-105,32.5983,9.2e-06
2017-04-04 00:00:00,2017-04-04 00:00:00,PRATE,surface,-104.063,32.5983,8.9e-06
2017-04-04 00:00:00,2017-04-04 00:00:00,PRATE,surface,-103.125,32.5983,7.9e-06
2017-04-04 00:00:00,2017-04-04 00:00:00,PRATE,surface,-102.188,32.5983,9.3e-06
2017-04-04 00:00:00,2017-04-04 00:00:00,PRATE,surface,-101.25,32.5983,1.24e-05
2017-04-04 00:00:00,2017-04-04 00:00:00,PRATE,surface,-100.313,32.5983,1.5e-05
2017-04-04 00:00:00,2017-04-04 00:00:00,PRATE,surface,-99.3754,32.5983,2.19e-05
2017-04-04 00:00:00,2017-04-04 00:00:00,PRATE,surface,-98.4379,32.5983,3.64e-05
2017-04-04 00:00:00,2017-04-04 00:00:00,PRATE,surface,-97.5004,32.5983,4.15e-05
2017-04-04 00:00:00,2017-04-04 00:00:00,PRATE,surface,-96.5629,32.5983,3.15e-05
2017-04-04 00:00:00,2017-04-04 00:00:00,PRATE,surface,-95.6254,32.5983,1.96e-05
2017-04-04 00:00:00,2017-04-04 00:00:00,PRATE,surface,-94.6879,32.5983,1.35e-05
2017-04-04 00:00:00,2017-04-04 00:00:00,PRATE,surface,-93.7504,32.5983,1.29e-05
2017-04-04 00:00:00,2017-04-04 00:00:00,PRATE,surface,-92.8129,32.5983,1.7e-05
2017-04-04 00:00:00,2017-04-04 00:00:00,PRATE,surface,-107.813,33.5432,8.1e-06
2017-04-04 00:00:00,2017-04-04 00:00:00,PRATE,surface,-106.875,33.5432,5.9e-06
2017-04-04 00:00:00,2017-04-04 00:00:00,PRATE,surface,-105.938,33.5432,3.5e-06
2017-04-04 00:00:00,2017-04-04 00:00:00,PRATE,surface,-105,33.5432,6.6e-06
2017-04-04 00:00:00,2017-04-04 00:00:00,PRATE,surface,-104.063,33.5432,7.5e-06
2017-04-04 00:00:00,2017-04-04 00:00:00,PRATE,surface,-103.125,33.5432,8.8e-06
2017-04-04 00:00:00,2017-04-04 00:00:00,PRATE,surface,-102.188,33.5432,1.09e-05
2017-04-04 00:00:00,2017-04-04 00:00:00,PRATE,surface,-101.25,33.5432,1.1e-05
2017-04-04 00:00:00,2017-04-04 00:00:00,PRATE,surface,-100.313,33.5432,1.1e-05
2017-04-04 00:00:00,2017-04-04 00:00:00,PRATE,surface,-99.3754,33.5432,1.35e-05
2017-04-04 00:00:00,2017-04-04 00:00:00,PRATE,surface,-98.4379,33.5432,2.5e-05
2017-04-04 00:00:00,2017-04-04 00:00:00,PRATE,surface,-97.5004,33.5432,3.97e-05
2017-04-04 00:00:00,2017-04-04 00:00:00,PRATE,surface,-96.5629,33.5432,4.07e-05
2017-04-04 00:00:00,2017-04-04 00:00:00,PRATE,surface,-95.6254,33.5432,3.04e-05
2017-04-04 00:00:00,2017-04-04 00:00:00,PRATE,surface,-94.6879,33.5432,2.39e-05
2017-04-04 00:00:00,2017-04-04 00:00:00,PRATE,surface,-93.7504,33.5432,1.91e-05
2017-04-04 00:00:00,2017-04-04 00:00:00,PRATE,surface,-92.8129,33.5432,1.88e-05
2017-04-04 00:00:00,2017-04-04 00:00:00,PRATE,surface,-107.813,34.4881,1.42e-05
2017-04-04 00:00:00,2017-04-04 00:00:00,PRATE,surface,-106.875,34.4881,7.5e-06
2017-04-04 00:00:00,2017-04-04 00:00:00,PRATE,surface,-105.938,34.4881,5.4e-06
2017-04-04 00:00:00,2017-04-04 00:00:00,PRATE,surface,-105,34.4881,6.4e-06
2017-04-04 00:00:00,2017-04-04 00:00:00,PRATE,surface,-104.063,34.4881,6e-06
2017-04-04 00:00:00,2017-04-04 00:00:00,PRATE,surface,-103.125,34.4881,6.5e-06
2017-04-04 00:00:00,2017-04-04 00:00:00,PRATE,surface,-102.188,34.4881,1.11e-05
2017-04-04 00:00:00,2017-04-04 00:00:00,PRATE,surface,-101.25,34.4881,1.32e-05
2017-04-04 00:00:00,2017-04-04 00:00:00,PRATE,surface,-100.313,34.4881,1.25e-05
2017-04-04 00:00:00,2017-04-04 00:00:00,PRATE,surface,-99.3754,34.4881,1.18e-05
2017-04-04 00:00:00,2017-04-04 00:00:00,PRATE,surface,-98.4379,34.4881,1.61e-05
2017-04-04 00:00:00,2017-04-04 00:00:00,PRATE,surface,-97.5004,34.4881,2.79e-05
2017-04-04 00:00:00,2017-04-04 00:00:00,PRATE,surface,-96.5629,34.4881,3.79e-05
2017-04-04 00:00:00,2017-04-04 00:00:00,PRATE,surface,-95.6254,34.4881,3.8e-05
2017-04-04 00:00:00,2017-04-04 00:00:00,PRATE,surface,-94.6879,34.4881,3.39e-05
2017-04-04 00:00:00,2017-04-04 00:00:00,PRATE,surface,-93.7504,34.4881,3.03e-05
2017-04-04 00:00:00,2017-04-04 00:00:00,PRATE,surface,-92.8129,34.4881,2.4e-05
2017-04-04 00:00:00,2017-04-04 00:00:00,PRATE,surface,-107.813,35.4329,6.9e-06
2017-04-04 00:00:00,2017-04-04 00:00:00,PRATE,surface,-106.875,35.4329,5.6e-06
2017-04-04 00:00:00,2017-04-04 00:00:00,PRATE,surface,-105.938,35.4329,3.7e-06
2017-04-04 00:00:00,2017-04-04 00:00:00,PRATE,surface,-105,35.4329,5.7e-06
2017-04-04 00:00:00,2017-04-04 00:00:00,PRATE,surface,-104.063,35.4329,9.4e-06
2017-04-04 00:00:00,2017-04-04 00:00:00,PRATE,surface,-103.125,35.4329,1.27e-05
2017-04-04 00:00:00,2017-04-04 00:00:00,PRATE,surface,-102.188,35.4329,1.63e-05
2017-04-04 00:00:00,2017-04-04 00:00:00,PRATE,surface,-101.25,35.4329,1.86e-05
2017-04-04 00:00:00,2017-04-04 00:00:00,PRATE,surface,-100.313,35.4329,2.01e-05
2017-04-04 00:00:00,2017-04-04 00:00:00,PRATE,surface,-99.3754,35.4329,1.68e-05
2017-04-04 00:00:00,2017-04-04 00:00:00,PRATE,surface,-98.4379,35.4329,1.7e-05
2017-04-04 00:00:00,2017-04-04 00:00:00,PRATE,surface,-97.5004,35.4329,2.37e-05
2017-04-04 00:00:00,2017-04-04 00:00:00,PRATE,surface,-96.5629,35.4329,3.13e-05
2017-04-04 00:00:00,2017-04-04 00:00:00,PRATE,surface,-95.6254,35.4329,3.42e-05
2017-04-04 00:00:00,2017-04-04 00:00:00,PRATE,surface,-94.6879,35.4329,3.45e-05
2017-04-04 00:00:00,2017-04-04 00:00:00,PRATE,surface,-93.7504,35.4329,3.69e-05
2017-04-04 00:00:00,2017-04-04 00:00:00,PRATE,surface,-92.8129,35.4329,3.36e-05
2017-04-04 00:00:00,2017-04-04 00:00:00,PRATE,surface,-107.813,36.3778,8.6e-06
2017-04-04 00:00:00,2017-04-04 00:00:00,PRATE,surface,-106.875,36.3778,5.3e-06
2017-04-04 00:00:00,2017-04-04 00:00:00,PRATE,surface,-105.938,36.3778,2.4e-06
2017-04-04 00:00:00,2017-04-04 00:00:00,PRATE,surface,-105,36.3778,1.6e-06
2017-04-04 00:00:00,2017-04-04 00:00:00,PRATE,surface,-104.063,36.3778,5.4e-06
2017-04-04 00:00:00,2017-04-04 00:00:00,PRATE,surface,-103.125,36.3778,5.9e-06
2017-04-04 00:00:00,2017-04-04 00:00:00,PRATE,surface,-102.188,36.3778,1.03e-05
2017-04-04 00:00:00,2017-04-04 00:00:00,PRATE,surface,-101.25,36.3778,1.72e-05
2017-04-04 00:00:00,2017-04-04 00:00:00,PRATE,surface,-100.313,36.3778,2.35e-05
2017-04-04 00:00:00,2017-04-04 00:00:00,PRATE,surface,-99.3754,36.3778,2.53e-05
2017-04-04 00:00:00,2017-04-04 00:00:00,PRATE,surface,-98.4379,36.3778,2.46e-05
2017-04-04 00:00:00,2017-04-04 00:00:00,PRATE,surface,-97.5004,36.3778,2.6e-05
2017-04-04 00:00:00,2017-04-04 00:00:00,PRATE,surface,-96.5629,36.3778,2.78e-05
2017-04-04 00:00:00,2017-04-04 00:00:00,PRATE,surface,-95.6254,36.3778,2.7e-05
2017-04-04 00:00:00,2017-04-04 00:00:00,PRATE,surface,-94.6879,36.3778,2.74e-05
2017-04-04 00:00:00,2017-04-04 00:00:00,PRATE,surface,-93.7504,36.3778,3.28e-05
2017-04-04 00:00:00,2017-04-04 00:00:00,PRATE,surface,-92.8129,36.3778,3.72e-05
