2015-07-04 00:00:00,2015-07-04 00:00:00,TMP,surface,-107.813,25.0393,289.293
2015-07-04 00:00:00,2015-07-04 00:00:00,TMP,surface,-106.875,25.0393,283.685
2015-07-04 00:00:00,2015-07-04 00:00:00,TMP,surface,-105.938,25.0393,278.299
2015-07-04 00:00:00,2015-07-04 00:00:00,TMP,surface,-105,25.0393,277.037
2015-07-04 00:00:00,2015-07-04 00:00:00,TMP,surface,-104.063,25.0393,280.329
2015-07-04 00:00:00,2015-07-04 00:00:00,TMP,surface,-103.125,25.0393,282.197
2015-07-04 00:00:00,2015-07-04 00:00:00,TMP,surface,-102.188,25.0393,281.64
2015-07-04 00:00:00,2015-07-04 00:00:00,TMP,surface,-101.25,25.0393,280.174
2015-07-04 00:00:00,2015-07-04 00:00:00,TMP,surface,-100.313,25.0393,281.229
2015-07-04 00:00:00,2015-07-04 00:00:00,TMP,surface,-99.3754,25.0393,284.105
2015-07-04 00:00:00,2015-07-04 00:00:00,TMP,surface,-98.4379,25.0393,287.373
2015-07-04 00:00:00,2015-07-04 00:00:00,TMP,surface,-97.5004,25.0393,294.237
2015-07-04 00:00:00,2015-07-04 00:00:00,TMP,surface,-96.5629,25.0393,294.969
2015-07-04 00:00:00,2015-07-04 00:00:00,TMP,surface,-95.6254,25.0393,295.4
2015-07-04 00:00:00,2015-07-04 00:00:00,TMP,surface,-94.6879,25.0393,295.737
2015-07-04 00:00:00,2015-07-04 00:00:00,TMP,surface,-93.7504,25.0393,295.771
2015-07-04 00:00:00,2015-07-04 00:00:00,TMP,surface,-92.8129,25.0393,295.71
2015-07-04 00:00:00,2015-07-04 00:00:00,TMP,surface,-107.813,25.9842,284.513
2015-07-04 00:00:00,2015-07-04 00:00:00,TMP,surface,-106.875,25.9842,278.921
2015-07-04 00:00:00,2015-07-04 00:00:00,TMP,surface,-105.938,25.9842,276.587
2015-07-04 00:00:00,2015-07-04 00:00:00,TMP,surface,-105,25.9842,278.789
2015-07-04 00:00:00,2015-07-04 00:00:00,TMP,surface,-104.063,25.9842,281.773
2015-07-04 00:00:00,2015-07-04 00:00:00,TMP,surface,-103.125,25.9842,282.342
2015-07-04 00:00:00,2015-07-04 00:00:00,TMP,surface,-102.188,25.9842,281.915
2015-07-04 00:00:00,2015-07-04 00:00:00,TMP,surface,-101.25,25.9842,281.653
2015-07-04 00:00:00,2015-07-04 00:00:00,TMP,surface,-100.313,25.9842,282.337
2015-07-04 00:00:00,2015-07-04 00:00:00,TMP,surface,-99.3754,25.9842,284.79
2015-07-04 00:00:00,2015-07-04 00:00:00,TMP,surface,-98.4379,25.9842,286.865
2015-07-04 00:00:00,2015-07-04 00:00:00,TMP,surface,-97.5004,25.9842,288.677
2015-07-04 00:00:00,2015-07-04 00:00:00,TMP,surface,-96.5629,25.9842,294.497
2015-07-04 00:00:00,2015-07-04 00:00:00,TMP,surface,-95.6254,25.9842,295.091
2015-07-04 00:00:00,2015-07-04 00:00:00,TMP,surface,-94.6879,25.9842,295.429
2015-07-04 00:00:00,2015-07-04 00:00:00,TMP,surface,-93.7504,25.9842,295.512
2015-07-04 00:00:00,2015-07-04 00:00:00,TMP,surface,-92.8129,25.9842,295.409
2015-07-04 00:00:00,2015-07-04 00:00:00,TMP,surface,-107.813,26.929,279.547
2015-07-04 00:00:00,2015-07-04 00:00:00,TMP,surface,-106.875,26.929,275.877
2015-07-04 00:00:00,2015-07-04 00:00:00,TMP,surface,-105.938,26.929,277.683
2015-07-04 00:00:00,2015-07-04 00:00:00,TMP,surface,-105,26.929,280.353
2015-07-04 00:00:00,2015-07-04 00:00:00,TMP,surface,-104.063,26.929,281.021
2015-07-04 00:00:00,2015-07-04 00:00:00,TMP,surface,-103.125,26.929,280.089
2015-07-04 00:00:00,2015-07-04 00:00:00,TMP,surface,-102.188,26.929,280.713
2015-07-04 00:00:00,2015-07-04 00:00:00,TMP,surface,-101.25,26.929,282.24
2015-07-04 00:00:00,2015-07-04 00:00:00,TMP,surface,-100.313,26.929,283.598
2015-07-04 00:00:00,2015-07-04 00:00:00,TMP,surface,-99.3754,26.929,284.869
2015-07-04 00:00:00,2015-07-04 00:00:00,TMP,surface,-98.4379,26.929,285.539
2015-07-04 00:00:00,2015-07-04 00:00:00,TMP,surface,-97.5004,26.929,292.611
2015-07-04 00:00:00,2015-07-04 00:00:00,TMP,surface,-96.5629,26.929,293.851
2015-07-04 00:00:00,2015-07-04 00:00:00,TMP,surface,-95.6254,26.929,294.473
2015-07-04 00:00:00,2015-07-04 00:00:00,TMP,surface,-94.6879,26.929,294.659
2015-07-04 00:00:00,2015-07-04 00:00:00,TMP,surface,-93.7504,26.929,294.59
2015-07-04 00:00:00,2015-07-04 00:00:00,TMP,surface,-92.8129,26.929,294.485
2015-07-04 00:00:00,2015-07-04 00:00:00,TMP,surface,-107.813,27.8739,276.608
2015-07-04 00:00:00,2015-07-04 00:00:00,TMP,surface,-106.875,27.8739,275.425
2015-07-04 00:00:00,2015-07-04 00:00:00,TMP,surface,-105.938,27.8739,278.4
2015-07-04 00:00:00,2015-07-04 00:00:00,TMP,surface,-105,27.8739,280.464
2015-07-04 00:00:00,2015-07-04 00:00:00,TMP,surface,-104.063,27.8739,280.187
2015-07-04 00:00:00,2015-07-04 00:00:00,TMP,surface,-103.125,27.8739,279.041
2015-07-04 00:00:00,2015-07-04 00:00:00,TMP,surface,-102.188,27.8739,279.992
2015-07-04 00:00:00,2015-07-04 00:00:00,TMP,surface,-101.25,27.8739,281.776
2015-07-04 00:00:00,2015-07-04 00:00:00,TMP,surface,-100.313,27.8739,283.341
2015-07-04 00:00:00,2015-07-04 00:00:00,TMP,surface,-99.3754,27.8739,283.808
2015-07-04 00:00:00,2015-07-04 00:00:00,TMP,surface,-98.4379,27.8739,284.209
2015-07-04 00:00:00,2015-07-04 00:00:00,TMP,surface,-97.5004,27.8739,288.998
2015-07-04 00:00:00,2015-07-04 00:00:00,TMP,surface,-96.5629,27.8739,293.747
2015-07-04 00:00:00,2015-07-04 00:00:00,TMP,surface,-95.6254,27.8739,293.977
2015-07-04 00:00:00,2015-07-04 00:00:00,TMP,surface,-94.6879,27.8739,293.629
2015-07-04 00:00:00,2015-07-04 00:00:00,TMP,surface,-93.7504,27.8739,293.321
2015-07-04 00:00:00,2015-07-04 00:00:00,TMP,surface,-92.8129,27.8739,293.297
2015-07-04 00:00:00,2015-07-04 00:00:00,TMP,surface,-107.813,28.8188,275.296
2015-07-04 00:00:00,2015-07-04 00:00:00,TMP,surface,-106.875,28.8188,275.921
2015-07-04 00:00:00,2015-07-04 00:00:00,TMP,surface,-105.938,28.8188,278.621
2015-07-04 00:00:00,2015-07-04 00:00:00,TMP,surface,-105,28.8188,279.603
2015-07-04 00:00:00,2015-07-04 00:00:00,TMP,surface,-104.063,28.8188,278.48
2015-07-04 00:00:00,2015-07-04 00:00:00,TMP,surface,-103.125,28.8188,278.275
2015-07-04 00:00:00,2015-07-04 00:00:00,TMP,surface,-102.188,28.8188,279.441
2015-07-04 00:00:00,2015-07-04 00:00:00,TMP,surface,-101.25,28.8188,281.131
2015-07-04 00:00:00,2015-07-04 00:00:00,TMP,surface,-100.313,28.8188,281.961
2015-07-04 00:00:00,2015-07-04 00:00:00,TMP,surface,-99.3754,28.8188,281.977
2015-07-04 00:00:00,2015-07-04 00:00:00,TMP,surface,-98.4379,28.8188,282.12
2015-07-04 00:00:00,2015-07-04 00:00:00,TMP,surface,-97.5004,28.8188,282.726
2015-07-04 00:00:00,2015-07-04 00:00:00,TMP,surface,-96.5629,28.8188,283.528
2015-07-04 00:00:00,2015-07-04 00:00:00,TMP,surface,-95.6254,28.8188,287.545
2015-07-04 00:00:00,2015-07-04 00:00:00,TMP,surface,-94.6879,28.8188,293.336
2015-07-04 00:00:00,2015-07-04 00:00:00,TMP,surface,-93.7504,28.8188,293.126
2015-07-04 00:00:00,2015-07-04 00:00:00,TMP,surface,-92.8129,28.8188,293.192
2015-07-04 00:00:00,2015-07-04 00:00:00,TMP,surface,-107.813,29.7637,276.101
2015-07-04 00:00:00,2015-07-04 00:00:00,TMP,surface,-106.875,29.7637,276.968
2015-07-04 00:00:00,2015-07-04 00:00:00,TMP,surface,-105.938,29.7637,278.675
2015-07-04 00:00:00,2015-07-04 00:00:00,TMP,surface,-105,29.7637,278.077
2015-07-04 00:00:00,2015-07-04 00:00:00,TMP,surface,-104.063,29.7637,278.096
2015-07-04 00:00:00,2015-07-04 00:00:00,TMP,surface,-103.125,29.7637,278.763
2015-07-04 00:00:00,2015-07-04 00:00:00,TMP,surface,-102.188,29.7637,279.878
2015-07-04 00:00:00,2015-07-04 00:00:00,TMP,surface,-101.25,29.7637,280.584
2015-07-04 00:00:00,2015-07-04 00:00:00,TMP,surface,-100.313,29.7637,280.505
2015-07-04 00:00:00,2015-07-04 00:00:00,TMP,surface,-99.3754,29.7637,280.331
2015-07-04 00:00:00,2015-07-04 00:00:00,TMP,surface,-98.4379,29.7637,280.518
2015-07-04 00:00:00,2015-07-04 00:00:00,TMP,surface,-97.5004,29.7637,280.749
2015-07-04 00:00:00,2015-07-04 00:00:00,TMP,surface,-96.5629,29.7637,281.059
2015-07-04 00:00:00,2015-07-04 00:00:00,TMP,surface,-95.6254,29.7637,281.726
2015-07-04 00:00:00,2015-07-04 00:00:00,TMP,surface,-94.6879,29.7637,285.649
2015-07-04 00:00:00,2015-07-04 00:00:00,TMP,surface,-93.7504,29.7637,290.469
2015-07-04 00:00:00,2015-07-04 00:00:00,TMP,surface,-92.8129,29.7637,282.569
2015-07-04 00:00:00,2015-07-04 00:00:00,TMP,surface,-107.813,30.7085,277.669
2015-07-04 00:00:00,2015-07-04 00:00:00,TMP,surface,-106.875,30.7085,278.409
2015-07-04 00:00:00,2015-07-04 00:00:00,TMP,surface,-105.938,30.7085,278.129
2015-07-04 00:00:00,2015-07-04 00:00:00,TMP,surface,-105,30.7085,277.283
2015-07-04 00:00:00,2015-07-04 00:00:00,TMP,surface,-104.063,30.7085,277.651
2015-07-04 00:00:00,2015-07-04 00:00:00,TMP,surface,-103.125,30.7085,279.005
2015-07-04 00:00:00,2015-07-04 00:00:00,TMP,surface,-102.188,30.7085,279.782
2015-07-04 00:00:00,2015-07-04 00:00:00,TMP,surface,-101.25,30.7085,279.917
2015-07-04 00:00:00,2015-07-04 00:00:00,TMP,surface,-100.313,30.7085,279.71
2015-07-04 00:00:00,2015-07-04 00:00:00,TMP,surface,-99.3754,30.7085,279.641
2015-07-04 00:00:00,2015-07-04 00:00:00,TMP,surface,-98.4379,30.7085,279.779
2015-07-04 00:00:00,2015-07-04 00:00:00,TMP,surface,-97.5004,30.7085,279.902
2015-07-04 00:00:00,2015-07-04 00:00:00,TMP,surface,-96.5629,30.7085,279.875
2015-07-04 00:00:00,2015-07-04 00:00:00,TMP,surface,-95.6254,30.7085,279.792
2015-07-04 00:00:00,2015-07-04 00:00:00,TMP,surface,-94.6879,30.7085,279.739
2015-07-04 00:00:00,2015-07-04 00:00:00,TMP,surface,-93.7504,30.7085,279.547
2015-07-04 00:00:00,2015-07-04 00:00:00,TMP,surface,-92.8129,30.7085,279.093
2015-07-04 00:00:00,2015-07-04 00:00:00,TMP,surface,-107.813,31.6534,277.349
2015-07-04 00:00:00,2015-07-04 00:00:00,TMP,surface,-106.875,31.6534,277.793
2015-07-04 00:00:00,2015-07-04 00:00:00,TMP,surface,-105.938,31.6534,276.944
2015-07-04 00:00:00,2015-07-04 00:00:00,TMP,surface,-105,31.6534,276.648
2015-07-04 00:00:00,2015-07-04 00:00:00,TMP,surface,-104.063,31.6534,277.329
2015-07-04 00:00:00,2015-07-04 00:00:00,TMP,surface,-103.125,31.6534,278.501
2015-07-04 00:00:00,2015-07-04 00:00:00,TMP,surface,-102.188,31.6534,279.15
2015-07-04 00:00:00,2015-07-04 00:00:00,TMP,surface,-101.25,31.6534,279.083
2015-07-04 00:00:00,2015-07-04 00:00:00,TMP,surface,-100.313,31.6534,278.969
2015-07-04 00:00:00,2015-07-04 00:00:00,TMP,surface,-99.3754,31.6534,278.997
2015-07-04 00:00:00,2015-07-04 00:00:00,TMP,surface,-98.4379,31.6534,279.112
2015-07-04 00:00:00,2015-07-04 00:00:00,TMP,surface,-97.5004,31.6534,279.094
2015-07-04 00:00:00,2015-07-04 00:00:00,TMP,surface,-96.5629,31.6534,278.917
2015-07-04 00:00:00,2015-07-04 00:00:00,TMP,surface,-95.6254,31.6534,278.561
2015-07-04 00:00:00,2015-07-04 00:00:00,TMP,surface,-94.6879,31.6534,278.013
2015-07-04 00:00:00,2015-07-04 00:00:00,TMP,surface,-93.7504,31.6534,277.595
2015-07-04 00:00:00,2015-07-04 00:00:00,TMP,surface,-92.8129,31.6534,277.377
2015-07-04 00:00:00,2015-07-04 00:00:00,TMP,surface,-107.813,32.5983,274.891
2015-07-04 00:00:00,2015-07-04 00:00:00,TMP,surface,-106.875,32.5983,275.147
2015-07-04 00:00:00,2015-07-04 00:00:00,TMP,surface,-105.938,32.5983,275.326
2015-07-04 00:00:00,2015-07-04 00:00:00,TMP,surface,-105,32.5983,275.552
2015-07-04 00:00:00,2015-07-04 00:00:00,TMP,surface,-104.063,32.5983,276.627
2015-07-04 00:00:00,2015-07-04 00:00:00,TMP,surface,-103.125,32.5983,277.645
2015-07-04 00:00:00,2015-07-04 00:00:00,TMP,surface,-102.188,32.5983,277.865
2015-07-04 00:00:00,2015-07-04 00:00:00,TMP,surface,-101.25,32.5983,277.96
2015-07-04 00:00:00,2015-07-04 00:00:00,TMP,surface,-100.313,32.5983,278.153
2015-07-04 00:00:00,2015-07-04 00:00:00,TMP,surface,-99.3754,32.5983,278.518
2015-07-04 00:00:00,2015-07-04 00:00:00,TMP,surface,-98.4379,32.5983,278.702
2015-07-04 00:00:00,2015-07-04 00:00:00,TMP,surface,-97.5004,32.5983,278.553
2015-07-04 00:00:00,2015-07-04 00:00:00,TMP,surface,-96.5629,32.5983,278.16
2015-07-04 00:00:00,2015-07-04 00:00:00,TMP,surface,-95.6254,32.5983,277.561
2015-07-04 00:00:00,2015-07-04 00:00:00,TMP,surface,-94.6879,32.5983,276.877
2015-07-04 00:00:00,2015-07-04 00:00:00,TMP,surface,-93.7504,32.5983,276.465
2015-07-04 00:00:00,2015-07-04 00:00:00,TMP,surface,-92.8129,32.5983,276.545
2015-07-04 00:00:00,2015-07-04 00:00:00,TMP,surface,-107.813,33.5432,271.912
2015-07-04 00:00:00,2015-07-04 00:00:00,TMP,surface,-106.875,33.5432,272.873
2015-07-04 00:00:00,2015-07-04 00:00:00,TMP,surface,-105.938,33.5432,273.761
2015-07-04 00:00:00,2015-07-04 00:00:00,TMP,surface,-105,33.5432,274.621
2015-07-04 00:00:00,2015-07-04 00:00:00,TMP,surface,-104.063,33.5432,274.872
2015-07-04 00:00:00,2015-07-04 00:00:00,TMP,surface,-103.125,33.5432,276.2
2015-07-04 00:00:00,2015-07-04 00:00:00,TMP,surface,-102.188,33.5432,276.312
2015-07-04 00:00:00,2015-07-04 00:00:00,TMP,surface,-101.25,33.5432,276.576
2015-07-04 00:00:00,2015-07-04 00:00:00,TMP,surface,-100.313,33.5432,277.272
2015-07-04 00:00:00,2015-07-04 00:00:00,TMP,surface,-99.3754,33.5432,277.918
2015-07-04 00:00:00,2015-07-04 00:00:00,TMP,surface,-98.4379,33.5432,277.915
2015-07-04 00:00:00,2015-07-04 00:00:00,TMP,surface,-97.5004,33.5432,277.381
2015-07-04 00:00:00,2015-07-04 00:00:00,TMP,surface,-96.5629,33.5432,276.856
2015-07-04 00:00:00,2015-07-04 00:00:00,TMP,surface,-95.6254,33.5432,276.445
2015-07-04 00:00:00,2015-07-04 00:00:00,TMP,surface,-94.6879,33.5432,275.968
2015-07-04 00:00:00,2015-07-04 00:00:00,TMP,surface,-93.7504,33.5432,275.661
2015-07-04 00:00:00,2015-07-04 00:00:00,TMP,surface,-92.8129,33.5432,275.765
2015-07-04 00:00:00,2015-07-04 00:00:00,TMP,surface,-107.813,34.4881,270.381
2015-07-04 00:00:00,2015-07-04 00:00:00,TMP,surface,-106.875,34.4881,271.741
2015-07-04 00:00:00,2015-07-04 00:00:00,TMP,surface,-105.938,34.4881,272.739
2015-07-04 00:00:00,2015-07-04 00:00:00,TMP,surface,-105,34.4881,273.409
2015-07-04 00:00:00,2015-07-04 00:00:00,TMP,surface,-104.063,34.4881,274.145
2015-07-04 00:00:00,2015-07-04 00:00:00,TMP,surface,-103.125,34.4881,274.605
2015-07-04 00:00:00,2015-07-04 00:00:00,TMP,surface,-102.188,34.4881,274.67
2015-07-04 00:00:00,2015-07-04 00:00:00,TMP,surface,-101.25,34.4881,275.049
2015-07-04 00:00:00,2015-07-04 00:00:00,TMP,surface,-100.313,34.4881,275.726
2015-07-04 00:00:00,2015-07-04 00:00:00,TMP,surface,-99.3754,34.4881,276.363
2015-07-04 00:00:00,2015-07-04 00:00:00,TMP,surface,-98.4379,34.4881,276.379
2015-07-04 00:00:00,2015-07-04 00:00:00,TMP,surface,-97.5004,34.4881,275.961
2015-07-04 00:00:00,2015-07-04 00:00:00,TMP,surface,-96.5629,34.4881,275.521
2015-07-04 00:00:00,2015-07-04 00:00:00,TMP,surface,-95.6254,34.4881,275.04
2015-07-04 00:00:00,2015-07-04 00:00:00,TMP,surface,-94.6879,34.4881,274.581
2015-07-04 00:00:00,2015-07-04 00:00:00,TMP,surface,-93.7504,34.4881,274.454
2015-07-04 00:00:00,2015-07-04 00:00:00,TMP,surface,-92.8129,34.4881,274.523
2015-07-04 00:00:00,2015-07-04 00:00:00,TMP,surface,-107.813,35.4329,270.169
2015-07-04 00:00:00,2015-07-04 00:00:00,TMP,surface,-106.875,35.4329,270.689
2015-07-04 00:00:00,2015-07-04 00:00:00,TMP,surface,-105.938,35.4329,271.217
2015-07-04 00:00:00,2015-07-04 00:00:00,TMP,surface,-105,35.4329,271.777
2015-07-04 00:00:00,2015-07-04 00:00:00,TMP,surface,-104.063,35.4329,272.92
2015-07-04 00:00:00,2015-07-04 00:00:00,TMP,surface,-103.125,35.4329,273.55
2015-07-04 00:00:00,2015-07-04 00:00:00,TMP,surface,-102.188,35.4329,273.217
2015-07-04 00:00:00,2015-07-04 00:00:00,TMP,surface,-101.25,35.4329,273.481
2015-07-04 00:00:00,2015-07-04 00:00:00,TMP,surface,-100.313,35.4329,274.102
2015-07-04 00:00:00,2015-07-04 00:00:00,TMP,surface,-99.3754,35.4329,274.488
2015-07-04 00:00:00,2015-07-04 00:00:00,TMP,surface,-98.4379,35.4329,274.6
2015-07-04 00:00:00,2015-07-04 00:00:00,TMP,surface,-97.5004,35.4329,274.629
2015-07-04 00:00:00,2015-07-04 00:00:00,TMP,surface,-96.5629,35.4329,274.571
2015-07-04 00:00:00,2015-07-04 00:00:00,TMP,surface,-95.6254,35.4329,274.224
2015-07-04 00:00:00,2015-07-04 00:00:00,TMP,surface,-94.6879,35.4329,273.617
2015-07-04 00:00:00,2015-07-04 00:00:00,TMP,surface,-93.7504,35.4329,273.147
2015-07-04 00:00:00,2015-07-04 00:00:00,TMP,surface,-92.8129,35.4329,272.985
2015-07-04 00:00:00,2015-07-04 00:00:00,TMP,surface,-107.813,36.3778,269.189
2015-07-04 00:00:00,2015-07-04 00:00:00,TMP,surface,-106.875,36.3778,267.633
2015-07-04 00:00:00,2015-07-04 00:00:00,TMP,surface,-105.938,36.3778,268.393
2015-07-04 00:00:00,2015-07-04 00:00:00,TMP,surface,-105,36.3778,269.811
2015-07-04 00:00:00,2015-07-04 00:00:00,TMP,surface,-104.063,36.3778,271.009
2015-07-04 00:00:00,2015-07-04 00:00:00,TMP,surface,-103.125,36.3778,271.867
2015-07-04 00:00:00,2015-07-04 00:00:00,TMP,surface,-102.188,36.3778,271.993
2015-07-04 00:00:00,2015-07-04 00:00:00,TMP,surface,-101.25,36.3778,272.209
2015-07-04 00:00:00,2015-07-04 00:00:00,TMP,surface,-100.313,36.3778,273.11
2015-07-04 00:00:00,2015-07-04 00:00:00,TMP,surface,-99.3754,36.3778,273.669
2015-07-04 00:00:00,2015-07-04 00:00:00,TMP,surface,-98.4379,36.3778,273.505
2015-07-04 00:00:00,2015-07-04 00:00:00,TMP,surface,-97.5004,36.3778,273.44
2015-07-04 00:00:00,2015-07-04 00:00:00,TMP,surface,-96.5629,36.3778,273.557
2015-07-04 00:00:00,2015-07-04 00:00:00,TMP,surface,-95.6254,36.3778,273.229
2015-07-04 00:00:00,2015-07-04 00:00:00,TMP,surface,-94.6879,36.3778,272.408
2015-07-04 00:00:00,2015-07-04 00:00:00,TMP,surface,-93.7504,36.3778,271.585
2015-07-04 00:00:00,2015-07-04 00:00:00,TMP,surface,-92.8129,36.3778,271.389
2015-07-04 00:00:00,2015-07-04 00:00:00,PRATE,surface,-107.813,25.0393,2.47e-05
2015-07-04 00:00:00,2015-07-04 00:00:00,PRATE,surface,-106.875,25.0393,2.93e-05
2015-07-04 00:00:00,2015-07-04 00:00:00,PRATE,surface,-105.938,25.0393,2.12e-05
2015-07-04 00:00:00,2015-07-04 00:00:00,PRATE,surface,-105,25.0393,1.54e-05
2015-07-04 00:00:00,2015-07-04 00:00:00,PRATE,surface,-104.063,25.0393,1.24e-05
2015-07-04 00:00:00,2015-07-04 00:00:00,PRATE,surface,-103.125,25.0393,1.05e-05
2015-07-04 00:00:00,2015-07-04 00:00:00,PRATE,surface,-102.188,25.0393,1.41e-05
2015-07-04 00:00:00,2015-07-04 00:00:00,PRATE,surface,-101.25,25.0393,1.9e-05
2015-07-04 00:00:00,2015-07-04 00:00:00,PRATE,surface,-100.313,25.0393,1.64e-05
2015-07-04 00:00:00,2015-07-04 00:00:00,PRATE,surface,-99.3754,25.0393,1.44e-05
2015-07-04 00:00:00,2015-07-04 00:00:00,PRATE,surface,-98.4379,25.0393,1.86e-05
2015-07-04 00:00:00,2015-07-04 00:00:00,PRATE,surface,-97.5004,25.0393,3.43e-05
2015-07-04 00:00:00,2015-07-04 00:00:00,PRATE,surface,-96.5629,25.0393,5.41e-05
2015-07-04 00:00:00,2015-07-04 00:00:00,PRATE,surface,-95.6254,25.0393,6.49e-05
2015-07-04 00:00:00,2015-07-04 00:00:00,PRATE,surface,-94.6879,25.0393,6.19e-05
2015-07-04 00:00:00,2015-07-04 00:00:00,PRATE,surface,-93.7504,25.0393,5.83e-05
2015-07-04 00:00:00,2015-07-04 00:00:00,PRATE,surface,-92.8129,25.0393,5.52e-05
2015-07-04 00:00:00,2015-07-04 00:00:00,PRATE,surface,-107.813,25.9842,3.37e-05
2015-07-04 00:00:00,2015-07-04 00:00:00,PRATE,surface,-106.875,25.9842,2.55e-05
2015-07-04 00:00:00,2015-07-04 00:00:00,PRATE,surface,-105.938,25.9842,1.16e-05
2015-07-04 00:00:00,2015-07-04 00:00:00,PRATE,surface,-105,25.9842,7.3e-06
2015-07-04 00:00:00,2015-07-04 00:00:00,PRATE,surface,-104.063,25.9842,5.5e-06
2015-07-04 00:00:00,2015-07-04 00:00:00,PRATE,surface,-103.125,25.9842,5.4e-06
2015-07-04 00:00:00,2015-07-04 00:00:00,PRATE,surface,-102.188,25.9842,7.1e-06
2015-07-04 00:00:00,2015-07-04 00:00:00,PRATE,surface,-101.25,25.9842,1.01e-05
2015-07-04 00:00:00,2015-07-04 00:00:00,PRATE,surface,-100.313,25.9842,1.1e-05
2015-07-04 00:00:00,2015-07-04 00:00:00,PRATE,surface,-99.3754,25.9842,1.67e-05
2015-07-04 00:00:00,2015-07-04 00:00:00,PRATE,surface,-98.4379,25.9842,2.23e-05
2015-07-04 00:00:00,2015-07-04 00:00:00,PRATE,surface,-97.5004,25.9842,3.27e-05
2015-07-04 00:00:00,2015-07-04 00:00:00,PRATE,surface,-96.5629,25.9842,5.47e-05
2015-07-04 00:00:00,2015-07-04 00:00:00,PRATE,surface,-95.6254,25.9842,7.38e-05
2015-07-04 00:00:00,2015-07-04 00:00:00,PRATE,surface,-94.6879,25.9842,6.96e-05
2015-07-04 00:00:00,2015-07-04 00:00:00,PRATE,surface,-93.7504,25.9842,6.86e-05
2015-07-04 00:00:00,2015-07-04 00:00:00,PRATE,surface,-92.8129,25.9842,7.3e-05
2015-07-04 00:00:00,2015-07-04 00:00:00,PRATE,surface,-107.813,26.929,3.68e-05
2015-07-04 00:00:00,2015-07-04 00:00:00,PRATE,surface,-106.875,26.929,1.56e-05
2015-07-04 00:00:00,2015-07-04 00:00:00,PRATE,surface,-105.938,26.929,6.8e-06
2015-07-04 00:00:00,2015-07-04 00:00:00,PRATE,surface,-105,26.929,4.6e-06
2015-07-04 00:00:00,2015-07-04 00:00:00,PRATE,surface,-104.063,26.929,3.4e-06
2015-07-04 00:00:00,2015-07-04 00:00:00,PRATE,surface,-103.125,26.929,5.2e-06
2015-07-04 00:00:00,2015-07-04 00:00:00,PRATE,surface,-102.188,26.929,8.9e-06
2015-07-04 00:00:00,2015-07-04 00:00:00,PRATE,surface,-101.25,26.929,9.5e-06
2015-07-04 00:00:00,2015-07-04 00:00:00,PRATE,surface,-100.313,26.929,1.43e-05
2015-07-04 00:00:00,2015-07-04 00:00:00,PRATE,surface,-99.3754,26.929,1.8e-05
2015-07-04 00:00:00,2015-07-04 00:00:00,PRATE,surface,-98.4379,26.929,1.84e-05
2015-07-04 00:00:00,2015-07-04 00:00:00,PRATE,surface,-97.5004,26.929,2.25e-05
2015-07-04 00:00:00,2015-07-04 00:00:00,PRATE,surface,-96.5629,26.929,3.93e-05
2015-07-04 00:00:00,2015-07-04 00:00:00,PRATE,surface,-95.6254,26.929,4.94e-05
2015-07-04 00:00:00,2015-07-04 00:00:00,PRATE,surface,-94.6879,26.929,5.05e-05
2015-07-04 00:00:00,2015-07-04 00:00:00,PRATE,surface,-93.7504,26.929,6.06e-05
2015-07-04 00:00:00,2015-07-04 00:00:00,PRATE,surface,-92.8129,26.929,6.64e-05
2015-07-04 00:00:00,2015-07-04 00:00:00,PRATE,surface,-107.813,27.8739,3.03e-05
2015-07-04 00:00:00,2015-07-04 00:00:00,PRATE,surface,-106.875,27.8739,1e-05
2015-07-04 00:00:00,2015-07-04 00:00:00,PRATE,surface,-105.938,27.8739,4.2e-06
2015-07-04 00:00:00,2015-07-04 00:00:00,PRATE,surface,-105,27.8739,2.6e-06
2015-07-04 00:00:00,2015-07-04 00:00:00,PRATE,surface,-104.063,27.8739,4.4e-06
2015-07-04 00:00:00,2015-07-04 00:00:00,PRATE,surface,-103.125,27.8739,9.1e-06
2015-07-04 00:00:00,2015-07-04 00:00:00,PRATE,surface,-102.188,27.8739,1.25e-05
2015-07-04 00:00:00,2015-07-04 00:00:00,PRATE,surface,-101.25,27.8739,1.44e-05
2015-07-04 00:00:00,2015-07-04 00:00:00,PRATE,surface,-100.313,27.8739,1.35e-05
2015-07-04 00:00:00,2015-07-04 00:00:00,PRATE,surface,-99.3754,27.8739,1.27e-05
2015-07-04 00:00:00,2015-07-04 00:00:00,PRATE,surface,-98.4379,27.8739,1.13e-05
2015-07-04 00:00:00,2015-07-04 00:00:00,PRATE,surface,-97.5004,27.8739,1.27e-05
2015-07-04 00:00:00,2015-07-04 00:00:00,PRATE,surface,-96.5629,27.8739,1.92e-05
2015-07-04 00:00:00,2015-07-04 00:00:00,PRATE,surface,-95.6254,27.8739,2.91e-05
2015-07-04 00:00:00,2015-07-04 00:00:00,PRATE,surface,-94.6879,27.8739,4.26e-05
2015-07-04 00:00:00,2015-07-04 00:00:00,PRATE,surface,-93.7504,27.8739,5.64e-05
2015-07-04 00:00:00,2015-07-04 00:00:00,PRATE,surface,-92.8129,27.8739,5.83e-05
2015-07-04 00:00:00,2015-07-04 00:00:00,PRATE,surface,-107.813,28.8188,2.5e-05
2015-07-04 00:00:00,2015-07-04 00:00:00,PRATE,surface,-106.875,28.8188,1.12e-05
2015-07-04 00:00:00,2015-07-04 00:00:00,PRATE,surface,-105.938,28.8188,5.5e-06
2015-07-04 00:00:00,2015-07-04 00:00:00,PRATE,surface,-105,28.8188,4e-06
2015-07-04 00:00:00,2015-07-04 00:00:00,PRATE,surface,-104.063,28.8188,6.8e-06
2015-07-04 00:00:00,2015-07-04 00:00:00,PRATE,surface,-103.125,28.8188,1.2e-05
2015-07-04 00:00:00,2015-07-04 00:00:00,PRATE,surface,-102.188,28.8188,1.46e-05
2015-07-04 00:00:00,2015-07-04 00:00:00,PRATE,surface,-101.25,28.8188,1.33e-05
2015-07-04 00:00:00,2015-07-04 00:00:00,PRATE,surface,-100.313,28.8188,1.12e-05
2015-07-04 00:00:00,2015-07-04 00:00:00,PRATE,surface,-99.3754,28.8188,1.15e-05
2015-07-04 00:00:00,2015-07-04 00:00:00,PRATE,surface,-98.4379,28.8188,1.19e-05
2015-07-04 00:00:00,2015-07-04 00:00:00,PRATE,surface,-97.5004,28.8188,1.28e-05
2015-07-04 00:00:00,2015-07-04 00:00:00,PRATE,surface,-96.5629,28.8188,1.86e-05
2015-07-04 00:00:00,2015-07-04 00:00:00,PRATE,surface,-95.6254,28.8188,3.13e-05
2015-07-04 00:00:00,2015-07-04 00:00:00,PRATE,surface,-94.6879,28.8188,4.77e-05
2015-07-04 00:00:00,2015-07-04 00:00:00,PRATE,surface,-93.7504,28.8188,5.85e-05
2015-07-04 00:00:00,2015-07-04 00:00:00,PRATE,surface,-92.8129,28.8188,5.53e-05
2015-07-04 00:00:00,2015-07-04 00:00:00,PRATE,surface,-107.813,29.7637,1.61e-05
2015-07-04 00:00:00,2015-07-04 00:00:00,PRATE,surface,-106.875,29.7637,9.5e-06
2015-07-04 00:00:00,2015-07-04 00:00:00,PRATE,surface,-105.938,29.7637,7.1e-06
2015-07-04 00:00:00,2015-07-04 00:00:00,PRATE,surface,-105,29.7637,7.6e-06
2015-07-04 00:00:00,2015-07-04 00:00:00,PRATE,surface,-104.063,29.7637,7.7e-06
2015-07-04 00:00:00,2015-07-04 00:00:00,PRATE,surface,-103.125,29.7637,1.01e-05
2015-07-04 00:00:00,2015-07-04 00:00:00,PRATE,surface,-102.188,29.7637,1.1e-05
2015-07-04 00:00:00,2015-07-04 00:00:00,PRATE,surface,-101.25,29.7637,1.12e-05
2015-07-04 00:00:00,2015-07-04 00:00:00,PRATE,surface,-100.313,29.7637,1.24e-05
2015-07-04 00:00:00,2015-07-04 00:00:00,PRATE,surface,-99.3754,29.7637,1.5e-05
2015-07-04 00:00:00,2015-07-04 00:00:00,PRATE,surface,-98.4379,29.7637,1.67e-05
2015-07-04 00:00:00,2015-07-04 00:00:00,PRATE,surface,-97.5004,29.7637,1.77e-05
2015-07-04 00:00:00,2015-07-04 00:00:00,PRATE,surface,-96.5629,29.7637,2.3e-05
2015-07-04 00:00:00,2015-07-04 00:00:00,PRATE,surface,-95.6254,29.7637,3.51e-05
2015-07-04 00:00:00,2015-07-04 00:00:00,PRATE,surface,-94.6879,29.7637,4.93e-05
2015-07-04 00:00:00,2015-07-04 00:00:00,PRATE,surface,-93.7504,29.7637,5.55e-05
2015-07-04 00:00:00,2015-07-04 00:00:00,PRATE,surface,-92.8129,29.7637,4.53e-05
2015-07-04 00:00:00,2015-07-04 00:00:00,PRATE,surface,-107.813,30.7085,1.01e-05
2015-07-04 00:00:00,2015-07-04 00:00:00,PRATE,surface,-106.875,30.7085,6.6e-06
2015-07-04 00:00:00,2015-07-04 00:00:00,PRATE,surface,-105.938,30.7085,5.5e-06
2015-07-04 00:00:00,2015-07-04 00:00:00,PRATE,surface,-105,30.7085,7e-06
2015-07-04 00:00:00,2015-07-04 00:00:00,PRATE,surface,-104.063,30.7085,8.9e-06
2015-07-04 00:00:00,2015-07-04 00:00:00,PRATE,surface,-103.125,30.7085,7.7e-06
2015-07-04 00:00:00,2015-07-04 00:00:00,PRATE,surface,-102.188,30.7085,6.8e-06
2015-07-04 00:00:00,2015-07-04 00:00:00,PRATE,surface,-101.25,30.7085,7.8e-06
2015-07-04 00:00:00,2015-07-04 00:00:00,PRATE,surface,-100.313,30.7085,8.9e-06
2015-07-04 00:00:00,2015-07-04 00:00:00,PRATE,surface,-99.3754,30.7085,1.11e-05
2015-07-04 00:00:00,2015-07-04 00:00:00,PRATE,surface,-98.4379,30.7085,1.44e-05
2015-07-04 00:00:00,2015-07-04 00:00:00,PRATE,surface,-97.5004,30.7085,1.84e-05
2015-07-04 00:00:00,2015-07-04 00:00:00,PRATE,surface,-96.5629,30.7085,2.68e-05
2015-07-04 00:00:00,2015-07-04 00:00:00,PRATE,surface,-95.6254,30.7085,4.17e-05
2015-07-04 00:00:00,2015-07-04 00:00:00,PRATE,surface,-94.6879,30.7085,5.44e-05
2015-07-04 00:00:00,2015-07-04 00:00:00,PRATE,surface,-93.7504,30.7085,5.38e-05
2015-07-04 00:00:00,2015-07-04 00:00:00,PRATE,surface,-92.8129,30.7085,4.76e-05
2015-07-04 00:00:00,2015-07-04 00:00:00,PRATE,surface,-107.813,31.6534,9.1e-06
2015-07-04 00:00:00,2015-07-04 00:00:00,PRATE,surface,-106.875,31.6534,5.7e-06
2015-07-04 00:00:00,2015-07-04 00:00:00,PRATE,surface,-105.938,31.6534,4.5e-06
2015-07-04 00:00:00,2015-07-04 00:00:00,PRATE,surface,-105,31.6534,4.5e-06
2015-07-04 00:00:00,2015-07-04 00:00:00,PRATE,surface,-104.063,31.6534,5.3e-06
2015-07-04 00:00:00,2015-07-04 00:00:00,PRATE,surface,-103.125,31.6534,4.2e-06
2015-07-04 00:00:00,2015-07-04 00:00:00,PRATE,surface,-102.188,31.6534,4.3e-06
2015-07-04 00:00:00,2015-07-04 00:00:00,PRATE,surface,-101.25,31.6534,5.9e-06
2015-07-04 00:00:00,2015-07-04 00:00:00,PRATE,surface,-100.313,31.6534,9.7e-06
2015-07-04 00:00:00,2015-07-04 00:00:00,PRATE,surface,-99.3754,31.6534,1.25e-05
2015-07-04 00:00:00,2015-07-04 00:00:00,PRATE,surface,-98.4379,31.6534,1.52e-05
2015-07-04 00:00:00,2015-07-04 00:00:00,PRATE,surface,-97.5004,31.6534,1.91e-05
2015-07-04 00:00:00,2015-07-04 00:00:00,PRATE,surface,-96.5629,31.6534,2.55e-05
2015-07-04 00:00:00,2015-07-04 00:00:00,PRATE,surface,-95.6254,31.6534,3.77e-05
2015-07-04 00:00:00,2015-07-04 00:00:00,PRATE,surface,-94.6879,31.6534,5.38e-05
2015-07-04 00:00:00,2015-07-04 00:00:00,PRATE,surface,-93.7504,31.6534,6.1e-05
2015-07-04 00:00:00,2015-07-04 00:00:00,PRATE,surface,-92.8129,31.6534,5.93e-05
2015-07-04 00:00:00,2015-07-04 00:00:00,PRATE,surface,-107.813,32.5983,1.65e-05
2015-07-04 00:00:00,2015-07-04 00:00:00,PRATE,surface,-106.875,32.5983,1.01e-05
2015-07-04 00:00:00,2015-07-04 00:00:00,PRATE,surface,-105.938,32.5983,5.9e-06
2015-07-04 00:00:00,2015-07-04 00:00:00,PRATE,surface,-105,32.5983,6.3e-06
2015-07-04 00:00:00,2015-07-04 00:00:00,PRATE,surface,-104.063,32.5983,5.7e-06
2015-07-04 00:00:00,2015-07-04 00:00:00,PRATE,surface,-103.125,32.5983,4.4e-06
2015-07-04 00:00:00,2015-07-04 00:00:00,PRATE,surface,-102.188,32.5983,5.3e-06
2015-07-04 00:00:00,2015-07-04 00:00:00,PRATE,surface,-101.25,32.5983,8.4e-06
2015-07-04 00:00:00,2015-07-04 00:00:00,PRATE,surface,-100.313,32.5983,1.15e-05
2015-07-04 00:00:00,2015-07-04 00:00:00,PRATE,surface,-99.3754,32.5983,1.28e-05
2015-07-04 00:00:00,2015-07-04 00:00:00,PRATE,surface,-98.4379,32.5983,1.46e-05
2015-07-04 00:00:00,2015-07-04 00:00:00,PRATE,surface,-97.5004,32.5983,1.79e-05
2015-07-04 00:00:00,2015-07-04 00:00:00,PRATE,surface,-96.5629,32.5983,2.18e-05
2015-07-04 00:00:00,2015-07-04 00:00:00,PRATE,surface,-95.6254,32.5983,2.97e-05
2015-07-04 00:00:00,2015-07-04 00:00:00,PRATE,surface,-94.6879,32.5983,4.38e-05
2015-07-04 00:00:00,2015-07-04 00:00:00,PRATE,surface,-93.7504,32.5983,5.6e-05
2015-07-04 00:00:00,2015-07-04 00:00:00,PRATE,surface,-92.8129,32.5983,5.88e-05
2015-07-04 00:00:00,2015-07-04 00:00:00,PRATE,surface,-107.813,33.5432,2.57e-05
2015-07-04 00:00:00,2015-07-04 00:00:00,PRATE,surface,-106.875,33.5432,1.69e-05
2015-07-04 00:00:00,2015-07-04 00:00:00,PRATE,surface,-105.938,33.5432,1.07e-05
2015-07-04 00:00:00,2015-07-04 00:00:00,PRATE,surface,-105,33.5432,9.9e-06
2015-07-04 00:00:00,2015-07-04 00:00:00,PRATE,surface,-104.063,33.5432,7.5e-06
2015-07-04 00:00:00,2015-07-04 00:00:00,PRATE,surface,-103.125,33.5432,5.9e-06
2015-07-04 00:00:00,2015-07-04 00:00:00,PRATE,surface,-102.188,33.5432,7.2e-06
2015-07-04 00:00:00,2015-07-04 00:00:00,PRATE,surface,-101.25,33.5432,9.2e-06
2015-07-04 00:00:00,2015-07-04 00:00:00,PRATE,surface,-100.313,33.5432,9.6e-06
2015-07-04 00:00:00,2015-07-04 00:00:00,PRATE,surface,-99.3754,33.5432,1.08e-05
2015-07-04 00:00:00,2015-07-04 00:00:00,PRATE,surface,-98.4379,33.5432,1.46e-05
2015-07-04 00:00:00,2015-07-04 00:00:00,PRATE,surface,-97.5004,33.5432,2.12e-05
2015-07-04 00:00:00,2015-07-04 00:00:00,PRATE,surface,-96.5629,33.5432,2.8e-05
2015-07-04 00:00:00,2015-07-04 00:00:00,PRATE,surface,-95.6254,33.5432,3.44e-05
2015-07-04 00:00:00,2015-07-04 00:00:00,PRATE,surface,-94.6879,33.5432,4.19e-05
2015-07-04 00:00:00,2015-07-04 00:00:00,PRATE,surface,-93.7504,33.5432,4.57e-05
2015-07-04 00:00:00,2015-07-04 00:00:00,PRATE,surface,-92.8129,33.5432,4.49e-05
2015-07-04 00:00:00,2015-07-04 00:00:00,PRATE,surface,-107.813,34.4881,2.67e-05
2015-07-04 00:00:00,2015-07-04 00:00:00,PRATE,surface,-106.875,34.4881,1.64e-05
2015-07-04 00:00:00,2015-07-04 00:00:00,PRATE,surface,-105.938,34.4881,1.06e-05
2015-07-04 00:00:00,2015-07-04 00:00:00,PRATE,surface,-105,34.4881,1.2e-05
2015-07-04 00:00:00,2015-07-04 00:00:00,PRATE,surface,-104.063,34.4881,1.02e-05
2015-07-04 00:00:00,2015-07-04 00:00:00,PRATE,surface,-103.125,34.4881,9.3e-06
2015-07-04 00:00:00,2015-07-04 00:00:00,PRATE,surface,-102.188,34.4881,9.9e-06
2015-07-04 00:00:00,2015-07-04 00:00:00,PRATE,surface,-101.25,34.4881,9.8e-06
2015-07-04 00:00:00,2015-07-04 00:00:00,PRATE,surface,-100.313,34.4881,9.3e-06
2015-07-04 00:00:00,2015-07-04 00:00:00,PRATE,surface,-99.3754,34.4881,1.08e-05
2015-07-04 00:00:00,2015-07-04 00:00:00,PRATE,surface,-98.4379,34.4881,1.61e-05
2015-07-04 00:00:00,2015-07-04 00:00:00,PRATE,surface,-97.5004,34.4881,2.42e-05
2015-07-04 00:00:00,2015-07-04 00:00:00,PRATE,surface,-96.5629,34.4881,3.27e-05
2015-07-04 00:00:00,2015-07-04 00:00:00,PRATE,surface,-95.6254,34.4881,4.02e-05
2015-07-04 00:00:00,2015-07-04 00:00:00,PRATE,surface,-94.6879,34.4881,4.52e-05
2015-07-04 00:00:00,2015-07-04 00:00:00,PRATE,surface,-93.7504,34.4881,4.47e-05
2015-07-04 00:00:00,2015-07-04 00:00:00,PRATE,surface,-92.8129,34.4881,3.79e-05
2015-07-04 00:00:00,2015-07-04 00:00:00,PRATE,surface,-107.813,35.4329,2.81e-05
2015-07-04 00:00:00,2015-07-04 00:00:00,PRATE,surface,-106.875,35.4329,1.88e-05
2015-07-04 00:00:00,2015-07-04 00:00:00,PRATE,surface,-105.938,35.4329,1.32e-05
2015-07-04 00:00:00,2015-07-04 00:00:00,PRATE,surface,-105,35.4329,1.45e-05
2015-07-04 00:00:00,2015-07-04 00:00:00,PRATE,surface,-104.063,35.4329,1.71e-05
2015-07-04 00:00:00,2015-07-04 00:00:00,PRATE,surface,-103.125,35.4329,1.68e-05
2015-07-04 00:00:00,2015-07-04 00:00:00,PRATE,surface,-102.188,35.4329,1.53e-05
2015-07-04 00:00:00,2015-07-04 00:00:00,PRATE,surface,-101.25,35.4329,1.3e-05
2015-07-04 00:00:00,2015-07-04 00:00:00,PRATE,surface,-100.313,35.4329,1.16e-05
2015-07-04 00:00:00,2015-07-04 00:00:00,PRATE,surface,-99.3754,35.4329,1.22e-05
2015-07-04 00:00:00,2015-07-04 00:00:00,PRATE,surface,-98.4379,35.4329,1.65e-05
2015-07-04 00:00:00,2015-07-04 00:00:00,PRATE,surface,-97.5004,35.4329,2.42e-05
2015-07-04 00:00:00,2015-07-04 00:00:00,PRATE,surface,-96.5629,35.4329,3.13e-05
2015-07-04 00:00:00,2015-07-04 00:00:00,PRATE,surface,-95.6254,35.4329,3.62e-05
2015-07-04 00:00:00,2015-07-04 00:00:00,PRATE,surface,-94.6879,35.4329,4.05e-05
2015-07-04 00:00:00,2015-07-04 00:00:00,PRATE,surface,-93.7504,35.4329,4.35e-05
2015-07-04 00:00:00,2015-07-04 00:00:00,PRATE,surface,-92.8129,35.4329,4.41e-05
2015-07-04 00:00:00,2015-07-04 00:00:00,PRATE,surface,-107.813,36.3778,3.11e-05
2015-07-04 00:00:00,2015-07-04 00:00:00,PRATE,surface,-106.875,36.3778,2.75e-05
2015-07-04 00:00:00,2015-07-04 00:00:00,PRATE,surface,-105.938,36.3778,1.96e-05
2015-07-04 00:00:00,2015-07-04 00:00:00,PRATE,surface,-105,36.3778,1.95e-05
2015-07-04 00:00:00,2015-07-04 00:00:00,PRATE,surface,-104.063,36.3778,2.1e-05
2015-07-04 00:00:00,2015-07-04 00:00:00,PRATE,surface,-103.125,36.3778,1.71e-05
2015-07-04 00:00:00,2015-07-04 00:00:00,PRATE,surface,-102.188,36.3778,1.37e-05
2015-07-04 00:00:00,2015-07-04 00:00:00,PRATE,surface,-101.25,36.3778,1.1e-05
2015-07-04 00:00:00,2015-07-04 00:00:00,PRATE,surface,-100.313,36.3778,1.05e-05
2015-07-04 00:00:00,2015-07-04 00:00:00,PRATE,surface,-99.3754,36.3778,1.15e-05
2015-07-04 00:00:00,2015-07-04 00:00:00,PRATE,surface,-98.4379,36.3778,1.55e-05
2015-07-04 00:00:00,2015-07-04 00:00:00,PRATE,surface,-97.5004,36.3778,2.05e-05
2015-07-04 00:00:00,2015-07-04 00:00:00,PRATE,surface,-96.5629,36.3778,2.45e-05
2015-07-04 00:00:00,2015-07-04 00:00:00,PRATE,surface,-95.6254,36.3778,2.81e-05
2015-07-04 00:00:00,2015-07-04 00:00:00,PRATE,surface,-94.6879,36.3778,3.33e-05
2015-07-04 00:00:00,2015-07-04 00:00:00,PRATE,surface,-93.7504,36.3778,3.98e-05
2015-07-04 00:00:00,2015-07-04 00:00:00,PRATE,surface,-92.8129,36.3778,4.23e-05
