2017-05-07 00:00:00,2017-05-07 00:00:00,TMP,surface,-107.813,25.0393,289.725
2017-05-07 00:00:00,2017-05-07 00:00:00,TMP,surface,-106.875,25.0393,283.571
2017-05-07 00:00:00,2017-05-07 00:00:00,TMP,surface,-105.938,25.0393,278.528
2017-05-07 00:00:00,2017-05-07 00:00:00,TMP,surface,-105,25.0393,277.694
2017-05-07 00:00:00,2017-05-07 00:00:00,TMP,surface,-104.063,25.0393,281.213
2017-05-07 00:00:00,2017-05-07 00:00:00,TMP,surface,-103.125,25.0393,283.232
2017-05-07 00:00:00,2017-05-07 00:00:00,TMP,surface,-102.188,25.0393,282.712
2017-05-07 00:00:00,2017-05-07 00:00:00,TMP,surface,-101.25,25.0393,281.333
2017-05-07 00:00:00,2017-05-07 00:00:00,TMP,surface,-100.313,25.0393,282.408
2017-05-07 00:00:00,2017-05-07 00:00:00,TMP,surface,-99.3754,25.0393,285.277
2017-05-07 00:00:00,2017-05-07 00:00:00,TMP,surface,-98.4379,25.0393,288.747
2017-05-07 00:00:00,2017-05-07 00:00:00,TMP,surface,-97.5004,25.0393,295.678
2017-05-07 00:00:00,2017-05-07 00:00:00,TMP,surface,-96.5629,25.0393,296.144
2017-05-07 00:00:00,2017-05-07 00:00:00,TMP,surface,-95.6254,25.0393,296.154
2017-05-07 00:00:00,2017-05-07 00:00:00,TMP,surface,-94.6879,25.0393,296.296
2017-05-07 00:00:00,2017-05-07 00:00:00,TMP,surface,-93.7504,25.0393,296.259
2017-05-07 00:00:00,2017-05-07 00:00:00,TMP,surface,-92.8129,25.0393,296.293
2017-05-07 00:00:00,2017-05-07 00:00:00,TMP,surface,-107.813,25.9842,284.669
2017-05-07 00:00:00,2017-05-07 00:00:00,TMP,surface,-106.875,25.9842,279.141
2017-05-07 00:00:00,2017-05-07 00:00:00,TMP,surface,-105.938,25.9842,277.253
2017-05-07 00:00:00,2017-05-07 00:00:00,TMP,surface,-105,25.9842,279.899
2017-05-07 00:00:00,2017-05-07 00:00:00,TMP,surface,-104.063,25.9842,283.536
2017-05-07 00:00:00,2017-05-07 00:00:00,TMP,surface,-103.125,25.9842,284.182
2017-05-07 00:00:00,2017-05-07 00:00:00,TMP,surface,-102.188,25.9842,283.266
2017-05-07 00:00:00,2017-05-07 00:00:00,TMP,surface,-101.25,25.9842,282.925
2017-05-07 00:00:00,2017-05-07 00:00:00,TMP,surface,-100.313,25.9842,283.464
2017-05-07 00:00:00,2017-05-07 00:00:00,TMP,surface,-99.3754,25.9842,285.823
2017-05-07 00:00:00,2017-05-07 00:00:00,TMP,surface,-98.4379,25.9842,288.034
2017-05-07 00:00:00,2017-05-07 00:00:00,TMP,surface,-97.5004,25.9842,289.461
2017-05-07 00:00:00,2017-05-07 00:00:00,TMP,surface,-96.5629,25.9842,295.815
2017-05-07 00:00:00,2017-05-07 00:00:00,TMP,surface,-95.6254,25.9842,295.73
2017-05-07 00:00:00,2017-05-07 00:00:00,TMP,surface,-94.6879,25.9842,295.824
2017-05-07 00:00:00,2017-05-07 00:00:00,TMP,surface,-93.7504,25.9842,295.885
2017-05-07 00:00:00,2017-05-07 00:00:00,TMP,surface,-92.8129,25.9842,295.999
2017-05-07 00:00:00,2017-05-07 00:00:00,TMP,surface,-107.813,26.929,279.768
2017-05-07 00:00:00,2017-05-07 00:00:00,TMP,surface,-106.875,26.929,276.368
2017-05-07 00:00:00,2017-05-07 00:00:00,TMP,surface,-105.938,26.929,278.482
2017-05-07 00:00:00,2017-05-07 00:00:00,TMP,surface,-105,26.929,282.283
2017-05-07 00:00:00,2017-05-07 00:00:00,TMP,surface,-104.063,26.929,283.32
2017-05-07 00:00:00,2017-05-07 00:00:00,TMP,surface,-103.125,26.929,282.238
2017-05-07 00:00:00,2017-05-07 00:00:00,TMP,surface,-102.188,26.929,282.05
2017-05-07 00:00:00,2017-05-07 00:00:00,TMP,surface,-101.25,26.929,282.994
2017-05-07 00:00:00,2017-05-07 00:00:00,TMP,surface,-100.313,26.929,284.139
2017-05-07 00:00:00,2017-05-07 00:00:00,TMP,surface,-99.3754,26.929,285.336
2017-05-07 00:00:00,2017-05-07 00:00:00,TMP,surface,-98.4379,26.929,285.974
2017-05-07 00:00:00,2017-05-07 00:00:00,TMP,surface,-97.5004,26.929,293.784
2017-05-07 00:00:00,2017-05-07 00:00:00,TMP,surface,-96.5629,26.929,295.032
2017-05-07 00:00:00,2017-05-07 00:00:00,TMP,surface,-95.6254,26.929,295.299
2017-05-07 00:00:00,2017-05-07 00:00:00,TMP,surface,-94.6879,26.929,295.323
2017-05-07 00:00:00,2017-05-07 00:00:00,TMP,surface,-93.7504,26.929,295.223
2017-05-07 00:00:00,2017-05-07 00:00:00,TMP,surface,-92.8129,26.929,295.267
2017-05-07 00:00:00,2017-05-07 00:00:00,TMP,surface,-107.813,27.8739,276.853
2017-05-07 00:00:00,2017-05-07 00:00:00,TMP,surface,-106.875,27.8739,276.064
2017-05-07 00:00:00,2017-05-07 00:00:00,TMP,surface,-105.938,27.8739,279.651
2017-05-07 00:00:00,2017-05-07 00:00:00,TMP,surface,-105,27.8739,282.363
2017-05-07 00:00:00,2017-05-07 00:00:00,TMP,surface,-104.063,27.8739,281.949
2017-05-07 00:00:00,2017-05-07 00:00:00,TMP,surface,-103.125,27.8739,280.622
2017-05-07 00:00:00,2017-05-07 00:00:00,TMP,surface,-102.188,27.8739,280.734
2017-05-07 00:00:00,2017-05-07 00:00:00,TMP,surface,-101.25,27.8739,282.141
2017-05-07 00:00:00,2017-05-07 00:00:00,TMP,surface,-100.313,27.8739,283.422
2017-05-07 00:00:00,2017-05-07 00:00:00,TMP,surface,-99.3754,27.8739,283.672
2017-05-07 00:00:00,2017-05-07 00:00:00,TMP,surface,-98.4379,27.8739,283.902
2017-05-07 00:00:00,2017-05-07 00:00:00,TMP,surface,-97.5004,27.8739,289.259
2017-05-07 00:00:00,2017-05-07 00:00:00,TMP,surface,-96.5629,27.8739,294.701
2017-05-07 00:00:00,2017-05-07 00:00:00,TMP,surface,-95.6254,27.8739,295.014
2017-05-07 00:00:00,2017-05-07 00:00:00,TMP,surface,-94.6879,27.8739,294.704
2017-05-07 00:00:00,2017-05-07 00:00:00,TMP,surface,-93.7504,27.8739,294.357
2017-05-07 00:00:00,2017-05-07 00:00:00,TMP,surface,-92.8129,27.8739,294.224
2017-05-07 00:00:00,2017-05-07 00:00:00,TMP,surface,-107.813,28.8188,275.951
2017-05-07 00:00:00,2017-05-07 00:00:00,TMP,surface,-106.875,28.8188,276.607
2017-05-07 00:00:00,2017-05-07 00:00:00,TMP,surface,-105.938,28.8188,279.722
2017-05-07 00:00:00,2017-05-07 00:00:00,TMP,surface,-105,28.8188,281.306
2017-05-07 00:00:00,2017-05-07 00:00:00,TMP,surface,-104.063,28.8188,280.237
2017-05-07 00:00:00,2017-05-07 00:00:00,TMP,surface,-103.125,28.8188,279.266
2017-05-07 00:00:00,2017-05-07 00:00:00,TMP,surface,-102.188,28.8188,279.786
2017-05-07 00:00:00,2017-05-07 00:00:00,TMP,surface,-101.25,28.8188,281.242
2017-05-07 00:00:00,2017-05-07 00:00:00,TMP,surface,-100.313,28.8188,281.827
2017-05-07 00:00:00,2017-05-07 00:00:00,TMP,surface,-99.3754,28.8188,281.565
2017-05-07 00:00:00,2017-05-07 00:00:00,TMP,surface,-98.4379,28.8188,281.405
2017-05-07 00:00:00,2017-05-07 00:00:00,TMP,surface,-97.5004,28.8188,281.875
2017-05-07 00:00:00,2017-05-07 00:00:00,TMP,surface,-96.5629,28.8188,282.781
2017-05-07 00:00:00,2017-05-07 00:00:00,TMP,surface,-95.6254,28.8188,287.474
2017-05-07 00:00:00,2017-05-07 00:00:00,TMP,surface,-94.6879,28.8188,294.198
2017-05-07 00:00:00,2017-05-07 00:00:00,TMP,surface,-93.7504,28.8188,293.984
2017-05-07 00:00:00,2017-05-07 00:00:00,TMP,surface,-92.8129,28.8188,293.954
2017-05-07 00:00:00,2017-05-07 00:00:00,TMP,surface,-107.813,29.7637,277.205
2017-05-07 00:00:00,2017-05-07 00:00:00,TMP,surface,-106.875,29.7637,277.92
2017-05-07 00:00:00,2017-05-07 00:00:00,TMP,surface,-105.938,29.7637,279.629
2017-05-07 00:00:00,2017-05-07 00:00:00,TMP,surface,-105,29.7637,279.539
2017-05-07 00:00:00,2017-05-07 00:00:00,TMP,surface,-104.063,29.7637,279.133
2017-05-07 00:00:00,2017-05-07 00:00:00,TMP,surface,-103.125,29.7637,279.088
2017-05-07 00:00:00,2017-05-07 00:00:00,TMP,surface,-102.188,29.7637,279.823
2017-05-07 00:00:00,2017-05-07 00:00:00,TMP,surface,-101.25,29.7637,280.227
2017-05-07 00:00:00,2017-05-07 00:00:00,TMP,surface,-100.313,29.7637,279.811
2017-05-07 00:00:00,2017-05-07 00:00:00,TMP,surface,-99.3754,29.7637,279.29
2017-05-07 00:00:00,2017-05-07 00:00:00,TMP,surface,-98.4379,29.7637,279.131
2017-05-07 00:00:00,2017-05-07 00:00:00,TMP,surface,-97.5004,29.7637,279.219
2017-05-07 00:00:00,2017-05-07 00:00:00,TMP,surface,-96.5629,29.7637,279.621
2017-05-07 00:00:00,2017-05-07 00:00:00,TMP,surface,-95.6254,29.7637,280.469
2017-05-07 00:00:00,2017-05-07 00:00:00,TMP,surface,-94.6879,29.7637,285.014
2017-05-07 00:00:00,2017-05-07 00:00:00,TMP,surface,-93.7504,29.7637,290.491
2017-05-07 00:00:00,2017-05-07 00:00:00,TMP,surface,-92.8129,29.7637,281.488
2017-05-07 00:00:00,2017-05-07 00:00:00,TMP,surface,-107.813,30.7085,279.066
2017-05-07 00:00:00,2017-05-07 00:00:00,TMP,surface,-106.875,30.7085,279.541
2017-05-07 00:00:00,2017-05-07 00:00:00,TMP,surface,-105.938,30.7085,279.256
2017-05-07 00:00:00,2017-05-07 00:00:00,TMP,surface,-105,30.7085,278.302
2017-05-07 00:00:00,2017-05-07 00:00:00,TMP,surface,-104.063,30.7085,278.103
2017-05-07 00:00:00,2017-05-07 00:00:00,TMP,surface,-103.125,30.7085,278.757
2017-05-07 00:00:00,2017-05-07 00:00:00,TMP,surface,-102.188,30.7085,279.235
2017-05-07 00:00:00,2017-05-07 00:00:00,TMP,surface,-101.25,30.7085,278.994
2017-05-07 00:00:00,2017-05-07 00:00:00,TMP,surface,-100.313,30.7085,278.211
2017-05-07 00:00:00,2017-05-07 00:00:00,TMP,surface,-99.3754,30.7085,277.664
2017-05-07 00:00:00,2017-05-07 00:00:00,TMP,surface,-98.4379,30.7085,277.453
2017-05-07 00:00:00,2017-05-07 00:00:00,TMP,surface,-97.5004,30.7085,277.373
2017-05-07 00:00:00,2017-05-07 00:00:00,TMP,surface,-96.5629,30.7085,277.376
2017-05-07 00:00:00,2017-05-07 00:00:00,TMP,surface,-95.6254,30.7085,277.634
2017-05-07 00:00:00,2017-05-07 00:00:00,TMP,surface,-94.6879,30.7085,278.043
2017-05-07 00:00:00,2017-05-07 00:00:00,TMP,surface,-93.7504,30.7085,278.062
2017-05-07 00:00:00,2017-05-07 00:00:00,TMP,surface,-92.8129,30.7085,277.738
2017-05-07 00:00:00,2017-05-07 00:00:00,TMP,surface,-107.813,31.6534,279.085
2017-05-07 00:00:00,2017-05-07 00:00:00,TMP,surface,-106.875,31.6534,279.304
2017-05-07 00:00:00,2017-05-07 00:00:00,TMP,surface,-105.938,31.6534,278.182
2017-05-07 00:00:00,2017-05-07 00:00:00,TMP,surface,-105,31.6534,277.37
2017-05-07 00:00:00,2017-05-07 00:00:00,TMP,surface,-104.063,31.6534,277.344
2017-05-07 00:00:00,2017-05-07 00:00:00,TMP,surface,-103.125,31.6534,277.954
2017-05-07 00:00:00,2017-05-07 00:00:00,TMP,surface,-102.188,31.6534,278.034
2017-05-07 00:00:00,2017-05-07 00:00:00,TMP,surface,-101.25,31.6534,277.478
2017-05-07 00:00:00,2017-05-07 00:00:00,TMP,surface,-100.313,31.6534,276.806
2017-05-07 00:00:00,2017-05-07 00:00:00,TMP,surface,-99.3754,31.6534,276.36
2017-05-07 00:00:00,2017-05-07 00:00:00,TMP,surface,-98.4379,31.6534,276.104
2017-05-07 00:00:00,2017-05-07 00:00:00,TMP,surface,-97.5004,31.6534,275.978
2017-05-07 00:00:00,2017-05-07 00:00:00,TMP,surface,-96.5629,31.6534,275.973
2017-05-07 00:00:00,2017-05-07 00:00:00,TMP,surface,-95.6254,31.6534,276.018
2017-05-07 00:00:00,2017-05-07 00:00:00,TMP,surface,-94.6879,31.6534,275.986
2017-05-07 00:00:00,2017-05-07 00:00:00,TMP,surface,-93.7504,31.6534,275.846
2017-05-07 00:00:00,2017-05-07 00:00:00,TMP,surface,-92.8129,31.6534,275.749
2017-05-07 00:00:00,2017-05-07 00:00:00,TMP,surface,-107.813,32.5983,276.669
2017-05-07 00:00:00,2017-05-07 00:00:00,TMP,surface,-106.875,32.5983,276.843
2017-05-07 00:00:00,2017-05-07 00:00:00,TMP,surface,-105.938,32.5983,276.618
2017-05-07 00:00:00,2017-05-07 00:00:00,TMP,surface,-105,32.5983,276.306
2017-05-07 00:00:00,2017-05-07 00:00:00,TMP,surface,-104.063,32.5983,276.93
2017-05-07 00:00:00,2017-05-07 00:00:00,TMP,surface,-103.125,32.5983,277.098
2017-05-07 00:00:00,2017-05-07 00:00:00,TMP,surface,-102.188,32.5983,276.551
2017-05-07 00:00:00,2017-05-07 00:00:00,TMP,surface,-101.25,32.5983,276.013
2017-05-07 00:00:00,2017-05-07 00:00:00,TMP,surface,-100.313,32.5983,275.678
2017-05-07 00:00:00,2017-05-07 00:00:00,TMP,surface,-99.3754,32.5983,275.488
2017-05-07 00:00:00,2017-05-07 00:00:00,TMP,surface,-98.4379,32.5983,275.211
2017-05-07 00:00:00,2017-05-07 00:00:00,TMP,surface,-97.5004,32.5983,274.957
2017-05-07 00:00:00,2017-05-07 00:00:00,TMP,surface,-96.5629,32.5983,274.89
2017-05-07 00:00:00,2017-05-07 00:00:00,TMP,surface,-95.6254,32.5983,274.895
2017-05-07 00:00:00,2017-05-07 00:00:00,TMP,surface,-94.6879,32.5983,274.789
2017-05-07 00:00:00,2017-05-07 00:00:00,TMP,surface,-93.7504,32.5983,274.624
2017-05-07 00:00:00,2017-05-07 00:00:00,TMP,surface,-92.8129,32.5983,274.712
2017-05-07 00:00:00,2017-05-07 00:00:00,TMP,surface,-107.813,33.5432,273.211
2017-05-07 00:00:00,2017-05-07 00:00:00,TMP,surface,-106.875,33.5432,274.355
2017-05-07 00:00:00,2017-05-07 00:00:00,TMP,surface,-105.938,33.5432,275.176
2017-05-07 00:00:00,2017-05-07 00:00:00,TMP,surface,-105,33.5432,275.431
2017-05-07 00:00:00,2017-05-07 00:00:00,TMP,surface,-104.063,33.5432,275.958
2017-05-07 00:00:00,2017-05-07 00:00:00,TMP,surface,-103.125,33.5432,275.856
2017-05-07 00:00:00,2017-05-07 00:00:00,TMP,surface,-102.188,33.5432,275.067
2017-05-07 00:00:00,2017-05-07 00:00:00,TMP,surface,-101.25,33.5432,274.566
2017-05-07 00:00:00,2017-05-07 00:00:00,TMP,surface,-100.313,33.5432,274.576
2017-05-07 00:00:00,2017-05-07 00:00:00,TMP,surface,-99.3754,33.5432,274.669
2017-05-07 00:00:00,2017-05-07 00:00:00,TMP,surface,-98.4379,33.5432,274.307
2017-05-07 00:00:00,2017-05-07 00:00:00,TMP,surface,-97.5004,33.5432,273.765
2017-05-07 00:00:00,2017-05-07 00:00:00,TMP,surface,-96.5629,33.5432,273.576
2017-05-07 00:00:00,2017-05-07 00:00:00,TMP,surface,-95.6254,33.5432,273.647
2017-05-07 00:00:00,2017-05-07 00:00:00,TMP,surface,-94.6879,33.5432,273.589
2017-05-07 00:00:00,2017-05-07 00:00:00,TMP,surface,-93.7504,33.5432,273.478
2017-05-07 00:00:00,2017-05-07 00:00:00,TMP,surface,-92.8129,33.5432,273.543
2017-05-07 00:00:00,2017-05-07 00:00:00,TMP,surface,-107.813,34.4881,271.621
2017-05-07 00:00:00,2017-05-07 00:00:00,TMP,surface,-106.875,34.4881,273.048
2017-05-07 00:00:00,2017-05-07 00:00:00,TMP,surface,-105.938,34.4881,274.013
2017-05-07 00:00:00,2017-05-07 00:00:00,TMP,surface,-105,34.4881,274.512
2017-05-07 00:00:00,2017-05-07 00:00:00,TMP,surface,-104.063,34.4881,274.523
2017-05-07 00:00:00,2017-05-07 00:00:00,TMP,surface,-103.125,34.4881,274.126
2017-05-07 00:00:00,2017-05-07 00:00:00,TMP,surface,-102.188,34.4881,273.36
2017-05-07 00:00:00,2017-05-07 00:00:00,TMP,surface,-101.25,34.4881,272.974
2017-05-07 00:00:00,2017-05-07 00:00:00,TMP,surface,-100.313,34.4881,273.138
2017-05-07 00:00:00,2017-05-07 00:00:00,TMP,surface,-99.3754,34.4881,273.271
2017-05-07 00:00:00,2017-05-07 00:00:00,TMP,surface,-98.4379,34.4881,272.965
2017-05-07 00:00:00,2017-05-07 00:00:00,TMP,surface,-97.5004,34.4881,272.515
2017-05-07 00:00:00,2017-05-07 00:00:00,TMP,surface,-96.5629,34.4881,272.327
2017-05-07 00:00:00,2017-05-07 00:00:00,TMP,surface,-95.6254,34.4881,272.298
2017-05-07 00:00:00,2017-05-07 00:00:00,TMP,surface,-94.6879,34.4881,272.142
2017-05-07 00:00:00,2017-05-07 00:00:00,TMP,surface,-93.7504,34.4881,271.96
2017-05-07 00:00:00,2017-05-07 00:00:00,TMP,surface,-92.8129,34.4881,271.995
2017-05-07 00:00:00,2017-05-07 00:00:00,TMP,surface,-107.813,35.4329,271.512
2017-05-07 00:00:00,2017-05-07 00:00:00,TMP,surface,-106.875,35.4329,271.954
2017-05-07 00:00:00,2017-05-07 00:00:00,TMP,surface,-105.938,35.4329,272.302
2017-05-07 00:00:00,2017-05-07 00:00:00,TMP,surface,-105,35.4329,272.663
2017-05-07 00:00:00,2017-05-07 00:00:00,TMP,surface,-104.063,35.4329,272.963
2017-05-07 00:00:00,2017-05-07 00:00:00,TMP,surface,-103.125,35.4329,272.667
2017-05-07 00:00:00,2017-05-07 00:00:00,TMP,surface,-102.188,35.4329,271.795
2017-05-07 00:00:00,2017-05-07 00:00:00,TMP,surface,-101.25,35.4329,271.29
2017-05-07 00:00:00,2017-05-07 00:00:00,TMP,surface,-100.313,35.4329,271.282
2017-05-07 00:00:00,2017-05-07 00:00:00,TMP,surface,-99.3754,35.4329,271.327
2017-05-07 00:00:00,2017-05-07 00:00:00,TMP,surface,-98.4379,35.4329,271.243
2017-05-07 00:00:00,2017-05-07 00:00:00,TMP,surface,-97.5004,35.4329,271.186
2017-05-07 00:00:00,2017-05-07 00:00:00,TMP,surface,-96.5629,35.4329,271.259
2017-05-07 00:00:00,2017-05-07 00:00:00,TMP,surface,-95.6254,35.4329,271.31
2017-05-07 00:00:00,2017-05-07 00:00:00,TMP,surface,-94.6879,35.4329,271.09
2017-05-07 00:00:00,2017-05-07 00:00:00,TMP,surface,-93.7504,35.4329,270.645
2017-05-07 00:00:00,2017-05-07 00:00:00,TMP,surface,-92.8129,35.4329,270.384
2017-05-07 00:00:00,2017-05-07 00:00:00,TMP,surface,-107.813,36.3778,269.81
2017-05-07 00:00:00,2017-05-07 00:00:00,TMP,surface,-106.875,36.3778,268.869
2017-05-07 00:00:00,2017-05-07 00:00:00,TMP,surface,-105.938,36.3778,269.525
2017-05-07 00:00:00,2017-05-07 00:00:00,TMP,surface,-105,36.3778,270.592
2017-05-07 00:00:00,2017-05-07 00:00:00,TMP,surface,-104.063,36.3778,270.51
2017-05-07 00:00:00,2017-05-07 00:00:00,TMP,surface,-103.125,36.3778,270.591
2017-05-07 00:00:00,2017-05-07 00:00:00,TMP,surface,-102.188,36.3778,270.195
2017-05-07 00:00:00,2017-05-07 00:00:00,TMP,surface,-101.25,36.3778,269.749
2017-05-07 00:00:00,2017-05-07 00:00:00,TMP,surface,-100.313,36.3778,269.859
2017-05-07 00:00:00,2017-05-07 00:00:00,TMP,surface,-99.3754,36.3778,269.895
2017-05-07 00:00:00,2017-05-07 00:00:00,TMP,surface,-98.4379,36.3778,269.693
2017-05-07 00:00:00,2017-05-07 00:00:00,TMP,surface,-97.5004,36.3778,269.742
2017-05-07 00:00:00,2017-05-07 00:00:00,TMP,surface,-96.5629,36.3778,270.024
2017-05-07 00:00:00,2017-05-07 00:00:00,TMP,surface,-95.6254,36.3778,270.085
2017-05-07 00:00:00,2017-05-07 00:00:00,TMP,surface,-94.6879,36.3778,269.746
2017-05-07 00:00:00,2017-05-07 00:00:00,TMP,surface,-93.7504,36.3778,269.139
2017-05-07 00:00:00,2017-05-07 00:00:00,TMP,surface,-92.8129,36.3778,268.711
2017-05-07 00:00:00,2017-05-07 00:00:00,PRATE,surface,-107.813,25.0393,5.33e-05
2017-05-07 00:00:00,2017-05-07 00:00:00,PRATE,surface,-106.875,25.0393,6.29e-05
2017-05-07 00:00:00,2017-05-07 00:00:00,PRATE,surface,-105.938,25.0393,4.5e-05
2017-05-07 00:00:00,2017-05-07 00:00:00,PRATE,surface,-105,25.0393,1.19e-05
2017-05-07 00:00:00,2017-05-07 00:00:00,PRATE,surface,-104.063,25.0393,4.3e-06
2017-05-07 00:00:00,2017-05-07 00:00:00,PRATE,surface,-103.125,25.0393,3.1e-06
2017-05-07 00:00:00,2017-05-07 00:00:00,PRATE,surface,-102.188,25.0393,5e-06
2017-05-07 00:00:00,2017-05-07 00:00:00,PRATE,surface,-101.25,25.0393,1.03e-05
2017-05-07 00:00:00,2017-05-07 00:00:00,PRATE,surface,-100.313,25.0393,1.44e-05
2017-05-07 00:00:00,2017-05-07 00:00:00,PRATE,surface,-99.3754,25.0393,1.2e-05
2017-05-07 00:00:00,2017-05-07 00:00:00,PRATE,surface,-98.4379,25.0393,7.7e-06
2017-05-07 00:00:00,2017-05-07 00:00:00,PRATE,surface,-97.5004,25.0393,2.1e-05
2017-05-07 00:00:00,2017-05-07 00:00:00,PRATE,surface,-96.5629,25.0393,6.1e-05
2017-05-07 00:00:00,2017-05-07 00:00:00,PRATE,surface,-95.6254,25.0393,5.71e-05
2017-05-07 00:00:00,2017-05-07 00:00:00,PRATE,surface,-94.6879,25.0393,5.49e-05
2017-05-07 00:00:00,2017-05-07 00:00:00,PRATE,surface,-93.7504,25.0393,5.42e-05
2017-05-07 00:00:00,2017-05-07 00:00:00,PRATE,surface,-92.8129,25.0393,4.54e-05
2017-05-07 00:00:00,2017-05-07 00:00:00,PRATE,surface,-107.813,25.9842,7.2e-05
2017-05-07 00:00:00,2017-05-07 00:00:00,PRATE,surface,-106.875,25.9842,5.68e-05
2017-05-07 00:00:00,2017-05-07 00:00:00,PRATE,surface,-105.938,25.9842,1.84e-05
2017-05-07 00:00:00,2017-05-07 00:00:00,PRATE,surface,-105,25.9842,3.5e-06
2017-05-07 00:00:00,2017-05-07 00:00:00,PRATE,surface,-104.063,25.9842,1.6e-06
2017-05-07 00:00:00,2017-05-07 00:00:00,PRATE,surface,-103.125,25.9842,2.2e-06
2017-05-07 00:00:00,2017-05-07 00:00:00,PRATE,surface,-102.188,25.9842,6e-06
2017-05-07 00:00:00,2017-05-07 00:00:00,PRATE,surface,-101.25,25.9842,9.9e-06
2017-05-07 00:00:00,2017-05-07 00:00:00,PRATE,surface,-100.313,25.9842,1.18e-05
2017-05-07 00:00:00,2017-05-07 00:00:00,PRATE,surface,-99.3754,25.9842,8.7e-06
2017-05-07 00:00:00,2017-05-07 00:00:00,PRATE,surface,-98.4379,25.9842,1.27e-05
2017-05-07 00:00:00,2017-05-07 00:00:00,PRATE,surface,-97.5004,25.9842,2.79e-05
2017-05-07 00:00:00,2017-05-07 00:00:00,PRATE,surface,-96.5629,25.9842,7.74e-05
2017-05-07 00:00:00,2017-05-07 00:00:00,PRATE,surface,-95.6254,25.9842,6.51e-05
2017-05-07 00:00:00,2017-05-07 00:00:00,PRATE,surface,-94.6879,25.9842,6.83e-05
2017-05-07 00:00:00,2017-05-07 00:00:00,PRATE,surface,-93.7504,25.9842,6.21e-05
2017-05-07 00:00:00,2017-05-07 00:00:00,PRATE,surface,-92.8129,25.9842,6.2e-05
2017-05-07 00:00:00,2017-05-07 00:00:00,PRATE,surface,-107.813,26.929,8.01e-05
2017-05-07 00:00:00,2017-05-07 00:00:00,PRATE,surface,-106.875,26.929,3.48e-05
2017-05-07 00:00:00,2017-05-07 00:00:00,PRATE,surface,-105.938,26.929,5e-06
2017-05-07 00:00:00,2017-05-07 00:00:00,PRATE,surface,-105,26.929,1.1e-06
2017-05-07 00:00:00,2017-05-07 00:00:00,PRATE,surface,-104.063,26.929,1e-06
2017-05-07 00:00:00,2017-05-07 00:00:00,PRATE,surface,-103.125,26.929,4.9e-06
2017-05-07 00:00:00,2017-05-07 00:00:00,PRATE,surface,-102.188,26.929,1.13e-05
2017-05-07 00:00:00,2017-05-07 00:00:00,PRATE,surface,-101.25,26.929,1.57e-05
2017-05-07 00:00:00,2017-05-07 00:00:00,PRATE,surface,-100.313,26.929,1.18e-05
2017-05-07 00:00:00,2017-05-07 00:00:00,PRATE,surface,-99.3754,26.929,1.31e-05
2017-05-07 00:00:00,2017-05-07 00:00:00,PRATE,surface,-98.4379,26.929,2.78e-05
2017-05-07 00:00:00,2017-05-07 00:00:00,PRATE,surface,-97.5004,26.929,5.31e-05
2017-05-07 00:00:00,2017-05-07 00:00:00,PRATE,surface,-96.5629,26.929,8.25e-05
2017-05-07 00:00:00,2017-05-07 00:00:00,PRATE,surface,-95.6254,26.929,7.31e-05
2017-05-07 00:00:00,2017-05-07 00:00:00,PRATE,surface,-94.6879,26.929,7.49e-05
2017-05-07 00:00:00,2017-05-07 00:00:00,PRATE,surface,-93.7504,26.929,7.07e-05
2017-05-07 00:00:00,2017-05-07 00:00:00,PRATE,surface,-92.8129,26.929,7.37e-05
2017-05-07 00:00:00,2017-05-07 00:00:00,PRATE,surface,-107.813,27.8739,7.42e-05
2017-05-07 00:00:00,2017-05-07 00:00:00,PRATE,surface,-106.875,27.8739,2.57e-05
2017-05-07 00:00:00,2017-05-07 00:00:00,PRATE,surface,-105.938,27.8739,4.3e-06
2017-05-07 00:00:00,2017-05-07 00:00:00,PRATE,surface,-105,27.8739,1e-06
2017-05-07 00:00:00,2017-05-07 00:00:00,PRATE,surface,-104.063,27.8739,4e-06
2017-05-07 00:00:00,2017-05-07 00:00:00,PRATE,surface,-103.125,27.8739,1.25e-05
2017-05-07 00:00:00,2017-05-07 00:00:00,PRATE,surface,-102.188,27.8739,1.88e-05
2017-05-07 00:00:00,2017-05-07 00:00:00,PRATE,surface,-101.25,27.8739,1.74e-05
2017-05-07 00:00:00,2017-05-07 00:00:00,PRATE,surface,-100.313,27.8739,1.54e-05
2017-05-07 00:00:00,2017-05-07 00:00:00,PRATE,surface,-99.3754,27.8739,2.34e-05
2017-05-07 00:00:00,2017-05-07 00:00:00,PRATE,surface,-98.4379,27.8739,3.99e-05
2017-05-07 00:00:00,2017-05-07 00:00:00,PRATE,surface,-97.5004,27.8739,6.2e-05
2017-05-07 00:00:00,2017-05-07 00:00:00,PRATE,surface,-96.5629,27.8739,7.74e-05
2017-05-07 00:00:00,2017-05-07 00:00:00,PRATE,surface,-95.6254,27.8739,8.19e-05
2017-05-07 00:00:00,2017-05-07 00:00:00,PRATE,surface,-94.6879,27.8739,8.9e-05
2017-05-07 00:00:00,2017-05-07 00:00:00,PRATE,surface,-93.7504,27.8739,0.0001001
2017-05-07 00:00:00,2017-05-07 00:00:00,PRATE,surface,-92.8129,27.8739,0.0001054
2017-05-07 00:00:00,2017-05-07 00:00:00,PRATE,surface,-107.813,28.8188,6.08e-05
2017-05-07 00:00:00,2017-05-07 00:00:00,PRATE,surface,-106.875,28.8188,2.76e-05
2017-05-07 00:00:00,2017-05-07 00:00:00,PRATE,surface,-105.938,28.8188,1e-05
2017-05-07 00:00:00,2017-05-07 00:00:00,PRATE,surface,-105,28.8188,3.9e-06
2017-05-07 00:00:00,2017-05-07 00:00:00,PRATE,surface,-104.063,28.8188,7.7e-06
2017-05-07 00:00:00,2017-05-07 00:00:00,PRATE,surface,-103.125,28.8188,1.38e-05
2017-05-07 00:00:00,2017-05-07 00:00:00,PRATE,surface,-102.188,28.8188,1.65e-05
2017-05-07 00:00:00,2017-05-07 00:00:00,PRATE,surface,-101.25,28.8188,1.44e-05
2017-05-07 00:00:00,2017-05-07 00:00:00,PRATE,surface,-100.313,28.8188,1.62e-05
2017-05-07 00:00:00,2017-05-07 00:00:00,PRATE,surface,-99.3754,28.8188,2.75e-05
2017-05-07 00:00:00,2017-05-07 00:00:00,PRATE,surface,-98.4379,28.8188,4.7e-05
2017-05-07 00:00:00,2017-05-07 00:00:00,PRATE,surface,-97.5004,28.8188,6.22e-05
2017-05-07 00:00:00,2017-05-07 00:00:00,PRATE,surface,-96.5629,28.8188,7.05e-05
2017-05-07 00:00:00,2017-05-07 00:00:00,PRATE,surface,-95.6254,28.8188,8.67e-05
2017-05-07 00:00:00,2017-05-07 00:00:00,PRATE,surface,-94.6879,28.8188,0.0001058
2017-05-07 00:00:00,2017-05-07 00:00:00,PRATE,surface,-93.7504,28.8188,0.0001065
2017-05-07 00:00:00,2017-05-07 00:00:00,PRATE,surface,-92.8129,28.8188,0.0001106
2017-05-07 00:00:00,2017-05-07 00:00:00,PRATE,surface,-107.813,29.7637,3.84e-05
2017-05-07 00:00:00,2017-05-07 00:00:00,PRATE,surface,-106.875,29.7637,2.95e-05
2017-05-07 00:00:00,2017-05-07 00:00:00,PRATE,surface,-105.938,29.7637,1.79e-05
2017-05-07 00:00:00,2017-05-07 00:00:00,PRATE,surface,-105,29.7637,1.11e-05
2017-05-07 00:00:00,2017-05-07 00:00:00,PRATE,surface,-104.063,29.7637,1.1e-05
2017-05-07 00:00:00,2017-05-07 00:00:00,PRATE,surface,-103.125,29.7637,1.47e-05
2017-05-07 00:00:00,2017-05-07 00:00:00,PRATE,surface,-102.188,29.7637,1.37e-05
2017-05-07 00:00:00,2017-05-07 00:00:00,PRATE,surface,-101.25,29.7637,1.13e-05
2017-05-07 00:00:00,2017-05-07 00:00:00,PRATE,surface,-100.313,29.7637,1.36e-05
2017-05-07 00:00:00,2017-05-07 00:00:00,PRATE,surface,-99.3754,29.7637,3.02e-05
2017-05-07 00:00:00,2017-05-07 00:00:00,PRATE,surface,-98.4379,29.7637,4.52e-05
2017-05-07 00:00:00,2017-05-07 00:00:00,PRATE,surface,-97.5004,29.7637,5.74e-05
2017-05-07 00:00:00,2017-05-07 00:00:00,PRATE,surface,-96.5629,29.7637,7.23e-05
2017-05-07 00:00:00,2017-05-07 00:00:00,PRATE,surface,-95.6254,29.7637,8.46e-05
2017-05-07 00:00:00,2017-05-07 00:00:00,PRATE,surface,-94.6879,29.7637,9.27e-05
2017-05-07 00:00:00,2017-05-07 00:00:00,PRATE,surface,-93.7504,29.7637,9.73e-05
2017-05-07 00:00:00,2017-05-07 00:00:00,PRATE,surface,-92.8129,29.7637,9.1e-05
2017-05-07 00:00:00,2017-05-07 00:00:00,PRATE,surface,-107.813,30.7085,2.18e-05
2017-05-07 00:00:00,2017-05-07 00:00:00,PRATE,surface,-106.875,30.7085,2.03e-05
2017-05-07 00:00:00,2017-05-07 00:00:00,PRATE,surface,-105.938,30.7085,2.01e-05
2017-05-07 00:00:00,2017-05-07 00:00:00,PRATE,surface,-105,30.7085,1.76e-05
2017-05-07 00:00:00,2017-05-07 00:00:00,PRATE,surface,-104.063,30.7085,1.48e-05
2017-05-07 00:00:00,2017-05-07 00:00:00,PRATE,surface,-103.125,30.7085,1.3e-05
2017-05-07 00:00:00,2017-05-07 00:00:00,PRATE,surface,-102.188,30.7085,1e-05
2017-05-07 00:00:00,2017-05-07 00:00:00,PRATE,surface,-101.25,30.7085,1.06e-05
2017-05-07 00:00:00,2017-05-07 00:00:00,PRATE,surface,-100.313,30.7085,1.45e-05
2017-05-07 00:00:00,2017-05-07 00:00:00,PRATE,surface,-99.3754,30.7085,2.45e-05
2017-05-07 00:00:00,2017-05-07 00:00:00,PRATE,surface,-98.4379,30.7085,3.93e-05
2017-05-07 00:00:00,2017-05-07 00:00:00,PRATE,surface,-97.5004,30.7085,5.41e-05
2017-05-07 00:00:00,2017-05-07 00:00:00,PRATE,surface,-96.5629,30.7085,6.72e-05
2017-05-07 00:00:00,2017-05-07 00:00:00,PRATE,surface,-95.6254,30.7085,7.93e-05
2017-05-07 00:00:00,2017-05-07 00:00:00,PRATE,surface,-94.6879,30.7085,8.76e-05
2017-05-07 00:00:00,2017-05-07 00:00:00,PRATE,surface,-93.7504,30.7085,8.89e-05
2017-05-07 00:00:00,2017-05-07 00:00:00,PRATE,surface,-92.8129,30.7085,8.57e-05
2017-05-07 00:00:00,2017-05-07 00:00:00,PRATE,surface,-107.813,31.6534,1.21e-05
2017-05-07 00:00:00,2017-05-07 00:00:00,PRATE,surface,-106.875,31.6534,1.3e-05
2017-05-07 00:00:00,2017-05-07 00:00:00,PRATE,surface,-105.938,31.6534,1.89e-05
2017-05-07 00:00:00,2017-05-07 00:00:00,PRATE,surface,-105,31.6534,2.3e-05
2017-05-07 00:00:00,2017-05-07 00:00:00,PRATE,surface,-104.063,31.6534,1.96e-05
2017-05-07 00:00:00,2017-05-07 00:00:00,PRATE,surface,-103.125,31.6534,1.28e-05
2017-05-07 00:00:00,2017-05-07 00:00:00,PRATE,surface,-102.188,31.6534,1.03e-05
2017-05-07 00:00:00,2017-05-07 00:00:00,PRATE,surface,-101.25,31.6534,1.13e-05
2017-05-07 00:00:00,2017-05-07 00:00:00,PRATE,surface,-100.313,31.6534,1.41e-05
2017-05-07 00:00:00,2017-05-07 00:00:00,PRATE,surface,-99.3754,31.6534,1.89e-05
2017-05-07 00:00:00,2017-05-07 00:00:00,PRATE,surface,-98.4379,31.6534,2.7e-05
2017-05-07 00:00:00,2017-05-07 00:00:00,PRATE,surface,-97.5004,31.6534,3.75e-05
2017-05-07 00:00:00,2017-05-07 00:00:00,PRATE,surface,-96.5629,31.6534,4.8e-05
2017-05-07 00:00:00,2017-05-07 00:00:00,PRATE,surface,-95.6254,31.6534,5.67e-05
2017-05-07 00:00:00,2017-05-07 00:00:00,PRATE,surface,-94.6879,31.6534,6.5e-05
2017-05-07 00:00:00,2017-05-07 00:00:00,PRATE,surface,-93.7504,31.6534,7.47e-05
2017-05-07 00:00:00,2017-05-07 00:00:00,PRATE,surface,-92.8129,31.6534,7.75e-05
2017-05-07 00:00:00,2017-05-07 00:00:00,PRATE,surface,-107.813,32.5983,1.59e-05
2017-05-07 00:00:00,2017-05-07 00:00:00,PRATE,surface,-106.875,32.5983,1.33e-05
2017-05-07 00:00:00,2017-05-07 00:00:00,PRATE,surface,-105.938,32.5983,1.61e-05
2017-05-07 00:00:00,2017-05-07 00:00:00,PRATE,surface,-105,32.5983,2.35e-05
2017-05-07 00:00:00,2017-05-07 00:00:00,PRATE,surface,-104.063,32.5983,2.1e-05
2017-05-07 00:00:00,2017-05-07 00:00:00,PRATE,surface,-103.125,32.5983,1.68e-05
2017-05-07 00:00:00,2017-05-07 00:00:00,PRATE,surface,-102.188,32.5983,1.42e-05
2017-05-07 00:00:00,2017-05-07 00:00:00,PRATE,surface,-101.25,32.5983,1.46e-05
2017-05-07 00:00:00,2017-05-07 00:00:00,PRATE,surface,-100.313,32.5983,1.52e-05
2017-05-07 00:00:00,2017-05-07 00:00:00,PRATE,surface,-99.3754,32.5983,1.54e-05
2017-05-07 00:00:00,2017-05-07 00:00:00,PRATE,surface,-98.4379,32.5983,1.88e-05
2017-05-07 00:00:00,2017-05-07 00:00:00,PRATE,surface,-97.5004,32.5983,2.62e-05
2017-05-07 00:00:00,2017-05-07 00:00:00,PRATE,surface,-96.5629,32.5983,3.21e-05
2017-05-07 00:00:00,2017-05-07 00:00:00,PRATE,surface,-95.6254,32.5983,3.55e-05
2017-05-07 00:00:00,2017-05-07 00:00:00,PRATE,surface,-94.6879,32.5983,4.26e-05
2017-05-07 00:00:00,2017-05-07 00:00:00,PRATE,surface,-93.7504,32.5983,5.29e-05
2017-05-07 00:00:00,2017-05-07 00:00:00,PRATE,surface,-92.8129,32.5983,5.92e-05
2017-05-07 00:00:00,2017-05-07 00:00:00,PRATE,surface,-107.813,33.5432,2.88e-05
2017-05-07 00:00:00,2017-05-07 00:00:00,PRATE,surface,-106.875,33.5432,1.79e-05
2017-05-07 00:00:00,2017-05-07 00:00:00,PRATE,surface,-105.938,33.5432,1.39e-05
2017-05-07 00:00:00,2017-05-07 00:00:00,PRATE,surface,-105,33.5432,1.84e-05
2017-05-07 00:00:00,2017-05-07 00:00:00,PRATE,surface,-104.063,33.5432,1.84e-05
2017-05-07 00:00:00,2017-05-07 00:00:00,PRATE,surface,-103.125,33.5432,1.56e-05
2017-05-07 00:00:00,2017-05-07 00:00:00,PRATE,surface,-102.188,33.5432,1.72e-05
2017-05-07 00:00:00,2017-05-07 00:00:00,PRATE,surface,-101.25,33.5432,2.13e-05
2017-05-07 00:00:00,2017-05-07 00:00:00,PRATE,surface,-100.313,33.5432,2.11e-05
2017-05-07 00:00:00,2017-05-07 00:00:00,PRATE,surface,-99.3754,33.5432,1.7e-05
2017-05-07 00:00:00,2017-05-07 00:00:00,PRATE,surface,-98.4379,33.5432,1.76e-05
2017-05-07 00:00:00,2017-05-07 00:00:00,PRATE,surface,-97.5004,33.5432,2.38e-05
2017-05-07 00:00:00,2017-05-07 00:00:00,PRATE,surface,-96.5629,33.5432,2.86e-05
2017-05-07 00:00:00,2017-05-07 00:00:00,PRATE,surface,-95.6254,33.5432,2.93e-05
2017-05-07 00:00:00,2017-05-07 00:00:00,PRATE,surface,-94.6879,33.5432,3.14e-05
2017-05-07 00:00:00,2017-05-07 00:00:00,PRATE,surface,-93.7504,33.5432,3.95e-05
2017-05-07 00:00:00,2017-05-07 00:00:00,PRATE,surface,-92.8129,33.5432,4.92e-05
2017-05-07 00:00:00,2017-05-07 00:00:00,PRATE,surface,-107.813,34.4881,2.35e-05
2017-05-07 00:00:00,2017-05-07 00:00:00,PRATE,surface,-106.875,34.4881,1.36e-05
2017-05-07 00:00:00,2017-05-07 00:00:00,PRATE,surface,-105.938,34.4881,1.18e-05
2017-05-07 00:00:00,2017-05-07 00:00:00,PRATE,surface,-105,34.4881,1.7e-05
2017-05-07 00:00:00,2017-05-07 00:00:00,PRATE,surface,-104.063,34.4881,1.46e-05
2017-05-07 00:00:00,2017-05-07 00:00:00,PRATE,surface,-103.125,34.4881,1.48e-05
2017-05-07 00:00:00,2017-05-07 00:00:00,PRATE,surface,-102.188,34.4881,1.88e-05
2017-05-07 00:00:00,2017-05-07 00:00:00,PRATE,surface,-101.25,34.4881,2.2e-05
2017-05-07 00:00:00,2017-05-07 00:00:00,PRATE,surface,-100.313,34.4881,2.21e-05
2017-05-07 00:00:00,2017-05-07 00:00:00,PRATE,surface,-99.3754,34.4881,1.91e-05
2017-05-07 00:00:00,2017-05-07 00:00:00,PRATE,surface,-98.4379,34.4881,1.95e-05
2017-05-07 00:00:00,2017-05-07 00:00:00,PRATE,surface,-97.5004,34.4881,2.41e-05
2017-05-07 00:00:00,2017-05-07 00:00:00,PRATE,surface,-96.5629,34.4881,2.91e-05
2017-05-07 00:00:00,2017-05-07 00:00:00,PRATE,surface,-95.6254,34.4881,3.3e-05
2017-05-07 00:00:00,2017-05-07 00:00:00,PRATE,surface,-94.6879,34.4881,3.66e-05
2017-05-07 00:00:00,2017-05-07 00:00:00,PRATE,surface,-93.7504,34.4881,4.07e-05
2017-05-07 00:00:00,2017-05-07 00:00:00,PRATE,surface,-92.8129,34.4881,4.74e-05
2017-05-07 00:00:00,2017-05-07 00:00:00,PRATE,surface,-107.813,35.4329,1.78e-05
2017-05-07 00:00:00,2017-05-07 00:00:00,PRATE,surface,-106.875,35.4329,1.12e-05
2017-05-07 00:00:00,2017-05-07 00:00:00,PRATE,surface,-105.938,35.4329,1.3e-05
2017-05-07 00:00:00,2017-05-07 00:00:00,PRATE,surface,-105,35.4329,1.72e-05
2017-05-07 00:00:00,2017-05-07 00:00:00,PRATE,surface,-104.063,35.4329,1.6e-05
2017-05-07 00:00:00,2017-05-07 00:00:00,PRATE,surface,-103.125,35.4329,1.67e-05
2017-05-07 00:00:00,2017-05-07 00:00:00,PRATE,surface,-102.188,35.4329,1.95e-05
2017-05-07 00:00:00,2017-05-07 00:00:00,PRATE,surface,-101.25,35.4329,2.26e-05
2017-05-07 00:00:00,2017-05-07 00:00:00,PRATE,surface,-100.313,35.4329,2.42e-05
2017-05-07 00:00:00,2017-05-07 00:00:00,PRATE,surface,-99.3754,35.4329,2.3e-05
2017-05-07 00:00:00,2017-05-07 00:00:00,PRATE,surface,-98.4379,35.4329,2.22e-05
2017-05-07 00:00:00,2017-05-07 00:00:00,PRATE,surface,-97.5004,35.4329,2.39e-05
2017-05-07 00:00:00,2017-05-07 00:00:00,PRATE,surface,-96.5629,35.4329,2.65e-05
2017-05-07 00:00:00,2017-05-07 00:00:00,PRATE,surface,-95.6254,35.4329,2.99e-05
2017-05-07 00:00:00,2017-05-07 00:00:00,PRATE,surface,-94.6879,35.4329,3.49e-05
2017-05-07 00:00:00,2017-05-07 00:00:00,PRATE,surface,-93.7504,35.4329,3.96e-05
2017-05-07 00:00:00,2017-05-07 00:00:00,PRATE,surface,-92.8129,35.4329,4.37e-05
2017-05-07 00:00:00,2017-05-07 00:00:00,PRATE,surface,-107.813,36.3778,2.21e-05
2017-05-07 00:00:00,2017-05-07 00:00:00,PRATE,surface,-106.875,36.3778,1.83e-05
2017-05-07 00:00:00,2017-05-07 00:00:00,PRATE,surface,-105.938,36.3778,1.57e-05
2017-05-07 00:00:00,2017-05-07 00:00:00,PRATE,surface,-105,36.3778,1.36e-05
2017-05-07 00:00:00,2017-05-07 00:00:00,PRATE,surface,-104.063,36.3778,1.71e-05
2017-05-07 00:00:00,2017-05-07 00:00:00,PRATE,surface,-103.125,36.3778,1.74e-05
2017-05-07 00:00:00,2017-05-07 00:00:00,PRATE,surface,-102.188,36.3778,1.68e-05
2017-05-07 00:00:00,2017-05-07 00:00:00,PRATE,surface,-101.25,36.3778,1.98e-05
2017-05-07 00:00:00,2017-05-07 00:00:00,PRATE,surface,-100.313,36.3778,2.36e-05
2017-05-07 00:00:00,2017-05-07 00:00:00,PRATE,surface,-99.3754,36.3778,2.6e-05
2017-05-07 00:00:00,2017-05-07 00:00:00,PRATE,surface,-98.4379,36.3778,2.59e-05
2017-05-07 00:00:00,2017-05-07 00:00:00,PRATE,surface,-97.5004,36.3778,2.41e-05
2017-05-07 00:00:00,2017-05-07 00:00:00,PRATE,surface,-96.5629,36.3778,2.2e-05
2017-05-07 00:00:00,2017-05-07 00:00:00,PRATE,surface,-95.6254,36.3778,2.16e-05
2017-05-07 00:00:00,2017-05-07 00:00:00,PRATE,surface,-94.6879,36.3778,2.46e-05
2017-05-07 00:00:00,2017-05-07 00:00:00,PRATE,surface,-93.7504,36.3778,3.04e-05
2017-05-07 00:00:00,2017-05-07 00:00:00,PRATE,surface,-92.8129,36.3778,3.76e-05
