2016-11-24 00:00:00,2016-11-24 00:00:00,TMP,surface,-107.813,25.0393,295.994
2016-11-24 00:00:00,2016-11-24 00:00:00,TMP,surface,-106.875,25.0393,289.863
2016-11-24 00:00:00,2016-11-24 00:00:00,TMP,surface,-105.938,25.0393,285.047
2016-11-24 00:00:00,2016-11-24 00:00:00,TMP,surface,-105,25.0393,284.3
2016-11-24 00:00:00,2016-11-24 00:00:00,TMP,surface,-104.063,25.0393,287.658
2016-11-24 00:00:00,2016-11-24 00:00:00,TMP,surface,-103.125,25.0393,288.614
2016-11-24 00:00:00,2016-11-24 00:00:00,TMP,surface,-102.188,25.0393,288.646
2016-11-24 00:00:00,2016-11-24 00:00:00,TMP,surface,-101.25,25.0393,287.367
2016-11-24 00:00:00,2016-11-24 00:00:00,TMP,surface,-100.313,25.0393,288.535
2016-11-24 00:00:00,2016-11-24 00:00:00,TMP,surface,-99.3754,25.0393,292.049
2016-11-24 00:00:00,2016-11-24 00:00:00,TMP,surface,-98.4379,25.0393,295.071
2016-11-24 00:00:00,2016-11-24 00:00:00,TMP,surface,-97.5004,25.0393,298.518
2016-11-24 00:00:00,2016-11-24 00:00:00,TMP,surface,-96.5629,25.0393,299.79
2016-11-24 00:00:00,2016-11-24 00:00:00,TMP,surface,-95.6254,25.0393,300.076
2016-11-24 00:00:00,2016-11-24 00:00:00,TMP,surface,-94.6879,25.0393,299.924
2016-11-24 00:00:00,2016-11-24 00:00:00,TMP,surface,-93.7504,25.0393,299.81
2016-11-24 00:00:00,2016-11-24 00:00:00,TMP,surface,-92.8129,25.0393,299.719
2016-11-24 00:00:00,2016-11-24 00:00:00,TMP,surface,-107.813,25.9842,290.001
2016-11-24 00:00:00,2016-11-24 00:00:00,TMP,surface,-106.875,25.9842,285.303
2016-11-24 00:00:00,2016-11-24 00:00:00,TMP,surface,-105.938,25.9842,283.601
2016-11-24 00:00:00,2016-11-24 00:00:00,TMP,surface,-105,25.9842,285.417
2016-11-24 00:00:00,2016-11-24 00:00:00,TMP,surface,-104.063,25.9842,289.282
2016-11-24 00:00:00,2016-11-24 00:00:00,TMP,surface,-103.125,25.9842,290.028
2016-11-24 00:00:00,2016-11-24 00:00:00,TMP,surface,-102.188,25.9842,289.906
2016-11-24 00:00:00,2016-11-24 00:00:00,TMP,surface,-101.25,25.9842,289.668
2016-11-24 00:00:00,2016-11-24 00:00:00,TMP,surface,-100.313,25.9842,290.433
2016-11-24 00:00:00,2016-11-24 00:00:00,TMP,surface,-99.3754,25.9842,293.183
2016-11-24 00:00:00,2016-11-24 00:00:00,TMP,surface,-98.4379,25.9842,295.598
2016-11-24 00:00:00,2016-11-24 00:00:00,TMP,surface,-97.5004,25.9842,296.377
2016-11-24 00:00:00,2016-11-24 00:00:00,TMP,surface,-96.5629,25.9842,298.716
2016-11-24 00:00:00,2016-11-24 00:00:00,TMP,surface,-95.6254,25.9842,299.607
2016-11-24 00:00:00,2016-11-24 00:00:00,TMP,surface,-94.6879,25.9842,299.61
2016-11-24 00:00:00,2016-11-24 00:00:00,TMP,surface,-93.7504,25.9842,299.462
2016-11-24 00:00:00,2016-11-24 00:00:00,TMP,surface,-92.8129,25.9842,299.279
2016-11-24 00:00:00,2016-11-24 00:00:00,TMP,surface,-107.813,26.929,285.734
2016-11-24 00:00:00,2016-11-24 00:00:00,TMP,surface,-106.875,26.929,282.46
2016-11-24 00:00:00,2016-11-24 00:00:00,TMP,surface,-105.938,26.929,284.226
2016-11-24 00:00:00,2016-11-24 00:00:00,TMP,surface,-105,26.929,287.254
2016-11-24 00:00:00,2016-11-24 00:00:00,TMP,surface,-104.063,26.929,288.569
2016-11-24 00:00:00,2016-11-24 00:00:00,TMP,surface,-103.125,26.929,288.73
2016-11-24 00:00:00,2016-11-24 00:00:00,TMP,surface,-102.188,26.929,289.282
2016-11-24 00:00:00,2016-11-24 00:00:00,TMP,surface,-101.25,26.929,290.494
2016-11-24 00:00:00,2016-11-24 00:00:00,TMP,surface,-100.313,26.929,291.644
2016-11-24 00:00:00,2016-11-24 00:00:00,TMP,surface,-99.3754,26.929,293.831
2016-11-24 00:00:00,2016-11-24 00:00:00,TMP,surface,-98.4379,26.929,294.321
2016-11-24 00:00:00,2016-11-24 00:00:00,TMP,surface,-97.5004,26.929,296.255
2016-11-24 00:00:00,2016-11-24 00:00:00,TMP,surface,-96.5629,26.929,297.874
2016-11-24 00:00:00,2016-11-24 00:00:00,TMP,surface,-95.6254,26.929,298.99
2016-11-24 00:00:00,2016-11-24 00:00:00,TMP,surface,-94.6879,26.929,299.118
2016-11-24 00:00:00,2016-11-24 00:00:00,TMP,surface,-93.7504,26.929,299.03
2016-11-24 00:00:00,2016-11-24 00:00:00,TMP,surface,-92.8129,26.929,298.894
2016-11-24 00:00:00,2016-11-24 00:00:00,TMP,surface,-107.813,27.8739,282.126
2016-11-24 00:00:00,2016-11-24 00:00:00,TMP,surface,-106.875,27.8739,281.343
2016-11-24 00:00:00,2016-11-24 00:00:00,TMP,surface,-105.938,27.8739,284.646
2016-11-24 00:00:00,2016-11-24 00:00:00,TMP,surface,-105,27.8739,287.62
2016-11-24 00:00:00,2016-11-24 00:00:00,TMP,surface,-104.063,27.8739,288.092
2016-11-24 00:00:00,2016-11-24 00:00:00,TMP,surface,-103.125,27.8739,287.604
2016-11-24 00:00:00,2016-11-24 00:00:00,TMP,surface,-102.188,27.8739,288.042
2016-11-24 00:00:00,2016-11-24 00:00:00,TMP,surface,-101.25,27.8739,289.404
2016-11-24 00:00:00,2016-11-24 00:00:00,TMP,surface,-100.313,27.8739,291.468
2016-11-24 00:00:00,2016-11-24 00:00:00,TMP,surface,-99.3754,27.8739,292.505
2016-11-24 00:00:00,2016-11-24 00:00:00,TMP,surface,-98.4379,27.8739,292.974
2016-11-24 00:00:00,2016-11-24 00:00:00,TMP,surface,-97.5004,27.8739,294.922
2016-11-24 00:00:00,2016-11-24 00:00:00,TMP,surface,-96.5629,27.8739,297.22
2016-11-24 00:00:00,2016-11-24 00:00:00,TMP,surface,-95.6254,27.8739,298.21
2016-11-24 00:00:00,2016-11-24 00:00:00,TMP,surface,-94.6879,27.8739,298.615
2016-11-24 00:00:00,2016-11-24 00:00:00,TMP,surface,-93.7504,27.8739,298.607
2016-11-24 00:00:00,2016-11-24 00:00:00,TMP,surface,-92.8129,27.8739,298.623
2016-11-24 00:00:00,2016-11-24 00:00:00,TMP,surface,-107.813,28.8188,280.548
2016-11-24 00:00:00,2016-11-24 00:00:00,TMP,surface,-106.875,28.8188,281.426
2016-11-24 00:00:00,2016-11-24 00:00:00,TMP,surface,-105.938,28.8188,284.798
2016-11-24 00:00:00,2016-11-24 00:00:00,TMP,surface,-105,28.8188,286.498
2016-11-24 00:00:00,2016-11-24 00:00:00,TMP,surface,-104.063,28.8188,285.86
2016-11-24 00:00:00,2016-11-24 00:00:00,TMP,surface,-103.125,28.8188,286.38
2016-11-24 00:00:00,2016-11-24 00:00:00,TMP,surface,-102.188,28.8188,287.202
2016-11-24 00:00:00,2016-11-24 00:00:00,TMP,surface,-101.25,28.8188,288.513
2016-11-24 00:00:00,2016-11-24 00:00:00,TMP,surface,-100.313,28.8188,289.631
2016-11-24 00:00:00,2016-11-24 00:00:00,TMP,surface,-99.3754,28.8188,290.031
2016-11-24 00:00:00,2016-11-24 00:00:00,TMP,surface,-98.4379,28.8188,290.422
2016-11-24 00:00:00,2016-11-24 00:00:00,TMP,surface,-97.5004,28.8188,291.174
2016-11-24 00:00:00,2016-11-24 00:00:00,TMP,surface,-96.5629,28.8188,292.094
2016-11-24 00:00:00,2016-11-24 00:00:00,TMP,surface,-95.6254,28.8188,294.206
2016-11-24 00:00:00,2016-11-24 00:00:00,TMP,surface,-94.6879,28.8188,296.802
2016-11-24 00:00:00,2016-11-24 00:00:00,TMP,surface,-93.7504,28.8188,296.878
2016-11-24 00:00:00,2016-11-24 00:00:00,TMP,surface,-92.8129,28.8188,296.87
2016-11-24 00:00:00,2016-11-24 00:00:00,TMP,surface,-107.813,29.7637,281.282
2016-11-24 00:00:00,2016-11-24 00:00:00,TMP,surface,-106.875,29.7637,282.402
2016-11-24 00:00:00,2016-11-24 00:00:00,TMP,surface,-105.938,29.7637,284.514
2016-11-24 00:00:00,2016-11-24 00:00:00,TMP,surface,-105,29.7637,284.57
2016-11-24 00:00:00,2016-11-24 00:00:00,TMP,surface,-104.063,29.7637,284.897
2016-11-24 00:00:00,2016-11-24 00:00:00,TMP,surface,-103.125,29.7637,285.855
2016-11-24 00:00:00,2016-11-24 00:00:00,TMP,surface,-102.188,29.7637,286.999
2016-11-24 00:00:00,2016-11-24 00:00:00,TMP,surface,-101.25,29.7637,287.593
2016-11-24 00:00:00,2016-11-24 00:00:00,TMP,surface,-100.313,29.7637,287.649
2016-11-24 00:00:00,2016-11-24 00:00:00,TMP,surface,-99.3754,29.7637,287.658
2016-11-24 00:00:00,2016-11-24 00:00:00,TMP,surface,-98.4379,29.7637,288.015
2016-11-24 00:00:00,2016-11-24 00:00:00,TMP,surface,-97.5004,29.7637,288.607
2016-11-24 00:00:00,2016-11-24 00:00:00,TMP,surface,-96.5629,29.7637,289.274
2016-11-24 00:00:00,2016-11-24 00:00:00,TMP,surface,-95.6254,29.7637,289.946
2016-11-24 00:00:00,2016-11-24 00:00:00,TMP,surface,-94.6879,29.7637,291.591
2016-11-24 00:00:00,2016-11-24 00:00:00,TMP,surface,-93.7504,29.7637,293.479
2016-11-24 00:00:00,2016-11-24 00:00:00,TMP,surface,-92.8129,29.7637,290.93
2016-11-24 00:00:00,2016-11-24 00:00:00,TMP,surface,-107.813,30.7085,282.562
2016-11-24 00:00:00,2016-11-24 00:00:00,TMP,surface,-106.875,30.7085,283.492
2016-11-24 00:00:00,2016-11-24 00:00:00,TMP,surface,-105.938,30.7085,283.682
2016-11-24 00:00:00,2016-11-24 00:00:00,TMP,surface,-105,30.7085,283.522
2016-11-24 00:00:00,2016-11-24 00:00:00,TMP,surface,-104.063,30.7085,283.537
2016-11-24 00:00:00,2016-11-24 00:00:00,TMP,surface,-103.125,30.7085,285.314
2016-11-24 00:00:00,2016-11-24 00:00:00,TMP,surface,-102.188,30.7085,286.121
2016-11-24 00:00:00,2016-11-24 00:00:00,TMP,surface,-101.25,30.7085,286.382
2016-11-24 00:00:00,2016-11-24 00:00:00,TMP,surface,-100.313,30.7085,286.438
2016-11-24 00:00:00,2016-11-24 00:00:00,TMP,surface,-99.3754,30.7085,286.567
2016-11-24 00:00:00,2016-11-24 00:00:00,TMP,surface,-98.4379,30.7085,286.932
2016-11-24 00:00:00,2016-11-24 00:00:00,TMP,surface,-97.5004,30.7085,287.334
2016-11-24 00:00:00,2016-11-24 00:00:00,TMP,surface,-96.5629,30.7085,287.649
2016-11-24 00:00:00,2016-11-24 00:00:00,TMP,surface,-95.6254,30.7085,287.996
2016-11-24 00:00:00,2016-11-24 00:00:00,TMP,surface,-94.6879,30.7085,288.225
2016-11-24 00:00:00,2016-11-24 00:00:00,TMP,surface,-93.7504,30.7085,288.026
2016-11-24 00:00:00,2016-11-24 00:00:00,TMP,surface,-92.8129,30.7085,287.759
2016-11-24 00:00:00,2016-11-24 00:00:00,TMP,surface,-107.813,31.6534,282.186
2016-11-24 00:00:00,2016-11-24 00:00:00,TMP,surface,-106.875,31.6534,282.727
2016-11-24 00:00:00,2016-11-24 00:00:00,TMP,surface,-105.938,31.6534,282.258
2016-11-24 00:00:00,2016-11-24 00:00:00,TMP,surface,-105,31.6534,282.26
2016-11-24 00:00:00,2016-11-24 00:00:00,TMP,surface,-104.063,31.6534,283.462
2016-11-24 00:00:00,2016-11-24 00:00:00,TMP,surface,-103.125,31.6534,284.975
2016-11-24 00:00:00,2016-11-24 00:00:00,TMP,surface,-102.188,31.6534,285.316
2016-11-24 00:00:00,2016-11-24 00:00:00,TMP,surface,-101.25,31.6534,285.22
2016-11-24 00:00:00,2016-11-24 00:00:00,TMP,surface,-100.313,31.6534,285.646
2016-11-24 00:00:00,2016-11-24 00:00:00,TMP,surface,-99.3754,31.6534,286.121
2016-11-24 00:00:00,2016-11-24 00:00:00,TMP,surface,-98.4379,31.6534,286.46
2016-11-24 00:00:00,2016-11-24 00:00:00,TMP,surface,-97.5004,31.6534,286.7
2016-11-24 00:00:00,2016-11-24 00:00:00,TMP,surface,-96.5629,31.6534,286.898
2016-11-24 00:00:00,2016-11-24 00:00:00,TMP,surface,-95.6254,31.6534,286.922
2016-11-24 00:00:00,2016-11-24 00:00:00,TMP,surface,-94.6879,31.6534,286.617
2016-11-24 00:00:00,2016-11-24 00:00:00,TMP,surface,-93.7504,31.6534,286.292
2016-11-24 00:00:00,2016-11-24 00:00:00,TMP,surface,-92.8129,31.6534,286.23
2016-11-24 00:00:00,2016-11-24 00:00:00,TMP,surface,-107.813,32.5983,278.991
2016-11-24 00:00:00,2016-11-24 00:00:00,TMP,surface,-106.875,32.5983,279.345
2016-11-24 00:00:00,2016-11-24 00:00:00,TMP,surface,-105.938,32.5983,280.129
2016-11-24 00:00:00,2016-11-24 00:00:00,TMP,surface,-105,32.5983,281.153
2016-11-24 00:00:00,2016-11-24 00:00:00,TMP,surface,-104.063,32.5983,282.71
2016-11-24 00:00:00,2016-11-24 00:00:00,TMP,surface,-103.125,32.5983,284.049
2016-11-24 00:00:00,2016-11-24 00:00:00,TMP,surface,-102.188,32.5983,284.466
2016-11-24 00:00:00,2016-11-24 00:00:00,TMP,surface,-101.25,32.5983,284.658
2016-11-24 00:00:00,2016-11-24 00:00:00,TMP,surface,-100.313,32.5983,284.937
2016-11-24 00:00:00,2016-11-24 00:00:00,TMP,surface,-99.3754,32.5983,285.29
2016-11-24 00:00:00,2016-11-24 00:00:00,TMP,surface,-98.4379,32.5983,285.623
2016-11-24 00:00:00,2016-11-24 00:00:00,TMP,surface,-97.5004,32.5983,285.961
2016-11-24 00:00:00,2016-11-24 00:00:00,TMP,surface,-96.5629,32.5983,286.202
2016-11-24 00:00:00,2016-11-24 00:00:00,TMP,surface,-95.6254,32.5983,286.137
2016-11-24 00:00:00,2016-11-24 00:00:00,TMP,surface,-94.6879,32.5983,285.77
2016-11-24 00:00:00,2016-11-24 00:00:00,TMP,surface,-93.7504,32.5983,285.378
2016-11-24 00:00:00,2016-11-24 00:00:00,TMP,surface,-92.8129,32.5983,285.345
2016-11-24 00:00:00,2016-11-24 00:00:00,TMP,surface,-107.813,33.5432,275.842
2016-11-24 00:00:00,2016-11-24 00:00:00,TMP,surface,-106.875,33.5432,277.002
2016-11-24 00:00:00,2016-11-24 00:00:00,TMP,surface,-105.938,33.5432,278.449
2016-11-24 00:00:00,2016-11-24 00:00:00,TMP,surface,-105,33.5432,279.974
2016-11-24 00:00:00,2016-11-24 00:00:00,TMP,surface,-104.063,33.5432,281.591
2016-11-24 00:00:00,2016-11-24 00:00:00,TMP,surface,-103.125,33.5432,282.678
2016-11-24 00:00:00,2016-11-24 00:00:00,TMP,surface,-102.188,33.5432,283.105
2016-11-24 00:00:00,2016-11-24 00:00:00,TMP,surface,-101.25,33.5432,283.358
2016-11-24 00:00:00,2016-11-24 00:00:00,TMP,surface,-100.313,33.5432,283.822
2016-11-24 00:00:00,2016-11-24 00:00:00,TMP,surface,-99.3754,33.5432,284.183
2016-11-24 00:00:00,2016-11-24 00:00:00,TMP,surface,-98.4379,33.5432,284.452
2016-11-24 00:00:00,2016-11-24 00:00:00,TMP,surface,-97.5004,33.5432,284.652
2016-11-24 00:00:00,2016-11-24 00:00:00,TMP,surface,-96.5629,33.5432,284.817
2016-11-24 00:00:00,2016-11-24 00:00:00,TMP,surface,-95.6254,33.5432,284.87
2016-11-24 00:00:00,2016-11-24 00:00:00,TMP,surface,-94.6879,33.5432,284.67
2016-11-24 00:00:00,2016-11-24 00:00:00,TMP,surface,-93.7504,33.5432,284.481
2016-11-24 00:00:00,2016-11-24 00:00:00,TMP,surface,-92.8129,33.5432,284.599
2016-11-24 00:00:00,2016-11-24 00:00:00,TMP,surface,-107.813,34.4881,274.236
2016-11-24 00:00:00,2016-11-24 00:00:00,TMP,surface,-106.875,34.4881,275.394
2016-11-24 00:00:00,2016-11-24 00:00:00,TMP,surface,-105.938,34.4881,276.614
2016-11-24 00:00:00,2016-11-24 00:00:00,TMP,surface,-105,34.4881,278.322
2016-11-24 00:00:00,2016-11-24 00:00:00,TMP,surface,-104.063,34.4881,279.886
2016-11-24 00:00:00,2016-11-24 00:00:00,TMP,surface,-103.125,34.4881,280.926
2016-11-24 00:00:00,2016-11-24 00:00:00,TMP,surface,-102.188,34.4881,281.596
2016-11-24 00:00:00,2016-11-24 00:00:00,TMP,surface,-101.25,34.4881,282.362
2016-11-24 00:00:00,2016-11-24 00:00:00,TMP,surface,-100.313,34.4881,283.023
2016-11-24 00:00:00,2016-11-24 00:00:00,TMP,surface,-99.3754,34.4881,283.265
2016-11-24 00:00:00,2016-11-24 00:00:00,TMP,surface,-98.4379,34.4881,283.354
2016-11-24 00:00:00,2016-11-24 00:00:00,TMP,surface,-97.5004,34.4881,283.458
2016-11-24 00:00:00,2016-11-24 00:00:00,TMP,surface,-96.5629,34.4881,283.529
2016-11-24 00:00:00,2016-11-24 00:00:00,TMP,surface,-95.6254,34.4881,283.322
2016-11-24 00:00:00,2016-11-24 00:00:00,TMP,surface,-94.6879,34.4881,282.841
2016-11-24 00:00:00,2016-11-24 00:00:00,TMP,surface,-93.7504,34.4881,282.764
2016-11-24 00:00:00,2016-11-24 00:00:00,TMP,surface,-92.8129,34.4881,283.351
2016-11-24 00:00:00,2016-11-24 00:00:00,TMP,surface,-107.813,35.4329,273.406
2016-11-24 00:00:00,2016-11-24 00:00:00,TMP,surface,-106.875,35.4329,273.319
2016-11-24 00:00:00,2016-11-24 00:00:00,TMP,surface,-105.938,35.4329,274.028
2016-11-24 00:00:00,2016-11-24 00:00:00,TMP,surface,-105,35.4329,276.207
2016-11-24 00:00:00,2016-11-24 00:00:00,TMP,surface,-104.063,35.4329,278.487
2016-11-24 00:00:00,2016-11-24 00:00:00,TMP,surface,-103.125,35.4329,280.172
2016-11-24 00:00:00,2016-11-24 00:00:00,TMP,surface,-102.188,35.4329,281.158
2016-11-24 00:00:00,2016-11-24 00:00:00,TMP,surface,-101.25,35.4329,282.017
2016-11-24 00:00:00,2016-11-24 00:00:00,TMP,surface,-100.313,35.4329,282.607
2016-11-24 00:00:00,2016-11-24 00:00:00,TMP,surface,-99.3754,35.4329,282.66
2016-11-24 00:00:00,2016-11-24 00:00:00,TMP,surface,-98.4379,35.4329,282.543
2016-11-24 00:00:00,2016-11-24 00:00:00,TMP,surface,-97.5004,35.4329,282.802
2016-11-24 00:00:00,2016-11-24 00:00:00,TMP,surface,-96.5629,35.4329,282.929
2016-11-24 00:00:00,2016-11-24 00:00:00,TMP,surface,-95.6254,35.4329,282.454
2016-11-24 00:00:00,2016-11-24 00:00:00,TMP,surface,-94.6879,35.4329,281.846
2016-11-24 00:00:00,2016-11-24 00:00:00,TMP,surface,-93.7504,35.4329,281.474
2016-11-24 00:00:00,2016-11-24 00:00:00,TMP,surface,-92.8129,35.4329,281.726
2016-11-24 00:00:00,2016-11-24 00:00:00,TMP,surface,-107.813,36.3778,272.036
2016-11-24 00:00:00,2016-11-24 00:00:00,TMP,surface,-106.875,36.3778,270.274
2016-11-24 00:00:00,2016-11-24 00:00:00,TMP,surface,-105.938,36.3778,270.401
2016-11-24 00:00:00,2016-11-24 00:00:00,TMP,surface,-105,36.3778,273.284
2016-11-24 00:00:00,2016-11-24 00:00:00,TMP,surface,-104.063,36.3778,276.482
2016-11-24 00:00:00,2016-11-24 00:00:00,TMP,surface,-103.125,36.3778,278.596
2016-11-24 00:00:00,2016-11-24 00:00:00,TMP,surface,-102.188,36.3778,280.114
2016-11-24 00:00:00,2016-11-24 00:00:00,TMP,surface,-101.25,36.3778,281.318
2016-11-24 00:00:00,2016-11-24 00:00:00,TMP,surface,-100.313,36.3778,282.158
2016-11-24 00:00:00,2016-11-24 00:00:00,TMP,surface,-99.3754,36.3778,282.33
2016-11-24 00:00:00,2016-11-24 00:00:00,TMP,surface,-98.4379,36.3778,282.07
2016-11-24 00:00:00,2016-11-24 00:00:00,TMP,surface,-97.5004,36.3778,282.15
2016-11-24 00:00:00,2016-11-24 00:00:00,TMP,surface,-96.5629,36.3778,282.313
2016-11-24 00:00:00,2016-11-24 00:00:00,TMP,surface,-95.6254,36.3778,281.783
2016-11-24 00:00:00,2016-11-24 00:00:00,TMP,surface,-94.6879,36.3778,280.799
2016-11-24 00:00:00,2016-11-24 00:00:00,TMP,surface,-93.7504,36.3778,280.143
2016-11-24 00:00:00,2016-11-24 00:00:00,TMP,surface,-92.8129,36.3778,280.212
2016-11-24 00:00:00,2016-11-24 00:00:00,PRATE,surface,-107.813,25.0393,1e-07
2016-11-24 00:00:00,2016-11-24 00:00:00,PRATE,surface,-106.875,25.0393,6.9e-06
2016-11-24 00:00:00,2016-11-24 00:00:00,PRATE,surface,-105.938,25.0393,7.5e-06
2016-11-24 00:00:00,2016-11-24 00:00:00,PRATE,surface,-105,25.0393,3e-06
2016-11-24 00:00:00,2016-11-24 00:00:00,PRATE,surface,-104.063,25.0393,7e-07
2016-11-24 00:00:00,2016-11-24 00:00:00,PRATE,surface,-103.125,25.0393,0
2016-11-24 00:00:00,2016-11-24 00:00:00,PRATE,surface,-102.188,25.0393,0
2016-11-24 00:00:00,2016-11-24 00:00:00,PRATE,surface,-101.25,25.0393,3e-07
2016-11-24 00:00:00,2016-11-24 00:00:00,PRATE,surface,-100.313,25.0393,8e-07
2016-11-24 00:00:00,2016-11-24 00:00:00,PRATE,surface,-99.3754,25.0393,1.4e-06
2016-11-24 00:00:00,2016-11-24 00:00:00,PRATE,surface,-98.4379,25.0393,6.8e-06
2016-11-24 00:00:00,2016-11-24 00:00:00,PRATE,surface,-97.5004,25.0393,1.19e-05
2016-11-24 00:00:00,2016-11-24 00:00:00,PRATE,surface,-96.5629,25.0393,1.63e-05
2016-11-24 00:00:00,2016-11-24 00:00:00,PRATE,surface,-95.6254,25.0393,1.06e-05
2016-11-24 00:00:00,2016-11-24 00:00:00,PRATE,surface,-94.6879,25.0393,7.3e-06
2016-11-24 00:00:00,2016-11-24 00:00:00,PRATE,surface,-93.7504,25.0393,1.08e-05
2016-11-24 00:00:00,2016-11-24 00:00:00,PRATE,surface,-92.8129,25.0393,9.8e-06
2016-11-24 00:00:00,2016-11-24 00:00:00,PRATE,surface,-107.813,25.9842,1.7e-06
2016-11-24 00:00:00,2016-11-24 00:00:00,PRATE,surface,-106.875,25.9842,6.4e-06
2016-11-24 00:00:00,2016-11-24 00:00:00,PRATE,surface,-105.938,25.9842,2.8e-06
2016-11-24 00:00:00,2016-11-24 00:00:00,PRATE,surface,-105,25.9842,4e-06
2016-11-24 00:00:00,2016-11-24 00:00:00,PRATE,surface,-104.063,25.9842,0
2016-11-24 00:00:00,2016-11-24 00:00:00,PRATE,surface,-103.125,25.9842,0
2016-11-24 00:00:00,2016-11-24 00:00:00,PRATE,surface,-102.188,25.9842,0
2016-11-24 00:00:00,2016-11-24 00:00:00,PRATE,surface,-101.25,25.9842,4e-07
2016-11-24 00:00:00,2016-11-24 00:00:00,PRATE,surface,-100.313,25.9842,2e-07
2016-11-24 00:00:00,2016-11-24 00:00:00,PRATE,surface,-99.3754,25.9842,4.9e-06
2016-11-24 00:00:00,2016-11-24 00:00:00,PRATE,surface,-98.4379,25.9842,5e-06
2016-11-24 00:00:00,2016-11-24 00:00:00,PRATE,surface,-97.5004,25.9842,1.78e-05
2016-11-24 00:00:00,2016-11-24 00:00:00,PRATE,surface,-96.5629,25.9842,2.3e-05
2016-11-24 00:00:00,2016-11-24 00:00:00,PRATE,surface,-95.6254,25.9842,2.75e-05
2016-11-24 00:00:00,2016-11-24 00:00:00,PRATE,surface,-94.6879,25.9842,1.57e-05
2016-11-24 00:00:00,2016-11-24 00:00:00,PRATE,surface,-93.7504,25.9842,1.79e-05
2016-11-24 00:00:00,2016-11-24 00:00:00,PRATE,surface,-92.8129,25.9842,1.6e-05
2016-11-24 00:00:00,2016-11-24 00:00:00,PRATE,surface,-107.813,26.929,7.8e-06
2016-11-24 00:00:00,2016-11-24 00:00:00,PRATE,surface,-106.875,26.929,4e-06
2016-11-24 00:00:00,2016-11-24 00:00:00,PRATE,surface,-105.938,26.929,3.6e-06
2016-11-24 00:00:00,2016-11-24 00:00:00,PRATE,surface,-105,26.929,6.5e-06
2016-11-24 00:00:00,2016-11-24 00:00:00,PRATE,surface,-104.063,26.929,4e-07
2016-11-24 00:00:00,2016-11-24 00:00:00,PRATE,surface,-103.125,26.929,1e-07
2016-11-24 00:00:00,2016-11-24 00:00:00,PRATE,surface,-102.188,26.929,9e-07
2016-11-24 00:00:00,2016-11-24 00:00:00,PRATE,surface,-101.25,26.929,1.1e-06
2016-11-24 00:00:00,2016-11-24 00:00:00,PRATE,surface,-100.313,26.929,3.6e-06
2016-11-24 00:00:00,2016-11-24 00:00:00,PRATE,surface,-99.3754,26.929,5.7e-06
2016-11-24 00:00:00,2016-11-24 00:00:00,PRATE,surface,-98.4379,26.929,5.6e-06
2016-11-24 00:00:00,2016-11-24 00:00:00,PRATE,surface,-97.5004,26.929,6.5e-06
2016-11-24 00:00:00,2016-11-24 00:00:00,PRATE,surface,-96.5629,26.929,3e-05
2016-11-24 00:00:00,2016-11-24 00:00:00,PRATE,surface,-95.6254,26.929,2.79e-05
2016-11-24 00:00:00,2016-11-24 00:00:00,PRATE,surface,-94.6879,26.929,1.86e-05
2016-11-24 00:00:00,2016-11-24 00:00:00,PRATE,surface,-93.7504,26.929,1.71e-05
2016-11-24 00:00:00,2016-11-24 00:00:00,PRATE,surface,-92.8129,26.929,2.46e-05
2016-11-24 00:00:00,2016-11-24 00:00:00,PRATE,surface,-107.813,27.8739,1.21e-05
2016-11-24 00:00:00,2016-11-24 00:00:00,PRATE,surface,-106.875,27.8739,3.6e-06
2016-11-24 00:00:00,2016-11-24 00:00:00,PRATE,surface,-105.938,27.8739,3.4e-06
2016-11-24 00:00:00,2016-11-24 00:00:00,PRATE,surface,-105,27.8739,1.5e-06
2016-11-24 00:00:00,2016-11-24 00:00:00,PRATE,surface,-104.063,27.8739,1e-06
2016-11-24 00:00:00,2016-11-24 00:00:00,PRATE,surface,-103.125,27.8739,1.2e-06
2016-11-24 00:00:00,2016-11-24 00:00:00,PRATE,surface,-102.188,27.8739,1.03e-05
2016-11-24 00:00:00,2016-11-24 00:00:00,PRATE,surface,-101.25,27.8739,8.2e-06
2016-11-24 00:00:00,2016-11-24 00:00:00,PRATE,surface,-100.313,27.8739,5.1e-06
2016-11-24 00:00:00,2016-11-24 00:00:00,PRATE,surface,-99.3754,27.8739,4.5e-06
2016-11-24 00:00:00,2016-11-24 00:00:00,PRATE,surface,-98.4379,27.8739,4.7e-06
2016-11-24 00:00:00,2016-11-24 00:00:00,PRATE,surface,-97.5004,27.8739,4.1e-06
2016-11-24 00:00:00,2016-11-24 00:00:00,PRATE,surface,-96.5629,27.8739,8.6e-06
2016-11-24 00:00:00,2016-11-24 00:00:00,PRATE,surface,-95.6254,27.8739,1.99e-05
2016-11-24 00:00:00,2016-11-24 00:00:00,PRATE,surface,-94.6879,27.8739,2.67e-05
2016-11-24 00:00:00,2016-11-24 00:00:00,PRATE,surface,-93.7504,27.8739,2.6e-05
2016-11-24 00:00:00,2016-11-24 00:00:00,PRATE,surface,-92.8129,27.8739,2.62e-05
2016-11-24 00:00:00,2016-11-24 00:00:00,PRATE,surface,-107.813,28.8188,1.68e-05
2016-11-24 00:00:00,2016-11-24 00:00:00,PRATE,surface,-106.875,28.8188,3.6e-06
2016-11-24 00:00:00,2016-11-24 00:00:00,PRATE,surface,-105.938,28.8188,2.2e-06
2016-11-24 00:00:00,2016-11-24 00:00:00,PRATE,surface,-105,28.8188,1.3e-06
2016-11-24 00:00:00,2016-11-24 00:00:00,PRATE,surface,-104.063,28.8188,1.6e-06
2016-11-24 00:00:00,2016-11-24 00:00:00,PRATE,surface,-103.125,28.8188,2e-06
2016-11-24 00:00:00,2016-11-24 00:00:00,PRATE,surface,-102.188,28.8188,8.4e-06
2016-11-24 00:00:00,2016-11-24 00:00:00,PRATE,surface,-101.25,28.8188,1.23e-05
2016-11-24 00:00:00,2016-11-24 00:00:00,PRATE,surface,-100.313,28.8188,1.44e-05
2016-11-24 00:00:00,2016-11-24 00:00:00,PRATE,surface,-99.3754,28.8188,1.78e-05
2016-11-24 00:00:00,2016-11-24 00:00:00,PRATE,surface,-98.4379,28.8188,1.44e-05
2016-11-24 00:00:00,2016-11-24 00:00:00,PRATE,surface,-97.5004,28.8188,8.4e-06
2016-11-24 00:00:00,2016-11-24 00:00:00,PRATE,surface,-96.5629,28.8188,9.5e-06
2016-11-24 00:00:00,2016-11-24 00:00:00,PRATE,surface,-95.6254,28.8188,3.37e-05
2016-11-24 00:00:00,2016-11-24 00:00:00,PRATE,surface,-94.6879,28.8188,6.43e-05
2016-11-24 00:00:00,2016-11-24 00:00:00,PRATE,surface,-93.7504,28.8188,5.51e-05
2016-11-24 00:00:00,2016-11-24 00:00:00,PRATE,surface,-92.8129,28.8188,4.33e-05
2016-11-24 00:00:00,2016-11-24 00:00:00,PRATE,surface,-107.813,29.7637,1e-05
2016-11-24 00:00:00,2016-11-24 00:00:00,PRATE,surface,-106.875,29.7637,3.5e-06
2016-11-24 00:00:00,2016-11-24 00:00:00,PRATE,surface,-105.938,29.7637,5.4e-06
2016-11-24 00:00:00,2016-11-24 00:00:00,PRATE,surface,-105,29.7637,2.8e-06
2016-11-24 00:00:00,2016-11-24 00:00:00,PRATE,surface,-104.063,29.7637,1.9e-06
2016-11-24 00:00:00,2016-11-24 00:00:00,PRATE,surface,-103.125,29.7637,2.7e-06
2016-11-24 00:00:00,2016-11-24 00:00:00,PRATE,surface,-102.188,29.7637,8.4e-06
2016-11-24 00:00:00,2016-11-24 00:00:00,PRATE,surface,-101.25,29.7637,1.19e-05
2016-11-24 00:00:00,2016-11-24 00:00:00,PRATE,surface,-100.313,29.7637,2.06e-05
2016-11-24 00:00:00,2016-11-24 00:00:00,PRATE,surface,-99.3754,29.7637,3.01e-05
2016-11-24 00:00:00,2016-11-24 00:00:00,PRATE,surface,-98.4379,29.7637,2.9e-05
2016-11-24 00:00:00,2016-11-24 00:00:00,PRATE,surface,-97.5004,29.7637,2.3e-05
2016-11-24 00:00:00,2016-11-24 00:00:00,PRATE,surface,-96.5629,29.7637,2.11e-05
2016-11-24 00:00:00,2016-11-24 00:00:00,PRATE,surface,-95.6254,29.7637,2.89e-05
2016-11-24 00:00:00,2016-11-24 00:00:00,PRATE,surface,-94.6879,29.7637,4.92e-05
2016-11-24 00:00:00,2016-11-24 00:00:00,PRATE,surface,-93.7504,29.7637,6.32e-05
2016-11-24 00:00:00,2016-11-24 00:00:00,PRATE,surface,-92.8129,29.7637,4.63e-05
2016-11-24 00:00:00,2016-11-24 00:00:00,PRATE,surface,-107.813,30.7085,4.8e-06
2016-11-24 00:00:00,2016-11-24 00:00:00,PRATE,surface,-106.875,30.7085,2.6e-06
2016-11-24 00:00:00,2016-11-24 00:00:00,PRATE,surface,-105.938,30.7085,3.8e-06
2016-11-24 00:00:00,2016-11-24 00:00:00,PRATE,surface,-105,30.7085,4.4e-06
2016-11-24 00:00:00,2016-11-24 00:00:00,PRATE,surface,-104.063,30.7085,4.3e-06
2016-11-24 00:00:00,2016-11-24 00:00:00,PRATE,surface,-103.125,30.7085,4.1e-06
2016-11-24 00:00:00,2016-11-24 00:00:00,PRATE,surface,-102.188,30.7085,7.8e-06
2016-11-24 00:00:00,2016-11-24 00:00:00,PRATE,surface,-101.25,30.7085,1.68e-05
2016-11-24 00:00:00,2016-11-24 00:00:00,PRATE,surface,-100.313,30.7085,2.68e-05
2016-11-24 00:00:00,2016-11-24 00:00:00,PRATE,surface,-99.3754,30.7085,3.1e-05
2016-11-24 00:00:00,2016-11-24 00:00:00,PRATE,surface,-98.4379,30.7085,2.94e-05
2016-11-24 00:00:00,2016-11-24 00:00:00,PRATE,surface,-97.5004,30.7085,3.01e-05
2016-11-24 00:00:00,2016-11-24 00:00:00,PRATE,surface,-96.5629,30.7085,3.11e-05
2016-11-24 00:00:00,2016-11-24 00:00:00,PRATE,surface,-95.6254,30.7085,3.22e-05
2016-11-24 00:00:00,2016-11-24 00:00:00,PRATE,surface,-94.6879,30.7085,5.14e-05
2016-11-24 00:00:00,2016-11-24 00:00:00,PRATE,surface,-93.7504,30.7085,8.15e-05
2016-11-24 00:00:00,2016-11-24 00:00:00,PRATE,surface,-92.8129,30.7085,6.79e-05
2016-11-24 00:00:00,2016-11-24 00:00:00,PRATE,surface,-107.813,31.6534,2.5e-06
2016-11-24 00:00:00,2016-11-24 00:00:00,PRATE,surface,-106.875,31.6534,2e-06
2016-11-24 00:00:00,2016-11-24 00:00:00,PRATE,surface,-105.938,31.6534,3.4e-06
2016-11-24 00:00:00,2016-11-24 00:00:00,PRATE,surface,-105,31.6534,3.5e-06
2016-11-24 00:00:00,2016-11-24 00:00:00,PRATE,surface,-104.063,31.6534,3.9e-06
2016-11-24 00:00:00,2016-11-24 00:00:00,PRATE,surface,-103.125,31.6534,3.2e-06
2016-11-24 00:00:00,2016-11-24 00:00:00,PRATE,surface,-102.188,31.6534,5e-06
2016-11-24 00:00:00,2016-11-24 00:00:00,PRATE,surface,-101.25,31.6534,1.23e-05
2016-11-24 00:00:00,2016-11-24 00:00:00,PRATE,surface,-100.313,31.6534,2.55e-05
2016-11-24 00:00:00,2016-11-24 00:00:00,PRATE,surface,-99.3754,31.6534,3.79e-05
2016-11-24 00:00:00,2016-11-24 00:00:00,PRATE,surface,-98.4379,31.6534,4.15e-05
2016-11-24 00:00:00,2016-11-24 00:00:00,PRATE,surface,-97.5004,31.6534,4.12e-05
2016-11-24 00:00:00,2016-11-24 00:00:00,PRATE,surface,-96.5629,31.6534,4.43e-05
2016-11-24 00:00:00,2016-11-24 00:00:00,PRATE,surface,-95.6254,31.6534,5.06e-05
2016-11-24 00:00:00,2016-11-24 00:00:00,PRATE,surface,-94.6879,31.6534,6.7e-05
2016-11-24 00:00:00,2016-11-24 00:00:00,PRATE,surface,-93.7504,31.6534,9.58e-05
2016-11-24 00:00:00,2016-11-24 00:00:00,PRATE,surface,-92.8129,31.6534,9.26e-05
2016-11-24 00:00:00,2016-11-24 00:00:00,PRATE,surface,-107.813,32.5983,1.58e-05
2016-11-24 00:00:00,2016-11-24 00:00:00,PRATE,surface,-106.875,32.5983,1.32e-05
2016-11-24 00:00:00,2016-11-24 00:00:00,PRATE,surface,-105.938,32.5983,1.35e-05
2016-11-24 00:00:00,2016-11-24 00:00:00,PRATE,surface,-105,32.5983,1.18e-05
2016-11-24 00:00:00,2016-11-24 00:00:00,PRATE,surface,-104.063,32.5983,8.1e-06
2016-11-24 00:00:00,2016-11-24 00:00:00,PRATE,surface,-103.125,32.5983,9.1e-06
2016-11-24 00:00:00,2016-11-24 00:00:00,PRATE,surface,-102.188,32.5983,1.25e-05
2016-11-24 00:00:00,2016-11-24 00:00:00,PRATE,surface,-101.25,32.5983,1.93e-05
2016-11-24 00:00:00,2016-11-24 00:00:00,PRATE,surface,-100.313,32.5983,2.65e-05
2016-11-24 00:00:00,2016-11-24 00:00:00,PRATE,surface,-99.3754,32.5983,3.77e-05
2016-11-24 00:00:00,2016-11-24 00:00:00,PRATE,surface,-98.4379,32.5983,5.29e-05
2016-11-24 00:00:00,2016-11-24 00:00:00,PRATE,surface,-97.5004,32.5983,6.76e-05
2016-11-24 00:00:00,2016-11-24 00:00:00,PRATE,surface,-96.5629,32.5983,7.29e-05
2016-11-24 00:00:00,2016-11-24 00:00:00,PRATE,surface,-95.6254,32.5983,7.49e-05
2016-11-24 00:00:00,2016-11-24 00:00:00,PRATE,surface,-94.6879,32.5983,8.84e-05
2016-11-24 00:00:00,2016-11-24 00:00:00,PRATE,surface,-93.7504,32.5983,0.0001076
2016-11-24 00:00:00,2016-11-24 00:00:00,PRATE,surface,-92.8129,32.5983,0.0001122
2016-11-24 00:00:00,2016-11-24 00:00:00,PRATE,surface,-107.813,33.5432,3.25e-05
2016-11-24 00:00:00,2016-11-24 00:00:00,PRATE,surface,-106.875,33.5432,2.64e-05
2016-11-24 00:00:00,2016-11-24 00:00:00,PRATE,surface,-105.938,33.5432,1.83e-05
2016-11-24 00:00:00,2016-11-24 00:00:00,PRATE,surface,-105,33.5432,1.87e-05
2016-11-24 00:00:00,2016-11-24 00:00:00,PRATE,surface,-104.063,33.5432,1.99e-05
2016-11-24 00:00:00,2016-11-24 00:00:00,PRATE,surface,-103.125,33.5432,2.41e-05
2016-11-24 00:00:00,2016-11-24 00:00:00,PRATE,surface,-102.188,33.5432,3.05e-05
2016-11-24 00:00:00,2016-11-24 00:00:00,PRATE,surface,-101.25,33.5432,2.93e-05
2016-11-24 00:00:00,2016-11-24 00:00:00,PRATE,surface,-100.313,33.5432,2.91e-05
2016-11-24 00:00:00,2016-11-24 00:00:00,PRATE,surface,-99.3754,33.5432,3.53e-05
2016-11-24 00:00:00,2016-11-24 00:00:00,PRATE,surface,-98.4379,33.5432,4.71e-05
2016-11-24 00:00:00,2016-11-24 00:00:00,PRATE,surface,-97.5004,33.5432,6.2e-05
2016-11-24 00:00:00,2016-11-24 00:00:00,PRATE,surface,-96.5629,33.5432,8.83e-05
2016-11-24 00:00:00,2016-11-24 00:00:00,PRATE,surface,-95.6254,33.5432,0.0001134
2016-11-24 00:00:00,2016-11-24 00:00:00,PRATE,surface,-94.6879,33.5432,0.0001147
2016-11-24 00:00:00,2016-11-24 00:00:00,PRATE,surface,-93.7504,33.5432,0.0001163
2016-11-24 00:00:00,2016-11-24 00:00:00,PRATE,surface,-92.8129,33.5432,0.0001329
2016-11-24 00:00:00,2016-11-24 00:00:00,PRATE,surface,-107.813,34.4881,3.03e-05
2016-11-24 00:00:00,2016-11-24 00:00:00,PRATE,surface,-106.875,34.4881,2.45e-05
2016-11-24 00:00:00,2016-11-24 00:00:00,PRATE,surface,-105.938,34.4881,1.4e-05
2016-11-24 00:00:00,2016-11-24 00:00:00,PRATE,surface,-105,34.4881,1.33e-05
2016-11-24 00:00:00,2016-11-24 00:00:00,PRATE,surface,-104.063,34.4881,1.93e-05
2016-11-24 00:00:00,2016-11-24 00:00:00,PRATE,surface,-103.125,34.4881,2.03e-05
2016-11-24 00:00:00,2016-11-24 00:00:00,PRATE,surface,-102.188,34.4881,2.08e-05
2016-11-24 00:00:00,2016-11-24 00:00:00,PRATE,surface,-101.25,34.4881,1.81e-05
2016-11-24 00:00:00,2016-11-24 00:00:00,PRATE,surface,-100.313,34.4881,1.63e-05
2016-11-24 00:00:00,2016-11-24 00:00:00,PRATE,surface,-99.3754,34.4881,1.95e-05
2016-11-24 00:00:00,2016-11-24 00:00:00,PRATE,surface,-98.4379,34.4881,2.78e-05
2016-11-24 00:00:00,2016-11-24 00:00:00,PRATE,surface,-97.5004,34.4881,4.21e-05
2016-11-24 00:00:00,2016-11-24 00:00:00,PRATE,surface,-96.5629,34.4881,6.44e-05
2016-11-24 00:00:00,2016-11-24 00:00:00,PRATE,surface,-95.6254,34.4881,9.3e-05
2016-11-24 00:00:00,2016-11-24 00:00:00,PRATE,surface,-94.6879,34.4881,0.0001176
2016-11-24 00:00:00,2016-11-24 00:00:00,PRATE,surface,-93.7504,34.4881,0.0001342
2016-11-24 00:00:00,2016-11-24 00:00:00,PRATE,surface,-92.8129,34.4881,0.000158
2016-11-24 00:00:00,2016-11-24 00:00:00,PRATE,surface,-107.813,35.4329,1.86e-05
2016-11-24 00:00:00,2016-11-24 00:00:00,PRATE,surface,-106.875,35.4329,1.23e-05
2016-11-24 00:00:00,2016-11-24 00:00:00,PRATE,surface,-105.938,35.4329,6.5e-06
2016-11-24 00:00:00,2016-11-24 00:00:00,PRATE,surface,-105,35.4329,2.9e-06
2016-11-24 00:00:00,2016-11-24 00:00:00,PRATE,surface,-104.063,35.4329,3.9e-06
2016-11-24 00:00:00,2016-11-24 00:00:00,PRATE,surface,-103.125,35.4329,7.7e-06
2016-11-24 00:00:00,2016-11-24 00:00:00,PRATE,surface,-102.188,35.4329,7.7e-06
2016-11-24 00:00:00,2016-11-24 00:00:00,PRATE,surface,-101.25,35.4329,4.7e-06
2016-11-24 00:00:00,2016-11-24 00:00:00,PRATE,surface,-100.313,35.4329,5.2e-06
2016-11-24 00:00:00,2016-11-24 00:00:00,PRATE,surface,-99.3754,35.4329,9.2e-06
2016-11-24 00:00:00,2016-11-24 00:00:00,PRATE,surface,-98.4379,35.4329,1.4e-05
2016-11-24 00:00:00,2016-11-24 00:00:00,PRATE,surface,-97.5004,35.4329,2.08e-05
2016-11-24 00:00:00,2016-11-24 00:00:00,PRATE,surface,-96.5629,35.4329,3.29e-05
2016-11-24 00:00:00,2016-11-24 00:00:00,PRATE,surface,-95.6254,35.4329,5.26e-05
2016-11-24 00:00:00,2016-11-24 00:00:00,PRATE,surface,-94.6879,35.4329,7.83e-05
2016-11-24 00:00:00,2016-11-24 00:00:00,PRATE,surface,-93.7504,35.4329,0.0001073
2016-11-24 00:00:00,2016-11-24 00:00:00,PRATE,surface,-92.8129,35.4329,0.0001455
2016-11-24 00:00:00,2016-11-24 00:00:00,PRATE,surface,-107.813,36.3778,2.89e-05
2016-11-24 00:00:00,2016-11-24 00:00:00,PRATE,surface,-106.875,36.3778,2.17e-05
2016-11-24 00:00:00,2016-11-24 00:00:00,PRATE,surface,-105.938,36.3778,1.03e-05
2016-11-24 00:00:00,2016-11-24 00:00:00,PRATE,surface,-105,36.3778,2.4e-06
2016-11-24 00:00:00,2016-11-24 00:00:00,PRATE,surface,-104.063,36.3778,5.8e-06
2016-11-24 00:00:00,2016-11-24 00:00:00,PRATE,surface,-103.125,36.3778,6.6e-06
2016-11-24 00:00:00,2016-11-24 00:00:00,PRATE,surface,-102.188,36.3778,2.7e-06
2016-11-24 00:00:00,2016-11-24 00:00:00,PRATE,surface,-101.25,36.3778,2.7e-06
2016-11-24 00:00:00,2016-11-24 00:00:00,PRATE,surface,-100.313,36.3778,4.3e-06
2016-11-24 00:00:00,2016-11-24 00:00:00,PRATE,surface,-99.3754,36.3778,7.8e-06
2016-11-24 00:00:00,2016-11-24 00:00:00,PRATE,surface,-98.4379,36.3778,8.4e-06
2016-11-24 00:00:00,2016-11-24 00:00:00,PRATE,surface,-97.5004,36.3778,1.1e-05
2016-11-24 00:00:00,2016-11-24 00:00:00,PRATE,surface,-96.5629,36.3778,1.52e-05
2016-11-24 00:00:00,2016-11-24 00:00:00,PRATE,surface,-95.6254,36.3778,2.35e-05
2016-11-24 00:00:00,2016-11-24 00:00:00,PRATE,surface,-94.6879,36.3778,4.31e-05
2016-11-24 00:00:00,2016-11-24 00:00:00,PRATE,surface,-93.7504,36.3778,6.96e-05
2016-11-24 00:00:00,2016-11-24 00:00:00,PRATE,surface,-92.8129,36.3778,0.000107
