2015-03-24 00:00:00,2015-03-24 00:00:00,TMP,surface,-107.813,25.0393,299.564
2015-03-24 00:00:00,2015-03-24 00:00:00,TMP,surface,-106.875,25.0393,294.502
2015-03-24 00:00:00,2015-03-24 00:00:00,TMP,surface,-105.938,25.0393,289.857
2015-03-24 00:00:00,2015-03-24 00:00:00,TMP,surface,-105,25.0393,290.095
2015-03-24 00:00:00,2015-03-24 00:00:00,TMP,surface,-104.063,25.0393,294.756
2015-03-24 00:00:00,2015-03-24 00:00:00,TMP,surface,-103.125,25.0393,297.155
2015-03-24 00:00:00,2015-03-24 00:00:00,TMP,surface,-102.188,25.0393,295.959
2015-03-24 00:00:00,2015-03-24 00:00:00,TMP,surface,-101.25,25.0393,292.814
2015-03-24 00:00:00,2015-03-24 00:00:00,TMP,surface,-100.313,25.0393,292.542
2015-03-24 00:00:00,2015-03-24 00:00:00,TMP,surface,-99.3754,25.0393,295.353
2015-03-24 00:00:00,2015-03-24 00:00:00,TMP,surface,-98.4379,25.0393,298.483
2015-03-24 00:00:00,2015-03-24 00:00:00,TMP,surface,-97.5004,25.0393,299.375
2015-03-24 00:00:00,2015-03-24 00:00:00,TMP,surface,-96.5629,25.0393,299.427
2015-03-24 00:00:00,2015-03-24 00:00:00,TMP,surface,-95.6254,25.0393,299.548
2015-03-24 00:00:00,2015-03-24 00:00:00,TMP,surface,-94.6879,25.0393,299.572
2015-03-24 00:00:00,2015-03-24 00:00:00,TMP,surface,-93.7504,25.0393,299.468
2015-03-24 00:00:00,2015-03-24 00:00:00,TMP,surface,-92.8129,25.0393,299.607
2015-03-24 00:00:00,2015-03-24 00:00:00,TMP,surface,-107.813,25.9842,296.539
2015-03-24 00:00:00,2015-03-24 00:00:00,TMP,surface,-106.875,25.9842,290.851
2015-03-24 00:00:00,2015-03-24 00:00:00,TMP,surface,-105.938,25.9842,289.161
2015-03-24 00:00:00,2015-03-24 00:00:00,TMP,surface,-105,25.9842,292.257
2015-03-24 00:00:00,2015-03-24 00:00:00,TMP,surface,-104.063,25.9842,296.75
2015-03-24 00:00:00,2015-03-24 00:00:00,TMP,surface,-103.125,25.9842,298.667
2015-03-24 00:00:00,2015-03-24 00:00:00,TMP,surface,-102.188,25.9842,297.135
2015-03-24 00:00:00,2015-03-24 00:00:00,TMP,surface,-101.25,25.9842,294.855
2015-03-24 00:00:00,2015-03-24 00:00:00,TMP,surface,-100.313,25.9842,294.454
2015-03-24 00:00:00,2015-03-24 00:00:00,TMP,surface,-99.3754,25.9842,297.027
2015-03-24 00:00:00,2015-03-24 00:00:00,TMP,surface,-98.4379,25.9842,298.558
2015-03-24 00:00:00,2015-03-24 00:00:00,TMP,surface,-97.5004,25.9842,298.267
2015-03-24 00:00:00,2015-03-24 00:00:00,TMP,surface,-96.5629,25.9842,298.19
2015-03-24 00:00:00,2015-03-24 00:00:00,TMP,surface,-95.6254,25.9842,298.852
2015-03-24 00:00:00,2015-03-24 00:00:00,TMP,surface,-94.6879,25.9842,298.935
2015-03-24 00:00:00,2015-03-24 00:00:00,TMP,surface,-93.7504,25.9842,298.857
2015-03-24 00:00:00,2015-03-24 00:00:00,TMP,surface,-92.8129,25.9842,299.14
2015-03-24 00:00:00,2015-03-24 00:00:00,TMP,surface,-107.813,26.929,291.937
2015-03-24 00:00:00,2015-03-24 00:00:00,TMP,surface,-106.875,26.929,289.284
2015-03-24 00:00:00,2015-03-24 00:00:00,TMP,surface,-105.938,26.929,291.521
2015-03-24 00:00:00,2015-03-24 00:00:00,TMP,surface,-105,26.929,294.795
2015-03-24 00:00:00,2015-03-24 00:00:00,TMP,surface,-104.063,26.929,297.139
2015-03-24 00:00:00,2015-03-24 00:00:00,TMP,surface,-103.125,26.929,296.321
2015-03-24 00:00:00,2015-03-24 00:00:00,TMP,surface,-102.188,26.929,295.251
2015-03-24 00:00:00,2015-03-24 00:00:00,TMP,surface,-101.25,26.929,295.196
2015-03-24 00:00:00,2015-03-24 00:00:00,TMP,surface,-100.313,26.929,296.267
2015-03-24 00:00:00,2015-03-24 00:00:00,TMP,surface,-99.3754,26.929,297.478
2015-03-24 00:00:00,2015-03-24 00:00:00,TMP,surface,-98.4379,26.929,297.255
2015-03-24 00:00:00,2015-03-24 00:00:00,TMP,surface,-97.5004,26.929,296.235
2015-03-24 00:00:00,2015-03-24 00:00:00,TMP,surface,-96.5629,26.929,296.454
2015-03-24 00:00:00,2015-03-24 00:00:00,TMP,surface,-95.6254,26.929,297.703
2015-03-24 00:00:00,2015-03-24 00:00:00,TMP,surface,-94.6879,26.929,298.323
2015-03-24 00:00:00,2015-03-24 00:00:00,TMP,surface,-93.7504,26.929,298.342
2015-03-24 00:00:00,2015-03-24 00:00:00,TMP,surface,-92.8129,26.929,298.532
2015-03-24 00:00:00,2015-03-24 00:00:00,TMP,surface,-107.813,27.8739,289.695
2015-03-24 00:00:00,2015-03-24 00:00:00,TMP,surface,-106.875,27.8739,289.705
2015-03-24 00:00:00,2015-03-24 00:00:00,TMP,surface,-105.938,27.8739,293.454
2015-03-24 00:00:00,2015-03-24 00:00:00,TMP,surface,-105,27.8739,296.691
2015-03-24 00:00:00,2015-03-24 00:00:00,TMP,surface,-104.063,27.8739,296.767
2015-03-24 00:00:00,2015-03-24 00:00:00,TMP,surface,-103.125,27.8739,294.719
2015-03-24 00:00:00,2015-03-24 00:00:00,TMP,surface,-102.188,27.8739,293.703
2015-03-24 00:00:00,2015-03-24 00:00:00,TMP,surface,-101.25,27.8739,294.641
2015-03-24 00:00:00,2015-03-24 00:00:00,TMP,surface,-100.313,27.8739,296.233
2015-03-24 00:00:00,2015-03-24 00:00:00,TMP,surface,-99.3754,27.8739,296.279
2015-03-24 00:00:00,2015-03-24 00:00:00,TMP,surface,-98.4379,27.8739,295.399
2015-03-24 00:00:00,2015-03-24 00:00:00,TMP,surface,-97.5004,27.8739,295.622
2015-03-24 00:00:00,2015-03-24 00:00:00,TMP,surface,-96.5629,27.8739,296.601
2015-03-24 00:00:00,2015-03-24 00:00:00,TMP,surface,-95.6254,27.8739,297.222
2015-03-24 00:00:00,2015-03-24 00:00:00,TMP,surface,-94.6879,27.8739,297.609
2015-03-24 00:00:00,2015-03-24 00:00:00,TMP,surface,-93.7504,27.8739,297.689
2015-03-24 00:00:00,2015-03-24 00:00:00,TMP,surface,-92.8129,27.8739,297.844
2015-03-24 00:00:00,2015-03-24 00:00:00,TMP,surface,-107.813,28.8188,289.329
2015-03-24 00:00:00,2015-03-24 00:00:00,TMP,surface,-106.875,28.8188,290.873
2015-03-24 00:00:00,2015-03-24 00:00:00,TMP,surface,-105.938,28.8188,294.262
2015-03-24 00:00:00,2015-03-24 00:00:00,TMP,surface,-105,28.8188,297.062
2015-03-24 00:00:00,2015-03-24 00:00:00,TMP,surface,-104.063,28.8188,295.534
2015-03-24 00:00:00,2015-03-24 00:00:00,TMP,surface,-103.125,28.8188,293.438
2015-03-24 00:00:00,2015-03-24 00:00:00,TMP,surface,-102.188,28.8188,292.9
2015-03-24 00:00:00,2015-03-24 00:00:00,TMP,surface,-101.25,28.8188,294.142
2015-03-24 00:00:00,2015-03-24 00:00:00,TMP,surface,-100.313,28.8188,294.588
2015-03-24 00:00:00,2015-03-24 00:00:00,TMP,surface,-99.3754,28.8188,294.111
2015-03-24 00:00:00,2015-03-24 00:00:00,TMP,surface,-98.4379,28.8188,293.831
2015-03-24 00:00:00,2015-03-24 00:00:00,TMP,surface,-97.5004,28.8188,294.119
2015-03-24 00:00:00,2015-03-24 00:00:00,TMP,surface,-96.5629,28.8188,294.727
2015-03-24 00:00:00,2015-03-24 00:00:00,TMP,surface,-95.6254,28.8188,295.401
2015-03-24 00:00:00,2015-03-24 00:00:00,TMP,surface,-94.6879,28.8188,295.875
2015-03-24 00:00:00,2015-03-24 00:00:00,TMP,surface,-93.7504,28.8188,295.967
2015-03-24 00:00:00,2015-03-24 00:00:00,TMP,surface,-92.8129,28.8188,295.915
2015-03-24 00:00:00,2015-03-24 00:00:00,TMP,surface,-107.813,29.7637,291.18
2015-03-24 00:00:00,2015-03-24 00:00:00,TMP,surface,-106.875,29.7637,292.708
2015-03-24 00:00:00,2015-03-24 00:00:00,TMP,surface,-105.938,29.7637,295.238
2015-03-24 00:00:00,2015-03-24 00:00:00,TMP,surface,-105,29.7637,295.214
2015-03-24 00:00:00,2015-03-24 00:00:00,TMP,surface,-104.063,29.7637,294.46
2015-03-24 00:00:00,2015-03-24 00:00:00,TMP,surface,-103.125,29.7637,293.74
2015-03-24 00:00:00,2015-03-24 00:00:00,TMP,surface,-102.188,29.7637,293.975
2015-03-24 00:00:00,2015-03-24 00:00:00,TMP,surface,-101.25,29.7637,293.915
2015-03-24 00:00:00,2015-03-24 00:00:00,TMP,surface,-100.313,29.7637,293.119
2015-03-24 00:00:00,2015-03-24 00:00:00,TMP,surface,-99.3754,29.7637,292.367
2015-03-24 00:00:00,2015-03-24 00:00:00,TMP,surface,-98.4379,29.7637,292.372
2015-03-24 00:00:00,2015-03-24 00:00:00,TMP,surface,-97.5004,29.7637,293.011
2015-03-24 00:00:00,2015-03-24 00:00:00,TMP,surface,-96.5629,29.7637,293.711
2015-03-24 00:00:00,2015-03-24 00:00:00,TMP,surface,-95.6254,29.7637,294.204
2015-03-24 00:00:00,2015-03-24 00:00:00,TMP,surface,-94.6879,29.7637,294.377
2015-03-24 00:00:00,2015-03-24 00:00:00,TMP,surface,-93.7504,29.7637,294.556
2015-03-24 00:00:00,2015-03-24 00:00:00,TMP,surface,-92.8129,29.7637,295.719
2015-03-24 00:00:00,2015-03-24 00:00:00,TMP,surface,-107.813,30.7085,294.102
2015-03-24 00:00:00,2015-03-24 00:00:00,TMP,surface,-106.875,30.7085,295.313
2015-03-24 00:00:00,2015-03-24 00:00:00,TMP,surface,-105.938,30.7085,295.204
2015-03-24 00:00:00,2015-03-24 00:00:00,TMP,surface,-105,30.7085,293.883
2015-03-24 00:00:00,2015-03-24 00:00:00,TMP,surface,-104.063,30.7085,293.055
2015-03-24 00:00:00,2015-03-24 00:00:00,TMP,surface,-103.125,30.7085,293.543
2015-03-24 00:00:00,2015-03-24 00:00:00,TMP,surface,-102.188,30.7085,293.751
2015-03-24 00:00:00,2015-03-24 00:00:00,TMP,surface,-101.25,30.7085,293.169
2015-03-24 00:00:00,2015-03-24 00:00:00,TMP,surface,-100.313,30.7085,292.247
2015-03-24 00:00:00,2015-03-24 00:00:00,TMP,surface,-99.3754,30.7085,291.611
2015-03-24 00:00:00,2015-03-24 00:00:00,TMP,surface,-98.4379,30.7085,291.772
2015-03-24 00:00:00,2015-03-24 00:00:00,TMP,surface,-97.5004,30.7085,292.383
2015-03-24 00:00:00,2015-03-24 00:00:00,TMP,surface,-96.5629,30.7085,293.361
2015-03-24 00:00:00,2015-03-24 00:00:00,TMP,surface,-95.6254,30.7085,294.254
2015-03-24 00:00:00,2015-03-24 00:00:00,TMP,surface,-94.6879,30.7085,294.39
2015-03-24 00:00:00,2015-03-24 00:00:00,TMP,surface,-93.7504,30.7085,294.476
2015-03-24 00:00:00,2015-03-24 00:00:00,TMP,surface,-92.8129,30.7085,294.471
2015-03-24 00:00:00,2015-03-24 00:00:00,TMP,surface,-107.813,31.6534,294.796
2015-03-24 00:00:00,2015-03-24 00:00:00,TMP,surface,-106.875,31.6534,295.326
2015-03-24 00:00:00,2015-03-24 00:00:00,TMP,surface,-105.938,31.6534,293.963
2015-03-24 00:00:00,2015-03-24 00:00:00,TMP,surface,-105,31.6534,292.567
2015-03-24 00:00:00,2015-03-24 00:00:00,TMP,surface,-104.063,31.6534,292.473
2015-03-24 00:00:00,2015-03-24 00:00:00,TMP,surface,-103.125,31.6534,292.716
2015-03-24 00:00:00,2015-03-24 00:00:00,TMP,surface,-102.188,31.6534,292.793
2015-03-24 00:00:00,2015-03-24 00:00:00,TMP,surface,-101.25,31.6534,292.375
2015-03-24 00:00:00,2015-03-24 00:00:00,TMP,surface,-100.313,31.6534,291.86
2015-03-24 00:00:00,2015-03-24 00:00:00,TMP,surface,-99.3754,31.6534,291.495
2015-03-24 00:00:00,2015-03-24 00:00:00,TMP,surface,-98.4379,31.6534,291.524
2015-03-24 00:00:00,2015-03-24 00:00:00,TMP,surface,-97.5004,31.6534,291.897
2015-03-24 00:00:00,2015-03-24 00:00:00,TMP,surface,-96.5629,31.6534,292.843
2015-03-24 00:00:00,2015-03-24 00:00:00,TMP,surface,-95.6254,31.6534,293.825
2015-03-24 00:00:00,2015-03-24 00:00:00,TMP,surface,-94.6879,31.6534,293.958
2015-03-24 00:00:00,2015-03-24 00:00:00,TMP,surface,-93.7504,31.6534,293.903
2015-03-24 00:00:00,2015-03-24 00:00:00,TMP,surface,-92.8129,31.6534,293.971
2015-03-24 00:00:00,2015-03-24 00:00:00,TMP,surface,-107.813,32.5983,291.34
2015-03-24 00:00:00,2015-03-24 00:00:00,TMP,surface,-106.875,32.5983,291.747
2015-03-24 00:00:00,2015-03-24 00:00:00,TMP,surface,-105.938,32.5983,291.847
2015-03-24 00:00:00,2015-03-24 00:00:00,TMP,surface,-105,32.5983,291.308
2015-03-24 00:00:00,2015-03-24 00:00:00,TMP,surface,-104.063,32.5983,291.91
2015-03-24 00:00:00,2015-03-24 00:00:00,TMP,surface,-103.125,32.5983,292.255
2015-03-24 00:00:00,2015-03-24 00:00:00,TMP,surface,-102.188,32.5983,291.799
2015-03-24 00:00:00,2015-03-24 00:00:00,TMP,surface,-101.25,32.5983,291.638
2015-03-24 00:00:00,2015-03-24 00:00:00,TMP,surface,-100.313,32.5983,291.879
2015-03-24 00:00:00,2015-03-24 00:00:00,TMP,surface,-99.3754,32.5983,291.827
2015-03-24 00:00:00,2015-03-24 00:00:00,TMP,surface,-98.4379,32.5983,291.588
2015-03-24 00:00:00,2015-03-24 00:00:00,TMP,surface,-97.5004,32.5983,291.585
2015-03-24 00:00:00,2015-03-24 00:00:00,TMP,surface,-96.5629,32.5983,292.183
2015-03-24 00:00:00,2015-03-24 00:00:00,TMP,surface,-95.6254,32.5983,293.001
2015-03-24 00:00:00,2015-03-24 00:00:00,TMP,surface,-94.6879,32.5983,293.257
2015-03-24 00:00:00,2015-03-24 00:00:00,TMP,surface,-93.7504,32.5983,293.215
2015-03-24 00:00:00,2015-03-24 00:00:00,TMP,surface,-92.8129,32.5983,293.414
2015-03-24 00:00:00,2015-03-24 00:00:00,TMP,surface,-107.813,33.5432,286.843
2015-03-24 00:00:00,2015-03-24 00:00:00,TMP,surface,-106.875,33.5432,288.139
2015-03-24 00:00:00,2015-03-24 00:00:00,TMP,surface,-105.938,33.5432,289.177
2015-03-24 00:00:00,2015-03-24 00:00:00,TMP,surface,-105,33.5432,289.985
2015-03-24 00:00:00,2015-03-24 00:00:00,TMP,surface,-104.063,33.5432,291.255
2015-03-24 00:00:00,2015-03-24 00:00:00,TMP,surface,-103.125,33.5432,291.127
2015-03-24 00:00:00,2015-03-24 00:00:00,TMP,surface,-102.188,33.5432,290.686
2015-03-24 00:00:00,2015-03-24 00:00:00,TMP,surface,-101.25,33.5432,290.591
2015-03-24 00:00:00,2015-03-24 00:00:00,TMP,surface,-100.313,33.5432,291.299
2015-03-24 00:00:00,2015-03-24 00:00:00,TMP,surface,-99.3754,33.5432,291.622
2015-03-24 00:00:00,2015-03-24 00:00:00,TMP,surface,-98.4379,33.5432,291.289
2015-03-24 00:00:00,2015-03-24 00:00:00,TMP,surface,-97.5004,33.5432,290.996
2015-03-24 00:00:00,2015-03-24 00:00:00,TMP,surface,-96.5629,33.5432,291.108
2015-03-24 00:00:00,2015-03-24 00:00:00,TMP,surface,-95.6254,33.5432,291.663
2015-03-24 00:00:00,2015-03-24 00:00:00,TMP,surface,-94.6879,33.5432,292.259
2015-03-24 00:00:00,2015-03-24 00:00:00,TMP,surface,-93.7504,33.5432,292.212
2015-03-24 00:00:00,2015-03-24 00:00:00,TMP,surface,-92.8129,33.5432,292.23
2015-03-24 00:00:00,2015-03-24 00:00:00,TMP,surface,-107.813,34.4881,285.364
2015-03-24 00:00:00,2015-03-24 00:00:00,TMP,surface,-106.875,34.4881,286.852
2015-03-24 00:00:00,2015-03-24 00:00:00,TMP,surface,-105.938,34.4881,288.079
2015-03-24 00:00:00,2015-03-24 00:00:00,TMP,surface,-105,34.4881,289.447
2015-03-24 00:00:00,2015-03-24 00:00:00,TMP,surface,-104.063,34.4881,290.067
2015-03-24 00:00:00,2015-03-24 00:00:00,TMP,surface,-103.125,34.4881,290.019
2015-03-24 00:00:00,2015-03-24 00:00:00,TMP,surface,-102.188,34.4881,289.82
2015-03-24 00:00:00,2015-03-24 00:00:00,TMP,surface,-101.25,34.4881,289.961
2015-03-24 00:00:00,2015-03-24 00:00:00,TMP,surface,-100.313,34.4881,290.377
2015-03-24 00:00:00,2015-03-24 00:00:00,TMP,surface,-99.3754,34.4881,290.675
2015-03-24 00:00:00,2015-03-24 00:00:00,TMP,surface,-98.4379,34.4881,290.396
2015-03-24 00:00:00,2015-03-24 00:00:00,TMP,surface,-97.5004,34.4881,290.099
2015-03-24 00:00:00,2015-03-24 00:00:00,TMP,surface,-96.5629,34.4881,290.561
2015-03-24 00:00:00,2015-03-24 00:00:00,TMP,surface,-95.6254,34.4881,291.292
2015-03-24 00:00:00,2015-03-24 00:00:00,TMP,surface,-94.6879,34.4881,291.403
2015-03-24 00:00:00,2015-03-24 00:00:00,TMP,surface,-93.7504,34.4881,291.219
2015-03-24 00:00:00,2015-03-24 00:00:00,TMP,surface,-92.8129,34.4881,291.294
2015-03-24 00:00:00,2015-03-24 00:00:00,TMP,surface,-107.813,35.4329,285.911
2015-03-24 00:00:00,2015-03-24 00:00:00,TMP,surface,-106.875,35.4329,286.094
2015-03-24 00:00:00,2015-03-24 00:00:00,TMP,surface,-105.938,35.4329,286.241
2015-03-24 00:00:00,2015-03-24 00:00:00,TMP,surface,-105,35.4329,286.665
2015-03-24 00:00:00,2015-03-24 00:00:00,TMP,surface,-104.063,35.4329,288.369
2015-03-24 00:00:00,2015-03-24 00:00:00,TMP,surface,-103.125,35.4329,289.182
2015-03-24 00:00:00,2015-03-24 00:00:00,TMP,surface,-102.188,35.4329,289.311
2015-03-24 00:00:00,2015-03-24 00:00:00,TMP,surface,-101.25,35.4329,289.284
2015-03-24 00:00:00,2015-03-24 00:00:00,TMP,surface,-100.313,35.4329,289.228
2015-03-24 00:00:00,2015-03-24 00:00:00,TMP,surface,-99.3754,35.4329,289.358
2015-03-24 00:00:00,2015-03-24 00:00:00,TMP,surface,-98.4379,35.4329,289.39
2015-03-24 00:00:00,2015-03-24 00:00:00,TMP,surface,-97.5004,35.4329,289.439
2015-03-24 00:00:00,2015-03-24 00:00:00,TMP,surface,-96.5629,35.4329,289.668
2015-03-24 00:00:00,2015-03-24 00:00:00,TMP,surface,-95.6254,35.4329,290.199
2015-03-24 00:00:00,2015-03-24 00:00:00,TMP,surface,-94.6879,35.4329,290.718
2015-03-24 00:00:00,2015-03-24 00:00:00,TMP,surface,-93.7504,35.4329,290.436
2015-03-24 00:00:00,2015-03-24 00:00:00,TMP,surface,-92.8129,35.4329,290.121
2015-03-24 00:00:00,2015-03-24 00:00:00,TMP,surface,-107.813,36.3778,285.478
2015-03-24 00:00:00,2015-03-24 00:00:00,TMP,surface,-106.875,36.3778,283.089
2015-03-24 00:00:00,2015-03-24 00:00:00,TMP,surface,-105.938,36.3778,283.305
2015-03-24 00:00:00,2015-03-24 00:00:00,TMP,surface,-105,36.3778,284.167
2015-03-24 00:00:00,2015-03-24 00:00:00,TMP,surface,-104.063,36.3778,286.158
2015-03-24 00:00:00,2015-03-24 00:00:00,TMP,surface,-103.125,36.3778,287.182
2015-03-24 00:00:00,2015-03-24 00:00:00,TMP,surface,-102.188,36.3778,287.868
2015-03-24 00:00:00,2015-03-24 00:00:00,TMP,surface,-101.25,36.3778,288.231
2015-03-24 00:00:00,2015-03-24 00:00:00,TMP,surface,-100.313,36.3778,288.51
2015-03-24 00:00:00,2015-03-24 00:00:00,TMP,surface,-99.3754,36.3778,288.671
2015-03-24 00:00:00,2015-03-24 00:00:00,TMP,surface,-98.4379,36.3778,288.687
2015-03-24 00:00:00,2015-03-24 00:00:00,TMP,surface,-97.5004,36.3778,288.82
2015-03-24 00:00:00,2015-03-24 00:00:00,TMP,surface,-96.5629,36.3778,289.14
2015-03-24 00:00:00,2015-03-24 00:00:00,TMP,surface,-95.6254,36.3778,289.628
2015-03-24 00:00:00,2015-03-24 00:00:00,TMP,surface,-94.6879,36.3778,289.958
2015-03-24 00:00:00,2015-03-24 00:00:00,TMP,surface,-93.7504,36.3778,289.534
2015-03-24 00:00:00,2015-03-24 00:00:00,TMP,surface,-92.8129,36.3778,289.121
2015-03-24 00:00:00,2015-03-24 00:00:00,PRATE,surface,-107.813,25.0393,0
2015-03-24 00:00:00,2015-03-24 00:00:00,PRATE,surface,-106.875,25.0393,8e-07
2015-03-24 00:00:00,2015-03-24 00:00:00,PRATE,surface,-105.938,25.0393,9.2e-06
2015-03-24 00:00:00,2015-03-24 00:00:00,PRATE,surface,-105,25.0393,1.27e-05
2015-03-24 00:00:00,2015-03-24 00:00:00,PRATE,surface,-104.063,25.0393,1.37e-05
2015-03-24 00:00:00,2015-03-24 00:00:00,PRATE,surface,-103.125,25.0393,6.7e-06
2015-03-24 00:00:00,2015-03-24 00:00:00,PRATE,surface,-102.188,25.0393,1.58e-05
2015-03-24 00:00:00,2015-03-24 00:00:00,PRATE,surface,-101.25,25.0393,6.4e-05
2015-03-24 00:00:00,2015-03-24 00:00:00,PRATE,surface,-100.313,25.0393,0.000113
2015-03-24 00:00:00,2015-03-24 00:00:00,PRATE,surface,-99.3754,25.0393,7.32e-05
2015-03-24 00:00:00,2015-03-24 00:00:00,PRATE,surface,-98.4379,25.0393,2.93e-05
2015-03-24 00:00:00,2015-03-24 00:00:00,PRATE,surface,-97.5004,25.0393,1.56e-05
2015-03-24 00:00:00,2015-03-24 00:00:00,PRATE,surface,-96.5629,25.0393,3.3e-06
2015-03-24 00:00:00,2015-03-24 00:00:00,PRATE,surface,-95.6254,25.0393,2.2e-06
2015-03-24 00:00:00,2015-03-24 00:00:00,PRATE,surface,-94.6879,25.0393,2.4e-06
2015-03-24 00:00:00,2015-03-24 00:00:00,PRATE,surface,-93.7504,25.0393,3.8e-06
2015-03-24 00:00:00,2015-03-24 00:00:00,PRATE,surface,-92.8129,25.0393,4.6e-06
2015-03-24 00:00:00,2015-03-24 00:00:00,PRATE,surface,-107.813,25.9842,0
2015-03-24 00:00:00,2015-03-24 00:00:00,PRATE,surface,-106.875,25.9842,4.5e-06
2015-03-24 00:00:00,2015-03-24 00:00:00,PRATE,surface,-105.938,25.9842,9.2e-06
2015-03-24 00:00:00,2015-03-24 00:00:00,PRATE,surface,-105,25.9842,1.73e-05
2015-03-24 00:00:00,2015-03-24 00:00:00,PRATE,surface,-104.063,25.9842,1.56e-05
2015-03-24 00:00:00,2015-03-24 00:00:00,PRATE,surface,-103.125,25.9842,5.3e-06
2015-03-24 00:00:00,2015-03-24 00:00:00,PRATE,surface,-102.188,25.9842,9.6e-06
2015-03-24 00:00:00,2015-03-24 00:00:00,PRATE,surface,-101.25,25.9842,4.14e-05
2015-03-24 00:00:00,2015-03-24 00:00:00,PRATE,surface,-100.313,25.9842,8.22e-05
2015-03-24 00:00:00,2015-03-24 00:00:00,PRATE,surface,-99.3754,25.9842,5.06e-05
2015-03-24 00:00:00,2015-03-24 00:00:00,PRATE,surface,-98.4379,25.9842,2.84e-05
2015-03-24 00:00:00,2015-03-24 00:00:00,PRATE,surface,-97.5004,25.9842,3.28e-05
2015-03-24 00:00:00,2015-03-24 00:00:00,PRATE,surface,-96.5629,25.9842,1.1e-05
2015-03-24 00:00:00,2015-03-24 00:00:00,PRATE,surface,-95.6254,25.9842,5.3e-06
2015-03-24 00:00:00,2015-03-24 00:00:00,PRATE,surface,-94.6879,25.9842,3.3e-06
2015-03-24 00:00:00,2015-03-24 00:00:00,PRATE,surface,-93.7504,25.9842,2.1e-06
2015-03-24 00:00:00,2015-03-24 00:00:00,PRATE,surface,-92.8129,25.9842,8.6e-06
2015-03-24 00:00:00,2015-03-24 00:00:00,PRATE,surface,-107.813,26.929,7e-07
2015-03-24 00:00:00,2015-03-24 00:00:00,PRATE,surface,-106.875,26.929,2.9e-06
2015-03-24 00:00:00,2015-03-24 00:00:00,PRATE,surface,-105.938,26.929,6.9e-06
2015-03-24 00:00:00,2015-03-24 00:00:00,PRATE,surface,-105,26.929,2.16e-05
2015-03-24 00:00:00,2015-03-24 00:00:00,PRATE,surface,-104.063,26.929,1.45e-05
2015-03-24 00:00:00,2015-03-24 00:00:00,PRATE,surface,-103.125,26.929,3.02e-05
2015-03-24 00:00:00,2015-03-24 00:00:00,PRATE,surface,-102.188,26.929,4.1e-05
2015-03-24 00:00:00,2015-03-24 00:00:00,PRATE,surface,-101.25,26.929,6.89e-05
2015-03-24 00:00:00,2015-03-24 00:00:00,PRATE,surface,-100.313,26.929,4.79e-05
2015-03-24 00:00:00,2015-03-24 00:00:00,PRATE,surface,-99.3754,26.929,5.22e-05
2015-03-24 00:00:00,2015-03-24 00:00:00,PRATE,surface,-98.4379,26.929,4.45e-05
2015-03-24 00:00:00,2015-03-24 00:00:00,PRATE,surface,-97.5004,26.929,2.58e-05
2015-03-24 00:00:00,2015-03-24 00:00:00,PRATE,surface,-96.5629,26.929,1.25e-05
2015-03-24 00:00:00,2015-03-24 00:00:00,PRATE,surface,-95.6254,26.929,8.8e-06
2015-03-24 00:00:00,2015-03-24 00:00:00,PRATE,surface,-94.6879,26.929,1.47e-05
2015-03-24 00:00:00,2015-03-24 00:00:00,PRATE,surface,-93.7504,26.929,9.3e-06
2015-03-24 00:00:00,2015-03-24 00:00:00,PRATE,surface,-92.8129,26.929,5.3e-06
2015-03-24 00:00:00,2015-03-24 00:00:00,PRATE,surface,-107.813,27.8739,3.9e-06
2015-03-24 00:00:00,2015-03-24 00:00:00,PRATE,surface,-106.875,27.8739,5.7e-06
2015-03-24 00:00:00,2015-03-24 00:00:00,PRATE,surface,-105.938,27.8739,1.05e-05
2015-03-24 00:00:00,2015-03-24 00:00:00,PRATE,surface,-105,27.8739,8.8e-06
2015-03-24 00:00:00,2015-03-24 00:00:00,PRATE,surface,-104.063,27.8739,2.09e-05
2015-03-24 00:00:00,2015-03-24 00:00:00,PRATE,surface,-103.125,27.8739,4.82e-05
2015-03-24 00:00:00,2015-03-24 00:00:00,PRATE,surface,-102.188,27.8739,8.53e-05
2015-03-24 00:00:00,2015-03-24 00:00:00,PRATE,surface,-101.25,27.8739,6.28e-05
2015-03-24 00:00:00,2015-03-24 00:00:00,PRATE,surface,-100.313,27.8739,3.4e-05
2015-03-24 00:00:00,2015-03-24 00:00:00,PRATE,surface,-99.3754,27.8739,5.24e-05
2015-03-24 00:00:00,2015-03-24 00:00:00,PRATE,surface,-98.4379,27.8739,6.71e-05
2015-03-24 00:00:00,2015-03-24 00:00:00,PRATE,surface,-97.5004,27.8739,4.95e-05
2015-03-24 00:00:00,2015-03-24 00:00:00,PRATE,surface,-96.5629,27.8739,2.48e-05
2015-03-24 00:00:00,2015-03-24 00:00:00,PRATE,surface,-95.6254,27.8739,1.42e-05
2015-03-24 00:00:00,2015-03-24 00:00:00,PRATE,surface,-94.6879,27.8739,1.93e-05
2015-03-24 00:00:00,2015-03-24 00:00:00,PRATE,surface,-93.7504,27.8739,2.75e-05
2015-03-24 00:00:00,2015-03-24 00:00:00,PRATE,surface,-92.8129,27.8739,1.9e-05
2015-03-24 00:00:00,2015-03-24 00:00:00,PRATE,surface,-107.813,28.8188,6.8e-06
2015-03-24 00:00:00,2015-03-24 00:00:00,PRATE,surface,-106.875,28.8188,1.02e-05
2015-03-24 00:00:00,2015-03-24 00:00:00,PRATE,surface,-105.938,28.8188,1.58e-05
2015-03-24 00:00:00,2015-03-24 00:00:00,PRATE,surface,-105,28.8188,9.9e-06
2015-03-24 00:00:00,2015-03-24 00:00:00,PRATE,surface,-104.063,28.8188,1.89e-05
2015-03-24 00:00:00,2015-03-24 00:00:00,PRATE,surface,-103.125,28.8188,4.89e-05
2015-03-24 00:00:00,2015-03-24 00:00:00,PRATE,surface,-102.188,28.8188,5.95e-05
2015-03-24 00:00:00,2015-03-24 00:00:00,PRATE,surface,-101.25,28.8188,5.09e-05
2015-03-24 00:00:00,2015-03-24 00:00:00,PRATE,surface,-100.313,28.8188,4.86e-05
2015-03-24 00:00:00,2015-03-24 00:00:00,PRATE,surface,-99.3754,28.8188,6.98e-05
2015-03-24 00:00:00,2015-03-24 00:00:00,PRATE,surface,-98.4379,28.8188,9.13e-05
2015-03-24 00:00:00,2015-03-24 00:00:00,PRATE,surface,-97.5004,28.8188,7.84e-05
2015-03-24 00:00:00,2015-03-24 00:00:00,PRATE,surface,-96.5629,28.8188,4.72e-05
2015-03-24 00:00:00,2015-03-24 00:00:00,PRATE,surface,-95.6254,28.8188,2.93e-05
2015-03-24 00:00:00,2015-03-24 00:00:00,PRATE,surface,-94.6879,28.8188,2.65e-05
2015-03-24 00:00:00,2015-03-24 00:00:00,PRATE,surface,-93.7504,28.8188,3.48e-05
2015-03-24 00:00:00,2015-03-24 00:00:00,PRATE,surface,-92.8129,28.8188,4.25e-05
2015-03-24 00:00:00,2015-03-24 00:00:00,PRATE,surface,-107.813,29.7637,5.9e-06
2015-03-24 00:00:00,2015-03-24 00:00:00,PRATE,surface,-106.875,29.7637,1.56e-05
2015-03-24 00:00:00,2015-03-24 00:00:00,PRATE,surface,-105.938,29.7637,2.26e-05
2015-03-24 00:00:00,2015-03-24 00:00:00,PRATE,surface,-105,29.7637,2.9e-05
2015-03-24 00:00:00,2015-03-24 00:00:00,PRATE,surface,-104.063,29.7637,3.03e-05
2015-03-24 00:00:00,2015-03-24 00:00:00,PRATE,surface,-103.125,29.7637,3.16e-05
2015-03-24 00:00:00,2015-03-24 00:00:00,PRATE,surface,-102.188,29.7637,2.71e-05
2015-03-24 00:00:00,2015-03-24 00:00:00,PRATE,surface,-101.25,29.7637,3.56e-05
2015-03-24 00:00:00,2015-03-24 00:00:00,PRATE,surface,-100.313,29.7637,5.64e-05
2015-03-24 00:00:00,2015-03-24 00:00:00,PRATE,surface,-99.3754,29.7637,8.64e-05
2015-03-24 00:00:00,2015-03-24 00:00:00,PRATE,surface,-98.4379,29.7637,0.000107
2015-03-24 00:00:00,2015-03-24 00:00:00,PRATE,surface,-97.5004,29.7637,0.0001062
2015-03-24 00:00:00,2015-03-24 00:00:00,PRATE,surface,-96.5629,29.7637,9.29e-05
2015-03-24 00:00:00,2015-03-24 00:00:00,PRATE,surface,-95.6254,29.7637,7.62e-05
2015-03-24 00:00:00,2015-03-24 00:00:00,PRATE,surface,-94.6879,29.7637,6.23e-05
2015-03-24 00:00:00,2015-03-24 00:00:00,PRATE,surface,-93.7504,29.7637,5.86e-05
2015-03-24 00:00:00,2015-03-24 00:00:00,PRATE,surface,-92.8129,29.7637,5.43e-05
2015-03-24 00:00:00,2015-03-24 00:00:00,PRATE,surface,-107.813,30.7085,1.4e-05
2015-03-24 00:00:00,2015-03-24 00:00:00,PRATE,surface,-106.875,30.7085,2.06e-05
2015-03-24 00:00:00,2015-03-24 00:00:00,PRATE,surface,-105.938,30.7085,3.19e-05
2015-03-24 00:00:00,2015-03-24 00:00:00,PRATE,surface,-105,30.7085,4.61e-05
2015-03-24 00:00:00,2015-03-24 00:00:00,PRATE,surface,-104.063,30.7085,4.25e-05
2015-03-24 00:00:00,2015-03-24 00:00:00,PRATE,surface,-103.125,30.7085,3.73e-05
2015-03-24 00:00:00,2015-03-24 00:00:00,PRATE,surface,-102.188,30.7085,3.08e-05
2015-03-24 00:00:00,2015-03-24 00:00:00,PRATE,surface,-101.25,30.7085,4.08e-05
2015-03-24 00:00:00,2015-03-24 00:00:00,PRATE,surface,-100.313,30.7085,5.42e-05
2015-03-24 00:00:00,2015-03-24 00:00:00,PRATE,surface,-99.3754,30.7085,6.93e-05
2015-03-24 00:00:00,2015-03-24 00:00:00,PRATE,surface,-98.4379,30.7085,8.13e-05
2015-03-24 00:00:00,2015-03-24 00:00:00,PRATE,surface,-97.5004,30.7085,9.01e-05
2015-03-24 00:00:00,2015-03-24 00:00:00,PRATE,surface,-96.5629,30.7085,9.89e-05
2015-03-24 00:00:00,2015-03-24 00:00:00,PRATE,surface,-95.6254,30.7085,0.0001027
2015-03-24 00:00:00,2015-03-24 00:00:00,PRATE,surface,-94.6879,30.7085,9.58e-05
2015-03-24 00:00:00,2015-03-24 00:00:00,PRATE,surface,-93.7504,30.7085,8.07e-05
2015-03-24 00:00:00,2015-03-24 00:00:00,PRATE,surface,-92.8129,30.7085,6.37e-05
2015-03-24 00:00:00,2015-03-24 00:00:00,PRATE,surface,-107.813,31.6534,1.92e-05
2015-03-24 00:00:00,2015-03-24 00:00:00,PRATE,surface,-106.875,31.6534,2.25e-05
2015-03-24 00:00:00,2015-03-24 00:00:00,PRATE,surface,-105.938,31.6534,3.56e-05
2015-03-24 00:00:00,2015-03-24 00:00:00,PRATE,surface,-105,31.6534,4.82e-05
2015-03-24 00:00:00,2015-03-24 00:00:00,PRATE,surface,-104.063,31.6534,5.78e-05
2015-03-24 00:00:00,2015-03-24 00:00:00,PRATE,surface,-103.125,31.6534,5.48e-05
2015-03-24 00:00:00,2015-03-24 00:00:00,PRATE,surface,-102.188,31.6534,5.39e-05
2015-03-24 00:00:00,2015-03-24 00:00:00,PRATE,surface,-101.25,31.6534,4.74e-05
2015-03-24 00:00:00,2015-03-24 00:00:00,PRATE,surface,-100.313,31.6534,4.29e-05
2015-03-24 00:00:00,2015-03-24 00:00:00,PRATE,surface,-99.3754,31.6534,4.82e-05
2015-03-24 00:00:00,2015-03-24 00:00:00,PRATE,surface,-98.4379,31.6534,5.83e-05
2015-03-24 00:00:00,2015-03-24 00:00:00,PRATE,surface,-97.5004,31.6534,7.26e-05
2015-03-24 00:00:00,2015-03-24 00:00:00,PRATE,surface,-96.5629,31.6534,8.41e-05
2015-03-24 00:00:00,2015-03-24 00:00:00,PRATE,surface,-95.6254,31.6534,9.34e-05
2015-03-24 00:00:00,2015-03-24 00:00:00,PRATE,surface,-94.6879,31.6534,0.0001092
2015-03-24 00:00:00,2015-03-24 00:00:00,PRATE,surface,-93.7504,31.6534,0.0001125
2015-03-24 00:00:00,2015-03-24 00:00:00,PRATE,surface,-92.8129,31.6534,8.74e-05
2015-03-24 00:00:00,2015-03-24 00:00:00,PRATE,surface,-107.813,32.5983,2.08e-05
2015-03-24 00:00:00,2015-03-24 00:00:00,PRATE,surface,-106.875,32.5983,2.32e-05
2015-03-24 00:00:00,2015-03-24 00:00:00,PRATE,surface,-105.938,32.5983,2.62e-05
2015-03-24 00:00:00,2015-03-24 00:00:00,PRATE,surface,-105,32.5983,3.64e-05
2015-03-24 00:00:00,2015-03-24 00:00:00,PRATE,surface,-104.063,32.5983,4.79e-05
2015-03-24 00:00:00,2015-03-24 00:00:00,PRATE,surface,-103.125,32.5983,5.14e-05
2015-03-24 00:00:00,2015-03-24 00:00:00,PRATE,surface,-102.188,32.5983,5.52e-05
2015-03-24 00:00:00,2015-03-24 00:00:00,PRATE,surface,-101.25,32.5983,5.71e-05
2015-03-24 00:00:00,2015-03-24 00:00:00,PRATE,surface,-100.313,32.5983,4.56e-05
2015-03-24 00:00:00,2015-03-24 00:00:00,PRATE,surface,-99.3754,32.5983,3.72e-05
2015-03-24 00:00:00,2015-03-24 00:00:00,PRATE,surface,-98.4379,32.5983,4.03e-05
2015-03-24 00:00:00,2015-03-24 00:00:00,PRATE,surface,-97.5004,32.5983,5.78e-05
2015-03-24 00:00:00,2015-03-24 00:00:00,PRATE,surface,-96.5629,32.5983,7.35e-05
2015-03-24 00:00:00,2015-03-24 00:00:00,PRATE,surface,-95.6254,32.5983,7.52e-05
2015-03-24 00:00:00,2015-03-24 00:00:00,PRATE,surface,-94.6879,32.5983,8.21e-05
2015-03-24 00:00:00,2015-03-24 00:00:00,PRATE,surface,-93.7504,32.5983,0.0001023
2015-03-24 00:00:00,2015-03-24 00:00:00,PRATE,surface,-92.8129,32.5983,0.0001009
2015-03-24 00:00:00,2015-03-24 00:00:00,PRATE,surface,-107.813,33.5432,5.21e-05
2015-03-24 00:00:00,2015-03-24 00:00:00,PRATE,surface,-106.875,33.5432,4.63e-05
2015-03-24 00:00:00,2015-03-24 00:00:00,PRATE,surface,-105.938,33.5432,3.53e-05
2015-03-24 00:00:00,2015-03-24 00:00:00,PRATE,surface,-105,33.5432,3.26e-05
2015-03-24 00:00:00,2015-03-24 00:00:00,PRATE,surface,-104.063,33.5432,3.84e-05
2015-03-24 00:00:00,2015-03-24 00:00:00,PRATE,surface,-103.125,33.5432,4.1e-05
2015-03-24 00:00:00,2015-03-24 00:00:00,PRATE,surface,-102.188,33.5432,5e-05
2015-03-24 00:00:00,2015-03-24 00:00:00,PRATE,surface,-101.25,33.5432,5.96e-05
2015-03-24 00:00:00,2015-03-24 00:00:00,PRATE,surface,-100.313,33.5432,5.07e-05
2015-03-24 00:00:00,2015-03-24 00:00:00,PRATE,surface,-99.3754,33.5432,3.66e-05
2015-03-24 00:00:00,2015-03-24 00:00:00,PRATE,surface,-98.4379,33.5432,3.49e-05
2015-03-24 00:00:00,2015-03-24 00:00:00,PRATE,surface,-97.5004,33.5432,4.2e-05
2015-03-24 00:00:00,2015-03-24 00:00:00,PRATE,surface,-96.5629,33.5432,5.15e-05
2015-03-24 00:00:00,2015-03-24 00:00:00,PRATE,surface,-95.6254,33.5432,6.41e-05
2015-03-24 00:00:00,2015-03-24 00:00:00,PRATE,surface,-94.6879,33.5432,7.7e-05
2015-03-24 00:00:00,2015-03-24 00:00:00,PRATE,surface,-93.7504,33.5432,8.58e-05
2015-03-24 00:00:00,2015-03-24 00:00:00,PRATE,surface,-92.8129,33.5432,9.14e-05
2015-03-24 00:00:00,2015-03-24 00:00:00,PRATE,surface,-107.813,34.4881,6.6e-05
2015-03-24 00:00:00,2015-03-24 00:00:00,PRATE,surface,-106.875,34.4881,4.16e-05
2015-03-24 00:00:00,2015-03-24 00:00:00,PRATE,surface,-105.938,34.4881,2.74e-05
2015-03-24 00:00:00,2015-03-24 00:00:00,PRATE,surface,-105,34.4881,2.85e-05
2015-03-24 00:00:00,2015-03-24 00:00:00,PRATE,surface,-104.063,34.4881,3.85e-05
2015-03-24 00:00:00,2015-03-24 00:00:00,PRATE,surface,-103.125,34.4881,4.39e-05
2015-03-24 00:00:00,2015-03-24 00:00:00,PRATE,surface,-102.188,34.4881,4.39e-05
2015-03-24 00:00:00,2015-03-24 00:00:00,PRATE,surface,-101.25,34.4881,5.65e-05
2015-03-24 00:00:00,2015-03-24 00:00:00,PRATE,surface,-100.313,34.4881,5.15e-05
2015-03-24 00:00:00,2015-03-24 00:00:00,PRATE,surface,-99.3754,34.4881,3.92e-05
2015-03-24 00:00:00,2015-03-24 00:00:00,PRATE,surface,-98.4379,34.4881,3.67e-05
2015-03-24 00:00:00,2015-03-24 00:00:00,PRATE,surface,-97.5004,34.4881,4.42e-05
2015-03-24 00:00:00,2015-03-24 00:00:00,PRATE,surface,-96.5629,34.4881,5.16e-05
2015-03-24 00:00:00,2015-03-24 00:00:00,PRATE,surface,-95.6254,34.4881,6.07e-05
2015-03-24 00:00:00,2015-03-24 00:00:00,PRATE,surface,-94.6879,34.4881,7.79e-05
2015-03-24 00:00:00,2015-03-24 00:00:00,PRATE,surface,-93.7504,34.4881,9.02e-05
2015-03-24 00:00:00,2015-03-24 00:00:00,PRATE,surface,-92.8129,34.4881,8.75e-05
2015-03-24 00:00:00,2015-03-24 00:00:00,PRATE,surface,-107.813,35.4329,4.99e-05
2015-03-24 00:00:00,2015-03-24 00:00:00,PRATE,surface,-106.875,35.4329,3.75e-05
2015-03-24 00:00:00,2015-03-24 00:00:00,PRATE,surface,-105.938,35.4329,4.12e-05
2015-03-24 00:00:00,2015-03-24 00:00:00,PRATE,surface,-105,35.4329,4.87e-05
2015-03-24 00:00:00,2015-03-24 00:00:00,PRATE,surface,-104.063,35.4329,5.27e-05
2015-03-24 00:00:00,2015-03-24 00:00:00,PRATE,surface,-103.125,35.4329,4.18e-05
2015-03-24 00:00:00,2015-03-24 00:00:00,PRATE,surface,-102.188,35.4329,4.05e-05
2015-03-24 00:00:00,2015-03-24 00:00:00,PRATE,surface,-101.25,35.4329,5.1e-05
2015-03-24 00:00:00,2015-03-24 00:00:00,PRATE,surface,-100.313,35.4329,5.07e-05
2015-03-24 00:00:00,2015-03-24 00:00:00,PRATE,surface,-99.3754,35.4329,4.27e-05
2015-03-24 00:00:00,2015-03-24 00:00:00,PRATE,surface,-98.4379,35.4329,4.27e-05
2015-03-24 00:00:00,2015-03-24 00:00:00,PRATE,surface,-97.5004,35.4329,4.34e-05
2015-03-24 00:00:00,2015-03-24 00:00:00,PRATE,surface,-96.5629,35.4329,4.17e-05
2015-03-24 00:00:00,2015-03-24 00:00:00,PRATE,surface,-95.6254,35.4329,4.82e-05
2015-03-24 00:00:00,2015-03-24 00:00:00,PRATE,surface,-94.6879,35.4329,6.42e-05
2015-03-24 00:00:00,2015-03-24 00:00:00,PRATE,surface,-93.7504,35.4329,8.17e-05
2015-03-24 00:00:00,2015-03-24 00:00:00,PRATE,surface,-92.8129,35.4329,9.41e-05
2015-03-24 00:00:00,2015-03-24 00:00:00,PRATE,surface,-107.813,36.3778,4.32e-05
2015-03-24 00:00:00,2015-03-24 00:00:00,PRATE,surface,-106.875,36.3778,6.56e-05
2015-03-24 00:00:00,2015-03-24 00:00:00,PRATE,surface,-105.938,36.3778,7.52e-05
2015-03-24 00:00:00,2015-03-24 00:00:00,PRATE,surface,-105,36.3778,6.35e-05
2015-03-24 00:00:00,2015-03-24 00:00:00,PRATE,surface,-104.063,36.3778,6.61e-05
2015-03-24 00:00:00,2015-03-24 00:00:00,PRATE,surface,-103.125,36.3778,4.84e-05
2015-03-24 00:00:00,2015-03-24 00:00:00,PRATE,surface,-102.188,36.3778,4.69e-05
2015-03-24 00:00:00,2015-03-24 00:00:00,PRATE,surface,-101.25,36.3778,5.41e-05
2015-03-24 00:00:00,2015-03-24 00:00:00,PRATE,surface,-100.313,36.3778,5.83e-05
2015-03-24 00:00:00,2015-03-24 00:00:00,PRATE,surface,-99.3754,36.3778,5.69e-05
2015-03-24 00:00:00,2015-03-24 00:00:00,PRATE,surface,-98.4379,36.3778,5.58e-05
2015-03-24 00:00:00,2015-03-24 00:00:00,PRATE,surface,-97.5004,36.3778,5.25e-05
2015-03-24 00:00:00,2015-03-24 00:00:00,PRATE,surface,-96.5629,36.3778,5.03e-05
2015-03-24 00:00:00,2015-03-24 00:00:00,PRATE,surface,-95.6254,36.3778,5.09e-05
2015-03-24 00:00:00,2015-03-24 00:00:00,PRATE,surface,-94.6879,36.3778,5.1e-05
2015-03-24 00:00:00,2015-03-24 00:00:00,PRATE,surface,-93.7504,36.3778,5.75e-05
2015-03-24 00:00:00,2015-03-24 00:00:00,PRATE,surface,-92.8129,36.3778,6.83e-05
