2011-09-06 00:00:00,2011-09-06 00:00:00,TMP,surface,-107.813,25.0393,297.396
2011-09-06 00:00:00,2011-09-06 00:00:00,TMP,surface,-106.875,25.0393,291.978
2011-09-06 00:00:00,2011-09-06 00:00:00,TMP,surface,-105.938,25.0393,286.612
2011-09-06 00:00:00,2011-09-06 00:00:00,TMP,surface,-105,25.0393,289.027
2011-09-06 00:00:00,2011-09-06 00:00:00,TMP,surface,-104.063,25.0393,294.228
2011-09-06 00:00:00,2011-09-06 00:00:00,TMP,surface,-103.125,25.0393,295.725
2011-09-06 00:00:00,2011-09-06 00:00:00,TMP,surface,-102.188,25.0393,294.194
2011-09-06 00:00:00,2011-09-06 00:00:00,TMP,surface,-101.25,25.0393,292.424
2011-09-06 00:00:00,2011-09-06 00:00:00,TMP,surface,-100.313,25.0393,292.292
2011-09-06 00:00:00,2011-09-06 00:00:00,TMP,surface,-99.3754,25.0393,294.282
2011-09-06 00:00:00,2011-09-06 00:00:00,TMP,surface,-98.4379,25.0393,296.794
2011-09-06 00:00:00,2011-09-06 00:00:00,TMP,surface,-97.5004,25.0393,297.083
2011-09-06 00:00:00,2011-09-06 00:00:00,TMP,surface,-96.5629,25.0393,296.816
2011-09-06 00:00:00,2011-09-06 00:00:00,TMP,surface,-95.6254,25.0393,297.083
2011-09-06 00:00:00,2011-09-06 00:00:00,TMP,surface,-94.6879,25.0393,297.392
2011-09-06 00:00:00,2011-09-06 00:00:00,TMP,surface,-93.7504,25.0393,297.384
2011-09-06 00:00:00,2011-09-06 00:00:00,TMP,surface,-92.8129,25.0393,297.423
2011-09-06 00:00:00,2011-09-06 00:00:00,TMP,surface,-107.813,25.9842,293.904
2011-09-06 00:00:00,2011-09-06 00:00:00,TMP,surface,-106.875,25.9842,287.743
2011-09-06 00:00:00,2011-09-06 00:00:00,TMP,surface,-105.938,25.9842,286.923
2011-09-06 00:00:00,2011-09-06 00:00:00,TMP,surface,-105,25.9842,291.983
2011-09-06 00:00:00,2011-09-06 00:00:00,TMP,surface,-104.063,25.9842,296.511
2011-09-06 00:00:00,2011-09-06 00:00:00,TMP,surface,-103.125,25.9842,296.736
2011-09-06 00:00:00,2011-09-06 00:00:00,TMP,surface,-102.188,25.9842,295.562
2011-09-06 00:00:00,2011-09-06 00:00:00,TMP,surface,-101.25,25.9842,294
2011-09-06 00:00:00,2011-09-06 00:00:00,TMP,surface,-100.313,25.9842,293.568
2011-09-06 00:00:00,2011-09-06 00:00:00,TMP,surface,-99.3754,25.9842,295.984
2011-09-06 00:00:00,2011-09-06 00:00:00,TMP,surface,-98.4379,25.9842,297.024
2011-09-06 00:00:00,2011-09-06 00:00:00,TMP,surface,-97.5004,25.9842,296.735
2011-09-06 00:00:00,2011-09-06 00:00:00,TMP,surface,-96.5629,25.9842,295.687
2011-09-06 00:00:00,2011-09-06 00:00:00,TMP,surface,-95.6254,25.9842,296.266
2011-09-06 00:00:00,2011-09-06 00:00:00,TMP,surface,-94.6879,25.9842,296.541
2011-09-06 00:00:00,2011-09-06 00:00:00,TMP,surface,-93.7504,25.9842,296.576
2011-09-06 00:00:00,2011-09-06 00:00:00,TMP,surface,-92.8129,25.9842,296.808
2011-09-06 00:00:00,2011-09-06 00:00:00,TMP,surface,-107.813,26.929,288.416
2011-09-06 00:00:00,2011-09-06 00:00:00,TMP,surface,-106.875,26.929,286.087
2011-09-06 00:00:00,2011-09-06 00:00:00,TMP,surface,-105.938,26.929,289.469
2011-09-06 00:00:00,2011-09-06 00:00:00,TMP,surface,-105,26.929,294.437
2011-09-06 00:00:00,2011-09-06 00:00:00,TMP,surface,-104.063,26.929,295.794
2011-09-06 00:00:00,2011-09-06 00:00:00,TMP,surface,-103.125,26.929,295.164
2011-09-06 00:00:00,2011-09-06 00:00:00,TMP,surface,-102.188,26.929,294.56
2011-09-06 00:00:00,2011-09-06 00:00:00,TMP,surface,-101.25,26.929,294.509
2011-09-06 00:00:00,2011-09-06 00:00:00,TMP,surface,-100.313,26.929,295.172
2011-09-06 00:00:00,2011-09-06 00:00:00,TMP,surface,-99.3754,26.929,296.363
2011-09-06 00:00:00,2011-09-06 00:00:00,TMP,surface,-98.4379,26.929,295.802
2011-09-06 00:00:00,2011-09-06 00:00:00,TMP,surface,-97.5004,26.929,294.805
2011-09-06 00:00:00,2011-09-06 00:00:00,TMP,surface,-96.5629,26.929,294.752
2011-09-06 00:00:00,2011-09-06 00:00:00,TMP,surface,-95.6254,26.929,295.416
2011-09-06 00:00:00,2011-09-06 00:00:00,TMP,surface,-94.6879,26.929,295.703
2011-09-06 00:00:00,2011-09-06 00:00:00,TMP,surface,-93.7504,26.929,295.552
2011-09-06 00:00:00,2011-09-06 00:00:00,TMP,surface,-92.8129,26.929,295.629
2011-09-06 00:00:00,2011-09-06 00:00:00,TMP,surface,-107.813,27.8739,285.839
2011-09-06 00:00:00,2011-09-06 00:00:00,TMP,surface,-106.875,27.8739,286.536
2011-09-06 00:00:00,2011-09-06 00:00:00,TMP,surface,-105.938,27.8739,291.218
2011-09-06 00:00:00,2011-09-06 00:00:00,TMP,surface,-105,27.8739,294.699
2011-09-06 00:00:00,2011-09-06 00:00:00,TMP,surface,-104.063,27.8739,294.2
2011-09-06 00:00:00,2011-09-06 00:00:00,TMP,surface,-103.125,27.8739,293.136
2011-09-06 00:00:00,2011-09-06 00:00:00,TMP,surface,-102.188,27.8739,292.952
2011-09-06 00:00:00,2011-09-06 00:00:00,TMP,surface,-101.25,27.8739,293.954
2011-09-06 00:00:00,2011-09-06 00:00:00,TMP,surface,-100.313,27.8739,294.842
2011-09-06 00:00:00,2011-09-06 00:00:00,TMP,surface,-99.3754,27.8739,294.738
2011-09-06 00:00:00,2011-09-06 00:00:00,TMP,surface,-98.4379,27.8739,294.154
2011-09-06 00:00:00,2011-09-06 00:00:00,TMP,surface,-97.5004,27.8739,294.28
2011-09-06 00:00:00,2011-09-06 00:00:00,TMP,surface,-96.5629,27.8739,294.716
2011-09-06 00:00:00,2011-09-06 00:00:00,TMP,surface,-95.6254,27.8739,294.719
2011-09-06 00:00:00,2011-09-06 00:00:00,TMP,surface,-94.6879,27.8739,294.643
2011-09-06 00:00:00,2011-09-06 00:00:00,TMP,surface,-93.7504,27.8739,294.552
2011-09-06 00:00:00,2011-09-06 00:00:00,TMP,surface,-92.8129,27.8739,294.594
2011-09-06 00:00:00,2011-09-06 00:00:00,TMP,surface,-107.813,28.8188,285.239
2011-09-06 00:00:00,2011-09-06 00:00:00,TMP,surface,-106.875,28.8188,287.312
2011-09-06 00:00:00,2011-09-06 00:00:00,TMP,surface,-105.938,28.8188,291.559
2011-09-06 00:00:00,2011-09-06 00:00:00,TMP,surface,-105,28.8188,294.109
2011-09-06 00:00:00,2011-09-06 00:00:00,TMP,surface,-104.063,28.8188,292.882
2011-09-06 00:00:00,2011-09-06 00:00:00,TMP,surface,-103.125,28.8188,292.213
2011-09-06 00:00:00,2011-09-06 00:00:00,TMP,surface,-102.188,28.8188,292.247
2011-09-06 00:00:00,2011-09-06 00:00:00,TMP,surface,-101.25,28.8188,293.004
2011-09-06 00:00:00,2011-09-06 00:00:00,TMP,surface,-100.313,28.8188,292.81
2011-09-06 00:00:00,2011-09-06 00:00:00,TMP,surface,-99.3754,28.8188,292.228
2011-09-06 00:00:00,2011-09-06 00:00:00,TMP,surface,-98.4379,28.8188,292.069
2011-09-06 00:00:00,2011-09-06 00:00:00,TMP,surface,-97.5004,28.8188,292.439
2011-09-06 00:00:00,2011-09-06 00:00:00,TMP,surface,-96.5629,28.8188,292.994
2011-09-06 00:00:00,2011-09-06 00:00:00,TMP,surface,-95.6254,28.8188,293.357
2011-09-06 00:00:00,2011-09-06 00:00:00,TMP,surface,-94.6879,28.8188,293.53
2011-09-06 00:00:00,2011-09-06 00:00:00,TMP,surface,-93.7504,28.8188,293.755
2011-09-06 00:00:00,2011-09-06 00:00:00,TMP,surface,-92.8129,28.8188,293.884
2011-09-06 00:00:00,2011-09-06 00:00:00,TMP,surface,-107.813,29.7637,287.045
2011-09-06 00:00:00,2011-09-06 00:00:00,TMP,surface,-106.875,29.7637,288.933
2011-09-06 00:00:00,2011-09-06 00:00:00,TMP,surface,-105.938,29.7637,291.461
2011-09-06 00:00:00,2011-09-06 00:00:00,TMP,surface,-105,29.7637,292.152
2011-09-06 00:00:00,2011-09-06 00:00:00,TMP,surface,-104.063,29.7637,291.922
2011-09-06 00:00:00,2011-09-06 00:00:00,TMP,surface,-103.125,29.7637,292.427
2011-09-06 00:00:00,2011-09-06 00:00:00,TMP,surface,-102.188,29.7637,293.167
2011-09-06 00:00:00,2011-09-06 00:00:00,TMP,surface,-101.25,29.7637,292.504
2011-09-06 00:00:00,2011-09-06 00:00:00,TMP,surface,-100.313,29.7637,291.088
2011-09-06 00:00:00,2011-09-06 00:00:00,TMP,surface,-99.3754,29.7637,290.221
2011-09-06 00:00:00,2011-09-06 00:00:00,TMP,surface,-98.4379,29.7637,290.365
2011-09-06 00:00:00,2011-09-06 00:00:00,TMP,surface,-97.5004,29.7637,290.962
2011-09-06 00:00:00,2011-09-06 00:00:00,TMP,surface,-96.5629,29.7637,291.519
2011-09-06 00:00:00,2011-09-06 00:00:00,TMP,surface,-95.6254,29.7637,292.064
2011-09-06 00:00:00,2011-09-06 00:00:00,TMP,surface,-94.6879,29.7637,292.755
2011-09-06 00:00:00,2011-09-06 00:00:00,TMP,surface,-93.7504,29.7637,293.496
2011-09-06 00:00:00,2011-09-06 00:00:00,TMP,surface,-92.8129,29.7637,293.747
2011-09-06 00:00:00,2011-09-06 00:00:00,TMP,surface,-107.813,30.7085,289.847
2011-09-06 00:00:00,2011-09-06 00:00:00,TMP,surface,-106.875,30.7085,290.727
2011-09-06 00:00:00,2011-09-06 00:00:00,TMP,surface,-105.938,30.7085,290.986
2011-09-06 00:00:00,2011-09-06 00:00:00,TMP,surface,-105,30.7085,291.083
2011-09-06 00:00:00,2011-09-06 00:00:00,TMP,surface,-104.063,30.7085,290.799
2011-09-06 00:00:00,2011-09-06 00:00:00,TMP,surface,-103.125,30.7085,292.155
2011-09-06 00:00:00,2011-09-06 00:00:00,TMP,surface,-102.188,30.7085,293.091
2011-09-06 00:00:00,2011-09-06 00:00:00,TMP,surface,-101.25,30.7085,292.082
2011-09-06 00:00:00,2011-09-06 00:00:00,TMP,surface,-100.313,30.7085,290.472
2011-09-06 00:00:00,2011-09-06 00:00:00,TMP,surface,-99.3754,30.7085,289.651
2011-09-06 00:00:00,2011-09-06 00:00:00,TMP,surface,-98.4379,30.7085,289.832
2011-09-06 00:00:00,2011-09-06 00:00:00,TMP,surface,-97.5004,30.7085,290.371
2011-09-06 00:00:00,2011-09-06 00:00:00,TMP,surface,-96.5629,30.7085,291.13
2011-09-06 00:00:00,2011-09-06 00:00:00,TMP,surface,-95.6254,30.7085,291.859
2011-09-06 00:00:00,2011-09-06 00:00:00,TMP,surface,-94.6879,30.7085,292.098
2011-09-06 00:00:00,2011-09-06 00:00:00,TMP,surface,-93.7504,30.7085,292.263
2011-09-06 00:00:00,2011-09-06 00:00:00,TMP,surface,-92.8129,30.7085,292.194
2011-09-06 00:00:00,2011-09-06 00:00:00,TMP,surface,-107.813,31.6534,289.927
2011-09-06 00:00:00,2011-09-06 00:00:00,TMP,surface,-106.875,31.6534,290.363
2011-09-06 00:00:00,2011-09-06 00:00:00,TMP,surface,-105.938,31.6534,290.221
2011-09-06 00:00:00,2011-09-06 00:00:00,TMP,surface,-105,31.6534,289.956
2011-09-06 00:00:00,2011-09-06 00:00:00,TMP,surface,-104.063,31.6534,290.357
2011-09-06 00:00:00,2011-09-06 00:00:00,TMP,surface,-103.125,31.6534,291.648
2011-09-06 00:00:00,2011-09-06 00:00:00,TMP,surface,-102.188,31.6534,292.439
2011-09-06 00:00:00,2011-09-06 00:00:00,TMP,surface,-101.25,31.6534,291.84
2011-09-06 00:00:00,2011-09-06 00:00:00,TMP,surface,-100.313,31.6534,290.88
2011-09-06 00:00:00,2011-09-06 00:00:00,TMP,surface,-99.3754,31.6534,290.24
2011-09-06 00:00:00,2011-09-06 00:00:00,TMP,surface,-98.4379,31.6534,290.072
2011-09-06 00:00:00,2011-09-06 00:00:00,TMP,surface,-97.5004,31.6534,290.256
2011-09-06 00:00:00,2011-09-06 00:00:00,TMP,surface,-96.5629,31.6534,290.875
2011-09-06 00:00:00,2011-09-06 00:00:00,TMP,surface,-95.6254,31.6534,291.514
2011-09-06 00:00:00,2011-09-06 00:00:00,TMP,surface,-94.6879,31.6534,291.511
2011-09-06 00:00:00,2011-09-06 00:00:00,TMP,surface,-93.7504,31.6534,291.292
2011-09-06 00:00:00,2011-09-06 00:00:00,TMP,surface,-92.8129,31.6534,291.269
2011-09-06 00:00:00,2011-09-06 00:00:00,TMP,surface,-107.813,32.5983,286.754
2011-09-06 00:00:00,2011-09-06 00:00:00,TMP,surface,-106.875,32.5983,287.46
2011-09-06 00:00:00,2011-09-06 00:00:00,TMP,surface,-105.938,32.5983,287.824
2011-09-06 00:00:00,2011-09-06 00:00:00,TMP,surface,-105,32.5983,288.248
2011-09-06 00:00:00,2011-09-06 00:00:00,TMP,surface,-104.063,32.5983,289.343
2011-09-06 00:00:00,2011-09-06 00:00:00,TMP,surface,-103.125,32.5983,290.599
2011-09-06 00:00:00,2011-09-06 00:00:00,TMP,surface,-102.188,32.5983,291.301
2011-09-06 00:00:00,2011-09-06 00:00:00,TMP,surface,-101.25,32.5983,291.298
2011-09-06 00:00:00,2011-09-06 00:00:00,TMP,surface,-100.313,32.5983,291.136
2011-09-06 00:00:00,2011-09-06 00:00:00,TMP,surface,-99.3754,32.5983,290.92
2011-09-06 00:00:00,2011-09-06 00:00:00,TMP,surface,-98.4379,32.5983,290.599
2011-09-06 00:00:00,2011-09-06 00:00:00,TMP,surface,-97.5004,32.5983,290.381
2011-09-06 00:00:00,2011-09-06 00:00:00,TMP,surface,-96.5629,32.5983,290.559
2011-09-06 00:00:00,2011-09-06 00:00:00,TMP,surface,-95.6254,32.5983,290.842
2011-09-06 00:00:00,2011-09-06 00:00:00,TMP,surface,-94.6879,32.5983,290.749
2011-09-06 00:00:00,2011-09-06 00:00:00,TMP,surface,-93.7504,32.5983,290.541
2011-09-06 00:00:00,2011-09-06 00:00:00,TMP,surface,-92.8129,32.5983,290.568
2011-09-06 00:00:00,2011-09-06 00:00:00,TMP,surface,-107.813,33.5432,282.287
2011-09-06 00:00:00,2011-09-06 00:00:00,TMP,surface,-106.875,33.5432,283.874
2011-09-06 00:00:00,2011-09-06 00:00:00,TMP,surface,-105.938,33.5432,284.979
2011-09-06 00:00:00,2011-09-06 00:00:00,TMP,surface,-105,33.5432,286.427
2011-09-06 00:00:00,2011-09-06 00:00:00,TMP,surface,-104.063,33.5432,288.363
2011-09-06 00:00:00,2011-09-06 00:00:00,TMP,surface,-103.125,33.5432,289.276
2011-09-06 00:00:00,2011-09-06 00:00:00,TMP,surface,-102.188,33.5432,289.655
2011-09-06 00:00:00,2011-09-06 00:00:00,TMP,surface,-101.25,33.5432,289.818
2011-09-06 00:00:00,2011-09-06 00:00:00,TMP,surface,-100.313,33.5432,290.354
2011-09-06 00:00:00,2011-09-06 00:00:00,TMP,surface,-99.3754,33.5432,290.584
2011-09-06 00:00:00,2011-09-06 00:00:00,TMP,surface,-98.4379,33.5432,290.255
2011-09-06 00:00:00,2011-09-06 00:00:00,TMP,surface,-97.5004,33.5432,289.744
2011-09-06 00:00:00,2011-09-06 00:00:00,TMP,surface,-96.5629,33.5432,289.429
2011-09-06 00:00:00,2011-09-06 00:00:00,TMP,surface,-95.6254,33.5432,289.46
2011-09-06 00:00:00,2011-09-06 00:00:00,TMP,surface,-94.6879,33.5432,289.586
2011-09-06 00:00:00,2011-09-06 00:00:00,TMP,surface,-93.7504,33.5432,289.49
2011-09-06 00:00:00,2011-09-06 00:00:00,TMP,surface,-92.8129,33.5432,289.591
2011-09-06 00:00:00,2011-09-06 00:00:00,TMP,surface,-107.813,34.4881,280.325
2011-09-06 00:00:00,2011-09-06 00:00:00,TMP,surface,-106.875,34.4881,281.949
2011-09-06 00:00:00,2011-09-06 00:00:00,TMP,surface,-105.938,34.4881,283.325
2011-09-06 00:00:00,2011-09-06 00:00:00,TMP,surface,-105,34.4881,285.28
2011-09-06 00:00:00,2011-09-06 00:00:00,TMP,surface,-104.063,34.4881,286.626
2011-09-06 00:00:00,2011-09-06 00:00:00,TMP,surface,-103.125,34.4881,287.424
2011-09-06 00:00:00,2011-09-06 00:00:00,TMP,surface,-102.188,34.4881,287.893
2011-09-06 00:00:00,2011-09-06 00:00:00,TMP,surface,-101.25,34.4881,288.229
2011-09-06 00:00:00,2011-09-06 00:00:00,TMP,surface,-100.313,34.4881,288.595
2011-09-06 00:00:00,2011-09-06 00:00:00,TMP,surface,-99.3754,34.4881,288.952
2011-09-06 00:00:00,2011-09-06 00:00:00,TMP,surface,-98.4379,34.4881,288.931
2011-09-06 00:00:00,2011-09-06 00:00:00,TMP,surface,-97.5004,34.4881,288.656
2011-09-06 00:00:00,2011-09-06 00:00:00,TMP,surface,-96.5629,34.4881,288.618
2011-09-06 00:00:00,2011-09-06 00:00:00,TMP,surface,-95.6254,34.4881,288.703
2011-09-06 00:00:00,2011-09-06 00:00:00,TMP,surface,-94.6879,34.4881,288.458
2011-09-06 00:00:00,2011-09-06 00:00:00,TMP,surface,-93.7504,34.4881,288.176
2011-09-06 00:00:00,2011-09-06 00:00:00,TMP,surface,-92.8129,34.4881,288.343
2011-09-06 00:00:00,2011-09-06 00:00:00,TMP,surface,-107.813,35.4329,280.554
2011-09-06 00:00:00,2011-09-06 00:00:00,TMP,surface,-106.875,35.4329,280.724
2011-09-06 00:00:00,2011-09-06 00:00:00,TMP,surface,-105.938,35.4329,281.208
2011-09-06 00:00:00,2011-09-06 00:00:00,TMP,surface,-105,35.4329,282.523
2011-09-06 00:00:00,2011-09-06 00:00:00,TMP,surface,-104.063,35.4329,284.717
2011-09-06 00:00:00,2011-09-06 00:00:00,TMP,surface,-103.125,35.4329,286.09
2011-09-06 00:00:00,2011-09-06 00:00:00,TMP,surface,-102.188,35.4329,286.439
2011-09-06 00:00:00,2011-09-06 00:00:00,TMP,surface,-101.25,35.4329,286.605
2011-09-06 00:00:00,2011-09-06 00:00:00,TMP,surface,-100.313,35.4329,286.728
2011-09-06 00:00:00,2011-09-06 00:00:00,TMP,surface,-99.3754,35.4329,286.909
2011-09-06 00:00:00,2011-09-06 00:00:00,TMP,surface,-98.4379,35.4329,287.128
2011-09-06 00:00:00,2011-09-06 00:00:00,TMP,surface,-97.5004,35.4329,287.365
2011-09-06 00:00:00,2011-09-06 00:00:00,TMP,surface,-96.5629,35.4329,287.498
2011-09-06 00:00:00,2011-09-06 00:00:00,TMP,surface,-95.6254,35.4329,287.504
2011-09-06 00:00:00,2011-09-06 00:00:00,TMP,surface,-94.6879,35.4329,287.336
2011-09-06 00:00:00,2011-09-06 00:00:00,TMP,surface,-93.7504,35.4329,286.911
2011-09-06 00:00:00,2011-09-06 00:00:00,TMP,surface,-92.8129,35.4329,286.931
2011-09-06 00:00:00,2011-09-06 00:00:00,TMP,surface,-107.813,36.3778,279.693
2011-09-06 00:00:00,2011-09-06 00:00:00,TMP,surface,-106.875,36.3778,277.573
2011-09-06 00:00:00,2011-09-06 00:00:00,TMP,surface,-105.938,36.3778,277.941
2011-09-06 00:00:00,2011-09-06 00:00:00,TMP,surface,-105,36.3778,279.691
2011-09-06 00:00:00,2011-09-06 00:00:00,TMP,surface,-104.063,36.3778,282.567
2011-09-06 00:00:00,2011-09-06 00:00:00,TMP,surface,-103.125,36.3778,284.018
2011-09-06 00:00:00,2011-09-06 00:00:00,TMP,surface,-102.188,36.3778,284.864
2011-09-06 00:00:00,2011-09-06 00:00:00,TMP,surface,-101.25,36.3778,285.226
2011-09-06 00:00:00,2011-09-06 00:00:00,TMP,surface,-100.313,36.3778,285.621
2011-09-06 00:00:00,2011-09-06 00:00:00,TMP,surface,-99.3754,36.3778,285.882
2011-09-06 00:00:00,2011-09-06 00:00:00,TMP,surface,-98.4379,36.3778,285.917
2011-09-06 00:00:00,2011-09-06 00:00:00,TMP,surface,-97.5004,36.3778,286.226
2011-09-06 00:00:00,2011-09-06 00:00:00,TMP,surface,-96.5629,36.3778,286.65
2011-09-06 00:00:00,2011-09-06 00:00:00,TMP,surface,-95.6254,36.3778,286.752
2011-09-06 00:00:00,2011-09-06 00:00:00,TMP,surface,-94.6879,36.3778,286.508
2011-09-06 00:00:00,2011-09-06 00:00:00,TMP,surface,-93.7504,36.3778,285.898
2011-09-06 00:00:00,2011-09-06 00:00:00,TMP,surface,-92.8129,36.3778,285.623
2011-09-06 00:00:00,2011-09-06 00:00:00,PRATE,surface,-107.813,25.0393,0
2011-09-06 00:00:00,2011-09-06 00:00:00,PRATE,surface,-106.875,25.0393,0
2011-09-06 00:00:00,2011-09-06 00:00:00,PRATE,surface,-105.938,25.0393,0
2011-09-06 00:00:00,2011-09-06 00:00:00,PRATE,surface,-105,25.0393,1.4e-06
2011-09-06 00:00:00,2011-09-06 00:00:00,PRATE,surface,-104.063,25.0393,1.2e-06
2011-09-06 00:00:00,2011-09-06 00:00:00,PRATE,surface,-103.125,25.0393,1.5e-06
2011-09-06 00:00:00,2011-09-06 00:00:00,PRATE,surface,-102.188,25.0393,3.4e-06
2011-09-06 00:00:00,2011-09-06 00:00:00,PRATE,surface,-101.25,25.0393,1.68e-05
2011-09-06 00:00:00,2011-09-06 00:00:00,PRATE,surface,-100.313,25.0393,4.42e-05
2011-09-06 00:00:00,2011-09-06 00:00:00,PRATE,surface,-99.3754,25.0393,5.29e-05
2011-09-06 00:00:00,2011-09-06 00:00:00,PRATE,surface,-98.4379,25.0393,2.49e-05
2011-09-06 00:00:00,2011-09-06 00:00:00,PRATE,surface,-97.5004,25.0393,1.77e-05
2011-09-06 00:00:00,2011-09-06 00:00:00,PRATE,surface,-96.5629,25.0393,1.22e-05
2011-09-06 00:00:00,2011-09-06 00:00:00,PRATE,surface,-95.6254,25.0393,9.3e-06
2011-09-06 00:00:00,2011-09-06 00:00:00,PRATE,surface,-94.6879,25.0393,9.9e-06
2011-09-06 00:00:00,2011-09-06 00:00:00,PRATE,surface,-93.7504,25.0393,4.4e-06
2011-09-06 00:00:00,2011-09-06 00:00:00,PRATE,surface,-92.8129,25.0393,1.9e-06
2011-09-06 00:00:00,2011-09-06 00:00:00,PRATE,surface,-107.813,25.9842,0
2011-09-06 00:00:00,2011-09-06 00:00:00,PRATE,surface,-106.875,25.9842,0
2011-09-06 00:00:00,2011-09-06 00:00:00,PRATE,surface,-105.938,25.9842,5e-07
2011-09-06 00:00:00,2011-09-06 00:00:00,PRATE,surface,-105,25.9842,1e-06
2011-09-06 00:00:00,2011-09-06 00:00:00,PRATE,surface,-104.063,25.9842,1.2e-06
2011-09-06 00:00:00,2011-09-06 00:00:00,PRATE,surface,-103.125,25.9842,7e-07
2011-09-06 00:00:00,2011-09-06 00:00:00,PRATE,surface,-102.188,25.9842,1.5e-06
2011-09-06 00:00:00,2011-09-06 00:00:00,PRATE,surface,-101.25,25.9842,9.9e-06
2011-09-06 00:00:00,2011-09-06 00:00:00,PRATE,surface,-100.313,25.9842,4.46e-05
2011-09-06 00:00:00,2011-09-06 00:00:00,PRATE,surface,-99.3754,25.9842,2.92e-05
2011-09-06 00:00:00,2011-09-06 00:00:00,PRATE,surface,-98.4379,25.9842,1.74e-05
2011-09-06 00:00:00,2011-09-06 00:00:00,PRATE,surface,-97.5004,25.9842,1.17e-05
2011-09-06 00:00:00,2011-09-06 00:00:00,PRATE,surface,-96.5629,25.9842,1.22e-05
2011-09-06 00:00:00,2011-09-06 00:00:00,PRATE,surface,-95.6254,25.9842,8e-06
2011-09-06 00:00:00,2011-09-06 00:00:00,PRATE,surface,-94.6879,25.9842,1.16e-05
2011-09-06 00:00:00,2011-09-06 00:00:00,PRATE,surface,-93.7504,25.9842,1.67e-05
2011-09-06 00:00:00,2011-09-06 00:00:00,PRATE,surface,-92.8129,25.9842,2.21e-05
2011-09-06 00:00:00,2011-09-06 00:00:00,PRATE,surface,-107.813,26.929,0
2011-09-06 00:00:00,2011-09-06 00:00:00,PRATE,surface,-106.875,26.929,1e-07
2011-09-06 00:00:00,2011-09-06 00:00:00,PRATE,surface,-105.938,26.929,7e-07
2011-09-06 00:00:00,2011-09-06 00:00:00,PRATE,surface,-105,26.929,3e-07
2011-09-06 00:00:00,2011-09-06 00:00:00,PRATE,surface,-104.063,26.929,1.2e-06
2011-09-06 00:00:00,2011-09-06 00:00:00,PRATE,surface,-103.125,26.929,2.1e-06
2011-09-06 00:00:00,2011-09-06 00:00:00,PRATE,surface,-102.188,26.929,4.2e-06
2011-09-06 00:00:00,2011-09-06 00:00:00,PRATE,surface,-101.25,26.929,1.84e-05
2011-09-06 00:00:00,2011-09-06 00:00:00,PRATE,surface,-100.313,26.929,2.58e-05
2011-09-06 00:00:00,2011-09-06 00:00:00,PRATE,surface,-99.3754,26.929,1.86e-05
2011-09-06 00:00:00,2011-09-06 00:00:00,PRATE,surface,-98.4379,26.929,1.46e-05
2011-09-06 00:00:00,2011-09-06 00:00:00,PRATE,surface,-97.5004,26.929,1.5e-05
2011-09-06 00:00:00,2011-09-06 00:00:00,PRATE,surface,-96.5629,26.929,1.04e-05
2011-09-06 00:00:00,2011-09-06 00:00:00,PRATE,surface,-95.6254,26.929,1.07e-05
2011-09-06 00:00:00,2011-09-06 00:00:00,PRATE,surface,-94.6879,26.929,1.16e-05
2011-09-06 00:00:00,2011-09-06 00:00:00,PRATE,surface,-93.7504,26.929,1.8e-05
2011-09-06 00:00:00,2011-09-06 00:00:00,PRATE,surface,-92.8129,26.929,3.53e-05
2011-09-06 00:00:00,2011-09-06 00:00:00,PRATE,surface,-107.813,27.8739,6e-07
2011-09-06 00:00:00,2011-09-06 00:00:00,PRATE,surface,-106.875,27.8739,6e-07
2011-09-06 00:00:00,2011-09-06 00:00:00,PRATE,surface,-105.938,27.8739,2e-07
2011-09-06 00:00:00,2011-09-06 00:00:00,PRATE,surface,-105,27.8739,1e-07
2011-09-06 00:00:00,2011-09-06 00:00:00,PRATE,surface,-104.063,27.8739,1.6e-06
2011-09-06 00:00:00,2011-09-06 00:00:00,PRATE,surface,-103.125,27.8739,4.5e-06
2011-09-06 00:00:00,2011-09-06 00:00:00,PRATE,surface,-102.188,27.8739,9.8e-06
2011-09-06 00:00:00,2011-09-06 00:00:00,PRATE,surface,-101.25,27.8739,1.55e-05
2011-09-06 00:00:00,2011-09-06 00:00:00,PRATE,surface,-100.313,27.8739,1.96e-05
2011-09-06 00:00:00,2011-09-06 00:00:00,PRATE,surface,-99.3754,27.8739,2.14e-05
2011-09-06 00:00:00,2011-09-06 00:00:00,PRATE,surface,-98.4379,27.8739,2.16e-05
2011-09-06 00:00:00,2011-09-06 00:00:00,PRATE,surface,-97.5004,27.8739,1.73e-05
2011-09-06 00:00:00,2011-09-06 00:00:00,PRATE,surface,-96.5629,27.8739,1.18e-05
2011-09-06 00:00:00,2011-09-06 00:00:00,PRATE,surface,-95.6254,27.8739,9.6e-06
2011-09-06 00:00:00,2011-09-06 00:00:00,PRATE,surface,-94.6879,27.8739,1.01e-05
2011-09-06 00:00:00,2011-09-06 00:00:00,PRATE,surface,-93.7504,27.8739,1.71e-05
2011-09-06 00:00:00,2011-09-06 00:00:00,PRATE,surface,-92.8129,27.8739,3.35e-05
2011-09-06 00:00:00,2011-09-06 00:00:00,PRATE,surface,-107.813,28.8188,1.4e-06
2011-09-06 00:00:00,2011-09-06 00:00:00,PRATE,surface,-106.875,28.8188,1.3e-06
2011-09-06 00:00:00,2011-09-06 00:00:00,PRATE,surface,-105.938,28.8188,6e-07
2011-09-06 00:00:00,2011-09-06 00:00:00,PRATE,surface,-105,28.8188,2e-07
2011-09-06 00:00:00,2011-09-06 00:00:00,PRATE,surface,-104.063,28.8188,9e-07
2011-09-06 00:00:00,2011-09-06 00:00:00,PRATE,surface,-103.125,28.8188,3.6e-06
2011-09-06 00:00:00,2011-09-06 00:00:00,PRATE,surface,-102.188,28.8188,1.05e-05
2011-09-06 00:00:00,2011-09-06 00:00:00,PRATE,surface,-101.25,28.8188,1.8e-05
2011-09-06 00:00:00,2011-09-06 00:00:00,PRATE,surface,-100.313,28.8188,3.66e-05
2011-09-06 00:00:00,2011-09-06 00:00:00,PRATE,surface,-99.3754,28.8188,4.15e-05
2011-09-06 00:00:00,2011-09-06 00:00:00,PRATE,surface,-98.4379,28.8188,3.62e-05
2011-09-06 00:00:00,2011-09-06 00:00:00,PRATE,surface,-97.5004,28.8188,2.86e-05
2011-09-06 00:00:00,2011-09-06 00:00:00,PRATE,surface,-96.5629,28.8188,2.07e-05
2011-09-06 00:00:00,2011-09-06 00:00:00,PRATE,surface,-95.6254,28.8188,1.61e-05
2011-09-06 00:00:00,2011-09-06 00:00:00,PRATE,surface,-94.6879,28.8188,1.44e-05
2011-09-06 00:00:00,2011-09-06 00:00:00,PRATE,surface,-93.7504,28.8188,1.48e-05
2011-09-06 00:00:00,2011-09-06 00:00:00,PRATE,surface,-92.8129,28.8188,2.39e-05
2011-09-06 00:00:00,2011-09-06 00:00:00,PRATE,surface,-107.813,29.7637,1.1e-06
2011-09-06 00:00:00,2011-09-06 00:00:00,PRATE,surface,-106.875,29.7637,9e-07
2011-09-06 00:00:00,2011-09-06 00:00:00,PRATE,surface,-105.938,29.7637,8e-07
2011-09-06 00:00:00,2011-09-06 00:00:00,PRATE,surface,-105,29.7637,6e-07
2011-09-06 00:00:00,2011-09-06 00:00:00,PRATE,surface,-104.063,29.7637,1.3e-06
2011-09-06 00:00:00,2011-09-06 00:00:00,PRATE,surface,-103.125,29.7637,2e-06
2011-09-06 00:00:00,2011-09-06 00:00:00,PRATE,surface,-102.188,29.7637,6.4e-06
2011-09-06 00:00:00,2011-09-06 00:00:00,PRATE,surface,-101.25,29.7637,2.48e-05
2011-09-06 00:00:00,2011-09-06 00:00:00,PRATE,surface,-100.313,29.7637,5.43e-05
2011-09-06 00:00:00,2011-09-06 00:00:00,PRATE,surface,-99.3754,29.7637,6.89e-05
2011-09-06 00:00:00,2011-09-06 00:00:00,PRATE,surface,-98.4379,29.7637,6.36e-05
2011-09-06 00:00:00,2011-09-06 00:00:00,PRATE,surface,-97.5004,29.7637,5.41e-05
2011-09-06 00:00:00,2011-09-06 00:00:00,PRATE,surface,-96.5629,29.7637,4.95e-05
2011-09-06 00:00:00,2011-09-06 00:00:00,PRATE,surface,-95.6254,29.7637,4.1e-05
2011-09-06 00:00:00,2011-09-06 00:00:00,PRATE,surface,-94.6879,29.7637,2.68e-05
2011-09-06 00:00:00,2011-09-06 00:00:00,PRATE,surface,-93.7504,29.7637,1.98e-05
2011-09-06 00:00:00,2011-09-06 00:00:00,PRATE,surface,-92.8129,29.7637,2e-05
2011-09-06 00:00:00,2011-09-06 00:00:00,PRATE,surface,-107.813,30.7085,5e-07
2011-09-06 00:00:00,2011-09-06 00:00:00,PRATE,surface,-106.875,30.7085,4e-07
2011-09-06 00:00:00,2011-09-06 00:00:00,PRATE,surface,-105.938,30.7085,6e-07
2011-09-06 00:00:00,2011-09-06 00:00:00,PRATE,surface,-105,30.7085,1e-06
2011-09-06 00:00:00,2011-09-06 00:00:00,PRATE,surface,-104.063,30.7085,2.5e-06
2011-09-06 00:00:00,2011-09-06 00:00:00,PRATE,surface,-103.125,30.7085,1.5e-06
2011-09-06 00:00:00,2011-09-06 00:00:00,PRATE,surface,-102.188,30.7085,1.9e-06
2011-09-06 00:00:00,2011-09-06 00:00:00,PRATE,surface,-101.25,30.7085,2.24e-05
2011-09-06 00:00:00,2011-09-06 00:00:00,PRATE,surface,-100.313,30.7085,4.28e-05
2011-09-06 00:00:00,2011-09-06 00:00:00,PRATE,surface,-99.3754,30.7085,5.79e-05
2011-09-06 00:00:00,2011-09-06 00:00:00,PRATE,surface,-98.4379,30.7085,6.67e-05
2011-09-06 00:00:00,2011-09-06 00:00:00,PRATE,surface,-97.5004,30.7085,8.34e-05
2011-09-06 00:00:00,2011-09-06 00:00:00,PRATE,surface,-96.5629,30.7085,9.77e-05
2011-09-06 00:00:00,2011-09-06 00:00:00,PRATE,surface,-95.6254,30.7085,9e-05
2011-09-06 00:00:00,2011-09-06 00:00:00,PRATE,surface,-94.6879,30.7085,7.45e-05
2011-09-06 00:00:00,2011-09-06 00:00:00,PRATE,surface,-93.7504,30.7085,6.71e-05
2011-09-06 00:00:00,2011-09-06 00:00:00,PRATE,surface,-92.8129,30.7085,5.99e-05
2011-09-06 00:00:00,2011-09-06 00:00:00,PRATE,surface,-107.813,31.6534,0
2011-09-06 00:00:00,2011-09-06 00:00:00,PRATE,surface,-106.875,31.6534,1e-07
2011-09-06 00:00:00,2011-09-06 00:00:00,PRATE,surface,-105.938,31.6534,3e-07
2011-09-06 00:00:00,2011-09-06 00:00:00,PRATE,surface,-105,31.6534,1.6e-06
2011-09-06 00:00:00,2011-09-06 00:00:00,PRATE,surface,-104.063,31.6534,2.6e-06
2011-09-06 00:00:00,2011-09-06 00:00:00,PRATE,surface,-103.125,31.6534,1e-06
2011-09-06 00:00:00,2011-09-06 00:00:00,PRATE,surface,-102.188,31.6534,9e-07
2011-09-06 00:00:00,2011-09-06 00:00:00,PRATE,surface,-101.25,31.6534,1e-05
2011-09-06 00:00:00,2011-09-06 00:00:00,PRATE,surface,-100.313,31.6534,2.25e-05
2011-09-06 00:00:00,2011-09-06 00:00:00,PRATE,surface,-99.3754,31.6534,2.7e-05
2011-09-06 00:00:00,2011-09-06 00:00:00,PRATE,surface,-98.4379,31.6534,4.33e-05
2011-09-06 00:00:00,2011-09-06 00:00:00,PRATE,surface,-97.5004,31.6534,7.06e-05
2011-09-06 00:00:00,2011-09-06 00:00:00,PRATE,surface,-96.5629,31.6534,9.78e-05
2011-09-06 00:00:00,2011-09-06 00:00:00,PRATE,surface,-95.6254,31.6534,0.0001184
2011-09-06 00:00:00,2011-09-06 00:00:00,PRATE,surface,-94.6879,31.6534,0.0001272
2011-09-06 00:00:00,2011-09-06 00:00:00,PRATE,surface,-93.7504,31.6534,0.0001226
2011-09-06 00:00:00,2011-09-06 00:00:00,PRATE,surface,-92.8129,31.6534,9.71e-05
2011-09-06 00:00:00,2011-09-06 00:00:00,PRATE,surface,-107.813,32.5983,2.8e-06
2011-09-06 00:00:00,2011-09-06 00:00:00,PRATE,surface,-106.875,32.5983,2e-06
2011-09-06 00:00:00,2011-09-06 00:00:00,PRATE,surface,-105.938,32.5983,1.3e-06
2011-09-06 00:00:00,2011-09-06 00:00:00,PRATE,surface,-105,32.5983,2.3e-06
2011-09-06 00:00:00,2011-09-06 00:00:00,PRATE,surface,-104.063,32.5983,2.7e-06
2011-09-06 00:00:00,2011-09-06 00:00:00,PRATE,surface,-103.125,32.5983,7e-07
2011-09-06 00:00:00,2011-09-06 00:00:00,PRATE,surface,-102.188,32.5983,2.7e-06
2011-09-06 00:00:00,2011-09-06 00:00:00,PRATE,surface,-101.25,32.5983,8.4e-06
2011-09-06 00:00:00,2011-09-06 00:00:00,PRATE,surface,-100.313,32.5983,2.15e-05
2011-09-06 00:00:00,2011-09-06 00:00:00,PRATE,surface,-99.3754,32.5983,2.71e-05
2011-09-06 00:00:00,2011-09-06 00:00:00,PRATE,surface,-98.4379,32.5983,3.46e-05
2011-09-06 00:00:00,2011-09-06 00:00:00,PRATE,surface,-97.5004,32.5983,5.01e-05
2011-09-06 00:00:00,2011-09-06 00:00:00,PRATE,surface,-96.5629,32.5983,7.92e-05
2011-09-06 00:00:00,2011-09-06 00:00:00,PRATE,surface,-95.6254,32.5983,0.0001167
2011-09-06 00:00:00,2011-09-06 00:00:00,PRATE,surface,-94.6879,32.5983,0.0001398
2011-09-06 00:00:00,2011-09-06 00:00:00,PRATE,surface,-93.7504,32.5983,0.0001351
2011-09-06 00:00:00,2011-09-06 00:00:00,PRATE,surface,-92.8129,32.5983,0.0001036
2011-09-06 00:00:00,2011-09-06 00:00:00,PRATE,surface,-107.813,33.5432,1.55e-05
2011-09-06 00:00:00,2011-09-06 00:00:00,PRATE,surface,-106.875,33.5432,1.43e-05
2011-09-06 00:00:00,2011-09-06 00:00:00,PRATE,surface,-105.938,33.5432,1.04e-05
2011-09-06 00:00:00,2011-09-06 00:00:00,PRATE,surface,-105,33.5432,8e-06
2011-09-06 00:00:00,2011-09-06 00:00:00,PRATE,surface,-104.063,33.5432,4.5e-06
2011-09-06 00:00:00,2011-09-06 00:00:00,PRATE,surface,-103.125,33.5432,2.2e-06
2011-09-06 00:00:00,2011-09-06 00:00:00,PRATE,surface,-102.188,33.5432,5.4e-06
2011-09-06 00:00:00,2011-09-06 00:00:00,PRATE,surface,-101.25,33.5432,1.01e-05
2011-09-06 00:00:00,2011-09-06 00:00:00,PRATE,surface,-100.313,33.5432,2.27e-05
2011-09-06 00:00:00,2011-09-06 00:00:00,PRATE,surface,-99.3754,33.5432,3e-05
2011-09-06 00:00:00,2011-09-06 00:00:00,PRATE,surface,-98.4379,33.5432,4.17e-05
2011-09-06 00:00:00,2011-09-06 00:00:00,PRATE,surface,-97.5004,33.5432,5.86e-05
2011-09-06 00:00:00,2011-09-06 00:00:00,PRATE,surface,-96.5629,33.5432,7.4e-05
2011-09-06 00:00:00,2011-09-06 00:00:00,PRATE,surface,-95.6254,33.5432,9.01e-05
2011-09-06 00:00:00,2011-09-06 00:00:00,PRATE,surface,-94.6879,33.5432,0.000113
2011-09-06 00:00:00,2011-09-06 00:00:00,PRATE,surface,-93.7504,33.5432,0.0001396
2011-09-06 00:00:00,2011-09-06 00:00:00,PRATE,surface,-92.8129,33.5432,0.0001446
2011-09-06 00:00:00,2011-09-06 00:00:00,PRATE,surface,-107.813,34.4881,2.25e-05
2011-09-06 00:00:00,2011-09-06 00:00:00,PRATE,surface,-106.875,34.4881,2.21e-05
2011-09-06 00:00:00,2011-09-06 00:00:00,PRATE,surface,-105.938,34.4881,1.94e-05
2011-09-06 00:00:00,2011-09-06 00:00:00,PRATE,surface,-105,34.4881,1.79e-05
2011-09-06 00:00:00,2011-09-06 00:00:00,PRATE,surface,-104.063,34.4881,1.22e-05
2011-09-06 00:00:00,2011-09-06 00:00:00,PRATE,surface,-103.125,34.4881,8.6e-06
2011-09-06 00:00:00,2011-09-06 00:00:00,PRATE,surface,-102.188,34.4881,1.03e-05
2011-09-06 00:00:00,2011-09-06 00:00:00,PRATE,surface,-101.25,34.4881,1.84e-05
2011-09-06 00:00:00,2011-09-06 00:00:00,PRATE,surface,-100.313,34.4881,3.16e-05
2011-09-06 00:00:00,2011-09-06 00:00:00,PRATE,surface,-99.3754,34.4881,3.85e-05
2011-09-06 00:00:00,2011-09-06 00:00:00,PRATE,surface,-98.4379,34.4881,4.87e-05
2011-09-06 00:00:00,2011-09-06 00:00:00,PRATE,surface,-97.5004,34.4881,6.09e-05
2011-09-06 00:00:00,2011-09-06 00:00:00,PRATE,surface,-96.5629,34.4881,6.79e-05
2011-09-06 00:00:00,2011-09-06 00:00:00,PRATE,surface,-95.6254,34.4881,7.74e-05
2011-09-06 00:00:00,2011-09-06 00:00:00,PRATE,surface,-94.6879,34.4881,9.64e-05
2011-09-06 00:00:00,2011-09-06 00:00:00,PRATE,surface,-93.7504,34.4881,0.0001195
2011-09-06 00:00:00,2011-09-06 00:00:00,PRATE,surface,-92.8129,34.4881,0.0001398
2011-09-06 00:00:00,2011-09-06 00:00:00,PRATE,surface,-107.813,35.4329,1.37e-05
2011-09-06 00:00:00,2011-09-06 00:00:00,PRATE,surface,-106.875,35.4329,1.47e-05
2011-09-06 00:00:00,2011-09-06 00:00:00,PRATE,surface,-105.938,35.4329,1.65e-05
2011-09-06 00:00:00,2011-09-06 00:00:00,PRATE,surface,-105,35.4329,2.03e-05
2011-09-06 00:00:00,2011-09-06 00:00:00,PRATE,surface,-104.063,35.4329,2.11e-05
2011-09-06 00:00:00,2011-09-06 00:00:00,PRATE,surface,-103.125,35.4329,2.2e-05
2011-09-06 00:00:00,2011-09-06 00:00:00,PRATE,surface,-102.188,35.4329,3.19e-05
2011-09-06 00:00:00,2011-09-06 00:00:00,PRATE,surface,-101.25,35.4329,4.69e-05
2011-09-06 00:00:00,2011-09-06 00:00:00,PRATE,surface,-100.313,35.4329,6.52e-05
2011-09-06 00:00:00,2011-09-06 00:00:00,PRATE,surface,-99.3754,35.4329,7e-05
2011-09-06 00:00:00,2011-09-06 00:00:00,PRATE,surface,-98.4379,35.4329,6.35e-05
2011-09-06 00:00:00,2011-09-06 00:00:00,PRATE,surface,-97.5004,35.4329,6.04e-05
2011-09-06 00:00:00,2011-09-06 00:00:00,PRATE,surface,-96.5629,35.4329,6.22e-05
2011-09-06 00:00:00,2011-09-06 00:00:00,PRATE,surface,-95.6254,35.4329,6.9e-05
2011-09-06 00:00:00,2011-09-06 00:00:00,PRATE,surface,-94.6879,35.4329,8.55e-05
2011-09-06 00:00:00,2011-09-06 00:00:00,PRATE,surface,-93.7504,35.4329,9.78e-05
2011-09-06 00:00:00,2011-09-06 00:00:00,PRATE,surface,-92.8129,35.4329,8.92e-05
2011-09-06 00:00:00,2011-09-06 00:00:00,PRATE,surface,-107.813,36.3778,1.35e-05
2011-09-06 00:00:00,2011-09-06 00:00:00,PRATE,surface,-106.875,36.3778,2.01e-05
2011-09-06 00:00:00,2011-09-06 00:00:00,PRATE,surface,-105.938,36.3778,3.02e-05
2011-09-06 00:00:00,2011-09-06 00:00:00,PRATE,surface,-105,36.3778,3.39e-05
2011-09-06 00:00:00,2011-09-06 00:00:00,PRATE,surface,-104.063,36.3778,3.59e-05
2011-09-06 00:00:00,2011-09-06 00:00:00,PRATE,surface,-103.125,36.3778,3.82e-05
2011-09-06 00:00:00,2011-09-06 00:00:00,PRATE,surface,-102.188,36.3778,3.72e-05
2011-09-06 00:00:00,2011-09-06 00:00:00,PRATE,surface,-101.25,36.3778,4.46e-05
2011-09-06 00:00:00,2011-09-06 00:00:00,PRATE,surface,-100.313,36.3778,6.52e-05
2011-09-06 00:00:00,2011-09-06 00:00:00,PRATE,surface,-99.3754,36.3778,6.67e-05
2011-09-06 00:00:00,2011-09-06 00:00:00,PRATE,surface,-98.4379,36.3778,5.9e-05
2011-09-06 00:00:00,2011-09-06 00:00:00,PRATE,surface,-97.5004,36.3778,5.62e-05
2011-09-06 00:00:00,2011-09-06 00:00:00,PRATE,surface,-96.5629,36.3778,5.34e-05
2011-09-06 00:00:00,2011-09-06 00:00:00,PRATE,surface,-95.6254,36.3778,5.04e-05
2011-09-06 00:00:00,2011-09-06 00:00:00,PRATE,surface,-94.6879,36.3778,5.68e-05
2011-09-06 00:00:00,2011-09-06 00:00:00,PRATE,surface,-93.7504,36.3778,7.05e-05
2011-09-06 00:00:00,2011-09-06 00:00:00,PRATE,surface,-92.8129,36.3778,7.57e-05
