2014-03-12 00:00:00,2014-03-12 00:00:00,TMP,surface,-107.813,25.0393,296.238
2014-03-12 00:00:00,2014-03-12 00:00:00,TMP,surface,-106.875,25.0393,289.097
2014-03-12 00:00:00,2014-03-12 00:00:00,TMP,surface,-105.938,25.0393,284.094
2014-03-12 00:00:00,2014-03-12 00:00:00,TMP,surface,-105,25.0393,282.769
2014-03-12 00:00:00,2014-03-12 00:00:00,TMP,surface,-104.063,25.0393,286.318
2014-03-12 00:00:00,2014-03-12 00:00:00,TMP,surface,-103.125,25.0393,288.729
2014-03-12 00:00:00,2014-03-12 00:00:00,TMP,surface,-102.188,25.0393,288.681
2014-03-12 00:00:00,2014-03-12 00:00:00,TMP,surface,-101.25,25.0393,286.878
2014-03-12 00:00:00,2014-03-12 00:00:00,TMP,surface,-100.313,25.0393,287.067
2014-03-12 00:00:00,2014-03-12 00:00:00,TMP,surface,-99.3754,25.0393,289.753
2014-03-12 00:00:00,2014-03-12 00:00:00,TMP,surface,-98.4379,25.0393,293.069
2014-03-12 00:00:00,2014-03-12 00:00:00,TMP,surface,-97.5004,25.0393,297.95
2014-03-12 00:00:00,2014-03-12 00:00:00,TMP,surface,-96.5629,25.0393,298.216
2014-03-12 00:00:00,2014-03-12 00:00:00,TMP,surface,-95.6254,25.0393,298.566
2014-03-12 00:00:00,2014-03-12 00:00:00,TMP,surface,-94.6879,25.0393,299.001
2014-03-12 00:00:00,2014-03-12 00:00:00,TMP,surface,-93.7504,25.0393,299.054
2014-03-12 00:00:00,2014-03-12 00:00:00,TMP,surface,-92.8129,25.0393,298.945
2014-03-12 00:00:00,2014-03-12 00:00:00,TMP,surface,-107.813,25.9842,290.128
2014-03-12 00:00:00,2014-03-12 00:00:00,TMP,surface,-106.875,25.9842,284.739
2014-03-12 00:00:00,2014-03-12 00:00:00,TMP,surface,-105.938,25.9842,282.609
2014-03-12 00:00:00,2014-03-12 00:00:00,TMP,surface,-105,25.9842,284.547
2014-03-12 00:00:00,2014-03-12 00:00:00,TMP,surface,-104.063,25.9842,288.016
2014-03-12 00:00:00,2014-03-12 00:00:00,TMP,surface,-103.125,25.9842,289.344
2014-03-12 00:00:00,2014-03-12 00:00:00,TMP,surface,-102.188,25.9842,288.99
2014-03-12 00:00:00,2014-03-12 00:00:00,TMP,surface,-101.25,25.9842,287.875
2014-03-12 00:00:00,2014-03-12 00:00:00,TMP,surface,-100.313,25.9842,288.091
2014-03-12 00:00:00,2014-03-12 00:00:00,TMP,surface,-99.3754,25.9842,290.627
2014-03-12 00:00:00,2014-03-12 00:00:00,TMP,surface,-98.4379,25.9842,292.785
2014-03-12 00:00:00,2014-03-12 00:00:00,TMP,surface,-97.5004,25.9842,294.313
2014-03-12 00:00:00,2014-03-12 00:00:00,TMP,surface,-96.5629,25.9842,297.469
2014-03-12 00:00:00,2014-03-12 00:00:00,TMP,surface,-95.6254,25.9842,297.883
2014-03-12 00:00:00,2014-03-12 00:00:00,TMP,surface,-94.6879,25.9842,298.078
2014-03-12 00:00:00,2014-03-12 00:00:00,TMP,surface,-93.7504,25.9842,297.905
2014-03-12 00:00:00,2014-03-12 00:00:00,TMP,surface,-92.8129,25.9842,298.027
2014-03-12 00:00:00,2014-03-12 00:00:00,TMP,surface,-107.813,26.929,285.336
2014-03-12 00:00:00,2014-03-12 00:00:00,TMP,surface,-106.875,26.929,281.974
2014-03-12 00:00:00,2014-03-12 00:00:00,TMP,surface,-105.938,26.929,283.665
2014-03-12 00:00:00,2014-03-12 00:00:00,TMP,surface,-105,26.929,286.489
2014-03-12 00:00:00,2014-03-12 00:00:00,TMP,surface,-104.063,26.929,287.979
2014-03-12 00:00:00,2014-03-12 00:00:00,TMP,surface,-103.125,26.929,287.66
2014-03-12 00:00:00,2014-03-12 00:00:00,TMP,surface,-102.188,26.929,287.321
2014-03-12 00:00:00,2014-03-12 00:00:00,TMP,surface,-101.25,26.929,287.884
2014-03-12 00:00:00,2014-03-12 00:00:00,TMP,surface,-100.313,26.929,289.16
2014-03-12 00:00:00,2014-03-12 00:00:00,TMP,surface,-99.3754,26.929,290.651
2014-03-12 00:00:00,2014-03-12 00:00:00,TMP,surface,-98.4379,26.929,291.22
2014-03-12 00:00:00,2014-03-12 00:00:00,TMP,surface,-97.5004,26.929,296.365
2014-03-12 00:00:00,2014-03-12 00:00:00,TMP,surface,-96.5629,26.929,296.824
2014-03-12 00:00:00,2014-03-12 00:00:00,TMP,surface,-95.6254,26.929,297.097
2014-03-12 00:00:00,2014-03-12 00:00:00,TMP,surface,-94.6879,26.929,297.268
2014-03-12 00:00:00,2014-03-12 00:00:00,TMP,surface,-93.7504,26.929,297.169
2014-03-12 00:00:00,2014-03-12 00:00:00,TMP,surface,-92.8129,26.929,297.315
2014-03-12 00:00:00,2014-03-12 00:00:00,TMP,surface,-107.813,27.8739,282.245
2014-03-12 00:00:00,2014-03-12 00:00:00,TMP,surface,-106.875,27.8739,281.35
2014-03-12 00:00:00,2014-03-12 00:00:00,TMP,surface,-105.938,27.8739,284.521
2014-03-12 00:00:00,2014-03-12 00:00:00,TMP,surface,-105,27.8739,287.038
2014-03-12 00:00:00,2014-03-12 00:00:00,TMP,surface,-104.063,27.8739,287.092
2014-03-12 00:00:00,2014-03-12 00:00:00,TMP,surface,-103.125,27.8739,286.067
2014-03-12 00:00:00,2014-03-12 00:00:00,TMP,surface,-102.188,27.8739,286.017
2014-03-12 00:00:00,2014-03-12 00:00:00,TMP,surface,-101.25,27.8739,287.323
2014-03-12 00:00:00,2014-03-12 00:00:00,TMP,surface,-100.313,27.8739,288.836
2014-03-12 00:00:00,2014-03-12 00:00:00,TMP,surface,-99.3754,27.8739,289.414
2014-03-12 00:00:00,2014-03-12 00:00:00,TMP,surface,-98.4379,27.8739,289.686
2014-03-12 00:00:00,2014-03-12 00:00:00,TMP,surface,-97.5004,27.8739,293.438
2014-03-12 00:00:00,2014-03-12 00:00:00,TMP,surface,-96.5629,27.8739,297.115
2014-03-12 00:00:00,2014-03-12 00:00:00,TMP,surface,-95.6254,27.8739,297.067
2014-03-12 00:00:00,2014-03-12 00:00:00,TMP,surface,-94.6879,27.8739,296.729
2014-03-12 00:00:00,2014-03-12 00:00:00,TMP,surface,-93.7504,27.8739,296.66
2014-03-12 00:00:00,2014-03-12 00:00:00,TMP,surface,-92.8129,27.8739,296.785
2014-03-12 00:00:00,2014-03-12 00:00:00,TMP,surface,-107.813,28.8188,281.006
2014-03-12 00:00:00,2014-03-12 00:00:00,TMP,surface,-106.875,28.8188,281.656
2014-03-12 00:00:00,2014-03-12 00:00:00,TMP,surface,-105.938,28.8188,284.811
2014-03-12 00:00:00,2014-03-12 00:00:00,TMP,surface,-105,28.8188,286.512
2014-03-12 00:00:00,2014-03-12 00:00:00,TMP,surface,-104.063,28.8188,285.582
2014-03-12 00:00:00,2014-03-12 00:00:00,TMP,surface,-103.125,28.8188,284.875
2014-03-12 00:00:00,2014-03-12 00:00:00,TMP,surface,-102.188,28.8188,285.365
2014-03-12 00:00:00,2014-03-12 00:00:00,TMP,surface,-101.25,28.8188,286.766
2014-03-12 00:00:00,2014-03-12 00:00:00,TMP,surface,-100.313,28.8188,287.424
2014-03-12 00:00:00,2014-03-12 00:00:00,TMP,surface,-99.3754,28.8188,287.288
2014-03-12 00:00:00,2014-03-12 00:00:00,TMP,surface,-98.4379,28.8188,287.417
2014-03-12 00:00:00,2014-03-12 00:00:00,TMP,surface,-97.5004,28.8188,288.272
2014-03-12 00:00:00,2014-03-12 00:00:00,TMP,surface,-96.5629,28.8188,289.443
2014-03-12 00:00:00,2014-03-12 00:00:00,TMP,surface,-95.6254,28.8188,292.491
2014-03-12 00:00:00,2014-03-12 00:00:00,TMP,surface,-94.6879,28.8188,296.372
2014-03-12 00:00:00,2014-03-12 00:00:00,TMP,surface,-93.7504,28.8188,296.286
2014-03-12 00:00:00,2014-03-12 00:00:00,TMP,surface,-92.8129,28.8188,296.446
2014-03-12 00:00:00,2014-03-12 00:00:00,TMP,surface,-107.813,29.7637,281.88
2014-03-12 00:00:00,2014-03-12 00:00:00,TMP,surface,-106.875,29.7637,282.845
2014-03-12 00:00:00,2014-03-12 00:00:00,TMP,surface,-105.938,29.7637,284.841
2014-03-12 00:00:00,2014-03-12 00:00:00,TMP,surface,-105,29.7637,284.828
2014-03-12 00:00:00,2014-03-12 00:00:00,TMP,surface,-104.063,29.7637,284.446
2014-03-12 00:00:00,2014-03-12 00:00:00,TMP,surface,-103.125,29.7637,284.805
2014-03-12 00:00:00,2014-03-12 00:00:00,TMP,surface,-102.188,29.7637,285.696
2014-03-12 00:00:00,2014-03-12 00:00:00,TMP,surface,-101.25,29.7637,286.112
2014-03-12 00:00:00,2014-03-12 00:00:00,TMP,surface,-100.313,29.7637,285.693
2014-03-12 00:00:00,2014-03-12 00:00:00,TMP,surface,-99.3754,29.7637,285.296
2014-03-12 00:00:00,2014-03-12 00:00:00,TMP,surface,-98.4379,29.7637,285.451
2014-03-12 00:00:00,2014-03-12 00:00:00,TMP,surface,-97.5004,29.7637,286.004
2014-03-12 00:00:00,2014-03-12 00:00:00,TMP,surface,-96.5629,29.7637,286.646
2014-03-12 00:00:00,2014-03-12 00:00:00,TMP,surface,-95.6254,29.7637,287.419
2014-03-12 00:00:00,2014-03-12 00:00:00,TMP,surface,-94.6879,29.7637,290.526
2014-03-12 00:00:00,2014-03-12 00:00:00,TMP,surface,-93.7504,29.7637,294.19
2014-03-12 00:00:00,2014-03-12 00:00:00,TMP,surface,-92.8129,29.7637,288.924
2014-03-12 00:00:00,2014-03-12 00:00:00,TMP,surface,-107.813,30.7085,283.539
2014-03-12 00:00:00,2014-03-12 00:00:00,TMP,surface,-106.875,30.7085,284.414
2014-03-12 00:00:00,2014-03-12 00:00:00,TMP,surface,-105.938,30.7085,284.182
2014-03-12 00:00:00,2014-03-12 00:00:00,TMP,surface,-105,30.7085,283.185
2014-03-12 00:00:00,2014-03-12 00:00:00,TMP,surface,-104.063,30.7085,283.099
2014-03-12 00:00:00,2014-03-12 00:00:00,TMP,surface,-103.125,30.7085,284.179
2014-03-12 00:00:00,2014-03-12 00:00:00,TMP,surface,-102.188,30.7085,285.038
2014-03-12 00:00:00,2014-03-12 00:00:00,TMP,surface,-101.25,30.7085,284.835
2014-03-12 00:00:00,2014-03-12 00:00:00,TMP,surface,-100.313,30.7085,284.316
2014-03-12 00:00:00,2014-03-12 00:00:00,TMP,surface,-99.3754,30.7085,284.108
2014-03-12 00:00:00,2014-03-12 00:00:00,TMP,surface,-98.4379,30.7085,284.44
2014-03-12 00:00:00,2014-03-12 00:00:00,TMP,surface,-97.5004,30.7085,284.864
2014-03-12 00:00:00,2014-03-12 00:00:00,TMP,surface,-96.5629,30.7085,284.996
2014-03-12 00:00:00,2014-03-12 00:00:00,TMP,surface,-95.6254,30.7085,285.059
2014-03-12 00:00:00,2014-03-12 00:00:00,TMP,surface,-94.6879,30.7085,285.289
2014-03-12 00:00:00,2014-03-12 00:00:00,TMP,surface,-93.7504,30.7085,285.467
2014-03-12 00:00:00,2014-03-12 00:00:00,TMP,surface,-92.8129,30.7085,285.469
2014-03-12 00:00:00,2014-03-12 00:00:00,TMP,surface,-107.813,31.6534,283.116
2014-03-12 00:00:00,2014-03-12 00:00:00,TMP,surface,-106.875,31.6534,283.641
2014-03-12 00:00:00,2014-03-12 00:00:00,TMP,surface,-105.938,31.6534,282.486
2014-03-12 00:00:00,2014-03-12 00:00:00,TMP,surface,-105,31.6534,281.909
2014-03-12 00:00:00,2014-03-12 00:00:00,TMP,surface,-104.063,31.6534,282.424
2014-03-12 00:00:00,2014-03-12 00:00:00,TMP,surface,-103.125,31.6534,283.64
2014-03-12 00:00:00,2014-03-12 00:00:00,TMP,surface,-102.188,31.6534,284.198
2014-03-12 00:00:00,2014-03-12 00:00:00,TMP,surface,-101.25,31.6534,283.955
2014-03-12 00:00:00,2014-03-12 00:00:00,TMP,surface,-100.313,31.6534,283.721
2014-03-12 00:00:00,2014-03-12 00:00:00,TMP,surface,-99.3754,31.6534,283.816
2014-03-12 00:00:00,2014-03-12 00:00:00,TMP,surface,-98.4379,31.6534,284.06
2014-03-12 00:00:00,2014-03-12 00:00:00,TMP,surface,-97.5004,31.6534,284.176
2014-03-12 00:00:00,2014-03-12 00:00:00,TMP,surface,-96.5629,31.6534,284.059
2014-03-12 00:00:00,2014-03-12 00:00:00,TMP,surface,-95.6254,31.6534,283.771
2014-03-12 00:00:00,2014-03-12 00:00:00,TMP,surface,-94.6879,31.6534,283.5
2014-03-12 00:00:00,2014-03-12 00:00:00,TMP,surface,-93.7504,31.6534,283.453
2014-03-12 00:00:00,2014-03-12 00:00:00,TMP,surface,-92.8129,31.6534,283.633
2014-03-12 00:00:00,2014-03-12 00:00:00,TMP,surface,-107.813,32.5983,280.262
2014-03-12 00:00:00,2014-03-12 00:00:00,TMP,surface,-106.875,32.5983,280.464
2014-03-12 00:00:00,2014-03-12 00:00:00,TMP,surface,-105.938,32.5983,280.509
2014-03-12 00:00:00,2014-03-12 00:00:00,TMP,surface,-105,32.5983,280.685
2014-03-12 00:00:00,2014-03-12 00:00:00,TMP,surface,-104.063,32.5983,282.104
2014-03-12 00:00:00,2014-03-12 00:00:00,TMP,surface,-103.125,32.5983,283.16
2014-03-12 00:00:00,2014-03-12 00:00:00,TMP,surface,-102.188,32.5983,283.432
2014-03-12 00:00:00,2014-03-12 00:00:00,TMP,surface,-101.25,32.5983,283.387
2014-03-12 00:00:00,2014-03-12 00:00:00,TMP,surface,-100.313,32.5983,283.484
2014-03-12 00:00:00,2014-03-12 00:00:00,TMP,surface,-99.3754,32.5983,283.654
2014-03-12 00:00:00,2014-03-12 00:00:00,TMP,surface,-98.4379,32.5983,283.641
2014-03-12 00:00:00,2014-03-12 00:00:00,TMP,surface,-97.5004,32.5983,283.517
2014-03-12 00:00:00,2014-03-12 00:00:00,TMP,surface,-96.5629,32.5983,283.331
2014-03-12 00:00:00,2014-03-12 00:00:00,TMP,surface,-95.6254,32.5983,283.032
2014-03-12 00:00:00,2014-03-12 00:00:00,TMP,surface,-94.6879,32.5983,282.724
2014-03-12 00:00:00,2014-03-12 00:00:00,TMP,surface,-93.7504,32.5983,282.646
2014-03-12 00:00:00,2014-03-12 00:00:00,TMP,surface,-92.8129,32.5983,282.984
2014-03-12 00:00:00,2014-03-12 00:00:00,TMP,surface,-107.813,33.5432,276.91
2014-03-12 00:00:00,2014-03-12 00:00:00,TMP,surface,-106.875,33.5432,277.91
2014-03-12 00:00:00,2014-03-12 00:00:00,TMP,surface,-105.938,33.5432,278.814
2014-03-12 00:00:00,2014-03-12 00:00:00,TMP,surface,-105,33.5432,279.934
2014-03-12 00:00:00,2014-03-12 00:00:00,TMP,surface,-104.063,33.5432,281.585
2014-03-12 00:00:00,2014-03-12 00:00:00,TMP,surface,-103.125,33.5432,282.443
2014-03-12 00:00:00,2014-03-12 00:00:00,TMP,surface,-102.188,33.5432,282.576
2014-03-12 00:00:00,2014-03-12 00:00:00,TMP,surface,-101.25,33.5432,282.668
2014-03-12 00:00:00,2014-03-12 00:00:00,TMP,surface,-100.313,33.5432,282.945
2014-03-12 00:00:00,2014-03-12 00:00:00,TMP,surface,-99.3754,33.5432,283.06
2014-03-12 00:00:00,2014-03-12 00:00:00,TMP,surface,-98.4379,33.5432,282.854
2014-03-12 00:00:00,2014-03-12 00:00:00,TMP,surface,-97.5004,33.5432,282.496
2014-03-12 00:00:00,2014-03-12 00:00:00,TMP,surface,-96.5629,33.5432,282.241
2014-03-12 00:00:00,2014-03-12 00:00:00,TMP,surface,-95.6254,33.5432,282.105
2014-03-12 00:00:00,2014-03-12 00:00:00,TMP,surface,-94.6879,33.5432,281.945
2014-03-12 00:00:00,2014-03-12 00:00:00,TMP,surface,-93.7504,33.5432,281.862
2014-03-12 00:00:00,2014-03-12 00:00:00,TMP,surface,-92.8129,33.5432,282.057
2014-03-12 00:00:00,2014-03-12 00:00:00,TMP,surface,-107.813,34.4881,275.409
2014-03-12 00:00:00,2014-03-12 00:00:00,TMP,surface,-106.875,34.4881,276.715
2014-03-12 00:00:00,2014-03-12 00:00:00,TMP,surface,-105.938,34.4881,277.724
2014-03-12 00:00:00,2014-03-12 00:00:00,TMP,surface,-105,34.4881,279.121
2014-03-12 00:00:00,2014-03-12 00:00:00,TMP,surface,-104.063,34.4881,280.385
2014-03-12 00:00:00,2014-03-12 00:00:00,TMP,surface,-103.125,34.4881,281.222
2014-03-12 00:00:00,2014-03-12 00:00:00,TMP,surface,-102.188,34.4881,281.513
2014-03-12 00:00:00,2014-03-12 00:00:00,TMP,surface,-101.25,34.4881,281.707
2014-03-12 00:00:00,2014-03-12 00:00:00,TMP,surface,-100.313,34.4881,281.921
2014-03-12 00:00:00,2014-03-12 00:00:00,TMP,surface,-99.3754,34.4881,281.958
2014-03-12 00:00:00,2014-03-12 00:00:00,TMP,surface,-98.4379,34.4881,281.739
2014-03-12 00:00:00,2014-03-12 00:00:00,TMP,surface,-97.5004,34.4881,281.461
2014-03-12 00:00:00,2014-03-12 00:00:00,TMP,surface,-96.5629,34.4881,281.31
2014-03-12 00:00:00,2014-03-12 00:00:00,TMP,surface,-95.6254,34.4881,281.108
2014-03-12 00:00:00,2014-03-12 00:00:00,TMP,surface,-94.6879,34.4881,280.694
2014-03-12 00:00:00,2014-03-12 00:00:00,TMP,surface,-93.7504,34.4881,280.448
2014-03-12 00:00:00,2014-03-12 00:00:00,TMP,surface,-92.8129,34.4881,280.708
2014-03-12 00:00:00,2014-03-12 00:00:00,TMP,surface,-107.813,35.4329,275.451
2014-03-12 00:00:00,2014-03-12 00:00:00,TMP,surface,-106.875,35.4329,275.849
2014-03-12 00:00:00,2014-03-12 00:00:00,TMP,surface,-105.938,35.4329,276.336
2014-03-12 00:00:00,2014-03-12 00:00:00,TMP,surface,-105,35.4329,277.499
2014-03-12 00:00:00,2014-03-12 00:00:00,TMP,surface,-104.063,35.4329,279.536
2014-03-12 00:00:00,2014-03-12 00:00:00,TMP,surface,-103.125,35.4329,280.66
2014-03-12 00:00:00,2014-03-12 00:00:00,TMP,surface,-102.188,35.4329,280.744
2014-03-12 00:00:00,2014-03-12 00:00:00,TMP,surface,-101.25,35.4329,280.724
2014-03-12 00:00:00,2014-03-12 00:00:00,TMP,surface,-100.313,35.4329,280.808
2014-03-12 00:00:00,2014-03-12 00:00:00,TMP,surface,-99.3754,35.4329,280.736
2014-03-12 00:00:00,2014-03-12 00:00:00,TMP,surface,-98.4379,35.4329,280.611
2014-03-12 00:00:00,2014-03-12 00:00:00,TMP,surface,-97.5004,35.4329,280.728
2014-03-12 00:00:00,2014-03-12 00:00:00,TMP,surface,-96.5629,35.4329,280.848
2014-03-12 00:00:00,2014-03-12 00:00:00,TMP,surface,-95.6254,35.4329,280.548
2014-03-12 00:00:00,2014-03-12 00:00:00,TMP,surface,-94.6879,35.4329,279.915
2014-03-12 00:00:00,2014-03-12 00:00:00,TMP,surface,-93.7504,35.4329,279.357
2014-03-12 00:00:00,2014-03-12 00:00:00,TMP,surface,-92.8129,35.4329,279.315
2014-03-12 00:00:00,2014-03-12 00:00:00,TMP,surface,-107.813,36.3778,275.014
2014-03-12 00:00:00,2014-03-12 00:00:00,TMP,surface,-106.875,36.3778,273.673
2014-03-12 00:00:00,2014-03-12 00:00:00,TMP,surface,-105.938,36.3778,273.932
2014-03-12 00:00:00,2014-03-12 00:00:00,TMP,surface,-105,36.3778,275.691
2014-03-12 00:00:00,2014-03-12 00:00:00,TMP,surface,-104.063,36.3778,277.987
2014-03-12 00:00:00,2014-03-12 00:00:00,TMP,surface,-103.125,36.3778,279.184
2014-03-12 00:00:00,2014-03-12 00:00:00,TMP,surface,-102.188,36.3778,279.701
2014-03-12 00:00:00,2014-03-12 00:00:00,TMP,surface,-101.25,36.3778,279.958
2014-03-12 00:00:00,2014-03-12 00:00:00,TMP,surface,-100.313,36.3778,280.299
2014-03-12 00:00:00,2014-03-12 00:00:00,TMP,surface,-99.3754,36.3778,280.365
2014-03-12 00:00:00,2014-03-12 00:00:00,TMP,surface,-98.4379,36.3778,280.041
2014-03-12 00:00:00,2014-03-12 00:00:00,TMP,surface,-97.5004,36.3778,280.036
2014-03-12 00:00:00,2014-03-12 00:00:00,TMP,surface,-96.5629,36.3778,280.26
2014-03-12 00:00:00,2014-03-12 00:00:00,TMP,surface,-95.6254,36.3778,280.017
2014-03-12 00:00:00,2014-03-12 00:00:00,TMP,surface,-94.6879,36.3778,279.283
2014-03-12 00:00:00,2014-03-12 00:00:00,TMP,surface,-93.7504,36.3778,278.496
2014-03-12 00:00:00,2014-03-12 00:00:00,TMP,surface,-92.8129,36.3778,278.316
2014-03-12 00:00:00,2014-03-12 00:00:00,PRATE,surface,-107.813,25.0393,4.9e-06
2014-03-12 00:00:00,2014-03-12 00:00:00,PRATE,surface,-106.875,25.0393,2.61e-05
2014-03-12 00:00:00,2014-03-12 00:00:00,PRATE,surface,-105.938,25.0393,4.36e-05
2014-03-12 00:00:00,2014-03-12 00:00:00,PRATE,surface,-105,25.0393,4.79e-05
2014-03-12 00:00:00,2014-03-12 00:00:00,PRATE,surface,-104.063,25.0393,2.65e-05
2014-03-12 00:00:00,2014-03-12 00:00:00,PRATE,surface,-103.125,25.0393,6.2e-06
2014-03-12 00:00:00,2014-03-12 00:00:00,PRATE,surface,-102.188,25.0393,5.4e-06
2014-03-12 00:00:00,2014-03-12 00:00:00,PRATE,surface,-101.25,25.0393,1.6e-05
2014-03-12 00:00:00,2014-03-12 00:00:00,PRATE,surface,-100.313,25.0393,2.84e-05
2014-03-12 00:00:00,2014-03-12 00:00:00,PRATE,surface,-99.3754,25.0393,2.89e-05
2014-03-12 00:00:00,2014-03-12 00:00:00,PRATE,surface,-98.4379,25.0393,2.07e-05
2014-03-12 00:00:00,2014-03-12 00:00:00,PRATE,surface,-97.5004,25.0393,2.75e-05
2014-03-12 00:00:00,2014-03-12 00:00:00,PRATE,surface,-96.5629,25.0393,4.92e-05
2014-03-12 00:00:00,2014-03-12 00:00:00,PRATE,surface,-95.6254,25.0393,6.1e-05
2014-03-12 00:00:00,2014-03-12 00:00:00,PRATE,surface,-94.6879,25.0393,4.74e-05
2014-03-12 00:00:00,2014-03-12 00:00:00,PRATE,surface,-93.7504,25.0393,4.13e-05
2014-03-12 00:00:00,2014-03-12 00:00:00,PRATE,surface,-92.8129,25.0393,3.7e-05
2014-03-12 00:00:00,2014-03-12 00:00:00,PRATE,surface,-107.813,25.9842,1.21e-05
2014-03-12 00:00:00,2014-03-12 00:00:00,PRATE,surface,-106.875,25.9842,1.36e-05
2014-03-12 00:00:00,2014-03-12 00:00:00,PRATE,surface,-105.938,25.9842,2.31e-05
2014-03-12 00:00:00,2014-03-12 00:00:00,PRATE,surface,-105,25.9842,3.62e-05
2014-03-12 00:00:00,2014-03-12 00:00:00,PRATE,surface,-104.063,25.9842,3.22e-05
2014-03-12 00:00:00,2014-03-12 00:00:00,PRATE,surface,-103.125,25.9842,1.76e-05
2014-03-12 00:00:00,2014-03-12 00:00:00,PRATE,surface,-102.188,25.9842,1.17e-05
2014-03-12 00:00:00,2014-03-12 00:00:00,PRATE,surface,-101.25,25.9842,2.18e-05
2014-03-12 00:00:00,2014-03-12 00:00:00,PRATE,surface,-100.313,25.9842,3.15e-05
2014-03-12 00:00:00,2014-03-12 00:00:00,PRATE,surface,-99.3754,25.9842,2.24e-05
2014-03-12 00:00:00,2014-03-12 00:00:00,PRATE,surface,-98.4379,25.9842,2.58e-05
2014-03-12 00:00:00,2014-03-12 00:00:00,PRATE,surface,-97.5004,25.9842,4.5e-05
2014-03-12 00:00:00,2014-03-12 00:00:00,PRATE,surface,-96.5629,25.9842,4.87e-05
2014-03-12 00:00:00,2014-03-12 00:00:00,PRATE,surface,-95.6254,25.9842,7.01e-05
2014-03-12 00:00:00,2014-03-12 00:00:00,PRATE,surface,-94.6879,25.9842,5.41e-05
2014-03-12 00:00:00,2014-03-12 00:00:00,PRATE,surface,-93.7504,25.9842,5.31e-05
2014-03-12 00:00:00,2014-03-12 00:00:00,PRATE,surface,-92.8129,25.9842,5.29e-05
2014-03-12 00:00:00,2014-03-12 00:00:00,PRATE,surface,-107.813,26.929,1.63e-05
2014-03-12 00:00:00,2014-03-12 00:00:00,PRATE,surface,-106.875,26.929,1.25e-05
2014-03-12 00:00:00,2014-03-12 00:00:00,PRATE,surface,-105.938,26.929,1.49e-05
2014-03-12 00:00:00,2014-03-12 00:00:00,PRATE,surface,-105,26.929,2.34e-05
2014-03-12 00:00:00,2014-03-12 00:00:00,PRATE,surface,-104.063,26.929,2.7e-05
2014-03-12 00:00:00,2014-03-12 00:00:00,PRATE,surface,-103.125,26.929,3.6e-05
2014-03-12 00:00:00,2014-03-12 00:00:00,PRATE,surface,-102.188,26.929,4.79e-05
2014-03-12 00:00:00,2014-03-12 00:00:00,PRATE,surface,-101.25,26.929,4.02e-05
2014-03-12 00:00:00,2014-03-12 00:00:00,PRATE,surface,-100.313,26.929,2.65e-05
2014-03-12 00:00:00,2014-03-12 00:00:00,PRATE,surface,-99.3754,26.929,2.08e-05
2014-03-12 00:00:00,2014-03-12 00:00:00,PRATE,surface,-98.4379,26.929,3.08e-05
2014-03-12 00:00:00,2014-03-12 00:00:00,PRATE,surface,-97.5004,26.929,5.77e-05
2014-03-12 00:00:00,2014-03-12 00:00:00,PRATE,surface,-96.5629,26.929,6e-05
2014-03-12 00:00:00,2014-03-12 00:00:00,PRATE,surface,-95.6254,26.929,5.93e-05
2014-03-12 00:00:00,2014-03-12 00:00:00,PRATE,surface,-94.6879,26.929,4.9e-05
2014-03-12 00:00:00,2014-03-12 00:00:00,PRATE,surface,-93.7504,26.929,3.62e-05
2014-03-12 00:00:00,2014-03-12 00:00:00,PRATE,surface,-92.8129,26.929,3.84e-05
2014-03-12 00:00:00,2014-03-12 00:00:00,PRATE,surface,-107.813,27.8739,2.84e-05
2014-03-12 00:00:00,2014-03-12 00:00:00,PRATE,surface,-106.875,27.8739,1.79e-05
2014-03-12 00:00:00,2014-03-12 00:00:00,PRATE,surface,-105.938,27.8739,1.37e-05
2014-03-12 00:00:00,2014-03-12 00:00:00,PRATE,surface,-105,27.8739,9.4e-06
2014-03-12 00:00:00,2014-03-12 00:00:00,PRATE,surface,-104.063,27.8739,1.75e-05
2014-03-12 00:00:00,2014-03-12 00:00:00,PRATE,surface,-103.125,27.8739,3.61e-05
2014-03-12 00:00:00,2014-03-12 00:00:00,PRATE,surface,-102.188,27.8739,5.05e-05
2014-03-12 00:00:00,2014-03-12 00:00:00,PRATE,surface,-101.25,27.8739,4.71e-05
2014-03-12 00:00:00,2014-03-12 00:00:00,PRATE,surface,-100.313,27.8739,3.64e-05
2014-03-12 00:00:00,2014-03-12 00:00:00,PRATE,surface,-99.3754,27.8739,2.98e-05
2014-03-12 00:00:00,2014-03-12 00:00:00,PRATE,surface,-98.4379,27.8739,3.61e-05
2014-03-12 00:00:00,2014-03-12 00:00:00,PRATE,surface,-97.5004,27.8739,4.4e-05
2014-03-12 00:00:00,2014-03-12 00:00:00,PRATE,surface,-96.5629,27.8739,4.77e-05
2014-03-12 00:00:00,2014-03-12 00:00:00,PRATE,surface,-95.6254,27.8739,5.89e-05
2014-03-12 00:00:00,2014-03-12 00:00:00,PRATE,surface,-94.6879,27.8739,7.05e-05
2014-03-12 00:00:00,2014-03-12 00:00:00,PRATE,surface,-93.7504,27.8739,5.9e-05
2014-03-12 00:00:00,2014-03-12 00:00:00,PRATE,surface,-92.8129,27.8739,4.74e-05
2014-03-12 00:00:00,2014-03-12 00:00:00,PRATE,surface,-107.813,28.8188,2.99e-05
2014-03-12 00:00:00,2014-03-12 00:00:00,PRATE,surface,-106.875,28.8188,2.29e-05
2014-03-12 00:00:00,2014-03-12 00:00:00,PRATE,surface,-105.938,28.8188,1.29e-05
2014-03-12 00:00:00,2014-03-12 00:00:00,PRATE,surface,-105,28.8188,9.4e-06
2014-03-12 00:00:00,2014-03-12 00:00:00,PRATE,surface,-104.063,28.8188,1.49e-05
2014-03-12 00:00:00,2014-03-12 00:00:00,PRATE,surface,-103.125,28.8188,2.65e-05
2014-03-12 00:00:00,2014-03-12 00:00:00,PRATE,surface,-102.188,28.8188,3.63e-05
2014-03-12 00:00:00,2014-03-12 00:00:00,PRATE,surface,-101.25,28.8188,4.68e-05
2014-03-12 00:00:00,2014-03-12 00:00:00,PRATE,surface,-100.313,28.8188,5.32e-05
2014-03-12 00:00:00,2014-03-12 00:00:00,PRATE,surface,-99.3754,28.8188,5.01e-05
2014-03-12 00:00:00,2014-03-12 00:00:00,PRATE,surface,-98.4379,28.8188,4.7e-05
2014-03-12 00:00:00,2014-03-12 00:00:00,PRATE,surface,-97.5004,28.8188,4.67e-05
2014-03-12 00:00:00,2014-03-12 00:00:00,PRATE,surface,-96.5629,28.8188,4.97e-05
2014-03-12 00:00:00,2014-03-12 00:00:00,PRATE,surface,-95.6254,28.8188,5.54e-05
2014-03-12 00:00:00,2014-03-12 00:00:00,PRATE,surface,-94.6879,28.8188,5.99e-05
2014-03-12 00:00:00,2014-03-12 00:00:00,PRATE,surface,-93.7504,28.8188,6.09e-05
2014-03-12 00:00:00,2014-03-12 00:00:00,PRATE,surface,-92.8129,28.8188,5.08e-05
2014-03-12 00:00:00,2014-03-12 00:00:00,PRATE,surface,-107.813,29.7637,2.16e-05
2014-03-12 00:00:00,2014-03-12 00:00:00,PRATE,surface,-106.875,29.7637,2.2e-05
2014-03-12 00:00:00,2014-03-12 00:00:00,PRATE,surface,-105.938,29.7637,1.54e-05
2014-03-12 00:00:00,2014-03-12 00:00:00,PRATE,surface,-105,29.7637,1.38e-05
2014-03-12 00:00:00,2014-03-12 00:00:00,PRATE,surface,-104.063,29.7637,1.79e-05
2014-03-12 00:00:00,2014-03-12 00:00:00,PRATE,surface,-103.125,29.7637,1.95e-05
2014-03-12 00:00:00,2014-03-12 00:00:00,PRATE,surface,-102.188,29.7637,2.28e-05
2014-03-12 00:00:00,2014-03-12 00:00:00,PRATE,surface,-101.25,29.7637,3.88e-05
2014-03-12 00:00:00,2014-03-12 00:00:00,PRATE,surface,-100.313,29.7637,6.4e-05
2014-03-12 00:00:00,2014-03-12 00:00:00,PRATE,surface,-99.3754,29.7637,7.18e-05
2014-03-12 00:00:00,2014-03-12 00:00:00,PRATE,surface,-98.4379,29.7637,6.47e-05
2014-03-12 00:00:00,2014-03-12 00:00:00,PRATE,surface,-97.5004,29.7637,5.76e-05
2014-03-12 00:00:00,2014-03-12 00:00:00,PRATE,surface,-96.5629,29.7637,5.5e-05
2014-03-12 00:00:00,2014-03-12 00:00:00,PRATE,surface,-95.6254,29.7637,5.37e-05
2014-03-12 00:00:00,2014-03-12 00:00:00,PRATE,surface,-94.6879,29.7637,4.77e-05
2014-03-12 00:00:00,2014-03-12 00:00:00,PRATE,surface,-93.7504,29.7637,3.52e-05
2014-03-12 00:00:00,2014-03-12 00:00:00,PRATE,surface,-92.8129,29.7637,3e-05
2014-03-12 00:00:00,2014-03-12 00:00:00,PRATE,surface,-107.813,30.7085,1.58e-05
2014-03-12 00:00:00,2014-03-12 00:00:00,PRATE,surface,-106.875,30.7085,1.82e-05
2014-03-12 00:00:00,2014-03-12 00:00:00,PRATE,surface,-105.938,30.7085,1.83e-05
2014-03-12 00:00:00,2014-03-12 00:00:00,PRATE,surface,-105,30.7085,2.16e-05
2014-03-12 00:00:00,2014-03-12 00:00:00,PRATE,surface,-104.063,30.7085,2.33e-05
2014-03-12 00:00:00,2014-03-12 00:00:00,PRATE,surface,-103.125,30.7085,1.93e-05
2014-03-12 00:00:00,2014-03-12 00:00:00,PRATE,surface,-102.188,30.7085,2.03e-05
2014-03-12 00:00:00,2014-03-12 00:00:00,PRATE,surface,-101.25,30.7085,3.1e-05
2014-03-12 00:00:00,2014-03-12 00:00:00,PRATE,surface,-100.313,30.7085,5.08e-05
2014-03-12 00:00:00,2014-03-12 00:00:00,PRATE,surface,-99.3754,30.7085,6.76e-05
2014-03-12 00:00:00,2014-03-12 00:00:00,PRATE,surface,-98.4379,30.7085,7.12e-05
2014-03-12 00:00:00,2014-03-12 00:00:00,PRATE,surface,-97.5004,30.7085,6.78e-05
2014-03-12 00:00:00,2014-03-12 00:00:00,PRATE,surface,-96.5629,30.7085,6.52e-05
2014-03-12 00:00:00,2014-03-12 00:00:00,PRATE,surface,-95.6254,30.7085,6.16e-05
2014-03-12 00:00:00,2014-03-12 00:00:00,PRATE,surface,-94.6879,30.7085,5.5e-05
2014-03-12 00:00:00,2014-03-12 00:00:00,PRATE,surface,-93.7504,30.7085,4.73e-05
2014-03-12 00:00:00,2014-03-12 00:00:00,PRATE,surface,-92.8129,30.7085,3.63e-05
2014-03-12 00:00:00,2014-03-12 00:00:00,PRATE,surface,-107.813,31.6534,2.09e-05
2014-03-12 00:00:00,2014-03-12 00:00:00,PRATE,surface,-106.875,31.6534,1.89e-05
2014-03-12 00:00:00,2014-03-12 00:00:00,PRATE,surface,-105.938,31.6534,2.05e-05
2014-03-12 00:00:00,2014-03-12 00:00:00,PRATE,surface,-105,31.6534,2.4e-05
2014-03-12 00:00:00,2014-03-12 00:00:00,PRATE,surface,-104.063,31.6534,2.43e-05
2014-03-12 00:00:00,2014-03-12 00:00:00,PRATE,surface,-103.125,31.6534,2.16e-05
2014-03-12 00:00:00,2014-03-12 00:00:00,PRATE,surface,-102.188,31.6534,2.13e-05
2014-03-12 00:00:00,2014-03-12 00:00:00,PRATE,surface,-101.25,31.6534,2.66e-05
2014-03-12 00:00:00,2014-03-12 00:00:00,PRATE,surface,-100.313,31.6534,3.79e-05
2014-03-12 00:00:00,2014-03-12 00:00:00,PRATE,surface,-99.3754,31.6534,4.92e-05
2014-03-12 00:00:00,2014-03-12 00:00:00,PRATE,surface,-98.4379,31.6534,5.91e-05
2014-03-12 00:00:00,2014-03-12 00:00:00,PRATE,surface,-97.5004,31.6534,6.49e-05
2014-03-12 00:00:00,2014-03-12 00:00:00,PRATE,surface,-96.5629,31.6534,6.85e-05
2014-03-12 00:00:00,2014-03-12 00:00:00,PRATE,surface,-95.6254,31.6534,7.46e-05
2014-03-12 00:00:00,2014-03-12 00:00:00,PRATE,surface,-94.6879,31.6534,8.1e-05
2014-03-12 00:00:00,2014-03-12 00:00:00,PRATE,surface,-93.7504,31.6534,7.93e-05
2014-03-12 00:00:00,2014-03-12 00:00:00,PRATE,surface,-92.8129,31.6534,6.47e-05
2014-03-12 00:00:00,2014-03-12 00:00:00,PRATE,surface,-107.813,32.5983,3.22e-05
2014-03-12 00:00:00,2014-03-12 00:00:00,PRATE,surface,-106.875,32.5983,2.38e-05
2014-03-12 00:00:00,2014-03-12 00:00:00,PRATE,surface,-105.938,32.5983,2.04e-05
2014-03-12 00:00:00,2014-03-12 00:00:00,PRATE,surface,-105,32.5983,2.11e-05
2014-03-12 00:00:00,2014-03-12 00:00:00,PRATE,surface,-104.063,32.5983,2.29e-05
2014-03-12 00:00:00,2014-03-12 00:00:00,PRATE,surface,-103.125,32.5983,2.41e-05
2014-03-12 00:00:00,2014-03-12 00:00:00,PRATE,surface,-102.188,32.5983,2.4e-05
2014-03-12 00:00:00,2014-03-12 00:00:00,PRATE,surface,-101.25,32.5983,2.6e-05
2014-03-12 00:00:00,2014-03-12 00:00:00,PRATE,surface,-100.313,32.5983,3.14e-05
2014-03-12 00:00:00,2014-03-12 00:00:00,PRATE,surface,-99.3754,32.5983,3.88e-05
2014-03-12 00:00:00,2014-03-12 00:00:00,PRATE,surface,-98.4379,32.5983,4.61e-05
2014-03-12 00:00:00,2014-03-12 00:00:00,PRATE,surface,-97.5004,32.5983,5.31e-05
2014-03-12 00:00:00,2014-03-12 00:00:00,PRATE,surface,-96.5629,32.5983,5.89e-05
2014-03-12 00:00:00,2014-03-12 00:00:00,PRATE,surface,-95.6254,32.5983,6.3e-05
2014-03-12 00:00:00,2014-03-12 00:00:00,PRATE,surface,-94.6879,32.5983,6.7e-05
2014-03-12 00:00:00,2014-03-12 00:00:00,PRATE,surface,-93.7504,32.5983,7.09e-05
2014-03-12 00:00:00,2014-03-12 00:00:00,PRATE,surface,-92.8129,32.5983,7.49e-05
2014-03-12 00:00:00,2014-03-12 00:00:00,PRATE,surface,-107.813,33.5432,3.64e-05
2014-03-12 00:00:00,2014-03-12 00:00:00,PRATE,surface,-106.875,33.5432,3e-05
2014-03-12 00:00:00,2014-03-12 00:00:00,PRATE,surface,-105.938,33.5432,2.29e-05
2014-03-12 00:00:00,2014-03-12 00:00:00,PRATE,surface,-105,33.5432,1.84e-05
2014-03-12 00:00:00,2014-03-12 00:00:00,PRATE,surface,-104.063,33.5432,1.56e-05
2014-03-12 00:00:00,2014-03-12 00:00:00,PRATE,surface,-103.125,33.5432,1.49e-05
2014-03-12 00:00:00,2014-03-12 00:00:00,PRATE,surface,-102.188,33.5432,1.64e-05
2014-03-12 00:00:00,2014-03-12 00:00:00,PRATE,surface,-101.25,33.5432,1.95e-05
2014-03-12 00:00:00,2014-03-12 00:00:00,PRATE,surface,-100.313,33.5432,2.16e-05
2014-03-12 00:00:00,2014-03-12 00:00:00,PRATE,surface,-99.3754,33.5432,2.72e-05
2014-03-12 00:00:00,2014-03-12 00:00:00,PRATE,surface,-98.4379,33.5432,3.46e-05
2014-03-12 00:00:00,2014-03-12 00:00:00,PRATE,surface,-97.5004,33.5432,4.09e-05
2014-03-12 00:00:00,2014-03-12 00:00:00,PRATE,surface,-96.5629,33.5432,4.79e-05
2014-03-12 00:00:00,2014-03-12 00:00:00,PRATE,surface,-95.6254,33.5432,5.25e-05
2014-03-12 00:00:00,2014-03-12 00:00:00,PRATE,surface,-94.6879,33.5432,5.12e-05
2014-03-12 00:00:00,2014-03-12 00:00:00,PRATE,surface,-93.7504,33.5432,5.12e-05
2014-03-12 00:00:00,2014-03-12 00:00:00,PRATE,surface,-92.8129,33.5432,5.43e-05
2014-03-12 00:00:00,2014-03-12 00:00:00,PRATE,surface,-107.813,34.4881,2.74e-05
2014-03-12 00:00:00,2014-03-12 00:00:00,PRATE,surface,-106.875,34.4881,2.54e-05
2014-03-12 00:00:00,2014-03-12 00:00:00,PRATE,surface,-105.938,34.4881,2.42e-05
2014-03-12 00:00:00,2014-03-12 00:00:00,PRATE,surface,-105,34.4881,2.19e-05
2014-03-12 00:00:00,2014-03-12 00:00:00,PRATE,surface,-104.063,34.4881,1.37e-05
2014-03-12 00:00:00,2014-03-12 00:00:00,PRATE,surface,-103.125,34.4881,1.01e-05
2014-03-12 00:00:00,2014-03-12 00:00:00,PRATE,surface,-102.188,34.4881,1.08e-05
2014-03-12 00:00:00,2014-03-12 00:00:00,PRATE,surface,-101.25,34.4881,1.41e-05
2014-03-12 00:00:00,2014-03-12 00:00:00,PRATE,surface,-100.313,34.4881,1.95e-05
2014-03-12 00:00:00,2014-03-12 00:00:00,PRATE,surface,-99.3754,34.4881,2.65e-05
2014-03-12 00:00:00,2014-03-12 00:00:00,PRATE,surface,-98.4379,34.4881,3.05e-05
2014-03-12 00:00:00,2014-03-12 00:00:00,PRATE,surface,-97.5004,34.4881,3.28e-05
2014-03-12 00:00:00,2014-03-12 00:00:00,PRATE,surface,-96.5629,34.4881,3.77e-05
2014-03-12 00:00:00,2014-03-12 00:00:00,PRATE,surface,-95.6254,34.4881,4.54e-05
2014-03-12 00:00:00,2014-03-12 00:00:00,PRATE,surface,-94.6879,34.4881,5.06e-05
2014-03-12 00:00:00,2014-03-12 00:00:00,PRATE,surface,-93.7504,34.4881,4.84e-05
2014-03-12 00:00:00,2014-03-12 00:00:00,PRATE,surface,-92.8129,34.4881,4.52e-05
2014-03-12 00:00:00,2014-03-12 00:00:00,PRATE,surface,-107.813,35.4329,2.19e-05
2014-03-12 00:00:00,2014-03-12 00:00:00,PRATE,surface,-106.875,35.4329,2.16e-05
2014-03-12 00:00:00,2014-03-12 00:00:00,PRATE,surface,-105.938,35.4329,2.18e-05
2014-03-12 00:00:00,2014-03-12 00:00:00,PRATE,surface,-105,35.4329,2.49e-05
2014-03-12 00:00:00,2014-03-12 00:00:00,PRATE,surface,-104.063,35.4329,2.02e-05
2014-03-12 00:00:00,2014-03-12 00:00:00,PRATE,surface,-103.125,35.4329,1.5e-05
2014-03-12 00:00:00,2014-03-12 00:00:00,PRATE,surface,-102.188,35.4329,1.31e-05
2014-03-12 00:00:00,2014-03-12 00:00:00,PRATE,surface,-101.25,35.4329,1.57e-05
2014-03-12 00:00:00,2014-03-12 00:00:00,PRATE,surface,-100.313,35.4329,2.23e-05
2014-03-12 00:00:00,2014-03-12 00:00:00,PRATE,surface,-99.3754,35.4329,2.97e-05
2014-03-12 00:00:00,2014-03-12 00:00:00,PRATE,surface,-98.4379,35.4329,3.07e-05
2014-03-12 00:00:00,2014-03-12 00:00:00,PRATE,surface,-97.5004,35.4329,2.59e-05
2014-03-12 00:00:00,2014-03-12 00:00:00,PRATE,surface,-96.5629,35.4329,2.48e-05
2014-03-12 00:00:00,2014-03-12 00:00:00,PRATE,surface,-95.6254,35.4329,3.41e-05
2014-03-12 00:00:00,2014-03-12 00:00:00,PRATE,surface,-94.6879,35.4329,4.66e-05
2014-03-12 00:00:00,2014-03-12 00:00:00,PRATE,surface,-93.7504,35.4329,4.91e-05
2014-03-12 00:00:00,2014-03-12 00:00:00,PRATE,surface,-92.8129,35.4329,4.66e-05
2014-03-12 00:00:00,2014-03-12 00:00:00,PRATE,surface,-107.813,36.3778,2.5e-05
2014-03-12 00:00:00,2014-03-12 00:00:00,PRATE,surface,-106.875,36.3778,2.33e-05
2014-03-12 00:00:00,2014-03-12 00:00:00,PRATE,surface,-105.938,36.3778,2.09e-05
2014-03-12 00:00:00,2014-03-12 00:00:00,PRATE,surface,-105,36.3778,2.29e-05
2014-03-12 00:00:00,2014-03-12 00:00:00,PRATE,surface,-104.063,36.3778,2.1e-05
2014-03-12 00:00:00,2014-03-12 00:00:00,PRATE,surface,-103.125,36.3778,1.79e-05
2014-03-12 00:00:00,2014-03-12 00:00:00,PRATE,surface,-102.188,36.3778,1.57e-05
2014-03-12 00:00:00,2014-03-12 00:00:00,PRATE,surface,-101.25,36.3778,1.63e-05
2014-03-12 00:00:00,2014-03-12 00:00:00,PRATE,surface,-100.313,36.3778,2.2e-05
2014-03-12 00:00:00,2014-03-12 00:00:00,PRATE,surface,-99.3754,36.3778,2.84e-05
2014-03-12 00:00:00,2014-03-12 00:00:00,PRATE,surface,-98.4379,36.3778,2.92e-05
2014-03-12 00:00:00,2014-03-12 00:00:00,PRATE,surface,-97.5004,36.3778,2.44e-05
2014-03-12 00:00:00,2014-03-12 00:00:00,PRATE,surface,-96.5629,36.3778,2.13e-05
2014-03-12 00:00:00,2014-03-12 00:00:00,PRATE,surface,-95.6254,36.3778,2.62e-05
2014-03-12 00:00:00,2014-03-12 00:00:00,PRATE,surface,-94.6879,36.3778,3.72e-05
2014-03-12 00:00:00,2014-03-12 00:00:00,PRATE,surface,-93.7504,36.3778,4.5e-05
2014-03-12 00:00:00,2014-03-12 00:00:00,PRATE,surface,-92.8129,36.3778,4.49e-05
