2016-10-31 00:00:00,2016-10-31 00:00:00,TMP,surface,-107.813,25.0393,303.557
2016-10-31 00:00:00,2016-10-31 00:00:00,TMP,surface,-106.875,25.0393,296.311
2016-10-31 00:00:00,2016-10-31 00:00:00,TMP,surface,-105.938,25.0393,292.366
2016-10-31 00:00:00,2016-10-31 00:00:00,TMP,surface,-105,25.0393,290.103
2016-10-31 00:00:00,2016-10-31 00:00:00,TMP,surface,-104.063,25.0393,294.005
2016-10-31 00:00:00,2016-10-31 00:00:00,TMP,surface,-103.125,25.0393,297.153
2016-10-31 00:00:00,2016-10-31 00:00:00,TMP,surface,-102.188,25.0393,296.142
2016-10-31 00:00:00,2016-10-31 00:00:00,TMP,surface,-101.25,25.0393,293.135
2016-10-31 00:00:00,2016-10-31 00:00:00,TMP,surface,-100.313,25.0393,293.534
2016-10-31 00:00:00,2016-10-31 00:00:00,TMP,surface,-99.3754,25.0393,297.374
2016-10-31 00:00:00,2016-10-31 00:00:00,TMP,surface,-98.4379,25.0393,301.274
2016-10-31 00:00:00,2016-10-31 00:00:00,TMP,surface,-97.5004,25.0393,302.553
2016-10-31 00:00:00,2016-10-31 00:00:00,TMP,surface,-96.5629,25.0393,302.569
2016-10-31 00:00:00,2016-10-31 00:00:00,TMP,surface,-95.6254,25.0393,302.671
2016-10-31 00:00:00,2016-10-31 00:00:00,TMP,surface,-94.6879,25.0393,302.817
2016-10-31 00:00:00,2016-10-31 00:00:00,TMP,surface,-93.7504,25.0393,302.895
2016-10-31 00:00:00,2016-10-31 00:00:00,TMP,surface,-92.8129,25.0393,302.922
2016-10-31 00:00:00,2016-10-31 00:00:00,TMP,surface,-107.813,25.9842,299.57
2016-10-31 00:00:00,2016-10-31 00:00:00,TMP,surface,-106.875,25.9842,293.375
2016-10-31 00:00:00,2016-10-31 00:00:00,TMP,surface,-105.938,25.9842,290.924
2016-10-31 00:00:00,2016-10-31 00:00:00,TMP,surface,-105,25.9842,292.903
2016-10-31 00:00:00,2016-10-31 00:00:00,TMP,surface,-104.063,25.9842,297.938
2016-10-31 00:00:00,2016-10-31 00:00:00,TMP,surface,-103.125,25.9842,299.438
2016-10-31 00:00:00,2016-10-31 00:00:00,TMP,surface,-102.188,25.9842,298.519
2016-10-31 00:00:00,2016-10-31 00:00:00,TMP,surface,-101.25,25.9842,297.103
2016-10-31 00:00:00,2016-10-31 00:00:00,TMP,surface,-100.313,25.9842,297.74
2016-10-31 00:00:00,2016-10-31 00:00:00,TMP,surface,-99.3754,25.9842,301.349
2016-10-31 00:00:00,2016-10-31 00:00:00,TMP,surface,-98.4379,25.9842,302.591
2016-10-31 00:00:00,2016-10-31 00:00:00,TMP,surface,-97.5004,25.9842,301.493
2016-10-31 00:00:00,2016-10-31 00:00:00,TMP,surface,-96.5629,25.9842,301.575
2016-10-31 00:00:00,2016-10-31 00:00:00,TMP,surface,-95.6254,25.9842,302.018
2016-10-31 00:00:00,2016-10-31 00:00:00,TMP,surface,-94.6879,25.9842,302.34
2016-10-31 00:00:00,2016-10-31 00:00:00,TMP,surface,-93.7504,25.9842,302.721
2016-10-31 00:00:00,2016-10-31 00:00:00,TMP,surface,-92.8129,25.9842,302.977
2016-10-31 00:00:00,2016-10-31 00:00:00,TMP,surface,-107.813,26.929,295.252
2016-10-31 00:00:00,2016-10-31 00:00:00,TMP,surface,-106.875,26.929,291.766
2016-10-31 00:00:00,2016-10-31 00:00:00,TMP,surface,-105.938,26.929,293.018
2016-10-31 00:00:00,2016-10-31 00:00:00,TMP,surface,-105,26.929,297.134
2016-10-31 00:00:00,2016-10-31 00:00:00,TMP,surface,-104.063,26.929,299.853
2016-10-31 00:00:00,2016-10-31 00:00:00,TMP,surface,-103.125,26.929,299.111
2016-10-31 00:00:00,2016-10-31 00:00:00,TMP,surface,-102.188,26.929,298.463
2016-10-31 00:00:00,2016-10-31 00:00:00,TMP,surface,-101.25,26.929,299.473
2016-10-31 00:00:00,2016-10-31 00:00:00,TMP,surface,-100.313,26.929,301.791
2016-10-31 00:00:00,2016-10-31 00:00:00,TMP,surface,-99.3754,26.929,303.284
2016-10-31 00:00:00,2016-10-31 00:00:00,TMP,surface,-98.4379,26.929,301.73
2016-10-31 00:00:00,2016-10-31 00:00:00,TMP,surface,-97.5004,26.929,300.098
2016-10-31 00:00:00,2016-10-31 00:00:00,TMP,surface,-96.5629,26.929,300.593
2016-10-31 00:00:00,2016-10-31 00:00:00,TMP,surface,-95.6254,26.929,301.47
2016-10-31 00:00:00,2016-10-31 00:00:00,TMP,surface,-94.6879,26.929,302.098
2016-10-31 00:00:00,2016-10-31 00:00:00,TMP,surface,-93.7504,26.929,302.414
2016-10-31 00:00:00,2016-10-31 00:00:00,TMP,surface,-92.8129,26.929,302.708
2016-10-31 00:00:00,2016-10-31 00:00:00,TMP,surface,-107.813,27.8739,293.204
2016-10-31 00:00:00,2016-10-31 00:00:00,TMP,surface,-106.875,27.8739,291.898
2016-10-31 00:00:00,2016-10-31 00:00:00,TMP,surface,-105.938,27.8739,295.921
2016-10-31 00:00:00,2016-10-31 00:00:00,TMP,surface,-105,27.8739,299.689
2016-10-31 00:00:00,2016-10-31 00:00:00,TMP,surface,-104.063,27.8739,300.212
2016-10-31 00:00:00,2016-10-31 00:00:00,TMP,surface,-103.125,27.8739,298.27
2016-10-31 00:00:00,2016-10-31 00:00:00,TMP,surface,-102.188,27.8739,297.962
2016-10-31 00:00:00,2016-10-31 00:00:00,TMP,surface,-101.25,27.8739,300.585
2016-10-31 00:00:00,2016-10-31 00:00:00,TMP,surface,-100.313,27.8739,302.741
2016-10-31 00:00:00,2016-10-31 00:00:00,TMP,surface,-99.3754,27.8739,302.359
2016-10-31 00:00:00,2016-10-31 00:00:00,TMP,surface,-98.4379,27.8739,300.789
2016-10-31 00:00:00,2016-10-31 00:00:00,TMP,surface,-97.5004,27.8739,300.389
2016-10-31 00:00:00,2016-10-31 00:00:00,TMP,surface,-96.5629,27.8739,300.953
2016-10-31 00:00:00,2016-10-31 00:00:00,TMP,surface,-95.6254,27.8739,301.46
2016-10-31 00:00:00,2016-10-31 00:00:00,TMP,surface,-94.6879,27.8739,302.009
2016-10-31 00:00:00,2016-10-31 00:00:00,TMP,surface,-93.7504,27.8739,302.322
2016-10-31 00:00:00,2016-10-31 00:00:00,TMP,surface,-92.8129,27.8739,302.557
2016-10-31 00:00:00,2016-10-31 00:00:00,TMP,surface,-107.813,28.8188,293.053
2016-10-31 00:00:00,2016-10-31 00:00:00,TMP,surface,-106.875,28.8188,293.975
2016-10-31 00:00:00,2016-10-31 00:00:00,TMP,surface,-105.938,28.8188,298.377
2016-10-31 00:00:00,2016-10-31 00:00:00,TMP,surface,-105,28.8188,301.27
2016-10-31 00:00:00,2016-10-31 00:00:00,TMP,surface,-104.063,28.8188,300.063
2016-10-31 00:00:00,2016-10-31 00:00:00,TMP,surface,-103.125,28.8188,298.815
2016-10-31 00:00:00,2016-10-31 00:00:00,TMP,surface,-102.188,28.8188,298.825
2016-10-31 00:00:00,2016-10-31 00:00:00,TMP,surface,-101.25,28.8188,300.908
2016-10-31 00:00:00,2016-10-31 00:00:00,TMP,surface,-100.313,28.8188,301.517
2016-10-31 00:00:00,2016-10-31 00:00:00,TMP,surface,-99.3754,28.8188,300.394
2016-10-31 00:00:00,2016-10-31 00:00:00,TMP,surface,-98.4379,28.8188,299.374
2016-10-31 00:00:00,2016-10-31 00:00:00,TMP,surface,-97.5004,28.8188,299.346
2016-10-31 00:00:00,2016-10-31 00:00:00,TMP,surface,-96.5629,28.8188,299.941
2016-10-31 00:00:00,2016-10-31 00:00:00,TMP,surface,-95.6254,28.8188,300.247
2016-10-31 00:00:00,2016-10-31 00:00:00,TMP,surface,-94.6879,28.8188,300.236
2016-10-31 00:00:00,2016-10-31 00:00:00,TMP,surface,-93.7504,28.8188,300.794
2016-10-31 00:00:00,2016-10-31 00:00:00,TMP,surface,-92.8129,28.8188,301.164
2016-10-31 00:00:00,2016-10-31 00:00:00,TMP,surface,-107.813,29.7637,296.097
2016-10-31 00:00:00,2016-10-31 00:00:00,TMP,surface,-106.875,29.7637,297.447
2016-10-31 00:00:00,2016-10-31 00:00:00,TMP,surface,-105.938,29.7637,300.41
2016-10-31 00:00:00,2016-10-31 00:00:00,TMP,surface,-105,29.7637,301.191
2016-10-31 00:00:00,2016-10-31 00:00:00,TMP,surface,-104.063,29.7637,300.7
2016-10-31 00:00:00,2016-10-31 00:00:00,TMP,surface,-103.125,29.7637,300.519
2016-10-31 00:00:00,2016-10-31 00:00:00,TMP,surface,-102.188,29.7637,301.209
2016-10-31 00:00:00,2016-10-31 00:00:00,TMP,surface,-101.25,29.7637,301.341
2016-10-31 00:00:00,2016-10-31 00:00:00,TMP,surface,-100.313,29.7637,299.922
2016-10-31 00:00:00,2016-10-31 00:00:00,TMP,surface,-99.3754,29.7637,298.306
2016-10-31 00:00:00,2016-10-31 00:00:00,TMP,surface,-98.4379,29.7637,298.082
2016-10-31 00:00:00,2016-10-31 00:00:00,TMP,surface,-97.5004,29.7637,299.092
2016-10-31 00:00:00,2016-10-31 00:00:00,TMP,surface,-96.5629,29.7637,299.924
2016-10-31 00:00:00,2016-10-31 00:00:00,TMP,surface,-95.6254,29.7637,300.172
2016-10-31 00:00:00,2016-10-31 00:00:00,TMP,surface,-94.6879,29.7637,299.9
2016-10-31 00:00:00,2016-10-31 00:00:00,TMP,surface,-93.7504,29.7637,299.27
2016-10-31 00:00:00,2016-10-31 00:00:00,TMP,surface,-92.8129,29.7637,300.42
2016-10-31 00:00:00,2016-10-31 00:00:00,TMP,surface,-107.813,30.7085,300.313
2016-10-31 00:00:00,2016-10-31 00:00:00,TMP,surface,-106.875,30.7085,301.593
2016-10-31 00:00:00,2016-10-31 00:00:00,TMP,surface,-105.938,30.7085,301.711
2016-10-31 00:00:00,2016-10-31 00:00:00,TMP,surface,-105,30.7085,301.057
2016-10-31 00:00:00,2016-10-31 00:00:00,TMP,surface,-104.063,30.7085,300.302
2016-10-31 00:00:00,2016-10-31 00:00:00,TMP,surface,-103.125,30.7085,301.414
2016-10-31 00:00:00,2016-10-31 00:00:00,TMP,surface,-102.188,30.7085,302.05
2016-10-31 00:00:00,2016-10-31 00:00:00,TMP,surface,-101.25,30.7085,301.209
2016-10-31 00:00:00,2016-10-31 00:00:00,TMP,surface,-100.313,30.7085,299.542
2016-10-31 00:00:00,2016-10-31 00:00:00,TMP,surface,-99.3754,30.7085,298.308
2016-10-31 00:00:00,2016-10-31 00:00:00,TMP,surface,-98.4379,30.7085,298.492
2016-10-31 00:00:00,2016-10-31 00:00:00,TMP,surface,-97.5004,30.7085,299.527
2016-10-31 00:00:00,2016-10-31 00:00:00,TMP,surface,-96.5629,30.7085,300.463
2016-10-31 00:00:00,2016-10-31 00:00:00,TMP,surface,-95.6254,30.7085,300.669
2016-10-31 00:00:00,2016-10-31 00:00:00,TMP,surface,-94.6879,30.7085,300.212
2016-10-31 00:00:00,2016-10-31 00:00:00,TMP,surface,-93.7504,30.7085,300.046
2016-10-31 00:00:00,2016-10-31 00:00:00,TMP,surface,-92.8129,30.7085,299.863
2016-10-31 00:00:00,2016-10-31 00:00:00,TMP,surface,-107.813,31.6534,302.281
2016-10-31 00:00:00,2016-10-31 00:00:00,TMP,surface,-106.875,31.6534,302.887
2016-10-31 00:00:00,2016-10-31 00:00:00,TMP,surface,-105.938,31.6534,301.815
2016-10-31 00:00:00,2016-10-31 00:00:00,TMP,surface,-105,31.6534,300.732
2016-10-31 00:00:00,2016-10-31 00:00:00,TMP,surface,-104.063,31.6534,300.793
2016-10-31 00:00:00,2016-10-31 00:00:00,TMP,surface,-103.125,31.6534,301.383
2016-10-31 00:00:00,2016-10-31 00:00:00,TMP,surface,-102.188,31.6534,301.586
2016-10-31 00:00:00,2016-10-31 00:00:00,TMP,surface,-101.25,31.6534,301.002
2016-10-31 00:00:00,2016-10-31 00:00:00,TMP,surface,-100.313,31.6534,300.178
2016-10-31 00:00:00,2016-10-31 00:00:00,TMP,surface,-99.3754,31.6534,299.41
2016-10-31 00:00:00,2016-10-31 00:00:00,TMP,surface,-98.4379,31.6534,299.204
2016-10-31 00:00:00,2016-10-31 00:00:00,TMP,surface,-97.5004,31.6534,299.519
2016-10-31 00:00:00,2016-10-31 00:00:00,TMP,surface,-96.5629,31.6534,300.225
2016-10-31 00:00:00,2016-10-31 00:00:00,TMP,surface,-95.6254,31.6534,300.694
2016-10-31 00:00:00,2016-10-31 00:00:00,TMP,surface,-94.6879,31.6534,300.353
2016-10-31 00:00:00,2016-10-31 00:00:00,TMP,surface,-93.7504,31.6534,300.015
2016-10-31 00:00:00,2016-10-31 00:00:00,TMP,surface,-92.8129,31.6534,300.01
2016-10-31 00:00:00,2016-10-31 00:00:00,TMP,surface,-107.813,32.5983,299.383
2016-10-31 00:00:00,2016-10-31 00:00:00,TMP,surface,-106.875,32.5983,299.661
2016-10-31 00:00:00,2016-10-31 00:00:00,TMP,surface,-105.938,32.5983,299.845
2016-10-31 00:00:00,2016-10-31 00:00:00,TMP,surface,-105,32.5983,299.748
2016-10-31 00:00:00,2016-10-31 00:00:00,TMP,surface,-104.063,32.5983,300.241
2016-10-31 00:00:00,2016-10-31 00:00:00,TMP,surface,-103.125,32.5983,300.567
2016-10-31 00:00:00,2016-10-31 00:00:00,TMP,surface,-102.188,32.5983,300.414
2016-10-31 00:00:00,2016-10-31 00:00:00,TMP,surface,-101.25,32.5983,300.138
2016-10-31 00:00:00,2016-10-31 00:00:00,TMP,surface,-100.313,32.5983,300.279
2016-10-31 00:00:00,2016-10-31 00:00:00,TMP,surface,-99.3754,32.5983,300.097
2016-10-31 00:00:00,2016-10-31 00:00:00,TMP,surface,-98.4379,32.5983,299.578
2016-10-31 00:00:00,2016-10-31 00:00:00,TMP,surface,-97.5004,32.5983,299.426
2016-10-31 00:00:00,2016-10-31 00:00:00,TMP,surface,-96.5629,32.5983,300.039
2016-10-31 00:00:00,2016-10-31 00:00:00,TMP,surface,-95.6254,32.5983,300.697
2016-10-31 00:00:00,2016-10-31 00:00:00,TMP,surface,-94.6879,32.5983,300.578
2016-10-31 00:00:00,2016-10-31 00:00:00,TMP,surface,-93.7504,32.5983,300.188
2016-10-31 00:00:00,2016-10-31 00:00:00,TMP,surface,-92.8129,32.5983,300.165
2016-10-31 00:00:00,2016-10-31 00:00:00,TMP,surface,-107.813,33.5432,294.847
2016-10-31 00:00:00,2016-10-31 00:00:00,TMP,surface,-106.875,33.5432,296.161
2016-10-31 00:00:00,2016-10-31 00:00:00,TMP,surface,-105.938,33.5432,297.257
2016-10-31 00:00:00,2016-10-31 00:00:00,TMP,surface,-105,33.5432,298.634
2016-10-31 00:00:00,2016-10-31 00:00:00,TMP,surface,-104.063,33.5432,299.863
2016-10-31 00:00:00,2016-10-31 00:00:00,TMP,surface,-103.125,33.5432,299.612
2016-10-31 00:00:00,2016-10-31 00:00:00,TMP,surface,-102.188,33.5432,299.049
2016-10-31 00:00:00,2016-10-31 00:00:00,TMP,surface,-101.25,33.5432,299.13
2016-10-31 00:00:00,2016-10-31 00:00:00,TMP,surface,-100.313,33.5432,300.046
2016-10-31 00:00:00,2016-10-31 00:00:00,TMP,surface,-99.3754,33.5432,300.361
2016-10-31 00:00:00,2016-10-31 00:00:00,TMP,surface,-98.4379,33.5432,299.778
2016-10-31 00:00:00,2016-10-31 00:00:00,TMP,surface,-97.5004,33.5432,299.172
2016-10-31 00:00:00,2016-10-31 00:00:00,TMP,surface,-96.5629,33.5432,299.134
2016-10-31 00:00:00,2016-10-31 00:00:00,TMP,surface,-95.6254,33.5432,299.47
2016-10-31 00:00:00,2016-10-31 00:00:00,TMP,surface,-94.6879,33.5432,299.647
2016-10-31 00:00:00,2016-10-31 00:00:00,TMP,surface,-93.7504,33.5432,299.493
2016-10-31 00:00:00,2016-10-31 00:00:00,TMP,surface,-92.8129,33.5432,299.484
2016-10-31 00:00:00,2016-10-31 00:00:00,TMP,surface,-107.813,34.4881,293.661
2016-10-31 00:00:00,2016-10-31 00:00:00,TMP,surface,-106.875,34.4881,295.479
2016-10-31 00:00:00,2016-10-31 00:00:00,TMP,surface,-105.938,34.4881,296.565
2016-10-31 00:00:00,2016-10-31 00:00:00,TMP,surface,-105,34.4881,298.425
2016-10-31 00:00:00,2016-10-31 00:00:00,TMP,surface,-104.063,34.4881,299.207
2016-10-31 00:00:00,2016-10-31 00:00:00,TMP,surface,-103.125,34.4881,298.889
2016-10-31 00:00:00,2016-10-31 00:00:00,TMP,surface,-102.188,34.4881,298.652
2016-10-31 00:00:00,2016-10-31 00:00:00,TMP,surface,-101.25,34.4881,298.674
2016-10-31 00:00:00,2016-10-31 00:00:00,TMP,surface,-100.313,34.4881,299.212
2016-10-31 00:00:00,2016-10-31 00:00:00,TMP,surface,-99.3754,34.4881,299.604
2016-10-31 00:00:00,2016-10-31 00:00:00,TMP,surface,-98.4379,34.4881,299.257
2016-10-31 00:00:00,2016-10-31 00:00:00,TMP,surface,-97.5004,34.4881,298.586
2016-10-31 00:00:00,2016-10-31 00:00:00,TMP,surface,-96.5629,34.4881,298.442
2016-10-31 00:00:00,2016-10-31 00:00:00,TMP,surface,-95.6254,34.4881,298.65
2016-10-31 00:00:00,2016-10-31 00:00:00,TMP,surface,-94.6879,34.4881,298.43
2016-10-31 00:00:00,2016-10-31 00:00:00,TMP,surface,-93.7504,34.4881,298.076
2016-10-31 00:00:00,2016-10-31 00:00:00,TMP,surface,-92.8129,34.4881,298.257
2016-10-31 00:00:00,2016-10-31 00:00:00,TMP,surface,-107.813,35.4329,295.143
2016-10-31 00:00:00,2016-10-31 00:00:00,TMP,surface,-106.875,35.4329,295.018
2016-10-31 00:00:00,2016-10-31 00:00:00,TMP,surface,-105.938,35.4329,295.135
2016-10-31 00:00:00,2016-10-31 00:00:00,TMP,surface,-105,35.4329,295.753
2016-10-31 00:00:00,2016-10-31 00:00:00,TMP,surface,-104.063,35.4329,297.887
2016-10-31 00:00:00,2016-10-31 00:00:00,TMP,surface,-103.125,35.4329,299.038
2016-10-31 00:00:00,2016-10-31 00:00:00,TMP,surface,-102.188,35.4329,298.997
2016-10-31 00:00:00,2016-10-31 00:00:00,TMP,surface,-101.25,35.4329,298.665
2016-10-31 00:00:00,2016-10-31 00:00:00,TMP,surface,-100.313,35.4329,298.458
2016-10-31 00:00:00,2016-10-31 00:00:00,TMP,surface,-99.3754,35.4329,298.654
2016-10-31 00:00:00,2016-10-31 00:00:00,TMP,surface,-98.4379,35.4329,298.53
2016-10-31 00:00:00,2016-10-31 00:00:00,TMP,surface,-97.5004,35.4329,298.076
2016-10-31 00:00:00,2016-10-31 00:00:00,TMP,surface,-96.5629,35.4329,297.78
2016-10-31 00:00:00,2016-10-31 00:00:00,TMP,surface,-95.6254,35.4329,297.81
2016-10-31 00:00:00,2016-10-31 00:00:00,TMP,surface,-94.6879,35.4329,297.806
2016-10-31 00:00:00,2016-10-31 00:00:00,TMP,surface,-93.7504,35.4329,297.367
2016-10-31 00:00:00,2016-10-31 00:00:00,TMP,surface,-92.8129,35.4329,297.229
2016-10-31 00:00:00,2016-10-31 00:00:00,TMP,surface,-107.813,36.3778,294.86
2016-10-31 00:00:00,2016-10-31 00:00:00,TMP,surface,-106.875,36.3778,291.892
2016-10-31 00:00:00,2016-10-31 00:00:00,TMP,surface,-105.938,36.3778,292.143
2016-10-31 00:00:00,2016-10-31 00:00:00,TMP,surface,-105,36.3778,292.404
2016-10-31 00:00:00,2016-10-31 00:00:00,TMP,surface,-104.063,36.3778,294.828
2016-10-31 00:00:00,2016-10-31 00:00:00,TMP,surface,-103.125,36.3778,296.949
2016-10-31 00:00:00,2016-10-31 00:00:00,TMP,surface,-102.188,36.3778,298.258
2016-10-31 00:00:00,2016-10-31 00:00:00,TMP,surface,-101.25,36.3778,298.62
2016-10-31 00:00:00,2016-10-31 00:00:00,TMP,surface,-100.313,36.3778,298.46
2016-10-31 00:00:00,2016-10-31 00:00:00,TMP,surface,-99.3754,36.3778,298.207
2016-10-31 00:00:00,2016-10-31 00:00:00,TMP,surface,-98.4379,36.3778,298.167
2016-10-31 00:00:00,2016-10-31 00:00:00,TMP,surface,-97.5004,36.3778,297.972
2016-10-31 00:00:00,2016-10-31 00:00:00,TMP,surface,-96.5629,36.3778,297.729
2016-10-31 00:00:00,2016-10-31 00:00:00,TMP,surface,-95.6254,36.3778,297.769
2016-10-31 00:00:00,2016-10-31 00:00:00,TMP,surface,-94.6879,36.3778,297.572
2016-10-31 00:00:00,2016-10-31 00:00:00,TMP,surface,-93.7504,36.3778,296.882
2016-10-31 00:00:00,2016-10-31 00:00:00,TMP,surface,-92.8129,36.3778,296.641
2016-10-31 00:00:00,2016-10-31 00:00:00,PRATE,surface,-107.813,25.0393,1.32e-05
2016-10-31 00:00:00,2016-10-31 00:00:00,PRATE,surface,-106.875,25.0393,0.0001082
2016-10-31 00:00:00,2016-10-31 00:00:00,PRATE,surface,-105.938,25.0393,0.0001156
2016-10-31 00:00:00,2016-10-31 00:00:00,PRATE,surface,-105,25.0393,6.18e-05
2016-10-31 00:00:00,2016-10-31 00:00:00,PRATE,surface,-104.063,25.0393,1.64e-05
2016-10-31 00:00:00,2016-10-31 00:00:00,PRATE,surface,-103.125,25.0393,3.3e-06
2016-10-31 00:00:00,2016-10-31 00:00:00,PRATE,surface,-102.188,25.0393,5.7e-06
2016-10-31 00:00:00,2016-10-31 00:00:00,PRATE,surface,-101.25,25.0393,4.44e-05
2016-10-31 00:00:00,2016-10-31 00:00:00,PRATE,surface,-100.313,25.0393,8.56e-05
2016-10-31 00:00:00,2016-10-31 00:00:00,PRATE,surface,-99.3754,25.0393,3.71e-05
2016-10-31 00:00:00,2016-10-31 00:00:00,PRATE,surface,-98.4379,25.0393,1.73e-05
2016-10-31 00:00:00,2016-10-31 00:00:00,PRATE,surface,-97.5004,25.0393,2.78e-05
2016-10-31 00:00:00,2016-10-31 00:00:00,PRATE,surface,-96.5629,25.0393,2.5e-05
2016-10-31 00:00:00,2016-10-31 00:00:00,PRATE,surface,-95.6254,25.0393,1.75e-05
2016-10-31 00:00:00,2016-10-31 00:00:00,PRATE,surface,-94.6879,25.0393,1.83e-05
2016-10-31 00:00:00,2016-10-31 00:00:00,PRATE,surface,-93.7504,25.0393,3.6e-05
2016-10-31 00:00:00,2016-10-31 00:00:00,PRATE,surface,-92.8129,25.0393,5.13e-05
2016-10-31 00:00:00,2016-10-31 00:00:00,PRATE,surface,-107.813,25.9842,6.95e-05
2016-10-31 00:00:00,2016-10-31 00:00:00,PRATE,surface,-106.875,25.9842,9.65e-05
2016-10-31 00:00:00,2016-10-31 00:00:00,PRATE,surface,-105.938,25.9842,6.47e-05
2016-10-31 00:00:00,2016-10-31 00:00:00,PRATE,surface,-105,25.9842,2.74e-05
2016-10-31 00:00:00,2016-10-31 00:00:00,PRATE,surface,-104.063,25.9842,4.3e-06
2016-10-31 00:00:00,2016-10-31 00:00:00,PRATE,surface,-103.125,25.9842,2.2e-06
2016-10-31 00:00:00,2016-10-31 00:00:00,PRATE,surface,-102.188,25.9842,2.9e-06
2016-10-31 00:00:00,2016-10-31 00:00:00,PRATE,surface,-101.25,25.9842,1.81e-05
2016-10-31 00:00:00,2016-10-31 00:00:00,PRATE,surface,-100.313,25.9842,3.26e-05
2016-10-31 00:00:00,2016-10-31 00:00:00,PRATE,surface,-99.3754,25.9842,1.17e-05
2016-10-31 00:00:00,2016-10-31 00:00:00,PRATE,surface,-98.4379,25.9842,2.04e-05
2016-10-31 00:00:00,2016-10-31 00:00:00,PRATE,surface,-97.5004,25.9842,6.05e-05
2016-10-31 00:00:00,2016-10-31 00:00:00,PRATE,surface,-96.5629,25.9842,2.06e-05
2016-10-31 00:00:00,2016-10-31 00:00:00,PRATE,surface,-95.6254,25.9842,2.03e-05
2016-10-31 00:00:00,2016-10-31 00:00:00,PRATE,surface,-94.6879,25.9842,2.05e-05
2016-10-31 00:00:00,2016-10-31 00:00:00,PRATE,surface,-93.7504,25.9842,3.67e-05
2016-10-31 00:00:00,2016-10-31 00:00:00,PRATE,surface,-92.8129,25.9842,3.24e-05
2016-10-31 00:00:00,2016-10-31 00:00:00,PRATE,surface,-107.813,26.929,8.4e-05
2016-10-31 00:00:00,2016-10-31 00:00:00,PRATE,surface,-106.875,26.929,6.3e-05
2016-10-31 00:00:00,2016-10-31 00:00:00,PRATE,surface,-105.938,26.929,3.1e-05
2016-10-31 00:00:00,2016-10-31 00:00:00,PRATE,surface,-105,26.929,1.06e-05
2016-10-31 00:00:00,2016-10-31 00:00:00,PRATE,surface,-104.063,26.929,7.6e-06
2016-10-31 00:00:00,2016-10-31 00:00:00,PRATE,surface,-103.125,26.929,1.12e-05
2016-10-31 00:00:00,2016-10-31 00:00:00,PRATE,surface,-102.188,26.929,1.04e-05
2016-10-31 00:00:00,2016-10-31 00:00:00,PRATE,surface,-101.25,26.929,2.23e-05
2016-10-31 00:00:00,2016-10-31 00:00:00,PRATE,surface,-100.313,26.929,7.9e-06
2016-10-31 00:00:00,2016-10-31 00:00:00,PRATE,surface,-99.3754,26.929,1.29e-05
2016-10-31 00:00:00,2016-10-31 00:00:00,PRATE,surface,-98.4379,26.929,3.91e-05
2016-10-31 00:00:00,2016-10-31 00:00:00,PRATE,surface,-97.5004,26.929,3.44e-05
2016-10-31 00:00:00,2016-10-31 00:00:00,PRATE,surface,-96.5629,26.929,1.58e-05
2016-10-31 00:00:00,2016-10-31 00:00:00,PRATE,surface,-95.6254,26.929,1.37e-05
2016-10-31 00:00:00,2016-10-31 00:00:00,PRATE,surface,-94.6879,26.929,1.5e-05
2016-10-31 00:00:00,2016-10-31 00:00:00,PRATE,surface,-93.7504,26.929,2.2e-05
2016-10-31 00:00:00,2016-10-31 00:00:00,PRATE,surface,-92.8129,26.929,2.97e-05
2016-10-31 00:00:00,2016-10-31 00:00:00,PRATE,surface,-107.813,27.8739,0.0001025
2016-10-31 00:00:00,2016-10-31 00:00:00,PRATE,surface,-106.875,27.8739,5.15e-05
2016-10-31 00:00:00,2016-10-31 00:00:00,PRATE,surface,-105.938,27.8739,8.1e-06
2016-10-31 00:00:00,2016-10-31 00:00:00,PRATE,surface,-105,27.8739,2.8e-06
2016-10-31 00:00:00,2016-10-31 00:00:00,PRATE,surface,-104.063,27.8739,9.5e-06
2016-10-31 00:00:00,2016-10-31 00:00:00,PRATE,surface,-103.125,27.8739,1.61e-05
2016-10-31 00:00:00,2016-10-31 00:00:00,PRATE,surface,-102.188,27.8739,1.44e-05
2016-10-31 00:00:00,2016-10-31 00:00:00,PRATE,surface,-101.25,27.8739,4.9e-06
2016-10-31 00:00:00,2016-10-31 00:00:00,PRATE,surface,-100.313,27.8739,4.6e-06
2016-10-31 00:00:00,2016-10-31 00:00:00,PRATE,surface,-99.3754,27.8739,2.28e-05
2016-10-31 00:00:00,2016-10-31 00:00:00,PRATE,surface,-98.4379,27.8739,4.49e-05
2016-10-31 00:00:00,2016-10-31 00:00:00,PRATE,surface,-97.5004,27.8739,3.62e-05
2016-10-31 00:00:00,2016-10-31 00:00:00,PRATE,surface,-96.5629,27.8739,1.79e-05
2016-10-31 00:00:00,2016-10-31 00:00:00,PRATE,surface,-95.6254,27.8739,1.52e-05
2016-10-31 00:00:00,2016-10-31 00:00:00,PRATE,surface,-94.6879,27.8739,1.08e-05
2016-10-31 00:00:00,2016-10-31 00:00:00,PRATE,surface,-93.7504,27.8739,1.25e-05
2016-10-31 00:00:00,2016-10-31 00:00:00,PRATE,surface,-92.8129,27.8739,2.26e-05
2016-10-31 00:00:00,2016-10-31 00:00:00,PRATE,surface,-107.813,28.8188,9.3e-05
2016-10-31 00:00:00,2016-10-31 00:00:00,PRATE,surface,-106.875,28.8188,3.81e-05
2016-10-31 00:00:00,2016-10-31 00:00:00,PRATE,surface,-105.938,28.8188,9.2e-06
2016-10-31 00:00:00,2016-10-31 00:00:00,PRATE,surface,-105,28.8188,1.9e-06
2016-10-31 00:00:00,2016-10-31 00:00:00,PRATE,surface,-104.063,28.8188,6.2e-06
2016-10-31 00:00:00,2016-10-31 00:00:00,PRATE,surface,-103.125,28.8188,3.7e-06
2016-10-31 00:00:00,2016-10-31 00:00:00,PRATE,surface,-102.188,28.8188,1.8e-06
2016-10-31 00:00:00,2016-10-31 00:00:00,PRATE,surface,-101.25,28.8188,5e-07
2016-10-31 00:00:00,2016-10-31 00:00:00,PRATE,surface,-100.313,28.8188,7.8e-06
2016-10-31 00:00:00,2016-10-31 00:00:00,PRATE,surface,-99.3754,28.8188,2.5e-05
2016-10-31 00:00:00,2016-10-31 00:00:00,PRATE,surface,-98.4379,28.8188,5.58e-05
2016-10-31 00:00:00,2016-10-31 00:00:00,PRATE,surface,-97.5004,28.8188,5.67e-05
2016-10-31 00:00:00,2016-10-31 00:00:00,PRATE,surface,-96.5629,28.8188,3.31e-05
2016-10-31 00:00:00,2016-10-31 00:00:00,PRATE,surface,-95.6254,28.8188,2.26e-05
2016-10-31 00:00:00,2016-10-31 00:00:00,PRATE,surface,-94.6879,28.8188,1.9e-05
2016-10-31 00:00:00,2016-10-31 00:00:00,PRATE,surface,-93.7504,28.8188,1.55e-05
2016-10-31 00:00:00,2016-10-31 00:00:00,PRATE,surface,-92.8129,28.8188,1.21e-05
2016-10-31 00:00:00,2016-10-31 00:00:00,PRATE,surface,-107.813,29.7637,4.15e-05
2016-10-31 00:00:00,2016-10-31 00:00:00,PRATE,surface,-106.875,29.7637,3.01e-05
2016-10-31 00:00:00,2016-10-31 00:00:00,PRATE,surface,-105.938,29.7637,6.8e-06
2016-10-31 00:00:00,2016-10-31 00:00:00,PRATE,surface,-105,29.7637,5.4e-06
2016-10-31 00:00:00,2016-10-31 00:00:00,PRATE,surface,-104.063,29.7637,4.2e-06
2016-10-31 00:00:00,2016-10-31 00:00:00,PRATE,surface,-103.125,29.7637,1.9e-06
2016-10-31 00:00:00,2016-10-31 00:00:00,PRATE,surface,-102.188,29.7637,3e-07
2016-10-31 00:00:00,2016-10-31 00:00:00,PRATE,surface,-101.25,29.7637,7e-07
2016-10-31 00:00:00,2016-10-31 00:00:00,PRATE,surface,-100.313,29.7637,9.1e-06
2016-10-31 00:00:00,2016-10-31 00:00:00,PRATE,surface,-99.3754,29.7637,3.4e-05
2016-10-31 00:00:00,2016-10-31 00:00:00,PRATE,surface,-98.4379,29.7637,4.58e-05
2016-10-31 00:00:00,2016-10-31 00:00:00,PRATE,surface,-97.5004,29.7637,3.48e-05
2016-10-31 00:00:00,2016-10-31 00:00:00,PRATE,surface,-96.5629,29.7637,2.85e-05
2016-10-31 00:00:00,2016-10-31 00:00:00,PRATE,surface,-95.6254,29.7637,3.32e-05
2016-10-31 00:00:00,2016-10-31 00:00:00,PRATE,surface,-94.6879,29.7637,2.61e-05
2016-10-31 00:00:00,2016-10-31 00:00:00,PRATE,surface,-93.7504,29.7637,1.84e-05
2016-10-31 00:00:00,2016-10-31 00:00:00,PRATE,surface,-92.8129,29.7637,3.9e-05
2016-10-31 00:00:00,2016-10-31 00:00:00,PRATE,surface,-107.813,30.7085,1.32e-05
2016-10-31 00:00:00,2016-10-31 00:00:00,PRATE,surface,-106.875,30.7085,7.3e-06
2016-10-31 00:00:00,2016-10-31 00:00:00,PRATE,surface,-105.938,30.7085,7.6e-06
2016-10-31 00:00:00,2016-10-31 00:00:00,PRATE,surface,-105,30.7085,8.5e-06
2016-10-31 00:00:00,2016-10-31 00:00:00,PRATE,surface,-104.063,30.7085,8.7e-06
2016-10-31 00:00:00,2016-10-31 00:00:00,PRATE,surface,-103.125,30.7085,1.9e-06
2016-10-31 00:00:00,2016-10-31 00:00:00,PRATE,surface,-102.188,30.7085,5e-07
2016-10-31 00:00:00,2016-10-31 00:00:00,PRATE,surface,-101.25,30.7085,3e-07
2016-10-31 00:00:00,2016-10-31 00:00:00,PRATE,surface,-100.313,30.7085,1.04e-05
2016-10-31 00:00:00,2016-10-31 00:00:00,PRATE,surface,-99.3754,30.7085,2.32e-05
2016-10-31 00:00:00,2016-10-31 00:00:00,PRATE,surface,-98.4379,30.7085,2.22e-05
2016-10-31 00:00:00,2016-10-31 00:00:00,PRATE,surface,-97.5004,30.7085,1.3e-05
2016-10-31 00:00:00,2016-10-31 00:00:00,PRATE,surface,-96.5629,30.7085,1.5e-05
2016-10-31 00:00:00,2016-10-31 00:00:00,PRATE,surface,-95.6254,30.7085,2.86e-05
2016-10-31 00:00:00,2016-10-31 00:00:00,PRATE,surface,-94.6879,30.7085,3.54e-05
2016-10-31 00:00:00,2016-10-31 00:00:00,PRATE,surface,-93.7504,30.7085,3.15e-05
2016-10-31 00:00:00,2016-10-31 00:00:00,PRATE,surface,-92.8129,30.7085,3.19e-05
2016-10-31 00:00:00,2016-10-31 00:00:00,PRATE,surface,-107.813,31.6534,3.3e-06
2016-10-31 00:00:00,2016-10-31 00:00:00,PRATE,surface,-106.875,31.6534,5.7e-06
2016-10-31 00:00:00,2016-10-31 00:00:00,PRATE,surface,-105.938,31.6534,7.4e-06
2016-10-31 00:00:00,2016-10-31 00:00:00,PRATE,surface,-105,31.6534,1.42e-05
2016-10-31 00:00:00,2016-10-31 00:00:00,PRATE,surface,-104.063,31.6534,1.1e-05
2016-10-31 00:00:00,2016-10-31 00:00:00,PRATE,surface,-103.125,31.6534,5.9e-06
2016-10-31 00:00:00,2016-10-31 00:00:00,PRATE,surface,-102.188,31.6534,7.4e-06
2016-10-31 00:00:00,2016-10-31 00:00:00,PRATE,surface,-101.25,31.6534,4.4e-06
2016-10-31 00:00:00,2016-10-31 00:00:00,PRATE,surface,-100.313,31.6534,8.9e-06
2016-10-31 00:00:00,2016-10-31 00:00:00,PRATE,surface,-99.3754,31.6534,1.8e-05
2016-10-31 00:00:00,2016-10-31 00:00:00,PRATE,surface,-98.4379,31.6534,1.93e-05
2016-10-31 00:00:00,2016-10-31 00:00:00,PRATE,surface,-97.5004,31.6534,1.61e-05
2016-10-31 00:00:00,2016-10-31 00:00:00,PRATE,surface,-96.5629,31.6534,1.44e-05
2016-10-31 00:00:00,2016-10-31 00:00:00,PRATE,surface,-95.6254,31.6534,1.61e-05
2016-10-31 00:00:00,2016-10-31 00:00:00,PRATE,surface,-94.6879,31.6534,2.31e-05
2016-10-31 00:00:00,2016-10-31 00:00:00,PRATE,surface,-93.7504,31.6534,2.72e-05
2016-10-31 00:00:00,2016-10-31 00:00:00,PRATE,surface,-92.8129,31.6534,2.06e-05
2016-10-31 00:00:00,2016-10-31 00:00:00,PRATE,surface,-107.813,32.5983,1.46e-05
2016-10-31 00:00:00,2016-10-31 00:00:00,PRATE,surface,-106.875,32.5983,1.72e-05
2016-10-31 00:00:00,2016-10-31 00:00:00,PRATE,surface,-105.938,32.5983,9.3e-06
2016-10-31 00:00:00,2016-10-31 00:00:00,PRATE,surface,-105,32.5983,1.64e-05
2016-10-31 00:00:00,2016-10-31 00:00:00,PRATE,surface,-104.063,32.5983,1.92e-05
2016-10-31 00:00:00,2016-10-31 00:00:00,PRATE,surface,-103.125,32.5983,1.27e-05
2016-10-31 00:00:00,2016-10-31 00:00:00,PRATE,surface,-102.188,32.5983,1.18e-05
2016-10-31 00:00:00,2016-10-31 00:00:00,PRATE,surface,-101.25,32.5983,2.08e-05
2016-10-31 00:00:00,2016-10-31 00:00:00,PRATE,surface,-100.313,32.5983,2.73e-05
2016-10-31 00:00:00,2016-10-31 00:00:00,PRATE,surface,-99.3754,32.5983,3.38e-05
2016-10-31 00:00:00,2016-10-31 00:00:00,PRATE,surface,-98.4379,32.5983,3.6e-05
2016-10-31 00:00:00,2016-10-31 00:00:00,PRATE,surface,-97.5004,32.5983,2.87e-05
2016-10-31 00:00:00,2016-10-31 00:00:00,PRATE,surface,-96.5629,32.5983,1.97e-05
2016-10-31 00:00:00,2016-10-31 00:00:00,PRATE,surface,-95.6254,32.5983,1.69e-05
2016-10-31 00:00:00,2016-10-31 00:00:00,PRATE,surface,-94.6879,32.5983,1.7e-05
2016-10-31 00:00:00,2016-10-31 00:00:00,PRATE,surface,-93.7504,32.5983,1.77e-05
2016-10-31 00:00:00,2016-10-31 00:00:00,PRATE,surface,-92.8129,32.5983,1.93e-05
2016-10-31 00:00:00,2016-10-31 00:00:00,PRATE,surface,-107.813,33.5432,4.16e-05
2016-10-31 00:00:00,2016-10-31 00:00:00,PRATE,surface,-106.875,33.5432,3.33e-05
2016-10-31 00:00:00,2016-10-31 00:00:00,PRATE,surface,-105.938,33.5432,1.68e-05
2016-10-31 00:00:00,2016-10-31 00:00:00,PRATE,surface,-105,33.5432,2.04e-05
2016-10-31 00:00:00,2016-10-31 00:00:00,PRATE,surface,-104.063,33.5432,2.32e-05
2016-10-31 00:00:00,2016-10-31 00:00:00,PRATE,surface,-103.125,33.5432,1.9e-05
2016-10-31 00:00:00,2016-10-31 00:00:00,PRATE,surface,-102.188,33.5432,1.45e-05
2016-10-31 00:00:00,2016-10-31 00:00:00,PRATE,surface,-101.25,33.5432,1.19e-05
2016-10-31 00:00:00,2016-10-31 00:00:00,PRATE,surface,-100.313,33.5432,1.78e-05
2016-10-31 00:00:00,2016-10-31 00:00:00,PRATE,surface,-99.3754,33.5432,2.7e-05
2016-10-31 00:00:00,2016-10-31 00:00:00,PRATE,surface,-98.4379,33.5432,3.42e-05
2016-10-31 00:00:00,2016-10-31 00:00:00,PRATE,surface,-97.5004,33.5432,3.37e-05
2016-10-31 00:00:00,2016-10-31 00:00:00,PRATE,surface,-96.5629,33.5432,3.14e-05
2016-10-31 00:00:00,2016-10-31 00:00:00,PRATE,surface,-95.6254,33.5432,3.15e-05
2016-10-31 00:00:00,2016-10-31 00:00:00,PRATE,surface,-94.6879,33.5432,3.01e-05
2016-10-31 00:00:00,2016-10-31 00:00:00,PRATE,surface,-93.7504,33.5432,2.8e-05
2016-10-31 00:00:00,2016-10-31 00:00:00,PRATE,surface,-92.8129,33.5432,1.92e-05
2016-10-31 00:00:00,2016-10-31 00:00:00,PRATE,surface,-107.813,34.4881,3.7e-05
2016-10-31 00:00:00,2016-10-31 00:00:00,PRATE,surface,-106.875,34.4881,1.67e-05
2016-10-31 00:00:00,2016-10-31 00:00:00,PRATE,surface,-105.938,34.4881,1.48e-05
2016-10-31 00:00:00,2016-10-31 00:00:00,PRATE,surface,-105,34.4881,1.74e-05
2016-10-31 00:00:00,2016-10-31 00:00:00,PRATE,surface,-104.063,34.4881,2.55e-05
2016-10-31 00:00:00,2016-10-31 00:00:00,PRATE,surface,-103.125,34.4881,2.63e-05
2016-10-31 00:00:00,2016-10-31 00:00:00,PRATE,surface,-102.188,34.4881,1.99e-05
2016-10-31 00:00:00,2016-10-31 00:00:00,PRATE,surface,-101.25,34.4881,2.07e-05
2016-10-31 00:00:00,2016-10-31 00:00:00,PRATE,surface,-100.313,34.4881,2.18e-05
2016-10-31 00:00:00,2016-10-31 00:00:00,PRATE,surface,-99.3754,34.4881,2.88e-05
2016-10-31 00:00:00,2016-10-31 00:00:00,PRATE,surface,-98.4379,34.4881,3.35e-05
2016-10-31 00:00:00,2016-10-31 00:00:00,PRATE,surface,-97.5004,34.4881,3.62e-05
2016-10-31 00:00:00,2016-10-31 00:00:00,PRATE,surface,-96.5629,34.4881,3.76e-05
2016-10-31 00:00:00,2016-10-31 00:00:00,PRATE,surface,-95.6254,34.4881,3.67e-05
2016-10-31 00:00:00,2016-10-31 00:00:00,PRATE,surface,-94.6879,34.4881,3.98e-05
2016-10-31 00:00:00,2016-10-31 00:00:00,PRATE,surface,-93.7504,34.4881,4.31e-05
2016-10-31 00:00:00,2016-10-31 00:00:00,PRATE,surface,-92.8129,34.4881,3.26e-05
2016-10-31 00:00:00,2016-10-31 00:00:00,PRATE,surface,-107.813,35.4329,8.7e-06
2016-10-31 00:00:00,2016-10-31 00:00:00,PRATE,surface,-106.875,35.4329,7.5e-06
2016-10-31 00:00:00,2016-10-31 00:00:00,PRATE,surface,-105.938,35.4329,1.09e-05
2016-10-31 00:00:00,2016-10-31 00:00:00,PRATE,surface,-105,35.4329,2.18e-05
2016-10-31 00:00:00,2016-10-31 00:00:00,PRATE,surface,-104.063,35.4329,2.62e-05
2016-10-31 00:00:00,2016-10-31 00:00:00,PRATE,surface,-103.125,35.4329,2.21e-05
2016-10-31 00:00:00,2016-10-31 00:00:00,PRATE,surface,-102.188,35.4329,2.77e-05
2016-10-31 00:00:00,2016-10-31 00:00:00,PRATE,surface,-101.25,35.4329,3.88e-05
2016-10-31 00:00:00,2016-10-31 00:00:00,PRATE,surface,-100.313,35.4329,4.31e-05
2016-10-31 00:00:00,2016-10-31 00:00:00,PRATE,surface,-99.3754,35.4329,4.77e-05
2016-10-31 00:00:00,2016-10-31 00:00:00,PRATE,surface,-98.4379,35.4329,5.35e-05
2016-10-31 00:00:00,2016-10-31 00:00:00,PRATE,surface,-97.5004,35.4329,5.36e-05
2016-10-31 00:00:00,2016-10-31 00:00:00,PRATE,surface,-96.5629,35.4329,4.46e-05
2016-10-31 00:00:00,2016-10-31 00:00:00,PRATE,surface,-95.6254,35.4329,3.45e-05
2016-10-31 00:00:00,2016-10-31 00:00:00,PRATE,surface,-94.6879,35.4329,3.45e-05
2016-10-31 00:00:00,2016-10-31 00:00:00,PRATE,surface,-93.7504,35.4329,3.92e-05
2016-10-31 00:00:00,2016-10-31 00:00:00,PRATE,surface,-92.8129,35.4329,3.49e-05
2016-10-31 00:00:00,2016-10-31 00:00:00,PRATE,surface,-107.813,36.3778,4.6e-06
2016-10-31 00:00:00,2016-10-31 00:00:00,PRATE,surface,-106.875,36.3778,1.34e-05
2016-10-31 00:00:00,2016-10-31 00:00:00,PRATE,surface,-105.938,36.3778,2.83e-05
2016-10-31 00:00:00,2016-10-31 00:00:00,PRATE,surface,-105,36.3778,3.57e-05
2016-10-31 00:00:00,2016-10-31 00:00:00,PRATE,surface,-104.063,36.3778,5.34e-05
2016-10-31 00:00:00,2016-10-31 00:00:00,PRATE,surface,-103.125,36.3778,3.97e-05
2016-10-31 00:00:00,2016-10-31 00:00:00,PRATE,surface,-102.188,36.3778,3.17e-05
2016-10-31 00:00:00,2016-10-31 00:00:00,PRATE,surface,-101.25,36.3778,3.91e-05
2016-10-31 00:00:00,2016-10-31 00:00:00,PRATE,surface,-100.313,36.3778,4.6e-05
2016-10-31 00:00:00,2016-10-31 00:00:00,PRATE,surface,-99.3754,36.3778,5.4e-05
2016-10-31 00:00:00,2016-10-31 00:00:00,PRATE,surface,-98.4379,36.3778,5.87e-05
2016-10-31 00:00:00,2016-10-31 00:00:00,PRATE,surface,-97.5004,36.3778,5.69e-05
2016-10-31 00:00:00,2016-10-31 00:00:00,PRATE,surface,-96.5629,36.3778,4.66e-05
2016-10-31 00:00:00,2016-10-31 00:00:00,PRATE,surface,-95.6254,36.3778,3.59e-05
2016-10-31 00:00:00,2016-10-31 00:00:00,PRATE,surface,-94.6879,36.3778,3.65e-05
2016-10-31 00:00:00,2016-10-31 00:00:00,PRATE,surface,-93.7504,36.3778,4.07e-05
2016-10-31 00:00:00,2016-10-31 00:00:00,PRATE,surface,-92.8129,36.3778,3.84e-05
