2014-01-20 00:00:00,2014-01-20 00:00:00,TMP,surface,-107.813,25.0393,294.093
2014-01-20 00:00:00,2014-01-20 00:00:00,TMP,surface,-106.875,25.0393,289.861
2014-01-20 00:00:00,2014-01-20 00:00:00,TMP,surface,-105.938,25.0393,284.29
2014-01-20 00:00:00,2014-01-20 00:00:00,TMP,surface,-105,25.0393,284.495
2014-01-20 00:00:00,2014-01-20 00:00:00,TMP,surface,-104.063,25.0393,288.08
2014-01-20 00:00:00,2014-01-20 00:00:00,TMP,surface,-103.125,25.0393,289.294
2014-01-20 00:00:00,2014-01-20 00:00:00,TMP,surface,-102.188,25.0393,288.592
2014-01-20 00:00:00,2014-01-20 00:00:00,TMP,surface,-101.25,25.0393,286.792
2014-01-20 00:00:00,2014-01-20 00:00:00,TMP,surface,-100.313,25.0393,286.877
2014-01-20 00:00:00,2014-01-20 00:00:00,TMP,surface,-99.3754,25.0393,288.871
2014-01-20 00:00:00,2014-01-20 00:00:00,TMP,surface,-98.4379,25.0393,291.394
2014-01-20 00:00:00,2014-01-20 00:00:00,TMP,surface,-97.5004,25.0393,292.653
2014-01-20 00:00:00,2014-01-20 00:00:00,TMP,surface,-96.5629,25.0393,294.205
2014-01-20 00:00:00,2014-01-20 00:00:00,TMP,surface,-95.6254,25.0393,294.875
2014-01-20 00:00:00,2014-01-20 00:00:00,TMP,surface,-94.6879,25.0393,295.142
2014-01-20 00:00:00,2014-01-20 00:00:00,TMP,surface,-93.7504,25.0393,295.144
2014-01-20 00:00:00,2014-01-20 00:00:00,TMP,surface,-92.8129,25.0393,294.927
2014-01-20 00:00:00,2014-01-20 00:00:00,TMP,surface,-107.813,25.9842,290.242
2014-01-20 00:00:00,2014-01-20 00:00:00,TMP,surface,-106.875,25.9842,285.194
2014-01-20 00:00:00,2014-01-20 00:00:00,TMP,surface,-105.938,25.9842,283.229
2014-01-20 00:00:00,2014-01-20 00:00:00,TMP,surface,-105,25.9842,286.235
2014-01-20 00:00:00,2014-01-20 00:00:00,TMP,surface,-104.063,25.9842,289.336
2014-01-20 00:00:00,2014-01-20 00:00:00,TMP,surface,-103.125,25.9842,290.026
2014-01-20 00:00:00,2014-01-20 00:00:00,TMP,surface,-102.188,25.9842,288.712
2014-01-20 00:00:00,2014-01-20 00:00:00,TMP,surface,-101.25,25.9842,287.538
2014-01-20 00:00:00,2014-01-20 00:00:00,TMP,surface,-100.313,25.9842,287.619
2014-01-20 00:00:00,2014-01-20 00:00:00,TMP,surface,-99.3754,25.9842,289.798
2014-01-20 00:00:00,2014-01-20 00:00:00,TMP,surface,-98.4379,25.9842,291.003
2014-01-20 00:00:00,2014-01-20 00:00:00,TMP,surface,-97.5004,25.9842,291.579
2014-01-20 00:00:00,2014-01-20 00:00:00,TMP,surface,-96.5629,25.9842,293.391
2014-01-20 00:00:00,2014-01-20 00:00:00,TMP,surface,-95.6254,25.9842,294.515
2014-01-20 00:00:00,2014-01-20 00:00:00,TMP,surface,-94.6879,25.9842,294.832
2014-01-20 00:00:00,2014-01-20 00:00:00,TMP,surface,-93.7504,25.9842,294.91
2014-01-20 00:00:00,2014-01-20 00:00:00,TMP,surface,-92.8129,25.9842,294.896
2014-01-20 00:00:00,2014-01-20 00:00:00,TMP,surface,-107.813,26.929,285.806
2014-01-20 00:00:00,2014-01-20 00:00:00,TMP,surface,-106.875,26.929,282.267
2014-01-20 00:00:00,2014-01-20 00:00:00,TMP,surface,-105.938,26.929,284.562
2014-01-20 00:00:00,2014-01-20 00:00:00,TMP,surface,-105,26.929,287.875
2014-01-20 00:00:00,2014-01-20 00:00:00,TMP,surface,-104.063,26.929,288.656
2014-01-20 00:00:00,2014-01-20 00:00:00,TMP,surface,-103.125,26.929,287.707
2014-01-20 00:00:00,2014-01-20 00:00:00,TMP,surface,-102.188,26.929,286.869
2014-01-20 00:00:00,2014-01-20 00:00:00,TMP,surface,-101.25,26.929,287.243
2014-01-20 00:00:00,2014-01-20 00:00:00,TMP,surface,-100.313,26.929,288.095
2014-01-20 00:00:00,2014-01-20 00:00:00,TMP,surface,-99.3754,26.929,289.664
2014-01-20 00:00:00,2014-01-20 00:00:00,TMP,surface,-98.4379,26.929,289.45
2014-01-20 00:00:00,2014-01-20 00:00:00,TMP,surface,-97.5004,26.929,290.771
2014-01-20 00:00:00,2014-01-20 00:00:00,TMP,surface,-96.5629,26.929,292.022
2014-01-20 00:00:00,2014-01-20 00:00:00,TMP,surface,-95.6254,26.929,294.01
2014-01-20 00:00:00,2014-01-20 00:00:00,TMP,surface,-94.6879,26.929,294.485
2014-01-20 00:00:00,2014-01-20 00:00:00,TMP,surface,-93.7504,26.929,294.317
2014-01-20 00:00:00,2014-01-20 00:00:00,TMP,surface,-92.8129,26.929,294.33
2014-01-20 00:00:00,2014-01-20 00:00:00,TMP,surface,-107.813,27.8739,282.576
2014-01-20 00:00:00,2014-01-20 00:00:00,TMP,surface,-106.875,27.8739,282.186
2014-01-20 00:00:00,2014-01-20 00:00:00,TMP,surface,-105.938,27.8739,285.579
2014-01-20 00:00:00,2014-01-20 00:00:00,TMP,surface,-105,27.8739,287.91
2014-01-20 00:00:00,2014-01-20 00:00:00,TMP,surface,-104.063,27.8739,287.242
2014-01-20 00:00:00,2014-01-20 00:00:00,TMP,surface,-103.125,27.8739,285.851
2014-01-20 00:00:00,2014-01-20 00:00:00,TMP,surface,-102.188,27.8739,285.635
2014-01-20 00:00:00,2014-01-20 00:00:00,TMP,surface,-101.25,27.8739,286.474
2014-01-20 00:00:00,2014-01-20 00:00:00,TMP,surface,-100.313,27.8739,287.698
2014-01-20 00:00:00,2014-01-20 00:00:00,TMP,surface,-99.3754,27.8739,288.131
2014-01-20 00:00:00,2014-01-20 00:00:00,TMP,surface,-98.4379,27.8739,288.082
2014-01-20 00:00:00,2014-01-20 00:00:00,TMP,surface,-97.5004,27.8739,289.086
2014-01-20 00:00:00,2014-01-20 00:00:00,TMP,surface,-96.5629,27.8739,290.749
2014-01-20 00:00:00,2014-01-20 00:00:00,TMP,surface,-95.6254,27.8739,291.895
2014-01-20 00:00:00,2014-01-20 00:00:00,TMP,surface,-94.6879,27.8739,292.402
2014-01-20 00:00:00,2014-01-20 00:00:00,TMP,surface,-93.7504,27.8739,292.306
2014-01-20 00:00:00,2014-01-20 00:00:00,TMP,surface,-92.8129,27.8739,292.597
2014-01-20 00:00:00,2014-01-20 00:00:00,TMP,surface,-107.813,28.8188,281.186
2014-01-20 00:00:00,2014-01-20 00:00:00,TMP,surface,-106.875,28.8188,282.461
2014-01-20 00:00:00,2014-01-20 00:00:00,TMP,surface,-105.938,28.8188,285.378
2014-01-20 00:00:00,2014-01-20 00:00:00,TMP,surface,-105,28.8188,287.115
2014-01-20 00:00:00,2014-01-20 00:00:00,TMP,surface,-104.063,28.8188,286.246
2014-01-20 00:00:00,2014-01-20 00:00:00,TMP,surface,-103.125,28.8188,285.229
2014-01-20 00:00:00,2014-01-20 00:00:00,TMP,surface,-102.188,28.8188,285.259
2014-01-20 00:00:00,2014-01-20 00:00:00,TMP,surface,-101.25,28.8188,286.019
2014-01-20 00:00:00,2014-01-20 00:00:00,TMP,surface,-100.313,28.8188,286.21
2014-01-20 00:00:00,2014-01-20 00:00:00,TMP,surface,-99.3754,28.8188,285.949
2014-01-20 00:00:00,2014-01-20 00:00:00,TMP,surface,-98.4379,28.8188,285.92
2014-01-20 00:00:00,2014-01-20 00:00:00,TMP,surface,-97.5004,28.8188,286.232
2014-01-20 00:00:00,2014-01-20 00:00:00,TMP,surface,-96.5629,28.8188,286.608
2014-01-20 00:00:00,2014-01-20 00:00:00,TMP,surface,-95.6254,28.8188,287.602
2014-01-20 00:00:00,2014-01-20 00:00:00,TMP,surface,-94.6879,28.8188,288.813
2014-01-20 00:00:00,2014-01-20 00:00:00,TMP,surface,-93.7504,28.8188,288.591
2014-01-20 00:00:00,2014-01-20 00:00:00,TMP,surface,-92.8129,28.8188,288.918
2014-01-20 00:00:00,2014-01-20 00:00:00,TMP,surface,-107.813,29.7637,281.994
2014-01-20 00:00:00,2014-01-20 00:00:00,TMP,surface,-106.875,29.7637,283.306
2014-01-20 00:00:00,2014-01-20 00:00:00,TMP,surface,-105.938,29.7637,285.096
2014-01-20 00:00:00,2014-01-20 00:00:00,TMP,surface,-105,29.7637,285.552
2014-01-20 00:00:00,2014-01-20 00:00:00,TMP,surface,-104.063,29.7637,285.395
2014-01-20 00:00:00,2014-01-20 00:00:00,TMP,surface,-103.125,29.7637,285.323
2014-01-20 00:00:00,2014-01-20 00:00:00,TMP,surface,-102.188,29.7637,285.68
2014-01-20 00:00:00,2014-01-20 00:00:00,TMP,surface,-101.25,29.7637,285.586
2014-01-20 00:00:00,2014-01-20 00:00:00,TMP,surface,-100.313,29.7637,284.703
2014-01-20 00:00:00,2014-01-20 00:00:00,TMP,surface,-99.3754,29.7637,284.058
2014-01-20 00:00:00,2014-01-20 00:00:00,TMP,surface,-98.4379,29.7637,283.981
2014-01-20 00:00:00,2014-01-20 00:00:00,TMP,surface,-97.5004,29.7637,284.197
2014-01-20 00:00:00,2014-01-20 00:00:00,TMP,surface,-96.5629,29.7637,284.397
2014-01-20 00:00:00,2014-01-20 00:00:00,TMP,surface,-95.6254,29.7637,284.571
2014-01-20 00:00:00,2014-01-20 00:00:00,TMP,surface,-94.6879,29.7637,285.21
2014-01-20 00:00:00,2014-01-20 00:00:00,TMP,surface,-93.7504,29.7637,285.923
2014-01-20 00:00:00,2014-01-20 00:00:00,TMP,surface,-92.8129,29.7637,284.963
2014-01-20 00:00:00,2014-01-20 00:00:00,TMP,surface,-107.813,30.7085,283.627
2014-01-20 00:00:00,2014-01-20 00:00:00,TMP,surface,-106.875,30.7085,284.373
2014-01-20 00:00:00,2014-01-20 00:00:00,TMP,surface,-105.938,30.7085,284.467
2014-01-20 00:00:00,2014-01-20 00:00:00,TMP,surface,-105,30.7085,284.403
2014-01-20 00:00:00,2014-01-20 00:00:00,TMP,surface,-104.063,30.7085,284.496
2014-01-20 00:00:00,2014-01-20 00:00:00,TMP,surface,-103.125,30.7085,285.146
2014-01-20 00:00:00,2014-01-20 00:00:00,TMP,surface,-102.188,30.7085,285.277
2014-01-20 00:00:00,2014-01-20 00:00:00,TMP,surface,-101.25,30.7085,284.659
2014-01-20 00:00:00,2014-01-20 00:00:00,TMP,surface,-100.313,30.7085,283.712
2014-01-20 00:00:00,2014-01-20 00:00:00,TMP,surface,-99.3754,30.7085,283.182
2014-01-20 00:00:00,2014-01-20 00:00:00,TMP,surface,-98.4379,30.7085,283.03
2014-01-20 00:00:00,2014-01-20 00:00:00,TMP,surface,-97.5004,30.7085,282.974
2014-01-20 00:00:00,2014-01-20 00:00:00,TMP,surface,-96.5629,30.7085,282.965
2014-01-20 00:00:00,2014-01-20 00:00:00,TMP,surface,-95.6254,30.7085,283.01
2014-01-20 00:00:00,2014-01-20 00:00:00,TMP,surface,-94.6879,30.7085,283.021
2014-01-20 00:00:00,2014-01-20 00:00:00,TMP,surface,-93.7504,30.7085,282.906
2014-01-20 00:00:00,2014-01-20 00:00:00,TMP,surface,-92.8129,30.7085,282.648
2014-01-20 00:00:00,2014-01-20 00:00:00,TMP,surface,-107.813,31.6534,283.226
2014-01-20 00:00:00,2014-01-20 00:00:00,TMP,surface,-106.875,31.6534,283.626
2014-01-20 00:00:00,2014-01-20 00:00:00,TMP,surface,-105.938,31.6534,283.419
2014-01-20 00:00:00,2014-01-20 00:00:00,TMP,surface,-105,31.6534,283.387
2014-01-20 00:00:00,2014-01-20 00:00:00,TMP,surface,-104.063,31.6534,283.901
2014-01-20 00:00:00,2014-01-20 00:00:00,TMP,surface,-103.125,31.6534,284.474
2014-01-20 00:00:00,2014-01-20 00:00:00,TMP,surface,-102.188,31.6534,284.394
2014-01-20 00:00:00,2014-01-20 00:00:00,TMP,surface,-101.25,31.6534,283.877
2014-01-20 00:00:00,2014-01-20 00:00:00,TMP,surface,-100.313,31.6534,283.383
2014-01-20 00:00:00,2014-01-20 00:00:00,TMP,surface,-99.3754,31.6534,283
2014-01-20 00:00:00,2014-01-20 00:00:00,TMP,surface,-98.4379,31.6534,282.573
2014-01-20 00:00:00,2014-01-20 00:00:00,TMP,surface,-97.5004,31.6534,282.142
2014-01-20 00:00:00,2014-01-20 00:00:00,TMP,surface,-96.5629,31.6534,281.883
2014-01-20 00:00:00,2014-01-20 00:00:00,TMP,surface,-95.6254,31.6534,281.744
2014-01-20 00:00:00,2014-01-20 00:00:00,TMP,surface,-94.6879,31.6534,281.554
2014-01-20 00:00:00,2014-01-20 00:00:00,TMP,surface,-93.7504,31.6534,281.381
2014-01-20 00:00:00,2014-01-20 00:00:00,TMP,surface,-92.8129,31.6534,281.322
2014-01-20 00:00:00,2014-01-20 00:00:00,TMP,surface,-107.813,32.5983,280.832
2014-01-20 00:00:00,2014-01-20 00:00:00,TMP,surface,-106.875,32.5983,281.085
2014-01-20 00:00:00,2014-01-20 00:00:00,TMP,surface,-105.938,32.5983,281.47
2014-01-20 00:00:00,2014-01-20 00:00:00,TMP,surface,-105,32.5983,282.062
2014-01-20 00:00:00,2014-01-20 00:00:00,TMP,surface,-104.063,32.5983,282.854
2014-01-20 00:00:00,2014-01-20 00:00:00,TMP,surface,-103.125,32.5983,283.235
2014-01-20 00:00:00,2014-01-20 00:00:00,TMP,surface,-102.188,32.5983,283.16
2014-01-20 00:00:00,2014-01-20 00:00:00,TMP,surface,-101.25,32.5983,282.992
2014-01-20 00:00:00,2014-01-20 00:00:00,TMP,surface,-100.313,32.5983,282.823
2014-01-20 00:00:00,2014-01-20 00:00:00,TMP,surface,-99.3754,32.5983,282.589
2014-01-20 00:00:00,2014-01-20 00:00:00,TMP,surface,-98.4379,32.5983,282.005
2014-01-20 00:00:00,2014-01-20 00:00:00,TMP,surface,-97.5004,32.5983,281.243
2014-01-20 00:00:00,2014-01-20 00:00:00,TMP,surface,-96.5629,32.5983,280.723
2014-01-20 00:00:00,2014-01-20 00:00:00,TMP,surface,-95.6254,32.5983,280.44
2014-01-20 00:00:00,2014-01-20 00:00:00,TMP,surface,-94.6879,32.5983,280.155
2014-01-20 00:00:00,2014-01-20 00:00:00,TMP,surface,-93.7504,32.5983,279.955
2014-01-20 00:00:00,2014-01-20 00:00:00,TMP,surface,-92.8129,32.5983,279.984
2014-01-20 00:00:00,2014-01-20 00:00:00,TMP,surface,-107.813,33.5432,277.655
2014-01-20 00:00:00,2014-01-20 00:00:00,TMP,surface,-106.875,33.5432,278.813
2014-01-20 00:00:00,2014-01-20 00:00:00,TMP,surface,-105.938,33.5432,279.754
2014-01-20 00:00:00,2014-01-20 00:00:00,TMP,surface,-105,33.5432,280.856
2014-01-20 00:00:00,2014-01-20 00:00:00,TMP,surface,-104.063,33.5432,281.877
2014-01-20 00:00:00,2014-01-20 00:00:00,TMP,surface,-103.125,33.5432,282.226
2014-01-20 00:00:00,2014-01-20 00:00:00,TMP,surface,-102.188,33.5432,281.947
2014-01-20 00:00:00,2014-01-20 00:00:00,TMP,surface,-101.25,33.5432,281.635
2014-01-20 00:00:00,2014-01-20 00:00:00,TMP,surface,-100.313,33.5432,281.671
2014-01-20 00:00:00,2014-01-20 00:00:00,TMP,surface,-99.3754,33.5432,281.592
2014-01-20 00:00:00,2014-01-20 00:00:00,TMP,surface,-98.4379,33.5432,281.047
2014-01-20 00:00:00,2014-01-20 00:00:00,TMP,surface,-97.5004,33.5432,280.197
2014-01-20 00:00:00,2014-01-20 00:00:00,TMP,surface,-96.5629,33.5432,279.487
2014-01-20 00:00:00,2014-01-20 00:00:00,TMP,surface,-95.6254,33.5432,279.104
2014-01-20 00:00:00,2014-01-20 00:00:00,TMP,surface,-94.6879,33.5432,278.859
2014-01-20 00:00:00,2014-01-20 00:00:00,TMP,surface,-93.7504,33.5432,278.667
2014-01-20 00:00:00,2014-01-20 00:00:00,TMP,surface,-92.8129,33.5432,278.671
2014-01-20 00:00:00,2014-01-20 00:00:00,TMP,surface,-107.813,34.4881,276.024
2014-01-20 00:00:00,2014-01-20 00:00:00,TMP,surface,-106.875,34.4881,277.368
2014-01-20 00:00:00,2014-01-20 00:00:00,TMP,surface,-105.938,34.4881,278.344
2014-01-20 00:00:00,2014-01-20 00:00:00,TMP,surface,-105,34.4881,279.651
2014-01-20 00:00:00,2014-01-20 00:00:00,TMP,surface,-104.063,34.4881,280.406
2014-01-20 00:00:00,2014-01-20 00:00:00,TMP,surface,-103.125,34.4881,280.647
2014-01-20 00:00:00,2014-01-20 00:00:00,TMP,surface,-102.188,34.4881,280.365
2014-01-20 00:00:00,2014-01-20 00:00:00,TMP,surface,-101.25,34.4881,280.08
2014-01-20 00:00:00,2014-01-20 00:00:00,TMP,surface,-100.313,34.4881,279.962
2014-01-20 00:00:00,2014-01-20 00:00:00,TMP,surface,-99.3754,34.4881,279.85
2014-01-20 00:00:00,2014-01-20 00:00:00,TMP,surface,-98.4379,34.4881,279.53
2014-01-20 00:00:00,2014-01-20 00:00:00,TMP,surface,-97.5004,34.4881,278.984
2014-01-20 00:00:00,2014-01-20 00:00:00,TMP,surface,-96.5629,34.4881,278.48
2014-01-20 00:00:00,2014-01-20 00:00:00,TMP,surface,-95.6254,34.4881,278.077
2014-01-20 00:00:00,2014-01-20 00:00:00,TMP,surface,-94.6879,34.4881,277.563
2014-01-20 00:00:00,2014-01-20 00:00:00,TMP,surface,-93.7504,34.4881,277.157
2014-01-20 00:00:00,2014-01-20 00:00:00,TMP,surface,-92.8129,34.4881,277.205
2014-01-20 00:00:00,2014-01-20 00:00:00,TMP,surface,-107.813,35.4329,275.293
2014-01-20 00:00:00,2014-01-20 00:00:00,TMP,surface,-106.875,35.4329,275.57
2014-01-20 00:00:00,2014-01-20 00:00:00,TMP,surface,-105.938,35.4329,276.21
2014-01-20 00:00:00,2014-01-20 00:00:00,TMP,surface,-105,35.4329,277.36
2014-01-20 00:00:00,2014-01-20 00:00:00,TMP,surface,-104.063,35.4329,278.443
2014-01-20 00:00:00,2014-01-20 00:00:00,TMP,surface,-103.125,35.4329,278.952
2014-01-20 00:00:00,2014-01-20 00:00:00,TMP,surface,-102.188,35.4329,278.867
2014-01-20 00:00:00,2014-01-20 00:00:00,TMP,surface,-101.25,35.4329,278.485
2014-01-20 00:00:00,2014-01-20 00:00:00,TMP,surface,-100.313,35.4329,278.165
2014-01-20 00:00:00,2014-01-20 00:00:00,TMP,surface,-99.3754,35.4329,277.902
2014-01-20 00:00:00,2014-01-20 00:00:00,TMP,surface,-98.4379,35.4329,277.746
2014-01-20 00:00:00,2014-01-20 00:00:00,TMP,surface,-97.5004,35.4329,277.651
2014-01-20 00:00:00,2014-01-20 00:00:00,TMP,surface,-96.5629,35.4329,277.462
2014-01-20 00:00:00,2014-01-20 00:00:00,TMP,surface,-95.6254,35.4329,277.037
2014-01-20 00:00:00,2014-01-20 00:00:00,TMP,surface,-94.6879,35.4329,276.378
2014-01-20 00:00:00,2014-01-20 00:00:00,TMP,surface,-93.7504,35.4329,275.76
2014-01-20 00:00:00,2014-01-20 00:00:00,TMP,surface,-92.8129,35.4329,275.559
2014-01-20 00:00:00,2014-01-20 00:00:00,TMP,surface,-107.813,36.3778,273.498
2014-01-20 00:00:00,2014-01-20 00:00:00,TMP,surface,-106.875,36.3778,272.159
2014-01-20 00:00:00,2014-01-20 00:00:00,TMP,surface,-105.938,36.3778,272.834
2014-01-20 00:00:00,2014-01-20 00:00:00,TMP,surface,-105,36.3778,274.711
2014-01-20 00:00:00,2014-01-20 00:00:00,TMP,surface,-104.063,36.3778,276.242
2014-01-20 00:00:00,2014-01-20 00:00:00,TMP,surface,-103.125,36.3778,277.002
2014-01-20 00:00:00,2014-01-20 00:00:00,TMP,surface,-102.188,36.3778,277.216
2014-01-20 00:00:00,2014-01-20 00:00:00,TMP,surface,-101.25,36.3778,277.136
2014-01-20 00:00:00,2014-01-20 00:00:00,TMP,surface,-100.313,36.3778,276.965
2014-01-20 00:00:00,2014-01-20 00:00:00,TMP,surface,-99.3754,36.3778,276.647
2014-01-20 00:00:00,2014-01-20 00:00:00,TMP,surface,-98.4379,36.3778,276.181
2014-01-20 00:00:00,2014-01-20 00:00:00,TMP,surface,-97.5004,36.3778,275.928
2014-01-20 00:00:00,2014-01-20 00:00:00,TMP,surface,-96.5629,36.3778,275.869
2014-01-20 00:00:00,2014-01-20 00:00:00,TMP,surface,-95.6254,36.3778,275.554
2014-01-20 00:00:00,2014-01-20 00:00:00,TMP,surface,-94.6879,36.3778,274.871
2014-01-20 00:00:00,2014-01-20 00:00:00,TMP,surface,-93.7504,36.3778,274.25
2014-01-20 00:00:00,2014-01-20 00:00:00,TMP,surface,-92.8129,36.3778,274.082
2014-01-20 00:00:00,2014-01-20 00:00:00,PRATE,surface,-107.813,25.0393,1.17e-05
2014-01-20 00:00:00,2014-01-20 00:00:00,PRATE,surface,-106.875,25.0393,1.31e-05
2014-01-20 00:00:00,2014-01-20 00:00:00,PRATE,surface,-105.938,25.0393,1.03e-05
2014-01-20 00:00:00,2014-01-20 00:00:00,PRATE,surface,-105,25.0393,4.3e-06
2014-01-20 00:00:00,2014-01-20 00:00:00,PRATE,surface,-104.063,25.0393,3.1e-06
2014-01-20 00:00:00,2014-01-20 00:00:00,PRATE,surface,-103.125,25.0393,2.6e-06
2014-01-20 00:00:00,2014-01-20 00:00:00,PRATE,surface,-102.188,25.0393,5.4e-06
2014-01-20 00:00:00,2014-01-20 00:00:00,PRATE,surface,-101.25,25.0393,1.42e-05
2014-01-20 00:00:00,2014-01-20 00:00:00,PRATE,surface,-100.313,25.0393,2.77e-05
2014-01-20 00:00:00,2014-01-20 00:00:00,PRATE,surface,-99.3754,25.0393,2.33e-05
2014-01-20 00:00:00,2014-01-20 00:00:00,PRATE,surface,-98.4379,25.0393,1.91e-05
2014-01-20 00:00:00,2014-01-20 00:00:00,PRATE,surface,-97.5004,25.0393,1.77e-05
2014-01-20 00:00:00,2014-01-20 00:00:00,PRATE,surface,-96.5629,25.0393,1.98e-05
2014-01-20 00:00:00,2014-01-20 00:00:00,PRATE,surface,-95.6254,25.0393,2.05e-05
2014-01-20 00:00:00,2014-01-20 00:00:00,PRATE,surface,-94.6879,25.0393,2.32e-05
2014-01-20 00:00:00,2014-01-20 00:00:00,PRATE,surface,-93.7504,25.0393,2.61e-05
2014-01-20 00:00:00,2014-01-20 00:00:00,PRATE,surface,-92.8129,25.0393,2.68e-05
2014-01-20 00:00:00,2014-01-20 00:00:00,PRATE,surface,-107.813,25.9842,1.81e-05
2014-01-20 00:00:00,2014-01-20 00:00:00,PRATE,surface,-106.875,25.9842,1.9e-05
2014-01-20 00:00:00,2014-01-20 00:00:00,PRATE,surface,-105.938,25.9842,9.4e-06
2014-01-20 00:00:00,2014-01-20 00:00:00,PRATE,surface,-105,25.9842,4.2e-06
2014-01-20 00:00:00,2014-01-20 00:00:00,PRATE,surface,-104.063,25.9842,1.4e-06
2014-01-20 00:00:00,2014-01-20 00:00:00,PRATE,surface,-103.125,25.9842,8e-07
2014-01-20 00:00:00,2014-01-20 00:00:00,PRATE,surface,-102.188,25.9842,1.7e-06
2014-01-20 00:00:00,2014-01-20 00:00:00,PRATE,surface,-101.25,25.9842,7.7e-06
2014-01-20 00:00:00,2014-01-20 00:00:00,PRATE,surface,-100.313,25.9842,1.82e-05
2014-01-20 00:00:00,2014-01-20 00:00:00,PRATE,surface,-99.3754,25.9842,1.93e-05
2014-01-20 00:00:00,2014-01-20 00:00:00,PRATE,surface,-98.4379,25.9842,1.56e-05
2014-01-20 00:00:00,2014-01-20 00:00:00,PRATE,surface,-97.5004,25.9842,1.7e-05
2014-01-20 00:00:00,2014-01-20 00:00:00,PRATE,surface,-96.5629,25.9842,2.02e-05
2014-01-20 00:00:00,2014-01-20 00:00:00,PRATE,surface,-95.6254,25.9842,2.43e-05
2014-01-20 00:00:00,2014-01-20 00:00:00,PRATE,surface,-94.6879,25.9842,2.66e-05
2014-01-20 00:00:00,2014-01-20 00:00:00,PRATE,surface,-93.7504,25.9842,2.86e-05
2014-01-20 00:00:00,2014-01-20 00:00:00,PRATE,surface,-92.8129,25.9842,2.36e-05
2014-01-20 00:00:00,2014-01-20 00:00:00,PRATE,surface,-107.813,26.929,2.62e-05
2014-01-20 00:00:00,2014-01-20 00:00:00,PRATE,surface,-106.875,26.929,2.52e-05
2014-01-20 00:00:00,2014-01-20 00:00:00,PRATE,surface,-105.938,26.929,1.02e-05
2014-01-20 00:00:00,2014-01-20 00:00:00,PRATE,surface,-105,26.929,4e-06
2014-01-20 00:00:00,2014-01-20 00:00:00,PRATE,surface,-104.063,26.929,2.1e-06
2014-01-20 00:00:00,2014-01-20 00:00:00,PRATE,surface,-103.125,26.929,2.9e-06
2014-01-20 00:00:00,2014-01-20 00:00:00,PRATE,surface,-102.188,26.929,6.4e-06
2014-01-20 00:00:00,2014-01-20 00:00:00,PRATE,surface,-101.25,26.929,1.48e-05
2014-01-20 00:00:00,2014-01-20 00:00:00,PRATE,surface,-100.313,26.929,1.62e-05
2014-01-20 00:00:00,2014-01-20 00:00:00,PRATE,surface,-99.3754,26.929,1.5e-05
2014-01-20 00:00:00,2014-01-20 00:00:00,PRATE,surface,-98.4379,26.929,1.59e-05
2014-01-20 00:00:00,2014-01-20 00:00:00,PRATE,surface,-97.5004,26.929,1.82e-05
2014-01-20 00:00:00,2014-01-20 00:00:00,PRATE,surface,-96.5629,26.929,1.94e-05
2014-01-20 00:00:00,2014-01-20 00:00:00,PRATE,surface,-95.6254,26.929,2.08e-05
2014-01-20 00:00:00,2014-01-20 00:00:00,PRATE,surface,-94.6879,26.929,2.38e-05
2014-01-20 00:00:00,2014-01-20 00:00:00,PRATE,surface,-93.7504,26.929,2.58e-05
2014-01-20 00:00:00,2014-01-20 00:00:00,PRATE,surface,-92.8129,26.929,2.2e-05
2014-01-20 00:00:00,2014-01-20 00:00:00,PRATE,surface,-107.813,27.8739,2.54e-05
2014-01-20 00:00:00,2014-01-20 00:00:00,PRATE,surface,-106.875,27.8739,2.06e-05
2014-01-20 00:00:00,2014-01-20 00:00:00,PRATE,surface,-105.938,27.8739,1.08e-05
2014-01-20 00:00:00,2014-01-20 00:00:00,PRATE,surface,-105,27.8739,3.5e-06
2014-01-20 00:00:00,2014-01-20 00:00:00,PRATE,surface,-104.063,27.8739,2.9e-06
2014-01-20 00:00:00,2014-01-20 00:00:00,PRATE,surface,-103.125,27.8739,6.2e-06
2014-01-20 00:00:00,2014-01-20 00:00:00,PRATE,surface,-102.188,27.8739,1.08e-05
2014-01-20 00:00:00,2014-01-20 00:00:00,PRATE,surface,-101.25,27.8739,1.38e-05
2014-01-20 00:00:00,2014-01-20 00:00:00,PRATE,surface,-100.313,27.8739,1.57e-05
2014-01-20 00:00:00,2014-01-20 00:00:00,PRATE,surface,-99.3754,27.8739,1.54e-05
2014-01-20 00:00:00,2014-01-20 00:00:00,PRATE,surface,-98.4379,27.8739,1.6e-05
2014-01-20 00:00:00,2014-01-20 00:00:00,PRATE,surface,-97.5004,27.8739,1.44e-05
2014-01-20 00:00:00,2014-01-20 00:00:00,PRATE,surface,-96.5629,27.8739,1.32e-05
2014-01-20 00:00:00,2014-01-20 00:00:00,PRATE,surface,-95.6254,27.8739,1.73e-05
2014-01-20 00:00:00,2014-01-20 00:00:00,PRATE,surface,-94.6879,27.8739,2.43e-05
2014-01-20 00:00:00,2014-01-20 00:00:00,PRATE,surface,-93.7504,27.8739,3.05e-05
2014-01-20 00:00:00,2014-01-20 00:00:00,PRATE,surface,-92.8129,27.8739,3.38e-05
2014-01-20 00:00:00,2014-01-20 00:00:00,PRATE,surface,-107.813,28.8188,1.67e-05
2014-01-20 00:00:00,2014-01-20 00:00:00,PRATE,surface,-106.875,28.8188,1.35e-05
2014-01-20 00:00:00,2014-01-20 00:00:00,PRATE,surface,-105.938,28.8188,8.4e-06
2014-01-20 00:00:00,2014-01-20 00:00:00,PRATE,surface,-105,28.8188,4.9e-06
2014-01-20 00:00:00,2014-01-20 00:00:00,PRATE,surface,-104.063,28.8188,5.4e-06
2014-01-20 00:00:00,2014-01-20 00:00:00,PRATE,surface,-103.125,28.8188,9.4e-06
2014-01-20 00:00:00,2014-01-20 00:00:00,PRATE,surface,-102.188,28.8188,1.19e-05
2014-01-20 00:00:00,2014-01-20 00:00:00,PRATE,surface,-101.25,28.8188,1.46e-05
2014-01-20 00:00:00,2014-01-20 00:00:00,PRATE,surface,-100.313,28.8188,1.77e-05
2014-01-20 00:00:00,2014-01-20 00:00:00,PRATE,surface,-99.3754,28.8188,1.76e-05
2014-01-20 00:00:00,2014-01-20 00:00:00,PRATE,surface,-98.4379,28.8188,1.52e-05
2014-01-20 00:00:00,2014-01-20 00:00:00,PRATE,surface,-97.5004,28.8188,1.23e-05
2014-01-20 00:00:00,2014-01-20 00:00:00,PRATE,surface,-96.5629,28.8188,1.25e-05
2014-01-20 00:00:00,2014-01-20 00:00:00,PRATE,surface,-95.6254,28.8188,2.02e-05
2014-01-20 00:00:00,2014-01-20 00:00:00,PRATE,surface,-94.6879,28.8188,3.3e-05
2014-01-20 00:00:00,2014-01-20 00:00:00,PRATE,surface,-93.7504,28.8188,4.2e-05
2014-01-20 00:00:00,2014-01-20 00:00:00,PRATE,surface,-92.8129,28.8188,4.67e-05
2014-01-20 00:00:00,2014-01-20 00:00:00,PRATE,surface,-107.813,29.7637,6.7e-06
2014-01-20 00:00:00,2014-01-20 00:00:00,PRATE,surface,-106.875,29.7637,7.4e-06
2014-01-20 00:00:00,2014-01-20 00:00:00,PRATE,surface,-105.938,29.7637,5.7e-06
2014-01-20 00:00:00,2014-01-20 00:00:00,PRATE,surface,-105,29.7637,4.8e-06
2014-01-20 00:00:00,2014-01-20 00:00:00,PRATE,surface,-104.063,29.7637,7.1e-06
2014-01-20 00:00:00,2014-01-20 00:00:00,PRATE,surface,-103.125,29.7637,1.08e-05
2014-01-20 00:00:00,2014-01-20 00:00:00,PRATE,surface,-102.188,29.7637,1.45e-05
2014-01-20 00:00:00,2014-01-20 00:00:00,PRATE,surface,-101.25,29.7637,1.9e-05
2014-01-20 00:00:00,2014-01-20 00:00:00,PRATE,surface,-100.313,29.7637,2.07e-05
2014-01-20 00:00:00,2014-01-20 00:00:00,PRATE,surface,-99.3754,29.7637,1.99e-05
2014-01-20 00:00:00,2014-01-20 00:00:00,PRATE,surface,-98.4379,29.7637,1.9e-05
2014-01-20 00:00:00,2014-01-20 00:00:00,PRATE,surface,-97.5004,29.7637,1.79e-05
2014-01-20 00:00:00,2014-01-20 00:00:00,PRATE,surface,-96.5629,29.7637,2.25e-05
2014-01-20 00:00:00,2014-01-20 00:00:00,PRATE,surface,-95.6254,29.7637,3.06e-05
2014-01-20 00:00:00,2014-01-20 00:00:00,PRATE,surface,-94.6879,29.7637,3.3e-05
2014-01-20 00:00:00,2014-01-20 00:00:00,PRATE,surface,-93.7504,29.7637,3.46e-05
2014-01-20 00:00:00,2014-01-20 00:00:00,PRATE,surface,-92.8129,29.7637,3.52e-05
2014-01-20 00:00:00,2014-01-20 00:00:00,PRATE,surface,-107.813,30.7085,2.2e-06
2014-01-20 00:00:00,2014-01-20 00:00:00,PRATE,surface,-106.875,30.7085,2.6e-06
2014-01-20 00:00:00,2014-01-20 00:00:00,PRATE,surface,-105.938,30.7085,4e-06
2014-01-20 00:00:00,2014-01-20 00:00:00,PRATE,surface,-105,30.7085,6.2e-06
2014-01-20 00:00:00,2014-01-20 00:00:00,PRATE,surface,-104.063,30.7085,9.9e-06
2014-01-20 00:00:00,2014-01-20 00:00:00,PRATE,surface,-103.125,30.7085,1.21e-05
2014-01-20 00:00:00,2014-01-20 00:00:00,PRATE,surface,-102.188,30.7085,1.36e-05
2014-01-20 00:00:00,2014-01-20 00:00:00,PRATE,surface,-101.25,30.7085,1.62e-05
2014-01-20 00:00:00,2014-01-20 00:00:00,PRATE,surface,-100.313,30.7085,1.73e-05
2014-01-20 00:00:00,2014-01-20 00:00:00,PRATE,surface,-99.3754,30.7085,1.61e-05
2014-01-20 00:00:00,2014-01-20 00:00:00,PRATE,surface,-98.4379,30.7085,1.71e-05
2014-01-20 00:00:00,2014-01-20 00:00:00,PRATE,surface,-97.5004,30.7085,2.06e-05
2014-01-20 00:00:00,2014-01-20 00:00:00,PRATE,surface,-96.5629,30.7085,2.59e-05
2014-01-20 00:00:00,2014-01-20 00:00:00,PRATE,surface,-95.6254,30.7085,3.3e-05
2014-01-20 00:00:00,2014-01-20 00:00:00,PRATE,surface,-94.6879,30.7085,3.71e-05
2014-01-20 00:00:00,2014-01-20 00:00:00,PRATE,surface,-93.7504,30.7085,3.44e-05
2014-01-20 00:00:00,2014-01-20 00:00:00,PRATE,surface,-92.8129,30.7085,3.12e-05
2014-01-20 00:00:00,2014-01-20 00:00:00,PRATE,surface,-107.813,31.6534,1e-06
2014-01-20 00:00:00,2014-01-20 00:00:00,PRATE,surface,-106.875,31.6534,1.1e-06
2014-01-20 00:00:00,2014-01-20 00:00:00,PRATE,surface,-105.938,31.6534,2.8e-06
2014-01-20 00:00:00,2014-01-20 00:00:00,PRATE,surface,-105,31.6534,4.8e-06
2014-01-20 00:00:00,2014-01-20 00:00:00,PRATE,surface,-104.063,31.6534,6.8e-06
2014-01-20 00:00:00,2014-01-20 00:00:00,PRATE,surface,-103.125,31.6534,7.9e-06
2014-01-20 00:00:00,2014-01-20 00:00:00,PRATE,surface,-102.188,31.6534,9.2e-06
2014-01-20 00:00:00,2014-01-20 00:00:00,PRATE,surface,-101.25,31.6534,1.1e-05
2014-01-20 00:00:00,2014-01-20 00:00:00,PRATE,surface,-100.313,31.6534,1.13e-05
2014-01-20 00:00:00,2014-01-20 00:00:00,PRATE,surface,-99.3754,31.6534,1.13e-05
2014-01-20 00:00:00,2014-01-20 00:00:00,PRATE,surface,-98.4379,31.6534,1.56e-05
2014-01-20 00:00:00,2014-01-20 00:00:00,PRATE,surface,-97.5004,31.6534,2.34e-05
2014-01-20 00:00:00,2014-01-20 00:00:00,PRATE,surface,-96.5629,31.6534,3.29e-05
2014-01-20 00:00:00,2014-01-20 00:00:00,PRATE,surface,-95.6254,31.6534,4.42e-05
2014-01-20 00:00:00,2014-01-20 00:00:00,PRATE,surface,-94.6879,31.6534,5.58e-05
2014-01-20 00:00:00,2014-01-20 00:00:00,PRATE,surface,-93.7504,31.6534,5.88e-05
2014-01-20 00:00:00,2014-01-20 00:00:00,PRATE,surface,-92.8129,31.6534,4.7e-05
2014-01-20 00:00:00,2014-01-20 00:00:00,PRATE,surface,-107.813,32.5983,3.3e-06
2014-01-20 00:00:00,2014-01-20 00:00:00,PRATE,surface,-106.875,32.5983,2.3e-06
2014-01-20 00:00:00,2014-01-20 00:00:00,PRATE,surface,-105.938,32.5983,2.4e-06
2014-01-20 00:00:00,2014-01-20 00:00:00,PRATE,surface,-105,32.5983,2.4e-06
2014-01-20 00:00:00,2014-01-20 00:00:00,PRATE,surface,-104.063,32.5983,2.3e-06
2014-01-20 00:00:00,2014-01-20 00:00:00,PRATE,surface,-103.125,32.5983,2.8e-06
2014-01-20 00:00:00,2014-01-20 00:00:00,PRATE,surface,-102.188,32.5983,3.3e-06
2014-01-20 00:00:00,2014-01-20 00:00:00,PRATE,surface,-101.25,32.5983,4.1e-06
2014-01-20 00:00:00,2014-01-20 00:00:00,PRATE,surface,-100.313,32.5983,6.1e-06
2014-01-20 00:00:00,2014-01-20 00:00:00,PRATE,surface,-99.3754,32.5983,9.6e-06
2014-01-20 00:00:00,2014-01-20 00:00:00,PRATE,surface,-98.4379,32.5983,1.65e-05
2014-01-20 00:00:00,2014-01-20 00:00:00,PRATE,surface,-97.5004,32.5983,2.62e-05
2014-01-20 00:00:00,2014-01-20 00:00:00,PRATE,surface,-96.5629,32.5983,3.69e-05
2014-01-20 00:00:00,2014-01-20 00:00:00,PRATE,surface,-95.6254,32.5983,4.66e-05
2014-01-20 00:00:00,2014-01-20 00:00:00,PRATE,surface,-94.6879,32.5983,5.56e-05
2014-01-20 00:00:00,2014-01-20 00:00:00,PRATE,surface,-93.7504,32.5983,6.34e-05
2014-01-20 00:00:00,2014-01-20 00:00:00,PRATE,surface,-92.8129,32.5983,6.09e-05
2014-01-20 00:00:00,2014-01-20 00:00:00,PRATE,surface,-107.813,33.5432,1.17e-05
2014-01-20 00:00:00,2014-01-20 00:00:00,PRATE,surface,-106.875,33.5432,7.2e-06
2014-01-20 00:00:00,2014-01-20 00:00:00,PRATE,surface,-105.938,33.5432,5.7e-06
2014-01-20 00:00:00,2014-01-20 00:00:00,PRATE,surface,-105,33.5432,5.4e-06
2014-01-20 00:00:00,2014-01-20 00:00:00,PRATE,surface,-104.063,33.5432,3e-06
2014-01-20 00:00:00,2014-01-20 00:00:00,PRATE,surface,-103.125,33.5432,1.8e-06
2014-01-20 00:00:00,2014-01-20 00:00:00,PRATE,surface,-102.188,33.5432,1.9e-06
2014-01-20 00:00:00,2014-01-20 00:00:00,PRATE,surface,-101.25,33.5432,3.2e-06
2014-01-20 00:00:00,2014-01-20 00:00:00,PRATE,surface,-100.313,33.5432,5.4e-06
2014-01-20 00:00:00,2014-01-20 00:00:00,PRATE,surface,-99.3754,33.5432,7.4e-06
2014-01-20 00:00:00,2014-01-20 00:00:00,PRATE,surface,-98.4379,33.5432,1.2e-05
2014-01-20 00:00:00,2014-01-20 00:00:00,PRATE,surface,-97.5004,33.5432,1.92e-05
2014-01-20 00:00:00,2014-01-20 00:00:00,PRATE,surface,-96.5629,33.5432,2.66e-05
2014-01-20 00:00:00,2014-01-20 00:00:00,PRATE,surface,-95.6254,33.5432,3.36e-05
2014-01-20 00:00:00,2014-01-20 00:00:00,PRATE,surface,-94.6879,33.5432,4.2e-05
2014-01-20 00:00:00,2014-01-20 00:00:00,PRATE,surface,-93.7504,33.5432,5.05e-05
2014-01-20 00:00:00,2014-01-20 00:00:00,PRATE,surface,-92.8129,33.5432,5.44e-05
2014-01-20 00:00:00,2014-01-20 00:00:00,PRATE,surface,-107.813,34.4881,1.06e-05
2014-01-20 00:00:00,2014-01-20 00:00:00,PRATE,surface,-106.875,34.4881,7.8e-06
2014-01-20 00:00:00,2014-01-20 00:00:00,PRATE,surface,-105.938,34.4881,1.05e-05
2014-01-20 00:00:00,2014-01-20 00:00:00,PRATE,surface,-105,34.4881,1.33e-05
2014-01-20 00:00:00,2014-01-20 00:00:00,PRATE,surface,-104.063,34.4881,9e-06
2014-01-20 00:00:00,2014-01-20 00:00:00,PRATE,surface,-103.125,34.4881,7.8e-06
2014-01-20 00:00:00,2014-01-20 00:00:00,PRATE,surface,-102.188,34.4881,6.1e-06
2014-01-20 00:00:00,2014-01-20 00:00:00,PRATE,surface,-101.25,34.4881,5.7e-06
2014-01-20 00:00:00,2014-01-20 00:00:00,PRATE,surface,-100.313,34.4881,5.9e-06
2014-01-20 00:00:00,2014-01-20 00:00:00,PRATE,surface,-99.3754,34.4881,6.1e-06
2014-01-20 00:00:00,2014-01-20 00:00:00,PRATE,surface,-98.4379,34.4881,7.8e-06
2014-01-20 00:00:00,2014-01-20 00:00:00,PRATE,surface,-97.5004,34.4881,1.18e-05
2014-01-20 00:00:00,2014-01-20 00:00:00,PRATE,surface,-96.5629,34.4881,1.67e-05
2014-01-20 00:00:00,2014-01-20 00:00:00,PRATE,surface,-95.6254,34.4881,2.19e-05
2014-01-20 00:00:00,2014-01-20 00:00:00,PRATE,surface,-94.6879,34.4881,2.82e-05
2014-01-20 00:00:00,2014-01-20 00:00:00,PRATE,surface,-93.7504,34.4881,3.59e-05
2014-01-20 00:00:00,2014-01-20 00:00:00,PRATE,surface,-92.8129,34.4881,4.45e-05
2014-01-20 00:00:00,2014-01-20 00:00:00,PRATE,surface,-107.813,35.4329,7.2e-06
2014-01-20 00:00:00,2014-01-20 00:00:00,PRATE,surface,-106.875,35.4329,5.7e-06
2014-01-20 00:00:00,2014-01-20 00:00:00,PRATE,surface,-105.938,35.4329,6.1e-06
2014-01-20 00:00:00,2014-01-20 00:00:00,PRATE,surface,-105,35.4329,1.2e-05
2014-01-20 00:00:00,2014-01-20 00:00:00,PRATE,surface,-104.063,35.4329,1.65e-05
2014-01-20 00:00:00,2014-01-20 00:00:00,PRATE,surface,-103.125,35.4329,1.42e-05
2014-01-20 00:00:00,2014-01-20 00:00:00,PRATE,surface,-102.188,35.4329,1.12e-05
2014-01-20 00:00:00,2014-01-20 00:00:00,PRATE,surface,-101.25,35.4329,8.7e-06
2014-01-20 00:00:00,2014-01-20 00:00:00,PRATE,surface,-100.313,35.4329,7.8e-06
2014-01-20 00:00:00,2014-01-20 00:00:00,PRATE,surface,-99.3754,35.4329,7.4e-06
2014-01-20 00:00:00,2014-01-20 00:00:00,PRATE,surface,-98.4379,35.4329,7.6e-06
2014-01-20 00:00:00,2014-01-20 00:00:00,PRATE,surface,-97.5004,35.4329,8.5e-06
2014-01-20 00:00:00,2014-01-20 00:00:00,PRATE,surface,-96.5629,35.4329,1.02e-05
2014-01-20 00:00:00,2014-01-20 00:00:00,PRATE,surface,-95.6254,35.4329,1.29e-05
2014-01-20 00:00:00,2014-01-20 00:00:00,PRATE,surface,-94.6879,35.4329,1.7e-05
2014-01-20 00:00:00,2014-01-20 00:00:00,PRATE,surface,-93.7504,35.4329,2.2e-05
2014-01-20 00:00:00,2014-01-20 00:00:00,PRATE,surface,-92.8129,35.4329,2.68e-05
2014-01-20 00:00:00,2014-01-20 00:00:00,PRATE,surface,-107.813,36.3778,8.9e-06
2014-01-20 00:00:00,2014-01-20 00:00:00,PRATE,surface,-106.875,36.3778,9.6e-06
2014-01-20 00:00:00,2014-01-20 00:00:00,PRATE,surface,-105.938,36.3778,9.2e-06
2014-01-20 00:00:00,2014-01-20 00:00:00,PRATE,surface,-105,36.3778,1.31e-05
2014-01-20 00:00:00,2014-01-20 00:00:00,PRATE,surface,-104.063,36.3778,1.6e-05
2014-01-20 00:00:00,2014-01-20 00:00:00,PRATE,surface,-103.125,36.3778,1.1e-05
2014-01-20 00:00:00,2014-01-20 00:00:00,PRATE,surface,-102.188,36.3778,8.1e-06
2014-01-20 00:00:00,2014-01-20 00:00:00,PRATE,surface,-101.25,36.3778,8.6e-06
2014-01-20 00:00:00,2014-01-20 00:00:00,PRATE,surface,-100.313,36.3778,9.8e-06
2014-01-20 00:00:00,2014-01-20 00:00:00,PRATE,surface,-99.3754,36.3778,1.01e-05
2014-01-20 00:00:00,2014-01-20 00:00:00,PRATE,surface,-98.4379,36.3778,9.6e-06
2014-01-20 00:00:00,2014-01-20 00:00:00,PRATE,surface,-97.5004,36.3778,9.4e-06
2014-01-20 00:00:00,2014-01-20 00:00:00,PRATE,surface,-96.5629,36.3778,9.9e-06
2014-01-20 00:00:00,2014-01-20 00:00:00,PRATE,surface,-95.6254,36.3778,1.11e-05
2014-01-20 00:00:00,2014-01-20 00:00:00,PRATE,surface,-94.6879,36.3778,1.34e-05
2014-01-20 00:00:00,2014-01-20 00:00:00,PRATE,surface,-93.7504,36.3778,1.64e-05
2014-01-20 00:00:00,2014-01-20 00:00:00,PRATE,surface,-92.8129,36.3778,1.87e-05
