2015-03-06 00:00:00,2015-03-06 00:00:00,TMP,surface,-107.813,25.0393,294.218
2015-03-06 00:00:00,2015-03-06 00:00:00,TMP,surface,-106.875,25.0393,289.119
2015-03-06 00:00:00,2015-03-06 00:00:00,TMP,surface,-105.938,25.0393,284.802
2015-03-06 00:00:00,2015-03-06 00:00:00,TMP,surface,-105,25.0393,284.793
2015-03-06 00:00:00,2015-03-06 00:00:00,TMP,surface,-104.063,25.0393,289.271
2015-03-06 00:00:00,2015-03-06 00:00:00,TMP,surface,-103.125,25.0393,291.38
2015-03-06 00:00:00,2015-03-06 00:00:00,TMP,surface,-102.188,25.0393,290.604
2015-03-06 00:00:00,2015-03-06 00:00:00,TMP,surface,-101.25,25.0393,288.057
2015-03-06 00:00:00,2015-03-06 00:00:00,TMP,surface,-100.313,25.0393,287.532
2015-03-06 00:00:00,2015-03-06 00:00:00,TMP,surface,-99.3754,25.0393,289.127
2015-03-06 00:00:00,2015-03-06 00:00:00,TMP,surface,-98.4379,25.0393,291.593
2015-03-06 00:00:00,2015-03-06 00:00:00,TMP,surface,-97.5004,25.0393,292.756
2015-03-06 00:00:00,2015-03-06 00:00:00,TMP,surface,-96.5629,25.0393,294.23
2015-03-06 00:00:00,2015-03-06 00:00:00,TMP,surface,-95.6254,25.0393,295.404
2015-03-06 00:00:00,2015-03-06 00:00:00,TMP,surface,-94.6879,25.0393,295.65
2015-03-06 00:00:00,2015-03-06 00:00:00,TMP,surface,-93.7504,25.0393,295.615
2015-03-06 00:00:00,2015-03-06 00:00:00,TMP,surface,-92.8129,25.0393,295.956
2015-03-06 00:00:00,2015-03-06 00:00:00,TMP,surface,-107.813,25.9842,290.183
2015-03-06 00:00:00,2015-03-06 00:00:00,TMP,surface,-106.875,25.9842,284.735
2015-03-06 00:00:00,2015-03-06 00:00:00,TMP,surface,-105.938,25.9842,283.97
2015-03-06 00:00:00,2015-03-06 00:00:00,TMP,surface,-105,25.9842,287.159
2015-03-06 00:00:00,2015-03-06 00:00:00,TMP,surface,-104.063,25.9842,291.55
2015-03-06 00:00:00,2015-03-06 00:00:00,TMP,surface,-103.125,25.9842,292.524
2015-03-06 00:00:00,2015-03-06 00:00:00,TMP,surface,-102.188,25.9842,290.79
2015-03-06 00:00:00,2015-03-06 00:00:00,TMP,surface,-101.25,25.9842,288.426
2015-03-06 00:00:00,2015-03-06 00:00:00,TMP,surface,-100.313,25.9842,287.943
2015-03-06 00:00:00,2015-03-06 00:00:00,TMP,surface,-99.3754,25.9842,289.622
2015-03-06 00:00:00,2015-03-06 00:00:00,TMP,surface,-98.4379,25.9842,291.062
2015-03-06 00:00:00,2015-03-06 00:00:00,TMP,surface,-97.5004,25.9842,291.818
2015-03-06 00:00:00,2015-03-06 00:00:00,TMP,surface,-96.5629,25.9842,293.249
2015-03-06 00:00:00,2015-03-06 00:00:00,TMP,surface,-95.6254,25.9842,294.834
2015-03-06 00:00:00,2015-03-06 00:00:00,TMP,surface,-94.6879,25.9842,295.001
2015-03-06 00:00:00,2015-03-06 00:00:00,TMP,surface,-93.7504,25.9842,295.054
2015-03-06 00:00:00,2015-03-06 00:00:00,TMP,surface,-92.8129,25.9842,295.726
2015-03-06 00:00:00,2015-03-06 00:00:00,TMP,surface,-107.813,26.929,285.553
2015-03-06 00:00:00,2015-03-06 00:00:00,TMP,surface,-106.875,26.929,283.02
2015-03-06 00:00:00,2015-03-06 00:00:00,TMP,surface,-105.938,26.929,285.681
2015-03-06 00:00:00,2015-03-06 00:00:00,TMP,surface,-105,26.929,289.937
2015-03-06 00:00:00,2015-03-06 00:00:00,TMP,surface,-104.063,26.929,291.238
2015-03-06 00:00:00,2015-03-06 00:00:00,TMP,surface,-103.125,26.929,289.817
2015-03-06 00:00:00,2015-03-06 00:00:00,TMP,surface,-102.188,26.929,288.462
2015-03-06 00:00:00,2015-03-06 00:00:00,TMP,surface,-101.25,26.929,287.983
2015-03-06 00:00:00,2015-03-06 00:00:00,TMP,surface,-100.313,26.929,288.615
2015-03-06 00:00:00,2015-03-06 00:00:00,TMP,surface,-99.3754,26.929,289.452
2015-03-06 00:00:00,2015-03-06 00:00:00,TMP,surface,-98.4379,26.929,289.593
2015-03-06 00:00:00,2015-03-06 00:00:00,TMP,surface,-97.5004,26.929,290.383
2015-03-06 00:00:00,2015-03-06 00:00:00,TMP,surface,-96.5629,26.929,292.558
2015-03-06 00:00:00,2015-03-06 00:00:00,TMP,surface,-95.6254,26.929,294.343
2015-03-06 00:00:00,2015-03-06 00:00:00,TMP,surface,-94.6879,26.929,294.585
2015-03-06 00:00:00,2015-03-06 00:00:00,TMP,surface,-93.7504,26.929,294.559
2015-03-06 00:00:00,2015-03-06 00:00:00,TMP,surface,-92.8129,26.929,295.188
2015-03-06 00:00:00,2015-03-06 00:00:00,TMP,surface,-107.813,27.8739,282.953
2015-03-06 00:00:00,2015-03-06 00:00:00,TMP,surface,-106.875,27.8739,283.11
2015-03-06 00:00:00,2015-03-06 00:00:00,TMP,surface,-105.938,27.8739,287.465
2015-03-06 00:00:00,2015-03-06 00:00:00,TMP,surface,-105,27.8739,290.46
2015-03-06 00:00:00,2015-03-06 00:00:00,TMP,surface,-104.063,27.8739,289.887
2015-03-06 00:00:00,2015-03-06 00:00:00,TMP,surface,-103.125,27.8739,287.655
2015-03-06 00:00:00,2015-03-06 00:00:00,TMP,surface,-102.188,27.8739,286.719
2015-03-06 00:00:00,2015-03-06 00:00:00,TMP,surface,-101.25,27.8739,287.226
2015-03-06 00:00:00,2015-03-06 00:00:00,TMP,surface,-100.313,27.8739,288.228
2015-03-06 00:00:00,2015-03-06 00:00:00,TMP,surface,-99.3754,27.8739,288.426
2015-03-06 00:00:00,2015-03-06 00:00:00,TMP,surface,-98.4379,27.8739,288.178
2015-03-06 00:00:00,2015-03-06 00:00:00,TMP,surface,-97.5004,27.8739,289.398
2015-03-06 00:00:00,2015-03-06 00:00:00,TMP,surface,-96.5629,27.8739,291.42
2015-03-06 00:00:00,2015-03-06 00:00:00,TMP,surface,-95.6254,27.8739,292.678
2015-03-06 00:00:00,2015-03-06 00:00:00,TMP,surface,-94.6879,27.8739,293.406
2015-03-06 00:00:00,2015-03-06 00:00:00,TMP,surface,-93.7504,27.8739,293.714
2015-03-06 00:00:00,2015-03-06 00:00:00,TMP,surface,-92.8129,27.8739,294.191
2015-03-06 00:00:00,2015-03-06 00:00:00,TMP,surface,-107.813,28.8188,282.073
2015-03-06 00:00:00,2015-03-06 00:00:00,TMP,surface,-106.875,28.8188,283.774
2015-03-06 00:00:00,2015-03-06 00:00:00,TMP,surface,-105.938,28.8188,287.724
2015-03-06 00:00:00,2015-03-06 00:00:00,TMP,surface,-105,28.8188,289.884
2015-03-06 00:00:00,2015-03-06 00:00:00,TMP,surface,-104.063,28.8188,288.006
2015-03-06 00:00:00,2015-03-06 00:00:00,TMP,surface,-103.125,28.8188,286.468
2015-03-06 00:00:00,2015-03-06 00:00:00,TMP,surface,-102.188,28.8188,286.026
2015-03-06 00:00:00,2015-03-06 00:00:00,TMP,surface,-101.25,28.8188,286.681
2015-03-06 00:00:00,2015-03-06 00:00:00,TMP,surface,-100.313,28.8188,287.05
2015-03-06 00:00:00,2015-03-06 00:00:00,TMP,surface,-99.3754,28.8188,286.721
2015-03-06 00:00:00,2015-03-06 00:00:00,TMP,surface,-98.4379,28.8188,286.454
2015-03-06 00:00:00,2015-03-06 00:00:00,TMP,surface,-97.5004,28.8188,286.598
2015-03-06 00:00:00,2015-03-06 00:00:00,TMP,surface,-96.5629,28.8188,287.002
2015-03-06 00:00:00,2015-03-06 00:00:00,TMP,surface,-95.6254,28.8188,288.57
2015-03-06 00:00:00,2015-03-06 00:00:00,TMP,surface,-94.6879,28.8188,290.806
2015-03-06 00:00:00,2015-03-06 00:00:00,TMP,surface,-93.7504,28.8188,291.132
2015-03-06 00:00:00,2015-03-06 00:00:00,TMP,surface,-92.8129,28.8188,291.364
2015-03-06 00:00:00,2015-03-06 00:00:00,TMP,surface,-107.813,29.7637,283.676
2015-03-06 00:00:00,2015-03-06 00:00:00,TMP,surface,-106.875,29.7637,285.287
2015-03-06 00:00:00,2015-03-06 00:00:00,TMP,surface,-105.938,29.7637,287.722
2015-03-06 00:00:00,2015-03-06 00:00:00,TMP,surface,-105,29.7637,287.801
2015-03-06 00:00:00,2015-03-06 00:00:00,TMP,surface,-104.063,29.7637,287.284
2015-03-06 00:00:00,2015-03-06 00:00:00,TMP,surface,-103.125,29.7637,286.574
2015-03-06 00:00:00,2015-03-06 00:00:00,TMP,surface,-102.188,29.7637,286.497
2015-03-06 00:00:00,2015-03-06 00:00:00,TMP,surface,-101.25,29.7637,286.322
2015-03-06 00:00:00,2015-03-06 00:00:00,TMP,surface,-100.313,29.7637,285.69
2015-03-06 00:00:00,2015-03-06 00:00:00,TMP,surface,-99.3754,29.7637,285.01
2015-03-06 00:00:00,2015-03-06 00:00:00,TMP,surface,-98.4379,29.7637,284.694
2015-03-06 00:00:00,2015-03-06 00:00:00,TMP,surface,-97.5004,29.7637,284.719
2015-03-06 00:00:00,2015-03-06 00:00:00,TMP,surface,-96.5629,29.7637,284.956
2015-03-06 00:00:00,2015-03-06 00:00:00,TMP,surface,-95.6254,29.7637,285.394
2015-03-06 00:00:00,2015-03-06 00:00:00,TMP,surface,-94.6879,29.7637,286.716
2015-03-06 00:00:00,2015-03-06 00:00:00,TMP,surface,-93.7504,29.7637,288.289
2015-03-06 00:00:00,2015-03-06 00:00:00,TMP,surface,-92.8129,29.7637,286.892
2015-03-06 00:00:00,2015-03-06 00:00:00,TMP,surface,-107.813,30.7085,286.422
2015-03-06 00:00:00,2015-03-06 00:00:00,TMP,surface,-106.875,30.7085,287.322
2015-03-06 00:00:00,2015-03-06 00:00:00,TMP,surface,-105.938,30.7085,287.38
2015-03-06 00:00:00,2015-03-06 00:00:00,TMP,surface,-105,30.7085,286.774
2015-03-06 00:00:00,2015-03-06 00:00:00,TMP,surface,-104.063,30.7085,286.007
2015-03-06 00:00:00,2015-03-06 00:00:00,TMP,surface,-103.125,30.7085,286.324
2015-03-06 00:00:00,2015-03-06 00:00:00,TMP,surface,-102.188,30.7085,286.001
2015-03-06 00:00:00,2015-03-06 00:00:00,TMP,surface,-101.25,30.7085,285.252
2015-03-06 00:00:00,2015-03-06 00:00:00,TMP,surface,-100.313,30.7085,284.399
2015-03-06 00:00:00,2015-03-06 00:00:00,TMP,surface,-99.3754,30.7085,283.663
2015-03-06 00:00:00,2015-03-06 00:00:00,TMP,surface,-98.4379,30.7085,283.441
2015-03-06 00:00:00,2015-03-06 00:00:00,TMP,surface,-97.5004,30.7085,283.526
2015-03-06 00:00:00,2015-03-06 00:00:00,TMP,surface,-96.5629,30.7085,283.798
2015-03-06 00:00:00,2015-03-06 00:00:00,TMP,surface,-95.6254,30.7085,284.204
2015-03-06 00:00:00,2015-03-06 00:00:00,TMP,surface,-94.6879,30.7085,284.457
2015-03-06 00:00:00,2015-03-06 00:00:00,TMP,surface,-93.7504,30.7085,284.615
2015-03-06 00:00:00,2015-03-06 00:00:00,TMP,surface,-92.8129,30.7085,284.721
2015-03-06 00:00:00,2015-03-06 00:00:00,TMP,surface,-107.813,31.6534,286.678
2015-03-06 00:00:00,2015-03-06 00:00:00,TMP,surface,-106.875,31.6534,287.114
2015-03-06 00:00:00,2015-03-06 00:00:00,TMP,surface,-105.938,31.6534,286.262
2015-03-06 00:00:00,2015-03-06 00:00:00,TMP,surface,-105,31.6534,285.471
2015-03-06 00:00:00,2015-03-06 00:00:00,TMP,surface,-104.063,31.6534,285.334
2015-03-06 00:00:00,2015-03-06 00:00:00,TMP,surface,-103.125,31.6534,285.338
2015-03-06 00:00:00,2015-03-06 00:00:00,TMP,surface,-102.188,31.6534,284.81
2015-03-06 00:00:00,2015-03-06 00:00:00,TMP,surface,-101.25,31.6534,284.066
2015-03-06 00:00:00,2015-03-06 00:00:00,TMP,surface,-100.313,31.6534,283.444
2015-03-06 00:00:00,2015-03-06 00:00:00,TMP,surface,-99.3754,31.6534,282.991
2015-03-06 00:00:00,2015-03-06 00:00:00,TMP,surface,-98.4379,31.6534,282.708
2015-03-06 00:00:00,2015-03-06 00:00:00,TMP,surface,-97.5004,31.6534,282.697
2015-03-06 00:00:00,2015-03-06 00:00:00,TMP,surface,-96.5629,31.6534,283.044
2015-03-06 00:00:00,2015-03-06 00:00:00,TMP,surface,-95.6254,31.6534,283.418
2015-03-06 00:00:00,2015-03-06 00:00:00,TMP,surface,-94.6879,31.6534,283.458
2015-03-06 00:00:00,2015-03-06 00:00:00,TMP,surface,-93.7504,31.6534,283.434
2015-03-06 00:00:00,2015-03-06 00:00:00,TMP,surface,-92.8129,31.6534,283.566
2015-03-06 00:00:00,2015-03-06 00:00:00,TMP,surface,-107.813,32.5983,283.638
2015-03-06 00:00:00,2015-03-06 00:00:00,TMP,surface,-106.875,32.5983,283.903
2015-03-06 00:00:00,2015-03-06 00:00:00,TMP,surface,-105.938,32.5983,284.364
2015-03-06 00:00:00,2015-03-06 00:00:00,TMP,surface,-105,32.5983,284.097
2015-03-06 00:00:00,2015-03-06 00:00:00,TMP,surface,-104.063,32.5983,284.506
2015-03-06 00:00:00,2015-03-06 00:00:00,TMP,surface,-103.125,32.5983,284.156
2015-03-06 00:00:00,2015-03-06 00:00:00,TMP,surface,-102.188,32.5983,283.34
2015-03-06 00:00:00,2015-03-06 00:00:00,TMP,surface,-101.25,32.5983,282.991
2015-03-06 00:00:00,2015-03-06 00:00:00,TMP,surface,-100.313,32.5983,283.007
2015-03-06 00:00:00,2015-03-06 00:00:00,TMP,surface,-99.3754,32.5983,282.796
2015-03-06 00:00:00,2015-03-06 00:00:00,TMP,surface,-98.4379,32.5983,282.402
2015-03-06 00:00:00,2015-03-06 00:00:00,TMP,surface,-97.5004,32.5983,282.15
2015-03-06 00:00:00,2015-03-06 00:00:00,TMP,surface,-96.5629,32.5983,282.324
2015-03-06 00:00:00,2015-03-06 00:00:00,TMP,surface,-95.6254,32.5983,282.71
2015-03-06 00:00:00,2015-03-06 00:00:00,TMP,surface,-94.6879,32.5983,282.782
2015-03-06 00:00:00,2015-03-06 00:00:00,TMP,surface,-93.7504,32.5983,282.631
2015-03-06 00:00:00,2015-03-06 00:00:00,TMP,surface,-92.8129,32.5983,282.686
2015-03-06 00:00:00,2015-03-06 00:00:00,TMP,surface,-107.813,33.5432,280.406
2015-03-06 00:00:00,2015-03-06 00:00:00,TMP,surface,-106.875,33.5432,281.444
2015-03-06 00:00:00,2015-03-06 00:00:00,TMP,surface,-105.938,33.5432,282.31
2015-03-06 00:00:00,2015-03-06 00:00:00,TMP,surface,-105,33.5432,282.607
2015-03-06 00:00:00,2015-03-06 00:00:00,TMP,surface,-104.063,33.5432,283.27
2015-03-06 00:00:00,2015-03-06 00:00:00,TMP,surface,-103.125,33.5432,282.63
2015-03-06 00:00:00,2015-03-06 00:00:00,TMP,surface,-102.188,33.5432,281.866
2015-03-06 00:00:00,2015-03-06 00:00:00,TMP,surface,-101.25,33.5432,281.778
2015-03-06 00:00:00,2015-03-06 00:00:00,TMP,surface,-100.313,33.5432,282.106
2015-03-06 00:00:00,2015-03-06 00:00:00,TMP,surface,-99.3754,33.5432,282.19
2015-03-06 00:00:00,2015-03-06 00:00:00,TMP,surface,-98.4379,33.5432,281.93
2015-03-06 00:00:00,2015-03-06 00:00:00,TMP,surface,-97.5004,33.5432,281.553
2015-03-06 00:00:00,2015-03-06 00:00:00,TMP,surface,-96.5629,33.5432,281.404
2015-03-06 00:00:00,2015-03-06 00:00:00,TMP,surface,-95.6254,33.5432,281.638
2015-03-06 00:00:00,2015-03-06 00:00:00,TMP,surface,-94.6879,33.5432,281.847
2015-03-06 00:00:00,2015-03-06 00:00:00,TMP,surface,-93.7504,33.5432,281.655
2015-03-06 00:00:00,2015-03-06 00:00:00,TMP,surface,-92.8129,33.5432,281.497
2015-03-06 00:00:00,2015-03-06 00:00:00,TMP,surface,-107.813,34.4881,278.751
2015-03-06 00:00:00,2015-03-06 00:00:00,TMP,surface,-106.875,34.4881,280.145
2015-03-06 00:00:00,2015-03-06 00:00:00,TMP,surface,-105.938,34.4881,281.007
2015-03-06 00:00:00,2015-03-06 00:00:00,TMP,surface,-105,34.4881,281.718
2015-03-06 00:00:00,2015-03-06 00:00:00,TMP,surface,-104.063,34.4881,281.666
2015-03-06 00:00:00,2015-03-06 00:00:00,TMP,surface,-103.125,34.4881,281.156
2015-03-06 00:00:00,2015-03-06 00:00:00,TMP,surface,-102.188,34.4881,280.61
2015-03-06 00:00:00,2015-03-06 00:00:00,TMP,surface,-101.25,34.4881,280.652
2015-03-06 00:00:00,2015-03-06 00:00:00,TMP,surface,-100.313,34.4881,280.935
2015-03-06 00:00:00,2015-03-06 00:00:00,TMP,surface,-99.3754,34.4881,280.966
2015-03-06 00:00:00,2015-03-06 00:00:00,TMP,surface,-98.4379,34.4881,280.844
2015-03-06 00:00:00,2015-03-06 00:00:00,TMP,surface,-97.5004,34.4881,280.745
2015-03-06 00:00:00,2015-03-06 00:00:00,TMP,surface,-96.5629,34.4881,280.846
2015-03-06 00:00:00,2015-03-06 00:00:00,TMP,surface,-95.6254,34.4881,280.999
2015-03-06 00:00:00,2015-03-06 00:00:00,TMP,surface,-94.6879,34.4881,280.718
2015-03-06 00:00:00,2015-03-06 00:00:00,TMP,surface,-93.7504,34.4881,280.108
2015-03-06 00:00:00,2015-03-06 00:00:00,TMP,surface,-92.8129,34.4881,279.903
2015-03-06 00:00:00,2015-03-06 00:00:00,TMP,surface,-107.813,35.4329,278.398
2015-03-06 00:00:00,2015-03-06 00:00:00,TMP,surface,-106.875,35.4329,278.919
2015-03-06 00:00:00,2015-03-06 00:00:00,TMP,surface,-105.938,35.4329,279.087
2015-03-06 00:00:00,2015-03-06 00:00:00,TMP,surface,-105,35.4329,279.185
2015-03-06 00:00:00,2015-03-06 00:00:00,TMP,surface,-104.063,35.4329,279.609
2015-03-06 00:00:00,2015-03-06 00:00:00,TMP,surface,-103.125,35.4329,279.614
2015-03-06 00:00:00,2015-03-06 00:00:00,TMP,surface,-102.188,35.4329,279.625
2015-03-06 00:00:00,2015-03-06 00:00:00,TMP,surface,-101.25,35.4329,279.55
2015-03-06 00:00:00,2015-03-06 00:00:00,TMP,surface,-100.313,35.4329,279.762
2015-03-06 00:00:00,2015-03-06 00:00:00,TMP,surface,-99.3754,35.4329,279.822
2015-03-06 00:00:00,2015-03-06 00:00:00,TMP,surface,-98.4379,35.4329,279.846
2015-03-06 00:00:00,2015-03-06 00:00:00,TMP,surface,-97.5004,35.4329,280.081
2015-03-06 00:00:00,2015-03-06 00:00:00,TMP,surface,-96.5629,35.4329,280.257
2015-03-06 00:00:00,2015-03-06 00:00:00,TMP,surface,-95.6254,35.4329,280.009
2015-03-06 00:00:00,2015-03-06 00:00:00,TMP,surface,-94.6879,35.4329,279.369
2015-03-06 00:00:00,2015-03-06 00:00:00,TMP,surface,-93.7504,35.4329,278.66
2015-03-06 00:00:00,2015-03-06 00:00:00,TMP,surface,-92.8129,35.4329,278.29
2015-03-06 00:00:00,2015-03-06 00:00:00,TMP,surface,-107.813,36.3778,277.303
2015-03-06 00:00:00,2015-03-06 00:00:00,TMP,surface,-106.875,36.3778,275.986
2015-03-06 00:00:00,2015-03-06 00:00:00,TMP,surface,-105.938,36.3778,276.09
2015-03-06 00:00:00,2015-03-06 00:00:00,TMP,surface,-105,36.3778,276.748
2015-03-06 00:00:00,2015-03-06 00:00:00,TMP,surface,-104.063,36.3778,277.863
2015-03-06 00:00:00,2015-03-06 00:00:00,TMP,surface,-103.125,36.3778,278.02
2015-03-06 00:00:00,2015-03-06 00:00:00,TMP,surface,-102.188,36.3778,278.254
2015-03-06 00:00:00,2015-03-06 00:00:00,TMP,surface,-101.25,36.3778,278.684
2015-03-06 00:00:00,2015-03-06 00:00:00,TMP,surface,-100.313,36.3778,279.169
2015-03-06 00:00:00,2015-03-06 00:00:00,TMP,surface,-99.3754,36.3778,279.452
2015-03-06 00:00:00,2015-03-06 00:00:00,TMP,surface,-98.4379,36.3778,279.454
2015-03-06 00:00:00,2015-03-06 00:00:00,TMP,surface,-97.5004,36.3778,279.537
2015-03-06 00:00:00,2015-03-06 00:00:00,TMP,surface,-96.5629,36.3778,279.622
2015-03-06 00:00:00,2015-03-06 00:00:00,TMP,surface,-95.6254,36.3778,279.302
2015-03-06 00:00:00,2015-03-06 00:00:00,TMP,surface,-94.6879,36.3778,278.473
2015-03-06 00:00:00,2015-03-06 00:00:00,TMP,surface,-93.7504,36.3778,277.431
2015-03-06 00:00:00,2015-03-06 00:00:00,TMP,surface,-92.8129,36.3778,276.986
2015-03-06 00:00:00,2015-03-06 00:00:00,PRATE,surface,-107.813,25.0393,4.41e-05
2015-03-06 00:00:00,2015-03-06 00:00:00,PRATE,surface,-106.875,25.0393,5.75e-05
2015-03-06 00:00:00,2015-03-06 00:00:00,PRATE,surface,-105.938,25.0393,4.92e-05
2015-03-06 00:00:00,2015-03-06 00:00:00,PRATE,surface,-105,25.0393,2.17e-05
2015-03-06 00:00:00,2015-03-06 00:00:00,PRATE,surface,-104.063,25.0393,7.6e-06
2015-03-06 00:00:00,2015-03-06 00:00:00,PRATE,surface,-103.125,25.0393,1.3e-06
2015-03-06 00:00:00,2015-03-06 00:00:00,PRATE,surface,-102.188,25.0393,5.4e-06
2015-03-06 00:00:00,2015-03-06 00:00:00,PRATE,surface,-101.25,25.0393,3.75e-05
2015-03-06 00:00:00,2015-03-06 00:00:00,PRATE,surface,-100.313,25.0393,7.98e-05
2015-03-06 00:00:00,2015-03-06 00:00:00,PRATE,surface,-99.3754,25.0393,8.47e-05
2015-03-06 00:00:00,2015-03-06 00:00:00,PRATE,surface,-98.4379,25.0393,6.18e-05
2015-03-06 00:00:00,2015-03-06 00:00:00,PRATE,surface,-97.5004,25.0393,4.2e-05
2015-03-06 00:00:00,2015-03-06 00:00:00,PRATE,surface,-96.5629,25.0393,3.98e-05
2015-03-06 00:00:00,2015-03-06 00:00:00,PRATE,surface,-95.6254,25.0393,5.34e-05
2015-03-06 00:00:00,2015-03-06 00:00:00,PRATE,surface,-94.6879,25.0393,4.66e-05
2015-03-06 00:00:00,2015-03-06 00:00:00,PRATE,surface,-93.7504,25.0393,3.19e-05
2015-03-06 00:00:00,2015-03-06 00:00:00,PRATE,surface,-92.8129,25.0393,3.07e-05
2015-03-06 00:00:00,2015-03-06 00:00:00,PRATE,surface,-107.813,25.9842,5.71e-05
2015-03-06 00:00:00,2015-03-06 00:00:00,PRATE,surface,-106.875,25.9842,5.64e-05
2015-03-06 00:00:00,2015-03-06 00:00:00,PRATE,surface,-105.938,25.9842,3.09e-05
2015-03-06 00:00:00,2015-03-06 00:00:00,PRATE,surface,-105,25.9842,1.25e-05
2015-03-06 00:00:00,2015-03-06 00:00:00,PRATE,surface,-104.063,25.9842,2.1e-06
2015-03-06 00:00:00,2015-03-06 00:00:00,PRATE,surface,-103.125,25.9842,2e-06
2015-03-06 00:00:00,2015-03-06 00:00:00,PRATE,surface,-102.188,25.9842,7.3e-06
2015-03-06 00:00:00,2015-03-06 00:00:00,PRATE,surface,-101.25,25.9842,2.56e-05
2015-03-06 00:00:00,2015-03-06 00:00:00,PRATE,surface,-100.313,25.9842,5.84e-05
2015-03-06 00:00:00,2015-03-06 00:00:00,PRATE,surface,-99.3754,25.9842,6.87e-05
2015-03-06 00:00:00,2015-03-06 00:00:00,PRATE,surface,-98.4379,25.9842,6.57e-05
2015-03-06 00:00:00,2015-03-06 00:00:00,PRATE,surface,-97.5004,25.9842,7.61e-05
2015-03-06 00:00:00,2015-03-06 00:00:00,PRATE,surface,-96.5629,25.9842,8.08e-05
2015-03-06 00:00:00,2015-03-06 00:00:00,PRATE,surface,-95.6254,25.9842,7.67e-05
2015-03-06 00:00:00,2015-03-06 00:00:00,PRATE,surface,-94.6879,25.9842,6.25e-05
2015-03-06 00:00:00,2015-03-06 00:00:00,PRATE,surface,-93.7504,25.9842,4.28e-05
2015-03-06 00:00:00,2015-03-06 00:00:00,PRATE,surface,-92.8129,25.9842,3.37e-05
2015-03-06 00:00:00,2015-03-06 00:00:00,PRATE,surface,-107.813,26.929,6e-05
2015-03-06 00:00:00,2015-03-06 00:00:00,PRATE,surface,-106.875,26.929,4.45e-05
2015-03-06 00:00:00,2015-03-06 00:00:00,PRATE,surface,-105.938,26.929,2.29e-05
2015-03-06 00:00:00,2015-03-06 00:00:00,PRATE,surface,-105,26.929,9e-06
2015-03-06 00:00:00,2015-03-06 00:00:00,PRATE,surface,-104.063,26.929,7.2e-06
2015-03-06 00:00:00,2015-03-06 00:00:00,PRATE,surface,-103.125,26.929,1.56e-05
2015-03-06 00:00:00,2015-03-06 00:00:00,PRATE,surface,-102.188,26.929,2.83e-05
2015-03-06 00:00:00,2015-03-06 00:00:00,PRATE,surface,-101.25,26.929,4.31e-05
2015-03-06 00:00:00,2015-03-06 00:00:00,PRATE,surface,-100.313,26.929,5.97e-05
2015-03-06 00:00:00,2015-03-06 00:00:00,PRATE,surface,-99.3754,26.929,7.43e-05
2015-03-06 00:00:00,2015-03-06 00:00:00,PRATE,surface,-98.4379,26.929,8.82e-05
2015-03-06 00:00:00,2015-03-06 00:00:00,PRATE,surface,-97.5004,26.929,0.0001101
2015-03-06 00:00:00,2015-03-06 00:00:00,PRATE,surface,-96.5629,26.929,0.0001179
2015-03-06 00:00:00,2015-03-06 00:00:00,PRATE,surface,-95.6254,26.929,0.0001064
2015-03-06 00:00:00,2015-03-06 00:00:00,PRATE,surface,-94.6879,26.929,8.8e-05
2015-03-06 00:00:00,2015-03-06 00:00:00,PRATE,surface,-93.7504,26.929,5.9e-05
2015-03-06 00:00:00,2015-03-06 00:00:00,PRATE,surface,-92.8129,26.929,4.11e-05
2015-03-06 00:00:00,2015-03-06 00:00:00,PRATE,surface,-107.813,27.8739,4.74e-05
2015-03-06 00:00:00,2015-03-06 00:00:00,PRATE,surface,-106.875,27.8739,3.15e-05
2015-03-06 00:00:00,2015-03-06 00:00:00,PRATE,surface,-105.938,27.8739,1.43e-05
2015-03-06 00:00:00,2015-03-06 00:00:00,PRATE,surface,-105,27.8739,7.4e-06
2015-03-06 00:00:00,2015-03-06 00:00:00,PRATE,surface,-104.063,27.8739,2.18e-05
2015-03-06 00:00:00,2015-03-06 00:00:00,PRATE,surface,-103.125,27.8739,4.66e-05
2015-03-06 00:00:00,2015-03-06 00:00:00,PRATE,surface,-102.188,27.8739,6.21e-05
2015-03-06 00:00:00,2015-03-06 00:00:00,PRATE,surface,-101.25,27.8739,6.18e-05
2015-03-06 00:00:00,2015-03-06 00:00:00,PRATE,surface,-100.313,27.8739,5.69e-05
2015-03-06 00:00:00,2015-03-06 00:00:00,PRATE,surface,-99.3754,27.8739,7e-05
2015-03-06 00:00:00,2015-03-06 00:00:00,PRATE,surface,-98.4379,27.8739,8.83e-05
2015-03-06 00:00:00,2015-03-06 00:00:00,PRATE,surface,-97.5004,27.8739,0.0001065
2015-03-06 00:00:00,2015-03-06 00:00:00,PRATE,surface,-96.5629,27.8739,0.000121
2015-03-06 00:00:00,2015-03-06 00:00:00,PRATE,surface,-95.6254,27.8739,0.0001253
2015-03-06 00:00:00,2015-03-06 00:00:00,PRATE,surface,-94.6879,27.8739,0.0001172
2015-03-06 00:00:00,2015-03-06 00:00:00,PRATE,surface,-93.7504,27.8739,9.21e-05
2015-03-06 00:00:00,2015-03-06 00:00:00,PRATE,surface,-92.8129,27.8739,6.99e-05
2015-03-06 00:00:00,2015-03-06 00:00:00,PRATE,surface,-107.813,28.8188,3.74e-05
2015-03-06 00:00:00,2015-03-06 00:00:00,PRATE,surface,-106.875,28.8188,2.89e-05
2015-03-06 00:00:00,2015-03-06 00:00:00,PRATE,surface,-105.938,28.8188,1.32e-05
2015-03-06 00:00:00,2015-03-06 00:00:00,PRATE,surface,-105,28.8188,6.8e-06
2015-03-06 00:00:00,2015-03-06 00:00:00,PRATE,surface,-104.063,28.8188,2.55e-05
2015-03-06 00:00:00,2015-03-06 00:00:00,PRATE,surface,-103.125,28.8188,4.87e-05
2015-03-06 00:00:00,2015-03-06 00:00:00,PRATE,surface,-102.188,28.8188,5.9e-05
2015-03-06 00:00:00,2015-03-06 00:00:00,PRATE,surface,-101.25,28.8188,5.79e-05
2015-03-06 00:00:00,2015-03-06 00:00:00,PRATE,surface,-100.313,28.8188,5.73e-05
2015-03-06 00:00:00,2015-03-06 00:00:00,PRATE,surface,-99.3754,28.8188,6.88e-05
2015-03-06 00:00:00,2015-03-06 00:00:00,PRATE,surface,-98.4379,28.8188,8.16e-05
2015-03-06 00:00:00,2015-03-06 00:00:00,PRATE,surface,-97.5004,28.8188,9.64e-05
2015-03-06 00:00:00,2015-03-06 00:00:00,PRATE,surface,-96.5629,28.8188,0.0001172
2015-03-06 00:00:00,2015-03-06 00:00:00,PRATE,surface,-95.6254,28.8188,0.000136
2015-03-06 00:00:00,2015-03-06 00:00:00,PRATE,surface,-94.6879,28.8188,0.0001368
2015-03-06 00:00:00,2015-03-06 00:00:00,PRATE,surface,-93.7504,28.8188,0.0001129
2015-03-06 00:00:00,2015-03-06 00:00:00,PRATE,surface,-92.8129,28.8188,9.02e-05
2015-03-06 00:00:00,2015-03-06 00:00:00,PRATE,surface,-107.813,29.7637,2.07e-05
2015-03-06 00:00:00,2015-03-06 00:00:00,PRATE,surface,-106.875,29.7637,2.18e-05
2015-03-06 00:00:00,2015-03-06 00:00:00,PRATE,surface,-105.938,29.7637,1.74e-05
2015-03-06 00:00:00,2015-03-06 00:00:00,PRATE,surface,-105,29.7637,1.46e-05
2015-03-06 00:00:00,2015-03-06 00:00:00,PRATE,surface,-104.063,29.7637,2.02e-05
2015-03-06 00:00:00,2015-03-06 00:00:00,PRATE,surface,-103.125,29.7637,3.55e-05
2015-03-06 00:00:00,2015-03-06 00:00:00,PRATE,surface,-102.188,29.7637,4.23e-05
2015-03-06 00:00:00,2015-03-06 00:00:00,PRATE,surface,-101.25,29.7637,4.9e-05
2015-03-06 00:00:00,2015-03-06 00:00:00,PRATE,surface,-100.313,29.7637,6.04e-05
2015-03-06 00:00:00,2015-03-06 00:00:00,PRATE,surface,-99.3754,29.7637,6.99e-05
2015-03-06 00:00:00,2015-03-06 00:00:00,PRATE,surface,-98.4379,29.7637,7.51e-05
2015-03-06 00:00:00,2015-03-06 00:00:00,PRATE,surface,-97.5004,29.7637,8.87e-05
2015-03-06 00:00:00,2015-03-06 00:00:00,PRATE,surface,-96.5629,29.7637,0.0001165
2015-03-06 00:00:00,2015-03-06 00:00:00,PRATE,surface,-95.6254,29.7637,0.0001397
2015-03-06 00:00:00,2015-03-06 00:00:00,PRATE,surface,-94.6879,29.7637,0.0001356
2015-03-06 00:00:00,2015-03-06 00:00:00,PRATE,surface,-93.7504,29.7637,0.0001062
2015-03-06 00:00:00,2015-03-06 00:00:00,PRATE,surface,-92.8129,29.7637,7.66e-05
2015-03-06 00:00:00,2015-03-06 00:00:00,PRATE,surface,-107.813,30.7085,1.14e-05
2015-03-06 00:00:00,2015-03-06 00:00:00,PRATE,surface,-106.875,30.7085,1.49e-05
2015-03-06 00:00:00,2015-03-06 00:00:00,PRATE,surface,-105.938,30.7085,2.17e-05
2015-03-06 00:00:00,2015-03-06 00:00:00,PRATE,surface,-105,30.7085,2.39e-05
2015-03-06 00:00:00,2015-03-06 00:00:00,PRATE,surface,-104.063,30.7085,2.72e-05
2015-03-06 00:00:00,2015-03-06 00:00:00,PRATE,surface,-103.125,30.7085,2.81e-05
2015-03-06 00:00:00,2015-03-06 00:00:00,PRATE,surface,-102.188,30.7085,3.3e-05
2015-03-06 00:00:00,2015-03-06 00:00:00,PRATE,surface,-101.25,30.7085,4.55e-05
2015-03-06 00:00:00,2015-03-06 00:00:00,PRATE,surface,-100.313,30.7085,5.64e-05
2015-03-06 00:00:00,2015-03-06 00:00:00,PRATE,surface,-99.3754,30.7085,6.15e-05
2015-03-06 00:00:00,2015-03-06 00:00:00,PRATE,surface,-98.4379,30.7085,6.02e-05
2015-03-06 00:00:00,2015-03-06 00:00:00,PRATE,surface,-97.5004,30.7085,6.36e-05
2015-03-06 00:00:00,2015-03-06 00:00:00,PRATE,surface,-96.5629,30.7085,7.53e-05
2015-03-06 00:00:00,2015-03-06 00:00:00,PRATE,surface,-95.6254,30.7085,9.61e-05
2015-03-06 00:00:00,2015-03-06 00:00:00,PRATE,surface,-94.6879,30.7085,0.0001205
2015-03-06 00:00:00,2015-03-06 00:00:00,PRATE,surface,-93.7504,30.7085,0.0001214
2015-03-06 00:00:00,2015-03-06 00:00:00,PRATE,surface,-92.8129,30.7085,9.7e-05
2015-03-06 00:00:00,2015-03-06 00:00:00,PRATE,surface,-107.813,31.6534,1.05e-05
2015-03-06 00:00:00,2015-03-06 00:00:00,PRATE,surface,-106.875,31.6534,1.23e-05
2015-03-06 00:00:00,2015-03-06 00:00:00,PRATE,surface,-105.938,31.6534,2.17e-05
2015-03-06 00:00:00,2015-03-06 00:00:00,PRATE,surface,-105,31.6534,3.08e-05
2015-03-06 00:00:00,2015-03-06 00:00:00,PRATE,surface,-104.063,31.6534,3.38e-05
2015-03-06 00:00:00,2015-03-06 00:00:00,PRATE,surface,-103.125,31.6534,2.64e-05
2015-03-06 00:00:00,2015-03-06 00:00:00,PRATE,surface,-102.188,31.6534,2.93e-05
2015-03-06 00:00:00,2015-03-06 00:00:00,PRATE,surface,-101.25,31.6534,4.12e-05
2015-03-06 00:00:00,2015-03-06 00:00:00,PRATE,surface,-100.313,31.6534,4.8e-05
2015-03-06 00:00:00,2015-03-06 00:00:00,PRATE,surface,-99.3754,31.6534,4.87e-05
2015-03-06 00:00:00,2015-03-06 00:00:00,PRATE,surface,-98.4379,31.6534,4.62e-05
2015-03-06 00:00:00,2015-03-06 00:00:00,PRATE,surface,-97.5004,31.6534,4.3e-05
2015-03-06 00:00:00,2015-03-06 00:00:00,PRATE,surface,-96.5629,31.6534,4.51e-05
2015-03-06 00:00:00,2015-03-06 00:00:00,PRATE,surface,-95.6254,31.6534,5.51e-05
2015-03-06 00:00:00,2015-03-06 00:00:00,PRATE,surface,-94.6879,31.6534,7.32e-05
2015-03-06 00:00:00,2015-03-06 00:00:00,PRATE,surface,-93.7504,31.6534,9.7e-05
2015-03-06 00:00:00,2015-03-06 00:00:00,PRATE,surface,-92.8129,31.6534,0.0001053
2015-03-06 00:00:00,2015-03-06 00:00:00,PRATE,surface,-107.813,32.5983,2.33e-05
2015-03-06 00:00:00,2015-03-06 00:00:00,PRATE,surface,-106.875,32.5983,2.06e-05
2015-03-06 00:00:00,2015-03-06 00:00:00,PRATE,surface,-105.938,32.5983,2.55e-05
2015-03-06 00:00:00,2015-03-06 00:00:00,PRATE,surface,-105,32.5983,3.34e-05
2015-03-06 00:00:00,2015-03-06 00:00:00,PRATE,surface,-104.063,32.5983,3.42e-05
2015-03-06 00:00:00,2015-03-06 00:00:00,PRATE,surface,-103.125,32.5983,3.43e-05
2015-03-06 00:00:00,2015-03-06 00:00:00,PRATE,surface,-102.188,32.5983,3.46e-05
2015-03-06 00:00:00,2015-03-06 00:00:00,PRATE,surface,-101.25,32.5983,3.66e-05
2015-03-06 00:00:00,2015-03-06 00:00:00,PRATE,surface,-100.313,32.5983,3.96e-05
2015-03-06 00:00:00,2015-03-06 00:00:00,PRATE,surface,-99.3754,32.5983,4.17e-05
2015-03-06 00:00:00,2015-03-06 00:00:00,PRATE,surface,-98.4379,32.5983,4.14e-05
2015-03-06 00:00:00,2015-03-06 00:00:00,PRATE,surface,-97.5004,32.5983,3.84e-05
2015-03-06 00:00:00,2015-03-06 00:00:00,PRATE,surface,-96.5629,32.5983,3.5e-05
2015-03-06 00:00:00,2015-03-06 00:00:00,PRATE,surface,-95.6254,32.5983,3.62e-05
2015-03-06 00:00:00,2015-03-06 00:00:00,PRATE,surface,-94.6879,32.5983,4.51e-05
2015-03-06 00:00:00,2015-03-06 00:00:00,PRATE,surface,-93.7504,32.5983,5.88e-05
2015-03-06 00:00:00,2015-03-06 00:00:00,PRATE,surface,-92.8129,32.5983,6.98e-05
2015-03-06 00:00:00,2015-03-06 00:00:00,PRATE,surface,-107.813,33.5432,3.73e-05
2015-03-06 00:00:00,2015-03-06 00:00:00,PRATE,surface,-106.875,33.5432,3.56e-05
2015-03-06 00:00:00,2015-03-06 00:00:00,PRATE,surface,-105.938,33.5432,3.72e-05
2015-03-06 00:00:00,2015-03-06 00:00:00,PRATE,surface,-105,33.5432,4.25e-05
2015-03-06 00:00:00,2015-03-06 00:00:00,PRATE,surface,-104.063,33.5432,4.49e-05
2015-03-06 00:00:00,2015-03-06 00:00:00,PRATE,surface,-103.125,33.5432,3.78e-05
2015-03-06 00:00:00,2015-03-06 00:00:00,PRATE,surface,-102.188,33.5432,3.67e-05
2015-03-06 00:00:00,2015-03-06 00:00:00,PRATE,surface,-101.25,33.5432,3.66e-05
2015-03-06 00:00:00,2015-03-06 00:00:00,PRATE,surface,-100.313,33.5432,3.51e-05
2015-03-06 00:00:00,2015-03-06 00:00:00,PRATE,surface,-99.3754,33.5432,3.42e-05
2015-03-06 00:00:00,2015-03-06 00:00:00,PRATE,surface,-98.4379,33.5432,3.42e-05
2015-03-06 00:00:00,2015-03-06 00:00:00,PRATE,surface,-97.5004,33.5432,3.35e-05
2015-03-06 00:00:00,2015-03-06 00:00:00,PRATE,surface,-96.5629,33.5432,3.14e-05
2015-03-06 00:00:00,2015-03-06 00:00:00,PRATE,surface,-95.6254,33.5432,3.1e-05
2015-03-06 00:00:00,2015-03-06 00:00:00,PRATE,surface,-94.6879,33.5432,3.6e-05
2015-03-06 00:00:00,2015-03-06 00:00:00,PRATE,surface,-93.7504,33.5432,4.38e-05
2015-03-06 00:00:00,2015-03-06 00:00:00,PRATE,surface,-92.8129,33.5432,5.02e-05
2015-03-06 00:00:00,2015-03-06 00:00:00,PRATE,surface,-107.813,34.4881,3.13e-05
2015-03-06 00:00:00,2015-03-06 00:00:00,PRATE,surface,-106.875,34.4881,3.04e-05
2015-03-06 00:00:00,2015-03-06 00:00:00,PRATE,surface,-105.938,34.4881,3.53e-05
2015-03-06 00:00:00,2015-03-06 00:00:00,PRATE,surface,-105,34.4881,4.26e-05
2015-03-06 00:00:00,2015-03-06 00:00:00,PRATE,surface,-104.063,34.4881,4.76e-05
2015-03-06 00:00:00,2015-03-06 00:00:00,PRATE,surface,-103.125,34.4881,4.14e-05
2015-03-06 00:00:00,2015-03-06 00:00:00,PRATE,surface,-102.188,34.4881,4e-05
2015-03-06 00:00:00,2015-03-06 00:00:00,PRATE,surface,-101.25,34.4881,4e-05
2015-03-06 00:00:00,2015-03-06 00:00:00,PRATE,surface,-100.313,34.4881,3.64e-05
2015-03-06 00:00:00,2015-03-06 00:00:00,PRATE,surface,-99.3754,34.4881,3.36e-05
2015-03-06 00:00:00,2015-03-06 00:00:00,PRATE,surface,-98.4379,34.4881,3.26e-05
2015-03-06 00:00:00,2015-03-06 00:00:00,PRATE,surface,-97.5004,34.4881,3.08e-05
2015-03-06 00:00:00,2015-03-06 00:00:00,PRATE,surface,-96.5629,34.4881,2.85e-05
2015-03-06 00:00:00,2015-03-06 00:00:00,PRATE,surface,-95.6254,34.4881,2.94e-05
2015-03-06 00:00:00,2015-03-06 00:00:00,PRATE,surface,-94.6879,34.4881,3.54e-05
2015-03-06 00:00:00,2015-03-06 00:00:00,PRATE,surface,-93.7504,34.4881,4.11e-05
2015-03-06 00:00:00,2015-03-06 00:00:00,PRATE,surface,-92.8129,34.4881,4.23e-05
2015-03-06 00:00:00,2015-03-06 00:00:00,PRATE,surface,-107.813,35.4329,1.15e-05
2015-03-06 00:00:00,2015-03-06 00:00:00,PRATE,surface,-106.875,35.4329,1.68e-05
2015-03-06 00:00:00,2015-03-06 00:00:00,PRATE,surface,-105.938,35.4329,2.81e-05
2015-03-06 00:00:00,2015-03-06 00:00:00,PRATE,surface,-105,35.4329,4.25e-05
2015-03-06 00:00:00,2015-03-06 00:00:00,PRATE,surface,-104.063,35.4329,4.71e-05
2015-03-06 00:00:00,2015-03-06 00:00:00,PRATE,surface,-103.125,35.4329,4.9e-05
2015-03-06 00:00:00,2015-03-06 00:00:00,PRATE,surface,-102.188,35.4329,4.99e-05
2015-03-06 00:00:00,2015-03-06 00:00:00,PRATE,surface,-101.25,35.4329,5.28e-05
2015-03-06 00:00:00,2015-03-06 00:00:00,PRATE,surface,-100.313,35.4329,4.92e-05
2015-03-06 00:00:00,2015-03-06 00:00:00,PRATE,surface,-99.3754,35.4329,4.05e-05
2015-03-06 00:00:00,2015-03-06 00:00:00,PRATE,surface,-98.4379,35.4329,3.52e-05
2015-03-06 00:00:00,2015-03-06 00:00:00,PRATE,surface,-97.5004,35.4329,3.41e-05
2015-03-06 00:00:00,2015-03-06 00:00:00,PRATE,surface,-96.5629,35.4329,3.32e-05
2015-03-06 00:00:00,2015-03-06 00:00:00,PRATE,surface,-95.6254,35.4329,3.25e-05
2015-03-06 00:00:00,2015-03-06 00:00:00,PRATE,surface,-94.6879,35.4329,3.49e-05
2015-03-06 00:00:00,2015-03-06 00:00:00,PRATE,surface,-93.7504,35.4329,3.93e-05
2015-03-06 00:00:00,2015-03-06 00:00:00,PRATE,surface,-92.8129,35.4329,4.04e-05
2015-03-06 00:00:00,2015-03-06 00:00:00,PRATE,surface,-107.813,36.3778,9.3e-06
2015-03-06 00:00:00,2015-03-06 00:00:00,PRATE,surface,-106.875,36.3778,1.92e-05
2015-03-06 00:00:00,2015-03-06 00:00:00,PRATE,surface,-105.938,36.3778,3.2e-05
2015-03-06 00:00:00,2015-03-06 00:00:00,PRATE,surface,-105,36.3778,4.18e-05
2015-03-06 00:00:00,2015-03-06 00:00:00,PRATE,surface,-104.063,36.3778,4.97e-05
2015-03-06 00:00:00,2015-03-06 00:00:00,PRATE,surface,-103.125,36.3778,5.51e-05
2015-03-06 00:00:00,2015-03-06 00:00:00,PRATE,surface,-102.188,36.3778,6.67e-05
2015-03-06 00:00:00,2015-03-06 00:00:00,PRATE,surface,-101.25,36.3778,6.5e-05
2015-03-06 00:00:00,2015-03-06 00:00:00,PRATE,surface,-100.313,36.3778,5.73e-05
2015-03-06 00:00:00,2015-03-06 00:00:00,PRATE,surface,-99.3754,36.3778,4.75e-05
2015-03-06 00:00:00,2015-03-06 00:00:00,PRATE,surface,-98.4379,36.3778,4.07e-05
2015-03-06 00:00:00,2015-03-06 00:00:00,PRATE,surface,-97.5004,36.3778,3.68e-05
2015-03-06 00:00:00,2015-03-06 00:00:00,PRATE,surface,-96.5629,36.3778,3.38e-05
2015-03-06 00:00:00,2015-03-06 00:00:00,PRATE,surface,-95.6254,36.3778,3.23e-05
2015-03-06 00:00:00,2015-03-06 00:00:00,PRATE,surface,-94.6879,36.3778,3.38e-05
2015-03-06 00:00:00,2015-03-06 00:00:00,PRATE,surface,-93.7504,36.3778,3.75e-05
2015-03-06 00:00:00,2015-03-06 00:00:00,PRATE,surface,-92.8129,36.3778,4.21e-05
