2018-06-10 00:00:00,2018-06-10 00:00:00,TMP,surface,-107.813,25.0393,291.247
2018-06-10 00:00:00,2018-06-10 00:00:00,TMP,surface,-106.875,25.0393,285.705
2018-06-10 00:00:00,2018-06-10 00:00:00,TMP,surface,-105.938,25.0393,280.385
2018-06-10 00:00:00,2018-06-10 00:00:00,TMP,surface,-105,25.0393,279.05
2018-06-10 00:00:00,2018-06-10 00:00:00,TMP,surface,-104.063,25.0393,282.596
2018-06-10 00:00:00,2018-06-10 00:00:00,TMP,surface,-103.125,25.0393,284.58
2018-06-10 00:00:00,2018-06-10 00:00:00,TMP,surface,-102.188,25.0393,284.058
2018-06-10 00:00:00,2018-06-10 00:00:00,TMP,surface,-101.25,25.0393,282.954
2018-06-10 00:00:00,2018-06-10 00:00:00,TMP,surface,-100.313,25.0393,284.009
2018-06-10 00:00:00,2018-06-10 00:00:00,TMP,surface,-99.3754,25.0393,287.033
2018-06-10 00:00:00,2018-06-10 00:00:00,TMP,surface,-98.4379,25.0393,290.039
2018-06-10 00:00:00,2018-06-10 00:00:00,TMP,surface,-97.5004,25.0393,295.012
2018-06-10 00:00:00,2018-06-10 00:00:00,TMP,surface,-96.5629,25.0393,294.982
2018-06-10 00:00:00,2018-06-10 00:00:00,TMP,surface,-95.6254,25.0393,295.097
2018-06-10 00:00:00,2018-06-10 00:00:00,TMP,surface,-94.6879,25.0393,295.893
2018-06-10 00:00:00,2018-06-10 00:00:00,TMP,surface,-93.7504,25.0393,296.295
2018-06-10 00:00:00,2018-06-10 00:00:00,TMP,surface,-92.8129,25.0393,296.529
2018-06-10 00:00:00,2018-06-10 00:00:00,TMP,surface,-107.813,25.9842,286.585
2018-06-10 00:00:00,2018-06-10 00:00:00,TMP,surface,-106.875,25.9842,281.001
2018-06-10 00:00:00,2018-06-10 00:00:00,TMP,surface,-105.938,25.9842,278.741
2018-06-10 00:00:00,2018-06-10 00:00:00,TMP,surface,-105,25.9842,280.999
2018-06-10 00:00:00,2018-06-10 00:00:00,TMP,surface,-104.063,25.9842,284.354
2018-06-10 00:00:00,2018-06-10 00:00:00,TMP,surface,-103.125,25.9842,285.177
2018-06-10 00:00:00,2018-06-10 00:00:00,TMP,surface,-102.188,25.9842,284.764
2018-06-10 00:00:00,2018-06-10 00:00:00,TMP,surface,-101.25,25.9842,284.434
2018-06-10 00:00:00,2018-06-10 00:00:00,TMP,surface,-100.313,25.9842,285.237
2018-06-10 00:00:00,2018-06-10 00:00:00,TMP,surface,-99.3754,25.9842,287.724
2018-06-10 00:00:00,2018-06-10 00:00:00,TMP,surface,-98.4379,25.9842,289.849
2018-06-10 00:00:00,2018-06-10 00:00:00,TMP,surface,-97.5004,25.9842,291.181
2018-06-10 00:00:00,2018-06-10 00:00:00,TMP,surface,-96.5629,25.9842,294.487
2018-06-10 00:00:00,2018-06-10 00:00:00,TMP,surface,-95.6254,25.9842,294.743
2018-06-10 00:00:00,2018-06-10 00:00:00,TMP,surface,-94.6879,25.9842,295.277
2018-06-10 00:00:00,2018-06-10 00:00:00,TMP,surface,-93.7504,25.9842,295.644
2018-06-10 00:00:00,2018-06-10 00:00:00,TMP,surface,-92.8129,25.9842,296.01
2018-06-10 00:00:00,2018-06-10 00:00:00,TMP,surface,-107.813,26.929,281.703
2018-06-10 00:00:00,2018-06-10 00:00:00,TMP,surface,-106.875,26.929,278.106
2018-06-10 00:00:00,2018-06-10 00:00:00,TMP,surface,-105.938,26.929,279.954
2018-06-10 00:00:00,2018-06-10 00:00:00,TMP,surface,-105,26.929,283.113
2018-06-10 00:00:00,2018-06-10 00:00:00,TMP,surface,-104.063,26.929,284.082
2018-06-10 00:00:00,2018-06-10 00:00:00,TMP,surface,-103.125,26.929,283.405
2018-06-10 00:00:00,2018-06-10 00:00:00,TMP,surface,-102.188,26.929,283.553
2018-06-10 00:00:00,2018-06-10 00:00:00,TMP,surface,-101.25,26.929,284.885
2018-06-10 00:00:00,2018-06-10 00:00:00,TMP,surface,-100.313,26.929,286.285
2018-06-10 00:00:00,2018-06-10 00:00:00,TMP,surface,-99.3754,26.929,287.468
2018-06-10 00:00:00,2018-06-10 00:00:00,TMP,surface,-98.4379,26.929,288.145
2018-06-10 00:00:00,2018-06-10 00:00:00,TMP,surface,-97.5004,26.929,293.321
2018-06-10 00:00:00,2018-06-10 00:00:00,TMP,surface,-96.5629,26.929,293.996
2018-06-10 00:00:00,2018-06-10 00:00:00,TMP,surface,-95.6254,26.929,294.554
2018-06-10 00:00:00,2018-06-10 00:00:00,TMP,surface,-94.6879,26.929,295.233
2018-06-10 00:00:00,2018-06-10 00:00:00,TMP,surface,-93.7504,26.929,295.484
2018-06-10 00:00:00,2018-06-10 00:00:00,TMP,surface,-92.8129,26.929,295.69
2018-06-10 00:00:00,2018-06-10 00:00:00,TMP,surface,-107.813,27.8739,278.908
2018-06-10 00:00:00,2018-06-10 00:00:00,TMP,surface,-106.875,27.8739,277.741
2018-06-10 00:00:00,2018-06-10 00:00:00,TMP,surface,-105.938,27.8739,280.986
2018-06-10 00:00:00,2018-06-10 00:00:00,TMP,surface,-105,27.8739,283.262
2018-06-10 00:00:00,2018-06-10 00:00:00,TMP,surface,-104.063,27.8739,282.932
2018-06-10 00:00:00,2018-06-10 00:00:00,TMP,surface,-103.125,27.8739,281.901
2018-06-10 00:00:00,2018-06-10 00:00:00,TMP,surface,-102.188,27.8739,282.561
2018-06-10 00:00:00,2018-06-10 00:00:00,TMP,surface,-101.25,27.8739,284.302
2018-06-10 00:00:00,2018-06-10 00:00:00,TMP,surface,-100.313,27.8739,285.647
2018-06-10 00:00:00,2018-06-10 00:00:00,TMP,surface,-99.3754,27.8739,286.013
2018-06-10 00:00:00,2018-06-10 00:00:00,TMP,surface,-98.4379,27.8739,286.434
2018-06-10 00:00:00,2018-06-10 00:00:00,TMP,surface,-97.5004,27.8739,290.388
2018-06-10 00:00:00,2018-06-10 00:00:00,TMP,surface,-96.5629,27.8739,294.234
2018-06-10 00:00:00,2018-06-10 00:00:00,TMP,surface,-95.6254,27.8739,294.538
2018-06-10 00:00:00,2018-06-10 00:00:00,TMP,surface,-94.6879,27.8739,294.586
2018-06-10 00:00:00,2018-06-10 00:00:00,TMP,surface,-93.7504,27.8739,294.66
2018-06-10 00:00:00,2018-06-10 00:00:00,TMP,surface,-92.8129,27.8739,294.766
2018-06-10 00:00:00,2018-06-10 00:00:00,TMP,surface,-107.813,28.8188,277.572
2018-06-10 00:00:00,2018-06-10 00:00:00,TMP,surface,-106.875,28.8188,278.181
2018-06-10 00:00:00,2018-06-10 00:00:00,TMP,surface,-105.938,28.8188,281.089
2018-06-10 00:00:00,2018-06-10 00:00:00,TMP,surface,-105,28.8188,282.258
2018-06-10 00:00:00,2018-06-10 00:00:00,TMP,surface,-104.063,28.8188,281.45
2018-06-10 00:00:00,2018-06-10 00:00:00,TMP,surface,-103.125,28.8188,280.994
2018-06-10 00:00:00,2018-06-10 00:00:00,TMP,surface,-102.188,28.8188,282.134
2018-06-10 00:00:00,2018-06-10 00:00:00,TMP,surface,-101.25,28.8188,283.71
2018-06-10 00:00:00,2018-06-10 00:00:00,TMP,surface,-100.313,28.8188,284.21
2018-06-10 00:00:00,2018-06-10 00:00:00,TMP,surface,-99.3754,28.8188,284.044
2018-06-10 00:00:00,2018-06-10 00:00:00,TMP,surface,-98.4379,28.8188,284.186
2018-06-10 00:00:00,2018-06-10 00:00:00,TMP,surface,-97.5004,28.8188,285.055
2018-06-10 00:00:00,2018-06-10 00:00:00,TMP,surface,-96.5629,28.8188,286.087
2018-06-10 00:00:00,2018-06-10 00:00:00,TMP,surface,-95.6254,28.8188,289.351
2018-06-10 00:00:00,2018-06-10 00:00:00,TMP,surface,-94.6879,28.8188,293.959
2018-06-10 00:00:00,2018-06-10 00:00:00,TMP,surface,-93.7504,28.8188,293.919
2018-06-10 00:00:00,2018-06-10 00:00:00,TMP,surface,-92.8129,28.8188,294.089
2018-06-10 00:00:00,2018-06-10 00:00:00,TMP,surface,-107.813,29.7637,278.097
2018-06-10 00:00:00,2018-06-10 00:00:00,TMP,surface,-106.875,29.7637,278.988
2018-06-10 00:00:00,2018-06-10 00:00:00,TMP,surface,-105.938,29.7637,280.69
2018-06-10 00:00:00,2018-06-10 00:00:00,TMP,surface,-105,29.7637,280.554
2018-06-10 00:00:00,2018-06-10 00:00:00,TMP,surface,-104.063,29.7637,280.625
2018-06-10 00:00:00,2018-06-10 00:00:00,TMP,surface,-103.125,29.7637,281.159
2018-06-10 00:00:00,2018-06-10 00:00:00,TMP,surface,-102.188,29.7637,282.289
2018-06-10 00:00:00,2018-06-10 00:00:00,TMP,surface,-101.25,29.7637,282.887
2018-06-10 00:00:00,2018-06-10 00:00:00,TMP,surface,-100.313,29.7637,282.453
2018-06-10 00:00:00,2018-06-10 00:00:00,TMP,surface,-99.3754,29.7637,281.943
2018-06-10 00:00:00,2018-06-10 00:00:00,TMP,surface,-98.4379,29.7637,282.106
2018-06-10 00:00:00,2018-06-10 00:00:00,TMP,surface,-97.5004,29.7637,282.666
2018-06-10 00:00:00,2018-06-10 00:00:00,TMP,surface,-96.5629,29.7637,283.22
2018-06-10 00:00:00,2018-06-10 00:00:00,TMP,surface,-95.6254,29.7637,283.882
2018-06-10 00:00:00,2018-06-10 00:00:00,TMP,surface,-94.6879,29.7637,287.233
2018-06-10 00:00:00,2018-06-10 00:00:00,TMP,surface,-93.7504,29.7637,291.159
2018-06-10 00:00:00,2018-06-10 00:00:00,TMP,surface,-92.8129,29.7637,284.548
2018-06-10 00:00:00,2018-06-10 00:00:00,TMP,surface,-107.813,30.7085,279.508
2018-06-10 00:00:00,2018-06-10 00:00:00,TMP,surface,-106.875,30.7085,280.033
2018-06-10 00:00:00,2018-06-10 00:00:00,TMP,surface,-105.938,30.7085,279.74
2018-06-10 00:00:00,2018-06-10 00:00:00,TMP,surface,-105,30.7085,279.298
2018-06-10 00:00:00,2018-06-10 00:00:00,TMP,surface,-104.063,30.7085,279.767
2018-06-10 00:00:00,2018-06-10 00:00:00,TMP,surface,-103.125,30.7085,280.828
2018-06-10 00:00:00,2018-06-10 00:00:00,TMP,surface,-102.188,30.7085,281.556
2018-06-10 00:00:00,2018-06-10 00:00:00,TMP,surface,-101.25,30.7085,281.551
2018-06-10 00:00:00,2018-06-10 00:00:00,TMP,surface,-100.313,30.7085,281.053
2018-06-10 00:00:00,2018-06-10 00:00:00,TMP,surface,-99.3754,30.7085,280.785
2018-06-10 00:00:00,2018-06-10 00:00:00,TMP,surface,-98.4379,30.7085,280.922
2018-06-10 00:00:00,2018-06-10 00:00:00,TMP,surface,-97.5004,30.7085,281.292
2018-06-10 00:00:00,2018-06-10 00:00:00,TMP,surface,-96.5629,30.7085,281.633
2018-06-10 00:00:00,2018-06-10 00:00:00,TMP,surface,-95.6254,30.7085,281.834
2018-06-10 00:00:00,2018-06-10 00:00:00,TMP,surface,-94.6879,30.7085,281.924
2018-06-10 00:00:00,2018-06-10 00:00:00,TMP,surface,-93.7504,30.7085,281.761
2018-06-10 00:00:00,2018-06-10 00:00:00,TMP,surface,-92.8129,30.7085,281.26
2018-06-10 00:00:00,2018-06-10 00:00:00,TMP,surface,-107.813,31.6534,279.114
2018-06-10 00:00:00,2018-06-10 00:00:00,TMP,surface,-106.875,31.6534,279.388
2018-06-10 00:00:00,2018-06-10 00:00:00,TMP,surface,-105.938,31.6534,278.444
2018-06-10 00:00:00,2018-06-10 00:00:00,TMP,surface,-105,31.6534,278.404
2018-06-10 00:00:00,2018-06-10 00:00:00,TMP,surface,-104.063,31.6534,279.041
2018-06-10 00:00:00,2018-06-10 00:00:00,TMP,surface,-103.125,31.6534,280.001
2018-06-10 00:00:00,2018-06-10 00:00:00,TMP,surface,-102.188,31.6534,280.521
2018-06-10 00:00:00,2018-06-10 00:00:00,TMP,surface,-101.25,31.6534,280.326
2018-06-10 00:00:00,2018-06-10 00:00:00,TMP,surface,-100.313,31.6534,280.01
2018-06-10 00:00:00,2018-06-10 00:00:00,TMP,surface,-99.3754,31.6534,279.993
2018-06-10 00:00:00,2018-06-10 00:00:00,TMP,surface,-98.4379,31.6534,280.125
2018-06-10 00:00:00,2018-06-10 00:00:00,TMP,surface,-97.5004,31.6534,280.266
2018-06-10 00:00:00,2018-06-10 00:00:00,TMP,surface,-96.5629,31.6534,280.445
2018-06-10 00:00:00,2018-06-10 00:00:00,TMP,surface,-95.6254,31.6534,280.486
2018-06-10 00:00:00,2018-06-10 00:00:00,TMP,surface,-94.6879,31.6534,280.249
2018-06-10 00:00:00,2018-06-10 00:00:00,TMP,surface,-93.7504,31.6534,280.046
2018-06-10 00:00:00,2018-06-10 00:00:00,TMP,surface,-92.8129,31.6534,279.98
2018-06-10 00:00:00,2018-06-10 00:00:00,TMP,surface,-107.813,32.5983,276.694
2018-06-10 00:00:00,2018-06-10 00:00:00,TMP,surface,-106.875,32.5983,276.842
2018-06-10 00:00:00,2018-06-10 00:00:00,TMP,surface,-105.938,32.5983,276.935
2018-06-10 00:00:00,2018-06-10 00:00:00,TMP,surface,-105,32.5983,277.351
2018-06-10 00:00:00,2018-06-10 00:00:00,TMP,surface,-104.063,32.5983,278.476
2018-06-10 00:00:00,2018-06-10 00:00:00,TMP,surface,-103.125,32.5983,279.207
2018-06-10 00:00:00,2018-06-10 00:00:00,TMP,surface,-102.188,32.5983,279.282
2018-06-10 00:00:00,2018-06-10 00:00:00,TMP,surface,-101.25,32.5983,279.314
2018-06-10 00:00:00,2018-06-10 00:00:00,TMP,surface,-100.313,32.5983,279.37
2018-06-10 00:00:00,2018-06-10 00:00:00,TMP,surface,-99.3754,32.5983,279.468
2018-06-10 00:00:00,2018-06-10 00:00:00,TMP,surface,-98.4379,32.5983,279.425
2018-06-10 00:00:00,2018-06-10 00:00:00,TMP,surface,-97.5004,32.5983,279.397
2018-06-10 00:00:00,2018-06-10 00:00:00,TMP,surface,-96.5629,32.5983,279.447
2018-06-10 00:00:00,2018-06-10 00:00:00,TMP,surface,-95.6254,32.5983,279.293
2018-06-10 00:00:00,2018-06-10 00:00:00,TMP,surface,-94.6879,32.5983,278.935
2018-06-10 00:00:00,2018-06-10 00:00:00,TMP,surface,-93.7504,32.5983,278.804
2018-06-10 00:00:00,2018-06-10 00:00:00,TMP,surface,-92.8129,32.5983,279.038
2018-06-10 00:00:00,2018-06-10 00:00:00,TMP,surface,-107.813,33.5432,273.647
2018-06-10 00:00:00,2018-06-10 00:00:00,TMP,surface,-106.875,33.5432,274.671
2018-06-10 00:00:00,2018-06-10 00:00:00,TMP,surface,-105.938,33.5432,275.545
2018-06-10 00:00:00,2018-06-10 00:00:00,TMP,surface,-105,33.5432,276.37
2018-06-10 00:00:00,2018-06-10 00:00:00,TMP,surface,-104.063,33.5432,277.548
2018-06-10 00:00:00,2018-06-10 00:00:00,TMP,surface,-103.125,33.5432,278.167
2018-06-10 00:00:00,2018-06-10 00:00:00,TMP,surface,-102.188,33.5432,278.053
2018-06-10 00:00:00,2018-06-10 00:00:00,TMP,surface,-101.25,33.5432,278.134
2018-06-10 00:00:00,2018-06-10 00:00:00,TMP,surface,-100.313,33.5432,278.497
2018-06-10 00:00:00,2018-06-10 00:00:00,TMP,surface,-99.3754,33.5432,278.687
2018-06-10 00:00:00,2018-06-10 00:00:00,TMP,surface,-98.4379,33.5432,278.476
2018-06-10 00:00:00,2018-06-10 00:00:00,TMP,surface,-97.5004,33.5432,278.108
2018-06-10 00:00:00,2018-06-10 00:00:00,TMP,surface,-96.5629,33.5432,277.9
2018-06-10 00:00:00,2018-06-10 00:00:00,TMP,surface,-95.6254,33.5432,277.842
2018-06-10 00:00:00,2018-06-10 00:00:00,TMP,surface,-94.6879,33.5432,277.703
2018-06-10 00:00:00,2018-06-10 00:00:00,TMP,surface,-93.7504,33.5432,277.548
2018-06-10 00:00:00,2018-06-10 00:00:00,TMP,surface,-92.8129,33.5432,277.724
2018-06-10 00:00:00,2018-06-10 00:00:00,TMP,surface,-107.813,34.4881,271.781
2018-06-10 00:00:00,2018-06-10 00:00:00,TMP,surface,-106.875,34.4881,273.25
2018-06-10 00:00:00,2018-06-10 00:00:00,TMP,surface,-105.938,34.4881,274.105
2018-06-10 00:00:00,2018-06-10 00:00:00,TMP,surface,-105,34.4881,275.031
2018-06-10 00:00:00,2018-06-10 00:00:00,TMP,surface,-104.063,34.4881,275.833
2018-06-10 00:00:00,2018-06-10 00:00:00,TMP,surface,-103.125,34.4881,276.441
2018-06-10 00:00:00,2018-06-10 00:00:00,TMP,surface,-102.188,34.4881,276.647
2018-06-10 00:00:00,2018-06-10 00:00:00,TMP,surface,-101.25,34.4881,276.89
2018-06-10 00:00:00,2018-06-10 00:00:00,TMP,surface,-100.313,34.4881,277.229
2018-06-10 00:00:00,2018-06-10 00:00:00,TMP,surface,-99.3754,34.4881,277.409
2018-06-10 00:00:00,2018-06-10 00:00:00,TMP,surface,-98.4379,34.4881,277.252
2018-06-10 00:00:00,2018-06-10 00:00:00,TMP,surface,-97.5004,34.4881,276.887
2018-06-10 00:00:00,2018-06-10 00:00:00,TMP,surface,-96.5629,34.4881,276.553
2018-06-10 00:00:00,2018-06-10 00:00:00,TMP,surface,-95.6254,34.4881,276.246
2018-06-10 00:00:00,2018-06-10 00:00:00,TMP,surface,-94.6879,34.4881,275.977
2018-06-10 00:00:00,2018-06-10 00:00:00,TMP,surface,-93.7504,34.4881,275.999
2018-06-10 00:00:00,2018-06-10 00:00:00,TMP,surface,-92.8129,34.4881,276.228
2018-06-10 00:00:00,2018-06-10 00:00:00,TMP,surface,-107.813,35.4329,271.658
2018-06-10 00:00:00,2018-06-10 00:00:00,TMP,surface,-106.875,35.4329,272.047
2018-06-10 00:00:00,2018-06-10 00:00:00,TMP,surface,-105.938,35.4329,272.519
2018-06-10 00:00:00,2018-06-10 00:00:00,TMP,surface,-105,35.4329,273.164
2018-06-10 00:00:00,2018-06-10 00:00:00,TMP,surface,-104.063,35.4329,274.292
2018-06-10 00:00:00,2018-06-10 00:00:00,TMP,surface,-103.125,35.4329,275.249
2018-06-10 00:00:00,2018-06-10 00:00:00,TMP,surface,-102.188,35.4329,275.236
2018-06-10 00:00:00,2018-06-10 00:00:00,TMP,surface,-101.25,35.4329,275.404
2018-06-10 00:00:00,2018-06-10 00:00:00,TMP,surface,-100.313,35.4329,275.751
2018-06-10 00:00:00,2018-06-10 00:00:00,TMP,surface,-99.3754,35.4329,275.935
2018-06-10 00:00:00,2018-06-10 00:00:00,TMP,surface,-98.4379,35.4329,275.943
2018-06-10 00:00:00,2018-06-10 00:00:00,TMP,surface,-97.5004,35.4329,275.874
2018-06-10 00:00:00,2018-06-10 00:00:00,TMP,surface,-96.5629,35.4329,275.724
2018-06-10 00:00:00,2018-06-10 00:00:00,TMP,surface,-95.6254,35.4329,275.409
2018-06-10 00:00:00,2018-06-10 00:00:00,TMP,surface,-94.6879,35.4329,274.99
2018-06-10 00:00:00,2018-06-10 00:00:00,TMP,surface,-93.7504,35.4329,274.769
2018-06-10 00:00:00,2018-06-10 00:00:00,TMP,surface,-92.8129,35.4329,274.921
2018-06-10 00:00:00,2018-06-10 00:00:00,TMP,surface,-107.813,36.3778,270.332
2018-06-10 00:00:00,2018-06-10 00:00:00,TMP,surface,-106.875,36.3778,269.009
2018-06-10 00:00:00,2018-06-10 00:00:00,TMP,surface,-105.938,36.3778,269.668
2018-06-10 00:00:00,2018-06-10 00:00:00,TMP,surface,-105,36.3778,271.3
2018-06-10 00:00:00,2018-06-10 00:00:00,TMP,surface,-104.063,36.3778,272.801
2018-06-10 00:00:00,2018-06-10 00:00:00,TMP,surface,-103.125,36.3778,273.746
2018-06-10 00:00:00,2018-06-10 00:00:00,TMP,surface,-102.188,36.3778,273.714
2018-06-10 00:00:00,2018-06-10 00:00:00,TMP,surface,-101.25,36.3778,273.822
2018-06-10 00:00:00,2018-06-10 00:00:00,TMP,surface,-100.313,36.3778,274.277
2018-06-10 00:00:00,2018-06-10 00:00:00,TMP,surface,-99.3754,36.3778,274.657
2018-06-10 00:00:00,2018-06-10 00:00:00,TMP,surface,-98.4379,36.3778,274.786
2018-06-10 00:00:00,2018-06-10 00:00:00,TMP,surface,-97.5004,36.3778,274.9
2018-06-10 00:00:00,2018-06-10 00:00:00,TMP,surface,-96.5629,36.3778,274.893
2018-06-10 00:00:00,2018-06-10 00:00:00,TMP,surface,-95.6254,36.3778,274.453
2018-06-10 00:00:00,2018-06-10 00:00:00,TMP,surface,-94.6879,36.3778,273.815
2018-06-10 00:00:00,2018-06-10 00:00:00,TMP,surface,-93.7504,36.3778,273.554
2018-06-10 00:00:00,2018-06-10 00:00:00,TMP,surface,-92.8129,36.3778,273.766
2018-06-10 00:00:00,2018-06-10 00:00:00,PRATE,surface,-107.813,25.0393,1.37e-05
2018-06-10 00:00:00,2018-06-10 00:00:00,PRATE,surface,-106.875,25.0393,2.48e-05
2018-06-10 00:00:00,2018-06-10 00:00:00,PRATE,surface,-105.938,25.0393,2.9e-05
2018-06-10 00:00:00,2018-06-10 00:00:00,PRATE,surface,-105,25.0393,3e-05
2018-06-10 00:00:00,2018-06-10 00:00:00,PRATE,surface,-104.063,25.0393,1.74e-05
2018-06-10 00:00:00,2018-06-10 00:00:00,PRATE,surface,-103.125,25.0393,6.3e-06
2018-06-10 00:00:00,2018-06-10 00:00:00,PRATE,surface,-102.188,25.0393,5.5e-06
2018-06-10 00:00:00,2018-06-10 00:00:00,PRATE,surface,-101.25,25.0393,9e-06
2018-06-10 00:00:00,2018-06-10 00:00:00,PRATE,surface,-100.313,25.0393,2.01e-05
2018-06-10 00:00:00,2018-06-10 00:00:00,PRATE,surface,-99.3754,25.0393,4.98e-05
2018-06-10 00:00:00,2018-06-10 00:00:00,PRATE,surface,-98.4379,25.0393,5.07e-05
2018-06-10 00:00:00,2018-06-10 00:00:00,PRATE,surface,-97.5004,25.0393,4.53e-05
2018-06-10 00:00:00,2018-06-10 00:00:00,PRATE,surface,-96.5629,25.0393,4.75e-05
2018-06-10 00:00:00,2018-06-10 00:00:00,PRATE,surface,-95.6254,25.0393,4.53e-05
2018-06-10 00:00:00,2018-06-10 00:00:00,PRATE,surface,-94.6879,25.0393,3.79e-05
2018-06-10 00:00:00,2018-06-10 00:00:00,PRATE,surface,-93.7504,25.0393,2.89e-05
2018-06-10 00:00:00,2018-06-10 00:00:00,PRATE,surface,-92.8129,25.0393,2.51e-05
2018-06-10 00:00:00,2018-06-10 00:00:00,PRATE,surface,-107.813,25.9842,1.57e-05
2018-06-10 00:00:00,2018-06-10 00:00:00,PRATE,surface,-106.875,25.9842,2.29e-05
2018-06-10 00:00:00,2018-06-10 00:00:00,PRATE,surface,-105.938,25.9842,2.32e-05
2018-06-10 00:00:00,2018-06-10 00:00:00,PRATE,surface,-105,25.9842,2.09e-05
2018-06-10 00:00:00,2018-06-10 00:00:00,PRATE,surface,-104.063,25.9842,9.2e-06
2018-06-10 00:00:00,2018-06-10 00:00:00,PRATE,surface,-103.125,25.9842,3.6e-06
2018-06-10 00:00:00,2018-06-10 00:00:00,PRATE,surface,-102.188,25.9842,4.1e-06
2018-06-10 00:00:00,2018-06-10 00:00:00,PRATE,surface,-101.25,25.9842,7.8e-06
2018-06-10 00:00:00,2018-06-10 00:00:00,PRATE,surface,-100.313,25.9842,1.61e-05
2018-06-10 00:00:00,2018-06-10 00:00:00,PRATE,surface,-99.3754,25.9842,3.96e-05
2018-06-10 00:00:00,2018-06-10 00:00:00,PRATE,surface,-98.4379,25.9842,4.35e-05
2018-06-10 00:00:00,2018-06-10 00:00:00,PRATE,surface,-97.5004,25.9842,3.83e-05
2018-06-10 00:00:00,2018-06-10 00:00:00,PRATE,surface,-96.5629,25.9842,5.33e-05
2018-06-10 00:00:00,2018-06-10 00:00:00,PRATE,surface,-95.6254,25.9842,5.59e-05
2018-06-10 00:00:00,2018-06-10 00:00:00,PRATE,surface,-94.6879,25.9842,5.43e-05
2018-06-10 00:00:00,2018-06-10 00:00:00,PRATE,surface,-93.7504,25.9842,4.61e-05
2018-06-10 00:00:00,2018-06-10 00:00:00,PRATE,surface,-92.8129,25.9842,3.92e-05
2018-06-10 00:00:00,2018-06-10 00:00:00,PRATE,surface,-107.813,26.929,2.56e-05
2018-06-10 00:00:00,2018-06-10 00:00:00,PRATE,surface,-106.875,26.929,2.2e-05
2018-06-10 00:00:00,2018-06-10 00:00:00,PRATE,surface,-105.938,26.929,1.73e-05
2018-06-10 00:00:00,2018-06-10 00:00:00,PRATE,surface,-105,26.929,1.15e-05
2018-06-10 00:00:00,2018-06-10 00:00:00,PRATE,surface,-104.063,26.929,4.9e-06
2018-06-10 00:00:00,2018-06-10 00:00:00,PRATE,surface,-103.125,26.929,4.6e-06
2018-06-10 00:00:00,2018-06-10 00:00:00,PRATE,surface,-102.188,26.929,6.5e-06
2018-06-10 00:00:00,2018-06-10 00:00:00,PRATE,surface,-101.25,26.929,9.6e-06
2018-06-10 00:00:00,2018-06-10 00:00:00,PRATE,surface,-100.313,26.929,1.57e-05
2018-06-10 00:00:00,2018-06-10 00:00:00,PRATE,surface,-99.3754,26.929,2.98e-05
2018-06-10 00:00:00,2018-06-10 00:00:00,PRATE,surface,-98.4379,26.929,3.75e-05
2018-06-10 00:00:00,2018-06-10 00:00:00,PRATE,surface,-97.5004,26.929,4.35e-05
2018-06-10 00:00:00,2018-06-10 00:00:00,PRATE,surface,-96.5629,26.929,4.95e-05
2018-06-10 00:00:00,2018-06-10 00:00:00,PRATE,surface,-95.6254,26.929,5.85e-05
2018-06-10 00:00:00,2018-06-10 00:00:00,PRATE,surface,-94.6879,26.929,6.81e-05
2018-06-10 00:00:00,2018-06-10 00:00:00,PRATE,surface,-93.7504,26.929,7.11e-05
2018-06-10 00:00:00,2018-06-10 00:00:00,PRATE,surface,-92.8129,26.929,6.57e-05
2018-06-10 00:00:00,2018-06-10 00:00:00,PRATE,surface,-107.813,27.8739,3.04e-05
2018-06-10 00:00:00,2018-06-10 00:00:00,PRATE,surface,-106.875,27.8739,1.65e-05
2018-06-10 00:00:00,2018-06-10 00:00:00,PRATE,surface,-105.938,27.8739,1.11e-05
2018-06-10 00:00:00,2018-06-10 00:00:00,PRATE,surface,-105,27.8739,7.3e-06
2018-06-10 00:00:00,2018-06-10 00:00:00,PRATE,surface,-104.063,27.8739,6.1e-06
2018-06-10 00:00:00,2018-06-10 00:00:00,PRATE,surface,-103.125,27.8739,1.03e-05
2018-06-10 00:00:00,2018-06-10 00:00:00,PRATE,surface,-102.188,27.8739,1.1e-05
2018-06-10 00:00:00,2018-06-10 00:00:00,PRATE,surface,-101.25,27.8739,1.18e-05
2018-06-10 00:00:00,2018-06-10 00:00:00,PRATE,surface,-100.313,27.8739,1.38e-05
2018-06-10 00:00:00,2018-06-10 00:00:00,PRATE,surface,-99.3754,27.8739,1.89e-05
2018-06-10 00:00:00,2018-06-10 00:00:00,PRATE,surface,-98.4379,27.8739,2.38e-05
2018-06-10 00:00:00,2018-06-10 00:00:00,PRATE,surface,-97.5004,27.8739,2.82e-05
2018-06-10 00:00:00,2018-06-10 00:00:00,PRATE,surface,-96.5629,27.8739,3.45e-05
2018-06-10 00:00:00,2018-06-10 00:00:00,PRATE,surface,-95.6254,27.8739,4.73e-05
2018-06-10 00:00:00,2018-06-10 00:00:00,PRATE,surface,-94.6879,27.8739,6.81e-05
2018-06-10 00:00:00,2018-06-10 00:00:00,PRATE,surface,-93.7504,27.8739,8.59e-05
2018-06-10 00:00:00,2018-06-10 00:00:00,PRATE,surface,-92.8129,27.8739,8.89e-05
2018-06-10 00:00:00,2018-06-10 00:00:00,PRATE,surface,-107.813,28.8188,2.47e-05
2018-06-10 00:00:00,2018-06-10 00:00:00,PRATE,surface,-106.875,28.8188,1.07e-05
2018-06-10 00:00:00,2018-06-10 00:00:00,PRATE,surface,-105.938,28.8188,7.3e-06
2018-06-10 00:00:00,2018-06-10 00:00:00,PRATE,surface,-105,28.8188,5.1e-06
2018-06-10 00:00:00,2018-06-10 00:00:00,PRATE,surface,-104.063,28.8188,6.1e-06
2018-06-10 00:00:00,2018-06-10 00:00:00,PRATE,surface,-103.125,28.8188,1.01e-05
2018-06-10 00:00:00,2018-06-10 00:00:00,PRATE,surface,-102.188,28.8188,1.03e-05
2018-06-10 00:00:00,2018-06-10 00:00:00,PRATE,surface,-101.25,28.8188,1e-05
2018-06-10 00:00:00,2018-06-10 00:00:00,PRATE,surface,-100.313,28.8188,1.06e-05
2018-06-10 00:00:00,2018-06-10 00:00:00,PRATE,surface,-99.3754,28.8188,1.3e-05
2018-06-10 00:00:00,2018-06-10 00:00:00,PRATE,surface,-98.4379,28.8188,1.56e-05
2018-06-10 00:00:00,2018-06-10 00:00:00,PRATE,surface,-97.5004,28.8188,1.81e-05
2018-06-10 00:00:00,2018-06-10 00:00:00,PRATE,surface,-96.5629,28.8188,2.51e-05
2018-06-10 00:00:00,2018-06-10 00:00:00,PRATE,surface,-95.6254,28.8188,3.81e-05
2018-06-10 00:00:00,2018-06-10 00:00:00,PRATE,surface,-94.6879,28.8188,5.43e-05
2018-06-10 00:00:00,2018-06-10 00:00:00,PRATE,surface,-93.7504,28.8188,7.27e-05
2018-06-10 00:00:00,2018-06-10 00:00:00,PRATE,surface,-92.8129,28.8188,8.31e-05
2018-06-10 00:00:00,2018-06-10 00:00:00,PRATE,surface,-107.813,29.7637,1.46e-05
2018-06-10 00:00:00,2018-06-10 00:00:00,PRATE,surface,-106.875,29.7637,7e-06
2018-06-10 00:00:00,2018-06-10 00:00:00,PRATE,surface,-105.938,29.7637,4e-06
2018-06-10 00:00:00,2018-06-10 00:00:00,PRATE,surface,-105,29.7637,4.2e-06
2018-06-10 00:00:00,2018-06-10 00:00:00,PRATE,surface,-104.063,29.7637,5.8e-06
2018-06-10 00:00:00,2018-06-10 00:00:00,PRATE,surface,-103.125,29.7637,7e-06
2018-06-10 00:00:00,2018-06-10 00:00:00,PRATE,surface,-102.188,29.7637,6.4e-06
2018-06-10 00:00:00,2018-06-10 00:00:00,PRATE,surface,-101.25,29.7637,7e-06
2018-06-10 00:00:00,2018-06-10 00:00:00,PRATE,surface,-100.313,29.7637,1.1e-05
2018-06-10 00:00:00,2018-06-10 00:00:00,PRATE,surface,-99.3754,29.7637,1.55e-05
2018-06-10 00:00:00,2018-06-10 00:00:00,PRATE,surface,-98.4379,29.7637,1.9e-05
2018-06-10 00:00:00,2018-06-10 00:00:00,PRATE,surface,-97.5004,29.7637,1.89e-05
2018-06-10 00:00:00,2018-06-10 00:00:00,PRATE,surface,-96.5629,29.7637,2.07e-05
2018-06-10 00:00:00,2018-06-10 00:00:00,PRATE,surface,-95.6254,29.7637,2.73e-05
2018-06-10 00:00:00,2018-06-10 00:00:00,PRATE,surface,-94.6879,29.7637,3.74e-05
2018-06-10 00:00:00,2018-06-10 00:00:00,PRATE,surface,-93.7504,29.7637,5.28e-05
2018-06-10 00:00:00,2018-06-10 00:00:00,PRATE,surface,-92.8129,29.7637,6.02e-05
2018-06-10 00:00:00,2018-06-10 00:00:00,PRATE,surface,-107.813,30.7085,1.04e-05
2018-06-10 00:00:00,2018-06-10 00:00:00,PRATE,surface,-106.875,30.7085,8.1e-06
2018-06-10 00:00:00,2018-06-10 00:00:00,PRATE,surface,-105.938,30.7085,5.4e-06
2018-06-10 00:00:00,2018-06-10 00:00:00,PRATE,surface,-105,30.7085,5.4e-06
2018-06-10 00:00:00,2018-06-10 00:00:00,PRATE,surface,-104.063,30.7085,5.6e-06
2018-06-10 00:00:00,2018-06-10 00:00:00,PRATE,surface,-103.125,30.7085,4.6e-06
2018-06-10 00:00:00,2018-06-10 00:00:00,PRATE,surface,-102.188,30.7085,5.1e-06
2018-06-10 00:00:00,2018-06-10 00:00:00,PRATE,surface,-101.25,30.7085,6.8e-06
2018-06-10 00:00:00,2018-06-10 00:00:00,PRATE,surface,-100.313,30.7085,1.28e-05
2018-06-10 00:00:00,2018-06-10 00:00:00,PRATE,surface,-99.3754,30.7085,1.72e-05
2018-06-10 00:00:00,2018-06-10 00:00:00,PRATE,surface,-98.4379,30.7085,2.11e-05
2018-06-10 00:00:00,2018-06-10 00:00:00,PRATE,surface,-97.5004,30.7085,2.16e-05
2018-06-10 00:00:00,2018-06-10 00:00:00,PRATE,surface,-96.5629,30.7085,2.03e-05
2018-06-10 00:00:00,2018-06-10 00:00:00,PRATE,surface,-95.6254,30.7085,2.22e-05
2018-06-10 00:00:00,2018-06-10 00:00:00,PRATE,surface,-94.6879,30.7085,2.74e-05
2018-06-10 00:00:00,2018-06-10 00:00:00,PRATE,surface,-93.7504,30.7085,3.65e-05
2018-06-10 00:00:00,2018-06-10 00:00:00,PRATE,surface,-92.8129,30.7085,4.77e-05
2018-06-10 00:00:00,2018-06-10 00:00:00,PRATE,surface,-107.813,31.6534,1.07e-05
2018-06-10 00:00:00,2018-06-10 00:00:00,PRATE,surface,-106.875,31.6534,9.6e-06
2018-06-10 00:00:00,2018-06-10 00:00:00,PRATE,surface,-105.938,31.6534,8.9e-06
2018-06-10 00:00:00,2018-06-10 00:00:00,PRATE,surface,-105,31.6534,8.3e-06
2018-06-10 00:00:00,2018-06-10 00:00:00,PRATE,surface,-104.063,31.6534,6.7e-06
2018-06-10 00:00:00,2018-06-10 00:00:00,PRATE,surface,-103.125,31.6534,4.7e-06
2018-06-10 00:00:00,2018-06-10 00:00:00,PRATE,surface,-102.188,31.6534,4.8e-06
2018-06-10 00:00:00,2018-06-10 00:00:00,PRATE,surface,-101.25,31.6534,8e-06
2018-06-10 00:00:00,2018-06-10 00:00:00,PRATE,surface,-100.313,31.6534,1.62e-05
2018-06-10 00:00:00,2018-06-10 00:00:00,PRATE,surface,-99.3754,31.6534,2.23e-05
2018-06-10 00:00:00,2018-06-10 00:00:00,PRATE,surface,-98.4379,31.6534,2.6e-05
2018-06-10 00:00:00,2018-06-10 00:00:00,PRATE,surface,-97.5004,31.6534,2.56e-05
2018-06-10 00:00:00,2018-06-10 00:00:00,PRATE,surface,-96.5629,31.6534,2.23e-05
2018-06-10 00:00:00,2018-06-10 00:00:00,PRATE,surface,-95.6254,31.6534,2.13e-05
2018-06-10 00:00:00,2018-06-10 00:00:00,PRATE,surface,-94.6879,31.6534,2.42e-05
2018-06-10 00:00:00,2018-06-10 00:00:00,PRATE,surface,-93.7504,31.6534,3.19e-05
2018-06-10 00:00:00,2018-06-10 00:00:00,PRATE,surface,-92.8129,31.6534,4.1e-05
2018-06-10 00:00:00,2018-06-10 00:00:00,PRATE,surface,-107.813,32.5983,1.11e-05
2018-06-10 00:00:00,2018-06-10 00:00:00,PRATE,surface,-106.875,32.5983,9.9e-06
2018-06-10 00:00:00,2018-06-10 00:00:00,PRATE,surface,-105.938,32.5983,9.6e-06
2018-06-10 00:00:00,2018-06-10 00:00:00,PRATE,surface,-105,32.5983,9.2e-06
2018-06-10 00:00:00,2018-06-10 00:00:00,PRATE,surface,-104.063,32.5983,6.9e-06
2018-06-10 00:00:00,2018-06-10 00:00:00,PRATE,surface,-103.125,32.5983,4.2e-06
2018-06-10 00:00:00,2018-06-10 00:00:00,PRATE,surface,-102.188,32.5983,4.9e-06
2018-06-10 00:00:00,2018-06-10 00:00:00,PRATE,surface,-101.25,32.5983,8e-06
2018-06-10 00:00:00,2018-06-10 00:00:00,PRATE,surface,-100.313,32.5983,1.5e-05
2018-06-10 00:00:00,2018-06-10 00:00:00,PRATE,surface,-99.3754,32.5983,2.37e-05
2018-06-10 00:00:00,2018-06-10 00:00:00,PRATE,surface,-98.4379,32.5983,3.28e-05
2018-06-10 00:00:00,2018-06-10 00:00:00,PRATE,surface,-97.5004,32.5983,3.69e-05
2018-06-10 00:00:00,2018-06-10 00:00:00,PRATE,surface,-96.5629,32.5983,3.23e-05
2018-06-10 00:00:00,2018-06-10 00:00:00,PRATE,surface,-95.6254,32.5983,2.57e-05
2018-06-10 00:00:00,2018-06-10 00:00:00,PRATE,surface,-94.6879,32.5983,2.42e-05
2018-06-10 00:00:00,2018-06-10 00:00:00,PRATE,surface,-93.7504,32.5983,2.72e-05
2018-06-10 00:00:00,2018-06-10 00:00:00,PRATE,surface,-92.8129,32.5983,3.5e-05
2018-06-10 00:00:00,2018-06-10 00:00:00,PRATE,surface,-107.813,33.5432,1.45e-05
2018-06-10 00:00:00,2018-06-10 00:00:00,PRATE,surface,-106.875,33.5432,9.5e-06
2018-06-10 00:00:00,2018-06-10 00:00:00,PRATE,surface,-105.938,33.5432,7.4e-06
2018-06-10 00:00:00,2018-06-10 00:00:00,PRATE,surface,-105,33.5432,7.3e-06
2018-06-10 00:00:00,2018-06-10 00:00:00,PRATE,surface,-104.063,33.5432,5.6e-06
2018-06-10 00:00:00,2018-06-10 00:00:00,PRATE,surface,-103.125,33.5432,3.6e-06
2018-06-10 00:00:00,2018-06-10 00:00:00,PRATE,surface,-102.188,33.5432,4e-06
2018-06-10 00:00:00,2018-06-10 00:00:00,PRATE,surface,-101.25,33.5432,6.3e-06
2018-06-10 00:00:00,2018-06-10 00:00:00,PRATE,surface,-100.313,33.5432,8.6e-06
2018-06-10 00:00:00,2018-06-10 00:00:00,PRATE,surface,-99.3754,33.5432,1.43e-05
2018-06-10 00:00:00,2018-06-10 00:00:00,PRATE,surface,-98.4379,33.5432,2.58e-05
2018-06-10 00:00:00,2018-06-10 00:00:00,PRATE,surface,-97.5004,33.5432,3.64e-05
2018-06-10 00:00:00,2018-06-10 00:00:00,PRATE,surface,-96.5629,33.5432,3.85e-05
2018-06-10 00:00:00,2018-06-10 00:00:00,PRATE,surface,-95.6254,33.5432,3.35e-05
2018-06-10 00:00:00,2018-06-10 00:00:00,PRATE,surface,-94.6879,33.5432,2.83e-05
2018-06-10 00:00:00,2018-06-10 00:00:00,PRATE,surface,-93.7504,33.5432,2.66e-05
2018-06-10 00:00:00,2018-06-10 00:00:00,PRATE,surface,-92.8129,33.5432,2.82e-05
2018-06-10 00:00:00,2018-06-10 00:00:00,PRATE,surface,-107.813,34.4881,1.5e-05
2018-06-10 00:00:00,2018-06-10 00:00:00,PRATE,surface,-106.875,34.4881,7.5e-06
2018-06-10 00:00:00,2018-06-10 00:00:00,PRATE,surface,-105.938,34.4881,4.7e-06
2018-06-10 00:00:00,2018-06-10 00:00:00,PRATE,surface,-105,34.4881,5.6e-06
2018-06-10 00:00:00,2018-06-10 00:00:00,PRATE,surface,-104.063,34.4881,6.7e-06
2018-06-10 00:00:00,2018-06-10 00:00:00,PRATE,surface,-103.125,34.4881,5.8e-06
2018-06-10 00:00:00,2018-06-10 00:00:00,PRATE,surface,-102.188,34.4881,5.5e-06
2018-06-10 00:00:00,2018-06-10 00:00:00,PRATE,surface,-101.25,34.4881,5.8e-06
2018-06-10 00:00:00,2018-06-10 00:00:00,PRATE,surface,-100.313,34.4881,6.2e-06
2018-06-10 00:00:00,2018-06-10 00:00:00,PRATE,surface,-99.3754,34.4881,8.4e-06
2018-06-10 00:00:00,2018-06-10 00:00:00,PRATE,surface,-98.4379,34.4881,1.24e-05
2018-06-10 00:00:00,2018-06-10 00:00:00,PRATE,surface,-97.5004,34.4881,2.06e-05
2018-06-10 00:00:00,2018-06-10 00:00:00,PRATE,surface,-96.5629,34.4881,2.97e-05
2018-06-10 00:00:00,2018-06-10 00:00:00,PRATE,surface,-95.6254,34.4881,3.37e-05
2018-06-10 00:00:00,2018-06-10 00:00:00,PRATE,surface,-94.6879,34.4881,3.33e-05
2018-06-10 00:00:00,2018-06-10 00:00:00,PRATE,surface,-93.7504,34.4881,3.25e-05
2018-06-10 00:00:00,2018-06-10 00:00:00,PRATE,surface,-92.8129,34.4881,3.14e-05
2018-06-10 00:00:00,2018-06-10 00:00:00,PRATE,surface,-107.813,35.4329,1.32e-05
2018-06-10 00:00:00,2018-06-10 00:00:00,PRATE,surface,-106.875,35.4329,6.4e-06
2018-06-10 00:00:00,2018-06-10 00:00:00,PRATE,surface,-105.938,35.4329,5e-06
2018-06-10 00:00:00,2018-06-10 00:00:00,PRATE,surface,-105,35.4329,7.3e-06
2018-06-10 00:00:00,2018-06-10 00:00:00,PRATE,surface,-104.063,35.4329,8.9e-06
2018-06-10 00:00:00,2018-06-10 00:00:00,PRATE,surface,-103.125,35.4329,8.9e-06
2018-06-10 00:00:00,2018-06-10 00:00:00,PRATE,surface,-102.188,35.4329,1e-05
2018-06-10 00:00:00,2018-06-10 00:00:00,PRATE,surface,-101.25,35.4329,1.11e-05
2018-06-10 00:00:00,2018-06-10 00:00:00,PRATE,surface,-100.313,35.4329,1.08e-05
2018-06-10 00:00:00,2018-06-10 00:00:00,PRATE,surface,-99.3754,35.4329,1.09e-05
2018-06-10 00:00:00,2018-06-10 00:00:00,PRATE,surface,-98.4379,35.4329,1.28e-05
2018-06-10 00:00:00,2018-06-10 00:00:00,PRATE,surface,-97.5004,35.4329,1.57e-05
2018-06-10 00:00:00,2018-06-10 00:00:00,PRATE,surface,-96.5629,35.4329,2.15e-05
2018-06-10 00:00:00,2018-06-10 00:00:00,PRATE,surface,-95.6254,35.4329,2.98e-05
2018-06-10 00:00:00,2018-06-10 00:00:00,PRATE,surface,-94.6879,35.4329,3.52e-05
2018-06-10 00:00:00,2018-06-10 00:00:00,PRATE,surface,-93.7504,35.4329,3.52e-05
2018-06-10 00:00:00,2018-06-10 00:00:00,PRATE,surface,-92.8129,35.4329,3.17e-05
2018-06-10 00:00:00,2018-06-10 00:00:00,PRATE,surface,-107.813,36.3778,1.71e-05
2018-06-10 00:00:00,2018-06-10 00:00:00,PRATE,surface,-106.875,36.3778,1.25e-05
2018-06-10 00:00:00,2018-06-10 00:00:00,PRATE,surface,-105.938,36.3778,1.02e-05
2018-06-10 00:00:00,2018-06-10 00:00:00,PRATE,surface,-105,36.3778,1.14e-05
2018-06-10 00:00:00,2018-06-10 00:00:00,PRATE,surface,-104.063,36.3778,1.31e-05
2018-06-10 00:00:00,2018-06-10 00:00:00,PRATE,surface,-103.125,36.3778,1.18e-05
2018-06-10 00:00:00,2018-06-10 00:00:00,PRATE,surface,-102.188,36.3778,1.28e-05
2018-06-10 00:00:00,2018-06-10 00:00:00,PRATE,surface,-101.25,36.3778,1.43e-05
2018-06-10 00:00:00,2018-06-10 00:00:00,PRATE,surface,-100.313,36.3778,1.53e-05
2018-06-10 00:00:00,2018-06-10 00:00:00,PRATE,surface,-99.3754,36.3778,1.54e-05
2018-06-10 00:00:00,2018-06-10 00:00:00,PRATE,surface,-98.4379,36.3778,1.63e-05
2018-06-10 00:00:00,2018-06-10 00:00:00,PRATE,surface,-97.5004,36.3778,1.8e-05
2018-06-10 00:00:00,2018-06-10 00:00:00,PRATE,surface,-96.5629,36.3778,2.04e-05
2018-06-10 00:00:00,2018-06-10 00:00:00,PRATE,surface,-95.6254,36.3778,2.52e-05
2018-06-10 00:00:00,2018-06-10 00:00:00,PRATE,surface,-94.6879,36.3778,3.2e-05
2018-06-10 00:00:00,2018-06-10 00:00:00,PRATE,surface,-93.7504,36.3778,3.66e-05
2018-06-10 00:00:00,2018-06-10 00:00:00,PRATE,surface,-92.8129,36.3778,3.43e-05
