2014-06-23 00:00:00,2014-06-23 00:00:00,TMP,surface,-107.813,25.0393,302.98
2014-06-23 00:00:00,2014-06-23 00:00:00,TMP,surface,-106.875,25.0393,295.818
2014-06-23 00:00:00,2014-06-23 00:00:00,TMP,surface,-105.938,25.0393,292.183
2014-06-23 00:00:00,2014-06-23 00:00:00,TMP,surface,-105,25.0393,290.954
2014-06-23 00:00:00,2014-06-23 00:00:00,TMP,surface,-104.063,25.0393,295.517
2014-06-23 00:00:00,2014-06-23 00:00:00,TMP,surface,-103.125,25.0393,298.544
2014-06-23 00:00:00,2014-06-23 00:00:00,TMP,surface,-102.188,25.0393,297.197
2014-06-23 00:00:00,2014-06-23 00:00:00,TMP,surface,-101.25,25.0393,294.116
2014-06-23 00:00:00,2014-06-23 00:00:00,TMP,surface,-100.313,25.0393,294.295
2014-06-23 00:00:00,2014-06-23 00:00:00,TMP,surface,-99.3754,25.0393,297.76
2014-06-23 00:00:00,2014-06-23 00:00:00,TMP,surface,-98.4379,25.0393,300.89
2014-06-23 00:00:00,2014-06-23 00:00:00,TMP,surface,-97.5004,25.0393,301.482
2014-06-23 00:00:00,2014-06-23 00:00:00,TMP,surface,-96.5629,25.0393,301.658
2014-06-23 00:00:00,2014-06-23 00:00:00,TMP,surface,-95.6254,25.0393,301.888
2014-06-23 00:00:00,2014-06-23 00:00:00,TMP,surface,-94.6879,25.0393,302.08
2014-06-23 00:00:00,2014-06-23 00:00:00,TMP,surface,-93.7504,25.0393,302.192
2014-06-23 00:00:00,2014-06-23 00:00:00,TMP,surface,-92.8129,25.0393,302.221
2014-06-23 00:00:00,2014-06-23 00:00:00,TMP,surface,-107.813,25.9842,298.48
2014-06-23 00:00:00,2014-06-23 00:00:00,TMP,surface,-106.875,25.9842,292.804
2014-06-23 00:00:00,2014-06-23 00:00:00,TMP,surface,-105.938,25.9842,291.319
2014-06-23 00:00:00,2014-06-23 00:00:00,TMP,surface,-105,25.9842,293.802
2014-06-23 00:00:00,2014-06-23 00:00:00,TMP,surface,-104.063,25.9842,299.549
2014-06-23 00:00:00,2014-06-23 00:00:00,TMP,surface,-103.125,25.9842,300.516
2014-06-23 00:00:00,2014-06-23 00:00:00,TMP,surface,-102.188,25.9842,299.277
2014-06-23 00:00:00,2014-06-23 00:00:00,TMP,surface,-101.25,25.9842,297.796
2014-06-23 00:00:00,2014-06-23 00:00:00,TMP,surface,-100.313,25.9842,298.522
2014-06-23 00:00:00,2014-06-23 00:00:00,TMP,surface,-99.3754,25.9842,301.399
2014-06-23 00:00:00,2014-06-23 00:00:00,TMP,surface,-98.4379,25.9842,302.445
2014-06-23 00:00:00,2014-06-23 00:00:00,TMP,surface,-97.5004,25.9842,301.351
2014-06-23 00:00:00,2014-06-23 00:00:00,TMP,surface,-96.5629,25.9842,300.295
2014-06-23 00:00:00,2014-06-23 00:00:00,TMP,surface,-95.6254,25.9842,301.607
2014-06-23 00:00:00,2014-06-23 00:00:00,TMP,surface,-94.6879,25.9842,301.975
2014-06-23 00:00:00,2014-06-23 00:00:00,TMP,surface,-93.7504,25.9842,302.247
2014-06-23 00:00:00,2014-06-23 00:00:00,TMP,surface,-92.8129,25.9842,302.41
2014-06-23 00:00:00,2014-06-23 00:00:00,TMP,surface,-107.813,26.929,294.288
2014-06-23 00:00:00,2014-06-23 00:00:00,TMP,surface,-106.875,26.929,291.85
2014-06-23 00:00:00,2014-06-23 00:00:00,TMP,surface,-105.938,26.929,293.46
2014-06-23 00:00:00,2014-06-23 00:00:00,TMP,surface,-105,26.929,298.167
2014-06-23 00:00:00,2014-06-23 00:00:00,TMP,surface,-104.063,26.929,301.056
2014-06-23 00:00:00,2014-06-23 00:00:00,TMP,surface,-103.125,26.929,300.039
2014-06-23 00:00:00,2014-06-23 00:00:00,TMP,surface,-102.188,26.929,299.04
2014-06-23 00:00:00,2014-06-23 00:00:00,TMP,surface,-101.25,26.929,299.866
2014-06-23 00:00:00,2014-06-23 00:00:00,TMP,surface,-100.313,26.929,302.192
2014-06-23 00:00:00,2014-06-23 00:00:00,TMP,surface,-99.3754,26.929,303.52
2014-06-23 00:00:00,2014-06-23 00:00:00,TMP,surface,-98.4379,26.929,302.074
2014-06-23 00:00:00,2014-06-23 00:00:00,TMP,surface,-97.5004,26.929,299.975
2014-06-23 00:00:00,2014-06-23 00:00:00,TMP,surface,-96.5629,26.929,300.663
2014-06-23 00:00:00,2014-06-23 00:00:00,TMP,surface,-95.6254,26.929,301.799
2014-06-23 00:00:00,2014-06-23 00:00:00,TMP,surface,-94.6879,26.929,302.276
2014-06-23 00:00:00,2014-06-23 00:00:00,TMP,surface,-93.7504,26.929,302.458
2014-06-23 00:00:00,2014-06-23 00:00:00,TMP,surface,-92.8129,26.929,302.503
2014-06-23 00:00:00,2014-06-23 00:00:00,TMP,surface,-107.813,27.8739,292.823
2014-06-23 00:00:00,2014-06-23 00:00:00,TMP,surface,-106.875,27.8739,292.173
2014-06-23 00:00:00,2014-06-23 00:00:00,TMP,surface,-105.938,27.8739,296.352
2014-06-23 00:00:00,2014-06-23 00:00:00,TMP,surface,-105,27.8739,300.666
2014-06-23 00:00:00,2014-06-23 00:00:00,TMP,surface,-104.063,27.8739,300.701
2014-06-23 00:00:00,2014-06-23 00:00:00,TMP,surface,-103.125,27.8739,298.628
2014-06-23 00:00:00,2014-06-23 00:00:00,TMP,surface,-102.188,27.8739,298.18
2014-06-23 00:00:00,2014-06-23 00:00:00,TMP,surface,-101.25,27.8739,300.788
2014-06-23 00:00:00,2014-06-23 00:00:00,TMP,surface,-100.313,27.8739,303.072
2014-06-23 00:00:00,2014-06-23 00:00:00,TMP,surface,-99.3754,27.8739,303.082
2014-06-23 00:00:00,2014-06-23 00:00:00,TMP,surface,-98.4379,27.8739,301.648
2014-06-23 00:00:00,2014-06-23 00:00:00,TMP,surface,-97.5004,27.8739,301.184
2014-06-23 00:00:00,2014-06-23 00:00:00,TMP,surface,-96.5629,27.8739,301.76
2014-06-23 00:00:00,2014-06-23 00:00:00,TMP,surface,-95.6254,27.8739,302.257
2014-06-23 00:00:00,2014-06-23 00:00:00,TMP,surface,-94.6879,27.8739,302.663
2014-06-23 00:00:00,2014-06-23 00:00:00,TMP,surface,-93.7504,27.8739,302.775
2014-06-23 00:00:00,2014-06-23 00:00:00,TMP,surface,-92.8129,27.8739,302.753
2014-06-23 00:00:00,2014-06-23 00:00:00,TMP,surface,-107.813,28.8188,292.631
2014-06-23 00:00:00,2014-06-23 00:00:00,TMP,surface,-106.875,28.8188,294.068
2014-06-23 00:00:00,2014-06-23 00:00:00,TMP,surface,-105.938,28.8188,298.608
2014-06-23 00:00:00,2014-06-23 00:00:00,TMP,surface,-105,28.8188,301.997
2014-06-23 00:00:00,2014-06-23 00:00:00,TMP,surface,-104.063,28.8188,300.407
2014-06-23 00:00:00,2014-06-23 00:00:00,TMP,surface,-103.125,28.8188,298.896
2014-06-23 00:00:00,2014-06-23 00:00:00,TMP,surface,-102.188,28.8188,298.663
2014-06-23 00:00:00,2014-06-23 00:00:00,TMP,surface,-101.25,28.8188,300.871
2014-06-23 00:00:00,2014-06-23 00:00:00,TMP,surface,-100.313,28.8188,301.94
2014-06-23 00:00:00,2014-06-23 00:00:00,TMP,surface,-99.3754,28.8188,301.341
2014-06-23 00:00:00,2014-06-23 00:00:00,TMP,surface,-98.4379,28.8188,300.384
2014-06-23 00:00:00,2014-06-23 00:00:00,TMP,surface,-97.5004,28.8188,299.879
2014-06-23 00:00:00,2014-06-23 00:00:00,TMP,surface,-96.5629,28.8188,300.08
2014-06-23 00:00:00,2014-06-23 00:00:00,TMP,surface,-95.6254,28.8188,301.111
2014-06-23 00:00:00,2014-06-23 00:00:00,TMP,surface,-94.6879,28.8188,302.324
2014-06-23 00:00:00,2014-06-23 00:00:00,TMP,surface,-93.7504,28.8188,302.746
2014-06-23 00:00:00,2014-06-23 00:00:00,TMP,surface,-92.8129,28.8188,302.951
2014-06-23 00:00:00,2014-06-23 00:00:00,TMP,surface,-107.813,29.7637,295.22
2014-06-23 00:00:00,2014-06-23 00:00:00,TMP,surface,-106.875,29.7637,297.271
2014-06-23 00:00:00,2014-06-23 00:00:00,TMP,surface,-105.938,29.7637,300.423
2014-06-23 00:00:00,2014-06-23 00:00:00,TMP,surface,-105,29.7637,301.604
2014-06-23 00:00:00,2014-06-23 00:00:00,TMP,surface,-104.063,29.7637,301.076
2014-06-23 00:00:00,2014-06-23 00:00:00,TMP,surface,-103.125,29.7637,300.464
2014-06-23 00:00:00,2014-06-23 00:00:00,TMP,surface,-102.188,29.7637,300.922
2014-06-23 00:00:00,2014-06-23 00:00:00,TMP,surface,-101.25,29.7637,301.277
2014-06-23 00:00:00,2014-06-23 00:00:00,TMP,surface,-100.313,29.7637,300.586
2014-06-23 00:00:00,2014-06-23 00:00:00,TMP,surface,-99.3754,29.7637,299.658
2014-06-23 00:00:00,2014-06-23 00:00:00,TMP,surface,-98.4379,29.7637,299.021
2014-06-23 00:00:00,2014-06-23 00:00:00,TMP,surface,-97.5004,29.7637,298.992
2014-06-23 00:00:00,2014-06-23 00:00:00,TMP,surface,-96.5629,29.7637,299.303
2014-06-23 00:00:00,2014-06-23 00:00:00,TMP,surface,-95.6254,29.7637,299.652
2014-06-23 00:00:00,2014-06-23 00:00:00,TMP,surface,-94.6879,29.7637,300.759
2014-06-23 00:00:00,2014-06-23 00:00:00,TMP,surface,-93.7504,29.7637,302
2014-06-23 00:00:00,2014-06-23 00:00:00,TMP,surface,-92.8129,29.7637,300.541
2014-06-23 00:00:00,2014-06-23 00:00:00,TMP,surface,-107.813,30.7085,299.744
2014-06-23 00:00:00,2014-06-23 00:00:00,TMP,surface,-106.875,30.7085,301.239
2014-06-23 00:00:00,2014-06-23 00:00:00,TMP,surface,-105.938,30.7085,301.6
2014-06-23 00:00:00,2014-06-23 00:00:00,TMP,surface,-105,30.7085,301.674
2014-06-23 00:00:00,2014-06-23 00:00:00,TMP,surface,-104.063,30.7085,300.989
2014-06-23 00:00:00,2014-06-23 00:00:00,TMP,surface,-103.125,30.7085,301.546
2014-06-23 00:00:00,2014-06-23 00:00:00,TMP,surface,-102.188,30.7085,301.815
2014-06-23 00:00:00,2014-06-23 00:00:00,TMP,surface,-101.25,30.7085,301.127
2014-06-23 00:00:00,2014-06-23 00:00:00,TMP,surface,-100.313,30.7085,300.266
2014-06-23 00:00:00,2014-06-23 00:00:00,TMP,surface,-99.3754,30.7085,299.466
2014-06-23 00:00:00,2014-06-23 00:00:00,TMP,surface,-98.4379,30.7085,299.201
2014-06-23 00:00:00,2014-06-23 00:00:00,TMP,surface,-97.5004,30.7085,299.287
2014-06-23 00:00:00,2014-06-23 00:00:00,TMP,surface,-96.5629,30.7085,299.732
2014-06-23 00:00:00,2014-06-23 00:00:00,TMP,surface,-95.6254,30.7085,300.218
2014-06-23 00:00:00,2014-06-23 00:00:00,TMP,surface,-94.6879,30.7085,300.212
2014-06-23 00:00:00,2014-06-23 00:00:00,TMP,surface,-93.7504,30.7085,300.285
2014-06-23 00:00:00,2014-06-23 00:00:00,TMP,surface,-92.8129,30.7085,300.048
2014-06-23 00:00:00,2014-06-23 00:00:00,TMP,surface,-107.813,31.6534,301.613
2014-06-23 00:00:00,2014-06-23 00:00:00,TMP,surface,-106.875,31.6534,302.314
2014-06-23 00:00:00,2014-06-23 00:00:00,TMP,surface,-105.938,31.6534,301.466
2014-06-23 00:00:00,2014-06-23 00:00:00,TMP,surface,-105,31.6534,301.444
2014-06-23 00:00:00,2014-06-23 00:00:00,TMP,surface,-104.063,31.6534,301.677
2014-06-23 00:00:00,2014-06-23 00:00:00,TMP,surface,-103.125,31.6534,302.036
2014-06-23 00:00:00,2014-06-23 00:00:00,TMP,surface,-102.188,31.6534,301.77
2014-06-23 00:00:00,2014-06-23 00:00:00,TMP,surface,-101.25,31.6534,300.919
2014-06-23 00:00:00,2014-06-23 00:00:00,TMP,surface,-100.313,31.6534,300.372
2014-06-23 00:00:00,2014-06-23 00:00:00,TMP,surface,-99.3754,31.6534,300.157
2014-06-23 00:00:00,2014-06-23 00:00:00,TMP,surface,-98.4379,31.6534,300.071
2014-06-23 00:00:00,2014-06-23 00:00:00,TMP,surface,-97.5004,31.6534,300.084
2014-06-23 00:00:00,2014-06-23 00:00:00,TMP,surface,-96.5629,31.6534,300.34
2014-06-23 00:00:00,2014-06-23 00:00:00,TMP,surface,-95.6254,31.6534,300.535
2014-06-23 00:00:00,2014-06-23 00:00:00,TMP,surface,-94.6879,31.6534,300.327
2014-06-23 00:00:00,2014-06-23 00:00:00,TMP,surface,-93.7504,31.6534,300.186
2014-06-23 00:00:00,2014-06-23 00:00:00,TMP,surface,-92.8129,31.6534,300.266
2014-06-23 00:00:00,2014-06-23 00:00:00,TMP,surface,-107.813,32.5983,298.925
2014-06-23 00:00:00,2014-06-23 00:00:00,TMP,surface,-106.875,32.5983,299.517
2014-06-23 00:00:00,2014-06-23 00:00:00,TMP,surface,-105.938,32.5983,299.744
2014-06-23 00:00:00,2014-06-23 00:00:00,TMP,surface,-105,32.5983,300.055
2014-06-23 00:00:00,2014-06-23 00:00:00,TMP,surface,-104.063,32.5983,300.944
2014-06-23 00:00:00,2014-06-23 00:00:00,TMP,surface,-103.125,32.5983,301.434
2014-06-23 00:00:00,2014-06-23 00:00:00,TMP,surface,-102.188,32.5983,300.954
2014-06-23 00:00:00,2014-06-23 00:00:00,TMP,surface,-101.25,32.5983,300.759
2014-06-23 00:00:00,2014-06-23 00:00:00,TMP,surface,-100.313,32.5983,301.197
2014-06-23 00:00:00,2014-06-23 00:00:00,TMP,surface,-99.3754,32.5983,301.405
2014-06-23 00:00:00,2014-06-23 00:00:00,TMP,surface,-98.4379,32.5983,301.188
2014-06-23 00:00:00,2014-06-23 00:00:00,TMP,surface,-97.5004,32.5983,300.877
2014-06-23 00:00:00,2014-06-23 00:00:00,TMP,surface,-96.5629,32.5983,300.829
2014-06-23 00:00:00,2014-06-23 00:00:00,TMP,surface,-95.6254,32.5983,300.951
2014-06-23 00:00:00,2014-06-23 00:00:00,TMP,surface,-94.6879,32.5983,300.74
2014-06-23 00:00:00,2014-06-23 00:00:00,TMP,surface,-93.7504,32.5983,300.311
2014-06-23 00:00:00,2014-06-23 00:00:00,TMP,surface,-92.8129,32.5983,300.528
2014-06-23 00:00:00,2014-06-23 00:00:00,TMP,surface,-107.813,33.5432,294.66
2014-06-23 00:00:00,2014-06-23 00:00:00,TMP,surface,-106.875,33.5432,295.882
2014-06-23 00:00:00,2014-06-23 00:00:00,TMP,surface,-105.938,33.5432,296.784
2014-06-23 00:00:00,2014-06-23 00:00:00,TMP,surface,-105,33.5432,298.301
2014-06-23 00:00:00,2014-06-23 00:00:00,TMP,surface,-104.063,33.5432,299.93
2014-06-23 00:00:00,2014-06-23 00:00:00,TMP,surface,-103.125,33.5432,300.263
2014-06-23 00:00:00,2014-06-23 00:00:00,TMP,surface,-102.188,33.5432,299.872
2014-06-23 00:00:00,2014-06-23 00:00:00,TMP,surface,-101.25,33.5432,300.093
2014-06-23 00:00:00,2014-06-23 00:00:00,TMP,surface,-100.313,33.5432,301.424
2014-06-23 00:00:00,2014-06-23 00:00:00,TMP,surface,-99.3754,33.5432,302.148
2014-06-23 00:00:00,2014-06-23 00:00:00,TMP,surface,-98.4379,33.5432,301.892
2014-06-23 00:00:00,2014-06-23 00:00:00,TMP,surface,-97.5004,33.5432,301.149
2014-06-23 00:00:00,2014-06-23 00:00:00,TMP,surface,-96.5629,33.5432,300.477
2014-06-23 00:00:00,2014-06-23 00:00:00,TMP,surface,-95.6254,33.5432,300.202
2014-06-23 00:00:00,2014-06-23 00:00:00,TMP,surface,-94.6879,33.5432,300.08
2014-06-23 00:00:00,2014-06-23 00:00:00,TMP,surface,-93.7504,33.5432,299.831
2014-06-23 00:00:00,2014-06-23 00:00:00,TMP,surface,-92.8129,33.5432,299.872
2014-06-23 00:00:00,2014-06-23 00:00:00,TMP,surface,-107.813,34.4881,293.556
2014-06-23 00:00:00,2014-06-23 00:00:00,TMP,surface,-106.875,34.4881,295.162
2014-06-23 00:00:00,2014-06-23 00:00:00,TMP,surface,-105.938,34.4881,295.972
2014-06-23 00:00:00,2014-06-23 00:00:00,TMP,surface,-105,34.4881,297.412
2014-06-23 00:00:00,2014-06-23 00:00:00,TMP,surface,-104.063,34.4881,298.567
2014-06-23 00:00:00,2014-06-23 00:00:00,TMP,surface,-103.125,34.4881,298.797
2014-06-23 00:00:00,2014-06-23 00:00:00,TMP,surface,-102.188,34.4881,299.252
2014-06-23 00:00:00,2014-06-23 00:00:00,TMP,surface,-101.25,34.4881,300.186
2014-06-23 00:00:00,2014-06-23 00:00:00,TMP,surface,-100.313,34.4881,301.258
2014-06-23 00:00:00,2014-06-23 00:00:00,TMP,surface,-99.3754,34.4881,301.805
2014-06-23 00:00:00,2014-06-23 00:00:00,TMP,surface,-98.4379,34.4881,301.434
2014-06-23 00:00:00,2014-06-23 00:00:00,TMP,surface,-97.5004,34.4881,300.605
2014-06-23 00:00:00,2014-06-23 00:00:00,TMP,surface,-96.5629,34.4881,300.324
2014-06-23 00:00:00,2014-06-23 00:00:00,TMP,surface,-95.6254,34.4881,300.327
2014-06-23 00:00:00,2014-06-23 00:00:00,TMP,surface,-94.6879,34.4881,299.668
2014-06-23 00:00:00,2014-06-23 00:00:00,TMP,surface,-93.7504,34.4881,298.986
2014-06-23 00:00:00,2014-06-23 00:00:00,TMP,surface,-92.8129,34.4881,298.932
2014-06-23 00:00:00,2014-06-23 00:00:00,TMP,surface,-107.813,35.4329,294.618
2014-06-23 00:00:00,2014-06-23 00:00:00,TMP,surface,-106.875,35.4329,294.944
2014-06-23 00:00:00,2014-06-23 00:00:00,TMP,surface,-105.938,35.4329,294.493
2014-06-23 00:00:00,2014-06-23 00:00:00,TMP,surface,-105,35.4329,294.468
2014-06-23 00:00:00,2014-06-23 00:00:00,TMP,surface,-104.063,35.4329,297.136
2014-06-23 00:00:00,2014-06-23 00:00:00,TMP,surface,-103.125,35.4329,298.727
2014-06-23 00:00:00,2014-06-23 00:00:00,TMP,surface,-102.188,35.4329,299.639
2014-06-23 00:00:00,2014-06-23 00:00:00,TMP,surface,-101.25,35.4329,300.384
2014-06-23 00:00:00,2014-06-23 00:00:00,TMP,surface,-100.313,35.4329,300.653
2014-06-23 00:00:00,2014-06-23 00:00:00,TMP,surface,-99.3754,35.4329,300.893
2014-06-23 00:00:00,2014-06-23 00:00:00,TMP,surface,-98.4379,35.4329,300.647
2014-06-23 00:00:00,2014-06-23 00:00:00,TMP,surface,-97.5004,35.4329,300.048
2014-06-23 00:00:00,2014-06-23 00:00:00,TMP,surface,-96.5629,35.4329,299.578
2014-06-23 00:00:00,2014-06-23 00:00:00,TMP,surface,-95.6254,35.4329,299.45
2014-06-23 00:00:00,2014-06-23 00:00:00,TMP,surface,-94.6879,35.4329,299.357
2014-06-23 00:00:00,2014-06-23 00:00:00,TMP,surface,-93.7504,35.4329,298.692
2014-06-23 00:00:00,2014-06-23 00:00:00,TMP,surface,-92.8129,35.4329,298.202
2014-06-23 00:00:00,2014-06-23 00:00:00,TMP,surface,-107.813,36.3778,294.679
2014-06-23 00:00:00,2014-06-23 00:00:00,TMP,surface,-106.875,36.3778,291.834
2014-06-23 00:00:00,2014-06-23 00:00:00,TMP,surface,-105.938,36.3778,291.578
2014-06-23 00:00:00,2014-06-23 00:00:00,TMP,surface,-105,36.3778,291.792
2014-06-23 00:00:00,2014-06-23 00:00:00,TMP,surface,-104.063,36.3778,294.592
2014-06-23 00:00:00,2014-06-23 00:00:00,TMP,surface,-103.125,36.3778,296.525
2014-06-23 00:00:00,2014-06-23 00:00:00,TMP,surface,-102.188,36.3778,298.17
2014-06-23 00:00:00,2014-06-23 00:00:00,TMP,surface,-101.25,36.3778,299.178
2014-06-23 00:00:00,2014-06-23 00:00:00,TMP,surface,-100.313,36.3778,299.908
2014-06-23 00:00:00,2014-06-23 00:00:00,TMP,surface,-99.3754,36.3778,300.192
2014-06-23 00:00:00,2014-06-23 00:00:00,TMP,surface,-98.4379,36.3778,300.311
2014-06-23 00:00:00,2014-06-23 00:00:00,TMP,surface,-97.5004,36.3778,300.077
2014-06-23 00:00:00,2014-06-23 00:00:00,TMP,surface,-96.5629,36.3778,299.616
2014-06-23 00:00:00,2014-06-23 00:00:00,TMP,surface,-95.6254,36.3778,299.424
2014-06-23 00:00:00,2014-06-23 00:00:00,TMP,surface,-94.6879,36.3778,299.175
2014-06-23 00:00:00,2014-06-23 00:00:00,TMP,surface,-93.7504,36.3778,298.448
2014-06-23 00:00:00,2014-06-23 00:00:00,TMP,surface,-92.8129,36.3778,298.004
2014-06-23 00:00:00,2014-06-23 00:00:00,PRATE,surface,-107.813,25.0393,2.24e-05
2014-06-23 00:00:00,2014-06-23 00:00:00,PRATE,surface,-106.875,25.0393,0.00016
2014-06-23 00:00:00,2014-06-23 00:00:00,PRATE,surface,-105.938,25.0393,0.0001619
2014-06-23 00:00:00,2014-06-23 00:00:00,PRATE,surface,-105,25.0393,9.6e-05
2014-06-23 00:00:00,2014-06-23 00:00:00,PRATE,surface,-104.063,25.0393,1.8e-05
2014-06-23 00:00:00,2014-06-23 00:00:00,PRATE,surface,-103.125,25.0393,2.8e-06
2014-06-23 00:00:00,2014-06-23 00:00:00,PRATE,surface,-102.188,25.0393,1.77e-05
2014-06-23 00:00:00,2014-06-23 00:00:00,PRATE,surface,-101.25,25.0393,3.24e-05
2014-06-23 00:00:00,2014-06-23 00:00:00,PRATE,surface,-100.313,25.0393,4.25e-05
2014-06-23 00:00:00,2014-06-23 00:00:00,PRATE,surface,-99.3754,25.0393,3.44e-05
2014-06-23 00:00:00,2014-06-23 00:00:00,PRATE,surface,-98.4379,25.0393,3.16e-05
2014-06-23 00:00:00,2014-06-23 00:00:00,PRATE,surface,-97.5004,25.0393,4.86e-05
2014-06-23 00:00:00,2014-06-23 00:00:00,PRATE,surface,-96.5629,25.0393,3.18e-05
2014-06-23 00:00:00,2014-06-23 00:00:00,PRATE,surface,-95.6254,25.0393,1.41e-05
2014-06-23 00:00:00,2014-06-23 00:00:00,PRATE,surface,-94.6879,25.0393,1.87e-05
2014-06-23 00:00:00,2014-06-23 00:00:00,PRATE,surface,-93.7504,25.0393,3.62e-05
2014-06-23 00:00:00,2014-06-23 00:00:00,PRATE,surface,-92.8129,25.0393,2.05e-05
2014-06-23 00:00:00,2014-06-23 00:00:00,PRATE,surface,-107.813,25.9842,7.34e-05
2014-06-23 00:00:00,2014-06-23 00:00:00,PRATE,surface,-106.875,25.9842,0.0001563
2014-06-23 00:00:00,2014-06-23 00:00:00,PRATE,surface,-105.938,25.9842,0.000124
2014-06-23 00:00:00,2014-06-23 00:00:00,PRATE,surface,-105,25.9842,3.68e-05
2014-06-23 00:00:00,2014-06-23 00:00:00,PRATE,surface,-104.063,25.9842,9e-07
2014-06-23 00:00:00,2014-06-23 00:00:00,PRATE,surface,-103.125,25.9842,5.4e-06
2014-06-23 00:00:00,2014-06-23 00:00:00,PRATE,surface,-102.188,25.9842,7.1e-06
2014-06-23 00:00:00,2014-06-23 00:00:00,PRATE,surface,-101.25,25.9842,1.51e-05
2014-06-23 00:00:00,2014-06-23 00:00:00,PRATE,surface,-100.313,25.9842,1.92e-05
2014-06-23 00:00:00,2014-06-23 00:00:00,PRATE,surface,-99.3754,25.9842,1.48e-05
2014-06-23 00:00:00,2014-06-23 00:00:00,PRATE,surface,-98.4379,25.9842,2.25e-05
2014-06-23 00:00:00,2014-06-23 00:00:00,PRATE,surface,-97.5004,25.9842,5.85e-05
2014-06-23 00:00:00,2014-06-23 00:00:00,PRATE,surface,-96.5629,25.9842,3.43e-05
2014-06-23 00:00:00,2014-06-23 00:00:00,PRATE,surface,-95.6254,25.9842,2.24e-05
2014-06-23 00:00:00,2014-06-23 00:00:00,PRATE,surface,-94.6879,25.9842,1.71e-05
2014-06-23 00:00:00,2014-06-23 00:00:00,PRATE,surface,-93.7504,25.9842,1.93e-05
2014-06-23 00:00:00,2014-06-23 00:00:00,PRATE,surface,-92.8129,25.9842,2.49e-05
2014-06-23 00:00:00,2014-06-23 00:00:00,PRATE,surface,-107.813,26.929,0.0001411
2014-06-23 00:00:00,2014-06-23 00:00:00,PRATE,surface,-106.875,26.929,9.32e-05
2014-06-23 00:00:00,2014-06-23 00:00:00,PRATE,surface,-105.938,26.929,5.26e-05
2014-06-23 00:00:00,2014-06-23 00:00:00,PRATE,surface,-105,26.929,1.38e-05
2014-06-23 00:00:00,2014-06-23 00:00:00,PRATE,surface,-104.063,26.929,7.3e-06
2014-06-23 00:00:00,2014-06-23 00:00:00,PRATE,surface,-103.125,26.929,9.2e-06
2014-06-23 00:00:00,2014-06-23 00:00:00,PRATE,surface,-102.188,26.929,5.2e-06
2014-06-23 00:00:00,2014-06-23 00:00:00,PRATE,surface,-101.25,26.929,1.04e-05
2014-06-23 00:00:00,2014-06-23 00:00:00,PRATE,surface,-100.313,26.929,5.6e-06
2014-06-23 00:00:00,2014-06-23 00:00:00,PRATE,surface,-99.3754,26.929,8.3e-06
2014-06-23 00:00:00,2014-06-23 00:00:00,PRATE,surface,-98.4379,26.929,3.23e-05
2014-06-23 00:00:00,2014-06-23 00:00:00,PRATE,surface,-97.5004,26.929,3.26e-05
2014-06-23 00:00:00,2014-06-23 00:00:00,PRATE,surface,-96.5629,26.929,1.81e-05
2014-06-23 00:00:00,2014-06-23 00:00:00,PRATE,surface,-95.6254,26.929,1.1e-05
2014-06-23 00:00:00,2014-06-23 00:00:00,PRATE,surface,-94.6879,26.929,1.17e-05
2014-06-23 00:00:00,2014-06-23 00:00:00,PRATE,surface,-93.7504,26.929,1.74e-05
2014-06-23 00:00:00,2014-06-23 00:00:00,PRATE,surface,-92.8129,26.929,1.6e-05
2014-06-23 00:00:00,2014-06-23 00:00:00,PRATE,surface,-107.813,27.8739,0.0001474
2014-06-23 00:00:00,2014-06-23 00:00:00,PRATE,surface,-106.875,27.8739,6.57e-05
2014-06-23 00:00:00,2014-06-23 00:00:00,PRATE,surface,-105.938,27.8739,1.56e-05
2014-06-23 00:00:00,2014-06-23 00:00:00,PRATE,surface,-105,27.8739,6.1e-06
2014-06-23 00:00:00,2014-06-23 00:00:00,PRATE,surface,-104.063,27.8739,1.37e-05
2014-06-23 00:00:00,2014-06-23 00:00:00,PRATE,surface,-103.125,27.8739,1.9e-05
2014-06-23 00:00:00,2014-06-23 00:00:00,PRATE,surface,-102.188,27.8739,9.9e-06
2014-06-23 00:00:00,2014-06-23 00:00:00,PRATE,surface,-101.25,27.8739,3e-06
2014-06-23 00:00:00,2014-06-23 00:00:00,PRATE,surface,-100.313,27.8739,4.4e-06
2014-06-23 00:00:00,2014-06-23 00:00:00,PRATE,surface,-99.3754,27.8739,1.29e-05
2014-06-23 00:00:00,2014-06-23 00:00:00,PRATE,surface,-98.4379,27.8739,2.56e-05
2014-06-23 00:00:00,2014-06-23 00:00:00,PRATE,surface,-97.5004,27.8739,2.56e-05
2014-06-23 00:00:00,2014-06-23 00:00:00,PRATE,surface,-96.5629,27.8739,1.4e-05
2014-06-23 00:00:00,2014-06-23 00:00:00,PRATE,surface,-95.6254,27.8739,1.17e-05
2014-06-23 00:00:00,2014-06-23 00:00:00,PRATE,surface,-94.6879,27.8739,2.15e-05
2014-06-23 00:00:00,2014-06-23 00:00:00,PRATE,surface,-93.7504,27.8739,2.92e-05
2014-06-23 00:00:00,2014-06-23 00:00:00,PRATE,surface,-92.8129,27.8739,3.2e-05
2014-06-23 00:00:00,2014-06-23 00:00:00,PRATE,surface,-107.813,28.8188,0.0001351
2014-06-23 00:00:00,2014-06-23 00:00:00,PRATE,surface,-106.875,28.8188,5.87e-05
2014-06-23 00:00:00,2014-06-23 00:00:00,PRATE,surface,-105.938,28.8188,1.37e-05
2014-06-23 00:00:00,2014-06-23 00:00:00,PRATE,surface,-105,28.8188,5.4e-06
2014-06-23 00:00:00,2014-06-23 00:00:00,PRATE,surface,-104.063,28.8188,1.11e-05
2014-06-23 00:00:00,2014-06-23 00:00:00,PRATE,surface,-103.125,28.8188,9.6e-06
2014-06-23 00:00:00,2014-06-23 00:00:00,PRATE,surface,-102.188,28.8188,2.2e-06
2014-06-23 00:00:00,2014-06-23 00:00:00,PRATE,surface,-101.25,28.8188,3e-07
2014-06-23 00:00:00,2014-06-23 00:00:00,PRATE,surface,-100.313,28.8188,4.4e-06
2014-06-23 00:00:00,2014-06-23 00:00:00,PRATE,surface,-99.3754,28.8188,1.58e-05
2014-06-23 00:00:00,2014-06-23 00:00:00,PRATE,surface,-98.4379,28.8188,2.4e-05
2014-06-23 00:00:00,2014-06-23 00:00:00,PRATE,surface,-97.5004,28.8188,2.41e-05
2014-06-23 00:00:00,2014-06-23 00:00:00,PRATE,surface,-96.5629,28.8188,2.27e-05
2014-06-23 00:00:00,2014-06-23 00:00:00,PRATE,surface,-95.6254,28.8188,2.26e-05
2014-06-23 00:00:00,2014-06-23 00:00:00,PRATE,surface,-94.6879,28.8188,2.57e-05
2014-06-23 00:00:00,2014-06-23 00:00:00,PRATE,surface,-93.7504,28.8188,3.59e-05
2014-06-23 00:00:00,2014-06-23 00:00:00,PRATE,surface,-92.8129,28.8188,3.83e-05
2014-06-23 00:00:00,2014-06-23 00:00:00,PRATE,surface,-107.813,29.7637,7.01e-05
2014-06-23 00:00:00,2014-06-23 00:00:00,PRATE,surface,-106.875,29.7637,3.43e-05
2014-06-23 00:00:00,2014-06-23 00:00:00,PRATE,surface,-105.938,29.7637,1.35e-05
2014-06-23 00:00:00,2014-06-23 00:00:00,PRATE,surface,-105,29.7637,9.4e-06
2014-06-23 00:00:00,2014-06-23 00:00:00,PRATE,surface,-104.063,29.7637,3.4e-06
2014-06-23 00:00:00,2014-06-23 00:00:00,PRATE,surface,-103.125,29.7637,8e-07
2014-06-23 00:00:00,2014-06-23 00:00:00,PRATE,surface,-102.188,29.7637,1e-07
2014-06-23 00:00:00,2014-06-23 00:00:00,PRATE,surface,-101.25,29.7637,4e-07
2014-06-23 00:00:00,2014-06-23 00:00:00,PRATE,surface,-100.313,29.7637,6e-06
2014-06-23 00:00:00,2014-06-23 00:00:00,PRATE,surface,-99.3754,29.7637,1.24e-05
2014-06-23 00:00:00,2014-06-23 00:00:00,PRATE,surface,-98.4379,29.7637,1.63e-05
2014-06-23 00:00:00,2014-06-23 00:00:00,PRATE,surface,-97.5004,29.7637,2.17e-05
2014-06-23 00:00:00,2014-06-23 00:00:00,PRATE,surface,-96.5629,29.7637,2.98e-05
2014-06-23 00:00:00,2014-06-23 00:00:00,PRATE,surface,-95.6254,29.7637,3.74e-05
2014-06-23 00:00:00,2014-06-23 00:00:00,PRATE,surface,-94.6879,29.7637,3.65e-05
2014-06-23 00:00:00,2014-06-23 00:00:00,PRATE,surface,-93.7504,29.7637,3.26e-05
2014-06-23 00:00:00,2014-06-23 00:00:00,PRATE,surface,-92.8129,29.7637,5.85e-05
2014-06-23 00:00:00,2014-06-23 00:00:00,PRATE,surface,-107.813,30.7085,2.42e-05
2014-06-23 00:00:00,2014-06-23 00:00:00,PRATE,surface,-106.875,30.7085,1.63e-05
2014-06-23 00:00:00,2014-06-23 00:00:00,PRATE,surface,-105.938,30.7085,1.19e-05
2014-06-23 00:00:00,2014-06-23 00:00:00,PRATE,surface,-105,30.7085,5e-06
2014-06-23 00:00:00,2014-06-23 00:00:00,PRATE,surface,-104.063,30.7085,1.2e-06
2014-06-23 00:00:00,2014-06-23 00:00:00,PRATE,surface,-103.125,30.7085,1e-07
2014-06-23 00:00:00,2014-06-23 00:00:00,PRATE,surface,-102.188,30.7085,0
2014-06-23 00:00:00,2014-06-23 00:00:00,PRATE,surface,-101.25,30.7085,3e-06
2014-06-23 00:00:00,2014-06-23 00:00:00,PRATE,surface,-100.313,30.7085,7.4e-06
2014-06-23 00:00:00,2014-06-23 00:00:00,PRATE,surface,-99.3754,30.7085,1.18e-05
2014-06-23 00:00:00,2014-06-23 00:00:00,PRATE,surface,-98.4379,30.7085,1.24e-05
2014-06-23 00:00:00,2014-06-23 00:00:00,PRATE,surface,-97.5004,30.7085,1.31e-05
2014-06-23 00:00:00,2014-06-23 00:00:00,PRATE,surface,-96.5629,30.7085,1.8e-05
2014-06-23 00:00:00,2014-06-23 00:00:00,PRATE,surface,-95.6254,30.7085,2.88e-05
2014-06-23 00:00:00,2014-06-23 00:00:00,PRATE,surface,-94.6879,30.7085,3.83e-05
2014-06-23 00:00:00,2014-06-23 00:00:00,PRATE,surface,-93.7504,30.7085,3.6e-05
2014-06-23 00:00:00,2014-06-23 00:00:00,PRATE,surface,-92.8129,30.7085,4.2e-05
2014-06-23 00:00:00,2014-06-23 00:00:00,PRATE,surface,-107.813,31.6534,1.69e-05
2014-06-23 00:00:00,2014-06-23 00:00:00,PRATE,surface,-106.875,31.6534,1.5e-05
2014-06-23 00:00:00,2014-06-23 00:00:00,PRATE,surface,-105.938,31.6534,1.17e-05
2014-06-23 00:00:00,2014-06-23 00:00:00,PRATE,surface,-105,31.6534,3.4e-06
2014-06-23 00:00:00,2014-06-23 00:00:00,PRATE,surface,-104.063,31.6534,6e-07
2014-06-23 00:00:00,2014-06-23 00:00:00,PRATE,surface,-103.125,31.6534,5e-07
2014-06-23 00:00:00,2014-06-23 00:00:00,PRATE,surface,-102.188,31.6534,4.1e-06
2014-06-23 00:00:00,2014-06-23 00:00:00,PRATE,surface,-101.25,31.6534,1.2e-05
2014-06-23 00:00:00,2014-06-23 00:00:00,PRATE,surface,-100.313,31.6534,2.17e-05
2014-06-23 00:00:00,2014-06-23 00:00:00,PRATE,surface,-99.3754,31.6534,2.01e-05
2014-06-23 00:00:00,2014-06-23 00:00:00,PRATE,surface,-98.4379,31.6534,1.69e-05
2014-06-23 00:00:00,2014-06-23 00:00:00,PRATE,surface,-97.5004,31.6534,1.52e-05
2014-06-23 00:00:00,2014-06-23 00:00:00,PRATE,surface,-96.5629,31.6534,1.58e-05
2014-06-23 00:00:00,2014-06-23 00:00:00,PRATE,surface,-95.6254,31.6534,1.96e-05
2014-06-23 00:00:00,2014-06-23 00:00:00,PRATE,surface,-94.6879,31.6534,2.16e-05
2014-06-23 00:00:00,2014-06-23 00:00:00,PRATE,surface,-93.7504,31.6534,2.3e-05
2014-06-23 00:00:00,2014-06-23 00:00:00,PRATE,surface,-92.8129,31.6534,2.61e-05
2014-06-23 00:00:00,2014-06-23 00:00:00,PRATE,surface,-107.813,32.5983,2.45e-05
2014-06-23 00:00:00,2014-06-23 00:00:00,PRATE,surface,-106.875,32.5983,2.78e-05
2014-06-23 00:00:00,2014-06-23 00:00:00,PRATE,surface,-105.938,32.5983,2.18e-05
2014-06-23 00:00:00,2014-06-23 00:00:00,PRATE,surface,-105,32.5983,1.22e-05
2014-06-23 00:00:00,2014-06-23 00:00:00,PRATE,surface,-104.063,32.5983,5.5e-06
2014-06-23 00:00:00,2014-06-23 00:00:00,PRATE,surface,-103.125,32.5983,4.4e-06
2014-06-23 00:00:00,2014-06-23 00:00:00,PRATE,surface,-102.188,32.5983,1.2e-05
2014-06-23 00:00:00,2014-06-23 00:00:00,PRATE,surface,-101.25,32.5983,2.1e-05
2014-06-23 00:00:00,2014-06-23 00:00:00,PRATE,surface,-100.313,32.5983,2.3e-05
2014-06-23 00:00:00,2014-06-23 00:00:00,PRATE,surface,-99.3754,32.5983,2.07e-05
2014-06-23 00:00:00,2014-06-23 00:00:00,PRATE,surface,-98.4379,32.5983,2.09e-05
2014-06-23 00:00:00,2014-06-23 00:00:00,PRATE,surface,-97.5004,32.5983,1.88e-05
2014-06-23 00:00:00,2014-06-23 00:00:00,PRATE,surface,-96.5629,32.5983,1.29e-05
2014-06-23 00:00:00,2014-06-23 00:00:00,PRATE,surface,-95.6254,32.5983,1.08e-05
2014-06-23 00:00:00,2014-06-23 00:00:00,PRATE,surface,-94.6879,32.5983,1.44e-05
2014-06-23 00:00:00,2014-06-23 00:00:00,PRATE,surface,-93.7504,32.5983,1.74e-05
2014-06-23 00:00:00,2014-06-23 00:00:00,PRATE,surface,-92.8129,32.5983,1.57e-05
2014-06-23 00:00:00,2014-06-23 00:00:00,PRATE,surface,-107.813,33.5432,8.28e-05
2014-06-23 00:00:00,2014-06-23 00:00:00,PRATE,surface,-106.875,33.5432,7.95e-05
2014-06-23 00:00:00,2014-06-23 00:00:00,PRATE,surface,-105.938,33.5432,4.54e-05
2014-06-23 00:00:00,2014-06-23 00:00:00,PRATE,surface,-105,33.5432,2.78e-05
2014-06-23 00:00:00,2014-06-23 00:00:00,PRATE,surface,-104.063,33.5432,1.81e-05
2014-06-23 00:00:00,2014-06-23 00:00:00,PRATE,surface,-103.125,33.5432,1.11e-05
2014-06-23 00:00:00,2014-06-23 00:00:00,PRATE,surface,-102.188,33.5432,2.12e-05
2014-06-23 00:00:00,2014-06-23 00:00:00,PRATE,surface,-101.25,33.5432,3.35e-05
2014-06-23 00:00:00,2014-06-23 00:00:00,PRATE,surface,-100.313,33.5432,2.62e-05
2014-06-23 00:00:00,2014-06-23 00:00:00,PRATE,surface,-99.3754,33.5432,1.17e-05
2014-06-23 00:00:00,2014-06-23 00:00:00,PRATE,surface,-98.4379,33.5432,6.8e-06
2014-06-23 00:00:00,2014-06-23 00:00:00,PRATE,surface,-97.5004,33.5432,1.26e-05
2014-06-23 00:00:00,2014-06-23 00:00:00,PRATE,surface,-96.5629,33.5432,1.74e-05
2014-06-23 00:00:00,2014-06-23 00:00:00,PRATE,surface,-95.6254,33.5432,1.64e-05
2014-06-23 00:00:00,2014-06-23 00:00:00,PRATE,surface,-94.6879,33.5432,1.85e-05
2014-06-23 00:00:00,2014-06-23 00:00:00,PRATE,surface,-93.7504,33.5432,2.52e-05
2014-06-23 00:00:00,2014-06-23 00:00:00,PRATE,surface,-92.8129,33.5432,2.48e-05
2014-06-23 00:00:00,2014-06-23 00:00:00,PRATE,surface,-107.813,34.4881,6.72e-05
2014-06-23 00:00:00,2014-06-23 00:00:00,PRATE,surface,-106.875,34.4881,4.88e-05
2014-06-23 00:00:00,2014-06-23 00:00:00,PRATE,surface,-105.938,34.4881,4.25e-05
2014-06-23 00:00:00,2014-06-23 00:00:00,PRATE,surface,-105,34.4881,4.6e-05
2014-06-23 00:00:00,2014-06-23 00:00:00,PRATE,surface,-104.063,34.4881,3.81e-05
2014-06-23 00:00:00,2014-06-23 00:00:00,PRATE,surface,-103.125,34.4881,3.36e-05
2014-06-23 00:00:00,2014-06-23 00:00:00,PRATE,surface,-102.188,34.4881,2.24e-05
2014-06-23 00:00:00,2014-06-23 00:00:00,PRATE,surface,-101.25,34.4881,1.93e-05
2014-06-23 00:00:00,2014-06-23 00:00:00,PRATE,surface,-100.313,34.4881,1.28e-05
2014-06-23 00:00:00,2014-06-23 00:00:00,PRATE,surface,-99.3754,34.4881,7.3e-06
2014-06-23 00:00:00,2014-06-23 00:00:00,PRATE,surface,-98.4379,34.4881,5.3e-06
2014-06-23 00:00:00,2014-06-23 00:00:00,PRATE,surface,-97.5004,34.4881,7.1e-06
2014-06-23 00:00:00,2014-06-23 00:00:00,PRATE,surface,-96.5629,34.4881,1.12e-05
2014-06-23 00:00:00,2014-06-23 00:00:00,PRATE,surface,-95.6254,34.4881,1.47e-05
2014-06-23 00:00:00,2014-06-23 00:00:00,PRATE,surface,-94.6879,34.4881,1.89e-05
2014-06-23 00:00:00,2014-06-23 00:00:00,PRATE,surface,-93.7504,34.4881,2.66e-05
2014-06-23 00:00:00,2014-06-23 00:00:00,PRATE,surface,-92.8129,34.4881,3.01e-05
2014-06-23 00:00:00,2014-06-23 00:00:00,PRATE,surface,-107.813,35.4329,2.53e-05
2014-06-23 00:00:00,2014-06-23 00:00:00,PRATE,surface,-106.875,35.4329,2.43e-05
2014-06-23 00:00:00,2014-06-23 00:00:00,PRATE,surface,-105.938,35.4329,3.03e-05
2014-06-23 00:00:00,2014-06-23 00:00:00,PRATE,surface,-105,35.4329,7.29e-05
2014-06-23 00:00:00,2014-06-23 00:00:00,PRATE,surface,-104.063,35.4329,6.26e-05
2014-06-23 00:00:00,2014-06-23 00:00:00,PRATE,surface,-103.125,35.4329,4.97e-05
2014-06-23 00:00:00,2014-06-23 00:00:00,PRATE,surface,-102.188,35.4329,3.69e-05
2014-06-23 00:00:00,2014-06-23 00:00:00,PRATE,surface,-101.25,35.4329,2.48e-05
2014-06-23 00:00:00,2014-06-23 00:00:00,PRATE,surface,-100.313,35.4329,1.87e-05
2014-06-23 00:00:00,2014-06-23 00:00:00,PRATE,surface,-99.3754,35.4329,1.52e-05
2014-06-23 00:00:00,2014-06-23 00:00:00,PRATE,surface,-98.4379,35.4329,1.73e-05
2014-06-23 00:00:00,2014-06-23 00:00:00,PRATE,surface,-97.5004,35.4329,1.61e-05
2014-06-23 00:00:00,2014-06-23 00:00:00,PRATE,surface,-96.5629,35.4329,1.02e-05
2014-06-23 00:00:00,2014-06-23 00:00:00,PRATE,surface,-95.6254,35.4329,8.5e-06
2014-06-23 00:00:00,2014-06-23 00:00:00,PRATE,surface,-94.6879,35.4329,1.15e-05
2014-06-23 00:00:00,2014-06-23 00:00:00,PRATE,surface,-93.7504,35.4329,1.51e-05
2014-06-23 00:00:00,2014-06-23 00:00:00,PRATE,surface,-92.8129,35.4329,1.65e-05
2014-06-23 00:00:00,2014-06-23 00:00:00,PRATE,surface,-107.813,36.3778,1.79e-05
2014-06-23 00:00:00,2014-06-23 00:00:00,PRATE,surface,-106.875,36.3778,3.71e-05
2014-06-23 00:00:00,2014-06-23 00:00:00,PRATE,surface,-105.938,36.3778,6.55e-05
2014-06-23 00:00:00,2014-06-23 00:00:00,PRATE,surface,-105,36.3778,9.94e-05
2014-06-23 00:00:00,2014-06-23 00:00:00,PRATE,surface,-104.063,36.3778,8.8e-05
2014-06-23 00:00:00,2014-06-23 00:00:00,PRATE,surface,-103.125,36.3778,7.25e-05
2014-06-23 00:00:00,2014-06-23 00:00:00,PRATE,surface,-102.188,36.3778,5.99e-05
2014-06-23 00:00:00,2014-06-23 00:00:00,PRATE,surface,-101.25,36.3778,5.13e-05
2014-06-23 00:00:00,2014-06-23 00:00:00,PRATE,surface,-100.313,36.3778,3.67e-05
2014-06-23 00:00:00,2014-06-23 00:00:00,PRATE,surface,-99.3754,36.3778,3.15e-05
2014-06-23 00:00:00,2014-06-23 00:00:00,PRATE,surface,-98.4379,36.3778,2.55e-05
2014-06-23 00:00:00,2014-06-23 00:00:00,PRATE,surface,-97.5004,36.3778,2.09e-05
2014-06-23 00:00:00,2014-06-23 00:00:00,PRATE,surface,-96.5629,36.3778,1.91e-05
2014-06-23 00:00:00,2014-06-23 00:00:00,PRATE,surface,-95.6254,36.3778,1.44e-05
2014-06-23 00:00:00,2014-06-23 00:00:00,PRATE,surface,-94.6879,36.3778,1.3e-05
2014-06-23 00:00:00,2014-06-23 00:00:00,PRATE,surface,-93.7504,36.3778,1.82e-05
2014-06-23 00:00:00,2014-06-23 00:00:00,PRATE,surface,-92.8129,36.3778,1.99e-05
