2012-08-02 00:00:00,2012-08-02 00:00:00,TMP,surface,-107.813,25.0393,293.244
2012-08-02 00:00:00,2012-08-02 00:00:00,TMP,surface,-106.875,25.0393,287.567
2012-08-02 00:00:00,2012-08-02 00:00:00,TMP,surface,-105.938,25.0393,282.615
2012-08-02 00:00:00,2012-08-02 00:00:00,TMP,surface,-105,25.0393,282.449
2012-08-02 00:00:00,2012-08-02 00:00:00,TMP,surface,-104.063,25.0393,286.726
2012-08-02 00:00:00,2012-08-02 00:00:00,TMP,surface,-103.125,25.0393,288.828
2012-08-02 00:00:00,2012-08-02 00:00:00,TMP,surface,-102.188,25.0393,288.14
2012-08-02 00:00:00,2012-08-02 00:00:00,TMP,surface,-101.25,25.0393,287.052
2012-08-02 00:00:00,2012-08-02 00:00:00,TMP,surface,-100.313,25.0393,287.924
2012-08-02 00:00:00,2012-08-02 00:00:00,TMP,surface,-99.3754,25.0393,291.161
2012-08-02 00:00:00,2012-08-02 00:00:00,TMP,surface,-98.4379,25.0393,293.889
2012-08-02 00:00:00,2012-08-02 00:00:00,TMP,surface,-97.5004,25.0393,295.574
2012-08-02 00:00:00,2012-08-02 00:00:00,TMP,surface,-96.5629,25.0393,295.401
2012-08-02 00:00:00,2012-08-02 00:00:00,TMP,surface,-95.6254,25.0393,295.302
2012-08-02 00:00:00,2012-08-02 00:00:00,TMP,surface,-94.6879,25.0393,295.337
2012-08-02 00:00:00,2012-08-02 00:00:00,TMP,surface,-93.7504,25.0393,295.292
2012-08-02 00:00:00,2012-08-02 00:00:00,TMP,surface,-92.8129,25.0393,295.46
2012-08-02 00:00:00,2012-08-02 00:00:00,TMP,surface,-107.813,25.9842,288.711
2012-08-02 00:00:00,2012-08-02 00:00:00,TMP,surface,-106.875,25.9842,282.974
2012-08-02 00:00:00,2012-08-02 00:00:00,TMP,surface,-105.938,25.9842,281.502
2012-08-02 00:00:00,2012-08-02 00:00:00,TMP,surface,-105,25.9842,284.807
2012-08-02 00:00:00,2012-08-02 00:00:00,TMP,surface,-104.063,25.9842,288.905
2012-08-02 00:00:00,2012-08-02 00:00:00,TMP,surface,-103.125,25.9842,290.161
2012-08-02 00:00:00,2012-08-02 00:00:00,TMP,surface,-102.188,25.9842,289.519
2012-08-02 00:00:00,2012-08-02 00:00:00,TMP,surface,-101.25,25.9842,289.127
2012-08-02 00:00:00,2012-08-02 00:00:00,TMP,surface,-100.313,25.9842,290.103
2012-08-02 00:00:00,2012-08-02 00:00:00,TMP,surface,-99.3754,25.9842,292.569
2012-08-02 00:00:00,2012-08-02 00:00:00,TMP,surface,-98.4379,25.9842,293.756
2012-08-02 00:00:00,2012-08-02 00:00:00,TMP,surface,-97.5004,25.9842,293.788
2012-08-02 00:00:00,2012-08-02 00:00:00,TMP,surface,-96.5629,25.9842,294.94
2012-08-02 00:00:00,2012-08-02 00:00:00,TMP,surface,-95.6254,25.9842,294.987
2012-08-02 00:00:00,2012-08-02 00:00:00,TMP,surface,-94.6879,25.9842,295.025
2012-08-02 00:00:00,2012-08-02 00:00:00,TMP,surface,-93.7504,25.9842,294.967
2012-08-02 00:00:00,2012-08-02 00:00:00,TMP,surface,-92.8129,25.9842,295.03
2012-08-02 00:00:00,2012-08-02 00:00:00,TMP,surface,-107.813,26.929,283.604
2012-08-02 00:00:00,2012-08-02 00:00:00,TMP,surface,-106.875,26.929,280.422
2012-08-02 00:00:00,2012-08-02 00:00:00,TMP,surface,-105.938,26.929,283.083
2012-08-02 00:00:00,2012-08-02 00:00:00,TMP,surface,-105,26.929,287.364
2012-08-02 00:00:00,2012-08-02 00:00:00,TMP,surface,-104.063,26.929,288.959
2012-08-02 00:00:00,2012-08-02 00:00:00,TMP,surface,-103.125,26.929,288.579
2012-08-02 00:00:00,2012-08-02 00:00:00,TMP,surface,-102.188,26.929,288.479
2012-08-02 00:00:00,2012-08-02 00:00:00,TMP,surface,-101.25,26.929,289.291
2012-08-02 00:00:00,2012-08-02 00:00:00,TMP,surface,-100.313,26.929,290.801
2012-08-02 00:00:00,2012-08-02 00:00:00,TMP,surface,-99.3754,26.929,292.187
2012-08-02 00:00:00,2012-08-02 00:00:00,TMP,surface,-98.4379,26.929,292.084
2012-08-02 00:00:00,2012-08-02 00:00:00,TMP,surface,-97.5004,26.929,293.923
2012-08-02 00:00:00,2012-08-02 00:00:00,TMP,surface,-96.5629,26.929,294.27
2012-08-02 00:00:00,2012-08-02 00:00:00,TMP,surface,-95.6254,26.929,294.739
2012-08-02 00:00:00,2012-08-02 00:00:00,TMP,surface,-94.6879,26.929,294.841
2012-08-02 00:00:00,2012-08-02 00:00:00,TMP,surface,-93.7504,26.929,294.665
2012-08-02 00:00:00,2012-08-02 00:00:00,TMP,surface,-92.8129,26.929,294.55
2012-08-02 00:00:00,2012-08-02 00:00:00,TMP,surface,-107.813,27.8739,280.678
2012-08-02 00:00:00,2012-08-02 00:00:00,TMP,surface,-106.875,27.8739,280.583
2012-08-02 00:00:00,2012-08-02 00:00:00,TMP,surface,-105.938,27.8739,284.903
2012-08-02 00:00:00,2012-08-02 00:00:00,TMP,surface,-105,27.8739,287.766
2012-08-02 00:00:00,2012-08-02 00:00:00,TMP,surface,-104.063,27.8739,287.859
2012-08-02 00:00:00,2012-08-02 00:00:00,TMP,surface,-103.125,27.8739,286.843
2012-08-02 00:00:00,2012-08-02 00:00:00,TMP,surface,-102.188,27.8739,287.116
2012-08-02 00:00:00,2012-08-02 00:00:00,TMP,surface,-101.25,27.8739,288.366
2012-08-02 00:00:00,2012-08-02 00:00:00,TMP,surface,-100.313,27.8739,289.705
2012-08-02 00:00:00,2012-08-02 00:00:00,TMP,surface,-99.3754,27.8739,290.129
2012-08-02 00:00:00,2012-08-02 00:00:00,TMP,surface,-98.4379,27.8739,290.163
2012-08-02 00:00:00,2012-08-02 00:00:00,TMP,surface,-97.5004,27.8739,292.18
2012-08-02 00:00:00,2012-08-02 00:00:00,TMP,surface,-96.5629,27.8739,294.343
2012-08-02 00:00:00,2012-08-02 00:00:00,TMP,surface,-95.6254,27.8739,294.441
2012-08-02 00:00:00,2012-08-02 00:00:00,TMP,surface,-94.6879,27.8739,294.089
2012-08-02 00:00:00,2012-08-02 00:00:00,TMP,surface,-93.7504,27.8739,293.735
2012-08-02 00:00:00,2012-08-02 00:00:00,TMP,surface,-92.8129,27.8739,293.563
2012-08-02 00:00:00,2012-08-02 00:00:00,TMP,surface,-107.813,28.8188,279.681
2012-08-02 00:00:00,2012-08-02 00:00:00,TMP,surface,-106.875,28.8188,281.212
2012-08-02 00:00:00,2012-08-02 00:00:00,TMP,surface,-105.938,28.8188,285.39
2012-08-02 00:00:00,2012-08-02 00:00:00,TMP,surface,-105,28.8188,287.111
2012-08-02 00:00:00,2012-08-02 00:00:00,TMP,surface,-104.063,28.8188,286.558
2012-08-02 00:00:00,2012-08-02 00:00:00,TMP,surface,-103.125,28.8188,285.817
2012-08-02 00:00:00,2012-08-02 00:00:00,TMP,surface,-102.188,28.8188,286.233
2012-08-02 00:00:00,2012-08-02 00:00:00,TMP,surface,-101.25,28.8188,287.319
2012-08-02 00:00:00,2012-08-02 00:00:00,TMP,surface,-100.313,28.8188,287.667
2012-08-02 00:00:00,2012-08-02 00:00:00,TMP,surface,-99.3754,28.8188,287.374
2012-08-02 00:00:00,2012-08-02 00:00:00,TMP,surface,-98.4379,28.8188,287.35
2012-08-02 00:00:00,2012-08-02 00:00:00,TMP,surface,-97.5004,28.8188,288.055
2012-08-02 00:00:00,2012-08-02 00:00:00,TMP,surface,-96.5629,28.8188,289.049
2012-08-02 00:00:00,2012-08-02 00:00:00,TMP,surface,-95.6254,28.8188,291.023
2012-08-02 00:00:00,2012-08-02 00:00:00,TMP,surface,-94.6879,28.8188,293.367
2012-08-02 00:00:00,2012-08-02 00:00:00,TMP,surface,-93.7504,28.8188,293.235
2012-08-02 00:00:00,2012-08-02 00:00:00,TMP,surface,-92.8129,28.8188,293.228
2012-08-02 00:00:00,2012-08-02 00:00:00,TMP,surface,-107.813,29.7637,280.942
2012-08-02 00:00:00,2012-08-02 00:00:00,TMP,surface,-106.875,29.7637,282.587
2012-08-02 00:00:00,2012-08-02 00:00:00,TMP,surface,-105.938,29.7637,284.98
2012-08-02 00:00:00,2012-08-02 00:00:00,TMP,surface,-105,29.7637,285.591
2012-08-02 00:00:00,2012-08-02 00:00:00,TMP,surface,-104.063,29.7637,285.667
2012-08-02 00:00:00,2012-08-02 00:00:00,TMP,surface,-103.125,29.7637,285.844
2012-08-02 00:00:00,2012-08-02 00:00:00,TMP,surface,-102.188,29.7637,286.428
2012-08-02 00:00:00,2012-08-02 00:00:00,TMP,surface,-101.25,29.7637,286.452
2012-08-02 00:00:00,2012-08-02 00:00:00,TMP,surface,-100.313,29.7637,285.747
2012-08-02 00:00:00,2012-08-02 00:00:00,TMP,surface,-99.3754,29.7637,285.172
2012-08-02 00:00:00,2012-08-02 00:00:00,TMP,surface,-98.4379,29.7637,285.212
2012-08-02 00:00:00,2012-08-02 00:00:00,TMP,surface,-97.5004,29.7637,285.766
2012-08-02 00:00:00,2012-08-02 00:00:00,TMP,surface,-96.5629,29.7637,286.513
2012-08-02 00:00:00,2012-08-02 00:00:00,TMP,surface,-95.6254,29.7637,287.324
2012-08-02 00:00:00,2012-08-02 00:00:00,TMP,surface,-94.6879,29.7637,289.531
2012-08-02 00:00:00,2012-08-02 00:00:00,TMP,surface,-93.7504,29.7637,292.003
2012-08-02 00:00:00,2012-08-02 00:00:00,TMP,surface,-92.8129,29.7637,288.735
2012-08-02 00:00:00,2012-08-02 00:00:00,TMP,surface,-107.813,30.7085,283.527
2012-08-02 00:00:00,2012-08-02 00:00:00,TMP,surface,-106.875,30.7085,284.335
2012-08-02 00:00:00,2012-08-02 00:00:00,TMP,surface,-105.938,30.7085,284.443
2012-08-02 00:00:00,2012-08-02 00:00:00,TMP,surface,-105,30.7085,284.363
2012-08-02 00:00:00,2012-08-02 00:00:00,TMP,surface,-104.063,30.7085,284.811
2012-08-02 00:00:00,2012-08-02 00:00:00,TMP,surface,-103.125,30.7085,285.71
2012-08-02 00:00:00,2012-08-02 00:00:00,TMP,surface,-102.188,30.7085,286.156
2012-08-02 00:00:00,2012-08-02 00:00:00,TMP,surface,-101.25,30.7085,285.609
2012-08-02 00:00:00,2012-08-02 00:00:00,TMP,surface,-100.313,30.7085,284.694
2012-08-02 00:00:00,2012-08-02 00:00:00,TMP,surface,-99.3754,30.7085,284.271
2012-08-02 00:00:00,2012-08-02 00:00:00,TMP,surface,-98.4379,30.7085,284.379
2012-08-02 00:00:00,2012-08-02 00:00:00,TMP,surface,-97.5004,30.7085,284.747
2012-08-02 00:00:00,2012-08-02 00:00:00,TMP,surface,-96.5629,30.7085,285.343
2012-08-02 00:00:00,2012-08-02 00:00:00,TMP,surface,-95.6254,30.7085,285.929
2012-08-02 00:00:00,2012-08-02 00:00:00,TMP,surface,-94.6879,30.7085,286.169
2012-08-02 00:00:00,2012-08-02 00:00:00,TMP,surface,-93.7504,30.7085,286.201
2012-08-02 00:00:00,2012-08-02 00:00:00,TMP,surface,-92.8129,30.7085,286.043
2012-08-02 00:00:00,2012-08-02 00:00:00,TMP,surface,-107.813,31.6534,283.535
2012-08-02 00:00:00,2012-08-02 00:00:00,TMP,surface,-106.875,31.6534,283.919
2012-08-02 00:00:00,2012-08-02 00:00:00,TMP,surface,-105.938,31.6534,283.452
2012-08-02 00:00:00,2012-08-02 00:00:00,TMP,surface,-105,31.6534,283.473
2012-08-02 00:00:00,2012-08-02 00:00:00,TMP,surface,-104.063,31.6534,284.193
2012-08-02 00:00:00,2012-08-02 00:00:00,TMP,surface,-103.125,31.6534,285.11
2012-08-02 00:00:00,2012-08-02 00:00:00,TMP,surface,-102.188,31.6534,285.353
2012-08-02 00:00:00,2012-08-02 00:00:00,TMP,surface,-101.25,31.6534,284.878
2012-08-02 00:00:00,2012-08-02 00:00:00,TMP,surface,-100.313,31.6534,284.323
2012-08-02 00:00:00,2012-08-02 00:00:00,TMP,surface,-99.3754,31.6534,284.127
2012-08-02 00:00:00,2012-08-02 00:00:00,TMP,surface,-98.4379,31.6534,284.191
2012-08-02 00:00:00,2012-08-02 00:00:00,TMP,surface,-97.5004,31.6534,284.39
2012-08-02 00:00:00,2012-08-02 00:00:00,TMP,surface,-96.5629,31.6534,284.771
2012-08-02 00:00:00,2012-08-02 00:00:00,TMP,surface,-95.6254,31.6534,285.067
2012-08-02 00:00:00,2012-08-02 00:00:00,TMP,surface,-94.6879,31.6534,284.95
2012-08-02 00:00:00,2012-08-02 00:00:00,TMP,surface,-93.7504,31.6534,284.723
2012-08-02 00:00:00,2012-08-02 00:00:00,TMP,surface,-92.8129,31.6534,284.665
2012-08-02 00:00:00,2012-08-02 00:00:00,TMP,surface,-107.813,32.5983,280.703
2012-08-02 00:00:00,2012-08-02 00:00:00,TMP,surface,-106.875,32.5983,281.332
2012-08-02 00:00:00,2012-08-02 00:00:00,TMP,surface,-105.938,32.5983,281.7
2012-08-02 00:00:00,2012-08-02 00:00:00,TMP,surface,-105,32.5983,282.247
2012-08-02 00:00:00,2012-08-02 00:00:00,TMP,surface,-104.063,32.5983,283.42
2012-08-02 00:00:00,2012-08-02 00:00:00,TMP,surface,-103.125,32.5983,284.191
2012-08-02 00:00:00,2012-08-02 00:00:00,TMP,surface,-102.188,32.5983,284.339
2012-08-02 00:00:00,2012-08-02 00:00:00,TMP,surface,-101.25,32.5983,284.319
2012-08-02 00:00:00,2012-08-02 00:00:00,TMP,surface,-100.313,32.5983,284.353
2012-08-02 00:00:00,2012-08-02 00:00:00,TMP,surface,-99.3754,32.5983,284.374
2012-08-02 00:00:00,2012-08-02 00:00:00,TMP,surface,-98.4379,32.5983,284.233
2012-08-02 00:00:00,2012-08-02 00:00:00,TMP,surface,-97.5004,32.5983,284.111
2012-08-02 00:00:00,2012-08-02 00:00:00,TMP,surface,-96.5629,32.5983,284.193
2012-08-02 00:00:00,2012-08-02 00:00:00,TMP,surface,-95.6254,32.5983,284.278
2012-08-02 00:00:00,2012-08-02 00:00:00,TMP,surface,-94.6879,32.5983,284.095
2012-08-02 00:00:00,2012-08-02 00:00:00,TMP,surface,-93.7504,32.5983,283.827
2012-08-02 00:00:00,2012-08-02 00:00:00,TMP,surface,-92.8129,32.5983,283.919
2012-08-02 00:00:00,2012-08-02 00:00:00,TMP,surface,-107.813,33.5432,277.001
2012-08-02 00:00:00,2012-08-02 00:00:00,TMP,surface,-106.875,33.5432,278.55
2012-08-02 00:00:00,2012-08-02 00:00:00,TMP,surface,-105.938,33.5432,279.871
2012-08-02 00:00:00,2012-08-02 00:00:00,TMP,surface,-105,33.5432,281.006
2012-08-02 00:00:00,2012-08-02 00:00:00,TMP,surface,-104.063,33.5432,282.295
2012-08-02 00:00:00,2012-08-02 00:00:00,TMP,surface,-103.125,33.5432,283.028
2012-08-02 00:00:00,2012-08-02 00:00:00,TMP,surface,-102.188,33.5432,283.187
2012-08-02 00:00:00,2012-08-02 00:00:00,TMP,surface,-101.25,33.5432,283.487
2012-08-02 00:00:00,2012-08-02 00:00:00,TMP,surface,-100.313,33.5432,283.849
2012-08-02 00:00:00,2012-08-02 00:00:00,TMP,surface,-99.3754,33.5432,283.894
2012-08-02 00:00:00,2012-08-02 00:00:00,TMP,surface,-98.4379,33.5432,283.596
2012-08-02 00:00:00,2012-08-02 00:00:00,TMP,surface,-97.5004,33.5432,283.159
2012-08-02 00:00:00,2012-08-02 00:00:00,TMP,surface,-96.5629,33.5432,282.953
2012-08-02 00:00:00,2012-08-02 00:00:00,TMP,surface,-95.6254,33.5432,282.993
2012-08-02 00:00:00,2012-08-02 00:00:00,TMP,surface,-94.6879,33.5432,282.895
2012-08-02 00:00:00,2012-08-02 00:00:00,TMP,surface,-93.7504,33.5432,282.689
2012-08-02 00:00:00,2012-08-02 00:00:00,TMP,surface,-92.8129,33.5432,282.771
2012-08-02 00:00:00,2012-08-02 00:00:00,TMP,surface,-107.813,34.4881,275.151
2012-08-02 00:00:00,2012-08-02 00:00:00,TMP,surface,-106.875,34.4881,276.723
2012-08-02 00:00:00,2012-08-02 00:00:00,TMP,surface,-105.938,34.4881,278.219
2012-08-02 00:00:00,2012-08-02 00:00:00,TMP,surface,-105,34.4881,279.529
2012-08-02 00:00:00,2012-08-02 00:00:00,TMP,surface,-104.063,34.4881,280.735
2012-08-02 00:00:00,2012-08-02 00:00:00,TMP,surface,-103.125,34.4881,281.575
2012-08-02 00:00:00,2012-08-02 00:00:00,TMP,surface,-102.188,34.4881,282.006
2012-08-02 00:00:00,2012-08-02 00:00:00,TMP,surface,-101.25,34.4881,282.51
2012-08-02 00:00:00,2012-08-02 00:00:00,TMP,surface,-100.313,34.4881,282.798
2012-08-02 00:00:00,2012-08-02 00:00:00,TMP,surface,-99.3754,34.4881,282.775
2012-08-02 00:00:00,2012-08-02 00:00:00,TMP,surface,-98.4379,34.4881,282.542
2012-08-02 00:00:00,2012-08-02 00:00:00,TMP,surface,-97.5004,34.4881,282.233
2012-08-02 00:00:00,2012-08-02 00:00:00,TMP,surface,-96.5629,34.4881,281.979
2012-08-02 00:00:00,2012-08-02 00:00:00,TMP,surface,-95.6254,34.4881,281.692
2012-08-02 00:00:00,2012-08-02 00:00:00,TMP,surface,-94.6879,34.4881,281.358
2012-08-02 00:00:00,2012-08-02 00:00:00,TMP,surface,-93.7504,34.4881,281.286
2012-08-02 00:00:00,2012-08-02 00:00:00,TMP,surface,-92.8129,34.4881,281.502
2012-08-02 00:00:00,2012-08-02 00:00:00,TMP,surface,-107.813,35.4329,274.707
2012-08-02 00:00:00,2012-08-02 00:00:00,TMP,surface,-106.875,35.4329,274.963
2012-08-02 00:00:00,2012-08-02 00:00:00,TMP,surface,-105.938,35.4329,275.772
2012-08-02 00:00:00,2012-08-02 00:00:00,TMP,surface,-105,35.4329,277.148
2012-08-02 00:00:00,2012-08-02 00:00:00,TMP,surface,-104.063,35.4329,278.876
2012-08-02 00:00:00,2012-08-02 00:00:00,TMP,surface,-103.125,35.4329,280.347
2012-08-02 00:00:00,2012-08-02 00:00:00,TMP,surface,-102.188,35.4329,281.103
2012-08-02 00:00:00,2012-08-02 00:00:00,TMP,surface,-101.25,35.4329,281.524
2012-08-02 00:00:00,2012-08-02 00:00:00,TMP,surface,-100.313,35.4329,281.819
2012-08-02 00:00:00,2012-08-02 00:00:00,TMP,surface,-99.3754,35.4329,281.799
2012-08-02 00:00:00,2012-08-02 00:00:00,TMP,surface,-98.4379,35.4329,281.726
2012-08-02 00:00:00,2012-08-02 00:00:00,TMP,surface,-97.5004,35.4329,281.807
2012-08-02 00:00:00,2012-08-02 00:00:00,TMP,surface,-96.5629,35.4329,281.803
2012-08-02 00:00:00,2012-08-02 00:00:00,TMP,surface,-95.6254,35.4329,281.441
2012-08-02 00:00:00,2012-08-02 00:00:00,TMP,surface,-94.6879,35.4329,280.83
2012-08-02 00:00:00,2012-08-02 00:00:00,TMP,surface,-93.7504,35.4329,280.331
2012-08-02 00:00:00,2012-08-02 00:00:00,TMP,surface,-92.8129,35.4329,280.334
2012-08-02 00:00:00,2012-08-02 00:00:00,TMP,surface,-107.813,36.3778,273.227
2012-08-02 00:00:00,2012-08-02 00:00:00,TMP,surface,-106.875,36.3778,271.649
2012-08-02 00:00:00,2012-08-02 00:00:00,TMP,surface,-105.938,36.3778,272.227
2012-08-02 00:00:00,2012-08-02 00:00:00,TMP,surface,-105,36.3778,274.361
2012-08-02 00:00:00,2012-08-02 00:00:00,TMP,surface,-104.063,36.3778,276.799
2012-08-02 00:00:00,2012-08-02 00:00:00,TMP,surface,-103.125,36.3778,278.83
2012-08-02 00:00:00,2012-08-02 00:00:00,TMP,surface,-102.188,36.3778,280.068
2012-08-02 00:00:00,2012-08-02 00:00:00,TMP,surface,-101.25,36.3778,280.769
2012-08-02 00:00:00,2012-08-02 00:00:00,TMP,surface,-100.313,36.3778,281.318
2012-08-02 00:00:00,2012-08-02 00:00:00,TMP,surface,-99.3754,36.3778,281.518
2012-08-02 00:00:00,2012-08-02 00:00:00,TMP,surface,-98.4379,36.3778,281.422
2012-08-02 00:00:00,2012-08-02 00:00:00,TMP,surface,-97.5004,36.3778,281.462
2012-08-02 00:00:00,2012-08-02 00:00:00,TMP,surface,-96.5629,36.3778,281.603
2012-08-02 00:00:00,2012-08-02 00:00:00,TMP,surface,-95.6254,36.3778,281.324
2012-08-02 00:00:00,2012-08-02 00:00:00,TMP,surface,-94.6879,36.3778,280.519
2012-08-02 00:00:00,2012-08-02 00:00:00,TMP,surface,-93.7504,36.3778,279.748
2012-08-02 00:00:00,2012-08-02 00:00:00,TMP,surface,-92.8129,36.3778,279.503
2012-08-02 00:00:00,2012-08-02 00:00:00,PRATE,surface,-107.813,25.0393,1.02e-05
2012-08-02 00:00:00,2012-08-02 00:00:00,PRATE,surface,-106.875,25.0393,1.09e-05
2012-08-02 00:00:00,2012-08-02 00:00:00,PRATE,surface,-105.938,25.0393,6.8e-06
2012-08-02 00:00:00,2012-08-02 00:00:00,PRATE,surface,-105,25.0393,1.4e-06
2012-08-02 00:00:00,2012-08-02 00:00:00,PRATE,surface,-104.063,25.0393,5e-07
2012-08-02 00:00:00,2012-08-02 00:00:00,PRATE,surface,-103.125,25.0393,2e-07
2012-08-02 00:00:00,2012-08-02 00:00:00,PRATE,surface,-102.188,25.0393,1e-07
2012-08-02 00:00:00,2012-08-02 00:00:00,PRATE,surface,-101.25,25.0393,1.7e-06
2012-08-02 00:00:00,2012-08-02 00:00:00,PRATE,surface,-100.313,25.0393,9.7e-06
2012-08-02 00:00:00,2012-08-02 00:00:00,PRATE,surface,-99.3754,25.0393,6.5e-06
2012-08-02 00:00:00,2012-08-02 00:00:00,PRATE,surface,-98.4379,25.0393,2.7e-06
2012-08-02 00:00:00,2012-08-02 00:00:00,PRATE,surface,-97.5004,25.0393,7.8e-06
2012-08-02 00:00:00,2012-08-02 00:00:00,PRATE,surface,-96.5629,25.0393,8.9e-06
2012-08-02 00:00:00,2012-08-02 00:00:00,PRATE,surface,-95.6254,25.0393,1.1e-05
2012-08-02 00:00:00,2012-08-02 00:00:00,PRATE,surface,-94.6879,25.0393,1.81e-05
2012-08-02 00:00:00,2012-08-02 00:00:00,PRATE,surface,-93.7504,25.0393,2.23e-05
2012-08-02 00:00:00,2012-08-02 00:00:00,PRATE,surface,-92.8129,25.0393,1.55e-05
2012-08-02 00:00:00,2012-08-02 00:00:00,PRATE,surface,-107.813,25.9842,1.69e-05
2012-08-02 00:00:00,2012-08-02 00:00:00,PRATE,surface,-106.875,25.9842,1.38e-05
2012-08-02 00:00:00,2012-08-02 00:00:00,PRATE,surface,-105.938,25.9842,3e-06
2012-08-02 00:00:00,2012-08-02 00:00:00,PRATE,surface,-105,25.9842,3e-07
2012-08-02 00:00:00,2012-08-02 00:00:00,PRATE,surface,-104.063,25.9842,1e-07
2012-08-02 00:00:00,2012-08-02 00:00:00,PRATE,surface,-103.125,25.9842,0
2012-08-02 00:00:00,2012-08-02 00:00:00,PRATE,surface,-102.188,25.9842,2e-07
2012-08-02 00:00:00,2012-08-02 00:00:00,PRATE,surface,-101.25,25.9842,1.8e-06
2012-08-02 00:00:00,2012-08-02 00:00:00,PRATE,surface,-100.313,25.9842,5.2e-06
2012-08-02 00:00:00,2012-08-02 00:00:00,PRATE,surface,-99.3754,25.9842,5.7e-06
2012-08-02 00:00:00,2012-08-02 00:00:00,PRATE,surface,-98.4379,25.9842,1.25e-05
2012-08-02 00:00:00,2012-08-02 00:00:00,PRATE,surface,-97.5004,25.9842,2.27e-05
2012-08-02 00:00:00,2012-08-02 00:00:00,PRATE,surface,-96.5629,25.9842,2.71e-05
2012-08-02 00:00:00,2012-08-02 00:00:00,PRATE,surface,-95.6254,25.9842,3.34e-05
2012-08-02 00:00:00,2012-08-02 00:00:00,PRATE,surface,-94.6879,25.9842,3.61e-05
2012-08-02 00:00:00,2012-08-02 00:00:00,PRATE,surface,-93.7504,25.9842,3.3e-05
2012-08-02 00:00:00,2012-08-02 00:00:00,PRATE,surface,-92.8129,25.9842,3.03e-05
2012-08-02 00:00:00,2012-08-02 00:00:00,PRATE,surface,-107.813,26.929,3.06e-05
2012-08-02 00:00:00,2012-08-02 00:00:00,PRATE,surface,-106.875,26.929,1.69e-05
2012-08-02 00:00:00,2012-08-02 00:00:00,PRATE,surface,-105.938,26.929,2.3e-06
2012-08-02 00:00:00,2012-08-02 00:00:00,PRATE,surface,-105,26.929,5e-07
2012-08-02 00:00:00,2012-08-02 00:00:00,PRATE,surface,-104.063,26.929,6e-07
2012-08-02 00:00:00,2012-08-02 00:00:00,PRATE,surface,-103.125,26.929,2.6e-06
2012-08-02 00:00:00,2012-08-02 00:00:00,PRATE,surface,-102.188,26.929,5.2e-06
2012-08-02 00:00:00,2012-08-02 00:00:00,PRATE,surface,-101.25,26.929,7e-06
2012-08-02 00:00:00,2012-08-02 00:00:00,PRATE,surface,-100.313,26.929,1.01e-05
2012-08-02 00:00:00,2012-08-02 00:00:00,PRATE,surface,-99.3754,26.929,1.38e-05
2012-08-02 00:00:00,2012-08-02 00:00:00,PRATE,surface,-98.4379,26.929,1.95e-05
2012-08-02 00:00:00,2012-08-02 00:00:00,PRATE,surface,-97.5004,26.929,3.1e-05
2012-08-02 00:00:00,2012-08-02 00:00:00,PRATE,surface,-96.5629,26.929,3.91e-05
2012-08-02 00:00:00,2012-08-02 00:00:00,PRATE,surface,-95.6254,26.929,4.48e-05
2012-08-02 00:00:00,2012-08-02 00:00:00,PRATE,surface,-94.6879,26.929,3.94e-05
2012-08-02 00:00:00,2012-08-02 00:00:00,PRATE,surface,-93.7504,26.929,3.34e-05
2012-08-02 00:00:00,2012-08-02 00:00:00,PRATE,surface,-92.8129,26.929,3.43e-05
2012-08-02 00:00:00,2012-08-02 00:00:00,PRATE,surface,-107.813,27.8739,3.72e-05
2012-08-02 00:00:00,2012-08-02 00:00:00,PRATE,surface,-106.875,27.8739,1.24e-05
2012-08-02 00:00:00,2012-08-02 00:00:00,PRATE,surface,-105.938,27.8739,2.4e-06
2012-08-02 00:00:00,2012-08-02 00:00:00,PRATE,surface,-105,27.8739,8e-07
2012-08-02 00:00:00,2012-08-02 00:00:00,PRATE,surface,-104.063,27.8739,2.7e-06
2012-08-02 00:00:00,2012-08-02 00:00:00,PRATE,surface,-103.125,27.8739,1.31e-05
2012-08-02 00:00:00,2012-08-02 00:00:00,PRATE,surface,-102.188,27.8739,1.91e-05
2012-08-02 00:00:00,2012-08-02 00:00:00,PRATE,surface,-101.25,27.8739,1.6e-05
2012-08-02 00:00:00,2012-08-02 00:00:00,PRATE,surface,-100.313,27.8739,1.73e-05
2012-08-02 00:00:00,2012-08-02 00:00:00,PRATE,surface,-99.3754,27.8739,2.13e-05
2012-08-02 00:00:00,2012-08-02 00:00:00,PRATE,surface,-98.4379,27.8739,2.76e-05
2012-08-02 00:00:00,2012-08-02 00:00:00,PRATE,surface,-97.5004,27.8739,3.38e-05
2012-08-02 00:00:00,2012-08-02 00:00:00,PRATE,surface,-96.5629,27.8739,3.82e-05
2012-08-02 00:00:00,2012-08-02 00:00:00,PRATE,surface,-95.6254,27.8739,4.39e-05
2012-08-02 00:00:00,2012-08-02 00:00:00,PRATE,surface,-94.6879,27.8739,5.15e-05
2012-08-02 00:00:00,2012-08-02 00:00:00,PRATE,surface,-93.7504,27.8739,5.33e-05
2012-08-02 00:00:00,2012-08-02 00:00:00,PRATE,surface,-92.8129,27.8739,4.66e-05
2012-08-02 00:00:00,2012-08-02 00:00:00,PRATE,surface,-107.813,28.8188,2.9e-05
2012-08-02 00:00:00,2012-08-02 00:00:00,PRATE,surface,-106.875,28.8188,8.9e-06
2012-08-02 00:00:00,2012-08-02 00:00:00,PRATE,surface,-105.938,28.8188,2.3e-06
2012-08-02 00:00:00,2012-08-02 00:00:00,PRATE,surface,-105,28.8188,1.4e-06
2012-08-02 00:00:00,2012-08-02 00:00:00,PRATE,surface,-104.063,28.8188,7.1e-06
2012-08-02 00:00:00,2012-08-02 00:00:00,PRATE,surface,-103.125,28.8188,1.59e-05
2012-08-02 00:00:00,2012-08-02 00:00:00,PRATE,surface,-102.188,28.8188,2.09e-05
2012-08-02 00:00:00,2012-08-02 00:00:00,PRATE,surface,-101.25,28.8188,2.34e-05
2012-08-02 00:00:00,2012-08-02 00:00:00,PRATE,surface,-100.313,28.8188,2.51e-05
2012-08-02 00:00:00,2012-08-02 00:00:00,PRATE,surface,-99.3754,28.8188,3.25e-05
2012-08-02 00:00:00,2012-08-02 00:00:00,PRATE,surface,-98.4379,28.8188,4.16e-05
2012-08-02 00:00:00,2012-08-02 00:00:00,PRATE,surface,-97.5004,28.8188,4.48e-05
2012-08-02 00:00:00,2012-08-02 00:00:00,PRATE,surface,-96.5629,28.8188,4.5e-05
2012-08-02 00:00:00,2012-08-02 00:00:00,PRATE,surface,-95.6254,28.8188,5.01e-05
2012-08-02 00:00:00,2012-08-02 00:00:00,PRATE,surface,-94.6879,28.8188,6.01e-05
2012-08-02 00:00:00,2012-08-02 00:00:00,PRATE,surface,-93.7504,28.8188,6.85e-05
2012-08-02 00:00:00,2012-08-02 00:00:00,PRATE,surface,-92.8129,28.8188,6.93e-05
2012-08-02 00:00:00,2012-08-02 00:00:00,PRATE,surface,-107.813,29.7637,1.41e-05
2012-08-02 00:00:00,2012-08-02 00:00:00,PRATE,surface,-106.875,29.7637,7.1e-06
2012-08-02 00:00:00,2012-08-02 00:00:00,PRATE,surface,-105.938,29.7637,4.2e-06
2012-08-02 00:00:00,2012-08-02 00:00:00,PRATE,surface,-105,29.7637,7.4e-06
2012-08-02 00:00:00,2012-08-02 00:00:00,PRATE,surface,-104.063,29.7637,1.05e-05
2012-08-02 00:00:00,2012-08-02 00:00:00,PRATE,surface,-103.125,29.7637,1.14e-05
2012-08-02 00:00:00,2012-08-02 00:00:00,PRATE,surface,-102.188,29.7637,1.4e-05
2012-08-02 00:00:00,2012-08-02 00:00:00,PRATE,surface,-101.25,29.7637,2.29e-05
2012-08-02 00:00:00,2012-08-02 00:00:00,PRATE,surface,-100.313,29.7637,3.58e-05
2012-08-02 00:00:00,2012-08-02 00:00:00,PRATE,surface,-99.3754,29.7637,4.76e-05
2012-08-02 00:00:00,2012-08-02 00:00:00,PRATE,surface,-98.4379,29.7637,5.6e-05
2012-08-02 00:00:00,2012-08-02 00:00:00,PRATE,surface,-97.5004,29.7637,5.96e-05
2012-08-02 00:00:00,2012-08-02 00:00:00,PRATE,surface,-96.5629,29.7637,6e-05
2012-08-02 00:00:00,2012-08-02 00:00:00,PRATE,surface,-95.6254,29.7637,6.2e-05
2012-08-02 00:00:00,2012-08-02 00:00:00,PRATE,surface,-94.6879,29.7637,7.01e-05
2012-08-02 00:00:00,2012-08-02 00:00:00,PRATE,surface,-93.7504,29.7637,8.16e-05
2012-08-02 00:00:00,2012-08-02 00:00:00,PRATE,surface,-92.8129,29.7637,8.51e-05
2012-08-02 00:00:00,2012-08-02 00:00:00,PRATE,surface,-107.813,30.7085,4e-06
2012-08-02 00:00:00,2012-08-02 00:00:00,PRATE,surface,-106.875,30.7085,4.7e-06
2012-08-02 00:00:00,2012-08-02 00:00:00,PRATE,surface,-105.938,30.7085,7.9e-06
2012-08-02 00:00:00,2012-08-02 00:00:00,PRATE,surface,-105,30.7085,1.16e-05
2012-08-02 00:00:00,2012-08-02 00:00:00,PRATE,surface,-104.063,30.7085,1.05e-05
2012-08-02 00:00:00,2012-08-02 00:00:00,PRATE,surface,-103.125,30.7085,1.12e-05
2012-08-02 00:00:00,2012-08-02 00:00:00,PRATE,surface,-102.188,30.7085,1.19e-05
2012-08-02 00:00:00,2012-08-02 00:00:00,PRATE,surface,-101.25,30.7085,2.37e-05
2012-08-02 00:00:00,2012-08-02 00:00:00,PRATE,surface,-100.313,30.7085,4.53e-05
2012-08-02 00:00:00,2012-08-02 00:00:00,PRATE,surface,-99.3754,30.7085,6.09e-05
2012-08-02 00:00:00,2012-08-02 00:00:00,PRATE,surface,-98.4379,30.7085,6.31e-05
2012-08-02 00:00:00,2012-08-02 00:00:00,PRATE,surface,-97.5004,30.7085,6.4e-05
2012-08-02 00:00:00,2012-08-02 00:00:00,PRATE,surface,-96.5629,30.7085,6.63e-05
2012-08-02 00:00:00,2012-08-02 00:00:00,PRATE,surface,-95.6254,30.7085,6.67e-05
2012-08-02 00:00:00,2012-08-02 00:00:00,PRATE,surface,-94.6879,30.7085,6.86e-05
2012-08-02 00:00:00,2012-08-02 00:00:00,PRATE,surface,-93.7504,30.7085,7.15e-05
2012-08-02 00:00:00,2012-08-02 00:00:00,PRATE,surface,-92.8129,30.7085,7.54e-05
2012-08-02 00:00:00,2012-08-02 00:00:00,PRATE,surface,-107.813,31.6534,2.9e-06
2012-08-02 00:00:00,2012-08-02 00:00:00,PRATE,surface,-106.875,31.6534,3.5e-06
2012-08-02 00:00:00,2012-08-02 00:00:00,PRATE,surface,-105.938,31.6534,7.3e-06
2012-08-02 00:00:00,2012-08-02 00:00:00,PRATE,surface,-105,31.6534,8.8e-06
2012-08-02 00:00:00,2012-08-02 00:00:00,PRATE,surface,-104.063,31.6534,9.4e-06
2012-08-02 00:00:00,2012-08-02 00:00:00,PRATE,surface,-103.125,31.6534,9e-06
2012-08-02 00:00:00,2012-08-02 00:00:00,PRATE,surface,-102.188,31.6534,1.09e-05
2012-08-02 00:00:00,2012-08-02 00:00:00,PRATE,surface,-101.25,31.6534,1.89e-05
2012-08-02 00:00:00,2012-08-02 00:00:00,PRATE,surface,-100.313,31.6534,3.37e-05
2012-08-02 00:00:00,2012-08-02 00:00:00,PRATE,surface,-99.3754,31.6534,4.72e-05
2012-08-02 00:00:00,2012-08-02 00:00:00,PRATE,surface,-98.4379,31.6534,5.59e-05
2012-08-02 00:00:00,2012-08-02 00:00:00,PRATE,surface,-97.5004,31.6534,5.98e-05
2012-08-02 00:00:00,2012-08-02 00:00:00,PRATE,surface,-96.5629,31.6534,6.29e-05
2012-08-02 00:00:00,2012-08-02 00:00:00,PRATE,surface,-95.6254,31.6534,6.54e-05
2012-08-02 00:00:00,2012-08-02 00:00:00,PRATE,surface,-94.6879,31.6534,6.62e-05
2012-08-02 00:00:00,2012-08-02 00:00:00,PRATE,surface,-93.7504,31.6534,7.03e-05
2012-08-02 00:00:00,2012-08-02 00:00:00,PRATE,surface,-92.8129,31.6534,7.37e-05
2012-08-02 00:00:00,2012-08-02 00:00:00,PRATE,surface,-107.813,32.5983,5.1e-06
2012-08-02 00:00:00,2012-08-02 00:00:00,PRATE,surface,-106.875,32.5983,4.2e-06
2012-08-02 00:00:00,2012-08-02 00:00:00,PRATE,surface,-105.938,32.5983,5e-06
2012-08-02 00:00:00,2012-08-02 00:00:00,PRATE,surface,-105,32.5983,6.3e-06
2012-08-02 00:00:00,2012-08-02 00:00:00,PRATE,surface,-104.063,32.5983,7.5e-06
2012-08-02 00:00:00,2012-08-02 00:00:00,PRATE,surface,-103.125,32.5983,8.8e-06
2012-08-02 00:00:00,2012-08-02 00:00:00,PRATE,surface,-102.188,32.5983,9.1e-06
2012-08-02 00:00:00,2012-08-02 00:00:00,PRATE,surface,-101.25,32.5983,1.24e-05
2012-08-02 00:00:00,2012-08-02 00:00:00,PRATE,surface,-100.313,32.5983,1.93e-05
2012-08-02 00:00:00,2012-08-02 00:00:00,PRATE,surface,-99.3754,32.5983,2.88e-05
2012-08-02 00:00:00,2012-08-02 00:00:00,PRATE,surface,-98.4379,32.5983,4.16e-05
2012-08-02 00:00:00,2012-08-02 00:00:00,PRATE,surface,-97.5004,32.5983,5.56e-05
2012-08-02 00:00:00,2012-08-02 00:00:00,PRATE,surface,-96.5629,32.5983,6.91e-05
2012-08-02 00:00:00,2012-08-02 00:00:00,PRATE,surface,-95.6254,32.5983,7.4e-05
2012-08-02 00:00:00,2012-08-02 00:00:00,PRATE,surface,-94.6879,32.5983,6.88e-05
2012-08-02 00:00:00,2012-08-02 00:00:00,PRATE,surface,-93.7504,32.5983,6.88e-05
2012-08-02 00:00:00,2012-08-02 00:00:00,PRATE,surface,-92.8129,32.5983,6.77e-05
2012-08-02 00:00:00,2012-08-02 00:00:00,PRATE,surface,-107.813,33.5432,1.43e-05
2012-08-02 00:00:00,2012-08-02 00:00:00,PRATE,surface,-106.875,33.5432,7.6e-06
2012-08-02 00:00:00,2012-08-02 00:00:00,PRATE,surface,-105.938,33.5432,4.9e-06
2012-08-02 00:00:00,2012-08-02 00:00:00,PRATE,surface,-105,33.5432,4.3e-06
2012-08-02 00:00:00,2012-08-02 00:00:00,PRATE,surface,-104.063,33.5432,5.6e-06
2012-08-02 00:00:00,2012-08-02 00:00:00,PRATE,surface,-103.125,33.5432,7.8e-06
2012-08-02 00:00:00,2012-08-02 00:00:00,PRATE,surface,-102.188,33.5432,1.32e-05
2012-08-02 00:00:00,2012-08-02 00:00:00,PRATE,surface,-101.25,33.5432,1.46e-05
2012-08-02 00:00:00,2012-08-02 00:00:00,PRATE,surface,-100.313,33.5432,1.74e-05
2012-08-02 00:00:00,2012-08-02 00:00:00,PRATE,surface,-99.3754,33.5432,2.31e-05
2012-08-02 00:00:00,2012-08-02 00:00:00,PRATE,surface,-98.4379,33.5432,3.25e-05
2012-08-02 00:00:00,2012-08-02 00:00:00,PRATE,surface,-97.5004,33.5432,4.89e-05
2012-08-02 00:00:00,2012-08-02 00:00:00,PRATE,surface,-96.5629,33.5432,6.88e-05
2012-08-02 00:00:00,2012-08-02 00:00:00,PRATE,surface,-95.6254,33.5432,7.87e-05
2012-08-02 00:00:00,2012-08-02 00:00:00,PRATE,surface,-94.6879,33.5432,7.61e-05
2012-08-02 00:00:00,2012-08-02 00:00:00,PRATE,surface,-93.7504,33.5432,7.45e-05
2012-08-02 00:00:00,2012-08-02 00:00:00,PRATE,surface,-92.8129,33.5432,6.87e-05
2012-08-02 00:00:00,2012-08-02 00:00:00,PRATE,surface,-107.813,34.4881,2.15e-05
2012-08-02 00:00:00,2012-08-02 00:00:00,PRATE,surface,-106.875,34.4881,1.24e-05
2012-08-02 00:00:00,2012-08-02 00:00:00,PRATE,surface,-105.938,34.4881,7.3e-06
2012-08-02 00:00:00,2012-08-02 00:00:00,PRATE,surface,-105,34.4881,7.1e-06
2012-08-02 00:00:00,2012-08-02 00:00:00,PRATE,surface,-104.063,34.4881,6.9e-06
2012-08-02 00:00:00,2012-08-02 00:00:00,PRATE,surface,-103.125,34.4881,8.7e-06
2012-08-02 00:00:00,2012-08-02 00:00:00,PRATE,surface,-102.188,34.4881,1.54e-05
2012-08-02 00:00:00,2012-08-02 00:00:00,PRATE,surface,-101.25,34.4881,1.56e-05
2012-08-02 00:00:00,2012-08-02 00:00:00,PRATE,surface,-100.313,34.4881,1.94e-05
2012-08-02 00:00:00,2012-08-02 00:00:00,PRATE,surface,-99.3754,34.4881,2.62e-05
2012-08-02 00:00:00,2012-08-02 00:00:00,PRATE,surface,-98.4379,34.4881,3.35e-05
2012-08-02 00:00:00,2012-08-02 00:00:00,PRATE,surface,-97.5004,34.4881,4.81e-05
2012-08-02 00:00:00,2012-08-02 00:00:00,PRATE,surface,-96.5629,34.4881,6.53e-05
2012-08-02 00:00:00,2012-08-02 00:00:00,PRATE,surface,-95.6254,34.4881,7.35e-05
2012-08-02 00:00:00,2012-08-02 00:00:00,PRATE,surface,-94.6879,34.4881,7.24e-05
2012-08-02 00:00:00,2012-08-02 00:00:00,PRATE,surface,-93.7504,34.4881,6.59e-05
2012-08-02 00:00:00,2012-08-02 00:00:00,PRATE,surface,-92.8129,34.4881,5.59e-05
2012-08-02 00:00:00,2012-08-02 00:00:00,PRATE,surface,-107.813,35.4329,2.37e-05
2012-08-02 00:00:00,2012-08-02 00:00:00,PRATE,surface,-106.875,35.4329,1.85e-05
2012-08-02 00:00:00,2012-08-02 00:00:00,PRATE,surface,-105.938,35.4329,1.25e-05
2012-08-02 00:00:00,2012-08-02 00:00:00,PRATE,surface,-105,35.4329,1.25e-05
2012-08-02 00:00:00,2012-08-02 00:00:00,PRATE,surface,-104.063,35.4329,1.07e-05
2012-08-02 00:00:00,2012-08-02 00:00:00,PRATE,surface,-103.125,35.4329,1.2e-05
2012-08-02 00:00:00,2012-08-02 00:00:00,PRATE,surface,-102.188,35.4329,1.87e-05
2012-08-02 00:00:00,2012-08-02 00:00:00,PRATE,surface,-101.25,35.4329,2.19e-05
2012-08-02 00:00:00,2012-08-02 00:00:00,PRATE,surface,-100.313,35.4329,2.53e-05
2012-08-02 00:00:00,2012-08-02 00:00:00,PRATE,surface,-99.3754,35.4329,2.87e-05
2012-08-02 00:00:00,2012-08-02 00:00:00,PRATE,surface,-98.4379,35.4329,3.12e-05
2012-08-02 00:00:00,2012-08-02 00:00:00,PRATE,surface,-97.5004,35.4329,3.5e-05
2012-08-02 00:00:00,2012-08-02 00:00:00,PRATE,surface,-96.5629,35.4329,4.2e-05
2012-08-02 00:00:00,2012-08-02 00:00:00,PRATE,surface,-95.6254,35.4329,4.98e-05
2012-08-02 00:00:00,2012-08-02 00:00:00,PRATE,surface,-94.6879,35.4329,5.43e-05
2012-08-02 00:00:00,2012-08-02 00:00:00,PRATE,surface,-93.7504,35.4329,5.53e-05
2012-08-02 00:00:00,2012-08-02 00:00:00,PRATE,surface,-92.8129,35.4329,5.3e-05
2012-08-02 00:00:00,2012-08-02 00:00:00,PRATE,surface,-107.813,36.3778,2.93e-05
2012-08-02 00:00:00,2012-08-02 00:00:00,PRATE,surface,-106.875,36.3778,2.99e-05
2012-08-02 00:00:00,2012-08-02 00:00:00,PRATE,surface,-105.938,36.3778,2.43e-05
2012-08-02 00:00:00,2012-08-02 00:00:00,PRATE,surface,-105,36.3778,2.05e-05
2012-08-02 00:00:00,2012-08-02 00:00:00,PRATE,surface,-104.063,36.3778,1.79e-05
2012-08-02 00:00:00,2012-08-02 00:00:00,PRATE,surface,-103.125,36.3778,1.57e-05
2012-08-02 00:00:00,2012-08-02 00:00:00,PRATE,surface,-102.188,36.3778,1.96e-05
2012-08-02 00:00:00,2012-08-02 00:00:00,PRATE,surface,-101.25,36.3778,2.73e-05
2012-08-02 00:00:00,2012-08-02 00:00:00,PRATE,surface,-100.313,36.3778,2.73e-05
2012-08-02 00:00:00,2012-08-02 00:00:00,PRATE,surface,-99.3754,36.3778,2.49e-05
2012-08-02 00:00:00,2012-08-02 00:00:00,PRATE,surface,-98.4379,36.3778,2.29e-05
2012-08-02 00:00:00,2012-08-02 00:00:00,PRATE,surface,-97.5004,36.3778,2.25e-05
2012-08-02 00:00:00,2012-08-02 00:00:00,PRATE,surface,-96.5629,36.3778,2.45e-05
2012-08-02 00:00:00,2012-08-02 00:00:00,PRATE,surface,-95.6254,36.3778,2.98e-05
2012-08-02 00:00:00,2012-08-02 00:00:00,PRATE,surface,-94.6879,36.3778,3.76e-05
2012-08-02 00:00:00,2012-08-02 00:00:00,PRATE,surface,-93.7504,36.3778,4.19e-05
2012-08-02 00:00:00,2012-08-02 00:00:00,PRATE,surface,-92.8129,36.3778,4.27e-05
