2016-02-10 00:00:00,2016-02-10 00:00:00,TMP,surface,-107.813,25.0393,303.056
2016-02-10 00:00:00,2016-02-10 00:00:00,TMP,surface,-106.875,25.0393,295.518
2016-02-10 00:00:00,2016-02-10 00:00:00,TMP,surface,-105.938,25.0393,291.024
2016-02-10 00:00:00,2016-02-10 00:00:00,TMP,surface,-105,25.0393,288.632
2016-02-10 00:00:00,2016-02-10 00:00:00,TMP,surface,-104.063,25.0393,292.779
2016-02-10 00:00:00,2016-02-10 00:00:00,TMP,surface,-103.125,25.0393,296.246
2016-02-10 00:00:00,2016-02-10 00:00:00,TMP,surface,-102.188,25.0393,295.577
2016-02-10 00:00:00,2016-02-10 00:00:00,TMP,surface,-101.25,25.0393,292.843
2016-02-10 00:00:00,2016-02-10 00:00:00,TMP,surface,-100.313,25.0393,293.096
2016-02-10 00:00:00,2016-02-10 00:00:00,TMP,surface,-99.3754,25.0393,296.857
2016-02-10 00:00:00,2016-02-10 00:00:00,TMP,surface,-98.4379,25.0393,300.705
2016-02-10 00:00:00,2016-02-10 00:00:00,TMP,surface,-97.5004,25.0393,302.952
2016-02-10 00:00:00,2016-02-10 00:00:00,TMP,surface,-96.5629,25.0393,303.176
2016-02-10 00:00:00,2016-02-10 00:00:00,TMP,surface,-95.6254,25.0393,303.352
2016-02-10 00:00:00,2016-02-10 00:00:00,TMP,surface,-94.6879,25.0393,303.557
2016-02-10 00:00:00,2016-02-10 00:00:00,TMP,surface,-93.7504,25.0393,303.571
2016-02-10 00:00:00,2016-02-10 00:00:00,TMP,surface,-92.8129,25.0393,303.569
2016-02-10 00:00:00,2016-02-10 00:00:00,TMP,surface,-107.813,25.9842,297.702
2016-02-10 00:00:00,2016-02-10 00:00:00,TMP,surface,-106.875,25.9842,292.065
2016-02-10 00:00:00,2016-02-10 00:00:00,TMP,surface,-105.938,25.9842,289.456
2016-02-10 00:00:00,2016-02-10 00:00:00,TMP,surface,-105,25.9842,290.835
2016-02-10 00:00:00,2016-02-10 00:00:00,TMP,surface,-104.063,25.9842,296.217
2016-02-10 00:00:00,2016-02-10 00:00:00,TMP,surface,-103.125,25.9842,298.077
2016-02-10 00:00:00,2016-02-10 00:00:00,TMP,surface,-102.188,25.9842,296.72
2016-02-10 00:00:00,2016-02-10 00:00:00,TMP,surface,-101.25,25.9842,295.421
2016-02-10 00:00:00,2016-02-10 00:00:00,TMP,surface,-100.313,25.9842,296.259
2016-02-10 00:00:00,2016-02-10 00:00:00,TMP,surface,-99.3754,25.9842,299.945
2016-02-10 00:00:00,2016-02-10 00:00:00,TMP,surface,-98.4379,25.9842,301.886
2016-02-10 00:00:00,2016-02-10 00:00:00,TMP,surface,-97.5004,25.9842,301.304
2016-02-10 00:00:00,2016-02-10 00:00:00,TMP,surface,-96.5629,25.9842,302.56
2016-02-10 00:00:00,2016-02-10 00:00:00,TMP,surface,-95.6254,25.9842,302.864
2016-02-10 00:00:00,2016-02-10 00:00:00,TMP,surface,-94.6879,25.9842,303.003
2016-02-10 00:00:00,2016-02-10 00:00:00,TMP,surface,-93.7504,25.9842,303.085
2016-02-10 00:00:00,2016-02-10 00:00:00,TMP,surface,-92.8129,25.9842,303.184
2016-02-10 00:00:00,2016-02-10 00:00:00,TMP,surface,-107.813,26.929,293.017
2016-02-10 00:00:00,2016-02-10 00:00:00,TMP,surface,-106.875,26.929,290.088
2016-02-10 00:00:00,2016-02-10 00:00:00,TMP,surface,-105.938,26.929,290.779
2016-02-10 00:00:00,2016-02-10 00:00:00,TMP,surface,-105,26.929,294.816
2016-02-10 00:00:00,2016-02-10 00:00:00,TMP,surface,-104.063,26.929,297.806
2016-02-10 00:00:00,2016-02-10 00:00:00,TMP,surface,-103.125,26.929,296.734
2016-02-10 00:00:00,2016-02-10 00:00:00,TMP,surface,-102.188,26.929,295.843
2016-02-10 00:00:00,2016-02-10 00:00:00,TMP,surface,-101.25,26.929,296.55
2016-02-10 00:00:00,2016-02-10 00:00:00,TMP,surface,-100.313,26.929,298.809
2016-02-10 00:00:00,2016-02-10 00:00:00,TMP,surface,-99.3754,26.929,300.725
2016-02-10 00:00:00,2016-02-10 00:00:00,TMP,surface,-98.4379,26.929,300.395
2016-02-10 00:00:00,2016-02-10 00:00:00,TMP,surface,-97.5004,26.929,301.04
2016-02-10 00:00:00,2016-02-10 00:00:00,TMP,surface,-96.5629,26.929,301.883
2016-02-10 00:00:00,2016-02-10 00:00:00,TMP,surface,-95.6254,26.929,302.603
2016-02-10 00:00:00,2016-02-10 00:00:00,TMP,surface,-94.6879,26.929,302.745
2016-02-10 00:00:00,2016-02-10 00:00:00,TMP,surface,-93.7504,26.929,302.713
2016-02-10 00:00:00,2016-02-10 00:00:00,TMP,surface,-92.8129,26.929,302.758
2016-02-10 00:00:00,2016-02-10 00:00:00,TMP,surface,-107.813,27.8739,291.123
2016-02-10 00:00:00,2016-02-10 00:00:00,TMP,surface,-106.875,27.8739,289.672
2016-02-10 00:00:00,2016-02-10 00:00:00,TMP,surface,-105.938,27.8739,292.865
2016-02-10 00:00:00,2016-02-10 00:00:00,TMP,surface,-105,27.8739,296.643
2016-02-10 00:00:00,2016-02-10 00:00:00,TMP,surface,-104.063,27.8739,297.208
2016-02-10 00:00:00,2016-02-10 00:00:00,TMP,surface,-103.125,27.8739,295.457
2016-02-10 00:00:00,2016-02-10 00:00:00,TMP,surface,-102.188,27.8739,294.757
2016-02-10 00:00:00,2016-02-10 00:00:00,TMP,surface,-101.25,27.8739,296.733
2016-02-10 00:00:00,2016-02-10 00:00:00,TMP,surface,-100.313,27.8739,299.035
2016-02-10 00:00:00,2016-02-10 00:00:00,TMP,surface,-99.3754,27.8739,299.561
2016-02-10 00:00:00,2016-02-10 00:00:00,TMP,surface,-98.4379,27.8739,299.072
2016-02-10 00:00:00,2016-02-10 00:00:00,TMP,surface,-97.5004,27.8739,300.155
2016-02-10 00:00:00,2016-02-10 00:00:00,TMP,surface,-96.5629,27.8739,301.704
2016-02-10 00:00:00,2016-02-10 00:00:00,TMP,surface,-95.6254,27.8739,301.989
2016-02-10 00:00:00,2016-02-10 00:00:00,TMP,surface,-94.6879,27.8739,302.097
2016-02-10 00:00:00,2016-02-10 00:00:00,TMP,surface,-93.7504,27.8739,302.161
2016-02-10 00:00:00,2016-02-10 00:00:00,TMP,surface,-92.8129,27.8739,302.219
2016-02-10 00:00:00,2016-02-10 00:00:00,TMP,surface,-107.813,28.8188,289.974
2016-02-10 00:00:00,2016-02-10 00:00:00,TMP,surface,-106.875,28.8188,290.664
2016-02-10 00:00:00,2016-02-10 00:00:00,TMP,surface,-105.938,28.8188,294.87
2016-02-10 00:00:00,2016-02-10 00:00:00,TMP,surface,-105,28.8188,297.422
2016-02-10 00:00:00,2016-02-10 00:00:00,TMP,surface,-104.063,28.8188,296.403
2016-02-10 00:00:00,2016-02-10 00:00:00,TMP,surface,-103.125,28.8188,295.07
2016-02-10 00:00:00,2016-02-10 00:00:00,TMP,surface,-102.188,28.8188,295.065
2016-02-10 00:00:00,2016-02-10 00:00:00,TMP,surface,-101.25,28.8188,296.697
2016-02-10 00:00:00,2016-02-10 00:00:00,TMP,surface,-100.313,28.8188,297.605
2016-02-10 00:00:00,2016-02-10 00:00:00,TMP,surface,-99.3754,28.8188,297.237
2016-02-10 00:00:00,2016-02-10 00:00:00,TMP,surface,-98.4379,28.8188,297.147
2016-02-10 00:00:00,2016-02-10 00:00:00,TMP,surface,-97.5004,28.8188,297.825
2016-02-10 00:00:00,2016-02-10 00:00:00,TMP,surface,-96.5629,28.8188,298.689
2016-02-10 00:00:00,2016-02-10 00:00:00,TMP,surface,-95.6254,28.8188,299.593
2016-02-10 00:00:00,2016-02-10 00:00:00,TMP,surface,-94.6879,28.8188,300.494
2016-02-10 00:00:00,2016-02-10 00:00:00,TMP,surface,-93.7504,28.8188,300.974
2016-02-10 00:00:00,2016-02-10 00:00:00,TMP,surface,-92.8129,28.8188,301.262
2016-02-10 00:00:00,2016-02-10 00:00:00,TMP,surface,-107.813,29.7637,292.755
2016-02-10 00:00:00,2016-02-10 00:00:00,TMP,surface,-106.875,29.7637,293.976
2016-02-10 00:00:00,2016-02-10 00:00:00,TMP,surface,-105.938,29.7637,296.373
2016-02-10 00:00:00,2016-02-10 00:00:00,TMP,surface,-105,29.7637,297.046
2016-02-10 00:00:00,2016-02-10 00:00:00,TMP,surface,-104.063,29.7637,296.531
2016-02-10 00:00:00,2016-02-10 00:00:00,TMP,surface,-103.125,29.7637,296.435
2016-02-10 00:00:00,2016-02-10 00:00:00,TMP,surface,-102.188,29.7637,297.101
2016-02-10 00:00:00,2016-02-10 00:00:00,TMP,surface,-101.25,29.7637,297.126
2016-02-10 00:00:00,2016-02-10 00:00:00,TMP,surface,-100.313,29.7637,296.008
2016-02-10 00:00:00,2016-02-10 00:00:00,TMP,surface,-99.3754,29.7637,295.158
2016-02-10 00:00:00,2016-02-10 00:00:00,TMP,surface,-98.4379,29.7637,295.605
2016-02-10 00:00:00,2016-02-10 00:00:00,TMP,surface,-97.5004,29.7637,296.873
2016-02-10 00:00:00,2016-02-10 00:00:00,TMP,surface,-96.5629,29.7637,297.88
2016-02-10 00:00:00,2016-02-10 00:00:00,TMP,surface,-95.6254,29.7637,298.241
2016-02-10 00:00:00,2016-02-10 00:00:00,TMP,surface,-94.6879,29.7637,298.917
2016-02-10 00:00:00,2016-02-10 00:00:00,TMP,surface,-93.7504,29.7637,299.976
2016-02-10 00:00:00,2016-02-10 00:00:00,TMP,surface,-92.8129,29.7637,298.971
2016-02-10 00:00:00,2016-02-10 00:00:00,TMP,surface,-107.813,30.7085,296.461
2016-02-10 00:00:00,2016-02-10 00:00:00,TMP,surface,-106.875,30.7085,297.662
2016-02-10 00:00:00,2016-02-10 00:00:00,TMP,surface,-105.938,30.7085,297.414
2016-02-10 00:00:00,2016-02-10 00:00:00,TMP,surface,-105,30.7085,296.617
2016-02-10 00:00:00,2016-02-10 00:00:00,TMP,surface,-104.063,30.7085,295.725
2016-02-10 00:00:00,2016-02-10 00:00:00,TMP,surface,-103.125,30.7085,296.857
2016-02-10 00:00:00,2016-02-10 00:00:00,TMP,surface,-102.188,30.7085,297.638
2016-02-10 00:00:00,2016-02-10 00:00:00,TMP,surface,-101.25,30.7085,296.824
2016-02-10 00:00:00,2016-02-10 00:00:00,TMP,surface,-100.313,30.7085,295.521
2016-02-10 00:00:00,2016-02-10 00:00:00,TMP,surface,-99.3754,30.7085,294.773
2016-02-10 00:00:00,2016-02-10 00:00:00,TMP,surface,-98.4379,30.7085,295.341
2016-02-10 00:00:00,2016-02-10 00:00:00,TMP,surface,-97.5004,30.7085,296.713
2016-02-10 00:00:00,2016-02-10 00:00:00,TMP,surface,-96.5629,30.7085,297.55
2016-02-10 00:00:00,2016-02-10 00:00:00,TMP,surface,-95.6254,30.7085,297.539
2016-02-10 00:00:00,2016-02-10 00:00:00,TMP,surface,-94.6879,30.7085,297.416
2016-02-10 00:00:00,2016-02-10 00:00:00,TMP,surface,-93.7504,30.7085,297.392
2016-02-10 00:00:00,2016-02-10 00:00:00,TMP,surface,-92.8129,30.7085,297.371
2016-02-10 00:00:00,2016-02-10 00:00:00,TMP,surface,-107.813,31.6534,297.832
2016-02-10 00:00:00,2016-02-10 00:00:00,TMP,surface,-106.875,31.6534,298.291
2016-02-10 00:00:00,2016-02-10 00:00:00,TMP,surface,-105.938,31.6534,296.854
2016-02-10 00:00:00,2016-02-10 00:00:00,TMP,surface,-105,31.6534,295.875
2016-02-10 00:00:00,2016-02-10 00:00:00,TMP,surface,-104.063,31.6534,295.955
2016-02-10 00:00:00,2016-02-10 00:00:00,TMP,surface,-103.125,31.6534,296.771
2016-02-10 00:00:00,2016-02-10 00:00:00,TMP,surface,-102.188,31.6534,297.112
2016-02-10 00:00:00,2016-02-10 00:00:00,TMP,surface,-101.25,31.6534,296.521
2016-02-10 00:00:00,2016-02-10 00:00:00,TMP,surface,-100.313,31.6534,296.024
2016-02-10 00:00:00,2016-02-10 00:00:00,TMP,surface,-99.3754,31.6534,295.825
2016-02-10 00:00:00,2016-02-10 00:00:00,TMP,surface,-98.4379,31.6534,296.283
2016-02-10 00:00:00,2016-02-10 00:00:00,TMP,surface,-97.5004,31.6534,297.166
2016-02-10 00:00:00,2016-02-10 00:00:00,TMP,surface,-96.5629,31.6534,297.584
2016-02-10 00:00:00,2016-02-10 00:00:00,TMP,surface,-95.6254,31.6534,297.366
2016-02-10 00:00:00,2016-02-10 00:00:00,TMP,surface,-94.6879,31.6534,296.984
2016-02-10 00:00:00,2016-02-10 00:00:00,TMP,surface,-93.7504,31.6534,296.557
2016-02-10 00:00:00,2016-02-10 00:00:00,TMP,surface,-92.8129,31.6534,296.502
2016-02-10 00:00:00,2016-02-10 00:00:00,TMP,surface,-107.813,32.5983,294.377
2016-02-10 00:00:00,2016-02-10 00:00:00,TMP,surface,-106.875,32.5983,294.629
2016-02-10 00:00:00,2016-02-10 00:00:00,TMP,surface,-105.938,32.5983,294.624
2016-02-10 00:00:00,2016-02-10 00:00:00,TMP,surface,-105,32.5983,294.385
2016-02-10 00:00:00,2016-02-10 00:00:00,TMP,surface,-104.063,32.5983,295.321
2016-02-10 00:00:00,2016-02-10 00:00:00,TMP,surface,-103.125,32.5983,295.971
2016-02-10 00:00:00,2016-02-10 00:00:00,TMP,surface,-102.188,32.5983,295.981
2016-02-10 00:00:00,2016-02-10 00:00:00,TMP,surface,-101.25,32.5983,296.046
2016-02-10 00:00:00,2016-02-10 00:00:00,TMP,surface,-100.313,32.5983,296.638
2016-02-10 00:00:00,2016-02-10 00:00:00,TMP,surface,-99.3754,32.5983,297.323
2016-02-10 00:00:00,2016-02-10 00:00:00,TMP,surface,-98.4379,32.5983,297.504
2016-02-10 00:00:00,2016-02-10 00:00:00,TMP,surface,-97.5004,32.5983,297.533
2016-02-10 00:00:00,2016-02-10 00:00:00,TMP,surface,-96.5629,32.5983,297.601
2016-02-10 00:00:00,2016-02-10 00:00:00,TMP,surface,-95.6254,32.5983,297.417
2016-02-10 00:00:00,2016-02-10 00:00:00,TMP,surface,-94.6879,32.5983,296.893
2016-02-10 00:00:00,2016-02-10 00:00:00,TMP,surface,-93.7504,32.5983,296.328
2016-02-10 00:00:00,2016-02-10 00:00:00,TMP,surface,-92.8129,32.5983,296.435
2016-02-10 00:00:00,2016-02-10 00:00:00,TMP,surface,-107.813,33.5432,289.689
2016-02-10 00:00:00,2016-02-10 00:00:00,TMP,surface,-106.875,33.5432,290.963
2016-02-10 00:00:00,2016-02-10 00:00:00,TMP,surface,-105.938,33.5432,291.784
2016-02-10 00:00:00,2016-02-10 00:00:00,TMP,surface,-105,33.5432,292.891
2016-02-10 00:00:00,2016-02-10 00:00:00,TMP,surface,-104.063,33.5432,294.579
2016-02-10 00:00:00,2016-02-10 00:00:00,TMP,surface,-103.125,33.5432,294.909
2016-02-10 00:00:00,2016-02-10 00:00:00,TMP,surface,-102.188,33.5432,294.944
2016-02-10 00:00:00,2016-02-10 00:00:00,TMP,surface,-101.25,33.5432,295.6
2016-02-10 00:00:00,2016-02-10 00:00:00,TMP,surface,-100.313,33.5432,296.717
2016-02-10 00:00:00,2016-02-10 00:00:00,TMP,surface,-99.3754,33.5432,297.757
2016-02-10 00:00:00,2016-02-10 00:00:00,TMP,surface,-98.4379,33.5432,297.92
2016-02-10 00:00:00,2016-02-10 00:00:00,TMP,surface,-97.5004,33.5432,297.51
2016-02-10 00:00:00,2016-02-10 00:00:00,TMP,surface,-96.5629,33.5432,297.237
2016-02-10 00:00:00,2016-02-10 00:00:00,TMP,surface,-95.6254,33.5432,296.989
2016-02-10 00:00:00,2016-02-10 00:00:00,TMP,surface,-94.6879,33.5432,296.481
2016-02-10 00:00:00,2016-02-10 00:00:00,TMP,surface,-93.7504,33.5432,296.128
2016-02-10 00:00:00,2016-02-10 00:00:00,TMP,surface,-92.8129,33.5432,296.149
2016-02-10 00:00:00,2016-02-10 00:00:00,TMP,surface,-107.813,34.4881,288.544
2016-02-10 00:00:00,2016-02-10 00:00:00,TMP,surface,-106.875,34.4881,290.085
2016-02-10 00:00:00,2016-02-10 00:00:00,TMP,surface,-105.938,34.4881,290.894
2016-02-10 00:00:00,2016-02-10 00:00:00,TMP,surface,-105,34.4881,292.269
2016-02-10 00:00:00,2016-02-10 00:00:00,TMP,surface,-104.063,34.4881,293.233
2016-02-10 00:00:00,2016-02-10 00:00:00,TMP,surface,-103.125,34.4881,293.897
2016-02-10 00:00:00,2016-02-10 00:00:00,TMP,surface,-102.188,34.4881,294.344
2016-02-10 00:00:00,2016-02-10 00:00:00,TMP,surface,-101.25,34.4881,294.768
2016-02-10 00:00:00,2016-02-10 00:00:00,TMP,surface,-100.313,34.4881,295.773
2016-02-10 00:00:00,2016-02-10 00:00:00,TMP,surface,-99.3754,34.4881,296.675
2016-02-10 00:00:00,2016-02-10 00:00:00,TMP,surface,-98.4379,34.4881,296.989
2016-02-10 00:00:00,2016-02-10 00:00:00,TMP,surface,-97.5004,34.4881,296.774
2016-02-10 00:00:00,2016-02-10 00:00:00,TMP,surface,-96.5629,34.4881,296.288
2016-02-10 00:00:00,2016-02-10 00:00:00,TMP,surface,-95.6254,34.4881,295.833
2016-02-10 00:00:00,2016-02-10 00:00:00,TMP,surface,-94.6879,34.4881,295.411
2016-02-10 00:00:00,2016-02-10 00:00:00,TMP,surface,-93.7504,34.4881,294.96
2016-02-10 00:00:00,2016-02-10 00:00:00,TMP,surface,-92.8129,34.4881,295.117
2016-02-10 00:00:00,2016-02-10 00:00:00,TMP,surface,-107.813,35.4329,290.185
2016-02-10 00:00:00,2016-02-10 00:00:00,TMP,surface,-106.875,35.4329,289.971
2016-02-10 00:00:00,2016-02-10 00:00:00,TMP,surface,-105.938,35.4329,289.581
2016-02-10 00:00:00,2016-02-10 00:00:00,TMP,surface,-105,35.4329,289.741
2016-02-10 00:00:00,2016-02-10 00:00:00,TMP,surface,-104.063,35.4329,291.989
2016-02-10 00:00:00,2016-02-10 00:00:00,TMP,surface,-103.125,35.4329,293.392
2016-02-10 00:00:00,2016-02-10 00:00:00,TMP,surface,-102.188,35.4329,293.651
2016-02-10 00:00:00,2016-02-10 00:00:00,TMP,surface,-101.25,35.4329,293.939
2016-02-10 00:00:00,2016-02-10 00:00:00,TMP,surface,-100.313,35.4329,294.387
2016-02-10 00:00:00,2016-02-10 00:00:00,TMP,surface,-99.3754,35.4329,294.995
2016-02-10 00:00:00,2016-02-10 00:00:00,TMP,surface,-98.4379,35.4329,295.389
2016-02-10 00:00:00,2016-02-10 00:00:00,TMP,surface,-97.5004,35.4329,295.678
2016-02-10 00:00:00,2016-02-10 00:00:00,TMP,surface,-96.5629,35.4329,295.877
2016-02-10 00:00:00,2016-02-10 00:00:00,TMP,surface,-95.6254,35.4329,295.667
2016-02-10 00:00:00,2016-02-10 00:00:00,TMP,surface,-94.6879,35.4329,295.041
2016-02-10 00:00:00,2016-02-10 00:00:00,TMP,surface,-93.7504,35.4329,294.261
2016-02-10 00:00:00,2016-02-10 00:00:00,TMP,surface,-92.8129,35.4329,293.686
2016-02-10 00:00:00,2016-02-10 00:00:00,TMP,surface,-107.813,36.3778,290.097
2016-02-10 00:00:00,2016-02-10 00:00:00,TMP,surface,-106.875,36.3778,287.201
2016-02-10 00:00:00,2016-02-10 00:00:00,TMP,surface,-105.938,36.3778,286.883
2016-02-10 00:00:00,2016-02-10 00:00:00,TMP,surface,-105,36.3778,287.288
2016-02-10 00:00:00,2016-02-10 00:00:00,TMP,surface,-104.063,36.3778,290.022
2016-02-10 00:00:00,2016-02-10 00:00:00,TMP,surface,-103.125,36.3778,292.117
2016-02-10 00:00:00,2016-02-10 00:00:00,TMP,surface,-102.188,36.3778,293.006
2016-02-10 00:00:00,2016-02-10 00:00:00,TMP,surface,-101.25,36.3778,293.184
2016-02-10 00:00:00,2016-02-10 00:00:00,TMP,surface,-100.313,36.3778,293.272
2016-02-10 00:00:00,2016-02-10 00:00:00,TMP,surface,-99.3754,36.3778,293.613
2016-02-10 00:00:00,2016-02-10 00:00:00,TMP,surface,-98.4379,36.3778,294.133
2016-02-10 00:00:00,2016-02-10 00:00:00,TMP,surface,-97.5004,36.3778,294.67
2016-02-10 00:00:00,2016-02-10 00:00:00,TMP,surface,-96.5629,36.3778,295.054
2016-02-10 00:00:00,2016-02-10 00:00:00,TMP,surface,-95.6254,36.3778,294.904
2016-02-10 00:00:00,2016-02-10 00:00:00,TMP,surface,-94.6879,36.3778,294.046
2016-02-10 00:00:00,2016-02-10 00:00:00,TMP,surface,-93.7504,36.3778,293.088
2016-02-10 00:00:00,2016-02-10 00:00:00,TMP,surface,-92.8129,36.3778,292.659
2016-02-10 00:00:00,2016-02-10 00:00:00,PRATE,surface,-107.813,25.0393,9.4e-06
2016-02-10 00:00:00,2016-02-10 00:00:00,PRATE,surface,-106.875,25.0393,7.99e-05
2016-02-10 00:00:00,2016-02-10 00:00:00,PRATE,surface,-105.938,25.0393,9.72e-05
2016-02-10 00:00:00,2016-02-10 00:00:00,PRATE,surface,-105,25.0393,6.62e-05
2016-02-10 00:00:00,2016-02-10 00:00:00,PRATE,surface,-104.063,25.0393,2.56e-05
2016-02-10 00:00:00,2016-02-10 00:00:00,PRATE,surface,-103.125,25.0393,6.4e-06
2016-02-10 00:00:00,2016-02-10 00:00:00,PRATE,surface,-102.188,25.0393,9.3e-06
2016-02-10 00:00:00,2016-02-10 00:00:00,PRATE,surface,-101.25,25.0393,2.44e-05
2016-02-10 00:00:00,2016-02-10 00:00:00,PRATE,surface,-100.313,25.0393,3.38e-05
2016-02-10 00:00:00,2016-02-10 00:00:00,PRATE,surface,-99.3754,25.0393,1.18e-05
2016-02-10 00:00:00,2016-02-10 00:00:00,PRATE,surface,-98.4379,25.0393,6.3e-06
2016-02-10 00:00:00,2016-02-10 00:00:00,PRATE,surface,-97.5004,25.0393,2.29e-05
2016-02-10 00:00:00,2016-02-10 00:00:00,PRATE,surface,-96.5629,25.0393,3.59e-05
2016-02-10 00:00:00,2016-02-10 00:00:00,PRATE,surface,-95.6254,25.0393,4.53e-05
2016-02-10 00:00:00,2016-02-10 00:00:00,PRATE,surface,-94.6879,25.0393,3.84e-05
2016-02-10 00:00:00,2016-02-10 00:00:00,PRATE,surface,-93.7504,25.0393,6.08e-05
2016-02-10 00:00:00,2016-02-10 00:00:00,PRATE,surface,-92.8129,25.0393,8.3e-05
2016-02-10 00:00:00,2016-02-10 00:00:00,PRATE,surface,-107.813,25.9842,3.86e-05
2016-02-10 00:00:00,2016-02-10 00:00:00,PRATE,surface,-106.875,25.9842,9.6e-05
2016-02-10 00:00:00,2016-02-10 00:00:00,PRATE,surface,-105.938,25.9842,6.06e-05
2016-02-10 00:00:00,2016-02-10 00:00:00,PRATE,surface,-105,25.9842,4.63e-05
2016-02-10 00:00:00,2016-02-10 00:00:00,PRATE,surface,-104.063,25.9842,1.06e-05
2016-02-10 00:00:00,2016-02-10 00:00:00,PRATE,surface,-103.125,25.9842,9.3e-06
2016-02-10 00:00:00,2016-02-10 00:00:00,PRATE,surface,-102.188,25.9842,1.17e-05
2016-02-10 00:00:00,2016-02-10 00:00:00,PRATE,surface,-101.25,25.9842,3.02e-05
2016-02-10 00:00:00,2016-02-10 00:00:00,PRATE,surface,-100.313,25.9842,3.34e-05
2016-02-10 00:00:00,2016-02-10 00:00:00,PRATE,surface,-99.3754,25.9842,1.17e-05
2016-02-10 00:00:00,2016-02-10 00:00:00,PRATE,surface,-98.4379,25.9842,5.6e-06
2016-02-10 00:00:00,2016-02-10 00:00:00,PRATE,surface,-97.5004,25.9842,3.84e-05
2016-02-10 00:00:00,2016-02-10 00:00:00,PRATE,surface,-96.5629,25.9842,4.73e-05
2016-02-10 00:00:00,2016-02-10 00:00:00,PRATE,surface,-95.6254,25.9842,5.71e-05
2016-02-10 00:00:00,2016-02-10 00:00:00,PRATE,surface,-94.6879,25.9842,5.65e-05
2016-02-10 00:00:00,2016-02-10 00:00:00,PRATE,surface,-93.7504,25.9842,6.03e-05
2016-02-10 00:00:00,2016-02-10 00:00:00,PRATE,surface,-92.8129,25.9842,7.96e-05
2016-02-10 00:00:00,2016-02-10 00:00:00,PRATE,surface,-107.813,26.929,7.25e-05
2016-02-10 00:00:00,2016-02-10 00:00:00,PRATE,surface,-106.875,26.929,7.56e-05
2016-02-10 00:00:00,2016-02-10 00:00:00,PRATE,surface,-105.938,26.929,4.83e-05
2016-02-10 00:00:00,2016-02-10 00:00:00,PRATE,surface,-105,26.929,1.43e-05
2016-02-10 00:00:00,2016-02-10 00:00:00,PRATE,surface,-104.063,26.929,1.35e-05
2016-02-10 00:00:00,2016-02-10 00:00:00,PRATE,surface,-103.125,26.929,3.48e-05
2016-02-10 00:00:00,2016-02-10 00:00:00,PRATE,surface,-102.188,26.929,3.21e-05
2016-02-10 00:00:00,2016-02-10 00:00:00,PRATE,surface,-101.25,26.929,3.7e-05
2016-02-10 00:00:00,2016-02-10 00:00:00,PRATE,surface,-100.313,26.929,2.54e-05
2016-02-10 00:00:00,2016-02-10 00:00:00,PRATE,surface,-99.3754,26.929,3.24e-05
2016-02-10 00:00:00,2016-02-10 00:00:00,PRATE,surface,-98.4379,26.929,4.89e-05
2016-02-10 00:00:00,2016-02-10 00:00:00,PRATE,surface,-97.5004,26.929,5.32e-05
2016-02-10 00:00:00,2016-02-10 00:00:00,PRATE,surface,-96.5629,26.929,6.36e-05
2016-02-10 00:00:00,2016-02-10 00:00:00,PRATE,surface,-95.6254,26.929,4.75e-05
2016-02-10 00:00:00,2016-02-10 00:00:00,PRATE,surface,-94.6879,26.929,5.58e-05
2016-02-10 00:00:00,2016-02-10 00:00:00,PRATE,surface,-93.7504,26.929,6.3e-05
2016-02-10 00:00:00,2016-02-10 00:00:00,PRATE,surface,-92.8129,26.929,7.28e-05
2016-02-10 00:00:00,2016-02-10 00:00:00,PRATE,surface,-107.813,27.8739,8.55e-05
2016-02-10 00:00:00,2016-02-10 00:00:00,PRATE,surface,-106.875,27.8739,6.13e-05
2016-02-10 00:00:00,2016-02-10 00:00:00,PRATE,surface,-105.938,27.8739,2.93e-05
2016-02-10 00:00:00,2016-02-10 00:00:00,PRATE,surface,-105,27.8739,9.6e-06
2016-02-10 00:00:00,2016-02-10 00:00:00,PRATE,surface,-104.063,27.8739,1.66e-05
2016-02-10 00:00:00,2016-02-10 00:00:00,PRATE,surface,-103.125,27.8739,3.47e-05
2016-02-10 00:00:00,2016-02-10 00:00:00,PRATE,surface,-102.188,27.8739,5.6e-05
2016-02-10 00:00:00,2016-02-10 00:00:00,PRATE,surface,-101.25,27.8739,3.45e-05
2016-02-10 00:00:00,2016-02-10 00:00:00,PRATE,surface,-100.313,27.8739,2.77e-05
2016-02-10 00:00:00,2016-02-10 00:00:00,PRATE,surface,-99.3754,27.8739,4.85e-05
2016-02-10 00:00:00,2016-02-10 00:00:00,PRATE,surface,-98.4379,27.8739,7.38e-05
2016-02-10 00:00:00,2016-02-10 00:00:00,PRATE,surface,-97.5004,27.8739,6.98e-05
2016-02-10 00:00:00,2016-02-10 00:00:00,PRATE,surface,-96.5629,27.8739,5.25e-05
2016-02-10 00:00:00,2016-02-10 00:00:00,PRATE,surface,-95.6254,27.8739,4.66e-05
2016-02-10 00:00:00,2016-02-10 00:00:00,PRATE,surface,-94.6879,27.8739,5.3e-05
2016-02-10 00:00:00,2016-02-10 00:00:00,PRATE,surface,-93.7504,27.8739,7.56e-05
2016-02-10 00:00:00,2016-02-10 00:00:00,PRATE,surface,-92.8129,27.8739,7.81e-05
2016-02-10 00:00:00,2016-02-10 00:00:00,PRATE,surface,-107.813,28.8188,0.0001028
2016-02-10 00:00:00,2016-02-10 00:00:00,PRATE,surface,-106.875,28.8188,5.95e-05
2016-02-10 00:00:00,2016-02-10 00:00:00,PRATE,surface,-105.938,28.8188,2.35e-05
2016-02-10 00:00:00,2016-02-10 00:00:00,PRATE,surface,-105,28.8188,1.66e-05
2016-02-10 00:00:00,2016-02-10 00:00:00,PRATE,surface,-104.063,28.8188,1.62e-05
2016-02-10 00:00:00,2016-02-10 00:00:00,PRATE,surface,-103.125,28.8188,2.13e-05
2016-02-10 00:00:00,2016-02-10 00:00:00,PRATE,surface,-102.188,28.8188,1.97e-05
2016-02-10 00:00:00,2016-02-10 00:00:00,PRATE,surface,-101.25,28.8188,2.01e-05
2016-02-10 00:00:00,2016-02-10 00:00:00,PRATE,surface,-100.313,28.8188,4.24e-05
2016-02-10 00:00:00,2016-02-10 00:00:00,PRATE,surface,-99.3754,28.8188,7.21e-05
2016-02-10 00:00:00,2016-02-10 00:00:00,PRATE,surface,-98.4379,28.8188,7.82e-05
2016-02-10 00:00:00,2016-02-10 00:00:00,PRATE,surface,-97.5004,28.8188,6.34e-05
2016-02-10 00:00:00,2016-02-10 00:00:00,PRATE,surface,-96.5629,28.8188,4.77e-05
2016-02-10 00:00:00,2016-02-10 00:00:00,PRATE,surface,-95.6254,28.8188,4.19e-05
2016-02-10 00:00:00,2016-02-10 00:00:00,PRATE,surface,-94.6879,28.8188,4.66e-05
2016-02-10 00:00:00,2016-02-10 00:00:00,PRATE,surface,-93.7504,28.8188,4.8e-05
2016-02-10 00:00:00,2016-02-10 00:00:00,PRATE,surface,-92.8129,28.8188,3.61e-05
2016-02-10 00:00:00,2016-02-10 00:00:00,PRATE,surface,-107.813,29.7637,7.51e-05
2016-02-10 00:00:00,2016-02-10 00:00:00,PRATE,surface,-106.875,29.7637,4.67e-05
2016-02-10 00:00:00,2016-02-10 00:00:00,PRATE,surface,-105.938,29.7637,2.45e-05
2016-02-10 00:00:00,2016-02-10 00:00:00,PRATE,surface,-105,29.7637,3.07e-05
2016-02-10 00:00:00,2016-02-10 00:00:00,PRATE,surface,-104.063,29.7637,2.26e-05
2016-02-10 00:00:00,2016-02-10 00:00:00,PRATE,surface,-103.125,29.7637,1.01e-05
2016-02-10 00:00:00,2016-02-10 00:00:00,PRATE,surface,-102.188,29.7637,4.4e-06
2016-02-10 00:00:00,2016-02-10 00:00:00,PRATE,surface,-101.25,29.7637,9.5e-06
2016-02-10 00:00:00,2016-02-10 00:00:00,PRATE,surface,-100.313,29.7637,2.36e-05
2016-02-10 00:00:00,2016-02-10 00:00:00,PRATE,surface,-99.3754,29.7637,3.05e-05
2016-02-10 00:00:00,2016-02-10 00:00:00,PRATE,surface,-98.4379,29.7637,3.34e-05
2016-02-10 00:00:00,2016-02-10 00:00:00,PRATE,surface,-97.5004,29.7637,3.18e-05
2016-02-10 00:00:00,2016-02-10 00:00:00,PRATE,surface,-96.5629,29.7637,3.21e-05
2016-02-10 00:00:00,2016-02-10 00:00:00,PRATE,surface,-95.6254,29.7637,4.02e-05
2016-02-10 00:00:00,2016-02-10 00:00:00,PRATE,surface,-94.6879,29.7637,4.42e-05
2016-02-10 00:00:00,2016-02-10 00:00:00,PRATE,surface,-93.7504,29.7637,4.26e-05
2016-02-10 00:00:00,2016-02-10 00:00:00,PRATE,surface,-92.8129,29.7637,4.96e-05
2016-02-10 00:00:00,2016-02-10 00:00:00,PRATE,surface,-107.813,30.7085,3.32e-05
2016-02-10 00:00:00,2016-02-10 00:00:00,PRATE,surface,-106.875,30.7085,2.64e-05
2016-02-10 00:00:00,2016-02-10 00:00:00,PRATE,surface,-105.938,30.7085,3.16e-05
2016-02-10 00:00:00,2016-02-10 00:00:00,PRATE,surface,-105,30.7085,3.04e-05
2016-02-10 00:00:00,2016-02-10 00:00:00,PRATE,surface,-104.063,30.7085,2.42e-05
2016-02-10 00:00:00,2016-02-10 00:00:00,PRATE,surface,-103.125,30.7085,9.2e-06
2016-02-10 00:00:00,2016-02-10 00:00:00,PRATE,surface,-102.188,30.7085,2.6e-06
2016-02-10 00:00:00,2016-02-10 00:00:00,PRATE,surface,-101.25,30.7085,1.12e-05
2016-02-10 00:00:00,2016-02-10 00:00:00,PRATE,surface,-100.313,30.7085,1.51e-05
2016-02-10 00:00:00,2016-02-10 00:00:00,PRATE,surface,-99.3754,30.7085,1.82e-05
2016-02-10 00:00:00,2016-02-10 00:00:00,PRATE,surface,-98.4379,30.7085,1.84e-05
2016-02-10 00:00:00,2016-02-10 00:00:00,PRATE,surface,-97.5004,30.7085,1.75e-05
2016-02-10 00:00:00,2016-02-10 00:00:00,PRATE,surface,-96.5629,30.7085,2.22e-05
2016-02-10 00:00:00,2016-02-10 00:00:00,PRATE,surface,-95.6254,30.7085,3.38e-05
2016-02-10 00:00:00,2016-02-10 00:00:00,PRATE,surface,-94.6879,30.7085,4.46e-05
2016-02-10 00:00:00,2016-02-10 00:00:00,PRATE,surface,-93.7504,30.7085,4.53e-05
2016-02-10 00:00:00,2016-02-10 00:00:00,PRATE,surface,-92.8129,30.7085,3.96e-05
2016-02-10 00:00:00,2016-02-10 00:00:00,PRATE,surface,-107.813,31.6534,1.67e-05
2016-02-10 00:00:00,2016-02-10 00:00:00,PRATE,surface,-106.875,31.6534,1.72e-05
2016-02-10 00:00:00,2016-02-10 00:00:00,PRATE,surface,-105.938,31.6534,2.21e-05
2016-02-10 00:00:00,2016-02-10 00:00:00,PRATE,surface,-105,31.6534,3.24e-05
2016-02-10 00:00:00,2016-02-10 00:00:00,PRATE,surface,-104.063,31.6534,2.98e-05
2016-02-10 00:00:00,2016-02-10 00:00:00,PRATE,surface,-103.125,31.6534,1.28e-05
2016-02-10 00:00:00,2016-02-10 00:00:00,PRATE,surface,-102.188,31.6534,7.9e-06
2016-02-10 00:00:00,2016-02-10 00:00:00,PRATE,surface,-101.25,31.6534,1.24e-05
2016-02-10 00:00:00,2016-02-10 00:00:00,PRATE,surface,-100.313,31.6534,1.31e-05
2016-02-10 00:00:00,2016-02-10 00:00:00,PRATE,surface,-99.3754,31.6534,1.43e-05
2016-02-10 00:00:00,2016-02-10 00:00:00,PRATE,surface,-98.4379,31.6534,1.66e-05
2016-02-10 00:00:00,2016-02-10 00:00:00,PRATE,surface,-97.5004,31.6534,1.82e-05
2016-02-10 00:00:00,2016-02-10 00:00:00,PRATE,surface,-96.5629,31.6534,1.94e-05
2016-02-10 00:00:00,2016-02-10 00:00:00,PRATE,surface,-95.6254,31.6534,2.46e-05
2016-02-10 00:00:00,2016-02-10 00:00:00,PRATE,surface,-94.6879,31.6534,3.59e-05
2016-02-10 00:00:00,2016-02-10 00:00:00,PRATE,surface,-93.7504,31.6534,4.59e-05
2016-02-10 00:00:00,2016-02-10 00:00:00,PRATE,surface,-92.8129,31.6534,5.07e-05
2016-02-10 00:00:00,2016-02-10 00:00:00,PRATE,surface,-107.813,32.5983,2.11e-05
2016-02-10 00:00:00,2016-02-10 00:00:00,PRATE,surface,-106.875,32.5983,2.32e-05
2016-02-10 00:00:00,2016-02-10 00:00:00,PRATE,surface,-105.938,32.5983,2.31e-05
2016-02-10 00:00:00,2016-02-10 00:00:00,PRATE,surface,-105,32.5983,3.26e-05
2016-02-10 00:00:00,2016-02-10 00:00:00,PRATE,surface,-104.063,32.5983,3.93e-05
2016-02-10 00:00:00,2016-02-10 00:00:00,PRATE,surface,-103.125,32.5983,2.67e-05
2016-02-10 00:00:00,2016-02-10 00:00:00,PRATE,surface,-102.188,32.5983,2.67e-05
2016-02-10 00:00:00,2016-02-10 00:00:00,PRATE,surface,-101.25,32.5983,2.72e-05
2016-02-10 00:00:00,2016-02-10 00:00:00,PRATE,surface,-100.313,32.5983,1.95e-05
2016-02-10 00:00:00,2016-02-10 00:00:00,PRATE,surface,-99.3754,32.5983,1.53e-05
2016-02-10 00:00:00,2016-02-10 00:00:00,PRATE,surface,-98.4379,32.5983,1.93e-05
2016-02-10 00:00:00,2016-02-10 00:00:00,PRATE,surface,-97.5004,32.5983,2.48e-05
2016-02-10 00:00:00,2016-02-10 00:00:00,PRATE,surface,-96.5629,32.5983,2.36e-05
2016-02-10 00:00:00,2016-02-10 00:00:00,PRATE,surface,-95.6254,32.5983,2.06e-05
2016-02-10 00:00:00,2016-02-10 00:00:00,PRATE,surface,-94.6879,32.5983,2.51e-05
2016-02-10 00:00:00,2016-02-10 00:00:00,PRATE,surface,-93.7504,32.5983,3.6e-05
2016-02-10 00:00:00,2016-02-10 00:00:00,PRATE,surface,-92.8129,32.5983,5.32e-05
2016-02-10 00:00:00,2016-02-10 00:00:00,PRATE,surface,-107.813,33.5432,5.61e-05
2016-02-10 00:00:00,2016-02-10 00:00:00,PRATE,surface,-106.875,33.5432,3.99e-05
2016-02-10 00:00:00,2016-02-10 00:00:00,PRATE,surface,-105.938,33.5432,2.68e-05
2016-02-10 00:00:00,2016-02-10 00:00:00,PRATE,surface,-105,33.5432,2.5e-05
2016-02-10 00:00:00,2016-02-10 00:00:00,PRATE,surface,-104.063,33.5432,3.17e-05
2016-02-10 00:00:00,2016-02-10 00:00:00,PRATE,surface,-103.125,33.5432,3.62e-05
2016-02-10 00:00:00,2016-02-10 00:00:00,PRATE,surface,-102.188,33.5432,3.7e-05
2016-02-10 00:00:00,2016-02-10 00:00:00,PRATE,surface,-101.25,33.5432,3.49e-05
2016-02-10 00:00:00,2016-02-10 00:00:00,PRATE,surface,-100.313,33.5432,2.71e-05
2016-02-10 00:00:00,2016-02-10 00:00:00,PRATE,surface,-99.3754,33.5432,2.31e-05
2016-02-10 00:00:00,2016-02-10 00:00:00,PRATE,surface,-98.4379,33.5432,2.53e-05
2016-02-10 00:00:00,2016-02-10 00:00:00,PRATE,surface,-97.5004,33.5432,3.33e-05
2016-02-10 00:00:00,2016-02-10 00:00:00,PRATE,surface,-96.5629,33.5432,3.68e-05
2016-02-10 00:00:00,2016-02-10 00:00:00,PRATE,surface,-95.6254,33.5432,3.54e-05
2016-02-10 00:00:00,2016-02-10 00:00:00,PRATE,surface,-94.6879,33.5432,3.83e-05
2016-02-10 00:00:00,2016-02-10 00:00:00,PRATE,surface,-93.7504,33.5432,3.64e-05
2016-02-10 00:00:00,2016-02-10 00:00:00,PRATE,surface,-92.8129,33.5432,3.13e-05
2016-02-10 00:00:00,2016-02-10 00:00:00,PRATE,surface,-107.813,34.4881,4.45e-05
2016-02-10 00:00:00,2016-02-10 00:00:00,PRATE,surface,-106.875,34.4881,2.75e-05
2016-02-10 00:00:00,2016-02-10 00:00:00,PRATE,surface,-105.938,34.4881,1.64e-05
2016-02-10 00:00:00,2016-02-10 00:00:00,PRATE,surface,-105,34.4881,1.59e-05
2016-02-10 00:00:00,2016-02-10 00:00:00,PRATE,surface,-104.063,34.4881,2.66e-05
2016-02-10 00:00:00,2016-02-10 00:00:00,PRATE,surface,-103.125,34.4881,2.91e-05
2016-02-10 00:00:00,2016-02-10 00:00:00,PRATE,surface,-102.188,34.4881,3.78e-05
2016-02-10 00:00:00,2016-02-10 00:00:00,PRATE,surface,-101.25,34.4881,3.96e-05
2016-02-10 00:00:00,2016-02-10 00:00:00,PRATE,surface,-100.313,34.4881,2.67e-05
2016-02-10 00:00:00,2016-02-10 00:00:00,PRATE,surface,-99.3754,34.4881,2.06e-05
2016-02-10 00:00:00,2016-02-10 00:00:00,PRATE,surface,-98.4379,34.4881,2.62e-05
2016-02-10 00:00:00,2016-02-10 00:00:00,PRATE,surface,-97.5004,34.4881,3.36e-05
2016-02-10 00:00:00,2016-02-10 00:00:00,PRATE,surface,-96.5629,34.4881,3.78e-05
2016-02-10 00:00:00,2016-02-10 00:00:00,PRATE,surface,-95.6254,34.4881,3.63e-05
2016-02-10 00:00:00,2016-02-10 00:00:00,PRATE,surface,-94.6879,34.4881,3.28e-05
2016-02-10 00:00:00,2016-02-10 00:00:00,PRATE,surface,-93.7504,34.4881,4e-05
2016-02-10 00:00:00,2016-02-10 00:00:00,PRATE,surface,-92.8129,34.4881,4.81e-05
2016-02-10 00:00:00,2016-02-10 00:00:00,PRATE,surface,-107.813,35.4329,1.61e-05
2016-02-10 00:00:00,2016-02-10 00:00:00,PRATE,surface,-106.875,35.4329,1.54e-05
2016-02-10 00:00:00,2016-02-10 00:00:00,PRATE,surface,-105.938,35.4329,1.62e-05
2016-02-10 00:00:00,2016-02-10 00:00:00,PRATE,surface,-105,35.4329,1.97e-05
2016-02-10 00:00:00,2016-02-10 00:00:00,PRATE,surface,-104.063,35.4329,2.66e-05
2016-02-10 00:00:00,2016-02-10 00:00:00,PRATE,surface,-103.125,35.4329,2.54e-05
2016-02-10 00:00:00,2016-02-10 00:00:00,PRATE,surface,-102.188,35.4329,2.85e-05
2016-02-10 00:00:00,2016-02-10 00:00:00,PRATE,surface,-101.25,35.4329,3.2e-05
2016-02-10 00:00:00,2016-02-10 00:00:00,PRATE,surface,-100.313,35.4329,2.53e-05
2016-02-10 00:00:00,2016-02-10 00:00:00,PRATE,surface,-99.3754,35.4329,1.93e-05
2016-02-10 00:00:00,2016-02-10 00:00:00,PRATE,surface,-98.4379,35.4329,1.87e-05
2016-02-10 00:00:00,2016-02-10 00:00:00,PRATE,surface,-97.5004,35.4329,1.88e-05
2016-02-10 00:00:00,2016-02-10 00:00:00,PRATE,surface,-96.5629,35.4329,2.11e-05
2016-02-10 00:00:00,2016-02-10 00:00:00,PRATE,surface,-95.6254,35.4329,2.38e-05
2016-02-10 00:00:00,2016-02-10 00:00:00,PRATE,surface,-94.6879,35.4329,2.52e-05
2016-02-10 00:00:00,2016-02-10 00:00:00,PRATE,surface,-93.7504,35.4329,3.41e-05
2016-02-10 00:00:00,2016-02-10 00:00:00,PRATE,surface,-92.8129,35.4329,4.26e-05
2016-02-10 00:00:00,2016-02-10 00:00:00,PRATE,surface,-107.813,36.3778,1.32e-05
2016-02-10 00:00:00,2016-02-10 00:00:00,PRATE,surface,-106.875,36.3778,1.6e-05
2016-02-10 00:00:00,2016-02-10 00:00:00,PRATE,surface,-105.938,36.3778,2.97e-05
2016-02-10 00:00:00,2016-02-10 00:00:00,PRATE,surface,-105,36.3778,3e-05
2016-02-10 00:00:00,2016-02-10 00:00:00,PRATE,surface,-104.063,36.3778,2.53e-05
2016-02-10 00:00:00,2016-02-10 00:00:00,PRATE,surface,-103.125,36.3778,2.57e-05
2016-02-10 00:00:00,2016-02-10 00:00:00,PRATE,surface,-102.188,36.3778,2.71e-05
2016-02-10 00:00:00,2016-02-10 00:00:00,PRATE,surface,-101.25,36.3778,3.18e-05
2016-02-10 00:00:00,2016-02-10 00:00:00,PRATE,surface,-100.313,36.3778,3.14e-05
2016-02-10 00:00:00,2016-02-10 00:00:00,PRATE,surface,-99.3754,36.3778,2.33e-05
2016-02-10 00:00:00,2016-02-10 00:00:00,PRATE,surface,-98.4379,36.3778,1.71e-05
2016-02-10 00:00:00,2016-02-10 00:00:00,PRATE,surface,-97.5004,36.3778,1.41e-05
2016-02-10 00:00:00,2016-02-10 00:00:00,PRATE,surface,-96.5629,36.3778,1.28e-05
2016-02-10 00:00:00,2016-02-10 00:00:00,PRATE,surface,-95.6254,36.3778,1.43e-05
2016-02-10 00:00:00,2016-02-10 00:00:00,PRATE,surface,-94.6879,36.3778,1.94e-05
2016-02-10 00:00:00,2016-02-10 00:00:00,PRATE,surface,-93.7504,36.3778,2.99e-05
2016-02-10 00:00:00,2016-02-10 00:00:00,PRATE,surface,-92.8129,36.3778,4.11e-05
