2011-04-09 00:00:00,2011-04-09 00:00:00,TMP,surface,-107.813,25.0393,293.835
2011-04-09 00:00:00,2011-04-09 00:00:00,TMP,surface,-106.875,25.0393,286.733
2011-04-09 00:00:00,2011-04-09 00:00:00,TMP,surface,-105.938,25.0393,281.301
2011-04-09 00:00:00,2011-04-09 00:00:00,TMP,surface,-105,25.0393,279.387
2011-04-09 00:00:00,2011-04-09 00:00:00,TMP,surface,-104.063,25.0393,282.436
2011-04-09 00:00:00,2011-04-09 00:00:00,TMP,surface,-103.125,25.0393,284.742
2011-04-09 00:00:00,2011-04-09 00:00:00,TMP,surface,-102.188,25.0393,283.757
2011-04-09 00:00:00,2011-04-09 00:00:00,TMP,surface,-101.25,25.0393,282.515
2011-04-09 00:00:00,2011-04-09 00:00:00,TMP,surface,-100.313,25.0393,282.91
2011-04-09 00:00:00,2011-04-09 00:00:00,TMP,surface,-99.3754,25.0393,285.822
2011-04-09 00:00:00,2011-04-09 00:00:00,TMP,surface,-98.4379,25.0393,289.24
2011-04-09 00:00:00,2011-04-09 00:00:00,TMP,surface,-97.5004,25.0393,296.206
2011-04-09 00:00:00,2011-04-09 00:00:00,TMP,surface,-96.5629,25.0393,296.782
2011-04-09 00:00:00,2011-04-09 00:00:00,TMP,surface,-95.6254,25.0393,296.892
2011-04-09 00:00:00,2011-04-09 00:00:00,TMP,surface,-94.6879,25.0393,296.886
2011-04-09 00:00:00,2011-04-09 00:00:00,TMP,surface,-93.7504,25.0393,296.736
2011-04-09 00:00:00,2011-04-09 00:00:00,TMP,surface,-92.8129,25.0393,296.672
2011-04-09 00:00:00,2011-04-09 00:00:00,TMP,surface,-107.813,25.9842,288.192
2011-04-09 00:00:00,2011-04-09 00:00:00,TMP,surface,-106.875,25.9842,282.164
2011-04-09 00:00:00,2011-04-09 00:00:00,TMP,surface,-105.938,25.9842,279.014
2011-04-09 00:00:00,2011-04-09 00:00:00,TMP,surface,-105,25.9842,280.845
2011-04-09 00:00:00,2011-04-09 00:00:00,TMP,surface,-104.063,25.9842,283.763
2011-04-09 00:00:00,2011-04-09 00:00:00,TMP,surface,-103.125,25.9842,284.563
2011-04-09 00:00:00,2011-04-09 00:00:00,TMP,surface,-102.188,25.9842,283.556
2011-04-09 00:00:00,2011-04-09 00:00:00,TMP,surface,-101.25,25.9842,283.249
2011-04-09 00:00:00,2011-04-09 00:00:00,TMP,surface,-100.313,25.9842,283.867
2011-04-09 00:00:00,2011-04-09 00:00:00,TMP,surface,-99.3754,25.9842,286.565
2011-04-09 00:00:00,2011-04-09 00:00:00,TMP,surface,-98.4379,25.9842,288.979
2011-04-09 00:00:00,2011-04-09 00:00:00,TMP,surface,-97.5004,25.9842,290.531
2011-04-09 00:00:00,2011-04-09 00:00:00,TMP,surface,-96.5629,25.9842,296.328
2011-04-09 00:00:00,2011-04-09 00:00:00,TMP,surface,-95.6254,25.9842,296.544
2011-04-09 00:00:00,2011-04-09 00:00:00,TMP,surface,-94.6879,25.9842,296.465
2011-04-09 00:00:00,2011-04-09 00:00:00,TMP,surface,-93.7504,25.9842,296.222
2011-04-09 00:00:00,2011-04-09 00:00:00,TMP,surface,-92.8129,25.9842,296.294
2011-04-09 00:00:00,2011-04-09 00:00:00,TMP,surface,-107.813,26.929,282.619
2011-04-09 00:00:00,2011-04-09 00:00:00,TMP,surface,-106.875,26.929,278.536
2011-04-09 00:00:00,2011-04-09 00:00:00,TMP,surface,-105.938,26.929,279.552
2011-04-09 00:00:00,2011-04-09 00:00:00,TMP,surface,-105,26.929,282.627
2011-04-09 00:00:00,2011-04-09 00:00:00,TMP,surface,-104.063,26.929,283.518
2011-04-09 00:00:00,2011-04-09 00:00:00,TMP,surface,-103.125,26.929,282.56
2011-04-09 00:00:00,2011-04-09 00:00:00,TMP,surface,-102.188,26.929,282.011
2011-04-09 00:00:00,2011-04-09 00:00:00,TMP,surface,-101.25,26.929,282.966
2011-04-09 00:00:00,2011-04-09 00:00:00,TMP,surface,-100.313,26.929,284.341
2011-04-09 00:00:00,2011-04-09 00:00:00,TMP,surface,-99.3754,26.929,286.115
2011-04-09 00:00:00,2011-04-09 00:00:00,TMP,surface,-98.4379,26.929,287.462
2011-04-09 00:00:00,2011-04-09 00:00:00,TMP,surface,-97.5004,26.929,294.587
2011-04-09 00:00:00,2011-04-09 00:00:00,TMP,surface,-96.5629,26.929,295.686
2011-04-09 00:00:00,2011-04-09 00:00:00,TMP,surface,-95.6254,26.929,296.147
2011-04-09 00:00:00,2011-04-09 00:00:00,TMP,surface,-94.6879,26.929,295.979
2011-04-09 00:00:00,2011-04-09 00:00:00,TMP,surface,-93.7504,26.929,295.441
2011-04-09 00:00:00,2011-04-09 00:00:00,TMP,surface,-92.8129,26.929,295.435
2011-04-09 00:00:00,2011-04-09 00:00:00,TMP,surface,-107.813,27.8739,278.923
2011-04-09 00:00:00,2011-04-09 00:00:00,TMP,surface,-106.875,27.8739,277.372
2011-04-09 00:00:00,2011-04-09 00:00:00,TMP,surface,-105.938,27.8739,280.523
2011-04-09 00:00:00,2011-04-09 00:00:00,TMP,surface,-105,27.8739,282.753
2011-04-09 00:00:00,2011-04-09 00:00:00,TMP,surface,-104.063,27.8739,282.331
2011-04-09 00:00:00,2011-04-09 00:00:00,TMP,surface,-103.125,27.8739,280.976
2011-04-09 00:00:00,2011-04-09 00:00:00,TMP,surface,-102.188,27.8739,280.886
2011-04-09 00:00:00,2011-04-09 00:00:00,TMP,surface,-101.25,27.8739,282.237
2011-04-09 00:00:00,2011-04-09 00:00:00,TMP,surface,-100.313,27.8739,283.825
2011-04-09 00:00:00,2011-04-09 00:00:00,TMP,surface,-99.3754,27.8739,284.715
2011-04-09 00:00:00,2011-04-09 00:00:00,TMP,surface,-98.4379,27.8739,285.555
2011-04-09 00:00:00,2011-04-09 00:00:00,TMP,surface,-97.5004,27.8739,290.635
2011-04-09 00:00:00,2011-04-09 00:00:00,TMP,surface,-96.5629,27.8739,295.483
2011-04-09 00:00:00,2011-04-09 00:00:00,TMP,surface,-95.6254,27.8739,295.596
2011-04-09 00:00:00,2011-04-09 00:00:00,TMP,surface,-94.6879,27.8739,295.044
2011-04-09 00:00:00,2011-04-09 00:00:00,TMP,surface,-93.7504,27.8739,294.548
2011-04-09 00:00:00,2011-04-09 00:00:00,TMP,surface,-92.8129,27.8739,294.457
2011-04-09 00:00:00,2011-04-09 00:00:00,TMP,surface,-107.813,28.8188,277.156
2011-04-09 00:00:00,2011-04-09 00:00:00,TMP,surface,-106.875,28.8188,277.584
2011-04-09 00:00:00,2011-04-09 00:00:00,TMP,surface,-105.938,28.8188,280.512
2011-04-09 00:00:00,2011-04-09 00:00:00,TMP,surface,-105,28.8188,281.668
2011-04-09 00:00:00,2011-04-09 00:00:00,TMP,surface,-104.063,28.8188,280.812
2011-04-09 00:00:00,2011-04-09 00:00:00,TMP,surface,-103.125,28.8188,280.008
2011-04-09 00:00:00,2011-04-09 00:00:00,TMP,surface,-102.188,28.8188,280.168
2011-04-09 00:00:00,2011-04-09 00:00:00,TMP,surface,-101.25,28.8188,281.456
2011-04-09 00:00:00,2011-04-09 00:00:00,TMP,surface,-100.313,28.8188,282.276
2011-04-09 00:00:00,2011-04-09 00:00:00,TMP,surface,-99.3754,28.8188,282.374
2011-04-09 00:00:00,2011-04-09 00:00:00,TMP,surface,-98.4379,28.8188,282.677
2011-04-09 00:00:00,2011-04-09 00:00:00,TMP,surface,-97.5004,28.8188,283.563
2011-04-09 00:00:00,2011-04-09 00:00:00,TMP,surface,-96.5629,28.8188,284.705
2011-04-09 00:00:00,2011-04-09 00:00:00,TMP,surface,-95.6254,28.8188,288.937
2011-04-09 00:00:00,2011-04-09 00:00:00,TMP,surface,-94.6879,28.8188,294.715
2011-04-09 00:00:00,2011-04-09 00:00:00,TMP,surface,-93.7504,28.8188,294.419
2011-04-09 00:00:00,2011-04-09 00:00:00,TMP,surface,-92.8129,28.8188,294.464
2011-04-09 00:00:00,2011-04-09 00:00:00,TMP,surface,-107.813,29.7637,277.71
2011-04-09 00:00:00,2011-04-09 00:00:00,TMP,surface,-106.875,29.7637,278.416
2011-04-09 00:00:00,2011-04-09 00:00:00,TMP,surface,-105.938,29.7637,279.739
2011-04-09 00:00:00,2011-04-09 00:00:00,TMP,surface,-105,29.7637,279.683
2011-04-09 00:00:00,2011-04-09 00:00:00,TMP,surface,-104.063,29.7637,279.545
2011-04-09 00:00:00,2011-04-09 00:00:00,TMP,surface,-103.125,29.7637,279.617
2011-04-09 00:00:00,2011-04-09 00:00:00,TMP,surface,-102.188,29.7637,280.174
2011-04-09 00:00:00,2011-04-09 00:00:00,TMP,surface,-101.25,29.7637,280.525
2011-04-09 00:00:00,2011-04-09 00:00:00,TMP,surface,-100.313,29.7637,280.334
2011-04-09 00:00:00,2011-04-09 00:00:00,TMP,surface,-99.3754,29.7637,280.099
2011-04-09 00:00:00,2011-04-09 00:00:00,TMP,surface,-98.4379,29.7637,280.281
2011-04-09 00:00:00,2011-04-09 00:00:00,TMP,surface,-97.5004,29.7637,280.665
2011-04-09 00:00:00,2011-04-09 00:00:00,TMP,surface,-96.5629,29.7637,281.265
2011-04-09 00:00:00,2011-04-09 00:00:00,TMP,surface,-95.6254,29.7637,282.309
2011-04-09 00:00:00,2011-04-09 00:00:00,TMP,surface,-94.6879,29.7637,286.556
2011-04-09 00:00:00,2011-04-09 00:00:00,TMP,surface,-93.7504,29.7637,291.446
2011-04-09 00:00:00,2011-04-09 00:00:00,TMP,surface,-92.8129,29.7637,283.621
2011-04-09 00:00:00,2011-04-09 00:00:00,TMP,surface,-107.813,30.7085,278.809
2011-04-09 00:00:00,2011-04-09 00:00:00,TMP,surface,-106.875,30.7085,279.283
2011-04-09 00:00:00,2011-04-09 00:00:00,TMP,surface,-105.938,30.7085,278.957
2011-04-09 00:00:00,2011-04-09 00:00:00,TMP,surface,-105,30.7085,278.232
2011-04-09 00:00:00,2011-04-09 00:00:00,TMP,surface,-104.063,30.7085,278.19
2011-04-09 00:00:00,2011-04-09 00:00:00,TMP,surface,-103.125,30.7085,278.921
2011-04-09 00:00:00,2011-04-09 00:00:00,TMP,surface,-102.188,30.7085,279.409
2011-04-09 00:00:00,2011-04-09 00:00:00,TMP,surface,-101.25,30.7085,279.265
2011-04-09 00:00:00,2011-04-09 00:00:00,TMP,surface,-100.313,30.7085,278.948
2011-04-09 00:00:00,2011-04-09 00:00:00,TMP,surface,-99.3754,30.7085,278.923
2011-04-09 00:00:00,2011-04-09 00:00:00,TMP,surface,-98.4379,30.7085,279.148
2011-04-09 00:00:00,2011-04-09 00:00:00,TMP,surface,-97.5004,30.7085,279.323
2011-04-09 00:00:00,2011-04-09 00:00:00,TMP,surface,-96.5629,30.7085,279.363
2011-04-09 00:00:00,2011-04-09 00:00:00,TMP,surface,-95.6254,30.7085,279.568
2011-04-09 00:00:00,2011-04-09 00:00:00,TMP,surface,-94.6879,30.7085,279.996
2011-04-09 00:00:00,2011-04-09 00:00:00,TMP,surface,-93.7504,30.7085,280.144
2011-04-09 00:00:00,2011-04-09 00:00:00,TMP,surface,-92.8129,30.7085,279.942
2011-04-09 00:00:00,2011-04-09 00:00:00,TMP,surface,-107.813,31.6534,278.339
2011-04-09 00:00:00,2011-04-09 00:00:00,TMP,surface,-106.875,31.6534,278.595
2011-04-09 00:00:00,2011-04-09 00:00:00,TMP,surface,-105.938,31.6534,277.733
2011-04-09 00:00:00,2011-04-09 00:00:00,TMP,surface,-105,31.6534,277.272
2011-04-09 00:00:00,2011-04-09 00:00:00,TMP,surface,-104.063,31.6534,277.627
2011-04-09 00:00:00,2011-04-09 00:00:00,TMP,surface,-103.125,31.6534,278.301
2011-04-09 00:00:00,2011-04-09 00:00:00,TMP,surface,-102.188,31.6534,278.355
2011-04-09 00:00:00,2011-04-09 00:00:00,TMP,surface,-101.25,31.6534,277.984
2011-04-09 00:00:00,2011-04-09 00:00:00,TMP,surface,-100.313,31.6534,277.875
2011-04-09 00:00:00,2011-04-09 00:00:00,TMP,surface,-99.3754,31.6534,278.169
2011-04-09 00:00:00,2011-04-09 00:00:00,TMP,surface,-98.4379,31.6534,278.563
2011-04-09 00:00:00,2011-04-09 00:00:00,TMP,surface,-97.5004,31.6534,278.731
2011-04-09 00:00:00,2011-04-09 00:00:00,TMP,surface,-96.5629,31.6534,278.632
2011-04-09 00:00:00,2011-04-09 00:00:00,TMP,surface,-95.6254,31.6534,278.377
2011-04-09 00:00:00,2011-04-09 00:00:00,TMP,surface,-94.6879,31.6534,278.08
2011-04-09 00:00:00,2011-04-09 00:00:00,TMP,surface,-93.7504,31.6534,277.921
2011-04-09 00:00:00,2011-04-09 00:00:00,TMP,surface,-92.8129,31.6534,278.008
2011-04-09 00:00:00,2011-04-09 00:00:00,TMP,surface,-107.813,32.5983,275.884
2011-04-09 00:00:00,2011-04-09 00:00:00,TMP,surface,-106.875,32.5983,276.137
2011-04-09 00:00:00,2011-04-09 00:00:00,TMP,surface,-105.938,32.5983,276.035
2011-04-09 00:00:00,2011-04-09 00:00:00,TMP,surface,-105,32.5983,276.222
2011-04-09 00:00:00,2011-04-09 00:00:00,TMP,surface,-104.063,32.5983,277
2011-04-09 00:00:00,2011-04-09 00:00:00,TMP,surface,-103.125,32.5983,277.496
2011-04-09 00:00:00,2011-04-09 00:00:00,TMP,surface,-102.188,32.5983,277.376
2011-04-09 00:00:00,2011-04-09 00:00:00,TMP,surface,-101.25,32.5983,277.172
2011-04-09 00:00:00,2011-04-09 00:00:00,TMP,surface,-100.313,32.5983,277.245
2011-04-09 00:00:00,2011-04-09 00:00:00,TMP,surface,-99.3754,32.5983,277.589
2011-04-09 00:00:00,2011-04-09 00:00:00,TMP,surface,-98.4379,32.5983,277.913
2011-04-09 00:00:00,2011-04-09 00:00:00,TMP,surface,-97.5004,32.5983,278.043
2011-04-09 00:00:00,2011-04-09 00:00:00,TMP,surface,-96.5629,32.5983,277.917
2011-04-09 00:00:00,2011-04-09 00:00:00,TMP,surface,-95.6254,32.5983,277.491
2011-04-09 00:00:00,2011-04-09 00:00:00,TMP,surface,-94.6879,32.5983,276.934
2011-04-09 00:00:00,2011-04-09 00:00:00,TMP,surface,-93.7504,32.5983,276.705
2011-04-09 00:00:00,2011-04-09 00:00:00,TMP,surface,-92.8129,32.5983,277.027
2011-04-09 00:00:00,2011-04-09 00:00:00,TMP,surface,-107.813,33.5432,272.484
2011-04-09 00:00:00,2011-04-09 00:00:00,TMP,surface,-106.875,33.5432,273.638
2011-04-09 00:00:00,2011-04-09 00:00:00,TMP,surface,-105.938,33.5432,274.238
2011-04-09 00:00:00,2011-04-09 00:00:00,TMP,surface,-105,33.5432,275.059
2011-04-09 00:00:00,2011-04-09 00:00:00,TMP,surface,-104.063,33.5432,276.024
2011-04-09 00:00:00,2011-04-09 00:00:00,TMP,surface,-103.125,33.5432,276.388
2011-04-09 00:00:00,2011-04-09 00:00:00,TMP,surface,-102.188,33.5432,276.307
2011-04-09 00:00:00,2011-04-09 00:00:00,TMP,surface,-101.25,33.5432,276.363
2011-04-09 00:00:00,2011-04-09 00:00:00,TMP,surface,-100.313,33.5432,276.667
2011-04-09 00:00:00,2011-04-09 00:00:00,TMP,surface,-99.3754,33.5432,276.918
2011-04-09 00:00:00,2011-04-09 00:00:00,TMP,surface,-98.4379,33.5432,276.886
2011-04-09 00:00:00,2011-04-09 00:00:00,TMP,surface,-97.5004,33.5432,276.617
2011-04-09 00:00:00,2011-04-09 00:00:00,TMP,surface,-96.5629,33.5432,276.299
2011-04-09 00:00:00,2011-04-09 00:00:00,TMP,surface,-95.6254,33.5432,275.929
2011-04-09 00:00:00,2011-04-09 00:00:00,TMP,surface,-94.6879,33.5432,275.461
2011-04-09 00:00:00,2011-04-09 00:00:00,TMP,surface,-93.7504,33.5432,275.182
2011-04-09 00:00:00,2011-04-09 00:00:00,TMP,surface,-92.8129,33.5432,275.363
2011-04-09 00:00:00,2011-04-09 00:00:00,TMP,surface,-107.813,34.4881,270.197
2011-04-09 00:00:00,2011-04-09 00:00:00,TMP,surface,-106.875,34.4881,271.448
2011-04-09 00:00:00,2011-04-09 00:00:00,TMP,surface,-105.938,34.4881,272.237
2011-04-09 00:00:00,2011-04-09 00:00:00,TMP,surface,-105,34.4881,273.192
2011-04-09 00:00:00,2011-04-09 00:00:00,TMP,surface,-104.063,34.4881,274.099
2011-04-09 00:00:00,2011-04-09 00:00:00,TMP,surface,-103.125,34.4881,274.645
2011-04-09 00:00:00,2011-04-09 00:00:00,TMP,surface,-102.188,34.4881,274.833
2011-04-09 00:00:00,2011-04-09 00:00:00,TMP,surface,-101.25,34.4881,275.051
2011-04-09 00:00:00,2011-04-09 00:00:00,TMP,surface,-100.313,34.4881,275.347
2011-04-09 00:00:00,2011-04-09 00:00:00,TMP,surface,-99.3754,34.4881,275.517
2011-04-09 00:00:00,2011-04-09 00:00:00,TMP,surface,-98.4379,34.4881,275.371
2011-04-09 00:00:00,2011-04-09 00:00:00,TMP,surface,-97.5004,34.4881,274.915
2011-04-09 00:00:00,2011-04-09 00:00:00,TMP,surface,-96.5629,34.4881,274.388
2011-04-09 00:00:00,2011-04-09 00:00:00,TMP,surface,-95.6254,34.4881,273.872
2011-04-09 00:00:00,2011-04-09 00:00:00,TMP,surface,-94.6879,34.4881,273.278
2011-04-09 00:00:00,2011-04-09 00:00:00,TMP,surface,-93.7504,34.4881,272.886
2011-04-09 00:00:00,2011-04-09 00:00:00,TMP,surface,-92.8129,34.4881,273.1
2011-04-09 00:00:00,2011-04-09 00:00:00,TMP,surface,-107.813,35.4329,269.472
2011-04-09 00:00:00,2011-04-09 00:00:00,TMP,surface,-106.875,35.4329,269.939
2011-04-09 00:00:00,2011-04-09 00:00:00,TMP,surface,-105.938,35.4329,270.022
2011-04-09 00:00:00,2011-04-09 00:00:00,TMP,surface,-105,35.4329,270.913
2011-04-09 00:00:00,2011-04-09 00:00:00,TMP,surface,-104.063,35.4329,272.347
2011-04-09 00:00:00,2011-04-09 00:00:00,TMP,surface,-103.125,35.4329,273.377
2011-04-09 00:00:00,2011-04-09 00:00:00,TMP,surface,-102.188,35.4329,273.469
2011-04-09 00:00:00,2011-04-09 00:00:00,TMP,surface,-101.25,35.4329,273.491
2011-04-09 00:00:00,2011-04-09 00:00:00,TMP,surface,-100.313,35.4329,273.697
2011-04-09 00:00:00,2011-04-09 00:00:00,TMP,surface,-99.3754,35.4329,273.798
2011-04-09 00:00:00,2011-04-09 00:00:00,TMP,surface,-98.4379,35.4329,273.888
2011-04-09 00:00:00,2011-04-09 00:00:00,TMP,surface,-97.5004,35.4329,273.952
2011-04-09 00:00:00,2011-04-09 00:00:00,TMP,surface,-96.5629,35.4329,273.768
2011-04-09 00:00:00,2011-04-09 00:00:00,TMP,surface,-95.6254,35.4329,273.123
2011-04-09 00:00:00,2011-04-09 00:00:00,TMP,surface,-94.6879,35.4329,272.171
2011-04-09 00:00:00,2011-04-09 00:00:00,TMP,surface,-93.7504,35.4329,271.502
2011-04-09 00:00:00,2011-04-09 00:00:00,TMP,surface,-92.8129,35.4329,271.392
2011-04-09 00:00:00,2011-04-09 00:00:00,TMP,surface,-107.813,36.3778,268.944
2011-04-09 00:00:00,2011-04-09 00:00:00,TMP,surface,-106.875,36.3778,267.792
2011-04-09 00:00:00,2011-04-09 00:00:00,TMP,surface,-105.938,36.3778,267.913
2011-04-09 00:00:00,2011-04-09 00:00:00,TMP,surface,-105,36.3778,269.077
2011-04-09 00:00:00,2011-04-09 00:00:00,TMP,surface,-104.063,36.3778,270.803
2011-04-09 00:00:00,2011-04-09 00:00:00,TMP,surface,-103.125,36.3778,271.486
2011-04-09 00:00:00,2011-04-09 00:00:00,TMP,surface,-102.188,36.3778,271.614
2011-04-09 00:00:00,2011-04-09 00:00:00,TMP,surface,-101.25,36.3778,271.876
2011-04-09 00:00:00,2011-04-09 00:00:00,TMP,surface,-100.313,36.3778,272.232
2011-04-09 00:00:00,2011-04-09 00:00:00,TMP,surface,-99.3754,36.3778,272.55
2011-04-09 00:00:00,2011-04-09 00:00:00,TMP,surface,-98.4379,36.3778,272.721
2011-04-09 00:00:00,2011-04-09 00:00:00,TMP,surface,-97.5004,36.3778,272.998
2011-04-09 00:00:00,2011-04-09 00:00:00,TMP,surface,-96.5629,36.3778,273.113
2011-04-09 00:00:00,2011-04-09 00:00:00,TMP,surface,-95.6254,36.3778,272.526
2011-04-09 00:00:00,2011-04-09 00:00:00,TMP,surface,-94.6879,36.3778,271.427
2011-04-09 00:00:00,2011-04-09 00:00:00,TMP,surface,-93.7504,36.3778,270.512
2011-04-09 00:00:00,2011-04-09 00:00:00,TMP,surface,-92.8129,36.3778,270.309
2011-04-09 00:00:00,2011-04-09 00:00:00,PRATE,surface,-107.813,25.0393,2.24e-05
2011-04-09 00:00:00,2011-04-09 00:00:00,PRATE,surface,-106.875,25.0393,2.47e-05
2011-04-09 00:00:00,2011-04-09 00:00:00,PRATE,surface,-105.938,25.0393,2.22e-05
2011-04-09 00:00:00,2011-04-09 00:00:00,PRATE,surface,-105,25.0393,1.9e-05
2011-04-09 00:00:00,2011-04-09 00:00:00,PRATE,surface,-104.063,25.0393,1.17e-05
2011-04-09 00:00:00,2011-04-09 00:00:00,PRATE,surface,-103.125,25.0393,9.2e-06
2011-04-09 00:00:00,2011-04-09 00:00:00,PRATE,surface,-102.188,25.0393,1.3e-05
2011-04-09 00:00:00,2011-04-09 00:00:00,PRATE,surface,-101.25,25.0393,2.37e-05
2011-04-09 00:00:00,2011-04-09 00:00:00,PRATE,surface,-100.313,25.0393,3.39e-05
2011-04-09 00:00:00,2011-04-09 00:00:00,PRATE,surface,-99.3754,25.0393,3.69e-05
2011-04-09 00:00:00,2011-04-09 00:00:00,PRATE,surface,-98.4379,25.0393,4.36e-05
2011-04-09 00:00:00,2011-04-09 00:00:00,PRATE,surface,-97.5004,25.0393,5.7e-05
2011-04-09 00:00:00,2011-04-09 00:00:00,PRATE,surface,-96.5629,25.0393,6.21e-05
2011-04-09 00:00:00,2011-04-09 00:00:00,PRATE,surface,-95.6254,25.0393,5.51e-05
2011-04-09 00:00:00,2011-04-09 00:00:00,PRATE,surface,-94.6879,25.0393,4.47e-05
2011-04-09 00:00:00,2011-04-09 00:00:00,PRATE,surface,-93.7504,25.0393,4.45e-05
2011-04-09 00:00:00,2011-04-09 00:00:00,PRATE,surface,-92.8129,25.0393,4.47e-05
2011-04-09 00:00:00,2011-04-09 00:00:00,PRATE,surface,-107.813,25.9842,2.39e-05
2011-04-09 00:00:00,2011-04-09 00:00:00,PRATE,surface,-106.875,25.9842,3.58e-05
2011-04-09 00:00:00,2011-04-09 00:00:00,PRATE,surface,-105.938,25.9842,2.75e-05
2011-04-09 00:00:00,2011-04-09 00:00:00,PRATE,surface,-105,25.9842,1.79e-05
2011-04-09 00:00:00,2011-04-09 00:00:00,PRATE,surface,-104.063,25.9842,1.13e-05
2011-04-09 00:00:00,2011-04-09 00:00:00,PRATE,surface,-103.125,25.9842,1e-05
2011-04-09 00:00:00,2011-04-09 00:00:00,PRATE,surface,-102.188,25.9842,1.49e-05
2011-04-09 00:00:00,2011-04-09 00:00:00,PRATE,surface,-101.25,25.9842,2.2e-05
2011-04-09 00:00:00,2011-04-09 00:00:00,PRATE,surface,-100.313,25.9842,2.83e-05
2011-04-09 00:00:00,2011-04-09 00:00:00,PRATE,surface,-99.3754,25.9842,3.5e-05
2011-04-09 00:00:00,2011-04-09 00:00:00,PRATE,surface,-98.4379,25.9842,4.38e-05
2011-04-09 00:00:00,2011-04-09 00:00:00,PRATE,surface,-97.5004,25.9842,5.49e-05
2011-04-09 00:00:00,2011-04-09 00:00:00,PRATE,surface,-96.5629,25.9842,6.37e-05
2011-04-09 00:00:00,2011-04-09 00:00:00,PRATE,surface,-95.6254,25.9842,6.19e-05
2011-04-09 00:00:00,2011-04-09 00:00:00,PRATE,surface,-94.6879,25.9842,4.95e-05
2011-04-09 00:00:00,2011-04-09 00:00:00,PRATE,surface,-93.7504,25.9842,4.32e-05
2011-04-09 00:00:00,2011-04-09 00:00:00,PRATE,surface,-92.8129,25.9842,3.97e-05
2011-04-09 00:00:00,2011-04-09 00:00:00,PRATE,surface,-107.813,26.929,1.68e-05
2011-04-09 00:00:00,2011-04-09 00:00:00,PRATE,surface,-106.875,26.929,2.26e-05
2011-04-09 00:00:00,2011-04-09 00:00:00,PRATE,surface,-105.938,26.929,1.77e-05
2011-04-09 00:00:00,2011-04-09 00:00:00,PRATE,surface,-105,26.929,1.2e-05
2011-04-09 00:00:00,2011-04-09 00:00:00,PRATE,surface,-104.063,26.929,1.11e-05
2011-04-09 00:00:00,2011-04-09 00:00:00,PRATE,surface,-103.125,26.929,1.6e-05
2011-04-09 00:00:00,2011-04-09 00:00:00,PRATE,surface,-102.188,26.929,2.27e-05
2011-04-09 00:00:00,2011-04-09 00:00:00,PRATE,surface,-101.25,26.929,2.37e-05
2011-04-09 00:00:00,2011-04-09 00:00:00,PRATE,surface,-100.313,26.929,2.58e-05
2011-04-09 00:00:00,2011-04-09 00:00:00,PRATE,surface,-99.3754,26.929,3.03e-05
2011-04-09 00:00:00,2011-04-09 00:00:00,PRATE,surface,-98.4379,26.929,3.67e-05
2011-04-09 00:00:00,2011-04-09 00:00:00,PRATE,surface,-97.5004,26.929,5.56e-05
2011-04-09 00:00:00,2011-04-09 00:00:00,PRATE,surface,-96.5629,26.929,7.53e-05
2011-04-09 00:00:00,2011-04-09 00:00:00,PRATE,surface,-95.6254,26.929,7.75e-05
2011-04-09 00:00:00,2011-04-09 00:00:00,PRATE,surface,-94.6879,26.929,6.73e-05
2011-04-09 00:00:00,2011-04-09 00:00:00,PRATE,surface,-93.7504,26.929,5.31e-05
2011-04-09 00:00:00,2011-04-09 00:00:00,PRATE,surface,-92.8129,26.929,5.4e-05
2011-04-09 00:00:00,2011-04-09 00:00:00,PRATE,surface,-107.813,27.8739,1.22e-05
2011-04-09 00:00:00,2011-04-09 00:00:00,PRATE,surface,-106.875,27.8739,8.3e-06
2011-04-09 00:00:00,2011-04-09 00:00:00,PRATE,surface,-105.938,27.8739,4.2e-06
2011-04-09 00:00:00,2011-04-09 00:00:00,PRATE,surface,-105,27.8739,3.1e-06
2011-04-09 00:00:00,2011-04-09 00:00:00,PRATE,surface,-104.063,27.8739,6.8e-06
2011-04-09 00:00:00,2011-04-09 00:00:00,PRATE,surface,-103.125,27.8739,1.59e-05
2011-04-09 00:00:00,2011-04-09 00:00:00,PRATE,surface,-102.188,27.8739,1.94e-05
2011-04-09 00:00:00,2011-04-09 00:00:00,PRATE,surface,-101.25,27.8739,1.97e-05
2011-04-09 00:00:00,2011-04-09 00:00:00,PRATE,surface,-100.313,27.8739,2.24e-05
2011-04-09 00:00:00,2011-04-09 00:00:00,PRATE,surface,-99.3754,27.8739,2.53e-05
2011-04-09 00:00:00,2011-04-09 00:00:00,PRATE,surface,-98.4379,27.8739,2.92e-05
2011-04-09 00:00:00,2011-04-09 00:00:00,PRATE,surface,-97.5004,27.8739,4.19e-05
2011-04-09 00:00:00,2011-04-09 00:00:00,PRATE,surface,-96.5629,27.8739,6.13e-05
2011-04-09 00:00:00,2011-04-09 00:00:00,PRATE,surface,-95.6254,27.8739,7.62e-05
2011-04-09 00:00:00,2011-04-09 00:00:00,PRATE,surface,-94.6879,27.8739,7.88e-05
2011-04-09 00:00:00,2011-04-09 00:00:00,PRATE,surface,-93.7504,27.8739,6.85e-05
2011-04-09 00:00:00,2011-04-09 00:00:00,PRATE,surface,-92.8129,27.8739,5.92e-05
2011-04-09 00:00:00,2011-04-09 00:00:00,PRATE,surface,-107.813,28.8188,1e-05
2011-04-09 00:00:00,2011-04-09 00:00:00,PRATE,surface,-106.875,28.8188,5.8e-06
2011-04-09 00:00:00,2011-04-09 00:00:00,PRATE,surface,-105.938,28.8188,1.9e-06
2011-04-09 00:00:00,2011-04-09 00:00:00,PRATE,surface,-105,28.8188,1.2e-06
2011-04-09 00:00:00,2011-04-09 00:00:00,PRATE,surface,-104.063,28.8188,3.3e-06
2011-04-09 00:00:00,2011-04-09 00:00:00,PRATE,surface,-103.125,28.8188,7.5e-06
2011-04-09 00:00:00,2011-04-09 00:00:00,PRATE,surface,-102.188,28.8188,1.13e-05
2011-04-09 00:00:00,2011-04-09 00:00:00,PRATE,surface,-101.25,28.8188,1.39e-05
2011-04-09 00:00:00,2011-04-09 00:00:00,PRATE,surface,-100.313,28.8188,1.88e-05
2011-04-09 00:00:00,2011-04-09 00:00:00,PRATE,surface,-99.3754,28.8188,2.28e-05
2011-04-09 00:00:00,2011-04-09 00:00:00,PRATE,surface,-98.4379,28.8188,2.72e-05
2011-04-09 00:00:00,2011-04-09 00:00:00,PRATE,surface,-97.5004,28.8188,3.44e-05
2011-04-09 00:00:00,2011-04-09 00:00:00,PRATE,surface,-96.5629,28.8188,4.84e-05
2011-04-09 00:00:00,2011-04-09 00:00:00,PRATE,surface,-95.6254,28.8188,6.81e-05
2011-04-09 00:00:00,2011-04-09 00:00:00,PRATE,surface,-94.6879,28.8188,8.29e-05
2011-04-09 00:00:00,2011-04-09 00:00:00,PRATE,surface,-93.7504,28.8188,8.26e-05
2011-04-09 00:00:00,2011-04-09 00:00:00,PRATE,surface,-92.8129,28.8188,6.59e-05
2011-04-09 00:00:00,2011-04-09 00:00:00,PRATE,surface,-107.813,29.7637,3.7e-06
2011-04-09 00:00:00,2011-04-09 00:00:00,PRATE,surface,-106.875,29.7637,2.5e-06
2011-04-09 00:00:00,2011-04-09 00:00:00,PRATE,surface,-105.938,29.7637,1.9e-06
2011-04-09 00:00:00,2011-04-09 00:00:00,PRATE,surface,-105,29.7637,2.7e-06
2011-04-09 00:00:00,2011-04-09 00:00:00,PRATE,surface,-104.063,29.7637,4.6e-06
2011-04-09 00:00:00,2011-04-09 00:00:00,PRATE,surface,-103.125,29.7637,5.7e-06
2011-04-09 00:00:00,2011-04-09 00:00:00,PRATE,surface,-102.188,29.7637,6.5e-06
2011-04-09 00:00:00,2011-04-09 00:00:00,PRATE,surface,-101.25,29.7637,1e-05
2011-04-09 00:00:00,2011-04-09 00:00:00,PRATE,surface,-100.313,29.7637,1.61e-05
2011-04-09 00:00:00,2011-04-09 00:00:00,PRATE,surface,-99.3754,29.7637,1.89e-05
2011-04-09 00:00:00,2011-04-09 00:00:00,PRATE,surface,-98.4379,29.7637,1.96e-05
2011-04-09 00:00:00,2011-04-09 00:00:00,PRATE,surface,-97.5004,29.7637,2.45e-05
2011-04-09 00:00:00,2011-04-09 00:00:00,PRATE,surface,-96.5629,29.7637,3.66e-05
2011-04-09 00:00:00,2011-04-09 00:00:00,PRATE,surface,-95.6254,29.7637,5.55e-05
2011-04-09 00:00:00,2011-04-09 00:00:00,PRATE,surface,-94.6879,29.7637,7.64e-05
2011-04-09 00:00:00,2011-04-09 00:00:00,PRATE,surface,-93.7504,29.7637,8.85e-05
2011-04-09 00:00:00,2011-04-09 00:00:00,PRATE,surface,-92.8129,29.7637,8.78e-05
2011-04-09 00:00:00,2011-04-09 00:00:00,PRATE,surface,-107.813,30.7085,4.7e-06
2011-04-09 00:00:00,2011-04-09 00:00:00,PRATE,surface,-106.875,30.7085,4.3e-06
2011-04-09 00:00:00,2011-04-09 00:00:00,PRATE,surface,-105.938,30.7085,5.1e-06
2011-04-09 00:00:00,2011-04-09 00:00:00,PRATE,surface,-105,30.7085,6.7e-06
2011-04-09 00:00:00,2011-04-09 00:00:00,PRATE,surface,-104.063,30.7085,6.6e-06
2011-04-09 00:00:00,2011-04-09 00:00:00,PRATE,surface,-103.125,30.7085,5.1e-06
2011-04-09 00:00:00,2011-04-09 00:00:00,PRATE,surface,-102.188,30.7085,4.8e-06
2011-04-09 00:00:00,2011-04-09 00:00:00,PRATE,surface,-101.25,30.7085,9e-06
2011-04-09 00:00:00,2011-04-09 00:00:00,PRATE,surface,-100.313,30.7085,1.5e-05
2011-04-09 00:00:00,2011-04-09 00:00:00,PRATE,surface,-99.3754,30.7085,1.83e-05
2011-04-09 00:00:00,2011-04-09 00:00:00,PRATE,surface,-98.4379,30.7085,1.86e-05
2011-04-09 00:00:00,2011-04-09 00:00:00,PRATE,surface,-97.5004,30.7085,2.04e-05
2011-04-09 00:00:00,2011-04-09 00:00:00,PRATE,surface,-96.5629,30.7085,2.91e-05
2011-04-09 00:00:00,2011-04-09 00:00:00,PRATE,surface,-95.6254,30.7085,4.52e-05
2011-04-09 00:00:00,2011-04-09 00:00:00,PRATE,surface,-94.6879,30.7085,6.39e-05
2011-04-09 00:00:00,2011-04-09 00:00:00,PRATE,surface,-93.7504,30.7085,8.02e-05
2011-04-09 00:00:00,2011-04-09 00:00:00,PRATE,surface,-92.8129,30.7085,8.95e-05
2011-04-09 00:00:00,2011-04-09 00:00:00,PRATE,surface,-107.813,31.6534,3.3e-06
2011-04-09 00:00:00,2011-04-09 00:00:00,PRATE,surface,-106.875,31.6534,4.1e-06
2011-04-09 00:00:00,2011-04-09 00:00:00,PRATE,surface,-105.938,31.6534,5.8e-06
2011-04-09 00:00:00,2011-04-09 00:00:00,PRATE,surface,-105,31.6534,8e-06
2011-04-09 00:00:00,2011-04-09 00:00:00,PRATE,surface,-104.063,31.6534,7.2e-06
2011-04-09 00:00:00,2011-04-09 00:00:00,PRATE,surface,-103.125,31.6534,4.9e-06
2011-04-09 00:00:00,2011-04-09 00:00:00,PRATE,surface,-102.188,31.6534,6.3e-06
2011-04-09 00:00:00,2011-04-09 00:00:00,PRATE,surface,-101.25,31.6534,1.05e-05
2011-04-09 00:00:00,2011-04-09 00:00:00,PRATE,surface,-100.313,31.6534,1.41e-05
2011-04-09 00:00:00,2011-04-09 00:00:00,PRATE,surface,-99.3754,31.6534,1.64e-05
2011-04-09 00:00:00,2011-04-09 00:00:00,PRATE,surface,-98.4379,31.6534,1.9e-05
2011-04-09 00:00:00,2011-04-09 00:00:00,PRATE,surface,-97.5004,31.6534,2.22e-05
2011-04-09 00:00:00,2011-04-09 00:00:00,PRATE,surface,-96.5629,31.6534,2.5e-05
2011-04-09 00:00:00,2011-04-09 00:00:00,PRATE,surface,-95.6254,31.6534,3.18e-05
2011-04-09 00:00:00,2011-04-09 00:00:00,PRATE,surface,-94.6879,31.6534,4.4e-05
2011-04-09 00:00:00,2011-04-09 00:00:00,PRATE,surface,-93.7504,31.6534,5.54e-05
2011-04-09 00:00:00,2011-04-09 00:00:00,PRATE,surface,-92.8129,31.6534,7.07e-05
2011-04-09 00:00:00,2011-04-09 00:00:00,PRATE,surface,-107.813,32.5983,2.7e-06
2011-04-09 00:00:00,2011-04-09 00:00:00,PRATE,surface,-106.875,32.5983,2.9e-06
2011-04-09 00:00:00,2011-04-09 00:00:00,PRATE,surface,-105.938,32.5983,5.4e-06
2011-04-09 00:00:00,2011-04-09 00:00:00,PRATE,surface,-105,32.5983,7.9e-06
2011-04-09 00:00:00,2011-04-09 00:00:00,PRATE,surface,-104.063,32.5983,7.1e-06
2011-04-09 00:00:00,2011-04-09 00:00:00,PRATE,surface,-103.125,32.5983,5.9e-06
2011-04-09 00:00:00,2011-04-09 00:00:00,PRATE,surface,-102.188,32.5983,7.6e-06
2011-04-09 00:00:00,2011-04-09 00:00:00,PRATE,surface,-101.25,32.5983,1.1e-05
2011-04-09 00:00:00,2011-04-09 00:00:00,PRATE,surface,-100.313,32.5983,1.42e-05
2011-04-09 00:00:00,2011-04-09 00:00:00,PRATE,surface,-99.3754,32.5983,1.55e-05
2011-04-09 00:00:00,2011-04-09 00:00:00,PRATE,surface,-98.4379,32.5983,1.98e-05
2011-04-09 00:00:00,2011-04-09 00:00:00,PRATE,surface,-97.5004,32.5983,2.53e-05
2011-04-09 00:00:00,2011-04-09 00:00:00,PRATE,surface,-96.5629,32.5983,2.9e-05
2011-04-09 00:00:00,2011-04-09 00:00:00,PRATE,surface,-95.6254,32.5983,3.44e-05
2011-04-09 00:00:00,2011-04-09 00:00:00,PRATE,surface,-94.6879,32.5983,4.33e-05
2011-04-09 00:00:00,2011-04-09 00:00:00,PRATE,surface,-93.7504,32.5983,5.1e-05
2011-04-09 00:00:00,2011-04-09 00:00:00,PRATE,surface,-92.8129,32.5983,5.79e-05
2011-04-09 00:00:00,2011-04-09 00:00:00,PRATE,surface,-107.813,33.5432,5.5e-06
2011-04-09 00:00:00,2011-04-09 00:00:00,PRATE,surface,-106.875,33.5432,6e-06
2011-04-09 00:00:00,2011-04-09 00:00:00,PRATE,surface,-105.938,33.5432,8.4e-06
2011-04-09 00:00:00,2011-04-09 00:00:00,PRATE,surface,-105,33.5432,6.3e-06
2011-04-09 00:00:00,2011-04-09 00:00:00,PRATE,surface,-104.063,33.5432,4.7e-06
2011-04-09 00:00:00,2011-04-09 00:00:00,PRATE,surface,-103.125,33.5432,5e-06
2011-04-09 00:00:00,2011-04-09 00:00:00,PRATE,surface,-102.188,33.5432,7.2e-06
2011-04-09 00:00:00,2011-04-09 00:00:00,PRATE,surface,-101.25,33.5432,9.9e-06
2011-04-09 00:00:00,2011-04-09 00:00:00,PRATE,surface,-100.313,33.5432,1.16e-05
2011-04-09 00:00:00,2011-04-09 00:00:00,PRATE,surface,-99.3754,33.5432,1.35e-05
2011-04-09 00:00:00,2011-04-09 00:00:00,PRATE,surface,-98.4379,33.5432,1.74e-05
2011-04-09 00:00:00,2011-04-09 00:00:00,PRATE,surface,-97.5004,33.5432,2.44e-05
2011-04-09 00:00:00,2011-04-09 00:00:00,PRATE,surface,-96.5629,33.5432,3.1e-05
2011-04-09 00:00:00,2011-04-09 00:00:00,PRATE,surface,-95.6254,33.5432,3.62e-05
2011-04-09 00:00:00,2011-04-09 00:00:00,PRATE,surface,-94.6879,33.5432,4.27e-05
2011-04-09 00:00:00,2011-04-09 00:00:00,PRATE,surface,-93.7504,33.5432,4.96e-05
2011-04-09 00:00:00,2011-04-09 00:00:00,PRATE,surface,-92.8129,33.5432,5.61e-05
2011-04-09 00:00:00,2011-04-09 00:00:00,PRATE,surface,-107.813,34.4881,9.9e-06
2011-04-09 00:00:00,2011-04-09 00:00:00,PRATE,surface,-106.875,34.4881,1.03e-05
2011-04-09 00:00:00,2011-04-09 00:00:00,PRATE,surface,-105.938,34.4881,1.06e-05
2011-04-09 00:00:00,2011-04-09 00:00:00,PRATE,surface,-105,34.4881,1.03e-05
2011-04-09 00:00:00,2011-04-09 00:00:00,PRATE,surface,-104.063,34.4881,7.5e-06
2011-04-09 00:00:00,2011-04-09 00:00:00,PRATE,surface,-103.125,34.4881,4.7e-06
2011-04-09 00:00:00,2011-04-09 00:00:00,PRATE,surface,-102.188,34.4881,5.4e-06
2011-04-09 00:00:00,2011-04-09 00:00:00,PRATE,surface,-101.25,34.4881,6.9e-06
2011-04-09 00:00:00,2011-04-09 00:00:00,PRATE,surface,-100.313,34.4881,8.3e-06
2011-04-09 00:00:00,2011-04-09 00:00:00,PRATE,surface,-99.3754,34.4881,1.05e-05
2011-04-09 00:00:00,2011-04-09 00:00:00,PRATE,surface,-98.4379,34.4881,1.43e-05
2011-04-09 00:00:00,2011-04-09 00:00:00,PRATE,surface,-97.5004,34.4881,2.01e-05
2011-04-09 00:00:00,2011-04-09 00:00:00,PRATE,surface,-96.5629,34.4881,2.7e-05
2011-04-09 00:00:00,2011-04-09 00:00:00,PRATE,surface,-95.6254,34.4881,3.32e-05
2011-04-09 00:00:00,2011-04-09 00:00:00,PRATE,surface,-94.6879,34.4881,3.95e-05
2011-04-09 00:00:00,2011-04-09 00:00:00,PRATE,surface,-93.7504,34.4881,4.64e-05
2011-04-09 00:00:00,2011-04-09 00:00:00,PRATE,surface,-92.8129,34.4881,5.05e-05
2011-04-09 00:00:00,2011-04-09 00:00:00,PRATE,surface,-107.813,35.4329,1.03e-05
2011-04-09 00:00:00,2011-04-09 00:00:00,PRATE,surface,-106.875,35.4329,1.12e-05
2011-04-09 00:00:00,2011-04-09 00:00:00,PRATE,surface,-105.938,35.4329,1.18e-05
2011-04-09 00:00:00,2011-04-09 00:00:00,PRATE,surface,-105,35.4329,1.27e-05
2011-04-09 00:00:00,2011-04-09 00:00:00,PRATE,surface,-104.063,35.4329,1.01e-05
2011-04-09 00:00:00,2011-04-09 00:00:00,PRATE,surface,-103.125,35.4329,9.1e-06
2011-04-09 00:00:00,2011-04-09 00:00:00,PRATE,surface,-102.188,35.4329,8.4e-06
2011-04-09 00:00:00,2011-04-09 00:00:00,PRATE,surface,-101.25,35.4329,8.1e-06
2011-04-09 00:00:00,2011-04-09 00:00:00,PRATE,surface,-100.313,35.4329,7.9e-06
2011-04-09 00:00:00,2011-04-09 00:00:00,PRATE,surface,-99.3754,35.4329,8.3e-06
2011-04-09 00:00:00,2011-04-09 00:00:00,PRATE,surface,-98.4379,35.4329,9.9e-06
2011-04-09 00:00:00,2011-04-09 00:00:00,PRATE,surface,-97.5004,35.4329,1.37e-05
2011-04-09 00:00:00,2011-04-09 00:00:00,PRATE,surface,-96.5629,35.4329,1.93e-05
2011-04-09 00:00:00,2011-04-09 00:00:00,PRATE,surface,-95.6254,35.4329,2.48e-05
2011-04-09 00:00:00,2011-04-09 00:00:00,PRATE,surface,-94.6879,35.4329,3.04e-05
2011-04-09 00:00:00,2011-04-09 00:00:00,PRATE,surface,-93.7504,35.4329,3.58e-05
2011-04-09 00:00:00,2011-04-09 00:00:00,PRATE,surface,-92.8129,35.4329,4e-05
2011-04-09 00:00:00,2011-04-09 00:00:00,PRATE,surface,-107.813,36.3778,1.19e-05
2011-04-09 00:00:00,2011-04-09 00:00:00,PRATE,surface,-106.875,36.3778,1.31e-05
2011-04-09 00:00:00,2011-04-09 00:00:00,PRATE,surface,-105.938,36.3778,1.2e-05
2011-04-09 00:00:00,2011-04-09 00:00:00,PRATE,surface,-105,36.3778,1.14e-05
2011-04-09 00:00:00,2011-04-09 00:00:00,PRATE,surface,-104.063,36.3778,1.14e-05
2011-04-09 00:00:00,2011-04-09 00:00:00,PRATE,surface,-103.125,36.3778,1.38e-05
2011-04-09 00:00:00,2011-04-09 00:00:00,PRATE,surface,-102.188,36.3778,1.46e-05
2011-04-09 00:00:00,2011-04-09 00:00:00,PRATE,surface,-101.25,36.3778,1.37e-05
2011-04-09 00:00:00,2011-04-09 00:00:00,PRATE,surface,-100.313,36.3778,1.19e-05
2011-04-09 00:00:00,2011-04-09 00:00:00,PRATE,surface,-99.3754,36.3778,1.07e-05
2011-04-09 00:00:00,2011-04-09 00:00:00,PRATE,surface,-98.4379,36.3778,1.02e-05
2011-04-09 00:00:00,2011-04-09 00:00:00,PRATE,surface,-97.5004,36.3778,1.1e-05
2011-04-09 00:00:00,2011-04-09 00:00:00,PRATE,surface,-96.5629,36.3778,1.33e-05
2011-04-09 00:00:00,2011-04-09 00:00:00,PRATE,surface,-95.6254,36.3778,1.74e-05
2011-04-09 00:00:00,2011-04-09 00:00:00,PRATE,surface,-94.6879,36.3778,2.24e-05
2011-04-09 00:00:00,2011-04-09 00:00:00,PRATE,surface,-93.7504,36.3778,2.7e-05
2011-04-09 00:00:00,2011-04-09 00:00:00,PRATE,surface,-92.8129,36.3778,3.13e-05
