2017-02-03 00:00:00,2017-02-03 00:00:00,TMP,surface,-107.813,25.0393,295.501
2017-02-03 00:00:00,2017-02-03 00:00:00,TMP,surface,-106.875,25.0393,289.4
2017-02-03 00:00:00,2017-02-03 00:00:00,TMP,surface,-105.938,25.0393,284.603
2017-02-03 00:00:00,2017-02-03 00:00:00,TMP,surface,-105,25.0393,283.06
2017-02-03 00:00:00,2017-02-03 00:00:00,TMP,surface,-104.063,25.0393,286.21
2017-02-03 00:00:00,2017-02-03 00:00:00,TMP,surface,-103.125,25.0393,288.746
2017-02-03 00:00:00,2017-02-03 00:00:00,TMP,surface,-102.188,25.0393,288.62
2017-02-03 00:00:00,2017-02-03 00:00:00,TMP,surface,-101.25,25.0393,286.839
2017-02-03 00:00:00,2017-02-03 00:00:00,TMP,surface,-100.313,25.0393,287.071
2017-02-03 00:00:00,2017-02-03 00:00:00,TMP,surface,-99.3754,25.0393,289.659
2017-02-03 00:00:00,2017-02-03 00:00:00,TMP,surface,-98.4379,25.0393,293.151
2017-02-03 00:00:00,2017-02-03 00:00:00,TMP,surface,-97.5004,25.0393,298.987
2017-02-03 00:00:00,2017-02-03 00:00:00,TMP,surface,-96.5629,25.0393,299.57
2017-02-03 00:00:00,2017-02-03 00:00:00,TMP,surface,-95.6254,25.0393,299.568
2017-02-03 00:00:00,2017-02-03 00:00:00,TMP,surface,-94.6879,25.0393,299.546
2017-02-03 00:00:00,2017-02-03 00:00:00,TMP,surface,-93.7504,25.0393,299.376
2017-02-03 00:00:00,2017-02-03 00:00:00,TMP,surface,-92.8129,25.0393,299.25
2017-02-03 00:00:00,2017-02-03 00:00:00,TMP,surface,-107.813,25.9842,290.64
2017-02-03 00:00:00,2017-02-03 00:00:00,TMP,surface,-106.875,25.9842,285.184
2017-02-03 00:00:00,2017-02-03 00:00:00,TMP,surface,-105.938,25.9842,282.852
2017-02-03 00:00:00,2017-02-03 00:00:00,TMP,surface,-105,25.9842,284.434
2017-02-03 00:00:00,2017-02-03 00:00:00,TMP,surface,-104.063,25.9842,288.055
2017-02-03 00:00:00,2017-02-03 00:00:00,TMP,surface,-103.125,25.9842,289.471
2017-02-03 00:00:00,2017-02-03 00:00:00,TMP,surface,-102.188,25.9842,288.952
2017-02-03 00:00:00,2017-02-03 00:00:00,TMP,surface,-101.25,25.9842,287.984
2017-02-03 00:00:00,2017-02-03 00:00:00,TMP,surface,-100.313,25.9842,288.108
2017-02-03 00:00:00,2017-02-03 00:00:00,TMP,surface,-99.3754,25.9842,290.602
2017-02-03 00:00:00,2017-02-03 00:00:00,TMP,surface,-98.4379,25.9842,292.887
2017-02-03 00:00:00,2017-02-03 00:00:00,TMP,surface,-97.5004,25.9842,294.541
2017-02-03 00:00:00,2017-02-03 00:00:00,TMP,surface,-96.5629,25.9842,299.029
2017-02-03 00:00:00,2017-02-03 00:00:00,TMP,surface,-95.6254,25.9842,299.229
2017-02-03 00:00:00,2017-02-03 00:00:00,TMP,surface,-94.6879,25.9842,299.226
2017-02-03 00:00:00,2017-02-03 00:00:00,TMP,surface,-93.7504,25.9842,299.176
2017-02-03 00:00:00,2017-02-03 00:00:00,TMP,surface,-92.8129,25.9842,299.242
2017-02-03 00:00:00,2017-02-03 00:00:00,TMP,surface,-107.813,26.929,286.012
2017-02-03 00:00:00,2017-02-03 00:00:00,TMP,surface,-106.875,26.929,282.348
2017-02-03 00:00:00,2017-02-03 00:00:00,TMP,surface,-105.938,26.929,283.786
2017-02-03 00:00:00,2017-02-03 00:00:00,TMP,surface,-105,26.929,286.514
2017-02-03 00:00:00,2017-02-03 00:00:00,TMP,surface,-104.063,26.929,287.948
2017-02-03 00:00:00,2017-02-03 00:00:00,TMP,surface,-103.125,26.929,287.447
2017-02-03 00:00:00,2017-02-03 00:00:00,TMP,surface,-102.188,26.929,287.224
2017-02-03 00:00:00,2017-02-03 00:00:00,TMP,surface,-101.25,26.929,287.962
2017-02-03 00:00:00,2017-02-03 00:00:00,TMP,surface,-100.313,26.929,289.274
2017-02-03 00:00:00,2017-02-03 00:00:00,TMP,surface,-99.3754,26.929,290.722
2017-02-03 00:00:00,2017-02-03 00:00:00,TMP,surface,-98.4379,26.929,291.391
2017-02-03 00:00:00,2017-02-03 00:00:00,TMP,surface,-97.5004,26.929,296.986
2017-02-03 00:00:00,2017-02-03 00:00:00,TMP,surface,-96.5629,26.929,297.763
2017-02-03 00:00:00,2017-02-03 00:00:00,TMP,surface,-95.6254,26.929,298.488
2017-02-03 00:00:00,2017-02-03 00:00:00,TMP,surface,-94.6879,26.929,298.661
2017-02-03 00:00:00,2017-02-03 00:00:00,TMP,surface,-93.7504,26.929,298.523
2017-02-03 00:00:00,2017-02-03 00:00:00,TMP,surface,-92.8129,26.929,298.634
2017-02-03 00:00:00,2017-02-03 00:00:00,TMP,surface,-107.813,27.8739,282.944
2017-02-03 00:00:00,2017-02-03 00:00:00,TMP,surface,-106.875,27.8739,281.776
2017-02-03 00:00:00,2017-02-03 00:00:00,TMP,surface,-105.938,27.8739,284.839
2017-02-03 00:00:00,2017-02-03 00:00:00,TMP,surface,-105,27.8739,287.25
2017-02-03 00:00:00,2017-02-03 00:00:00,TMP,surface,-104.063,27.8739,287.068
2017-02-03 00:00:00,2017-02-03 00:00:00,TMP,surface,-103.125,27.8739,285.831
2017-02-03 00:00:00,2017-02-03 00:00:00,TMP,surface,-102.188,27.8739,285.887
2017-02-03 00:00:00,2017-02-03 00:00:00,TMP,surface,-101.25,27.8739,287.456
2017-02-03 00:00:00,2017-02-03 00:00:00,TMP,surface,-100.313,27.8739,289.255
2017-02-03 00:00:00,2017-02-03 00:00:00,TMP,surface,-99.3754,27.8739,289.73
2017-02-03 00:00:00,2017-02-03 00:00:00,TMP,surface,-98.4379,27.8739,289.964
2017-02-03 00:00:00,2017-02-03 00:00:00,TMP,surface,-97.5004,27.8739,293.696
2017-02-03 00:00:00,2017-02-03 00:00:00,TMP,surface,-96.5629,27.8739,297.469
2017-02-03 00:00:00,2017-02-03 00:00:00,TMP,surface,-95.6254,27.8739,297.738
2017-02-03 00:00:00,2017-02-03 00:00:00,TMP,surface,-94.6879,27.8739,297.509
2017-02-03 00:00:00,2017-02-03 00:00:00,TMP,surface,-93.7504,27.8739,297.371
2017-02-03 00:00:00,2017-02-03 00:00:00,TMP,surface,-92.8129,27.8739,297.57
2017-02-03 00:00:00,2017-02-03 00:00:00,TMP,surface,-107.813,28.8188,281.626
2017-02-03 00:00:00,2017-02-03 00:00:00,TMP,surface,-106.875,28.8188,282.114
2017-02-03 00:00:00,2017-02-03 00:00:00,TMP,surface,-105.938,28.8188,284.935
2017-02-03 00:00:00,2017-02-03 00:00:00,TMP,surface,-105,28.8188,286.314
2017-02-03 00:00:00,2017-02-03 00:00:00,TMP,surface,-104.063,28.8188,285.288
2017-02-03 00:00:00,2017-02-03 00:00:00,TMP,surface,-103.125,28.8188,284.5
2017-02-03 00:00:00,2017-02-03 00:00:00,TMP,surface,-102.188,28.8188,285.173
2017-02-03 00:00:00,2017-02-03 00:00:00,TMP,surface,-101.25,28.8188,286.839
2017-02-03 00:00:00,2017-02-03 00:00:00,TMP,surface,-100.313,28.8188,287.892
2017-02-03 00:00:00,2017-02-03 00:00:00,TMP,surface,-99.3754,28.8188,287.896
2017-02-03 00:00:00,2017-02-03 00:00:00,TMP,surface,-98.4379,28.8188,287.803
2017-02-03 00:00:00,2017-02-03 00:00:00,TMP,surface,-97.5004,28.8188,288.362
2017-02-03 00:00:00,2017-02-03 00:00:00,TMP,surface,-96.5629,28.8188,289.45
2017-02-03 00:00:00,2017-02-03 00:00:00,TMP,surface,-95.6254,28.8188,292.669
2017-02-03 00:00:00,2017-02-03 00:00:00,TMP,surface,-94.6879,28.8188,296.738
2017-02-03 00:00:00,2017-02-03 00:00:00,TMP,surface,-93.7504,28.8188,296.679
2017-02-03 00:00:00,2017-02-03 00:00:00,TMP,surface,-92.8129,28.8188,296.935
2017-02-03 00:00:00,2017-02-03 00:00:00,TMP,surface,-107.813,29.7637,282.33
2017-02-03 00:00:00,2017-02-03 00:00:00,TMP,surface,-106.875,29.7637,283.242
2017-02-03 00:00:00,2017-02-03 00:00:00,TMP,surface,-105.938,29.7637,285.063
2017-02-03 00:00:00,2017-02-03 00:00:00,TMP,surface,-105,29.7637,284.701
2017-02-03 00:00:00,2017-02-03 00:00:00,TMP,surface,-104.063,29.7637,284.16
2017-02-03 00:00:00,2017-02-03 00:00:00,TMP,surface,-103.125,29.7637,284.363
2017-02-03 00:00:00,2017-02-03 00:00:00,TMP,surface,-102.188,29.7637,285.327
2017-02-03 00:00:00,2017-02-03 00:00:00,TMP,surface,-101.25,29.7637,285.967
2017-02-03 00:00:00,2017-02-03 00:00:00,TMP,surface,-100.313,29.7637,285.832
2017-02-03 00:00:00,2017-02-03 00:00:00,TMP,surface,-99.3754,29.7637,285.544
2017-02-03 00:00:00,2017-02-03 00:00:00,TMP,surface,-98.4379,29.7637,285.664
2017-02-03 00:00:00,2017-02-03 00:00:00,TMP,surface,-97.5004,29.7637,286.077
2017-02-03 00:00:00,2017-02-03 00:00:00,TMP,surface,-96.5629,29.7637,286.698
2017-02-03 00:00:00,2017-02-03 00:00:00,TMP,surface,-95.6254,29.7637,287.557
2017-02-03 00:00:00,2017-02-03 00:00:00,TMP,surface,-94.6879,29.7637,290.783
2017-02-03 00:00:00,2017-02-03 00:00:00,TMP,surface,-93.7504,29.7637,294.664
2017-02-03 00:00:00,2017-02-03 00:00:00,TMP,surface,-92.8129,29.7637,289.116
2017-02-03 00:00:00,2017-02-03 00:00:00,TMP,surface,-107.813,30.7085,284.101
2017-02-03 00:00:00,2017-02-03 00:00:00,TMP,surface,-106.875,30.7085,284.976
2017-02-03 00:00:00,2017-02-03 00:00:00,TMP,surface,-105.938,30.7085,284.682
2017-02-03 00:00:00,2017-02-03 00:00:00,TMP,surface,-105,30.7085,283.635
2017-02-03 00:00:00,2017-02-03 00:00:00,TMP,surface,-104.063,30.7085,283.355
2017-02-03 00:00:00,2017-02-03 00:00:00,TMP,surface,-103.125,30.7085,284.08
2017-02-03 00:00:00,2017-02-03 00:00:00,TMP,surface,-102.188,30.7085,284.856
2017-02-03 00:00:00,2017-02-03 00:00:00,TMP,surface,-101.25,30.7085,284.824
2017-02-03 00:00:00,2017-02-03 00:00:00,TMP,surface,-100.313,30.7085,284.392
2017-02-03 00:00:00,2017-02-03 00:00:00,TMP,surface,-99.3754,30.7085,284.135
2017-02-03 00:00:00,2017-02-03 00:00:00,TMP,surface,-98.4379,30.7085,284.394
2017-02-03 00:00:00,2017-02-03 00:00:00,TMP,surface,-97.5004,30.7085,284.948
2017-02-03 00:00:00,2017-02-03 00:00:00,TMP,surface,-96.5629,30.7085,285.365
2017-02-03 00:00:00,2017-02-03 00:00:00,TMP,surface,-95.6254,30.7085,285.612
2017-02-03 00:00:00,2017-02-03 00:00:00,TMP,surface,-94.6879,30.7085,285.847
2017-02-03 00:00:00,2017-02-03 00:00:00,TMP,surface,-93.7504,30.7085,285.962
2017-02-03 00:00:00,2017-02-03 00:00:00,TMP,surface,-92.8129,30.7085,285.968
2017-02-03 00:00:00,2017-02-03 00:00:00,TMP,surface,-107.813,31.6534,283.93
2017-02-03 00:00:00,2017-02-03 00:00:00,TMP,surface,-106.875,31.6534,284.421
2017-02-03 00:00:00,2017-02-03 00:00:00,TMP,surface,-105.938,31.6534,283.431
2017-02-03 00:00:00,2017-02-03 00:00:00,TMP,surface,-105,31.6534,282.948
2017-02-03 00:00:00,2017-02-03 00:00:00,TMP,surface,-104.063,31.6534,282.984
2017-02-03 00:00:00,2017-02-03 00:00:00,TMP,surface,-103.125,31.6534,283.607
2017-02-03 00:00:00,2017-02-03 00:00:00,TMP,surface,-102.188,31.6534,283.928
2017-02-03 00:00:00,2017-02-03 00:00:00,TMP,surface,-101.25,31.6534,283.839
2017-02-03 00:00:00,2017-02-03 00:00:00,TMP,surface,-100.313,31.6534,283.639
2017-02-03 00:00:00,2017-02-03 00:00:00,TMP,surface,-99.3754,31.6534,283.687
2017-02-03 00:00:00,2017-02-03 00:00:00,TMP,surface,-98.4379,31.6534,284.027
2017-02-03 00:00:00,2017-02-03 00:00:00,TMP,surface,-97.5004,31.6534,284.418
2017-02-03 00:00:00,2017-02-03 00:00:00,TMP,surface,-96.5629,31.6534,284.653
2017-02-03 00:00:00,2017-02-03 00:00:00,TMP,surface,-95.6254,31.6534,284.615
2017-02-03 00:00:00,2017-02-03 00:00:00,TMP,surface,-94.6879,31.6534,284.392
2017-02-03 00:00:00,2017-02-03 00:00:00,TMP,surface,-93.7504,31.6534,284.34
2017-02-03 00:00:00,2017-02-03 00:00:00,TMP,surface,-92.8129,31.6534,284.549
2017-02-03 00:00:00,2017-02-03 00:00:00,TMP,surface,-107.813,32.5983,281.298
2017-02-03 00:00:00,2017-02-03 00:00:00,TMP,surface,-106.875,32.5983,281.579
2017-02-03 00:00:00,2017-02-03 00:00:00,TMP,surface,-105.938,32.5983,281.672
2017-02-03 00:00:00,2017-02-03 00:00:00,TMP,surface,-105,32.5983,281.741
2017-02-03 00:00:00,2017-02-03 00:00:00,TMP,surface,-104.063,32.5983,282.335
2017-02-03 00:00:00,2017-02-03 00:00:00,TMP,surface,-103.125,32.5983,282.711
2017-02-03 00:00:00,2017-02-03 00:00:00,TMP,surface,-102.188,32.5983,282.669
2017-02-03 00:00:00,2017-02-03 00:00:00,TMP,surface,-101.25,32.5983,282.791
2017-02-03 00:00:00,2017-02-03 00:00:00,TMP,surface,-100.313,32.5983,283.292
2017-02-03 00:00:00,2017-02-03 00:00:00,TMP,surface,-99.3754,32.5983,283.698
2017-02-03 00:00:00,2017-02-03 00:00:00,TMP,surface,-98.4379,32.5983,283.828
2017-02-03 00:00:00,2017-02-03 00:00:00,TMP,surface,-97.5004,32.5983,283.983
2017-02-03 00:00:00,2017-02-03 00:00:00,TMP,surface,-96.5629,32.5983,284.079
2017-02-03 00:00:00,2017-02-03 00:00:00,TMP,surface,-95.6254,32.5983,283.882
2017-02-03 00:00:00,2017-02-03 00:00:00,TMP,surface,-94.6879,32.5983,283.607
2017-02-03 00:00:00,2017-02-03 00:00:00,TMP,surface,-93.7504,32.5983,283.579
2017-02-03 00:00:00,2017-02-03 00:00:00,TMP,surface,-92.8129,32.5983,284.026
2017-02-03 00:00:00,2017-02-03 00:00:00,TMP,surface,-107.813,33.5432,278.055
2017-02-03 00:00:00,2017-02-03 00:00:00,TMP,surface,-106.875,33.5432,279.17
2017-02-03 00:00:00,2017-02-03 00:00:00,TMP,surface,-105.938,33.5432,279.984
2017-02-03 00:00:00,2017-02-03 00:00:00,TMP,surface,-105,33.5432,280.691
2017-02-03 00:00:00,2017-02-03 00:00:00,TMP,surface,-104.063,33.5432,281.397
2017-02-03 00:00:00,2017-02-03 00:00:00,TMP,surface,-103.125,33.5432,281.659
2017-02-03 00:00:00,2017-02-03 00:00:00,TMP,surface,-102.188,33.5432,281.688
2017-02-03 00:00:00,2017-02-03 00:00:00,TMP,surface,-101.25,33.5432,281.976
2017-02-03 00:00:00,2017-02-03 00:00:00,TMP,surface,-100.313,33.5432,282.69
2017-02-03 00:00:00,2017-02-03 00:00:00,TMP,surface,-99.3754,33.5432,283.221
2017-02-03 00:00:00,2017-02-03 00:00:00,TMP,surface,-98.4379,33.5432,283.277
2017-02-03 00:00:00,2017-02-03 00:00:00,TMP,surface,-97.5004,33.5432,283.159
2017-02-03 00:00:00,2017-02-03 00:00:00,TMP,surface,-96.5629,33.5432,283.058
2017-02-03 00:00:00,2017-02-03 00:00:00,TMP,surface,-95.6254,33.5432,282.919
2017-02-03 00:00:00,2017-02-03 00:00:00,TMP,surface,-94.6879,33.5432,282.765
2017-02-03 00:00:00,2017-02-03 00:00:00,TMP,surface,-93.7504,33.5432,282.751
2017-02-03 00:00:00,2017-02-03 00:00:00,TMP,surface,-92.8129,33.5432,283.122
2017-02-03 00:00:00,2017-02-03 00:00:00,TMP,surface,-107.813,34.4881,276.408
2017-02-03 00:00:00,2017-02-03 00:00:00,TMP,surface,-106.875,34.4881,277.803
2017-02-03 00:00:00,2017-02-03 00:00:00,TMP,surface,-105.938,34.4881,278.725
2017-02-03 00:00:00,2017-02-03 00:00:00,TMP,surface,-105,34.4881,279.632
2017-02-03 00:00:00,2017-02-03 00:00:00,TMP,surface,-104.063,34.4881,280.157
2017-02-03 00:00:00,2017-02-03 00:00:00,TMP,surface,-103.125,34.4881,280.475
2017-02-03 00:00:00,2017-02-03 00:00:00,TMP,surface,-102.188,34.4881,280.791
2017-02-03 00:00:00,2017-02-03 00:00:00,TMP,surface,-101.25,34.4881,281.141
2017-02-03 00:00:00,2017-02-03 00:00:00,TMP,surface,-100.313,34.4881,281.736
2017-02-03 00:00:00,2017-02-03 00:00:00,TMP,surface,-99.3754,34.4881,282.195
2017-02-03 00:00:00,2017-02-03 00:00:00,TMP,surface,-98.4379,34.4881,282.256
2017-02-03 00:00:00,2017-02-03 00:00:00,TMP,surface,-97.5004,34.4881,282.178
2017-02-03 00:00:00,2017-02-03 00:00:00,TMP,surface,-96.5629,34.4881,282.109
2017-02-03 00:00:00,2017-02-03 00:00:00,TMP,surface,-95.6254,34.4881,281.875
2017-02-03 00:00:00,2017-02-03 00:00:00,TMP,surface,-94.6879,34.4881,281.496
2017-02-03 00:00:00,2017-02-03 00:00:00,TMP,surface,-93.7504,34.4881,281.359
2017-02-03 00:00:00,2017-02-03 00:00:00,TMP,surface,-92.8129,34.4881,281.799
2017-02-03 00:00:00,2017-02-03 00:00:00,TMP,surface,-107.813,35.4329,276.28
2017-02-03 00:00:00,2017-02-03 00:00:00,TMP,surface,-106.875,35.4329,276.544
2017-02-03 00:00:00,2017-02-03 00:00:00,TMP,surface,-105.938,35.4329,276.847
2017-02-03 00:00:00,2017-02-03 00:00:00,TMP,surface,-105,35.4329,277.514
2017-02-03 00:00:00,2017-02-03 00:00:00,TMP,surface,-104.063,35.4329,278.839
2017-02-03 00:00:00,2017-02-03 00:00:00,TMP,surface,-103.125,35.4329,279.788
2017-02-03 00:00:00,2017-02-03 00:00:00,TMP,surface,-102.188,35.4329,280.013
2017-02-03 00:00:00,2017-02-03 00:00:00,TMP,surface,-101.25,35.4329,280.346
2017-02-03 00:00:00,2017-02-03 00:00:00,TMP,surface,-100.313,35.4329,280.834
2017-02-03 00:00:00,2017-02-03 00:00:00,TMP,surface,-99.3754,35.4329,281.047
2017-02-03 00:00:00,2017-02-03 00:00:00,TMP,surface,-98.4379,35.4329,281.085
2017-02-03 00:00:00,2017-02-03 00:00:00,TMP,surface,-97.5004,35.4329,281.346
2017-02-03 00:00:00,2017-02-03 00:00:00,TMP,surface,-96.5629,35.4329,281.567
2017-02-03 00:00:00,2017-02-03 00:00:00,TMP,surface,-95.6254,35.4329,281.33
2017-02-03 00:00:00,2017-02-03 00:00:00,TMP,surface,-94.6879,35.4329,280.768
2017-02-03 00:00:00,2017-02-03 00:00:00,TMP,surface,-93.7504,35.4329,280.282
2017-02-03 00:00:00,2017-02-03 00:00:00,TMP,surface,-92.8129,35.4329,280.439
2017-02-03 00:00:00,2017-02-03 00:00:00,TMP,surface,-107.813,36.3778,275.523
2017-02-03 00:00:00,2017-02-03 00:00:00,TMP,surface,-106.875,36.3778,273.9
2017-02-03 00:00:00,2017-02-03 00:00:00,TMP,surface,-105.938,36.3778,274.004
2017-02-03 00:00:00,2017-02-03 00:00:00,TMP,surface,-105,36.3778,275.152
2017-02-03 00:00:00,2017-02-03 00:00:00,TMP,surface,-104.063,36.3778,277.058
2017-02-03 00:00:00,2017-02-03 00:00:00,TMP,surface,-103.125,36.3778,278.24
2017-02-03 00:00:00,2017-02-03 00:00:00,TMP,surface,-102.188,36.3778,278.948
2017-02-03 00:00:00,2017-02-03 00:00:00,TMP,surface,-101.25,36.3778,279.568
2017-02-03 00:00:00,2017-02-03 00:00:00,TMP,surface,-100.313,36.3778,280.064
2017-02-03 00:00:00,2017-02-03 00:00:00,TMP,surface,-99.3754,36.3778,280.32
2017-02-03 00:00:00,2017-02-03 00:00:00,TMP,surface,-98.4379,36.3778,280.269
2017-02-03 00:00:00,2017-02-03 00:00:00,TMP,surface,-97.5004,36.3778,280.418
2017-02-03 00:00:00,2017-02-03 00:00:00,TMP,surface,-96.5629,36.3778,280.685
2017-02-03 00:00:00,2017-02-03 00:00:00,TMP,surface,-95.6254,36.3778,280.496
2017-02-03 00:00:00,2017-02-03 00:00:00,TMP,surface,-94.6879,36.3778,279.84
2017-02-03 00:00:00,2017-02-03 00:00:00,TMP,surface,-93.7504,36.3778,279.195
2017-02-03 00:00:00,2017-02-03 00:00:00,TMP,surface,-92.8129,36.3778,279.195
2017-02-03 00:00:00,2017-02-03 00:00:00,PRATE,surface,-107.813,25.0393,0.0001042
2017-02-03 00:00:00,2017-02-03 00:00:00,PRATE,surface,-106.875,25.0393,0.0001345
2017-02-03 00:00:00,2017-02-03 00:00:00,PRATE,surface,-105.938,25.0393,0.0001314
2017-02-03 00:00:00,2017-02-03 00:00:00,PRATE,surface,-105,25.0393,7.45e-05
2017-02-03 00:00:00,2017-02-03 00:00:00,PRATE,surface,-104.063,25.0393,3.51e-05
2017-02-03 00:00:00,2017-02-03 00:00:00,PRATE,surface,-103.125,25.0393,1.86e-05
2017-02-03 00:00:00,2017-02-03 00:00:00,PRATE,surface,-102.188,25.0393,2.55e-05
2017-02-03 00:00:00,2017-02-03 00:00:00,PRATE,surface,-101.25,25.0393,4.93e-05
2017-02-03 00:00:00,2017-02-03 00:00:00,PRATE,surface,-100.313,25.0393,8.59e-05
2017-02-03 00:00:00,2017-02-03 00:00:00,PRATE,surface,-99.3754,25.0393,8.58e-05
2017-02-03 00:00:00,2017-02-03 00:00:00,PRATE,surface,-98.4379,25.0393,4.13e-05
2017-02-03 00:00:00,2017-02-03 00:00:00,PRATE,surface,-97.5004,25.0393,3.58e-05
2017-02-03 00:00:00,2017-02-03 00:00:00,PRATE,surface,-96.5629,25.0393,3.4e-05
2017-02-03 00:00:00,2017-02-03 00:00:00,PRATE,surface,-95.6254,25.0393,3.78e-05
2017-02-03 00:00:00,2017-02-03 00:00:00,PRATE,surface,-94.6879,25.0393,4.59e-05
2017-02-03 00:00:00,2017-02-03 00:00:00,PRATE,surface,-93.7504,25.0393,3.94e-05
2017-02-03 00:00:00,2017-02-03 00:00:00,PRATE,surface,-92.8129,25.0393,2.2e-05
2017-02-03 00:00:00,2017-02-03 00:00:00,PRATE,surface,-107.813,25.9842,0.0001319
2017-02-03 00:00:00,2017-02-03 00:00:00,PRATE,surface,-106.875,25.9842,0.0001145
2017-02-03 00:00:00,2017-02-03 00:00:00,PRATE,surface,-105.938,25.9842,7.37e-05
2017-02-03 00:00:00,2017-02-03 00:00:00,PRATE,surface,-105,25.9842,4.94e-05
2017-02-03 00:00:00,2017-02-03 00:00:00,PRATE,surface,-104.063,25.9842,2.81e-05
2017-02-03 00:00:00,2017-02-03 00:00:00,PRATE,surface,-103.125,25.9842,2.36e-05
2017-02-03 00:00:00,2017-02-03 00:00:00,PRATE,surface,-102.188,25.9842,3.24e-05
2017-02-03 00:00:00,2017-02-03 00:00:00,PRATE,surface,-101.25,25.9842,4.21e-05
2017-02-03 00:00:00,2017-02-03 00:00:00,PRATE,surface,-100.313,25.9842,6.29e-05
2017-02-03 00:00:00,2017-02-03 00:00:00,PRATE,surface,-99.3754,25.9842,6.93e-05
2017-02-03 00:00:00,2017-02-03 00:00:00,PRATE,surface,-98.4379,25.9842,6.45e-05
2017-02-03 00:00:00,2017-02-03 00:00:00,PRATE,surface,-97.5004,25.9842,4.84e-05
2017-02-03 00:00:00,2017-02-03 00:00:00,PRATE,surface,-96.5629,25.9842,4.47e-05
2017-02-03 00:00:00,2017-02-03 00:00:00,PRATE,surface,-95.6254,25.9842,5.34e-05
2017-02-03 00:00:00,2017-02-03 00:00:00,PRATE,surface,-94.6879,25.9842,6.38e-05
2017-02-03 00:00:00,2017-02-03 00:00:00,PRATE,surface,-93.7504,25.9842,5.55e-05
2017-02-03 00:00:00,2017-02-03 00:00:00,PRATE,surface,-92.8129,25.9842,3.71e-05
2017-02-03 00:00:00,2017-02-03 00:00:00,PRATE,surface,-107.813,26.929,0.0001114
2017-02-03 00:00:00,2017-02-03 00:00:00,PRATE,surface,-106.875,26.929,6.98e-05
2017-02-03 00:00:00,2017-02-03 00:00:00,PRATE,surface,-105.938,26.929,4.13e-05
2017-02-03 00:00:00,2017-02-03 00:00:00,PRATE,surface,-105,26.929,2.94e-05
2017-02-03 00:00:00,2017-02-03 00:00:00,PRATE,surface,-104.063,26.929,2.13e-05
2017-02-03 00:00:00,2017-02-03 00:00:00,PRATE,surface,-103.125,26.929,2.69e-05
2017-02-03 00:00:00,2017-02-03 00:00:00,PRATE,surface,-102.188,26.929,3.87e-05
2017-02-03 00:00:00,2017-02-03 00:00:00,PRATE,surface,-101.25,26.929,3.7e-05
2017-02-03 00:00:00,2017-02-03 00:00:00,PRATE,surface,-100.313,26.929,3.02e-05
2017-02-03 00:00:00,2017-02-03 00:00:00,PRATE,surface,-99.3754,26.929,4.02e-05
2017-02-03 00:00:00,2017-02-03 00:00:00,PRATE,surface,-98.4379,26.929,9.23e-05
2017-02-03 00:00:00,2017-02-03 00:00:00,PRATE,surface,-97.5004,26.929,6.34e-05
2017-02-03 00:00:00,2017-02-03 00:00:00,PRATE,surface,-96.5629,26.929,3.81e-05
2017-02-03 00:00:00,2017-02-03 00:00:00,PRATE,surface,-95.6254,26.929,4.89e-05
2017-02-03 00:00:00,2017-02-03 00:00:00,PRATE,surface,-94.6879,26.929,7.15e-05
2017-02-03 00:00:00,2017-02-03 00:00:00,PRATE,surface,-93.7504,26.929,7.29e-05
2017-02-03 00:00:00,2017-02-03 00:00:00,PRATE,surface,-92.8129,26.929,5.98e-05
2017-02-03 00:00:00,2017-02-03 00:00:00,PRATE,surface,-107.813,27.8739,7.06e-05
2017-02-03 00:00:00,2017-02-03 00:00:00,PRATE,surface,-106.875,27.8739,4.04e-05
2017-02-03 00:00:00,2017-02-03 00:00:00,PRATE,surface,-105.938,27.8739,2.27e-05
2017-02-03 00:00:00,2017-02-03 00:00:00,PRATE,surface,-105,27.8739,1.55e-05
2017-02-03 00:00:00,2017-02-03 00:00:00,PRATE,surface,-104.063,27.8739,1.79e-05
2017-02-03 00:00:00,2017-02-03 00:00:00,PRATE,surface,-103.125,27.8739,2.53e-05
2017-02-03 00:00:00,2017-02-03 00:00:00,PRATE,surface,-102.188,27.8739,3.41e-05
2017-02-03 00:00:00,2017-02-03 00:00:00,PRATE,surface,-101.25,27.8739,2.77e-05
2017-02-03 00:00:00,2017-02-03 00:00:00,PRATE,surface,-100.313,27.8739,2.27e-05
2017-02-03 00:00:00,2017-02-03 00:00:00,PRATE,surface,-99.3754,27.8739,3.69e-05
2017-02-03 00:00:00,2017-02-03 00:00:00,PRATE,surface,-98.4379,27.8739,6.95e-05
2017-02-03 00:00:00,2017-02-03 00:00:00,PRATE,surface,-97.5004,27.8739,6.99e-05
2017-02-03 00:00:00,2017-02-03 00:00:00,PRATE,surface,-96.5629,27.8739,4.48e-05
2017-02-03 00:00:00,2017-02-03 00:00:00,PRATE,surface,-95.6254,27.8739,4.13e-05
2017-02-03 00:00:00,2017-02-03 00:00:00,PRATE,surface,-94.6879,27.8739,5.85e-05
2017-02-03 00:00:00,2017-02-03 00:00:00,PRATE,surface,-93.7504,27.8739,7.89e-05
2017-02-03 00:00:00,2017-02-03 00:00:00,PRATE,surface,-92.8129,27.8739,8.84e-05
2017-02-03 00:00:00,2017-02-03 00:00:00,PRATE,surface,-107.813,28.8188,4.47e-05
2017-02-03 00:00:00,2017-02-03 00:00:00,PRATE,surface,-106.875,28.8188,3.62e-05
2017-02-03 00:00:00,2017-02-03 00:00:00,PRATE,surface,-105.938,28.8188,2.41e-05
2017-02-03 00:00:00,2017-02-03 00:00:00,PRATE,surface,-105,28.8188,2.06e-05
2017-02-03 00:00:00,2017-02-03 00:00:00,PRATE,surface,-104.063,28.8188,2.27e-05
2017-02-03 00:00:00,2017-02-03 00:00:00,PRATE,surface,-103.125,28.8188,2.41e-05
2017-02-03 00:00:00,2017-02-03 00:00:00,PRATE,surface,-102.188,28.8188,2.45e-05
2017-02-03 00:00:00,2017-02-03 00:00:00,PRATE,surface,-101.25,28.8188,2.38e-05
2017-02-03 00:00:00,2017-02-03 00:00:00,PRATE,surface,-100.313,28.8188,2.97e-05
2017-02-03 00:00:00,2017-02-03 00:00:00,PRATE,surface,-99.3754,28.8188,3.68e-05
2017-02-03 00:00:00,2017-02-03 00:00:00,PRATE,surface,-98.4379,28.8188,5.62e-05
2017-02-03 00:00:00,2017-02-03 00:00:00,PRATE,surface,-97.5004,28.8188,7.34e-05
2017-02-03 00:00:00,2017-02-03 00:00:00,PRATE,surface,-96.5629,28.8188,6.62e-05
2017-02-03 00:00:00,2017-02-03 00:00:00,PRATE,surface,-95.6254,28.8188,4.72e-05
2017-02-03 00:00:00,2017-02-03 00:00:00,PRATE,surface,-94.6879,28.8188,4.63e-05
2017-02-03 00:00:00,2017-02-03 00:00:00,PRATE,surface,-93.7504,28.8188,6.92e-05
2017-02-03 00:00:00,2017-02-03 00:00:00,PRATE,surface,-92.8129,28.8188,9.44e-05
2017-02-03 00:00:00,2017-02-03 00:00:00,PRATE,surface,-107.813,29.7637,2.63e-05
2017-02-03 00:00:00,2017-02-03 00:00:00,PRATE,surface,-106.875,29.7637,2.98e-05
2017-02-03 00:00:00,2017-02-03 00:00:00,PRATE,surface,-105.938,29.7637,3.1e-05
2017-02-03 00:00:00,2017-02-03 00:00:00,PRATE,surface,-105,29.7637,3.25e-05
2017-02-03 00:00:00,2017-02-03 00:00:00,PRATE,surface,-104.063,29.7637,2.86e-05
2017-02-03 00:00:00,2017-02-03 00:00:00,PRATE,surface,-103.125,29.7637,2.51e-05
2017-02-03 00:00:00,2017-02-03 00:00:00,PRATE,surface,-102.188,29.7637,2.34e-05
2017-02-03 00:00:00,2017-02-03 00:00:00,PRATE,surface,-101.25,29.7637,2.64e-05
2017-02-03 00:00:00,2017-02-03 00:00:00,PRATE,surface,-100.313,29.7637,3.99e-05
2017-02-03 00:00:00,2017-02-03 00:00:00,PRATE,surface,-99.3754,29.7637,5.08e-05
2017-02-03 00:00:00,2017-02-03 00:00:00,PRATE,surface,-98.4379,29.7637,4.79e-05
2017-02-03 00:00:00,2017-02-03 00:00:00,PRATE,surface,-97.5004,29.7637,5.97e-05
2017-02-03 00:00:00,2017-02-03 00:00:00,PRATE,surface,-96.5629,29.7637,8.19e-05
2017-02-03 00:00:00,2017-02-03 00:00:00,PRATE,surface,-95.6254,29.7637,8.63e-05
2017-02-03 00:00:00,2017-02-03 00:00:00,PRATE,surface,-94.6879,29.7637,7.52e-05
2017-02-03 00:00:00,2017-02-03 00:00:00,PRATE,surface,-93.7504,29.7637,6.23e-05
2017-02-03 00:00:00,2017-02-03 00:00:00,PRATE,surface,-92.8129,29.7637,6.83e-05
2017-02-03 00:00:00,2017-02-03 00:00:00,PRATE,surface,-107.813,30.7085,1.31e-05
2017-02-03 00:00:00,2017-02-03 00:00:00,PRATE,surface,-106.875,30.7085,1.47e-05
2017-02-03 00:00:00,2017-02-03 00:00:00,PRATE,surface,-105.938,30.7085,2.17e-05
2017-02-03 00:00:00,2017-02-03 00:00:00,PRATE,surface,-105,30.7085,2.92e-05
2017-02-03 00:00:00,2017-02-03 00:00:00,PRATE,surface,-104.063,30.7085,3.16e-05
2017-02-03 00:00:00,2017-02-03 00:00:00,PRATE,surface,-103.125,30.7085,2.78e-05
2017-02-03 00:00:00,2017-02-03 00:00:00,PRATE,surface,-102.188,30.7085,2.4e-05
2017-02-03 00:00:00,2017-02-03 00:00:00,PRATE,surface,-101.25,30.7085,2.65e-05
2017-02-03 00:00:00,2017-02-03 00:00:00,PRATE,surface,-100.313,30.7085,3.83e-05
2017-02-03 00:00:00,2017-02-03 00:00:00,PRATE,surface,-99.3754,30.7085,5.38e-05
2017-02-03 00:00:00,2017-02-03 00:00:00,PRATE,surface,-98.4379,30.7085,5.85e-05
2017-02-03 00:00:00,2017-02-03 00:00:00,PRATE,surface,-97.5004,30.7085,5.55e-05
2017-02-03 00:00:00,2017-02-03 00:00:00,PRATE,surface,-96.5629,30.7085,6.98e-05
2017-02-03 00:00:00,2017-02-03 00:00:00,PRATE,surface,-95.6254,30.7085,9.5e-05
2017-02-03 00:00:00,2017-02-03 00:00:00,PRATE,surface,-94.6879,30.7085,0.0001006
2017-02-03 00:00:00,2017-02-03 00:00:00,PRATE,surface,-93.7504,30.7085,8.8e-05
2017-02-03 00:00:00,2017-02-03 00:00:00,PRATE,surface,-92.8129,30.7085,6.57e-05
2017-02-03 00:00:00,2017-02-03 00:00:00,PRATE,surface,-107.813,31.6534,9.3e-06
2017-02-03 00:00:00,2017-02-03 00:00:00,PRATE,surface,-106.875,31.6534,8.9e-06
2017-02-03 00:00:00,2017-02-03 00:00:00,PRATE,surface,-105.938,31.6534,1.21e-05
2017-02-03 00:00:00,2017-02-03 00:00:00,PRATE,surface,-105,31.6534,1.7e-05
2017-02-03 00:00:00,2017-02-03 00:00:00,PRATE,surface,-104.063,31.6534,2.07e-05
2017-02-03 00:00:00,2017-02-03 00:00:00,PRATE,surface,-103.125,31.6534,2.14e-05
2017-02-03 00:00:00,2017-02-03 00:00:00,PRATE,surface,-102.188,31.6534,2.21e-05
2017-02-03 00:00:00,2017-02-03 00:00:00,PRATE,surface,-101.25,31.6534,2.71e-05
2017-02-03 00:00:00,2017-02-03 00:00:00,PRATE,surface,-100.313,31.6534,3.34e-05
2017-02-03 00:00:00,2017-02-03 00:00:00,PRATE,surface,-99.3754,31.6534,4.65e-05
2017-02-03 00:00:00,2017-02-03 00:00:00,PRATE,surface,-98.4379,31.6534,6.33e-05
2017-02-03 00:00:00,2017-02-03 00:00:00,PRATE,surface,-97.5004,31.6534,6.76e-05
2017-02-03 00:00:00,2017-02-03 00:00:00,PRATE,surface,-96.5629,31.6534,6.35e-05
2017-02-03 00:00:00,2017-02-03 00:00:00,PRATE,surface,-95.6254,31.6534,7.57e-05
2017-02-03 00:00:00,2017-02-03 00:00:00,PRATE,surface,-94.6879,31.6534,9.58e-05
2017-02-03 00:00:00,2017-02-03 00:00:00,PRATE,surface,-93.7504,31.6534,8.62e-05
2017-02-03 00:00:00,2017-02-03 00:00:00,PRATE,surface,-92.8129,31.6534,6.1e-05
2017-02-03 00:00:00,2017-02-03 00:00:00,PRATE,surface,-107.813,32.5983,1.2e-05
2017-02-03 00:00:00,2017-02-03 00:00:00,PRATE,surface,-106.875,32.5983,1.01e-05
2017-02-03 00:00:00,2017-02-03 00:00:00,PRATE,surface,-105.938,32.5983,1.06e-05
2017-02-03 00:00:00,2017-02-03 00:00:00,PRATE,surface,-105,32.5983,1.14e-05
2017-02-03 00:00:00,2017-02-03 00:00:00,PRATE,surface,-104.063,32.5983,1.38e-05
2017-02-03 00:00:00,2017-02-03 00:00:00,PRATE,surface,-103.125,32.5983,1.53e-05
2017-02-03 00:00:00,2017-02-03 00:00:00,PRATE,surface,-102.188,32.5983,1.83e-05
2017-02-03 00:00:00,2017-02-03 00:00:00,PRATE,surface,-101.25,32.5983,2.08e-05
2017-02-03 00:00:00,2017-02-03 00:00:00,PRATE,surface,-100.313,32.5983,2.27e-05
2017-02-03 00:00:00,2017-02-03 00:00:00,PRATE,surface,-99.3754,32.5983,3.04e-05
2017-02-03 00:00:00,2017-02-03 00:00:00,PRATE,surface,-98.4379,32.5983,5.18e-05
2017-02-03 00:00:00,2017-02-03 00:00:00,PRATE,surface,-97.5004,32.5983,6.9e-05
2017-02-03 00:00:00,2017-02-03 00:00:00,PRATE,surface,-96.5629,32.5983,7.07e-05
2017-02-03 00:00:00,2017-02-03 00:00:00,PRATE,surface,-95.6254,32.5983,7.47e-05
2017-02-03 00:00:00,2017-02-03 00:00:00,PRATE,surface,-94.6879,32.5983,8.47e-05
2017-02-03 00:00:00,2017-02-03 00:00:00,PRATE,surface,-93.7504,32.5983,7.56e-05
2017-02-03 00:00:00,2017-02-03 00:00:00,PRATE,surface,-92.8129,32.5983,5.59e-05
2017-02-03 00:00:00,2017-02-03 00:00:00,PRATE,surface,-107.813,33.5432,2.37e-05
2017-02-03 00:00:00,2017-02-03 00:00:00,PRATE,surface,-106.875,33.5432,2.01e-05
2017-02-03 00:00:00,2017-02-03 00:00:00,PRATE,surface,-105.938,33.5432,1.33e-05
2017-02-03 00:00:00,2017-02-03 00:00:00,PRATE,surface,-105,33.5432,1.14e-05
2017-02-03 00:00:00,2017-02-03 00:00:00,PRATE,surface,-104.063,33.5432,1.22e-05
2017-02-03 00:00:00,2017-02-03 00:00:00,PRATE,surface,-103.125,33.5432,1.35e-05
2017-02-03 00:00:00,2017-02-03 00:00:00,PRATE,surface,-102.188,33.5432,1.71e-05
2017-02-03 00:00:00,2017-02-03 00:00:00,PRATE,surface,-101.25,33.5432,1.95e-05
2017-02-03 00:00:00,2017-02-03 00:00:00,PRATE,surface,-100.313,33.5432,1.84e-05
2017-02-03 00:00:00,2017-02-03 00:00:00,PRATE,surface,-99.3754,33.5432,1.92e-05
2017-02-03 00:00:00,2017-02-03 00:00:00,PRATE,surface,-98.4379,33.5432,3.13e-05
2017-02-03 00:00:00,2017-02-03 00:00:00,PRATE,surface,-97.5004,33.5432,4.73e-05
2017-02-03 00:00:00,2017-02-03 00:00:00,PRATE,surface,-96.5629,33.5432,5.75e-05
2017-02-03 00:00:00,2017-02-03 00:00:00,PRATE,surface,-95.6254,33.5432,6.55e-05
2017-02-03 00:00:00,2017-02-03 00:00:00,PRATE,surface,-94.6879,33.5432,7.45e-05
2017-02-03 00:00:00,2017-02-03 00:00:00,PRATE,surface,-93.7504,33.5432,7.27e-05
2017-02-03 00:00:00,2017-02-03 00:00:00,PRATE,surface,-92.8129,33.5432,4.96e-05
2017-02-03 00:00:00,2017-02-03 00:00:00,PRATE,surface,-107.813,34.4881,2.85e-05
2017-02-03 00:00:00,2017-02-03 00:00:00,PRATE,surface,-106.875,34.4881,2.02e-05
2017-02-03 00:00:00,2017-02-03 00:00:00,PRATE,surface,-105.938,34.4881,1.41e-05
2017-02-03 00:00:00,2017-02-03 00:00:00,PRATE,surface,-105,34.4881,1.08e-05
2017-02-03 00:00:00,2017-02-03 00:00:00,PRATE,surface,-104.063,34.4881,1.16e-05
2017-02-03 00:00:00,2017-02-03 00:00:00,PRATE,surface,-103.125,34.4881,1.42e-05
2017-02-03 00:00:00,2017-02-03 00:00:00,PRATE,surface,-102.188,34.4881,1.68e-05
2017-02-03 00:00:00,2017-02-03 00:00:00,PRATE,surface,-101.25,34.4881,1.95e-05
2017-02-03 00:00:00,2017-02-03 00:00:00,PRATE,surface,-100.313,34.4881,1.95e-05
2017-02-03 00:00:00,2017-02-03 00:00:00,PRATE,surface,-99.3754,34.4881,1.97e-05
2017-02-03 00:00:00,2017-02-03 00:00:00,PRATE,surface,-98.4379,34.4881,2.72e-05
2017-02-03 00:00:00,2017-02-03 00:00:00,PRATE,surface,-97.5004,34.4881,3.73e-05
2017-02-03 00:00:00,2017-02-03 00:00:00,PRATE,surface,-96.5629,34.4881,4.21e-05
2017-02-03 00:00:00,2017-02-03 00:00:00,PRATE,surface,-95.6254,34.4881,4.64e-05
2017-02-03 00:00:00,2017-02-03 00:00:00,PRATE,surface,-94.6879,34.4881,5.99e-05
2017-02-03 00:00:00,2017-02-03 00:00:00,PRATE,surface,-93.7504,34.4881,7.12e-05
2017-02-03 00:00:00,2017-02-03 00:00:00,PRATE,surface,-92.8129,34.4881,5.8e-05
2017-02-03 00:00:00,2017-02-03 00:00:00,PRATE,surface,-107.813,35.4329,2.02e-05
2017-02-03 00:00:00,2017-02-03 00:00:00,PRATE,surface,-106.875,35.4329,1.9e-05
2017-02-03 00:00:00,2017-02-03 00:00:00,PRATE,surface,-105.938,35.4329,1.65e-05
2017-02-03 00:00:00,2017-02-03 00:00:00,PRATE,surface,-105,35.4329,1.69e-05
2017-02-03 00:00:00,2017-02-03 00:00:00,PRATE,surface,-104.063,35.4329,1.45e-05
2017-02-03 00:00:00,2017-02-03 00:00:00,PRATE,surface,-103.125,35.4329,1.25e-05
2017-02-03 00:00:00,2017-02-03 00:00:00,PRATE,surface,-102.188,35.4329,1.51e-05
2017-02-03 00:00:00,2017-02-03 00:00:00,PRATE,surface,-101.25,35.4329,1.82e-05
2017-02-03 00:00:00,2017-02-03 00:00:00,PRATE,surface,-100.313,35.4329,2.04e-05
2017-02-03 00:00:00,2017-02-03 00:00:00,PRATE,surface,-99.3754,35.4329,2.2e-05
2017-02-03 00:00:00,2017-02-03 00:00:00,PRATE,surface,-98.4379,35.4329,2.72e-05
2017-02-03 00:00:00,2017-02-03 00:00:00,PRATE,surface,-97.5004,35.4329,3.29e-05
2017-02-03 00:00:00,2017-02-03 00:00:00,PRATE,surface,-96.5629,35.4329,3.36e-05
2017-02-03 00:00:00,2017-02-03 00:00:00,PRATE,surface,-95.6254,35.4329,3.39e-05
2017-02-03 00:00:00,2017-02-03 00:00:00,PRATE,surface,-94.6879,35.4329,4.31e-05
2017-02-03 00:00:00,2017-02-03 00:00:00,PRATE,surface,-93.7504,35.4329,5.78e-05
2017-02-03 00:00:00,2017-02-03 00:00:00,PRATE,surface,-92.8129,35.4329,6.19e-05
2017-02-03 00:00:00,2017-02-03 00:00:00,PRATE,surface,-107.813,36.3778,2.22e-05
2017-02-03 00:00:00,2017-02-03 00:00:00,PRATE,surface,-106.875,36.3778,2.5e-05
2017-02-03 00:00:00,2017-02-03 00:00:00,PRATE,surface,-105.938,36.3778,2.46e-05
2017-02-03 00:00:00,2017-02-03 00:00:00,PRATE,surface,-105,36.3778,2.69e-05
2017-02-03 00:00:00,2017-02-03 00:00:00,PRATE,surface,-104.063,36.3778,2.11e-05
2017-02-03 00:00:00,2017-02-03 00:00:00,PRATE,surface,-103.125,36.3778,1.52e-05
2017-02-03 00:00:00,2017-02-03 00:00:00,PRATE,surface,-102.188,36.3778,1.58e-05
2017-02-03 00:00:00,2017-02-03 00:00:00,PRATE,surface,-101.25,36.3778,1.72e-05
2017-02-03 00:00:00,2017-02-03 00:00:00,PRATE,surface,-100.313,36.3778,2.22e-05
2017-02-03 00:00:00,2017-02-03 00:00:00,PRATE,surface,-99.3754,36.3778,2.42e-05
2017-02-03 00:00:00,2017-02-03 00:00:00,PRATE,surface,-98.4379,36.3778,2.82e-05
2017-02-03 00:00:00,2017-02-03 00:00:00,PRATE,surface,-97.5004,36.3778,3.28e-05
2017-02-03 00:00:00,2017-02-03 00:00:00,PRATE,surface,-96.5629,36.3778,3.44e-05
2017-02-03 00:00:00,2017-02-03 00:00:00,PRATE,surface,-95.6254,36.3778,3.38e-05
2017-02-03 00:00:00,2017-02-03 00:00:00,PRATE,surface,-94.6879,36.3778,3.43e-05
2017-02-03 00:00:00,2017-02-03 00:00:00,PRATE,surface,-93.7504,36.3778,4.17e-05
2017-02-03 00:00:00,2017-02-03 00:00:00,PRATE,surface,-92.8129,36.3778,5.2e-05
