2013-04-12 00:00:00,2013-04-12 00:00:00,TMP,surface,-107.813,25.0393,303.488
2013-04-12 00:00:00,2013-04-12 00:00:00,TMP,surface,-106.875,25.0393,297.727
2013-04-12 00:00:00,2013-04-12 00:00:00,TMP,surface,-105.938,25.0393,293.474
2013-04-12 00:00:00,2013-04-12 00:00:00,TMP,surface,-105,25.0393,291.863
2013-04-12 00:00:00,2013-04-12 00:00:00,TMP,surface,-104.063,25.0393,295.28
2013-04-12 00:00:00,2013-04-12 00:00:00,TMP,surface,-103.125,25.0393,298.012
2013-04-12 00:00:00,2013-04-12 00:00:00,TMP,surface,-102.188,25.0393,297.12
2013-04-12 00:00:00,2013-04-12 00:00:00,TMP,surface,-101.25,25.0393,294.362
2013-04-12 00:00:00,2013-04-12 00:00:00,TMP,surface,-100.313,25.0393,294.064
2013-04-12 00:00:00,2013-04-12 00:00:00,TMP,surface,-99.3754,25.0393,297.552
2013-04-12 00:00:00,2013-04-12 00:00:00,TMP,surface,-98.4379,25.0393,300.684
2013-04-12 00:00:00,2013-04-12 00:00:00,TMP,surface,-97.5004,25.0393,301.197
2013-04-12 00:00:00,2013-04-12 00:00:00,TMP,surface,-96.5629,25.0393,301.04
2013-04-12 00:00:00,2013-04-12 00:00:00,TMP,surface,-95.6254,25.0393,301.048
2013-04-12 00:00:00,2013-04-12 00:00:00,TMP,surface,-94.6879,25.0393,301.116
2013-04-12 00:00:00,2013-04-12 00:00:00,TMP,surface,-93.7504,25.0393,301.007
2013-04-12 00:00:00,2013-04-12 00:00:00,TMP,surface,-92.8129,25.0393,300.92
2013-04-12 00:00:00,2013-04-12 00:00:00,TMP,surface,-107.813,25.9842,300.66
2013-04-12 00:00:00,2013-04-12 00:00:00,TMP,surface,-106.875,25.9842,294.247
2013-04-12 00:00:00,2013-04-12 00:00:00,TMP,surface,-105.938,25.9842,292.312
2013-04-12 00:00:00,2013-04-12 00:00:00,TMP,surface,-105,25.9842,294.031
2013-04-12 00:00:00,2013-04-12 00:00:00,TMP,surface,-104.063,25.9842,298.376
2013-04-12 00:00:00,2013-04-12 00:00:00,TMP,surface,-103.125,25.9842,300.368
2013-04-12 00:00:00,2013-04-12 00:00:00,TMP,surface,-102.188,25.9842,298.781
2013-04-12 00:00:00,2013-04-12 00:00:00,TMP,surface,-101.25,25.9842,297.372
2013-04-12 00:00:00,2013-04-12 00:00:00,TMP,surface,-100.313,25.9842,297.925
2013-04-12 00:00:00,2013-04-12 00:00:00,TMP,surface,-99.3754,25.9842,300.592
2013-04-12 00:00:00,2013-04-12 00:00:00,TMP,surface,-98.4379,25.9842,301.618
2013-04-12 00:00:00,2013-04-12 00:00:00,TMP,surface,-97.5004,25.9842,300.917
2013-04-12 00:00:00,2013-04-12 00:00:00,TMP,surface,-96.5629,25.9842,300.055
2013-04-12 00:00:00,2013-04-12 00:00:00,TMP,surface,-95.6254,25.9842,300.618
2013-04-12 00:00:00,2013-04-12 00:00:00,TMP,surface,-94.6879,25.9842,300.89
2013-04-12 00:00:00,2013-04-12 00:00:00,TMP,surface,-93.7504,25.9842,300.986
2013-04-12 00:00:00,2013-04-12 00:00:00,TMP,surface,-92.8129,25.9842,301.036
2013-04-12 00:00:00,2013-04-12 00:00:00,TMP,surface,-107.813,26.929,296.343
2013-04-12 00:00:00,2013-04-12 00:00:00,TMP,surface,-106.875,26.929,292.88
2013-04-12 00:00:00,2013-04-12 00:00:00,TMP,surface,-105.938,26.929,293.992
2013-04-12 00:00:00,2013-04-12 00:00:00,TMP,surface,-105,26.929,297.54
2013-04-12 00:00:00,2013-04-12 00:00:00,TMP,surface,-104.063,26.929,300.135
2013-04-12 00:00:00,2013-04-12 00:00:00,TMP,surface,-103.125,26.929,299.364
2013-04-12 00:00:00,2013-04-12 00:00:00,TMP,surface,-102.188,26.929,298.1
2013-04-12 00:00:00,2013-04-12 00:00:00,TMP,surface,-101.25,26.929,298.757
2013-04-12 00:00:00,2013-04-12 00:00:00,TMP,surface,-100.313,26.929,300.866
2013-04-12 00:00:00,2013-04-12 00:00:00,TMP,surface,-99.3754,26.929,302.293
2013-04-12 00:00:00,2013-04-12 00:00:00,TMP,surface,-98.4379,26.929,301.2
2013-04-12 00:00:00,2013-04-12 00:00:00,TMP,surface,-97.5004,26.929,298.306
2013-04-12 00:00:00,2013-04-12 00:00:00,TMP,surface,-96.5629,26.929,298.812
2013-04-12 00:00:00,2013-04-12 00:00:00,TMP,surface,-95.6254,26.929,299.818
2013-04-12 00:00:00,2013-04-12 00:00:00,TMP,surface,-94.6879,26.929,300.495
2013-04-12 00:00:00,2013-04-12 00:00:00,TMP,surface,-93.7504,26.929,300.679
2013-04-12 00:00:00,2013-04-12 00:00:00,TMP,surface,-92.8129,26.929,300.773
2013-04-12 00:00:00,2013-04-12 00:00:00,TMP,surface,-107.813,27.8739,294.312
2013-04-12 00:00:00,2013-04-12 00:00:00,TMP,surface,-106.875,27.8739,293
2013-04-12 00:00:00,2013-04-12 00:00:00,TMP,surface,-105.938,27.8739,296.333
2013-04-12 00:00:00,2013-04-12 00:00:00,TMP,surface,-105,27.8739,299.575
2013-04-12 00:00:00,2013-04-12 00:00:00,TMP,surface,-104.063,27.8739,300.058
2013-04-12 00:00:00,2013-04-12 00:00:00,TMP,surface,-103.125,27.8739,297.821
2013-04-12 00:00:00,2013-04-12 00:00:00,TMP,surface,-102.188,27.8739,297.024
2013-04-12 00:00:00,2013-04-12 00:00:00,TMP,surface,-101.25,27.8739,299.178
2013-04-12 00:00:00,2013-04-12 00:00:00,TMP,surface,-100.313,27.8739,301.309
2013-04-12 00:00:00,2013-04-12 00:00:00,TMP,surface,-99.3754,27.8739,301.532
2013-04-12 00:00:00,2013-04-12 00:00:00,TMP,surface,-98.4379,27.8739,300.458
2013-04-12 00:00:00,2013-04-12 00:00:00,TMP,surface,-97.5004,27.8739,299.389
2013-04-12 00:00:00,2013-04-12 00:00:00,TMP,surface,-96.5629,27.8739,299.167
2013-04-12 00:00:00,2013-04-12 00:00:00,TMP,surface,-95.6254,27.8739,299.692
2013-04-12 00:00:00,2013-04-12 00:00:00,TMP,surface,-94.6879,27.8739,300.228
2013-04-12 00:00:00,2013-04-12 00:00:00,TMP,surface,-93.7504,27.8739,300.423
2013-04-12 00:00:00,2013-04-12 00:00:00,TMP,surface,-92.8129,27.8739,300.458
2013-04-12 00:00:00,2013-04-12 00:00:00,TMP,surface,-107.813,28.8188,294.05
2013-04-12 00:00:00,2013-04-12 00:00:00,TMP,surface,-106.875,28.8188,294.688
2013-04-12 00:00:00,2013-04-12 00:00:00,TMP,surface,-105.938,28.8188,298.22
2013-04-12 00:00:00,2013-04-12 00:00:00,TMP,surface,-105,28.8188,300.717
2013-04-12 00:00:00,2013-04-12 00:00:00,TMP,surface,-104.063,28.8188,299.224
2013-04-12 00:00:00,2013-04-12 00:00:00,TMP,surface,-103.125,28.8188,297.4
2013-04-12 00:00:00,2013-04-12 00:00:00,TMP,surface,-102.188,28.8188,297.17
2013-04-12 00:00:00,2013-04-12 00:00:00,TMP,surface,-101.25,28.8188,299.279
2013-04-12 00:00:00,2013-04-12 00:00:00,TMP,surface,-100.313,28.8188,300.408
2013-04-12 00:00:00,2013-04-12 00:00:00,TMP,surface,-99.3754,28.8188,300.152
2013-04-12 00:00:00,2013-04-12 00:00:00,TMP,surface,-98.4379,28.8188,299.704
2013-04-12 00:00:00,2013-04-12 00:00:00,TMP,surface,-97.5004,28.8188,299.797
2013-04-12 00:00:00,2013-04-12 00:00:00,TMP,surface,-96.5629,28.8188,300.031
2013-04-12 00:00:00,2013-04-12 00:00:00,TMP,surface,-95.6254,28.8188,299.528
2013-04-12 00:00:00,2013-04-12 00:00:00,TMP,surface,-94.6879,28.8188,298.781
2013-04-12 00:00:00,2013-04-12 00:00:00,TMP,surface,-93.7504,28.8188,299.02
2013-04-12 00:00:00,2013-04-12 00:00:00,TMP,surface,-92.8129,28.8188,299.047
2013-04-12 00:00:00,2013-04-12 00:00:00,TMP,surface,-107.813,29.7637,296.167
2013-04-12 00:00:00,2013-04-12 00:00:00,TMP,surface,-106.875,29.7637,297.831
2013-04-12 00:00:00,2013-04-12 00:00:00,TMP,surface,-105.938,29.7637,300.077
2013-04-12 00:00:00,2013-04-12 00:00:00,TMP,surface,-105,29.7637,300.312
2013-04-12 00:00:00,2013-04-12 00:00:00,TMP,surface,-104.063,29.7637,299.052
2013-04-12 00:00:00,2013-04-12 00:00:00,TMP,surface,-103.125,29.7637,298.532
2013-04-12 00:00:00,2013-04-12 00:00:00,TMP,surface,-102.188,29.7637,299.216
2013-04-12 00:00:00,2013-04-12 00:00:00,TMP,surface,-101.25,29.7637,299.696
2013-04-12 00:00:00,2013-04-12 00:00:00,TMP,surface,-100.313,29.7637,299.199
2013-04-12 00:00:00,2013-04-12 00:00:00,TMP,surface,-99.3754,29.7637,298.541
2013-04-12 00:00:00,2013-04-12 00:00:00,TMP,surface,-98.4379,29.7637,298.634
2013-04-12 00:00:00,2013-04-12 00:00:00,TMP,surface,-97.5004,29.7637,299.421
2013-04-12 00:00:00,2013-04-12 00:00:00,TMP,surface,-96.5629,29.7637,300.016
2013-04-12 00:00:00,2013-04-12 00:00:00,TMP,surface,-95.6254,29.7637,300.192
2013-04-12 00:00:00,2013-04-12 00:00:00,TMP,surface,-94.6879,29.7637,299.437
2013-04-12 00:00:00,2013-04-12 00:00:00,TMP,surface,-93.7504,29.7637,298.202
2013-04-12 00:00:00,2013-04-12 00:00:00,TMP,surface,-92.8129,29.7637,300.556
2013-04-12 00:00:00,2013-04-12 00:00:00,TMP,surface,-107.813,30.7085,300.397
2013-04-12 00:00:00,2013-04-12 00:00:00,TMP,surface,-106.875,30.7085,301.143
2013-04-12 00:00:00,2013-04-12 00:00:00,TMP,surface,-105.938,30.7085,300.964
2013-04-12 00:00:00,2013-04-12 00:00:00,TMP,surface,-105,30.7085,300.24
2013-04-12 00:00:00,2013-04-12 00:00:00,TMP,surface,-104.063,30.7085,298.892
2013-04-12 00:00:00,2013-04-12 00:00:00,TMP,surface,-103.125,30.7085,299.602
2013-04-12 00:00:00,2013-04-12 00:00:00,TMP,surface,-102.188,30.7085,300.216
2013-04-12 00:00:00,2013-04-12 00:00:00,TMP,surface,-101.25,30.7085,299.816
2013-04-12 00:00:00,2013-04-12 00:00:00,TMP,surface,-100.313,30.7085,299.024
2013-04-12 00:00:00,2013-04-12 00:00:00,TMP,surface,-99.3754,30.7085,298.584
2013-04-12 00:00:00,2013-04-12 00:00:00,TMP,surface,-98.4379,30.7085,299.056
2013-04-12 00:00:00,2013-04-12 00:00:00,TMP,surface,-97.5004,30.7085,299.941
2013-04-12 00:00:00,2013-04-12 00:00:00,TMP,surface,-96.5629,30.7085,300.792
2013-04-12 00:00:00,2013-04-12 00:00:00,TMP,surface,-95.6254,30.7085,301.237
2013-04-12 00:00:00,2013-04-12 00:00:00,TMP,surface,-94.6879,30.7085,301.045
2013-04-12 00:00:00,2013-04-12 00:00:00,TMP,surface,-93.7504,30.7085,300.972
2013-04-12 00:00:00,2013-04-12 00:00:00,TMP,surface,-92.8129,30.7085,300.884
2013-04-12 00:00:00,2013-04-12 00:00:00,TMP,surface,-107.813,31.6534,302.202
2013-04-12 00:00:00,2013-04-12 00:00:00,TMP,surface,-106.875,31.6534,302.136
2013-04-12 00:00:00,2013-04-12 00:00:00,TMP,surface,-105.938,31.6534,301.287
2013-04-12 00:00:00,2013-04-12 00:00:00,TMP,surface,-105,31.6534,300.226
2013-04-12 00:00:00,2013-04-12 00:00:00,TMP,surface,-104.063,31.6534,300.012
2013-04-12 00:00:00,2013-04-12 00:00:00,TMP,surface,-103.125,31.6534,300.408
2013-04-12 00:00:00,2013-04-12 00:00:00,TMP,surface,-102.188,31.6534,300.599
2013-04-12 00:00:00,2013-04-12 00:00:00,TMP,surface,-101.25,31.6534,300.176
2013-04-12 00:00:00,2013-04-12 00:00:00,TMP,surface,-100.313,31.6534,299.746
2013-04-12 00:00:00,2013-04-12 00:00:00,TMP,surface,-99.3754,31.6534,299.628
2013-04-12 00:00:00,2013-04-12 00:00:00,TMP,surface,-98.4379,31.6534,299.946
2013-04-12 00:00:00,2013-04-12 00:00:00,TMP,surface,-97.5004,31.6534,300.418
2013-04-12 00:00:00,2013-04-12 00:00:00,TMP,surface,-96.5629,31.6534,301.048
2013-04-12 00:00:00,2013-04-12 00:00:00,TMP,surface,-95.6254,31.6534,301.519
2013-04-12 00:00:00,2013-04-12 00:00:00,TMP,surface,-94.6879,31.6534,301.356
2013-04-12 00:00:00,2013-04-12 00:00:00,TMP,surface,-93.7504,31.6534,301.168
2013-04-12 00:00:00,2013-04-12 00:00:00,TMP,surface,-92.8129,31.6534,301.181
2013-04-12 00:00:00,2013-04-12 00:00:00,TMP,surface,-107.813,32.5983,299.812
2013-04-12 00:00:00,2013-04-12 00:00:00,TMP,surface,-106.875,32.5983,300.152
2013-04-12 00:00:00,2013-04-12 00:00:00,TMP,surface,-105.938,32.5983,299.938
2013-04-12 00:00:00,2013-04-12 00:00:00,TMP,surface,-105,32.5983,299.568
2013-04-12 00:00:00,2013-04-12 00:00:00,TMP,surface,-104.063,32.5983,299.962
2013-04-12 00:00:00,2013-04-12 00:00:00,TMP,surface,-103.125,32.5983,300.469
2013-04-12 00:00:00,2013-04-12 00:00:00,TMP,surface,-102.188,32.5983,300.434
2013-04-12 00:00:00,2013-04-12 00:00:00,TMP,surface,-101.25,32.5983,300.495
2013-04-12 00:00:00,2013-04-12 00:00:00,TMP,surface,-100.313,32.5983,300.949
2013-04-12 00:00:00,2013-04-12 00:00:00,TMP,surface,-99.3754,32.5983,301.055
2013-04-12 00:00:00,2013-04-12 00:00:00,TMP,surface,-98.4379,32.5983,300.768
2013-04-12 00:00:00,2013-04-12 00:00:00,TMP,surface,-97.5004,32.5983,300.399
2013-04-12 00:00:00,2013-04-12 00:00:00,TMP,surface,-96.5629,32.5983,300.698
2013-04-12 00:00:00,2013-04-12 00:00:00,TMP,surface,-95.6254,32.5983,301.437
2013-04-12 00:00:00,2013-04-12 00:00:00,TMP,surface,-94.6879,32.5983,301.552
2013-04-12 00:00:00,2013-04-12 00:00:00,TMP,surface,-93.7504,32.5983,301.36
2013-04-12 00:00:00,2013-04-12 00:00:00,TMP,surface,-92.8129,32.5983,301.327
2013-04-12 00:00:00,2013-04-12 00:00:00,TMP,surface,-107.813,33.5432,296.85
2013-04-12 00:00:00,2013-04-12 00:00:00,TMP,surface,-106.875,33.5432,297.911
2013-04-12 00:00:00,2013-04-12 00:00:00,TMP,surface,-105.938,33.5432,298.148
2013-04-12 00:00:00,2013-04-12 00:00:00,TMP,surface,-105,33.5432,298.989
2013-04-12 00:00:00,2013-04-12 00:00:00,TMP,surface,-104.063,33.5432,299.972
2013-04-12 00:00:00,2013-04-12 00:00:00,TMP,surface,-103.125,33.5432,300.08
2013-04-12 00:00:00,2013-04-12 00:00:00,TMP,surface,-102.188,33.5432,300.053
2013-04-12 00:00:00,2013-04-12 00:00:00,TMP,surface,-101.25,33.5432,300.228
2013-04-12 00:00:00,2013-04-12 00:00:00,TMP,surface,-100.313,33.5432,301.357
2013-04-12 00:00:00,2013-04-12 00:00:00,TMP,surface,-99.3754,33.5432,301.616
2013-04-12 00:00:00,2013-04-12 00:00:00,TMP,surface,-98.4379,33.5432,300.932
2013-04-12 00:00:00,2013-04-12 00:00:00,TMP,surface,-97.5004,33.5432,300.072
2013-04-12 00:00:00,2013-04-12 00:00:00,TMP,surface,-96.5629,33.5432,299.631
2013-04-12 00:00:00,2013-04-12 00:00:00,TMP,surface,-95.6254,33.5432,300
2013-04-12 00:00:00,2013-04-12 00:00:00,TMP,surface,-94.6879,33.5432,300.677
2013-04-12 00:00:00,2013-04-12 00:00:00,TMP,surface,-93.7504,33.5432,300.757
2013-04-12 00:00:00,2013-04-12 00:00:00,TMP,surface,-92.8129,33.5432,300.712
2013-04-12 00:00:00,2013-04-12 00:00:00,TMP,surface,-107.813,34.4881,295.38
2013-04-12 00:00:00,2013-04-12 00:00:00,TMP,surface,-106.875,34.4881,296.919
2013-04-12 00:00:00,2013-04-12 00:00:00,TMP,surface,-105.938,34.4881,297.48
2013-04-12 00:00:00,2013-04-12 00:00:00,TMP,surface,-105,34.4881,298.856
2013-04-12 00:00:00,2013-04-12 00:00:00,TMP,surface,-104.063,34.4881,299.773
2013-04-12 00:00:00,2013-04-12 00:00:00,TMP,surface,-103.125,34.4881,299.789
2013-04-12 00:00:00,2013-04-12 00:00:00,TMP,surface,-102.188,34.4881,299.578
2013-04-12 00:00:00,2013-04-12 00:00:00,TMP,surface,-101.25,34.4881,299.773
2013-04-12 00:00:00,2013-04-12 00:00:00,TMP,surface,-100.313,34.4881,300.514
2013-04-12 00:00:00,2013-04-12 00:00:00,TMP,surface,-99.3754,34.4881,300.93
2013-04-12 00:00:00,2013-04-12 00:00:00,TMP,surface,-98.4379,34.4881,300.269
2013-04-12 00:00:00,2013-04-12 00:00:00,TMP,surface,-97.5004,34.4881,299.021
2013-04-12 00:00:00,2013-04-12 00:00:00,TMP,surface,-96.5629,34.4881,298.708
2013-04-12 00:00:00,2013-04-12 00:00:00,TMP,surface,-95.6254,34.4881,299.208
2013-04-12 00:00:00,2013-04-12 00:00:00,TMP,surface,-94.6879,34.4881,299.176
2013-04-12 00:00:00,2013-04-12 00:00:00,TMP,surface,-93.7504,34.4881,299.092
2013-04-12 00:00:00,2013-04-12 00:00:00,TMP,surface,-92.8129,34.4881,299.487
2013-04-12 00:00:00,2013-04-12 00:00:00,TMP,surface,-107.813,35.4329,295.093
2013-04-12 00:00:00,2013-04-12 00:00:00,TMP,surface,-106.875,35.4329,295.724
2013-04-12 00:00:00,2013-04-12 00:00:00,TMP,surface,-105.938,35.4329,295.636
2013-04-12 00:00:00,2013-04-12 00:00:00,TMP,surface,-105,35.4329,296.333
2013-04-12 00:00:00,2013-04-12 00:00:00,TMP,surface,-104.063,35.4329,298.42
2013-04-12 00:00:00,2013-04-12 00:00:00,TMP,surface,-103.125,35.4329,299.54
2013-04-12 00:00:00,2013-04-12 00:00:00,TMP,surface,-102.188,35.4329,299.645
2013-04-12 00:00:00,2013-04-12 00:00:00,TMP,surface,-101.25,35.4329,299.432
2013-04-12 00:00:00,2013-04-12 00:00:00,TMP,surface,-100.313,35.4329,299.24
2013-04-12 00:00:00,2013-04-12 00:00:00,TMP,surface,-99.3754,35.4329,299.498
2013-04-12 00:00:00,2013-04-12 00:00:00,TMP,surface,-98.4379,35.4329,299.25
2013-04-12 00:00:00,2013-04-12 00:00:00,TMP,surface,-97.5004,35.4329,298.557
2013-04-12 00:00:00,2013-04-12 00:00:00,TMP,surface,-96.5629,35.4329,297.991
2013-04-12 00:00:00,2013-04-12 00:00:00,TMP,surface,-95.6254,35.4329,297.984
2013-04-12 00:00:00,2013-04-12 00:00:00,TMP,surface,-94.6879,35.4329,298.338
2013-04-12 00:00:00,2013-04-12 00:00:00,TMP,surface,-93.7504,35.4329,298.037
2013-04-12 00:00:00,2013-04-12 00:00:00,TMP,surface,-92.8129,35.4329,297.84
2013-04-12 00:00:00,2013-04-12 00:00:00,TMP,surface,-107.813,36.3778,294.378
2013-04-12 00:00:00,2013-04-12 00:00:00,TMP,surface,-106.875,36.3778,292.492
2013-04-12 00:00:00,2013-04-12 00:00:00,TMP,surface,-105.938,36.3778,292.714
2013-04-12 00:00:00,2013-04-12 00:00:00,TMP,surface,-105,36.3778,293.327
2013-04-12 00:00:00,2013-04-12 00:00:00,TMP,surface,-104.063,36.3778,296.164
2013-04-12 00:00:00,2013-04-12 00:00:00,TMP,surface,-103.125,36.3778,298.021
2013-04-12 00:00:00,2013-04-12 00:00:00,TMP,surface,-102.188,36.3778,298.89
2013-04-12 00:00:00,2013-04-12 00:00:00,TMP,surface,-101.25,36.3778,298.872
2013-04-12 00:00:00,2013-04-12 00:00:00,TMP,surface,-100.313,36.3778,298.714
2013-04-12 00:00:00,2013-04-12 00:00:00,TMP,surface,-99.3754,36.3778,298.437
2013-04-12 00:00:00,2013-04-12 00:00:00,TMP,surface,-98.4379,36.3778,298.335
2013-04-12 00:00:00,2013-04-12 00:00:00,TMP,surface,-97.5004,36.3778,298.012
2013-04-12 00:00:00,2013-04-12 00:00:00,TMP,surface,-96.5629,36.3778,297.498
2013-04-12 00:00:00,2013-04-12 00:00:00,TMP,surface,-95.6254,36.3778,297.415
2013-04-12 00:00:00,2013-04-12 00:00:00,TMP,surface,-94.6879,36.3778,297.428
2013-04-12 00:00:00,2013-04-12 00:00:00,TMP,surface,-93.7504,36.3778,296.922
2013-04-12 00:00:00,2013-04-12 00:00:00,TMP,surface,-92.8129,36.3778,296.738
2013-04-12 00:00:00,2013-04-12 00:00:00,PRATE,surface,-107.813,25.0393,1.3e-06
2013-04-12 00:00:00,2013-04-12 00:00:00,PRATE,surface,-106.875,25.0393,3.01e-05
2013-04-12 00:00:00,2013-04-12 00:00:00,PRATE,surface,-105.938,25.0393,0.0001088
2013-04-12 00:00:00,2013-04-12 00:00:00,PRATE,surface,-105,25.0393,6.5e-05
2013-04-12 00:00:00,2013-04-12 00:00:00,PRATE,surface,-104.063,25.0393,3.9e-05
2013-04-12 00:00:00,2013-04-12 00:00:00,PRATE,surface,-103.125,25.0393,1.86e-05
2013-04-12 00:00:00,2013-04-12 00:00:00,PRATE,surface,-102.188,25.0393,8.9e-06
2013-04-12 00:00:00,2013-04-12 00:00:00,PRATE,surface,-101.25,25.0393,1.64e-05
2013-04-12 00:00:00,2013-04-12 00:00:00,PRATE,surface,-100.313,25.0393,3.08e-05
2013-04-12 00:00:00,2013-04-12 00:00:00,PRATE,surface,-99.3754,25.0393,3.04e-05
2013-04-12 00:00:00,2013-04-12 00:00:00,PRATE,surface,-98.4379,25.0393,2.99e-05
2013-04-12 00:00:00,2013-04-12 00:00:00,PRATE,surface,-97.5004,25.0393,4.48e-05
2013-04-12 00:00:00,2013-04-12 00:00:00,PRATE,surface,-96.5629,25.0393,3.22e-05
2013-04-12 00:00:00,2013-04-12 00:00:00,PRATE,surface,-95.6254,25.0393,5.5e-06
2013-04-12 00:00:00,2013-04-12 00:00:00,PRATE,surface,-94.6879,25.0393,3.8e-06
2013-04-12 00:00:00,2013-04-12 00:00:00,PRATE,surface,-93.7504,25.0393,6.1e-06
2013-04-12 00:00:00,2013-04-12 00:00:00,PRATE,surface,-92.8129,25.0393,1.25e-05
2013-04-12 00:00:00,2013-04-12 00:00:00,PRATE,surface,-107.813,25.9842,7.6e-06
2013-04-12 00:00:00,2013-04-12 00:00:00,PRATE,surface,-106.875,25.9842,9.01e-05
2013-04-12 00:00:00,2013-04-12 00:00:00,PRATE,surface,-105.938,25.9842,9.09e-05
2013-04-12 00:00:00,2013-04-12 00:00:00,PRATE,surface,-105,25.9842,3.28e-05
2013-04-12 00:00:00,2013-04-12 00:00:00,PRATE,surface,-104.063,25.9842,3.47e-05
2013-04-12 00:00:00,2013-04-12 00:00:00,PRATE,surface,-103.125,25.9842,1.52e-05
2013-04-12 00:00:00,2013-04-12 00:00:00,PRATE,surface,-102.188,25.9842,8.3e-06
2013-04-12 00:00:00,2013-04-12 00:00:00,PRATE,surface,-101.25,25.9842,9.3e-06
2013-04-12 00:00:00,2013-04-12 00:00:00,PRATE,surface,-100.313,25.9842,2.46e-05
2013-04-12 00:00:00,2013-04-12 00:00:00,PRATE,surface,-99.3754,25.9842,1.77e-05
2013-04-12 00:00:00,2013-04-12 00:00:00,PRATE,surface,-98.4379,25.9842,3.33e-05
2013-04-12 00:00:00,2013-04-12 00:00:00,PRATE,surface,-97.5004,25.9842,4.34e-05
2013-04-12 00:00:00,2013-04-12 00:00:00,PRATE,surface,-96.5629,25.9842,2.93e-05
2013-04-12 00:00:00,2013-04-12 00:00:00,PRATE,surface,-95.6254,25.9842,7.7e-06
2013-04-12 00:00:00,2013-04-12 00:00:00,PRATE,surface,-94.6879,25.9842,2.7e-06
2013-04-12 00:00:00,2013-04-12 00:00:00,PRATE,surface,-93.7504,25.9842,8.7e-06
2013-04-12 00:00:00,2013-04-12 00:00:00,PRATE,surface,-92.8129,25.9842,1.01e-05
2013-04-12 00:00:00,2013-04-12 00:00:00,PRATE,surface,-107.813,26.929,4.14e-05
2013-04-12 00:00:00,2013-04-12 00:00:00,PRATE,surface,-106.875,26.929,9.2e-05
2013-04-12 00:00:00,2013-04-12 00:00:00,PRATE,surface,-105.938,26.929,4.7e-05
2013-04-12 00:00:00,2013-04-12 00:00:00,PRATE,surface,-105,26.929,3.07e-05
2013-04-12 00:00:00,2013-04-12 00:00:00,PRATE,surface,-104.063,26.929,2.77e-05
2013-04-12 00:00:00,2013-04-12 00:00:00,PRATE,surface,-103.125,26.929,3.46e-05
2013-04-12 00:00:00,2013-04-12 00:00:00,PRATE,surface,-102.188,26.929,2.71e-05
2013-04-12 00:00:00,2013-04-12 00:00:00,PRATE,surface,-101.25,26.929,2.77e-05
2013-04-12 00:00:00,2013-04-12 00:00:00,PRATE,surface,-100.313,26.929,2.36e-05
2013-04-12 00:00:00,2013-04-12 00:00:00,PRATE,surface,-99.3754,26.929,2.31e-05
2013-04-12 00:00:00,2013-04-12 00:00:00,PRATE,surface,-98.4379,26.929,4.56e-05
2013-04-12 00:00:00,2013-04-12 00:00:00,PRATE,surface,-97.5004,26.929,5.81e-05
2013-04-12 00:00:00,2013-04-12 00:00:00,PRATE,surface,-96.5629,26.929,2.06e-05
2013-04-12 00:00:00,2013-04-12 00:00:00,PRATE,surface,-95.6254,26.929,6.5e-06
2013-04-12 00:00:00,2013-04-12 00:00:00,PRATE,surface,-94.6879,26.929,1e-06
2013-04-12 00:00:00,2013-04-12 00:00:00,PRATE,surface,-93.7504,26.929,4.2e-06
2013-04-12 00:00:00,2013-04-12 00:00:00,PRATE,surface,-92.8129,26.929,6.4e-06
2013-04-12 00:00:00,2013-04-12 00:00:00,PRATE,surface,-107.813,27.8739,5.41e-05
2013-04-12 00:00:00,2013-04-12 00:00:00,PRATE,surface,-106.875,27.8739,5.15e-05
2013-04-12 00:00:00,2013-04-12 00:00:00,PRATE,surface,-105.938,27.8739,2.05e-05
2013-04-12 00:00:00,2013-04-12 00:00:00,PRATE,surface,-105,27.8739,2.19e-05
2013-04-12 00:00:00,2013-04-12 00:00:00,PRATE,surface,-104.063,27.8739,4.2e-05
2013-04-12 00:00:00,2013-04-12 00:00:00,PRATE,surface,-103.125,27.8739,4.41e-05
2013-04-12 00:00:00,2013-04-12 00:00:00,PRATE,surface,-102.188,27.8739,3.12e-05
2013-04-12 00:00:00,2013-04-12 00:00:00,PRATE,surface,-101.25,27.8739,2.35e-05
2013-04-12 00:00:00,2013-04-12 00:00:00,PRATE,surface,-100.313,27.8739,2.58e-05
2013-04-12 00:00:00,2013-04-12 00:00:00,PRATE,surface,-99.3754,27.8739,3.86e-05
2013-04-12 00:00:00,2013-04-12 00:00:00,PRATE,surface,-98.4379,27.8739,4.65e-05
2013-04-12 00:00:00,2013-04-12 00:00:00,PRATE,surface,-97.5004,27.8739,4.1e-05
2013-04-12 00:00:00,2013-04-12 00:00:00,PRATE,surface,-96.5629,27.8739,2.34e-05
2013-04-12 00:00:00,2013-04-12 00:00:00,PRATE,surface,-95.6254,27.8739,6.2e-06
2013-04-12 00:00:00,2013-04-12 00:00:00,PRATE,surface,-94.6879,27.8739,1.4e-06
2013-04-12 00:00:00,2013-04-12 00:00:00,PRATE,surface,-93.7504,27.8739,2.4e-06
2013-04-12 00:00:00,2013-04-12 00:00:00,PRATE,surface,-92.8129,27.8739,4e-06
2013-04-12 00:00:00,2013-04-12 00:00:00,PRATE,surface,-107.813,28.8188,4.69e-05
2013-04-12 00:00:00,2013-04-12 00:00:00,PRATE,surface,-106.875,28.8188,3.02e-05
2013-04-12 00:00:00,2013-04-12 00:00:00,PRATE,surface,-105.938,28.8188,1.8e-05
2013-04-12 00:00:00,2013-04-12 00:00:00,PRATE,surface,-105,28.8188,1.26e-05
2013-04-12 00:00:00,2013-04-12 00:00:00,PRATE,surface,-104.063,28.8188,2.58e-05
2013-04-12 00:00:00,2013-04-12 00:00:00,PRATE,surface,-103.125,28.8188,2.67e-05
2013-04-12 00:00:00,2013-04-12 00:00:00,PRATE,surface,-102.188,28.8188,1.79e-05
2013-04-12 00:00:00,2013-04-12 00:00:00,PRATE,surface,-101.25,28.8188,1.26e-05
2013-04-12 00:00:00,2013-04-12 00:00:00,PRATE,surface,-100.313,28.8188,2.36e-05
2013-04-12 00:00:00,2013-04-12 00:00:00,PRATE,surface,-99.3754,28.8188,3.47e-05
2013-04-12 00:00:00,2013-04-12 00:00:00,PRATE,surface,-98.4379,28.8188,3.4e-05
2013-04-12 00:00:00,2013-04-12 00:00:00,PRATE,surface,-97.5004,28.8188,2.24e-05
2013-04-12 00:00:00,2013-04-12 00:00:00,PRATE,surface,-96.5629,28.8188,9.6e-06
2013-04-12 00:00:00,2013-04-12 00:00:00,PRATE,surface,-95.6254,28.8188,3.6e-06
2013-04-12 00:00:00,2013-04-12 00:00:00,PRATE,surface,-94.6879,28.8188,3.6e-06
2013-04-12 00:00:00,2013-04-12 00:00:00,PRATE,surface,-93.7504,28.8188,5.3e-06
2013-04-12 00:00:00,2013-04-12 00:00:00,PRATE,surface,-92.8129,28.8188,6.7e-06
2013-04-12 00:00:00,2013-04-12 00:00:00,PRATE,surface,-107.813,29.7637,2.61e-05
2013-04-12 00:00:00,2013-04-12 00:00:00,PRATE,surface,-106.875,29.7637,2.15e-05
2013-04-12 00:00:00,2013-04-12 00:00:00,PRATE,surface,-105.938,29.7637,1.64e-05
2013-04-12 00:00:00,2013-04-12 00:00:00,PRATE,surface,-105,29.7637,1.41e-05
2013-04-12 00:00:00,2013-04-12 00:00:00,PRATE,surface,-104.063,29.7637,2.25e-05
2013-04-12 00:00:00,2013-04-12 00:00:00,PRATE,surface,-103.125,29.7637,1.4e-05
2013-04-12 00:00:00,2013-04-12 00:00:00,PRATE,surface,-102.188,29.7637,7.1e-06
2013-04-12 00:00:00,2013-04-12 00:00:00,PRATE,surface,-101.25,29.7637,6.5e-06
2013-04-12 00:00:00,2013-04-12 00:00:00,PRATE,surface,-100.313,29.7637,1.66e-05
2013-04-12 00:00:00,2013-04-12 00:00:00,PRATE,surface,-99.3754,29.7637,2.27e-05
2013-04-12 00:00:00,2013-04-12 00:00:00,PRATE,surface,-98.4379,29.7637,1.95e-05
2013-04-12 00:00:00,2013-04-12 00:00:00,PRATE,surface,-97.5004,29.7637,1.11e-05
2013-04-12 00:00:00,2013-04-12 00:00:00,PRATE,surface,-96.5629,29.7637,6e-06
2013-04-12 00:00:00,2013-04-12 00:00:00,PRATE,surface,-95.6254,29.7637,6.2e-06
2013-04-12 00:00:00,2013-04-12 00:00:00,PRATE,surface,-94.6879,29.7637,7.5e-06
2013-04-12 00:00:00,2013-04-12 00:00:00,PRATE,surface,-93.7504,29.7637,1.13e-05
2013-04-12 00:00:00,2013-04-12 00:00:00,PRATE,surface,-92.8129,29.7637,1.59e-05
2013-04-12 00:00:00,2013-04-12 00:00:00,PRATE,surface,-107.813,30.7085,1.25e-05
2013-04-12 00:00:00,2013-04-12 00:00:00,PRATE,surface,-106.875,30.7085,6.6e-06
2013-04-12 00:00:00,2013-04-12 00:00:00,PRATE,surface,-105.938,30.7085,6.1e-06
2013-04-12 00:00:00,2013-04-12 00:00:00,PRATE,surface,-105,30.7085,1.14e-05
2013-04-12 00:00:00,2013-04-12 00:00:00,PRATE,surface,-104.063,30.7085,1.41e-05
2013-04-12 00:00:00,2013-04-12 00:00:00,PRATE,surface,-103.125,30.7085,7.7e-06
2013-04-12 00:00:00,2013-04-12 00:00:00,PRATE,surface,-102.188,30.7085,4.5e-06
2013-04-12 00:00:00,2013-04-12 00:00:00,PRATE,surface,-101.25,30.7085,4.2e-06
2013-04-12 00:00:00,2013-04-12 00:00:00,PRATE,surface,-100.313,30.7085,7.8e-06
2013-04-12 00:00:00,2013-04-12 00:00:00,PRATE,surface,-99.3754,30.7085,8.9e-06
2013-04-12 00:00:00,2013-04-12 00:00:00,PRATE,surface,-98.4379,30.7085,5.9e-06
2013-04-12 00:00:00,2013-04-12 00:00:00,PRATE,surface,-97.5004,30.7085,2.4e-06
2013-04-12 00:00:00,2013-04-12 00:00:00,PRATE,surface,-96.5629,30.7085,1.2e-06
2013-04-12 00:00:00,2013-04-12 00:00:00,PRATE,surface,-95.6254,30.7085,2.7e-06
2013-04-12 00:00:00,2013-04-12 00:00:00,PRATE,surface,-94.6879,30.7085,5.9e-06
2013-04-12 00:00:00,2013-04-12 00:00:00,PRATE,surface,-93.7504,30.7085,9.5e-06
2013-04-12 00:00:00,2013-04-12 00:00:00,PRATE,surface,-92.8129,30.7085,1.42e-05
2013-04-12 00:00:00,2013-04-12 00:00:00,PRATE,surface,-107.813,31.6534,3.2e-06
2013-04-12 00:00:00,2013-04-12 00:00:00,PRATE,surface,-106.875,31.6534,2.7e-06
2013-04-12 00:00:00,2013-04-12 00:00:00,PRATE,surface,-105.938,31.6534,4.9e-06
2013-04-12 00:00:00,2013-04-12 00:00:00,PRATE,surface,-105,31.6534,9.9e-06
2013-04-12 00:00:00,2013-04-12 00:00:00,PRATE,surface,-104.063,31.6534,7.6e-06
2013-04-12 00:00:00,2013-04-12 00:00:00,PRATE,surface,-103.125,31.6534,4.4e-06
2013-04-12 00:00:00,2013-04-12 00:00:00,PRATE,surface,-102.188,31.6534,2.3e-06
2013-04-12 00:00:00,2013-04-12 00:00:00,PRATE,surface,-101.25,31.6534,3e-06
2013-04-12 00:00:00,2013-04-12 00:00:00,PRATE,surface,-100.313,31.6534,4.1e-06
2013-04-12 00:00:00,2013-04-12 00:00:00,PRATE,surface,-99.3754,31.6534,6.5e-06
2013-04-12 00:00:00,2013-04-12 00:00:00,PRATE,surface,-98.4379,31.6534,7.3e-06
2013-04-12 00:00:00,2013-04-12 00:00:00,PRATE,surface,-97.5004,31.6534,6.1e-06
2013-04-12 00:00:00,2013-04-12 00:00:00,PRATE,surface,-96.5629,31.6534,4.5e-06
2013-04-12 00:00:00,2013-04-12 00:00:00,PRATE,surface,-95.6254,31.6534,3.8e-06
2013-04-12 00:00:00,2013-04-12 00:00:00,PRATE,surface,-94.6879,31.6534,5.2e-06
2013-04-12 00:00:00,2013-04-12 00:00:00,PRATE,surface,-93.7504,31.6534,7e-06
2013-04-12 00:00:00,2013-04-12 00:00:00,PRATE,surface,-92.8129,31.6534,8.5e-06
2013-04-12 00:00:00,2013-04-12 00:00:00,PRATE,surface,-107.813,32.5983,1e-06
2013-04-12 00:00:00,2013-04-12 00:00:00,PRATE,surface,-106.875,32.5983,2.2e-06
2013-04-12 00:00:00,2013-04-12 00:00:00,PRATE,surface,-105.938,32.5983,7.6e-06
2013-04-12 00:00:00,2013-04-12 00:00:00,PRATE,surface,-105,32.5983,1.05e-05
2013-04-12 00:00:00,2013-04-12 00:00:00,PRATE,surface,-104.063,32.5983,7.2e-06
2013-04-12 00:00:00,2013-04-12 00:00:00,PRATE,surface,-103.125,32.5983,3e-06
2013-04-12 00:00:00,2013-04-12 00:00:00,PRATE,surface,-102.188,32.5983,1.3e-06
2013-04-12 00:00:00,2013-04-12 00:00:00,PRATE,surface,-101.25,32.5983,1.4e-06
2013-04-12 00:00:00,2013-04-12 00:00:00,PRATE,surface,-100.313,32.5983,1.9e-06
2013-04-12 00:00:00,2013-04-12 00:00:00,PRATE,surface,-99.3754,32.5983,4e-06
2013-04-12 00:00:00,2013-04-12 00:00:00,PRATE,surface,-98.4379,32.5983,7.5e-06
2013-04-12 00:00:00,2013-04-12 00:00:00,PRATE,surface,-97.5004,32.5983,1.02e-05
2013-04-12 00:00:00,2013-04-12 00:00:00,PRATE,surface,-96.5629,32.5983,1.01e-05
2013-04-12 00:00:00,2013-04-12 00:00:00,PRATE,surface,-95.6254,32.5983,8.6e-06
2013-04-12 00:00:00,2013-04-12 00:00:00,PRATE,surface,-94.6879,32.5983,7.4e-06
2013-04-12 00:00:00,2013-04-12 00:00:00,PRATE,surface,-93.7504,32.5983,6.4e-06
2013-04-12 00:00:00,2013-04-12 00:00:00,PRATE,surface,-92.8129,32.5983,7.2e-06
2013-04-12 00:00:00,2013-04-12 00:00:00,PRATE,surface,-107.813,33.5432,3.6e-06
2013-04-12 00:00:00,2013-04-12 00:00:00,PRATE,surface,-106.875,33.5432,4.2e-06
2013-04-12 00:00:00,2013-04-12 00:00:00,PRATE,surface,-105.938,33.5432,9.5e-06
2013-04-12 00:00:00,2013-04-12 00:00:00,PRATE,surface,-105,33.5432,9e-06
2013-04-12 00:00:00,2013-04-12 00:00:00,PRATE,surface,-104.063,33.5432,1.04e-05
2013-04-12 00:00:00,2013-04-12 00:00:00,PRATE,surface,-103.125,33.5432,5.4e-06
2013-04-12 00:00:00,2013-04-12 00:00:00,PRATE,surface,-102.188,33.5432,2.1e-06
2013-04-12 00:00:00,2013-04-12 00:00:00,PRATE,surface,-101.25,33.5432,3e-06
2013-04-12 00:00:00,2013-04-12 00:00:00,PRATE,surface,-100.313,33.5432,4.7e-06
2013-04-12 00:00:00,2013-04-12 00:00:00,PRATE,surface,-99.3754,33.5432,7.7e-06
2013-04-12 00:00:00,2013-04-12 00:00:00,PRATE,surface,-98.4379,33.5432,1.05e-05
2013-04-12 00:00:00,2013-04-12 00:00:00,PRATE,surface,-97.5004,33.5432,1.08e-05
2013-04-12 00:00:00,2013-04-12 00:00:00,PRATE,surface,-96.5629,33.5432,8.5e-06
2013-04-12 00:00:00,2013-04-12 00:00:00,PRATE,surface,-95.6254,33.5432,5.7e-06
2013-04-12 00:00:00,2013-04-12 00:00:00,PRATE,surface,-94.6879,33.5432,5.3e-06
2013-04-12 00:00:00,2013-04-12 00:00:00,PRATE,surface,-93.7504,33.5432,7.5e-06
2013-04-12 00:00:00,2013-04-12 00:00:00,PRATE,surface,-92.8129,33.5432,7.9e-06
2013-04-12 00:00:00,2013-04-12 00:00:00,PRATE,surface,-107.813,34.4881,2.1e-06
2013-04-12 00:00:00,2013-04-12 00:00:00,PRATE,surface,-106.875,34.4881,1.3e-06
2013-04-12 00:00:00,2013-04-12 00:00:00,PRATE,surface,-105.938,34.4881,6.1e-06
2013-04-12 00:00:00,2013-04-12 00:00:00,PRATE,surface,-105,34.4881,1.37e-05
2013-04-12 00:00:00,2013-04-12 00:00:00,PRATE,surface,-104.063,34.4881,1.94e-05
2013-04-12 00:00:00,2013-04-12 00:00:00,PRATE,surface,-103.125,34.4881,1.17e-05
2013-04-12 00:00:00,2013-04-12 00:00:00,PRATE,surface,-102.188,34.4881,7.2e-06
2013-04-12 00:00:00,2013-04-12 00:00:00,PRATE,surface,-101.25,34.4881,7.6e-06
2013-04-12 00:00:00,2013-04-12 00:00:00,PRATE,surface,-100.313,34.4881,1.06e-05
2013-04-12 00:00:00,2013-04-12 00:00:00,PRATE,surface,-99.3754,34.4881,1.55e-05
2013-04-12 00:00:00,2013-04-12 00:00:00,PRATE,surface,-98.4379,34.4881,1.65e-05
2013-04-12 00:00:00,2013-04-12 00:00:00,PRATE,surface,-97.5004,34.4881,1.44e-05
2013-04-12 00:00:00,2013-04-12 00:00:00,PRATE,surface,-96.5629,34.4881,9.5e-06
2013-04-12 00:00:00,2013-04-12 00:00:00,PRATE,surface,-95.6254,34.4881,4.2e-06
2013-04-12 00:00:00,2013-04-12 00:00:00,PRATE,surface,-94.6879,34.4881,4e-06
2013-04-12 00:00:00,2013-04-12 00:00:00,PRATE,surface,-93.7504,34.4881,5.5e-06
2013-04-12 00:00:00,2013-04-12 00:00:00,PRATE,surface,-92.8129,34.4881,7.7e-06
2013-04-12 00:00:00,2013-04-12 00:00:00,PRATE,surface,-107.813,35.4329,2e-07
2013-04-12 00:00:00,2013-04-12 00:00:00,PRATE,surface,-106.875,35.4329,6e-07
2013-04-12 00:00:00,2013-04-12 00:00:00,PRATE,surface,-105.938,35.4329,4e-06
2013-04-12 00:00:00,2013-04-12 00:00:00,PRATE,surface,-105,35.4329,1.89e-05
2013-04-12 00:00:00,2013-04-12 00:00:00,PRATE,surface,-104.063,35.4329,3.35e-05
2013-04-12 00:00:00,2013-04-12 00:00:00,PRATE,surface,-103.125,35.4329,2.33e-05
2013-04-12 00:00:00,2013-04-12 00:00:00,PRATE,surface,-102.188,35.4329,1.77e-05
2013-04-12 00:00:00,2013-04-12 00:00:00,PRATE,surface,-101.25,35.4329,1.75e-05
2013-04-12 00:00:00,2013-04-12 00:00:00,PRATE,surface,-100.313,35.4329,1.63e-05
2013-04-12 00:00:00,2013-04-12 00:00:00,PRATE,surface,-99.3754,35.4329,1.31e-05
2013-04-12 00:00:00,2013-04-12 00:00:00,PRATE,surface,-98.4379,35.4329,1.71e-05
2013-04-12 00:00:00,2013-04-12 00:00:00,PRATE,surface,-97.5004,35.4329,1.91e-05
2013-04-12 00:00:00,2013-04-12 00:00:00,PRATE,surface,-96.5629,35.4329,1.26e-05
2013-04-12 00:00:00,2013-04-12 00:00:00,PRATE,surface,-95.6254,35.4329,6e-06
2013-04-12 00:00:00,2013-04-12 00:00:00,PRATE,surface,-94.6879,35.4329,3.9e-06
2013-04-12 00:00:00,2013-04-12 00:00:00,PRATE,surface,-93.7504,35.4329,5.3e-06
2013-04-12 00:00:00,2013-04-12 00:00:00,PRATE,surface,-92.8129,35.4329,8.8e-06
2013-04-12 00:00:00,2013-04-12 00:00:00,PRATE,surface,-107.813,36.3778,4e-07
2013-04-12 00:00:00,2013-04-12 00:00:00,PRATE,surface,-106.875,36.3778,1.9e-06
2013-04-12 00:00:00,2013-04-12 00:00:00,PRATE,surface,-105.938,36.3778,8.5e-06
2013-04-12 00:00:00,2013-04-12 00:00:00,PRATE,surface,-105,36.3778,2.43e-05
2013-04-12 00:00:00,2013-04-12 00:00:00,PRATE,surface,-104.063,36.3778,3.24e-05
2013-04-12 00:00:00,2013-04-12 00:00:00,PRATE,surface,-103.125,36.3778,3.2e-05
2013-04-12 00:00:00,2013-04-12 00:00:00,PRATE,surface,-102.188,36.3778,3.03e-05
2013-04-12 00:00:00,2013-04-12 00:00:00,PRATE,surface,-101.25,36.3778,2.64e-05
2013-04-12 00:00:00,2013-04-12 00:00:00,PRATE,surface,-100.313,36.3778,2.16e-05
2013-04-12 00:00:00,2013-04-12 00:00:00,PRATE,surface,-99.3754,36.3778,1.86e-05
2013-04-12 00:00:00,2013-04-12 00:00:00,PRATE,surface,-98.4379,36.3778,2.13e-05
2013-04-12 00:00:00,2013-04-12 00:00:00,PRATE,surface,-97.5004,36.3778,2.37e-05
2013-04-12 00:00:00,2013-04-12 00:00:00,PRATE,surface,-96.5629,36.3778,1.93e-05
2013-04-12 00:00:00,2013-04-12 00:00:00,PRATE,surface,-95.6254,36.3778,1.18e-05
2013-04-12 00:00:00,2013-04-12 00:00:00,PRATE,surface,-94.6879,36.3778,7.6e-06
2013-04-12 00:00:00,2013-04-12 00:00:00,PRATE,surface,-93.7504,36.3778,8.3e-06
2013-04-12 00:00:00,2013-04-12 00:00:00,PRATE,surface,-92.8129,36.3778,1.3e-05
