2016-11-02 00:00:00,2016-11-02 00:00:00,TMP,surface,-107.813,25.0393,297.044
2016-11-02 00:00:00,2016-11-02 00:00:00,TMP,surface,-106.875,25.0393,290.687
2016-11-02 00:00:00,2016-11-02 00:00:00,TMP,surface,-105.938,25.0393,285.017
2016-11-02 00:00:00,2016-11-02 00:00:00,TMP,surface,-105,25.0393,283.305
2016-11-02 00:00:00,2016-11-02 00:00:00,TMP,surface,-104.063,25.0393,287.028
2016-11-02 00:00:00,2016-11-02 00:00:00,TMP,surface,-103.125,25.0393,288.684
2016-11-02 00:00:00,2016-11-02 00:00:00,TMP,surface,-102.188,25.0393,289.007
2016-11-02 00:00:00,2016-11-02 00:00:00,TMP,surface,-101.25,25.0393,287.407
2016-11-02 00:00:00,2016-11-02 00:00:00,TMP,surface,-100.313,25.0393,288.173
2016-11-02 00:00:00,2016-11-02 00:00:00,TMP,surface,-99.3754,25.0393,291.461
2016-11-02 00:00:00,2016-11-02 00:00:00,TMP,surface,-98.4379,25.0393,295.302
2016-11-02 00:00:00,2016-11-02 00:00:00,TMP,surface,-97.5004,25.0393,300.028
2016-11-02 00:00:00,2016-11-02 00:00:00,TMP,surface,-96.5629,25.0393,300.594
2016-11-02 00:00:00,2016-11-02 00:00:00,TMP,surface,-95.6254,25.0393,300.638
2016-11-02 00:00:00,2016-11-02 00:00:00,TMP,surface,-94.6879,25.0393,300.575
2016-11-02 00:00:00,2016-11-02 00:00:00,TMP,surface,-93.7504,25.0393,300.326
2016-11-02 00:00:00,2016-11-02 00:00:00,TMP,surface,-92.8129,25.0393,300.103
2016-11-02 00:00:00,2016-11-02 00:00:00,TMP,surface,-107.813,25.9842,290.948
2016-11-02 00:00:00,2016-11-02 00:00:00,TMP,surface,-106.875,25.9842,285.793
2016-11-02 00:00:00,2016-11-02 00:00:00,TMP,surface,-105.938,25.9842,283.186
2016-11-02 00:00:00,2016-11-02 00:00:00,TMP,surface,-105,25.9842,285.422
2016-11-02 00:00:00,2016-11-02 00:00:00,TMP,surface,-104.063,25.9842,288.937
2016-11-02 00:00:00,2016-11-02 00:00:00,TMP,surface,-103.125,25.9842,290.434
2016-11-02 00:00:00,2016-11-02 00:00:00,TMP,surface,-102.188,25.9842,290.281
2016-11-02 00:00:00,2016-11-02 00:00:00,TMP,surface,-101.25,25.9842,289.542
2016-11-02 00:00:00,2016-11-02 00:00:00,TMP,surface,-100.313,25.9842,289.97
2016-11-02 00:00:00,2016-11-02 00:00:00,TMP,surface,-99.3754,25.9842,293.119
2016-11-02 00:00:00,2016-11-02 00:00:00,TMP,surface,-98.4379,25.9842,295.732
2016-11-02 00:00:00,2016-11-02 00:00:00,TMP,surface,-97.5004,25.9842,296.804
2016-11-02 00:00:00,2016-11-02 00:00:00,TMP,surface,-96.5629,25.9842,300.017
2016-11-02 00:00:00,2016-11-02 00:00:00,TMP,surface,-95.6254,25.9842,300.407
2016-11-02 00:00:00,2016-11-02 00:00:00,TMP,surface,-94.6879,25.9842,300.442
2016-11-02 00:00:00,2016-11-02 00:00:00,TMP,surface,-93.7504,25.9842,300.188
2016-11-02 00:00:00,2016-11-02 00:00:00,TMP,surface,-92.8129,25.9842,299.993
2016-11-02 00:00:00,2016-11-02 00:00:00,TMP,surface,-107.813,26.929,286.895
2016-11-02 00:00:00,2016-11-02 00:00:00,TMP,surface,-106.875,26.929,282.372
2016-11-02 00:00:00,2016-11-02 00:00:00,TMP,surface,-105.938,26.929,284.786
2016-11-02 00:00:00,2016-11-02 00:00:00,TMP,surface,-105,26.929,287.554
2016-11-02 00:00:00,2016-11-02 00:00:00,TMP,surface,-104.063,26.929,289.249
2016-11-02 00:00:00,2016-11-02 00:00:00,TMP,surface,-103.125,26.929,289.148
2016-11-02 00:00:00,2016-11-02 00:00:00,TMP,surface,-102.188,26.929,289.343
2016-11-02 00:00:00,2016-11-02 00:00:00,TMP,surface,-101.25,26.929,290.236
2016-11-02 00:00:00,2016-11-02 00:00:00,TMP,surface,-100.313,26.929,291.49
2016-11-02 00:00:00,2016-11-02 00:00:00,TMP,surface,-99.3754,26.929,293.681
2016-11-02 00:00:00,2016-11-02 00:00:00,TMP,surface,-98.4379,26.929,294.466
2016-11-02 00:00:00,2016-11-02 00:00:00,TMP,surface,-97.5004,26.929,298.311
2016-11-02 00:00:00,2016-11-02 00:00:00,TMP,surface,-96.5629,26.929,299.198
2016-11-02 00:00:00,2016-11-02 00:00:00,TMP,surface,-95.6254,26.929,300.058
2016-11-02 00:00:00,2016-11-02 00:00:00,TMP,surface,-94.6879,26.929,300.234
2016-11-02 00:00:00,2016-11-02 00:00:00,TMP,surface,-93.7504,26.929,299.957
2016-11-02 00:00:00,2016-11-02 00:00:00,TMP,surface,-92.8129,26.929,299.708
2016-11-02 00:00:00,2016-11-02 00:00:00,TMP,surface,-107.813,27.8739,283.62
2016-11-02 00:00:00,2016-11-02 00:00:00,TMP,surface,-106.875,27.8739,282.349
2016-11-02 00:00:00,2016-11-02 00:00:00,TMP,surface,-105.938,27.8739,285.246
2016-11-02 00:00:00,2016-11-02 00:00:00,TMP,surface,-105,27.8739,287.623
2016-11-02 00:00:00,2016-11-02 00:00:00,TMP,surface,-104.063,27.8739,288.561
2016-11-02 00:00:00,2016-11-02 00:00:00,TMP,surface,-103.125,27.8739,288.038
2016-11-02 00:00:00,2016-11-02 00:00:00,TMP,surface,-102.188,27.8739,288.356
2016-11-02 00:00:00,2016-11-02 00:00:00,TMP,surface,-101.25,27.8739,289.766
2016-11-02 00:00:00,2016-11-02 00:00:00,TMP,surface,-100.313,27.8739,291.698
2016-11-02 00:00:00,2016-11-02 00:00:00,TMP,surface,-99.3754,27.8739,292.641
2016-11-02 00:00:00,2016-11-02 00:00:00,TMP,surface,-98.4379,27.8739,293.114
2016-11-02 00:00:00,2016-11-02 00:00:00,TMP,surface,-97.5004,27.8739,295.961
2016-11-02 00:00:00,2016-11-02 00:00:00,TMP,surface,-96.5629,27.8739,298.916
2016-11-02 00:00:00,2016-11-02 00:00:00,TMP,surface,-95.6254,27.8739,299.445
2016-11-02 00:00:00,2016-11-02 00:00:00,TMP,surface,-94.6879,27.8739,299.49
2016-11-02 00:00:00,2016-11-02 00:00:00,TMP,surface,-93.7504,27.8739,299.263
2016-11-02 00:00:00,2016-11-02 00:00:00,TMP,surface,-92.8129,27.8739,299.116
2016-11-02 00:00:00,2016-11-02 00:00:00,TMP,surface,-107.813,28.8188,282.188
2016-11-02 00:00:00,2016-11-02 00:00:00,TMP,surface,-106.875,28.8188,282.94
2016-11-02 00:00:00,2016-11-02 00:00:00,TMP,surface,-105.938,28.8188,285.719
2016-11-02 00:00:00,2016-11-02 00:00:00,TMP,surface,-105,28.8188,287.098
2016-11-02 00:00:00,2016-11-02 00:00:00,TMP,surface,-104.063,28.8188,286.78
2016-11-02 00:00:00,2016-11-02 00:00:00,TMP,surface,-103.125,28.8188,287.237
2016-11-02 00:00:00,2016-11-02 00:00:00,TMP,surface,-102.188,28.8188,287.924
2016-11-02 00:00:00,2016-11-02 00:00:00,TMP,surface,-101.25,28.8188,289.407
2016-11-02 00:00:00,2016-11-02 00:00:00,TMP,surface,-100.313,28.8188,290.495
2016-11-02 00:00:00,2016-11-02 00:00:00,TMP,surface,-99.3754,28.8188,290.764
2016-11-02 00:00:00,2016-11-02 00:00:00,TMP,surface,-98.4379,28.8188,291.063
2016-11-02 00:00:00,2016-11-02 00:00:00,TMP,surface,-97.5004,28.8188,291.839
2016-11-02 00:00:00,2016-11-02 00:00:00,TMP,surface,-96.5629,28.8188,292.815
2016-11-02 00:00:00,2016-11-02 00:00:00,TMP,surface,-95.6254,28.8188,295.362
2016-11-02 00:00:00,2016-11-02 00:00:00,TMP,surface,-94.6879,28.8188,298.604
2016-11-02 00:00:00,2016-11-02 00:00:00,TMP,surface,-93.7504,28.8188,298.438
2016-11-02 00:00:00,2016-11-02 00:00:00,TMP,surface,-92.8129,28.8188,298.297
2016-11-02 00:00:00,2016-11-02 00:00:00,TMP,surface,-107.813,29.7637,283.194
2016-11-02 00:00:00,2016-11-02 00:00:00,TMP,surface,-106.875,29.7637,284.53
2016-11-02 00:00:00,2016-11-02 00:00:00,TMP,surface,-105.938,29.7637,286.654
2016-11-02 00:00:00,2016-11-02 00:00:00,TMP,surface,-105,29.7637,286.265
2016-11-02 00:00:00,2016-11-02 00:00:00,TMP,surface,-104.063,29.7637,286.818
2016-11-02 00:00:00,2016-11-02 00:00:00,TMP,surface,-103.125,29.7637,287.697
2016-11-02 00:00:00,2016-11-02 00:00:00,TMP,surface,-102.188,29.7637,288.797
2016-11-02 00:00:00,2016-11-02 00:00:00,TMP,surface,-101.25,29.7637,289.196
2016-11-02 00:00:00,2016-11-02 00:00:00,TMP,surface,-100.313,29.7637,288.988
2016-11-02 00:00:00,2016-11-02 00:00:00,TMP,surface,-99.3754,29.7637,289.015
2016-11-02 00:00:00,2016-11-02 00:00:00,TMP,surface,-98.4379,29.7637,289.366
2016-11-02 00:00:00,2016-11-02 00:00:00,TMP,surface,-97.5004,29.7637,289.929
2016-11-02 00:00:00,2016-11-02 00:00:00,TMP,surface,-96.5629,29.7637,290.593
2016-11-02 00:00:00,2016-11-02 00:00:00,TMP,surface,-95.6254,29.7637,291.276
2016-11-02 00:00:00,2016-11-02 00:00:00,TMP,surface,-94.6879,29.7637,293.461
2016-11-02 00:00:00,2016-11-02 00:00:00,TMP,surface,-93.7504,29.7637,296.044
2016-11-02 00:00:00,2016-11-02 00:00:00,TMP,surface,-92.8129,29.7637,292.423
2016-11-02 00:00:00,2016-11-02 00:00:00,TMP,surface,-107.813,30.7085,285.698
2016-11-02 00:00:00,2016-11-02 00:00:00,TMP,surface,-106.875,30.7085,286.804
2016-11-02 00:00:00,2016-11-02 00:00:00,TMP,surface,-105.938,30.7085,286.721
2016-11-02 00:00:00,2016-11-02 00:00:00,TMP,surface,-105,30.7085,286.332
2016-11-02 00:00:00,2016-11-02 00:00:00,TMP,surface,-104.063,30.7085,286.172
2016-11-02 00:00:00,2016-11-02 00:00:00,TMP,surface,-103.125,30.7085,287.498
2016-11-02 00:00:00,2016-11-02 00:00:00,TMP,surface,-102.188,30.7085,288.27
2016-11-02 00:00:00,2016-11-02 00:00:00,TMP,surface,-101.25,30.7085,288.237
2016-11-02 00:00:00,2016-11-02 00:00:00,TMP,surface,-100.313,30.7085,288.125
2016-11-02 00:00:00,2016-11-02 00:00:00,TMP,surface,-99.3754,30.7085,288.212
2016-11-02 00:00:00,2016-11-02 00:00:00,TMP,surface,-98.4379,30.7085,288.642
2016-11-02 00:00:00,2016-11-02 00:00:00,TMP,surface,-97.5004,30.7085,289.177
2016-11-02 00:00:00,2016-11-02 00:00:00,TMP,surface,-96.5629,30.7085,289.543
2016-11-02 00:00:00,2016-11-02 00:00:00,TMP,surface,-95.6254,30.7085,289.786
2016-11-02 00:00:00,2016-11-02 00:00:00,TMP,surface,-94.6879,30.7085,290.034
2016-11-02 00:00:00,2016-11-02 00:00:00,TMP,surface,-93.7504,30.7085,290.19
2016-11-02 00:00:00,2016-11-02 00:00:00,TMP,surface,-92.8129,30.7085,290.036
2016-11-02 00:00:00,2016-11-02 00:00:00,TMP,surface,-107.813,31.6534,285.671
2016-11-02 00:00:00,2016-11-02 00:00:00,TMP,surface,-106.875,31.6534,286.396
2016-11-02 00:00:00,2016-11-02 00:00:00,TMP,surface,-105.938,31.6534,285.665
2016-11-02 00:00:00,2016-11-02 00:00:00,TMP,surface,-105,31.6534,285.385
2016-11-02 00:00:00,2016-11-02 00:00:00,TMP,surface,-104.063,31.6534,286.068
2016-11-02 00:00:00,2016-11-02 00:00:00,TMP,surface,-103.125,31.6534,286.919
2016-11-02 00:00:00,2016-11-02 00:00:00,TMP,surface,-102.188,31.6534,287.341
2016-11-02 00:00:00,2016-11-02 00:00:00,TMP,surface,-101.25,31.6534,287.3
2016-11-02 00:00:00,2016-11-02 00:00:00,TMP,surface,-100.313,31.6534,287.423
2016-11-02 00:00:00,2016-11-02 00:00:00,TMP,surface,-99.3754,31.6534,287.772
2016-11-02 00:00:00,2016-11-02 00:00:00,TMP,surface,-98.4379,31.6534,288.298
2016-11-02 00:00:00,2016-11-02 00:00:00,TMP,surface,-97.5004,31.6534,288.721
2016-11-02 00:00:00,2016-11-02 00:00:00,TMP,surface,-96.5629,31.6534,288.906
2016-11-02 00:00:00,2016-11-02 00:00:00,TMP,surface,-95.6254,31.6534,288.87
2016-11-02 00:00:00,2016-11-02 00:00:00,TMP,surface,-94.6879,31.6534,288.687
2016-11-02 00:00:00,2016-11-02 00:00:00,TMP,surface,-93.7504,31.6534,288.689
2016-11-02 00:00:00,2016-11-02 00:00:00,TMP,surface,-92.8129,31.6534,288.957
2016-11-02 00:00:00,2016-11-02 00:00:00,TMP,surface,-107.813,32.5983,282.983
2016-11-02 00:00:00,2016-11-02 00:00:00,TMP,surface,-106.875,32.5983,283.369
2016-11-02 00:00:00,2016-11-02 00:00:00,TMP,surface,-105.938,32.5983,283.705
2016-11-02 00:00:00,2016-11-02 00:00:00,TMP,surface,-105,32.5983,284.069
2016-11-02 00:00:00,2016-11-02 00:00:00,TMP,surface,-104.063,32.5983,285.397
2016-11-02 00:00:00,2016-11-02 00:00:00,TMP,surface,-103.125,32.5983,286.226
2016-11-02 00:00:00,2016-11-02 00:00:00,TMP,surface,-102.188,32.5983,286.191
2016-11-02 00:00:00,2016-11-02 00:00:00,TMP,surface,-101.25,32.5983,286.319
2016-11-02 00:00:00,2016-11-02 00:00:00,TMP,surface,-100.313,32.5983,286.81
2016-11-02 00:00:00,2016-11-02 00:00:00,TMP,surface,-99.3754,32.5983,287.356
2016-11-02 00:00:00,2016-11-02 00:00:00,TMP,surface,-98.4379,32.5983,287.764
2016-11-02 00:00:00,2016-11-02 00:00:00,TMP,surface,-97.5004,32.5983,288.158
2016-11-02 00:00:00,2016-11-02 00:00:00,TMP,surface,-96.5629,32.5983,288.401
2016-11-02 00:00:00,2016-11-02 00:00:00,TMP,surface,-95.6254,32.5983,288.233
2016-11-02 00:00:00,2016-11-02 00:00:00,TMP,surface,-94.6879,32.5983,287.863
2016-11-02 00:00:00,2016-11-02 00:00:00,TMP,surface,-93.7504,32.5983,287.727
2016-11-02 00:00:00,2016-11-02 00:00:00,TMP,surface,-92.8129,32.5983,288.052
2016-11-02 00:00:00,2016-11-02 00:00:00,TMP,surface,-107.813,33.5432,280.081
2016-11-02 00:00:00,2016-11-02 00:00:00,TMP,surface,-106.875,33.5432,281.196
2016-11-02 00:00:00,2016-11-02 00:00:00,TMP,surface,-105.938,33.5432,282.061
2016-11-02 00:00:00,2016-11-02 00:00:00,TMP,surface,-105,33.5432,282.866
2016-11-02 00:00:00,2016-11-02 00:00:00,TMP,surface,-104.063,33.5432,284.465
2016-11-02 00:00:00,2016-11-02 00:00:00,TMP,surface,-103.125,33.5432,285.041
2016-11-02 00:00:00,2016-11-02 00:00:00,TMP,surface,-102.188,33.5432,284.909
2016-11-02 00:00:00,2016-11-02 00:00:00,TMP,surface,-101.25,33.5432,285.204
2016-11-02 00:00:00,2016-11-02 00:00:00,TMP,surface,-100.313,33.5432,285.901
2016-11-02 00:00:00,2016-11-02 00:00:00,TMP,surface,-99.3754,33.5432,286.556
2016-11-02 00:00:00,2016-11-02 00:00:00,TMP,surface,-98.4379,33.5432,286.897
2016-11-02 00:00:00,2016-11-02 00:00:00,TMP,surface,-97.5004,33.5432,287.105
2016-11-02 00:00:00,2016-11-02 00:00:00,TMP,surface,-96.5629,33.5432,287.359
2016-11-02 00:00:00,2016-11-02 00:00:00,TMP,surface,-95.6254,33.5432,287.444
2016-11-02 00:00:00,2016-11-02 00:00:00,TMP,surface,-94.6879,33.5432,287.18
2016-11-02 00:00:00,2016-11-02 00:00:00,TMP,surface,-93.7504,33.5432,286.903
2016-11-02 00:00:00,2016-11-02 00:00:00,TMP,surface,-92.8129,33.5432,287.065
2016-11-02 00:00:00,2016-11-02 00:00:00,TMP,surface,-107.813,34.4881,278.99
2016-11-02 00:00:00,2016-11-02 00:00:00,TMP,surface,-106.875,34.4881,280.186
2016-11-02 00:00:00,2016-11-02 00:00:00,TMP,surface,-105.938,34.4881,281.046
2016-11-02 00:00:00,2016-11-02 00:00:00,TMP,surface,-105,34.4881,281.972
2016-11-02 00:00:00,2016-11-02 00:00:00,TMP,surface,-104.063,34.4881,282.97
2016-11-02 00:00:00,2016-11-02 00:00:00,TMP,surface,-103.125,34.4881,283.249
2016-11-02 00:00:00,2016-11-02 00:00:00,TMP,surface,-102.188,34.4881,283.45
2016-11-02 00:00:00,2016-11-02 00:00:00,TMP,surface,-101.25,34.4881,284.125
2016-11-02 00:00:00,2016-11-02 00:00:00,TMP,surface,-100.313,34.4881,284.897
2016-11-02 00:00:00,2016-11-02 00:00:00,TMP,surface,-99.3754,34.4881,285.337
2016-11-02 00:00:00,2016-11-02 00:00:00,TMP,surface,-98.4379,34.4881,285.532
2016-11-02 00:00:00,2016-11-02 00:00:00,TMP,surface,-97.5004,34.4881,285.769
2016-11-02 00:00:00,2016-11-02 00:00:00,TMP,surface,-96.5629,34.4881,286.21
2016-11-02 00:00:00,2016-11-02 00:00:00,TMP,surface,-95.6254,34.4881,286.37
2016-11-02 00:00:00,2016-11-02 00:00:00,TMP,surface,-94.6879,34.4881,285.852
2016-11-02 00:00:00,2016-11-02 00:00:00,TMP,surface,-93.7504,34.4881,285.447
2016-11-02 00:00:00,2016-11-02 00:00:00,TMP,surface,-92.8129,34.4881,285.741
2016-11-02 00:00:00,2016-11-02 00:00:00,TMP,surface,-107.813,35.4329,279.089
2016-11-02 00:00:00,2016-11-02 00:00:00,TMP,surface,-106.875,35.4329,279.31
2016-11-02 00:00:00,2016-11-02 00:00:00,TMP,surface,-105.938,35.4329,279.804
2016-11-02 00:00:00,2016-11-02 00:00:00,TMP,surface,-105,35.4329,280.542
2016-11-02 00:00:00,2016-11-02 00:00:00,TMP,surface,-104.063,35.4329,282.092
2016-11-02 00:00:00,2016-11-02 00:00:00,TMP,surface,-103.125,35.4329,283.007
2016-11-02 00:00:00,2016-11-02 00:00:00,TMP,surface,-102.188,35.4329,283.17
2016-11-02 00:00:00,2016-11-02 00:00:00,TMP,surface,-101.25,35.4329,283.402
2016-11-02 00:00:00,2016-11-02 00:00:00,TMP,surface,-100.313,35.4329,283.873
2016-11-02 00:00:00,2016-11-02 00:00:00,TMP,surface,-99.3754,35.4329,284.033
2016-11-02 00:00:00,2016-11-02 00:00:00,TMP,surface,-98.4379,35.4329,284.207
2016-11-02 00:00:00,2016-11-02 00:00:00,TMP,surface,-97.5004,35.4329,284.754
2016-11-02 00:00:00,2016-11-02 00:00:00,TMP,surface,-96.5629,35.4329,285.295
2016-11-02 00:00:00,2016-11-02 00:00:00,TMP,surface,-95.6254,35.4329,285.409
2016-11-02 00:00:00,2016-11-02 00:00:00,TMP,surface,-94.6879,35.4329,285.055
2016-11-02 00:00:00,2016-11-02 00:00:00,TMP,surface,-93.7504,35.4329,284.418
2016-11-02 00:00:00,2016-11-02 00:00:00,TMP,surface,-92.8129,35.4329,284.226
2016-11-02 00:00:00,2016-11-02 00:00:00,TMP,surface,-107.813,36.3778,278.221
2016-11-02 00:00:00,2016-11-02 00:00:00,TMP,surface,-106.875,36.3778,276.785
2016-11-02 00:00:00,2016-11-02 00:00:00,TMP,surface,-105.938,36.3778,277.223
2016-11-02 00:00:00,2016-11-02 00:00:00,TMP,surface,-105,36.3778,278.58
2016-11-02 00:00:00,2016-11-02 00:00:00,TMP,surface,-104.063,36.3778,280.553
2016-11-02 00:00:00,2016-11-02 00:00:00,TMP,surface,-103.125,36.3778,281.658
2016-11-02 00:00:00,2016-11-02 00:00:00,TMP,surface,-102.188,36.3778,282.185
2016-11-02 00:00:00,2016-11-02 00:00:00,TMP,surface,-101.25,36.3778,282.677
2016-11-02 00:00:00,2016-11-02 00:00:00,TMP,surface,-100.313,36.3778,283.084
2016-11-02 00:00:00,2016-11-02 00:00:00,TMP,surface,-99.3754,36.3778,283.345
2016-11-02 00:00:00,2016-11-02 00:00:00,TMP,surface,-98.4379,36.3778,283.306
2016-11-02 00:00:00,2016-11-02 00:00:00,TMP,surface,-97.5004,36.3778,283.588
2016-11-02 00:00:00,2016-11-02 00:00:00,TMP,surface,-96.5629,36.3778,284.082
2016-11-02 00:00:00,2016-11-02 00:00:00,TMP,surface,-95.6254,36.3778,284.146
2016-11-02 00:00:00,2016-11-02 00:00:00,TMP,surface,-94.6879,36.3778,283.722
2016-11-02 00:00:00,2016-11-02 00:00:00,TMP,surface,-93.7504,36.3778,283.015
2016-11-02 00:00:00,2016-11-02 00:00:00,TMP,surface,-92.8129,36.3778,282.735
2016-11-02 00:00:00,2016-11-02 00:00:00,PRATE,surface,-107.813,25.0393,4e-07
2016-11-02 00:00:00,2016-11-02 00:00:00,PRATE,surface,-106.875,25.0393,9e-07
2016-11-02 00:00:00,2016-11-02 00:00:00,PRATE,surface,-105.938,25.0393,8.1e-06
2016-11-02 00:00:00,2016-11-02 00:00:00,PRATE,surface,-105,25.0393,1.31e-05
2016-11-02 00:00:00,2016-11-02 00:00:00,PRATE,surface,-104.063,25.0393,6.8e-06
2016-11-02 00:00:00,2016-11-02 00:00:00,PRATE,surface,-103.125,25.0393,1e-06
2016-11-02 00:00:00,2016-11-02 00:00:00,PRATE,surface,-102.188,25.0393,4e-06
2016-11-02 00:00:00,2016-11-02 00:00:00,PRATE,surface,-101.25,25.0393,2.42e-05
2016-11-02 00:00:00,2016-11-02 00:00:00,PRATE,surface,-100.313,25.0393,5.24e-05
2016-11-02 00:00:00,2016-11-02 00:00:00,PRATE,surface,-99.3754,25.0393,5.24e-05
2016-11-02 00:00:00,2016-11-02 00:00:00,PRATE,surface,-98.4379,25.0393,2.36e-05
2016-11-02 00:00:00,2016-11-02 00:00:00,PRATE,surface,-97.5004,25.0393,2.1e-05
2016-11-02 00:00:00,2016-11-02 00:00:00,PRATE,surface,-96.5629,25.0393,4.77e-05
2016-11-02 00:00:00,2016-11-02 00:00:00,PRATE,surface,-95.6254,25.0393,4.64e-05
2016-11-02 00:00:00,2016-11-02 00:00:00,PRATE,surface,-94.6879,25.0393,3.88e-05
2016-11-02 00:00:00,2016-11-02 00:00:00,PRATE,surface,-93.7504,25.0393,3e-05
2016-11-02 00:00:00,2016-11-02 00:00:00,PRATE,surface,-92.8129,25.0393,2.69e-05
2016-11-02 00:00:00,2016-11-02 00:00:00,PRATE,surface,-107.813,25.9842,1e-06
2016-11-02 00:00:00,2016-11-02 00:00:00,PRATE,surface,-106.875,25.9842,3e-06
2016-11-02 00:00:00,2016-11-02 00:00:00,PRATE,surface,-105.938,25.9842,8.4e-06
2016-11-02 00:00:00,2016-11-02 00:00:00,PRATE,surface,-105,25.9842,1.08e-05
2016-11-02 00:00:00,2016-11-02 00:00:00,PRATE,surface,-104.063,25.9842,2.2e-06
2016-11-02 00:00:00,2016-11-02 00:00:00,PRATE,surface,-103.125,25.9842,3e-07
2016-11-02 00:00:00,2016-11-02 00:00:00,PRATE,surface,-102.188,25.9842,2.8e-06
2016-11-02 00:00:00,2016-11-02 00:00:00,PRATE,surface,-101.25,25.9842,1.36e-05
2016-11-02 00:00:00,2016-11-02 00:00:00,PRATE,surface,-100.313,25.9842,3.27e-05
2016-11-02 00:00:00,2016-11-02 00:00:00,PRATE,surface,-99.3754,25.9842,2.8e-05
2016-11-02 00:00:00,2016-11-02 00:00:00,PRATE,surface,-98.4379,25.9842,2.29e-05
2016-11-02 00:00:00,2016-11-02 00:00:00,PRATE,surface,-97.5004,25.9842,4.9e-05
2016-11-02 00:00:00,2016-11-02 00:00:00,PRATE,surface,-96.5629,25.9842,7.97e-05
2016-11-02 00:00:00,2016-11-02 00:00:00,PRATE,surface,-95.6254,25.9842,6.98e-05
2016-11-02 00:00:00,2016-11-02 00:00:00,PRATE,surface,-94.6879,25.9842,5.09e-05
2016-11-02 00:00:00,2016-11-02 00:00:00,PRATE,surface,-93.7504,25.9842,3.99e-05
2016-11-02 00:00:00,2016-11-02 00:00:00,PRATE,surface,-92.8129,25.9842,3.24e-05
2016-11-02 00:00:00,2016-11-02 00:00:00,PRATE,surface,-107.813,26.929,1.7e-06
2016-11-02 00:00:00,2016-11-02 00:00:00,PRATE,surface,-106.875,26.929,8.1e-06
2016-11-02 00:00:00,2016-11-02 00:00:00,PRATE,surface,-105.938,26.929,1.46e-05
2016-11-02 00:00:00,2016-11-02 00:00:00,PRATE,surface,-105,26.929,7.9e-06
2016-11-02 00:00:00,2016-11-02 00:00:00,PRATE,surface,-104.063,26.929,3.2e-06
2016-11-02 00:00:00,2016-11-02 00:00:00,PRATE,surface,-103.125,26.929,5.4e-06
2016-11-02 00:00:00,2016-11-02 00:00:00,PRATE,surface,-102.188,26.929,7.3e-06
2016-11-02 00:00:00,2016-11-02 00:00:00,PRATE,surface,-101.25,26.929,1.96e-05
2016-11-02 00:00:00,2016-11-02 00:00:00,PRATE,surface,-100.313,26.929,1.74e-05
2016-11-02 00:00:00,2016-11-02 00:00:00,PRATE,surface,-99.3754,26.929,1.15e-05
2016-11-02 00:00:00,2016-11-02 00:00:00,PRATE,surface,-98.4379,26.929,2.8e-05
2016-11-02 00:00:00,2016-11-02 00:00:00,PRATE,surface,-97.5004,26.929,7.01e-05
2016-11-02 00:00:00,2016-11-02 00:00:00,PRATE,surface,-96.5629,26.929,9e-05
2016-11-02 00:00:00,2016-11-02 00:00:00,PRATE,surface,-95.6254,26.929,5.59e-05
2016-11-02 00:00:00,2016-11-02 00:00:00,PRATE,surface,-94.6879,26.929,4.31e-05
2016-11-02 00:00:00,2016-11-02 00:00:00,PRATE,surface,-93.7504,26.929,4.68e-05
2016-11-02 00:00:00,2016-11-02 00:00:00,PRATE,surface,-92.8129,26.929,4.46e-05
2016-11-02 00:00:00,2016-11-02 00:00:00,PRATE,surface,-107.813,27.8739,5.4e-06
2016-11-02 00:00:00,2016-11-02 00:00:00,PRATE,surface,-106.875,27.8739,9.2e-06
2016-11-02 00:00:00,2016-11-02 00:00:00,PRATE,surface,-105.938,27.8739,1.03e-05
2016-11-02 00:00:00,2016-11-02 00:00:00,PRATE,surface,-105,27.8739,5.6e-06
2016-11-02 00:00:00,2016-11-02 00:00:00,PRATE,surface,-104.063,27.8739,1.04e-05
2016-11-02 00:00:00,2016-11-02 00:00:00,PRATE,surface,-103.125,27.8739,1.73e-05
2016-11-02 00:00:00,2016-11-02 00:00:00,PRATE,surface,-102.188,27.8739,1.79e-05
2016-11-02 00:00:00,2016-11-02 00:00:00,PRATE,surface,-101.25,27.8739,1.67e-05
2016-11-02 00:00:00,2016-11-02 00:00:00,PRATE,surface,-100.313,27.8739,1.34e-05
2016-11-02 00:00:00,2016-11-02 00:00:00,PRATE,surface,-99.3754,27.8739,1.55e-05
2016-11-02 00:00:00,2016-11-02 00:00:00,PRATE,surface,-98.4379,27.8739,2.7e-05
2016-11-02 00:00:00,2016-11-02 00:00:00,PRATE,surface,-97.5004,27.8739,4.07e-05
2016-11-02 00:00:00,2016-11-02 00:00:00,PRATE,surface,-96.5629,27.8739,5.05e-05
2016-11-02 00:00:00,2016-11-02 00:00:00,PRATE,surface,-95.6254,27.8739,5.48e-05
2016-11-02 00:00:00,2016-11-02 00:00:00,PRATE,surface,-94.6879,27.8739,5.54e-05
2016-11-02 00:00:00,2016-11-02 00:00:00,PRATE,surface,-93.7504,27.8739,5.75e-05
2016-11-02 00:00:00,2016-11-02 00:00:00,PRATE,surface,-92.8129,27.8739,6.06e-05
2016-11-02 00:00:00,2016-11-02 00:00:00,PRATE,surface,-107.813,28.8188,1.17e-05
2016-11-02 00:00:00,2016-11-02 00:00:00,PRATE,surface,-106.875,28.8188,6.9e-06
2016-11-02 00:00:00,2016-11-02 00:00:00,PRATE,surface,-105.938,28.8188,5.3e-06
2016-11-02 00:00:00,2016-11-02 00:00:00,PRATE,surface,-105,28.8188,3e-06
2016-11-02 00:00:00,2016-11-02 00:00:00,PRATE,surface,-104.063,28.8188,6.1e-06
2016-11-02 00:00:00,2016-11-02 00:00:00,PRATE,surface,-103.125,28.8188,1.3e-05
2016-11-02 00:00:00,2016-11-02 00:00:00,PRATE,surface,-102.188,28.8188,1.24e-05
2016-11-02 00:00:00,2016-11-02 00:00:00,PRATE,surface,-101.25,28.8188,8e-06
2016-11-02 00:00:00,2016-11-02 00:00:00,PRATE,surface,-100.313,28.8188,1.39e-05
2016-11-02 00:00:00,2016-11-02 00:00:00,PRATE,surface,-99.3754,28.8188,2.07e-05
2016-11-02 00:00:00,2016-11-02 00:00:00,PRATE,surface,-98.4379,28.8188,2.68e-05
2016-11-02 00:00:00,2016-11-02 00:00:00,PRATE,surface,-97.5004,28.8188,2.56e-05
2016-11-02 00:00:00,2016-11-02 00:00:00,PRATE,surface,-96.5629,28.8188,2.38e-05
2016-11-02 00:00:00,2016-11-02 00:00:00,PRATE,surface,-95.6254,28.8188,3.67e-05
2016-11-02 00:00:00,2016-11-02 00:00:00,PRATE,surface,-94.6879,28.8188,4.99e-05
2016-11-02 00:00:00,2016-11-02 00:00:00,PRATE,surface,-93.7504,28.8188,4.34e-05
2016-11-02 00:00:00,2016-11-02 00:00:00,PRATE,surface,-92.8129,28.8188,4.37e-05
2016-11-02 00:00:00,2016-11-02 00:00:00,PRATE,surface,-107.813,29.7637,1.35e-05
2016-11-02 00:00:00,2016-11-02 00:00:00,PRATE,surface,-106.875,29.7637,5.4e-06
2016-11-02 00:00:00,2016-11-02 00:00:00,PRATE,surface,-105.938,29.7637,3.7e-06
2016-11-02 00:00:00,2016-11-02 00:00:00,PRATE,surface,-105,29.7637,4.7e-06
2016-11-02 00:00:00,2016-11-02 00:00:00,PRATE,surface,-104.063,29.7637,5.8e-06
2016-11-02 00:00:00,2016-11-02 00:00:00,PRATE,surface,-103.125,29.7637,8.2e-06
2016-11-02 00:00:00,2016-11-02 00:00:00,PRATE,surface,-102.188,29.7637,8e-06
2016-11-02 00:00:00,2016-11-02 00:00:00,PRATE,surface,-101.25,29.7637,7.9e-06
2016-11-02 00:00:00,2016-11-02 00:00:00,PRATE,surface,-100.313,29.7637,1.21e-05
2016-11-02 00:00:00,2016-11-02 00:00:00,PRATE,surface,-99.3754,29.7637,1.75e-05
2016-11-02 00:00:00,2016-11-02 00:00:00,PRATE,surface,-98.4379,29.7637,2.59e-05
2016-11-02 00:00:00,2016-11-02 00:00:00,PRATE,surface,-97.5004,29.7637,2.93e-05
2016-11-02 00:00:00,2016-11-02 00:00:00,PRATE,surface,-96.5629,29.7637,3.12e-05
2016-11-02 00:00:00,2016-11-02 00:00:00,PRATE,surface,-95.6254,29.7637,3.86e-05
2016-11-02 00:00:00,2016-11-02 00:00:00,PRATE,surface,-94.6879,29.7637,4.04e-05
2016-11-02 00:00:00,2016-11-02 00:00:00,PRATE,surface,-93.7504,29.7637,3.32e-05
2016-11-02 00:00:00,2016-11-02 00:00:00,PRATE,surface,-92.8129,29.7637,3.31e-05
2016-11-02 00:00:00,2016-11-02 00:00:00,PRATE,surface,-107.813,30.7085,1.28e-05
2016-11-02 00:00:00,2016-11-02 00:00:00,PRATE,surface,-106.875,30.7085,6.6e-06
2016-11-02 00:00:00,2016-11-02 00:00:00,PRATE,surface,-105.938,30.7085,4.8e-06
2016-11-02 00:00:00,2016-11-02 00:00:00,PRATE,surface,-105,30.7085,6.5e-06
2016-11-02 00:00:00,2016-11-02 00:00:00,PRATE,surface,-104.063,30.7085,1.01e-05
2016-11-02 00:00:00,2016-11-02 00:00:00,PRATE,surface,-103.125,30.7085,1.99e-05
2016-11-02 00:00:00,2016-11-02 00:00:00,PRATE,surface,-102.188,30.7085,1.89e-05
2016-11-02 00:00:00,2016-11-02 00:00:00,PRATE,surface,-101.25,30.7085,2.08e-05
2016-11-02 00:00:00,2016-11-02 00:00:00,PRATE,surface,-100.313,30.7085,2.23e-05
2016-11-02 00:00:00,2016-11-02 00:00:00,PRATE,surface,-99.3754,30.7085,2.3e-05
2016-11-02 00:00:00,2016-11-02 00:00:00,PRATE,surface,-98.4379,30.7085,2.28e-05
2016-11-02 00:00:00,2016-11-02 00:00:00,PRATE,surface,-97.5004,30.7085,2.58e-05
2016-11-02 00:00:00,2016-11-02 00:00:00,PRATE,surface,-96.5629,30.7085,3.44e-05
2016-11-02 00:00:00,2016-11-02 00:00:00,PRATE,surface,-95.6254,30.7085,4.21e-05
2016-11-02 00:00:00,2016-11-02 00:00:00,PRATE,surface,-94.6879,30.7085,4.07e-05
2016-11-02 00:00:00,2016-11-02 00:00:00,PRATE,surface,-93.7504,30.7085,3.14e-05
2016-11-02 00:00:00,2016-11-02 00:00:00,PRATE,surface,-92.8129,30.7085,2.4e-05
2016-11-02 00:00:00,2016-11-02 00:00:00,PRATE,surface,-107.813,31.6534,1.38e-05
2016-11-02 00:00:00,2016-11-02 00:00:00,PRATE,surface,-106.875,31.6534,8.2e-06
2016-11-02 00:00:00,2016-11-02 00:00:00,PRATE,surface,-105.938,31.6534,7.2e-06
2016-11-02 00:00:00,2016-11-02 00:00:00,PRATE,surface,-105,31.6534,1.21e-05
2016-11-02 00:00:00,2016-11-02 00:00:00,PRATE,surface,-104.063,31.6534,1.69e-05
2016-11-02 00:00:00,2016-11-02 00:00:00,PRATE,surface,-103.125,31.6534,2.56e-05
2016-11-02 00:00:00,2016-11-02 00:00:00,PRATE,surface,-102.188,31.6534,2.03e-05
2016-11-02 00:00:00,2016-11-02 00:00:00,PRATE,surface,-101.25,31.6534,2.1e-05
2016-11-02 00:00:00,2016-11-02 00:00:00,PRATE,surface,-100.313,31.6534,2.31e-05
2016-11-02 00:00:00,2016-11-02 00:00:00,PRATE,surface,-99.3754,31.6534,2.3e-05
2016-11-02 00:00:00,2016-11-02 00:00:00,PRATE,surface,-98.4379,31.6534,2.18e-05
2016-11-02 00:00:00,2016-11-02 00:00:00,PRATE,surface,-97.5004,31.6534,2.34e-05
2016-11-02 00:00:00,2016-11-02 00:00:00,PRATE,surface,-96.5629,31.6534,3.09e-05
2016-11-02 00:00:00,2016-11-02 00:00:00,PRATE,surface,-95.6254,31.6534,3.86e-05
2016-11-02 00:00:00,2016-11-02 00:00:00,PRATE,surface,-94.6879,31.6534,3.79e-05
2016-11-02 00:00:00,2016-11-02 00:00:00,PRATE,surface,-93.7504,31.6534,3.23e-05
2016-11-02 00:00:00,2016-11-02 00:00:00,PRATE,surface,-92.8129,31.6534,2.73e-05
2016-11-02 00:00:00,2016-11-02 00:00:00,PRATE,surface,-107.813,32.5983,1.87e-05
2016-11-02 00:00:00,2016-11-02 00:00:00,PRATE,surface,-106.875,32.5983,1.57e-05
2016-11-02 00:00:00,2016-11-02 00:00:00,PRATE,surface,-105.938,32.5983,1.5e-05
2016-11-02 00:00:00,2016-11-02 00:00:00,PRATE,surface,-105,32.5983,2.11e-05
2016-11-02 00:00:00,2016-11-02 00:00:00,PRATE,surface,-104.063,32.5983,2.37e-05
2016-11-02 00:00:00,2016-11-02 00:00:00,PRATE,surface,-103.125,32.5983,2.89e-05
2016-11-02 00:00:00,2016-11-02 00:00:00,PRATE,surface,-102.188,32.5983,3.52e-05
2016-11-02 00:00:00,2016-11-02 00:00:00,PRATE,surface,-101.25,32.5983,3.43e-05
2016-11-02 00:00:00,2016-11-02 00:00:00,PRATE,surface,-100.313,32.5983,2.43e-05
2016-11-02 00:00:00,2016-11-02 00:00:00,PRATE,surface,-99.3754,32.5983,2.08e-05
2016-11-02 00:00:00,2016-11-02 00:00:00,PRATE,surface,-98.4379,32.5983,2.29e-05
2016-11-02 00:00:00,2016-11-02 00:00:00,PRATE,surface,-97.5004,32.5983,2.56e-05
2016-11-02 00:00:00,2016-11-02 00:00:00,PRATE,surface,-96.5629,32.5983,2.89e-05
2016-11-02 00:00:00,2016-11-02 00:00:00,PRATE,surface,-95.6254,32.5983,3.28e-05
2016-11-02 00:00:00,2016-11-02 00:00:00,PRATE,surface,-94.6879,32.5983,3.41e-05
2016-11-02 00:00:00,2016-11-02 00:00:00,PRATE,surface,-93.7504,32.5983,3e-05
2016-11-02 00:00:00,2016-11-02 00:00:00,PRATE,surface,-92.8129,32.5983,2.45e-05
2016-11-02 00:00:00,2016-11-02 00:00:00,PRATE,surface,-107.813,33.5432,2.48e-05
2016-11-02 00:00:00,2016-11-02 00:00:00,PRATE,surface,-106.875,33.5432,2.37e-05
2016-11-02 00:00:00,2016-11-02 00:00:00,PRATE,surface,-105.938,33.5432,2.53e-05
2016-11-02 00:00:00,2016-11-02 00:00:00,PRATE,surface,-105,33.5432,2.83e-05
2016-11-02 00:00:00,2016-11-02 00:00:00,PRATE,surface,-104.063,33.5432,2.77e-05
2016-11-02 00:00:00,2016-11-02 00:00:00,PRATE,surface,-103.125,33.5432,2.69e-05
2016-11-02 00:00:00,2016-11-02 00:00:00,PRATE,surface,-102.188,33.5432,3.03e-05
2016-11-02 00:00:00,2016-11-02 00:00:00,PRATE,surface,-101.25,33.5432,2.83e-05
2016-11-02 00:00:00,2016-11-02 00:00:00,PRATE,surface,-100.313,33.5432,2.22e-05
2016-11-02 00:00:00,2016-11-02 00:00:00,PRATE,surface,-99.3754,33.5432,1.56e-05
2016-11-02 00:00:00,2016-11-02 00:00:00,PRATE,surface,-98.4379,33.5432,1.63e-05
2016-11-02 00:00:00,2016-11-02 00:00:00,PRATE,surface,-97.5004,33.5432,2.17e-05
2016-11-02 00:00:00,2016-11-02 00:00:00,PRATE,surface,-96.5629,33.5432,2.52e-05
2016-11-02 00:00:00,2016-11-02 00:00:00,PRATE,surface,-95.6254,33.5432,2.74e-05
2016-11-02 00:00:00,2016-11-02 00:00:00,PRATE,surface,-94.6879,33.5432,2.98e-05
2016-11-02 00:00:00,2016-11-02 00:00:00,PRATE,surface,-93.7504,33.5432,2.94e-05
2016-11-02 00:00:00,2016-11-02 00:00:00,PRATE,surface,-92.8129,33.5432,2.66e-05
2016-11-02 00:00:00,2016-11-02 00:00:00,PRATE,surface,-107.813,34.4881,1.51e-05
2016-11-02 00:00:00,2016-11-02 00:00:00,PRATE,surface,-106.875,34.4881,1.32e-05
2016-11-02 00:00:00,2016-11-02 00:00:00,PRATE,surface,-105.938,34.4881,1.54e-05
2016-11-02 00:00:00,2016-11-02 00:00:00,PRATE,surface,-105,34.4881,2.23e-05
2016-11-02 00:00:00,2016-11-02 00:00:00,PRATE,surface,-104.063,34.4881,2.6e-05
2016-11-02 00:00:00,2016-11-02 00:00:00,PRATE,surface,-103.125,34.4881,2.23e-05
2016-11-02 00:00:00,2016-11-02 00:00:00,PRATE,surface,-102.188,34.4881,2.06e-05
2016-11-02 00:00:00,2016-11-02 00:00:00,PRATE,surface,-101.25,34.4881,1.62e-05
2016-11-02 00:00:00,2016-11-02 00:00:00,PRATE,surface,-100.313,34.4881,1.12e-05
2016-11-02 00:00:00,2016-11-02 00:00:00,PRATE,surface,-99.3754,34.4881,1.35e-05
2016-11-02 00:00:00,2016-11-02 00:00:00,PRATE,surface,-98.4379,34.4881,1.54e-05
2016-11-02 00:00:00,2016-11-02 00:00:00,PRATE,surface,-97.5004,34.4881,1.7e-05
2016-11-02 00:00:00,2016-11-02 00:00:00,PRATE,surface,-96.5629,34.4881,1.91e-05
2016-11-02 00:00:00,2016-11-02 00:00:00,PRATE,surface,-95.6254,34.4881,2.01e-05
2016-11-02 00:00:00,2016-11-02 00:00:00,PRATE,surface,-94.6879,34.4881,2.24e-05
2016-11-02 00:00:00,2016-11-02 00:00:00,PRATE,surface,-93.7504,34.4881,2.58e-05
2016-11-02 00:00:00,2016-11-02 00:00:00,PRATE,surface,-92.8129,34.4881,2.98e-05
2016-11-02 00:00:00,2016-11-02 00:00:00,PRATE,surface,-107.813,35.4329,1.09e-05
2016-11-02 00:00:00,2016-11-02 00:00:00,PRATE,surface,-106.875,35.4329,1.06e-05
2016-11-02 00:00:00,2016-11-02 00:00:00,PRATE,surface,-105.938,35.4329,1.14e-05
2016-11-02 00:00:00,2016-11-02 00:00:00,PRATE,surface,-105,35.4329,1.46e-05
2016-11-02 00:00:00,2016-11-02 00:00:00,PRATE,surface,-104.063,35.4329,1.91e-05
2016-11-02 00:00:00,2016-11-02 00:00:00,PRATE,surface,-103.125,35.4329,2.16e-05
2016-11-02 00:00:00,2016-11-02 00:00:00,PRATE,surface,-102.188,35.4329,1.96e-05
2016-11-02 00:00:00,2016-11-02 00:00:00,PRATE,surface,-101.25,35.4329,1.7e-05
2016-11-02 00:00:00,2016-11-02 00:00:00,PRATE,surface,-100.313,35.4329,1.32e-05
2016-11-02 00:00:00,2016-11-02 00:00:00,PRATE,surface,-99.3754,35.4329,1.09e-05
2016-11-02 00:00:00,2016-11-02 00:00:00,PRATE,surface,-98.4379,35.4329,1.34e-05
2016-11-02 00:00:00,2016-11-02 00:00:00,PRATE,surface,-97.5004,35.4329,1.91e-05
2016-11-02 00:00:00,2016-11-02 00:00:00,PRATE,surface,-96.5629,35.4329,2.1e-05
2016-11-02 00:00:00,2016-11-02 00:00:00,PRATE,surface,-95.6254,35.4329,1.88e-05
2016-11-02 00:00:00,2016-11-02 00:00:00,PRATE,surface,-94.6879,35.4329,1.92e-05
2016-11-02 00:00:00,2016-11-02 00:00:00,PRATE,surface,-93.7504,35.4329,2.16e-05
2016-11-02 00:00:00,2016-11-02 00:00:00,PRATE,surface,-92.8129,35.4329,2.16e-05
2016-11-02 00:00:00,2016-11-02 00:00:00,PRATE,surface,-107.813,36.3778,1.74e-05
2016-11-02 00:00:00,2016-11-02 00:00:00,PRATE,surface,-106.875,36.3778,1.46e-05
2016-11-02 00:00:00,2016-11-02 00:00:00,PRATE,surface,-105.938,36.3778,1.04e-05
2016-11-02 00:00:00,2016-11-02 00:00:00,PRATE,surface,-105,36.3778,1.19e-05
2016-11-02 00:00:00,2016-11-02 00:00:00,PRATE,surface,-104.063,36.3778,1.34e-05
2016-11-02 00:00:00,2016-11-02 00:00:00,PRATE,surface,-103.125,36.3778,1.51e-05
2016-11-02 00:00:00,2016-11-02 00:00:00,PRATE,surface,-102.188,36.3778,1.49e-05
2016-11-02 00:00:00,2016-11-02 00:00:00,PRATE,surface,-101.25,36.3778,1.47e-05
2016-11-02 00:00:00,2016-11-02 00:00:00,PRATE,surface,-100.313,36.3778,1.29e-05
2016-11-02 00:00:00,2016-11-02 00:00:00,PRATE,surface,-99.3754,36.3778,1.17e-05
2016-11-02 00:00:00,2016-11-02 00:00:00,PRATE,surface,-98.4379,36.3778,1.22e-05
2016-11-02 00:00:00,2016-11-02 00:00:00,PRATE,surface,-97.5004,36.3778,1.4e-05
2016-11-02 00:00:00,2016-11-02 00:00:00,PRATE,surface,-96.5629,36.3778,1.75e-05
2016-11-02 00:00:00,2016-11-02 00:00:00,PRATE,surface,-95.6254,36.3778,1.95e-05
2016-11-02 00:00:00,2016-11-02 00:00:00,PRATE,surface,-94.6879,36.3778,1.88e-05
2016-11-02 00:00:00,2016-11-02 00:00:00,PRATE,surface,-93.7504,36.3778,2.04e-05
2016-11-02 00:00:00,2016-11-02 00:00:00,PRATE,surface,-92.8129,36.3778,2.08e-05
