2016-01-08 00:00:00,2016-01-08 00:00:00,TMP,surface,-107.813,25.0393,303.771
2016-01-08 00:00:00,2016-01-08 00:00:00,TMP,surface,-106.875,25.0393,297.695
2016-01-08 00:00:00,2016-01-08 00:00:00,TMP,surface,-105.938,25.0393,292.616
2016-01-08 00:00:00,2016-01-08 00:00:00,TMP,surface,-105,25.0393,291.391
2016-01-08 00:00:00,2016-01-08 00:00:00,TMP,surface,-104.063,25.0393,296.088
2016-01-08 00:00:00,2016-01-08 00:00:00,TMP,surface,-103.125,25.0393,299.035
2016-01-08 00:00:00,2016-01-08 00:00:00,TMP,surface,-102.188,25.0393,297.563
2016-01-08 00:00:00,2016-01-08 00:00:00,TMP,surface,-101.25,25.0393,295.167
2016-01-08 00:00:00,2016-01-08 00:00:00,TMP,surface,-100.313,25.0393,294.911
2016-01-08 00:00:00,2016-01-08 00:00:00,TMP,surface,-99.3754,25.0393,298.155
2016-01-08 00:00:00,2016-01-08 00:00:00,TMP,surface,-98.4379,25.0393,301.138
2016-01-08 00:00:00,2016-01-08 00:00:00,TMP,surface,-97.5004,25.0393,301.621
2016-01-08 00:00:00,2016-01-08 00:00:00,TMP,surface,-96.5629,25.0393,301.557
2016-01-08 00:00:00,2016-01-08 00:00:00,TMP,surface,-95.6254,25.0393,301.471
2016-01-08 00:00:00,2016-01-08 00:00:00,TMP,surface,-94.6879,25.0393,301.423
2016-01-08 00:00:00,2016-01-08 00:00:00,TMP,surface,-93.7504,25.0393,301.243
2016-01-08 00:00:00,2016-01-08 00:00:00,TMP,surface,-92.8129,25.0393,301.16
2016-01-08 00:00:00,2016-01-08 00:00:00,TMP,surface,-107.813,25.9842,300.491
2016-01-08 00:00:00,2016-01-08 00:00:00,TMP,surface,-106.875,25.9842,293.938
2016-01-08 00:00:00,2016-01-08 00:00:00,TMP,surface,-105.938,25.9842,291.899
2016-01-08 00:00:00,2016-01-08 00:00:00,TMP,surface,-105,25.9842,294.287
2016-01-08 00:00:00,2016-01-08 00:00:00,TMP,surface,-104.063,25.9842,299.643
2016-01-08 00:00:00,2016-01-08 00:00:00,TMP,surface,-103.125,25.9842,301.557
2016-01-08 00:00:00,2016-01-08 00:00:00,TMP,surface,-102.188,25.9842,299.845
2016-01-08 00:00:00,2016-01-08 00:00:00,TMP,surface,-101.25,25.9842,298.232
2016-01-08 00:00:00,2016-01-08 00:00:00,TMP,surface,-100.313,25.9842,299
2016-01-08 00:00:00,2016-01-08 00:00:00,TMP,surface,-99.3754,25.9842,301.576
2016-01-08 00:00:00,2016-01-08 00:00:00,TMP,surface,-98.4379,25.9842,302.152
2016-01-08 00:00:00,2016-01-08 00:00:00,TMP,surface,-97.5004,25.9842,301.042
2016-01-08 00:00:00,2016-01-08 00:00:00,TMP,surface,-96.5629,25.9842,300.335
2016-01-08 00:00:00,2016-01-08 00:00:00,TMP,surface,-95.6254,25.9842,301.096
2016-01-08 00:00:00,2016-01-08 00:00:00,TMP,surface,-94.6879,25.9842,301.253
2016-01-08 00:00:00,2016-01-08 00:00:00,TMP,surface,-93.7504,25.9842,301.211
2016-01-08 00:00:00,2016-01-08 00:00:00,TMP,surface,-92.8129,25.9842,301.205
2016-01-08 00:00:00,2016-01-08 00:00:00,TMP,surface,-107.813,26.929,295.909
2016-01-08 00:00:00,2016-01-08 00:00:00,TMP,surface,-106.875,26.929,292.507
2016-01-08 00:00:00,2016-01-08 00:00:00,TMP,surface,-105.938,26.929,294.123
2016-01-08 00:00:00,2016-01-08 00:00:00,TMP,surface,-105,26.929,298.895
2016-01-08 00:00:00,2016-01-08 00:00:00,TMP,surface,-104.063,26.929,301.679
2016-01-08 00:00:00,2016-01-08 00:00:00,TMP,surface,-103.125,26.929,300.955
2016-01-08 00:00:00,2016-01-08 00:00:00,TMP,surface,-102.188,26.929,299.477
2016-01-08 00:00:00,2016-01-08 00:00:00,TMP,surface,-101.25,26.929,299.989
2016-01-08 00:00:00,2016-01-08 00:00:00,TMP,surface,-100.313,26.929,302.133
2016-01-08 00:00:00,2016-01-08 00:00:00,TMP,surface,-99.3754,26.929,303.307
2016-01-08 00:00:00,2016-01-08 00:00:00,TMP,surface,-98.4379,26.929,301.579
2016-01-08 00:00:00,2016-01-08 00:00:00,TMP,surface,-97.5004,26.929,298.607
2016-01-08 00:00:00,2016-01-08 00:00:00,TMP,surface,-96.5629,26.929,298.952
2016-01-08 00:00:00,2016-01-08 00:00:00,TMP,surface,-95.6254,26.929,300.424
2016-01-08 00:00:00,2016-01-08 00:00:00,TMP,surface,-94.6879,26.929,301.205
2016-01-08 00:00:00,2016-01-08 00:00:00,TMP,surface,-93.7504,26.929,301.234
2016-01-08 00:00:00,2016-01-08 00:00:00,TMP,surface,-92.8129,26.929,301.176
2016-01-08 00:00:00,2016-01-08 00:00:00,TMP,surface,-107.813,27.8739,293.736
2016-01-08 00:00:00,2016-01-08 00:00:00,TMP,surface,-106.875,27.8739,292.808
2016-01-08 00:00:00,2016-01-08 00:00:00,TMP,surface,-105.938,27.8739,297.253
2016-01-08 00:00:00,2016-01-08 00:00:00,TMP,surface,-105,27.8739,301.311
2016-01-08 00:00:00,2016-01-08 00:00:00,TMP,surface,-104.063,27.8739,301.723
2016-01-08 00:00:00,2016-01-08 00:00:00,TMP,surface,-103.125,27.8739,299.477
2016-01-08 00:00:00,2016-01-08 00:00:00,TMP,surface,-102.188,27.8739,298.475
2016-01-08 00:00:00,2016-01-08 00:00:00,TMP,surface,-101.25,27.8739,300.584
2016-01-08 00:00:00,2016-01-08 00:00:00,TMP,surface,-100.313,27.8739,302.61
2016-01-08 00:00:00,2016-01-08 00:00:00,TMP,surface,-99.3754,27.8739,302.213
2016-01-08 00:00:00,2016-01-08 00:00:00,TMP,surface,-98.4379,27.8739,300.331
2016-01-08 00:00:00,2016-01-08 00:00:00,TMP,surface,-97.5004,27.8739,299.311
2016-01-08 00:00:00,2016-01-08 00:00:00,TMP,surface,-96.5629,27.8739,299.554
2016-01-08 00:00:00,2016-01-08 00:00:00,TMP,surface,-95.6254,27.8739,300.207
2016-01-08 00:00:00,2016-01-08 00:00:00,TMP,surface,-94.6879,27.8739,300.843
2016-01-08 00:00:00,2016-01-08 00:00:00,TMP,surface,-93.7504,27.8739,301.032
2016-01-08 00:00:00,2016-01-08 00:00:00,TMP,surface,-92.8129,27.8739,301.035
2016-01-08 00:00:00,2016-01-08 00:00:00,TMP,surface,-107.813,28.8188,293.852
2016-01-08 00:00:00,2016-01-08 00:00:00,TMP,surface,-106.875,28.8188,294.671
2016-01-08 00:00:00,2016-01-08 00:00:00,TMP,surface,-105.938,28.8188,299.403
2016-01-08 00:00:00,2016-01-08 00:00:00,TMP,surface,-105,28.8188,302.517
2016-01-08 00:00:00,2016-01-08 00:00:00,TMP,surface,-104.063,28.8188,301.477
2016-01-08 00:00:00,2016-01-08 00:00:00,TMP,surface,-103.125,28.8188,299.381
2016-01-08 00:00:00,2016-01-08 00:00:00,TMP,surface,-102.188,28.8188,298.543
2016-01-08 00:00:00,2016-01-08 00:00:00,TMP,surface,-101.25,28.8188,300.299
2016-01-08 00:00:00,2016-01-08 00:00:00,TMP,surface,-100.313,28.8188,300.936
2016-01-08 00:00:00,2016-01-08 00:00:00,TMP,surface,-99.3754,28.8188,299.867
2016-01-08 00:00:00,2016-01-08 00:00:00,TMP,surface,-98.4379,28.8188,298.725
2016-01-08 00:00:00,2016-01-08 00:00:00,TMP,surface,-97.5004,28.8188,298.379
2016-01-08 00:00:00,2016-01-08 00:00:00,TMP,surface,-96.5629,28.8188,298.693
2016-01-08 00:00:00,2016-01-08 00:00:00,TMP,surface,-95.6254,28.8188,299.032
2016-01-08 00:00:00,2016-01-08 00:00:00,TMP,surface,-94.6879,28.8188,299.147
2016-01-08 00:00:00,2016-01-08 00:00:00,TMP,surface,-93.7504,28.8188,299.487
2016-01-08 00:00:00,2016-01-08 00:00:00,TMP,surface,-92.8129,28.8188,299.631
2016-01-08 00:00:00,2016-01-08 00:00:00,TMP,surface,-107.813,29.7637,296.763
2016-01-08 00:00:00,2016-01-08 00:00:00,TMP,surface,-106.875,29.7637,298.517
2016-01-08 00:00:00,2016-01-08 00:00:00,TMP,surface,-105.938,29.7637,301.256
2016-01-08 00:00:00,2016-01-08 00:00:00,TMP,surface,-105,29.7637,301.816
2016-01-08 00:00:00,2016-01-08 00:00:00,TMP,surface,-104.063,29.7637,301.41
2016-01-08 00:00:00,2016-01-08 00:00:00,TMP,surface,-103.125,29.7637,300.424
2016-01-08 00:00:00,2016-01-08 00:00:00,TMP,surface,-102.188,29.7637,300.459
2016-01-08 00:00:00,2016-01-08 00:00:00,TMP,surface,-101.25,29.7637,300.418
2016-01-08 00:00:00,2016-01-08 00:00:00,TMP,surface,-100.313,29.7637,299.189
2016-01-08 00:00:00,2016-01-08 00:00:00,TMP,surface,-99.3754,29.7637,297.733
2016-01-08 00:00:00,2016-01-08 00:00:00,TMP,surface,-98.4379,29.7637,297.064
2016-01-08 00:00:00,2016-01-08 00:00:00,TMP,surface,-97.5004,29.7637,297.275
2016-01-08 00:00:00,2016-01-08 00:00:00,TMP,surface,-96.5629,29.7637,297.807
2016-01-08 00:00:00,2016-01-08 00:00:00,TMP,surface,-95.6254,29.7637,298.357
2016-01-08 00:00:00,2016-01-08 00:00:00,TMP,surface,-94.6879,29.7637,298.367
2016-01-08 00:00:00,2016-01-08 00:00:00,TMP,surface,-93.7504,29.7637,298.047
2016-01-08 00:00:00,2016-01-08 00:00:00,TMP,surface,-92.8129,29.7637,299.861
2016-01-08 00:00:00,2016-01-08 00:00:00,TMP,surface,-107.813,30.7085,300.875
2016-01-08 00:00:00,2016-01-08 00:00:00,TMP,surface,-106.875,30.7085,302.127
2016-01-08 00:00:00,2016-01-08 00:00:00,TMP,surface,-105.938,30.7085,302.031
2016-01-08 00:00:00,2016-01-08 00:00:00,TMP,surface,-105,30.7085,301.154
2016-01-08 00:00:00,2016-01-08 00:00:00,TMP,surface,-104.063,30.7085,300.667
2016-01-08 00:00:00,2016-01-08 00:00:00,TMP,surface,-103.125,30.7085,301.186
2016-01-08 00:00:00,2016-01-08 00:00:00,TMP,surface,-102.188,30.7085,301.24
2016-01-08 00:00:00,2016-01-08 00:00:00,TMP,surface,-101.25,30.7085,300.277
2016-01-08 00:00:00,2016-01-08 00:00:00,TMP,surface,-100.313,30.7085,298.693
2016-01-08 00:00:00,2016-01-08 00:00:00,TMP,surface,-99.3754,30.7085,297.298
2016-01-08 00:00:00,2016-01-08 00:00:00,TMP,surface,-98.4379,30.7085,296.939
2016-01-08 00:00:00,2016-01-08 00:00:00,TMP,surface,-97.5004,30.7085,297.32
2016-01-08 00:00:00,2016-01-08 00:00:00,TMP,surface,-96.5629,30.7085,298.191
2016-01-08 00:00:00,2016-01-08 00:00:00,TMP,surface,-95.6254,30.7085,299.077
2016-01-08 00:00:00,2016-01-08 00:00:00,TMP,surface,-94.6879,30.7085,299.413
2016-01-08 00:00:00,2016-01-08 00:00:00,TMP,surface,-93.7504,30.7085,299.832
2016-01-08 00:00:00,2016-01-08 00:00:00,TMP,surface,-92.8129,30.7085,299.973
2016-01-08 00:00:00,2016-01-08 00:00:00,TMP,surface,-107.813,31.6534,301.183
2016-01-08 00:00:00,2016-01-08 00:00:00,TMP,surface,-106.875,31.6534,301.912
2016-01-08 00:00:00,2016-01-08 00:00:00,TMP,surface,-105.938,31.6534,301.132
2016-01-08 00:00:00,2016-01-08 00:00:00,TMP,surface,-105,31.6534,300.402
2016-01-08 00:00:00,2016-01-08 00:00:00,TMP,surface,-104.063,31.6534,301.035
2016-01-08 00:00:00,2016-01-08 00:00:00,TMP,surface,-103.125,31.6534,301.474
2016-01-08 00:00:00,2016-01-08 00:00:00,TMP,surface,-102.188,31.6534,301.403
2016-01-08 00:00:00,2016-01-08 00:00:00,TMP,surface,-101.25,31.6534,300.373
2016-01-08 00:00:00,2016-01-08 00:00:00,TMP,surface,-100.313,31.6534,299.119
2016-01-08 00:00:00,2016-01-08 00:00:00,TMP,surface,-99.3754,31.6534,298.011
2016-01-08 00:00:00,2016-01-08 00:00:00,TMP,surface,-98.4379,31.6534,297.618
2016-01-08 00:00:00,2016-01-08 00:00:00,TMP,surface,-97.5004,31.6534,297.855
2016-01-08 00:00:00,2016-01-08 00:00:00,TMP,surface,-96.5629,31.6534,298.674
2016-01-08 00:00:00,2016-01-08 00:00:00,TMP,surface,-95.6254,31.6534,299.666
2016-01-08 00:00:00,2016-01-08 00:00:00,TMP,surface,-94.6879,31.6534,300.178
2016-01-08 00:00:00,2016-01-08 00:00:00,TMP,surface,-93.7504,31.6534,300.514
2016-01-08 00:00:00,2016-01-08 00:00:00,TMP,surface,-92.8129,31.6534,300.671
2016-01-08 00:00:00,2016-01-08 00:00:00,TMP,surface,-107.813,32.5983,297.74
2016-01-08 00:00:00,2016-01-08 00:00:00,TMP,surface,-106.875,32.5983,298.341
2016-01-08 00:00:00,2016-01-08 00:00:00,TMP,surface,-105.938,32.5983,298.735
2016-01-08 00:00:00,2016-01-08 00:00:00,TMP,surface,-105,32.5983,299.003
2016-01-08 00:00:00,2016-01-08 00:00:00,TMP,surface,-104.063,32.5983,300.226
2016-01-08 00:00:00,2016-01-08 00:00:00,TMP,surface,-103.125,32.5983,301.02
2016-01-08 00:00:00,2016-01-08 00:00:00,TMP,surface,-102.188,32.5983,300.943
2016-01-08 00:00:00,2016-01-08 00:00:00,TMP,surface,-101.25,32.5983,300.475
2016-01-08 00:00:00,2016-01-08 00:00:00,TMP,surface,-100.313,32.5983,300.095
2016-01-08 00:00:00,2016-01-08 00:00:00,TMP,surface,-99.3754,32.5983,299.253
2016-01-08 00:00:00,2016-01-08 00:00:00,TMP,surface,-98.4379,32.5983,298.44
2016-01-08 00:00:00,2016-01-08 00:00:00,TMP,surface,-97.5004,32.5983,298.216
2016-01-08 00:00:00,2016-01-08 00:00:00,TMP,surface,-96.5629,32.5983,298.821
2016-01-08 00:00:00,2016-01-08 00:00:00,TMP,surface,-95.6254,32.5983,299.835
2016-01-08 00:00:00,2016-01-08 00:00:00,TMP,surface,-94.6879,32.5983,300.411
2016-01-08 00:00:00,2016-01-08 00:00:00,TMP,surface,-93.7504,32.5983,300.645
2016-01-08 00:00:00,2016-01-08 00:00:00,TMP,surface,-92.8129,32.5983,301.25
2016-01-08 00:00:00,2016-01-08 00:00:00,TMP,surface,-107.813,33.5432,293.154
2016-01-08 00:00:00,2016-01-08 00:00:00,TMP,surface,-106.875,33.5432,294.991
2016-01-08 00:00:00,2016-01-08 00:00:00,TMP,surface,-105.938,33.5432,296.043
2016-01-08 00:00:00,2016-01-08 00:00:00,TMP,surface,-105,33.5432,297.429
2016-01-08 00:00:00,2016-01-08 00:00:00,TMP,surface,-104.063,33.5432,299.499
2016-01-08 00:00:00,2016-01-08 00:00:00,TMP,surface,-103.125,33.5432,300.114
2016-01-08 00:00:00,2016-01-08 00:00:00,TMP,surface,-102.188,33.5432,300.095
2016-01-08 00:00:00,2016-01-08 00:00:00,TMP,surface,-101.25,33.5432,299.928
2016-01-08 00:00:00,2016-01-08 00:00:00,TMP,surface,-100.313,33.5432,300.392
2016-01-08 00:00:00,2016-01-08 00:00:00,TMP,surface,-99.3754,33.5432,299.951
2016-01-08 00:00:00,2016-01-08 00:00:00,TMP,surface,-98.4379,33.5432,298.805
2016-01-08 00:00:00,2016-01-08 00:00:00,TMP,surface,-97.5004,33.5432,298.111
2016-01-08 00:00:00,2016-01-08 00:00:00,TMP,surface,-96.5629,33.5432,298.203
2016-01-08 00:00:00,2016-01-08 00:00:00,TMP,surface,-95.6254,33.5432,299.026
2016-01-08 00:00:00,2016-01-08 00:00:00,TMP,surface,-94.6879,33.5432,300.091
2016-01-08 00:00:00,2016-01-08 00:00:00,TMP,surface,-93.7504,33.5432,300.488
2016-01-08 00:00:00,2016-01-08 00:00:00,TMP,surface,-92.8129,33.5432,300.834
2016-01-08 00:00:00,2016-01-08 00:00:00,TMP,surface,-107.813,34.4881,291.653
2016-01-08 00:00:00,2016-01-08 00:00:00,TMP,surface,-106.875,34.4881,293.608
2016-01-08 00:00:00,2016-01-08 00:00:00,TMP,surface,-105.938,34.4881,294.61
2016-01-08 00:00:00,2016-01-08 00:00:00,TMP,surface,-105,34.4881,296.52
2016-01-08 00:00:00,2016-01-08 00:00:00,TMP,surface,-104.063,34.4881,297.941
2016-01-08 00:00:00,2016-01-08 00:00:00,TMP,surface,-103.125,34.4881,299.039
2016-01-08 00:00:00,2016-01-08 00:00:00,TMP,surface,-102.188,34.4881,299.067
2016-01-08 00:00:00,2016-01-08 00:00:00,TMP,surface,-101.25,34.4881,299.263
2016-01-08 00:00:00,2016-01-08 00:00:00,TMP,surface,-100.313,34.4881,299.656
2016-01-08 00:00:00,2016-01-08 00:00:00,TMP,surface,-99.3754,34.4881,299.672
2016-01-08 00:00:00,2016-01-08 00:00:00,TMP,surface,-98.4379,34.4881,298.837
2016-01-08 00:00:00,2016-01-08 00:00:00,TMP,surface,-97.5004,34.4881,297.967
2016-01-08 00:00:00,2016-01-08 00:00:00,TMP,surface,-96.5629,34.4881,298.251
2016-01-08 00:00:00,2016-01-08 00:00:00,TMP,surface,-95.6254,34.4881,299.138
2016-01-08 00:00:00,2016-01-08 00:00:00,TMP,surface,-94.6879,34.4881,299.352
2016-01-08 00:00:00,2016-01-08 00:00:00,TMP,surface,-93.7504,34.4881,299.394
2016-01-08 00:00:00,2016-01-08 00:00:00,TMP,surface,-92.8129,34.4881,300.123
2016-01-08 00:00:00,2016-01-08 00:00:00,TMP,surface,-107.813,35.4329,292.031
2016-01-08 00:00:00,2016-01-08 00:00:00,TMP,surface,-106.875,35.4329,292.354
2016-01-08 00:00:00,2016-01-08 00:00:00,TMP,surface,-105.938,35.4329,292.728
2016-01-08 00:00:00,2016-01-08 00:00:00,TMP,surface,-105,35.4329,293.938
2016-01-08 00:00:00,2016-01-08 00:00:00,TMP,surface,-104.063,35.4329,296.808
2016-01-08 00:00:00,2016-01-08 00:00:00,TMP,surface,-103.125,35.4329,298.488
2016-01-08 00:00:00,2016-01-08 00:00:00,TMP,surface,-102.188,35.4329,298.987
2016-01-08 00:00:00,2016-01-08 00:00:00,TMP,surface,-101.25,35.4329,299.263
2016-01-08 00:00:00,2016-01-08 00:00:00,TMP,surface,-100.313,35.4329,298.975
2016-01-08 00:00:00,2016-01-08 00:00:00,TMP,surface,-99.3754,35.4329,298.955
2016-01-08 00:00:00,2016-01-08 00:00:00,TMP,surface,-98.4379,35.4329,298.69
2016-01-08 00:00:00,2016-01-08 00:00:00,TMP,surface,-97.5004,35.4329,298.111
2016-01-08 00:00:00,2016-01-08 00:00:00,TMP,surface,-96.5629,35.4329,297.912
2016-01-08 00:00:00,2016-01-08 00:00:00,TMP,surface,-95.6254,35.4329,298.427
2016-01-08 00:00:00,2016-01-08 00:00:00,TMP,surface,-94.6879,35.4329,299.02
2016-01-08 00:00:00,2016-01-08 00:00:00,TMP,surface,-93.7504,35.4329,298.975
2016-01-08 00:00:00,2016-01-08 00:00:00,TMP,surface,-92.8129,35.4329,299.192
2016-01-08 00:00:00,2016-01-08 00:00:00,TMP,surface,-107.813,36.3778,291.375
2016-01-08 00:00:00,2016-01-08 00:00:00,TMP,surface,-106.875,36.3778,288.664
2016-01-08 00:00:00,2016-01-08 00:00:00,TMP,surface,-105.938,36.3778,289.65
2016-01-08 00:00:00,2016-01-08 00:00:00,TMP,surface,-105,36.3778,290.811
2016-01-08 00:00:00,2016-01-08 00:00:00,TMP,surface,-104.063,36.3778,294.04
2016-01-08 00:00:00,2016-01-08 00:00:00,TMP,surface,-103.125,36.3778,296.52
2016-01-08 00:00:00,2016-01-08 00:00:00,TMP,surface,-102.188,36.3778,298.002
2016-01-08 00:00:00,2016-01-08 00:00:00,TMP,surface,-101.25,36.3778,298.501
2016-01-08 00:00:00,2016-01-08 00:00:00,TMP,surface,-100.313,36.3778,298.587
2016-01-08 00:00:00,2016-01-08 00:00:00,TMP,surface,-99.3754,36.3778,298.552
2016-01-08 00:00:00,2016-01-08 00:00:00,TMP,surface,-98.4379,36.3778,298.453
2016-01-08 00:00:00,2016-01-08 00:00:00,TMP,surface,-97.5004,36.3778,298.114
2016-01-08 00:00:00,2016-01-08 00:00:00,TMP,surface,-96.5629,36.3778,297.883
2016-01-08 00:00:00,2016-01-08 00:00:00,TMP,surface,-95.6254,36.3778,298.184
2016-01-08 00:00:00,2016-01-08 00:00:00,TMP,surface,-94.6879,36.3778,298.491
2016-01-08 00:00:00,2016-01-08 00:00:00,TMP,surface,-93.7504,36.3778,298.303
2016-01-08 00:00:00,2016-01-08 00:00:00,TMP,surface,-92.8129,36.3778,298.395
2016-01-08 00:00:00,2016-01-08 00:00:00,PRATE,surface,-107.813,25.0393,4e-07
2016-01-08 00:00:00,2016-01-08 00:00:00,PRATE,surface,-106.875,25.0393,3.31e-05
2016-01-08 00:00:00,2016-01-08 00:00:00,PRATE,surface,-105.938,25.0393,0.0001558
2016-01-08 00:00:00,2016-01-08 00:00:00,PRATE,surface,-105,25.0393,0.000113
2016-01-08 00:00:00,2016-01-08 00:00:00,PRATE,surface,-104.063,25.0393,2.04e-05
2016-01-08 00:00:00,2016-01-08 00:00:00,PRATE,surface,-103.125,25.0393,6.3e-06
2016-01-08 00:00:00,2016-01-08 00:00:00,PRATE,surface,-102.188,25.0393,6.5e-06
2016-01-08 00:00:00,2016-01-08 00:00:00,PRATE,surface,-101.25,25.0393,1.57e-05
2016-01-08 00:00:00,2016-01-08 00:00:00,PRATE,surface,-100.313,25.0393,2.99e-05
2016-01-08 00:00:00,2016-01-08 00:00:00,PRATE,surface,-99.3754,25.0393,2.03e-05
2016-01-08 00:00:00,2016-01-08 00:00:00,PRATE,surface,-98.4379,25.0393,1.23e-05
2016-01-08 00:00:00,2016-01-08 00:00:00,PRATE,surface,-97.5004,25.0393,2.9e-05
2016-01-08 00:00:00,2016-01-08 00:00:00,PRATE,surface,-96.5629,25.0393,3.16e-05
2016-01-08 00:00:00,2016-01-08 00:00:00,PRATE,surface,-95.6254,25.0393,3.78e-05
2016-01-08 00:00:00,2016-01-08 00:00:00,PRATE,surface,-94.6879,25.0393,4.03e-05
2016-01-08 00:00:00,2016-01-08 00:00:00,PRATE,surface,-93.7504,25.0393,5.71e-05
2016-01-08 00:00:00,2016-01-08 00:00:00,PRATE,surface,-92.8129,25.0393,8.33e-05
2016-01-08 00:00:00,2016-01-08 00:00:00,PRATE,surface,-107.813,25.9842,1.12e-05
2016-01-08 00:00:00,2016-01-08 00:00:00,PRATE,surface,-106.875,25.9842,7.93e-05
2016-01-08 00:00:00,2016-01-08 00:00:00,PRATE,surface,-105.938,25.9842,0.0001194
2016-01-08 00:00:00,2016-01-08 00:00:00,PRATE,surface,-105,25.9842,4.69e-05
2016-01-08 00:00:00,2016-01-08 00:00:00,PRATE,surface,-104.063,25.9842,7.5e-06
2016-01-08 00:00:00,2016-01-08 00:00:00,PRATE,surface,-103.125,25.9842,2.6e-06
2016-01-08 00:00:00,2016-01-08 00:00:00,PRATE,surface,-102.188,25.9842,7.9e-06
2016-01-08 00:00:00,2016-01-08 00:00:00,PRATE,surface,-101.25,25.9842,5.3e-06
2016-01-08 00:00:00,2016-01-08 00:00:00,PRATE,surface,-100.313,25.9842,5.2e-06
2016-01-08 00:00:00,2016-01-08 00:00:00,PRATE,surface,-99.3754,25.9842,3.5e-06
2016-01-08 00:00:00,2016-01-08 00:00:00,PRATE,surface,-98.4379,25.9842,1.36e-05
2016-01-08 00:00:00,2016-01-08 00:00:00,PRATE,surface,-97.5004,25.9842,5.04e-05
2016-01-08 00:00:00,2016-01-08 00:00:00,PRATE,surface,-96.5629,25.9842,5.42e-05
2016-01-08 00:00:00,2016-01-08 00:00:00,PRATE,surface,-95.6254,25.9842,7.81e-05
2016-01-08 00:00:00,2016-01-08 00:00:00,PRATE,surface,-94.6879,25.9842,5.57e-05
2016-01-08 00:00:00,2016-01-08 00:00:00,PRATE,surface,-93.7504,25.9842,6.59e-05
2016-01-08 00:00:00,2016-01-08 00:00:00,PRATE,surface,-92.8129,25.9842,6.36e-05
2016-01-08 00:00:00,2016-01-08 00:00:00,PRATE,surface,-107.813,26.929,4.41e-05
2016-01-08 00:00:00,2016-01-08 00:00:00,PRATE,surface,-106.875,26.929,7.62e-05
2016-01-08 00:00:00,2016-01-08 00:00:00,PRATE,surface,-105.938,26.929,5.1e-05
2016-01-08 00:00:00,2016-01-08 00:00:00,PRATE,surface,-105,26.929,1.14e-05
2016-01-08 00:00:00,2016-01-08 00:00:00,PRATE,surface,-104.063,26.929,5.9e-06
2016-01-08 00:00:00,2016-01-08 00:00:00,PRATE,surface,-103.125,26.929,7.3e-06
2016-01-08 00:00:00,2016-01-08 00:00:00,PRATE,surface,-102.188,26.929,9.2e-06
2016-01-08 00:00:00,2016-01-08 00:00:00,PRATE,surface,-101.25,26.929,2e-07
2016-01-08 00:00:00,2016-01-08 00:00:00,PRATE,surface,-100.313,26.929,3e-07
2016-01-08 00:00:00,2016-01-08 00:00:00,PRATE,surface,-99.3754,26.929,3.8e-06
2016-01-08 00:00:00,2016-01-08 00:00:00,PRATE,surface,-98.4379,26.929,3.59e-05
2016-01-08 00:00:00,2016-01-08 00:00:00,PRATE,surface,-97.5004,26.929,4.41e-05
2016-01-08 00:00:00,2016-01-08 00:00:00,PRATE,surface,-96.5629,26.929,7e-05
2016-01-08 00:00:00,2016-01-08 00:00:00,PRATE,surface,-95.6254,26.929,6.55e-05
2016-01-08 00:00:00,2016-01-08 00:00:00,PRATE,surface,-94.6879,26.929,5.12e-05
2016-01-08 00:00:00,2016-01-08 00:00:00,PRATE,surface,-93.7504,26.929,5.56e-05
2016-01-08 00:00:00,2016-01-08 00:00:00,PRATE,surface,-92.8129,26.929,5.41e-05
2016-01-08 00:00:00,2016-01-08 00:00:00,PRATE,surface,-107.813,27.8739,3.62e-05
2016-01-08 00:00:00,2016-01-08 00:00:00,PRATE,surface,-106.875,27.8739,5.31e-05
2016-01-08 00:00:00,2016-01-08 00:00:00,PRATE,surface,-105.938,27.8739,8.4e-06
2016-01-08 00:00:00,2016-01-08 00:00:00,PRATE,surface,-105,27.8739,1.3e-06
2016-01-08 00:00:00,2016-01-08 00:00:00,PRATE,surface,-104.063,27.8739,7.1e-06
2016-01-08 00:00:00,2016-01-08 00:00:00,PRATE,surface,-103.125,27.8739,1.12e-05
2016-01-08 00:00:00,2016-01-08 00:00:00,PRATE,surface,-102.188,27.8739,6.2e-06
2016-01-08 00:00:00,2016-01-08 00:00:00,PRATE,surface,-101.25,27.8739,3.4e-06
2016-01-08 00:00:00,2016-01-08 00:00:00,PRATE,surface,-100.313,27.8739,1e-06
2016-01-08 00:00:00,2016-01-08 00:00:00,PRATE,surface,-99.3754,27.8739,1.43e-05
2016-01-08 00:00:00,2016-01-08 00:00:00,PRATE,surface,-98.4379,27.8739,4.73e-05
2016-01-08 00:00:00,2016-01-08 00:00:00,PRATE,surface,-97.5004,27.8739,6.94e-05
2016-01-08 00:00:00,2016-01-08 00:00:00,PRATE,surface,-96.5629,27.8739,5.94e-05
2016-01-08 00:00:00,2016-01-08 00:00:00,PRATE,surface,-95.6254,27.8739,5.13e-05
2016-01-08 00:00:00,2016-01-08 00:00:00,PRATE,surface,-94.6879,27.8739,6.82e-05
2016-01-08 00:00:00,2016-01-08 00:00:00,PRATE,surface,-93.7504,27.8739,6.76e-05
2016-01-08 00:00:00,2016-01-08 00:00:00,PRATE,surface,-92.8129,27.8739,5.09e-05
2016-01-08 00:00:00,2016-01-08 00:00:00,PRATE,surface,-107.813,28.8188,1.07e-05
2016-01-08 00:00:00,2016-01-08 00:00:00,PRATE,surface,-106.875,28.8188,3.19e-05
2016-01-08 00:00:00,2016-01-08 00:00:00,PRATE,surface,-105.938,28.8188,4e-06
2016-01-08 00:00:00,2016-01-08 00:00:00,PRATE,surface,-105,28.8188,3.6e-06
2016-01-08 00:00:00,2016-01-08 00:00:00,PRATE,surface,-104.063,28.8188,6.1e-06
2016-01-08 00:00:00,2016-01-08 00:00:00,PRATE,surface,-103.125,28.8188,5.4e-06
2016-01-08 00:00:00,2016-01-08 00:00:00,PRATE,surface,-102.188,28.8188,1.4e-06
2016-01-08 00:00:00,2016-01-08 00:00:00,PRATE,surface,-101.25,28.8188,9e-07
2016-01-08 00:00:00,2016-01-08 00:00:00,PRATE,surface,-100.313,28.8188,1.8e-06
2016-01-08 00:00:00,2016-01-08 00:00:00,PRATE,surface,-99.3754,28.8188,2.37e-05
2016-01-08 00:00:00,2016-01-08 00:00:00,PRATE,surface,-98.4379,28.8188,6.5e-05
2016-01-08 00:00:00,2016-01-08 00:00:00,PRATE,surface,-97.5004,28.8188,9.55e-05
2016-01-08 00:00:00,2016-01-08 00:00:00,PRATE,surface,-96.5629,28.8188,0.0001051
2016-01-08 00:00:00,2016-01-08 00:00:00,PRATE,surface,-95.6254,28.8188,9.47e-05
2016-01-08 00:00:00,2016-01-08 00:00:00,PRATE,surface,-94.6879,28.8188,6.87e-05
2016-01-08 00:00:00,2016-01-08 00:00:00,PRATE,surface,-93.7504,28.8188,4.92e-05
2016-01-08 00:00:00,2016-01-08 00:00:00,PRATE,surface,-92.8129,28.8188,2.84e-05
2016-01-08 00:00:00,2016-01-08 00:00:00,PRATE,surface,-107.813,29.7637,3.2e-06
2016-01-08 00:00:00,2016-01-08 00:00:00,PRATE,surface,-106.875,29.7637,9.9e-06
2016-01-08 00:00:00,2016-01-08 00:00:00,PRATE,surface,-105.938,29.7637,7e-06
2016-01-08 00:00:00,2016-01-08 00:00:00,PRATE,surface,-105,29.7637,9.5e-06
2016-01-08 00:00:00,2016-01-08 00:00:00,PRATE,surface,-104.063,29.7637,4.6e-06
2016-01-08 00:00:00,2016-01-08 00:00:00,PRATE,surface,-103.125,29.7637,1.8e-06
2016-01-08 00:00:00,2016-01-08 00:00:00,PRATE,surface,-102.188,29.7637,6e-07
2016-01-08 00:00:00,2016-01-08 00:00:00,PRATE,surface,-101.25,29.7637,3e-07
2016-01-08 00:00:00,2016-01-08 00:00:00,PRATE,surface,-100.313,29.7637,8.7e-06
2016-01-08 00:00:00,2016-01-08 00:00:00,PRATE,surface,-99.3754,29.7637,3.03e-05
2016-01-08 00:00:00,2016-01-08 00:00:00,PRATE,surface,-98.4379,29.7637,6.43e-05
2016-01-08 00:00:00,2016-01-08 00:00:00,PRATE,surface,-97.5004,29.7637,8.92e-05
2016-01-08 00:00:00,2016-01-08 00:00:00,PRATE,surface,-96.5629,29.7637,0.0001046
2016-01-08 00:00:00,2016-01-08 00:00:00,PRATE,surface,-95.6254,29.7637,0.0001001
2016-01-08 00:00:00,2016-01-08 00:00:00,PRATE,surface,-94.6879,29.7637,6.26e-05
2016-01-08 00:00:00,2016-01-08 00:00:00,PRATE,surface,-93.7504,29.7637,3.68e-05
2016-01-08 00:00:00,2016-01-08 00:00:00,PRATE,surface,-92.8129,29.7637,3.25e-05
2016-01-08 00:00:00,2016-01-08 00:00:00,PRATE,surface,-107.813,30.7085,5e-07
2016-01-08 00:00:00,2016-01-08 00:00:00,PRATE,surface,-106.875,30.7085,2.1e-06
2016-01-08 00:00:00,2016-01-08 00:00:00,PRATE,surface,-105.938,30.7085,9.3e-06
2016-01-08 00:00:00,2016-01-08 00:00:00,PRATE,surface,-105,30.7085,1.45e-05
2016-01-08 00:00:00,2016-01-08 00:00:00,PRATE,surface,-104.063,30.7085,6.2e-06
2016-01-08 00:00:00,2016-01-08 00:00:00,PRATE,surface,-103.125,30.7085,2.2e-06
2016-01-08 00:00:00,2016-01-08 00:00:00,PRATE,surface,-102.188,30.7085,8e-07
2016-01-08 00:00:00,2016-01-08 00:00:00,PRATE,surface,-101.25,30.7085,7e-07
2016-01-08 00:00:00,2016-01-08 00:00:00,PRATE,surface,-100.313,30.7085,7.2e-06
2016-01-08 00:00:00,2016-01-08 00:00:00,PRATE,surface,-99.3754,30.7085,2.42e-05
2016-01-08 00:00:00,2016-01-08 00:00:00,PRATE,surface,-98.4379,30.7085,4.41e-05
2016-01-08 00:00:00,2016-01-08 00:00:00,PRATE,surface,-97.5004,30.7085,6.49e-05
2016-01-08 00:00:00,2016-01-08 00:00:00,PRATE,surface,-96.5629,30.7085,8.33e-05
2016-01-08 00:00:00,2016-01-08 00:00:00,PRATE,surface,-95.6254,30.7085,7.45e-05
2016-01-08 00:00:00,2016-01-08 00:00:00,PRATE,surface,-94.6879,30.7085,3.73e-05
2016-01-08 00:00:00,2016-01-08 00:00:00,PRATE,surface,-93.7504,30.7085,1.91e-05
2016-01-08 00:00:00,2016-01-08 00:00:00,PRATE,surface,-92.8129,30.7085,2.06e-05
2016-01-08 00:00:00,2016-01-08 00:00:00,PRATE,surface,-107.813,31.6534,1.6e-06
2016-01-08 00:00:00,2016-01-08 00:00:00,PRATE,surface,-106.875,31.6534,5e-06
2016-01-08 00:00:00,2016-01-08 00:00:00,PRATE,surface,-105.938,31.6534,1.35e-05
2016-01-08 00:00:00,2016-01-08 00:00:00,PRATE,surface,-105,31.6534,1.95e-05
2016-01-08 00:00:00,2016-01-08 00:00:00,PRATE,surface,-104.063,31.6534,6.2e-06
2016-01-08 00:00:00,2016-01-08 00:00:00,PRATE,surface,-103.125,31.6534,3.9e-06
2016-01-08 00:00:00,2016-01-08 00:00:00,PRATE,surface,-102.188,31.6534,2.4e-06
2016-01-08 00:00:00,2016-01-08 00:00:00,PRATE,surface,-101.25,31.6534,1.5e-06
2016-01-08 00:00:00,2016-01-08 00:00:00,PRATE,surface,-100.313,31.6534,8e-06
2016-01-08 00:00:00,2016-01-08 00:00:00,PRATE,surface,-99.3754,31.6534,1.49e-05
2016-01-08 00:00:00,2016-01-08 00:00:00,PRATE,surface,-98.4379,31.6534,2.8e-05
2016-01-08 00:00:00,2016-01-08 00:00:00,PRATE,surface,-97.5004,31.6534,5.49e-05
2016-01-08 00:00:00,2016-01-08 00:00:00,PRATE,surface,-96.5629,31.6534,7.51e-05
2016-01-08 00:00:00,2016-01-08 00:00:00,PRATE,surface,-95.6254,31.6534,6.08e-05
2016-01-08 00:00:00,2016-01-08 00:00:00,PRATE,surface,-94.6879,31.6534,2.73e-05
2016-01-08 00:00:00,2016-01-08 00:00:00,PRATE,surface,-93.7504,31.6534,1.28e-05
2016-01-08 00:00:00,2016-01-08 00:00:00,PRATE,surface,-92.8129,31.6534,1.13e-05
2016-01-08 00:00:00,2016-01-08 00:00:00,PRATE,surface,-107.813,32.5983,3e-06
2016-01-08 00:00:00,2016-01-08 00:00:00,PRATE,surface,-106.875,32.5983,1.1e-05
2016-01-08 00:00:00,2016-01-08 00:00:00,PRATE,surface,-105.938,32.5983,2.21e-05
2016-01-08 00:00:00,2016-01-08 00:00:00,PRATE,surface,-105,32.5983,2.29e-05
2016-01-08 00:00:00,2016-01-08 00:00:00,PRATE,surface,-104.063,32.5983,9e-06
2016-01-08 00:00:00,2016-01-08 00:00:00,PRATE,surface,-103.125,32.5983,5.4e-06
2016-01-08 00:00:00,2016-01-08 00:00:00,PRATE,surface,-102.188,32.5983,4.9e-06
2016-01-08 00:00:00,2016-01-08 00:00:00,PRATE,surface,-101.25,32.5983,2.7e-06
2016-01-08 00:00:00,2016-01-08 00:00:00,PRATE,surface,-100.313,32.5983,2.2e-06
2016-01-08 00:00:00,2016-01-08 00:00:00,PRATE,surface,-99.3754,32.5983,6e-06
2016-01-08 00:00:00,2016-01-08 00:00:00,PRATE,surface,-98.4379,32.5983,1.66e-05
2016-01-08 00:00:00,2016-01-08 00:00:00,PRATE,surface,-97.5004,32.5983,4.29e-05
2016-01-08 00:00:00,2016-01-08 00:00:00,PRATE,surface,-96.5629,32.5983,6.11e-05
2016-01-08 00:00:00,2016-01-08 00:00:00,PRATE,surface,-95.6254,32.5983,4.89e-05
2016-01-08 00:00:00,2016-01-08 00:00:00,PRATE,surface,-94.6879,32.5983,2.71e-05
2016-01-08 00:00:00,2016-01-08 00:00:00,PRATE,surface,-93.7504,32.5983,1.45e-05
2016-01-08 00:00:00,2016-01-08 00:00:00,PRATE,surface,-92.8129,32.5983,8.3e-06
2016-01-08 00:00:00,2016-01-08 00:00:00,PRATE,surface,-107.813,33.5432,1.34e-05
2016-01-08 00:00:00,2016-01-08 00:00:00,PRATE,surface,-106.875,33.5432,1.75e-05
2016-01-08 00:00:00,2016-01-08 00:00:00,PRATE,surface,-105.938,33.5432,3.1e-05
2016-01-08 00:00:00,2016-01-08 00:00:00,PRATE,surface,-105,33.5432,2.51e-05
2016-01-08 00:00:00,2016-01-08 00:00:00,PRATE,surface,-104.063,33.5432,1.11e-05
2016-01-08 00:00:00,2016-01-08 00:00:00,PRATE,surface,-103.125,33.5432,5.6e-06
2016-01-08 00:00:00,2016-01-08 00:00:00,PRATE,surface,-102.188,33.5432,4e-06
2016-01-08 00:00:00,2016-01-08 00:00:00,PRATE,surface,-101.25,33.5432,2.9e-06
2016-01-08 00:00:00,2016-01-08 00:00:00,PRATE,surface,-100.313,33.5432,2.6e-06
2016-01-08 00:00:00,2016-01-08 00:00:00,PRATE,surface,-99.3754,33.5432,3.3e-06
2016-01-08 00:00:00,2016-01-08 00:00:00,PRATE,surface,-98.4379,33.5432,1.15e-05
2016-01-08 00:00:00,2016-01-08 00:00:00,PRATE,surface,-97.5004,33.5432,2.81e-05
2016-01-08 00:00:00,2016-01-08 00:00:00,PRATE,surface,-96.5629,33.5432,4.2e-05
2016-01-08 00:00:00,2016-01-08 00:00:00,PRATE,surface,-95.6254,33.5432,4.07e-05
2016-01-08 00:00:00,2016-01-08 00:00:00,PRATE,surface,-94.6879,33.5432,2.57e-05
2016-01-08 00:00:00,2016-01-08 00:00:00,PRATE,surface,-93.7504,33.5432,1.12e-05
2016-01-08 00:00:00,2016-01-08 00:00:00,PRATE,surface,-92.8129,33.5432,7.5e-06
2016-01-08 00:00:00,2016-01-08 00:00:00,PRATE,surface,-107.813,34.4881,1.33e-05
2016-01-08 00:00:00,2016-01-08 00:00:00,PRATE,surface,-106.875,34.4881,1.75e-05
2016-01-08 00:00:00,2016-01-08 00:00:00,PRATE,surface,-105.938,34.4881,2.24e-05
2016-01-08 00:00:00,2016-01-08 00:00:00,PRATE,surface,-105,34.4881,2.06e-05
2016-01-08 00:00:00,2016-01-08 00:00:00,PRATE,surface,-104.063,34.4881,1.24e-05
2016-01-08 00:00:00,2016-01-08 00:00:00,PRATE,surface,-103.125,34.4881,6e-06
2016-01-08 00:00:00,2016-01-08 00:00:00,PRATE,surface,-102.188,34.4881,9.8e-06
2016-01-08 00:00:00,2016-01-08 00:00:00,PRATE,surface,-101.25,34.4881,4.8e-06
2016-01-08 00:00:00,2016-01-08 00:00:00,PRATE,surface,-100.313,34.4881,3.7e-06
2016-01-08 00:00:00,2016-01-08 00:00:00,PRATE,surface,-99.3754,34.4881,4.3e-06
2016-01-08 00:00:00,2016-01-08 00:00:00,PRATE,surface,-98.4379,34.4881,1.05e-05
2016-01-08 00:00:00,2016-01-08 00:00:00,PRATE,surface,-97.5004,34.4881,2.08e-05
2016-01-08 00:00:00,2016-01-08 00:00:00,PRATE,surface,-96.5629,34.4881,2.94e-05
2016-01-08 00:00:00,2016-01-08 00:00:00,PRATE,surface,-95.6254,34.4881,3.09e-05
2016-01-08 00:00:00,2016-01-08 00:00:00,PRATE,surface,-94.6879,34.4881,2.54e-05
2016-01-08 00:00:00,2016-01-08 00:00:00,PRATE,surface,-93.7504,34.4881,2.14e-05
2016-01-08 00:00:00,2016-01-08 00:00:00,PRATE,surface,-92.8129,34.4881,1.96e-05
2016-01-08 00:00:00,2016-01-08 00:00:00,PRATE,surface,-107.813,35.4329,4.1e-06
2016-01-08 00:00:00,2016-01-08 00:00:00,PRATE,surface,-106.875,35.4329,8e-06
2016-01-08 00:00:00,2016-01-08 00:00:00,PRATE,surface,-105.938,35.4329,1.3e-05
2016-01-08 00:00:00,2016-01-08 00:00:00,PRATE,surface,-105,35.4329,2.18e-05
2016-01-08 00:00:00,2016-01-08 00:00:00,PRATE,surface,-104.063,35.4329,1.66e-05
2016-01-08 00:00:00,2016-01-08 00:00:00,PRATE,surface,-103.125,35.4329,9.7e-06
2016-01-08 00:00:00,2016-01-08 00:00:00,PRATE,surface,-102.188,35.4329,8e-06
2016-01-08 00:00:00,2016-01-08 00:00:00,PRATE,surface,-101.25,35.4329,9.6e-06
2016-01-08 00:00:00,2016-01-08 00:00:00,PRATE,surface,-100.313,35.4329,7.7e-06
2016-01-08 00:00:00,2016-01-08 00:00:00,PRATE,surface,-99.3754,35.4329,5.9e-06
2016-01-08 00:00:00,2016-01-08 00:00:00,PRATE,surface,-98.4379,35.4329,6.6e-06
2016-01-08 00:00:00,2016-01-08 00:00:00,PRATE,surface,-97.5004,35.4329,1.52e-05
2016-01-08 00:00:00,2016-01-08 00:00:00,PRATE,surface,-96.5629,35.4329,2.18e-05
2016-01-08 00:00:00,2016-01-08 00:00:00,PRATE,surface,-95.6254,35.4329,2.22e-05
2016-01-08 00:00:00,2016-01-08 00:00:00,PRATE,surface,-94.6879,35.4329,2.38e-05
2016-01-08 00:00:00,2016-01-08 00:00:00,PRATE,surface,-93.7504,35.4329,2.08e-05
2016-01-08 00:00:00,2016-01-08 00:00:00,PRATE,surface,-92.8129,35.4329,2.29e-05
2016-01-08 00:00:00,2016-01-08 00:00:00,PRATE,surface,-107.813,36.3778,1.8e-06
2016-01-08 00:00:00,2016-01-08 00:00:00,PRATE,surface,-106.875,36.3778,8.5e-06
2016-01-08 00:00:00,2016-01-08 00:00:00,PRATE,surface,-105.938,36.3778,1.58e-05
2016-01-08 00:00:00,2016-01-08 00:00:00,PRATE,surface,-105,36.3778,2.14e-05
2016-01-08 00:00:00,2016-01-08 00:00:00,PRATE,surface,-104.063,36.3778,2.19e-05
2016-01-08 00:00:00,2016-01-08 00:00:00,PRATE,surface,-103.125,36.3778,1.73e-05
2016-01-08 00:00:00,2016-01-08 00:00:00,PRATE,surface,-102.188,36.3778,1.88e-05
2016-01-08 00:00:00,2016-01-08 00:00:00,PRATE,surface,-101.25,36.3778,2.56e-05
2016-01-08 00:00:00,2016-01-08 00:00:00,PRATE,surface,-100.313,36.3778,2.74e-05
2016-01-08 00:00:00,2016-01-08 00:00:00,PRATE,surface,-99.3754,36.3778,2.6e-05
2016-01-08 00:00:00,2016-01-08 00:00:00,PRATE,surface,-98.4379,36.3778,2.07e-05
2016-01-08 00:00:00,2016-01-08 00:00:00,PRATE,surface,-97.5004,36.3778,2.59e-05
2016-01-08 00:00:00,2016-01-08 00:00:00,PRATE,surface,-96.5629,36.3778,2.92e-05
2016-01-08 00:00:00,2016-01-08 00:00:00,PRATE,surface,-95.6254,36.3778,2.54e-05
2016-01-08 00:00:00,2016-01-08 00:00:00,PRATE,surface,-94.6879,36.3778,3.23e-05
2016-01-08 00:00:00,2016-01-08 00:00:00,PRATE,surface,-93.7504,36.3778,3.59e-05
2016-01-08 00:00:00,2016-01-08 00:00:00,PRATE,surface,-92.8129,36.3778,3.4e-05
