2015-06-11 00:00:00,2015-06-11 00:00:00,TMP,surface,-107.813,25.0393,291.128
2015-06-11 00:00:00,2015-06-11 00:00:00,TMP,surface,-106.875,25.0393,285.456
2015-06-11 00:00:00,2015-06-11 00:00:00,TMP,surface,-105.938,25.0393,280.043
2015-06-11 00:00:00,2015-06-11 00:00:00,TMP,surface,-105,25.0393,278.392
2015-06-11 00:00:00,2015-06-11 00:00:00,TMP,surface,-104.063,25.0393,281.517
2015-06-11 00:00:00,2015-06-11 00:00:00,TMP,surface,-103.125,25.0393,283.164
2015-06-11 00:00:00,2015-06-11 00:00:00,TMP,surface,-102.188,25.0393,282.685
2015-06-11 00:00:00,2015-06-11 00:00:00,TMP,surface,-101.25,25.0393,281.233
2015-06-11 00:00:00,2015-06-11 00:00:00,TMP,surface,-100.313,25.0393,282.272
2015-06-11 00:00:00,2015-06-11 00:00:00,TMP,surface,-99.3754,25.0393,284.966
2015-06-11 00:00:00,2015-06-11 00:00:00,TMP,surface,-98.4379,25.0393,288.31
2015-06-11 00:00:00,2015-06-11 00:00:00,TMP,surface,-97.5004,25.0393,294.296
2015-06-11 00:00:00,2015-06-11 00:00:00,TMP,surface,-96.5629,25.0393,295.483
2015-06-11 00:00:00,2015-06-11 00:00:00,TMP,surface,-95.6254,25.0393,296.26
2015-06-11 00:00:00,2015-06-11 00:00:00,TMP,surface,-94.6879,25.0393,296.444
2015-06-11 00:00:00,2015-06-11 00:00:00,TMP,surface,-93.7504,25.0393,296.371
2015-06-11 00:00:00,2015-06-11 00:00:00,TMP,surface,-92.8129,25.0393,296.384
2015-06-11 00:00:00,2015-06-11 00:00:00,TMP,surface,-107.813,25.9842,286.222
2015-06-11 00:00:00,2015-06-11 00:00:00,TMP,surface,-106.875,25.9842,280.667
2015-06-11 00:00:00,2015-06-11 00:00:00,TMP,surface,-105.938,25.9842,278.044
2015-06-11 00:00:00,2015-06-11 00:00:00,TMP,surface,-105,25.9842,280.046
2015-06-11 00:00:00,2015-06-11 00:00:00,TMP,surface,-104.063,25.9842,283.096
2015-06-11 00:00:00,2015-06-11 00:00:00,TMP,surface,-103.125,25.9842,283.907
2015-06-11 00:00:00,2015-06-11 00:00:00,TMP,surface,-102.188,25.9842,283.313
2015-06-11 00:00:00,2015-06-11 00:00:00,TMP,surface,-101.25,25.9842,282.936
2015-06-11 00:00:00,2015-06-11 00:00:00,TMP,surface,-100.313,25.9842,283.38
2015-06-11 00:00:00,2015-06-11 00:00:00,TMP,surface,-99.3754,25.9842,285.718
2015-06-11 00:00:00,2015-06-11 00:00:00,TMP,surface,-98.4379,25.9842,287.917
2015-06-11 00:00:00,2015-06-11 00:00:00,TMP,surface,-97.5004,25.9842,289.901
2015-06-11 00:00:00,2015-06-11 00:00:00,TMP,surface,-96.5629,25.9842,294.585
2015-06-11 00:00:00,2015-06-11 00:00:00,TMP,surface,-95.6254,25.9842,295.56
2015-06-11 00:00:00,2015-06-11 00:00:00,TMP,surface,-94.6879,25.9842,295.838
2015-06-11 00:00:00,2015-06-11 00:00:00,TMP,surface,-93.7504,25.9842,295.699
2015-06-11 00:00:00,2015-06-11 00:00:00,TMP,surface,-92.8129,25.9842,295.673
2015-06-11 00:00:00,2015-06-11 00:00:00,TMP,surface,-107.813,26.929,281.384
2015-06-11 00:00:00,2015-06-11 00:00:00,TMP,surface,-106.875,26.929,277.201
2015-06-11 00:00:00,2015-06-11 00:00:00,TMP,surface,-105.938,26.929,279.203
2015-06-11 00:00:00,2015-06-11 00:00:00,TMP,surface,-105,26.929,281.965
2015-06-11 00:00:00,2015-06-11 00:00:00,TMP,surface,-104.063,26.929,282.742
2015-06-11 00:00:00,2015-06-11 00:00:00,TMP,surface,-103.125,26.929,281.841
2015-06-11 00:00:00,2015-06-11 00:00:00,TMP,surface,-102.188,26.929,282.286
2015-06-11 00:00:00,2015-06-11 00:00:00,TMP,surface,-101.25,26.929,283.553
2015-06-11 00:00:00,2015-06-11 00:00:00,TMP,surface,-100.313,26.929,284.47
2015-06-11 00:00:00,2015-06-11 00:00:00,TMP,surface,-99.3754,26.929,285.673
2015-06-11 00:00:00,2015-06-11 00:00:00,TMP,surface,-98.4379,26.929,286.571
2015-06-11 00:00:00,2015-06-11 00:00:00,TMP,surface,-97.5004,26.929,292.899
2015-06-11 00:00:00,2015-06-11 00:00:00,TMP,surface,-96.5629,26.929,293.861
2015-06-11 00:00:00,2015-06-11 00:00:00,TMP,surface,-95.6254,26.929,294.358
2015-06-11 00:00:00,2015-06-11 00:00:00,TMP,surface,-94.6879,26.929,294.757
2015-06-11 00:00:00,2015-06-11 00:00:00,TMP,surface,-93.7504,26.929,294.811
2015-06-11 00:00:00,2015-06-11 00:00:00,TMP,surface,-92.8129,26.929,294.817
2015-06-11 00:00:00,2015-06-11 00:00:00,TMP,surface,-107.813,27.8739,278.281
2015-06-11 00:00:00,2015-06-11 00:00:00,TMP,surface,-106.875,27.8739,276.769
2015-06-11 00:00:00,2015-06-11 00:00:00,TMP,surface,-105.938,27.8739,280.081
2015-06-11 00:00:00,2015-06-11 00:00:00,TMP,surface,-105,27.8739,282.35
2015-06-11 00:00:00,2015-06-11 00:00:00,TMP,surface,-104.063,27.8739,282.123
2015-06-11 00:00:00,2015-06-11 00:00:00,TMP,surface,-103.125,27.8739,280.934
2015-06-11 00:00:00,2015-06-11 00:00:00,TMP,surface,-102.188,27.8739,281.505
2015-06-11 00:00:00,2015-06-11 00:00:00,TMP,surface,-101.25,27.8739,282.923
2015-06-11 00:00:00,2015-06-11 00:00:00,TMP,surface,-100.313,27.8739,284.177
2015-06-11 00:00:00,2015-06-11 00:00:00,TMP,surface,-99.3754,27.8739,284.563
2015-06-11 00:00:00,2015-06-11 00:00:00,TMP,surface,-98.4379,27.8739,285.064
2015-06-11 00:00:00,2015-06-11 00:00:00,TMP,surface,-97.5004,27.8739,289.667
2015-06-11 00:00:00,2015-06-11 00:00:00,TMP,surface,-96.5629,27.8739,294.073
2015-06-11 00:00:00,2015-06-11 00:00:00,TMP,surface,-95.6254,27.8739,294.222
2015-06-11 00:00:00,2015-06-11 00:00:00,TMP,surface,-94.6879,27.8739,294.043
2015-06-11 00:00:00,2015-06-11 00:00:00,TMP,surface,-93.7504,27.8739,293.99
2015-06-11 00:00:00,2015-06-11 00:00:00,TMP,surface,-92.8129,27.8739,294.004
2015-06-11 00:00:00,2015-06-11 00:00:00,TMP,surface,-107.813,28.8188,276.809
2015-06-11 00:00:00,2015-06-11 00:00:00,TMP,surface,-106.875,28.8188,277.461
2015-06-11 00:00:00,2015-06-11 00:00:00,TMP,surface,-105.938,28.8188,280.377
2015-06-11 00:00:00,2015-06-11 00:00:00,TMP,surface,-105,28.8188,281.56
2015-06-11 00:00:00,2015-06-11 00:00:00,TMP,surface,-104.063,28.8188,280.372
2015-06-11 00:00:00,2015-06-11 00:00:00,TMP,surface,-103.125,28.8188,279.66
2015-06-11 00:00:00,2015-06-11 00:00:00,TMP,surface,-102.188,28.8188,280.465
2015-06-11 00:00:00,2015-06-11 00:00:00,TMP,surface,-101.25,28.8188,282.06
2015-06-11 00:00:00,2015-06-11 00:00:00,TMP,surface,-100.313,28.8188,282.79
2015-06-11 00:00:00,2015-06-11 00:00:00,TMP,surface,-99.3754,28.8188,282.71
2015-06-11 00:00:00,2015-06-11 00:00:00,TMP,surface,-98.4379,28.8188,282.958
2015-06-11 00:00:00,2015-06-11 00:00:00,TMP,surface,-97.5004,28.8188,284.097
2015-06-11 00:00:00,2015-06-11 00:00:00,TMP,surface,-96.5629,28.8188,285.457
2015-06-11 00:00:00,2015-06-11 00:00:00,TMP,surface,-95.6254,28.8188,288.984
2015-06-11 00:00:00,2015-06-11 00:00:00,TMP,surface,-94.6879,28.8188,293.731
2015-06-11 00:00:00,2015-06-11 00:00:00,TMP,surface,-93.7504,28.8188,293.67
2015-06-11 00:00:00,2015-06-11 00:00:00,TMP,surface,-92.8129,28.8188,293.811
2015-06-11 00:00:00,2015-06-11 00:00:00,TMP,surface,-107.813,29.7637,277.8
2015-06-11 00:00:00,2015-06-11 00:00:00,TMP,surface,-106.875,29.7637,278.604
2015-06-11 00:00:00,2015-06-11 00:00:00,TMP,surface,-105.938,29.7637,280.212
2015-06-11 00:00:00,2015-06-11 00:00:00,TMP,surface,-105,29.7637,279.798
2015-06-11 00:00:00,2015-06-11 00:00:00,TMP,surface,-104.063,29.7637,279.51
2015-06-11 00:00:00,2015-06-11 00:00:00,TMP,surface,-103.125,29.7637,279.733
2015-06-11 00:00:00,2015-06-11 00:00:00,TMP,surface,-102.188,29.7637,280.59
2015-06-11 00:00:00,2015-06-11 00:00:00,TMP,surface,-101.25,29.7637,281.204
2015-06-11 00:00:00,2015-06-11 00:00:00,TMP,surface,-100.313,29.7637,281.038
2015-06-11 00:00:00,2015-06-11 00:00:00,TMP,surface,-99.3754,29.7637,280.806
2015-06-11 00:00:00,2015-06-11 00:00:00,TMP,surface,-98.4379,29.7637,281.142
2015-06-11 00:00:00,2015-06-11 00:00:00,TMP,surface,-97.5004,29.7637,281.988
2015-06-11 00:00:00,2015-06-11 00:00:00,TMP,surface,-96.5629,29.7637,283.022
2015-06-11 00:00:00,2015-06-11 00:00:00,TMP,surface,-95.6254,29.7637,284.03
2015-06-11 00:00:00,2015-06-11 00:00:00,TMP,surface,-94.6879,29.7637,287.421
2015-06-11 00:00:00,2015-06-11 00:00:00,TMP,surface,-93.7504,29.7637,291.454
2015-06-11 00:00:00,2015-06-11 00:00:00,TMP,surface,-92.8129,29.7637,285.217
2015-06-11 00:00:00,2015-06-11 00:00:00,TMP,surface,-107.813,30.7085,279.409
2015-06-11 00:00:00,2015-06-11 00:00:00,TMP,surface,-106.875,30.7085,279.961
2015-06-11 00:00:00,2015-06-11 00:00:00,TMP,surface,-105.938,30.7085,279.566
2015-06-11 00:00:00,2015-06-11 00:00:00,TMP,surface,-105,30.7085,278.747
2015-06-11 00:00:00,2015-06-11 00:00:00,TMP,surface,-104.063,30.7085,278.673
2015-06-11 00:00:00,2015-06-11 00:00:00,TMP,surface,-103.125,30.7085,279.632
2015-06-11 00:00:00,2015-06-11 00:00:00,TMP,surface,-102.188,30.7085,280.121
2015-06-11 00:00:00,2015-06-11 00:00:00,TMP,surface,-101.25,30.7085,280.169
2015-06-11 00:00:00,2015-06-11 00:00:00,TMP,surface,-100.313,30.7085,279.865
2015-06-11 00:00:00,2015-06-11 00:00:00,TMP,surface,-99.3754,30.7085,279.901
2015-06-11 00:00:00,2015-06-11 00:00:00,TMP,surface,-98.4379,30.7085,280.406
2015-06-11 00:00:00,2015-06-11 00:00:00,TMP,surface,-97.5004,30.7085,281.105
2015-06-11 00:00:00,2015-06-11 00:00:00,TMP,surface,-96.5629,30.7085,281.757
2015-06-11 00:00:00,2015-06-11 00:00:00,TMP,surface,-95.6254,30.7085,282.294
2015-06-11 00:00:00,2015-06-11 00:00:00,TMP,surface,-94.6879,30.7085,282.651
2015-06-11 00:00:00,2015-06-11 00:00:00,TMP,surface,-93.7504,30.7085,282.638
2015-06-11 00:00:00,2015-06-11 00:00:00,TMP,surface,-92.8129,30.7085,282.334
2015-06-11 00:00:00,2015-06-11 00:00:00,TMP,surface,-107.813,31.6534,279.097
2015-06-11 00:00:00,2015-06-11 00:00:00,TMP,surface,-106.875,31.6534,279.416
2015-06-11 00:00:00,2015-06-11 00:00:00,TMP,surface,-105.938,31.6534,278.32
2015-06-11 00:00:00,2015-06-11 00:00:00,TMP,surface,-105,31.6534,278.115
2015-06-11 00:00:00,2015-06-11 00:00:00,TMP,surface,-104.063,31.6534,278.573
2015-06-11 00:00:00,2015-06-11 00:00:00,TMP,surface,-103.125,31.6534,279.313
2015-06-11 00:00:00,2015-06-11 00:00:00,TMP,surface,-102.188,31.6534,279.558
2015-06-11 00:00:00,2015-06-11 00:00:00,TMP,surface,-101.25,31.6534,279.372
2015-06-11 00:00:00,2015-06-11 00:00:00,TMP,surface,-100.313,31.6534,279.284
2015-06-11 00:00:00,2015-06-11 00:00:00,TMP,surface,-99.3754,31.6534,279.558
2015-06-11 00:00:00,2015-06-11 00:00:00,TMP,surface,-98.4379,31.6534,280.142
2015-06-11 00:00:00,2015-06-11 00:00:00,TMP,surface,-97.5004,31.6534,280.713
2015-06-11 00:00:00,2015-06-11 00:00:00,TMP,surface,-96.5629,31.6534,281.176
2015-06-11 00:00:00,2015-06-11 00:00:00,TMP,surface,-95.6254,31.6534,281.436
2015-06-11 00:00:00,2015-06-11 00:00:00,TMP,surface,-94.6879,31.6534,281.334
2015-06-11 00:00:00,2015-06-11 00:00:00,TMP,surface,-93.7504,31.6534,281.142
2015-06-11 00:00:00,2015-06-11 00:00:00,TMP,surface,-92.8129,31.6534,281.021
2015-06-11 00:00:00,2015-06-11 00:00:00,TMP,surface,-107.813,32.5983,276.71
2015-06-11 00:00:00,2015-06-11 00:00:00,TMP,surface,-106.875,32.5983,276.814
2015-06-11 00:00:00,2015-06-11 00:00:00,TMP,surface,-105.938,32.5983,276.838
2015-06-11 00:00:00,2015-06-11 00:00:00,TMP,surface,-105,32.5983,277.296
2015-06-11 00:00:00,2015-06-11 00:00:00,TMP,surface,-104.063,32.5983,278.444
2015-06-11 00:00:00,2015-06-11 00:00:00,TMP,surface,-103.125,32.5983,279.04
2015-06-11 00:00:00,2015-06-11 00:00:00,TMP,surface,-102.188,32.5983,278.785
2015-06-11 00:00:00,2015-06-11 00:00:00,TMP,surface,-101.25,32.5983,278.686
2015-06-11 00:00:00,2015-06-11 00:00:00,TMP,surface,-100.313,32.5983,278.905
2015-06-11 00:00:00,2015-06-11 00:00:00,TMP,surface,-99.3754,32.5983,279.387
2015-06-11 00:00:00,2015-06-11 00:00:00,TMP,surface,-98.4379,32.5983,279.814
2015-06-11 00:00:00,2015-06-11 00:00:00,TMP,surface,-97.5004,32.5983,280.168
2015-06-11 00:00:00,2015-06-11 00:00:00,TMP,surface,-96.5629,32.5983,280.518
2015-06-11 00:00:00,2015-06-11 00:00:00,TMP,surface,-95.6254,32.5983,280.657
2015-06-11 00:00:00,2015-06-11 00:00:00,TMP,surface,-94.6879,32.5983,280.43
2015-06-11 00:00:00,2015-06-11 00:00:00,TMP,surface,-93.7504,32.5983,280.163
2015-06-11 00:00:00,2015-06-11 00:00:00,TMP,surface,-92.8129,32.5983,280.273
2015-06-11 00:00:00,2015-06-11 00:00:00,TMP,surface,-107.813,33.5432,273.723
2015-06-11 00:00:00,2015-06-11 00:00:00,TMP,surface,-106.875,33.5432,274.739
2015-06-11 00:00:00,2015-06-11 00:00:00,TMP,surface,-105.938,33.5432,275.739
2015-06-11 00:00:00,2015-06-11 00:00:00,TMP,surface,-105,33.5432,276.696
2015-06-11 00:00:00,2015-06-11 00:00:00,TMP,surface,-104.063,33.5432,278.024
2015-06-11 00:00:00,2015-06-11 00:00:00,TMP,surface,-103.125,33.5432,278.481
2015-06-11 00:00:00,2015-06-11 00:00:00,TMP,surface,-102.188,33.5432,277.955
2015-06-11 00:00:00,2015-06-11 00:00:00,TMP,surface,-101.25,33.5432,277.897
2015-06-11 00:00:00,2015-06-11 00:00:00,TMP,surface,-100.313,33.5432,278.265
2015-06-11 00:00:00,2015-06-11 00:00:00,TMP,surface,-99.3754,33.5432,278.752
2015-06-11 00:00:00,2015-06-11 00:00:00,TMP,surface,-98.4379,33.5432,279.049
2015-06-11 00:00:00,2015-06-11 00:00:00,TMP,surface,-97.5004,33.5432,279.134
2015-06-11 00:00:00,2015-06-11 00:00:00,TMP,surface,-96.5629,33.5432,279.307
2015-06-11 00:00:00,2015-06-11 00:00:00,TMP,surface,-95.6254,33.5432,279.558
2015-06-11 00:00:00,2015-06-11 00:00:00,TMP,surface,-94.6879,33.5432,279.469
2015-06-11 00:00:00,2015-06-11 00:00:00,TMP,surface,-93.7504,33.5432,279.105
2015-06-11 00:00:00,2015-06-11 00:00:00,TMP,surface,-92.8129,33.5432,279.073
2015-06-11 00:00:00,2015-06-11 00:00:00,TMP,surface,-107.813,34.4881,272.424
2015-06-11 00:00:00,2015-06-11 00:00:00,TMP,surface,-106.875,34.4881,273.651
2015-06-11 00:00:00,2015-06-11 00:00:00,TMP,surface,-105.938,34.4881,274.648
2015-06-11 00:00:00,2015-06-11 00:00:00,TMP,surface,-105,34.4881,275.768
2015-06-11 00:00:00,2015-06-11 00:00:00,TMP,surface,-104.063,34.4881,276.828
2015-06-11 00:00:00,2015-06-11 00:00:00,TMP,surface,-103.125,34.4881,277.358
2015-06-11 00:00:00,2015-06-11 00:00:00,TMP,surface,-102.188,34.4881,277.145
2015-06-11 00:00:00,2015-06-11 00:00:00,TMP,surface,-101.25,34.4881,277.077
2015-06-11 00:00:00,2015-06-11 00:00:00,TMP,surface,-100.313,34.4881,277.249
2015-06-11 00:00:00,2015-06-11 00:00:00,TMP,surface,-99.3754,34.4881,277.533
2015-06-11 00:00:00,2015-06-11 00:00:00,TMP,surface,-98.4379,34.4881,277.745
2015-06-11 00:00:00,2015-06-11 00:00:00,TMP,surface,-97.5004,34.4881,277.923
2015-06-11 00:00:00,2015-06-11 00:00:00,TMP,surface,-96.5629,34.4881,278.176
2015-06-11 00:00:00,2015-06-11 00:00:00,TMP,surface,-95.6254,34.4881,278.296
2015-06-11 00:00:00,2015-06-11 00:00:00,TMP,surface,-94.6879,34.4881,278.016
2015-06-11 00:00:00,2015-06-11 00:00:00,TMP,surface,-93.7504,34.4881,277.612
2015-06-11 00:00:00,2015-06-11 00:00:00,TMP,surface,-92.8129,34.4881,277.569
2015-06-11 00:00:00,2015-06-11 00:00:00,TMP,surface,-107.813,35.4329,272.268
2015-06-11 00:00:00,2015-06-11 00:00:00,TMP,surface,-106.875,35.4329,272.609
2015-06-11 00:00:00,2015-06-11 00:00:00,TMP,surface,-105.938,35.4329,273.129
2015-06-11 00:00:00,2015-06-11 00:00:00,TMP,surface,-105,35.4329,273.982
2015-06-11 00:00:00,2015-06-11 00:00:00,TMP,surface,-104.063,35.4329,275.675
2015-06-11 00:00:00,2015-06-11 00:00:00,TMP,surface,-103.125,35.4329,276.667
2015-06-11 00:00:00,2015-06-11 00:00:00,TMP,surface,-102.188,35.4329,276.574
2015-06-11 00:00:00,2015-06-11 00:00:00,TMP,surface,-101.25,35.4329,276.291
2015-06-11 00:00:00,2015-06-11 00:00:00,TMP,surface,-100.313,35.4329,276.177
2015-06-11 00:00:00,2015-06-11 00:00:00,TMP,surface,-99.3754,35.4329,276.107
2015-06-11 00:00:00,2015-06-11 00:00:00,TMP,surface,-98.4379,35.4329,276.334
2015-06-11 00:00:00,2015-06-11 00:00:00,TMP,surface,-97.5004,35.4329,276.87
2015-06-11 00:00:00,2015-06-11 00:00:00,TMP,surface,-96.5629,35.4329,277.363
2015-06-11 00:00:00,2015-06-11 00:00:00,TMP,surface,-95.6254,35.4329,277.472
2015-06-11 00:00:00,2015-06-11 00:00:00,TMP,surface,-94.6879,35.4329,277.004
2015-06-11 00:00:00,2015-06-11 00:00:00,TMP,surface,-93.7504,35.4329,276.2
2015-06-11 00:00:00,2015-06-11 00:00:00,TMP,surface,-92.8129,35.4329,275.884
2015-06-11 00:00:00,2015-06-11 00:00:00,TMP,surface,-107.813,36.3778,271.472
2015-06-11 00:00:00,2015-06-11 00:00:00,TMP,surface,-106.875,36.3778,270.184
2015-06-11 00:00:00,2015-06-11 00:00:00,TMP,surface,-105.938,36.3778,270.273
2015-06-11 00:00:00,2015-06-11 00:00:00,TMP,surface,-105,36.3778,271.507
2015-06-11 00:00:00,2015-06-11 00:00:00,TMP,surface,-104.063,36.3778,273.734
2015-06-11 00:00:00,2015-06-11 00:00:00,TMP,surface,-103.125,36.3778,275.085
2015-06-11 00:00:00,2015-06-11 00:00:00,TMP,surface,-102.188,36.3778,275.573
2015-06-11 00:00:00,2015-06-11 00:00:00,TMP,surface,-101.25,36.3778,275.678
2015-06-11 00:00:00,2015-06-11 00:00:00,TMP,surface,-100.313,36.3778,275.835
2015-06-11 00:00:00,2015-06-11 00:00:00,TMP,surface,-99.3754,36.3778,275.84
2015-06-11 00:00:00,2015-06-11 00:00:00,TMP,surface,-98.4379,36.3778,275.652
2015-06-11 00:00:00,2015-06-11 00:00:00,TMP,surface,-97.5004,36.3778,275.907
2015-06-11 00:00:00,2015-06-11 00:00:00,TMP,surface,-96.5629,36.3778,276.483
2015-06-11 00:00:00,2015-06-11 00:00:00,TMP,surface,-95.6254,36.3778,276.579
2015-06-11 00:00:00,2015-06-11 00:00:00,TMP,surface,-94.6879,36.3778,275.934
2015-06-11 00:00:00,2015-06-11 00:00:00,TMP,surface,-93.7504,36.3778,274.982
2015-06-11 00:00:00,2015-06-11 00:00:00,TMP,surface,-92.8129,36.3778,274.509
2015-06-11 00:00:00,2015-06-11 00:00:00,PRATE,surface,-107.813,25.0393,2.9e-06
2015-06-11 00:00:00,2015-06-11 00:00:00,PRATE,surface,-106.875,25.0393,4.9e-06
2015-06-11 00:00:00,2015-06-11 00:00:00,PRATE,surface,-105.938,25.0393,9.6e-06
2015-06-11 00:00:00,2015-06-11 00:00:00,PRATE,surface,-105,25.0393,9.5e-06
2015-06-11 00:00:00,2015-06-11 00:00:00,PRATE,surface,-104.063,25.0393,1.01e-05
2015-06-11 00:00:00,2015-06-11 00:00:00,PRATE,surface,-103.125,25.0393,6.9e-06
2015-06-11 00:00:00,2015-06-11 00:00:00,PRATE,surface,-102.188,25.0393,8.4e-06
2015-06-11 00:00:00,2015-06-11 00:00:00,PRATE,surface,-101.25,25.0393,1.98e-05
2015-06-11 00:00:00,2015-06-11 00:00:00,PRATE,surface,-100.313,25.0393,3.78e-05
2015-06-11 00:00:00,2015-06-11 00:00:00,PRATE,surface,-99.3754,25.0393,3.79e-05
2015-06-11 00:00:00,2015-06-11 00:00:00,PRATE,surface,-98.4379,25.0393,2.85e-05
2015-06-11 00:00:00,2015-06-11 00:00:00,PRATE,surface,-97.5004,25.0393,3.68e-05
2015-06-11 00:00:00,2015-06-11 00:00:00,PRATE,surface,-96.5629,25.0393,5.5e-05
2015-06-11 00:00:00,2015-06-11 00:00:00,PRATE,surface,-95.6254,25.0393,6.64e-05
2015-06-11 00:00:00,2015-06-11 00:00:00,PRATE,surface,-94.6879,25.0393,6.72e-05
2015-06-11 00:00:00,2015-06-11 00:00:00,PRATE,surface,-93.7504,25.0393,7.85e-05
2015-06-11 00:00:00,2015-06-11 00:00:00,PRATE,surface,-92.8129,25.0393,9.21e-05
2015-06-11 00:00:00,2015-06-11 00:00:00,PRATE,surface,-107.813,25.9842,6.5e-06
2015-06-11 00:00:00,2015-06-11 00:00:00,PRATE,surface,-106.875,25.9842,8e-06
2015-06-11 00:00:00,2015-06-11 00:00:00,PRATE,surface,-105.938,25.9842,6.5e-06
2015-06-11 00:00:00,2015-06-11 00:00:00,PRATE,surface,-105,25.9842,1e-05
2015-06-11 00:00:00,2015-06-11 00:00:00,PRATE,surface,-104.063,25.9842,7.1e-06
2015-06-11 00:00:00,2015-06-11 00:00:00,PRATE,surface,-103.125,25.9842,5e-06
2015-06-11 00:00:00,2015-06-11 00:00:00,PRATE,surface,-102.188,25.9842,7e-06
2015-06-11 00:00:00,2015-06-11 00:00:00,PRATE,surface,-101.25,25.9842,2.17e-05
2015-06-11 00:00:00,2015-06-11 00:00:00,PRATE,surface,-100.313,25.9842,4.41e-05
2015-06-11 00:00:00,2015-06-11 00:00:00,PRATE,surface,-99.3754,25.9842,3.79e-05
2015-06-11 00:00:00,2015-06-11 00:00:00,PRATE,surface,-98.4379,25.9842,3.77e-05
2015-06-11 00:00:00,2015-06-11 00:00:00,PRATE,surface,-97.5004,25.9842,4.74e-05
2015-06-11 00:00:00,2015-06-11 00:00:00,PRATE,surface,-96.5629,25.9842,6.72e-05
2015-06-11 00:00:00,2015-06-11 00:00:00,PRATE,surface,-95.6254,25.9842,7.53e-05
2015-06-11 00:00:00,2015-06-11 00:00:00,PRATE,surface,-94.6879,25.9842,7.21e-05
2015-06-11 00:00:00,2015-06-11 00:00:00,PRATE,surface,-93.7504,25.9842,8.8e-05
2015-06-11 00:00:00,2015-06-11 00:00:00,PRATE,surface,-92.8129,25.9842,9.71e-05
2015-06-11 00:00:00,2015-06-11 00:00:00,PRATE,surface,-107.813,26.929,1.32e-05
2015-06-11 00:00:00,2015-06-11 00:00:00,PRATE,surface,-106.875,26.929,8.5e-06
2015-06-11 00:00:00,2015-06-11 00:00:00,PRATE,surface,-105.938,26.929,1.03e-05
2015-06-11 00:00:00,2015-06-11 00:00:00,PRATE,surface,-105,26.929,1.15e-05
2015-06-11 00:00:00,2015-06-11 00:00:00,PRATE,surface,-104.063,26.929,8.3e-06
2015-06-11 00:00:00,2015-06-11 00:00:00,PRATE,surface,-103.125,26.929,1.13e-05
2015-06-11 00:00:00,2015-06-11 00:00:00,PRATE,surface,-102.188,26.929,2.04e-05
2015-06-11 00:00:00,2015-06-11 00:00:00,PRATE,surface,-101.25,26.929,3.52e-05
2015-06-11 00:00:00,2015-06-11 00:00:00,PRATE,surface,-100.313,26.929,4.32e-05
2015-06-11 00:00:00,2015-06-11 00:00:00,PRATE,surface,-99.3754,26.929,4.15e-05
2015-06-11 00:00:00,2015-06-11 00:00:00,PRATE,surface,-98.4379,26.929,3.9e-05
2015-06-11 00:00:00,2015-06-11 00:00:00,PRATE,surface,-97.5004,26.929,5.91e-05
2015-06-11 00:00:00,2015-06-11 00:00:00,PRATE,surface,-96.5629,26.929,6.48e-05
2015-06-11 00:00:00,2015-06-11 00:00:00,PRATE,surface,-95.6254,26.929,7.1e-05
2015-06-11 00:00:00,2015-06-11 00:00:00,PRATE,surface,-94.6879,26.929,7.92e-05
2015-06-11 00:00:00,2015-06-11 00:00:00,PRATE,surface,-93.7504,26.929,0.0001022
2015-06-11 00:00:00,2015-06-11 00:00:00,PRATE,surface,-92.8129,26.929,0.0001224
2015-06-11 00:00:00,2015-06-11 00:00:00,PRATE,surface,-107.813,27.8739,1.5e-05
2015-06-11 00:00:00,2015-06-11 00:00:00,PRATE,surface,-106.875,27.8739,6.9e-06
2015-06-11 00:00:00,2015-06-11 00:00:00,PRATE,surface,-105.938,27.8739,9.1e-06
2015-06-11 00:00:00,2015-06-11 00:00:00,PRATE,surface,-105,27.8739,6.1e-06
2015-06-11 00:00:00,2015-06-11 00:00:00,PRATE,surface,-104.063,27.8739,1.31e-05
2015-06-11 00:00:00,2015-06-11 00:00:00,PRATE,surface,-103.125,27.8739,2.81e-05
2015-06-11 00:00:00,2015-06-11 00:00:00,PRATE,surface,-102.188,27.8739,3.98e-05
2015-06-11 00:00:00,2015-06-11 00:00:00,PRATE,surface,-101.25,27.8739,4.06e-05
2015-06-11 00:00:00,2015-06-11 00:00:00,PRATE,surface,-100.313,27.8739,3.9e-05
2015-06-11 00:00:00,2015-06-11 00:00:00,PRATE,surface,-99.3754,27.8739,3.7e-05
2015-06-11 00:00:00,2015-06-11 00:00:00,PRATE,surface,-98.4379,27.8739,3.5e-05
2015-06-11 00:00:00,2015-06-11 00:00:00,PRATE,surface,-97.5004,27.8739,3.36e-05
2015-06-11 00:00:00,2015-06-11 00:00:00,PRATE,surface,-96.5629,27.8739,3.63e-05
2015-06-11 00:00:00,2015-06-11 00:00:00,PRATE,surface,-95.6254,27.8739,5.18e-05
2015-06-11 00:00:00,2015-06-11 00:00:00,PRATE,surface,-94.6879,27.8739,7.93e-05
2015-06-11 00:00:00,2015-06-11 00:00:00,PRATE,surface,-93.7504,27.8739,0.0001049
2015-06-11 00:00:00,2015-06-11 00:00:00,PRATE,surface,-92.8129,27.8739,0.0001273
2015-06-11 00:00:00,2015-06-11 00:00:00,PRATE,surface,-107.813,28.8188,1.34e-05
2015-06-11 00:00:00,2015-06-11 00:00:00,PRATE,surface,-106.875,28.8188,6.9e-06
2015-06-11 00:00:00,2015-06-11 00:00:00,PRATE,surface,-105.938,28.8188,5.9e-06
2015-06-11 00:00:00,2015-06-11 00:00:00,PRATE,surface,-105,28.8188,3.9e-06
2015-06-11 00:00:00,2015-06-11 00:00:00,PRATE,surface,-104.063,28.8188,1.29e-05
2015-06-11 00:00:00,2015-06-11 00:00:00,PRATE,surface,-103.125,28.8188,2.79e-05
2015-06-11 00:00:00,2015-06-11 00:00:00,PRATE,surface,-102.188,28.8188,3.61e-05
2015-06-11 00:00:00,2015-06-11 00:00:00,PRATE,surface,-101.25,28.8188,3.51e-05
2015-06-11 00:00:00,2015-06-11 00:00:00,PRATE,surface,-100.313,28.8188,3.38e-05
2015-06-11 00:00:00,2015-06-11 00:00:00,PRATE,surface,-99.3754,28.8188,3.28e-05
2015-06-11 00:00:00,2015-06-11 00:00:00,PRATE,surface,-98.4379,28.8188,2.81e-05
2015-06-11 00:00:00,2015-06-11 00:00:00,PRATE,surface,-97.5004,28.8188,2.19e-05
2015-06-11 00:00:00,2015-06-11 00:00:00,PRATE,surface,-96.5629,28.8188,2.15e-05
2015-06-11 00:00:00,2015-06-11 00:00:00,PRATE,surface,-95.6254,28.8188,3.58e-05
2015-06-11 00:00:00,2015-06-11 00:00:00,PRATE,surface,-94.6879,28.8188,6.16e-05
2015-06-11 00:00:00,2015-06-11 00:00:00,PRATE,surface,-93.7504,28.8188,7.91e-05
2015-06-11 00:00:00,2015-06-11 00:00:00,PRATE,surface,-92.8129,28.8188,9.27e-05
2015-06-11 00:00:00,2015-06-11 00:00:00,PRATE,surface,-107.813,29.7637,7.3e-06
2015-06-11 00:00:00,2015-06-11 00:00:00,PRATE,surface,-106.875,29.7637,6.7e-06
2015-06-11 00:00:00,2015-06-11 00:00:00,PRATE,surface,-105.938,29.7637,5.9e-06
2015-06-11 00:00:00,2015-06-11 00:00:00,PRATE,surface,-105,29.7637,7.4e-06
2015-06-11 00:00:00,2015-06-11 00:00:00,PRATE,surface,-104.063,29.7637,1.28e-05
2015-06-11 00:00:00,2015-06-11 00:00:00,PRATE,surface,-103.125,29.7637,2.08e-05
2015-06-11 00:00:00,2015-06-11 00:00:00,PRATE,surface,-102.188,29.7637,2.21e-05
2015-06-11 00:00:00,2015-06-11 00:00:00,PRATE,surface,-101.25,29.7637,1.78e-05
2015-06-11 00:00:00,2015-06-11 00:00:00,PRATE,surface,-100.313,29.7637,1.77e-05
2015-06-11 00:00:00,2015-06-11 00:00:00,PRATE,surface,-99.3754,29.7637,1.99e-05
2015-06-11 00:00:00,2015-06-11 00:00:00,PRATE,surface,-98.4379,29.7637,1.98e-05
2015-06-11 00:00:00,2015-06-11 00:00:00,PRATE,surface,-97.5004,29.7637,1.7e-05
2015-06-11 00:00:00,2015-06-11 00:00:00,PRATE,surface,-96.5629,29.7637,1.55e-05
2015-06-11 00:00:00,2015-06-11 00:00:00,PRATE,surface,-95.6254,29.7637,2.33e-05
2015-06-11 00:00:00,2015-06-11 00:00:00,PRATE,surface,-94.6879,29.7637,4.46e-05
2015-06-11 00:00:00,2015-06-11 00:00:00,PRATE,surface,-93.7504,29.7637,6.87e-05
2015-06-11 00:00:00,2015-06-11 00:00:00,PRATE,surface,-92.8129,29.7637,7.94e-05
2015-06-11 00:00:00,2015-06-11 00:00:00,PRATE,surface,-107.813,30.7085,4.7e-06
2015-06-11 00:00:00,2015-06-11 00:00:00,PRATE,surface,-106.875,30.7085,4.8e-06
2015-06-11 00:00:00,2015-06-11 00:00:00,PRATE,surface,-105.938,30.7085,7.7e-06
2015-06-11 00:00:00,2015-06-11 00:00:00,PRATE,surface,-105,30.7085,1.25e-05
2015-06-11 00:00:00,2015-06-11 00:00:00,PRATE,surface,-104.063,30.7085,1.16e-05
2015-06-11 00:00:00,2015-06-11 00:00:00,PRATE,surface,-103.125,30.7085,1.3e-05
2015-06-11 00:00:00,2015-06-11 00:00:00,PRATE,surface,-102.188,30.7085,1.45e-05
2015-06-11 00:00:00,2015-06-11 00:00:00,PRATE,surface,-101.25,30.7085,1.16e-05
2015-06-11 00:00:00,2015-06-11 00:00:00,PRATE,surface,-100.313,30.7085,1.12e-05
2015-06-11 00:00:00,2015-06-11 00:00:00,PRATE,surface,-99.3754,30.7085,1.17e-05
2015-06-11 00:00:00,2015-06-11 00:00:00,PRATE,surface,-98.4379,30.7085,1.27e-05
2015-06-11 00:00:00,2015-06-11 00:00:00,PRATE,surface,-97.5004,30.7085,1.39e-05
2015-06-11 00:00:00,2015-06-11 00:00:00,PRATE,surface,-96.5629,30.7085,1.5e-05
2015-06-11 00:00:00,2015-06-11 00:00:00,PRATE,surface,-95.6254,30.7085,1.92e-05
2015-06-11 00:00:00,2015-06-11 00:00:00,PRATE,surface,-94.6879,30.7085,3.01e-05
2015-06-11 00:00:00,2015-06-11 00:00:00,PRATE,surface,-93.7504,30.7085,4.81e-05
2015-06-11 00:00:00,2015-06-11 00:00:00,PRATE,surface,-92.8129,30.7085,6.86e-05
2015-06-11 00:00:00,2015-06-11 00:00:00,PRATE,surface,-107.813,31.6534,5.7e-06
2015-06-11 00:00:00,2015-06-11 00:00:00,PRATE,surface,-106.875,31.6534,4.2e-06
2015-06-11 00:00:00,2015-06-11 00:00:00,PRATE,surface,-105.938,31.6534,7.2e-06
2015-06-11 00:00:00,2015-06-11 00:00:00,PRATE,surface,-105,31.6534,1.01e-05
2015-06-11 00:00:00,2015-06-11 00:00:00,PRATE,surface,-104.063,31.6534,1.11e-05
2015-06-11 00:00:00,2015-06-11 00:00:00,PRATE,surface,-103.125,31.6534,1.04e-05
2015-06-11 00:00:00,2015-06-11 00:00:00,PRATE,surface,-102.188,31.6534,1.02e-05
2015-06-11 00:00:00,2015-06-11 00:00:00,PRATE,surface,-101.25,31.6534,1.03e-05
2015-06-11 00:00:00,2015-06-11 00:00:00,PRATE,surface,-100.313,31.6534,1.3e-05
2015-06-11 00:00:00,2015-06-11 00:00:00,PRATE,surface,-99.3754,31.6534,1.37e-05
2015-06-11 00:00:00,2015-06-11 00:00:00,PRATE,surface,-98.4379,31.6534,1.31e-05
2015-06-11 00:00:00,2015-06-11 00:00:00,PRATE,surface,-97.5004,31.6534,1.42e-05
2015-06-11 00:00:00,2015-06-11 00:00:00,PRATE,surface,-96.5629,31.6534,1.82e-05
2015-06-11 00:00:00,2015-06-11 00:00:00,PRATE,surface,-95.6254,31.6534,2.46e-05
2015-06-11 00:00:00,2015-06-11 00:00:00,PRATE,surface,-94.6879,31.6534,3.27e-05
2015-06-11 00:00:00,2015-06-11 00:00:00,PRATE,surface,-93.7504,31.6534,4.36e-05
2015-06-11 00:00:00,2015-06-11 00:00:00,PRATE,surface,-92.8129,31.6534,5.51e-05
2015-06-11 00:00:00,2015-06-11 00:00:00,PRATE,surface,-107.813,32.5983,1.05e-05
2015-06-11 00:00:00,2015-06-11 00:00:00,PRATE,surface,-106.875,32.5983,8.4e-06
2015-06-11 00:00:00,2015-06-11 00:00:00,PRATE,surface,-105.938,32.5983,9.2e-06
2015-06-11 00:00:00,2015-06-11 00:00:00,PRATE,surface,-105,32.5983,1.05e-05
2015-06-11 00:00:00,2015-06-11 00:00:00,PRATE,surface,-104.063,32.5983,1.05e-05
2015-06-11 00:00:00,2015-06-11 00:00:00,PRATE,surface,-103.125,32.5983,8.5e-06
2015-06-11 00:00:00,2015-06-11 00:00:00,PRATE,surface,-102.188,32.5983,1.04e-05
2015-06-11 00:00:00,2015-06-11 00:00:00,PRATE,surface,-101.25,32.5983,1.18e-05
2015-06-11 00:00:00,2015-06-11 00:00:00,PRATE,surface,-100.313,32.5983,1.24e-05
2015-06-11 00:00:00,2015-06-11 00:00:00,PRATE,surface,-99.3754,32.5983,1.06e-05
2015-06-11 00:00:00,2015-06-11 00:00:00,PRATE,surface,-98.4379,32.5983,9.7e-06
2015-06-11 00:00:00,2015-06-11 00:00:00,PRATE,surface,-97.5004,32.5983,1.24e-05
2015-06-11 00:00:00,2015-06-11 00:00:00,PRATE,surface,-96.5629,32.5983,1.73e-05
2015-06-11 00:00:00,2015-06-11 00:00:00,PRATE,surface,-95.6254,32.5983,2.24e-05
2015-06-11 00:00:00,2015-06-11 00:00:00,PRATE,surface,-94.6879,32.5983,2.88e-05
2015-06-11 00:00:00,2015-06-11 00:00:00,PRATE,surface,-93.7504,32.5983,3.53e-05
2015-06-11 00:00:00,2015-06-11 00:00:00,PRATE,surface,-92.8129,32.5983,4.18e-05
2015-06-11 00:00:00,2015-06-11 00:00:00,PRATE,surface,-107.813,33.5432,1.62e-05
2015-06-11 00:00:00,2015-06-11 00:00:00,PRATE,surface,-106.875,33.5432,1.65e-05
2015-06-11 00:00:00,2015-06-11 00:00:00,PRATE,surface,-105.938,33.5432,1.33e-05
2015-06-11 00:00:00,2015-06-11 00:00:00,PRATE,surface,-105,33.5432,1.09e-05
2015-06-11 00:00:00,2015-06-11 00:00:00,PRATE,surface,-104.063,33.5432,8.1e-06
2015-06-11 00:00:00,2015-06-11 00:00:00,PRATE,surface,-103.125,33.5432,8.7e-06
2015-06-11 00:00:00,2015-06-11 00:00:00,PRATE,surface,-102.188,33.5432,1.21e-05
2015-06-11 00:00:00,2015-06-11 00:00:00,PRATE,surface,-101.25,33.5432,1.35e-05
2015-06-11 00:00:00,2015-06-11 00:00:00,PRATE,surface,-100.313,33.5432,1.12e-05
2015-06-11 00:00:00,2015-06-11 00:00:00,PRATE,surface,-99.3754,33.5432,6.8e-06
2015-06-11 00:00:00,2015-06-11 00:00:00,PRATE,surface,-98.4379,33.5432,4.3e-06
2015-06-11 00:00:00,2015-06-11 00:00:00,PRATE,surface,-97.5004,33.5432,5.2e-06
2015-06-11 00:00:00,2015-06-11 00:00:00,PRATE,surface,-96.5629,33.5432,9.5e-06
2015-06-11 00:00:00,2015-06-11 00:00:00,PRATE,surface,-95.6254,33.5432,1.41e-05
2015-06-11 00:00:00,2015-06-11 00:00:00,PRATE,surface,-94.6879,33.5432,1.74e-05
2015-06-11 00:00:00,2015-06-11 00:00:00,PRATE,surface,-93.7504,33.5432,2.27e-05
2015-06-11 00:00:00,2015-06-11 00:00:00,PRATE,surface,-92.8129,33.5432,2.63e-05
2015-06-11 00:00:00,2015-06-11 00:00:00,PRATE,surface,-107.813,34.4881,1.77e-05
2015-06-11 00:00:00,2015-06-11 00:00:00,PRATE,surface,-106.875,34.4881,1.62e-05
2015-06-11 00:00:00,2015-06-11 00:00:00,PRATE,surface,-105.938,34.4881,1.46e-05
2015-06-11 00:00:00,2015-06-11 00:00:00,PRATE,surface,-105,34.4881,1.17e-05
2015-06-11 00:00:00,2015-06-11 00:00:00,PRATE,surface,-104.063,34.4881,1e-05
2015-06-11 00:00:00,2015-06-11 00:00:00,PRATE,surface,-103.125,34.4881,9.9e-06
2015-06-11 00:00:00,2015-06-11 00:00:00,PRATE,surface,-102.188,34.4881,1.09e-05
2015-06-11 00:00:00,2015-06-11 00:00:00,PRATE,surface,-101.25,34.4881,1.18e-05
2015-06-11 00:00:00,2015-06-11 00:00:00,PRATE,surface,-100.313,34.4881,1.22e-05
2015-06-11 00:00:00,2015-06-11 00:00:00,PRATE,surface,-99.3754,34.4881,1e-05
2015-06-11 00:00:00,2015-06-11 00:00:00,PRATE,surface,-98.4379,34.4881,7.7e-06
2015-06-11 00:00:00,2015-06-11 00:00:00,PRATE,surface,-97.5004,34.4881,8.1e-06
2015-06-11 00:00:00,2015-06-11 00:00:00,PRATE,surface,-96.5629,34.4881,1.08e-05
2015-06-11 00:00:00,2015-06-11 00:00:00,PRATE,surface,-95.6254,34.4881,1.38e-05
2015-06-11 00:00:00,2015-06-11 00:00:00,PRATE,surface,-94.6879,34.4881,1.7e-05
2015-06-11 00:00:00,2015-06-11 00:00:00,PRATE,surface,-93.7504,34.4881,2.17e-05
2015-06-11 00:00:00,2015-06-11 00:00:00,PRATE,surface,-92.8129,34.4881,2.47e-05
2015-06-11 00:00:00,2015-06-11 00:00:00,PRATE,surface,-107.813,35.4329,1.52e-05
2015-06-11 00:00:00,2015-06-11 00:00:00,PRATE,surface,-106.875,35.4329,1.49e-05
2015-06-11 00:00:00,2015-06-11 00:00:00,PRATE,surface,-105.938,35.4329,1.51e-05
2015-06-11 00:00:00,2015-06-11 00:00:00,PRATE,surface,-105,35.4329,1.52e-05
2015-06-11 00:00:00,2015-06-11 00:00:00,PRATE,surface,-104.063,35.4329,1.46e-05
2015-06-11 00:00:00,2015-06-11 00:00:00,PRATE,surface,-103.125,35.4329,1.17e-05
2015-06-11 00:00:00,2015-06-11 00:00:00,PRATE,surface,-102.188,35.4329,9.6e-06
2015-06-11 00:00:00,2015-06-11 00:00:00,PRATE,surface,-101.25,35.4329,9.9e-06
2015-06-11 00:00:00,2015-06-11 00:00:00,PRATE,surface,-100.313,35.4329,1.09e-05
2015-06-11 00:00:00,2015-06-11 00:00:00,PRATE,surface,-99.3754,35.4329,1.11e-05
2015-06-11 00:00:00,2015-06-11 00:00:00,PRATE,surface,-98.4379,35.4329,1.13e-05
2015-06-11 00:00:00,2015-06-11 00:00:00,PRATE,surface,-97.5004,35.4329,1.22e-05
2015-06-11 00:00:00,2015-06-11 00:00:00,PRATE,surface,-96.5629,35.4329,1.32e-05
2015-06-11 00:00:00,2015-06-11 00:00:00,PRATE,surface,-95.6254,35.4329,1.45e-05
2015-06-11 00:00:00,2015-06-11 00:00:00,PRATE,surface,-94.6879,35.4329,1.82e-05
2015-06-11 00:00:00,2015-06-11 00:00:00,PRATE,surface,-93.7504,35.4329,2.49e-05
2015-06-11 00:00:00,2015-06-11 00:00:00,PRATE,surface,-92.8129,35.4329,2.94e-05
2015-06-11 00:00:00,2015-06-11 00:00:00,PRATE,surface,-107.813,36.3778,1.68e-05
2015-06-11 00:00:00,2015-06-11 00:00:00,PRATE,surface,-106.875,36.3778,2.04e-05
2015-06-11 00:00:00,2015-06-11 00:00:00,PRATE,surface,-105.938,36.3778,1.92e-05
2015-06-11 00:00:00,2015-06-11 00:00:00,PRATE,surface,-105,36.3778,1.96e-05
2015-06-11 00:00:00,2015-06-11 00:00:00,PRATE,surface,-104.063,36.3778,2.13e-05
2015-06-11 00:00:00,2015-06-11 00:00:00,PRATE,surface,-103.125,36.3778,1.9e-05
2015-06-11 00:00:00,2015-06-11 00:00:00,PRATE,surface,-102.188,36.3778,1.48e-05
2015-06-11 00:00:00,2015-06-11 00:00:00,PRATE,surface,-101.25,36.3778,1.3e-05
2015-06-11 00:00:00,2015-06-11 00:00:00,PRATE,surface,-100.313,36.3778,1.31e-05
2015-06-11 00:00:00,2015-06-11 00:00:00,PRATE,surface,-99.3754,36.3778,1.34e-05
2015-06-11 00:00:00,2015-06-11 00:00:00,PRATE,surface,-98.4379,36.3778,1.29e-05
2015-06-11 00:00:00,2015-06-11 00:00:00,PRATE,surface,-97.5004,36.3778,1.16e-05
2015-06-11 00:00:00,2015-06-11 00:00:00,PRATE,surface,-96.5629,36.3778,1.05e-05
2015-06-11 00:00:00,2015-06-11 00:00:00,PRATE,surface,-95.6254,36.3778,1.12e-05
2015-06-11 00:00:00,2015-06-11 00:00:00,PRATE,surface,-94.6879,36.3778,1.45e-05
2015-06-11 00:00:00,2015-06-11 00:00:00,PRATE,surface,-93.7504,36.3778,1.95e-05
2015-06-11 00:00:00,2015-06-11 00:00:00,PRATE,surface,-92.8129,36.3778,2.29e-05
