2018-11-23 00:00:00,2018-11-23 00:00:00,TMP,surface,-107.813,25.0393,293.785
2018-11-23 00:00:00,2018-11-23 00:00:00,TMP,surface,-106.875,25.0393,289.237
2018-11-23 00:00:00,2018-11-23 00:00:00,TMP,surface,-105.938,25.0393,283.76
2018-11-23 00:00:00,2018-11-23 00:00:00,TMP,surface,-105,25.0393,281.31
2018-11-23 00:00:00,2018-11-23 00:00:00,TMP,surface,-104.063,25.0393,283.992
2018-11-23 00:00:00,2018-11-23 00:00:00,TMP,surface,-103.125,25.0393,285.472
2018-11-23 00:00:00,2018-11-23 00:00:00,TMP,surface,-102.188,25.0393,285.627
2018-11-23 00:00:00,2018-11-23 00:00:00,TMP,surface,-101.25,25.0393,284.059
2018-11-23 00:00:00,2018-11-23 00:00:00,TMP,surface,-100.313,25.0393,284.254
2018-11-23 00:00:00,2018-11-23 00:00:00,TMP,surface,-99.3754,25.0393,285.914
2018-11-23 00:00:00,2018-11-23 00:00:00,TMP,surface,-98.4379,25.0393,288.206
2018-11-23 00:00:00,2018-11-23 00:00:00,TMP,surface,-97.5004,25.0393,293.766
2018-11-23 00:00:00,2018-11-23 00:00:00,TMP,surface,-96.5629,25.0393,294.389
2018-11-23 00:00:00,2018-11-23 00:00:00,TMP,surface,-95.6254,25.0393,295.637
2018-11-23 00:00:00,2018-11-23 00:00:00,TMP,surface,-94.6879,25.0393,296.502
2018-11-23 00:00:00,2018-11-23 00:00:00,TMP,surface,-93.7504,25.0393,296.379
2018-11-23 00:00:00,2018-11-23 00:00:00,TMP,surface,-92.8129,25.0393,296.256
2018-11-23 00:00:00,2018-11-23 00:00:00,TMP,surface,-107.813,25.9842,289.294
2018-11-23 00:00:00,2018-11-23 00:00:00,TMP,surface,-106.875,25.9842,284.552
2018-11-23 00:00:00,2018-11-23 00:00:00,TMP,surface,-105.938,25.9842,281.205
2018-11-23 00:00:00,2018-11-23 00:00:00,TMP,surface,-105,25.9842,282.605
2018-11-23 00:00:00,2018-11-23 00:00:00,TMP,surface,-104.063,25.9842,284.99
2018-11-23 00:00:00,2018-11-23 00:00:00,TMP,surface,-103.125,25.9842,285.602
2018-11-23 00:00:00,2018-11-23 00:00:00,TMP,surface,-102.188,25.9842,285.232
2018-11-23 00:00:00,2018-11-23 00:00:00,TMP,surface,-101.25,25.9842,284.329
2018-11-23 00:00:00,2018-11-23 00:00:00,TMP,surface,-100.313,25.9842,284.328
2018-11-23 00:00:00,2018-11-23 00:00:00,TMP,surface,-99.3754,25.9842,285.877
2018-11-23 00:00:00,2018-11-23 00:00:00,TMP,surface,-98.4379,25.9842,287.549
2018-11-23 00:00:00,2018-11-23 00:00:00,TMP,surface,-97.5004,25.9842,289.496
2018-11-23 00:00:00,2018-11-23 00:00:00,TMP,surface,-96.5629,25.9842,293.494
2018-11-23 00:00:00,2018-11-23 00:00:00,TMP,surface,-95.6254,25.9842,294.502
2018-11-23 00:00:00,2018-11-23 00:00:00,TMP,surface,-94.6879,25.9842,295.315
2018-11-23 00:00:00,2018-11-23 00:00:00,TMP,surface,-93.7504,25.9842,295.403
2018-11-23 00:00:00,2018-11-23 00:00:00,TMP,surface,-92.8129,25.9842,295.395
2018-11-23 00:00:00,2018-11-23 00:00:00,TMP,surface,-107.813,26.929,284.616
2018-11-23 00:00:00,2018-11-23 00:00:00,TMP,surface,-106.875,26.929,280.374
2018-11-23 00:00:00,2018-11-23 00:00:00,TMP,surface,-105.938,26.929,281.706
2018-11-23 00:00:00,2018-11-23 00:00:00,TMP,surface,-105,26.929,284.161
2018-11-23 00:00:00,2018-11-23 00:00:00,TMP,surface,-104.063,26.929,284.542
2018-11-23 00:00:00,2018-11-23 00:00:00,TMP,surface,-103.125,26.929,283.677
2018-11-23 00:00:00,2018-11-23 00:00:00,TMP,surface,-102.188,26.929,283.533
2018-11-23 00:00:00,2018-11-23 00:00:00,TMP,surface,-101.25,26.929,284.168
2018-11-23 00:00:00,2018-11-23 00:00:00,TMP,surface,-100.313,26.929,284.661
2018-11-23 00:00:00,2018-11-23 00:00:00,TMP,surface,-99.3754,26.929,285.43
2018-11-23 00:00:00,2018-11-23 00:00:00,TMP,surface,-98.4379,26.929,286.107
2018-11-23 00:00:00,2018-11-23 00:00:00,TMP,surface,-97.5004,26.929,291.533
2018-11-23 00:00:00,2018-11-23 00:00:00,TMP,surface,-96.5629,26.929,292.552
2018-11-23 00:00:00,2018-11-23 00:00:00,TMP,surface,-95.6254,26.929,293.606
2018-11-23 00:00:00,2018-11-23 00:00:00,TMP,surface,-94.6879,26.929,294.283
2018-11-23 00:00:00,2018-11-23 00:00:00,TMP,surface,-93.7504,26.929,294.384
2018-11-23 00:00:00,2018-11-23 00:00:00,TMP,surface,-92.8129,26.929,294.483
2018-11-23 00:00:00,2018-11-23 00:00:00,TMP,surface,-107.813,27.8739,280.984
2018-11-23 00:00:00,2018-11-23 00:00:00,TMP,surface,-106.875,27.8739,278.938
2018-11-23 00:00:00,2018-11-23 00:00:00,TMP,surface,-105.938,27.8739,281.968
2018-11-23 00:00:00,2018-11-23 00:00:00,TMP,surface,-105,27.8739,283.874
2018-11-23 00:00:00,2018-11-23 00:00:00,TMP,surface,-104.063,27.8739,283.701
2018-11-23 00:00:00,2018-11-23 00:00:00,TMP,surface,-103.125,27.8739,282.51
2018-11-23 00:00:00,2018-11-23 00:00:00,TMP,surface,-102.188,27.8739,282.617
2018-11-23 00:00:00,2018-11-23 00:00:00,TMP,surface,-101.25,27.8739,283.619
2018-11-23 00:00:00,2018-11-23 00:00:00,TMP,surface,-100.313,27.8739,284.406
2018-11-23 00:00:00,2018-11-23 00:00:00,TMP,surface,-99.3754,27.8739,284.505
2018-11-23 00:00:00,2018-11-23 00:00:00,TMP,surface,-98.4379,27.8739,284.744
2018-11-23 00:00:00,2018-11-23 00:00:00,TMP,surface,-97.5004,27.8739,288.53
2018-11-23 00:00:00,2018-11-23 00:00:00,TMP,surface,-96.5629,27.8739,292.413
2018-11-23 00:00:00,2018-11-23 00:00:00,TMP,surface,-95.6254,27.8739,292.963
2018-11-23 00:00:00,2018-11-23 00:00:00,TMP,surface,-94.6879,27.8739,293.174
2018-11-23 00:00:00,2018-11-23 00:00:00,TMP,surface,-93.7504,27.8739,293.198
2018-11-23 00:00:00,2018-11-23 00:00:00,TMP,surface,-92.8129,27.8739,293.213
2018-11-23 00:00:00,2018-11-23 00:00:00,TMP,surface,-107.813,28.8188,279.179
2018-11-23 00:00:00,2018-11-23 00:00:00,TMP,surface,-106.875,28.8188,279.176
2018-11-23 00:00:00,2018-11-23 00:00:00,TMP,surface,-105.938,28.8188,281.707
2018-11-23 00:00:00,2018-11-23 00:00:00,TMP,surface,-105,28.8188,282.574
2018-11-23 00:00:00,2018-11-23 00:00:00,TMP,surface,-104.063,28.8188,281.637
2018-11-23 00:00:00,2018-11-23 00:00:00,TMP,surface,-103.125,28.8188,281.36
2018-11-23 00:00:00,2018-11-23 00:00:00,TMP,surface,-102.188,28.8188,281.883
2018-11-23 00:00:00,2018-11-23 00:00:00,TMP,surface,-101.25,28.8188,282.866
2018-11-23 00:00:00,2018-11-23 00:00:00,TMP,surface,-100.313,28.8188,283.166
2018-11-23 00:00:00,2018-11-23 00:00:00,TMP,surface,-99.3754,28.8188,282.981
2018-11-23 00:00:00,2018-11-23 00:00:00,TMP,surface,-98.4379,28.8188,283.014
2018-11-23 00:00:00,2018-11-23 00:00:00,TMP,surface,-97.5004,28.8188,283.603
2018-11-23 00:00:00,2018-11-23 00:00:00,TMP,surface,-96.5629,28.8188,284.661
2018-11-23 00:00:00,2018-11-23 00:00:00,TMP,surface,-95.6254,28.8188,287.922
2018-11-23 00:00:00,2018-11-23 00:00:00,TMP,surface,-94.6879,28.8188,292.065
2018-11-23 00:00:00,2018-11-23 00:00:00,TMP,surface,-93.7504,28.8188,291.984
2018-11-23 00:00:00,2018-11-23 00:00:00,TMP,surface,-92.8129,28.8188,291.976
2018-11-23 00:00:00,2018-11-23 00:00:00,TMP,surface,-107.813,29.7637,279.603
2018-11-23 00:00:00,2018-11-23 00:00:00,TMP,surface,-106.875,29.7637,280.129
2018-11-23 00:00:00,2018-11-23 00:00:00,TMP,surface,-105.938,29.7637,281.522
2018-11-23 00:00:00,2018-11-23 00:00:00,TMP,surface,-105,29.7637,280.747
2018-11-23 00:00:00,2018-11-23 00:00:00,TMP,surface,-104.063,29.7637,280.642
2018-11-23 00:00:00,2018-11-23 00:00:00,TMP,surface,-103.125,29.7637,280.978
2018-11-23 00:00:00,2018-11-23 00:00:00,TMP,surface,-102.188,29.7637,281.608
2018-11-23 00:00:00,2018-11-23 00:00:00,TMP,surface,-101.25,29.7637,281.814
2018-11-23 00:00:00,2018-11-23 00:00:00,TMP,surface,-100.313,29.7637,281.528
2018-11-23 00:00:00,2018-11-23 00:00:00,TMP,surface,-99.3754,29.7637,281.419
2018-11-23 00:00:00,2018-11-23 00:00:00,TMP,surface,-98.4379,29.7637,281.686
2018-11-23 00:00:00,2018-11-23 00:00:00,TMP,surface,-97.5004,29.7637,281.952
2018-11-23 00:00:00,2018-11-23 00:00:00,TMP,surface,-96.5629,29.7637,282.389
2018-11-23 00:00:00,2018-11-23 00:00:00,TMP,surface,-95.6254,29.7637,283.349
2018-11-23 00:00:00,2018-11-23 00:00:00,TMP,surface,-94.6879,29.7637,286.342
2018-11-23 00:00:00,2018-11-23 00:00:00,TMP,surface,-93.7504,29.7637,289.592
2018-11-23 00:00:00,2018-11-23 00:00:00,TMP,surface,-92.8129,29.7637,284.974
2018-11-23 00:00:00,2018-11-23 00:00:00,TMP,surface,-107.813,30.7085,280.478
2018-11-23 00:00:00,2018-11-23 00:00:00,TMP,surface,-106.875,30.7085,281.099
2018-11-23 00:00:00,2018-11-23 00:00:00,TMP,surface,-105.938,30.7085,280.517
2018-11-23 00:00:00,2018-11-23 00:00:00,TMP,surface,-105,30.7085,279.68
2018-11-23 00:00:00,2018-11-23 00:00:00,TMP,surface,-104.063,30.7085,279.578
2018-11-23 00:00:00,2018-11-23 00:00:00,TMP,surface,-103.125,30.7085,280.382
2018-11-23 00:00:00,2018-11-23 00:00:00,TMP,surface,-102.188,30.7085,280.619
2018-11-23 00:00:00,2018-11-23 00:00:00,TMP,surface,-101.25,30.7085,280.413
2018-11-23 00:00:00,2018-11-23 00:00:00,TMP,surface,-100.313,30.7085,280.219
2018-11-23 00:00:00,2018-11-23 00:00:00,TMP,surface,-99.3754,30.7085,280.477
2018-11-23 00:00:00,2018-11-23 00:00:00,TMP,surface,-98.4379,30.7085,280.947
2018-11-23 00:00:00,2018-11-23 00:00:00,TMP,surface,-97.5004,30.7085,281.299
2018-11-23 00:00:00,2018-11-23 00:00:00,TMP,surface,-96.5629,30.7085,281.499
2018-11-23 00:00:00,2018-11-23 00:00:00,TMP,surface,-95.6254,30.7085,281.685
2018-11-23 00:00:00,2018-11-23 00:00:00,TMP,surface,-94.6879,30.7085,281.878
2018-11-23 00:00:00,2018-11-23 00:00:00,TMP,surface,-93.7504,30.7085,281.882
2018-11-23 00:00:00,2018-11-23 00:00:00,TMP,surface,-92.8129,30.7085,281.64
2018-11-23 00:00:00,2018-11-23 00:00:00,TMP,surface,-107.813,31.6534,279.617
2018-11-23 00:00:00,2018-11-23 00:00:00,TMP,surface,-106.875,31.6534,279.88
2018-11-23 00:00:00,2018-11-23 00:00:00,TMP,surface,-105.938,31.6534,278.699
2018-11-23 00:00:00,2018-11-23 00:00:00,TMP,surface,-105,31.6534,278.464
2018-11-23 00:00:00,2018-11-23 00:00:00,TMP,surface,-104.063,31.6534,278.826
2018-11-23 00:00:00,2018-11-23 00:00:00,TMP,surface,-103.125,31.6534,279.262
2018-11-23 00:00:00,2018-11-23 00:00:00,TMP,surface,-102.188,31.6534,279.513
2018-11-23 00:00:00,2018-11-23 00:00:00,TMP,surface,-101.25,31.6534,279.427
2018-11-23 00:00:00,2018-11-23 00:00:00,TMP,surface,-100.313,31.6534,279.499
2018-11-23 00:00:00,2018-11-23 00:00:00,TMP,surface,-99.3754,31.6534,279.867
2018-11-23 00:00:00,2018-11-23 00:00:00,TMP,surface,-98.4379,31.6534,280.397
2018-11-23 00:00:00,2018-11-23 00:00:00,TMP,surface,-97.5004,31.6534,280.818
2018-11-23 00:00:00,2018-11-23 00:00:00,TMP,surface,-96.5629,31.6534,281.086
2018-11-23 00:00:00,2018-11-23 00:00:00,TMP,surface,-95.6254,31.6534,281.093
2018-11-23 00:00:00,2018-11-23 00:00:00,TMP,surface,-94.6879,31.6534,280.736
2018-11-23 00:00:00,2018-11-23 00:00:00,TMP,surface,-93.7504,31.6534,280.43
2018-11-23 00:00:00,2018-11-23 00:00:00,TMP,surface,-92.8129,31.6534,280.345
2018-11-23 00:00:00,2018-11-23 00:00:00,TMP,surface,-107.813,32.5983,277.409
2018-11-23 00:00:00,2018-11-23 00:00:00,TMP,surface,-106.875,32.5983,277.322
2018-11-23 00:00:00,2018-11-23 00:00:00,TMP,surface,-105.938,32.5983,277.189
2018-11-23 00:00:00,2018-11-23 00:00:00,TMP,surface,-105,32.5983,277.147
2018-11-23 00:00:00,2018-11-23 00:00:00,TMP,surface,-104.063,32.5983,277.76
2018-11-23 00:00:00,2018-11-23 00:00:00,TMP,surface,-103.125,32.5983,278.331
2018-11-23 00:00:00,2018-11-23 00:00:00,TMP,surface,-102.188,32.5983,278.333
2018-11-23 00:00:00,2018-11-23 00:00:00,TMP,surface,-101.25,32.5983,278.594
2018-11-23 00:00:00,2018-11-23 00:00:00,TMP,surface,-100.313,32.5983,279.038
2018-11-23 00:00:00,2018-11-23 00:00:00,TMP,surface,-99.3754,32.5983,279.528
2018-11-23 00:00:00,2018-11-23 00:00:00,TMP,surface,-98.4379,32.5983,279.883
2018-11-23 00:00:00,2018-11-23 00:00:00,TMP,surface,-97.5004,32.5983,280.227
2018-11-23 00:00:00,2018-11-23 00:00:00,TMP,surface,-96.5629,32.5983,280.491
2018-11-23 00:00:00,2018-11-23 00:00:00,TMP,surface,-95.6254,32.5983,280.426
2018-11-23 00:00:00,2018-11-23 00:00:00,TMP,surface,-94.6879,32.5983,280.085
2018-11-23 00:00:00,2018-11-23 00:00:00,TMP,surface,-93.7504,32.5983,279.752
2018-11-23 00:00:00,2018-11-23 00:00:00,TMP,surface,-92.8129,32.5983,279.803
2018-11-23 00:00:00,2018-11-23 00:00:00,TMP,surface,-107.813,33.5432,274.891
2018-11-23 00:00:00,2018-11-23 00:00:00,TMP,surface,-106.875,33.5432,275.888
2018-11-23 00:00:00,2018-11-23 00:00:00,TMP,surface,-105.938,33.5432,276.496
2018-11-23 00:00:00,2018-11-23 00:00:00,TMP,surface,-105,33.5432,276.609
2018-11-23 00:00:00,2018-11-23 00:00:00,TMP,surface,-104.063,33.5432,277.021
2018-11-23 00:00:00,2018-11-23 00:00:00,TMP,surface,-103.125,33.5432,277.531
2018-11-23 00:00:00,2018-11-23 00:00:00,TMP,surface,-102.188,33.5432,277.488
2018-11-23 00:00:00,2018-11-23 00:00:00,TMP,surface,-101.25,33.5432,277.806
2018-11-23 00:00:00,2018-11-23 00:00:00,TMP,surface,-100.313,33.5432,278.429
2018-11-23 00:00:00,2018-11-23 00:00:00,TMP,surface,-99.3754,33.5432,278.949
2018-11-23 00:00:00,2018-11-23 00:00:00,TMP,surface,-98.4379,33.5432,279.195
2018-11-23 00:00:00,2018-11-23 00:00:00,TMP,surface,-97.5004,33.5432,279.261
2018-11-23 00:00:00,2018-11-23 00:00:00,TMP,surface,-96.5629,33.5432,279.337
2018-11-23 00:00:00,2018-11-23 00:00:00,TMP,surface,-95.6254,33.5432,279.408
2018-11-23 00:00:00,2018-11-23 00:00:00,TMP,surface,-94.6879,33.5432,279.245
2018-11-23 00:00:00,2018-11-23 00:00:00,TMP,surface,-93.7504,33.5432,278.941
2018-11-23 00:00:00,2018-11-23 00:00:00,TMP,surface,-92.8129,33.5432,278.914
2018-11-23 00:00:00,2018-11-23 00:00:00,TMP,surface,-107.813,34.4881,273.712
2018-11-23 00:00:00,2018-11-23 00:00:00,TMP,surface,-106.875,34.4881,274.859
2018-11-23 00:00:00,2018-11-23 00:00:00,TMP,surface,-105.938,34.4881,275.408
2018-11-23 00:00:00,2018-11-23 00:00:00,TMP,surface,-105,34.4881,275.757
2018-11-23 00:00:00,2018-11-23 00:00:00,TMP,surface,-104.063,34.4881,276.512
2018-11-23 00:00:00,2018-11-23 00:00:00,TMP,surface,-103.125,34.4881,277.133
2018-11-23 00:00:00,2018-11-23 00:00:00,TMP,surface,-102.188,34.4881,277.184
2018-11-23 00:00:00,2018-11-23 00:00:00,TMP,surface,-101.25,34.4881,277.261
2018-11-23 00:00:00,2018-11-23 00:00:00,TMP,surface,-100.313,34.4881,277.64
2018-11-23 00:00:00,2018-11-23 00:00:00,TMP,surface,-99.3754,34.4881,278.093
2018-11-23 00:00:00,2018-11-23 00:00:00,TMP,surface,-98.4379,34.4881,278.358
2018-11-23 00:00:00,2018-11-23 00:00:00,TMP,surface,-97.5004,34.4881,278.427
2018-11-23 00:00:00,2018-11-23 00:00:00,TMP,surface,-96.5629,34.4881,278.483
2018-11-23 00:00:00,2018-11-23 00:00:00,TMP,surface,-95.6254,34.4881,278.379
2018-11-23 00:00:00,2018-11-23 00:00:00,TMP,surface,-94.6879,34.4881,277.968
2018-11-23 00:00:00,2018-11-23 00:00:00,TMP,surface,-93.7504,34.4881,277.696
2018-11-23 00:00:00,2018-11-23 00:00:00,TMP,surface,-92.8129,34.4881,277.754
2018-11-23 00:00:00,2018-11-23 00:00:00,TMP,surface,-107.813,35.4329,273.27
2018-11-23 00:00:00,2018-11-23 00:00:00,TMP,surface,-106.875,35.4329,273.589
2018-11-23 00:00:00,2018-11-23 00:00:00,TMP,surface,-105.938,35.4329,274.416
2018-11-23 00:00:00,2018-11-23 00:00:00,TMP,surface,-105,35.4329,275.15
2018-11-23 00:00:00,2018-11-23 00:00:00,TMP,surface,-104.063,35.4329,276.194
2018-11-23 00:00:00,2018-11-23 00:00:00,TMP,surface,-103.125,35.4329,277.229
2018-11-23 00:00:00,2018-11-23 00:00:00,TMP,surface,-102.188,35.4329,277.272
2018-11-23 00:00:00,2018-11-23 00:00:00,TMP,surface,-101.25,35.4329,277.144
2018-11-23 00:00:00,2018-11-23 00:00:00,TMP,surface,-100.313,35.4329,277.272
2018-11-23 00:00:00,2018-11-23 00:00:00,TMP,surface,-99.3754,35.4329,277.304
2018-11-23 00:00:00,2018-11-23 00:00:00,TMP,surface,-98.4379,35.4329,277.384
2018-11-23 00:00:00,2018-11-23 00:00:00,TMP,surface,-97.5004,35.4329,277.658
2018-11-23 00:00:00,2018-11-23 00:00:00,TMP,surface,-96.5629,35.4329,277.859
2018-11-23 00:00:00,2018-11-23 00:00:00,TMP,surface,-95.6254,35.4329,277.698
2018-11-23 00:00:00,2018-11-23 00:00:00,TMP,surface,-94.6879,35.4329,277.213
2018-11-23 00:00:00,2018-11-23 00:00:00,TMP,surface,-93.7504,35.4329,276.694
2018-11-23 00:00:00,2018-11-23 00:00:00,TMP,surface,-92.8129,35.4329,276.48
2018-11-23 00:00:00,2018-11-23 00:00:00,TMP,surface,-107.813,36.3778,272.421
2018-11-23 00:00:00,2018-11-23 00:00:00,TMP,surface,-106.875,36.3778,271.345
2018-11-23 00:00:00,2018-11-23 00:00:00,TMP,surface,-105.938,36.3778,272.189
2018-11-23 00:00:00,2018-11-23 00:00:00,TMP,surface,-105,36.3778,273.589
2018-11-23 00:00:00,2018-11-23 00:00:00,TMP,surface,-104.063,36.3778,275.077
2018-11-23 00:00:00,2018-11-23 00:00:00,TMP,surface,-103.125,36.3778,276.35
2018-11-23 00:00:00,2018-11-23 00:00:00,TMP,surface,-102.188,36.3778,277.07
2018-11-23 00:00:00,2018-11-23 00:00:00,TMP,surface,-101.25,36.3778,277.291
2018-11-23 00:00:00,2018-11-23 00:00:00,TMP,surface,-100.313,36.3778,277.28
2018-11-23 00:00:00,2018-11-23 00:00:00,TMP,surface,-99.3754,36.3778,277.12
2018-11-23 00:00:00,2018-11-23 00:00:00,TMP,surface,-98.4379,36.3778,276.824
2018-11-23 00:00:00,2018-11-23 00:00:00,TMP,surface,-97.5004,36.3778,276.843
2018-11-23 00:00:00,2018-11-23 00:00:00,TMP,surface,-96.5629,36.3778,277.062
2018-11-23 00:00:00,2018-11-23 00:00:00,TMP,surface,-95.6254,36.3778,276.891
2018-11-23 00:00:00,2018-11-23 00:00:00,TMP,surface,-94.6879,36.3778,276.258
2018-11-23 00:00:00,2018-11-23 00:00:00,TMP,surface,-93.7504,36.3778,275.584
2018-11-23 00:00:00,2018-11-23 00:00:00,TMP,surface,-92.8129,36.3778,275.414
2018-11-23 00:00:00,2018-11-23 00:00:00,PRATE,surface,-107.813,25.0393,3.6e-06
2018-11-23 00:00:00,2018-11-23 00:00:00,PRATE,surface,-106.875,25.0393,4.3e-06
2018-11-23 00:00:00,2018-11-23 00:00:00,PRATE,surface,-105.938,25.0393,6.8e-06
2018-11-23 00:00:00,2018-11-23 00:00:00,PRATE,surface,-105,25.0393,9e-06
2018-11-23 00:00:00,2018-11-23 00:00:00,PRATE,surface,-104.063,25.0393,7e-06
2018-11-23 00:00:00,2018-11-23 00:00:00,PRATE,surface,-103.125,25.0393,5.9e-06
2018-11-23 00:00:00,2018-11-23 00:00:00,PRATE,surface,-102.188,25.0393,8.7e-06
2018-11-23 00:00:00,2018-11-23 00:00:00,PRATE,surface,-101.25,25.0393,1.69e-05
2018-11-23 00:00:00,2018-11-23 00:00:00,PRATE,surface,-100.313,25.0393,2.33e-05
2018-11-23 00:00:00,2018-11-23 00:00:00,PRATE,surface,-99.3754,25.0393,1.76e-05
2018-11-23 00:00:00,2018-11-23 00:00:00,PRATE,surface,-98.4379,25.0393,2.12e-05
2018-11-23 00:00:00,2018-11-23 00:00:00,PRATE,surface,-97.5004,25.0393,2.54e-05
2018-11-23 00:00:00,2018-11-23 00:00:00,PRATE,surface,-96.5629,25.0393,3.25e-05
2018-11-23 00:00:00,2018-11-23 00:00:00,PRATE,surface,-95.6254,25.0393,4.13e-05
2018-11-23 00:00:00,2018-11-23 00:00:00,PRATE,surface,-94.6879,25.0393,3.97e-05
2018-11-23 00:00:00,2018-11-23 00:00:00,PRATE,surface,-93.7504,25.0393,2.97e-05
2018-11-23 00:00:00,2018-11-23 00:00:00,PRATE,surface,-92.8129,25.0393,2.96e-05
2018-11-23 00:00:00,2018-11-23 00:00:00,PRATE,surface,-107.813,25.9842,5.7e-06
2018-11-23 00:00:00,2018-11-23 00:00:00,PRATE,surface,-106.875,25.9842,5.1e-06
2018-11-23 00:00:00,2018-11-23 00:00:00,PRATE,surface,-105.938,25.9842,5.7e-06
2018-11-23 00:00:00,2018-11-23 00:00:00,PRATE,surface,-105,25.9842,7.1e-06
2018-11-23 00:00:00,2018-11-23 00:00:00,PRATE,surface,-104.063,25.9842,5.6e-06
2018-11-23 00:00:00,2018-11-23 00:00:00,PRATE,surface,-103.125,25.9842,5.4e-06
2018-11-23 00:00:00,2018-11-23 00:00:00,PRATE,surface,-102.188,25.9842,1.11e-05
2018-11-23 00:00:00,2018-11-23 00:00:00,PRATE,surface,-101.25,25.9842,2.13e-05
2018-11-23 00:00:00,2018-11-23 00:00:00,PRATE,surface,-100.313,25.9842,2.74e-05
2018-11-23 00:00:00,2018-11-23 00:00:00,PRATE,surface,-99.3754,25.9842,2.76e-05
2018-11-23 00:00:00,2018-11-23 00:00:00,PRATE,surface,-98.4379,25.9842,2.9e-05
2018-11-23 00:00:00,2018-11-23 00:00:00,PRATE,surface,-97.5004,25.9842,2.6e-05
2018-11-23 00:00:00,2018-11-23 00:00:00,PRATE,surface,-96.5629,25.9842,2.51e-05
2018-11-23 00:00:00,2018-11-23 00:00:00,PRATE,surface,-95.6254,25.9842,4e-05
2018-11-23 00:00:00,2018-11-23 00:00:00,PRATE,surface,-94.6879,25.9842,3.41e-05
2018-11-23 00:00:00,2018-11-23 00:00:00,PRATE,surface,-93.7504,25.9842,2.39e-05
2018-11-23 00:00:00,2018-11-23 00:00:00,PRATE,surface,-92.8129,25.9842,2.37e-05
2018-11-23 00:00:00,2018-11-23 00:00:00,PRATE,surface,-107.813,26.929,9.3e-06
2018-11-23 00:00:00,2018-11-23 00:00:00,PRATE,surface,-106.875,26.929,4e-06
2018-11-23 00:00:00,2018-11-23 00:00:00,PRATE,surface,-105.938,26.929,4.4e-06
2018-11-23 00:00:00,2018-11-23 00:00:00,PRATE,surface,-105,26.929,5e-06
2018-11-23 00:00:00,2018-11-23 00:00:00,PRATE,surface,-104.063,26.929,6.7e-06
2018-11-23 00:00:00,2018-11-23 00:00:00,PRATE,surface,-103.125,26.929,1.08e-05
2018-11-23 00:00:00,2018-11-23 00:00:00,PRATE,surface,-102.188,26.929,1.65e-05
2018-11-23 00:00:00,2018-11-23 00:00:00,PRATE,surface,-101.25,26.929,2.12e-05
2018-11-23 00:00:00,2018-11-23 00:00:00,PRATE,surface,-100.313,26.929,2.55e-05
2018-11-23 00:00:00,2018-11-23 00:00:00,PRATE,surface,-99.3754,26.929,3.14e-05
2018-11-23 00:00:00,2018-11-23 00:00:00,PRATE,surface,-98.4379,26.929,3.37e-05
2018-11-23 00:00:00,2018-11-23 00:00:00,PRATE,surface,-97.5004,26.929,3.29e-05
2018-11-23 00:00:00,2018-11-23 00:00:00,PRATE,surface,-96.5629,26.929,3.27e-05
2018-11-23 00:00:00,2018-11-23 00:00:00,PRATE,surface,-95.6254,26.929,4.07e-05
2018-11-23 00:00:00,2018-11-23 00:00:00,PRATE,surface,-94.6879,26.929,3.84e-05
2018-11-23 00:00:00,2018-11-23 00:00:00,PRATE,surface,-93.7504,26.929,2.53e-05
2018-11-23 00:00:00,2018-11-23 00:00:00,PRATE,surface,-92.8129,26.929,2.51e-05
2018-11-23 00:00:00,2018-11-23 00:00:00,PRATE,surface,-107.813,27.8739,1.12e-05
2018-11-23 00:00:00,2018-11-23 00:00:00,PRATE,surface,-106.875,27.8739,4.8e-06
2018-11-23 00:00:00,2018-11-23 00:00:00,PRATE,surface,-105.938,27.8739,3.1e-06
2018-11-23 00:00:00,2018-11-23 00:00:00,PRATE,surface,-105,27.8739,2.9e-06
2018-11-23 00:00:00,2018-11-23 00:00:00,PRATE,surface,-104.063,27.8739,1.22e-05
2018-11-23 00:00:00,2018-11-23 00:00:00,PRATE,surface,-103.125,27.8739,1.82e-05
2018-11-23 00:00:00,2018-11-23 00:00:00,PRATE,surface,-102.188,27.8739,1.97e-05
2018-11-23 00:00:00,2018-11-23 00:00:00,PRATE,surface,-101.25,27.8739,1.91e-05
2018-11-23 00:00:00,2018-11-23 00:00:00,PRATE,surface,-100.313,27.8739,2.21e-05
2018-11-23 00:00:00,2018-11-23 00:00:00,PRATE,surface,-99.3754,27.8739,2.95e-05
2018-11-23 00:00:00,2018-11-23 00:00:00,PRATE,surface,-98.4379,27.8739,3.68e-05
2018-11-23 00:00:00,2018-11-23 00:00:00,PRATE,surface,-97.5004,27.8739,3.96e-05
2018-11-23 00:00:00,2018-11-23 00:00:00,PRATE,surface,-96.5629,27.8739,4.35e-05
2018-11-23 00:00:00,2018-11-23 00:00:00,PRATE,surface,-95.6254,27.8739,5.04e-05
2018-11-23 00:00:00,2018-11-23 00:00:00,PRATE,surface,-94.6879,27.8739,5.08e-05
2018-11-23 00:00:00,2018-11-23 00:00:00,PRATE,surface,-93.7504,27.8739,4.1e-05
2018-11-23 00:00:00,2018-11-23 00:00:00,PRATE,surface,-92.8129,27.8739,3.18e-05
2018-11-23 00:00:00,2018-11-23 00:00:00,PRATE,surface,-107.813,28.8188,9.6e-06
2018-11-23 00:00:00,2018-11-23 00:00:00,PRATE,surface,-106.875,28.8188,4.2e-06
2018-11-23 00:00:00,2018-11-23 00:00:00,PRATE,surface,-105.938,28.8188,2.2e-06
2018-11-23 00:00:00,2018-11-23 00:00:00,PRATE,surface,-105,28.8188,2.9e-06
2018-11-23 00:00:00,2018-11-23 00:00:00,PRATE,surface,-104.063,28.8188,1.15e-05
2018-11-23 00:00:00,2018-11-23 00:00:00,PRATE,surface,-103.125,28.8188,1.73e-05
2018-11-23 00:00:00,2018-11-23 00:00:00,PRATE,surface,-102.188,28.8188,2.22e-05
2018-11-23 00:00:00,2018-11-23 00:00:00,PRATE,surface,-101.25,28.8188,2.32e-05
2018-11-23 00:00:00,2018-11-23 00:00:00,PRATE,surface,-100.313,28.8188,2.56e-05
2018-11-23 00:00:00,2018-11-23 00:00:00,PRATE,surface,-99.3754,28.8188,3.27e-05
2018-11-23 00:00:00,2018-11-23 00:00:00,PRATE,surface,-98.4379,28.8188,4.19e-05
2018-11-23 00:00:00,2018-11-23 00:00:00,PRATE,surface,-97.5004,28.8188,4.8e-05
2018-11-23 00:00:00,2018-11-23 00:00:00,PRATE,surface,-96.5629,28.8188,5.03e-05
2018-11-23 00:00:00,2018-11-23 00:00:00,PRATE,surface,-95.6254,28.8188,5.32e-05
2018-11-23 00:00:00,2018-11-23 00:00:00,PRATE,surface,-94.6879,28.8188,5.51e-05
2018-11-23 00:00:00,2018-11-23 00:00:00,PRATE,surface,-93.7504,28.8188,4.91e-05
2018-11-23 00:00:00,2018-11-23 00:00:00,PRATE,surface,-92.8129,28.8188,4.15e-05
2018-11-23 00:00:00,2018-11-23 00:00:00,PRATE,surface,-107.813,29.7637,6.4e-06
2018-11-23 00:00:00,2018-11-23 00:00:00,PRATE,surface,-106.875,29.7637,3.6e-06
2018-11-23 00:00:00,2018-11-23 00:00:00,PRATE,surface,-105.938,29.7637,4e-06
2018-11-23 00:00:00,2018-11-23 00:00:00,PRATE,surface,-105,29.7637,4.5e-06
2018-11-23 00:00:00,2018-11-23 00:00:00,PRATE,surface,-104.063,29.7637,7.8e-06
2018-11-23 00:00:00,2018-11-23 00:00:00,PRATE,surface,-103.125,29.7637,1.32e-05
2018-11-23 00:00:00,2018-11-23 00:00:00,PRATE,surface,-102.188,29.7637,2.07e-05
2018-11-23 00:00:00,2018-11-23 00:00:00,PRATE,surface,-101.25,29.7637,2.46e-05
2018-11-23 00:00:00,2018-11-23 00:00:00,PRATE,surface,-100.313,29.7637,2.75e-05
2018-11-23 00:00:00,2018-11-23 00:00:00,PRATE,surface,-99.3754,29.7637,3.25e-05
2018-11-23 00:00:00,2018-11-23 00:00:00,PRATE,surface,-98.4379,29.7637,4.28e-05
2018-11-23 00:00:00,2018-11-23 00:00:00,PRATE,surface,-97.5004,29.7637,5.55e-05
2018-11-23 00:00:00,2018-11-23 00:00:00,PRATE,surface,-96.5629,29.7637,5.82e-05
2018-11-23 00:00:00,2018-11-23 00:00:00,PRATE,surface,-95.6254,29.7637,5.15e-05
2018-11-23 00:00:00,2018-11-23 00:00:00,PRATE,surface,-94.6879,29.7637,5.22e-05
2018-11-23 00:00:00,2018-11-23 00:00:00,PRATE,surface,-93.7504,29.7637,5.69e-05
2018-11-23 00:00:00,2018-11-23 00:00:00,PRATE,surface,-92.8129,29.7637,5.16e-05
2018-11-23 00:00:00,2018-11-23 00:00:00,PRATE,surface,-107.813,30.7085,5.1e-06
2018-11-23 00:00:00,2018-11-23 00:00:00,PRATE,surface,-106.875,30.7085,5.4e-06
2018-11-23 00:00:00,2018-11-23 00:00:00,PRATE,surface,-105.938,30.7085,7.4e-06
2018-11-23 00:00:00,2018-11-23 00:00:00,PRATE,surface,-105,30.7085,8.1e-06
2018-11-23 00:00:00,2018-11-23 00:00:00,PRATE,surface,-104.063,30.7085,8.7e-06
2018-11-23 00:00:00,2018-11-23 00:00:00,PRATE,surface,-103.125,30.7085,1.25e-05
2018-11-23 00:00:00,2018-11-23 00:00:00,PRATE,surface,-102.188,30.7085,1.69e-05
2018-11-23 00:00:00,2018-11-23 00:00:00,PRATE,surface,-101.25,30.7085,2.07e-05
2018-11-23 00:00:00,2018-11-23 00:00:00,PRATE,surface,-100.313,30.7085,2.31e-05
2018-11-23 00:00:00,2018-11-23 00:00:00,PRATE,surface,-99.3754,30.7085,2.52e-05
2018-11-23 00:00:00,2018-11-23 00:00:00,PRATE,surface,-98.4379,30.7085,3.4e-05
2018-11-23 00:00:00,2018-11-23 00:00:00,PRATE,surface,-97.5004,30.7085,5.28e-05
2018-11-23 00:00:00,2018-11-23 00:00:00,PRATE,surface,-96.5629,30.7085,6.45e-05
2018-11-23 00:00:00,2018-11-23 00:00:00,PRATE,surface,-95.6254,30.7085,5.86e-05
2018-11-23 00:00:00,2018-11-23 00:00:00,PRATE,surface,-94.6879,30.7085,5.22e-05
2018-11-23 00:00:00,2018-11-23 00:00:00,PRATE,surface,-93.7504,30.7085,5.72e-05
2018-11-23 00:00:00,2018-11-23 00:00:00,PRATE,surface,-92.8129,30.7085,6.18e-05
2018-11-23 00:00:00,2018-11-23 00:00:00,PRATE,surface,-107.813,31.6534,7.6e-06
2018-11-23 00:00:00,2018-11-23 00:00:00,PRATE,surface,-106.875,31.6534,1.16e-05
2018-11-23 00:00:00,2018-11-23 00:00:00,PRATE,surface,-105.938,31.6534,1.34e-05
2018-11-23 00:00:00,2018-11-23 00:00:00,PRATE,surface,-105,31.6534,1.31e-05
2018-11-23 00:00:00,2018-11-23 00:00:00,PRATE,surface,-104.063,31.6534,1.25e-05
2018-11-23 00:00:00,2018-11-23 00:00:00,PRATE,surface,-103.125,31.6534,1.49e-05
2018-11-23 00:00:00,2018-11-23 00:00:00,PRATE,surface,-102.188,31.6534,1.53e-05
2018-11-23 00:00:00,2018-11-23 00:00:00,PRATE,surface,-101.25,31.6534,1.61e-05
2018-11-23 00:00:00,2018-11-23 00:00:00,PRATE,surface,-100.313,31.6534,1.67e-05
2018-11-23 00:00:00,2018-11-23 00:00:00,PRATE,surface,-99.3754,31.6534,1.78e-05
2018-11-23 00:00:00,2018-11-23 00:00:00,PRATE,surface,-98.4379,31.6534,2.32e-05
2018-11-23 00:00:00,2018-11-23 00:00:00,PRATE,surface,-97.5004,31.6534,3.84e-05
2018-11-23 00:00:00,2018-11-23 00:00:00,PRATE,surface,-96.5629,31.6534,5.83e-05
2018-11-23 00:00:00,2018-11-23 00:00:00,PRATE,surface,-95.6254,31.6534,6.72e-05
2018-11-23 00:00:00,2018-11-23 00:00:00,PRATE,surface,-94.6879,31.6534,6.33e-05
2018-11-23 00:00:00,2018-11-23 00:00:00,PRATE,surface,-93.7504,31.6534,6.24e-05
2018-11-23 00:00:00,2018-11-23 00:00:00,PRATE,surface,-92.8129,31.6534,6.6e-05
2018-11-23 00:00:00,2018-11-23 00:00:00,PRATE,surface,-107.813,32.5983,1.14e-05
2018-11-23 00:00:00,2018-11-23 00:00:00,PRATE,surface,-106.875,32.5983,1.11e-05
2018-11-23 00:00:00,2018-11-23 00:00:00,PRATE,surface,-105.938,32.5983,1.76e-05
2018-11-23 00:00:00,2018-11-23 00:00:00,PRATE,surface,-105,32.5983,2.24e-05
2018-11-23 00:00:00,2018-11-23 00:00:00,PRATE,surface,-104.063,32.5983,2.17e-05
2018-11-23 00:00:00,2018-11-23 00:00:00,PRATE,surface,-103.125,32.5983,1.96e-05
2018-11-23 00:00:00,2018-11-23 00:00:00,PRATE,surface,-102.188,32.5983,1.95e-05
2018-11-23 00:00:00,2018-11-23 00:00:00,PRATE,surface,-101.25,32.5983,1.9e-05
2018-11-23 00:00:00,2018-11-23 00:00:00,PRATE,surface,-100.313,32.5983,1.82e-05
2018-11-23 00:00:00,2018-11-23 00:00:00,PRATE,surface,-99.3754,32.5983,1.89e-05
2018-11-23 00:00:00,2018-11-23 00:00:00,PRATE,surface,-98.4379,32.5983,2.3e-05
2018-11-23 00:00:00,2018-11-23 00:00:00,PRATE,surface,-97.5004,32.5983,3.27e-05
2018-11-23 00:00:00,2018-11-23 00:00:00,PRATE,surface,-96.5629,32.5983,4.79e-05
2018-11-23 00:00:00,2018-11-23 00:00:00,PRATE,surface,-95.6254,32.5983,6.16e-05
2018-11-23 00:00:00,2018-11-23 00:00:00,PRATE,surface,-94.6879,32.5983,6.52e-05
2018-11-23 00:00:00,2018-11-23 00:00:00,PRATE,surface,-93.7504,32.5983,6e-05
2018-11-23 00:00:00,2018-11-23 00:00:00,PRATE,surface,-92.8129,32.5983,5.73e-05
2018-11-23 00:00:00,2018-11-23 00:00:00,PRATE,surface,-107.813,33.5432,1.33e-05
2018-11-23 00:00:00,2018-11-23 00:00:00,PRATE,surface,-106.875,33.5432,1.13e-05
2018-11-23 00:00:00,2018-11-23 00:00:00,PRATE,surface,-105.938,33.5432,1.45e-05
2018-11-23 00:00:00,2018-11-23 00:00:00,PRATE,surface,-105,33.5432,1.87e-05
2018-11-23 00:00:00,2018-11-23 00:00:00,PRATE,surface,-104.063,33.5432,2.09e-05
2018-11-23 00:00:00,2018-11-23 00:00:00,PRATE,surface,-103.125,33.5432,2.22e-05
2018-11-23 00:00:00,2018-11-23 00:00:00,PRATE,surface,-102.188,33.5432,2.5e-05
2018-11-23 00:00:00,2018-11-23 00:00:00,PRATE,surface,-101.25,33.5432,2.58e-05
2018-11-23 00:00:00,2018-11-23 00:00:00,PRATE,surface,-100.313,33.5432,2.24e-05
2018-11-23 00:00:00,2018-11-23 00:00:00,PRATE,surface,-99.3754,33.5432,2.13e-05
2018-11-23 00:00:00,2018-11-23 00:00:00,PRATE,surface,-98.4379,33.5432,2.44e-05
2018-11-23 00:00:00,2018-11-23 00:00:00,PRATE,surface,-97.5004,33.5432,3.02e-05
2018-11-23 00:00:00,2018-11-23 00:00:00,PRATE,surface,-96.5629,33.5432,3.73e-05
2018-11-23 00:00:00,2018-11-23 00:00:00,PRATE,surface,-95.6254,33.5432,4.51e-05
2018-11-23 00:00:00,2018-11-23 00:00:00,PRATE,surface,-94.6879,33.5432,5.17e-05
2018-11-23 00:00:00,2018-11-23 00:00:00,PRATE,surface,-93.7504,33.5432,5.34e-05
2018-11-23 00:00:00,2018-11-23 00:00:00,PRATE,surface,-92.8129,33.5432,5.01e-05
2018-11-23 00:00:00,2018-11-23 00:00:00,PRATE,surface,-107.813,34.4881,1.01e-05
2018-11-23 00:00:00,2018-11-23 00:00:00,PRATE,surface,-106.875,34.4881,8e-06
2018-11-23 00:00:00,2018-11-23 00:00:00,PRATE,surface,-105.938,34.4881,8.8e-06
2018-11-23 00:00:00,2018-11-23 00:00:00,PRATE,surface,-105,34.4881,1.07e-05
2018-11-23 00:00:00,2018-11-23 00:00:00,PRATE,surface,-104.063,34.4881,1.09e-05
2018-11-23 00:00:00,2018-11-23 00:00:00,PRATE,surface,-103.125,34.4881,1.25e-05
2018-11-23 00:00:00,2018-11-23 00:00:00,PRATE,surface,-102.188,34.4881,1.63e-05
2018-11-23 00:00:00,2018-11-23 00:00:00,PRATE,surface,-101.25,34.4881,2.06e-05
2018-11-23 00:00:00,2018-11-23 00:00:00,PRATE,surface,-100.313,34.4881,1.92e-05
2018-11-23 00:00:00,2018-11-23 00:00:00,PRATE,surface,-99.3754,34.4881,1.57e-05
2018-11-23 00:00:00,2018-11-23 00:00:00,PRATE,surface,-98.4379,34.4881,1.58e-05
2018-11-23 00:00:00,2018-11-23 00:00:00,PRATE,surface,-97.5004,34.4881,1.98e-05
2018-11-23 00:00:00,2018-11-23 00:00:00,PRATE,surface,-96.5629,34.4881,2.54e-05
2018-11-23 00:00:00,2018-11-23 00:00:00,PRATE,surface,-95.6254,34.4881,3.06e-05
2018-11-23 00:00:00,2018-11-23 00:00:00,PRATE,surface,-94.6879,34.4881,3.57e-05
2018-11-23 00:00:00,2018-11-23 00:00:00,PRATE,surface,-93.7504,34.4881,4.14e-05
2018-11-23 00:00:00,2018-11-23 00:00:00,PRATE,surface,-92.8129,34.4881,4.47e-05
2018-11-23 00:00:00,2018-11-23 00:00:00,PRATE,surface,-107.813,35.4329,6.7e-06
2018-11-23 00:00:00,2018-11-23 00:00:00,PRATE,surface,-106.875,35.4329,5.4e-06
2018-11-23 00:00:00,2018-11-23 00:00:00,PRATE,surface,-105.938,35.4329,5.5e-06
2018-11-23 00:00:00,2018-11-23 00:00:00,PRATE,surface,-105,35.4329,7.4e-06
2018-11-23 00:00:00,2018-11-23 00:00:00,PRATE,surface,-104.063,35.4329,6.6e-06
2018-11-23 00:00:00,2018-11-23 00:00:00,PRATE,surface,-103.125,35.4329,5.9e-06
2018-11-23 00:00:00,2018-11-23 00:00:00,PRATE,surface,-102.188,35.4329,6.8e-06
2018-11-23 00:00:00,2018-11-23 00:00:00,PRATE,surface,-101.25,35.4329,9.8e-06
2018-11-23 00:00:00,2018-11-23 00:00:00,PRATE,surface,-100.313,35.4329,1.27e-05
2018-11-23 00:00:00,2018-11-23 00:00:00,PRATE,surface,-99.3754,35.4329,1.29e-05
2018-11-23 00:00:00,2018-11-23 00:00:00,PRATE,surface,-98.4379,35.4329,1.31e-05
2018-11-23 00:00:00,2018-11-23 00:00:00,PRATE,surface,-97.5004,35.4329,1.61e-05
2018-11-23 00:00:00,2018-11-23 00:00:00,PRATE,surface,-96.5629,35.4329,2.05e-05
2018-11-23 00:00:00,2018-11-23 00:00:00,PRATE,surface,-95.6254,35.4329,2.46e-05
2018-11-23 00:00:00,2018-11-23 00:00:00,PRATE,surface,-94.6879,35.4329,2.91e-05
2018-11-23 00:00:00,2018-11-23 00:00:00,PRATE,surface,-93.7504,35.4329,3.35e-05
2018-11-23 00:00:00,2018-11-23 00:00:00,PRATE,surface,-92.8129,35.4329,3.55e-05
2018-11-23 00:00:00,2018-11-23 00:00:00,PRATE,surface,-107.813,36.3778,7.6e-06
2018-11-23 00:00:00,2018-11-23 00:00:00,PRATE,surface,-106.875,36.3778,8.2e-06
2018-11-23 00:00:00,2018-11-23 00:00:00,PRATE,surface,-105.938,36.3778,7.4e-06
2018-11-23 00:00:00,2018-11-23 00:00:00,PRATE,surface,-105,36.3778,6.7e-06
2018-11-23 00:00:00,2018-11-23 00:00:00,PRATE,surface,-104.063,36.3778,5.5e-06
2018-11-23 00:00:00,2018-11-23 00:00:00,PRATE,surface,-103.125,36.3778,4.4e-06
2018-11-23 00:00:00,2018-11-23 00:00:00,PRATE,surface,-102.188,36.3778,2.9e-06
2018-11-23 00:00:00,2018-11-23 00:00:00,PRATE,surface,-101.25,36.3778,3.5e-06
2018-11-23 00:00:00,2018-11-23 00:00:00,PRATE,surface,-100.313,36.3778,7.3e-06
2018-11-23 00:00:00,2018-11-23 00:00:00,PRATE,surface,-99.3754,36.3778,1.05e-05
2018-11-23 00:00:00,2018-11-23 00:00:00,PRATE,surface,-98.4379,36.3778,1.18e-05
2018-11-23 00:00:00,2018-11-23 00:00:00,PRATE,surface,-97.5004,36.3778,1.32e-05
2018-11-23 00:00:00,2018-11-23 00:00:00,PRATE,surface,-96.5629,36.3778,1.63e-05
2018-11-23 00:00:00,2018-11-23 00:00:00,PRATE,surface,-95.6254,36.3778,2.06e-05
2018-11-23 00:00:00,2018-11-23 00:00:00,PRATE,surface,-94.6879,36.3778,2.47e-05
2018-11-23 00:00:00,2018-11-23 00:00:00,PRATE,surface,-93.7504,36.3778,2.82e-05
2018-11-23 00:00:00,2018-11-23 00:00:00,PRATE,surface,-92.8129,36.3778,3.1e-05
