2017-08-01 00:00:00,2017-08-01 00:00:00,TMP,surface,-107.813,25.0393,291.398
2017-08-01 00:00:00,2017-08-01 00:00:00,TMP,surface,-106.875,25.0393,286.202
2017-08-01 00:00:00,2017-08-01 00:00:00,TMP,surface,-105.938,25.0393,281.266
2017-08-01 00:00:00,2017-08-01 00:00:00,TMP,surface,-105,25.0393,280.141
2017-08-01 00:00:00,2017-08-01 00:00:00,TMP,surface,-104.063,25.0393,283.838
2017-08-01 00:00:00,2017-08-01 00:00:00,TMP,surface,-103.125,25.0393,286.301
2017-08-01 00:00:00,2017-08-01 00:00:00,TMP,surface,-102.188,25.0393,286.056
2017-08-01 00:00:00,2017-08-01 00:00:00,TMP,surface,-101.25,25.0393,284.576
2017-08-01 00:00:00,2017-08-01 00:00:00,TMP,surface,-100.313,25.0393,285.299
2017-08-01 00:00:00,2017-08-01 00:00:00,TMP,surface,-99.3754,25.0393,288.102
2017-08-01 00:00:00,2017-08-01 00:00:00,TMP,surface,-98.4379,25.0393,291.045
2017-08-01 00:00:00,2017-08-01 00:00:00,TMP,surface,-97.5004,25.0393,296.054
2017-08-01 00:00:00,2017-08-01 00:00:00,TMP,surface,-96.5629,25.0393,296.197
2017-08-01 00:00:00,2017-08-01 00:00:00,TMP,surface,-95.6254,25.0393,296.222
2017-08-01 00:00:00,2017-08-01 00:00:00,TMP,surface,-94.6879,25.0393,296.363
2017-08-01 00:00:00,2017-08-01 00:00:00,TMP,surface,-93.7504,25.0393,296.302
2017-08-01 00:00:00,2017-08-01 00:00:00,TMP,surface,-92.8129,25.0393,296.552
2017-08-01 00:00:00,2017-08-01 00:00:00,TMP,surface,-107.813,25.9842,286.777
2017-08-01 00:00:00,2017-08-01 00:00:00,TMP,surface,-106.875,25.9842,281.566
2017-08-01 00:00:00,2017-08-01 00:00:00,TMP,surface,-105.938,25.9842,279.449
2017-08-01 00:00:00,2017-08-01 00:00:00,TMP,surface,-105,25.9842,281.835
2017-08-01 00:00:00,2017-08-01 00:00:00,TMP,surface,-104.063,25.9842,285.296
2017-08-01 00:00:00,2017-08-01 00:00:00,TMP,surface,-103.125,25.9842,286.702
2017-08-01 00:00:00,2017-08-01 00:00:00,TMP,surface,-102.188,25.9842,286.314
2017-08-01 00:00:00,2017-08-01 00:00:00,TMP,surface,-101.25,25.9842,285.922
2017-08-01 00:00:00,2017-08-01 00:00:00,TMP,surface,-100.313,25.9842,286.986
2017-08-01 00:00:00,2017-08-01 00:00:00,TMP,surface,-99.3754,25.9842,289.221
2017-08-01 00:00:00,2017-08-01 00:00:00,TMP,surface,-98.4379,25.9842,290.899
2017-08-01 00:00:00,2017-08-01 00:00:00,TMP,surface,-97.5004,25.9842,291.933
2017-08-01 00:00:00,2017-08-01 00:00:00,TMP,surface,-96.5629,25.9842,295.835
2017-08-01 00:00:00,2017-08-01 00:00:00,TMP,surface,-95.6254,25.9842,295.741
2017-08-01 00:00:00,2017-08-01 00:00:00,TMP,surface,-94.6879,25.9842,295.91
2017-08-01 00:00:00,2017-08-01 00:00:00,TMP,surface,-93.7504,25.9842,296
2017-08-01 00:00:00,2017-08-01 00:00:00,TMP,surface,-92.8129,25.9842,296.258
2017-08-01 00:00:00,2017-08-01 00:00:00,TMP,surface,-107.813,26.929,281.578
2017-08-01 00:00:00,2017-08-01 00:00:00,TMP,surface,-106.875,26.929,278.168
2017-08-01 00:00:00,2017-08-01 00:00:00,TMP,surface,-105.938,26.929,280.358
2017-08-01 00:00:00,2017-08-01 00:00:00,TMP,surface,-105,26.929,283.55
2017-08-01 00:00:00,2017-08-01 00:00:00,TMP,surface,-104.063,26.929,284.749
2017-08-01 00:00:00,2017-08-01 00:00:00,TMP,surface,-103.125,26.929,284.414
2017-08-01 00:00:00,2017-08-01 00:00:00,TMP,surface,-102.188,26.929,284.629
2017-08-01 00:00:00,2017-08-01 00:00:00,TMP,surface,-101.25,26.929,285.853
2017-08-01 00:00:00,2017-08-01 00:00:00,TMP,surface,-100.313,26.929,287.47
2017-08-01 00:00:00,2017-08-01 00:00:00,TMP,surface,-99.3754,26.929,288.917
2017-08-01 00:00:00,2017-08-01 00:00:00,TMP,surface,-98.4379,26.929,289.355
2017-08-01 00:00:00,2017-08-01 00:00:00,TMP,surface,-97.5004,26.929,294.536
2017-08-01 00:00:00,2017-08-01 00:00:00,TMP,surface,-96.5629,26.929,295.069
2017-08-01 00:00:00,2017-08-01 00:00:00,TMP,surface,-95.6254,26.929,295.177
2017-08-01 00:00:00,2017-08-01 00:00:00,TMP,surface,-94.6879,26.929,295.334
2017-08-01 00:00:00,2017-08-01 00:00:00,TMP,surface,-93.7504,26.929,295.352
2017-08-01 00:00:00,2017-08-01 00:00:00,TMP,surface,-92.8129,26.929,295.483
2017-08-01 00:00:00,2017-08-01 00:00:00,TMP,surface,-107.813,27.8739,278.179
2017-08-01 00:00:00,2017-08-01 00:00:00,TMP,surface,-106.875,27.8739,277.552
2017-08-01 00:00:00,2017-08-01 00:00:00,TMP,surface,-105.938,27.8739,281.053
2017-08-01 00:00:00,2017-08-01 00:00:00,TMP,surface,-105,27.8739,283.478
2017-08-01 00:00:00,2017-08-01 00:00:00,TMP,surface,-104.063,27.8739,283.557
2017-08-01 00:00:00,2017-08-01 00:00:00,TMP,surface,-103.125,27.8739,282.563
2017-08-01 00:00:00,2017-08-01 00:00:00,TMP,surface,-102.188,27.8739,283.003
2017-08-01 00:00:00,2017-08-01 00:00:00,TMP,surface,-101.25,27.8739,284.606
2017-08-01 00:00:00,2017-08-01 00:00:00,TMP,surface,-100.313,27.8739,286.353
2017-08-01 00:00:00,2017-08-01 00:00:00,TMP,surface,-99.3754,27.8739,287.158
2017-08-01 00:00:00,2017-08-01 00:00:00,TMP,surface,-98.4379,27.8739,287.563
2017-08-01 00:00:00,2017-08-01 00:00:00,TMP,surface,-97.5004,27.8739,291.241
2017-08-01 00:00:00,2017-08-01 00:00:00,TMP,surface,-96.5629,27.8739,294.901
2017-08-01 00:00:00,2017-08-01 00:00:00,TMP,surface,-95.6254,27.8739,294.978
2017-08-01 00:00:00,2017-08-01 00:00:00,TMP,surface,-94.6879,27.8739,294.582
2017-08-01 00:00:00,2017-08-01 00:00:00,TMP,surface,-93.7504,27.8739,294.309
2017-08-01 00:00:00,2017-08-01 00:00:00,TMP,surface,-92.8129,27.8739,294.328
2017-08-01 00:00:00,2017-08-01 00:00:00,TMP,surface,-107.813,28.8188,276.513
2017-08-01 00:00:00,2017-08-01 00:00:00,TMP,surface,-106.875,28.8188,277.482
2017-08-01 00:00:00,2017-08-01 00:00:00,TMP,surface,-105.938,28.8188,280.734
2017-08-01 00:00:00,2017-08-01 00:00:00,TMP,surface,-105,28.8188,282.312
2017-08-01 00:00:00,2017-08-01 00:00:00,TMP,surface,-104.063,28.8188,281.729
2017-08-01 00:00:00,2017-08-01 00:00:00,TMP,surface,-103.125,28.8188,281.024
2017-08-01 00:00:00,2017-08-01 00:00:00,TMP,surface,-102.188,28.8188,281.71
2017-08-01 00:00:00,2017-08-01 00:00:00,TMP,surface,-101.25,28.8188,283.302
2017-08-01 00:00:00,2017-08-01 00:00:00,TMP,surface,-100.313,28.8188,284.403
2017-08-01 00:00:00,2017-08-01 00:00:00,TMP,surface,-99.3754,28.8188,284.838
2017-08-01 00:00:00,2017-08-01 00:00:00,TMP,surface,-98.4379,28.8188,285.314
2017-08-01 00:00:00,2017-08-01 00:00:00,TMP,surface,-97.5004,28.8188,286.083
2017-08-01 00:00:00,2017-08-01 00:00:00,TMP,surface,-96.5629,28.8188,286.896
2017-08-01 00:00:00,2017-08-01 00:00:00,TMP,surface,-95.6254,28.8188,290.008
2017-08-01 00:00:00,2017-08-01 00:00:00,TMP,surface,-94.6879,28.8188,294.333
2017-08-01 00:00:00,2017-08-01 00:00:00,TMP,surface,-93.7504,28.8188,294.094
2017-08-01 00:00:00,2017-08-01 00:00:00,TMP,surface,-92.8129,28.8188,294.229
2017-08-01 00:00:00,2017-08-01 00:00:00,TMP,surface,-107.813,29.7637,276.848
2017-08-01 00:00:00,2017-08-01 00:00:00,TMP,surface,-106.875,29.7637,277.897
2017-08-01 00:00:00,2017-08-01 00:00:00,TMP,surface,-105.938,29.7637,279.802
2017-08-01 00:00:00,2017-08-01 00:00:00,TMP,surface,-105,29.7637,279.936
2017-08-01 00:00:00,2017-08-01 00:00:00,TMP,surface,-104.063,29.7637,279.877
2017-08-01 00:00:00,2017-08-01 00:00:00,TMP,surface,-103.125,29.7637,280.21
2017-08-01 00:00:00,2017-08-01 00:00:00,TMP,surface,-102.188,29.7637,281.094
2017-08-01 00:00:00,2017-08-01 00:00:00,TMP,surface,-101.25,29.7637,281.853
2017-08-01 00:00:00,2017-08-01 00:00:00,TMP,surface,-100.313,29.7637,282.169
2017-08-01 00:00:00,2017-08-01 00:00:00,TMP,surface,-99.3754,29.7637,282.504
2017-08-01 00:00:00,2017-08-01 00:00:00,TMP,surface,-98.4379,29.7637,283.08
2017-08-01 00:00:00,2017-08-01 00:00:00,TMP,surface,-97.5004,29.7637,283.706
2017-08-01 00:00:00,2017-08-01 00:00:00,TMP,surface,-96.5629,29.7637,284.28
2017-08-01 00:00:00,2017-08-01 00:00:00,TMP,surface,-95.6254,29.7637,285.026
2017-08-01 00:00:00,2017-08-01 00:00:00,TMP,surface,-94.6879,29.7637,288.173
2017-08-01 00:00:00,2017-08-01 00:00:00,TMP,surface,-93.7504,29.7637,291.872
2017-08-01 00:00:00,2017-08-01 00:00:00,TMP,surface,-92.8129,29.7637,286.512
2017-08-01 00:00:00,2017-08-01 00:00:00,TMP,surface,-107.813,30.7085,277.264
2017-08-01 00:00:00,2017-08-01 00:00:00,TMP,surface,-106.875,30.7085,278.211
2017-08-01 00:00:00,2017-08-01 00:00:00,TMP,surface,-105.938,30.7085,277.96
2017-08-01 00:00:00,2017-08-01 00:00:00,TMP,surface,-105,30.7085,277.169
2017-08-01 00:00:00,2017-08-01 00:00:00,TMP,surface,-104.063,30.7085,277.653
2017-08-01 00:00:00,2017-08-01 00:00:00,TMP,surface,-103.125,30.7085,278.979
2017-08-01 00:00:00,2017-08-01 00:00:00,TMP,surface,-102.188,30.7085,279.922
2017-08-01 00:00:00,2017-08-01 00:00:00,TMP,surface,-101.25,30.7085,280.266
2017-08-01 00:00:00,2017-08-01 00:00:00,TMP,surface,-100.313,30.7085,280.398
2017-08-01 00:00:00,2017-08-01 00:00:00,TMP,surface,-99.3754,30.7085,280.849
2017-08-01 00:00:00,2017-08-01 00:00:00,TMP,surface,-98.4379,30.7085,281.509
2017-08-01 00:00:00,2017-08-01 00:00:00,TMP,surface,-97.5004,30.7085,282.069
2017-08-01 00:00:00,2017-08-01 00:00:00,TMP,surface,-96.5629,30.7085,282.418
2017-08-01 00:00:00,2017-08-01 00:00:00,TMP,surface,-95.6254,30.7085,282.774
2017-08-01 00:00:00,2017-08-01 00:00:00,TMP,surface,-94.6879,30.7085,283.214
2017-08-01 00:00:00,2017-08-01 00:00:00,TMP,surface,-93.7504,30.7085,283.32
2017-08-01 00:00:00,2017-08-01 00:00:00,TMP,surface,-92.8129,30.7085,283.161
2017-08-01 00:00:00,2017-08-01 00:00:00,TMP,surface,-107.813,31.6534,276.64
2017-08-01 00:00:00,2017-08-01 00:00:00,TMP,surface,-106.875,31.6534,277.021
2017-08-01 00:00:00,2017-08-01 00:00:00,TMP,surface,-105.938,31.6534,275.918
2017-08-01 00:00:00,2017-08-01 00:00:00,TMP,surface,-105,31.6534,275.557
2017-08-01 00:00:00,2017-08-01 00:00:00,TMP,surface,-104.063,31.6534,276.278
2017-08-01 00:00:00,2017-08-01 00:00:00,TMP,surface,-103.125,31.6534,277.411
2017-08-01 00:00:00,2017-08-01 00:00:00,TMP,surface,-102.188,31.6534,278.129
2017-08-01 00:00:00,2017-08-01 00:00:00,TMP,surface,-101.25,31.6534,278.501
2017-08-01 00:00:00,2017-08-01 00:00:00,TMP,surface,-100.313,31.6534,279.045
2017-08-01 00:00:00,2017-08-01 00:00:00,TMP,surface,-99.3754,31.6534,279.757
2017-08-01 00:00:00,2017-08-01 00:00:00,TMP,surface,-98.4379,31.6534,280.393
2017-08-01 00:00:00,2017-08-01 00:00:00,TMP,surface,-97.5004,31.6534,280.837
2017-08-01 00:00:00,2017-08-01 00:00:00,TMP,surface,-96.5629,31.6534,281.15
2017-08-01 00:00:00,2017-08-01 00:00:00,TMP,surface,-95.6254,31.6534,281.297
2017-08-01 00:00:00,2017-08-01 00:00:00,TMP,surface,-94.6879,31.6534,281.238
2017-08-01 00:00:00,2017-08-01 00:00:00,TMP,surface,-93.7504,31.6534,281.241
2017-08-01 00:00:00,2017-08-01 00:00:00,TMP,surface,-92.8129,31.6534,281.469
2017-08-01 00:00:00,2017-08-01 00:00:00,TMP,surface,-107.813,32.5983,274.317
2017-08-01 00:00:00,2017-08-01 00:00:00,TMP,surface,-106.875,32.5983,274.374
2017-08-01 00:00:00,2017-08-01 00:00:00,TMP,surface,-105.938,32.5983,274.437
2017-08-01 00:00:00,2017-08-01 00:00:00,TMP,surface,-105,32.5983,274.497
2017-08-01 00:00:00,2017-08-01 00:00:00,TMP,surface,-104.063,32.5983,275.129
2017-08-01 00:00:00,2017-08-01 00:00:00,TMP,surface,-103.125,32.5983,275.934
2017-08-01 00:00:00,2017-08-01 00:00:00,TMP,surface,-102.188,32.5983,276.39
2017-08-01 00:00:00,2017-08-01 00:00:00,TMP,surface,-101.25,32.5983,277.045
2017-08-01 00:00:00,2017-08-01 00:00:00,TMP,surface,-100.313,32.5983,277.872
2017-08-01 00:00:00,2017-08-01 00:00:00,TMP,surface,-99.3754,32.5983,278.87
2017-08-01 00:00:00,2017-08-01 00:00:00,TMP,surface,-98.4379,32.5983,279.6
2017-08-01 00:00:00,2017-08-01 00:00:00,TMP,surface,-97.5004,32.5983,279.96
2017-08-01 00:00:00,2017-08-01 00:00:00,TMP,surface,-96.5629,32.5983,280.136
2017-08-01 00:00:00,2017-08-01 00:00:00,TMP,surface,-95.6254,32.5983,280.171
2017-08-01 00:00:00,2017-08-01 00:00:00,TMP,surface,-94.6879,32.5983,280.099
2017-08-01 00:00:00,2017-08-01 00:00:00,TMP,surface,-93.7504,32.5983,280.155
2017-08-01 00:00:00,2017-08-01 00:00:00,TMP,surface,-92.8129,32.5983,280.605
2017-08-01 00:00:00,2017-08-01 00:00:00,TMP,surface,-107.813,33.5432,270.997
2017-08-01 00:00:00,2017-08-01 00:00:00,TMP,surface,-106.875,33.5432,271.96
2017-08-01 00:00:00,2017-08-01 00:00:00,TMP,surface,-105.938,33.5432,272.798
2017-08-01 00:00:00,2017-08-01 00:00:00,TMP,surface,-105,33.5432,273.379
2017-08-01 00:00:00,2017-08-01 00:00:00,TMP,surface,-104.063,33.5432,273.899
2017-08-01 00:00:00,2017-08-01 00:00:00,TMP,surface,-103.125,33.5432,274.472
2017-08-01 00:00:00,2017-08-01 00:00:00,TMP,surface,-102.188,33.5432,274.765
2017-08-01 00:00:00,2017-08-01 00:00:00,TMP,surface,-101.25,33.5432,275.65
2017-08-01 00:00:00,2017-08-01 00:00:00,TMP,surface,-100.313,33.5432,276.832
2017-08-01 00:00:00,2017-08-01 00:00:00,TMP,surface,-99.3754,33.5432,277.763
2017-08-01 00:00:00,2017-08-01 00:00:00,TMP,surface,-98.4379,33.5432,278.418
2017-08-01 00:00:00,2017-08-01 00:00:00,TMP,surface,-97.5004,33.5432,278.696
2017-08-01 00:00:00,2017-08-01 00:00:00,TMP,surface,-96.5629,33.5432,278.771
2017-08-01 00:00:00,2017-08-01 00:00:00,TMP,surface,-95.6254,33.5432,278.878
2017-08-01 00:00:00,2017-08-01 00:00:00,TMP,surface,-94.6879,33.5432,278.93
2017-08-01 00:00:00,2017-08-01 00:00:00,TMP,surface,-93.7504,33.5432,279.029
2017-08-01 00:00:00,2017-08-01 00:00:00,TMP,surface,-92.8129,33.5432,279.365
2017-08-01 00:00:00,2017-08-01 00:00:00,TMP,surface,-107.813,34.4881,268.203
2017-08-01 00:00:00,2017-08-01 00:00:00,TMP,surface,-106.875,34.4881,270.049
2017-08-01 00:00:00,2017-08-01 00:00:00,TMP,surface,-105.938,34.4881,271.166
2017-08-01 00:00:00,2017-08-01 00:00:00,TMP,surface,-105,34.4881,271.611
2017-08-01 00:00:00,2017-08-01 00:00:00,TMP,surface,-104.063,34.4881,271.952
2017-08-01 00:00:00,2017-08-01 00:00:00,TMP,surface,-103.125,34.4881,272.53
2017-08-01 00:00:00,2017-08-01 00:00:00,TMP,surface,-102.188,34.4881,273.073
2017-08-01 00:00:00,2017-08-01 00:00:00,TMP,surface,-101.25,34.4881,274.078
2017-08-01 00:00:00,2017-08-01 00:00:00,TMP,surface,-100.313,34.4881,275.302
2017-08-01 00:00:00,2017-08-01 00:00:00,TMP,surface,-99.3754,34.4881,276.138
2017-08-01 00:00:00,2017-08-01 00:00:00,TMP,surface,-98.4379,34.4881,276.565
2017-08-01 00:00:00,2017-08-01 00:00:00,TMP,surface,-97.5004,34.4881,276.938
2017-08-01 00:00:00,2017-08-01 00:00:00,TMP,surface,-96.5629,34.4881,277.23
2017-08-01 00:00:00,2017-08-01 00:00:00,TMP,surface,-95.6254,34.4881,277.277
2017-08-01 00:00:00,2017-08-01 00:00:00,TMP,surface,-94.6879,34.4881,277.237
2017-08-01 00:00:00,2017-08-01 00:00:00,TMP,surface,-93.7504,34.4881,277.32
2017-08-01 00:00:00,2017-08-01 00:00:00,TMP,surface,-92.8129,34.4881,277.634
2017-08-01 00:00:00,2017-08-01 00:00:00,TMP,surface,-107.813,35.4329,267.328
2017-08-01 00:00:00,2017-08-01 00:00:00,TMP,surface,-106.875,35.4329,267.891
2017-08-01 00:00:00,2017-08-01 00:00:00,TMP,surface,-105.938,35.4329,268.736
2017-08-01 00:00:00,2017-08-01 00:00:00,TMP,surface,-105,35.4329,269.123
2017-08-01 00:00:00,2017-08-01 00:00:00,TMP,surface,-104.063,35.4329,269.584
2017-08-01 00:00:00,2017-08-01 00:00:00,TMP,surface,-103.125,35.4329,270.256
2017-08-01 00:00:00,2017-08-01 00:00:00,TMP,surface,-102.188,35.4329,270.931
2017-08-01 00:00:00,2017-08-01 00:00:00,TMP,surface,-101.25,35.4329,272.353
2017-08-01 00:00:00,2017-08-01 00:00:00,TMP,surface,-100.313,35.4329,273.72
2017-08-01 00:00:00,2017-08-01 00:00:00,TMP,surface,-99.3754,35.4329,274.483
2017-08-01 00:00:00,2017-08-01 00:00:00,TMP,surface,-98.4379,35.4329,275.042
2017-08-01 00:00:00,2017-08-01 00:00:00,TMP,surface,-97.5004,35.4329,275.491
2017-08-01 00:00:00,2017-08-01 00:00:00,TMP,surface,-96.5629,35.4329,275.821
2017-08-01 00:00:00,2017-08-01 00:00:00,TMP,surface,-95.6254,35.4329,276.008
2017-08-01 00:00:00,2017-08-01 00:00:00,TMP,surface,-94.6879,35.4329,275.93
2017-08-01 00:00:00,2017-08-01 00:00:00,TMP,surface,-93.7504,35.4329,275.787
2017-08-01 00:00:00,2017-08-01 00:00:00,TMP,surface,-92.8129,35.4329,275.813
2017-08-01 00:00:00,2017-08-01 00:00:00,TMP,surface,-107.813,36.3778,266.522
2017-08-01 00:00:00,2017-08-01 00:00:00,TMP,surface,-106.875,36.3778,265.221
2017-08-01 00:00:00,2017-08-01 00:00:00,TMP,surface,-105.938,36.3778,266.099
2017-08-01 00:00:00,2017-08-01 00:00:00,TMP,surface,-105,36.3778,267.189
2017-08-01 00:00:00,2017-08-01 00:00:00,TMP,surface,-104.063,36.3778,267.953
2017-08-01 00:00:00,2017-08-01 00:00:00,TMP,surface,-103.125,36.3778,268.957
2017-08-01 00:00:00,2017-08-01 00:00:00,TMP,surface,-102.188,36.3778,269.568
2017-08-01 00:00:00,2017-08-01 00:00:00,TMP,surface,-101.25,36.3778,270.862
2017-08-01 00:00:00,2017-08-01 00:00:00,TMP,surface,-100.313,36.3778,272.357
2017-08-01 00:00:00,2017-08-01 00:00:00,TMP,surface,-99.3754,36.3778,273.409
2017-08-01 00:00:00,2017-08-01 00:00:00,TMP,surface,-98.4379,36.3778,273.974
2017-08-01 00:00:00,2017-08-01 00:00:00,TMP,surface,-97.5004,36.3778,274.398
2017-08-01 00:00:00,2017-08-01 00:00:00,TMP,surface,-96.5629,36.3778,274.766
2017-08-01 00:00:00,2017-08-01 00:00:00,TMP,surface,-95.6254,36.3778,274.878
2017-08-01 00:00:00,2017-08-01 00:00:00,TMP,surface,-94.6879,36.3778,274.651
2017-08-01 00:00:00,2017-08-01 00:00:00,TMP,surface,-93.7504,36.3778,274.294
2017-08-01 00:00:00,2017-08-01 00:00:00,TMP,surface,-92.8129,36.3778,274.237
2017-08-01 00:00:00,2017-08-01 00:00:00,PRATE,surface,-107.813,25.0393,3.47e-05
2017-08-01 00:00:00,2017-08-01 00:00:00,PRATE,surface,-106.875,25.0393,6.22e-05
2017-08-01 00:00:00,2017-08-01 00:00:00,PRATE,surface,-105.938,25.0393,6.82e-05
2017-08-01 00:00:00,2017-08-01 00:00:00,PRATE,surface,-105,25.0393,3.44e-05
2017-08-01 00:00:00,2017-08-01 00:00:00,PRATE,surface,-104.063,25.0393,1.27e-05
2017-08-01 00:00:00,2017-08-01 00:00:00,PRATE,surface,-103.125,25.0393,5.8e-06
2017-08-01 00:00:00,2017-08-01 00:00:00,PRATE,surface,-102.188,25.0393,8e-06
2017-08-01 00:00:00,2017-08-01 00:00:00,PRATE,surface,-101.25,25.0393,1.33e-05
2017-08-01 00:00:00,2017-08-01 00:00:00,PRATE,surface,-100.313,25.0393,1.55e-05
2017-08-01 00:00:00,2017-08-01 00:00:00,PRATE,surface,-99.3754,25.0393,1.12e-05
2017-08-01 00:00:00,2017-08-01 00:00:00,PRATE,surface,-98.4379,25.0393,1.22e-05
2017-08-01 00:00:00,2017-08-01 00:00:00,PRATE,surface,-97.5004,25.0393,2.73e-05
2017-08-01 00:00:00,2017-08-01 00:00:00,PRATE,surface,-96.5629,25.0393,3.33e-05
2017-08-01 00:00:00,2017-08-01 00:00:00,PRATE,surface,-95.6254,25.0393,2.16e-05
2017-08-01 00:00:00,2017-08-01 00:00:00,PRATE,surface,-94.6879,25.0393,1.47e-05
2017-08-01 00:00:00,2017-08-01 00:00:00,PRATE,surface,-93.7504,25.0393,1.17e-05
2017-08-01 00:00:00,2017-08-01 00:00:00,PRATE,surface,-92.8129,25.0393,1.5e-05
2017-08-01 00:00:00,2017-08-01 00:00:00,PRATE,surface,-107.813,25.9842,4.01e-05
2017-08-01 00:00:00,2017-08-01 00:00:00,PRATE,surface,-106.875,25.9842,4.87e-05
2017-08-01 00:00:00,2017-08-01 00:00:00,PRATE,surface,-105.938,25.9842,3.83e-05
2017-08-01 00:00:00,2017-08-01 00:00:00,PRATE,surface,-105,25.9842,1.98e-05
2017-08-01 00:00:00,2017-08-01 00:00:00,PRATE,surface,-104.063,25.9842,1.03e-05
2017-08-01 00:00:00,2017-08-01 00:00:00,PRATE,surface,-103.125,25.9842,8.4e-06
2017-08-01 00:00:00,2017-08-01 00:00:00,PRATE,surface,-102.188,25.9842,1.12e-05
2017-08-01 00:00:00,2017-08-01 00:00:00,PRATE,surface,-101.25,25.9842,1.32e-05
2017-08-01 00:00:00,2017-08-01 00:00:00,PRATE,surface,-100.313,25.9842,1.23e-05
2017-08-01 00:00:00,2017-08-01 00:00:00,PRATE,surface,-99.3754,25.9842,1.03e-05
2017-08-01 00:00:00,2017-08-01 00:00:00,PRATE,surface,-98.4379,25.9842,1.65e-05
2017-08-01 00:00:00,2017-08-01 00:00:00,PRATE,surface,-97.5004,25.9842,2.97e-05
2017-08-01 00:00:00,2017-08-01 00:00:00,PRATE,surface,-96.5629,25.9842,5.06e-05
2017-08-01 00:00:00,2017-08-01 00:00:00,PRATE,surface,-95.6254,25.9842,3.61e-05
2017-08-01 00:00:00,2017-08-01 00:00:00,PRATE,surface,-94.6879,25.9842,2.79e-05
2017-08-01 00:00:00,2017-08-01 00:00:00,PRATE,surface,-93.7504,25.9842,2.04e-05
2017-08-01 00:00:00,2017-08-01 00:00:00,PRATE,surface,-92.8129,25.9842,2.17e-05
2017-08-01 00:00:00,2017-08-01 00:00:00,PRATE,surface,-107.813,26.929,4.64e-05
2017-08-01 00:00:00,2017-08-01 00:00:00,PRATE,surface,-106.875,26.929,3.45e-05
2017-08-01 00:00:00,2017-08-01 00:00:00,PRATE,surface,-105.938,26.929,1.89e-05
2017-08-01 00:00:00,2017-08-01 00:00:00,PRATE,surface,-105,26.929,1.48e-05
2017-08-01 00:00:00,2017-08-01 00:00:00,PRATE,surface,-104.063,26.929,1.21e-05
2017-08-01 00:00:00,2017-08-01 00:00:00,PRATE,surface,-103.125,26.929,1.71e-05
2017-08-01 00:00:00,2017-08-01 00:00:00,PRATE,surface,-102.188,26.929,2.04e-05
2017-08-01 00:00:00,2017-08-01 00:00:00,PRATE,surface,-101.25,26.929,1.9e-05
2017-08-01 00:00:00,2017-08-01 00:00:00,PRATE,surface,-100.313,26.929,1.42e-05
2017-08-01 00:00:00,2017-08-01 00:00:00,PRATE,surface,-99.3754,26.929,1.63e-05
2017-08-01 00:00:00,2017-08-01 00:00:00,PRATE,surface,-98.4379,26.929,2.41e-05
2017-08-01 00:00:00,2017-08-01 00:00:00,PRATE,surface,-97.5004,26.929,5.03e-05
2017-08-01 00:00:00,2017-08-01 00:00:00,PRATE,surface,-96.5629,26.929,6.13e-05
2017-08-01 00:00:00,2017-08-01 00:00:00,PRATE,surface,-95.6254,26.929,5.79e-05
2017-08-01 00:00:00,2017-08-01 00:00:00,PRATE,surface,-94.6879,26.929,4.86e-05
2017-08-01 00:00:00,2017-08-01 00:00:00,PRATE,surface,-93.7504,26.929,3.68e-05
2017-08-01 00:00:00,2017-08-01 00:00:00,PRATE,surface,-92.8129,26.929,3.21e-05
2017-08-01 00:00:00,2017-08-01 00:00:00,PRATE,surface,-107.813,27.8739,3.79e-05
2017-08-01 00:00:00,2017-08-01 00:00:00,PRATE,surface,-106.875,27.8739,2.16e-05
2017-08-01 00:00:00,2017-08-01 00:00:00,PRATE,surface,-105.938,27.8739,1.45e-05
2017-08-01 00:00:00,2017-08-01 00:00:00,PRATE,surface,-105,27.8739,1.14e-05
2017-08-01 00:00:00,2017-08-01 00:00:00,PRATE,surface,-104.063,27.8739,1.48e-05
2017-08-01 00:00:00,2017-08-01 00:00:00,PRATE,surface,-103.125,27.8739,2.86e-05
2017-08-01 00:00:00,2017-08-01 00:00:00,PRATE,surface,-102.188,27.8739,4.06e-05
2017-08-01 00:00:00,2017-08-01 00:00:00,PRATE,surface,-101.25,27.8739,3.62e-05
2017-08-01 00:00:00,2017-08-01 00:00:00,PRATE,surface,-100.313,27.8739,2.77e-05
2017-08-01 00:00:00,2017-08-01 00:00:00,PRATE,surface,-99.3754,27.8739,2.61e-05
2017-08-01 00:00:00,2017-08-01 00:00:00,PRATE,surface,-98.4379,27.8739,3.4e-05
2017-08-01 00:00:00,2017-08-01 00:00:00,PRATE,surface,-97.5004,27.8739,5.12e-05
2017-08-01 00:00:00,2017-08-01 00:00:00,PRATE,surface,-96.5629,27.8739,6.22e-05
2017-08-01 00:00:00,2017-08-01 00:00:00,PRATE,surface,-95.6254,27.8739,5.81e-05
2017-08-01 00:00:00,2017-08-01 00:00:00,PRATE,surface,-94.6879,27.8739,5.25e-05
2017-08-01 00:00:00,2017-08-01 00:00:00,PRATE,surface,-93.7504,27.8739,4.94e-05
2017-08-01 00:00:00,2017-08-01 00:00:00,PRATE,surface,-92.8129,27.8739,4.19e-05
2017-08-01 00:00:00,2017-08-01 00:00:00,PRATE,surface,-107.813,28.8188,2.97e-05
2017-08-01 00:00:00,2017-08-01 00:00:00,PRATE,surface,-106.875,28.8188,1.51e-05
2017-08-01 00:00:00,2017-08-01 00:00:00,PRATE,surface,-105.938,28.8188,1.09e-05
2017-08-01 00:00:00,2017-08-01 00:00:00,PRATE,surface,-105,28.8188,7.6e-06
2017-08-01 00:00:00,2017-08-01 00:00:00,PRATE,surface,-104.063,28.8188,1.09e-05
2017-08-01 00:00:00,2017-08-01 00:00:00,PRATE,surface,-103.125,28.8188,2.37e-05
2017-08-01 00:00:00,2017-08-01 00:00:00,PRATE,surface,-102.188,28.8188,4.17e-05
2017-08-01 00:00:00,2017-08-01 00:00:00,PRATE,surface,-101.25,28.8188,4.52e-05
2017-08-01 00:00:00,2017-08-01 00:00:00,PRATE,surface,-100.313,28.8188,4.31e-05
2017-08-01 00:00:00,2017-08-01 00:00:00,PRATE,surface,-99.3754,28.8188,4.6e-05
2017-08-01 00:00:00,2017-08-01 00:00:00,PRATE,surface,-98.4379,28.8188,4.8e-05
2017-08-01 00:00:00,2017-08-01 00:00:00,PRATE,surface,-97.5004,28.8188,4.92e-05
2017-08-01 00:00:00,2017-08-01 00:00:00,PRATE,surface,-96.5629,28.8188,5.6e-05
2017-08-01 00:00:00,2017-08-01 00:00:00,PRATE,surface,-95.6254,28.8188,6.24e-05
2017-08-01 00:00:00,2017-08-01 00:00:00,PRATE,surface,-94.6879,28.8188,6e-05
2017-08-01 00:00:00,2017-08-01 00:00:00,PRATE,surface,-93.7504,28.8188,5.62e-05
2017-08-01 00:00:00,2017-08-01 00:00:00,PRATE,surface,-92.8129,28.8188,5.25e-05
2017-08-01 00:00:00,2017-08-01 00:00:00,PRATE,surface,-107.813,29.7637,2.41e-05
2017-08-01 00:00:00,2017-08-01 00:00:00,PRATE,surface,-106.875,29.7637,1.43e-05
2017-08-01 00:00:00,2017-08-01 00:00:00,PRATE,surface,-105.938,29.7637,1.18e-05
2017-08-01 00:00:00,2017-08-01 00:00:00,PRATE,surface,-105,29.7637,1.08e-05
2017-08-01 00:00:00,2017-08-01 00:00:00,PRATE,surface,-104.063,29.7637,1.23e-05
2017-08-01 00:00:00,2017-08-01 00:00:00,PRATE,surface,-103.125,29.7637,1.81e-05
2017-08-01 00:00:00,2017-08-01 00:00:00,PRATE,surface,-102.188,29.7637,2.76e-05
2017-08-01 00:00:00,2017-08-01 00:00:00,PRATE,surface,-101.25,29.7637,3.91e-05
2017-08-01 00:00:00,2017-08-01 00:00:00,PRATE,surface,-100.313,29.7637,5.41e-05
2017-08-01 00:00:00,2017-08-01 00:00:00,PRATE,surface,-99.3754,29.7637,6.43e-05
2017-08-01 00:00:00,2017-08-01 00:00:00,PRATE,surface,-98.4379,29.7637,5.99e-05
2017-08-01 00:00:00,2017-08-01 00:00:00,PRATE,surface,-97.5004,29.7637,5.16e-05
2017-08-01 00:00:00,2017-08-01 00:00:00,PRATE,surface,-96.5629,29.7637,5.01e-05
2017-08-01 00:00:00,2017-08-01 00:00:00,PRATE,surface,-95.6254,29.7637,5.59e-05
2017-08-01 00:00:00,2017-08-01 00:00:00,PRATE,surface,-94.6879,29.7637,6.26e-05
2017-08-01 00:00:00,2017-08-01 00:00:00,PRATE,surface,-93.7504,29.7637,6.23e-05
2017-08-01 00:00:00,2017-08-01 00:00:00,PRATE,surface,-92.8129,29.7637,6.32e-05
2017-08-01 00:00:00,2017-08-01 00:00:00,PRATE,surface,-107.813,30.7085,1.94e-05
2017-08-01 00:00:00,2017-08-01 00:00:00,PRATE,surface,-106.875,30.7085,1.47e-05
2017-08-01 00:00:00,2017-08-01 00:00:00,PRATE,surface,-105.938,30.7085,1.48e-05
2017-08-01 00:00:00,2017-08-01 00:00:00,PRATE,surface,-105,30.7085,1.75e-05
2017-08-01 00:00:00,2017-08-01 00:00:00,PRATE,surface,-104.063,30.7085,1.91e-05
2017-08-01 00:00:00,2017-08-01 00:00:00,PRATE,surface,-103.125,30.7085,1.86e-05
2017-08-01 00:00:00,2017-08-01 00:00:00,PRATE,surface,-102.188,30.7085,2.2e-05
2017-08-01 00:00:00,2017-08-01 00:00:00,PRATE,surface,-101.25,30.7085,3.21e-05
2017-08-01 00:00:00,2017-08-01 00:00:00,PRATE,surface,-100.313,30.7085,4.73e-05
2017-08-01 00:00:00,2017-08-01 00:00:00,PRATE,surface,-99.3754,30.7085,5.57e-05
2017-08-01 00:00:00,2017-08-01 00:00:00,PRATE,surface,-98.4379,30.7085,5.64e-05
2017-08-01 00:00:00,2017-08-01 00:00:00,PRATE,surface,-97.5004,30.7085,5.37e-05
2017-08-01 00:00:00,2017-08-01 00:00:00,PRATE,surface,-96.5629,30.7085,4.76e-05
2017-08-01 00:00:00,2017-08-01 00:00:00,PRATE,surface,-95.6254,30.7085,4.43e-05
2017-08-01 00:00:00,2017-08-01 00:00:00,PRATE,surface,-94.6879,30.7085,5.24e-05
2017-08-01 00:00:00,2017-08-01 00:00:00,PRATE,surface,-93.7504,30.7085,6.55e-05
2017-08-01 00:00:00,2017-08-01 00:00:00,PRATE,surface,-92.8129,30.7085,7.4e-05
2017-08-01 00:00:00,2017-08-01 00:00:00,PRATE,surface,-107.813,31.6534,1.87e-05
2017-08-01 00:00:00,2017-08-01 00:00:00,PRATE,surface,-106.875,31.6534,1.81e-05
2017-08-01 00:00:00,2017-08-01 00:00:00,PRATE,surface,-105.938,31.6534,1.95e-05
2017-08-01 00:00:00,2017-08-01 00:00:00,PRATE,surface,-105,31.6534,2.18e-05
2017-08-01 00:00:00,2017-08-01 00:00:00,PRATE,surface,-104.063,31.6534,2.17e-05
2017-08-01 00:00:00,2017-08-01 00:00:00,PRATE,surface,-103.125,31.6534,2.05e-05
2017-08-01 00:00:00,2017-08-01 00:00:00,PRATE,surface,-102.188,31.6534,2.37e-05
2017-08-01 00:00:00,2017-08-01 00:00:00,PRATE,surface,-101.25,31.6534,3.12e-05
2017-08-01 00:00:00,2017-08-01 00:00:00,PRATE,surface,-100.313,31.6534,3.78e-05
2017-08-01 00:00:00,2017-08-01 00:00:00,PRATE,surface,-99.3754,31.6534,4.5e-05
2017-08-01 00:00:00,2017-08-01 00:00:00,PRATE,surface,-98.4379,31.6534,5.05e-05
2017-08-01 00:00:00,2017-08-01 00:00:00,PRATE,surface,-97.5004,31.6534,5.23e-05
2017-08-01 00:00:00,2017-08-01 00:00:00,PRATE,surface,-96.5629,31.6534,4.83e-05
2017-08-01 00:00:00,2017-08-01 00:00:00,PRATE,surface,-95.6254,31.6534,4.18e-05
2017-08-01 00:00:00,2017-08-01 00:00:00,PRATE,surface,-94.6879,31.6534,4.47e-05
2017-08-01 00:00:00,2017-08-01 00:00:00,PRATE,surface,-93.7504,31.6534,6.02e-05
2017-08-01 00:00:00,2017-08-01 00:00:00,PRATE,surface,-92.8129,31.6534,7.66e-05
2017-08-01 00:00:00,2017-08-01 00:00:00,PRATE,surface,-107.813,32.5983,2.15e-05
2017-08-01 00:00:00,2017-08-01 00:00:00,PRATE,surface,-106.875,32.5983,2.33e-05
2017-08-01 00:00:00,2017-08-01 00:00:00,PRATE,surface,-105.938,32.5983,2.48e-05
2017-08-01 00:00:00,2017-08-01 00:00:00,PRATE,surface,-105,32.5983,2.5e-05
2017-08-01 00:00:00,2017-08-01 00:00:00,PRATE,surface,-104.063,32.5983,2.52e-05
2017-08-01 00:00:00,2017-08-01 00:00:00,PRATE,surface,-103.125,32.5983,2.3e-05
2017-08-01 00:00:00,2017-08-01 00:00:00,PRATE,surface,-102.188,32.5983,2.51e-05
2017-08-01 00:00:00,2017-08-01 00:00:00,PRATE,surface,-101.25,32.5983,2.91e-05
2017-08-01 00:00:00,2017-08-01 00:00:00,PRATE,surface,-100.313,32.5983,3.76e-05
2017-08-01 00:00:00,2017-08-01 00:00:00,PRATE,surface,-99.3754,32.5983,4.6e-05
2017-08-01 00:00:00,2017-08-01 00:00:00,PRATE,surface,-98.4379,32.5983,5.13e-05
2017-08-01 00:00:00,2017-08-01 00:00:00,PRATE,surface,-97.5004,32.5983,5.43e-05
2017-08-01 00:00:00,2017-08-01 00:00:00,PRATE,surface,-96.5629,32.5983,5.35e-05
2017-08-01 00:00:00,2017-08-01 00:00:00,PRATE,surface,-95.6254,32.5983,4.95e-05
2017-08-01 00:00:00,2017-08-01 00:00:00,PRATE,surface,-94.6879,32.5983,4.62e-05
2017-08-01 00:00:00,2017-08-01 00:00:00,PRATE,surface,-93.7504,32.5983,4.68e-05
2017-08-01 00:00:00,2017-08-01 00:00:00,PRATE,surface,-92.8129,32.5983,5.75e-05
2017-08-01 00:00:00,2017-08-01 00:00:00,PRATE,surface,-107.813,33.5432,2.54e-05
2017-08-01 00:00:00,2017-08-01 00:00:00,PRATE,surface,-106.875,33.5432,2.5e-05
2017-08-01 00:00:00,2017-08-01 00:00:00,PRATE,surface,-105.938,33.5432,2.51e-05
2017-08-01 00:00:00,2017-08-01 00:00:00,PRATE,surface,-105,33.5432,2.66e-05
2017-08-01 00:00:00,2017-08-01 00:00:00,PRATE,surface,-104.063,33.5432,2.66e-05
2017-08-01 00:00:00,2017-08-01 00:00:00,PRATE,surface,-103.125,33.5432,2.39e-05
2017-08-01 00:00:00,2017-08-01 00:00:00,PRATE,surface,-102.188,33.5432,2.61e-05
2017-08-01 00:00:00,2017-08-01 00:00:00,PRATE,surface,-101.25,33.5432,3.08e-05
2017-08-01 00:00:00,2017-08-01 00:00:00,PRATE,surface,-100.313,33.5432,3.6e-05
2017-08-01 00:00:00,2017-08-01 00:00:00,PRATE,surface,-99.3754,33.5432,4.38e-05
2017-08-01 00:00:00,2017-08-01 00:00:00,PRATE,surface,-98.4379,33.5432,5.46e-05
2017-08-01 00:00:00,2017-08-01 00:00:00,PRATE,surface,-97.5004,33.5432,6.18e-05
2017-08-01 00:00:00,2017-08-01 00:00:00,PRATE,surface,-96.5629,33.5432,6.23e-05
2017-08-01 00:00:00,2017-08-01 00:00:00,PRATE,surface,-95.6254,33.5432,5.93e-05
2017-08-01 00:00:00,2017-08-01 00:00:00,PRATE,surface,-94.6879,33.5432,5.56e-05
2017-08-01 00:00:00,2017-08-01 00:00:00,PRATE,surface,-93.7504,33.5432,5.14e-05
2017-08-01 00:00:00,2017-08-01 00:00:00,PRATE,surface,-92.8129,33.5432,5e-05
2017-08-01 00:00:00,2017-08-01 00:00:00,PRATE,surface,-107.813,34.4881,2.76e-05
2017-08-01 00:00:00,2017-08-01 00:00:00,PRATE,surface,-106.875,34.4881,2.38e-05
2017-08-01 00:00:00,2017-08-01 00:00:00,PRATE,surface,-105.938,34.4881,2.29e-05
2017-08-01 00:00:00,2017-08-01 00:00:00,PRATE,surface,-105,34.4881,2.8e-05
2017-08-01 00:00:00,2017-08-01 00:00:00,PRATE,surface,-104.063,34.4881,2.87e-05
2017-08-01 00:00:00,2017-08-01 00:00:00,PRATE,surface,-103.125,34.4881,2.61e-05
2017-08-01 00:00:00,2017-08-01 00:00:00,PRATE,surface,-102.188,34.4881,2.68e-05
2017-08-01 00:00:00,2017-08-01 00:00:00,PRATE,surface,-101.25,34.4881,2.97e-05
2017-08-01 00:00:00,2017-08-01 00:00:00,PRATE,surface,-100.313,34.4881,3.46e-05
2017-08-01 00:00:00,2017-08-01 00:00:00,PRATE,surface,-99.3754,34.4881,4.21e-05
2017-08-01 00:00:00,2017-08-01 00:00:00,PRATE,surface,-98.4379,34.4881,5.35e-05
2017-08-01 00:00:00,2017-08-01 00:00:00,PRATE,surface,-97.5004,34.4881,6.28e-05
2017-08-01 00:00:00,2017-08-01 00:00:00,PRATE,surface,-96.5629,34.4881,6.58e-05
2017-08-01 00:00:00,2017-08-01 00:00:00,PRATE,surface,-95.6254,34.4881,6.36e-05
2017-08-01 00:00:00,2017-08-01 00:00:00,PRATE,surface,-94.6879,34.4881,5.83e-05
2017-08-01 00:00:00,2017-08-01 00:00:00,PRATE,surface,-93.7504,34.4881,5.21e-05
2017-08-01 00:00:00,2017-08-01 00:00:00,PRATE,surface,-92.8129,34.4881,4.95e-05
2017-08-01 00:00:00,2017-08-01 00:00:00,PRATE,surface,-107.813,35.4329,2.43e-05
2017-08-01 00:00:00,2017-08-01 00:00:00,PRATE,surface,-106.875,35.4329,2.38e-05
2017-08-01 00:00:00,2017-08-01 00:00:00,PRATE,surface,-105.938,35.4329,2.44e-05
2017-08-01 00:00:00,2017-08-01 00:00:00,PRATE,surface,-105,35.4329,2.93e-05
2017-08-01 00:00:00,2017-08-01 00:00:00,PRATE,surface,-104.063,35.4329,3.5e-05
2017-08-01 00:00:00,2017-08-01 00:00:00,PRATE,surface,-103.125,35.4329,3.36e-05
2017-08-01 00:00:00,2017-08-01 00:00:00,PRATE,surface,-102.188,35.4329,3.15e-05
2017-08-01 00:00:00,2017-08-01 00:00:00,PRATE,surface,-101.25,35.4329,2.82e-05
2017-08-01 00:00:00,2017-08-01 00:00:00,PRATE,surface,-100.313,35.4329,2.87e-05
2017-08-01 00:00:00,2017-08-01 00:00:00,PRATE,surface,-99.3754,35.4329,3.58e-05
2017-08-01 00:00:00,2017-08-01 00:00:00,PRATE,surface,-98.4379,35.4329,4.75e-05
2017-08-01 00:00:00,2017-08-01 00:00:00,PRATE,surface,-97.5004,35.4329,5.96e-05
2017-08-01 00:00:00,2017-08-01 00:00:00,PRATE,surface,-96.5629,35.4329,6.58e-05
2017-08-01 00:00:00,2017-08-01 00:00:00,PRATE,surface,-95.6254,35.4329,6.59e-05
2017-08-01 00:00:00,2017-08-01 00:00:00,PRATE,surface,-94.6879,35.4329,6.36e-05
2017-08-01 00:00:00,2017-08-01 00:00:00,PRATE,surface,-93.7504,35.4329,5.74e-05
2017-08-01 00:00:00,2017-08-01 00:00:00,PRATE,surface,-92.8129,35.4329,5.02e-05
2017-08-01 00:00:00,2017-08-01 00:00:00,PRATE,surface,-107.813,36.3778,2.89e-05
2017-08-01 00:00:00,2017-08-01 00:00:00,PRATE,surface,-106.875,36.3778,3.27e-05
2017-08-01 00:00:00,2017-08-01 00:00:00,PRATE,surface,-105.938,36.3778,2.84e-05
2017-08-01 00:00:00,2017-08-01 00:00:00,PRATE,surface,-105,36.3778,2.94e-05
2017-08-01 00:00:00,2017-08-01 00:00:00,PRATE,surface,-104.063,36.3778,3.21e-05
2017-08-01 00:00:00,2017-08-01 00:00:00,PRATE,surface,-103.125,36.3778,3.29e-05
2017-08-01 00:00:00,2017-08-01 00:00:00,PRATE,surface,-102.188,36.3778,3.22e-05
2017-08-01 00:00:00,2017-08-01 00:00:00,PRATE,surface,-101.25,36.3778,2.77e-05
2017-08-01 00:00:00,2017-08-01 00:00:00,PRATE,surface,-100.313,36.3778,2.53e-05
2017-08-01 00:00:00,2017-08-01 00:00:00,PRATE,surface,-99.3754,36.3778,2.84e-05
2017-08-01 00:00:00,2017-08-01 00:00:00,PRATE,surface,-98.4379,36.3778,3.62e-05
2017-08-01 00:00:00,2017-08-01 00:00:00,PRATE,surface,-97.5004,36.3778,4.52e-05
2017-08-01 00:00:00,2017-08-01 00:00:00,PRATE,surface,-96.5629,36.3778,5.27e-05
2017-08-01 00:00:00,2017-08-01 00:00:00,PRATE,surface,-95.6254,36.3778,5.87e-05
2017-08-01 00:00:00,2017-08-01 00:00:00,PRATE,surface,-94.6879,36.3778,6.31e-05
2017-08-01 00:00:00,2017-08-01 00:00:00,PRATE,surface,-93.7504,36.3778,6.39e-05
2017-08-01 00:00:00,2017-08-01 00:00:00,PRATE,surface,-92.8129,36.3778,6e-05
