2017-01-07 00:00:00,2017-01-07 00:00:00,TMP,surface,-107.813,25.0393,302.629
2017-01-07 00:00:00,2017-01-07 00:00:00,TMP,surface,-106.875,25.0393,295.631
2017-01-07 00:00:00,2017-01-07 00:00:00,TMP,surface,-105.938,25.0393,292.212
2017-01-07 00:00:00,2017-01-07 00:00:00,TMP,surface,-105,25.0393,290.068
2017-01-07 00:00:00,2017-01-07 00:00:00,TMP,surface,-104.063,25.0393,293.834
2017-01-07 00:00:00,2017-01-07 00:00:00,TMP,surface,-103.125,25.0393,297.961
2017-01-07 00:00:00,2017-01-07 00:00:00,TMP,surface,-102.188,25.0393,297.122
2017-01-07 00:00:00,2017-01-07 00:00:00,TMP,surface,-101.25,25.0393,294.335
2017-01-07 00:00:00,2017-01-07 00:00:00,TMP,surface,-100.313,25.0393,294.828
2017-01-07 00:00:00,2017-01-07 00:00:00,TMP,surface,-99.3754,25.0393,299.285
2017-01-07 00:00:00,2017-01-07 00:00:00,TMP,surface,-98.4379,25.0393,302.961
2017-01-07 00:00:00,2017-01-07 00:00:00,TMP,surface,-97.5004,25.0393,303.516
2017-01-07 00:00:00,2017-01-07 00:00:00,TMP,surface,-96.5629,25.0393,303.559
2017-01-07 00:00:00,2017-01-07 00:00:00,TMP,surface,-95.6254,25.0393,303.765
2017-01-07 00:00:00,2017-01-07 00:00:00,TMP,surface,-94.6879,25.0393,304.009
2017-01-07 00:00:00,2017-01-07 00:00:00,TMP,surface,-93.7504,25.0393,304.005
2017-01-07 00:00:00,2017-01-07 00:00:00,TMP,surface,-92.8129,25.0393,303.924
2017-01-07 00:00:00,2017-01-07 00:00:00,TMP,surface,-107.813,25.9842,298.13
2017-01-07 00:00:00,2017-01-07 00:00:00,TMP,surface,-106.875,25.9842,292.887
2017-01-07 00:00:00,2017-01-07 00:00:00,TMP,surface,-105.938,25.9842,291.167
2017-01-07 00:00:00,2017-01-07 00:00:00,TMP,surface,-105,25.9842,292.873
2017-01-07 00:00:00,2017-01-07 00:00:00,TMP,surface,-104.063,25.9842,298.265
2017-01-07 00:00:00,2017-01-07 00:00:00,TMP,surface,-103.125,25.9842,300.466
2017-01-07 00:00:00,2017-01-07 00:00:00,TMP,surface,-102.188,25.9842,299.396
2017-01-07 00:00:00,2017-01-07 00:00:00,TMP,surface,-101.25,25.9842,298.25
2017-01-07 00:00:00,2017-01-07 00:00:00,TMP,surface,-100.313,25.9842,299.447
2017-01-07 00:00:00,2017-01-07 00:00:00,TMP,surface,-99.3754,25.9842,302.953
2017-01-07 00:00:00,2017-01-07 00:00:00,TMP,surface,-98.4379,25.9842,304.385
2017-01-07 00:00:00,2017-01-07 00:00:00,TMP,surface,-97.5004,25.9842,303.228
2017-01-07 00:00:00,2017-01-07 00:00:00,TMP,surface,-96.5629,25.9842,302.799
2017-01-07 00:00:00,2017-01-07 00:00:00,TMP,surface,-95.6254,25.9842,303.58
2017-01-07 00:00:00,2017-01-07 00:00:00,TMP,surface,-94.6879,25.9842,303.812
2017-01-07 00:00:00,2017-01-07 00:00:00,TMP,surface,-93.7504,25.9842,303.921
2017-01-07 00:00:00,2017-01-07 00:00:00,TMP,surface,-92.8129,25.9842,304.036
2017-01-07 00:00:00,2017-01-07 00:00:00,TMP,surface,-107.813,26.929,294.517
2017-01-07 00:00:00,2017-01-07 00:00:00,TMP,surface,-106.875,26.929,291.834
2017-01-07 00:00:00,2017-01-07 00:00:00,TMP,surface,-105.938,26.929,293.188
2017-01-07 00:00:00,2017-01-07 00:00:00,TMP,surface,-105,26.929,297.533
2017-01-07 00:00:00,2017-01-07 00:00:00,TMP,surface,-104.063,26.929,300.799
2017-01-07 00:00:00,2017-01-07 00:00:00,TMP,surface,-103.125,26.929,300.181
2017-01-07 00:00:00,2017-01-07 00:00:00,TMP,surface,-102.188,26.929,299.116
2017-01-07 00:00:00,2017-01-07 00:00:00,TMP,surface,-101.25,26.929,300.346
2017-01-07 00:00:00,2017-01-07 00:00:00,TMP,surface,-100.313,26.929,303.249
2017-01-07 00:00:00,2017-01-07 00:00:00,TMP,surface,-99.3754,26.929,304.737
2017-01-07 00:00:00,2017-01-07 00:00:00,TMP,surface,-98.4379,26.929,303.618
2017-01-07 00:00:00,2017-01-07 00:00:00,TMP,surface,-97.5004,26.929,300.644
2017-01-07 00:00:00,2017-01-07 00:00:00,TMP,surface,-96.5629,26.929,301.785
2017-01-07 00:00:00,2017-01-07 00:00:00,TMP,surface,-95.6254,26.929,303.114
2017-01-07 00:00:00,2017-01-07 00:00:00,TMP,surface,-94.6879,26.929,303.546
2017-01-07 00:00:00,2017-01-07 00:00:00,TMP,surface,-93.7504,26.929,303.73
2017-01-07 00:00:00,2017-01-07 00:00:00,TMP,surface,-92.8129,26.929,303.941
2017-01-07 00:00:00,2017-01-07 00:00:00,TMP,surface,-107.813,27.8739,293.229
2017-01-07 00:00:00,2017-01-07 00:00:00,TMP,surface,-106.875,27.8739,292.583
2017-01-07 00:00:00,2017-01-07 00:00:00,TMP,surface,-105.938,27.8739,296.292
2017-01-07 00:00:00,2017-01-07 00:00:00,TMP,surface,-105,27.8739,300.276
2017-01-07 00:00:00,2017-01-07 00:00:00,TMP,surface,-104.063,27.8739,300.985
2017-01-07 00:00:00,2017-01-07 00:00:00,TMP,surface,-103.125,27.8739,299.017
2017-01-07 00:00:00,2017-01-07 00:00:00,TMP,surface,-102.188,27.8739,298.541
2017-01-07 00:00:00,2017-01-07 00:00:00,TMP,surface,-101.25,27.8739,301.618
2017-01-07 00:00:00,2017-01-07 00:00:00,TMP,surface,-100.313,27.8739,304.162
2017-01-07 00:00:00,2017-01-07 00:00:00,TMP,surface,-99.3754,27.8739,304.101
2017-01-07 00:00:00,2017-01-07 00:00:00,TMP,surface,-98.4379,27.8739,302.751
2017-01-07 00:00:00,2017-01-07 00:00:00,TMP,surface,-97.5004,27.8739,301.943
2017-01-07 00:00:00,2017-01-07 00:00:00,TMP,surface,-96.5629,27.8739,301.996
2017-01-07 00:00:00,2017-01-07 00:00:00,TMP,surface,-95.6254,27.8739,302.471
2017-01-07 00:00:00,2017-01-07 00:00:00,TMP,surface,-94.6879,27.8739,303.143
2017-01-07 00:00:00,2017-01-07 00:00:00,TMP,surface,-93.7504,27.8739,303.706
2017-01-07 00:00:00,2017-01-07 00:00:00,TMP,surface,-92.8129,27.8739,304.001
2017-01-07 00:00:00,2017-01-07 00:00:00,TMP,surface,-107.813,28.8188,293.057
2017-01-07 00:00:00,2017-01-07 00:00:00,TMP,surface,-106.875,28.8188,294.253
2017-01-07 00:00:00,2017-01-07 00:00:00,TMP,surface,-105.938,28.8188,298.938
2017-01-07 00:00:00,2017-01-07 00:00:00,TMP,surface,-105,28.8188,302.145
2017-01-07 00:00:00,2017-01-07 00:00:00,TMP,surface,-104.063,28.8188,301.3
2017-01-07 00:00:00,2017-01-07 00:00:00,TMP,surface,-103.125,28.8188,299.513
2017-01-07 00:00:00,2017-01-07 00:00:00,TMP,surface,-102.188,28.8188,299.53
2017-01-07 00:00:00,2017-01-07 00:00:00,TMP,surface,-101.25,28.8188,302.061
2017-01-07 00:00:00,2017-01-07 00:00:00,TMP,surface,-100.313,28.8188,303.433
2017-01-07 00:00:00,2017-01-07 00:00:00,TMP,surface,-99.3754,28.8188,302.765
2017-01-07 00:00:00,2017-01-07 00:00:00,TMP,surface,-98.4379,28.8188,301.673
2017-01-07 00:00:00,2017-01-07 00:00:00,TMP,surface,-97.5004,28.8188,301.381
2017-01-07 00:00:00,2017-01-07 00:00:00,TMP,surface,-96.5629,28.8188,301.559
2017-01-07 00:00:00,2017-01-07 00:00:00,TMP,surface,-95.6254,28.8188,301.759
2017-01-07 00:00:00,2017-01-07 00:00:00,TMP,surface,-94.6879,28.8188,302.209
2017-01-07 00:00:00,2017-01-07 00:00:00,TMP,surface,-93.7504,28.8188,302.735
2017-01-07 00:00:00,2017-01-07 00:00:00,TMP,surface,-92.8129,28.8188,302.86
2017-01-07 00:00:00,2017-01-07 00:00:00,TMP,surface,-107.813,29.7637,296.066
2017-01-07 00:00:00,2017-01-07 00:00:00,TMP,surface,-106.875,29.7637,297.989
2017-01-07 00:00:00,2017-01-07 00:00:00,TMP,surface,-105.938,29.7637,301.169
2017-01-07 00:00:00,2017-01-07 00:00:00,TMP,surface,-105,29.7637,302.722
2017-01-07 00:00:00,2017-01-07 00:00:00,TMP,surface,-104.063,29.7637,301.717
2017-01-07 00:00:00,2017-01-07 00:00:00,TMP,surface,-103.125,29.7637,301.002
2017-01-07 00:00:00,2017-01-07 00:00:00,TMP,surface,-102.188,29.7637,301.81
2017-01-07 00:00:00,2017-01-07 00:00:00,TMP,surface,-101.25,29.7637,302.57
2017-01-07 00:00:00,2017-01-07 00:00:00,TMP,surface,-100.313,29.7637,302.157
2017-01-07 00:00:00,2017-01-07 00:00:00,TMP,surface,-99.3754,29.7637,300.994
2017-01-07 00:00:00,2017-01-07 00:00:00,TMP,surface,-98.4379,29.7637,300.722
2017-01-07 00:00:00,2017-01-07 00:00:00,TMP,surface,-97.5004,29.7637,301.221
2017-01-07 00:00:00,2017-01-07 00:00:00,TMP,surface,-96.5629,29.7637,301.325
2017-01-07 00:00:00,2017-01-07 00:00:00,TMP,surface,-95.6254,29.7637,301.084
2017-01-07 00:00:00,2017-01-07 00:00:00,TMP,surface,-94.6879,29.7637,301.231
2017-01-07 00:00:00,2017-01-07 00:00:00,TMP,surface,-93.7504,29.7637,301.559
2017-01-07 00:00:00,2017-01-07 00:00:00,TMP,surface,-92.8129,29.7637,301.489
2017-01-07 00:00:00,2017-01-07 00:00:00,TMP,surface,-107.813,30.7085,300.748
2017-01-07 00:00:00,2017-01-07 00:00:00,TMP,surface,-106.875,30.7085,302.167
2017-01-07 00:00:00,2017-01-07 00:00:00,TMP,surface,-105.938,30.7085,302.901
2017-01-07 00:00:00,2017-01-07 00:00:00,TMP,surface,-105,30.7085,302.919
2017-01-07 00:00:00,2017-01-07 00:00:00,TMP,surface,-104.063,30.7085,301.41
2017-01-07 00:00:00,2017-01-07 00:00:00,TMP,surface,-103.125,30.7085,301.969
2017-01-07 00:00:00,2017-01-07 00:00:00,TMP,surface,-102.188,30.7085,302.665
2017-01-07 00:00:00,2017-01-07 00:00:00,TMP,surface,-101.25,30.7085,302.439
2017-01-07 00:00:00,2017-01-07 00:00:00,TMP,surface,-100.313,30.7085,301.748
2017-01-07 00:00:00,2017-01-07 00:00:00,TMP,surface,-99.3754,30.7085,301.279
2017-01-07 00:00:00,2017-01-07 00:00:00,TMP,surface,-98.4379,30.7085,301.537
2017-01-07 00:00:00,2017-01-07 00:00:00,TMP,surface,-97.5004,30.7085,302.26
2017-01-07 00:00:00,2017-01-07 00:00:00,TMP,surface,-96.5629,30.7085,302.612
2017-01-07 00:00:00,2017-01-07 00:00:00,TMP,surface,-95.6254,30.7085,302.189
2017-01-07 00:00:00,2017-01-07 00:00:00,TMP,surface,-94.6879,30.7085,301.525
2017-01-07 00:00:00,2017-01-07 00:00:00,TMP,surface,-93.7504,30.7085,301.245
2017-01-07 00:00:00,2017-01-07 00:00:00,TMP,surface,-92.8129,30.7085,300.911
2017-01-07 00:00:00,2017-01-07 00:00:00,TMP,surface,-107.813,31.6534,302.914
2017-01-07 00:00:00,2017-01-07 00:00:00,TMP,surface,-106.875,31.6534,303.389
2017-01-07 00:00:00,2017-01-07 00:00:00,TMP,surface,-105.938,31.6534,303.113
2017-01-07 00:00:00,2017-01-07 00:00:00,TMP,surface,-105,31.6534,302.706
2017-01-07 00:00:00,2017-01-07 00:00:00,TMP,surface,-104.063,31.6534,302.353
2017-01-07 00:00:00,2017-01-07 00:00:00,TMP,surface,-103.125,31.6534,302.545
2017-01-07 00:00:00,2017-01-07 00:00:00,TMP,surface,-102.188,31.6534,302.729
2017-01-07 00:00:00,2017-01-07 00:00:00,TMP,surface,-101.25,31.6534,302.429
2017-01-07 00:00:00,2017-01-07 00:00:00,TMP,surface,-100.313,31.6534,302.241
2017-01-07 00:00:00,2017-01-07 00:00:00,TMP,surface,-99.3754,31.6534,302.508
2017-01-07 00:00:00,2017-01-07 00:00:00,TMP,surface,-98.4379,31.6534,303.018
2017-01-07 00:00:00,2017-01-07 00:00:00,TMP,surface,-97.5004,31.6534,303.503
2017-01-07 00:00:00,2017-01-07 00:00:00,TMP,surface,-96.5629,31.6534,303.543
2017-01-07 00:00:00,2017-01-07 00:00:00,TMP,surface,-95.6254,31.6534,302.901
2017-01-07 00:00:00,2017-01-07 00:00:00,TMP,surface,-94.6879,31.6534,302.005
2017-01-07 00:00:00,2017-01-07 00:00:00,TMP,surface,-93.7504,31.6534,301.441
2017-01-07 00:00:00,2017-01-07 00:00:00,TMP,surface,-92.8129,31.6534,301.215
2017-01-07 00:00:00,2017-01-07 00:00:00,TMP,surface,-107.813,32.5983,300.348
2017-01-07 00:00:00,2017-01-07 00:00:00,TMP,surface,-106.875,32.5983,301.183
2017-01-07 00:00:00,2017-01-07 00:00:00,TMP,surface,-105.938,32.5983,301.645
2017-01-07 00:00:00,2017-01-07 00:00:00,TMP,surface,-105,32.5983,301.607
2017-01-07 00:00:00,2017-01-07 00:00:00,TMP,surface,-104.063,32.5983,302.018
2017-01-07 00:00:00,2017-01-07 00:00:00,TMP,surface,-103.125,32.5983,302.362
2017-01-07 00:00:00,2017-01-07 00:00:00,TMP,surface,-102.188,32.5983,302.487
2017-01-07 00:00:00,2017-01-07 00:00:00,TMP,surface,-101.25,32.5983,302.7
2017-01-07 00:00:00,2017-01-07 00:00:00,TMP,surface,-100.313,32.5983,303.415
2017-01-07 00:00:00,2017-01-07 00:00:00,TMP,surface,-99.3754,32.5983,304.097
2017-01-07 00:00:00,2017-01-07 00:00:00,TMP,surface,-98.4379,32.5983,304.322
2017-01-07 00:00:00,2017-01-07 00:00:00,TMP,surface,-97.5004,32.5983,304.165
2017-01-07 00:00:00,2017-01-07 00:00:00,TMP,surface,-96.5629,32.5983,303.812
2017-01-07 00:00:00,2017-01-07 00:00:00,TMP,surface,-95.6254,32.5983,303.228
2017-01-07 00:00:00,2017-01-07 00:00:00,TMP,surface,-94.6879,32.5983,302.407
2017-01-07 00:00:00,2017-01-07 00:00:00,TMP,surface,-93.7504,32.5983,301.761
2017-01-07 00:00:00,2017-01-07 00:00:00,TMP,surface,-92.8129,32.5983,301.719
2017-01-07 00:00:00,2017-01-07 00:00:00,TMP,surface,-107.813,33.5432,297.029
2017-01-07 00:00:00,2017-01-07 00:00:00,TMP,surface,-106.875,33.5432,298.581
2017-01-07 00:00:00,2017-01-07 00:00:00,TMP,surface,-105.938,33.5432,299.612
2017-01-07 00:00:00,2017-01-07 00:00:00,TMP,surface,-105,33.5432,300.575
2017-01-07 00:00:00,2017-01-07 00:00:00,TMP,surface,-104.063,33.5432,302.087
2017-01-07 00:00:00,2017-01-07 00:00:00,TMP,surface,-103.125,33.5432,302.281
2017-01-07 00:00:00,2017-01-07 00:00:00,TMP,surface,-102.188,33.5432,302.503
2017-01-07 00:00:00,2017-01-07 00:00:00,TMP,surface,-101.25,33.5432,303.228
2017-01-07 00:00:00,2017-01-07 00:00:00,TMP,surface,-100.313,33.5432,304.289
2017-01-07 00:00:00,2017-01-07 00:00:00,TMP,surface,-99.3754,33.5432,304.949
2017-01-07 00:00:00,2017-01-07 00:00:00,TMP,surface,-98.4379,33.5432,304.596
2017-01-07 00:00:00,2017-01-07 00:00:00,TMP,surface,-97.5004,33.5432,303.645
2017-01-07 00:00:00,2017-01-07 00:00:00,TMP,surface,-96.5629,33.5432,302.855
2017-01-07 00:00:00,2017-01-07 00:00:00,TMP,surface,-95.6254,33.5432,302.394
2017-01-07 00:00:00,2017-01-07 00:00:00,TMP,surface,-94.6879,33.5432,301.89
2017-01-07 00:00:00,2017-01-07 00:00:00,TMP,surface,-93.7504,33.5432,301.177
2017-01-07 00:00:00,2017-01-07 00:00:00,TMP,surface,-92.8129,33.5432,300.793
2017-01-07 00:00:00,2017-01-07 00:00:00,TMP,surface,-107.813,34.4881,295.479
2017-01-07 00:00:00,2017-01-07 00:00:00,TMP,surface,-106.875,34.4881,297.108
2017-01-07 00:00:00,2017-01-07 00:00:00,TMP,surface,-105.938,34.4881,298.137
2017-01-07 00:00:00,2017-01-07 00:00:00,TMP,surface,-105,34.4881,300.089
2017-01-07 00:00:00,2017-01-07 00:00:00,TMP,surface,-104.063,34.4881,301.639
2017-01-07 00:00:00,2017-01-07 00:00:00,TMP,surface,-103.125,34.4881,302.17
2017-01-07 00:00:00,2017-01-07 00:00:00,TMP,surface,-102.188,34.4881,302.7
2017-01-07 00:00:00,2017-01-07 00:00:00,TMP,surface,-101.25,34.4881,303.369
2017-01-07 00:00:00,2017-01-07 00:00:00,TMP,surface,-100.313,34.4881,304.189
2017-01-07 00:00:00,2017-01-07 00:00:00,TMP,surface,-99.3754,34.4881,304.364
2017-01-07 00:00:00,2017-01-07 00:00:00,TMP,surface,-98.4379,34.4881,303.613
2017-01-07 00:00:00,2017-01-07 00:00:00,TMP,surface,-97.5004,34.4881,302.361
2017-01-07 00:00:00,2017-01-07 00:00:00,TMP,surface,-96.5629,34.4881,301.655
2017-01-07 00:00:00,2017-01-07 00:00:00,TMP,surface,-95.6254,34.4881,301.553
2017-01-07 00:00:00,2017-01-07 00:00:00,TMP,surface,-94.6879,34.4881,301.009
2017-01-07 00:00:00,2017-01-07 00:00:00,TMP,surface,-93.7504,34.4881,300.167
2017-01-07 00:00:00,2017-01-07 00:00:00,TMP,surface,-92.8129,34.4881,299.842
2017-01-07 00:00:00,2017-01-07 00:00:00,TMP,surface,-107.813,35.4329,295.901
2017-01-07 00:00:00,2017-01-07 00:00:00,TMP,surface,-106.875,35.4329,296.084
2017-01-07 00:00:00,2017-01-07 00:00:00,TMP,surface,-105.938,35.4329,296.434
2017-01-07 00:00:00,2017-01-07 00:00:00,TMP,surface,-105,35.4329,297.761
2017-01-07 00:00:00,2017-01-07 00:00:00,TMP,surface,-104.063,35.4329,300.031
2017-01-07 00:00:00,2017-01-07 00:00:00,TMP,surface,-103.125,35.4329,301.625
2017-01-07 00:00:00,2017-01-07 00:00:00,TMP,surface,-102.188,35.4329,302.394
2017-01-07 00:00:00,2017-01-07 00:00:00,TMP,surface,-101.25,35.4329,302.735
2017-01-07 00:00:00,2017-01-07 00:00:00,TMP,surface,-100.313,35.4329,303.156
2017-01-07 00:00:00,2017-01-07 00:00:00,TMP,surface,-99.3754,35.4329,303.405
2017-01-07 00:00:00,2017-01-07 00:00:00,TMP,surface,-98.4379,35.4329,303.17
2017-01-07 00:00:00,2017-01-07 00:00:00,TMP,surface,-97.5004,35.4329,302.513
2017-01-07 00:00:00,2017-01-07 00:00:00,TMP,surface,-96.5629,35.4329,301.898
2017-01-07 00:00:00,2017-01-07 00:00:00,TMP,surface,-95.6254,35.4329,301.397
2017-01-07 00:00:00,2017-01-07 00:00:00,TMP,surface,-94.6879,35.4329,300.543
2017-01-07 00:00:00,2017-01-07 00:00:00,TMP,surface,-93.7504,35.4329,299.404
2017-01-07 00:00:00,2017-01-07 00:00:00,TMP,surface,-92.8129,35.4329,298.765
2017-01-07 00:00:00,2017-01-07 00:00:00,TMP,surface,-107.813,36.3778,294.682
2017-01-07 00:00:00,2017-01-07 00:00:00,TMP,surface,-106.875,36.3778,292.441
2017-01-07 00:00:00,2017-01-07 00:00:00,TMP,surface,-105.938,36.3778,293.409
2017-01-07 00:00:00,2017-01-07 00:00:00,TMP,surface,-105,36.3778,295.247
2017-01-07 00:00:00,2017-01-07 00:00:00,TMP,surface,-104.063,36.3778,297.517
2017-01-07 00:00:00,2017-01-07 00:00:00,TMP,surface,-103.125,36.3778,299.706
2017-01-07 00:00:00,2017-01-07 00:00:00,TMP,surface,-102.188,36.3778,300.946
2017-01-07 00:00:00,2017-01-07 00:00:00,TMP,surface,-101.25,36.3778,301.756
2017-01-07 00:00:00,2017-01-07 00:00:00,TMP,surface,-100.313,36.3778,302.234
2017-01-07 00:00:00,2017-01-07 00:00:00,TMP,surface,-99.3754,36.3778,302.423
2017-01-07 00:00:00,2017-01-07 00:00:00,TMP,surface,-98.4379,36.3778,302.425
2017-01-07 00:00:00,2017-01-07 00:00:00,TMP,surface,-97.5004,36.3778,302.162
2017-01-07 00:00:00,2017-01-07 00:00:00,TMP,surface,-96.5629,36.3778,301.577
2017-01-07 00:00:00,2017-01-07 00:00:00,TMP,surface,-95.6254,36.3778,300.703
2017-01-07 00:00:00,2017-01-07 00:00:00,TMP,surface,-94.6879,36.3778,299.602
2017-01-07 00:00:00,2017-01-07 00:00:00,TMP,surface,-93.7504,36.3778,298.543
2017-01-07 00:00:00,2017-01-07 00:00:00,TMP,surface,-92.8129,36.3778,297.892
2017-01-07 00:00:00,2017-01-07 00:00:00,PRATE,surface,-107.813,25.0393,1.65e-05
2017-01-07 00:00:00,2017-01-07 00:00:00,PRATE,surface,-106.875,25.0393,0.0001662
2017-01-07 00:00:00,2017-01-07 00:00:00,PRATE,surface,-105.938,25.0393,0.0001449
2017-01-07 00:00:00,2017-01-07 00:00:00,PRATE,surface,-105,25.0393,0.0001093
2017-01-07 00:00:00,2017-01-07 00:00:00,PRATE,surface,-104.063,25.0393,3.88e-05
2017-01-07 00:00:00,2017-01-07 00:00:00,PRATE,surface,-103.125,25.0393,5.5e-06
2017-01-07 00:00:00,2017-01-07 00:00:00,PRATE,surface,-102.188,25.0393,1.35e-05
2017-01-07 00:00:00,2017-01-07 00:00:00,PRATE,surface,-101.25,25.0393,3.35e-05
2017-01-07 00:00:00,2017-01-07 00:00:00,PRATE,surface,-100.313,25.0393,4.5e-05
2017-01-07 00:00:00,2017-01-07 00:00:00,PRATE,surface,-99.3754,25.0393,1.35e-05
2017-01-07 00:00:00,2017-01-07 00:00:00,PRATE,surface,-98.4379,25.0393,1.31e-05
2017-01-07 00:00:00,2017-01-07 00:00:00,PRATE,surface,-97.5004,25.0393,2.38e-05
2017-01-07 00:00:00,2017-01-07 00:00:00,PRATE,surface,-96.5629,25.0393,2.82e-05
2017-01-07 00:00:00,2017-01-07 00:00:00,PRATE,surface,-95.6254,25.0393,1.66e-05
2017-01-07 00:00:00,2017-01-07 00:00:00,PRATE,surface,-94.6879,25.0393,3.16e-05
2017-01-07 00:00:00,2017-01-07 00:00:00,PRATE,surface,-93.7504,25.0393,6.63e-05
2017-01-07 00:00:00,2017-01-07 00:00:00,PRATE,surface,-92.8129,25.0393,6.67e-05
2017-01-07 00:00:00,2017-01-07 00:00:00,PRATE,surface,-107.813,25.9842,7.74e-05
2017-01-07 00:00:00,2017-01-07 00:00:00,PRATE,surface,-106.875,25.9842,0.0001187
2017-01-07 00:00:00,2017-01-07 00:00:00,PRATE,surface,-105.938,25.9842,0.0001038
2017-01-07 00:00:00,2017-01-07 00:00:00,PRATE,surface,-105,25.9842,6.12e-05
2017-01-07 00:00:00,2017-01-07 00:00:00,PRATE,surface,-104.063,25.9842,1.27e-05
2017-01-07 00:00:00,2017-01-07 00:00:00,PRATE,surface,-103.125,25.9842,4.7e-06
2017-01-07 00:00:00,2017-01-07 00:00:00,PRATE,surface,-102.188,25.9842,8.9e-06
2017-01-07 00:00:00,2017-01-07 00:00:00,PRATE,surface,-101.25,25.9842,1.96e-05
2017-01-07 00:00:00,2017-01-07 00:00:00,PRATE,surface,-100.313,25.9842,2.26e-05
2017-01-07 00:00:00,2017-01-07 00:00:00,PRATE,surface,-99.3754,25.9842,5.8e-06
2017-01-07 00:00:00,2017-01-07 00:00:00,PRATE,surface,-98.4379,25.9842,1.35e-05
2017-01-07 00:00:00,2017-01-07 00:00:00,PRATE,surface,-97.5004,25.9842,4.39e-05
2017-01-07 00:00:00,2017-01-07 00:00:00,PRATE,surface,-96.5629,25.9842,4.84e-05
2017-01-07 00:00:00,2017-01-07 00:00:00,PRATE,surface,-95.6254,25.9842,4.92e-05
2017-01-07 00:00:00,2017-01-07 00:00:00,PRATE,surface,-94.6879,25.9842,5.19e-05
2017-01-07 00:00:00,2017-01-07 00:00:00,PRATE,surface,-93.7504,25.9842,5.95e-05
2017-01-07 00:00:00,2017-01-07 00:00:00,PRATE,surface,-92.8129,25.9842,6.53e-05
2017-01-07 00:00:00,2017-01-07 00:00:00,PRATE,surface,-107.813,26.929,9.36e-05
2017-01-07 00:00:00,2017-01-07 00:00:00,PRATE,surface,-106.875,26.929,6.58e-05
2017-01-07 00:00:00,2017-01-07 00:00:00,PRATE,surface,-105.938,26.929,4.24e-05
2017-01-07 00:00:00,2017-01-07 00:00:00,PRATE,surface,-105,26.929,2.43e-05
2017-01-07 00:00:00,2017-01-07 00:00:00,PRATE,surface,-104.063,26.929,1.12e-05
2017-01-07 00:00:00,2017-01-07 00:00:00,PRATE,surface,-103.125,26.929,1.5e-05
2017-01-07 00:00:00,2017-01-07 00:00:00,PRATE,surface,-102.188,26.929,2.16e-05
2017-01-07 00:00:00,2017-01-07 00:00:00,PRATE,surface,-101.25,26.929,1.45e-05
2017-01-07 00:00:00,2017-01-07 00:00:00,PRATE,surface,-100.313,26.929,4.9e-06
2017-01-07 00:00:00,2017-01-07 00:00:00,PRATE,surface,-99.3754,26.929,1.15e-05
2017-01-07 00:00:00,2017-01-07 00:00:00,PRATE,surface,-98.4379,26.929,3.01e-05
2017-01-07 00:00:00,2017-01-07 00:00:00,PRATE,surface,-97.5004,26.929,3.93e-05
2017-01-07 00:00:00,2017-01-07 00:00:00,PRATE,surface,-96.5629,26.929,2.11e-05
2017-01-07 00:00:00,2017-01-07 00:00:00,PRATE,surface,-95.6254,26.929,2.97e-05
2017-01-07 00:00:00,2017-01-07 00:00:00,PRATE,surface,-94.6879,26.929,2.59e-05
2017-01-07 00:00:00,2017-01-07 00:00:00,PRATE,surface,-93.7504,26.929,6.03e-05
2017-01-07 00:00:00,2017-01-07 00:00:00,PRATE,surface,-92.8129,26.929,8.1e-05
2017-01-07 00:00:00,2017-01-07 00:00:00,PRATE,surface,-107.813,27.8739,7.93e-05
2017-01-07 00:00:00,2017-01-07 00:00:00,PRATE,surface,-106.875,27.8739,3.74e-05
2017-01-07 00:00:00,2017-01-07 00:00:00,PRATE,surface,-105.938,27.8739,4.5e-06
2017-01-07 00:00:00,2017-01-07 00:00:00,PRATE,surface,-105,27.8739,2.3e-06
2017-01-07 00:00:00,2017-01-07 00:00:00,PRATE,surface,-104.063,27.8739,1.16e-05
2017-01-07 00:00:00,2017-01-07 00:00:00,PRATE,surface,-103.125,27.8739,1.93e-05
2017-01-07 00:00:00,2017-01-07 00:00:00,PRATE,surface,-102.188,27.8739,1.66e-05
2017-01-07 00:00:00,2017-01-07 00:00:00,PRATE,surface,-101.25,27.8739,4.8e-06
2017-01-07 00:00:00,2017-01-07 00:00:00,PRATE,surface,-100.313,27.8739,3.7e-06
2017-01-07 00:00:00,2017-01-07 00:00:00,PRATE,surface,-99.3754,27.8739,1.83e-05
2017-01-07 00:00:00,2017-01-07 00:00:00,PRATE,surface,-98.4379,27.8739,3.86e-05
2017-01-07 00:00:00,2017-01-07 00:00:00,PRATE,surface,-97.5004,27.8739,3.32e-05
2017-01-07 00:00:00,2017-01-07 00:00:00,PRATE,surface,-96.5629,27.8739,1.48e-05
2017-01-07 00:00:00,2017-01-07 00:00:00,PRATE,surface,-95.6254,27.8739,1.42e-05
2017-01-07 00:00:00,2017-01-07 00:00:00,PRATE,surface,-94.6879,27.8739,3.59e-05
2017-01-07 00:00:00,2017-01-07 00:00:00,PRATE,surface,-93.7504,27.8739,6.64e-05
2017-01-07 00:00:00,2017-01-07 00:00:00,PRATE,surface,-92.8129,27.8739,5.82e-05
2017-01-07 00:00:00,2017-01-07 00:00:00,PRATE,surface,-107.813,28.8188,6.5e-05
2017-01-07 00:00:00,2017-01-07 00:00:00,PRATE,surface,-106.875,28.8188,3.05e-05
2017-01-07 00:00:00,2017-01-07 00:00:00,PRATE,surface,-105.938,28.8188,3.6e-06
2017-01-07 00:00:00,2017-01-07 00:00:00,PRATE,surface,-105,28.8188,1.9e-06
2017-01-07 00:00:00,2017-01-07 00:00:00,PRATE,surface,-104.063,28.8188,1.5e-06
2017-01-07 00:00:00,2017-01-07 00:00:00,PRATE,surface,-103.125,28.8188,2.9e-06
2017-01-07 00:00:00,2017-01-07 00:00:00,PRATE,surface,-102.188,28.8188,1.4e-06
2017-01-07 00:00:00,2017-01-07 00:00:00,PRATE,surface,-101.25,28.8188,3e-07
2017-01-07 00:00:00,2017-01-07 00:00:00,PRATE,surface,-100.313,28.8188,5.3e-06
2017-01-07 00:00:00,2017-01-07 00:00:00,PRATE,surface,-99.3754,28.8188,2.14e-05
2017-01-07 00:00:00,2017-01-07 00:00:00,PRATE,surface,-98.4379,28.8188,3.72e-05
2017-01-07 00:00:00,2017-01-07 00:00:00,PRATE,surface,-97.5004,28.8188,3.9e-05
2017-01-07 00:00:00,2017-01-07 00:00:00,PRATE,surface,-96.5629,28.8188,3.93e-05
2017-01-07 00:00:00,2017-01-07 00:00:00,PRATE,surface,-95.6254,28.8188,3.9e-05
2017-01-07 00:00:00,2017-01-07 00:00:00,PRATE,surface,-94.6879,28.8188,2.96e-05
2017-01-07 00:00:00,2017-01-07 00:00:00,PRATE,surface,-93.7504,28.8188,3.07e-05
2017-01-07 00:00:00,2017-01-07 00:00:00,PRATE,surface,-92.8129,28.8188,3.21e-05
2017-01-07 00:00:00,2017-01-07 00:00:00,PRATE,surface,-107.813,29.7637,3.46e-05
2017-01-07 00:00:00,2017-01-07 00:00:00,PRATE,surface,-106.875,29.7637,4.1e-06
2017-01-07 00:00:00,2017-01-07 00:00:00,PRATE,surface,-105.938,29.7637,2.6e-06
2017-01-07 00:00:00,2017-01-07 00:00:00,PRATE,surface,-105,29.7637,2.7e-06
2017-01-07 00:00:00,2017-01-07 00:00:00,PRATE,surface,-104.063,29.7637,5e-07
2017-01-07 00:00:00,2017-01-07 00:00:00,PRATE,surface,-103.125,29.7637,0
2017-01-07 00:00:00,2017-01-07 00:00:00,PRATE,surface,-102.188,29.7637,0
2017-01-07 00:00:00,2017-01-07 00:00:00,PRATE,surface,-101.25,29.7637,0
2017-01-07 00:00:00,2017-01-07 00:00:00,PRATE,surface,-100.313,29.7637,3.4e-06
2017-01-07 00:00:00,2017-01-07 00:00:00,PRATE,surface,-99.3754,29.7637,1.95e-05
2017-01-07 00:00:00,2017-01-07 00:00:00,PRATE,surface,-98.4379,29.7637,2.28e-05
2017-01-07 00:00:00,2017-01-07 00:00:00,PRATE,surface,-97.5004,29.7637,1.87e-05
2017-01-07 00:00:00,2017-01-07 00:00:00,PRATE,surface,-96.5629,29.7637,2.73e-05
2017-01-07 00:00:00,2017-01-07 00:00:00,PRATE,surface,-95.6254,29.7637,3.84e-05
2017-01-07 00:00:00,2017-01-07 00:00:00,PRATE,surface,-94.6879,29.7637,3.38e-05
2017-01-07 00:00:00,2017-01-07 00:00:00,PRATE,surface,-93.7504,29.7637,2.63e-05
2017-01-07 00:00:00,2017-01-07 00:00:00,PRATE,surface,-92.8129,29.7637,3.81e-05
2017-01-07 00:00:00,2017-01-07 00:00:00,PRATE,surface,-107.813,30.7085,2.2e-06
2017-01-07 00:00:00,2017-01-07 00:00:00,PRATE,surface,-106.875,30.7085,1e-06
2017-01-07 00:00:00,2017-01-07 00:00:00,PRATE,surface,-105.938,30.7085,3.4e-06
2017-01-07 00:00:00,2017-01-07 00:00:00,PRATE,surface,-105,30.7085,1.9e-06
2017-01-07 00:00:00,2017-01-07 00:00:00,PRATE,surface,-104.063,30.7085,7e-07
2017-01-07 00:00:00,2017-01-07 00:00:00,PRATE,surface,-103.125,30.7085,2e-07
2017-01-07 00:00:00,2017-01-07 00:00:00,PRATE,surface,-102.188,30.7085,0
2017-01-07 00:00:00,2017-01-07 00:00:00,PRATE,surface,-101.25,30.7085,7e-07
2017-01-07 00:00:00,2017-01-07 00:00:00,PRATE,surface,-100.313,30.7085,1.5e-06
2017-01-07 00:00:00,2017-01-07 00:00:00,PRATE,surface,-99.3754,30.7085,4.2e-06
2017-01-07 00:00:00,2017-01-07 00:00:00,PRATE,surface,-98.4379,30.7085,4e-06
2017-01-07 00:00:00,2017-01-07 00:00:00,PRATE,surface,-97.5004,30.7085,2.8e-06
2017-01-07 00:00:00,2017-01-07 00:00:00,PRATE,surface,-96.5629,30.7085,3.8e-06
2017-01-07 00:00:00,2017-01-07 00:00:00,PRATE,surface,-95.6254,30.7085,8.8e-06
2017-01-07 00:00:00,2017-01-07 00:00:00,PRATE,surface,-94.6879,30.7085,1.4e-05
2017-01-07 00:00:00,2017-01-07 00:00:00,PRATE,surface,-93.7504,30.7085,1.26e-05
2017-01-07 00:00:00,2017-01-07 00:00:00,PRATE,surface,-92.8129,30.7085,1.53e-05
2017-01-07 00:00:00,2017-01-07 00:00:00,PRATE,surface,-107.813,31.6534,7e-07
2017-01-07 00:00:00,2017-01-07 00:00:00,PRATE,surface,-106.875,31.6534,5e-07
2017-01-07 00:00:00,2017-01-07 00:00:00,PRATE,surface,-105.938,31.6534,1.9e-06
2017-01-07 00:00:00,2017-01-07 00:00:00,PRATE,surface,-105,31.6534,2e-06
2017-01-07 00:00:00,2017-01-07 00:00:00,PRATE,surface,-104.063,31.6534,9e-07
2017-01-07 00:00:00,2017-01-07 00:00:00,PRATE,surface,-103.125,31.6534,2e-07
2017-01-07 00:00:00,2017-01-07 00:00:00,PRATE,surface,-102.188,31.6534,0
2017-01-07 00:00:00,2017-01-07 00:00:00,PRATE,surface,-101.25,31.6534,3e-07
2017-01-07 00:00:00,2017-01-07 00:00:00,PRATE,surface,-100.313,31.6534,1e-06
2017-01-07 00:00:00,2017-01-07 00:00:00,PRATE,surface,-99.3754,31.6534,1.8e-06
2017-01-07 00:00:00,2017-01-07 00:00:00,PRATE,surface,-98.4379,31.6534,3.7e-06
2017-01-07 00:00:00,2017-01-07 00:00:00,PRATE,surface,-97.5004,31.6534,3.9e-06
2017-01-07 00:00:00,2017-01-07 00:00:00,PRATE,surface,-96.5629,31.6534,3e-06
2017-01-07 00:00:00,2017-01-07 00:00:00,PRATE,surface,-95.6254,31.6534,6.7e-06
2017-01-07 00:00:00,2017-01-07 00:00:00,PRATE,surface,-94.6879,31.6534,1.12e-05
2017-01-07 00:00:00,2017-01-07 00:00:00,PRATE,surface,-93.7504,31.6534,1e-05
2017-01-07 00:00:00,2017-01-07 00:00:00,PRATE,surface,-92.8129,31.6534,1.35e-05
2017-01-07 00:00:00,2017-01-07 00:00:00,PRATE,surface,-107.813,32.5983,9e-07
2017-01-07 00:00:00,2017-01-07 00:00:00,PRATE,surface,-106.875,32.5983,1.9e-06
2017-01-07 00:00:00,2017-01-07 00:00:00,PRATE,surface,-105.938,32.5983,4.8e-06
2017-01-07 00:00:00,2017-01-07 00:00:00,PRATE,surface,-105,32.5983,3.4e-06
2017-01-07 00:00:00,2017-01-07 00:00:00,PRATE,surface,-104.063,32.5983,1e-06
2017-01-07 00:00:00,2017-01-07 00:00:00,PRATE,surface,-103.125,32.5983,2e-07
2017-01-07 00:00:00,2017-01-07 00:00:00,PRATE,surface,-102.188,32.5983,1e-07
2017-01-07 00:00:00,2017-01-07 00:00:00,PRATE,surface,-101.25,32.5983,1e-07
2017-01-07 00:00:00,2017-01-07 00:00:00,PRATE,surface,-100.313,32.5983,3e-07
2017-01-07 00:00:00,2017-01-07 00:00:00,PRATE,surface,-99.3754,32.5983,2.2e-06
2017-01-07 00:00:00,2017-01-07 00:00:00,PRATE,surface,-98.4379,32.5983,7.4e-06
2017-01-07 00:00:00,2017-01-07 00:00:00,PRATE,surface,-97.5004,32.5983,7.8e-06
2017-01-07 00:00:00,2017-01-07 00:00:00,PRATE,surface,-96.5629,32.5983,5.5e-06
2017-01-07 00:00:00,2017-01-07 00:00:00,PRATE,surface,-95.6254,32.5983,7.8e-06
2017-01-07 00:00:00,2017-01-07 00:00:00,PRATE,surface,-94.6879,32.5983,1.08e-05
2017-01-07 00:00:00,2017-01-07 00:00:00,PRATE,surface,-93.7504,32.5983,1.02e-05
2017-01-07 00:00:00,2017-01-07 00:00:00,PRATE,surface,-92.8129,32.5983,6.6e-06
2017-01-07 00:00:00,2017-01-07 00:00:00,PRATE,surface,-107.813,33.5432,3.5e-06
2017-01-07 00:00:00,2017-01-07 00:00:00,PRATE,surface,-106.875,33.5432,3.6e-06
2017-01-07 00:00:00,2017-01-07 00:00:00,PRATE,surface,-105.938,33.5432,2.2e-06
2017-01-07 00:00:00,2017-01-07 00:00:00,PRATE,surface,-105,33.5432,2.7e-06
2017-01-07 00:00:00,2017-01-07 00:00:00,PRATE,surface,-104.063,33.5432,2.3e-06
2017-01-07 00:00:00,2017-01-07 00:00:00,PRATE,surface,-103.125,33.5432,1.1e-06
2017-01-07 00:00:00,2017-01-07 00:00:00,PRATE,surface,-102.188,33.5432,5e-07
2017-01-07 00:00:00,2017-01-07 00:00:00,PRATE,surface,-101.25,33.5432,4e-07
2017-01-07 00:00:00,2017-01-07 00:00:00,PRATE,surface,-100.313,33.5432,4e-07
2017-01-07 00:00:00,2017-01-07 00:00:00,PRATE,surface,-99.3754,33.5432,8e-07
2017-01-07 00:00:00,2017-01-07 00:00:00,PRATE,surface,-98.4379,33.5432,1.4e-06
2017-01-07 00:00:00,2017-01-07 00:00:00,PRATE,surface,-97.5004,33.5432,1.7e-06
2017-01-07 00:00:00,2017-01-07 00:00:00,PRATE,surface,-96.5629,33.5432,3.1e-06
2017-01-07 00:00:00,2017-01-07 00:00:00,PRATE,surface,-95.6254,33.5432,6.4e-06
2017-01-07 00:00:00,2017-01-07 00:00:00,PRATE,surface,-94.6879,33.5432,1.04e-05
2017-01-07 00:00:00,2017-01-07 00:00:00,PRATE,surface,-93.7504,33.5432,1.4e-05
2017-01-07 00:00:00,2017-01-07 00:00:00,PRATE,surface,-92.8129,33.5432,1.51e-05
2017-01-07 00:00:00,2017-01-07 00:00:00,PRATE,surface,-107.813,34.4881,6.1e-06
2017-01-07 00:00:00,2017-01-07 00:00:00,PRATE,surface,-106.875,34.4881,5.7e-06
2017-01-07 00:00:00,2017-01-07 00:00:00,PRATE,surface,-105.938,34.4881,3.8e-06
2017-01-07 00:00:00,2017-01-07 00:00:00,PRATE,surface,-105,34.4881,2.9e-06
2017-01-07 00:00:00,2017-01-07 00:00:00,PRATE,surface,-104.063,34.4881,2.5e-06
2017-01-07 00:00:00,2017-01-07 00:00:00,PRATE,surface,-103.125,34.4881,2.3e-06
2017-01-07 00:00:00,2017-01-07 00:00:00,PRATE,surface,-102.188,34.4881,2.6e-06
2017-01-07 00:00:00,2017-01-07 00:00:00,PRATE,surface,-101.25,34.4881,2.8e-06
2017-01-07 00:00:00,2017-01-07 00:00:00,PRATE,surface,-100.313,34.4881,3.1e-06
2017-01-07 00:00:00,2017-01-07 00:00:00,PRATE,surface,-99.3754,34.4881,3.4e-06
2017-01-07 00:00:00,2017-01-07 00:00:00,PRATE,surface,-98.4379,34.4881,4.6e-06
2017-01-07 00:00:00,2017-01-07 00:00:00,PRATE,surface,-97.5004,34.4881,7.5e-06
2017-01-07 00:00:00,2017-01-07 00:00:00,PRATE,surface,-96.5629,34.4881,9.7e-06
2017-01-07 00:00:00,2017-01-07 00:00:00,PRATE,surface,-95.6254,34.4881,1.05e-05
2017-01-07 00:00:00,2017-01-07 00:00:00,PRATE,surface,-94.6879,34.4881,1.46e-05
2017-01-07 00:00:00,2017-01-07 00:00:00,PRATE,surface,-93.7504,34.4881,2.65e-05
2017-01-07 00:00:00,2017-01-07 00:00:00,PRATE,surface,-92.8129,34.4881,4.19e-05
2017-01-07 00:00:00,2017-01-07 00:00:00,PRATE,surface,-107.813,35.4329,2.1e-06
2017-01-07 00:00:00,2017-01-07 00:00:00,PRATE,surface,-106.875,35.4329,1.8e-06
2017-01-07 00:00:00,2017-01-07 00:00:00,PRATE,surface,-105.938,35.4329,2.2e-06
2017-01-07 00:00:00,2017-01-07 00:00:00,PRATE,surface,-105,35.4329,2.7e-06
2017-01-07 00:00:00,2017-01-07 00:00:00,PRATE,surface,-104.063,35.4329,2.9e-06
2017-01-07 00:00:00,2017-01-07 00:00:00,PRATE,surface,-103.125,35.4329,6.9e-06
2017-01-07 00:00:00,2017-01-07 00:00:00,PRATE,surface,-102.188,35.4329,8.2e-06
2017-01-07 00:00:00,2017-01-07 00:00:00,PRATE,surface,-101.25,35.4329,1.03e-05
2017-01-07 00:00:00,2017-01-07 00:00:00,PRATE,surface,-100.313,35.4329,9.5e-06
2017-01-07 00:00:00,2017-01-07 00:00:00,PRATE,surface,-99.3754,35.4329,8.4e-06
2017-01-07 00:00:00,2017-01-07 00:00:00,PRATE,surface,-98.4379,35.4329,9.4e-06
2017-01-07 00:00:00,2017-01-07 00:00:00,PRATE,surface,-97.5004,35.4329,1.7e-05
2017-01-07 00:00:00,2017-01-07 00:00:00,PRATE,surface,-96.5629,35.4329,2.45e-05
2017-01-07 00:00:00,2017-01-07 00:00:00,PRATE,surface,-95.6254,35.4329,2.46e-05
2017-01-07 00:00:00,2017-01-07 00:00:00,PRATE,surface,-94.6879,35.4329,2.84e-05
2017-01-07 00:00:00,2017-01-07 00:00:00,PRATE,surface,-93.7504,35.4329,4.27e-05
2017-01-07 00:00:00,2017-01-07 00:00:00,PRATE,surface,-92.8129,35.4329,4.77e-05
2017-01-07 00:00:00,2017-01-07 00:00:00,PRATE,surface,-107.813,36.3778,2.6e-06
2017-01-07 00:00:00,2017-01-07 00:00:00,PRATE,surface,-106.875,36.3778,2.7e-06
2017-01-07 00:00:00,2017-01-07 00:00:00,PRATE,surface,-105.938,36.3778,5.2e-06
2017-01-07 00:00:00,2017-01-07 00:00:00,PRATE,surface,-105,36.3778,3.7e-06
2017-01-07 00:00:00,2017-01-07 00:00:00,PRATE,surface,-104.063,36.3778,7.6e-06
2017-01-07 00:00:00,2017-01-07 00:00:00,PRATE,surface,-103.125,36.3778,1.68e-05
2017-01-07 00:00:00,2017-01-07 00:00:00,PRATE,surface,-102.188,36.3778,2.37e-05
2017-01-07 00:00:00,2017-01-07 00:00:00,PRATE,surface,-101.25,36.3778,2.16e-05
2017-01-07 00:00:00,2017-01-07 00:00:00,PRATE,surface,-100.313,36.3778,2.2e-05
2017-01-07 00:00:00,2017-01-07 00:00:00,PRATE,surface,-99.3754,36.3778,2.31e-05
2017-01-07 00:00:00,2017-01-07 00:00:00,PRATE,surface,-98.4379,36.3778,2.55e-05
2017-01-07 00:00:00,2017-01-07 00:00:00,PRATE,surface,-97.5004,36.3778,3.22e-05
2017-01-07 00:00:00,2017-01-07 00:00:00,PRATE,surface,-96.5629,36.3778,4.3e-05
2017-01-07 00:00:00,2017-01-07 00:00:00,PRATE,surface,-95.6254,36.3778,5.07e-05
2017-01-07 00:00:00,2017-01-07 00:00:00,PRATE,surface,-94.6879,36.3778,4.95e-05
2017-01-07 00:00:00,2017-01-07 00:00:00,PRATE,surface,-93.7504,36.3778,4.41e-05
2017-01-07 00:00:00,2017-01-07 00:00:00,PRATE,surface,-92.8129,36.3778,4e-05
