2014-02-10 00:00:00,2014-02-10 00:00:00,TMP,surface,-107.813,25.0393,294.493
2014-02-10 00:00:00,2014-02-10 00:00:00,TMP,surface,-106.875,25.0393,290.606
2014-02-10 00:00:00,2014-02-10 00:00:00,TMP,surface,-105.938,25.0393,285.266
2014-02-10 00:00:00,2014-02-10 00:00:00,TMP,surface,-105,25.0393,286.034
2014-02-10 00:00:00,2014-02-10 00:00:00,TMP,surface,-104.063,25.0393,290.138
2014-02-10 00:00:00,2014-02-10 00:00:00,TMP,surface,-103.125,25.0393,291.273
2014-02-10 00:00:00,2014-02-10 00:00:00,TMP,surface,-102.188,25.0393,290.59
2014-02-10 00:00:00,2014-02-10 00:00:00,TMP,surface,-101.25,25.0393,289.867
2014-02-10 00:00:00,2014-02-10 00:00:00,TMP,surface,-100.313,25.0393,290.382
2014-02-10 00:00:00,2014-02-10 00:00:00,TMP,surface,-99.3754,25.0393,291.59
2014-02-10 00:00:00,2014-02-10 00:00:00,TMP,surface,-98.4379,25.0393,293.19
2014-02-10 00:00:00,2014-02-10 00:00:00,TMP,surface,-97.5004,25.0393,291.726
2014-02-10 00:00:00,2014-02-10 00:00:00,TMP,surface,-96.5629,25.0393,293.625
2014-02-10 00:00:00,2014-02-10 00:00:00,TMP,surface,-95.6254,25.0393,295.202
2014-02-10 00:00:00,2014-02-10 00:00:00,TMP,surface,-94.6879,25.0393,295.621
2014-02-10 00:00:00,2014-02-10 00:00:00,TMP,surface,-93.7504,25.0393,295.541
2014-02-10 00:00:00,2014-02-10 00:00:00,TMP,surface,-92.8129,25.0393,295.269
2014-02-10 00:00:00,2014-02-10 00:00:00,TMP,surface,-107.813,25.9842,291.23
2014-02-10 00:00:00,2014-02-10 00:00:00,TMP,surface,-106.875,25.9842,286.182
2014-02-10 00:00:00,2014-02-10 00:00:00,TMP,surface,-105.938,25.9842,284.179
2014-02-10 00:00:00,2014-02-10 00:00:00,TMP,surface,-105,25.9842,288.573
2014-02-10 00:00:00,2014-02-10 00:00:00,TMP,surface,-104.063,25.9842,291.795
2014-02-10 00:00:00,2014-02-10 00:00:00,TMP,surface,-103.125,25.9842,292.395
2014-02-10 00:00:00,2014-02-10 00:00:00,TMP,surface,-102.188,25.9842,291.605
2014-02-10 00:00:00,2014-02-10 00:00:00,TMP,surface,-101.25,25.9842,290.76
2014-02-10 00:00:00,2014-02-10 00:00:00,TMP,surface,-100.313,25.9842,290.565
2014-02-10 00:00:00,2014-02-10 00:00:00,TMP,surface,-99.3754,25.9842,292.401
2014-02-10 00:00:00,2014-02-10 00:00:00,TMP,surface,-98.4379,25.9842,292.934
2014-02-10 00:00:00,2014-02-10 00:00:00,TMP,surface,-97.5004,25.9842,293.232
2014-02-10 00:00:00,2014-02-10 00:00:00,TMP,surface,-96.5629,25.9842,292.566
2014-02-10 00:00:00,2014-02-10 00:00:00,TMP,surface,-95.6254,25.9842,294.987
2014-02-10 00:00:00,2014-02-10 00:00:00,TMP,surface,-94.6879,25.9842,295.414
2014-02-10 00:00:00,2014-02-10 00:00:00,TMP,surface,-93.7504,25.9842,295.393
2014-02-10 00:00:00,2014-02-10 00:00:00,TMP,surface,-92.8129,25.9842,295.168
2014-02-10 00:00:00,2014-02-10 00:00:00,TMP,surface,-107.813,26.929,287.15
2014-02-10 00:00:00,2014-02-10 00:00:00,TMP,surface,-106.875,26.929,283.558
2014-02-10 00:00:00,2014-02-10 00:00:00,TMP,surface,-105.938,26.929,286.698
2014-02-10 00:00:00,2014-02-10 00:00:00,TMP,surface,-105,26.929,290.84
2014-02-10 00:00:00,2014-02-10 00:00:00,TMP,surface,-104.063,26.929,291.486
2014-02-10 00:00:00,2014-02-10 00:00:00,TMP,surface,-103.125,26.929,290.771
2014-02-10 00:00:00,2014-02-10 00:00:00,TMP,surface,-102.188,26.929,290.368
2014-02-10 00:00:00,2014-02-10 00:00:00,TMP,surface,-101.25,26.929,290.309
2014-02-10 00:00:00,2014-02-10 00:00:00,TMP,surface,-100.313,26.929,290.72
2014-02-10 00:00:00,2014-02-10 00:00:00,TMP,surface,-99.3754,26.929,291.833
2014-02-10 00:00:00,2014-02-10 00:00:00,TMP,surface,-98.4379,26.929,291.301
2014-02-10 00:00:00,2014-02-10 00:00:00,TMP,surface,-97.5004,26.929,290.026
2014-02-10 00:00:00,2014-02-10 00:00:00,TMP,surface,-96.5629,26.929,291.904
2014-02-10 00:00:00,2014-02-10 00:00:00,TMP,surface,-95.6254,26.929,294.194
2014-02-10 00:00:00,2014-02-10 00:00:00,TMP,surface,-94.6879,26.929,294.888
2014-02-10 00:00:00,2014-02-10 00:00:00,TMP,surface,-93.7504,26.929,294.773
2014-02-10 00:00:00,2014-02-10 00:00:00,TMP,surface,-92.8129,26.929,294.594
2014-02-10 00:00:00,2014-02-10 00:00:00,TMP,surface,-107.813,27.8739,284.55
2014-02-10 00:00:00,2014-02-10 00:00:00,TMP,surface,-106.875,27.8739,284.446
2014-02-10 00:00:00,2014-02-10 00:00:00,TMP,surface,-105.938,27.8739,288.645
2014-02-10 00:00:00,2014-02-10 00:00:00,TMP,surface,-105,27.8739,290.968
2014-02-10 00:00:00,2014-02-10 00:00:00,TMP,surface,-104.063,27.8739,290.093
2014-02-10 00:00:00,2014-02-10 00:00:00,TMP,surface,-103.125,27.8739,289.096
2014-02-10 00:00:00,2014-02-10 00:00:00,TMP,surface,-102.188,27.8739,289.026
2014-02-10 00:00:00,2014-02-10 00:00:00,TMP,surface,-101.25,27.8739,289.438
2014-02-10 00:00:00,2014-02-10 00:00:00,TMP,surface,-100.313,27.8739,290.241
2014-02-10 00:00:00,2014-02-10 00:00:00,TMP,surface,-99.3754,27.8739,290.254
2014-02-10 00:00:00,2014-02-10 00:00:00,TMP,surface,-98.4379,27.8739,290.014
2014-02-10 00:00:00,2014-02-10 00:00:00,TMP,surface,-97.5004,27.8739,290.552
2014-02-10 00:00:00,2014-02-10 00:00:00,TMP,surface,-96.5629,27.8739,291.307
2014-02-10 00:00:00,2014-02-10 00:00:00,TMP,surface,-95.6254,27.8739,291.819
2014-02-10 00:00:00,2014-02-10 00:00:00,TMP,surface,-94.6879,27.8739,292.55
2014-02-10 00:00:00,2014-02-10 00:00:00,TMP,surface,-93.7504,27.8739,293.203
2014-02-10 00:00:00,2014-02-10 00:00:00,TMP,surface,-92.8129,27.8739,293.625
2014-02-10 00:00:00,2014-02-10 00:00:00,TMP,surface,-107.813,28.8188,283.185
2014-02-10 00:00:00,2014-02-10 00:00:00,TMP,surface,-106.875,28.8188,285.373
2014-02-10 00:00:00,2014-02-10 00:00:00,TMP,surface,-105.938,28.8188,289.118
2014-02-10 00:00:00,2014-02-10 00:00:00,TMP,surface,-105,28.8188,290.24
2014-02-10 00:00:00,2014-02-10 00:00:00,TMP,surface,-104.063,28.8188,289.345
2014-02-10 00:00:00,2014-02-10 00:00:00,TMP,surface,-103.125,28.8188,288.765
2014-02-10 00:00:00,2014-02-10 00:00:00,TMP,surface,-102.188,28.8188,288.858
2014-02-10 00:00:00,2014-02-10 00:00:00,TMP,surface,-101.25,28.8188,289.157
2014-02-10 00:00:00,2014-02-10 00:00:00,TMP,surface,-100.313,28.8188,288.965
2014-02-10 00:00:00,2014-02-10 00:00:00,TMP,surface,-99.3754,28.8188,288.368
2014-02-10 00:00:00,2014-02-10 00:00:00,TMP,surface,-98.4379,28.8188,288.266
2014-02-10 00:00:00,2014-02-10 00:00:00,TMP,surface,-97.5004,28.8188,288.681
2014-02-10 00:00:00,2014-02-10 00:00:00,TMP,surface,-96.5629,28.8188,289.121
2014-02-10 00:00:00,2014-02-10 00:00:00,TMP,surface,-95.6254,28.8188,288.686
2014-02-10 00:00:00,2014-02-10 00:00:00,TMP,surface,-94.6879,28.8188,288.056
2014-02-10 00:00:00,2014-02-10 00:00:00,TMP,surface,-93.7504,28.8188,289.469
2014-02-10 00:00:00,2014-02-10 00:00:00,TMP,surface,-92.8129,28.8188,290.837
2014-02-10 00:00:00,2014-02-10 00:00:00,TMP,surface,-107.813,29.7637,284.513
2014-02-10 00:00:00,2014-02-10 00:00:00,TMP,surface,-106.875,29.7637,286.213
2014-02-10 00:00:00,2014-02-10 00:00:00,TMP,surface,-105.938,29.7637,288.331
2014-02-10 00:00:00,2014-02-10 00:00:00,TMP,surface,-105,29.7637,288.702
2014-02-10 00:00:00,2014-02-10 00:00:00,TMP,surface,-104.063,29.7637,288.547
2014-02-10 00:00:00,2014-02-10 00:00:00,TMP,surface,-103.125,29.7637,288.634
2014-02-10 00:00:00,2014-02-10 00:00:00,TMP,surface,-102.188,29.7637,289.149
2014-02-10 00:00:00,2014-02-10 00:00:00,TMP,surface,-101.25,29.7637,288.893
2014-02-10 00:00:00,2014-02-10 00:00:00,TMP,surface,-100.313,29.7637,287.827
2014-02-10 00:00:00,2014-02-10 00:00:00,TMP,surface,-99.3754,29.7637,287.105
2014-02-10 00:00:00,2014-02-10 00:00:00,TMP,surface,-98.4379,29.7637,287.075
2014-02-10 00:00:00,2014-02-10 00:00:00,TMP,surface,-97.5004,29.7637,287.403
2014-02-10 00:00:00,2014-02-10 00:00:00,TMP,surface,-96.5629,29.7637,287.65
2014-02-10 00:00:00,2014-02-10 00:00:00,TMP,surface,-95.6254,29.7637,287.688
2014-02-10 00:00:00,2014-02-10 00:00:00,TMP,surface,-94.6879,29.7637,287.293
2014-02-10 00:00:00,2014-02-10 00:00:00,TMP,surface,-93.7504,29.7637,287.043
2014-02-10 00:00:00,2014-02-10 00:00:00,TMP,surface,-92.8129,29.7637,288.907
2014-02-10 00:00:00,2014-02-10 00:00:00,TMP,surface,-107.813,30.7085,286.68
2014-02-10 00:00:00,2014-02-10 00:00:00,TMP,surface,-106.875,30.7085,287.322
2014-02-10 00:00:00,2014-02-10 00:00:00,TMP,surface,-105.938,30.7085,287.48
2014-02-10 00:00:00,2014-02-10 00:00:00,TMP,surface,-105,30.7085,287.603
2014-02-10 00:00:00,2014-02-10 00:00:00,TMP,surface,-104.063,30.7085,287.721
2014-02-10 00:00:00,2014-02-10 00:00:00,TMP,surface,-103.125,30.7085,288.269
2014-02-10 00:00:00,2014-02-10 00:00:00,TMP,surface,-102.188,30.7085,288.482
2014-02-10 00:00:00,2014-02-10 00:00:00,TMP,surface,-101.25,30.7085,287.984
2014-02-10 00:00:00,2014-02-10 00:00:00,TMP,surface,-100.313,30.7085,287.118
2014-02-10 00:00:00,2014-02-10 00:00:00,TMP,surface,-99.3754,30.7085,286.611
2014-02-10 00:00:00,2014-02-10 00:00:00,TMP,surface,-98.4379,30.7085,286.542
2014-02-10 00:00:00,2014-02-10 00:00:00,TMP,surface,-97.5004,30.7085,286.622
2014-02-10 00:00:00,2014-02-10 00:00:00,TMP,surface,-96.5629,30.7085,286.736
2014-02-10 00:00:00,2014-02-10 00:00:00,TMP,surface,-95.6254,30.7085,286.768
2014-02-10 00:00:00,2014-02-10 00:00:00,TMP,surface,-94.6879,30.7085,286.665
2014-02-10 00:00:00,2014-02-10 00:00:00,TMP,surface,-93.7504,30.7085,286.696
2014-02-10 00:00:00,2014-02-10 00:00:00,TMP,surface,-92.8129,30.7085,286.826
2014-02-10 00:00:00,2014-02-10 00:00:00,TMP,surface,-107.813,31.6534,286.637
2014-02-10 00:00:00,2014-02-10 00:00:00,TMP,surface,-106.875,31.6534,286.874
2014-02-10 00:00:00,2014-02-10 00:00:00,TMP,surface,-105.938,31.6534,286.558
2014-02-10 00:00:00,2014-02-10 00:00:00,TMP,surface,-105,31.6534,286.654
2014-02-10 00:00:00,2014-02-10 00:00:00,TMP,surface,-104.063,31.6534,287.157
2014-02-10 00:00:00,2014-02-10 00:00:00,TMP,surface,-103.125,31.6534,287.461
2014-02-10 00:00:00,2014-02-10 00:00:00,TMP,surface,-102.188,31.6534,287.374
2014-02-10 00:00:00,2014-02-10 00:00:00,TMP,surface,-101.25,31.6534,286.987
2014-02-10 00:00:00,2014-02-10 00:00:00,TMP,surface,-100.313,31.6534,286.69
2014-02-10 00:00:00,2014-02-10 00:00:00,TMP,surface,-99.3754,31.6534,286.501
2014-02-10 00:00:00,2014-02-10 00:00:00,TMP,surface,-98.4379,31.6534,286.462
2014-02-10 00:00:00,2014-02-10 00:00:00,TMP,surface,-97.5004,31.6534,286.4
2014-02-10 00:00:00,2014-02-10 00:00:00,TMP,surface,-96.5629,31.6534,286.217
2014-02-10 00:00:00,2014-02-10 00:00:00,TMP,surface,-95.6254,31.6534,285.965
2014-02-10 00:00:00,2014-02-10 00:00:00,TMP,surface,-94.6879,31.6534,285.646
2014-02-10 00:00:00,2014-02-10 00:00:00,TMP,surface,-93.7504,31.6534,285.398
2014-02-10 00:00:00,2014-02-10 00:00:00,TMP,surface,-92.8129,31.6534,285.434
2014-02-10 00:00:00,2014-02-10 00:00:00,TMP,surface,-107.813,32.5983,284.406
2014-02-10 00:00:00,2014-02-10 00:00:00,TMP,surface,-106.875,32.5983,284.77
2014-02-10 00:00:00,2014-02-10 00:00:00,TMP,surface,-105.938,32.5983,284.904
2014-02-10 00:00:00,2014-02-10 00:00:00,TMP,surface,-105,32.5983,285.422
2014-02-10 00:00:00,2014-02-10 00:00:00,TMP,surface,-104.063,32.5983,285.973
2014-02-10 00:00:00,2014-02-10 00:00:00,TMP,surface,-103.125,32.5983,286.259
2014-02-10 00:00:00,2014-02-10 00:00:00,TMP,surface,-102.188,32.5983,286.017
2014-02-10 00:00:00,2014-02-10 00:00:00,TMP,surface,-101.25,32.5983,286.173
2014-02-10 00:00:00,2014-02-10 00:00:00,TMP,surface,-100.313,32.5983,286.464
2014-02-10 00:00:00,2014-02-10 00:00:00,TMP,surface,-99.3754,32.5983,286.534
2014-02-10 00:00:00,2014-02-10 00:00:00,TMP,surface,-98.4379,32.5983,286.365
2014-02-10 00:00:00,2014-02-10 00:00:00,TMP,surface,-97.5004,32.5983,286.011
2014-02-10 00:00:00,2014-02-10 00:00:00,TMP,surface,-96.5629,32.5983,285.659
2014-02-10 00:00:00,2014-02-10 00:00:00,TMP,surface,-95.6254,32.5983,285.283
2014-02-10 00:00:00,2014-02-10 00:00:00,TMP,surface,-94.6879,32.5983,284.746
2014-02-10 00:00:00,2014-02-10 00:00:00,TMP,surface,-93.7504,32.5983,284.37
2014-02-10 00:00:00,2014-02-10 00:00:00,TMP,surface,-92.8129,32.5983,284.379
2014-02-10 00:00:00,2014-02-10 00:00:00,TMP,surface,-107.813,33.5432,281.121
2014-02-10 00:00:00,2014-02-10 00:00:00,TMP,surface,-106.875,33.5432,282.48
2014-02-10 00:00:00,2014-02-10 00:00:00,TMP,surface,-105.938,33.5432,283.31
2014-02-10 00:00:00,2014-02-10 00:00:00,TMP,surface,-105,33.5432,284.232
2014-02-10 00:00:00,2014-02-10 00:00:00,TMP,surface,-104.063,33.5432,284.955
2014-02-10 00:00:00,2014-02-10 00:00:00,TMP,surface,-103.125,33.5432,285.437
2014-02-10 00:00:00,2014-02-10 00:00:00,TMP,surface,-102.188,33.5432,285.219
2014-02-10 00:00:00,2014-02-10 00:00:00,TMP,surface,-101.25,33.5432,285.293
2014-02-10 00:00:00,2014-02-10 00:00:00,TMP,surface,-100.313,33.5432,285.632
2014-02-10 00:00:00,2014-02-10 00:00:00,TMP,surface,-99.3754,33.5432,285.841
2014-02-10 00:00:00,2014-02-10 00:00:00,TMP,surface,-98.4379,33.5432,285.661
2014-02-10 00:00:00,2014-02-10 00:00:00,TMP,surface,-97.5004,33.5432,285.138
2014-02-10 00:00:00,2014-02-10 00:00:00,TMP,surface,-96.5629,33.5432,284.592
2014-02-10 00:00:00,2014-02-10 00:00:00,TMP,surface,-95.6254,33.5432,284.194
2014-02-10 00:00:00,2014-02-10 00:00:00,TMP,surface,-94.6879,33.5432,283.768
2014-02-10 00:00:00,2014-02-10 00:00:00,TMP,surface,-93.7504,33.5432,283.32
2014-02-10 00:00:00,2014-02-10 00:00:00,TMP,surface,-92.8129,33.5432,283.219
2014-02-10 00:00:00,2014-02-10 00:00:00,TMP,surface,-107.813,34.4881,278.678
2014-02-10 00:00:00,2014-02-10 00:00:00,TMP,surface,-106.875,34.4881,280.314
2014-02-10 00:00:00,2014-02-10 00:00:00,TMP,surface,-105.938,34.4881,281.422
2014-02-10 00:00:00,2014-02-10 00:00:00,TMP,surface,-105,34.4881,282.643
2014-02-10 00:00:00,2014-02-10 00:00:00,TMP,surface,-104.063,34.4881,283.832
2014-02-10 00:00:00,2014-02-10 00:00:00,TMP,surface,-103.125,34.4881,284.264
2014-02-10 00:00:00,2014-02-10 00:00:00,TMP,surface,-102.188,34.4881,284.211
2014-02-10 00:00:00,2014-02-10 00:00:00,TMP,surface,-101.25,34.4881,284.194
2014-02-10 00:00:00,2014-02-10 00:00:00,TMP,surface,-100.313,34.4881,284.12
2014-02-10 00:00:00,2014-02-10 00:00:00,TMP,surface,-99.3754,34.4881,284.082
2014-02-10 00:00:00,2014-02-10 00:00:00,TMP,surface,-98.4379,34.4881,284.014
2014-02-10 00:00:00,2014-02-10 00:00:00,TMP,surface,-97.5004,34.4881,283.782
2014-02-10 00:00:00,2014-02-10 00:00:00,TMP,surface,-96.5629,34.4881,283.513
2014-02-10 00:00:00,2014-02-10 00:00:00,TMP,surface,-95.6254,34.4881,283.112
2014-02-10 00:00:00,2014-02-10 00:00:00,TMP,surface,-94.6879,34.4881,282.416
2014-02-10 00:00:00,2014-02-10 00:00:00,TMP,surface,-93.7504,34.4881,281.866
2014-02-10 00:00:00,2014-02-10 00:00:00,TMP,surface,-92.8129,34.4881,281.701
2014-02-10 00:00:00,2014-02-10 00:00:00,TMP,surface,-107.813,35.4329,277.451
2014-02-10 00:00:00,2014-02-10 00:00:00,TMP,surface,-106.875,35.4329,277.941
2014-02-10 00:00:00,2014-02-10 00:00:00,TMP,surface,-105.938,35.4329,279.005
2014-02-10 00:00:00,2014-02-10 00:00:00,TMP,surface,-105,35.4329,280.491
2014-02-10 00:00:00,2014-02-10 00:00:00,TMP,surface,-104.063,35.4329,281.718
2014-02-10 00:00:00,2014-02-10 00:00:00,TMP,surface,-103.125,35.4329,282.862
2014-02-10 00:00:00,2014-02-10 00:00:00,TMP,surface,-102.188,35.4329,283.075
2014-02-10 00:00:00,2014-02-10 00:00:00,TMP,surface,-101.25,35.4329,282.558
2014-02-10 00:00:00,2014-02-10 00:00:00,TMP,surface,-100.313,35.4329,282.128
2014-02-10 00:00:00,2014-02-10 00:00:00,TMP,surface,-99.3754,35.4329,281.955
2014-02-10 00:00:00,2014-02-10 00:00:00,TMP,surface,-98.4379,35.4329,281.997
2014-02-10 00:00:00,2014-02-10 00:00:00,TMP,surface,-97.5004,35.4329,282.144
2014-02-10 00:00:00,2014-02-10 00:00:00,TMP,surface,-96.5629,35.4329,282.094
2014-02-10 00:00:00,2014-02-10 00:00:00,TMP,surface,-95.6254,35.4329,281.627
2014-02-10 00:00:00,2014-02-10 00:00:00,TMP,surface,-94.6879,35.4329,280.925
2014-02-10 00:00:00,2014-02-10 00:00:00,TMP,surface,-93.7504,35.4329,280.289
2014-02-10 00:00:00,2014-02-10 00:00:00,TMP,surface,-92.8129,35.4329,279.92
2014-02-10 00:00:00,2014-02-10 00:00:00,TMP,surface,-107.813,36.3778,275.229
2014-02-10 00:00:00,2014-02-10 00:00:00,TMP,surface,-106.875,36.3778,274.035
2014-02-10 00:00:00,2014-02-10 00:00:00,TMP,surface,-105.938,36.3778,275.429
2014-02-10 00:00:00,2014-02-10 00:00:00,TMP,surface,-105,36.3778,277.829
2014-02-10 00:00:00,2014-02-10 00:00:00,TMP,surface,-104.063,36.3778,280.121
2014-02-10 00:00:00,2014-02-10 00:00:00,TMP,surface,-103.125,36.3778,281.307
2014-02-10 00:00:00,2014-02-10 00:00:00,TMP,surface,-102.188,36.3778,281.561
2014-02-10 00:00:00,2014-02-10 00:00:00,TMP,surface,-101.25,36.3778,281.262
2014-02-10 00:00:00,2014-02-10 00:00:00,TMP,surface,-100.313,36.3778,281.017
2014-02-10 00:00:00,2014-02-10 00:00:00,TMP,surface,-99.3754,36.3778,280.886
2014-02-10 00:00:00,2014-02-10 00:00:00,TMP,surface,-98.4379,36.3778,280.781
2014-02-10 00:00:00,2014-02-10 00:00:00,TMP,surface,-97.5004,36.3778,280.952
2014-02-10 00:00:00,2014-02-10 00:00:00,TMP,surface,-96.5629,36.3778,281.078
2014-02-10 00:00:00,2014-02-10 00:00:00,TMP,surface,-95.6254,36.3778,280.632
2014-02-10 00:00:00,2014-02-10 00:00:00,TMP,surface,-94.6879,36.3778,279.805
2014-02-10 00:00:00,2014-02-10 00:00:00,TMP,surface,-93.7504,36.3778,279.057
2014-02-10 00:00:00,2014-02-10 00:00:00,TMP,surface,-92.8129,36.3778,278.661
2014-02-10 00:00:00,2014-02-10 00:00:00,PRATE,surface,-107.813,25.0393,5e-07
2014-02-10 00:00:00,2014-02-10 00:00:00,PRATE,surface,-106.875,25.0393,5.3e-06
2014-02-10 00:00:00,2014-02-10 00:00:00,PRATE,surface,-105.938,25.0393,1.84e-05
2014-02-10 00:00:00,2014-02-10 00:00:00,PRATE,surface,-105,25.0393,2.21e-05
2014-02-10 00:00:00,2014-02-10 00:00:00,PRATE,surface,-104.063,25.0393,1.45e-05
2014-02-10 00:00:00,2014-02-10 00:00:00,PRATE,surface,-103.125,25.0393,8.3e-06
2014-02-10 00:00:00,2014-02-10 00:00:00,PRATE,surface,-102.188,25.0393,9.5e-06
2014-02-10 00:00:00,2014-02-10 00:00:00,PRATE,surface,-101.25,25.0393,2.17e-05
2014-02-10 00:00:00,2014-02-10 00:00:00,PRATE,surface,-100.313,25.0393,3.64e-05
2014-02-10 00:00:00,2014-02-10 00:00:00,PRATE,surface,-99.3754,25.0393,4.23e-05
2014-02-10 00:00:00,2014-02-10 00:00:00,PRATE,surface,-98.4379,25.0393,3.35e-05
2014-02-10 00:00:00,2014-02-10 00:00:00,PRATE,surface,-97.5004,25.0393,1.96e-05
2014-02-10 00:00:00,2014-02-10 00:00:00,PRATE,surface,-96.5629,25.0393,1.7e-05
2014-02-10 00:00:00,2014-02-10 00:00:00,PRATE,surface,-95.6254,25.0393,1.45e-05
2014-02-10 00:00:00,2014-02-10 00:00:00,PRATE,surface,-94.6879,25.0393,1.8e-05
2014-02-10 00:00:00,2014-02-10 00:00:00,PRATE,surface,-93.7504,25.0393,1.41e-05
2014-02-10 00:00:00,2014-02-10 00:00:00,PRATE,surface,-92.8129,25.0393,1.16e-05
2014-02-10 00:00:00,2014-02-10 00:00:00,PRATE,surface,-107.813,25.9842,1.5e-06
2014-02-10 00:00:00,2014-02-10 00:00:00,PRATE,surface,-106.875,25.9842,1.13e-05
2014-02-10 00:00:00,2014-02-10 00:00:00,PRATE,surface,-105.938,25.9842,3.03e-05
2014-02-10 00:00:00,2014-02-10 00:00:00,PRATE,surface,-105,25.9842,3.22e-05
2014-02-10 00:00:00,2014-02-10 00:00:00,PRATE,surface,-104.063,25.9842,1.79e-05
2014-02-10 00:00:00,2014-02-10 00:00:00,PRATE,surface,-103.125,25.9842,1.09e-05
2014-02-10 00:00:00,2014-02-10 00:00:00,PRATE,surface,-102.188,25.9842,1.34e-05
2014-02-10 00:00:00,2014-02-10 00:00:00,PRATE,surface,-101.25,25.9842,2.24e-05
2014-02-10 00:00:00,2014-02-10 00:00:00,PRATE,surface,-100.313,25.9842,3.19e-05
2014-02-10 00:00:00,2014-02-10 00:00:00,PRATE,surface,-99.3754,25.9842,3.84e-05
2014-02-10 00:00:00,2014-02-10 00:00:00,PRATE,surface,-98.4379,25.9842,3.31e-05
2014-02-10 00:00:00,2014-02-10 00:00:00,PRATE,surface,-97.5004,25.9842,2.19e-05
2014-02-10 00:00:00,2014-02-10 00:00:00,PRATE,surface,-96.5629,25.9842,2.52e-05
2014-02-10 00:00:00,2014-02-10 00:00:00,PRATE,surface,-95.6254,25.9842,2.59e-05
2014-02-10 00:00:00,2014-02-10 00:00:00,PRATE,surface,-94.6879,25.9842,2.2e-05
2014-02-10 00:00:00,2014-02-10 00:00:00,PRATE,surface,-93.7504,25.9842,1.53e-05
2014-02-10 00:00:00,2014-02-10 00:00:00,PRATE,surface,-92.8129,25.9842,1.48e-05
2014-02-10 00:00:00,2014-02-10 00:00:00,PRATE,surface,-107.813,26.929,5.5e-06
2014-02-10 00:00:00,2014-02-10 00:00:00,PRATE,surface,-106.875,26.929,2.16e-05
2014-02-10 00:00:00,2014-02-10 00:00:00,PRATE,surface,-105.938,26.929,2.62e-05
2014-02-10 00:00:00,2014-02-10 00:00:00,PRATE,surface,-105,26.929,2.11e-05
2014-02-10 00:00:00,2014-02-10 00:00:00,PRATE,surface,-104.063,26.929,1.94e-05
2014-02-10 00:00:00,2014-02-10 00:00:00,PRATE,surface,-103.125,26.929,2.21e-05
2014-02-10 00:00:00,2014-02-10 00:00:00,PRATE,surface,-102.188,26.929,2.95e-05
2014-02-10 00:00:00,2014-02-10 00:00:00,PRATE,surface,-101.25,26.929,2.98e-05
2014-02-10 00:00:00,2014-02-10 00:00:00,PRATE,surface,-100.313,26.929,3.21e-05
2014-02-10 00:00:00,2014-02-10 00:00:00,PRATE,surface,-99.3754,26.929,2.48e-05
2014-02-10 00:00:00,2014-02-10 00:00:00,PRATE,surface,-98.4379,26.929,2.35e-05
2014-02-10 00:00:00,2014-02-10 00:00:00,PRATE,surface,-97.5004,26.929,1.9e-05
2014-02-10 00:00:00,2014-02-10 00:00:00,PRATE,surface,-96.5629,26.929,2.08e-05
2014-02-10 00:00:00,2014-02-10 00:00:00,PRATE,surface,-95.6254,26.929,2.69e-05
2014-02-10 00:00:00,2014-02-10 00:00:00,PRATE,surface,-94.6879,26.929,3.23e-05
2014-02-10 00:00:00,2014-02-10 00:00:00,PRATE,surface,-93.7504,26.929,3.14e-05
2014-02-10 00:00:00,2014-02-10 00:00:00,PRATE,surface,-92.8129,26.929,3.03e-05
2014-02-10 00:00:00,2014-02-10 00:00:00,PRATE,surface,-107.813,27.8739,1.09e-05
2014-02-10 00:00:00,2014-02-10 00:00:00,PRATE,surface,-106.875,27.8739,1.24e-05
2014-02-10 00:00:00,2014-02-10 00:00:00,PRATE,surface,-105.938,27.8739,5.8e-06
2014-02-10 00:00:00,2014-02-10 00:00:00,PRATE,surface,-105,27.8739,1.4e-06
2014-02-10 00:00:00,2014-02-10 00:00:00,PRATE,surface,-104.063,27.8739,4.3e-06
2014-02-10 00:00:00,2014-02-10 00:00:00,PRATE,surface,-103.125,27.8739,1.53e-05
2014-02-10 00:00:00,2014-02-10 00:00:00,PRATE,surface,-102.188,27.8739,2.55e-05
2014-02-10 00:00:00,2014-02-10 00:00:00,PRATE,surface,-101.25,27.8739,2.57e-05
2014-02-10 00:00:00,2014-02-10 00:00:00,PRATE,surface,-100.313,27.8739,1.69e-05
2014-02-10 00:00:00,2014-02-10 00:00:00,PRATE,surface,-99.3754,27.8739,1.42e-05
2014-02-10 00:00:00,2014-02-10 00:00:00,PRATE,surface,-98.4379,27.8739,1.49e-05
2014-02-10 00:00:00,2014-02-10 00:00:00,PRATE,surface,-97.5004,27.8739,1.49e-05
2014-02-10 00:00:00,2014-02-10 00:00:00,PRATE,surface,-96.5629,27.8739,1.62e-05
2014-02-10 00:00:00,2014-02-10 00:00:00,PRATE,surface,-95.6254,27.8739,1.59e-05
2014-02-10 00:00:00,2014-02-10 00:00:00,PRATE,surface,-94.6879,27.8739,1.43e-05
2014-02-10 00:00:00,2014-02-10 00:00:00,PRATE,surface,-93.7504,27.8739,1.94e-05
2014-02-10 00:00:00,2014-02-10 00:00:00,PRATE,surface,-92.8129,27.8739,2.51e-05
2014-02-10 00:00:00,2014-02-10 00:00:00,PRATE,surface,-107.813,28.8188,7.3e-06
2014-02-10 00:00:00,2014-02-10 00:00:00,PRATE,surface,-106.875,28.8188,4.5e-06
2014-02-10 00:00:00,2014-02-10 00:00:00,PRATE,surface,-105.938,28.8188,1e-06
2014-02-10 00:00:00,2014-02-10 00:00:00,PRATE,surface,-105,28.8188,1e-07
2014-02-10 00:00:00,2014-02-10 00:00:00,PRATE,surface,-104.063,28.8188,3e-07
2014-02-10 00:00:00,2014-02-10 00:00:00,PRATE,surface,-103.125,28.8188,1.9e-06
2014-02-10 00:00:00,2014-02-10 00:00:00,PRATE,surface,-102.188,28.8188,6.3e-06
2014-02-10 00:00:00,2014-02-10 00:00:00,PRATE,surface,-101.25,28.8188,9.1e-06
2014-02-10 00:00:00,2014-02-10 00:00:00,PRATE,surface,-100.313,28.8188,1.19e-05
2014-02-10 00:00:00,2014-02-10 00:00:00,PRATE,surface,-99.3754,28.8188,1.36e-05
2014-02-10 00:00:00,2014-02-10 00:00:00,PRATE,surface,-98.4379,28.8188,1.24e-05
2014-02-10 00:00:00,2014-02-10 00:00:00,PRATE,surface,-97.5004,28.8188,1.31e-05
2014-02-10 00:00:00,2014-02-10 00:00:00,PRATE,surface,-96.5629,28.8188,1.78e-05
2014-02-10 00:00:00,2014-02-10 00:00:00,PRATE,surface,-95.6254,28.8188,2.25e-05
2014-02-10 00:00:00,2014-02-10 00:00:00,PRATE,surface,-94.6879,28.8188,2.55e-05
2014-02-10 00:00:00,2014-02-10 00:00:00,PRATE,surface,-93.7504,28.8188,2.71e-05
2014-02-10 00:00:00,2014-02-10 00:00:00,PRATE,surface,-92.8129,28.8188,2.16e-05
2014-02-10 00:00:00,2014-02-10 00:00:00,PRATE,surface,-107.813,29.7637,2.9e-06
2014-02-10 00:00:00,2014-02-10 00:00:00,PRATE,surface,-106.875,29.7637,1.7e-06
2014-02-10 00:00:00,2014-02-10 00:00:00,PRATE,surface,-105.938,29.7637,3e-07
2014-02-10 00:00:00,2014-02-10 00:00:00,PRATE,surface,-105,29.7637,0
2014-02-10 00:00:00,2014-02-10 00:00:00,PRATE,surface,-104.063,29.7637,1e-07
2014-02-10 00:00:00,2014-02-10 00:00:00,PRATE,surface,-103.125,29.7637,6e-07
2014-02-10 00:00:00,2014-02-10 00:00:00,PRATE,surface,-102.188,29.7637,2e-06
2014-02-10 00:00:00,2014-02-10 00:00:00,PRATE,surface,-101.25,29.7637,4.6e-06
2014-02-10 00:00:00,2014-02-10 00:00:00,PRATE,surface,-100.313,29.7637,8.1e-06
2014-02-10 00:00:00,2014-02-10 00:00:00,PRATE,surface,-99.3754,29.7637,1.07e-05
2014-02-10 00:00:00,2014-02-10 00:00:00,PRATE,surface,-98.4379,29.7637,1.26e-05
2014-02-10 00:00:00,2014-02-10 00:00:00,PRATE,surface,-97.5004,29.7637,1.78e-05
2014-02-10 00:00:00,2014-02-10 00:00:00,PRATE,surface,-96.5629,29.7637,2.74e-05
2014-02-10 00:00:00,2014-02-10 00:00:00,PRATE,surface,-95.6254,29.7637,3.69e-05
2014-02-10 00:00:00,2014-02-10 00:00:00,PRATE,surface,-94.6879,29.7637,4.36e-05
2014-02-10 00:00:00,2014-02-10 00:00:00,PRATE,surface,-93.7504,29.7637,4.72e-05
2014-02-10 00:00:00,2014-02-10 00:00:00,PRATE,surface,-92.8129,29.7637,3.98e-05
2014-02-10 00:00:00,2014-02-10 00:00:00,PRATE,surface,-107.813,30.7085,1.3e-06
2014-02-10 00:00:00,2014-02-10 00:00:00,PRATE,surface,-106.875,30.7085,9e-07
2014-02-10 00:00:00,2014-02-10 00:00:00,PRATE,surface,-105.938,30.7085,3e-07
2014-02-10 00:00:00,2014-02-10 00:00:00,PRATE,surface,-105,30.7085,1e-07
2014-02-10 00:00:00,2014-02-10 00:00:00,PRATE,surface,-104.063,30.7085,2e-07
2014-02-10 00:00:00,2014-02-10 00:00:00,PRATE,surface,-103.125,30.7085,6e-07
2014-02-10 00:00:00,2014-02-10 00:00:00,PRATE,surface,-102.188,30.7085,1.2e-06
2014-02-10 00:00:00,2014-02-10 00:00:00,PRATE,surface,-101.25,30.7085,3.8e-06
2014-02-10 00:00:00,2014-02-10 00:00:00,PRATE,surface,-100.313,30.7085,6.3e-06
2014-02-10 00:00:00,2014-02-10 00:00:00,PRATE,surface,-99.3754,30.7085,8.4e-06
2014-02-10 00:00:00,2014-02-10 00:00:00,PRATE,surface,-98.4379,30.7085,1.09e-05
2014-02-10 00:00:00,2014-02-10 00:00:00,PRATE,surface,-97.5004,30.7085,1.53e-05
2014-02-10 00:00:00,2014-02-10 00:00:00,PRATE,surface,-96.5629,30.7085,2.32e-05
2014-02-10 00:00:00,2014-02-10 00:00:00,PRATE,surface,-95.6254,30.7085,3.31e-05
2014-02-10 00:00:00,2014-02-10 00:00:00,PRATE,surface,-94.6879,30.7085,4.39e-05
2014-02-10 00:00:00,2014-02-10 00:00:00,PRATE,surface,-93.7504,30.7085,5.61e-05
2014-02-10 00:00:00,2014-02-10 00:00:00,PRATE,surface,-92.8129,30.7085,6.4e-05
2014-02-10 00:00:00,2014-02-10 00:00:00,PRATE,surface,-107.813,31.6534,7e-07
2014-02-10 00:00:00,2014-02-10 00:00:00,PRATE,surface,-106.875,31.6534,9e-07
2014-02-10 00:00:00,2014-02-10 00:00:00,PRATE,surface,-105.938,31.6534,6e-07
2014-02-10 00:00:00,2014-02-10 00:00:00,PRATE,surface,-105,31.6534,4e-07
2014-02-10 00:00:00,2014-02-10 00:00:00,PRATE,surface,-104.063,31.6534,2e-07
2014-02-10 00:00:00,2014-02-10 00:00:00,PRATE,surface,-103.125,31.6534,3e-07
2014-02-10 00:00:00,2014-02-10 00:00:00,PRATE,surface,-102.188,31.6534,7e-07
2014-02-10 00:00:00,2014-02-10 00:00:00,PRATE,surface,-101.25,31.6534,3.8e-06
2014-02-10 00:00:00,2014-02-10 00:00:00,PRATE,surface,-100.313,31.6534,5.8e-06
2014-02-10 00:00:00,2014-02-10 00:00:00,PRATE,surface,-99.3754,31.6534,6.3e-06
2014-02-10 00:00:00,2014-02-10 00:00:00,PRATE,surface,-98.4379,31.6534,7e-06
2014-02-10 00:00:00,2014-02-10 00:00:00,PRATE,surface,-97.5004,31.6534,9.4e-06
2014-02-10 00:00:00,2014-02-10 00:00:00,PRATE,surface,-96.5629,31.6534,1.42e-05
2014-02-10 00:00:00,2014-02-10 00:00:00,PRATE,surface,-95.6254,31.6534,2.11e-05
2014-02-10 00:00:00,2014-02-10 00:00:00,PRATE,surface,-94.6879,31.6534,3.02e-05
2014-02-10 00:00:00,2014-02-10 00:00:00,PRATE,surface,-93.7504,31.6534,4.37e-05
2014-02-10 00:00:00,2014-02-10 00:00:00,PRATE,surface,-92.8129,31.6534,6.26e-05
2014-02-10 00:00:00,2014-02-10 00:00:00,PRATE,surface,-107.813,32.5983,3e-07
2014-02-10 00:00:00,2014-02-10 00:00:00,PRATE,surface,-106.875,32.5983,5e-07
2014-02-10 00:00:00,2014-02-10 00:00:00,PRATE,surface,-105.938,32.5983,6e-07
2014-02-10 00:00:00,2014-02-10 00:00:00,PRATE,surface,-105,32.5983,3e-07
2014-02-10 00:00:00,2014-02-10 00:00:00,PRATE,surface,-104.063,32.5983,2e-07
2014-02-10 00:00:00,2014-02-10 00:00:00,PRATE,surface,-103.125,32.5983,4e-07
2014-02-10 00:00:00,2014-02-10 00:00:00,PRATE,surface,-102.188,32.5983,7e-07
2014-02-10 00:00:00,2014-02-10 00:00:00,PRATE,surface,-101.25,32.5983,1.2e-06
2014-02-10 00:00:00,2014-02-10 00:00:00,PRATE,surface,-100.313,32.5983,1.4e-06
2014-02-10 00:00:00,2014-02-10 00:00:00,PRATE,surface,-99.3754,32.5983,2.7e-06
2014-02-10 00:00:00,2014-02-10 00:00:00,PRATE,surface,-98.4379,32.5983,4.8e-06
2014-02-10 00:00:00,2014-02-10 00:00:00,PRATE,surface,-97.5004,32.5983,7e-06
2014-02-10 00:00:00,2014-02-10 00:00:00,PRATE,surface,-96.5629,32.5983,1.02e-05
2014-02-10 00:00:00,2014-02-10 00:00:00,PRATE,surface,-95.6254,32.5983,1.39e-05
2014-02-10 00:00:00,2014-02-10 00:00:00,PRATE,surface,-94.6879,32.5983,1.79e-05
2014-02-10 00:00:00,2014-02-10 00:00:00,PRATE,surface,-93.7504,32.5983,2.44e-05
2014-02-10 00:00:00,2014-02-10 00:00:00,PRATE,surface,-92.8129,32.5983,3.27e-05
2014-02-10 00:00:00,2014-02-10 00:00:00,PRATE,surface,-107.813,33.5432,1e-07
2014-02-10 00:00:00,2014-02-10 00:00:00,PRATE,surface,-106.875,33.5432,1e-07
2014-02-10 00:00:00,2014-02-10 00:00:00,PRATE,surface,-105.938,33.5432,2e-07
2014-02-10 00:00:00,2014-02-10 00:00:00,PRATE,surface,-105,33.5432,2e-07
2014-02-10 00:00:00,2014-02-10 00:00:00,PRATE,surface,-104.063,33.5432,2e-07
2014-02-10 00:00:00,2014-02-10 00:00:00,PRATE,surface,-103.125,33.5432,4e-07
2014-02-10 00:00:00,2014-02-10 00:00:00,PRATE,surface,-102.188,33.5432,7e-07
2014-02-10 00:00:00,2014-02-10 00:00:00,PRATE,surface,-101.25,33.5432,1e-06
2014-02-10 00:00:00,2014-02-10 00:00:00,PRATE,surface,-100.313,33.5432,9e-07
2014-02-10 00:00:00,2014-02-10 00:00:00,PRATE,surface,-99.3754,33.5432,1e-06
2014-02-10 00:00:00,2014-02-10 00:00:00,PRATE,surface,-98.4379,33.5432,2.4e-06
2014-02-10 00:00:00,2014-02-10 00:00:00,PRATE,surface,-97.5004,33.5432,5.4e-06
2014-02-10 00:00:00,2014-02-10 00:00:00,PRATE,surface,-96.5629,33.5432,8.6e-06
2014-02-10 00:00:00,2014-02-10 00:00:00,PRATE,surface,-95.6254,33.5432,1.21e-05
2014-02-10 00:00:00,2014-02-10 00:00:00,PRATE,surface,-94.6879,33.5432,1.63e-05
2014-02-10 00:00:00,2014-02-10 00:00:00,PRATE,surface,-93.7504,33.5432,1.9e-05
2014-02-10 00:00:00,2014-02-10 00:00:00,PRATE,surface,-92.8129,33.5432,2e-05
2014-02-10 00:00:00,2014-02-10 00:00:00,PRATE,surface,-107.813,34.4881,3e-07
2014-02-10 00:00:00,2014-02-10 00:00:00,PRATE,surface,-106.875,34.4881,3e-07
2014-02-10 00:00:00,2014-02-10 00:00:00,PRATE,surface,-105.938,34.4881,3e-07
2014-02-10 00:00:00,2014-02-10 00:00:00,PRATE,surface,-105,34.4881,1e-07
2014-02-10 00:00:00,2014-02-10 00:00:00,PRATE,surface,-104.063,34.4881,1e-07
2014-02-10 00:00:00,2014-02-10 00:00:00,PRATE,surface,-103.125,34.4881,2e-07
2014-02-10 00:00:00,2014-02-10 00:00:00,PRATE,surface,-102.188,34.4881,4e-07
2014-02-10 00:00:00,2014-02-10 00:00:00,PRATE,surface,-101.25,34.4881,7e-07
2014-02-10 00:00:00,2014-02-10 00:00:00,PRATE,surface,-100.313,34.4881,8e-07
2014-02-10 00:00:00,2014-02-10 00:00:00,PRATE,surface,-99.3754,34.4881,1.2e-06
2014-02-10 00:00:00,2014-02-10 00:00:00,PRATE,surface,-98.4379,34.4881,2.5e-06
2014-02-10 00:00:00,2014-02-10 00:00:00,PRATE,surface,-97.5004,34.4881,5.9e-06
2014-02-10 00:00:00,2014-02-10 00:00:00,PRATE,surface,-96.5629,34.4881,9.7e-06
2014-02-10 00:00:00,2014-02-10 00:00:00,PRATE,surface,-95.6254,34.4881,1.28e-05
2014-02-10 00:00:00,2014-02-10 00:00:00,PRATE,surface,-94.6879,34.4881,1.79e-05
2014-02-10 00:00:00,2014-02-10 00:00:00,PRATE,surface,-93.7504,34.4881,2.34e-05
2014-02-10 00:00:00,2014-02-10 00:00:00,PRATE,surface,-92.8129,34.4881,2.22e-05
2014-02-10 00:00:00,2014-02-10 00:00:00,PRATE,surface,-107.813,35.4329,1.1e-06
2014-02-10 00:00:00,2014-02-10 00:00:00,PRATE,surface,-106.875,35.4329,7e-07
2014-02-10 00:00:00,2014-02-10 00:00:00,PRATE,surface,-105.938,35.4329,4e-07
2014-02-10 00:00:00,2014-02-10 00:00:00,PRATE,surface,-105,35.4329,3e-07
2014-02-10 00:00:00,2014-02-10 00:00:00,PRATE,surface,-104.063,35.4329,1e-07
2014-02-10 00:00:00,2014-02-10 00:00:00,PRATE,surface,-103.125,35.4329,1e-07
2014-02-10 00:00:00,2014-02-10 00:00:00,PRATE,surface,-102.188,35.4329,3e-07
2014-02-10 00:00:00,2014-02-10 00:00:00,PRATE,surface,-101.25,35.4329,9e-07
2014-02-10 00:00:00,2014-02-10 00:00:00,PRATE,surface,-100.313,35.4329,2e-06
2014-02-10 00:00:00,2014-02-10 00:00:00,PRATE,surface,-99.3754,35.4329,2.8e-06
2014-02-10 00:00:00,2014-02-10 00:00:00,PRATE,surface,-98.4379,35.4329,4.2e-06
2014-02-10 00:00:00,2014-02-10 00:00:00,PRATE,surface,-97.5004,35.4329,6.3e-06
2014-02-10 00:00:00,2014-02-10 00:00:00,PRATE,surface,-96.5629,35.4329,1.12e-05
2014-02-10 00:00:00,2014-02-10 00:00:00,PRATE,surface,-95.6254,35.4329,1.79e-05
2014-02-10 00:00:00,2014-02-10 00:00:00,PRATE,surface,-94.6879,35.4329,2.29e-05
2014-02-10 00:00:00,2014-02-10 00:00:00,PRATE,surface,-93.7504,35.4329,2.69e-05
2014-02-10 00:00:00,2014-02-10 00:00:00,PRATE,surface,-92.8129,35.4329,2.72e-05
2014-02-10 00:00:00,2014-02-10 00:00:00,PRATE,surface,-107.813,36.3778,2.4e-06
2014-02-10 00:00:00,2014-02-10 00:00:00,PRATE,surface,-106.875,36.3778,1.3e-06
2014-02-10 00:00:00,2014-02-10 00:00:00,PRATE,surface,-105.938,36.3778,2.7e-06
2014-02-10 00:00:00,2014-02-10 00:00:00,PRATE,surface,-105,36.3778,8e-07
2014-02-10 00:00:00,2014-02-10 00:00:00,PRATE,surface,-104.063,36.3778,8e-07
2014-02-10 00:00:00,2014-02-10 00:00:00,PRATE,surface,-103.125,36.3778,9e-07
2014-02-10 00:00:00,2014-02-10 00:00:00,PRATE,surface,-102.188,36.3778,1.3e-06
2014-02-10 00:00:00,2014-02-10 00:00:00,PRATE,surface,-101.25,36.3778,2.5e-06
2014-02-10 00:00:00,2014-02-10 00:00:00,PRATE,surface,-100.313,36.3778,4.1e-06
2014-02-10 00:00:00,2014-02-10 00:00:00,PRATE,surface,-99.3754,36.3778,5.2e-06
2014-02-10 00:00:00,2014-02-10 00:00:00,PRATE,surface,-98.4379,36.3778,6.4e-06
2014-02-10 00:00:00,2014-02-10 00:00:00,PRATE,surface,-97.5004,36.3778,9e-06
2014-02-10 00:00:00,2014-02-10 00:00:00,PRATE,surface,-96.5629,36.3778,1.14e-05
2014-02-10 00:00:00,2014-02-10 00:00:00,PRATE,surface,-95.6254,36.3778,1.45e-05
2014-02-10 00:00:00,2014-02-10 00:00:00,PRATE,surface,-94.6879,36.3778,2.08e-05
2014-02-10 00:00:00,2014-02-10 00:00:00,PRATE,surface,-93.7504,36.3778,2.56e-05
2014-02-10 00:00:00,2014-02-10 00:00:00,PRATE,surface,-92.8129,36.3778,2.78e-05
