2016-07-23 00:00:00,2016-07-23 00:00:00,TMP,surface,-107.813,25.0393,292.694
2016-07-23 00:00:00,2016-07-23 00:00:00,TMP,surface,-106.875,25.0393,286.892
2016-07-23 00:00:00,2016-07-23 00:00:00,TMP,surface,-105.938,25.0393,282.135
2016-07-23 00:00:00,2016-07-23 00:00:00,TMP,surface,-105,25.0393,281.835
2016-07-23 00:00:00,2016-07-23 00:00:00,TMP,surface,-104.063,25.0393,285.799
2016-07-23 00:00:00,2016-07-23 00:00:00,TMP,surface,-103.125,25.0393,287.515
2016-07-23 00:00:00,2016-07-23 00:00:00,TMP,surface,-102.188,25.0393,287.059
2016-07-23 00:00:00,2016-07-23 00:00:00,TMP,surface,-101.25,25.0393,284.876
2016-07-23 00:00:00,2016-07-23 00:00:00,TMP,surface,-100.313,25.0393,284.286
2016-07-23 00:00:00,2016-07-23 00:00:00,TMP,surface,-99.3754,25.0393,286.172
2016-07-23 00:00:00,2016-07-23 00:00:00,TMP,surface,-98.4379,25.0393,288.705
2016-07-23 00:00:00,2016-07-23 00:00:00,TMP,surface,-97.5004,25.0393,295.521
2016-07-23 00:00:00,2016-07-23 00:00:00,TMP,surface,-96.5629,25.0393,296.267
2016-07-23 00:00:00,2016-07-23 00:00:00,TMP,surface,-95.6254,25.0393,296.406
2016-07-23 00:00:00,2016-07-23 00:00:00,TMP,surface,-94.6879,25.0393,296.347
2016-07-23 00:00:00,2016-07-23 00:00:00,TMP,surface,-93.7504,25.0393,296.143
2016-07-23 00:00:00,2016-07-23 00:00:00,TMP,surface,-92.8129,25.0393,296.086
2016-07-23 00:00:00,2016-07-23 00:00:00,TMP,surface,-107.813,25.9842,287.876
2016-07-23 00:00:00,2016-07-23 00:00:00,TMP,surface,-106.875,25.9842,282.415
2016-07-23 00:00:00,2016-07-23 00:00:00,TMP,surface,-105.938,25.9842,280.905
2016-07-23 00:00:00,2016-07-23 00:00:00,TMP,surface,-105,25.9842,284.02
2016-07-23 00:00:00,2016-07-23 00:00:00,TMP,surface,-104.063,25.9842,287.288
2016-07-23 00:00:00,2016-07-23 00:00:00,TMP,surface,-103.125,25.9842,288.051
2016-07-23 00:00:00,2016-07-23 00:00:00,TMP,surface,-102.188,25.9842,286.55
2016-07-23 00:00:00,2016-07-23 00:00:00,TMP,surface,-101.25,25.9842,284.572
2016-07-23 00:00:00,2016-07-23 00:00:00,TMP,surface,-100.313,25.9842,284.153
2016-07-23 00:00:00,2016-07-23 00:00:00,TMP,surface,-99.3754,25.9842,285.676
2016-07-23 00:00:00,2016-07-23 00:00:00,TMP,surface,-98.4379,25.9842,287.836
2016-07-23 00:00:00,2016-07-23 00:00:00,TMP,surface,-97.5004,25.9842,290.19
2016-07-23 00:00:00,2016-07-23 00:00:00,TMP,surface,-96.5629,25.9842,295.782
2016-07-23 00:00:00,2016-07-23 00:00:00,TMP,surface,-95.6254,25.9842,295.977
2016-07-23 00:00:00,2016-07-23 00:00:00,TMP,surface,-94.6879,25.9842,295.945
2016-07-23 00:00:00,2016-07-23 00:00:00,TMP,surface,-93.7504,25.9842,295.844
2016-07-23 00:00:00,2016-07-23 00:00:00,TMP,surface,-92.8129,25.9842,295.846
2016-07-23 00:00:00,2016-07-23 00:00:00,TMP,surface,-107.813,26.929,283.001
2016-07-23 00:00:00,2016-07-23 00:00:00,TMP,surface,-106.875,26.929,279.79
2016-07-23 00:00:00,2016-07-23 00:00:00,TMP,surface,-105.938,26.929,282.572
2016-07-23 00:00:00,2016-07-23 00:00:00,TMP,surface,-105,26.929,286.036
2016-07-23 00:00:00,2016-07-23 00:00:00,TMP,surface,-104.063,26.929,286.935
2016-07-23 00:00:00,2016-07-23 00:00:00,TMP,surface,-103.125,26.929,285.492
2016-07-23 00:00:00,2016-07-23 00:00:00,TMP,surface,-102.188,26.929,283.971
2016-07-23 00:00:00,2016-07-23 00:00:00,TMP,surface,-101.25,26.929,283.515
2016-07-23 00:00:00,2016-07-23 00:00:00,TMP,surface,-100.313,26.929,284.028
2016-07-23 00:00:00,2016-07-23 00:00:00,TMP,surface,-99.3754,26.929,284.832
2016-07-23 00:00:00,2016-07-23 00:00:00,TMP,surface,-98.4379,26.929,285.94
2016-07-23 00:00:00,2016-07-23 00:00:00,TMP,surface,-97.5004,26.929,293.68
2016-07-23 00:00:00,2016-07-23 00:00:00,TMP,surface,-96.5629,26.929,294.907
2016-07-23 00:00:00,2016-07-23 00:00:00,TMP,surface,-95.6254,26.929,295.408
2016-07-23 00:00:00,2016-07-23 00:00:00,TMP,surface,-94.6879,26.929,295.467
2016-07-23 00:00:00,2016-07-23 00:00:00,TMP,surface,-93.7504,26.929,295.326
2016-07-23 00:00:00,2016-07-23 00:00:00,TMP,surface,-92.8129,26.929,295.308
2016-07-23 00:00:00,2016-07-23 00:00:00,TMP,surface,-107.813,27.8739,280.222
2016-07-23 00:00:00,2016-07-23 00:00:00,TMP,surface,-106.875,27.8739,279.929
2016-07-23 00:00:00,2016-07-23 00:00:00,TMP,surface,-105.938,27.8739,284.049
2016-07-23 00:00:00,2016-07-23 00:00:00,TMP,surface,-105,27.8739,286.558
2016-07-23 00:00:00,2016-07-23 00:00:00,TMP,surface,-104.063,27.8739,285.572
2016-07-23 00:00:00,2016-07-23 00:00:00,TMP,surface,-103.125,27.8739,283.267
2016-07-23 00:00:00,2016-07-23 00:00:00,TMP,surface,-102.188,27.8739,282.516
2016-07-23 00:00:00,2016-07-23 00:00:00,TMP,surface,-101.25,27.8739,282.991
2016-07-23 00:00:00,2016-07-23 00:00:00,TMP,surface,-100.313,27.8739,283.44
2016-07-23 00:00:00,2016-07-23 00:00:00,TMP,surface,-99.3754,27.8739,283.438
2016-07-23 00:00:00,2016-07-23 00:00:00,TMP,surface,-98.4379,27.8739,283.807
2016-07-23 00:00:00,2016-07-23 00:00:00,TMP,surface,-97.5004,27.8739,289.159
2016-07-23 00:00:00,2016-07-23 00:00:00,TMP,surface,-96.5629,27.8739,294.496
2016-07-23 00:00:00,2016-07-23 00:00:00,TMP,surface,-95.6254,27.8739,294.854
2016-07-23 00:00:00,2016-07-23 00:00:00,TMP,surface,-94.6879,27.8739,294.651
2016-07-23 00:00:00,2016-07-23 00:00:00,TMP,surface,-93.7504,27.8739,294.401
2016-07-23 00:00:00,2016-07-23 00:00:00,TMP,surface,-92.8129,27.8739,294.307
2016-07-23 00:00:00,2016-07-23 00:00:00,TMP,surface,-107.813,28.8188,279.457
2016-07-23 00:00:00,2016-07-23 00:00:00,TMP,surface,-106.875,28.8188,280.835
2016-07-23 00:00:00,2016-07-23 00:00:00,TMP,surface,-105.938,28.8188,284.164
2016-07-23 00:00:00,2016-07-23 00:00:00,TMP,surface,-105,28.8188,285.694
2016-07-23 00:00:00,2016-07-23 00:00:00,TMP,surface,-104.063,28.8188,283.863
2016-07-23 00:00:00,2016-07-23 00:00:00,TMP,surface,-103.125,28.8188,282.011
2016-07-23 00:00:00,2016-07-23 00:00:00,TMP,surface,-102.188,28.8188,281.86
2016-07-23 00:00:00,2016-07-23 00:00:00,TMP,surface,-101.25,28.8188,282.539
2016-07-23 00:00:00,2016-07-23 00:00:00,TMP,surface,-100.313,28.8188,282.377
2016-07-23 00:00:00,2016-07-23 00:00:00,TMP,surface,-99.3754,28.8188,281.68
2016-07-23 00:00:00,2016-07-23 00:00:00,TMP,surface,-98.4379,28.8188,281.331
2016-07-23 00:00:00,2016-07-23 00:00:00,TMP,surface,-97.5004,28.8188,281.793
2016-07-23 00:00:00,2016-07-23 00:00:00,TMP,surface,-96.5629,28.8188,282.897
2016-07-23 00:00:00,2016-07-23 00:00:00,TMP,surface,-95.6254,28.8188,287.611
2016-07-23 00:00:00,2016-07-23 00:00:00,TMP,surface,-94.6879,28.8188,294.046
2016-07-23 00:00:00,2016-07-23 00:00:00,TMP,surface,-93.7504,28.8188,293.857
2016-07-23 00:00:00,2016-07-23 00:00:00,TMP,surface,-92.8129,28.8188,293.878
2016-07-23 00:00:00,2016-07-23 00:00:00,TMP,surface,-107.813,29.7637,280.668
2016-07-23 00:00:00,2016-07-23 00:00:00,TMP,surface,-106.875,29.7637,281.827
2016-07-23 00:00:00,2016-07-23 00:00:00,TMP,surface,-105.938,29.7637,283.591
2016-07-23 00:00:00,2016-07-23 00:00:00,TMP,surface,-105,29.7637,283.283
2016-07-23 00:00:00,2016-07-23 00:00:00,TMP,surface,-104.063,29.7637,282.073
2016-07-23 00:00:00,2016-07-23 00:00:00,TMP,surface,-103.125,29.7637,281.361
2016-07-23 00:00:00,2016-07-23 00:00:00,TMP,surface,-102.188,29.7637,281.476
2016-07-23 00:00:00,2016-07-23 00:00:00,TMP,surface,-101.25,29.7637,281.471
2016-07-23 00:00:00,2016-07-23 00:00:00,TMP,surface,-100.313,29.7637,280.713
2016-07-23 00:00:00,2016-07-23 00:00:00,TMP,surface,-99.3754,29.7637,279.759
2016-07-23 00:00:00,2016-07-23 00:00:00,TMP,surface,-98.4379,29.7637,279.164
2016-07-23 00:00:00,2016-07-23 00:00:00,TMP,surface,-97.5004,29.7637,279.132
2016-07-23 00:00:00,2016-07-23 00:00:00,TMP,surface,-96.5629,29.7637,279.68
2016-07-23 00:00:00,2016-07-23 00:00:00,TMP,surface,-95.6254,29.7637,280.681
2016-07-23 00:00:00,2016-07-23 00:00:00,TMP,surface,-94.6879,29.7637,285.079
2016-07-23 00:00:00,2016-07-23 00:00:00,TMP,surface,-93.7504,29.7637,290.22
2016-07-23 00:00:00,2016-07-23 00:00:00,TMP,surface,-92.8129,29.7637,281.87
2016-07-23 00:00:00,2016-07-23 00:00:00,TMP,surface,-107.813,30.7085,282.543
2016-07-23 00:00:00,2016-07-23 00:00:00,TMP,surface,-106.875,30.7085,283.091
2016-07-23 00:00:00,2016-07-23 00:00:00,TMP,surface,-105.938,30.7085,282.62
2016-07-23 00:00:00,2016-07-23 00:00:00,TMP,surface,-105,30.7085,281.18
2016-07-23 00:00:00,2016-07-23 00:00:00,TMP,surface,-104.063,30.7085,280.291
2016-07-23 00:00:00,2016-07-23 00:00:00,TMP,surface,-103.125,30.7085,280.283
2016-07-23 00:00:00,2016-07-23 00:00:00,TMP,surface,-102.188,30.7085,280.225
2016-07-23 00:00:00,2016-07-23 00:00:00,TMP,surface,-101.25,30.7085,279.644
2016-07-23 00:00:00,2016-07-23 00:00:00,TMP,surface,-100.313,30.7085,278.718
2016-07-23 00:00:00,2016-07-23 00:00:00,TMP,surface,-99.3754,30.7085,278.078
2016-07-23 00:00:00,2016-07-23 00:00:00,TMP,surface,-98.4379,30.7085,277.851
2016-07-23 00:00:00,2016-07-23 00:00:00,TMP,surface,-97.5004,30.7085,277.881
2016-07-23 00:00:00,2016-07-23 00:00:00,TMP,surface,-96.5629,30.7085,278.179
2016-07-23 00:00:00,2016-07-23 00:00:00,TMP,surface,-95.6254,30.7085,278.636
2016-07-23 00:00:00,2016-07-23 00:00:00,TMP,surface,-94.6879,30.7085,278.875
2016-07-23 00:00:00,2016-07-23 00:00:00,TMP,surface,-93.7504,30.7085,278.707
2016-07-23 00:00:00,2016-07-23 00:00:00,TMP,surface,-92.8129,30.7085,278.272
2016-07-23 00:00:00,2016-07-23 00:00:00,TMP,surface,-107.813,31.6534,282.241
2016-07-23 00:00:00,2016-07-23 00:00:00,TMP,surface,-106.875,31.6534,282.415
2016-07-23 00:00:00,2016-07-23 00:00:00,TMP,surface,-105.938,31.6534,281.046
2016-07-23 00:00:00,2016-07-23 00:00:00,TMP,surface,-105,31.6534,279.761
2016-07-23 00:00:00,2016-07-23 00:00:00,TMP,surface,-104.063,31.6534,279.084
2016-07-23 00:00:00,2016-07-23 00:00:00,TMP,surface,-103.125,31.6534,278.979
2016-07-23 00:00:00,2016-07-23 00:00:00,TMP,surface,-102.188,31.6534,278.625
2016-07-23 00:00:00,2016-07-23 00:00:00,TMP,surface,-101.25,31.6534,277.82
2016-07-23 00:00:00,2016-07-23 00:00:00,TMP,surface,-100.313,31.6534,277.246
2016-07-23 00:00:00,2016-07-23 00:00:00,TMP,surface,-99.3754,31.6534,277.027
2016-07-23 00:00:00,2016-07-23 00:00:00,TMP,surface,-98.4379,31.6534,277.084
2016-07-23 00:00:00,2016-07-23 00:00:00,TMP,surface,-97.5004,31.6534,277.235
2016-07-23 00:00:00,2016-07-23 00:00:00,TMP,surface,-96.5629,31.6534,277.444
2016-07-23 00:00:00,2016-07-23 00:00:00,TMP,surface,-95.6254,31.6534,277.609
2016-07-23 00:00:00,2016-07-23 00:00:00,TMP,surface,-94.6879,31.6534,277.483
2016-07-23 00:00:00,2016-07-23 00:00:00,TMP,surface,-93.7504,31.6534,277.176
2016-07-23 00:00:00,2016-07-23 00:00:00,TMP,surface,-92.8129,31.6534,277.004
2016-07-23 00:00:00,2016-07-23 00:00:00,TMP,surface,-107.813,32.5983,279.608
2016-07-23 00:00:00,2016-07-23 00:00:00,TMP,surface,-106.875,32.5983,279.582
2016-07-23 00:00:00,2016-07-23 00:00:00,TMP,surface,-105.938,32.5983,279.184
2016-07-23 00:00:00,2016-07-23 00:00:00,TMP,surface,-105,32.5983,278.31
2016-07-23 00:00:00,2016-07-23 00:00:00,TMP,surface,-104.063,32.5983,278.113
2016-07-23 00:00:00,2016-07-23 00:00:00,TMP,surface,-103.125,32.5983,277.798
2016-07-23 00:00:00,2016-07-23 00:00:00,TMP,surface,-102.188,32.5983,277.12
2016-07-23 00:00:00,2016-07-23 00:00:00,TMP,surface,-101.25,32.5983,276.577
2016-07-23 00:00:00,2016-07-23 00:00:00,TMP,surface,-100.313,32.5983,276.331
2016-07-23 00:00:00,2016-07-23 00:00:00,TMP,surface,-99.3754,32.5983,276.336
2016-07-23 00:00:00,2016-07-23 00:00:00,TMP,surface,-98.4379,32.5983,276.337
2016-07-23 00:00:00,2016-07-23 00:00:00,TMP,surface,-97.5004,32.5983,276.446
2016-07-23 00:00:00,2016-07-23 00:00:00,TMP,surface,-96.5629,32.5983,276.664
2016-07-23 00:00:00,2016-07-23 00:00:00,TMP,surface,-95.6254,32.5983,276.753
2016-07-23 00:00:00,2016-07-23 00:00:00,TMP,surface,-94.6879,32.5983,276.643
2016-07-23 00:00:00,2016-07-23 00:00:00,TMP,surface,-93.7504,32.5983,276.475
2016-07-23 00:00:00,2016-07-23 00:00:00,TMP,surface,-92.8129,32.5983,276.56
2016-07-23 00:00:00,2016-07-23 00:00:00,TMP,surface,-107.813,33.5432,276.436
2016-07-23 00:00:00,2016-07-23 00:00:00,TMP,surface,-106.875,33.5432,276.91
2016-07-23 00:00:00,2016-07-23 00:00:00,TMP,surface,-105.938,33.5432,276.972
2016-07-23 00:00:00,2016-07-23 00:00:00,TMP,surface,-105,33.5432,276.867
2016-07-23 00:00:00,2016-07-23 00:00:00,TMP,surface,-104.063,33.5432,277.185
2016-07-23 00:00:00,2016-07-23 00:00:00,TMP,surface,-103.125,33.5432,276.841
2016-07-23 00:00:00,2016-07-23 00:00:00,TMP,surface,-102.188,33.5432,276.191
2016-07-23 00:00:00,2016-07-23 00:00:00,TMP,surface,-101.25,33.5432,275.62
2016-07-23 00:00:00,2016-07-23 00:00:00,TMP,surface,-100.313,33.5432,275.497
2016-07-23 00:00:00,2016-07-23 00:00:00,TMP,surface,-99.3754,33.5432,275.494
2016-07-23 00:00:00,2016-07-23 00:00:00,TMP,surface,-98.4379,33.5432,275.328
2016-07-23 00:00:00,2016-07-23 00:00:00,TMP,surface,-97.5004,33.5432,275.211
2016-07-23 00:00:00,2016-07-23 00:00:00,TMP,surface,-96.5629,33.5432,275.356
2016-07-23 00:00:00,2016-07-23 00:00:00,TMP,surface,-95.6254,33.5432,275.54
2016-07-23 00:00:00,2016-07-23 00:00:00,TMP,surface,-94.6879,33.5432,275.494
2016-07-23 00:00:00,2016-07-23 00:00:00,TMP,surface,-93.7504,33.5432,275.395
2016-07-23 00:00:00,2016-07-23 00:00:00,TMP,surface,-92.8129,33.5432,275.505
2016-07-23 00:00:00,2016-07-23 00:00:00,TMP,surface,-107.813,34.4881,275.123
2016-07-23 00:00:00,2016-07-23 00:00:00,TMP,surface,-106.875,34.4881,275.737
2016-07-23 00:00:00,2016-07-23 00:00:00,TMP,surface,-105.938,34.4881,275.998
2016-07-23 00:00:00,2016-07-23 00:00:00,TMP,surface,-105,34.4881,276.089
2016-07-23 00:00:00,2016-07-23 00:00:00,TMP,surface,-104.063,34.4881,276.001
2016-07-23 00:00:00,2016-07-23 00:00:00,TMP,surface,-103.125,34.4881,275.871
2016-07-23 00:00:00,2016-07-23 00:00:00,TMP,surface,-102.188,34.4881,275.428
2016-07-23 00:00:00,2016-07-23 00:00:00,TMP,surface,-101.25,34.4881,274.798
2016-07-23 00:00:00,2016-07-23 00:00:00,TMP,surface,-100.313,34.4881,274.412
2016-07-23 00:00:00,2016-07-23 00:00:00,TMP,surface,-99.3754,34.4881,274.311
2016-07-23 00:00:00,2016-07-23 00:00:00,TMP,surface,-98.4379,34.4881,274.147
2016-07-23 00:00:00,2016-07-23 00:00:00,TMP,surface,-97.5004,34.4881,274.023
2016-07-23 00:00:00,2016-07-23 00:00:00,TMP,surface,-96.5629,34.4881,274.047
2016-07-23 00:00:00,2016-07-23 00:00:00,TMP,surface,-95.6254,34.4881,274.022
2016-07-23 00:00:00,2016-07-23 00:00:00,TMP,surface,-94.6879,34.4881,273.955
2016-07-23 00:00:00,2016-07-23 00:00:00,TMP,surface,-93.7504,34.4881,274.016
2016-07-23 00:00:00,2016-07-23 00:00:00,TMP,surface,-92.8129,34.4881,274.151
2016-07-23 00:00:00,2016-07-23 00:00:00,TMP,surface,-107.813,35.4329,275.112
2016-07-23 00:00:00,2016-07-23 00:00:00,TMP,surface,-106.875,35.4329,274.84
2016-07-23 00:00:00,2016-07-23 00:00:00,TMP,surface,-105.938,35.4329,274.473
2016-07-23 00:00:00,2016-07-23 00:00:00,TMP,surface,-105,35.4329,274.315
2016-07-23 00:00:00,2016-07-23 00:00:00,TMP,surface,-104.063,35.4329,274.83
2016-07-23 00:00:00,2016-07-23 00:00:00,TMP,surface,-103.125,35.4329,274.875
2016-07-23 00:00:00,2016-07-23 00:00:00,TMP,surface,-102.188,35.4329,274.377
2016-07-23 00:00:00,2016-07-23 00:00:00,TMP,surface,-101.25,35.4329,273.547
2016-07-23 00:00:00,2016-07-23 00:00:00,TMP,surface,-100.313,35.4329,273.15
2016-07-23 00:00:00,2016-07-23 00:00:00,TMP,surface,-99.3754,35.4329,273.247
2016-07-23 00:00:00,2016-07-23 00:00:00,TMP,surface,-98.4379,35.4329,273.328
2016-07-23 00:00:00,2016-07-23 00:00:00,TMP,surface,-97.5004,35.4329,273.384
2016-07-23 00:00:00,2016-07-23 00:00:00,TMP,surface,-96.5629,35.4329,273.532
2016-07-23 00:00:00,2016-07-23 00:00:00,TMP,surface,-95.6254,35.4329,273.577
2016-07-23 00:00:00,2016-07-23 00:00:00,TMP,surface,-94.6879,35.4329,273.361
2016-07-23 00:00:00,2016-07-23 00:00:00,TMP,surface,-93.7504,35.4329,273.057
2016-07-23 00:00:00,2016-07-23 00:00:00,TMP,surface,-92.8129,35.4329,273.126
2016-07-23 00:00:00,2016-07-23 00:00:00,TMP,surface,-107.813,36.3778,274.174
2016-07-23 00:00:00,2016-07-23 00:00:00,TMP,surface,-106.875,36.3778,272.224
2016-07-23 00:00:00,2016-07-23 00:00:00,TMP,surface,-105.938,36.3778,271.955
2016-07-23 00:00:00,2016-07-23 00:00:00,TMP,surface,-105,36.3778,272.564
2016-07-23 00:00:00,2016-07-23 00:00:00,TMP,surface,-104.063,36.3778,273.518
2016-07-23 00:00:00,2016-07-23 00:00:00,TMP,surface,-103.125,36.3778,273.56
2016-07-23 00:00:00,2016-07-23 00:00:00,TMP,surface,-102.188,36.3778,273.06
2016-07-23 00:00:00,2016-07-23 00:00:00,TMP,surface,-101.25,36.3778,272.462
2016-07-23 00:00:00,2016-07-23 00:00:00,TMP,surface,-100.313,36.3778,272.401
2016-07-23 00:00:00,2016-07-23 00:00:00,TMP,surface,-99.3754,36.3778,272.647
2016-07-23 00:00:00,2016-07-23 00:00:00,TMP,surface,-98.4379,36.3778,272.721
2016-07-23 00:00:00,2016-07-23 00:00:00,TMP,surface,-97.5004,36.3778,272.886
2016-07-23 00:00:00,2016-07-23 00:00:00,TMP,surface,-96.5629,36.3778,273.216
2016-07-23 00:00:00,2016-07-23 00:00:00,TMP,surface,-95.6254,36.3778,273.235
2016-07-23 00:00:00,2016-07-23 00:00:00,TMP,surface,-94.6879,36.3778,272.807
2016-07-23 00:00:00,2016-07-23 00:00:00,TMP,surface,-93.7504,36.3778,272.337
2016-07-23 00:00:00,2016-07-23 00:00:00,TMP,surface,-92.8129,36.3778,272.204
2016-07-23 00:00:00,2016-07-23 00:00:00,PRATE,surface,-107.813,25.0393,3.72e-05
2016-07-23 00:00:00,2016-07-23 00:00:00,PRATE,surface,-106.875,25.0393,5.21e-05
2016-07-23 00:00:00,2016-07-23 00:00:00,PRATE,surface,-105.938,25.0393,4.34e-05
2016-07-23 00:00:00,2016-07-23 00:00:00,PRATE,surface,-105,25.0393,2.9e-05
2016-07-23 00:00:00,2016-07-23 00:00:00,PRATE,surface,-104.063,25.0393,1.36e-05
2016-07-23 00:00:00,2016-07-23 00:00:00,PRATE,surface,-103.125,25.0393,5.2e-06
2016-07-23 00:00:00,2016-07-23 00:00:00,PRATE,surface,-102.188,25.0393,4.9e-06
2016-07-23 00:00:00,2016-07-23 00:00:00,PRATE,surface,-101.25,25.0393,1.29e-05
2016-07-23 00:00:00,2016-07-23 00:00:00,PRATE,surface,-100.313,25.0393,3.72e-05
2016-07-23 00:00:00,2016-07-23 00:00:00,PRATE,surface,-99.3754,25.0393,4.24e-05
2016-07-23 00:00:00,2016-07-23 00:00:00,PRATE,surface,-98.4379,25.0393,4.33e-05
2016-07-23 00:00:00,2016-07-23 00:00:00,PRATE,surface,-97.5004,25.0393,6.08e-05
2016-07-23 00:00:00,2016-07-23 00:00:00,PRATE,surface,-96.5629,25.0393,0.0001207
2016-07-23 00:00:00,2016-07-23 00:00:00,PRATE,surface,-95.6254,25.0393,0.0001269
2016-07-23 00:00:00,2016-07-23 00:00:00,PRATE,surface,-94.6879,25.0393,9.39e-05
2016-07-23 00:00:00,2016-07-23 00:00:00,PRATE,surface,-93.7504,25.0393,4.81e-05
2016-07-23 00:00:00,2016-07-23 00:00:00,PRATE,surface,-92.8129,25.0393,2.69e-05
2016-07-23 00:00:00,2016-07-23 00:00:00,PRATE,surface,-107.813,25.9842,5.5e-05
2016-07-23 00:00:00,2016-07-23 00:00:00,PRATE,surface,-106.875,25.9842,4.86e-05
2016-07-23 00:00:00,2016-07-23 00:00:00,PRATE,surface,-105.938,25.9842,3.39e-05
2016-07-23 00:00:00,2016-07-23 00:00:00,PRATE,surface,-105,25.9842,2.57e-05
2016-07-23 00:00:00,2016-07-23 00:00:00,PRATE,surface,-104.063,25.9842,1.21e-05
2016-07-23 00:00:00,2016-07-23 00:00:00,PRATE,surface,-103.125,25.9842,7.4e-06
2016-07-23 00:00:00,2016-07-23 00:00:00,PRATE,surface,-102.188,25.9842,7.8e-06
2016-07-23 00:00:00,2016-07-23 00:00:00,PRATE,surface,-101.25,25.9842,1.92e-05
2016-07-23 00:00:00,2016-07-23 00:00:00,PRATE,surface,-100.313,25.9842,3.34e-05
2016-07-23 00:00:00,2016-07-23 00:00:00,PRATE,surface,-99.3754,25.9842,3.84e-05
2016-07-23 00:00:00,2016-07-23 00:00:00,PRATE,surface,-98.4379,25.9842,4.88e-05
2016-07-23 00:00:00,2016-07-23 00:00:00,PRATE,surface,-97.5004,25.9842,7e-05
2016-07-23 00:00:00,2016-07-23 00:00:00,PRATE,surface,-96.5629,25.9842,0.000141
2016-07-23 00:00:00,2016-07-23 00:00:00,PRATE,surface,-95.6254,25.9842,0.0001661
2016-07-23 00:00:00,2016-07-23 00:00:00,PRATE,surface,-94.6879,25.9842,0.0001412
2016-07-23 00:00:00,2016-07-23 00:00:00,PRATE,surface,-93.7504,25.9842,9.11e-05
2016-07-23 00:00:00,2016-07-23 00:00:00,PRATE,surface,-92.8129,25.9842,5.36e-05
2016-07-23 00:00:00,2016-07-23 00:00:00,PRATE,surface,-107.813,26.929,6.03e-05
2016-07-23 00:00:00,2016-07-23 00:00:00,PRATE,surface,-106.875,26.929,2.89e-05
2016-07-23 00:00:00,2016-07-23 00:00:00,PRATE,surface,-105.938,26.929,1.79e-05
2016-07-23 00:00:00,2016-07-23 00:00:00,PRATE,surface,-105,26.929,1.49e-05
2016-07-23 00:00:00,2016-07-23 00:00:00,PRATE,surface,-104.063,26.929,1.09e-05
2016-07-23 00:00:00,2016-07-23 00:00:00,PRATE,surface,-103.125,26.929,1.41e-05
2016-07-23 00:00:00,2016-07-23 00:00:00,PRATE,surface,-102.188,26.929,2.61e-05
2016-07-23 00:00:00,2016-07-23 00:00:00,PRATE,surface,-101.25,26.929,3.18e-05
2016-07-23 00:00:00,2016-07-23 00:00:00,PRATE,surface,-100.313,26.929,3.33e-05
2016-07-23 00:00:00,2016-07-23 00:00:00,PRATE,surface,-99.3754,26.929,3.84e-05
2016-07-23 00:00:00,2016-07-23 00:00:00,PRATE,surface,-98.4379,26.929,5.39e-05
2016-07-23 00:00:00,2016-07-23 00:00:00,PRATE,surface,-97.5004,26.929,8.22e-05
2016-07-23 00:00:00,2016-07-23 00:00:00,PRATE,surface,-96.5629,26.929,0.0001117
2016-07-23 00:00:00,2016-07-23 00:00:00,PRATE,surface,-95.6254,26.929,0.0001317
2016-07-23 00:00:00,2016-07-23 00:00:00,PRATE,surface,-94.6879,26.929,0.000132
2016-07-23 00:00:00,2016-07-23 00:00:00,PRATE,surface,-93.7504,26.929,0.0001366
2016-07-23 00:00:00,2016-07-23 00:00:00,PRATE,surface,-92.8129,26.929,0.0001153
2016-07-23 00:00:00,2016-07-23 00:00:00,PRATE,surface,-107.813,27.8739,4.64e-05
2016-07-23 00:00:00,2016-07-23 00:00:00,PRATE,surface,-106.875,27.8739,1.74e-05
2016-07-23 00:00:00,2016-07-23 00:00:00,PRATE,surface,-105.938,27.8739,8.3e-06
2016-07-23 00:00:00,2016-07-23 00:00:00,PRATE,surface,-105,27.8739,4.9e-06
2016-07-23 00:00:00,2016-07-23 00:00:00,PRATE,surface,-104.063,27.8739,9.7e-06
2016-07-23 00:00:00,2016-07-23 00:00:00,PRATE,surface,-103.125,27.8739,2.41e-05
2016-07-23 00:00:00,2016-07-23 00:00:00,PRATE,surface,-102.188,27.8739,3.47e-05
2016-07-23 00:00:00,2016-07-23 00:00:00,PRATE,surface,-101.25,27.8739,2.99e-05
2016-07-23 00:00:00,2016-07-23 00:00:00,PRATE,surface,-100.313,27.8739,2.96e-05
2016-07-23 00:00:00,2016-07-23 00:00:00,PRATE,surface,-99.3754,27.8739,3.74e-05
2016-07-23 00:00:00,2016-07-23 00:00:00,PRATE,surface,-98.4379,27.8739,5.12e-05
2016-07-23 00:00:00,2016-07-23 00:00:00,PRATE,surface,-97.5004,27.8739,6.53e-05
2016-07-23 00:00:00,2016-07-23 00:00:00,PRATE,surface,-96.5629,27.8739,7.51e-05
2016-07-23 00:00:00,2016-07-23 00:00:00,PRATE,surface,-95.6254,27.8739,7.89e-05
2016-07-23 00:00:00,2016-07-23 00:00:00,PRATE,surface,-94.6879,27.8739,8.65e-05
2016-07-23 00:00:00,2016-07-23 00:00:00,PRATE,surface,-93.7504,27.8739,0.0001114
2016-07-23 00:00:00,2016-07-23 00:00:00,PRATE,surface,-92.8129,27.8739,0.0001314
2016-07-23 00:00:00,2016-07-23 00:00:00,PRATE,surface,-107.813,28.8188,2.93e-05
2016-07-23 00:00:00,2016-07-23 00:00:00,PRATE,surface,-106.875,28.8188,1.47e-05
2016-07-23 00:00:00,2016-07-23 00:00:00,PRATE,surface,-105.938,28.8188,7.5e-06
2016-07-23 00:00:00,2016-07-23 00:00:00,PRATE,surface,-105,28.8188,4e-06
2016-07-23 00:00:00,2016-07-23 00:00:00,PRATE,surface,-104.063,28.8188,1.2e-05
2016-07-23 00:00:00,2016-07-23 00:00:00,PRATE,surface,-103.125,28.8188,3.09e-05
2016-07-23 00:00:00,2016-07-23 00:00:00,PRATE,surface,-102.188,28.8188,3.46e-05
2016-07-23 00:00:00,2016-07-23 00:00:00,PRATE,surface,-101.25,28.8188,2.74e-05
2016-07-23 00:00:00,2016-07-23 00:00:00,PRATE,surface,-100.313,28.8188,2.83e-05
2016-07-23 00:00:00,2016-07-23 00:00:00,PRATE,surface,-99.3754,28.8188,3.43e-05
2016-07-23 00:00:00,2016-07-23 00:00:00,PRATE,surface,-98.4379,28.8188,4.29e-05
2016-07-23 00:00:00,2016-07-23 00:00:00,PRATE,surface,-97.5004,28.8188,5.35e-05
2016-07-23 00:00:00,2016-07-23 00:00:00,PRATE,surface,-96.5629,28.8188,6.39e-05
2016-07-23 00:00:00,2016-07-23 00:00:00,PRATE,surface,-95.6254,28.8188,7.15e-05
2016-07-23 00:00:00,2016-07-23 00:00:00,PRATE,surface,-94.6879,28.8188,7.8e-05
2016-07-23 00:00:00,2016-07-23 00:00:00,PRATE,surface,-93.7504,28.8188,8.82e-05
2016-07-23 00:00:00,2016-07-23 00:00:00,PRATE,surface,-92.8129,28.8188,0.0001016
2016-07-23 00:00:00,2016-07-23 00:00:00,PRATE,surface,-107.813,29.7637,2.01e-05
2016-07-23 00:00:00,2016-07-23 00:00:00,PRATE,surface,-106.875,29.7637,1.73e-05
2016-07-23 00:00:00,2016-07-23 00:00:00,PRATE,surface,-105.938,29.7637,1.43e-05
2016-07-23 00:00:00,2016-07-23 00:00:00,PRATE,surface,-105,29.7637,1.26e-05
2016-07-23 00:00:00,2016-07-23 00:00:00,PRATE,surface,-104.063,29.7637,1.88e-05
2016-07-23 00:00:00,2016-07-23 00:00:00,PRATE,surface,-103.125,29.7637,2.54e-05
2016-07-23 00:00:00,2016-07-23 00:00:00,PRATE,surface,-102.188,29.7637,2.75e-05
2016-07-23 00:00:00,2016-07-23 00:00:00,PRATE,surface,-101.25,29.7637,2.73e-05
2016-07-23 00:00:00,2016-07-23 00:00:00,PRATE,surface,-100.313,29.7637,3.21e-05
2016-07-23 00:00:00,2016-07-23 00:00:00,PRATE,surface,-99.3754,29.7637,4.14e-05
2016-07-23 00:00:00,2016-07-23 00:00:00,PRATE,surface,-98.4379,29.7637,4.81e-05
2016-07-23 00:00:00,2016-07-23 00:00:00,PRATE,surface,-97.5004,29.7637,5.49e-05
2016-07-23 00:00:00,2016-07-23 00:00:00,PRATE,surface,-96.5629,29.7637,6.8e-05
2016-07-23 00:00:00,2016-07-23 00:00:00,PRATE,surface,-95.6254,29.7637,8.15e-05
2016-07-23 00:00:00,2016-07-23 00:00:00,PRATE,surface,-94.6879,29.7637,8.48e-05
2016-07-23 00:00:00,2016-07-23 00:00:00,PRATE,surface,-93.7504,29.7637,8.25e-05
2016-07-23 00:00:00,2016-07-23 00:00:00,PRATE,surface,-92.8129,29.7637,8.43e-05
2016-07-23 00:00:00,2016-07-23 00:00:00,PRATE,surface,-107.813,30.7085,1.56e-05
2016-07-23 00:00:00,2016-07-23 00:00:00,PRATE,surface,-106.875,30.7085,1.73e-05
2016-07-23 00:00:00,2016-07-23 00:00:00,PRATE,surface,-105.938,30.7085,2.42e-05
2016-07-23 00:00:00,2016-07-23 00:00:00,PRATE,surface,-105,30.7085,2.96e-05
2016-07-23 00:00:00,2016-07-23 00:00:00,PRATE,surface,-104.063,30.7085,2.95e-05
2016-07-23 00:00:00,2016-07-23 00:00:00,PRATE,surface,-103.125,30.7085,2.72e-05
2016-07-23 00:00:00,2016-07-23 00:00:00,PRATE,surface,-102.188,30.7085,2.56e-05
2016-07-23 00:00:00,2016-07-23 00:00:00,PRATE,surface,-101.25,30.7085,2.97e-05
2016-07-23 00:00:00,2016-07-23 00:00:00,PRATE,surface,-100.313,30.7085,3.75e-05
2016-07-23 00:00:00,2016-07-23 00:00:00,PRATE,surface,-99.3754,30.7085,4.55e-05
2016-07-23 00:00:00,2016-07-23 00:00:00,PRATE,surface,-98.4379,30.7085,5.09e-05
2016-07-23 00:00:00,2016-07-23 00:00:00,PRATE,surface,-97.5004,30.7085,5.61e-05
2016-07-23 00:00:00,2016-07-23 00:00:00,PRATE,surface,-96.5629,30.7085,6.27e-05
2016-07-23 00:00:00,2016-07-23 00:00:00,PRATE,surface,-95.6254,30.7085,7.28e-05
2016-07-23 00:00:00,2016-07-23 00:00:00,PRATE,surface,-94.6879,30.7085,8.77e-05
2016-07-23 00:00:00,2016-07-23 00:00:00,PRATE,surface,-93.7504,30.7085,0.0001011
2016-07-23 00:00:00,2016-07-23 00:00:00,PRATE,surface,-92.8129,30.7085,0.0001046
2016-07-23 00:00:00,2016-07-23 00:00:00,PRATE,surface,-107.813,31.6534,1.42e-05
2016-07-23 00:00:00,2016-07-23 00:00:00,PRATE,surface,-106.875,31.6534,1.79e-05
2016-07-23 00:00:00,2016-07-23 00:00:00,PRATE,surface,-105.938,31.6534,2.77e-05
2016-07-23 00:00:00,2016-07-23 00:00:00,PRATE,surface,-105,31.6534,3.44e-05
2016-07-23 00:00:00,2016-07-23 00:00:00,PRATE,surface,-104.063,31.6534,3.54e-05
2016-07-23 00:00:00,2016-07-23 00:00:00,PRATE,surface,-103.125,31.6534,3e-05
2016-07-23 00:00:00,2016-07-23 00:00:00,PRATE,surface,-102.188,31.6534,3.06e-05
2016-07-23 00:00:00,2016-07-23 00:00:00,PRATE,surface,-101.25,31.6534,3.54e-05
2016-07-23 00:00:00,2016-07-23 00:00:00,PRATE,surface,-100.313,31.6534,4.12e-05
2016-07-23 00:00:00,2016-07-23 00:00:00,PRATE,surface,-99.3754,31.6534,4.49e-05
2016-07-23 00:00:00,2016-07-23 00:00:00,PRATE,surface,-98.4379,31.6534,4.74e-05
2016-07-23 00:00:00,2016-07-23 00:00:00,PRATE,surface,-97.5004,31.6534,4.97e-05
2016-07-23 00:00:00,2016-07-23 00:00:00,PRATE,surface,-96.5629,31.6534,5.09e-05
2016-07-23 00:00:00,2016-07-23 00:00:00,PRATE,surface,-95.6254,31.6534,5.29e-05
2016-07-23 00:00:00,2016-07-23 00:00:00,PRATE,surface,-94.6879,31.6534,6.46e-05
2016-07-23 00:00:00,2016-07-23 00:00:00,PRATE,surface,-93.7504,31.6534,8.95e-05
2016-07-23 00:00:00,2016-07-23 00:00:00,PRATE,surface,-92.8129,31.6534,0.0001099
2016-07-23 00:00:00,2016-07-23 00:00:00,PRATE,surface,-107.813,32.5983,2.36e-05
2016-07-23 00:00:00,2016-07-23 00:00:00,PRATE,surface,-106.875,32.5983,2.38e-05
2016-07-23 00:00:00,2016-07-23 00:00:00,PRATE,surface,-105.938,32.5983,2.57e-05
2016-07-23 00:00:00,2016-07-23 00:00:00,PRATE,surface,-105,32.5983,3.23e-05
2016-07-23 00:00:00,2016-07-23 00:00:00,PRATE,surface,-104.063,32.5983,3.24e-05
2016-07-23 00:00:00,2016-07-23 00:00:00,PRATE,surface,-103.125,32.5983,2.77e-05
2016-07-23 00:00:00,2016-07-23 00:00:00,PRATE,surface,-102.188,32.5983,3.15e-05
2016-07-23 00:00:00,2016-07-23 00:00:00,PRATE,surface,-101.25,32.5983,3.62e-05
2016-07-23 00:00:00,2016-07-23 00:00:00,PRATE,surface,-100.313,32.5983,4e-05
2016-07-23 00:00:00,2016-07-23 00:00:00,PRATE,surface,-99.3754,32.5983,4.27e-05
2016-07-23 00:00:00,2016-07-23 00:00:00,PRATE,surface,-98.4379,32.5983,4.58e-05
2016-07-23 00:00:00,2016-07-23 00:00:00,PRATE,surface,-97.5004,32.5983,4.7e-05
2016-07-23 00:00:00,2016-07-23 00:00:00,PRATE,surface,-96.5629,32.5983,4.47e-05
2016-07-23 00:00:00,2016-07-23 00:00:00,PRATE,surface,-95.6254,32.5983,4.21e-05
2016-07-23 00:00:00,2016-07-23 00:00:00,PRATE,surface,-94.6879,32.5983,4.47e-05
2016-07-23 00:00:00,2016-07-23 00:00:00,PRATE,surface,-93.7504,32.5983,5.33e-05
2016-07-23 00:00:00,2016-07-23 00:00:00,PRATE,surface,-92.8129,32.5983,6.77e-05
2016-07-23 00:00:00,2016-07-23 00:00:00,PRATE,surface,-107.813,33.5432,4.72e-05
2016-07-23 00:00:00,2016-07-23 00:00:00,PRATE,surface,-106.875,33.5432,3.91e-05
2016-07-23 00:00:00,2016-07-23 00:00:00,PRATE,surface,-105.938,33.5432,3.2e-05
2016-07-23 00:00:00,2016-07-23 00:00:00,PRATE,surface,-105,33.5432,3.33e-05
2016-07-23 00:00:00,2016-07-23 00:00:00,PRATE,surface,-104.063,33.5432,2.9e-05
2016-07-23 00:00:00,2016-07-23 00:00:00,PRATE,surface,-103.125,33.5432,2.77e-05
2016-07-23 00:00:00,2016-07-23 00:00:00,PRATE,surface,-102.188,33.5432,3.01e-05
2016-07-23 00:00:00,2016-07-23 00:00:00,PRATE,surface,-101.25,33.5432,3.55e-05
2016-07-23 00:00:00,2016-07-23 00:00:00,PRATE,surface,-100.313,33.5432,3.8e-05
2016-07-23 00:00:00,2016-07-23 00:00:00,PRATE,surface,-99.3754,33.5432,4.02e-05
2016-07-23 00:00:00,2016-07-23 00:00:00,PRATE,surface,-98.4379,33.5432,4.31e-05
2016-07-23 00:00:00,2016-07-23 00:00:00,PRATE,surface,-97.5004,33.5432,4.4e-05
2016-07-23 00:00:00,2016-07-23 00:00:00,PRATE,surface,-96.5629,33.5432,4.15e-05
2016-07-23 00:00:00,2016-07-23 00:00:00,PRATE,surface,-95.6254,33.5432,3.92e-05
2016-07-23 00:00:00,2016-07-23 00:00:00,PRATE,surface,-94.6879,33.5432,3.94e-05
2016-07-23 00:00:00,2016-07-23 00:00:00,PRATE,surface,-93.7504,33.5432,4.04e-05
2016-07-23 00:00:00,2016-07-23 00:00:00,PRATE,surface,-92.8129,33.5432,4.48e-05
2016-07-23 00:00:00,2016-07-23 00:00:00,PRATE,surface,-107.813,34.4881,4.1e-05
2016-07-23 00:00:00,2016-07-23 00:00:00,PRATE,surface,-106.875,34.4881,3.31e-05
2016-07-23 00:00:00,2016-07-23 00:00:00,PRATE,surface,-105.938,34.4881,3.08e-05
2016-07-23 00:00:00,2016-07-23 00:00:00,PRATE,surface,-105,34.4881,3.28e-05
2016-07-23 00:00:00,2016-07-23 00:00:00,PRATE,surface,-104.063,34.4881,3.09e-05
2016-07-23 00:00:00,2016-07-23 00:00:00,PRATE,surface,-103.125,34.4881,2.66e-05
2016-07-23 00:00:00,2016-07-23 00:00:00,PRATE,surface,-102.188,34.4881,2.99e-05
2016-07-23 00:00:00,2016-07-23 00:00:00,PRATE,surface,-101.25,34.4881,3.91e-05
2016-07-23 00:00:00,2016-07-23 00:00:00,PRATE,surface,-100.313,34.4881,4.32e-05
2016-07-23 00:00:00,2016-07-23 00:00:00,PRATE,surface,-99.3754,34.4881,4.18e-05
2016-07-23 00:00:00,2016-07-23 00:00:00,PRATE,surface,-98.4379,34.4881,3.99e-05
2016-07-23 00:00:00,2016-07-23 00:00:00,PRATE,surface,-97.5004,34.4881,3.84e-05
2016-07-23 00:00:00,2016-07-23 00:00:00,PRATE,surface,-96.5629,34.4881,3.65e-05
2016-07-23 00:00:00,2016-07-23 00:00:00,PRATE,surface,-95.6254,34.4881,3.44e-05
2016-07-23 00:00:00,2016-07-23 00:00:00,PRATE,surface,-94.6879,34.4881,3.34e-05
2016-07-23 00:00:00,2016-07-23 00:00:00,PRATE,surface,-93.7504,34.4881,3.4e-05
2016-07-23 00:00:00,2016-07-23 00:00:00,PRATE,surface,-92.8129,34.4881,3.55e-05
2016-07-23 00:00:00,2016-07-23 00:00:00,PRATE,surface,-107.813,35.4329,2.71e-05
2016-07-23 00:00:00,2016-07-23 00:00:00,PRATE,surface,-106.875,35.4329,2.74e-05
2016-07-23 00:00:00,2016-07-23 00:00:00,PRATE,surface,-105.938,35.4329,2.74e-05
2016-07-23 00:00:00,2016-07-23 00:00:00,PRATE,surface,-105,35.4329,3.38e-05
2016-07-23 00:00:00,2016-07-23 00:00:00,PRATE,surface,-104.063,35.4329,3.1e-05
2016-07-23 00:00:00,2016-07-23 00:00:00,PRATE,surface,-103.125,35.4329,2.77e-05
2016-07-23 00:00:00,2016-07-23 00:00:00,PRATE,surface,-102.188,35.4329,3.14e-05
2016-07-23 00:00:00,2016-07-23 00:00:00,PRATE,surface,-101.25,35.4329,3.99e-05
2016-07-23 00:00:00,2016-07-23 00:00:00,PRATE,surface,-100.313,35.4329,4.38e-05
2016-07-23 00:00:00,2016-07-23 00:00:00,PRATE,surface,-99.3754,35.4329,3.91e-05
2016-07-23 00:00:00,2016-07-23 00:00:00,PRATE,surface,-98.4379,35.4329,3.35e-05
2016-07-23 00:00:00,2016-07-23 00:00:00,PRATE,surface,-97.5004,35.4329,3.12e-05
2016-07-23 00:00:00,2016-07-23 00:00:00,PRATE,surface,-96.5629,35.4329,2.93e-05
2016-07-23 00:00:00,2016-07-23 00:00:00,PRATE,surface,-95.6254,35.4329,2.67e-05
2016-07-23 00:00:00,2016-07-23 00:00:00,PRATE,surface,-94.6879,35.4329,2.48e-05
2016-07-23 00:00:00,2016-07-23 00:00:00,PRATE,surface,-93.7504,35.4329,2.41e-05
2016-07-23 00:00:00,2016-07-23 00:00:00,PRATE,surface,-92.8129,35.4329,2.39e-05
2016-07-23 00:00:00,2016-07-23 00:00:00,PRATE,surface,-107.813,36.3778,3.15e-05
2016-07-23 00:00:00,2016-07-23 00:00:00,PRATE,surface,-106.875,36.3778,3.67e-05
2016-07-23 00:00:00,2016-07-23 00:00:00,PRATE,surface,-105.938,36.3778,2.97e-05
2016-07-23 00:00:00,2016-07-23 00:00:00,PRATE,surface,-105,36.3778,3.03e-05
2016-07-23 00:00:00,2016-07-23 00:00:00,PRATE,surface,-104.063,36.3778,3.07e-05
2016-07-23 00:00:00,2016-07-23 00:00:00,PRATE,surface,-103.125,36.3778,3.27e-05
2016-07-23 00:00:00,2016-07-23 00:00:00,PRATE,surface,-102.188,36.3778,3.58e-05
2016-07-23 00:00:00,2016-07-23 00:00:00,PRATE,surface,-101.25,36.3778,3.78e-05
2016-07-23 00:00:00,2016-07-23 00:00:00,PRATE,surface,-100.313,36.3778,3.58e-05
2016-07-23 00:00:00,2016-07-23 00:00:00,PRATE,surface,-99.3754,36.3778,3.05e-05
2016-07-23 00:00:00,2016-07-23 00:00:00,PRATE,surface,-98.4379,36.3778,2.57e-05
2016-07-23 00:00:00,2016-07-23 00:00:00,PRATE,surface,-97.5004,36.3778,2.24e-05
2016-07-23 00:00:00,2016-07-23 00:00:00,PRATE,surface,-96.5629,36.3778,1.9e-05
2016-07-23 00:00:00,2016-07-23 00:00:00,PRATE,surface,-95.6254,36.3778,1.58e-05
2016-07-23 00:00:00,2016-07-23 00:00:00,PRATE,surface,-94.6879,36.3778,1.43e-05
2016-07-23 00:00:00,2016-07-23 00:00:00,PRATE,surface,-93.7504,36.3778,1.48e-05
2016-07-23 00:00:00,2016-07-23 00:00:00,PRATE,surface,-92.8129,36.3778,1.57e-05
