2017-11-04 00:00:00,2017-11-04 00:00:00,TMP,surface,-107.813,25.0393,292.009
2017-11-04 00:00:00,2017-11-04 00:00:00,TMP,surface,-106.875,25.0393,286.85
2017-11-04 00:00:00,2017-11-04 00:00:00,TMP,surface,-105.938,25.0393,281.897
2017-11-04 00:00:00,2017-11-04 00:00:00,TMP,surface,-105,25.0393,281.258
2017-11-04 00:00:00,2017-11-04 00:00:00,TMP,surface,-104.063,25.0393,284.911
2017-11-04 00:00:00,2017-11-04 00:00:00,TMP,surface,-103.125,25.0393,286.914
2017-11-04 00:00:00,2017-11-04 00:00:00,TMP,surface,-102.188,25.0393,286.505
2017-11-04 00:00:00,2017-11-04 00:00:00,TMP,surface,-101.25,25.0393,284.927
2017-11-04 00:00:00,2017-11-04 00:00:00,TMP,surface,-100.313,25.0393,285.471
2017-11-04 00:00:00,2017-11-04 00:00:00,TMP,surface,-99.3754,25.0393,288.089
2017-11-04 00:00:00,2017-11-04 00:00:00,TMP,surface,-98.4379,25.0393,290.839
2017-11-04 00:00:00,2017-11-04 00:00:00,TMP,surface,-97.5004,25.0393,295.837
2017-11-04 00:00:00,2017-11-04 00:00:00,TMP,surface,-96.5629,25.0393,296.382
2017-11-04 00:00:00,2017-11-04 00:00:00,TMP,surface,-95.6254,25.0393,296.964
2017-11-04 00:00:00,2017-11-04 00:00:00,TMP,surface,-94.6879,25.0393,297.095
2017-11-04 00:00:00,2017-11-04 00:00:00,TMP,surface,-93.7504,25.0393,296.927
2017-11-04 00:00:00,2017-11-04 00:00:00,TMP,surface,-92.8129,25.0393,296.903
2017-11-04 00:00:00,2017-11-04 00:00:00,TMP,surface,-107.813,25.9842,287.478
2017-11-04 00:00:00,2017-11-04 00:00:00,TMP,surface,-106.875,25.9842,282.314
2017-11-04 00:00:00,2017-11-04 00:00:00,TMP,surface,-105.938,25.9842,280.345
2017-11-04 00:00:00,2017-11-04 00:00:00,TMP,surface,-105,25.9842,282.999
2017-11-04 00:00:00,2017-11-04 00:00:00,TMP,surface,-104.063,25.9842,286.247
2017-11-04 00:00:00,2017-11-04 00:00:00,TMP,surface,-103.125,25.9842,287.215
2017-11-04 00:00:00,2017-11-04 00:00:00,TMP,surface,-102.188,25.9842,286.481
2017-11-04 00:00:00,2017-11-04 00:00:00,TMP,surface,-101.25,25.9842,285.697
2017-11-04 00:00:00,2017-11-04 00:00:00,TMP,surface,-100.313,25.9842,286.175
2017-11-04 00:00:00,2017-11-04 00:00:00,TMP,surface,-99.3754,25.9842,288.292
2017-11-04 00:00:00,2017-11-04 00:00:00,TMP,surface,-98.4379,25.9842,290.268
2017-11-04 00:00:00,2017-11-04 00:00:00,TMP,surface,-97.5004,25.9842,291.729
2017-11-04 00:00:00,2017-11-04 00:00:00,TMP,surface,-96.5629,25.9842,295.474
2017-11-04 00:00:00,2017-11-04 00:00:00,TMP,surface,-95.6254,25.9842,296.186
2017-11-04 00:00:00,2017-11-04 00:00:00,TMP,surface,-94.6879,25.9842,296.335
2017-11-04 00:00:00,2017-11-04 00:00:00,TMP,surface,-93.7504,25.9842,296.212
2017-11-04 00:00:00,2017-11-04 00:00:00,TMP,surface,-92.8129,25.9842,296.18
2017-11-04 00:00:00,2017-11-04 00:00:00,TMP,surface,-107.813,26.929,282.73
2017-11-04 00:00:00,2017-11-04 00:00:00,TMP,surface,-106.875,26.929,279.366
2017-11-04 00:00:00,2017-11-04 00:00:00,TMP,surface,-105.938,26.929,281.604
2017-11-04 00:00:00,2017-11-04 00:00:00,TMP,surface,-105,26.929,285.06
2017-11-04 00:00:00,2017-11-04 00:00:00,TMP,surface,-104.063,26.929,285.975
2017-11-04 00:00:00,2017-11-04 00:00:00,TMP,surface,-103.125,26.929,284.999
2017-11-04 00:00:00,2017-11-04 00:00:00,TMP,surface,-102.188,26.929,284.412
2017-11-04 00:00:00,2017-11-04 00:00:00,TMP,surface,-101.25,26.929,285.074
2017-11-04 00:00:00,2017-11-04 00:00:00,TMP,surface,-100.313,26.929,286.319
2017-11-04 00:00:00,2017-11-04 00:00:00,TMP,surface,-99.3754,26.929,287.858
2017-11-04 00:00:00,2017-11-04 00:00:00,TMP,surface,-98.4379,26.929,288.681
2017-11-04 00:00:00,2017-11-04 00:00:00,TMP,surface,-97.5004,26.929,293.478
2017-11-04 00:00:00,2017-11-04 00:00:00,TMP,surface,-96.5629,26.929,294.159
2017-11-04 00:00:00,2017-11-04 00:00:00,TMP,surface,-95.6254,26.929,294.897
2017-11-04 00:00:00,2017-11-04 00:00:00,TMP,surface,-94.6879,26.929,295.196
2017-11-04 00:00:00,2017-11-04 00:00:00,TMP,surface,-93.7504,26.929,295.09
2017-11-04 00:00:00,2017-11-04 00:00:00,TMP,surface,-92.8129,26.929,295.103
2017-11-04 00:00:00,2017-11-04 00:00:00,TMP,surface,-107.813,27.8739,279.358
2017-11-04 00:00:00,2017-11-04 00:00:00,TMP,surface,-106.875,27.8739,279.044
2017-11-04 00:00:00,2017-11-04 00:00:00,TMP,surface,-105.938,27.8739,282.751
2017-11-04 00:00:00,2017-11-04 00:00:00,TMP,surface,-105,27.8739,285.172
2017-11-04 00:00:00,2017-11-04 00:00:00,TMP,surface,-104.063,27.8739,284.453
2017-11-04 00:00:00,2017-11-04 00:00:00,TMP,surface,-103.125,27.8739,282.934
2017-11-04 00:00:00,2017-11-04 00:00:00,TMP,surface,-102.188,27.8739,282.825
2017-11-04 00:00:00,2017-11-04 00:00:00,TMP,surface,-101.25,27.8739,284.13
2017-11-04 00:00:00,2017-11-04 00:00:00,TMP,surface,-100.313,27.8739,285.561
2017-11-04 00:00:00,2017-11-04 00:00:00,TMP,surface,-99.3754,27.8739,286.246
2017-11-04 00:00:00,2017-11-04 00:00:00,TMP,surface,-98.4379,27.8739,286.802
2017-11-04 00:00:00,2017-11-04 00:00:00,TMP,surface,-97.5004,27.8739,290.465
2017-11-04 00:00:00,2017-11-04 00:00:00,TMP,surface,-96.5629,27.8739,293.977
2017-11-04 00:00:00,2017-11-04 00:00:00,TMP,surface,-95.6254,27.8739,294.161
2017-11-04 00:00:00,2017-11-04 00:00:00,TMP,surface,-94.6879,27.8739,294.073
2017-11-04 00:00:00,2017-11-04 00:00:00,TMP,surface,-93.7504,27.8739,294.05
2017-11-04 00:00:00,2017-11-04 00:00:00,TMP,surface,-92.8129,27.8739,294.106
2017-11-04 00:00:00,2017-11-04 00:00:00,TMP,surface,-107.813,28.8188,277.847
2017-11-04 00:00:00,2017-11-04 00:00:00,TMP,surface,-106.875,28.8188,279.114
2017-11-04 00:00:00,2017-11-04 00:00:00,TMP,surface,-105.938,28.8188,282.461
2017-11-04 00:00:00,2017-11-04 00:00:00,TMP,surface,-105,28.8188,283.812
2017-11-04 00:00:00,2017-11-04 00:00:00,TMP,surface,-104.063,28.8188,282.868
2017-11-04 00:00:00,2017-11-04 00:00:00,TMP,surface,-103.125,28.8188,281.949
2017-11-04 00:00:00,2017-11-04 00:00:00,TMP,surface,-102.188,28.8188,282.233
2017-11-04 00:00:00,2017-11-04 00:00:00,TMP,surface,-101.25,28.8188,283.377
2017-11-04 00:00:00,2017-11-04 00:00:00,TMP,surface,-100.313,28.8188,283.922
2017-11-04 00:00:00,2017-11-04 00:00:00,TMP,surface,-99.3754,28.8188,284.023
2017-11-04 00:00:00,2017-11-04 00:00:00,TMP,surface,-98.4379,28.8188,284.31
2017-11-04 00:00:00,2017-11-04 00:00:00,TMP,surface,-97.5004,28.8188,284.937
2017-11-04 00:00:00,2017-11-04 00:00:00,TMP,surface,-96.5629,28.8188,285.685
2017-11-04 00:00:00,2017-11-04 00:00:00,TMP,surface,-95.6254,28.8188,288.868
2017-11-04 00:00:00,2017-11-04 00:00:00,TMP,surface,-94.6879,28.8188,293.409
2017-11-04 00:00:00,2017-11-04 00:00:00,TMP,surface,-93.7504,28.8188,293.353
2017-11-04 00:00:00,2017-11-04 00:00:00,TMP,surface,-92.8129,28.8188,293.453
2017-11-04 00:00:00,2017-11-04 00:00:00,TMP,surface,-107.813,29.7637,278.249
2017-11-04 00:00:00,2017-11-04 00:00:00,TMP,surface,-106.875,29.7637,279.526
2017-11-04 00:00:00,2017-11-04 00:00:00,TMP,surface,-105.938,29.7637,281.409
2017-11-04 00:00:00,2017-11-04 00:00:00,TMP,surface,-105,29.7637,281.31
2017-11-04 00:00:00,2017-11-04 00:00:00,TMP,surface,-104.063,29.7637,281.389
2017-11-04 00:00:00,2017-11-04 00:00:00,TMP,surface,-103.125,29.7637,281.695
2017-11-04 00:00:00,2017-11-04 00:00:00,TMP,surface,-102.188,29.7637,282.394
2017-11-04 00:00:00,2017-11-04 00:00:00,TMP,surface,-101.25,29.7637,282.556
2017-11-04 00:00:00,2017-11-04 00:00:00,TMP,surface,-100.313,29.7637,282.098
2017-11-04 00:00:00,2017-11-04 00:00:00,TMP,surface,-99.3754,29.7637,281.77
2017-11-04 00:00:00,2017-11-04 00:00:00,TMP,surface,-98.4379,29.7637,281.809
2017-11-04 00:00:00,2017-11-04 00:00:00,TMP,surface,-97.5004,29.7637,282.127
2017-11-04 00:00:00,2017-11-04 00:00:00,TMP,surface,-96.5629,29.7637,282.69
2017-11-04 00:00:00,2017-11-04 00:00:00,TMP,surface,-95.6254,29.7637,283.519
2017-11-04 00:00:00,2017-11-04 00:00:00,TMP,surface,-94.6879,29.7637,286.789
2017-11-04 00:00:00,2017-11-04 00:00:00,TMP,surface,-93.7504,29.7637,290.534
2017-11-04 00:00:00,2017-11-04 00:00:00,TMP,surface,-92.8129,29.7637,284.492
2017-11-04 00:00:00,2017-11-04 00:00:00,TMP,surface,-107.813,30.7085,279.289
2017-11-04 00:00:00,2017-11-04 00:00:00,TMP,surface,-106.875,30.7085,280.076
2017-11-04 00:00:00,2017-11-04 00:00:00,TMP,surface,-105.938,30.7085,280.036
2017-11-04 00:00:00,2017-11-04 00:00:00,TMP,surface,-105,30.7085,279.849
2017-11-04 00:00:00,2017-11-04 00:00:00,TMP,surface,-104.063,30.7085,280.156
2017-11-04 00:00:00,2017-11-04 00:00:00,TMP,surface,-103.125,30.7085,281.314
2017-11-04 00:00:00,2017-11-04 00:00:00,TMP,surface,-102.188,30.7085,281.903
2017-11-04 00:00:00,2017-11-04 00:00:00,TMP,surface,-101.25,30.7085,281.431
2017-11-04 00:00:00,2017-11-04 00:00:00,TMP,surface,-100.313,30.7085,280.717
2017-11-04 00:00:00,2017-11-04 00:00:00,TMP,surface,-99.3754,30.7085,280.407
2017-11-04 00:00:00,2017-11-04 00:00:00,TMP,surface,-98.4379,30.7085,280.396
2017-11-04 00:00:00,2017-11-04 00:00:00,TMP,surface,-97.5004,30.7085,280.505
2017-11-04 00:00:00,2017-11-04 00:00:00,TMP,surface,-96.5629,30.7085,280.767
2017-11-04 00:00:00,2017-11-04 00:00:00,TMP,surface,-95.6254,30.7085,281.14
2017-11-04 00:00:00,2017-11-04 00:00:00,TMP,surface,-94.6879,30.7085,281.382
2017-11-04 00:00:00,2017-11-04 00:00:00,TMP,surface,-93.7504,30.7085,281.268
2017-11-04 00:00:00,2017-11-04 00:00:00,TMP,surface,-92.8129,30.7085,280.823
2017-11-04 00:00:00,2017-11-04 00:00:00,TMP,surface,-107.813,31.6534,278.298
2017-11-04 00:00:00,2017-11-04 00:00:00,TMP,surface,-106.875,31.6534,278.806
2017-11-04 00:00:00,2017-11-04 00:00:00,TMP,surface,-105.938,31.6534,278.31
2017-11-04 00:00:00,2017-11-04 00:00:00,TMP,surface,-105,31.6534,278.46
2017-11-04 00:00:00,2017-11-04 00:00:00,TMP,surface,-104.063,31.6534,279.43
2017-11-04 00:00:00,2017-11-04 00:00:00,TMP,surface,-103.125,31.6534,280.425
2017-11-04 00:00:00,2017-11-04 00:00:00,TMP,surface,-102.188,31.6534,280.778
2017-11-04 00:00:00,2017-11-04 00:00:00,TMP,surface,-101.25,31.6534,280.268
2017-11-04 00:00:00,2017-11-04 00:00:00,TMP,surface,-100.313,31.6534,279.781
2017-11-04 00:00:00,2017-11-04 00:00:00,TMP,surface,-99.3754,31.6534,279.582
2017-11-04 00:00:00,2017-11-04 00:00:00,TMP,surface,-98.4379,31.6534,279.534
2017-11-04 00:00:00,2017-11-04 00:00:00,TMP,surface,-97.5004,31.6534,279.517
2017-11-04 00:00:00,2017-11-04 00:00:00,TMP,surface,-96.5629,31.6534,279.58
2017-11-04 00:00:00,2017-11-04 00:00:00,TMP,surface,-95.6254,31.6534,279.602
2017-11-04 00:00:00,2017-11-04 00:00:00,TMP,surface,-94.6879,31.6534,279.407
2017-11-04 00:00:00,2017-11-04 00:00:00,TMP,surface,-93.7504,31.6534,279.185
2017-11-04 00:00:00,2017-11-04 00:00:00,TMP,surface,-92.8129,31.6534,279.05
2017-11-04 00:00:00,2017-11-04 00:00:00,TMP,surface,-107.813,32.5983,275.34
2017-11-04 00:00:00,2017-11-04 00:00:00,TMP,surface,-106.875,32.5983,275.594
2017-11-04 00:00:00,2017-11-04 00:00:00,TMP,surface,-105.938,32.5983,276.055
2017-11-04 00:00:00,2017-11-04 00:00:00,TMP,surface,-105,32.5983,276.661
2017-11-04 00:00:00,2017-11-04 00:00:00,TMP,surface,-104.063,32.5983,277.791
2017-11-04 00:00:00,2017-11-04 00:00:00,TMP,surface,-103.125,32.5983,278.596
2017-11-04 00:00:00,2017-11-04 00:00:00,TMP,surface,-102.188,32.5983,278.825
2017-11-04 00:00:00,2017-11-04 00:00:00,TMP,surface,-101.25,32.5983,278.812
2017-11-04 00:00:00,2017-11-04 00:00:00,TMP,surface,-100.313,32.5983,278.849
2017-11-04 00:00:00,2017-11-04 00:00:00,TMP,surface,-99.3754,32.5983,278.919
2017-11-04 00:00:00,2017-11-04 00:00:00,TMP,surface,-98.4379,32.5983,278.809
2017-11-04 00:00:00,2017-11-04 00:00:00,TMP,surface,-97.5004,32.5983,278.633
2017-11-04 00:00:00,2017-11-04 00:00:00,TMP,surface,-96.5629,32.5983,278.526
2017-11-04 00:00:00,2017-11-04 00:00:00,TMP,surface,-95.6254,32.5983,278.389
2017-11-04 00:00:00,2017-11-04 00:00:00,TMP,surface,-94.6879,32.5983,278.127
2017-11-04 00:00:00,2017-11-04 00:00:00,TMP,surface,-93.7504,32.5983,277.845
2017-11-04 00:00:00,2017-11-04 00:00:00,TMP,surface,-92.8129,32.5983,277.791
2017-11-04 00:00:00,2017-11-04 00:00:00,TMP,surface,-107.813,33.5432,272.188
2017-11-04 00:00:00,2017-11-04 00:00:00,TMP,surface,-106.875,33.5432,273.226
2017-11-04 00:00:00,2017-11-04 00:00:00,TMP,surface,-105.938,33.5432,274.274
2017-11-04 00:00:00,2017-11-04 00:00:00,TMP,surface,-105,33.5432,275.169
2017-11-04 00:00:00,2017-11-04 00:00:00,TMP,surface,-104.063,33.5432,275.996
2017-11-04 00:00:00,2017-11-04 00:00:00,TMP,surface,-103.125,33.5432,276.671
2017-11-04 00:00:00,2017-11-04 00:00:00,TMP,surface,-102.188,33.5432,276.756
2017-11-04 00:00:00,2017-11-04 00:00:00,TMP,surface,-101.25,33.5432,277.055
2017-11-04 00:00:00,2017-11-04 00:00:00,TMP,surface,-100.313,33.5432,277.567
2017-11-04 00:00:00,2017-11-04 00:00:00,TMP,surface,-99.3754,33.5432,277.852
2017-11-04 00:00:00,2017-11-04 00:00:00,TMP,surface,-98.4379,33.5432,277.684
2017-11-04 00:00:00,2017-11-04 00:00:00,TMP,surface,-97.5004,33.5432,277.333
2017-11-04 00:00:00,2017-11-04 00:00:00,TMP,surface,-96.5629,33.5432,277.161
2017-11-04 00:00:00,2017-11-04 00:00:00,TMP,surface,-95.6254,33.5432,277.058
2017-11-04 00:00:00,2017-11-04 00:00:00,TMP,surface,-94.6879,33.5432,276.741
2017-11-04 00:00:00,2017-11-04 00:00:00,TMP,surface,-93.7504,33.5432,276.378
2017-11-04 00:00:00,2017-11-04 00:00:00,TMP,surface,-92.8129,33.5432,276.212
2017-11-04 00:00:00,2017-11-04 00:00:00,TMP,surface,-107.813,34.4881,270.481
2017-11-04 00:00:00,2017-11-04 00:00:00,TMP,surface,-106.875,34.4881,271.847
2017-11-04 00:00:00,2017-11-04 00:00:00,TMP,surface,-105.938,34.4881,272.911
2017-11-04 00:00:00,2017-11-04 00:00:00,TMP,surface,-105,34.4881,273.613
2017-11-04 00:00:00,2017-11-04 00:00:00,TMP,surface,-104.063,34.4881,274.362
2017-11-04 00:00:00,2017-11-04 00:00:00,TMP,surface,-103.125,34.4881,274.773
2017-11-04 00:00:00,2017-11-04 00:00:00,TMP,surface,-102.188,34.4881,274.745
2017-11-04 00:00:00,2017-11-04 00:00:00,TMP,surface,-101.25,34.4881,275.164
2017-11-04 00:00:00,2017-11-04 00:00:00,TMP,surface,-100.313,34.4881,275.786
2017-11-04 00:00:00,2017-11-04 00:00:00,TMP,surface,-99.3754,34.4881,276.311
2017-11-04 00:00:00,2017-11-04 00:00:00,TMP,surface,-98.4379,34.4881,276.241
2017-11-04 00:00:00,2017-11-04 00:00:00,TMP,surface,-97.5004,34.4881,275.858
2017-11-04 00:00:00,2017-11-04 00:00:00,TMP,surface,-96.5629,34.4881,275.609
2017-11-04 00:00:00,2017-11-04 00:00:00,TMP,surface,-95.6254,34.4881,275.377
2017-11-04 00:00:00,2017-11-04 00:00:00,TMP,surface,-94.6879,34.4881,274.956
2017-11-04 00:00:00,2017-11-04 00:00:00,TMP,surface,-93.7504,34.4881,274.516
2017-11-04 00:00:00,2017-11-04 00:00:00,TMP,surface,-92.8129,34.4881,274.303
2017-11-04 00:00:00,2017-11-04 00:00:00,TMP,surface,-107.813,35.4329,270.27
2017-11-04 00:00:00,2017-11-04 00:00:00,TMP,surface,-106.875,35.4329,270.276
2017-11-04 00:00:00,2017-11-04 00:00:00,TMP,surface,-105.938,35.4329,270.911
2017-11-04 00:00:00,2017-11-04 00:00:00,TMP,surface,-105,35.4329,271.785
2017-11-04 00:00:00,2017-11-04 00:00:00,TMP,surface,-104.063,35.4329,272.809
2017-11-04 00:00:00,2017-11-04 00:00:00,TMP,surface,-103.125,35.4329,273.577
2017-11-04 00:00:00,2017-11-04 00:00:00,TMP,surface,-102.188,35.4329,273.799
2017-11-04 00:00:00,2017-11-04 00:00:00,TMP,surface,-101.25,35.4329,274.031
2017-11-04 00:00:00,2017-11-04 00:00:00,TMP,surface,-100.313,35.4329,274.282
2017-11-04 00:00:00,2017-11-04 00:00:00,TMP,surface,-99.3754,35.4329,274.274
2017-11-04 00:00:00,2017-11-04 00:00:00,TMP,surface,-98.4379,35.4329,274.13
2017-11-04 00:00:00,2017-11-04 00:00:00,TMP,surface,-97.5004,35.4329,274.111
2017-11-04 00:00:00,2017-11-04 00:00:00,TMP,surface,-96.5629,35.4329,274.153
2017-11-04 00:00:00,2017-11-04 00:00:00,TMP,surface,-95.6254,35.4329,273.87
2017-11-04 00:00:00,2017-11-04 00:00:00,TMP,surface,-94.6879,35.4329,273.246
2017-11-04 00:00:00,2017-11-04 00:00:00,TMP,surface,-93.7504,35.4329,272.766
2017-11-04 00:00:00,2017-11-04 00:00:00,TMP,surface,-92.8129,35.4329,272.516
2017-11-04 00:00:00,2017-11-04 00:00:00,TMP,surface,-107.813,36.3778,268.599
2017-11-04 00:00:00,2017-11-04 00:00:00,TMP,surface,-106.875,36.3778,267.055
2017-11-04 00:00:00,2017-11-04 00:00:00,TMP,surface,-105.938,36.3778,268.082
2017-11-04 00:00:00,2017-11-04 00:00:00,TMP,surface,-105,36.3778,269.708
2017-11-04 00:00:00,2017-11-04 00:00:00,TMP,surface,-104.063,36.3778,271.186
2017-11-04 00:00:00,2017-11-04 00:00:00,TMP,surface,-103.125,36.3778,272.066
2017-11-04 00:00:00,2017-11-04 00:00:00,TMP,surface,-102.188,36.3778,272.711
2017-11-04 00:00:00,2017-11-04 00:00:00,TMP,surface,-101.25,36.3778,273.092
2017-11-04 00:00:00,2017-11-04 00:00:00,TMP,surface,-100.313,36.3778,273.277
2017-11-04 00:00:00,2017-11-04 00:00:00,TMP,surface,-99.3754,36.3778,273.132
2017-11-04 00:00:00,2017-11-04 00:00:00,TMP,surface,-98.4379,36.3778,272.738
2017-11-04 00:00:00,2017-11-04 00:00:00,TMP,surface,-97.5004,36.3778,272.458
2017-11-04 00:00:00,2017-11-04 00:00:00,TMP,surface,-96.5629,36.3778,272.263
2017-11-04 00:00:00,2017-11-04 00:00:00,TMP,surface,-95.6254,36.3778,271.828
2017-11-04 00:00:00,2017-11-04 00:00:00,TMP,surface,-94.6879,36.3778,271.17
2017-11-04 00:00:00,2017-11-04 00:00:00,TMP,surface,-93.7504,36.3778,270.626
2017-11-04 00:00:00,2017-11-04 00:00:00,TMP,surface,-92.8129,36.3778,270.412
2017-11-04 00:00:00,2017-11-04 00:00:00,PRATE,surface,-107.813,25.0393,3.26e-05
2017-11-04 00:00:00,2017-11-04 00:00:00,PRATE,surface,-106.875,25.0393,5.03e-05
2017-11-04 00:00:00,2017-11-04 00:00:00,PRATE,surface,-105.938,25.0393,4.92e-05
2017-11-04 00:00:00,2017-11-04 00:00:00,PRATE,surface,-105,25.0393,2.51e-05
2017-11-04 00:00:00,2017-11-04 00:00:00,PRATE,surface,-104.063,25.0393,1.14e-05
2017-11-04 00:00:00,2017-11-04 00:00:00,PRATE,surface,-103.125,25.0393,7.3e-06
2017-11-04 00:00:00,2017-11-04 00:00:00,PRATE,surface,-102.188,25.0393,8.5e-06
2017-11-04 00:00:00,2017-11-04 00:00:00,PRATE,surface,-101.25,25.0393,1.68e-05
2017-11-04 00:00:00,2017-11-04 00:00:00,PRATE,surface,-100.313,25.0393,2.17e-05
2017-11-04 00:00:00,2017-11-04 00:00:00,PRATE,surface,-99.3754,25.0393,1.44e-05
2017-11-04 00:00:00,2017-11-04 00:00:00,PRATE,surface,-98.4379,25.0393,1.29e-05
2017-11-04 00:00:00,2017-11-04 00:00:00,PRATE,surface,-97.5004,25.0393,1.8e-05
2017-11-04 00:00:00,2017-11-04 00:00:00,PRATE,surface,-96.5629,25.0393,1.9e-05
2017-11-04 00:00:00,2017-11-04 00:00:00,PRATE,surface,-95.6254,25.0393,2.23e-05
2017-11-04 00:00:00,2017-11-04 00:00:00,PRATE,surface,-94.6879,25.0393,2.34e-05
2017-11-04 00:00:00,2017-11-04 00:00:00,PRATE,surface,-93.7504,25.0393,2.54e-05
2017-11-04 00:00:00,2017-11-04 00:00:00,PRATE,surface,-92.8129,25.0393,2.9e-05
2017-11-04 00:00:00,2017-11-04 00:00:00,PRATE,surface,-107.813,25.9842,3.09e-05
2017-11-04 00:00:00,2017-11-04 00:00:00,PRATE,surface,-106.875,25.9842,3.4e-05
2017-11-04 00:00:00,2017-11-04 00:00:00,PRATE,surface,-105.938,25.9842,2.49e-05
2017-11-04 00:00:00,2017-11-04 00:00:00,PRATE,surface,-105,25.9842,1.34e-05
2017-11-04 00:00:00,2017-11-04 00:00:00,PRATE,surface,-104.063,25.9842,7.1e-06
2017-11-04 00:00:00,2017-11-04 00:00:00,PRATE,surface,-103.125,25.9842,5.3e-06
2017-11-04 00:00:00,2017-11-04 00:00:00,PRATE,surface,-102.188,25.9842,7e-06
2017-11-04 00:00:00,2017-11-04 00:00:00,PRATE,surface,-101.25,25.9842,1.26e-05
2017-11-04 00:00:00,2017-11-04 00:00:00,PRATE,surface,-100.313,25.9842,1.56e-05
2017-11-04 00:00:00,2017-11-04 00:00:00,PRATE,surface,-99.3754,25.9842,1.44e-05
2017-11-04 00:00:00,2017-11-04 00:00:00,PRATE,surface,-98.4379,25.9842,1.33e-05
2017-11-04 00:00:00,2017-11-04 00:00:00,PRATE,surface,-97.5004,25.9842,1.69e-05
2017-11-04 00:00:00,2017-11-04 00:00:00,PRATE,surface,-96.5629,25.9842,2.67e-05
2017-11-04 00:00:00,2017-11-04 00:00:00,PRATE,surface,-95.6254,25.9842,2.53e-05
2017-11-04 00:00:00,2017-11-04 00:00:00,PRATE,surface,-94.6879,25.9842,2.7e-05
2017-11-04 00:00:00,2017-11-04 00:00:00,PRATE,surface,-93.7504,25.9842,2.42e-05
2017-11-04 00:00:00,2017-11-04 00:00:00,PRATE,surface,-92.8129,25.9842,2.73e-05
2017-11-04 00:00:00,2017-11-04 00:00:00,PRATE,surface,-107.813,26.929,2.9e-05
2017-11-04 00:00:00,2017-11-04 00:00:00,PRATE,surface,-106.875,26.929,2.16e-05
2017-11-04 00:00:00,2017-11-04 00:00:00,PRATE,surface,-105.938,26.929,1.31e-05
2017-11-04 00:00:00,2017-11-04 00:00:00,PRATE,surface,-105,26.929,5.5e-06
2017-11-04 00:00:00,2017-11-04 00:00:00,PRATE,surface,-104.063,26.929,3.1e-06
2017-11-04 00:00:00,2017-11-04 00:00:00,PRATE,surface,-103.125,26.929,3.2e-06
2017-11-04 00:00:00,2017-11-04 00:00:00,PRATE,surface,-102.188,26.929,6.5e-06
2017-11-04 00:00:00,2017-11-04 00:00:00,PRATE,surface,-101.25,26.929,1.06e-05
2017-11-04 00:00:00,2017-11-04 00:00:00,PRATE,surface,-100.313,26.929,1.12e-05
2017-11-04 00:00:00,2017-11-04 00:00:00,PRATE,surface,-99.3754,26.929,1.36e-05
2017-11-04 00:00:00,2017-11-04 00:00:00,PRATE,surface,-98.4379,26.929,1.83e-05
2017-11-04 00:00:00,2017-11-04 00:00:00,PRATE,surface,-97.5004,26.929,2.37e-05
2017-11-04 00:00:00,2017-11-04 00:00:00,PRATE,surface,-96.5629,26.929,2.93e-05
2017-11-04 00:00:00,2017-11-04 00:00:00,PRATE,surface,-95.6254,26.929,2.74e-05
2017-11-04 00:00:00,2017-11-04 00:00:00,PRATE,surface,-94.6879,26.929,3.03e-05
2017-11-04 00:00:00,2017-11-04 00:00:00,PRATE,surface,-93.7504,26.929,2.86e-05
2017-11-04 00:00:00,2017-11-04 00:00:00,PRATE,surface,-92.8129,26.929,3.37e-05
2017-11-04 00:00:00,2017-11-04 00:00:00,PRATE,surface,-107.813,27.8739,2.48e-05
2017-11-04 00:00:00,2017-11-04 00:00:00,PRATE,surface,-106.875,27.8739,1.42e-05
2017-11-04 00:00:00,2017-11-04 00:00:00,PRATE,surface,-105.938,27.8739,6.3e-06
2017-11-04 00:00:00,2017-11-04 00:00:00,PRATE,surface,-105,27.8739,2.1e-06
2017-11-04 00:00:00,2017-11-04 00:00:00,PRATE,surface,-104.063,27.8739,1.9e-06
2017-11-04 00:00:00,2017-11-04 00:00:00,PRATE,surface,-103.125,27.8739,8.2e-06
2017-11-04 00:00:00,2017-11-04 00:00:00,PRATE,surface,-102.188,27.8739,1.2e-05
2017-11-04 00:00:00,2017-11-04 00:00:00,PRATE,surface,-101.25,27.8739,1.2e-05
2017-11-04 00:00:00,2017-11-04 00:00:00,PRATE,surface,-100.313,27.8739,1.37e-05
2017-11-04 00:00:00,2017-11-04 00:00:00,PRATE,surface,-99.3754,27.8739,1.76e-05
2017-11-04 00:00:00,2017-11-04 00:00:00,PRATE,surface,-98.4379,27.8739,2.14e-05
2017-11-04 00:00:00,2017-11-04 00:00:00,PRATE,surface,-97.5004,27.8739,2.51e-05
2017-11-04 00:00:00,2017-11-04 00:00:00,PRATE,surface,-96.5629,27.8739,2.71e-05
2017-11-04 00:00:00,2017-11-04 00:00:00,PRATE,surface,-95.6254,27.8739,2.82e-05
2017-11-04 00:00:00,2017-11-04 00:00:00,PRATE,surface,-94.6879,27.8739,3.28e-05
2017-11-04 00:00:00,2017-11-04 00:00:00,PRATE,surface,-93.7504,27.8739,3.95e-05
2017-11-04 00:00:00,2017-11-04 00:00:00,PRATE,surface,-92.8129,27.8739,4.6e-05
2017-11-04 00:00:00,2017-11-04 00:00:00,PRATE,surface,-107.813,28.8188,2.07e-05
2017-11-04 00:00:00,2017-11-04 00:00:00,PRATE,surface,-106.875,28.8188,1.25e-05
2017-11-04 00:00:00,2017-11-04 00:00:00,PRATE,surface,-105.938,28.8188,4.6e-06
2017-11-04 00:00:00,2017-11-04 00:00:00,PRATE,surface,-105,28.8188,1.7e-06
2017-11-04 00:00:00,2017-11-04 00:00:00,PRATE,surface,-104.063,28.8188,2e-06
2017-11-04 00:00:00,2017-11-04 00:00:00,PRATE,surface,-103.125,28.8188,7.3e-06
2017-11-04 00:00:00,2017-11-04 00:00:00,PRATE,surface,-102.188,28.8188,1.05e-05
2017-11-04 00:00:00,2017-11-04 00:00:00,PRATE,surface,-101.25,28.8188,1.1e-05
2017-11-04 00:00:00,2017-11-04 00:00:00,PRATE,surface,-100.313,28.8188,1.58e-05
2017-11-04 00:00:00,2017-11-04 00:00:00,PRATE,surface,-99.3754,28.8188,2.15e-05
2017-11-04 00:00:00,2017-11-04 00:00:00,PRATE,surface,-98.4379,28.8188,2.73e-05
2017-11-04 00:00:00,2017-11-04 00:00:00,PRATE,surface,-97.5004,28.8188,3.17e-05
2017-11-04 00:00:00,2017-11-04 00:00:00,PRATE,surface,-96.5629,28.8188,3.59e-05
2017-11-04 00:00:00,2017-11-04 00:00:00,PRATE,surface,-95.6254,28.8188,4.08e-05
2017-11-04 00:00:00,2017-11-04 00:00:00,PRATE,surface,-94.6879,28.8188,4.36e-05
2017-11-04 00:00:00,2017-11-04 00:00:00,PRATE,surface,-93.7504,28.8188,4.55e-05
2017-11-04 00:00:00,2017-11-04 00:00:00,PRATE,surface,-92.8129,28.8188,4.81e-05
2017-11-04 00:00:00,2017-11-04 00:00:00,PRATE,surface,-107.813,29.7637,1.74e-05
2017-11-04 00:00:00,2017-11-04 00:00:00,PRATE,surface,-106.875,29.7637,1.16e-05
2017-11-04 00:00:00,2017-11-04 00:00:00,PRATE,surface,-105.938,29.7637,6.3e-06
2017-11-04 00:00:00,2017-11-04 00:00:00,PRATE,surface,-105,29.7637,4.2e-06
2017-11-04 00:00:00,2017-11-04 00:00:00,PRATE,surface,-104.063,29.7637,3.8e-06
2017-11-04 00:00:00,2017-11-04 00:00:00,PRATE,surface,-103.125,29.7637,6.7e-06
2017-11-04 00:00:00,2017-11-04 00:00:00,PRATE,surface,-102.188,29.7637,7.1e-06
2017-11-04 00:00:00,2017-11-04 00:00:00,PRATE,surface,-101.25,29.7637,1.11e-05
2017-11-04 00:00:00,2017-11-04 00:00:00,PRATE,surface,-100.313,29.7637,1.95e-05
2017-11-04 00:00:00,2017-11-04 00:00:00,PRATE,surface,-99.3754,29.7637,3.07e-05
2017-11-04 00:00:00,2017-11-04 00:00:00,PRATE,surface,-98.4379,29.7637,3.74e-05
2017-11-04 00:00:00,2017-11-04 00:00:00,PRATE,surface,-97.5004,29.7637,4.18e-05
2017-11-04 00:00:00,2017-11-04 00:00:00,PRATE,surface,-96.5629,29.7637,4.66e-05
2017-11-04 00:00:00,2017-11-04 00:00:00,PRATE,surface,-95.6254,29.7637,5.02e-05
2017-11-04 00:00:00,2017-11-04 00:00:00,PRATE,surface,-94.6879,29.7637,5.42e-05
2017-11-04 00:00:00,2017-11-04 00:00:00,PRATE,surface,-93.7504,29.7637,5.49e-05
2017-11-04 00:00:00,2017-11-04 00:00:00,PRATE,surface,-92.8129,29.7637,4.5e-05
2017-11-04 00:00:00,2017-11-04 00:00:00,PRATE,surface,-107.813,30.7085,1.21e-05
2017-11-04 00:00:00,2017-11-04 00:00:00,PRATE,surface,-106.875,30.7085,9.4e-06
2017-11-04 00:00:00,2017-11-04 00:00:00,PRATE,surface,-105.938,30.7085,8.2e-06
2017-11-04 00:00:00,2017-11-04 00:00:00,PRATE,surface,-105,30.7085,6.8e-06
2017-11-04 00:00:00,2017-11-04 00:00:00,PRATE,surface,-104.063,30.7085,5.7e-06
2017-11-04 00:00:00,2017-11-04 00:00:00,PRATE,surface,-103.125,30.7085,7.8e-06
2017-11-04 00:00:00,2017-11-04 00:00:00,PRATE,surface,-102.188,30.7085,8e-06
2017-11-04 00:00:00,2017-11-04 00:00:00,PRATE,surface,-101.25,30.7085,1.65e-05
2017-11-04 00:00:00,2017-11-04 00:00:00,PRATE,surface,-100.313,30.7085,2.55e-05
2017-11-04 00:00:00,2017-11-04 00:00:00,PRATE,surface,-99.3754,30.7085,3.41e-05
2017-11-04 00:00:00,2017-11-04 00:00:00,PRATE,surface,-98.4379,30.7085,3.81e-05
2017-11-04 00:00:00,2017-11-04 00:00:00,PRATE,surface,-97.5004,30.7085,4.2e-05
2017-11-04 00:00:00,2017-11-04 00:00:00,PRATE,surface,-96.5629,30.7085,5.06e-05
2017-11-04 00:00:00,2017-11-04 00:00:00,PRATE,surface,-95.6254,30.7085,6.09e-05
2017-11-04 00:00:00,2017-11-04 00:00:00,PRATE,surface,-94.6879,30.7085,6.73e-05
2017-11-04 00:00:00,2017-11-04 00:00:00,PRATE,surface,-93.7504,30.7085,6.84e-05
2017-11-04 00:00:00,2017-11-04 00:00:00,PRATE,surface,-92.8129,30.7085,6.62e-05
2017-11-04 00:00:00,2017-11-04 00:00:00,PRATE,surface,-107.813,31.6534,1.13e-05
2017-11-04 00:00:00,2017-11-04 00:00:00,PRATE,surface,-106.875,31.6534,9.5e-06
2017-11-04 00:00:00,2017-11-04 00:00:00,PRATE,surface,-105.938,31.6534,8.1e-06
2017-11-04 00:00:00,2017-11-04 00:00:00,PRATE,surface,-105,31.6534,7.6e-06
2017-11-04 00:00:00,2017-11-04 00:00:00,PRATE,surface,-104.063,31.6534,6e-06
2017-11-04 00:00:00,2017-11-04 00:00:00,PRATE,surface,-103.125,31.6534,5.1e-06
2017-11-04 00:00:00,2017-11-04 00:00:00,PRATE,surface,-102.188,31.6534,6.7e-06
2017-11-04 00:00:00,2017-11-04 00:00:00,PRATE,surface,-101.25,31.6534,1.58e-05
2017-11-04 00:00:00,2017-11-04 00:00:00,PRATE,surface,-100.313,31.6534,2.3e-05
2017-11-04 00:00:00,2017-11-04 00:00:00,PRATE,surface,-99.3754,31.6534,2.78e-05
2017-11-04 00:00:00,2017-11-04 00:00:00,PRATE,surface,-98.4379,31.6534,3.5e-05
2017-11-04 00:00:00,2017-11-04 00:00:00,PRATE,surface,-97.5004,31.6534,4.48e-05
2017-11-04 00:00:00,2017-11-04 00:00:00,PRATE,surface,-96.5629,31.6534,5.37e-05
2017-11-04 00:00:00,2017-11-04 00:00:00,PRATE,surface,-95.6254,31.6534,6.26e-05
2017-11-04 00:00:00,2017-11-04 00:00:00,PRATE,surface,-94.6879,31.6534,7.55e-05
2017-11-04 00:00:00,2017-11-04 00:00:00,PRATE,surface,-93.7504,31.6534,8.75e-05
2017-11-04 00:00:00,2017-11-04 00:00:00,PRATE,surface,-92.8129,31.6534,9.17e-05
2017-11-04 00:00:00,2017-11-04 00:00:00,PRATE,surface,-107.813,32.5983,1.36e-05
2017-11-04 00:00:00,2017-11-04 00:00:00,PRATE,surface,-106.875,32.5983,1.44e-05
2017-11-04 00:00:00,2017-11-04 00:00:00,PRATE,surface,-105.938,32.5983,1.49e-05
2017-11-04 00:00:00,2017-11-04 00:00:00,PRATE,surface,-105,32.5983,1.32e-05
2017-11-04 00:00:00,2017-11-04 00:00:00,PRATE,surface,-104.063,32.5983,1.06e-05
2017-11-04 00:00:00,2017-11-04 00:00:00,PRATE,surface,-103.125,32.5983,9.4e-06
2017-11-04 00:00:00,2017-11-04 00:00:00,PRATE,surface,-102.188,32.5983,1.36e-05
2017-11-04 00:00:00,2017-11-04 00:00:00,PRATE,surface,-101.25,32.5983,2.17e-05
2017-11-04 00:00:00,2017-11-04 00:00:00,PRATE,surface,-100.313,32.5983,2.62e-05
2017-11-04 00:00:00,2017-11-04 00:00:00,PRATE,surface,-99.3754,32.5983,2.75e-05
2017-11-04 00:00:00,2017-11-04 00:00:00,PRATE,surface,-98.4379,32.5983,3.59e-05
2017-11-04 00:00:00,2017-11-04 00:00:00,PRATE,surface,-97.5004,32.5983,4.92e-05
2017-11-04 00:00:00,2017-11-04 00:00:00,PRATE,surface,-96.5629,32.5983,5.74e-05
2017-11-04 00:00:00,2017-11-04 00:00:00,PRATE,surface,-95.6254,32.5983,6.25e-05
2017-11-04 00:00:00,2017-11-04 00:00:00,PRATE,surface,-94.6879,32.5983,7.31e-05
2017-11-04 00:00:00,2017-11-04 00:00:00,PRATE,surface,-93.7504,32.5983,8.6e-05
2017-11-04 00:00:00,2017-11-04 00:00:00,PRATE,surface,-92.8129,32.5983,9.55e-05
2017-11-04 00:00:00,2017-11-04 00:00:00,PRATE,surface,-107.813,33.5432,1.73e-05
2017-11-04 00:00:00,2017-11-04 00:00:00,PRATE,surface,-106.875,33.5432,1.59e-05
2017-11-04 00:00:00,2017-11-04 00:00:00,PRATE,surface,-105.938,33.5432,1.69e-05
2017-11-04 00:00:00,2017-11-04 00:00:00,PRATE,surface,-105,33.5432,1.6e-05
2017-11-04 00:00:00,2017-11-04 00:00:00,PRATE,surface,-104.063,33.5432,1.57e-05
2017-11-04 00:00:00,2017-11-04 00:00:00,PRATE,surface,-103.125,33.5432,1.55e-05
2017-11-04 00:00:00,2017-11-04 00:00:00,PRATE,surface,-102.188,33.5432,1.91e-05
2017-11-04 00:00:00,2017-11-04 00:00:00,PRATE,surface,-101.25,33.5432,2.41e-05
2017-11-04 00:00:00,2017-11-04 00:00:00,PRATE,surface,-100.313,33.5432,2.59e-05
2017-11-04 00:00:00,2017-11-04 00:00:00,PRATE,surface,-99.3754,33.5432,2.75e-05
2017-11-04 00:00:00,2017-11-04 00:00:00,PRATE,surface,-98.4379,33.5432,3.66e-05
2017-11-04 00:00:00,2017-11-04 00:00:00,PRATE,surface,-97.5004,33.5432,5.12e-05
2017-11-04 00:00:00,2017-11-04 00:00:00,PRATE,surface,-96.5629,33.5432,6.2e-05
2017-11-04 00:00:00,2017-11-04 00:00:00,PRATE,surface,-95.6254,33.5432,6.62e-05
2017-11-04 00:00:00,2017-11-04 00:00:00,PRATE,surface,-94.6879,33.5432,6.86e-05
2017-11-04 00:00:00,2017-11-04 00:00:00,PRATE,surface,-93.7504,33.5432,7.44e-05
2017-11-04 00:00:00,2017-11-04 00:00:00,PRATE,surface,-92.8129,33.5432,8.33e-05
2017-11-04 00:00:00,2017-11-04 00:00:00,PRATE,surface,-107.813,34.4881,1.99e-05
2017-11-04 00:00:00,2017-11-04 00:00:00,PRATE,surface,-106.875,34.4881,1.52e-05
2017-11-04 00:00:00,2017-11-04 00:00:00,PRATE,surface,-105.938,34.4881,1.37e-05
2017-11-04 00:00:00,2017-11-04 00:00:00,PRATE,surface,-105,34.4881,1.67e-05
2017-11-04 00:00:00,2017-11-04 00:00:00,PRATE,surface,-104.063,34.4881,1.88e-05
2017-11-04 00:00:00,2017-11-04 00:00:00,PRATE,surface,-103.125,34.4881,1.85e-05
2017-11-04 00:00:00,2017-11-04 00:00:00,PRATE,surface,-102.188,34.4881,2e-05
2017-11-04 00:00:00,2017-11-04 00:00:00,PRATE,surface,-101.25,34.4881,1.99e-05
2017-11-04 00:00:00,2017-11-04 00:00:00,PRATE,surface,-100.313,34.4881,1.92e-05
2017-11-04 00:00:00,2017-11-04 00:00:00,PRATE,surface,-99.3754,34.4881,2.09e-05
2017-11-04 00:00:00,2017-11-04 00:00:00,PRATE,surface,-98.4379,34.4881,2.91e-05
2017-11-04 00:00:00,2017-11-04 00:00:00,PRATE,surface,-97.5004,34.4881,4.5e-05
2017-11-04 00:00:00,2017-11-04 00:00:00,PRATE,surface,-96.5629,34.4881,5.8e-05
2017-11-04 00:00:00,2017-11-04 00:00:00,PRATE,surface,-95.6254,34.4881,5.92e-05
2017-11-04 00:00:00,2017-11-04 00:00:00,PRATE,surface,-94.6879,34.4881,5.45e-05
2017-11-04 00:00:00,2017-11-04 00:00:00,PRATE,surface,-93.7504,34.4881,5.15e-05
2017-11-04 00:00:00,2017-11-04 00:00:00,PRATE,surface,-92.8129,34.4881,5.42e-05
2017-11-04 00:00:00,2017-11-04 00:00:00,PRATE,surface,-107.813,35.4329,2.15e-05
2017-11-04 00:00:00,2017-11-04 00:00:00,PRATE,surface,-106.875,35.4329,1.75e-05
2017-11-04 00:00:00,2017-11-04 00:00:00,PRATE,surface,-105.938,35.4329,1.16e-05
2017-11-04 00:00:00,2017-11-04 00:00:00,PRATE,surface,-105,35.4329,1.39e-05
2017-11-04 00:00:00,2017-11-04 00:00:00,PRATE,surface,-104.063,35.4329,1.56e-05
2017-11-04 00:00:00,2017-11-04 00:00:00,PRATE,surface,-103.125,35.4329,1.39e-05
2017-11-04 00:00:00,2017-11-04 00:00:00,PRATE,surface,-102.188,35.4329,1.28e-05
2017-11-04 00:00:00,2017-11-04 00:00:00,PRATE,surface,-101.25,35.4329,1.39e-05
2017-11-04 00:00:00,2017-11-04 00:00:00,PRATE,surface,-100.313,35.4329,1.62e-05
2017-11-04 00:00:00,2017-11-04 00:00:00,PRATE,surface,-99.3754,35.4329,1.98e-05
2017-11-04 00:00:00,2017-11-04 00:00:00,PRATE,surface,-98.4379,35.4329,2.49e-05
2017-11-04 00:00:00,2017-11-04 00:00:00,PRATE,surface,-97.5004,35.4329,3.34e-05
2017-11-04 00:00:00,2017-11-04 00:00:00,PRATE,surface,-96.5629,35.4329,4.2e-05
2017-11-04 00:00:00,2017-11-04 00:00:00,PRATE,surface,-95.6254,35.4329,4.54e-05
2017-11-04 00:00:00,2017-11-04 00:00:00,PRATE,surface,-94.6879,35.4329,4.45e-05
2017-11-04 00:00:00,2017-11-04 00:00:00,PRATE,surface,-93.7504,35.4329,4.26e-05
2017-11-04 00:00:00,2017-11-04 00:00:00,PRATE,surface,-92.8129,35.4329,4.35e-05
2017-11-04 00:00:00,2017-11-04 00:00:00,PRATE,surface,-107.813,36.3778,2.83e-05
2017-11-04 00:00:00,2017-11-04 00:00:00,PRATE,surface,-106.875,36.3778,2.43e-05
2017-11-04 00:00:00,2017-11-04 00:00:00,PRATE,surface,-105.938,36.3778,1.44e-05
2017-11-04 00:00:00,2017-11-04 00:00:00,PRATE,surface,-105,36.3778,1.13e-05
2017-11-04 00:00:00,2017-11-04 00:00:00,PRATE,surface,-104.063,36.3778,1.06e-05
2017-11-04 00:00:00,2017-11-04 00:00:00,PRATE,surface,-103.125,36.3778,1.09e-05
2017-11-04 00:00:00,2017-11-04 00:00:00,PRATE,surface,-102.188,36.3778,1.07e-05
2017-11-04 00:00:00,2017-11-04 00:00:00,PRATE,surface,-101.25,36.3778,1.2e-05
2017-11-04 00:00:00,2017-11-04 00:00:00,PRATE,surface,-100.313,36.3778,1.46e-05
2017-11-04 00:00:00,2017-11-04 00:00:00,PRATE,surface,-99.3754,36.3778,1.76e-05
2017-11-04 00:00:00,2017-11-04 00:00:00,PRATE,surface,-98.4379,36.3778,2.09e-05
2017-11-04 00:00:00,2017-11-04 00:00:00,PRATE,surface,-97.5004,36.3778,2.66e-05
2017-11-04 00:00:00,2017-11-04 00:00:00,PRATE,surface,-96.5629,36.3778,3.5e-05
2017-11-04 00:00:00,2017-11-04 00:00:00,PRATE,surface,-95.6254,36.3778,4.12e-05
2017-11-04 00:00:00,2017-11-04 00:00:00,PRATE,surface,-94.6879,36.3778,4.32e-05
2017-11-04 00:00:00,2017-11-04 00:00:00,PRATE,surface,-93.7504,36.3778,4.48e-05
2017-11-04 00:00:00,2017-11-04 00:00:00,PRATE,surface,-92.8129,36.3778,4.47e-05
