2011-08-04 00:00:00,2011-08-04 00:00:00,TMP,surface,-107.813,25.0393,300.953
2011-08-04 00:00:00,2011-08-04 00:00:00,TMP,surface,-106.875,25.0393,295.906
2011-08-04 00:00:00,2011-08-04 00:00:00,TMP,surface,-105.938,25.0393,292.105
2011-08-04 00:00:00,2011-08-04 00:00:00,TMP,surface,-105,25.0393,290.774
2011-08-04 00:00:00,2011-08-04 00:00:00,TMP,surface,-104.063,25.0393,295.404
2011-08-04 00:00:00,2011-08-04 00:00:00,TMP,surface,-103.125,25.0393,298.006
2011-08-04 00:00:00,2011-08-04 00:00:00,TMP,surface,-102.188,25.0393,297.238
2011-08-04 00:00:00,2011-08-04 00:00:00,TMP,surface,-101.25,25.0393,294.63
2011-08-04 00:00:00,2011-08-04 00:00:00,TMP,surface,-100.313,25.0393,295.212
2011-08-04 00:00:00,2011-08-04 00:00:00,TMP,surface,-99.3754,25.0393,299.532
2011-08-04 00:00:00,2011-08-04 00:00:00,TMP,surface,-98.4379,25.0393,302.822
2011-08-04 00:00:00,2011-08-04 00:00:00,TMP,surface,-97.5004,25.0393,303.004
2011-08-04 00:00:00,2011-08-04 00:00:00,TMP,surface,-96.5629,25.0393,303.388
2011-08-04 00:00:00,2011-08-04 00:00:00,TMP,surface,-95.6254,25.0393,303.743
2011-08-04 00:00:00,2011-08-04 00:00:00,TMP,surface,-94.6879,25.0393,303.948
2011-08-04 00:00:00,2011-08-04 00:00:00,TMP,surface,-93.7504,25.0393,303.935
2011-08-04 00:00:00,2011-08-04 00:00:00,TMP,surface,-92.8129,25.0393,303.903
2011-08-04 00:00:00,2011-08-04 00:00:00,TMP,surface,-107.813,25.9842,297.359
2011-08-04 00:00:00,2011-08-04 00:00:00,TMP,surface,-106.875,25.9842,293.122
2011-08-04 00:00:00,2011-08-04 00:00:00,TMP,surface,-105.938,25.9842,291.657
2011-08-04 00:00:00,2011-08-04 00:00:00,TMP,surface,-105,25.9842,293.315
2011-08-04 00:00:00,2011-08-04 00:00:00,TMP,surface,-104.063,25.9842,299.263
2011-08-04 00:00:00,2011-08-04 00:00:00,TMP,surface,-103.125,25.9842,301.158
2011-08-04 00:00:00,2011-08-04 00:00:00,TMP,surface,-102.188,25.9842,299.734
2011-08-04 00:00:00,2011-08-04 00:00:00,TMP,surface,-101.25,25.9842,297.922
2011-08-04 00:00:00,2011-08-04 00:00:00,TMP,surface,-100.313,25.9842,299.798
2011-08-04 00:00:00,2011-08-04 00:00:00,TMP,surface,-99.3754,25.9842,303.196
2011-08-04 00:00:00,2011-08-04 00:00:00,TMP,surface,-98.4379,25.9842,304.483
2011-08-04 00:00:00,2011-08-04 00:00:00,TMP,surface,-97.5004,25.9842,302.953
2011-08-04 00:00:00,2011-08-04 00:00:00,TMP,surface,-96.5629,25.9842,302.694
2011-08-04 00:00:00,2011-08-04 00:00:00,TMP,surface,-95.6254,25.9842,303.35
2011-08-04 00:00:00,2011-08-04 00:00:00,TMP,surface,-94.6879,25.9842,303.842
2011-08-04 00:00:00,2011-08-04 00:00:00,TMP,surface,-93.7504,25.9842,303.926
2011-08-04 00:00:00,2011-08-04 00:00:00,TMP,surface,-92.8129,25.9842,303.983
2011-08-04 00:00:00,2011-08-04 00:00:00,TMP,surface,-107.813,26.929,294.412
2011-08-04 00:00:00,2011-08-04 00:00:00,TMP,surface,-106.875,26.929,291.948
2011-08-04 00:00:00,2011-08-04 00:00:00,TMP,surface,-105.938,26.929,293.542
2011-08-04 00:00:00,2011-08-04 00:00:00,TMP,surface,-105,26.929,297.967
2011-08-04 00:00:00,2011-08-04 00:00:00,TMP,surface,-104.063,26.929,301.427
2011-08-04 00:00:00,2011-08-04 00:00:00,TMP,surface,-103.125,26.929,301.193
2011-08-04 00:00:00,2011-08-04 00:00:00,TMP,surface,-102.188,26.929,299.698
2011-08-04 00:00:00,2011-08-04 00:00:00,TMP,surface,-101.25,26.929,300.835
2011-08-04 00:00:00,2011-08-04 00:00:00,TMP,surface,-100.313,26.929,303.612
2011-08-04 00:00:00,2011-08-04 00:00:00,TMP,surface,-99.3754,26.929,305.41
2011-08-04 00:00:00,2011-08-04 00:00:00,TMP,surface,-98.4379,26.929,304.134
2011-08-04 00:00:00,2011-08-04 00:00:00,TMP,surface,-97.5004,26.929,301.388
2011-08-04 00:00:00,2011-08-04 00:00:00,TMP,surface,-96.5629,26.929,301.67
2011-08-04 00:00:00,2011-08-04 00:00:00,TMP,surface,-95.6254,26.929,303.135
2011-08-04 00:00:00,2011-08-04 00:00:00,TMP,surface,-94.6879,26.929,304.022
2011-08-04 00:00:00,2011-08-04 00:00:00,TMP,surface,-93.7504,26.929,304.082
2011-08-04 00:00:00,2011-08-04 00:00:00,TMP,surface,-92.8129,26.929,304.079
2011-08-04 00:00:00,2011-08-04 00:00:00,TMP,surface,-107.813,27.8739,293.097
2011-08-04 00:00:00,2011-08-04 00:00:00,TMP,surface,-106.875,27.8739,292.278
2011-08-04 00:00:00,2011-08-04 00:00:00,TMP,surface,-105.938,27.8739,295.798
2011-08-04 00:00:00,2011-08-04 00:00:00,TMP,surface,-105,27.8739,299.878
2011-08-04 00:00:00,2011-08-04 00:00:00,TMP,surface,-104.063,27.8739,301.247
2011-08-04 00:00:00,2011-08-04 00:00:00,TMP,surface,-103.125,27.8739,299.446
2011-08-04 00:00:00,2011-08-04 00:00:00,TMP,surface,-102.188,27.8739,299.122
2011-08-04 00:00:00,2011-08-04 00:00:00,TMP,surface,-101.25,27.8739,302.031
2011-08-04 00:00:00,2011-08-04 00:00:00,TMP,surface,-100.313,27.8739,304.735
2011-08-04 00:00:00,2011-08-04 00:00:00,TMP,surface,-99.3754,27.8739,305.023
2011-08-04 00:00:00,2011-08-04 00:00:00,TMP,surface,-98.4379,27.8739,303.561
2011-08-04 00:00:00,2011-08-04 00:00:00,TMP,surface,-97.5004,27.8739,302.659
2011-08-04 00:00:00,2011-08-04 00:00:00,TMP,surface,-96.5629,27.8739,302.937
2011-08-04 00:00:00,2011-08-04 00:00:00,TMP,surface,-95.6254,27.8739,303.558
2011-08-04 00:00:00,2011-08-04 00:00:00,TMP,surface,-94.6879,27.8739,304.047
2011-08-04 00:00:00,2011-08-04 00:00:00,TMP,surface,-93.7504,27.8739,304.172
2011-08-04 00:00:00,2011-08-04 00:00:00,TMP,surface,-92.8129,27.8739,304.201
2011-08-04 00:00:00,2011-08-04 00:00:00,TMP,surface,-107.813,28.8188,292.399
2011-08-04 00:00:00,2011-08-04 00:00:00,TMP,surface,-106.875,28.8188,293.631
2011-08-04 00:00:00,2011-08-04 00:00:00,TMP,surface,-105.938,28.8188,298.076
2011-08-04 00:00:00,2011-08-04 00:00:00,TMP,surface,-105,28.8188,301.497
2011-08-04 00:00:00,2011-08-04 00:00:00,TMP,surface,-104.063,28.8188,301.014
2011-08-04 00:00:00,2011-08-04 00:00:00,TMP,surface,-103.125,28.8188,299.615
2011-08-04 00:00:00,2011-08-04 00:00:00,TMP,surface,-102.188,28.8188,299.404
2011-08-04 00:00:00,2011-08-04 00:00:00,TMP,surface,-101.25,28.8188,302.031
2011-08-04 00:00:00,2011-08-04 00:00:00,TMP,surface,-100.313,28.8188,303.727
2011-08-04 00:00:00,2011-08-04 00:00:00,TMP,surface,-99.3754,28.8188,303.519
2011-08-04 00:00:00,2011-08-04 00:00:00,TMP,surface,-98.4379,28.8188,302.611
2011-08-04 00:00:00,2011-08-04 00:00:00,TMP,surface,-97.5004,28.8188,301.868
2011-08-04 00:00:00,2011-08-04 00:00:00,TMP,surface,-96.5629,28.8188,301.734
2011-08-04 00:00:00,2011-08-04 00:00:00,TMP,surface,-95.6254,28.8188,302.46
2011-08-04 00:00:00,2011-08-04 00:00:00,TMP,surface,-94.6879,28.8188,303.41
2011-08-04 00:00:00,2011-08-04 00:00:00,TMP,surface,-93.7504,28.8188,303.695
2011-08-04 00:00:00,2011-08-04 00:00:00,TMP,surface,-92.8129,28.8188,303.842
2011-08-04 00:00:00,2011-08-04 00:00:00,TMP,surface,-107.813,29.7637,294.79
2011-08-04 00:00:00,2011-08-04 00:00:00,TMP,surface,-106.875,29.7637,297.039
2011-08-04 00:00:00,2011-08-04 00:00:00,TMP,surface,-105.938,29.7637,300.374
2011-08-04 00:00:00,2011-08-04 00:00:00,TMP,surface,-105,29.7637,301.871
2011-08-04 00:00:00,2011-08-04 00:00:00,TMP,surface,-104.063,29.7637,301.471
2011-08-04 00:00:00,2011-08-04 00:00:00,TMP,surface,-103.125,29.7637,300.918
2011-08-04 00:00:00,2011-08-04 00:00:00,TMP,surface,-102.188,29.7637,301.724
2011-08-04 00:00:00,2011-08-04 00:00:00,TMP,surface,-101.25,29.7637,302.566
2011-08-04 00:00:00,2011-08-04 00:00:00,TMP,surface,-100.313,29.7637,302.236
2011-08-04 00:00:00,2011-08-04 00:00:00,TMP,surface,-99.3754,29.7637,301.507
2011-08-04 00:00:00,2011-08-04 00:00:00,TMP,surface,-98.4379,29.7637,301.334
2011-08-04 00:00:00,2011-08-04 00:00:00,TMP,surface,-97.5004,29.7637,301.66
2011-08-04 00:00:00,2011-08-04 00:00:00,TMP,surface,-96.5629,29.7637,301.865
2011-08-04 00:00:00,2011-08-04 00:00:00,TMP,surface,-95.6254,29.7637,301.785
2011-08-04 00:00:00,2011-08-04 00:00:00,TMP,surface,-94.6879,29.7637,302.14
2011-08-04 00:00:00,2011-08-04 00:00:00,TMP,surface,-93.7504,29.7637,302.796
2011-08-04 00:00:00,2011-08-04 00:00:00,TMP,surface,-92.8129,29.7637,301.996
2011-08-04 00:00:00,2011-08-04 00:00:00,TMP,surface,-107.813,30.7085,299.839
2011-08-04 00:00:00,2011-08-04 00:00:00,TMP,surface,-106.875,30.7085,301.487
2011-08-04 00:00:00,2011-08-04 00:00:00,TMP,surface,-105.938,30.7085,301.935
2011-08-04 00:00:00,2011-08-04 00:00:00,TMP,surface,-105,30.7085,302.086
2011-08-04 00:00:00,2011-08-04 00:00:00,TMP,surface,-104.063,30.7085,301.091
2011-08-04 00:00:00,2011-08-04 00:00:00,TMP,surface,-103.125,30.7085,301.894
2011-08-04 00:00:00,2011-08-04 00:00:00,TMP,surface,-102.188,30.7085,302.598
2011-08-04 00:00:00,2011-08-04 00:00:00,TMP,surface,-101.25,30.7085,302.476
2011-08-04 00:00:00,2011-08-04 00:00:00,TMP,surface,-100.313,30.7085,301.804
2011-08-04 00:00:00,2011-08-04 00:00:00,TMP,surface,-99.3754,30.7085,301.225
2011-08-04 00:00:00,2011-08-04 00:00:00,TMP,surface,-98.4379,30.7085,301.519
2011-08-04 00:00:00,2011-08-04 00:00:00,TMP,surface,-97.5004,30.7085,302.233
2011-08-04 00:00:00,2011-08-04 00:00:00,TMP,surface,-96.5629,30.7085,303.052
2011-08-04 00:00:00,2011-08-04 00:00:00,TMP,surface,-95.6254,30.7085,303.494
2011-08-04 00:00:00,2011-08-04 00:00:00,TMP,surface,-94.6879,30.7085,303.116
2011-08-04 00:00:00,2011-08-04 00:00:00,TMP,surface,-93.7504,30.7085,302.889
2011-08-04 00:00:00,2011-08-04 00:00:00,TMP,surface,-92.8129,30.7085,302.335
2011-08-04 00:00:00,2011-08-04 00:00:00,TMP,surface,-107.813,31.6534,302.089
2011-08-04 00:00:00,2011-08-04 00:00:00,TMP,surface,-106.875,31.6534,302.953
2011-08-04 00:00:00,2011-08-04 00:00:00,TMP,surface,-105.938,31.6534,302.409
2011-08-04 00:00:00,2011-08-04 00:00:00,TMP,surface,-105,31.6534,301.983
2011-08-04 00:00:00,2011-08-04 00:00:00,TMP,surface,-104.063,31.6534,302.163
2011-08-04 00:00:00,2011-08-04 00:00:00,TMP,surface,-103.125,31.6534,302.566
2011-08-04 00:00:00,2011-08-04 00:00:00,TMP,surface,-102.188,31.6534,302.831
2011-08-04 00:00:00,2011-08-04 00:00:00,TMP,surface,-101.25,31.6534,302.553
2011-08-04 00:00:00,2011-08-04 00:00:00,TMP,surface,-100.313,31.6534,302.332
2011-08-04 00:00:00,2011-08-04 00:00:00,TMP,surface,-99.3754,31.6534,302.163
2011-08-04 00:00:00,2011-08-04 00:00:00,TMP,surface,-98.4379,31.6534,302.489
2011-08-04 00:00:00,2011-08-04 00:00:00,TMP,surface,-97.5004,31.6534,303.267
2011-08-04 00:00:00,2011-08-04 00:00:00,TMP,surface,-96.5629,31.6534,304.057
2011-08-04 00:00:00,2011-08-04 00:00:00,TMP,surface,-95.6254,31.6534,304.371
2011-08-04 00:00:00,2011-08-04 00:00:00,TMP,surface,-94.6879,31.6534,304.006
2011-08-04 00:00:00,2011-08-04 00:00:00,TMP,surface,-93.7504,31.6534,303.474
2011-08-04 00:00:00,2011-08-04 00:00:00,TMP,surface,-92.8129,31.6534,303.055
2011-08-04 00:00:00,2011-08-04 00:00:00,TMP,surface,-107.813,32.5983,299.279
2011-08-04 00:00:00,2011-08-04 00:00:00,TMP,surface,-106.875,32.5983,300.073
2011-08-04 00:00:00,2011-08-04 00:00:00,TMP,surface,-105.938,32.5983,300.63
2011-08-04 00:00:00,2011-08-04 00:00:00,TMP,surface,-105,32.5983,300.812
2011-08-04 00:00:00,2011-08-04 00:00:00,TMP,surface,-104.063,32.5983,301.612
2011-08-04 00:00:00,2011-08-04 00:00:00,TMP,surface,-103.125,32.5983,302.028
2011-08-04 00:00:00,2011-08-04 00:00:00,TMP,surface,-102.188,32.5983,302.364
2011-08-04 00:00:00,2011-08-04 00:00:00,TMP,surface,-101.25,32.5983,302.642
2011-08-04 00:00:00,2011-08-04 00:00:00,TMP,surface,-100.313,32.5983,303.241
2011-08-04 00:00:00,2011-08-04 00:00:00,TMP,surface,-99.3754,32.5983,303.42
2011-08-04 00:00:00,2011-08-04 00:00:00,TMP,surface,-98.4379,32.5983,303.478
2011-08-04 00:00:00,2011-08-04 00:00:00,TMP,surface,-97.5004,32.5983,303.887
2011-08-04 00:00:00,2011-08-04 00:00:00,TMP,surface,-96.5629,32.5983,304.674
2011-08-04 00:00:00,2011-08-04 00:00:00,TMP,surface,-95.6254,32.5983,305.167
2011-08-04 00:00:00,2011-08-04 00:00:00,TMP,surface,-94.6879,32.5983,304.764
2011-08-04 00:00:00,2011-08-04 00:00:00,TMP,surface,-93.7504,32.5983,304.018
2011-08-04 00:00:00,2011-08-04 00:00:00,TMP,surface,-92.8129,32.5983,303.458
2011-08-04 00:00:00,2011-08-04 00:00:00,TMP,surface,-107.813,33.5432,295.427
2011-08-04 00:00:00,2011-08-04 00:00:00,TMP,surface,-106.875,33.5432,296.982
2011-08-04 00:00:00,2011-08-04 00:00:00,TMP,surface,-105.938,33.5432,297.894
2011-08-04 00:00:00,2011-08-04 00:00:00,TMP,surface,-105,33.5432,299.471
2011-08-04 00:00:00,2011-08-04 00:00:00,TMP,surface,-104.063,33.5432,301.186
2011-08-04 00:00:00,2011-08-04 00:00:00,TMP,surface,-103.125,33.5432,301.548
2011-08-04 00:00:00,2011-08-04 00:00:00,TMP,surface,-102.188,33.5432,301.522
2011-08-04 00:00:00,2011-08-04 00:00:00,TMP,surface,-101.25,33.5432,302.306
2011-08-04 00:00:00,2011-08-04 00:00:00,TMP,surface,-100.313,33.5432,303.74
2011-08-04 00:00:00,2011-08-04 00:00:00,TMP,surface,-99.3754,33.5432,304.383
2011-08-04 00:00:00,2011-08-04 00:00:00,TMP,surface,-98.4379,33.5432,304.06
2011-08-04 00:00:00,2011-08-04 00:00:00,TMP,surface,-97.5004,33.5432,303.772
2011-08-04 00:00:00,2011-08-04 00:00:00,TMP,surface,-96.5629,33.5432,303.772
2011-08-04 00:00:00,2011-08-04 00:00:00,TMP,surface,-95.6254,33.5432,304.066
2011-08-04 00:00:00,2011-08-04 00:00:00,TMP,surface,-94.6879,33.5432,304.39
2011-08-04 00:00:00,2011-08-04 00:00:00,TMP,surface,-93.7504,33.5432,303.756
2011-08-04 00:00:00,2011-08-04 00:00:00,TMP,surface,-92.8129,33.5432,303.183
2011-08-04 00:00:00,2011-08-04 00:00:00,TMP,surface,-107.813,34.4881,293.865
2011-08-04 00:00:00,2011-08-04 00:00:00,TMP,surface,-106.875,34.4881,295.9
2011-08-04 00:00:00,2011-08-04 00:00:00,TMP,surface,-105.938,34.4881,296.854
2011-08-04 00:00:00,2011-08-04 00:00:00,TMP,surface,-105,34.4881,298.646
2011-08-04 00:00:00,2011-08-04 00:00:00,TMP,surface,-104.063,34.4881,300.227
2011-08-04 00:00:00,2011-08-04 00:00:00,TMP,surface,-103.125,34.4881,300.786
2011-08-04 00:00:00,2011-08-04 00:00:00,TMP,surface,-102.188,34.4881,301.203
2011-08-04 00:00:00,2011-08-04 00:00:00,TMP,surface,-101.25,34.4881,302.326
2011-08-04 00:00:00,2011-08-04 00:00:00,TMP,surface,-100.313,34.4881,303.468
2011-08-04 00:00:00,2011-08-04 00:00:00,TMP,surface,-99.3754,34.4881,303.906
2011-08-04 00:00:00,2011-08-04 00:00:00,TMP,surface,-98.4379,34.4881,303.641
2011-08-04 00:00:00,2011-08-04 00:00:00,TMP,surface,-97.5004,34.4881,303.174
2011-08-04 00:00:00,2011-08-04 00:00:00,TMP,surface,-96.5629,34.4881,303.337
2011-08-04 00:00:00,2011-08-04 00:00:00,TMP,surface,-95.6254,34.4881,303.673
2011-08-04 00:00:00,2011-08-04 00:00:00,TMP,surface,-94.6879,34.4881,303.078
2011-08-04 00:00:00,2011-08-04 00:00:00,TMP,surface,-93.7504,34.4881,302.339
2011-08-04 00:00:00,2011-08-04 00:00:00,TMP,surface,-92.8129,34.4881,302.278
2011-08-04 00:00:00,2011-08-04 00:00:00,TMP,surface,-107.813,35.4329,294.383
2011-08-04 00:00:00,2011-08-04 00:00:00,TMP,surface,-106.875,35.4329,295.126
2011-08-04 00:00:00,2011-08-04 00:00:00,TMP,surface,-105.938,35.4329,295.023
2011-08-04 00:00:00,2011-08-04 00:00:00,TMP,surface,-105,35.4329,296.23
2011-08-04 00:00:00,2011-08-04 00:00:00,TMP,surface,-104.063,35.4329,298.85
2011-08-04 00:00:00,2011-08-04 00:00:00,TMP,surface,-103.125,35.4329,300.495
2011-08-04 00:00:00,2011-08-04 00:00:00,TMP,surface,-102.188,35.4329,301.772
2011-08-04 00:00:00,2011-08-04 00:00:00,TMP,surface,-101.25,35.4329,302.585
2011-08-04 00:00:00,2011-08-04 00:00:00,TMP,surface,-100.313,35.4329,302.812
2011-08-04 00:00:00,2011-08-04 00:00:00,TMP,surface,-99.3754,35.4329,303.186
2011-08-04 00:00:00,2011-08-04 00:00:00,TMP,surface,-98.4379,35.4329,303.241
2011-08-04 00:00:00,2011-08-04 00:00:00,TMP,surface,-97.5004,35.4329,302.694
2011-08-04 00:00:00,2011-08-04 00:00:00,TMP,surface,-96.5629,35.4329,302.175
2011-08-04 00:00:00,2011-08-04 00:00:00,TMP,surface,-95.6254,35.4329,302.259
2011-08-04 00:00:00,2011-08-04 00:00:00,TMP,surface,-94.6879,35.4329,302.457
2011-08-04 00:00:00,2011-08-04 00:00:00,TMP,surface,-93.7504,35.4329,302.015
2011-08-04 00:00:00,2011-08-04 00:00:00,TMP,surface,-92.8129,35.4329,301.663
2011-08-04 00:00:00,2011-08-04 00:00:00,TMP,surface,-107.813,36.3778,293.97
2011-08-04 00:00:00,2011-08-04 00:00:00,TMP,surface,-106.875,36.3778,291.449
2011-08-04 00:00:00,2011-08-04 00:00:00,TMP,surface,-105.938,36.3778,292.178
2011-08-04 00:00:00,2011-08-04 00:00:00,TMP,surface,-105,36.3778,293.801
2011-08-04 00:00:00,2011-08-04 00:00:00,TMP,surface,-104.063,36.3778,296.642
2011-08-04 00:00:00,2011-08-04 00:00:00,TMP,surface,-103.125,36.3778,298.87
2011-08-04 00:00:00,2011-08-04 00:00:00,TMP,surface,-102.188,36.3778,300.697
2011-08-04 00:00:00,2011-08-04 00:00:00,TMP,surface,-101.25,36.3778,301.734
2011-08-04 00:00:00,2011-08-04 00:00:00,TMP,surface,-100.313,36.3778,302.345
2011-08-04 00:00:00,2011-08-04 00:00:00,TMP,surface,-99.3754,36.3778,302.707
2011-08-04 00:00:00,2011-08-04 00:00:00,TMP,surface,-98.4379,36.3778,302.883
2011-08-04 00:00:00,2011-08-04 00:00:00,TMP,surface,-97.5004,36.3778,302.387
2011-08-04 00:00:00,2011-08-04 00:00:00,TMP,surface,-96.5629,36.3778,301.682
2011-08-04 00:00:00,2011-08-04 00:00:00,TMP,surface,-95.6254,36.3778,301.551
2011-08-04 00:00:00,2011-08-04 00:00:00,TMP,surface,-94.6879,36.3778,301.484
2011-08-04 00:00:00,2011-08-04 00:00:00,TMP,surface,-93.7504,36.3778,301.046
2011-08-04 00:00:00,2011-08-04 00:00:00,TMP,surface,-92.8129,36.3778,300.953
2011-08-04 00:00:00,2011-08-04 00:00:00,PRATE,surface,-107.813,25.0393,1.07e-05
2011-08-04 00:00:00,2011-08-04 00:00:00,PRATE,surface,-106.875,25.0393,0.0001734
2011-08-04 00:00:00,2011-08-04 00:00:00,PRATE,surface,-105.938,25.0393,0.0001266
2011-08-04 00:00:00,2011-08-04 00:00:00,PRATE,surface,-105,25.0393,8.7e-05
2011-08-04 00:00:00,2011-08-04 00:00:00,PRATE,surface,-104.063,25.0393,4.6e-06
2011-08-04 00:00:00,2011-08-04 00:00:00,PRATE,surface,-103.125,25.0393,1.2e-06
2011-08-04 00:00:00,2011-08-04 00:00:00,PRATE,surface,-102.188,25.0393,8e-07
2011-08-04 00:00:00,2011-08-04 00:00:00,PRATE,surface,-101.25,25.0393,2.14e-05
2011-08-04 00:00:00,2011-08-04 00:00:00,PRATE,surface,-100.313,25.0393,1.94e-05
2011-08-04 00:00:00,2011-08-04 00:00:00,PRATE,surface,-99.3754,25.0393,1.15e-05
2011-08-04 00:00:00,2011-08-04 00:00:00,PRATE,surface,-98.4379,25.0393,1.33e-05
2011-08-04 00:00:00,2011-08-04 00:00:00,PRATE,surface,-97.5004,25.0393,2.16e-05
2011-08-04 00:00:00,2011-08-04 00:00:00,PRATE,surface,-96.5629,25.0393,2.99e-05
2011-08-04 00:00:00,2011-08-04 00:00:00,PRATE,surface,-95.6254,25.0393,3.46e-05
2011-08-04 00:00:00,2011-08-04 00:00:00,PRATE,surface,-94.6879,25.0393,3.75e-05
2011-08-04 00:00:00,2011-08-04 00:00:00,PRATE,surface,-93.7504,25.0393,3.62e-05
2011-08-04 00:00:00,2011-08-04 00:00:00,PRATE,surface,-92.8129,25.0393,2.91e-05
2011-08-04 00:00:00,2011-08-04 00:00:00,PRATE,surface,-107.813,25.9842,9.07e-05
2011-08-04 00:00:00,2011-08-04 00:00:00,PRATE,surface,-106.875,25.9842,0.0001095
2011-08-04 00:00:00,2011-08-04 00:00:00,PRATE,surface,-105.938,25.9842,9.72e-05
2011-08-04 00:00:00,2011-08-04 00:00:00,PRATE,surface,-105,25.9842,1.8e-05
2011-08-04 00:00:00,2011-08-04 00:00:00,PRATE,surface,-104.063,25.9842,5e-07
2011-08-04 00:00:00,2011-08-04 00:00:00,PRATE,surface,-103.125,25.9842,9e-07
2011-08-04 00:00:00,2011-08-04 00:00:00,PRATE,surface,-102.188,25.9842,3e-07
2011-08-04 00:00:00,2011-08-04 00:00:00,PRATE,surface,-101.25,25.9842,5e-07
2011-08-04 00:00:00,2011-08-04 00:00:00,PRATE,surface,-100.313,25.9842,4e-07
2011-08-04 00:00:00,2011-08-04 00:00:00,PRATE,surface,-99.3754,25.9842,1.5e-06
2011-08-04 00:00:00,2011-08-04 00:00:00,PRATE,surface,-98.4379,25.9842,5.8e-06
2011-08-04 00:00:00,2011-08-04 00:00:00,PRATE,surface,-97.5004,25.9842,4.41e-05
2011-08-04 00:00:00,2011-08-04 00:00:00,PRATE,surface,-96.5629,25.9842,3.18e-05
2011-08-04 00:00:00,2011-08-04 00:00:00,PRATE,surface,-95.6254,25.9842,3.69e-05
2011-08-04 00:00:00,2011-08-04 00:00:00,PRATE,surface,-94.6879,25.9842,3.17e-05
2011-08-04 00:00:00,2011-08-04 00:00:00,PRATE,surface,-93.7504,25.9842,4.41e-05
2011-08-04 00:00:00,2011-08-04 00:00:00,PRATE,surface,-92.8129,25.9842,3.18e-05
2011-08-04 00:00:00,2011-08-04 00:00:00,PRATE,surface,-107.813,26.929,0.0001216
2011-08-04 00:00:00,2011-08-04 00:00:00,PRATE,surface,-106.875,26.929,8.57e-05
2011-08-04 00:00:00,2011-08-04 00:00:00,PRATE,surface,-105.938,26.929,2.65e-05
2011-08-04 00:00:00,2011-08-04 00:00:00,PRATE,surface,-105,26.929,1.7e-06
2011-08-04 00:00:00,2011-08-04 00:00:00,PRATE,surface,-104.063,26.929,3.3e-06
2011-08-04 00:00:00,2011-08-04 00:00:00,PRATE,surface,-103.125,26.929,2.8e-06
2011-08-04 00:00:00,2011-08-04 00:00:00,PRATE,surface,-102.188,26.929,2e-07
2011-08-04 00:00:00,2011-08-04 00:00:00,PRATE,surface,-101.25,26.929,1e-07
2011-08-04 00:00:00,2011-08-04 00:00:00,PRATE,surface,-100.313,26.929,4e-07
2011-08-04 00:00:00,2011-08-04 00:00:00,PRATE,surface,-99.3754,26.929,2.3e-06
2011-08-04 00:00:00,2011-08-04 00:00:00,PRATE,surface,-98.4379,26.929,1.89e-05
2011-08-04 00:00:00,2011-08-04 00:00:00,PRATE,surface,-97.5004,26.929,3.1e-05
2011-08-04 00:00:00,2011-08-04 00:00:00,PRATE,surface,-96.5629,26.929,3.56e-05
2011-08-04 00:00:00,2011-08-04 00:00:00,PRATE,surface,-95.6254,26.929,2.98e-05
2011-08-04 00:00:00,2011-08-04 00:00:00,PRATE,surface,-94.6879,26.929,3.65e-05
2011-08-04 00:00:00,2011-08-04 00:00:00,PRATE,surface,-93.7504,26.929,5.68e-05
2011-08-04 00:00:00,2011-08-04 00:00:00,PRATE,surface,-92.8129,26.929,5.35e-05
2011-08-04 00:00:00,2011-08-04 00:00:00,PRATE,surface,-107.813,27.8739,0.0001071
2011-08-04 00:00:00,2011-08-04 00:00:00,PRATE,surface,-106.875,27.8739,5.53e-05
2011-08-04 00:00:00,2011-08-04 00:00:00,PRATE,surface,-105.938,27.8739,1.8e-06
2011-08-04 00:00:00,2011-08-04 00:00:00,PRATE,surface,-105,27.8739,1.7e-06
2011-08-04 00:00:00,2011-08-04 00:00:00,PRATE,surface,-104.063,27.8739,5.7e-06
2011-08-04 00:00:00,2011-08-04 00:00:00,PRATE,surface,-103.125,27.8739,7.5e-06
2011-08-04 00:00:00,2011-08-04 00:00:00,PRATE,surface,-102.188,27.8739,2.7e-06
2011-08-04 00:00:00,2011-08-04 00:00:00,PRATE,surface,-101.25,27.8739,5e-07
2011-08-04 00:00:00,2011-08-04 00:00:00,PRATE,surface,-100.313,27.8739,3e-07
2011-08-04 00:00:00,2011-08-04 00:00:00,PRATE,surface,-99.3754,27.8739,5.9e-06
2011-08-04 00:00:00,2011-08-04 00:00:00,PRATE,surface,-98.4379,27.8739,2.12e-05
2011-08-04 00:00:00,2011-08-04 00:00:00,PRATE,surface,-97.5004,27.8739,3.96e-05
2011-08-04 00:00:00,2011-08-04 00:00:00,PRATE,surface,-96.5629,27.8739,4.04e-05
2011-08-04 00:00:00,2011-08-04 00:00:00,PRATE,surface,-95.6254,27.8739,3.31e-05
2011-08-04 00:00:00,2011-08-04 00:00:00,PRATE,surface,-94.6879,27.8739,5.05e-05
2011-08-04 00:00:00,2011-08-04 00:00:00,PRATE,surface,-93.7504,27.8739,7.51e-05
2011-08-04 00:00:00,2011-08-04 00:00:00,PRATE,surface,-92.8129,27.8739,6.72e-05
2011-08-04 00:00:00,2011-08-04 00:00:00,PRATE,surface,-107.813,28.8188,9.65e-05
2011-08-04 00:00:00,2011-08-04 00:00:00,PRATE,surface,-106.875,28.8188,1.89e-05
2011-08-04 00:00:00,2011-08-04 00:00:00,PRATE,surface,-105.938,28.8188,2e-07
2011-08-04 00:00:00,2011-08-04 00:00:00,PRATE,surface,-105,28.8188,1.1e-06
2011-08-04 00:00:00,2011-08-04 00:00:00,PRATE,surface,-104.063,28.8188,1.1e-06
2011-08-04 00:00:00,2011-08-04 00:00:00,PRATE,surface,-103.125,28.8188,1.9e-06
2011-08-04 00:00:00,2011-08-04 00:00:00,PRATE,surface,-102.188,28.8188,1.2e-06
2011-08-04 00:00:00,2011-08-04 00:00:00,PRATE,surface,-101.25,28.8188,3e-07
2011-08-04 00:00:00,2011-08-04 00:00:00,PRATE,surface,-100.313,28.8188,3e-07
2011-08-04 00:00:00,2011-08-04 00:00:00,PRATE,surface,-99.3754,28.8188,5.8e-06
2011-08-04 00:00:00,2011-08-04 00:00:00,PRATE,surface,-98.4379,28.8188,1.79e-05
2011-08-04 00:00:00,2011-08-04 00:00:00,PRATE,surface,-97.5004,28.8188,2.76e-05
2011-08-04 00:00:00,2011-08-04 00:00:00,PRATE,surface,-96.5629,28.8188,3.35e-05
2011-08-04 00:00:00,2011-08-04 00:00:00,PRATE,surface,-95.6254,28.8188,4.33e-05
2011-08-04 00:00:00,2011-08-04 00:00:00,PRATE,surface,-94.6879,28.8188,6.67e-05
2011-08-04 00:00:00,2011-08-04 00:00:00,PRATE,surface,-93.7504,28.8188,8.49e-05
2011-08-04 00:00:00,2011-08-04 00:00:00,PRATE,surface,-92.8129,28.8188,4.54e-05
2011-08-04 00:00:00,2011-08-04 00:00:00,PRATE,surface,-107.813,29.7637,2.33e-05
2011-08-04 00:00:00,2011-08-04 00:00:00,PRATE,surface,-106.875,29.7637,2.1e-06
2011-08-04 00:00:00,2011-08-04 00:00:00,PRATE,surface,-105.938,29.7637,1.2e-06
2011-08-04 00:00:00,2011-08-04 00:00:00,PRATE,surface,-105,29.7637,1e-06
2011-08-04 00:00:00,2011-08-04 00:00:00,PRATE,surface,-104.063,29.7637,1e-07
2011-08-04 00:00:00,2011-08-04 00:00:00,PRATE,surface,-103.125,29.7637,0
2011-08-04 00:00:00,2011-08-04 00:00:00,PRATE,surface,-102.188,29.7637,0
2011-08-04 00:00:00,2011-08-04 00:00:00,PRATE,surface,-101.25,29.7637,0
2011-08-04 00:00:00,2011-08-04 00:00:00,PRATE,surface,-100.313,29.7637,3e-06
2011-08-04 00:00:00,2011-08-04 00:00:00,PRATE,surface,-99.3754,29.7637,1.1e-05
2011-08-04 00:00:00,2011-08-04 00:00:00,PRATE,surface,-98.4379,29.7637,1.46e-05
2011-08-04 00:00:00,2011-08-04 00:00:00,PRATE,surface,-97.5004,29.7637,1.42e-05
2011-08-04 00:00:00,2011-08-04 00:00:00,PRATE,surface,-96.5629,29.7637,1.89e-05
2011-08-04 00:00:00,2011-08-04 00:00:00,PRATE,surface,-95.6254,29.7637,2.9e-05
2011-08-04 00:00:00,2011-08-04 00:00:00,PRATE,surface,-94.6879,29.7637,3.28e-05
2011-08-04 00:00:00,2011-08-04 00:00:00,PRATE,surface,-93.7504,29.7637,3.01e-05
2011-08-04 00:00:00,2011-08-04 00:00:00,PRATE,surface,-92.8129,29.7637,4.14e-05
2011-08-04 00:00:00,2011-08-04 00:00:00,PRATE,surface,-107.813,30.7085,9e-07
2011-08-04 00:00:00,2011-08-04 00:00:00,PRATE,surface,-106.875,30.7085,9e-07
2011-08-04 00:00:00,2011-08-04 00:00:00,PRATE,surface,-105.938,30.7085,8e-07
2011-08-04 00:00:00,2011-08-04 00:00:00,PRATE,surface,-105,30.7085,6e-07
2011-08-04 00:00:00,2011-08-04 00:00:00,PRATE,surface,-104.063,30.7085,0
2011-08-04 00:00:00,2011-08-04 00:00:00,PRATE,surface,-103.125,30.7085,0
2011-08-04 00:00:00,2011-08-04 00:00:00,PRATE,surface,-102.188,30.7085,0
2011-08-04 00:00:00,2011-08-04 00:00:00,PRATE,surface,-101.25,30.7085,4e-07
2011-08-04 00:00:00,2011-08-04 00:00:00,PRATE,surface,-100.313,30.7085,4.8e-06
2011-08-04 00:00:00,2011-08-04 00:00:00,PRATE,surface,-99.3754,30.7085,7.7e-06
2011-08-04 00:00:00,2011-08-04 00:00:00,PRATE,surface,-98.4379,30.7085,5.6e-06
2011-08-04 00:00:00,2011-08-04 00:00:00,PRATE,surface,-97.5004,30.7085,6.8e-06
2011-08-04 00:00:00,2011-08-04 00:00:00,PRATE,surface,-96.5629,30.7085,1.04e-05
2011-08-04 00:00:00,2011-08-04 00:00:00,PRATE,surface,-95.6254,30.7085,1.21e-05
2011-08-04 00:00:00,2011-08-04 00:00:00,PRATE,surface,-94.6879,30.7085,1.75e-05
2011-08-04 00:00:00,2011-08-04 00:00:00,PRATE,surface,-93.7504,30.7085,2.25e-05
2011-08-04 00:00:00,2011-08-04 00:00:00,PRATE,surface,-92.8129,30.7085,2.1e-05
2011-08-04 00:00:00,2011-08-04 00:00:00,PRATE,surface,-107.813,31.6534,1.8e-06
2011-08-04 00:00:00,2011-08-04 00:00:00,PRATE,surface,-106.875,31.6534,3e-06
2011-08-04 00:00:00,2011-08-04 00:00:00,PRATE,surface,-105.938,31.6534,3.1e-06
2011-08-04 00:00:00,2011-08-04 00:00:00,PRATE,surface,-105,31.6534,5e-07
2011-08-04 00:00:00,2011-08-04 00:00:00,PRATE,surface,-104.063,31.6534,0
2011-08-04 00:00:00,2011-08-04 00:00:00,PRATE,surface,-103.125,31.6534,0
2011-08-04 00:00:00,2011-08-04 00:00:00,PRATE,surface,-102.188,31.6534,0
2011-08-04 00:00:00,2011-08-04 00:00:00,PRATE,surface,-101.25,31.6534,1e-07
2011-08-04 00:00:00,2011-08-04 00:00:00,PRATE,surface,-100.313,31.6534,1.3e-06
2011-08-04 00:00:00,2011-08-04 00:00:00,PRATE,surface,-99.3754,31.6534,2.1e-06
2011-08-04 00:00:00,2011-08-04 00:00:00,PRATE,surface,-98.4379,31.6534,1.2e-06
2011-08-04 00:00:00,2011-08-04 00:00:00,PRATE,surface,-97.5004,31.6534,1.2e-06
2011-08-04 00:00:00,2011-08-04 00:00:00,PRATE,surface,-96.5629,31.6534,4.8e-06
2011-08-04 00:00:00,2011-08-04 00:00:00,PRATE,surface,-95.6254,31.6534,6.8e-06
2011-08-04 00:00:00,2011-08-04 00:00:00,PRATE,surface,-94.6879,31.6534,5.8e-06
2011-08-04 00:00:00,2011-08-04 00:00:00,PRATE,surface,-93.7504,31.6534,1.16e-05
2011-08-04 00:00:00,2011-08-04 00:00:00,PRATE,surface,-92.8129,31.6534,1.93e-05
2011-08-04 00:00:00,2011-08-04 00:00:00,PRATE,surface,-107.813,32.5983,5.1e-06
2011-08-04 00:00:00,2011-08-04 00:00:00,PRATE,surface,-106.875,32.5983,5.5e-06
2011-08-04 00:00:00,2011-08-04 00:00:00,PRATE,surface,-105.938,32.5983,6.1e-06
2011-08-04 00:00:00,2011-08-04 00:00:00,PRATE,surface,-105,32.5983,4.2e-06
2011-08-04 00:00:00,2011-08-04 00:00:00,PRATE,surface,-104.063,32.5983,5e-07
2011-08-04 00:00:00,2011-08-04 00:00:00,PRATE,surface,-103.125,32.5983,2e-07
2011-08-04 00:00:00,2011-08-04 00:00:00,PRATE,surface,-102.188,32.5983,1.1e-06
2011-08-04 00:00:00,2011-08-04 00:00:00,PRATE,surface,-101.25,32.5983,1.4e-06
2011-08-04 00:00:00,2011-08-04 00:00:00,PRATE,surface,-100.313,32.5983,5e-07
2011-08-04 00:00:00,2011-08-04 00:00:00,PRATE,surface,-99.3754,32.5983,0
2011-08-04 00:00:00,2011-08-04 00:00:00,PRATE,surface,-98.4379,32.5983,1e-07
2011-08-04 00:00:00,2011-08-04 00:00:00,PRATE,surface,-97.5004,32.5983,6e-07
2011-08-04 00:00:00,2011-08-04 00:00:00,PRATE,surface,-96.5629,32.5983,1.3e-06
2011-08-04 00:00:00,2011-08-04 00:00:00,PRATE,surface,-95.6254,32.5983,2.5e-06
2011-08-04 00:00:00,2011-08-04 00:00:00,PRATE,surface,-94.6879,32.5983,5.4e-06
2011-08-04 00:00:00,2011-08-04 00:00:00,PRATE,surface,-93.7504,32.5983,1.26e-05
2011-08-04 00:00:00,2011-08-04 00:00:00,PRATE,surface,-92.8129,32.5983,2.14e-05
2011-08-04 00:00:00,2011-08-04 00:00:00,PRATE,surface,-107.813,33.5432,4.42e-05
2011-08-04 00:00:00,2011-08-04 00:00:00,PRATE,surface,-106.875,33.5432,4.52e-05
2011-08-04 00:00:00,2011-08-04 00:00:00,PRATE,surface,-105.938,33.5432,2.51e-05
2011-08-04 00:00:00,2011-08-04 00:00:00,PRATE,surface,-105,33.5432,1.21e-05
2011-08-04 00:00:00,2011-08-04 00:00:00,PRATE,surface,-104.063,33.5432,4.2e-06
2011-08-04 00:00:00,2011-08-04 00:00:00,PRATE,surface,-103.125,33.5432,3.2e-06
2011-08-04 00:00:00,2011-08-04 00:00:00,PRATE,surface,-102.188,33.5432,2e-06
2011-08-04 00:00:00,2011-08-04 00:00:00,PRATE,surface,-101.25,33.5432,1.6e-06
2011-08-04 00:00:00,2011-08-04 00:00:00,PRATE,surface,-100.313,33.5432,1.3e-06
2011-08-04 00:00:00,2011-08-04 00:00:00,PRATE,surface,-99.3754,33.5432,8e-07
2011-08-04 00:00:00,2011-08-04 00:00:00,PRATE,surface,-98.4379,33.5432,1.4e-06
2011-08-04 00:00:00,2011-08-04 00:00:00,PRATE,surface,-97.5004,33.5432,2.8e-06
2011-08-04 00:00:00,2011-08-04 00:00:00,PRATE,surface,-96.5629,33.5432,5.5e-06
2011-08-04 00:00:00,2011-08-04 00:00:00,PRATE,surface,-95.6254,33.5432,8e-06
2011-08-04 00:00:00,2011-08-04 00:00:00,PRATE,surface,-94.6879,33.5432,9.5e-06
2011-08-04 00:00:00,2011-08-04 00:00:00,PRATE,surface,-93.7504,33.5432,1.51e-05
2011-08-04 00:00:00,2011-08-04 00:00:00,PRATE,surface,-92.8129,33.5432,2.29e-05
2011-08-04 00:00:00,2011-08-04 00:00:00,PRATE,surface,-107.813,34.4881,3.7e-05
2011-08-04 00:00:00,2011-08-04 00:00:00,PRATE,surface,-106.875,34.4881,2.46e-05
2011-08-04 00:00:00,2011-08-04 00:00:00,PRATE,surface,-105.938,34.4881,2.24e-05
2011-08-04 00:00:00,2011-08-04 00:00:00,PRATE,surface,-105,34.4881,2.83e-05
2011-08-04 00:00:00,2011-08-04 00:00:00,PRATE,surface,-104.063,34.4881,2.02e-05
2011-08-04 00:00:00,2011-08-04 00:00:00,PRATE,surface,-103.125,34.4881,1.09e-05
2011-08-04 00:00:00,2011-08-04 00:00:00,PRATE,surface,-102.188,34.4881,6.9e-06
2011-08-04 00:00:00,2011-08-04 00:00:00,PRATE,surface,-101.25,34.4881,3.5e-06
2011-08-04 00:00:00,2011-08-04 00:00:00,PRATE,surface,-100.313,34.4881,4e-06
2011-08-04 00:00:00,2011-08-04 00:00:00,PRATE,surface,-99.3754,34.4881,4.7e-06
2011-08-04 00:00:00,2011-08-04 00:00:00,PRATE,surface,-98.4379,34.4881,5.1e-06
2011-08-04 00:00:00,2011-08-04 00:00:00,PRATE,surface,-97.5004,34.4881,6.3e-06
2011-08-04 00:00:00,2011-08-04 00:00:00,PRATE,surface,-96.5629,34.4881,7.7e-06
2011-08-04 00:00:00,2011-08-04 00:00:00,PRATE,surface,-95.6254,34.4881,9e-06
2011-08-04 00:00:00,2011-08-04 00:00:00,PRATE,surface,-94.6879,34.4881,1.13e-05
2011-08-04 00:00:00,2011-08-04 00:00:00,PRATE,surface,-93.7504,34.4881,1.54e-05
2011-08-04 00:00:00,2011-08-04 00:00:00,PRATE,surface,-92.8129,34.4881,1.9e-05
2011-08-04 00:00:00,2011-08-04 00:00:00,PRATE,surface,-107.813,35.4329,1.11e-05
2011-08-04 00:00:00,2011-08-04 00:00:00,PRATE,surface,-106.875,35.4329,1.05e-05
2011-08-04 00:00:00,2011-08-04 00:00:00,PRATE,surface,-105.938,35.4329,1.72e-05
2011-08-04 00:00:00,2011-08-04 00:00:00,PRATE,surface,-105,35.4329,3.1e-05
2011-08-04 00:00:00,2011-08-04 00:00:00,PRATE,surface,-104.063,35.4329,3.86e-05
2011-08-04 00:00:00,2011-08-04 00:00:00,PRATE,surface,-103.125,35.4329,3.18e-05
2011-08-04 00:00:00,2011-08-04 00:00:00,PRATE,surface,-102.188,35.4329,1.73e-05
2011-08-04 00:00:00,2011-08-04 00:00:00,PRATE,surface,-101.25,35.4329,1.13e-05
2011-08-04 00:00:00,2011-08-04 00:00:00,PRATE,surface,-100.313,35.4329,1.07e-05
2011-08-04 00:00:00,2011-08-04 00:00:00,PRATE,surface,-99.3754,35.4329,9.9e-06
2011-08-04 00:00:00,2011-08-04 00:00:00,PRATE,surface,-98.4379,35.4329,1.04e-05
2011-08-04 00:00:00,2011-08-04 00:00:00,PRATE,surface,-97.5004,35.4329,1.26e-05
2011-08-04 00:00:00,2011-08-04 00:00:00,PRATE,surface,-96.5629,35.4329,1.34e-05
2011-08-04 00:00:00,2011-08-04 00:00:00,PRATE,surface,-95.6254,35.4329,1.34e-05
2011-08-04 00:00:00,2011-08-04 00:00:00,PRATE,surface,-94.6879,35.4329,1.41e-05
2011-08-04 00:00:00,2011-08-04 00:00:00,PRATE,surface,-93.7504,35.4329,1.27e-05
2011-08-04 00:00:00,2011-08-04 00:00:00,PRATE,surface,-92.8129,35.4329,1.32e-05
2011-08-04 00:00:00,2011-08-04 00:00:00,PRATE,surface,-107.813,36.3778,8e-06
2011-08-04 00:00:00,2011-08-04 00:00:00,PRATE,surface,-106.875,36.3778,1.15e-05
2011-08-04 00:00:00,2011-08-04 00:00:00,PRATE,surface,-105.938,36.3778,2.15e-05
2011-08-04 00:00:00,2011-08-04 00:00:00,PRATE,surface,-105,36.3778,2.51e-05
2011-08-04 00:00:00,2011-08-04 00:00:00,PRATE,surface,-104.063,36.3778,3.53e-05
2011-08-04 00:00:00,2011-08-04 00:00:00,PRATE,surface,-103.125,36.3778,2.92e-05
2011-08-04 00:00:00,2011-08-04 00:00:00,PRATE,surface,-102.188,36.3778,1.94e-05
2011-08-04 00:00:00,2011-08-04 00:00:00,PRATE,surface,-101.25,36.3778,1.94e-05
2011-08-04 00:00:00,2011-08-04 00:00:00,PRATE,surface,-100.313,36.3778,1.43e-05
2011-08-04 00:00:00,2011-08-04 00:00:00,PRATE,surface,-99.3754,36.3778,1.2e-05
2011-08-04 00:00:00,2011-08-04 00:00:00,PRATE,surface,-98.4379,36.3778,1.48e-05
2011-08-04 00:00:00,2011-08-04 00:00:00,PRATE,surface,-97.5004,36.3778,1.72e-05
2011-08-04 00:00:00,2011-08-04 00:00:00,PRATE,surface,-96.5629,36.3778,1.68e-05
2011-08-04 00:00:00,2011-08-04 00:00:00,PRATE,surface,-95.6254,36.3778,1.48e-05
2011-08-04 00:00:00,2011-08-04 00:00:00,PRATE,surface,-94.6879,36.3778,1.38e-05
2011-08-04 00:00:00,2011-08-04 00:00:00,PRATE,surface,-93.7504,36.3778,1.72e-05
2011-08-04 00:00:00,2011-08-04 00:00:00,PRATE,surface,-92.8129,36.3778,2.02e-05
