2011-06-09 00:00:00,2011-06-09 00:00:00,TMP,surface,-107.813,25.0393,302.369
2011-06-09 00:00:00,2011-06-09 00:00:00,TMP,surface,-106.875,25.0393,298.219
2011-06-09 00:00:00,2011-06-09 00:00:00,TMP,surface,-105.938,25.0393,295.703
2011-06-09 00:00:00,2011-06-09 00:00:00,TMP,surface,-105,25.0393,295.819
2011-06-09 00:00:00,2011-06-09 00:00:00,TMP,surface,-104.063,25.0393,297.927
2011-06-09 00:00:00,2011-06-09 00:00:00,TMP,surface,-103.125,25.0393,300.468
2011-06-09 00:00:00,2011-06-09 00:00:00,TMP,surface,-102.188,25.0393,298.308
2011-06-09 00:00:00,2011-06-09 00:00:00,TMP,surface,-101.25,25.0393,296.228
2011-06-09 00:00:00,2011-06-09 00:00:00,TMP,surface,-100.313,25.0393,296.718
2011-06-09 00:00:00,2011-06-09 00:00:00,TMP,surface,-99.3754,25.0393,300.119
2011-06-09 00:00:00,2011-06-09 00:00:00,TMP,surface,-98.4379,25.0393,302.609
2011-06-09 00:00:00,2011-06-09 00:00:00,TMP,surface,-97.5004,25.0393,301.927
2011-06-09 00:00:00,2011-06-09 00:00:00,TMP,surface,-96.5629,25.0393,301.751
2011-06-09 00:00:00,2011-06-09 00:00:00,TMP,surface,-95.6254,25.0393,301.771
2011-06-09 00:00:00,2011-06-09 00:00:00,TMP,surface,-94.6879,25.0393,301.876
2011-06-09 00:00:00,2011-06-09 00:00:00,TMP,surface,-93.7504,25.0393,301.825
2011-06-09 00:00:00,2011-06-09 00:00:00,TMP,surface,-92.8129,25.0393,301.716
2011-06-09 00:00:00,2011-06-09 00:00:00,TMP,surface,-107.813,25.9842,300.315
2011-06-09 00:00:00,2011-06-09 00:00:00,TMP,surface,-106.875,25.9842,296.327
2011-06-09 00:00:00,2011-06-09 00:00:00,TMP,surface,-105.938,25.9842,295.537
2011-06-09 00:00:00,2011-06-09 00:00:00,TMP,surface,-105,25.9842,297.79
2011-06-09 00:00:00,2011-06-09 00:00:00,TMP,surface,-104.063,25.9842,301.39
2011-06-09 00:00:00,2011-06-09 00:00:00,TMP,surface,-103.125,25.9842,302.983
2011-06-09 00:00:00,2011-06-09 00:00:00,TMP,surface,-102.188,25.9842,300.356
2011-06-09 00:00:00,2011-06-09 00:00:00,TMP,surface,-101.25,25.9842,299.063
2011-06-09 00:00:00,2011-06-09 00:00:00,TMP,surface,-100.313,25.9842,300.683
2011-06-09 00:00:00,2011-06-09 00:00:00,TMP,surface,-99.3754,25.9842,303.204
2011-06-09 00:00:00,2011-06-09 00:00:00,TMP,surface,-98.4379,25.9842,303.652
2011-06-09 00:00:00,2011-06-09 00:00:00,TMP,surface,-97.5004,25.9842,302.059
2011-06-09 00:00:00,2011-06-09 00:00:00,TMP,surface,-96.5629,25.9842,300.622
2011-06-09 00:00:00,2011-06-09 00:00:00,TMP,surface,-95.6254,25.9842,301.377
2011-06-09 00:00:00,2011-06-09 00:00:00,TMP,surface,-94.6879,25.9842,301.745
2011-06-09 00:00:00,2011-06-09 00:00:00,TMP,surface,-93.7504,25.9842,301.799
2011-06-09 00:00:00,2011-06-09 00:00:00,TMP,surface,-92.8129,25.9842,301.815
2011-06-09 00:00:00,2011-06-09 00:00:00,TMP,surface,-107.813,26.929,297.348
2011-06-09 00:00:00,2011-06-09 00:00:00,TMP,surface,-106.875,26.929,296.177
2011-06-09 00:00:00,2011-06-09 00:00:00,TMP,surface,-105.938,26.929,297.031
2011-06-09 00:00:00,2011-06-09 00:00:00,TMP,surface,-105,26.929,301.46
2011-06-09 00:00:00,2011-06-09 00:00:00,TMP,surface,-104.063,26.929,303.908
2011-06-09 00:00:00,2011-06-09 00:00:00,TMP,surface,-103.125,26.929,303.217
2011-06-09 00:00:00,2011-06-09 00:00:00,TMP,surface,-102.188,26.929,300.353
2011-06-09 00:00:00,2011-06-09 00:00:00,TMP,surface,-101.25,26.929,300.843
2011-06-09 00:00:00,2011-06-09 00:00:00,TMP,surface,-100.313,26.929,303.799
2011-06-09 00:00:00,2011-06-09 00:00:00,TMP,surface,-99.3754,26.929,304.971
2011-06-09 00:00:00,2011-06-09 00:00:00,TMP,surface,-98.4379,26.929,303.403
2011-06-09 00:00:00,2011-06-09 00:00:00,TMP,surface,-97.5004,26.929,299.703
2011-06-09 00:00:00,2011-06-09 00:00:00,TMP,surface,-96.5629,26.929,300.103
2011-06-09 00:00:00,2011-06-09 00:00:00,TMP,surface,-95.6254,26.929,301.604
2011-06-09 00:00:00,2011-06-09 00:00:00,TMP,surface,-94.6879,26.929,302.033
2011-06-09 00:00:00,2011-06-09 00:00:00,TMP,surface,-93.7504,26.929,301.927
2011-06-09 00:00:00,2011-06-09 00:00:00,TMP,surface,-92.8129,26.929,301.847
2011-06-09 00:00:00,2011-06-09 00:00:00,TMP,surface,-107.813,27.8739,295.918
2011-06-09 00:00:00,2011-06-09 00:00:00,TMP,surface,-106.875,27.8739,296.558
2011-06-09 00:00:00,2011-06-09 00:00:00,TMP,surface,-105.938,27.8739,300.119
2011-06-09 00:00:00,2011-06-09 00:00:00,TMP,surface,-105,27.8739,303.495
2011-06-09 00:00:00,2011-06-09 00:00:00,TMP,surface,-104.063,27.8739,303.511
2011-06-09 00:00:00,2011-06-09 00:00:00,TMP,surface,-103.125,27.8739,301.438
2011-06-09 00:00:00,2011-06-09 00:00:00,TMP,surface,-102.188,27.8739,299.87
2011-06-09 00:00:00,2011-06-09 00:00:00,TMP,surface,-101.25,27.8739,302.18
2011-06-09 00:00:00,2011-06-09 00:00:00,TMP,surface,-100.313,27.8739,304.446
2011-06-09 00:00:00,2011-06-09 00:00:00,TMP,surface,-99.3754,27.8739,304.372
2011-06-09 00:00:00,2011-06-09 00:00:00,TMP,surface,-98.4379,27.8739,302.478
2011-06-09 00:00:00,2011-06-09 00:00:00,TMP,surface,-97.5004,27.8739,301.342
2011-06-09 00:00:00,2011-06-09 00:00:00,TMP,surface,-96.5629,27.8739,301.563
2011-06-09 00:00:00,2011-06-09 00:00:00,TMP,surface,-95.6254,27.8739,301.94
2011-06-09 00:00:00,2011-06-09 00:00:00,TMP,surface,-94.6879,27.8739,302.075
2011-06-09 00:00:00,2011-06-09 00:00:00,TMP,surface,-93.7504,27.8739,301.975
2011-06-09 00:00:00,2011-06-09 00:00:00,TMP,surface,-92.8129,27.8739,301.924
2011-06-09 00:00:00,2011-06-09 00:00:00,TMP,surface,-107.813,28.8188,295.569
2011-06-09 00:00:00,2011-06-09 00:00:00,TMP,surface,-106.875,28.8188,297.742
2011-06-09 00:00:00,2011-06-09 00:00:00,TMP,surface,-105.938,28.8188,301.825
2011-06-09 00:00:00,2011-06-09 00:00:00,TMP,surface,-105,28.8188,304.651
2011-06-09 00:00:00,2011-06-09 00:00:00,TMP,surface,-104.063,28.8188,304.423
2011-06-09 00:00:00,2011-06-09 00:00:00,TMP,surface,-103.125,28.8188,302.391
2011-06-09 00:00:00,2011-06-09 00:00:00,TMP,surface,-102.188,28.8188,301.003
2011-06-09 00:00:00,2011-06-09 00:00:00,TMP,surface,-101.25,28.8188,302.411
2011-06-09 00:00:00,2011-06-09 00:00:00,TMP,surface,-100.313,28.8188,303.23
2011-06-09 00:00:00,2011-06-09 00:00:00,TMP,surface,-99.3754,28.8188,302.612
2011-06-09 00:00:00,2011-06-09 00:00:00,TMP,surface,-98.4379,28.8188,301.425
2011-06-09 00:00:00,2011-06-09 00:00:00,TMP,surface,-97.5004,28.8188,300.603
2011-06-09 00:00:00,2011-06-09 00:00:00,TMP,surface,-96.5629,28.8188,300.487
2011-06-09 00:00:00,2011-06-09 00:00:00,TMP,surface,-95.6254,28.8188,301.035
2011-06-09 00:00:00,2011-06-09 00:00:00,TMP,surface,-94.6879,28.8188,301.761
2011-06-09 00:00:00,2011-06-09 00:00:00,TMP,surface,-93.7504,28.8188,301.959
2011-06-09 00:00:00,2011-06-09 00:00:00,TMP,surface,-92.8129,28.8188,302.043
2011-06-09 00:00:00,2011-06-09 00:00:00,TMP,surface,-107.813,29.7637,297.937
2011-06-09 00:00:00,2011-06-09 00:00:00,TMP,surface,-106.875,29.7637,300.267
2011-06-09 00:00:00,2011-06-09 00:00:00,TMP,surface,-105.938,29.7637,302.603
2011-06-09 00:00:00,2011-06-09 00:00:00,TMP,surface,-105,29.7637,304.404
2011-06-09 00:00:00,2011-06-09 00:00:00,TMP,surface,-104.063,29.7637,304.487
2011-06-09 00:00:00,2011-06-09 00:00:00,TMP,surface,-103.125,29.7637,303.755
2011-06-09 00:00:00,2011-06-09 00:00:00,TMP,surface,-102.188,29.7637,303.137
2011-06-09 00:00:00,2011-06-09 00:00:00,TMP,surface,-101.25,29.7637,302.804
2011-06-09 00:00:00,2011-06-09 00:00:00,TMP,surface,-100.313,29.7637,301.979
2011-06-09 00:00:00,2011-06-09 00:00:00,TMP,surface,-99.3754,29.7637,300.868
2011-06-09 00:00:00,2011-06-09 00:00:00,TMP,surface,-98.4379,29.7637,300.135
2011-06-09 00:00:00,2011-06-09 00:00:00,TMP,surface,-97.5004,29.7637,299.924
2011-06-09 00:00:00,2011-06-09 00:00:00,TMP,surface,-96.5629,29.7637,300.023
2011-06-09 00:00:00,2011-06-09 00:00:00,TMP,surface,-95.6254,29.7637,300.315
2011-06-09 00:00:00,2011-06-09 00:00:00,TMP,surface,-94.6879,29.7637,301.038
2011-06-09 00:00:00,2011-06-09 00:00:00,TMP,surface,-93.7504,29.7637,301.835
2011-06-09 00:00:00,2011-06-09 00:00:00,TMP,surface,-92.8129,29.7637,301.278
2011-06-09 00:00:00,2011-06-09 00:00:00,TMP,surface,-107.813,30.7085,301.675
2011-06-09 00:00:00,2011-06-09 00:00:00,TMP,surface,-106.875,30.7085,302.164
2011-06-09 00:00:00,2011-06-09 00:00:00,TMP,surface,-105.938,30.7085,303.147
2011-06-09 00:00:00,2011-06-09 00:00:00,TMP,surface,-105,30.7085,304.062
2011-06-09 00:00:00,2011-06-09 00:00:00,TMP,surface,-104.063,30.7085,303.809
2011-06-09 00:00:00,2011-06-09 00:00:00,TMP,surface,-103.125,30.7085,304.599
2011-06-09 00:00:00,2011-06-09 00:00:00,TMP,surface,-102.188,30.7085,304.215
2011-06-09 00:00:00,2011-06-09 00:00:00,TMP,surface,-101.25,30.7085,303.044
2011-06-09 00:00:00,2011-06-09 00:00:00,TMP,surface,-100.313,30.7085,301.774
2011-06-09 00:00:00,2011-06-09 00:00:00,TMP,surface,-99.3754,30.7085,300.731
2011-06-09 00:00:00,2011-06-09 00:00:00,TMP,surface,-98.4379,30.7085,300.382
2011-06-09 00:00:00,2011-06-09 00:00:00,TMP,surface,-97.5004,30.7085,300.478
2011-06-09 00:00:00,2011-06-09 00:00:00,TMP,surface,-96.5629,30.7085,301.124
2011-06-09 00:00:00,2011-06-09 00:00:00,TMP,surface,-95.6254,30.7085,301.815
2011-06-09 00:00:00,2011-06-09 00:00:00,TMP,surface,-94.6879,30.7085,301.713
2011-06-09 00:00:00,2011-06-09 00:00:00,TMP,surface,-93.7504,30.7085,301.636
2011-06-09 00:00:00,2011-06-09 00:00:00,TMP,surface,-92.8129,30.7085,301.377
2011-06-09 00:00:00,2011-06-09 00:00:00,TMP,surface,-107.813,31.6534,302.391
2011-06-09 00:00:00,2011-06-09 00:00:00,TMP,surface,-106.875,31.6534,302.241
2011-06-09 00:00:00,2011-06-09 00:00:00,TMP,surface,-105.938,31.6534,303.492
2011-06-09 00:00:00,2011-06-09 00:00:00,TMP,surface,-105,31.6534,303.572
2011-06-09 00:00:00,2011-06-09 00:00:00,TMP,surface,-104.063,31.6534,304.27
2011-06-09 00:00:00,2011-06-09 00:00:00,TMP,surface,-103.125,31.6534,304.881
2011-06-09 00:00:00,2011-06-09 00:00:00,TMP,surface,-102.188,31.6534,304.587
2011-06-09 00:00:00,2011-06-09 00:00:00,TMP,surface,-101.25,31.6534,303.399
2011-06-09 00:00:00,2011-06-09 00:00:00,TMP,surface,-100.313,31.6534,302.411
2011-06-09 00:00:00,2011-06-09 00:00:00,TMP,surface,-99.3754,31.6534,301.665
2011-06-09 00:00:00,2011-06-09 00:00:00,TMP,surface,-98.4379,31.6534,301.383
2011-06-09 00:00:00,2011-06-09 00:00:00,TMP,surface,-97.5004,31.6534,301.47
2011-06-09 00:00:00,2011-06-09 00:00:00,TMP,surface,-96.5629,31.6534,302.094
2011-06-09 00:00:00,2011-06-09 00:00:00,TMP,surface,-95.6254,31.6534,302.775
2011-06-09 00:00:00,2011-06-09 00:00:00,TMP,surface,-94.6879,31.6534,302.641
2011-06-09 00:00:00,2011-06-09 00:00:00,TMP,surface,-93.7504,31.6534,302.34
2011-06-09 00:00:00,2011-06-09 00:00:00,TMP,surface,-92.8129,31.6534,302.18
2011-06-09 00:00:00,2011-06-09 00:00:00,TMP,surface,-107.813,32.5983,299.867
2011-06-09 00:00:00,2011-06-09 00:00:00,TMP,surface,-106.875,32.5983,300.894
2011-06-09 00:00:00,2011-06-09 00:00:00,TMP,surface,-105.938,32.5983,301.71
2011-06-09 00:00:00,2011-06-09 00:00:00,TMP,surface,-105,32.5983,302.337
2011-06-09 00:00:00,2011-06-09 00:00:00,TMP,surface,-104.063,32.5983,302.545
2011-06-09 00:00:00,2011-06-09 00:00:00,TMP,surface,-103.125,32.5983,303.956
2011-06-09 00:00:00,2011-06-09 00:00:00,TMP,surface,-102.188,32.5983,304.247
2011-06-09 00:00:00,2011-06-09 00:00:00,TMP,surface,-101.25,32.5983,303.863
2011-06-09 00:00:00,2011-06-09 00:00:00,TMP,surface,-100.313,32.5983,303.614
2011-06-09 00:00:00,2011-06-09 00:00:00,TMP,surface,-99.3754,32.5983,302.993
2011-06-09 00:00:00,2011-06-09 00:00:00,TMP,surface,-98.4379,32.5983,302.327
2011-06-09 00:00:00,2011-06-09 00:00:00,TMP,surface,-97.5004,32.5983,302.151
2011-06-09 00:00:00,2011-06-09 00:00:00,TMP,surface,-96.5629,32.5983,302.769
2011-06-09 00:00:00,2011-06-09 00:00:00,TMP,surface,-95.6254,32.5983,303.521
2011-06-09 00:00:00,2011-06-09 00:00:00,TMP,surface,-94.6879,32.5983,303.479
2011-06-09 00:00:00,2011-06-09 00:00:00,TMP,surface,-93.7504,32.5983,303.188
2011-06-09 00:00:00,2011-06-09 00:00:00,TMP,surface,-92.8129,32.5983,303.159
2011-06-09 00:00:00,2011-06-09 00:00:00,TMP,surface,-107.813,33.5432,296.727
2011-06-09 00:00:00,2011-06-09 00:00:00,TMP,surface,-106.875,33.5432,298.801
2011-06-09 00:00:00,2011-06-09 00:00:00,TMP,surface,-105.938,33.5432,299.828
2011-06-09 00:00:00,2011-06-09 00:00:00,TMP,surface,-105,33.5432,301.246
2011-06-09 00:00:00,2011-06-09 00:00:00,TMP,surface,-104.063,33.5432,301.806
2011-06-09 00:00:00,2011-06-09 00:00:00,TMP,surface,-103.125,33.5432,303.246
2011-06-09 00:00:00,2011-06-09 00:00:00,TMP,surface,-102.188,33.5432,303.815
2011-06-09 00:00:00,2011-06-09 00:00:00,TMP,surface,-101.25,33.5432,303.767
2011-06-09 00:00:00,2011-06-09 00:00:00,TMP,surface,-100.313,33.5432,304.129
2011-06-09 00:00:00,2011-06-09 00:00:00,TMP,surface,-99.3754,33.5432,303.684
2011-06-09 00:00:00,2011-06-09 00:00:00,TMP,surface,-98.4379,33.5432,302.699
2011-06-09 00:00:00,2011-06-09 00:00:00,TMP,surface,-97.5004,33.5432,302.065
2011-06-09 00:00:00,2011-06-09 00:00:00,TMP,surface,-96.5629,33.5432,301.873
2011-06-09 00:00:00,2011-06-09 00:00:00,TMP,surface,-95.6254,33.5432,302.267
2011-06-09 00:00:00,2011-06-09 00:00:00,TMP,surface,-94.6879,33.5432,302.907
2011-06-09 00:00:00,2011-06-09 00:00:00,TMP,surface,-93.7504,33.5432,302.763
2011-06-09 00:00:00,2011-06-09 00:00:00,TMP,surface,-92.8129,33.5432,302.961
2011-06-09 00:00:00,2011-06-09 00:00:00,TMP,surface,-107.813,34.4881,295.204
2011-06-09 00:00:00,2011-06-09 00:00:00,TMP,surface,-106.875,34.4881,297.163
2011-06-09 00:00:00,2011-06-09 00:00:00,TMP,surface,-105.938,34.4881,298.337
2011-06-09 00:00:00,2011-06-09 00:00:00,TMP,surface,-105,34.4881,300.379
2011-06-09 00:00:00,2011-06-09 00:00:00,TMP,surface,-104.063,34.4881,301.863
2011-06-09 00:00:00,2011-06-09 00:00:00,TMP,surface,-103.125,34.4881,302.673
2011-06-09 00:00:00,2011-06-09 00:00:00,TMP,surface,-102.188,34.4881,303.191
2011-06-09 00:00:00,2011-06-09 00:00:00,TMP,surface,-101.25,34.4881,303.655
2011-06-09 00:00:00,2011-06-09 00:00:00,TMP,surface,-100.313,34.4881,303.822
2011-06-09 00:00:00,2011-06-09 00:00:00,TMP,surface,-99.3754,34.4881,303.46
2011-06-09 00:00:00,2011-06-09 00:00:00,TMP,surface,-98.4379,34.4881,302.516
2011-06-09 00:00:00,2011-06-09 00:00:00,TMP,surface,-97.5004,34.4881,301.569
2011-06-09 00:00:00,2011-06-09 00:00:00,TMP,surface,-96.5629,34.4881,301.521
2011-06-09 00:00:00,2011-06-09 00:00:00,TMP,surface,-95.6254,34.4881,301.902
2011-06-09 00:00:00,2011-06-09 00:00:00,TMP,surface,-94.6879,34.4881,301.694
2011-06-09 00:00:00,2011-06-09 00:00:00,TMP,surface,-93.7504,34.4881,301.534
2011-06-09 00:00:00,2011-06-09 00:00:00,TMP,surface,-92.8129,34.4881,301.998
2011-06-09 00:00:00,2011-06-09 00:00:00,TMP,surface,-107.813,35.4329,294.398
2011-06-09 00:00:00,2011-06-09 00:00:00,TMP,surface,-106.875,35.4329,295.236
2011-06-09 00:00:00,2011-06-09 00:00:00,TMP,surface,-105.938,35.4329,295.988
2011-06-09 00:00:00,2011-06-09 00:00:00,TMP,surface,-105,35.4329,297.918
2011-06-09 00:00:00,2011-06-09 00:00:00,TMP,surface,-104.063,35.4329,300.023
2011-06-09 00:00:00,2011-06-09 00:00:00,TMP,surface,-103.125,35.4329,301.732
2011-06-09 00:00:00,2011-06-09 00:00:00,TMP,surface,-102.188,35.4329,303.22
2011-06-09 00:00:00,2011-06-09 00:00:00,TMP,surface,-101.25,35.4329,303.739
2011-06-09 00:00:00,2011-06-09 00:00:00,TMP,surface,-100.313,35.4329,303.473
2011-06-09 00:00:00,2011-06-09 00:00:00,TMP,surface,-99.3754,35.4329,303.076
2011-06-09 00:00:00,2011-06-09 00:00:00,TMP,surface,-98.4379,35.4329,302.286
2011-06-09 00:00:00,2011-06-09 00:00:00,TMP,surface,-97.5004,35.4329,301.255
2011-06-09 00:00:00,2011-06-09 00:00:00,TMP,surface,-96.5629,35.4329,300.539
2011-06-09 00:00:00,2011-06-09 00:00:00,TMP,surface,-95.6254,35.4329,300.526
2011-06-09 00:00:00,2011-06-09 00:00:00,TMP,surface,-94.6879,35.4329,300.855
2011-06-09 00:00:00,2011-06-09 00:00:00,TMP,surface,-93.7504,35.4329,300.708
2011-06-09 00:00:00,2011-06-09 00:00:00,TMP,surface,-92.8129,35.4329,300.571
2011-06-09 00:00:00,2011-06-09 00:00:00,TMP,surface,-107.813,36.3778,292.759
2011-06-09 00:00:00,2011-06-09 00:00:00,TMP,surface,-106.875,36.3778,291.134
2011-06-09 00:00:00,2011-06-09 00:00:00,TMP,surface,-105.938,36.3778,293.134
2011-06-09 00:00:00,2011-06-09 00:00:00,TMP,surface,-105,36.3778,295.403
2011-06-09 00:00:00,2011-06-09 00:00:00,TMP,surface,-104.063,36.3778,298.027
2011-06-09 00:00:00,2011-06-09 00:00:00,TMP,surface,-103.125,36.3778,299.979
2011-06-09 00:00:00,2011-06-09 00:00:00,TMP,surface,-102.188,36.3778,301.595
2011-06-09 00:00:00,2011-06-09 00:00:00,TMP,surface,-101.25,36.3778,302.74
2011-06-09 00:00:00,2011-06-09 00:00:00,TMP,surface,-100.313,36.3778,303.121
2011-06-09 00:00:00,2011-06-09 00:00:00,TMP,surface,-99.3754,36.3778,302.967
2011-06-09 00:00:00,2011-06-09 00:00:00,TMP,surface,-98.4379,36.3778,302.318
2011-06-09 00:00:00,2011-06-09 00:00:00,TMP,surface,-97.5004,36.3778,301.198
2011-06-09 00:00:00,2011-06-09 00:00:00,TMP,surface,-96.5629,36.3778,300.161
2011-06-09 00:00:00,2011-06-09 00:00:00,TMP,surface,-95.6254,36.3778,299.908
2011-06-09 00:00:00,2011-06-09 00:00:00,TMP,surface,-94.6879,36.3778,300.107
2011-06-09 00:00:00,2011-06-09 00:00:00,TMP,surface,-93.7504,36.3778,299.835
2011-06-09 00:00:00,2011-06-09 00:00:00,TMP,surface,-92.8129,36.3778,299.55
2011-06-09 00:00:00,2011-06-09 00:00:00,PRATE,surface,-107.813,25.0393,0
2011-06-09 00:00:00,2011-06-09 00:00:00,PRATE,surface,-106.875,25.0393,1e-06
2011-06-09 00:00:00,2011-06-09 00:00:00,PRATE,surface,-105.938,25.0393,3.24e-05
2011-06-09 00:00:00,2011-06-09 00:00:00,PRATE,surface,-105,25.0393,2.06e-05
2011-06-09 00:00:00,2011-06-09 00:00:00,PRATE,surface,-104.063,25.0393,8e-07
2011-06-09 00:00:00,2011-06-09 00:00:00,PRATE,surface,-103.125,25.0393,0
2011-06-09 00:00:00,2011-06-09 00:00:00,PRATE,surface,-102.188,25.0393,1e-07
2011-06-09 00:00:00,2011-06-09 00:00:00,PRATE,surface,-101.25,25.0393,6.9e-06
2011-06-09 00:00:00,2011-06-09 00:00:00,PRATE,surface,-100.313,25.0393,7e-06
2011-06-09 00:00:00,2011-06-09 00:00:00,PRATE,surface,-99.3754,25.0393,3.5e-06
2011-06-09 00:00:00,2011-06-09 00:00:00,PRATE,surface,-98.4379,25.0393,4.6e-06
2011-06-09 00:00:00,2011-06-09 00:00:00,PRATE,surface,-97.5004,25.0393,1.35e-05
2011-06-09 00:00:00,2011-06-09 00:00:00,PRATE,surface,-96.5629,25.0393,1.29e-05
2011-06-09 00:00:00,2011-06-09 00:00:00,PRATE,surface,-95.6254,25.0393,1.06e-05
2011-06-09 00:00:00,2011-06-09 00:00:00,PRATE,surface,-94.6879,25.0393,1.61e-05
2011-06-09 00:00:00,2011-06-09 00:00:00,PRATE,surface,-93.7504,25.0393,2.66e-05
2011-06-09 00:00:00,2011-06-09 00:00:00,PRATE,surface,-92.8129,25.0393,2.07e-05
2011-06-09 00:00:00,2011-06-09 00:00:00,PRATE,surface,-107.813,25.9842,8e-07
2011-06-09 00:00:00,2011-06-09 00:00:00,PRATE,surface,-106.875,25.9842,2.61e-05
2011-06-09 00:00:00,2011-06-09 00:00:00,PRATE,surface,-105.938,25.9842,2.34e-05
2011-06-09 00:00:00,2011-06-09 00:00:00,PRATE,surface,-105,25.9842,2.8e-06
2011-06-09 00:00:00,2011-06-09 00:00:00,PRATE,surface,-104.063,25.9842,0
2011-06-09 00:00:00,2011-06-09 00:00:00,PRATE,surface,-103.125,25.9842,0
2011-06-09 00:00:00,2011-06-09 00:00:00,PRATE,surface,-102.188,25.9842,0
2011-06-09 00:00:00,2011-06-09 00:00:00,PRATE,surface,-101.25,25.9842,1.6e-06
2011-06-09 00:00:00,2011-06-09 00:00:00,PRATE,surface,-100.313,25.9842,1e-07
2011-06-09 00:00:00,2011-06-09 00:00:00,PRATE,surface,-99.3754,25.9842,0
2011-06-09 00:00:00,2011-06-09 00:00:00,PRATE,surface,-98.4379,25.9842,1.9e-06
2011-06-09 00:00:00,2011-06-09 00:00:00,PRATE,surface,-97.5004,25.9842,2.76e-05
2011-06-09 00:00:00,2011-06-09 00:00:00,PRATE,surface,-96.5629,25.9842,1.43e-05
2011-06-09 00:00:00,2011-06-09 00:00:00,PRATE,surface,-95.6254,25.9842,1.38e-05
2011-06-09 00:00:00,2011-06-09 00:00:00,PRATE,surface,-94.6879,25.9842,1.93e-05
2011-06-09 00:00:00,2011-06-09 00:00:00,PRATE,surface,-93.7504,25.9842,1.44e-05
2011-06-09 00:00:00,2011-06-09 00:00:00,PRATE,surface,-92.8129,25.9842,1.92e-05
2011-06-09 00:00:00,2011-06-09 00:00:00,PRATE,surface,-107.813,26.929,1.35e-05
2011-06-09 00:00:00,2011-06-09 00:00:00,PRATE,surface,-106.875,26.929,2.3e-05
2011-06-09 00:00:00,2011-06-09 00:00:00,PRATE,surface,-105.938,26.929,1.9e-06
2011-06-09 00:00:00,2011-06-09 00:00:00,PRATE,surface,-105,26.929,2e-07
2011-06-09 00:00:00,2011-06-09 00:00:00,PRATE,surface,-104.063,26.929,6e-07
2011-06-09 00:00:00,2011-06-09 00:00:00,PRATE,surface,-103.125,26.929,3e-07
2011-06-09 00:00:00,2011-06-09 00:00:00,PRATE,surface,-102.188,26.929,3e-07
2011-06-09 00:00:00,2011-06-09 00:00:00,PRATE,surface,-101.25,26.929,5e-07
2011-06-09 00:00:00,2011-06-09 00:00:00,PRATE,surface,-100.313,26.929,0
2011-06-09 00:00:00,2011-06-09 00:00:00,PRATE,surface,-99.3754,26.929,0
2011-06-09 00:00:00,2011-06-09 00:00:00,PRATE,surface,-98.4379,26.929,4.1e-06
2011-06-09 00:00:00,2011-06-09 00:00:00,PRATE,surface,-97.5004,26.929,6.8e-06
2011-06-09 00:00:00,2011-06-09 00:00:00,PRATE,surface,-96.5629,26.929,8.8e-06
2011-06-09 00:00:00,2011-06-09 00:00:00,PRATE,surface,-95.6254,26.929,6.1e-06
2011-06-09 00:00:00,2011-06-09 00:00:00,PRATE,surface,-94.6879,26.929,5.5e-06
2011-06-09 00:00:00,2011-06-09 00:00:00,PRATE,surface,-93.7504,26.929,8.1e-06
2011-06-09 00:00:00,2011-06-09 00:00:00,PRATE,surface,-92.8129,26.929,1.36e-05
2011-06-09 00:00:00,2011-06-09 00:00:00,PRATE,surface,-107.813,27.8739,1.43e-05
2011-06-09 00:00:00,2011-06-09 00:00:00,PRATE,surface,-106.875,27.8739,4e-06
2011-06-09 00:00:00,2011-06-09 00:00:00,PRATE,surface,-105.938,27.8739,3e-07
2011-06-09 00:00:00,2011-06-09 00:00:00,PRATE,surface,-105,27.8739,2e-07
2011-06-09 00:00:00,2011-06-09 00:00:00,PRATE,surface,-104.063,27.8739,2.1e-06
2011-06-09 00:00:00,2011-06-09 00:00:00,PRATE,surface,-103.125,27.8739,8.3e-06
2011-06-09 00:00:00,2011-06-09 00:00:00,PRATE,surface,-102.188,27.8739,3.8e-06
2011-06-09 00:00:00,2011-06-09 00:00:00,PRATE,surface,-101.25,27.8739,7e-07
2011-06-09 00:00:00,2011-06-09 00:00:00,PRATE,surface,-100.313,27.8739,2e-07
2011-06-09 00:00:00,2011-06-09 00:00:00,PRATE,surface,-99.3754,27.8739,1e-07
2011-06-09 00:00:00,2011-06-09 00:00:00,PRATE,surface,-98.4379,27.8739,9.2e-06
2011-06-09 00:00:00,2011-06-09 00:00:00,PRATE,surface,-97.5004,27.8739,1.11e-05
2011-06-09 00:00:00,2011-06-09 00:00:00,PRATE,surface,-96.5629,27.8739,4.4e-06
2011-06-09 00:00:00,2011-06-09 00:00:00,PRATE,surface,-95.6254,27.8739,4.3e-06
2011-06-09 00:00:00,2011-06-09 00:00:00,PRATE,surface,-94.6879,27.8739,7.2e-06
2011-06-09 00:00:00,2011-06-09 00:00:00,PRATE,surface,-93.7504,27.8739,7.9e-06
2011-06-09 00:00:00,2011-06-09 00:00:00,PRATE,surface,-92.8129,27.8739,9.4e-06
2011-06-09 00:00:00,2011-06-09 00:00:00,PRATE,surface,-107.813,28.8188,2.8e-06
2011-06-09 00:00:00,2011-06-09 00:00:00,PRATE,surface,-106.875,28.8188,1.8e-06
2011-06-09 00:00:00,2011-06-09 00:00:00,PRATE,surface,-105.938,28.8188,3e-07
2011-06-09 00:00:00,2011-06-09 00:00:00,PRATE,surface,-105,28.8188,1.1e-06
2011-06-09 00:00:00,2011-06-09 00:00:00,PRATE,surface,-104.063,28.8188,2.5e-06
2011-06-09 00:00:00,2011-06-09 00:00:00,PRATE,surface,-103.125,28.8188,6.7e-06
2011-06-09 00:00:00,2011-06-09 00:00:00,PRATE,surface,-102.188,28.8188,1.8e-06
2011-06-09 00:00:00,2011-06-09 00:00:00,PRATE,surface,-101.25,28.8188,1e-07
2011-06-09 00:00:00,2011-06-09 00:00:00,PRATE,surface,-100.313,28.8188,1e-07
2011-06-09 00:00:00,2011-06-09 00:00:00,PRATE,surface,-99.3754,28.8188,2.7e-06
2011-06-09 00:00:00,2011-06-09 00:00:00,PRATE,surface,-98.4379,28.8188,1.18e-05
2011-06-09 00:00:00,2011-06-09 00:00:00,PRATE,surface,-97.5004,28.8188,2.39e-05
2011-06-09 00:00:00,2011-06-09 00:00:00,PRATE,surface,-96.5629,28.8188,4.34e-05
2011-06-09 00:00:00,2011-06-09 00:00:00,PRATE,surface,-95.6254,28.8188,4.49e-05
2011-06-09 00:00:00,2011-06-09 00:00:00,PRATE,surface,-94.6879,28.8188,1.71e-05
2011-06-09 00:00:00,2011-06-09 00:00:00,PRATE,surface,-93.7504,28.8188,1.25e-05
2011-06-09 00:00:00,2011-06-09 00:00:00,PRATE,surface,-92.8129,28.8188,1.05e-05
2011-06-09 00:00:00,2011-06-09 00:00:00,PRATE,surface,-107.813,29.7637,3e-07
2011-06-09 00:00:00,2011-06-09 00:00:00,PRATE,surface,-106.875,29.7637,1e-06
2011-06-09 00:00:00,2011-06-09 00:00:00,PRATE,surface,-105.938,29.7637,3e-07
2011-06-09 00:00:00,2011-06-09 00:00:00,PRATE,surface,-105,29.7637,1.4e-06
2011-06-09 00:00:00,2011-06-09 00:00:00,PRATE,surface,-104.063,29.7637,1.2e-06
2011-06-09 00:00:00,2011-06-09 00:00:00,PRATE,surface,-103.125,29.7637,8e-07
2011-06-09 00:00:00,2011-06-09 00:00:00,PRATE,surface,-102.188,29.7637,1e-07
2011-06-09 00:00:00,2011-06-09 00:00:00,PRATE,surface,-101.25,29.7637,0
2011-06-09 00:00:00,2011-06-09 00:00:00,PRATE,surface,-100.313,29.7637,1e-07
2011-06-09 00:00:00,2011-06-09 00:00:00,PRATE,surface,-99.3754,29.7637,5.7e-06
2011-06-09 00:00:00,2011-06-09 00:00:00,PRATE,surface,-98.4379,29.7637,1.05e-05
2011-06-09 00:00:00,2011-06-09 00:00:00,PRATE,surface,-97.5004,29.7637,1.3e-05
2011-06-09 00:00:00,2011-06-09 00:00:00,PRATE,surface,-96.5629,29.7637,1.96e-05
2011-06-09 00:00:00,2011-06-09 00:00:00,PRATE,surface,-95.6254,29.7637,3.25e-05
2011-06-09 00:00:00,2011-06-09 00:00:00,PRATE,surface,-94.6879,29.7637,3.23e-05
2011-06-09 00:00:00,2011-06-09 00:00:00,PRATE,surface,-93.7504,29.7637,2.02e-05
2011-06-09 00:00:00,2011-06-09 00:00:00,PRATE,surface,-92.8129,29.7637,5.2e-05
2011-06-09 00:00:00,2011-06-09 00:00:00,PRATE,surface,-107.813,30.7085,1e-07
2011-06-09 00:00:00,2011-06-09 00:00:00,PRATE,surface,-106.875,30.7085,3e-07
2011-06-09 00:00:00,2011-06-09 00:00:00,PRATE,surface,-105.938,30.7085,2e-07
2011-06-09 00:00:00,2011-06-09 00:00:00,PRATE,surface,-105,30.7085,5e-07
2011-06-09 00:00:00,2011-06-09 00:00:00,PRATE,surface,-104.063,30.7085,6e-07
2011-06-09 00:00:00,2011-06-09 00:00:00,PRATE,surface,-103.125,30.7085,1e-07
2011-06-09 00:00:00,2011-06-09 00:00:00,PRATE,surface,-102.188,30.7085,1e-07
2011-06-09 00:00:00,2011-06-09 00:00:00,PRATE,surface,-101.25,30.7085,0
2011-06-09 00:00:00,2011-06-09 00:00:00,PRATE,surface,-100.313,30.7085,6e-07
2011-06-09 00:00:00,2011-06-09 00:00:00,PRATE,surface,-99.3754,30.7085,8e-07
2011-06-09 00:00:00,2011-06-09 00:00:00,PRATE,surface,-98.4379,30.7085,1.1e-06
2011-06-09 00:00:00,2011-06-09 00:00:00,PRATE,surface,-97.5004,30.7085,1.5e-06
2011-06-09 00:00:00,2011-06-09 00:00:00,PRATE,surface,-96.5629,30.7085,1.9e-06
2011-06-09 00:00:00,2011-06-09 00:00:00,PRATE,surface,-95.6254,30.7085,5e-06
2011-06-09 00:00:00,2011-06-09 00:00:00,PRATE,surface,-94.6879,30.7085,1.14e-05
2011-06-09 00:00:00,2011-06-09 00:00:00,PRATE,surface,-93.7504,30.7085,1.85e-05
2011-06-09 00:00:00,2011-06-09 00:00:00,PRATE,surface,-92.8129,30.7085,3.05e-05
2011-06-09 00:00:00,2011-06-09 00:00:00,PRATE,surface,-107.813,31.6534,0
2011-06-09 00:00:00,2011-06-09 00:00:00,PRATE,surface,-106.875,31.6534,0
2011-06-09 00:00:00,2011-06-09 00:00:00,PRATE,surface,-105.938,31.6534,1e-07
2011-06-09 00:00:00,2011-06-09 00:00:00,PRATE,surface,-105,31.6534,0
2011-06-09 00:00:00,2011-06-09 00:00:00,PRATE,surface,-104.063,31.6534,0
2011-06-09 00:00:00,2011-06-09 00:00:00,PRATE,surface,-103.125,31.6534,0
2011-06-09 00:00:00,2011-06-09 00:00:00,PRATE,surface,-102.188,31.6534,3e-07
2011-06-09 00:00:00,2011-06-09 00:00:00,PRATE,surface,-101.25,31.6534,1e-07
2011-06-09 00:00:00,2011-06-09 00:00:00,PRATE,surface,-100.313,31.6534,1e-07
2011-06-09 00:00:00,2011-06-09 00:00:00,PRATE,surface,-99.3754,31.6534,1e-07
2011-06-09 00:00:00,2011-06-09 00:00:00,PRATE,surface,-98.4379,31.6534,1e-07
2011-06-09 00:00:00,2011-06-09 00:00:00,PRATE,surface,-97.5004,31.6534,1.4e-06
2011-06-09 00:00:00,2011-06-09 00:00:00,PRATE,surface,-96.5629,31.6534,3.5e-06
2011-06-09 00:00:00,2011-06-09 00:00:00,PRATE,surface,-95.6254,31.6534,6.1e-06
2011-06-09 00:00:00,2011-06-09 00:00:00,PRATE,surface,-94.6879,31.6534,9.5e-06
2011-06-09 00:00:00,2011-06-09 00:00:00,PRATE,surface,-93.7504,31.6534,1.14e-05
2011-06-09 00:00:00,2011-06-09 00:00:00,PRATE,surface,-92.8129,31.6534,1.41e-05
2011-06-09 00:00:00,2011-06-09 00:00:00,PRATE,surface,-107.813,32.5983,0
2011-06-09 00:00:00,2011-06-09 00:00:00,PRATE,surface,-106.875,32.5983,2e-07
2011-06-09 00:00:00,2011-06-09 00:00:00,PRATE,surface,-105.938,32.5983,5e-07
2011-06-09 00:00:00,2011-06-09 00:00:00,PRATE,surface,-105,32.5983,3e-07
2011-06-09 00:00:00,2011-06-09 00:00:00,PRATE,surface,-104.063,32.5983,0
2011-06-09 00:00:00,2011-06-09 00:00:00,PRATE,surface,-103.125,32.5983,0
2011-06-09 00:00:00,2011-06-09 00:00:00,PRATE,surface,-102.188,32.5983,5e-07
2011-06-09 00:00:00,2011-06-09 00:00:00,PRATE,surface,-101.25,32.5983,8e-07
2011-06-09 00:00:00,2011-06-09 00:00:00,PRATE,surface,-100.313,32.5983,3e-07
2011-06-09 00:00:00,2011-06-09 00:00:00,PRATE,surface,-99.3754,32.5983,0
2011-06-09 00:00:00,2011-06-09 00:00:00,PRATE,surface,-98.4379,32.5983,8e-07
2011-06-09 00:00:00,2011-06-09 00:00:00,PRATE,surface,-97.5004,32.5983,8e-07
2011-06-09 00:00:00,2011-06-09 00:00:00,PRATE,surface,-96.5629,32.5983,1e-07
2011-06-09 00:00:00,2011-06-09 00:00:00,PRATE,surface,-95.6254,32.5983,0
2011-06-09 00:00:00,2011-06-09 00:00:00,PRATE,surface,-94.6879,32.5983,1e-07
2011-06-09 00:00:00,2011-06-09 00:00:00,PRATE,surface,-93.7504,32.5983,1e-06
2011-06-09 00:00:00,2011-06-09 00:00:00,PRATE,surface,-92.8129,32.5983,3.8e-06
2011-06-09 00:00:00,2011-06-09 00:00:00,PRATE,surface,-107.813,33.5432,0
2011-06-09 00:00:00,2011-06-09 00:00:00,PRATE,surface,-106.875,33.5432,3e-07
2011-06-09 00:00:00,2011-06-09 00:00:00,PRATE,surface,-105.938,33.5432,9e-07
2011-06-09 00:00:00,2011-06-09 00:00:00,PRATE,surface,-105,33.5432,3e-07
2011-06-09 00:00:00,2011-06-09 00:00:00,PRATE,surface,-104.063,33.5432,1e-06
2011-06-09 00:00:00,2011-06-09 00:00:00,PRATE,surface,-103.125,33.5432,1e-07
2011-06-09 00:00:00,2011-06-09 00:00:00,PRATE,surface,-102.188,33.5432,6e-07
2011-06-09 00:00:00,2011-06-09 00:00:00,PRATE,surface,-101.25,33.5432,8e-07
2011-06-09 00:00:00,2011-06-09 00:00:00,PRATE,surface,-100.313,33.5432,2.7e-06
2011-06-09 00:00:00,2011-06-09 00:00:00,PRATE,surface,-99.3754,33.5432,4.8e-06
2011-06-09 00:00:00,2011-06-09 00:00:00,PRATE,surface,-98.4379,33.5432,4e-06
2011-06-09 00:00:00,2011-06-09 00:00:00,PRATE,surface,-97.5004,33.5432,2.9e-06
2011-06-09 00:00:00,2011-06-09 00:00:00,PRATE,surface,-96.5629,33.5432,4.4e-06
2011-06-09 00:00:00,2011-06-09 00:00:00,PRATE,surface,-95.6254,33.5432,6.4e-06
2011-06-09 00:00:00,2011-06-09 00:00:00,PRATE,surface,-94.6879,33.5432,8.3e-06
2011-06-09 00:00:00,2011-06-09 00:00:00,PRATE,surface,-93.7504,33.5432,1.14e-05
2011-06-09 00:00:00,2011-06-09 00:00:00,PRATE,surface,-92.8129,33.5432,1.22e-05
2011-06-09 00:00:00,2011-06-09 00:00:00,PRATE,surface,-107.813,34.4881,0
2011-06-09 00:00:00,2011-06-09 00:00:00,PRATE,surface,-106.875,34.4881,0
2011-06-09 00:00:00,2011-06-09 00:00:00,PRATE,surface,-105.938,34.4881,1e-07
2011-06-09 00:00:00,2011-06-09 00:00:00,PRATE,surface,-105,34.4881,2e-07
2011-06-09 00:00:00,2011-06-09 00:00:00,PRATE,surface,-104.063,34.4881,1e-06
2011-06-09 00:00:00,2011-06-09 00:00:00,PRATE,surface,-103.125,34.4881,3e-07
2011-06-09 00:00:00,2011-06-09 00:00:00,PRATE,surface,-102.188,34.4881,4e-07
2011-06-09 00:00:00,2011-06-09 00:00:00,PRATE,surface,-101.25,34.4881,4e-06
2011-06-09 00:00:00,2011-06-09 00:00:00,PRATE,surface,-100.313,34.4881,8.6e-06
2011-06-09 00:00:00,2011-06-09 00:00:00,PRATE,surface,-99.3754,34.4881,9e-06
2011-06-09 00:00:00,2011-06-09 00:00:00,PRATE,surface,-98.4379,34.4881,7.3e-06
2011-06-09 00:00:00,2011-06-09 00:00:00,PRATE,surface,-97.5004,34.4881,7.3e-06
2011-06-09 00:00:00,2011-06-09 00:00:00,PRATE,surface,-96.5629,34.4881,7.4e-06
2011-06-09 00:00:00,2011-06-09 00:00:00,PRATE,surface,-95.6254,34.4881,7e-06
2011-06-09 00:00:00,2011-06-09 00:00:00,PRATE,surface,-94.6879,34.4881,8.5e-06
2011-06-09 00:00:00,2011-06-09 00:00:00,PRATE,surface,-93.7504,34.4881,9.8e-06
2011-06-09 00:00:00,2011-06-09 00:00:00,PRATE,surface,-92.8129,34.4881,1.06e-05
2011-06-09 00:00:00,2011-06-09 00:00:00,PRATE,surface,-107.813,35.4329,0
2011-06-09 00:00:00,2011-06-09 00:00:00,PRATE,surface,-106.875,35.4329,0
2011-06-09 00:00:00,2011-06-09 00:00:00,PRATE,surface,-105.938,35.4329,0
2011-06-09 00:00:00,2011-06-09 00:00:00,PRATE,surface,-105,35.4329,8e-07
2011-06-09 00:00:00,2011-06-09 00:00:00,PRATE,surface,-104.063,35.4329,6e-06
2011-06-09 00:00:00,2011-06-09 00:00:00,PRATE,surface,-103.125,35.4329,6.3e-06
2011-06-09 00:00:00,2011-06-09 00:00:00,PRATE,surface,-102.188,35.4329,7.1e-06
2011-06-09 00:00:00,2011-06-09 00:00:00,PRATE,surface,-101.25,35.4329,1.17e-05
2011-06-09 00:00:00,2011-06-09 00:00:00,PRATE,surface,-100.313,35.4329,1.03e-05
2011-06-09 00:00:00,2011-06-09 00:00:00,PRATE,surface,-99.3754,35.4329,7.1e-06
2011-06-09 00:00:00,2011-06-09 00:00:00,PRATE,surface,-98.4379,35.4329,9.3e-06
2011-06-09 00:00:00,2011-06-09 00:00:00,PRATE,surface,-97.5004,35.4329,1.17e-05
2011-06-09 00:00:00,2011-06-09 00:00:00,PRATE,surface,-96.5629,35.4329,9.3e-06
2011-06-09 00:00:00,2011-06-09 00:00:00,PRATE,surface,-95.6254,35.4329,6.7e-06
2011-06-09 00:00:00,2011-06-09 00:00:00,PRATE,surface,-94.6879,35.4329,7.6e-06
2011-06-09 00:00:00,2011-06-09 00:00:00,PRATE,surface,-93.7504,35.4329,9.7e-06
2011-06-09 00:00:00,2011-06-09 00:00:00,PRATE,surface,-92.8129,35.4329,1.37e-05
2011-06-09 00:00:00,2011-06-09 00:00:00,PRATE,surface,-107.813,36.3778,0
2011-06-09 00:00:00,2011-06-09 00:00:00,PRATE,surface,-106.875,36.3778,0
2011-06-09 00:00:00,2011-06-09 00:00:00,PRATE,surface,-105.938,36.3778,2e-07
2011-06-09 00:00:00,2011-06-09 00:00:00,PRATE,surface,-105,36.3778,1.4e-06
2011-06-09 00:00:00,2011-06-09 00:00:00,PRATE,surface,-104.063,36.3778,1.71e-05
2011-06-09 00:00:00,2011-06-09 00:00:00,PRATE,surface,-103.125,36.3778,1.74e-05
2011-06-09 00:00:00,2011-06-09 00:00:00,PRATE,surface,-102.188,36.3778,1.47e-05
2011-06-09 00:00:00,2011-06-09 00:00:00,PRATE,surface,-101.25,36.3778,1.8e-05
2011-06-09 00:00:00,2011-06-09 00:00:00,PRATE,surface,-100.313,36.3778,2.61e-05
2011-06-09 00:00:00,2011-06-09 00:00:00,PRATE,surface,-99.3754,36.3778,2.77e-05
2011-06-09 00:00:00,2011-06-09 00:00:00,PRATE,surface,-98.4379,36.3778,2.74e-05
2011-06-09 00:00:00,2011-06-09 00:00:00,PRATE,surface,-97.5004,36.3778,2.92e-05
2011-06-09 00:00:00,2011-06-09 00:00:00,PRATE,surface,-96.5629,36.3778,2.68e-05
2011-06-09 00:00:00,2011-06-09 00:00:00,PRATE,surface,-95.6254,36.3778,2.17e-05
2011-06-09 00:00:00,2011-06-09 00:00:00,PRATE,surface,-94.6879,36.3778,1.93e-05
2011-06-09 00:00:00,2011-06-09 00:00:00,PRATE,surface,-93.7504,36.3778,1.62e-05
2011-06-09 00:00:00,2011-06-09 00:00:00,PRATE,surface,-92.8129,36.3778,2.3e-05
