2012-09-10 00:00:00,2012-09-10 00:00:00,TMP,surface,-107.813,25.0393,295.473
2012-09-10 00:00:00,2012-09-10 00:00:00,TMP,surface,-106.875,25.0393,289.72
2012-09-10 00:00:00,2012-09-10 00:00:00,TMP,surface,-105.938,25.0393,284.267
2012-09-10 00:00:00,2012-09-10 00:00:00,TMP,surface,-105,25.0393,285.851
2012-09-10 00:00:00,2012-09-10 00:00:00,TMP,surface,-104.063,25.0393,290.609
2012-09-10 00:00:00,2012-09-10 00:00:00,TMP,surface,-103.125,25.0393,292.836
2012-09-10 00:00:00,2012-09-10 00:00:00,TMP,surface,-102.188,25.0393,291.262
2012-09-10 00:00:00,2012-09-10 00:00:00,TMP,surface,-101.25,25.0393,290.436
2012-09-10 00:00:00,2012-09-10 00:00:00,TMP,surface,-100.313,25.0393,290.486
2012-09-10 00:00:00,2012-09-10 00:00:00,TMP,surface,-99.3754,25.0393,292.883
2012-09-10 00:00:00,2012-09-10 00:00:00,TMP,surface,-98.4379,25.0393,295.219
2012-09-10 00:00:00,2012-09-10 00:00:00,TMP,surface,-97.5004,25.0393,296.097
2012-09-10 00:00:00,2012-09-10 00:00:00,TMP,surface,-96.5629,25.0393,295.944
2012-09-10 00:00:00,2012-09-10 00:00:00,TMP,surface,-95.6254,25.0393,295.952
2012-09-10 00:00:00,2012-09-10 00:00:00,TMP,surface,-94.6879,25.0393,295.979
2012-09-10 00:00:00,2012-09-10 00:00:00,TMP,surface,-93.7504,25.0393,296.144
2012-09-10 00:00:00,2012-09-10 00:00:00,TMP,surface,-92.8129,25.0393,296.553
2012-09-10 00:00:00,2012-09-10 00:00:00,TMP,surface,-107.813,25.9842,291.67
2012-09-10 00:00:00,2012-09-10 00:00:00,TMP,surface,-106.875,25.9842,285.51
2012-09-10 00:00:00,2012-09-10 00:00:00,TMP,surface,-105.938,25.9842,284.059
2012-09-10 00:00:00,2012-09-10 00:00:00,TMP,surface,-105,25.9842,288.868
2012-09-10 00:00:00,2012-09-10 00:00:00,TMP,surface,-104.063,25.9842,293.576
2012-09-10 00:00:00,2012-09-10 00:00:00,TMP,surface,-103.125,25.9842,294.536
2012-09-10 00:00:00,2012-09-10 00:00:00,TMP,surface,-102.188,25.9842,293.48
2012-09-10 00:00:00,2012-09-10 00:00:00,TMP,surface,-101.25,25.9842,291.987
2012-09-10 00:00:00,2012-09-10 00:00:00,TMP,surface,-100.313,25.9842,292.099
2012-09-10 00:00:00,2012-09-10 00:00:00,TMP,surface,-99.3754,25.9842,293.955
2012-09-10 00:00:00,2012-09-10 00:00:00,TMP,surface,-98.4379,25.9842,294.849
2012-09-10 00:00:00,2012-09-10 00:00:00,TMP,surface,-97.5004,25.9842,294.489
2012-09-10 00:00:00,2012-09-10 00:00:00,TMP,surface,-96.5629,25.9842,295.181
2012-09-10 00:00:00,2012-09-10 00:00:00,TMP,surface,-95.6254,25.9842,295.393
2012-09-10 00:00:00,2012-09-10 00:00:00,TMP,surface,-94.6879,25.9842,295.24
2012-09-10 00:00:00,2012-09-10 00:00:00,TMP,surface,-93.7504,25.9842,295.224
2012-09-10 00:00:00,2012-09-10 00:00:00,TMP,surface,-92.8129,25.9842,295.745
2012-09-10 00:00:00,2012-09-10 00:00:00,TMP,surface,-107.813,26.929,286.379
2012-09-10 00:00:00,2012-09-10 00:00:00,TMP,surface,-106.875,26.929,283.763
2012-09-10 00:00:00,2012-09-10 00:00:00,TMP,surface,-105.938,26.929,286.939
2012-09-10 00:00:00,2012-09-10 00:00:00,TMP,surface,-105,26.929,292.006
2012-09-10 00:00:00,2012-09-10 00:00:00,TMP,surface,-104.063,26.929,293.651
2012-09-10 00:00:00,2012-09-10 00:00:00,TMP,surface,-103.125,26.929,293.288
2012-09-10 00:00:00,2012-09-10 00:00:00,TMP,surface,-102.188,26.929,292.065
2012-09-10 00:00:00,2012-09-10 00:00:00,TMP,surface,-101.25,26.929,292.144
2012-09-10 00:00:00,2012-09-10 00:00:00,TMP,surface,-100.313,26.929,292.904
2012-09-10 00:00:00,2012-09-10 00:00:00,TMP,surface,-99.3754,26.929,293.614
2012-09-10 00:00:00,2012-09-10 00:00:00,TMP,surface,-98.4379,26.929,293.125
2012-09-10 00:00:00,2012-09-10 00:00:00,TMP,surface,-97.5004,26.929,293.974
2012-09-10 00:00:00,2012-09-10 00:00:00,TMP,surface,-96.5629,26.929,294.233
2012-09-10 00:00:00,2012-09-10 00:00:00,TMP,surface,-95.6254,26.929,294.806
2012-09-10 00:00:00,2012-09-10 00:00:00,TMP,surface,-94.6879,26.929,294.828
2012-09-10 00:00:00,2012-09-10 00:00:00,TMP,surface,-93.7504,26.929,294.44
2012-09-10 00:00:00,2012-09-10 00:00:00,TMP,surface,-92.8129,26.929,294.497
2012-09-10 00:00:00,2012-09-10 00:00:00,TMP,surface,-107.813,27.8739,283.894
2012-09-10 00:00:00,2012-09-10 00:00:00,TMP,surface,-106.875,27.8739,284.753
2012-09-10 00:00:00,2012-09-10 00:00:00,TMP,surface,-105.938,27.8739,289.267
2012-09-10 00:00:00,2012-09-10 00:00:00,TMP,surface,-105,27.8739,292.492
2012-09-10 00:00:00,2012-09-10 00:00:00,TMP,surface,-104.063,27.8739,292.433
2012-09-10 00:00:00,2012-09-10 00:00:00,TMP,surface,-103.125,27.8739,291.057
2012-09-10 00:00:00,2012-09-10 00:00:00,TMP,surface,-102.188,27.8739,290.166
2012-09-10 00:00:00,2012-09-10 00:00:00,TMP,surface,-101.25,27.8739,290.995
2012-09-10 00:00:00,2012-09-10 00:00:00,TMP,surface,-100.313,27.8739,291.988
2012-09-10 00:00:00,2012-09-10 00:00:00,TMP,surface,-99.3754,27.8739,291.822
2012-09-10 00:00:00,2012-09-10 00:00:00,TMP,surface,-98.4379,27.8739,291.204
2012-09-10 00:00:00,2012-09-10 00:00:00,TMP,surface,-97.5004,27.8739,292.337
2012-09-10 00:00:00,2012-09-10 00:00:00,TMP,surface,-96.5629,27.8739,293.832
2012-09-10 00:00:00,2012-09-10 00:00:00,TMP,surface,-95.6254,27.8739,293.918
2012-09-10 00:00:00,2012-09-10 00:00:00,TMP,surface,-94.6879,27.8739,293.744
2012-09-10 00:00:00,2012-09-10 00:00:00,TMP,surface,-93.7504,27.8739,293.496
2012-09-10 00:00:00,2012-09-10 00:00:00,TMP,surface,-92.8129,27.8739,293.467
2012-09-10 00:00:00,2012-09-10 00:00:00,TMP,surface,-107.813,28.8188,283.502
2012-09-10 00:00:00,2012-09-10 00:00:00,TMP,surface,-106.875,28.8188,285.619
2012-09-10 00:00:00,2012-09-10 00:00:00,TMP,surface,-105.938,28.8188,289.6
2012-09-10 00:00:00,2012-09-10 00:00:00,TMP,surface,-105,28.8188,292.139
2012-09-10 00:00:00,2012-09-10 00:00:00,TMP,surface,-104.063,28.8188,291.39
2012-09-10 00:00:00,2012-09-10 00:00:00,TMP,surface,-103.125,28.8188,289.961
2012-09-10 00:00:00,2012-09-10 00:00:00,TMP,surface,-102.188,28.8188,289.265
2012-09-10 00:00:00,2012-09-10 00:00:00,TMP,surface,-101.25,28.8188,290.062
2012-09-10 00:00:00,2012-09-10 00:00:00,TMP,surface,-100.313,28.8188,290.238
2012-09-10 00:00:00,2012-09-10 00:00:00,TMP,surface,-99.3754,28.8188,289.758
2012-09-10 00:00:00,2012-09-10 00:00:00,TMP,surface,-98.4379,28.8188,289.484
2012-09-10 00:00:00,2012-09-10 00:00:00,TMP,surface,-97.5004,28.8188,289.739
2012-09-10 00:00:00,2012-09-10 00:00:00,TMP,surface,-96.5629,28.8188,290.275
2012-09-10 00:00:00,2012-09-10 00:00:00,TMP,surface,-95.6254,28.8188,291.505
2012-09-10 00:00:00,2012-09-10 00:00:00,TMP,surface,-94.6879,28.8188,292.98
2012-09-10 00:00:00,2012-09-10 00:00:00,TMP,surface,-93.7504,28.8188,292.987
2012-09-10 00:00:00,2012-09-10 00:00:00,TMP,surface,-92.8129,28.8188,293.04
2012-09-10 00:00:00,2012-09-10 00:00:00,TMP,surface,-107.813,29.7637,285.276
2012-09-10 00:00:00,2012-09-10 00:00:00,TMP,surface,-106.875,29.7637,286.865
2012-09-10 00:00:00,2012-09-10 00:00:00,TMP,surface,-105.938,29.7637,289.409
2012-09-10 00:00:00,2012-09-10 00:00:00,TMP,surface,-105,29.7637,290.31
2012-09-10 00:00:00,2012-09-10 00:00:00,TMP,surface,-104.063,29.7637,290.108
2012-09-10 00:00:00,2012-09-10 00:00:00,TMP,surface,-103.125,29.7637,289.825
2012-09-10 00:00:00,2012-09-10 00:00:00,TMP,surface,-102.188,29.7637,289.909
2012-09-10 00:00:00,2012-09-10 00:00:00,TMP,surface,-101.25,29.7637,289.616
2012-09-10 00:00:00,2012-09-10 00:00:00,TMP,surface,-100.313,29.7637,288.705
2012-09-10 00:00:00,2012-09-10 00:00:00,TMP,surface,-99.3754,29.7637,288.06
2012-09-10 00:00:00,2012-09-10 00:00:00,TMP,surface,-98.4379,29.7637,287.96
2012-09-10 00:00:00,2012-09-10 00:00:00,TMP,surface,-97.5004,29.7637,288.168
2012-09-10 00:00:00,2012-09-10 00:00:00,TMP,surface,-96.5629,29.7637,288.558
2012-09-10 00:00:00,2012-09-10 00:00:00,TMP,surface,-95.6254,29.7637,289.164
2012-09-10 00:00:00,2012-09-10 00:00:00,TMP,surface,-94.6879,29.7637,290.635
2012-09-10 00:00:00,2012-09-10 00:00:00,TMP,surface,-93.7504,29.7637,292.237
2012-09-10 00:00:00,2012-09-10 00:00:00,TMP,surface,-92.8129,29.7637,290.569
2012-09-10 00:00:00,2012-09-10 00:00:00,TMP,surface,-107.813,30.7085,288.401
2012-09-10 00:00:00,2012-09-10 00:00:00,TMP,surface,-106.875,30.7085,289.181
2012-09-10 00:00:00,2012-09-10 00:00:00,TMP,surface,-105.938,30.7085,289.1
2012-09-10 00:00:00,2012-09-10 00:00:00,TMP,surface,-105,30.7085,288.716
2012-09-10 00:00:00,2012-09-10 00:00:00,TMP,surface,-104.063,30.7085,288.733
2012-09-10 00:00:00,2012-09-10 00:00:00,TMP,surface,-103.125,30.7085,289.752
2012-09-10 00:00:00,2012-09-10 00:00:00,TMP,surface,-102.188,30.7085,289.838
2012-09-10 00:00:00,2012-09-10 00:00:00,TMP,surface,-101.25,30.7085,288.939
2012-09-10 00:00:00,2012-09-10 00:00:00,TMP,surface,-100.313,30.7085,287.731
2012-09-10 00:00:00,2012-09-10 00:00:00,TMP,surface,-99.3754,30.7085,287.07
2012-09-10 00:00:00,2012-09-10 00:00:00,TMP,surface,-98.4379,30.7085,287.108
2012-09-10 00:00:00,2012-09-10 00:00:00,TMP,surface,-97.5004,30.7085,287.438
2012-09-10 00:00:00,2012-09-10 00:00:00,TMP,surface,-96.5629,30.7085,288.046
2012-09-10 00:00:00,2012-09-10 00:00:00,TMP,surface,-95.6254,30.7085,288.8
2012-09-10 00:00:00,2012-09-10 00:00:00,TMP,surface,-94.6879,30.7085,289.19
2012-09-10 00:00:00,2012-09-10 00:00:00,TMP,surface,-93.7504,30.7085,289.232
2012-09-10 00:00:00,2012-09-10 00:00:00,TMP,surface,-92.8129,30.7085,288.884
2012-09-10 00:00:00,2012-09-10 00:00:00,TMP,surface,-107.813,31.6534,288.856
2012-09-10 00:00:00,2012-09-10 00:00:00,TMP,surface,-106.875,31.6534,289.145
2012-09-10 00:00:00,2012-09-10 00:00:00,TMP,surface,-105.938,31.6534,288.152
2012-09-10 00:00:00,2012-09-10 00:00:00,TMP,surface,-105,31.6534,287.411
2012-09-10 00:00:00,2012-09-10 00:00:00,TMP,surface,-104.063,31.6534,287.835
2012-09-10 00:00:00,2012-09-10 00:00:00,TMP,surface,-103.125,31.6534,288.883
2012-09-10 00:00:00,2012-09-10 00:00:00,TMP,surface,-102.188,31.6534,288.977
2012-09-10 00:00:00,2012-09-10 00:00:00,TMP,surface,-101.25,31.6534,288.105
2012-09-10 00:00:00,2012-09-10 00:00:00,TMP,surface,-100.313,31.6534,287.161
2012-09-10 00:00:00,2012-09-10 00:00:00,TMP,surface,-99.3754,31.6534,286.649
2012-09-10 00:00:00,2012-09-10 00:00:00,TMP,surface,-98.4379,31.6534,286.689
2012-09-10 00:00:00,2012-09-10 00:00:00,TMP,surface,-97.5004,31.6534,287.016
2012-09-10 00:00:00,2012-09-10 00:00:00,TMP,surface,-96.5629,31.6534,287.656
2012-09-10 00:00:00,2012-09-10 00:00:00,TMP,surface,-95.6254,31.6534,288.347
2012-09-10 00:00:00,2012-09-10 00:00:00,TMP,surface,-94.6879,31.6534,288.565
2012-09-10 00:00:00,2012-09-10 00:00:00,TMP,surface,-93.7504,31.6534,288.565
2012-09-10 00:00:00,2012-09-10 00:00:00,TMP,surface,-92.8129,31.6534,288.446
2012-09-10 00:00:00,2012-09-10 00:00:00,TMP,surface,-107.813,32.5983,285.254
2012-09-10 00:00:00,2012-09-10 00:00:00,TMP,surface,-106.875,32.5983,285.739
2012-09-10 00:00:00,2012-09-10 00:00:00,TMP,surface,-105.938,32.5983,285.776
2012-09-10 00:00:00,2012-09-10 00:00:00,TMP,surface,-105,32.5983,285.585
2012-09-10 00:00:00,2012-09-10 00:00:00,TMP,surface,-104.063,32.5983,286.747
2012-09-10 00:00:00,2012-09-10 00:00:00,TMP,surface,-103.125,32.5983,287.816
2012-09-10 00:00:00,2012-09-10 00:00:00,TMP,surface,-102.188,32.5983,287.705
2012-09-10 00:00:00,2012-09-10 00:00:00,TMP,surface,-101.25,32.5983,287.39
2012-09-10 00:00:00,2012-09-10 00:00:00,TMP,surface,-100.313,32.5983,287.134
2012-09-10 00:00:00,2012-09-10 00:00:00,TMP,surface,-99.3754,32.5983,286.894
2012-09-10 00:00:00,2012-09-10 00:00:00,TMP,surface,-98.4379,32.5983,286.716
2012-09-10 00:00:00,2012-09-10 00:00:00,TMP,surface,-97.5004,32.5983,286.753
2012-09-10 00:00:00,2012-09-10 00:00:00,TMP,surface,-96.5629,32.5983,287.164
2012-09-10 00:00:00,2012-09-10 00:00:00,TMP,surface,-95.6254,32.5983,287.739
2012-09-10 00:00:00,2012-09-10 00:00:00,TMP,surface,-94.6879,32.5983,288.016
2012-09-10 00:00:00,2012-09-10 00:00:00,TMP,surface,-93.7504,32.5983,288.048
2012-09-10 00:00:00,2012-09-10 00:00:00,TMP,surface,-92.8129,32.5983,288.237
2012-09-10 00:00:00,2012-09-10 00:00:00,TMP,surface,-107.813,33.5432,280.853
2012-09-10 00:00:00,2012-09-10 00:00:00,TMP,surface,-106.875,33.5432,281.888
2012-09-10 00:00:00,2012-09-10 00:00:00,TMP,surface,-105.938,33.5432,282.753
2012-09-10 00:00:00,2012-09-10 00:00:00,TMP,surface,-105,33.5432,283.761
2012-09-10 00:00:00,2012-09-10 00:00:00,TMP,surface,-104.063,33.5432,285.581
2012-09-10 00:00:00,2012-09-10 00:00:00,TMP,surface,-103.125,33.5432,286.169
2012-09-10 00:00:00,2012-09-10 00:00:00,TMP,surface,-102.188,33.5432,286.051
2012-09-10 00:00:00,2012-09-10 00:00:00,TMP,surface,-101.25,33.5432,286.096
2012-09-10 00:00:00,2012-09-10 00:00:00,TMP,surface,-100.313,33.5432,286.63
2012-09-10 00:00:00,2012-09-10 00:00:00,TMP,surface,-99.3754,33.5432,286.689
2012-09-10 00:00:00,2012-09-10 00:00:00,TMP,surface,-98.4379,33.5432,286.352
2012-09-10 00:00:00,2012-09-10 00:00:00,TMP,surface,-97.5004,33.5432,286.147
2012-09-10 00:00:00,2012-09-10 00:00:00,TMP,surface,-96.5629,33.5432,286.278
2012-09-10 00:00:00,2012-09-10 00:00:00,TMP,surface,-95.6254,33.5432,286.712
2012-09-10 00:00:00,2012-09-10 00:00:00,TMP,surface,-94.6879,33.5432,287.136
2012-09-10 00:00:00,2012-09-10 00:00:00,TMP,surface,-93.7504,33.5432,287.251
2012-09-10 00:00:00,2012-09-10 00:00:00,TMP,surface,-92.8129,33.5432,287.424
2012-09-10 00:00:00,2012-09-10 00:00:00,TMP,surface,-107.813,34.4881,279.245
2012-09-10 00:00:00,2012-09-10 00:00:00,TMP,surface,-106.875,34.4881,280.344
2012-09-10 00:00:00,2012-09-10 00:00:00,TMP,surface,-105.938,34.4881,281.357
2012-09-10 00:00:00,2012-09-10 00:00:00,TMP,surface,-105,34.4881,282.809
2012-09-10 00:00:00,2012-09-10 00:00:00,TMP,surface,-104.063,34.4881,283.82
2012-09-10 00:00:00,2012-09-10 00:00:00,TMP,surface,-103.125,34.4881,284.305
2012-09-10 00:00:00,2012-09-10 00:00:00,TMP,surface,-102.188,34.4881,284.513
2012-09-10 00:00:00,2012-09-10 00:00:00,TMP,surface,-101.25,34.4881,284.934
2012-09-10 00:00:00,2012-09-10 00:00:00,TMP,surface,-100.313,34.4881,285.376
2012-09-10 00:00:00,2012-09-10 00:00:00,TMP,surface,-99.3754,34.4881,285.723
2012-09-10 00:00:00,2012-09-10 00:00:00,TMP,surface,-98.4379,34.4881,285.677
2012-09-10 00:00:00,2012-09-10 00:00:00,TMP,surface,-97.5004,34.4881,285.521
2012-09-10 00:00:00,2012-09-10 00:00:00,TMP,surface,-96.5629,34.4881,285.798
2012-09-10 00:00:00,2012-09-10 00:00:00,TMP,surface,-95.6254,34.4881,286.268
2012-09-10 00:00:00,2012-09-10 00:00:00,TMP,surface,-94.6879,34.4881,286.315
2012-09-10 00:00:00,2012-09-10 00:00:00,TMP,surface,-93.7504,34.4881,286.166
2012-09-10 00:00:00,2012-09-10 00:00:00,TMP,surface,-92.8129,34.4881,286.451
2012-09-10 00:00:00,2012-09-10 00:00:00,TMP,surface,-107.813,35.4329,279.72
2012-09-10 00:00:00,2012-09-10 00:00:00,TMP,surface,-106.875,35.4329,279.616
2012-09-10 00:00:00,2012-09-10 00:00:00,TMP,surface,-105.938,35.4329,279.638
2012-09-10 00:00:00,2012-09-10 00:00:00,TMP,surface,-105,35.4329,280.187
2012-09-10 00:00:00,2012-09-10 00:00:00,TMP,surface,-104.063,35.4329,282.288
2012-09-10 00:00:00,2012-09-10 00:00:00,TMP,surface,-103.125,35.4329,283.536
2012-09-10 00:00:00,2012-09-10 00:00:00,TMP,surface,-102.188,35.4329,283.789
2012-09-10 00:00:00,2012-09-10 00:00:00,TMP,surface,-101.25,35.4329,284.073
2012-09-10 00:00:00,2012-09-10 00:00:00,TMP,surface,-100.313,35.4329,284.432
2012-09-10 00:00:00,2012-09-10 00:00:00,TMP,surface,-99.3754,35.4329,284.6
2012-09-10 00:00:00,2012-09-10 00:00:00,TMP,surface,-98.4379,35.4329,284.774
2012-09-10 00:00:00,2012-09-10 00:00:00,TMP,surface,-97.5004,35.4329,284.993
2012-09-10 00:00:00,2012-09-10 00:00:00,TMP,surface,-96.5629,35.4329,285.155
2012-09-10 00:00:00,2012-09-10 00:00:00,TMP,surface,-95.6254,35.4329,285.297
2012-09-10 00:00:00,2012-09-10 00:00:00,TMP,surface,-94.6879,35.4329,285.297
2012-09-10 00:00:00,2012-09-10 00:00:00,TMP,surface,-93.7504,35.4329,285.009
2012-09-10 00:00:00,2012-09-10 00:00:00,TMP,surface,-92.8129,35.4329,284.96
2012-09-10 00:00:00,2012-09-10 00:00:00,TMP,surface,-107.813,36.3778,279.176
2012-09-10 00:00:00,2012-09-10 00:00:00,TMP,surface,-106.875,36.3778,277.051
2012-09-10 00:00:00,2012-09-10 00:00:00,TMP,surface,-105.938,36.3778,276.736
2012-09-10 00:00:00,2012-09-10 00:00:00,TMP,surface,-105,36.3778,277.987
2012-09-10 00:00:00,2012-09-10 00:00:00,TMP,surface,-104.063,36.3778,280.489
2012-09-10 00:00:00,2012-09-10 00:00:00,TMP,surface,-103.125,36.3778,281.819
2012-09-10 00:00:00,2012-09-10 00:00:00,TMP,surface,-102.188,36.3778,282.574
2012-09-10 00:00:00,2012-09-10 00:00:00,TMP,surface,-101.25,36.3778,283.016
2012-09-10 00:00:00,2012-09-10 00:00:00,TMP,surface,-100.313,36.3778,283.657
2012-09-10 00:00:00,2012-09-10 00:00:00,TMP,surface,-99.3754,36.3778,284.065
2012-09-10 00:00:00,2012-09-10 00:00:00,TMP,surface,-98.4379,36.3778,284.12
2012-09-10 00:00:00,2012-09-10 00:00:00,TMP,surface,-97.5004,36.3778,284.299
2012-09-10 00:00:00,2012-09-10 00:00:00,TMP,surface,-96.5629,36.3778,284.614
2012-09-10 00:00:00,2012-09-10 00:00:00,TMP,surface,-95.6254,36.3778,284.733
2012-09-10 00:00:00,2012-09-10 00:00:00,TMP,surface,-94.6879,36.3778,284.496
2012-09-10 00:00:00,2012-09-10 00:00:00,TMP,surface,-93.7504,36.3778,283.934
2012-09-10 00:00:00,2012-09-10 00:00:00,TMP,surface,-92.8129,36.3778,283.716
2012-09-10 00:00:00,2012-09-10 00:00:00,PRATE,surface,-107.813,25.0393,0
2012-09-10 00:00:00,2012-09-10 00:00:00,PRATE,surface,-106.875,25.0393,0
2012-09-10 00:00:00,2012-09-10 00:00:00,PRATE,surface,-105.938,25.0393,1e-07
2012-09-10 00:00:00,2012-09-10 00:00:00,PRATE,surface,-105,25.0393,3e-07
2012-09-10 00:00:00,2012-09-10 00:00:00,PRATE,surface,-104.063,25.0393,0
2012-09-10 00:00:00,2012-09-10 00:00:00,PRATE,surface,-103.125,25.0393,0
2012-09-10 00:00:00,2012-09-10 00:00:00,PRATE,surface,-102.188,25.0393,2e-07
2012-09-10 00:00:00,2012-09-10 00:00:00,PRATE,surface,-101.25,25.0393,5.9e-06
2012-09-10 00:00:00,2012-09-10 00:00:00,PRATE,surface,-100.313,25.0393,1.62e-05
2012-09-10 00:00:00,2012-09-10 00:00:00,PRATE,surface,-99.3754,25.0393,3.71e-05
2012-09-10 00:00:00,2012-09-10 00:00:00,PRATE,surface,-98.4379,25.0393,3.43e-05
2012-09-10 00:00:00,2012-09-10 00:00:00,PRATE,surface,-97.5004,25.0393,4.26e-05
2012-09-10 00:00:00,2012-09-10 00:00:00,PRATE,surface,-96.5629,25.0393,5.18e-05
2012-09-10 00:00:00,2012-09-10 00:00:00,PRATE,surface,-95.6254,25.0393,5.31e-05
2012-09-10 00:00:00,2012-09-10 00:00:00,PRATE,surface,-94.6879,25.0393,5.22e-05
2012-09-10 00:00:00,2012-09-10 00:00:00,PRATE,surface,-93.7504,25.0393,5.28e-05
2012-09-10 00:00:00,2012-09-10 00:00:00,PRATE,surface,-92.8129,25.0393,5.61e-05
2012-09-10 00:00:00,2012-09-10 00:00:00,PRATE,surface,-107.813,25.9842,1e-07
2012-09-10 00:00:00,2012-09-10 00:00:00,PRATE,surface,-106.875,25.9842,1e-07
2012-09-10 00:00:00,2012-09-10 00:00:00,PRATE,surface,-105.938,25.9842,1e-07
2012-09-10 00:00:00,2012-09-10 00:00:00,PRATE,surface,-105,25.9842,1e-07
2012-09-10 00:00:00,2012-09-10 00:00:00,PRATE,surface,-104.063,25.9842,0
2012-09-10 00:00:00,2012-09-10 00:00:00,PRATE,surface,-103.125,25.9842,0
2012-09-10 00:00:00,2012-09-10 00:00:00,PRATE,surface,-102.188,25.9842,1.2e-06
2012-09-10 00:00:00,2012-09-10 00:00:00,PRATE,surface,-101.25,25.9842,1e-05
2012-09-10 00:00:00,2012-09-10 00:00:00,PRATE,surface,-100.313,25.9842,4.1e-05
2012-09-10 00:00:00,2012-09-10 00:00:00,PRATE,surface,-99.3754,25.9842,3.79e-05
2012-09-10 00:00:00,2012-09-10 00:00:00,PRATE,surface,-98.4379,25.9842,3.7e-05
2012-09-10 00:00:00,2012-09-10 00:00:00,PRATE,surface,-97.5004,25.9842,2.99e-05
2012-09-10 00:00:00,2012-09-10 00:00:00,PRATE,surface,-96.5629,25.9842,2.92e-05
2012-09-10 00:00:00,2012-09-10 00:00:00,PRATE,surface,-95.6254,25.9842,3.89e-05
2012-09-10 00:00:00,2012-09-10 00:00:00,PRATE,surface,-94.6879,25.9842,3.34e-05
2012-09-10 00:00:00,2012-09-10 00:00:00,PRATE,surface,-93.7504,25.9842,4.11e-05
2012-09-10 00:00:00,2012-09-10 00:00:00,PRATE,surface,-92.8129,25.9842,4.95e-05
2012-09-10 00:00:00,2012-09-10 00:00:00,PRATE,surface,-107.813,26.929,8e-07
2012-09-10 00:00:00,2012-09-10 00:00:00,PRATE,surface,-106.875,26.929,9e-07
2012-09-10 00:00:00,2012-09-10 00:00:00,PRATE,surface,-105.938,26.929,4e-07
2012-09-10 00:00:00,2012-09-10 00:00:00,PRATE,surface,-105,26.929,0
2012-09-10 00:00:00,2012-09-10 00:00:00,PRATE,surface,-104.063,26.929,4e-07
2012-09-10 00:00:00,2012-09-10 00:00:00,PRATE,surface,-103.125,26.929,5.2e-06
2012-09-10 00:00:00,2012-09-10 00:00:00,PRATE,surface,-102.188,26.929,9.4e-06
2012-09-10 00:00:00,2012-09-10 00:00:00,PRATE,surface,-101.25,26.929,3.92e-05
2012-09-10 00:00:00,2012-09-10 00:00:00,PRATE,surface,-100.313,26.929,6.77e-05
2012-09-10 00:00:00,2012-09-10 00:00:00,PRATE,surface,-99.3754,26.929,6.26e-05
2012-09-10 00:00:00,2012-09-10 00:00:00,PRATE,surface,-98.4379,26.929,5.04e-05
2012-09-10 00:00:00,2012-09-10 00:00:00,PRATE,surface,-97.5004,26.929,2.59e-05
2012-09-10 00:00:00,2012-09-10 00:00:00,PRATE,surface,-96.5629,26.929,2.2e-05
2012-09-10 00:00:00,2012-09-10 00:00:00,PRATE,surface,-95.6254,26.929,2.02e-05
2012-09-10 00:00:00,2012-09-10 00:00:00,PRATE,surface,-94.6879,26.929,2.46e-05
2012-09-10 00:00:00,2012-09-10 00:00:00,PRATE,surface,-93.7504,26.929,2.64e-05
2012-09-10 00:00:00,2012-09-10 00:00:00,PRATE,surface,-92.8129,26.929,3.1e-05
2012-09-10 00:00:00,2012-09-10 00:00:00,PRATE,surface,-107.813,27.8739,3.7e-06
2012-09-10 00:00:00,2012-09-10 00:00:00,PRATE,surface,-106.875,27.8739,1.3e-06
2012-09-10 00:00:00,2012-09-10 00:00:00,PRATE,surface,-105.938,27.8739,3e-07
2012-09-10 00:00:00,2012-09-10 00:00:00,PRATE,surface,-105,27.8739,3e-07
2012-09-10 00:00:00,2012-09-10 00:00:00,PRATE,surface,-104.063,27.8739,3e-06
2012-09-10 00:00:00,2012-09-10 00:00:00,PRATE,surface,-103.125,27.8739,1.2e-05
2012-09-10 00:00:00,2012-09-10 00:00:00,PRATE,surface,-102.188,27.8739,6.21e-05
2012-09-10 00:00:00,2012-09-10 00:00:00,PRATE,surface,-101.25,27.8739,7.22e-05
2012-09-10 00:00:00,2012-09-10 00:00:00,PRATE,surface,-100.313,27.8739,5.61e-05
2012-09-10 00:00:00,2012-09-10 00:00:00,PRATE,surface,-99.3754,27.8739,6.68e-05
2012-09-10 00:00:00,2012-09-10 00:00:00,PRATE,surface,-98.4379,27.8739,7.61e-05
2012-09-10 00:00:00,2012-09-10 00:00:00,PRATE,surface,-97.5004,27.8739,6.49e-05
2012-09-10 00:00:00,2012-09-10 00:00:00,PRATE,surface,-96.5629,27.8739,5.21e-05
2012-09-10 00:00:00,2012-09-10 00:00:00,PRATE,surface,-95.6254,27.8739,4.55e-05
2012-09-10 00:00:00,2012-09-10 00:00:00,PRATE,surface,-94.6879,27.8739,4.12e-05
2012-09-10 00:00:00,2012-09-10 00:00:00,PRATE,surface,-93.7504,27.8739,4.33e-05
2012-09-10 00:00:00,2012-09-10 00:00:00,PRATE,surface,-92.8129,27.8739,4.48e-05
2012-09-10 00:00:00,2012-09-10 00:00:00,PRATE,surface,-107.813,28.8188,5.8e-06
2012-09-10 00:00:00,2012-09-10 00:00:00,PRATE,surface,-106.875,28.8188,4.7e-06
2012-09-10 00:00:00,2012-09-10 00:00:00,PRATE,surface,-105.938,28.8188,2.7e-06
2012-09-10 00:00:00,2012-09-10 00:00:00,PRATE,surface,-105,28.8188,3.1e-06
2012-09-10 00:00:00,2012-09-10 00:00:00,PRATE,surface,-104.063,28.8188,7.3e-06
2012-09-10 00:00:00,2012-09-10 00:00:00,PRATE,surface,-103.125,28.8188,2.36e-05
2012-09-10 00:00:00,2012-09-10 00:00:00,PRATE,surface,-102.188,28.8188,5.28e-05
2012-09-10 00:00:00,2012-09-10 00:00:00,PRATE,surface,-101.25,28.8188,5.05e-05
2012-09-10 00:00:00,2012-09-10 00:00:00,PRATE,surface,-100.313,28.8188,5.53e-05
2012-09-10 00:00:00,2012-09-10 00:00:00,PRATE,surface,-99.3754,28.8188,8.14e-05
2012-09-10 00:00:00,2012-09-10 00:00:00,PRATE,surface,-98.4379,28.8188,0.0001023
2012-09-10 00:00:00,2012-09-10 00:00:00,PRATE,surface,-97.5004,28.8188,0.0001063
2012-09-10 00:00:00,2012-09-10 00:00:00,PRATE,surface,-96.5629,28.8188,0.0001007
2012-09-10 00:00:00,2012-09-10 00:00:00,PRATE,surface,-95.6254,28.8188,9.16e-05
2012-09-10 00:00:00,2012-09-10 00:00:00,PRATE,surface,-94.6879,28.8188,7.93e-05
2012-09-10 00:00:00,2012-09-10 00:00:00,PRATE,surface,-93.7504,28.8188,6.57e-05
2012-09-10 00:00:00,2012-09-10 00:00:00,PRATE,surface,-92.8129,28.8188,5.52e-05
2012-09-10 00:00:00,2012-09-10 00:00:00,PRATE,surface,-107.813,29.7637,5.6e-06
2012-09-10 00:00:00,2012-09-10 00:00:00,PRATE,surface,-106.875,29.7637,1.11e-05
2012-09-10 00:00:00,2012-09-10 00:00:00,PRATE,surface,-105.938,29.7637,9.8e-06
2012-09-10 00:00:00,2012-09-10 00:00:00,PRATE,surface,-105,29.7637,9.9e-06
2012-09-10 00:00:00,2012-09-10 00:00:00,PRATE,surface,-104.063,29.7637,1.23e-05
2012-09-10 00:00:00,2012-09-10 00:00:00,PRATE,surface,-103.125,29.7637,2.49e-05
2012-09-10 00:00:00,2012-09-10 00:00:00,PRATE,surface,-102.188,29.7637,3.22e-05
2012-09-10 00:00:00,2012-09-10 00:00:00,PRATE,surface,-101.25,29.7637,3.85e-05
2012-09-10 00:00:00,2012-09-10 00:00:00,PRATE,surface,-100.313,29.7637,7.26e-05
2012-09-10 00:00:00,2012-09-10 00:00:00,PRATE,surface,-99.3754,29.7637,0.0001058
2012-09-10 00:00:00,2012-09-10 00:00:00,PRATE,surface,-98.4379,29.7637,0.0001063
2012-09-10 00:00:00,2012-09-10 00:00:00,PRATE,surface,-97.5004,29.7637,0.0001002
2012-09-10 00:00:00,2012-09-10 00:00:00,PRATE,surface,-96.5629,29.7637,9.47e-05
2012-09-10 00:00:00,2012-09-10 00:00:00,PRATE,surface,-95.6254,29.7637,8.15e-05
2012-09-10 00:00:00,2012-09-10 00:00:00,PRATE,surface,-94.6879,29.7637,7.46e-05
2012-09-10 00:00:00,2012-09-10 00:00:00,PRATE,surface,-93.7504,29.7637,7.28e-05
2012-09-10 00:00:00,2012-09-10 00:00:00,PRATE,surface,-92.8129,29.7637,7.26e-05
2012-09-10 00:00:00,2012-09-10 00:00:00,PRATE,surface,-107.813,30.7085,3.5e-06
2012-09-10 00:00:00,2012-09-10 00:00:00,PRATE,surface,-106.875,30.7085,1.09e-05
2012-09-10 00:00:00,2012-09-10 00:00:00,PRATE,surface,-105.938,30.7085,2.14e-05
2012-09-10 00:00:00,2012-09-10 00:00:00,PRATE,surface,-105,30.7085,2.7e-05
2012-09-10 00:00:00,2012-09-10 00:00:00,PRATE,surface,-104.063,30.7085,2.5e-05
2012-09-10 00:00:00,2012-09-10 00:00:00,PRATE,surface,-103.125,30.7085,1.92e-05
2012-09-10 00:00:00,2012-09-10 00:00:00,PRATE,surface,-102.188,30.7085,1.79e-05
2012-09-10 00:00:00,2012-09-10 00:00:00,PRATE,surface,-101.25,30.7085,3.96e-05
2012-09-10 00:00:00,2012-09-10 00:00:00,PRATE,surface,-100.313,30.7085,8.32e-05
2012-09-10 00:00:00,2012-09-10 00:00:00,PRATE,surface,-99.3754,30.7085,0.0001092
2012-09-10 00:00:00,2012-09-10 00:00:00,PRATE,surface,-98.4379,30.7085,0.000101
2012-09-10 00:00:00,2012-09-10 00:00:00,PRATE,surface,-97.5004,30.7085,8.28e-05
2012-09-10 00:00:00,2012-09-10 00:00:00,PRATE,surface,-96.5629,30.7085,6.61e-05
2012-09-10 00:00:00,2012-09-10 00:00:00,PRATE,surface,-95.6254,30.7085,5.01e-05
2012-09-10 00:00:00,2012-09-10 00:00:00,PRATE,surface,-94.6879,30.7085,4.66e-05
2012-09-10 00:00:00,2012-09-10 00:00:00,PRATE,surface,-93.7504,30.7085,5.84e-05
2012-09-10 00:00:00,2012-09-10 00:00:00,PRATE,surface,-92.8129,30.7085,7.53e-05
2012-09-10 00:00:00,2012-09-10 00:00:00,PRATE,surface,-107.813,31.6534,3.7e-06
2012-09-10 00:00:00,2012-09-10 00:00:00,PRATE,surface,-106.875,31.6534,9.2e-06
2012-09-10 00:00:00,2012-09-10 00:00:00,PRATE,surface,-105.938,31.6534,2.48e-05
2012-09-10 00:00:00,2012-09-10 00:00:00,PRATE,surface,-105,31.6534,3.33e-05
2012-09-10 00:00:00,2012-09-10 00:00:00,PRATE,surface,-104.063,31.6534,3.47e-05
2012-09-10 00:00:00,2012-09-10 00:00:00,PRATE,surface,-103.125,31.6534,2.44e-05
2012-09-10 00:00:00,2012-09-10 00:00:00,PRATE,surface,-102.188,31.6534,3.1e-05
2012-09-10 00:00:00,2012-09-10 00:00:00,PRATE,surface,-101.25,31.6534,5.55e-05
2012-09-10 00:00:00,2012-09-10 00:00:00,PRATE,surface,-100.313,31.6534,9.56e-05
2012-09-10 00:00:00,2012-09-10 00:00:00,PRATE,surface,-99.3754,31.6534,0.000121
2012-09-10 00:00:00,2012-09-10 00:00:00,PRATE,surface,-98.4379,31.6534,0.0001246
2012-09-10 00:00:00,2012-09-10 00:00:00,PRATE,surface,-97.5004,31.6534,0.0001133
2012-09-10 00:00:00,2012-09-10 00:00:00,PRATE,surface,-96.5629,31.6534,8.55e-05
2012-09-10 00:00:00,2012-09-10 00:00:00,PRATE,surface,-95.6254,31.6534,5.37e-05
2012-09-10 00:00:00,2012-09-10 00:00:00,PRATE,surface,-94.6879,31.6534,4.1e-05
2012-09-10 00:00:00,2012-09-10 00:00:00,PRATE,surface,-93.7504,31.6534,4.53e-05
2012-09-10 00:00:00,2012-09-10 00:00:00,PRATE,surface,-92.8129,31.6534,5.71e-05
2012-09-10 00:00:00,2012-09-10 00:00:00,PRATE,surface,-107.813,32.5983,1.48e-05
2012-09-10 00:00:00,2012-09-10 00:00:00,PRATE,surface,-106.875,32.5983,1.92e-05
2012-09-10 00:00:00,2012-09-10 00:00:00,PRATE,surface,-105.938,32.5983,2.5e-05
2012-09-10 00:00:00,2012-09-10 00:00:00,PRATE,surface,-105,32.5983,3.42e-05
2012-09-10 00:00:00,2012-09-10 00:00:00,PRATE,surface,-104.063,32.5983,3.15e-05
2012-09-10 00:00:00,2012-09-10 00:00:00,PRATE,surface,-103.125,32.5983,2.6e-05
2012-09-10 00:00:00,2012-09-10 00:00:00,PRATE,surface,-102.188,32.5983,3.53e-05
2012-09-10 00:00:00,2012-09-10 00:00:00,PRATE,surface,-101.25,32.5983,5.95e-05
2012-09-10 00:00:00,2012-09-10 00:00:00,PRATE,surface,-100.313,32.5983,7.54e-05
2012-09-10 00:00:00,2012-09-10 00:00:00,PRATE,surface,-99.3754,32.5983,8.65e-05
2012-09-10 00:00:00,2012-09-10 00:00:00,PRATE,surface,-98.4379,32.5983,0.0001028
2012-09-10 00:00:00,2012-09-10 00:00:00,PRATE,surface,-97.5004,32.5983,0.0001241
2012-09-10 00:00:00,2012-09-10 00:00:00,PRATE,surface,-96.5629,32.5983,0.000115
2012-09-10 00:00:00,2012-09-10 00:00:00,PRATE,surface,-95.6254,32.5983,7.57e-05
2012-09-10 00:00:00,2012-09-10 00:00:00,PRATE,surface,-94.6879,32.5983,5.19e-05
2012-09-10 00:00:00,2012-09-10 00:00:00,PRATE,surface,-93.7504,32.5983,4.27e-05
2012-09-10 00:00:00,2012-09-10 00:00:00,PRATE,surface,-92.8129,32.5983,3.83e-05
2012-09-10 00:00:00,2012-09-10 00:00:00,PRATE,surface,-107.813,33.5432,5.05e-05
2012-09-10 00:00:00,2012-09-10 00:00:00,PRATE,surface,-106.875,33.5432,5.39e-05
2012-09-10 00:00:00,2012-09-10 00:00:00,PRATE,surface,-105.938,33.5432,4.36e-05
2012-09-10 00:00:00,2012-09-10 00:00:00,PRATE,surface,-105,33.5432,3.69e-05
2012-09-10 00:00:00,2012-09-10 00:00:00,PRATE,surface,-104.063,33.5432,3.35e-05
2012-09-10 00:00:00,2012-09-10 00:00:00,PRATE,surface,-103.125,33.5432,3.85e-05
2012-09-10 00:00:00,2012-09-10 00:00:00,PRATE,surface,-102.188,33.5432,5.17e-05
2012-09-10 00:00:00,2012-09-10 00:00:00,PRATE,surface,-101.25,33.5432,6.04e-05
2012-09-10 00:00:00,2012-09-10 00:00:00,PRATE,surface,-100.313,33.5432,5.77e-05
2012-09-10 00:00:00,2012-09-10 00:00:00,PRATE,surface,-99.3754,33.5432,5.21e-05
2012-09-10 00:00:00,2012-09-10 00:00:00,PRATE,surface,-98.4379,33.5432,6.04e-05
2012-09-10 00:00:00,2012-09-10 00:00:00,PRATE,surface,-97.5004,33.5432,9.32e-05
2012-09-10 00:00:00,2012-09-10 00:00:00,PRATE,surface,-96.5629,33.5432,0.0001167
2012-09-10 00:00:00,2012-09-10 00:00:00,PRATE,surface,-95.6254,33.5432,0.0001004
2012-09-10 00:00:00,2012-09-10 00:00:00,PRATE,surface,-94.6879,33.5432,6.95e-05
2012-09-10 00:00:00,2012-09-10 00:00:00,PRATE,surface,-93.7504,33.5432,5.2e-05
2012-09-10 00:00:00,2012-09-10 00:00:00,PRATE,surface,-92.8129,33.5432,4.01e-05
2012-09-10 00:00:00,2012-09-10 00:00:00,PRATE,surface,-107.813,34.4881,5.01e-05
2012-09-10 00:00:00,2012-09-10 00:00:00,PRATE,surface,-106.875,34.4881,4.87e-05
2012-09-10 00:00:00,2012-09-10 00:00:00,PRATE,surface,-105.938,34.4881,4.13e-05
2012-09-10 00:00:00,2012-09-10 00:00:00,PRATE,surface,-105,34.4881,3.94e-05
2012-09-10 00:00:00,2012-09-10 00:00:00,PRATE,surface,-104.063,34.4881,4.17e-05
2012-09-10 00:00:00,2012-09-10 00:00:00,PRATE,surface,-103.125,34.4881,4.64e-05
2012-09-10 00:00:00,2012-09-10 00:00:00,PRATE,surface,-102.188,34.4881,6.16e-05
2012-09-10 00:00:00,2012-09-10 00:00:00,PRATE,surface,-101.25,34.4881,7.75e-05
2012-09-10 00:00:00,2012-09-10 00:00:00,PRATE,surface,-100.313,34.4881,7.45e-05
2012-09-10 00:00:00,2012-09-10 00:00:00,PRATE,surface,-99.3754,34.4881,5.83e-05
2012-09-10 00:00:00,2012-09-10 00:00:00,PRATE,surface,-98.4379,34.4881,5.45e-05
2012-09-10 00:00:00,2012-09-10 00:00:00,PRATE,surface,-97.5004,34.4881,7.47e-05
2012-09-10 00:00:00,2012-09-10 00:00:00,PRATE,surface,-96.5629,34.4881,9.85e-05
2012-09-10 00:00:00,2012-09-10 00:00:00,PRATE,surface,-95.6254,34.4881,0.0001022
2012-09-10 00:00:00,2012-09-10 00:00:00,PRATE,surface,-94.6879,34.4881,8.71e-05
2012-09-10 00:00:00,2012-09-10 00:00:00,PRATE,surface,-93.7504,34.4881,6.64e-05
2012-09-10 00:00:00,2012-09-10 00:00:00,PRATE,surface,-92.8129,34.4881,4.63e-05
2012-09-10 00:00:00,2012-09-10 00:00:00,PRATE,surface,-107.813,35.4329,3.57e-05
2012-09-10 00:00:00,2012-09-10 00:00:00,PRATE,surface,-106.875,35.4329,3.7e-05
2012-09-10 00:00:00,2012-09-10 00:00:00,PRATE,surface,-105.938,35.4329,4.08e-05
2012-09-10 00:00:00,2012-09-10 00:00:00,PRATE,surface,-105,35.4329,4.75e-05
2012-09-10 00:00:00,2012-09-10 00:00:00,PRATE,surface,-104.063,35.4329,5.54e-05
2012-09-10 00:00:00,2012-09-10 00:00:00,PRATE,surface,-103.125,35.4329,6.07e-05
2012-09-10 00:00:00,2012-09-10 00:00:00,PRATE,surface,-102.188,35.4329,7.7e-05
2012-09-10 00:00:00,2012-09-10 00:00:00,PRATE,surface,-101.25,35.4329,9.59e-05
2012-09-10 00:00:00,2012-09-10 00:00:00,PRATE,surface,-100.313,35.4329,0.0001013
2012-09-10 00:00:00,2012-09-10 00:00:00,PRATE,surface,-99.3754,35.4329,9.09e-05
2012-09-10 00:00:00,2012-09-10 00:00:00,PRATE,surface,-98.4379,35.4329,7.82e-05
2012-09-10 00:00:00,2012-09-10 00:00:00,PRATE,surface,-97.5004,35.4329,7.29e-05
2012-09-10 00:00:00,2012-09-10 00:00:00,PRATE,surface,-96.5629,35.4329,7.57e-05
2012-09-10 00:00:00,2012-09-10 00:00:00,PRATE,surface,-95.6254,35.4329,8.21e-05
2012-09-10 00:00:00,2012-09-10 00:00:00,PRATE,surface,-94.6879,35.4329,8.44e-05
2012-09-10 00:00:00,2012-09-10 00:00:00,PRATE,surface,-93.7504,35.4329,7.68e-05
2012-09-10 00:00:00,2012-09-10 00:00:00,PRATE,surface,-92.8129,35.4329,6.15e-05
2012-09-10 00:00:00,2012-09-10 00:00:00,PRATE,surface,-107.813,36.3778,4.18e-05
2012-09-10 00:00:00,2012-09-10 00:00:00,PRATE,surface,-106.875,36.3778,5.3e-05
2012-09-10 00:00:00,2012-09-10 00:00:00,PRATE,surface,-105.938,36.3778,5.56e-05
2012-09-10 00:00:00,2012-09-10 00:00:00,PRATE,surface,-105,36.3778,5.12e-05
2012-09-10 00:00:00,2012-09-10 00:00:00,PRATE,surface,-104.063,36.3778,6.12e-05
2012-09-10 00:00:00,2012-09-10 00:00:00,PRATE,surface,-103.125,36.3778,6.6e-05
2012-09-10 00:00:00,2012-09-10 00:00:00,PRATE,surface,-102.188,36.3778,7.36e-05
2012-09-10 00:00:00,2012-09-10 00:00:00,PRATE,surface,-101.25,36.3778,8.55e-05
2012-09-10 00:00:00,2012-09-10 00:00:00,PRATE,surface,-100.313,36.3778,9.42e-05
2012-09-10 00:00:00,2012-09-10 00:00:00,PRATE,surface,-99.3754,36.3778,9.16e-05
2012-09-10 00:00:00,2012-09-10 00:00:00,PRATE,surface,-98.4379,36.3778,8.02e-05
2012-09-10 00:00:00,2012-09-10 00:00:00,PRATE,surface,-97.5004,36.3778,6.35e-05
2012-09-10 00:00:00,2012-09-10 00:00:00,PRATE,surface,-96.5629,36.3778,5.13e-05
2012-09-10 00:00:00,2012-09-10 00:00:00,PRATE,surface,-95.6254,36.3778,5.27e-05
2012-09-10 00:00:00,2012-09-10 00:00:00,PRATE,surface,-94.6879,36.3778,6.09e-05
2012-09-10 00:00:00,2012-09-10 00:00:00,PRATE,surface,-93.7504,36.3778,6.3e-05
2012-09-10 00:00:00,2012-09-10 00:00:00,PRATE,surface,-92.8129,36.3778,5.74e-05
