2013-02-09 00:00:00,2013-02-09 00:00:00,TMP,surface,-107.813,25.0393,296.693
2013-02-09 00:00:00,2013-02-09 00:00:00,TMP,surface,-106.875,25.0393,291.977
2013-02-09 00:00:00,2013-02-09 00:00:00,TMP,surface,-105.938,25.0393,287.23
2013-02-09 00:00:00,2013-02-09 00:00:00,TMP,surface,-105,25.0393,288.513
2013-02-09 00:00:00,2013-02-09 00:00:00,TMP,surface,-104.063,25.0393,292.92
2013-02-09 00:00:00,2013-02-09 00:00:00,TMP,surface,-103.125,25.0393,294.869
2013-02-09 00:00:00,2013-02-09 00:00:00,TMP,surface,-102.188,25.0393,293.657
2013-02-09 00:00:00,2013-02-09 00:00:00,TMP,surface,-101.25,25.0393,292.008
2013-02-09 00:00:00,2013-02-09 00:00:00,TMP,surface,-100.313,25.0393,292.253
2013-02-09 00:00:00,2013-02-09 00:00:00,TMP,surface,-99.3754,25.0393,294.491
2013-02-09 00:00:00,2013-02-09 00:00:00,TMP,surface,-98.4379,25.0393,296.976
2013-02-09 00:00:00,2013-02-09 00:00:00,TMP,surface,-97.5004,25.0393,297.35
2013-02-09 00:00:00,2013-02-09 00:00:00,TMP,surface,-96.5629,25.0393,297.312
2013-02-09 00:00:00,2013-02-09 00:00:00,TMP,surface,-95.6254,25.0393,297.565
2013-02-09 00:00:00,2013-02-09 00:00:00,TMP,surface,-94.6879,25.0393,297.773
2013-02-09 00:00:00,2013-02-09 00:00:00,TMP,surface,-93.7504,25.0393,297.822
2013-02-09 00:00:00,2013-02-09 00:00:00,TMP,surface,-92.8129,25.0393,297.995
2013-02-09 00:00:00,2013-02-09 00:00:00,TMP,surface,-107.813,25.9842,293.675
2013-02-09 00:00:00,2013-02-09 00:00:00,TMP,surface,-106.875,25.9842,287.829
2013-02-09 00:00:00,2013-02-09 00:00:00,TMP,surface,-105.938,25.9842,286.961
2013-02-09 00:00:00,2013-02-09 00:00:00,TMP,surface,-105,25.9842,290.456
2013-02-09 00:00:00,2013-02-09 00:00:00,TMP,surface,-104.063,25.9842,295.069
2013-02-09 00:00:00,2013-02-09 00:00:00,TMP,surface,-103.125,25.9842,296.304
2013-02-09 00:00:00,2013-02-09 00:00:00,TMP,surface,-102.188,25.9842,295.113
2013-02-09 00:00:00,2013-02-09 00:00:00,TMP,surface,-101.25,25.9842,294.177
2013-02-09 00:00:00,2013-02-09 00:00:00,TMP,surface,-100.313,25.9842,293.971
2013-02-09 00:00:00,2013-02-09 00:00:00,TMP,surface,-99.3754,25.9842,296.029
2013-02-09 00:00:00,2013-02-09 00:00:00,TMP,surface,-98.4379,25.9842,297.219
2013-02-09 00:00:00,2013-02-09 00:00:00,TMP,surface,-97.5004,25.9842,296.765
2013-02-09 00:00:00,2013-02-09 00:00:00,TMP,surface,-96.5629,25.9842,296.227
2013-02-09 00:00:00,2013-02-09 00:00:00,TMP,surface,-95.6254,25.9842,296.793
2013-02-09 00:00:00,2013-02-09 00:00:00,TMP,surface,-94.6879,25.9842,297.038
2013-02-09 00:00:00,2013-02-09 00:00:00,TMP,surface,-93.7504,25.9842,297.216
2013-02-09 00:00:00,2013-02-09 00:00:00,TMP,surface,-92.8129,25.9842,297.517
2013-02-09 00:00:00,2013-02-09 00:00:00,TMP,surface,-107.813,26.929,288.549
2013-02-09 00:00:00,2013-02-09 00:00:00,TMP,surface,-106.875,26.929,285.848
2013-02-09 00:00:00,2013-02-09 00:00:00,TMP,surface,-105.938,26.929,288.558
2013-02-09 00:00:00,2013-02-09 00:00:00,TMP,surface,-105,26.929,292.945
2013-02-09 00:00:00,2013-02-09 00:00:00,TMP,surface,-104.063,26.929,295.222
2013-02-09 00:00:00,2013-02-09 00:00:00,TMP,surface,-103.125,26.929,294.813
2013-02-09 00:00:00,2013-02-09 00:00:00,TMP,surface,-102.188,26.929,294.406
2013-02-09 00:00:00,2013-02-09 00:00:00,TMP,surface,-101.25,26.929,294.845
2013-02-09 00:00:00,2013-02-09 00:00:00,TMP,surface,-100.313,26.929,295.779
2013-02-09 00:00:00,2013-02-09 00:00:00,TMP,surface,-99.3754,26.929,296.763
2013-02-09 00:00:00,2013-02-09 00:00:00,TMP,surface,-98.4379,26.929,296.083
2013-02-09 00:00:00,2013-02-09 00:00:00,TMP,surface,-97.5004,26.929,294.891
2013-02-09 00:00:00,2013-02-09 00:00:00,TMP,surface,-96.5629,26.929,294.677
2013-02-09 00:00:00,2013-02-09 00:00:00,TMP,surface,-95.6254,26.929,295.637
2013-02-09 00:00:00,2013-02-09 00:00:00,TMP,surface,-94.6879,26.929,296.262
2013-02-09 00:00:00,2013-02-09 00:00:00,TMP,surface,-93.7504,26.929,296.245
2013-02-09 00:00:00,2013-02-09 00:00:00,TMP,surface,-92.8129,26.929,296.384
2013-02-09 00:00:00,2013-02-09 00:00:00,TMP,surface,-107.813,27.8739,285.822
2013-02-09 00:00:00,2013-02-09 00:00:00,TMP,surface,-106.875,27.8739,285.955
2013-02-09 00:00:00,2013-02-09 00:00:00,TMP,surface,-105.938,27.8739,290.529
2013-02-09 00:00:00,2013-02-09 00:00:00,TMP,surface,-105,27.8739,293.957
2013-02-09 00:00:00,2013-02-09 00:00:00,TMP,surface,-104.063,27.8739,294.221
2013-02-09 00:00:00,2013-02-09 00:00:00,TMP,surface,-103.125,27.8739,293.057
2013-02-09 00:00:00,2013-02-09 00:00:00,TMP,surface,-102.188,27.8739,292.985
2013-02-09 00:00:00,2013-02-09 00:00:00,TMP,surface,-101.25,27.8739,294.517
2013-02-09 00:00:00,2013-02-09 00:00:00,TMP,surface,-100.313,27.8739,295.774
2013-02-09 00:00:00,2013-02-09 00:00:00,TMP,surface,-99.3754,27.8739,295.52
2013-02-09 00:00:00,2013-02-09 00:00:00,TMP,surface,-98.4379,27.8739,294.48
2013-02-09 00:00:00,2013-02-09 00:00:00,TMP,surface,-97.5004,27.8739,293.817
2013-02-09 00:00:00,2013-02-09 00:00:00,TMP,surface,-96.5629,27.8739,293.947
2013-02-09 00:00:00,2013-02-09 00:00:00,TMP,surface,-95.6254,27.8739,294.569
2013-02-09 00:00:00,2013-02-09 00:00:00,TMP,surface,-94.6879,27.8739,295.048
2013-02-09 00:00:00,2013-02-09 00:00:00,TMP,surface,-93.7504,27.8739,295.032
2013-02-09 00:00:00,2013-02-09 00:00:00,TMP,surface,-92.8129,27.8739,294.997
2013-02-09 00:00:00,2013-02-09 00:00:00,TMP,surface,-107.813,28.8188,285.141
2013-02-09 00:00:00,2013-02-09 00:00:00,TMP,surface,-106.875,28.8188,286.998
2013-02-09 00:00:00,2013-02-09 00:00:00,TMP,surface,-105.938,28.8188,291.245
2013-02-09 00:00:00,2013-02-09 00:00:00,TMP,surface,-105,28.8188,293.785
2013-02-09 00:00:00,2013-02-09 00:00:00,TMP,surface,-104.063,28.8188,292.966
2013-02-09 00:00:00,2013-02-09 00:00:00,TMP,surface,-103.125,28.8188,292.105
2013-02-09 00:00:00,2013-02-09 00:00:00,TMP,surface,-102.188,28.8188,292.461
2013-02-09 00:00:00,2013-02-09 00:00:00,TMP,surface,-101.25,28.8188,293.941
2013-02-09 00:00:00,2013-02-09 00:00:00,TMP,surface,-100.313,28.8188,294.181
2013-02-09 00:00:00,2013-02-09 00:00:00,TMP,surface,-99.3754,28.8188,293.23
2013-02-09 00:00:00,2013-02-09 00:00:00,TMP,surface,-98.4379,28.8188,292.485
2013-02-09 00:00:00,2013-02-09 00:00:00,TMP,surface,-97.5004,28.8188,292.358
2013-02-09 00:00:00,2013-02-09 00:00:00,TMP,surface,-96.5629,28.8188,292.603
2013-02-09 00:00:00,2013-02-09 00:00:00,TMP,surface,-95.6254,28.8188,292.881
2013-02-09 00:00:00,2013-02-09 00:00:00,TMP,surface,-94.6879,28.8188,292.931
2013-02-09 00:00:00,2013-02-09 00:00:00,TMP,surface,-93.7504,28.8188,292.829
2013-02-09 00:00:00,2013-02-09 00:00:00,TMP,surface,-92.8129,28.8188,292.573
2013-02-09 00:00:00,2013-02-09 00:00:00,TMP,surface,-107.813,29.7637,286.829
2013-02-09 00:00:00,2013-02-09 00:00:00,TMP,surface,-106.875,29.7637,288.619
2013-02-09 00:00:00,2013-02-09 00:00:00,TMP,surface,-105.938,29.7637,291.286
2013-02-09 00:00:00,2013-02-09 00:00:00,TMP,surface,-105,29.7637,291.958
2013-02-09 00:00:00,2013-02-09 00:00:00,TMP,surface,-104.063,29.7637,291.968
2013-02-09 00:00:00,2013-02-09 00:00:00,TMP,surface,-103.125,29.7637,292.193
2013-02-09 00:00:00,2013-02-09 00:00:00,TMP,surface,-102.188,29.7637,293.248
2013-02-09 00:00:00,2013-02-09 00:00:00,TMP,surface,-101.25,29.7637,293.461
2013-02-09 00:00:00,2013-02-09 00:00:00,TMP,surface,-100.313,29.7637,292.336
2013-02-09 00:00:00,2013-02-09 00:00:00,TMP,surface,-99.3754,29.7637,291.193
2013-02-09 00:00:00,2013-02-09 00:00:00,TMP,surface,-98.4379,29.7637,290.805
2013-02-09 00:00:00,2013-02-09 00:00:00,TMP,surface,-97.5004,29.7637,290.968
2013-02-09 00:00:00,2013-02-09 00:00:00,TMP,surface,-96.5629,29.7637,291.246
2013-02-09 00:00:00,2013-02-09 00:00:00,TMP,surface,-95.6254,29.7637,291.467
2013-02-09 00:00:00,2013-02-09 00:00:00,TMP,surface,-94.6879,29.7637,291.366
2013-02-09 00:00:00,2013-02-09 00:00:00,TMP,surface,-93.7504,29.7637,291.176
2013-02-09 00:00:00,2013-02-09 00:00:00,TMP,surface,-92.8129,29.7637,292.086
2013-02-09 00:00:00,2013-02-09 00:00:00,TMP,surface,-107.813,30.7085,289.713
2013-02-09 00:00:00,2013-02-09 00:00:00,TMP,surface,-106.875,30.7085,290.685
2013-02-09 00:00:00,2013-02-09 00:00:00,TMP,surface,-105.938,30.7085,290.92
2013-02-09 00:00:00,2013-02-09 00:00:00,TMP,surface,-105,30.7085,290.838
2013-02-09 00:00:00,2013-02-09 00:00:00,TMP,surface,-104.063,30.7085,290.88
2013-02-09 00:00:00,2013-02-09 00:00:00,TMP,surface,-103.125,30.7085,292.197
2013-02-09 00:00:00,2013-02-09 00:00:00,TMP,surface,-102.188,30.7085,292.888
2013-02-09 00:00:00,2013-02-09 00:00:00,TMP,surface,-101.25,30.7085,292.499
2013-02-09 00:00:00,2013-02-09 00:00:00,TMP,surface,-100.313,30.7085,291.435
2013-02-09 00:00:00,2013-02-09 00:00:00,TMP,surface,-99.3754,30.7085,290.534
2013-02-09 00:00:00,2013-02-09 00:00:00,TMP,surface,-98.4379,30.7085,290.281
2013-02-09 00:00:00,2013-02-09 00:00:00,TMP,surface,-97.5004,30.7085,290.291
2013-02-09 00:00:00,2013-02-09 00:00:00,TMP,surface,-96.5629,30.7085,290.622
2013-02-09 00:00:00,2013-02-09 00:00:00,TMP,surface,-95.6254,30.7085,291.078
2013-02-09 00:00:00,2013-02-09 00:00:00,TMP,surface,-94.6879,30.7085,291.069
2013-02-09 00:00:00,2013-02-09 00:00:00,TMP,surface,-93.7504,30.7085,291.07
2013-02-09 00:00:00,2013-02-09 00:00:00,TMP,surface,-92.8129,30.7085,290.897
2013-02-09 00:00:00,2013-02-09 00:00:00,TMP,surface,-107.813,31.6534,290.145
2013-02-09 00:00:00,2013-02-09 00:00:00,TMP,surface,-106.875,31.6534,290.785
2013-02-09 00:00:00,2013-02-09 00:00:00,TMP,surface,-105.938,31.6534,290.235
2013-02-09 00:00:00,2013-02-09 00:00:00,TMP,surface,-105,31.6534,289.913
2013-02-09 00:00:00,2013-02-09 00:00:00,TMP,surface,-104.063,31.6534,290.809
2013-02-09 00:00:00,2013-02-09 00:00:00,TMP,surface,-103.125,31.6534,291.771
2013-02-09 00:00:00,2013-02-09 00:00:00,TMP,surface,-102.188,31.6534,291.953
2013-02-09 00:00:00,2013-02-09 00:00:00,TMP,surface,-101.25,31.6534,291.577
2013-02-09 00:00:00,2013-02-09 00:00:00,TMP,surface,-100.313,31.6534,290.984
2013-02-09 00:00:00,2013-02-09 00:00:00,TMP,surface,-99.3754,31.6534,290.368
2013-02-09 00:00:00,2013-02-09 00:00:00,TMP,surface,-98.4379,31.6534,290.056
2013-02-09 00:00:00,2013-02-09 00:00:00,TMP,surface,-97.5004,31.6534,289.888
2013-02-09 00:00:00,2013-02-09 00:00:00,TMP,surface,-96.5629,31.6534,290.067
2013-02-09 00:00:00,2013-02-09 00:00:00,TMP,surface,-95.6254,31.6534,290.408
2013-02-09 00:00:00,2013-02-09 00:00:00,TMP,surface,-94.6879,31.6534,290.265
2013-02-09 00:00:00,2013-02-09 00:00:00,TMP,surface,-93.7504,31.6534,290.078
2013-02-09 00:00:00,2013-02-09 00:00:00,TMP,surface,-92.8129,31.6534,290.038
2013-02-09 00:00:00,2013-02-09 00:00:00,TMP,surface,-107.813,32.5983,287.494
2013-02-09 00:00:00,2013-02-09 00:00:00,TMP,surface,-106.875,32.5983,288.187
2013-02-09 00:00:00,2013-02-09 00:00:00,TMP,surface,-105.938,32.5983,288.512
2013-02-09 00:00:00,2013-02-09 00:00:00,TMP,surface,-105,32.5983,288.862
2013-02-09 00:00:00,2013-02-09 00:00:00,TMP,surface,-104.063,32.5983,290.085
2013-02-09 00:00:00,2013-02-09 00:00:00,TMP,surface,-103.125,32.5983,290.974
2013-02-09 00:00:00,2013-02-09 00:00:00,TMP,surface,-102.188,32.5983,290.901
2013-02-09 00:00:00,2013-02-09 00:00:00,TMP,surface,-101.25,32.5983,290.641
2013-02-09 00:00:00,2013-02-09 00:00:00,TMP,surface,-100.313,32.5983,290.521
2013-02-09 00:00:00,2013-02-09 00:00:00,TMP,surface,-99.3754,32.5983,290.267
2013-02-09 00:00:00,2013-02-09 00:00:00,TMP,surface,-98.4379,32.5983,289.888
2013-02-09 00:00:00,2013-02-09 00:00:00,TMP,surface,-97.5004,32.5983,289.48
2013-02-09 00:00:00,2013-02-09 00:00:00,TMP,surface,-96.5629,32.5983,289.44
2013-02-09 00:00:00,2013-02-09 00:00:00,TMP,surface,-95.6254,32.5983,289.633
2013-02-09 00:00:00,2013-02-09 00:00:00,TMP,surface,-94.6879,32.5983,289.453
2013-02-09 00:00:00,2013-02-09 00:00:00,TMP,surface,-93.7504,32.5983,289.221
2013-02-09 00:00:00,2013-02-09 00:00:00,TMP,surface,-92.8129,32.5983,289.285
2013-02-09 00:00:00,2013-02-09 00:00:00,TMP,surface,-107.813,33.5432,283.861
2013-02-09 00:00:00,2013-02-09 00:00:00,TMP,surface,-106.875,33.5432,285.494
2013-02-09 00:00:00,2013-02-09 00:00:00,TMP,surface,-105.938,33.5432,286.581
2013-02-09 00:00:00,2013-02-09 00:00:00,TMP,surface,-105,33.5432,287.832
2013-02-09 00:00:00,2013-02-09 00:00:00,TMP,surface,-104.063,33.5432,289.584
2013-02-09 00:00:00,2013-02-09 00:00:00,TMP,surface,-103.125,33.5432,289.934
2013-02-09 00:00:00,2013-02-09 00:00:00,TMP,surface,-102.188,33.5432,289.613
2013-02-09 00:00:00,2013-02-09 00:00:00,TMP,surface,-101.25,33.5432,289.233
2013-02-09 00:00:00,2013-02-09 00:00:00,TMP,surface,-100.313,33.5432,289.429
2013-02-09 00:00:00,2013-02-09 00:00:00,TMP,surface,-99.3754,33.5432,289.264
2013-02-09 00:00:00,2013-02-09 00:00:00,TMP,surface,-98.4379,33.5432,288.774
2013-02-09 00:00:00,2013-02-09 00:00:00,TMP,surface,-97.5004,33.5432,288.262
2013-02-09 00:00:00,2013-02-09 00:00:00,TMP,surface,-96.5629,33.5432,287.931
2013-02-09 00:00:00,2013-02-09 00:00:00,TMP,surface,-95.6254,33.5432,287.998
2013-02-09 00:00:00,2013-02-09 00:00:00,TMP,surface,-94.6879,33.5432,288.176
2013-02-09 00:00:00,2013-02-09 00:00:00,TMP,surface,-93.7504,33.5432,287.993
2013-02-09 00:00:00,2013-02-09 00:00:00,TMP,surface,-92.8129,33.5432,287.955
2013-02-09 00:00:00,2013-02-09 00:00:00,TMP,surface,-107.813,34.4881,282.401
2013-02-09 00:00:00,2013-02-09 00:00:00,TMP,surface,-106.875,34.4881,284.293
2013-02-09 00:00:00,2013-02-09 00:00:00,TMP,surface,-105.938,34.4881,285.552
2013-02-09 00:00:00,2013-02-09 00:00:00,TMP,surface,-105,34.4881,287.157
2013-02-09 00:00:00,2013-02-09 00:00:00,TMP,surface,-104.063,34.4881,288.392
2013-02-09 00:00:00,2013-02-09 00:00:00,TMP,surface,-103.125,34.4881,288.569
2013-02-09 00:00:00,2013-02-09 00:00:00,TMP,surface,-102.188,34.4881,288.083
2013-02-09 00:00:00,2013-02-09 00:00:00,TMP,surface,-101.25,34.4881,287.814
2013-02-09 00:00:00,2013-02-09 00:00:00,TMP,surface,-100.313,34.4881,287.641
2013-02-09 00:00:00,2013-02-09 00:00:00,TMP,surface,-99.3754,34.4881,287.515
2013-02-09 00:00:00,2013-02-09 00:00:00,TMP,surface,-98.4379,34.4881,287.288
2013-02-09 00:00:00,2013-02-09 00:00:00,TMP,surface,-97.5004,34.4881,287.022
2013-02-09 00:00:00,2013-02-09 00:00:00,TMP,surface,-96.5629,34.4881,287.069
2013-02-09 00:00:00,2013-02-09 00:00:00,TMP,surface,-95.6254,34.4881,287.166
2013-02-09 00:00:00,2013-02-09 00:00:00,TMP,surface,-94.6879,34.4881,286.821
2013-02-09 00:00:00,2013-02-09 00:00:00,TMP,surface,-93.7504,34.4881,286.502
2013-02-09 00:00:00,2013-02-09 00:00:00,TMP,surface,-92.8129,34.4881,286.584
2013-02-09 00:00:00,2013-02-09 00:00:00,TMP,surface,-107.813,35.4329,282.285
2013-02-09 00:00:00,2013-02-09 00:00:00,TMP,surface,-106.875,35.4329,282.838
2013-02-09 00:00:00,2013-02-09 00:00:00,TMP,surface,-105.938,35.4329,283.555
2013-02-09 00:00:00,2013-02-09 00:00:00,TMP,surface,-105,35.4329,284.934
2013-02-09 00:00:00,2013-02-09 00:00:00,TMP,surface,-104.063,35.4329,287.128
2013-02-09 00:00:00,2013-02-09 00:00:00,TMP,surface,-103.125,35.4329,287.88
2013-02-09 00:00:00,2013-02-09 00:00:00,TMP,surface,-102.188,35.4329,287.534
2013-02-09 00:00:00,2013-02-09 00:00:00,TMP,surface,-101.25,35.4329,286.987
2013-02-09 00:00:00,2013-02-09 00:00:00,TMP,surface,-100.313,35.4329,286.443
2013-02-09 00:00:00,2013-02-09 00:00:00,TMP,surface,-99.3754,35.4329,285.971
2013-02-09 00:00:00,2013-02-09 00:00:00,TMP,surface,-98.4379,35.4329,285.774
2013-02-09 00:00:00,2013-02-09 00:00:00,TMP,surface,-97.5004,35.4329,285.859
2013-02-09 00:00:00,2013-02-09 00:00:00,TMP,surface,-96.5629,35.4329,285.92
2013-02-09 00:00:00,2013-02-09 00:00:00,TMP,surface,-95.6254,35.4329,285.859
2013-02-09 00:00:00,2013-02-09 00:00:00,TMP,surface,-94.6879,35.4329,285.638
2013-02-09 00:00:00,2013-02-09 00:00:00,TMP,surface,-93.7504,35.4329,285.117
2013-02-09 00:00:00,2013-02-09 00:00:00,TMP,surface,-92.8129,35.4329,285.037
2013-02-09 00:00:00,2013-02-09 00:00:00,TMP,surface,-107.813,36.3778,280.955
2013-02-09 00:00:00,2013-02-09 00:00:00,TMP,surface,-106.875,36.3778,279.152
2013-02-09 00:00:00,2013-02-09 00:00:00,TMP,surface,-105.938,36.3778,280.384
2013-02-09 00:00:00,2013-02-09 00:00:00,TMP,surface,-105,36.3778,282.872
2013-02-09 00:00:00,2013-02-09 00:00:00,TMP,surface,-104.063,36.3778,286.016
2013-02-09 00:00:00,2013-02-09 00:00:00,TMP,surface,-103.125,36.3778,286.573
2013-02-09 00:00:00,2013-02-09 00:00:00,TMP,surface,-102.188,36.3778,286.419
2013-02-09 00:00:00,2013-02-09 00:00:00,TMP,surface,-101.25,36.3778,285.933
2013-02-09 00:00:00,2013-02-09 00:00:00,TMP,surface,-100.313,36.3778,285.665
2013-02-09 00:00:00,2013-02-09 00:00:00,TMP,surface,-99.3754,36.3778,285.381
2013-02-09 00:00:00,2013-02-09 00:00:00,TMP,surface,-98.4379,36.3778,284.977
2013-02-09 00:00:00,2013-02-09 00:00:00,TMP,surface,-97.5004,36.3778,284.979
2013-02-09 00:00:00,2013-02-09 00:00:00,TMP,surface,-96.5629,36.3778,285.197
2013-02-09 00:00:00,2013-02-09 00:00:00,TMP,surface,-95.6254,36.3778,285.131
2013-02-09 00:00:00,2013-02-09 00:00:00,TMP,surface,-94.6879,36.3778,284.757
2013-02-09 00:00:00,2013-02-09 00:00:00,TMP,surface,-93.7504,36.3778,284.086
2013-02-09 00:00:00,2013-02-09 00:00:00,TMP,surface,-92.8129,36.3778,283.741
2013-02-09 00:00:00,2013-02-09 00:00:00,PRATE,surface,-107.813,25.0393,1e-07
2013-02-09 00:00:00,2013-02-09 00:00:00,PRATE,surface,-106.875,25.0393,1.3e-06
2013-02-09 00:00:00,2013-02-09 00:00:00,PRATE,surface,-105.938,25.0393,7.3e-06
2013-02-09 00:00:00,2013-02-09 00:00:00,PRATE,surface,-105,25.0393,8.5e-06
2013-02-09 00:00:00,2013-02-09 00:00:00,PRATE,surface,-104.063,25.0393,1.08e-05
2013-02-09 00:00:00,2013-02-09 00:00:00,PRATE,surface,-103.125,25.0393,6.2e-06
2013-02-09 00:00:00,2013-02-09 00:00:00,PRATE,surface,-102.188,25.0393,9.9e-06
2013-02-09 00:00:00,2013-02-09 00:00:00,PRATE,surface,-101.25,25.0393,3.5e-05
2013-02-09 00:00:00,2013-02-09 00:00:00,PRATE,surface,-100.313,25.0393,9.03e-05
2013-02-09 00:00:00,2013-02-09 00:00:00,PRATE,surface,-99.3754,25.0393,9.15e-05
2013-02-09 00:00:00,2013-02-09 00:00:00,PRATE,surface,-98.4379,25.0393,3.85e-05
2013-02-09 00:00:00,2013-02-09 00:00:00,PRATE,surface,-97.5004,25.0393,3.09e-05
2013-02-09 00:00:00,2013-02-09 00:00:00,PRATE,surface,-96.5629,25.0393,1.47e-05
2013-02-09 00:00:00,2013-02-09 00:00:00,PRATE,surface,-95.6254,25.0393,1.5e-05
2013-02-09 00:00:00,2013-02-09 00:00:00,PRATE,surface,-94.6879,25.0393,1.49e-05
2013-02-09 00:00:00,2013-02-09 00:00:00,PRATE,surface,-93.7504,25.0393,1.17e-05
2013-02-09 00:00:00,2013-02-09 00:00:00,PRATE,surface,-92.8129,25.0393,1.01e-05
2013-02-09 00:00:00,2013-02-09 00:00:00,PRATE,surface,-107.813,25.9842,0
2013-02-09 00:00:00,2013-02-09 00:00:00,PRATE,surface,-106.875,25.9842,6.9e-06
2013-02-09 00:00:00,2013-02-09 00:00:00,PRATE,surface,-105.938,25.9842,8.5e-06
2013-02-09 00:00:00,2013-02-09 00:00:00,PRATE,surface,-105,25.9842,1.49e-05
2013-02-09 00:00:00,2013-02-09 00:00:00,PRATE,surface,-104.063,25.9842,7.6e-06
2013-02-09 00:00:00,2013-02-09 00:00:00,PRATE,surface,-103.125,25.9842,3.8e-06
2013-02-09 00:00:00,2013-02-09 00:00:00,PRATE,surface,-102.188,25.9842,9.9e-06
2013-02-09 00:00:00,2013-02-09 00:00:00,PRATE,surface,-101.25,25.9842,2.82e-05
2013-02-09 00:00:00,2013-02-09 00:00:00,PRATE,surface,-100.313,25.9842,5.89e-05
2013-02-09 00:00:00,2013-02-09 00:00:00,PRATE,surface,-99.3754,25.9842,5.3e-05
2013-02-09 00:00:00,2013-02-09 00:00:00,PRATE,surface,-98.4379,25.9842,3.76e-05
2013-02-09 00:00:00,2013-02-09 00:00:00,PRATE,surface,-97.5004,25.9842,3.65e-05
2013-02-09 00:00:00,2013-02-09 00:00:00,PRATE,surface,-96.5629,25.9842,2.42e-05
2013-02-09 00:00:00,2013-02-09 00:00:00,PRATE,surface,-95.6254,25.9842,1.88e-05
2013-02-09 00:00:00,2013-02-09 00:00:00,PRATE,surface,-94.6879,25.9842,1.79e-05
2013-02-09 00:00:00,2013-02-09 00:00:00,PRATE,surface,-93.7504,25.9842,1.38e-05
2013-02-09 00:00:00,2013-02-09 00:00:00,PRATE,surface,-92.8129,25.9842,8.2e-06
2013-02-09 00:00:00,2013-02-09 00:00:00,PRATE,surface,-107.813,26.929,5.8e-06
2013-02-09 00:00:00,2013-02-09 00:00:00,PRATE,surface,-106.875,26.929,1.21e-05
2013-02-09 00:00:00,2013-02-09 00:00:00,PRATE,surface,-105.938,26.929,1.12e-05
2013-02-09 00:00:00,2013-02-09 00:00:00,PRATE,surface,-105,26.929,1.63e-05
2013-02-09 00:00:00,2013-02-09 00:00:00,PRATE,surface,-104.063,26.929,8.3e-06
2013-02-09 00:00:00,2013-02-09 00:00:00,PRATE,surface,-103.125,26.929,1.49e-05
2013-02-09 00:00:00,2013-02-09 00:00:00,PRATE,surface,-102.188,26.929,1.82e-05
2013-02-09 00:00:00,2013-02-09 00:00:00,PRATE,surface,-101.25,26.929,2.28e-05
2013-02-09 00:00:00,2013-02-09 00:00:00,PRATE,surface,-100.313,26.929,2.88e-05
2013-02-09 00:00:00,2013-02-09 00:00:00,PRATE,surface,-99.3754,26.929,2.3e-05
2013-02-09 00:00:00,2013-02-09 00:00:00,PRATE,surface,-98.4379,26.929,3.05e-05
2013-02-09 00:00:00,2013-02-09 00:00:00,PRATE,surface,-97.5004,26.929,4.72e-05
2013-02-09 00:00:00,2013-02-09 00:00:00,PRATE,surface,-96.5629,26.929,3.13e-05
2013-02-09 00:00:00,2013-02-09 00:00:00,PRATE,surface,-95.6254,26.929,1.83e-05
2013-02-09 00:00:00,2013-02-09 00:00:00,PRATE,surface,-94.6879,26.929,1.43e-05
2013-02-09 00:00:00,2013-02-09 00:00:00,PRATE,surface,-93.7504,26.929,1.08e-05
2013-02-09 00:00:00,2013-02-09 00:00:00,PRATE,surface,-92.8129,26.929,9.1e-06
2013-02-09 00:00:00,2013-02-09 00:00:00,PRATE,surface,-107.813,27.8739,1.07e-05
2013-02-09 00:00:00,2013-02-09 00:00:00,PRATE,surface,-106.875,27.8739,1.36e-05
2013-02-09 00:00:00,2013-02-09 00:00:00,PRATE,surface,-105.938,27.8739,9.9e-06
2013-02-09 00:00:00,2013-02-09 00:00:00,PRATE,surface,-105,27.8739,7e-06
2013-02-09 00:00:00,2013-02-09 00:00:00,PRATE,surface,-104.063,27.8739,1.1e-05
2013-02-09 00:00:00,2013-02-09 00:00:00,PRATE,surface,-103.125,27.8739,1.9e-05
2013-02-09 00:00:00,2013-02-09 00:00:00,PRATE,surface,-102.188,27.8739,2.39e-05
2013-02-09 00:00:00,2013-02-09 00:00:00,PRATE,surface,-101.25,27.8739,1.65e-05
2013-02-09 00:00:00,2013-02-09 00:00:00,PRATE,surface,-100.313,27.8739,1.1e-05
2013-02-09 00:00:00,2013-02-09 00:00:00,PRATE,surface,-99.3754,27.8739,1.41e-05
2013-02-09 00:00:00,2013-02-09 00:00:00,PRATE,surface,-98.4379,27.8739,2.75e-05
2013-02-09 00:00:00,2013-02-09 00:00:00,PRATE,surface,-97.5004,27.8739,4.25e-05
2013-02-09 00:00:00,2013-02-09 00:00:00,PRATE,surface,-96.5629,27.8739,4.1e-05
2013-02-09 00:00:00,2013-02-09 00:00:00,PRATE,surface,-95.6254,27.8739,2.4e-05
2013-02-09 00:00:00,2013-02-09 00:00:00,PRATE,surface,-94.6879,27.8739,1.26e-05
2013-02-09 00:00:00,2013-02-09 00:00:00,PRATE,surface,-93.7504,27.8739,1.23e-05
2013-02-09 00:00:00,2013-02-09 00:00:00,PRATE,surface,-92.8129,27.8739,1.58e-05
2013-02-09 00:00:00,2013-02-09 00:00:00,PRATE,surface,-107.813,28.8188,1.34e-05
2013-02-09 00:00:00,2013-02-09 00:00:00,PRATE,surface,-106.875,28.8188,1.99e-05
2013-02-09 00:00:00,2013-02-09 00:00:00,PRATE,surface,-105.938,28.8188,1.25e-05
2013-02-09 00:00:00,2013-02-09 00:00:00,PRATE,surface,-105,28.8188,6.9e-06
2013-02-09 00:00:00,2013-02-09 00:00:00,PRATE,surface,-104.063,28.8188,1.01e-05
2013-02-09 00:00:00,2013-02-09 00:00:00,PRATE,surface,-103.125,28.8188,1.64e-05
2013-02-09 00:00:00,2013-02-09 00:00:00,PRATE,surface,-102.188,28.8188,1.2e-05
2013-02-09 00:00:00,2013-02-09 00:00:00,PRATE,surface,-101.25,28.8188,7.4e-06
2013-02-09 00:00:00,2013-02-09 00:00:00,PRATE,surface,-100.313,28.8188,7e-06
2013-02-09 00:00:00,2013-02-09 00:00:00,PRATE,surface,-99.3754,28.8188,1.53e-05
2013-02-09 00:00:00,2013-02-09 00:00:00,PRATE,surface,-98.4379,28.8188,3.04e-05
2013-02-09 00:00:00,2013-02-09 00:00:00,PRATE,surface,-97.5004,28.8188,4.36e-05
2013-02-09 00:00:00,2013-02-09 00:00:00,PRATE,surface,-96.5629,28.8188,4.79e-05
2013-02-09 00:00:00,2013-02-09 00:00:00,PRATE,surface,-95.6254,28.8188,4.33e-05
2013-02-09 00:00:00,2013-02-09 00:00:00,PRATE,surface,-94.6879,28.8188,3.24e-05
2013-02-09 00:00:00,2013-02-09 00:00:00,PRATE,surface,-93.7504,28.8188,2.11e-05
2013-02-09 00:00:00,2013-02-09 00:00:00,PRATE,surface,-92.8129,28.8188,2.17e-05
2013-02-09 00:00:00,2013-02-09 00:00:00,PRATE,surface,-107.813,29.7637,1.12e-05
2013-02-09 00:00:00,2013-02-09 00:00:00,PRATE,surface,-106.875,29.7637,1.91e-05
2013-02-09 00:00:00,2013-02-09 00:00:00,PRATE,surface,-105.938,29.7637,1.84e-05
2013-02-09 00:00:00,2013-02-09 00:00:00,PRATE,surface,-105,29.7637,1.71e-05
2013-02-09 00:00:00,2013-02-09 00:00:00,PRATE,surface,-104.063,29.7637,1.49e-05
2013-02-09 00:00:00,2013-02-09 00:00:00,PRATE,surface,-103.125,29.7637,1.35e-05
2013-02-09 00:00:00,2013-02-09 00:00:00,PRATE,surface,-102.188,29.7637,9.2e-06
2013-02-09 00:00:00,2013-02-09 00:00:00,PRATE,surface,-101.25,29.7637,6.8e-06
2013-02-09 00:00:00,2013-02-09 00:00:00,PRATE,surface,-100.313,29.7637,1.27e-05
2013-02-09 00:00:00,2013-02-09 00:00:00,PRATE,surface,-99.3754,29.7637,1.94e-05
2013-02-09 00:00:00,2013-02-09 00:00:00,PRATE,surface,-98.4379,29.7637,2.67e-05
2013-02-09 00:00:00,2013-02-09 00:00:00,PRATE,surface,-97.5004,29.7637,4e-05
2013-02-09 00:00:00,2013-02-09 00:00:00,PRATE,surface,-96.5629,29.7637,5.88e-05
2013-02-09 00:00:00,2013-02-09 00:00:00,PRATE,surface,-95.6254,29.7637,7.12e-05
2013-02-09 00:00:00,2013-02-09 00:00:00,PRATE,surface,-94.6879,29.7637,6.22e-05
2013-02-09 00:00:00,2013-02-09 00:00:00,PRATE,surface,-93.7504,29.7637,3.93e-05
2013-02-09 00:00:00,2013-02-09 00:00:00,PRATE,surface,-92.8129,29.7637,3.12e-05
2013-02-09 00:00:00,2013-02-09 00:00:00,PRATE,surface,-107.813,30.7085,7.2e-06
2013-02-09 00:00:00,2013-02-09 00:00:00,PRATE,surface,-106.875,30.7085,1.41e-05
2013-02-09 00:00:00,2013-02-09 00:00:00,PRATE,surface,-105.938,30.7085,2.34e-05
2013-02-09 00:00:00,2013-02-09 00:00:00,PRATE,surface,-105,30.7085,2.46e-05
2013-02-09 00:00:00,2013-02-09 00:00:00,PRATE,surface,-104.063,30.7085,1.78e-05
2013-02-09 00:00:00,2013-02-09 00:00:00,PRATE,surface,-103.125,30.7085,1.05e-05
2013-02-09 00:00:00,2013-02-09 00:00:00,PRATE,surface,-102.188,30.7085,1.23e-05
2013-02-09 00:00:00,2013-02-09 00:00:00,PRATE,surface,-101.25,30.7085,1.17e-05
2013-02-09 00:00:00,2013-02-09 00:00:00,PRATE,surface,-100.313,30.7085,1.72e-05
2013-02-09 00:00:00,2013-02-09 00:00:00,PRATE,surface,-99.3754,30.7085,1.98e-05
2013-02-09 00:00:00,2013-02-09 00:00:00,PRATE,surface,-98.4379,30.7085,1.82e-05
2013-02-09 00:00:00,2013-02-09 00:00:00,PRATE,surface,-97.5004,30.7085,2.36e-05
2013-02-09 00:00:00,2013-02-09 00:00:00,PRATE,surface,-96.5629,30.7085,4.46e-05
2013-02-09 00:00:00,2013-02-09 00:00:00,PRATE,surface,-95.6254,30.7085,6.55e-05
2013-02-09 00:00:00,2013-02-09 00:00:00,PRATE,surface,-94.6879,30.7085,6.51e-05
2013-02-09 00:00:00,2013-02-09 00:00:00,PRATE,surface,-93.7504,30.7085,5.24e-05
2013-02-09 00:00:00,2013-02-09 00:00:00,PRATE,surface,-92.8129,30.7085,4.3e-05
2013-02-09 00:00:00,2013-02-09 00:00:00,PRATE,surface,-107.813,31.6534,2.8e-06
2013-02-09 00:00:00,2013-02-09 00:00:00,PRATE,surface,-106.875,31.6534,4.9e-06
2013-02-09 00:00:00,2013-02-09 00:00:00,PRATE,surface,-105.938,31.6534,1.16e-05
2013-02-09 00:00:00,2013-02-09 00:00:00,PRATE,surface,-105,31.6534,1.58e-05
2013-02-09 00:00:00,2013-02-09 00:00:00,PRATE,surface,-104.063,31.6534,1.01e-05
2013-02-09 00:00:00,2013-02-09 00:00:00,PRATE,surface,-103.125,31.6534,9.7e-06
2013-02-09 00:00:00,2013-02-09 00:00:00,PRATE,surface,-102.188,31.6534,1.28e-05
2013-02-09 00:00:00,2013-02-09 00:00:00,PRATE,surface,-101.25,31.6534,1.53e-05
2013-02-09 00:00:00,2013-02-09 00:00:00,PRATE,surface,-100.313,31.6534,1.53e-05
2013-02-09 00:00:00,2013-02-09 00:00:00,PRATE,surface,-99.3754,31.6534,1.57e-05
2013-02-09 00:00:00,2013-02-09 00:00:00,PRATE,surface,-98.4379,31.6534,1.51e-05
2013-02-09 00:00:00,2013-02-09 00:00:00,PRATE,surface,-97.5004,31.6534,1.76e-05
2013-02-09 00:00:00,2013-02-09 00:00:00,PRATE,surface,-96.5629,31.6534,2.78e-05
2013-02-09 00:00:00,2013-02-09 00:00:00,PRATE,surface,-95.6254,31.6534,4.06e-05
2013-02-09 00:00:00,2013-02-09 00:00:00,PRATE,surface,-94.6879,31.6534,5.02e-05
2013-02-09 00:00:00,2013-02-09 00:00:00,PRATE,surface,-93.7504,31.6534,5.8e-05
2013-02-09 00:00:00,2013-02-09 00:00:00,PRATE,surface,-92.8129,31.6534,5.96e-05
2013-02-09 00:00:00,2013-02-09 00:00:00,PRATE,surface,-107.813,32.5983,3.1e-06
2013-02-09 00:00:00,2013-02-09 00:00:00,PRATE,surface,-106.875,32.5983,2.5e-06
2013-02-09 00:00:00,2013-02-09 00:00:00,PRATE,surface,-105.938,32.5983,7.2e-06
2013-02-09 00:00:00,2013-02-09 00:00:00,PRATE,surface,-105,32.5983,1.07e-05
2013-02-09 00:00:00,2013-02-09 00:00:00,PRATE,surface,-104.063,32.5983,8.8e-06
2013-02-09 00:00:00,2013-02-09 00:00:00,PRATE,surface,-103.125,32.5983,9.6e-06
2013-02-09 00:00:00,2013-02-09 00:00:00,PRATE,surface,-102.188,32.5983,1.27e-05
2013-02-09 00:00:00,2013-02-09 00:00:00,PRATE,surface,-101.25,32.5983,1.76e-05
2013-02-09 00:00:00,2013-02-09 00:00:00,PRATE,surface,-100.313,32.5983,1.96e-05
2013-02-09 00:00:00,2013-02-09 00:00:00,PRATE,surface,-99.3754,32.5983,1.69e-05
2013-02-09 00:00:00,2013-02-09 00:00:00,PRATE,surface,-98.4379,32.5983,1.57e-05
2013-02-09 00:00:00,2013-02-09 00:00:00,PRATE,surface,-97.5004,32.5983,1.68e-05
2013-02-09 00:00:00,2013-02-09 00:00:00,PRATE,surface,-96.5629,32.5983,1.91e-05
2013-02-09 00:00:00,2013-02-09 00:00:00,PRATE,surface,-95.6254,32.5983,2.38e-05
2013-02-09 00:00:00,2013-02-09 00:00:00,PRATE,surface,-94.6879,32.5983,3.13e-05
2013-02-09 00:00:00,2013-02-09 00:00:00,PRATE,surface,-93.7504,32.5983,4.15e-05
2013-02-09 00:00:00,2013-02-09 00:00:00,PRATE,surface,-92.8129,32.5983,5.08e-05
2013-02-09 00:00:00,2013-02-09 00:00:00,PRATE,surface,-107.813,33.5432,1.69e-05
2013-02-09 00:00:00,2013-02-09 00:00:00,PRATE,surface,-106.875,33.5432,9.5e-06
2013-02-09 00:00:00,2013-02-09 00:00:00,PRATE,surface,-105.938,33.5432,7.9e-06
2013-02-09 00:00:00,2013-02-09 00:00:00,PRATE,surface,-105,33.5432,9.6e-06
2013-02-09 00:00:00,2013-02-09 00:00:00,PRATE,surface,-104.063,33.5432,8.4e-06
2013-02-09 00:00:00,2013-02-09 00:00:00,PRATE,surface,-103.125,33.5432,1.28e-05
2013-02-09 00:00:00,2013-02-09 00:00:00,PRATE,surface,-102.188,33.5432,1.66e-05
2013-02-09 00:00:00,2013-02-09 00:00:00,PRATE,surface,-101.25,33.5432,1.8e-05
2013-02-09 00:00:00,2013-02-09 00:00:00,PRATE,surface,-100.313,33.5432,1.83e-05
2013-02-09 00:00:00,2013-02-09 00:00:00,PRATE,surface,-99.3754,33.5432,1.74e-05
2013-02-09 00:00:00,2013-02-09 00:00:00,PRATE,surface,-98.4379,33.5432,1.92e-05
2013-02-09 00:00:00,2013-02-09 00:00:00,PRATE,surface,-97.5004,33.5432,2.09e-05
2013-02-09 00:00:00,2013-02-09 00:00:00,PRATE,surface,-96.5629,33.5432,2.21e-05
2013-02-09 00:00:00,2013-02-09 00:00:00,PRATE,surface,-95.6254,33.5432,2.51e-05
2013-02-09 00:00:00,2013-02-09 00:00:00,PRATE,surface,-94.6879,33.5432,2.81e-05
2013-02-09 00:00:00,2013-02-09 00:00:00,PRATE,surface,-93.7504,33.5432,3.18e-05
2013-02-09 00:00:00,2013-02-09 00:00:00,PRATE,surface,-92.8129,33.5432,3.79e-05
2013-02-09 00:00:00,2013-02-09 00:00:00,PRATE,surface,-107.813,34.4881,1.89e-05
2013-02-09 00:00:00,2013-02-09 00:00:00,PRATE,surface,-106.875,34.4881,7.1e-06
2013-02-09 00:00:00,2013-02-09 00:00:00,PRATE,surface,-105.938,34.4881,6.1e-06
2013-02-09 00:00:00,2013-02-09 00:00:00,PRATE,surface,-105,34.4881,1.11e-05
2013-02-09 00:00:00,2013-02-09 00:00:00,PRATE,surface,-104.063,34.4881,1.29e-05
2013-02-09 00:00:00,2013-02-09 00:00:00,PRATE,surface,-103.125,34.4881,1.74e-05
2013-02-09 00:00:00,2013-02-09 00:00:00,PRATE,surface,-102.188,34.4881,2.24e-05
2013-02-09 00:00:00,2013-02-09 00:00:00,PRATE,surface,-101.25,34.4881,2.62e-05
2013-02-09 00:00:00,2013-02-09 00:00:00,PRATE,surface,-100.313,34.4881,2.59e-05
2013-02-09 00:00:00,2013-02-09 00:00:00,PRATE,surface,-99.3754,34.4881,3.03e-05
2013-02-09 00:00:00,2013-02-09 00:00:00,PRATE,surface,-98.4379,34.4881,3.4e-05
2013-02-09 00:00:00,2013-02-09 00:00:00,PRATE,surface,-97.5004,34.4881,3.36e-05
2013-02-09 00:00:00,2013-02-09 00:00:00,PRATE,surface,-96.5629,34.4881,3.38e-05
2013-02-09 00:00:00,2013-02-09 00:00:00,PRATE,surface,-95.6254,34.4881,3.56e-05
2013-02-09 00:00:00,2013-02-09 00:00:00,PRATE,surface,-94.6879,34.4881,3.59e-05
2013-02-09 00:00:00,2013-02-09 00:00:00,PRATE,surface,-93.7504,34.4881,3.61e-05
2013-02-09 00:00:00,2013-02-09 00:00:00,PRATE,surface,-92.8129,34.4881,3.8e-05
2013-02-09 00:00:00,2013-02-09 00:00:00,PRATE,surface,-107.813,35.4329,1.22e-05
2013-02-09 00:00:00,2013-02-09 00:00:00,PRATE,surface,-106.875,35.4329,9.9e-06
2013-02-09 00:00:00,2013-02-09 00:00:00,PRATE,surface,-105.938,35.4329,1.07e-05
2013-02-09 00:00:00,2013-02-09 00:00:00,PRATE,surface,-105,35.4329,1.38e-05
2013-02-09 00:00:00,2013-02-09 00:00:00,PRATE,surface,-104.063,35.4329,1.51e-05
2013-02-09 00:00:00,2013-02-09 00:00:00,PRATE,surface,-103.125,35.4329,1.97e-05
2013-02-09 00:00:00,2013-02-09 00:00:00,PRATE,surface,-102.188,35.4329,2.32e-05
2013-02-09 00:00:00,2013-02-09 00:00:00,PRATE,surface,-101.25,35.4329,2.76e-05
2013-02-09 00:00:00,2013-02-09 00:00:00,PRATE,surface,-100.313,35.4329,3.66e-05
2013-02-09 00:00:00,2013-02-09 00:00:00,PRATE,surface,-99.3754,35.4329,4.39e-05
2013-02-09 00:00:00,2013-02-09 00:00:00,PRATE,surface,-98.4379,35.4329,4.87e-05
2013-02-09 00:00:00,2013-02-09 00:00:00,PRATE,surface,-97.5004,35.4329,4.87e-05
2013-02-09 00:00:00,2013-02-09 00:00:00,PRATE,surface,-96.5629,35.4329,4.37e-05
2013-02-09 00:00:00,2013-02-09 00:00:00,PRATE,surface,-95.6254,35.4329,3.88e-05
2013-02-09 00:00:00,2013-02-09 00:00:00,PRATE,surface,-94.6879,35.4329,3.88e-05
2013-02-09 00:00:00,2013-02-09 00:00:00,PRATE,surface,-93.7504,35.4329,4.25e-05
2013-02-09 00:00:00,2013-02-09 00:00:00,PRATE,surface,-92.8129,35.4329,4.07e-05
2013-02-09 00:00:00,2013-02-09 00:00:00,PRATE,surface,-107.813,36.3778,1.78e-05
2013-02-09 00:00:00,2013-02-09 00:00:00,PRATE,surface,-106.875,36.3778,2.08e-05
2013-02-09 00:00:00,2013-02-09 00:00:00,PRATE,surface,-105.938,36.3778,1.62e-05
2013-02-09 00:00:00,2013-02-09 00:00:00,PRATE,surface,-105,36.3778,1.13e-05
2013-02-09 00:00:00,2013-02-09 00:00:00,PRATE,surface,-104.063,36.3778,1.16e-05
2013-02-09 00:00:00,2013-02-09 00:00:00,PRATE,surface,-103.125,36.3778,1.84e-05
2013-02-09 00:00:00,2013-02-09 00:00:00,PRATE,surface,-102.188,36.3778,2.36e-05
2013-02-09 00:00:00,2013-02-09 00:00:00,PRATE,surface,-101.25,36.3778,2.97e-05
2013-02-09 00:00:00,2013-02-09 00:00:00,PRATE,surface,-100.313,36.3778,4.06e-05
2013-02-09 00:00:00,2013-02-09 00:00:00,PRATE,surface,-99.3754,36.3778,5e-05
2013-02-09 00:00:00,2013-02-09 00:00:00,PRATE,surface,-98.4379,36.3778,5.44e-05
2013-02-09 00:00:00,2013-02-09 00:00:00,PRATE,surface,-97.5004,36.3778,5.25e-05
2013-02-09 00:00:00,2013-02-09 00:00:00,PRATE,surface,-96.5629,36.3778,4.44e-05
2013-02-09 00:00:00,2013-02-09 00:00:00,PRATE,surface,-95.6254,36.3778,3.65e-05
2013-02-09 00:00:00,2013-02-09 00:00:00,PRATE,surface,-94.6879,36.3778,3.46e-05
2013-02-09 00:00:00,2013-02-09 00:00:00,PRATE,surface,-93.7504,36.3778,3.59e-05
2013-02-09 00:00:00,2013-02-09 00:00:00,PRATE,surface,-92.8129,36.3778,3.84e-05
