2012-01-20 00:00:00,2012-01-20 00:00:00,TMP,surface,-107.813,25.0393,293.789
2012-01-20 00:00:00,2012-01-20 00:00:00,TMP,surface,-106.875,25.0393,289.656
2012-01-20 00:00:00,2012-01-20 00:00:00,TMP,surface,-105.938,25.0393,284.919
2012-01-20 00:00:00,2012-01-20 00:00:00,TMP,surface,-105,25.0393,284.621
2012-01-20 00:00:00,2012-01-20 00:00:00,TMP,surface,-104.063,25.0393,288.703
2012-01-20 00:00:00,2012-01-20 00:00:00,TMP,surface,-103.125,25.0393,290.626
2012-01-20 00:00:00,2012-01-20 00:00:00,TMP,surface,-102.188,25.0393,289.818
2012-01-20 00:00:00,2012-01-20 00:00:00,TMP,surface,-101.25,25.0393,288.011
2012-01-20 00:00:00,2012-01-20 00:00:00,TMP,surface,-100.313,25.0393,287.787
2012-01-20 00:00:00,2012-01-20 00:00:00,TMP,surface,-99.3754,25.0393,289.875
2012-01-20 00:00:00,2012-01-20 00:00:00,TMP,surface,-98.4379,25.0393,292.173
2012-01-20 00:00:00,2012-01-20 00:00:00,TMP,surface,-97.5004,25.0393,295.063
2012-01-20 00:00:00,2012-01-20 00:00:00,TMP,surface,-96.5629,25.0393,296.291
2012-01-20 00:00:00,2012-01-20 00:00:00,TMP,surface,-95.6254,25.0393,296.832
2012-01-20 00:00:00,2012-01-20 00:00:00,TMP,surface,-94.6879,25.0393,296.815
2012-01-20 00:00:00,2012-01-20 00:00:00,TMP,surface,-93.7504,25.0393,296.664
2012-01-20 00:00:00,2012-01-20 00:00:00,TMP,surface,-92.8129,25.0393,296.675
2012-01-20 00:00:00,2012-01-20 00:00:00,TMP,surface,-107.813,25.9842,290.125
2012-01-20 00:00:00,2012-01-20 00:00:00,TMP,surface,-106.875,25.9842,285.007
2012-01-20 00:00:00,2012-01-20 00:00:00,TMP,surface,-105.938,25.9842,283.538
2012-01-20 00:00:00,2012-01-20 00:00:00,TMP,surface,-105,25.9842,286.296
2012-01-20 00:00:00,2012-01-20 00:00:00,TMP,surface,-104.063,25.9842,290.154
2012-01-20 00:00:00,2012-01-20 00:00:00,TMP,surface,-103.125,25.9842,291.431
2012-01-20 00:00:00,2012-01-20 00:00:00,TMP,surface,-102.188,25.9842,290.152
2012-01-20 00:00:00,2012-01-20 00:00:00,TMP,surface,-101.25,25.9842,288.547
2012-01-20 00:00:00,2012-01-20 00:00:00,TMP,surface,-100.313,25.9842,288.623
2012-01-20 00:00:00,2012-01-20 00:00:00,TMP,surface,-99.3754,25.9842,290.472
2012-01-20 00:00:00,2012-01-20 00:00:00,TMP,surface,-98.4379,25.9842,292.013
2012-01-20 00:00:00,2012-01-20 00:00:00,TMP,surface,-97.5004,25.9842,293.101
2012-01-20 00:00:00,2012-01-20 00:00:00,TMP,surface,-96.5629,25.9842,294.842
2012-01-20 00:00:00,2012-01-20 00:00:00,TMP,surface,-95.6254,25.9842,296.183
2012-01-20 00:00:00,2012-01-20 00:00:00,TMP,surface,-94.6879,25.9842,296.415
2012-01-20 00:00:00,2012-01-20 00:00:00,TMP,surface,-93.7504,25.9842,296.213
2012-01-20 00:00:00,2012-01-20 00:00:00,TMP,surface,-92.8129,25.9842,296.155
2012-01-20 00:00:00,2012-01-20 00:00:00,TMP,surface,-107.813,26.929,285.352
2012-01-20 00:00:00,2012-01-20 00:00:00,TMP,surface,-106.875,26.929,282.282
2012-01-20 00:00:00,2012-01-20 00:00:00,TMP,surface,-105.938,26.929,284.811
2012-01-20 00:00:00,2012-01-20 00:00:00,TMP,surface,-105,26.929,288.416
2012-01-20 00:00:00,2012-01-20 00:00:00,TMP,surface,-104.063,26.929,289.904
2012-01-20 00:00:00,2012-01-20 00:00:00,TMP,surface,-103.125,26.929,289.231
2012-01-20 00:00:00,2012-01-20 00:00:00,TMP,surface,-102.188,26.929,288.093
2012-01-20 00:00:00,2012-01-20 00:00:00,TMP,surface,-101.25,26.929,288.235
2012-01-20 00:00:00,2012-01-20 00:00:00,TMP,surface,-100.313,26.929,289.179
2012-01-20 00:00:00,2012-01-20 00:00:00,TMP,surface,-99.3754,26.929,290.314
2012-01-20 00:00:00,2012-01-20 00:00:00,TMP,surface,-98.4379,26.929,290.589
2012-01-20 00:00:00,2012-01-20 00:00:00,TMP,surface,-97.5004,26.929,291.847
2012-01-20 00:00:00,2012-01-20 00:00:00,TMP,surface,-96.5629,26.929,292.639
2012-01-20 00:00:00,2012-01-20 00:00:00,TMP,surface,-95.6254,26.929,294.88
2012-01-20 00:00:00,2012-01-20 00:00:00,TMP,surface,-94.6879,26.929,295.85
2012-01-20 00:00:00,2012-01-20 00:00:00,TMP,surface,-93.7504,26.929,295.623
2012-01-20 00:00:00,2012-01-20 00:00:00,TMP,surface,-92.8129,26.929,295.426
2012-01-20 00:00:00,2012-01-20 00:00:00,TMP,surface,-107.813,27.8739,282.264
2012-01-20 00:00:00,2012-01-20 00:00:00,TMP,surface,-106.875,27.8739,282.064
2012-01-20 00:00:00,2012-01-20 00:00:00,TMP,surface,-105.938,27.8739,286.127
2012-01-20 00:00:00,2012-01-20 00:00:00,TMP,surface,-105,27.8739,288.839
2012-01-20 00:00:00,2012-01-20 00:00:00,TMP,surface,-104.063,27.8739,288.669
2012-01-20 00:00:00,2012-01-20 00:00:00,TMP,surface,-103.125,27.8739,286.909
2012-01-20 00:00:00,2012-01-20 00:00:00,TMP,surface,-102.188,27.8739,286.605
2012-01-20 00:00:00,2012-01-20 00:00:00,TMP,surface,-101.25,27.8739,287.655
2012-01-20 00:00:00,2012-01-20 00:00:00,TMP,surface,-100.313,27.8739,288.709
2012-01-20 00:00:00,2012-01-20 00:00:00,TMP,surface,-99.3754,27.8739,288.925
2012-01-20 00:00:00,2012-01-20 00:00:00,TMP,surface,-98.4379,27.8739,289.067
2012-01-20 00:00:00,2012-01-20 00:00:00,TMP,surface,-97.5004,27.8739,290.528
2012-01-20 00:00:00,2012-01-20 00:00:00,TMP,surface,-96.5629,27.8739,292.527
2012-01-20 00:00:00,2012-01-20 00:00:00,TMP,surface,-95.6254,27.8739,293.747
2012-01-20 00:00:00,2012-01-20 00:00:00,TMP,surface,-94.6879,27.8739,294.274
2012-01-20 00:00:00,2012-01-20 00:00:00,TMP,surface,-93.7504,27.8739,294.245
2012-01-20 00:00:00,2012-01-20 00:00:00,TMP,surface,-92.8129,27.8739,294.258
2012-01-20 00:00:00,2012-01-20 00:00:00,TMP,surface,-107.813,28.8188,280.567
2012-01-20 00:00:00,2012-01-20 00:00:00,TMP,surface,-106.875,28.8188,282.44
2012-01-20 00:00:00,2012-01-20 00:00:00,TMP,surface,-105.938,28.8188,286.159
2012-01-20 00:00:00,2012-01-20 00:00:00,TMP,surface,-105,28.8188,288.128
2012-01-20 00:00:00,2012-01-20 00:00:00,TMP,surface,-104.063,28.8188,287.099
2012-01-20 00:00:00,2012-01-20 00:00:00,TMP,surface,-103.125,28.8188,285.747
2012-01-20 00:00:00,2012-01-20 00:00:00,TMP,surface,-102.188,28.8188,285.976
2012-01-20 00:00:00,2012-01-20 00:00:00,TMP,surface,-101.25,28.8188,286.955
2012-01-20 00:00:00,2012-01-20 00:00:00,TMP,surface,-100.313,28.8188,287.195
2012-01-20 00:00:00,2012-01-20 00:00:00,TMP,surface,-99.3754,28.8188,286.917
2012-01-20 00:00:00,2012-01-20 00:00:00,TMP,surface,-98.4379,28.8188,286.983
2012-01-20 00:00:00,2012-01-20 00:00:00,TMP,surface,-97.5004,28.8188,287.679
2012-01-20 00:00:00,2012-01-20 00:00:00,TMP,surface,-96.5629,28.8188,288.485
2012-01-20 00:00:00,2012-01-20 00:00:00,TMP,surface,-95.6254,28.8188,289.747
2012-01-20 00:00:00,2012-01-20 00:00:00,TMP,surface,-94.6879,28.8188,291.261
2012-01-20 00:00:00,2012-01-20 00:00:00,TMP,surface,-93.7504,28.8188,291.399
2012-01-20 00:00:00,2012-01-20 00:00:00,TMP,surface,-92.8129,28.8188,291.783
2012-01-20 00:00:00,2012-01-20 00:00:00,TMP,surface,-107.813,29.7637,281.027
2012-01-20 00:00:00,2012-01-20 00:00:00,TMP,surface,-106.875,29.7637,282.891
2012-01-20 00:00:00,2012-01-20 00:00:00,TMP,surface,-105.938,29.7637,285.445
2012-01-20 00:00:00,2012-01-20 00:00:00,TMP,surface,-105,29.7637,286.216
2012-01-20 00:00:00,2012-01-20 00:00:00,TMP,surface,-104.063,29.7637,285.851
2012-01-20 00:00:00,2012-01-20 00:00:00,TMP,surface,-103.125,29.7637,285.581
2012-01-20 00:00:00,2012-01-20 00:00:00,TMP,surface,-102.188,29.7637,286.125
2012-01-20 00:00:00,2012-01-20 00:00:00,TMP,surface,-101.25,29.7637,286.283
2012-01-20 00:00:00,2012-01-20 00:00:00,TMP,surface,-100.313,29.7637,285.699
2012-01-20 00:00:00,2012-01-20 00:00:00,TMP,surface,-99.3754,29.7637,285.248
2012-01-20 00:00:00,2012-01-20 00:00:00,TMP,surface,-98.4379,29.7637,285.317
2012-01-20 00:00:00,2012-01-20 00:00:00,TMP,surface,-97.5004,29.7637,285.767
2012-01-20 00:00:00,2012-01-20 00:00:00,TMP,surface,-96.5629,29.7637,286.267
2012-01-20 00:00:00,2012-01-20 00:00:00,TMP,surface,-95.6254,29.7637,286.683
2012-01-20 00:00:00,2012-01-20 00:00:00,TMP,surface,-94.6879,29.7637,287.64
2012-01-20 00:00:00,2012-01-20 00:00:00,TMP,surface,-93.7504,29.7637,288.717
2012-01-20 00:00:00,2012-01-20 00:00:00,TMP,surface,-92.8129,29.7637,287.482
2012-01-20 00:00:00,2012-01-20 00:00:00,TMP,surface,-107.813,30.7085,282.725
2012-01-20 00:00:00,2012-01-20 00:00:00,TMP,surface,-106.875,30.7085,283.728
2012-01-20 00:00:00,2012-01-20 00:00:00,TMP,surface,-105.938,30.7085,284.111
2012-01-20 00:00:00,2012-01-20 00:00:00,TMP,surface,-105,30.7085,284.168
2012-01-20 00:00:00,2012-01-20 00:00:00,TMP,surface,-104.063,30.7085,284.325
2012-01-20 00:00:00,2012-01-20 00:00:00,TMP,surface,-103.125,30.7085,285.216
2012-01-20 00:00:00,2012-01-20 00:00:00,TMP,surface,-102.188,30.7085,285.751
2012-01-20 00:00:00,2012-01-20 00:00:00,TMP,surface,-101.25,30.7085,285.642
2012-01-20 00:00:00,2012-01-20 00:00:00,TMP,surface,-100.313,30.7085,285.064
2012-01-20 00:00:00,2012-01-20 00:00:00,TMP,surface,-99.3754,30.7085,284.701
2012-01-20 00:00:00,2012-01-20 00:00:00,TMP,surface,-98.4379,30.7085,284.696
2012-01-20 00:00:00,2012-01-20 00:00:00,TMP,surface,-97.5004,30.7085,284.915
2012-01-20 00:00:00,2012-01-20 00:00:00,TMP,surface,-96.5629,30.7085,285.267
2012-01-20 00:00:00,2012-01-20 00:00:00,TMP,surface,-95.6254,30.7085,285.547
2012-01-20 00:00:00,2012-01-20 00:00:00,TMP,surface,-94.6879,30.7085,285.608
2012-01-20 00:00:00,2012-01-20 00:00:00,TMP,surface,-93.7504,30.7085,285.568
2012-01-20 00:00:00,2012-01-20 00:00:00,TMP,surface,-92.8129,30.7085,285.376
2012-01-20 00:00:00,2012-01-20 00:00:00,TMP,surface,-107.813,31.6534,282.367
2012-01-20 00:00:00,2012-01-20 00:00:00,TMP,surface,-106.875,31.6534,282.904
2012-01-20 00:00:00,2012-01-20 00:00:00,TMP,surface,-105.938,31.6534,282.632
2012-01-20 00:00:00,2012-01-20 00:00:00,TMP,surface,-105,31.6534,282.571
2012-01-20 00:00:00,2012-01-20 00:00:00,TMP,surface,-104.063,31.6534,283.279
2012-01-20 00:00:00,2012-01-20 00:00:00,TMP,surface,-103.125,31.6534,284.379
2012-01-20 00:00:00,2012-01-20 00:00:00,TMP,surface,-102.188,31.6534,284.935
2012-01-20 00:00:00,2012-01-20 00:00:00,TMP,surface,-101.25,31.6534,284.826
2012-01-20 00:00:00,2012-01-20 00:00:00,TMP,surface,-100.313,31.6534,284.738
2012-01-20 00:00:00,2012-01-20 00:00:00,TMP,surface,-99.3754,31.6534,284.739
2012-01-20 00:00:00,2012-01-20 00:00:00,TMP,surface,-98.4379,31.6534,284.731
2012-01-20 00:00:00,2012-01-20 00:00:00,TMP,surface,-97.5004,31.6534,284.709
2012-01-20 00:00:00,2012-01-20 00:00:00,TMP,surface,-96.5629,31.6534,284.808
2012-01-20 00:00:00,2012-01-20 00:00:00,TMP,surface,-95.6254,31.6534,284.863
2012-01-20 00:00:00,2012-01-20 00:00:00,TMP,surface,-94.6879,31.6534,284.603
2012-01-20 00:00:00,2012-01-20 00:00:00,TMP,surface,-93.7504,31.6534,284.309
2012-01-20 00:00:00,2012-01-20 00:00:00,TMP,surface,-92.8129,31.6534,284.218
2012-01-20 00:00:00,2012-01-20 00:00:00,TMP,surface,-107.813,32.5983,279.755
2012-01-20 00:00:00,2012-01-20 00:00:00,TMP,surface,-106.875,32.5983,280.323
2012-01-20 00:00:00,2012-01-20 00:00:00,TMP,surface,-105.938,32.5983,280.863
2012-01-20 00:00:00,2012-01-20 00:00:00,TMP,surface,-105,32.5983,281.237
2012-01-20 00:00:00,2012-01-20 00:00:00,TMP,surface,-104.063,32.5983,282.346
2012-01-20 00:00:00,2012-01-20 00:00:00,TMP,surface,-103.125,32.5983,283.24
2012-01-20 00:00:00,2012-01-20 00:00:00,TMP,surface,-102.188,32.5983,283.635
2012-01-20 00:00:00,2012-01-20 00:00:00,TMP,surface,-101.25,32.5983,283.936
2012-01-20 00:00:00,2012-01-20 00:00:00,TMP,surface,-100.313,32.5983,284.275
2012-01-20 00:00:00,2012-01-20 00:00:00,TMP,surface,-99.3754,32.5983,284.509
2012-01-20 00:00:00,2012-01-20 00:00:00,TMP,surface,-98.4379,32.5983,284.491
2012-01-20 00:00:00,2012-01-20 00:00:00,TMP,surface,-97.5004,32.5983,284.351
2012-01-20 00:00:00,2012-01-20 00:00:00,TMP,surface,-96.5629,32.5983,284.277
2012-01-20 00:00:00,2012-01-20 00:00:00,TMP,surface,-95.6254,32.5983,284.155
2012-01-20 00:00:00,2012-01-20 00:00:00,TMP,surface,-94.6879,32.5983,283.738
2012-01-20 00:00:00,2012-01-20 00:00:00,TMP,surface,-93.7504,32.5983,283.232
2012-01-20 00:00:00,2012-01-20 00:00:00,TMP,surface,-92.8129,32.5983,283.162
2012-01-20 00:00:00,2012-01-20 00:00:00,TMP,surface,-107.813,33.5432,276.259
2012-01-20 00:00:00,2012-01-20 00:00:00,TMP,surface,-106.875,33.5432,278.015
2012-01-20 00:00:00,2012-01-20 00:00:00,TMP,surface,-105.938,33.5432,279.293
2012-01-20 00:00:00,2012-01-20 00:00:00,TMP,surface,-105,33.5432,280.298
2012-01-20 00:00:00,2012-01-20 00:00:00,TMP,surface,-104.063,33.5432,281.296
2012-01-20 00:00:00,2012-01-20 00:00:00,TMP,surface,-103.125,33.5432,281.941
2012-01-20 00:00:00,2012-01-20 00:00:00,TMP,surface,-102.188,33.5432,282.143
2012-01-20 00:00:00,2012-01-20 00:00:00,TMP,surface,-101.25,33.5432,282.351
2012-01-20 00:00:00,2012-01-20 00:00:00,TMP,surface,-100.313,33.5432,282.848
2012-01-20 00:00:00,2012-01-20 00:00:00,TMP,surface,-99.3754,33.5432,283.269
2012-01-20 00:00:00,2012-01-20 00:00:00,TMP,surface,-98.4379,33.5432,283.274
2012-01-20 00:00:00,2012-01-20 00:00:00,TMP,surface,-97.5004,33.5432,283.011
2012-01-20 00:00:00,2012-01-20 00:00:00,TMP,surface,-96.5629,33.5432,282.826
2012-01-20 00:00:00,2012-01-20 00:00:00,TMP,surface,-95.6254,33.5432,282.741
2012-01-20 00:00:00,2012-01-20 00:00:00,TMP,surface,-94.6879,33.5432,282.472
2012-01-20 00:00:00,2012-01-20 00:00:00,TMP,surface,-93.7504,33.5432,282.037
2012-01-20 00:00:00,2012-01-20 00:00:00,TMP,surface,-92.8129,33.5432,281.88
2012-01-20 00:00:00,2012-01-20 00:00:00,TMP,surface,-107.813,34.4881,274.279
2012-01-20 00:00:00,2012-01-20 00:00:00,TMP,surface,-106.875,34.4881,275.979
2012-01-20 00:00:00,2012-01-20 00:00:00,TMP,surface,-105.938,34.4881,277.523
2012-01-20 00:00:00,2012-01-20 00:00:00,TMP,surface,-105,34.4881,278.847
2012-01-20 00:00:00,2012-01-20 00:00:00,TMP,surface,-104.063,34.4881,279.706
2012-01-20 00:00:00,2012-01-20 00:00:00,TMP,surface,-103.125,34.4881,279.991
2012-01-20 00:00:00,2012-01-20 00:00:00,TMP,surface,-102.188,34.4881,280.008
2012-01-20 00:00:00,2012-01-20 00:00:00,TMP,surface,-101.25,34.4881,280.191
2012-01-20 00:00:00,2012-01-20 00:00:00,TMP,surface,-100.313,34.4881,280.581
2012-01-20 00:00:00,2012-01-20 00:00:00,TMP,surface,-99.3754,34.4881,281.077
2012-01-20 00:00:00,2012-01-20 00:00:00,TMP,surface,-98.4379,34.4881,281.336
2012-01-20 00:00:00,2012-01-20 00:00:00,TMP,surface,-97.5004,34.4881,281.33
2012-01-20 00:00:00,2012-01-20 00:00:00,TMP,surface,-96.5629,34.4881,281.344
2012-01-20 00:00:00,2012-01-20 00:00:00,TMP,surface,-95.6254,34.4881,281.234
2012-01-20 00:00:00,2012-01-20 00:00:00,TMP,surface,-94.6879,34.4881,280.751
2012-01-20 00:00:00,2012-01-20 00:00:00,TMP,surface,-93.7504,34.4881,280.33
2012-01-20 00:00:00,2012-01-20 00:00:00,TMP,surface,-92.8129,34.4881,280.245
2012-01-20 00:00:00,2012-01-20 00:00:00,TMP,surface,-107.813,35.4329,273.346
2012-01-20 00:00:00,2012-01-20 00:00:00,TMP,surface,-106.875,35.4329,273.991
2012-01-20 00:00:00,2012-01-20 00:00:00,TMP,surface,-105.938,35.4329,275.287
2012-01-20 00:00:00,2012-01-20 00:00:00,TMP,surface,-105,35.4329,276.477
2012-01-20 00:00:00,2012-01-20 00:00:00,TMP,surface,-104.063,35.4329,277.491
2012-01-20 00:00:00,2012-01-20 00:00:00,TMP,surface,-103.125,35.4329,278.047
2012-01-20 00:00:00,2012-01-20 00:00:00,TMP,surface,-102.188,35.4329,277.941
2012-01-20 00:00:00,2012-01-20 00:00:00,TMP,surface,-101.25,35.4329,277.912
2012-01-20 00:00:00,2012-01-20 00:00:00,TMP,surface,-100.313,35.4329,278.266
2012-01-20 00:00:00,2012-01-20 00:00:00,TMP,surface,-99.3754,35.4329,278.775
2012-01-20 00:00:00,2012-01-20 00:00:00,TMP,surface,-98.4379,35.4329,279.317
2012-01-20 00:00:00,2012-01-20 00:00:00,TMP,surface,-97.5004,35.4329,279.799
2012-01-20 00:00:00,2012-01-20 00:00:00,TMP,surface,-96.5629,35.4329,280.051
2012-01-20 00:00:00,2012-01-20 00:00:00,TMP,surface,-95.6254,35.4329,279.89
2012-01-20 00:00:00,2012-01-20 00:00:00,TMP,surface,-94.6879,35.4329,279.325
2012-01-20 00:00:00,2012-01-20 00:00:00,TMP,surface,-93.7504,35.4329,278.749
2012-01-20 00:00:00,2012-01-20 00:00:00,TMP,surface,-92.8129,35.4329,278.597
2012-01-20 00:00:00,2012-01-20 00:00:00,TMP,surface,-107.813,36.3778,271.879
2012-01-20 00:00:00,2012-01-20 00:00:00,TMP,surface,-106.875,36.3778,270.815
2012-01-20 00:00:00,2012-01-20 00:00:00,TMP,surface,-105.938,36.3778,271.847
2012-01-20 00:00:00,2012-01-20 00:00:00,TMP,surface,-105,36.3778,273.674
2012-01-20 00:00:00,2012-01-20 00:00:00,TMP,surface,-104.063,36.3778,274.949
2012-01-20 00:00:00,2012-01-20 00:00:00,TMP,surface,-103.125,36.3778,275.488
2012-01-20 00:00:00,2012-01-20 00:00:00,TMP,surface,-102.188,36.3778,275.952
2012-01-20 00:00:00,2012-01-20 00:00:00,TMP,surface,-101.25,36.3778,276.283
2012-01-20 00:00:00,2012-01-20 00:00:00,TMP,surface,-100.313,36.3778,276.581
2012-01-20 00:00:00,2012-01-20 00:00:00,TMP,surface,-99.3754,36.3778,276.925
2012-01-20 00:00:00,2012-01-20 00:00:00,TMP,surface,-98.4379,36.3778,277.288
2012-01-20 00:00:00,2012-01-20 00:00:00,TMP,surface,-97.5004,36.3778,277.914
2012-01-20 00:00:00,2012-01-20 00:00:00,TMP,surface,-96.5629,36.3778,278.504
2012-01-20 00:00:00,2012-01-20 00:00:00,TMP,surface,-95.6254,36.3778,278.474
2012-01-20 00:00:00,2012-01-20 00:00:00,TMP,surface,-94.6879,36.3778,277.923
2012-01-20 00:00:00,2012-01-20 00:00:00,TMP,surface,-93.7504,36.3778,277.413
2012-01-20 00:00:00,2012-01-20 00:00:00,TMP,surface,-92.8129,36.3778,277.338
2012-01-20 00:00:00,2012-01-20 00:00:00,PRATE,surface,-107.813,25.0393,1e-07
2012-01-20 00:00:00,2012-01-20 00:00:00,PRATE,surface,-106.875,25.0393,3.1e-06
2012-01-20 00:00:00,2012-01-20 00:00:00,PRATE,surface,-105.938,25.0393,1.02e-05
2012-01-20 00:00:00,2012-01-20 00:00:00,PRATE,surface,-105,25.0393,9.4e-06
2012-01-20 00:00:00,2012-01-20 00:00:00,PRATE,surface,-104.063,25.0393,4.8e-06
2012-01-20 00:00:00,2012-01-20 00:00:00,PRATE,surface,-103.125,25.0393,1.7e-06
2012-01-20 00:00:00,2012-01-20 00:00:00,PRATE,surface,-102.188,25.0393,4.2e-06
2012-01-20 00:00:00,2012-01-20 00:00:00,PRATE,surface,-101.25,25.0393,1.8e-05
2012-01-20 00:00:00,2012-01-20 00:00:00,PRATE,surface,-100.313,25.0393,3.27e-05
2012-01-20 00:00:00,2012-01-20 00:00:00,PRATE,surface,-99.3754,25.0393,3.29e-05
2012-01-20 00:00:00,2012-01-20 00:00:00,PRATE,surface,-98.4379,25.0393,3.32e-05
2012-01-20 00:00:00,2012-01-20 00:00:00,PRATE,surface,-97.5004,25.0393,5.44e-05
2012-01-20 00:00:00,2012-01-20 00:00:00,PRATE,surface,-96.5629,25.0393,6.82e-05
2012-01-20 00:00:00,2012-01-20 00:00:00,PRATE,surface,-95.6254,25.0393,7.3e-05
2012-01-20 00:00:00,2012-01-20 00:00:00,PRATE,surface,-94.6879,25.0393,6.53e-05
2012-01-20 00:00:00,2012-01-20 00:00:00,PRATE,surface,-93.7504,25.0393,4.45e-05
2012-01-20 00:00:00,2012-01-20 00:00:00,PRATE,surface,-92.8129,25.0393,3.76e-05
2012-01-20 00:00:00,2012-01-20 00:00:00,PRATE,surface,-107.813,25.9842,8e-07
2012-01-20 00:00:00,2012-01-20 00:00:00,PRATE,surface,-106.875,25.9842,8.6e-06
2012-01-20 00:00:00,2012-01-20 00:00:00,PRATE,surface,-105.938,25.9842,1.07e-05
2012-01-20 00:00:00,2012-01-20 00:00:00,PRATE,surface,-105,25.9842,6.5e-06
2012-01-20 00:00:00,2012-01-20 00:00:00,PRATE,surface,-104.063,25.9842,3.5e-06
2012-01-20 00:00:00,2012-01-20 00:00:00,PRATE,surface,-103.125,25.9842,3e-06
2012-01-20 00:00:00,2012-01-20 00:00:00,PRATE,surface,-102.188,25.9842,2.9e-06
2012-01-20 00:00:00,2012-01-20 00:00:00,PRATE,surface,-101.25,25.9842,1.03e-05
2012-01-20 00:00:00,2012-01-20 00:00:00,PRATE,surface,-100.313,25.9842,2.43e-05
2012-01-20 00:00:00,2012-01-20 00:00:00,PRATE,surface,-99.3754,25.9842,2.79e-05
2012-01-20 00:00:00,2012-01-20 00:00:00,PRATE,surface,-98.4379,25.9842,3.21e-05
2012-01-20 00:00:00,2012-01-20 00:00:00,PRATE,surface,-97.5004,25.9842,4.18e-05
2012-01-20 00:00:00,2012-01-20 00:00:00,PRATE,surface,-96.5629,25.9842,6.91e-05
2012-01-20 00:00:00,2012-01-20 00:00:00,PRATE,surface,-95.6254,25.9842,7.08e-05
2012-01-20 00:00:00,2012-01-20 00:00:00,PRATE,surface,-94.6879,25.9842,7.04e-05
2012-01-20 00:00:00,2012-01-20 00:00:00,PRATE,surface,-93.7504,25.9842,6.4e-05
2012-01-20 00:00:00,2012-01-20 00:00:00,PRATE,surface,-92.8129,25.9842,4.63e-05
2012-01-20 00:00:00,2012-01-20 00:00:00,PRATE,surface,-107.813,26.929,6.3e-06
2012-01-20 00:00:00,2012-01-20 00:00:00,PRATE,surface,-106.875,26.929,1.35e-05
2012-01-20 00:00:00,2012-01-20 00:00:00,PRATE,surface,-105.938,26.929,7.4e-06
2012-01-20 00:00:00,2012-01-20 00:00:00,PRATE,surface,-105,26.929,4.8e-06
2012-01-20 00:00:00,2012-01-20 00:00:00,PRATE,surface,-104.063,26.929,3.4e-06
2012-01-20 00:00:00,2012-01-20 00:00:00,PRATE,surface,-103.125,26.929,5.3e-06
2012-01-20 00:00:00,2012-01-20 00:00:00,PRATE,surface,-102.188,26.929,1.06e-05
2012-01-20 00:00:00,2012-01-20 00:00:00,PRATE,surface,-101.25,26.929,1.94e-05
2012-01-20 00:00:00,2012-01-20 00:00:00,PRATE,surface,-100.313,26.929,2.41e-05
2012-01-20 00:00:00,2012-01-20 00:00:00,PRATE,surface,-99.3754,26.929,2.42e-05
2012-01-20 00:00:00,2012-01-20 00:00:00,PRATE,surface,-98.4379,26.929,3.05e-05
2012-01-20 00:00:00,2012-01-20 00:00:00,PRATE,surface,-97.5004,26.929,3.28e-05
2012-01-20 00:00:00,2012-01-20 00:00:00,PRATE,surface,-96.5629,26.929,4.35e-05
2012-01-20 00:00:00,2012-01-20 00:00:00,PRATE,surface,-95.6254,26.929,5.67e-05
2012-01-20 00:00:00,2012-01-20 00:00:00,PRATE,surface,-94.6879,26.929,6.02e-05
2012-01-20 00:00:00,2012-01-20 00:00:00,PRATE,surface,-93.7504,26.929,6.65e-05
2012-01-20 00:00:00,2012-01-20 00:00:00,PRATE,surface,-92.8129,26.929,7e-05
2012-01-20 00:00:00,2012-01-20 00:00:00,PRATE,surface,-107.813,27.8739,5.8e-06
2012-01-20 00:00:00,2012-01-20 00:00:00,PRATE,surface,-106.875,27.8739,5.2e-06
2012-01-20 00:00:00,2012-01-20 00:00:00,PRATE,surface,-105.938,27.8739,2.1e-06
2012-01-20 00:00:00,2012-01-20 00:00:00,PRATE,surface,-105,27.8739,8e-07
2012-01-20 00:00:00,2012-01-20 00:00:00,PRATE,surface,-104.063,27.8739,2.7e-06
2012-01-20 00:00:00,2012-01-20 00:00:00,PRATE,surface,-103.125,27.8739,1.11e-05
2012-01-20 00:00:00,2012-01-20 00:00:00,PRATE,surface,-102.188,27.8739,2.1e-05
2012-01-20 00:00:00,2012-01-20 00:00:00,PRATE,surface,-101.25,27.8739,2.91e-05
2012-01-20 00:00:00,2012-01-20 00:00:00,PRATE,surface,-100.313,27.8739,3.17e-05
2012-01-20 00:00:00,2012-01-20 00:00:00,PRATE,surface,-99.3754,27.8739,3.01e-05
2012-01-20 00:00:00,2012-01-20 00:00:00,PRATE,surface,-98.4379,27.8739,2.83e-05
2012-01-20 00:00:00,2012-01-20 00:00:00,PRATE,surface,-97.5004,27.8739,2.74e-05
2012-01-20 00:00:00,2012-01-20 00:00:00,PRATE,surface,-96.5629,27.8739,2.8e-05
2012-01-20 00:00:00,2012-01-20 00:00:00,PRATE,surface,-95.6254,27.8739,3.02e-05
2012-01-20 00:00:00,2012-01-20 00:00:00,PRATE,surface,-94.6879,27.8739,3.67e-05
2012-01-20 00:00:00,2012-01-20 00:00:00,PRATE,surface,-93.7504,27.8739,5.16e-05
2012-01-20 00:00:00,2012-01-20 00:00:00,PRATE,surface,-92.8129,27.8739,6.54e-05
2012-01-20 00:00:00,2012-01-20 00:00:00,PRATE,surface,-107.813,28.8188,8.1e-06
2012-01-20 00:00:00,2012-01-20 00:00:00,PRATE,surface,-106.875,28.8188,2.4e-06
2012-01-20 00:00:00,2012-01-20 00:00:00,PRATE,surface,-105.938,28.8188,5e-07
2012-01-20 00:00:00,2012-01-20 00:00:00,PRATE,surface,-105,28.8188,8e-07
2012-01-20 00:00:00,2012-01-20 00:00:00,PRATE,surface,-104.063,28.8188,4e-06
2012-01-20 00:00:00,2012-01-20 00:00:00,PRATE,surface,-103.125,28.8188,9.9e-06
2012-01-20 00:00:00,2012-01-20 00:00:00,PRATE,surface,-102.188,28.8188,1.58e-05
2012-01-20 00:00:00,2012-01-20 00:00:00,PRATE,surface,-101.25,28.8188,2.37e-05
2012-01-20 00:00:00,2012-01-20 00:00:00,PRATE,surface,-100.313,28.8188,3.33e-05
2012-01-20 00:00:00,2012-01-20 00:00:00,PRATE,surface,-99.3754,28.8188,3.34e-05
2012-01-20 00:00:00,2012-01-20 00:00:00,PRATE,surface,-98.4379,28.8188,2.7e-05
2012-01-20 00:00:00,2012-01-20 00:00:00,PRATE,surface,-97.5004,28.8188,2.2e-05
2012-01-20 00:00:00,2012-01-20 00:00:00,PRATE,surface,-96.5629,28.8188,2.12e-05
2012-01-20 00:00:00,2012-01-20 00:00:00,PRATE,surface,-95.6254,28.8188,2.54e-05
2012-01-20 00:00:00,2012-01-20 00:00:00,PRATE,surface,-94.6879,28.8188,3.09e-05
2012-01-20 00:00:00,2012-01-20 00:00:00,PRATE,surface,-93.7504,28.8188,3.45e-05
2012-01-20 00:00:00,2012-01-20 00:00:00,PRATE,surface,-92.8129,28.8188,4.49e-05
2012-01-20 00:00:00,2012-01-20 00:00:00,PRATE,surface,-107.813,29.7637,8.5e-06
2012-01-20 00:00:00,2012-01-20 00:00:00,PRATE,surface,-106.875,29.7637,4e-06
2012-01-20 00:00:00,2012-01-20 00:00:00,PRATE,surface,-105.938,29.7637,2.5e-06
2012-01-20 00:00:00,2012-01-20 00:00:00,PRATE,surface,-105,29.7637,1.5e-06
2012-01-20 00:00:00,2012-01-20 00:00:00,PRATE,surface,-104.063,29.7637,3.4e-06
2012-01-20 00:00:00,2012-01-20 00:00:00,PRATE,surface,-103.125,29.7637,9.7e-06
2012-01-20 00:00:00,2012-01-20 00:00:00,PRATE,surface,-102.188,29.7637,1.17e-05
2012-01-20 00:00:00,2012-01-20 00:00:00,PRATE,surface,-101.25,29.7637,1.67e-05
2012-01-20 00:00:00,2012-01-20 00:00:00,PRATE,surface,-100.313,29.7637,2.28e-05
2012-01-20 00:00:00,2012-01-20 00:00:00,PRATE,surface,-99.3754,29.7637,2.58e-05
2012-01-20 00:00:00,2012-01-20 00:00:00,PRATE,surface,-98.4379,29.7637,2.45e-05
2012-01-20 00:00:00,2012-01-20 00:00:00,PRATE,surface,-97.5004,29.7637,2.13e-05
2012-01-20 00:00:00,2012-01-20 00:00:00,PRATE,surface,-96.5629,29.7637,1.93e-05
2012-01-20 00:00:00,2012-01-20 00:00:00,PRATE,surface,-95.6254,29.7637,2.03e-05
2012-01-20 00:00:00,2012-01-20 00:00:00,PRATE,surface,-94.6879,29.7637,2.32e-05
2012-01-20 00:00:00,2012-01-20 00:00:00,PRATE,surface,-93.7504,29.7637,2.43e-05
2012-01-20 00:00:00,2012-01-20 00:00:00,PRATE,surface,-92.8129,29.7637,2.49e-05
2012-01-20 00:00:00,2012-01-20 00:00:00,PRATE,surface,-107.813,30.7085,4.6e-06
2012-01-20 00:00:00,2012-01-20 00:00:00,PRATE,surface,-106.875,30.7085,3.8e-06
2012-01-20 00:00:00,2012-01-20 00:00:00,PRATE,surface,-105.938,30.7085,3.2e-06
2012-01-20 00:00:00,2012-01-20 00:00:00,PRATE,surface,-105,30.7085,2.8e-06
2012-01-20 00:00:00,2012-01-20 00:00:00,PRATE,surface,-104.063,30.7085,5e-06
2012-01-20 00:00:00,2012-01-20 00:00:00,PRATE,surface,-103.125,30.7085,7.4e-06
2012-01-20 00:00:00,2012-01-20 00:00:00,PRATE,surface,-102.188,30.7085,8.3e-06
2012-01-20 00:00:00,2012-01-20 00:00:00,PRATE,surface,-101.25,30.7085,1.06e-05
2012-01-20 00:00:00,2012-01-20 00:00:00,PRATE,surface,-100.313,30.7085,1.26e-05
2012-01-20 00:00:00,2012-01-20 00:00:00,PRATE,surface,-99.3754,30.7085,1.64e-05
2012-01-20 00:00:00,2012-01-20 00:00:00,PRATE,surface,-98.4379,30.7085,2.04e-05
2012-01-20 00:00:00,2012-01-20 00:00:00,PRATE,surface,-97.5004,30.7085,2.13e-05
2012-01-20 00:00:00,2012-01-20 00:00:00,PRATE,surface,-96.5629,30.7085,2.11e-05
2012-01-20 00:00:00,2012-01-20 00:00:00,PRATE,surface,-95.6254,30.7085,2.08e-05
2012-01-20 00:00:00,2012-01-20 00:00:00,PRATE,surface,-94.6879,30.7085,2.03e-05
2012-01-20 00:00:00,2012-01-20 00:00:00,PRATE,surface,-93.7504,30.7085,2.26e-05
2012-01-20 00:00:00,2012-01-20 00:00:00,PRATE,surface,-92.8129,30.7085,2.38e-05
2012-01-20 00:00:00,2012-01-20 00:00:00,PRATE,surface,-107.813,31.6534,3.1e-06
2012-01-20 00:00:00,2012-01-20 00:00:00,PRATE,surface,-106.875,31.6534,3e-06
2012-01-20 00:00:00,2012-01-20 00:00:00,PRATE,surface,-105.938,31.6534,3.2e-06
2012-01-20 00:00:00,2012-01-20 00:00:00,PRATE,surface,-105,31.6534,3.3e-06
2012-01-20 00:00:00,2012-01-20 00:00:00,PRATE,surface,-104.063,31.6534,5.2e-06
2012-01-20 00:00:00,2012-01-20 00:00:00,PRATE,surface,-103.125,31.6534,6.5e-06
2012-01-20 00:00:00,2012-01-20 00:00:00,PRATE,surface,-102.188,31.6534,6.3e-06
2012-01-20 00:00:00,2012-01-20 00:00:00,PRATE,surface,-101.25,31.6534,8.4e-06
2012-01-20 00:00:00,2012-01-20 00:00:00,PRATE,surface,-100.313,31.6534,1.01e-05
2012-01-20 00:00:00,2012-01-20 00:00:00,PRATE,surface,-99.3754,31.6534,1.07e-05
2012-01-20 00:00:00,2012-01-20 00:00:00,PRATE,surface,-98.4379,31.6534,1.45e-05
2012-01-20 00:00:00,2012-01-20 00:00:00,PRATE,surface,-97.5004,31.6534,1.86e-05
2012-01-20 00:00:00,2012-01-20 00:00:00,PRATE,surface,-96.5629,31.6534,2.06e-05
2012-01-20 00:00:00,2012-01-20 00:00:00,PRATE,surface,-95.6254,31.6534,2.23e-05
2012-01-20 00:00:00,2012-01-20 00:00:00,PRATE,surface,-94.6879,31.6534,2.4e-05
2012-01-20 00:00:00,2012-01-20 00:00:00,PRATE,surface,-93.7504,31.6534,2.6e-05
2012-01-20 00:00:00,2012-01-20 00:00:00,PRATE,surface,-92.8129,31.6534,2.79e-05
2012-01-20 00:00:00,2012-01-20 00:00:00,PRATE,surface,-107.813,32.5983,3e-06
2012-01-20 00:00:00,2012-01-20 00:00:00,PRATE,surface,-106.875,32.5983,3e-06
2012-01-20 00:00:00,2012-01-20 00:00:00,PRATE,surface,-105.938,32.5983,3.7e-06
2012-01-20 00:00:00,2012-01-20 00:00:00,PRATE,surface,-105,32.5983,4.7e-06
2012-01-20 00:00:00,2012-01-20 00:00:00,PRATE,surface,-104.063,32.5983,7.4e-06
2012-01-20 00:00:00,2012-01-20 00:00:00,PRATE,surface,-103.125,32.5983,7.8e-06
2012-01-20 00:00:00,2012-01-20 00:00:00,PRATE,surface,-102.188,32.5983,7.4e-06
2012-01-20 00:00:00,2012-01-20 00:00:00,PRATE,surface,-101.25,32.5983,9.3e-06
2012-01-20 00:00:00,2012-01-20 00:00:00,PRATE,surface,-100.313,32.5983,1.01e-05
2012-01-20 00:00:00,2012-01-20 00:00:00,PRATE,surface,-99.3754,32.5983,1.13e-05
2012-01-20 00:00:00,2012-01-20 00:00:00,PRATE,surface,-98.4379,32.5983,1.53e-05
2012-01-20 00:00:00,2012-01-20 00:00:00,PRATE,surface,-97.5004,32.5983,2.05e-05
2012-01-20 00:00:00,2012-01-20 00:00:00,PRATE,surface,-96.5629,32.5983,2.23e-05
2012-01-20 00:00:00,2012-01-20 00:00:00,PRATE,surface,-95.6254,32.5983,2.3e-05
2012-01-20 00:00:00,2012-01-20 00:00:00,PRATE,surface,-94.6879,32.5983,2.77e-05
2012-01-20 00:00:00,2012-01-20 00:00:00,PRATE,surface,-93.7504,32.5983,3.28e-05
2012-01-20 00:00:00,2012-01-20 00:00:00,PRATE,surface,-92.8129,32.5983,3.7e-05
2012-01-20 00:00:00,2012-01-20 00:00:00,PRATE,surface,-107.813,33.5432,4.3e-06
2012-01-20 00:00:00,2012-01-20 00:00:00,PRATE,surface,-106.875,33.5432,2.3e-06
2012-01-20 00:00:00,2012-01-20 00:00:00,PRATE,surface,-105.938,33.5432,2.3e-06
2012-01-20 00:00:00,2012-01-20 00:00:00,PRATE,surface,-105,33.5432,2.6e-06
2012-01-20 00:00:00,2012-01-20 00:00:00,PRATE,surface,-104.063,33.5432,5e-06
2012-01-20 00:00:00,2012-01-20 00:00:00,PRATE,surface,-103.125,33.5432,5.3e-06
2012-01-20 00:00:00,2012-01-20 00:00:00,PRATE,surface,-102.188,33.5432,6.4e-06
2012-01-20 00:00:00,2012-01-20 00:00:00,PRATE,surface,-101.25,33.5432,1e-05
2012-01-20 00:00:00,2012-01-20 00:00:00,PRATE,surface,-100.313,33.5432,1.18e-05
2012-01-20 00:00:00,2012-01-20 00:00:00,PRATE,surface,-99.3754,33.5432,1.38e-05
2012-01-20 00:00:00,2012-01-20 00:00:00,PRATE,surface,-98.4379,33.5432,1.9e-05
2012-01-20 00:00:00,2012-01-20 00:00:00,PRATE,surface,-97.5004,33.5432,2.56e-05
2012-01-20 00:00:00,2012-01-20 00:00:00,PRATE,surface,-96.5629,33.5432,2.79e-05
2012-01-20 00:00:00,2012-01-20 00:00:00,PRATE,surface,-95.6254,33.5432,2.57e-05
2012-01-20 00:00:00,2012-01-20 00:00:00,PRATE,surface,-94.6879,33.5432,2.64e-05
2012-01-20 00:00:00,2012-01-20 00:00:00,PRATE,surface,-93.7504,33.5432,3.3e-05
2012-01-20 00:00:00,2012-01-20 00:00:00,PRATE,surface,-92.8129,33.5432,4.02e-05
2012-01-20 00:00:00,2012-01-20 00:00:00,PRATE,surface,-107.813,34.4881,5.7e-06
2012-01-20 00:00:00,2012-01-20 00:00:00,PRATE,surface,-106.875,34.4881,4.4e-06
2012-01-20 00:00:00,2012-01-20 00:00:00,PRATE,surface,-105.938,34.4881,2.8e-06
2012-01-20 00:00:00,2012-01-20 00:00:00,PRATE,surface,-105,34.4881,2.6e-06
2012-01-20 00:00:00,2012-01-20 00:00:00,PRATE,surface,-104.063,34.4881,5.2e-06
2012-01-20 00:00:00,2012-01-20 00:00:00,PRATE,surface,-103.125,34.4881,7.5e-06
2012-01-20 00:00:00,2012-01-20 00:00:00,PRATE,surface,-102.188,34.4881,1.12e-05
2012-01-20 00:00:00,2012-01-20 00:00:00,PRATE,surface,-101.25,34.4881,1.83e-05
2012-01-20 00:00:00,2012-01-20 00:00:00,PRATE,surface,-100.313,34.4881,2.07e-05
2012-01-20 00:00:00,2012-01-20 00:00:00,PRATE,surface,-99.3754,34.4881,2.08e-05
2012-01-20 00:00:00,2012-01-20 00:00:00,PRATE,surface,-98.4379,34.4881,2.52e-05
2012-01-20 00:00:00,2012-01-20 00:00:00,PRATE,surface,-97.5004,34.4881,3.22e-05
2012-01-20 00:00:00,2012-01-20 00:00:00,PRATE,surface,-96.5629,34.4881,3.55e-05
2012-01-20 00:00:00,2012-01-20 00:00:00,PRATE,surface,-95.6254,34.4881,3.41e-05
2012-01-20 00:00:00,2012-01-20 00:00:00,PRATE,surface,-94.6879,34.4881,3.4e-05
2012-01-20 00:00:00,2012-01-20 00:00:00,PRATE,surface,-93.7504,34.4881,4.01e-05
2012-01-20 00:00:00,2012-01-20 00:00:00,PRATE,surface,-92.8129,34.4881,4.61e-05
2012-01-20 00:00:00,2012-01-20 00:00:00,PRATE,surface,-107.813,35.4329,8.3e-06
2012-01-20 00:00:00,2012-01-20 00:00:00,PRATE,surface,-106.875,35.4329,5.9e-06
2012-01-20 00:00:00,2012-01-20 00:00:00,PRATE,surface,-105.938,35.4329,3.2e-06
2012-01-20 00:00:00,2012-01-20 00:00:00,PRATE,surface,-105,35.4329,5e-06
2012-01-20 00:00:00,2012-01-20 00:00:00,PRATE,surface,-104.063,35.4329,8.9e-06
2012-01-20 00:00:00,2012-01-20 00:00:00,PRATE,surface,-103.125,35.4329,1.22e-05
2012-01-20 00:00:00,2012-01-20 00:00:00,PRATE,surface,-102.188,35.4329,1.8e-05
2012-01-20 00:00:00,2012-01-20 00:00:00,PRATE,surface,-101.25,35.4329,2.34e-05
2012-01-20 00:00:00,2012-01-20 00:00:00,PRATE,surface,-100.313,35.4329,2.55e-05
2012-01-20 00:00:00,2012-01-20 00:00:00,PRATE,surface,-99.3754,35.4329,2.54e-05
2012-01-20 00:00:00,2012-01-20 00:00:00,PRATE,surface,-98.4379,35.4329,2.68e-05
2012-01-20 00:00:00,2012-01-20 00:00:00,PRATE,surface,-97.5004,35.4329,3.31e-05
2012-01-20 00:00:00,2012-01-20 00:00:00,PRATE,surface,-96.5629,35.4329,4.14e-05
2012-01-20 00:00:00,2012-01-20 00:00:00,PRATE,surface,-95.6254,35.4329,4.71e-05
2012-01-20 00:00:00,2012-01-20 00:00:00,PRATE,surface,-94.6879,35.4329,5.01e-05
2012-01-20 00:00:00,2012-01-20 00:00:00,PRATE,surface,-93.7504,35.4329,5.08e-05
2012-01-20 00:00:00,2012-01-20 00:00:00,PRATE,surface,-92.8129,35.4329,4.96e-05
2012-01-20 00:00:00,2012-01-20 00:00:00,PRATE,surface,-107.813,36.3778,1.18e-05
2012-01-20 00:00:00,2012-01-20 00:00:00,PRATE,surface,-106.875,36.3778,9.6e-06
2012-01-20 00:00:00,2012-01-20 00:00:00,PRATE,surface,-105.938,36.3778,8.1e-06
2012-01-20 00:00:00,2012-01-20 00:00:00,PRATE,surface,-105,36.3778,1.17e-05
2012-01-20 00:00:00,2012-01-20 00:00:00,PRATE,surface,-104.063,36.3778,1.55e-05
2012-01-20 00:00:00,2012-01-20 00:00:00,PRATE,surface,-103.125,36.3778,1.97e-05
2012-01-20 00:00:00,2012-01-20 00:00:00,PRATE,surface,-102.188,36.3778,2.17e-05
2012-01-20 00:00:00,2012-01-20 00:00:00,PRATE,surface,-101.25,36.3778,2.25e-05
2012-01-20 00:00:00,2012-01-20 00:00:00,PRATE,surface,-100.313,36.3778,2.53e-05
2012-01-20 00:00:00,2012-01-20 00:00:00,PRATE,surface,-99.3754,36.3778,3e-05
2012-01-20 00:00:00,2012-01-20 00:00:00,PRATE,surface,-98.4379,36.3778,3.48e-05
2012-01-20 00:00:00,2012-01-20 00:00:00,PRATE,surface,-97.5004,36.3778,3.91e-05
2012-01-20 00:00:00,2012-01-20 00:00:00,PRATE,surface,-96.5629,36.3778,4.26e-05
2012-01-20 00:00:00,2012-01-20 00:00:00,PRATE,surface,-95.6254,36.3778,4.62e-05
2012-01-20 00:00:00,2012-01-20 00:00:00,PRATE,surface,-94.6879,36.3778,4.95e-05
2012-01-20 00:00:00,2012-01-20 00:00:00,PRATE,surface,-93.7504,36.3778,4.78e-05
2012-01-20 00:00:00,2012-01-20 00:00:00,PRATE,surface,-92.8129,36.3778,4.05e-05
