2011-05-11 00:00:00,2011-05-11 00:00:00,TMP,surface,-107.813,25.0393,300.542
2011-05-11 00:00:00,2011-05-11 00:00:00,TMP,surface,-106.875,25.0393,294.14
2011-05-11 00:00:00,2011-05-11 00:00:00,TMP,surface,-105.938,25.0393,289.308
2011-05-11 00:00:00,2011-05-11 00:00:00,TMP,surface,-105,25.0393,287.471
2011-05-11 00:00:00,2011-05-11 00:00:00,TMP,surface,-104.063,25.0393,290.908
2011-05-11 00:00:00,2011-05-11 00:00:00,TMP,surface,-103.125,25.0393,293.446
2011-05-11 00:00:00,2011-05-11 00:00:00,TMP,surface,-102.188,25.0393,292.895
2011-05-11 00:00:00,2011-05-11 00:00:00,TMP,surface,-101.25,25.0393,291.06
2011-05-11 00:00:00,2011-05-11 00:00:00,TMP,surface,-100.313,25.0393,291.127
2011-05-11 00:00:00,2011-05-11 00:00:00,TMP,surface,-99.3754,25.0393,294.382
2011-05-11 00:00:00,2011-05-11 00:00:00,TMP,surface,-98.4379,25.0393,297.902
2011-05-11 00:00:00,2011-05-11 00:00:00,TMP,surface,-97.5004,25.0393,300.433
2011-05-11 00:00:00,2011-05-11 00:00:00,TMP,surface,-96.5629,25.0393,300.537
2011-05-11 00:00:00,2011-05-11 00:00:00,TMP,surface,-95.6254,25.0393,300.866
2011-05-11 00:00:00,2011-05-11 00:00:00,TMP,surface,-94.6879,25.0393,300.97
2011-05-11 00:00:00,2011-05-11 00:00:00,TMP,surface,-93.7504,25.0393,300.831
2011-05-11 00:00:00,2011-05-11 00:00:00,TMP,surface,-92.8129,25.0393,300.729
2011-05-11 00:00:00,2011-05-11 00:00:00,TMP,surface,-107.813,25.9842,296.327
2011-05-11 00:00:00,2011-05-11 00:00:00,TMP,surface,-106.875,25.9842,290.354
2011-05-11 00:00:00,2011-05-11 00:00:00,TMP,surface,-105.938,25.9842,287.59
2011-05-11 00:00:00,2011-05-11 00:00:00,TMP,surface,-105,25.9842,289.489
2011-05-11 00:00:00,2011-05-11 00:00:00,TMP,surface,-104.063,25.9842,293.572
2011-05-11 00:00:00,2011-05-11 00:00:00,TMP,surface,-103.125,25.9842,295.062
2011-05-11 00:00:00,2011-05-11 00:00:00,TMP,surface,-102.188,25.9842,294.227
2011-05-11 00:00:00,2011-05-11 00:00:00,TMP,surface,-101.25,25.9842,293.292
2011-05-11 00:00:00,2011-05-11 00:00:00,TMP,surface,-100.313,25.9842,293.564
2011-05-11 00:00:00,2011-05-11 00:00:00,TMP,surface,-99.3754,25.9842,296.695
2011-05-11 00:00:00,2011-05-11 00:00:00,TMP,surface,-98.4379,25.9842,298.518
2011-05-11 00:00:00,2011-05-11 00:00:00,TMP,surface,-97.5004,25.9842,298.802
2011-05-11 00:00:00,2011-05-11 00:00:00,TMP,surface,-96.5629,25.9842,299.745
2011-05-11 00:00:00,2011-05-11 00:00:00,TMP,surface,-95.6254,25.9842,300.174
2011-05-11 00:00:00,2011-05-11 00:00:00,TMP,surface,-94.6879,25.9842,300.481
2011-05-11 00:00:00,2011-05-11 00:00:00,TMP,surface,-93.7504,25.9842,300.465
2011-05-11 00:00:00,2011-05-11 00:00:00,TMP,surface,-92.8129,25.9842,300.542
2011-05-11 00:00:00,2011-05-11 00:00:00,TMP,surface,-107.813,26.929,291.746
2011-05-11 00:00:00,2011-05-11 00:00:00,TMP,surface,-106.875,26.929,287.595
2011-05-11 00:00:00,2011-05-11 00:00:00,TMP,surface,-105.938,26.929,289.119
2011-05-11 00:00:00,2011-05-11 00:00:00,TMP,surface,-105,26.929,292.58
2011-05-11 00:00:00,2011-05-11 00:00:00,TMP,surface,-104.063,26.929,294.371
2011-05-11 00:00:00,2011-05-11 00:00:00,TMP,surface,-103.125,26.929,293.881
2011-05-11 00:00:00,2011-05-11 00:00:00,TMP,surface,-102.188,26.929,293.345
2011-05-11 00:00:00,2011-05-11 00:00:00,TMP,surface,-101.25,26.929,293.876
2011-05-11 00:00:00,2011-05-11 00:00:00,TMP,surface,-100.313,26.929,295.553
2011-05-11 00:00:00,2011-05-11 00:00:00,TMP,surface,-99.3754,26.929,297.297
2011-05-11 00:00:00,2011-05-11 00:00:00,TMP,surface,-98.4379,26.929,297.34
2011-05-11 00:00:00,2011-05-11 00:00:00,TMP,surface,-97.5004,26.929,299.327
2011-05-11 00:00:00,2011-05-11 00:00:00,TMP,surface,-96.5629,26.929,299.169
2011-05-11 00:00:00,2011-05-11 00:00:00,TMP,surface,-95.6254,26.929,299.431
2011-05-11 00:00:00,2011-05-11 00:00:00,TMP,surface,-94.6879,26.929,299.801
2011-05-11 00:00:00,2011-05-11 00:00:00,TMP,surface,-93.7504,26.929,299.794
2011-05-11 00:00:00,2011-05-11 00:00:00,TMP,surface,-92.8129,26.929,299.858
2011-05-11 00:00:00,2011-05-11 00:00:00,TMP,surface,-107.813,27.8739,288.655
2011-05-11 00:00:00,2011-05-11 00:00:00,TMP,surface,-106.875,27.8739,287.324
2011-05-11 00:00:00,2011-05-11 00:00:00,TMP,surface,-105.938,27.8739,290.758
2011-05-11 00:00:00,2011-05-11 00:00:00,TMP,surface,-105,27.8739,293.667
2011-05-11 00:00:00,2011-05-11 00:00:00,TMP,surface,-104.063,27.8739,293.478
2011-05-11 00:00:00,2011-05-11 00:00:00,TMP,surface,-103.125,27.8739,292.065
2011-05-11 00:00:00,2011-05-11 00:00:00,TMP,surface,-102.188,27.8739,291.788
2011-05-11 00:00:00,2011-05-11 00:00:00,TMP,surface,-101.25,27.8739,293.586
2011-05-11 00:00:00,2011-05-11 00:00:00,TMP,surface,-100.313,27.8739,295.591
2011-05-11 00:00:00,2011-05-11 00:00:00,TMP,surface,-99.3754,27.8739,296.182
2011-05-11 00:00:00,2011-05-11 00:00:00,TMP,surface,-98.4379,27.8739,295.977
2011-05-11 00:00:00,2011-05-11 00:00:00,TMP,surface,-97.5004,27.8739,297.638
2011-05-11 00:00:00,2011-05-11 00:00:00,TMP,surface,-96.5629,27.8739,299.395
2011-05-11 00:00:00,2011-05-11 00:00:00,TMP,surface,-95.6254,27.8739,299.271
2011-05-11 00:00:00,2011-05-11 00:00:00,TMP,surface,-94.6879,27.8739,299.132
2011-05-11 00:00:00,2011-05-11 00:00:00,TMP,surface,-93.7504,27.8739,299.079
2011-05-11 00:00:00,2011-05-11 00:00:00,TMP,surface,-92.8129,27.8739,299.11
2011-05-11 00:00:00,2011-05-11 00:00:00,TMP,surface,-107.813,28.8188,287.385
2011-05-11 00:00:00,2011-05-11 00:00:00,TMP,surface,-106.875,28.8188,288.263
2011-05-11 00:00:00,2011-05-11 00:00:00,TMP,surface,-105.938,28.8188,291.897
2011-05-11 00:00:00,2011-05-11 00:00:00,TMP,surface,-105,28.8188,293.719
2011-05-11 00:00:00,2011-05-11 00:00:00,TMP,surface,-104.063,28.8188,292.548
2011-05-11 00:00:00,2011-05-11 00:00:00,TMP,surface,-103.125,28.8188,291.311
2011-05-11 00:00:00,2011-05-11 00:00:00,TMP,surface,-102.188,28.8188,291.636
2011-05-11 00:00:00,2011-05-11 00:00:00,TMP,surface,-101.25,28.8188,293.209
2011-05-11 00:00:00,2011-05-11 00:00:00,TMP,surface,-100.313,28.8188,294.174
2011-05-11 00:00:00,2011-05-11 00:00:00,TMP,surface,-99.3754,28.8188,293.903
2011-05-11 00:00:00,2011-05-11 00:00:00,TMP,surface,-98.4379,28.8188,293.764
2011-05-11 00:00:00,2011-05-11 00:00:00,TMP,surface,-97.5004,28.8188,294.354
2011-05-11 00:00:00,2011-05-11 00:00:00,TMP,surface,-96.5629,28.8188,295.238
2011-05-11 00:00:00,2011-05-11 00:00:00,TMP,surface,-95.6254,28.8188,296.849
2011-05-11 00:00:00,2011-05-11 00:00:00,TMP,surface,-94.6879,28.8188,298.614
2011-05-11 00:00:00,2011-05-11 00:00:00,TMP,surface,-93.7504,28.8188,298.58
2011-05-11 00:00:00,2011-05-11 00:00:00,TMP,surface,-92.8129,28.8188,298.703
2011-05-11 00:00:00,2011-05-11 00:00:00,TMP,surface,-107.813,29.7637,289.254
2011-05-11 00:00:00,2011-05-11 00:00:00,TMP,surface,-106.875,29.7637,290.294
2011-05-11 00:00:00,2011-05-11 00:00:00,TMP,surface,-105.938,29.7637,292.353
2011-05-11 00:00:00,2011-05-11 00:00:00,TMP,surface,-105,29.7637,292.761
2011-05-11 00:00:00,2011-05-11 00:00:00,TMP,surface,-104.063,29.7637,292.354
2011-05-11 00:00:00,2011-05-11 00:00:00,TMP,surface,-103.125,29.7637,292.147
2011-05-11 00:00:00,2011-05-11 00:00:00,TMP,surface,-102.188,29.7637,292.634
2011-05-11 00:00:00,2011-05-11 00:00:00,TMP,surface,-101.25,29.7637,292.878
2011-05-11 00:00:00,2011-05-11 00:00:00,TMP,surface,-100.313,29.7637,292.207
2011-05-11 00:00:00,2011-05-11 00:00:00,TMP,surface,-99.3754,29.7637,291.583
2011-05-11 00:00:00,2011-05-11 00:00:00,TMP,surface,-98.4379,29.7637,291.948
2011-05-11 00:00:00,2011-05-11 00:00:00,TMP,surface,-97.5004,29.7637,292.763
2011-05-11 00:00:00,2011-05-11 00:00:00,TMP,surface,-96.5629,29.7637,293.447
2011-05-11 00:00:00,2011-05-11 00:00:00,TMP,surface,-95.6254,29.7637,294.183
2011-05-11 00:00:00,2011-05-11 00:00:00,TMP,surface,-94.6879,29.7637,295.934
2011-05-11 00:00:00,2011-05-11 00:00:00,TMP,surface,-93.7504,29.7637,297.662
2011-05-11 00:00:00,2011-05-11 00:00:00,TMP,surface,-92.8129,29.7637,295.041
2011-05-11 00:00:00,2011-05-11 00:00:00,TMP,surface,-107.813,30.7085,291.582
2011-05-11 00:00:00,2011-05-11 00:00:00,TMP,surface,-106.875,30.7085,292.398
2011-05-11 00:00:00,2011-05-11 00:00:00,TMP,surface,-105.938,30.7085,292.19
2011-05-11 00:00:00,2011-05-11 00:00:00,TMP,surface,-105,30.7085,291.892
2011-05-11 00:00:00,2011-05-11 00:00:00,TMP,surface,-104.063,30.7085,291.721
2011-05-11 00:00:00,2011-05-11 00:00:00,TMP,surface,-103.125,30.7085,292.46
2011-05-11 00:00:00,2011-05-11 00:00:00,TMP,surface,-102.188,30.7085,292.903
2011-05-11 00:00:00,2011-05-11 00:00:00,TMP,surface,-101.25,30.7085,292.377
2011-05-11 00:00:00,2011-05-11 00:00:00,TMP,surface,-100.313,30.7085,291.433
2011-05-11 00:00:00,2011-05-11 00:00:00,TMP,surface,-99.3754,30.7085,291.076
2011-05-11 00:00:00,2011-05-11 00:00:00,TMP,surface,-98.4379,30.7085,291.815
2011-05-11 00:00:00,2011-05-11 00:00:00,TMP,surface,-97.5004,30.7085,292.766
2011-05-11 00:00:00,2011-05-11 00:00:00,TMP,surface,-96.5629,30.7085,293.047
2011-05-11 00:00:00,2011-05-11 00:00:00,TMP,surface,-95.6254,30.7085,293.01
2011-05-11 00:00:00,2011-05-11 00:00:00,TMP,surface,-94.6879,30.7085,293.156
2011-05-11 00:00:00,2011-05-11 00:00:00,TMP,surface,-93.7504,30.7085,293.178
2011-05-11 00:00:00,2011-05-11 00:00:00,TMP,surface,-92.8129,30.7085,292.987
2011-05-11 00:00:00,2011-05-11 00:00:00,TMP,surface,-107.813,31.6534,291.558
2011-05-11 00:00:00,2011-05-11 00:00:00,TMP,surface,-106.875,31.6534,291.906
2011-05-11 00:00:00,2011-05-11 00:00:00,TMP,surface,-105.938,31.6534,291.074
2011-05-11 00:00:00,2011-05-11 00:00:00,TMP,surface,-105,31.6534,290.961
2011-05-11 00:00:00,2011-05-11 00:00:00,TMP,surface,-104.063,31.6534,291.545
2011-05-11 00:00:00,2011-05-11 00:00:00,TMP,surface,-103.125,31.6534,292.308
2011-05-11 00:00:00,2011-05-11 00:00:00,TMP,surface,-102.188,31.6534,292.441
2011-05-11 00:00:00,2011-05-11 00:00:00,TMP,surface,-101.25,31.6534,291.78
2011-05-11 00:00:00,2011-05-11 00:00:00,TMP,surface,-100.313,31.6534,291.35
2011-05-11 00:00:00,2011-05-11 00:00:00,TMP,surface,-99.3754,31.6534,291.507
2011-05-11 00:00:00,2011-05-11 00:00:00,TMP,surface,-98.4379,31.6534,292.252
2011-05-11 00:00:00,2011-05-11 00:00:00,TMP,surface,-97.5004,31.6534,292.892
2011-05-11 00:00:00,2011-05-11 00:00:00,TMP,surface,-96.5629,31.6534,292.91
2011-05-11 00:00:00,2011-05-11 00:00:00,TMP,surface,-95.6254,31.6534,292.522
2011-05-11 00:00:00,2011-05-11 00:00:00,TMP,surface,-94.6879,31.6534,292.135
2011-05-11 00:00:00,2011-05-11 00:00:00,TMP,surface,-93.7504,31.6534,291.977
2011-05-11 00:00:00,2011-05-11 00:00:00,TMP,surface,-92.8129,31.6534,292.1
2011-05-11 00:00:00,2011-05-11 00:00:00,TMP,surface,-107.813,32.5983,288.295
2011-05-11 00:00:00,2011-05-11 00:00:00,TMP,surface,-106.875,32.5983,288.716
2011-05-11 00:00:00,2011-05-11 00:00:00,TMP,surface,-105.938,32.5983,289.049
2011-05-11 00:00:00,2011-05-11 00:00:00,TMP,surface,-105,32.5983,289.825
2011-05-11 00:00:00,2011-05-11 00:00:00,TMP,surface,-104.063,32.5983,290.793
2011-05-11 00:00:00,2011-05-11 00:00:00,TMP,surface,-103.125,32.5983,291.435
2011-05-11 00:00:00,2011-05-11 00:00:00,TMP,surface,-102.188,32.5983,291.387
2011-05-11 00:00:00,2011-05-11 00:00:00,TMP,surface,-101.25,32.5983,291.327
2011-05-11 00:00:00,2011-05-11 00:00:00,TMP,surface,-100.313,32.5983,291.578
2011-05-11 00:00:00,2011-05-11 00:00:00,TMP,surface,-99.3754,32.5983,291.935
2011-05-11 00:00:00,2011-05-11 00:00:00,TMP,surface,-98.4379,32.5983,292.147
2011-05-11 00:00:00,2011-05-11 00:00:00,TMP,surface,-97.5004,32.5983,292.262
2011-05-11 00:00:00,2011-05-11 00:00:00,TMP,surface,-96.5629,32.5983,292.305
2011-05-11 00:00:00,2011-05-11 00:00:00,TMP,surface,-95.6254,32.5983,292.057
2011-05-11 00:00:00,2011-05-11 00:00:00,TMP,surface,-94.6879,32.5983,291.478
2011-05-11 00:00:00,2011-05-11 00:00:00,TMP,surface,-93.7504,32.5983,291.1
2011-05-11 00:00:00,2011-05-11 00:00:00,TMP,surface,-92.8129,32.5983,291.41
2011-05-11 00:00:00,2011-05-11 00:00:00,TMP,surface,-107.813,33.5432,284.617
2011-05-11 00:00:00,2011-05-11 00:00:00,TMP,surface,-106.875,33.5432,286.044
2011-05-11 00:00:00,2011-05-11 00:00:00,TMP,surface,-105.938,33.5432,287.086
2011-05-11 00:00:00,2011-05-11 00:00:00,TMP,surface,-105,33.5432,288.514
2011-05-11 00:00:00,2011-05-11 00:00:00,TMP,surface,-104.063,33.5432,289.836
2011-05-11 00:00:00,2011-05-11 00:00:00,TMP,surface,-103.125,33.5432,290.283
2011-05-11 00:00:00,2011-05-11 00:00:00,TMP,surface,-102.188,33.5432,290.262
2011-05-11 00:00:00,2011-05-11 00:00:00,TMP,surface,-101.25,33.5432,290.603
2011-05-11 00:00:00,2011-05-11 00:00:00,TMP,surface,-100.313,33.5432,291.367
2011-05-11 00:00:00,2011-05-11 00:00:00,TMP,surface,-99.3754,33.5432,291.854
2011-05-11 00:00:00,2011-05-11 00:00:00,TMP,surface,-98.4379,33.5432,291.586
2011-05-11 00:00:00,2011-05-11 00:00:00,TMP,surface,-97.5004,33.5432,291.156
2011-05-11 00:00:00,2011-05-11 00:00:00,TMP,surface,-96.5629,33.5432,291.047
2011-05-11 00:00:00,2011-05-11 00:00:00,TMP,surface,-95.6254,33.5432,290.956
2011-05-11 00:00:00,2011-05-11 00:00:00,TMP,surface,-94.6879,33.5432,290.566
2011-05-11 00:00:00,2011-05-11 00:00:00,TMP,surface,-93.7504,33.5432,290.127
2011-05-11 00:00:00,2011-05-11 00:00:00,TMP,surface,-92.8129,33.5432,290.103
2011-05-11 00:00:00,2011-05-11 00:00:00,TMP,surface,-107.813,34.4881,282.831
2011-05-11 00:00:00,2011-05-11 00:00:00,TMP,surface,-106.875,34.4881,284.458
2011-05-11 00:00:00,2011-05-11 00:00:00,TMP,surface,-105.938,34.4881,285.58
2011-05-11 00:00:00,2011-05-11 00:00:00,TMP,surface,-105,34.4881,287.143
2011-05-11 00:00:00,2011-05-11 00:00:00,TMP,surface,-104.063,34.4881,288.474
2011-05-11 00:00:00,2011-05-11 00:00:00,TMP,surface,-103.125,34.4881,289.076
2011-05-11 00:00:00,2011-05-11 00:00:00,TMP,surface,-102.188,34.4881,289.242
2011-05-11 00:00:00,2011-05-11 00:00:00,TMP,surface,-101.25,34.4881,289.705
2011-05-11 00:00:00,2011-05-11 00:00:00,TMP,surface,-100.313,34.4881,290.502
2011-05-11 00:00:00,2011-05-11 00:00:00,TMP,surface,-99.3754,34.4881,290.871
2011-05-11 00:00:00,2011-05-11 00:00:00,TMP,surface,-98.4379,34.4881,290.487
2011-05-11 00:00:00,2011-05-11 00:00:00,TMP,surface,-97.5004,34.4881,289.961
2011-05-11 00:00:00,2011-05-11 00:00:00,TMP,surface,-96.5629,34.4881,289.71
2011-05-11 00:00:00,2011-05-11 00:00:00,TMP,surface,-95.6254,34.4881,289.418
2011-05-11 00:00:00,2011-05-11 00:00:00,TMP,surface,-94.6879,34.4881,288.889
2011-05-11 00:00:00,2011-05-11 00:00:00,TMP,surface,-93.7504,34.4881,288.495
2011-05-11 00:00:00,2011-05-11 00:00:00,TMP,surface,-92.8129,34.4881,288.535
2011-05-11 00:00:00,2011-05-11 00:00:00,TMP,surface,-107.813,35.4329,282.478
2011-05-11 00:00:00,2011-05-11 00:00:00,TMP,surface,-106.875,35.4329,282.998
2011-05-11 00:00:00,2011-05-11 00:00:00,TMP,surface,-105.938,35.4329,283.798
2011-05-11 00:00:00,2011-05-11 00:00:00,TMP,surface,-105,35.4329,285.015
2011-05-11 00:00:00,2011-05-11 00:00:00,TMP,surface,-104.063,35.4329,287.158
2011-05-11 00:00:00,2011-05-11 00:00:00,TMP,surface,-103.125,35.4329,288.351
2011-05-11 00:00:00,2011-05-11 00:00:00,TMP,surface,-102.188,35.4329,288.678
2011-05-11 00:00:00,2011-05-11 00:00:00,TMP,surface,-101.25,35.4329,288.98
2011-05-11 00:00:00,2011-05-11 00:00:00,TMP,surface,-100.313,35.4329,289.455
2011-05-11 00:00:00,2011-05-11 00:00:00,TMP,surface,-99.3754,35.4329,289.753
2011-05-11 00:00:00,2011-05-11 00:00:00,TMP,surface,-98.4379,35.4329,289.631
2011-05-11 00:00:00,2011-05-11 00:00:00,TMP,surface,-97.5004,35.4329,289.39
2011-05-11 00:00:00,2011-05-11 00:00:00,TMP,surface,-96.5629,35.4329,289.244
2011-05-11 00:00:00,2011-05-11 00:00:00,TMP,surface,-95.6254,35.4329,288.913
2011-05-11 00:00:00,2011-05-11 00:00:00,TMP,surface,-94.6879,35.4329,288.222
2011-05-11 00:00:00,2011-05-11 00:00:00,TMP,surface,-93.7504,35.4329,287.542
2011-05-11 00:00:00,2011-05-11 00:00:00,TMP,surface,-92.8129,35.4329,287.268
2011-05-11 00:00:00,2011-05-11 00:00:00,TMP,surface,-107.813,36.3778,281.407
2011-05-11 00:00:00,2011-05-11 00:00:00,TMP,surface,-106.875,36.3778,279.83
2011-05-11 00:00:00,2011-05-11 00:00:00,TMP,surface,-105.938,36.3778,280.91
2011-05-11 00:00:00,2011-05-11 00:00:00,TMP,surface,-105,36.3778,282.726
2011-05-11 00:00:00,2011-05-11 00:00:00,TMP,surface,-104.063,36.3778,285.439
2011-05-11 00:00:00,2011-05-11 00:00:00,TMP,surface,-103.125,36.3778,286.898
2011-05-11 00:00:00,2011-05-11 00:00:00,TMP,surface,-102.188,36.3778,287.746
2011-05-11 00:00:00,2011-05-11 00:00:00,TMP,surface,-101.25,36.3778,288.316
2011-05-11 00:00:00,2011-05-11 00:00:00,TMP,surface,-100.313,36.3778,288.801
2011-05-11 00:00:00,2011-05-11 00:00:00,TMP,surface,-99.3754,36.3778,289.055
2011-05-11 00:00:00,2011-05-11 00:00:00,TMP,surface,-98.4379,36.3778,288.969
2011-05-11 00:00:00,2011-05-11 00:00:00,TMP,surface,-97.5004,36.3778,288.892
2011-05-11 00:00:00,2011-05-11 00:00:00,TMP,surface,-96.5629,36.3778,288.846
2011-05-11 00:00:00,2011-05-11 00:00:00,TMP,surface,-95.6254,36.3778,288.435
2011-05-11 00:00:00,2011-05-11 00:00:00,TMP,surface,-94.6879,36.3778,287.615
2011-05-11 00:00:00,2011-05-11 00:00:00,TMP,surface,-93.7504,36.3778,286.831
2011-05-11 00:00:00,2011-05-11 00:00:00,TMP,surface,-92.8129,36.3778,286.527
2011-05-11 00:00:00,2011-05-11 00:00:00,PRATE,surface,-107.813,25.0393,3e-07
2011-05-11 00:00:00,2011-05-11 00:00:00,PRATE,surface,-106.875,25.0393,2e-07
2011-05-11 00:00:00,2011-05-11 00:00:00,PRATE,surface,-105.938,25.0393,5.8e-06
2011-05-11 00:00:00,2011-05-11 00:00:00,PRATE,surface,-105,25.0393,7.3e-06
2011-05-11 00:00:00,2011-05-11 00:00:00,PRATE,surface,-104.063,25.0393,4.4e-06
2011-05-11 00:00:00,2011-05-11 00:00:00,PRATE,surface,-103.125,25.0393,8e-07
2011-05-11 00:00:00,2011-05-11 00:00:00,PRATE,surface,-102.188,25.0393,2.4e-06
2011-05-11 00:00:00,2011-05-11 00:00:00,PRATE,surface,-101.25,25.0393,1.28e-05
2011-05-11 00:00:00,2011-05-11 00:00:00,PRATE,surface,-100.313,25.0393,4.42e-05
2011-05-11 00:00:00,2011-05-11 00:00:00,PRATE,surface,-99.3754,25.0393,3.32e-05
2011-05-11 00:00:00,2011-05-11 00:00:00,PRATE,surface,-98.4379,25.0393,1.39e-05
2011-05-11 00:00:00,2011-05-11 00:00:00,PRATE,surface,-97.5004,25.0393,1.71e-05
2011-05-11 00:00:00,2011-05-11 00:00:00,PRATE,surface,-96.5629,25.0393,2.95e-05
2011-05-11 00:00:00,2011-05-11 00:00:00,PRATE,surface,-95.6254,25.0393,6.55e-05
2011-05-11 00:00:00,2011-05-11 00:00:00,PRATE,surface,-94.6879,25.0393,4.55e-05
2011-05-11 00:00:00,2011-05-11 00:00:00,PRATE,surface,-93.7504,25.0393,5.25e-05
2011-05-11 00:00:00,2011-05-11 00:00:00,PRATE,surface,-92.8129,25.0393,5.44e-05
2011-05-11 00:00:00,2011-05-11 00:00:00,PRATE,surface,-107.813,25.9842,0
2011-05-11 00:00:00,2011-05-11 00:00:00,PRATE,surface,-106.875,25.9842,1.5e-06
2011-05-11 00:00:00,2011-05-11 00:00:00,PRATE,surface,-105.938,25.9842,6.6e-06
2011-05-11 00:00:00,2011-05-11 00:00:00,PRATE,surface,-105,25.9842,7e-06
2011-05-11 00:00:00,2011-05-11 00:00:00,PRATE,surface,-104.063,25.9842,1.7e-06
2011-05-11 00:00:00,2011-05-11 00:00:00,PRATE,surface,-103.125,25.9842,7e-07
2011-05-11 00:00:00,2011-05-11 00:00:00,PRATE,surface,-102.188,25.9842,2e-06
2011-05-11 00:00:00,2011-05-11 00:00:00,PRATE,surface,-101.25,25.9842,1.01e-05
2011-05-11 00:00:00,2011-05-11 00:00:00,PRATE,surface,-100.313,25.9842,2.81e-05
2011-05-11 00:00:00,2011-05-11 00:00:00,PRATE,surface,-99.3754,25.9842,1.59e-05
2011-05-11 00:00:00,2011-05-11 00:00:00,PRATE,surface,-98.4379,25.9842,1.64e-05
2011-05-11 00:00:00,2011-05-11 00:00:00,PRATE,surface,-97.5004,25.9842,3.49e-05
2011-05-11 00:00:00,2011-05-11 00:00:00,PRATE,surface,-96.5629,25.9842,5.67e-05
2011-05-11 00:00:00,2011-05-11 00:00:00,PRATE,surface,-95.6254,25.9842,5.55e-05
2011-05-11 00:00:00,2011-05-11 00:00:00,PRATE,surface,-94.6879,25.9842,5.21e-05
2011-05-11 00:00:00,2011-05-11 00:00:00,PRATE,surface,-93.7504,25.9842,3.6e-05
2011-05-11 00:00:00,2011-05-11 00:00:00,PRATE,surface,-92.8129,25.9842,5.57e-05
2011-05-11 00:00:00,2011-05-11 00:00:00,PRATE,surface,-107.813,26.929,1.3e-06
2011-05-11 00:00:00,2011-05-11 00:00:00,PRATE,surface,-106.875,26.929,4.2e-06
2011-05-11 00:00:00,2011-05-11 00:00:00,PRATE,surface,-105.938,26.929,2.5e-06
2011-05-11 00:00:00,2011-05-11 00:00:00,PRATE,surface,-105,26.929,1.6e-06
2011-05-11 00:00:00,2011-05-11 00:00:00,PRATE,surface,-104.063,26.929,9e-07
2011-05-11 00:00:00,2011-05-11 00:00:00,PRATE,surface,-103.125,26.929,3e-06
2011-05-11 00:00:00,2011-05-11 00:00:00,PRATE,surface,-102.188,26.929,1.4e-05
2011-05-11 00:00:00,2011-05-11 00:00:00,PRATE,surface,-101.25,26.929,2.5e-05
2011-05-11 00:00:00,2011-05-11 00:00:00,PRATE,surface,-100.313,26.929,3.46e-05
2011-05-11 00:00:00,2011-05-11 00:00:00,PRATE,surface,-99.3754,26.929,2.58e-05
2011-05-11 00:00:00,2011-05-11 00:00:00,PRATE,surface,-98.4379,26.929,3.18e-05
2011-05-11 00:00:00,2011-05-11 00:00:00,PRATE,surface,-97.5004,26.929,5.4e-05
2011-05-11 00:00:00,2011-05-11 00:00:00,PRATE,surface,-96.5629,26.929,5.73e-05
2011-05-11 00:00:00,2011-05-11 00:00:00,PRATE,surface,-95.6254,26.929,2.4e-05
2011-05-11 00:00:00,2011-05-11 00:00:00,PRATE,surface,-94.6879,26.929,1.71e-05
2011-05-11 00:00:00,2011-05-11 00:00:00,PRATE,surface,-93.7504,26.929,1.44e-05
2011-05-11 00:00:00,2011-05-11 00:00:00,PRATE,surface,-92.8129,26.929,2.18e-05
2011-05-11 00:00:00,2011-05-11 00:00:00,PRATE,surface,-107.813,27.8739,3.4e-06
2011-05-11 00:00:00,2011-05-11 00:00:00,PRATE,surface,-106.875,27.8739,4e-06
2011-05-11 00:00:00,2011-05-11 00:00:00,PRATE,surface,-105.938,27.8739,8e-07
2011-05-11 00:00:00,2011-05-11 00:00:00,PRATE,surface,-105,27.8739,3e-07
2011-05-11 00:00:00,2011-05-11 00:00:00,PRATE,surface,-104.063,27.8739,5e-07
2011-05-11 00:00:00,2011-05-11 00:00:00,PRATE,surface,-103.125,27.8739,1.4e-05
2011-05-11 00:00:00,2011-05-11 00:00:00,PRATE,surface,-102.188,27.8739,2.57e-05
2011-05-11 00:00:00,2011-05-11 00:00:00,PRATE,surface,-101.25,27.8739,3.01e-05
2011-05-11 00:00:00,2011-05-11 00:00:00,PRATE,surface,-100.313,27.8739,2.96e-05
2011-05-11 00:00:00,2011-05-11 00:00:00,PRATE,surface,-99.3754,27.8739,3.03e-05
2011-05-11 00:00:00,2011-05-11 00:00:00,PRATE,surface,-98.4379,27.8739,4.19e-05
2011-05-11 00:00:00,2011-05-11 00:00:00,PRATE,surface,-97.5004,27.8739,4.89e-05
2011-05-11 00:00:00,2011-05-11 00:00:00,PRATE,surface,-96.5629,27.8739,3.73e-05
2011-05-11 00:00:00,2011-05-11 00:00:00,PRATE,surface,-95.6254,27.8739,1.97e-05
2011-05-11 00:00:00,2011-05-11 00:00:00,PRATE,surface,-94.6879,27.8739,1.18e-05
2011-05-11 00:00:00,2011-05-11 00:00:00,PRATE,surface,-93.7504,27.8739,1.1e-05
2011-05-11 00:00:00,2011-05-11 00:00:00,PRATE,surface,-92.8129,27.8739,1.1e-05
2011-05-11 00:00:00,2011-05-11 00:00:00,PRATE,surface,-107.813,28.8188,4.7e-06
2011-05-11 00:00:00,2011-05-11 00:00:00,PRATE,surface,-106.875,28.8188,4.4e-06
2011-05-11 00:00:00,2011-05-11 00:00:00,PRATE,surface,-105.938,28.8188,2e-07
2011-05-11 00:00:00,2011-05-11 00:00:00,PRATE,surface,-105,28.8188,3e-07
2011-05-11 00:00:00,2011-05-11 00:00:00,PRATE,surface,-104.063,28.8188,1.2e-06
2011-05-11 00:00:00,2011-05-11 00:00:00,PRATE,surface,-103.125,28.8188,1.36e-05
2011-05-11 00:00:00,2011-05-11 00:00:00,PRATE,surface,-102.188,28.8188,2.02e-05
2011-05-11 00:00:00,2011-05-11 00:00:00,PRATE,surface,-101.25,28.8188,1.94e-05
2011-05-11 00:00:00,2011-05-11 00:00:00,PRATE,surface,-100.313,28.8188,1.83e-05
2011-05-11 00:00:00,2011-05-11 00:00:00,PRATE,surface,-99.3754,28.8188,2.99e-05
2011-05-11 00:00:00,2011-05-11 00:00:00,PRATE,surface,-98.4379,28.8188,4.35e-05
2011-05-11 00:00:00,2011-05-11 00:00:00,PRATE,surface,-97.5004,28.8188,4.65e-05
2011-05-11 00:00:00,2011-05-11 00:00:00,PRATE,surface,-96.5629,28.8188,4.38e-05
2011-05-11 00:00:00,2011-05-11 00:00:00,PRATE,surface,-95.6254,28.8188,3.31e-05
2011-05-11 00:00:00,2011-05-11 00:00:00,PRATE,surface,-94.6879,28.8188,1.48e-05
2011-05-11 00:00:00,2011-05-11 00:00:00,PRATE,surface,-93.7504,28.8188,9.5e-06
2011-05-11 00:00:00,2011-05-11 00:00:00,PRATE,surface,-92.8129,28.8188,6.2e-06
2011-05-11 00:00:00,2011-05-11 00:00:00,PRATE,surface,-107.813,29.7637,2.5e-06
2011-05-11 00:00:00,2011-05-11 00:00:00,PRATE,surface,-106.875,29.7637,2.6e-06
2011-05-11 00:00:00,2011-05-11 00:00:00,PRATE,surface,-105.938,29.7637,7e-07
2011-05-11 00:00:00,2011-05-11 00:00:00,PRATE,surface,-105,29.7637,5e-07
2011-05-11 00:00:00,2011-05-11 00:00:00,PRATE,surface,-104.063,29.7637,1.7e-06
2011-05-11 00:00:00,2011-05-11 00:00:00,PRATE,surface,-103.125,29.7637,6.8e-06
2011-05-11 00:00:00,2011-05-11 00:00:00,PRATE,surface,-102.188,29.7637,1.24e-05
2011-05-11 00:00:00,2011-05-11 00:00:00,PRATE,surface,-101.25,29.7637,1.56e-05
2011-05-11 00:00:00,2011-05-11 00:00:00,PRATE,surface,-100.313,29.7637,2.05e-05
2011-05-11 00:00:00,2011-05-11 00:00:00,PRATE,surface,-99.3754,29.7637,3.07e-05
2011-05-11 00:00:00,2011-05-11 00:00:00,PRATE,surface,-98.4379,29.7637,3.35e-05
2011-05-11 00:00:00,2011-05-11 00:00:00,PRATE,surface,-97.5004,29.7637,3.58e-05
2011-05-11 00:00:00,2011-05-11 00:00:00,PRATE,surface,-96.5629,29.7637,4e-05
2011-05-11 00:00:00,2011-05-11 00:00:00,PRATE,surface,-95.6254,29.7637,3.22e-05
2011-05-11 00:00:00,2011-05-11 00:00:00,PRATE,surface,-94.6879,29.7637,1.8e-05
2011-05-11 00:00:00,2011-05-11 00:00:00,PRATE,surface,-93.7504,29.7637,1.35e-05
2011-05-11 00:00:00,2011-05-11 00:00:00,PRATE,surface,-92.8129,29.7637,6.9e-06
2011-05-11 00:00:00,2011-05-11 00:00:00,PRATE,surface,-107.813,30.7085,1.2e-06
2011-05-11 00:00:00,2011-05-11 00:00:00,PRATE,surface,-106.875,30.7085,1.6e-06
2011-05-11 00:00:00,2011-05-11 00:00:00,PRATE,surface,-105.938,30.7085,8e-07
2011-05-11 00:00:00,2011-05-11 00:00:00,PRATE,surface,-105,30.7085,1.1e-06
2011-05-11 00:00:00,2011-05-11 00:00:00,PRATE,surface,-104.063,30.7085,2.3e-06
2011-05-11 00:00:00,2011-05-11 00:00:00,PRATE,surface,-103.125,30.7085,6.2e-06
2011-05-11 00:00:00,2011-05-11 00:00:00,PRATE,surface,-102.188,30.7085,1.11e-05
2011-05-11 00:00:00,2011-05-11 00:00:00,PRATE,surface,-101.25,30.7085,1.83e-05
2011-05-11 00:00:00,2011-05-11 00:00:00,PRATE,surface,-100.313,30.7085,2.78e-05
2011-05-11 00:00:00,2011-05-11 00:00:00,PRATE,surface,-99.3754,30.7085,3.17e-05
2011-05-11 00:00:00,2011-05-11 00:00:00,PRATE,surface,-98.4379,30.7085,2.25e-05
2011-05-11 00:00:00,2011-05-11 00:00:00,PRATE,surface,-97.5004,30.7085,1.87e-05
2011-05-11 00:00:00,2011-05-11 00:00:00,PRATE,surface,-96.5629,30.7085,2.49e-05
2011-05-11 00:00:00,2011-05-11 00:00:00,PRATE,surface,-95.6254,30.7085,2.51e-05
2011-05-11 00:00:00,2011-05-11 00:00:00,PRATE,surface,-94.6879,30.7085,1.74e-05
2011-05-11 00:00:00,2011-05-11 00:00:00,PRATE,surface,-93.7504,30.7085,9.3e-06
2011-05-11 00:00:00,2011-05-11 00:00:00,PRATE,surface,-92.8129,30.7085,4.1e-06
2011-05-11 00:00:00,2011-05-11 00:00:00,PRATE,surface,-107.813,31.6534,1.3e-06
2011-05-11 00:00:00,2011-05-11 00:00:00,PRATE,surface,-106.875,31.6534,1.7e-06
2011-05-11 00:00:00,2011-05-11 00:00:00,PRATE,surface,-105.938,31.6534,1.2e-06
2011-05-11 00:00:00,2011-05-11 00:00:00,PRATE,surface,-105,31.6534,1.1e-06
2011-05-11 00:00:00,2011-05-11 00:00:00,PRATE,surface,-104.063,31.6534,4.2e-06
2011-05-11 00:00:00,2011-05-11 00:00:00,PRATE,surface,-103.125,31.6534,8.1e-06
2011-05-11 00:00:00,2011-05-11 00:00:00,PRATE,surface,-102.188,31.6534,8.3e-06
2011-05-11 00:00:00,2011-05-11 00:00:00,PRATE,surface,-101.25,31.6534,1.84e-05
2011-05-11 00:00:00,2011-05-11 00:00:00,PRATE,surface,-100.313,31.6534,2.71e-05
2011-05-11 00:00:00,2011-05-11 00:00:00,PRATE,surface,-99.3754,31.6534,2.67e-05
2011-05-11 00:00:00,2011-05-11 00:00:00,PRATE,surface,-98.4379,31.6534,1.76e-05
2011-05-11 00:00:00,2011-05-11 00:00:00,PRATE,surface,-97.5004,31.6534,1.7e-05
2011-05-11 00:00:00,2011-05-11 00:00:00,PRATE,surface,-96.5629,31.6534,2.26e-05
2011-05-11 00:00:00,2011-05-11 00:00:00,PRATE,surface,-95.6254,31.6534,2.45e-05
2011-05-11 00:00:00,2011-05-11 00:00:00,PRATE,surface,-94.6879,31.6534,2.34e-05
2011-05-11 00:00:00,2011-05-11 00:00:00,PRATE,surface,-93.7504,31.6534,1.51e-05
2011-05-11 00:00:00,2011-05-11 00:00:00,PRATE,surface,-92.8129,31.6534,9.5e-06
2011-05-11 00:00:00,2011-05-11 00:00:00,PRATE,surface,-107.813,32.5983,2.1e-06
2011-05-11 00:00:00,2011-05-11 00:00:00,PRATE,surface,-106.875,32.5983,2.1e-06
2011-05-11 00:00:00,2011-05-11 00:00:00,PRATE,surface,-105.938,32.5983,1.1e-06
2011-05-11 00:00:00,2011-05-11 00:00:00,PRATE,surface,-105,32.5983,9e-07
2011-05-11 00:00:00,2011-05-11 00:00:00,PRATE,surface,-104.063,32.5983,6.9e-06
2011-05-11 00:00:00,2011-05-11 00:00:00,PRATE,surface,-103.125,32.5983,8.9e-06
2011-05-11 00:00:00,2011-05-11 00:00:00,PRATE,surface,-102.188,32.5983,1.18e-05
2011-05-11 00:00:00,2011-05-11 00:00:00,PRATE,surface,-101.25,32.5983,1.89e-05
2011-05-11 00:00:00,2011-05-11 00:00:00,PRATE,surface,-100.313,32.5983,2.68e-05
2011-05-11 00:00:00,2011-05-11 00:00:00,PRATE,surface,-99.3754,32.5983,3.32e-05
2011-05-11 00:00:00,2011-05-11 00:00:00,PRATE,surface,-98.4379,32.5983,3.61e-05
2011-05-11 00:00:00,2011-05-11 00:00:00,PRATE,surface,-97.5004,32.5983,3.47e-05
2011-05-11 00:00:00,2011-05-11 00:00:00,PRATE,surface,-96.5629,32.5983,2.87e-05
2011-05-11 00:00:00,2011-05-11 00:00:00,PRATE,surface,-95.6254,32.5983,2.55e-05
2011-05-11 00:00:00,2011-05-11 00:00:00,PRATE,surface,-94.6879,32.5983,2.77e-05
2011-05-11 00:00:00,2011-05-11 00:00:00,PRATE,surface,-93.7504,32.5983,2.38e-05
2011-05-11 00:00:00,2011-05-11 00:00:00,PRATE,surface,-92.8129,32.5983,1.62e-05
2011-05-11 00:00:00,2011-05-11 00:00:00,PRATE,surface,-107.813,33.5432,5.7e-06
2011-05-11 00:00:00,2011-05-11 00:00:00,PRATE,surface,-106.875,33.5432,3.4e-06
2011-05-11 00:00:00,2011-05-11 00:00:00,PRATE,surface,-105.938,33.5432,2e-06
2011-05-11 00:00:00,2011-05-11 00:00:00,PRATE,surface,-105,33.5432,2.9e-06
2011-05-11 00:00:00,2011-05-11 00:00:00,PRATE,surface,-104.063,33.5432,9.2e-06
2011-05-11 00:00:00,2011-05-11 00:00:00,PRATE,surface,-103.125,33.5432,1.45e-05
2011-05-11 00:00:00,2011-05-11 00:00:00,PRATE,surface,-102.188,33.5432,1.54e-05
2011-05-11 00:00:00,2011-05-11 00:00:00,PRATE,surface,-101.25,33.5432,1.94e-05
2011-05-11 00:00:00,2011-05-11 00:00:00,PRATE,surface,-100.313,33.5432,2.04e-05
2011-05-11 00:00:00,2011-05-11 00:00:00,PRATE,surface,-99.3754,33.5432,2.6e-05
2011-05-11 00:00:00,2011-05-11 00:00:00,PRATE,surface,-98.4379,33.5432,4.05e-05
2011-05-11 00:00:00,2011-05-11 00:00:00,PRATE,surface,-97.5004,33.5432,4.84e-05
2011-05-11 00:00:00,2011-05-11 00:00:00,PRATE,surface,-96.5629,33.5432,4.2e-05
2011-05-11 00:00:00,2011-05-11 00:00:00,PRATE,surface,-95.6254,33.5432,3.12e-05
2011-05-11 00:00:00,2011-05-11 00:00:00,PRATE,surface,-94.6879,33.5432,2.67e-05
2011-05-11 00:00:00,2011-05-11 00:00:00,PRATE,surface,-93.7504,33.5432,3.03e-05
2011-05-11 00:00:00,2011-05-11 00:00:00,PRATE,surface,-92.8129,33.5432,2.89e-05
2011-05-11 00:00:00,2011-05-11 00:00:00,PRATE,surface,-107.813,34.4881,7e-06
2011-05-11 00:00:00,2011-05-11 00:00:00,PRATE,surface,-106.875,34.4881,5e-06
2011-05-11 00:00:00,2011-05-11 00:00:00,PRATE,surface,-105.938,34.4881,2.2e-06
2011-05-11 00:00:00,2011-05-11 00:00:00,PRATE,surface,-105,34.4881,1.9e-06
2011-05-11 00:00:00,2011-05-11 00:00:00,PRATE,surface,-104.063,34.4881,5.4e-06
2011-05-11 00:00:00,2011-05-11 00:00:00,PRATE,surface,-103.125,34.4881,1.62e-05
2011-05-11 00:00:00,2011-05-11 00:00:00,PRATE,surface,-102.188,34.4881,2.48e-05
2011-05-11 00:00:00,2011-05-11 00:00:00,PRATE,surface,-101.25,34.4881,2.59e-05
2011-05-11 00:00:00,2011-05-11 00:00:00,PRATE,surface,-100.313,34.4881,2.77e-05
2011-05-11 00:00:00,2011-05-11 00:00:00,PRATE,surface,-99.3754,34.4881,3.39e-05
2011-05-11 00:00:00,2011-05-11 00:00:00,PRATE,surface,-98.4379,34.4881,4.57e-05
2011-05-11 00:00:00,2011-05-11 00:00:00,PRATE,surface,-97.5004,34.4881,5.41e-05
2011-05-11 00:00:00,2011-05-11 00:00:00,PRATE,surface,-96.5629,34.4881,5.12e-05
2011-05-11 00:00:00,2011-05-11 00:00:00,PRATE,surface,-95.6254,34.4881,4.55e-05
2011-05-11 00:00:00,2011-05-11 00:00:00,PRATE,surface,-94.6879,34.4881,4.38e-05
2011-05-11 00:00:00,2011-05-11 00:00:00,PRATE,surface,-93.7504,34.4881,3.8e-05
2011-05-11 00:00:00,2011-05-11 00:00:00,PRATE,surface,-92.8129,34.4881,3.25e-05
2011-05-11 00:00:00,2011-05-11 00:00:00,PRATE,surface,-107.813,35.4329,8.8e-06
2011-05-11 00:00:00,2011-05-11 00:00:00,PRATE,surface,-106.875,35.4329,7.7e-06
2011-05-11 00:00:00,2011-05-11 00:00:00,PRATE,surface,-105.938,35.4329,3.3e-06
2011-05-11 00:00:00,2011-05-11 00:00:00,PRATE,surface,-105,35.4329,9e-07
2011-05-11 00:00:00,2011-05-11 00:00:00,PRATE,surface,-104.063,35.4329,6.1e-06
2011-05-11 00:00:00,2011-05-11 00:00:00,PRATE,surface,-103.125,35.4329,2.07e-05
2011-05-11 00:00:00,2011-05-11 00:00:00,PRATE,surface,-102.188,35.4329,3.31e-05
2011-05-11 00:00:00,2011-05-11 00:00:00,PRATE,surface,-101.25,35.4329,4.71e-05
2011-05-11 00:00:00,2011-05-11 00:00:00,PRATE,surface,-100.313,35.4329,4.81e-05
2011-05-11 00:00:00,2011-05-11 00:00:00,PRATE,surface,-99.3754,35.4329,4.85e-05
2011-05-11 00:00:00,2011-05-11 00:00:00,PRATE,surface,-98.4379,35.4329,5.25e-05
2011-05-11 00:00:00,2011-05-11 00:00:00,PRATE,surface,-97.5004,35.4329,5.95e-05
2011-05-11 00:00:00,2011-05-11 00:00:00,PRATE,surface,-96.5629,35.4329,5.68e-05
2011-05-11 00:00:00,2011-05-11 00:00:00,PRATE,surface,-95.6254,35.4329,4.47e-05
2011-05-11 00:00:00,2011-05-11 00:00:00,PRATE,surface,-94.6879,35.4329,4.5e-05
2011-05-11 00:00:00,2011-05-11 00:00:00,PRATE,surface,-93.7504,35.4329,5.42e-05
2011-05-11 00:00:00,2011-05-11 00:00:00,PRATE,surface,-92.8129,35.4329,4.86e-05
2011-05-11 00:00:00,2011-05-11 00:00:00,PRATE,surface,-107.813,36.3778,2.34e-05
2011-05-11 00:00:00,2011-05-11 00:00:00,PRATE,surface,-106.875,36.3778,1.75e-05
2011-05-11 00:00:00,2011-05-11 00:00:00,PRATE,surface,-105.938,36.3778,6.3e-06
2011-05-11 00:00:00,2011-05-11 00:00:00,PRATE,surface,-105,36.3778,2.2e-06
2011-05-11 00:00:00,2011-05-11 00:00:00,PRATE,surface,-104.063,36.3778,6.9e-06
2011-05-11 00:00:00,2011-05-11 00:00:00,PRATE,surface,-103.125,36.3778,2.02e-05
2011-05-11 00:00:00,2011-05-11 00:00:00,PRATE,surface,-102.188,36.3778,3.19e-05
2011-05-11 00:00:00,2011-05-11 00:00:00,PRATE,surface,-101.25,36.3778,4.47e-05
2011-05-11 00:00:00,2011-05-11 00:00:00,PRATE,surface,-100.313,36.3778,5.07e-05
2011-05-11 00:00:00,2011-05-11 00:00:00,PRATE,surface,-99.3754,36.3778,5.44e-05
2011-05-11 00:00:00,2011-05-11 00:00:00,PRATE,surface,-98.4379,36.3778,5.52e-05
2011-05-11 00:00:00,2011-05-11 00:00:00,PRATE,surface,-97.5004,36.3778,5.59e-05
2011-05-11 00:00:00,2011-05-11 00:00:00,PRATE,surface,-96.5629,36.3778,5.18e-05
2011-05-11 00:00:00,2011-05-11 00:00:00,PRATE,surface,-95.6254,36.3778,4.41e-05
2011-05-11 00:00:00,2011-05-11 00:00:00,PRATE,surface,-94.6879,36.3778,4.84e-05
2011-05-11 00:00:00,2011-05-11 00:00:00,PRATE,surface,-93.7504,36.3778,6.22e-05
2011-05-11 00:00:00,2011-05-11 00:00:00,PRATE,surface,-92.8129,36.3778,6.42e-05
