2018-07-13 00:00:00,2018-07-13 00:00:00,TMP,surface,-107.813,25.0393,291.053
2018-07-13 00:00:00,2018-07-13 00:00:00,TMP,surface,-106.875,25.0393,284.981
2018-07-13 00:00:00,2018-07-13 00:00:00,TMP,surface,-105.938,25.0393,280.33
2018-07-13 00:00:00,2018-07-13 00:00:00,TMP,surface,-105,25.0393,280.307
2018-07-13 00:00:00,2018-07-13 00:00:00,TMP,surface,-104.063,25.0393,285
2018-07-13 00:00:00,2018-07-13 00:00:00,TMP,surface,-103.125,25.0393,287.174
2018-07-13 00:00:00,2018-07-13 00:00:00,TMP,surface,-102.188,25.0393,286.314
2018-07-13 00:00:00,2018-07-13 00:00:00,TMP,surface,-101.25,25.0393,285.363
2018-07-13 00:00:00,2018-07-13 00:00:00,TMP,surface,-100.313,25.0393,286.422
2018-07-13 00:00:00,2018-07-13 00:00:00,TMP,surface,-99.3754,25.0393,288.648
2018-07-13 00:00:00,2018-07-13 00:00:00,TMP,surface,-98.4379,25.0393,291.226
2018-07-13 00:00:00,2018-07-13 00:00:00,TMP,surface,-97.5004,25.0393,293.808
2018-07-13 00:00:00,2018-07-13 00:00:00,TMP,surface,-96.5629,25.0393,293.893
2018-07-13 00:00:00,2018-07-13 00:00:00,TMP,surface,-95.6254,25.0393,294.65
2018-07-13 00:00:00,2018-07-13 00:00:00,TMP,surface,-94.6879,25.0393,295.375
2018-07-13 00:00:00,2018-07-13 00:00:00,TMP,surface,-93.7504,25.0393,295.518
2018-07-13 00:00:00,2018-07-13 00:00:00,TMP,surface,-92.8129,25.0393,295.63
2018-07-13 00:00:00,2018-07-13 00:00:00,TMP,surface,-107.813,25.9842,286.586
2018-07-13 00:00:00,2018-07-13 00:00:00,TMP,surface,-106.875,25.9842,280.709
2018-07-13 00:00:00,2018-07-13 00:00:00,TMP,surface,-105.938,25.9842,279.549
2018-07-13 00:00:00,2018-07-13 00:00:00,TMP,surface,-105,25.9842,283.026
2018-07-13 00:00:00,2018-07-13 00:00:00,TMP,surface,-104.063,25.9842,287.525
2018-07-13 00:00:00,2018-07-13 00:00:00,TMP,surface,-103.125,25.9842,288.722
2018-07-13 00:00:00,2018-07-13 00:00:00,TMP,surface,-102.188,25.9842,287.826
2018-07-13 00:00:00,2018-07-13 00:00:00,TMP,surface,-101.25,25.9842,287.19
2018-07-13 00:00:00,2018-07-13 00:00:00,TMP,surface,-100.313,25.9842,287.698
2018-07-13 00:00:00,2018-07-13 00:00:00,TMP,surface,-99.3754,25.9842,289.829
2018-07-13 00:00:00,2018-07-13 00:00:00,TMP,surface,-98.4379,25.9842,291.064
2018-07-13 00:00:00,2018-07-13 00:00:00,TMP,surface,-97.5004,25.9842,291.767
2018-07-13 00:00:00,2018-07-13 00:00:00,TMP,surface,-96.5629,25.9842,293.198
2018-07-13 00:00:00,2018-07-13 00:00:00,TMP,surface,-95.6254,25.9842,293.704
2018-07-13 00:00:00,2018-07-13 00:00:00,TMP,surface,-94.6879,25.9842,294.398
2018-07-13 00:00:00,2018-07-13 00:00:00,TMP,surface,-93.7504,25.9842,294.6
2018-07-13 00:00:00,2018-07-13 00:00:00,TMP,surface,-92.8129,25.9842,294.91
2018-07-13 00:00:00,2018-07-13 00:00:00,TMP,surface,-107.813,26.929,281.51
2018-07-13 00:00:00,2018-07-13 00:00:00,TMP,surface,-106.875,26.929,278.6
2018-07-13 00:00:00,2018-07-13 00:00:00,TMP,surface,-105.938,26.929,281.296
2018-07-13 00:00:00,2018-07-13 00:00:00,TMP,surface,-105,26.929,285.435
2018-07-13 00:00:00,2018-07-13 00:00:00,TMP,surface,-104.063,26.929,287.282
2018-07-13 00:00:00,2018-07-13 00:00:00,TMP,surface,-103.125,26.929,286.762
2018-07-13 00:00:00,2018-07-13 00:00:00,TMP,surface,-102.188,26.929,286.591
2018-07-13 00:00:00,2018-07-13 00:00:00,TMP,surface,-101.25,26.929,287.747
2018-07-13 00:00:00,2018-07-13 00:00:00,TMP,surface,-100.313,26.929,288.931
2018-07-13 00:00:00,2018-07-13 00:00:00,TMP,surface,-99.3754,26.929,289.936
2018-07-13 00:00:00,2018-07-13 00:00:00,TMP,surface,-98.4379,26.929,289.61
2018-07-13 00:00:00,2018-07-13 00:00:00,TMP,surface,-97.5004,26.929,292.296
2018-07-13 00:00:00,2018-07-13 00:00:00,TMP,surface,-96.5629,26.929,292.829
2018-07-13 00:00:00,2018-07-13 00:00:00,TMP,surface,-95.6254,26.929,293.411
2018-07-13 00:00:00,2018-07-13 00:00:00,TMP,surface,-94.6879,26.929,293.81
2018-07-13 00:00:00,2018-07-13 00:00:00,TMP,surface,-93.7504,26.929,293.925
2018-07-13 00:00:00,2018-07-13 00:00:00,TMP,surface,-92.8129,26.929,294.136
2018-07-13 00:00:00,2018-07-13 00:00:00,TMP,surface,-107.813,27.8739,278.859
2018-07-13 00:00:00,2018-07-13 00:00:00,TMP,surface,-106.875,27.8739,278.64
2018-07-13 00:00:00,2018-07-13 00:00:00,TMP,surface,-105.938,27.8739,282.904
2018-07-13 00:00:00,2018-07-13 00:00:00,TMP,surface,-105,27.8739,285.909
2018-07-13 00:00:00,2018-07-13 00:00:00,TMP,surface,-104.063,27.8739,286
2018-07-13 00:00:00,2018-07-13 00:00:00,TMP,surface,-103.125,27.8739,284.768
2018-07-13 00:00:00,2018-07-13 00:00:00,TMP,surface,-102.188,27.8739,285.246
2018-07-13 00:00:00,2018-07-13 00:00:00,TMP,surface,-101.25,27.8739,286.893
2018-07-13 00:00:00,2018-07-13 00:00:00,TMP,surface,-100.313,27.8739,288.163
2018-07-13 00:00:00,2018-07-13 00:00:00,TMP,surface,-99.3754,27.8739,288.238
2018-07-13 00:00:00,2018-07-13 00:00:00,TMP,surface,-98.4379,27.8739,287.938
2018-07-13 00:00:00,2018-07-13 00:00:00,TMP,surface,-97.5004,27.8739,290.319
2018-07-13 00:00:00,2018-07-13 00:00:00,TMP,surface,-96.5629,27.8739,293.039
2018-07-13 00:00:00,2018-07-13 00:00:00,TMP,surface,-95.6254,27.8739,293.335
2018-07-13 00:00:00,2018-07-13 00:00:00,TMP,surface,-94.6879,27.8739,293.293
2018-07-13 00:00:00,2018-07-13 00:00:00,TMP,surface,-93.7504,27.8739,293.238
2018-07-13 00:00:00,2018-07-13 00:00:00,TMP,surface,-92.8129,27.8739,293.32
2018-07-13 00:00:00,2018-07-13 00:00:00,TMP,surface,-107.813,28.8188,278.003
2018-07-13 00:00:00,2018-07-13 00:00:00,TMP,surface,-106.875,28.8188,279.491
2018-07-13 00:00:00,2018-07-13 00:00:00,TMP,surface,-105.938,28.8188,283.349
2018-07-13 00:00:00,2018-07-13 00:00:00,TMP,surface,-105,28.8188,285.275
2018-07-13 00:00:00,2018-07-13 00:00:00,TMP,surface,-104.063,28.8188,284.146
2018-07-13 00:00:00,2018-07-13 00:00:00,TMP,surface,-103.125,28.8188,283.109
2018-07-13 00:00:00,2018-07-13 00:00:00,TMP,surface,-102.188,28.8188,284.005
2018-07-13 00:00:00,2018-07-13 00:00:00,TMP,surface,-101.25,28.8188,285.797
2018-07-13 00:00:00,2018-07-13 00:00:00,TMP,surface,-100.313,28.8188,286.325
2018-07-13 00:00:00,2018-07-13 00:00:00,TMP,surface,-99.3754,28.8188,285.947
2018-07-13 00:00:00,2018-07-13 00:00:00,TMP,surface,-98.4379,28.8188,285.803
2018-07-13 00:00:00,2018-07-13 00:00:00,TMP,surface,-97.5004,28.8188,286.248
2018-07-13 00:00:00,2018-07-13 00:00:00,TMP,surface,-96.5629,28.8188,286.928
2018-07-13 00:00:00,2018-07-13 00:00:00,TMP,surface,-95.6254,28.8188,289.386
2018-07-13 00:00:00,2018-07-13 00:00:00,TMP,surface,-94.6879,28.8188,292.813
2018-07-13 00:00:00,2018-07-13 00:00:00,TMP,surface,-93.7504,28.8188,292.783
2018-07-13 00:00:00,2018-07-13 00:00:00,TMP,surface,-92.8129,28.8188,292.888
2018-07-13 00:00:00,2018-07-13 00:00:00,TMP,surface,-107.813,29.7637,279.341
2018-07-13 00:00:00,2018-07-13 00:00:00,TMP,surface,-106.875,29.7637,280.906
2018-07-13 00:00:00,2018-07-13 00:00:00,TMP,surface,-105.938,29.7637,283.263
2018-07-13 00:00:00,2018-07-13 00:00:00,TMP,surface,-105,29.7637,283.686
2018-07-13 00:00:00,2018-07-13 00:00:00,TMP,surface,-104.063,29.7637,283.176
2018-07-13 00:00:00,2018-07-13 00:00:00,TMP,surface,-103.125,29.7637,283.184
2018-07-13 00:00:00,2018-07-13 00:00:00,TMP,surface,-102.188,29.7637,284.179
2018-07-13 00:00:00,2018-07-13 00:00:00,TMP,surface,-101.25,29.7637,284.846
2018-07-13 00:00:00,2018-07-13 00:00:00,TMP,surface,-100.313,29.7637,284.48
2018-07-13 00:00:00,2018-07-13 00:00:00,TMP,surface,-99.3754,29.7637,284.131
2018-07-13 00:00:00,2018-07-13 00:00:00,TMP,surface,-98.4379,29.7637,284.277
2018-07-13 00:00:00,2018-07-13 00:00:00,TMP,surface,-97.5004,29.7637,284.701
2018-07-13 00:00:00,2018-07-13 00:00:00,TMP,surface,-96.5629,29.7637,285.198
2018-07-13 00:00:00,2018-07-13 00:00:00,TMP,surface,-95.6254,29.7637,285.802
2018-07-13 00:00:00,2018-07-13 00:00:00,TMP,surface,-94.6879,29.7637,288.224
2018-07-13 00:00:00,2018-07-13 00:00:00,TMP,surface,-93.7504,29.7637,291.09
2018-07-13 00:00:00,2018-07-13 00:00:00,TMP,surface,-92.8129,29.7637,286.874
2018-07-13 00:00:00,2018-07-13 00:00:00,TMP,surface,-107.813,30.7085,281.952
2018-07-13 00:00:00,2018-07-13 00:00:00,TMP,surface,-106.875,30.7085,282.877
2018-07-13 00:00:00,2018-07-13 00:00:00,TMP,surface,-105.938,30.7085,283.029
2018-07-13 00:00:00,2018-07-13 00:00:00,TMP,surface,-105,30.7085,282.435
2018-07-13 00:00:00,2018-07-13 00:00:00,TMP,surface,-104.063,30.7085,282.525
2018-07-13 00:00:00,2018-07-13 00:00:00,TMP,surface,-103.125,30.7085,283.472
2018-07-13 00:00:00,2018-07-13 00:00:00,TMP,surface,-102.188,30.7085,284.147
2018-07-13 00:00:00,2018-07-13 00:00:00,TMP,surface,-101.25,30.7085,283.955
2018-07-13 00:00:00,2018-07-13 00:00:00,TMP,surface,-100.313,30.7085,283.347
2018-07-13 00:00:00,2018-07-13 00:00:00,TMP,surface,-99.3754,30.7085,283.226
2018-07-13 00:00:00,2018-07-13 00:00:00,TMP,surface,-98.4379,30.7085,283.615
2018-07-13 00:00:00,2018-07-13 00:00:00,TMP,surface,-97.5004,30.7085,284.069
2018-07-13 00:00:00,2018-07-13 00:00:00,TMP,surface,-96.5629,30.7085,284.485
2018-07-13 00:00:00,2018-07-13 00:00:00,TMP,surface,-95.6254,30.7085,284.864
2018-07-13 00:00:00,2018-07-13 00:00:00,TMP,surface,-94.6879,30.7085,285.058
2018-07-13 00:00:00,2018-07-13 00:00:00,TMP,surface,-93.7504,30.7085,285.037
2018-07-13 00:00:00,2018-07-13 00:00:00,TMP,surface,-92.8129,30.7085,284.742
2018-07-13 00:00:00,2018-07-13 00:00:00,TMP,surface,-107.813,31.6534,282.375
2018-07-13 00:00:00,2018-07-13 00:00:00,TMP,surface,-106.875,31.6534,283.075
2018-07-13 00:00:00,2018-07-13 00:00:00,TMP,surface,-105.938,31.6534,282.309
2018-07-13 00:00:00,2018-07-13 00:00:00,TMP,surface,-105,31.6534,281.773
2018-07-13 00:00:00,2018-07-13 00:00:00,TMP,surface,-104.063,31.6534,282.279
2018-07-13 00:00:00,2018-07-13 00:00:00,TMP,surface,-103.125,31.6534,283.315
2018-07-13 00:00:00,2018-07-13 00:00:00,TMP,surface,-102.188,31.6534,283.678
2018-07-13 00:00:00,2018-07-13 00:00:00,TMP,surface,-101.25,31.6534,283.33
2018-07-13 00:00:00,2018-07-13 00:00:00,TMP,surface,-100.313,31.6534,283.042
2018-07-13 00:00:00,2018-07-13 00:00:00,TMP,surface,-99.3754,31.6534,283.151
2018-07-13 00:00:00,2018-07-13 00:00:00,TMP,surface,-98.4379,31.6534,283.491
2018-07-13 00:00:00,2018-07-13 00:00:00,TMP,surface,-97.5004,31.6534,283.818
2018-07-13 00:00:00,2018-07-13 00:00:00,TMP,surface,-96.5629,31.6534,284.179
2018-07-13 00:00:00,2018-07-13 00:00:00,TMP,surface,-95.6254,31.6534,284.422
2018-07-13 00:00:00,2018-07-13 00:00:00,TMP,surface,-94.6879,31.6534,284.277
2018-07-13 00:00:00,2018-07-13 00:00:00,TMP,surface,-93.7504,31.6534,284.024
2018-07-13 00:00:00,2018-07-13 00:00:00,TMP,surface,-92.8129,31.6534,283.871
2018-07-13 00:00:00,2018-07-13 00:00:00,TMP,surface,-107.813,32.5983,279.763
2018-07-13 00:00:00,2018-07-13 00:00:00,TMP,surface,-106.875,32.5983,280.41
2018-07-13 00:00:00,2018-07-13 00:00:00,TMP,surface,-105.938,32.5983,280.733
2018-07-13 00:00:00,2018-07-13 00:00:00,TMP,surface,-105,32.5983,280.84
2018-07-13 00:00:00,2018-07-13 00:00:00,TMP,surface,-104.063,32.5983,281.933
2018-07-13 00:00:00,2018-07-13 00:00:00,TMP,surface,-103.125,32.5983,282.771
2018-07-13 00:00:00,2018-07-13 00:00:00,TMP,surface,-102.188,32.5983,282.736
2018-07-13 00:00:00,2018-07-13 00:00:00,TMP,surface,-101.25,32.5983,282.651
2018-07-13 00:00:00,2018-07-13 00:00:00,TMP,surface,-100.313,32.5983,282.955
2018-07-13 00:00:00,2018-07-13 00:00:00,TMP,surface,-99.3754,32.5983,283.347
2018-07-13 00:00:00,2018-07-13 00:00:00,TMP,surface,-98.4379,32.5983,283.547
2018-07-13 00:00:00,2018-07-13 00:00:00,TMP,surface,-97.5004,32.5983,283.651
2018-07-13 00:00:00,2018-07-13 00:00:00,TMP,surface,-96.5629,32.5983,283.832
2018-07-13 00:00:00,2018-07-13 00:00:00,TMP,surface,-95.6254,32.5983,283.93
2018-07-13 00:00:00,2018-07-13 00:00:00,TMP,surface,-94.6879,32.5983,283.723
2018-07-13 00:00:00,2018-07-13 00:00:00,TMP,surface,-93.7504,32.5983,283.466
2018-07-13 00:00:00,2018-07-13 00:00:00,TMP,surface,-92.8129,32.5983,283.554
2018-07-13 00:00:00,2018-07-13 00:00:00,TMP,surface,-107.813,33.5432,276.459
2018-07-13 00:00:00,2018-07-13 00:00:00,TMP,surface,-106.875,33.5432,277.653
2018-07-13 00:00:00,2018-07-13 00:00:00,TMP,surface,-105.938,33.5432,278.72
2018-07-13 00:00:00,2018-07-13 00:00:00,TMP,surface,-105,33.5432,279.536
2018-07-13 00:00:00,2018-07-13 00:00:00,TMP,surface,-104.063,33.5432,281.223
2018-07-13 00:00:00,2018-07-13 00:00:00,TMP,surface,-103.125,33.5432,281.638
2018-07-13 00:00:00,2018-07-13 00:00:00,TMP,surface,-102.188,33.5432,281.371
2018-07-13 00:00:00,2018-07-13 00:00:00,TMP,surface,-101.25,33.5432,281.562
2018-07-13 00:00:00,2018-07-13 00:00:00,TMP,surface,-100.313,33.5432,282.371
2018-07-13 00:00:00,2018-07-13 00:00:00,TMP,surface,-99.3754,33.5432,282.968
2018-07-13 00:00:00,2018-07-13 00:00:00,TMP,surface,-98.4379,33.5432,283.134
2018-07-13 00:00:00,2018-07-13 00:00:00,TMP,surface,-97.5004,33.5432,283.053
2018-07-13 00:00:00,2018-07-13 00:00:00,TMP,surface,-96.5629,33.5432,283.037
2018-07-13 00:00:00,2018-07-13 00:00:00,TMP,surface,-95.6254,33.5432,283.101
2018-07-13 00:00:00,2018-07-13 00:00:00,TMP,surface,-94.6879,33.5432,282.971
2018-07-13 00:00:00,2018-07-13 00:00:00,TMP,surface,-93.7504,33.5432,282.792
2018-07-13 00:00:00,2018-07-13 00:00:00,TMP,surface,-92.8129,33.5432,282.963
2018-07-13 00:00:00,2018-07-13 00:00:00,TMP,surface,-107.813,34.4881,275.574
2018-07-13 00:00:00,2018-07-13 00:00:00,TMP,surface,-106.875,34.4881,276.879
2018-07-13 00:00:00,2018-07-13 00:00:00,TMP,surface,-105.938,34.4881,277.997
2018-07-13 00:00:00,2018-07-13 00:00:00,TMP,surface,-105,34.4881,279.207
2018-07-13 00:00:00,2018-07-13 00:00:00,TMP,surface,-104.063,34.4881,279.622
2018-07-13 00:00:00,2018-07-13 00:00:00,TMP,surface,-103.125,34.4881,279.797
2018-07-13 00:00:00,2018-07-13 00:00:00,TMP,surface,-102.188,34.4881,279.923
2018-07-13 00:00:00,2018-07-13 00:00:00,TMP,surface,-101.25,34.4881,280.426
2018-07-13 00:00:00,2018-07-13 00:00:00,TMP,surface,-100.313,34.4881,281.23
2018-07-13 00:00:00,2018-07-13 00:00:00,TMP,surface,-99.3754,34.4881,281.858
2018-07-13 00:00:00,2018-07-13 00:00:00,TMP,surface,-98.4379,34.4881,282.203
2018-07-13 00:00:00,2018-07-13 00:00:00,TMP,surface,-97.5004,34.4881,282.391
2018-07-13 00:00:00,2018-07-13 00:00:00,TMP,surface,-96.5629,34.4881,282.584
2018-07-13 00:00:00,2018-07-13 00:00:00,TMP,surface,-95.6254,34.4881,282.624
2018-07-13 00:00:00,2018-07-13 00:00:00,TMP,surface,-94.6879,34.4881,282.261
2018-07-13 00:00:00,2018-07-13 00:00:00,TMP,surface,-93.7504,34.4881,281.898
2018-07-13 00:00:00,2018-07-13 00:00:00,TMP,surface,-92.8129,34.4881,282.091
2018-07-13 00:00:00,2018-07-13 00:00:00,TMP,surface,-107.813,35.4329,276.266
2018-07-13 00:00:00,2018-07-13 00:00:00,TMP,surface,-106.875,35.4329,276.499
2018-07-13 00:00:00,2018-07-13 00:00:00,TMP,surface,-105.938,35.4329,276.714
2018-07-13 00:00:00,2018-07-13 00:00:00,TMP,surface,-105,35.4329,277.086
2018-07-13 00:00:00,2018-07-13 00:00:00,TMP,surface,-104.063,35.4329,278.285
2018-07-13 00:00:00,2018-07-13 00:00:00,TMP,surface,-103.125,35.4329,278.701
2018-07-13 00:00:00,2018-07-13 00:00:00,TMP,surface,-102.188,35.4329,278.848
2018-07-13 00:00:00,2018-07-13 00:00:00,TMP,surface,-101.25,35.4329,279.304
2018-07-13 00:00:00,2018-07-13 00:00:00,TMP,surface,-100.313,35.4329,280.05
2018-07-13 00:00:00,2018-07-13 00:00:00,TMP,surface,-99.3754,35.4329,280.629
2018-07-13 00:00:00,2018-07-13 00:00:00,TMP,surface,-98.4379,35.4329,281.134
2018-07-13 00:00:00,2018-07-13 00:00:00,TMP,surface,-97.5004,35.4329,281.715
2018-07-13 00:00:00,2018-07-13 00:00:00,TMP,surface,-96.5629,35.4329,282.205
2018-07-13 00:00:00,2018-07-13 00:00:00,TMP,surface,-95.6254,35.4329,282.261
2018-07-13 00:00:00,2018-07-13 00:00:00,TMP,surface,-94.6879,35.4329,281.765
2018-07-13 00:00:00,2018-07-13 00:00:00,TMP,surface,-93.7504,35.4329,281.151
2018-07-13 00:00:00,2018-07-13 00:00:00,TMP,surface,-92.8129,35.4329,281.09
2018-07-13 00:00:00,2018-07-13 00:00:00,TMP,surface,-107.813,36.3778,275.864
2018-07-13 00:00:00,2018-07-13 00:00:00,TMP,surface,-106.875,36.3778,274.461
2018-07-13 00:00:00,2018-07-13 00:00:00,TMP,surface,-105.938,36.3778,274.267
2018-07-13 00:00:00,2018-07-13 00:00:00,TMP,surface,-105,36.3778,275.051
2018-07-13 00:00:00,2018-07-13 00:00:00,TMP,surface,-104.063,36.3778,276.246
2018-07-13 00:00:00,2018-07-13 00:00:00,TMP,surface,-103.125,36.3778,276.864
2018-07-13 00:00:00,2018-07-13 00:00:00,TMP,surface,-102.188,36.3778,277.443
2018-07-13 00:00:00,2018-07-13 00:00:00,TMP,surface,-101.25,36.3778,278.08
2018-07-13 00:00:00,2018-07-13 00:00:00,TMP,surface,-100.313,36.3778,279.007
2018-07-13 00:00:00,2018-07-13 00:00:00,TMP,surface,-99.3754,36.3778,279.944
2018-07-13 00:00:00,2018-07-13 00:00:00,TMP,surface,-98.4379,36.3778,280.478
2018-07-13 00:00:00,2018-07-13 00:00:00,TMP,surface,-97.5004,36.3778,281.061
2018-07-13 00:00:00,2018-07-13 00:00:00,TMP,surface,-96.5629,36.3778,281.72
2018-07-13 00:00:00,2018-07-13 00:00:00,TMP,surface,-95.6254,36.3778,281.871
2018-07-13 00:00:00,2018-07-13 00:00:00,TMP,surface,-94.6879,36.3778,281.358
2018-07-13 00:00:00,2018-07-13 00:00:00,TMP,surface,-93.7504,36.3778,280.573
2018-07-13 00:00:00,2018-07-13 00:00:00,TMP,surface,-92.8129,36.3778,280.245
2018-07-13 00:00:00,2018-07-13 00:00:00,PRATE,surface,-107.813,25.0393,5.88e-05
2018-07-13 00:00:00,2018-07-13 00:00:00,PRATE,surface,-106.875,25.0393,9.83e-05
2018-07-13 00:00:00,2018-07-13 00:00:00,PRATE,surface,-105.938,25.0393,7.14e-05
2018-07-13 00:00:00,2018-07-13 00:00:00,PRATE,surface,-105,25.0393,2e-05
2018-07-13 00:00:00,2018-07-13 00:00:00,PRATE,surface,-104.063,25.0393,5.7e-06
2018-07-13 00:00:00,2018-07-13 00:00:00,PRATE,surface,-103.125,25.0393,3.6e-06
2018-07-13 00:00:00,2018-07-13 00:00:00,PRATE,surface,-102.188,25.0393,4e-06
2018-07-13 00:00:00,2018-07-13 00:00:00,PRATE,surface,-101.25,25.0393,1e-05
2018-07-13 00:00:00,2018-07-13 00:00:00,PRATE,surface,-100.313,25.0393,2.58e-05
2018-07-13 00:00:00,2018-07-13 00:00:00,PRATE,surface,-99.3754,25.0393,4.13e-05
2018-07-13 00:00:00,2018-07-13 00:00:00,PRATE,surface,-98.4379,25.0393,4.91e-05
2018-07-13 00:00:00,2018-07-13 00:00:00,PRATE,surface,-97.5004,25.0393,6.06e-05
2018-07-13 00:00:00,2018-07-13 00:00:00,PRATE,surface,-96.5629,25.0393,6.24e-05
2018-07-13 00:00:00,2018-07-13 00:00:00,PRATE,surface,-95.6254,25.0393,5.95e-05
2018-07-13 00:00:00,2018-07-13 00:00:00,PRATE,surface,-94.6879,25.0393,7.29e-05
2018-07-13 00:00:00,2018-07-13 00:00:00,PRATE,surface,-93.7504,25.0393,6.54e-05
2018-07-13 00:00:00,2018-07-13 00:00:00,PRATE,surface,-92.8129,25.0393,4.5e-05
2018-07-13 00:00:00,2018-07-13 00:00:00,PRATE,surface,-107.813,25.9842,0.0001006
2018-07-13 00:00:00,2018-07-13 00:00:00,PRATE,surface,-106.875,25.9842,0.0001029
2018-07-13 00:00:00,2018-07-13 00:00:00,PRATE,surface,-105.938,25.9842,4.14e-05
2018-07-13 00:00:00,2018-07-13 00:00:00,PRATE,surface,-105,25.9842,1.69e-05
2018-07-13 00:00:00,2018-07-13 00:00:00,PRATE,surface,-104.063,25.9842,6.4e-06
2018-07-13 00:00:00,2018-07-13 00:00:00,PRATE,surface,-103.125,25.9842,2e-06
2018-07-13 00:00:00,2018-07-13 00:00:00,PRATE,surface,-102.188,25.9842,4.4e-06
2018-07-13 00:00:00,2018-07-13 00:00:00,PRATE,surface,-101.25,25.9842,8.6e-06
2018-07-13 00:00:00,2018-07-13 00:00:00,PRATE,surface,-100.313,25.9842,2.35e-05
2018-07-13 00:00:00,2018-07-13 00:00:00,PRATE,surface,-99.3754,25.9842,3.07e-05
2018-07-13 00:00:00,2018-07-13 00:00:00,PRATE,surface,-98.4379,25.9842,3.66e-05
2018-07-13 00:00:00,2018-07-13 00:00:00,PRATE,surface,-97.5004,25.9842,4.41e-05
2018-07-13 00:00:00,2018-07-13 00:00:00,PRATE,surface,-96.5629,25.9842,5.01e-05
2018-07-13 00:00:00,2018-07-13 00:00:00,PRATE,surface,-95.6254,25.9842,5.12e-05
2018-07-13 00:00:00,2018-07-13 00:00:00,PRATE,surface,-94.6879,25.9842,7.21e-05
2018-07-13 00:00:00,2018-07-13 00:00:00,PRATE,surface,-93.7504,25.9842,8.13e-05
2018-07-13 00:00:00,2018-07-13 00:00:00,PRATE,surface,-92.8129,25.9842,7.45e-05
2018-07-13 00:00:00,2018-07-13 00:00:00,PRATE,surface,-107.813,26.929,0.0001171
2018-07-13 00:00:00,2018-07-13 00:00:00,PRATE,surface,-106.875,26.929,6.68e-05
2018-07-13 00:00:00,2018-07-13 00:00:00,PRATE,surface,-105.938,26.929,2.8e-05
2018-07-13 00:00:00,2018-07-13 00:00:00,PRATE,surface,-105,26.929,1.65e-05
2018-07-13 00:00:00,2018-07-13 00:00:00,PRATE,surface,-104.063,26.929,7e-06
2018-07-13 00:00:00,2018-07-13 00:00:00,PRATE,surface,-103.125,26.929,9.6e-06
2018-07-13 00:00:00,2018-07-13 00:00:00,PRATE,surface,-102.188,26.929,1.34e-05
2018-07-13 00:00:00,2018-07-13 00:00:00,PRATE,surface,-101.25,26.929,1.62e-05
2018-07-13 00:00:00,2018-07-13 00:00:00,PRATE,surface,-100.313,26.929,1.72e-05
2018-07-13 00:00:00,2018-07-13 00:00:00,PRATE,surface,-99.3754,26.929,2.14e-05
2018-07-13 00:00:00,2018-07-13 00:00:00,PRATE,surface,-98.4379,26.929,3.39e-05
2018-07-13 00:00:00,2018-07-13 00:00:00,PRATE,surface,-97.5004,26.929,5.46e-05
2018-07-13 00:00:00,2018-07-13 00:00:00,PRATE,surface,-96.5629,26.929,6.39e-05
2018-07-13 00:00:00,2018-07-13 00:00:00,PRATE,surface,-95.6254,26.929,5.55e-05
2018-07-13 00:00:00,2018-07-13 00:00:00,PRATE,surface,-94.6879,26.929,6.42e-05
2018-07-13 00:00:00,2018-07-13 00:00:00,PRATE,surface,-93.7504,26.929,8.27e-05
2018-07-13 00:00:00,2018-07-13 00:00:00,PRATE,surface,-92.8129,26.929,9.24e-05
2018-07-13 00:00:00,2018-07-13 00:00:00,PRATE,surface,-107.813,27.8739,0.0001021
2018-07-13 00:00:00,2018-07-13 00:00:00,PRATE,surface,-106.875,27.8739,4.83e-05
2018-07-13 00:00:00,2018-07-13 00:00:00,PRATE,surface,-105.938,27.8739,2.44e-05
2018-07-13 00:00:00,2018-07-13 00:00:00,PRATE,surface,-105,27.8739,1.17e-05
2018-07-13 00:00:00,2018-07-13 00:00:00,PRATE,surface,-104.063,27.8739,1.53e-05
2018-07-13 00:00:00,2018-07-13 00:00:00,PRATE,surface,-103.125,27.8739,2.5e-05
2018-07-13 00:00:00,2018-07-13 00:00:00,PRATE,surface,-102.188,27.8739,3.23e-05
2018-07-13 00:00:00,2018-07-13 00:00:00,PRATE,surface,-101.25,27.8739,2.55e-05
2018-07-13 00:00:00,2018-07-13 00:00:00,PRATE,surface,-100.313,27.8739,2.44e-05
2018-07-13 00:00:00,2018-07-13 00:00:00,PRATE,surface,-99.3754,27.8739,3.09e-05
2018-07-13 00:00:00,2018-07-13 00:00:00,PRATE,surface,-98.4379,27.8739,4.28e-05
2018-07-13 00:00:00,2018-07-13 00:00:00,PRATE,surface,-97.5004,27.8739,5.46e-05
2018-07-13 00:00:00,2018-07-13 00:00:00,PRATE,surface,-96.5629,27.8739,6.26e-05
2018-07-13 00:00:00,2018-07-13 00:00:00,PRATE,surface,-95.6254,27.8739,6.69e-05
2018-07-13 00:00:00,2018-07-13 00:00:00,PRATE,surface,-94.6879,27.8739,7.06e-05
2018-07-13 00:00:00,2018-07-13 00:00:00,PRATE,surface,-93.7504,27.8739,7.78e-05
2018-07-13 00:00:00,2018-07-13 00:00:00,PRATE,surface,-92.8129,27.8739,8.34e-05
2018-07-13 00:00:00,2018-07-13 00:00:00,PRATE,surface,-107.813,28.8188,7.31e-05
2018-07-13 00:00:00,2018-07-13 00:00:00,PRATE,surface,-106.875,28.8188,3.85e-05
2018-07-13 00:00:00,2018-07-13 00:00:00,PRATE,surface,-105.938,28.8188,1.95e-05
2018-07-13 00:00:00,2018-07-13 00:00:00,PRATE,surface,-105,28.8188,1.72e-05
2018-07-13 00:00:00,2018-07-13 00:00:00,PRATE,surface,-104.063,28.8188,2.45e-05
2018-07-13 00:00:00,2018-07-13 00:00:00,PRATE,surface,-103.125,28.8188,3.62e-05
2018-07-13 00:00:00,2018-07-13 00:00:00,PRATE,surface,-102.188,28.8188,3.73e-05
2018-07-13 00:00:00,2018-07-13 00:00:00,PRATE,surface,-101.25,28.8188,3.38e-05
2018-07-13 00:00:00,2018-07-13 00:00:00,PRATE,surface,-100.313,28.8188,3.32e-05
2018-07-13 00:00:00,2018-07-13 00:00:00,PRATE,surface,-99.3754,28.8188,4.02e-05
2018-07-13 00:00:00,2018-07-13 00:00:00,PRATE,surface,-98.4379,28.8188,4.94e-05
2018-07-13 00:00:00,2018-07-13 00:00:00,PRATE,surface,-97.5004,28.8188,5.29e-05
2018-07-13 00:00:00,2018-07-13 00:00:00,PRATE,surface,-96.5629,28.8188,5.88e-05
2018-07-13 00:00:00,2018-07-13 00:00:00,PRATE,surface,-95.6254,28.8188,7.5e-05
2018-07-13 00:00:00,2018-07-13 00:00:00,PRATE,surface,-94.6879,28.8188,9.05e-05
2018-07-13 00:00:00,2018-07-13 00:00:00,PRATE,surface,-93.7504,28.8188,9.46e-05
2018-07-13 00:00:00,2018-07-13 00:00:00,PRATE,surface,-92.8129,28.8188,8.97e-05
2018-07-13 00:00:00,2018-07-13 00:00:00,PRATE,surface,-107.813,29.7637,3.6e-05
2018-07-13 00:00:00,2018-07-13 00:00:00,PRATE,surface,-106.875,29.7637,2.78e-05
2018-07-13 00:00:00,2018-07-13 00:00:00,PRATE,surface,-105.938,29.7637,2.26e-05
2018-07-13 00:00:00,2018-07-13 00:00:00,PRATE,surface,-105,29.7637,2.27e-05
2018-07-13 00:00:00,2018-07-13 00:00:00,PRATE,surface,-104.063,29.7637,2.81e-05
2018-07-13 00:00:00,2018-07-13 00:00:00,PRATE,surface,-103.125,29.7637,3.45e-05
2018-07-13 00:00:00,2018-07-13 00:00:00,PRATE,surface,-102.188,29.7637,3.41e-05
2018-07-13 00:00:00,2018-07-13 00:00:00,PRATE,surface,-101.25,29.7637,3.63e-05
2018-07-13 00:00:00,2018-07-13 00:00:00,PRATE,surface,-100.313,29.7637,4.03e-05
2018-07-13 00:00:00,2018-07-13 00:00:00,PRATE,surface,-99.3754,29.7637,4.91e-05
2018-07-13 00:00:00,2018-07-13 00:00:00,PRATE,surface,-98.4379,29.7637,5.48e-05
2018-07-13 00:00:00,2018-07-13 00:00:00,PRATE,surface,-97.5004,29.7637,5.87e-05
2018-07-13 00:00:00,2018-07-13 00:00:00,PRATE,surface,-96.5629,29.7637,7.11e-05
2018-07-13 00:00:00,2018-07-13 00:00:00,PRATE,surface,-95.6254,29.7637,8.96e-05
2018-07-13 00:00:00,2018-07-13 00:00:00,PRATE,surface,-94.6879,29.7637,0.0001014
2018-07-13 00:00:00,2018-07-13 00:00:00,PRATE,surface,-93.7504,29.7637,0.0001038
2018-07-13 00:00:00,2018-07-13 00:00:00,PRATE,surface,-92.8129,29.7637,0.0001011
2018-07-13 00:00:00,2018-07-13 00:00:00,PRATE,surface,-107.813,30.7085,2.31e-05
2018-07-13 00:00:00,2018-07-13 00:00:00,PRATE,surface,-106.875,30.7085,2.38e-05
2018-07-13 00:00:00,2018-07-13 00:00:00,PRATE,surface,-105.938,30.7085,2.81e-05
2018-07-13 00:00:00,2018-07-13 00:00:00,PRATE,surface,-105,30.7085,3.41e-05
2018-07-13 00:00:00,2018-07-13 00:00:00,PRATE,surface,-104.063,30.7085,3.09e-05
2018-07-13 00:00:00,2018-07-13 00:00:00,PRATE,surface,-103.125,30.7085,2.64e-05
2018-07-13 00:00:00,2018-07-13 00:00:00,PRATE,surface,-102.188,30.7085,2.7e-05
2018-07-13 00:00:00,2018-07-13 00:00:00,PRATE,surface,-101.25,30.7085,3.77e-05
2018-07-13 00:00:00,2018-07-13 00:00:00,PRATE,surface,-100.313,30.7085,5.3e-05
2018-07-13 00:00:00,2018-07-13 00:00:00,PRATE,surface,-99.3754,30.7085,5.97e-05
2018-07-13 00:00:00,2018-07-13 00:00:00,PRATE,surface,-98.4379,30.7085,6.24e-05
2018-07-13 00:00:00,2018-07-13 00:00:00,PRATE,surface,-97.5004,30.7085,6.83e-05
2018-07-13 00:00:00,2018-07-13 00:00:00,PRATE,surface,-96.5629,30.7085,7.74e-05
2018-07-13 00:00:00,2018-07-13 00:00:00,PRATE,surface,-95.6254,30.7085,8.76e-05
2018-07-13 00:00:00,2018-07-13 00:00:00,PRATE,surface,-94.6879,30.7085,9.48e-05
2018-07-13 00:00:00,2018-07-13 00:00:00,PRATE,surface,-93.7504,30.7085,9.57e-05
2018-07-13 00:00:00,2018-07-13 00:00:00,PRATE,surface,-92.8129,30.7085,9.48e-05
2018-07-13 00:00:00,2018-07-13 00:00:00,PRATE,surface,-107.813,31.6534,2.25e-05
2018-07-13 00:00:00,2018-07-13 00:00:00,PRATE,surface,-106.875,31.6534,2.53e-05
2018-07-13 00:00:00,2018-07-13 00:00:00,PRATE,surface,-105.938,31.6534,3.1e-05
2018-07-13 00:00:00,2018-07-13 00:00:00,PRATE,surface,-105,31.6534,3.48e-05
2018-07-13 00:00:00,2018-07-13 00:00:00,PRATE,surface,-104.063,31.6534,3.11e-05
2018-07-13 00:00:00,2018-07-13 00:00:00,PRATE,surface,-103.125,31.6534,2.43e-05
2018-07-13 00:00:00,2018-07-13 00:00:00,PRATE,surface,-102.188,31.6534,2.81e-05
2018-07-13 00:00:00,2018-07-13 00:00:00,PRATE,surface,-101.25,31.6534,4.41e-05
2018-07-13 00:00:00,2018-07-13 00:00:00,PRATE,surface,-100.313,31.6534,6.53e-05
2018-07-13 00:00:00,2018-07-13 00:00:00,PRATE,surface,-99.3754,31.6534,7.59e-05
2018-07-13 00:00:00,2018-07-13 00:00:00,PRATE,surface,-98.4379,31.6534,7.31e-05
2018-07-13 00:00:00,2018-07-13 00:00:00,PRATE,surface,-97.5004,31.6534,7.2e-05
2018-07-13 00:00:00,2018-07-13 00:00:00,PRATE,surface,-96.5629,31.6534,7.39e-05
2018-07-13 00:00:00,2018-07-13 00:00:00,PRATE,surface,-95.6254,31.6534,7.44e-05
2018-07-13 00:00:00,2018-07-13 00:00:00,PRATE,surface,-94.6879,31.6534,7.74e-05
2018-07-13 00:00:00,2018-07-13 00:00:00,PRATE,surface,-93.7504,31.6534,8.16e-05
2018-07-13 00:00:00,2018-07-13 00:00:00,PRATE,surface,-92.8129,31.6534,8.51e-05
2018-07-13 00:00:00,2018-07-13 00:00:00,PRATE,surface,-107.813,32.5983,4.47e-05
2018-07-13 00:00:00,2018-07-13 00:00:00,PRATE,surface,-106.875,32.5983,3.94e-05
2018-07-13 00:00:00,2018-07-13 00:00:00,PRATE,surface,-105.938,32.5983,3.36e-05
2018-07-13 00:00:00,2018-07-13 00:00:00,PRATE,surface,-105,32.5983,3.44e-05
2018-07-13 00:00:00,2018-07-13 00:00:00,PRATE,surface,-104.063,32.5983,3.68e-05
2018-07-13 00:00:00,2018-07-13 00:00:00,PRATE,surface,-103.125,32.5983,3.74e-05
2018-07-13 00:00:00,2018-07-13 00:00:00,PRATE,surface,-102.188,32.5983,4.3e-05
2018-07-13 00:00:00,2018-07-13 00:00:00,PRATE,surface,-101.25,32.5983,5.9e-05
2018-07-13 00:00:00,2018-07-13 00:00:00,PRATE,surface,-100.313,32.5983,6.87e-05
2018-07-13 00:00:00,2018-07-13 00:00:00,PRATE,surface,-99.3754,32.5983,7.41e-05
2018-07-13 00:00:00,2018-07-13 00:00:00,PRATE,surface,-98.4379,32.5983,8e-05
2018-07-13 00:00:00,2018-07-13 00:00:00,PRATE,surface,-97.5004,32.5983,8.02e-05
2018-07-13 00:00:00,2018-07-13 00:00:00,PRATE,surface,-96.5629,32.5983,7.44e-05
2018-07-13 00:00:00,2018-07-13 00:00:00,PRATE,surface,-95.6254,32.5983,7.01e-05
2018-07-13 00:00:00,2018-07-13 00:00:00,PRATE,surface,-94.6879,32.5983,6.92e-05
2018-07-13 00:00:00,2018-07-13 00:00:00,PRATE,surface,-93.7504,32.5983,6.92e-05
2018-07-13 00:00:00,2018-07-13 00:00:00,PRATE,surface,-92.8129,32.5983,6.71e-05
2018-07-13 00:00:00,2018-07-13 00:00:00,PRATE,surface,-107.813,33.5432,8.65e-05
2018-07-13 00:00:00,2018-07-13 00:00:00,PRATE,surface,-106.875,33.5432,6.04e-05
2018-07-13 00:00:00,2018-07-13 00:00:00,PRATE,surface,-105.938,33.5432,3.91e-05
2018-07-13 00:00:00,2018-07-13 00:00:00,PRATE,surface,-105,33.5432,3.86e-05
2018-07-13 00:00:00,2018-07-13 00:00:00,PRATE,surface,-104.063,33.5432,3.9e-05
2018-07-13 00:00:00,2018-07-13 00:00:00,PRATE,surface,-103.125,33.5432,4.55e-05
2018-07-13 00:00:00,2018-07-13 00:00:00,PRATE,surface,-102.188,33.5432,6.88e-05
2018-07-13 00:00:00,2018-07-13 00:00:00,PRATE,surface,-101.25,33.5432,9.14e-05
2018-07-13 00:00:00,2018-07-13 00:00:00,PRATE,surface,-100.313,33.5432,8.28e-05
2018-07-13 00:00:00,2018-07-13 00:00:00,PRATE,surface,-99.3754,33.5432,7.93e-05
2018-07-13 00:00:00,2018-07-13 00:00:00,PRATE,surface,-98.4379,33.5432,9.03e-05
2018-07-13 00:00:00,2018-07-13 00:00:00,PRATE,surface,-97.5004,33.5432,9.54e-05
2018-07-13 00:00:00,2018-07-13 00:00:00,PRATE,surface,-96.5629,33.5432,8.51e-05
2018-07-13 00:00:00,2018-07-13 00:00:00,PRATE,surface,-95.6254,33.5432,7.32e-05
2018-07-13 00:00:00,2018-07-13 00:00:00,PRATE,surface,-94.6879,33.5432,7.13e-05
2018-07-13 00:00:00,2018-07-13 00:00:00,PRATE,surface,-93.7504,33.5432,6.9e-05
2018-07-13 00:00:00,2018-07-13 00:00:00,PRATE,surface,-92.8129,33.5432,6.04e-05
2018-07-13 00:00:00,2018-07-13 00:00:00,PRATE,surface,-107.813,34.4881,7.53e-05
2018-07-13 00:00:00,2018-07-13 00:00:00,PRATE,surface,-106.875,34.4881,5.57e-05
2018-07-13 00:00:00,2018-07-13 00:00:00,PRATE,surface,-105.938,34.4881,4.39e-05
2018-07-13 00:00:00,2018-07-13 00:00:00,PRATE,surface,-105,34.4881,4.08e-05
2018-07-13 00:00:00,2018-07-13 00:00:00,PRATE,surface,-104.063,34.4881,4.47e-05
2018-07-13 00:00:00,2018-07-13 00:00:00,PRATE,surface,-103.125,34.4881,5.51e-05
2018-07-13 00:00:00,2018-07-13 00:00:00,PRATE,surface,-102.188,34.4881,7.78e-05
2018-07-13 00:00:00,2018-07-13 00:00:00,PRATE,surface,-101.25,34.4881,0.0001012
2018-07-13 00:00:00,2018-07-13 00:00:00,PRATE,surface,-100.313,34.4881,9.95e-05
2018-07-13 00:00:00,2018-07-13 00:00:00,PRATE,surface,-99.3754,34.4881,9.3e-05
2018-07-13 00:00:00,2018-07-13 00:00:00,PRATE,surface,-98.4379,34.4881,9.41e-05
2018-07-13 00:00:00,2018-07-13 00:00:00,PRATE,surface,-97.5004,34.4881,8.99e-05
2018-07-13 00:00:00,2018-07-13 00:00:00,PRATE,surface,-96.5629,34.4881,7.66e-05
2018-07-13 00:00:00,2018-07-13 00:00:00,PRATE,surface,-95.6254,34.4881,6.64e-05
2018-07-13 00:00:00,2018-07-13 00:00:00,PRATE,surface,-94.6879,34.4881,6.61e-05
2018-07-13 00:00:00,2018-07-13 00:00:00,PRATE,surface,-93.7504,34.4881,6.84e-05
2018-07-13 00:00:00,2018-07-13 00:00:00,PRATE,surface,-92.8129,34.4881,5.8e-05
2018-07-13 00:00:00,2018-07-13 00:00:00,PRATE,surface,-107.813,35.4329,4.85e-05
2018-07-13 00:00:00,2018-07-13 00:00:00,PRATE,surface,-106.875,35.4329,4.85e-05
2018-07-13 00:00:00,2018-07-13 00:00:00,PRATE,surface,-105.938,35.4329,5.6e-05
2018-07-13 00:00:00,2018-07-13 00:00:00,PRATE,surface,-105,35.4329,6.26e-05
2018-07-13 00:00:00,2018-07-13 00:00:00,PRATE,surface,-104.063,35.4329,6.86e-05
2018-07-13 00:00:00,2018-07-13 00:00:00,PRATE,surface,-103.125,35.4329,6.4e-05
2018-07-13 00:00:00,2018-07-13 00:00:00,PRATE,surface,-102.188,35.4329,7.32e-05
2018-07-13 00:00:00,2018-07-13 00:00:00,PRATE,surface,-101.25,35.4329,9e-05
2018-07-13 00:00:00,2018-07-13 00:00:00,PRATE,surface,-100.313,35.4329,9.76e-05
2018-07-13 00:00:00,2018-07-13 00:00:00,PRATE,surface,-99.3754,35.4329,9.64e-05
2018-07-13 00:00:00,2018-07-13 00:00:00,PRATE,surface,-98.4379,35.4329,9.15e-05
2018-07-13 00:00:00,2018-07-13 00:00:00,PRATE,surface,-97.5004,35.4329,7.94e-05
2018-07-13 00:00:00,2018-07-13 00:00:00,PRATE,surface,-96.5629,35.4329,6.21e-05
2018-07-13 00:00:00,2018-07-13 00:00:00,PRATE,surface,-95.6254,35.4329,5.31e-05
2018-07-13 00:00:00,2018-07-13 00:00:00,PRATE,surface,-94.6879,35.4329,5.7e-05
2018-07-13 00:00:00,2018-07-13 00:00:00,PRATE,surface,-93.7504,35.4329,6.03e-05
2018-07-13 00:00:00,2018-07-13 00:00:00,PRATE,surface,-92.8129,35.4329,5.25e-05
2018-07-13 00:00:00,2018-07-13 00:00:00,PRATE,surface,-107.813,36.3778,4.82e-05
2018-07-13 00:00:00,2018-07-13 00:00:00,PRATE,surface,-106.875,36.3778,6.4e-05
2018-07-13 00:00:00,2018-07-13 00:00:00,PRATE,surface,-105.938,36.3778,7.86e-05
2018-07-13 00:00:00,2018-07-13 00:00:00,PRATE,surface,-105,36.3778,9.26e-05
2018-07-13 00:00:00,2018-07-13 00:00:00,PRATE,surface,-104.063,36.3778,8.74e-05
2018-07-13 00:00:00,2018-07-13 00:00:00,PRATE,surface,-103.125,36.3778,7.8e-05
2018-07-13 00:00:00,2018-07-13 00:00:00,PRATE,surface,-102.188,36.3778,7.36e-05
2018-07-13 00:00:00,2018-07-13 00:00:00,PRATE,surface,-101.25,36.3778,7.73e-05
2018-07-13 00:00:00,2018-07-13 00:00:00,PRATE,surface,-100.313,36.3778,8.47e-05
2018-07-13 00:00:00,2018-07-13 00:00:00,PRATE,surface,-99.3754,36.3778,8.92e-05
2018-07-13 00:00:00,2018-07-13 00:00:00,PRATE,surface,-98.4379,36.3778,8.56e-05
2018-07-13 00:00:00,2018-07-13 00:00:00,PRATE,surface,-97.5004,36.3778,7.18e-05
2018-07-13 00:00:00,2018-07-13 00:00:00,PRATE,surface,-96.5629,36.3778,5.45e-05
2018-07-13 00:00:00,2018-07-13 00:00:00,PRATE,surface,-95.6254,36.3778,4.45e-05
2018-07-13 00:00:00,2018-07-13 00:00:00,PRATE,surface,-94.6879,36.3778,4.58e-05
2018-07-13 00:00:00,2018-07-13 00:00:00,PRATE,surface,-93.7504,36.3778,5.1e-05
2018-07-13 00:00:00,2018-07-13 00:00:00,PRATE,surface,-92.8129,36.3778,5e-05
