2017-02-07 00:00:00,2017-02-07 00:00:00,TMP,surface,-107.813,25.0393,301.496
2017-02-07 00:00:00,2017-02-07 00:00:00,TMP,surface,-106.875,25.0393,295.255
2017-02-07 00:00:00,2017-02-07 00:00:00,TMP,surface,-105.938,25.0393,290.714
2017-02-07 00:00:00,2017-02-07 00:00:00,TMP,surface,-105,25.0393,288.816
2017-02-07 00:00:00,2017-02-07 00:00:00,TMP,surface,-104.063,25.0393,292.298
2017-02-07 00:00:00,2017-02-07 00:00:00,TMP,surface,-103.125,25.0393,295.77
2017-02-07 00:00:00,2017-02-07 00:00:00,TMP,surface,-102.188,25.0393,295.616
2017-02-07 00:00:00,2017-02-07 00:00:00,TMP,surface,-101.25,25.0393,293.117
2017-02-07 00:00:00,2017-02-07 00:00:00,TMP,surface,-100.313,25.0393,293.241
2017-02-07 00:00:00,2017-02-07 00:00:00,TMP,surface,-99.3754,25.0393,296.689
2017-02-07 00:00:00,2017-02-07 00:00:00,TMP,surface,-98.4379,25.0393,300.245
2017-02-07 00:00:00,2017-02-07 00:00:00,TMP,surface,-97.5004,25.0393,302.381
2017-02-07 00:00:00,2017-02-07 00:00:00,TMP,surface,-96.5629,25.0393,302.738
2017-02-07 00:00:00,2017-02-07 00:00:00,TMP,surface,-95.6254,25.0393,303.002
2017-02-07 00:00:00,2017-02-07 00:00:00,TMP,surface,-94.6879,25.0393,303.165
2017-02-07 00:00:00,2017-02-07 00:00:00,TMP,surface,-93.7504,25.0393,303.1
2017-02-07 00:00:00,2017-02-07 00:00:00,TMP,surface,-92.8129,25.0393,302.935
2017-02-07 00:00:00,2017-02-07 00:00:00,TMP,surface,-107.813,25.9842,297.201
2017-02-07 00:00:00,2017-02-07 00:00:00,TMP,surface,-106.875,25.9842,291.872
2017-02-07 00:00:00,2017-02-07 00:00:00,TMP,surface,-105.938,25.9842,289.689
2017-02-07 00:00:00,2017-02-07 00:00:00,TMP,surface,-105,25.9842,291.037
2017-02-07 00:00:00,2017-02-07 00:00:00,TMP,surface,-104.063,25.9842,296.145
2017-02-07 00:00:00,2017-02-07 00:00:00,TMP,surface,-103.125,25.9842,298.432
2017-02-07 00:00:00,2017-02-07 00:00:00,TMP,surface,-102.188,25.9842,297.596
2017-02-07 00:00:00,2017-02-07 00:00:00,TMP,surface,-101.25,25.9842,296.194
2017-02-07 00:00:00,2017-02-07 00:00:00,TMP,surface,-100.313,25.9842,296.933
2017-02-07 00:00:00,2017-02-07 00:00:00,TMP,surface,-99.3754,25.9842,300.037
2017-02-07 00:00:00,2017-02-07 00:00:00,TMP,surface,-98.4379,25.9842,301.641
2017-02-07 00:00:00,2017-02-07 00:00:00,TMP,surface,-97.5004,25.9842,301.121
2017-02-07 00:00:00,2017-02-07 00:00:00,TMP,surface,-96.5629,25.9842,302.132
2017-02-07 00:00:00,2017-02-07 00:00:00,TMP,surface,-95.6254,25.9842,302.724
2017-02-07 00:00:00,2017-02-07 00:00:00,TMP,surface,-94.6879,25.9842,302.913
2017-02-07 00:00:00,2017-02-07 00:00:00,TMP,surface,-93.7504,25.9842,302.994
2017-02-07 00:00:00,2017-02-07 00:00:00,TMP,surface,-92.8129,25.9842,303.029
2017-02-07 00:00:00,2017-02-07 00:00:00,TMP,surface,-107.813,26.929,292.791
2017-02-07 00:00:00,2017-02-07 00:00:00,TMP,surface,-106.875,26.929,290.026
2017-02-07 00:00:00,2017-02-07 00:00:00,TMP,surface,-105.938,26.929,291.229
2017-02-07 00:00:00,2017-02-07 00:00:00,TMP,surface,-105,26.929,294.309
2017-02-07 00:00:00,2017-02-07 00:00:00,TMP,surface,-104.063,26.929,297.336
2017-02-07 00:00:00,2017-02-07 00:00:00,TMP,surface,-103.125,26.929,297.186
2017-02-07 00:00:00,2017-02-07 00:00:00,TMP,surface,-102.188,26.929,296.728
2017-02-07 00:00:00,2017-02-07 00:00:00,TMP,surface,-101.25,26.929,297.633
2017-02-07 00:00:00,2017-02-07 00:00:00,TMP,surface,-100.313,26.929,300.098
2017-02-07 00:00:00,2017-02-07 00:00:00,TMP,surface,-99.3754,26.929,301.767
2017-02-07 00:00:00,2017-02-07 00:00:00,TMP,surface,-98.4379,26.929,301.135
2017-02-07 00:00:00,2017-02-07 00:00:00,TMP,surface,-97.5004,26.929,299.97
2017-02-07 00:00:00,2017-02-07 00:00:00,TMP,surface,-96.5629,26.929,300.933
2017-02-07 00:00:00,2017-02-07 00:00:00,TMP,surface,-95.6254,26.929,301.996
2017-02-07 00:00:00,2017-02-07 00:00:00,TMP,surface,-94.6879,26.929,302.495
2017-02-07 00:00:00,2017-02-07 00:00:00,TMP,surface,-93.7504,26.929,302.586
2017-02-07 00:00:00,2017-02-07 00:00:00,TMP,surface,-92.8129,26.929,302.65
2017-02-07 00:00:00,2017-02-07 00:00:00,TMP,surface,-107.813,27.8739,290.775
2017-02-07 00:00:00,2017-02-07 00:00:00,TMP,surface,-106.875,27.8739,290.081
2017-02-07 00:00:00,2017-02-07 00:00:00,TMP,surface,-105.938,27.8739,292.682
2017-02-07 00:00:00,2017-02-07 00:00:00,TMP,surface,-105,27.8739,295.932
2017-02-07 00:00:00,2017-02-07 00:00:00,TMP,surface,-104.063,27.8739,296.836
2017-02-07 00:00:00,2017-02-07 00:00:00,TMP,surface,-103.125,27.8739,295.525
2017-02-07 00:00:00,2017-02-07 00:00:00,TMP,surface,-102.188,27.8739,295.442
2017-02-07 00:00:00,2017-02-07 00:00:00,TMP,surface,-101.25,27.8739,297.865
2017-02-07 00:00:00,2017-02-07 00:00:00,TMP,surface,-100.313,27.8739,300.412
2017-02-07 00:00:00,2017-02-07 00:00:00,TMP,surface,-99.3754,27.8739,300.948
2017-02-07 00:00:00,2017-02-07 00:00:00,TMP,surface,-98.4379,27.8739,300.197
2017-02-07 00:00:00,2017-02-07 00:00:00,TMP,surface,-97.5004,27.8739,300.437
2017-02-07 00:00:00,2017-02-07 00:00:00,TMP,surface,-96.5629,27.8739,301.308
2017-02-07 00:00:00,2017-02-07 00:00:00,TMP,surface,-95.6254,27.8739,301.711
2017-02-07 00:00:00,2017-02-07 00:00:00,TMP,surface,-94.6879,27.8739,302.103
2017-02-07 00:00:00,2017-02-07 00:00:00,TMP,surface,-93.7504,27.8739,302.305
2017-02-07 00:00:00,2017-02-07 00:00:00,TMP,surface,-92.8129,27.8739,302.381
2017-02-07 00:00:00,2017-02-07 00:00:00,TMP,surface,-107.813,28.8188,289.703
2017-02-07 00:00:00,2017-02-07 00:00:00,TMP,surface,-106.875,28.8188,290.492
2017-02-07 00:00:00,2017-02-07 00:00:00,TMP,surface,-105.938,28.8188,294.103
2017-02-07 00:00:00,2017-02-07 00:00:00,TMP,surface,-105,28.8188,296.402
2017-02-07 00:00:00,2017-02-07 00:00:00,TMP,surface,-104.063,28.8188,295.585
2017-02-07 00:00:00,2017-02-07 00:00:00,TMP,surface,-103.125,28.8188,294.549
2017-02-07 00:00:00,2017-02-07 00:00:00,TMP,surface,-102.188,28.8188,295.297
2017-02-07 00:00:00,2017-02-07 00:00:00,TMP,surface,-101.25,28.8188,297.529
2017-02-07 00:00:00,2017-02-07 00:00:00,TMP,surface,-100.313,28.8188,298.789
2017-02-07 00:00:00,2017-02-07 00:00:00,TMP,surface,-99.3754,28.8188,298.592
2017-02-07 00:00:00,2017-02-07 00:00:00,TMP,surface,-98.4379,28.8188,298.156
2017-02-07 00:00:00,2017-02-07 00:00:00,TMP,surface,-97.5004,28.8188,298.351
2017-02-07 00:00:00,2017-02-07 00:00:00,TMP,surface,-96.5629,28.8188,298.957
2017-02-07 00:00:00,2017-02-07 00:00:00,TMP,surface,-95.6254,28.8188,300.074
2017-02-07 00:00:00,2017-02-07 00:00:00,TMP,surface,-94.6879,28.8188,301.42
2017-02-07 00:00:00,2017-02-07 00:00:00,TMP,surface,-93.7504,28.8188,301.697
2017-02-07 00:00:00,2017-02-07 00:00:00,TMP,surface,-92.8129,28.8188,301.935
2017-02-07 00:00:00,2017-02-07 00:00:00,TMP,surface,-107.813,29.7637,291.293
2017-02-07 00:00:00,2017-02-07 00:00:00,TMP,surface,-106.875,29.7637,292.578
2017-02-07 00:00:00,2017-02-07 00:00:00,TMP,surface,-105.938,29.7637,295.266
2017-02-07 00:00:00,2017-02-07 00:00:00,TMP,surface,-105,29.7637,295.652
2017-02-07 00:00:00,2017-02-07 00:00:00,TMP,surface,-104.063,29.7637,295.226
2017-02-07 00:00:00,2017-02-07 00:00:00,TMP,surface,-103.125,29.7637,295.697
2017-02-07 00:00:00,2017-02-07 00:00:00,TMP,surface,-102.188,29.7637,296.871
2017-02-07 00:00:00,2017-02-07 00:00:00,TMP,surface,-101.25,29.7637,297.479
2017-02-07 00:00:00,2017-02-07 00:00:00,TMP,surface,-100.313,29.7637,296.946
2017-02-07 00:00:00,2017-02-07 00:00:00,TMP,surface,-99.3754,29.7637,296.117
2017-02-07 00:00:00,2017-02-07 00:00:00,TMP,surface,-98.4379,29.7637,296.17
2017-02-07 00:00:00,2017-02-07 00:00:00,TMP,surface,-97.5004,29.7637,296.901
2017-02-07 00:00:00,2017-02-07 00:00:00,TMP,surface,-96.5629,29.7637,297.436
2017-02-07 00:00:00,2017-02-07 00:00:00,TMP,surface,-95.6254,29.7637,297.697
2017-02-07 00:00:00,2017-02-07 00:00:00,TMP,surface,-94.6879,29.7637,298.885
2017-02-07 00:00:00,2017-02-07 00:00:00,TMP,surface,-93.7504,29.7637,300.311
2017-02-07 00:00:00,2017-02-07 00:00:00,TMP,surface,-92.8129,29.7637,298.159
2017-02-07 00:00:00,2017-02-07 00:00:00,TMP,surface,-107.813,30.7085,294.017
2017-02-07 00:00:00,2017-02-07 00:00:00,TMP,surface,-106.875,30.7085,295.421
2017-02-07 00:00:00,2017-02-07 00:00:00,TMP,surface,-105.938,30.7085,295.509
2017-02-07 00:00:00,2017-02-07 00:00:00,TMP,surface,-105,30.7085,294.821
2017-02-07 00:00:00,2017-02-07 00:00:00,TMP,surface,-104.063,30.7085,294.412
2017-02-07 00:00:00,2017-02-07 00:00:00,TMP,surface,-103.125,30.7085,295.824
2017-02-07 00:00:00,2017-02-07 00:00:00,TMP,surface,-102.188,30.7085,297.111
2017-02-07 00:00:00,2017-02-07 00:00:00,TMP,surface,-101.25,30.7085,296.986
2017-02-07 00:00:00,2017-02-07 00:00:00,TMP,surface,-100.313,30.7085,296.061
2017-02-07 00:00:00,2017-02-07 00:00:00,TMP,surface,-99.3754,30.7085,295.569
2017-02-07 00:00:00,2017-02-07 00:00:00,TMP,surface,-98.4379,30.7085,296.033
2017-02-07 00:00:00,2017-02-07 00:00:00,TMP,surface,-97.5004,30.7085,296.86
2017-02-07 00:00:00,2017-02-07 00:00:00,TMP,surface,-96.5629,30.7085,297.396
2017-02-07 00:00:00,2017-02-07 00:00:00,TMP,surface,-95.6254,30.7085,297.445
2017-02-07 00:00:00,2017-02-07 00:00:00,TMP,surface,-94.6879,30.7085,297.183
2017-02-07 00:00:00,2017-02-07 00:00:00,TMP,surface,-93.7504,30.7085,296.909
2017-02-07 00:00:00,2017-02-07 00:00:00,TMP,surface,-92.8129,30.7085,296.312
2017-02-07 00:00:00,2017-02-07 00:00:00,TMP,surface,-107.813,31.6534,295.149
2017-02-07 00:00:00,2017-02-07 00:00:00,TMP,surface,-106.875,31.6534,295.797
2017-02-07 00:00:00,2017-02-07 00:00:00,TMP,surface,-105.938,31.6534,294.78
2017-02-07 00:00:00,2017-02-07 00:00:00,TMP,surface,-105,31.6534,294.185
2017-02-07 00:00:00,2017-02-07 00:00:00,TMP,surface,-104.063,31.6534,294.57
2017-02-07 00:00:00,2017-02-07 00:00:00,TMP,surface,-103.125,31.6534,295.48
2017-02-07 00:00:00,2017-02-07 00:00:00,TMP,surface,-102.188,31.6534,296.082
2017-02-07 00:00:00,2017-02-07 00:00:00,TMP,surface,-101.25,31.6534,295.903
2017-02-07 00:00:00,2017-02-07 00:00:00,TMP,surface,-100.313,31.6534,295.631
2017-02-07 00:00:00,2017-02-07 00:00:00,TMP,surface,-99.3754,31.6534,296.02
2017-02-07 00:00:00,2017-02-07 00:00:00,TMP,surface,-98.4379,31.6534,296.765
2017-02-07 00:00:00,2017-02-07 00:00:00,TMP,surface,-97.5004,31.6534,297.346
2017-02-07 00:00:00,2017-02-07 00:00:00,TMP,surface,-96.5629,31.6534,297.625
2017-02-07 00:00:00,2017-02-07 00:00:00,TMP,surface,-95.6254,31.6534,297.549
2017-02-07 00:00:00,2017-02-07 00:00:00,TMP,surface,-94.6879,31.6534,297.042
2017-02-07 00:00:00,2017-02-07 00:00:00,TMP,surface,-93.7504,31.6534,296.34
2017-02-07 00:00:00,2017-02-07 00:00:00,TMP,surface,-92.8129,31.6534,295.874
2017-02-07 00:00:00,2017-02-07 00:00:00,TMP,surface,-107.813,32.5983,293.009
2017-02-07 00:00:00,2017-02-07 00:00:00,TMP,surface,-106.875,32.5983,293.503
2017-02-07 00:00:00,2017-02-07 00:00:00,TMP,surface,-105.938,32.5983,293.575
2017-02-07 00:00:00,2017-02-07 00:00:00,TMP,surface,-105,32.5983,293.384
2017-02-07 00:00:00,2017-02-07 00:00:00,TMP,surface,-104.063,32.5983,294.41
2017-02-07 00:00:00,2017-02-07 00:00:00,TMP,surface,-103.125,32.5983,295.023
2017-02-07 00:00:00,2017-02-07 00:00:00,TMP,surface,-102.188,32.5983,294.732
2017-02-07 00:00:00,2017-02-07 00:00:00,TMP,surface,-101.25,32.5983,294.679
2017-02-07 00:00:00,2017-02-07 00:00:00,TMP,surface,-100.313,32.5983,295.28
2017-02-07 00:00:00,2017-02-07 00:00:00,TMP,surface,-99.3754,32.5983,296.073
2017-02-07 00:00:00,2017-02-07 00:00:00,TMP,surface,-98.4379,32.5983,296.592
2017-02-07 00:00:00,2017-02-07 00:00:00,TMP,surface,-97.5004,32.5983,296.805
2017-02-07 00:00:00,2017-02-07 00:00:00,TMP,surface,-96.5629,32.5983,297.009
2017-02-07 00:00:00,2017-02-07 00:00:00,TMP,surface,-95.6254,32.5983,297.1
2017-02-07 00:00:00,2017-02-07 00:00:00,TMP,surface,-94.6879,32.5983,296.684
2017-02-07 00:00:00,2017-02-07 00:00:00,TMP,surface,-93.7504,32.5983,296.056
2017-02-07 00:00:00,2017-02-07 00:00:00,TMP,surface,-92.8129,32.5983,295.809
2017-02-07 00:00:00,2017-02-07 00:00:00,TMP,surface,-107.813,33.5432,290.551
2017-02-07 00:00:00,2017-02-07 00:00:00,TMP,surface,-106.875,33.5432,291.738
2017-02-07 00:00:00,2017-02-07 00:00:00,TMP,surface,-105.938,33.5432,292.282
2017-02-07 00:00:00,2017-02-07 00:00:00,TMP,surface,-105,33.5432,292.719
2017-02-07 00:00:00,2017-02-07 00:00:00,TMP,surface,-104.063,33.5432,293.951
2017-02-07 00:00:00,2017-02-07 00:00:00,TMP,surface,-103.125,33.5432,294.108
2017-02-07 00:00:00,2017-02-07 00:00:00,TMP,surface,-102.188,33.5432,293.608
2017-02-07 00:00:00,2017-02-07 00:00:00,TMP,surface,-101.25,33.5432,293.708
2017-02-07 00:00:00,2017-02-07 00:00:00,TMP,surface,-100.313,33.5432,294.424
2017-02-07 00:00:00,2017-02-07 00:00:00,TMP,surface,-99.3754,33.5432,295.289
2017-02-07 00:00:00,2017-02-07 00:00:00,TMP,surface,-98.4379,33.5432,295.493
2017-02-07 00:00:00,2017-02-07 00:00:00,TMP,surface,-97.5004,33.5432,295.197
2017-02-07 00:00:00,2017-02-07 00:00:00,TMP,surface,-96.5629,33.5432,295.13
2017-02-07 00:00:00,2017-02-07 00:00:00,TMP,surface,-95.6254,33.5432,295.357
2017-02-07 00:00:00,2017-02-07 00:00:00,TMP,surface,-94.6879,33.5432,295.301
2017-02-07 00:00:00,2017-02-07 00:00:00,TMP,surface,-93.7504,33.5432,294.797
2017-02-07 00:00:00,2017-02-07 00:00:00,TMP,surface,-92.8129,33.5432,294.521
2017-02-07 00:00:00,2017-02-07 00:00:00,TMP,surface,-107.813,34.4881,289.913
2017-02-07 00:00:00,2017-02-07 00:00:00,TMP,surface,-106.875,34.4881,291.306
2017-02-07 00:00:00,2017-02-07 00:00:00,TMP,surface,-105.938,34.4881,291.569
2017-02-07 00:00:00,2017-02-07 00:00:00,TMP,surface,-105,34.4881,292.208
2017-02-07 00:00:00,2017-02-07 00:00:00,TMP,surface,-104.063,34.4881,292.93
2017-02-07 00:00:00,2017-02-07 00:00:00,TMP,surface,-103.125,34.4881,293.394
2017-02-07 00:00:00,2017-02-07 00:00:00,TMP,surface,-102.188,34.4881,293.196
2017-02-07 00:00:00,2017-02-07 00:00:00,TMP,surface,-101.25,34.4881,293.056
2017-02-07 00:00:00,2017-02-07 00:00:00,TMP,surface,-100.313,34.4881,293.431
2017-02-07 00:00:00,2017-02-07 00:00:00,TMP,surface,-99.3754,34.4881,293.7
2017-02-07 00:00:00,2017-02-07 00:00:00,TMP,surface,-98.4379,34.4881,293.641
2017-02-07 00:00:00,2017-02-07 00:00:00,TMP,surface,-97.5004,34.4881,293.429
2017-02-07 00:00:00,2017-02-07 00:00:00,TMP,surface,-96.5629,34.4881,293.488
2017-02-07 00:00:00,2017-02-07 00:00:00,TMP,surface,-95.6254,34.4881,293.745
2017-02-07 00:00:00,2017-02-07 00:00:00,TMP,surface,-94.6879,34.4881,293.615
2017-02-07 00:00:00,2017-02-07 00:00:00,TMP,surface,-93.7504,34.4881,293.151
2017-02-07 00:00:00,2017-02-07 00:00:00,TMP,surface,-92.8129,34.4881,292.921
2017-02-07 00:00:00,2017-02-07 00:00:00,TMP,surface,-107.813,35.4329,289.905
2017-02-07 00:00:00,2017-02-07 00:00:00,TMP,surface,-106.875,35.4329,290.14
2017-02-07 00:00:00,2017-02-07 00:00:00,TMP,surface,-105.938,35.4329,290.015
2017-02-07 00:00:00,2017-02-07 00:00:00,TMP,surface,-105,35.4329,290.207
2017-02-07 00:00:00,2017-02-07 00:00:00,TMP,surface,-104.063,35.4329,291.436
2017-02-07 00:00:00,2017-02-07 00:00:00,TMP,surface,-103.125,35.4329,292.25
2017-02-07 00:00:00,2017-02-07 00:00:00,TMP,surface,-102.188,35.4329,292.274
2017-02-07 00:00:00,2017-02-07 00:00:00,TMP,surface,-101.25,35.4329,292.073
2017-02-07 00:00:00,2017-02-07 00:00:00,TMP,surface,-100.313,35.4329,292.052
2017-02-07 00:00:00,2017-02-07 00:00:00,TMP,surface,-99.3754,35.4329,292.201
2017-02-07 00:00:00,2017-02-07 00:00:00,TMP,surface,-98.4379,35.4329,292.199
2017-02-07 00:00:00,2017-02-07 00:00:00,TMP,surface,-97.5004,35.4329,292.17
2017-02-07 00:00:00,2017-02-07 00:00:00,TMP,surface,-96.5629,35.4329,292.295
2017-02-07 00:00:00,2017-02-07 00:00:00,TMP,surface,-95.6254,35.4329,292.442
2017-02-07 00:00:00,2017-02-07 00:00:00,TMP,surface,-94.6879,35.4329,292.32
2017-02-07 00:00:00,2017-02-07 00:00:00,TMP,surface,-93.7504,35.4329,291.832
2017-02-07 00:00:00,2017-02-07 00:00:00,TMP,surface,-92.8129,35.4329,291.529
2017-02-07 00:00:00,2017-02-07 00:00:00,TMP,surface,-107.813,36.3778,288.932
2017-02-07 00:00:00,2017-02-07 00:00:00,TMP,surface,-106.875,36.3778,286.828
2017-02-07 00:00:00,2017-02-07 00:00:00,TMP,surface,-105.938,36.3778,287.391
2017-02-07 00:00:00,2017-02-07 00:00:00,TMP,surface,-105,36.3778,287.56
2017-02-07 00:00:00,2017-02-07 00:00:00,TMP,surface,-104.063,36.3778,288.776
2017-02-07 00:00:00,2017-02-07 00:00:00,TMP,surface,-103.125,36.3778,289.813
2017-02-07 00:00:00,2017-02-07 00:00:00,TMP,surface,-102.188,36.3778,290.44
2017-02-07 00:00:00,2017-02-07 00:00:00,TMP,surface,-101.25,36.3778,290.573
2017-02-07 00:00:00,2017-02-07 00:00:00,TMP,surface,-100.313,36.3778,290.812
2017-02-07 00:00:00,2017-02-07 00:00:00,TMP,surface,-99.3754,36.3778,290.962
2017-02-07 00:00:00,2017-02-07 00:00:00,TMP,surface,-98.4379,36.3778,290.956
2017-02-07 00:00:00,2017-02-07 00:00:00,TMP,surface,-97.5004,36.3778,290.981
2017-02-07 00:00:00,2017-02-07 00:00:00,TMP,surface,-96.5629,36.3778,291.114
2017-02-07 00:00:00,2017-02-07 00:00:00,TMP,surface,-95.6254,36.3778,291.253
2017-02-07 00:00:00,2017-02-07 00:00:00,TMP,surface,-94.6879,36.3778,291.138
2017-02-07 00:00:00,2017-02-07 00:00:00,TMP,surface,-93.7504,36.3778,290.674
2017-02-07 00:00:00,2017-02-07 00:00:00,TMP,surface,-92.8129,36.3778,290.436
2017-02-07 00:00:00,2017-02-07 00:00:00,PRATE,surface,-107.813,25.0393,3.11e-05
2017-02-07 00:00:00,2017-02-07 00:00:00,PRATE,surface,-106.875,25.0393,6.31e-05
2017-02-07 00:00:00,2017-02-07 00:00:00,PRATE,surface,-105.938,25.0393,6.31e-05
2017-02-07 00:00:00,2017-02-07 00:00:00,PRATE,surface,-105,25.0393,5.08e-05
2017-02-07 00:00:00,2017-02-07 00:00:00,PRATE,surface,-104.063,25.0393,3.77e-05
2017-02-07 00:00:00,2017-02-07 00:00:00,PRATE,surface,-103.125,25.0393,1.7e-05
2017-02-07 00:00:00,2017-02-07 00:00:00,PRATE,surface,-102.188,25.0393,2.56e-05
2017-02-07 00:00:00,2017-02-07 00:00:00,PRATE,surface,-101.25,25.0393,4.7e-05
2017-02-07 00:00:00,2017-02-07 00:00:00,PRATE,surface,-100.313,25.0393,4.17e-05
2017-02-07 00:00:00,2017-02-07 00:00:00,PRATE,surface,-99.3754,25.0393,1.7e-05
2017-02-07 00:00:00,2017-02-07 00:00:00,PRATE,surface,-98.4379,25.0393,7e-06
2017-02-07 00:00:00,2017-02-07 00:00:00,PRATE,surface,-97.5004,25.0393,2.08e-05
2017-02-07 00:00:00,2017-02-07 00:00:00,PRATE,surface,-96.5629,25.0393,4.58e-05
2017-02-07 00:00:00,2017-02-07 00:00:00,PRATE,surface,-95.6254,25.0393,4.29e-05
2017-02-07 00:00:00,2017-02-07 00:00:00,PRATE,surface,-94.6879,25.0393,3.22e-05
2017-02-07 00:00:00,2017-02-07 00:00:00,PRATE,surface,-93.7504,25.0393,3.97e-05
2017-02-07 00:00:00,2017-02-07 00:00:00,PRATE,surface,-92.8129,25.0393,3.97e-05
2017-02-07 00:00:00,2017-02-07 00:00:00,PRATE,surface,-107.813,25.9842,4.9e-05
2017-02-07 00:00:00,2017-02-07 00:00:00,PRATE,surface,-106.875,25.9842,4.49e-05
2017-02-07 00:00:00,2017-02-07 00:00:00,PRATE,surface,-105.938,25.9842,3.52e-05
2017-02-07 00:00:00,2017-02-07 00:00:00,PRATE,surface,-105,25.9842,4.4e-05
2017-02-07 00:00:00,2017-02-07 00:00:00,PRATE,surface,-104.063,25.9842,1.54e-05
2017-02-07 00:00:00,2017-02-07 00:00:00,PRATE,surface,-103.125,25.9842,1.17e-05
2017-02-07 00:00:00,2017-02-07 00:00:00,PRATE,surface,-102.188,25.9842,1.39e-05
2017-02-07 00:00:00,2017-02-07 00:00:00,PRATE,surface,-101.25,25.9842,2.23e-05
2017-02-07 00:00:00,2017-02-07 00:00:00,PRATE,surface,-100.313,25.9842,2.17e-05
2017-02-07 00:00:00,2017-02-07 00:00:00,PRATE,surface,-99.3754,25.9842,9.4e-06
2017-02-07 00:00:00,2017-02-07 00:00:00,PRATE,surface,-98.4379,25.9842,7.6e-06
2017-02-07 00:00:00,2017-02-07 00:00:00,PRATE,surface,-97.5004,25.9842,2.35e-05
2017-02-07 00:00:00,2017-02-07 00:00:00,PRATE,surface,-96.5629,25.9842,4.27e-05
2017-02-07 00:00:00,2017-02-07 00:00:00,PRATE,surface,-95.6254,25.9842,6.77e-05
2017-02-07 00:00:00,2017-02-07 00:00:00,PRATE,surface,-94.6879,25.9842,4.07e-05
2017-02-07 00:00:00,2017-02-07 00:00:00,PRATE,surface,-93.7504,25.9842,2.75e-05
2017-02-07 00:00:00,2017-02-07 00:00:00,PRATE,surface,-92.8129,25.9842,3.61e-05
2017-02-07 00:00:00,2017-02-07 00:00:00,PRATE,surface,-107.813,26.929,5.67e-05
2017-02-07 00:00:00,2017-02-07 00:00:00,PRATE,surface,-106.875,26.929,2.98e-05
2017-02-07 00:00:00,2017-02-07 00:00:00,PRATE,surface,-105.938,26.929,2.51e-05
2017-02-07 00:00:00,2017-02-07 00:00:00,PRATE,surface,-105,26.929,4.31e-05
2017-02-07 00:00:00,2017-02-07 00:00:00,PRATE,surface,-104.063,26.929,2.01e-05
2017-02-07 00:00:00,2017-02-07 00:00:00,PRATE,surface,-103.125,26.929,1.18e-05
2017-02-07 00:00:00,2017-02-07 00:00:00,PRATE,surface,-102.188,26.929,1.04e-05
2017-02-07 00:00:00,2017-02-07 00:00:00,PRATE,surface,-101.25,26.929,1.26e-05
2017-02-07 00:00:00,2017-02-07 00:00:00,PRATE,surface,-100.313,26.929,7e-06
2017-02-07 00:00:00,2017-02-07 00:00:00,PRATE,surface,-99.3754,26.929,6.3e-06
2017-02-07 00:00:00,2017-02-07 00:00:00,PRATE,surface,-98.4379,26.929,1.22e-05
2017-02-07 00:00:00,2017-02-07 00:00:00,PRATE,surface,-97.5004,26.929,1.48e-05
2017-02-07 00:00:00,2017-02-07 00:00:00,PRATE,surface,-96.5629,26.929,1.89e-05
2017-02-07 00:00:00,2017-02-07 00:00:00,PRATE,surface,-95.6254,26.929,2.59e-05
2017-02-07 00:00:00,2017-02-07 00:00:00,PRATE,surface,-94.6879,26.929,2.94e-05
2017-02-07 00:00:00,2017-02-07 00:00:00,PRATE,surface,-93.7504,26.929,3.67e-05
2017-02-07 00:00:00,2017-02-07 00:00:00,PRATE,surface,-92.8129,26.929,3.74e-05
2017-02-07 00:00:00,2017-02-07 00:00:00,PRATE,surface,-107.813,27.8739,5.64e-05
2017-02-07 00:00:00,2017-02-07 00:00:00,PRATE,surface,-106.875,27.8739,3.7e-05
2017-02-07 00:00:00,2017-02-07 00:00:00,PRATE,surface,-105.938,27.8739,3.25e-05
2017-02-07 00:00:00,2017-02-07 00:00:00,PRATE,surface,-105,27.8739,3.12e-05
2017-02-07 00:00:00,2017-02-07 00:00:00,PRATE,surface,-104.063,27.8739,2.86e-05
2017-02-07 00:00:00,2017-02-07 00:00:00,PRATE,surface,-103.125,27.8739,2.47e-05
2017-02-07 00:00:00,2017-02-07 00:00:00,PRATE,surface,-102.188,27.8739,1.69e-05
2017-02-07 00:00:00,2017-02-07 00:00:00,PRATE,surface,-101.25,27.8739,1.06e-05
2017-02-07 00:00:00,2017-02-07 00:00:00,PRATE,surface,-100.313,27.8739,6.7e-06
2017-02-07 00:00:00,2017-02-07 00:00:00,PRATE,surface,-99.3754,27.8739,9.7e-06
2017-02-07 00:00:00,2017-02-07 00:00:00,PRATE,surface,-98.4379,27.8739,1.63e-05
2017-02-07 00:00:00,2017-02-07 00:00:00,PRATE,surface,-97.5004,27.8739,1.46e-05
2017-02-07 00:00:00,2017-02-07 00:00:00,PRATE,surface,-96.5629,27.8739,7.4e-06
2017-02-07 00:00:00,2017-02-07 00:00:00,PRATE,surface,-95.6254,27.8739,8.5e-06
2017-02-07 00:00:00,2017-02-07 00:00:00,PRATE,surface,-94.6879,27.8739,2.39e-05
2017-02-07 00:00:00,2017-02-07 00:00:00,PRATE,surface,-93.7504,27.8739,4.27e-05
2017-02-07 00:00:00,2017-02-07 00:00:00,PRATE,surface,-92.8129,27.8739,3.98e-05
2017-02-07 00:00:00,2017-02-07 00:00:00,PRATE,surface,-107.813,28.8188,6.7e-05
2017-02-07 00:00:00,2017-02-07 00:00:00,PRATE,surface,-106.875,28.8188,5.16e-05
2017-02-07 00:00:00,2017-02-07 00:00:00,PRATE,surface,-105.938,28.8188,3.84e-05
2017-02-07 00:00:00,2017-02-07 00:00:00,PRATE,surface,-105,28.8188,3.38e-05
2017-02-07 00:00:00,2017-02-07 00:00:00,PRATE,surface,-104.063,28.8188,3.75e-05
2017-02-07 00:00:00,2017-02-07 00:00:00,PRATE,surface,-103.125,28.8188,3.72e-05
2017-02-07 00:00:00,2017-02-07 00:00:00,PRATE,surface,-102.188,28.8188,1.71e-05
2017-02-07 00:00:00,2017-02-07 00:00:00,PRATE,surface,-101.25,28.8188,1.2e-05
2017-02-07 00:00:00,2017-02-07 00:00:00,PRATE,surface,-100.313,28.8188,8.8e-06
2017-02-07 00:00:00,2017-02-07 00:00:00,PRATE,surface,-99.3754,28.8188,1e-05
2017-02-07 00:00:00,2017-02-07 00:00:00,PRATE,surface,-98.4379,28.8188,1.54e-05
2017-02-07 00:00:00,2017-02-07 00:00:00,PRATE,surface,-97.5004,28.8188,1.86e-05
2017-02-07 00:00:00,2017-02-07 00:00:00,PRATE,surface,-96.5629,28.8188,1.94e-05
2017-02-07 00:00:00,2017-02-07 00:00:00,PRATE,surface,-95.6254,28.8188,2.03e-05
2017-02-07 00:00:00,2017-02-07 00:00:00,PRATE,surface,-94.6879,28.8188,2.5e-05
2017-02-07 00:00:00,2017-02-07 00:00:00,PRATE,surface,-93.7504,28.8188,3.43e-05
2017-02-07 00:00:00,2017-02-07 00:00:00,PRATE,surface,-92.8129,28.8188,2.97e-05
2017-02-07 00:00:00,2017-02-07 00:00:00,PRATE,surface,-107.813,29.7637,5.25e-05
2017-02-07 00:00:00,2017-02-07 00:00:00,PRATE,surface,-106.875,29.7637,5.32e-05
2017-02-07 00:00:00,2017-02-07 00:00:00,PRATE,surface,-105.938,29.7637,4.61e-05
2017-02-07 00:00:00,2017-02-07 00:00:00,PRATE,surface,-105,29.7637,4.85e-05
2017-02-07 00:00:00,2017-02-07 00:00:00,PRATE,surface,-104.063,29.7637,5.7e-05
2017-02-07 00:00:00,2017-02-07 00:00:00,PRATE,surface,-103.125,29.7637,2.84e-05
2017-02-07 00:00:00,2017-02-07 00:00:00,PRATE,surface,-102.188,29.7637,1.25e-05
2017-02-07 00:00:00,2017-02-07 00:00:00,PRATE,surface,-101.25,29.7637,9.5e-06
2017-02-07 00:00:00,2017-02-07 00:00:00,PRATE,surface,-100.313,29.7637,1.23e-05
2017-02-07 00:00:00,2017-02-07 00:00:00,PRATE,surface,-99.3754,29.7637,2.16e-05
2017-02-07 00:00:00,2017-02-07 00:00:00,PRATE,surface,-98.4379,29.7637,2.14e-05
2017-02-07 00:00:00,2017-02-07 00:00:00,PRATE,surface,-97.5004,29.7637,1.34e-05
2017-02-07 00:00:00,2017-02-07 00:00:00,PRATE,surface,-96.5629,29.7637,1.08e-05
2017-02-07 00:00:00,2017-02-07 00:00:00,PRATE,surface,-95.6254,29.7637,1.64e-05
2017-02-07 00:00:00,2017-02-07 00:00:00,PRATE,surface,-94.6879,29.7637,2.18e-05
2017-02-07 00:00:00,2017-02-07 00:00:00,PRATE,surface,-93.7504,29.7637,2.2e-05
2017-02-07 00:00:00,2017-02-07 00:00:00,PRATE,surface,-92.8129,29.7637,2.94e-05
2017-02-07 00:00:00,2017-02-07 00:00:00,PRATE,surface,-107.813,30.7085,3.62e-05
2017-02-07 00:00:00,2017-02-07 00:00:00,PRATE,surface,-106.875,30.7085,3.16e-05
2017-02-07 00:00:00,2017-02-07 00:00:00,PRATE,surface,-105.938,30.7085,3.93e-05
2017-02-07 00:00:00,2017-02-07 00:00:00,PRATE,surface,-105,30.7085,7.81e-05
2017-02-07 00:00:00,2017-02-07 00:00:00,PRATE,surface,-104.063,30.7085,9.48e-05
2017-02-07 00:00:00,2017-02-07 00:00:00,PRATE,surface,-103.125,30.7085,5.71e-05
2017-02-07 00:00:00,2017-02-07 00:00:00,PRATE,surface,-102.188,30.7085,2.13e-05
2017-02-07 00:00:00,2017-02-07 00:00:00,PRATE,surface,-101.25,30.7085,9.3e-06
2017-02-07 00:00:00,2017-02-07 00:00:00,PRATE,surface,-100.313,30.7085,1.29e-05
2017-02-07 00:00:00,2017-02-07 00:00:00,PRATE,surface,-99.3754,30.7085,1.8e-05
2017-02-07 00:00:00,2017-02-07 00:00:00,PRATE,surface,-98.4379,30.7085,1.34e-05
2017-02-07 00:00:00,2017-02-07 00:00:00,PRATE,surface,-97.5004,30.7085,9.1e-06
2017-02-07 00:00:00,2017-02-07 00:00:00,PRATE,surface,-96.5629,30.7085,1.17e-05
2017-02-07 00:00:00,2017-02-07 00:00:00,PRATE,surface,-95.6254,30.7085,1.53e-05
2017-02-07 00:00:00,2017-02-07 00:00:00,PRATE,surface,-94.6879,30.7085,1.53e-05
2017-02-07 00:00:00,2017-02-07 00:00:00,PRATE,surface,-93.7504,30.7085,1.5e-05
2017-02-07 00:00:00,2017-02-07 00:00:00,PRATE,surface,-92.8129,30.7085,2.47e-05
2017-02-07 00:00:00,2017-02-07 00:00:00,PRATE,surface,-107.813,31.6534,2.37e-05
2017-02-07 00:00:00,2017-02-07 00:00:00,PRATE,surface,-106.875,31.6534,2.26e-05
2017-02-07 00:00:00,2017-02-07 00:00:00,PRATE,surface,-105.938,31.6534,4.17e-05
2017-02-07 00:00:00,2017-02-07 00:00:00,PRATE,surface,-105,31.6534,8.21e-05
2017-02-07 00:00:00,2017-02-07 00:00:00,PRATE,surface,-104.063,31.6534,0.0001279
2017-02-07 00:00:00,2017-02-07 00:00:00,PRATE,surface,-103.125,31.6534,0.0001234
2017-02-07 00:00:00,2017-02-07 00:00:00,PRATE,surface,-102.188,31.6534,8.12e-05
2017-02-07 00:00:00,2017-02-07 00:00:00,PRATE,surface,-101.25,31.6534,4.46e-05
2017-02-07 00:00:00,2017-02-07 00:00:00,PRATE,surface,-100.313,31.6534,3.03e-05
2017-02-07 00:00:00,2017-02-07 00:00:00,PRATE,surface,-99.3754,31.6534,2e-05
2017-02-07 00:00:00,2017-02-07 00:00:00,PRATE,surface,-98.4379,31.6534,1.29e-05
2017-02-07 00:00:00,2017-02-07 00:00:00,PRATE,surface,-97.5004,31.6534,1.18e-05
2017-02-07 00:00:00,2017-02-07 00:00:00,PRATE,surface,-96.5629,31.6534,1.19e-05
2017-02-07 00:00:00,2017-02-07 00:00:00,PRATE,surface,-95.6254,31.6534,1.19e-05
2017-02-07 00:00:00,2017-02-07 00:00:00,PRATE,surface,-94.6879,31.6534,1.47e-05
2017-02-07 00:00:00,2017-02-07 00:00:00,PRATE,surface,-93.7504,31.6534,1.93e-05
2017-02-07 00:00:00,2017-02-07 00:00:00,PRATE,surface,-92.8129,31.6534,2.13e-05
2017-02-07 00:00:00,2017-02-07 00:00:00,PRATE,surface,-107.813,32.5983,2.39e-05
2017-02-07 00:00:00,2017-02-07 00:00:00,PRATE,surface,-106.875,32.5983,2.04e-05
2017-02-07 00:00:00,2017-02-07 00:00:00,PRATE,surface,-105.938,32.5983,2.56e-05
2017-02-07 00:00:00,2017-02-07 00:00:00,PRATE,surface,-105,32.5983,4.61e-05
2017-02-07 00:00:00,2017-02-07 00:00:00,PRATE,surface,-104.063,32.5983,8.6e-05
2017-02-07 00:00:00,2017-02-07 00:00:00,PRATE,surface,-103.125,32.5983,0.0001074
2017-02-07 00:00:00,2017-02-07 00:00:00,PRATE,surface,-102.188,32.5983,0.0001281
2017-02-07 00:00:00,2017-02-07 00:00:00,PRATE,surface,-101.25,32.5983,0.0001112
2017-02-07 00:00:00,2017-02-07 00:00:00,PRATE,surface,-100.313,32.5983,6.5e-05
2017-02-07 00:00:00,2017-02-07 00:00:00,PRATE,surface,-99.3754,32.5983,3.43e-05
2017-02-07 00:00:00,2017-02-07 00:00:00,PRATE,surface,-98.4379,32.5983,2.14e-05
2017-02-07 00:00:00,2017-02-07 00:00:00,PRATE,surface,-97.5004,32.5983,1.65e-05
2017-02-07 00:00:00,2017-02-07 00:00:00,PRATE,surface,-96.5629,32.5983,1.53e-05
2017-02-07 00:00:00,2017-02-07 00:00:00,PRATE,surface,-95.6254,32.5983,1.49e-05
2017-02-07 00:00:00,2017-02-07 00:00:00,PRATE,surface,-94.6879,32.5983,1.47e-05
2017-02-07 00:00:00,2017-02-07 00:00:00,PRATE,surface,-93.7504,32.5983,1.51e-05
2017-02-07 00:00:00,2017-02-07 00:00:00,PRATE,surface,-92.8129,32.5983,1.69e-05
2017-02-07 00:00:00,2017-02-07 00:00:00,PRATE,surface,-107.813,33.5432,1.64e-05
2017-02-07 00:00:00,2017-02-07 00:00:00,PRATE,surface,-106.875,33.5432,1.87e-05
2017-02-07 00:00:00,2017-02-07 00:00:00,PRATE,surface,-105.938,33.5432,1.74e-05
2017-02-07 00:00:00,2017-02-07 00:00:00,PRATE,surface,-105,33.5432,2.05e-05
2017-02-07 00:00:00,2017-02-07 00:00:00,PRATE,surface,-104.063,33.5432,2.9e-05
2017-02-07 00:00:00,2017-02-07 00:00:00,PRATE,surface,-103.125,33.5432,3.91e-05
2017-02-07 00:00:00,2017-02-07 00:00:00,PRATE,surface,-102.188,33.5432,6.76e-05
2017-02-07 00:00:00,2017-02-07 00:00:00,PRATE,surface,-101.25,33.5432,9.52e-05
2017-02-07 00:00:00,2017-02-07 00:00:00,PRATE,surface,-100.313,33.5432,9.15e-05
2017-02-07 00:00:00,2017-02-07 00:00:00,PRATE,surface,-99.3754,33.5432,6.29e-05
2017-02-07 00:00:00,2017-02-07 00:00:00,PRATE,surface,-98.4379,33.5432,4.89e-05
2017-02-07 00:00:00,2017-02-07 00:00:00,PRATE,surface,-97.5004,33.5432,4.45e-05
2017-02-07 00:00:00,2017-02-07 00:00:00,PRATE,surface,-96.5629,33.5432,3.71e-05
2017-02-07 00:00:00,2017-02-07 00:00:00,PRATE,surface,-95.6254,33.5432,3.08e-05
2017-02-07 00:00:00,2017-02-07 00:00:00,PRATE,surface,-94.6879,33.5432,2.56e-05
2017-02-07 00:00:00,2017-02-07 00:00:00,PRATE,surface,-93.7504,33.5432,2.48e-05
2017-02-07 00:00:00,2017-02-07 00:00:00,PRATE,surface,-92.8129,33.5432,2.41e-05
2017-02-07 00:00:00,2017-02-07 00:00:00,PRATE,surface,-107.813,34.4881,3.7e-06
2017-02-07 00:00:00,2017-02-07 00:00:00,PRATE,surface,-106.875,34.4881,4.7e-06
2017-02-07 00:00:00,2017-02-07 00:00:00,PRATE,surface,-105.938,34.4881,1.08e-05
2017-02-07 00:00:00,2017-02-07 00:00:00,PRATE,surface,-105,34.4881,1.76e-05
2017-02-07 00:00:00,2017-02-07 00:00:00,PRATE,surface,-104.063,34.4881,2.44e-05
2017-02-07 00:00:00,2017-02-07 00:00:00,PRATE,surface,-103.125,34.4881,2.22e-05
2017-02-07 00:00:00,2017-02-07 00:00:00,PRATE,surface,-102.188,34.4881,3.22e-05
2017-02-07 00:00:00,2017-02-07 00:00:00,PRATE,surface,-101.25,34.4881,6.04e-05
2017-02-07 00:00:00,2017-02-07 00:00:00,PRATE,surface,-100.313,34.4881,8.81e-05
2017-02-07 00:00:00,2017-02-07 00:00:00,PRATE,surface,-99.3754,34.4881,9.97e-05
2017-02-07 00:00:00,2017-02-07 00:00:00,PRATE,surface,-98.4379,34.4881,9.99e-05
2017-02-07 00:00:00,2017-02-07 00:00:00,PRATE,surface,-97.5004,34.4881,9.36e-05
2017-02-07 00:00:00,2017-02-07 00:00:00,PRATE,surface,-96.5629,34.4881,8.19e-05
2017-02-07 00:00:00,2017-02-07 00:00:00,PRATE,surface,-95.6254,34.4881,6.46e-05
2017-02-07 00:00:00,2017-02-07 00:00:00,PRATE,surface,-94.6879,34.4881,4.79e-05
2017-02-07 00:00:00,2017-02-07 00:00:00,PRATE,surface,-93.7504,34.4881,4.1e-05
2017-02-07 00:00:00,2017-02-07 00:00:00,PRATE,surface,-92.8129,34.4881,3.27e-05
2017-02-07 00:00:00,2017-02-07 00:00:00,PRATE,surface,-107.813,35.4329,3.8e-06
2017-02-07 00:00:00,2017-02-07 00:00:00,PRATE,surface,-106.875,35.4329,4.8e-06
2017-02-07 00:00:00,2017-02-07 00:00:00,PRATE,surface,-105.938,35.4329,4.9e-06
2017-02-07 00:00:00,2017-02-07 00:00:00,PRATE,surface,-105,35.4329,1.13e-05
2017-02-07 00:00:00,2017-02-07 00:00:00,PRATE,surface,-104.063,35.4329,2.85e-05
2017-02-07 00:00:00,2017-02-07 00:00:00,PRATE,surface,-103.125,35.4329,3.04e-05
2017-02-07 00:00:00,2017-02-07 00:00:00,PRATE,surface,-102.188,35.4329,3.36e-05
2017-02-07 00:00:00,2017-02-07 00:00:00,PRATE,surface,-101.25,35.4329,4.98e-05
2017-02-07 00:00:00,2017-02-07 00:00:00,PRATE,surface,-100.313,35.4329,6.98e-05
2017-02-07 00:00:00,2017-02-07 00:00:00,PRATE,surface,-99.3754,35.4329,9.72e-05
2017-02-07 00:00:00,2017-02-07 00:00:00,PRATE,surface,-98.4379,35.4329,0.0001321
2017-02-07 00:00:00,2017-02-07 00:00:00,PRATE,surface,-97.5004,35.4329,0.0001446
2017-02-07 00:00:00,2017-02-07 00:00:00,PRATE,surface,-96.5629,35.4329,0.0001217
2017-02-07 00:00:00,2017-02-07 00:00:00,PRATE,surface,-95.6254,35.4329,9.2e-05
2017-02-07 00:00:00,2017-02-07 00:00:00,PRATE,surface,-94.6879,35.4329,7.66e-05
2017-02-07 00:00:00,2017-02-07 00:00:00,PRATE,surface,-93.7504,35.4329,6.3e-05
2017-02-07 00:00:00,2017-02-07 00:00:00,PRATE,surface,-92.8129,35.4329,4.78e-05
2017-02-07 00:00:00,2017-02-07 00:00:00,PRATE,surface,-107.813,36.3778,2.9e-06
2017-02-07 00:00:00,2017-02-07 00:00:00,PRATE,surface,-106.875,36.3778,5.7e-06
2017-02-07 00:00:00,2017-02-07 00:00:00,PRATE,surface,-105.938,36.3778,5.2e-06
2017-02-07 00:00:00,2017-02-07 00:00:00,PRATE,surface,-105,36.3778,8.3e-06
2017-02-07 00:00:00,2017-02-07 00:00:00,PRATE,surface,-104.063,36.3778,2.59e-05
2017-02-07 00:00:00,2017-02-07 00:00:00,PRATE,surface,-103.125,36.3778,3.56e-05
2017-02-07 00:00:00,2017-02-07 00:00:00,PRATE,surface,-102.188,36.3778,3.54e-05
2017-02-07 00:00:00,2017-02-07 00:00:00,PRATE,surface,-101.25,36.3778,4.54e-05
2017-02-07 00:00:00,2017-02-07 00:00:00,PRATE,surface,-100.313,36.3778,6.54e-05
2017-02-07 00:00:00,2017-02-07 00:00:00,PRATE,surface,-99.3754,36.3778,8.27e-05
2017-02-07 00:00:00,2017-02-07 00:00:00,PRATE,surface,-98.4379,36.3778,0.000104
2017-02-07 00:00:00,2017-02-07 00:00:00,PRATE,surface,-97.5004,36.3778,0.0001301
2017-02-07 00:00:00,2017-02-07 00:00:00,PRATE,surface,-96.5629,36.3778,0.0001376
2017-02-07 00:00:00,2017-02-07 00:00:00,PRATE,surface,-95.6254,36.3778,0.0001159
2017-02-07 00:00:00,2017-02-07 00:00:00,PRATE,surface,-94.6879,36.3778,8.7e-05
2017-02-07 00:00:00,2017-02-07 00:00:00,PRATE,surface,-93.7504,36.3778,6.77e-05
2017-02-07 00:00:00,2017-02-07 00:00:00,PRATE,surface,-92.8129,36.3778,5.44e-05
