2014-07-17 00:00:00,2014-07-17 00:00:00,TMP,surface,-107.813,25.0393,301.747
2014-07-17 00:00:00,2014-07-17 00:00:00,TMP,surface,-106.875,25.0393,295.64
2014-07-17 00:00:00,2014-07-17 00:00:00,TMP,surface,-105.938,25.0393,290.519
2014-07-17 00:00:00,2014-07-17 00:00:00,TMP,surface,-105,25.0393,288.472
2014-07-17 00:00:00,2014-07-17 00:00:00,TMP,surface,-104.063,25.0393,292.088
2014-07-17 00:00:00,2014-07-17 00:00:00,TMP,surface,-103.125,25.0393,295.682
2014-07-17 00:00:00,2014-07-17 00:00:00,TMP,surface,-102.188,25.0393,294.952
2014-07-17 00:00:00,2014-07-17 00:00:00,TMP,surface,-101.25,25.0393,292.312
2014-07-17 00:00:00,2014-07-17 00:00:00,TMP,surface,-100.313,25.0393,292.837
2014-07-17 00:00:00,2014-07-17 00:00:00,TMP,surface,-99.3754,25.0393,296.555
2014-07-17 00:00:00,2014-07-17 00:00:00,TMP,surface,-98.4379,25.0393,300.165
2014-07-17 00:00:00,2014-07-17 00:00:00,TMP,surface,-97.5004,25.0393,302.181
2014-07-17 00:00:00,2014-07-17 00:00:00,TMP,surface,-96.5629,25.0393,302.523
2014-07-17 00:00:00,2014-07-17 00:00:00,TMP,surface,-95.6254,25.0393,303.011
2014-07-17 00:00:00,2014-07-17 00:00:00,TMP,surface,-94.6879,25.0393,303.282
2014-07-17 00:00:00,2014-07-17 00:00:00,TMP,surface,-93.7504,25.0393,303.379
2014-07-17 00:00:00,2014-07-17 00:00:00,TMP,surface,-92.8129,25.0393,303.634
2014-07-17 00:00:00,2014-07-17 00:00:00,TMP,surface,-107.813,25.9842,296.912
2014-07-17 00:00:00,2014-07-17 00:00:00,TMP,surface,-106.875,25.9842,291.983
2014-07-17 00:00:00,2014-07-17 00:00:00,TMP,surface,-105.938,25.9842,288.957
2014-07-17 00:00:00,2014-07-17 00:00:00,TMP,surface,-105,25.9842,289.906
2014-07-17 00:00:00,2014-07-17 00:00:00,TMP,surface,-104.063,25.9842,295.053
2014-07-17 00:00:00,2014-07-17 00:00:00,TMP,surface,-103.125,25.9842,297.632
2014-07-17 00:00:00,2014-07-17 00:00:00,TMP,surface,-102.188,25.9842,296.842
2014-07-17 00:00:00,2014-07-17 00:00:00,TMP,surface,-101.25,25.9842,295.611
2014-07-17 00:00:00,2014-07-17 00:00:00,TMP,surface,-100.313,25.9842,296.248
2014-07-17 00:00:00,2014-07-17 00:00:00,TMP,surface,-99.3754,25.9842,299.266
2014-07-17 00:00:00,2014-07-17 00:00:00,TMP,surface,-98.4379,25.9842,301.114
2014-07-17 00:00:00,2014-07-17 00:00:00,TMP,surface,-97.5004,25.9842,301.251
2014-07-17 00:00:00,2014-07-17 00:00:00,TMP,surface,-96.5629,25.9842,301.939
2014-07-17 00:00:00,2014-07-17 00:00:00,TMP,surface,-95.6254,25.9842,302.387
2014-07-17 00:00:00,2014-07-17 00:00:00,TMP,surface,-94.6879,25.9842,302.739
2014-07-17 00:00:00,2014-07-17 00:00:00,TMP,surface,-93.7504,25.9842,302.943
2014-07-17 00:00:00,2014-07-17 00:00:00,TMP,surface,-92.8129,25.9842,303.117
2014-07-17 00:00:00,2014-07-17 00:00:00,TMP,surface,-107.813,26.929,292.719
2014-07-17 00:00:00,2014-07-17 00:00:00,TMP,surface,-106.875,26.929,289.36
2014-07-17 00:00:00,2014-07-17 00:00:00,TMP,surface,-105.938,26.929,289.704
2014-07-17 00:00:00,2014-07-17 00:00:00,TMP,surface,-105,26.929,292.875
2014-07-17 00:00:00,2014-07-17 00:00:00,TMP,surface,-104.063,26.929,296.221
2014-07-17 00:00:00,2014-07-17 00:00:00,TMP,surface,-103.125,26.929,296.283
2014-07-17 00:00:00,2014-07-17 00:00:00,TMP,surface,-102.188,26.929,296.149
2014-07-17 00:00:00,2014-07-17 00:00:00,TMP,surface,-101.25,26.929,297.194
2014-07-17 00:00:00,2014-07-17 00:00:00,TMP,surface,-100.313,26.929,299.317
2014-07-17 00:00:00,2014-07-17 00:00:00,TMP,surface,-99.3754,26.929,301.027
2014-07-17 00:00:00,2014-07-17 00:00:00,TMP,surface,-98.4379,26.929,300.592
2014-07-17 00:00:00,2014-07-17 00:00:00,TMP,surface,-97.5004,26.929,301.581
2014-07-17 00:00:00,2014-07-17 00:00:00,TMP,surface,-96.5629,26.929,301.983
2014-07-17 00:00:00,2014-07-17 00:00:00,TMP,surface,-95.6254,26.929,302.371
2014-07-17 00:00:00,2014-07-17 00:00:00,TMP,surface,-94.6879,26.929,302.653
2014-07-17 00:00:00,2014-07-17 00:00:00,TMP,surface,-93.7504,26.929,302.797
2014-07-17 00:00:00,2014-07-17 00:00:00,TMP,surface,-92.8129,26.929,302.855
2014-07-17 00:00:00,2014-07-17 00:00:00,TMP,surface,-107.813,27.8739,290.562
2014-07-17 00:00:00,2014-07-17 00:00:00,TMP,surface,-106.875,27.8739,288.696
2014-07-17 00:00:00,2014-07-17 00:00:00,TMP,surface,-105.938,27.8739,291.226
2014-07-17 00:00:00,2014-07-17 00:00:00,TMP,surface,-105,27.8739,295.096
2014-07-17 00:00:00,2014-07-17 00:00:00,TMP,surface,-104.063,27.8739,296.039
2014-07-17 00:00:00,2014-07-17 00:00:00,TMP,surface,-103.125,27.8739,294.959
2014-07-17 00:00:00,2014-07-17 00:00:00,TMP,surface,-102.188,27.8739,295.088
2014-07-17 00:00:00,2014-07-17 00:00:00,TMP,surface,-101.25,27.8739,297.555
2014-07-17 00:00:00,2014-07-17 00:00:00,TMP,surface,-100.313,27.8739,300.103
2014-07-17 00:00:00,2014-07-17 00:00:00,TMP,surface,-99.3754,27.8739,300.688
2014-07-17 00:00:00,2014-07-17 00:00:00,TMP,surface,-98.4379,27.8739,299.992
2014-07-17 00:00:00,2014-07-17 00:00:00,TMP,surface,-97.5004,27.8739,300.859
2014-07-17 00:00:00,2014-07-17 00:00:00,TMP,surface,-96.5629,27.8739,302.336
2014-07-17 00:00:00,2014-07-17 00:00:00,TMP,surface,-95.6254,27.8739,302.64
2014-07-17 00:00:00,2014-07-17 00:00:00,TMP,surface,-94.6879,27.8739,302.807
2014-07-17 00:00:00,2014-07-17 00:00:00,TMP,surface,-93.7504,27.8739,302.835
2014-07-17 00:00:00,2014-07-17 00:00:00,TMP,surface,-92.8129,27.8739,302.855
2014-07-17 00:00:00,2014-07-17 00:00:00,TMP,surface,-107.813,28.8188,289.263
2014-07-17 00:00:00,2014-07-17 00:00:00,TMP,surface,-106.875,28.8188,289.314
2014-07-17 00:00:00,2014-07-17 00:00:00,TMP,surface,-105.938,28.8188,293.018
2014-07-17 00:00:00,2014-07-17 00:00:00,TMP,surface,-105,28.8188,295.984
2014-07-17 00:00:00,2014-07-17 00:00:00,TMP,surface,-104.063,28.8188,295.019
2014-07-17 00:00:00,2014-07-17 00:00:00,TMP,surface,-103.125,28.8188,294.237
2014-07-17 00:00:00,2014-07-17 00:00:00,TMP,surface,-102.188,28.8188,294.914
2014-07-17 00:00:00,2014-07-17 00:00:00,TMP,surface,-101.25,28.8188,297.301
2014-07-17 00:00:00,2014-07-17 00:00:00,TMP,surface,-100.313,28.8188,298.895
2014-07-17 00:00:00,2014-07-17 00:00:00,TMP,surface,-99.3754,28.8188,298.786
2014-07-17 00:00:00,2014-07-17 00:00:00,TMP,surface,-98.4379,28.8188,298.488
2014-07-17 00:00:00,2014-07-17 00:00:00,TMP,surface,-97.5004,28.8188,298.562
2014-07-17 00:00:00,2014-07-17 00:00:00,TMP,surface,-96.5629,28.8188,298.89
2014-07-17 00:00:00,2014-07-17 00:00:00,TMP,surface,-95.6254,28.8188,300.456
2014-07-17 00:00:00,2014-07-17 00:00:00,TMP,surface,-94.6879,28.8188,302.581
2014-07-17 00:00:00,2014-07-17 00:00:00,TMP,surface,-93.7504,28.8188,302.743
2014-07-17 00:00:00,2014-07-17 00:00:00,TMP,surface,-92.8129,28.8188,302.861
2014-07-17 00:00:00,2014-07-17 00:00:00,TMP,surface,-107.813,29.7637,290.84
2014-07-17 00:00:00,2014-07-17 00:00:00,TMP,surface,-106.875,29.7637,291.903
2014-07-17 00:00:00,2014-07-17 00:00:00,TMP,surface,-105.938,29.7637,294.627
2014-07-17 00:00:00,2014-07-17 00:00:00,TMP,surface,-105,29.7637,295.421
2014-07-17 00:00:00,2014-07-17 00:00:00,TMP,surface,-104.063,29.7637,294.869
2014-07-17 00:00:00,2014-07-17 00:00:00,TMP,surface,-103.125,29.7637,294.925
2014-07-17 00:00:00,2014-07-17 00:00:00,TMP,surface,-102.188,29.7637,296.005
2014-07-17 00:00:00,2014-07-17 00:00:00,TMP,surface,-101.25,29.7637,296.936
2014-07-17 00:00:00,2014-07-17 00:00:00,TMP,surface,-100.313,29.7637,297.082
2014-07-17 00:00:00,2014-07-17 00:00:00,TMP,surface,-99.3754,29.7637,296.847
2014-07-17 00:00:00,2014-07-17 00:00:00,TMP,surface,-98.4379,29.7637,296.989
2014-07-17 00:00:00,2014-07-17 00:00:00,TMP,surface,-97.5004,29.7637,297.515
2014-07-17 00:00:00,2014-07-17 00:00:00,TMP,surface,-96.5629,29.7637,297.832
2014-07-17 00:00:00,2014-07-17 00:00:00,TMP,surface,-95.6254,29.7637,297.927
2014-07-17 00:00:00,2014-07-17 00:00:00,TMP,surface,-94.6879,29.7637,299.469
2014-07-17 00:00:00,2014-07-17 00:00:00,TMP,surface,-93.7504,29.7637,301.615
2014-07-17 00:00:00,2014-07-17 00:00:00,TMP,surface,-92.8129,29.7637,298.879
2014-07-17 00:00:00,2014-07-17 00:00:00,TMP,surface,-107.813,30.7085,294.928
2014-07-17 00:00:00,2014-07-17 00:00:00,TMP,surface,-106.875,30.7085,295.757
2014-07-17 00:00:00,2014-07-17 00:00:00,TMP,surface,-105.938,30.7085,295.381
2014-07-17 00:00:00,2014-07-17 00:00:00,TMP,surface,-105,30.7085,294.61
2014-07-17 00:00:00,2014-07-17 00:00:00,TMP,surface,-104.063,30.7085,294.114
2014-07-17 00:00:00,2014-07-17 00:00:00,TMP,surface,-103.125,30.7085,295.155
2014-07-17 00:00:00,2014-07-17 00:00:00,TMP,surface,-102.188,30.7085,296.01
2014-07-17 00:00:00,2014-07-17 00:00:00,TMP,surface,-101.25,30.7085,296.056
2014-07-17 00:00:00,2014-07-17 00:00:00,TMP,surface,-100.313,30.7085,295.92
2014-07-17 00:00:00,2014-07-17 00:00:00,TMP,surface,-99.3754,30.7085,296.179
2014-07-17 00:00:00,2014-07-17 00:00:00,TMP,surface,-98.4379,30.7085,296.923
2014-07-17 00:00:00,2014-07-17 00:00:00,TMP,surface,-97.5004,30.7085,297.643
2014-07-17 00:00:00,2014-07-17 00:00:00,TMP,surface,-96.5629,30.7085,297.959
2014-07-17 00:00:00,2014-07-17 00:00:00,TMP,surface,-95.6254,30.7085,297.946
2014-07-17 00:00:00,2014-07-17 00:00:00,TMP,surface,-94.6879,30.7085,297.885
2014-07-17 00:00:00,2014-07-17 00:00:00,TMP,surface,-93.7504,30.7085,297.915
2014-07-17 00:00:00,2014-07-17 00:00:00,TMP,surface,-92.8129,30.7085,297.581
2014-07-17 00:00:00,2014-07-17 00:00:00,TMP,surface,-107.813,31.6534,296.523
2014-07-17 00:00:00,2014-07-17 00:00:00,TMP,surface,-106.875,31.6534,296.635
2014-07-17 00:00:00,2014-07-17 00:00:00,TMP,surface,-105.938,31.6534,295.035
2014-07-17 00:00:00,2014-07-17 00:00:00,TMP,surface,-105,31.6534,293.736
2014-07-17 00:00:00,2014-07-17 00:00:00,TMP,surface,-104.063,31.6534,294.015
2014-07-17 00:00:00,2014-07-17 00:00:00,TMP,surface,-103.125,31.6534,294.837
2014-07-17 00:00:00,2014-07-17 00:00:00,TMP,surface,-102.188,31.6534,295.159
2014-07-17 00:00:00,2014-07-17 00:00:00,TMP,surface,-101.25,31.6534,294.973
2014-07-17 00:00:00,2014-07-17 00:00:00,TMP,surface,-100.313,31.6534,295.101
2014-07-17 00:00:00,2014-07-17 00:00:00,TMP,surface,-99.3754,31.6534,295.779
2014-07-17 00:00:00,2014-07-17 00:00:00,TMP,surface,-98.4379,31.6534,296.813
2014-07-17 00:00:00,2014-07-17 00:00:00,TMP,surface,-97.5004,31.6534,297.685
2014-07-17 00:00:00,2014-07-17 00:00:00,TMP,surface,-96.5629,31.6534,298.016
2014-07-17 00:00:00,2014-07-17 00:00:00,TMP,surface,-95.6254,31.6534,297.907
2014-07-17 00:00:00,2014-07-17 00:00:00,TMP,surface,-94.6879,31.6534,297.738
2014-07-17 00:00:00,2014-07-17 00:00:00,TMP,surface,-93.7504,31.6534,297.699
2014-07-17 00:00:00,2014-07-17 00:00:00,TMP,surface,-92.8129,31.6534,297.623
2014-07-17 00:00:00,2014-07-17 00:00:00,TMP,surface,-107.813,32.5983,293.603
2014-07-17 00:00:00,2014-07-17 00:00:00,TMP,surface,-106.875,32.5983,293.824
2014-07-17 00:00:00,2014-07-17 00:00:00,TMP,surface,-105.938,32.5983,293.629
2014-07-17 00:00:00,2014-07-17 00:00:00,TMP,surface,-105,32.5983,292.803
2014-07-17 00:00:00,2014-07-17 00:00:00,TMP,surface,-104.063,32.5983,293.643
2014-07-17 00:00:00,2014-07-17 00:00:00,TMP,surface,-103.125,32.5983,294.075
2014-07-17 00:00:00,2014-07-17 00:00:00,TMP,surface,-102.188,32.5983,293.815
2014-07-17 00:00:00,2014-07-17 00:00:00,TMP,surface,-101.25,32.5983,293.843
2014-07-17 00:00:00,2014-07-17 00:00:00,TMP,surface,-100.313,32.5983,294.549
2014-07-17 00:00:00,2014-07-17 00:00:00,TMP,surface,-99.3754,32.5983,295.586
2014-07-17 00:00:00,2014-07-17 00:00:00,TMP,surface,-98.4379,32.5983,296.463
2014-07-17 00:00:00,2014-07-17 00:00:00,TMP,surface,-97.5004,32.5983,297.047
2014-07-17 00:00:00,2014-07-17 00:00:00,TMP,surface,-96.5629,32.5983,297.469
2014-07-17 00:00:00,2014-07-17 00:00:00,TMP,surface,-95.6254,32.5983,297.781
2014-07-17 00:00:00,2014-07-17 00:00:00,TMP,surface,-94.6879,32.5983,297.797
2014-07-17 00:00:00,2014-07-17 00:00:00,TMP,surface,-93.7504,32.5983,297.552
2014-07-17 00:00:00,2014-07-17 00:00:00,TMP,surface,-92.8129,32.5983,297.635
2014-07-17 00:00:00,2014-07-17 00:00:00,TMP,surface,-107.813,33.5432,289.984
2014-07-17 00:00:00,2014-07-17 00:00:00,TMP,surface,-106.875,33.5432,291.058
2014-07-17 00:00:00,2014-07-17 00:00:00,TMP,surface,-105.938,33.5432,291.448
2014-07-17 00:00:00,2014-07-17 00:00:00,TMP,surface,-105,33.5432,292.147
2014-07-17 00:00:00,2014-07-17 00:00:00,TMP,surface,-104.063,33.5432,293.391
2014-07-17 00:00:00,2014-07-17 00:00:00,TMP,surface,-103.125,33.5432,293.266
2014-07-17 00:00:00,2014-07-17 00:00:00,TMP,surface,-102.188,33.5432,292.744
2014-07-17 00:00:00,2014-07-17 00:00:00,TMP,surface,-101.25,33.5432,292.946
2014-07-17 00:00:00,2014-07-17 00:00:00,TMP,surface,-100.313,33.5432,294.058
2014-07-17 00:00:00,2014-07-17 00:00:00,TMP,surface,-99.3754,33.5432,295.226
2014-07-17 00:00:00,2014-07-17 00:00:00,TMP,surface,-98.4379,33.5432,295.84
2014-07-17 00:00:00,2014-07-17 00:00:00,TMP,surface,-97.5004,33.5432,296.112
2014-07-17 00:00:00,2014-07-17 00:00:00,TMP,surface,-96.5629,33.5432,296.346
2014-07-17 00:00:00,2014-07-17 00:00:00,TMP,surface,-95.6254,33.5432,296.586
2014-07-17 00:00:00,2014-07-17 00:00:00,TMP,surface,-94.6879,33.5432,296.717
2014-07-17 00:00:00,2014-07-17 00:00:00,TMP,surface,-93.7504,33.5432,296.619
2014-07-17 00:00:00,2014-07-17 00:00:00,TMP,surface,-92.8129,33.5432,296.613
2014-07-17 00:00:00,2014-07-17 00:00:00,TMP,surface,-107.813,34.4881,288.219
2014-07-17 00:00:00,2014-07-17 00:00:00,TMP,surface,-106.875,34.4881,289.981
2014-07-17 00:00:00,2014-07-17 00:00:00,TMP,surface,-105.938,34.4881,290.599
2014-07-17 00:00:00,2014-07-17 00:00:00,TMP,surface,-105,34.4881,292.023
2014-07-17 00:00:00,2014-07-17 00:00:00,TMP,surface,-104.063,34.4881,292.979
2014-07-17 00:00:00,2014-07-17 00:00:00,TMP,surface,-103.125,34.4881,292.909
2014-07-17 00:00:00,2014-07-17 00:00:00,TMP,surface,-102.188,34.4881,292.653
2014-07-17 00:00:00,2014-07-17 00:00:00,TMP,surface,-101.25,34.4881,292.792
2014-07-17 00:00:00,2014-07-17 00:00:00,TMP,surface,-100.313,34.4881,293.623
2014-07-17 00:00:00,2014-07-17 00:00:00,TMP,surface,-99.3754,34.4881,294.469
2014-07-17 00:00:00,2014-07-17 00:00:00,TMP,surface,-98.4379,34.4881,294.933
2014-07-17 00:00:00,2014-07-17 00:00:00,TMP,surface,-97.5004,34.4881,295.039
2014-07-17 00:00:00,2014-07-17 00:00:00,TMP,surface,-96.5629,34.4881,295.319
2014-07-17 00:00:00,2014-07-17 00:00:00,TMP,surface,-95.6254,34.4881,295.591
2014-07-17 00:00:00,2014-07-17 00:00:00,TMP,surface,-94.6879,34.4881,295.255
2014-07-17 00:00:00,2014-07-17 00:00:00,TMP,surface,-93.7504,34.4881,294.995
2014-07-17 00:00:00,2014-07-17 00:00:00,TMP,surface,-92.8129,34.4881,295.17
2014-07-17 00:00:00,2014-07-17 00:00:00,TMP,surface,-107.813,35.4329,288.722
2014-07-17 00:00:00,2014-07-17 00:00:00,TMP,surface,-106.875,35.4329,289.045
2014-07-17 00:00:00,2014-07-17 00:00:00,TMP,surface,-105.938,35.4329,288.917
2014-07-17 00:00:00,2014-07-17 00:00:00,TMP,surface,-105,35.4329,289.712
2014-07-17 00:00:00,2014-07-17 00:00:00,TMP,surface,-104.063,35.4329,291.968
2014-07-17 00:00:00,2014-07-17 00:00:00,TMP,surface,-103.125,35.4329,293.039
2014-07-17 00:00:00,2014-07-17 00:00:00,TMP,surface,-102.188,35.4329,293.111
2014-07-17 00:00:00,2014-07-17 00:00:00,TMP,surface,-101.25,35.4329,293.066
2014-07-17 00:00:00,2014-07-17 00:00:00,TMP,surface,-100.313,35.4329,293.155
2014-07-17 00:00:00,2014-07-17 00:00:00,TMP,surface,-99.3754,35.4329,293.687
2014-07-17 00:00:00,2014-07-17 00:00:00,TMP,surface,-98.4379,35.4329,294.234
2014-07-17 00:00:00,2014-07-17 00:00:00,TMP,surface,-97.5004,35.4329,294.555
2014-07-17 00:00:00,2014-07-17 00:00:00,TMP,surface,-96.5629,35.4329,294.813
2014-07-17 00:00:00,2014-07-17 00:00:00,TMP,surface,-95.6254,35.4329,294.911
2014-07-17 00:00:00,2014-07-17 00:00:00,TMP,surface,-94.6879,35.4329,294.599
2014-07-17 00:00:00,2014-07-17 00:00:00,TMP,surface,-93.7504,35.4329,294.093
2014-07-17 00:00:00,2014-07-17 00:00:00,TMP,surface,-92.8129,35.4329,293.895
2014-07-17 00:00:00,2014-07-17 00:00:00,TMP,surface,-107.813,36.3778,287.991
2014-07-17 00:00:00,2014-07-17 00:00:00,TMP,surface,-106.875,36.3778,285.747
2014-07-17 00:00:00,2014-07-17 00:00:00,TMP,surface,-105.938,36.3778,286.293
2014-07-17 00:00:00,2014-07-17 00:00:00,TMP,surface,-105,36.3778,286.967
2014-07-17 00:00:00,2014-07-17 00:00:00,TMP,surface,-104.063,36.3778,289.826
2014-07-17 00:00:00,2014-07-17 00:00:00,TMP,surface,-103.125,36.3778,291.746
2014-07-17 00:00:00,2014-07-17 00:00:00,TMP,surface,-102.188,36.3778,292.669
2014-07-17 00:00:00,2014-07-17 00:00:00,TMP,surface,-101.25,36.3778,292.871
2014-07-17 00:00:00,2014-07-17 00:00:00,TMP,surface,-100.313,36.3778,293.112
2014-07-17 00:00:00,2014-07-17 00:00:00,TMP,surface,-99.3754,36.3778,293.471
2014-07-17 00:00:00,2014-07-17 00:00:00,TMP,surface,-98.4379,36.3778,293.866
2014-07-17 00:00:00,2014-07-17 00:00:00,TMP,surface,-97.5004,36.3778,294.232
2014-07-17 00:00:00,2014-07-17 00:00:00,TMP,surface,-96.5629,36.3778,294.503
2014-07-17 00:00:00,2014-07-17 00:00:00,TMP,surface,-95.6254,36.3778,294.511
2014-07-17 00:00:00,2014-07-17 00:00:00,TMP,surface,-94.6879,36.3778,294.056
2014-07-17 00:00:00,2014-07-17 00:00:00,TMP,surface,-93.7504,36.3778,293.399
2014-07-17 00:00:00,2014-07-17 00:00:00,TMP,surface,-92.8129,36.3778,293.245
2014-07-17 00:00:00,2014-07-17 00:00:00,PRATE,surface,-107.813,25.0393,3.03e-05
2014-07-17 00:00:00,2014-07-17 00:00:00,PRATE,surface,-106.875,25.0393,9.85e-05
2014-07-17 00:00:00,2014-07-17 00:00:00,PRATE,surface,-105.938,25.0393,0.0001158
2014-07-17 00:00:00,2014-07-17 00:00:00,PRATE,surface,-105,25.0393,8.14e-05
2014-07-17 00:00:00,2014-07-17 00:00:00,PRATE,surface,-104.063,25.0393,4.12e-05
2014-07-17 00:00:00,2014-07-17 00:00:00,PRATE,surface,-103.125,25.0393,4.6e-06
2014-07-17 00:00:00,2014-07-17 00:00:00,PRATE,surface,-102.188,25.0393,1.47e-05
2014-07-17 00:00:00,2014-07-17 00:00:00,PRATE,surface,-101.25,25.0393,2.74e-05
2014-07-17 00:00:00,2014-07-17 00:00:00,PRATE,surface,-100.313,25.0393,4.13e-05
2014-07-17 00:00:00,2014-07-17 00:00:00,PRATE,surface,-99.3754,25.0393,3.44e-05
2014-07-17 00:00:00,2014-07-17 00:00:00,PRATE,surface,-98.4379,25.0393,2.55e-05
2014-07-17 00:00:00,2014-07-17 00:00:00,PRATE,surface,-97.5004,25.0393,5.37e-05
2014-07-17 00:00:00,2014-07-17 00:00:00,PRATE,surface,-96.5629,25.0393,7.98e-05
2014-07-17 00:00:00,2014-07-17 00:00:00,PRATE,surface,-95.6254,25.0393,7.38e-05
2014-07-17 00:00:00,2014-07-17 00:00:00,PRATE,surface,-94.6879,25.0393,5.17e-05
2014-07-17 00:00:00,2014-07-17 00:00:00,PRATE,surface,-93.7504,25.0393,0.0001054
2014-07-17 00:00:00,2014-07-17 00:00:00,PRATE,surface,-92.8129,25.0393,0.0001527
2014-07-17 00:00:00,2014-07-17 00:00:00,PRATE,surface,-107.813,25.9842,6.39e-05
2014-07-17 00:00:00,2014-07-17 00:00:00,PRATE,surface,-106.875,25.9842,0.0001119
2014-07-17 00:00:00,2014-07-17 00:00:00,PRATE,surface,-105.938,25.9842,9.33e-05
2014-07-17 00:00:00,2014-07-17 00:00:00,PRATE,surface,-105,25.9842,9.02e-05
2014-07-17 00:00:00,2014-07-17 00:00:00,PRATE,surface,-104.063,25.9842,3.21e-05
2014-07-17 00:00:00,2014-07-17 00:00:00,PRATE,surface,-103.125,25.9842,9e-06
2014-07-17 00:00:00,2014-07-17 00:00:00,PRATE,surface,-102.188,25.9842,4.6e-06
2014-07-17 00:00:00,2014-07-17 00:00:00,PRATE,surface,-101.25,25.9842,1.45e-05
2014-07-17 00:00:00,2014-07-17 00:00:00,PRATE,surface,-100.313,25.9842,2.9e-05
2014-07-17 00:00:00,2014-07-17 00:00:00,PRATE,surface,-99.3754,25.9842,3.58e-05
2014-07-17 00:00:00,2014-07-17 00:00:00,PRATE,surface,-98.4379,25.9842,4.84e-05
2014-07-17 00:00:00,2014-07-17 00:00:00,PRATE,surface,-97.5004,25.9842,5.44e-05
2014-07-17 00:00:00,2014-07-17 00:00:00,PRATE,surface,-96.5629,25.9842,0.0001195
2014-07-17 00:00:00,2014-07-17 00:00:00,PRATE,surface,-95.6254,25.9842,0.0001127
2014-07-17 00:00:00,2014-07-17 00:00:00,PRATE,surface,-94.6879,25.9842,8.02e-05
2014-07-17 00:00:00,2014-07-17 00:00:00,PRATE,surface,-93.7504,25.9842,8.26e-05
2014-07-17 00:00:00,2014-07-17 00:00:00,PRATE,surface,-92.8129,25.9842,9.37e-05
2014-07-17 00:00:00,2014-07-17 00:00:00,PRATE,surface,-107.813,26.929,0.00012
2014-07-17 00:00:00,2014-07-17 00:00:00,PRATE,surface,-106.875,26.929,8.72e-05
2014-07-17 00:00:00,2014-07-17 00:00:00,PRATE,surface,-105.938,26.929,7.89e-05
2014-07-17 00:00:00,2014-07-17 00:00:00,PRATE,surface,-105,26.929,7.45e-05
2014-07-17 00:00:00,2014-07-17 00:00:00,PRATE,surface,-104.063,26.929,3.31e-05
2014-07-17 00:00:00,2014-07-17 00:00:00,PRATE,surface,-103.125,26.929,3.48e-05
2014-07-17 00:00:00,2014-07-17 00:00:00,PRATE,surface,-102.188,26.929,3.31e-05
2014-07-17 00:00:00,2014-07-17 00:00:00,PRATE,surface,-101.25,26.929,2.71e-05
2014-07-17 00:00:00,2014-07-17 00:00:00,PRATE,surface,-100.313,26.929,2.49e-05
2014-07-17 00:00:00,2014-07-17 00:00:00,PRATE,surface,-99.3754,26.929,3.42e-05
2014-07-17 00:00:00,2014-07-17 00:00:00,PRATE,surface,-98.4379,26.929,4.92e-05
2014-07-17 00:00:00,2014-07-17 00:00:00,PRATE,surface,-97.5004,26.929,0.0001057
2014-07-17 00:00:00,2014-07-17 00:00:00,PRATE,surface,-96.5629,26.929,0.0001533
2014-07-17 00:00:00,2014-07-17 00:00:00,PRATE,surface,-95.6254,26.929,0.0001141
2014-07-17 00:00:00,2014-07-17 00:00:00,PRATE,surface,-94.6879,26.929,7.97e-05
2014-07-17 00:00:00,2014-07-17 00:00:00,PRATE,surface,-93.7504,26.929,8.79e-05
2014-07-17 00:00:00,2014-07-17 00:00:00,PRATE,surface,-92.8129,26.929,7.75e-05
2014-07-17 00:00:00,2014-07-17 00:00:00,PRATE,surface,-107.813,27.8739,9.61e-05
2014-07-17 00:00:00,2014-07-17 00:00:00,PRATE,surface,-106.875,27.8739,7.63e-05
2014-07-17 00:00:00,2014-07-17 00:00:00,PRATE,surface,-105.938,27.8739,4.75e-05
2014-07-17 00:00:00,2014-07-17 00:00:00,PRATE,surface,-105,27.8739,2.59e-05
2014-07-17 00:00:00,2014-07-17 00:00:00,PRATE,surface,-104.063,27.8739,2.89e-05
2014-07-17 00:00:00,2014-07-17 00:00:00,PRATE,surface,-103.125,27.8739,6.2e-05
2014-07-17 00:00:00,2014-07-17 00:00:00,PRATE,surface,-102.188,27.8739,6.79e-05
2014-07-17 00:00:00,2014-07-17 00:00:00,PRATE,surface,-101.25,27.8739,4.54e-05
2014-07-17 00:00:00,2014-07-17 00:00:00,PRATE,surface,-100.313,27.8739,3.76e-05
2014-07-17 00:00:00,2014-07-17 00:00:00,PRATE,surface,-99.3754,27.8739,3.65e-05
2014-07-17 00:00:00,2014-07-17 00:00:00,PRATE,surface,-98.4379,27.8739,4.95e-05
2014-07-17 00:00:00,2014-07-17 00:00:00,PRATE,surface,-97.5004,27.8739,5.87e-05
2014-07-17 00:00:00,2014-07-17 00:00:00,PRATE,surface,-96.5629,27.8739,5.16e-05
2014-07-17 00:00:00,2014-07-17 00:00:00,PRATE,surface,-95.6254,27.8739,5.68e-05
2014-07-17 00:00:00,2014-07-17 00:00:00,PRATE,surface,-94.6879,27.8739,8.83e-05
2014-07-17 00:00:00,2014-07-17 00:00:00,PRATE,surface,-93.7504,27.8739,0.0001043
2014-07-17 00:00:00,2014-07-17 00:00:00,PRATE,surface,-92.8129,27.8739,8.09e-05
2014-07-17 00:00:00,2014-07-17 00:00:00,PRATE,surface,-107.813,28.8188,6.48e-05
2014-07-17 00:00:00,2014-07-17 00:00:00,PRATE,surface,-106.875,28.8188,6.05e-05
2014-07-17 00:00:00,2014-07-17 00:00:00,PRATE,surface,-105.938,28.8188,3.11e-05
2014-07-17 00:00:00,2014-07-17 00:00:00,PRATE,surface,-105,28.8188,1.34e-05
2014-07-17 00:00:00,2014-07-17 00:00:00,PRATE,surface,-104.063,28.8188,3.07e-05
2014-07-17 00:00:00,2014-07-17 00:00:00,PRATE,surface,-103.125,28.8188,6.91e-05
2014-07-17 00:00:00,2014-07-17 00:00:00,PRATE,surface,-102.188,28.8188,7.25e-05
2014-07-17 00:00:00,2014-07-17 00:00:00,PRATE,surface,-101.25,28.8188,5.27e-05
2014-07-17 00:00:00,2014-07-17 00:00:00,PRATE,surface,-100.313,28.8188,5.03e-05
2014-07-17 00:00:00,2014-07-17 00:00:00,PRATE,surface,-99.3754,28.8188,5.71e-05
2014-07-17 00:00:00,2014-07-17 00:00:00,PRATE,surface,-98.4379,28.8188,5.48e-05
2014-07-17 00:00:00,2014-07-17 00:00:00,PRATE,surface,-97.5004,28.8188,5.14e-05
2014-07-17 00:00:00,2014-07-17 00:00:00,PRATE,surface,-96.5629,28.8188,5.14e-05
2014-07-17 00:00:00,2014-07-17 00:00:00,PRATE,surface,-95.6254,28.8188,5.13e-05
2014-07-17 00:00:00,2014-07-17 00:00:00,PRATE,surface,-94.6879,28.8188,5.43e-05
2014-07-17 00:00:00,2014-07-17 00:00:00,PRATE,surface,-93.7504,28.8188,5.34e-05
2014-07-17 00:00:00,2014-07-17 00:00:00,PRATE,surface,-92.8129,28.8188,3.74e-05
2014-07-17 00:00:00,2014-07-17 00:00:00,PRATE,surface,-107.813,29.7637,3.99e-05
2014-07-17 00:00:00,2014-07-17 00:00:00,PRATE,surface,-106.875,29.7637,3.15e-05
2014-07-17 00:00:00,2014-07-17 00:00:00,PRATE,surface,-105.938,29.7637,2.35e-05
2014-07-17 00:00:00,2014-07-17 00:00:00,PRATE,surface,-105,29.7637,1.74e-05
2014-07-17 00:00:00,2014-07-17 00:00:00,PRATE,surface,-104.063,29.7637,2.87e-05
2014-07-17 00:00:00,2014-07-17 00:00:00,PRATE,surface,-103.125,29.7637,4.62e-05
2014-07-17 00:00:00,2014-07-17 00:00:00,PRATE,surface,-102.188,29.7637,4.38e-05
2014-07-17 00:00:00,2014-07-17 00:00:00,PRATE,surface,-101.25,29.7637,4.31e-05
2014-07-17 00:00:00,2014-07-17 00:00:00,PRATE,surface,-100.313,29.7637,4.5e-05
2014-07-17 00:00:00,2014-07-17 00:00:00,PRATE,surface,-99.3754,29.7637,4.5e-05
2014-07-17 00:00:00,2014-07-17 00:00:00,PRATE,surface,-98.4379,29.7637,4.36e-05
2014-07-17 00:00:00,2014-07-17 00:00:00,PRATE,surface,-97.5004,29.7637,3.72e-05
2014-07-17 00:00:00,2014-07-17 00:00:00,PRATE,surface,-96.5629,29.7637,3.7e-05
2014-07-17 00:00:00,2014-07-17 00:00:00,PRATE,surface,-95.6254,29.7637,4.4e-05
2014-07-17 00:00:00,2014-07-17 00:00:00,PRATE,surface,-94.6879,29.7637,4.12e-05
2014-07-17 00:00:00,2014-07-17 00:00:00,PRATE,surface,-93.7504,29.7637,3.51e-05
2014-07-17 00:00:00,2014-07-17 00:00:00,PRATE,surface,-92.8129,29.7637,3.22e-05
2014-07-17 00:00:00,2014-07-17 00:00:00,PRATE,surface,-107.813,30.7085,7.6e-06
2014-07-17 00:00:00,2014-07-17 00:00:00,PRATE,surface,-106.875,30.7085,9.2e-06
2014-07-17 00:00:00,2014-07-17 00:00:00,PRATE,surface,-105.938,30.7085,1.72e-05
2014-07-17 00:00:00,2014-07-17 00:00:00,PRATE,surface,-105,30.7085,3.03e-05
2014-07-17 00:00:00,2014-07-17 00:00:00,PRATE,surface,-104.063,30.7085,3.23e-05
2014-07-17 00:00:00,2014-07-17 00:00:00,PRATE,surface,-103.125,30.7085,3.13e-05
2014-07-17 00:00:00,2014-07-17 00:00:00,PRATE,surface,-102.188,30.7085,3.43e-05
2014-07-17 00:00:00,2014-07-17 00:00:00,PRATE,surface,-101.25,30.7085,4.78e-05
2014-07-17 00:00:00,2014-07-17 00:00:00,PRATE,surface,-100.313,30.7085,5.72e-05
2014-07-17 00:00:00,2014-07-17 00:00:00,PRATE,surface,-99.3754,30.7085,4.09e-05
2014-07-17 00:00:00,2014-07-17 00:00:00,PRATE,surface,-98.4379,30.7085,2.33e-05
2014-07-17 00:00:00,2014-07-17 00:00:00,PRATE,surface,-97.5004,30.7085,1.97e-05
2014-07-17 00:00:00,2014-07-17 00:00:00,PRATE,surface,-96.5629,30.7085,2.44e-05
2014-07-17 00:00:00,2014-07-17 00:00:00,PRATE,surface,-95.6254,30.7085,2.91e-05
2014-07-17 00:00:00,2014-07-17 00:00:00,PRATE,surface,-94.6879,30.7085,2.85e-05
2014-07-17 00:00:00,2014-07-17 00:00:00,PRATE,surface,-93.7504,30.7085,2.37e-05
2014-07-17 00:00:00,2014-07-17 00:00:00,PRATE,surface,-92.8129,30.7085,1.81e-05
2014-07-17 00:00:00,2014-07-17 00:00:00,PRATE,surface,-107.813,31.6534,6.1e-06
2014-07-17 00:00:00,2014-07-17 00:00:00,PRATE,surface,-106.875,31.6534,6.5e-06
2014-07-17 00:00:00,2014-07-17 00:00:00,PRATE,surface,-105.938,31.6534,1.57e-05
2014-07-17 00:00:00,2014-07-17 00:00:00,PRATE,surface,-105,31.6534,3.61e-05
2014-07-17 00:00:00,2014-07-17 00:00:00,PRATE,surface,-104.063,31.6534,4.37e-05
2014-07-17 00:00:00,2014-07-17 00:00:00,PRATE,surface,-103.125,31.6534,3.23e-05
2014-07-17 00:00:00,2014-07-17 00:00:00,PRATE,surface,-102.188,31.6534,3.54e-05
2014-07-17 00:00:00,2014-07-17 00:00:00,PRATE,surface,-101.25,31.6534,5.42e-05
2014-07-17 00:00:00,2014-07-17 00:00:00,PRATE,surface,-100.313,31.6534,6.88e-05
2014-07-17 00:00:00,2014-07-17 00:00:00,PRATE,surface,-99.3754,31.6534,5.67e-05
2014-07-17 00:00:00,2014-07-17 00:00:00,PRATE,surface,-98.4379,31.6534,3.06e-05
2014-07-17 00:00:00,2014-07-17 00:00:00,PRATE,surface,-97.5004,31.6534,1.58e-05
2014-07-17 00:00:00,2014-07-17 00:00:00,PRATE,surface,-96.5629,31.6534,1.78e-05
2014-07-17 00:00:00,2014-07-17 00:00:00,PRATE,surface,-95.6254,31.6534,2.43e-05
2014-07-17 00:00:00,2014-07-17 00:00:00,PRATE,surface,-94.6879,31.6534,2.36e-05
2014-07-17 00:00:00,2014-07-17 00:00:00,PRATE,surface,-93.7504,31.6534,1.7e-05
2014-07-17 00:00:00,2014-07-17 00:00:00,PRATE,surface,-92.8129,31.6534,1.55e-05
2014-07-17 00:00:00,2014-07-17 00:00:00,PRATE,surface,-107.813,32.5983,1.47e-05
2014-07-17 00:00:00,2014-07-17 00:00:00,PRATE,surface,-106.875,32.5983,1.34e-05
2014-07-17 00:00:00,2014-07-17 00:00:00,PRATE,surface,-105.938,32.5983,1.49e-05
2014-07-17 00:00:00,2014-07-17 00:00:00,PRATE,surface,-105,32.5983,2.92e-05
2014-07-17 00:00:00,2014-07-17 00:00:00,PRATE,surface,-104.063,32.5983,3.82e-05
2014-07-17 00:00:00,2014-07-17 00:00:00,PRATE,surface,-103.125,32.5983,4.6e-05
2014-07-17 00:00:00,2014-07-17 00:00:00,PRATE,surface,-102.188,32.5983,5.76e-05
2014-07-17 00:00:00,2014-07-17 00:00:00,PRATE,surface,-101.25,32.5983,7.76e-05
2014-07-17 00:00:00,2014-07-17 00:00:00,PRATE,surface,-100.313,32.5983,8.27e-05
2014-07-17 00:00:00,2014-07-17 00:00:00,PRATE,surface,-99.3754,32.5983,6.37e-05
2014-07-17 00:00:00,2014-07-17 00:00:00,PRATE,surface,-98.4379,32.5983,3.89e-05
2014-07-17 00:00:00,2014-07-17 00:00:00,PRATE,surface,-97.5004,32.5983,2.53e-05
2014-07-17 00:00:00,2014-07-17 00:00:00,PRATE,surface,-96.5629,32.5983,2.3e-05
2014-07-17 00:00:00,2014-07-17 00:00:00,PRATE,surface,-95.6254,32.5983,2.18e-05
2014-07-17 00:00:00,2014-07-17 00:00:00,PRATE,surface,-94.6879,32.5983,1.81e-05
2014-07-17 00:00:00,2014-07-17 00:00:00,PRATE,surface,-93.7504,32.5983,1.56e-05
2014-07-17 00:00:00,2014-07-17 00:00:00,PRATE,surface,-92.8129,32.5983,1.24e-05
2014-07-17 00:00:00,2014-07-17 00:00:00,PRATE,surface,-107.813,33.5432,3.77e-05
2014-07-17 00:00:00,2014-07-17 00:00:00,PRATE,surface,-106.875,33.5432,2.79e-05
2014-07-17 00:00:00,2014-07-17 00:00:00,PRATE,surface,-105.938,33.5432,2.88e-05
2014-07-17 00:00:00,2014-07-17 00:00:00,PRATE,surface,-105,33.5432,2.46e-05
2014-07-17 00:00:00,2014-07-17 00:00:00,PRATE,surface,-104.063,33.5432,2.4e-05
2014-07-17 00:00:00,2014-07-17 00:00:00,PRATE,surface,-103.125,33.5432,3.48e-05
2014-07-17 00:00:00,2014-07-17 00:00:00,PRATE,surface,-102.188,33.5432,5.23e-05
2014-07-17 00:00:00,2014-07-17 00:00:00,PRATE,surface,-101.25,33.5432,7.15e-05
2014-07-17 00:00:00,2014-07-17 00:00:00,PRATE,surface,-100.313,33.5432,6.96e-05
2014-07-17 00:00:00,2014-07-17 00:00:00,PRATE,surface,-99.3754,33.5432,5.26e-05
2014-07-17 00:00:00,2014-07-17 00:00:00,PRATE,surface,-98.4379,33.5432,3.62e-05
2014-07-17 00:00:00,2014-07-17 00:00:00,PRATE,surface,-97.5004,33.5432,2.65e-05
2014-07-17 00:00:00,2014-07-17 00:00:00,PRATE,surface,-96.5629,33.5432,2.38e-05
2014-07-17 00:00:00,2014-07-17 00:00:00,PRATE,surface,-95.6254,33.5432,2.56e-05
2014-07-17 00:00:00,2014-07-17 00:00:00,PRATE,surface,-94.6879,33.5432,2.41e-05
2014-07-17 00:00:00,2014-07-17 00:00:00,PRATE,surface,-93.7504,33.5432,1.65e-05
2014-07-17 00:00:00,2014-07-17 00:00:00,PRATE,surface,-92.8129,33.5432,1.31e-05
2014-07-17 00:00:00,2014-07-17 00:00:00,PRATE,surface,-107.813,34.4881,3.65e-05
2014-07-17 00:00:00,2014-07-17 00:00:00,PRATE,surface,-106.875,34.4881,2.46e-05
2014-07-17 00:00:00,2014-07-17 00:00:00,PRATE,surface,-105.938,34.4881,2.41e-05
2014-07-17 00:00:00,2014-07-17 00:00:00,PRATE,surface,-105,34.4881,1.48e-05
2014-07-17 00:00:00,2014-07-17 00:00:00,PRATE,surface,-104.063,34.4881,1.29e-05
2014-07-17 00:00:00,2014-07-17 00:00:00,PRATE,surface,-103.125,34.4881,2.36e-05
2014-07-17 00:00:00,2014-07-17 00:00:00,PRATE,surface,-102.188,34.4881,3.73e-05
2014-07-17 00:00:00,2014-07-17 00:00:00,PRATE,surface,-101.25,34.4881,5.64e-05
2014-07-17 00:00:00,2014-07-17 00:00:00,PRATE,surface,-100.313,34.4881,6.23e-05
2014-07-17 00:00:00,2014-07-17 00:00:00,PRATE,surface,-99.3754,34.4881,5.33e-05
2014-07-17 00:00:00,2014-07-17 00:00:00,PRATE,surface,-98.4379,34.4881,4.53e-05
2014-07-17 00:00:00,2014-07-17 00:00:00,PRATE,surface,-97.5004,34.4881,4.25e-05
2014-07-17 00:00:00,2014-07-17 00:00:00,PRATE,surface,-96.5629,34.4881,3.68e-05
2014-07-17 00:00:00,2014-07-17 00:00:00,PRATE,surface,-95.6254,34.4881,2.91e-05
2014-07-17 00:00:00,2014-07-17 00:00:00,PRATE,surface,-94.6879,34.4881,2.52e-05
2014-07-17 00:00:00,2014-07-17 00:00:00,PRATE,surface,-93.7504,34.4881,2.28e-05
2014-07-17 00:00:00,2014-07-17 00:00:00,PRATE,surface,-92.8129,34.4881,2.39e-05
2014-07-17 00:00:00,2014-07-17 00:00:00,PRATE,surface,-107.813,35.4329,2.45e-05
2014-07-17 00:00:00,2014-07-17 00:00:00,PRATE,surface,-106.875,35.4329,1.59e-05
2014-07-17 00:00:00,2014-07-17 00:00:00,PRATE,surface,-105.938,35.4329,1.57e-05
2014-07-17 00:00:00,2014-07-17 00:00:00,PRATE,surface,-105,35.4329,1.34e-05
2014-07-17 00:00:00,2014-07-17 00:00:00,PRATE,surface,-104.063,35.4329,9.2e-06
2014-07-17 00:00:00,2014-07-17 00:00:00,PRATE,surface,-103.125,35.4329,1.9e-05
2014-07-17 00:00:00,2014-07-17 00:00:00,PRATE,surface,-102.188,35.4329,3.57e-05
2014-07-17 00:00:00,2014-07-17 00:00:00,PRATE,surface,-101.25,35.4329,5.73e-05
2014-07-17 00:00:00,2014-07-17 00:00:00,PRATE,surface,-100.313,35.4329,7.08e-05
2014-07-17 00:00:00,2014-07-17 00:00:00,PRATE,surface,-99.3754,35.4329,6e-05
2014-07-17 00:00:00,2014-07-17 00:00:00,PRATE,surface,-98.4379,35.4329,5.03e-05
2014-07-17 00:00:00,2014-07-17 00:00:00,PRATE,surface,-97.5004,35.4329,5.27e-05
2014-07-17 00:00:00,2014-07-17 00:00:00,PRATE,surface,-96.5629,35.4329,4.95e-05
2014-07-17 00:00:00,2014-07-17 00:00:00,PRATE,surface,-95.6254,35.4329,3.54e-05
2014-07-17 00:00:00,2014-07-17 00:00:00,PRATE,surface,-94.6879,35.4329,2.76e-05
2014-07-17 00:00:00,2014-07-17 00:00:00,PRATE,surface,-93.7504,35.4329,3.09e-05
2014-07-17 00:00:00,2014-07-17 00:00:00,PRATE,surface,-92.8129,35.4329,2.78e-05
2014-07-17 00:00:00,2014-07-17 00:00:00,PRATE,surface,-107.813,36.3778,2.52e-05
2014-07-17 00:00:00,2014-07-17 00:00:00,PRATE,surface,-106.875,36.3778,2.08e-05
2014-07-17 00:00:00,2014-07-17 00:00:00,PRATE,surface,-105.938,36.3778,1.59e-05
2014-07-17 00:00:00,2014-07-17 00:00:00,PRATE,surface,-105,36.3778,2.01e-05
2014-07-17 00:00:00,2014-07-17 00:00:00,PRATE,surface,-104.063,36.3778,1.16e-05
2014-07-17 00:00:00,2014-07-17 00:00:00,PRATE,surface,-103.125,36.3778,1.62e-05
2014-07-17 00:00:00,2014-07-17 00:00:00,PRATE,surface,-102.188,36.3778,3.05e-05
2014-07-17 00:00:00,2014-07-17 00:00:00,PRATE,surface,-101.25,36.3778,4.8e-05
2014-07-17 00:00:00,2014-07-17 00:00:00,PRATE,surface,-100.313,36.3778,5.91e-05
2014-07-17 00:00:00,2014-07-17 00:00:00,PRATE,surface,-99.3754,36.3778,6.28e-05
2014-07-17 00:00:00,2014-07-17 00:00:00,PRATE,surface,-98.4379,36.3778,5.61e-05
2014-07-17 00:00:00,2014-07-17 00:00:00,PRATE,surface,-97.5004,36.3778,5.15e-05
2014-07-17 00:00:00,2014-07-17 00:00:00,PRATE,surface,-96.5629,36.3778,4.9e-05
2014-07-17 00:00:00,2014-07-17 00:00:00,PRATE,surface,-95.6254,36.3778,3.82e-05
2014-07-17 00:00:00,2014-07-17 00:00:00,PRATE,surface,-94.6879,36.3778,2.8e-05
2014-07-17 00:00:00,2014-07-17 00:00:00,PRATE,surface,-93.7504,36.3778,3.1e-05
2014-07-17 00:00:00,2014-07-17 00:00:00,PRATE,surface,-92.8129,36.3778,3.37e-05
