2015-05-24 00:00:00,2015-05-24 00:00:00,TMP,surface,-107.813,25.0393,288.444
2015-05-24 00:00:00,2015-05-24 00:00:00,TMP,surface,-106.875,25.0393,282.642
2015-05-24 00:00:00,2015-05-24 00:00:00,TMP,surface,-105.938,25.0393,277.418
2015-05-24 00:00:00,2015-05-24 00:00:00,TMP,surface,-105,25.0393,276.481
2015-05-24 00:00:00,2015-05-24 00:00:00,TMP,surface,-104.063,25.0393,280.124
2015-05-24 00:00:00,2015-05-24 00:00:00,TMP,surface,-103.125,25.0393,282.217
2015-05-24 00:00:00,2015-05-24 00:00:00,TMP,surface,-102.188,25.0393,281.69
2015-05-24 00:00:00,2015-05-24 00:00:00,TMP,surface,-101.25,25.0393,280.351
2015-05-24 00:00:00,2015-05-24 00:00:00,TMP,surface,-100.313,25.0393,280.878
2015-05-24 00:00:00,2015-05-24 00:00:00,TMP,surface,-99.3754,25.0393,283.53
2015-05-24 00:00:00,2015-05-24 00:00:00,TMP,surface,-98.4379,25.0393,286.66
2015-05-24 00:00:00,2015-05-24 00:00:00,TMP,surface,-97.5004,25.0393,294.087
2015-05-24 00:00:00,2015-05-24 00:00:00,TMP,surface,-96.5629,25.0393,295.39
2015-05-24 00:00:00,2015-05-24 00:00:00,TMP,surface,-95.6254,25.0393,296.103
2015-05-24 00:00:00,2015-05-24 00:00:00,TMP,surface,-94.6879,25.0393,296.25
2015-05-24 00:00:00,2015-05-24 00:00:00,TMP,surface,-93.7504,25.0393,296.174
2015-05-24 00:00:00,2015-05-24 00:00:00,TMP,surface,-92.8129,25.0393,296.19
2015-05-24 00:00:00,2015-05-24 00:00:00,TMP,surface,-107.813,25.9842,283.506
2015-05-24 00:00:00,2015-05-24 00:00:00,TMP,surface,-106.875,25.9842,277.74
2015-05-24 00:00:00,2015-05-24 00:00:00,TMP,surface,-105.938,25.9842,275.745
2015-05-24 00:00:00,2015-05-24 00:00:00,TMP,surface,-105,25.9842,278.119
2015-05-24 00:00:00,2015-05-24 00:00:00,TMP,surface,-104.063,25.9842,281.614
2015-05-24 00:00:00,2015-05-24 00:00:00,TMP,surface,-103.125,25.9842,282.737
2015-05-24 00:00:00,2015-05-24 00:00:00,TMP,surface,-102.188,25.9842,282.177
2015-05-24 00:00:00,2015-05-24 00:00:00,TMP,surface,-101.25,25.9842,281.194
2015-05-24 00:00:00,2015-05-24 00:00:00,TMP,surface,-100.313,25.9842,281.51
2015-05-24 00:00:00,2015-05-24 00:00:00,TMP,surface,-99.3754,25.9842,283.713
2015-05-24 00:00:00,2015-05-24 00:00:00,TMP,surface,-98.4379,25.9842,285.794
2015-05-24 00:00:00,2015-05-24 00:00:00,TMP,surface,-97.5004,25.9842,287.858
2015-05-24 00:00:00,2015-05-24 00:00:00,TMP,surface,-96.5629,25.9842,294.478
2015-05-24 00:00:00,2015-05-24 00:00:00,TMP,surface,-95.6254,25.9842,295.462
2015-05-24 00:00:00,2015-05-24 00:00:00,TMP,surface,-94.6879,25.9842,295.574
2015-05-24 00:00:00,2015-05-24 00:00:00,TMP,surface,-93.7504,25.9842,295.401
2015-05-24 00:00:00,2015-05-24 00:00:00,TMP,surface,-92.8129,25.9842,295.375
2015-05-24 00:00:00,2015-05-24 00:00:00,TMP,surface,-107.813,26.929,278.308
2015-05-24 00:00:00,2015-05-24 00:00:00,TMP,surface,-106.875,26.929,274.634
2015-05-24 00:00:00,2015-05-24 00:00:00,TMP,surface,-105.938,26.929,276.687
2015-05-24 00:00:00,2015-05-24 00:00:00,TMP,surface,-105,26.929,280.017
2015-05-24 00:00:00,2015-05-24 00:00:00,TMP,surface,-104.063,26.929,281.102
2015-05-24 00:00:00,2015-05-24 00:00:00,TMP,surface,-103.125,26.929,280.615
2015-05-24 00:00:00,2015-05-24 00:00:00,TMP,surface,-102.188,26.929,280.602
2015-05-24 00:00:00,2015-05-24 00:00:00,TMP,surface,-101.25,26.929,281.175
2015-05-24 00:00:00,2015-05-24 00:00:00,TMP,surface,-100.313,26.929,282.241
2015-05-24 00:00:00,2015-05-24 00:00:00,TMP,surface,-99.3754,26.929,283.226
2015-05-24 00:00:00,2015-05-24 00:00:00,TMP,surface,-98.4379,26.929,284.028
2015-05-24 00:00:00,2015-05-24 00:00:00,TMP,surface,-97.5004,26.929,292.263
2015-05-24 00:00:00,2015-05-24 00:00:00,TMP,surface,-96.5629,26.929,293.65
2015-05-24 00:00:00,2015-05-24 00:00:00,TMP,surface,-95.6254,26.929,294.354
2015-05-24 00:00:00,2015-05-24 00:00:00,TMP,surface,-94.6879,26.929,294.538
2015-05-24 00:00:00,2015-05-24 00:00:00,TMP,surface,-93.7504,26.929,294.396
2015-05-24 00:00:00,2015-05-24 00:00:00,TMP,surface,-92.8129,26.929,294.302
2015-05-24 00:00:00,2015-05-24 00:00:00,TMP,surface,-107.813,27.8739,275.134
2015-05-24 00:00:00,2015-05-24 00:00:00,TMP,surface,-106.875,27.8739,274.132
2015-05-24 00:00:00,2015-05-24 00:00:00,TMP,surface,-105.938,27.8739,277.754
2015-05-24 00:00:00,2015-05-24 00:00:00,TMP,surface,-105,27.8739,280.335
2015-05-24 00:00:00,2015-05-24 00:00:00,TMP,surface,-104.063,27.8739,280.43
2015-05-24 00:00:00,2015-05-24 00:00:00,TMP,surface,-103.125,27.8739,279.268
2015-05-24 00:00:00,2015-05-24 00:00:00,TMP,surface,-102.188,27.8739,279.418
2015-05-24 00:00:00,2015-05-24 00:00:00,TMP,surface,-101.25,27.8739,280.655
2015-05-24 00:00:00,2015-05-24 00:00:00,TMP,surface,-100.313,27.8739,281.684
2015-05-24 00:00:00,2015-05-24 00:00:00,TMP,surface,-99.3754,27.8739,281.77
2015-05-24 00:00:00,2015-05-24 00:00:00,TMP,surface,-98.4379,27.8739,281.972
2015-05-24 00:00:00,2015-05-24 00:00:00,TMP,surface,-97.5004,27.8739,287.801
2015-05-24 00:00:00,2015-05-24 00:00:00,TMP,surface,-96.5629,27.8739,293.658
2015-05-24 00:00:00,2015-05-24 00:00:00,TMP,surface,-95.6254,27.8739,293.892
2015-05-24 00:00:00,2015-05-24 00:00:00,TMP,surface,-94.6879,27.8739,293.604
2015-05-24 00:00:00,2015-05-24 00:00:00,TMP,surface,-93.7504,27.8739,293.45
2015-05-24 00:00:00,2015-05-24 00:00:00,TMP,surface,-92.8129,27.8739,293.534
2015-05-24 00:00:00,2015-05-24 00:00:00,TMP,surface,-107.813,28.8188,274.148
2015-05-24 00:00:00,2015-05-24 00:00:00,TMP,surface,-106.875,28.8188,274.934
2015-05-24 00:00:00,2015-05-24 00:00:00,TMP,surface,-105.938,28.8188,278.05
2015-05-24 00:00:00,2015-05-24 00:00:00,TMP,surface,-105,28.8188,279.633
2015-05-24 00:00:00,2015-05-24 00:00:00,TMP,surface,-104.063,28.8188,278.91
2015-05-24 00:00:00,2015-05-24 00:00:00,TMP,surface,-103.125,28.8188,278.102
2015-05-24 00:00:00,2015-05-24 00:00:00,TMP,surface,-102.188,28.8188,278.585
2015-05-24 00:00:00,2015-05-24 00:00:00,TMP,surface,-101.25,28.8188,279.85
2015-05-24 00:00:00,2015-05-24 00:00:00,TMP,surface,-100.313,28.8188,280.225
2015-05-24 00:00:00,2015-05-24 00:00:00,TMP,surface,-99.3754,28.8188,279.788
2015-05-24 00:00:00,2015-05-24 00:00:00,TMP,surface,-98.4379,28.8188,279.566
2015-05-24 00:00:00,2015-05-24 00:00:00,TMP,surface,-97.5004,28.8188,280.202
2015-05-24 00:00:00,2015-05-24 00:00:00,TMP,surface,-96.5629,28.8188,281.38
2015-05-24 00:00:00,2015-05-24 00:00:00,TMP,surface,-95.6254,28.8188,286.346
2015-05-24 00:00:00,2015-05-24 00:00:00,TMP,surface,-94.6879,28.8188,293.358
2015-05-24 00:00:00,2015-05-24 00:00:00,TMP,surface,-93.7504,28.8188,293.326
2015-05-24 00:00:00,2015-05-24 00:00:00,TMP,surface,-92.8129,28.8188,293.471
2015-05-24 00:00:00,2015-05-24 00:00:00,TMP,surface,-107.813,29.7637,275.306
2015-05-24 00:00:00,2015-05-24 00:00:00,TMP,surface,-106.875,29.7637,276.209
2015-05-24 00:00:00,2015-05-24 00:00:00,TMP,surface,-105.938,29.7637,278.086
2015-05-24 00:00:00,2015-05-24 00:00:00,TMP,surface,-105,29.7637,278.17
2015-05-24 00:00:00,2015-05-24 00:00:00,TMP,surface,-104.063,29.7637,277.922
2015-05-24 00:00:00,2015-05-24 00:00:00,TMP,surface,-103.125,29.7637,277.913
2015-05-24 00:00:00,2015-05-24 00:00:00,TMP,surface,-102.188,29.7637,278.47
2015-05-24 00:00:00,2015-05-24 00:00:00,TMP,surface,-101.25,29.7637,278.833
2015-05-24 00:00:00,2015-05-24 00:00:00,TMP,surface,-100.313,29.7637,278.361
2015-05-24 00:00:00,2015-05-24 00:00:00,TMP,surface,-99.3754,29.7637,277.775
2015-05-24 00:00:00,2015-05-24 00:00:00,TMP,surface,-98.4379,29.7637,277.625
2015-05-24 00:00:00,2015-05-24 00:00:00,TMP,surface,-97.5004,29.7637,277.911
2015-05-24 00:00:00,2015-05-24 00:00:00,TMP,surface,-96.5629,29.7637,278.554
2015-05-24 00:00:00,2015-05-24 00:00:00,TMP,surface,-95.6254,29.7637,279.49
2015-05-24 00:00:00,2015-05-24 00:00:00,TMP,surface,-94.6879,29.7637,284.178
2015-05-24 00:00:00,2015-05-24 00:00:00,TMP,surface,-93.7504,29.7637,289.834
2015-05-24 00:00:00,2015-05-24 00:00:00,TMP,surface,-92.8129,29.7637,280.417
2015-05-24 00:00:00,2015-05-24 00:00:00,TMP,surface,-107.813,30.7085,277.207
2015-05-24 00:00:00,2015-05-24 00:00:00,TMP,surface,-106.875,30.7085,277.815
2015-05-24 00:00:00,2015-05-24 00:00:00,TMP,surface,-105.938,30.7085,277.631
2015-05-24 00:00:00,2015-05-24 00:00:00,TMP,surface,-105,30.7085,276.86
2015-05-24 00:00:00,2015-05-24 00:00:00,TMP,surface,-104.063,30.7085,276.673
2015-05-24 00:00:00,2015-05-24 00:00:00,TMP,surface,-103.125,30.7085,277.194
2015-05-24 00:00:00,2015-05-24 00:00:00,TMP,surface,-102.188,30.7085,277.591
2015-05-24 00:00:00,2015-05-24 00:00:00,TMP,surface,-101.25,30.7085,277.473
2015-05-24 00:00:00,2015-05-24 00:00:00,TMP,surface,-100.313,30.7085,276.969
2015-05-24 00:00:00,2015-05-24 00:00:00,TMP,surface,-99.3754,30.7085,276.641
2015-05-24 00:00:00,2015-05-24 00:00:00,TMP,surface,-98.4379,30.7085,276.716
2015-05-24 00:00:00,2015-05-24 00:00:00,TMP,surface,-97.5004,30.7085,276.93
2015-05-24 00:00:00,2015-05-24 00:00:00,TMP,surface,-96.5629,30.7085,277.038
2015-05-24 00:00:00,2015-05-24 00:00:00,TMP,surface,-95.6254,30.7085,277.212
2015-05-24 00:00:00,2015-05-24 00:00:00,TMP,surface,-94.6879,30.7085,277.511
2015-05-24 00:00:00,2015-05-24 00:00:00,TMP,surface,-93.7504,30.7085,277.508
2015-05-24 00:00:00,2015-05-24 00:00:00,TMP,surface,-92.8129,30.7085,277.22
2015-05-24 00:00:00,2015-05-24 00:00:00,TMP,surface,-107.813,31.6534,277.063
2015-05-24 00:00:00,2015-05-24 00:00:00,TMP,surface,-106.875,31.6534,277.35
2015-05-24 00:00:00,2015-05-24 00:00:00,TMP,surface,-105.938,31.6534,276.326
2015-05-24 00:00:00,2015-05-24 00:00:00,TMP,surface,-105,31.6534,275.657
2015-05-24 00:00:00,2015-05-24 00:00:00,TMP,surface,-104.063,31.6534,275.497
2015-05-24 00:00:00,2015-05-24 00:00:00,TMP,surface,-103.125,31.6534,276.066
2015-05-24 00:00:00,2015-05-24 00:00:00,TMP,surface,-102.188,31.6534,276.479
2015-05-24 00:00:00,2015-05-24 00:00:00,TMP,surface,-101.25,31.6534,276.292
2015-05-24 00:00:00,2015-05-24 00:00:00,TMP,surface,-100.313,31.6534,276.009
2015-05-24 00:00:00,2015-05-24 00:00:00,TMP,surface,-99.3754,31.6534,275.825
2015-05-24 00:00:00,2015-05-24 00:00:00,TMP,surface,-98.4379,31.6534,275.903
2015-05-24 00:00:00,2015-05-24 00:00:00,TMP,surface,-97.5004,31.6534,276.094
2015-05-24 00:00:00,2015-05-24 00:00:00,TMP,surface,-96.5629,31.6534,276.191
2015-05-24 00:00:00,2015-05-24 00:00:00,TMP,surface,-95.6254,31.6534,276.103
2015-05-24 00:00:00,2015-05-24 00:00:00,TMP,surface,-94.6879,31.6534,275.906
2015-05-24 00:00:00,2015-05-24 00:00:00,TMP,surface,-93.7504,31.6534,275.886
2015-05-24 00:00:00,2015-05-24 00:00:00,TMP,surface,-92.8129,31.6534,275.966
2015-05-24 00:00:00,2015-05-24 00:00:00,TMP,surface,-107.813,32.5983,274.655
2015-05-24 00:00:00,2015-05-24 00:00:00,TMP,surface,-106.875,32.5983,274.718
2015-05-24 00:00:00,2015-05-24 00:00:00,TMP,surface,-105.938,32.5983,274.577
2015-05-24 00:00:00,2015-05-24 00:00:00,TMP,surface,-105,32.5983,274.378
2015-05-24 00:00:00,2015-05-24 00:00:00,TMP,surface,-104.063,32.5983,274.625
2015-05-24 00:00:00,2015-05-24 00:00:00,TMP,surface,-103.125,32.5983,275.159
2015-05-24 00:00:00,2015-05-24 00:00:00,TMP,surface,-102.188,32.5983,275.332
2015-05-24 00:00:00,2015-05-24 00:00:00,TMP,surface,-101.25,32.5983,275.278
2015-05-24 00:00:00,2015-05-24 00:00:00,TMP,surface,-100.313,32.5983,275.122
2015-05-24 00:00:00,2015-05-24 00:00:00,TMP,surface,-99.3754,32.5983,275.015
2015-05-24 00:00:00,2015-05-24 00:00:00,TMP,surface,-98.4379,32.5983,274.921
2015-05-24 00:00:00,2015-05-24 00:00:00,TMP,surface,-97.5004,32.5983,275.03
2015-05-24 00:00:00,2015-05-24 00:00:00,TMP,surface,-96.5629,32.5983,275.266
2015-05-24 00:00:00,2015-05-24 00:00:00,TMP,surface,-95.6254,32.5983,275.298
2015-05-24 00:00:00,2015-05-24 00:00:00,TMP,surface,-94.6879,32.5983,275.129
2015-05-24 00:00:00,2015-05-24 00:00:00,TMP,surface,-93.7504,32.5983,275.078
2015-05-24 00:00:00,2015-05-24 00:00:00,TMP,surface,-92.8129,32.5983,275.366
2015-05-24 00:00:00,2015-05-24 00:00:00,TMP,surface,-107.813,33.5432,270.999
2015-05-24 00:00:00,2015-05-24 00:00:00,TMP,surface,-106.875,33.5432,271.894
2015-05-24 00:00:00,2015-05-24 00:00:00,TMP,surface,-105.938,33.5432,272.796
2015-05-24 00:00:00,2015-05-24 00:00:00,TMP,surface,-105,33.5432,273.329
2015-05-24 00:00:00,2015-05-24 00:00:00,TMP,surface,-104.063,33.5432,274.041
2015-05-24 00:00:00,2015-05-24 00:00:00,TMP,surface,-103.125,33.5432,274.607
2015-05-24 00:00:00,2015-05-24 00:00:00,TMP,surface,-102.188,33.5432,274.546
2015-05-24 00:00:00,2015-05-24 00:00:00,TMP,surface,-101.25,33.5432,274.401
2015-05-24 00:00:00,2015-05-24 00:00:00,TMP,surface,-100.313,33.5432,274.298
2015-05-24 00:00:00,2015-05-24 00:00:00,TMP,surface,-99.3754,33.5432,274.086
2015-05-24 00:00:00,2015-05-24 00:00:00,TMP,surface,-98.4379,33.5432,273.673
2015-05-24 00:00:00,2015-05-24 00:00:00,TMP,surface,-97.5004,33.5432,273.522
2015-05-24 00:00:00,2015-05-24 00:00:00,TMP,surface,-96.5629,33.5432,273.841
2015-05-24 00:00:00,2015-05-24 00:00:00,TMP,surface,-95.6254,33.5432,274.151
2015-05-24 00:00:00,2015-05-24 00:00:00,TMP,surface,-94.6879,33.5432,274.079
2015-05-24 00:00:00,2015-05-24 00:00:00,TMP,surface,-93.7504,33.5432,273.918
2015-05-24 00:00:00,2015-05-24 00:00:00,TMP,surface,-92.8129,33.5432,274.095
2015-05-24 00:00:00,2015-05-24 00:00:00,TMP,surface,-107.813,34.4881,269.146
2015-05-24 00:00:00,2015-05-24 00:00:00,TMP,surface,-106.875,34.4881,270.609
2015-05-24 00:00:00,2015-05-24 00:00:00,TMP,surface,-105.938,34.4881,271.655
2015-05-24 00:00:00,2015-05-24 00:00:00,TMP,surface,-105,34.4881,272.329
2015-05-24 00:00:00,2015-05-24 00:00:00,TMP,surface,-104.063,34.4881,273.169
2015-05-24 00:00:00,2015-05-24 00:00:00,TMP,surface,-103.125,34.4881,273.722
2015-05-24 00:00:00,2015-05-24 00:00:00,TMP,surface,-102.188,34.4881,273.862
2015-05-24 00:00:00,2015-05-24 00:00:00,TMP,surface,-101.25,34.4881,273.622
2015-05-24 00:00:00,2015-05-24 00:00:00,TMP,surface,-100.313,34.4881,273.302
2015-05-24 00:00:00,2015-05-24 00:00:00,TMP,surface,-99.3754,34.4881,272.831
2015-05-24 00:00:00,2015-05-24 00:00:00,TMP,surface,-98.4379,34.4881,272.263
2015-05-24 00:00:00,2015-05-24 00:00:00,TMP,surface,-97.5004,34.4881,271.977
2015-05-24 00:00:00,2015-05-24 00:00:00,TMP,surface,-96.5629,34.4881,272.186
2015-05-24 00:00:00,2015-05-24 00:00:00,TMP,surface,-95.6254,34.4881,272.412
2015-05-24 00:00:00,2015-05-24 00:00:00,TMP,surface,-94.6879,34.4881,272.258
2015-05-24 00:00:00,2015-05-24 00:00:00,TMP,surface,-93.7504,34.4881,272.182
2015-05-24 00:00:00,2015-05-24 00:00:00,TMP,surface,-92.8129,34.4881,272.386
2015-05-24 00:00:00,2015-05-24 00:00:00,TMP,surface,-107.813,35.4329,269.932
2015-05-24 00:00:00,2015-05-24 00:00:00,TMP,surface,-106.875,35.4329,270.11
2015-05-24 00:00:00,2015-05-24 00:00:00,TMP,surface,-105.938,35.4329,270.314
2015-05-24 00:00:00,2015-05-24 00:00:00,TMP,surface,-105,35.4329,270.834
2015-05-24 00:00:00,2015-05-24 00:00:00,TMP,surface,-104.063,35.4329,272.238
2015-05-24 00:00:00,2015-05-24 00:00:00,TMP,surface,-103.125,35.4329,273.254
2015-05-24 00:00:00,2015-05-24 00:00:00,TMP,surface,-102.188,35.4329,273.218
2015-05-24 00:00:00,2015-05-24 00:00:00,TMP,surface,-101.25,35.4329,272.881
2015-05-24 00:00:00,2015-05-24 00:00:00,TMP,surface,-100.313,35.4329,272.225
2015-05-24 00:00:00,2015-05-24 00:00:00,TMP,surface,-99.3754,35.4329,271.414
2015-05-24 00:00:00,2015-05-24 00:00:00,TMP,surface,-98.4379,35.4329,270.871
2015-05-24 00:00:00,2015-05-24 00:00:00,TMP,surface,-97.5004,35.4329,270.858
2015-05-24 00:00:00,2015-05-24 00:00:00,TMP,surface,-96.5629,35.4329,271.318
2015-05-24 00:00:00,2015-05-24 00:00:00,TMP,surface,-95.6254,35.4329,271.655
2015-05-24 00:00:00,2015-05-24 00:00:00,TMP,surface,-94.6879,35.4329,271.415
2015-05-24 00:00:00,2015-05-24 00:00:00,TMP,surface,-93.7504,35.4329,271.108
2015-05-24 00:00:00,2015-05-24 00:00:00,TMP,surface,-92.8129,35.4329,271.172
2015-05-24 00:00:00,2015-05-24 00:00:00,TMP,surface,-107.813,36.3778,269.18
2015-05-24 00:00:00,2015-05-24 00:00:00,TMP,surface,-106.875,36.3778,267.879
2015-05-24 00:00:00,2015-05-24 00:00:00,TMP,surface,-105.938,36.3778,267.858
2015-05-24 00:00:00,2015-05-24 00:00:00,TMP,surface,-105,36.3778,269.087
2015-05-24 00:00:00,2015-05-24 00:00:00,TMP,surface,-104.063,36.3778,270.428
2015-05-24 00:00:00,2015-05-24 00:00:00,TMP,surface,-103.125,36.3778,271.817
2015-05-24 00:00:00,2015-05-24 00:00:00,TMP,surface,-102.188,36.3778,272.321
2015-05-24 00:00:00,2015-05-24 00:00:00,TMP,surface,-101.25,36.3778,272.185
2015-05-24 00:00:00,2015-05-24 00:00:00,TMP,surface,-100.313,36.3778,271.678
2015-05-24 00:00:00,2015-05-24 00:00:00,TMP,surface,-99.3754,36.3778,270.908
2015-05-24 00:00:00,2015-05-24 00:00:00,TMP,surface,-98.4379,36.3778,270.132
2015-05-24 00:00:00,2015-05-24 00:00:00,TMP,surface,-97.5004,36.3778,270.001
2015-05-24 00:00:00,2015-05-24 00:00:00,TMP,surface,-96.5629,36.3778,270.486
2015-05-24 00:00:00,2015-05-24 00:00:00,TMP,surface,-95.6254,36.3778,270.74
2015-05-24 00:00:00,2015-05-24 00:00:00,TMP,surface,-94.6879,36.3778,270.426
2015-05-24 00:00:00,2015-05-24 00:00:00,TMP,surface,-93.7504,36.3778,270.143
2015-05-24 00:00:00,2015-05-24 00:00:00,TMP,surface,-92.8129,36.3778,270.258
2015-05-24 00:00:00,2015-05-24 00:00:00,PRATE,surface,-107.813,25.0393,7.83e-05
2015-05-24 00:00:00,2015-05-24 00:00:00,PRATE,surface,-106.875,25.0393,8.87e-05
2015-05-24 00:00:00,2015-05-24 00:00:00,PRATE,surface,-105.938,25.0393,6.68e-05
2015-05-24 00:00:00,2015-05-24 00:00:00,PRATE,surface,-105,25.0393,3.61e-05
2015-05-24 00:00:00,2015-05-24 00:00:00,PRATE,surface,-104.063,25.0393,1.61e-05
2015-05-24 00:00:00,2015-05-24 00:00:00,PRATE,surface,-103.125,25.0393,5.9e-06
2015-05-24 00:00:00,2015-05-24 00:00:00,PRATE,surface,-102.188,25.0393,9.3e-06
2015-05-24 00:00:00,2015-05-24 00:00:00,PRATE,surface,-101.25,25.0393,2.09e-05
2015-05-24 00:00:00,2015-05-24 00:00:00,PRATE,surface,-100.313,25.0393,2.99e-05
2015-05-24 00:00:00,2015-05-24 00:00:00,PRATE,surface,-99.3754,25.0393,2.68e-05
2015-05-24 00:00:00,2015-05-24 00:00:00,PRATE,surface,-98.4379,25.0393,2.73e-05
2015-05-24 00:00:00,2015-05-24 00:00:00,PRATE,surface,-97.5004,25.0393,5.1e-05
2015-05-24 00:00:00,2015-05-24 00:00:00,PRATE,surface,-96.5629,25.0393,9.56e-05
2015-05-24 00:00:00,2015-05-24 00:00:00,PRATE,surface,-95.6254,25.0393,0.0001148
2015-05-24 00:00:00,2015-05-24 00:00:00,PRATE,surface,-94.6879,25.0393,0.0001126
2015-05-24 00:00:00,2015-05-24 00:00:00,PRATE,surface,-93.7504,25.0393,0.0001153
2015-05-24 00:00:00,2015-05-24 00:00:00,PRATE,surface,-92.8129,25.0393,0.0001129
2015-05-24 00:00:00,2015-05-24 00:00:00,PRATE,surface,-107.813,25.9842,7.36e-05
2015-05-24 00:00:00,2015-05-24 00:00:00,PRATE,surface,-106.875,25.9842,6.81e-05
2015-05-24 00:00:00,2015-05-24 00:00:00,PRATE,surface,-105.938,25.9842,3.57e-05
2015-05-24 00:00:00,2015-05-24 00:00:00,PRATE,surface,-105,25.9842,1.94e-05
2015-05-24 00:00:00,2015-05-24 00:00:00,PRATE,surface,-104.063,25.9842,1.1e-05
2015-05-24 00:00:00,2015-05-24 00:00:00,PRATE,surface,-103.125,25.9842,8.2e-06
2015-05-24 00:00:00,2015-05-24 00:00:00,PRATE,surface,-102.188,25.9842,1.34e-05
2015-05-24 00:00:00,2015-05-24 00:00:00,PRATE,surface,-101.25,25.9842,2.42e-05
2015-05-24 00:00:00,2015-05-24 00:00:00,PRATE,surface,-100.313,25.9842,2.8e-05
2015-05-24 00:00:00,2015-05-24 00:00:00,PRATE,surface,-99.3754,25.9842,2.68e-05
2015-05-24 00:00:00,2015-05-24 00:00:00,PRATE,surface,-98.4379,25.9842,3.06e-05
2015-05-24 00:00:00,2015-05-24 00:00:00,PRATE,surface,-97.5004,25.9842,5.56e-05
2015-05-24 00:00:00,2015-05-24 00:00:00,PRATE,surface,-96.5629,25.9842,0.0001118
2015-05-24 00:00:00,2015-05-24 00:00:00,PRATE,surface,-95.6254,25.9842,0.0001148
2015-05-24 00:00:00,2015-05-24 00:00:00,PRATE,surface,-94.6879,25.9842,9.59e-05
2015-05-24 00:00:00,2015-05-24 00:00:00,PRATE,surface,-93.7504,25.9842,8.6e-05
2015-05-24 00:00:00,2015-05-24 00:00:00,PRATE,surface,-92.8129,25.9842,9.1e-05
2015-05-24 00:00:00,2015-05-24 00:00:00,PRATE,surface,-107.813,26.929,7.68e-05
2015-05-24 00:00:00,2015-05-24 00:00:00,PRATE,surface,-106.875,26.929,4.34e-05
2015-05-24 00:00:00,2015-05-24 00:00:00,PRATE,surface,-105.938,26.929,1.82e-05
2015-05-24 00:00:00,2015-05-24 00:00:00,PRATE,surface,-105,26.929,1.27e-05
2015-05-24 00:00:00,2015-05-24 00:00:00,PRATE,surface,-104.063,26.929,1.28e-05
2015-05-24 00:00:00,2015-05-24 00:00:00,PRATE,surface,-103.125,26.929,2e-05
2015-05-24 00:00:00,2015-05-24 00:00:00,PRATE,surface,-102.188,26.929,2.65e-05
2015-05-24 00:00:00,2015-05-24 00:00:00,PRATE,surface,-101.25,26.929,2.75e-05
2015-05-24 00:00:00,2015-05-24 00:00:00,PRATE,surface,-100.313,26.929,2.64e-05
2015-05-24 00:00:00,2015-05-24 00:00:00,PRATE,surface,-99.3754,26.929,2.67e-05
2015-05-24 00:00:00,2015-05-24 00:00:00,PRATE,surface,-98.4379,26.929,2.68e-05
2015-05-24 00:00:00,2015-05-24 00:00:00,PRATE,surface,-97.5004,26.929,5.45e-05
2015-05-24 00:00:00,2015-05-24 00:00:00,PRATE,surface,-96.5629,26.929,7.9e-05
2015-05-24 00:00:00,2015-05-24 00:00:00,PRATE,surface,-95.6254,26.929,8.77e-05
2015-05-24 00:00:00,2015-05-24 00:00:00,PRATE,surface,-94.6879,26.929,8.13e-05
2015-05-24 00:00:00,2015-05-24 00:00:00,PRATE,surface,-93.7504,26.929,8e-05
2015-05-24 00:00:00,2015-05-24 00:00:00,PRATE,surface,-92.8129,26.929,7.66e-05
2015-05-24 00:00:00,2015-05-24 00:00:00,PRATE,surface,-107.813,27.8739,6.75e-05
2015-05-24 00:00:00,2015-05-24 00:00:00,PRATE,surface,-106.875,27.8739,3.08e-05
2015-05-24 00:00:00,2015-05-24 00:00:00,PRATE,surface,-105.938,27.8739,1.3e-05
2015-05-24 00:00:00,2015-05-24 00:00:00,PRATE,surface,-105,27.8739,1.03e-05
2015-05-24 00:00:00,2015-05-24 00:00:00,PRATE,surface,-104.063,27.8739,1.96e-05
2015-05-24 00:00:00,2015-05-24 00:00:00,PRATE,surface,-103.125,27.8739,3.13e-05
2015-05-24 00:00:00,2015-05-24 00:00:00,PRATE,surface,-102.188,27.8739,3.59e-05
2015-05-24 00:00:00,2015-05-24 00:00:00,PRATE,surface,-101.25,27.8739,2.96e-05
2015-05-24 00:00:00,2015-05-24 00:00:00,PRATE,surface,-100.313,27.8739,2.55e-05
2015-05-24 00:00:00,2015-05-24 00:00:00,PRATE,surface,-99.3754,27.8739,2.71e-05
2015-05-24 00:00:00,2015-05-24 00:00:00,PRATE,surface,-98.4379,27.8739,3.34e-05
2015-05-24 00:00:00,2015-05-24 00:00:00,PRATE,surface,-97.5004,27.8739,4.57e-05
2015-05-24 00:00:00,2015-05-24 00:00:00,PRATE,surface,-96.5629,27.8739,5.92e-05
2015-05-24 00:00:00,2015-05-24 00:00:00,PRATE,surface,-95.6254,27.8739,7.35e-05
2015-05-24 00:00:00,2015-05-24 00:00:00,PRATE,surface,-94.6879,27.8739,8.82e-05
2015-05-24 00:00:00,2015-05-24 00:00:00,PRATE,surface,-93.7504,27.8739,8.93e-05
2015-05-24 00:00:00,2015-05-24 00:00:00,PRATE,surface,-92.8129,27.8739,8.28e-05
2015-05-24 00:00:00,2015-05-24 00:00:00,PRATE,surface,-107.813,28.8188,4.86e-05
2015-05-24 00:00:00,2015-05-24 00:00:00,PRATE,surface,-106.875,28.8188,2.37e-05
2015-05-24 00:00:00,2015-05-24 00:00:00,PRATE,surface,-105.938,28.8188,1.46e-05
2015-05-24 00:00:00,2015-05-24 00:00:00,PRATE,surface,-105,28.8188,1.47e-05
2015-05-24 00:00:00,2015-05-24 00:00:00,PRATE,surface,-104.063,28.8188,2.11e-05
2015-05-24 00:00:00,2015-05-24 00:00:00,PRATE,surface,-103.125,28.8188,3.04e-05
2015-05-24 00:00:00,2015-05-24 00:00:00,PRATE,surface,-102.188,28.8188,3.07e-05
2015-05-24 00:00:00,2015-05-24 00:00:00,PRATE,surface,-101.25,28.8188,2.86e-05
2015-05-24 00:00:00,2015-05-24 00:00:00,PRATE,surface,-100.313,28.8188,2.85e-05
2015-05-24 00:00:00,2015-05-24 00:00:00,PRATE,surface,-99.3754,28.8188,2.93e-05
2015-05-24 00:00:00,2015-05-24 00:00:00,PRATE,surface,-98.4379,28.8188,3.14e-05
2015-05-24 00:00:00,2015-05-24 00:00:00,PRATE,surface,-97.5004,28.8188,3.67e-05
2015-05-24 00:00:00,2015-05-24 00:00:00,PRATE,surface,-96.5629,28.8188,4.94e-05
2015-05-24 00:00:00,2015-05-24 00:00:00,PRATE,surface,-95.6254,28.8188,7.04e-05
2015-05-24 00:00:00,2015-05-24 00:00:00,PRATE,surface,-94.6879,28.8188,8.67e-05
2015-05-24 00:00:00,2015-05-24 00:00:00,PRATE,surface,-93.7504,28.8188,8.47e-05
2015-05-24 00:00:00,2015-05-24 00:00:00,PRATE,surface,-92.8129,28.8188,7.55e-05
2015-05-24 00:00:00,2015-05-24 00:00:00,PRATE,surface,-107.813,29.7637,3.31e-05
2015-05-24 00:00:00,2015-05-24 00:00:00,PRATE,surface,-106.875,29.7637,2.23e-05
2015-05-24 00:00:00,2015-05-24 00:00:00,PRATE,surface,-105.938,29.7637,1.8e-05
2015-05-24 00:00:00,2015-05-24 00:00:00,PRATE,surface,-105,29.7637,2.02e-05
2015-05-24 00:00:00,2015-05-24 00:00:00,PRATE,surface,-104.063,29.7637,2.41e-05
2015-05-24 00:00:00,2015-05-24 00:00:00,PRATE,surface,-103.125,29.7637,2.67e-05
2015-05-24 00:00:00,2015-05-24 00:00:00,PRATE,surface,-102.188,29.7637,2.69e-05
2015-05-24 00:00:00,2015-05-24 00:00:00,PRATE,surface,-101.25,29.7637,3.12e-05
2015-05-24 00:00:00,2015-05-24 00:00:00,PRATE,surface,-100.313,29.7637,3.5e-05
2015-05-24 00:00:00,2015-05-24 00:00:00,PRATE,surface,-99.3754,29.7637,3.27e-05
2015-05-24 00:00:00,2015-05-24 00:00:00,PRATE,surface,-98.4379,29.7637,2.93e-05
2015-05-24 00:00:00,2015-05-24 00:00:00,PRATE,surface,-97.5004,29.7637,3.01e-05
2015-05-24 00:00:00,2015-05-24 00:00:00,PRATE,surface,-96.5629,29.7637,3.69e-05
2015-05-24 00:00:00,2015-05-24 00:00:00,PRATE,surface,-95.6254,29.7637,5.01e-05
2015-05-24 00:00:00,2015-05-24 00:00:00,PRATE,surface,-94.6879,29.7637,6.42e-05
2015-05-24 00:00:00,2015-05-24 00:00:00,PRATE,surface,-93.7504,29.7637,7.01e-05
2015-05-24 00:00:00,2015-05-24 00:00:00,PRATE,surface,-92.8129,29.7637,6.88e-05
2015-05-24 00:00:00,2015-05-24 00:00:00,PRATE,surface,-107.813,30.7085,2.59e-05
2015-05-24 00:00:00,2015-05-24 00:00:00,PRATE,surface,-106.875,30.7085,2.19e-05
2015-05-24 00:00:00,2015-05-24 00:00:00,PRATE,surface,-105.938,30.7085,2.19e-05
2015-05-24 00:00:00,2015-05-24 00:00:00,PRATE,surface,-105,30.7085,2.63e-05
2015-05-24 00:00:00,2015-05-24 00:00:00,PRATE,surface,-104.063,30.7085,3.3e-05
2015-05-24 00:00:00,2015-05-24 00:00:00,PRATE,surface,-103.125,30.7085,3.05e-05
2015-05-24 00:00:00,2015-05-24 00:00:00,PRATE,surface,-102.188,30.7085,2.77e-05
2015-05-24 00:00:00,2015-05-24 00:00:00,PRATE,surface,-101.25,30.7085,3.36e-05
2015-05-24 00:00:00,2015-05-24 00:00:00,PRATE,surface,-100.313,30.7085,4e-05
2015-05-24 00:00:00,2015-05-24 00:00:00,PRATE,surface,-99.3754,30.7085,3.73e-05
2015-05-24 00:00:00,2015-05-24 00:00:00,PRATE,surface,-98.4379,30.7085,3.27e-05
2015-05-24 00:00:00,2015-05-24 00:00:00,PRATE,surface,-97.5004,30.7085,3.15e-05
2015-05-24 00:00:00,2015-05-24 00:00:00,PRATE,surface,-96.5629,30.7085,3.29e-05
2015-05-24 00:00:00,2015-05-24 00:00:00,PRATE,surface,-95.6254,30.7085,3.79e-05
2015-05-24 00:00:00,2015-05-24 00:00:00,PRATE,surface,-94.6879,30.7085,4.26e-05
2015-05-24 00:00:00,2015-05-24 00:00:00,PRATE,surface,-93.7504,30.7085,4.19e-05
2015-05-24 00:00:00,2015-05-24 00:00:00,PRATE,surface,-92.8129,30.7085,4.51e-05
2015-05-24 00:00:00,2015-05-24 00:00:00,PRATE,surface,-107.813,31.6534,1.87e-05
2015-05-24 00:00:00,2015-05-24 00:00:00,PRATE,surface,-106.875,31.6534,1.6e-05
2015-05-24 00:00:00,2015-05-24 00:00:00,PRATE,surface,-105.938,31.6534,2.1e-05
2015-05-24 00:00:00,2015-05-24 00:00:00,PRATE,surface,-105,31.6534,3.29e-05
2015-05-24 00:00:00,2015-05-24 00:00:00,PRATE,surface,-104.063,31.6534,3.94e-05
2015-05-24 00:00:00,2015-05-24 00:00:00,PRATE,surface,-103.125,31.6534,3.43e-05
2015-05-24 00:00:00,2015-05-24 00:00:00,PRATE,surface,-102.188,31.6534,2.99e-05
2015-05-24 00:00:00,2015-05-24 00:00:00,PRATE,surface,-101.25,31.6534,3.38e-05
2015-05-24 00:00:00,2015-05-24 00:00:00,PRATE,surface,-100.313,31.6534,3.91e-05
2015-05-24 00:00:00,2015-05-24 00:00:00,PRATE,surface,-99.3754,31.6534,4.07e-05
2015-05-24 00:00:00,2015-05-24 00:00:00,PRATE,surface,-98.4379,31.6534,3.94e-05
2015-05-24 00:00:00,2015-05-24 00:00:00,PRATE,surface,-97.5004,31.6534,3.92e-05
2015-05-24 00:00:00,2015-05-24 00:00:00,PRATE,surface,-96.5629,31.6534,3.81e-05
2015-05-24 00:00:00,2015-05-24 00:00:00,PRATE,surface,-95.6254,31.6534,3.62e-05
2015-05-24 00:00:00,2015-05-24 00:00:00,PRATE,surface,-94.6879,31.6534,3.63e-05
2015-05-24 00:00:00,2015-05-24 00:00:00,PRATE,surface,-93.7504,31.6534,3.38e-05
2015-05-24 00:00:00,2015-05-24 00:00:00,PRATE,surface,-92.8129,31.6534,3.16e-05
2015-05-24 00:00:00,2015-05-24 00:00:00,PRATE,surface,-107.813,32.5983,2.52e-05
2015-05-24 00:00:00,2015-05-24 00:00:00,PRATE,surface,-106.875,32.5983,2.14e-05
2015-05-24 00:00:00,2015-05-24 00:00:00,PRATE,surface,-105.938,32.5983,2.37e-05
2015-05-24 00:00:00,2015-05-24 00:00:00,PRATE,surface,-105,32.5983,3.2e-05
2015-05-24 00:00:00,2015-05-24 00:00:00,PRATE,surface,-104.063,32.5983,3.34e-05
2015-05-24 00:00:00,2015-05-24 00:00:00,PRATE,surface,-103.125,32.5983,3.04e-05
2015-05-24 00:00:00,2015-05-24 00:00:00,PRATE,surface,-102.188,32.5983,2.98e-05
2015-05-24 00:00:00,2015-05-24 00:00:00,PRATE,surface,-101.25,32.5983,3.68e-05
2015-05-24 00:00:00,2015-05-24 00:00:00,PRATE,surface,-100.313,32.5983,4.09e-05
2015-05-24 00:00:00,2015-05-24 00:00:00,PRATE,surface,-99.3754,32.5983,4.19e-05
2015-05-24 00:00:00,2015-05-24 00:00:00,PRATE,surface,-98.4379,32.5983,4.19e-05
2015-05-24 00:00:00,2015-05-24 00:00:00,PRATE,surface,-97.5004,32.5983,3.99e-05
2015-05-24 00:00:00,2015-05-24 00:00:00,PRATE,surface,-96.5629,32.5983,3.65e-05
2015-05-24 00:00:00,2015-05-24 00:00:00,PRATE,surface,-95.6254,32.5983,3.39e-05
2015-05-24 00:00:00,2015-05-24 00:00:00,PRATE,surface,-94.6879,32.5983,3.26e-05
2015-05-24 00:00:00,2015-05-24 00:00:00,PRATE,surface,-93.7504,32.5983,3.18e-05
2015-05-24 00:00:00,2015-05-24 00:00:00,PRATE,surface,-92.8129,32.5983,2.92e-05
2015-05-24 00:00:00,2015-05-24 00:00:00,PRATE,surface,-107.813,33.5432,4.05e-05
2015-05-24 00:00:00,2015-05-24 00:00:00,PRATE,surface,-106.875,33.5432,3.54e-05
2015-05-24 00:00:00,2015-05-24 00:00:00,PRATE,surface,-105.938,33.5432,3.18e-05
2015-05-24 00:00:00,2015-05-24 00:00:00,PRATE,surface,-105,33.5432,3.33e-05
2015-05-24 00:00:00,2015-05-24 00:00:00,PRATE,surface,-104.063,33.5432,2.81e-05
2015-05-24 00:00:00,2015-05-24 00:00:00,PRATE,surface,-103.125,33.5432,2.44e-05
2015-05-24 00:00:00,2015-05-24 00:00:00,PRATE,surface,-102.188,33.5432,2.55e-05
2015-05-24 00:00:00,2015-05-24 00:00:00,PRATE,surface,-101.25,33.5432,3.31e-05
2015-05-24 00:00:00,2015-05-24 00:00:00,PRATE,surface,-100.313,33.5432,3.93e-05
2015-05-24 00:00:00,2015-05-24 00:00:00,PRATE,surface,-99.3754,33.5432,4.06e-05
2015-05-24 00:00:00,2015-05-24 00:00:00,PRATE,surface,-98.4379,33.5432,4.08e-05
2015-05-24 00:00:00,2015-05-24 00:00:00,PRATE,surface,-97.5004,33.5432,3.9e-05
2015-05-24 00:00:00,2015-05-24 00:00:00,PRATE,surface,-96.5629,33.5432,3.43e-05
2015-05-24 00:00:00,2015-05-24 00:00:00,PRATE,surface,-95.6254,33.5432,3.11e-05
2015-05-24 00:00:00,2015-05-24 00:00:00,PRATE,surface,-94.6879,33.5432,3.14e-05
2015-05-24 00:00:00,2015-05-24 00:00:00,PRATE,surface,-93.7504,33.5432,3e-05
2015-05-24 00:00:00,2015-05-24 00:00:00,PRATE,surface,-92.8129,33.5432,2.68e-05
2015-05-24 00:00:00,2015-05-24 00:00:00,PRATE,surface,-107.813,34.4881,3.09e-05
2015-05-24 00:00:00,2015-05-24 00:00:00,PRATE,surface,-106.875,34.4881,2.79e-05
2015-05-24 00:00:00,2015-05-24 00:00:00,PRATE,surface,-105.938,34.4881,2.55e-05
2015-05-24 00:00:00,2015-05-24 00:00:00,PRATE,surface,-105,34.4881,2.86e-05
2015-05-24 00:00:00,2015-05-24 00:00:00,PRATE,surface,-104.063,34.4881,2.43e-05
2015-05-24 00:00:00,2015-05-24 00:00:00,PRATE,surface,-103.125,34.4881,1.98e-05
2015-05-24 00:00:00,2015-05-24 00:00:00,PRATE,surface,-102.188,34.4881,2.06e-05
2015-05-24 00:00:00,2015-05-24 00:00:00,PRATE,surface,-101.25,34.4881,2.75e-05
2015-05-24 00:00:00,2015-05-24 00:00:00,PRATE,surface,-100.313,34.4881,3.35e-05
2015-05-24 00:00:00,2015-05-24 00:00:00,PRATE,surface,-99.3754,34.4881,3.6e-05
2015-05-24 00:00:00,2015-05-24 00:00:00,PRATE,surface,-98.4379,34.4881,3.82e-05
2015-05-24 00:00:00,2015-05-24 00:00:00,PRATE,surface,-97.5004,34.4881,3.97e-05
2015-05-24 00:00:00,2015-05-24 00:00:00,PRATE,surface,-96.5629,34.4881,3.7e-05
2015-05-24 00:00:00,2015-05-24 00:00:00,PRATE,surface,-95.6254,34.4881,3.18e-05
2015-05-24 00:00:00,2015-05-24 00:00:00,PRATE,surface,-94.6879,34.4881,2.9e-05
2015-05-24 00:00:00,2015-05-24 00:00:00,PRATE,surface,-93.7504,34.4881,2.72e-05
2015-05-24 00:00:00,2015-05-24 00:00:00,PRATE,surface,-92.8129,34.4881,2.43e-05
2015-05-24 00:00:00,2015-05-24 00:00:00,PRATE,surface,-107.813,35.4329,1.94e-05
2015-05-24 00:00:00,2015-05-24 00:00:00,PRATE,surface,-106.875,35.4329,1.64e-05
2015-05-24 00:00:00,2015-05-24 00:00:00,PRATE,surface,-105.938,35.4329,1.89e-05
2015-05-24 00:00:00,2015-05-24 00:00:00,PRATE,surface,-105,35.4329,2.62e-05
2015-05-24 00:00:00,2015-05-24 00:00:00,PRATE,surface,-104.063,35.4329,2.46e-05
2015-05-24 00:00:00,2015-05-24 00:00:00,PRATE,surface,-103.125,35.4329,1.96e-05
2015-05-24 00:00:00,2015-05-24 00:00:00,PRATE,surface,-102.188,35.4329,1.91e-05
2015-05-24 00:00:00,2015-05-24 00:00:00,PRATE,surface,-101.25,35.4329,2.23e-05
2015-05-24 00:00:00,2015-05-24 00:00:00,PRATE,surface,-100.313,35.4329,2.65e-05
2015-05-24 00:00:00,2015-05-24 00:00:00,PRATE,surface,-99.3754,35.4329,3.05e-05
2015-05-24 00:00:00,2015-05-24 00:00:00,PRATE,surface,-98.4379,35.4329,3.43e-05
2015-05-24 00:00:00,2015-05-24 00:00:00,PRATE,surface,-97.5004,35.4329,3.68e-05
2015-05-24 00:00:00,2015-05-24 00:00:00,PRATE,surface,-96.5629,35.4329,3.62e-05
2015-05-24 00:00:00,2015-05-24 00:00:00,PRATE,surface,-95.6254,35.4329,3.26e-05
2015-05-24 00:00:00,2015-05-24 00:00:00,PRATE,surface,-94.6879,35.4329,2.85e-05
2015-05-24 00:00:00,2015-05-24 00:00:00,PRATE,surface,-93.7504,35.4329,2.58e-05
2015-05-24 00:00:00,2015-05-24 00:00:00,PRATE,surface,-92.8129,35.4329,2.23e-05
2015-05-24 00:00:00,2015-05-24 00:00:00,PRATE,surface,-107.813,36.3778,1.86e-05
2015-05-24 00:00:00,2015-05-24 00:00:00,PRATE,surface,-106.875,36.3778,1.87e-05
2015-05-24 00:00:00,2015-05-24 00:00:00,PRATE,surface,-105.938,36.3778,2.18e-05
2015-05-24 00:00:00,2015-05-24 00:00:00,PRATE,surface,-105,36.3778,2.7e-05
2015-05-24 00:00:00,2015-05-24 00:00:00,PRATE,surface,-104.063,36.3778,2.47e-05
2015-05-24 00:00:00,2015-05-24 00:00:00,PRATE,surface,-103.125,36.3778,1.93e-05
2015-05-24 00:00:00,2015-05-24 00:00:00,PRATE,surface,-102.188,36.3778,1.77e-05
2015-05-24 00:00:00,2015-05-24 00:00:00,PRATE,surface,-101.25,36.3778,1.83e-05
2015-05-24 00:00:00,2015-05-24 00:00:00,PRATE,surface,-100.313,36.3778,2.13e-05
2015-05-24 00:00:00,2015-05-24 00:00:00,PRATE,surface,-99.3754,36.3778,2.69e-05
2015-05-24 00:00:00,2015-05-24 00:00:00,PRATE,surface,-98.4379,36.3778,3.18e-05
2015-05-24 00:00:00,2015-05-24 00:00:00,PRATE,surface,-97.5004,36.3778,3.33e-05
2015-05-24 00:00:00,2015-05-24 00:00:00,PRATE,surface,-96.5629,36.3778,3.19e-05
2015-05-24 00:00:00,2015-05-24 00:00:00,PRATE,surface,-95.6254,36.3778,2.97e-05
2015-05-24 00:00:00,2015-05-24 00:00:00,PRATE,surface,-94.6879,36.3778,2.7e-05
2015-05-24 00:00:00,2015-05-24 00:00:00,PRATE,surface,-93.7504,36.3778,2.29e-05
2015-05-24 00:00:00,2015-05-24 00:00:00,PRATE,surface,-92.8129,36.3778,1.87e-05
