2014-09-12 00:00:00,2014-09-12 00:00:00,TMP,surface,-107.813,25.0393,300.345
2014-09-12 00:00:00,2014-09-12 00:00:00,TMP,surface,-106.875,25.0393,295.57
2014-09-12 00:00:00,2014-09-12 00:00:00,TMP,surface,-105.938,25.0393,291.103
2014-09-12 00:00:00,2014-09-12 00:00:00,TMP,surface,-105,25.0393,288.892
2014-09-12 00:00:00,2014-09-12 00:00:00,TMP,surface,-104.063,25.0393,292.227
2014-09-12 00:00:00,2014-09-12 00:00:00,TMP,surface,-103.125,25.0393,294.175
2014-09-12 00:00:00,2014-09-12 00:00:00,TMP,surface,-102.188,25.0393,294.646
2014-09-12 00:00:00,2014-09-12 00:00:00,TMP,surface,-101.25,25.0393,292.626
2014-09-12 00:00:00,2014-09-12 00:00:00,TMP,surface,-100.313,25.0393,292.982
2014-09-12 00:00:00,2014-09-12 00:00:00,TMP,surface,-99.3754,25.0393,296.402
2014-09-12 00:00:00,2014-09-12 00:00:00,TMP,surface,-98.4379,25.0393,300.102
2014-09-12 00:00:00,2014-09-12 00:00:00,TMP,surface,-97.5004,25.0393,302.642
2014-09-12 00:00:00,2014-09-12 00:00:00,TMP,surface,-96.5629,25.0393,302.85
2014-09-12 00:00:00,2014-09-12 00:00:00,TMP,surface,-95.6254,25.0393,303.148
2014-09-12 00:00:00,2014-09-12 00:00:00,TMP,surface,-94.6879,25.0393,303.276
2014-09-12 00:00:00,2014-09-12 00:00:00,TMP,surface,-93.7504,25.0393,303.279
2014-09-12 00:00:00,2014-09-12 00:00:00,TMP,surface,-92.8129,25.0393,303.314
2014-09-12 00:00:00,2014-09-12 00:00:00,TMP,surface,-107.813,25.9842,296.604
2014-09-12 00:00:00,2014-09-12 00:00:00,TMP,surface,-106.875,25.9842,292.089
2014-09-12 00:00:00,2014-09-12 00:00:00,TMP,surface,-105.938,25.9842,289.519
2014-09-12 00:00:00,2014-09-12 00:00:00,TMP,surface,-105,25.9842,290.524
2014-09-12 00:00:00,2014-09-12 00:00:00,TMP,surface,-104.063,25.9842,295.116
2014-09-12 00:00:00,2014-09-12 00:00:00,TMP,surface,-103.125,25.9842,297.177
2014-09-12 00:00:00,2014-09-12 00:00:00,TMP,surface,-102.188,25.9842,296.742
2014-09-12 00:00:00,2014-09-12 00:00:00,TMP,surface,-101.25,25.9842,295.529
2014-09-12 00:00:00,2014-09-12 00:00:00,TMP,surface,-100.313,25.9842,295.484
2014-09-12 00:00:00,2014-09-12 00:00:00,TMP,surface,-99.3754,25.9842,298.428
2014-09-12 00:00:00,2014-09-12 00:00:00,TMP,surface,-98.4379,25.9842,300.706
2014-09-12 00:00:00,2014-09-12 00:00:00,TMP,surface,-97.5004,25.9842,301.372
2014-09-12 00:00:00,2014-09-12 00:00:00,TMP,surface,-96.5629,25.9842,302.246
2014-09-12 00:00:00,2014-09-12 00:00:00,TMP,surface,-95.6254,25.9842,302.658
2014-09-12 00:00:00,2014-09-12 00:00:00,TMP,surface,-94.6879,25.9842,302.959
2014-09-12 00:00:00,2014-09-12 00:00:00,TMP,surface,-93.7504,25.9842,303.03
2014-09-12 00:00:00,2014-09-12 00:00:00,TMP,surface,-92.8129,25.9842,303.11
2014-09-12 00:00:00,2014-09-12 00:00:00,TMP,surface,-107.813,26.929,292.639
2014-09-12 00:00:00,2014-09-12 00:00:00,TMP,surface,-106.875,26.929,289.622
2014-09-12 00:00:00,2014-09-12 00:00:00,TMP,surface,-105.938,26.929,290.53
2014-09-12 00:00:00,2014-09-12 00:00:00,TMP,surface,-105,26.929,293.954
2014-09-12 00:00:00,2014-09-12 00:00:00,TMP,surface,-104.063,26.929,296.546
2014-09-12 00:00:00,2014-09-12 00:00:00,TMP,surface,-103.125,26.929,296.898
2014-09-12 00:00:00,2014-09-12 00:00:00,TMP,surface,-102.188,26.929,296.386
2014-09-12 00:00:00,2014-09-12 00:00:00,TMP,surface,-101.25,26.929,296.662
2014-09-12 00:00:00,2014-09-12 00:00:00,TMP,surface,-100.313,26.929,297.89
2014-09-12 00:00:00,2014-09-12 00:00:00,TMP,surface,-99.3754,26.929,299.746
2014-09-12 00:00:00,2014-09-12 00:00:00,TMP,surface,-98.4379,26.929,299.785
2014-09-12 00:00:00,2014-09-12 00:00:00,TMP,surface,-97.5004,26.929,301.689
2014-09-12 00:00:00,2014-09-12 00:00:00,TMP,surface,-96.5629,26.929,302.115
2014-09-12 00:00:00,2014-09-12 00:00:00,TMP,surface,-95.6254,26.929,302.598
2014-09-12 00:00:00,2014-09-12 00:00:00,TMP,surface,-94.6879,26.929,302.889
2014-09-12 00:00:00,2014-09-12 00:00:00,TMP,surface,-93.7504,26.929,302.879
2014-09-12 00:00:00,2014-09-12 00:00:00,TMP,surface,-92.8129,26.929,302.895
2014-09-12 00:00:00,2014-09-12 00:00:00,TMP,surface,-107.813,27.8739,290.521
2014-09-12 00:00:00,2014-09-12 00:00:00,TMP,surface,-106.875,27.8739,289.001
2014-09-12 00:00:00,2014-09-12 00:00:00,TMP,surface,-105.938,27.8739,291.529
2014-09-12 00:00:00,2014-09-12 00:00:00,TMP,surface,-105,27.8739,295.142
2014-09-12 00:00:00,2014-09-12 00:00:00,TMP,surface,-104.063,27.8739,296.838
2014-09-12 00:00:00,2014-09-12 00:00:00,TMP,surface,-103.125,27.8739,295.714
2014-09-12 00:00:00,2014-09-12 00:00:00,TMP,surface,-102.188,27.8739,295.196
2014-09-12 00:00:00,2014-09-12 00:00:00,TMP,surface,-101.25,27.8739,296.646
2014-09-12 00:00:00,2014-09-12 00:00:00,TMP,surface,-100.313,27.8739,298.761
2014-09-12 00:00:00,2014-09-12 00:00:00,TMP,surface,-99.3754,27.8739,299.484
2014-09-12 00:00:00,2014-09-12 00:00:00,TMP,surface,-98.4379,27.8739,299.442
2014-09-12 00:00:00,2014-09-12 00:00:00,TMP,surface,-97.5004,27.8739,300.873
2014-09-12 00:00:00,2014-09-12 00:00:00,TMP,surface,-96.5629,27.8739,302.489
2014-09-12 00:00:00,2014-09-12 00:00:00,TMP,surface,-95.6254,27.8739,302.69
2014-09-12 00:00:00,2014-09-12 00:00:00,TMP,surface,-94.6879,27.8739,302.681
2014-09-12 00:00:00,2014-09-12 00:00:00,TMP,surface,-93.7504,27.8739,302.674
2014-09-12 00:00:00,2014-09-12 00:00:00,TMP,surface,-92.8129,27.8739,302.754
2014-09-12 00:00:00,2014-09-12 00:00:00,TMP,surface,-107.813,28.8188,289.343
2014-09-12 00:00:00,2014-09-12 00:00:00,TMP,surface,-106.875,28.8188,289.366
2014-09-12 00:00:00,2014-09-12 00:00:00,TMP,surface,-105.938,28.8188,292.886
2014-09-12 00:00:00,2014-09-12 00:00:00,TMP,surface,-105,28.8188,295.743
2014-09-12 00:00:00,2014-09-12 00:00:00,TMP,surface,-104.063,28.8188,295.548
2014-09-12 00:00:00,2014-09-12 00:00:00,TMP,surface,-103.125,28.8188,295.57
2014-09-12 00:00:00,2014-09-12 00:00:00,TMP,surface,-102.188,28.8188,295.286
2014-09-12 00:00:00,2014-09-12 00:00:00,TMP,surface,-101.25,28.8188,296.658
2014-09-12 00:00:00,2014-09-12 00:00:00,TMP,surface,-100.313,28.8188,297.999
2014-09-12 00:00:00,2014-09-12 00:00:00,TMP,surface,-99.3754,28.8188,298.284
2014-09-12 00:00:00,2014-09-12 00:00:00,TMP,surface,-98.4379,28.8188,298.562
2014-09-12 00:00:00,2014-09-12 00:00:00,TMP,surface,-97.5004,28.8188,299.036
2014-09-12 00:00:00,2014-09-12 00:00:00,TMP,surface,-96.5629,28.8188,299.385
2014-09-12 00:00:00,2014-09-12 00:00:00,TMP,surface,-95.6254,28.8188,300.671
2014-09-12 00:00:00,2014-09-12 00:00:00,TMP,surface,-94.6879,28.8188,302.543
2014-09-12 00:00:00,2014-09-12 00:00:00,TMP,surface,-93.7504,28.8188,302.671
2014-09-12 00:00:00,2014-09-12 00:00:00,TMP,surface,-92.8129,28.8188,302.86
2014-09-12 00:00:00,2014-09-12 00:00:00,TMP,surface,-107.813,29.7637,290.78
2014-09-12 00:00:00,2014-09-12 00:00:00,TMP,surface,-106.875,29.7637,291.73
2014-09-12 00:00:00,2014-09-12 00:00:00,TMP,surface,-105.938,29.7637,294.761
2014-09-12 00:00:00,2014-09-12 00:00:00,TMP,surface,-105,29.7637,295.417
2014-09-12 00:00:00,2014-09-12 00:00:00,TMP,surface,-104.063,29.7637,295.855
2014-09-12 00:00:00,2014-09-12 00:00:00,TMP,surface,-103.125,29.7637,296.278
2014-09-12 00:00:00,2014-09-12 00:00:00,TMP,surface,-102.188,29.7637,296.873
2014-09-12 00:00:00,2014-09-12 00:00:00,TMP,surface,-101.25,29.7637,297.09
2014-09-12 00:00:00,2014-09-12 00:00:00,TMP,surface,-100.313,29.7637,296.822
2014-09-12 00:00:00,2014-09-12 00:00:00,TMP,surface,-99.3754,29.7637,296.703
2014-09-12 00:00:00,2014-09-12 00:00:00,TMP,surface,-98.4379,29.7637,297.142
2014-09-12 00:00:00,2014-09-12 00:00:00,TMP,surface,-97.5004,29.7637,297.711
2014-09-12 00:00:00,2014-09-12 00:00:00,TMP,surface,-96.5629,29.7637,297.986
2014-09-12 00:00:00,2014-09-12 00:00:00,TMP,surface,-95.6254,29.7637,298.102
2014-09-12 00:00:00,2014-09-12 00:00:00,TMP,surface,-94.6879,29.7637,299.503
2014-09-12 00:00:00,2014-09-12 00:00:00,TMP,surface,-93.7504,29.7637,301.436
2014-09-12 00:00:00,2014-09-12 00:00:00,TMP,surface,-92.8129,29.7637,298.61
2014-09-12 00:00:00,2014-09-12 00:00:00,TMP,surface,-107.813,30.7085,293.967
2014-09-12 00:00:00,2014-09-12 00:00:00,TMP,surface,-106.875,30.7085,295.673
2014-09-12 00:00:00,2014-09-12 00:00:00,TMP,surface,-105.938,30.7085,295.708
2014-09-12 00:00:00,2014-09-12 00:00:00,TMP,surface,-105,30.7085,295.487
2014-09-12 00:00:00,2014-09-12 00:00:00,TMP,surface,-104.063,30.7085,294.687
2014-09-12 00:00:00,2014-09-12 00:00:00,TMP,surface,-103.125,30.7085,296.236
2014-09-12 00:00:00,2014-09-12 00:00:00,TMP,surface,-102.188,30.7085,297.014
2014-09-12 00:00:00,2014-09-12 00:00:00,TMP,surface,-101.25,30.7085,296.607
2014-09-12 00:00:00,2014-09-12 00:00:00,TMP,surface,-100.313,30.7085,295.913
2014-09-12 00:00:00,2014-09-12 00:00:00,TMP,surface,-99.3754,30.7085,295.839
2014-09-12 00:00:00,2014-09-12 00:00:00,TMP,surface,-98.4379,30.7085,296.418
2014-09-12 00:00:00,2014-09-12 00:00:00,TMP,surface,-97.5004,30.7085,297.065
2014-09-12 00:00:00,2014-09-12 00:00:00,TMP,surface,-96.5629,30.7085,297.487
2014-09-12 00:00:00,2014-09-12 00:00:00,TMP,surface,-95.6254,30.7085,297.57
2014-09-12 00:00:00,2014-09-12 00:00:00,TMP,surface,-94.6879,30.7085,297.359
2014-09-12 00:00:00,2014-09-12 00:00:00,TMP,surface,-93.7504,30.7085,297.222
2014-09-12 00:00:00,2014-09-12 00:00:00,TMP,surface,-92.8129,30.7085,296.809
2014-09-12 00:00:00,2014-09-12 00:00:00,TMP,surface,-107.813,31.6534,295.283
2014-09-12 00:00:00,2014-09-12 00:00:00,TMP,surface,-106.875,31.6534,296.31
2014-09-12 00:00:00,2014-09-12 00:00:00,TMP,surface,-105.938,31.6534,294.671
2014-09-12 00:00:00,2014-09-12 00:00:00,TMP,surface,-105,31.6534,294.524
2014-09-12 00:00:00,2014-09-12 00:00:00,TMP,surface,-104.063,31.6534,295.158
2014-09-12 00:00:00,2014-09-12 00:00:00,TMP,surface,-103.125,31.6534,295.756
2014-09-12 00:00:00,2014-09-12 00:00:00,TMP,surface,-102.188,31.6534,296.233
2014-09-12 00:00:00,2014-09-12 00:00:00,TMP,surface,-101.25,31.6534,295.906
2014-09-12 00:00:00,2014-09-12 00:00:00,TMP,surface,-100.313,31.6534,295.522
2014-09-12 00:00:00,2014-09-12 00:00:00,TMP,surface,-99.3754,31.6534,295.641
2014-09-12 00:00:00,2014-09-12 00:00:00,TMP,surface,-98.4379,31.6534,296.185
2014-09-12 00:00:00,2014-09-12 00:00:00,TMP,surface,-97.5004,31.6534,296.889
2014-09-12 00:00:00,2014-09-12 00:00:00,TMP,surface,-96.5629,31.6534,297.382
2014-09-12 00:00:00,2014-09-12 00:00:00,TMP,surface,-95.6254,31.6534,297.382
2014-09-12 00:00:00,2014-09-12 00:00:00,TMP,surface,-94.6879,31.6534,296.991
2014-09-12 00:00:00,2014-09-12 00:00:00,TMP,surface,-93.7504,31.6534,296.508
2014-09-12 00:00:00,2014-09-12 00:00:00,TMP,surface,-92.8129,31.6534,296.111
2014-09-12 00:00:00,2014-09-12 00:00:00,TMP,surface,-107.813,32.5983,292.697
2014-09-12 00:00:00,2014-09-12 00:00:00,TMP,surface,-106.875,32.5983,293.007
2014-09-12 00:00:00,2014-09-12 00:00:00,TMP,surface,-105.938,32.5983,293.686
2014-09-12 00:00:00,2014-09-12 00:00:00,TMP,surface,-105,32.5983,293.634
2014-09-12 00:00:00,2014-09-12 00:00:00,TMP,surface,-104.063,32.5983,294.556
2014-09-12 00:00:00,2014-09-12 00:00:00,TMP,surface,-103.125,32.5983,294.975
2014-09-12 00:00:00,2014-09-12 00:00:00,TMP,surface,-102.188,32.5983,294.886
2014-09-12 00:00:00,2014-09-12 00:00:00,TMP,surface,-101.25,32.5983,295.01
2014-09-12 00:00:00,2014-09-12 00:00:00,TMP,surface,-100.313,32.5983,295.487
2014-09-12 00:00:00,2014-09-12 00:00:00,TMP,surface,-99.3754,32.5983,295.762
2014-09-12 00:00:00,2014-09-12 00:00:00,TMP,surface,-98.4379,32.5983,295.82
2014-09-12 00:00:00,2014-09-12 00:00:00,TMP,surface,-97.5004,32.5983,296.006
2014-09-12 00:00:00,2014-09-12 00:00:00,TMP,surface,-96.5629,32.5983,296.37
2014-09-12 00:00:00,2014-09-12 00:00:00,TMP,surface,-95.6254,32.5983,296.607
2014-09-12 00:00:00,2014-09-12 00:00:00,TMP,surface,-94.6879,32.5983,296.444
2014-09-12 00:00:00,2014-09-12 00:00:00,TMP,surface,-93.7504,32.5983,295.945
2014-09-12 00:00:00,2014-09-12 00:00:00,TMP,surface,-92.8129,32.5983,295.586
2014-09-12 00:00:00,2014-09-12 00:00:00,TMP,surface,-107.813,33.5432,290.866
2014-09-12 00:00:00,2014-09-12 00:00:00,TMP,surface,-106.875,33.5432,291.948
2014-09-12 00:00:00,2014-09-12 00:00:00,TMP,surface,-105.938,33.5432,292.514
2014-09-12 00:00:00,2014-09-12 00:00:00,TMP,surface,-105,33.5432,293.132
2014-09-12 00:00:00,2014-09-12 00:00:00,TMP,surface,-104.063,33.5432,294.185
2014-09-12 00:00:00,2014-09-12 00:00:00,TMP,surface,-103.125,33.5432,293.98
2014-09-12 00:00:00,2014-09-12 00:00:00,TMP,surface,-102.188,33.5432,293.474
2014-09-12 00:00:00,2014-09-12 00:00:00,TMP,surface,-101.25,33.5432,293.82
2014-09-12 00:00:00,2014-09-12 00:00:00,TMP,surface,-100.313,33.5432,294.847
2014-09-12 00:00:00,2014-09-12 00:00:00,TMP,surface,-99.3754,33.5432,295.298
2014-09-12 00:00:00,2014-09-12 00:00:00,TMP,surface,-98.4379,33.5432,295.036
2014-09-12 00:00:00,2014-09-12 00:00:00,TMP,surface,-97.5004,33.5432,294.607
2014-09-12 00:00:00,2014-09-12 00:00:00,TMP,surface,-96.5629,33.5432,294.454
2014-09-12 00:00:00,2014-09-12 00:00:00,TMP,surface,-95.6254,33.5432,294.674
2014-09-12 00:00:00,2014-09-12 00:00:00,TMP,surface,-94.6879,33.5432,294.86
2014-09-12 00:00:00,2014-09-12 00:00:00,TMP,surface,-93.7504,33.5432,294.585
2014-09-12 00:00:00,2014-09-12 00:00:00,TMP,surface,-92.8129,33.5432,294.399
2014-09-12 00:00:00,2014-09-12 00:00:00,TMP,surface,-107.813,34.4881,289.983
2014-09-12 00:00:00,2014-09-12 00:00:00,TMP,surface,-106.875,34.4881,291.375
2014-09-12 00:00:00,2014-09-12 00:00:00,TMP,surface,-105.938,34.4881,291.974
2014-09-12 00:00:00,2014-09-12 00:00:00,TMP,surface,-105,34.4881,292.969
2014-09-12 00:00:00,2014-09-12 00:00:00,TMP,surface,-104.063,34.4881,293.567
2014-09-12 00:00:00,2014-09-12 00:00:00,TMP,surface,-103.125,34.4881,293.497
2014-09-12 00:00:00,2014-09-12 00:00:00,TMP,surface,-102.188,34.4881,293.151
2014-09-12 00:00:00,2014-09-12 00:00:00,TMP,surface,-101.25,34.4881,293.359
2014-09-12 00:00:00,2014-09-12 00:00:00,TMP,surface,-100.313,34.4881,293.913
2014-09-12 00:00:00,2014-09-12 00:00:00,TMP,surface,-99.3754,34.4881,294.111
2014-09-12 00:00:00,2014-09-12 00:00:00,TMP,surface,-98.4379,34.4881,293.705
2014-09-12 00:00:00,2014-09-12 00:00:00,TMP,surface,-97.5004,34.4881,293.122
2014-09-12 00:00:00,2014-09-12 00:00:00,TMP,surface,-96.5629,34.4881,293.081
2014-09-12 00:00:00,2014-09-12 00:00:00,TMP,surface,-95.6254,34.4881,293.34
2014-09-12 00:00:00,2014-09-12 00:00:00,TMP,surface,-94.6879,34.4881,293.183
2014-09-12 00:00:00,2014-09-12 00:00:00,TMP,surface,-93.7504,34.4881,292.966
2014-09-12 00:00:00,2014-09-12 00:00:00,TMP,surface,-92.8129,34.4881,293.023
2014-09-12 00:00:00,2014-09-12 00:00:00,TMP,surface,-107.813,35.4329,290.089
2014-09-12 00:00:00,2014-09-12 00:00:00,TMP,surface,-106.875,35.4329,290.652
2014-09-12 00:00:00,2014-09-12 00:00:00,TMP,surface,-105.938,35.4329,290.479
2014-09-12 00:00:00,2014-09-12 00:00:00,TMP,surface,-105,35.4329,291.01
2014-09-12 00:00:00,2014-09-12 00:00:00,TMP,surface,-104.063,35.4329,292.115
2014-09-12 00:00:00,2014-09-12 00:00:00,TMP,surface,-103.125,35.4329,293.004
2014-09-12 00:00:00,2014-09-12 00:00:00,TMP,surface,-102.188,35.4329,293.308
2014-09-12 00:00:00,2014-09-12 00:00:00,TMP,surface,-101.25,35.4329,293.314
2014-09-12 00:00:00,2014-09-12 00:00:00,TMP,surface,-100.313,35.4329,293.231
2014-09-12 00:00:00,2014-09-12 00:00:00,TMP,surface,-99.3754,35.4329,293.295
2014-09-12 00:00:00,2014-09-12 00:00:00,TMP,surface,-98.4379,35.4329,293.135
2014-09-12 00:00:00,2014-09-12 00:00:00,TMP,surface,-97.5004,35.4329,292.726
2014-09-12 00:00:00,2014-09-12 00:00:00,TMP,surface,-96.5629,35.4329,292.406
2014-09-12 00:00:00,2014-09-12 00:00:00,TMP,surface,-95.6254,35.4329,292.393
2014-09-12 00:00:00,2014-09-12 00:00:00,TMP,surface,-94.6879,35.4329,292.441
2014-09-12 00:00:00,2014-09-12 00:00:00,TMP,surface,-93.7504,35.4329,292.137
2014-09-12 00:00:00,2014-09-12 00:00:00,TMP,surface,-92.8129,35.4329,291.932
2014-09-12 00:00:00,2014-09-12 00:00:00,TMP,surface,-107.813,36.3778,289.346
2014-09-12 00:00:00,2014-09-12 00:00:00,TMP,surface,-106.875,36.3778,287.391
2014-09-12 00:00:00,2014-09-12 00:00:00,TMP,surface,-105.938,36.3778,288.111
2014-09-12 00:00:00,2014-09-12 00:00:00,TMP,surface,-105,36.3778,288.118
2014-09-12 00:00:00,2014-09-12 00:00:00,TMP,surface,-104.063,36.3778,289.746
2014-09-12 00:00:00,2014-09-12 00:00:00,TMP,surface,-103.125,36.3778,291.039
2014-09-12 00:00:00,2014-09-12 00:00:00,TMP,surface,-102.188,36.3778,292.105
2014-09-12 00:00:00,2014-09-12 00:00:00,TMP,surface,-101.25,36.3778,292.521
2014-09-12 00:00:00,2014-09-12 00:00:00,TMP,surface,-100.313,36.3778,292.649
2014-09-12 00:00:00,2014-09-12 00:00:00,TMP,surface,-99.3754,36.3778,292.662
2014-09-12 00:00:00,2014-09-12 00:00:00,TMP,surface,-98.4379,36.3778,292.61
2014-09-12 00:00:00,2014-09-12 00:00:00,TMP,surface,-97.5004,36.3778,292.297
2014-09-12 00:00:00,2014-09-12 00:00:00,TMP,surface,-96.5629,36.3778,291.871
2014-09-12 00:00:00,2014-09-12 00:00:00,TMP,surface,-95.6254,36.3778,291.638
2014-09-12 00:00:00,2014-09-12 00:00:00,TMP,surface,-94.6879,36.3778,291.375
2014-09-12 00:00:00,2014-09-12 00:00:00,TMP,surface,-93.7504,36.3778,290.873
2014-09-12 00:00:00,2014-09-12 00:00:00,TMP,surface,-92.8129,36.3778,290.569
2014-09-12 00:00:00,2014-09-12 00:00:00,PRATE,surface,-107.813,25.0393,2.31e-05
2014-09-12 00:00:00,2014-09-12 00:00:00,PRATE,surface,-106.875,25.0393,0.0001387
2014-09-12 00:00:00,2014-09-12 00:00:00,PRATE,surface,-105.938,25.0393,0.0001029
2014-09-12 00:00:00,2014-09-12 00:00:00,PRATE,surface,-105,25.0393,4.85e-05
2014-09-12 00:00:00,2014-09-12 00:00:00,PRATE,surface,-104.063,25.0393,2.96e-05
2014-09-12 00:00:00,2014-09-12 00:00:00,PRATE,surface,-103.125,25.0393,1.73e-05
2014-09-12 00:00:00,2014-09-12 00:00:00,PRATE,surface,-102.188,25.0393,2.26e-05
2014-09-12 00:00:00,2014-09-12 00:00:00,PRATE,surface,-101.25,25.0393,4.17e-05
2014-09-12 00:00:00,2014-09-12 00:00:00,PRATE,surface,-100.313,25.0393,8.56e-05
2014-09-12 00:00:00,2014-09-12 00:00:00,PRATE,surface,-99.3754,25.0393,6.75e-05
2014-09-12 00:00:00,2014-09-12 00:00:00,PRATE,surface,-98.4379,25.0393,5.43e-05
2014-09-12 00:00:00,2014-09-12 00:00:00,PRATE,surface,-97.5004,25.0393,7.36e-05
2014-09-12 00:00:00,2014-09-12 00:00:00,PRATE,surface,-96.5629,25.0393,9.67e-05
2014-09-12 00:00:00,2014-09-12 00:00:00,PRATE,surface,-95.6254,25.0393,8.59e-05
2014-09-12 00:00:00,2014-09-12 00:00:00,PRATE,surface,-94.6879,25.0393,7.21e-05
2014-09-12 00:00:00,2014-09-12 00:00:00,PRATE,surface,-93.7504,25.0393,9.86e-05
2014-09-12 00:00:00,2014-09-12 00:00:00,PRATE,surface,-92.8129,25.0393,9.2e-05
2014-09-12 00:00:00,2014-09-12 00:00:00,PRATE,surface,-107.813,25.9842,6.86e-05
2014-09-12 00:00:00,2014-09-12 00:00:00,PRATE,surface,-106.875,25.9842,0.0001271
2014-09-12 00:00:00,2014-09-12 00:00:00,PRATE,surface,-105.938,25.9842,5.57e-05
2014-09-12 00:00:00,2014-09-12 00:00:00,PRATE,surface,-105,25.9842,3.76e-05
2014-09-12 00:00:00,2014-09-12 00:00:00,PRATE,surface,-104.063,25.9842,1.32e-05
2014-09-12 00:00:00,2014-09-12 00:00:00,PRATE,surface,-103.125,25.9842,9.7e-06
2014-09-12 00:00:00,2014-09-12 00:00:00,PRATE,surface,-102.188,25.9842,1.62e-05
2014-09-12 00:00:00,2014-09-12 00:00:00,PRATE,surface,-101.25,25.9842,3.92e-05
2014-09-12 00:00:00,2014-09-12 00:00:00,PRATE,surface,-100.313,25.9842,8.73e-05
2014-09-12 00:00:00,2014-09-12 00:00:00,PRATE,surface,-99.3754,25.9842,6.93e-05
2014-09-12 00:00:00,2014-09-12 00:00:00,PRATE,surface,-98.4379,25.9842,8.39e-05
2014-09-12 00:00:00,2014-09-12 00:00:00,PRATE,surface,-97.5004,25.9842,0.0001181
2014-09-12 00:00:00,2014-09-12 00:00:00,PRATE,surface,-96.5629,25.9842,0.000144
2014-09-12 00:00:00,2014-09-12 00:00:00,PRATE,surface,-95.6254,25.9842,0.0001273
2014-09-12 00:00:00,2014-09-12 00:00:00,PRATE,surface,-94.6879,25.9842,6.54e-05
2014-09-12 00:00:00,2014-09-12 00:00:00,PRATE,surface,-93.7504,25.9842,6.69e-05
2014-09-12 00:00:00,2014-09-12 00:00:00,PRATE,surface,-92.8129,25.9842,5.79e-05
2014-09-12 00:00:00,2014-09-12 00:00:00,PRATE,surface,-107.813,26.929,0.000134
2014-09-12 00:00:00,2014-09-12 00:00:00,PRATE,surface,-106.875,26.929,5.85e-05
2014-09-12 00:00:00,2014-09-12 00:00:00,PRATE,surface,-105.938,26.929,3.66e-05
2014-09-12 00:00:00,2014-09-12 00:00:00,PRATE,surface,-105,26.929,3.02e-05
2014-09-12 00:00:00,2014-09-12 00:00:00,PRATE,surface,-104.063,26.929,1.48e-05
2014-09-12 00:00:00,2014-09-12 00:00:00,PRATE,surface,-103.125,26.929,1.48e-05
2014-09-12 00:00:00,2014-09-12 00:00:00,PRATE,surface,-102.188,26.929,2.22e-05
2014-09-12 00:00:00,2014-09-12 00:00:00,PRATE,surface,-101.25,26.929,5.68e-05
2014-09-12 00:00:00,2014-09-12 00:00:00,PRATE,surface,-100.313,26.929,7.49e-05
2014-09-12 00:00:00,2014-09-12 00:00:00,PRATE,surface,-99.3754,26.929,9.79e-05
2014-09-12 00:00:00,2014-09-12 00:00:00,PRATE,surface,-98.4379,26.929,0.0001369
2014-09-12 00:00:00,2014-09-12 00:00:00,PRATE,surface,-97.5004,26.929,0.000218
2014-09-12 00:00:00,2014-09-12 00:00:00,PRATE,surface,-96.5629,26.929,0.0001779
2014-09-12 00:00:00,2014-09-12 00:00:00,PRATE,surface,-95.6254,26.929,0.0001382
2014-09-12 00:00:00,2014-09-12 00:00:00,PRATE,surface,-94.6879,26.929,7.54e-05
2014-09-12 00:00:00,2014-09-12 00:00:00,PRATE,surface,-93.7504,26.929,7.14e-05
2014-09-12 00:00:00,2014-09-12 00:00:00,PRATE,surface,-92.8129,26.929,5.39e-05
2014-09-12 00:00:00,2014-09-12 00:00:00,PRATE,surface,-107.813,27.8739,0.0001211
2014-09-12 00:00:00,2014-09-12 00:00:00,PRATE,surface,-106.875,27.8739,4.22e-05
2014-09-12 00:00:00,2014-09-12 00:00:00,PRATE,surface,-105.938,27.8739,1.73e-05
2014-09-12 00:00:00,2014-09-12 00:00:00,PRATE,surface,-105,27.8739,1.5e-05
2014-09-12 00:00:00,2014-09-12 00:00:00,PRATE,surface,-104.063,27.8739,1.94e-05
2014-09-12 00:00:00,2014-09-12 00:00:00,PRATE,surface,-103.125,27.8739,3.29e-05
2014-09-12 00:00:00,2014-09-12 00:00:00,PRATE,surface,-102.188,27.8739,5.85e-05
2014-09-12 00:00:00,2014-09-12 00:00:00,PRATE,surface,-101.25,27.8739,7.55e-05
2014-09-12 00:00:00,2014-09-12 00:00:00,PRATE,surface,-100.313,27.8739,7.87e-05
2014-09-12 00:00:00,2014-09-12 00:00:00,PRATE,surface,-99.3754,27.8739,9.45e-05
2014-09-12 00:00:00,2014-09-12 00:00:00,PRATE,surface,-98.4379,27.8739,0.0001118
2014-09-12 00:00:00,2014-09-12 00:00:00,PRATE,surface,-97.5004,27.8739,0.000122
2014-09-12 00:00:00,2014-09-12 00:00:00,PRATE,surface,-96.5629,27.8739,0.0001051
2014-09-12 00:00:00,2014-09-12 00:00:00,PRATE,surface,-95.6254,27.8739,7.58e-05
2014-09-12 00:00:00,2014-09-12 00:00:00,PRATE,surface,-94.6879,27.8739,7.63e-05
2014-09-12 00:00:00,2014-09-12 00:00:00,PRATE,surface,-93.7504,27.8739,8.24e-05
2014-09-12 00:00:00,2014-09-12 00:00:00,PRATE,surface,-92.8129,27.8739,7.53e-05
2014-09-12 00:00:00,2014-09-12 00:00:00,PRATE,surface,-107.813,28.8188,9.29e-05
2014-09-12 00:00:00,2014-09-12 00:00:00,PRATE,surface,-106.875,28.8188,4.29e-05
2014-09-12 00:00:00,2014-09-12 00:00:00,PRATE,surface,-105.938,28.8188,1.95e-05
2014-09-12 00:00:00,2014-09-12 00:00:00,PRATE,surface,-105,28.8188,1.12e-05
2014-09-12 00:00:00,2014-09-12 00:00:00,PRATE,surface,-104.063,28.8188,2.26e-05
2014-09-12 00:00:00,2014-09-12 00:00:00,PRATE,surface,-103.125,28.8188,3.52e-05
2014-09-12 00:00:00,2014-09-12 00:00:00,PRATE,surface,-102.188,28.8188,3.82e-05
2014-09-12 00:00:00,2014-09-12 00:00:00,PRATE,surface,-101.25,28.8188,4.24e-05
2014-09-12 00:00:00,2014-09-12 00:00:00,PRATE,surface,-100.313,28.8188,6.67e-05
2014-09-12 00:00:00,2014-09-12 00:00:00,PRATE,surface,-99.3754,28.8188,8.25e-05
2014-09-12 00:00:00,2014-09-12 00:00:00,PRATE,surface,-98.4379,28.8188,6.39e-05
2014-09-12 00:00:00,2014-09-12 00:00:00,PRATE,surface,-97.5004,28.8188,4.21e-05
2014-09-12 00:00:00,2014-09-12 00:00:00,PRATE,surface,-96.5629,28.8188,4.87e-05
2014-09-12 00:00:00,2014-09-12 00:00:00,PRATE,surface,-95.6254,28.8188,6.37e-05
2014-09-12 00:00:00,2014-09-12 00:00:00,PRATE,surface,-94.6879,28.8188,7.13e-05
2014-09-12 00:00:00,2014-09-12 00:00:00,PRATE,surface,-93.7504,28.8188,8.26e-05
2014-09-12 00:00:00,2014-09-12 00:00:00,PRATE,surface,-92.8129,28.8188,6.17e-05
2014-09-12 00:00:00,2014-09-12 00:00:00,PRATE,surface,-107.813,29.7637,4.01e-05
2014-09-12 00:00:00,2014-09-12 00:00:00,PRATE,surface,-106.875,29.7637,2.41e-05
2014-09-12 00:00:00,2014-09-12 00:00:00,PRATE,surface,-105.938,29.7637,1.81e-05
2014-09-12 00:00:00,2014-09-12 00:00:00,PRATE,surface,-105,29.7637,1.25e-05
2014-09-12 00:00:00,2014-09-12 00:00:00,PRATE,surface,-104.063,29.7637,1.32e-05
2014-09-12 00:00:00,2014-09-12 00:00:00,PRATE,surface,-103.125,29.7637,1.85e-05
2014-09-12 00:00:00,2014-09-12 00:00:00,PRATE,surface,-102.188,29.7637,2.7e-05
2014-09-12 00:00:00,2014-09-12 00:00:00,PRATE,surface,-101.25,29.7637,3.16e-05
2014-09-12 00:00:00,2014-09-12 00:00:00,PRATE,surface,-100.313,29.7637,5.34e-05
2014-09-12 00:00:00,2014-09-12 00:00:00,PRATE,surface,-99.3754,29.7637,5.11e-05
2014-09-12 00:00:00,2014-09-12 00:00:00,PRATE,surface,-98.4379,29.7637,3.46e-05
2014-09-12 00:00:00,2014-09-12 00:00:00,PRATE,surface,-97.5004,29.7637,2.92e-05
2014-09-12 00:00:00,2014-09-12 00:00:00,PRATE,surface,-96.5629,29.7637,4.14e-05
2014-09-12 00:00:00,2014-09-12 00:00:00,PRATE,surface,-95.6254,29.7637,5.78e-05
2014-09-12 00:00:00,2014-09-12 00:00:00,PRATE,surface,-94.6879,29.7637,5.84e-05
2014-09-12 00:00:00,2014-09-12 00:00:00,PRATE,surface,-93.7504,29.7637,4.8e-05
2014-09-12 00:00:00,2014-09-12 00:00:00,PRATE,surface,-92.8129,29.7637,4.99e-05
2014-09-12 00:00:00,2014-09-12 00:00:00,PRATE,surface,-107.813,30.7085,9.8e-06
2014-09-12 00:00:00,2014-09-12 00:00:00,PRATE,surface,-106.875,30.7085,7e-06
2014-09-12 00:00:00,2014-09-12 00:00:00,PRATE,surface,-105.938,30.7085,1.48e-05
2014-09-12 00:00:00,2014-09-12 00:00:00,PRATE,surface,-105,30.7085,2.29e-05
2014-09-12 00:00:00,2014-09-12 00:00:00,PRATE,surface,-104.063,30.7085,1.58e-05
2014-09-12 00:00:00,2014-09-12 00:00:00,PRATE,surface,-103.125,30.7085,1.44e-05
2014-09-12 00:00:00,2014-09-12 00:00:00,PRATE,surface,-102.188,30.7085,1.46e-05
2014-09-12 00:00:00,2014-09-12 00:00:00,PRATE,surface,-101.25,30.7085,2.28e-05
2014-09-12 00:00:00,2014-09-12 00:00:00,PRATE,surface,-100.313,30.7085,5.01e-05
2014-09-12 00:00:00,2014-09-12 00:00:00,PRATE,surface,-99.3754,30.7085,5.59e-05
2014-09-12 00:00:00,2014-09-12 00:00:00,PRATE,surface,-98.4379,30.7085,4.09e-05
2014-09-12 00:00:00,2014-09-12 00:00:00,PRATE,surface,-97.5004,30.7085,3.08e-05
2014-09-12 00:00:00,2014-09-12 00:00:00,PRATE,surface,-96.5629,30.7085,3.6e-05
2014-09-12 00:00:00,2014-09-12 00:00:00,PRATE,surface,-95.6254,30.7085,4.13e-05
2014-09-12 00:00:00,2014-09-12 00:00:00,PRATE,surface,-94.6879,30.7085,3.74e-05
2014-09-12 00:00:00,2014-09-12 00:00:00,PRATE,surface,-93.7504,30.7085,3.93e-05
2014-09-12 00:00:00,2014-09-12 00:00:00,PRATE,surface,-92.8129,30.7085,4.47e-05
2014-09-12 00:00:00,2014-09-12 00:00:00,PRATE,surface,-107.813,31.6534,6.8e-06
2014-09-12 00:00:00,2014-09-12 00:00:00,PRATE,surface,-106.875,31.6534,6e-06
2014-09-12 00:00:00,2014-09-12 00:00:00,PRATE,surface,-105.938,31.6534,1.5e-05
2014-09-12 00:00:00,2014-09-12 00:00:00,PRATE,surface,-105,31.6534,2.82e-05
2014-09-12 00:00:00,2014-09-12 00:00:00,PRATE,surface,-104.063,31.6534,2.98e-05
2014-09-12 00:00:00,2014-09-12 00:00:00,PRATE,surface,-103.125,31.6534,2.26e-05
2014-09-12 00:00:00,2014-09-12 00:00:00,PRATE,surface,-102.188,31.6534,1.65e-05
2014-09-12 00:00:00,2014-09-12 00:00:00,PRATE,surface,-101.25,31.6534,2.06e-05
2014-09-12 00:00:00,2014-09-12 00:00:00,PRATE,surface,-100.313,31.6534,3.12e-05
2014-09-12 00:00:00,2014-09-12 00:00:00,PRATE,surface,-99.3754,31.6534,3.68e-05
2014-09-12 00:00:00,2014-09-12 00:00:00,PRATE,surface,-98.4379,31.6534,3.92e-05
2014-09-12 00:00:00,2014-09-12 00:00:00,PRATE,surface,-97.5004,31.6534,3.81e-05
2014-09-12 00:00:00,2014-09-12 00:00:00,PRATE,surface,-96.5629,31.6534,3.66e-05
2014-09-12 00:00:00,2014-09-12 00:00:00,PRATE,surface,-95.6254,31.6534,4.08e-05
2014-09-12 00:00:00,2014-09-12 00:00:00,PRATE,surface,-94.6879,31.6534,4.48e-05
2014-09-12 00:00:00,2014-09-12 00:00:00,PRATE,surface,-93.7504,31.6534,4.04e-05
2014-09-12 00:00:00,2014-09-12 00:00:00,PRATE,surface,-92.8129,31.6534,3.74e-05
2014-09-12 00:00:00,2014-09-12 00:00:00,PRATE,surface,-107.813,32.5983,2.57e-05
2014-09-12 00:00:00,2014-09-12 00:00:00,PRATE,surface,-106.875,32.5983,1.26e-05
2014-09-12 00:00:00,2014-09-12 00:00:00,PRATE,surface,-105.938,32.5983,1.39e-05
2014-09-12 00:00:00,2014-09-12 00:00:00,PRATE,surface,-105,32.5983,2.04e-05
2014-09-12 00:00:00,2014-09-12 00:00:00,PRATE,surface,-104.063,32.5983,4.61e-05
2014-09-12 00:00:00,2014-09-12 00:00:00,PRATE,surface,-103.125,32.5983,4.63e-05
2014-09-12 00:00:00,2014-09-12 00:00:00,PRATE,surface,-102.188,32.5983,3.84e-05
2014-09-12 00:00:00,2014-09-12 00:00:00,PRATE,surface,-101.25,32.5983,3.43e-05
2014-09-12 00:00:00,2014-09-12 00:00:00,PRATE,surface,-100.313,32.5983,2.72e-05
2014-09-12 00:00:00,2014-09-12 00:00:00,PRATE,surface,-99.3754,32.5983,2.27e-05
2014-09-12 00:00:00,2014-09-12 00:00:00,PRATE,surface,-98.4379,32.5983,2.79e-05
2014-09-12 00:00:00,2014-09-12 00:00:00,PRATE,surface,-97.5004,32.5983,3.29e-05
2014-09-12 00:00:00,2014-09-12 00:00:00,PRATE,surface,-96.5629,32.5983,3.43e-05
2014-09-12 00:00:00,2014-09-12 00:00:00,PRATE,surface,-95.6254,32.5983,3.65e-05
2014-09-12 00:00:00,2014-09-12 00:00:00,PRATE,surface,-94.6879,32.5983,4.05e-05
2014-09-12 00:00:00,2014-09-12 00:00:00,PRATE,surface,-93.7504,32.5983,4.66e-05
2014-09-12 00:00:00,2014-09-12 00:00:00,PRATE,surface,-92.8129,32.5983,4.2e-05
2014-09-12 00:00:00,2014-09-12 00:00:00,PRATE,surface,-107.813,33.5432,5.11e-05
2014-09-12 00:00:00,2014-09-12 00:00:00,PRATE,surface,-106.875,33.5432,2.75e-05
2014-09-12 00:00:00,2014-09-12 00:00:00,PRATE,surface,-105.938,33.5432,1.38e-05
2014-09-12 00:00:00,2014-09-12 00:00:00,PRATE,surface,-105,33.5432,8.6e-06
2014-09-12 00:00:00,2014-09-12 00:00:00,PRATE,surface,-104.063,33.5432,2.18e-05
2014-09-12 00:00:00,2014-09-12 00:00:00,PRATE,surface,-103.125,33.5432,3.57e-05
2014-09-12 00:00:00,2014-09-12 00:00:00,PRATE,surface,-102.188,33.5432,4.85e-05
2014-09-12 00:00:00,2014-09-12 00:00:00,PRATE,surface,-101.25,33.5432,4.74e-05
2014-09-12 00:00:00,2014-09-12 00:00:00,PRATE,surface,-100.313,33.5432,2.97e-05
2014-09-12 00:00:00,2014-09-12 00:00:00,PRATE,surface,-99.3754,33.5432,2e-05
2014-09-12 00:00:00,2014-09-12 00:00:00,PRATE,surface,-98.4379,33.5432,1.85e-05
2014-09-12 00:00:00,2014-09-12 00:00:00,PRATE,surface,-97.5004,33.5432,2.48e-05
2014-09-12 00:00:00,2014-09-12 00:00:00,PRATE,surface,-96.5629,33.5432,3.34e-05
2014-09-12 00:00:00,2014-09-12 00:00:00,PRATE,surface,-95.6254,33.5432,3.51e-05
2014-09-12 00:00:00,2014-09-12 00:00:00,PRATE,surface,-94.6879,33.5432,3.67e-05
2014-09-12 00:00:00,2014-09-12 00:00:00,PRATE,surface,-93.7504,33.5432,4.47e-05
2014-09-12 00:00:00,2014-09-12 00:00:00,PRATE,surface,-92.8129,33.5432,4.5e-05
2014-09-12 00:00:00,2014-09-12 00:00:00,PRATE,surface,-107.813,34.4881,2.54e-05
2014-09-12 00:00:00,2014-09-12 00:00:00,PRATE,surface,-106.875,34.4881,1.87e-05
2014-09-12 00:00:00,2014-09-12 00:00:00,PRATE,surface,-105.938,34.4881,1.49e-05
2014-09-12 00:00:00,2014-09-12 00:00:00,PRATE,surface,-105,34.4881,9.9e-06
2014-09-12 00:00:00,2014-09-12 00:00:00,PRATE,surface,-104.063,34.4881,9.9e-06
2014-09-12 00:00:00,2014-09-12 00:00:00,PRATE,surface,-103.125,34.4881,7.4e-06
2014-09-12 00:00:00,2014-09-12 00:00:00,PRATE,surface,-102.188,34.4881,1.43e-05
2014-09-12 00:00:00,2014-09-12 00:00:00,PRATE,surface,-101.25,34.4881,2.38e-05
2014-09-12 00:00:00,2014-09-12 00:00:00,PRATE,surface,-100.313,34.4881,2.56e-05
2014-09-12 00:00:00,2014-09-12 00:00:00,PRATE,surface,-99.3754,34.4881,2.22e-05
2014-09-12 00:00:00,2014-09-12 00:00:00,PRATE,surface,-98.4379,34.4881,2.85e-05
2014-09-12 00:00:00,2014-09-12 00:00:00,PRATE,surface,-97.5004,34.4881,3.73e-05
2014-09-12 00:00:00,2014-09-12 00:00:00,PRATE,surface,-96.5629,34.4881,3.48e-05
2014-09-12 00:00:00,2014-09-12 00:00:00,PRATE,surface,-95.6254,34.4881,2.65e-05
2014-09-12 00:00:00,2014-09-12 00:00:00,PRATE,surface,-94.6879,34.4881,2.36e-05
2014-09-12 00:00:00,2014-09-12 00:00:00,PRATE,surface,-93.7504,34.4881,2.61e-05
2014-09-12 00:00:00,2014-09-12 00:00:00,PRATE,surface,-92.8129,34.4881,3.32e-05
2014-09-12 00:00:00,2014-09-12 00:00:00,PRATE,surface,-107.813,35.4329,1.16e-05
2014-09-12 00:00:00,2014-09-12 00:00:00,PRATE,surface,-106.875,35.4329,1.46e-05
2014-09-12 00:00:00,2014-09-12 00:00:00,PRATE,surface,-105.938,35.4329,1.54e-05
2014-09-12 00:00:00,2014-09-12 00:00:00,PRATE,surface,-105,35.4329,1.61e-05
2014-09-12 00:00:00,2014-09-12 00:00:00,PRATE,surface,-104.063,35.4329,2.3e-05
2014-09-12 00:00:00,2014-09-12 00:00:00,PRATE,surface,-103.125,35.4329,1.08e-05
2014-09-12 00:00:00,2014-09-12 00:00:00,PRATE,surface,-102.188,35.4329,6.6e-06
2014-09-12 00:00:00,2014-09-12 00:00:00,PRATE,surface,-101.25,35.4329,1.29e-05
2014-09-12 00:00:00,2014-09-12 00:00:00,PRATE,surface,-100.313,35.4329,1.76e-05
2014-09-12 00:00:00,2014-09-12 00:00:00,PRATE,surface,-99.3754,35.4329,2.14e-05
2014-09-12 00:00:00,2014-09-12 00:00:00,PRATE,surface,-98.4379,35.4329,2.52e-05
2014-09-12 00:00:00,2014-09-12 00:00:00,PRATE,surface,-97.5004,35.4329,2.76e-05
2014-09-12 00:00:00,2014-09-12 00:00:00,PRATE,surface,-96.5629,35.4329,2.71e-05
2014-09-12 00:00:00,2014-09-12 00:00:00,PRATE,surface,-95.6254,35.4329,2.33e-05
2014-09-12 00:00:00,2014-09-12 00:00:00,PRATE,surface,-94.6879,35.4329,2.03e-05
2014-09-12 00:00:00,2014-09-12 00:00:00,PRATE,surface,-93.7504,35.4329,2.14e-05
2014-09-12 00:00:00,2014-09-12 00:00:00,PRATE,surface,-92.8129,35.4329,2.32e-05
2014-09-12 00:00:00,2014-09-12 00:00:00,PRATE,surface,-107.813,36.3778,1.14e-05
2014-09-12 00:00:00,2014-09-12 00:00:00,PRATE,surface,-106.875,36.3778,1.24e-05
2014-09-12 00:00:00,2014-09-12 00:00:00,PRATE,surface,-105.938,36.3778,1.43e-05
2014-09-12 00:00:00,2014-09-12 00:00:00,PRATE,surface,-105,36.3778,1.2e-05
2014-09-12 00:00:00,2014-09-12 00:00:00,PRATE,surface,-104.063,36.3778,2.48e-05
2014-09-12 00:00:00,2014-09-12 00:00:00,PRATE,surface,-103.125,36.3778,2.1e-05
2014-09-12 00:00:00,2014-09-12 00:00:00,PRATE,surface,-102.188,36.3778,1.96e-05
2014-09-12 00:00:00,2014-09-12 00:00:00,PRATE,surface,-101.25,36.3778,2.4e-05
2014-09-12 00:00:00,2014-09-12 00:00:00,PRATE,surface,-100.313,36.3778,3.05e-05
2014-09-12 00:00:00,2014-09-12 00:00:00,PRATE,surface,-99.3754,36.3778,3.67e-05
2014-09-12 00:00:00,2014-09-12 00:00:00,PRATE,surface,-98.4379,36.3778,3.6e-05
2014-09-12 00:00:00,2014-09-12 00:00:00,PRATE,surface,-97.5004,36.3778,3.38e-05
2014-09-12 00:00:00,2014-09-12 00:00:00,PRATE,surface,-96.5629,36.3778,3.04e-05
2014-09-12 00:00:00,2014-09-12 00:00:00,PRATE,surface,-95.6254,36.3778,2.5e-05
2014-09-12 00:00:00,2014-09-12 00:00:00,PRATE,surface,-94.6879,36.3778,2.36e-05
2014-09-12 00:00:00,2014-09-12 00:00:00,PRATE,surface,-93.7504,36.3778,2.4e-05
2014-09-12 00:00:00,2014-09-12 00:00:00,PRATE,surface,-92.8129,36.3778,2.41e-05
