2014-07-09 00:00:00,2014-07-09 00:00:00,TMP,surface,-107.813,25.0393,294.912
2014-07-09 00:00:00,2014-07-09 00:00:00,TMP,surface,-106.875,25.0393,288.763
2014-07-09 00:00:00,2014-07-09 00:00:00,TMP,surface,-105.938,25.0393,284.014
2014-07-09 00:00:00,2014-07-09 00:00:00,TMP,surface,-105,25.0393,284.42
2014-07-09 00:00:00,2014-07-09 00:00:00,TMP,surface,-104.063,25.0393,289.723
2014-07-09 00:00:00,2014-07-09 00:00:00,TMP,surface,-103.125,25.0393,292.161
2014-07-09 00:00:00,2014-07-09 00:00:00,TMP,surface,-102.188,25.0393,291.163
2014-07-09 00:00:00,2014-07-09 00:00:00,TMP,surface,-101.25,25.0393,289.904
2014-07-09 00:00:00,2014-07-09 00:00:00,TMP,surface,-100.313,25.0393,290.195
2014-07-09 00:00:00,2014-07-09 00:00:00,TMP,surface,-99.3754,25.0393,292.856
2014-07-09 00:00:00,2014-07-09 00:00:00,TMP,surface,-98.4379,25.0393,295.59
2014-07-09 00:00:00,2014-07-09 00:00:00,TMP,surface,-97.5004,25.0393,295.056
2014-07-09 00:00:00,2014-07-09 00:00:00,TMP,surface,-96.5629,25.0393,294.644
2014-07-09 00:00:00,2014-07-09 00:00:00,TMP,surface,-95.6254,25.0393,294.78
2014-07-09 00:00:00,2014-07-09 00:00:00,TMP,surface,-94.6879,25.0393,294.969
2014-07-09 00:00:00,2014-07-09 00:00:00,TMP,surface,-93.7504,25.0393,295.283
2014-07-09 00:00:00,2014-07-09 00:00:00,TMP,surface,-92.8129,25.0393,295.587
2014-07-09 00:00:00,2014-07-09 00:00:00,TMP,surface,-107.813,25.9842,290.739
2014-07-09 00:00:00,2014-07-09 00:00:00,TMP,surface,-106.875,25.9842,284.444
2014-07-09 00:00:00,2014-07-09 00:00:00,TMP,surface,-105.938,25.9842,283.224
2014-07-09 00:00:00,2014-07-09 00:00:00,TMP,surface,-105,25.9842,287.692
2014-07-09 00:00:00,2014-07-09 00:00:00,TMP,surface,-104.063,25.9842,292.886
2014-07-09 00:00:00,2014-07-09 00:00:00,TMP,surface,-103.125,25.9842,294.025
2014-07-09 00:00:00,2014-07-09 00:00:00,TMP,surface,-102.188,25.9842,293.384
2014-07-09 00:00:00,2014-07-09 00:00:00,TMP,surface,-101.25,25.9842,292.219
2014-07-09 00:00:00,2014-07-09 00:00:00,TMP,surface,-100.313,25.9842,292.152
2014-07-09 00:00:00,2014-07-09 00:00:00,TMP,surface,-99.3754,25.9842,294.6
2014-07-09 00:00:00,2014-07-09 00:00:00,TMP,surface,-98.4379,25.9842,295.976
2014-07-09 00:00:00,2014-07-09 00:00:00,TMP,surface,-97.5004,25.9842,295.667
2014-07-09 00:00:00,2014-07-09 00:00:00,TMP,surface,-96.5629,25.9842,293.427
2014-07-09 00:00:00,2014-07-09 00:00:00,TMP,surface,-95.6254,25.9842,293.884
2014-07-09 00:00:00,2014-07-09 00:00:00,TMP,surface,-94.6879,25.9842,294.172
2014-07-09 00:00:00,2014-07-09 00:00:00,TMP,surface,-93.7504,25.9842,294.548
2014-07-09 00:00:00,2014-07-09 00:00:00,TMP,surface,-92.8129,25.9842,294.865
2014-07-09 00:00:00,2014-07-09 00:00:00,TMP,surface,-107.813,26.929,285.187
2014-07-09 00:00:00,2014-07-09 00:00:00,TMP,surface,-106.875,26.929,282.404
2014-07-09 00:00:00,2014-07-09 00:00:00,TMP,surface,-105.938,26.929,285.889
2014-07-09 00:00:00,2014-07-09 00:00:00,TMP,surface,-105,26.929,290.924
2014-07-09 00:00:00,2014-07-09 00:00:00,TMP,surface,-104.063,26.929,292.726
2014-07-09 00:00:00,2014-07-09 00:00:00,TMP,surface,-103.125,26.929,292.817
2014-07-09 00:00:00,2014-07-09 00:00:00,TMP,surface,-102.188,26.929,292.356
2014-07-09 00:00:00,2014-07-09 00:00:00,TMP,surface,-101.25,26.929,292.904
2014-07-09 00:00:00,2014-07-09 00:00:00,TMP,surface,-100.313,26.929,293.974
2014-07-09 00:00:00,2014-07-09 00:00:00,TMP,surface,-99.3754,26.929,295.288
2014-07-09 00:00:00,2014-07-09 00:00:00,TMP,surface,-98.4379,26.929,294.833
2014-07-09 00:00:00,2014-07-09 00:00:00,TMP,surface,-97.5004,26.929,293.556
2014-07-09 00:00:00,2014-07-09 00:00:00,TMP,surface,-96.5629,26.929,293.252
2014-07-09 00:00:00,2014-07-09 00:00:00,TMP,surface,-95.6254,26.929,293.518
2014-07-09 00:00:00,2014-07-09 00:00:00,TMP,surface,-94.6879,26.929,293.776
2014-07-09 00:00:00,2014-07-09 00:00:00,TMP,surface,-93.7504,26.929,293.99
2014-07-09 00:00:00,2014-07-09 00:00:00,TMP,surface,-92.8129,26.929,294.179
2014-07-09 00:00:00,2014-07-09 00:00:00,TMP,surface,-107.813,27.8739,282.832
2014-07-09 00:00:00,2014-07-09 00:00:00,TMP,surface,-106.875,27.8739,282.924
2014-07-09 00:00:00,2014-07-09 00:00:00,TMP,surface,-105.938,27.8739,288.024
2014-07-09 00:00:00,2014-07-09 00:00:00,TMP,surface,-105,27.8739,291.779
2014-07-09 00:00:00,2014-07-09 00:00:00,TMP,surface,-104.063,27.8739,292.043
2014-07-09 00:00:00,2014-07-09 00:00:00,TMP,surface,-103.125,27.8739,291.083
2014-07-09 00:00:00,2014-07-09 00:00:00,TMP,surface,-102.188,27.8739,290.872
2014-07-09 00:00:00,2014-07-09 00:00:00,TMP,surface,-101.25,27.8739,292.334
2014-07-09 00:00:00,2014-07-09 00:00:00,TMP,surface,-100.313,27.8739,294.004
2014-07-09 00:00:00,2014-07-09 00:00:00,TMP,surface,-99.3754,27.8739,294.238
2014-07-09 00:00:00,2014-07-09 00:00:00,TMP,surface,-98.4379,27.8739,293.569
2014-07-09 00:00:00,2014-07-09 00:00:00,TMP,surface,-97.5004,27.8739,293.42
2014-07-09 00:00:00,2014-07-09 00:00:00,TMP,surface,-96.5629,27.8739,293.6
2014-07-09 00:00:00,2014-07-09 00:00:00,TMP,surface,-95.6254,27.8739,293.54
2014-07-09 00:00:00,2014-07-09 00:00:00,TMP,surface,-94.6879,27.8739,293.572
2014-07-09 00:00:00,2014-07-09 00:00:00,TMP,surface,-93.7504,27.8739,293.654
2014-07-09 00:00:00,2014-07-09 00:00:00,TMP,surface,-92.8129,27.8739,293.774
2014-07-09 00:00:00,2014-07-09 00:00:00,TMP,surface,-107.813,28.8188,282.19
2014-07-09 00:00:00,2014-07-09 00:00:00,TMP,surface,-106.875,28.8188,284.153
2014-07-09 00:00:00,2014-07-09 00:00:00,TMP,surface,-105.938,28.8188,289.065
2014-07-09 00:00:00,2014-07-09 00:00:00,TMP,surface,-105,28.8188,291.718
2014-07-09 00:00:00,2014-07-09 00:00:00,TMP,surface,-104.063,28.8188,290.817
2014-07-09 00:00:00,2014-07-09 00:00:00,TMP,surface,-103.125,28.8188,289.907
2014-07-09 00:00:00,2014-07-09 00:00:00,TMP,surface,-102.188,28.8188,290.113
2014-07-09 00:00:00,2014-07-09 00:00:00,TMP,surface,-101.25,28.8188,291.609
2014-07-09 00:00:00,2014-07-09 00:00:00,TMP,surface,-100.313,28.8188,292.332
2014-07-09 00:00:00,2014-07-09 00:00:00,TMP,surface,-99.3754,28.8188,292.049
2014-07-09 00:00:00,2014-07-09 00:00:00,TMP,surface,-98.4379,28.8188,291.848
2014-07-09 00:00:00,2014-07-09 00:00:00,TMP,surface,-97.5004,28.8188,292.163
2014-07-09 00:00:00,2014-07-09 00:00:00,TMP,surface,-96.5629,28.8188,292.74
2014-07-09 00:00:00,2014-07-09 00:00:00,TMP,surface,-95.6254,28.8188,293.068
2014-07-09 00:00:00,2014-07-09 00:00:00,TMP,surface,-94.6879,28.8188,293.11
2014-07-09 00:00:00,2014-07-09 00:00:00,TMP,surface,-93.7504,28.8188,293.404
2014-07-09 00:00:00,2014-07-09 00:00:00,TMP,surface,-92.8129,28.8188,293.5
2014-07-09 00:00:00,2014-07-09 00:00:00,TMP,surface,-107.813,29.7637,283.748
2014-07-09 00:00:00,2014-07-09 00:00:00,TMP,surface,-106.875,29.7637,286.136
2014-07-09 00:00:00,2014-07-09 00:00:00,TMP,surface,-105.938,29.7637,289.396
2014-07-09 00:00:00,2014-07-09 00:00:00,TMP,surface,-105,29.7637,290.203
2014-07-09 00:00:00,2014-07-09 00:00:00,TMP,surface,-104.063,29.7637,290.124
2014-07-09 00:00:00,2014-07-09 00:00:00,TMP,surface,-103.125,29.7637,290.592
2014-07-09 00:00:00,2014-07-09 00:00:00,TMP,surface,-102.188,29.7637,291.291
2014-07-09 00:00:00,2014-07-09 00:00:00,TMP,surface,-101.25,29.7637,291.419
2014-07-09 00:00:00,2014-07-09 00:00:00,TMP,surface,-100.313,29.7637,290.755
2014-07-09 00:00:00,2014-07-09 00:00:00,TMP,surface,-99.3754,29.7637,290.259
2014-07-09 00:00:00,2014-07-09 00:00:00,TMP,surface,-98.4379,29.7637,290.5
2014-07-09 00:00:00,2014-07-09 00:00:00,TMP,surface,-97.5004,29.7637,291.091
2014-07-09 00:00:00,2014-07-09 00:00:00,TMP,surface,-96.5629,29.7637,291.59
2014-07-09 00:00:00,2014-07-09 00:00:00,TMP,surface,-95.6254,29.7637,292.046
2014-07-09 00:00:00,2014-07-09 00:00:00,TMP,surface,-94.6879,29.7637,292.742
2014-07-09 00:00:00,2014-07-09 00:00:00,TMP,surface,-93.7504,29.7637,293.505
2014-07-09 00:00:00,2014-07-09 00:00:00,TMP,surface,-92.8129,29.7637,293.428
2014-07-09 00:00:00,2014-07-09 00:00:00,TMP,surface,-107.813,30.7085,287.262
2014-07-09 00:00:00,2014-07-09 00:00:00,TMP,surface,-106.875,30.7085,288.689
2014-07-09 00:00:00,2014-07-09 00:00:00,TMP,surface,-105.938,30.7085,289.259
2014-07-09 00:00:00,2014-07-09 00:00:00,TMP,surface,-105,30.7085,289.065
2014-07-09 00:00:00,2014-07-09 00:00:00,TMP,surface,-104.063,30.7085,289.356
2014-07-09 00:00:00,2014-07-09 00:00:00,TMP,surface,-103.125,30.7085,291.017
2014-07-09 00:00:00,2014-07-09 00:00:00,TMP,surface,-102.188,30.7085,291.649
2014-07-09 00:00:00,2014-07-09 00:00:00,TMP,surface,-101.25,30.7085,290.996
2014-07-09 00:00:00,2014-07-09 00:00:00,TMP,surface,-100.313,30.7085,290.025
2014-07-09 00:00:00,2014-07-09 00:00:00,TMP,surface,-99.3754,30.7085,289.676
2014-07-09 00:00:00,2014-07-09 00:00:00,TMP,surface,-98.4379,30.7085,290.132
2014-07-09 00:00:00,2014-07-09 00:00:00,TMP,surface,-97.5004,30.7085,290.777
2014-07-09 00:00:00,2014-07-09 00:00:00,TMP,surface,-96.5629,30.7085,291.433
2014-07-09 00:00:00,2014-07-09 00:00:00,TMP,surface,-95.6254,30.7085,292.017
2014-07-09 00:00:00,2014-07-09 00:00:00,TMP,surface,-94.6879,30.7085,292.257
2014-07-09 00:00:00,2014-07-09 00:00:00,TMP,surface,-93.7504,30.7085,292.411
2014-07-09 00:00:00,2014-07-09 00:00:00,TMP,surface,-92.8129,30.7085,292.262
2014-07-09 00:00:00,2014-07-09 00:00:00,TMP,surface,-107.813,31.6534,288.088
2014-07-09 00:00:00,2014-07-09 00:00:00,TMP,surface,-106.875,31.6534,289.001
2014-07-09 00:00:00,2014-07-09 00:00:00,TMP,surface,-105.938,31.6534,288.656
2014-07-09 00:00:00,2014-07-09 00:00:00,TMP,surface,-105,31.6534,288.366
2014-07-09 00:00:00,2014-07-09 00:00:00,TMP,surface,-104.063,31.6534,289.432
2014-07-09 00:00:00,2014-07-09 00:00:00,TMP,surface,-103.125,31.6534,290.856
2014-07-09 00:00:00,2014-07-09 00:00:00,TMP,surface,-102.188,31.6534,291.323
2014-07-09 00:00:00,2014-07-09 00:00:00,TMP,surface,-101.25,31.6534,290.696
2014-07-09 00:00:00,2014-07-09 00:00:00,TMP,surface,-100.313,31.6534,289.963
2014-07-09 00:00:00,2014-07-09 00:00:00,TMP,surface,-99.3754,31.6534,289.795
2014-07-09 00:00:00,2014-07-09 00:00:00,TMP,surface,-98.4379,31.6534,290.15
2014-07-09 00:00:00,2014-07-09 00:00:00,TMP,surface,-97.5004,31.6534,290.603
2014-07-09 00:00:00,2014-07-09 00:00:00,TMP,surface,-96.5629,31.6534,291.276
2014-07-09 00:00:00,2014-07-09 00:00:00,TMP,surface,-95.6254,31.6534,291.905
2014-07-09 00:00:00,2014-07-09 00:00:00,TMP,surface,-94.6879,31.6534,291.94
2014-07-09 00:00:00,2014-07-09 00:00:00,TMP,surface,-93.7504,31.6534,291.923
2014-07-09 00:00:00,2014-07-09 00:00:00,TMP,surface,-92.8129,31.6534,291.961
2014-07-09 00:00:00,2014-07-09 00:00:00,TMP,surface,-107.813,32.5983,285.169
2014-07-09 00:00:00,2014-07-09 00:00:00,TMP,surface,-106.875,32.5983,286.24
2014-07-09 00:00:00,2014-07-09 00:00:00,TMP,surface,-105.938,32.5983,286.896
2014-07-09 00:00:00,2014-07-09 00:00:00,TMP,surface,-105,32.5983,287.55
2014-07-09 00:00:00,2014-07-09 00:00:00,TMP,surface,-104.063,32.5983,288.998
2014-07-09 00:00:00,2014-07-09 00:00:00,TMP,surface,-103.125,32.5983,290.166
2014-07-09 00:00:00,2014-07-09 00:00:00,TMP,surface,-102.188,32.5983,290.315
2014-07-09 00:00:00,2014-07-09 00:00:00,TMP,surface,-101.25,32.5983,290.052
2014-07-09 00:00:00,2014-07-09 00:00:00,TMP,surface,-100.313,32.5983,289.939
2014-07-09 00:00:00,2014-07-09 00:00:00,TMP,surface,-99.3754,32.5983,290.027
2014-07-09 00:00:00,2014-07-09 00:00:00,TMP,surface,-98.4379,32.5983,290.152
2014-07-09 00:00:00,2014-07-09 00:00:00,TMP,surface,-97.5004,32.5983,290.251
2014-07-09 00:00:00,2014-07-09 00:00:00,TMP,surface,-96.5629,32.5983,290.633
2014-07-09 00:00:00,2014-07-09 00:00:00,TMP,surface,-95.6254,32.5983,291.24
2014-07-09 00:00:00,2014-07-09 00:00:00,TMP,surface,-94.6879,32.5983,291.544
2014-07-09 00:00:00,2014-07-09 00:00:00,TMP,surface,-93.7504,32.5983,291.636
2014-07-09 00:00:00,2014-07-09 00:00:00,TMP,surface,-92.8129,32.5983,291.955
2014-07-09 00:00:00,2014-07-09 00:00:00,TMP,surface,-107.813,33.5432,281.131
2014-07-09 00:00:00,2014-07-09 00:00:00,TMP,surface,-106.875,33.5432,282.926
2014-07-09 00:00:00,2014-07-09 00:00:00,TMP,surface,-105.938,33.5432,284.627
2014-07-09 00:00:00,2014-07-09 00:00:00,TMP,surface,-105,33.5432,286.358
2014-07-09 00:00:00,2014-07-09 00:00:00,TMP,surface,-104.063,33.5432,288.307
2014-07-09 00:00:00,2014-07-09 00:00:00,TMP,surface,-103.125,33.5432,288.912
2014-07-09 00:00:00,2014-07-09 00:00:00,TMP,surface,-102.188,33.5432,288.814
2014-07-09 00:00:00,2014-07-09 00:00:00,TMP,surface,-101.25,33.5432,288.713
2014-07-09 00:00:00,2014-07-09 00:00:00,TMP,surface,-100.313,33.5432,289.208
2014-07-09 00:00:00,2014-07-09 00:00:00,TMP,surface,-99.3754,33.5432,289.481
2014-07-09 00:00:00,2014-07-09 00:00:00,TMP,surface,-98.4379,33.5432,289.374
2014-07-09 00:00:00,2014-07-09 00:00:00,TMP,surface,-97.5004,33.5432,289.203
2014-07-09 00:00:00,2014-07-09 00:00:00,TMP,surface,-96.5629,33.5432,289.276
2014-07-09 00:00:00,2014-07-09 00:00:00,TMP,surface,-95.6254,33.5432,289.745
2014-07-09 00:00:00,2014-07-09 00:00:00,TMP,surface,-94.6879,33.5432,290.324
2014-07-09 00:00:00,2014-07-09 00:00:00,TMP,surface,-93.7504,33.5432,290.665
2014-07-09 00:00:00,2014-07-09 00:00:00,TMP,surface,-92.8129,33.5432,291.131
2014-07-09 00:00:00,2014-07-09 00:00:00,TMP,surface,-107.813,34.4881,279.59
2014-07-09 00:00:00,2014-07-09 00:00:00,TMP,surface,-106.875,34.4881,281.481
2014-07-09 00:00:00,2014-07-09 00:00:00,TMP,surface,-105.938,34.4881,283.307
2014-07-09 00:00:00,2014-07-09 00:00:00,TMP,surface,-105,34.4881,285.513
2014-07-09 00:00:00,2014-07-09 00:00:00,TMP,surface,-104.063,34.4881,286.764
2014-07-09 00:00:00,2014-07-09 00:00:00,TMP,surface,-103.125,34.4881,287.262
2014-07-09 00:00:00,2014-07-09 00:00:00,TMP,surface,-102.188,34.4881,287.118
2014-07-09 00:00:00,2014-07-09 00:00:00,TMP,surface,-101.25,34.4881,287.395
2014-07-09 00:00:00,2014-07-09 00:00:00,TMP,surface,-100.313,34.4881,287.851
2014-07-09 00:00:00,2014-07-09 00:00:00,TMP,surface,-99.3754,34.4881,288.216
2014-07-09 00:00:00,2014-07-09 00:00:00,TMP,surface,-98.4379,34.4881,288.182
2014-07-09 00:00:00,2014-07-09 00:00:00,TMP,surface,-97.5004,34.4881,288.065
2014-07-09 00:00:00,2014-07-09 00:00:00,TMP,surface,-96.5629,34.4881,288.372
2014-07-09 00:00:00,2014-07-09 00:00:00,TMP,surface,-95.6254,34.4881,288.856
2014-07-09 00:00:00,2014-07-09 00:00:00,TMP,surface,-94.6879,34.4881,288.998
2014-07-09 00:00:00,2014-07-09 00:00:00,TMP,surface,-93.7504,34.4881,289.11
2014-07-09 00:00:00,2014-07-09 00:00:00,TMP,surface,-92.8129,34.4881,289.718
2014-07-09 00:00:00,2014-07-09 00:00:00,TMP,surface,-107.813,35.4329,280.142
2014-07-09 00:00:00,2014-07-09 00:00:00,TMP,surface,-106.875,35.4329,280.574
2014-07-09 00:00:00,2014-07-09 00:00:00,TMP,surface,-105.938,35.4329,281.262
2014-07-09 00:00:00,2014-07-09 00:00:00,TMP,surface,-105,35.4329,282.736
2014-07-09 00:00:00,2014-07-09 00:00:00,TMP,surface,-104.063,35.4329,285.129
2014-07-09 00:00:00,2014-07-09 00:00:00,TMP,surface,-103.125,35.4329,286.169
2014-07-09 00:00:00,2014-07-09 00:00:00,TMP,surface,-102.188,35.4329,286.124
2014-07-09 00:00:00,2014-07-09 00:00:00,TMP,surface,-101.25,35.4329,286.164
2014-07-09 00:00:00,2014-07-09 00:00:00,TMP,surface,-100.313,35.4329,286.348
2014-07-09 00:00:00,2014-07-09 00:00:00,TMP,surface,-99.3754,35.4329,286.48
2014-07-09 00:00:00,2014-07-09 00:00:00,TMP,surface,-98.4379,35.4329,286.563
2014-07-09 00:00:00,2014-07-09 00:00:00,TMP,surface,-97.5004,35.4329,286.788
2014-07-09 00:00:00,2014-07-09 00:00:00,TMP,surface,-96.5629,35.4329,287.139
2014-07-09 00:00:00,2014-07-09 00:00:00,TMP,surface,-95.6254,35.4329,287.513
2014-07-09 00:00:00,2014-07-09 00:00:00,TMP,surface,-94.6879,35.4329,287.744
2014-07-09 00:00:00,2014-07-09 00:00:00,TMP,surface,-93.7504,35.4329,287.659
2014-07-09 00:00:00,2014-07-09 00:00:00,TMP,surface,-92.8129,35.4329,287.84
2014-07-09 00:00:00,2014-07-09 00:00:00,TMP,surface,-107.813,36.3778,279.475
2014-07-09 00:00:00,2014-07-09 00:00:00,TMP,surface,-106.875,36.3778,277.692
2014-07-09 00:00:00,2014-07-09 00:00:00,TMP,surface,-105.938,36.3778,278.428
2014-07-09 00:00:00,2014-07-09 00:00:00,TMP,surface,-105,36.3778,280.364
2014-07-09 00:00:00,2014-07-09 00:00:00,TMP,surface,-104.063,36.3778,283.315
2014-07-09 00:00:00,2014-07-09 00:00:00,TMP,surface,-103.125,36.3778,284.393
2014-07-09 00:00:00,2014-07-09 00:00:00,TMP,surface,-102.188,36.3778,284.747
2014-07-09 00:00:00,2014-07-09 00:00:00,TMP,surface,-101.25,36.3778,285.089
2014-07-09 00:00:00,2014-07-09 00:00:00,TMP,surface,-100.313,36.3778,285.55
2014-07-09 00:00:00,2014-07-09 00:00:00,TMP,surface,-99.3754,36.3778,285.769
2014-07-09 00:00:00,2014-07-09 00:00:00,TMP,surface,-98.4379,36.3778,285.734
2014-07-09 00:00:00,2014-07-09 00:00:00,TMP,surface,-97.5004,36.3778,285.936
2014-07-09 00:00:00,2014-07-09 00:00:00,TMP,surface,-96.5629,36.3778,286.296
2014-07-09 00:00:00,2014-07-09 00:00:00,TMP,surface,-95.6254,36.3778,286.467
2014-07-09 00:00:00,2014-07-09 00:00:00,TMP,surface,-94.6879,36.3778,286.384
2014-07-09 00:00:00,2014-07-09 00:00:00,TMP,surface,-93.7504,36.3778,286.049
2014-07-09 00:00:00,2014-07-09 00:00:00,TMP,surface,-92.8129,36.3778,286.07
2014-07-09 00:00:00,2014-07-09 00:00:00,PRATE,surface,-107.813,25.0393,2.33e-05
2014-07-09 00:00:00,2014-07-09 00:00:00,PRATE,surface,-106.875,25.0393,3.72e-05
2014-07-09 00:00:00,2014-07-09 00:00:00,PRATE,surface,-105.938,25.0393,4.12e-05
2014-07-09 00:00:00,2014-07-09 00:00:00,PRATE,surface,-105,25.0393,2.15e-05
2014-07-09 00:00:00,2014-07-09 00:00:00,PRATE,surface,-104.063,25.0393,1.2e-05
2014-07-09 00:00:00,2014-07-09 00:00:00,PRATE,surface,-103.125,25.0393,4.4e-06
2014-07-09 00:00:00,2014-07-09 00:00:00,PRATE,surface,-102.188,25.0393,9.9e-06
2014-07-09 00:00:00,2014-07-09 00:00:00,PRATE,surface,-101.25,25.0393,3.71e-05
2014-07-09 00:00:00,2014-07-09 00:00:00,PRATE,surface,-100.313,25.0393,7.02e-05
2014-07-09 00:00:00,2014-07-09 00:00:00,PRATE,surface,-99.3754,25.0393,7.63e-05
2014-07-09 00:00:00,2014-07-09 00:00:00,PRATE,surface,-98.4379,25.0393,1.87e-05
2014-07-09 00:00:00,2014-07-09 00:00:00,PRATE,surface,-97.5004,25.0393,1.49e-05
2014-07-09 00:00:00,2014-07-09 00:00:00,PRATE,surface,-96.5629,25.0393,3.01e-05
2014-07-09 00:00:00,2014-07-09 00:00:00,PRATE,surface,-95.6254,25.0393,6.01e-05
2014-07-09 00:00:00,2014-07-09 00:00:00,PRATE,surface,-94.6879,25.0393,7.68e-05
2014-07-09 00:00:00,2014-07-09 00:00:00,PRATE,surface,-93.7504,25.0393,9.88e-05
2014-07-09 00:00:00,2014-07-09 00:00:00,PRATE,surface,-92.8129,25.0393,8.39e-05
2014-07-09 00:00:00,2014-07-09 00:00:00,PRATE,surface,-107.813,25.9842,3.84e-05
2014-07-09 00:00:00,2014-07-09 00:00:00,PRATE,surface,-106.875,25.9842,4.85e-05
2014-07-09 00:00:00,2014-07-09 00:00:00,PRATE,surface,-105.938,25.9842,2.77e-05
2014-07-09 00:00:00,2014-07-09 00:00:00,PRATE,surface,-105,25.9842,2.33e-05
2014-07-09 00:00:00,2014-07-09 00:00:00,PRATE,surface,-104.063,25.9842,6.1e-06
2014-07-09 00:00:00,2014-07-09 00:00:00,PRATE,surface,-103.125,25.9842,1.1e-06
2014-07-09 00:00:00,2014-07-09 00:00:00,PRATE,surface,-102.188,25.9842,6e-06
2014-07-09 00:00:00,2014-07-09 00:00:00,PRATE,surface,-101.25,25.9842,2.44e-05
2014-07-09 00:00:00,2014-07-09 00:00:00,PRATE,surface,-100.313,25.9842,6.22e-05
2014-07-09 00:00:00,2014-07-09 00:00:00,PRATE,surface,-99.3754,25.9842,5.96e-05
2014-07-09 00:00:00,2014-07-09 00:00:00,PRATE,surface,-98.4379,25.9842,2.86e-05
2014-07-09 00:00:00,2014-07-09 00:00:00,PRATE,surface,-97.5004,25.9842,2.56e-05
2014-07-09 00:00:00,2014-07-09 00:00:00,PRATE,surface,-96.5629,25.9842,2.85e-05
2014-07-09 00:00:00,2014-07-09 00:00:00,PRATE,surface,-95.6254,25.9842,4.13e-05
2014-07-09 00:00:00,2014-07-09 00:00:00,PRATE,surface,-94.6879,25.9842,6.28e-05
2014-07-09 00:00:00,2014-07-09 00:00:00,PRATE,surface,-93.7504,25.9842,9.55e-05
2014-07-09 00:00:00,2014-07-09 00:00:00,PRATE,surface,-92.8129,25.9842,0.0001085
2014-07-09 00:00:00,2014-07-09 00:00:00,PRATE,surface,-107.813,26.929,6.5e-05
2014-07-09 00:00:00,2014-07-09 00:00:00,PRATE,surface,-106.875,26.929,3.85e-05
2014-07-09 00:00:00,2014-07-09 00:00:00,PRATE,surface,-105.938,26.929,1.71e-05
2014-07-09 00:00:00,2014-07-09 00:00:00,PRATE,surface,-105,26.929,1.49e-05
2014-07-09 00:00:00,2014-07-09 00:00:00,PRATE,surface,-104.063,26.929,1.06e-05
2014-07-09 00:00:00,2014-07-09 00:00:00,PRATE,surface,-103.125,26.929,5.6e-06
2014-07-09 00:00:00,2014-07-09 00:00:00,PRATE,surface,-102.188,26.929,1.79e-05
2014-07-09 00:00:00,2014-07-09 00:00:00,PRATE,surface,-101.25,26.929,4.34e-05
2014-07-09 00:00:00,2014-07-09 00:00:00,PRATE,surface,-100.313,26.929,4.95e-05
2014-07-09 00:00:00,2014-07-09 00:00:00,PRATE,surface,-99.3754,26.929,4.93e-05
2014-07-09 00:00:00,2014-07-09 00:00:00,PRATE,surface,-98.4379,26.929,4.17e-05
2014-07-09 00:00:00,2014-07-09 00:00:00,PRATE,surface,-97.5004,26.929,4.01e-05
2014-07-09 00:00:00,2014-07-09 00:00:00,PRATE,surface,-96.5629,26.929,2.96e-05
2014-07-09 00:00:00,2014-07-09 00:00:00,PRATE,surface,-95.6254,26.929,2.83e-05
2014-07-09 00:00:00,2014-07-09 00:00:00,PRATE,surface,-94.6879,26.929,3.58e-05
2014-07-09 00:00:00,2014-07-09 00:00:00,PRATE,surface,-93.7504,26.929,5.17e-05
2014-07-09 00:00:00,2014-07-09 00:00:00,PRATE,surface,-92.8129,26.929,8.23e-05
2014-07-09 00:00:00,2014-07-09 00:00:00,PRATE,surface,-107.813,27.8739,6.57e-05
2014-07-09 00:00:00,2014-07-09 00:00:00,PRATE,surface,-106.875,27.8739,2.7e-05
2014-07-09 00:00:00,2014-07-09 00:00:00,PRATE,surface,-105.938,27.8739,1.12e-05
2014-07-09 00:00:00,2014-07-09 00:00:00,PRATE,surface,-105,27.8739,7.4e-06
2014-07-09 00:00:00,2014-07-09 00:00:00,PRATE,surface,-104.063,27.8739,1.28e-05
2014-07-09 00:00:00,2014-07-09 00:00:00,PRATE,surface,-103.125,27.8739,2.24e-05
2014-07-09 00:00:00,2014-07-09 00:00:00,PRATE,surface,-102.188,27.8739,4.96e-05
2014-07-09 00:00:00,2014-07-09 00:00:00,PRATE,surface,-101.25,27.8739,5.93e-05
2014-07-09 00:00:00,2014-07-09 00:00:00,PRATE,surface,-100.313,27.8739,4.41e-05
2014-07-09 00:00:00,2014-07-09 00:00:00,PRATE,surface,-99.3754,27.8739,3.67e-05
2014-07-09 00:00:00,2014-07-09 00:00:00,PRATE,surface,-98.4379,27.8739,4.53e-05
2014-07-09 00:00:00,2014-07-09 00:00:00,PRATE,surface,-97.5004,27.8739,4.65e-05
2014-07-09 00:00:00,2014-07-09 00:00:00,PRATE,surface,-96.5629,27.8739,3.45e-05
2014-07-09 00:00:00,2014-07-09 00:00:00,PRATE,surface,-95.6254,27.8739,2.19e-05
2014-07-09 00:00:00,2014-07-09 00:00:00,PRATE,surface,-94.6879,27.8739,1.85e-05
2014-07-09 00:00:00,2014-07-09 00:00:00,PRATE,surface,-93.7504,27.8739,3.22e-05
2014-07-09 00:00:00,2014-07-09 00:00:00,PRATE,surface,-92.8129,27.8739,5.22e-05
2014-07-09 00:00:00,2014-07-09 00:00:00,PRATE,surface,-107.813,28.8188,5.65e-05
2014-07-09 00:00:00,2014-07-09 00:00:00,PRATE,surface,-106.875,28.8188,2.85e-05
2014-07-09 00:00:00,2014-07-09 00:00:00,PRATE,surface,-105.938,28.8188,1.03e-05
2014-07-09 00:00:00,2014-07-09 00:00:00,PRATE,surface,-105,28.8188,6.9e-06
2014-07-09 00:00:00,2014-07-09 00:00:00,PRATE,surface,-104.063,28.8188,1.94e-05
2014-07-09 00:00:00,2014-07-09 00:00:00,PRATE,surface,-103.125,28.8188,2.71e-05
2014-07-09 00:00:00,2014-07-09 00:00:00,PRATE,surface,-102.188,28.8188,4.92e-05
2014-07-09 00:00:00,2014-07-09 00:00:00,PRATE,surface,-101.25,28.8188,4.73e-05
2014-07-09 00:00:00,2014-07-09 00:00:00,PRATE,surface,-100.313,28.8188,4.52e-05
2014-07-09 00:00:00,2014-07-09 00:00:00,PRATE,surface,-99.3754,28.8188,4.99e-05
2014-07-09 00:00:00,2014-07-09 00:00:00,PRATE,surface,-98.4379,28.8188,5.73e-05
2014-07-09 00:00:00,2014-07-09 00:00:00,PRATE,surface,-97.5004,28.8188,5e-05
2014-07-09 00:00:00,2014-07-09 00:00:00,PRATE,surface,-96.5629,28.8188,3.52e-05
2014-07-09 00:00:00,2014-07-09 00:00:00,PRATE,surface,-95.6254,28.8188,2.79e-05
2014-07-09 00:00:00,2014-07-09 00:00:00,PRATE,surface,-94.6879,28.8188,2.71e-05
2014-07-09 00:00:00,2014-07-09 00:00:00,PRATE,surface,-93.7504,28.8188,3.46e-05
2014-07-09 00:00:00,2014-07-09 00:00:00,PRATE,surface,-92.8129,28.8188,4.31e-05
2014-07-09 00:00:00,2014-07-09 00:00:00,PRATE,surface,-107.813,29.7637,3.76e-05
2014-07-09 00:00:00,2014-07-09 00:00:00,PRATE,surface,-106.875,29.7637,3.42e-05
2014-07-09 00:00:00,2014-07-09 00:00:00,PRATE,surface,-105.938,29.7637,1.56e-05
2014-07-09 00:00:00,2014-07-09 00:00:00,PRATE,surface,-105,29.7637,1e-05
2014-07-09 00:00:00,2014-07-09 00:00:00,PRATE,surface,-104.063,29.7637,1.89e-05
2014-07-09 00:00:00,2014-07-09 00:00:00,PRATE,surface,-103.125,29.7637,2.24e-05
2014-07-09 00:00:00,2014-07-09 00:00:00,PRATE,surface,-102.188,29.7637,1.95e-05
2014-07-09 00:00:00,2014-07-09 00:00:00,PRATE,surface,-101.25,29.7637,2.49e-05
2014-07-09 00:00:00,2014-07-09 00:00:00,PRATE,surface,-100.313,29.7637,4.55e-05
2014-07-09 00:00:00,2014-07-09 00:00:00,PRATE,surface,-99.3754,29.7637,6.68e-05
2014-07-09 00:00:00,2014-07-09 00:00:00,PRATE,surface,-98.4379,29.7637,7.28e-05
2014-07-09 00:00:00,2014-07-09 00:00:00,PRATE,surface,-97.5004,29.7637,6.01e-05
2014-07-09 00:00:00,2014-07-09 00:00:00,PRATE,surface,-96.5629,29.7637,4.4e-05
2014-07-09 00:00:00,2014-07-09 00:00:00,PRATE,surface,-95.6254,29.7637,3.78e-05
2014-07-09 00:00:00,2014-07-09 00:00:00,PRATE,surface,-94.6879,29.7637,3.86e-05
2014-07-09 00:00:00,2014-07-09 00:00:00,PRATE,surface,-93.7504,29.7637,4.21e-05
2014-07-09 00:00:00,2014-07-09 00:00:00,PRATE,surface,-92.8129,29.7637,4.69e-05
2014-07-09 00:00:00,2014-07-09 00:00:00,PRATE,surface,-107.813,30.7085,1.81e-05
2014-07-09 00:00:00,2014-07-09 00:00:00,PRATE,surface,-106.875,30.7085,2.26e-05
2014-07-09 00:00:00,2014-07-09 00:00:00,PRATE,surface,-105.938,30.7085,2.11e-05
2014-07-09 00:00:00,2014-07-09 00:00:00,PRATE,surface,-105,30.7085,1.85e-05
2014-07-09 00:00:00,2014-07-09 00:00:00,PRATE,surface,-104.063,30.7085,2.29e-05
2014-07-09 00:00:00,2014-07-09 00:00:00,PRATE,surface,-103.125,30.7085,1.91e-05
2014-07-09 00:00:00,2014-07-09 00:00:00,PRATE,surface,-102.188,30.7085,2.32e-05
2014-07-09 00:00:00,2014-07-09 00:00:00,PRATE,surface,-101.25,30.7085,3.24e-05
2014-07-09 00:00:00,2014-07-09 00:00:00,PRATE,surface,-100.313,30.7085,4.89e-05
2014-07-09 00:00:00,2014-07-09 00:00:00,PRATE,surface,-99.3754,30.7085,6.66e-05
2014-07-09 00:00:00,2014-07-09 00:00:00,PRATE,surface,-98.4379,30.7085,6.54e-05
2014-07-09 00:00:00,2014-07-09 00:00:00,PRATE,surface,-97.5004,30.7085,5.25e-05
2014-07-09 00:00:00,2014-07-09 00:00:00,PRATE,surface,-96.5629,30.7085,4.98e-05
2014-07-09 00:00:00,2014-07-09 00:00:00,PRATE,surface,-95.6254,30.7085,5.77e-05
2014-07-09 00:00:00,2014-07-09 00:00:00,PRATE,surface,-94.6879,30.7085,6.23e-05
2014-07-09 00:00:00,2014-07-09 00:00:00,PRATE,surface,-93.7504,30.7085,5.97e-05
2014-07-09 00:00:00,2014-07-09 00:00:00,PRATE,surface,-92.8129,30.7085,5.48e-05
2014-07-09 00:00:00,2014-07-09 00:00:00,PRATE,surface,-107.813,31.6534,8.9e-06
2014-07-09 00:00:00,2014-07-09 00:00:00,PRATE,surface,-106.875,31.6534,9.4e-06
2014-07-09 00:00:00,2014-07-09 00:00:00,PRATE,surface,-105.938,31.6534,1.75e-05
2014-07-09 00:00:00,2014-07-09 00:00:00,PRATE,surface,-105,31.6534,2.53e-05
2014-07-09 00:00:00,2014-07-09 00:00:00,PRATE,surface,-104.063,31.6534,2.13e-05
2014-07-09 00:00:00,2014-07-09 00:00:00,PRATE,surface,-103.125,31.6534,2.49e-05
2014-07-09 00:00:00,2014-07-09 00:00:00,PRATE,surface,-102.188,31.6534,2.85e-05
2014-07-09 00:00:00,2014-07-09 00:00:00,PRATE,surface,-101.25,31.6534,4.11e-05
2014-07-09 00:00:00,2014-07-09 00:00:00,PRATE,surface,-100.313,31.6534,5.18e-05
2014-07-09 00:00:00,2014-07-09 00:00:00,PRATE,surface,-99.3754,31.6534,5.79e-05
2014-07-09 00:00:00,2014-07-09 00:00:00,PRATE,surface,-98.4379,31.6534,6.05e-05
2014-07-09 00:00:00,2014-07-09 00:00:00,PRATE,surface,-97.5004,31.6534,5.44e-05
2014-07-09 00:00:00,2014-07-09 00:00:00,PRATE,surface,-96.5629,31.6534,5.09e-05
2014-07-09 00:00:00,2014-07-09 00:00:00,PRATE,surface,-95.6254,31.6534,5.68e-05
2014-07-09 00:00:00,2014-07-09 00:00:00,PRATE,surface,-94.6879,31.6534,5.91e-05
2014-07-09 00:00:00,2014-07-09 00:00:00,PRATE,surface,-93.7504,31.6534,5.67e-05
2014-07-09 00:00:00,2014-07-09 00:00:00,PRATE,surface,-92.8129,31.6534,5.14e-05
2014-07-09 00:00:00,2014-07-09 00:00:00,PRATE,surface,-107.813,32.5983,1.36e-05
2014-07-09 00:00:00,2014-07-09 00:00:00,PRATE,surface,-106.875,32.5983,1.05e-05
2014-07-09 00:00:00,2014-07-09 00:00:00,PRATE,surface,-105.938,32.5983,1.6e-05
2014-07-09 00:00:00,2014-07-09 00:00:00,PRATE,surface,-105,32.5983,2.34e-05
2014-07-09 00:00:00,2014-07-09 00:00:00,PRATE,surface,-104.063,32.5983,2.45e-05
2014-07-09 00:00:00,2014-07-09 00:00:00,PRATE,surface,-103.125,32.5983,2.54e-05
2014-07-09 00:00:00,2014-07-09 00:00:00,PRATE,surface,-102.188,32.5983,2.95e-05
2014-07-09 00:00:00,2014-07-09 00:00:00,PRATE,surface,-101.25,32.5983,4.5e-05
2014-07-09 00:00:00,2014-07-09 00:00:00,PRATE,surface,-100.313,32.5983,5.45e-05
2014-07-09 00:00:00,2014-07-09 00:00:00,PRATE,surface,-99.3754,32.5983,6.16e-05
2014-07-09 00:00:00,2014-07-09 00:00:00,PRATE,surface,-98.4379,32.5983,7.01e-05
2014-07-09 00:00:00,2014-07-09 00:00:00,PRATE,surface,-97.5004,32.5983,7.92e-05
2014-07-09 00:00:00,2014-07-09 00:00:00,PRATE,surface,-96.5629,32.5983,8.08e-05
2014-07-09 00:00:00,2014-07-09 00:00:00,PRATE,surface,-95.6254,32.5983,7.01e-05
2014-07-09 00:00:00,2014-07-09 00:00:00,PRATE,surface,-94.6879,32.5983,5.75e-05
2014-07-09 00:00:00,2014-07-09 00:00:00,PRATE,surface,-93.7504,32.5983,5.32e-05
2014-07-09 00:00:00,2014-07-09 00:00:00,PRATE,surface,-92.8129,32.5983,4.88e-05
2014-07-09 00:00:00,2014-07-09 00:00:00,PRATE,surface,-107.813,33.5432,3.2e-05
2014-07-09 00:00:00,2014-07-09 00:00:00,PRATE,surface,-106.875,33.5432,2.41e-05
2014-07-09 00:00:00,2014-07-09 00:00:00,PRATE,surface,-105.938,33.5432,2.03e-05
2014-07-09 00:00:00,2014-07-09 00:00:00,PRATE,surface,-105,33.5432,2.17e-05
2014-07-09 00:00:00,2014-07-09 00:00:00,PRATE,surface,-104.063,33.5432,2.29e-05
2014-07-09 00:00:00,2014-07-09 00:00:00,PRATE,surface,-103.125,33.5432,2.65e-05
2014-07-09 00:00:00,2014-07-09 00:00:00,PRATE,surface,-102.188,33.5432,3.02e-05
2014-07-09 00:00:00,2014-07-09 00:00:00,PRATE,surface,-101.25,33.5432,3.66e-05
2014-07-09 00:00:00,2014-07-09 00:00:00,PRATE,surface,-100.313,33.5432,3.92e-05
2014-07-09 00:00:00,2014-07-09 00:00:00,PRATE,surface,-99.3754,33.5432,5.14e-05
2014-07-09 00:00:00,2014-07-09 00:00:00,PRATE,surface,-98.4379,33.5432,7.99e-05
2014-07-09 00:00:00,2014-07-09 00:00:00,PRATE,surface,-97.5004,33.5432,0.0001113
2014-07-09 00:00:00,2014-07-09 00:00:00,PRATE,surface,-96.5629,33.5432,0.000116
2014-07-09 00:00:00,2014-07-09 00:00:00,PRATE,surface,-95.6254,33.5432,9.26e-05
2014-07-09 00:00:00,2014-07-09 00:00:00,PRATE,surface,-94.6879,33.5432,7.21e-05
2014-07-09 00:00:00,2014-07-09 00:00:00,PRATE,surface,-93.7504,33.5432,6.09e-05
2014-07-09 00:00:00,2014-07-09 00:00:00,PRATE,surface,-92.8129,33.5432,4.56e-05
2014-07-09 00:00:00,2014-07-09 00:00:00,PRATE,surface,-107.813,34.4881,3.5e-05
2014-07-09 00:00:00,2014-07-09 00:00:00,PRATE,surface,-106.875,34.4881,2.8e-05
2014-07-09 00:00:00,2014-07-09 00:00:00,PRATE,surface,-105.938,34.4881,2.07e-05
2014-07-09 00:00:00,2014-07-09 00:00:00,PRATE,surface,-105,34.4881,1.79e-05
2014-07-09 00:00:00,2014-07-09 00:00:00,PRATE,surface,-104.063,34.4881,1.86e-05
2014-07-09 00:00:00,2014-07-09 00:00:00,PRATE,surface,-103.125,34.4881,2.06e-05
2014-07-09 00:00:00,2014-07-09 00:00:00,PRATE,surface,-102.188,34.4881,3.07e-05
2014-07-09 00:00:00,2014-07-09 00:00:00,PRATE,surface,-101.25,34.4881,3.42e-05
2014-07-09 00:00:00,2014-07-09 00:00:00,PRATE,surface,-100.313,34.4881,2.87e-05
2014-07-09 00:00:00,2014-07-09 00:00:00,PRATE,surface,-99.3754,34.4881,2.8e-05
2014-07-09 00:00:00,2014-07-09 00:00:00,PRATE,surface,-98.4379,34.4881,4.66e-05
2014-07-09 00:00:00,2014-07-09 00:00:00,PRATE,surface,-97.5004,34.4881,8.33e-05
2014-07-09 00:00:00,2014-07-09 00:00:00,PRATE,surface,-96.5629,34.4881,0.0001091
2014-07-09 00:00:00,2014-07-09 00:00:00,PRATE,surface,-95.6254,34.4881,0.0001038
2014-07-09 00:00:00,2014-07-09 00:00:00,PRATE,surface,-94.6879,34.4881,8.54e-05
2014-07-09 00:00:00,2014-07-09 00:00:00,PRATE,surface,-93.7504,34.4881,7.31e-05
2014-07-09 00:00:00,2014-07-09 00:00:00,PRATE,surface,-92.8129,34.4881,5.85e-05
2014-07-09 00:00:00,2014-07-09 00:00:00,PRATE,surface,-107.813,35.4329,3.15e-05
2014-07-09 00:00:00,2014-07-09 00:00:00,PRATE,surface,-106.875,35.4329,3.03e-05
2014-07-09 00:00:00,2014-07-09 00:00:00,PRATE,surface,-105.938,35.4329,2.38e-05
2014-07-09 00:00:00,2014-07-09 00:00:00,PRATE,surface,-105,35.4329,2.4e-05
2014-07-09 00:00:00,2014-07-09 00:00:00,PRATE,surface,-104.063,35.4329,2.02e-05
2014-07-09 00:00:00,2014-07-09 00:00:00,PRATE,surface,-103.125,35.4329,1.56e-05
2014-07-09 00:00:00,2014-07-09 00:00:00,PRATE,surface,-102.188,35.4329,2.44e-05
2014-07-09 00:00:00,2014-07-09 00:00:00,PRATE,surface,-101.25,35.4329,3.51e-05
2014-07-09 00:00:00,2014-07-09 00:00:00,PRATE,surface,-100.313,35.4329,3.42e-05
2014-07-09 00:00:00,2014-07-09 00:00:00,PRATE,surface,-99.3754,35.4329,3.02e-05
2014-07-09 00:00:00,2014-07-09 00:00:00,PRATE,surface,-98.4379,35.4329,3.19e-05
2014-07-09 00:00:00,2014-07-09 00:00:00,PRATE,surface,-97.5004,35.4329,4.56e-05
2014-07-09 00:00:00,2014-07-09 00:00:00,PRATE,surface,-96.5629,35.4329,6.16e-05
2014-07-09 00:00:00,2014-07-09 00:00:00,PRATE,surface,-95.6254,35.4329,7.17e-05
2014-07-09 00:00:00,2014-07-09 00:00:00,PRATE,surface,-94.6879,35.4329,8.07e-05
2014-07-09 00:00:00,2014-07-09 00:00:00,PRATE,surface,-93.7504,35.4329,8.32e-05
2014-07-09 00:00:00,2014-07-09 00:00:00,PRATE,surface,-92.8129,35.4329,7.25e-05
2014-07-09 00:00:00,2014-07-09 00:00:00,PRATE,surface,-107.813,36.3778,4.12e-05
2014-07-09 00:00:00,2014-07-09 00:00:00,PRATE,surface,-106.875,36.3778,4.61e-05
2014-07-09 00:00:00,2014-07-09 00:00:00,PRATE,surface,-105.938,36.3778,3.72e-05
2014-07-09 00:00:00,2014-07-09 00:00:00,PRATE,surface,-105,36.3778,3.64e-05
2014-07-09 00:00:00,2014-07-09 00:00:00,PRATE,surface,-104.063,36.3778,2.5e-05
2014-07-09 00:00:00,2014-07-09 00:00:00,PRATE,surface,-103.125,36.3778,1.75e-05
2014-07-09 00:00:00,2014-07-09 00:00:00,PRATE,surface,-102.188,36.3778,2.33e-05
2014-07-09 00:00:00,2014-07-09 00:00:00,PRATE,surface,-101.25,36.3778,3.07e-05
2014-07-09 00:00:00,2014-07-09 00:00:00,PRATE,surface,-100.313,36.3778,3.54e-05
2014-07-09 00:00:00,2014-07-09 00:00:00,PRATE,surface,-99.3754,36.3778,3.97e-05
2014-07-09 00:00:00,2014-07-09 00:00:00,PRATE,surface,-98.4379,36.3778,4.24e-05
2014-07-09 00:00:00,2014-07-09 00:00:00,PRATE,surface,-97.5004,36.3778,4.52e-05
2014-07-09 00:00:00,2014-07-09 00:00:00,PRATE,surface,-96.5629,36.3778,4.76e-05
2014-07-09 00:00:00,2014-07-09 00:00:00,PRATE,surface,-95.6254,36.3778,5.37e-05
2014-07-09 00:00:00,2014-07-09 00:00:00,PRATE,surface,-94.6879,36.3778,6.72e-05
2014-07-09 00:00:00,2014-07-09 00:00:00,PRATE,surface,-93.7504,36.3778,7.47e-05
2014-07-09 00:00:00,2014-07-09 00:00:00,PRATE,surface,-92.8129,36.3778,7.24e-05
