2017-07-31 00:00:00,2017-07-31 00:00:00,TMP,surface,-107.813,25.0393,299.307
2017-07-31 00:00:00,2017-07-31 00:00:00,TMP,surface,-106.875,25.0393,293.808
2017-07-31 00:00:00,2017-07-31 00:00:00,TMP,surface,-105.938,25.0393,288.752
2017-07-31 00:00:00,2017-07-31 00:00:00,TMP,surface,-105,25.0393,289.022
2017-07-31 00:00:00,2017-07-31 00:00:00,TMP,surface,-104.063,25.0393,293.729
2017-07-31 00:00:00,2017-07-31 00:00:00,TMP,surface,-103.125,25.0393,295.571
2017-07-31 00:00:00,2017-07-31 00:00:00,TMP,surface,-102.188,25.0393,294.264
2017-07-31 00:00:00,2017-07-31 00:00:00,TMP,surface,-101.25,25.0393,291.619
2017-07-31 00:00:00,2017-07-31 00:00:00,TMP,surface,-100.313,25.0393,291.504
2017-07-31 00:00:00,2017-07-31 00:00:00,TMP,surface,-99.3754,25.0393,294.246
2017-07-31 00:00:00,2017-07-31 00:00:00,TMP,surface,-98.4379,25.0393,297.008
2017-07-31 00:00:00,2017-07-31 00:00:00,TMP,surface,-97.5004,25.0393,298.083
2017-07-31 00:00:00,2017-07-31 00:00:00,TMP,surface,-96.5629,25.0393,298.067
2017-07-31 00:00:00,2017-07-31 00:00:00,TMP,surface,-95.6254,25.0393,298.173
2017-07-31 00:00:00,2017-07-31 00:00:00,TMP,surface,-94.6879,25.0393,298.408
2017-07-31 00:00:00,2017-07-31 00:00:00,TMP,surface,-93.7504,25.0393,298.496
2017-07-31 00:00:00,2017-07-31 00:00:00,TMP,surface,-92.8129,25.0393,298.595
2017-07-31 00:00:00,2017-07-31 00:00:00,TMP,surface,-107.813,25.9842,295.992
2017-07-31 00:00:00,2017-07-31 00:00:00,TMP,surface,-106.875,25.9842,289.403
2017-07-31 00:00:00,2017-07-31 00:00:00,TMP,surface,-105.938,25.9842,288.182
2017-07-31 00:00:00,2017-07-31 00:00:00,TMP,surface,-105,25.9842,291.71
2017-07-31 00:00:00,2017-07-31 00:00:00,TMP,surface,-104.063,25.9842,296.072
2017-07-31 00:00:00,2017-07-31 00:00:00,TMP,surface,-103.125,25.9842,297.744
2017-07-31 00:00:00,2017-07-31 00:00:00,TMP,surface,-102.188,25.9842,295.904
2017-07-31 00:00:00,2017-07-31 00:00:00,TMP,surface,-101.25,25.9842,293.933
2017-07-31 00:00:00,2017-07-31 00:00:00,TMP,surface,-100.313,25.9842,293.696
2017-07-31 00:00:00,2017-07-31 00:00:00,TMP,surface,-99.3754,25.9842,296.081
2017-07-31 00:00:00,2017-07-31 00:00:00,TMP,surface,-98.4379,25.9842,297.235
2017-07-31 00:00:00,2017-07-31 00:00:00,TMP,surface,-97.5004,25.9842,296.992
2017-07-31 00:00:00,2017-07-31 00:00:00,TMP,surface,-96.5629,25.9842,297.232
2017-07-31 00:00:00,2017-07-31 00:00:00,TMP,surface,-95.6254,25.9842,297.717
2017-07-31 00:00:00,2017-07-31 00:00:00,TMP,surface,-94.6879,25.9842,297.947
2017-07-31 00:00:00,2017-07-31 00:00:00,TMP,surface,-93.7504,25.9842,298.089
2017-07-31 00:00:00,2017-07-31 00:00:00,TMP,surface,-92.8129,25.9842,298.233
2017-07-31 00:00:00,2017-07-31 00:00:00,TMP,surface,-107.813,26.929,290.459
2017-07-31 00:00:00,2017-07-31 00:00:00,TMP,surface,-106.875,26.929,287.387
2017-07-31 00:00:00,2017-07-31 00:00:00,TMP,surface,-105.938,26.929,290.363
2017-07-31 00:00:00,2017-07-31 00:00:00,TMP,surface,-105,26.929,294.702
2017-07-31 00:00:00,2017-07-31 00:00:00,TMP,surface,-104.063,26.929,296.774
2017-07-31 00:00:00,2017-07-31 00:00:00,TMP,surface,-103.125,26.929,296.147
2017-07-31 00:00:00,2017-07-31 00:00:00,TMP,surface,-102.188,26.929,294.558
2017-07-31 00:00:00,2017-07-31 00:00:00,TMP,surface,-101.25,26.929,294.689
2017-07-31 00:00:00,2017-07-31 00:00:00,TMP,surface,-100.313,26.929,295.731
2017-07-31 00:00:00,2017-07-31 00:00:00,TMP,surface,-99.3754,26.929,297.149
2017-07-31 00:00:00,2017-07-31 00:00:00,TMP,surface,-98.4379,26.929,296.638
2017-07-31 00:00:00,2017-07-31 00:00:00,TMP,surface,-97.5004,26.929,296.029
2017-07-31 00:00:00,2017-07-31 00:00:00,TMP,surface,-96.5629,26.929,296.275
2017-07-31 00:00:00,2017-07-31 00:00:00,TMP,surface,-95.6254,26.929,297.019
2017-07-31 00:00:00,2017-07-31 00:00:00,TMP,surface,-94.6879,26.929,297.355
2017-07-31 00:00:00,2017-07-31 00:00:00,TMP,surface,-93.7504,26.929,297.31
2017-07-31 00:00:00,2017-07-31 00:00:00,TMP,surface,-92.8129,26.929,297.347
2017-07-31 00:00:00,2017-07-31 00:00:00,TMP,surface,-107.813,27.8739,287.505
2017-07-31 00:00:00,2017-07-31 00:00:00,TMP,surface,-106.875,27.8739,287.366
2017-07-31 00:00:00,2017-07-31 00:00:00,TMP,surface,-105.938,27.8739,292.214
2017-07-31 00:00:00,2017-07-31 00:00:00,TMP,surface,-105,27.8739,295.619
2017-07-31 00:00:00,2017-07-31 00:00:00,TMP,surface,-104.063,27.8739,295.851
2017-07-31 00:00:00,2017-07-31 00:00:00,TMP,surface,-103.125,27.8739,293.869
2017-07-31 00:00:00,2017-07-31 00:00:00,TMP,surface,-102.188,27.8739,292.945
2017-07-31 00:00:00,2017-07-31 00:00:00,TMP,surface,-101.25,27.8739,294.166
2017-07-31 00:00:00,2017-07-31 00:00:00,TMP,surface,-100.313,27.8739,295.966
2017-07-31 00:00:00,2017-07-31 00:00:00,TMP,surface,-99.3754,27.8739,296.277
2017-07-31 00:00:00,2017-07-31 00:00:00,TMP,surface,-98.4379,27.8739,295.429
2017-07-31 00:00:00,2017-07-31 00:00:00,TMP,surface,-97.5004,27.8739,295.47
2017-07-31 00:00:00,2017-07-31 00:00:00,TMP,surface,-96.5629,27.8739,296.072
2017-07-31 00:00:00,2017-07-31 00:00:00,TMP,surface,-95.6254,27.8739,296.161
2017-07-31 00:00:00,2017-07-31 00:00:00,TMP,surface,-94.6879,27.8739,296.205
2017-07-31 00:00:00,2017-07-31 00:00:00,TMP,surface,-93.7504,27.8739,296.139
2017-07-31 00:00:00,2017-07-31 00:00:00,TMP,surface,-92.8129,27.8739,296.097
2017-07-31 00:00:00,2017-07-31 00:00:00,TMP,surface,-107.813,28.8188,286.673
2017-07-31 00:00:00,2017-07-31 00:00:00,TMP,surface,-106.875,28.8188,288.621
2017-07-31 00:00:00,2017-07-31 00:00:00,TMP,surface,-105.938,28.8188,293.325
2017-07-31 00:00:00,2017-07-31 00:00:00,TMP,surface,-105,28.8188,296.105
2017-07-31 00:00:00,2017-07-31 00:00:00,TMP,surface,-104.063,28.8188,294.52
2017-07-31 00:00:00,2017-07-31 00:00:00,TMP,surface,-103.125,28.8188,292.406
2017-07-31 00:00:00,2017-07-31 00:00:00,TMP,surface,-102.188,28.8188,291.987
2017-07-31 00:00:00,2017-07-31 00:00:00,TMP,surface,-101.25,28.8188,293.485
2017-07-31 00:00:00,2017-07-31 00:00:00,TMP,surface,-100.313,28.8188,294.264
2017-07-31 00:00:00,2017-07-31 00:00:00,TMP,surface,-99.3754,28.8188,294.064
2017-07-31 00:00:00,2017-07-31 00:00:00,TMP,surface,-98.4379,28.8188,293.947
2017-07-31 00:00:00,2017-07-31 00:00:00,TMP,surface,-97.5004,28.8188,294.045
2017-07-31 00:00:00,2017-07-31 00:00:00,TMP,surface,-96.5629,28.8188,294.392
2017-07-31 00:00:00,2017-07-31 00:00:00,TMP,surface,-95.6254,28.8188,294.713
2017-07-31 00:00:00,2017-07-31 00:00:00,TMP,surface,-94.6879,28.8188,294.689
2017-07-31 00:00:00,2017-07-31 00:00:00,TMP,surface,-93.7504,28.8188,294.92
2017-07-31 00:00:00,2017-07-31 00:00:00,TMP,surface,-92.8129,28.8188,294.939
2017-07-31 00:00:00,2017-07-31 00:00:00,TMP,surface,-107.813,29.7637,289.173
2017-07-31 00:00:00,2017-07-31 00:00:00,TMP,surface,-106.875,29.7637,291.213
2017-07-31 00:00:00,2017-07-31 00:00:00,TMP,surface,-105.938,29.7637,294.102
2017-07-31 00:00:00,2017-07-31 00:00:00,TMP,surface,-105,29.7637,294.897
2017-07-31 00:00:00,2017-07-31 00:00:00,TMP,surface,-104.063,29.7637,293.731
2017-07-31 00:00:00,2017-07-31 00:00:00,TMP,surface,-103.125,29.7637,292.84
2017-07-31 00:00:00,2017-07-31 00:00:00,TMP,surface,-102.188,29.7637,292.915
2017-07-31 00:00:00,2017-07-31 00:00:00,TMP,surface,-101.25,29.7637,293.016
2017-07-31 00:00:00,2017-07-31 00:00:00,TMP,surface,-100.313,29.7637,292.443
2017-07-31 00:00:00,2017-07-31 00:00:00,TMP,surface,-99.3754,29.7637,292.013
2017-07-31 00:00:00,2017-07-31 00:00:00,TMP,surface,-98.4379,29.7637,292.152
2017-07-31 00:00:00,2017-07-31 00:00:00,TMP,surface,-97.5004,29.7637,292.614
2017-07-31 00:00:00,2017-07-31 00:00:00,TMP,surface,-96.5629,29.7637,293.086
2017-07-31 00:00:00,2017-07-31 00:00:00,TMP,surface,-95.6254,29.7637,293.592
2017-07-31 00:00:00,2017-07-31 00:00:00,TMP,surface,-94.6879,29.7637,294.136
2017-07-31 00:00:00,2017-07-31 00:00:00,TMP,surface,-93.7504,29.7637,294.401
2017-07-31 00:00:00,2017-07-31 00:00:00,TMP,surface,-92.8129,29.7637,294.328
2017-07-31 00:00:00,2017-07-31 00:00:00,TMP,surface,-107.813,30.7085,293.553
2017-07-31 00:00:00,2017-07-31 00:00:00,TMP,surface,-106.875,30.7085,294.605
2017-07-31 00:00:00,2017-07-31 00:00:00,TMP,surface,-105.938,30.7085,294.667
2017-07-31 00:00:00,2017-07-31 00:00:00,TMP,surface,-105,30.7085,294.102
2017-07-31 00:00:00,2017-07-31 00:00:00,TMP,surface,-104.063,30.7085,293.246
2017-07-31 00:00:00,2017-07-31 00:00:00,TMP,surface,-103.125,30.7085,293.294
2017-07-31 00:00:00,2017-07-31 00:00:00,TMP,surface,-102.188,30.7085,293.229
2017-07-31 00:00:00,2017-07-31 00:00:00,TMP,surface,-101.25,30.7085,292.477
2017-07-31 00:00:00,2017-07-31 00:00:00,TMP,surface,-100.313,30.7085,291.473
2017-07-31 00:00:00,2017-07-31 00:00:00,TMP,surface,-99.3754,30.7085,290.961
2017-07-31 00:00:00,2017-07-31 00:00:00,TMP,surface,-98.4379,30.7085,291.291
2017-07-31 00:00:00,2017-07-31 00:00:00,TMP,surface,-97.5004,30.7085,291.891
2017-07-31 00:00:00,2017-07-31 00:00:00,TMP,surface,-96.5629,30.7085,292.843
2017-07-31 00:00:00,2017-07-31 00:00:00,TMP,surface,-95.6254,30.7085,293.865
2017-07-31 00:00:00,2017-07-31 00:00:00,TMP,surface,-94.6879,30.7085,294.099
2017-07-31 00:00:00,2017-07-31 00:00:00,TMP,surface,-93.7504,30.7085,294.029
2017-07-31 00:00:00,2017-07-31 00:00:00,TMP,surface,-92.8129,30.7085,293.531
2017-07-31 00:00:00,2017-07-31 00:00:00,TMP,surface,-107.813,31.6534,294.67
2017-07-31 00:00:00,2017-07-31 00:00:00,TMP,surface,-106.875,31.6534,295.083
2017-07-31 00:00:00,2017-07-31 00:00:00,TMP,surface,-105.938,31.6534,294.584
2017-07-31 00:00:00,2017-07-31 00:00:00,TMP,surface,-105,31.6534,293.446
2017-07-31 00:00:00,2017-07-31 00:00:00,TMP,surface,-104.063,31.6534,293.145
2017-07-31 00:00:00,2017-07-31 00:00:00,TMP,surface,-103.125,31.6534,293.323
2017-07-31 00:00:00,2017-07-31 00:00:00,TMP,surface,-102.188,31.6534,293.197
2017-07-31 00:00:00,2017-07-31 00:00:00,TMP,surface,-101.25,31.6534,292.243
2017-07-31 00:00:00,2017-07-31 00:00:00,TMP,surface,-100.313,31.6534,291.467
2017-07-31 00:00:00,2017-07-31 00:00:00,TMP,surface,-99.3754,31.6534,291.03
2017-07-31 00:00:00,2017-07-31 00:00:00,TMP,surface,-98.4379,31.6534,291.078
2017-07-31 00:00:00,2017-07-31 00:00:00,TMP,surface,-97.5004,31.6534,291.483
2017-07-31 00:00:00,2017-07-31 00:00:00,TMP,surface,-96.5629,31.6534,292.419
2017-07-31 00:00:00,2017-07-31 00:00:00,TMP,surface,-95.6254,31.6534,293.424
2017-07-31 00:00:00,2017-07-31 00:00:00,TMP,surface,-94.6879,31.6534,293.637
2017-07-31 00:00:00,2017-07-31 00:00:00,TMP,surface,-93.7504,31.6534,293.534
2017-07-31 00:00:00,2017-07-31 00:00:00,TMP,surface,-92.8129,31.6534,293.32
2017-07-31 00:00:00,2017-07-31 00:00:00,TMP,surface,-107.813,32.5983,292.053
2017-07-31 00:00:00,2017-07-31 00:00:00,TMP,surface,-106.875,32.5983,292.558
2017-07-31 00:00:00,2017-07-31 00:00:00,TMP,surface,-105.938,32.5983,292.486
2017-07-31 00:00:00,2017-07-31 00:00:00,TMP,surface,-105,32.5983,292.141
2017-07-31 00:00:00,2017-07-31 00:00:00,TMP,surface,-104.063,32.5983,292.584
2017-07-31 00:00:00,2017-07-31 00:00:00,TMP,surface,-103.125,32.5983,293.048
2017-07-31 00:00:00,2017-07-31 00:00:00,TMP,surface,-102.188,32.5983,292.691
2017-07-31 00:00:00,2017-07-31 00:00:00,TMP,surface,-101.25,32.5983,292.085
2017-07-31 00:00:00,2017-07-31 00:00:00,TMP,surface,-100.313,32.5983,291.869
2017-07-31 00:00:00,2017-07-31 00:00:00,TMP,surface,-99.3754,32.5983,291.605
2017-07-31 00:00:00,2017-07-31 00:00:00,TMP,surface,-98.4379,32.5983,291.392
2017-07-31 00:00:00,2017-07-31 00:00:00,TMP,surface,-97.5004,32.5983,291.501
2017-07-31 00:00:00,2017-07-31 00:00:00,TMP,surface,-96.5629,32.5983,292.147
2017-07-31 00:00:00,2017-07-31 00:00:00,TMP,surface,-95.6254,32.5983,293.009
2017-07-31 00:00:00,2017-07-31 00:00:00,TMP,surface,-94.6879,32.5983,293.297
2017-07-31 00:00:00,2017-07-31 00:00:00,TMP,surface,-93.7504,32.5983,293.088
2017-07-31 00:00:00,2017-07-31 00:00:00,TMP,surface,-92.8129,32.5983,293.184
2017-07-31 00:00:00,2017-07-31 00:00:00,TMP,surface,-107.813,33.5432,288.229
2017-07-31 00:00:00,2017-07-31 00:00:00,TMP,surface,-106.875,33.5432,289.585
2017-07-31 00:00:00,2017-07-31 00:00:00,TMP,surface,-105.938,33.5432,290.157
2017-07-31 00:00:00,2017-07-31 00:00:00,TMP,surface,-105,33.5432,290.84
2017-07-31 00:00:00,2017-07-31 00:00:00,TMP,surface,-104.063,33.5432,292.014
2017-07-31 00:00:00,2017-07-31 00:00:00,TMP,surface,-103.125,33.5432,292.224
2017-07-31 00:00:00,2017-07-31 00:00:00,TMP,surface,-102.188,33.5432,291.937
2017-07-31 00:00:00,2017-07-31 00:00:00,TMP,surface,-101.25,33.5432,291.422
2017-07-31 00:00:00,2017-07-31 00:00:00,TMP,surface,-100.313,33.5432,291.827
2017-07-31 00:00:00,2017-07-31 00:00:00,TMP,surface,-99.3754,33.5432,291.885
2017-07-31 00:00:00,2017-07-31 00:00:00,TMP,surface,-98.4379,33.5432,291.369
2017-07-31 00:00:00,2017-07-31 00:00:00,TMP,surface,-97.5004,33.5432,291.014
2017-07-31 00:00:00,2017-07-31 00:00:00,TMP,surface,-96.5629,33.5432,291.129
2017-07-31 00:00:00,2017-07-31 00:00:00,TMP,surface,-95.6254,33.5432,291.773
2017-07-31 00:00:00,2017-07-31 00:00:00,TMP,surface,-94.6879,33.5432,292.507
2017-07-31 00:00:00,2017-07-31 00:00:00,TMP,surface,-93.7504,33.5432,292.501
2017-07-31 00:00:00,2017-07-31 00:00:00,TMP,surface,-92.8129,33.5432,292.491
2017-07-31 00:00:00,2017-07-31 00:00:00,TMP,surface,-107.813,34.4881,286.518
2017-07-31 00:00:00,2017-07-31 00:00:00,TMP,surface,-106.875,34.4881,288.109
2017-07-31 00:00:00,2017-07-31 00:00:00,TMP,surface,-105.938,34.4881,288.793
2017-07-31 00:00:00,2017-07-31 00:00:00,TMP,surface,-105,34.4881,290.075
2017-07-31 00:00:00,2017-07-31 00:00:00,TMP,surface,-104.063,34.4881,291.021
2017-07-31 00:00:00,2017-07-31 00:00:00,TMP,surface,-103.125,34.4881,291.347
2017-07-31 00:00:00,2017-07-31 00:00:00,TMP,surface,-102.188,34.4881,291.009
2017-07-31 00:00:00,2017-07-31 00:00:00,TMP,surface,-101.25,34.4881,290.869
2017-07-31 00:00:00,2017-07-31 00:00:00,TMP,surface,-100.313,34.4881,290.955
2017-07-31 00:00:00,2017-07-31 00:00:00,TMP,surface,-99.3754,34.4881,291.174
2017-07-31 00:00:00,2017-07-31 00:00:00,TMP,surface,-98.4379,34.4881,290.843
2017-07-31 00:00:00,2017-07-31 00:00:00,TMP,surface,-97.5004,34.4881,290.385
2017-07-31 00:00:00,2017-07-31 00:00:00,TMP,surface,-96.5629,34.4881,290.665
2017-07-31 00:00:00,2017-07-31 00:00:00,TMP,surface,-95.6254,34.4881,291.344
2017-07-31 00:00:00,2017-07-31 00:00:00,TMP,surface,-94.6879,34.4881,291.552
2017-07-31 00:00:00,2017-07-31 00:00:00,TMP,surface,-93.7504,34.4881,291.461
2017-07-31 00:00:00,2017-07-31 00:00:00,TMP,surface,-92.8129,34.4881,291.76
2017-07-31 00:00:00,2017-07-31 00:00:00,TMP,surface,-107.813,35.4329,286.398
2017-07-31 00:00:00,2017-07-31 00:00:00,TMP,surface,-106.875,35.4329,286.728
2017-07-31 00:00:00,2017-07-31 00:00:00,TMP,surface,-105.938,35.4329,286.777
2017-07-31 00:00:00,2017-07-31 00:00:00,TMP,surface,-105,35.4329,287.534
2017-07-31 00:00:00,2017-07-31 00:00:00,TMP,surface,-104.063,35.4329,289.689
2017-07-31 00:00:00,2017-07-31 00:00:00,TMP,surface,-103.125,35.4329,290.822
2017-07-31 00:00:00,2017-07-31 00:00:00,TMP,surface,-102.188,35.4329,290.785
2017-07-31 00:00:00,2017-07-31 00:00:00,TMP,surface,-101.25,35.4329,290.622
2017-07-31 00:00:00,2017-07-31 00:00:00,TMP,surface,-100.313,35.4329,290.325
2017-07-31 00:00:00,2017-07-31 00:00:00,TMP,surface,-99.3754,35.4329,290.235
2017-07-31 00:00:00,2017-07-31 00:00:00,TMP,surface,-98.4379,35.4329,290.187
2017-07-31 00:00:00,2017-07-31 00:00:00,TMP,surface,-97.5004,35.4329,290.061
2017-07-31 00:00:00,2017-07-31 00:00:00,TMP,surface,-96.5629,35.4329,289.995
2017-07-31 00:00:00,2017-07-31 00:00:00,TMP,surface,-95.6254,35.4329,290.336
2017-07-31 00:00:00,2017-07-31 00:00:00,TMP,surface,-94.6879,35.4329,290.835
2017-07-31 00:00:00,2017-07-31 00:00:00,TMP,surface,-93.7504,35.4329,290.71
2017-07-31 00:00:00,2017-07-31 00:00:00,TMP,surface,-92.8129,35.4329,290.712
2017-07-31 00:00:00,2017-07-31 00:00:00,TMP,surface,-107.813,36.3778,285.19
2017-07-31 00:00:00,2017-07-31 00:00:00,TMP,surface,-106.875,36.3778,283.147
2017-07-31 00:00:00,2017-07-31 00:00:00,TMP,surface,-105.938,36.3778,283.704
2017-07-31 00:00:00,2017-07-31 00:00:00,TMP,surface,-105,36.3778,284.987
2017-07-31 00:00:00,2017-07-31 00:00:00,TMP,surface,-104.063,36.3778,287.329
2017-07-31 00:00:00,2017-07-31 00:00:00,TMP,surface,-103.125,36.3778,288.91
2017-07-31 00:00:00,2017-07-31 00:00:00,TMP,surface,-102.188,36.3778,289.741
2017-07-31 00:00:00,2017-07-31 00:00:00,TMP,surface,-101.25,36.3778,289.792
2017-07-31 00:00:00,2017-07-31 00:00:00,TMP,surface,-100.313,36.3778,290.025
2017-07-31 00:00:00,2017-07-31 00:00:00,TMP,surface,-99.3754,36.3778,290.152
2017-07-31 00:00:00,2017-07-31 00:00:00,TMP,surface,-98.4379,36.3778,289.969
2017-07-31 00:00:00,2017-07-31 00:00:00,TMP,surface,-97.5004,36.3778,289.84
2017-07-31 00:00:00,2017-07-31 00:00:00,TMP,surface,-96.5629,36.3778,289.907
2017-07-31 00:00:00,2017-07-31 00:00:00,TMP,surface,-95.6254,36.3778,290.2
2017-07-31 00:00:00,2017-07-31 00:00:00,TMP,surface,-94.6879,36.3778,290.408
2017-07-31 00:00:00,2017-07-31 00:00:00,TMP,surface,-93.7504,36.3778,290.005
2017-07-31 00:00:00,2017-07-31 00:00:00,TMP,surface,-92.8129,36.3778,289.965
2017-07-31 00:00:00,2017-07-31 00:00:00,PRATE,surface,-107.813,25.0393,0
2017-07-31 00:00:00,2017-07-31 00:00:00,PRATE,surface,-106.875,25.0393,1.3e-06
2017-07-31 00:00:00,2017-07-31 00:00:00,PRATE,surface,-105.938,25.0393,1.83e-05
2017-07-31 00:00:00,2017-07-31 00:00:00,PRATE,surface,-105,25.0393,2.15e-05
2017-07-31 00:00:00,2017-07-31 00:00:00,PRATE,surface,-104.063,25.0393,1.38e-05
2017-07-31 00:00:00,2017-07-31 00:00:00,PRATE,surface,-103.125,25.0393,9.3e-06
2017-07-31 00:00:00,2017-07-31 00:00:00,PRATE,surface,-102.188,25.0393,1e-05
2017-07-31 00:00:00,2017-07-31 00:00:00,PRATE,surface,-101.25,25.0393,5.61e-05
2017-07-31 00:00:00,2017-07-31 00:00:00,PRATE,surface,-100.313,25.0393,9.8e-05
2017-07-31 00:00:00,2017-07-31 00:00:00,PRATE,surface,-99.3754,25.0393,8.49e-05
2017-07-31 00:00:00,2017-07-31 00:00:00,PRATE,surface,-98.4379,25.0393,6.68e-05
2017-07-31 00:00:00,2017-07-31 00:00:00,PRATE,surface,-97.5004,25.0393,8.15e-05
2017-07-31 00:00:00,2017-07-31 00:00:00,PRATE,surface,-96.5629,25.0393,9.92e-05
2017-07-31 00:00:00,2017-07-31 00:00:00,PRATE,surface,-95.6254,25.0393,8.94e-05
2017-07-31 00:00:00,2017-07-31 00:00:00,PRATE,surface,-94.6879,25.0393,6.01e-05
2017-07-31 00:00:00,2017-07-31 00:00:00,PRATE,surface,-93.7504,25.0393,2.95e-05
2017-07-31 00:00:00,2017-07-31 00:00:00,PRATE,surface,-92.8129,25.0393,2.89e-05
2017-07-31 00:00:00,2017-07-31 00:00:00,PRATE,surface,-107.813,25.9842,5.4e-06
2017-07-31 00:00:00,2017-07-31 00:00:00,PRATE,surface,-106.875,25.9842,2.05e-05
2017-07-31 00:00:00,2017-07-31 00:00:00,PRATE,surface,-105.938,25.9842,2.82e-05
2017-07-31 00:00:00,2017-07-31 00:00:00,PRATE,surface,-105,25.9842,2.53e-05
2017-07-31 00:00:00,2017-07-31 00:00:00,PRATE,surface,-104.063,25.9842,1.81e-05
2017-07-31 00:00:00,2017-07-31 00:00:00,PRATE,surface,-103.125,25.9842,4.7e-06
2017-07-31 00:00:00,2017-07-31 00:00:00,PRATE,surface,-102.188,25.9842,1.38e-05
2017-07-31 00:00:00,2017-07-31 00:00:00,PRATE,surface,-101.25,25.9842,4.25e-05
2017-07-31 00:00:00,2017-07-31 00:00:00,PRATE,surface,-100.313,25.9842,7.27e-05
2017-07-31 00:00:00,2017-07-31 00:00:00,PRATE,surface,-99.3754,25.9842,5.61e-05
2017-07-31 00:00:00,2017-07-31 00:00:00,PRATE,surface,-98.4379,25.9842,3.75e-05
2017-07-31 00:00:00,2017-07-31 00:00:00,PRATE,surface,-97.5004,25.9842,3.92e-05
2017-07-31 00:00:00,2017-07-31 00:00:00,PRATE,surface,-96.5629,25.9842,6.14e-05
2017-07-31 00:00:00,2017-07-31 00:00:00,PRATE,surface,-95.6254,25.9842,8.67e-05
2017-07-31 00:00:00,2017-07-31 00:00:00,PRATE,surface,-94.6879,25.9842,8.11e-05
2017-07-31 00:00:00,2017-07-31 00:00:00,PRATE,surface,-93.7504,25.9842,7.95e-05
2017-07-31 00:00:00,2017-07-31 00:00:00,PRATE,surface,-92.8129,25.9842,8.84e-05
2017-07-31 00:00:00,2017-07-31 00:00:00,PRATE,surface,-107.813,26.929,2.24e-05
2017-07-31 00:00:00,2017-07-31 00:00:00,PRATE,surface,-106.875,26.929,3.37e-05
2017-07-31 00:00:00,2017-07-31 00:00:00,PRATE,surface,-105.938,26.929,3.03e-05
2017-07-31 00:00:00,2017-07-31 00:00:00,PRATE,surface,-105,26.929,2.34e-05
2017-07-31 00:00:00,2017-07-31 00:00:00,PRATE,surface,-104.063,26.929,2.09e-05
2017-07-31 00:00:00,2017-07-31 00:00:00,PRATE,surface,-103.125,26.929,3.28e-05
2017-07-31 00:00:00,2017-07-31 00:00:00,PRATE,surface,-102.188,26.929,5.74e-05
2017-07-31 00:00:00,2017-07-31 00:00:00,PRATE,surface,-101.25,26.929,6.69e-05
2017-07-31 00:00:00,2017-07-31 00:00:00,PRATE,surface,-100.313,26.929,4.88e-05
2017-07-31 00:00:00,2017-07-31 00:00:00,PRATE,surface,-99.3754,26.929,3.72e-05
2017-07-31 00:00:00,2017-07-31 00:00:00,PRATE,surface,-98.4379,26.929,2.64e-05
2017-07-31 00:00:00,2017-07-31 00:00:00,PRATE,surface,-97.5004,26.929,2.34e-05
2017-07-31 00:00:00,2017-07-31 00:00:00,PRATE,surface,-96.5629,26.929,3.95e-05
2017-07-31 00:00:00,2017-07-31 00:00:00,PRATE,surface,-95.6254,26.929,6.86e-05
2017-07-31 00:00:00,2017-07-31 00:00:00,PRATE,surface,-94.6879,26.929,9.34e-05
2017-07-31 00:00:00,2017-07-31 00:00:00,PRATE,surface,-93.7504,26.929,0.0001216
2017-07-31 00:00:00,2017-07-31 00:00:00,PRATE,surface,-92.8129,26.929,0.000151
2017-07-31 00:00:00,2017-07-31 00:00:00,PRATE,surface,-107.813,27.8739,4.72e-05
2017-07-31 00:00:00,2017-07-31 00:00:00,PRATE,surface,-106.875,27.8739,4.2e-05
2017-07-31 00:00:00,2017-07-31 00:00:00,PRATE,surface,-105.938,27.8739,1.96e-05
2017-07-31 00:00:00,2017-07-31 00:00:00,PRATE,surface,-105,27.8739,1.4e-05
2017-07-31 00:00:00,2017-07-31 00:00:00,PRATE,surface,-104.063,27.8739,2.85e-05
2017-07-31 00:00:00,2017-07-31 00:00:00,PRATE,surface,-103.125,27.8739,8.61e-05
2017-07-31 00:00:00,2017-07-31 00:00:00,PRATE,surface,-102.188,27.8739,9.9e-05
2017-07-31 00:00:00,2017-07-31 00:00:00,PRATE,surface,-101.25,27.8739,7.05e-05
2017-07-31 00:00:00,2017-07-31 00:00:00,PRATE,surface,-100.313,27.8739,3.69e-05
2017-07-31 00:00:00,2017-07-31 00:00:00,PRATE,surface,-99.3754,27.8739,2.58e-05
2017-07-31 00:00:00,2017-07-31 00:00:00,PRATE,surface,-98.4379,27.8739,2.35e-05
2017-07-31 00:00:00,2017-07-31 00:00:00,PRATE,surface,-97.5004,27.8739,1.75e-05
2017-07-31 00:00:00,2017-07-31 00:00:00,PRATE,surface,-96.5629,27.8739,1.62e-05
2017-07-31 00:00:00,2017-07-31 00:00:00,PRATE,surface,-95.6254,27.8739,2.74e-05
2017-07-31 00:00:00,2017-07-31 00:00:00,PRATE,surface,-94.6879,27.8739,4.91e-05
2017-07-31 00:00:00,2017-07-31 00:00:00,PRATE,surface,-93.7504,27.8739,7.85e-05
2017-07-31 00:00:00,2017-07-31 00:00:00,PRATE,surface,-92.8129,27.8739,0.000108
2017-07-31 00:00:00,2017-07-31 00:00:00,PRATE,surface,-107.813,28.8188,5.12e-05
2017-07-31 00:00:00,2017-07-31 00:00:00,PRATE,surface,-106.875,28.8188,3.53e-05
2017-07-31 00:00:00,2017-07-31 00:00:00,PRATE,surface,-105.938,28.8188,1.26e-05
2017-07-31 00:00:00,2017-07-31 00:00:00,PRATE,surface,-105,28.8188,5.6e-06
2017-07-31 00:00:00,2017-07-31 00:00:00,PRATE,surface,-104.063,28.8188,2.14e-05
2017-07-31 00:00:00,2017-07-31 00:00:00,PRATE,surface,-103.125,28.8188,8.3e-05
2017-07-31 00:00:00,2017-07-31 00:00:00,PRATE,surface,-102.188,28.8188,0.0001047
2017-07-31 00:00:00,2017-07-31 00:00:00,PRATE,surface,-101.25,28.8188,7.79e-05
2017-07-31 00:00:00,2017-07-31 00:00:00,PRATE,surface,-100.313,28.8188,4.65e-05
2017-07-31 00:00:00,2017-07-31 00:00:00,PRATE,surface,-99.3754,28.8188,2.99e-05
2017-07-31 00:00:00,2017-07-31 00:00:00,PRATE,surface,-98.4379,28.8188,1.9e-05
2017-07-31 00:00:00,2017-07-31 00:00:00,PRATE,surface,-97.5004,28.8188,1.4e-05
2017-07-31 00:00:00,2017-07-31 00:00:00,PRATE,surface,-96.5629,28.8188,1.17e-05
2017-07-31 00:00:00,2017-07-31 00:00:00,PRATE,surface,-95.6254,28.8188,1.58e-05
2017-07-31 00:00:00,2017-07-31 00:00:00,PRATE,surface,-94.6879,28.8188,3.5e-05
2017-07-31 00:00:00,2017-07-31 00:00:00,PRATE,surface,-93.7504,28.8188,5.48e-05
2017-07-31 00:00:00,2017-07-31 00:00:00,PRATE,surface,-92.8129,28.8188,6.55e-05
2017-07-31 00:00:00,2017-07-31 00:00:00,PRATE,surface,-107.813,29.7637,3.11e-05
2017-07-31 00:00:00,2017-07-31 00:00:00,PRATE,surface,-106.875,29.7637,2.11e-05
2017-07-31 00:00:00,2017-07-31 00:00:00,PRATE,surface,-105.938,29.7637,1.22e-05
2017-07-31 00:00:00,2017-07-31 00:00:00,PRATE,surface,-105,29.7637,9.4e-06
2017-07-31 00:00:00,2017-07-31 00:00:00,PRATE,surface,-104.063,29.7637,3.11e-05
2017-07-31 00:00:00,2017-07-31 00:00:00,PRATE,surface,-103.125,29.7637,6.13e-05
2017-07-31 00:00:00,2017-07-31 00:00:00,PRATE,surface,-102.188,29.7637,7.58e-05
2017-07-31 00:00:00,2017-07-31 00:00:00,PRATE,surface,-101.25,29.7637,7.18e-05
2017-07-31 00:00:00,2017-07-31 00:00:00,PRATE,surface,-100.313,29.7637,5.2e-05
2017-07-31 00:00:00,2017-07-31 00:00:00,PRATE,surface,-99.3754,29.7637,3.49e-05
2017-07-31 00:00:00,2017-07-31 00:00:00,PRATE,surface,-98.4379,29.7637,2.01e-05
2017-07-31 00:00:00,2017-07-31 00:00:00,PRATE,surface,-97.5004,29.7637,1.26e-05
2017-07-31 00:00:00,2017-07-31 00:00:00,PRATE,surface,-96.5629,29.7637,1.32e-05
2017-07-31 00:00:00,2017-07-31 00:00:00,PRATE,surface,-95.6254,29.7637,1.35e-05
2017-07-31 00:00:00,2017-07-31 00:00:00,PRATE,surface,-94.6879,29.7637,1.73e-05
2017-07-31 00:00:00,2017-07-31 00:00:00,PRATE,surface,-93.7504,29.7637,3.3e-05
2017-07-31 00:00:00,2017-07-31 00:00:00,PRATE,surface,-92.8129,29.7637,4.9e-05
2017-07-31 00:00:00,2017-07-31 00:00:00,PRATE,surface,-107.813,30.7085,4.1e-06
2017-07-31 00:00:00,2017-07-31 00:00:00,PRATE,surface,-106.875,30.7085,5.5e-06
2017-07-31 00:00:00,2017-07-31 00:00:00,PRATE,surface,-105.938,30.7085,9.1e-06
2017-07-31 00:00:00,2017-07-31 00:00:00,PRATE,surface,-105,30.7085,1.82e-05
2017-07-31 00:00:00,2017-07-31 00:00:00,PRATE,surface,-104.063,30.7085,2.92e-05
2017-07-31 00:00:00,2017-07-31 00:00:00,PRATE,surface,-103.125,30.7085,3.72e-05
2017-07-31 00:00:00,2017-07-31 00:00:00,PRATE,surface,-102.188,30.7085,4.39e-05
2017-07-31 00:00:00,2017-07-31 00:00:00,PRATE,surface,-101.25,30.7085,4.41e-05
2017-07-31 00:00:00,2017-07-31 00:00:00,PRATE,surface,-100.313,30.7085,3.82e-05
2017-07-31 00:00:00,2017-07-31 00:00:00,PRATE,surface,-99.3754,30.7085,3.36e-05
2017-07-31 00:00:00,2017-07-31 00:00:00,PRATE,surface,-98.4379,30.7085,2.29e-05
2017-07-31 00:00:00,2017-07-31 00:00:00,PRATE,surface,-97.5004,30.7085,1.28e-05
2017-07-31 00:00:00,2017-07-31 00:00:00,PRATE,surface,-96.5629,30.7085,1.09e-05
2017-07-31 00:00:00,2017-07-31 00:00:00,PRATE,surface,-95.6254,30.7085,1.04e-05
2017-07-31 00:00:00,2017-07-31 00:00:00,PRATE,surface,-94.6879,30.7085,7.8e-06
2017-07-31 00:00:00,2017-07-31 00:00:00,PRATE,surface,-93.7504,30.7085,1.23e-05
2017-07-31 00:00:00,2017-07-31 00:00:00,PRATE,surface,-92.8129,30.7085,3.14e-05
2017-07-31 00:00:00,2017-07-31 00:00:00,PRATE,surface,-107.813,31.6534,1.9e-06
2017-07-31 00:00:00,2017-07-31 00:00:00,PRATE,surface,-106.875,31.6534,2.6e-06
2017-07-31 00:00:00,2017-07-31 00:00:00,PRATE,surface,-105.938,31.6534,3.5e-06
2017-07-31 00:00:00,2017-07-31 00:00:00,PRATE,surface,-105,31.6534,1.04e-05
2017-07-31 00:00:00,2017-07-31 00:00:00,PRATE,surface,-104.063,31.6534,1.77e-05
2017-07-31 00:00:00,2017-07-31 00:00:00,PRATE,surface,-103.125,31.6534,1.28e-05
2017-07-31 00:00:00,2017-07-31 00:00:00,PRATE,surface,-102.188,31.6534,1.62e-05
2017-07-31 00:00:00,2017-07-31 00:00:00,PRATE,surface,-101.25,31.6534,2.2e-05
2017-07-31 00:00:00,2017-07-31 00:00:00,PRATE,surface,-100.313,31.6534,2.75e-05
2017-07-31 00:00:00,2017-07-31 00:00:00,PRATE,surface,-99.3754,31.6534,3.09e-05
2017-07-31 00:00:00,2017-07-31 00:00:00,PRATE,surface,-98.4379,31.6534,2.4e-05
2017-07-31 00:00:00,2017-07-31 00:00:00,PRATE,surface,-97.5004,31.6534,1.53e-05
2017-07-31 00:00:00,2017-07-31 00:00:00,PRATE,surface,-96.5629,31.6534,1.46e-05
2017-07-31 00:00:00,2017-07-31 00:00:00,PRATE,surface,-95.6254,31.6534,1.52e-05
2017-07-31 00:00:00,2017-07-31 00:00:00,PRATE,surface,-94.6879,31.6534,1.39e-05
2017-07-31 00:00:00,2017-07-31 00:00:00,PRATE,surface,-93.7504,31.6534,1.78e-05
2017-07-31 00:00:00,2017-07-31 00:00:00,PRATE,surface,-92.8129,31.6534,2.59e-05
2017-07-31 00:00:00,2017-07-31 00:00:00,PRATE,surface,-107.813,32.5983,2.7e-06
2017-07-31 00:00:00,2017-07-31 00:00:00,PRATE,surface,-106.875,32.5983,2.1e-06
2017-07-31 00:00:00,2017-07-31 00:00:00,PRATE,surface,-105.938,32.5983,3.2e-06
2017-07-31 00:00:00,2017-07-31 00:00:00,PRATE,surface,-105,32.5983,8.2e-06
2017-07-31 00:00:00,2017-07-31 00:00:00,PRATE,surface,-104.063,32.5983,7.6e-06
2017-07-31 00:00:00,2017-07-31 00:00:00,PRATE,surface,-103.125,32.5983,5.8e-06
2017-07-31 00:00:00,2017-07-31 00:00:00,PRATE,surface,-102.188,32.5983,1.12e-05
2017-07-31 00:00:00,2017-07-31 00:00:00,PRATE,surface,-101.25,32.5983,2.21e-05
2017-07-31 00:00:00,2017-07-31 00:00:00,PRATE,surface,-100.313,32.5983,2.71e-05
2017-07-31 00:00:00,2017-07-31 00:00:00,PRATE,surface,-99.3754,32.5983,3e-05
2017-07-31 00:00:00,2017-07-31 00:00:00,PRATE,surface,-98.4379,32.5983,2.6e-05
2017-07-31 00:00:00,2017-07-31 00:00:00,PRATE,surface,-97.5004,32.5983,1.87e-05
2017-07-31 00:00:00,2017-07-31 00:00:00,PRATE,surface,-96.5629,32.5983,1.58e-05
2017-07-31 00:00:00,2017-07-31 00:00:00,PRATE,surface,-95.6254,32.5983,1.6e-05
2017-07-31 00:00:00,2017-07-31 00:00:00,PRATE,surface,-94.6879,32.5983,1.77e-05
2017-07-31 00:00:00,2017-07-31 00:00:00,PRATE,surface,-93.7504,32.5983,2.22e-05
2017-07-31 00:00:00,2017-07-31 00:00:00,PRATE,surface,-92.8129,32.5983,2.19e-05
2017-07-31 00:00:00,2017-07-31 00:00:00,PRATE,surface,-107.813,33.5432,5.7e-06
2017-07-31 00:00:00,2017-07-31 00:00:00,PRATE,surface,-106.875,33.5432,5.6e-06
2017-07-31 00:00:00,2017-07-31 00:00:00,PRATE,surface,-105.938,33.5432,6.7e-06
2017-07-31 00:00:00,2017-07-31 00:00:00,PRATE,surface,-105,33.5432,1.18e-05
2017-07-31 00:00:00,2017-07-31 00:00:00,PRATE,surface,-104.063,33.5432,9e-06
2017-07-31 00:00:00,2017-07-31 00:00:00,PRATE,surface,-103.125,33.5432,6.4e-06
2017-07-31 00:00:00,2017-07-31 00:00:00,PRATE,surface,-102.188,33.5432,1.08e-05
2017-07-31 00:00:00,2017-07-31 00:00:00,PRATE,surface,-101.25,33.5432,2.02e-05
2017-07-31 00:00:00,2017-07-31 00:00:00,PRATE,surface,-100.313,33.5432,2.43e-05
2017-07-31 00:00:00,2017-07-31 00:00:00,PRATE,surface,-99.3754,33.5432,2.41e-05
2017-07-31 00:00:00,2017-07-31 00:00:00,PRATE,surface,-98.4379,33.5432,2.57e-05
2017-07-31 00:00:00,2017-07-31 00:00:00,PRATE,surface,-97.5004,33.5432,2.69e-05
2017-07-31 00:00:00,2017-07-31 00:00:00,PRATE,surface,-96.5629,33.5432,2.41e-05
2017-07-31 00:00:00,2017-07-31 00:00:00,PRATE,surface,-95.6254,33.5432,1.93e-05
2017-07-31 00:00:00,2017-07-31 00:00:00,PRATE,surface,-94.6879,33.5432,1.67e-05
2017-07-31 00:00:00,2017-07-31 00:00:00,PRATE,surface,-93.7504,33.5432,1.86e-05
2017-07-31 00:00:00,2017-07-31 00:00:00,PRATE,surface,-92.8129,33.5432,2.08e-05
2017-07-31 00:00:00,2017-07-31 00:00:00,PRATE,surface,-107.813,34.4881,5.7e-06
2017-07-31 00:00:00,2017-07-31 00:00:00,PRATE,surface,-106.875,34.4881,8.4e-06
2017-07-31 00:00:00,2017-07-31 00:00:00,PRATE,surface,-105.938,34.4881,1.64e-05
2017-07-31 00:00:00,2017-07-31 00:00:00,PRATE,surface,-105,34.4881,1.42e-05
2017-07-31 00:00:00,2017-07-31 00:00:00,PRATE,surface,-104.063,34.4881,1.13e-05
2017-07-31 00:00:00,2017-07-31 00:00:00,PRATE,surface,-103.125,34.4881,8e-06
2017-07-31 00:00:00,2017-07-31 00:00:00,PRATE,surface,-102.188,34.4881,1.38e-05
2017-07-31 00:00:00,2017-07-31 00:00:00,PRATE,surface,-101.25,34.4881,2.16e-05
2017-07-31 00:00:00,2017-07-31 00:00:00,PRATE,surface,-100.313,34.4881,2.48e-05
2017-07-31 00:00:00,2017-07-31 00:00:00,PRATE,surface,-99.3754,34.4881,2.08e-05
2017-07-31 00:00:00,2017-07-31 00:00:00,PRATE,surface,-98.4379,34.4881,2.03e-05
2017-07-31 00:00:00,2017-07-31 00:00:00,PRATE,surface,-97.5004,34.4881,2.44e-05
2017-07-31 00:00:00,2017-07-31 00:00:00,PRATE,surface,-96.5629,34.4881,2.41e-05
2017-07-31 00:00:00,2017-07-31 00:00:00,PRATE,surface,-95.6254,34.4881,1.86e-05
2017-07-31 00:00:00,2017-07-31 00:00:00,PRATE,surface,-94.6879,34.4881,1.65e-05
2017-07-31 00:00:00,2017-07-31 00:00:00,PRATE,surface,-93.7504,34.4881,1.96e-05
2017-07-31 00:00:00,2017-07-31 00:00:00,PRATE,surface,-92.8129,34.4881,2.09e-05
2017-07-31 00:00:00,2017-07-31 00:00:00,PRATE,surface,-107.813,35.4329,4.1e-06
2017-07-31 00:00:00,2017-07-31 00:00:00,PRATE,surface,-106.875,35.4329,1.08e-05
2017-07-31 00:00:00,2017-07-31 00:00:00,PRATE,surface,-105.938,35.4329,1.66e-05
2017-07-31 00:00:00,2017-07-31 00:00:00,PRATE,surface,-105,35.4329,1.32e-05
2017-07-31 00:00:00,2017-07-31 00:00:00,PRATE,surface,-104.063,35.4329,1.81e-05
2017-07-31 00:00:00,2017-07-31 00:00:00,PRATE,surface,-103.125,35.4329,2.07e-05
2017-07-31 00:00:00,2017-07-31 00:00:00,PRATE,surface,-102.188,35.4329,2.07e-05
2017-07-31 00:00:00,2017-07-31 00:00:00,PRATE,surface,-101.25,35.4329,2.06e-05
2017-07-31 00:00:00,2017-07-31 00:00:00,PRATE,surface,-100.313,35.4329,1.99e-05
2017-07-31 00:00:00,2017-07-31 00:00:00,PRATE,surface,-99.3754,35.4329,1.65e-05
2017-07-31 00:00:00,2017-07-31 00:00:00,PRATE,surface,-98.4379,35.4329,1.57e-05
2017-07-31 00:00:00,2017-07-31 00:00:00,PRATE,surface,-97.5004,35.4329,1.63e-05
2017-07-31 00:00:00,2017-07-31 00:00:00,PRATE,surface,-96.5629,35.4329,1.62e-05
2017-07-31 00:00:00,2017-07-31 00:00:00,PRATE,surface,-95.6254,35.4329,1.77e-05
2017-07-31 00:00:00,2017-07-31 00:00:00,PRATE,surface,-94.6879,35.4329,2.3e-05
2017-07-31 00:00:00,2017-07-31 00:00:00,PRATE,surface,-93.7504,35.4329,2.86e-05
2017-07-31 00:00:00,2017-07-31 00:00:00,PRATE,surface,-92.8129,35.4329,2.82e-05
2017-07-31 00:00:00,2017-07-31 00:00:00,PRATE,surface,-107.813,36.3778,4.8e-06
2017-07-31 00:00:00,2017-07-31 00:00:00,PRATE,surface,-106.875,36.3778,1.54e-05
2017-07-31 00:00:00,2017-07-31 00:00:00,PRATE,surface,-105.938,36.3778,1.63e-05
2017-07-31 00:00:00,2017-07-31 00:00:00,PRATE,surface,-105,36.3778,1.31e-05
2017-07-31 00:00:00,2017-07-31 00:00:00,PRATE,surface,-104.063,36.3778,2.28e-05
2017-07-31 00:00:00,2017-07-31 00:00:00,PRATE,surface,-103.125,36.3778,2.22e-05
2017-07-31 00:00:00,2017-07-31 00:00:00,PRATE,surface,-102.188,36.3778,1.39e-05
2017-07-31 00:00:00,2017-07-31 00:00:00,PRATE,surface,-101.25,36.3778,1.59e-05
2017-07-31 00:00:00,2017-07-31 00:00:00,PRATE,surface,-100.313,36.3778,1.48e-05
2017-07-31 00:00:00,2017-07-31 00:00:00,PRATE,surface,-99.3754,36.3778,1.67e-05
2017-07-31 00:00:00,2017-07-31 00:00:00,PRATE,surface,-98.4379,36.3778,2.1e-05
2017-07-31 00:00:00,2017-07-31 00:00:00,PRATE,surface,-97.5004,36.3778,2.48e-05
2017-07-31 00:00:00,2017-07-31 00:00:00,PRATE,surface,-96.5629,36.3778,2.34e-05
2017-07-31 00:00:00,2017-07-31 00:00:00,PRATE,surface,-95.6254,36.3778,2.07e-05
2017-07-31 00:00:00,2017-07-31 00:00:00,PRATE,surface,-94.6879,36.3778,2.7e-05
2017-07-31 00:00:00,2017-07-31 00:00:00,PRATE,surface,-93.7504,36.3778,3.47e-05
2017-07-31 00:00:00,2017-07-31 00:00:00,PRATE,surface,-92.8129,36.3778,2.83e-05
