2011-05-25 00:00:00,2011-05-25 00:00:00,TMP,surface,-107.813,25.0393,295.373
2011-05-25 00:00:00,2011-05-25 00:00:00,TMP,surface,-106.875,25.0393,289.215
2011-05-25 00:00:00,2011-05-25 00:00:00,TMP,surface,-105.938,25.0393,284.48
2011-05-25 00:00:00,2011-05-25 00:00:00,TMP,surface,-105,25.0393,283.37
2011-05-25 00:00:00,2011-05-25 00:00:00,TMP,surface,-104.063,25.0393,287.022
2011-05-25 00:00:00,2011-05-25 00:00:00,TMP,surface,-103.125,25.0393,290.021
2011-05-25 00:00:00,2011-05-25 00:00:00,TMP,surface,-102.188,25.0393,290.045
2011-05-25 00:00:00,2011-05-25 00:00:00,TMP,surface,-101.25,25.0393,288.08
2011-05-25 00:00:00,2011-05-25 00:00:00,TMP,surface,-100.313,25.0393,288.211
2011-05-25 00:00:00,2011-05-25 00:00:00,TMP,surface,-99.3754,25.0393,290.901
2011-05-25 00:00:00,2011-05-25 00:00:00,TMP,surface,-98.4379,25.0393,294.453
2011-05-25 00:00:00,2011-05-25 00:00:00,TMP,surface,-97.5004,25.0393,298.434
2011-05-25 00:00:00,2011-05-25 00:00:00,TMP,surface,-96.5629,25.0393,298.877
2011-05-25 00:00:00,2011-05-25 00:00:00,TMP,surface,-95.6254,25.0393,299.182
2011-05-25 00:00:00,2011-05-25 00:00:00,TMP,surface,-94.6879,25.0393,299.152
2011-05-25 00:00:00,2011-05-25 00:00:00,TMP,surface,-93.7504,25.0393,298.826
2011-05-25 00:00:00,2011-05-25 00:00:00,TMP,surface,-92.8129,25.0393,298.547
2011-05-25 00:00:00,2011-05-25 00:00:00,TMP,surface,-107.813,25.9842,290.173
2011-05-25 00:00:00,2011-05-25 00:00:00,TMP,surface,-106.875,25.9842,284.922
2011-05-25 00:00:00,2011-05-25 00:00:00,TMP,surface,-105.938,25.9842,282.803
2011-05-25 00:00:00,2011-05-25 00:00:00,TMP,surface,-105,25.9842,284.864
2011-05-25 00:00:00,2011-05-25 00:00:00,TMP,surface,-104.063,25.9842,288.837
2011-05-25 00:00:00,2011-05-25 00:00:00,TMP,surface,-103.125,25.9842,290.754
2011-05-25 00:00:00,2011-05-25 00:00:00,TMP,surface,-102.188,25.9842,290.261
2011-05-25 00:00:00,2011-05-25 00:00:00,TMP,surface,-101.25,25.9842,289.357
2011-05-25 00:00:00,2011-05-25 00:00:00,TMP,surface,-100.313,25.9842,289.731
2011-05-25 00:00:00,2011-05-25 00:00:00,TMP,surface,-99.3754,25.9842,292.663
2011-05-25 00:00:00,2011-05-25 00:00:00,TMP,surface,-98.4379,25.9842,294.802
2011-05-25 00:00:00,2011-05-25 00:00:00,TMP,surface,-97.5004,25.9842,296.04
2011-05-25 00:00:00,2011-05-25 00:00:00,TMP,surface,-96.5629,25.9842,298.003
2011-05-25 00:00:00,2011-05-25 00:00:00,TMP,surface,-95.6254,25.9842,298.421
2011-05-25 00:00:00,2011-05-25 00:00:00,TMP,surface,-94.6879,25.9842,298.704
2011-05-25 00:00:00,2011-05-25 00:00:00,TMP,surface,-93.7504,25.9842,298.555
2011-05-25 00:00:00,2011-05-25 00:00:00,TMP,surface,-92.8129,25.9842,298.544
2011-05-25 00:00:00,2011-05-25 00:00:00,TMP,surface,-107.813,26.929,285.534
2011-05-25 00:00:00,2011-05-25 00:00:00,TMP,surface,-106.875,26.929,281.951
2011-05-25 00:00:00,2011-05-25 00:00:00,TMP,surface,-105.938,26.929,284.018
2011-05-25 00:00:00,2011-05-25 00:00:00,TMP,surface,-105,26.929,286.869
2011-05-25 00:00:00,2011-05-25 00:00:00,TMP,surface,-104.063,26.929,288.501
2011-05-25 00:00:00,2011-05-25 00:00:00,TMP,surface,-103.125,26.929,288.35
2011-05-25 00:00:00,2011-05-25 00:00:00,TMP,surface,-102.188,26.929,288.405
2011-05-25 00:00:00,2011-05-25 00:00:00,TMP,surface,-101.25,26.929,289.405
2011-05-25 00:00:00,2011-05-25 00:00:00,TMP,surface,-100.313,26.929,291.375
2011-05-25 00:00:00,2011-05-25 00:00:00,TMP,surface,-99.3754,26.929,293.234
2011-05-25 00:00:00,2011-05-25 00:00:00,TMP,surface,-98.4379,26.929,293.871
2011-05-25 00:00:00,2011-05-25 00:00:00,TMP,surface,-97.5004,26.929,297.106
2011-05-25 00:00:00,2011-05-25 00:00:00,TMP,surface,-96.5629,26.929,297.315
2011-05-25 00:00:00,2011-05-25 00:00:00,TMP,surface,-95.6254,26.929,297.547
2011-05-25 00:00:00,2011-05-25 00:00:00,TMP,surface,-94.6879,26.929,297.931
2011-05-25 00:00:00,2011-05-25 00:00:00,TMP,surface,-93.7504,26.929,297.898
2011-05-25 00:00:00,2011-05-25 00:00:00,TMP,surface,-92.8129,26.929,297.965
2011-05-25 00:00:00,2011-05-25 00:00:00,TMP,surface,-107.813,27.8739,282.421
2011-05-25 00:00:00,2011-05-25 00:00:00,TMP,surface,-106.875,27.8739,281.594
2011-05-25 00:00:00,2011-05-25 00:00:00,TMP,surface,-105.938,27.8739,284.997
2011-05-25 00:00:00,2011-05-25 00:00:00,TMP,surface,-105,27.8739,287.613
2011-05-25 00:00:00,2011-05-25 00:00:00,TMP,surface,-104.063,27.8739,287.734
2011-05-25 00:00:00,2011-05-25 00:00:00,TMP,surface,-103.125,27.8739,286.565
2011-05-25 00:00:00,2011-05-25 00:00:00,TMP,surface,-102.188,27.8739,286.891
2011-05-25 00:00:00,2011-05-25 00:00:00,TMP,surface,-101.25,27.8739,288.918
2011-05-25 00:00:00,2011-05-25 00:00:00,TMP,surface,-100.313,27.8739,291.134
2011-05-25 00:00:00,2011-05-25 00:00:00,TMP,surface,-99.3754,27.8739,292.17
2011-05-25 00:00:00,2011-05-25 00:00:00,TMP,surface,-98.4379,27.8739,292.607
2011-05-25 00:00:00,2011-05-25 00:00:00,TMP,surface,-97.5004,27.8739,295.104
2011-05-25 00:00:00,2011-05-25 00:00:00,TMP,surface,-96.5629,27.8739,297.47
2011-05-25 00:00:00,2011-05-25 00:00:00,TMP,surface,-95.6254,27.8739,297.467
2011-05-25 00:00:00,2011-05-25 00:00:00,TMP,surface,-94.6879,27.8739,297.298
2011-05-25 00:00:00,2011-05-25 00:00:00,TMP,surface,-93.7504,27.8739,297.229
2011-05-25 00:00:00,2011-05-25 00:00:00,TMP,surface,-92.8129,27.8739,297.251
2011-05-25 00:00:00,2011-05-25 00:00:00,TMP,surface,-107.813,28.8188,281.251
2011-05-25 00:00:00,2011-05-25 00:00:00,TMP,surface,-106.875,28.8188,282.179
2011-05-25 00:00:00,2011-05-25 00:00:00,TMP,surface,-105.938,28.8188,285.363
2011-05-25 00:00:00,2011-05-25 00:00:00,TMP,surface,-105,28.8188,287.339
2011-05-25 00:00:00,2011-05-25 00:00:00,TMP,surface,-104.063,28.8188,286.424
2011-05-25 00:00:00,2011-05-25 00:00:00,TMP,surface,-103.125,28.8188,285.554
2011-05-25 00:00:00,2011-05-25 00:00:00,TMP,surface,-102.188,28.8188,286.267
2011-05-25 00:00:00,2011-05-25 00:00:00,TMP,surface,-101.25,28.8188,288.221
2011-05-25 00:00:00,2011-05-25 00:00:00,TMP,surface,-100.313,28.8188,289.576
2011-05-25 00:00:00,2011-05-25 00:00:00,TMP,surface,-99.3754,28.8188,290.077
2011-05-25 00:00:00,2011-05-25 00:00:00,TMP,surface,-98.4379,28.8188,290.648
2011-05-25 00:00:00,2011-05-25 00:00:00,TMP,surface,-97.5004,28.8188,291.587
2011-05-25 00:00:00,2011-05-25 00:00:00,TMP,surface,-96.5629,28.8188,292.504
2011-05-25 00:00:00,2011-05-25 00:00:00,TMP,surface,-95.6254,28.8188,294.451
2011-05-25 00:00:00,2011-05-25 00:00:00,TMP,surface,-94.6879,28.8188,296.861
2011-05-25 00:00:00,2011-05-25 00:00:00,TMP,surface,-93.7504,28.8188,296.731
2011-05-25 00:00:00,2011-05-25 00:00:00,TMP,surface,-92.8129,28.8188,296.864
2011-05-25 00:00:00,2011-05-25 00:00:00,TMP,surface,-107.813,29.7637,282.357
2011-05-25 00:00:00,2011-05-25 00:00:00,TMP,surface,-106.875,29.7637,283.37
2011-05-25 00:00:00,2011-05-25 00:00:00,TMP,surface,-105.938,29.7637,285.546
2011-05-25 00:00:00,2011-05-25 00:00:00,TMP,surface,-105,29.7637,285.941
2011-05-25 00:00:00,2011-05-25 00:00:00,TMP,surface,-104.063,29.7637,285.534
2011-05-25 00:00:00,2011-05-25 00:00:00,TMP,surface,-103.125,29.7637,285.728
2011-05-25 00:00:00,2011-05-25 00:00:00,TMP,surface,-102.188,29.7637,286.762
2011-05-25 00:00:00,2011-05-25 00:00:00,TMP,surface,-101.25,29.7637,287.72
2011-05-25 00:00:00,2011-05-25 00:00:00,TMP,surface,-100.313,29.7637,287.984
2011-05-25 00:00:00,2011-05-25 00:00:00,TMP,surface,-99.3754,29.7637,288.149
2011-05-25 00:00:00,2011-05-25 00:00:00,TMP,surface,-98.4379,29.7637,288.747
2011-05-25 00:00:00,2011-05-25 00:00:00,TMP,surface,-97.5004,29.7637,289.472
2011-05-25 00:00:00,2011-05-25 00:00:00,TMP,surface,-96.5629,29.7637,290.005
2011-05-25 00:00:00,2011-05-25 00:00:00,TMP,surface,-95.6254,29.7637,290.549
2011-05-25 00:00:00,2011-05-25 00:00:00,TMP,surface,-94.6879,29.7637,292.754
2011-05-25 00:00:00,2011-05-25 00:00:00,TMP,surface,-93.7504,29.7637,295.242
2011-05-25 00:00:00,2011-05-25 00:00:00,TMP,surface,-92.8129,29.7637,291.144
2011-05-25 00:00:00,2011-05-25 00:00:00,TMP,surface,-107.813,30.7085,284.147
2011-05-25 00:00:00,2011-05-25 00:00:00,TMP,surface,-106.875,30.7085,285.072
2011-05-25 00:00:00,2011-05-25 00:00:00,TMP,surface,-105.938,30.7085,285.059
2011-05-25 00:00:00,2011-05-25 00:00:00,TMP,surface,-105,30.7085,284.547
2011-05-25 00:00:00,2011-05-25 00:00:00,TMP,surface,-104.063,30.7085,284.48
2011-05-25 00:00:00,2011-05-25 00:00:00,TMP,surface,-103.125,30.7085,285.533
2011-05-25 00:00:00,2011-05-25 00:00:00,TMP,surface,-102.188,30.7085,286.551
2011-05-25 00:00:00,2011-05-25 00:00:00,TMP,surface,-101.25,30.7085,286.882
2011-05-25 00:00:00,2011-05-25 00:00:00,TMP,surface,-100.313,30.7085,287.011
2011-05-25 00:00:00,2011-05-25 00:00:00,TMP,surface,-99.3754,30.7085,287.37
2011-05-25 00:00:00,2011-05-25 00:00:00,TMP,surface,-98.4379,30.7085,288.022
2011-05-25 00:00:00,2011-05-25 00:00:00,TMP,surface,-97.5004,30.7085,288.579
2011-05-25 00:00:00,2011-05-25 00:00:00,TMP,surface,-96.5629,30.7085,288.826
2011-05-25 00:00:00,2011-05-25 00:00:00,TMP,surface,-95.6254,30.7085,288.935
2011-05-25 00:00:00,2011-05-25 00:00:00,TMP,surface,-94.6879,30.7085,289.072
2011-05-25 00:00:00,2011-05-25 00:00:00,TMP,surface,-93.7504,30.7085,289.118
2011-05-25 00:00:00,2011-05-25 00:00:00,TMP,surface,-92.8129,30.7085,288.798
2011-05-25 00:00:00,2011-05-25 00:00:00,TMP,surface,-107.813,31.6534,284.061
2011-05-25 00:00:00,2011-05-25 00:00:00,TMP,surface,-106.875,31.6534,284.355
2011-05-25 00:00:00,2011-05-25 00:00:00,TMP,surface,-105.938,31.6534,283.571
2011-05-25 00:00:00,2011-05-25 00:00:00,TMP,surface,-105,31.6534,283.323
2011-05-25 00:00:00,2011-05-25 00:00:00,TMP,surface,-104.063,31.6534,283.96
2011-05-25 00:00:00,2011-05-25 00:00:00,TMP,surface,-103.125,31.6534,285.047
2011-05-25 00:00:00,2011-05-25 00:00:00,TMP,surface,-102.188,31.6534,285.827
2011-05-25 00:00:00,2011-05-25 00:00:00,TMP,surface,-101.25,31.6534,286.248
2011-05-25 00:00:00,2011-05-25 00:00:00,TMP,surface,-100.313,31.6534,286.73
2011-05-25 00:00:00,2011-05-25 00:00:00,TMP,surface,-99.3754,31.6534,287.389
2011-05-25 00:00:00,2011-05-25 00:00:00,TMP,surface,-98.4379,31.6534,288
2011-05-25 00:00:00,2011-05-25 00:00:00,TMP,surface,-97.5004,31.6534,288.36
2011-05-25 00:00:00,2011-05-25 00:00:00,TMP,surface,-96.5629,31.6534,288.447
2011-05-25 00:00:00,2011-05-25 00:00:00,TMP,surface,-95.6254,31.6534,288.285
2011-05-25 00:00:00,2011-05-25 00:00:00,TMP,surface,-94.6879,31.6534,287.992
2011-05-25 00:00:00,2011-05-25 00:00:00,TMP,surface,-93.7504,31.6534,287.848
2011-05-25 00:00:00,2011-05-25 00:00:00,TMP,surface,-92.8129,31.6534,287.902
2011-05-25 00:00:00,2011-05-25 00:00:00,TMP,surface,-107.813,32.5983,281.354
2011-05-25 00:00:00,2011-05-25 00:00:00,TMP,surface,-106.875,32.5983,281.586
2011-05-25 00:00:00,2011-05-25 00:00:00,TMP,surface,-105.938,32.5983,281.503
2011-05-25 00:00:00,2011-05-25 00:00:00,TMP,surface,-105,32.5983,281.962
2011-05-25 00:00:00,2011-05-25 00:00:00,TMP,surface,-104.063,32.5983,283.13
2011-05-25 00:00:00,2011-05-25 00:00:00,TMP,surface,-103.125,32.5983,284.171
2011-05-25 00:00:00,2011-05-25 00:00:00,TMP,surface,-102.188,32.5983,284.891
2011-05-25 00:00:00,2011-05-25 00:00:00,TMP,surface,-101.25,32.5983,285.637
2011-05-25 00:00:00,2011-05-25 00:00:00,TMP,surface,-100.313,32.5983,286.543
2011-05-25 00:00:00,2011-05-25 00:00:00,TMP,surface,-99.3754,32.5983,287.406
2011-05-25 00:00:00,2011-05-25 00:00:00,TMP,surface,-98.4379,32.5983,287.895
2011-05-25 00:00:00,2011-05-25 00:00:00,TMP,surface,-97.5004,32.5983,288.106
2011-05-25 00:00:00,2011-05-25 00:00:00,TMP,surface,-96.5629,32.5983,288.16
2011-05-25 00:00:00,2011-05-25 00:00:00,TMP,surface,-95.6254,32.5983,287.966
2011-05-25 00:00:00,2011-05-25 00:00:00,TMP,surface,-94.6879,32.5983,287.579
2011-05-25 00:00:00,2011-05-25 00:00:00,TMP,surface,-93.7504,32.5983,287.307
2011-05-25 00:00:00,2011-05-25 00:00:00,TMP,surface,-92.8129,32.5983,287.469
2011-05-25 00:00:00,2011-05-25 00:00:00,TMP,surface,-107.813,33.5432,277.747
2011-05-25 00:00:00,2011-05-25 00:00:00,TMP,surface,-106.875,33.5432,278.978
2011-05-25 00:00:00,2011-05-25 00:00:00,TMP,surface,-105.938,33.5432,279.805
2011-05-25 00:00:00,2011-05-25 00:00:00,TMP,surface,-105,33.5432,280.731
2011-05-25 00:00:00,2011-05-25 00:00:00,TMP,surface,-104.063,33.5432,282.103
2011-05-25 00:00:00,2011-05-25 00:00:00,TMP,surface,-103.125,33.5432,283.167
2011-05-25 00:00:00,2011-05-25 00:00:00,TMP,surface,-102.188,33.5432,283.869
2011-05-25 00:00:00,2011-05-25 00:00:00,TMP,surface,-101.25,33.5432,284.742
2011-05-25 00:00:00,2011-05-25 00:00:00,TMP,surface,-100.313,33.5432,285.843
2011-05-25 00:00:00,2011-05-25 00:00:00,TMP,surface,-99.3754,33.5432,286.707
2011-05-25 00:00:00,2011-05-25 00:00:00,TMP,surface,-98.4379,33.5432,287.014
2011-05-25 00:00:00,2011-05-25 00:00:00,TMP,surface,-97.5004,33.5432,287.026
2011-05-25 00:00:00,2011-05-25 00:00:00,TMP,surface,-96.5629,33.5432,287.118
2011-05-25 00:00:00,2011-05-25 00:00:00,TMP,surface,-95.6254,33.5432,287.147
2011-05-25 00:00:00,2011-05-25 00:00:00,TMP,surface,-94.6879,33.5432,286.839
2011-05-25 00:00:00,2011-05-25 00:00:00,TMP,surface,-93.7504,33.5432,286.514
2011-05-25 00:00:00,2011-05-25 00:00:00,TMP,surface,-92.8129,33.5432,286.531
2011-05-25 00:00:00,2011-05-25 00:00:00,TMP,surface,-107.813,34.4881,276.111
2011-05-25 00:00:00,2011-05-25 00:00:00,TMP,surface,-106.875,34.4881,277.378
2011-05-25 00:00:00,2011-05-25 00:00:00,TMP,surface,-105.938,34.4881,278.439
2011-05-25 00:00:00,2011-05-25 00:00:00,TMP,surface,-105,34.4881,279.635
2011-05-25 00:00:00,2011-05-25 00:00:00,TMP,surface,-104.063,34.4881,280.752
2011-05-25 00:00:00,2011-05-25 00:00:00,TMP,surface,-103.125,34.4881,281.787
2011-05-25 00:00:00,2011-05-25 00:00:00,TMP,surface,-102.188,34.4881,282.717
2011-05-25 00:00:00,2011-05-25 00:00:00,TMP,surface,-101.25,34.4881,283.691
2011-05-25 00:00:00,2011-05-25 00:00:00,TMP,surface,-100.313,34.4881,284.635
2011-05-25 00:00:00,2011-05-25 00:00:00,TMP,surface,-99.3754,34.4881,285.272
2011-05-25 00:00:00,2011-05-25 00:00:00,TMP,surface,-98.4379,34.4881,285.429
2011-05-25 00:00:00,2011-05-25 00:00:00,TMP,surface,-97.5004,34.4881,285.432
2011-05-25 00:00:00,2011-05-25 00:00:00,TMP,surface,-96.5629,34.4881,285.618
2011-05-25 00:00:00,2011-05-25 00:00:00,TMP,surface,-95.6254,34.4881,285.703
2011-05-25 00:00:00,2011-05-25 00:00:00,TMP,surface,-94.6879,34.4881,285.375
2011-05-25 00:00:00,2011-05-25 00:00:00,TMP,surface,-93.7504,34.4881,285.069
2011-05-25 00:00:00,2011-05-25 00:00:00,TMP,surface,-92.8129,34.4881,285.227
2011-05-25 00:00:00,2011-05-25 00:00:00,TMP,surface,-107.813,35.4329,275.84
2011-05-25 00:00:00,2011-05-25 00:00:00,TMP,surface,-106.875,35.4329,276.259
2011-05-25 00:00:00,2011-05-25 00:00:00,TMP,surface,-105.938,35.4329,277.011
2011-05-25 00:00:00,2011-05-25 00:00:00,TMP,surface,-105,35.4329,277.984
2011-05-25 00:00:00,2011-05-25 00:00:00,TMP,surface,-104.063,35.4329,279.709
2011-05-25 00:00:00,2011-05-25 00:00:00,TMP,surface,-103.125,35.4329,281.082
2011-05-25 00:00:00,2011-05-25 00:00:00,TMP,surface,-102.188,35.4329,281.733
2011-05-25 00:00:00,2011-05-25 00:00:00,TMP,surface,-101.25,35.4329,282.363
2011-05-25 00:00:00,2011-05-25 00:00:00,TMP,surface,-100.313,35.4329,283.112
2011-05-25 00:00:00,2011-05-25 00:00:00,TMP,surface,-99.3754,35.4329,283.539
2011-05-25 00:00:00,2011-05-25 00:00:00,TMP,surface,-98.4379,35.4329,283.773
2011-05-25 00:00:00,2011-05-25 00:00:00,TMP,surface,-97.5004,35.4329,284.125
2011-05-25 00:00:00,2011-05-25 00:00:00,TMP,surface,-96.5629,35.4329,284.474
2011-05-25 00:00:00,2011-05-25 00:00:00,TMP,surface,-95.6254,35.4329,284.509
2011-05-25 00:00:00,2011-05-25 00:00:00,TMP,surface,-94.6879,35.4329,284.207
2011-05-25 00:00:00,2011-05-25 00:00:00,TMP,surface,-93.7504,35.4329,283.874
2011-05-25 00:00:00,2011-05-25 00:00:00,TMP,surface,-92.8129,35.4329,283.915
2011-05-25 00:00:00,2011-05-25 00:00:00,TMP,surface,-107.813,36.3778,274.952
2011-05-25 00:00:00,2011-05-25 00:00:00,TMP,surface,-106.875,36.3778,273.712
2011-05-25 00:00:00,2011-05-25 00:00:00,TMP,surface,-105.938,36.3778,274.323
2011-05-25 00:00:00,2011-05-25 00:00:00,TMP,surface,-105,36.3778,275.798
2011-05-25 00:00:00,2011-05-25 00:00:00,TMP,surface,-104.063,36.3778,278.022
2011-05-25 00:00:00,2011-05-25 00:00:00,TMP,surface,-103.125,36.3778,279.186
2011-05-25 00:00:00,2011-05-25 00:00:00,TMP,surface,-102.188,36.3778,280.093
2011-05-25 00:00:00,2011-05-25 00:00:00,TMP,surface,-101.25,36.3778,280.949
2011-05-25 00:00:00,2011-05-25 00:00:00,TMP,surface,-100.313,36.3778,281.854
2011-05-25 00:00:00,2011-05-25 00:00:00,TMP,surface,-99.3754,36.3778,282.503
2011-05-25 00:00:00,2011-05-25 00:00:00,TMP,surface,-98.4379,36.3778,282.64
2011-05-25 00:00:00,2011-05-25 00:00:00,TMP,surface,-97.5004,36.3778,282.999
2011-05-25 00:00:00,2011-05-25 00:00:00,TMP,surface,-96.5629,36.3778,283.549
2011-05-25 00:00:00,2011-05-25 00:00:00,TMP,surface,-95.6254,36.3778,283.581
2011-05-25 00:00:00,2011-05-25 00:00:00,TMP,surface,-94.6879,36.3778,283.155
2011-05-25 00:00:00,2011-05-25 00:00:00,TMP,surface,-93.7504,36.3778,282.749
2011-05-25 00:00:00,2011-05-25 00:00:00,TMP,surface,-92.8129,36.3778,282.789
2011-05-25 00:00:00,2011-05-25 00:00:00,PRATE,surface,-107.813,25.0393,3.68e-05
2011-05-25 00:00:00,2011-05-25 00:00:00,PRATE,surface,-106.875,25.0393,3.94e-05
2011-05-25 00:00:00,2011-05-25 00:00:00,PRATE,surface,-105.938,25.0393,4.56e-05
2011-05-25 00:00:00,2011-05-25 00:00:00,PRATE,surface,-105,25.0393,3.63e-05
2011-05-25 00:00:00,2011-05-25 00:00:00,PRATE,surface,-104.063,25.0393,1.71e-05
2011-05-25 00:00:00,2011-05-25 00:00:00,PRATE,surface,-103.125,25.0393,2.5e-06
2011-05-25 00:00:00,2011-05-25 00:00:00,PRATE,surface,-102.188,25.0393,2.7e-06
2011-05-25 00:00:00,2011-05-25 00:00:00,PRATE,surface,-101.25,25.0393,1.51e-05
2011-05-25 00:00:00,2011-05-25 00:00:00,PRATE,surface,-100.313,25.0393,2.78e-05
2011-05-25 00:00:00,2011-05-25 00:00:00,PRATE,surface,-99.3754,25.0393,1.88e-05
2011-05-25 00:00:00,2011-05-25 00:00:00,PRATE,surface,-98.4379,25.0393,1.52e-05
2011-05-25 00:00:00,2011-05-25 00:00:00,PRATE,surface,-97.5004,25.0393,2.61e-05
2011-05-25 00:00:00,2011-05-25 00:00:00,PRATE,surface,-96.5629,25.0393,3.63e-05
2011-05-25 00:00:00,2011-05-25 00:00:00,PRATE,surface,-95.6254,25.0393,7.41e-05
2011-05-25 00:00:00,2011-05-25 00:00:00,PRATE,surface,-94.6879,25.0393,6.66e-05
2011-05-25 00:00:00,2011-05-25 00:00:00,PRATE,surface,-93.7504,25.0393,5.37e-05
2011-05-25 00:00:00,2011-05-25 00:00:00,PRATE,surface,-92.8129,25.0393,4.7e-05
2011-05-25 00:00:00,2011-05-25 00:00:00,PRATE,surface,-107.813,25.9842,3.65e-05
2011-05-25 00:00:00,2011-05-25 00:00:00,PRATE,surface,-106.875,25.9842,3.35e-05
2011-05-25 00:00:00,2011-05-25 00:00:00,PRATE,surface,-105.938,25.9842,3.52e-05
2011-05-25 00:00:00,2011-05-25 00:00:00,PRATE,surface,-105,25.9842,3.15e-05
2011-05-25 00:00:00,2011-05-25 00:00:00,PRATE,surface,-104.063,25.9842,1.4e-05
2011-05-25 00:00:00,2011-05-25 00:00:00,PRATE,surface,-103.125,25.9842,3.9e-06
2011-05-25 00:00:00,2011-05-25 00:00:00,PRATE,surface,-102.188,25.9842,4e-06
2011-05-25 00:00:00,2011-05-25 00:00:00,PRATE,surface,-101.25,25.9842,1.26e-05
2011-05-25 00:00:00,2011-05-25 00:00:00,PRATE,surface,-100.313,25.9842,2.24e-05
2011-05-25 00:00:00,2011-05-25 00:00:00,PRATE,surface,-99.3754,25.9842,1.08e-05
2011-05-25 00:00:00,2011-05-25 00:00:00,PRATE,surface,-98.4379,25.9842,1.5e-05
2011-05-25 00:00:00,2011-05-25 00:00:00,PRATE,surface,-97.5004,25.9842,2.07e-05
2011-05-25 00:00:00,2011-05-25 00:00:00,PRATE,surface,-96.5629,25.9842,2.93e-05
2011-05-25 00:00:00,2011-05-25 00:00:00,PRATE,surface,-95.6254,25.9842,5.84e-05
2011-05-25 00:00:00,2011-05-25 00:00:00,PRATE,surface,-94.6879,25.9842,7.15e-05
2011-05-25 00:00:00,2011-05-25 00:00:00,PRATE,surface,-93.7504,25.9842,5.63e-05
2011-05-25 00:00:00,2011-05-25 00:00:00,PRATE,surface,-92.8129,25.9842,4.38e-05
2011-05-25 00:00:00,2011-05-25 00:00:00,PRATE,surface,-107.813,26.929,3e-05
2011-05-25 00:00:00,2011-05-25 00:00:00,PRATE,surface,-106.875,26.929,2.36e-05
2011-05-25 00:00:00,2011-05-25 00:00:00,PRATE,surface,-105.938,26.929,1.84e-05
2011-05-25 00:00:00,2011-05-25 00:00:00,PRATE,surface,-105,26.929,1.75e-05
2011-05-25 00:00:00,2011-05-25 00:00:00,PRATE,surface,-104.063,26.929,1.42e-05
2011-05-25 00:00:00,2011-05-25 00:00:00,PRATE,surface,-103.125,26.929,1.31e-05
2011-05-25 00:00:00,2011-05-25 00:00:00,PRATE,surface,-102.188,26.929,1.45e-05
2011-05-25 00:00:00,2011-05-25 00:00:00,PRATE,surface,-101.25,26.929,2.02e-05
2011-05-25 00:00:00,2011-05-25 00:00:00,PRATE,surface,-100.313,26.929,1.08e-05
2011-05-25 00:00:00,2011-05-25 00:00:00,PRATE,surface,-99.3754,26.929,9.3e-06
2011-05-25 00:00:00,2011-05-25 00:00:00,PRATE,surface,-98.4379,26.929,1.54e-05
2011-05-25 00:00:00,2011-05-25 00:00:00,PRATE,surface,-97.5004,26.929,2.77e-05
2011-05-25 00:00:00,2011-05-25 00:00:00,PRATE,surface,-96.5629,26.929,3.38e-05
2011-05-25 00:00:00,2011-05-25 00:00:00,PRATE,surface,-95.6254,26.929,3.45e-05
2011-05-25 00:00:00,2011-05-25 00:00:00,PRATE,surface,-94.6879,26.929,4.06e-05
2011-05-25 00:00:00,2011-05-25 00:00:00,PRATE,surface,-93.7504,26.929,4.59e-05
2011-05-25 00:00:00,2011-05-25 00:00:00,PRATE,surface,-92.8129,26.929,3.69e-05
2011-05-25 00:00:00,2011-05-25 00:00:00,PRATE,surface,-107.813,27.8739,2.11e-05
2011-05-25 00:00:00,2011-05-25 00:00:00,PRATE,surface,-106.875,27.8739,1.54e-05
2011-05-25 00:00:00,2011-05-25 00:00:00,PRATE,surface,-105.938,27.8739,8.6e-06
2011-05-25 00:00:00,2011-05-25 00:00:00,PRATE,surface,-105,27.8739,6.1e-06
2011-05-25 00:00:00,2011-05-25 00:00:00,PRATE,surface,-104.063,27.8739,1.49e-05
2011-05-25 00:00:00,2011-05-25 00:00:00,PRATE,surface,-103.125,27.8739,3.07e-05
2011-05-25 00:00:00,2011-05-25 00:00:00,PRATE,surface,-102.188,27.8739,3.46e-05
2011-05-25 00:00:00,2011-05-25 00:00:00,PRATE,surface,-101.25,27.8739,2.01e-05
2011-05-25 00:00:00,2011-05-25 00:00:00,PRATE,surface,-100.313,27.8739,1.11e-05
2011-05-25 00:00:00,2011-05-25 00:00:00,PRATE,surface,-99.3754,27.8739,1.16e-05
2011-05-25 00:00:00,2011-05-25 00:00:00,PRATE,surface,-98.4379,27.8739,1.61e-05
2011-05-25 00:00:00,2011-05-25 00:00:00,PRATE,surface,-97.5004,27.8739,1.78e-05
2011-05-25 00:00:00,2011-05-25 00:00:00,PRATE,surface,-96.5629,27.8739,1.87e-05
2011-05-25 00:00:00,2011-05-25 00:00:00,PRATE,surface,-95.6254,27.8739,2.94e-05
2011-05-25 00:00:00,2011-05-25 00:00:00,PRATE,surface,-94.6879,27.8739,4.32e-05
2011-05-25 00:00:00,2011-05-25 00:00:00,PRATE,surface,-93.7504,27.8739,4.15e-05
2011-05-25 00:00:00,2011-05-25 00:00:00,PRATE,surface,-92.8129,27.8739,3.81e-05
2011-05-25 00:00:00,2011-05-25 00:00:00,PRATE,surface,-107.813,28.8188,1.5e-05
2011-05-25 00:00:00,2011-05-25 00:00:00,PRATE,surface,-106.875,28.8188,1.17e-05
2011-05-25 00:00:00,2011-05-25 00:00:00,PRATE,surface,-105.938,28.8188,5.2e-06
2011-05-25 00:00:00,2011-05-25 00:00:00,PRATE,surface,-105,28.8188,3.1e-06
2011-05-25 00:00:00,2011-05-25 00:00:00,PRATE,surface,-104.063,28.8188,1.01e-05
2011-05-25 00:00:00,2011-05-25 00:00:00,PRATE,surface,-103.125,28.8188,2.33e-05
2011-05-25 00:00:00,2011-05-25 00:00:00,PRATE,surface,-102.188,28.8188,2.38e-05
2011-05-25 00:00:00,2011-05-25 00:00:00,PRATE,surface,-101.25,28.8188,1.75e-05
2011-05-25 00:00:00,2011-05-25 00:00:00,PRATE,surface,-100.313,28.8188,1.43e-05
2011-05-25 00:00:00,2011-05-25 00:00:00,PRATE,surface,-99.3754,28.8188,1.37e-05
2011-05-25 00:00:00,2011-05-25 00:00:00,PRATE,surface,-98.4379,28.8188,1.47e-05
2011-05-25 00:00:00,2011-05-25 00:00:00,PRATE,surface,-97.5004,28.8188,1.44e-05
2011-05-25 00:00:00,2011-05-25 00:00:00,PRATE,surface,-96.5629,28.8188,1.59e-05
2011-05-25 00:00:00,2011-05-25 00:00:00,PRATE,surface,-95.6254,28.8188,2.74e-05
2011-05-25 00:00:00,2011-05-25 00:00:00,PRATE,surface,-94.6879,28.8188,4.31e-05
2011-05-25 00:00:00,2011-05-25 00:00:00,PRATE,surface,-93.7504,28.8188,4.54e-05
2011-05-25 00:00:00,2011-05-25 00:00:00,PRATE,surface,-92.8129,28.8188,3.44e-05
2011-05-25 00:00:00,2011-05-25 00:00:00,PRATE,surface,-107.813,29.7637,7.1e-06
2011-05-25 00:00:00,2011-05-25 00:00:00,PRATE,surface,-106.875,29.7637,9e-06
2011-05-25 00:00:00,2011-05-25 00:00:00,PRATE,surface,-105.938,29.7637,5.9e-06
2011-05-25 00:00:00,2011-05-25 00:00:00,PRATE,surface,-105,29.7637,4.2e-06
2011-05-25 00:00:00,2011-05-25 00:00:00,PRATE,surface,-104.063,29.7637,8.4e-06
2011-05-25 00:00:00,2011-05-25 00:00:00,PRATE,surface,-103.125,29.7637,1.17e-05
2011-05-25 00:00:00,2011-05-25 00:00:00,PRATE,surface,-102.188,29.7637,1.31e-05
2011-05-25 00:00:00,2011-05-25 00:00:00,PRATE,surface,-101.25,29.7637,1.44e-05
2011-05-25 00:00:00,2011-05-25 00:00:00,PRATE,surface,-100.313,29.7637,1.87e-05
2011-05-25 00:00:00,2011-05-25 00:00:00,PRATE,surface,-99.3754,29.7637,2.2e-05
2011-05-25 00:00:00,2011-05-25 00:00:00,PRATE,surface,-98.4379,29.7637,2.02e-05
2011-05-25 00:00:00,2011-05-25 00:00:00,PRATE,surface,-97.5004,29.7637,1.77e-05
2011-05-25 00:00:00,2011-05-25 00:00:00,PRATE,surface,-96.5629,29.7637,2.16e-05
2011-05-25 00:00:00,2011-05-25 00:00:00,PRATE,surface,-95.6254,29.7637,3.44e-05
2011-05-25 00:00:00,2011-05-25 00:00:00,PRATE,surface,-94.6879,29.7637,4.71e-05
2011-05-25 00:00:00,2011-05-25 00:00:00,PRATE,surface,-93.7504,29.7637,4.57e-05
2011-05-25 00:00:00,2011-05-25 00:00:00,PRATE,surface,-92.8129,29.7637,3.42e-05
2011-05-25 00:00:00,2011-05-25 00:00:00,PRATE,surface,-107.813,30.7085,3.5e-06
2011-05-25 00:00:00,2011-05-25 00:00:00,PRATE,surface,-106.875,30.7085,5.2e-06
2011-05-25 00:00:00,2011-05-25 00:00:00,PRATE,surface,-105.938,30.7085,5.9e-06
2011-05-25 00:00:00,2011-05-25 00:00:00,PRATE,surface,-105,30.7085,7.1e-06
2011-05-25 00:00:00,2011-05-25 00:00:00,PRATE,surface,-104.063,30.7085,1.12e-05
2011-05-25 00:00:00,2011-05-25 00:00:00,PRATE,surface,-103.125,30.7085,7.8e-06
2011-05-25 00:00:00,2011-05-25 00:00:00,PRATE,surface,-102.188,30.7085,7.7e-06
2011-05-25 00:00:00,2011-05-25 00:00:00,PRATE,surface,-101.25,30.7085,1.17e-05
2011-05-25 00:00:00,2011-05-25 00:00:00,PRATE,surface,-100.313,30.7085,1.53e-05
2011-05-25 00:00:00,2011-05-25 00:00:00,PRATE,surface,-99.3754,30.7085,1.86e-05
2011-05-25 00:00:00,2011-05-25 00:00:00,PRATE,surface,-98.4379,30.7085,2.19e-05
2011-05-25 00:00:00,2011-05-25 00:00:00,PRATE,surface,-97.5004,30.7085,2.22e-05
2011-05-25 00:00:00,2011-05-25 00:00:00,PRATE,surface,-96.5629,30.7085,2.44e-05
2011-05-25 00:00:00,2011-05-25 00:00:00,PRATE,surface,-95.6254,30.7085,3.61e-05
2011-05-25 00:00:00,2011-05-25 00:00:00,PRATE,surface,-94.6879,30.7085,4.78e-05
2011-05-25 00:00:00,2011-05-25 00:00:00,PRATE,surface,-93.7504,30.7085,4.45e-05
2011-05-25 00:00:00,2011-05-25 00:00:00,PRATE,surface,-92.8129,30.7085,3.34e-05
2011-05-25 00:00:00,2011-05-25 00:00:00,PRATE,surface,-107.813,31.6534,2.7e-06
2011-05-25 00:00:00,2011-05-25 00:00:00,PRATE,surface,-106.875,31.6534,4.7e-06
2011-05-25 00:00:00,2011-05-25 00:00:00,PRATE,surface,-105.938,31.6534,7.5e-06
2011-05-25 00:00:00,2011-05-25 00:00:00,PRATE,surface,-105,31.6534,6.6e-06
2011-05-25 00:00:00,2011-05-25 00:00:00,PRATE,surface,-104.063,31.6534,8.6e-06
2011-05-25 00:00:00,2011-05-25 00:00:00,PRATE,surface,-103.125,31.6534,8e-06
2011-05-25 00:00:00,2011-05-25 00:00:00,PRATE,surface,-102.188,31.6534,7.9e-06
2011-05-25 00:00:00,2011-05-25 00:00:00,PRATE,surface,-101.25,31.6534,1.06e-05
2011-05-25 00:00:00,2011-05-25 00:00:00,PRATE,surface,-100.313,31.6534,1.11e-05
2011-05-25 00:00:00,2011-05-25 00:00:00,PRATE,surface,-99.3754,31.6534,1.42e-05
2011-05-25 00:00:00,2011-05-25 00:00:00,PRATE,surface,-98.4379,31.6534,1.96e-05
2011-05-25 00:00:00,2011-05-25 00:00:00,PRATE,surface,-97.5004,31.6534,2.36e-05
2011-05-25 00:00:00,2011-05-25 00:00:00,PRATE,surface,-96.5629,31.6534,2.54e-05
2011-05-25 00:00:00,2011-05-25 00:00:00,PRATE,surface,-95.6254,31.6534,3.4e-05
2011-05-25 00:00:00,2011-05-25 00:00:00,PRATE,surface,-94.6879,31.6534,5.13e-05
2011-05-25 00:00:00,2011-05-25 00:00:00,PRATE,surface,-93.7504,31.6534,5.77e-05
2011-05-25 00:00:00,2011-05-25 00:00:00,PRATE,surface,-92.8129,31.6534,5.05e-05
2011-05-25 00:00:00,2011-05-25 00:00:00,PRATE,surface,-107.813,32.5983,4.5e-06
2011-05-25 00:00:00,2011-05-25 00:00:00,PRATE,surface,-106.875,32.5983,7.2e-06
2011-05-25 00:00:00,2011-05-25 00:00:00,PRATE,surface,-105.938,32.5983,1.11e-05
2011-05-25 00:00:00,2011-05-25 00:00:00,PRATE,surface,-105,32.5983,9.6e-06
2011-05-25 00:00:00,2011-05-25 00:00:00,PRATE,surface,-104.063,32.5983,9.4e-06
2011-05-25 00:00:00,2011-05-25 00:00:00,PRATE,surface,-103.125,32.5983,9.5e-06
2011-05-25 00:00:00,2011-05-25 00:00:00,PRATE,surface,-102.188,32.5983,8.3e-06
2011-05-25 00:00:00,2011-05-25 00:00:00,PRATE,surface,-101.25,32.5983,8.4e-06
2011-05-25 00:00:00,2011-05-25 00:00:00,PRATE,surface,-100.313,32.5983,8.1e-06
2011-05-25 00:00:00,2011-05-25 00:00:00,PRATE,surface,-99.3754,32.5983,9.6e-06
2011-05-25 00:00:00,2011-05-25 00:00:00,PRATE,surface,-98.4379,32.5983,1.55e-05
2011-05-25 00:00:00,2011-05-25 00:00:00,PRATE,surface,-97.5004,32.5983,2.11e-05
2011-05-25 00:00:00,2011-05-25 00:00:00,PRATE,surface,-96.5629,32.5983,2.23e-05
2011-05-25 00:00:00,2011-05-25 00:00:00,PRATE,surface,-95.6254,32.5983,2.64e-05
2011-05-25 00:00:00,2011-05-25 00:00:00,PRATE,surface,-94.6879,32.5983,3.91e-05
2011-05-25 00:00:00,2011-05-25 00:00:00,PRATE,surface,-93.7504,32.5983,5.02e-05
2011-05-25 00:00:00,2011-05-25 00:00:00,PRATE,surface,-92.8129,32.5983,5.5e-05
2011-05-25 00:00:00,2011-05-25 00:00:00,PRATE,surface,-107.813,33.5432,1.61e-05
2011-05-25 00:00:00,2011-05-25 00:00:00,PRATE,surface,-106.875,33.5432,1.36e-05
2011-05-25 00:00:00,2011-05-25 00:00:00,PRATE,surface,-105.938,33.5432,1.11e-05
2011-05-25 00:00:00,2011-05-25 00:00:00,PRATE,surface,-105,33.5432,9.8e-06
2011-05-25 00:00:00,2011-05-25 00:00:00,PRATE,surface,-104.063,33.5432,8.3e-06
2011-05-25 00:00:00,2011-05-25 00:00:00,PRATE,surface,-103.125,33.5432,9.5e-06
2011-05-25 00:00:00,2011-05-25 00:00:00,PRATE,surface,-102.188,33.5432,1e-05
2011-05-25 00:00:00,2011-05-25 00:00:00,PRATE,surface,-101.25,33.5432,7.8e-06
2011-05-25 00:00:00,2011-05-25 00:00:00,PRATE,surface,-100.313,33.5432,5.3e-06
2011-05-25 00:00:00,2011-05-25 00:00:00,PRATE,surface,-99.3754,33.5432,5.6e-06
2011-05-25 00:00:00,2011-05-25 00:00:00,PRATE,surface,-98.4379,33.5432,1.05e-05
2011-05-25 00:00:00,2011-05-25 00:00:00,PRATE,surface,-97.5004,33.5432,1.96e-05
2011-05-25 00:00:00,2011-05-25 00:00:00,PRATE,surface,-96.5629,33.5432,2.66e-05
2011-05-25 00:00:00,2011-05-25 00:00:00,PRATE,surface,-95.6254,33.5432,2.86e-05
2011-05-25 00:00:00,2011-05-25 00:00:00,PRATE,surface,-94.6879,33.5432,3.12e-05
2011-05-25 00:00:00,2011-05-25 00:00:00,PRATE,surface,-93.7504,33.5432,3.63e-05
2011-05-25 00:00:00,2011-05-25 00:00:00,PRATE,surface,-92.8129,33.5432,4.22e-05
2011-05-25 00:00:00,2011-05-25 00:00:00,PRATE,surface,-107.813,34.4881,1.68e-05
2011-05-25 00:00:00,2011-05-25 00:00:00,PRATE,surface,-106.875,34.4881,1.17e-05
2011-05-25 00:00:00,2011-05-25 00:00:00,PRATE,surface,-105.938,34.4881,9.1e-06
2011-05-25 00:00:00,2011-05-25 00:00:00,PRATE,surface,-105,34.4881,8.6e-06
2011-05-25 00:00:00,2011-05-25 00:00:00,PRATE,surface,-104.063,34.4881,7.2e-06
2011-05-25 00:00:00,2011-05-25 00:00:00,PRATE,surface,-103.125,34.4881,7.2e-06
2011-05-25 00:00:00,2011-05-25 00:00:00,PRATE,surface,-102.188,34.4881,8.8e-06
2011-05-25 00:00:00,2011-05-25 00:00:00,PRATE,surface,-101.25,34.4881,9.4e-06
2011-05-25 00:00:00,2011-05-25 00:00:00,PRATE,surface,-100.313,34.4881,7.3e-06
2011-05-25 00:00:00,2011-05-25 00:00:00,PRATE,surface,-99.3754,34.4881,6.4e-06
2011-05-25 00:00:00,2011-05-25 00:00:00,PRATE,surface,-98.4379,34.4881,8.8e-06
2011-05-25 00:00:00,2011-05-25 00:00:00,PRATE,surface,-97.5004,34.4881,1.53e-05
2011-05-25 00:00:00,2011-05-25 00:00:00,PRATE,surface,-96.5629,34.4881,2.59e-05
2011-05-25 00:00:00,2011-05-25 00:00:00,PRATE,surface,-95.6254,34.4881,3.54e-05
2011-05-25 00:00:00,2011-05-25 00:00:00,PRATE,surface,-94.6879,34.4881,3.78e-05
2011-05-25 00:00:00,2011-05-25 00:00:00,PRATE,surface,-93.7504,34.4881,3.48e-05
2011-05-25 00:00:00,2011-05-25 00:00:00,PRATE,surface,-92.8129,34.4881,3.15e-05
2011-05-25 00:00:00,2011-05-25 00:00:00,PRATE,surface,-107.813,35.4329,1.29e-05
2011-05-25 00:00:00,2011-05-25 00:00:00,PRATE,surface,-106.875,35.4329,9.3e-06
2011-05-25 00:00:00,2011-05-25 00:00:00,PRATE,surface,-105.938,35.4329,9.2e-06
2011-05-25 00:00:00,2011-05-25 00:00:00,PRATE,surface,-105,35.4329,9.9e-06
2011-05-25 00:00:00,2011-05-25 00:00:00,PRATE,surface,-104.063,35.4329,7.6e-06
2011-05-25 00:00:00,2011-05-25 00:00:00,PRATE,surface,-103.125,35.4329,7.8e-06
2011-05-25 00:00:00,2011-05-25 00:00:00,PRATE,surface,-102.188,35.4329,9.7e-06
2011-05-25 00:00:00,2011-05-25 00:00:00,PRATE,surface,-101.25,35.4329,1.39e-05
2011-05-25 00:00:00,2011-05-25 00:00:00,PRATE,surface,-100.313,35.4329,1.52e-05
2011-05-25 00:00:00,2011-05-25 00:00:00,PRATE,surface,-99.3754,35.4329,1.17e-05
2011-05-25 00:00:00,2011-05-25 00:00:00,PRATE,surface,-98.4379,35.4329,9.5e-06
2011-05-25 00:00:00,2011-05-25 00:00:00,PRATE,surface,-97.5004,35.4329,1.18e-05
2011-05-25 00:00:00,2011-05-25 00:00:00,PRATE,surface,-96.5629,35.4329,1.87e-05
2011-05-25 00:00:00,2011-05-25 00:00:00,PRATE,surface,-95.6254,35.4329,2.99e-05
2011-05-25 00:00:00,2011-05-25 00:00:00,PRATE,surface,-94.6879,35.4329,4.11e-05
2011-05-25 00:00:00,2011-05-25 00:00:00,PRATE,surface,-93.7504,35.4329,4.52e-05
2011-05-25 00:00:00,2011-05-25 00:00:00,PRATE,surface,-92.8129,35.4329,3.95e-05
2011-05-25 00:00:00,2011-05-25 00:00:00,PRATE,surface,-107.813,36.3778,1.7e-05
2011-05-25 00:00:00,2011-05-25 00:00:00,PRATE,surface,-106.875,36.3778,1.87e-05
2011-05-25 00:00:00,2011-05-25 00:00:00,PRATE,surface,-105.938,36.3778,1.88e-05
2011-05-25 00:00:00,2011-05-25 00:00:00,PRATE,surface,-105,36.3778,1.77e-05
2011-05-25 00:00:00,2011-05-25 00:00:00,PRATE,surface,-104.063,36.3778,9.4e-06
2011-05-25 00:00:00,2011-05-25 00:00:00,PRATE,surface,-103.125,36.3778,5.8e-06
2011-05-25 00:00:00,2011-05-25 00:00:00,PRATE,surface,-102.188,36.3778,7.1e-06
2011-05-25 00:00:00,2011-05-25 00:00:00,PRATE,surface,-101.25,36.3778,1.07e-05
2011-05-25 00:00:00,2011-05-25 00:00:00,PRATE,surface,-100.313,36.3778,1.43e-05
2011-05-25 00:00:00,2011-05-25 00:00:00,PRATE,surface,-99.3754,36.3778,1.48e-05
2011-05-25 00:00:00,2011-05-25 00:00:00,PRATE,surface,-98.4379,36.3778,1.35e-05
2011-05-25 00:00:00,2011-05-25 00:00:00,PRATE,surface,-97.5004,36.3778,1.26e-05
2011-05-25 00:00:00,2011-05-25 00:00:00,PRATE,surface,-96.5629,36.3778,1.45e-05
2011-05-25 00:00:00,2011-05-25 00:00:00,PRATE,surface,-95.6254,36.3778,2.09e-05
2011-05-25 00:00:00,2011-05-25 00:00:00,PRATE,surface,-94.6879,36.3778,3.23e-05
2011-05-25 00:00:00,2011-05-25 00:00:00,PRATE,surface,-93.7504,36.3778,4.52e-05
2011-05-25 00:00:00,2011-05-25 00:00:00,PRATE,surface,-92.8129,36.3778,4.77e-05
