2018-08-13 00:00:00,2018-08-13 00:00:00,TMP,surface,-107.813,25.0393,293.252
2018-08-13 00:00:00,2018-08-13 00:00:00,TMP,surface,-106.875,25.0393,286.753
2018-08-13 00:00:00,2018-08-13 00:00:00,TMP,surface,-105.938,25.0393,280.523
2018-08-13 00:00:00,2018-08-13 00:00:00,TMP,surface,-105,25.0393,278.971
2018-08-13 00:00:00,2018-08-13 00:00:00,TMP,surface,-104.063,25.0393,282.027
2018-08-13 00:00:00,2018-08-13 00:00:00,TMP,surface,-103.125,25.0393,283.822
2018-08-13 00:00:00,2018-08-13 00:00:00,TMP,surface,-102.188,25.0393,283.736
2018-08-13 00:00:00,2018-08-13 00:00:00,TMP,surface,-101.25,25.0393,282.568
2018-08-13 00:00:00,2018-08-13 00:00:00,TMP,surface,-100.313,25.0393,283.486
2018-08-13 00:00:00,2018-08-13 00:00:00,TMP,surface,-99.3754,25.0393,286.041
2018-08-13 00:00:00,2018-08-13 00:00:00,TMP,surface,-98.4379,25.0393,289.092
2018-08-13 00:00:00,2018-08-13 00:00:00,TMP,surface,-97.5004,25.0393,295.676
2018-08-13 00:00:00,2018-08-13 00:00:00,TMP,surface,-96.5629,25.0393,296.222
2018-08-13 00:00:00,2018-08-13 00:00:00,TMP,surface,-95.6254,25.0393,296.286
2018-08-13 00:00:00,2018-08-13 00:00:00,TMP,surface,-94.6879,25.0393,296.182
2018-08-13 00:00:00,2018-08-13 00:00:00,TMP,surface,-93.7504,25.0393,295.96
2018-08-13 00:00:00,2018-08-13 00:00:00,TMP,surface,-92.8129,25.0393,296.035
2018-08-13 00:00:00,2018-08-13 00:00:00,TMP,surface,-107.813,25.9842,288.017
2018-08-13 00:00:00,2018-08-13 00:00:00,TMP,surface,-106.875,25.9842,281.896
2018-08-13 00:00:00,2018-08-13 00:00:00,TMP,surface,-105.938,25.9842,278.983
2018-08-13 00:00:00,2018-08-13 00:00:00,TMP,surface,-105,25.9842,280.582
2018-08-13 00:00:00,2018-08-13 00:00:00,TMP,surface,-104.063,25.9842,283.763
2018-08-13 00:00:00,2018-08-13 00:00:00,TMP,surface,-103.125,25.9842,284.868
2018-08-13 00:00:00,2018-08-13 00:00:00,TMP,surface,-102.188,25.9842,284.599
2018-08-13 00:00:00,2018-08-13 00:00:00,TMP,surface,-101.25,25.9842,284.207
2018-08-13 00:00:00,2018-08-13 00:00:00,TMP,surface,-100.313,25.9842,284.74
2018-08-13 00:00:00,2018-08-13 00:00:00,TMP,surface,-99.3754,25.9842,286.857
2018-08-13 00:00:00,2018-08-13 00:00:00,TMP,surface,-98.4379,25.9842,288.91
2018-08-13 00:00:00,2018-08-13 00:00:00,TMP,surface,-97.5004,25.9842,290.758
2018-08-13 00:00:00,2018-08-13 00:00:00,TMP,surface,-96.5629,25.9842,295.784
2018-08-13 00:00:00,2018-08-13 00:00:00,TMP,surface,-95.6254,25.9842,295.907
2018-08-13 00:00:00,2018-08-13 00:00:00,TMP,surface,-94.6879,25.9842,295.926
2018-08-13 00:00:00,2018-08-13 00:00:00,TMP,surface,-93.7504,25.9842,295.83
2018-08-13 00:00:00,2018-08-13 00:00:00,TMP,surface,-92.8129,25.9842,295.875
2018-08-13 00:00:00,2018-08-13 00:00:00,TMP,surface,-107.813,26.929,282.675
2018-08-13 00:00:00,2018-08-13 00:00:00,TMP,surface,-106.875,26.929,278.751
2018-08-13 00:00:00,2018-08-13 00:00:00,TMP,surface,-105.938,26.929,279.918
2018-08-13 00:00:00,2018-08-13 00:00:00,TMP,surface,-105,26.929,282.665
2018-08-13 00:00:00,2018-08-13 00:00:00,TMP,surface,-104.063,26.929,283.699
2018-08-13 00:00:00,2018-08-13 00:00:00,TMP,surface,-103.125,26.929,283.273
2018-08-13 00:00:00,2018-08-13 00:00:00,TMP,surface,-102.188,26.929,283.574
2018-08-13 00:00:00,2018-08-13 00:00:00,TMP,surface,-101.25,26.929,284.859
2018-08-13 00:00:00,2018-08-13 00:00:00,TMP,surface,-100.313,26.929,286.1
2018-08-13 00:00:00,2018-08-13 00:00:00,TMP,surface,-99.3754,26.929,287.068
2018-08-13 00:00:00,2018-08-13 00:00:00,TMP,surface,-98.4379,26.929,287.766
2018-08-13 00:00:00,2018-08-13 00:00:00,TMP,surface,-97.5004,26.929,293.937
2018-08-13 00:00:00,2018-08-13 00:00:00,TMP,surface,-96.5629,26.929,294.935
2018-08-13 00:00:00,2018-08-13 00:00:00,TMP,surface,-95.6254,26.929,295.342
2018-08-13 00:00:00,2018-08-13 00:00:00,TMP,surface,-94.6879,26.929,295.524
2018-08-13 00:00:00,2018-08-13 00:00:00,TMP,surface,-93.7504,26.929,295.5
2018-08-13 00:00:00,2018-08-13 00:00:00,TMP,surface,-92.8129,26.929,295.524
2018-08-13 00:00:00,2018-08-13 00:00:00,TMP,surface,-107.813,27.8739,279.456
2018-08-13 00:00:00,2018-08-13 00:00:00,TMP,surface,-106.875,27.8739,278.112
2018-08-13 00:00:00,2018-08-13 00:00:00,TMP,surface,-105.938,27.8739,280.907
2018-08-13 00:00:00,2018-08-13 00:00:00,TMP,surface,-105,27.8739,283.251
2018-08-13 00:00:00,2018-08-13 00:00:00,TMP,surface,-104.063,27.8739,283.171
2018-08-13 00:00:00,2018-08-13 00:00:00,TMP,surface,-103.125,27.8739,282.27
2018-08-13 00:00:00,2018-08-13 00:00:00,TMP,surface,-102.188,27.8739,282.908
2018-08-13 00:00:00,2018-08-13 00:00:00,TMP,surface,-101.25,27.8739,284.468
2018-08-13 00:00:00,2018-08-13 00:00:00,TMP,surface,-100.313,27.8739,285.711
2018-08-13 00:00:00,2018-08-13 00:00:00,TMP,surface,-99.3754,27.8739,286.105
2018-08-13 00:00:00,2018-08-13 00:00:00,TMP,surface,-98.4379,27.8739,286.505
2018-08-13 00:00:00,2018-08-13 00:00:00,TMP,surface,-97.5004,27.8739,290.673
2018-08-13 00:00:00,2018-08-13 00:00:00,TMP,surface,-96.5629,27.8739,294.811
2018-08-13 00:00:00,2018-08-13 00:00:00,TMP,surface,-95.6254,27.8739,295.041
2018-08-13 00:00:00,2018-08-13 00:00:00,TMP,surface,-94.6879,27.8739,294.761
2018-08-13 00:00:00,2018-08-13 00:00:00,TMP,surface,-93.7504,27.8739,294.529
2018-08-13 00:00:00,2018-08-13 00:00:00,TMP,surface,-92.8129,27.8739,294.526
2018-08-13 00:00:00,2018-08-13 00:00:00,TMP,surface,-107.813,28.8188,278.153
2018-08-13 00:00:00,2018-08-13 00:00:00,TMP,surface,-106.875,28.8188,278.487
2018-08-13 00:00:00,2018-08-13 00:00:00,TMP,surface,-105.938,28.8188,281.316
2018-08-13 00:00:00,2018-08-13 00:00:00,TMP,surface,-105,28.8188,282.772
2018-08-13 00:00:00,2018-08-13 00:00:00,TMP,surface,-104.063,28.8188,282.089
2018-08-13 00:00:00,2018-08-13 00:00:00,TMP,surface,-103.125,28.8188,281.456
2018-08-13 00:00:00,2018-08-13 00:00:00,TMP,surface,-102.188,28.8188,282.311
2018-08-13 00:00:00,2018-08-13 00:00:00,TMP,surface,-101.25,28.8188,283.835
2018-08-13 00:00:00,2018-08-13 00:00:00,TMP,surface,-100.313,28.8188,284.479
2018-08-13 00:00:00,2018-08-13 00:00:00,TMP,surface,-99.3754,28.8188,284.422
2018-08-13 00:00:00,2018-08-13 00:00:00,TMP,surface,-98.4379,28.8188,284.628
2018-08-13 00:00:00,2018-08-13 00:00:00,TMP,surface,-97.5004,28.8188,285.465
2018-08-13 00:00:00,2018-08-13 00:00:00,TMP,surface,-96.5629,28.8188,286.491
2018-08-13 00:00:00,2018-08-13 00:00:00,TMP,surface,-95.6254,28.8188,289.851
2018-08-13 00:00:00,2018-08-13 00:00:00,TMP,surface,-94.6879,28.8188,294.419
2018-08-13 00:00:00,2018-08-13 00:00:00,TMP,surface,-93.7504,28.8188,294.153
2018-08-13 00:00:00,2018-08-13 00:00:00,TMP,surface,-92.8129,28.8188,294.222
2018-08-13 00:00:00,2018-08-13 00:00:00,TMP,surface,-107.813,29.7637,279.143
2018-08-13 00:00:00,2018-08-13 00:00:00,TMP,surface,-106.875,29.7637,279.649
2018-08-13 00:00:00,2018-08-13 00:00:00,TMP,surface,-105.938,29.7637,281.359
2018-08-13 00:00:00,2018-08-13 00:00:00,TMP,surface,-105,29.7637,281.499
2018-08-13 00:00:00,2018-08-13 00:00:00,TMP,surface,-104.063,29.7637,281.529
2018-08-13 00:00:00,2018-08-13 00:00:00,TMP,surface,-103.125,29.7637,281.74
2018-08-13 00:00:00,2018-08-13 00:00:00,TMP,surface,-102.188,29.7637,282.702
2018-08-13 00:00:00,2018-08-13 00:00:00,TMP,surface,-101.25,29.7637,283.284
2018-08-13 00:00:00,2018-08-13 00:00:00,TMP,surface,-100.313,29.7637,283.081
2018-08-13 00:00:00,2018-08-13 00:00:00,TMP,surface,-99.3754,29.7637,282.841
2018-08-13 00:00:00,2018-08-13 00:00:00,TMP,surface,-98.4379,29.7637,283.06
2018-08-13 00:00:00,2018-08-13 00:00:00,TMP,surface,-97.5004,29.7637,283.513
2018-08-13 00:00:00,2018-08-13 00:00:00,TMP,surface,-96.5629,29.7637,284.014
2018-08-13 00:00:00,2018-08-13 00:00:00,TMP,surface,-95.6254,29.7637,284.718
2018-08-13 00:00:00,2018-08-13 00:00:00,TMP,surface,-94.6879,29.7637,287.947
2018-08-13 00:00:00,2018-08-13 00:00:00,TMP,surface,-93.7504,29.7637,291.641
2018-08-13 00:00:00,2018-08-13 00:00:00,TMP,surface,-92.8129,29.7637,285.263
2018-08-13 00:00:00,2018-08-13 00:00:00,TMP,surface,-107.813,30.7085,280.628
2018-08-13 00:00:00,2018-08-13 00:00:00,TMP,surface,-106.875,30.7085,281.102
2018-08-13 00:00:00,2018-08-13 00:00:00,TMP,surface,-105.938,30.7085,280.902
2018-08-13 00:00:00,2018-08-13 00:00:00,TMP,surface,-105,30.7085,280.591
2018-08-13 00:00:00,2018-08-13 00:00:00,TMP,surface,-104.063,30.7085,280.662
2018-08-13 00:00:00,2018-08-13 00:00:00,TMP,surface,-103.125,30.7085,281.535
2018-08-13 00:00:00,2018-08-13 00:00:00,TMP,surface,-102.188,30.7085,282.288
2018-08-13 00:00:00,2018-08-13 00:00:00,TMP,surface,-101.25,30.7085,282.395
2018-08-13 00:00:00,2018-08-13 00:00:00,TMP,surface,-100.313,30.7085,282.171
2018-08-13 00:00:00,2018-08-13 00:00:00,TMP,surface,-99.3754,30.7085,282.182
2018-08-13 00:00:00,2018-08-13 00:00:00,TMP,surface,-98.4379,30.7085,282.478
2018-08-13 00:00:00,2018-08-13 00:00:00,TMP,surface,-97.5004,30.7085,282.769
2018-08-13 00:00:00,2018-08-13 00:00:00,TMP,surface,-96.5629,30.7085,282.875
2018-08-13 00:00:00,2018-08-13 00:00:00,TMP,surface,-95.6254,30.7085,282.921
2018-08-13 00:00:00,2018-08-13 00:00:00,TMP,surface,-94.6879,30.7085,282.977
2018-08-13 00:00:00,2018-08-13 00:00:00,TMP,surface,-93.7504,30.7085,282.758
2018-08-13 00:00:00,2018-08-13 00:00:00,TMP,surface,-92.8129,30.7085,282.207
2018-08-13 00:00:00,2018-08-13 00:00:00,TMP,surface,-107.813,31.6534,280.163
2018-08-13 00:00:00,2018-08-13 00:00:00,TMP,surface,-106.875,31.6534,280.606
2018-08-13 00:00:00,2018-08-13 00:00:00,TMP,surface,-105.938,31.6534,279.879
2018-08-13 00:00:00,2018-08-13 00:00:00,TMP,surface,-105,31.6534,279.799
2018-08-13 00:00:00,2018-08-13 00:00:00,TMP,surface,-104.063,31.6534,280.267
2018-08-13 00:00:00,2018-08-13 00:00:00,TMP,surface,-103.125,31.6534,280.956
2018-08-13 00:00:00,2018-08-13 00:00:00,TMP,surface,-102.188,31.6534,281.422
2018-08-13 00:00:00,2018-08-13 00:00:00,TMP,surface,-101.25,31.6534,281.408
2018-08-13 00:00:00,2018-08-13 00:00:00,TMP,surface,-100.313,31.6534,281.534
2018-08-13 00:00:00,2018-08-13 00:00:00,TMP,surface,-99.3754,31.6534,281.815
2018-08-13 00:00:00,2018-08-13 00:00:00,TMP,surface,-98.4379,31.6534,282.143
2018-08-13 00:00:00,2018-08-13 00:00:00,TMP,surface,-97.5004,31.6534,282.308
2018-08-13 00:00:00,2018-08-13 00:00:00,TMP,surface,-96.5629,31.6534,282.283
2018-08-13 00:00:00,2018-08-13 00:00:00,TMP,surface,-95.6254,31.6534,282.078
2018-08-13 00:00:00,2018-08-13 00:00:00,TMP,surface,-94.6879,31.6534,281.644
2018-08-13 00:00:00,2018-08-13 00:00:00,TMP,surface,-93.7504,31.6534,281.19
2018-08-13 00:00:00,2018-08-13 00:00:00,TMP,surface,-92.8129,31.6534,280.884
2018-08-13 00:00:00,2018-08-13 00:00:00,TMP,surface,-107.813,32.5983,277.947
2018-08-13 00:00:00,2018-08-13 00:00:00,TMP,surface,-106.875,32.5983,278.23
2018-08-13 00:00:00,2018-08-13 00:00:00,TMP,surface,-105.938,32.5983,278.4
2018-08-13 00:00:00,2018-08-13 00:00:00,TMP,surface,-105,32.5983,278.91
2018-08-13 00:00:00,2018-08-13 00:00:00,TMP,surface,-104.063,32.5983,279.915
2018-08-13 00:00:00,2018-08-13 00:00:00,TMP,surface,-103.125,32.5983,280.487
2018-08-13 00:00:00,2018-08-13 00:00:00,TMP,surface,-102.188,32.5983,280.473
2018-08-13 00:00:00,2018-08-13 00:00:00,TMP,surface,-101.25,32.5983,280.66
2018-08-13 00:00:00,2018-08-13 00:00:00,TMP,surface,-100.313,32.5983,280.998
2018-08-13 00:00:00,2018-08-13 00:00:00,TMP,surface,-99.3754,32.5983,281.417
2018-08-13 00:00:00,2018-08-13 00:00:00,TMP,surface,-98.4379,32.5983,281.624
2018-08-13 00:00:00,2018-08-13 00:00:00,TMP,surface,-97.5004,32.5983,281.632
2018-08-13 00:00:00,2018-08-13 00:00:00,TMP,surface,-96.5629,32.5983,281.547
2018-08-13 00:00:00,2018-08-13 00:00:00,TMP,surface,-95.6254,32.5983,281.262
2018-08-13 00:00:00,2018-08-13 00:00:00,TMP,surface,-94.6879,32.5983,280.743
2018-08-13 00:00:00,2018-08-13 00:00:00,TMP,surface,-93.7504,32.5983,280.281
2018-08-13 00:00:00,2018-08-13 00:00:00,TMP,surface,-92.8129,32.5983,280.182
2018-08-13 00:00:00,2018-08-13 00:00:00,TMP,surface,-107.813,33.5432,275.159
2018-08-13 00:00:00,2018-08-13 00:00:00,TMP,surface,-106.875,33.5432,276.366
2018-08-13 00:00:00,2018-08-13 00:00:00,TMP,surface,-105.938,33.5432,277.366
2018-08-13 00:00:00,2018-08-13 00:00:00,TMP,surface,-105,33.5432,278.315
2018-08-13 00:00:00,2018-08-13 00:00:00,TMP,surface,-104.063,33.5432,279.328
2018-08-13 00:00:00,2018-08-13 00:00:00,TMP,surface,-103.125,33.5432,279.846
2018-08-13 00:00:00,2018-08-13 00:00:00,TMP,surface,-102.188,33.5432,279.643
2018-08-13 00:00:00,2018-08-13 00:00:00,TMP,surface,-101.25,33.5432,279.75
2018-08-13 00:00:00,2018-08-13 00:00:00,TMP,surface,-100.313,33.5432,280.185
2018-08-13 00:00:00,2018-08-13 00:00:00,TMP,surface,-99.3754,33.5432,280.62
2018-08-13 00:00:00,2018-08-13 00:00:00,TMP,surface,-98.4379,33.5432,280.763
2018-08-13 00:00:00,2018-08-13 00:00:00,TMP,surface,-97.5004,33.5432,280.577
2018-08-13 00:00:00,2018-08-13 00:00:00,TMP,surface,-96.5629,33.5432,280.326
2018-08-13 00:00:00,2018-08-13 00:00:00,TMP,surface,-95.6254,33.5432,280.108
2018-08-13 00:00:00,2018-08-13 00:00:00,TMP,surface,-94.6879,33.5432,279.728
2018-08-13 00:00:00,2018-08-13 00:00:00,TMP,surface,-93.7504,33.5432,279.262
2018-08-13 00:00:00,2018-08-13 00:00:00,TMP,surface,-92.8129,33.5432,279.084
2018-08-13 00:00:00,2018-08-13 00:00:00,TMP,surface,-107.813,34.4881,273.804
2018-08-13 00:00:00,2018-08-13 00:00:00,TMP,surface,-106.875,34.4881,275.311
2018-08-13 00:00:00,2018-08-13 00:00:00,TMP,surface,-105.938,34.4881,276.268
2018-08-13 00:00:00,2018-08-13 00:00:00,TMP,surface,-105,34.4881,277.145
2018-08-13 00:00:00,2018-08-13 00:00:00,TMP,surface,-104.063,34.4881,278.155
2018-08-13 00:00:00,2018-08-13 00:00:00,TMP,surface,-103.125,34.4881,278.743
2018-08-13 00:00:00,2018-08-13 00:00:00,TMP,surface,-102.188,34.4881,278.846
2018-08-13 00:00:00,2018-08-13 00:00:00,TMP,surface,-101.25,34.4881,278.961
2018-08-13 00:00:00,2018-08-13 00:00:00,TMP,surface,-100.313,34.4881,279.222
2018-08-13 00:00:00,2018-08-13 00:00:00,TMP,surface,-99.3754,34.4881,279.499
2018-08-13 00:00:00,2018-08-13 00:00:00,TMP,surface,-98.4379,34.4881,279.569
2018-08-13 00:00:00,2018-08-13 00:00:00,TMP,surface,-97.5004,34.4881,279.446
2018-08-13 00:00:00,2018-08-13 00:00:00,TMP,surface,-96.5629,34.4881,279.28
2018-08-13 00:00:00,2018-08-13 00:00:00,TMP,surface,-95.6254,34.4881,278.944
2018-08-13 00:00:00,2018-08-13 00:00:00,TMP,surface,-94.6879,34.4881,278.358
2018-08-13 00:00:00,2018-08-13 00:00:00,TMP,surface,-93.7504,34.4881,277.927
2018-08-13 00:00:00,2018-08-13 00:00:00,TMP,surface,-92.8129,34.4881,277.886
2018-08-13 00:00:00,2018-08-13 00:00:00,TMP,surface,-107.813,35.4329,273.699
2018-08-13 00:00:00,2018-08-13 00:00:00,TMP,surface,-106.875,35.4329,274.203
2018-08-13 00:00:00,2018-08-13 00:00:00,TMP,surface,-105.938,35.4329,274.929
2018-08-13 00:00:00,2018-08-13 00:00:00,TMP,surface,-105,35.4329,275.75
2018-08-13 00:00:00,2018-08-13 00:00:00,TMP,surface,-104.063,35.4329,277.361
2018-08-13 00:00:00,2018-08-13 00:00:00,TMP,surface,-103.125,35.4329,278.35
2018-08-13 00:00:00,2018-08-13 00:00:00,TMP,surface,-102.188,35.4329,278.374
2018-08-13 00:00:00,2018-08-13 00:00:00,TMP,surface,-101.25,35.4329,278.288
2018-08-13 00:00:00,2018-08-13 00:00:00,TMP,surface,-100.313,35.4329,278.337
2018-08-13 00:00:00,2018-08-13 00:00:00,TMP,surface,-99.3754,35.4329,278.289
2018-08-13 00:00:00,2018-08-13 00:00:00,TMP,surface,-98.4379,35.4329,278.344
2018-08-13 00:00:00,2018-08-13 00:00:00,TMP,surface,-97.5004,35.4329,278.556
2018-08-13 00:00:00,2018-08-13 00:00:00,TMP,surface,-96.5629,35.4329,278.603
2018-08-13 00:00:00,2018-08-13 00:00:00,TMP,surface,-95.6254,35.4329,278.288
2018-08-13 00:00:00,2018-08-13 00:00:00,TMP,surface,-94.6879,35.4329,277.675
2018-08-13 00:00:00,2018-08-13 00:00:00,TMP,surface,-93.7504,35.4329,276.958
2018-08-13 00:00:00,2018-08-13 00:00:00,TMP,surface,-92.8129,35.4329,276.713
2018-08-13 00:00:00,2018-08-13 00:00:00,TMP,surface,-107.813,36.3778,272.827
2018-08-13 00:00:00,2018-08-13 00:00:00,TMP,surface,-106.875,36.3778,271.907
2018-08-13 00:00:00,2018-08-13 00:00:00,TMP,surface,-105.938,36.3778,272.43
2018-08-13 00:00:00,2018-08-13 00:00:00,TMP,surface,-105,36.3778,273.822
2018-08-13 00:00:00,2018-08-13 00:00:00,TMP,surface,-104.063,36.3778,275.863
2018-08-13 00:00:00,2018-08-13 00:00:00,TMP,surface,-103.125,36.3778,277.057
2018-08-13 00:00:00,2018-08-13 00:00:00,TMP,surface,-102.188,36.3778,277.614
2018-08-13 00:00:00,2018-08-13 00:00:00,TMP,surface,-101.25,36.3778,277.763
2018-08-13 00:00:00,2018-08-13 00:00:00,TMP,surface,-100.313,36.3778,277.95
2018-08-13 00:00:00,2018-08-13 00:00:00,TMP,surface,-99.3754,36.3778,277.96
2018-08-13 00:00:00,2018-08-13 00:00:00,TMP,surface,-98.4379,36.3778,277.688
2018-08-13 00:00:00,2018-08-13 00:00:00,TMP,surface,-97.5004,36.3778,277.716
2018-08-13 00:00:00,2018-08-13 00:00:00,TMP,surface,-96.5629,36.3778,277.923
2018-08-13 00:00:00,2018-08-13 00:00:00,TMP,surface,-95.6254,36.3778,277.692
2018-08-13 00:00:00,2018-08-13 00:00:00,TMP,surface,-94.6879,36.3778,276.975
2018-08-13 00:00:00,2018-08-13 00:00:00,TMP,surface,-93.7504,36.3778,276.094
2018-08-13 00:00:00,2018-08-13 00:00:00,TMP,surface,-92.8129,36.3778,275.703
2018-08-13 00:00:00,2018-08-13 00:00:00,PRATE,surface,-107.813,25.0393,6.5e-06
2018-08-13 00:00:00,2018-08-13 00:00:00,PRATE,surface,-106.875,25.0393,9.3e-06
2018-08-13 00:00:00,2018-08-13 00:00:00,PRATE,surface,-105.938,25.0393,2.45e-05
2018-08-13 00:00:00,2018-08-13 00:00:00,PRATE,surface,-105,25.0393,3.09e-05
2018-08-13 00:00:00,2018-08-13 00:00:00,PRATE,surface,-104.063,25.0393,1.57e-05
2018-08-13 00:00:00,2018-08-13 00:00:00,PRATE,surface,-103.125,25.0393,6.9e-06
2018-08-13 00:00:00,2018-08-13 00:00:00,PRATE,surface,-102.188,25.0393,8.9e-06
2018-08-13 00:00:00,2018-08-13 00:00:00,PRATE,surface,-101.25,25.0393,1.98e-05
2018-08-13 00:00:00,2018-08-13 00:00:00,PRATE,surface,-100.313,25.0393,3.19e-05
2018-08-13 00:00:00,2018-08-13 00:00:00,PRATE,surface,-99.3754,25.0393,3.21e-05
2018-08-13 00:00:00,2018-08-13 00:00:00,PRATE,surface,-98.4379,25.0393,5.14e-05
2018-08-13 00:00:00,2018-08-13 00:00:00,PRATE,surface,-97.5004,25.0393,8.36e-05
2018-08-13 00:00:00,2018-08-13 00:00:00,PRATE,surface,-96.5629,25.0393,0.0001061
2018-08-13 00:00:00,2018-08-13 00:00:00,PRATE,surface,-95.6254,25.0393,0.0001087
2018-08-13 00:00:00,2018-08-13 00:00:00,PRATE,surface,-94.6879,25.0393,0.0001033
2018-08-13 00:00:00,2018-08-13 00:00:00,PRATE,surface,-93.7504,25.0393,9.78e-05
2018-08-13 00:00:00,2018-08-13 00:00:00,PRATE,surface,-92.8129,25.0393,6.91e-05
2018-08-13 00:00:00,2018-08-13 00:00:00,PRATE,surface,-107.813,25.9842,5.3e-06
2018-08-13 00:00:00,2018-08-13 00:00:00,PRATE,surface,-106.875,25.9842,8.5e-06
2018-08-13 00:00:00,2018-08-13 00:00:00,PRATE,surface,-105.938,25.9842,1.62e-05
2018-08-13 00:00:00,2018-08-13 00:00:00,PRATE,surface,-105,25.9842,1.85e-05
2018-08-13 00:00:00,2018-08-13 00:00:00,PRATE,surface,-104.063,25.9842,1.08e-05
2018-08-13 00:00:00,2018-08-13 00:00:00,PRATE,surface,-103.125,25.9842,4.8e-06
2018-08-13 00:00:00,2018-08-13 00:00:00,PRATE,surface,-102.188,25.9842,7.5e-06
2018-08-13 00:00:00,2018-08-13 00:00:00,PRATE,surface,-101.25,25.9842,2.04e-05
2018-08-13 00:00:00,2018-08-13 00:00:00,PRATE,surface,-100.313,25.9842,3.53e-05
2018-08-13 00:00:00,2018-08-13 00:00:00,PRATE,surface,-99.3754,25.9842,4.52e-05
2018-08-13 00:00:00,2018-08-13 00:00:00,PRATE,surface,-98.4379,25.9842,5.72e-05
2018-08-13 00:00:00,2018-08-13 00:00:00,PRATE,surface,-97.5004,25.9842,8e-05
2018-08-13 00:00:00,2018-08-13 00:00:00,PRATE,surface,-96.5629,25.9842,9.25e-05
2018-08-13 00:00:00,2018-08-13 00:00:00,PRATE,surface,-95.6254,25.9842,8.71e-05
2018-08-13 00:00:00,2018-08-13 00:00:00,PRATE,surface,-94.6879,25.9842,8.23e-05
2018-08-13 00:00:00,2018-08-13 00:00:00,PRATE,surface,-93.7504,25.9842,8.8e-05
2018-08-13 00:00:00,2018-08-13 00:00:00,PRATE,surface,-92.8129,25.9842,8.69e-05
2018-08-13 00:00:00,2018-08-13 00:00:00,PRATE,surface,-107.813,26.929,8.5e-06
2018-08-13 00:00:00,2018-08-13 00:00:00,PRATE,surface,-106.875,26.929,1.04e-05
2018-08-13 00:00:00,2018-08-13 00:00:00,PRATE,surface,-105.938,26.929,1.29e-05
2018-08-13 00:00:00,2018-08-13 00:00:00,PRATE,surface,-105,26.929,1.1e-05
2018-08-13 00:00:00,2018-08-13 00:00:00,PRATE,surface,-104.063,26.929,7.6e-06
2018-08-13 00:00:00,2018-08-13 00:00:00,PRATE,surface,-103.125,26.929,7.3e-06
2018-08-13 00:00:00,2018-08-13 00:00:00,PRATE,surface,-102.188,26.929,8e-06
2018-08-13 00:00:00,2018-08-13 00:00:00,PRATE,surface,-101.25,26.929,1.57e-05
2018-08-13 00:00:00,2018-08-13 00:00:00,PRATE,surface,-100.313,26.929,3.14e-05
2018-08-13 00:00:00,2018-08-13 00:00:00,PRATE,surface,-99.3754,26.929,4.46e-05
2018-08-13 00:00:00,2018-08-13 00:00:00,PRATE,surface,-98.4379,26.929,6.06e-05
2018-08-13 00:00:00,2018-08-13 00:00:00,PRATE,surface,-97.5004,26.929,7.35e-05
2018-08-13 00:00:00,2018-08-13 00:00:00,PRATE,surface,-96.5629,26.929,6.17e-05
2018-08-13 00:00:00,2018-08-13 00:00:00,PRATE,surface,-95.6254,26.929,6.36e-05
2018-08-13 00:00:00,2018-08-13 00:00:00,PRATE,surface,-94.6879,26.929,5.55e-05
2018-08-13 00:00:00,2018-08-13 00:00:00,PRATE,surface,-93.7504,26.929,5.75e-05
2018-08-13 00:00:00,2018-08-13 00:00:00,PRATE,surface,-92.8129,26.929,7.28e-05
2018-08-13 00:00:00,2018-08-13 00:00:00,PRATE,surface,-107.813,27.8739,1.49e-05
2018-08-13 00:00:00,2018-08-13 00:00:00,PRATE,surface,-106.875,27.8739,1.39e-05
2018-08-13 00:00:00,2018-08-13 00:00:00,PRATE,surface,-105.938,27.8739,1.01e-05
2018-08-13 00:00:00,2018-08-13 00:00:00,PRATE,surface,-105,27.8739,6.7e-06
2018-08-13 00:00:00,2018-08-13 00:00:00,PRATE,surface,-104.063,27.8739,8.5e-06
2018-08-13 00:00:00,2018-08-13 00:00:00,PRATE,surface,-103.125,27.8739,1.05e-05
2018-08-13 00:00:00,2018-08-13 00:00:00,PRATE,surface,-102.188,27.8739,1.39e-05
2018-08-13 00:00:00,2018-08-13 00:00:00,PRATE,surface,-101.25,27.8739,1.44e-05
2018-08-13 00:00:00,2018-08-13 00:00:00,PRATE,surface,-100.313,27.8739,1.77e-05
2018-08-13 00:00:00,2018-08-13 00:00:00,PRATE,surface,-99.3754,27.8739,2.49e-05
2018-08-13 00:00:00,2018-08-13 00:00:00,PRATE,surface,-98.4379,27.8739,3.63e-05
2018-08-13 00:00:00,2018-08-13 00:00:00,PRATE,surface,-97.5004,27.8739,4.31e-05
2018-08-13 00:00:00,2018-08-13 00:00:00,PRATE,surface,-96.5629,27.8739,4.17e-05
2018-08-13 00:00:00,2018-08-13 00:00:00,PRATE,surface,-95.6254,27.8739,4.03e-05
2018-08-13 00:00:00,2018-08-13 00:00:00,PRATE,surface,-94.6879,27.8739,4.32e-05
2018-08-13 00:00:00,2018-08-13 00:00:00,PRATE,surface,-93.7504,27.8739,4.61e-05
2018-08-13 00:00:00,2018-08-13 00:00:00,PRATE,surface,-92.8129,27.8739,5.19e-05
2018-08-13 00:00:00,2018-08-13 00:00:00,PRATE,surface,-107.813,28.8188,1.49e-05
2018-08-13 00:00:00,2018-08-13 00:00:00,PRATE,surface,-106.875,28.8188,1.27e-05
2018-08-13 00:00:00,2018-08-13 00:00:00,PRATE,surface,-105.938,28.8188,7.8e-06
2018-08-13 00:00:00,2018-08-13 00:00:00,PRATE,surface,-105,28.8188,5.2e-06
2018-08-13 00:00:00,2018-08-13 00:00:00,PRATE,surface,-104.063,28.8188,8.2e-06
2018-08-13 00:00:00,2018-08-13 00:00:00,PRATE,surface,-103.125,28.8188,1.45e-05
2018-08-13 00:00:00,2018-08-13 00:00:00,PRATE,surface,-102.188,28.8188,1.71e-05
2018-08-13 00:00:00,2018-08-13 00:00:00,PRATE,surface,-101.25,28.8188,1.53e-05
2018-08-13 00:00:00,2018-08-13 00:00:00,PRATE,surface,-100.313,28.8188,1.51e-05
2018-08-13 00:00:00,2018-08-13 00:00:00,PRATE,surface,-99.3754,28.8188,2.08e-05
2018-08-13 00:00:00,2018-08-13 00:00:00,PRATE,surface,-98.4379,28.8188,2.99e-05
2018-08-13 00:00:00,2018-08-13 00:00:00,PRATE,surface,-97.5004,28.8188,3.84e-05
2018-08-13 00:00:00,2018-08-13 00:00:00,PRATE,surface,-96.5629,28.8188,4.05e-05
2018-08-13 00:00:00,2018-08-13 00:00:00,PRATE,surface,-95.6254,28.8188,4.06e-05
2018-08-13 00:00:00,2018-08-13 00:00:00,PRATE,surface,-94.6879,28.8188,4.64e-05
2018-08-13 00:00:00,2018-08-13 00:00:00,PRATE,surface,-93.7504,28.8188,4.88e-05
2018-08-13 00:00:00,2018-08-13 00:00:00,PRATE,surface,-92.8129,28.8188,5.05e-05
2018-08-13 00:00:00,2018-08-13 00:00:00,PRATE,surface,-107.813,29.7637,6.5e-06
2018-08-13 00:00:00,2018-08-13 00:00:00,PRATE,surface,-106.875,29.7637,7.1e-06
2018-08-13 00:00:00,2018-08-13 00:00:00,PRATE,surface,-105.938,29.7637,6e-06
2018-08-13 00:00:00,2018-08-13 00:00:00,PRATE,surface,-105,29.7637,5.1e-06
2018-08-13 00:00:00,2018-08-13 00:00:00,PRATE,surface,-104.063,29.7637,7.9e-06
2018-08-13 00:00:00,2018-08-13 00:00:00,PRATE,surface,-103.125,29.7637,1.3e-05
2018-08-13 00:00:00,2018-08-13 00:00:00,PRATE,surface,-102.188,29.7637,1.85e-05
2018-08-13 00:00:00,2018-08-13 00:00:00,PRATE,surface,-101.25,29.7637,2e-05
2018-08-13 00:00:00,2018-08-13 00:00:00,PRATE,surface,-100.313,29.7637,2e-05
2018-08-13 00:00:00,2018-08-13 00:00:00,PRATE,surface,-99.3754,29.7637,2.17e-05
2018-08-13 00:00:00,2018-08-13 00:00:00,PRATE,surface,-98.4379,29.7637,2.87e-05
2018-08-13 00:00:00,2018-08-13 00:00:00,PRATE,surface,-97.5004,29.7637,3.95e-05
2018-08-13 00:00:00,2018-08-13 00:00:00,PRATE,surface,-96.5629,29.7637,4.69e-05
2018-08-13 00:00:00,2018-08-13 00:00:00,PRATE,surface,-95.6254,29.7637,4.74e-05
2018-08-13 00:00:00,2018-08-13 00:00:00,PRATE,surface,-94.6879,29.7637,4.33e-05
2018-08-13 00:00:00,2018-08-13 00:00:00,PRATE,surface,-93.7504,29.7637,3.77e-05
2018-08-13 00:00:00,2018-08-13 00:00:00,PRATE,surface,-92.8129,29.7637,3.88e-05
2018-08-13 00:00:00,2018-08-13 00:00:00,PRATE,surface,-107.813,30.7085,3.3e-06
2018-08-13 00:00:00,2018-08-13 00:00:00,PRATE,surface,-106.875,30.7085,3.2e-06
2018-08-13 00:00:00,2018-08-13 00:00:00,PRATE,surface,-105.938,30.7085,3.7e-06
2018-08-13 00:00:00,2018-08-13 00:00:00,PRATE,surface,-105,30.7085,5.3e-06
2018-08-13 00:00:00,2018-08-13 00:00:00,PRATE,surface,-104.063,30.7085,8.4e-06
2018-08-13 00:00:00,2018-08-13 00:00:00,PRATE,surface,-103.125,30.7085,1.15e-05
2018-08-13 00:00:00,2018-08-13 00:00:00,PRATE,surface,-102.188,30.7085,1.39e-05
2018-08-13 00:00:00,2018-08-13 00:00:00,PRATE,surface,-101.25,30.7085,2.15e-05
2018-08-13 00:00:00,2018-08-13 00:00:00,PRATE,surface,-100.313,30.7085,2.54e-05
2018-08-13 00:00:00,2018-08-13 00:00:00,PRATE,surface,-99.3754,30.7085,2.65e-05
2018-08-13 00:00:00,2018-08-13 00:00:00,PRATE,surface,-98.4379,30.7085,2.82e-05
2018-08-13 00:00:00,2018-08-13 00:00:00,PRATE,surface,-97.5004,30.7085,3.74e-05
2018-08-13 00:00:00,2018-08-13 00:00:00,PRATE,surface,-96.5629,30.7085,4.43e-05
2018-08-13 00:00:00,2018-08-13 00:00:00,PRATE,surface,-95.6254,30.7085,4.17e-05
2018-08-13 00:00:00,2018-08-13 00:00:00,PRATE,surface,-94.6879,30.7085,3.99e-05
2018-08-13 00:00:00,2018-08-13 00:00:00,PRATE,surface,-93.7504,30.7085,3.91e-05
2018-08-13 00:00:00,2018-08-13 00:00:00,PRATE,surface,-92.8129,30.7085,3.94e-05
2018-08-13 00:00:00,2018-08-13 00:00:00,PRATE,surface,-107.813,31.6534,3.4e-06
2018-08-13 00:00:00,2018-08-13 00:00:00,PRATE,surface,-106.875,31.6534,2.7e-06
2018-08-13 00:00:00,2018-08-13 00:00:00,PRATE,surface,-105.938,31.6534,2.4e-06
2018-08-13 00:00:00,2018-08-13 00:00:00,PRATE,surface,-105,31.6534,2.8e-06
2018-08-13 00:00:00,2018-08-13 00:00:00,PRATE,surface,-104.063,31.6534,4.8e-06
2018-08-13 00:00:00,2018-08-13 00:00:00,PRATE,surface,-103.125,31.6534,7.8e-06
2018-08-13 00:00:00,2018-08-13 00:00:00,PRATE,surface,-102.188,31.6534,9.9e-06
2018-08-13 00:00:00,2018-08-13 00:00:00,PRATE,surface,-101.25,31.6534,1.55e-05
2018-08-13 00:00:00,2018-08-13 00:00:00,PRATE,surface,-100.313,31.6534,2.63e-05
2018-08-13 00:00:00,2018-08-13 00:00:00,PRATE,surface,-99.3754,31.6534,2.91e-05
2018-08-13 00:00:00,2018-08-13 00:00:00,PRATE,surface,-98.4379,31.6534,2.99e-05
2018-08-13 00:00:00,2018-08-13 00:00:00,PRATE,surface,-97.5004,31.6534,3.67e-05
2018-08-13 00:00:00,2018-08-13 00:00:00,PRATE,surface,-96.5629,31.6534,3.95e-05
2018-08-13 00:00:00,2018-08-13 00:00:00,PRATE,surface,-95.6254,31.6534,3.32e-05
2018-08-13 00:00:00,2018-08-13 00:00:00,PRATE,surface,-94.6879,31.6534,2.9e-05
2018-08-13 00:00:00,2018-08-13 00:00:00,PRATE,surface,-93.7504,31.6534,3.13e-05
2018-08-13 00:00:00,2018-08-13 00:00:00,PRATE,surface,-92.8129,31.6534,3.38e-05
2018-08-13 00:00:00,2018-08-13 00:00:00,PRATE,surface,-107.813,32.5983,4.8e-06
2018-08-13 00:00:00,2018-08-13 00:00:00,PRATE,surface,-106.875,32.5983,3.1e-06
2018-08-13 00:00:00,2018-08-13 00:00:00,PRATE,surface,-105.938,32.5983,2.4e-06
2018-08-13 00:00:00,2018-08-13 00:00:00,PRATE,surface,-105,32.5983,1.8e-06
2018-08-13 00:00:00,2018-08-13 00:00:00,PRATE,surface,-104.063,32.5983,2.6e-06
2018-08-13 00:00:00,2018-08-13 00:00:00,PRATE,surface,-103.125,32.5983,4.6e-06
2018-08-13 00:00:00,2018-08-13 00:00:00,PRATE,surface,-102.188,32.5983,9e-06
2018-08-13 00:00:00,2018-08-13 00:00:00,PRATE,surface,-101.25,32.5983,1.45e-05
2018-08-13 00:00:00,2018-08-13 00:00:00,PRATE,surface,-100.313,32.5983,2.39e-05
2018-08-13 00:00:00,2018-08-13 00:00:00,PRATE,surface,-99.3754,32.5983,3.41e-05
2018-08-13 00:00:00,2018-08-13 00:00:00,PRATE,surface,-98.4379,32.5983,4.05e-05
2018-08-13 00:00:00,2018-08-13 00:00:00,PRATE,surface,-97.5004,32.5983,4.24e-05
2018-08-13 00:00:00,2018-08-13 00:00:00,PRATE,surface,-96.5629,32.5983,3.49e-05
2018-08-13 00:00:00,2018-08-13 00:00:00,PRATE,surface,-95.6254,32.5983,2.59e-05
2018-08-13 00:00:00,2018-08-13 00:00:00,PRATE,surface,-94.6879,32.5983,2.78e-05
2018-08-13 00:00:00,2018-08-13 00:00:00,PRATE,surface,-93.7504,32.5983,3.15e-05
2018-08-13 00:00:00,2018-08-13 00:00:00,PRATE,surface,-92.8129,32.5983,3.65e-05
2018-08-13 00:00:00,2018-08-13 00:00:00,PRATE,surface,-107.813,33.5432,1.15e-05
2018-08-13 00:00:00,2018-08-13 00:00:00,PRATE,surface,-106.875,33.5432,7.6e-06
2018-08-13 00:00:00,2018-08-13 00:00:00,PRATE,surface,-105.938,33.5432,4.3e-06
2018-08-13 00:00:00,2018-08-13 00:00:00,PRATE,surface,-105,33.5432,2.7e-06
2018-08-13 00:00:00,2018-08-13 00:00:00,PRATE,surface,-104.063,33.5432,3.4e-06
2018-08-13 00:00:00,2018-08-13 00:00:00,PRATE,surface,-103.125,33.5432,4.6e-06
2018-08-13 00:00:00,2018-08-13 00:00:00,PRATE,surface,-102.188,33.5432,9.2e-06
2018-08-13 00:00:00,2018-08-13 00:00:00,PRATE,surface,-101.25,33.5432,1.41e-05
2018-08-13 00:00:00,2018-08-13 00:00:00,PRATE,surface,-100.313,33.5432,1.92e-05
2018-08-13 00:00:00,2018-08-13 00:00:00,PRATE,surface,-99.3754,33.5432,2.81e-05
2018-08-13 00:00:00,2018-08-13 00:00:00,PRATE,surface,-98.4379,33.5432,4.33e-05
2018-08-13 00:00:00,2018-08-13 00:00:00,PRATE,surface,-97.5004,33.5432,5.4e-05
2018-08-13 00:00:00,2018-08-13 00:00:00,PRATE,surface,-96.5629,33.5432,4.25e-05
2018-08-13 00:00:00,2018-08-13 00:00:00,PRATE,surface,-95.6254,33.5432,2.32e-05
2018-08-13 00:00:00,2018-08-13 00:00:00,PRATE,surface,-94.6879,33.5432,2.29e-05
2018-08-13 00:00:00,2018-08-13 00:00:00,PRATE,surface,-93.7504,33.5432,3.03e-05
2018-08-13 00:00:00,2018-08-13 00:00:00,PRATE,surface,-92.8129,33.5432,3.72e-05
2018-08-13 00:00:00,2018-08-13 00:00:00,PRATE,surface,-107.813,34.4881,1.08e-05
2018-08-13 00:00:00,2018-08-13 00:00:00,PRATE,surface,-106.875,34.4881,8.4e-06
2018-08-13 00:00:00,2018-08-13 00:00:00,PRATE,surface,-105.938,34.4881,8.5e-06
2018-08-13 00:00:00,2018-08-13 00:00:00,PRATE,surface,-105,34.4881,6.4e-06
2018-08-13 00:00:00,2018-08-13 00:00:00,PRATE,surface,-104.063,34.4881,4.4e-06
2018-08-13 00:00:00,2018-08-13 00:00:00,PRATE,surface,-103.125,34.4881,4.6e-06
2018-08-13 00:00:00,2018-08-13 00:00:00,PRATE,surface,-102.188,34.4881,7.9e-06
2018-08-13 00:00:00,2018-08-13 00:00:00,PRATE,surface,-101.25,34.4881,1.29e-05
2018-08-13 00:00:00,2018-08-13 00:00:00,PRATE,surface,-100.313,34.4881,1.6e-05
2018-08-13 00:00:00,2018-08-13 00:00:00,PRATE,surface,-99.3754,34.4881,2.08e-05
2018-08-13 00:00:00,2018-08-13 00:00:00,PRATE,surface,-98.4379,34.4881,3.89e-05
2018-08-13 00:00:00,2018-08-13 00:00:00,PRATE,surface,-97.5004,34.4881,5.73e-05
2018-08-13 00:00:00,2018-08-13 00:00:00,PRATE,surface,-96.5629,34.4881,5.49e-05
2018-08-13 00:00:00,2018-08-13 00:00:00,PRATE,surface,-95.6254,34.4881,3.8e-05
2018-08-13 00:00:00,2018-08-13 00:00:00,PRATE,surface,-94.6879,34.4881,2.7e-05
2018-08-13 00:00:00,2018-08-13 00:00:00,PRATE,surface,-93.7504,34.4881,2.6e-05
2018-08-13 00:00:00,2018-08-13 00:00:00,PRATE,surface,-92.8129,34.4881,3.09e-05
2018-08-13 00:00:00,2018-08-13 00:00:00,PRATE,surface,-107.813,35.4329,7.8e-06
2018-08-13 00:00:00,2018-08-13 00:00:00,PRATE,surface,-106.875,35.4329,5e-06
2018-08-13 00:00:00,2018-08-13 00:00:00,PRATE,surface,-105.938,35.4329,5.3e-06
2018-08-13 00:00:00,2018-08-13 00:00:00,PRATE,surface,-105,35.4329,6.3e-06
2018-08-13 00:00:00,2018-08-13 00:00:00,PRATE,surface,-104.063,35.4329,6.4e-06
2018-08-13 00:00:00,2018-08-13 00:00:00,PRATE,surface,-103.125,35.4329,5.8e-06
2018-08-13 00:00:00,2018-08-13 00:00:00,PRATE,surface,-102.188,35.4329,6.3e-06
2018-08-13 00:00:00,2018-08-13 00:00:00,PRATE,surface,-101.25,35.4329,8e-06
2018-08-13 00:00:00,2018-08-13 00:00:00,PRATE,surface,-100.313,35.4329,1.12e-05
2018-08-13 00:00:00,2018-08-13 00:00:00,PRATE,surface,-99.3754,35.4329,1.77e-05
2018-08-13 00:00:00,2018-08-13 00:00:00,PRATE,surface,-98.4379,35.4329,3.08e-05
2018-08-13 00:00:00,2018-08-13 00:00:00,PRATE,surface,-97.5004,35.4329,4.63e-05
2018-08-13 00:00:00,2018-08-13 00:00:00,PRATE,surface,-96.5629,35.4329,5.14e-05
2018-08-13 00:00:00,2018-08-13 00:00:00,PRATE,surface,-95.6254,35.4329,4.72e-05
2018-08-13 00:00:00,2018-08-13 00:00:00,PRATE,surface,-94.6879,35.4329,4.51e-05
2018-08-13 00:00:00,2018-08-13 00:00:00,PRATE,surface,-93.7504,35.4329,4.17e-05
2018-08-13 00:00:00,2018-08-13 00:00:00,PRATE,surface,-92.8129,35.4329,3.43e-05
2018-08-13 00:00:00,2018-08-13 00:00:00,PRATE,surface,-107.813,36.3778,1.19e-05
2018-08-13 00:00:00,2018-08-13 00:00:00,PRATE,surface,-106.875,36.3778,8.2e-06
2018-08-13 00:00:00,2018-08-13 00:00:00,PRATE,surface,-105.938,36.3778,6.6e-06
2018-08-13 00:00:00,2018-08-13 00:00:00,PRATE,surface,-105,36.3778,9.2e-06
2018-08-13 00:00:00,2018-08-13 00:00:00,PRATE,surface,-104.063,36.3778,1.01e-05
2018-08-13 00:00:00,2018-08-13 00:00:00,PRATE,surface,-103.125,36.3778,7.8e-06
2018-08-13 00:00:00,2018-08-13 00:00:00,PRATE,surface,-102.188,36.3778,5.2e-06
2018-08-13 00:00:00,2018-08-13 00:00:00,PRATE,surface,-101.25,36.3778,4.7e-06
2018-08-13 00:00:00,2018-08-13 00:00:00,PRATE,surface,-100.313,36.3778,5.8e-06
2018-08-13 00:00:00,2018-08-13 00:00:00,PRATE,surface,-99.3754,36.3778,1.03e-05
2018-08-13 00:00:00,2018-08-13 00:00:00,PRATE,surface,-98.4379,36.3778,2.06e-05
2018-08-13 00:00:00,2018-08-13 00:00:00,PRATE,surface,-97.5004,36.3778,3.31e-05
2018-08-13 00:00:00,2018-08-13 00:00:00,PRATE,surface,-96.5629,36.3778,3.88e-05
2018-08-13 00:00:00,2018-08-13 00:00:00,PRATE,surface,-95.6254,36.3778,3.88e-05
2018-08-13 00:00:00,2018-08-13 00:00:00,PRATE,surface,-94.6879,36.3778,4.22e-05
2018-08-13 00:00:00,2018-08-13 00:00:00,PRATE,surface,-93.7504,36.3778,4.88e-05
2018-08-13 00:00:00,2018-08-13 00:00:00,PRATE,surface,-92.8129,36.3778,5.18e-05
