2016-11-03 00:00:00,2016-11-03 00:00:00,TMP,surface,-107.813,25.0393,301.584
2016-11-03 00:00:00,2016-11-03 00:00:00,TMP,surface,-106.875,25.0393,294.432
2016-11-03 00:00:00,2016-11-03 00:00:00,TMP,surface,-105.938,25.0393,290.664
2016-11-03 00:00:00,2016-11-03 00:00:00,TMP,surface,-105,25.0393,289.184
2016-11-03 00:00:00,2016-11-03 00:00:00,TMP,surface,-104.063,25.0393,292.885
2016-11-03 00:00:00,2016-11-03 00:00:00,TMP,surface,-103.125,25.0393,297.117
2016-11-03 00:00:00,2016-11-03 00:00:00,TMP,surface,-102.188,25.0393,296.28
2016-11-03 00:00:00,2016-11-03 00:00:00,TMP,surface,-101.25,25.0393,293.154
2016-11-03 00:00:00,2016-11-03 00:00:00,TMP,surface,-100.313,25.0393,293.688
2016-11-03 00:00:00,2016-11-03 00:00:00,TMP,surface,-99.3754,25.0393,297.739
2016-11-03 00:00:00,2016-11-03 00:00:00,TMP,surface,-98.4379,25.0393,301.727
2016-11-03 00:00:00,2016-11-03 00:00:00,TMP,surface,-97.5004,25.0393,302.802
2016-11-03 00:00:00,2016-11-03 00:00:00,TMP,surface,-96.5629,25.0393,303.035
2016-11-03 00:00:00,2016-11-03 00:00:00,TMP,surface,-95.6254,25.0393,303.338
2016-11-03 00:00:00,2016-11-03 00:00:00,TMP,surface,-94.6879,25.0393,303.567
2016-11-03 00:00:00,2016-11-03 00:00:00,TMP,surface,-93.7504,25.0393,303.53
2016-11-03 00:00:00,2016-11-03 00:00:00,TMP,surface,-92.8129,25.0393,303.611
2016-11-03 00:00:00,2016-11-03 00:00:00,TMP,surface,-107.813,25.9842,296.517
2016-11-03 00:00:00,2016-11-03 00:00:00,TMP,surface,-106.875,25.9842,291.426
2016-11-03 00:00:00,2016-11-03 00:00:00,TMP,surface,-105.938,25.9842,289.813
2016-11-03 00:00:00,2016-11-03 00:00:00,TMP,surface,-105,25.9842,291.306
2016-11-03 00:00:00,2016-11-03 00:00:00,TMP,surface,-104.063,25.9842,297.275
2016-11-03 00:00:00,2016-11-03 00:00:00,TMP,surface,-103.125,25.9842,299.48
2016-11-03 00:00:00,2016-11-03 00:00:00,TMP,surface,-102.188,25.9842,298.218
2016-11-03 00:00:00,2016-11-03 00:00:00,TMP,surface,-101.25,25.9842,296.727
2016-11-03 00:00:00,2016-11-03 00:00:00,TMP,surface,-100.313,25.9842,297.554
2016-11-03 00:00:00,2016-11-03 00:00:00,TMP,surface,-99.3754,25.9842,301.28
2016-11-03 00:00:00,2016-11-03 00:00:00,TMP,surface,-98.4379,25.9842,303.053
2016-11-03 00:00:00,2016-11-03 00:00:00,TMP,surface,-97.5004,25.9842,302.263
2016-11-03 00:00:00,2016-11-03 00:00:00,TMP,surface,-96.5629,25.9842,302.379
2016-11-03 00:00:00,2016-11-03 00:00:00,TMP,surface,-95.6254,25.9842,302.867
2016-11-03 00:00:00,2016-11-03 00:00:00,TMP,surface,-94.6879,25.9842,303.469
2016-11-03 00:00:00,2016-11-03 00:00:00,TMP,surface,-93.7504,25.9842,303.754
2016-11-03 00:00:00,2016-11-03 00:00:00,TMP,surface,-92.8129,25.9842,303.883
2016-11-03 00:00:00,2016-11-03 00:00:00,TMP,surface,-107.813,26.929,292.597
2016-11-03 00:00:00,2016-11-03 00:00:00,TMP,surface,-106.875,26.929,289.925
2016-11-03 00:00:00,2016-11-03 00:00:00,TMP,surface,-105.938,26.929,290.874
2016-11-03 00:00:00,2016-11-03 00:00:00,TMP,surface,-105,26.929,294.613
2016-11-03 00:00:00,2016-11-03 00:00:00,TMP,surface,-104.063,26.929,298.823
2016-11-03 00:00:00,2016-11-03 00:00:00,TMP,surface,-103.125,26.929,298.528
2016-11-03 00:00:00,2016-11-03 00:00:00,TMP,surface,-102.188,26.929,297.687
2016-11-03 00:00:00,2016-11-03 00:00:00,TMP,surface,-101.25,26.929,298.704
2016-11-03 00:00:00,2016-11-03 00:00:00,TMP,surface,-100.313,26.929,301.184
2016-11-03 00:00:00,2016-11-03 00:00:00,TMP,surface,-99.3754,26.929,303.103
2016-11-03 00:00:00,2016-11-03 00:00:00,TMP,surface,-98.4379,26.929,302.133
2016-11-03 00:00:00,2016-11-03 00:00:00,TMP,surface,-97.5004,26.929,300.955
2016-11-03 00:00:00,2016-11-03 00:00:00,TMP,surface,-96.5629,26.929,301.503
2016-11-03 00:00:00,2016-11-03 00:00:00,TMP,surface,-95.6254,26.929,302.6
2016-11-03 00:00:00,2016-11-03 00:00:00,TMP,surface,-94.6879,26.929,303.523
2016-11-03 00:00:00,2016-11-03 00:00:00,TMP,surface,-93.7504,26.929,303.875
2016-11-03 00:00:00,2016-11-03 00:00:00,TMP,surface,-92.8129,26.929,304.016
2016-11-03 00:00:00,2016-11-03 00:00:00,TMP,surface,-107.813,27.8739,290.861
2016-11-03 00:00:00,2016-11-03 00:00:00,TMP,surface,-106.875,27.8739,289.479
2016-11-03 00:00:00,2016-11-03 00:00:00,TMP,surface,-105.938,27.8739,292.423
2016-11-03 00:00:00,2016-11-03 00:00:00,TMP,surface,-105,27.8739,296.714
2016-11-03 00:00:00,2016-11-03 00:00:00,TMP,surface,-104.063,27.8739,298.131
2016-11-03 00:00:00,2016-11-03 00:00:00,TMP,surface,-103.125,27.8739,296.648
2016-11-03 00:00:00,2016-11-03 00:00:00,TMP,surface,-102.188,27.8739,296.511
2016-11-03 00:00:00,2016-11-03 00:00:00,TMP,surface,-101.25,27.8739,299.44
2016-11-03 00:00:00,2016-11-03 00:00:00,TMP,surface,-100.313,27.8739,301.891
2016-11-03 00:00:00,2016-11-03 00:00:00,TMP,surface,-99.3754,27.8739,301.831
2016-11-03 00:00:00,2016-11-03 00:00:00,TMP,surface,-98.4379,27.8739,300.831
2016-11-03 00:00:00,2016-11-03 00:00:00,TMP,surface,-97.5004,27.8739,301.173
2016-11-03 00:00:00,2016-11-03 00:00:00,TMP,surface,-96.5629,27.8739,302.224
2016-11-03 00:00:00,2016-11-03 00:00:00,TMP,surface,-95.6254,27.8739,302.933
2016-11-03 00:00:00,2016-11-03 00:00:00,TMP,surface,-94.6879,27.8739,303.658
2016-11-03 00:00:00,2016-11-03 00:00:00,TMP,surface,-93.7504,27.8739,303.957
2016-11-03 00:00:00,2016-11-03 00:00:00,TMP,surface,-92.8129,27.8739,303.978
2016-11-03 00:00:00,2016-11-03 00:00:00,TMP,surface,-107.813,28.8188,289.989
2016-11-03 00:00:00,2016-11-03 00:00:00,TMP,surface,-106.875,28.8188,290.331
2016-11-03 00:00:00,2016-11-03 00:00:00,TMP,surface,-105.938,28.8188,294.288
2016-11-03 00:00:00,2016-11-03 00:00:00,TMP,surface,-105,28.8188,297.73
2016-11-03 00:00:00,2016-11-03 00:00:00,TMP,surface,-104.063,28.8188,296.615
2016-11-03 00:00:00,2016-11-03 00:00:00,TMP,surface,-103.125,28.8188,295.575
2016-11-03 00:00:00,2016-11-03 00:00:00,TMP,surface,-102.188,28.8188,296.208
2016-11-03 00:00:00,2016-11-03 00:00:00,TMP,surface,-101.25,28.8188,299.183
2016-11-03 00:00:00,2016-11-03 00:00:00,TMP,surface,-100.313,28.8188,300.472
2016-11-03 00:00:00,2016-11-03 00:00:00,TMP,surface,-99.3754,28.8188,299.803
2016-11-03 00:00:00,2016-11-03 00:00:00,TMP,surface,-98.4379,28.8188,299.13
2016-11-03 00:00:00,2016-11-03 00:00:00,TMP,surface,-97.5004,28.8188,299.301
2016-11-03 00:00:00,2016-11-03 00:00:00,TMP,surface,-96.5629,28.8188,300.04
2016-11-03 00:00:00,2016-11-03 00:00:00,TMP,surface,-95.6254,28.8188,301.349
2016-11-03 00:00:00,2016-11-03 00:00:00,TMP,surface,-94.6879,28.8188,302.741
2016-11-03 00:00:00,2016-11-03 00:00:00,TMP,surface,-93.7504,28.8188,303.013
2016-11-03 00:00:00,2016-11-03 00:00:00,TMP,surface,-92.8129,28.8188,302.875
2016-11-03 00:00:00,2016-11-03 00:00:00,TMP,surface,-107.813,29.7637,291.717
2016-11-03 00:00:00,2016-11-03 00:00:00,TMP,surface,-106.875,29.7637,293.167
2016-11-03 00:00:00,2016-11-03 00:00:00,TMP,surface,-105.938,29.7637,296.767
2016-11-03 00:00:00,2016-11-03 00:00:00,TMP,surface,-105,29.7637,297.05
2016-11-03 00:00:00,2016-11-03 00:00:00,TMP,surface,-104.063,29.7637,296.619
2016-11-03 00:00:00,2016-11-03 00:00:00,TMP,surface,-103.125,29.7637,296.707
2016-11-03 00:00:00,2016-11-03 00:00:00,TMP,surface,-102.188,29.7637,298.047
2016-11-03 00:00:00,2016-11-03 00:00:00,TMP,surface,-101.25,29.7637,299.253
2016-11-03 00:00:00,2016-11-03 00:00:00,TMP,surface,-100.313,29.7637,298.738
2016-11-03 00:00:00,2016-11-03 00:00:00,TMP,surface,-99.3754,29.7637,297.767
2016-11-03 00:00:00,2016-11-03 00:00:00,TMP,surface,-98.4379,29.7637,297.867
2016-11-03 00:00:00,2016-11-03 00:00:00,TMP,surface,-97.5004,29.7637,298.896
2016-11-03 00:00:00,2016-11-03 00:00:00,TMP,surface,-96.5629,29.7637,299.688
2016-11-03 00:00:00,2016-11-03 00:00:00,TMP,surface,-95.6254,29.7637,299.925
2016-11-03 00:00:00,2016-11-03 00:00:00,TMP,surface,-94.6879,29.7637,300.587
2016-11-03 00:00:00,2016-11-03 00:00:00,TMP,surface,-93.7504,29.7637,301.573
2016-11-03 00:00:00,2016-11-03 00:00:00,TMP,surface,-92.8129,29.7637,300.946
2016-11-03 00:00:00,2016-11-03 00:00:00,TMP,surface,-107.813,30.7085,296.471
2016-11-03 00:00:00,2016-11-03 00:00:00,TMP,surface,-106.875,30.7085,298.087
2016-11-03 00:00:00,2016-11-03 00:00:00,TMP,surface,-105.938,30.7085,298.079
2016-11-03 00:00:00,2016-11-03 00:00:00,TMP,surface,-105,30.7085,296.671
2016-11-03 00:00:00,2016-11-03 00:00:00,TMP,surface,-104.063,30.7085,296.322
2016-11-03 00:00:00,2016-11-03 00:00:00,TMP,surface,-103.125,30.7085,297.658
2016-11-03 00:00:00,2016-11-03 00:00:00,TMP,surface,-102.188,30.7085,298.733
2016-11-03 00:00:00,2016-11-03 00:00:00,TMP,surface,-101.25,30.7085,298.81
2016-11-03 00:00:00,2016-11-03 00:00:00,TMP,surface,-100.313,30.7085,298.12
2016-11-03 00:00:00,2016-11-03 00:00:00,TMP,surface,-99.3754,30.7085,297.781
2016-11-03 00:00:00,2016-11-03 00:00:00,TMP,surface,-98.4379,30.7085,298.442
2016-11-03 00:00:00,2016-11-03 00:00:00,TMP,surface,-97.5004,30.7085,299.6
2016-11-03 00:00:00,2016-11-03 00:00:00,TMP,surface,-96.5629,30.7085,300.509
2016-11-03 00:00:00,2016-11-03 00:00:00,TMP,surface,-95.6254,30.7085,300.658
2016-11-03 00:00:00,2016-11-03 00:00:00,TMP,surface,-94.6879,30.7085,300.293
2016-11-03 00:00:00,2016-11-03 00:00:00,TMP,surface,-93.7504,30.7085,300.306
2016-11-03 00:00:00,2016-11-03 00:00:00,TMP,surface,-92.8129,30.7085,300.04
2016-11-03 00:00:00,2016-11-03 00:00:00,TMP,surface,-107.813,31.6534,298.656
2016-11-03 00:00:00,2016-11-03 00:00:00,TMP,surface,-106.875,31.6534,299.344
2016-11-03 00:00:00,2016-11-03 00:00:00,TMP,surface,-105.938,31.6534,297.808
2016-11-03 00:00:00,2016-11-03 00:00:00,TMP,surface,-105,31.6534,296.979
2016-11-03 00:00:00,2016-11-03 00:00:00,TMP,surface,-104.063,31.6534,297.287
2016-11-03 00:00:00,2016-11-03 00:00:00,TMP,surface,-103.125,31.6534,298.192
2016-11-03 00:00:00,2016-11-03 00:00:00,TMP,surface,-102.188,31.6534,298.661
2016-11-03 00:00:00,2016-11-03 00:00:00,TMP,surface,-101.25,31.6534,298.399
2016-11-03 00:00:00,2016-11-03 00:00:00,TMP,surface,-100.313,31.6534,298.293
2016-11-03 00:00:00,2016-11-03 00:00:00,TMP,surface,-99.3754,31.6534,298.549
2016-11-03 00:00:00,2016-11-03 00:00:00,TMP,surface,-98.4379,31.6534,299.367
2016-11-03 00:00:00,2016-11-03 00:00:00,TMP,surface,-97.5004,31.6534,300.37
2016-11-03 00:00:00,2016-11-03 00:00:00,TMP,surface,-96.5629,31.6534,301.029
2016-11-03 00:00:00,2016-11-03 00:00:00,TMP,surface,-95.6254,31.6534,301.152
2016-11-03 00:00:00,2016-11-03 00:00:00,TMP,surface,-94.6879,31.6534,300.856
2016-11-03 00:00:00,2016-11-03 00:00:00,TMP,surface,-93.7504,31.6534,300.578
2016-11-03 00:00:00,2016-11-03 00:00:00,TMP,surface,-92.8129,31.6534,300.49
2016-11-03 00:00:00,2016-11-03 00:00:00,TMP,surface,-107.813,32.5983,295.776
2016-11-03 00:00:00,2016-11-03 00:00:00,TMP,surface,-106.875,32.5983,296.173
2016-11-03 00:00:00,2016-11-03 00:00:00,TMP,surface,-105.938,32.5983,296.447
2016-11-03 00:00:00,2016-11-03 00:00:00,TMP,surface,-105,32.5983,296.051
2016-11-03 00:00:00,2016-11-03 00:00:00,TMP,surface,-104.063,32.5983,297.365
2016-11-03 00:00:00,2016-11-03 00:00:00,TMP,surface,-103.125,32.5983,298.077
2016-11-03 00:00:00,2016-11-03 00:00:00,TMP,surface,-102.188,32.5983,297.813
2016-11-03 00:00:00,2016-11-03 00:00:00,TMP,surface,-101.25,32.5983,297.856
2016-11-03 00:00:00,2016-11-03 00:00:00,TMP,surface,-100.313,32.5983,298.856
2016-11-03 00:00:00,2016-11-03 00:00:00,TMP,surface,-99.3754,32.5983,299.65
2016-11-03 00:00:00,2016-11-03 00:00:00,TMP,surface,-98.4379,32.5983,300.083
2016-11-03 00:00:00,2016-11-03 00:00:00,TMP,surface,-97.5004,32.5983,300.408
2016-11-03 00:00:00,2016-11-03 00:00:00,TMP,surface,-96.5629,32.5983,300.903
2016-11-03 00:00:00,2016-11-03 00:00:00,TMP,surface,-95.6254,32.5983,301.389
2016-11-03 00:00:00,2016-11-03 00:00:00,TMP,surface,-94.6879,32.5983,301.235
2016-11-03 00:00:00,2016-11-03 00:00:00,TMP,surface,-93.7504,32.5983,300.837
2016-11-03 00:00:00,2016-11-03 00:00:00,TMP,surface,-92.8129,32.5983,301.234
2016-11-03 00:00:00,2016-11-03 00:00:00,TMP,surface,-107.813,33.5432,291.847
2016-11-03 00:00:00,2016-11-03 00:00:00,TMP,surface,-106.875,33.5432,292.858
2016-11-03 00:00:00,2016-11-03 00:00:00,TMP,surface,-105.938,33.5432,294.115
2016-11-03 00:00:00,2016-11-03 00:00:00,TMP,surface,-105,33.5432,295.133
2016-11-03 00:00:00,2016-11-03 00:00:00,TMP,surface,-104.063,33.5432,296.955
2016-11-03 00:00:00,2016-11-03 00:00:00,TMP,surface,-103.125,33.5432,296.863
2016-11-03 00:00:00,2016-11-03 00:00:00,TMP,surface,-102.188,33.5432,296.314
2016-11-03 00:00:00,2016-11-03 00:00:00,TMP,surface,-101.25,33.5432,297.095
2016-11-03 00:00:00,2016-11-03 00:00:00,TMP,surface,-100.313,33.5432,298.877
2016-11-03 00:00:00,2016-11-03 00:00:00,TMP,surface,-99.3754,33.5432,300.17
2016-11-03 00:00:00,2016-11-03 00:00:00,TMP,surface,-98.4379,33.5432,300.248
2016-11-03 00:00:00,2016-11-03 00:00:00,TMP,surface,-97.5004,33.5432,299.869
2016-11-03 00:00:00,2016-11-03 00:00:00,TMP,surface,-96.5629,33.5432,299.779
2016-11-03 00:00:00,2016-11-03 00:00:00,TMP,surface,-95.6254,33.5432,300.123
2016-11-03 00:00:00,2016-11-03 00:00:00,TMP,surface,-94.6879,33.5432,300.482
2016-11-03 00:00:00,2016-11-03 00:00:00,TMP,surface,-93.7504,33.5432,300.304
2016-11-03 00:00:00,2016-11-03 00:00:00,TMP,surface,-92.8129,33.5432,300.397
2016-11-03 00:00:00,2016-11-03 00:00:00,TMP,surface,-107.813,34.4881,290.703
2016-11-03 00:00:00,2016-11-03 00:00:00,TMP,surface,-106.875,34.4881,292.303
2016-11-03 00:00:00,2016-11-03 00:00:00,TMP,surface,-105.938,34.4881,293.578
2016-11-03 00:00:00,2016-11-03 00:00:00,TMP,surface,-105,34.4881,294.797
2016-11-03 00:00:00,2016-11-03 00:00:00,TMP,surface,-104.063,34.4881,295.773
2016-11-03 00:00:00,2016-11-03 00:00:00,TMP,surface,-103.125,34.4881,295.706
2016-11-03 00:00:00,2016-11-03 00:00:00,TMP,surface,-102.188,34.4881,295.464
2016-11-03 00:00:00,2016-11-03 00:00:00,TMP,surface,-101.25,34.4881,296.285
2016-11-03 00:00:00,2016-11-03 00:00:00,TMP,surface,-100.313,34.4881,297.987
2016-11-03 00:00:00,2016-11-03 00:00:00,TMP,surface,-99.3754,34.4881,299.219
2016-11-03 00:00:00,2016-11-03 00:00:00,TMP,surface,-98.4379,34.4881,299.303
2016-11-03 00:00:00,2016-11-03 00:00:00,TMP,surface,-97.5004,34.4881,298.858
2016-11-03 00:00:00,2016-11-03 00:00:00,TMP,surface,-96.5629,34.4881,298.952
2016-11-03 00:00:00,2016-11-03 00:00:00,TMP,surface,-95.6254,34.4881,299.354
2016-11-03 00:00:00,2016-11-03 00:00:00,TMP,surface,-94.6879,34.4881,299.123
2016-11-03 00:00:00,2016-11-03 00:00:00,TMP,surface,-93.7504,34.4881,298.8
2016-11-03 00:00:00,2016-11-03 00:00:00,TMP,surface,-92.8129,34.4881,299.147
2016-11-03 00:00:00,2016-11-03 00:00:00,TMP,surface,-107.813,35.4329,291.85
2016-11-03 00:00:00,2016-11-03 00:00:00,TMP,surface,-106.875,35.4329,292.216
2016-11-03 00:00:00,2016-11-03 00:00:00,TMP,surface,-105.938,35.4329,292.269
2016-11-03 00:00:00,2016-11-03 00:00:00,TMP,surface,-105,35.4329,292.557
2016-11-03 00:00:00,2016-11-03 00:00:00,TMP,surface,-104.063,35.4329,294.547
2016-11-03 00:00:00,2016-11-03 00:00:00,TMP,surface,-103.125,35.4329,295.511
2016-11-03 00:00:00,2016-11-03 00:00:00,TMP,surface,-102.188,35.4329,295.496
2016-11-03 00:00:00,2016-11-03 00:00:00,TMP,surface,-101.25,35.4329,295.992
2016-11-03 00:00:00,2016-11-03 00:00:00,TMP,surface,-100.313,35.4329,296.674
2016-11-03 00:00:00,2016-11-03 00:00:00,TMP,surface,-99.3754,35.4329,297.845
2016-11-03 00:00:00,2016-11-03 00:00:00,TMP,surface,-98.4379,35.4329,298.487
2016-11-03 00:00:00,2016-11-03 00:00:00,TMP,surface,-97.5004,35.4329,298.359
2016-11-03 00:00:00,2016-11-03 00:00:00,TMP,surface,-96.5629,35.4329,298.184
2016-11-03 00:00:00,2016-11-03 00:00:00,TMP,surface,-95.6254,35.4329,298.267
2016-11-03 00:00:00,2016-11-03 00:00:00,TMP,surface,-94.6879,35.4329,298.218
2016-11-03 00:00:00,2016-11-03 00:00:00,TMP,surface,-93.7504,35.4329,297.783
2016-11-03 00:00:00,2016-11-03 00:00:00,TMP,surface,-92.8129,35.4329,297.584
2016-11-03 00:00:00,2016-11-03 00:00:00,TMP,surface,-107.813,36.3778,291.648
2016-11-03 00:00:00,2016-11-03 00:00:00,TMP,surface,-106.875,36.3778,289.403
2016-11-03 00:00:00,2016-11-03 00:00:00,TMP,surface,-105.938,36.3778,289.37
2016-11-03 00:00:00,2016-11-03 00:00:00,TMP,surface,-105,36.3778,289.925
2016-11-03 00:00:00,2016-11-03 00:00:00,TMP,surface,-104.063,36.3778,292.2
2016-11-03 00:00:00,2016-11-03 00:00:00,TMP,surface,-103.125,36.3778,293.586
2016-11-03 00:00:00,2016-11-03 00:00:00,TMP,surface,-102.188,36.3778,294.547
2016-11-03 00:00:00,2016-11-03 00:00:00,TMP,surface,-101.25,36.3778,295.165
2016-11-03 00:00:00,2016-11-03 00:00:00,TMP,surface,-100.313,36.3778,296.056
2016-11-03 00:00:00,2016-11-03 00:00:00,TMP,surface,-99.3754,36.3778,296.989
2016-11-03 00:00:00,2016-11-03 00:00:00,TMP,surface,-98.4379,36.3778,297.627
2016-11-03 00:00:00,2016-11-03 00:00:00,TMP,surface,-97.5004,36.3778,297.818
2016-11-03 00:00:00,2016-11-03 00:00:00,TMP,surface,-96.5629,36.3778,297.765
2016-11-03 00:00:00,2016-11-03 00:00:00,TMP,surface,-95.6254,36.3778,297.671
2016-11-03 00:00:00,2016-11-03 00:00:00,TMP,surface,-94.6879,36.3778,297.314
2016-11-03 00:00:00,2016-11-03 00:00:00,TMP,surface,-93.7504,36.3778,296.701
2016-11-03 00:00:00,2016-11-03 00:00:00,TMP,surface,-92.8129,36.3778,296.504
2016-11-03 00:00:00,2016-11-03 00:00:00,PRATE,surface,-107.813,25.0393,4.22e-05
2016-11-03 00:00:00,2016-11-03 00:00:00,PRATE,surface,-106.875,25.0393,0.0002
2016-11-03 00:00:00,2016-11-03 00:00:00,PRATE,surface,-105.938,25.0393,0.000232
2016-11-03 00:00:00,2016-11-03 00:00:00,PRATE,surface,-105,25.0393,0.0001363
2016-11-03 00:00:00,2016-11-03 00:00:00,PRATE,surface,-104.063,25.0393,5.9e-05
2016-11-03 00:00:00,2016-11-03 00:00:00,PRATE,surface,-103.125,25.0393,8e-06
2016-11-03 00:00:00,2016-11-03 00:00:00,PRATE,surface,-102.188,25.0393,2.24e-05
2016-11-03 00:00:00,2016-11-03 00:00:00,PRATE,surface,-101.25,25.0393,7.85e-05
2016-11-03 00:00:00,2016-11-03 00:00:00,PRATE,surface,-100.313,25.0393,0.0001379
2016-11-03 00:00:00,2016-11-03 00:00:00,PRATE,surface,-99.3754,25.0393,8.53e-05
2016-11-03 00:00:00,2016-11-03 00:00:00,PRATE,surface,-98.4379,25.0393,3.09e-05
2016-11-03 00:00:00,2016-11-03 00:00:00,PRATE,surface,-97.5004,25.0393,4.47e-05
2016-11-03 00:00:00,2016-11-03 00:00:00,PRATE,surface,-96.5629,25.0393,3.31e-05
2016-11-03 00:00:00,2016-11-03 00:00:00,PRATE,surface,-95.6254,25.0393,2.5e-05
2016-11-03 00:00:00,2016-11-03 00:00:00,PRATE,surface,-94.6879,25.0393,1.56e-05
2016-11-03 00:00:00,2016-11-03 00:00:00,PRATE,surface,-93.7504,25.0393,3.55e-05
2016-11-03 00:00:00,2016-11-03 00:00:00,PRATE,surface,-92.8129,25.0393,5.71e-05
2016-11-03 00:00:00,2016-11-03 00:00:00,PRATE,surface,-107.813,25.9842,0.0001029
2016-11-03 00:00:00,2016-11-03 00:00:00,PRATE,surface,-106.875,25.9842,0.0002023
2016-11-03 00:00:00,2016-11-03 00:00:00,PRATE,surface,-105.938,25.9842,0.000165
2016-11-03 00:00:00,2016-11-03 00:00:00,PRATE,surface,-105,25.9842,9.87e-05
2016-11-03 00:00:00,2016-11-03 00:00:00,PRATE,surface,-104.063,25.9842,9.2e-06
2016-11-03 00:00:00,2016-11-03 00:00:00,PRATE,surface,-103.125,25.9842,4.7e-06
2016-11-03 00:00:00,2016-11-03 00:00:00,PRATE,surface,-102.188,25.9842,2.2e-05
2016-11-03 00:00:00,2016-11-03 00:00:00,PRATE,surface,-101.25,25.9842,6.84e-05
2016-11-03 00:00:00,2016-11-03 00:00:00,PRATE,surface,-100.313,25.9842,0.0001215
2016-11-03 00:00:00,2016-11-03 00:00:00,PRATE,surface,-99.3754,25.9842,3.63e-05
2016-11-03 00:00:00,2016-11-03 00:00:00,PRATE,surface,-98.4379,25.9842,3.48e-05
2016-11-03 00:00:00,2016-11-03 00:00:00,PRATE,surface,-97.5004,25.9842,7.99e-05
2016-11-03 00:00:00,2016-11-03 00:00:00,PRATE,surface,-96.5629,25.9842,3.71e-05
2016-11-03 00:00:00,2016-11-03 00:00:00,PRATE,surface,-95.6254,25.9842,3.42e-05
2016-11-03 00:00:00,2016-11-03 00:00:00,PRATE,surface,-94.6879,25.9842,4.19e-05
2016-11-03 00:00:00,2016-11-03 00:00:00,PRATE,surface,-93.7504,25.9842,5.6e-05
2016-11-03 00:00:00,2016-11-03 00:00:00,PRATE,surface,-92.8129,25.9842,5.35e-05
2016-11-03 00:00:00,2016-11-03 00:00:00,PRATE,surface,-107.813,26.929,0.0001832
2016-11-03 00:00:00,2016-11-03 00:00:00,PRATE,surface,-106.875,26.929,0.0001735
2016-11-03 00:00:00,2016-11-03 00:00:00,PRATE,surface,-105.938,26.929,0.0001176
2016-11-03 00:00:00,2016-11-03 00:00:00,PRATE,surface,-105,26.929,6.16e-05
2016-11-03 00:00:00,2016-11-03 00:00:00,PRATE,surface,-104.063,26.929,9.8e-06
2016-11-03 00:00:00,2016-11-03 00:00:00,PRATE,surface,-103.125,26.929,2.16e-05
2016-11-03 00:00:00,2016-11-03 00:00:00,PRATE,surface,-102.188,26.929,3.33e-05
2016-11-03 00:00:00,2016-11-03 00:00:00,PRATE,surface,-101.25,26.929,5.33e-05
2016-11-03 00:00:00,2016-11-03 00:00:00,PRATE,surface,-100.313,26.929,4.85e-05
2016-11-03 00:00:00,2016-11-03 00:00:00,PRATE,surface,-99.3754,26.929,2.42e-05
2016-11-03 00:00:00,2016-11-03 00:00:00,PRATE,surface,-98.4379,26.929,5.61e-05
2016-11-03 00:00:00,2016-11-03 00:00:00,PRATE,surface,-97.5004,26.929,4.21e-05
2016-11-03 00:00:00,2016-11-03 00:00:00,PRATE,surface,-96.5629,26.929,2.67e-05
2016-11-03 00:00:00,2016-11-03 00:00:00,PRATE,surface,-95.6254,26.929,2.38e-05
2016-11-03 00:00:00,2016-11-03 00:00:00,PRATE,surface,-94.6879,26.929,2.68e-05
2016-11-03 00:00:00,2016-11-03 00:00:00,PRATE,surface,-93.7504,26.929,5.56e-05
2016-11-03 00:00:00,2016-11-03 00:00:00,PRATE,surface,-92.8129,26.929,4.92e-05
2016-11-03 00:00:00,2016-11-03 00:00:00,PRATE,surface,-107.813,27.8739,0.0001803
2016-11-03 00:00:00,2016-11-03 00:00:00,PRATE,surface,-106.875,27.8739,0.0001297
2016-11-03 00:00:00,2016-11-03 00:00:00,PRATE,surface,-105.938,27.8739,7.26e-05
2016-11-03 00:00:00,2016-11-03 00:00:00,PRATE,surface,-105,27.8739,3.13e-05
2016-11-03 00:00:00,2016-11-03 00:00:00,PRATE,surface,-104.063,27.8739,3.81e-05
2016-11-03 00:00:00,2016-11-03 00:00:00,PRATE,surface,-103.125,27.8739,6.73e-05
2016-11-03 00:00:00,2016-11-03 00:00:00,PRATE,surface,-102.188,27.8739,6.55e-05
2016-11-03 00:00:00,2016-11-03 00:00:00,PRATE,surface,-101.25,27.8739,3.03e-05
2016-11-03 00:00:00,2016-11-03 00:00:00,PRATE,surface,-100.313,27.8739,2.79e-05
2016-11-03 00:00:00,2016-11-03 00:00:00,PRATE,surface,-99.3754,27.8739,6.34e-05
2016-11-03 00:00:00,2016-11-03 00:00:00,PRATE,surface,-98.4379,27.8739,8.53e-05
2016-11-03 00:00:00,2016-11-03 00:00:00,PRATE,surface,-97.5004,27.8739,5.87e-05
2016-11-03 00:00:00,2016-11-03 00:00:00,PRATE,surface,-96.5629,27.8739,2.42e-05
2016-11-03 00:00:00,2016-11-03 00:00:00,PRATE,surface,-95.6254,27.8739,2.2e-05
2016-11-03 00:00:00,2016-11-03 00:00:00,PRATE,surface,-94.6879,27.8739,4.81e-05
2016-11-03 00:00:00,2016-11-03 00:00:00,PRATE,surface,-93.7504,27.8739,8.28e-05
2016-11-03 00:00:00,2016-11-03 00:00:00,PRATE,surface,-92.8129,27.8739,6.96e-05
2016-11-03 00:00:00,2016-11-03 00:00:00,PRATE,surface,-107.813,28.8188,0.0001537
2016-11-03 00:00:00,2016-11-03 00:00:00,PRATE,surface,-106.875,28.8188,0.0001002
2016-11-03 00:00:00,2016-11-03 00:00:00,PRATE,surface,-105.938,28.8188,4.78e-05
2016-11-03 00:00:00,2016-11-03 00:00:00,PRATE,surface,-105,28.8188,2.32e-05
2016-11-03 00:00:00,2016-11-03 00:00:00,PRATE,surface,-104.063,28.8188,5.13e-05
2016-11-03 00:00:00,2016-11-03 00:00:00,PRATE,surface,-103.125,28.8188,7.3e-05
2016-11-03 00:00:00,2016-11-03 00:00:00,PRATE,surface,-102.188,28.8188,5.08e-05
2016-11-03 00:00:00,2016-11-03 00:00:00,PRATE,surface,-101.25,28.8188,2.28e-05
2016-11-03 00:00:00,2016-11-03 00:00:00,PRATE,surface,-100.313,28.8188,2.72e-05
2016-11-03 00:00:00,2016-11-03 00:00:00,PRATE,surface,-99.3754,28.8188,6.79e-05
2016-11-03 00:00:00,2016-11-03 00:00:00,PRATE,surface,-98.4379,28.8188,0.0001039
2016-11-03 00:00:00,2016-11-03 00:00:00,PRATE,surface,-97.5004,28.8188,9.28e-05
2016-11-03 00:00:00,2016-11-03 00:00:00,PRATE,surface,-96.5629,28.8188,6.07e-05
2016-11-03 00:00:00,2016-11-03 00:00:00,PRATE,surface,-95.6254,28.8188,4.46e-05
2016-11-03 00:00:00,2016-11-03 00:00:00,PRATE,surface,-94.6879,28.8188,4.57e-05
2016-11-03 00:00:00,2016-11-03 00:00:00,PRATE,surface,-93.7504,28.8188,5.79e-05
2016-11-03 00:00:00,2016-11-03 00:00:00,PRATE,surface,-92.8129,28.8188,4.63e-05
2016-11-03 00:00:00,2016-11-03 00:00:00,PRATE,surface,-107.813,29.7637,0.000113
2016-11-03 00:00:00,2016-11-03 00:00:00,PRATE,surface,-106.875,29.7637,6.68e-05
2016-11-03 00:00:00,2016-11-03 00:00:00,PRATE,surface,-105.938,29.7637,3.61e-05
2016-11-03 00:00:00,2016-11-03 00:00:00,PRATE,surface,-105,29.7637,3.79e-05
2016-11-03 00:00:00,2016-11-03 00:00:00,PRATE,surface,-104.063,29.7637,4.32e-05
2016-11-03 00:00:00,2016-11-03 00:00:00,PRATE,surface,-103.125,29.7637,5.95e-05
2016-11-03 00:00:00,2016-11-03 00:00:00,PRATE,surface,-102.188,29.7637,3.75e-05
2016-11-03 00:00:00,2016-11-03 00:00:00,PRATE,surface,-101.25,29.7637,2.16e-05
2016-11-03 00:00:00,2016-11-03 00:00:00,PRATE,surface,-100.313,29.7637,4.04e-05
2016-11-03 00:00:00,2016-11-03 00:00:00,PRATE,surface,-99.3754,29.7637,6.87e-05
2016-11-03 00:00:00,2016-11-03 00:00:00,PRATE,surface,-98.4379,29.7637,6.58e-05
2016-11-03 00:00:00,2016-11-03 00:00:00,PRATE,surface,-97.5004,29.7637,4.46e-05
2016-11-03 00:00:00,2016-11-03 00:00:00,PRATE,surface,-96.5629,29.7637,3.94e-05
2016-11-03 00:00:00,2016-11-03 00:00:00,PRATE,surface,-95.6254,29.7637,5.23e-05
2016-11-03 00:00:00,2016-11-03 00:00:00,PRATE,surface,-94.6879,29.7637,5.34e-05
2016-11-03 00:00:00,2016-11-03 00:00:00,PRATE,surface,-93.7504,29.7637,3.97e-05
2016-11-03 00:00:00,2016-11-03 00:00:00,PRATE,surface,-92.8129,29.7637,6.08e-05
2016-11-03 00:00:00,2016-11-03 00:00:00,PRATE,surface,-107.813,30.7085,3.54e-05
2016-11-03 00:00:00,2016-11-03 00:00:00,PRATE,surface,-106.875,30.7085,3.11e-05
2016-11-03 00:00:00,2016-11-03 00:00:00,PRATE,surface,-105.938,30.7085,3.83e-05
2016-11-03 00:00:00,2016-11-03 00:00:00,PRATE,surface,-105,30.7085,4.35e-05
2016-11-03 00:00:00,2016-11-03 00:00:00,PRATE,surface,-104.063,30.7085,3.3e-05
2016-11-03 00:00:00,2016-11-03 00:00:00,PRATE,surface,-103.125,30.7085,3.68e-05
2016-11-03 00:00:00,2016-11-03 00:00:00,PRATE,surface,-102.188,30.7085,2.91e-05
2016-11-03 00:00:00,2016-11-03 00:00:00,PRATE,surface,-101.25,30.7085,2.46e-05
2016-11-03 00:00:00,2016-11-03 00:00:00,PRATE,surface,-100.313,30.7085,4.29e-05
2016-11-03 00:00:00,2016-11-03 00:00:00,PRATE,surface,-99.3754,30.7085,4.81e-05
2016-11-03 00:00:00,2016-11-03 00:00:00,PRATE,surface,-98.4379,30.7085,3.73e-05
2016-11-03 00:00:00,2016-11-03 00:00:00,PRATE,surface,-97.5004,30.7085,2.8e-05
2016-11-03 00:00:00,2016-11-03 00:00:00,PRATE,surface,-96.5629,30.7085,2.88e-05
2016-11-03 00:00:00,2016-11-03 00:00:00,PRATE,surface,-95.6254,30.7085,3.53e-05
2016-11-03 00:00:00,2016-11-03 00:00:00,PRATE,surface,-94.6879,30.7085,4.08e-05
2016-11-03 00:00:00,2016-11-03 00:00:00,PRATE,surface,-93.7504,30.7085,4.48e-05
2016-11-03 00:00:00,2016-11-03 00:00:00,PRATE,surface,-92.8129,30.7085,4.6e-05
2016-11-03 00:00:00,2016-11-03 00:00:00,PRATE,surface,-107.813,31.6534,2.73e-05
2016-11-03 00:00:00,2016-11-03 00:00:00,PRATE,surface,-106.875,31.6534,2.84e-05
2016-11-03 00:00:00,2016-11-03 00:00:00,PRATE,surface,-105.938,31.6534,3.34e-05
2016-11-03 00:00:00,2016-11-03 00:00:00,PRATE,surface,-105,31.6534,2.94e-05
2016-11-03 00:00:00,2016-11-03 00:00:00,PRATE,surface,-104.063,31.6534,2.36e-05
2016-11-03 00:00:00,2016-11-03 00:00:00,PRATE,surface,-103.125,31.6534,2.26e-05
2016-11-03 00:00:00,2016-11-03 00:00:00,PRATE,surface,-102.188,31.6534,2.79e-05
2016-11-03 00:00:00,2016-11-03 00:00:00,PRATE,surface,-101.25,31.6534,2.82e-05
2016-11-03 00:00:00,2016-11-03 00:00:00,PRATE,surface,-100.313,31.6534,4.18e-05
2016-11-03 00:00:00,2016-11-03 00:00:00,PRATE,surface,-99.3754,31.6534,4.58e-05
2016-11-03 00:00:00,2016-11-03 00:00:00,PRATE,surface,-98.4379,31.6534,3.64e-05
2016-11-03 00:00:00,2016-11-03 00:00:00,PRATE,surface,-97.5004,31.6534,3.04e-05
2016-11-03 00:00:00,2016-11-03 00:00:00,PRATE,surface,-96.5629,31.6534,2.57e-05
2016-11-03 00:00:00,2016-11-03 00:00:00,PRATE,surface,-95.6254,31.6534,2.13e-05
2016-11-03 00:00:00,2016-11-03 00:00:00,PRATE,surface,-94.6879,31.6534,2.89e-05
2016-11-03 00:00:00,2016-11-03 00:00:00,PRATE,surface,-93.7504,31.6534,3.96e-05
2016-11-03 00:00:00,2016-11-03 00:00:00,PRATE,surface,-92.8129,31.6534,4.29e-05
2016-11-03 00:00:00,2016-11-03 00:00:00,PRATE,surface,-107.813,32.5983,4.6e-05
2016-11-03 00:00:00,2016-11-03 00:00:00,PRATE,surface,-106.875,32.5983,4.14e-05
2016-11-03 00:00:00,2016-11-03 00:00:00,PRATE,surface,-105.938,32.5983,3.31e-05
2016-11-03 00:00:00,2016-11-03 00:00:00,PRATE,surface,-105,32.5983,3.58e-05
2016-11-03 00:00:00,2016-11-03 00:00:00,PRATE,surface,-104.063,32.5983,2.99e-05
2016-11-03 00:00:00,2016-11-03 00:00:00,PRATE,surface,-103.125,32.5983,2.07e-05
2016-11-03 00:00:00,2016-11-03 00:00:00,PRATE,surface,-102.188,32.5983,3.45e-05
2016-11-03 00:00:00,2016-11-03 00:00:00,PRATE,surface,-101.25,32.5983,3.78e-05
2016-11-03 00:00:00,2016-11-03 00:00:00,PRATE,surface,-100.313,32.5983,2.52e-05
2016-11-03 00:00:00,2016-11-03 00:00:00,PRATE,surface,-99.3754,32.5983,2.66e-05
2016-11-03 00:00:00,2016-11-03 00:00:00,PRATE,surface,-98.4379,32.5983,3.15e-05
2016-11-03 00:00:00,2016-11-03 00:00:00,PRATE,surface,-97.5004,32.5983,3.07e-05
2016-11-03 00:00:00,2016-11-03 00:00:00,PRATE,surface,-96.5629,32.5983,2.52e-05
2016-11-03 00:00:00,2016-11-03 00:00:00,PRATE,surface,-95.6254,32.5983,1.94e-05
2016-11-03 00:00:00,2016-11-03 00:00:00,PRATE,surface,-94.6879,32.5983,2.32e-05
2016-11-03 00:00:00,2016-11-03 00:00:00,PRATE,surface,-93.7504,32.5983,3.26e-05
2016-11-03 00:00:00,2016-11-03 00:00:00,PRATE,surface,-92.8129,32.5983,2.85e-05
2016-11-03 00:00:00,2016-11-03 00:00:00,PRATE,surface,-107.813,33.5432,8.71e-05
2016-11-03 00:00:00,2016-11-03 00:00:00,PRATE,surface,-106.875,33.5432,6.39e-05
2016-11-03 00:00:00,2016-11-03 00:00:00,PRATE,surface,-105.938,33.5432,3.94e-05
2016-11-03 00:00:00,2016-11-03 00:00:00,PRATE,surface,-105,33.5432,3.22e-05
2016-11-03 00:00:00,2016-11-03 00:00:00,PRATE,surface,-104.063,33.5432,2.98e-05
2016-11-03 00:00:00,2016-11-03 00:00:00,PRATE,surface,-103.125,33.5432,3.85e-05
2016-11-03 00:00:00,2016-11-03 00:00:00,PRATE,surface,-102.188,33.5432,4.68e-05
2016-11-03 00:00:00,2016-11-03 00:00:00,PRATE,surface,-101.25,33.5432,4.56e-05
2016-11-03 00:00:00,2016-11-03 00:00:00,PRATE,surface,-100.313,33.5432,2.82e-05
2016-11-03 00:00:00,2016-11-03 00:00:00,PRATE,surface,-99.3754,33.5432,1.17e-05
2016-11-03 00:00:00,2016-11-03 00:00:00,PRATE,surface,-98.4379,33.5432,1.75e-05
2016-11-03 00:00:00,2016-11-03 00:00:00,PRATE,surface,-97.5004,33.5432,3.38e-05
2016-11-03 00:00:00,2016-11-03 00:00:00,PRATE,surface,-96.5629,33.5432,3.95e-05
2016-11-03 00:00:00,2016-11-03 00:00:00,PRATE,surface,-95.6254,33.5432,3.18e-05
2016-11-03 00:00:00,2016-11-03 00:00:00,PRATE,surface,-94.6879,33.5432,2.35e-05
2016-11-03 00:00:00,2016-11-03 00:00:00,PRATE,surface,-93.7504,33.5432,2.57e-05
2016-11-03 00:00:00,2016-11-03 00:00:00,PRATE,surface,-92.8129,33.5432,3.02e-05
2016-11-03 00:00:00,2016-11-03 00:00:00,PRATE,surface,-107.813,34.4881,6.8e-05
2016-11-03 00:00:00,2016-11-03 00:00:00,PRATE,surface,-106.875,34.4881,4.2e-05
2016-11-03 00:00:00,2016-11-03 00:00:00,PRATE,surface,-105.938,34.4881,2.72e-05
2016-11-03 00:00:00,2016-11-03 00:00:00,PRATE,surface,-105,34.4881,3.37e-05
2016-11-03 00:00:00,2016-11-03 00:00:00,PRATE,surface,-104.063,34.4881,2.97e-05
2016-11-03 00:00:00,2016-11-03 00:00:00,PRATE,surface,-103.125,34.4881,2.93e-05
2016-11-03 00:00:00,2016-11-03 00:00:00,PRATE,surface,-102.188,34.4881,5.86e-05
2016-11-03 00:00:00,2016-11-03 00:00:00,PRATE,surface,-101.25,34.4881,5.8e-05
2016-11-03 00:00:00,2016-11-03 00:00:00,PRATE,surface,-100.313,34.4881,3.2e-05
2016-11-03 00:00:00,2016-11-03 00:00:00,PRATE,surface,-99.3754,34.4881,2.09e-05
2016-11-03 00:00:00,2016-11-03 00:00:00,PRATE,surface,-98.4379,34.4881,3.09e-05
2016-11-03 00:00:00,2016-11-03 00:00:00,PRATE,surface,-97.5004,34.4881,4.57e-05
2016-11-03 00:00:00,2016-11-03 00:00:00,PRATE,surface,-96.5629,34.4881,4.95e-05
2016-11-03 00:00:00,2016-11-03 00:00:00,PRATE,surface,-95.6254,34.4881,4.63e-05
2016-11-03 00:00:00,2016-11-03 00:00:00,PRATE,surface,-94.6879,34.4881,4.83e-05
2016-11-03 00:00:00,2016-11-03 00:00:00,PRATE,surface,-93.7504,34.4881,4.8e-05
2016-11-03 00:00:00,2016-11-03 00:00:00,PRATE,surface,-92.8129,34.4881,3.95e-05
2016-11-03 00:00:00,2016-11-03 00:00:00,PRATE,surface,-107.813,35.4329,3.32e-05
2016-11-03 00:00:00,2016-11-03 00:00:00,PRATE,surface,-106.875,35.4329,2.02e-05
2016-11-03 00:00:00,2016-11-03 00:00:00,PRATE,surface,-105.938,35.4329,2.09e-05
2016-11-03 00:00:00,2016-11-03 00:00:00,PRATE,surface,-105,35.4329,2.92e-05
2016-11-03 00:00:00,2016-11-03 00:00:00,PRATE,surface,-104.063,35.4329,3.57e-05
2016-11-03 00:00:00,2016-11-03 00:00:00,PRATE,surface,-103.125,35.4329,3.97e-05
2016-11-03 00:00:00,2016-11-03 00:00:00,PRATE,surface,-102.188,35.4329,6.22e-05
2016-11-03 00:00:00,2016-11-03 00:00:00,PRATE,surface,-101.25,35.4329,6.13e-05
2016-11-03 00:00:00,2016-11-03 00:00:00,PRATE,surface,-100.313,35.4329,5.19e-05
2016-11-03 00:00:00,2016-11-03 00:00:00,PRATE,surface,-99.3754,35.4329,4.29e-05
2016-11-03 00:00:00,2016-11-03 00:00:00,PRATE,surface,-98.4379,35.4329,4.16e-05
2016-11-03 00:00:00,2016-11-03 00:00:00,PRATE,surface,-97.5004,35.4329,4.62e-05
2016-11-03 00:00:00,2016-11-03 00:00:00,PRATE,surface,-96.5629,35.4329,5.08e-05
2016-11-03 00:00:00,2016-11-03 00:00:00,PRATE,surface,-95.6254,35.4329,5.39e-05
2016-11-03 00:00:00,2016-11-03 00:00:00,PRATE,surface,-94.6879,35.4329,5.94e-05
2016-11-03 00:00:00,2016-11-03 00:00:00,PRATE,surface,-93.7504,35.4329,6.72e-05
2016-11-03 00:00:00,2016-11-03 00:00:00,PRATE,surface,-92.8129,35.4329,6.51e-05
2016-11-03 00:00:00,2016-11-03 00:00:00,PRATE,surface,-107.813,36.3778,2.9e-05
2016-11-03 00:00:00,2016-11-03 00:00:00,PRATE,surface,-106.875,36.3778,3.06e-05
2016-11-03 00:00:00,2016-11-03 00:00:00,PRATE,surface,-105.938,36.3778,4.28e-05
2016-11-03 00:00:00,2016-11-03 00:00:00,PRATE,surface,-105,36.3778,4.32e-05
2016-11-03 00:00:00,2016-11-03 00:00:00,PRATE,surface,-104.063,36.3778,4.18e-05
2016-11-03 00:00:00,2016-11-03 00:00:00,PRATE,surface,-103.125,36.3778,4.96e-05
2016-11-03 00:00:00,2016-11-03 00:00:00,PRATE,surface,-102.188,36.3778,6.8e-05
2016-11-03 00:00:00,2016-11-03 00:00:00,PRATE,surface,-101.25,36.3778,7.55e-05
2016-11-03 00:00:00,2016-11-03 00:00:00,PRATE,surface,-100.313,36.3778,7.06e-05
2016-11-03 00:00:00,2016-11-03 00:00:00,PRATE,surface,-99.3754,36.3778,5.82e-05
2016-11-03 00:00:00,2016-11-03 00:00:00,PRATE,surface,-98.4379,36.3778,4.76e-05
2016-11-03 00:00:00,2016-11-03 00:00:00,PRATE,surface,-97.5004,36.3778,4.17e-05
2016-11-03 00:00:00,2016-11-03 00:00:00,PRATE,surface,-96.5629,36.3778,3.45e-05
2016-11-03 00:00:00,2016-11-03 00:00:00,PRATE,surface,-95.6254,36.3778,3.52e-05
2016-11-03 00:00:00,2016-11-03 00:00:00,PRATE,surface,-94.6879,36.3778,5.29e-05
2016-11-03 00:00:00,2016-11-03 00:00:00,PRATE,surface,-93.7504,36.3778,6.69e-05
2016-11-03 00:00:00,2016-11-03 00:00:00,PRATE,surface,-92.8129,36.3778,6.97e-05
