2014-05-19 00:00:00,2014-05-19 00:00:00,TMP,surface,-107.813,25.0393,302.083
2014-05-19 00:00:00,2014-05-19 00:00:00,TMP,surface,-106.875,25.0393,297.614
2014-05-19 00:00:00,2014-05-19 00:00:00,TMP,surface,-105.938,25.0393,292.1
2014-05-19 00:00:00,2014-05-19 00:00:00,TMP,surface,-105,25.0393,294.96
2014-05-19 00:00:00,2014-05-19 00:00:00,TMP,surface,-104.063,25.0393,298.828
2014-05-19 00:00:00,2014-05-19 00:00:00,TMP,surface,-103.125,25.0393,300.835
2014-05-19 00:00:00,2014-05-19 00:00:00,TMP,surface,-102.188,25.0393,298.992
2014-05-19 00:00:00,2014-05-19 00:00:00,TMP,surface,-101.25,25.0393,295.273
2014-05-19 00:00:00,2014-05-19 00:00:00,TMP,surface,-100.313,25.0393,294.868
2014-05-19 00:00:00,2014-05-19 00:00:00,TMP,surface,-99.3754,25.0393,297.747
2014-05-19 00:00:00,2014-05-19 00:00:00,TMP,surface,-98.4379,25.0393,299.713
2014-05-19 00:00:00,2014-05-19 00:00:00,TMP,surface,-97.5004,25.0393,297.683
2014-05-19 00:00:00,2014-05-19 00:00:00,TMP,surface,-96.5629,25.0393,297.387
2014-05-19 00:00:00,2014-05-19 00:00:00,TMP,surface,-95.6254,25.0393,298.155
2014-05-19 00:00:00,2014-05-19 00:00:00,TMP,surface,-94.6879,25.0393,298.233
2014-05-19 00:00:00,2014-05-19 00:00:00,TMP,surface,-93.7504,25.0393,298.152
2014-05-19 00:00:00,2014-05-19 00:00:00,TMP,surface,-92.8129,25.0393,298.313
2014-05-19 00:00:00,2014-05-19 00:00:00,TMP,surface,-107.813,25.9842,299.414
2014-05-19 00:00:00,2014-05-19 00:00:00,TMP,surface,-106.875,25.9842,293.393
2014-05-19 00:00:00,2014-05-19 00:00:00,TMP,surface,-105.938,25.9842,291.745
2014-05-19 00:00:00,2014-05-19 00:00:00,TMP,surface,-105,25.9842,297.918
2014-05-19 00:00:00,2014-05-19 00:00:00,TMP,surface,-104.063,25.9842,301.011
2014-05-19 00:00:00,2014-05-19 00:00:00,TMP,surface,-103.125,25.9842,302.833
2014-05-19 00:00:00,2014-05-19 00:00:00,TMP,surface,-102.188,25.9842,300.361
2014-05-19 00:00:00,2014-05-19 00:00:00,TMP,surface,-101.25,25.9842,298.014
2014-05-19 00:00:00,2014-05-19 00:00:00,TMP,surface,-100.313,25.9842,298.22
2014-05-19 00:00:00,2014-05-19 00:00:00,TMP,surface,-99.3754,25.9842,300.094
2014-05-19 00:00:00,2014-05-19 00:00:00,TMP,surface,-98.4379,25.9842,300.03
2014-05-19 00:00:00,2014-05-19 00:00:00,TMP,surface,-97.5004,25.9842,298.563
2014-05-19 00:00:00,2014-05-19 00:00:00,TMP,surface,-96.5629,25.9842,296.092
2014-05-19 00:00:00,2014-05-19 00:00:00,TMP,surface,-95.6254,25.9842,297.241
2014-05-19 00:00:00,2014-05-19 00:00:00,TMP,surface,-94.6879,25.9842,297.806
2014-05-19 00:00:00,2014-05-19 00:00:00,TMP,surface,-93.7504,25.9842,297.816
2014-05-19 00:00:00,2014-05-19 00:00:00,TMP,surface,-92.8129,25.9842,297.993
2014-05-19 00:00:00,2014-05-19 00:00:00,TMP,surface,-107.813,26.929,294.126
2014-05-19 00:00:00,2014-05-19 00:00:00,TMP,surface,-106.875,26.929,291.688
2014-05-19 00:00:00,2014-05-19 00:00:00,TMP,surface,-105.938,26.929,296.286
2014-05-19 00:00:00,2014-05-19 00:00:00,TMP,surface,-105,26.929,300.636
2014-05-19 00:00:00,2014-05-19 00:00:00,TMP,surface,-104.063,26.929,302.16
2014-05-19 00:00:00,2014-05-19 00:00:00,TMP,surface,-103.125,26.929,301.166
2014-05-19 00:00:00,2014-05-19 00:00:00,TMP,surface,-102.188,26.929,298.984
2014-05-19 00:00:00,2014-05-19 00:00:00,TMP,surface,-101.25,26.929,299.004
2014-05-19 00:00:00,2014-05-19 00:00:00,TMP,surface,-100.313,26.929,300.39
2014-05-19 00:00:00,2014-05-19 00:00:00,TMP,surface,-99.3754,26.929,301.158
2014-05-19 00:00:00,2014-05-19 00:00:00,TMP,surface,-98.4379,26.929,299.372
2014-05-19 00:00:00,2014-05-19 00:00:00,TMP,surface,-97.5004,26.929,296.134
2014-05-19 00:00:00,2014-05-19 00:00:00,TMP,surface,-96.5629,26.929,296.296
2014-05-19 00:00:00,2014-05-19 00:00:00,TMP,surface,-95.6254,26.929,297.219
2014-05-19 00:00:00,2014-05-19 00:00:00,TMP,surface,-94.6879,26.929,297.588
2014-05-19 00:00:00,2014-05-19 00:00:00,TMP,surface,-93.7504,26.929,297.571
2014-05-19 00:00:00,2014-05-19 00:00:00,TMP,surface,-92.8129,26.929,297.801
2014-05-19 00:00:00,2014-05-19 00:00:00,TMP,surface,-107.813,27.8739,291.201
2014-05-19 00:00:00,2014-05-19 00:00:00,TMP,surface,-106.875,27.8739,292.872
2014-05-19 00:00:00,2014-05-19 00:00:00,TMP,surface,-105.938,27.8739,299.032
2014-05-19 00:00:00,2014-05-19 00:00:00,TMP,surface,-105,27.8739,301.348
2014-05-19 00:00:00,2014-05-19 00:00:00,TMP,surface,-104.063,27.8739,301.302
2014-05-19 00:00:00,2014-05-19 00:00:00,TMP,surface,-103.125,27.8739,298.638
2014-05-19 00:00:00,2014-05-19 00:00:00,TMP,surface,-102.188,27.8739,297.34
2014-05-19 00:00:00,2014-05-19 00:00:00,TMP,surface,-101.25,27.8739,298.753
2014-05-19 00:00:00,2014-05-19 00:00:00,TMP,surface,-100.313,27.8739,300.393
2014-05-19 00:00:00,2014-05-19 00:00:00,TMP,surface,-99.3754,27.8739,300.244
2014-05-19 00:00:00,2014-05-19 00:00:00,TMP,surface,-98.4379,27.8739,298.534
2014-05-19 00:00:00,2014-05-19 00:00:00,TMP,surface,-97.5004,27.8739,297.097
2014-05-19 00:00:00,2014-05-19 00:00:00,TMP,surface,-96.5629,27.8739,296.776
2014-05-19 00:00:00,2014-05-19 00:00:00,TMP,surface,-95.6254,27.8739,296.974
2014-05-19 00:00:00,2014-05-19 00:00:00,TMP,surface,-94.6879,27.8739,297.184
2014-05-19 00:00:00,2014-05-19 00:00:00,TMP,surface,-93.7504,27.8739,297.443
2014-05-19 00:00:00,2014-05-19 00:00:00,TMP,surface,-92.8129,27.8739,297.883
2014-05-19 00:00:00,2014-05-19 00:00:00,TMP,surface,-107.813,28.8188,290.504
2014-05-19 00:00:00,2014-05-19 00:00:00,TMP,surface,-106.875,28.8188,294.248
2014-05-19 00:00:00,2014-05-19 00:00:00,TMP,surface,-105.938,28.8188,299.267
2014-05-19 00:00:00,2014-05-19 00:00:00,TMP,surface,-105,28.8188,301.43
2014-05-19 00:00:00,2014-05-19 00:00:00,TMP,surface,-104.063,28.8188,300.593
2014-05-19 00:00:00,2014-05-19 00:00:00,TMP,surface,-103.125,28.8188,298.163
2014-05-19 00:00:00,2014-05-19 00:00:00,TMP,surface,-102.188,28.8188,297.156
2014-05-19 00:00:00,2014-05-19 00:00:00,TMP,surface,-101.25,28.8188,298.267
2014-05-19 00:00:00,2014-05-19 00:00:00,TMP,surface,-100.313,28.8188,298.83
2014-05-19 00:00:00,2014-05-19 00:00:00,TMP,surface,-99.3754,28.8188,298.249
2014-05-19 00:00:00,2014-05-19 00:00:00,TMP,surface,-98.4379,28.8188,297.494
2014-05-19 00:00:00,2014-05-19 00:00:00,TMP,surface,-97.5004,28.8188,297.123
2014-05-19 00:00:00,2014-05-19 00:00:00,TMP,surface,-96.5629,28.8188,297.324
2014-05-19 00:00:00,2014-05-19 00:00:00,TMP,surface,-95.6254,28.8188,297.296
2014-05-19 00:00:00,2014-05-19 00:00:00,TMP,surface,-94.6879,28.8188,296.793
2014-05-19 00:00:00,2014-05-19 00:00:00,TMP,surface,-93.7504,28.8188,297.257
2014-05-19 00:00:00,2014-05-19 00:00:00,TMP,surface,-92.8129,28.8188,297.68
2014-05-19 00:00:00,2014-05-19 00:00:00,TMP,surface,-107.813,29.7637,292.755
2014-05-19 00:00:00,2014-05-19 00:00:00,TMP,surface,-106.875,29.7637,295.782
2014-05-19 00:00:00,2014-05-19 00:00:00,TMP,surface,-105.938,29.7637,298.934
2014-05-19 00:00:00,2014-05-19 00:00:00,TMP,surface,-105,29.7637,299.852
2014-05-19 00:00:00,2014-05-19 00:00:00,TMP,surface,-104.063,29.7637,300.272
2014-05-19 00:00:00,2014-05-19 00:00:00,TMP,surface,-103.125,29.7637,299.152
2014-05-19 00:00:00,2014-05-19 00:00:00,TMP,surface,-102.188,29.7637,298.449
2014-05-19 00:00:00,2014-05-19 00:00:00,TMP,surface,-101.25,29.7637,298.112
2014-05-19 00:00:00,2014-05-19 00:00:00,TMP,surface,-100.313,29.7637,297.315
2014-05-19 00:00:00,2014-05-19 00:00:00,TMP,surface,-99.3754,29.7637,296.446
2014-05-19 00:00:00,2014-05-19 00:00:00,TMP,surface,-98.4379,29.7637,296.04
2014-05-19 00:00:00,2014-05-19 00:00:00,TMP,surface,-97.5004,29.7637,296.097
2014-05-19 00:00:00,2014-05-19 00:00:00,TMP,surface,-96.5629,29.7637,296.467
2014-05-19 00:00:00,2014-05-19 00:00:00,TMP,surface,-95.6254,29.7637,296.961
2014-05-19 00:00:00,2014-05-19 00:00:00,TMP,surface,-94.6879,29.7637,297.244
2014-05-19 00:00:00,2014-05-19 00:00:00,TMP,surface,-93.7504,29.7637,297.393
2014-05-19 00:00:00,2014-05-19 00:00:00,TMP,surface,-92.8129,29.7637,297.928
2014-05-19 00:00:00,2014-05-19 00:00:00,TMP,surface,-107.813,30.7085,296.027
2014-05-19 00:00:00,2014-05-19 00:00:00,TMP,surface,-106.875,30.7085,297.532
2014-05-19 00:00:00,2014-05-19 00:00:00,TMP,surface,-105.938,30.7085,298.044
2014-05-19 00:00:00,2014-05-19 00:00:00,TMP,surface,-105,30.7085,298.097
2014-05-19 00:00:00,2014-05-19 00:00:00,TMP,surface,-104.063,30.7085,298.352
2014-05-19 00:00:00,2014-05-19 00:00:00,TMP,surface,-103.125,30.7085,299.752
2014-05-19 00:00:00,2014-05-19 00:00:00,TMP,surface,-102.188,30.7085,299.307
2014-05-19 00:00:00,2014-05-19 00:00:00,TMP,surface,-101.25,30.7085,298.172
2014-05-19 00:00:00,2014-05-19 00:00:00,TMP,surface,-100.313,30.7085,297.052
2014-05-19 00:00:00,2014-05-19 00:00:00,TMP,surface,-99.3754,30.7085,296.137
2014-05-19 00:00:00,2014-05-19 00:00:00,TMP,surface,-98.4379,30.7085,295.892
2014-05-19 00:00:00,2014-05-19 00:00:00,TMP,surface,-97.5004,30.7085,296.035
2014-05-19 00:00:00,2014-05-19 00:00:00,TMP,surface,-96.5629,30.7085,296.716
2014-05-19 00:00:00,2014-05-19 00:00:00,TMP,surface,-95.6254,30.7085,297.696
2014-05-19 00:00:00,2014-05-19 00:00:00,TMP,surface,-94.6879,30.7085,298.003
2014-05-19 00:00:00,2014-05-19 00:00:00,TMP,surface,-93.7504,30.7085,297.961
2014-05-19 00:00:00,2014-05-19 00:00:00,TMP,surface,-92.8129,30.7085,297.744
2014-05-19 00:00:00,2014-05-19 00:00:00,TMP,surface,-107.813,31.6534,296.398
2014-05-19 00:00:00,2014-05-19 00:00:00,TMP,surface,-106.875,31.6534,296.987
2014-05-19 00:00:00,2014-05-19 00:00:00,TMP,surface,-105.938,31.6534,296.547
2014-05-19 00:00:00,2014-05-19 00:00:00,TMP,surface,-105,31.6534,296.747
2014-05-19 00:00:00,2014-05-19 00:00:00,TMP,surface,-104.063,31.6534,298.252
2014-05-19 00:00:00,2014-05-19 00:00:00,TMP,surface,-103.125,31.6534,299.684
2014-05-19 00:00:00,2014-05-19 00:00:00,TMP,surface,-102.188,31.6534,299.612
2014-05-19 00:00:00,2014-05-19 00:00:00,TMP,surface,-101.25,31.6534,298.588
2014-05-19 00:00:00,2014-05-19 00:00:00,TMP,surface,-100.313,31.6534,297.894
2014-05-19 00:00:00,2014-05-19 00:00:00,TMP,surface,-99.3754,31.6534,297.236
2014-05-19 00:00:00,2014-05-19 00:00:00,TMP,surface,-98.4379,31.6534,296.784
2014-05-19 00:00:00,2014-05-19 00:00:00,TMP,surface,-97.5004,31.6534,296.577
2014-05-19 00:00:00,2014-05-19 00:00:00,TMP,surface,-96.5629,31.6534,297.118
2014-05-19 00:00:00,2014-05-19 00:00:00,TMP,surface,-95.6254,31.6534,298.184
2014-05-19 00:00:00,2014-05-19 00:00:00,TMP,surface,-94.6879,31.6534,298.66
2014-05-19 00:00:00,2014-05-19 00:00:00,TMP,surface,-93.7504,31.6534,298.707
2014-05-19 00:00:00,2014-05-19 00:00:00,TMP,surface,-92.8129,31.6534,298.662
2014-05-19 00:00:00,2014-05-19 00:00:00,TMP,surface,-107.813,32.5983,293.24
2014-05-19 00:00:00,2014-05-19 00:00:00,TMP,surface,-106.875,32.5983,294.116
2014-05-19 00:00:00,2014-05-19 00:00:00,TMP,surface,-105.938,32.5983,294.6
2014-05-19 00:00:00,2014-05-19 00:00:00,TMP,surface,-105,32.5983,295.48
2014-05-19 00:00:00,2014-05-19 00:00:00,TMP,surface,-104.063,32.5983,297.377
2014-05-19 00:00:00,2014-05-19 00:00:00,TMP,surface,-103.125,32.5983,299.102
2014-05-19 00:00:00,2014-05-19 00:00:00,TMP,surface,-102.188,32.5983,299.516
2014-05-19 00:00:00,2014-05-19 00:00:00,TMP,surface,-101.25,32.5983,299.358
2014-05-19 00:00:00,2014-05-19 00:00:00,TMP,surface,-100.313,32.5983,299.348
2014-05-19 00:00:00,2014-05-19 00:00:00,TMP,surface,-99.3754,32.5983,298.788
2014-05-19 00:00:00,2014-05-19 00:00:00,TMP,surface,-98.4379,32.5983,297.868
2014-05-19 00:00:00,2014-05-19 00:00:00,TMP,surface,-97.5004,32.5983,297.214
2014-05-19 00:00:00,2014-05-19 00:00:00,TMP,surface,-96.5629,32.5983,297.39
2014-05-19 00:00:00,2014-05-19 00:00:00,TMP,surface,-95.6254,32.5983,298.224
2014-05-19 00:00:00,2014-05-19 00:00:00,TMP,surface,-94.6879,32.5983,298.819
2014-05-19 00:00:00,2014-05-19 00:00:00,TMP,surface,-93.7504,32.5983,298.958
2014-05-19 00:00:00,2014-05-19 00:00:00,TMP,surface,-92.8129,32.5983,299.214
2014-05-19 00:00:00,2014-05-19 00:00:00,TMP,surface,-107.813,33.5432,289.617
2014-05-19 00:00:00,2014-05-19 00:00:00,TMP,surface,-106.875,33.5432,291.672
2014-05-19 00:00:00,2014-05-19 00:00:00,TMP,surface,-105.938,33.5432,292.998
2014-05-19 00:00:00,2014-05-19 00:00:00,TMP,surface,-105,33.5432,294.496
2014-05-19 00:00:00,2014-05-19 00:00:00,TMP,surface,-104.063,33.5432,296.313
2014-05-19 00:00:00,2014-05-19 00:00:00,TMP,surface,-103.125,33.5432,297.992
2014-05-19 00:00:00,2014-05-19 00:00:00,TMP,surface,-102.188,33.5432,298.92
2014-05-19 00:00:00,2014-05-19 00:00:00,TMP,surface,-101.25,33.5432,299.201
2014-05-19 00:00:00,2014-05-19 00:00:00,TMP,surface,-100.313,33.5432,300.016
2014-05-19 00:00:00,2014-05-19 00:00:00,TMP,surface,-99.3754,33.5432,299.667
2014-05-19 00:00:00,2014-05-19 00:00:00,TMP,surface,-98.4379,33.5432,298.438
2014-05-19 00:00:00,2014-05-19 00:00:00,TMP,surface,-97.5004,33.5432,297.42
2014-05-19 00:00:00,2014-05-19 00:00:00,TMP,surface,-96.5629,33.5432,296.884
2014-05-19 00:00:00,2014-05-19 00:00:00,TMP,surface,-95.6254,33.5432,297.075
2014-05-19 00:00:00,2014-05-19 00:00:00,TMP,surface,-94.6879,33.5432,297.801
2014-05-19 00:00:00,2014-05-19 00:00:00,TMP,surface,-93.7504,33.5432,298.091
2014-05-19 00:00:00,2014-05-19 00:00:00,TMP,surface,-92.8129,33.5432,298.43
2014-05-19 00:00:00,2014-05-19 00:00:00,TMP,surface,-107.813,34.4881,288.443
2014-05-19 00:00:00,2014-05-19 00:00:00,TMP,surface,-106.875,34.4881,290.492
2014-05-19 00:00:00,2014-05-19 00:00:00,TMP,surface,-105.938,34.4881,291.792
2014-05-19 00:00:00,2014-05-19 00:00:00,TMP,surface,-105,34.4881,293.55
2014-05-19 00:00:00,2014-05-19 00:00:00,TMP,surface,-104.063,34.4881,295.065
2014-05-19 00:00:00,2014-05-19 00:00:00,TMP,surface,-103.125,34.4881,296.904
2014-05-19 00:00:00,2014-05-19 00:00:00,TMP,surface,-102.188,34.4881,298.192
2014-05-19 00:00:00,2014-05-19 00:00:00,TMP,surface,-101.25,34.4881,299.155
2014-05-19 00:00:00,2014-05-19 00:00:00,TMP,surface,-100.313,34.4881,299.662
2014-05-19 00:00:00,2014-05-19 00:00:00,TMP,surface,-99.3754,34.4881,299.531
2014-05-19 00:00:00,2014-05-19 00:00:00,TMP,surface,-98.4379,34.4881,298.545
2014-05-19 00:00:00,2014-05-19 00:00:00,TMP,surface,-97.5004,34.4881,297.34
2014-05-19 00:00:00,2014-05-19 00:00:00,TMP,surface,-96.5629,34.4881,297.067
2014-05-19 00:00:00,2014-05-19 00:00:00,TMP,surface,-95.6254,34.4881,297.28
2014-05-19 00:00:00,2014-05-19 00:00:00,TMP,surface,-94.6879,34.4881,296.931
2014-05-19 00:00:00,2014-05-19 00:00:00,TMP,surface,-93.7504,34.4881,296.841
2014-05-19 00:00:00,2014-05-19 00:00:00,TMP,surface,-92.8129,34.4881,297.465
2014-05-19 00:00:00,2014-05-19 00:00:00,TMP,surface,-107.813,35.4329,288.56
2014-05-19 00:00:00,2014-05-19 00:00:00,TMP,surface,-106.875,35.4329,288.931
2014-05-19 00:00:00,2014-05-19 00:00:00,TMP,surface,-105.938,35.4329,289.646
2014-05-19 00:00:00,2014-05-19 00:00:00,TMP,surface,-105,35.4329,291.291
2014-05-19 00:00:00,2014-05-19 00:00:00,TMP,surface,-104.063,35.4329,293.814
2014-05-19 00:00:00,2014-05-19 00:00:00,TMP,surface,-103.125,35.4329,296.06
2014-05-19 00:00:00,2014-05-19 00:00:00,TMP,surface,-102.188,35.4329,298.065
2014-05-19 00:00:00,2014-05-19 00:00:00,TMP,surface,-101.25,35.4329,299.134
2014-05-19 00:00:00,2014-05-19 00:00:00,TMP,surface,-100.313,35.4329,299.219
2014-05-19 00:00:00,2014-05-19 00:00:00,TMP,surface,-99.3754,35.4329,298.992
2014-05-19 00:00:00,2014-05-19 00:00:00,TMP,surface,-98.4379,35.4329,298.438
2014-05-19 00:00:00,2014-05-19 00:00:00,TMP,surface,-97.5004,35.4329,297.66
2014-05-19 00:00:00,2014-05-19 00:00:00,TMP,surface,-96.5629,35.4329,296.942
2014-05-19 00:00:00,2014-05-19 00:00:00,TMP,surface,-95.6254,35.4329,296.764
2014-05-19 00:00:00,2014-05-19 00:00:00,TMP,surface,-94.6879,35.4329,297.025
2014-05-19 00:00:00,2014-05-19 00:00:00,TMP,surface,-93.7504,35.4329,296.851
2014-05-19 00:00:00,2014-05-19 00:00:00,TMP,surface,-92.8129,35.4329,296.889
2014-05-19 00:00:00,2014-05-19 00:00:00,TMP,surface,-107.813,36.3778,287.742
2014-05-19 00:00:00,2014-05-19 00:00:00,TMP,surface,-106.875,36.3778,285.459
2014-05-19 00:00:00,2014-05-19 00:00:00,TMP,surface,-105.938,36.3778,286.961
2014-05-19 00:00:00,2014-05-19 00:00:00,TMP,surface,-105,36.3778,289.172
2014-05-19 00:00:00,2014-05-19 00:00:00,TMP,surface,-104.063,36.3778,292.518
2014-05-19 00:00:00,2014-05-19 00:00:00,TMP,surface,-103.125,36.3778,295.329
2014-05-19 00:00:00,2014-05-19 00:00:00,TMP,surface,-102.188,36.3778,297.39
2014-05-19 00:00:00,2014-05-19 00:00:00,TMP,surface,-101.25,36.3778,298.718
2014-05-19 00:00:00,2014-05-19 00:00:00,TMP,surface,-100.313,36.3778,299.424
2014-05-19 00:00:00,2014-05-19 00:00:00,TMP,surface,-99.3754,36.3778,299.177
2014-05-19 00:00:00,2014-05-19 00:00:00,TMP,surface,-98.4379,36.3778,298.497
2014-05-19 00:00:00,2014-05-19 00:00:00,TMP,surface,-97.5004,36.3778,297.832
2014-05-19 00:00:00,2014-05-19 00:00:00,TMP,surface,-96.5629,36.3778,297.329
2014-05-19 00:00:00,2014-05-19 00:00:00,TMP,surface,-95.6254,36.3778,297.267
2014-05-19 00:00:00,2014-05-19 00:00:00,TMP,surface,-94.6879,36.3778,297.36
2014-05-19 00:00:00,2014-05-19 00:00:00,TMP,surface,-93.7504,36.3778,296.958
2014-05-19 00:00:00,2014-05-19 00:00:00,TMP,surface,-92.8129,36.3778,296.854
2014-05-19 00:00:00,2014-05-19 00:00:00,PRATE,surface,-107.813,25.0393,0
2014-05-19 00:00:00,2014-05-19 00:00:00,PRATE,surface,-106.875,25.0393,0
2014-05-19 00:00:00,2014-05-19 00:00:00,PRATE,surface,-105.938,25.0393,1e-06
2014-05-19 00:00:00,2014-05-19 00:00:00,PRATE,surface,-105,25.0393,5.8e-06
2014-05-19 00:00:00,2014-05-19 00:00:00,PRATE,surface,-104.063,25.0393,9.6e-06
2014-05-19 00:00:00,2014-05-19 00:00:00,PRATE,surface,-103.125,25.0393,1e-07
2014-05-19 00:00:00,2014-05-19 00:00:00,PRATE,surface,-102.188,25.0393,7e-06
2014-05-19 00:00:00,2014-05-19 00:00:00,PRATE,surface,-101.25,25.0393,2.75e-05
2014-05-19 00:00:00,2014-05-19 00:00:00,PRATE,surface,-100.313,25.0393,1.78e-05
2014-05-19 00:00:00,2014-05-19 00:00:00,PRATE,surface,-99.3754,25.0393,4.2e-06
2014-05-19 00:00:00,2014-05-19 00:00:00,PRATE,surface,-98.4379,25.0393,0
2014-05-19 00:00:00,2014-05-19 00:00:00,PRATE,surface,-97.5004,25.0393,1.1e-06
2014-05-19 00:00:00,2014-05-19 00:00:00,PRATE,surface,-96.5629,25.0393,2e-07
2014-05-19 00:00:00,2014-05-19 00:00:00,PRATE,surface,-95.6254,25.0393,0
2014-05-19 00:00:00,2014-05-19 00:00:00,PRATE,surface,-94.6879,25.0393,4e-07
2014-05-19 00:00:00,2014-05-19 00:00:00,PRATE,surface,-93.7504,25.0393,1e-07
2014-05-19 00:00:00,2014-05-19 00:00:00,PRATE,surface,-92.8129,25.0393,0
2014-05-19 00:00:00,2014-05-19 00:00:00,PRATE,surface,-107.813,25.9842,0
2014-05-19 00:00:00,2014-05-19 00:00:00,PRATE,surface,-106.875,25.9842,0
2014-05-19 00:00:00,2014-05-19 00:00:00,PRATE,surface,-105.938,25.9842,1.3e-06
2014-05-19 00:00:00,2014-05-19 00:00:00,PRATE,surface,-105,25.9842,8e-06
2014-05-19 00:00:00,2014-05-19 00:00:00,PRATE,surface,-104.063,25.9842,5.3e-06
2014-05-19 00:00:00,2014-05-19 00:00:00,PRATE,surface,-103.125,25.9842,0
2014-05-19 00:00:00,2014-05-19 00:00:00,PRATE,surface,-102.188,25.9842,0
2014-05-19 00:00:00,2014-05-19 00:00:00,PRATE,surface,-101.25,25.9842,1.8e-06
2014-05-19 00:00:00,2014-05-19 00:00:00,PRATE,surface,-100.313,25.9842,3.7e-06
2014-05-19 00:00:00,2014-05-19 00:00:00,PRATE,surface,-99.3754,25.9842,0
2014-05-19 00:00:00,2014-05-19 00:00:00,PRATE,surface,-98.4379,25.9842,0
2014-05-19 00:00:00,2014-05-19 00:00:00,PRATE,surface,-97.5004,25.9842,5e-07
2014-05-19 00:00:00,2014-05-19 00:00:00,PRATE,surface,-96.5629,25.9842,3e-07
2014-05-19 00:00:00,2014-05-19 00:00:00,PRATE,surface,-95.6254,25.9842,0
2014-05-19 00:00:00,2014-05-19 00:00:00,PRATE,surface,-94.6879,25.9842,0
2014-05-19 00:00:00,2014-05-19 00:00:00,PRATE,surface,-93.7504,25.9842,0
2014-05-19 00:00:00,2014-05-19 00:00:00,PRATE,surface,-92.8129,25.9842,0
2014-05-19 00:00:00,2014-05-19 00:00:00,PRATE,surface,-107.813,26.929,2e-07
2014-05-19 00:00:00,2014-05-19 00:00:00,PRATE,surface,-106.875,26.929,1e-07
2014-05-19 00:00:00,2014-05-19 00:00:00,PRATE,surface,-105.938,26.929,1.2e-06
2014-05-19 00:00:00,2014-05-19 00:00:00,PRATE,surface,-105,26.929,5.6e-06
2014-05-19 00:00:00,2014-05-19 00:00:00,PRATE,surface,-104.063,26.929,9.6e-06
2014-05-19 00:00:00,2014-05-19 00:00:00,PRATE,surface,-103.125,26.929,9.7e-06
2014-05-19 00:00:00,2014-05-19 00:00:00,PRATE,surface,-102.188,26.929,3.5e-06
2014-05-19 00:00:00,2014-05-19 00:00:00,PRATE,surface,-101.25,26.929,1.9e-06
2014-05-19 00:00:00,2014-05-19 00:00:00,PRATE,surface,-100.313,26.929,1e-06
2014-05-19 00:00:00,2014-05-19 00:00:00,PRATE,surface,-99.3754,26.929,0
2014-05-19 00:00:00,2014-05-19 00:00:00,PRATE,surface,-98.4379,26.929,0
2014-05-19 00:00:00,2014-05-19 00:00:00,PRATE,surface,-97.5004,26.929,0
2014-05-19 00:00:00,2014-05-19 00:00:00,PRATE,surface,-96.5629,26.929,2e-07
2014-05-19 00:00:00,2014-05-19 00:00:00,PRATE,surface,-95.6254,26.929,0
2014-05-19 00:00:00,2014-05-19 00:00:00,PRATE,surface,-94.6879,26.929,0
2014-05-19 00:00:00,2014-05-19 00:00:00,PRATE,surface,-93.7504,26.929,0
2014-05-19 00:00:00,2014-05-19 00:00:00,PRATE,surface,-92.8129,26.929,0
2014-05-19 00:00:00,2014-05-19 00:00:00,PRATE,surface,-107.813,27.8739,1.8e-06
2014-05-19 00:00:00,2014-05-19 00:00:00,PRATE,surface,-106.875,27.8739,1.4e-06
2014-05-19 00:00:00,2014-05-19 00:00:00,PRATE,surface,-105.938,27.8739,1.7e-06
2014-05-19 00:00:00,2014-05-19 00:00:00,PRATE,surface,-105,27.8739,6.6e-06
2014-05-19 00:00:00,2014-05-19 00:00:00,PRATE,surface,-104.063,27.8739,1.74e-05
2014-05-19 00:00:00,2014-05-19 00:00:00,PRATE,surface,-103.125,27.8739,2.39e-05
2014-05-19 00:00:00,2014-05-19 00:00:00,PRATE,surface,-102.188,27.8739,1.45e-05
2014-05-19 00:00:00,2014-05-19 00:00:00,PRATE,surface,-101.25,27.8739,4.5e-06
2014-05-19 00:00:00,2014-05-19 00:00:00,PRATE,surface,-100.313,27.8739,1e-06
2014-05-19 00:00:00,2014-05-19 00:00:00,PRATE,surface,-99.3754,27.8739,2e-07
2014-05-19 00:00:00,2014-05-19 00:00:00,PRATE,surface,-98.4379,27.8739,4e-07
2014-05-19 00:00:00,2014-05-19 00:00:00,PRATE,surface,-97.5004,27.8739,3e-07
2014-05-19 00:00:00,2014-05-19 00:00:00,PRATE,surface,-96.5629,27.8739,0
2014-05-19 00:00:00,2014-05-19 00:00:00,PRATE,surface,-95.6254,27.8739,0
2014-05-19 00:00:00,2014-05-19 00:00:00,PRATE,surface,-94.6879,27.8739,0
2014-05-19 00:00:00,2014-05-19 00:00:00,PRATE,surface,-93.7504,27.8739,0
2014-05-19 00:00:00,2014-05-19 00:00:00,PRATE,surface,-92.8129,27.8739,0
2014-05-19 00:00:00,2014-05-19 00:00:00,PRATE,surface,-107.813,28.8188,5.1e-06
2014-05-19 00:00:00,2014-05-19 00:00:00,PRATE,surface,-106.875,28.8188,4.3e-06
2014-05-19 00:00:00,2014-05-19 00:00:00,PRATE,surface,-105.938,28.8188,3.9e-06
2014-05-19 00:00:00,2014-05-19 00:00:00,PRATE,surface,-105,28.8188,1.07e-05
2014-05-19 00:00:00,2014-05-19 00:00:00,PRATE,surface,-104.063,28.8188,2.33e-05
2014-05-19 00:00:00,2014-05-19 00:00:00,PRATE,surface,-103.125,28.8188,2.42e-05
2014-05-19 00:00:00,2014-05-19 00:00:00,PRATE,surface,-102.188,28.8188,1.05e-05
2014-05-19 00:00:00,2014-05-19 00:00:00,PRATE,surface,-101.25,28.8188,3.1e-06
2014-05-19 00:00:00,2014-05-19 00:00:00,PRATE,surface,-100.313,28.8188,1.4e-06
2014-05-19 00:00:00,2014-05-19 00:00:00,PRATE,surface,-99.3754,28.8188,6e-07
2014-05-19 00:00:00,2014-05-19 00:00:00,PRATE,surface,-98.4379,28.8188,2e-07
2014-05-19 00:00:00,2014-05-19 00:00:00,PRATE,surface,-97.5004,28.8188,1e-07
2014-05-19 00:00:00,2014-05-19 00:00:00,PRATE,surface,-96.5629,28.8188,1e-07
2014-05-19 00:00:00,2014-05-19 00:00:00,PRATE,surface,-95.6254,28.8188,0
2014-05-19 00:00:00,2014-05-19 00:00:00,PRATE,surface,-94.6879,28.8188,0
2014-05-19 00:00:00,2014-05-19 00:00:00,PRATE,surface,-93.7504,28.8188,0
2014-05-19 00:00:00,2014-05-19 00:00:00,PRATE,surface,-92.8129,28.8188,0
2014-05-19 00:00:00,2014-05-19 00:00:00,PRATE,surface,-107.813,29.7637,8.6e-06
2014-05-19 00:00:00,2014-05-19 00:00:00,PRATE,surface,-106.875,29.7637,9.8e-06
2014-05-19 00:00:00,2014-05-19 00:00:00,PRATE,surface,-105.938,29.7637,9.4e-06
2014-05-19 00:00:00,2014-05-19 00:00:00,PRATE,surface,-105,29.7637,1.62e-05
2014-05-19 00:00:00,2014-05-19 00:00:00,PRATE,surface,-104.063,29.7637,1.31e-05
2014-05-19 00:00:00,2014-05-19 00:00:00,PRATE,surface,-103.125,29.7637,1.01e-05
2014-05-19 00:00:00,2014-05-19 00:00:00,PRATE,surface,-102.188,29.7637,9.8e-06
2014-05-19 00:00:00,2014-05-19 00:00:00,PRATE,surface,-101.25,29.7637,4.7e-06
2014-05-19 00:00:00,2014-05-19 00:00:00,PRATE,surface,-100.313,29.7637,2.3e-06
2014-05-19 00:00:00,2014-05-19 00:00:00,PRATE,surface,-99.3754,29.7637,1.4e-06
2014-05-19 00:00:00,2014-05-19 00:00:00,PRATE,surface,-98.4379,29.7637,6e-07
2014-05-19 00:00:00,2014-05-19 00:00:00,PRATE,surface,-97.5004,29.7637,1.3e-06
2014-05-19 00:00:00,2014-05-19 00:00:00,PRATE,surface,-96.5629,29.7637,1.3e-06
2014-05-19 00:00:00,2014-05-19 00:00:00,PRATE,surface,-95.6254,29.7637,0
2014-05-19 00:00:00,2014-05-19 00:00:00,PRATE,surface,-94.6879,29.7637,0
2014-05-19 00:00:00,2014-05-19 00:00:00,PRATE,surface,-93.7504,29.7637,0
2014-05-19 00:00:00,2014-05-19 00:00:00,PRATE,surface,-92.8129,29.7637,0
2014-05-19 00:00:00,2014-05-19 00:00:00,PRATE,surface,-107.813,30.7085,8.4e-06
2014-05-19 00:00:00,2014-05-19 00:00:00,PRATE,surface,-106.875,30.7085,1.26e-05
2014-05-19 00:00:00,2014-05-19 00:00:00,PRATE,surface,-105.938,30.7085,2.24e-05
2014-05-19 00:00:00,2014-05-19 00:00:00,PRATE,surface,-105,30.7085,5.23e-05
2014-05-19 00:00:00,2014-05-19 00:00:00,PRATE,surface,-104.063,30.7085,4.14e-05
2014-05-19 00:00:00,2014-05-19 00:00:00,PRATE,surface,-103.125,30.7085,1.24e-05
2014-05-19 00:00:00,2014-05-19 00:00:00,PRATE,surface,-102.188,30.7085,8.3e-06
2014-05-19 00:00:00,2014-05-19 00:00:00,PRATE,surface,-101.25,30.7085,5.2e-06
2014-05-19 00:00:00,2014-05-19 00:00:00,PRATE,surface,-100.313,30.7085,2.3e-06
2014-05-19 00:00:00,2014-05-19 00:00:00,PRATE,surface,-99.3754,30.7085,1e-06
2014-05-19 00:00:00,2014-05-19 00:00:00,PRATE,surface,-98.4379,30.7085,5e-07
2014-05-19 00:00:00,2014-05-19 00:00:00,PRATE,surface,-97.5004,30.7085,5e-07
2014-05-19 00:00:00,2014-05-19 00:00:00,PRATE,surface,-96.5629,30.7085,4e-07
2014-05-19 00:00:00,2014-05-19 00:00:00,PRATE,surface,-95.6254,30.7085,2e-07
2014-05-19 00:00:00,2014-05-19 00:00:00,PRATE,surface,-94.6879,30.7085,0
2014-05-19 00:00:00,2014-05-19 00:00:00,PRATE,surface,-93.7504,30.7085,0
2014-05-19 00:00:00,2014-05-19 00:00:00,PRATE,surface,-92.8129,30.7085,0
2014-05-19 00:00:00,2014-05-19 00:00:00,PRATE,surface,-107.813,31.6534,8.7e-06
2014-05-19 00:00:00,2014-05-19 00:00:00,PRATE,surface,-106.875,31.6534,1.73e-05
2014-05-19 00:00:00,2014-05-19 00:00:00,PRATE,surface,-105.938,31.6534,3.68e-05
2014-05-19 00:00:00,2014-05-19 00:00:00,PRATE,surface,-105,31.6534,5.07e-05
2014-05-19 00:00:00,2014-05-19 00:00:00,PRATE,surface,-104.063,31.6534,4.65e-05
2014-05-19 00:00:00,2014-05-19 00:00:00,PRATE,surface,-103.125,31.6534,1.64e-05
2014-05-19 00:00:00,2014-05-19 00:00:00,PRATE,surface,-102.188,31.6534,7e-06
2014-05-19 00:00:00,2014-05-19 00:00:00,PRATE,surface,-101.25,31.6534,9.1e-06
2014-05-19 00:00:00,2014-05-19 00:00:00,PRATE,surface,-100.313,31.6534,4.3e-06
2014-05-19 00:00:00,2014-05-19 00:00:00,PRATE,surface,-99.3754,31.6534,9e-07
2014-05-19 00:00:00,2014-05-19 00:00:00,PRATE,surface,-98.4379,31.6534,3e-07
2014-05-19 00:00:00,2014-05-19 00:00:00,PRATE,surface,-97.5004,31.6534,3e-07
2014-05-19 00:00:00,2014-05-19 00:00:00,PRATE,surface,-96.5629,31.6534,5e-07
2014-05-19 00:00:00,2014-05-19 00:00:00,PRATE,surface,-95.6254,31.6534,4e-07
2014-05-19 00:00:00,2014-05-19 00:00:00,PRATE,surface,-94.6879,31.6534,0
2014-05-19 00:00:00,2014-05-19 00:00:00,PRATE,surface,-93.7504,31.6534,0
2014-05-19 00:00:00,2014-05-19 00:00:00,PRATE,surface,-92.8129,31.6534,0
2014-05-19 00:00:00,2014-05-19 00:00:00,PRATE,surface,-107.813,32.5983,1.52e-05
2014-05-19 00:00:00,2014-05-19 00:00:00,PRATE,surface,-106.875,32.5983,2.2e-05
2014-05-19 00:00:00,2014-05-19 00:00:00,PRATE,surface,-105.938,32.5983,4.22e-05
2014-05-19 00:00:00,2014-05-19 00:00:00,PRATE,surface,-105,32.5983,5.57e-05
2014-05-19 00:00:00,2014-05-19 00:00:00,PRATE,surface,-104.063,32.5983,5.25e-05
2014-05-19 00:00:00,2014-05-19 00:00:00,PRATE,surface,-103.125,32.5983,2.37e-05
2014-05-19 00:00:00,2014-05-19 00:00:00,PRATE,surface,-102.188,32.5983,8.7e-06
2014-05-19 00:00:00,2014-05-19 00:00:00,PRATE,surface,-101.25,32.5983,1.22e-05
2014-05-19 00:00:00,2014-05-19 00:00:00,PRATE,surface,-100.313,32.5983,7.3e-06
2014-05-19 00:00:00,2014-05-19 00:00:00,PRATE,surface,-99.3754,32.5983,2.3e-06
2014-05-19 00:00:00,2014-05-19 00:00:00,PRATE,surface,-98.4379,32.5983,5e-07
2014-05-19 00:00:00,2014-05-19 00:00:00,PRATE,surface,-97.5004,32.5983,0
2014-05-19 00:00:00,2014-05-19 00:00:00,PRATE,surface,-96.5629,32.5983,1e-07
2014-05-19 00:00:00,2014-05-19 00:00:00,PRATE,surface,-95.6254,32.5983,2e-07
2014-05-19 00:00:00,2014-05-19 00:00:00,PRATE,surface,-94.6879,32.5983,0
2014-05-19 00:00:00,2014-05-19 00:00:00,PRATE,surface,-93.7504,32.5983,0
2014-05-19 00:00:00,2014-05-19 00:00:00,PRATE,surface,-92.8129,32.5983,0
2014-05-19 00:00:00,2014-05-19 00:00:00,PRATE,surface,-107.813,33.5432,2.12e-05
2014-05-19 00:00:00,2014-05-19 00:00:00,PRATE,surface,-106.875,33.5432,2.54e-05
2014-05-19 00:00:00,2014-05-19 00:00:00,PRATE,surface,-105.938,33.5432,4.33e-05
2014-05-19 00:00:00,2014-05-19 00:00:00,PRATE,surface,-105,33.5432,4.89e-05
2014-05-19 00:00:00,2014-05-19 00:00:00,PRATE,surface,-104.063,33.5432,6.38e-05
2014-05-19 00:00:00,2014-05-19 00:00:00,PRATE,surface,-103.125,33.5432,3.48e-05
2014-05-19 00:00:00,2014-05-19 00:00:00,PRATE,surface,-102.188,33.5432,1.38e-05
2014-05-19 00:00:00,2014-05-19 00:00:00,PRATE,surface,-101.25,33.5432,1.93e-05
2014-05-19 00:00:00,2014-05-19 00:00:00,PRATE,surface,-100.313,33.5432,1.3e-05
2014-05-19 00:00:00,2014-05-19 00:00:00,PRATE,surface,-99.3754,33.5432,6.4e-06
2014-05-19 00:00:00,2014-05-19 00:00:00,PRATE,surface,-98.4379,33.5432,2.4e-06
2014-05-19 00:00:00,2014-05-19 00:00:00,PRATE,surface,-97.5004,33.5432,2e-07
2014-05-19 00:00:00,2014-05-19 00:00:00,PRATE,surface,-96.5629,33.5432,0
2014-05-19 00:00:00,2014-05-19 00:00:00,PRATE,surface,-95.6254,33.5432,0
2014-05-19 00:00:00,2014-05-19 00:00:00,PRATE,surface,-94.6879,33.5432,0
2014-05-19 00:00:00,2014-05-19 00:00:00,PRATE,surface,-93.7504,33.5432,0
2014-05-19 00:00:00,2014-05-19 00:00:00,PRATE,surface,-92.8129,33.5432,0
2014-05-19 00:00:00,2014-05-19 00:00:00,PRATE,surface,-107.813,34.4881,1.87e-05
2014-05-19 00:00:00,2014-05-19 00:00:00,PRATE,surface,-106.875,34.4881,1.98e-05
2014-05-19 00:00:00,2014-05-19 00:00:00,PRATE,surface,-105.938,34.4881,3.31e-05
2014-05-19 00:00:00,2014-05-19 00:00:00,PRATE,surface,-105,34.4881,4.63e-05
2014-05-19 00:00:00,2014-05-19 00:00:00,PRATE,surface,-104.063,34.4881,5.95e-05
2014-05-19 00:00:00,2014-05-19 00:00:00,PRATE,surface,-103.125,34.4881,3.98e-05
2014-05-19 00:00:00,2014-05-19 00:00:00,PRATE,surface,-102.188,34.4881,1.78e-05
2014-05-19 00:00:00,2014-05-19 00:00:00,PRATE,surface,-101.25,34.4881,1.59e-05
2014-05-19 00:00:00,2014-05-19 00:00:00,PRATE,surface,-100.313,34.4881,3.02e-05
2014-05-19 00:00:00,2014-05-19 00:00:00,PRATE,surface,-99.3754,34.4881,2.27e-05
2014-05-19 00:00:00,2014-05-19 00:00:00,PRATE,surface,-98.4379,34.4881,7.3e-06
2014-05-19 00:00:00,2014-05-19 00:00:00,PRATE,surface,-97.5004,34.4881,9e-07
2014-05-19 00:00:00,2014-05-19 00:00:00,PRATE,surface,-96.5629,34.4881,0
2014-05-19 00:00:00,2014-05-19 00:00:00,PRATE,surface,-95.6254,34.4881,0
2014-05-19 00:00:00,2014-05-19 00:00:00,PRATE,surface,-94.6879,34.4881,0
2014-05-19 00:00:00,2014-05-19 00:00:00,PRATE,surface,-93.7504,34.4881,0
2014-05-19 00:00:00,2014-05-19 00:00:00,PRATE,surface,-92.8129,34.4881,0
2014-05-19 00:00:00,2014-05-19 00:00:00,PRATE,surface,-107.813,35.4329,1.3e-05
2014-05-19 00:00:00,2014-05-19 00:00:00,PRATE,surface,-106.875,35.4329,1.61e-05
2014-05-19 00:00:00,2014-05-19 00:00:00,PRATE,surface,-105.938,35.4329,2.59e-05
2014-05-19 00:00:00,2014-05-19 00:00:00,PRATE,surface,-105,35.4329,3.01e-05
2014-05-19 00:00:00,2014-05-19 00:00:00,PRATE,surface,-104.063,35.4329,4.12e-05
2014-05-19 00:00:00,2014-05-19 00:00:00,PRATE,surface,-103.125,35.4329,3.67e-05
2014-05-19 00:00:00,2014-05-19 00:00:00,PRATE,surface,-102.188,35.4329,1.68e-05
2014-05-19 00:00:00,2014-05-19 00:00:00,PRATE,surface,-101.25,35.4329,1.48e-05
2014-05-19 00:00:00,2014-05-19 00:00:00,PRATE,surface,-100.313,35.4329,2.69e-05
2014-05-19 00:00:00,2014-05-19 00:00:00,PRATE,surface,-99.3754,35.4329,2.99e-05
2014-05-19 00:00:00,2014-05-19 00:00:00,PRATE,surface,-98.4379,35.4329,1.57e-05
2014-05-19 00:00:00,2014-05-19 00:00:00,PRATE,surface,-97.5004,35.4329,3.6e-06
2014-05-19 00:00:00,2014-05-19 00:00:00,PRATE,surface,-96.5629,35.4329,1e-06
2014-05-19 00:00:00,2014-05-19 00:00:00,PRATE,surface,-95.6254,35.4329,1e-07
2014-05-19 00:00:00,2014-05-19 00:00:00,PRATE,surface,-94.6879,35.4329,0
2014-05-19 00:00:00,2014-05-19 00:00:00,PRATE,surface,-93.7504,35.4329,1e-07
2014-05-19 00:00:00,2014-05-19 00:00:00,PRATE,surface,-92.8129,35.4329,3e-07
2014-05-19 00:00:00,2014-05-19 00:00:00,PRATE,surface,-107.813,36.3778,1.42e-05
2014-05-19 00:00:00,2014-05-19 00:00:00,PRATE,surface,-106.875,36.3778,1.78e-05
2014-05-19 00:00:00,2014-05-19 00:00:00,PRATE,surface,-105.938,36.3778,2.18e-05
2014-05-19 00:00:00,2014-05-19 00:00:00,PRATE,surface,-105,36.3778,1.76e-05
2014-05-19 00:00:00,2014-05-19 00:00:00,PRATE,surface,-104.063,36.3778,1.76e-05
2014-05-19 00:00:00,2014-05-19 00:00:00,PRATE,surface,-103.125,36.3778,1.53e-05
2014-05-19 00:00:00,2014-05-19 00:00:00,PRATE,surface,-102.188,36.3778,8.7e-06
2014-05-19 00:00:00,2014-05-19 00:00:00,PRATE,surface,-101.25,36.3778,4.7e-06
2014-05-19 00:00:00,2014-05-19 00:00:00,PRATE,surface,-100.313,36.3778,1.21e-05
2014-05-19 00:00:00,2014-05-19 00:00:00,PRATE,surface,-99.3754,36.3778,1.94e-05
2014-05-19 00:00:00,2014-05-19 00:00:00,PRATE,surface,-98.4379,36.3778,1.58e-05
2014-05-19 00:00:00,2014-05-19 00:00:00,PRATE,surface,-97.5004,36.3778,6.9e-06
2014-05-19 00:00:00,2014-05-19 00:00:00,PRATE,surface,-96.5629,36.3778,1.6e-06
2014-05-19 00:00:00,2014-05-19 00:00:00,PRATE,surface,-95.6254,36.3778,2e-07
2014-05-19 00:00:00,2014-05-19 00:00:00,PRATE,surface,-94.6879,36.3778,2e-07
2014-05-19 00:00:00,2014-05-19 00:00:00,PRATE,surface,-93.7504,36.3778,8e-07
2014-05-19 00:00:00,2014-05-19 00:00:00,PRATE,surface,-92.8129,36.3778,1.5e-06
