2017-08-13 00:00:00,2017-08-13 00:00:00,TMP,surface,-107.813,25.0393,291.113
2017-08-13 00:00:00,2017-08-13 00:00:00,TMP,surface,-106.875,25.0393,285.349
2017-08-13 00:00:00,2017-08-13 00:00:00,TMP,surface,-105.938,25.0393,280.081
2017-08-13 00:00:00,2017-08-13 00:00:00,TMP,surface,-105,25.0393,279.811
2017-08-13 00:00:00,2017-08-13 00:00:00,TMP,surface,-104.063,25.0393,284.051
2017-08-13 00:00:00,2017-08-13 00:00:00,TMP,surface,-103.125,25.0393,286.077
2017-08-13 00:00:00,2017-08-13 00:00:00,TMP,surface,-102.188,25.0393,285.609
2017-08-13 00:00:00,2017-08-13 00:00:00,TMP,surface,-101.25,25.0393,284.189
2017-08-13 00:00:00,2017-08-13 00:00:00,TMP,surface,-100.313,25.0393,284.785
2017-08-13 00:00:00,2017-08-13 00:00:00,TMP,surface,-99.3754,25.0393,287.464
2017-08-13 00:00:00,2017-08-13 00:00:00,TMP,surface,-98.4379,25.0393,290.342
2017-08-13 00:00:00,2017-08-13 00:00:00,TMP,surface,-97.5004,25.0393,294.184
2017-08-13 00:00:00,2017-08-13 00:00:00,TMP,surface,-96.5629,25.0393,294.662
2017-08-13 00:00:00,2017-08-13 00:00:00,TMP,surface,-95.6254,25.0393,295.072
2017-08-13 00:00:00,2017-08-13 00:00:00,TMP,surface,-94.6879,25.0393,295.185
2017-08-13 00:00:00,2017-08-13 00:00:00,TMP,surface,-93.7504,25.0393,295.067
2017-08-13 00:00:00,2017-08-13 00:00:00,TMP,surface,-92.8129,25.0393,295.152
2017-08-13 00:00:00,2017-08-13 00:00:00,TMP,surface,-107.813,25.9842,286.529
2017-08-13 00:00:00,2017-08-13 00:00:00,TMP,surface,-106.875,25.9842,280.5
2017-08-13 00:00:00,2017-08-13 00:00:00,TMP,surface,-105.938,25.9842,278.789
2017-08-13 00:00:00,2017-08-13 00:00:00,TMP,surface,-105,25.9842,282.187
2017-08-13 00:00:00,2017-08-13 00:00:00,TMP,surface,-104.063,25.9842,285.969
2017-08-13 00:00:00,2017-08-13 00:00:00,TMP,surface,-103.125,25.9842,287.192
2017-08-13 00:00:00,2017-08-13 00:00:00,TMP,surface,-102.188,25.9842,286.54
2017-08-13 00:00:00,2017-08-13 00:00:00,TMP,surface,-101.25,25.9842,285.414
2017-08-13 00:00:00,2017-08-13 00:00:00,TMP,surface,-100.313,25.9842,285.771
2017-08-13 00:00:00,2017-08-13 00:00:00,TMP,surface,-99.3754,25.9842,287.917
2017-08-13 00:00:00,2017-08-13 00:00:00,TMP,surface,-98.4379,25.9842,289.873
2017-08-13 00:00:00,2017-08-13 00:00:00,TMP,surface,-97.5004,25.9842,290.899
2017-08-13 00:00:00,2017-08-13 00:00:00,TMP,surface,-96.5629,25.9842,293.921
2017-08-13 00:00:00,2017-08-13 00:00:00,TMP,surface,-95.6254,25.9842,294.481
2017-08-13 00:00:00,2017-08-13 00:00:00,TMP,surface,-94.6879,25.9842,294.728
2017-08-13 00:00:00,2017-08-13 00:00:00,TMP,surface,-93.7504,25.9842,294.745
2017-08-13 00:00:00,2017-08-13 00:00:00,TMP,surface,-92.8129,25.9842,294.793
2017-08-13 00:00:00,2017-08-13 00:00:00,TMP,surface,-107.813,26.929,281.499
2017-08-13 00:00:00,2017-08-13 00:00:00,TMP,surface,-106.875,26.929,277.604
2017-08-13 00:00:00,2017-08-13 00:00:00,TMP,surface,-105.938,26.929,280.486
2017-08-13 00:00:00,2017-08-13 00:00:00,TMP,surface,-105,26.929,284.352
2017-08-13 00:00:00,2017-08-13 00:00:00,TMP,surface,-104.063,26.929,285.816
2017-08-13 00:00:00,2017-08-13 00:00:00,TMP,surface,-103.125,26.929,285.267
2017-08-13 00:00:00,2017-08-13 00:00:00,TMP,surface,-102.188,26.929,285.043
2017-08-13 00:00:00,2017-08-13 00:00:00,TMP,surface,-101.25,26.929,285.55
2017-08-13 00:00:00,2017-08-13 00:00:00,TMP,surface,-100.313,26.929,286.515
2017-08-13 00:00:00,2017-08-13 00:00:00,TMP,surface,-99.3754,26.929,287.577
2017-08-13 00:00:00,2017-08-13 00:00:00,TMP,surface,-98.4379,26.929,288.141
2017-08-13 00:00:00,2017-08-13 00:00:00,TMP,surface,-97.5004,26.929,292.406
2017-08-13 00:00:00,2017-08-13 00:00:00,TMP,surface,-96.5629,26.929,293.158
2017-08-13 00:00:00,2017-08-13 00:00:00,TMP,surface,-95.6254,26.929,293.787
2017-08-13 00:00:00,2017-08-13 00:00:00,TMP,surface,-94.6879,26.929,294.184
2017-08-13 00:00:00,2017-08-13 00:00:00,TMP,surface,-93.7504,26.929,294.185
2017-08-13 00:00:00,2017-08-13 00:00:00,TMP,surface,-92.8129,26.929,294.147
2017-08-13 00:00:00,2017-08-13 00:00:00,TMP,surface,-107.813,27.8739,278.584
2017-08-13 00:00:00,2017-08-13 00:00:00,TMP,surface,-106.875,27.8739,277.932
2017-08-13 00:00:00,2017-08-13 00:00:00,TMP,surface,-105.938,27.8739,281.726
2017-08-13 00:00:00,2017-08-13 00:00:00,TMP,surface,-105,27.8739,284.648
2017-08-13 00:00:00,2017-08-13 00:00:00,TMP,surface,-104.063,27.8739,285.021
2017-08-13 00:00:00,2017-08-13 00:00:00,TMP,surface,-103.125,27.8739,283.792
2017-08-13 00:00:00,2017-08-13 00:00:00,TMP,surface,-102.188,27.8739,283.742
2017-08-13 00:00:00,2017-08-13 00:00:00,TMP,surface,-101.25,27.8739,284.801
2017-08-13 00:00:00,2017-08-13 00:00:00,TMP,surface,-100.313,27.8739,285.797
2017-08-13 00:00:00,2017-08-13 00:00:00,TMP,surface,-99.3754,27.8739,286.08
2017-08-13 00:00:00,2017-08-13 00:00:00,TMP,surface,-98.4379,27.8739,286.267
2017-08-13 00:00:00,2017-08-13 00:00:00,TMP,surface,-97.5004,27.8739,289.705
2017-08-13 00:00:00,2017-08-13 00:00:00,TMP,surface,-96.5629,27.8739,293.187
2017-08-13 00:00:00,2017-08-13 00:00:00,TMP,surface,-95.6254,27.8739,293.357
2017-08-13 00:00:00,2017-08-13 00:00:00,TMP,surface,-94.6879,27.8739,293.156
2017-08-13 00:00:00,2017-08-13 00:00:00,TMP,surface,-93.7504,27.8739,292.985
2017-08-13 00:00:00,2017-08-13 00:00:00,TMP,surface,-92.8129,27.8739,292.958
2017-08-13 00:00:00,2017-08-13 00:00:00,TMP,surface,-107.813,28.8188,277.563
2017-08-13 00:00:00,2017-08-13 00:00:00,TMP,surface,-106.875,28.8188,278.736
2017-08-13 00:00:00,2017-08-13 00:00:00,TMP,surface,-105.938,28.8188,282.192
2017-08-13 00:00:00,2017-08-13 00:00:00,TMP,surface,-105,28.8188,284.067
2017-08-13 00:00:00,2017-08-13 00:00:00,TMP,surface,-104.063,28.8188,283.52
2017-08-13 00:00:00,2017-08-13 00:00:00,TMP,surface,-103.125,28.8188,282.573
2017-08-13 00:00:00,2017-08-13 00:00:00,TMP,surface,-102.188,28.8188,282.798
2017-08-13 00:00:00,2017-08-13 00:00:00,TMP,surface,-101.25,28.8188,283.909
2017-08-13 00:00:00,2017-08-13 00:00:00,TMP,surface,-100.313,28.8188,284.278
2017-08-13 00:00:00,2017-08-13 00:00:00,TMP,surface,-99.3754,28.8188,284.126
2017-08-13 00:00:00,2017-08-13 00:00:00,TMP,surface,-98.4379,28.8188,284.176
2017-08-13 00:00:00,2017-08-13 00:00:00,TMP,surface,-97.5004,28.8188,284.785
2017-08-13 00:00:00,2017-08-13 00:00:00,TMP,surface,-96.5629,28.8188,285.581
2017-08-13 00:00:00,2017-08-13 00:00:00,TMP,surface,-95.6254,28.8188,288.451
2017-08-13 00:00:00,2017-08-13 00:00:00,TMP,surface,-94.6879,28.8188,292.536
2017-08-13 00:00:00,2017-08-13 00:00:00,TMP,surface,-93.7504,28.8188,292.444
2017-08-13 00:00:00,2017-08-13 00:00:00,TMP,surface,-92.8129,28.8188,292.518
2017-08-13 00:00:00,2017-08-13 00:00:00,TMP,surface,-107.813,29.7637,278.627
2017-08-13 00:00:00,2017-08-13 00:00:00,TMP,surface,-106.875,29.7637,280.006
2017-08-13 00:00:00,2017-08-13 00:00:00,TMP,surface,-105.938,29.7637,282.299
2017-08-13 00:00:00,2017-08-13 00:00:00,TMP,surface,-105,29.7637,282.67
2017-08-13 00:00:00,2017-08-13 00:00:00,TMP,surface,-104.063,29.7637,282.504
2017-08-13 00:00:00,2017-08-13 00:00:00,TMP,surface,-103.125,29.7637,282.494
2017-08-13 00:00:00,2017-08-13 00:00:00,TMP,surface,-102.188,29.7637,282.75
2017-08-13 00:00:00,2017-08-13 00:00:00,TMP,surface,-101.25,29.7637,282.828
2017-08-13 00:00:00,2017-08-13 00:00:00,TMP,surface,-100.313,29.7637,282.4
2017-08-13 00:00:00,2017-08-13 00:00:00,TMP,surface,-99.3754,29.7637,282.086
2017-08-13 00:00:00,2017-08-13 00:00:00,TMP,surface,-98.4379,29.7637,282.174
2017-08-13 00:00:00,2017-08-13 00:00:00,TMP,surface,-97.5004,29.7637,282.585
2017-08-13 00:00:00,2017-08-13 00:00:00,TMP,surface,-96.5629,29.7637,283.116
2017-08-13 00:00:00,2017-08-13 00:00:00,TMP,surface,-95.6254,29.7637,283.712
2017-08-13 00:00:00,2017-08-13 00:00:00,TMP,surface,-94.6879,29.7637,286.659
2017-08-13 00:00:00,2017-08-13 00:00:00,TMP,surface,-93.7504,29.7637,290.248
2017-08-13 00:00:00,2017-08-13 00:00:00,TMP,surface,-92.8129,29.7637,284.584
2017-08-13 00:00:00,2017-08-13 00:00:00,TMP,surface,-107.813,30.7085,280.712
2017-08-13 00:00:00,2017-08-13 00:00:00,TMP,surface,-106.875,30.7085,281.716
2017-08-13 00:00:00,2017-08-13 00:00:00,TMP,surface,-105.938,30.7085,281.848
2017-08-13 00:00:00,2017-08-13 00:00:00,TMP,surface,-105,30.7085,281.334
2017-08-13 00:00:00,2017-08-13 00:00:00,TMP,surface,-104.063,30.7085,281.307
2017-08-13 00:00:00,2017-08-13 00:00:00,TMP,surface,-103.125,30.7085,281.955
2017-08-13 00:00:00,2017-08-13 00:00:00,TMP,surface,-102.188,30.7085,282.051
2017-08-13 00:00:00,2017-08-13 00:00:00,TMP,surface,-101.25,30.7085,281.579
2017-08-13 00:00:00,2017-08-13 00:00:00,TMP,surface,-100.313,30.7085,280.886
2017-08-13 00:00:00,2017-08-13 00:00:00,TMP,surface,-99.3754,30.7085,280.637
2017-08-13 00:00:00,2017-08-13 00:00:00,TMP,surface,-98.4379,30.7085,280.849
2017-08-13 00:00:00,2017-08-13 00:00:00,TMP,surface,-97.5004,30.7085,281.228
2017-08-13 00:00:00,2017-08-13 00:00:00,TMP,surface,-96.5629,30.7085,281.635
2017-08-13 00:00:00,2017-08-13 00:00:00,TMP,surface,-95.6254,30.7085,282.006
2017-08-13 00:00:00,2017-08-13 00:00:00,TMP,surface,-94.6879,30.7085,282.259
2017-08-13 00:00:00,2017-08-13 00:00:00,TMP,surface,-93.7504,30.7085,282.296
2017-08-13 00:00:00,2017-08-13 00:00:00,TMP,surface,-92.8129,30.7085,281.945
2017-08-13 00:00:00,2017-08-13 00:00:00,TMP,surface,-107.813,31.6534,280.611
2017-08-13 00:00:00,2017-08-13 00:00:00,TMP,surface,-106.875,31.6534,281.1
2017-08-13 00:00:00,2017-08-13 00:00:00,TMP,surface,-105.938,31.6534,280.248
2017-08-13 00:00:00,2017-08-13 00:00:00,TMP,surface,-105,31.6534,280.08
2017-08-13 00:00:00,2017-08-13 00:00:00,TMP,surface,-104.063,31.6534,280.294
2017-08-13 00:00:00,2017-08-13 00:00:00,TMP,surface,-103.125,31.6534,280.637
2017-08-13 00:00:00,2017-08-13 00:00:00,TMP,surface,-102.188,31.6534,280.63
2017-08-13 00:00:00,2017-08-13 00:00:00,TMP,surface,-101.25,31.6534,280.139
2017-08-13 00:00:00,2017-08-13 00:00:00,TMP,surface,-100.313,31.6534,279.697
2017-08-13 00:00:00,2017-08-13 00:00:00,TMP,surface,-99.3754,31.6534,279.621
2017-08-13 00:00:00,2017-08-13 00:00:00,TMP,surface,-98.4379,31.6534,279.888
2017-08-13 00:00:00,2017-08-13 00:00:00,TMP,surface,-97.5004,31.6534,280.349
2017-08-13 00:00:00,2017-08-13 00:00:00,TMP,surface,-96.5629,31.6534,280.803
2017-08-13 00:00:00,2017-08-13 00:00:00,TMP,surface,-95.6254,31.6534,281.035
2017-08-13 00:00:00,2017-08-13 00:00:00,TMP,surface,-94.6879,31.6534,280.998
2017-08-13 00:00:00,2017-08-13 00:00:00,TMP,surface,-93.7504,31.6534,280.913
2017-08-13 00:00:00,2017-08-13 00:00:00,TMP,surface,-92.8129,31.6534,280.947
2017-08-13 00:00:00,2017-08-13 00:00:00,TMP,surface,-107.813,32.5983,277.955
2017-08-13 00:00:00,2017-08-13 00:00:00,TMP,surface,-106.875,32.5983,278.23
2017-08-13 00:00:00,2017-08-13 00:00:00,TMP,surface,-105.938,32.5983,278.435
2017-08-13 00:00:00,2017-08-13 00:00:00,TMP,surface,-105,32.5983,278.587
2017-08-13 00:00:00,2017-08-13 00:00:00,TMP,surface,-104.063,32.5983,279.083
2017-08-13 00:00:00,2017-08-13 00:00:00,TMP,surface,-103.125,32.5983,279.078
2017-08-13 00:00:00,2017-08-13 00:00:00,TMP,surface,-102.188,32.5983,278.641
2017-08-13 00:00:00,2017-08-13 00:00:00,TMP,surface,-101.25,32.5983,278.507
2017-08-13 00:00:00,2017-08-13 00:00:00,TMP,surface,-100.313,32.5983,278.728
2017-08-13 00:00:00,2017-08-13 00:00:00,TMP,surface,-99.3754,32.5983,279.115
2017-08-13 00:00:00,2017-08-13 00:00:00,TMP,surface,-98.4379,32.5983,279.384
2017-08-13 00:00:00,2017-08-13 00:00:00,TMP,surface,-97.5004,32.5983,279.67
2017-08-13 00:00:00,2017-08-13 00:00:00,TMP,surface,-96.5629,32.5983,280.013
2017-08-13 00:00:00,2017-08-13 00:00:00,TMP,surface,-95.6254,32.5983,280.192
2017-08-13 00:00:00,2017-08-13 00:00:00,TMP,surface,-94.6879,32.5983,280.184
2017-08-13 00:00:00,2017-08-13 00:00:00,TMP,surface,-93.7504,32.5983,280.201
2017-08-13 00:00:00,2017-08-13 00:00:00,TMP,surface,-92.8129,32.5983,280.481
2017-08-13 00:00:00,2017-08-13 00:00:00,TMP,surface,-107.813,33.5432,274.638
2017-08-13 00:00:00,2017-08-13 00:00:00,TMP,surface,-106.875,33.5432,275.601
2017-08-13 00:00:00,2017-08-13 00:00:00,TMP,surface,-105.938,33.5432,276.521
2017-08-13 00:00:00,2017-08-13 00:00:00,TMP,surface,-105,33.5432,277.102
2017-08-13 00:00:00,2017-08-13 00:00:00,TMP,surface,-104.063,33.5432,277.67
2017-08-13 00:00:00,2017-08-13 00:00:00,TMP,surface,-103.125,33.5432,277.558
2017-08-13 00:00:00,2017-08-13 00:00:00,TMP,surface,-102.188,33.5432,277.065
2017-08-13 00:00:00,2017-08-13 00:00:00,TMP,surface,-101.25,33.5432,277.145
2017-08-13 00:00:00,2017-08-13 00:00:00,TMP,surface,-100.313,33.5432,277.784
2017-08-13 00:00:00,2017-08-13 00:00:00,TMP,surface,-99.3754,33.5432,278.427
2017-08-13 00:00:00,2017-08-13 00:00:00,TMP,surface,-98.4379,33.5432,278.652
2017-08-13 00:00:00,2017-08-13 00:00:00,TMP,surface,-97.5004,33.5432,278.667
2017-08-13 00:00:00,2017-08-13 00:00:00,TMP,surface,-96.5629,33.5432,278.843
2017-08-13 00:00:00,2017-08-13 00:00:00,TMP,surface,-95.6254,33.5432,279.112
2017-08-13 00:00:00,2017-08-13 00:00:00,TMP,surface,-94.6879,33.5432,279.206
2017-08-13 00:00:00,2017-08-13 00:00:00,TMP,surface,-93.7504,33.5432,279.237
2017-08-13 00:00:00,2017-08-13 00:00:00,TMP,surface,-92.8129,33.5432,279.518
2017-08-13 00:00:00,2017-08-13 00:00:00,TMP,surface,-107.813,34.4881,272.977
2017-08-13 00:00:00,2017-08-13 00:00:00,TMP,surface,-106.875,34.4881,274.189
2017-08-13 00:00:00,2017-08-13 00:00:00,TMP,surface,-105.938,34.4881,275.28
2017-08-13 00:00:00,2017-08-13 00:00:00,TMP,surface,-105,34.4881,276.086
2017-08-13 00:00:00,2017-08-13 00:00:00,TMP,surface,-104.063,34.4881,276.214
2017-08-13 00:00:00,2017-08-13 00:00:00,TMP,surface,-103.125,34.4881,275.924
2017-08-13 00:00:00,2017-08-13 00:00:00,TMP,surface,-102.188,34.4881,275.622
2017-08-13 00:00:00,2017-08-13 00:00:00,TMP,surface,-101.25,34.4881,275.749
2017-08-13 00:00:00,2017-08-13 00:00:00,TMP,surface,-100.313,34.4881,276.238
2017-08-13 00:00:00,2017-08-13 00:00:00,TMP,surface,-99.3754,34.4881,276.849
2017-08-13 00:00:00,2017-08-13 00:00:00,TMP,surface,-98.4379,34.4881,277.289
2017-08-13 00:00:00,2017-08-13 00:00:00,TMP,surface,-97.5004,34.4881,277.533
2017-08-13 00:00:00,2017-08-13 00:00:00,TMP,surface,-96.5629,34.4881,277.787
2017-08-13 00:00:00,2017-08-13 00:00:00,TMP,surface,-95.6254,34.4881,278.032
2017-08-13 00:00:00,2017-08-13 00:00:00,TMP,surface,-94.6879,34.4881,278.017
2017-08-13 00:00:00,2017-08-13 00:00:00,TMP,surface,-93.7504,34.4881,277.88
2017-08-13 00:00:00,2017-08-13 00:00:00,TMP,surface,-92.8129,34.4881,278.134
2017-08-13 00:00:00,2017-08-13 00:00:00,TMP,surface,-107.813,35.4329,272.841
2017-08-13 00:00:00,2017-08-13 00:00:00,TMP,surface,-106.875,35.4329,273.019
2017-08-13 00:00:00,2017-08-13 00:00:00,TMP,surface,-105.938,35.4329,273.525
2017-08-13 00:00:00,2017-08-13 00:00:00,TMP,surface,-105,35.4329,274.22
2017-08-13 00:00:00,2017-08-13 00:00:00,TMP,surface,-104.063,35.4329,275.377
2017-08-13 00:00:00,2017-08-13 00:00:00,TMP,surface,-103.125,35.4329,275.465
2017-08-13 00:00:00,2017-08-13 00:00:00,TMP,surface,-102.188,35.4329,274.937
2017-08-13 00:00:00,2017-08-13 00:00:00,TMP,surface,-101.25,35.4329,274.806
2017-08-13 00:00:00,2017-08-13 00:00:00,TMP,surface,-100.313,35.4329,275.085
2017-08-13 00:00:00,2017-08-13 00:00:00,TMP,surface,-99.3754,35.4329,275.459
2017-08-13 00:00:00,2017-08-13 00:00:00,TMP,surface,-98.4379,35.4329,275.865
2017-08-13 00:00:00,2017-08-13 00:00:00,TMP,surface,-97.5004,35.4329,276.397
2017-08-13 00:00:00,2017-08-13 00:00:00,TMP,surface,-96.5629,35.4329,276.889
2017-08-13 00:00:00,2017-08-13 00:00:00,TMP,surface,-95.6254,35.4329,277.073
2017-08-13 00:00:00,2017-08-13 00:00:00,TMP,surface,-94.6879,35.4329,276.899
2017-08-13 00:00:00,2017-08-13 00:00:00,TMP,surface,-93.7504,35.4329,276.585
2017-08-13 00:00:00,2017-08-13 00:00:00,TMP,surface,-92.8129,35.4329,276.664
2017-08-13 00:00:00,2017-08-13 00:00:00,TMP,surface,-107.813,36.3778,271.621
2017-08-13 00:00:00,2017-08-13 00:00:00,TMP,surface,-106.875,36.3778,269.592
2017-08-13 00:00:00,2017-08-13 00:00:00,TMP,surface,-105.938,36.3778,270.726
2017-08-13 00:00:00,2017-08-13 00:00:00,TMP,surface,-105,36.3778,272.129
2017-08-13 00:00:00,2017-08-13 00:00:00,TMP,surface,-104.063,36.3778,273.827
2017-08-13 00:00:00,2017-08-13 00:00:00,TMP,surface,-103.125,36.3778,274.288
2017-08-13 00:00:00,2017-08-13 00:00:00,TMP,surface,-102.188,36.3778,274.27
2017-08-13 00:00:00,2017-08-13 00:00:00,TMP,surface,-101.25,36.3778,274.265
2017-08-13 00:00:00,2017-08-13 00:00:00,TMP,surface,-100.313,36.3778,274.489
2017-08-13 00:00:00,2017-08-13 00:00:00,TMP,surface,-99.3754,36.3778,274.707
2017-08-13 00:00:00,2017-08-13 00:00:00,TMP,surface,-98.4379,36.3778,274.867
2017-08-13 00:00:00,2017-08-13 00:00:00,TMP,surface,-97.5004,36.3778,275.246
2017-08-13 00:00:00,2017-08-13 00:00:00,TMP,surface,-96.5629,36.3778,275.825
2017-08-13 00:00:00,2017-08-13 00:00:00,TMP,surface,-95.6254,36.3778,276.091
2017-08-13 00:00:00,2017-08-13 00:00:00,TMP,surface,-94.6879,36.3778,275.744
2017-08-13 00:00:00,2017-08-13 00:00:00,TMP,surface,-93.7504,36.3778,275.241
2017-08-13 00:00:00,2017-08-13 00:00:00,TMP,surface,-92.8129,36.3778,275.209
2017-08-13 00:00:00,2017-08-13 00:00:00,PRATE,surface,-107.813,25.0393,2.31e-05
2017-08-13 00:00:00,2017-08-13 00:00:00,PRATE,surface,-106.875,25.0393,3.29e-05
2017-08-13 00:00:00,2017-08-13 00:00:00,PRATE,surface,-105.938,25.0393,2.51e-05
2017-08-13 00:00:00,2017-08-13 00:00:00,PRATE,surface,-105,25.0393,1.1e-05
2017-08-13 00:00:00,2017-08-13 00:00:00,PRATE,surface,-104.063,25.0393,6.3e-06
2017-08-13 00:00:00,2017-08-13 00:00:00,PRATE,surface,-103.125,25.0393,5.8e-06
2017-08-13 00:00:00,2017-08-13 00:00:00,PRATE,surface,-102.188,25.0393,7.8e-06
2017-08-13 00:00:00,2017-08-13 00:00:00,PRATE,surface,-101.25,25.0393,1.12e-05
2017-08-13 00:00:00,2017-08-13 00:00:00,PRATE,surface,-100.313,25.0393,1.91e-05
2017-08-13 00:00:00,2017-08-13 00:00:00,PRATE,surface,-99.3754,25.0393,2.84e-05
2017-08-13 00:00:00,2017-08-13 00:00:00,PRATE,surface,-98.4379,25.0393,2.77e-05
2017-08-13 00:00:00,2017-08-13 00:00:00,PRATE,surface,-97.5004,25.0393,3.76e-05
2017-08-13 00:00:00,2017-08-13 00:00:00,PRATE,surface,-96.5629,25.0393,4.65e-05
2017-08-13 00:00:00,2017-08-13 00:00:00,PRATE,surface,-95.6254,25.0393,3.87e-05
2017-08-13 00:00:00,2017-08-13 00:00:00,PRATE,surface,-94.6879,25.0393,2.94e-05
2017-08-13 00:00:00,2017-08-13 00:00:00,PRATE,surface,-93.7504,25.0393,2.04e-05
2017-08-13 00:00:00,2017-08-13 00:00:00,PRATE,surface,-92.8129,25.0393,1.9e-05
2017-08-13 00:00:00,2017-08-13 00:00:00,PRATE,surface,-107.813,25.9842,3.44e-05
2017-08-13 00:00:00,2017-08-13 00:00:00,PRATE,surface,-106.875,25.9842,3.62e-05
2017-08-13 00:00:00,2017-08-13 00:00:00,PRATE,surface,-105.938,25.9842,1.68e-05
2017-08-13 00:00:00,2017-08-13 00:00:00,PRATE,surface,-105,25.9842,1.06e-05
2017-08-13 00:00:00,2017-08-13 00:00:00,PRATE,surface,-104.063,25.9842,8.4e-06
2017-08-13 00:00:00,2017-08-13 00:00:00,PRATE,surface,-103.125,25.9842,8.4e-06
2017-08-13 00:00:00,2017-08-13 00:00:00,PRATE,surface,-102.188,25.9842,1.02e-05
2017-08-13 00:00:00,2017-08-13 00:00:00,PRATE,surface,-101.25,25.9842,1.6e-05
2017-08-13 00:00:00,2017-08-13 00:00:00,PRATE,surface,-100.313,25.9842,2.11e-05
2017-08-13 00:00:00,2017-08-13 00:00:00,PRATE,surface,-99.3754,25.9842,1.9e-05
2017-08-13 00:00:00,2017-08-13 00:00:00,PRATE,surface,-98.4379,25.9842,1.87e-05
2017-08-13 00:00:00,2017-08-13 00:00:00,PRATE,surface,-97.5004,25.9842,5.56e-05
2017-08-13 00:00:00,2017-08-13 00:00:00,PRATE,surface,-96.5629,25.9842,7.25e-05
2017-08-13 00:00:00,2017-08-13 00:00:00,PRATE,surface,-95.6254,25.9842,7.46e-05
2017-08-13 00:00:00,2017-08-13 00:00:00,PRATE,surface,-94.6879,25.9842,5.74e-05
2017-08-13 00:00:00,2017-08-13 00:00:00,PRATE,surface,-93.7504,25.9842,5.08e-05
2017-08-13 00:00:00,2017-08-13 00:00:00,PRATE,surface,-92.8129,25.9842,5.81e-05
2017-08-13 00:00:00,2017-08-13 00:00:00,PRATE,surface,-107.813,26.929,4.05e-05
2017-08-13 00:00:00,2017-08-13 00:00:00,PRATE,surface,-106.875,26.929,3.34e-05
2017-08-13 00:00:00,2017-08-13 00:00:00,PRATE,surface,-105.938,26.929,1.74e-05
2017-08-13 00:00:00,2017-08-13 00:00:00,PRATE,surface,-105,26.929,9.1e-06
2017-08-13 00:00:00,2017-08-13 00:00:00,PRATE,surface,-104.063,26.929,6.2e-06
2017-08-13 00:00:00,2017-08-13 00:00:00,PRATE,surface,-103.125,26.929,1.03e-05
2017-08-13 00:00:00,2017-08-13 00:00:00,PRATE,surface,-102.188,26.929,1.82e-05
2017-08-13 00:00:00,2017-08-13 00:00:00,PRATE,surface,-101.25,26.929,2.71e-05
2017-08-13 00:00:00,2017-08-13 00:00:00,PRATE,surface,-100.313,26.929,2.56e-05
2017-08-13 00:00:00,2017-08-13 00:00:00,PRATE,surface,-99.3754,26.929,1.96e-05
2017-08-13 00:00:00,2017-08-13 00:00:00,PRATE,surface,-98.4379,26.929,2.82e-05
2017-08-13 00:00:00,2017-08-13 00:00:00,PRATE,surface,-97.5004,26.929,9.56e-05
2017-08-13 00:00:00,2017-08-13 00:00:00,PRATE,surface,-96.5629,26.929,9.68e-05
2017-08-13 00:00:00,2017-08-13 00:00:00,PRATE,surface,-95.6254,26.929,0.0001097
2017-08-13 00:00:00,2017-08-13 00:00:00,PRATE,surface,-94.6879,26.929,8.78e-05
2017-08-13 00:00:00,2017-08-13 00:00:00,PRATE,surface,-93.7504,26.929,8.11e-05
2017-08-13 00:00:00,2017-08-13 00:00:00,PRATE,surface,-92.8129,26.929,8.19e-05
2017-08-13 00:00:00,2017-08-13 00:00:00,PRATE,surface,-107.813,27.8739,3.01e-05
2017-08-13 00:00:00,2017-08-13 00:00:00,PRATE,surface,-106.875,27.8739,2.5e-05
2017-08-13 00:00:00,2017-08-13 00:00:00,PRATE,surface,-105.938,27.8739,1.63e-05
2017-08-13 00:00:00,2017-08-13 00:00:00,PRATE,surface,-105,27.8739,7.2e-06
2017-08-13 00:00:00,2017-08-13 00:00:00,PRATE,surface,-104.063,27.8739,6.8e-06
2017-08-13 00:00:00,2017-08-13 00:00:00,PRATE,surface,-103.125,27.8739,1.59e-05
2017-08-13 00:00:00,2017-08-13 00:00:00,PRATE,surface,-102.188,27.8739,3.52e-05
2017-08-13 00:00:00,2017-08-13 00:00:00,PRATE,surface,-101.25,27.8739,3.72e-05
2017-08-13 00:00:00,2017-08-13 00:00:00,PRATE,surface,-100.313,27.8739,3.39e-05
2017-08-13 00:00:00,2017-08-13 00:00:00,PRATE,surface,-99.3754,27.8739,3.36e-05
2017-08-13 00:00:00,2017-08-13 00:00:00,PRATE,surface,-98.4379,27.8739,5.13e-05
2017-08-13 00:00:00,2017-08-13 00:00:00,PRATE,surface,-97.5004,27.8739,7.16e-05
2017-08-13 00:00:00,2017-08-13 00:00:00,PRATE,surface,-96.5629,27.8739,8.47e-05
2017-08-13 00:00:00,2017-08-13 00:00:00,PRATE,surface,-95.6254,27.8739,9.02e-05
2017-08-13 00:00:00,2017-08-13 00:00:00,PRATE,surface,-94.6879,27.8739,8.24e-05
2017-08-13 00:00:00,2017-08-13 00:00:00,PRATE,surface,-93.7504,27.8739,7.36e-05
2017-08-13 00:00:00,2017-08-13 00:00:00,PRATE,surface,-92.8129,27.8739,7.32e-05
2017-08-13 00:00:00,2017-08-13 00:00:00,PRATE,surface,-107.813,28.8188,2.23e-05
2017-08-13 00:00:00,2017-08-13 00:00:00,PRATE,surface,-106.875,28.8188,1.59e-05
2017-08-13 00:00:00,2017-08-13 00:00:00,PRATE,surface,-105.938,28.8188,9.8e-06
2017-08-13 00:00:00,2017-08-13 00:00:00,PRATE,surface,-105,28.8188,7.3e-06
2017-08-13 00:00:00,2017-08-13 00:00:00,PRATE,surface,-104.063,28.8188,1.04e-05
2017-08-13 00:00:00,2017-08-13 00:00:00,PRATE,surface,-103.125,28.8188,2.28e-05
2017-08-13 00:00:00,2017-08-13 00:00:00,PRATE,surface,-102.188,28.8188,3.78e-05
2017-08-13 00:00:00,2017-08-13 00:00:00,PRATE,surface,-101.25,28.8188,4.51e-05
2017-08-13 00:00:00,2017-08-13 00:00:00,PRATE,surface,-100.313,28.8188,4.87e-05
2017-08-13 00:00:00,2017-08-13 00:00:00,PRATE,surface,-99.3754,28.8188,5.84e-05
2017-08-13 00:00:00,2017-08-13 00:00:00,PRATE,surface,-98.4379,28.8188,6.53e-05
2017-08-13 00:00:00,2017-08-13 00:00:00,PRATE,surface,-97.5004,28.8188,6.71e-05
2017-08-13 00:00:00,2017-08-13 00:00:00,PRATE,surface,-96.5629,28.8188,7.21e-05
2017-08-13 00:00:00,2017-08-13 00:00:00,PRATE,surface,-95.6254,28.8188,8.29e-05
2017-08-13 00:00:00,2017-08-13 00:00:00,PRATE,surface,-94.6879,28.8188,8.82e-05
2017-08-13 00:00:00,2017-08-13 00:00:00,PRATE,surface,-93.7504,28.8188,8.42e-05
2017-08-13 00:00:00,2017-08-13 00:00:00,PRATE,surface,-92.8129,28.8188,9.21e-05
2017-08-13 00:00:00,2017-08-13 00:00:00,PRATE,surface,-107.813,29.7637,2.13e-05
2017-08-13 00:00:00,2017-08-13 00:00:00,PRATE,surface,-106.875,29.7637,1.59e-05
2017-08-13 00:00:00,2017-08-13 00:00:00,PRATE,surface,-105.938,29.7637,1.06e-05
2017-08-13 00:00:00,2017-08-13 00:00:00,PRATE,surface,-105,29.7637,9.9e-06
2017-08-13 00:00:00,2017-08-13 00:00:00,PRATE,surface,-104.063,29.7637,1.35e-05
2017-08-13 00:00:00,2017-08-13 00:00:00,PRATE,surface,-103.125,29.7637,2.27e-05
2017-08-13 00:00:00,2017-08-13 00:00:00,PRATE,surface,-102.188,29.7637,3.47e-05
2017-08-13 00:00:00,2017-08-13 00:00:00,PRATE,surface,-101.25,29.7637,4.28e-05
2017-08-13 00:00:00,2017-08-13 00:00:00,PRATE,surface,-100.313,29.7637,5.76e-05
2017-08-13 00:00:00,2017-08-13 00:00:00,PRATE,surface,-99.3754,29.7637,7.05e-05
2017-08-13 00:00:00,2017-08-13 00:00:00,PRATE,surface,-98.4379,29.7637,7.32e-05
2017-08-13 00:00:00,2017-08-13 00:00:00,PRATE,surface,-97.5004,29.7637,7.09e-05
2017-08-13 00:00:00,2017-08-13 00:00:00,PRATE,surface,-96.5629,29.7637,7.41e-05
2017-08-13 00:00:00,2017-08-13 00:00:00,PRATE,surface,-95.6254,29.7637,8.75e-05
2017-08-13 00:00:00,2017-08-13 00:00:00,PRATE,surface,-94.6879,29.7637,0.0001028
2017-08-13 00:00:00,2017-08-13 00:00:00,PRATE,surface,-93.7504,29.7637,0.0001082
2017-08-13 00:00:00,2017-08-13 00:00:00,PRATE,surface,-92.8129,29.7637,0.0001058
2017-08-13 00:00:00,2017-08-13 00:00:00,PRATE,surface,-107.813,30.7085,2.09e-05
2017-08-13 00:00:00,2017-08-13 00:00:00,PRATE,surface,-106.875,30.7085,1.73e-05
2017-08-13 00:00:00,2017-08-13 00:00:00,PRATE,surface,-105.938,30.7085,1.53e-05
2017-08-13 00:00:00,2017-08-13 00:00:00,PRATE,surface,-105,30.7085,2e-05
2017-08-13 00:00:00,2017-08-13 00:00:00,PRATE,surface,-104.063,30.7085,1.7e-05
2017-08-13 00:00:00,2017-08-13 00:00:00,PRATE,surface,-103.125,30.7085,2.42e-05
2017-08-13 00:00:00,2017-08-13 00:00:00,PRATE,surface,-102.188,30.7085,3.12e-05
2017-08-13 00:00:00,2017-08-13 00:00:00,PRATE,surface,-101.25,30.7085,3.67e-05
2017-08-13 00:00:00,2017-08-13 00:00:00,PRATE,surface,-100.313,30.7085,4.87e-05
2017-08-13 00:00:00,2017-08-13 00:00:00,PRATE,surface,-99.3754,30.7085,6.06e-05
2017-08-13 00:00:00,2017-08-13 00:00:00,PRATE,surface,-98.4379,30.7085,6.49e-05
2017-08-13 00:00:00,2017-08-13 00:00:00,PRATE,surface,-97.5004,30.7085,6.82e-05
2017-08-13 00:00:00,2017-08-13 00:00:00,PRATE,surface,-96.5629,30.7085,7.69e-05
2017-08-13 00:00:00,2017-08-13 00:00:00,PRATE,surface,-95.6254,30.7085,9e-05
2017-08-13 00:00:00,2017-08-13 00:00:00,PRATE,surface,-94.6879,30.7085,9.99e-05
2017-08-13 00:00:00,2017-08-13 00:00:00,PRATE,surface,-93.7504,30.7085,9.94e-05
2017-08-13 00:00:00,2017-08-13 00:00:00,PRATE,surface,-92.8129,30.7085,9.89e-05
2017-08-13 00:00:00,2017-08-13 00:00:00,PRATE,surface,-107.813,31.6534,2.08e-05
2017-08-13 00:00:00,2017-08-13 00:00:00,PRATE,surface,-106.875,31.6534,1.76e-05
2017-08-13 00:00:00,2017-08-13 00:00:00,PRATE,surface,-105.938,31.6534,1.92e-05
2017-08-13 00:00:00,2017-08-13 00:00:00,PRATE,surface,-105,31.6534,2.22e-05
2017-08-13 00:00:00,2017-08-13 00:00:00,PRATE,surface,-104.063,31.6534,2.56e-05
2017-08-13 00:00:00,2017-08-13 00:00:00,PRATE,surface,-103.125,31.6534,2.89e-05
2017-08-13 00:00:00,2017-08-13 00:00:00,PRATE,surface,-102.188,31.6534,2.87e-05
2017-08-13 00:00:00,2017-08-13 00:00:00,PRATE,surface,-101.25,31.6534,3.21e-05
2017-08-13 00:00:00,2017-08-13 00:00:00,PRATE,surface,-100.313,31.6534,3.9e-05
2017-08-13 00:00:00,2017-08-13 00:00:00,PRATE,surface,-99.3754,31.6534,4.64e-05
2017-08-13 00:00:00,2017-08-13 00:00:00,PRATE,surface,-98.4379,31.6534,5.27e-05
2017-08-13 00:00:00,2017-08-13 00:00:00,PRATE,surface,-97.5004,31.6534,5.81e-05
2017-08-13 00:00:00,2017-08-13 00:00:00,PRATE,surface,-96.5629,31.6534,6.37e-05
2017-08-13 00:00:00,2017-08-13 00:00:00,PRATE,surface,-95.6254,31.6534,7.25e-05
2017-08-13 00:00:00,2017-08-13 00:00:00,PRATE,surface,-94.6879,31.6534,8.2e-05
2017-08-13 00:00:00,2017-08-13 00:00:00,PRATE,surface,-93.7504,31.6534,8.43e-05
2017-08-13 00:00:00,2017-08-13 00:00:00,PRATE,surface,-92.8129,31.6534,8.42e-05
2017-08-13 00:00:00,2017-08-13 00:00:00,PRATE,surface,-107.813,32.5983,2.91e-05
2017-08-13 00:00:00,2017-08-13 00:00:00,PRATE,surface,-106.875,32.5983,2.21e-05
2017-08-13 00:00:00,2017-08-13 00:00:00,PRATE,surface,-105.938,32.5983,2e-05
2017-08-13 00:00:00,2017-08-13 00:00:00,PRATE,surface,-105,32.5983,2.23e-05
2017-08-13 00:00:00,2017-08-13 00:00:00,PRATE,surface,-104.063,32.5983,3.15e-05
2017-08-13 00:00:00,2017-08-13 00:00:00,PRATE,surface,-103.125,32.5983,3.34e-05
2017-08-13 00:00:00,2017-08-13 00:00:00,PRATE,surface,-102.188,32.5983,3.12e-05
2017-08-13 00:00:00,2017-08-13 00:00:00,PRATE,surface,-101.25,32.5983,3.23e-05
2017-08-13 00:00:00,2017-08-13 00:00:00,PRATE,surface,-100.313,32.5983,3.36e-05
2017-08-13 00:00:00,2017-08-13 00:00:00,PRATE,surface,-99.3754,32.5983,3.97e-05
2017-08-13 00:00:00,2017-08-13 00:00:00,PRATE,surface,-98.4379,32.5983,4.89e-05
2017-08-13 00:00:00,2017-08-13 00:00:00,PRATE,surface,-97.5004,32.5983,5.11e-05
2017-08-13 00:00:00,2017-08-13 00:00:00,PRATE,surface,-96.5629,32.5983,4.57e-05
2017-08-13 00:00:00,2017-08-13 00:00:00,PRATE,surface,-95.6254,32.5983,4.5e-05
2017-08-13 00:00:00,2017-08-13 00:00:00,PRATE,surface,-94.6879,32.5983,5.5e-05
2017-08-13 00:00:00,2017-08-13 00:00:00,PRATE,surface,-93.7504,32.5983,6.51e-05
2017-08-13 00:00:00,2017-08-13 00:00:00,PRATE,surface,-92.8129,32.5983,6.84e-05
2017-08-13 00:00:00,2017-08-13 00:00:00,PRATE,surface,-107.813,33.5432,3.78e-05
2017-08-13 00:00:00,2017-08-13 00:00:00,PRATE,surface,-106.875,33.5432,2.88e-05
2017-08-13 00:00:00,2017-08-13 00:00:00,PRATE,surface,-105.938,33.5432,2.04e-05
2017-08-13 00:00:00,2017-08-13 00:00:00,PRATE,surface,-105,33.5432,2.54e-05
2017-08-13 00:00:00,2017-08-13 00:00:00,PRATE,surface,-104.063,33.5432,3.39e-05
2017-08-13 00:00:00,2017-08-13 00:00:00,PRATE,surface,-103.125,33.5432,3.02e-05
2017-08-13 00:00:00,2017-08-13 00:00:00,PRATE,surface,-102.188,33.5432,2.87e-05
2017-08-13 00:00:00,2017-08-13 00:00:00,PRATE,surface,-101.25,33.5432,2.9e-05
2017-08-13 00:00:00,2017-08-13 00:00:00,PRATE,surface,-100.313,33.5432,2.76e-05
2017-08-13 00:00:00,2017-08-13 00:00:00,PRATE,surface,-99.3754,33.5432,3.19e-05
2017-08-13 00:00:00,2017-08-13 00:00:00,PRATE,surface,-98.4379,33.5432,4.34e-05
2017-08-13 00:00:00,2017-08-13 00:00:00,PRATE,surface,-97.5004,33.5432,5.2e-05
2017-08-13 00:00:00,2017-08-13 00:00:00,PRATE,surface,-96.5629,33.5432,4.7e-05
2017-08-13 00:00:00,2017-08-13 00:00:00,PRATE,surface,-95.6254,33.5432,3.71e-05
2017-08-13 00:00:00,2017-08-13 00:00:00,PRATE,surface,-94.6879,33.5432,3.91e-05
2017-08-13 00:00:00,2017-08-13 00:00:00,PRATE,surface,-93.7504,33.5432,4.84e-05
2017-08-13 00:00:00,2017-08-13 00:00:00,PRATE,surface,-92.8129,33.5432,5.45e-05
2017-08-13 00:00:00,2017-08-13 00:00:00,PRATE,surface,-107.813,34.4881,3.05e-05
2017-08-13 00:00:00,2017-08-13 00:00:00,PRATE,surface,-106.875,34.4881,2.46e-05
2017-08-13 00:00:00,2017-08-13 00:00:00,PRATE,surface,-105.938,34.4881,2.08e-05
2017-08-13 00:00:00,2017-08-13 00:00:00,PRATE,surface,-105,34.4881,2.55e-05
2017-08-13 00:00:00,2017-08-13 00:00:00,PRATE,surface,-104.063,34.4881,2.8e-05
2017-08-13 00:00:00,2017-08-13 00:00:00,PRATE,surface,-103.125,34.4881,2.54e-05
2017-08-13 00:00:00,2017-08-13 00:00:00,PRATE,surface,-102.188,34.4881,2.78e-05
2017-08-13 00:00:00,2017-08-13 00:00:00,PRATE,surface,-101.25,34.4881,3.14e-05
2017-08-13 00:00:00,2017-08-13 00:00:00,PRATE,surface,-100.313,34.4881,3.24e-05
2017-08-13 00:00:00,2017-08-13 00:00:00,PRATE,surface,-99.3754,34.4881,3.27e-05
2017-08-13 00:00:00,2017-08-13 00:00:00,PRATE,surface,-98.4379,34.4881,3.99e-05
2017-08-13 00:00:00,2017-08-13 00:00:00,PRATE,surface,-97.5004,34.4881,5.22e-05
2017-08-13 00:00:00,2017-08-13 00:00:00,PRATE,surface,-96.5629,34.4881,5.48e-05
2017-08-13 00:00:00,2017-08-13 00:00:00,PRATE,surface,-95.6254,34.4881,4.56e-05
2017-08-13 00:00:00,2017-08-13 00:00:00,PRATE,surface,-94.6879,34.4881,4.11e-05
2017-08-13 00:00:00,2017-08-13 00:00:00,PRATE,surface,-93.7504,34.4881,4.66e-05
2017-08-13 00:00:00,2017-08-13 00:00:00,PRATE,surface,-92.8129,34.4881,4.89e-05
2017-08-13 00:00:00,2017-08-13 00:00:00,PRATE,surface,-107.813,35.4329,2.19e-05
2017-08-13 00:00:00,2017-08-13 00:00:00,PRATE,surface,-106.875,35.4329,2.14e-05
2017-08-13 00:00:00,2017-08-13 00:00:00,PRATE,surface,-105.938,35.4329,2.12e-05
2017-08-13 00:00:00,2017-08-13 00:00:00,PRATE,surface,-105,35.4329,2.68e-05
2017-08-13 00:00:00,2017-08-13 00:00:00,PRATE,surface,-104.063,35.4329,2.6e-05
2017-08-13 00:00:00,2017-08-13 00:00:00,PRATE,surface,-103.125,35.4329,2.52e-05
2017-08-13 00:00:00,2017-08-13 00:00:00,PRATE,surface,-102.188,35.4329,2.85e-05
2017-08-13 00:00:00,2017-08-13 00:00:00,PRATE,surface,-101.25,35.4329,3.07e-05
2017-08-13 00:00:00,2017-08-13 00:00:00,PRATE,surface,-100.313,35.4329,3.07e-05
2017-08-13 00:00:00,2017-08-13 00:00:00,PRATE,surface,-99.3754,35.4329,3.11e-05
2017-08-13 00:00:00,2017-08-13 00:00:00,PRATE,surface,-98.4379,35.4329,3.62e-05
2017-08-13 00:00:00,2017-08-13 00:00:00,PRATE,surface,-97.5004,35.4329,4.38e-05
2017-08-13 00:00:00,2017-08-13 00:00:00,PRATE,surface,-96.5629,35.4329,4.72e-05
2017-08-13 00:00:00,2017-08-13 00:00:00,PRATE,surface,-95.6254,35.4329,4.58e-05
2017-08-13 00:00:00,2017-08-13 00:00:00,PRATE,surface,-94.6879,35.4329,4.54e-05
2017-08-13 00:00:00,2017-08-13 00:00:00,PRATE,surface,-93.7504,35.4329,4.77e-05
2017-08-13 00:00:00,2017-08-13 00:00:00,PRATE,surface,-92.8129,35.4329,4.93e-05
2017-08-13 00:00:00,2017-08-13 00:00:00,PRATE,surface,-107.813,36.3778,2.87e-05
2017-08-13 00:00:00,2017-08-13 00:00:00,PRATE,surface,-106.875,36.3778,3.05e-05
2017-08-13 00:00:00,2017-08-13 00:00:00,PRATE,surface,-105.938,36.3778,2.9e-05
2017-08-13 00:00:00,2017-08-13 00:00:00,PRATE,surface,-105,36.3778,2.85e-05
2017-08-13 00:00:00,2017-08-13 00:00:00,PRATE,surface,-104.063,36.3778,2.11e-05
2017-08-13 00:00:00,2017-08-13 00:00:00,PRATE,surface,-103.125,36.3778,2.03e-05
2017-08-13 00:00:00,2017-08-13 00:00:00,PRATE,surface,-102.188,36.3778,2.24e-05
2017-08-13 00:00:00,2017-08-13 00:00:00,PRATE,surface,-101.25,36.3778,2.29e-05
2017-08-13 00:00:00,2017-08-13 00:00:00,PRATE,surface,-100.313,36.3778,2.5e-05
2017-08-13 00:00:00,2017-08-13 00:00:00,PRATE,surface,-99.3754,36.3778,2.62e-05
2017-08-13 00:00:00,2017-08-13 00:00:00,PRATE,surface,-98.4379,36.3778,2.76e-05
2017-08-13 00:00:00,2017-08-13 00:00:00,PRATE,surface,-97.5004,36.3778,3.09e-05
2017-08-13 00:00:00,2017-08-13 00:00:00,PRATE,surface,-96.5629,36.3778,3.53e-05
2017-08-13 00:00:00,2017-08-13 00:00:00,PRATE,surface,-95.6254,36.3778,3.88e-05
2017-08-13 00:00:00,2017-08-13 00:00:00,PRATE,surface,-94.6879,36.3778,4.17e-05
2017-08-13 00:00:00,2017-08-13 00:00:00,PRATE,surface,-93.7504,36.3778,4.49e-05
2017-08-13 00:00:00,2017-08-13 00:00:00,PRATE,surface,-92.8129,36.3778,4.6e-05
