2015-03-18 00:00:00,2015-03-18 00:00:00,TMP,surface,-107.813,25.0393,298.29
2015-03-18 00:00:00,2015-03-18 00:00:00,TMP,surface,-106.875,25.0393,292.655
2015-03-18 00:00:00,2015-03-18 00:00:00,TMP,surface,-105.938,25.0393,287.941
2015-03-18 00:00:00,2015-03-18 00:00:00,TMP,surface,-105,25.0393,286.197
2015-03-18 00:00:00,2015-03-18 00:00:00,TMP,surface,-104.063,25.0393,289.189
2015-03-18 00:00:00,2015-03-18 00:00:00,TMP,surface,-103.125,25.0393,291.466
2015-03-18 00:00:00,2015-03-18 00:00:00,TMP,surface,-102.188,25.0393,291.005
2015-03-18 00:00:00,2015-03-18 00:00:00,TMP,surface,-101.25,25.0393,289.256
2015-03-18 00:00:00,2015-03-18 00:00:00,TMP,surface,-100.313,25.0393,289.911
2015-03-18 00:00:00,2015-03-18 00:00:00,TMP,surface,-99.3754,25.0393,293.293
2015-03-18 00:00:00,2015-03-18 00:00:00,TMP,surface,-98.4379,25.0393,297.124
2015-03-18 00:00:00,2015-03-18 00:00:00,TMP,surface,-97.5004,25.0393,300.951
2015-03-18 00:00:00,2015-03-18 00:00:00,TMP,surface,-96.5629,25.0393,301.184
2015-03-18 00:00:00,2015-03-18 00:00:00,TMP,surface,-95.6254,25.0393,301.109
2015-03-18 00:00:00,2015-03-18 00:00:00,TMP,surface,-94.6879,25.0393,301.232
2015-03-18 00:00:00,2015-03-18 00:00:00,TMP,surface,-93.7504,25.0393,301.285
2015-03-18 00:00:00,2015-03-18 00:00:00,TMP,surface,-92.8129,25.0393,301.373
2015-03-18 00:00:00,2015-03-18 00:00:00,TMP,surface,-107.813,25.9842,293.844
2015-03-18 00:00:00,2015-03-18 00:00:00,TMP,surface,-106.875,25.9842,289.08
2015-03-18 00:00:00,2015-03-18 00:00:00,TMP,surface,-105.938,25.9842,286.533
2015-03-18 00:00:00,2015-03-18 00:00:00,TMP,surface,-105,25.9842,287.621
2015-03-18 00:00:00,2015-03-18 00:00:00,TMP,surface,-104.063,25.9842,291.29
2015-03-18 00:00:00,2015-03-18 00:00:00,TMP,surface,-103.125,25.9842,292.738
2015-03-18 00:00:00,2015-03-18 00:00:00,TMP,surface,-102.188,25.9842,292.439
2015-03-18 00:00:00,2015-03-18 00:00:00,TMP,surface,-101.25,25.9842,291.693
2015-03-18 00:00:00,2015-03-18 00:00:00,TMP,surface,-100.313,25.9842,292.087
2015-03-18 00:00:00,2015-03-18 00:00:00,TMP,surface,-99.3754,25.9842,295.371
2015-03-18 00:00:00,2015-03-18 00:00:00,TMP,surface,-98.4379,25.9842,297.576
2015-03-18 00:00:00,2015-03-18 00:00:00,TMP,surface,-97.5004,25.9842,298.116
2015-03-18 00:00:00,2015-03-18 00:00:00,TMP,surface,-96.5629,25.9842,300.8
2015-03-18 00:00:00,2015-03-18 00:00:00,TMP,surface,-95.6254,25.9842,300.872
2015-03-18 00:00:00,2015-03-18 00:00:00,TMP,surface,-94.6879,25.9842,301.026
2015-03-18 00:00:00,2015-03-18 00:00:00,TMP,surface,-93.7504,25.9842,301.155
2015-03-18 00:00:00,2015-03-18 00:00:00,TMP,surface,-92.8129,25.9842,301.293
2015-03-18 00:00:00,2015-03-18 00:00:00,TMP,surface,-107.813,26.929,289.965
2015-03-18 00:00:00,2015-03-18 00:00:00,TMP,surface,-106.875,26.929,286.781
2015-03-18 00:00:00,2015-03-18 00:00:00,TMP,surface,-105.938,26.929,287.575
2015-03-18 00:00:00,2015-03-18 00:00:00,TMP,surface,-105,26.929,290.056
2015-03-18 00:00:00,2015-03-18 00:00:00,TMP,surface,-104.063,26.929,291.971
2015-03-18 00:00:00,2015-03-18 00:00:00,TMP,surface,-103.125,26.929,291.467
2015-03-18 00:00:00,2015-03-18 00:00:00,TMP,surface,-102.188,26.929,291.987
2015-03-18 00:00:00,2015-03-18 00:00:00,TMP,surface,-101.25,26.929,293.061
2015-03-18 00:00:00,2015-03-18 00:00:00,TMP,surface,-100.313,26.929,294.618
2015-03-18 00:00:00,2015-03-18 00:00:00,TMP,surface,-99.3754,26.929,296.452
2015-03-18 00:00:00,2015-03-18 00:00:00,TMP,surface,-98.4379,26.929,296.8
2015-03-18 00:00:00,2015-03-18 00:00:00,TMP,surface,-97.5004,26.929,299.664
2015-03-18 00:00:00,2015-03-18 00:00:00,TMP,surface,-96.5629,26.929,300.277
2015-03-18 00:00:00,2015-03-18 00:00:00,TMP,surface,-95.6254,26.929,300.763
2015-03-18 00:00:00,2015-03-18 00:00:00,TMP,surface,-94.6879,26.929,300.97
2015-03-18 00:00:00,2015-03-18 00:00:00,TMP,surface,-93.7504,26.929,300.93
2015-03-18 00:00:00,2015-03-18 00:00:00,TMP,surface,-92.8129,26.929,300.943
2015-03-18 00:00:00,2015-03-18 00:00:00,TMP,surface,-107.813,27.8739,287.691
2015-03-18 00:00:00,2015-03-18 00:00:00,TMP,surface,-106.875,27.8739,286.348
2015-03-18 00:00:00,2015-03-18 00:00:00,TMP,surface,-105.938,27.8739,288.768
2015-03-18 00:00:00,2015-03-18 00:00:00,TMP,surface,-105,27.8739,291.607
2015-03-18 00:00:00,2015-03-18 00:00:00,TMP,surface,-104.063,27.8739,291.824
2015-03-18 00:00:00,2015-03-18 00:00:00,TMP,surface,-103.125,27.8739,291.02
2015-03-18 00:00:00,2015-03-18 00:00:00,TMP,surface,-102.188,27.8739,291.431
2015-03-18 00:00:00,2015-03-18 00:00:00,TMP,surface,-101.25,27.8739,293.45
2015-03-18 00:00:00,2015-03-18 00:00:00,TMP,surface,-100.313,27.8739,295.527
2015-03-18 00:00:00,2015-03-18 00:00:00,TMP,surface,-99.3754,27.8739,296.211
2015-03-18 00:00:00,2015-03-18 00:00:00,TMP,surface,-98.4379,27.8739,296.195
2015-03-18 00:00:00,2015-03-18 00:00:00,TMP,surface,-97.5004,27.8739,297.94
2015-03-18 00:00:00,2015-03-18 00:00:00,TMP,surface,-96.5629,27.8739,299.879
2015-03-18 00:00:00,2015-03-18 00:00:00,TMP,surface,-95.6254,27.8739,300.095
2015-03-18 00:00:00,2015-03-18 00:00:00,TMP,surface,-94.6879,27.8739,300.023
2015-03-18 00:00:00,2015-03-18 00:00:00,TMP,surface,-93.7504,27.8739,299.848
2015-03-18 00:00:00,2015-03-18 00:00:00,TMP,surface,-92.8129,27.8739,299.818
2015-03-18 00:00:00,2015-03-18 00:00:00,TMP,surface,-107.813,28.8188,286.41
2015-03-18 00:00:00,2015-03-18 00:00:00,TMP,surface,-106.875,28.8188,286.679
2015-03-18 00:00:00,2015-03-18 00:00:00,TMP,surface,-105.938,28.8188,289.763
2015-03-18 00:00:00,2015-03-18 00:00:00,TMP,surface,-105,28.8188,291.925
2015-03-18 00:00:00,2015-03-18 00:00:00,TMP,surface,-104.063,28.8188,290.754
2015-03-18 00:00:00,2015-03-18 00:00:00,TMP,surface,-103.125,28.8188,290.375
2015-03-18 00:00:00,2015-03-18 00:00:00,TMP,surface,-102.188,28.8188,291.547
2015-03-18 00:00:00,2015-03-18 00:00:00,TMP,surface,-101.25,28.8188,293.684
2015-03-18 00:00:00,2015-03-18 00:00:00,TMP,surface,-100.313,28.8188,294.967
2015-03-18 00:00:00,2015-03-18 00:00:00,TMP,surface,-99.3754,28.8188,294.884
2015-03-18 00:00:00,2015-03-18 00:00:00,TMP,surface,-98.4379,28.8188,294.736
2015-03-18 00:00:00,2015-03-18 00:00:00,TMP,surface,-97.5004,28.8188,295.208
2015-03-18 00:00:00,2015-03-18 00:00:00,TMP,surface,-96.5629,28.8188,295.828
2015-03-18 00:00:00,2015-03-18 00:00:00,TMP,surface,-95.6254,28.8188,297.239
2015-03-18 00:00:00,2015-03-18 00:00:00,TMP,surface,-94.6879,28.8188,299.117
2015-03-18 00:00:00,2015-03-18 00:00:00,TMP,surface,-93.7504,28.8188,299.103
2015-03-18 00:00:00,2015-03-18 00:00:00,TMP,surface,-92.8129,28.8188,299.17
2015-03-18 00:00:00,2015-03-18 00:00:00,TMP,surface,-107.813,29.7637,287.871
2015-03-18 00:00:00,2015-03-18 00:00:00,TMP,surface,-106.875,29.7637,288.706
2015-03-18 00:00:00,2015-03-18 00:00:00,TMP,surface,-105.938,29.7637,290.968
2015-03-18 00:00:00,2015-03-18 00:00:00,TMP,surface,-105,29.7637,291.251
2015-03-18 00:00:00,2015-03-18 00:00:00,TMP,surface,-104.063,29.7637,291.099
2015-03-18 00:00:00,2015-03-18 00:00:00,TMP,surface,-103.125,29.7637,291.466
2015-03-18 00:00:00,2015-03-18 00:00:00,TMP,surface,-102.188,29.7637,292.797
2015-03-18 00:00:00,2015-03-18 00:00:00,TMP,surface,-101.25,29.7637,293.69
2015-03-18 00:00:00,2015-03-18 00:00:00,TMP,surface,-100.313,29.7637,293.584
2015-03-18 00:00:00,2015-03-18 00:00:00,TMP,surface,-99.3754,29.7637,292.994
2015-03-18 00:00:00,2015-03-18 00:00:00,TMP,surface,-98.4379,29.7637,293.005
2015-03-18 00:00:00,2015-03-18 00:00:00,TMP,surface,-97.5004,29.7637,293.792
2015-03-18 00:00:00,2015-03-18 00:00:00,TMP,surface,-96.5629,29.7637,294.623
2015-03-18 00:00:00,2015-03-18 00:00:00,TMP,surface,-95.6254,29.7637,295.099
2015-03-18 00:00:00,2015-03-18 00:00:00,TMP,surface,-94.6879,29.7637,296.4
2015-03-18 00:00:00,2015-03-18 00:00:00,TMP,surface,-93.7504,29.7637,297.759
2015-03-18 00:00:00,2015-03-18 00:00:00,TMP,surface,-92.8129,29.7637,294.635
2015-03-18 00:00:00,2015-03-18 00:00:00,TMP,surface,-107.813,30.7085,290.595
2015-03-18 00:00:00,2015-03-18 00:00:00,TMP,surface,-106.875,30.7085,291.589
2015-03-18 00:00:00,2015-03-18 00:00:00,TMP,surface,-105.938,30.7085,291.495
2015-03-18 00:00:00,2015-03-18 00:00:00,TMP,surface,-105,30.7085,291.007
2015-03-18 00:00:00,2015-03-18 00:00:00,TMP,surface,-104.063,30.7085,290.336
2015-03-18 00:00:00,2015-03-18 00:00:00,TMP,surface,-103.125,30.7085,291.707
2015-03-18 00:00:00,2015-03-18 00:00:00,TMP,surface,-102.188,30.7085,293.035
2015-03-18 00:00:00,2015-03-18 00:00:00,TMP,surface,-101.25,30.7085,293.037
2015-03-18 00:00:00,2015-03-18 00:00:00,TMP,surface,-100.313,30.7085,292.271
2015-03-18 00:00:00,2015-03-18 00:00:00,TMP,surface,-99.3754,30.7085,291.74
2015-03-18 00:00:00,2015-03-18 00:00:00,TMP,surface,-98.4379,30.7085,292.133
2015-03-18 00:00:00,2015-03-18 00:00:00,TMP,surface,-97.5004,30.7085,293.144
2015-03-18 00:00:00,2015-03-18 00:00:00,TMP,surface,-96.5629,30.7085,293.763
2015-03-18 00:00:00,2015-03-18 00:00:00,TMP,surface,-95.6254,30.7085,293.8
2015-03-18 00:00:00,2015-03-18 00:00:00,TMP,surface,-94.6879,30.7085,293.727
2015-03-18 00:00:00,2015-03-18 00:00:00,TMP,surface,-93.7504,30.7085,293.384
2015-03-18 00:00:00,2015-03-18 00:00:00,TMP,surface,-92.8129,30.7085,292.861
2015-03-18 00:00:00,2015-03-18 00:00:00,TMP,surface,-107.813,31.6534,290.871
2015-03-18 00:00:00,2015-03-18 00:00:00,TMP,surface,-106.875,31.6534,291.6
2015-03-18 00:00:00,2015-03-18 00:00:00,TMP,surface,-105.938,31.6534,290.52
2015-03-18 00:00:00,2015-03-18 00:00:00,TMP,surface,-105,31.6534,289.885
2015-03-18 00:00:00,2015-03-18 00:00:00,TMP,surface,-104.063,31.6534,290.432
2015-03-18 00:00:00,2015-03-18 00:00:00,TMP,surface,-103.125,31.6534,291.551
2015-03-18 00:00:00,2015-03-18 00:00:00,TMP,surface,-102.188,31.6534,292.213
2015-03-18 00:00:00,2015-03-18 00:00:00,TMP,surface,-101.25,31.6534,292.099
2015-03-18 00:00:00,2015-03-18 00:00:00,TMP,surface,-100.313,31.6534,291.784
2015-03-18 00:00:00,2015-03-18 00:00:00,TMP,surface,-99.3754,31.6534,291.597
2015-03-18 00:00:00,2015-03-18 00:00:00,TMP,surface,-98.4379,31.6534,291.904
2015-03-18 00:00:00,2015-03-18 00:00:00,TMP,surface,-97.5004,31.6534,292.533
2015-03-18 00:00:00,2015-03-18 00:00:00,TMP,surface,-96.5629,31.6534,292.92
2015-03-18 00:00:00,2015-03-18 00:00:00,TMP,surface,-95.6254,31.6534,292.892
2015-03-18 00:00:00,2015-03-18 00:00:00,TMP,surface,-94.6879,31.6534,292.634
2015-03-18 00:00:00,2015-03-18 00:00:00,TMP,surface,-93.7504,31.6534,292.325
2015-03-18 00:00:00,2015-03-18 00:00:00,TMP,surface,-92.8129,31.6534,292.261
2015-03-18 00:00:00,2015-03-18 00:00:00,TMP,surface,-107.813,32.5983,287.844
2015-03-18 00:00:00,2015-03-18 00:00:00,TMP,surface,-106.875,32.5983,288.122
2015-03-18 00:00:00,2015-03-18 00:00:00,TMP,surface,-105.938,32.5983,288.18
2015-03-18 00:00:00,2015-03-18 00:00:00,TMP,surface,-105,32.5983,288.232
2015-03-18 00:00:00,2015-03-18 00:00:00,TMP,surface,-104.063,32.5983,289.612
2015-03-18 00:00:00,2015-03-18 00:00:00,TMP,surface,-103.125,32.5983,290.618
2015-03-18 00:00:00,2015-03-18 00:00:00,TMP,surface,-102.188,32.5983,290.856
2015-03-18 00:00:00,2015-03-18 00:00:00,TMP,surface,-101.25,32.5983,291.111
2015-03-18 00:00:00,2015-03-18 00:00:00,TMP,surface,-100.313,32.5983,291.629
2015-03-18 00:00:00,2015-03-18 00:00:00,TMP,surface,-99.3754,32.5983,291.85
2015-03-18 00:00:00,2015-03-18 00:00:00,TMP,surface,-98.4379,32.5983,291.797
2015-03-18 00:00:00,2015-03-18 00:00:00,TMP,surface,-97.5004,32.5983,291.781
2015-03-18 00:00:00,2015-03-18 00:00:00,TMP,surface,-96.5629,32.5983,291.856
2015-03-18 00:00:00,2015-03-18 00:00:00,TMP,surface,-95.6254,32.5983,291.796
2015-03-18 00:00:00,2015-03-18 00:00:00,TMP,surface,-94.6879,32.5983,291.519
2015-03-18 00:00:00,2015-03-18 00:00:00,TMP,surface,-93.7504,32.5983,291.442
2015-03-18 00:00:00,2015-03-18 00:00:00,TMP,surface,-92.8129,32.5983,291.856
2015-03-18 00:00:00,2015-03-18 00:00:00,TMP,surface,-107.813,33.5432,284.539
2015-03-18 00:00:00,2015-03-18 00:00:00,TMP,surface,-106.875,33.5432,285.572
2015-03-18 00:00:00,2015-03-18 00:00:00,TMP,surface,-105.938,33.5432,286.165
2015-03-18 00:00:00,2015-03-18 00:00:00,TMP,surface,-105,33.5432,287.124
2015-03-18 00:00:00,2015-03-18 00:00:00,TMP,surface,-104.063,33.5432,288.956
2015-03-18 00:00:00,2015-03-18 00:00:00,TMP,surface,-103.125,33.5432,289.567
2015-03-18 00:00:00,2015-03-18 00:00:00,TMP,surface,-102.188,33.5432,289.33
2015-03-18 00:00:00,2015-03-18 00:00:00,TMP,surface,-101.25,33.5432,289.643
2015-03-18 00:00:00,2015-03-18 00:00:00,TMP,surface,-100.313,33.5432,290.607
2015-03-18 00:00:00,2015-03-18 00:00:00,TMP,surface,-99.3754,33.5432,291.109
2015-03-18 00:00:00,2015-03-18 00:00:00,TMP,surface,-98.4379,33.5432,290.936
2015-03-18 00:00:00,2015-03-18 00:00:00,TMP,surface,-97.5004,33.5432,290.56
2015-03-18 00:00:00,2015-03-18 00:00:00,TMP,surface,-96.5629,33.5432,290.371
2015-03-18 00:00:00,2015-03-18 00:00:00,TMP,surface,-95.6254,33.5432,290.416
2015-03-18 00:00:00,2015-03-18 00:00:00,TMP,surface,-94.6879,33.5432,290.466
2015-03-18 00:00:00,2015-03-18 00:00:00,TMP,surface,-93.7504,33.5432,290.442
2015-03-18 00:00:00,2015-03-18 00:00:00,TMP,surface,-92.8129,33.5432,290.727
2015-03-18 00:00:00,2015-03-18 00:00:00,TMP,surface,-107.813,34.4881,282.872
2015-03-18 00:00:00,2015-03-18 00:00:00,TMP,surface,-106.875,34.4881,284.52
2015-03-18 00:00:00,2015-03-18 00:00:00,TMP,surface,-105.938,34.4881,285.208
2015-03-18 00:00:00,2015-03-18 00:00:00,TMP,surface,-105,34.4881,286.319
2015-03-18 00:00:00,2015-03-18 00:00:00,TMP,surface,-104.063,34.4881,287.435
2015-03-18 00:00:00,2015-03-18 00:00:00,TMP,surface,-103.125,34.4881,287.979
2015-03-18 00:00:00,2015-03-18 00:00:00,TMP,surface,-102.188,34.4881,288.312
2015-03-18 00:00:00,2015-03-18 00:00:00,TMP,surface,-101.25,34.4881,288.587
2015-03-18 00:00:00,2015-03-18 00:00:00,TMP,surface,-100.313,34.4881,289.228
2015-03-18 00:00:00,2015-03-18 00:00:00,TMP,surface,-99.3754,34.4881,289.714
2015-03-18 00:00:00,2015-03-18 00:00:00,TMP,surface,-98.4379,34.4881,289.639
2015-03-18 00:00:00,2015-03-18 00:00:00,TMP,surface,-97.5004,34.4881,289.399
2015-03-18 00:00:00,2015-03-18 00:00:00,TMP,surface,-96.5629,34.4881,289.421
2015-03-18 00:00:00,2015-03-18 00:00:00,TMP,surface,-95.6254,34.4881,289.375
2015-03-18 00:00:00,2015-03-18 00:00:00,TMP,surface,-94.6879,34.4881,289.015
2015-03-18 00:00:00,2015-03-18 00:00:00,TMP,surface,-93.7504,34.4881,288.893
2015-03-18 00:00:00,2015-03-18 00:00:00,TMP,surface,-92.8129,34.4881,289.21
2015-03-18 00:00:00,2015-03-18 00:00:00,TMP,surface,-107.813,35.4329,282.727
2015-03-18 00:00:00,2015-03-18 00:00:00,TMP,surface,-106.875,35.4329,283.132
2015-03-18 00:00:00,2015-03-18 00:00:00,TMP,surface,-105.938,35.4329,283.418
2015-03-18 00:00:00,2015-03-18 00:00:00,TMP,surface,-105,35.4329,284.424
2015-03-18 00:00:00,2015-03-18 00:00:00,TMP,surface,-104.063,35.4329,286.367
2015-03-18 00:00:00,2015-03-18 00:00:00,TMP,surface,-103.125,35.4329,287.371
2015-03-18 00:00:00,2015-03-18 00:00:00,TMP,surface,-102.188,35.4329,287.427
2015-03-18 00:00:00,2015-03-18 00:00:00,TMP,surface,-101.25,35.4329,287.699
2015-03-18 00:00:00,2015-03-18 00:00:00,TMP,surface,-100.313,35.4329,288.095
2015-03-18 00:00:00,2015-03-18 00:00:00,TMP,surface,-99.3754,35.4329,288.456
2015-03-18 00:00:00,2015-03-18 00:00:00,TMP,surface,-98.4379,35.4329,288.671
2015-03-18 00:00:00,2015-03-18 00:00:00,TMP,surface,-97.5004,35.4329,289.016
2015-03-18 00:00:00,2015-03-18 00:00:00,TMP,surface,-96.5629,35.4329,289.354
2015-03-18 00:00:00,2015-03-18 00:00:00,TMP,surface,-95.6254,35.4329,289.231
2015-03-18 00:00:00,2015-03-18 00:00:00,TMP,surface,-94.6879,35.4329,288.685
2015-03-18 00:00:00,2015-03-18 00:00:00,TMP,surface,-93.7504,35.4329,288.08
2015-03-18 00:00:00,2015-03-18 00:00:00,TMP,surface,-92.8129,35.4329,287.875
2015-03-18 00:00:00,2015-03-18 00:00:00,TMP,surface,-107.813,36.3778,282.032
2015-03-18 00:00:00,2015-03-18 00:00:00,TMP,surface,-106.875,36.3778,280.029
2015-03-18 00:00:00,2015-03-18 00:00:00,TMP,surface,-105.938,36.3778,280.576
2015-03-18 00:00:00,2015-03-18 00:00:00,TMP,surface,-105,36.3778,281.788
2015-03-18 00:00:00,2015-03-18 00:00:00,TMP,surface,-104.063,36.3778,284.093
2015-03-18 00:00:00,2015-03-18 00:00:00,TMP,surface,-103.125,36.3778,285.472
2015-03-18 00:00:00,2015-03-18 00:00:00,TMP,surface,-102.188,36.3778,286.394
2015-03-18 00:00:00,2015-03-18 00:00:00,TMP,surface,-101.25,36.3778,286.979
2015-03-18 00:00:00,2015-03-18 00:00:00,TMP,surface,-100.313,36.3778,287.61
2015-03-18 00:00:00,2015-03-18 00:00:00,TMP,surface,-99.3754,36.3778,288.098
2015-03-18 00:00:00,2015-03-18 00:00:00,TMP,surface,-98.4379,36.3778,288.307
2015-03-18 00:00:00,2015-03-18 00:00:00,TMP,surface,-97.5004,36.3778,288.669
2015-03-18 00:00:00,2015-03-18 00:00:00,TMP,surface,-96.5629,36.3778,289.074
2015-03-18 00:00:00,2015-03-18 00:00:00,TMP,surface,-95.6254,36.3778,288.863
2015-03-18 00:00:00,2015-03-18 00:00:00,TMP,surface,-94.6879,36.3778,287.987
2015-03-18 00:00:00,2015-03-18 00:00:00,TMP,surface,-93.7504,36.3778,287.111
2015-03-18 00:00:00,2015-03-18 00:00:00,TMP,surface,-92.8129,36.3778,286.9
2015-03-18 00:00:00,2015-03-18 00:00:00,PRATE,surface,-107.813,25.0393,3.63e-05
2015-03-18 00:00:00,2015-03-18 00:00:00,PRATE,surface,-106.875,25.0393,9.16e-05
2015-03-18 00:00:00,2015-03-18 00:00:00,PRATE,surface,-105.938,25.0393,0.0001205
2015-03-18 00:00:00,2015-03-18 00:00:00,PRATE,surface,-105,25.0393,9.19e-05
2015-03-18 00:00:00,2015-03-18 00:00:00,PRATE,surface,-104.063,25.0393,6.16e-05
2015-03-18 00:00:00,2015-03-18 00:00:00,PRATE,surface,-103.125,25.0393,3.4e-05
2015-03-18 00:00:00,2015-03-18 00:00:00,PRATE,surface,-102.188,25.0393,3.67e-05
2015-03-18 00:00:00,2015-03-18 00:00:00,PRATE,surface,-101.25,25.0393,5.6e-05
2015-03-18 00:00:00,2015-03-18 00:00:00,PRATE,surface,-100.313,25.0393,5.35e-05
2015-03-18 00:00:00,2015-03-18 00:00:00,PRATE,surface,-99.3754,25.0393,2.05e-05
2015-03-18 00:00:00,2015-03-18 00:00:00,PRATE,surface,-98.4379,25.0393,1.39e-05
2015-03-18 00:00:00,2015-03-18 00:00:00,PRATE,surface,-97.5004,25.0393,2.6e-05
2015-03-18 00:00:00,2015-03-18 00:00:00,PRATE,surface,-96.5629,25.0393,8.03e-05
2015-03-18 00:00:00,2015-03-18 00:00:00,PRATE,surface,-95.6254,25.0393,0.0001067
2015-03-18 00:00:00,2015-03-18 00:00:00,PRATE,surface,-94.6879,25.0393,6.15e-05
2015-03-18 00:00:00,2015-03-18 00:00:00,PRATE,surface,-93.7504,25.0393,4.71e-05
2015-03-18 00:00:00,2015-03-18 00:00:00,PRATE,surface,-92.8129,25.0393,6.63e-05
2015-03-18 00:00:00,2015-03-18 00:00:00,PRATE,surface,-107.813,25.9842,6e-05
2015-03-18 00:00:00,2015-03-18 00:00:00,PRATE,surface,-106.875,25.9842,8.34e-05
2015-03-18 00:00:00,2015-03-18 00:00:00,PRATE,surface,-105.938,25.9842,9.01e-05
2015-03-18 00:00:00,2015-03-18 00:00:00,PRATE,surface,-105,25.9842,5.75e-05
2015-03-18 00:00:00,2015-03-18 00:00:00,PRATE,surface,-104.063,25.9842,2.46e-05
2015-03-18 00:00:00,2015-03-18 00:00:00,PRATE,surface,-103.125,25.9842,1.5e-05
2015-03-18 00:00:00,2015-03-18 00:00:00,PRATE,surface,-102.188,25.9842,2.77e-05
2015-03-18 00:00:00,2015-03-18 00:00:00,PRATE,surface,-101.25,25.9842,5.36e-05
2015-03-18 00:00:00,2015-03-18 00:00:00,PRATE,surface,-100.313,25.9842,4.57e-05
2015-03-18 00:00:00,2015-03-18 00:00:00,PRATE,surface,-99.3754,25.9842,2.62e-05
2015-03-18 00:00:00,2015-03-18 00:00:00,PRATE,surface,-98.4379,25.9842,1.61e-05
2015-03-18 00:00:00,2015-03-18 00:00:00,PRATE,surface,-97.5004,25.9842,3.47e-05
2015-03-18 00:00:00,2015-03-18 00:00:00,PRATE,surface,-96.5629,25.9842,9e-05
2015-03-18 00:00:00,2015-03-18 00:00:00,PRATE,surface,-95.6254,25.9842,8.61e-05
2015-03-18 00:00:00,2015-03-18 00:00:00,PRATE,surface,-94.6879,25.9842,5.86e-05
2015-03-18 00:00:00,2015-03-18 00:00:00,PRATE,surface,-93.7504,25.9842,4.92e-05
2015-03-18 00:00:00,2015-03-18 00:00:00,PRATE,surface,-92.8129,25.9842,6.26e-05
2015-03-18 00:00:00,2015-03-18 00:00:00,PRATE,surface,-107.813,26.929,6.58e-05
2015-03-18 00:00:00,2015-03-18 00:00:00,PRATE,surface,-106.875,26.929,4.85e-05
2015-03-18 00:00:00,2015-03-18 00:00:00,PRATE,surface,-105.938,26.929,4.34e-05
2015-03-18 00:00:00,2015-03-18 00:00:00,PRATE,surface,-105,26.929,2.26e-05
2015-03-18 00:00:00,2015-03-18 00:00:00,PRATE,surface,-104.063,26.929,1.69e-05
2015-03-18 00:00:00,2015-03-18 00:00:00,PRATE,surface,-103.125,26.929,3.23e-05
2015-03-18 00:00:00,2015-03-18 00:00:00,PRATE,surface,-102.188,26.929,4.24e-05
2015-03-18 00:00:00,2015-03-18 00:00:00,PRATE,surface,-101.25,26.929,4.75e-05
2015-03-18 00:00:00,2015-03-18 00:00:00,PRATE,surface,-100.313,26.929,3.57e-05
2015-03-18 00:00:00,2015-03-18 00:00:00,PRATE,surface,-99.3754,26.929,2.05e-05
2015-03-18 00:00:00,2015-03-18 00:00:00,PRATE,surface,-98.4379,26.929,2.58e-05
2015-03-18 00:00:00,2015-03-18 00:00:00,PRATE,surface,-97.5004,26.929,4.29e-05
2015-03-18 00:00:00,2015-03-18 00:00:00,PRATE,surface,-96.5629,26.929,7.25e-05
2015-03-18 00:00:00,2015-03-18 00:00:00,PRATE,surface,-95.6254,26.929,7.04e-05
2015-03-18 00:00:00,2015-03-18 00:00:00,PRATE,surface,-94.6879,26.929,5.09e-05
2015-03-18 00:00:00,2015-03-18 00:00:00,PRATE,surface,-93.7504,26.929,4.14e-05
2015-03-18 00:00:00,2015-03-18 00:00:00,PRATE,surface,-92.8129,26.929,5.13e-05
2015-03-18 00:00:00,2015-03-18 00:00:00,PRATE,surface,-107.813,27.8739,4.6e-05
2015-03-18 00:00:00,2015-03-18 00:00:00,PRATE,surface,-106.875,27.8739,3.64e-05
2015-03-18 00:00:00,2015-03-18 00:00:00,PRATE,surface,-105.938,27.8739,1.72e-05
2015-03-18 00:00:00,2015-03-18 00:00:00,PRATE,surface,-105,27.8739,7.1e-06
2015-03-18 00:00:00,2015-03-18 00:00:00,PRATE,surface,-104.063,27.8739,1.22e-05
2015-03-18 00:00:00,2015-03-18 00:00:00,PRATE,surface,-103.125,27.8739,3.32e-05
2015-03-18 00:00:00,2015-03-18 00:00:00,PRATE,surface,-102.188,27.8739,3.28e-05
2015-03-18 00:00:00,2015-03-18 00:00:00,PRATE,surface,-101.25,27.8739,2.68e-05
2015-03-18 00:00:00,2015-03-18 00:00:00,PRATE,surface,-100.313,27.8739,1.68e-05
2015-03-18 00:00:00,2015-03-18 00:00:00,PRATE,surface,-99.3754,27.8739,1.43e-05
2015-03-18 00:00:00,2015-03-18 00:00:00,PRATE,surface,-98.4379,27.8739,2.02e-05
2015-03-18 00:00:00,2015-03-18 00:00:00,PRATE,surface,-97.5004,27.8739,2.92e-05
2015-03-18 00:00:00,2015-03-18 00:00:00,PRATE,surface,-96.5629,27.8739,3.73e-05
2015-03-18 00:00:00,2015-03-18 00:00:00,PRATE,surface,-95.6254,27.8739,4.43e-05
2015-03-18 00:00:00,2015-03-18 00:00:00,PRATE,surface,-94.6879,27.8739,4.99e-05
2015-03-18 00:00:00,2015-03-18 00:00:00,PRATE,surface,-93.7504,27.8739,4.81e-05
2015-03-18 00:00:00,2015-03-18 00:00:00,PRATE,surface,-92.8129,27.8739,3.79e-05
2015-03-18 00:00:00,2015-03-18 00:00:00,PRATE,surface,-107.813,28.8188,3.52e-05
2015-03-18 00:00:00,2015-03-18 00:00:00,PRATE,surface,-106.875,28.8188,3.51e-05
2015-03-18 00:00:00,2015-03-18 00:00:00,PRATE,surface,-105.938,28.8188,1.6e-05
2015-03-18 00:00:00,2015-03-18 00:00:00,PRATE,surface,-105,28.8188,6.7e-06
2015-03-18 00:00:00,2015-03-18 00:00:00,PRATE,surface,-104.063,28.8188,1.29e-05
2015-03-18 00:00:00,2015-03-18 00:00:00,PRATE,surface,-103.125,28.8188,2.15e-05
2015-03-18 00:00:00,2015-03-18 00:00:00,PRATE,surface,-102.188,28.8188,1.35e-05
2015-03-18 00:00:00,2015-03-18 00:00:00,PRATE,surface,-101.25,28.8188,8.9e-06
2015-03-18 00:00:00,2015-03-18 00:00:00,PRATE,surface,-100.313,28.8188,1.14e-05
2015-03-18 00:00:00,2015-03-18 00:00:00,PRATE,surface,-99.3754,28.8188,1.45e-05
2015-03-18 00:00:00,2015-03-18 00:00:00,PRATE,surface,-98.4379,28.8188,1.35e-05
2015-03-18 00:00:00,2015-03-18 00:00:00,PRATE,surface,-97.5004,28.8188,1.36e-05
2015-03-18 00:00:00,2015-03-18 00:00:00,PRATE,surface,-96.5629,28.8188,1.86e-05
2015-03-18 00:00:00,2015-03-18 00:00:00,PRATE,surface,-95.6254,28.8188,2.92e-05
2015-03-18 00:00:00,2015-03-18 00:00:00,PRATE,surface,-94.6879,28.8188,4.22e-05
2015-03-18 00:00:00,2015-03-18 00:00:00,PRATE,surface,-93.7504,28.8188,4.75e-05
2015-03-18 00:00:00,2015-03-18 00:00:00,PRATE,surface,-92.8129,28.8188,4.48e-05
2015-03-18 00:00:00,2015-03-18 00:00:00,PRATE,surface,-107.813,29.7637,1.3e-05
2015-03-18 00:00:00,2015-03-18 00:00:00,PRATE,surface,-106.875,29.7637,1.15e-05
2015-03-18 00:00:00,2015-03-18 00:00:00,PRATE,surface,-105.938,29.7637,7.8e-06
2015-03-18 00:00:00,2015-03-18 00:00:00,PRATE,surface,-105,29.7637,5e-06
2015-03-18 00:00:00,2015-03-18 00:00:00,PRATE,surface,-104.063,29.7637,4.4e-06
2015-03-18 00:00:00,2015-03-18 00:00:00,PRATE,surface,-103.125,29.7637,8e-06
2015-03-18 00:00:00,2015-03-18 00:00:00,PRATE,surface,-102.188,29.7637,6.7e-06
2015-03-18 00:00:00,2015-03-18 00:00:00,PRATE,surface,-101.25,29.7637,8.4e-06
2015-03-18 00:00:00,2015-03-18 00:00:00,PRATE,surface,-100.313,29.7637,1.41e-05
2015-03-18 00:00:00,2015-03-18 00:00:00,PRATE,surface,-99.3754,29.7637,1.61e-05
2015-03-18 00:00:00,2015-03-18 00:00:00,PRATE,surface,-98.4379,29.7637,1.57e-05
2015-03-18 00:00:00,2015-03-18 00:00:00,PRATE,surface,-97.5004,29.7637,1.08e-05
2015-03-18 00:00:00,2015-03-18 00:00:00,PRATE,surface,-96.5629,29.7637,7.6e-06
2015-03-18 00:00:00,2015-03-18 00:00:00,PRATE,surface,-95.6254,29.7637,1.26e-05
2015-03-18 00:00:00,2015-03-18 00:00:00,PRATE,surface,-94.6879,29.7637,2.19e-05
2015-03-18 00:00:00,2015-03-18 00:00:00,PRATE,surface,-93.7504,29.7637,3.25e-05
2015-03-18 00:00:00,2015-03-18 00:00:00,PRATE,surface,-92.8129,29.7637,3.69e-05
2015-03-18 00:00:00,2015-03-18 00:00:00,PRATE,surface,-107.813,30.7085,1.7e-06
2015-03-18 00:00:00,2015-03-18 00:00:00,PRATE,surface,-106.875,30.7085,5e-07
2015-03-18 00:00:00,2015-03-18 00:00:00,PRATE,surface,-105.938,30.7085,3e-07
2015-03-18 00:00:00,2015-03-18 00:00:00,PRATE,surface,-105,30.7085,2e-07
2015-03-18 00:00:00,2015-03-18 00:00:00,PRATE,surface,-104.063,30.7085,6e-07
2015-03-18 00:00:00,2015-03-18 00:00:00,PRATE,surface,-103.125,30.7085,1.7e-06
2015-03-18 00:00:00,2015-03-18 00:00:00,PRATE,surface,-102.188,30.7085,9e-07
2015-03-18 00:00:00,2015-03-18 00:00:00,PRATE,surface,-101.25,30.7085,3e-06
2015-03-18 00:00:00,2015-03-18 00:00:00,PRATE,surface,-100.313,30.7085,1e-05
2015-03-18 00:00:00,2015-03-18 00:00:00,PRATE,surface,-99.3754,30.7085,1.73e-05
2015-03-18 00:00:00,2015-03-18 00:00:00,PRATE,surface,-98.4379,30.7085,1.68e-05
2015-03-18 00:00:00,2015-03-18 00:00:00,PRATE,surface,-97.5004,30.7085,1.13e-05
2015-03-18 00:00:00,2015-03-18 00:00:00,PRATE,surface,-96.5629,30.7085,8.2e-06
2015-03-18 00:00:00,2015-03-18 00:00:00,PRATE,surface,-95.6254,30.7085,9.4e-06
2015-03-18 00:00:00,2015-03-18 00:00:00,PRATE,surface,-94.6879,30.7085,1.29e-05
2015-03-18 00:00:00,2015-03-18 00:00:00,PRATE,surface,-93.7504,30.7085,1.74e-05
2015-03-18 00:00:00,2015-03-18 00:00:00,PRATE,surface,-92.8129,30.7085,2.17e-05
2015-03-18 00:00:00,2015-03-18 00:00:00,PRATE,surface,-107.813,31.6534,1e-07
2015-03-18 00:00:00,2015-03-18 00:00:00,PRATE,surface,-106.875,31.6534,6e-07
2015-03-18 00:00:00,2015-03-18 00:00:00,PRATE,surface,-105.938,31.6534,3e-07
2015-03-18 00:00:00,2015-03-18 00:00:00,PRATE,surface,-105,31.6534,1.2e-06
2015-03-18 00:00:00,2015-03-18 00:00:00,PRATE,surface,-104.063,31.6534,9e-07
2015-03-18 00:00:00,2015-03-18 00:00:00,PRATE,surface,-103.125,31.6534,8e-07
2015-03-18 00:00:00,2015-03-18 00:00:00,PRATE,surface,-102.188,31.6534,4e-07
2015-03-18 00:00:00,2015-03-18 00:00:00,PRATE,surface,-101.25,31.6534,2.7e-06
2015-03-18 00:00:00,2015-03-18 00:00:00,PRATE,surface,-100.313,31.6534,7.8e-06
2015-03-18 00:00:00,2015-03-18 00:00:00,PRATE,surface,-99.3754,31.6534,1.55e-05
2015-03-18 00:00:00,2015-03-18 00:00:00,PRATE,surface,-98.4379,31.6534,1.62e-05
2015-03-18 00:00:00,2015-03-18 00:00:00,PRATE,surface,-97.5004,31.6534,1.02e-05
2015-03-18 00:00:00,2015-03-18 00:00:00,PRATE,surface,-96.5629,31.6534,5.4e-06
2015-03-18 00:00:00,2015-03-18 00:00:00,PRATE,surface,-95.6254,31.6534,5.6e-06
2015-03-18 00:00:00,2015-03-18 00:00:00,PRATE,surface,-94.6879,31.6534,8.5e-06
2015-03-18 00:00:00,2015-03-18 00:00:00,PRATE,surface,-93.7504,31.6534,1.01e-05
2015-03-18 00:00:00,2015-03-18 00:00:00,PRATE,surface,-92.8129,31.6534,1.18e-05
2015-03-18 00:00:00,2015-03-18 00:00:00,PRATE,surface,-107.813,32.5983,4e-07
2015-03-18 00:00:00,2015-03-18 00:00:00,PRATE,surface,-106.875,32.5983,1.2e-06
2015-03-18 00:00:00,2015-03-18 00:00:00,PRATE,surface,-105.938,32.5983,8e-07
2015-03-18 00:00:00,2015-03-18 00:00:00,PRATE,surface,-105,32.5983,1.9e-06
2015-03-18 00:00:00,2015-03-18 00:00:00,PRATE,surface,-104.063,32.5983,1.9e-06
2015-03-18 00:00:00,2015-03-18 00:00:00,PRATE,surface,-103.125,32.5983,1.6e-06
2015-03-18 00:00:00,2015-03-18 00:00:00,PRATE,surface,-102.188,32.5983,1.9e-06
2015-03-18 00:00:00,2015-03-18 00:00:00,PRATE,surface,-101.25,32.5983,4.5e-06
2015-03-18 00:00:00,2015-03-18 00:00:00,PRATE,surface,-100.313,32.5983,8.9e-06
2015-03-18 00:00:00,2015-03-18 00:00:00,PRATE,surface,-99.3754,32.5983,1.73e-05
2015-03-18 00:00:00,2015-03-18 00:00:00,PRATE,surface,-98.4379,32.5983,1.82e-05
2015-03-18 00:00:00,2015-03-18 00:00:00,PRATE,surface,-97.5004,32.5983,1.46e-05
2015-03-18 00:00:00,2015-03-18 00:00:00,PRATE,surface,-96.5629,32.5983,1.19e-05
2015-03-18 00:00:00,2015-03-18 00:00:00,PRATE,surface,-95.6254,32.5983,1.09e-05
2015-03-18 00:00:00,2015-03-18 00:00:00,PRATE,surface,-94.6879,32.5983,1.27e-05
2015-03-18 00:00:00,2015-03-18 00:00:00,PRATE,surface,-93.7504,32.5983,1.2e-05
2015-03-18 00:00:00,2015-03-18 00:00:00,PRATE,surface,-92.8129,32.5983,9.1e-06
2015-03-18 00:00:00,2015-03-18 00:00:00,PRATE,surface,-107.813,33.5432,1.1e-06
2015-03-18 00:00:00,2015-03-18 00:00:00,PRATE,surface,-106.875,33.5432,1.2e-06
2015-03-18 00:00:00,2015-03-18 00:00:00,PRATE,surface,-105.938,33.5432,2.4e-06
2015-03-18 00:00:00,2015-03-18 00:00:00,PRATE,surface,-105,33.5432,3.6e-06
2015-03-18 00:00:00,2015-03-18 00:00:00,PRATE,surface,-104.063,33.5432,2.9e-06
2015-03-18 00:00:00,2015-03-18 00:00:00,PRATE,surface,-103.125,33.5432,3e-06
2015-03-18 00:00:00,2015-03-18 00:00:00,PRATE,surface,-102.188,33.5432,4.6e-06
2015-03-18 00:00:00,2015-03-18 00:00:00,PRATE,surface,-101.25,33.5432,7.9e-06
2015-03-18 00:00:00,2015-03-18 00:00:00,PRATE,surface,-100.313,33.5432,1.38e-05
2015-03-18 00:00:00,2015-03-18 00:00:00,PRATE,surface,-99.3754,33.5432,1.81e-05
2015-03-18 00:00:00,2015-03-18 00:00:00,PRATE,surface,-98.4379,33.5432,1.79e-05
2015-03-18 00:00:00,2015-03-18 00:00:00,PRATE,surface,-97.5004,33.5432,1.64e-05
2015-03-18 00:00:00,2015-03-18 00:00:00,PRATE,surface,-96.5629,33.5432,1.55e-05
2015-03-18 00:00:00,2015-03-18 00:00:00,PRATE,surface,-95.6254,33.5432,1.5e-05
2015-03-18 00:00:00,2015-03-18 00:00:00,PRATE,surface,-94.6879,33.5432,1.5e-05
2015-03-18 00:00:00,2015-03-18 00:00:00,PRATE,surface,-93.7504,33.5432,1.47e-05
2015-03-18 00:00:00,2015-03-18 00:00:00,PRATE,surface,-92.8129,33.5432,1.35e-05
2015-03-18 00:00:00,2015-03-18 00:00:00,PRATE,surface,-107.813,34.4881,1.4e-06
2015-03-18 00:00:00,2015-03-18 00:00:00,PRATE,surface,-106.875,34.4881,1e-06
2015-03-18 00:00:00,2015-03-18 00:00:00,PRATE,surface,-105.938,34.4881,1.8e-06
2015-03-18 00:00:00,2015-03-18 00:00:00,PRATE,surface,-105,34.4881,4.3e-06
2015-03-18 00:00:00,2015-03-18 00:00:00,PRATE,surface,-104.063,34.4881,6.2e-06
2015-03-18 00:00:00,2015-03-18 00:00:00,PRATE,surface,-103.125,34.4881,6.2e-06
2015-03-18 00:00:00,2015-03-18 00:00:00,PRATE,surface,-102.188,34.4881,8.5e-06
2015-03-18 00:00:00,2015-03-18 00:00:00,PRATE,surface,-101.25,34.4881,1.15e-05
2015-03-18 00:00:00,2015-03-18 00:00:00,PRATE,surface,-100.313,34.4881,1.52e-05
2015-03-18 00:00:00,2015-03-18 00:00:00,PRATE,surface,-99.3754,34.4881,1.81e-05
2015-03-18 00:00:00,2015-03-18 00:00:00,PRATE,surface,-98.4379,34.4881,1.77e-05
2015-03-18 00:00:00,2015-03-18 00:00:00,PRATE,surface,-97.5004,34.4881,1.77e-05
2015-03-18 00:00:00,2015-03-18 00:00:00,PRATE,surface,-96.5629,34.4881,1.86e-05
2015-03-18 00:00:00,2015-03-18 00:00:00,PRATE,surface,-95.6254,34.4881,1.85e-05
2015-03-18 00:00:00,2015-03-18 00:00:00,PRATE,surface,-94.6879,34.4881,1.87e-05
2015-03-18 00:00:00,2015-03-18 00:00:00,PRATE,surface,-93.7504,34.4881,1.91e-05
2015-03-18 00:00:00,2015-03-18 00:00:00,PRATE,surface,-92.8129,34.4881,1.9e-05
2015-03-18 00:00:00,2015-03-18 00:00:00,PRATE,surface,-107.813,35.4329,2.6e-06
2015-03-18 00:00:00,2015-03-18 00:00:00,PRATE,surface,-106.875,35.4329,2.4e-06
2015-03-18 00:00:00,2015-03-18 00:00:00,PRATE,surface,-105.938,35.4329,1.8e-06
2015-03-18 00:00:00,2015-03-18 00:00:00,PRATE,surface,-105,35.4329,4.1e-06
2015-03-18 00:00:00,2015-03-18 00:00:00,PRATE,surface,-104.063,35.4329,7.7e-06
2015-03-18 00:00:00,2015-03-18 00:00:00,PRATE,surface,-103.125,35.4329,1.01e-05
2015-03-18 00:00:00,2015-03-18 00:00:00,PRATE,surface,-102.188,35.4329,1.38e-05
2015-03-18 00:00:00,2015-03-18 00:00:00,PRATE,surface,-101.25,35.4329,1.84e-05
2015-03-18 00:00:00,2015-03-18 00:00:00,PRATE,surface,-100.313,35.4329,2.22e-05
2015-03-18 00:00:00,2015-03-18 00:00:00,PRATE,surface,-99.3754,35.4329,2.28e-05
2015-03-18 00:00:00,2015-03-18 00:00:00,PRATE,surface,-98.4379,35.4329,2.06e-05
2015-03-18 00:00:00,2015-03-18 00:00:00,PRATE,surface,-97.5004,35.4329,1.97e-05
2015-03-18 00:00:00,2015-03-18 00:00:00,PRATE,surface,-96.5629,35.4329,2.02e-05
2015-03-18 00:00:00,2015-03-18 00:00:00,PRATE,surface,-95.6254,35.4329,1.97e-05
2015-03-18 00:00:00,2015-03-18 00:00:00,PRATE,surface,-94.6879,35.4329,1.99e-05
2015-03-18 00:00:00,2015-03-18 00:00:00,PRATE,surface,-93.7504,35.4329,2.32e-05
2015-03-18 00:00:00,2015-03-18 00:00:00,PRATE,surface,-92.8129,35.4329,2.73e-05
2015-03-18 00:00:00,2015-03-18 00:00:00,PRATE,surface,-107.813,36.3778,6.8e-06
2015-03-18 00:00:00,2015-03-18 00:00:00,PRATE,surface,-106.875,36.3778,6.2e-06
2015-03-18 00:00:00,2015-03-18 00:00:00,PRATE,surface,-105.938,36.3778,2.7e-06
2015-03-18 00:00:00,2015-03-18 00:00:00,PRATE,surface,-105,36.3778,3e-06
2015-03-18 00:00:00,2015-03-18 00:00:00,PRATE,surface,-104.063,36.3778,8.6e-06
2015-03-18 00:00:00,2015-03-18 00:00:00,PRATE,surface,-103.125,36.3778,1.45e-05
2015-03-18 00:00:00,2015-03-18 00:00:00,PRATE,surface,-102.188,36.3778,1.92e-05
2015-03-18 00:00:00,2015-03-18 00:00:00,PRATE,surface,-101.25,36.3778,2.52e-05
2015-03-18 00:00:00,2015-03-18 00:00:00,PRATE,surface,-100.313,36.3778,2.78e-05
2015-03-18 00:00:00,2015-03-18 00:00:00,PRATE,surface,-99.3754,36.3778,3.19e-05
2015-03-18 00:00:00,2015-03-18 00:00:00,PRATE,surface,-98.4379,36.3778,3.24e-05
2015-03-18 00:00:00,2015-03-18 00:00:00,PRATE,surface,-97.5004,36.3778,2.78e-05
2015-03-18 00:00:00,2015-03-18 00:00:00,PRATE,surface,-96.5629,36.3778,2.33e-05
2015-03-18 00:00:00,2015-03-18 00:00:00,PRATE,surface,-95.6254,36.3778,2.06e-05
2015-03-18 00:00:00,2015-03-18 00:00:00,PRATE,surface,-94.6879,36.3778,1.9e-05
2015-03-18 00:00:00,2015-03-18 00:00:00,PRATE,surface,-93.7504,36.3778,2.31e-05
2015-03-18 00:00:00,2015-03-18 00:00:00,PRATE,surface,-92.8129,36.3778,3.34e-05
