2012-09-17 00:00:00,2012-09-17 00:00:00,TMP,surface,-107.813,25.0393,299.62
2012-09-17 00:00:00,2012-09-17 00:00:00,TMP,surface,-106.875,25.0393,294.211
2012-09-17 00:00:00,2012-09-17 00:00:00,TMP,surface,-105.938,25.0393,288.867
2012-09-17 00:00:00,2012-09-17 00:00:00,TMP,surface,-105,25.0393,290.777
2012-09-17 00:00:00,2012-09-17 00:00:00,TMP,surface,-104.063,25.0393,295.859
2012-09-17 00:00:00,2012-09-17 00:00:00,TMP,surface,-103.125,25.0393,297.681
2012-09-17 00:00:00,2012-09-17 00:00:00,TMP,surface,-102.188,25.0393,296.404
2012-09-17 00:00:00,2012-09-17 00:00:00,TMP,surface,-101.25,25.0393,293.535
2012-09-17 00:00:00,2012-09-17 00:00:00,TMP,surface,-100.313,25.0393,293.073
2012-09-17 00:00:00,2012-09-17 00:00:00,TMP,surface,-99.3754,25.0393,295.643
2012-09-17 00:00:00,2012-09-17 00:00:00,TMP,surface,-98.4379,25.0393,298.782
2012-09-17 00:00:00,2012-09-17 00:00:00,TMP,surface,-97.5004,25.0393,298.825
2012-09-17 00:00:00,2012-09-17 00:00:00,TMP,surface,-96.5629,25.0393,298.387
2012-09-17 00:00:00,2012-09-17 00:00:00,TMP,surface,-95.6254,25.0393,298.249
2012-09-17 00:00:00,2012-09-17 00:00:00,TMP,surface,-94.6879,25.0393,298.321
2012-09-17 00:00:00,2012-09-17 00:00:00,TMP,surface,-93.7504,25.0393,298.385
2012-09-17 00:00:00,2012-09-17 00:00:00,TMP,surface,-92.8129,25.0393,298.492
2012-09-17 00:00:00,2012-09-17 00:00:00,TMP,surface,-107.813,25.9842,296.313
2012-09-17 00:00:00,2012-09-17 00:00:00,TMP,surface,-106.875,25.9842,290.072
2012-09-17 00:00:00,2012-09-17 00:00:00,TMP,surface,-105.938,25.9842,289.073
2012-09-17 00:00:00,2012-09-17 00:00:00,TMP,surface,-105,25.9842,293.892
2012-09-17 00:00:00,2012-09-17 00:00:00,TMP,surface,-104.063,25.9842,298.24
2012-09-17 00:00:00,2012-09-17 00:00:00,TMP,surface,-103.125,25.9842,299.454
2012-09-17 00:00:00,2012-09-17 00:00:00,TMP,surface,-102.188,25.9842,297.91
2012-09-17 00:00:00,2012-09-17 00:00:00,TMP,surface,-101.25,25.9842,295.867
2012-09-17 00:00:00,2012-09-17 00:00:00,TMP,surface,-100.313,25.9842,295.305
2012-09-17 00:00:00,2012-09-17 00:00:00,TMP,surface,-99.3754,25.9842,298.121
2012-09-17 00:00:00,2012-09-17 00:00:00,TMP,surface,-98.4379,25.9842,299.039
2012-09-17 00:00:00,2012-09-17 00:00:00,TMP,surface,-97.5004,25.9842,298.185
2012-09-17 00:00:00,2012-09-17 00:00:00,TMP,surface,-96.5629,25.9842,297.457
2012-09-17 00:00:00,2012-09-17 00:00:00,TMP,surface,-95.6254,25.9842,297.703
2012-09-17 00:00:00,2012-09-17 00:00:00,TMP,surface,-94.6879,25.9842,297.759
2012-09-17 00:00:00,2012-09-17 00:00:00,TMP,surface,-93.7504,25.9842,297.896
2012-09-17 00:00:00,2012-09-17 00:00:00,TMP,surface,-92.8129,25.9842,298.184
2012-09-17 00:00:00,2012-09-17 00:00:00,TMP,surface,-107.813,26.929,290.983
2012-09-17 00:00:00,2012-09-17 00:00:00,TMP,surface,-106.875,26.929,288.486
2012-09-17 00:00:00,2012-09-17 00:00:00,TMP,surface,-105.938,26.929,291.771
2012-09-17 00:00:00,2012-09-17 00:00:00,TMP,surface,-105,26.929,296.473
2012-09-17 00:00:00,2012-09-17 00:00:00,TMP,surface,-104.063,26.929,298.616
2012-09-17 00:00:00,2012-09-17 00:00:00,TMP,surface,-103.125,26.929,297.851
2012-09-17 00:00:00,2012-09-17 00:00:00,TMP,surface,-102.188,26.929,296.542
2012-09-17 00:00:00,2012-09-17 00:00:00,TMP,surface,-101.25,26.929,296.375
2012-09-17 00:00:00,2012-09-17 00:00:00,TMP,surface,-100.313,26.929,297.465
2012-09-17 00:00:00,2012-09-17 00:00:00,TMP,surface,-99.3754,26.929,299.316
2012-09-17 00:00:00,2012-09-17 00:00:00,TMP,surface,-98.4379,26.929,298.209
2012-09-17 00:00:00,2012-09-17 00:00:00,TMP,surface,-97.5004,26.929,296.401
2012-09-17 00:00:00,2012-09-17 00:00:00,TMP,surface,-96.5629,26.929,296.508
2012-09-17 00:00:00,2012-09-17 00:00:00,TMP,surface,-95.6254,26.929,297.134
2012-09-17 00:00:00,2012-09-17 00:00:00,TMP,surface,-94.6879,26.929,297.344
2012-09-17 00:00:00,2012-09-17 00:00:00,TMP,surface,-93.7504,26.929,297.28
2012-09-17 00:00:00,2012-09-17 00:00:00,TMP,surface,-92.8129,26.929,297.392
2012-09-17 00:00:00,2012-09-17 00:00:00,TMP,surface,-107.813,27.8739,288.502
2012-09-17 00:00:00,2012-09-17 00:00:00,TMP,surface,-106.875,27.8739,288.904
2012-09-17 00:00:00,2012-09-17 00:00:00,TMP,surface,-105.938,27.8739,293.945
2012-09-17 00:00:00,2012-09-17 00:00:00,TMP,surface,-105,27.8739,297.468
2012-09-17 00:00:00,2012-09-17 00:00:00,TMP,surface,-104.063,27.8739,297.348
2012-09-17 00:00:00,2012-09-17 00:00:00,TMP,surface,-103.125,27.8739,295.414
2012-09-17 00:00:00,2012-09-17 00:00:00,TMP,surface,-102.188,27.8739,294.558
2012-09-17 00:00:00,2012-09-17 00:00:00,TMP,surface,-101.25,27.8739,295.561
2012-09-17 00:00:00,2012-09-17 00:00:00,TMP,surface,-100.313,27.8739,297.336
2012-09-17 00:00:00,2012-09-17 00:00:00,TMP,surface,-99.3754,27.8739,297.644
2012-09-17 00:00:00,2012-09-17 00:00:00,TMP,surface,-98.4379,27.8739,296.428
2012-09-17 00:00:00,2012-09-17 00:00:00,TMP,surface,-97.5004,27.8739,296.107
2012-09-17 00:00:00,2012-09-17 00:00:00,TMP,surface,-96.5629,27.8739,296.644
2012-09-17 00:00:00,2012-09-17 00:00:00,TMP,surface,-95.6254,27.8739,296.751
2012-09-17 00:00:00,2012-09-17 00:00:00,TMP,surface,-94.6879,27.8739,296.771
2012-09-17 00:00:00,2012-09-17 00:00:00,TMP,surface,-93.7504,27.8739,296.723
2012-09-17 00:00:00,2012-09-17 00:00:00,TMP,surface,-92.8129,27.8739,296.728
2012-09-17 00:00:00,2012-09-17 00:00:00,TMP,surface,-107.813,28.8188,288.016
2012-09-17 00:00:00,2012-09-17 00:00:00,TMP,surface,-106.875,28.8188,289.761
2012-09-17 00:00:00,2012-09-17 00:00:00,TMP,surface,-105.938,28.8188,294.467
2012-09-17 00:00:00,2012-09-17 00:00:00,TMP,surface,-105,28.8188,297.334
2012-09-17 00:00:00,2012-09-17 00:00:00,TMP,surface,-104.063,28.8188,296.155
2012-09-17 00:00:00,2012-09-17 00:00:00,TMP,surface,-103.125,28.8188,294.017
2012-09-17 00:00:00,2012-09-17 00:00:00,TMP,surface,-102.188,28.8188,293.409
2012-09-17 00:00:00,2012-09-17 00:00:00,TMP,surface,-101.25,28.8188,294.68
2012-09-17 00:00:00,2012-09-17 00:00:00,TMP,surface,-100.313,28.8188,295.283
2012-09-17 00:00:00,2012-09-17 00:00:00,TMP,surface,-99.3754,28.8188,294.876
2012-09-17 00:00:00,2012-09-17 00:00:00,TMP,surface,-98.4379,28.8188,294.537
2012-09-17 00:00:00,2012-09-17 00:00:00,TMP,surface,-97.5004,28.8188,294.654
2012-09-17 00:00:00,2012-09-17 00:00:00,TMP,surface,-96.5629,28.8188,295.056
2012-09-17 00:00:00,2012-09-17 00:00:00,TMP,surface,-95.6254,28.8188,295.375
2012-09-17 00:00:00,2012-09-17 00:00:00,TMP,surface,-94.6879,28.8188,295.526
2012-09-17 00:00:00,2012-09-17 00:00:00,TMP,surface,-93.7504,28.8188,295.892
2012-09-17 00:00:00,2012-09-17 00:00:00,TMP,surface,-92.8129,28.8188,296.041
2012-09-17 00:00:00,2012-09-17 00:00:00,TMP,surface,-107.813,29.7637,290.199
2012-09-17 00:00:00,2012-09-17 00:00:00,TMP,surface,-106.875,29.7637,292.076
2012-09-17 00:00:00,2012-09-17 00:00:00,TMP,surface,-105.938,29.7637,295.102
2012-09-17 00:00:00,2012-09-17 00:00:00,TMP,surface,-105,29.7637,296.201
2012-09-17 00:00:00,2012-09-17 00:00:00,TMP,surface,-104.063,29.7637,295.423
2012-09-17 00:00:00,2012-09-17 00:00:00,TMP,surface,-103.125,29.7637,294.568
2012-09-17 00:00:00,2012-09-17 00:00:00,TMP,surface,-102.188,29.7637,294.545
2012-09-17 00:00:00,2012-09-17 00:00:00,TMP,surface,-101.25,29.7637,294.28
2012-09-17 00:00:00,2012-09-17 00:00:00,TMP,surface,-100.313,29.7637,293.529
2012-09-17 00:00:00,2012-09-17 00:00:00,TMP,surface,-99.3754,29.7637,292.855
2012-09-17 00:00:00,2012-09-17 00:00:00,TMP,surface,-98.4379,29.7637,292.832
2012-09-17 00:00:00,2012-09-17 00:00:00,TMP,surface,-97.5004,29.7637,293.241
2012-09-17 00:00:00,2012-09-17 00:00:00,TMP,surface,-96.5629,29.7637,293.659
2012-09-17 00:00:00,2012-09-17 00:00:00,TMP,surface,-95.6254,29.7637,294.078
2012-09-17 00:00:00,2012-09-17 00:00:00,TMP,surface,-94.6879,29.7637,294.683
2012-09-17 00:00:00,2012-09-17 00:00:00,TMP,surface,-93.7504,29.7637,295.289
2012-09-17 00:00:00,2012-09-17 00:00:00,TMP,surface,-92.8129,29.7637,295.339
2012-09-17 00:00:00,2012-09-17 00:00:00,TMP,surface,-107.813,30.7085,294.15
2012-09-17 00:00:00,2012-09-17 00:00:00,TMP,surface,-106.875,30.7085,295.272
2012-09-17 00:00:00,2012-09-17 00:00:00,TMP,surface,-105.938,30.7085,295.711
2012-09-17 00:00:00,2012-09-17 00:00:00,TMP,surface,-105,30.7085,295.763
2012-09-17 00:00:00,2012-09-17 00:00:00,TMP,surface,-104.063,30.7085,295.009
2012-09-17 00:00:00,2012-09-17 00:00:00,TMP,surface,-103.125,30.7085,295.054
2012-09-17 00:00:00,2012-09-17 00:00:00,TMP,surface,-102.188,30.7085,294.891
2012-09-17 00:00:00,2012-09-17 00:00:00,TMP,surface,-101.25,30.7085,293.844
2012-09-17 00:00:00,2012-09-17 00:00:00,TMP,surface,-100.313,30.7085,292.678
2012-09-17 00:00:00,2012-09-17 00:00:00,TMP,surface,-99.3754,30.7085,292.068
2012-09-17 00:00:00,2012-09-17 00:00:00,TMP,surface,-98.4379,30.7085,292.204
2012-09-17 00:00:00,2012-09-17 00:00:00,TMP,surface,-97.5004,30.7085,292.686
2012-09-17 00:00:00,2012-09-17 00:00:00,TMP,surface,-96.5629,30.7085,293.444
2012-09-17 00:00:00,2012-09-17 00:00:00,TMP,surface,-95.6254,30.7085,294.131
2012-09-17 00:00:00,2012-09-17 00:00:00,TMP,surface,-94.6879,30.7085,294.246
2012-09-17 00:00:00,2012-09-17 00:00:00,TMP,surface,-93.7504,30.7085,294.278
2012-09-17 00:00:00,2012-09-17 00:00:00,TMP,surface,-92.8129,30.7085,294.108
2012-09-17 00:00:00,2012-09-17 00:00:00,TMP,surface,-107.813,31.6534,294.944
2012-09-17 00:00:00,2012-09-17 00:00:00,TMP,surface,-106.875,31.6534,295.633
2012-09-17 00:00:00,2012-09-17 00:00:00,TMP,surface,-105.938,31.6534,295.59
2012-09-17 00:00:00,2012-09-17 00:00:00,TMP,surface,-105,31.6534,295.137
2012-09-17 00:00:00,2012-09-17 00:00:00,TMP,surface,-104.063,31.6534,295.006
2012-09-17 00:00:00,2012-09-17 00:00:00,TMP,surface,-103.125,31.6534,294.907
2012-09-17 00:00:00,2012-09-17 00:00:00,TMP,surface,-102.188,31.6534,294.491
2012-09-17 00:00:00,2012-09-17 00:00:00,TMP,surface,-101.25,31.6534,293.449
2012-09-17 00:00:00,2012-09-17 00:00:00,TMP,surface,-100.313,31.6534,292.599
2012-09-17 00:00:00,2012-09-17 00:00:00,TMP,surface,-99.3754,31.6534,292.19
2012-09-17 00:00:00,2012-09-17 00:00:00,TMP,surface,-98.4379,31.6534,292.243
2012-09-17 00:00:00,2012-09-17 00:00:00,TMP,surface,-97.5004,31.6534,292.539
2012-09-17 00:00:00,2012-09-17 00:00:00,TMP,surface,-96.5629,31.6534,293.257
2012-09-17 00:00:00,2012-09-17 00:00:00,TMP,surface,-95.6254,31.6534,293.98
2012-09-17 00:00:00,2012-09-17 00:00:00,TMP,surface,-94.6879,31.6534,293.913
2012-09-17 00:00:00,2012-09-17 00:00:00,TMP,surface,-93.7504,31.6534,293.649
2012-09-17 00:00:00,2012-09-17 00:00:00,TMP,surface,-92.8129,31.6534,293.604
2012-09-17 00:00:00,2012-09-17 00:00:00,TMP,surface,-107.813,32.5983,291.884
2012-09-17 00:00:00,2012-09-17 00:00:00,TMP,surface,-106.875,32.5983,292.814
2012-09-17 00:00:00,2012-09-17 00:00:00,TMP,surface,-105.938,32.5983,293.411
2012-09-17 00:00:00,2012-09-17 00:00:00,TMP,surface,-105,32.5983,293.675
2012-09-17 00:00:00,2012-09-17 00:00:00,TMP,surface,-104.063,32.5983,294.03
2012-09-17 00:00:00,2012-09-17 00:00:00,TMP,surface,-103.125,32.5983,294.254
2012-09-17 00:00:00,2012-09-17 00:00:00,TMP,surface,-102.188,32.5983,293.603
2012-09-17 00:00:00,2012-09-17 00:00:00,TMP,surface,-101.25,32.5983,292.924
2012-09-17 00:00:00,2012-09-17 00:00:00,TMP,surface,-100.313,32.5983,292.705
2012-09-17 00:00:00,2012-09-17 00:00:00,TMP,surface,-99.3754,32.5983,292.632
2012-09-17 00:00:00,2012-09-17 00:00:00,TMP,surface,-98.4379,32.5983,292.505
2012-09-17 00:00:00,2012-09-17 00:00:00,TMP,surface,-97.5004,32.5983,292.47
2012-09-17 00:00:00,2012-09-17 00:00:00,TMP,surface,-96.5629,32.5983,292.846
2012-09-17 00:00:00,2012-09-17 00:00:00,TMP,surface,-95.6254,32.5983,293.428
2012-09-17 00:00:00,2012-09-17 00:00:00,TMP,surface,-94.6879,32.5983,293.576
2012-09-17 00:00:00,2012-09-17 00:00:00,TMP,surface,-93.7504,32.5983,293.361
2012-09-17 00:00:00,2012-09-17 00:00:00,TMP,surface,-92.8129,32.5983,293.448
2012-09-17 00:00:00,2012-09-17 00:00:00,TMP,surface,-107.813,33.5432,286.926
2012-09-17 00:00:00,2012-09-17 00:00:00,TMP,surface,-106.875,33.5432,288.764
2012-09-17 00:00:00,2012-09-17 00:00:00,TMP,surface,-105.938,33.5432,290.075
2012-09-17 00:00:00,2012-09-17 00:00:00,TMP,surface,-105,33.5432,291.423
2012-09-17 00:00:00,2012-09-17 00:00:00,TMP,surface,-104.063,33.5432,292.446
2012-09-17 00:00:00,2012-09-17 00:00:00,TMP,surface,-103.125,33.5432,292.464
2012-09-17 00:00:00,2012-09-17 00:00:00,TMP,surface,-102.188,33.5432,292.052
2012-09-17 00:00:00,2012-09-17 00:00:00,TMP,surface,-101.25,33.5432,291.79
2012-09-17 00:00:00,2012-09-17 00:00:00,TMP,surface,-100.313,33.5432,292.23
2012-09-17 00:00:00,2012-09-17 00:00:00,TMP,surface,-99.3754,33.5432,292.393
2012-09-17 00:00:00,2012-09-17 00:00:00,TMP,surface,-98.4379,33.5432,292.078
2012-09-17 00:00:00,2012-09-17 00:00:00,TMP,surface,-97.5004,33.5432,291.79
2012-09-17 00:00:00,2012-09-17 00:00:00,TMP,surface,-96.5629,33.5432,291.843
2012-09-17 00:00:00,2012-09-17 00:00:00,TMP,surface,-95.6254,33.5432,292.224
2012-09-17 00:00:00,2012-09-17 00:00:00,TMP,surface,-94.6879,33.5432,292.558
2012-09-17 00:00:00,2012-09-17 00:00:00,TMP,surface,-93.7504,33.5432,292.476
2012-09-17 00:00:00,2012-09-17 00:00:00,TMP,surface,-92.8129,33.5432,292.481
2012-09-17 00:00:00,2012-09-17 00:00:00,TMP,surface,-107.813,34.4881,284.944
2012-09-17 00:00:00,2012-09-17 00:00:00,TMP,surface,-106.875,34.4881,286.84
2012-09-17 00:00:00,2012-09-17 00:00:00,TMP,surface,-105.938,34.4881,288.289
2012-09-17 00:00:00,2012-09-17 00:00:00,TMP,surface,-105,34.4881,289.707
2012-09-17 00:00:00,2012-09-17 00:00:00,TMP,surface,-104.063,34.4881,290.329
2012-09-17 00:00:00,2012-09-17 00:00:00,TMP,surface,-103.125,34.4881,290.446
2012-09-17 00:00:00,2012-09-17 00:00:00,TMP,surface,-102.188,34.4881,290.289
2012-09-17 00:00:00,2012-09-17 00:00:00,TMP,surface,-101.25,34.4881,290.4
2012-09-17 00:00:00,2012-09-17 00:00:00,TMP,surface,-100.313,34.4881,290.849
2012-09-17 00:00:00,2012-09-17 00:00:00,TMP,surface,-99.3754,34.4881,291.289
2012-09-17 00:00:00,2012-09-17 00:00:00,TMP,surface,-98.4379,34.4881,291.238
2012-09-17 00:00:00,2012-09-17 00:00:00,TMP,surface,-97.5004,34.4881,290.967
2012-09-17 00:00:00,2012-09-17 00:00:00,TMP,surface,-96.5629,34.4881,291.238
2012-09-17 00:00:00,2012-09-17 00:00:00,TMP,surface,-95.6254,34.4881,291.774
2012-09-17 00:00:00,2012-09-17 00:00:00,TMP,surface,-94.6879,34.4881,291.705
2012-09-17 00:00:00,2012-09-17 00:00:00,TMP,surface,-93.7504,34.4881,291.374
2012-09-17 00:00:00,2012-09-17 00:00:00,TMP,surface,-92.8129,34.4881,291.448
2012-09-17 00:00:00,2012-09-17 00:00:00,TMP,surface,-107.813,35.4329,285.67
2012-09-17 00:00:00,2012-09-17 00:00:00,TMP,surface,-106.875,35.4329,285.929
2012-09-17 00:00:00,2012-09-17 00:00:00,TMP,surface,-105.938,35.4329,286.263
2012-09-17 00:00:00,2012-09-17 00:00:00,TMP,surface,-105,35.4329,287.078
2012-09-17 00:00:00,2012-09-17 00:00:00,TMP,surface,-104.063,35.4329,288.846
2012-09-17 00:00:00,2012-09-17 00:00:00,TMP,surface,-103.125,35.4329,289.68
2012-09-17 00:00:00,2012-09-17 00:00:00,TMP,surface,-102.188,35.4329,289.619
2012-09-17 00:00:00,2012-09-17 00:00:00,TMP,surface,-101.25,35.4329,289.608
2012-09-17 00:00:00,2012-09-17 00:00:00,TMP,surface,-100.313,35.4329,289.715
2012-09-17 00:00:00,2012-09-17 00:00:00,TMP,surface,-99.3754,35.4329,290.046
2012-09-17 00:00:00,2012-09-17 00:00:00,TMP,surface,-98.4379,35.4329,290.276
2012-09-17 00:00:00,2012-09-17 00:00:00,TMP,surface,-97.5004,35.4329,290.384
2012-09-17 00:00:00,2012-09-17 00:00:00,TMP,surface,-96.5629,35.4329,290.55
2012-09-17 00:00:00,2012-09-17 00:00:00,TMP,surface,-95.6254,35.4329,290.91
2012-09-17 00:00:00,2012-09-17 00:00:00,TMP,surface,-94.6879,35.4329,291.142
2012-09-17 00:00:00,2012-09-17 00:00:00,TMP,surface,-93.7504,35.4329,290.731
2012-09-17 00:00:00,2012-09-17 00:00:00,TMP,surface,-92.8129,35.4329,290.497
2012-09-17 00:00:00,2012-09-17 00:00:00,TMP,surface,-107.813,36.3778,285.3
2012-09-17 00:00:00,2012-09-17 00:00:00,TMP,surface,-106.875,36.3778,283.07
2012-09-17 00:00:00,2012-09-17 00:00:00,TMP,surface,-105.938,36.3778,283.446
2012-09-17 00:00:00,2012-09-17 00:00:00,TMP,surface,-105,36.3778,284.55
2012-09-17 00:00:00,2012-09-17 00:00:00,TMP,surface,-104.063,36.3778,287.004
2012-09-17 00:00:00,2012-09-17 00:00:00,TMP,surface,-103.125,36.3778,288.076
2012-09-17 00:00:00,2012-09-17 00:00:00,TMP,surface,-102.188,36.3778,288.703
2012-09-17 00:00:00,2012-09-17 00:00:00,TMP,surface,-101.25,36.3778,288.95
2012-09-17 00:00:00,2012-09-17 00:00:00,TMP,surface,-100.313,36.3778,289.251
2012-09-17 00:00:00,2012-09-17 00:00:00,TMP,surface,-99.3754,36.3778,289.535
2012-09-17 00:00:00,2012-09-17 00:00:00,TMP,surface,-98.4379,36.3778,289.695
2012-09-17 00:00:00,2012-09-17 00:00:00,TMP,surface,-97.5004,36.3778,289.904
2012-09-17 00:00:00,2012-09-17 00:00:00,TMP,surface,-96.5629,36.3778,290.219
2012-09-17 00:00:00,2012-09-17 00:00:00,TMP,surface,-95.6254,36.3778,290.601
2012-09-17 00:00:00,2012-09-17 00:00:00,TMP,surface,-94.6879,36.3778,290.715
2012-09-17 00:00:00,2012-09-17 00:00:00,TMP,surface,-93.7504,36.3778,290.185
2012-09-17 00:00:00,2012-09-17 00:00:00,TMP,surface,-92.8129,36.3778,289.907
2012-09-17 00:00:00,2012-09-17 00:00:00,PRATE,surface,-107.813,25.0393,0
2012-09-17 00:00:00,2012-09-17 00:00:00,PRATE,surface,-106.875,25.0393,2.4e-06
2012-09-17 00:00:00,2012-09-17 00:00:00,PRATE,surface,-105.938,25.0393,2.3e-05
2012-09-17 00:00:00,2012-09-17 00:00:00,PRATE,surface,-105,25.0393,1.6e-05
2012-09-17 00:00:00,2012-09-17 00:00:00,PRATE,surface,-104.063,25.0393,3.4e-06
2012-09-17 00:00:00,2012-09-17 00:00:00,PRATE,surface,-103.125,25.0393,0
2012-09-17 00:00:00,2012-09-17 00:00:00,PRATE,surface,-102.188,25.0393,2e-06
2012-09-17 00:00:00,2012-09-17 00:00:00,PRATE,surface,-101.25,25.0393,3e-05
2012-09-17 00:00:00,2012-09-17 00:00:00,PRATE,surface,-100.313,25.0393,6.78e-05
2012-09-17 00:00:00,2012-09-17 00:00:00,PRATE,surface,-99.3754,25.0393,3.63e-05
2012-09-17 00:00:00,2012-09-17 00:00:00,PRATE,surface,-98.4379,25.0393,5e-07
2012-09-17 00:00:00,2012-09-17 00:00:00,PRATE,surface,-97.5004,25.0393,1e-07
2012-09-17 00:00:00,2012-09-17 00:00:00,PRATE,surface,-96.5629,25.0393,5e-07
2012-09-17 00:00:00,2012-09-17 00:00:00,PRATE,surface,-95.6254,25.0393,1.1e-06
2012-09-17 00:00:00,2012-09-17 00:00:00,PRATE,surface,-94.6879,25.0393,2.7e-06
2012-09-17 00:00:00,2012-09-17 00:00:00,PRATE,surface,-93.7504,25.0393,5.6e-06
2012-09-17 00:00:00,2012-09-17 00:00:00,PRATE,surface,-92.8129,25.0393,1.88e-05
2012-09-17 00:00:00,2012-09-17 00:00:00,PRATE,surface,-107.813,25.9842,1e-07
2012-09-17 00:00:00,2012-09-17 00:00:00,PRATE,surface,-106.875,25.9842,1.73e-05
2012-09-17 00:00:00,2012-09-17 00:00:00,PRATE,surface,-105.938,25.9842,1.74e-05
2012-09-17 00:00:00,2012-09-17 00:00:00,PRATE,surface,-105,25.9842,2.4e-06
2012-09-17 00:00:00,2012-09-17 00:00:00,PRATE,surface,-104.063,25.9842,1.7e-06
2012-09-17 00:00:00,2012-09-17 00:00:00,PRATE,surface,-103.125,25.9842,8e-07
2012-09-17 00:00:00,2012-09-17 00:00:00,PRATE,surface,-102.188,25.9842,3e-06
2012-09-17 00:00:00,2012-09-17 00:00:00,PRATE,surface,-101.25,25.9842,1.76e-05
2012-09-17 00:00:00,2012-09-17 00:00:00,PRATE,surface,-100.313,25.9842,4.19e-05
2012-09-17 00:00:00,2012-09-17 00:00:00,PRATE,surface,-99.3754,25.9842,1.52e-05
2012-09-17 00:00:00,2012-09-17 00:00:00,PRATE,surface,-98.4379,25.9842,4.5e-06
2012-09-17 00:00:00,2012-09-17 00:00:00,PRATE,surface,-97.5004,25.9842,9e-07
2012-09-17 00:00:00,2012-09-17 00:00:00,PRATE,surface,-96.5629,25.9842,2.4e-06
2012-09-17 00:00:00,2012-09-17 00:00:00,PRATE,surface,-95.6254,25.9842,3.6e-06
2012-09-17 00:00:00,2012-09-17 00:00:00,PRATE,surface,-94.6879,25.9842,6.6e-06
2012-09-17 00:00:00,2012-09-17 00:00:00,PRATE,surface,-93.7504,25.9842,8e-06
2012-09-17 00:00:00,2012-09-17 00:00:00,PRATE,surface,-92.8129,25.9842,1.51e-05
2012-09-17 00:00:00,2012-09-17 00:00:00,PRATE,surface,-107.813,26.929,1.34e-05
2012-09-17 00:00:00,2012-09-17 00:00:00,PRATE,surface,-106.875,26.929,1.74e-05
2012-09-17 00:00:00,2012-09-17 00:00:00,PRATE,surface,-105.938,26.929,4.8e-06
2012-09-17 00:00:00,2012-09-17 00:00:00,PRATE,surface,-105,26.929,1.8e-06
2012-09-17 00:00:00,2012-09-17 00:00:00,PRATE,surface,-104.063,26.929,3.4e-06
2012-09-17 00:00:00,2012-09-17 00:00:00,PRATE,surface,-103.125,26.929,9.2e-06
2012-09-17 00:00:00,2012-09-17 00:00:00,PRATE,surface,-102.188,26.929,1.92e-05
2012-09-17 00:00:00,2012-09-17 00:00:00,PRATE,surface,-101.25,26.929,4.3e-05
2012-09-17 00:00:00,2012-09-17 00:00:00,PRATE,surface,-100.313,26.929,1.64e-05
2012-09-17 00:00:00,2012-09-17 00:00:00,PRATE,surface,-99.3754,26.929,4.7e-06
2012-09-17 00:00:00,2012-09-17 00:00:00,PRATE,surface,-98.4379,26.929,1.03e-05
2012-09-17 00:00:00,2012-09-17 00:00:00,PRATE,surface,-97.5004,26.929,8.6e-06
2012-09-17 00:00:00,2012-09-17 00:00:00,PRATE,surface,-96.5629,26.929,6.1e-06
2012-09-17 00:00:00,2012-09-17 00:00:00,PRATE,surface,-95.6254,26.929,7.7e-06
2012-09-17 00:00:00,2012-09-17 00:00:00,PRATE,surface,-94.6879,26.929,7.7e-06
2012-09-17 00:00:00,2012-09-17 00:00:00,PRATE,surface,-93.7504,26.929,6.7e-06
2012-09-17 00:00:00,2012-09-17 00:00:00,PRATE,surface,-92.8129,26.929,7.5e-06
2012-09-17 00:00:00,2012-09-17 00:00:00,PRATE,surface,-107.813,27.8739,4.25e-05
2012-09-17 00:00:00,2012-09-17 00:00:00,PRATE,surface,-106.875,27.8739,2.86e-05
2012-09-17 00:00:00,2012-09-17 00:00:00,PRATE,surface,-105.938,27.8739,3.6e-06
2012-09-17 00:00:00,2012-09-17 00:00:00,PRATE,surface,-105,27.8739,1.1e-06
2012-09-17 00:00:00,2012-09-17 00:00:00,PRATE,surface,-104.063,27.8739,4.6e-06
2012-09-17 00:00:00,2012-09-17 00:00:00,PRATE,surface,-103.125,27.8739,2.73e-05
2012-09-17 00:00:00,2012-09-17 00:00:00,PRATE,surface,-102.188,27.8739,5.99e-05
2012-09-17 00:00:00,2012-09-17 00:00:00,PRATE,surface,-101.25,27.8739,4.82e-05
2012-09-17 00:00:00,2012-09-17 00:00:00,PRATE,surface,-100.313,27.8739,2.59e-05
2012-09-17 00:00:00,2012-09-17 00:00:00,PRATE,surface,-99.3754,27.8739,1.69e-05
2012-09-17 00:00:00,2012-09-17 00:00:00,PRATE,surface,-98.4379,27.8739,2.7e-05
2012-09-17 00:00:00,2012-09-17 00:00:00,PRATE,surface,-97.5004,27.8739,2.76e-05
2012-09-17 00:00:00,2012-09-17 00:00:00,PRATE,surface,-96.5629,27.8739,1.57e-05
2012-09-17 00:00:00,2012-09-17 00:00:00,PRATE,surface,-95.6254,27.8739,1.23e-05
2012-09-17 00:00:00,2012-09-17 00:00:00,PRATE,surface,-94.6879,27.8739,1.32e-05
2012-09-17 00:00:00,2012-09-17 00:00:00,PRATE,surface,-93.7504,27.8739,9.3e-06
2012-09-17 00:00:00,2012-09-17 00:00:00,PRATE,surface,-92.8129,27.8739,8.9e-06
2012-09-17 00:00:00,2012-09-17 00:00:00,PRATE,surface,-107.813,28.8188,4.79e-05
2012-09-17 00:00:00,2012-09-17 00:00:00,PRATE,surface,-106.875,28.8188,3.06e-05
2012-09-17 00:00:00,2012-09-17 00:00:00,PRATE,surface,-105.938,28.8188,5.2e-06
2012-09-17 00:00:00,2012-09-17 00:00:00,PRATE,surface,-105,28.8188,3.1e-06
2012-09-17 00:00:00,2012-09-17 00:00:00,PRATE,surface,-104.063,28.8188,6.4e-06
2012-09-17 00:00:00,2012-09-17 00:00:00,PRATE,surface,-103.125,28.8188,3.19e-05
2012-09-17 00:00:00,2012-09-17 00:00:00,PRATE,surface,-102.188,28.8188,5.06e-05
2012-09-17 00:00:00,2012-09-17 00:00:00,PRATE,surface,-101.25,28.8188,5.67e-05
2012-09-17 00:00:00,2012-09-17 00:00:00,PRATE,surface,-100.313,28.8188,4.88e-05
2012-09-17 00:00:00,2012-09-17 00:00:00,PRATE,surface,-99.3754,28.8188,5.23e-05
2012-09-17 00:00:00,2012-09-17 00:00:00,PRATE,surface,-98.4379,28.8188,5.54e-05
2012-09-17 00:00:00,2012-09-17 00:00:00,PRATE,surface,-97.5004,28.8188,4.83e-05
2012-09-17 00:00:00,2012-09-17 00:00:00,PRATE,surface,-96.5629,28.8188,3.59e-05
2012-09-17 00:00:00,2012-09-17 00:00:00,PRATE,surface,-95.6254,28.8188,3.28e-05
2012-09-17 00:00:00,2012-09-17 00:00:00,PRATE,surface,-94.6879,28.8188,3.8e-05
2012-09-17 00:00:00,2012-09-17 00:00:00,PRATE,surface,-93.7504,28.8188,2.91e-05
2012-09-17 00:00:00,2012-09-17 00:00:00,PRATE,surface,-92.8129,28.8188,2.33e-05
2012-09-17 00:00:00,2012-09-17 00:00:00,PRATE,surface,-107.813,29.7637,1.51e-05
2012-09-17 00:00:00,2012-09-17 00:00:00,PRATE,surface,-106.875,29.7637,1.04e-05
2012-09-17 00:00:00,2012-09-17 00:00:00,PRATE,surface,-105.938,29.7637,4.6e-06
2012-09-17 00:00:00,2012-09-17 00:00:00,PRATE,surface,-105,29.7637,7.6e-06
2012-09-17 00:00:00,2012-09-17 00:00:00,PRATE,surface,-104.063,29.7637,1.25e-05
2012-09-17 00:00:00,2012-09-17 00:00:00,PRATE,surface,-103.125,29.7637,2.76e-05
2012-09-17 00:00:00,2012-09-17 00:00:00,PRATE,surface,-102.188,29.7637,4.02e-05
2012-09-17 00:00:00,2012-09-17 00:00:00,PRATE,surface,-101.25,29.7637,6.28e-05
2012-09-17 00:00:00,2012-09-17 00:00:00,PRATE,surface,-100.313,29.7637,7.76e-05
2012-09-17 00:00:00,2012-09-17 00:00:00,PRATE,surface,-99.3754,29.7637,7.29e-05
2012-09-17 00:00:00,2012-09-17 00:00:00,PRATE,surface,-98.4379,29.7637,6.78e-05
2012-09-17 00:00:00,2012-09-17 00:00:00,PRATE,surface,-97.5004,29.7637,6.37e-05
2012-09-17 00:00:00,2012-09-17 00:00:00,PRATE,surface,-96.5629,29.7637,6.09e-05
2012-09-17 00:00:00,2012-09-17 00:00:00,PRATE,surface,-95.6254,29.7637,6.28e-05
2012-09-17 00:00:00,2012-09-17 00:00:00,PRATE,surface,-94.6879,29.7637,6.27e-05
2012-09-17 00:00:00,2012-09-17 00:00:00,PRATE,surface,-93.7504,29.7637,5.96e-05
2012-09-17 00:00:00,2012-09-17 00:00:00,PRATE,surface,-92.8129,29.7637,5.28e-05
2012-09-17 00:00:00,2012-09-17 00:00:00,PRATE,surface,-107.813,30.7085,1.3e-06
2012-09-17 00:00:00,2012-09-17 00:00:00,PRATE,surface,-106.875,30.7085,2e-06
2012-09-17 00:00:00,2012-09-17 00:00:00,PRATE,surface,-105.938,30.7085,5.8e-06
2012-09-17 00:00:00,2012-09-17 00:00:00,PRATE,surface,-105,30.7085,8.6e-06
2012-09-17 00:00:00,2012-09-17 00:00:00,PRATE,surface,-104.063,30.7085,1.25e-05
2012-09-17 00:00:00,2012-09-17 00:00:00,PRATE,surface,-103.125,30.7085,2.69e-05
2012-09-17 00:00:00,2012-09-17 00:00:00,PRATE,surface,-102.188,30.7085,4.67e-05
2012-09-17 00:00:00,2012-09-17 00:00:00,PRATE,surface,-101.25,30.7085,6.88e-05
2012-09-17 00:00:00,2012-09-17 00:00:00,PRATE,surface,-100.313,30.7085,8.38e-05
2012-09-17 00:00:00,2012-09-17 00:00:00,PRATE,surface,-99.3754,30.7085,7.76e-05
2012-09-17 00:00:00,2012-09-17 00:00:00,PRATE,surface,-98.4379,30.7085,6.84e-05
2012-09-17 00:00:00,2012-09-17 00:00:00,PRATE,surface,-97.5004,30.7085,5.87e-05
2012-09-17 00:00:00,2012-09-17 00:00:00,PRATE,surface,-96.5629,30.7085,5.37e-05
2012-09-17 00:00:00,2012-09-17 00:00:00,PRATE,surface,-95.6254,30.7085,6.13e-05
2012-09-17 00:00:00,2012-09-17 00:00:00,PRATE,surface,-94.6879,30.7085,6.98e-05
2012-09-17 00:00:00,2012-09-17 00:00:00,PRATE,surface,-93.7504,30.7085,7.36e-05
2012-09-17 00:00:00,2012-09-17 00:00:00,PRATE,surface,-92.8129,30.7085,7.82e-05
2012-09-17 00:00:00,2012-09-17 00:00:00,PRATE,surface,-107.813,31.6534,1.4e-06
2012-09-17 00:00:00,2012-09-17 00:00:00,PRATE,surface,-106.875,31.6534,2.2e-06
2012-09-17 00:00:00,2012-09-17 00:00:00,PRATE,surface,-105.938,31.6534,4.3e-06
2012-09-17 00:00:00,2012-09-17 00:00:00,PRATE,surface,-105,31.6534,1e-05
2012-09-17 00:00:00,2012-09-17 00:00:00,PRATE,surface,-104.063,31.6534,2.31e-05
2012-09-17 00:00:00,2012-09-17 00:00:00,PRATE,surface,-103.125,31.6534,3.63e-05
2012-09-17 00:00:00,2012-09-17 00:00:00,PRATE,surface,-102.188,31.6534,5.18e-05
2012-09-17 00:00:00,2012-09-17 00:00:00,PRATE,surface,-101.25,31.6534,6.5e-05
2012-09-17 00:00:00,2012-09-17 00:00:00,PRATE,surface,-100.313,31.6534,7.49e-05
2012-09-17 00:00:00,2012-09-17 00:00:00,PRATE,surface,-99.3754,31.6534,7.44e-05
2012-09-17 00:00:00,2012-09-17 00:00:00,PRATE,surface,-98.4379,31.6534,6.73e-05
2012-09-17 00:00:00,2012-09-17 00:00:00,PRATE,surface,-97.5004,31.6534,6.11e-05
2012-09-17 00:00:00,2012-09-17 00:00:00,PRATE,surface,-96.5629,31.6534,5.62e-05
2012-09-17 00:00:00,2012-09-17 00:00:00,PRATE,surface,-95.6254,31.6534,5.63e-05
2012-09-17 00:00:00,2012-09-17 00:00:00,PRATE,surface,-94.6879,31.6534,6.53e-05
2012-09-17 00:00:00,2012-09-17 00:00:00,PRATE,surface,-93.7504,31.6534,7.56e-05
2012-09-17 00:00:00,2012-09-17 00:00:00,PRATE,surface,-92.8129,31.6534,8.39e-05
2012-09-17 00:00:00,2012-09-17 00:00:00,PRATE,surface,-107.813,32.5983,8.1e-06
2012-09-17 00:00:00,2012-09-17 00:00:00,PRATE,surface,-106.875,32.5983,8.6e-06
2012-09-17 00:00:00,2012-09-17 00:00:00,PRATE,surface,-105.938,32.5983,9.5e-06
2012-09-17 00:00:00,2012-09-17 00:00:00,PRATE,surface,-105,32.5983,1.83e-05
2012-09-17 00:00:00,2012-09-17 00:00:00,PRATE,surface,-104.063,32.5983,2.84e-05
2012-09-17 00:00:00,2012-09-17 00:00:00,PRATE,surface,-103.125,32.5983,3.96e-05
2012-09-17 00:00:00,2012-09-17 00:00:00,PRATE,surface,-102.188,32.5983,5.06e-05
2012-09-17 00:00:00,2012-09-17 00:00:00,PRATE,surface,-101.25,32.5983,7.33e-05
2012-09-17 00:00:00,2012-09-17 00:00:00,PRATE,surface,-100.313,32.5983,8.35e-05
2012-09-17 00:00:00,2012-09-17 00:00:00,PRATE,surface,-99.3754,32.5983,7.5e-05
2012-09-17 00:00:00,2012-09-17 00:00:00,PRATE,surface,-98.4379,32.5983,7.31e-05
2012-09-17 00:00:00,2012-09-17 00:00:00,PRATE,surface,-97.5004,32.5983,7.64e-05
2012-09-17 00:00:00,2012-09-17 00:00:00,PRATE,surface,-96.5629,32.5983,7.35e-05
2012-09-17 00:00:00,2012-09-17 00:00:00,PRATE,surface,-95.6254,32.5983,6.75e-05
2012-09-17 00:00:00,2012-09-17 00:00:00,PRATE,surface,-94.6879,32.5983,6.51e-05
2012-09-17 00:00:00,2012-09-17 00:00:00,PRATE,surface,-93.7504,32.5983,6.63e-05
2012-09-17 00:00:00,2012-09-17 00:00:00,PRATE,surface,-92.8129,32.5983,6.32e-05
2012-09-17 00:00:00,2012-09-17 00:00:00,PRATE,surface,-107.813,33.5432,3.69e-05
2012-09-17 00:00:00,2012-09-17 00:00:00,PRATE,surface,-106.875,33.5432,2.46e-05
2012-09-17 00:00:00,2012-09-17 00:00:00,PRATE,surface,-105.938,33.5432,1.79e-05
2012-09-17 00:00:00,2012-09-17 00:00:00,PRATE,surface,-105,33.5432,2.18e-05
2012-09-17 00:00:00,2012-09-17 00:00:00,PRATE,surface,-104.063,33.5432,2.67e-05
2012-09-17 00:00:00,2012-09-17 00:00:00,PRATE,surface,-103.125,33.5432,4.12e-05
2012-09-17 00:00:00,2012-09-17 00:00:00,PRATE,surface,-102.188,33.5432,6.29e-05
2012-09-17 00:00:00,2012-09-17 00:00:00,PRATE,surface,-101.25,33.5432,8.59e-05
2012-09-17 00:00:00,2012-09-17 00:00:00,PRATE,surface,-100.313,33.5432,8.8e-05
2012-09-17 00:00:00,2012-09-17 00:00:00,PRATE,surface,-99.3754,33.5432,8.11e-05
2012-09-17 00:00:00,2012-09-17 00:00:00,PRATE,surface,-98.4379,33.5432,8.38e-05
2012-09-17 00:00:00,2012-09-17 00:00:00,PRATE,surface,-97.5004,33.5432,8.87e-05
2012-09-17 00:00:00,2012-09-17 00:00:00,PRATE,surface,-96.5629,33.5432,8.04e-05
2012-09-17 00:00:00,2012-09-17 00:00:00,PRATE,surface,-95.6254,33.5432,6.85e-05
2012-09-17 00:00:00,2012-09-17 00:00:00,PRATE,surface,-94.6879,33.5432,6.51e-05
2012-09-17 00:00:00,2012-09-17 00:00:00,PRATE,surface,-93.7504,33.5432,5.94e-05
2012-09-17 00:00:00,2012-09-17 00:00:00,PRATE,surface,-92.8129,33.5432,5.74e-05
2012-09-17 00:00:00,2012-09-17 00:00:00,PRATE,surface,-107.813,34.4881,5.25e-05
2012-09-17 00:00:00,2012-09-17 00:00:00,PRATE,surface,-106.875,34.4881,3.64e-05
2012-09-17 00:00:00,2012-09-17 00:00:00,PRATE,surface,-105.938,34.4881,2.7e-05
2012-09-17 00:00:00,2012-09-17 00:00:00,PRATE,surface,-105,34.4881,3.31e-05
2012-09-17 00:00:00,2012-09-17 00:00:00,PRATE,surface,-104.063,34.4881,3.91e-05
2012-09-17 00:00:00,2012-09-17 00:00:00,PRATE,surface,-103.125,34.4881,5.44e-05
2012-09-17 00:00:00,2012-09-17 00:00:00,PRATE,surface,-102.188,34.4881,7.91e-05
2012-09-17 00:00:00,2012-09-17 00:00:00,PRATE,surface,-101.25,34.4881,0.0001113
2012-09-17 00:00:00,2012-09-17 00:00:00,PRATE,surface,-100.313,34.4881,0.0001133
2012-09-17 00:00:00,2012-09-17 00:00:00,PRATE,surface,-99.3754,34.4881,9.53e-05
2012-09-17 00:00:00,2012-09-17 00:00:00,PRATE,surface,-98.4379,34.4881,8.75e-05
2012-09-17 00:00:00,2012-09-17 00:00:00,PRATE,surface,-97.5004,34.4881,9.01e-05
2012-09-17 00:00:00,2012-09-17 00:00:00,PRATE,surface,-96.5629,34.4881,8.83e-05
2012-09-17 00:00:00,2012-09-17 00:00:00,PRATE,surface,-95.6254,34.4881,8.18e-05
2012-09-17 00:00:00,2012-09-17 00:00:00,PRATE,surface,-94.6879,34.4881,7.56e-05
2012-09-17 00:00:00,2012-09-17 00:00:00,PRATE,surface,-93.7504,34.4881,6.83e-05
2012-09-17 00:00:00,2012-09-17 00:00:00,PRATE,surface,-92.8129,34.4881,6.58e-05
2012-09-17 00:00:00,2012-09-17 00:00:00,PRATE,surface,-107.813,35.4329,3.31e-05
2012-09-17 00:00:00,2012-09-17 00:00:00,PRATE,surface,-106.875,35.4329,3.53e-05
2012-09-17 00:00:00,2012-09-17 00:00:00,PRATE,surface,-105.938,35.4329,3.82e-05
2012-09-17 00:00:00,2012-09-17 00:00:00,PRATE,surface,-105,35.4329,5.96e-05
2012-09-17 00:00:00,2012-09-17 00:00:00,PRATE,surface,-104.063,35.4329,7.42e-05
2012-09-17 00:00:00,2012-09-17 00:00:00,PRATE,surface,-103.125,35.4329,7.58e-05
2012-09-17 00:00:00,2012-09-17 00:00:00,PRATE,surface,-102.188,35.4329,7.88e-05
2012-09-17 00:00:00,2012-09-17 00:00:00,PRATE,surface,-101.25,35.4329,0.0001008
2012-09-17 00:00:00,2012-09-17 00:00:00,PRATE,surface,-100.313,35.4329,0.0001121
2012-09-17 00:00:00,2012-09-17 00:00:00,PRATE,surface,-99.3754,35.4329,0.0001093
2012-09-17 00:00:00,2012-09-17 00:00:00,PRATE,surface,-98.4379,35.4329,9.69e-05
2012-09-17 00:00:00,2012-09-17 00:00:00,PRATE,surface,-97.5004,35.4329,8.5e-05
2012-09-17 00:00:00,2012-09-17 00:00:00,PRATE,surface,-96.5629,35.4329,7.47e-05
2012-09-17 00:00:00,2012-09-17 00:00:00,PRATE,surface,-95.6254,35.4329,6.49e-05
2012-09-17 00:00:00,2012-09-17 00:00:00,PRATE,surface,-94.6879,35.4329,6.18e-05
2012-09-17 00:00:00,2012-09-17 00:00:00,PRATE,surface,-93.7504,35.4329,6.3e-05
2012-09-17 00:00:00,2012-09-17 00:00:00,PRATE,surface,-92.8129,35.4329,5.88e-05
2012-09-17 00:00:00,2012-09-17 00:00:00,PRATE,surface,-107.813,36.3778,2.74e-05
2012-09-17 00:00:00,2012-09-17 00:00:00,PRATE,surface,-106.875,36.3778,4.13e-05
2012-09-17 00:00:00,2012-09-17 00:00:00,PRATE,surface,-105.938,36.3778,5.08e-05
2012-09-17 00:00:00,2012-09-17 00:00:00,PRATE,surface,-105,36.3778,7.63e-05
2012-09-17 00:00:00,2012-09-17 00:00:00,PRATE,surface,-104.063,36.3778,8.14e-05
2012-09-17 00:00:00,2012-09-17 00:00:00,PRATE,surface,-103.125,36.3778,7.13e-05
2012-09-17 00:00:00,2012-09-17 00:00:00,PRATE,surface,-102.188,36.3778,6.73e-05
2012-09-17 00:00:00,2012-09-17 00:00:00,PRATE,surface,-101.25,36.3778,7.22e-05
2012-09-17 00:00:00,2012-09-17 00:00:00,PRATE,surface,-100.313,36.3778,8.19e-05
2012-09-17 00:00:00,2012-09-17 00:00:00,PRATE,surface,-99.3754,36.3778,8.88e-05
2012-09-17 00:00:00,2012-09-17 00:00:00,PRATE,surface,-98.4379,36.3778,9.08e-05
2012-09-17 00:00:00,2012-09-17 00:00:00,PRATE,surface,-97.5004,36.3778,8.16e-05
2012-09-17 00:00:00,2012-09-17 00:00:00,PRATE,surface,-96.5629,36.3778,7.43e-05
2012-09-17 00:00:00,2012-09-17 00:00:00,PRATE,surface,-95.6254,36.3778,7.76e-05
2012-09-17 00:00:00,2012-09-17 00:00:00,PRATE,surface,-94.6879,36.3778,7.8e-05
2012-09-17 00:00:00,2012-09-17 00:00:00,PRATE,surface,-93.7504,36.3778,7.48e-05
2012-09-17 00:00:00,2012-09-17 00:00:00,PRATE,surface,-92.8129,36.3778,7.2e-05
