2017-03-16 00:00:00,2017-03-16 00:00:00,TMP,surface,-107.813,25.0393,298.417
2017-03-16 00:00:00,2017-03-16 00:00:00,TMP,surface,-106.875,25.0393,292.152
2017-03-16 00:00:00,2017-03-16 00:00:00,TMP,surface,-105.938,25.0393,287.195
2017-03-16 00:00:00,2017-03-16 00:00:00,TMP,surface,-105,25.0393,285.958
2017-03-16 00:00:00,2017-03-16 00:00:00,TMP,surface,-104.063,25.0393,290.433
2017-03-16 00:00:00,2017-03-16 00:00:00,TMP,surface,-103.125,25.0393,293.291
2017-03-16 00:00:00,2017-03-16 00:00:00,TMP,surface,-102.188,25.0393,292.696
2017-03-16 00:00:00,2017-03-16 00:00:00,TMP,surface,-101.25,25.0393,290.161
2017-03-16 00:00:00,2017-03-16 00:00:00,TMP,surface,-100.313,25.0393,290.598
2017-03-16 00:00:00,2017-03-16 00:00:00,TMP,surface,-99.3754,25.0393,293.998
2017-03-16 00:00:00,2017-03-16 00:00:00,TMP,surface,-98.4379,25.0393,297.329
2017-03-16 00:00:00,2017-03-16 00:00:00,TMP,surface,-97.5004,25.0393,300.857
2017-03-16 00:00:00,2017-03-16 00:00:00,TMP,surface,-96.5629,25.0393,301.091
2017-03-16 00:00:00,2017-03-16 00:00:00,TMP,surface,-95.6254,25.0393,301.188
2017-03-16 00:00:00,2017-03-16 00:00:00,TMP,surface,-94.6879,25.0393,301.228
2017-03-16 00:00:00,2017-03-16 00:00:00,TMP,surface,-93.7504,25.0393,301.137
2017-03-16 00:00:00,2017-03-16 00:00:00,TMP,surface,-92.8129,25.0393,301.016
2017-03-16 00:00:00,2017-03-16 00:00:00,TMP,surface,-107.813,25.9842,293.515
2017-03-16 00:00:00,2017-03-16 00:00:00,TMP,surface,-106.875,25.9842,287.83
2017-03-16 00:00:00,2017-03-16 00:00:00,TMP,surface,-105.938,25.9842,285.587
2017-03-16 00:00:00,2017-03-16 00:00:00,TMP,surface,-105,25.9842,287.849
2017-03-16 00:00:00,2017-03-16 00:00:00,TMP,surface,-104.063,25.9842,292.568
2017-03-16 00:00:00,2017-03-16 00:00:00,TMP,surface,-103.125,25.9842,294.572
2017-03-16 00:00:00,2017-03-16 00:00:00,TMP,surface,-102.188,25.9842,293.739
2017-03-16 00:00:00,2017-03-16 00:00:00,TMP,surface,-101.25,25.9842,292.476
2017-03-16 00:00:00,2017-03-16 00:00:00,TMP,surface,-100.313,25.9842,293.155
2017-03-16 00:00:00,2017-03-16 00:00:00,TMP,surface,-99.3754,25.9842,296.184
2017-03-16 00:00:00,2017-03-16 00:00:00,TMP,surface,-98.4379,25.9842,298.044
2017-03-16 00:00:00,2017-03-16 00:00:00,TMP,surface,-97.5004,25.9842,298.558
2017-03-16 00:00:00,2017-03-16 00:00:00,TMP,surface,-96.5629,25.9842,300.731
2017-03-16 00:00:00,2017-03-16 00:00:00,TMP,surface,-95.6254,25.9842,300.88
2017-03-16 00:00:00,2017-03-16 00:00:00,TMP,surface,-94.6879,25.9842,300.929
2017-03-16 00:00:00,2017-03-16 00:00:00,TMP,surface,-93.7504,25.9842,300.891
2017-03-16 00:00:00,2017-03-16 00:00:00,TMP,surface,-92.8129,25.9842,300.907
2017-03-16 00:00:00,2017-03-16 00:00:00,TMP,surface,-107.813,26.929,288.715
2017-03-16 00:00:00,2017-03-16 00:00:00,TMP,surface,-106.875,26.929,285.128
2017-03-16 00:00:00,2017-03-16 00:00:00,TMP,surface,-105.938,26.929,286.921
2017-03-16 00:00:00,2017-03-16 00:00:00,TMP,surface,-105,26.929,290.214
2017-03-16 00:00:00,2017-03-16 00:00:00,TMP,surface,-104.063,26.929,292.515
2017-03-16 00:00:00,2017-03-16 00:00:00,TMP,surface,-103.125,26.929,292.692
2017-03-16 00:00:00,2017-03-16 00:00:00,TMP,surface,-102.188,26.929,292.563
2017-03-16 00:00:00,2017-03-16 00:00:00,TMP,surface,-101.25,26.929,293.208
2017-03-16 00:00:00,2017-03-16 00:00:00,TMP,surface,-100.313,26.929,295.188
2017-03-16 00:00:00,2017-03-16 00:00:00,TMP,surface,-99.3754,26.929,297.208
2017-03-16 00:00:00,2017-03-16 00:00:00,TMP,surface,-98.4379,26.929,297.419
2017-03-16 00:00:00,2017-03-16 00:00:00,TMP,surface,-97.5004,26.929,299.635
2017-03-16 00:00:00,2017-03-16 00:00:00,TMP,surface,-96.5629,26.929,299.728
2017-03-16 00:00:00,2017-03-16 00:00:00,TMP,surface,-95.6254,26.929,300.328
2017-03-16 00:00:00,2017-03-16 00:00:00,TMP,surface,-94.6879,26.929,300.555
2017-03-16 00:00:00,2017-03-16 00:00:00,TMP,surface,-93.7504,26.929,300.328
2017-03-16 00:00:00,2017-03-16 00:00:00,TMP,surface,-92.8129,26.929,300.228
2017-03-16 00:00:00,2017-03-16 00:00:00,TMP,surface,-107.813,27.8739,286.244
2017-03-16 00:00:00,2017-03-16 00:00:00,TMP,surface,-106.875,27.8739,285.041
2017-03-16 00:00:00,2017-03-16 00:00:00,TMP,surface,-105.938,27.8739,288.179
2017-03-16 00:00:00,2017-03-16 00:00:00,TMP,surface,-105,27.8739,290.932
2017-03-16 00:00:00,2017-03-16 00:00:00,TMP,surface,-104.063,27.8739,291.526
2017-03-16 00:00:00,2017-03-16 00:00:00,TMP,surface,-103.125,27.8739,290.748
2017-03-16 00:00:00,2017-03-16 00:00:00,TMP,surface,-102.188,27.8739,291.04
2017-03-16 00:00:00,2017-03-16 00:00:00,TMP,surface,-101.25,27.8739,292.908
2017-03-16 00:00:00,2017-03-16 00:00:00,TMP,surface,-100.313,27.8739,295.284
2017-03-16 00:00:00,2017-03-16 00:00:00,TMP,surface,-99.3754,27.8739,296.454
2017-03-16 00:00:00,2017-03-16 00:00:00,TMP,surface,-98.4379,27.8739,296.704
2017-03-16 00:00:00,2017-03-16 00:00:00,TMP,surface,-97.5004,27.8739,298.108
2017-03-16 00:00:00,2017-03-16 00:00:00,TMP,surface,-96.5629,27.8739,299.588
2017-03-16 00:00:00,2017-03-16 00:00:00,TMP,surface,-95.6254,27.8739,299.67
2017-03-16 00:00:00,2017-03-16 00:00:00,TMP,surface,-94.6879,27.8739,299.459
2017-03-16 00:00:00,2017-03-16 00:00:00,TMP,surface,-93.7504,27.8739,299.16
2017-03-16 00:00:00,2017-03-16 00:00:00,TMP,surface,-92.8129,27.8739,299.139
2017-03-16 00:00:00,2017-03-16 00:00:00,TMP,surface,-107.813,28.8188,285.324
2017-03-16 00:00:00,2017-03-16 00:00:00,TMP,surface,-106.875,28.8188,285.804
2017-03-16 00:00:00,2017-03-16 00:00:00,TMP,surface,-105.938,28.8188,289.121
2017-03-16 00:00:00,2017-03-16 00:00:00,TMP,surface,-105,28.8188,290.958
2017-03-16 00:00:00,2017-03-16 00:00:00,TMP,surface,-104.063,28.8188,290.302
2017-03-16 00:00:00,2017-03-16 00:00:00,TMP,surface,-103.125,28.8188,289.961
2017-03-16 00:00:00,2017-03-16 00:00:00,TMP,surface,-102.188,28.8188,290.779
2017-03-16 00:00:00,2017-03-16 00:00:00,TMP,surface,-101.25,28.8188,292.636
2017-03-16 00:00:00,2017-03-16 00:00:00,TMP,surface,-100.313,28.8188,294.033
2017-03-16 00:00:00,2017-03-16 00:00:00,TMP,surface,-99.3754,28.8188,294.58
2017-03-16 00:00:00,2017-03-16 00:00:00,TMP,surface,-98.4379,28.8188,294.963
2017-03-16 00:00:00,2017-03-16 00:00:00,TMP,surface,-97.5004,28.8188,295.526
2017-03-16 00:00:00,2017-03-16 00:00:00,TMP,surface,-96.5629,28.8188,296
2017-03-16 00:00:00,2017-03-16 00:00:00,TMP,surface,-95.6254,28.8188,297.195
2017-03-16 00:00:00,2017-03-16 00:00:00,TMP,surface,-94.6879,28.8188,298.849
2017-03-16 00:00:00,2017-03-16 00:00:00,TMP,surface,-93.7504,28.8188,298.752
2017-03-16 00:00:00,2017-03-16 00:00:00,TMP,surface,-92.8129,28.8188,298.812
2017-03-16 00:00:00,2017-03-16 00:00:00,TMP,surface,-107.813,29.7637,286.726
2017-03-16 00:00:00,2017-03-16 00:00:00,TMP,surface,-106.875,29.7637,287.654
2017-03-16 00:00:00,2017-03-16 00:00:00,TMP,surface,-105.938,29.7637,289.593
2017-03-16 00:00:00,2017-03-16 00:00:00,TMP,surface,-105,29.7637,290.112
2017-03-16 00:00:00,2017-03-16 00:00:00,TMP,surface,-104.063,29.7637,289.894
2017-03-16 00:00:00,2017-03-16 00:00:00,TMP,surface,-103.125,29.7637,290.571
2017-03-16 00:00:00,2017-03-16 00:00:00,TMP,surface,-102.188,29.7637,291.747
2017-03-16 00:00:00,2017-03-16 00:00:00,TMP,surface,-101.25,29.7637,292.491
2017-03-16 00:00:00,2017-03-16 00:00:00,TMP,surface,-100.313,29.7637,292.66
2017-03-16 00:00:00,2017-03-16 00:00:00,TMP,surface,-99.3754,29.7637,292.814
2017-03-16 00:00:00,2017-03-16 00:00:00,TMP,surface,-98.4379,29.7637,293.435
2017-03-16 00:00:00,2017-03-16 00:00:00,TMP,surface,-97.5004,29.7637,294.14
2017-03-16 00:00:00,2017-03-16 00:00:00,TMP,surface,-96.5629,29.7637,294.459
2017-03-16 00:00:00,2017-03-16 00:00:00,TMP,surface,-95.6254,29.7637,294.532
2017-03-16 00:00:00,2017-03-16 00:00:00,TMP,surface,-94.6879,29.7637,295.932
2017-03-16 00:00:00,2017-03-16 00:00:00,TMP,surface,-93.7504,29.7637,297.699
2017-03-16 00:00:00,2017-03-16 00:00:00,TMP,surface,-92.8129,29.7637,294.051
2017-03-16 00:00:00,2017-03-16 00:00:00,TMP,surface,-107.813,30.7085,289.118
2017-03-16 00:00:00,2017-03-16 00:00:00,TMP,surface,-106.875,30.7085,289.985
2017-03-16 00:00:00,2017-03-16 00:00:00,TMP,surface,-105.938,30.7085,289.849
2017-03-16 00:00:00,2017-03-16 00:00:00,TMP,surface,-105,30.7085,289.246
2017-03-16 00:00:00,2017-03-16 00:00:00,TMP,surface,-104.063,30.7085,289.312
2017-03-16 00:00:00,2017-03-16 00:00:00,TMP,surface,-103.125,30.7085,290.728
2017-03-16 00:00:00,2017-03-16 00:00:00,TMP,surface,-102.188,30.7085,291.915
2017-03-16 00:00:00,2017-03-16 00:00:00,TMP,surface,-101.25,30.7085,292.054
2017-03-16 00:00:00,2017-03-16 00:00:00,TMP,surface,-100.313,30.7085,291.932
2017-03-16 00:00:00,2017-03-16 00:00:00,TMP,surface,-99.3754,30.7085,292.08
2017-03-16 00:00:00,2017-03-16 00:00:00,TMP,surface,-98.4379,30.7085,292.668
2017-03-16 00:00:00,2017-03-16 00:00:00,TMP,surface,-97.5004,30.7085,293.316
2017-03-16 00:00:00,2017-03-16 00:00:00,TMP,surface,-96.5629,30.7085,293.443
2017-03-16 00:00:00,2017-03-16 00:00:00,TMP,surface,-95.6254,30.7085,293.068
2017-03-16 00:00:00,2017-03-16 00:00:00,TMP,surface,-94.6879,30.7085,292.652
2017-03-16 00:00:00,2017-03-16 00:00:00,TMP,surface,-93.7504,30.7085,292.267
2017-03-16 00:00:00,2017-03-16 00:00:00,TMP,surface,-92.8129,30.7085,291.753
2017-03-16 00:00:00,2017-03-16 00:00:00,TMP,surface,-107.813,31.6534,289.262
2017-03-16 00:00:00,2017-03-16 00:00:00,TMP,surface,-106.875,31.6534,289.932
2017-03-16 00:00:00,2017-03-16 00:00:00,TMP,surface,-105.938,31.6534,289.03
2017-03-16 00:00:00,2017-03-16 00:00:00,TMP,surface,-105,31.6534,288.633
2017-03-16 00:00:00,2017-03-16 00:00:00,TMP,surface,-104.063,31.6534,289.476
2017-03-16 00:00:00,2017-03-16 00:00:00,TMP,surface,-103.125,31.6534,290.82
2017-03-16 00:00:00,2017-03-16 00:00:00,TMP,surface,-102.188,31.6534,291.595
2017-03-16 00:00:00,2017-03-16 00:00:00,TMP,surface,-101.25,31.6534,291.75
2017-03-16 00:00:00,2017-03-16 00:00:00,TMP,surface,-100.313,31.6534,291.876
2017-03-16 00:00:00,2017-03-16 00:00:00,TMP,surface,-99.3754,31.6534,292.302
2017-03-16 00:00:00,2017-03-16 00:00:00,TMP,surface,-98.4379,31.6534,292.817
2017-03-16 00:00:00,2017-03-16 00:00:00,TMP,surface,-97.5004,31.6534,293.083
2017-03-16 00:00:00,2017-03-16 00:00:00,TMP,surface,-96.5629,31.6534,292.897
2017-03-16 00:00:00,2017-03-16 00:00:00,TMP,surface,-95.6254,31.6534,292.353
2017-03-16 00:00:00,2017-03-16 00:00:00,TMP,surface,-94.6879,31.6534,291.71
2017-03-16 00:00:00,2017-03-16 00:00:00,TMP,surface,-93.7504,31.6534,291.152
2017-03-16 00:00:00,2017-03-16 00:00:00,TMP,surface,-92.8129,31.6534,290.912
2017-03-16 00:00:00,2017-03-16 00:00:00,TMP,surface,-107.813,32.5983,286.028
2017-03-16 00:00:00,2017-03-16 00:00:00,TMP,surface,-106.875,32.5983,286.595
2017-03-16 00:00:00,2017-03-16 00:00:00,TMP,surface,-105.938,32.5983,287.009
2017-03-16 00:00:00,2017-03-16 00:00:00,TMP,surface,-105,32.5983,287.558
2017-03-16 00:00:00,2017-03-16 00:00:00,TMP,surface,-104.063,32.5983,289.096
2017-03-16 00:00:00,2017-03-16 00:00:00,TMP,surface,-103.125,32.5983,290.294
2017-03-16 00:00:00,2017-03-16 00:00:00,TMP,surface,-102.188,32.5983,290.892
2017-03-16 00:00:00,2017-03-16 00:00:00,TMP,surface,-101.25,32.5983,291.39
2017-03-16 00:00:00,2017-03-16 00:00:00,TMP,surface,-100.313,32.5983,292.132
2017-03-16 00:00:00,2017-03-16 00:00:00,TMP,surface,-99.3754,32.5983,292.929
2017-03-16 00:00:00,2017-03-16 00:00:00,TMP,surface,-98.4379,32.5983,293.275
2017-03-16 00:00:00,2017-03-16 00:00:00,TMP,surface,-97.5004,32.5983,293.182
2017-03-16 00:00:00,2017-03-16 00:00:00,TMP,surface,-96.5629,32.5983,292.79
2017-03-16 00:00:00,2017-03-16 00:00:00,TMP,surface,-95.6254,32.5983,292.134
2017-03-16 00:00:00,2017-03-16 00:00:00,TMP,surface,-94.6879,32.5983,291.364
2017-03-16 00:00:00,2017-03-16 00:00:00,TMP,surface,-93.7504,32.5983,290.822
2017-03-16 00:00:00,2017-03-16 00:00:00,TMP,surface,-92.8129,32.5983,291.038
2017-03-16 00:00:00,2017-03-16 00:00:00,TMP,surface,-107.813,33.5432,282.364
2017-03-16 00:00:00,2017-03-16 00:00:00,TMP,surface,-106.875,33.5432,283.676
2017-03-16 00:00:00,2017-03-16 00:00:00,TMP,surface,-105.938,33.5432,284.987
2017-03-16 00:00:00,2017-03-16 00:00:00,TMP,surface,-105,33.5432,286.382
2017-03-16 00:00:00,2017-03-16 00:00:00,TMP,surface,-104.063,33.5432,288.329
2017-03-16 00:00:00,2017-03-16 00:00:00,TMP,surface,-103.125,33.5432,289.379
2017-03-16 00:00:00,2017-03-16 00:00:00,TMP,surface,-102.188,33.5432,290.044
2017-03-16 00:00:00,2017-03-16 00:00:00,TMP,surface,-101.25,33.5432,290.747
2017-03-16 00:00:00,2017-03-16 00:00:00,TMP,surface,-100.313,33.5432,291.712
2017-03-16 00:00:00,2017-03-16 00:00:00,TMP,surface,-99.3754,33.5432,292.71
2017-03-16 00:00:00,2017-03-16 00:00:00,TMP,surface,-98.4379,33.5432,293.083
2017-03-16 00:00:00,2017-03-16 00:00:00,TMP,surface,-97.5004,33.5432,292.808
2017-03-16 00:00:00,2017-03-16 00:00:00,TMP,surface,-96.5629,33.5432,292.334
2017-03-16 00:00:00,2017-03-16 00:00:00,TMP,surface,-95.6254,33.5432,291.74
2017-03-16 00:00:00,2017-03-16 00:00:00,TMP,surface,-94.6879,33.5432,291.032
2017-03-16 00:00:00,2017-03-16 00:00:00,TMP,surface,-93.7504,33.5432,290.635
2017-03-16 00:00:00,2017-03-16 00:00:00,TMP,surface,-92.8129,33.5432,290.657
2017-03-16 00:00:00,2017-03-16 00:00:00,TMP,surface,-107.813,34.4881,280.787
2017-03-16 00:00:00,2017-03-16 00:00:00,TMP,surface,-106.875,34.4881,282.361
2017-03-16 00:00:00,2017-03-16 00:00:00,TMP,surface,-105.938,34.4881,283.544
2017-03-16 00:00:00,2017-03-16 00:00:00,TMP,surface,-105,34.4881,285.112
2017-03-16 00:00:00,2017-03-16 00:00:00,TMP,surface,-104.063,34.4881,286.772
2017-03-16 00:00:00,2017-03-16 00:00:00,TMP,surface,-103.125,34.4881,288.004
2017-03-16 00:00:00,2017-03-16 00:00:00,TMP,surface,-102.188,34.4881,288.857
2017-03-16 00:00:00,2017-03-16 00:00:00,TMP,surface,-101.25,34.4881,289.596
2017-03-16 00:00:00,2017-03-16 00:00:00,TMP,surface,-100.313,34.4881,290.648
2017-03-16 00:00:00,2017-03-16 00:00:00,TMP,surface,-99.3754,34.4881,291.6
2017-03-16 00:00:00,2017-03-16 00:00:00,TMP,surface,-98.4379,34.4881,291.944
2017-03-16 00:00:00,2017-03-16 00:00:00,TMP,surface,-97.5004,34.4881,291.761
2017-03-16 00:00:00,2017-03-16 00:00:00,TMP,surface,-96.5629,34.4881,291.323
2017-03-16 00:00:00,2017-03-16 00:00:00,TMP,surface,-95.6254,34.4881,290.6
2017-03-16 00:00:00,2017-03-16 00:00:00,TMP,surface,-94.6879,34.4881,289.692
2017-03-16 00:00:00,2017-03-16 00:00:00,TMP,surface,-93.7504,34.4881,289.228
2017-03-16 00:00:00,2017-03-16 00:00:00,TMP,surface,-92.8129,34.4881,289.515
2017-03-16 00:00:00,2017-03-16 00:00:00,TMP,surface,-107.813,35.4329,280.846
2017-03-16 00:00:00,2017-03-16 00:00:00,TMP,surface,-106.875,35.4329,281.28
2017-03-16 00:00:00,2017-03-16 00:00:00,TMP,surface,-105.938,35.4329,281.806
2017-03-16 00:00:00,2017-03-16 00:00:00,TMP,surface,-105,35.4329,283.057
2017-03-16 00:00:00,2017-03-16 00:00:00,TMP,surface,-104.063,35.4329,285.225
2017-03-16 00:00:00,2017-03-16 00:00:00,TMP,surface,-103.125,35.4329,286.816
2017-03-16 00:00:00,2017-03-16 00:00:00,TMP,surface,-102.188,35.4329,287.689
2017-03-16 00:00:00,2017-03-16 00:00:00,TMP,surface,-101.25,35.4329,288.347
2017-03-16 00:00:00,2017-03-16 00:00:00,TMP,surface,-100.313,35.4329,289.2
2017-03-16 00:00:00,2017-03-16 00:00:00,TMP,surface,-99.3754,35.4329,289.921
2017-03-16 00:00:00,2017-03-16 00:00:00,TMP,surface,-98.4379,35.4329,290.393
2017-03-16 00:00:00,2017-03-16 00:00:00,TMP,surface,-97.5004,35.4329,290.649
2017-03-16 00:00:00,2017-03-16 00:00:00,TMP,surface,-96.5629,35.4329,290.64
2017-03-16 00:00:00,2017-03-16 00:00:00,TMP,surface,-95.6254,35.4329,290.07
2017-03-16 00:00:00,2017-03-16 00:00:00,TMP,surface,-94.6879,35.4329,289.012
2017-03-16 00:00:00,2017-03-16 00:00:00,TMP,surface,-93.7504,35.4329,288.22
2017-03-16 00:00:00,2017-03-16 00:00:00,TMP,surface,-92.8129,35.4329,287.872
2017-03-16 00:00:00,2017-03-16 00:00:00,TMP,surface,-107.813,36.3778,280.236
2017-03-16 00:00:00,2017-03-16 00:00:00,TMP,surface,-106.875,36.3778,278.59
2017-03-16 00:00:00,2017-03-16 00:00:00,TMP,surface,-105.938,36.3778,279.23
2017-03-16 00:00:00,2017-03-16 00:00:00,TMP,surface,-105,36.3778,281.003
2017-03-16 00:00:00,2017-03-16 00:00:00,TMP,surface,-104.063,36.3778,283.454
2017-03-16 00:00:00,2017-03-16 00:00:00,TMP,surface,-103.125,36.3778,285.515
2017-03-16 00:00:00,2017-03-16 00:00:00,TMP,surface,-102.188,36.3778,286.812
2017-03-16 00:00:00,2017-03-16 00:00:00,TMP,surface,-101.25,36.3778,287.571
2017-03-16 00:00:00,2017-03-16 00:00:00,TMP,surface,-100.313,36.3778,288.219
2017-03-16 00:00:00,2017-03-16 00:00:00,TMP,surface,-99.3754,36.3778,288.772
2017-03-16 00:00:00,2017-03-16 00:00:00,TMP,surface,-98.4379,36.3778,288.993
2017-03-16 00:00:00,2017-03-16 00:00:00,TMP,surface,-97.5004,36.3778,289.273
2017-03-16 00:00:00,2017-03-16 00:00:00,TMP,surface,-96.5629,36.3778,289.486
2017-03-16 00:00:00,2017-03-16 00:00:00,TMP,surface,-95.6254,36.3778,289.006
2017-03-16 00:00:00,2017-03-16 00:00:00,TMP,surface,-94.6879,36.3778,287.921
2017-03-16 00:00:00,2017-03-16 00:00:00,TMP,surface,-93.7504,36.3778,286.905
2017-03-16 00:00:00,2017-03-16 00:00:00,TMP,surface,-92.8129,36.3778,286.518
2017-03-16 00:00:00,2017-03-16 00:00:00,PRATE,surface,-107.813,25.0393,8.48e-05
2017-03-16 00:00:00,2017-03-16 00:00:00,PRATE,surface,-106.875,25.0393,8.5e-05
2017-03-16 00:00:00,2017-03-16 00:00:00,PRATE,surface,-105.938,25.0393,7.45e-05
2017-03-16 00:00:00,2017-03-16 00:00:00,PRATE,surface,-105,25.0393,5.24e-05
2017-03-16 00:00:00,2017-03-16 00:00:00,PRATE,surface,-104.063,25.0393,3.37e-05
2017-03-16 00:00:00,2017-03-16 00:00:00,PRATE,surface,-103.125,25.0393,1.65e-05
2017-03-16 00:00:00,2017-03-16 00:00:00,PRATE,surface,-102.188,25.0393,1.79e-05
2017-03-16 00:00:00,2017-03-16 00:00:00,PRATE,surface,-101.25,25.0393,3.81e-05
2017-03-16 00:00:00,2017-03-16 00:00:00,PRATE,surface,-100.313,25.0393,4.86e-05
2017-03-16 00:00:00,2017-03-16 00:00:00,PRATE,surface,-99.3754,25.0393,5.2e-05
2017-03-16 00:00:00,2017-03-16 00:00:00,PRATE,surface,-98.4379,25.0393,5.49e-05
2017-03-16 00:00:00,2017-03-16 00:00:00,PRATE,surface,-97.5004,25.0393,5.18e-05
2017-03-16 00:00:00,2017-03-16 00:00:00,PRATE,surface,-96.5629,25.0393,2.67e-05
2017-03-16 00:00:00,2017-03-16 00:00:00,PRATE,surface,-95.6254,25.0393,1.16e-05
2017-03-16 00:00:00,2017-03-16 00:00:00,PRATE,surface,-94.6879,25.0393,6.8e-06
2017-03-16 00:00:00,2017-03-16 00:00:00,PRATE,surface,-93.7504,25.0393,7.7e-06
2017-03-16 00:00:00,2017-03-16 00:00:00,PRATE,surface,-92.8129,25.0393,1.23e-05
2017-03-16 00:00:00,2017-03-16 00:00:00,PRATE,surface,-107.813,25.9842,9.92e-05
2017-03-16 00:00:00,2017-03-16 00:00:00,PRATE,surface,-106.875,25.9842,0.000101
2017-03-16 00:00:00,2017-03-16 00:00:00,PRATE,surface,-105.938,25.9842,6.56e-05
2017-03-16 00:00:00,2017-03-16 00:00:00,PRATE,surface,-105,25.9842,4.65e-05
2017-03-16 00:00:00,2017-03-16 00:00:00,PRATE,surface,-104.063,25.9842,2.42e-05
2017-03-16 00:00:00,2017-03-16 00:00:00,PRATE,surface,-103.125,25.9842,2.12e-05
2017-03-16 00:00:00,2017-03-16 00:00:00,PRATE,surface,-102.188,25.9842,2.48e-05
2017-03-16 00:00:00,2017-03-16 00:00:00,PRATE,surface,-101.25,25.9842,3.99e-05
2017-03-16 00:00:00,2017-03-16 00:00:00,PRATE,surface,-100.313,25.9842,5.43e-05
2017-03-16 00:00:00,2017-03-16 00:00:00,PRATE,surface,-99.3754,25.9842,5.19e-05
2017-03-16 00:00:00,2017-03-16 00:00:00,PRATE,surface,-98.4379,25.9842,5.44e-05
2017-03-16 00:00:00,2017-03-16 00:00:00,PRATE,surface,-97.5004,25.9842,4.07e-05
2017-03-16 00:00:00,2017-03-16 00:00:00,PRATE,surface,-96.5629,25.9842,2.35e-05
2017-03-16 00:00:00,2017-03-16 00:00:00,PRATE,surface,-95.6254,25.9842,1.48e-05
2017-03-16 00:00:00,2017-03-16 00:00:00,PRATE,surface,-94.6879,25.9842,9.8e-06
2017-03-16 00:00:00,2017-03-16 00:00:00,PRATE,surface,-93.7504,25.9842,7.3e-06
2017-03-16 00:00:00,2017-03-16 00:00:00,PRATE,surface,-92.8129,25.9842,8.9e-06
2017-03-16 00:00:00,2017-03-16 00:00:00,PRATE,surface,-107.813,26.929,0.0001035
2017-03-16 00:00:00,2017-03-16 00:00:00,PRATE,surface,-106.875,26.929,0.0001005
2017-03-16 00:00:00,2017-03-16 00:00:00,PRATE,surface,-105.938,26.929,7.93e-05
2017-03-16 00:00:00,2017-03-16 00:00:00,PRATE,surface,-105,26.929,5e-05
2017-03-16 00:00:00,2017-03-16 00:00:00,PRATE,surface,-104.063,26.929,2.82e-05
2017-03-16 00:00:00,2017-03-16 00:00:00,PRATE,surface,-103.125,26.929,3.3e-05
2017-03-16 00:00:00,2017-03-16 00:00:00,PRATE,surface,-102.188,26.929,3.3e-05
2017-03-16 00:00:00,2017-03-16 00:00:00,PRATE,surface,-101.25,26.929,3.94e-05
2017-03-16 00:00:00,2017-03-16 00:00:00,PRATE,surface,-100.313,26.929,4.25e-05
2017-03-16 00:00:00,2017-03-16 00:00:00,PRATE,surface,-99.3754,26.929,3.82e-05
2017-03-16 00:00:00,2017-03-16 00:00:00,PRATE,surface,-98.4379,26.929,3.09e-05
2017-03-16 00:00:00,2017-03-16 00:00:00,PRATE,surface,-97.5004,26.929,3.22e-05
2017-03-16 00:00:00,2017-03-16 00:00:00,PRATE,surface,-96.5629,26.929,2.04e-05
2017-03-16 00:00:00,2017-03-16 00:00:00,PRATE,surface,-95.6254,26.929,1.76e-05
2017-03-16 00:00:00,2017-03-16 00:00:00,PRATE,surface,-94.6879,26.929,1.73e-05
2017-03-16 00:00:00,2017-03-16 00:00:00,PRATE,surface,-93.7504,26.929,1.13e-05
2017-03-16 00:00:00,2017-03-16 00:00:00,PRATE,surface,-92.8129,26.929,1.15e-05
2017-03-16 00:00:00,2017-03-16 00:00:00,PRATE,surface,-107.813,27.8739,7.55e-05
2017-03-16 00:00:00,2017-03-16 00:00:00,PRATE,surface,-106.875,27.8739,6.83e-05
2017-03-16 00:00:00,2017-03-16 00:00:00,PRATE,surface,-105.938,27.8739,5.61e-05
2017-03-16 00:00:00,2017-03-16 00:00:00,PRATE,surface,-105,27.8739,4.02e-05
2017-03-16 00:00:00,2017-03-16 00:00:00,PRATE,surface,-104.063,27.8739,4.65e-05
2017-03-16 00:00:00,2017-03-16 00:00:00,PRATE,surface,-103.125,27.8739,5.45e-05
2017-03-16 00:00:00,2017-03-16 00:00:00,PRATE,surface,-102.188,27.8739,4.83e-05
2017-03-16 00:00:00,2017-03-16 00:00:00,PRATE,surface,-101.25,27.8739,4.09e-05
2017-03-16 00:00:00,2017-03-16 00:00:00,PRATE,surface,-100.313,27.8739,3.05e-05
2017-03-16 00:00:00,2017-03-16 00:00:00,PRATE,surface,-99.3754,27.8739,2.26e-05
2017-03-16 00:00:00,2017-03-16 00:00:00,PRATE,surface,-98.4379,27.8739,1.76e-05
2017-03-16 00:00:00,2017-03-16 00:00:00,PRATE,surface,-97.5004,27.8739,1.6e-05
2017-03-16 00:00:00,2017-03-16 00:00:00,PRATE,surface,-96.5629,27.8739,1.72e-05
2017-03-16 00:00:00,2017-03-16 00:00:00,PRATE,surface,-95.6254,27.8739,1.49e-05
2017-03-16 00:00:00,2017-03-16 00:00:00,PRATE,surface,-94.6879,27.8739,1e-05
2017-03-16 00:00:00,2017-03-16 00:00:00,PRATE,surface,-93.7504,27.8739,1.06e-05
2017-03-16 00:00:00,2017-03-16 00:00:00,PRATE,surface,-92.8129,27.8739,1e-05
2017-03-16 00:00:00,2017-03-16 00:00:00,PRATE,surface,-107.813,28.8188,4.45e-05
2017-03-16 00:00:00,2017-03-16 00:00:00,PRATE,surface,-106.875,28.8188,4.31e-05
2017-03-16 00:00:00,2017-03-16 00:00:00,PRATE,surface,-105.938,28.8188,2.88e-05
2017-03-16 00:00:00,2017-03-16 00:00:00,PRATE,surface,-105,28.8188,2.78e-05
2017-03-16 00:00:00,2017-03-16 00:00:00,PRATE,surface,-104.063,28.8188,3.88e-05
2017-03-16 00:00:00,2017-03-16 00:00:00,PRATE,surface,-103.125,28.8188,4.69e-05
2017-03-16 00:00:00,2017-03-16 00:00:00,PRATE,surface,-102.188,28.8188,4.82e-05
2017-03-16 00:00:00,2017-03-16 00:00:00,PRATE,surface,-101.25,28.8188,4.47e-05
2017-03-16 00:00:00,2017-03-16 00:00:00,PRATE,surface,-100.313,28.8188,3.75e-05
2017-03-16 00:00:00,2017-03-16 00:00:00,PRATE,surface,-99.3754,28.8188,3.25e-05
2017-03-16 00:00:00,2017-03-16 00:00:00,PRATE,surface,-98.4379,28.8188,2.56e-05
2017-03-16 00:00:00,2017-03-16 00:00:00,PRATE,surface,-97.5004,28.8188,1.84e-05
2017-03-16 00:00:00,2017-03-16 00:00:00,PRATE,surface,-96.5629,28.8188,1.77e-05
2017-03-16 00:00:00,2017-03-16 00:00:00,PRATE,surface,-95.6254,28.8188,2.23e-05
2017-03-16 00:00:00,2017-03-16 00:00:00,PRATE,surface,-94.6879,28.8188,2.41e-05
2017-03-16 00:00:00,2017-03-16 00:00:00,PRATE,surface,-93.7504,28.8188,2.04e-05
2017-03-16 00:00:00,2017-03-16 00:00:00,PRATE,surface,-92.8129,28.8188,1.82e-05
2017-03-16 00:00:00,2017-03-16 00:00:00,PRATE,surface,-107.813,29.7637,2.33e-05
2017-03-16 00:00:00,2017-03-16 00:00:00,PRATE,surface,-106.875,29.7637,2.1e-05
2017-03-16 00:00:00,2017-03-16 00:00:00,PRATE,surface,-105.938,29.7637,1.87e-05
2017-03-16 00:00:00,2017-03-16 00:00:00,PRATE,surface,-105,29.7637,2.4e-05
2017-03-16 00:00:00,2017-03-16 00:00:00,PRATE,surface,-104.063,29.7637,3.28e-05
2017-03-16 00:00:00,2017-03-16 00:00:00,PRATE,surface,-103.125,29.7637,2.9e-05
2017-03-16 00:00:00,2017-03-16 00:00:00,PRATE,surface,-102.188,29.7637,2.21e-05
2017-03-16 00:00:00,2017-03-16 00:00:00,PRATE,surface,-101.25,29.7637,2.74e-05
2017-03-16 00:00:00,2017-03-16 00:00:00,PRATE,surface,-100.313,29.7637,3.26e-05
2017-03-16 00:00:00,2017-03-16 00:00:00,PRATE,surface,-99.3754,29.7637,2.94e-05
2017-03-16 00:00:00,2017-03-16 00:00:00,PRATE,surface,-98.4379,29.7637,2.4e-05
2017-03-16 00:00:00,2017-03-16 00:00:00,PRATE,surface,-97.5004,29.7637,2.23e-05
2017-03-16 00:00:00,2017-03-16 00:00:00,PRATE,surface,-96.5629,29.7637,2.73e-05
2017-03-16 00:00:00,2017-03-16 00:00:00,PRATE,surface,-95.6254,29.7637,3.25e-05
2017-03-16 00:00:00,2017-03-16 00:00:00,PRATE,surface,-94.6879,29.7637,3.56e-05
2017-03-16 00:00:00,2017-03-16 00:00:00,PRATE,surface,-93.7504,29.7637,4.01e-05
2017-03-16 00:00:00,2017-03-16 00:00:00,PRATE,surface,-92.8129,29.7637,2.69e-05
2017-03-16 00:00:00,2017-03-16 00:00:00,PRATE,surface,-107.813,30.7085,8.4e-06
2017-03-16 00:00:00,2017-03-16 00:00:00,PRATE,surface,-106.875,30.7085,8.3e-06
2017-03-16 00:00:00,2017-03-16 00:00:00,PRATE,surface,-105.938,30.7085,1.27e-05
2017-03-16 00:00:00,2017-03-16 00:00:00,PRATE,surface,-105,30.7085,2.29e-05
2017-03-16 00:00:00,2017-03-16 00:00:00,PRATE,surface,-104.063,30.7085,2.86e-05
2017-03-16 00:00:00,2017-03-16 00:00:00,PRATE,surface,-103.125,30.7085,2.27e-05
2017-03-16 00:00:00,2017-03-16 00:00:00,PRATE,surface,-102.188,30.7085,1.8e-05
2017-03-16 00:00:00,2017-03-16 00:00:00,PRATE,surface,-101.25,30.7085,2.03e-05
2017-03-16 00:00:00,2017-03-16 00:00:00,PRATE,surface,-100.313,30.7085,3.31e-05
2017-03-16 00:00:00,2017-03-16 00:00:00,PRATE,surface,-99.3754,30.7085,4.5e-05
2017-03-16 00:00:00,2017-03-16 00:00:00,PRATE,surface,-98.4379,30.7085,4.21e-05
2017-03-16 00:00:00,2017-03-16 00:00:00,PRATE,surface,-97.5004,30.7085,3.01e-05
2017-03-16 00:00:00,2017-03-16 00:00:00,PRATE,surface,-96.5629,30.7085,2.45e-05
2017-03-16 00:00:00,2017-03-16 00:00:00,PRATE,surface,-95.6254,30.7085,2.91e-05
2017-03-16 00:00:00,2017-03-16 00:00:00,PRATE,surface,-94.6879,30.7085,3.5e-05
2017-03-16 00:00:00,2017-03-16 00:00:00,PRATE,surface,-93.7504,30.7085,3.51e-05
2017-03-16 00:00:00,2017-03-16 00:00:00,PRATE,surface,-92.8129,30.7085,3.04e-05
2017-03-16 00:00:00,2017-03-16 00:00:00,PRATE,surface,-107.813,31.6534,9.6e-06
2017-03-16 00:00:00,2017-03-16 00:00:00,PRATE,surface,-106.875,31.6534,6.9e-06
2017-03-16 00:00:00,2017-03-16 00:00:00,PRATE,surface,-105.938,31.6534,1.07e-05
2017-03-16 00:00:00,2017-03-16 00:00:00,PRATE,surface,-105,31.6534,1.39e-05
2017-03-16 00:00:00,2017-03-16 00:00:00,PRATE,surface,-104.063,31.6534,1.56e-05
2017-03-16 00:00:00,2017-03-16 00:00:00,PRATE,surface,-103.125,31.6534,1.15e-05
2017-03-16 00:00:00,2017-03-16 00:00:00,PRATE,surface,-102.188,31.6534,1.15e-05
2017-03-16 00:00:00,2017-03-16 00:00:00,PRATE,surface,-101.25,31.6534,1.61e-05
2017-03-16 00:00:00,2017-03-16 00:00:00,PRATE,surface,-100.313,31.6534,2.52e-05
2017-03-16 00:00:00,2017-03-16 00:00:00,PRATE,surface,-99.3754,31.6534,3.51e-05
2017-03-16 00:00:00,2017-03-16 00:00:00,PRATE,surface,-98.4379,31.6534,3.87e-05
2017-03-16 00:00:00,2017-03-16 00:00:00,PRATE,surface,-97.5004,31.6534,4.06e-05
2017-03-16 00:00:00,2017-03-16 00:00:00,PRATE,surface,-96.5629,31.6534,3.9e-05
2017-03-16 00:00:00,2017-03-16 00:00:00,PRATE,surface,-95.6254,31.6534,3.37e-05
2017-03-16 00:00:00,2017-03-16 00:00:00,PRATE,surface,-94.6879,31.6534,3.27e-05
2017-03-16 00:00:00,2017-03-16 00:00:00,PRATE,surface,-93.7504,31.6534,3.13e-05
2017-03-16 00:00:00,2017-03-16 00:00:00,PRATE,surface,-92.8129,31.6534,2.87e-05
2017-03-16 00:00:00,2017-03-16 00:00:00,PRATE,surface,-107.813,32.5983,2.92e-05
2017-03-16 00:00:00,2017-03-16 00:00:00,PRATE,surface,-106.875,32.5983,2.12e-05
2017-03-16 00:00:00,2017-03-16 00:00:00,PRATE,surface,-105.938,32.5983,1.57e-05
2017-03-16 00:00:00,2017-03-16 00:00:00,PRATE,surface,-105,32.5983,1.27e-05
2017-03-16 00:00:00,2017-03-16 00:00:00,PRATE,surface,-104.063,32.5983,7.5e-06
2017-03-16 00:00:00,2017-03-16 00:00:00,PRATE,surface,-103.125,32.5983,3.8e-06
2017-03-16 00:00:00,2017-03-16 00:00:00,PRATE,surface,-102.188,32.5983,3.5e-06
2017-03-16 00:00:00,2017-03-16 00:00:00,PRATE,surface,-101.25,32.5983,6.8e-06
2017-03-16 00:00:00,2017-03-16 00:00:00,PRATE,surface,-100.313,32.5983,8.4e-06
2017-03-16 00:00:00,2017-03-16 00:00:00,PRATE,surface,-99.3754,32.5983,1.07e-05
2017-03-16 00:00:00,2017-03-16 00:00:00,PRATE,surface,-98.4379,32.5983,1.69e-05
2017-03-16 00:00:00,2017-03-16 00:00:00,PRATE,surface,-97.5004,32.5983,2.52e-05
2017-03-16 00:00:00,2017-03-16 00:00:00,PRATE,surface,-96.5629,32.5983,3.23e-05
2017-03-16 00:00:00,2017-03-16 00:00:00,PRATE,surface,-95.6254,32.5983,3.4e-05
2017-03-16 00:00:00,2017-03-16 00:00:00,PRATE,surface,-94.6879,32.5983,2.94e-05
2017-03-16 00:00:00,2017-03-16 00:00:00,PRATE,surface,-93.7504,32.5983,2.5e-05
2017-03-16 00:00:00,2017-03-16 00:00:00,PRATE,surface,-92.8129,32.5983,2.31e-05
2017-03-16 00:00:00,2017-03-16 00:00:00,PRATE,surface,-107.813,33.5432,3.9e-05
2017-03-16 00:00:00,2017-03-16 00:00:00,PRATE,surface,-106.875,33.5432,3.36e-05
2017-03-16 00:00:00,2017-03-16 00:00:00,PRATE,surface,-105.938,33.5432,2.16e-05
2017-03-16 00:00:00,2017-03-16 00:00:00,PRATE,surface,-105,33.5432,1.31e-05
2017-03-16 00:00:00,2017-03-16 00:00:00,PRATE,surface,-104.063,33.5432,9.4e-06
2017-03-16 00:00:00,2017-03-16 00:00:00,PRATE,surface,-103.125,33.5432,8.2e-06
2017-03-16 00:00:00,2017-03-16 00:00:00,PRATE,surface,-102.188,33.5432,9.2e-06
2017-03-16 00:00:00,2017-03-16 00:00:00,PRATE,surface,-101.25,33.5432,1.07e-05
2017-03-16 00:00:00,2017-03-16 00:00:00,PRATE,surface,-100.313,33.5432,1.09e-05
2017-03-16 00:00:00,2017-03-16 00:00:00,PRATE,surface,-99.3754,33.5432,1.35e-05
2017-03-16 00:00:00,2017-03-16 00:00:00,PRATE,surface,-98.4379,33.5432,1.8e-05
2017-03-16 00:00:00,2017-03-16 00:00:00,PRATE,surface,-97.5004,33.5432,2.25e-05
2017-03-16 00:00:00,2017-03-16 00:00:00,PRATE,surface,-96.5629,33.5432,2.93e-05
2017-03-16 00:00:00,2017-03-16 00:00:00,PRATE,surface,-95.6254,33.5432,3.41e-05
2017-03-16 00:00:00,2017-03-16 00:00:00,PRATE,surface,-94.6879,33.5432,3.24e-05
2017-03-16 00:00:00,2017-03-16 00:00:00,PRATE,surface,-93.7504,33.5432,2.97e-05
2017-03-16 00:00:00,2017-03-16 00:00:00,PRATE,surface,-92.8129,33.5432,2.3e-05
2017-03-16 00:00:00,2017-03-16 00:00:00,PRATE,surface,-107.813,34.4881,2.94e-05
2017-03-16 00:00:00,2017-03-16 00:00:00,PRATE,surface,-106.875,34.4881,2.52e-05
2017-03-16 00:00:00,2017-03-16 00:00:00,PRATE,surface,-105.938,34.4881,2.17e-05
2017-03-16 00:00:00,2017-03-16 00:00:00,PRATE,surface,-105,34.4881,1.63e-05
2017-03-16 00:00:00,2017-03-16 00:00:00,PRATE,surface,-104.063,34.4881,1.19e-05
2017-03-16 00:00:00,2017-03-16 00:00:00,PRATE,surface,-103.125,34.4881,1.12e-05
2017-03-16 00:00:00,2017-03-16 00:00:00,PRATE,surface,-102.188,34.4881,1.17e-05
2017-03-16 00:00:00,2017-03-16 00:00:00,PRATE,surface,-101.25,34.4881,1.26e-05
2017-03-16 00:00:00,2017-03-16 00:00:00,PRATE,surface,-100.313,34.4881,1.36e-05
2017-03-16 00:00:00,2017-03-16 00:00:00,PRATE,surface,-99.3754,34.4881,1.53e-05
2017-03-16 00:00:00,2017-03-16 00:00:00,PRATE,surface,-98.4379,34.4881,2.15e-05
2017-03-16 00:00:00,2017-03-16 00:00:00,PRATE,surface,-97.5004,34.4881,2.85e-05
2017-03-16 00:00:00,2017-03-16 00:00:00,PRATE,surface,-96.5629,34.4881,3.5e-05
2017-03-16 00:00:00,2017-03-16 00:00:00,PRATE,surface,-95.6254,34.4881,4.12e-05
2017-03-16 00:00:00,2017-03-16 00:00:00,PRATE,surface,-94.6879,34.4881,4.32e-05
2017-03-16 00:00:00,2017-03-16 00:00:00,PRATE,surface,-93.7504,34.4881,4.01e-05
2017-03-16 00:00:00,2017-03-16 00:00:00,PRATE,surface,-92.8129,34.4881,3.18e-05
2017-03-16 00:00:00,2017-03-16 00:00:00,PRATE,surface,-107.813,35.4329,2.76e-05
2017-03-16 00:00:00,2017-03-16 00:00:00,PRATE,surface,-106.875,35.4329,2.58e-05
2017-03-16 00:00:00,2017-03-16 00:00:00,PRATE,surface,-105.938,35.4329,2.4e-05
2017-03-16 00:00:00,2017-03-16 00:00:00,PRATE,surface,-105,35.4329,2.19e-05
2017-03-16 00:00:00,2017-03-16 00:00:00,PRATE,surface,-104.063,35.4329,2.42e-05
2017-03-16 00:00:00,2017-03-16 00:00:00,PRATE,surface,-103.125,35.4329,1.9e-05
2017-03-16 00:00:00,2017-03-16 00:00:00,PRATE,surface,-102.188,35.4329,1.35e-05
2017-03-16 00:00:00,2017-03-16 00:00:00,PRATE,surface,-101.25,35.4329,1.26e-05
2017-03-16 00:00:00,2017-03-16 00:00:00,PRATE,surface,-100.313,35.4329,1.38e-05
2017-03-16 00:00:00,2017-03-16 00:00:00,PRATE,surface,-99.3754,35.4329,1.53e-05
2017-03-16 00:00:00,2017-03-16 00:00:00,PRATE,surface,-98.4379,35.4329,2.07e-05
2017-03-16 00:00:00,2017-03-16 00:00:00,PRATE,surface,-97.5004,35.4329,2.99e-05
2017-03-16 00:00:00,2017-03-16 00:00:00,PRATE,surface,-96.5629,35.4329,3.63e-05
2017-03-16 00:00:00,2017-03-16 00:00:00,PRATE,surface,-95.6254,35.4329,4.51e-05
2017-03-16 00:00:00,2017-03-16 00:00:00,PRATE,surface,-94.6879,35.4329,5.62e-05
2017-03-16 00:00:00,2017-03-16 00:00:00,PRATE,surface,-93.7504,35.4329,5.05e-05
2017-03-16 00:00:00,2017-03-16 00:00:00,PRATE,surface,-92.8129,35.4329,3.97e-05
2017-03-16 00:00:00,2017-03-16 00:00:00,PRATE,surface,-107.813,36.3778,3.83e-05
2017-03-16 00:00:00,2017-03-16 00:00:00,PRATE,surface,-106.875,36.3778,3.7e-05
2017-03-16 00:00:00,2017-03-16 00:00:00,PRATE,surface,-105.938,36.3778,2.84e-05
2017-03-16 00:00:00,2017-03-16 00:00:00,PRATE,surface,-105,36.3778,2.33e-05
2017-03-16 00:00:00,2017-03-16 00:00:00,PRATE,surface,-104.063,36.3778,2.5e-05
2017-03-16 00:00:00,2017-03-16 00:00:00,PRATE,surface,-103.125,36.3778,2.21e-05
2017-03-16 00:00:00,2017-03-16 00:00:00,PRATE,surface,-102.188,36.3778,1.86e-05
2017-03-16 00:00:00,2017-03-16 00:00:00,PRATE,surface,-101.25,36.3778,1.74e-05
2017-03-16 00:00:00,2017-03-16 00:00:00,PRATE,surface,-100.313,36.3778,1.8e-05
2017-03-16 00:00:00,2017-03-16 00:00:00,PRATE,surface,-99.3754,36.3778,1.79e-05
2017-03-16 00:00:00,2017-03-16 00:00:00,PRATE,surface,-98.4379,36.3778,1.85e-05
2017-03-16 00:00:00,2017-03-16 00:00:00,PRATE,surface,-97.5004,36.3778,2.36e-05
2017-03-16 00:00:00,2017-03-16 00:00:00,PRATE,surface,-96.5629,36.3778,3.11e-05
2017-03-16 00:00:00,2017-03-16 00:00:00,PRATE,surface,-95.6254,36.3778,4.09e-05
2017-03-16 00:00:00,2017-03-16 00:00:00,PRATE,surface,-94.6879,36.3778,5.35e-05
2017-03-16 00:00:00,2017-03-16 00:00:00,PRATE,surface,-93.7504,36.3778,5.76e-05
2017-03-16 00:00:00,2017-03-16 00:00:00,PRATE,surface,-92.8129,36.3778,5.09e-05
