2013-04-21 00:00:00,2013-04-21 00:00:00,TMP,surface,-107.813,25.0393,300.877
2013-04-21 00:00:00,2013-04-21 00:00:00,TMP,surface,-106.875,25.0393,293.651
2013-04-21 00:00:00,2013-04-21 00:00:00,TMP,surface,-105.938,25.0393,288.272
2013-04-21 00:00:00,2013-04-21 00:00:00,TMP,surface,-105,25.0393,286.296
2013-04-21 00:00:00,2013-04-21 00:00:00,TMP,surface,-104.063,25.0393,289.397
2013-04-21 00:00:00,2013-04-21 00:00:00,TMP,surface,-103.125,25.0393,292.039
2013-04-21 00:00:00,2013-04-21 00:00:00,TMP,surface,-102.188,25.0393,291.432
2013-04-21 00:00:00,2013-04-21 00:00:00,TMP,surface,-101.25,25.0393,289.103
2013-04-21 00:00:00,2013-04-21 00:00:00,TMP,surface,-100.313,25.0393,289.207
2013-04-21 00:00:00,2013-04-21 00:00:00,TMP,surface,-99.3754,25.0393,292.219
2013-04-21 00:00:00,2013-04-21 00:00:00,TMP,surface,-98.4379,25.0393,295.618
2013-04-21 00:00:00,2013-04-21 00:00:00,TMP,surface,-97.5004,25.0393,300.131
2013-04-21 00:00:00,2013-04-21 00:00:00,TMP,surface,-96.5629,25.0393,300.383
2013-04-21 00:00:00,2013-04-21 00:00:00,TMP,surface,-95.6254,25.0393,300.506
2013-04-21 00:00:00,2013-04-21 00:00:00,TMP,surface,-94.6879,25.0393,300.677
2013-04-21 00:00:00,2013-04-21 00:00:00,TMP,surface,-93.7504,25.0393,300.511
2013-04-21 00:00:00,2013-04-21 00:00:00,TMP,surface,-92.8129,25.0393,300.291
2013-04-21 00:00:00,2013-04-21 00:00:00,TMP,surface,-107.813,25.9842,296.186
2013-04-21 00:00:00,2013-04-21 00:00:00,TMP,surface,-106.875,25.9842,289.583
2013-04-21 00:00:00,2013-04-21 00:00:00,TMP,surface,-105.938,25.9842,286.653
2013-04-21 00:00:00,2013-04-21 00:00:00,TMP,surface,-105,25.9842,287.983
2013-04-21 00:00:00,2013-04-21 00:00:00,TMP,surface,-104.063,25.9842,292.119
2013-04-21 00:00:00,2013-04-21 00:00:00,TMP,surface,-103.125,25.9842,293.984
2013-04-21 00:00:00,2013-04-21 00:00:00,TMP,surface,-102.188,25.9842,292.963
2013-04-21 00:00:00,2013-04-21 00:00:00,TMP,surface,-101.25,25.9842,291.421
2013-04-21 00:00:00,2013-04-21 00:00:00,TMP,surface,-100.313,25.9842,291.8
2013-04-21 00:00:00,2013-04-21 00:00:00,TMP,surface,-99.3754,25.9842,294.739
2013-04-21 00:00:00,2013-04-21 00:00:00,TMP,surface,-98.4379,25.9842,296.386
2013-04-21 00:00:00,2013-04-21 00:00:00,TMP,surface,-97.5004,25.9842,296.773
2013-04-21 00:00:00,2013-04-21 00:00:00,TMP,surface,-96.5629,25.9842,299.739
2013-04-21 00:00:00,2013-04-21 00:00:00,TMP,surface,-95.6254,25.9842,300.115
2013-04-21 00:00:00,2013-04-21 00:00:00,TMP,surface,-94.6879,25.9842,300.176
2013-04-21 00:00:00,2013-04-21 00:00:00,TMP,surface,-93.7504,25.9842,300.155
2013-04-21 00:00:00,2013-04-21 00:00:00,TMP,surface,-92.8129,25.9842,300.215
2013-04-21 00:00:00,2013-04-21 00:00:00,TMP,surface,-107.813,26.929,290.683
2013-04-21 00:00:00,2013-04-21 00:00:00,TMP,surface,-106.875,26.929,286.899
2013-04-21 00:00:00,2013-04-21 00:00:00,TMP,surface,-105.938,26.929,287.661
2013-04-21 00:00:00,2013-04-21 00:00:00,TMP,surface,-105,26.929,290.85
2013-04-21 00:00:00,2013-04-21 00:00:00,TMP,surface,-104.063,26.929,293.007
2013-04-21 00:00:00,2013-04-21 00:00:00,TMP,surface,-103.125,26.929,292.882
2013-04-21 00:00:00,2013-04-21 00:00:00,TMP,surface,-102.188,26.929,291.871
2013-04-21 00:00:00,2013-04-21 00:00:00,TMP,surface,-101.25,26.929,292.587
2013-04-21 00:00:00,2013-04-21 00:00:00,TMP,surface,-100.313,26.929,294.472
2013-04-21 00:00:00,2013-04-21 00:00:00,TMP,surface,-99.3754,26.929,295.987
2013-04-21 00:00:00,2013-04-21 00:00:00,TMP,surface,-98.4379,26.929,295.725
2013-04-21 00:00:00,2013-04-21 00:00:00,TMP,surface,-97.5004,26.929,298.784
2013-04-21 00:00:00,2013-04-21 00:00:00,TMP,surface,-96.5629,26.929,299.307
2013-04-21 00:00:00,2013-04-21 00:00:00,TMP,surface,-95.6254,26.929,299.853
2013-04-21 00:00:00,2013-04-21 00:00:00,TMP,surface,-94.6879,26.929,299.93
2013-04-21 00:00:00,2013-04-21 00:00:00,TMP,surface,-93.7504,26.929,299.85
2013-04-21 00:00:00,2013-04-21 00:00:00,TMP,surface,-92.8129,26.929,299.872
2013-04-21 00:00:00,2013-04-21 00:00:00,TMP,surface,-107.813,27.8739,287.712
2013-04-21 00:00:00,2013-04-21 00:00:00,TMP,surface,-106.875,27.8739,286.047
2013-04-21 00:00:00,2013-04-21 00:00:00,TMP,surface,-105.938,27.8739,289.029
2013-04-21 00:00:00,2013-04-21 00:00:00,TMP,surface,-105,27.8739,291.794
2013-04-21 00:00:00,2013-04-21 00:00:00,TMP,surface,-104.063,27.8739,292.272
2013-04-21 00:00:00,2013-04-21 00:00:00,TMP,surface,-103.125,27.8739,291.091
2013-04-21 00:00:00,2013-04-21 00:00:00,TMP,surface,-102.188,27.8739,290.855
2013-04-21 00:00:00,2013-04-21 00:00:00,TMP,surface,-101.25,27.8739,292.851
2013-04-21 00:00:00,2013-04-21 00:00:00,TMP,surface,-100.313,27.8739,294.939
2013-04-21 00:00:00,2013-04-21 00:00:00,TMP,surface,-99.3754,27.8739,295.488
2013-04-21 00:00:00,2013-04-21 00:00:00,TMP,surface,-98.4379,27.8739,295.093
2013-04-21 00:00:00,2013-04-21 00:00:00,TMP,surface,-97.5004,27.8739,297.112
2013-04-21 00:00:00,2013-04-21 00:00:00,TMP,surface,-96.5629,27.8739,299.575
2013-04-21 00:00:00,2013-04-21 00:00:00,TMP,surface,-95.6254,27.8739,299.775
2013-04-21 00:00:00,2013-04-21 00:00:00,TMP,surface,-94.6879,27.8739,299.664
2013-04-21 00:00:00,2013-04-21 00:00:00,TMP,surface,-93.7504,27.8739,299.479
2013-04-21 00:00:00,2013-04-21 00:00:00,TMP,surface,-92.8129,27.8739,299.28
2013-04-21 00:00:00,2013-04-21 00:00:00,TMP,surface,-107.813,28.8188,286.147
2013-04-21 00:00:00,2013-04-21 00:00:00,TMP,surface,-106.875,28.8188,286.464
2013-04-21 00:00:00,2013-04-21 00:00:00,TMP,surface,-105.938,28.8188,290.031
2013-04-21 00:00:00,2013-04-21 00:00:00,TMP,surface,-105,28.8188,291.941
2013-04-21 00:00:00,2013-04-21 00:00:00,TMP,surface,-104.063,28.8188,291.248
2013-04-21 00:00:00,2013-04-21 00:00:00,TMP,surface,-103.125,28.8188,290.282
2013-04-21 00:00:00,2013-04-21 00:00:00,TMP,surface,-102.188,28.8188,290.664
2013-04-21 00:00:00,2013-04-21 00:00:00,TMP,surface,-101.25,28.8188,292.471
2013-04-21 00:00:00,2013-04-21 00:00:00,TMP,surface,-100.313,28.8188,293.776
2013-04-21 00:00:00,2013-04-21 00:00:00,TMP,surface,-99.3754,28.8188,293.805
2013-04-21 00:00:00,2013-04-21 00:00:00,TMP,surface,-98.4379,28.8188,293.53
2013-04-21 00:00:00,2013-04-21 00:00:00,TMP,surface,-97.5004,28.8188,293.653
2013-04-21 00:00:00,2013-04-21 00:00:00,TMP,surface,-96.5629,28.8188,294.123
2013-04-21 00:00:00,2013-04-21 00:00:00,TMP,surface,-95.6254,28.8188,296.231
2013-04-21 00:00:00,2013-04-21 00:00:00,TMP,surface,-94.6879,28.8188,299.159
2013-04-21 00:00:00,2013-04-21 00:00:00,TMP,surface,-93.7504,28.8188,299.176
2013-04-21 00:00:00,2013-04-21 00:00:00,TMP,surface,-92.8129,28.8188,299.139
2013-04-21 00:00:00,2013-04-21 00:00:00,TMP,surface,-107.813,29.7637,287.987
2013-04-21 00:00:00,2013-04-21 00:00:00,TMP,surface,-106.875,29.7637,288.877
2013-04-21 00:00:00,2013-04-21 00:00:00,TMP,surface,-105.938,29.7637,290.88
2013-04-21 00:00:00,2013-04-21 00:00:00,TMP,surface,-105,29.7637,291.127
2013-04-21 00:00:00,2013-04-21 00:00:00,TMP,surface,-104.063,29.7637,290.712
2013-04-21 00:00:00,2013-04-21 00:00:00,TMP,surface,-103.125,29.7637,290.6
2013-04-21 00:00:00,2013-04-21 00:00:00,TMP,surface,-102.188,29.7637,291.267
2013-04-21 00:00:00,2013-04-21 00:00:00,TMP,surface,-101.25,29.7637,291.903
2013-04-21 00:00:00,2013-04-21 00:00:00,TMP,surface,-100.313,29.7637,291.882
2013-04-21 00:00:00,2013-04-21 00:00:00,TMP,surface,-99.3754,29.7637,291.6
2013-04-21 00:00:00,2013-04-21 00:00:00,TMP,surface,-98.4379,29.7637,291.837
2013-04-21 00:00:00,2013-04-21 00:00:00,TMP,surface,-97.5004,29.7637,292.267
2013-04-21 00:00:00,2013-04-21 00:00:00,TMP,surface,-96.5629,29.7637,292.445
2013-04-21 00:00:00,2013-04-21 00:00:00,TMP,surface,-95.6254,29.7637,292.611
2013-04-21 00:00:00,2013-04-21 00:00:00,TMP,surface,-94.6879,29.7637,294.663
2013-04-21 00:00:00,2013-04-21 00:00:00,TMP,surface,-93.7504,29.7637,297.295
2013-04-21 00:00:00,2013-04-21 00:00:00,TMP,surface,-92.8129,29.7637,293.051
2013-04-21 00:00:00,2013-04-21 00:00:00,TMP,surface,-107.813,30.7085,290.824
2013-04-21 00:00:00,2013-04-21 00:00:00,TMP,surface,-106.875,30.7085,291.368
2013-04-21 00:00:00,2013-04-21 00:00:00,TMP,surface,-105.938,30.7085,291.05
2013-04-21 00:00:00,2013-04-21 00:00:00,TMP,surface,-105,30.7085,290.453
2013-04-21 00:00:00,2013-04-21 00:00:00,TMP,surface,-104.063,30.7085,289.562
2013-04-21 00:00:00,2013-04-21 00:00:00,TMP,surface,-103.125,30.7085,290.397
2013-04-21 00:00:00,2013-04-21 00:00:00,TMP,surface,-102.188,30.7085,291.059
2013-04-21 00:00:00,2013-04-21 00:00:00,TMP,surface,-101.25,30.7085,290.791
2013-04-21 00:00:00,2013-04-21 00:00:00,TMP,surface,-100.313,30.7085,290.536
2013-04-21 00:00:00,2013-04-21 00:00:00,TMP,surface,-99.3754,30.7085,290.616
2013-04-21 00:00:00,2013-04-21 00:00:00,TMP,surface,-98.4379,30.7085,291.154
2013-04-21 00:00:00,2013-04-21 00:00:00,TMP,surface,-97.5004,30.7085,291.551
2013-04-21 00:00:00,2013-04-21 00:00:00,TMP,surface,-96.5629,30.7085,291.287
2013-04-21 00:00:00,2013-04-21 00:00:00,TMP,surface,-95.6254,30.7085,290.842
2013-04-21 00:00:00,2013-04-21 00:00:00,TMP,surface,-94.6879,30.7085,290.744
2013-04-21 00:00:00,2013-04-21 00:00:00,TMP,surface,-93.7504,30.7085,290.624
2013-04-21 00:00:00,2013-04-21 00:00:00,TMP,surface,-92.8129,30.7085,290.357
2013-04-21 00:00:00,2013-04-21 00:00:00,TMP,surface,-107.813,31.6534,291.173
2013-04-21 00:00:00,2013-04-21 00:00:00,TMP,surface,-106.875,31.6534,291.037
2013-04-21 00:00:00,2013-04-21 00:00:00,TMP,surface,-105.938,31.6534,290.291
2013-04-21 00:00:00,2013-04-21 00:00:00,TMP,surface,-105,31.6534,289.559
2013-04-21 00:00:00,2013-04-21 00:00:00,TMP,surface,-104.063,31.6534,289.667
2013-04-21 00:00:00,2013-04-21 00:00:00,TMP,surface,-103.125,31.6534,290.322
2013-04-21 00:00:00,2013-04-21 00:00:00,TMP,surface,-102.188,31.6534,290.402
2013-04-21 00:00:00,2013-04-21 00:00:00,TMP,surface,-101.25,31.6534,290.002
2013-04-21 00:00:00,2013-04-21 00:00:00,TMP,surface,-100.313,31.6534,289.938
2013-04-21 00:00:00,2013-04-21 00:00:00,TMP,surface,-99.3754,31.6534,290.439
2013-04-21 00:00:00,2013-04-21 00:00:00,TMP,surface,-98.4379,31.6534,291.019
2013-04-21 00:00:00,2013-04-21 00:00:00,TMP,surface,-97.5004,31.6534,291.179
2013-04-21 00:00:00,2013-04-21 00:00:00,TMP,surface,-96.5629,31.6534,290.771
2013-04-21 00:00:00,2013-04-21 00:00:00,TMP,surface,-95.6254,31.6534,290.186
2013-04-21 00:00:00,2013-04-21 00:00:00,TMP,surface,-94.6879,31.6534,289.797
2013-04-21 00:00:00,2013-04-21 00:00:00,TMP,surface,-93.7504,31.6534,289.52
2013-04-21 00:00:00,2013-04-21 00:00:00,TMP,surface,-92.8129,31.6534,289.551
2013-04-21 00:00:00,2013-04-21 00:00:00,TMP,surface,-107.813,32.5983,288.477
2013-04-21 00:00:00,2013-04-21 00:00:00,TMP,surface,-106.875,32.5983,288.453
2013-04-21 00:00:00,2013-04-21 00:00:00,TMP,surface,-105.938,32.5983,288.133
2013-04-21 00:00:00,2013-04-21 00:00:00,TMP,surface,-105,32.5983,288.333
2013-04-21 00:00:00,2013-04-21 00:00:00,TMP,surface,-104.063,32.5983,289.24
2013-04-21 00:00:00,2013-04-21 00:00:00,TMP,surface,-103.125,32.5983,289.717
2013-04-21 00:00:00,2013-04-21 00:00:00,TMP,surface,-102.188,32.5983,289.562
2013-04-21 00:00:00,2013-04-21 00:00:00,TMP,surface,-101.25,32.5983,289.421
2013-04-21 00:00:00,2013-04-21 00:00:00,TMP,surface,-100.313,32.5983,289.795
2013-04-21 00:00:00,2013-04-21 00:00:00,TMP,surface,-99.3754,32.5983,290.451
2013-04-21 00:00:00,2013-04-21 00:00:00,TMP,surface,-98.4379,32.5983,290.755
2013-04-21 00:00:00,2013-04-21 00:00:00,TMP,surface,-97.5004,32.5983,290.607
2013-04-21 00:00:00,2013-04-21 00:00:00,TMP,surface,-96.5629,32.5983,290.264
2013-04-21 00:00:00,2013-04-21 00:00:00,TMP,surface,-95.6254,32.5983,289.885
2013-04-21 00:00:00,2013-04-21 00:00:00,TMP,surface,-94.6879,32.5983,289.458
2013-04-21 00:00:00,2013-04-21 00:00:00,TMP,surface,-93.7504,32.5983,289.127
2013-04-21 00:00:00,2013-04-21 00:00:00,TMP,surface,-92.8129,32.5983,289.339
2013-04-21 00:00:00,2013-04-21 00:00:00,TMP,surface,-107.813,33.5432,285.115
2013-04-21 00:00:00,2013-04-21 00:00:00,TMP,surface,-106.875,33.5432,285.896
2013-04-21 00:00:00,2013-04-21 00:00:00,TMP,surface,-105.938,33.5432,286.203
2013-04-21 00:00:00,2013-04-21 00:00:00,TMP,surface,-105,33.5432,287.091
2013-04-21 00:00:00,2013-04-21 00:00:00,TMP,surface,-104.063,33.5432,288.594
2013-04-21 00:00:00,2013-04-21 00:00:00,TMP,surface,-103.125,33.5432,288.819
2013-04-21 00:00:00,2013-04-21 00:00:00,TMP,surface,-102.188,33.5432,288.485
2013-04-21 00:00:00,2013-04-21 00:00:00,TMP,surface,-101.25,33.5432,288.525
2013-04-21 00:00:00,2013-04-21 00:00:00,TMP,surface,-100.313,33.5432,289.178
2013-04-21 00:00:00,2013-04-21 00:00:00,TMP,surface,-99.3754,33.5432,289.829
2013-04-21 00:00:00,2013-04-21 00:00:00,TMP,surface,-98.4379,33.5432,289.859
2013-04-21 00:00:00,2013-04-21 00:00:00,TMP,surface,-97.5004,33.5432,289.471
2013-04-21 00:00:00,2013-04-21 00:00:00,TMP,surface,-96.5629,33.5432,289.2
2013-04-21 00:00:00,2013-04-21 00:00:00,TMP,surface,-95.6254,33.5432,289.059
2013-04-21 00:00:00,2013-04-21 00:00:00,TMP,surface,-94.6879,33.5432,288.778
2013-04-21 00:00:00,2013-04-21 00:00:00,TMP,surface,-93.7504,33.5432,288.501
2013-04-21 00:00:00,2013-04-21 00:00:00,TMP,surface,-92.8129,33.5432,288.525
2013-04-21 00:00:00,2013-04-21 00:00:00,TMP,surface,-107.813,34.4881,283.383
2013-04-21 00:00:00,2013-04-21 00:00:00,TMP,surface,-106.875,34.4881,284.698
2013-04-21 00:00:00,2013-04-21 00:00:00,TMP,surface,-105.938,34.4881,285.143
2013-04-21 00:00:00,2013-04-21 00:00:00,TMP,surface,-105,34.4881,286.17
2013-04-21 00:00:00,2013-04-21 00:00:00,TMP,surface,-104.063,34.4881,287.016
2013-04-21 00:00:00,2013-04-21 00:00:00,TMP,surface,-103.125,34.4881,287.397
2013-04-21 00:00:00,2013-04-21 00:00:00,TMP,surface,-102.188,34.4881,287.456
2013-04-21 00:00:00,2013-04-21 00:00:00,TMP,surface,-101.25,34.4881,287.519
2013-04-21 00:00:00,2013-04-21 00:00:00,TMP,surface,-100.313,34.4881,288.018
2013-04-21 00:00:00,2013-04-21 00:00:00,TMP,surface,-99.3754,34.4881,288.488
2013-04-21 00:00:00,2013-04-21 00:00:00,TMP,surface,-98.4379,34.4881,288.459
2013-04-21 00:00:00,2013-04-21 00:00:00,TMP,surface,-97.5004,34.4881,288.053
2013-04-21 00:00:00,2013-04-21 00:00:00,TMP,surface,-96.5629,34.4881,287.736
2013-04-21 00:00:00,2013-04-21 00:00:00,TMP,surface,-95.6254,34.4881,287.515
2013-04-21 00:00:00,2013-04-21 00:00:00,TMP,surface,-94.6879,34.4881,287.162
2013-04-21 00:00:00,2013-04-21 00:00:00,TMP,surface,-93.7504,34.4881,286.986
2013-04-21 00:00:00,2013-04-21 00:00:00,TMP,surface,-92.8129,34.4881,287.171
2013-04-21 00:00:00,2013-04-21 00:00:00,TMP,surface,-107.813,35.4329,283.341
2013-04-21 00:00:00,2013-04-21 00:00:00,TMP,surface,-106.875,35.4329,283.727
2013-04-21 00:00:00,2013-04-21 00:00:00,TMP,surface,-105.938,35.4329,283.653
2013-04-21 00:00:00,2013-04-21 00:00:00,TMP,surface,-105,35.4329,284.13
2013-04-21 00:00:00,2013-04-21 00:00:00,TMP,surface,-104.063,35.4329,285.631
2013-04-21 00:00:00,2013-04-21 00:00:00,TMP,surface,-103.125,35.4329,286.587
2013-04-21 00:00:00,2013-04-21 00:00:00,TMP,surface,-102.188,35.4329,286.813
2013-04-21 00:00:00,2013-04-21 00:00:00,TMP,surface,-101.25,35.4329,286.912
2013-04-21 00:00:00,2013-04-21 00:00:00,TMP,surface,-100.313,35.4329,287.125
2013-04-21 00:00:00,2013-04-21 00:00:00,TMP,surface,-99.3754,35.4329,287.263
2013-04-21 00:00:00,2013-04-21 00:00:00,TMP,surface,-98.4379,35.4329,287.227
2013-04-21 00:00:00,2013-04-21 00:00:00,TMP,surface,-97.5004,35.4329,287.093
2013-04-21 00:00:00,2013-04-21 00:00:00,TMP,surface,-96.5629,35.4329,286.999
2013-04-21 00:00:00,2013-04-21 00:00:00,TMP,surface,-95.6254,35.4329,286.794
2013-04-21 00:00:00,2013-04-21 00:00:00,TMP,surface,-94.6879,35.4329,286.301
2013-04-21 00:00:00,2013-04-21 00:00:00,TMP,surface,-93.7504,35.4329,285.843
2013-04-21 00:00:00,2013-04-21 00:00:00,TMP,surface,-92.8129,35.4329,285.727
2013-04-21 00:00:00,2013-04-21 00:00:00,TMP,surface,-107.813,36.3778,282.831
2013-04-21 00:00:00,2013-04-21 00:00:00,TMP,surface,-106.875,36.3778,280.983
2013-04-21 00:00:00,2013-04-21 00:00:00,TMP,surface,-105.938,36.3778,280.771
2013-04-21 00:00:00,2013-04-21 00:00:00,TMP,surface,-105,36.3778,281.667
2013-04-21 00:00:00,2013-04-21 00:00:00,TMP,surface,-104.063,36.3778,283.834
2013-04-21 00:00:00,2013-04-21 00:00:00,TMP,surface,-103.125,36.3778,285.107
2013-04-21 00:00:00,2013-04-21 00:00:00,TMP,surface,-102.188,36.3778,285.92
2013-04-21 00:00:00,2013-04-21 00:00:00,TMP,surface,-101.25,36.3778,286.282
2013-04-21 00:00:00,2013-04-21 00:00:00,TMP,surface,-100.313,36.3778,286.576
2013-04-21 00:00:00,2013-04-21 00:00:00,TMP,surface,-99.3754,36.3778,286.691
2013-04-21 00:00:00,2013-04-21 00:00:00,TMP,surface,-98.4379,36.3778,286.531
2013-04-21 00:00:00,2013-04-21 00:00:00,TMP,surface,-97.5004,36.3778,286.467
2013-04-21 00:00:00,2013-04-21 00:00:00,TMP,surface,-96.5629,36.3778,286.499
2013-04-21 00:00:00,2013-04-21 00:00:00,TMP,surface,-95.6254,36.3778,286.192
2013-04-21 00:00:00,2013-04-21 00:00:00,TMP,surface,-94.6879,36.3778,285.483
2013-04-21 00:00:00,2013-04-21 00:00:00,TMP,surface,-93.7504,36.3778,284.821
2013-04-21 00:00:00,2013-04-21 00:00:00,TMP,surface,-92.8129,36.3778,284.682
2013-04-21 00:00:00,2013-04-21 00:00:00,PRATE,surface,-107.813,25.0393,1.06e-05
2013-04-21 00:00:00,2013-04-21 00:00:00,PRATE,surface,-106.875,25.0393,2.42e-05
2013-04-21 00:00:00,2013-04-21 00:00:00,PRATE,surface,-105.938,25.0393,3.46e-05
2013-04-21 00:00:00,2013-04-21 00:00:00,PRATE,surface,-105,25.0393,1.33e-05
2013-04-21 00:00:00,2013-04-21 00:00:00,PRATE,surface,-104.063,25.0393,7.3e-06
2013-04-21 00:00:00,2013-04-21 00:00:00,PRATE,surface,-103.125,25.0393,3.4e-06
2013-04-21 00:00:00,2013-04-21 00:00:00,PRATE,surface,-102.188,25.0393,2.5e-06
2013-04-21 00:00:00,2013-04-21 00:00:00,PRATE,surface,-101.25,25.0393,1.13e-05
2013-04-21 00:00:00,2013-04-21 00:00:00,PRATE,surface,-100.313,25.0393,3.07e-05
2013-04-21 00:00:00,2013-04-21 00:00:00,PRATE,surface,-99.3754,25.0393,3.52e-05
2013-04-21 00:00:00,2013-04-21 00:00:00,PRATE,surface,-98.4379,25.0393,2.16e-05
2013-04-21 00:00:00,2013-04-21 00:00:00,PRATE,surface,-97.5004,25.0393,2.42e-05
2013-04-21 00:00:00,2013-04-21 00:00:00,PRATE,surface,-96.5629,25.0393,2.67e-05
2013-04-21 00:00:00,2013-04-21 00:00:00,PRATE,surface,-95.6254,25.0393,2.16e-05
2013-04-21 00:00:00,2013-04-21 00:00:00,PRATE,surface,-94.6879,25.0393,3.5e-05
2013-04-21 00:00:00,2013-04-21 00:00:00,PRATE,surface,-93.7504,25.0393,2.72e-05
2013-04-21 00:00:00,2013-04-21 00:00:00,PRATE,surface,-92.8129,25.0393,3.41e-05
2013-04-21 00:00:00,2013-04-21 00:00:00,PRATE,surface,-107.813,25.9842,1.84e-05
2013-04-21 00:00:00,2013-04-21 00:00:00,PRATE,surface,-106.875,25.9842,2.73e-05
2013-04-21 00:00:00,2013-04-21 00:00:00,PRATE,surface,-105.938,25.9842,1.77e-05
2013-04-21 00:00:00,2013-04-21 00:00:00,PRATE,surface,-105,25.9842,1.16e-05
2013-04-21 00:00:00,2013-04-21 00:00:00,PRATE,surface,-104.063,25.9842,5.2e-06
2013-04-21 00:00:00,2013-04-21 00:00:00,PRATE,surface,-103.125,25.9842,1.3e-06
2013-04-21 00:00:00,2013-04-21 00:00:00,PRATE,surface,-102.188,25.9842,3.8e-06
2013-04-21 00:00:00,2013-04-21 00:00:00,PRATE,surface,-101.25,25.9842,1.13e-05
2013-04-21 00:00:00,2013-04-21 00:00:00,PRATE,surface,-100.313,25.9842,2.12e-05
2013-04-21 00:00:00,2013-04-21 00:00:00,PRATE,surface,-99.3754,25.9842,2.17e-05
2013-04-21 00:00:00,2013-04-21 00:00:00,PRATE,surface,-98.4379,25.9842,1.91e-05
2013-04-21 00:00:00,2013-04-21 00:00:00,PRATE,surface,-97.5004,25.9842,3.16e-05
2013-04-21 00:00:00,2013-04-21 00:00:00,PRATE,surface,-96.5629,25.9842,4.51e-05
2013-04-21 00:00:00,2013-04-21 00:00:00,PRATE,surface,-95.6254,25.9842,4.16e-05
2013-04-21 00:00:00,2013-04-21 00:00:00,PRATE,surface,-94.6879,25.9842,3.58e-05
2013-04-21 00:00:00,2013-04-21 00:00:00,PRATE,surface,-93.7504,25.9842,2.67e-05
2013-04-21 00:00:00,2013-04-21 00:00:00,PRATE,surface,-92.8129,25.9842,2.1e-05
2013-04-21 00:00:00,2013-04-21 00:00:00,PRATE,surface,-107.813,26.929,2.36e-05
2013-04-21 00:00:00,2013-04-21 00:00:00,PRATE,surface,-106.875,26.929,1.85e-05
2013-04-21 00:00:00,2013-04-21 00:00:00,PRATE,surface,-105.938,26.929,1.56e-05
2013-04-21 00:00:00,2013-04-21 00:00:00,PRATE,surface,-105,26.929,4.6e-06
2013-04-21 00:00:00,2013-04-21 00:00:00,PRATE,surface,-104.063,26.929,2.3e-06
2013-04-21 00:00:00,2013-04-21 00:00:00,PRATE,surface,-103.125,26.929,7e-06
2013-04-21 00:00:00,2013-04-21 00:00:00,PRATE,surface,-102.188,26.929,1.48e-05
2013-04-21 00:00:00,2013-04-21 00:00:00,PRATE,surface,-101.25,26.929,1.55e-05
2013-04-21 00:00:00,2013-04-21 00:00:00,PRATE,surface,-100.313,26.929,1.12e-05
2013-04-21 00:00:00,2013-04-21 00:00:00,PRATE,surface,-99.3754,26.929,1.23e-05
2013-04-21 00:00:00,2013-04-21 00:00:00,PRATE,surface,-98.4379,26.929,3.17e-05
2013-04-21 00:00:00,2013-04-21 00:00:00,PRATE,surface,-97.5004,26.929,5.77e-05
2013-04-21 00:00:00,2013-04-21 00:00:00,PRATE,surface,-96.5629,26.929,7.02e-05
2013-04-21 00:00:00,2013-04-21 00:00:00,PRATE,surface,-95.6254,26.929,6.5e-05
2013-04-21 00:00:00,2013-04-21 00:00:00,PRATE,surface,-94.6879,26.929,2.73e-05
2013-04-21 00:00:00,2013-04-21 00:00:00,PRATE,surface,-93.7504,26.929,1.77e-05
2013-04-21 00:00:00,2013-04-21 00:00:00,PRATE,surface,-92.8129,26.929,1.29e-05
2013-04-21 00:00:00,2013-04-21 00:00:00,PRATE,surface,-107.813,27.8739,2.47e-05
2013-04-21 00:00:00,2013-04-21 00:00:00,PRATE,surface,-106.875,27.8739,1.75e-05
2013-04-21 00:00:00,2013-04-21 00:00:00,PRATE,surface,-105.938,27.8739,7.4e-06
2013-04-21 00:00:00,2013-04-21 00:00:00,PRATE,surface,-105,27.8739,1.9e-06
2013-04-21 00:00:00,2013-04-21 00:00:00,PRATE,surface,-104.063,27.8739,6.5e-06
2013-04-21 00:00:00,2013-04-21 00:00:00,PRATE,surface,-103.125,27.8739,2.9e-05
2013-04-21 00:00:00,2013-04-21 00:00:00,PRATE,surface,-102.188,27.8739,3.1e-05
2013-04-21 00:00:00,2013-04-21 00:00:00,PRATE,surface,-101.25,27.8739,1.99e-05
2013-04-21 00:00:00,2013-04-21 00:00:00,PRATE,surface,-100.313,27.8739,1.39e-05
2013-04-21 00:00:00,2013-04-21 00:00:00,PRATE,surface,-99.3754,27.8739,1.81e-05
2013-04-21 00:00:00,2013-04-21 00:00:00,PRATE,surface,-98.4379,27.8739,3.31e-05
2013-04-21 00:00:00,2013-04-21 00:00:00,PRATE,surface,-97.5004,27.8739,3.85e-05
2013-04-21 00:00:00,2013-04-21 00:00:00,PRATE,surface,-96.5629,27.8739,4.02e-05
2013-04-21 00:00:00,2013-04-21 00:00:00,PRATE,surface,-95.6254,27.8739,4.71e-05
2013-04-21 00:00:00,2013-04-21 00:00:00,PRATE,surface,-94.6879,27.8739,4.27e-05
2013-04-21 00:00:00,2013-04-21 00:00:00,PRATE,surface,-93.7504,27.8739,3.04e-05
2013-04-21 00:00:00,2013-04-21 00:00:00,PRATE,surface,-92.8129,27.8739,1.76e-05
2013-04-21 00:00:00,2013-04-21 00:00:00,PRATE,surface,-107.813,28.8188,1.94e-05
2013-04-21 00:00:00,2013-04-21 00:00:00,PRATE,surface,-106.875,28.8188,1.59e-05
2013-04-21 00:00:00,2013-04-21 00:00:00,PRATE,surface,-105.938,28.8188,4.9e-06
2013-04-21 00:00:00,2013-04-21 00:00:00,PRATE,surface,-105,28.8188,2.1e-06
2013-04-21 00:00:00,2013-04-21 00:00:00,PRATE,surface,-104.063,28.8188,8e-06
2013-04-21 00:00:00,2013-04-21 00:00:00,PRATE,surface,-103.125,28.8188,3.95e-05
2013-04-21 00:00:00,2013-04-21 00:00:00,PRATE,surface,-102.188,28.8188,4.48e-05
2013-04-21 00:00:00,2013-04-21 00:00:00,PRATE,surface,-101.25,28.8188,3.43e-05
2013-04-21 00:00:00,2013-04-21 00:00:00,PRATE,surface,-100.313,28.8188,2.43e-05
2013-04-21 00:00:00,2013-04-21 00:00:00,PRATE,surface,-99.3754,28.8188,2.77e-05
2013-04-21 00:00:00,2013-04-21 00:00:00,PRATE,surface,-98.4379,28.8188,3.86e-05
2013-04-21 00:00:00,2013-04-21 00:00:00,PRATE,surface,-97.5004,28.8188,4.02e-05
2013-04-21 00:00:00,2013-04-21 00:00:00,PRATE,surface,-96.5629,28.8188,3.42e-05
2013-04-21 00:00:00,2013-04-21 00:00:00,PRATE,surface,-95.6254,28.8188,3.88e-05
2013-04-21 00:00:00,2013-04-21 00:00:00,PRATE,surface,-94.6879,28.8188,4.87e-05
2013-04-21 00:00:00,2013-04-21 00:00:00,PRATE,surface,-93.7504,28.8188,3.85e-05
2013-04-21 00:00:00,2013-04-21 00:00:00,PRATE,surface,-92.8129,28.8188,2.12e-05
2013-04-21 00:00:00,2013-04-21 00:00:00,PRATE,surface,-107.813,29.7637,4.8e-06
2013-04-21 00:00:00,2013-04-21 00:00:00,PRATE,surface,-106.875,29.7637,5.4e-06
2013-04-21 00:00:00,2013-04-21 00:00:00,PRATE,surface,-105.938,29.7637,2.8e-06
2013-04-21 00:00:00,2013-04-21 00:00:00,PRATE,surface,-105,29.7637,2.3e-06
2013-04-21 00:00:00,2013-04-21 00:00:00,PRATE,surface,-104.063,29.7637,8.9e-06
2013-04-21 00:00:00,2013-04-21 00:00:00,PRATE,surface,-103.125,29.7637,2.95e-05
2013-04-21 00:00:00,2013-04-21 00:00:00,PRATE,surface,-102.188,29.7637,2.82e-05
2013-04-21 00:00:00,2013-04-21 00:00:00,PRATE,surface,-101.25,29.7637,2.85e-05
2013-04-21 00:00:00,2013-04-21 00:00:00,PRATE,surface,-100.313,29.7637,3.28e-05
2013-04-21 00:00:00,2013-04-21 00:00:00,PRATE,surface,-99.3754,29.7637,3.27e-05
2013-04-21 00:00:00,2013-04-21 00:00:00,PRATE,surface,-98.4379,29.7637,3.13e-05
2013-04-21 00:00:00,2013-04-21 00:00:00,PRATE,surface,-97.5004,29.7637,3.32e-05
2013-04-21 00:00:00,2013-04-21 00:00:00,PRATE,surface,-96.5629,29.7637,3.61e-05
2013-04-21 00:00:00,2013-04-21 00:00:00,PRATE,surface,-95.6254,29.7637,3.6e-05
2013-04-21 00:00:00,2013-04-21 00:00:00,PRATE,surface,-94.6879,29.7637,3.35e-05
2013-04-21 00:00:00,2013-04-21 00:00:00,PRATE,surface,-93.7504,29.7637,2.81e-05
2013-04-21 00:00:00,2013-04-21 00:00:00,PRATE,surface,-92.8129,29.7637,1.7e-05
2013-04-21 00:00:00,2013-04-21 00:00:00,PRATE,surface,-107.813,30.7085,1.7e-06
2013-04-21 00:00:00,2013-04-21 00:00:00,PRATE,surface,-106.875,30.7085,1.2e-06
2013-04-21 00:00:00,2013-04-21 00:00:00,PRATE,surface,-105.938,30.7085,1.7e-06
2013-04-21 00:00:00,2013-04-21 00:00:00,PRATE,surface,-105,30.7085,3.8e-06
2013-04-21 00:00:00,2013-04-21 00:00:00,PRATE,surface,-104.063,30.7085,1.58e-05
2013-04-21 00:00:00,2013-04-21 00:00:00,PRATE,surface,-103.125,30.7085,2.61e-05
2013-04-21 00:00:00,2013-04-21 00:00:00,PRATE,surface,-102.188,30.7085,2.67e-05
2013-04-21 00:00:00,2013-04-21 00:00:00,PRATE,surface,-101.25,30.7085,2.87e-05
2013-04-21 00:00:00,2013-04-21 00:00:00,PRATE,surface,-100.313,30.7085,3.32e-05
2013-04-21 00:00:00,2013-04-21 00:00:00,PRATE,surface,-99.3754,30.7085,2.74e-05
2013-04-21 00:00:00,2013-04-21 00:00:00,PRATE,surface,-98.4379,30.7085,2.01e-05
2013-04-21 00:00:00,2013-04-21 00:00:00,PRATE,surface,-97.5004,30.7085,2.46e-05
2013-04-21 00:00:00,2013-04-21 00:00:00,PRATE,surface,-96.5629,30.7085,4.19e-05
2013-04-21 00:00:00,2013-04-21 00:00:00,PRATE,surface,-95.6254,30.7085,5.14e-05
2013-04-21 00:00:00,2013-04-21 00:00:00,PRATE,surface,-94.6879,30.7085,4.1e-05
2013-04-21 00:00:00,2013-04-21 00:00:00,PRATE,surface,-93.7504,30.7085,3.19e-05
2013-04-21 00:00:00,2013-04-21 00:00:00,PRATE,surface,-92.8129,30.7085,2.34e-05
2013-04-21 00:00:00,2013-04-21 00:00:00,PRATE,surface,-107.813,31.6534,5.5e-06
2013-04-21 00:00:00,2013-04-21 00:00:00,PRATE,surface,-106.875,31.6534,3.6e-06
2013-04-21 00:00:00,2013-04-21 00:00:00,PRATE,surface,-105.938,31.6534,4.4e-06
2013-04-21 00:00:00,2013-04-21 00:00:00,PRATE,surface,-105,31.6534,5.4e-06
2013-04-21 00:00:00,2013-04-21 00:00:00,PRATE,surface,-104.063,31.6534,1.08e-05
2013-04-21 00:00:00,2013-04-21 00:00:00,PRATE,surface,-103.125,31.6534,1.58e-05
2013-04-21 00:00:00,2013-04-21 00:00:00,PRATE,surface,-102.188,31.6534,1.92e-05
2013-04-21 00:00:00,2013-04-21 00:00:00,PRATE,surface,-101.25,31.6534,3.5e-05
2013-04-21 00:00:00,2013-04-21 00:00:00,PRATE,surface,-100.313,31.6534,3.91e-05
2013-04-21 00:00:00,2013-04-21 00:00:00,PRATE,surface,-99.3754,31.6534,3.23e-05
2013-04-21 00:00:00,2013-04-21 00:00:00,PRATE,surface,-98.4379,31.6534,2.87e-05
2013-04-21 00:00:00,2013-04-21 00:00:00,PRATE,surface,-97.5004,31.6534,3.79e-05
2013-04-21 00:00:00,2013-04-21 00:00:00,PRATE,surface,-96.5629,31.6534,5.29e-05
2013-04-21 00:00:00,2013-04-21 00:00:00,PRATE,surface,-95.6254,31.6534,5.98e-05
2013-04-21 00:00:00,2013-04-21 00:00:00,PRATE,surface,-94.6879,31.6534,5.41e-05
2013-04-21 00:00:00,2013-04-21 00:00:00,PRATE,surface,-93.7504,31.6534,4.31e-05
2013-04-21 00:00:00,2013-04-21 00:00:00,PRATE,surface,-92.8129,31.6534,3.54e-05
2013-04-21 00:00:00,2013-04-21 00:00:00,PRATE,surface,-107.813,32.5983,1.14e-05
2013-04-21 00:00:00,2013-04-21 00:00:00,PRATE,surface,-106.875,32.5983,1.13e-05
2013-04-21 00:00:00,2013-04-21 00:00:00,PRATE,surface,-105.938,32.5983,1.01e-05
2013-04-21 00:00:00,2013-04-21 00:00:00,PRATE,surface,-105,32.5983,7.6e-06
2013-04-21 00:00:00,2013-04-21 00:00:00,PRATE,surface,-104.063,32.5983,6.7e-06
2013-04-21 00:00:00,2013-04-21 00:00:00,PRATE,surface,-103.125,32.5983,1.05e-05
2013-04-21 00:00:00,2013-04-21 00:00:00,PRATE,surface,-102.188,32.5983,2e-05
2013-04-21 00:00:00,2013-04-21 00:00:00,PRATE,surface,-101.25,32.5983,3.55e-05
2013-04-21 00:00:00,2013-04-21 00:00:00,PRATE,surface,-100.313,32.5983,4.39e-05
2013-04-21 00:00:00,2013-04-21 00:00:00,PRATE,surface,-99.3754,32.5983,3.87e-05
2013-04-21 00:00:00,2013-04-21 00:00:00,PRATE,surface,-98.4379,32.5983,3.37e-05
2013-04-21 00:00:00,2013-04-21 00:00:00,PRATE,surface,-97.5004,32.5983,4.31e-05
2013-04-21 00:00:00,2013-04-21 00:00:00,PRATE,surface,-96.5629,32.5983,5.81e-05
2013-04-21 00:00:00,2013-04-21 00:00:00,PRATE,surface,-95.6254,32.5983,6.39e-05
2013-04-21 00:00:00,2013-04-21 00:00:00,PRATE,surface,-94.6879,32.5983,5.69e-05
2013-04-21 00:00:00,2013-04-21 00:00:00,PRATE,surface,-93.7504,32.5983,4.25e-05
2013-04-21 00:00:00,2013-04-21 00:00:00,PRATE,surface,-92.8129,32.5983,3.47e-05
2013-04-21 00:00:00,2013-04-21 00:00:00,PRATE,surface,-107.813,33.5432,2e-05
2013-04-21 00:00:00,2013-04-21 00:00:00,PRATE,surface,-106.875,33.5432,2.07e-05
2013-04-21 00:00:00,2013-04-21 00:00:00,PRATE,surface,-105.938,33.5432,1.35e-05
2013-04-21 00:00:00,2013-04-21 00:00:00,PRATE,surface,-105,33.5432,1.05e-05
2013-04-21 00:00:00,2013-04-21 00:00:00,PRATE,surface,-104.063,33.5432,8.6e-06
2013-04-21 00:00:00,2013-04-21 00:00:00,PRATE,surface,-103.125,33.5432,1.32e-05
2013-04-21 00:00:00,2013-04-21 00:00:00,PRATE,surface,-102.188,33.5432,2.41e-05
2013-04-21 00:00:00,2013-04-21 00:00:00,PRATE,surface,-101.25,33.5432,4.29e-05
2013-04-21 00:00:00,2013-04-21 00:00:00,PRATE,surface,-100.313,33.5432,4.59e-05
2013-04-21 00:00:00,2013-04-21 00:00:00,PRATE,surface,-99.3754,33.5432,3.91e-05
2013-04-21 00:00:00,2013-04-21 00:00:00,PRATE,surface,-98.4379,33.5432,3.4e-05
2013-04-21 00:00:00,2013-04-21 00:00:00,PRATE,surface,-97.5004,33.5432,3.77e-05
2013-04-21 00:00:00,2013-04-21 00:00:00,PRATE,surface,-96.5629,33.5432,4.83e-05
2013-04-21 00:00:00,2013-04-21 00:00:00,PRATE,surface,-95.6254,33.5432,5.34e-05
2013-04-21 00:00:00,2013-04-21 00:00:00,PRATE,surface,-94.6879,33.5432,4.63e-05
2013-04-21 00:00:00,2013-04-21 00:00:00,PRATE,surface,-93.7504,33.5432,3.62e-05
2013-04-21 00:00:00,2013-04-21 00:00:00,PRATE,surface,-92.8129,33.5432,2.84e-05
2013-04-21 00:00:00,2013-04-21 00:00:00,PRATE,surface,-107.813,34.4881,1.65e-05
2013-04-21 00:00:00,2013-04-21 00:00:00,PRATE,surface,-106.875,34.4881,1.37e-05
2013-04-21 00:00:00,2013-04-21 00:00:00,PRATE,surface,-105.938,34.4881,1.33e-05
2013-04-21 00:00:00,2013-04-21 00:00:00,PRATE,surface,-105,34.4881,1.38e-05
2013-04-21 00:00:00,2013-04-21 00:00:00,PRATE,surface,-104.063,34.4881,1.15e-05
2013-04-21 00:00:00,2013-04-21 00:00:00,PRATE,surface,-103.125,34.4881,1.27e-05
2013-04-21 00:00:00,2013-04-21 00:00:00,PRATE,surface,-102.188,34.4881,2.41e-05
2013-04-21 00:00:00,2013-04-21 00:00:00,PRATE,surface,-101.25,34.4881,4.96e-05
2013-04-21 00:00:00,2013-04-21 00:00:00,PRATE,surface,-100.313,34.4881,6.06e-05
2013-04-21 00:00:00,2013-04-21 00:00:00,PRATE,surface,-99.3754,34.4881,5.38e-05
2013-04-21 00:00:00,2013-04-21 00:00:00,PRATE,surface,-98.4379,34.4881,4.23e-05
2013-04-21 00:00:00,2013-04-21 00:00:00,PRATE,surface,-97.5004,34.4881,3.77e-05
2013-04-21 00:00:00,2013-04-21 00:00:00,PRATE,surface,-96.5629,34.4881,4.08e-05
2013-04-21 00:00:00,2013-04-21 00:00:00,PRATE,surface,-95.6254,34.4881,4.46e-05
2013-04-21 00:00:00,2013-04-21 00:00:00,PRATE,surface,-94.6879,34.4881,4.47e-05
2013-04-21 00:00:00,2013-04-21 00:00:00,PRATE,surface,-93.7504,34.4881,4.04e-05
2013-04-21 00:00:00,2013-04-21 00:00:00,PRATE,surface,-92.8129,34.4881,2.99e-05
2013-04-21 00:00:00,2013-04-21 00:00:00,PRATE,surface,-107.813,35.4329,8.9e-06
2013-04-21 00:00:00,2013-04-21 00:00:00,PRATE,surface,-106.875,35.4329,9e-06
2013-04-21 00:00:00,2013-04-21 00:00:00,PRATE,surface,-105.938,35.4329,1.37e-05
2013-04-21 00:00:00,2013-04-21 00:00:00,PRATE,surface,-105,35.4329,1.59e-05
2013-04-21 00:00:00,2013-04-21 00:00:00,PRATE,surface,-104.063,35.4329,1.55e-05
2013-04-21 00:00:00,2013-04-21 00:00:00,PRATE,surface,-103.125,35.4329,1.21e-05
2013-04-21 00:00:00,2013-04-21 00:00:00,PRATE,surface,-102.188,35.4329,1.78e-05
2013-04-21 00:00:00,2013-04-21 00:00:00,PRATE,surface,-101.25,35.4329,3.68e-05
2013-04-21 00:00:00,2013-04-21 00:00:00,PRATE,surface,-100.313,35.4329,5.85e-05
2013-04-21 00:00:00,2013-04-21 00:00:00,PRATE,surface,-99.3754,35.4329,6.59e-05
2013-04-21 00:00:00,2013-04-21 00:00:00,PRATE,surface,-98.4379,35.4329,5.88e-05
2013-04-21 00:00:00,2013-04-21 00:00:00,PRATE,surface,-97.5004,35.4329,4.6e-05
2013-04-21 00:00:00,2013-04-21 00:00:00,PRATE,surface,-96.5629,35.4329,3.87e-05
2013-04-21 00:00:00,2013-04-21 00:00:00,PRATE,surface,-95.6254,35.4329,4.02e-05
2013-04-21 00:00:00,2013-04-21 00:00:00,PRATE,surface,-94.6879,35.4329,4.32e-05
2013-04-21 00:00:00,2013-04-21 00:00:00,PRATE,surface,-93.7504,35.4329,4.31e-05
2013-04-21 00:00:00,2013-04-21 00:00:00,PRATE,surface,-92.8129,35.4329,3.96e-05
2013-04-21 00:00:00,2013-04-21 00:00:00,PRATE,surface,-107.813,36.3778,7.4e-06
2013-04-21 00:00:00,2013-04-21 00:00:00,PRATE,surface,-106.875,36.3778,1.26e-05
2013-04-21 00:00:00,2013-04-21 00:00:00,PRATE,surface,-105.938,36.3778,2.1e-05
2013-04-21 00:00:00,2013-04-21 00:00:00,PRATE,surface,-105,36.3778,1.98e-05
2013-04-21 00:00:00,2013-04-21 00:00:00,PRATE,surface,-104.063,36.3778,1.86e-05
2013-04-21 00:00:00,2013-04-21 00:00:00,PRATE,surface,-103.125,36.3778,1.59e-05
2013-04-21 00:00:00,2013-04-21 00:00:00,PRATE,surface,-102.188,36.3778,1.45e-05
2013-04-21 00:00:00,2013-04-21 00:00:00,PRATE,surface,-101.25,36.3778,2.17e-05
2013-04-21 00:00:00,2013-04-21 00:00:00,PRATE,surface,-100.313,36.3778,4.21e-05
2013-04-21 00:00:00,2013-04-21 00:00:00,PRATE,surface,-99.3754,36.3778,5.72e-05
2013-04-21 00:00:00,2013-04-21 00:00:00,PRATE,surface,-98.4379,36.3778,6.51e-05
2013-04-21 00:00:00,2013-04-21 00:00:00,PRATE,surface,-97.5004,36.3778,6e-05
2013-04-21 00:00:00,2013-04-21 00:00:00,PRATE,surface,-96.5629,36.3778,4.65e-05
2013-04-21 00:00:00,2013-04-21 00:00:00,PRATE,surface,-95.6254,36.3778,4.04e-05
2013-04-21 00:00:00,2013-04-21 00:00:00,PRATE,surface,-94.6879,36.3778,4.31e-05
2013-04-21 00:00:00,2013-04-21 00:00:00,PRATE,surface,-93.7504,36.3778,4.45e-05
2013-04-21 00:00:00,2013-04-21 00:00:00,PRATE,surface,-92.8129,36.3778,3.97e-05
