2016-09-01 00:00:00,2016-09-01 00:00:00,TMP,surface,-107.813,25.0393,295.085
2016-09-01 00:00:00,2016-09-01 00:00:00,TMP,surface,-106.875,25.0393,288.554
2016-09-01 00:00:00,2016-09-01 00:00:00,TMP,surface,-105.938,25.0393,283.528
2016-09-01 00:00:00,2016-09-01 00:00:00,TMP,surface,-105,25.0393,282.346
2016-09-01 00:00:00,2016-09-01 00:00:00,TMP,surface,-104.063,25.0393,285.581
2016-09-01 00:00:00,2016-09-01 00:00:00,TMP,surface,-103.125,25.0393,287.589
2016-09-01 00:00:00,2016-09-01 00:00:00,TMP,surface,-102.188,25.0393,286.759
2016-09-01 00:00:00,2016-09-01 00:00:00,TMP,surface,-101.25,25.0393,284.9
2016-09-01 00:00:00,2016-09-01 00:00:00,TMP,surface,-100.313,25.0393,284.797
2016-09-01 00:00:00,2016-09-01 00:00:00,TMP,surface,-99.3754,25.0393,286.773
2016-09-01 00:00:00,2016-09-01 00:00:00,TMP,surface,-98.4379,25.0393,289.719
2016-09-01 00:00:00,2016-09-01 00:00:00,TMP,surface,-97.5004,25.0393,297.114
2016-09-01 00:00:00,2016-09-01 00:00:00,TMP,surface,-96.5629,25.0393,298.045
2016-09-01 00:00:00,2016-09-01 00:00:00,TMP,surface,-95.6254,25.0393,298.544
2016-09-01 00:00:00,2016-09-01 00:00:00,TMP,surface,-94.6879,25.0393,298.587
2016-09-01 00:00:00,2016-09-01 00:00:00,TMP,surface,-93.7504,25.0393,298.44
2016-09-01 00:00:00,2016-09-01 00:00:00,TMP,surface,-92.8129,25.0393,298.103
2016-09-01 00:00:00,2016-09-01 00:00:00,TMP,surface,-107.813,25.9842,289.837
2016-09-01 00:00:00,2016-09-01 00:00:00,TMP,surface,-106.875,25.9842,284.45
2016-09-01 00:00:00,2016-09-01 00:00:00,TMP,surface,-105.938,25.9842,282.176
2016-09-01 00:00:00,2016-09-01 00:00:00,TMP,surface,-105,25.9842,283.952
2016-09-01 00:00:00,2016-09-01 00:00:00,TMP,surface,-104.063,25.9842,287.127
2016-09-01 00:00:00,2016-09-01 00:00:00,TMP,surface,-103.125,25.9842,287.917
2016-09-01 00:00:00,2016-09-01 00:00:00,TMP,surface,-102.188,25.9842,286.511
2016-09-01 00:00:00,2016-09-01 00:00:00,TMP,surface,-101.25,25.9842,285.322
2016-09-01 00:00:00,2016-09-01 00:00:00,TMP,surface,-100.313,25.9842,285.021
2016-09-01 00:00:00,2016-09-01 00:00:00,TMP,surface,-99.3754,25.9842,286.691
2016-09-01 00:00:00,2016-09-01 00:00:00,TMP,surface,-98.4379,25.9842,289.066
2016-09-01 00:00:00,2016-09-01 00:00:00,TMP,surface,-97.5004,25.9842,291.744
2016-09-01 00:00:00,2016-09-01 00:00:00,TMP,surface,-96.5629,25.9842,297.267
2016-09-01 00:00:00,2016-09-01 00:00:00,TMP,surface,-95.6254,25.9842,297.908
2016-09-01 00:00:00,2016-09-01 00:00:00,TMP,surface,-94.6879,25.9842,297.96
2016-09-01 00:00:00,2016-09-01 00:00:00,TMP,surface,-93.7504,25.9842,297.92
2016-09-01 00:00:00,2016-09-01 00:00:00,TMP,surface,-92.8129,25.9842,298
2016-09-01 00:00:00,2016-09-01 00:00:00,TMP,surface,-107.813,26.929,285.167
2016-09-01 00:00:00,2016-09-01 00:00:00,TMP,surface,-106.875,26.929,281.84
2016-09-01 00:00:00,2016-09-01 00:00:00,TMP,surface,-105.938,26.929,283.216
2016-09-01 00:00:00,2016-09-01 00:00:00,TMP,surface,-105,26.929,285.976
2016-09-01 00:00:00,2016-09-01 00:00:00,TMP,surface,-104.063,26.929,286.831
2016-09-01 00:00:00,2016-09-01 00:00:00,TMP,surface,-103.125,26.929,285.621
2016-09-01 00:00:00,2016-09-01 00:00:00,TMP,surface,-102.188,26.929,284.791
2016-09-01 00:00:00,2016-09-01 00:00:00,TMP,surface,-101.25,26.929,284.743
2016-09-01 00:00:00,2016-09-01 00:00:00,TMP,surface,-100.313,26.929,284.933
2016-09-01 00:00:00,2016-09-01 00:00:00,TMP,surface,-99.3754,26.929,285.813
2016-09-01 00:00:00,2016-09-01 00:00:00,TMP,surface,-98.4379,26.929,287.22
2016-09-01 00:00:00,2016-09-01 00:00:00,TMP,surface,-97.5004,26.929,294.967
2016-09-01 00:00:00,2016-09-01 00:00:00,TMP,surface,-96.5629,26.929,296.378
2016-09-01 00:00:00,2016-09-01 00:00:00,TMP,surface,-95.6254,26.929,296.933
2016-09-01 00:00:00,2016-09-01 00:00:00,TMP,surface,-94.6879,26.929,297.085
2016-09-01 00:00:00,2016-09-01 00:00:00,TMP,surface,-93.7504,26.929,297.208
2016-09-01 00:00:00,2016-09-01 00:00:00,TMP,surface,-92.8129,26.929,297.48
2016-09-01 00:00:00,2016-09-01 00:00:00,TMP,surface,-107.813,27.8739,282.189
2016-09-01 00:00:00,2016-09-01 00:00:00,TMP,surface,-106.875,27.8739,281.336
2016-09-01 00:00:00,2016-09-01 00:00:00,TMP,surface,-105.938,27.8739,284.106
2016-09-01 00:00:00,2016-09-01 00:00:00,TMP,surface,-105,27.8739,286.338
2016-09-01 00:00:00,2016-09-01 00:00:00,TMP,surface,-104.063,27.8739,285.834
2016-09-01 00:00:00,2016-09-01 00:00:00,TMP,surface,-103.125,27.8739,284.068
2016-09-01 00:00:00,2016-09-01 00:00:00,TMP,surface,-102.188,27.8739,283.544
2016-09-01 00:00:00,2016-09-01 00:00:00,TMP,surface,-101.25,27.8739,283.994
2016-09-01 00:00:00,2016-09-01 00:00:00,TMP,surface,-100.313,27.8739,284.491
2016-09-01 00:00:00,2016-09-01 00:00:00,TMP,surface,-99.3754,27.8739,284.516
2016-09-01 00:00:00,2016-09-01 00:00:00,TMP,surface,-98.4379,27.8739,285.034
2016-09-01 00:00:00,2016-09-01 00:00:00,TMP,surface,-97.5004,27.8739,290.767
2016-09-01 00:00:00,2016-09-01 00:00:00,TMP,surface,-96.5629,27.8739,296.379
2016-09-01 00:00:00,2016-09-01 00:00:00,TMP,surface,-95.6254,27.8739,296.728
2016-09-01 00:00:00,2016-09-01 00:00:00,TMP,surface,-94.6879,27.8739,296.538
2016-09-01 00:00:00,2016-09-01 00:00:00,TMP,surface,-93.7504,27.8739,296.493
2016-09-01 00:00:00,2016-09-01 00:00:00,TMP,surface,-92.8129,27.8739,296.605
2016-09-01 00:00:00,2016-09-01 00:00:00,TMP,surface,-107.813,28.8188,281.056
2016-09-01 00:00:00,2016-09-01 00:00:00,TMP,surface,-106.875,28.8188,281.506
2016-09-01 00:00:00,2016-09-01 00:00:00,TMP,surface,-105.938,28.8188,284.184
2016-09-01 00:00:00,2016-09-01 00:00:00,TMP,surface,-105,28.8188,285.572
2016-09-01 00:00:00,2016-09-01 00:00:00,TMP,surface,-104.063,28.8188,284.285
2016-09-01 00:00:00,2016-09-01 00:00:00,TMP,surface,-103.125,28.8188,283.024
2016-09-01 00:00:00,2016-09-01 00:00:00,TMP,surface,-102.188,28.8188,282.948
2016-09-01 00:00:00,2016-09-01 00:00:00,TMP,surface,-101.25,28.8188,283.495
2016-09-01 00:00:00,2016-09-01 00:00:00,TMP,surface,-100.313,28.8188,283.402
2016-09-01 00:00:00,2016-09-01 00:00:00,TMP,surface,-99.3754,28.8188,282.693
2016-09-01 00:00:00,2016-09-01 00:00:00,TMP,surface,-98.4379,28.8188,282.453
2016-09-01 00:00:00,2016-09-01 00:00:00,TMP,surface,-97.5004,28.8188,283.215
2016-09-01 00:00:00,2016-09-01 00:00:00,TMP,surface,-96.5629,28.8188,284.603
2016-09-01 00:00:00,2016-09-01 00:00:00,TMP,surface,-95.6254,28.8188,289.46
2016-09-01 00:00:00,2016-09-01 00:00:00,TMP,surface,-94.6879,28.8188,295.946
2016-09-01 00:00:00,2016-09-01 00:00:00,TMP,surface,-93.7504,28.8188,295.847
2016-09-01 00:00:00,2016-09-01 00:00:00,TMP,surface,-92.8129,28.8188,296.01
2016-09-01 00:00:00,2016-09-01 00:00:00,TMP,surface,-107.813,29.7637,281.874
2016-09-01 00:00:00,2016-09-01 00:00:00,TMP,surface,-106.875,29.7637,282.509
2016-09-01 00:00:00,2016-09-01 00:00:00,TMP,surface,-105.938,29.7637,284.17
2016-09-01 00:00:00,2016-09-01 00:00:00,TMP,surface,-105,29.7637,283.981
2016-09-01 00:00:00,2016-09-01 00:00:00,TMP,surface,-104.063,29.7637,283.315
2016-09-01 00:00:00,2016-09-01 00:00:00,TMP,surface,-103.125,29.7637,282.946
2016-09-01 00:00:00,2016-09-01 00:00:00,TMP,surface,-102.188,29.7637,283.112
2016-09-01 00:00:00,2016-09-01 00:00:00,TMP,surface,-101.25,29.7637,282.888
2016-09-01 00:00:00,2016-09-01 00:00:00,TMP,surface,-100.313,29.7637,282.039
2016-09-01 00:00:00,2016-09-01 00:00:00,TMP,surface,-99.3754,29.7637,281.149
2016-09-01 00:00:00,2016-09-01 00:00:00,TMP,surface,-98.4379,29.7637,280.695
2016-09-01 00:00:00,2016-09-01 00:00:00,TMP,surface,-97.5004,29.7637,280.752
2016-09-01 00:00:00,2016-09-01 00:00:00,TMP,surface,-96.5629,29.7637,281.336
2016-09-01 00:00:00,2016-09-01 00:00:00,TMP,surface,-95.6254,29.7637,282.375
2016-09-01 00:00:00,2016-09-01 00:00:00,TMP,surface,-94.6879,29.7637,286.8
2016-09-01 00:00:00,2016-09-01 00:00:00,TMP,surface,-93.7504,29.7637,291.738
2016-09-01 00:00:00,2016-09-01 00:00:00,TMP,surface,-92.8129,29.7637,282.535
2016-09-01 00:00:00,2016-09-01 00:00:00,TMP,surface,-107.813,30.7085,283.53
2016-09-01 00:00:00,2016-09-01 00:00:00,TMP,surface,-106.875,30.7085,284.093
2016-09-01 00:00:00,2016-09-01 00:00:00,TMP,surface,-105.938,30.7085,283.831
2016-09-01 00:00:00,2016-09-01 00:00:00,TMP,surface,-105,30.7085,282.922
2016-09-01 00:00:00,2016-09-01 00:00:00,TMP,surface,-104.063,30.7085,282.471
2016-09-01 00:00:00,2016-09-01 00:00:00,TMP,surface,-103.125,30.7085,282.703
2016-09-01 00:00:00,2016-09-01 00:00:00,TMP,surface,-102.188,30.7085,282.647
2016-09-01 00:00:00,2016-09-01 00:00:00,TMP,surface,-101.25,30.7085,282.018
2016-09-01 00:00:00,2016-09-01 00:00:00,TMP,surface,-100.313,30.7085,281.17
2016-09-01 00:00:00,2016-09-01 00:00:00,TMP,surface,-99.3754,30.7085,280.498
2016-09-01 00:00:00,2016-09-01 00:00:00,TMP,surface,-98.4379,30.7085,280.063
2016-09-01 00:00:00,2016-09-01 00:00:00,TMP,surface,-97.5004,30.7085,279.877
2016-09-01 00:00:00,2016-09-01 00:00:00,TMP,surface,-96.5629,30.7085,279.967
2016-09-01 00:00:00,2016-09-01 00:00:00,TMP,surface,-95.6254,30.7085,280.164
2016-09-01 00:00:00,2016-09-01 00:00:00,TMP,surface,-94.6879,30.7085,280.149
2016-09-01 00:00:00,2016-09-01 00:00:00,TMP,surface,-93.7504,30.7085,279.714
2016-09-01 00:00:00,2016-09-01 00:00:00,TMP,surface,-92.8129,30.7085,278.94
2016-09-01 00:00:00,2016-09-01 00:00:00,TMP,surface,-107.813,31.6534,283.28
2016-09-01 00:00:00,2016-09-01 00:00:00,TMP,surface,-106.875,31.6534,283.676
2016-09-01 00:00:00,2016-09-01 00:00:00,TMP,surface,-105.938,31.6534,282.695
2016-09-01 00:00:00,2016-09-01 00:00:00,TMP,surface,-105,31.6534,281.908
2016-09-01 00:00:00,2016-09-01 00:00:00,TMP,surface,-104.063,31.6534,281.781
2016-09-01 00:00:00,2016-09-01 00:00:00,TMP,surface,-103.125,31.6534,281.887
2016-09-01 00:00:00,2016-09-01 00:00:00,TMP,surface,-102.188,31.6534,281.608
2016-09-01 00:00:00,2016-09-01 00:00:00,TMP,surface,-101.25,31.6534,281.02
2016-09-01 00:00:00,2016-09-01 00:00:00,TMP,surface,-100.313,31.6534,280.556
2016-09-01 00:00:00,2016-09-01 00:00:00,TMP,surface,-99.3754,31.6534,280.319
2016-09-01 00:00:00,2016-09-01 00:00:00,TMP,surface,-98.4379,31.6534,280.008
2016-09-01 00:00:00,2016-09-01 00:00:00,TMP,surface,-97.5004,31.6534,279.635
2016-09-01 00:00:00,2016-09-01 00:00:00,TMP,surface,-96.5629,31.6534,279.371
2016-09-01 00:00:00,2016-09-01 00:00:00,TMP,surface,-95.6254,31.6534,279.071
2016-09-01 00:00:00,2016-09-01 00:00:00,TMP,surface,-94.6879,31.6534,278.501
2016-09-01 00:00:00,2016-09-01 00:00:00,TMP,surface,-93.7504,31.6534,277.844
2016-09-01 00:00:00,2016-09-01 00:00:00,TMP,surface,-92.8129,31.6534,277.434
2016-09-01 00:00:00,2016-09-01 00:00:00,TMP,surface,-107.813,32.5983,280.772
2016-09-01 00:00:00,2016-09-01 00:00:00,TMP,surface,-106.875,32.5983,280.848
2016-09-01 00:00:00,2016-09-01 00:00:00,TMP,surface,-105.938,32.5983,280.677
2016-09-01 00:00:00,2016-09-01 00:00:00,TMP,surface,-105,32.5983,280.434
2016-09-01 00:00:00,2016-09-01 00:00:00,TMP,surface,-104.063,32.5983,280.815
2016-09-01 00:00:00,2016-09-01 00:00:00,TMP,surface,-103.125,32.5983,280.765
2016-09-01 00:00:00,2016-09-01 00:00:00,TMP,surface,-102.188,32.5983,280.267
2016-09-01 00:00:00,2016-09-01 00:00:00,TMP,surface,-101.25,32.5983,279.803
2016-09-01 00:00:00,2016-09-01 00:00:00,TMP,surface,-100.313,32.5983,279.613
2016-09-01 00:00:00,2016-09-01 00:00:00,TMP,surface,-99.3754,32.5983,279.618
2016-09-01 00:00:00,2016-09-01 00:00:00,TMP,surface,-98.4379,32.5983,279.424
2016-09-01 00:00:00,2016-09-01 00:00:00,TMP,surface,-97.5004,32.5983,279.063
2016-09-01 00:00:00,2016-09-01 00:00:00,TMP,surface,-96.5629,32.5983,278.674
2016-09-01 00:00:00,2016-09-01 00:00:00,TMP,surface,-95.6254,32.5983,278.159
2016-09-01 00:00:00,2016-09-01 00:00:00,TMP,surface,-94.6879,32.5983,277.471
2016-09-01 00:00:00,2016-09-01 00:00:00,TMP,surface,-93.7504,32.5983,276.866
2016-09-01 00:00:00,2016-09-01 00:00:00,TMP,surface,-92.8129,32.5983,276.677
2016-09-01 00:00:00,2016-09-01 00:00:00,TMP,surface,-107.813,33.5432,277.229
2016-09-01 00:00:00,2016-09-01 00:00:00,TMP,surface,-106.875,33.5432,277.952
2016-09-01 00:00:00,2016-09-01 00:00:00,TMP,surface,-105.938,33.5432,278.421
2016-09-01 00:00:00,2016-09-01 00:00:00,TMP,surface,-105,33.5432,278.888
2016-09-01 00:00:00,2016-09-01 00:00:00,TMP,surface,-104.063,33.5432,279.567
2016-09-01 00:00:00,2016-09-01 00:00:00,TMP,surface,-103.125,33.5432,279.485
2016-09-01 00:00:00,2016-09-01 00:00:00,TMP,surface,-102.188,33.5432,278.877
2016-09-01 00:00:00,2016-09-01 00:00:00,TMP,surface,-101.25,33.5432,278.359
2016-09-01 00:00:00,2016-09-01 00:00:00,TMP,surface,-100.313,33.5432,278.304
2016-09-01 00:00:00,2016-09-01 00:00:00,TMP,surface,-99.3754,33.5432,278.37
2016-09-01 00:00:00,2016-09-01 00:00:00,TMP,surface,-98.4379,33.5432,278.21
2016-09-01 00:00:00,2016-09-01 00:00:00,TMP,surface,-97.5004,33.5432,277.831
2016-09-01 00:00:00,2016-09-01 00:00:00,TMP,surface,-96.5629,33.5432,277.463
2016-09-01 00:00:00,2016-09-01 00:00:00,TMP,surface,-95.6254,33.5432,277.055
2016-09-01 00:00:00,2016-09-01 00:00:00,TMP,surface,-94.6879,33.5432,276.407
2016-09-01 00:00:00,2016-09-01 00:00:00,TMP,surface,-93.7504,33.5432,275.803
2016-09-01 00:00:00,2016-09-01 00:00:00,TMP,surface,-92.8129,33.5432,275.578
2016-09-01 00:00:00,2016-09-01 00:00:00,TMP,surface,-107.813,34.4881,274.898
2016-09-01 00:00:00,2016-09-01 00:00:00,TMP,surface,-106.875,34.4881,276.061
2016-09-01 00:00:00,2016-09-01 00:00:00,TMP,surface,-105.938,34.4881,276.869
2016-09-01 00:00:00,2016-09-01 00:00:00,TMP,surface,-105,34.4881,277.587
2016-09-01 00:00:00,2016-09-01 00:00:00,TMP,surface,-104.063,34.4881,277.952
2016-09-01 00:00:00,2016-09-01 00:00:00,TMP,surface,-103.125,34.4881,277.826
2016-09-01 00:00:00,2016-09-01 00:00:00,TMP,surface,-102.188,34.4881,277.363
2016-09-01 00:00:00,2016-09-01 00:00:00,TMP,surface,-101.25,34.4881,276.872
2016-09-01 00:00:00,2016-09-01 00:00:00,TMP,surface,-100.313,34.4881,276.672
2016-09-01 00:00:00,2016-09-01 00:00:00,TMP,surface,-99.3754,34.4881,276.677
2016-09-01 00:00:00,2016-09-01 00:00:00,TMP,surface,-98.4379,34.4881,276.506
2016-09-01 00:00:00,2016-09-01 00:00:00,TMP,surface,-97.5004,34.4881,276.234
2016-09-01 00:00:00,2016-09-01 00:00:00,TMP,surface,-96.5629,34.4881,276.043
2016-09-01 00:00:00,2016-09-01 00:00:00,TMP,surface,-95.6254,34.4881,275.703
2016-09-01 00:00:00,2016-09-01 00:00:00,TMP,surface,-94.6879,34.4881,275.052
2016-09-01 00:00:00,2016-09-01 00:00:00,TMP,surface,-93.7504,34.4881,274.487
2016-09-01 00:00:00,2016-09-01 00:00:00,TMP,surface,-92.8129,34.4881,274.344
2016-09-01 00:00:00,2016-09-01 00:00:00,TMP,surface,-107.813,35.4329,273.896
2016-09-01 00:00:00,2016-09-01 00:00:00,TMP,surface,-106.875,35.4329,274.631
2016-09-01 00:00:00,2016-09-01 00:00:00,TMP,surface,-105.938,35.4329,275.421
2016-09-01 00:00:00,2016-09-01 00:00:00,TMP,surface,-105,35.4329,275.904
2016-09-01 00:00:00,2016-09-01 00:00:00,TMP,surface,-104.063,35.4329,276.568
2016-09-01 00:00:00,2016-09-01 00:00:00,TMP,surface,-103.125,35.4329,276.629
2016-09-01 00:00:00,2016-09-01 00:00:00,TMP,surface,-102.188,35.4329,275.987
2016-09-01 00:00:00,2016-09-01 00:00:00,TMP,surface,-101.25,35.4329,275.386
2016-09-01 00:00:00,2016-09-01 00:00:00,TMP,surface,-100.313,35.4329,274.96
2016-09-01 00:00:00,2016-09-01 00:00:00,TMP,surface,-99.3754,35.4329,274.743
2016-09-01 00:00:00,2016-09-01 00:00:00,TMP,surface,-98.4379,35.4329,274.671
2016-09-01 00:00:00,2016-09-01 00:00:00,TMP,surface,-97.5004,35.4329,274.706
2016-09-01 00:00:00,2016-09-01 00:00:00,TMP,surface,-96.5629,35.4329,274.706
2016-09-01 00:00:00,2016-09-01 00:00:00,TMP,surface,-95.6254,35.4329,274.421
2016-09-01 00:00:00,2016-09-01 00:00:00,TMP,surface,-94.6879,35.4329,273.78
2016-09-01 00:00:00,2016-09-01 00:00:00,TMP,surface,-93.7504,35.4329,273.098
2016-09-01 00:00:00,2016-09-01 00:00:00,TMP,surface,-92.8129,35.4329,272.853
2016-09-01 00:00:00,2016-09-01 00:00:00,TMP,surface,-107.813,36.3778,272.743
2016-09-01 00:00:00,2016-09-01 00:00:00,TMP,surface,-106.875,36.3778,272.039
2016-09-01 00:00:00,2016-09-01 00:00:00,TMP,surface,-105.938,36.3778,272.763
2016-09-01 00:00:00,2016-09-01 00:00:00,TMP,surface,-105,36.3778,273.735
2016-09-01 00:00:00,2016-09-01 00:00:00,TMP,surface,-104.063,36.3778,274.501
2016-09-01 00:00:00,2016-09-01 00:00:00,TMP,surface,-103.125,36.3778,274.653
2016-09-01 00:00:00,2016-09-01 00:00:00,TMP,surface,-102.188,36.3778,274.495
2016-09-01 00:00:00,2016-09-01 00:00:00,TMP,surface,-101.25,36.3778,274.172
2016-09-01 00:00:00,2016-09-01 00:00:00,TMP,surface,-100.313,36.3778,273.867
2016-09-01 00:00:00,2016-09-01 00:00:00,TMP,surface,-99.3754,36.3778,273.684
2016-09-01 00:00:00,2016-09-01 00:00:00,TMP,surface,-98.4379,36.3778,273.45
2016-09-01 00:00:00,2016-09-01 00:00:00,TMP,surface,-97.5004,36.3778,273.292
2016-09-01 00:00:00,2016-09-01 00:00:00,TMP,surface,-96.5629,36.3778,273.155
2016-09-01 00:00:00,2016-09-01 00:00:00,TMP,surface,-95.6254,36.3778,272.743
2016-09-01 00:00:00,2016-09-01 00:00:00,TMP,surface,-94.6879,36.3778,272.031
2016-09-01 00:00:00,2016-09-01 00:00:00,TMP,surface,-93.7504,36.3778,271.34
2016-09-01 00:00:00,2016-09-01 00:00:00,TMP,surface,-92.8129,36.3778,271.125
2016-09-01 00:00:00,2016-09-01 00:00:00,PRATE,surface,-107.813,25.0393,1.97e-05
2016-09-01 00:00:00,2016-09-01 00:00:00,PRATE,surface,-106.875,25.0393,3.31e-05
2016-09-01 00:00:00,2016-09-01 00:00:00,PRATE,surface,-105.938,25.0393,3.38e-05
2016-09-01 00:00:00,2016-09-01 00:00:00,PRATE,surface,-105,25.0393,3e-05
2016-09-01 00:00:00,2016-09-01 00:00:00,PRATE,surface,-104.063,25.0393,1.45e-05
2016-09-01 00:00:00,2016-09-01 00:00:00,PRATE,surface,-103.125,25.0393,4.6e-06
2016-09-01 00:00:00,2016-09-01 00:00:00,PRATE,surface,-102.188,25.0393,5.1e-06
2016-09-01 00:00:00,2016-09-01 00:00:00,PRATE,surface,-101.25,25.0393,1.46e-05
2016-09-01 00:00:00,2016-09-01 00:00:00,PRATE,surface,-100.313,25.0393,3.66e-05
2016-09-01 00:00:00,2016-09-01 00:00:00,PRATE,surface,-99.3754,25.0393,3.8e-05
2016-09-01 00:00:00,2016-09-01 00:00:00,PRATE,surface,-98.4379,25.0393,3.48e-05
2016-09-01 00:00:00,2016-09-01 00:00:00,PRATE,surface,-97.5004,25.0393,5.83e-05
2016-09-01 00:00:00,2016-09-01 00:00:00,PRATE,surface,-96.5629,25.0393,0.0001104
2016-09-01 00:00:00,2016-09-01 00:00:00,PRATE,surface,-95.6254,25.0393,0.0001034
2016-09-01 00:00:00,2016-09-01 00:00:00,PRATE,surface,-94.6879,25.0393,6.68e-05
2016-09-01 00:00:00,2016-09-01 00:00:00,PRATE,surface,-93.7504,25.0393,6.52e-05
2016-09-01 00:00:00,2016-09-01 00:00:00,PRATE,surface,-92.8129,25.0393,7e-05
2016-09-01 00:00:00,2016-09-01 00:00:00,PRATE,surface,-107.813,25.9842,5.49e-05
2016-09-01 00:00:00,2016-09-01 00:00:00,PRATE,surface,-106.875,25.9842,4.04e-05
2016-09-01 00:00:00,2016-09-01 00:00:00,PRATE,surface,-105.938,25.9842,3.45e-05
2016-09-01 00:00:00,2016-09-01 00:00:00,PRATE,surface,-105,25.9842,3.13e-05
2016-09-01 00:00:00,2016-09-01 00:00:00,PRATE,surface,-104.063,25.9842,1.18e-05
2016-09-01 00:00:00,2016-09-01 00:00:00,PRATE,surface,-103.125,25.9842,4.7e-06
2016-09-01 00:00:00,2016-09-01 00:00:00,PRATE,surface,-102.188,25.9842,6.6e-06
2016-09-01 00:00:00,2016-09-01 00:00:00,PRATE,surface,-101.25,25.9842,1.68e-05
2016-09-01 00:00:00,2016-09-01 00:00:00,PRATE,surface,-100.313,25.9842,3.13e-05
2016-09-01 00:00:00,2016-09-01 00:00:00,PRATE,surface,-99.3754,25.9842,3.67e-05
2016-09-01 00:00:00,2016-09-01 00:00:00,PRATE,surface,-98.4379,25.9842,4.68e-05
2016-09-01 00:00:00,2016-09-01 00:00:00,PRATE,surface,-97.5004,25.9842,6.68e-05
2016-09-01 00:00:00,2016-09-01 00:00:00,PRATE,surface,-96.5629,25.9842,0.0001389
2016-09-01 00:00:00,2016-09-01 00:00:00,PRATE,surface,-95.6254,25.9842,0.0001364
2016-09-01 00:00:00,2016-09-01 00:00:00,PRATE,surface,-94.6879,25.9842,8.76e-05
2016-09-01 00:00:00,2016-09-01 00:00:00,PRATE,surface,-93.7504,25.9842,7.25e-05
2016-09-01 00:00:00,2016-09-01 00:00:00,PRATE,surface,-92.8129,25.9842,7.94e-05
2016-09-01 00:00:00,2016-09-01 00:00:00,PRATE,surface,-107.813,26.929,7.86e-05
2016-09-01 00:00:00,2016-09-01 00:00:00,PRATE,surface,-106.875,26.929,5.87e-05
2016-09-01 00:00:00,2016-09-01 00:00:00,PRATE,surface,-105.938,26.929,3.42e-05
2016-09-01 00:00:00,2016-09-01 00:00:00,PRATE,surface,-105,26.929,2e-05
2016-09-01 00:00:00,2016-09-01 00:00:00,PRATE,surface,-104.063,26.929,1.43e-05
2016-09-01 00:00:00,2016-09-01 00:00:00,PRATE,surface,-103.125,26.929,1.45e-05
2016-09-01 00:00:00,2016-09-01 00:00:00,PRATE,surface,-102.188,26.929,1.7e-05
2016-09-01 00:00:00,2016-09-01 00:00:00,PRATE,surface,-101.25,26.929,2.17e-05
2016-09-01 00:00:00,2016-09-01 00:00:00,PRATE,surface,-100.313,26.929,2.39e-05
2016-09-01 00:00:00,2016-09-01 00:00:00,PRATE,surface,-99.3754,26.929,3.21e-05
2016-09-01 00:00:00,2016-09-01 00:00:00,PRATE,surface,-98.4379,26.929,4.76e-05
2016-09-01 00:00:00,2016-09-01 00:00:00,PRATE,surface,-97.5004,26.929,7.49e-05
2016-09-01 00:00:00,2016-09-01 00:00:00,PRATE,surface,-96.5629,26.929,0.0001032
2016-09-01 00:00:00,2016-09-01 00:00:00,PRATE,surface,-95.6254,26.929,0.0001072
2016-09-01 00:00:00,2016-09-01 00:00:00,PRATE,surface,-94.6879,26.929,9.63e-05
2016-09-01 00:00:00,2016-09-01 00:00:00,PRATE,surface,-93.7504,26.929,8.04e-05
2016-09-01 00:00:00,2016-09-01 00:00:00,PRATE,surface,-92.8129,26.929,8.92e-05
2016-09-01 00:00:00,2016-09-01 00:00:00,PRATE,surface,-107.813,27.8739,7.52e-05
2016-09-01 00:00:00,2016-09-01 00:00:00,PRATE,surface,-106.875,27.8739,5.48e-05
2016-09-01 00:00:00,2016-09-01 00:00:00,PRATE,surface,-105.938,27.8739,2.91e-05
2016-09-01 00:00:00,2016-09-01 00:00:00,PRATE,surface,-105,27.8739,1.63e-05
2016-09-01 00:00:00,2016-09-01 00:00:00,PRATE,surface,-104.063,27.8739,2.01e-05
2016-09-01 00:00:00,2016-09-01 00:00:00,PRATE,surface,-103.125,27.8739,3.07e-05
2016-09-01 00:00:00,2016-09-01 00:00:00,PRATE,surface,-102.188,27.8739,3.35e-05
2016-09-01 00:00:00,2016-09-01 00:00:00,PRATE,surface,-101.25,27.8739,2.51e-05
2016-09-01 00:00:00,2016-09-01 00:00:00,PRATE,surface,-100.313,27.8739,2.39e-05
2016-09-01 00:00:00,2016-09-01 00:00:00,PRATE,surface,-99.3754,27.8739,3.01e-05
2016-09-01 00:00:00,2016-09-01 00:00:00,PRATE,surface,-98.4379,27.8739,3.72e-05
2016-09-01 00:00:00,2016-09-01 00:00:00,PRATE,surface,-97.5004,27.8739,4.75e-05
2016-09-01 00:00:00,2016-09-01 00:00:00,PRATE,surface,-96.5629,27.8739,6.58e-05
2016-09-01 00:00:00,2016-09-01 00:00:00,PRATE,surface,-95.6254,27.8739,8.43e-05
2016-09-01 00:00:00,2016-09-01 00:00:00,PRATE,surface,-94.6879,27.8739,9.26e-05
2016-09-01 00:00:00,2016-09-01 00:00:00,PRATE,surface,-93.7504,27.8739,9.68e-05
2016-09-01 00:00:00,2016-09-01 00:00:00,PRATE,surface,-92.8129,27.8739,0.0001108
2016-09-01 00:00:00,2016-09-01 00:00:00,PRATE,surface,-107.813,28.8188,4.5e-05
2016-09-01 00:00:00,2016-09-01 00:00:00,PRATE,surface,-106.875,28.8188,4.09e-05
2016-09-01 00:00:00,2016-09-01 00:00:00,PRATE,surface,-105.938,28.8188,2.45e-05
2016-09-01 00:00:00,2016-09-01 00:00:00,PRATE,surface,-105,28.8188,1.68e-05
2016-09-01 00:00:00,2016-09-01 00:00:00,PRATE,surface,-104.063,28.8188,2.41e-05
2016-09-01 00:00:00,2016-09-01 00:00:00,PRATE,surface,-103.125,28.8188,3.69e-05
2016-09-01 00:00:00,2016-09-01 00:00:00,PRATE,surface,-102.188,28.8188,3.44e-05
2016-09-01 00:00:00,2016-09-01 00:00:00,PRATE,surface,-101.25,28.8188,2.84e-05
2016-09-01 00:00:00,2016-09-01 00:00:00,PRATE,surface,-100.313,28.8188,3.04e-05
2016-09-01 00:00:00,2016-09-01 00:00:00,PRATE,surface,-99.3754,28.8188,3.67e-05
2016-09-01 00:00:00,2016-09-01 00:00:00,PRATE,surface,-98.4379,28.8188,3.78e-05
2016-09-01 00:00:00,2016-09-01 00:00:00,PRATE,surface,-97.5004,28.8188,3.72e-05
2016-09-01 00:00:00,2016-09-01 00:00:00,PRATE,surface,-96.5629,28.8188,4.23e-05
2016-09-01 00:00:00,2016-09-01 00:00:00,PRATE,surface,-95.6254,28.8188,5.68e-05
2016-09-01 00:00:00,2016-09-01 00:00:00,PRATE,surface,-94.6879,28.8188,7.54e-05
2016-09-01 00:00:00,2016-09-01 00:00:00,PRATE,surface,-93.7504,28.8188,8.53e-05
2016-09-01 00:00:00,2016-09-01 00:00:00,PRATE,surface,-92.8129,28.8188,9.29e-05
2016-09-01 00:00:00,2016-09-01 00:00:00,PRATE,surface,-107.813,29.7637,2.65e-05
2016-09-01 00:00:00,2016-09-01 00:00:00,PRATE,surface,-106.875,29.7637,2.93e-05
2016-09-01 00:00:00,2016-09-01 00:00:00,PRATE,surface,-105.938,29.7637,2.56e-05
2016-09-01 00:00:00,2016-09-01 00:00:00,PRATE,surface,-105,29.7637,2.39e-05
2016-09-01 00:00:00,2016-09-01 00:00:00,PRATE,surface,-104.063,29.7637,3.13e-05
2016-09-01 00:00:00,2016-09-01 00:00:00,PRATE,surface,-103.125,29.7637,3.56e-05
2016-09-01 00:00:00,2016-09-01 00:00:00,PRATE,surface,-102.188,29.7637,3.09e-05
2016-09-01 00:00:00,2016-09-01 00:00:00,PRATE,surface,-101.25,29.7637,2.78e-05
2016-09-01 00:00:00,2016-09-01 00:00:00,PRATE,surface,-100.313,29.7637,3.12e-05
2016-09-01 00:00:00,2016-09-01 00:00:00,PRATE,surface,-99.3754,29.7637,3.53e-05
2016-09-01 00:00:00,2016-09-01 00:00:00,PRATE,surface,-98.4379,29.7637,3.47e-05
2016-09-01 00:00:00,2016-09-01 00:00:00,PRATE,surface,-97.5004,29.7637,3.35e-05
2016-09-01 00:00:00,2016-09-01 00:00:00,PRATE,surface,-96.5629,29.7637,3.79e-05
2016-09-01 00:00:00,2016-09-01 00:00:00,PRATE,surface,-95.6254,29.7637,4.44e-05
2016-09-01 00:00:00,2016-09-01 00:00:00,PRATE,surface,-94.6879,29.7637,4.71e-05
2016-09-01 00:00:00,2016-09-01 00:00:00,PRATE,surface,-93.7504,29.7637,5.09e-05
2016-09-01 00:00:00,2016-09-01 00:00:00,PRATE,surface,-92.8129,29.7637,5.68e-05
2016-09-01 00:00:00,2016-09-01 00:00:00,PRATE,surface,-107.813,30.7085,1.87e-05
2016-09-01 00:00:00,2016-09-01 00:00:00,PRATE,surface,-106.875,30.7085,1.91e-05
2016-09-01 00:00:00,2016-09-01 00:00:00,PRATE,surface,-105.938,30.7085,2.18e-05
2016-09-01 00:00:00,2016-09-01 00:00:00,PRATE,surface,-105,30.7085,2.76e-05
2016-09-01 00:00:00,2016-09-01 00:00:00,PRATE,surface,-104.063,30.7085,2.87e-05
2016-09-01 00:00:00,2016-09-01 00:00:00,PRATE,surface,-103.125,30.7085,2.5e-05
2016-09-01 00:00:00,2016-09-01 00:00:00,PRATE,surface,-102.188,30.7085,2e-05
2016-09-01 00:00:00,2016-09-01 00:00:00,PRATE,surface,-101.25,30.7085,1.98e-05
2016-09-01 00:00:00,2016-09-01 00:00:00,PRATE,surface,-100.313,30.7085,2.31e-05
2016-09-01 00:00:00,2016-09-01 00:00:00,PRATE,surface,-99.3754,30.7085,2.73e-05
2016-09-01 00:00:00,2016-09-01 00:00:00,PRATE,surface,-98.4379,30.7085,2.98e-05
2016-09-01 00:00:00,2016-09-01 00:00:00,PRATE,surface,-97.5004,30.7085,3.1e-05
2016-09-01 00:00:00,2016-09-01 00:00:00,PRATE,surface,-96.5629,30.7085,3.41e-05
2016-09-01 00:00:00,2016-09-01 00:00:00,PRATE,surface,-95.6254,30.7085,3.89e-05
2016-09-01 00:00:00,2016-09-01 00:00:00,PRATE,surface,-94.6879,30.7085,4.09e-05
2016-09-01 00:00:00,2016-09-01 00:00:00,PRATE,surface,-93.7504,30.7085,4.05e-05
2016-09-01 00:00:00,2016-09-01 00:00:00,PRATE,surface,-92.8129,30.7085,4.02e-05
2016-09-01 00:00:00,2016-09-01 00:00:00,PRATE,surface,-107.813,31.6534,1.16e-05
2016-09-01 00:00:00,2016-09-01 00:00:00,PRATE,surface,-106.875,31.6534,8.1e-06
2016-09-01 00:00:00,2016-09-01 00:00:00,PRATE,surface,-105.938,31.6534,9e-06
2016-09-01 00:00:00,2016-09-01 00:00:00,PRATE,surface,-105,31.6534,1.03e-05
2016-09-01 00:00:00,2016-09-01 00:00:00,PRATE,surface,-104.063,31.6534,1.21e-05
2016-09-01 00:00:00,2016-09-01 00:00:00,PRATE,surface,-103.125,31.6534,1.17e-05
2016-09-01 00:00:00,2016-09-01 00:00:00,PRATE,surface,-102.188,31.6534,1.28e-05
2016-09-01 00:00:00,2016-09-01 00:00:00,PRATE,surface,-101.25,31.6534,1.58e-05
2016-09-01 00:00:00,2016-09-01 00:00:00,PRATE,surface,-100.313,31.6534,1.87e-05
2016-09-01 00:00:00,2016-09-01 00:00:00,PRATE,surface,-99.3754,31.6534,2.17e-05
2016-09-01 00:00:00,2016-09-01 00:00:00,PRATE,surface,-98.4379,31.6534,2.53e-05
2016-09-01 00:00:00,2016-09-01 00:00:00,PRATE,surface,-97.5004,31.6534,2.98e-05
2016-09-01 00:00:00,2016-09-01 00:00:00,PRATE,surface,-96.5629,31.6534,3.55e-05
2016-09-01 00:00:00,2016-09-01 00:00:00,PRATE,surface,-95.6254,31.6534,4.17e-05
2016-09-01 00:00:00,2016-09-01 00:00:00,PRATE,surface,-94.6879,31.6534,4.53e-05
2016-09-01 00:00:00,2016-09-01 00:00:00,PRATE,surface,-93.7504,31.6534,4.38e-05
2016-09-01 00:00:00,2016-09-01 00:00:00,PRATE,surface,-92.8129,31.6534,3.94e-05
2016-09-01 00:00:00,2016-09-01 00:00:00,PRATE,surface,-107.813,32.5983,1.08e-05
2016-09-01 00:00:00,2016-09-01 00:00:00,PRATE,surface,-106.875,32.5983,9.4e-06
2016-09-01 00:00:00,2016-09-01 00:00:00,PRATE,surface,-105.938,32.5983,7.7e-06
2016-09-01 00:00:00,2016-09-01 00:00:00,PRATE,surface,-105,32.5983,7.6e-06
2016-09-01 00:00:00,2016-09-01 00:00:00,PRATE,surface,-104.063,32.5983,7.4e-06
2016-09-01 00:00:00,2016-09-01 00:00:00,PRATE,surface,-103.125,32.5983,7.5e-06
2016-09-01 00:00:00,2016-09-01 00:00:00,PRATE,surface,-102.188,32.5983,9.6e-06
2016-09-01 00:00:00,2016-09-01 00:00:00,PRATE,surface,-101.25,32.5983,1.38e-05
2016-09-01 00:00:00,2016-09-01 00:00:00,PRATE,surface,-100.313,32.5983,1.8e-05
2016-09-01 00:00:00,2016-09-01 00:00:00,PRATE,surface,-99.3754,32.5983,2.08e-05
2016-09-01 00:00:00,2016-09-01 00:00:00,PRATE,surface,-98.4379,32.5983,2.44e-05
2016-09-01 00:00:00,2016-09-01 00:00:00,PRATE,surface,-97.5004,32.5983,2.89e-05
2016-09-01 00:00:00,2016-09-01 00:00:00,PRATE,surface,-96.5629,32.5983,3.21e-05
2016-09-01 00:00:00,2016-09-01 00:00:00,PRATE,surface,-95.6254,32.5983,3.66e-05
2016-09-01 00:00:00,2016-09-01 00:00:00,PRATE,surface,-94.6879,32.5983,4.37e-05
2016-09-01 00:00:00,2016-09-01 00:00:00,PRATE,surface,-93.7504,32.5983,4.48e-05
2016-09-01 00:00:00,2016-09-01 00:00:00,PRATE,surface,-92.8129,32.5983,3.8e-05
2016-09-01 00:00:00,2016-09-01 00:00:00,PRATE,surface,-107.813,33.5432,1.34e-05
2016-09-01 00:00:00,2016-09-01 00:00:00,PRATE,surface,-106.875,33.5432,1.13e-05
2016-09-01 00:00:00,2016-09-01 00:00:00,PRATE,surface,-105.938,33.5432,9.9e-06
2016-09-01 00:00:00,2016-09-01 00:00:00,PRATE,surface,-105,33.5432,8.4e-06
2016-09-01 00:00:00,2016-09-01 00:00:00,PRATE,surface,-104.063,33.5432,6.6e-06
2016-09-01 00:00:00,2016-09-01 00:00:00,PRATE,surface,-103.125,33.5432,5.9e-06
2016-09-01 00:00:00,2016-09-01 00:00:00,PRATE,surface,-102.188,33.5432,8.1e-06
2016-09-01 00:00:00,2016-09-01 00:00:00,PRATE,surface,-101.25,33.5432,1.35e-05
2016-09-01 00:00:00,2016-09-01 00:00:00,PRATE,surface,-100.313,33.5432,1.64e-05
2016-09-01 00:00:00,2016-09-01 00:00:00,PRATE,surface,-99.3754,33.5432,1.77e-05
2016-09-01 00:00:00,2016-09-01 00:00:00,PRATE,surface,-98.4379,33.5432,2.05e-05
2016-09-01 00:00:00,2016-09-01 00:00:00,PRATE,surface,-97.5004,33.5432,2.4e-05
2016-09-01 00:00:00,2016-09-01 00:00:00,PRATE,surface,-96.5629,33.5432,2.55e-05
2016-09-01 00:00:00,2016-09-01 00:00:00,PRATE,surface,-95.6254,33.5432,2.63e-05
2016-09-01 00:00:00,2016-09-01 00:00:00,PRATE,surface,-94.6879,33.5432,2.95e-05
2016-09-01 00:00:00,2016-09-01 00:00:00,PRATE,surface,-93.7504,33.5432,3.01e-05
2016-09-01 00:00:00,2016-09-01 00:00:00,PRATE,surface,-92.8129,33.5432,2.27e-05
2016-09-01 00:00:00,2016-09-01 00:00:00,PRATE,surface,-107.813,34.4881,1.77e-05
2016-09-01 00:00:00,2016-09-01 00:00:00,PRATE,surface,-106.875,34.4881,1.13e-05
2016-09-01 00:00:00,2016-09-01 00:00:00,PRATE,surface,-105.938,34.4881,7.7e-06
2016-09-01 00:00:00,2016-09-01 00:00:00,PRATE,surface,-105,34.4881,6.8e-06
2016-09-01 00:00:00,2016-09-01 00:00:00,PRATE,surface,-104.063,34.4881,6.9e-06
2016-09-01 00:00:00,2016-09-01 00:00:00,PRATE,surface,-103.125,34.4881,7.1e-06
2016-09-01 00:00:00,2016-09-01 00:00:00,PRATE,surface,-102.188,34.4881,9.2e-06
2016-09-01 00:00:00,2016-09-01 00:00:00,PRATE,surface,-101.25,34.4881,1.2e-05
2016-09-01 00:00:00,2016-09-01 00:00:00,PRATE,surface,-100.313,34.4881,1.37e-05
2016-09-01 00:00:00,2016-09-01 00:00:00,PRATE,surface,-99.3754,34.4881,1.51e-05
2016-09-01 00:00:00,2016-09-01 00:00:00,PRATE,surface,-98.4379,34.4881,1.81e-05
2016-09-01 00:00:00,2016-09-01 00:00:00,PRATE,surface,-97.5004,34.4881,2.17e-05
2016-09-01 00:00:00,2016-09-01 00:00:00,PRATE,surface,-96.5629,34.4881,2.29e-05
2016-09-01 00:00:00,2016-09-01 00:00:00,PRATE,surface,-95.6254,34.4881,2.32e-05
2016-09-01 00:00:00,2016-09-01 00:00:00,PRATE,surface,-94.6879,34.4881,2.51e-05
2016-09-01 00:00:00,2016-09-01 00:00:00,PRATE,surface,-93.7504,34.4881,2.47e-05
2016-09-01 00:00:00,2016-09-01 00:00:00,PRATE,surface,-92.8129,34.4881,1.95e-05
2016-09-01 00:00:00,2016-09-01 00:00:00,PRATE,surface,-107.813,35.4329,2.14e-05
2016-09-01 00:00:00,2016-09-01 00:00:00,PRATE,surface,-106.875,35.4329,1.2e-05
2016-09-01 00:00:00,2016-09-01 00:00:00,PRATE,surface,-105.938,35.4329,7.7e-06
2016-09-01 00:00:00,2016-09-01 00:00:00,PRATE,surface,-105,35.4329,1.01e-05
2016-09-01 00:00:00,2016-09-01 00:00:00,PRATE,surface,-104.063,35.4329,1.18e-05
2016-09-01 00:00:00,2016-09-01 00:00:00,PRATE,surface,-103.125,35.4329,9.8e-06
2016-09-01 00:00:00,2016-09-01 00:00:00,PRATE,surface,-102.188,35.4329,1.04e-05
2016-09-01 00:00:00,2016-09-01 00:00:00,PRATE,surface,-101.25,35.4329,1.32e-05
2016-09-01 00:00:00,2016-09-01 00:00:00,PRATE,surface,-100.313,35.4329,1.55e-05
2016-09-01 00:00:00,2016-09-01 00:00:00,PRATE,surface,-99.3754,35.4329,1.69e-05
2016-09-01 00:00:00,2016-09-01 00:00:00,PRATE,surface,-98.4379,35.4329,1.93e-05
2016-09-01 00:00:00,2016-09-01 00:00:00,PRATE,surface,-97.5004,35.4329,2.28e-05
2016-09-01 00:00:00,2016-09-01 00:00:00,PRATE,surface,-96.5629,35.4329,2.47e-05
2016-09-01 00:00:00,2016-09-01 00:00:00,PRATE,surface,-95.6254,35.4329,2.41e-05
2016-09-01 00:00:00,2016-09-01 00:00:00,PRATE,surface,-94.6879,35.4329,2.41e-05
2016-09-01 00:00:00,2016-09-01 00:00:00,PRATE,surface,-93.7504,35.4329,2.58e-05
2016-09-01 00:00:00,2016-09-01 00:00:00,PRATE,surface,-92.8129,35.4329,2.55e-05
2016-09-01 00:00:00,2016-09-01 00:00:00,PRATE,surface,-107.813,36.3778,1.72e-05
2016-09-01 00:00:00,2016-09-01 00:00:00,PRATE,surface,-106.875,36.3778,1.21e-05
2016-09-01 00:00:00,2016-09-01 00:00:00,PRATE,surface,-105.938,36.3778,7e-06
2016-09-01 00:00:00,2016-09-01 00:00:00,PRATE,surface,-105,36.3778,8.3e-06
2016-09-01 00:00:00,2016-09-01 00:00:00,PRATE,surface,-104.063,36.3778,8.7e-06
2016-09-01 00:00:00,2016-09-01 00:00:00,PRATE,surface,-103.125,36.3778,7.9e-06
2016-09-01 00:00:00,2016-09-01 00:00:00,PRATE,surface,-102.188,36.3778,1.07e-05
2016-09-01 00:00:00,2016-09-01 00:00:00,PRATE,surface,-101.25,36.3778,1.37e-05
2016-09-01 00:00:00,2016-09-01 00:00:00,PRATE,surface,-100.313,36.3778,1.51e-05
2016-09-01 00:00:00,2016-09-01 00:00:00,PRATE,surface,-99.3754,36.3778,1.57e-05
2016-09-01 00:00:00,2016-09-01 00:00:00,PRATE,surface,-98.4379,36.3778,1.74e-05
2016-09-01 00:00:00,2016-09-01 00:00:00,PRATE,surface,-97.5004,36.3778,2.11e-05
2016-09-01 00:00:00,2016-09-01 00:00:00,PRATE,surface,-96.5629,36.3778,2.41e-05
2016-09-01 00:00:00,2016-09-01 00:00:00,PRATE,surface,-95.6254,36.3778,2.53e-05
2016-09-01 00:00:00,2016-09-01 00:00:00,PRATE,surface,-94.6879,36.3778,2.55e-05
2016-09-01 00:00:00,2016-09-01 00:00:00,PRATE,surface,-93.7504,36.3778,2.56e-05
2016-09-01 00:00:00,2016-09-01 00:00:00,PRATE,surface,-92.8129,36.3778,2.71e-05
