2012-09-02 00:00:00,2012-09-02 00:00:00,TMP,surface,-107.813,25.0393,294.146
2012-09-02 00:00:00,2012-09-02 00:00:00,TMP,surface,-106.875,25.0393,288.18
2012-09-02 00:00:00,2012-09-02 00:00:00,TMP,surface,-105.938,25.0393,283.336
2012-09-02 00:00:00,2012-09-02 00:00:00,TMP,surface,-105,25.0393,282.194
2012-09-02 00:00:00,2012-09-02 00:00:00,TMP,surface,-104.063,25.0393,285.999
2012-09-02 00:00:00,2012-09-02 00:00:00,TMP,surface,-103.125,25.0393,288.495
2012-09-02 00:00:00,2012-09-02 00:00:00,TMP,surface,-102.188,25.0393,288.49
2012-09-02 00:00:00,2012-09-02 00:00:00,TMP,surface,-101.25,25.0393,286.861
2012-09-02 00:00:00,2012-09-02 00:00:00,TMP,surface,-100.313,25.0393,287.4
2012-09-02 00:00:00,2012-09-02 00:00:00,TMP,surface,-99.3754,25.0393,290.312
2012-09-02 00:00:00,2012-09-02 00:00:00,TMP,surface,-98.4379,25.0393,293.722
2012-09-02 00:00:00,2012-09-02 00:00:00,TMP,surface,-97.5004,25.0393,298.93
2012-09-02 00:00:00,2012-09-02 00:00:00,TMP,surface,-96.5629,25.0393,299.384
2012-09-02 00:00:00,2012-09-02 00:00:00,TMP,surface,-95.6254,25.0393,299.437
2012-09-02 00:00:00,2012-09-02 00:00:00,TMP,surface,-94.6879,25.0393,299.509
2012-09-02 00:00:00,2012-09-02 00:00:00,TMP,surface,-93.7504,25.0393,299.322
2012-09-02 00:00:00,2012-09-02 00:00:00,TMP,surface,-92.8129,25.0393,299.154
2012-09-02 00:00:00,2012-09-02 00:00:00,TMP,surface,-107.813,25.9842,288.946
2012-09-02 00:00:00,2012-09-02 00:00:00,TMP,surface,-106.875,25.9842,283.856
2012-09-02 00:00:00,2012-09-02 00:00:00,TMP,surface,-105.938,25.9842,281.682
2012-09-02 00:00:00,2012-09-02 00:00:00,TMP,surface,-105,25.9842,284.111
2012-09-02 00:00:00,2012-09-02 00:00:00,TMP,surface,-104.063,25.9842,287.701
2012-09-02 00:00:00,2012-09-02 00:00:00,TMP,surface,-103.125,25.9842,288.978
2012-09-02 00:00:00,2012-09-02 00:00:00,TMP,surface,-102.188,25.9842,288.64
2012-09-02 00:00:00,2012-09-02 00:00:00,TMP,surface,-101.25,25.9842,287.978
2012-09-02 00:00:00,2012-09-02 00:00:00,TMP,surface,-100.313,25.9842,288.261
2012-09-02 00:00:00,2012-09-02 00:00:00,TMP,surface,-99.3754,25.9842,290.845
2012-09-02 00:00:00,2012-09-02 00:00:00,TMP,surface,-98.4379,25.9842,293.434
2012-09-02 00:00:00,2012-09-02 00:00:00,TMP,surface,-97.5004,25.9842,295.437
2012-09-02 00:00:00,2012-09-02 00:00:00,TMP,surface,-96.5629,25.9842,299.015
2012-09-02 00:00:00,2012-09-02 00:00:00,TMP,surface,-95.6254,25.9842,299.108
2012-09-02 00:00:00,2012-09-02 00:00:00,TMP,surface,-94.6879,25.9842,299.24
2012-09-02 00:00:00,2012-09-02 00:00:00,TMP,surface,-93.7504,25.9842,299.231
2012-09-02 00:00:00,2012-09-02 00:00:00,TMP,surface,-92.8129,25.9842,299.242
2012-09-02 00:00:00,2012-09-02 00:00:00,TMP,surface,-107.813,26.929,284.117
2012-09-02 00:00:00,2012-09-02 00:00:00,TMP,surface,-106.875,26.929,280.541
2012-09-02 00:00:00,2012-09-02 00:00:00,TMP,surface,-105.938,26.929,282.728
2012-09-02 00:00:00,2012-09-02 00:00:00,TMP,surface,-105,26.929,286.128
2012-09-02 00:00:00,2012-09-02 00:00:00,TMP,surface,-104.063,26.929,287.46
2012-09-02 00:00:00,2012-09-02 00:00:00,TMP,surface,-103.125,26.929,286.968
2012-09-02 00:00:00,2012-09-02 00:00:00,TMP,surface,-102.188,26.929,286.992
2012-09-02 00:00:00,2012-09-02 00:00:00,TMP,surface,-101.25,26.929,287.807
2012-09-02 00:00:00,2012-09-02 00:00:00,TMP,surface,-100.313,26.929,288.88
2012-09-02 00:00:00,2012-09-02 00:00:00,TMP,surface,-99.3754,26.929,290.759
2012-09-02 00:00:00,2012-09-02 00:00:00,TMP,surface,-98.4379,26.929,292.172
2012-09-02 00:00:00,2012-09-02 00:00:00,TMP,surface,-97.5004,26.929,297.575
2012-09-02 00:00:00,2012-09-02 00:00:00,TMP,surface,-96.5629,26.929,298.4
2012-09-02 00:00:00,2012-09-02 00:00:00,TMP,surface,-95.6254,26.929,298.821
2012-09-02 00:00:00,2012-09-02 00:00:00,TMP,surface,-94.6879,26.929,298.979
2012-09-02 00:00:00,2012-09-02 00:00:00,TMP,surface,-93.7504,26.929,298.903
2012-09-02 00:00:00,2012-09-02 00:00:00,TMP,surface,-92.8129,26.929,298.823
2012-09-02 00:00:00,2012-09-02 00:00:00,TMP,surface,-107.813,27.8739,280.722
2012-09-02 00:00:00,2012-09-02 00:00:00,TMP,surface,-106.875,27.8739,280.063
2012-09-02 00:00:00,2012-09-02 00:00:00,TMP,surface,-105.938,27.8739,283.674
2012-09-02 00:00:00,2012-09-02 00:00:00,TMP,surface,-105,27.8739,286.111
2012-09-02 00:00:00,2012-09-02 00:00:00,TMP,surface,-104.063,27.8739,286.071
2012-09-02 00:00:00,2012-09-02 00:00:00,TMP,surface,-103.125,27.8739,285.207
2012-09-02 00:00:00,2012-09-02 00:00:00,TMP,surface,-102.188,27.8739,285.52
2012-09-02 00:00:00,2012-09-02 00:00:00,TMP,surface,-101.25,27.8739,286.879
2012-09-02 00:00:00,2012-09-02 00:00:00,TMP,surface,-100.313,27.8739,288.523
2012-09-02 00:00:00,2012-09-02 00:00:00,TMP,surface,-99.3754,27.8739,289.572
2012-09-02 00:00:00,2012-09-02 00:00:00,TMP,surface,-98.4379,27.8739,290.527
2012-09-02 00:00:00,2012-09-02 00:00:00,TMP,surface,-97.5004,27.8739,294.343
2012-09-02 00:00:00,2012-09-02 00:00:00,TMP,surface,-96.5629,27.8739,297.962
2012-09-02 00:00:00,2012-09-02 00:00:00,TMP,surface,-95.6254,27.8739,298.379
2012-09-02 00:00:00,2012-09-02 00:00:00,TMP,surface,-94.6879,27.8739,298.293
2012-09-02 00:00:00,2012-09-02 00:00:00,TMP,surface,-93.7504,27.8739,297.991
2012-09-02 00:00:00,2012-09-02 00:00:00,TMP,surface,-92.8129,27.8739,297.735
2012-09-02 00:00:00,2012-09-02 00:00:00,TMP,surface,-107.813,28.8188,279.199
2012-09-02 00:00:00,2012-09-02 00:00:00,TMP,surface,-106.875,28.8188,280.255
2012-09-02 00:00:00,2012-09-02 00:00:00,TMP,surface,-105.938,28.8188,283.46
2012-09-02 00:00:00,2012-09-02 00:00:00,TMP,surface,-105,28.8188,284.871
2012-09-02 00:00:00,2012-09-02 00:00:00,TMP,surface,-104.063,28.8188,284.02
2012-09-02 00:00:00,2012-09-02 00:00:00,TMP,surface,-103.125,28.8188,283.93
2012-09-02 00:00:00,2012-09-02 00:00:00,TMP,surface,-102.188,28.8188,284.544
2012-09-02 00:00:00,2012-09-02 00:00:00,TMP,surface,-101.25,28.8188,286.093
2012-09-02 00:00:00,2012-09-02 00:00:00,TMP,surface,-100.313,28.8188,287.2
2012-09-02 00:00:00,2012-09-02 00:00:00,TMP,surface,-99.3754,28.8188,287.608
2012-09-02 00:00:00,2012-09-02 00:00:00,TMP,surface,-98.4379,28.8188,288.272
2012-09-02 00:00:00,2012-09-02 00:00:00,TMP,surface,-97.5004,28.8188,289.424
2012-09-02 00:00:00,2012-09-02 00:00:00,TMP,surface,-96.5629,28.8188,290.674
2012-09-02 00:00:00,2012-09-02 00:00:00,TMP,surface,-95.6254,28.8188,293.888
2012-09-02 00:00:00,2012-09-02 00:00:00,TMP,surface,-94.6879,28.8188,297.893
2012-09-02 00:00:00,2012-09-02 00:00:00,TMP,surface,-93.7504,28.8188,297.525
2012-09-02 00:00:00,2012-09-02 00:00:00,TMP,surface,-92.8129,28.8188,297.452
2012-09-02 00:00:00,2012-09-02 00:00:00,TMP,surface,-107.813,29.7637,280.042
2012-09-02 00:00:00,2012-09-02 00:00:00,TMP,surface,-106.875,29.7637,281.178
2012-09-02 00:00:00,2012-09-02 00:00:00,TMP,surface,-105.938,29.7637,283.112
2012-09-02 00:00:00,2012-09-02 00:00:00,TMP,surface,-105,29.7637,282.959
2012-09-02 00:00:00,2012-09-02 00:00:00,TMP,surface,-104.063,29.7637,283.111
2012-09-02 00:00:00,2012-09-02 00:00:00,TMP,surface,-103.125,29.7637,283.84
2012-09-02 00:00:00,2012-09-02 00:00:00,TMP,surface,-102.188,29.7637,284.863
2012-09-02 00:00:00,2012-09-02 00:00:00,TMP,surface,-101.25,29.7637,285.559
2012-09-02 00:00:00,2012-09-02 00:00:00,TMP,surface,-100.313,29.7637,285.695
2012-09-02 00:00:00,2012-09-02 00:00:00,TMP,surface,-99.3754,29.7637,285.74
2012-09-02 00:00:00,2012-09-02 00:00:00,TMP,surface,-98.4379,29.7637,286.195
2012-09-02 00:00:00,2012-09-02 00:00:00,TMP,surface,-97.5004,29.7637,287.048
2012-09-02 00:00:00,2012-09-02 00:00:00,TMP,surface,-96.5629,29.7637,288.047
2012-09-02 00:00:00,2012-09-02 00:00:00,TMP,surface,-95.6254,29.7637,289.05
2012-09-02 00:00:00,2012-09-02 00:00:00,TMP,surface,-94.6879,29.7637,291.989
2012-09-02 00:00:00,2012-09-02 00:00:00,TMP,surface,-93.7504,29.7637,295.306
2012-09-02 00:00:00,2012-09-02 00:00:00,TMP,surface,-92.8129,29.7637,290.114
2012-09-02 00:00:00,2012-09-02 00:00:00,TMP,surface,-107.813,30.7085,281.755
2012-09-02 00:00:00,2012-09-02 00:00:00,TMP,surface,-106.875,30.7085,282.602
2012-09-02 00:00:00,2012-09-02 00:00:00,TMP,surface,-105.938,30.7085,282.439
2012-09-02 00:00:00,2012-09-02 00:00:00,TMP,surface,-105,30.7085,281.965
2012-09-02 00:00:00,2012-09-02 00:00:00,TMP,surface,-104.063,30.7085,282.21
2012-09-02 00:00:00,2012-09-02 00:00:00,TMP,surface,-103.125,30.7085,283.512
2012-09-02 00:00:00,2012-09-02 00:00:00,TMP,surface,-102.188,30.7085,284.482
2012-09-02 00:00:00,2012-09-02 00:00:00,TMP,surface,-101.25,30.7085,284.714
2012-09-02 00:00:00,2012-09-02 00:00:00,TMP,surface,-100.313,30.7085,284.56
2012-09-02 00:00:00,2012-09-02 00:00:00,TMP,surface,-99.3754,30.7085,284.703
2012-09-02 00:00:00,2012-09-02 00:00:00,TMP,surface,-98.4379,30.7085,285.215
2012-09-02 00:00:00,2012-09-02 00:00:00,TMP,surface,-97.5004,30.7085,285.872
2012-09-02 00:00:00,2012-09-02 00:00:00,TMP,surface,-96.5629,30.7085,286.528
2012-09-02 00:00:00,2012-09-02 00:00:00,TMP,surface,-95.6254,30.7085,287.08
2012-09-02 00:00:00,2012-09-02 00:00:00,TMP,surface,-94.6879,30.7085,287.418
2012-09-02 00:00:00,2012-09-02 00:00:00,TMP,surface,-93.7504,30.7085,287.493
2012-09-02 00:00:00,2012-09-02 00:00:00,TMP,surface,-92.8129,30.7085,287.37
2012-09-02 00:00:00,2012-09-02 00:00:00,TMP,surface,-107.813,31.6534,281.479
2012-09-02 00:00:00,2012-09-02 00:00:00,TMP,surface,-106.875,31.6534,281.997
2012-09-02 00:00:00,2012-09-02 00:00:00,TMP,surface,-105.938,31.6534,281.274
2012-09-02 00:00:00,2012-09-02 00:00:00,TMP,surface,-105,31.6534,281.274
2012-09-02 00:00:00,2012-09-02 00:00:00,TMP,surface,-104.063,31.6534,282.01
2012-09-02 00:00:00,2012-09-02 00:00:00,TMP,surface,-103.125,31.6534,283.194
2012-09-02 00:00:00,2012-09-02 00:00:00,TMP,surface,-102.188,31.6534,283.78
2012-09-02 00:00:00,2012-09-02 00:00:00,TMP,surface,-101.25,31.6534,283.896
2012-09-02 00:00:00,2012-09-02 00:00:00,TMP,surface,-100.313,31.6534,284.012
2012-09-02 00:00:00,2012-09-02 00:00:00,TMP,surface,-99.3754,31.6534,284.352
2012-09-02 00:00:00,2012-09-02 00:00:00,TMP,surface,-98.4379,31.6534,284.859
2012-09-02 00:00:00,2012-09-02 00:00:00,TMP,surface,-97.5004,31.6534,285.371
2012-09-02 00:00:00,2012-09-02 00:00:00,TMP,surface,-96.5629,31.6534,285.794
2012-09-02 00:00:00,2012-09-02 00:00:00,TMP,surface,-95.6254,31.6534,285.991
2012-09-02 00:00:00,2012-09-02 00:00:00,TMP,surface,-94.6879,31.6534,285.927
2012-09-02 00:00:00,2012-09-02 00:00:00,TMP,surface,-93.7504,31.6534,285.898
2012-09-02 00:00:00,2012-09-02 00:00:00,TMP,surface,-92.8129,31.6534,286.111
2012-09-02 00:00:00,2012-09-02 00:00:00,TMP,surface,-107.813,32.5983,278.803
2012-09-02 00:00:00,2012-09-02 00:00:00,TMP,surface,-106.875,32.5983,279.125
2012-09-02 00:00:00,2012-09-02 00:00:00,TMP,surface,-105.938,32.5983,279.49
2012-09-02 00:00:00,2012-09-02 00:00:00,TMP,surface,-105,32.5983,280.076
2012-09-02 00:00:00,2012-09-02 00:00:00,TMP,surface,-104.063,32.5983,281.488
2012-09-02 00:00:00,2012-09-02 00:00:00,TMP,surface,-103.125,32.5983,282.631
2012-09-02 00:00:00,2012-09-02 00:00:00,TMP,surface,-102.188,32.5983,282.759
2012-09-02 00:00:00,2012-09-02 00:00:00,TMP,surface,-101.25,32.5983,283.076
2012-09-02 00:00:00,2012-09-02 00:00:00,TMP,surface,-100.313,32.5983,283.691
2012-09-02 00:00:00,2012-09-02 00:00:00,TMP,surface,-99.3754,32.5983,284.239
2012-09-02 00:00:00,2012-09-02 00:00:00,TMP,surface,-98.4379,32.5983,284.57
2012-09-02 00:00:00,2012-09-02 00:00:00,TMP,surface,-97.5004,32.5983,284.852
2012-09-02 00:00:00,2012-09-02 00:00:00,TMP,surface,-96.5629,32.5983,285.079
2012-09-02 00:00:00,2012-09-02 00:00:00,TMP,surface,-95.6254,32.5983,285.117
2012-09-02 00:00:00,2012-09-02 00:00:00,TMP,surface,-94.6879,32.5983,284.994
2012-09-02 00:00:00,2012-09-02 00:00:00,TMP,surface,-93.7504,32.5983,284.962
2012-09-02 00:00:00,2012-09-02 00:00:00,TMP,surface,-92.8129,32.5983,285.415
2012-09-02 00:00:00,2012-09-02 00:00:00,TMP,surface,-107.813,33.5432,275.906
2012-09-02 00:00:00,2012-09-02 00:00:00,TMP,surface,-106.875,33.5432,276.933
2012-09-02 00:00:00,2012-09-02 00:00:00,TMP,surface,-105.938,33.5432,277.874
2012-09-02 00:00:00,2012-09-02 00:00:00,TMP,surface,-105,33.5432,279.021
2012-09-02 00:00:00,2012-09-02 00:00:00,TMP,surface,-104.063,33.5432,280.684
2012-09-02 00:00:00,2012-09-02 00:00:00,TMP,surface,-103.125,33.5432,281.495
2012-09-02 00:00:00,2012-09-02 00:00:00,TMP,surface,-102.188,33.5432,281.579
2012-09-02 00:00:00,2012-09-02 00:00:00,TMP,surface,-101.25,33.5432,282.004
2012-09-02 00:00:00,2012-09-02 00:00:00,TMP,surface,-100.313,33.5432,282.832
2012-09-02 00:00:00,2012-09-02 00:00:00,TMP,surface,-99.3754,33.5432,283.453
2012-09-02 00:00:00,2012-09-02 00:00:00,TMP,surface,-98.4379,33.5432,283.6
2012-09-02 00:00:00,2012-09-02 00:00:00,TMP,surface,-97.5004,33.5432,283.565
2012-09-02 00:00:00,2012-09-02 00:00:00,TMP,surface,-96.5629,33.5432,283.65
2012-09-02 00:00:00,2012-09-02 00:00:00,TMP,surface,-95.6254,33.5432,283.839
2012-09-02 00:00:00,2012-09-02 00:00:00,TMP,surface,-94.6879,33.5432,283.949
2012-09-02 00:00:00,2012-09-02 00:00:00,TMP,surface,-93.7504,33.5432,283.986
2012-09-02 00:00:00,2012-09-02 00:00:00,TMP,surface,-92.8129,33.5432,284.314
2012-09-02 00:00:00,2012-09-02 00:00:00,TMP,surface,-107.813,34.4881,274.511
2012-09-02 00:00:00,2012-09-02 00:00:00,TMP,surface,-106.875,34.4881,275.864
2012-09-02 00:00:00,2012-09-02 00:00:00,TMP,surface,-105.938,34.4881,276.999
2012-09-02 00:00:00,2012-09-02 00:00:00,TMP,surface,-105,34.4881,278.189
2012-09-02 00:00:00,2012-09-02 00:00:00,TMP,surface,-104.063,34.4881,279.348
2012-09-02 00:00:00,2012-09-02 00:00:00,TMP,surface,-103.125,34.4881,279.965
2012-09-02 00:00:00,2012-09-02 00:00:00,TMP,surface,-102.188,34.4881,280.365
2012-09-02 00:00:00,2012-09-02 00:00:00,TMP,surface,-101.25,34.4881,281.135
2012-09-02 00:00:00,2012-09-02 00:00:00,TMP,surface,-100.313,34.4881,281.954
2012-09-02 00:00:00,2012-09-02 00:00:00,TMP,surface,-99.3754,34.4881,282.416
2012-09-02 00:00:00,2012-09-02 00:00:00,TMP,surface,-98.4379,34.4881,282.328
2012-09-02 00:00:00,2012-09-02 00:00:00,TMP,surface,-97.5004,34.4881,282.197
2012-09-02 00:00:00,2012-09-02 00:00:00,TMP,surface,-96.5629,34.4881,282.383
2012-09-02 00:00:00,2012-09-02 00:00:00,TMP,surface,-95.6254,34.4881,282.565
2012-09-02 00:00:00,2012-09-02 00:00:00,TMP,surface,-94.6879,34.4881,282.471
2012-09-02 00:00:00,2012-09-02 00:00:00,TMP,surface,-93.7504,34.4881,282.429
2012-09-02 00:00:00,2012-09-02 00:00:00,TMP,surface,-92.8129,34.4881,282.842
2012-09-02 00:00:00,2012-09-02 00:00:00,TMP,surface,-107.813,35.4329,274.635
2012-09-02 00:00:00,2012-09-02 00:00:00,TMP,surface,-106.875,35.4329,275.128
2012-09-02 00:00:00,2012-09-02 00:00:00,TMP,surface,-105.938,35.4329,275.603
2012-09-02 00:00:00,2012-09-02 00:00:00,TMP,surface,-105,35.4329,276.65
2012-09-02 00:00:00,2012-09-02 00:00:00,TMP,surface,-104.063,35.4329,278.456
2012-09-02 00:00:00,2012-09-02 00:00:00,TMP,surface,-103.125,35.4329,279.653
2012-09-02 00:00:00,2012-09-02 00:00:00,TMP,surface,-102.188,35.4329,280.077
2012-09-02 00:00:00,2012-09-02 00:00:00,TMP,surface,-101.25,35.4329,280.547
2012-09-02 00:00:00,2012-09-02 00:00:00,TMP,surface,-100.313,35.4329,281.114
2012-09-02 00:00:00,2012-09-02 00:00:00,TMP,surface,-99.3754,35.4329,281.306
2012-09-02 00:00:00,2012-09-02 00:00:00,TMP,surface,-98.4379,35.4329,281.285
2012-09-02 00:00:00,2012-09-02 00:00:00,TMP,surface,-97.5004,35.4329,281.474
2012-09-02 00:00:00,2012-09-02 00:00:00,TMP,surface,-96.5629,35.4329,281.763
2012-09-02 00:00:00,2012-09-02 00:00:00,TMP,surface,-95.6254,35.4329,281.847
2012-09-02 00:00:00,2012-09-02 00:00:00,TMP,surface,-94.6879,35.4329,281.668
2012-09-02 00:00:00,2012-09-02 00:00:00,TMP,surface,-93.7504,35.4329,281.352
2012-09-02 00:00:00,2012-09-02 00:00:00,TMP,surface,-92.8129,35.4329,281.418
2012-09-02 00:00:00,2012-09-02 00:00:00,TMP,surface,-107.813,36.3778,273.77
2012-09-02 00:00:00,2012-09-02 00:00:00,TMP,surface,-106.875,36.3778,272.547
2012-09-02 00:00:00,2012-09-02 00:00:00,TMP,surface,-105.938,36.3778,273.056
2012-09-02 00:00:00,2012-09-02 00:00:00,TMP,surface,-105,36.3778,274.706
2012-09-02 00:00:00,2012-09-02 00:00:00,TMP,surface,-104.063,36.3778,276.938
2012-09-02 00:00:00,2012-09-02 00:00:00,TMP,surface,-103.125,36.3778,278.381
2012-09-02 00:00:00,2012-09-02 00:00:00,TMP,surface,-102.188,36.3778,279.296
2012-09-02 00:00:00,2012-09-02 00:00:00,TMP,surface,-101.25,36.3778,279.922
2012-09-02 00:00:00,2012-09-02 00:00:00,TMP,surface,-100.313,36.3778,280.491
2012-09-02 00:00:00,2012-09-02 00:00:00,TMP,surface,-99.3754,36.3778,280.768
2012-09-02 00:00:00,2012-09-02 00:00:00,TMP,surface,-98.4379,36.3778,280.595
2012-09-02 00:00:00,2012-09-02 00:00:00,TMP,surface,-97.5004,36.3778,280.669
2012-09-02 00:00:00,2012-09-02 00:00:00,TMP,surface,-96.5629,36.3778,281.029
2012-09-02 00:00:00,2012-09-02 00:00:00,TMP,surface,-95.6254,36.3778,281.095
2012-09-02 00:00:00,2012-09-02 00:00:00,TMP,surface,-94.6879,36.3778,280.76
2012-09-02 00:00:00,2012-09-02 00:00:00,TMP,surface,-93.7504,36.3778,280.299
2012-09-02 00:00:00,2012-09-02 00:00:00,TMP,surface,-92.8129,36.3778,280.292
2012-09-02 00:00:00,2012-09-02 00:00:00,PRATE,surface,-107.813,25.0393,1.88e-05
2012-09-02 00:00:00,2012-09-02 00:00:00,PRATE,surface,-106.875,25.0393,3.4e-05
2012-09-02 00:00:00,2012-09-02 00:00:00,PRATE,surface,-105.938,25.0393,2.96e-05
2012-09-02 00:00:00,2012-09-02 00:00:00,PRATE,surface,-105,25.0393,1.7e-05
2012-09-02 00:00:00,2012-09-02 00:00:00,PRATE,surface,-104.063,25.0393,1.29e-05
2012-09-02 00:00:00,2012-09-02 00:00:00,PRATE,surface,-103.125,25.0393,8.4e-06
2012-09-02 00:00:00,2012-09-02 00:00:00,PRATE,surface,-102.188,25.0393,1.02e-05
2012-09-02 00:00:00,2012-09-02 00:00:00,PRATE,surface,-101.25,25.0393,2.45e-05
2012-09-02 00:00:00,2012-09-02 00:00:00,PRATE,surface,-100.313,25.0393,4.63e-05
2012-09-02 00:00:00,2012-09-02 00:00:00,PRATE,surface,-99.3754,25.0393,4.16e-05
2012-09-02 00:00:00,2012-09-02 00:00:00,PRATE,surface,-98.4379,25.0393,3.36e-05
2012-09-02 00:00:00,2012-09-02 00:00:00,PRATE,surface,-97.5004,25.0393,4.61e-05
2012-09-02 00:00:00,2012-09-02 00:00:00,PRATE,surface,-96.5629,25.0393,5.62e-05
2012-09-02 00:00:00,2012-09-02 00:00:00,PRATE,surface,-95.6254,25.0393,7.54e-05
2012-09-02 00:00:00,2012-09-02 00:00:00,PRATE,surface,-94.6879,25.0393,4.29e-05
2012-09-02 00:00:00,2012-09-02 00:00:00,PRATE,surface,-93.7504,25.0393,3.74e-05
2012-09-02 00:00:00,2012-09-02 00:00:00,PRATE,surface,-92.8129,25.0393,3.92e-05
2012-09-02 00:00:00,2012-09-02 00:00:00,PRATE,surface,-107.813,25.9842,1.85e-05
2012-09-02 00:00:00,2012-09-02 00:00:00,PRATE,surface,-106.875,25.9842,3.01e-05
2012-09-02 00:00:00,2012-09-02 00:00:00,PRATE,surface,-105.938,25.9842,1.49e-05
2012-09-02 00:00:00,2012-09-02 00:00:00,PRATE,surface,-105,25.9842,5.4e-06
2012-09-02 00:00:00,2012-09-02 00:00:00,PRATE,surface,-104.063,25.9842,6.3e-06
2012-09-02 00:00:00,2012-09-02 00:00:00,PRATE,surface,-103.125,25.9842,8.4e-06
2012-09-02 00:00:00,2012-09-02 00:00:00,PRATE,surface,-102.188,25.9842,1.49e-05
2012-09-02 00:00:00,2012-09-02 00:00:00,PRATE,surface,-101.25,25.9842,2.5e-05
2012-09-02 00:00:00,2012-09-02 00:00:00,PRATE,surface,-100.313,25.9842,4.88e-05
2012-09-02 00:00:00,2012-09-02 00:00:00,PRATE,surface,-99.3754,25.9842,4.8e-05
2012-09-02 00:00:00,2012-09-02 00:00:00,PRATE,surface,-98.4379,25.9842,4.34e-05
2012-09-02 00:00:00,2012-09-02 00:00:00,PRATE,surface,-97.5004,25.9842,5.69e-05
2012-09-02 00:00:00,2012-09-02 00:00:00,PRATE,surface,-96.5629,25.9842,0.0001025
2012-09-02 00:00:00,2012-09-02 00:00:00,PRATE,surface,-95.6254,25.9842,9.11e-05
2012-09-02 00:00:00,2012-09-02 00:00:00,PRATE,surface,-94.6879,25.9842,5.9e-05
2012-09-02 00:00:00,2012-09-02 00:00:00,PRATE,surface,-93.7504,25.9842,4.1e-05
2012-09-02 00:00:00,2012-09-02 00:00:00,PRATE,surface,-92.8129,25.9842,4.72e-05
2012-09-02 00:00:00,2012-09-02 00:00:00,PRATE,surface,-107.813,26.929,1.93e-05
2012-09-02 00:00:00,2012-09-02 00:00:00,PRATE,surface,-106.875,26.929,1.83e-05
2012-09-02 00:00:00,2012-09-02 00:00:00,PRATE,surface,-105.938,26.929,6.4e-06
2012-09-02 00:00:00,2012-09-02 00:00:00,PRATE,surface,-105,26.929,5e-06
2012-09-02 00:00:00,2012-09-02 00:00:00,PRATE,surface,-104.063,26.929,5.8e-06
2012-09-02 00:00:00,2012-09-02 00:00:00,PRATE,surface,-103.125,26.929,1.26e-05
2012-09-02 00:00:00,2012-09-02 00:00:00,PRATE,surface,-102.188,26.929,2.02e-05
2012-09-02 00:00:00,2012-09-02 00:00:00,PRATE,surface,-101.25,26.929,3.04e-05
2012-09-02 00:00:00,2012-09-02 00:00:00,PRATE,surface,-100.313,26.929,4.32e-05
2012-09-02 00:00:00,2012-09-02 00:00:00,PRATE,surface,-99.3754,26.929,3.75e-05
2012-09-02 00:00:00,2012-09-02 00:00:00,PRATE,surface,-98.4379,26.929,4.08e-05
2012-09-02 00:00:00,2012-09-02 00:00:00,PRATE,surface,-97.5004,26.929,9.23e-05
2012-09-02 00:00:00,2012-09-02 00:00:00,PRATE,surface,-96.5629,26.929,9.46e-05
2012-09-02 00:00:00,2012-09-02 00:00:00,PRATE,surface,-95.6254,26.929,0.0001046
2012-09-02 00:00:00,2012-09-02 00:00:00,PRATE,surface,-94.6879,26.929,9.24e-05
2012-09-02 00:00:00,2012-09-02 00:00:00,PRATE,surface,-93.7504,26.929,8.31e-05
2012-09-02 00:00:00,2012-09-02 00:00:00,PRATE,surface,-92.8129,26.929,5.8e-05
2012-09-02 00:00:00,2012-09-02 00:00:00,PRATE,surface,-107.813,27.8739,1.99e-05
2012-09-02 00:00:00,2012-09-02 00:00:00,PRATE,surface,-106.875,27.8739,9.8e-06
2012-09-02 00:00:00,2012-09-02 00:00:00,PRATE,surface,-105.938,27.8739,4.9e-06
2012-09-02 00:00:00,2012-09-02 00:00:00,PRATE,surface,-105,27.8739,6.6e-06
2012-09-02 00:00:00,2012-09-02 00:00:00,PRATE,surface,-104.063,27.8739,1.38e-05
2012-09-02 00:00:00,2012-09-02 00:00:00,PRATE,surface,-103.125,27.8739,1.93e-05
2012-09-02 00:00:00,2012-09-02 00:00:00,PRATE,surface,-102.188,27.8739,2.69e-05
2012-09-02 00:00:00,2012-09-02 00:00:00,PRATE,surface,-101.25,27.8739,3.01e-05
2012-09-02 00:00:00,2012-09-02 00:00:00,PRATE,surface,-100.313,27.8739,3.07e-05
2012-09-02 00:00:00,2012-09-02 00:00:00,PRATE,surface,-99.3754,27.8739,3.26e-05
2012-09-02 00:00:00,2012-09-02 00:00:00,PRATE,surface,-98.4379,27.8739,3.83e-05
2012-09-02 00:00:00,2012-09-02 00:00:00,PRATE,surface,-97.5004,27.8739,6.29e-05
2012-09-02 00:00:00,2012-09-02 00:00:00,PRATE,surface,-96.5629,27.8739,9.73e-05
2012-09-02 00:00:00,2012-09-02 00:00:00,PRATE,surface,-95.6254,27.8739,0.0001174
2012-09-02 00:00:00,2012-09-02 00:00:00,PRATE,surface,-94.6879,27.8739,0.0001203
2012-09-02 00:00:00,2012-09-02 00:00:00,PRATE,surface,-93.7504,27.8739,0.00011
2012-09-02 00:00:00,2012-09-02 00:00:00,PRATE,surface,-92.8129,27.8739,9.35e-05
2012-09-02 00:00:00,2012-09-02 00:00:00,PRATE,surface,-107.813,28.8188,1.71e-05
2012-09-02 00:00:00,2012-09-02 00:00:00,PRATE,surface,-106.875,28.8188,6.9e-06
2012-09-02 00:00:00,2012-09-02 00:00:00,PRATE,surface,-105.938,28.8188,8.4e-06
2012-09-02 00:00:00,2012-09-02 00:00:00,PRATE,surface,-105,28.8188,1.32e-05
2012-09-02 00:00:00,2012-09-02 00:00:00,PRATE,surface,-104.063,28.8188,1.87e-05
2012-09-02 00:00:00,2012-09-02 00:00:00,PRATE,surface,-103.125,28.8188,2.01e-05
2012-09-02 00:00:00,2012-09-02 00:00:00,PRATE,surface,-102.188,28.8188,2.54e-05
2012-09-02 00:00:00,2012-09-02 00:00:00,PRATE,surface,-101.25,28.8188,2.82e-05
2012-09-02 00:00:00,2012-09-02 00:00:00,PRATE,surface,-100.313,28.8188,3.14e-05
2012-09-02 00:00:00,2012-09-02 00:00:00,PRATE,surface,-99.3754,28.8188,3.25e-05
2012-09-02 00:00:00,2012-09-02 00:00:00,PRATE,surface,-98.4379,28.8188,3.39e-05
2012-09-02 00:00:00,2012-09-02 00:00:00,PRATE,surface,-97.5004,28.8188,4.31e-05
2012-09-02 00:00:00,2012-09-02 00:00:00,PRATE,surface,-96.5629,28.8188,6.57e-05
2012-09-02 00:00:00,2012-09-02 00:00:00,PRATE,surface,-95.6254,28.8188,0.0001019
2012-09-02 00:00:00,2012-09-02 00:00:00,PRATE,surface,-94.6879,28.8188,0.000138
2012-09-02 00:00:00,2012-09-02 00:00:00,PRATE,surface,-93.7504,28.8188,0.0001471
2012-09-02 00:00:00,2012-09-02 00:00:00,PRATE,surface,-92.8129,28.8188,0.0001269
2012-09-02 00:00:00,2012-09-02 00:00:00,PRATE,surface,-107.813,29.7637,1.3e-05
2012-09-02 00:00:00,2012-09-02 00:00:00,PRATE,surface,-106.875,29.7637,8.4e-06
2012-09-02 00:00:00,2012-09-02 00:00:00,PRATE,surface,-105.938,29.7637,1.39e-05
2012-09-02 00:00:00,2012-09-02 00:00:00,PRATE,surface,-105,29.7637,2.19e-05
2012-09-02 00:00:00,2012-09-02 00:00:00,PRATE,surface,-104.063,29.7637,2.45e-05
2012-09-02 00:00:00,2012-09-02 00:00:00,PRATE,surface,-103.125,29.7637,2.17e-05
2012-09-02 00:00:00,2012-09-02 00:00:00,PRATE,surface,-102.188,29.7637,2.37e-05
2012-09-02 00:00:00,2012-09-02 00:00:00,PRATE,surface,-101.25,29.7637,2.92e-05
2012-09-02 00:00:00,2012-09-02 00:00:00,PRATE,surface,-100.313,29.7637,3.43e-05
2012-09-02 00:00:00,2012-09-02 00:00:00,PRATE,surface,-99.3754,29.7637,3.7e-05
2012-09-02 00:00:00,2012-09-02 00:00:00,PRATE,surface,-98.4379,29.7637,3.52e-05
2012-09-02 00:00:00,2012-09-02 00:00:00,PRATE,surface,-97.5004,29.7637,3.23e-05
2012-09-02 00:00:00,2012-09-02 00:00:00,PRATE,surface,-96.5629,29.7637,4.01e-05
2012-09-02 00:00:00,2012-09-02 00:00:00,PRATE,surface,-95.6254,29.7637,6.87e-05
2012-09-02 00:00:00,2012-09-02 00:00:00,PRATE,surface,-94.6879,29.7637,0.0001087
2012-09-02 00:00:00,2012-09-02 00:00:00,PRATE,surface,-93.7504,29.7637,0.0001368
2012-09-02 00:00:00,2012-09-02 00:00:00,PRATE,surface,-92.8129,29.7637,0.0001375
2012-09-02 00:00:00,2012-09-02 00:00:00,PRATE,surface,-107.813,30.7085,1.21e-05
2012-09-02 00:00:00,2012-09-02 00:00:00,PRATE,surface,-106.875,30.7085,1.12e-05
2012-09-02 00:00:00,2012-09-02 00:00:00,PRATE,surface,-105.938,30.7085,1.48e-05
2012-09-02 00:00:00,2012-09-02 00:00:00,PRATE,surface,-105,30.7085,2.28e-05
2012-09-02 00:00:00,2012-09-02 00:00:00,PRATE,surface,-104.063,30.7085,2.25e-05
2012-09-02 00:00:00,2012-09-02 00:00:00,PRATE,surface,-103.125,30.7085,2e-05
2012-09-02 00:00:00,2012-09-02 00:00:00,PRATE,surface,-102.188,30.7085,2.05e-05
2012-09-02 00:00:00,2012-09-02 00:00:00,PRATE,surface,-101.25,30.7085,3.19e-05
2012-09-02 00:00:00,2012-09-02 00:00:00,PRATE,surface,-100.313,30.7085,3.99e-05
2012-09-02 00:00:00,2012-09-02 00:00:00,PRATE,surface,-99.3754,30.7085,4.29e-05
2012-09-02 00:00:00,2012-09-02 00:00:00,PRATE,surface,-98.4379,30.7085,4.02e-05
2012-09-02 00:00:00,2012-09-02 00:00:00,PRATE,surface,-97.5004,30.7085,3.55e-05
2012-09-02 00:00:00,2012-09-02 00:00:00,PRATE,surface,-96.5629,30.7085,3.78e-05
2012-09-02 00:00:00,2012-09-02 00:00:00,PRATE,surface,-95.6254,30.7085,5.02e-05
2012-09-02 00:00:00,2012-09-02 00:00:00,PRATE,surface,-94.6879,30.7085,7.27e-05
2012-09-02 00:00:00,2012-09-02 00:00:00,PRATE,surface,-93.7504,30.7085,0.0001069
2012-09-02 00:00:00,2012-09-02 00:00:00,PRATE,surface,-92.8129,30.7085,0.0001334
2012-09-02 00:00:00,2012-09-02 00:00:00,PRATE,surface,-107.813,31.6534,1.21e-05
2012-09-02 00:00:00,2012-09-02 00:00:00,PRATE,surface,-106.875,31.6534,1.28e-05
2012-09-02 00:00:00,2012-09-02 00:00:00,PRATE,surface,-105.938,31.6534,1.5e-05
2012-09-02 00:00:00,2012-09-02 00:00:00,PRATE,surface,-105,31.6534,1.4e-05
2012-09-02 00:00:00,2012-09-02 00:00:00,PRATE,surface,-104.063,31.6534,1.74e-05
2012-09-02 00:00:00,2012-09-02 00:00:00,PRATE,surface,-103.125,31.6534,1.45e-05
2012-09-02 00:00:00,2012-09-02 00:00:00,PRATE,surface,-102.188,31.6534,1.62e-05
2012-09-02 00:00:00,2012-09-02 00:00:00,PRATE,surface,-101.25,31.6534,2.48e-05
2012-09-02 00:00:00,2012-09-02 00:00:00,PRATE,surface,-100.313,31.6534,3.12e-05
2012-09-02 00:00:00,2012-09-02 00:00:00,PRATE,surface,-99.3754,31.6534,3.73e-05
2012-09-02 00:00:00,2012-09-02 00:00:00,PRATE,surface,-98.4379,31.6534,3.92e-05
2012-09-02 00:00:00,2012-09-02 00:00:00,PRATE,surface,-97.5004,31.6534,3.85e-05
2012-09-02 00:00:00,2012-09-02 00:00:00,PRATE,surface,-96.5629,31.6534,4.09e-05
2012-09-02 00:00:00,2012-09-02 00:00:00,PRATE,surface,-95.6254,31.6534,4.9e-05
2012-09-02 00:00:00,2012-09-02 00:00:00,PRATE,surface,-94.6879,31.6534,6.51e-05
2012-09-02 00:00:00,2012-09-02 00:00:00,PRATE,surface,-93.7504,31.6534,9e-05
2012-09-02 00:00:00,2012-09-02 00:00:00,PRATE,surface,-92.8129,31.6534,0.0001096
2012-09-02 00:00:00,2012-09-02 00:00:00,PRATE,surface,-107.813,32.5983,2.21e-05
2012-09-02 00:00:00,2012-09-02 00:00:00,PRATE,surface,-106.875,32.5983,2e-05
2012-09-02 00:00:00,2012-09-02 00:00:00,PRATE,surface,-105.938,32.5983,1.73e-05
2012-09-02 00:00:00,2012-09-02 00:00:00,PRATE,surface,-105,32.5983,1.78e-05
2012-09-02 00:00:00,2012-09-02 00:00:00,PRATE,surface,-104.063,32.5983,2.1e-05
2012-09-02 00:00:00,2012-09-02 00:00:00,PRATE,surface,-103.125,32.5983,1.9e-05
2012-09-02 00:00:00,2012-09-02 00:00:00,PRATE,surface,-102.188,32.5983,2.19e-05
2012-09-02 00:00:00,2012-09-02 00:00:00,PRATE,surface,-101.25,32.5983,2.88e-05
2012-09-02 00:00:00,2012-09-02 00:00:00,PRATE,surface,-100.313,32.5983,3.02e-05
2012-09-02 00:00:00,2012-09-02 00:00:00,PRATE,surface,-99.3754,32.5983,3.12e-05
2012-09-02 00:00:00,2012-09-02 00:00:00,PRATE,surface,-98.4379,32.5983,3.77e-05
2012-09-02 00:00:00,2012-09-02 00:00:00,PRATE,surface,-97.5004,32.5983,4.29e-05
2012-09-02 00:00:00,2012-09-02 00:00:00,PRATE,surface,-96.5629,32.5983,4.59e-05
2012-09-02 00:00:00,2012-09-02 00:00:00,PRATE,surface,-95.6254,32.5983,5.03e-05
2012-09-02 00:00:00,2012-09-02 00:00:00,PRATE,surface,-94.6879,32.5983,5.75e-05
2012-09-02 00:00:00,2012-09-02 00:00:00,PRATE,surface,-93.7504,32.5983,7.03e-05
2012-09-02 00:00:00,2012-09-02 00:00:00,PRATE,surface,-92.8129,32.5983,8.05e-05
2012-09-02 00:00:00,2012-09-02 00:00:00,PRATE,surface,-107.813,33.5432,3.61e-05
2012-09-02 00:00:00,2012-09-02 00:00:00,PRATE,surface,-106.875,33.5432,2.87e-05
2012-09-02 00:00:00,2012-09-02 00:00:00,PRATE,surface,-105.938,33.5432,2.28e-05
2012-09-02 00:00:00,2012-09-02 00:00:00,PRATE,surface,-105,33.5432,2.38e-05
2012-09-02 00:00:00,2012-09-02 00:00:00,PRATE,surface,-104.063,33.5432,2.54e-05
2012-09-02 00:00:00,2012-09-02 00:00:00,PRATE,surface,-103.125,33.5432,2.81e-05
2012-09-02 00:00:00,2012-09-02 00:00:00,PRATE,surface,-102.188,33.5432,3.2e-05
2012-09-02 00:00:00,2012-09-02 00:00:00,PRATE,surface,-101.25,33.5432,3.65e-05
2012-09-02 00:00:00,2012-09-02 00:00:00,PRATE,surface,-100.313,33.5432,3.51e-05
2012-09-02 00:00:00,2012-09-02 00:00:00,PRATE,surface,-99.3754,33.5432,3.64e-05
2012-09-02 00:00:00,2012-09-02 00:00:00,PRATE,surface,-98.4379,33.5432,4.33e-05
2012-09-02 00:00:00,2012-09-02 00:00:00,PRATE,surface,-97.5004,33.5432,4.95e-05
2012-09-02 00:00:00,2012-09-02 00:00:00,PRATE,surface,-96.5629,33.5432,5.21e-05
2012-09-02 00:00:00,2012-09-02 00:00:00,PRATE,surface,-95.6254,33.5432,5.34e-05
2012-09-02 00:00:00,2012-09-02 00:00:00,PRATE,surface,-94.6879,33.5432,5.8e-05
2012-09-02 00:00:00,2012-09-02 00:00:00,PRATE,surface,-93.7504,33.5432,6.77e-05
2012-09-02 00:00:00,2012-09-02 00:00:00,PRATE,surface,-92.8129,33.5432,7.54e-05
2012-09-02 00:00:00,2012-09-02 00:00:00,PRATE,surface,-107.813,34.4881,3.59e-05
2012-09-02 00:00:00,2012-09-02 00:00:00,PRATE,surface,-106.875,34.4881,2.94e-05
2012-09-02 00:00:00,2012-09-02 00:00:00,PRATE,surface,-105.938,34.4881,2.5e-05
2012-09-02 00:00:00,2012-09-02 00:00:00,PRATE,surface,-105,34.4881,2.46e-05
2012-09-02 00:00:00,2012-09-02 00:00:00,PRATE,surface,-104.063,34.4881,2.31e-05
2012-09-02 00:00:00,2012-09-02 00:00:00,PRATE,surface,-103.125,34.4881,2.37e-05
2012-09-02 00:00:00,2012-09-02 00:00:00,PRATE,surface,-102.188,34.4881,2.68e-05
2012-09-02 00:00:00,2012-09-02 00:00:00,PRATE,surface,-101.25,34.4881,2.82e-05
2012-09-02 00:00:00,2012-09-02 00:00:00,PRATE,surface,-100.313,34.4881,2.95e-05
2012-09-02 00:00:00,2012-09-02 00:00:00,PRATE,surface,-99.3754,34.4881,3.41e-05
2012-09-02 00:00:00,2012-09-02 00:00:00,PRATE,surface,-98.4379,34.4881,4.56e-05
2012-09-02 00:00:00,2012-09-02 00:00:00,PRATE,surface,-97.5004,34.4881,5.67e-05
2012-09-02 00:00:00,2012-09-02 00:00:00,PRATE,surface,-96.5629,34.4881,6.12e-05
2012-09-02 00:00:00,2012-09-02 00:00:00,PRATE,surface,-95.6254,34.4881,6.25e-05
2012-09-02 00:00:00,2012-09-02 00:00:00,PRATE,surface,-94.6879,34.4881,6.59e-05
2012-09-02 00:00:00,2012-09-02 00:00:00,PRATE,surface,-93.7504,34.4881,7.16e-05
2012-09-02 00:00:00,2012-09-02 00:00:00,PRATE,surface,-92.8129,34.4881,7.69e-05
2012-09-02 00:00:00,2012-09-02 00:00:00,PRATE,surface,-107.813,35.4329,2.28e-05
2012-09-02 00:00:00,2012-09-02 00:00:00,PRATE,surface,-106.875,35.4329,2.04e-05
2012-09-02 00:00:00,2012-09-02 00:00:00,PRATE,surface,-105.938,35.4329,2.28e-05
2012-09-02 00:00:00,2012-09-02 00:00:00,PRATE,surface,-105,35.4329,2.86e-05
2012-09-02 00:00:00,2012-09-02 00:00:00,PRATE,surface,-104.063,35.4329,2.85e-05
2012-09-02 00:00:00,2012-09-02 00:00:00,PRATE,surface,-103.125,35.4329,2.31e-05
2012-09-02 00:00:00,2012-09-02 00:00:00,PRATE,surface,-102.188,35.4329,2.14e-05
2012-09-02 00:00:00,2012-09-02 00:00:00,PRATE,surface,-101.25,35.4329,2.46e-05
2012-09-02 00:00:00,2012-09-02 00:00:00,PRATE,surface,-100.313,35.4329,2.68e-05
2012-09-02 00:00:00,2012-09-02 00:00:00,PRATE,surface,-99.3754,35.4329,3.18e-05
2012-09-02 00:00:00,2012-09-02 00:00:00,PRATE,surface,-98.4379,35.4329,4.09e-05
2012-09-02 00:00:00,2012-09-02 00:00:00,PRATE,surface,-97.5004,35.4329,5.04e-05
2012-09-02 00:00:00,2012-09-02 00:00:00,PRATE,surface,-96.5629,35.4329,5.62e-05
2012-09-02 00:00:00,2012-09-02 00:00:00,PRATE,surface,-95.6254,35.4329,5.91e-05
2012-09-02 00:00:00,2012-09-02 00:00:00,PRATE,surface,-94.6879,35.4329,6.33e-05
2012-09-02 00:00:00,2012-09-02 00:00:00,PRATE,surface,-93.7504,35.4329,7.06e-05
2012-09-02 00:00:00,2012-09-02 00:00:00,PRATE,surface,-92.8129,35.4329,7.73e-05
2012-09-02 00:00:00,2012-09-02 00:00:00,PRATE,surface,-107.813,36.3778,1.91e-05
2012-09-02 00:00:00,2012-09-02 00:00:00,PRATE,surface,-106.875,36.3778,1.81e-05
2012-09-02 00:00:00,2012-09-02 00:00:00,PRATE,surface,-105.938,36.3778,1.82e-05
2012-09-02 00:00:00,2012-09-02 00:00:00,PRATE,surface,-105,36.3778,2.31e-05
2012-09-02 00:00:00,2012-09-02 00:00:00,PRATE,surface,-104.063,36.3778,2.74e-05
2012-09-02 00:00:00,2012-09-02 00:00:00,PRATE,surface,-103.125,36.3778,2.66e-05
2012-09-02 00:00:00,2012-09-02 00:00:00,PRATE,surface,-102.188,36.3778,2.74e-05
2012-09-02 00:00:00,2012-09-02 00:00:00,PRATE,surface,-101.25,36.3778,2.97e-05
2012-09-02 00:00:00,2012-09-02 00:00:00,PRATE,surface,-100.313,36.3778,3.16e-05
2012-09-02 00:00:00,2012-09-02 00:00:00,PRATE,surface,-99.3754,36.3778,3.54e-05
2012-09-02 00:00:00,2012-09-02 00:00:00,PRATE,surface,-98.4379,36.3778,3.98e-05
2012-09-02 00:00:00,2012-09-02 00:00:00,PRATE,surface,-97.5004,36.3778,4.34e-05
2012-09-02 00:00:00,2012-09-02 00:00:00,PRATE,surface,-96.5629,36.3778,4.66e-05
2012-09-02 00:00:00,2012-09-02 00:00:00,PRATE,surface,-95.6254,36.3778,5.08e-05
2012-09-02 00:00:00,2012-09-02 00:00:00,PRATE,surface,-94.6879,36.3778,5.65e-05
2012-09-02 00:00:00,2012-09-02 00:00:00,PRATE,surface,-93.7504,36.3778,6.28e-05
2012-09-02 00:00:00,2012-09-02 00:00:00,PRATE,surface,-92.8129,36.3778,6.88e-05
