2016-04-23 00:00:00,2016-04-23 00:00:00,TMP,surface,-107.813,25.0393,302.175
2016-04-23 00:00:00,2016-04-23 00:00:00,TMP,surface,-106.875,25.0393,295.33
2016-04-23 00:00:00,2016-04-23 00:00:00,TMP,surface,-105.938,25.0393,290.402
2016-04-23 00:00:00,2016-04-23 00:00:00,TMP,surface,-105,25.0393,287.794
2016-04-23 00:00:00,2016-04-23 00:00:00,TMP,surface,-104.063,25.0393,291.197
2016-04-23 00:00:00,2016-04-23 00:00:00,TMP,surface,-103.125,25.0393,294.363
2016-04-23 00:00:00,2016-04-23 00:00:00,TMP,surface,-102.188,25.0393,293.858
2016-04-23 00:00:00,2016-04-23 00:00:00,TMP,surface,-101.25,25.0393,291.787
2016-04-23 00:00:00,2016-04-23 00:00:00,TMP,surface,-100.313,25.0393,292.267
2016-04-23 00:00:00,2016-04-23 00:00:00,TMP,surface,-99.3754,25.0393,295.704
2016-04-23 00:00:00,2016-04-23 00:00:00,TMP,surface,-98.4379,25.0393,299.634
2016-04-23 00:00:00,2016-04-23 00:00:00,TMP,surface,-97.5004,25.0393,302.531
2016-04-23 00:00:00,2016-04-23 00:00:00,TMP,surface,-96.5629,25.0393,303.059
2016-04-23 00:00:00,2016-04-23 00:00:00,TMP,surface,-95.6254,25.0393,303.421
2016-04-23 00:00:00,2016-04-23 00:00:00,TMP,surface,-94.6879,25.0393,303.656
2016-04-23 00:00:00,2016-04-23 00:00:00,TMP,surface,-93.7504,25.0393,303.722
2016-04-23 00:00:00,2016-04-23 00:00:00,TMP,surface,-92.8129,25.0393,303.899
2016-04-23 00:00:00,2016-04-23 00:00:00,TMP,surface,-107.813,25.9842,296.834
2016-04-23 00:00:00,2016-04-23 00:00:00,TMP,surface,-106.875,25.9842,291.875
2016-04-23 00:00:00,2016-04-23 00:00:00,TMP,surface,-105.938,25.9842,288.68
2016-04-23 00:00:00,2016-04-23 00:00:00,TMP,surface,-105,25.9842,289.459
2016-04-23 00:00:00,2016-04-23 00:00:00,TMP,surface,-104.063,25.9842,294.578
2016-04-23 00:00:00,2016-04-23 00:00:00,TMP,surface,-103.125,25.9842,296.88
2016-04-23 00:00:00,2016-04-23 00:00:00,TMP,surface,-102.188,25.9842,295.642
2016-04-23 00:00:00,2016-04-23 00:00:00,TMP,surface,-101.25,25.9842,294.852
2016-04-23 00:00:00,2016-04-23 00:00:00,TMP,surface,-100.313,25.9842,295.837
2016-04-23 00:00:00,2016-04-23 00:00:00,TMP,surface,-99.3754,25.9842,299.283
2016-04-23 00:00:00,2016-04-23 00:00:00,TMP,surface,-98.4379,25.9842,301.027
2016-04-23 00:00:00,2016-04-23 00:00:00,TMP,surface,-97.5004,25.9842,300.776
2016-04-23 00:00:00,2016-04-23 00:00:00,TMP,surface,-96.5629,25.9842,302.311
2016-04-23 00:00:00,2016-04-23 00:00:00,TMP,surface,-95.6254,25.9842,303.043
2016-04-23 00:00:00,2016-04-23 00:00:00,TMP,surface,-94.6879,25.9842,303.195
2016-04-23 00:00:00,2016-04-23 00:00:00,TMP,surface,-93.7504,25.9842,303.167
2016-04-23 00:00:00,2016-04-23 00:00:00,TMP,surface,-92.8129,25.9842,303.192
2016-04-23 00:00:00,2016-04-23 00:00:00,TMP,surface,-107.813,26.929,292.746
2016-04-23 00:00:00,2016-04-23 00:00:00,TMP,surface,-106.875,26.929,289.466
2016-04-23 00:00:00,2016-04-23 00:00:00,TMP,surface,-105.938,26.929,289.264
2016-04-23 00:00:00,2016-04-23 00:00:00,TMP,surface,-105,26.929,292.97
2016-04-23 00:00:00,2016-04-23 00:00:00,TMP,surface,-104.063,26.929,296.76
2016-04-23 00:00:00,2016-04-23 00:00:00,TMP,surface,-103.125,26.929,296.791
2016-04-23 00:00:00,2016-04-23 00:00:00,TMP,surface,-102.188,26.929,295.847
2016-04-23 00:00:00,2016-04-23 00:00:00,TMP,surface,-101.25,26.929,296.796
2016-04-23 00:00:00,2016-04-23 00:00:00,TMP,surface,-100.313,26.929,299.319
2016-04-23 00:00:00,2016-04-23 00:00:00,TMP,surface,-99.3754,26.929,301.531
2016-04-23 00:00:00,2016-04-23 00:00:00,TMP,surface,-98.4379,26.929,300.763
2016-04-23 00:00:00,2016-04-23 00:00:00,TMP,surface,-97.5004,26.929,301.034
2016-04-23 00:00:00,2016-04-23 00:00:00,TMP,surface,-96.5629,26.929,301.835
2016-04-23 00:00:00,2016-04-23 00:00:00,TMP,surface,-95.6254,26.929,302.834
2016-04-23 00:00:00,2016-04-23 00:00:00,TMP,surface,-94.6879,26.929,303.063
2016-04-23 00:00:00,2016-04-23 00:00:00,TMP,surface,-93.7504,26.929,302.979
2016-04-23 00:00:00,2016-04-23 00:00:00,TMP,surface,-92.8129,26.929,302.919
2016-04-23 00:00:00,2016-04-23 00:00:00,TMP,surface,-107.813,27.8739,290.667
2016-04-23 00:00:00,2016-04-23 00:00:00,TMP,surface,-106.875,27.8739,288.624
2016-04-23 00:00:00,2016-04-23 00:00:00,TMP,surface,-105.938,27.8739,290.741
2016-04-23 00:00:00,2016-04-23 00:00:00,TMP,surface,-105,27.8739,294.979
2016-04-23 00:00:00,2016-04-23 00:00:00,TMP,surface,-104.063,27.8739,296.536
2016-04-23 00:00:00,2016-04-23 00:00:00,TMP,surface,-103.125,27.8739,295.389
2016-04-23 00:00:00,2016-04-23 00:00:00,TMP,surface,-102.188,27.8739,295.175
2016-04-23 00:00:00,2016-04-23 00:00:00,TMP,surface,-101.25,27.8739,297.943
2016-04-23 00:00:00,2016-04-23 00:00:00,TMP,surface,-100.313,27.8739,300.791
2016-04-23 00:00:00,2016-04-23 00:00:00,TMP,surface,-99.3754,27.8739,301.338
2016-04-23 00:00:00,2016-04-23 00:00:00,TMP,surface,-98.4379,27.8739,300.509
2016-04-23 00:00:00,2016-04-23 00:00:00,TMP,surface,-97.5004,27.8739,300.928
2016-04-23 00:00:00,2016-04-23 00:00:00,TMP,surface,-96.5629,27.8739,301.994
2016-04-23 00:00:00,2016-04-23 00:00:00,TMP,surface,-95.6254,27.8739,302.311
2016-04-23 00:00:00,2016-04-23 00:00:00,TMP,surface,-94.6879,27.8739,302.589
2016-04-23 00:00:00,2016-04-23 00:00:00,TMP,surface,-93.7504,27.8739,302.784
2016-04-23 00:00:00,2016-04-23 00:00:00,TMP,surface,-92.8129,27.8739,302.81
2016-04-23 00:00:00,2016-04-23 00:00:00,TMP,surface,-107.813,28.8188,289.357
2016-04-23 00:00:00,2016-04-23 00:00:00,TMP,surface,-106.875,28.8188,289.007
2016-04-23 00:00:00,2016-04-23 00:00:00,TMP,surface,-105.938,28.8188,292.659
2016-04-23 00:00:00,2016-04-23 00:00:00,TMP,surface,-105,28.8188,296.119
2016-04-23 00:00:00,2016-04-23 00:00:00,TMP,surface,-104.063,28.8188,296.056
2016-04-23 00:00:00,2016-04-23 00:00:00,TMP,surface,-103.125,28.8188,295.386
2016-04-23 00:00:00,2016-04-23 00:00:00,TMP,surface,-102.188,28.8188,295.666
2016-04-23 00:00:00,2016-04-23 00:00:00,TMP,surface,-101.25,28.8188,298.029
2016-04-23 00:00:00,2016-04-23 00:00:00,TMP,surface,-100.313,28.8188,299.936
2016-04-23 00:00:00,2016-04-23 00:00:00,TMP,surface,-99.3754,28.8188,299.906
2016-04-23 00:00:00,2016-04-23 00:00:00,TMP,surface,-98.4379,28.8188,299.248
2016-04-23 00:00:00,2016-04-23 00:00:00,TMP,surface,-97.5004,28.8188,299.082
2016-04-23 00:00:00,2016-04-23 00:00:00,TMP,surface,-96.5629,28.8188,299.475
2016-04-23 00:00:00,2016-04-23 00:00:00,TMP,surface,-95.6254,28.8188,300.455
2016-04-23 00:00:00,2016-04-23 00:00:00,TMP,surface,-94.6879,28.8188,301.671
2016-04-23 00:00:00,2016-04-23 00:00:00,TMP,surface,-93.7504,28.8188,302.282
2016-04-23 00:00:00,2016-04-23 00:00:00,TMP,surface,-92.8129,28.8188,302.461
2016-04-23 00:00:00,2016-04-23 00:00:00,TMP,surface,-107.813,29.7637,291.312
2016-04-23 00:00:00,2016-04-23 00:00:00,TMP,surface,-106.875,29.7637,292.133
2016-04-23 00:00:00,2016-04-23 00:00:00,TMP,surface,-105.938,29.7637,294.746
2016-04-23 00:00:00,2016-04-23 00:00:00,TMP,surface,-105,29.7637,296.138
2016-04-23 00:00:00,2016-04-23 00:00:00,TMP,surface,-104.063,29.7637,296.058
2016-04-23 00:00:00,2016-04-23 00:00:00,TMP,surface,-103.125,29.7637,296.168
2016-04-23 00:00:00,2016-04-23 00:00:00,TMP,surface,-102.188,29.7637,297.242
2016-04-23 00:00:00,2016-04-23 00:00:00,TMP,surface,-101.25,29.7637,298.259
2016-04-23 00:00:00,2016-04-23 00:00:00,TMP,surface,-100.313,29.7637,298.389
2016-04-23 00:00:00,2016-04-23 00:00:00,TMP,surface,-99.3754,29.7637,297.826
2016-04-23 00:00:00,2016-04-23 00:00:00,TMP,surface,-98.4379,29.7637,298.043
2016-04-23 00:00:00,2016-04-23 00:00:00,TMP,surface,-97.5004,29.7637,298.73
2016-04-23 00:00:00,2016-04-23 00:00:00,TMP,surface,-96.5629,29.7637,299.083
2016-04-23 00:00:00,2016-04-23 00:00:00,TMP,surface,-95.6254,29.7637,299.274
2016-04-23 00:00:00,2016-04-23 00:00:00,TMP,surface,-94.6879,29.7637,300.183
2016-04-23 00:00:00,2016-04-23 00:00:00,TMP,surface,-93.7504,29.7637,301.322
2016-04-23 00:00:00,2016-04-23 00:00:00,TMP,surface,-92.8129,29.7637,299.736
2016-04-23 00:00:00,2016-04-23 00:00:00,TMP,surface,-107.813,30.7085,295.184
2016-04-23 00:00:00,2016-04-23 00:00:00,TMP,surface,-106.875,30.7085,296.381
2016-04-23 00:00:00,2016-04-23 00:00:00,TMP,surface,-105.938,30.7085,296.299
2016-04-23 00:00:00,2016-04-23 00:00:00,TMP,surface,-105,30.7085,295.962
2016-04-23 00:00:00,2016-04-23 00:00:00,TMP,surface,-104.063,30.7085,295.307
2016-04-23 00:00:00,2016-04-23 00:00:00,TMP,surface,-103.125,30.7085,296.536
2016-04-23 00:00:00,2016-04-23 00:00:00,TMP,surface,-102.188,30.7085,297.802
2016-04-23 00:00:00,2016-04-23 00:00:00,TMP,surface,-101.25,30.7085,297.964
2016-04-23 00:00:00,2016-04-23 00:00:00,TMP,surface,-100.313,30.7085,297.675
2016-04-23 00:00:00,2016-04-23 00:00:00,TMP,surface,-99.3754,30.7085,297.551
2016-04-23 00:00:00,2016-04-23 00:00:00,TMP,surface,-98.4379,30.7085,298.219
2016-04-23 00:00:00,2016-04-23 00:00:00,TMP,surface,-97.5004,30.7085,299.154
2016-04-23 00:00:00,2016-04-23 00:00:00,TMP,surface,-96.5629,30.7085,299.291
2016-04-23 00:00:00,2016-04-23 00:00:00,TMP,surface,-95.6254,30.7085,298.781
2016-04-23 00:00:00,2016-04-23 00:00:00,TMP,surface,-94.6879,30.7085,298.435
2016-04-23 00:00:00,2016-04-23 00:00:00,TMP,surface,-93.7504,30.7085,298.213
2016-04-23 00:00:00,2016-04-23 00:00:00,TMP,surface,-92.8129,30.7085,298.042
2016-04-23 00:00:00,2016-04-23 00:00:00,TMP,surface,-107.813,31.6534,297.123
2016-04-23 00:00:00,2016-04-23 00:00:00,TMP,surface,-106.875,31.6534,297.509
2016-04-23 00:00:00,2016-04-23 00:00:00,TMP,surface,-105.938,31.6534,296.275
2016-04-23 00:00:00,2016-04-23 00:00:00,TMP,surface,-105,31.6534,295.477
2016-04-23 00:00:00,2016-04-23 00:00:00,TMP,surface,-104.063,31.6534,295.994
2016-04-23 00:00:00,2016-04-23 00:00:00,TMP,surface,-103.125,31.6534,297
2016-04-23 00:00:00,2016-04-23 00:00:00,TMP,surface,-102.188,31.6534,297.744
2016-04-23 00:00:00,2016-04-23 00:00:00,TMP,surface,-101.25,31.6534,297.773
2016-04-23 00:00:00,2016-04-23 00:00:00,TMP,surface,-100.313,31.6534,297.727
2016-04-23 00:00:00,2016-04-23 00:00:00,TMP,surface,-99.3754,31.6534,298.029
2016-04-23 00:00:00,2016-04-23 00:00:00,TMP,surface,-98.4379,31.6534,298.691
2016-04-23 00:00:00,2016-04-23 00:00:00,TMP,surface,-97.5004,31.6534,299.357
2016-04-23 00:00:00,2016-04-23 00:00:00,TMP,surface,-96.5629,31.6534,299.431
2016-04-23 00:00:00,2016-04-23 00:00:00,TMP,surface,-95.6254,31.6534,298.909
2016-04-23 00:00:00,2016-04-23 00:00:00,TMP,surface,-94.6879,31.6534,298.29
2016-04-23 00:00:00,2016-04-23 00:00:00,TMP,surface,-93.7504,31.6534,297.755
2016-04-23 00:00:00,2016-04-23 00:00:00,TMP,surface,-92.8129,31.6534,297.594
2016-04-23 00:00:00,2016-04-23 00:00:00,TMP,surface,-107.813,32.5983,294.415
2016-04-23 00:00:00,2016-04-23 00:00:00,TMP,surface,-106.875,32.5983,294.699
2016-04-23 00:00:00,2016-04-23 00:00:00,TMP,surface,-105.938,32.5983,294.423
2016-04-23 00:00:00,2016-04-23 00:00:00,TMP,surface,-105,32.5983,294.226
2016-04-23 00:00:00,2016-04-23 00:00:00,TMP,surface,-104.063,32.5983,295.607
2016-04-23 00:00:00,2016-04-23 00:00:00,TMP,surface,-103.125,32.5983,296.541
2016-04-23 00:00:00,2016-04-23 00:00:00,TMP,surface,-102.188,32.5983,296.874
2016-04-23 00:00:00,2016-04-23 00:00:00,TMP,surface,-101.25,32.5983,297.173
2016-04-23 00:00:00,2016-04-23 00:00:00,TMP,surface,-100.313,32.5983,297.783
2016-04-23 00:00:00,2016-04-23 00:00:00,TMP,surface,-99.3754,32.5983,298.455
2016-04-23 00:00:00,2016-04-23 00:00:00,TMP,surface,-98.4379,32.5983,298.751
2016-04-23 00:00:00,2016-04-23 00:00:00,TMP,surface,-97.5004,32.5983,298.874
2016-04-23 00:00:00,2016-04-23 00:00:00,TMP,surface,-96.5629,32.5983,298.949
2016-04-23 00:00:00,2016-04-23 00:00:00,TMP,surface,-95.6254,32.5983,298.741
2016-04-23 00:00:00,2016-04-23 00:00:00,TMP,surface,-94.6879,32.5983,298.176
2016-04-23 00:00:00,2016-04-23 00:00:00,TMP,surface,-93.7504,32.5983,297.589
2016-04-23 00:00:00,2016-04-23 00:00:00,TMP,surface,-92.8129,32.5983,297.519
2016-04-23 00:00:00,2016-04-23 00:00:00,TMP,surface,-107.813,33.5432,290.33
2016-04-23 00:00:00,2016-04-23 00:00:00,TMP,surface,-106.875,33.5432,291.493
2016-04-23 00:00:00,2016-04-23 00:00:00,TMP,surface,-105.938,33.5432,292.077
2016-04-23 00:00:00,2016-04-23 00:00:00,TMP,surface,-105,33.5432,293.082
2016-04-23 00:00:00,2016-04-23 00:00:00,TMP,surface,-104.063,33.5432,294.954
2016-04-23 00:00:00,2016-04-23 00:00:00,TMP,surface,-103.125,33.5432,295.491
2016-04-23 00:00:00,2016-04-23 00:00:00,TMP,surface,-102.188,33.5432,295.427
2016-04-23 00:00:00,2016-04-23 00:00:00,TMP,surface,-101.25,33.5432,295.959
2016-04-23 00:00:00,2016-04-23 00:00:00,TMP,surface,-100.313,33.5432,297.103
2016-04-23 00:00:00,2016-04-23 00:00:00,TMP,surface,-99.3754,33.5432,297.775
2016-04-23 00:00:00,2016-04-23 00:00:00,TMP,surface,-98.4379,33.5432,297.8
2016-04-23 00:00:00,2016-04-23 00:00:00,TMP,surface,-97.5004,33.5432,297.567
2016-04-23 00:00:00,2016-04-23 00:00:00,TMP,surface,-96.5629,33.5432,297.557
2016-04-23 00:00:00,2016-04-23 00:00:00,TMP,surface,-95.6254,33.5432,297.437
2016-04-23 00:00:00,2016-04-23 00:00:00,TMP,surface,-94.6879,33.5432,296.725
2016-04-23 00:00:00,2016-04-23 00:00:00,TMP,surface,-93.7504,33.5432,296.152
2016-04-23 00:00:00,2016-04-23 00:00:00,TMP,surface,-92.8129,33.5432,295.962
2016-04-23 00:00:00,2016-04-23 00:00:00,TMP,surface,-107.813,34.4881,289.005
2016-04-23 00:00:00,2016-04-23 00:00:00,TMP,surface,-106.875,34.4881,290.408
2016-04-23 00:00:00,2016-04-23 00:00:00,TMP,surface,-105.938,34.4881,290.979
2016-04-23 00:00:00,2016-04-23 00:00:00,TMP,surface,-105,34.4881,292.218
2016-04-23 00:00:00,2016-04-23 00:00:00,TMP,surface,-104.063,34.4881,293.349
2016-04-23 00:00:00,2016-04-23 00:00:00,TMP,surface,-103.125,34.4881,294.029
2016-04-23 00:00:00,2016-04-23 00:00:00,TMP,surface,-102.188,34.4881,294.319
2016-04-23 00:00:00,2016-04-23 00:00:00,TMP,surface,-101.25,34.4881,294.791
2016-04-23 00:00:00,2016-04-23 00:00:00,TMP,surface,-100.313,34.4881,295.691
2016-04-23 00:00:00,2016-04-23 00:00:00,TMP,surface,-99.3754,34.4881,296.188
2016-04-23 00:00:00,2016-04-23 00:00:00,TMP,surface,-98.4379,34.4881,296.024
2016-04-23 00:00:00,2016-04-23 00:00:00,TMP,surface,-97.5004,34.4881,295.787
2016-04-23 00:00:00,2016-04-23 00:00:00,TMP,surface,-96.5629,34.4881,295.709
2016-04-23 00:00:00,2016-04-23 00:00:00,TMP,surface,-95.6254,34.4881,295.427
2016-04-23 00:00:00,2016-04-23 00:00:00,TMP,surface,-94.6879,34.4881,294.727
2016-04-23 00:00:00,2016-04-23 00:00:00,TMP,surface,-93.7504,34.4881,294.04
2016-04-23 00:00:00,2016-04-23 00:00:00,TMP,surface,-92.8129,34.4881,294.087
2016-04-23 00:00:00,2016-04-23 00:00:00,TMP,surface,-107.813,35.4329,290.275
2016-04-23 00:00:00,2016-04-23 00:00:00,TMP,surface,-106.875,35.4329,290.069
2016-04-23 00:00:00,2016-04-23 00:00:00,TMP,surface,-105.938,35.4329,289.637
2016-04-23 00:00:00,2016-04-23 00:00:00,TMP,surface,-105,35.4329,289.944
2016-04-23 00:00:00,2016-04-23 00:00:00,TMP,surface,-104.063,35.4329,292.011
2016-04-23 00:00:00,2016-04-23 00:00:00,TMP,surface,-103.125,35.4329,293.165
2016-04-23 00:00:00,2016-04-23 00:00:00,TMP,surface,-102.188,35.4329,293.381
2016-04-23 00:00:00,2016-04-23 00:00:00,TMP,surface,-101.25,35.4329,293.96
2016-04-23 00:00:00,2016-04-23 00:00:00,TMP,surface,-100.313,35.4329,294.635
2016-04-23 00:00:00,2016-04-23 00:00:00,TMP,surface,-99.3754,35.4329,295.101
2016-04-23 00:00:00,2016-04-23 00:00:00,TMP,surface,-98.4379,35.4329,295.138
2016-04-23 00:00:00,2016-04-23 00:00:00,TMP,surface,-97.5004,35.4329,294.959
2016-04-23 00:00:00,2016-04-23 00:00:00,TMP,surface,-96.5629,35.4329,294.856
2016-04-23 00:00:00,2016-04-23 00:00:00,TMP,surface,-95.6254,35.4329,294.562
2016-04-23 00:00:00,2016-04-23 00:00:00,TMP,surface,-94.6879,35.4329,293.792
2016-04-23 00:00:00,2016-04-23 00:00:00,TMP,surface,-93.7504,35.4329,292.935
2016-04-23 00:00:00,2016-04-23 00:00:00,TMP,surface,-92.8129,35.4329,292.403
2016-04-23 00:00:00,2016-04-23 00:00:00,TMP,surface,-107.813,36.3778,289.872
2016-04-23 00:00:00,2016-04-23 00:00:00,TMP,surface,-106.875,36.3778,287.082
2016-04-23 00:00:00,2016-04-23 00:00:00,TMP,surface,-105.938,36.3778,286.853
2016-04-23 00:00:00,2016-04-23 00:00:00,TMP,surface,-105,36.3778,287.41
2016-04-23 00:00:00,2016-04-23 00:00:00,TMP,surface,-104.063,36.3778,289.602
2016-04-23 00:00:00,2016-04-23 00:00:00,TMP,surface,-103.125,36.3778,291.119
2016-04-23 00:00:00,2016-04-23 00:00:00,TMP,surface,-102.188,36.3778,292.427
2016-04-23 00:00:00,2016-04-23 00:00:00,TMP,surface,-101.25,36.3778,293.338
2016-04-23 00:00:00,2016-04-23 00:00:00,TMP,surface,-100.313,36.3778,294.069
2016-04-23 00:00:00,2016-04-23 00:00:00,TMP,surface,-99.3754,36.3778,294.44
2016-04-23 00:00:00,2016-04-23 00:00:00,TMP,surface,-98.4379,36.3778,294.402
2016-04-23 00:00:00,2016-04-23 00:00:00,TMP,surface,-97.5004,36.3778,294.171
2016-04-23 00:00:00,2016-04-23 00:00:00,TMP,surface,-96.5629,36.3778,293.992
2016-04-23 00:00:00,2016-04-23 00:00:00,TMP,surface,-95.6254,36.3778,293.658
2016-04-23 00:00:00,2016-04-23 00:00:00,TMP,surface,-94.6879,36.3778,292.834
2016-04-23 00:00:00,2016-04-23 00:00:00,TMP,surface,-93.7504,36.3778,291.962
2016-04-23 00:00:00,2016-04-23 00:00:00,TMP,surface,-92.8129,36.3778,291.695
2016-04-23 00:00:00,2016-04-23 00:00:00,PRATE,surface,-107.813,25.0393,3.76e-05
2016-04-23 00:00:00,2016-04-23 00:00:00,PRATE,surface,-106.875,25.0393,9.98e-05
2016-04-23 00:00:00,2016-04-23 00:00:00,PRATE,surface,-105.938,25.0393,7.64e-05
2016-04-23 00:00:00,2016-04-23 00:00:00,PRATE,surface,-105,25.0393,4.24e-05
2016-04-23 00:00:00,2016-04-23 00:00:00,PRATE,surface,-104.063,25.0393,2.34e-05
2016-04-23 00:00:00,2016-04-23 00:00:00,PRATE,surface,-103.125,25.0393,1.49e-05
2016-04-23 00:00:00,2016-04-23 00:00:00,PRATE,surface,-102.188,25.0393,2.18e-05
2016-04-23 00:00:00,2016-04-23 00:00:00,PRATE,surface,-101.25,25.0393,4.73e-05
2016-04-23 00:00:00,2016-04-23 00:00:00,PRATE,surface,-100.313,25.0393,7.49e-05
2016-04-23 00:00:00,2016-04-23 00:00:00,PRATE,surface,-99.3754,25.0393,5.73e-05
2016-04-23 00:00:00,2016-04-23 00:00:00,PRATE,surface,-98.4379,25.0393,2.98e-05
2016-04-23 00:00:00,2016-04-23 00:00:00,PRATE,surface,-97.5004,25.0393,3.8e-05
2016-04-23 00:00:00,2016-04-23 00:00:00,PRATE,surface,-96.5629,25.0393,9.95e-05
2016-04-23 00:00:00,2016-04-23 00:00:00,PRATE,surface,-95.6254,25.0393,0.0001181
2016-04-23 00:00:00,2016-04-23 00:00:00,PRATE,surface,-94.6879,25.0393,8.11e-05
2016-04-23 00:00:00,2016-04-23 00:00:00,PRATE,surface,-93.7504,25.0393,0.0001042
2016-04-23 00:00:00,2016-04-23 00:00:00,PRATE,surface,-92.8129,25.0393,0.0001378
2016-04-23 00:00:00,2016-04-23 00:00:00,PRATE,surface,-107.813,25.9842,6.75e-05
2016-04-23 00:00:00,2016-04-23 00:00:00,PRATE,surface,-106.875,25.9842,7.41e-05
2016-04-23 00:00:00,2016-04-23 00:00:00,PRATE,surface,-105.938,25.9842,4.33e-05
2016-04-23 00:00:00,2016-04-23 00:00:00,PRATE,surface,-105,25.9842,2.82e-05
2016-04-23 00:00:00,2016-04-23 00:00:00,PRATE,surface,-104.063,25.9842,6.8e-06
2016-04-23 00:00:00,2016-04-23 00:00:00,PRATE,surface,-103.125,25.9842,6.1e-06
2016-04-23 00:00:00,2016-04-23 00:00:00,PRATE,surface,-102.188,25.9842,1.17e-05
2016-04-23 00:00:00,2016-04-23 00:00:00,PRATE,surface,-101.25,25.9842,2.47e-05
2016-04-23 00:00:00,2016-04-23 00:00:00,PRATE,surface,-100.313,25.9842,3.9e-05
2016-04-23 00:00:00,2016-04-23 00:00:00,PRATE,surface,-99.3754,25.9842,2.92e-05
2016-04-23 00:00:00,2016-04-23 00:00:00,PRATE,surface,-98.4379,25.9842,2.49e-05
2016-04-23 00:00:00,2016-04-23 00:00:00,PRATE,surface,-97.5004,25.9842,5.8e-05
2016-04-23 00:00:00,2016-04-23 00:00:00,PRATE,surface,-96.5629,25.9842,0.0001172
2016-04-23 00:00:00,2016-04-23 00:00:00,PRATE,surface,-95.6254,25.9842,0.0001666
2016-04-23 00:00:00,2016-04-23 00:00:00,PRATE,surface,-94.6879,25.9842,0.0001254
2016-04-23 00:00:00,2016-04-23 00:00:00,PRATE,surface,-93.7504,25.9842,0.0001012
2016-04-23 00:00:00,2016-04-23 00:00:00,PRATE,surface,-92.8129,25.9842,9.44e-05
2016-04-23 00:00:00,2016-04-23 00:00:00,PRATE,surface,-107.813,26.929,7.59e-05
2016-04-23 00:00:00,2016-04-23 00:00:00,PRATE,surface,-106.875,26.929,4.09e-05
2016-04-23 00:00:00,2016-04-23 00:00:00,PRATE,surface,-105.938,26.929,2.9e-05
2016-04-23 00:00:00,2016-04-23 00:00:00,PRATE,surface,-105,26.929,1.41e-05
2016-04-23 00:00:00,2016-04-23 00:00:00,PRATE,surface,-104.063,26.929,6.1e-06
2016-04-23 00:00:00,2016-04-23 00:00:00,PRATE,surface,-103.125,26.929,4.8e-06
2016-04-23 00:00:00,2016-04-23 00:00:00,PRATE,surface,-102.188,26.929,1.15e-05
2016-04-23 00:00:00,2016-04-23 00:00:00,PRATE,surface,-101.25,26.929,1.43e-05
2016-04-23 00:00:00,2016-04-23 00:00:00,PRATE,surface,-100.313,26.929,1.03e-05
2016-04-23 00:00:00,2016-04-23 00:00:00,PRATE,surface,-99.3754,26.929,9.5e-06
2016-04-23 00:00:00,2016-04-23 00:00:00,PRATE,surface,-98.4379,26.929,3.14e-05
2016-04-23 00:00:00,2016-04-23 00:00:00,PRATE,surface,-97.5004,26.929,6.24e-05
2016-04-23 00:00:00,2016-04-23 00:00:00,PRATE,surface,-96.5629,26.929,6.58e-05
2016-04-23 00:00:00,2016-04-23 00:00:00,PRATE,surface,-95.6254,26.929,0.0001251
2016-04-23 00:00:00,2016-04-23 00:00:00,PRATE,surface,-94.6879,26.929,0.0001258
2016-04-23 00:00:00,2016-04-23 00:00:00,PRATE,surface,-93.7504,26.929,0.0001247
2016-04-23 00:00:00,2016-04-23 00:00:00,PRATE,surface,-92.8129,26.929,0.000117
2016-04-23 00:00:00,2016-04-23 00:00:00,PRATE,surface,-107.813,27.8739,6.88e-05
2016-04-23 00:00:00,2016-04-23 00:00:00,PRATE,surface,-106.875,27.8739,2.7e-05
2016-04-23 00:00:00,2016-04-23 00:00:00,PRATE,surface,-105.938,27.8739,1.53e-05
2016-04-23 00:00:00,2016-04-23 00:00:00,PRATE,surface,-105,27.8739,6.2e-06
2016-04-23 00:00:00,2016-04-23 00:00:00,PRATE,surface,-104.063,27.8739,6.7e-06
2016-04-23 00:00:00,2016-04-23 00:00:00,PRATE,surface,-103.125,27.8739,1.07e-05
2016-04-23 00:00:00,2016-04-23 00:00:00,PRATE,surface,-102.188,27.8739,1.24e-05
2016-04-23 00:00:00,2016-04-23 00:00:00,PRATE,surface,-101.25,27.8739,9.2e-06
2016-04-23 00:00:00,2016-04-23 00:00:00,PRATE,surface,-100.313,27.8739,6.4e-06
2016-04-23 00:00:00,2016-04-23 00:00:00,PRATE,surface,-99.3754,27.8739,9.5e-06
2016-04-23 00:00:00,2016-04-23 00:00:00,PRATE,surface,-98.4379,27.8739,2.83e-05
2016-04-23 00:00:00,2016-04-23 00:00:00,PRATE,surface,-97.5004,27.8739,5.07e-05
2016-04-23 00:00:00,2016-04-23 00:00:00,PRATE,surface,-96.5629,27.8739,5.45e-05
2016-04-23 00:00:00,2016-04-23 00:00:00,PRATE,surface,-95.6254,27.8739,5.08e-05
2016-04-23 00:00:00,2016-04-23 00:00:00,PRATE,surface,-94.6879,27.8739,8.79e-05
2016-04-23 00:00:00,2016-04-23 00:00:00,PRATE,surface,-93.7504,27.8739,0.0001549
2016-04-23 00:00:00,2016-04-23 00:00:00,PRATE,surface,-92.8129,27.8739,0.0001438
2016-04-23 00:00:00,2016-04-23 00:00:00,PRATE,surface,-107.813,28.8188,5.37e-05
2016-04-23 00:00:00,2016-04-23 00:00:00,PRATE,surface,-106.875,28.8188,2.59e-05
2016-04-23 00:00:00,2016-04-23 00:00:00,PRATE,surface,-105.938,28.8188,1.38e-05
2016-04-23 00:00:00,2016-04-23 00:00:00,PRATE,surface,-105,28.8188,3.7e-06
2016-04-23 00:00:00,2016-04-23 00:00:00,PRATE,surface,-104.063,28.8188,6.9e-06
2016-04-23 00:00:00,2016-04-23 00:00:00,PRATE,surface,-103.125,28.8188,1.36e-05
2016-04-23 00:00:00,2016-04-23 00:00:00,PRATE,surface,-102.188,28.8188,1.72e-05
2016-04-23 00:00:00,2016-04-23 00:00:00,PRATE,surface,-101.25,28.8188,1.09e-05
2016-04-23 00:00:00,2016-04-23 00:00:00,PRATE,surface,-100.313,28.8188,1.07e-05
2016-04-23 00:00:00,2016-04-23 00:00:00,PRATE,surface,-99.3754,28.8188,1.56e-05
2016-04-23 00:00:00,2016-04-23 00:00:00,PRATE,surface,-98.4379,28.8188,2.2e-05
2016-04-23 00:00:00,2016-04-23 00:00:00,PRATE,surface,-97.5004,28.8188,3.24e-05
2016-04-23 00:00:00,2016-04-23 00:00:00,PRATE,surface,-96.5629,28.8188,4.83e-05
2016-04-23 00:00:00,2016-04-23 00:00:00,PRATE,surface,-95.6254,28.8188,6.05e-05
2016-04-23 00:00:00,2016-04-23 00:00:00,PRATE,surface,-94.6879,28.8188,6.09e-05
2016-04-23 00:00:00,2016-04-23 00:00:00,PRATE,surface,-93.7504,28.8188,6.24e-05
2016-04-23 00:00:00,2016-04-23 00:00:00,PRATE,surface,-92.8129,28.8188,7.26e-05
2016-04-23 00:00:00,2016-04-23 00:00:00,PRATE,surface,-107.813,29.7637,3.56e-05
2016-04-23 00:00:00,2016-04-23 00:00:00,PRATE,surface,-106.875,29.7637,3.35e-05
2016-04-23 00:00:00,2016-04-23 00:00:00,PRATE,surface,-105.938,29.7637,2.04e-05
2016-04-23 00:00:00,2016-04-23 00:00:00,PRATE,surface,-105,29.7637,1.28e-05
2016-04-23 00:00:00,2016-04-23 00:00:00,PRATE,surface,-104.063,29.7637,1.82e-05
2016-04-23 00:00:00,2016-04-23 00:00:00,PRATE,surface,-103.125,29.7637,1.87e-05
2016-04-23 00:00:00,2016-04-23 00:00:00,PRATE,surface,-102.188,29.7637,1.17e-05
2016-04-23 00:00:00,2016-04-23 00:00:00,PRATE,surface,-101.25,29.7637,6e-06
2016-04-23 00:00:00,2016-04-23 00:00:00,PRATE,surface,-100.313,29.7637,8.9e-06
2016-04-23 00:00:00,2016-04-23 00:00:00,PRATE,surface,-99.3754,29.7637,1.61e-05
2016-04-23 00:00:00,2016-04-23 00:00:00,PRATE,surface,-98.4379,29.7637,2.03e-05
2016-04-23 00:00:00,2016-04-23 00:00:00,PRATE,surface,-97.5004,29.7637,2.24e-05
2016-04-23 00:00:00,2016-04-23 00:00:00,PRATE,surface,-96.5629,29.7637,3.05e-05
2016-04-23 00:00:00,2016-04-23 00:00:00,PRATE,surface,-95.6254,29.7637,4.53e-05
2016-04-23 00:00:00,2016-04-23 00:00:00,PRATE,surface,-94.6879,29.7637,5.25e-05
2016-04-23 00:00:00,2016-04-23 00:00:00,PRATE,surface,-93.7504,29.7637,4.48e-05
2016-04-23 00:00:00,2016-04-23 00:00:00,PRATE,surface,-92.8129,29.7637,4.32e-05
2016-04-23 00:00:00,2016-04-23 00:00:00,PRATE,surface,-107.813,30.7085,1.47e-05
2016-04-23 00:00:00,2016-04-23 00:00:00,PRATE,surface,-106.875,30.7085,1.95e-05
2016-04-23 00:00:00,2016-04-23 00:00:00,PRATE,surface,-105.938,30.7085,2.72e-05
2016-04-23 00:00:00,2016-04-23 00:00:00,PRATE,surface,-105,30.7085,3.15e-05
2016-04-23 00:00:00,2016-04-23 00:00:00,PRATE,surface,-104.063,30.7085,2.86e-05
2016-04-23 00:00:00,2016-04-23 00:00:00,PRATE,surface,-103.125,30.7085,2.45e-05
2016-04-23 00:00:00,2016-04-23 00:00:00,PRATE,surface,-102.188,30.7085,1.03e-05
2016-04-23 00:00:00,2016-04-23 00:00:00,PRATE,surface,-101.25,30.7085,8e-06
2016-04-23 00:00:00,2016-04-23 00:00:00,PRATE,surface,-100.313,30.7085,9.5e-06
2016-04-23 00:00:00,2016-04-23 00:00:00,PRATE,surface,-99.3754,30.7085,1.33e-05
2016-04-23 00:00:00,2016-04-23 00:00:00,PRATE,surface,-98.4379,30.7085,1.99e-05
2016-04-23 00:00:00,2016-04-23 00:00:00,PRATE,surface,-97.5004,30.7085,2.69e-05
2016-04-23 00:00:00,2016-04-23 00:00:00,PRATE,surface,-96.5629,30.7085,3.44e-05
2016-04-23 00:00:00,2016-04-23 00:00:00,PRATE,surface,-95.6254,30.7085,3.94e-05
2016-04-23 00:00:00,2016-04-23 00:00:00,PRATE,surface,-94.6879,30.7085,3.63e-05
2016-04-23 00:00:00,2016-04-23 00:00:00,PRATE,surface,-93.7504,30.7085,3e-05
2016-04-23 00:00:00,2016-04-23 00:00:00,PRATE,surface,-92.8129,30.7085,3.12e-05
2016-04-23 00:00:00,2016-04-23 00:00:00,PRATE,surface,-107.813,31.6534,1.3e-06
2016-04-23 00:00:00,2016-04-23 00:00:00,PRATE,surface,-106.875,31.6534,5.7e-06
2016-04-23 00:00:00,2016-04-23 00:00:00,PRATE,surface,-105.938,31.6534,1.55e-05
2016-04-23 00:00:00,2016-04-23 00:00:00,PRATE,surface,-105,31.6534,2.74e-05
2016-04-23 00:00:00,2016-04-23 00:00:00,PRATE,surface,-104.063,31.6534,2.7e-05
2016-04-23 00:00:00,2016-04-23 00:00:00,PRATE,surface,-103.125,31.6534,2.19e-05
2016-04-23 00:00:00,2016-04-23 00:00:00,PRATE,surface,-102.188,31.6534,1.37e-05
2016-04-23 00:00:00,2016-04-23 00:00:00,PRATE,surface,-101.25,31.6534,1.12e-05
2016-04-23 00:00:00,2016-04-23 00:00:00,PRATE,surface,-100.313,31.6534,9.1e-06
2016-04-23 00:00:00,2016-04-23 00:00:00,PRATE,surface,-99.3754,31.6534,1.04e-05
2016-04-23 00:00:00,2016-04-23 00:00:00,PRATE,surface,-98.4379,31.6534,1.95e-05
2016-04-23 00:00:00,2016-04-23 00:00:00,PRATE,surface,-97.5004,31.6534,3.34e-05
2016-04-23 00:00:00,2016-04-23 00:00:00,PRATE,surface,-96.5629,31.6534,3.82e-05
2016-04-23 00:00:00,2016-04-23 00:00:00,PRATE,surface,-95.6254,31.6534,3.24e-05
2016-04-23 00:00:00,2016-04-23 00:00:00,PRATE,surface,-94.6879,31.6534,2.89e-05
2016-04-23 00:00:00,2016-04-23 00:00:00,PRATE,surface,-93.7504,31.6534,2.9e-05
2016-04-23 00:00:00,2016-04-23 00:00:00,PRATE,surface,-92.8129,31.6534,2.7e-05
2016-04-23 00:00:00,2016-04-23 00:00:00,PRATE,surface,-107.813,32.5983,2.7e-06
2016-04-23 00:00:00,2016-04-23 00:00:00,PRATE,surface,-106.875,32.5983,4.3e-06
2016-04-23 00:00:00,2016-04-23 00:00:00,PRATE,surface,-105.938,32.5983,1.62e-05
2016-04-23 00:00:00,2016-04-23 00:00:00,PRATE,surface,-105,32.5983,2.39e-05
2016-04-23 00:00:00,2016-04-23 00:00:00,PRATE,surface,-104.063,32.5983,2.44e-05
2016-04-23 00:00:00,2016-04-23 00:00:00,PRATE,surface,-103.125,32.5983,2.17e-05
2016-04-23 00:00:00,2016-04-23 00:00:00,PRATE,surface,-102.188,32.5983,1.61e-05
2016-04-23 00:00:00,2016-04-23 00:00:00,PRATE,surface,-101.25,32.5983,1.07e-05
2016-04-23 00:00:00,2016-04-23 00:00:00,PRATE,surface,-100.313,32.5983,8.8e-06
2016-04-23 00:00:00,2016-04-23 00:00:00,PRATE,surface,-99.3754,32.5983,1.06e-05
2016-04-23 00:00:00,2016-04-23 00:00:00,PRATE,surface,-98.4379,32.5983,1.59e-05
2016-04-23 00:00:00,2016-04-23 00:00:00,PRATE,surface,-97.5004,32.5983,1.93e-05
2016-04-23 00:00:00,2016-04-23 00:00:00,PRATE,surface,-96.5629,32.5983,1.84e-05
2016-04-23 00:00:00,2016-04-23 00:00:00,PRATE,surface,-95.6254,32.5983,1.67e-05
2016-04-23 00:00:00,2016-04-23 00:00:00,PRATE,surface,-94.6879,32.5983,1.63e-05
2016-04-23 00:00:00,2016-04-23 00:00:00,PRATE,surface,-93.7504,32.5983,1.64e-05
2016-04-23 00:00:00,2016-04-23 00:00:00,PRATE,surface,-92.8129,32.5983,1.69e-05
2016-04-23 00:00:00,2016-04-23 00:00:00,PRATE,surface,-107.813,33.5432,1.5e-05
2016-04-23 00:00:00,2016-04-23 00:00:00,PRATE,surface,-106.875,33.5432,1.36e-05
2016-04-23 00:00:00,2016-04-23 00:00:00,PRATE,surface,-105.938,33.5432,1.93e-05
2016-04-23 00:00:00,2016-04-23 00:00:00,PRATE,surface,-105,33.5432,2.25e-05
2016-04-23 00:00:00,2016-04-23 00:00:00,PRATE,surface,-104.063,33.5432,2.7e-05
2016-04-23 00:00:00,2016-04-23 00:00:00,PRATE,surface,-103.125,33.5432,2.39e-05
2016-04-23 00:00:00,2016-04-23 00:00:00,PRATE,surface,-102.188,33.5432,1.68e-05
2016-04-23 00:00:00,2016-04-23 00:00:00,PRATE,surface,-101.25,33.5432,9.7e-06
2016-04-23 00:00:00,2016-04-23 00:00:00,PRATE,surface,-100.313,33.5432,6.3e-06
2016-04-23 00:00:00,2016-04-23 00:00:00,PRATE,surface,-99.3754,33.5432,7.8e-06
2016-04-23 00:00:00,2016-04-23 00:00:00,PRATE,surface,-98.4379,33.5432,9.9e-06
2016-04-23 00:00:00,2016-04-23 00:00:00,PRATE,surface,-97.5004,33.5432,9.6e-06
2016-04-23 00:00:00,2016-04-23 00:00:00,PRATE,surface,-96.5629,33.5432,8.6e-06
2016-04-23 00:00:00,2016-04-23 00:00:00,PRATE,surface,-95.6254,33.5432,8e-06
2016-04-23 00:00:00,2016-04-23 00:00:00,PRATE,surface,-94.6879,33.5432,8.1e-06
2016-04-23 00:00:00,2016-04-23 00:00:00,PRATE,surface,-93.7504,33.5432,1e-05
2016-04-23 00:00:00,2016-04-23 00:00:00,PRATE,surface,-92.8129,33.5432,1.12e-05
2016-04-23 00:00:00,2016-04-23 00:00:00,PRATE,surface,-107.813,34.4881,3.58e-05
2016-04-23 00:00:00,2016-04-23 00:00:00,PRATE,surface,-106.875,34.4881,2.79e-05
2016-04-23 00:00:00,2016-04-23 00:00:00,PRATE,surface,-105.938,34.4881,2.31e-05
2016-04-23 00:00:00,2016-04-23 00:00:00,PRATE,surface,-105,34.4881,2.46e-05
2016-04-23 00:00:00,2016-04-23 00:00:00,PRATE,surface,-104.063,34.4881,2.53e-05
2016-04-23 00:00:00,2016-04-23 00:00:00,PRATE,surface,-103.125,34.4881,2.67e-05
2016-04-23 00:00:00,2016-04-23 00:00:00,PRATE,surface,-102.188,34.4881,2.36e-05
2016-04-23 00:00:00,2016-04-23 00:00:00,PRATE,surface,-101.25,34.4881,1.71e-05
2016-04-23 00:00:00,2016-04-23 00:00:00,PRATE,surface,-100.313,34.4881,1.28e-05
2016-04-23 00:00:00,2016-04-23 00:00:00,PRATE,surface,-99.3754,34.4881,1.25e-05
2016-04-23 00:00:00,2016-04-23 00:00:00,PRATE,surface,-98.4379,34.4881,1.4e-05
2016-04-23 00:00:00,2016-04-23 00:00:00,PRATE,surface,-97.5004,34.4881,1.72e-05
2016-04-23 00:00:00,2016-04-23 00:00:00,PRATE,surface,-96.5629,34.4881,1.72e-05
2016-04-23 00:00:00,2016-04-23 00:00:00,PRATE,surface,-95.6254,34.4881,1.36e-05
2016-04-23 00:00:00,2016-04-23 00:00:00,PRATE,surface,-94.6879,34.4881,1.37e-05
2016-04-23 00:00:00,2016-04-23 00:00:00,PRATE,surface,-93.7504,34.4881,1.76e-05
2016-04-23 00:00:00,2016-04-23 00:00:00,PRATE,surface,-92.8129,34.4881,2.28e-05
2016-04-23 00:00:00,2016-04-23 00:00:00,PRATE,surface,-107.813,35.4329,1.53e-05
2016-04-23 00:00:00,2016-04-23 00:00:00,PRATE,surface,-106.875,35.4329,1.37e-05
2016-04-23 00:00:00,2016-04-23 00:00:00,PRATE,surface,-105.938,35.4329,2e-05
2016-04-23 00:00:00,2016-04-23 00:00:00,PRATE,surface,-105,35.4329,3.77e-05
2016-04-23 00:00:00,2016-04-23 00:00:00,PRATE,surface,-104.063,35.4329,4.41e-05
2016-04-23 00:00:00,2016-04-23 00:00:00,PRATE,surface,-103.125,35.4329,4.83e-05
2016-04-23 00:00:00,2016-04-23 00:00:00,PRATE,surface,-102.188,35.4329,4.16e-05
2016-04-23 00:00:00,2016-04-23 00:00:00,PRATE,surface,-101.25,35.4329,3.11e-05
2016-04-23 00:00:00,2016-04-23 00:00:00,PRATE,surface,-100.313,35.4329,2.01e-05
2016-04-23 00:00:00,2016-04-23 00:00:00,PRATE,surface,-99.3754,35.4329,1.8e-05
2016-04-23 00:00:00,2016-04-23 00:00:00,PRATE,surface,-98.4379,35.4329,2.1e-05
2016-04-23 00:00:00,2016-04-23 00:00:00,PRATE,surface,-97.5004,35.4329,2.63e-05
2016-04-23 00:00:00,2016-04-23 00:00:00,PRATE,surface,-96.5629,35.4329,2.99e-05
2016-04-23 00:00:00,2016-04-23 00:00:00,PRATE,surface,-95.6254,35.4329,2.94e-05
2016-04-23 00:00:00,2016-04-23 00:00:00,PRATE,surface,-94.6879,35.4329,2.84e-05
2016-04-23 00:00:00,2016-04-23 00:00:00,PRATE,surface,-93.7504,35.4329,2.64e-05
2016-04-23 00:00:00,2016-04-23 00:00:00,PRATE,surface,-92.8129,35.4329,2.12e-05
2016-04-23 00:00:00,2016-04-23 00:00:00,PRATE,surface,-107.813,36.3778,1.09e-05
2016-04-23 00:00:00,2016-04-23 00:00:00,PRATE,surface,-106.875,36.3778,1.56e-05
2016-04-23 00:00:00,2016-04-23 00:00:00,PRATE,surface,-105.938,36.3778,3.21e-05
2016-04-23 00:00:00,2016-04-23 00:00:00,PRATE,surface,-105,36.3778,4.8e-05
2016-04-23 00:00:00,2016-04-23 00:00:00,PRATE,surface,-104.063,36.3778,5.12e-05
2016-04-23 00:00:00,2016-04-23 00:00:00,PRATE,surface,-103.125,36.3778,4.74e-05
2016-04-23 00:00:00,2016-04-23 00:00:00,PRATE,surface,-102.188,36.3778,3.81e-05
2016-04-23 00:00:00,2016-04-23 00:00:00,PRATE,surface,-101.25,36.3778,3.22e-05
2016-04-23 00:00:00,2016-04-23 00:00:00,PRATE,surface,-100.313,36.3778,2.55e-05
2016-04-23 00:00:00,2016-04-23 00:00:00,PRATE,surface,-99.3754,36.3778,2.29e-05
2016-04-23 00:00:00,2016-04-23 00:00:00,PRATE,surface,-98.4379,36.3778,2.69e-05
2016-04-23 00:00:00,2016-04-23 00:00:00,PRATE,surface,-97.5004,36.3778,3.05e-05
2016-04-23 00:00:00,2016-04-23 00:00:00,PRATE,surface,-96.5629,36.3778,2.84e-05
2016-04-23 00:00:00,2016-04-23 00:00:00,PRATE,surface,-95.6254,36.3778,2.39e-05
2016-04-23 00:00:00,2016-04-23 00:00:00,PRATE,surface,-94.6879,36.3778,2.18e-05
2016-04-23 00:00:00,2016-04-23 00:00:00,PRATE,surface,-93.7504,36.3778,2.12e-05
2016-04-23 00:00:00,2016-04-23 00:00:00,PRATE,surface,-92.8129,36.3778,1.69e-05
