2011-12-01 00:00:00,2011-12-01 00:00:00,TMP,surface,-107.813,25.0393,296.291
2011-12-01 00:00:00,2011-12-01 00:00:00,TMP,surface,-106.875,25.0393,291.163
2011-12-01 00:00:00,2011-12-01 00:00:00,TMP,surface,-105.938,25.0393,285.864
2011-12-01 00:00:00,2011-12-01 00:00:00,TMP,surface,-105,25.0393,287.802
2011-12-01 00:00:00,2011-12-01 00:00:00,TMP,surface,-104.063,25.0393,292.907
2011-12-01 00:00:00,2011-12-01 00:00:00,TMP,surface,-103.125,25.0393,294.729
2011-12-01 00:00:00,2011-12-01 00:00:00,TMP,surface,-102.188,25.0393,293.408
2011-12-01 00:00:00,2011-12-01 00:00:00,TMP,surface,-101.25,25.0393,292.389
2011-12-01 00:00:00,2011-12-01 00:00:00,TMP,surface,-100.313,25.0393,292.466
2011-12-01 00:00:00,2011-12-01 00:00:00,TMP,surface,-99.3754,25.0393,294.56
2011-12-01 00:00:00,2011-12-01 00:00:00,TMP,surface,-98.4379,25.0393,296.835
2011-12-01 00:00:00,2011-12-01 00:00:00,TMP,surface,-97.5004,25.0393,297.009
2011-12-01 00:00:00,2011-12-01 00:00:00,TMP,surface,-96.5629,25.0393,296.859
2011-12-01 00:00:00,2011-12-01 00:00:00,TMP,surface,-95.6254,25.0393,297.067
2011-12-01 00:00:00,2011-12-01 00:00:00,TMP,surface,-94.6879,25.0393,297.202
2011-12-01 00:00:00,2011-12-01 00:00:00,TMP,surface,-93.7504,25.0393,297.082
2011-12-01 00:00:00,2011-12-01 00:00:00,TMP,surface,-92.8129,25.0393,297.061
2011-12-01 00:00:00,2011-12-01 00:00:00,TMP,surface,-107.813,25.9842,292.734
2011-12-01 00:00:00,2011-12-01 00:00:00,TMP,surface,-106.875,25.9842,286.925
2011-12-01 00:00:00,2011-12-01 00:00:00,TMP,surface,-105.938,25.9842,285.982
2011-12-01 00:00:00,2011-12-01 00:00:00,TMP,surface,-105,25.9842,290.744
2011-12-01 00:00:00,2011-12-01 00:00:00,TMP,surface,-104.063,25.9842,295.686
2011-12-01 00:00:00,2011-12-01 00:00:00,TMP,surface,-103.125,25.9842,296.565
2011-12-01 00:00:00,2011-12-01 00:00:00,TMP,surface,-102.188,25.9842,295.565
2011-12-01 00:00:00,2011-12-01 00:00:00,TMP,surface,-101.25,25.9842,294.721
2011-12-01 00:00:00,2011-12-01 00:00:00,TMP,surface,-100.313,25.9842,294.421
2011-12-01 00:00:00,2011-12-01 00:00:00,TMP,surface,-99.3754,25.9842,296.36
2011-12-01 00:00:00,2011-12-01 00:00:00,TMP,surface,-98.4379,25.9842,297.182
2011-12-01 00:00:00,2011-12-01 00:00:00,TMP,surface,-97.5004,25.9842,296.728
2011-12-01 00:00:00,2011-12-01 00:00:00,TMP,surface,-96.5629,25.9842,295.587
2011-12-01 00:00:00,2011-12-01 00:00:00,TMP,surface,-95.6254,25.9842,296.2
2011-12-01 00:00:00,2011-12-01 00:00:00,TMP,surface,-94.6879,25.9842,296.723
2011-12-01 00:00:00,2011-12-01 00:00:00,TMP,surface,-93.7504,25.9842,296.661
2011-12-01 00:00:00,2011-12-01 00:00:00,TMP,surface,-92.8129,25.9842,296.678
2011-12-01 00:00:00,2011-12-01 00:00:00,TMP,surface,-107.813,26.929,287.499
2011-12-01 00:00:00,2011-12-01 00:00:00,TMP,surface,-106.875,26.929,285.029
2011-12-01 00:00:00,2011-12-01 00:00:00,TMP,surface,-105.938,26.929,288.224
2011-12-01 00:00:00,2011-12-01 00:00:00,TMP,surface,-105,26.929,293.632
2011-12-01 00:00:00,2011-12-01 00:00:00,TMP,surface,-104.063,26.929,295.861
2011-12-01 00:00:00,2011-12-01 00:00:00,TMP,surface,-103.125,26.929,295.21
2011-12-01 00:00:00,2011-12-01 00:00:00,TMP,surface,-102.188,26.929,294.808
2011-12-01 00:00:00,2011-12-01 00:00:00,TMP,surface,-101.25,26.929,295.136
2011-12-01 00:00:00,2011-12-01 00:00:00,TMP,surface,-100.313,26.929,295.896
2011-12-01 00:00:00,2011-12-01 00:00:00,TMP,surface,-99.3754,26.929,296.955
2011-12-01 00:00:00,2011-12-01 00:00:00,TMP,surface,-98.4379,26.929,296.272
2011-12-01 00:00:00,2011-12-01 00:00:00,TMP,surface,-97.5004,26.929,294.726
2011-12-01 00:00:00,2011-12-01 00:00:00,TMP,surface,-96.5629,26.929,294.419
2011-12-01 00:00:00,2011-12-01 00:00:00,TMP,surface,-95.6254,26.929,295.173
2011-12-01 00:00:00,2011-12-01 00:00:00,TMP,surface,-94.6879,26.929,295.97
2011-12-01 00:00:00,2011-12-01 00:00:00,TMP,surface,-93.7504,26.929,295.986
2011-12-01 00:00:00,2011-12-01 00:00:00,TMP,surface,-92.8129,26.929,295.981
2011-12-01 00:00:00,2011-12-01 00:00:00,TMP,surface,-107.813,27.8739,284.883
2011-12-01 00:00:00,2011-12-01 00:00:00,TMP,surface,-106.875,27.8739,285.475
2011-12-01 00:00:00,2011-12-01 00:00:00,TMP,surface,-105.938,27.8739,290.273
2011-12-01 00:00:00,2011-12-01 00:00:00,TMP,surface,-105,27.8739,294.091
2011-12-01 00:00:00,2011-12-01 00:00:00,TMP,surface,-104.063,27.8739,294.387
2011-12-01 00:00:00,2011-12-01 00:00:00,TMP,surface,-103.125,27.8739,293.262
2011-12-01 00:00:00,2011-12-01 00:00:00,TMP,surface,-102.188,27.8739,293.037
2011-12-01 00:00:00,2011-12-01 00:00:00,TMP,surface,-101.25,27.8739,294.23
2011-12-01 00:00:00,2011-12-01 00:00:00,TMP,surface,-100.313,27.8739,295.619
2011-12-01 00:00:00,2011-12-01 00:00:00,TMP,surface,-99.3754,27.8739,295.739
2011-12-01 00:00:00,2011-12-01 00:00:00,TMP,surface,-98.4379,27.8739,295.051
2011-12-01 00:00:00,2011-12-01 00:00:00,TMP,surface,-97.5004,27.8739,294.422
2011-12-01 00:00:00,2011-12-01 00:00:00,TMP,surface,-96.5629,27.8739,294.229
2011-12-01 00:00:00,2011-12-01 00:00:00,TMP,surface,-95.6254,27.8739,294.382
2011-12-01 00:00:00,2011-12-01 00:00:00,TMP,surface,-94.6879,27.8739,294.546
2011-12-01 00:00:00,2011-12-01 00:00:00,TMP,surface,-93.7504,27.8739,294.632
2011-12-01 00:00:00,2011-12-01 00:00:00,TMP,surface,-92.8129,27.8739,294.793
2011-12-01 00:00:00,2011-12-01 00:00:00,TMP,surface,-107.813,28.8188,284.339
2011-12-01 00:00:00,2011-12-01 00:00:00,TMP,surface,-106.875,28.8188,286.576
2011-12-01 00:00:00,2011-12-01 00:00:00,TMP,surface,-105.938,28.8188,290.893
2011-12-01 00:00:00,2011-12-01 00:00:00,TMP,surface,-105,28.8188,293.422
2011-12-01 00:00:00,2011-12-01 00:00:00,TMP,surface,-104.063,28.8188,292.897
2011-12-01 00:00:00,2011-12-01 00:00:00,TMP,surface,-103.125,28.8188,292.021
2011-12-01 00:00:00,2011-12-01 00:00:00,TMP,surface,-102.188,28.8188,291.963
2011-12-01 00:00:00,2011-12-01 00:00:00,TMP,surface,-101.25,28.8188,292.982
2011-12-01 00:00:00,2011-12-01 00:00:00,TMP,surface,-100.313,28.8188,293.491
2011-12-01 00:00:00,2011-12-01 00:00:00,TMP,surface,-99.3754,28.8188,293.211
2011-12-01 00:00:00,2011-12-01 00:00:00,TMP,surface,-98.4379,28.8188,293.08
2011-12-01 00:00:00,2011-12-01 00:00:00,TMP,surface,-97.5004,28.8188,293.405
2011-12-01 00:00:00,2011-12-01 00:00:00,TMP,surface,-96.5629,28.8188,293.696
2011-12-01 00:00:00,2011-12-01 00:00:00,TMP,surface,-95.6254,28.8188,293.427
2011-12-01 00:00:00,2011-12-01 00:00:00,TMP,surface,-94.6879,28.8188,292.966
2011-12-01 00:00:00,2011-12-01 00:00:00,TMP,surface,-93.7504,28.8188,293.142
2011-12-01 00:00:00,2011-12-01 00:00:00,TMP,surface,-92.8129,28.8188,293.31
2011-12-01 00:00:00,2011-12-01 00:00:00,TMP,surface,-107.813,29.7637,286
2011-12-01 00:00:00,2011-12-01 00:00:00,TMP,surface,-106.875,29.7637,288.192
2011-12-01 00:00:00,2011-12-01 00:00:00,TMP,surface,-105.938,29.7637,290.864
2011-12-01 00:00:00,2011-12-01 00:00:00,TMP,surface,-105,29.7637,291.785
2011-12-01 00:00:00,2011-12-01 00:00:00,TMP,surface,-104.063,29.7637,292.04
2011-12-01 00:00:00,2011-12-01 00:00:00,TMP,surface,-103.125,29.7637,292.378
2011-12-01 00:00:00,2011-12-01 00:00:00,TMP,surface,-102.188,29.7637,292.806
2011-12-01 00:00:00,2011-12-01 00:00:00,TMP,surface,-101.25,29.7637,292.337
2011-12-01 00:00:00,2011-12-01 00:00:00,TMP,surface,-100.313,29.7637,291.221
2011-12-01 00:00:00,2011-12-01 00:00:00,TMP,surface,-99.3754,29.7637,290.659
2011-12-01 00:00:00,2011-12-01 00:00:00,TMP,surface,-98.4379,29.7637,290.955
2011-12-01 00:00:00,2011-12-01 00:00:00,TMP,surface,-97.5004,29.7637,291.602
2011-12-01 00:00:00,2011-12-01 00:00:00,TMP,surface,-96.5629,29.7637,292.123
2011-12-01 00:00:00,2011-12-01 00:00:00,TMP,surface,-95.6254,29.7637,292.477
2011-12-01 00:00:00,2011-12-01 00:00:00,TMP,surface,-94.6879,29.7637,292.664
2011-12-01 00:00:00,2011-12-01 00:00:00,TMP,surface,-93.7504,29.7637,292.736
2011-12-01 00:00:00,2011-12-01 00:00:00,TMP,surface,-92.8129,29.7637,293.163
2011-12-01 00:00:00,2011-12-01 00:00:00,TMP,surface,-107.813,30.7085,288.853
2011-12-01 00:00:00,2011-12-01 00:00:00,TMP,surface,-106.875,30.7085,290.126
2011-12-01 00:00:00,2011-12-01 00:00:00,TMP,surface,-105.938,30.7085,290.602
2011-12-01 00:00:00,2011-12-01 00:00:00,TMP,surface,-105,30.7085,290.741
2011-12-01 00:00:00,2011-12-01 00:00:00,TMP,surface,-104.063,30.7085,291.009
2011-12-01 00:00:00,2011-12-01 00:00:00,TMP,surface,-103.125,30.7085,292.331
2011-12-01 00:00:00,2011-12-01 00:00:00,TMP,surface,-102.188,30.7085,292.955
2011-12-01 00:00:00,2011-12-01 00:00:00,TMP,surface,-101.25,30.7085,292.104
2011-12-01 00:00:00,2011-12-01 00:00:00,TMP,surface,-100.313,30.7085,290.538
2011-12-01 00:00:00,2011-12-01 00:00:00,TMP,surface,-99.3754,30.7085,289.747
2011-12-01 00:00:00,2011-12-01 00:00:00,TMP,surface,-98.4379,30.7085,289.993
2011-12-01 00:00:00,2011-12-01 00:00:00,TMP,surface,-97.5004,30.7085,290.638
2011-12-01 00:00:00,2011-12-01 00:00:00,TMP,surface,-96.5629,30.7085,291.566
2011-12-01 00:00:00,2011-12-01 00:00:00,TMP,surface,-95.6254,30.7085,292.413
2011-12-01 00:00:00,2011-12-01 00:00:00,TMP,surface,-94.6879,30.7085,292.561
2011-12-01 00:00:00,2011-12-01 00:00:00,TMP,surface,-93.7504,30.7085,292.454
2011-12-01 00:00:00,2011-12-01 00:00:00,TMP,surface,-92.8129,30.7085,292.154
2011-12-01 00:00:00,2011-12-01 00:00:00,TMP,surface,-107.813,31.6534,289.461
2011-12-01 00:00:00,2011-12-01 00:00:00,TMP,surface,-106.875,31.6534,290.286
2011-12-01 00:00:00,2011-12-01 00:00:00,TMP,surface,-105.938,31.6534,290.099
2011-12-01 00:00:00,2011-12-01 00:00:00,TMP,surface,-105,31.6534,289.899
2011-12-01 00:00:00,2011-12-01 00:00:00,TMP,surface,-104.063,31.6534,290.826
2011-12-01 00:00:00,2011-12-01 00:00:00,TMP,surface,-103.125,31.6534,292.065
2011-12-01 00:00:00,2011-12-01 00:00:00,TMP,surface,-102.188,31.6534,292.606
2011-12-01 00:00:00,2011-12-01 00:00:00,TMP,surface,-101.25,31.6534,291.867
2011-12-01 00:00:00,2011-12-01 00:00:00,TMP,surface,-100.313,31.6534,290.808
2011-12-01 00:00:00,2011-12-01 00:00:00,TMP,surface,-99.3754,31.6534,289.978
2011-12-01 00:00:00,2011-12-01 00:00:00,TMP,surface,-98.4379,31.6534,289.731
2011-12-01 00:00:00,2011-12-01 00:00:00,TMP,surface,-97.5004,31.6534,290.034
2011-12-01 00:00:00,2011-12-01 00:00:00,TMP,surface,-96.5629,31.6534,290.945
2011-12-01 00:00:00,2011-12-01 00:00:00,TMP,surface,-95.6254,31.6534,291.914
2011-12-01 00:00:00,2011-12-01 00:00:00,TMP,surface,-94.6879,31.6534,292.099
2011-12-01 00:00:00,2011-12-01 00:00:00,TMP,surface,-93.7504,31.6534,291.92
2011-12-01 00:00:00,2011-12-01 00:00:00,TMP,surface,-92.8129,31.6534,291.707
2011-12-01 00:00:00,2011-12-01 00:00:00,TMP,surface,-107.813,32.5983,286.896
2011-12-01 00:00:00,2011-12-01 00:00:00,TMP,surface,-106.875,32.5983,287.933
2011-12-01 00:00:00,2011-12-01 00:00:00,TMP,surface,-105.938,32.5983,288.281
2011-12-01 00:00:00,2011-12-01 00:00:00,TMP,surface,-105,32.5983,288.845
2011-12-01 00:00:00,2011-12-01 00:00:00,TMP,surface,-104.063,32.5983,289.922
2011-12-01 00:00:00,2011-12-01 00:00:00,TMP,surface,-103.125,32.5983,291.062
2011-12-01 00:00:00,2011-12-01 00:00:00,TMP,surface,-102.188,32.5983,291.563
2011-12-01 00:00:00,2011-12-01 00:00:00,TMP,surface,-101.25,32.5983,291.597
2011-12-01 00:00:00,2011-12-01 00:00:00,TMP,surface,-100.313,32.5983,291.166
2011-12-01 00:00:00,2011-12-01 00:00:00,TMP,surface,-99.3754,32.5983,290.345
2011-12-01 00:00:00,2011-12-01 00:00:00,TMP,surface,-98.4379,32.5983,289.729
2011-12-01 00:00:00,2011-12-01 00:00:00,TMP,surface,-97.5004,32.5983,289.638
2011-12-01 00:00:00,2011-12-01 00:00:00,TMP,surface,-96.5629,32.5983,290.238
2011-12-01 00:00:00,2011-12-01 00:00:00,TMP,surface,-95.6254,32.5983,291.101
2011-12-01 00:00:00,2011-12-01 00:00:00,TMP,surface,-94.6879,32.5983,291.424
2011-12-01 00:00:00,2011-12-01 00:00:00,TMP,surface,-93.7504,32.5983,291.373
2011-12-01 00:00:00,2011-12-01 00:00:00,TMP,surface,-92.8129,32.5983,291.365
2011-12-01 00:00:00,2011-12-01 00:00:00,TMP,surface,-107.813,33.5432,283.138
2011-12-01 00:00:00,2011-12-01 00:00:00,TMP,surface,-106.875,33.5432,284.867
2011-12-01 00:00:00,2011-12-01 00:00:00,TMP,surface,-105.938,33.5432,286.086
2011-12-01 00:00:00,2011-12-01 00:00:00,TMP,surface,-105,33.5432,287.499
2011-12-01 00:00:00,2011-12-01 00:00:00,TMP,surface,-104.063,33.5432,289.147
2011-12-01 00:00:00,2011-12-01 00:00:00,TMP,surface,-103.125,33.5432,290.013
2011-12-01 00:00:00,2011-12-01 00:00:00,TMP,surface,-102.188,33.5432,290.309
2011-12-01 00:00:00,2011-12-01 00:00:00,TMP,surface,-101.25,33.5432,290.27
2011-12-01 00:00:00,2011-12-01 00:00:00,TMP,surface,-100.313,33.5432,290.27
2011-12-01 00:00:00,2011-12-01 00:00:00,TMP,surface,-99.3754,33.5432,289.72
2011-12-01 00:00:00,2011-12-01 00:00:00,TMP,surface,-98.4379,33.5432,288.95
2011-12-01 00:00:00,2011-12-01 00:00:00,TMP,surface,-97.5004,33.5432,288.609
2011-12-01 00:00:00,2011-12-01 00:00:00,TMP,surface,-96.5629,33.5432,288.848
2011-12-01 00:00:00,2011-12-01 00:00:00,TMP,surface,-95.6254,33.5432,289.486
2011-12-01 00:00:00,2011-12-01 00:00:00,TMP,surface,-94.6879,33.5432,290.019
2011-12-01 00:00:00,2011-12-01 00:00:00,TMP,surface,-93.7504,33.5432,290.037
2011-12-01 00:00:00,2011-12-01 00:00:00,TMP,surface,-92.8129,33.5432,290.21
2011-12-01 00:00:00,2011-12-01 00:00:00,TMP,surface,-107.813,34.4881,281.286
2011-12-01 00:00:00,2011-12-01 00:00:00,TMP,surface,-106.875,34.4881,283.107
2011-12-01 00:00:00,2011-12-01 00:00:00,TMP,surface,-105.938,34.4881,284.645
2011-12-01 00:00:00,2011-12-01 00:00:00,TMP,surface,-105,34.4881,286.701
2011-12-01 00:00:00,2011-12-01 00:00:00,TMP,surface,-104.063,34.4881,288.077
2011-12-01 00:00:00,2011-12-01 00:00:00,TMP,surface,-103.125,34.4881,288.897
2011-12-01 00:00:00,2011-12-01 00:00:00,TMP,surface,-102.188,34.4881,288.938
2011-12-01 00:00:00,2011-12-01 00:00:00,TMP,surface,-101.25,34.4881,288.904
2011-12-01 00:00:00,2011-12-01 00:00:00,TMP,surface,-100.313,34.4881,288.51
2011-12-01 00:00:00,2011-12-01 00:00:00,TMP,surface,-99.3754,34.4881,287.992
2011-12-01 00:00:00,2011-12-01 00:00:00,TMP,surface,-98.4379,34.4881,287.486
2011-12-01 00:00:00,2011-12-01 00:00:00,TMP,surface,-97.5004,34.4881,287.307
2011-12-01 00:00:00,2011-12-01 00:00:00,TMP,surface,-96.5629,34.4881,287.773
2011-12-01 00:00:00,2011-12-01 00:00:00,TMP,surface,-95.6254,34.4881,288.381
2011-12-01 00:00:00,2011-12-01 00:00:00,TMP,surface,-94.6879,34.4881,288.461
2011-12-01 00:00:00,2011-12-01 00:00:00,TMP,surface,-93.7504,34.4881,288.393
2011-12-01 00:00:00,2011-12-01 00:00:00,TMP,surface,-92.8129,34.4881,288.629
2011-12-01 00:00:00,2011-12-01 00:00:00,TMP,surface,-107.813,35.4329,280.813
2011-12-01 00:00:00,2011-12-01 00:00:00,TMP,surface,-106.875,35.4329,281.482
2011-12-01 00:00:00,2011-12-01 00:00:00,TMP,surface,-105.938,35.4329,282.302
2011-12-01 00:00:00,2011-12-01 00:00:00,TMP,surface,-105,35.4329,283.915
2011-12-01 00:00:00,2011-12-01 00:00:00,TMP,surface,-104.063,35.4329,286.302
2011-12-01 00:00:00,2011-12-01 00:00:00,TMP,surface,-103.125,35.4329,287.65
2011-12-01 00:00:00,2011-12-01 00:00:00,TMP,surface,-102.188,35.4329,287.99
2011-12-01 00:00:00,2011-12-01 00:00:00,TMP,surface,-101.25,35.4329,287.646
2011-12-01 00:00:00,2011-12-01 00:00:00,TMP,surface,-100.313,35.4329,286.934
2011-12-01 00:00:00,2011-12-01 00:00:00,TMP,surface,-99.3754,35.4329,286.245
2011-12-01 00:00:00,2011-12-01 00:00:00,TMP,surface,-98.4379,35.4329,285.974
2011-12-01 00:00:00,2011-12-01 00:00:00,TMP,surface,-97.5004,35.4329,286.154
2011-12-01 00:00:00,2011-12-01 00:00:00,TMP,surface,-96.5629,35.4329,286.523
2011-12-01 00:00:00,2011-12-01 00:00:00,TMP,surface,-95.6254,35.4329,286.933
2011-12-01 00:00:00,2011-12-01 00:00:00,TMP,surface,-94.6879,35.4329,287.166
2011-12-01 00:00:00,2011-12-01 00:00:00,TMP,surface,-93.7504,35.4329,286.995
2011-12-01 00:00:00,2011-12-01 00:00:00,TMP,surface,-92.8129,35.4329,287.037
2011-12-01 00:00:00,2011-12-01 00:00:00,TMP,surface,-107.813,36.3778,279.15
2011-12-01 00:00:00,2011-12-01 00:00:00,TMP,surface,-106.875,36.3778,277.589
2011-12-01 00:00:00,2011-12-01 00:00:00,TMP,surface,-105.938,36.3778,278.699
2011-12-01 00:00:00,2011-12-01 00:00:00,TMP,surface,-105,36.3778,280.819
2011-12-01 00:00:00,2011-12-01 00:00:00,TMP,surface,-104.063,36.3778,284.189
2011-12-01 00:00:00,2011-12-01 00:00:00,TMP,surface,-103.125,36.3778,285.578
2011-12-01 00:00:00,2011-12-01 00:00:00,TMP,surface,-102.188,36.3778,285.878
2011-12-01 00:00:00,2011-12-01 00:00:00,TMP,surface,-101.25,36.3778,285.667
2011-12-01 00:00:00,2011-12-01 00:00:00,TMP,surface,-100.313,36.3778,285.337
2011-12-01 00:00:00,2011-12-01 00:00:00,TMP,surface,-99.3754,36.3778,285.062
2011-12-01 00:00:00,2011-12-01 00:00:00,TMP,surface,-98.4379,36.3778,284.853
2011-12-01 00:00:00,2011-12-01 00:00:00,TMP,surface,-97.5004,36.3778,285.04
2011-12-01 00:00:00,2011-12-01 00:00:00,TMP,surface,-96.5629,36.3778,285.526
2011-12-01 00:00:00,2011-12-01 00:00:00,TMP,surface,-95.6254,36.3778,285.926
2011-12-01 00:00:00,2011-12-01 00:00:00,TMP,surface,-94.6879,36.3778,286.029
2011-12-01 00:00:00,2011-12-01 00:00:00,TMP,surface,-93.7504,36.3778,285.754
2011-12-01 00:00:00,2011-12-01 00:00:00,TMP,surface,-92.8129,36.3778,285.707
2011-12-01 00:00:00,2011-12-01 00:00:00,PRATE,surface,-107.813,25.0393,4.1e-06
2011-12-01 00:00:00,2011-12-01 00:00:00,PRATE,surface,-106.875,25.0393,3.3e-06
2011-12-01 00:00:00,2011-12-01 00:00:00,PRATE,surface,-105.938,25.0393,3.2e-06
2011-12-01 00:00:00,2011-12-01 00:00:00,PRATE,surface,-105,25.0393,6.2e-06
2011-12-01 00:00:00,2011-12-01 00:00:00,PRATE,surface,-104.063,25.0393,1e-07
2011-12-01 00:00:00,2011-12-01 00:00:00,PRATE,surface,-103.125,25.0393,2e-07
2011-12-01 00:00:00,2011-12-01 00:00:00,PRATE,surface,-102.188,25.0393,3e-07
2011-12-01 00:00:00,2011-12-01 00:00:00,PRATE,surface,-101.25,25.0393,1.54e-05
2011-12-01 00:00:00,2011-12-01 00:00:00,PRATE,surface,-100.313,25.0393,5.23e-05
2011-12-01 00:00:00,2011-12-01 00:00:00,PRATE,surface,-99.3754,25.0393,7.69e-05
2011-12-01 00:00:00,2011-12-01 00:00:00,PRATE,surface,-98.4379,25.0393,6.72e-05
2011-12-01 00:00:00,2011-12-01 00:00:00,PRATE,surface,-97.5004,25.0393,4.89e-05
2011-12-01 00:00:00,2011-12-01 00:00:00,PRATE,surface,-96.5629,25.0393,3.92e-05
2011-12-01 00:00:00,2011-12-01 00:00:00,PRATE,surface,-95.6254,25.0393,2.89e-05
2011-12-01 00:00:00,2011-12-01 00:00:00,PRATE,surface,-94.6879,25.0393,2.03e-05
2011-12-01 00:00:00,2011-12-01 00:00:00,PRATE,surface,-93.7504,25.0393,1.66e-05
2011-12-01 00:00:00,2011-12-01 00:00:00,PRATE,surface,-92.8129,25.0393,1.62e-05
2011-12-01 00:00:00,2011-12-01 00:00:00,PRATE,surface,-107.813,25.9842,5.9e-06
2011-12-01 00:00:00,2011-12-01 00:00:00,PRATE,surface,-106.875,25.9842,6.2e-06
2011-12-01 00:00:00,2011-12-01 00:00:00,PRATE,surface,-105.938,25.9842,7.1e-06
2011-12-01 00:00:00,2011-12-01 00:00:00,PRATE,surface,-105,25.9842,3.1e-06
2011-12-01 00:00:00,2011-12-01 00:00:00,PRATE,surface,-104.063,25.9842,1e-07
2011-12-01 00:00:00,2011-12-01 00:00:00,PRATE,surface,-103.125,25.9842,6e-07
2011-12-01 00:00:00,2011-12-01 00:00:00,PRATE,surface,-102.188,25.9842,7.1e-06
2011-12-01 00:00:00,2011-12-01 00:00:00,PRATE,surface,-101.25,25.9842,3.27e-05
2011-12-01 00:00:00,2011-12-01 00:00:00,PRATE,surface,-100.313,25.9842,9.11e-05
2011-12-01 00:00:00,2011-12-01 00:00:00,PRATE,surface,-99.3754,25.9842,0.0001052
2011-12-01 00:00:00,2011-12-01 00:00:00,PRATE,surface,-98.4379,25.9842,8.56e-05
2011-12-01 00:00:00,2011-12-01 00:00:00,PRATE,surface,-97.5004,25.9842,6.08e-05
2011-12-01 00:00:00,2011-12-01 00:00:00,PRATE,surface,-96.5629,25.9842,5.06e-05
2011-12-01 00:00:00,2011-12-01 00:00:00,PRATE,surface,-95.6254,25.9842,4.9e-05
2011-12-01 00:00:00,2011-12-01 00:00:00,PRATE,surface,-94.6879,25.9842,3.88e-05
2011-12-01 00:00:00,2011-12-01 00:00:00,PRATE,surface,-93.7504,25.9842,3.02e-05
2011-12-01 00:00:00,2011-12-01 00:00:00,PRATE,surface,-92.8129,25.9842,2.9e-05
2011-12-01 00:00:00,2011-12-01 00:00:00,PRATE,surface,-107.813,26.929,8.9e-06
2011-12-01 00:00:00,2011-12-01 00:00:00,PRATE,surface,-106.875,26.929,7.5e-06
2011-12-01 00:00:00,2011-12-01 00:00:00,PRATE,surface,-105.938,26.929,6e-06
2011-12-01 00:00:00,2011-12-01 00:00:00,PRATE,surface,-105,26.929,1.3e-06
2011-12-01 00:00:00,2011-12-01 00:00:00,PRATE,surface,-104.063,26.929,4e-07
2011-12-01 00:00:00,2011-12-01 00:00:00,PRATE,surface,-103.125,26.929,3.2e-06
2011-12-01 00:00:00,2011-12-01 00:00:00,PRATE,surface,-102.188,26.929,1.9e-05
2011-12-01 00:00:00,2011-12-01 00:00:00,PRATE,surface,-101.25,26.929,4.46e-05
2011-12-01 00:00:00,2011-12-01 00:00:00,PRATE,surface,-100.313,26.929,7.87e-05
2011-12-01 00:00:00,2011-12-01 00:00:00,PRATE,surface,-99.3754,26.929,7.63e-05
2011-12-01 00:00:00,2011-12-01 00:00:00,PRATE,surface,-98.4379,26.929,6.39e-05
2011-12-01 00:00:00,2011-12-01 00:00:00,PRATE,surface,-97.5004,26.929,5.49e-05
2011-12-01 00:00:00,2011-12-01 00:00:00,PRATE,surface,-96.5629,26.929,6.86e-05
2011-12-01 00:00:00,2011-12-01 00:00:00,PRATE,surface,-95.6254,26.929,8.11e-05
2011-12-01 00:00:00,2011-12-01 00:00:00,PRATE,surface,-94.6879,26.929,8.61e-05
2011-12-01 00:00:00,2011-12-01 00:00:00,PRATE,surface,-93.7504,26.929,7.63e-05
2011-12-01 00:00:00,2011-12-01 00:00:00,PRATE,surface,-92.8129,26.929,6.72e-05
2011-12-01 00:00:00,2011-12-01 00:00:00,PRATE,surface,-107.813,27.8739,1.15e-05
2011-12-01 00:00:00,2011-12-01 00:00:00,PRATE,surface,-106.875,27.8739,7.1e-06
2011-12-01 00:00:00,2011-12-01 00:00:00,PRATE,surface,-105.938,27.8739,4.3e-06
2011-12-01 00:00:00,2011-12-01 00:00:00,PRATE,surface,-105,27.8739,3e-07
2011-12-01 00:00:00,2011-12-01 00:00:00,PRATE,surface,-104.063,27.8739,1.2e-06
2011-12-01 00:00:00,2011-12-01 00:00:00,PRATE,surface,-103.125,27.8739,1.05e-05
2011-12-01 00:00:00,2011-12-01 00:00:00,PRATE,surface,-102.188,27.8739,3.78e-05
2011-12-01 00:00:00,2011-12-01 00:00:00,PRATE,surface,-101.25,27.8739,4.6e-05
2011-12-01 00:00:00,2011-12-01 00:00:00,PRATE,surface,-100.313,27.8739,3.93e-05
2011-12-01 00:00:00,2011-12-01 00:00:00,PRATE,surface,-99.3754,27.8739,3.99e-05
2011-12-01 00:00:00,2011-12-01 00:00:00,PRATE,surface,-98.4379,27.8739,3.85e-05
2011-12-01 00:00:00,2011-12-01 00:00:00,PRATE,surface,-97.5004,27.8739,3.54e-05
2011-12-01 00:00:00,2011-12-01 00:00:00,PRATE,surface,-96.5629,27.8739,4.29e-05
2011-12-01 00:00:00,2011-12-01 00:00:00,PRATE,surface,-95.6254,27.8739,5.92e-05
2011-12-01 00:00:00,2011-12-01 00:00:00,PRATE,surface,-94.6879,27.8739,7.37e-05
2011-12-01 00:00:00,2011-12-01 00:00:00,PRATE,surface,-93.7504,27.8739,8.45e-05
2011-12-01 00:00:00,2011-12-01 00:00:00,PRATE,surface,-92.8129,27.8739,9.03e-05
2011-12-01 00:00:00,2011-12-01 00:00:00,PRATE,surface,-107.813,28.8188,1.13e-05
2011-12-01 00:00:00,2011-12-01 00:00:00,PRATE,surface,-106.875,28.8188,6e-06
2011-12-01 00:00:00,2011-12-01 00:00:00,PRATE,surface,-105.938,28.8188,4.9e-06
2011-12-01 00:00:00,2011-12-01 00:00:00,PRATE,surface,-105,28.8188,1.6e-06
2011-12-01 00:00:00,2011-12-01 00:00:00,PRATE,surface,-104.063,28.8188,2.7e-06
2011-12-01 00:00:00,2011-12-01 00:00:00,PRATE,surface,-103.125,28.8188,1.61e-05
2011-12-01 00:00:00,2011-12-01 00:00:00,PRATE,surface,-102.188,28.8188,3.53e-05
2011-12-01 00:00:00,2011-12-01 00:00:00,PRATE,surface,-101.25,28.8188,4.71e-05
2011-12-01 00:00:00,2011-12-01 00:00:00,PRATE,surface,-100.313,28.8188,4.44e-05
2011-12-01 00:00:00,2011-12-01 00:00:00,PRATE,surface,-99.3754,28.8188,3.49e-05
2011-12-01 00:00:00,2011-12-01 00:00:00,PRATE,surface,-98.4379,28.8188,2.34e-05
2011-12-01 00:00:00,2011-12-01 00:00:00,PRATE,surface,-97.5004,28.8188,1.44e-05
2011-12-01 00:00:00,2011-12-01 00:00:00,PRATE,surface,-96.5629,28.8188,1.37e-05
2011-12-01 00:00:00,2011-12-01 00:00:00,PRATE,surface,-95.6254,28.8188,2.33e-05
2011-12-01 00:00:00,2011-12-01 00:00:00,PRATE,surface,-94.6879,28.8188,3.64e-05
2011-12-01 00:00:00,2011-12-01 00:00:00,PRATE,surface,-93.7504,28.8188,4.58e-05
2011-12-01 00:00:00,2011-12-01 00:00:00,PRATE,surface,-92.8129,28.8188,5.99e-05
2011-12-01 00:00:00,2011-12-01 00:00:00,PRATE,surface,-107.813,29.7637,5.8e-06
2011-12-01 00:00:00,2011-12-01 00:00:00,PRATE,surface,-106.875,29.7637,4.7e-06
2011-12-01 00:00:00,2011-12-01 00:00:00,PRATE,surface,-105.938,29.7637,6.5e-06
2011-12-01 00:00:00,2011-12-01 00:00:00,PRATE,surface,-105,29.7637,6.7e-06
2011-12-01 00:00:00,2011-12-01 00:00:00,PRATE,surface,-104.063,29.7637,6.5e-06
2011-12-01 00:00:00,2011-12-01 00:00:00,PRATE,surface,-103.125,29.7637,1.01e-05
2011-12-01 00:00:00,2011-12-01 00:00:00,PRATE,surface,-102.188,29.7637,2.33e-05
2011-12-01 00:00:00,2011-12-01 00:00:00,PRATE,surface,-101.25,29.7637,4.52e-05
2011-12-01 00:00:00,2011-12-01 00:00:00,PRATE,surface,-100.313,29.7637,6.27e-05
2011-12-01 00:00:00,2011-12-01 00:00:00,PRATE,surface,-99.3754,29.7637,5.16e-05
2011-12-01 00:00:00,2011-12-01 00:00:00,PRATE,surface,-98.4379,29.7637,3.42e-05
2011-12-01 00:00:00,2011-12-01 00:00:00,PRATE,surface,-97.5004,29.7637,2.76e-05
2011-12-01 00:00:00,2011-12-01 00:00:00,PRATE,surface,-96.5629,29.7637,2.38e-05
2011-12-01 00:00:00,2011-12-01 00:00:00,PRATE,surface,-95.6254,29.7637,1.78e-05
2011-12-01 00:00:00,2011-12-01 00:00:00,PRATE,surface,-94.6879,29.7637,1.63e-05
2011-12-01 00:00:00,2011-12-01 00:00:00,PRATE,surface,-93.7504,29.7637,2.1e-05
2011-12-01 00:00:00,2011-12-01 00:00:00,PRATE,surface,-92.8129,29.7637,2.92e-05
2011-12-01 00:00:00,2011-12-01 00:00:00,PRATE,surface,-107.813,30.7085,3.9e-06
2011-12-01 00:00:00,2011-12-01 00:00:00,PRATE,surface,-106.875,30.7085,4.5e-06
2011-12-01 00:00:00,2011-12-01 00:00:00,PRATE,surface,-105.938,30.7085,6.8e-06
2011-12-01 00:00:00,2011-12-01 00:00:00,PRATE,surface,-105,30.7085,8.6e-06
2011-12-01 00:00:00,2011-12-01 00:00:00,PRATE,surface,-104.063,30.7085,8.2e-06
2011-12-01 00:00:00,2011-12-01 00:00:00,PRATE,surface,-103.125,30.7085,6.8e-06
2011-12-01 00:00:00,2011-12-01 00:00:00,PRATE,surface,-102.188,30.7085,1.17e-05
2011-12-01 00:00:00,2011-12-01 00:00:00,PRATE,surface,-101.25,30.7085,3.16e-05
2011-12-01 00:00:00,2011-12-01 00:00:00,PRATE,surface,-100.313,30.7085,5.38e-05
2011-12-01 00:00:00,2011-12-01 00:00:00,PRATE,surface,-99.3754,30.7085,5.34e-05
2011-12-01 00:00:00,2011-12-01 00:00:00,PRATE,surface,-98.4379,30.7085,3.95e-05
2011-12-01 00:00:00,2011-12-01 00:00:00,PRATE,surface,-97.5004,30.7085,3.01e-05
2011-12-01 00:00:00,2011-12-01 00:00:00,PRATE,surface,-96.5629,30.7085,2.88e-05
2011-12-01 00:00:00,2011-12-01 00:00:00,PRATE,surface,-95.6254,30.7085,2.7e-05
2011-12-01 00:00:00,2011-12-01 00:00:00,PRATE,surface,-94.6879,30.7085,2.26e-05
2011-12-01 00:00:00,2011-12-01 00:00:00,PRATE,surface,-93.7504,30.7085,2.45e-05
2011-12-01 00:00:00,2011-12-01 00:00:00,PRATE,surface,-92.8129,30.7085,3.04e-05
2011-12-01 00:00:00,2011-12-01 00:00:00,PRATE,surface,-107.813,31.6534,1.8e-06
2011-12-01 00:00:00,2011-12-01 00:00:00,PRATE,surface,-106.875,31.6534,2.5e-06
2011-12-01 00:00:00,2011-12-01 00:00:00,PRATE,surface,-105.938,31.6534,3.1e-06
2011-12-01 00:00:00,2011-12-01 00:00:00,PRATE,surface,-105,31.6534,5.5e-06
2011-12-01 00:00:00,2011-12-01 00:00:00,PRATE,surface,-104.063,31.6534,3.7e-06
2011-12-01 00:00:00,2011-12-01 00:00:00,PRATE,surface,-103.125,31.6534,2.4e-06
2011-12-01 00:00:00,2011-12-01 00:00:00,PRATE,surface,-102.188,31.6534,5.1e-06
2011-12-01 00:00:00,2011-12-01 00:00:00,PRATE,surface,-101.25,31.6534,1.91e-05
2011-12-01 00:00:00,2011-12-01 00:00:00,PRATE,surface,-100.313,31.6534,3.19e-05
2011-12-01 00:00:00,2011-12-01 00:00:00,PRATE,surface,-99.3754,31.6534,3.87e-05
2011-12-01 00:00:00,2011-12-01 00:00:00,PRATE,surface,-98.4379,31.6534,3.98e-05
2011-12-01 00:00:00,2011-12-01 00:00:00,PRATE,surface,-97.5004,31.6534,3.67e-05
2011-12-01 00:00:00,2011-12-01 00:00:00,PRATE,surface,-96.5629,31.6534,3e-05
2011-12-01 00:00:00,2011-12-01 00:00:00,PRATE,surface,-95.6254,31.6534,2.64e-05
2011-12-01 00:00:00,2011-12-01 00:00:00,PRATE,surface,-94.6879,31.6534,3.17e-05
2011-12-01 00:00:00,2011-12-01 00:00:00,PRATE,surface,-93.7504,31.6534,3.77e-05
2011-12-01 00:00:00,2011-12-01 00:00:00,PRATE,surface,-92.8129,31.6534,4.17e-05
2011-12-01 00:00:00,2011-12-01 00:00:00,PRATE,surface,-107.813,32.5983,1.2e-06
2011-12-01 00:00:00,2011-12-01 00:00:00,PRATE,surface,-106.875,32.5983,1.9e-06
2011-12-01 00:00:00,2011-12-01 00:00:00,PRATE,surface,-105.938,32.5983,1.7e-06
2011-12-01 00:00:00,2011-12-01 00:00:00,PRATE,surface,-105,32.5983,2.6e-06
2011-12-01 00:00:00,2011-12-01 00:00:00,PRATE,surface,-104.063,32.5983,1.2e-06
2011-12-01 00:00:00,2011-12-01 00:00:00,PRATE,surface,-103.125,32.5983,1.1e-06
2011-12-01 00:00:00,2011-12-01 00:00:00,PRATE,surface,-102.188,32.5983,7.1e-06
2011-12-01 00:00:00,2011-12-01 00:00:00,PRATE,surface,-101.25,32.5983,1.08e-05
2011-12-01 00:00:00,2011-12-01 00:00:00,PRATE,surface,-100.313,32.5983,2.11e-05
2011-12-01 00:00:00,2011-12-01 00:00:00,PRATE,surface,-99.3754,32.5983,3.37e-05
2011-12-01 00:00:00,2011-12-01 00:00:00,PRATE,surface,-98.4379,32.5983,4.47e-05
2011-12-01 00:00:00,2011-12-01 00:00:00,PRATE,surface,-97.5004,32.5983,4.74e-05
2011-12-01 00:00:00,2011-12-01 00:00:00,PRATE,surface,-96.5629,32.5983,4.34e-05
2011-12-01 00:00:00,2011-12-01 00:00:00,PRATE,surface,-95.6254,32.5983,4.05e-05
2011-12-01 00:00:00,2011-12-01 00:00:00,PRATE,surface,-94.6879,32.5983,3.94e-05
2011-12-01 00:00:00,2011-12-01 00:00:00,PRATE,surface,-93.7504,32.5983,3.89e-05
2011-12-01 00:00:00,2011-12-01 00:00:00,PRATE,surface,-92.8129,32.5983,4.22e-05
2011-12-01 00:00:00,2011-12-01 00:00:00,PRATE,surface,-107.813,33.5432,1.01e-05
2011-12-01 00:00:00,2011-12-01 00:00:00,PRATE,surface,-106.875,33.5432,1.25e-05
2011-12-01 00:00:00,2011-12-01 00:00:00,PRATE,surface,-105.938,33.5432,7.8e-06
2011-12-01 00:00:00,2011-12-01 00:00:00,PRATE,surface,-105,33.5432,3.9e-06
2011-12-01 00:00:00,2011-12-01 00:00:00,PRATE,surface,-104.063,33.5432,1.3e-06
2011-12-01 00:00:00,2011-12-01 00:00:00,PRATE,surface,-103.125,33.5432,1.3e-06
2011-12-01 00:00:00,2011-12-01 00:00:00,PRATE,surface,-102.188,33.5432,3.1e-06
2011-12-01 00:00:00,2011-12-01 00:00:00,PRATE,surface,-101.25,33.5432,8.2e-06
2011-12-01 00:00:00,2011-12-01 00:00:00,PRATE,surface,-100.313,33.5432,1.74e-05
2011-12-01 00:00:00,2011-12-01 00:00:00,PRATE,surface,-99.3754,33.5432,2.98e-05
2011-12-01 00:00:00,2011-12-01 00:00:00,PRATE,surface,-98.4379,33.5432,4.79e-05
2011-12-01 00:00:00,2011-12-01 00:00:00,PRATE,surface,-97.5004,33.5432,6.18e-05
2011-12-01 00:00:00,2011-12-01 00:00:00,PRATE,surface,-96.5629,33.5432,6.4e-05
2011-12-01 00:00:00,2011-12-01 00:00:00,PRATE,surface,-95.6254,33.5432,6.24e-05
2011-12-01 00:00:00,2011-12-01 00:00:00,PRATE,surface,-94.6879,33.5432,6.16e-05
2011-12-01 00:00:00,2011-12-01 00:00:00,PRATE,surface,-93.7504,33.5432,5.57e-05
2011-12-01 00:00:00,2011-12-01 00:00:00,PRATE,surface,-92.8129,33.5432,4.71e-05
2011-12-01 00:00:00,2011-12-01 00:00:00,PRATE,surface,-107.813,34.4881,1.82e-05
2011-12-01 00:00:00,2011-12-01 00:00:00,PRATE,surface,-106.875,34.4881,1.91e-05
2011-12-01 00:00:00,2011-12-01 00:00:00,PRATE,surface,-105.938,34.4881,1.14e-05
2011-12-01 00:00:00,2011-12-01 00:00:00,PRATE,surface,-105,34.4881,5.6e-06
2011-12-01 00:00:00,2011-12-01 00:00:00,PRATE,surface,-104.063,34.4881,2.7e-06
2011-12-01 00:00:00,2011-12-01 00:00:00,PRATE,surface,-103.125,34.4881,1.9e-06
2011-12-01 00:00:00,2011-12-01 00:00:00,PRATE,surface,-102.188,34.4881,2.3e-06
2011-12-01 00:00:00,2011-12-01 00:00:00,PRATE,surface,-101.25,34.4881,7.7e-06
2011-12-01 00:00:00,2011-12-01 00:00:00,PRATE,surface,-100.313,34.4881,1.78e-05
2011-12-01 00:00:00,2011-12-01 00:00:00,PRATE,surface,-99.3754,34.4881,2.87e-05
2011-12-01 00:00:00,2011-12-01 00:00:00,PRATE,surface,-98.4379,34.4881,4.2e-05
2011-12-01 00:00:00,2011-12-01 00:00:00,PRATE,surface,-97.5004,34.4881,6.2e-05
2011-12-01 00:00:00,2011-12-01 00:00:00,PRATE,surface,-96.5629,34.4881,7.85e-05
2011-12-01 00:00:00,2011-12-01 00:00:00,PRATE,surface,-95.6254,34.4881,8.24e-05
2011-12-01 00:00:00,2011-12-01 00:00:00,PRATE,surface,-94.6879,34.4881,8.51e-05
2011-12-01 00:00:00,2011-12-01 00:00:00,PRATE,surface,-93.7504,34.4881,8.98e-05
2011-12-01 00:00:00,2011-12-01 00:00:00,PRATE,surface,-92.8129,34.4881,8.05e-05
2011-12-01 00:00:00,2011-12-01 00:00:00,PRATE,surface,-107.813,35.4329,1.39e-05
2011-12-01 00:00:00,2011-12-01 00:00:00,PRATE,surface,-106.875,35.4329,1.32e-05
2011-12-01 00:00:00,2011-12-01 00:00:00,PRATE,surface,-105.938,35.4329,1.33e-05
2011-12-01 00:00:00,2011-12-01 00:00:00,PRATE,surface,-105,35.4329,1.09e-05
2011-12-01 00:00:00,2011-12-01 00:00:00,PRATE,surface,-104.063,35.4329,6.1e-06
2011-12-01 00:00:00,2011-12-01 00:00:00,PRATE,surface,-103.125,35.4329,4.6e-06
2011-12-01 00:00:00,2011-12-01 00:00:00,PRATE,surface,-102.188,35.4329,5.6e-06
2011-12-01 00:00:00,2011-12-01 00:00:00,PRATE,surface,-101.25,35.4329,1.07e-05
2011-12-01 00:00:00,2011-12-01 00:00:00,PRATE,surface,-100.313,35.4329,1.84e-05
2011-12-01 00:00:00,2011-12-01 00:00:00,PRATE,surface,-99.3754,35.4329,2.99e-05
2011-12-01 00:00:00,2011-12-01 00:00:00,PRATE,surface,-98.4379,35.4329,4.09e-05
2011-12-01 00:00:00,2011-12-01 00:00:00,PRATE,surface,-97.5004,35.4329,5.64e-05
2011-12-01 00:00:00,2011-12-01 00:00:00,PRATE,surface,-96.5629,35.4329,7.41e-05
2011-12-01 00:00:00,2011-12-01 00:00:00,PRATE,surface,-95.6254,35.4329,9.06e-05
2011-12-01 00:00:00,2011-12-01 00:00:00,PRATE,surface,-94.6879,35.4329,0.0001079
2011-12-01 00:00:00,2011-12-01 00:00:00,PRATE,surface,-93.7504,35.4329,0.0001171
2011-12-01 00:00:00,2011-12-01 00:00:00,PRATE,surface,-92.8129,35.4329,0.0001108
2011-12-01 00:00:00,2011-12-01 00:00:00,PRATE,surface,-107.813,36.3778,2.32e-05
2011-12-01 00:00:00,2011-12-01 00:00:00,PRATE,surface,-106.875,36.3778,2.83e-05
2011-12-01 00:00:00,2011-12-01 00:00:00,PRATE,surface,-105.938,36.3778,2.7e-05
2011-12-01 00:00:00,2011-12-01 00:00:00,PRATE,surface,-105,36.3778,1.81e-05
2011-12-01 00:00:00,2011-12-01 00:00:00,PRATE,surface,-104.063,36.3778,8.8e-06
2011-12-01 00:00:00,2011-12-01 00:00:00,PRATE,surface,-103.125,36.3778,5.5e-06
2011-12-01 00:00:00,2011-12-01 00:00:00,PRATE,surface,-102.188,36.3778,9e-06
2011-12-01 00:00:00,2011-12-01 00:00:00,PRATE,surface,-101.25,36.3778,1.55e-05
2011-12-01 00:00:00,2011-12-01 00:00:00,PRATE,surface,-100.313,36.3778,2.78e-05
2011-12-01 00:00:00,2011-12-01 00:00:00,PRATE,surface,-99.3754,36.3778,4.22e-05
2011-12-01 00:00:00,2011-12-01 00:00:00,PRATE,surface,-98.4379,36.3778,5.17e-05
2011-12-01 00:00:00,2011-12-01 00:00:00,PRATE,surface,-97.5004,36.3778,5.69e-05
2011-12-01 00:00:00,2011-12-01 00:00:00,PRATE,surface,-96.5629,36.3778,6.45e-05
2011-12-01 00:00:00,2011-12-01 00:00:00,PRATE,surface,-95.6254,36.3778,8.05e-05
2011-12-01 00:00:00,2011-12-01 00:00:00,PRATE,surface,-94.6879,36.3778,0.000103
2011-12-01 00:00:00,2011-12-01 00:00:00,PRATE,surface,-93.7504,36.3778,0.0001212
2011-12-01 00:00:00,2011-12-01 00:00:00,PRATE,surface,-92.8129,36.3778,0.0001277
