2014-07-15 00:00:00,2014-07-15 00:00:00,TMP,surface,-107.813,25.0393,294.367
2014-07-15 00:00:00,2014-07-15 00:00:00,TMP,surface,-106.875,25.0393,287.953
2014-07-15 00:00:00,2014-07-15 00:00:00,TMP,surface,-105.938,25.0393,283.537
2014-07-15 00:00:00,2014-07-15 00:00:00,TMP,surface,-105,25.0393,282.444
2014-07-15 00:00:00,2014-07-15 00:00:00,TMP,surface,-104.063,25.0393,286.31
2014-07-15 00:00:00,2014-07-15 00:00:00,TMP,surface,-103.125,25.0393,288.837
2014-07-15 00:00:00,2014-07-15 00:00:00,TMP,surface,-102.188,25.0393,288.766
2014-07-15 00:00:00,2014-07-15 00:00:00,TMP,surface,-101.25,25.0393,287.167
2014-07-15 00:00:00,2014-07-15 00:00:00,TMP,surface,-100.313,25.0393,287.506
2014-07-15 00:00:00,2014-07-15 00:00:00,TMP,surface,-99.3754,25.0393,290.349
2014-07-15 00:00:00,2014-07-15 00:00:00,TMP,surface,-98.4379,25.0393,293.689
2014-07-15 00:00:00,2014-07-15 00:00:00,TMP,surface,-97.5004,25.0393,298.628
2014-07-15 00:00:00,2014-07-15 00:00:00,TMP,surface,-96.5629,25.0393,298.618
2014-07-15 00:00:00,2014-07-15 00:00:00,TMP,surface,-95.6254,25.0393,298.817
2014-07-15 00:00:00,2014-07-15 00:00:00,TMP,surface,-94.6879,25.0393,299.034
2014-07-15 00:00:00,2014-07-15 00:00:00,TMP,surface,-93.7504,25.0393,299.01
2014-07-15 00:00:00,2014-07-15 00:00:00,TMP,surface,-92.8129,25.0393,299.071
2014-07-15 00:00:00,2014-07-15 00:00:00,TMP,surface,-107.813,25.9842,288.642
2014-07-15 00:00:00,2014-07-15 00:00:00,TMP,surface,-106.875,25.9842,283.857
2014-07-15 00:00:00,2014-07-15 00:00:00,TMP,surface,-105.938,25.9842,282.137
2014-07-15 00:00:00,2014-07-15 00:00:00,TMP,surface,-105,25.9842,284.071
2014-07-15 00:00:00,2014-07-15 00:00:00,TMP,surface,-104.063,25.9842,287.961
2014-07-15 00:00:00,2014-07-15 00:00:00,TMP,surface,-103.125,25.9842,289.274
2014-07-15 00:00:00,2014-07-15 00:00:00,TMP,surface,-102.188,25.9842,288.837
2014-07-15 00:00:00,2014-07-15 00:00:00,TMP,surface,-101.25,25.9842,288.098
2014-07-15 00:00:00,2014-07-15 00:00:00,TMP,surface,-100.313,25.9842,288.806
2014-07-15 00:00:00,2014-07-15 00:00:00,TMP,surface,-99.3754,25.9842,291.385
2014-07-15 00:00:00,2014-07-15 00:00:00,TMP,surface,-98.4379,25.9842,293.522
2014-07-15 00:00:00,2014-07-15 00:00:00,TMP,surface,-97.5004,25.9842,294.89
2014-07-15 00:00:00,2014-07-15 00:00:00,TMP,surface,-96.5629,25.9842,297.985
2014-07-15 00:00:00,2014-07-15 00:00:00,TMP,surface,-95.6254,25.9842,298.353
2014-07-15 00:00:00,2014-07-15 00:00:00,TMP,surface,-94.6879,25.9842,298.577
2014-07-15 00:00:00,2014-07-15 00:00:00,TMP,surface,-93.7504,25.9842,298.591
2014-07-15 00:00:00,2014-07-15 00:00:00,TMP,surface,-92.8129,25.9842,298.717
2014-07-15 00:00:00,2014-07-15 00:00:00,TMP,surface,-107.813,26.929,283.897
2014-07-15 00:00:00,2014-07-15 00:00:00,TMP,surface,-106.875,26.929,281.247
2014-07-15 00:00:00,2014-07-15 00:00:00,TMP,surface,-105.938,26.929,282.727
2014-07-15 00:00:00,2014-07-15 00:00:00,TMP,surface,-105,26.929,285.934
2014-07-15 00:00:00,2014-07-15 00:00:00,TMP,surface,-104.063,26.929,287.255
2014-07-15 00:00:00,2014-07-15 00:00:00,TMP,surface,-103.125,26.929,286.725
2014-07-15 00:00:00,2014-07-15 00:00:00,TMP,surface,-102.188,26.929,286.74
2014-07-15 00:00:00,2014-07-15 00:00:00,TMP,surface,-101.25,26.929,287.913
2014-07-15 00:00:00,2014-07-15 00:00:00,TMP,surface,-100.313,26.929,289.652
2014-07-15 00:00:00,2014-07-15 00:00:00,TMP,surface,-99.3754,26.929,291.375
2014-07-15 00:00:00,2014-07-15 00:00:00,TMP,surface,-98.4379,26.929,292.071
2014-07-15 00:00:00,2014-07-15 00:00:00,TMP,surface,-97.5004,26.929,297.009
2014-07-15 00:00:00,2014-07-15 00:00:00,TMP,surface,-96.5629,26.929,297.596
2014-07-15 00:00:00,2014-07-15 00:00:00,TMP,surface,-95.6254,26.929,297.914
2014-07-15 00:00:00,2014-07-15 00:00:00,TMP,surface,-94.6879,26.929,298.244
2014-07-15 00:00:00,2014-07-15 00:00:00,TMP,surface,-93.7504,26.929,298.322
2014-07-15 00:00:00,2014-07-15 00:00:00,TMP,surface,-92.8129,26.929,298.348
2014-07-15 00:00:00,2014-07-15 00:00:00,TMP,surface,-107.813,27.8739,280.895
2014-07-15 00:00:00,2014-07-15 00:00:00,TMP,surface,-106.875,27.8739,280.385
2014-07-15 00:00:00,2014-07-15 00:00:00,TMP,surface,-105.938,27.8739,283.527
2014-07-15 00:00:00,2014-07-15 00:00:00,TMP,surface,-105,27.8739,286.105
2014-07-15 00:00:00,2014-07-15 00:00:00,TMP,surface,-104.063,27.8739,285.916
2014-07-15 00:00:00,2014-07-15 00:00:00,TMP,surface,-103.125,27.8739,284.786
2014-07-15 00:00:00,2014-07-15 00:00:00,TMP,surface,-102.188,27.8739,285.125
2014-07-15 00:00:00,2014-07-15 00:00:00,TMP,surface,-101.25,27.8739,287.047
2014-07-15 00:00:00,2014-07-15 00:00:00,TMP,surface,-100.313,27.8739,289.065
2014-07-15 00:00:00,2014-07-15 00:00:00,TMP,surface,-99.3754,27.8739,290.031
2014-07-15 00:00:00,2014-07-15 00:00:00,TMP,surface,-98.4379,27.8739,290.474
2014-07-15 00:00:00,2014-07-15 00:00:00,TMP,surface,-97.5004,27.8739,294.262
2014-07-15 00:00:00,2014-07-15 00:00:00,TMP,surface,-96.5629,27.8739,297.994
2014-07-15 00:00:00,2014-07-15 00:00:00,TMP,surface,-95.6254,27.8739,298.078
2014-07-15 00:00:00,2014-07-15 00:00:00,TMP,surface,-94.6879,27.8739,297.885
2014-07-15 00:00:00,2014-07-15 00:00:00,TMP,surface,-93.7504,27.8739,297.828
2014-07-15 00:00:00,2014-07-15 00:00:00,TMP,surface,-92.8129,27.8739,297.845
2014-07-15 00:00:00,2014-07-15 00:00:00,TMP,surface,-107.813,28.8188,279.706
2014-07-15 00:00:00,2014-07-15 00:00:00,TMP,surface,-106.875,28.8188,280.501
2014-07-15 00:00:00,2014-07-15 00:00:00,TMP,surface,-105.938,28.8188,283.534
2014-07-15 00:00:00,2014-07-15 00:00:00,TMP,surface,-105,28.8188,285.214
2014-07-15 00:00:00,2014-07-15 00:00:00,TMP,surface,-104.063,28.8188,284.375
2014-07-15 00:00:00,2014-07-15 00:00:00,TMP,surface,-103.125,28.8188,283.519
2014-07-15 00:00:00,2014-07-15 00:00:00,TMP,surface,-102.188,28.8188,284.177
2014-07-15 00:00:00,2014-07-15 00:00:00,TMP,surface,-101.25,28.8188,285.977
2014-07-15 00:00:00,2014-07-15 00:00:00,TMP,surface,-100.313,28.8188,287.461
2014-07-15 00:00:00,2014-07-15 00:00:00,TMP,surface,-99.3754,28.8188,288.005
2014-07-15 00:00:00,2014-07-15 00:00:00,TMP,surface,-98.4379,28.8188,288.318
2014-07-15 00:00:00,2014-07-15 00:00:00,TMP,surface,-97.5004,28.8188,289.018
2014-07-15 00:00:00,2014-07-15 00:00:00,TMP,surface,-96.5629,28.8188,290.05
2014-07-15 00:00:00,2014-07-15 00:00:00,TMP,surface,-95.6254,28.8188,293.399
2014-07-15 00:00:00,2014-07-15 00:00:00,TMP,surface,-94.6879,28.8188,297.842
2014-07-15 00:00:00,2014-07-15 00:00:00,TMP,surface,-93.7504,28.8188,297.836
2014-07-15 00:00:00,2014-07-15 00:00:00,TMP,surface,-92.8129,28.8188,298.01
2014-07-15 00:00:00,2014-07-15 00:00:00,TMP,surface,-107.813,29.7637,280.394
2014-07-15 00:00:00,2014-07-15 00:00:00,TMP,surface,-106.875,29.7637,281.292
2014-07-15 00:00:00,2014-07-15 00:00:00,TMP,surface,-105.938,29.7637,283.1
2014-07-15 00:00:00,2014-07-15 00:00:00,TMP,surface,-105,29.7637,283.5
2014-07-15 00:00:00,2014-07-15 00:00:00,TMP,surface,-104.063,29.7637,283.169
2014-07-15 00:00:00,2014-07-15 00:00:00,TMP,surface,-103.125,29.7637,283.287
2014-07-15 00:00:00,2014-07-15 00:00:00,TMP,surface,-102.188,29.7637,284.113
2014-07-15 00:00:00,2014-07-15 00:00:00,TMP,surface,-101.25,29.7637,285.004
2014-07-15 00:00:00,2014-07-15 00:00:00,TMP,surface,-100.313,29.7637,285.572
2014-07-15 00:00:00,2014-07-15 00:00:00,TMP,surface,-99.3754,29.7637,285.957
2014-07-15 00:00:00,2014-07-15 00:00:00,TMP,surface,-98.4379,29.7637,286.418
2014-07-15 00:00:00,2014-07-15 00:00:00,TMP,surface,-97.5004,29.7637,287.033
2014-07-15 00:00:00,2014-07-15 00:00:00,TMP,surface,-96.5629,29.7637,287.806
2014-07-15 00:00:00,2014-07-15 00:00:00,TMP,surface,-95.6254,29.7637,288.708
2014-07-15 00:00:00,2014-07-15 00:00:00,TMP,surface,-94.6879,29.7637,292.012
2014-07-15 00:00:00,2014-07-15 00:00:00,TMP,surface,-93.7504,29.7637,295.929
2014-07-15 00:00:00,2014-07-15 00:00:00,TMP,surface,-92.8129,29.7637,289.905
2014-07-15 00:00:00,2014-07-15 00:00:00,TMP,surface,-107.813,30.7085,281.818
2014-07-15 00:00:00,2014-07-15 00:00:00,TMP,surface,-106.875,30.7085,282.47
2014-07-15 00:00:00,2014-07-15 00:00:00,TMP,surface,-105.938,30.7085,282.42
2014-07-15 00:00:00,2014-07-15 00:00:00,TMP,surface,-105,30.7085,282.03
2014-07-15 00:00:00,2014-07-15 00:00:00,TMP,surface,-104.063,30.7085,282.172
2014-07-15 00:00:00,2014-07-15 00:00:00,TMP,surface,-103.125,30.7085,283.078
2014-07-15 00:00:00,2014-07-15 00:00:00,TMP,surface,-102.188,30.7085,283.78
2014-07-15 00:00:00,2014-07-15 00:00:00,TMP,surface,-101.25,30.7085,284.042
2014-07-15 00:00:00,2014-07-15 00:00:00,TMP,surface,-100.313,30.7085,284.229
2014-07-15 00:00:00,2014-07-15 00:00:00,TMP,surface,-99.3754,30.7085,284.714
2014-07-15 00:00:00,2014-07-15 00:00:00,TMP,surface,-98.4379,30.7085,285.441
2014-07-15 00:00:00,2014-07-15 00:00:00,TMP,surface,-97.5004,30.7085,286.185
2014-07-15 00:00:00,2014-07-15 00:00:00,TMP,surface,-96.5629,30.7085,286.801
2014-07-15 00:00:00,2014-07-15 00:00:00,TMP,surface,-95.6254,30.7085,287.305
2014-07-15 00:00:00,2014-07-15 00:00:00,TMP,surface,-94.6879,30.7085,287.654
2014-07-15 00:00:00,2014-07-15 00:00:00,TMP,surface,-93.7504,30.7085,287.647
2014-07-15 00:00:00,2014-07-15 00:00:00,TMP,surface,-92.8129,30.7085,287.396
2014-07-15 00:00:00,2014-07-15 00:00:00,TMP,surface,-107.813,31.6534,281.609
2014-07-15 00:00:00,2014-07-15 00:00:00,TMP,surface,-106.875,31.6534,282.069
2014-07-15 00:00:00,2014-07-15 00:00:00,TMP,surface,-105.938,31.6534,281.388
2014-07-15 00:00:00,2014-07-15 00:00:00,TMP,surface,-105,31.6534,281.097
2014-07-15 00:00:00,2014-07-15 00:00:00,TMP,surface,-104.063,31.6534,281.687
2014-07-15 00:00:00,2014-07-15 00:00:00,TMP,surface,-103.125,31.6534,282.618
2014-07-15 00:00:00,2014-07-15 00:00:00,TMP,surface,-102.188,31.6534,283.102
2014-07-15 00:00:00,2014-07-15 00:00:00,TMP,surface,-101.25,31.6534,283.086
2014-07-15 00:00:00,2014-07-15 00:00:00,TMP,surface,-100.313,31.6534,283.367
2014-07-15 00:00:00,2014-07-15 00:00:00,TMP,surface,-99.3754,31.6534,284.106
2014-07-15 00:00:00,2014-07-15 00:00:00,TMP,surface,-98.4379,31.6534,285.025
2014-07-15 00:00:00,2014-07-15 00:00:00,TMP,surface,-97.5004,31.6534,285.857
2014-07-15 00:00:00,2014-07-15 00:00:00,TMP,surface,-96.5629,31.6534,286.453
2014-07-15 00:00:00,2014-07-15 00:00:00,TMP,surface,-95.6254,31.6534,286.719
2014-07-15 00:00:00,2014-07-15 00:00:00,TMP,surface,-94.6879,31.6534,286.679
2014-07-15 00:00:00,2014-07-15 00:00:00,TMP,surface,-93.7504,31.6534,286.556
2014-07-15 00:00:00,2014-07-15 00:00:00,TMP,surface,-92.8129,31.6534,286.565
2014-07-15 00:00:00,2014-07-15 00:00:00,TMP,surface,-107.813,32.5983,279.271
2014-07-15 00:00:00,2014-07-15 00:00:00,TMP,surface,-106.875,32.5983,279.745
2014-07-15 00:00:00,2014-07-15 00:00:00,TMP,surface,-105.938,32.5983,279.996
2014-07-15 00:00:00,2014-07-15 00:00:00,TMP,surface,-105,32.5983,280.316
2014-07-15 00:00:00,2014-07-15 00:00:00,TMP,surface,-104.063,32.5983,281.402
2014-07-15 00:00:00,2014-07-15 00:00:00,TMP,surface,-103.125,32.5983,282.236
2014-07-15 00:00:00,2014-07-15 00:00:00,TMP,surface,-102.188,32.5983,282.313
2014-07-15 00:00:00,2014-07-15 00:00:00,TMP,surface,-101.25,32.5983,282.404
2014-07-15 00:00:00,2014-07-15 00:00:00,TMP,surface,-100.313,32.5983,282.975
2014-07-15 00:00:00,2014-07-15 00:00:00,TMP,surface,-99.3754,32.5983,283.822
2014-07-15 00:00:00,2014-07-15 00:00:00,TMP,surface,-98.4379,32.5983,284.604
2014-07-15 00:00:00,2014-07-15 00:00:00,TMP,surface,-97.5004,32.5983,285.319
2014-07-15 00:00:00,2014-07-15 00:00:00,TMP,surface,-96.5629,32.5983,285.89
2014-07-15 00:00:00,2014-07-15 00:00:00,TMP,surface,-95.6254,32.5983,286.138
2014-07-15 00:00:00,2014-07-15 00:00:00,TMP,surface,-94.6879,32.5983,286.1
2014-07-15 00:00:00,2014-07-15 00:00:00,TMP,surface,-93.7504,32.5983,286.041
2014-07-15 00:00:00,2014-07-15 00:00:00,TMP,surface,-92.8129,32.5983,286.326
2014-07-15 00:00:00,2014-07-15 00:00:00,TMP,surface,-107.813,33.5432,276.386
2014-07-15 00:00:00,2014-07-15 00:00:00,TMP,surface,-106.875,33.5432,277.646
2014-07-15 00:00:00,2014-07-15 00:00:00,TMP,surface,-105.938,33.5432,278.661
2014-07-15 00:00:00,2014-07-15 00:00:00,TMP,surface,-105,33.5432,279.658
2014-07-15 00:00:00,2014-07-15 00:00:00,TMP,surface,-104.063,33.5432,280.969
2014-07-15 00:00:00,2014-07-15 00:00:00,TMP,surface,-103.125,33.5432,281.537
2014-07-15 00:00:00,2014-07-15 00:00:00,TMP,surface,-102.188,33.5432,281.527
2014-07-15 00:00:00,2014-07-15 00:00:00,TMP,surface,-101.25,33.5432,281.751
2014-07-15 00:00:00,2014-07-15 00:00:00,TMP,surface,-100.313,33.5432,282.492
2014-07-15 00:00:00,2014-07-15 00:00:00,TMP,surface,-99.3754,33.5432,283.383
2014-07-15 00:00:00,2014-07-15 00:00:00,TMP,surface,-98.4379,33.5432,283.893
2014-07-15 00:00:00,2014-07-15 00:00:00,TMP,surface,-97.5004,33.5432,284.225
2014-07-15 00:00:00,2014-07-15 00:00:00,TMP,surface,-96.5629,33.5432,284.722
2014-07-15 00:00:00,2014-07-15 00:00:00,TMP,surface,-95.6254,33.5432,285.151
2014-07-15 00:00:00,2014-07-15 00:00:00,TMP,surface,-94.6879,33.5432,285.207
2014-07-15 00:00:00,2014-07-15 00:00:00,TMP,surface,-93.7504,33.5432,285.142
2014-07-15 00:00:00,2014-07-15 00:00:00,TMP,surface,-92.8129,33.5432,285.362
2014-07-15 00:00:00,2014-07-15 00:00:00,TMP,surface,-107.813,34.4881,275.228
2014-07-15 00:00:00,2014-07-15 00:00:00,TMP,surface,-106.875,34.4881,276.758
2014-07-15 00:00:00,2014-07-15 00:00:00,TMP,surface,-105.938,34.4881,277.938
2014-07-15 00:00:00,2014-07-15 00:00:00,TMP,surface,-105,34.4881,279.111
2014-07-15 00:00:00,2014-07-15 00:00:00,TMP,surface,-104.063,34.4881,279.929
2014-07-15 00:00:00,2014-07-15 00:00:00,TMP,surface,-103.125,34.4881,280.412
2014-07-15 00:00:00,2014-07-15 00:00:00,TMP,surface,-102.188,34.4881,280.727
2014-07-15 00:00:00,2014-07-15 00:00:00,TMP,surface,-101.25,34.4881,281.097
2014-07-15 00:00:00,2014-07-15 00:00:00,TMP,surface,-100.313,34.4881,281.794
2014-07-15 00:00:00,2014-07-15 00:00:00,TMP,surface,-99.3754,34.4881,282.458
2014-07-15 00:00:00,2014-07-15 00:00:00,TMP,surface,-98.4379,34.4881,282.791
2014-07-15 00:00:00,2014-07-15 00:00:00,TMP,surface,-97.5004,34.4881,283.049
2014-07-15 00:00:00,2014-07-15 00:00:00,TMP,surface,-96.5629,34.4881,283.489
2014-07-15 00:00:00,2014-07-15 00:00:00,TMP,surface,-95.6254,34.4881,283.844
2014-07-15 00:00:00,2014-07-15 00:00:00,TMP,surface,-94.6879,34.4881,283.789
2014-07-15 00:00:00,2014-07-15 00:00:00,TMP,surface,-93.7504,34.4881,283.633
2014-07-15 00:00:00,2014-07-15 00:00:00,TMP,surface,-92.8129,34.4881,283.889
2014-07-15 00:00:00,2014-07-15 00:00:00,TMP,surface,-107.813,35.4329,275.358
2014-07-15 00:00:00,2014-07-15 00:00:00,TMP,surface,-106.875,35.4329,275.844
2014-07-15 00:00:00,2014-07-15 00:00:00,TMP,surface,-105.938,35.4329,276.356
2014-07-15 00:00:00,2014-07-15 00:00:00,TMP,surface,-105,35.4329,277.295
2014-07-15 00:00:00,2014-07-15 00:00:00,TMP,surface,-104.063,35.4329,279.164
2014-07-15 00:00:00,2014-07-15 00:00:00,TMP,surface,-103.125,35.4329,280.175
2014-07-15 00:00:00,2014-07-15 00:00:00,TMP,surface,-102.188,35.4329,280.285
2014-07-15 00:00:00,2014-07-15 00:00:00,TMP,surface,-101.25,35.4329,280.486
2014-07-15 00:00:00,2014-07-15 00:00:00,TMP,surface,-100.313,35.4329,281.002
2014-07-15 00:00:00,2014-07-15 00:00:00,TMP,surface,-99.3754,35.4329,281.396
2014-07-15 00:00:00,2014-07-15 00:00:00,TMP,surface,-98.4379,35.4329,281.676
2014-07-15 00:00:00,2014-07-15 00:00:00,TMP,surface,-97.5004,35.4329,282.159
2014-07-15 00:00:00,2014-07-15 00:00:00,TMP,surface,-96.5629,35.4329,282.786
2014-07-15 00:00:00,2014-07-15 00:00:00,TMP,surface,-95.6254,35.4329,283.113
2014-07-15 00:00:00,2014-07-15 00:00:00,TMP,surface,-94.6879,35.4329,282.934
2014-07-15 00:00:00,2014-07-15 00:00:00,TMP,surface,-93.7504,35.4329,282.577
2014-07-15 00:00:00,2014-07-15 00:00:00,TMP,surface,-92.8129,35.4329,282.54
2014-07-15 00:00:00,2014-07-15 00:00:00,TMP,surface,-107.813,36.3778,274.628
2014-07-15 00:00:00,2014-07-15 00:00:00,TMP,surface,-106.875,36.3778,273.229
2014-07-15 00:00:00,2014-07-15 00:00:00,TMP,surface,-105.938,36.3778,273.605
2014-07-15 00:00:00,2014-07-15 00:00:00,TMP,surface,-105,36.3778,275.252
2014-07-15 00:00:00,2014-07-15 00:00:00,TMP,surface,-104.063,36.3778,277.557
2014-07-15 00:00:00,2014-07-15 00:00:00,TMP,surface,-103.125,36.3778,278.834
2014-07-15 00:00:00,2014-07-15 00:00:00,TMP,surface,-102.188,36.3778,279.346
2014-07-15 00:00:00,2014-07-15 00:00:00,TMP,surface,-101.25,36.3778,279.822
2014-07-15 00:00:00,2014-07-15 00:00:00,TMP,surface,-100.313,36.3778,280.442
2014-07-15 00:00:00,2014-07-15 00:00:00,TMP,surface,-99.3754,36.3778,280.881
2014-07-15 00:00:00,2014-07-15 00:00:00,TMP,surface,-98.4379,36.3778,280.993
2014-07-15 00:00:00,2014-07-15 00:00:00,TMP,surface,-97.5004,36.3778,281.43
2014-07-15 00:00:00,2014-07-15 00:00:00,TMP,surface,-96.5629,36.3778,282.119
2014-07-15 00:00:00,2014-07-15 00:00:00,TMP,surface,-95.6254,36.3778,282.362
2014-07-15 00:00:00,2014-07-15 00:00:00,TMP,surface,-94.6879,36.3778,282.063
2014-07-15 00:00:00,2014-07-15 00:00:00,TMP,surface,-93.7504,36.3778,281.629
2014-07-15 00:00:00,2014-07-15 00:00:00,TMP,surface,-92.8129,36.3778,281.636
2014-07-15 00:00:00,2014-07-15 00:00:00,PRATE,surface,-107.813,25.0393,0.0001191
2014-07-15 00:00:00,2014-07-15 00:00:00,PRATE,surface,-106.875,25.0393,0.000163
2014-07-15 00:00:00,2014-07-15 00:00:00,PRATE,surface,-105.938,25.0393,0.0001505
2014-07-15 00:00:00,2014-07-15 00:00:00,PRATE,surface,-105,25.0393,6.51e-05
2014-07-15 00:00:00,2014-07-15 00:00:00,PRATE,surface,-104.063,25.0393,2.1e-05
2014-07-15 00:00:00,2014-07-15 00:00:00,PRATE,surface,-103.125,25.0393,1.05e-05
2014-07-15 00:00:00,2014-07-15 00:00:00,PRATE,surface,-102.188,25.0393,1.4e-05
2014-07-15 00:00:00,2014-07-15 00:00:00,PRATE,surface,-101.25,25.0393,1.55e-05
2014-07-15 00:00:00,2014-07-15 00:00:00,PRATE,surface,-100.313,25.0393,1.99e-05
2014-07-15 00:00:00,2014-07-15 00:00:00,PRATE,surface,-99.3754,25.0393,2.44e-05
2014-07-15 00:00:00,2014-07-15 00:00:00,PRATE,surface,-98.4379,25.0393,1.93e-05
2014-07-15 00:00:00,2014-07-15 00:00:00,PRATE,surface,-97.5004,25.0393,4.56e-05
2014-07-15 00:00:00,2014-07-15 00:00:00,PRATE,surface,-96.5629,25.0393,9.15e-05
2014-07-15 00:00:00,2014-07-15 00:00:00,PRATE,surface,-95.6254,25.0393,8.7e-05
2014-07-15 00:00:00,2014-07-15 00:00:00,PRATE,surface,-94.6879,25.0393,8.76e-05
2014-07-15 00:00:00,2014-07-15 00:00:00,PRATE,surface,-93.7504,25.0393,5.26e-05
2014-07-15 00:00:00,2014-07-15 00:00:00,PRATE,surface,-92.8129,25.0393,4.8e-05
2014-07-15 00:00:00,2014-07-15 00:00:00,PRATE,surface,-107.813,25.9842,0.000149
2014-07-15 00:00:00,2014-07-15 00:00:00,PRATE,surface,-106.875,25.9842,0.0001421
2014-07-15 00:00:00,2014-07-15 00:00:00,PRATE,surface,-105.938,25.9842,8.63e-05
2014-07-15 00:00:00,2014-07-15 00:00:00,PRATE,surface,-105,25.9842,4.28e-05
2014-07-15 00:00:00,2014-07-15 00:00:00,PRATE,surface,-104.063,25.9842,1.86e-05
2014-07-15 00:00:00,2014-07-15 00:00:00,PRATE,surface,-103.125,25.9842,1.18e-05
2014-07-15 00:00:00,2014-07-15 00:00:00,PRATE,surface,-102.188,25.9842,1.75e-05
2014-07-15 00:00:00,2014-07-15 00:00:00,PRATE,surface,-101.25,25.9842,2.38e-05
2014-07-15 00:00:00,2014-07-15 00:00:00,PRATE,surface,-100.313,25.9842,2.22e-05
2014-07-15 00:00:00,2014-07-15 00:00:00,PRATE,surface,-99.3754,25.9842,2.38e-05
2014-07-15 00:00:00,2014-07-15 00:00:00,PRATE,surface,-98.4379,25.9842,2.02e-05
2014-07-15 00:00:00,2014-07-15 00:00:00,PRATE,surface,-97.5004,25.9842,4.55e-05
2014-07-15 00:00:00,2014-07-15 00:00:00,PRATE,surface,-96.5629,25.9842,0.0001207
2014-07-15 00:00:00,2014-07-15 00:00:00,PRATE,surface,-95.6254,25.9842,0.0001143
2014-07-15 00:00:00,2014-07-15 00:00:00,PRATE,surface,-94.6879,25.9842,8.54e-05
2014-07-15 00:00:00,2014-07-15 00:00:00,PRATE,surface,-93.7504,25.9842,4.2e-05
2014-07-15 00:00:00,2014-07-15 00:00:00,PRATE,surface,-92.8129,25.9842,3.89e-05
2014-07-15 00:00:00,2014-07-15 00:00:00,PRATE,surface,-107.813,26.929,0.0001563
2014-07-15 00:00:00,2014-07-15 00:00:00,PRATE,surface,-106.875,26.929,0.0001117
2014-07-15 00:00:00,2014-07-15 00:00:00,PRATE,surface,-105.938,26.929,5.81e-05
2014-07-15 00:00:00,2014-07-15 00:00:00,PRATE,surface,-105,26.929,3.82e-05
2014-07-15 00:00:00,2014-07-15 00:00:00,PRATE,surface,-104.063,26.929,2.71e-05
2014-07-15 00:00:00,2014-07-15 00:00:00,PRATE,surface,-103.125,26.929,3.04e-05
2014-07-15 00:00:00,2014-07-15 00:00:00,PRATE,surface,-102.188,26.929,4.05e-05
2014-07-15 00:00:00,2014-07-15 00:00:00,PRATE,surface,-101.25,26.929,3.89e-05
2014-07-15 00:00:00,2014-07-15 00:00:00,PRATE,surface,-100.313,26.929,3.46e-05
2014-07-15 00:00:00,2014-07-15 00:00:00,PRATE,surface,-99.3754,26.929,2.61e-05
2014-07-15 00:00:00,2014-07-15 00:00:00,PRATE,surface,-98.4379,26.929,4.16e-05
2014-07-15 00:00:00,2014-07-15 00:00:00,PRATE,surface,-97.5004,26.929,7.03e-05
2014-07-15 00:00:00,2014-07-15 00:00:00,PRATE,surface,-96.5629,26.929,9.53e-05
2014-07-15 00:00:00,2014-07-15 00:00:00,PRATE,surface,-95.6254,26.929,0.0001157
2014-07-15 00:00:00,2014-07-15 00:00:00,PRATE,surface,-94.6879,26.929,0.0001153
2014-07-15 00:00:00,2014-07-15 00:00:00,PRATE,surface,-93.7504,26.929,8.99e-05
2014-07-15 00:00:00,2014-07-15 00:00:00,PRATE,surface,-92.8129,26.929,6.35e-05
2014-07-15 00:00:00,2014-07-15 00:00:00,PRATE,surface,-107.813,27.8739,0.0001209
2014-07-15 00:00:00,2014-07-15 00:00:00,PRATE,surface,-106.875,27.8739,7.76e-05
2014-07-15 00:00:00,2014-07-15 00:00:00,PRATE,surface,-105.938,27.8739,4.25e-05
2014-07-15 00:00:00,2014-07-15 00:00:00,PRATE,surface,-105,27.8739,2.91e-05
2014-07-15 00:00:00,2014-07-15 00:00:00,PRATE,surface,-104.063,27.8739,3.69e-05
2014-07-15 00:00:00,2014-07-15 00:00:00,PRATE,surface,-103.125,27.8739,6.08e-05
2014-07-15 00:00:00,2014-07-15 00:00:00,PRATE,surface,-102.188,27.8739,6.63e-05
2014-07-15 00:00:00,2014-07-15 00:00:00,PRATE,surface,-101.25,27.8739,5.59e-05
2014-07-15 00:00:00,2014-07-15 00:00:00,PRATE,surface,-100.313,27.8739,4.49e-05
2014-07-15 00:00:00,2014-07-15 00:00:00,PRATE,surface,-99.3754,27.8739,4.04e-05
2014-07-15 00:00:00,2014-07-15 00:00:00,PRATE,surface,-98.4379,27.8739,4.83e-05
2014-07-15 00:00:00,2014-07-15 00:00:00,PRATE,surface,-97.5004,27.8739,7.01e-05
2014-07-15 00:00:00,2014-07-15 00:00:00,PRATE,surface,-96.5629,27.8739,7.91e-05
2014-07-15 00:00:00,2014-07-15 00:00:00,PRATE,surface,-95.6254,27.8739,8.09e-05
2014-07-15 00:00:00,2014-07-15 00:00:00,PRATE,surface,-94.6879,27.8739,0.0001014
2014-07-15 00:00:00,2014-07-15 00:00:00,PRATE,surface,-93.7504,27.8739,0.0001046
2014-07-15 00:00:00,2014-07-15 00:00:00,PRATE,surface,-92.8129,27.8739,8.18e-05
2014-07-15 00:00:00,2014-07-15 00:00:00,PRATE,surface,-107.813,28.8188,7.34e-05
2014-07-15 00:00:00,2014-07-15 00:00:00,PRATE,surface,-106.875,28.8188,5.25e-05
2014-07-15 00:00:00,2014-07-15 00:00:00,PRATE,surface,-105.938,28.8188,3.34e-05
2014-07-15 00:00:00,2014-07-15 00:00:00,PRATE,surface,-105,28.8188,2.25e-05
2014-07-15 00:00:00,2014-07-15 00:00:00,PRATE,surface,-104.063,28.8188,3.25e-05
2014-07-15 00:00:00,2014-07-15 00:00:00,PRATE,surface,-103.125,28.8188,5.91e-05
2014-07-15 00:00:00,2014-07-15 00:00:00,PRATE,surface,-102.188,28.8188,6.61e-05
2014-07-15 00:00:00,2014-07-15 00:00:00,PRATE,surface,-101.25,28.8188,6.26e-05
2014-07-15 00:00:00,2014-07-15 00:00:00,PRATE,surface,-100.313,28.8188,5.68e-05
2014-07-15 00:00:00,2014-07-15 00:00:00,PRATE,surface,-99.3754,28.8188,5.7e-05
2014-07-15 00:00:00,2014-07-15 00:00:00,PRATE,surface,-98.4379,28.8188,5.74e-05
2014-07-15 00:00:00,2014-07-15 00:00:00,PRATE,surface,-97.5004,28.8188,6.01e-05
2014-07-15 00:00:00,2014-07-15 00:00:00,PRATE,surface,-96.5629,28.8188,6.71e-05
2014-07-15 00:00:00,2014-07-15 00:00:00,PRATE,surface,-95.6254,28.8188,8.8e-05
2014-07-15 00:00:00,2014-07-15 00:00:00,PRATE,surface,-94.6879,28.8188,0.0001176
2014-07-15 00:00:00,2014-07-15 00:00:00,PRATE,surface,-93.7504,28.8188,0.0001211
2014-07-15 00:00:00,2014-07-15 00:00:00,PRATE,surface,-92.8129,28.8188,0.0001076
2014-07-15 00:00:00,2014-07-15 00:00:00,PRATE,surface,-107.813,29.7637,3.85e-05
2014-07-15 00:00:00,2014-07-15 00:00:00,PRATE,surface,-106.875,29.7637,3.43e-05
2014-07-15 00:00:00,2014-07-15 00:00:00,PRATE,surface,-105.938,29.7637,3.01e-05
2014-07-15 00:00:00,2014-07-15 00:00:00,PRATE,surface,-105,29.7637,2.57e-05
2014-07-15 00:00:00,2014-07-15 00:00:00,PRATE,surface,-104.063,29.7637,3.6e-05
2014-07-15 00:00:00,2014-07-15 00:00:00,PRATE,surface,-103.125,29.7637,4.08e-05
2014-07-15 00:00:00,2014-07-15 00:00:00,PRATE,surface,-102.188,29.7637,4.95e-05
2014-07-15 00:00:00,2014-07-15 00:00:00,PRATE,surface,-101.25,29.7637,5.86e-05
2014-07-15 00:00:00,2014-07-15 00:00:00,PRATE,surface,-100.313,29.7637,6.78e-05
2014-07-15 00:00:00,2014-07-15 00:00:00,PRATE,surface,-99.3754,29.7637,7.14e-05
2014-07-15 00:00:00,2014-07-15 00:00:00,PRATE,surface,-98.4379,29.7637,6.86e-05
2014-07-15 00:00:00,2014-07-15 00:00:00,PRATE,surface,-97.5004,29.7637,6.72e-05
2014-07-15 00:00:00,2014-07-15 00:00:00,PRATE,surface,-96.5629,29.7637,7.02e-05
2014-07-15 00:00:00,2014-07-15 00:00:00,PRATE,surface,-95.6254,29.7637,8.24e-05
2014-07-15 00:00:00,2014-07-15 00:00:00,PRATE,surface,-94.6879,29.7637,0.0001128
2014-07-15 00:00:00,2014-07-15 00:00:00,PRATE,surface,-93.7504,29.7637,0.0001367
2014-07-15 00:00:00,2014-07-15 00:00:00,PRATE,surface,-92.8129,29.7637,0.0001112
2014-07-15 00:00:00,2014-07-15 00:00:00,PRATE,surface,-107.813,30.7085,2.43e-05
2014-07-15 00:00:00,2014-07-15 00:00:00,PRATE,surface,-106.875,30.7085,2.57e-05
2014-07-15 00:00:00,2014-07-15 00:00:00,PRATE,surface,-105.938,30.7085,2.92e-05
2014-07-15 00:00:00,2014-07-15 00:00:00,PRATE,surface,-105,30.7085,3.29e-05
2014-07-15 00:00:00,2014-07-15 00:00:00,PRATE,surface,-104.063,30.7085,3.52e-05
2014-07-15 00:00:00,2014-07-15 00:00:00,PRATE,surface,-103.125,30.7085,3.53e-05
2014-07-15 00:00:00,2014-07-15 00:00:00,PRATE,surface,-102.188,30.7085,3.99e-05
2014-07-15 00:00:00,2014-07-15 00:00:00,PRATE,surface,-101.25,30.7085,4.96e-05
2014-07-15 00:00:00,2014-07-15 00:00:00,PRATE,surface,-100.313,30.7085,5.89e-05
2014-07-15 00:00:00,2014-07-15 00:00:00,PRATE,surface,-99.3754,30.7085,6.01e-05
2014-07-15 00:00:00,2014-07-15 00:00:00,PRATE,surface,-98.4379,30.7085,5.63e-05
2014-07-15 00:00:00,2014-07-15 00:00:00,PRATE,surface,-97.5004,30.7085,5.34e-05
2014-07-15 00:00:00,2014-07-15 00:00:00,PRATE,surface,-96.5629,30.7085,5.37e-05
2014-07-15 00:00:00,2014-07-15 00:00:00,PRATE,surface,-95.6254,30.7085,6.16e-05
2014-07-15 00:00:00,2014-07-15 00:00:00,PRATE,surface,-94.6879,30.7085,7.78e-05
2014-07-15 00:00:00,2014-07-15 00:00:00,PRATE,surface,-93.7504,30.7085,9.06e-05
2014-07-15 00:00:00,2014-07-15 00:00:00,PRATE,surface,-92.8129,30.7085,9.51e-05
2014-07-15 00:00:00,2014-07-15 00:00:00,PRATE,surface,-107.813,31.6534,2.14e-05
2014-07-15 00:00:00,2014-07-15 00:00:00,PRATE,surface,-106.875,31.6534,2.37e-05
2014-07-15 00:00:00,2014-07-15 00:00:00,PRATE,surface,-105.938,31.6534,2.77e-05
2014-07-15 00:00:00,2014-07-15 00:00:00,PRATE,surface,-105,31.6534,3.57e-05
2014-07-15 00:00:00,2014-07-15 00:00:00,PRATE,surface,-104.063,31.6534,3.86e-05
2014-07-15 00:00:00,2014-07-15 00:00:00,PRATE,surface,-103.125,31.6534,3.56e-05
2014-07-15 00:00:00,2014-07-15 00:00:00,PRATE,surface,-102.188,31.6534,3.91e-05
2014-07-15 00:00:00,2014-07-15 00:00:00,PRATE,surface,-101.25,31.6534,4.75e-05
2014-07-15 00:00:00,2014-07-15 00:00:00,PRATE,surface,-100.313,31.6534,5.28e-05
2014-07-15 00:00:00,2014-07-15 00:00:00,PRATE,surface,-99.3754,31.6534,4.87e-05
2014-07-15 00:00:00,2014-07-15 00:00:00,PRATE,surface,-98.4379,31.6534,4.4e-05
2014-07-15 00:00:00,2014-07-15 00:00:00,PRATE,surface,-97.5004,31.6534,4.29e-05
2014-07-15 00:00:00,2014-07-15 00:00:00,PRATE,surface,-96.5629,31.6534,4.37e-05
2014-07-15 00:00:00,2014-07-15 00:00:00,PRATE,surface,-95.6254,31.6534,4.96e-05
2014-07-15 00:00:00,2014-07-15 00:00:00,PRATE,surface,-94.6879,31.6534,6.21e-05
2014-07-15 00:00:00,2014-07-15 00:00:00,PRATE,surface,-93.7504,31.6534,7.34e-05
2014-07-15 00:00:00,2014-07-15 00:00:00,PRATE,surface,-92.8129,31.6534,7.82e-05
2014-07-15 00:00:00,2014-07-15 00:00:00,PRATE,surface,-107.813,32.5983,2.59e-05
2014-07-15 00:00:00,2014-07-15 00:00:00,PRATE,surface,-106.875,32.5983,2.74e-05
2014-07-15 00:00:00,2014-07-15 00:00:00,PRATE,surface,-105.938,32.5983,2.94e-05
2014-07-15 00:00:00,2014-07-15 00:00:00,PRATE,surface,-105,32.5983,3.81e-05
2014-07-15 00:00:00,2014-07-15 00:00:00,PRATE,surface,-104.063,32.5983,4.71e-05
2014-07-15 00:00:00,2014-07-15 00:00:00,PRATE,surface,-103.125,32.5983,4.01e-05
2014-07-15 00:00:00,2014-07-15 00:00:00,PRATE,surface,-102.188,32.5983,4.45e-05
2014-07-15 00:00:00,2014-07-15 00:00:00,PRATE,surface,-101.25,32.5983,5.28e-05
2014-07-15 00:00:00,2014-07-15 00:00:00,PRATE,surface,-100.313,32.5983,5.12e-05
2014-07-15 00:00:00,2014-07-15 00:00:00,PRATE,surface,-99.3754,32.5983,4.36e-05
2014-07-15 00:00:00,2014-07-15 00:00:00,PRATE,surface,-98.4379,32.5983,3.93e-05
2014-07-15 00:00:00,2014-07-15 00:00:00,PRATE,surface,-97.5004,32.5983,4.27e-05
2014-07-15 00:00:00,2014-07-15 00:00:00,PRATE,surface,-96.5629,32.5983,4.45e-05
2014-07-15 00:00:00,2014-07-15 00:00:00,PRATE,surface,-95.6254,32.5983,4.3e-05
2014-07-15 00:00:00,2014-07-15 00:00:00,PRATE,surface,-94.6879,32.5983,4.92e-05
2014-07-15 00:00:00,2014-07-15 00:00:00,PRATE,surface,-93.7504,32.5983,5.83e-05
2014-07-15 00:00:00,2014-07-15 00:00:00,PRATE,surface,-92.8129,32.5983,6.16e-05
2014-07-15 00:00:00,2014-07-15 00:00:00,PRATE,surface,-107.813,33.5432,3.51e-05
2014-07-15 00:00:00,2014-07-15 00:00:00,PRATE,surface,-106.875,33.5432,3e-05
2014-07-15 00:00:00,2014-07-15 00:00:00,PRATE,surface,-105.938,33.5432,2.96e-05
2014-07-15 00:00:00,2014-07-15 00:00:00,PRATE,surface,-105,33.5432,3.7e-05
2014-07-15 00:00:00,2014-07-15 00:00:00,PRATE,surface,-104.063,33.5432,5.51e-05
2014-07-15 00:00:00,2014-07-15 00:00:00,PRATE,surface,-103.125,33.5432,5.26e-05
2014-07-15 00:00:00,2014-07-15 00:00:00,PRATE,surface,-102.188,33.5432,5.42e-05
2014-07-15 00:00:00,2014-07-15 00:00:00,PRATE,surface,-101.25,33.5432,5.89e-05
2014-07-15 00:00:00,2014-07-15 00:00:00,PRATE,surface,-100.313,33.5432,5.01e-05
2014-07-15 00:00:00,2014-07-15 00:00:00,PRATE,surface,-99.3754,33.5432,3.95e-05
2014-07-15 00:00:00,2014-07-15 00:00:00,PRATE,surface,-98.4379,33.5432,3.62e-05
2014-07-15 00:00:00,2014-07-15 00:00:00,PRATE,surface,-97.5004,33.5432,4.27e-05
2014-07-15 00:00:00,2014-07-15 00:00:00,PRATE,surface,-96.5629,33.5432,4.85e-05
2014-07-15 00:00:00,2014-07-15 00:00:00,PRATE,surface,-95.6254,33.5432,4.79e-05
2014-07-15 00:00:00,2014-07-15 00:00:00,PRATE,surface,-94.6879,33.5432,4.88e-05
2014-07-15 00:00:00,2014-07-15 00:00:00,PRATE,surface,-93.7504,33.5432,5.14e-05
2014-07-15 00:00:00,2014-07-15 00:00:00,PRATE,surface,-92.8129,33.5432,5.22e-05
2014-07-15 00:00:00,2014-07-15 00:00:00,PRATE,surface,-107.813,34.4881,3.02e-05
2014-07-15 00:00:00,2014-07-15 00:00:00,PRATE,surface,-106.875,34.4881,2.39e-05
2014-07-15 00:00:00,2014-07-15 00:00:00,PRATE,surface,-105.938,34.4881,2.69e-05
2014-07-15 00:00:00,2014-07-15 00:00:00,PRATE,surface,-105,34.4881,3.87e-05
2014-07-15 00:00:00,2014-07-15 00:00:00,PRATE,surface,-104.063,34.4881,6.01e-05
2014-07-15 00:00:00,2014-07-15 00:00:00,PRATE,surface,-103.125,34.4881,6.72e-05
2014-07-15 00:00:00,2014-07-15 00:00:00,PRATE,surface,-102.188,34.4881,6.18e-05
2014-07-15 00:00:00,2014-07-15 00:00:00,PRATE,surface,-101.25,34.4881,6.27e-05
2014-07-15 00:00:00,2014-07-15 00:00:00,PRATE,surface,-100.313,34.4881,5.56e-05
2014-07-15 00:00:00,2014-07-15 00:00:00,PRATE,surface,-99.3754,34.4881,4.61e-05
2014-07-15 00:00:00,2014-07-15 00:00:00,PRATE,surface,-98.4379,34.4881,4.05e-05
2014-07-15 00:00:00,2014-07-15 00:00:00,PRATE,surface,-97.5004,34.4881,4.01e-05
2014-07-15 00:00:00,2014-07-15 00:00:00,PRATE,surface,-96.5629,34.4881,4.45e-05
2014-07-15 00:00:00,2014-07-15 00:00:00,PRATE,surface,-95.6254,34.4881,5.18e-05
2014-07-15 00:00:00,2014-07-15 00:00:00,PRATE,surface,-94.6879,34.4881,5.69e-05
2014-07-15 00:00:00,2014-07-15 00:00:00,PRATE,surface,-93.7504,34.4881,5.55e-05
2014-07-15 00:00:00,2014-07-15 00:00:00,PRATE,surface,-92.8129,34.4881,5.31e-05
2014-07-15 00:00:00,2014-07-15 00:00:00,PRATE,surface,-107.813,35.4329,2.64e-05
2014-07-15 00:00:00,2014-07-15 00:00:00,PRATE,surface,-106.875,35.4329,2.19e-05
2014-07-15 00:00:00,2014-07-15 00:00:00,PRATE,surface,-105.938,35.4329,2.51e-05
2014-07-15 00:00:00,2014-07-15 00:00:00,PRATE,surface,-105,35.4329,3.85e-05
2014-07-15 00:00:00,2014-07-15 00:00:00,PRATE,surface,-104.063,35.4329,6.04e-05
2014-07-15 00:00:00,2014-07-15 00:00:00,PRATE,surface,-103.125,35.4329,6.58e-05
2014-07-15 00:00:00,2014-07-15 00:00:00,PRATE,surface,-102.188,35.4329,6.48e-05
2014-07-15 00:00:00,2014-07-15 00:00:00,PRATE,surface,-101.25,35.4329,6.36e-05
2014-07-15 00:00:00,2014-07-15 00:00:00,PRATE,surface,-100.313,35.4329,5.62e-05
2014-07-15 00:00:00,2014-07-15 00:00:00,PRATE,surface,-99.3754,35.4329,4.74e-05
2014-07-15 00:00:00,2014-07-15 00:00:00,PRATE,surface,-98.4379,35.4329,4.1e-05
2014-07-15 00:00:00,2014-07-15 00:00:00,PRATE,surface,-97.5004,35.4329,3.64e-05
2014-07-15 00:00:00,2014-07-15 00:00:00,PRATE,surface,-96.5629,35.4329,3.61e-05
2014-07-15 00:00:00,2014-07-15 00:00:00,PRATE,surface,-95.6254,35.4329,4.42e-05
2014-07-15 00:00:00,2014-07-15 00:00:00,PRATE,surface,-94.6879,35.4329,5.46e-05
2014-07-15 00:00:00,2014-07-15 00:00:00,PRATE,surface,-93.7504,35.4329,5.63e-05
2014-07-15 00:00:00,2014-07-15 00:00:00,PRATE,surface,-92.8129,35.4329,5.49e-05
2014-07-15 00:00:00,2014-07-15 00:00:00,PRATE,surface,-107.813,36.3778,3.44e-05
2014-07-15 00:00:00,2014-07-15 00:00:00,PRATE,surface,-106.875,36.3778,3.36e-05
2014-07-15 00:00:00,2014-07-15 00:00:00,PRATE,surface,-105.938,36.3778,2.99e-05
2014-07-15 00:00:00,2014-07-15 00:00:00,PRATE,surface,-105,36.3778,3.88e-05
2014-07-15 00:00:00,2014-07-15 00:00:00,PRATE,surface,-104.063,36.3778,5.82e-05
2014-07-15 00:00:00,2014-07-15 00:00:00,PRATE,surface,-103.125,36.3778,6.57e-05
2014-07-15 00:00:00,2014-07-15 00:00:00,PRATE,surface,-102.188,36.3778,6.53e-05
2014-07-15 00:00:00,2014-07-15 00:00:00,PRATE,surface,-101.25,36.3778,6.43e-05
2014-07-15 00:00:00,2014-07-15 00:00:00,PRATE,surface,-100.313,36.3778,5.94e-05
2014-07-15 00:00:00,2014-07-15 00:00:00,PRATE,surface,-99.3754,36.3778,5e-05
2014-07-15 00:00:00,2014-07-15 00:00:00,PRATE,surface,-98.4379,36.3778,3.96e-05
2014-07-15 00:00:00,2014-07-15 00:00:00,PRATE,surface,-97.5004,36.3778,3.18e-05
2014-07-15 00:00:00,2014-07-15 00:00:00,PRATE,surface,-96.5629,36.3778,2.77e-05
2014-07-15 00:00:00,2014-07-15 00:00:00,PRATE,surface,-95.6254,36.3778,3.07e-05
2014-07-15 00:00:00,2014-07-15 00:00:00,PRATE,surface,-94.6879,36.3778,4.14e-05
2014-07-15 00:00:00,2014-07-15 00:00:00,PRATE,surface,-93.7504,36.3778,4.85e-05
2014-07-15 00:00:00,2014-07-15 00:00:00,PRATE,surface,-92.8129,36.3778,4.83e-05
