2012-08-13 00:00:00,2012-08-13 00:00:00,TMP,surface,-107.813,25.0393,302.17
2012-08-13 00:00:00,2012-08-13 00:00:00,TMP,surface,-106.875,25.0393,295.626
2012-08-13 00:00:00,2012-08-13 00:00:00,TMP,surface,-105.938,25.0393,290.17
2012-08-13 00:00:00,2012-08-13 00:00:00,TMP,surface,-105,25.0393,287.725
2012-08-13 00:00:00,2012-08-13 00:00:00,TMP,surface,-104.063,25.0393,290.912
2012-08-13 00:00:00,2012-08-13 00:00:00,TMP,surface,-103.125,25.0393,293.949
2012-08-13 00:00:00,2012-08-13 00:00:00,TMP,surface,-102.188,25.0393,293.587
2012-08-13 00:00:00,2012-08-13 00:00:00,TMP,surface,-101.25,25.0393,291.453
2012-08-13 00:00:00,2012-08-13 00:00:00,TMP,surface,-100.313,25.0393,292.243
2012-08-13 00:00:00,2012-08-13 00:00:00,TMP,surface,-99.3754,25.0393,296.307
2012-08-13 00:00:00,2012-08-13 00:00:00,TMP,surface,-98.4379,25.0393,300.192
2012-08-13 00:00:00,2012-08-13 00:00:00,TMP,surface,-97.5004,25.0393,303.066
2012-08-13 00:00:00,2012-08-13 00:00:00,TMP,surface,-96.5629,25.0393,303.52
2012-08-13 00:00:00,2012-08-13 00:00:00,TMP,surface,-95.6254,25.0393,303.773
2012-08-13 00:00:00,2012-08-13 00:00:00,TMP,surface,-94.6879,25.0393,303.926
2012-08-13 00:00:00,2012-08-13 00:00:00,TMP,surface,-93.7504,25.0393,303.859
2012-08-13 00:00:00,2012-08-13 00:00:00,TMP,surface,-92.8129,25.0393,303.76
2012-08-13 00:00:00,2012-08-13 00:00:00,TMP,surface,-107.813,25.9842,297.062
2012-08-13 00:00:00,2012-08-13 00:00:00,TMP,surface,-106.875,25.9842,291.843
2012-08-13 00:00:00,2012-08-13 00:00:00,TMP,surface,-105.938,25.9842,288.515
2012-08-13 00:00:00,2012-08-13 00:00:00,TMP,surface,-105,25.9842,289.248
2012-08-13 00:00:00,2012-08-13 00:00:00,TMP,surface,-104.063,25.9842,294.048
2012-08-13 00:00:00,2012-08-13 00:00:00,TMP,surface,-103.125,25.9842,296.208
2012-08-13 00:00:00,2012-08-13 00:00:00,TMP,surface,-102.188,25.9842,295.469
2012-08-13 00:00:00,2012-08-13 00:00:00,TMP,surface,-101.25,25.9842,294.534
2012-08-13 00:00:00,2012-08-13 00:00:00,TMP,surface,-100.313,25.9842,295.344
2012-08-13 00:00:00,2012-08-13 00:00:00,TMP,surface,-99.3754,25.9842,298.848
2012-08-13 00:00:00,2012-08-13 00:00:00,TMP,surface,-98.4379,25.9842,301.002
2012-08-13 00:00:00,2012-08-13 00:00:00,TMP,surface,-97.5004,25.9842,301.216
2012-08-13 00:00:00,2012-08-13 00:00:00,TMP,surface,-96.5629,25.9842,303.056
2012-08-13 00:00:00,2012-08-13 00:00:00,TMP,surface,-95.6254,25.9842,303.446
2012-08-13 00:00:00,2012-08-13 00:00:00,TMP,surface,-94.6879,25.9842,303.597
2012-08-13 00:00:00,2012-08-13 00:00:00,TMP,surface,-93.7504,25.9842,303.67
2012-08-13 00:00:00,2012-08-13 00:00:00,TMP,surface,-92.8129,25.9842,303.734
2012-08-13 00:00:00,2012-08-13 00:00:00,TMP,surface,-107.813,26.929,292.947
2012-08-13 00:00:00,2012-08-13 00:00:00,TMP,surface,-106.875,26.929,289.2
2012-08-13 00:00:00,2012-08-13 00:00:00,TMP,surface,-105.938,26.929,289.216
2012-08-13 00:00:00,2012-08-13 00:00:00,TMP,surface,-105,26.929,292.749
2012-08-13 00:00:00,2012-08-13 00:00:00,TMP,surface,-104.063,26.929,295.674
2012-08-13 00:00:00,2012-08-13 00:00:00,TMP,surface,-103.125,26.929,295.382
2012-08-13 00:00:00,2012-08-13 00:00:00,TMP,surface,-102.188,26.929,295.274
2012-08-13 00:00:00,2012-08-13 00:00:00,TMP,surface,-101.25,26.929,296.432
2012-08-13 00:00:00,2012-08-13 00:00:00,TMP,surface,-100.313,26.929,298.656
2012-08-13 00:00:00,2012-08-13 00:00:00,TMP,surface,-99.3754,26.929,300.49
2012-08-13 00:00:00,2012-08-13 00:00:00,TMP,surface,-98.4379,26.929,300.202
2012-08-13 00:00:00,2012-08-13 00:00:00,TMP,surface,-97.5004,26.929,301.878
2012-08-13 00:00:00,2012-08-13 00:00:00,TMP,surface,-96.5629,26.929,302.557
2012-08-13 00:00:00,2012-08-13 00:00:00,TMP,surface,-95.6254,26.929,303.139
2012-08-13 00:00:00,2012-08-13 00:00:00,TMP,surface,-94.6879,26.929,303.398
2012-08-13 00:00:00,2012-08-13 00:00:00,TMP,surface,-93.7504,26.929,303.402
2012-08-13 00:00:00,2012-08-13 00:00:00,TMP,surface,-92.8129,26.929,303.395
2012-08-13 00:00:00,2012-08-13 00:00:00,TMP,surface,-107.813,27.8739,290.557
2012-08-13 00:00:00,2012-08-13 00:00:00,TMP,surface,-106.875,27.8739,288.563
2012-08-13 00:00:00,2012-08-13 00:00:00,TMP,surface,-105.938,27.8739,290.941
2012-08-13 00:00:00,2012-08-13 00:00:00,TMP,surface,-105,27.8739,294.992
2012-08-13 00:00:00,2012-08-13 00:00:00,TMP,surface,-104.063,27.8739,295.933
2012-08-13 00:00:00,2012-08-13 00:00:00,TMP,surface,-103.125,27.8739,294.829
2012-08-13 00:00:00,2012-08-13 00:00:00,TMP,surface,-102.188,27.8739,294.739
2012-08-13 00:00:00,2012-08-13 00:00:00,TMP,surface,-101.25,27.8739,297.309
2012-08-13 00:00:00,2012-08-13 00:00:00,TMP,surface,-100.313,27.8739,299.971
2012-08-13 00:00:00,2012-08-13 00:00:00,TMP,surface,-99.3754,27.8739,300.445
2012-08-13 00:00:00,2012-08-13 00:00:00,TMP,surface,-98.4379,27.8739,300.045
2012-08-13 00:00:00,2012-08-13 00:00:00,TMP,surface,-97.5004,27.8739,301.13
2012-08-13 00:00:00,2012-08-13 00:00:00,TMP,surface,-96.5629,27.8739,302.496
2012-08-13 00:00:00,2012-08-13 00:00:00,TMP,surface,-95.6254,27.8739,302.765
2012-08-13 00:00:00,2012-08-13 00:00:00,TMP,surface,-94.6879,27.8739,302.979
2012-08-13 00:00:00,2012-08-13 00:00:00,TMP,surface,-93.7504,27.8739,303.075
2012-08-13 00:00:00,2012-08-13 00:00:00,TMP,surface,-92.8129,27.8739,303.011
2012-08-13 00:00:00,2012-08-13 00:00:00,TMP,surface,-107.813,28.8188,289.168
2012-08-13 00:00:00,2012-08-13 00:00:00,TMP,surface,-106.875,28.8188,289.405
2012-08-13 00:00:00,2012-08-13 00:00:00,TMP,surface,-105.938,28.8188,293.251
2012-08-13 00:00:00,2012-08-13 00:00:00,TMP,surface,-105,28.8188,296.186
2012-08-13 00:00:00,2012-08-13 00:00:00,TMP,surface,-104.063,28.8188,295.514
2012-08-13 00:00:00,2012-08-13 00:00:00,TMP,surface,-103.125,28.8188,294.694
2012-08-13 00:00:00,2012-08-13 00:00:00,TMP,surface,-102.188,28.8188,294.928
2012-08-13 00:00:00,2012-08-13 00:00:00,TMP,surface,-101.25,28.8188,297.482
2012-08-13 00:00:00,2012-08-13 00:00:00,TMP,surface,-100.313,28.8188,299.245
2012-08-13 00:00:00,2012-08-13 00:00:00,TMP,surface,-99.3754,28.8188,299.229
2012-08-13 00:00:00,2012-08-13 00:00:00,TMP,surface,-98.4379,28.8188,298.96
2012-08-13 00:00:00,2012-08-13 00:00:00,TMP,surface,-97.5004,28.8188,299.149
2012-08-13 00:00:00,2012-08-13 00:00:00,TMP,surface,-96.5629,28.8188,299.578
2012-08-13 00:00:00,2012-08-13 00:00:00,TMP,surface,-95.6254,28.8188,300.774
2012-08-13 00:00:00,2012-08-13 00:00:00,TMP,surface,-94.6879,28.8188,302.41
2012-08-13 00:00:00,2012-08-13 00:00:00,TMP,surface,-93.7504,28.8188,302.72
2012-08-13 00:00:00,2012-08-13 00:00:00,TMP,surface,-92.8129,28.8188,302.774
2012-08-13 00:00:00,2012-08-13 00:00:00,TMP,surface,-107.813,29.7637,291.331
2012-08-13 00:00:00,2012-08-13 00:00:00,TMP,surface,-106.875,29.7637,292.768
2012-08-13 00:00:00,2012-08-13 00:00:00,TMP,surface,-105.938,29.7637,295.318
2012-08-13 00:00:00,2012-08-13 00:00:00,TMP,surface,-105,29.7637,296.243
2012-08-13 00:00:00,2012-08-13 00:00:00,TMP,surface,-104.063,29.7637,295.974
2012-08-13 00:00:00,2012-08-13 00:00:00,TMP,surface,-103.125,29.7637,295.878
2012-08-13 00:00:00,2012-08-13 00:00:00,TMP,surface,-102.188,29.7637,297.024
2012-08-13 00:00:00,2012-08-13 00:00:00,TMP,surface,-101.25,29.7637,297.888
2012-08-13 00:00:00,2012-08-13 00:00:00,TMP,surface,-100.313,29.7637,297.603
2012-08-13 00:00:00,2012-08-13 00:00:00,TMP,surface,-99.3754,29.7637,297.178
2012-08-13 00:00:00,2012-08-13 00:00:00,TMP,surface,-98.4379,29.7637,297.488
2012-08-13 00:00:00,2012-08-13 00:00:00,TMP,surface,-97.5004,29.7637,298.189
2012-08-13 00:00:00,2012-08-13 00:00:00,TMP,surface,-96.5629,29.7637,298.624
2012-08-13 00:00:00,2012-08-13 00:00:00,TMP,surface,-95.6254,29.7637,298.758
2012-08-13 00:00:00,2012-08-13 00:00:00,TMP,surface,-94.6879,29.7637,300.013
2012-08-13 00:00:00,2012-08-13 00:00:00,TMP,surface,-93.7504,29.7637,301.773
2012-08-13 00:00:00,2012-08-13 00:00:00,TMP,surface,-92.8129,29.7637,299.05
2012-08-13 00:00:00,2012-08-13 00:00:00,TMP,surface,-107.813,30.7085,295.498
2012-08-13 00:00:00,2012-08-13 00:00:00,TMP,surface,-106.875,30.7085,296.566
2012-08-13 00:00:00,2012-08-13 00:00:00,TMP,surface,-105.938,30.7085,296.598
2012-08-13 00:00:00,2012-08-13 00:00:00,TMP,surface,-105,30.7085,296.403
2012-08-13 00:00:00,2012-08-13 00:00:00,TMP,surface,-104.063,30.7085,295.536
2012-08-13 00:00:00,2012-08-13 00:00:00,TMP,surface,-103.125,30.7085,296.662
2012-08-13 00:00:00,2012-08-13 00:00:00,TMP,surface,-102.188,30.7085,297.667
2012-08-13 00:00:00,2012-08-13 00:00:00,TMP,surface,-101.25,30.7085,297.574
2012-08-13 00:00:00,2012-08-13 00:00:00,TMP,surface,-100.313,30.7085,296.915
2012-08-13 00:00:00,2012-08-13 00:00:00,TMP,surface,-99.3754,30.7085,296.563
2012-08-13 00:00:00,2012-08-13 00:00:00,TMP,surface,-98.4379,30.7085,297.184
2012-08-13 00:00:00,2012-08-13 00:00:00,TMP,surface,-97.5004,30.7085,298.154
2012-08-13 00:00:00,2012-08-13 00:00:00,TMP,surface,-96.5629,30.7085,298.822
2012-08-13 00:00:00,2012-08-13 00:00:00,TMP,surface,-95.6254,30.7085,299.011
2012-08-13 00:00:00,2012-08-13 00:00:00,TMP,surface,-94.6879,30.7085,298.79
2012-08-13 00:00:00,2012-08-13 00:00:00,TMP,surface,-93.7504,30.7085,298.589
2012-08-13 00:00:00,2012-08-13 00:00:00,TMP,surface,-92.8129,30.7085,298.122
2012-08-13 00:00:00,2012-08-13 00:00:00,TMP,surface,-107.813,31.6534,297.379
2012-08-13 00:00:00,2012-08-13 00:00:00,TMP,surface,-106.875,31.6534,297.722
2012-08-13 00:00:00,2012-08-13 00:00:00,TMP,surface,-105.938,31.6534,296.71
2012-08-13 00:00:00,2012-08-13 00:00:00,TMP,surface,-105,31.6534,296.378
2012-08-13 00:00:00,2012-08-13 00:00:00,TMP,surface,-104.063,31.6534,296.602
2012-08-13 00:00:00,2012-08-13 00:00:00,TMP,surface,-103.125,31.6534,297.277
2012-08-13 00:00:00,2012-08-13 00:00:00,TMP,surface,-102.188,31.6534,297.539
2012-08-13 00:00:00,2012-08-13 00:00:00,TMP,surface,-101.25,31.6534,297.341
2012-08-13 00:00:00,2012-08-13 00:00:00,TMP,surface,-100.313,31.6534,297.171
2012-08-13 00:00:00,2012-08-13 00:00:00,TMP,surface,-99.3754,31.6534,297.267
2012-08-13 00:00:00,2012-08-13 00:00:00,TMP,surface,-98.4379,31.6534,297.712
2012-08-13 00:00:00,2012-08-13 00:00:00,TMP,surface,-97.5004,31.6534,298.474
2012-08-13 00:00:00,2012-08-13 00:00:00,TMP,surface,-96.5629,31.6534,299.149
2012-08-13 00:00:00,2012-08-13 00:00:00,TMP,surface,-95.6254,31.6534,299.216
2012-08-13 00:00:00,2012-08-13 00:00:00,TMP,surface,-94.6879,31.6534,298.806
2012-08-13 00:00:00,2012-08-13 00:00:00,TMP,surface,-93.7504,31.6534,298.461
2012-08-13 00:00:00,2012-08-13 00:00:00,TMP,surface,-92.8129,31.6534,298.016
2012-08-13 00:00:00,2012-08-13 00:00:00,TMP,surface,-107.813,32.5983,294.867
2012-08-13 00:00:00,2012-08-13 00:00:00,TMP,surface,-106.875,32.5983,295.146
2012-08-13 00:00:00,2012-08-13 00:00:00,TMP,surface,-105.938,32.5983,295.466
2012-08-13 00:00:00,2012-08-13 00:00:00,TMP,surface,-105,32.5983,295.642
2012-08-13 00:00:00,2012-08-13 00:00:00,TMP,surface,-104.063,32.5983,296.573
2012-08-13 00:00:00,2012-08-13 00:00:00,TMP,surface,-103.125,32.5983,297.066
2012-08-13 00:00:00,2012-08-13 00:00:00,TMP,surface,-102.188,32.5983,297.04
2012-08-13 00:00:00,2012-08-13 00:00:00,TMP,surface,-101.25,32.5983,297.062
2012-08-13 00:00:00,2012-08-13 00:00:00,TMP,surface,-100.313,32.5983,297.869
2012-08-13 00:00:00,2012-08-13 00:00:00,TMP,surface,-99.3754,32.5983,298.339
2012-08-13 00:00:00,2012-08-13 00:00:00,TMP,surface,-98.4379,32.5983,298.317
2012-08-13 00:00:00,2012-08-13 00:00:00,TMP,surface,-97.5004,32.5983,298.435
2012-08-13 00:00:00,2012-08-13 00:00:00,TMP,surface,-96.5629,32.5983,298.931
2012-08-13 00:00:00,2012-08-13 00:00:00,TMP,surface,-95.6254,32.5983,299.197
2012-08-13 00:00:00,2012-08-13 00:00:00,TMP,surface,-94.6879,32.5983,298.858
2012-08-13 00:00:00,2012-08-13 00:00:00,TMP,surface,-93.7504,32.5983,298.522
2012-08-13 00:00:00,2012-08-13 00:00:00,TMP,surface,-92.8129,32.5983,298.301
2012-08-13 00:00:00,2012-08-13 00:00:00,TMP,surface,-107.813,33.5432,291.267
2012-08-13 00:00:00,2012-08-13 00:00:00,TMP,surface,-106.875,33.5432,292.566
2012-08-13 00:00:00,2012-08-13 00:00:00,TMP,surface,-105.938,33.5432,293.398
2012-08-13 00:00:00,2012-08-13 00:00:00,TMP,surface,-105,33.5432,294.835
2012-08-13 00:00:00,2012-08-13 00:00:00,TMP,surface,-104.063,33.5432,296.323
2012-08-13 00:00:00,2012-08-13 00:00:00,TMP,surface,-103.125,33.5432,296.371
2012-08-13 00:00:00,2012-08-13 00:00:00,TMP,surface,-102.188,33.5432,295.878
2012-08-13 00:00:00,2012-08-13 00:00:00,TMP,surface,-101.25,33.5432,296.307
2012-08-13 00:00:00,2012-08-13 00:00:00,TMP,surface,-100.313,33.5432,297.878
2012-08-13 00:00:00,2012-08-13 00:00:00,TMP,surface,-99.3754,33.5432,298.733
2012-08-13 00:00:00,2012-08-13 00:00:00,TMP,surface,-98.4379,33.5432,298.538
2012-08-13 00:00:00,2012-08-13 00:00:00,TMP,surface,-97.5004,33.5432,298.099
2012-08-13 00:00:00,2012-08-13 00:00:00,TMP,surface,-96.5629,33.5432,298.029
2012-08-13 00:00:00,2012-08-13 00:00:00,TMP,surface,-95.6254,33.5432,298.445
2012-08-13 00:00:00,2012-08-13 00:00:00,TMP,surface,-94.6879,33.5432,298.81
2012-08-13 00:00:00,2012-08-13 00:00:00,TMP,surface,-93.7504,33.5432,298.477
2012-08-13 00:00:00,2012-08-13 00:00:00,TMP,surface,-92.8129,33.5432,298.045
2012-08-13 00:00:00,2012-08-13 00:00:00,TMP,surface,-107.813,34.4881,290.576
2012-08-13 00:00:00,2012-08-13 00:00:00,TMP,surface,-106.875,34.4881,292.032
2012-08-13 00:00:00,2012-08-13 00:00:00,TMP,surface,-105.938,34.4881,292.723
2012-08-13 00:00:00,2012-08-13 00:00:00,TMP,surface,-105,34.4881,294.122
2012-08-13 00:00:00,2012-08-13 00:00:00,TMP,surface,-104.063,34.4881,295.181
2012-08-13 00:00:00,2012-08-13 00:00:00,TMP,surface,-103.125,34.4881,295.446
2012-08-13 00:00:00,2012-08-13 00:00:00,TMP,surface,-102.188,34.4881,295.325
2012-08-13 00:00:00,2012-08-13 00:00:00,TMP,surface,-101.25,34.4881,295.946
2012-08-13 00:00:00,2012-08-13 00:00:00,TMP,surface,-100.313,34.4881,297.293
2012-08-13 00:00:00,2012-08-13 00:00:00,TMP,surface,-99.3754,34.4881,298.099
2012-08-13 00:00:00,2012-08-13 00:00:00,TMP,surface,-98.4379,34.4881,297.853
2012-08-13 00:00:00,2012-08-13 00:00:00,TMP,surface,-97.5004,34.4881,297.194
2012-08-13 00:00:00,2012-08-13 00:00:00,TMP,surface,-96.5629,34.4881,297.398
2012-08-13 00:00:00,2012-08-13 00:00:00,TMP,surface,-95.6254,34.4881,298.035
2012-08-13 00:00:00,2012-08-13 00:00:00,TMP,surface,-94.6879,34.4881,297.712
2012-08-13 00:00:00,2012-08-13 00:00:00,TMP,surface,-93.7504,34.4881,297.181
2012-08-13 00:00:00,2012-08-13 00:00:00,TMP,surface,-92.8129,34.4881,297.043
2012-08-13 00:00:00,2012-08-13 00:00:00,TMP,surface,-107.813,35.4329,291.696
2012-08-13 00:00:00,2012-08-13 00:00:00,TMP,surface,-106.875,35.4329,291.834
2012-08-13 00:00:00,2012-08-13 00:00:00,TMP,surface,-105.938,35.4329,291.322
2012-08-13 00:00:00,2012-08-13 00:00:00,TMP,surface,-105,35.4329,291.632
2012-08-13 00:00:00,2012-08-13 00:00:00,TMP,surface,-104.063,35.4329,293.824
2012-08-13 00:00:00,2012-08-13 00:00:00,TMP,surface,-103.125,35.4329,295.146
2012-08-13 00:00:00,2012-08-13 00:00:00,TMP,surface,-102.188,35.4329,295.795
2012-08-13 00:00:00,2012-08-13 00:00:00,TMP,surface,-101.25,35.4329,296.144
2012-08-13 00:00:00,2012-08-13 00:00:00,TMP,surface,-100.313,35.4329,296.47
2012-08-13 00:00:00,2012-08-13 00:00:00,TMP,surface,-99.3754,35.4329,297.11
2012-08-13 00:00:00,2012-08-13 00:00:00,TMP,surface,-98.4379,35.4329,297.251
2012-08-13 00:00:00,2012-08-13 00:00:00,TMP,surface,-97.5004,35.4329,296.883
2012-08-13 00:00:00,2012-08-13 00:00:00,TMP,surface,-96.5629,35.4329,296.605
2012-08-13 00:00:00,2012-08-13 00:00:00,TMP,surface,-95.6254,35.4329,296.701
2012-08-13 00:00:00,2012-08-13 00:00:00,TMP,surface,-94.6879,35.4329,296.733
2012-08-13 00:00:00,2012-08-13 00:00:00,TMP,surface,-93.7504,35.4329,296.064
2012-08-13 00:00:00,2012-08-13 00:00:00,TMP,surface,-92.8129,35.4329,295.6
2012-08-13 00:00:00,2012-08-13 00:00:00,TMP,surface,-107.813,36.3778,291.642
2012-08-13 00:00:00,2012-08-13 00:00:00,TMP,surface,-106.875,36.3778,289.142
2012-08-13 00:00:00,2012-08-13 00:00:00,TMP,surface,-105.938,36.3778,288.899
2012-08-13 00:00:00,2012-08-13 00:00:00,TMP,surface,-105,36.3778,289.034
2012-08-13 00:00:00,2012-08-13 00:00:00,TMP,surface,-104.063,36.3778,291.709
2012-08-13 00:00:00,2012-08-13 00:00:00,TMP,surface,-103.125,36.3778,293.702
2012-08-13 00:00:00,2012-08-13 00:00:00,TMP,surface,-102.188,36.3778,294.992
2012-08-13 00:00:00,2012-08-13 00:00:00,TMP,surface,-101.25,36.3778,295.677
2012-08-13 00:00:00,2012-08-13 00:00:00,TMP,surface,-100.313,36.3778,296.157
2012-08-13 00:00:00,2012-08-13 00:00:00,TMP,surface,-99.3754,36.3778,296.461
2012-08-13 00:00:00,2012-08-13 00:00:00,TMP,surface,-98.4379,36.3778,296.678
2012-08-13 00:00:00,2012-08-13 00:00:00,TMP,surface,-97.5004,36.3778,296.48
2012-08-13 00:00:00,2012-08-13 00:00:00,TMP,surface,-96.5629,36.3778,296.086
2012-08-13 00:00:00,2012-08-13 00:00:00,TMP,surface,-95.6254,36.3778,296.035
2012-08-13 00:00:00,2012-08-13 00:00:00,TMP,surface,-94.6879,36.3778,295.808
2012-08-13 00:00:00,2012-08-13 00:00:00,TMP,surface,-93.7504,36.3778,294.867
2012-08-13 00:00:00,2012-08-13 00:00:00,TMP,surface,-92.8129,36.3778,294.352
2012-08-13 00:00:00,2012-08-13 00:00:00,PRATE,surface,-107.813,25.0393,9e-07
2012-08-13 00:00:00,2012-08-13 00:00:00,PRATE,surface,-106.875,25.0393,6.31e-05
2012-08-13 00:00:00,2012-08-13 00:00:00,PRATE,surface,-105.938,25.0393,9.86e-05
2012-08-13 00:00:00,2012-08-13 00:00:00,PRATE,surface,-105,25.0393,8.63e-05
2012-08-13 00:00:00,2012-08-13 00:00:00,PRATE,surface,-104.063,25.0393,3.85e-05
2012-08-13 00:00:00,2012-08-13 00:00:00,PRATE,surface,-103.125,25.0393,1.21e-05
2012-08-13 00:00:00,2012-08-13 00:00:00,PRATE,surface,-102.188,25.0393,2.39e-05
2012-08-13 00:00:00,2012-08-13 00:00:00,PRATE,surface,-101.25,25.0393,5.27e-05
2012-08-13 00:00:00,2012-08-13 00:00:00,PRATE,surface,-100.313,25.0393,0.0001085
2012-08-13 00:00:00,2012-08-13 00:00:00,PRATE,surface,-99.3754,25.0393,0.0001182
2012-08-13 00:00:00,2012-08-13 00:00:00,PRATE,surface,-98.4379,25.0393,9.4e-05
2012-08-13 00:00:00,2012-08-13 00:00:00,PRATE,surface,-97.5004,25.0393,9.14e-05
2012-08-13 00:00:00,2012-08-13 00:00:00,PRATE,surface,-96.5629,25.0393,0.0001157
2012-08-13 00:00:00,2012-08-13 00:00:00,PRATE,surface,-95.6254,25.0393,0.0001403
2012-08-13 00:00:00,2012-08-13 00:00:00,PRATE,surface,-94.6879,25.0393,0.0001103
2012-08-13 00:00:00,2012-08-13 00:00:00,PRATE,surface,-93.7504,25.0393,0.0001283
2012-08-13 00:00:00,2012-08-13 00:00:00,PRATE,surface,-92.8129,25.0393,0.0001474
2012-08-13 00:00:00,2012-08-13 00:00:00,PRATE,surface,-107.813,25.9842,1.43e-05
2012-08-13 00:00:00,2012-08-13 00:00:00,PRATE,surface,-106.875,25.9842,6.29e-05
2012-08-13 00:00:00,2012-08-13 00:00:00,PRATE,surface,-105.938,25.9842,6.68e-05
2012-08-13 00:00:00,2012-08-13 00:00:00,PRATE,surface,-105,25.9842,6.1e-05
2012-08-13 00:00:00,2012-08-13 00:00:00,PRATE,surface,-104.063,25.9842,2.07e-05
2012-08-13 00:00:00,2012-08-13 00:00:00,PRATE,surface,-103.125,25.9842,9.2e-06
2012-08-13 00:00:00,2012-08-13 00:00:00,PRATE,surface,-102.188,25.9842,2.56e-05
2012-08-13 00:00:00,2012-08-13 00:00:00,PRATE,surface,-101.25,25.9842,6.88e-05
2012-08-13 00:00:00,2012-08-13 00:00:00,PRATE,surface,-100.313,25.9842,0.0001203
2012-08-13 00:00:00,2012-08-13 00:00:00,PRATE,surface,-99.3754,25.9842,0.0001288
2012-08-13 00:00:00,2012-08-13 00:00:00,PRATE,surface,-98.4379,25.9842,0.0001129
2012-08-13 00:00:00,2012-08-13 00:00:00,PRATE,surface,-97.5004,25.9842,0.0001001
2012-08-13 00:00:00,2012-08-13 00:00:00,PRATE,surface,-96.5629,25.9842,0.0001579
2012-08-13 00:00:00,2012-08-13 00:00:00,PRATE,surface,-95.6254,25.9842,0.0001822
2012-08-13 00:00:00,2012-08-13 00:00:00,PRATE,surface,-94.6879,25.9842,0.0001563
2012-08-13 00:00:00,2012-08-13 00:00:00,PRATE,surface,-93.7504,25.9842,0.0001501
2012-08-13 00:00:00,2012-08-13 00:00:00,PRATE,surface,-92.8129,25.9842,0.0001442
2012-08-13 00:00:00,2012-08-13 00:00:00,PRATE,surface,-107.813,26.929,4.13e-05
2012-08-13 00:00:00,2012-08-13 00:00:00,PRATE,surface,-106.875,26.929,4.58e-05
2012-08-13 00:00:00,2012-08-13 00:00:00,PRATE,surface,-105.938,26.929,4.99e-05
2012-08-13 00:00:00,2012-08-13 00:00:00,PRATE,surface,-105,26.929,3.59e-05
2012-08-13 00:00:00,2012-08-13 00:00:00,PRATE,surface,-104.063,26.929,1.65e-05
2012-08-13 00:00:00,2012-08-13 00:00:00,PRATE,surface,-103.125,26.929,1.56e-05
2012-08-13 00:00:00,2012-08-13 00:00:00,PRATE,surface,-102.188,26.929,3.75e-05
2012-08-13 00:00:00,2012-08-13 00:00:00,PRATE,surface,-101.25,26.929,7.22e-05
2012-08-13 00:00:00,2012-08-13 00:00:00,PRATE,surface,-100.313,26.929,8.59e-05
2012-08-13 00:00:00,2012-08-13 00:00:00,PRATE,surface,-99.3754,26.929,0.0001063
2012-08-13 00:00:00,2012-08-13 00:00:00,PRATE,surface,-98.4379,26.929,0.0001032
2012-08-13 00:00:00,2012-08-13 00:00:00,PRATE,surface,-97.5004,26.929,0.0001103
2012-08-13 00:00:00,2012-08-13 00:00:00,PRATE,surface,-96.5629,26.929,0.0001367
2012-08-13 00:00:00,2012-08-13 00:00:00,PRATE,surface,-95.6254,26.929,0.0001217
2012-08-13 00:00:00,2012-08-13 00:00:00,PRATE,surface,-94.6879,26.929,9.48e-05
2012-08-13 00:00:00,2012-08-13 00:00:00,PRATE,surface,-93.7504,26.929,0.0001261
2012-08-13 00:00:00,2012-08-13 00:00:00,PRATE,surface,-92.8129,26.929,0.0001691
2012-08-13 00:00:00,2012-08-13 00:00:00,PRATE,surface,-107.813,27.8739,4.87e-05
2012-08-13 00:00:00,2012-08-13 00:00:00,PRATE,surface,-106.875,27.8739,3.14e-05
2012-08-13 00:00:00,2012-08-13 00:00:00,PRATE,surface,-105.938,27.8739,2.36e-05
2012-08-13 00:00:00,2012-08-13 00:00:00,PRATE,surface,-105,27.8739,1.29e-05
2012-08-13 00:00:00,2012-08-13 00:00:00,PRATE,surface,-104.063,27.8739,1.02e-05
2012-08-13 00:00:00,2012-08-13 00:00:00,PRATE,surface,-103.125,27.8739,1.89e-05
2012-08-13 00:00:00,2012-08-13 00:00:00,PRATE,surface,-102.188,27.8739,3.56e-05
2012-08-13 00:00:00,2012-08-13 00:00:00,PRATE,surface,-101.25,27.8739,3.33e-05
2012-08-13 00:00:00,2012-08-13 00:00:00,PRATE,surface,-100.313,27.8739,3.35e-05
2012-08-13 00:00:00,2012-08-13 00:00:00,PRATE,surface,-99.3754,27.8739,4.86e-05
2012-08-13 00:00:00,2012-08-13 00:00:00,PRATE,surface,-98.4379,27.8739,5.43e-05
2012-08-13 00:00:00,2012-08-13 00:00:00,PRATE,surface,-97.5004,27.8739,4.67e-05
2012-08-13 00:00:00,2012-08-13 00:00:00,PRATE,surface,-96.5629,27.8739,3.9e-05
2012-08-13 00:00:00,2012-08-13 00:00:00,PRATE,surface,-95.6254,27.8739,4.72e-05
2012-08-13 00:00:00,2012-08-13 00:00:00,PRATE,surface,-94.6879,27.8739,8.23e-05
2012-08-13 00:00:00,2012-08-13 00:00:00,PRATE,surface,-93.7504,27.8739,0.0001267
2012-08-13 00:00:00,2012-08-13 00:00:00,PRATE,surface,-92.8129,27.8739,0.0001518
2012-08-13 00:00:00,2012-08-13 00:00:00,PRATE,surface,-107.813,28.8188,4.79e-05
2012-08-13 00:00:00,2012-08-13 00:00:00,PRATE,surface,-106.875,28.8188,2.29e-05
2012-08-13 00:00:00,2012-08-13 00:00:00,PRATE,surface,-105.938,28.8188,9.5e-06
2012-08-13 00:00:00,2012-08-13 00:00:00,PRATE,surface,-105,28.8188,4.5e-06
2012-08-13 00:00:00,2012-08-13 00:00:00,PRATE,surface,-104.063,28.8188,5.2e-06
2012-08-13 00:00:00,2012-08-13 00:00:00,PRATE,surface,-103.125,28.8188,1.58e-05
2012-08-13 00:00:00,2012-08-13 00:00:00,PRATE,surface,-102.188,28.8188,2.46e-05
2012-08-13 00:00:00,2012-08-13 00:00:00,PRATE,surface,-101.25,28.8188,1.99e-05
2012-08-13 00:00:00,2012-08-13 00:00:00,PRATE,surface,-100.313,28.8188,2.03e-05
2012-08-13 00:00:00,2012-08-13 00:00:00,PRATE,surface,-99.3754,28.8188,2.92e-05
2012-08-13 00:00:00,2012-08-13 00:00:00,PRATE,surface,-98.4379,28.8188,3.1e-05
2012-08-13 00:00:00,2012-08-13 00:00:00,PRATE,surface,-97.5004,28.8188,2.31e-05
2012-08-13 00:00:00,2012-08-13 00:00:00,PRATE,surface,-96.5629,28.8188,2.03e-05
2012-08-13 00:00:00,2012-08-13 00:00:00,PRATE,surface,-95.6254,28.8188,2.8e-05
2012-08-13 00:00:00,2012-08-13 00:00:00,PRATE,surface,-94.6879,28.8188,4.83e-05
2012-08-13 00:00:00,2012-08-13 00:00:00,PRATE,surface,-93.7504,28.8188,7.17e-05
2012-08-13 00:00:00,2012-08-13 00:00:00,PRATE,surface,-92.8129,28.8188,5.57e-05
2012-08-13 00:00:00,2012-08-13 00:00:00,PRATE,surface,-107.813,29.7637,2e-05
2012-08-13 00:00:00,2012-08-13 00:00:00,PRATE,surface,-106.875,29.7637,1.49e-05
2012-08-13 00:00:00,2012-08-13 00:00:00,PRATE,surface,-105.938,29.7637,6.8e-06
2012-08-13 00:00:00,2012-08-13 00:00:00,PRATE,surface,-105,29.7637,4e-06
2012-08-13 00:00:00,2012-08-13 00:00:00,PRATE,surface,-104.063,29.7637,6.6e-06
2012-08-13 00:00:00,2012-08-13 00:00:00,PRATE,surface,-103.125,29.7637,1.25e-05
2012-08-13 00:00:00,2012-08-13 00:00:00,PRATE,surface,-102.188,29.7637,1.68e-05
2012-08-13 00:00:00,2012-08-13 00:00:00,PRATE,surface,-101.25,29.7637,1.58e-05
2012-08-13 00:00:00,2012-08-13 00:00:00,PRATE,surface,-100.313,29.7637,2.12e-05
2012-08-13 00:00:00,2012-08-13 00:00:00,PRATE,surface,-99.3754,29.7637,3.07e-05
2012-08-13 00:00:00,2012-08-13 00:00:00,PRATE,surface,-98.4379,29.7637,2.75e-05
2012-08-13 00:00:00,2012-08-13 00:00:00,PRATE,surface,-97.5004,29.7637,1.99e-05
2012-08-13 00:00:00,2012-08-13 00:00:00,PRATE,surface,-96.5629,29.7637,1.84e-05
2012-08-13 00:00:00,2012-08-13 00:00:00,PRATE,surface,-95.6254,29.7637,2.4e-05
2012-08-13 00:00:00,2012-08-13 00:00:00,PRATE,surface,-94.6879,29.7637,3.08e-05
2012-08-13 00:00:00,2012-08-13 00:00:00,PRATE,surface,-93.7504,29.7637,3.31e-05
2012-08-13 00:00:00,2012-08-13 00:00:00,PRATE,surface,-92.8129,29.7637,4.89e-05
2012-08-13 00:00:00,2012-08-13 00:00:00,PRATE,surface,-107.813,30.7085,5.4e-06
2012-08-13 00:00:00,2012-08-13 00:00:00,PRATE,surface,-106.875,30.7085,5.9e-06
2012-08-13 00:00:00,2012-08-13 00:00:00,PRATE,surface,-105.938,30.7085,5.4e-06
2012-08-13 00:00:00,2012-08-13 00:00:00,PRATE,surface,-105,30.7085,5e-06
2012-08-13 00:00:00,2012-08-13 00:00:00,PRATE,surface,-104.063,30.7085,8.5e-06
2012-08-13 00:00:00,2012-08-13 00:00:00,PRATE,surface,-103.125,30.7085,1.11e-05
2012-08-13 00:00:00,2012-08-13 00:00:00,PRATE,surface,-102.188,30.7085,1.34e-05
2012-08-13 00:00:00,2012-08-13 00:00:00,PRATE,surface,-101.25,30.7085,1.57e-05
2012-08-13 00:00:00,2012-08-13 00:00:00,PRATE,surface,-100.313,30.7085,2.66e-05
2012-08-13 00:00:00,2012-08-13 00:00:00,PRATE,surface,-99.3754,30.7085,3.73e-05
2012-08-13 00:00:00,2012-08-13 00:00:00,PRATE,surface,-98.4379,30.7085,3.12e-05
2012-08-13 00:00:00,2012-08-13 00:00:00,PRATE,surface,-97.5004,30.7085,2.23e-05
2012-08-13 00:00:00,2012-08-13 00:00:00,PRATE,surface,-96.5629,30.7085,2.14e-05
2012-08-13 00:00:00,2012-08-13 00:00:00,PRATE,surface,-95.6254,30.7085,2.06e-05
2012-08-13 00:00:00,2012-08-13 00:00:00,PRATE,surface,-94.6879,30.7085,1.91e-05
2012-08-13 00:00:00,2012-08-13 00:00:00,PRATE,surface,-93.7504,30.7085,2.15e-05
2012-08-13 00:00:00,2012-08-13 00:00:00,PRATE,surface,-92.8129,30.7085,2.74e-05
2012-08-13 00:00:00,2012-08-13 00:00:00,PRATE,surface,-107.813,31.6534,5.6e-06
2012-08-13 00:00:00,2012-08-13 00:00:00,PRATE,surface,-106.875,31.6534,9e-06
2012-08-13 00:00:00,2012-08-13 00:00:00,PRATE,surface,-105.938,31.6534,6.6e-06
2012-08-13 00:00:00,2012-08-13 00:00:00,PRATE,surface,-105,31.6534,1.6e-06
2012-08-13 00:00:00,2012-08-13 00:00:00,PRATE,surface,-104.063,31.6534,7.7e-06
2012-08-13 00:00:00,2012-08-13 00:00:00,PRATE,surface,-103.125,31.6534,5.9e-06
2012-08-13 00:00:00,2012-08-13 00:00:00,PRATE,surface,-102.188,31.6534,1.17e-05
2012-08-13 00:00:00,2012-08-13 00:00:00,PRATE,surface,-101.25,31.6534,1.54e-05
2012-08-13 00:00:00,2012-08-13 00:00:00,PRATE,surface,-100.313,31.6534,2.52e-05
2012-08-13 00:00:00,2012-08-13 00:00:00,PRATE,surface,-99.3754,31.6534,2.41e-05
2012-08-13 00:00:00,2012-08-13 00:00:00,PRATE,surface,-98.4379,31.6534,2.4e-05
2012-08-13 00:00:00,2012-08-13 00:00:00,PRATE,surface,-97.5004,31.6534,2.48e-05
2012-08-13 00:00:00,2012-08-13 00:00:00,PRATE,surface,-96.5629,31.6534,2.19e-05
2012-08-13 00:00:00,2012-08-13 00:00:00,PRATE,surface,-95.6254,31.6534,2e-05
2012-08-13 00:00:00,2012-08-13 00:00:00,PRATE,surface,-94.6879,31.6534,1.86e-05
2012-08-13 00:00:00,2012-08-13 00:00:00,PRATE,surface,-93.7504,31.6534,1.85e-05
2012-08-13 00:00:00,2012-08-13 00:00:00,PRATE,surface,-92.8129,31.6534,2.81e-05
2012-08-13 00:00:00,2012-08-13 00:00:00,PRATE,surface,-107.813,32.5983,1.25e-05
2012-08-13 00:00:00,2012-08-13 00:00:00,PRATE,surface,-106.875,32.5983,1.45e-05
2012-08-13 00:00:00,2012-08-13 00:00:00,PRATE,surface,-105.938,32.5983,8.5e-06
2012-08-13 00:00:00,2012-08-13 00:00:00,PRATE,surface,-105,32.5983,5.2e-06
2012-08-13 00:00:00,2012-08-13 00:00:00,PRATE,surface,-104.063,32.5983,5.7e-06
2012-08-13 00:00:00,2012-08-13 00:00:00,PRATE,surface,-103.125,32.5983,4.3e-06
2012-08-13 00:00:00,2012-08-13 00:00:00,PRATE,surface,-102.188,32.5983,3.9e-06
2012-08-13 00:00:00,2012-08-13 00:00:00,PRATE,surface,-101.25,32.5983,1.57e-05
2012-08-13 00:00:00,2012-08-13 00:00:00,PRATE,surface,-100.313,32.5983,1.29e-05
2012-08-13 00:00:00,2012-08-13 00:00:00,PRATE,surface,-99.3754,32.5983,1.08e-05
2012-08-13 00:00:00,2012-08-13 00:00:00,PRATE,surface,-98.4379,32.5983,1.27e-05
2012-08-13 00:00:00,2012-08-13 00:00:00,PRATE,surface,-97.5004,32.5983,1.9e-05
2012-08-13 00:00:00,2012-08-13 00:00:00,PRATE,surface,-96.5629,32.5983,2.22e-05
2012-08-13 00:00:00,2012-08-13 00:00:00,PRATE,surface,-95.6254,32.5983,1.88e-05
2012-08-13 00:00:00,2012-08-13 00:00:00,PRATE,surface,-94.6879,32.5983,1.82e-05
2012-08-13 00:00:00,2012-08-13 00:00:00,PRATE,surface,-93.7504,32.5983,1.87e-05
2012-08-13 00:00:00,2012-08-13 00:00:00,PRATE,surface,-92.8129,32.5983,1.63e-05
2012-08-13 00:00:00,2012-08-13 00:00:00,PRATE,surface,-107.813,33.5432,2.68e-05
2012-08-13 00:00:00,2012-08-13 00:00:00,PRATE,surface,-106.875,33.5432,2.32e-05
2012-08-13 00:00:00,2012-08-13 00:00:00,PRATE,surface,-105.938,33.5432,1.22e-05
2012-08-13 00:00:00,2012-08-13 00:00:00,PRATE,surface,-105,33.5432,7.6e-06
2012-08-13 00:00:00,2012-08-13 00:00:00,PRATE,surface,-104.063,33.5432,6.2e-06
2012-08-13 00:00:00,2012-08-13 00:00:00,PRATE,surface,-103.125,33.5432,7.8e-06
2012-08-13 00:00:00,2012-08-13 00:00:00,PRATE,surface,-102.188,33.5432,1.29e-05
2012-08-13 00:00:00,2012-08-13 00:00:00,PRATE,surface,-101.25,33.5432,1.47e-05
2012-08-13 00:00:00,2012-08-13 00:00:00,PRATE,surface,-100.313,33.5432,8.5e-06
2012-08-13 00:00:00,2012-08-13 00:00:00,PRATE,surface,-99.3754,33.5432,6.6e-06
2012-08-13 00:00:00,2012-08-13 00:00:00,PRATE,surface,-98.4379,33.5432,7.3e-06
2012-08-13 00:00:00,2012-08-13 00:00:00,PRATE,surface,-97.5004,33.5432,1.01e-05
2012-08-13 00:00:00,2012-08-13 00:00:00,PRATE,surface,-96.5629,33.5432,1.33e-05
2012-08-13 00:00:00,2012-08-13 00:00:00,PRATE,surface,-95.6254,33.5432,1.43e-05
2012-08-13 00:00:00,2012-08-13 00:00:00,PRATE,surface,-94.6879,33.5432,1.56e-05
2012-08-13 00:00:00,2012-08-13 00:00:00,PRATE,surface,-93.7504,33.5432,1.72e-05
2012-08-13 00:00:00,2012-08-13 00:00:00,PRATE,surface,-92.8129,33.5432,1.68e-05
2012-08-13 00:00:00,2012-08-13 00:00:00,PRATE,surface,-107.813,34.4881,1.99e-05
2012-08-13 00:00:00,2012-08-13 00:00:00,PRATE,surface,-106.875,34.4881,1.21e-05
2012-08-13 00:00:00,2012-08-13 00:00:00,PRATE,surface,-105.938,34.4881,8.1e-06
2012-08-13 00:00:00,2012-08-13 00:00:00,PRATE,surface,-105,34.4881,8.4e-06
2012-08-13 00:00:00,2012-08-13 00:00:00,PRATE,surface,-104.063,34.4881,1.59e-05
2012-08-13 00:00:00,2012-08-13 00:00:00,PRATE,surface,-103.125,34.4881,2.22e-05
2012-08-13 00:00:00,2012-08-13 00:00:00,PRATE,surface,-102.188,34.4881,2.13e-05
2012-08-13 00:00:00,2012-08-13 00:00:00,PRATE,surface,-101.25,34.4881,2.05e-05
2012-08-13 00:00:00,2012-08-13 00:00:00,PRATE,surface,-100.313,34.4881,1.23e-05
2012-08-13 00:00:00,2012-08-13 00:00:00,PRATE,surface,-99.3754,34.4881,8.3e-06
2012-08-13 00:00:00,2012-08-13 00:00:00,PRATE,surface,-98.4379,34.4881,1.18e-05
2012-08-13 00:00:00,2012-08-13 00:00:00,PRATE,surface,-97.5004,34.4881,1.64e-05
2012-08-13 00:00:00,2012-08-13 00:00:00,PRATE,surface,-96.5629,34.4881,1.58e-05
2012-08-13 00:00:00,2012-08-13 00:00:00,PRATE,surface,-95.6254,34.4881,1.28e-05
2012-08-13 00:00:00,2012-08-13 00:00:00,PRATE,surface,-94.6879,34.4881,1.32e-05
2012-08-13 00:00:00,2012-08-13 00:00:00,PRATE,surface,-93.7504,34.4881,1.48e-05
2012-08-13 00:00:00,2012-08-13 00:00:00,PRATE,surface,-92.8129,34.4881,1.94e-05
2012-08-13 00:00:00,2012-08-13 00:00:00,PRATE,surface,-107.813,35.4329,6.4e-06
2012-08-13 00:00:00,2012-08-13 00:00:00,PRATE,surface,-106.875,35.4329,4.6e-06
2012-08-13 00:00:00,2012-08-13 00:00:00,PRATE,surface,-105.938,35.4329,8.3e-06
2012-08-13 00:00:00,2012-08-13 00:00:00,PRATE,surface,-105,35.4329,2.64e-05
2012-08-13 00:00:00,2012-08-13 00:00:00,PRATE,surface,-104.063,35.4329,4.1e-05
2012-08-13 00:00:00,2012-08-13 00:00:00,PRATE,surface,-103.125,35.4329,3.68e-05
2012-08-13 00:00:00,2012-08-13 00:00:00,PRATE,surface,-102.188,35.4329,2.37e-05
2012-08-13 00:00:00,2012-08-13 00:00:00,PRATE,surface,-101.25,35.4329,2.05e-05
2012-08-13 00:00:00,2012-08-13 00:00:00,PRATE,surface,-100.313,35.4329,2.08e-05
2012-08-13 00:00:00,2012-08-13 00:00:00,PRATE,surface,-99.3754,35.4329,2.3e-05
2012-08-13 00:00:00,2012-08-13 00:00:00,PRATE,surface,-98.4379,35.4329,2.54e-05
2012-08-13 00:00:00,2012-08-13 00:00:00,PRATE,surface,-97.5004,35.4329,2.52e-05
2012-08-13 00:00:00,2012-08-13 00:00:00,PRATE,surface,-96.5629,35.4329,2.29e-05
2012-08-13 00:00:00,2012-08-13 00:00:00,PRATE,surface,-95.6254,35.4329,2.18e-05
2012-08-13 00:00:00,2012-08-13 00:00:00,PRATE,surface,-94.6879,35.4329,2.28e-05
2012-08-13 00:00:00,2012-08-13 00:00:00,PRATE,surface,-93.7504,35.4329,2.61e-05
2012-08-13 00:00:00,2012-08-13 00:00:00,PRATE,surface,-92.8129,35.4329,3.25e-05
2012-08-13 00:00:00,2012-08-13 00:00:00,PRATE,surface,-107.813,36.3778,3.1e-06
2012-08-13 00:00:00,2012-08-13 00:00:00,PRATE,surface,-106.875,36.3778,7.5e-06
2012-08-13 00:00:00,2012-08-13 00:00:00,PRATE,surface,-105.938,36.3778,1.7e-05
2012-08-13 00:00:00,2012-08-13 00:00:00,PRATE,surface,-105,36.3778,3.56e-05
2012-08-13 00:00:00,2012-08-13 00:00:00,PRATE,surface,-104.063,36.3778,4.7e-05
2012-08-13 00:00:00,2012-08-13 00:00:00,PRATE,surface,-103.125,36.3778,2e-05
2012-08-13 00:00:00,2012-08-13 00:00:00,PRATE,surface,-102.188,36.3778,8.3e-06
2012-08-13 00:00:00,2012-08-13 00:00:00,PRATE,surface,-101.25,36.3778,1.04e-05
2012-08-13 00:00:00,2012-08-13 00:00:00,PRATE,surface,-100.313,36.3778,1.68e-05
2012-08-13 00:00:00,2012-08-13 00:00:00,PRATE,surface,-99.3754,36.3778,2.17e-05
2012-08-13 00:00:00,2012-08-13 00:00:00,PRATE,surface,-98.4379,36.3778,2.88e-05
2012-08-13 00:00:00,2012-08-13 00:00:00,PRATE,surface,-97.5004,36.3778,3.82e-05
2012-08-13 00:00:00,2012-08-13 00:00:00,PRATE,surface,-96.5629,36.3778,4.24e-05
2012-08-13 00:00:00,2012-08-13 00:00:00,PRATE,surface,-95.6254,36.3778,4.28e-05
2012-08-13 00:00:00,2012-08-13 00:00:00,PRATE,surface,-94.6879,36.3778,4.63e-05
2012-08-13 00:00:00,2012-08-13 00:00:00,PRATE,surface,-93.7504,36.3778,4.87e-05
2012-08-13 00:00:00,2012-08-13 00:00:00,PRATE,surface,-92.8129,36.3778,4.66e-05
