2017-02-23 00:00:00,2017-02-23 00:00:00,TMP,surface,-107.813,25.0393,302.358
2017-02-23 00:00:00,2017-02-23 00:00:00,TMP,surface,-106.875,25.0393,297.379
2017-02-23 00:00:00,2017-02-23 00:00:00,TMP,surface,-105.938,25.0393,292.899
2017-02-23 00:00:00,2017-02-23 00:00:00,TMP,surface,-105,25.0393,293.606
2017-02-23 00:00:00,2017-02-23 00:00:00,TMP,surface,-104.063,25.0393,297.869
2017-02-23 00:00:00,2017-02-23 00:00:00,TMP,surface,-103.125,25.0393,300.445
2017-02-23 00:00:00,2017-02-23 00:00:00,TMP,surface,-102.188,25.0393,298.826
2017-02-23 00:00:00,2017-02-23 00:00:00,TMP,surface,-101.25,25.0393,295.398
2017-02-23 00:00:00,2017-02-23 00:00:00,TMP,surface,-100.313,25.0393,295.091
2017-02-23 00:00:00,2017-02-23 00:00:00,TMP,surface,-99.3754,25.0393,298.253
2017-02-23 00:00:00,2017-02-23 00:00:00,TMP,surface,-98.4379,25.0393,301.92
2017-02-23 00:00:00,2017-02-23 00:00:00,TMP,surface,-97.5004,25.0393,302.272
2017-02-23 00:00:00,2017-02-23 00:00:00,TMP,surface,-96.5629,25.0393,301.987
2017-02-23 00:00:00,2017-02-23 00:00:00,TMP,surface,-95.6254,25.0393,301.718
2017-02-23 00:00:00,2017-02-23 00:00:00,TMP,surface,-94.6879,25.0393,301.533
2017-02-23 00:00:00,2017-02-23 00:00:00,TMP,surface,-93.7504,25.0393,301.398
2017-02-23 00:00:00,2017-02-23 00:00:00,TMP,surface,-92.8129,25.0393,301.312
2017-02-23 00:00:00,2017-02-23 00:00:00,TMP,surface,-107.813,25.9842,299.44
2017-02-23 00:00:00,2017-02-23 00:00:00,TMP,surface,-106.875,25.9842,293.638
2017-02-23 00:00:00,2017-02-23 00:00:00,TMP,surface,-105.938,25.9842,292.707
2017-02-23 00:00:00,2017-02-23 00:00:00,TMP,surface,-105,25.9842,295.872
2017-02-23 00:00:00,2017-02-23 00:00:00,TMP,surface,-104.063,25.9842,300.368
2017-02-23 00:00:00,2017-02-23 00:00:00,TMP,surface,-103.125,25.9842,302.096
2017-02-23 00:00:00,2017-02-23 00:00:00,TMP,surface,-102.188,25.9842,300.762
2017-02-23 00:00:00,2017-02-23 00:00:00,TMP,surface,-101.25,25.9842,298.65
2017-02-23 00:00:00,2017-02-23 00:00:00,TMP,surface,-100.313,25.9842,298.461
2017-02-23 00:00:00,2017-02-23 00:00:00,TMP,surface,-99.3754,25.9842,301.526
2017-02-23 00:00:00,2017-02-23 00:00:00,TMP,surface,-98.4379,25.9842,302.589
2017-02-23 00:00:00,2017-02-23 00:00:00,TMP,surface,-97.5004,25.9842,301.574
2017-02-23 00:00:00,2017-02-23 00:00:00,TMP,surface,-96.5629,25.9842,301.085
2017-02-23 00:00:00,2017-02-23 00:00:00,TMP,surface,-95.6254,25.9842,301.35
2017-02-23 00:00:00,2017-02-23 00:00:00,TMP,surface,-94.6879,25.9842,301.251
2017-02-23 00:00:00,2017-02-23 00:00:00,TMP,surface,-93.7504,25.9842,301.152
2017-02-23 00:00:00,2017-02-23 00:00:00,TMP,surface,-92.8129,25.9842,301.235
2017-02-23 00:00:00,2017-02-23 00:00:00,TMP,surface,-107.813,26.929,294.986
2017-02-23 00:00:00,2017-02-23 00:00:00,TMP,surface,-106.875,26.929,292.509
2017-02-23 00:00:00,2017-02-23 00:00:00,TMP,surface,-105.938,26.929,295.328
2017-02-23 00:00:00,2017-02-23 00:00:00,TMP,surface,-105,26.929,298.787
2017-02-23 00:00:00,2017-02-23 00:00:00,TMP,surface,-104.063,26.929,301.136
2017-02-23 00:00:00,2017-02-23 00:00:00,TMP,surface,-103.125,26.929,300.515
2017-02-23 00:00:00,2017-02-23 00:00:00,TMP,surface,-102.188,26.929,299.405
2017-02-23 00:00:00,2017-02-23 00:00:00,TMP,surface,-101.25,26.929,300.121
2017-02-23 00:00:00,2017-02-23 00:00:00,TMP,surface,-100.313,26.929,301.958
2017-02-23 00:00:00,2017-02-23 00:00:00,TMP,surface,-99.3754,26.929,303.046
2017-02-23 00:00:00,2017-02-23 00:00:00,TMP,surface,-98.4379,26.929,301.757
2017-02-23 00:00:00,2017-02-23 00:00:00,TMP,surface,-97.5004,26.929,299.376
2017-02-23 00:00:00,2017-02-23 00:00:00,TMP,surface,-96.5629,26.929,299.907
2017-02-23 00:00:00,2017-02-23 00:00:00,TMP,surface,-95.6254,26.929,300.691
2017-02-23 00:00:00,2017-02-23 00:00:00,TMP,surface,-94.6879,26.929,300.896
2017-02-23 00:00:00,2017-02-23 00:00:00,TMP,surface,-93.7504,26.929,300.797
2017-02-23 00:00:00,2017-02-23 00:00:00,TMP,surface,-92.8129,26.929,300.838
2017-02-23 00:00:00,2017-02-23 00:00:00,TMP,surface,-107.813,27.8739,292.579
2017-02-23 00:00:00,2017-02-23 00:00:00,TMP,surface,-106.875,27.8739,293.306
2017-02-23 00:00:00,2017-02-23 00:00:00,TMP,surface,-105.938,27.8739,297.19
2017-02-23 00:00:00,2017-02-23 00:00:00,TMP,surface,-105,27.8739,300.483
2017-02-23 00:00:00,2017-02-23 00:00:00,TMP,surface,-104.063,27.8739,300.538
2017-02-23 00:00:00,2017-02-23 00:00:00,TMP,surface,-103.125,27.8739,298.569
2017-02-23 00:00:00,2017-02-23 00:00:00,TMP,surface,-102.188,27.8739,297.936
2017-02-23 00:00:00,2017-02-23 00:00:00,TMP,surface,-101.25,27.8739,300.118
2017-02-23 00:00:00,2017-02-23 00:00:00,TMP,surface,-100.313,27.8739,302.176
2017-02-23 00:00:00,2017-02-23 00:00:00,TMP,surface,-99.3754,27.8739,301.904
2017-02-23 00:00:00,2017-02-23 00:00:00,TMP,surface,-98.4379,27.8739,300.326
2017-02-23 00:00:00,2017-02-23 00:00:00,TMP,surface,-97.5004,27.8739,299.75
2017-02-23 00:00:00,2017-02-23 00:00:00,TMP,surface,-96.5629,27.8739,300.112
2017-02-23 00:00:00,2017-02-23 00:00:00,TMP,surface,-95.6254,27.8739,300.326
2017-02-23 00:00:00,2017-02-23 00:00:00,TMP,surface,-94.6879,27.8739,300.435
2017-02-23 00:00:00,2017-02-23 00:00:00,TMP,surface,-93.7504,27.8739,300.448
2017-02-23 00:00:00,2017-02-23 00:00:00,TMP,surface,-92.8129,27.8739,300.566
2017-02-23 00:00:00,2017-02-23 00:00:00,TMP,surface,-107.813,28.8188,291.997
2017-02-23 00:00:00,2017-02-23 00:00:00,TMP,surface,-106.875,28.8188,294.016
2017-02-23 00:00:00,2017-02-23 00:00:00,TMP,surface,-105.938,28.8188,298.048
2017-02-23 00:00:00,2017-02-23 00:00:00,TMP,surface,-105,28.8188,300.656
2017-02-23 00:00:00,2017-02-23 00:00:00,TMP,surface,-104.063,28.8188,299.36
2017-02-23 00:00:00,2017-02-23 00:00:00,TMP,surface,-103.125,28.8188,297.36
2017-02-23 00:00:00,2017-02-23 00:00:00,TMP,surface,-102.188,28.8188,297.357
2017-02-23 00:00:00,2017-02-23 00:00:00,TMP,surface,-101.25,28.8188,299.683
2017-02-23 00:00:00,2017-02-23 00:00:00,TMP,surface,-100.313,28.8188,300.4
2017-02-23 00:00:00,2017-02-23 00:00:00,TMP,surface,-99.3754,28.8188,299.472
2017-02-23 00:00:00,2017-02-23 00:00:00,TMP,surface,-98.4379,28.8188,298.681
2017-02-23 00:00:00,2017-02-23 00:00:00,TMP,surface,-97.5004,28.8188,298.659
2017-02-23 00:00:00,2017-02-23 00:00:00,TMP,surface,-96.5629,28.8188,299.043
2017-02-23 00:00:00,2017-02-23 00:00:00,TMP,surface,-95.6254,28.8188,298.934
2017-02-23 00:00:00,2017-02-23 00:00:00,TMP,surface,-94.6879,28.8188,298.477
2017-02-23 00:00:00,2017-02-23 00:00:00,TMP,surface,-93.7504,28.8188,299.011
2017-02-23 00:00:00,2017-02-23 00:00:00,TMP,surface,-92.8129,28.8188,299.414
2017-02-23 00:00:00,2017-02-23 00:00:00,TMP,surface,-107.813,29.7637,294.646
2017-02-23 00:00:00,2017-02-23 00:00:00,TMP,surface,-106.875,29.7637,296.387
2017-02-23 00:00:00,2017-02-23 00:00:00,TMP,surface,-105.938,29.7637,299.168
2017-02-23 00:00:00,2017-02-23 00:00:00,TMP,surface,-105,29.7637,299.866
2017-02-23 00:00:00,2017-02-23 00:00:00,TMP,surface,-104.063,29.7637,298.858
2017-02-23 00:00:00,2017-02-23 00:00:00,TMP,surface,-103.125,29.7637,298.672
2017-02-23 00:00:00,2017-02-23 00:00:00,TMP,surface,-102.188,29.7637,299.497
2017-02-23 00:00:00,2017-02-23 00:00:00,TMP,surface,-101.25,29.7637,299.782
2017-02-23 00:00:00,2017-02-23 00:00:00,TMP,surface,-100.313,29.7637,298.429
2017-02-23 00:00:00,2017-02-23 00:00:00,TMP,surface,-99.3754,29.7637,297.181
2017-02-23 00:00:00,2017-02-23 00:00:00,TMP,surface,-98.4379,29.7637,296.896
2017-02-23 00:00:00,2017-02-23 00:00:00,TMP,surface,-97.5004,29.7637,297.328
2017-02-23 00:00:00,2017-02-23 00:00:00,TMP,surface,-96.5629,29.7637,297.859
2017-02-23 00:00:00,2017-02-23 00:00:00,TMP,surface,-95.6254,29.7637,298.16
2017-02-23 00:00:00,2017-02-23 00:00:00,TMP,surface,-94.6879,29.7637,298.035
2017-02-23 00:00:00,2017-02-23 00:00:00,TMP,surface,-93.7504,29.7637,297.949
2017-02-23 00:00:00,2017-02-23 00:00:00,TMP,surface,-92.8129,29.7637,299.449
2017-02-23 00:00:00,2017-02-23 00:00:00,TMP,surface,-107.813,30.7085,298.617
2017-02-23 00:00:00,2017-02-23 00:00:00,TMP,surface,-106.875,30.7085,299.792
2017-02-23 00:00:00,2017-02-23 00:00:00,TMP,surface,-105.938,30.7085,299.798
2017-02-23 00:00:00,2017-02-23 00:00:00,TMP,surface,-105,30.7085,299.382
2017-02-23 00:00:00,2017-02-23 00:00:00,TMP,surface,-104.063,30.7085,298.566
2017-02-23 00:00:00,2017-02-23 00:00:00,TMP,surface,-103.125,30.7085,299.539
2017-02-23 00:00:00,2017-02-23 00:00:00,TMP,surface,-102.188,30.7085,299.901
2017-02-23 00:00:00,2017-02-23 00:00:00,TMP,surface,-101.25,30.7085,299.126
2017-02-23 00:00:00,2017-02-23 00:00:00,TMP,surface,-100.313,30.7085,297.546
2017-02-23 00:00:00,2017-02-23 00:00:00,TMP,surface,-99.3754,30.7085,296.509
2017-02-23 00:00:00,2017-02-23 00:00:00,TMP,surface,-98.4379,30.7085,296.512
2017-02-23 00:00:00,2017-02-23 00:00:00,TMP,surface,-97.5004,30.7085,297.062
2017-02-23 00:00:00,2017-02-23 00:00:00,TMP,surface,-96.5629,30.7085,297.805
2017-02-23 00:00:00,2017-02-23 00:00:00,TMP,surface,-95.6254,30.7085,298.358
2017-02-23 00:00:00,2017-02-23 00:00:00,TMP,surface,-94.6879,30.7085,298.502
2017-02-23 00:00:00,2017-02-23 00:00:00,TMP,surface,-93.7504,30.7085,298.758
2017-02-23 00:00:00,2017-02-23 00:00:00,TMP,surface,-92.8129,30.7085,298.877
2017-02-23 00:00:00,2017-02-23 00:00:00,TMP,surface,-107.813,31.6534,299.161
2017-02-23 00:00:00,2017-02-23 00:00:00,TMP,surface,-106.875,31.6534,299.805
2017-02-23 00:00:00,2017-02-23 00:00:00,TMP,surface,-105.938,31.6534,299.12
2017-02-23 00:00:00,2017-02-23 00:00:00,TMP,surface,-105,31.6534,298.816
2017-02-23 00:00:00,2017-02-23 00:00:00,TMP,surface,-104.063,31.6534,299.011
2017-02-23 00:00:00,2017-02-23 00:00:00,TMP,surface,-103.125,31.6534,299.546
2017-02-23 00:00:00,2017-02-23 00:00:00,TMP,surface,-102.188,31.6534,299.229
2017-02-23 00:00:00,2017-02-23 00:00:00,TMP,surface,-101.25,31.6534,297.936
2017-02-23 00:00:00,2017-02-23 00:00:00,TMP,surface,-100.313,31.6534,297.059
2017-02-23 00:00:00,2017-02-23 00:00:00,TMP,surface,-99.3754,31.6534,296.595
2017-02-23 00:00:00,2017-02-23 00:00:00,TMP,surface,-98.4379,31.6534,296.64
2017-02-23 00:00:00,2017-02-23 00:00:00,TMP,surface,-97.5004,31.6534,297.101
2017-02-23 00:00:00,2017-02-23 00:00:00,TMP,surface,-96.5629,31.6534,297.945
2017-02-23 00:00:00,2017-02-23 00:00:00,TMP,surface,-95.6254,31.6534,298.698
2017-02-23 00:00:00,2017-02-23 00:00:00,TMP,surface,-94.6879,31.6534,298.81
2017-02-23 00:00:00,2017-02-23 00:00:00,TMP,surface,-93.7504,31.6534,298.889
2017-02-23 00:00:00,2017-02-23 00:00:00,TMP,surface,-92.8129,31.6534,299.19
2017-02-23 00:00:00,2017-02-23 00:00:00,TMP,surface,-107.813,32.5983,295.897
2017-02-23 00:00:00,2017-02-23 00:00:00,TMP,surface,-106.875,32.5983,296.681
2017-02-23 00:00:00,2017-02-23 00:00:00,TMP,surface,-105.938,32.5983,296.87
2017-02-23 00:00:00,2017-02-23 00:00:00,TMP,surface,-105,32.5983,297.507
2017-02-23 00:00:00,2017-02-23 00:00:00,TMP,surface,-104.063,32.5983,298.08
2017-02-23 00:00:00,2017-02-23 00:00:00,TMP,surface,-103.125,32.5983,298.544
2017-02-23 00:00:00,2017-02-23 00:00:00,TMP,surface,-102.188,32.5983,297.68
2017-02-23 00:00:00,2017-02-23 00:00:00,TMP,surface,-101.25,32.5983,296.905
2017-02-23 00:00:00,2017-02-23 00:00:00,TMP,surface,-100.313,32.5983,296.864
2017-02-23 00:00:00,2017-02-23 00:00:00,TMP,surface,-99.3754,32.5983,296.899
2017-02-23 00:00:00,2017-02-23 00:00:00,TMP,surface,-98.4379,32.5983,296.877
2017-02-23 00:00:00,2017-02-23 00:00:00,TMP,surface,-97.5004,32.5983,297.082
2017-02-23 00:00:00,2017-02-23 00:00:00,TMP,surface,-96.5629,32.5983,297.721
2017-02-23 00:00:00,2017-02-23 00:00:00,TMP,surface,-95.6254,32.5983,298.528
2017-02-23 00:00:00,2017-02-23 00:00:00,TMP,surface,-94.6879,32.5983,298.934
2017-02-23 00:00:00,2017-02-23 00:00:00,TMP,surface,-93.7504,32.5983,298.966
2017-02-23 00:00:00,2017-02-23 00:00:00,TMP,surface,-92.8129,32.5983,299.213
2017-02-23 00:00:00,2017-02-23 00:00:00,TMP,surface,-107.813,33.5432,291.446
2017-02-23 00:00:00,2017-02-23 00:00:00,TMP,surface,-106.875,33.5432,292.995
2017-02-23 00:00:00,2017-02-23 00:00:00,TMP,surface,-105.938,33.5432,293.904
2017-02-23 00:00:00,2017-02-23 00:00:00,TMP,surface,-105,33.5432,295.654
2017-02-23 00:00:00,2017-02-23 00:00:00,TMP,surface,-104.063,33.5432,297.069
2017-02-23 00:00:00,2017-02-23 00:00:00,TMP,surface,-103.125,33.5432,296.819
2017-02-23 00:00:00,2017-02-23 00:00:00,TMP,surface,-102.188,33.5432,296.266
2017-02-23 00:00:00,2017-02-23 00:00:00,TMP,surface,-101.25,33.5432,295.914
2017-02-23 00:00:00,2017-02-23 00:00:00,TMP,surface,-100.313,33.5432,296.621
2017-02-23 00:00:00,2017-02-23 00:00:00,TMP,surface,-99.3754,33.5432,297.001
2017-02-23 00:00:00,2017-02-23 00:00:00,TMP,surface,-98.4379,33.5432,296.832
2017-02-23 00:00:00,2017-02-23 00:00:00,TMP,surface,-97.5004,33.5432,296.746
2017-02-23 00:00:00,2017-02-23 00:00:00,TMP,surface,-96.5629,33.5432,297.021
2017-02-23 00:00:00,2017-02-23 00:00:00,TMP,surface,-95.6254,33.5432,297.635
2017-02-23 00:00:00,2017-02-23 00:00:00,TMP,surface,-94.6879,33.5432,298.185
2017-02-23 00:00:00,2017-02-23 00:00:00,TMP,surface,-93.7504,33.5432,298.227
2017-02-23 00:00:00,2017-02-23 00:00:00,TMP,surface,-92.8129,33.5432,298.474
2017-02-23 00:00:00,2017-02-23 00:00:00,TMP,surface,-107.813,34.4881,289.952
2017-02-23 00:00:00,2017-02-23 00:00:00,TMP,surface,-106.875,34.4881,291.494
2017-02-23 00:00:00,2017-02-23 00:00:00,TMP,surface,-105.938,34.4881,292.467
2017-02-23 00:00:00,2017-02-23 00:00:00,TMP,surface,-105,34.4881,294.576
2017-02-23 00:00:00,2017-02-23 00:00:00,TMP,surface,-104.063,34.4881,295.594
2017-02-23 00:00:00,2017-02-23 00:00:00,TMP,surface,-103.125,34.4881,295.555
2017-02-23 00:00:00,2017-02-23 00:00:00,TMP,surface,-102.188,34.4881,295.475
2017-02-23 00:00:00,2017-02-23 00:00:00,TMP,surface,-101.25,34.4881,295.645
2017-02-23 00:00:00,2017-02-23 00:00:00,TMP,surface,-100.313,34.4881,296.233
2017-02-23 00:00:00,2017-02-23 00:00:00,TMP,surface,-99.3754,34.4881,296.749
2017-02-23 00:00:00,2017-02-23 00:00:00,TMP,surface,-98.4379,34.4881,296.653
2017-02-23 00:00:00,2017-02-23 00:00:00,TMP,surface,-97.5004,34.4881,296.406
2017-02-23 00:00:00,2017-02-23 00:00:00,TMP,surface,-96.5629,34.4881,296.803
2017-02-23 00:00:00,2017-02-23 00:00:00,TMP,surface,-95.6254,34.4881,297.478
2017-02-23 00:00:00,2017-02-23 00:00:00,TMP,surface,-94.6879,34.4881,297.504
2017-02-23 00:00:00,2017-02-23 00:00:00,TMP,surface,-93.7504,34.4881,297.216
2017-02-23 00:00:00,2017-02-23 00:00:00,TMP,surface,-92.8129,34.4881,297.59
2017-02-23 00:00:00,2017-02-23 00:00:00,TMP,surface,-107.813,35.4329,290.883
2017-02-23 00:00:00,2017-02-23 00:00:00,TMP,surface,-106.875,35.4329,290.957
2017-02-23 00:00:00,2017-02-23 00:00:00,TMP,surface,-105.938,35.4329,290.896
2017-02-23 00:00:00,2017-02-23 00:00:00,TMP,surface,-105,35.4329,291.776
2017-02-23 00:00:00,2017-02-23 00:00:00,TMP,surface,-104.063,35.4329,294.233
2017-02-23 00:00:00,2017-02-23 00:00:00,TMP,surface,-103.125,35.4329,295.53
2017-02-23 00:00:00,2017-02-23 00:00:00,TMP,surface,-102.188,35.4329,295.894
2017-02-23 00:00:00,2017-02-23 00:00:00,TMP,surface,-101.25,35.4329,296.192
2017-02-23 00:00:00,2017-02-23 00:00:00,TMP,surface,-100.313,35.4329,296.192
2017-02-23 00:00:00,2017-02-23 00:00:00,TMP,surface,-99.3754,35.4329,296.397
2017-02-23 00:00:00,2017-02-23 00:00:00,TMP,surface,-98.4379,35.4329,296.441
2017-02-23 00:00:00,2017-02-23 00:00:00,TMP,surface,-97.5004,35.4329,296.32
2017-02-23 00:00:00,2017-02-23 00:00:00,TMP,surface,-96.5629,35.4329,296.397
2017-02-23 00:00:00,2017-02-23 00:00:00,TMP,surface,-95.6254,35.4329,296.758
2017-02-23 00:00:00,2017-02-23 00:00:00,TMP,surface,-94.6879,35.4329,296.934
2017-02-23 00:00:00,2017-02-23 00:00:00,TMP,surface,-93.7504,35.4329,296.515
2017-02-23 00:00:00,2017-02-23 00:00:00,TMP,surface,-92.8129,35.4329,296.49
2017-02-23 00:00:00,2017-02-23 00:00:00,TMP,surface,-107.813,36.3778,290.474
2017-02-23 00:00:00,2017-02-23 00:00:00,TMP,surface,-106.875,36.3778,287.869
2017-02-23 00:00:00,2017-02-23 00:00:00,TMP,surface,-105.938,36.3778,287.923
2017-02-23 00:00:00,2017-02-23 00:00:00,TMP,surface,-105,36.3778,288.768
2017-02-23 00:00:00,2017-02-23 00:00:00,TMP,surface,-104.063,36.3778,291.747
2017-02-23 00:00:00,2017-02-23 00:00:00,TMP,surface,-103.125,36.3778,294.166
2017-02-23 00:00:00,2017-02-23 00:00:00,TMP,surface,-102.188,36.3778,295.683
2017-02-23 00:00:00,2017-02-23 00:00:00,TMP,surface,-101.25,36.3778,296.365
2017-02-23 00:00:00,2017-02-23 00:00:00,TMP,surface,-100.313,36.3778,296.349
2017-02-23 00:00:00,2017-02-23 00:00:00,TMP,surface,-99.3754,36.3778,296.291
2017-02-23 00:00:00,2017-02-23 00:00:00,TMP,surface,-98.4379,36.3778,296.349
2017-02-23 00:00:00,2017-02-23 00:00:00,TMP,surface,-97.5004,36.3778,296.374
2017-02-23 00:00:00,2017-02-23 00:00:00,TMP,surface,-96.5629,36.3778,296.464
2017-02-23 00:00:00,2017-02-23 00:00:00,TMP,surface,-95.6254,36.3778,296.723
2017-02-23 00:00:00,2017-02-23 00:00:00,TMP,surface,-94.6879,36.3778,296.707
2017-02-23 00:00:00,2017-02-23 00:00:00,TMP,surface,-93.7504,36.3778,296.08
2017-02-23 00:00:00,2017-02-23 00:00:00,TMP,surface,-92.8129,36.3778,295.782
2017-02-23 00:00:00,2017-02-23 00:00:00,PRATE,surface,-107.813,25.0393,0
2017-02-23 00:00:00,2017-02-23 00:00:00,PRATE,surface,-106.875,25.0393,6e-07
2017-02-23 00:00:00,2017-02-23 00:00:00,PRATE,surface,-105.938,25.0393,2.69e-05
2017-02-23 00:00:00,2017-02-23 00:00:00,PRATE,surface,-105,25.0393,2.8e-05
2017-02-23 00:00:00,2017-02-23 00:00:00,PRATE,surface,-104.063,25.0393,1.27e-05
2017-02-23 00:00:00,2017-02-23 00:00:00,PRATE,surface,-103.125,25.0393,4.6e-06
2017-02-23 00:00:00,2017-02-23 00:00:00,PRATE,surface,-102.188,25.0393,4.6e-06
2017-02-23 00:00:00,2017-02-23 00:00:00,PRATE,surface,-101.25,25.0393,3.54e-05
2017-02-23 00:00:00,2017-02-23 00:00:00,PRATE,surface,-100.313,25.0393,6.3e-05
2017-02-23 00:00:00,2017-02-23 00:00:00,PRATE,surface,-99.3754,25.0393,4.7e-05
2017-02-23 00:00:00,2017-02-23 00:00:00,PRATE,surface,-98.4379,25.0393,1.73e-05
2017-02-23 00:00:00,2017-02-23 00:00:00,PRATE,surface,-97.5004,25.0393,2.17e-05
2017-02-23 00:00:00,2017-02-23 00:00:00,PRATE,surface,-96.5629,25.0393,7.3e-06
2017-02-23 00:00:00,2017-02-23 00:00:00,PRATE,surface,-95.6254,25.0393,5.3e-06
2017-02-23 00:00:00,2017-02-23 00:00:00,PRATE,surface,-94.6879,25.0393,1.28e-05
2017-02-23 00:00:00,2017-02-23 00:00:00,PRATE,surface,-93.7504,25.0393,1.14e-05
2017-02-23 00:00:00,2017-02-23 00:00:00,PRATE,surface,-92.8129,25.0393,6.9e-06
2017-02-23 00:00:00,2017-02-23 00:00:00,PRATE,surface,-107.813,25.9842,0
2017-02-23 00:00:00,2017-02-23 00:00:00,PRATE,surface,-106.875,25.9842,9.6e-06
2017-02-23 00:00:00,2017-02-23 00:00:00,PRATE,surface,-105.938,25.9842,3.39e-05
2017-02-23 00:00:00,2017-02-23 00:00:00,PRATE,surface,-105,25.9842,2.51e-05
2017-02-23 00:00:00,2017-02-23 00:00:00,PRATE,surface,-104.063,25.9842,1.63e-05
2017-02-23 00:00:00,2017-02-23 00:00:00,PRATE,surface,-103.125,25.9842,7e-06
2017-02-23 00:00:00,2017-02-23 00:00:00,PRATE,surface,-102.188,25.9842,5.4e-06
2017-02-23 00:00:00,2017-02-23 00:00:00,PRATE,surface,-101.25,25.9842,2.37e-05
2017-02-23 00:00:00,2017-02-23 00:00:00,PRATE,surface,-100.313,25.9842,4.35e-05
2017-02-23 00:00:00,2017-02-23 00:00:00,PRATE,surface,-99.3754,25.9842,1.64e-05
2017-02-23 00:00:00,2017-02-23 00:00:00,PRATE,surface,-98.4379,25.9842,2.47e-05
2017-02-23 00:00:00,2017-02-23 00:00:00,PRATE,surface,-97.5004,25.9842,5.23e-05
2017-02-23 00:00:00,2017-02-23 00:00:00,PRATE,surface,-96.5629,25.9842,2.21e-05
2017-02-23 00:00:00,2017-02-23 00:00:00,PRATE,surface,-95.6254,25.9842,1.15e-05
2017-02-23 00:00:00,2017-02-23 00:00:00,PRATE,surface,-94.6879,25.9842,1.21e-05
2017-02-23 00:00:00,2017-02-23 00:00:00,PRATE,surface,-93.7504,25.9842,1.09e-05
2017-02-23 00:00:00,2017-02-23 00:00:00,PRATE,surface,-92.8129,25.9842,1.18e-05
2017-02-23 00:00:00,2017-02-23 00:00:00,PRATE,surface,-107.813,26.929,0
2017-02-23 00:00:00,2017-02-23 00:00:00,PRATE,surface,-106.875,26.929,7.4e-06
2017-02-23 00:00:00,2017-02-23 00:00:00,PRATE,surface,-105.938,26.929,2.27e-05
2017-02-23 00:00:00,2017-02-23 00:00:00,PRATE,surface,-105,26.929,2.85e-05
2017-02-23 00:00:00,2017-02-23 00:00:00,PRATE,surface,-104.063,26.929,1.88e-05
2017-02-23 00:00:00,2017-02-23 00:00:00,PRATE,surface,-103.125,26.929,2.46e-05
2017-02-23 00:00:00,2017-02-23 00:00:00,PRATE,surface,-102.188,26.929,3.51e-05
2017-02-23 00:00:00,2017-02-23 00:00:00,PRATE,surface,-101.25,26.929,3.08e-05
2017-02-23 00:00:00,2017-02-23 00:00:00,PRATE,surface,-100.313,26.929,1.01e-05
2017-02-23 00:00:00,2017-02-23 00:00:00,PRATE,surface,-99.3754,26.929,1.89e-05
2017-02-23 00:00:00,2017-02-23 00:00:00,PRATE,surface,-98.4379,26.929,4.02e-05
2017-02-23 00:00:00,2017-02-23 00:00:00,PRATE,surface,-97.5004,26.929,3.33e-05
2017-02-23 00:00:00,2017-02-23 00:00:00,PRATE,surface,-96.5629,26.929,1.59e-05
2017-02-23 00:00:00,2017-02-23 00:00:00,PRATE,surface,-95.6254,26.929,6.7e-06
2017-02-23 00:00:00,2017-02-23 00:00:00,PRATE,surface,-94.6879,26.929,2.4e-06
2017-02-23 00:00:00,2017-02-23 00:00:00,PRATE,surface,-93.7504,26.929,5e-06
2017-02-23 00:00:00,2017-02-23 00:00:00,PRATE,surface,-92.8129,26.929,6.2e-06
2017-02-23 00:00:00,2017-02-23 00:00:00,PRATE,surface,-107.813,27.8739,2.2e-06
2017-02-23 00:00:00,2017-02-23 00:00:00,PRATE,surface,-106.875,27.8739,7.9e-06
2017-02-23 00:00:00,2017-02-23 00:00:00,PRATE,surface,-105.938,27.8739,1.34e-05
2017-02-23 00:00:00,2017-02-23 00:00:00,PRATE,surface,-105,27.8739,7.6e-06
2017-02-23 00:00:00,2017-02-23 00:00:00,PRATE,surface,-104.063,27.8739,3.05e-05
2017-02-23 00:00:00,2017-02-23 00:00:00,PRATE,surface,-103.125,27.8739,6.29e-05
2017-02-23 00:00:00,2017-02-23 00:00:00,PRATE,surface,-102.188,27.8739,4.88e-05
2017-02-23 00:00:00,2017-02-23 00:00:00,PRATE,surface,-101.25,27.8739,2.51e-05
2017-02-23 00:00:00,2017-02-23 00:00:00,PRATE,surface,-100.313,27.8739,1.72e-05
2017-02-23 00:00:00,2017-02-23 00:00:00,PRATE,surface,-99.3754,27.8739,2.65e-05
2017-02-23 00:00:00,2017-02-23 00:00:00,PRATE,surface,-98.4379,27.8739,6.09e-05
2017-02-23 00:00:00,2017-02-23 00:00:00,PRATE,surface,-97.5004,27.8739,5.14e-05
2017-02-23 00:00:00,2017-02-23 00:00:00,PRATE,surface,-96.5629,27.8739,1.79e-05
2017-02-23 00:00:00,2017-02-23 00:00:00,PRATE,surface,-95.6254,27.8739,1.74e-05
2017-02-23 00:00:00,2017-02-23 00:00:00,PRATE,surface,-94.6879,27.8739,1.72e-05
2017-02-23 00:00:00,2017-02-23 00:00:00,PRATE,surface,-93.7504,27.8739,8.9e-06
2017-02-23 00:00:00,2017-02-23 00:00:00,PRATE,surface,-92.8129,27.8739,4.4e-06
2017-02-23 00:00:00,2017-02-23 00:00:00,PRATE,surface,-107.813,28.8188,1.1e-05
2017-02-23 00:00:00,2017-02-23 00:00:00,PRATE,surface,-106.875,28.8188,2.3e-05
2017-02-23 00:00:00,2017-02-23 00:00:00,PRATE,surface,-105.938,28.8188,2.24e-05
2017-02-23 00:00:00,2017-02-23 00:00:00,PRATE,surface,-105,28.8188,1.29e-05
2017-02-23 00:00:00,2017-02-23 00:00:00,PRATE,surface,-104.063,28.8188,2.4e-05
2017-02-23 00:00:00,2017-02-23 00:00:00,PRATE,surface,-103.125,28.8188,6.3e-05
2017-02-23 00:00:00,2017-02-23 00:00:00,PRATE,surface,-102.188,28.8188,3.57e-05
2017-02-23 00:00:00,2017-02-23 00:00:00,PRATE,surface,-101.25,28.8188,1.5e-05
2017-02-23 00:00:00,2017-02-23 00:00:00,PRATE,surface,-100.313,28.8188,3.09e-05
2017-02-23 00:00:00,2017-02-23 00:00:00,PRATE,surface,-99.3754,28.8188,5.92e-05
2017-02-23 00:00:00,2017-02-23 00:00:00,PRATE,surface,-98.4379,28.8188,8.33e-05
2017-02-23 00:00:00,2017-02-23 00:00:00,PRATE,surface,-97.5004,28.8188,8.32e-05
2017-02-23 00:00:00,2017-02-23 00:00:00,PRATE,surface,-96.5629,28.8188,7.06e-05
2017-02-23 00:00:00,2017-02-23 00:00:00,PRATE,surface,-95.6254,28.8188,7.33e-05
2017-02-23 00:00:00,2017-02-23 00:00:00,PRATE,surface,-94.6879,28.8188,7.97e-05
2017-02-23 00:00:00,2017-02-23 00:00:00,PRATE,surface,-93.7504,28.8188,6.19e-05
2017-02-23 00:00:00,2017-02-23 00:00:00,PRATE,surface,-92.8129,28.8188,3.15e-05
2017-02-23 00:00:00,2017-02-23 00:00:00,PRATE,surface,-107.813,29.7637,1.12e-05
2017-02-23 00:00:00,2017-02-23 00:00:00,PRATE,surface,-106.875,29.7637,2.24e-05
2017-02-23 00:00:00,2017-02-23 00:00:00,PRATE,surface,-105.938,29.7637,2.14e-05
2017-02-23 00:00:00,2017-02-23 00:00:00,PRATE,surface,-105,29.7637,1.39e-05
2017-02-23 00:00:00,2017-02-23 00:00:00,PRATE,surface,-104.063,29.7637,2.92e-05
2017-02-23 00:00:00,2017-02-23 00:00:00,PRATE,surface,-103.125,29.7637,2.98e-05
2017-02-23 00:00:00,2017-02-23 00:00:00,PRATE,surface,-102.188,29.7637,1.52e-05
2017-02-23 00:00:00,2017-02-23 00:00:00,PRATE,surface,-101.25,29.7637,1.14e-05
2017-02-23 00:00:00,2017-02-23 00:00:00,PRATE,surface,-100.313,29.7637,4.69e-05
2017-02-23 00:00:00,2017-02-23 00:00:00,PRATE,surface,-99.3754,29.7637,8.82e-05
2017-02-23 00:00:00,2017-02-23 00:00:00,PRATE,surface,-98.4379,29.7637,0.0001129
2017-02-23 00:00:00,2017-02-23 00:00:00,PRATE,surface,-97.5004,29.7637,0.0001044
2017-02-23 00:00:00,2017-02-23 00:00:00,PRATE,surface,-96.5629,29.7637,8.64e-05
2017-02-23 00:00:00,2017-02-23 00:00:00,PRATE,surface,-95.6254,29.7637,9.44e-05
2017-02-23 00:00:00,2017-02-23 00:00:00,PRATE,surface,-94.6879,29.7637,0.0001088
2017-02-23 00:00:00,2017-02-23 00:00:00,PRATE,surface,-93.7504,29.7637,9.43e-05
2017-02-23 00:00:00,2017-02-23 00:00:00,PRATE,surface,-92.8129,29.7637,6.93e-05
2017-02-23 00:00:00,2017-02-23 00:00:00,PRATE,surface,-107.813,30.7085,1.5e-06
2017-02-23 00:00:00,2017-02-23 00:00:00,PRATE,surface,-106.875,30.7085,4e-06
2017-02-23 00:00:00,2017-02-23 00:00:00,PRATE,surface,-105.938,30.7085,1.07e-05
2017-02-23 00:00:00,2017-02-23 00:00:00,PRATE,surface,-105,30.7085,1.14e-05
2017-02-23 00:00:00,2017-02-23 00:00:00,PRATE,surface,-104.063,30.7085,2.08e-05
2017-02-23 00:00:00,2017-02-23 00:00:00,PRATE,surface,-103.125,30.7085,1.98e-05
2017-02-23 00:00:00,2017-02-23 00:00:00,PRATE,surface,-102.188,30.7085,1.54e-05
2017-02-23 00:00:00,2017-02-23 00:00:00,PRATE,surface,-101.25,30.7085,1.16e-05
2017-02-23 00:00:00,2017-02-23 00:00:00,PRATE,surface,-100.313,30.7085,2.79e-05
2017-02-23 00:00:00,2017-02-23 00:00:00,PRATE,surface,-99.3754,30.7085,6.44e-05
2017-02-23 00:00:00,2017-02-23 00:00:00,PRATE,surface,-98.4379,30.7085,8.13e-05
2017-02-23 00:00:00,2017-02-23 00:00:00,PRATE,surface,-97.5004,30.7085,7.27e-05
2017-02-23 00:00:00,2017-02-23 00:00:00,PRATE,surface,-96.5629,30.7085,6.56e-05
2017-02-23 00:00:00,2017-02-23 00:00:00,PRATE,surface,-95.6254,30.7085,7.66e-05
2017-02-23 00:00:00,2017-02-23 00:00:00,PRATE,surface,-94.6879,30.7085,9.35e-05
2017-02-23 00:00:00,2017-02-23 00:00:00,PRATE,surface,-93.7504,30.7085,9.1e-05
2017-02-23 00:00:00,2017-02-23 00:00:00,PRATE,surface,-92.8129,30.7085,7.16e-05
2017-02-23 00:00:00,2017-02-23 00:00:00,PRATE,surface,-107.813,31.6534,2.1e-06
2017-02-23 00:00:00,2017-02-23 00:00:00,PRATE,surface,-106.875,31.6534,2.9e-06
2017-02-23 00:00:00,2017-02-23 00:00:00,PRATE,surface,-105.938,31.6534,8.6e-06
2017-02-23 00:00:00,2017-02-23 00:00:00,PRATE,surface,-105,31.6534,1.09e-05
2017-02-23 00:00:00,2017-02-23 00:00:00,PRATE,surface,-104.063,31.6534,1.38e-05
2017-02-23 00:00:00,2017-02-23 00:00:00,PRATE,surface,-103.125,31.6534,8.6e-06
2017-02-23 00:00:00,2017-02-23 00:00:00,PRATE,surface,-102.188,31.6534,2.41e-05
2017-02-23 00:00:00,2017-02-23 00:00:00,PRATE,surface,-101.25,31.6534,3.78e-05
2017-02-23 00:00:00,2017-02-23 00:00:00,PRATE,surface,-100.313,31.6534,3.35e-05
2017-02-23 00:00:00,2017-02-23 00:00:00,PRATE,surface,-99.3754,31.6534,4.23e-05
2017-02-23 00:00:00,2017-02-23 00:00:00,PRATE,surface,-98.4379,31.6534,6.35e-05
2017-02-23 00:00:00,2017-02-23 00:00:00,PRATE,surface,-97.5004,31.6534,6.88e-05
2017-02-23 00:00:00,2017-02-23 00:00:00,PRATE,surface,-96.5629,31.6534,5.97e-05
2017-02-23 00:00:00,2017-02-23 00:00:00,PRATE,surface,-95.6254,31.6534,5.8e-05
2017-02-23 00:00:00,2017-02-23 00:00:00,PRATE,surface,-94.6879,31.6534,6.59e-05
2017-02-23 00:00:00,2017-02-23 00:00:00,PRATE,surface,-93.7504,31.6534,7.29e-05
2017-02-23 00:00:00,2017-02-23 00:00:00,PRATE,surface,-92.8129,31.6534,7.03e-05
2017-02-23 00:00:00,2017-02-23 00:00:00,PRATE,surface,-107.813,32.5983,6.1e-06
2017-02-23 00:00:00,2017-02-23 00:00:00,PRATE,surface,-106.875,32.5983,4e-06
2017-02-23 00:00:00,2017-02-23 00:00:00,PRATE,surface,-105.938,32.5983,8.1e-06
2017-02-23 00:00:00,2017-02-23 00:00:00,PRATE,surface,-105,32.5983,1.06e-05
2017-02-23 00:00:00,2017-02-23 00:00:00,PRATE,surface,-104.063,32.5983,2.04e-05
2017-02-23 00:00:00,2017-02-23 00:00:00,PRATE,surface,-103.125,32.5983,1.98e-05
2017-02-23 00:00:00,2017-02-23 00:00:00,PRATE,surface,-102.188,32.5983,4.56e-05
2017-02-23 00:00:00,2017-02-23 00:00:00,PRATE,surface,-101.25,32.5983,6.54e-05
2017-02-23 00:00:00,2017-02-23 00:00:00,PRATE,surface,-100.313,32.5983,6.74e-05
2017-02-23 00:00:00,2017-02-23 00:00:00,PRATE,surface,-99.3754,32.5983,6.2e-05
2017-02-23 00:00:00,2017-02-23 00:00:00,PRATE,surface,-98.4379,32.5983,7.02e-05
2017-02-23 00:00:00,2017-02-23 00:00:00,PRATE,surface,-97.5004,32.5983,8.95e-05
2017-02-23 00:00:00,2017-02-23 00:00:00,PRATE,surface,-96.5629,32.5983,9.13e-05
2017-02-23 00:00:00,2017-02-23 00:00:00,PRATE,surface,-95.6254,32.5983,7.19e-05
2017-02-23 00:00:00,2017-02-23 00:00:00,PRATE,surface,-94.6879,32.5983,6.31e-05
2017-02-23 00:00:00,2017-02-23 00:00:00,PRATE,surface,-93.7504,32.5983,7.38e-05
2017-02-23 00:00:00,2017-02-23 00:00:00,PRATE,surface,-92.8129,32.5983,7.23e-05
2017-02-23 00:00:00,2017-02-23 00:00:00,PRATE,surface,-107.813,33.5432,3.29e-05
2017-02-23 00:00:00,2017-02-23 00:00:00,PRATE,surface,-106.875,33.5432,2.66e-05
2017-02-23 00:00:00,2017-02-23 00:00:00,PRATE,surface,-105.938,33.5432,2.72e-05
2017-02-23 00:00:00,2017-02-23 00:00:00,PRATE,surface,-105,33.5432,2.94e-05
2017-02-23 00:00:00,2017-02-23 00:00:00,PRATE,surface,-104.063,33.5432,3.82e-05
2017-02-23 00:00:00,2017-02-23 00:00:00,PRATE,surface,-103.125,33.5432,5.34e-05
2017-02-23 00:00:00,2017-02-23 00:00:00,PRATE,surface,-102.188,33.5432,6.2e-05
2017-02-23 00:00:00,2017-02-23 00:00:00,PRATE,surface,-101.25,33.5432,7.36e-05
2017-02-23 00:00:00,2017-02-23 00:00:00,PRATE,surface,-100.313,33.5432,8.1e-05
2017-02-23 00:00:00,2017-02-23 00:00:00,PRATE,surface,-99.3754,33.5432,7.73e-05
2017-02-23 00:00:00,2017-02-23 00:00:00,PRATE,surface,-98.4379,33.5432,9.03e-05
2017-02-23 00:00:00,2017-02-23 00:00:00,PRATE,surface,-97.5004,33.5432,0.0001121
2017-02-23 00:00:00,2017-02-23 00:00:00,PRATE,surface,-96.5629,33.5432,0.000105
2017-02-23 00:00:00,2017-02-23 00:00:00,PRATE,surface,-95.6254,33.5432,7.73e-05
2017-02-23 00:00:00,2017-02-23 00:00:00,PRATE,surface,-94.6879,33.5432,6.95e-05
2017-02-23 00:00:00,2017-02-23 00:00:00,PRATE,surface,-93.7504,33.5432,8.1e-05
2017-02-23 00:00:00,2017-02-23 00:00:00,PRATE,surface,-92.8129,33.5432,8.61e-05
2017-02-23 00:00:00,2017-02-23 00:00:00,PRATE,surface,-107.813,34.4881,2.95e-05
2017-02-23 00:00:00,2017-02-23 00:00:00,PRATE,surface,-106.875,34.4881,2.27e-05
2017-02-23 00:00:00,2017-02-23 00:00:00,PRATE,surface,-105.938,34.4881,2.07e-05
2017-02-23 00:00:00,2017-02-23 00:00:00,PRATE,surface,-105,34.4881,2.92e-05
2017-02-23 00:00:00,2017-02-23 00:00:00,PRATE,surface,-104.063,34.4881,4.37e-05
2017-02-23 00:00:00,2017-02-23 00:00:00,PRATE,surface,-103.125,34.4881,4.72e-05
2017-02-23 00:00:00,2017-02-23 00:00:00,PRATE,surface,-102.188,34.4881,5.41e-05
2017-02-23 00:00:00,2017-02-23 00:00:00,PRATE,surface,-101.25,34.4881,5.52e-05
2017-02-23 00:00:00,2017-02-23 00:00:00,PRATE,surface,-100.313,34.4881,5.97e-05
2017-02-23 00:00:00,2017-02-23 00:00:00,PRATE,surface,-99.3754,34.4881,6.88e-05
2017-02-23 00:00:00,2017-02-23 00:00:00,PRATE,surface,-98.4379,34.4881,0.0001017
2017-02-23 00:00:00,2017-02-23 00:00:00,PRATE,surface,-97.5004,34.4881,0.0001337
2017-02-23 00:00:00,2017-02-23 00:00:00,PRATE,surface,-96.5629,34.4881,0.0001274
2017-02-23 00:00:00,2017-02-23 00:00:00,PRATE,surface,-95.6254,34.4881,9.99e-05
2017-02-23 00:00:00,2017-02-23 00:00:00,PRATE,surface,-94.6879,34.4881,8.82e-05
2017-02-23 00:00:00,2017-02-23 00:00:00,PRATE,surface,-93.7504,34.4881,9.04e-05
2017-02-23 00:00:00,2017-02-23 00:00:00,PRATE,surface,-92.8129,34.4881,9.58e-05
2017-02-23 00:00:00,2017-02-23 00:00:00,PRATE,surface,-107.813,35.4329,1.01e-05
2017-02-23 00:00:00,2017-02-23 00:00:00,PRATE,surface,-106.875,35.4329,1.1e-05
2017-02-23 00:00:00,2017-02-23 00:00:00,PRATE,surface,-105.938,35.4329,1.5e-05
2017-02-23 00:00:00,2017-02-23 00:00:00,PRATE,surface,-105,35.4329,3.23e-05
2017-02-23 00:00:00,2017-02-23 00:00:00,PRATE,surface,-104.063,35.4329,4.58e-05
2017-02-23 00:00:00,2017-02-23 00:00:00,PRATE,surface,-103.125,35.4329,4.27e-05
2017-02-23 00:00:00,2017-02-23 00:00:00,PRATE,surface,-102.188,35.4329,4.09e-05
2017-02-23 00:00:00,2017-02-23 00:00:00,PRATE,surface,-101.25,35.4329,3.76e-05
2017-02-23 00:00:00,2017-02-23 00:00:00,PRATE,surface,-100.313,35.4329,3.24e-05
2017-02-23 00:00:00,2017-02-23 00:00:00,PRATE,surface,-99.3754,35.4329,3.57e-05
2017-02-23 00:00:00,2017-02-23 00:00:00,PRATE,surface,-98.4379,35.4329,6.08e-05
2017-02-23 00:00:00,2017-02-23 00:00:00,PRATE,surface,-97.5004,35.4329,9.67e-05
2017-02-23 00:00:00,2017-02-23 00:00:00,PRATE,surface,-96.5629,35.4329,0.0001066
2017-02-23 00:00:00,2017-02-23 00:00:00,PRATE,surface,-95.6254,35.4329,9.21e-05
2017-02-23 00:00:00,2017-02-23 00:00:00,PRATE,surface,-94.6879,35.4329,8.61e-05
2017-02-23 00:00:00,2017-02-23 00:00:00,PRATE,surface,-93.7504,35.4329,8.38e-05
2017-02-23 00:00:00,2017-02-23 00:00:00,PRATE,surface,-92.8129,35.4329,8.16e-05
2017-02-23 00:00:00,2017-02-23 00:00:00,PRATE,surface,-107.813,36.3778,1.04e-05
2017-02-23 00:00:00,2017-02-23 00:00:00,PRATE,surface,-106.875,36.3778,1.63e-05
2017-02-23 00:00:00,2017-02-23 00:00:00,PRATE,surface,-105.938,36.3778,2.71e-05
2017-02-23 00:00:00,2017-02-23 00:00:00,PRATE,surface,-105,36.3778,4.16e-05
2017-02-23 00:00:00,2017-02-23 00:00:00,PRATE,surface,-104.063,36.3778,4.95e-05
2017-02-23 00:00:00,2017-02-23 00:00:00,PRATE,surface,-103.125,36.3778,4.43e-05
2017-02-23 00:00:00,2017-02-23 00:00:00,PRATE,surface,-102.188,36.3778,3.22e-05
2017-02-23 00:00:00,2017-02-23 00:00:00,PRATE,surface,-101.25,36.3778,3.01e-05
2017-02-23 00:00:00,2017-02-23 00:00:00,PRATE,surface,-100.313,36.3778,3.29e-05
2017-02-23 00:00:00,2017-02-23 00:00:00,PRATE,surface,-99.3754,36.3778,3.34e-05
2017-02-23 00:00:00,2017-02-23 00:00:00,PRATE,surface,-98.4379,36.3778,4.25e-05
2017-02-23 00:00:00,2017-02-23 00:00:00,PRATE,surface,-97.5004,36.3778,5.71e-05
2017-02-23 00:00:00,2017-02-23 00:00:00,PRATE,surface,-96.5629,36.3778,6.25e-05
2017-02-23 00:00:00,2017-02-23 00:00:00,PRATE,surface,-95.6254,36.3778,5.93e-05
2017-02-23 00:00:00,2017-02-23 00:00:00,PRATE,surface,-94.6879,36.3778,5.85e-05
2017-02-23 00:00:00,2017-02-23 00:00:00,PRATE,surface,-93.7504,36.3778,5.96e-05
2017-02-23 00:00:00,2017-02-23 00:00:00,PRATE,surface,-92.8129,36.3778,5.97e-05
