2015-08-11 00:00:00,2015-08-11 00:00:00,TMP,surface,-107.813,25.0393,291.955
2015-08-11 00:00:00,2015-08-11 00:00:00,TMP,surface,-106.875,25.0393,285.707
2015-08-11 00:00:00,2015-08-11 00:00:00,TMP,surface,-105.938,25.0393,280.776
2015-08-11 00:00:00,2015-08-11 00:00:00,TMP,surface,-105,25.0393,281.039
2015-08-11 00:00:00,2015-08-11 00:00:00,TMP,surface,-104.063,25.0393,285.638
2015-08-11 00:00:00,2015-08-11 00:00:00,TMP,surface,-103.125,25.0393,287.739
2015-08-11 00:00:00,2015-08-11 00:00:00,TMP,surface,-102.188,25.0393,286.72
2015-08-11 00:00:00,2015-08-11 00:00:00,TMP,surface,-101.25,25.0393,285.515
2015-08-11 00:00:00,2015-08-11 00:00:00,TMP,surface,-100.313,25.0393,286.139
2015-08-11 00:00:00,2015-08-11 00:00:00,TMP,surface,-99.3754,25.0393,287.885
2015-08-11 00:00:00,2015-08-11 00:00:00,TMP,surface,-98.4379,25.0393,290.507
2015-08-11 00:00:00,2015-08-11 00:00:00,TMP,surface,-97.5004,25.0393,294.01
2015-08-11 00:00:00,2015-08-11 00:00:00,TMP,surface,-96.5629,25.0393,294.358
2015-08-11 00:00:00,2015-08-11 00:00:00,TMP,surface,-95.6254,25.0393,294.754
2015-08-11 00:00:00,2015-08-11 00:00:00,TMP,surface,-94.6879,25.0393,294.754
2015-08-11 00:00:00,2015-08-11 00:00:00,TMP,surface,-93.7504,25.0393,294.594
2015-08-11 00:00:00,2015-08-11 00:00:00,TMP,surface,-92.8129,25.0393,294.781
2015-08-11 00:00:00,2015-08-11 00:00:00,TMP,surface,-107.813,25.9842,287.16
2015-08-11 00:00:00,2015-08-11 00:00:00,TMP,surface,-106.875,25.9842,281.056
2015-08-11 00:00:00,2015-08-11 00:00:00,TMP,surface,-105.938,25.9842,279.859
2015-08-11 00:00:00,2015-08-11 00:00:00,TMP,surface,-105,25.9842,283.738
2015-08-11 00:00:00,2015-08-11 00:00:00,TMP,surface,-104.063,25.9842,287.901
2015-08-11 00:00:00,2015-08-11 00:00:00,TMP,surface,-103.125,25.9842,288.472
2015-08-11 00:00:00,2015-08-11 00:00:00,TMP,surface,-102.188,25.9842,287.615
2015-08-11 00:00:00,2015-08-11 00:00:00,TMP,surface,-101.25,25.9842,286.672
2015-08-11 00:00:00,2015-08-11 00:00:00,TMP,surface,-100.313,25.9842,286.607
2015-08-11 00:00:00,2015-08-11 00:00:00,TMP,surface,-99.3754,25.9842,288.411
2015-08-11 00:00:00,2015-08-11 00:00:00,TMP,surface,-98.4379,25.9842,289.832
2015-08-11 00:00:00,2015-08-11 00:00:00,TMP,surface,-97.5004,25.9842,290.677
2015-08-11 00:00:00,2015-08-11 00:00:00,TMP,surface,-96.5629,25.9842,293.707
2015-08-11 00:00:00,2015-08-11 00:00:00,TMP,surface,-95.6254,25.9842,294.285
2015-08-11 00:00:00,2015-08-11 00:00:00,TMP,surface,-94.6879,25.9842,294.315
2015-08-11 00:00:00,2015-08-11 00:00:00,TMP,surface,-93.7504,25.9842,294.114
2015-08-11 00:00:00,2015-08-11 00:00:00,TMP,surface,-92.8129,25.9842,294.104
2015-08-11 00:00:00,2015-08-11 00:00:00,TMP,surface,-107.813,26.929,281.722
2015-08-11 00:00:00,2015-08-11 00:00:00,TMP,surface,-106.875,26.929,278.709
2015-08-11 00:00:00,2015-08-11 00:00:00,TMP,surface,-105.938,26.929,281.819
2015-08-11 00:00:00,2015-08-11 00:00:00,TMP,surface,-105,26.929,285.866
2015-08-11 00:00:00,2015-08-11 00:00:00,TMP,surface,-104.063,26.929,287.435
2015-08-11 00:00:00,2015-08-11 00:00:00,TMP,surface,-103.125,26.929,286.568
2015-08-11 00:00:00,2015-08-11 00:00:00,TMP,surface,-102.188,26.929,286.211
2015-08-11 00:00:00,2015-08-11 00:00:00,TMP,surface,-101.25,26.929,286.587
2015-08-11 00:00:00,2015-08-11 00:00:00,TMP,surface,-100.313,26.929,287.2
2015-08-11 00:00:00,2015-08-11 00:00:00,TMP,surface,-99.3754,26.929,288.003
2015-08-11 00:00:00,2015-08-11 00:00:00,TMP,surface,-98.4379,26.929,288.174
2015-08-11 00:00:00,2015-08-11 00:00:00,TMP,surface,-97.5004,26.929,292.014
2015-08-11 00:00:00,2015-08-11 00:00:00,TMP,surface,-96.5629,26.929,292.896
2015-08-11 00:00:00,2015-08-11 00:00:00,TMP,surface,-95.6254,26.929,293.699
2015-08-11 00:00:00,2015-08-11 00:00:00,TMP,surface,-94.6879,26.929,293.813
2015-08-11 00:00:00,2015-08-11 00:00:00,TMP,surface,-93.7504,26.929,293.534
2015-08-11 00:00:00,2015-08-11 00:00:00,TMP,surface,-92.8129,26.929,293.384
2015-08-11 00:00:00,2015-08-11 00:00:00,TMP,surface,-107.813,27.8739,279.018
2015-08-11 00:00:00,2015-08-11 00:00:00,TMP,surface,-106.875,27.8739,279.05
2015-08-11 00:00:00,2015-08-11 00:00:00,TMP,surface,-105.938,27.8739,283.317
2015-08-11 00:00:00,2015-08-11 00:00:00,TMP,surface,-105,27.8739,286.286
2015-08-11 00:00:00,2015-08-11 00:00:00,TMP,surface,-104.063,27.8739,286.24
2015-08-11 00:00:00,2015-08-11 00:00:00,TMP,surface,-103.125,27.8739,284.856
2015-08-11 00:00:00,2015-08-11 00:00:00,TMP,surface,-102.188,27.8739,284.72
2015-08-11 00:00:00,2015-08-11 00:00:00,TMP,surface,-101.25,27.8739,285.715
2015-08-11 00:00:00,2015-08-11 00:00:00,TMP,surface,-100.313,27.8739,286.488
2015-08-11 00:00:00,2015-08-11 00:00:00,TMP,surface,-99.3754,27.8739,286.429
2015-08-11 00:00:00,2015-08-11 00:00:00,TMP,surface,-98.4379,27.8739,286.251
2015-08-11 00:00:00,2015-08-11 00:00:00,TMP,surface,-97.5004,27.8739,289.298
2015-08-11 00:00:00,2015-08-11 00:00:00,TMP,surface,-96.5629,27.8739,292.592
2015-08-11 00:00:00,2015-08-11 00:00:00,TMP,surface,-95.6254,27.8739,292.827
2015-08-11 00:00:00,2015-08-11 00:00:00,TMP,surface,-94.6879,27.8739,292.613
2015-08-11 00:00:00,2015-08-11 00:00:00,TMP,surface,-93.7504,27.8739,292.352
2015-08-11 00:00:00,2015-08-11 00:00:00,TMP,surface,-92.8129,27.8739,292.261
2015-08-11 00:00:00,2015-08-11 00:00:00,TMP,surface,-107.813,28.8188,278.279
2015-08-11 00:00:00,2015-08-11 00:00:00,TMP,surface,-106.875,28.8188,279.992
2015-08-11 00:00:00,2015-08-11 00:00:00,TMP,surface,-105.938,28.8188,283.767
2015-08-11 00:00:00,2015-08-11 00:00:00,TMP,surface,-105,28.8188,285.613
2015-08-11 00:00:00,2015-08-11 00:00:00,TMP,surface,-104.063,28.8188,284.528
2015-08-11 00:00:00,2015-08-11 00:00:00,TMP,surface,-103.125,28.8188,283.331
2015-08-11 00:00:00,2015-08-11 00:00:00,TMP,surface,-102.188,28.8188,283.611
2015-08-11 00:00:00,2015-08-11 00:00:00,TMP,surface,-101.25,28.8188,284.65
2015-08-11 00:00:00,2015-08-11 00:00:00,TMP,surface,-100.313,28.8188,284.651
2015-08-11 00:00:00,2015-08-11 00:00:00,TMP,surface,-99.3754,28.8188,284.099
2015-08-11 00:00:00,2015-08-11 00:00:00,TMP,surface,-98.4379,28.8188,284
2015-08-11 00:00:00,2015-08-11 00:00:00,TMP,surface,-97.5004,28.8188,284.547
2015-08-11 00:00:00,2015-08-11 00:00:00,TMP,surface,-96.5629,28.8188,285.279
2015-08-11 00:00:00,2015-08-11 00:00:00,TMP,surface,-95.6254,28.8188,288
2015-08-11 00:00:00,2015-08-11 00:00:00,TMP,surface,-94.6879,28.8188,291.831
2015-08-11 00:00:00,2015-08-11 00:00:00,TMP,surface,-93.7504,28.8188,291.672
2015-08-11 00:00:00,2015-08-11 00:00:00,TMP,surface,-92.8129,28.8188,291.686
2015-08-11 00:00:00,2015-08-11 00:00:00,TMP,surface,-107.813,29.7637,279.709
2015-08-11 00:00:00,2015-08-11 00:00:00,TMP,surface,-106.875,29.7637,281.286
2015-08-11 00:00:00,2015-08-11 00:00:00,TMP,surface,-105.938,29.7637,283.531
2015-08-11 00:00:00,2015-08-11 00:00:00,TMP,surface,-105,29.7637,283.517
2015-08-11 00:00:00,2015-08-11 00:00:00,TMP,surface,-104.063,29.7637,283.151
2015-08-11 00:00:00,2015-08-11 00:00:00,TMP,surface,-103.125,29.7637,282.952
2015-08-11 00:00:00,2015-08-11 00:00:00,TMP,surface,-102.188,29.7637,283.478
2015-08-11 00:00:00,2015-08-11 00:00:00,TMP,surface,-101.25,29.7637,283.563
2015-08-11 00:00:00,2015-08-11 00:00:00,TMP,surface,-100.313,29.7637,282.723
2015-08-11 00:00:00,2015-08-11 00:00:00,TMP,surface,-99.3754,29.7637,282.091
2015-08-11 00:00:00,2015-08-11 00:00:00,TMP,surface,-98.4379,29.7637,282.131
2015-08-11 00:00:00,2015-08-11 00:00:00,TMP,surface,-97.5004,29.7637,282.549
2015-08-11 00:00:00,2015-08-11 00:00:00,TMP,surface,-96.5629,29.7637,283.08
2015-08-11 00:00:00,2015-08-11 00:00:00,TMP,surface,-95.6254,29.7637,283.72
2015-08-11 00:00:00,2015-08-11 00:00:00,TMP,surface,-94.6879,29.7637,286.443
2015-08-11 00:00:00,2015-08-11 00:00:00,TMP,surface,-93.7504,29.7637,289.798
2015-08-11 00:00:00,2015-08-11 00:00:00,TMP,surface,-92.8129,29.7637,285.114
2015-08-11 00:00:00,2015-08-11 00:00:00,TMP,surface,-107.813,30.7085,282.122
2015-08-11 00:00:00,2015-08-11 00:00:00,TMP,surface,-106.875,30.7085,283.147
2015-08-11 00:00:00,2015-08-11 00:00:00,TMP,surface,-105.938,30.7085,282.968
2015-08-11 00:00:00,2015-08-11 00:00:00,TMP,surface,-105,30.7085,281.979
2015-08-11 00:00:00,2015-08-11 00:00:00,TMP,surface,-104.063,30.7085,281.879
2015-08-11 00:00:00,2015-08-11 00:00:00,TMP,surface,-103.125,30.7085,282.45
2015-08-11 00:00:00,2015-08-11 00:00:00,TMP,surface,-102.188,30.7085,282.823
2015-08-11 00:00:00,2015-08-11 00:00:00,TMP,surface,-101.25,30.7085,282.285
2015-08-11 00:00:00,2015-08-11 00:00:00,TMP,surface,-100.313,30.7085,281.342
2015-08-11 00:00:00,2015-08-11 00:00:00,TMP,surface,-99.3754,30.7085,280.887
2015-08-11 00:00:00,2015-08-11 00:00:00,TMP,surface,-98.4379,30.7085,281.167
2015-08-11 00:00:00,2015-08-11 00:00:00,TMP,surface,-97.5004,30.7085,281.738
2015-08-11 00:00:00,2015-08-11 00:00:00,TMP,surface,-96.5629,30.7085,282.266
2015-08-11 00:00:00,2015-08-11 00:00:00,TMP,surface,-95.6254,30.7085,282.653
2015-08-11 00:00:00,2015-08-11 00:00:00,TMP,surface,-94.6879,30.7085,282.861
2015-08-11 00:00:00,2015-08-11 00:00:00,TMP,surface,-93.7504,30.7085,282.962
2015-08-11 00:00:00,2015-08-11 00:00:00,TMP,surface,-92.8129,30.7085,282.763
2015-08-11 00:00:00,2015-08-11 00:00:00,TMP,surface,-107.813,31.6534,282.416
2015-08-11 00:00:00,2015-08-11 00:00:00,TMP,surface,-106.875,31.6534,282.96
2015-08-11 00:00:00,2015-08-11 00:00:00,TMP,surface,-105.938,31.6534,281.879
2015-08-11 00:00:00,2015-08-11 00:00:00,TMP,surface,-105,31.6534,281.126
2015-08-11 00:00:00,2015-08-11 00:00:00,TMP,surface,-104.063,31.6534,281.28
2015-08-11 00:00:00,2015-08-11 00:00:00,TMP,surface,-103.125,31.6534,281.827
2015-08-11 00:00:00,2015-08-11 00:00:00,TMP,surface,-102.188,31.6534,281.755
2015-08-11 00:00:00,2015-08-11 00:00:00,TMP,surface,-101.25,31.6534,281.043
2015-08-11 00:00:00,2015-08-11 00:00:00,TMP,surface,-100.313,31.6534,280.461
2015-08-11 00:00:00,2015-08-11 00:00:00,TMP,surface,-99.3754,31.6534,280.431
2015-08-11 00:00:00,2015-08-11 00:00:00,TMP,surface,-98.4379,31.6534,280.789
2015-08-11 00:00:00,2015-08-11 00:00:00,TMP,surface,-97.5004,31.6534,281.23
2015-08-11 00:00:00,2015-08-11 00:00:00,TMP,surface,-96.5629,31.6534,281.669
2015-08-11 00:00:00,2015-08-11 00:00:00,TMP,surface,-95.6254,31.6534,281.936
2015-08-11 00:00:00,2015-08-11 00:00:00,TMP,surface,-94.6879,31.6534,281.846
2015-08-11 00:00:00,2015-08-11 00:00:00,TMP,surface,-93.7504,31.6534,281.68
2015-08-11 00:00:00,2015-08-11 00:00:00,TMP,surface,-92.8129,31.6534,281.685
2015-08-11 00:00:00,2015-08-11 00:00:00,TMP,surface,-107.813,32.5983,279.771
2015-08-11 00:00:00,2015-08-11 00:00:00,TMP,surface,-106.875,32.5983,280.136
2015-08-11 00:00:00,2015-08-11 00:00:00,TMP,surface,-105.938,32.5983,280.24
2015-08-11 00:00:00,2015-08-11 00:00:00,TMP,surface,-105,32.5983,280.122
2015-08-11 00:00:00,2015-08-11 00:00:00,TMP,surface,-104.063,32.5983,280.754
2015-08-11 00:00:00,2015-08-11 00:00:00,TMP,surface,-103.125,32.5983,281.075
2015-08-11 00:00:00,2015-08-11 00:00:00,TMP,surface,-102.188,32.5983,280.338
2015-08-11 00:00:00,2015-08-11 00:00:00,TMP,surface,-101.25,32.5983,279.568
2015-08-11 00:00:00,2015-08-11 00:00:00,TMP,surface,-100.313,32.5983,279.341
2015-08-11 00:00:00,2015-08-11 00:00:00,TMP,surface,-99.3754,32.5983,279.576
2015-08-11 00:00:00,2015-08-11 00:00:00,TMP,surface,-98.4379,32.5983,279.915
2015-08-11 00:00:00,2015-08-11 00:00:00,TMP,surface,-97.5004,32.5983,280.232
2015-08-11 00:00:00,2015-08-11 00:00:00,TMP,surface,-96.5629,32.5983,280.592
2015-08-11 00:00:00,2015-08-11 00:00:00,TMP,surface,-95.6254,32.5983,280.858
2015-08-11 00:00:00,2015-08-11 00:00:00,TMP,surface,-94.6879,32.5983,280.798
2015-08-11 00:00:00,2015-08-11 00:00:00,TMP,surface,-93.7504,32.5983,280.637
2015-08-11 00:00:00,2015-08-11 00:00:00,TMP,surface,-92.8129,32.5983,280.797
2015-08-11 00:00:00,2015-08-11 00:00:00,TMP,surface,-107.813,33.5432,276.24
2015-08-11 00:00:00,2015-08-11 00:00:00,TMP,surface,-106.875,33.5432,277.263
2015-08-11 00:00:00,2015-08-11 00:00:00,TMP,surface,-105.938,33.5432,278.12
2015-08-11 00:00:00,2015-08-11 00:00:00,TMP,surface,-105,33.5432,278.613
2015-08-11 00:00:00,2015-08-11 00:00:00,TMP,surface,-104.063,33.5432,279.568
2015-08-11 00:00:00,2015-08-11 00:00:00,TMP,surface,-103.125,33.5432,279.189
2015-08-11 00:00:00,2015-08-11 00:00:00,TMP,surface,-102.188,33.5432,278.088
2015-08-11 00:00:00,2015-08-11 00:00:00,TMP,surface,-101.25,33.5432,277.456
2015-08-11 00:00:00,2015-08-11 00:00:00,TMP,surface,-100.313,33.5432,277.562
2015-08-11 00:00:00,2015-08-11 00:00:00,TMP,surface,-99.3754,33.5432,277.885
2015-08-11 00:00:00,2015-08-11 00:00:00,TMP,surface,-98.4379,33.5432,278.08
2015-08-11 00:00:00,2015-08-11 00:00:00,TMP,surface,-97.5004,33.5432,278.227
2015-08-11 00:00:00,2015-08-11 00:00:00,TMP,surface,-96.5629,33.5432,278.573
2015-08-11 00:00:00,2015-08-11 00:00:00,TMP,surface,-95.6254,33.5432,279.035
2015-08-11 00:00:00,2015-08-11 00:00:00,TMP,surface,-94.6879,33.5432,279.234
2015-08-11 00:00:00,2015-08-11 00:00:00,TMP,surface,-93.7504,33.5432,279.198
2015-08-11 00:00:00,2015-08-11 00:00:00,TMP,surface,-92.8129,33.5432,279.394
2015-08-11 00:00:00,2015-08-11 00:00:00,TMP,surface,-107.813,34.4881,274.974
2015-08-11 00:00:00,2015-08-11 00:00:00,TMP,surface,-106.875,34.4881,276.12
2015-08-11 00:00:00,2015-08-11 00:00:00,TMP,surface,-105.938,34.4881,276.987
2015-08-11 00:00:00,2015-08-11 00:00:00,TMP,surface,-105,34.4881,277.632
2015-08-11 00:00:00,2015-08-11 00:00:00,TMP,surface,-104.063,34.4881,277.296
2015-08-11 00:00:00,2015-08-11 00:00:00,TMP,surface,-103.125,34.4881,276.802
2015-08-11 00:00:00,2015-08-11 00:00:00,TMP,surface,-102.188,34.4881,275.902
2015-08-11 00:00:00,2015-08-11 00:00:00,TMP,surface,-101.25,34.4881,275.523
2015-08-11 00:00:00,2015-08-11 00:00:00,TMP,surface,-100.313,34.4881,275.722
2015-08-11 00:00:00,2015-08-11 00:00:00,TMP,surface,-99.3754,34.4881,276.111
2015-08-11 00:00:00,2015-08-11 00:00:00,TMP,surface,-98.4379,34.4881,276.263
2015-08-11 00:00:00,2015-08-11 00:00:00,TMP,surface,-97.5004,34.4881,276.365
2015-08-11 00:00:00,2015-08-11 00:00:00,TMP,surface,-96.5629,34.4881,276.843
2015-08-11 00:00:00,2015-08-11 00:00:00,TMP,surface,-95.6254,34.4881,277.462
2015-08-11 00:00:00,2015-08-11 00:00:00,TMP,surface,-94.6879,34.4881,277.682
2015-08-11 00:00:00,2015-08-11 00:00:00,TMP,surface,-93.7504,34.4881,277.655
2015-08-11 00:00:00,2015-08-11 00:00:00,TMP,surface,-92.8129,34.4881,277.872
2015-08-11 00:00:00,2015-08-11 00:00:00,TMP,surface,-107.813,35.4329,275.375
2015-08-11 00:00:00,2015-08-11 00:00:00,TMP,surface,-106.875,35.4329,275.392
2015-08-11 00:00:00,2015-08-11 00:00:00,TMP,surface,-105.938,35.4329,275.358
2015-08-11 00:00:00,2015-08-11 00:00:00,TMP,surface,-105,35.4329,275.269
2015-08-11 00:00:00,2015-08-11 00:00:00,TMP,surface,-104.063,35.4329,275.543
2015-08-11 00:00:00,2015-08-11 00:00:00,TMP,surface,-103.125,35.4329,275.118
2015-08-11 00:00:00,2015-08-11 00:00:00,TMP,surface,-102.188,35.4329,274.499
2015-08-11 00:00:00,2015-08-11 00:00:00,TMP,surface,-101.25,35.4329,274.309
2015-08-11 00:00:00,2015-08-11 00:00:00,TMP,surface,-100.313,35.4329,274.733
2015-08-11 00:00:00,2015-08-11 00:00:00,TMP,surface,-99.3754,35.4329,275.215
2015-08-11 00:00:00,2015-08-11 00:00:00,TMP,surface,-98.4379,35.4329,275.426
2015-08-11 00:00:00,2015-08-11 00:00:00,TMP,surface,-97.5004,35.4329,275.671
2015-08-11 00:00:00,2015-08-11 00:00:00,TMP,surface,-96.5629,35.4329,276.138
2015-08-11 00:00:00,2015-08-11 00:00:00,TMP,surface,-95.6254,35.4329,276.533
2015-08-11 00:00:00,2015-08-11 00:00:00,TMP,surface,-94.6879,35.4329,276.562
2015-08-11 00:00:00,2015-08-11 00:00:00,TMP,surface,-93.7504,35.4329,276.391
2015-08-11 00:00:00,2015-08-11 00:00:00,TMP,surface,-92.8129,35.4329,276.504
2015-08-11 00:00:00,2015-08-11 00:00:00,TMP,surface,-107.813,36.3778,274.659
2015-08-11 00:00:00,2015-08-11 00:00:00,TMP,surface,-106.875,36.3778,272.846
2015-08-11 00:00:00,2015-08-11 00:00:00,TMP,surface,-105.938,36.3778,272.491
2015-08-11 00:00:00,2015-08-11 00:00:00,TMP,surface,-105,36.3778,273.019
2015-08-11 00:00:00,2015-08-11 00:00:00,TMP,surface,-104.063,36.3778,273.581
2015-08-11 00:00:00,2015-08-11 00:00:00,TMP,surface,-103.125,36.3778,273.742
2015-08-11 00:00:00,2015-08-11 00:00:00,TMP,surface,-102.188,36.3778,273.501
2015-08-11 00:00:00,2015-08-11 00:00:00,TMP,surface,-101.25,36.3778,273.75
2015-08-11 00:00:00,2015-08-11 00:00:00,TMP,surface,-100.313,36.3778,274.442
2015-08-11 00:00:00,2015-08-11 00:00:00,TMP,surface,-99.3754,36.3778,275.014
2015-08-11 00:00:00,2015-08-11 00:00:00,TMP,surface,-98.4379,36.3778,275.238
2015-08-11 00:00:00,2015-08-11 00:00:00,TMP,surface,-97.5004,36.3778,275.53
2015-08-11 00:00:00,2015-08-11 00:00:00,TMP,surface,-96.5629,36.3778,275.939
2015-08-11 00:00:00,2015-08-11 00:00:00,TMP,surface,-95.6254,36.3778,276.074
2015-08-11 00:00:00,2015-08-11 00:00:00,TMP,surface,-94.6879,36.3778,275.826
2015-08-11 00:00:00,2015-08-11 00:00:00,TMP,surface,-93.7504,36.3778,275.496
2015-08-11 00:00:00,2015-08-11 00:00:00,TMP,surface,-92.8129,36.3778,275.587
2015-08-11 00:00:00,2015-08-11 00:00:00,PRATE,surface,-107.813,25.0393,4.12e-05
2015-08-11 00:00:00,2015-08-11 00:00:00,PRATE,surface,-106.875,25.0393,5.86e-05
2015-08-11 00:00:00,2015-08-11 00:00:00,PRATE,surface,-105.938,25.0393,4.32e-05
2015-08-11 00:00:00,2015-08-11 00:00:00,PRATE,surface,-105,25.0393,1.31e-05
2015-08-11 00:00:00,2015-08-11 00:00:00,PRATE,surface,-104.063,25.0393,4.6e-06
2015-08-11 00:00:00,2015-08-11 00:00:00,PRATE,surface,-103.125,25.0393,3e-06
2015-08-11 00:00:00,2015-08-11 00:00:00,PRATE,surface,-102.188,25.0393,4.1e-06
2015-08-11 00:00:00,2015-08-11 00:00:00,PRATE,surface,-101.25,25.0393,5.3e-06
2015-08-11 00:00:00,2015-08-11 00:00:00,PRATE,surface,-100.313,25.0393,9.7e-06
2015-08-11 00:00:00,2015-08-11 00:00:00,PRATE,surface,-99.3754,25.0393,3.19e-05
2015-08-11 00:00:00,2015-08-11 00:00:00,PRATE,surface,-98.4379,25.0393,2.1e-05
2015-08-11 00:00:00,2015-08-11 00:00:00,PRATE,surface,-97.5004,25.0393,2.17e-05
2015-08-11 00:00:00,2015-08-11 00:00:00,PRATE,surface,-96.5629,25.0393,3.37e-05
2015-08-11 00:00:00,2015-08-11 00:00:00,PRATE,surface,-95.6254,25.0393,4.27e-05
2015-08-11 00:00:00,2015-08-11 00:00:00,PRATE,surface,-94.6879,25.0393,3.98e-05
2015-08-11 00:00:00,2015-08-11 00:00:00,PRATE,surface,-93.7504,25.0393,4.48e-05
2015-08-11 00:00:00,2015-08-11 00:00:00,PRATE,surface,-92.8129,25.0393,4.76e-05
2015-08-11 00:00:00,2015-08-11 00:00:00,PRATE,surface,-107.813,25.9842,5.8e-05
2015-08-11 00:00:00,2015-08-11 00:00:00,PRATE,surface,-106.875,25.9842,5.58e-05
2015-08-11 00:00:00,2015-08-11 00:00:00,PRATE,surface,-105.938,25.9842,2.55e-05
2015-08-11 00:00:00,2015-08-11 00:00:00,PRATE,surface,-105,25.9842,1.03e-05
2015-08-11 00:00:00,2015-08-11 00:00:00,PRATE,surface,-104.063,25.9842,6e-06
2015-08-11 00:00:00,2015-08-11 00:00:00,PRATE,surface,-103.125,25.9842,4.5e-06
2015-08-11 00:00:00,2015-08-11 00:00:00,PRATE,surface,-102.188,25.9842,7.3e-06
2015-08-11 00:00:00,2015-08-11 00:00:00,PRATE,surface,-101.25,25.9842,9.3e-06
2015-08-11 00:00:00,2015-08-11 00:00:00,PRATE,surface,-100.313,25.9842,2.01e-05
2015-08-11 00:00:00,2015-08-11 00:00:00,PRATE,surface,-99.3754,25.9842,2.63e-05
2015-08-11 00:00:00,2015-08-11 00:00:00,PRATE,surface,-98.4379,25.9842,2.9e-05
2015-08-11 00:00:00,2015-08-11 00:00:00,PRATE,surface,-97.5004,25.9842,3.7e-05
2015-08-11 00:00:00,2015-08-11 00:00:00,PRATE,surface,-96.5629,25.9842,5.02e-05
2015-08-11 00:00:00,2015-08-11 00:00:00,PRATE,surface,-95.6254,25.9842,5.26e-05
2015-08-11 00:00:00,2015-08-11 00:00:00,PRATE,surface,-94.6879,25.9842,5.46e-05
2015-08-11 00:00:00,2015-08-11 00:00:00,PRATE,surface,-93.7504,25.9842,4.86e-05
2015-08-11 00:00:00,2015-08-11 00:00:00,PRATE,surface,-92.8129,25.9842,4.37e-05
2015-08-11 00:00:00,2015-08-11 00:00:00,PRATE,surface,-107.813,26.929,7.33e-05
2015-08-11 00:00:00,2015-08-11 00:00:00,PRATE,surface,-106.875,26.929,4.25e-05
2015-08-11 00:00:00,2015-08-11 00:00:00,PRATE,surface,-105.938,26.929,1.75e-05
2015-08-11 00:00:00,2015-08-11 00:00:00,PRATE,surface,-105,26.929,1.2e-05
2015-08-11 00:00:00,2015-08-11 00:00:00,PRATE,surface,-104.063,26.929,7.6e-06
2015-08-11 00:00:00,2015-08-11 00:00:00,PRATE,surface,-103.125,26.929,9.7e-06
2015-08-11 00:00:00,2015-08-11 00:00:00,PRATE,surface,-102.188,26.929,1.31e-05
2015-08-11 00:00:00,2015-08-11 00:00:00,PRATE,surface,-101.25,26.929,1.95e-05
2015-08-11 00:00:00,2015-08-11 00:00:00,PRATE,surface,-100.313,26.929,2.43e-05
2015-08-11 00:00:00,2015-08-11 00:00:00,PRATE,surface,-99.3754,26.929,2.77e-05
2015-08-11 00:00:00,2015-08-11 00:00:00,PRATE,surface,-98.4379,26.929,3.4e-05
2015-08-11 00:00:00,2015-08-11 00:00:00,PRATE,surface,-97.5004,26.929,4.86e-05
2015-08-11 00:00:00,2015-08-11 00:00:00,PRATE,surface,-96.5629,26.929,5.55e-05
2015-08-11 00:00:00,2015-08-11 00:00:00,PRATE,surface,-95.6254,26.929,6.27e-05
2015-08-11 00:00:00,2015-08-11 00:00:00,PRATE,surface,-94.6879,26.929,7.07e-05
2015-08-11 00:00:00,2015-08-11 00:00:00,PRATE,surface,-93.7504,26.929,7.07e-05
2015-08-11 00:00:00,2015-08-11 00:00:00,PRATE,surface,-92.8129,26.929,7.27e-05
2015-08-11 00:00:00,2015-08-11 00:00:00,PRATE,surface,-107.813,27.8739,6.78e-05
2015-08-11 00:00:00,2015-08-11 00:00:00,PRATE,surface,-106.875,27.8739,2.96e-05
2015-08-11 00:00:00,2015-08-11 00:00:00,PRATE,surface,-105.938,27.8739,1.5e-05
2015-08-11 00:00:00,2015-08-11 00:00:00,PRATE,surface,-105,27.8739,8.3e-06
2015-08-11 00:00:00,2015-08-11 00:00:00,PRATE,surface,-104.063,27.8739,1.2e-05
2015-08-11 00:00:00,2015-08-11 00:00:00,PRATE,surface,-103.125,27.8739,1.72e-05
2015-08-11 00:00:00,2015-08-11 00:00:00,PRATE,surface,-102.188,27.8739,2.17e-05
2015-08-11 00:00:00,2015-08-11 00:00:00,PRATE,surface,-101.25,27.8739,2.45e-05
2015-08-11 00:00:00,2015-08-11 00:00:00,PRATE,surface,-100.313,27.8739,2.51e-05
2015-08-11 00:00:00,2015-08-11 00:00:00,PRATE,surface,-99.3754,27.8739,3.32e-05
2015-08-11 00:00:00,2015-08-11 00:00:00,PRATE,surface,-98.4379,27.8739,4.38e-05
2015-08-11 00:00:00,2015-08-11 00:00:00,PRATE,surface,-97.5004,27.8739,5.17e-05
2015-08-11 00:00:00,2015-08-11 00:00:00,PRATE,surface,-96.5629,27.8739,5.86e-05
2015-08-11 00:00:00,2015-08-11 00:00:00,PRATE,surface,-95.6254,27.8739,6.93e-05
2015-08-11 00:00:00,2015-08-11 00:00:00,PRATE,surface,-94.6879,27.8739,8.7e-05
2015-08-11 00:00:00,2015-08-11 00:00:00,PRATE,surface,-93.7504,27.8739,0.0001062
2015-08-11 00:00:00,2015-08-11 00:00:00,PRATE,surface,-92.8129,27.8739,0.0001138
2015-08-11 00:00:00,2015-08-11 00:00:00,PRATE,surface,-107.813,28.8188,5.15e-05
2015-08-11 00:00:00,2015-08-11 00:00:00,PRATE,surface,-106.875,28.8188,2.09e-05
2015-08-11 00:00:00,2015-08-11 00:00:00,PRATE,surface,-105.938,28.8188,1.45e-05
2015-08-11 00:00:00,2015-08-11 00:00:00,PRATE,surface,-105,28.8188,1.05e-05
2015-08-11 00:00:00,2015-08-11 00:00:00,PRATE,surface,-104.063,28.8188,1.43e-05
2015-08-11 00:00:00,2015-08-11 00:00:00,PRATE,surface,-103.125,28.8188,2.05e-05
2015-08-11 00:00:00,2015-08-11 00:00:00,PRATE,surface,-102.188,28.8188,2.17e-05
2015-08-11 00:00:00,2015-08-11 00:00:00,PRATE,surface,-101.25,28.8188,2.51e-05
2015-08-11 00:00:00,2015-08-11 00:00:00,PRATE,surface,-100.313,28.8188,3.08e-05
2015-08-11 00:00:00,2015-08-11 00:00:00,PRATE,surface,-99.3754,28.8188,3.87e-05
2015-08-11 00:00:00,2015-08-11 00:00:00,PRATE,surface,-98.4379,28.8188,4.59e-05
2015-08-11 00:00:00,2015-08-11 00:00:00,PRATE,surface,-97.5004,28.8188,5.1e-05
2015-08-11 00:00:00,2015-08-11 00:00:00,PRATE,surface,-96.5629,28.8188,6.01e-05
2015-08-11 00:00:00,2015-08-11 00:00:00,PRATE,surface,-95.6254,28.8188,7.52e-05
2015-08-11 00:00:00,2015-08-11 00:00:00,PRATE,surface,-94.6879,28.8188,9.29e-05
2015-08-11 00:00:00,2015-08-11 00:00:00,PRATE,surface,-93.7504,28.8188,0.0001098
2015-08-11 00:00:00,2015-08-11 00:00:00,PRATE,surface,-92.8129,28.8188,0.0001144
2015-08-11 00:00:00,2015-08-11 00:00:00,PRATE,surface,-107.813,29.7637,2.78e-05
2015-08-11 00:00:00,2015-08-11 00:00:00,PRATE,surface,-106.875,29.7637,2.4e-05
2015-08-11 00:00:00,2015-08-11 00:00:00,PRATE,surface,-105.938,29.7637,2.31e-05
2015-08-11 00:00:00,2015-08-11 00:00:00,PRATE,surface,-105,29.7637,2.22e-05
2015-08-11 00:00:00,2015-08-11 00:00:00,PRATE,surface,-104.063,29.7637,2.11e-05
2015-08-11 00:00:00,2015-08-11 00:00:00,PRATE,surface,-103.125,29.7637,2.27e-05
2015-08-11 00:00:00,2015-08-11 00:00:00,PRATE,surface,-102.188,29.7637,2.27e-05
2015-08-11 00:00:00,2015-08-11 00:00:00,PRATE,surface,-101.25,29.7637,2.81e-05
2015-08-11 00:00:00,2015-08-11 00:00:00,PRATE,surface,-100.313,29.7637,3.63e-05
2015-08-11 00:00:00,2015-08-11 00:00:00,PRATE,surface,-99.3754,29.7637,4.5e-05
2015-08-11 00:00:00,2015-08-11 00:00:00,PRATE,surface,-98.4379,29.7637,4.8e-05
2015-08-11 00:00:00,2015-08-11 00:00:00,PRATE,surface,-97.5004,29.7637,5.1e-05
2015-08-11 00:00:00,2015-08-11 00:00:00,PRATE,surface,-96.5629,29.7637,5.72e-05
2015-08-11 00:00:00,2015-08-11 00:00:00,PRATE,surface,-95.6254,29.7637,6.43e-05
2015-08-11 00:00:00,2015-08-11 00:00:00,PRATE,surface,-94.6879,29.7637,7.38e-05
2015-08-11 00:00:00,2015-08-11 00:00:00,PRATE,surface,-93.7504,29.7637,8.22e-05
2015-08-11 00:00:00,2015-08-11 00:00:00,PRATE,surface,-92.8129,29.7637,8.17e-05
2015-08-11 00:00:00,2015-08-11 00:00:00,PRATE,surface,-107.813,30.7085,2.06e-05
2015-08-11 00:00:00,2015-08-11 00:00:00,PRATE,surface,-106.875,30.7085,2.29e-05
2015-08-11 00:00:00,2015-08-11 00:00:00,PRATE,surface,-105.938,30.7085,3.11e-05
2015-08-11 00:00:00,2015-08-11 00:00:00,PRATE,surface,-105,30.7085,3.23e-05
2015-08-11 00:00:00,2015-08-11 00:00:00,PRATE,surface,-104.063,30.7085,3.01e-05
2015-08-11 00:00:00,2015-08-11 00:00:00,PRATE,surface,-103.125,30.7085,2.88e-05
2015-08-11 00:00:00,2015-08-11 00:00:00,PRATE,surface,-102.188,30.7085,2.85e-05
2015-08-11 00:00:00,2015-08-11 00:00:00,PRATE,surface,-101.25,30.7085,3.38e-05
2015-08-11 00:00:00,2015-08-11 00:00:00,PRATE,surface,-100.313,30.7085,4.35e-05
2015-08-11 00:00:00,2015-08-11 00:00:00,PRATE,surface,-99.3754,30.7085,4.76e-05
2015-08-11 00:00:00,2015-08-11 00:00:00,PRATE,surface,-98.4379,30.7085,4.4e-05
2015-08-11 00:00:00,2015-08-11 00:00:00,PRATE,surface,-97.5004,30.7085,4.29e-05
2015-08-11 00:00:00,2015-08-11 00:00:00,PRATE,surface,-96.5629,30.7085,4.65e-05
2015-08-11 00:00:00,2015-08-11 00:00:00,PRATE,surface,-95.6254,30.7085,4.82e-05
2015-08-11 00:00:00,2015-08-11 00:00:00,PRATE,surface,-94.6879,30.7085,4.85e-05
2015-08-11 00:00:00,2015-08-11 00:00:00,PRATE,surface,-93.7504,30.7085,5.11e-05
2015-08-11 00:00:00,2015-08-11 00:00:00,PRATE,surface,-92.8129,30.7085,5.43e-05
2015-08-11 00:00:00,2015-08-11 00:00:00,PRATE,surface,-107.813,31.6534,1.78e-05
2015-08-11 00:00:00,2015-08-11 00:00:00,PRATE,surface,-106.875,31.6534,1.7e-05
2015-08-11 00:00:00,2015-08-11 00:00:00,PRATE,surface,-105.938,31.6534,2.03e-05
2015-08-11 00:00:00,2015-08-11 00:00:00,PRATE,surface,-105,31.6534,2.8e-05
2015-08-11 00:00:00,2015-08-11 00:00:00,PRATE,surface,-104.063,31.6534,2.74e-05
2015-08-11 00:00:00,2015-08-11 00:00:00,PRATE,surface,-103.125,31.6534,2.54e-05
2015-08-11 00:00:00,2015-08-11 00:00:00,PRATE,surface,-102.188,31.6534,2.81e-05
2015-08-11 00:00:00,2015-08-11 00:00:00,PRATE,surface,-101.25,31.6534,3.23e-05
2015-08-11 00:00:00,2015-08-11 00:00:00,PRATE,surface,-100.313,31.6534,3.16e-05
2015-08-11 00:00:00,2015-08-11 00:00:00,PRATE,surface,-99.3754,31.6534,2.93e-05
2015-08-11 00:00:00,2015-08-11 00:00:00,PRATE,surface,-98.4379,31.6534,3.23e-05
2015-08-11 00:00:00,2015-08-11 00:00:00,PRATE,surface,-97.5004,31.6534,3.97e-05
2015-08-11 00:00:00,2015-08-11 00:00:00,PRATE,surface,-96.5629,31.6534,4.6e-05
2015-08-11 00:00:00,2015-08-11 00:00:00,PRATE,surface,-95.6254,31.6534,4.75e-05
2015-08-11 00:00:00,2015-08-11 00:00:00,PRATE,surface,-94.6879,31.6534,4.57e-05
2015-08-11 00:00:00,2015-08-11 00:00:00,PRATE,surface,-93.7504,31.6534,4.44e-05
2015-08-11 00:00:00,2015-08-11 00:00:00,PRATE,surface,-92.8129,31.6534,4.23e-05
2015-08-11 00:00:00,2015-08-11 00:00:00,PRATE,surface,-107.813,32.5983,2.44e-05
2015-08-11 00:00:00,2015-08-11 00:00:00,PRATE,surface,-106.875,32.5983,2.11e-05
2015-08-11 00:00:00,2015-08-11 00:00:00,PRATE,surface,-105.938,32.5983,1.62e-05
2015-08-11 00:00:00,2015-08-11 00:00:00,PRATE,surface,-105,32.5983,1.95e-05
2015-08-11 00:00:00,2015-08-11 00:00:00,PRATE,surface,-104.063,32.5983,2.27e-05
2015-08-11 00:00:00,2015-08-11 00:00:00,PRATE,surface,-103.125,32.5983,2.46e-05
2015-08-11 00:00:00,2015-08-11 00:00:00,PRATE,surface,-102.188,32.5983,2.78e-05
2015-08-11 00:00:00,2015-08-11 00:00:00,PRATE,surface,-101.25,32.5983,3.01e-05
2015-08-11 00:00:00,2015-08-11 00:00:00,PRATE,surface,-100.313,32.5983,2.75e-05
2015-08-11 00:00:00,2015-08-11 00:00:00,PRATE,surface,-99.3754,32.5983,2.78e-05
2015-08-11 00:00:00,2015-08-11 00:00:00,PRATE,surface,-98.4379,32.5983,3.61e-05
2015-08-11 00:00:00,2015-08-11 00:00:00,PRATE,surface,-97.5004,32.5983,4.82e-05
2015-08-11 00:00:00,2015-08-11 00:00:00,PRATE,surface,-96.5629,32.5983,5.6e-05
2015-08-11 00:00:00,2015-08-11 00:00:00,PRATE,surface,-95.6254,32.5983,5.57e-05
2015-08-11 00:00:00,2015-08-11 00:00:00,PRATE,surface,-94.6879,32.5983,5.07e-05
2015-08-11 00:00:00,2015-08-11 00:00:00,PRATE,surface,-93.7504,32.5983,4.52e-05
2015-08-11 00:00:00,2015-08-11 00:00:00,PRATE,surface,-92.8129,32.5983,3.93e-05
2015-08-11 00:00:00,2015-08-11 00:00:00,PRATE,surface,-107.813,33.5432,4.27e-05
2015-08-11 00:00:00,2015-08-11 00:00:00,PRATE,surface,-106.875,33.5432,3.5e-05
2015-08-11 00:00:00,2015-08-11 00:00:00,PRATE,surface,-105.938,33.5432,3.05e-05
2015-08-11 00:00:00,2015-08-11 00:00:00,PRATE,surface,-105,33.5432,3.03e-05
2015-08-11 00:00:00,2015-08-11 00:00:00,PRATE,surface,-104.063,33.5432,3.1e-05
2015-08-11 00:00:00,2015-08-11 00:00:00,PRATE,surface,-103.125,33.5432,2.92e-05
2015-08-11 00:00:00,2015-08-11 00:00:00,PRATE,surface,-102.188,33.5432,3.52e-05
2015-08-11 00:00:00,2015-08-11 00:00:00,PRATE,surface,-101.25,33.5432,4.24e-05
2015-08-11 00:00:00,2015-08-11 00:00:00,PRATE,surface,-100.313,33.5432,4.17e-05
2015-08-11 00:00:00,2015-08-11 00:00:00,PRATE,surface,-99.3754,33.5432,4.19e-05
2015-08-11 00:00:00,2015-08-11 00:00:00,PRATE,surface,-98.4379,33.5432,4.67e-05
2015-08-11 00:00:00,2015-08-11 00:00:00,PRATE,surface,-97.5004,33.5432,5.32e-05
2015-08-11 00:00:00,2015-08-11 00:00:00,PRATE,surface,-96.5629,33.5432,5.66e-05
2015-08-11 00:00:00,2015-08-11 00:00:00,PRATE,surface,-95.6254,33.5432,5.61e-05
2015-08-11 00:00:00,2015-08-11 00:00:00,PRATE,surface,-94.6879,33.5432,5.38e-05
2015-08-11 00:00:00,2015-08-11 00:00:00,PRATE,surface,-93.7504,33.5432,4.89e-05
2015-08-11 00:00:00,2015-08-11 00:00:00,PRATE,surface,-92.8129,33.5432,4.31e-05
2015-08-11 00:00:00,2015-08-11 00:00:00,PRATE,surface,-107.813,34.4881,5.12e-05
2015-08-11 00:00:00,2015-08-11 00:00:00,PRATE,surface,-106.875,34.4881,4.28e-05
2015-08-11 00:00:00,2015-08-11 00:00:00,PRATE,surface,-105.938,34.4881,3.46e-05
2015-08-11 00:00:00,2015-08-11 00:00:00,PRATE,surface,-105,34.4881,3.44e-05
2015-08-11 00:00:00,2015-08-11 00:00:00,PRATE,surface,-104.063,34.4881,3.19e-05
2015-08-11 00:00:00,2015-08-11 00:00:00,PRATE,surface,-103.125,34.4881,3.38e-05
2015-08-11 00:00:00,2015-08-11 00:00:00,PRATE,surface,-102.188,34.4881,4.3e-05
2015-08-11 00:00:00,2015-08-11 00:00:00,PRATE,surface,-101.25,34.4881,5.22e-05
2015-08-11 00:00:00,2015-08-11 00:00:00,PRATE,surface,-100.313,34.4881,5.36e-05
2015-08-11 00:00:00,2015-08-11 00:00:00,PRATE,surface,-99.3754,34.4881,5.26e-05
2015-08-11 00:00:00,2015-08-11 00:00:00,PRATE,surface,-98.4379,34.4881,5.61e-05
2015-08-11 00:00:00,2015-08-11 00:00:00,PRATE,surface,-97.5004,34.4881,6.13e-05
2015-08-11 00:00:00,2015-08-11 00:00:00,PRATE,surface,-96.5629,34.4881,6.15e-05
2015-08-11 00:00:00,2015-08-11 00:00:00,PRATE,surface,-95.6254,34.4881,5.62e-05
2015-08-11 00:00:00,2015-08-11 00:00:00,PRATE,surface,-94.6879,34.4881,5.14e-05
2015-08-11 00:00:00,2015-08-11 00:00:00,PRATE,surface,-93.7504,34.4881,5.05e-05
2015-08-11 00:00:00,2015-08-11 00:00:00,PRATE,surface,-92.8129,34.4881,4.71e-05
2015-08-11 00:00:00,2015-08-11 00:00:00,PRATE,surface,-107.813,35.4329,4.83e-05
2015-08-11 00:00:00,2015-08-11 00:00:00,PRATE,surface,-106.875,35.4329,3.52e-05
2015-08-11 00:00:00,2015-08-11 00:00:00,PRATE,surface,-105.938,35.4329,3.11e-05
2015-08-11 00:00:00,2015-08-11 00:00:00,PRATE,surface,-105,35.4329,3.65e-05
2015-08-11 00:00:00,2015-08-11 00:00:00,PRATE,surface,-104.063,35.4329,3.89e-05
2015-08-11 00:00:00,2015-08-11 00:00:00,PRATE,surface,-103.125,35.4329,4.29e-05
2015-08-11 00:00:00,2015-08-11 00:00:00,PRATE,surface,-102.188,35.4329,4.33e-05
2015-08-11 00:00:00,2015-08-11 00:00:00,PRATE,surface,-101.25,35.4329,4.23e-05
2015-08-11 00:00:00,2015-08-11 00:00:00,PRATE,surface,-100.313,35.4329,4.3e-05
2015-08-11 00:00:00,2015-08-11 00:00:00,PRATE,surface,-99.3754,35.4329,4.38e-05
2015-08-11 00:00:00,2015-08-11 00:00:00,PRATE,surface,-98.4379,35.4329,4.75e-05
2015-08-11 00:00:00,2015-08-11 00:00:00,PRATE,surface,-97.5004,35.4329,5.18e-05
2015-08-11 00:00:00,2015-08-11 00:00:00,PRATE,surface,-96.5629,35.4329,4.97e-05
2015-08-11 00:00:00,2015-08-11 00:00:00,PRATE,surface,-95.6254,35.4329,4.26e-05
2015-08-11 00:00:00,2015-08-11 00:00:00,PRATE,surface,-94.6879,35.4329,3.95e-05
2015-08-11 00:00:00,2015-08-11 00:00:00,PRATE,surface,-93.7504,35.4329,4.09e-05
2015-08-11 00:00:00,2015-08-11 00:00:00,PRATE,surface,-92.8129,35.4329,4.18e-05
2015-08-11 00:00:00,2015-08-11 00:00:00,PRATE,surface,-107.813,36.3778,4.36e-05
2015-08-11 00:00:00,2015-08-11 00:00:00,PRATE,surface,-106.875,36.3778,4.42e-05
2015-08-11 00:00:00,2015-08-11 00:00:00,PRATE,surface,-105.938,36.3778,4.04e-05
2015-08-11 00:00:00,2015-08-11 00:00:00,PRATE,surface,-105,36.3778,4.42e-05
2015-08-11 00:00:00,2015-08-11 00:00:00,PRATE,surface,-104.063,36.3778,4.64e-05
2015-08-11 00:00:00,2015-08-11 00:00:00,PRATE,surface,-103.125,36.3778,4.43e-05
2015-08-11 00:00:00,2015-08-11 00:00:00,PRATE,surface,-102.188,36.3778,3.74e-05
2015-08-11 00:00:00,2015-08-11 00:00:00,PRATE,surface,-101.25,36.3778,3.22e-05
2015-08-11 00:00:00,2015-08-11 00:00:00,PRATE,surface,-100.313,36.3778,2.89e-05
2015-08-11 00:00:00,2015-08-11 00:00:00,PRATE,surface,-99.3754,36.3778,2.9e-05
2015-08-11 00:00:00,2015-08-11 00:00:00,PRATE,surface,-98.4379,36.3778,3.16e-05
2015-08-11 00:00:00,2015-08-11 00:00:00,PRATE,surface,-97.5004,36.3778,3.46e-05
2015-08-11 00:00:00,2015-08-11 00:00:00,PRATE,surface,-96.5629,36.3778,3.59e-05
2015-08-11 00:00:00,2015-08-11 00:00:00,PRATE,surface,-95.6254,36.3778,3.51e-05
2015-08-11 00:00:00,2015-08-11 00:00:00,PRATE,surface,-94.6879,36.3778,3.38e-05
2015-08-11 00:00:00,2015-08-11 00:00:00,PRATE,surface,-93.7504,36.3778,3.32e-05
2015-08-11 00:00:00,2015-08-11 00:00:00,PRATE,surface,-92.8129,36.3778,3.18e-05
