2015-05-21 00:00:00,2015-05-21 00:00:00,TMP,surface,-107.813,25.0393,291.27
2015-05-21 00:00:00,2015-05-21 00:00:00,TMP,surface,-106.875,25.0393,285.055
2015-05-21 00:00:00,2015-05-21 00:00:00,TMP,surface,-105.938,25.0393,279.916
2015-05-21 00:00:00,2015-05-21 00:00:00,TMP,surface,-105,25.0393,279.018
2015-05-21 00:00:00,2015-05-21 00:00:00,TMP,surface,-104.063,25.0393,283.14
2015-05-21 00:00:00,2015-05-21 00:00:00,TMP,surface,-103.125,25.0393,285.277
2015-05-21 00:00:00,2015-05-21 00:00:00,TMP,surface,-102.188,25.0393,284.7
2015-05-21 00:00:00,2015-05-21 00:00:00,TMP,surface,-101.25,25.0393,283.01
2015-05-21 00:00:00,2015-05-21 00:00:00,TMP,surface,-100.313,25.0393,283.582
2015-05-21 00:00:00,2015-05-21 00:00:00,TMP,surface,-99.3754,25.0393,286.231
2015-05-21 00:00:00,2015-05-21 00:00:00,TMP,surface,-98.4379,25.0393,289.151
2015-05-21 00:00:00,2015-05-21 00:00:00,TMP,surface,-97.5004,25.0393,294.162
2015-05-21 00:00:00,2015-05-21 00:00:00,TMP,surface,-96.5629,25.0393,294.918
2015-05-21 00:00:00,2015-05-21 00:00:00,TMP,surface,-95.6254,25.0393,295.474
2015-05-21 00:00:00,2015-05-21 00:00:00,TMP,surface,-94.6879,25.0393,295.562
2015-05-21 00:00:00,2015-05-21 00:00:00,TMP,surface,-93.7504,25.0393,295.495
2015-05-21 00:00:00,2015-05-21 00:00:00,TMP,surface,-92.8129,25.0393,295.602
2015-05-21 00:00:00,2015-05-21 00:00:00,TMP,surface,-107.813,25.9842,286.356
2015-05-21 00:00:00,2015-05-21 00:00:00,TMP,surface,-106.875,25.9842,280.54
2015-05-21 00:00:00,2015-05-21 00:00:00,TMP,surface,-105.938,25.9842,278.781
2015-05-21 00:00:00,2015-05-21 00:00:00,TMP,surface,-105,25.9842,281.418
2015-05-21 00:00:00,2015-05-21 00:00:00,TMP,surface,-104.063,25.9842,285.391
2015-05-21 00:00:00,2015-05-21 00:00:00,TMP,surface,-103.125,25.9842,286.617
2015-05-21 00:00:00,2015-05-21 00:00:00,TMP,surface,-102.188,25.9842,285.652
2015-05-21 00:00:00,2015-05-21 00:00:00,TMP,surface,-101.25,25.9842,284.457
2015-05-21 00:00:00,2015-05-21 00:00:00,TMP,surface,-100.313,25.9842,284.697
2015-05-21 00:00:00,2015-05-21 00:00:00,TMP,surface,-99.3754,25.9842,286.941
2015-05-21 00:00:00,2015-05-21 00:00:00,TMP,surface,-98.4379,25.9842,288.554
2015-05-21 00:00:00,2015-05-21 00:00:00,TMP,surface,-97.5004,25.9842,290.081
2015-05-21 00:00:00,2015-05-21 00:00:00,TMP,surface,-96.5629,25.9842,294.066
2015-05-21 00:00:00,2015-05-21 00:00:00,TMP,surface,-95.6254,25.9842,295.049
2015-05-21 00:00:00,2015-05-21 00:00:00,TMP,surface,-94.6879,25.9842,295.1
2015-05-21 00:00:00,2015-05-21 00:00:00,TMP,surface,-93.7504,25.9842,294.943
2015-05-21 00:00:00,2015-05-21 00:00:00,TMP,surface,-92.8129,25.9842,295.046
2015-05-21 00:00:00,2015-05-21 00:00:00,TMP,surface,-107.813,26.929,281.335
2015-05-21 00:00:00,2015-05-21 00:00:00,TMP,surface,-106.875,26.929,278.214
2015-05-21 00:00:00,2015-05-21 00:00:00,TMP,surface,-105.938,26.929,280.453
2015-05-21 00:00:00,2015-05-21 00:00:00,TMP,surface,-105,26.929,283.948
2015-05-21 00:00:00,2015-05-21 00:00:00,TMP,surface,-104.063,26.929,285.22
2015-05-21 00:00:00,2015-05-21 00:00:00,TMP,surface,-103.125,26.929,284.366
2015-05-21 00:00:00,2015-05-21 00:00:00,TMP,surface,-102.188,26.929,284.108
2015-05-21 00:00:00,2015-05-21 00:00:00,TMP,surface,-101.25,26.929,284.814
2015-05-21 00:00:00,2015-05-21 00:00:00,TMP,surface,-100.313,26.929,285.721
2015-05-21 00:00:00,2015-05-21 00:00:00,TMP,surface,-99.3754,26.929,286.673
2015-05-21 00:00:00,2015-05-21 00:00:00,TMP,surface,-98.4379,26.929,287.004
2015-05-21 00:00:00,2015-05-21 00:00:00,TMP,surface,-97.5004,26.929,292.105
2015-05-21 00:00:00,2015-05-21 00:00:00,TMP,surface,-96.5629,26.929,293.18
2015-05-21 00:00:00,2015-05-21 00:00:00,TMP,surface,-95.6254,26.929,294.265
2015-05-21 00:00:00,2015-05-21 00:00:00,TMP,surface,-94.6879,26.929,294.457
2015-05-21 00:00:00,2015-05-21 00:00:00,TMP,surface,-93.7504,26.929,294.276
2015-05-21 00:00:00,2015-05-21 00:00:00,TMP,surface,-92.8129,26.929,294.242
2015-05-21 00:00:00,2015-05-21 00:00:00,TMP,surface,-107.813,27.8739,278.673
2015-05-21 00:00:00,2015-05-21 00:00:00,TMP,surface,-106.875,27.8739,278.257
2015-05-21 00:00:00,2015-05-21 00:00:00,TMP,surface,-105.938,27.8739,282.172
2015-05-21 00:00:00,2015-05-21 00:00:00,TMP,surface,-105,27.8739,284.951
2015-05-21 00:00:00,2015-05-21 00:00:00,TMP,surface,-104.063,27.8739,284.345
2015-05-21 00:00:00,2015-05-21 00:00:00,TMP,surface,-103.125,27.8739,282.727
2015-05-21 00:00:00,2015-05-21 00:00:00,TMP,surface,-102.188,27.8739,282.804
2015-05-21 00:00:00,2015-05-21 00:00:00,TMP,surface,-101.25,27.8739,284.106
2015-05-21 00:00:00,2015-05-21 00:00:00,TMP,surface,-100.313,27.8739,285.302
2015-05-21 00:00:00,2015-05-21 00:00:00,TMP,surface,-99.3754,27.8739,285.409
2015-05-21 00:00:00,2015-05-21 00:00:00,TMP,surface,-98.4379,27.8739,285.447
2015-05-21 00:00:00,2015-05-21 00:00:00,TMP,surface,-97.5004,27.8739,289.214
2015-05-21 00:00:00,2015-05-21 00:00:00,TMP,surface,-96.5629,27.8739,293.094
2015-05-21 00:00:00,2015-05-21 00:00:00,TMP,surface,-95.6254,27.8739,293.388
2015-05-21 00:00:00,2015-05-21 00:00:00,TMP,surface,-94.6879,27.8739,293.265
2015-05-21 00:00:00,2015-05-21 00:00:00,TMP,surface,-93.7504,27.8739,293.138
2015-05-21 00:00:00,2015-05-21 00:00:00,TMP,surface,-92.8129,27.8739,293.143
2015-05-21 00:00:00,2015-05-21 00:00:00,TMP,surface,-107.813,28.8188,277.823
2015-05-21 00:00:00,2015-05-21 00:00:00,TMP,surface,-106.875,28.8188,279.094
2015-05-21 00:00:00,2015-05-21 00:00:00,TMP,surface,-105.938,28.8188,282.654
2015-05-21 00:00:00,2015-05-21 00:00:00,TMP,surface,-105,28.8188,284.412
2015-05-21 00:00:00,2015-05-21 00:00:00,TMP,surface,-104.063,28.8188,282.962
2015-05-21 00:00:00,2015-05-21 00:00:00,TMP,surface,-103.125,28.8188,281.418
2015-05-21 00:00:00,2015-05-21 00:00:00,TMP,surface,-102.188,28.8188,281.738
2015-05-21 00:00:00,2015-05-21 00:00:00,TMP,surface,-101.25,28.8188,283.111
2015-05-21 00:00:00,2015-05-21 00:00:00,TMP,surface,-100.313,28.8188,283.615
2015-05-21 00:00:00,2015-05-21 00:00:00,TMP,surface,-99.3754,28.8188,283.354
2015-05-21 00:00:00,2015-05-21 00:00:00,TMP,surface,-98.4379,28.8188,283.434
2015-05-21 00:00:00,2015-05-21 00:00:00,TMP,surface,-97.5004,28.8188,284.247
2015-05-21 00:00:00,2015-05-21 00:00:00,TMP,surface,-96.5629,28.8188,285.31
2015-05-21 00:00:00,2015-05-21 00:00:00,TMP,surface,-95.6254,28.8188,288.468
2015-05-21 00:00:00,2015-05-21 00:00:00,TMP,surface,-94.6879,28.8188,292.74
2015-05-21 00:00:00,2015-05-21 00:00:00,TMP,surface,-93.7504,28.8188,292.697
2015-05-21 00:00:00,2015-05-21 00:00:00,TMP,surface,-92.8129,28.8188,292.721
2015-05-21 00:00:00,2015-05-21 00:00:00,TMP,surface,-107.813,29.7637,279.012
2015-05-21 00:00:00,2015-05-21 00:00:00,TMP,surface,-106.875,29.7637,280.332
2015-05-21 00:00:00,2015-05-21 00:00:00,TMP,surface,-105.938,29.7637,282.333
2015-05-21 00:00:00,2015-05-21 00:00:00,TMP,surface,-105,29.7637,282.361
2015-05-21 00:00:00,2015-05-21 00:00:00,TMP,surface,-104.063,29.7637,281.549
2015-05-21 00:00:00,2015-05-21 00:00:00,TMP,surface,-103.125,29.7637,281.013
2015-05-21 00:00:00,2015-05-21 00:00:00,TMP,surface,-102.188,29.7637,281.375
2015-05-21 00:00:00,2015-05-21 00:00:00,TMP,surface,-101.25,29.7637,281.764
2015-05-21 00:00:00,2015-05-21 00:00:00,TMP,surface,-100.313,29.7637,281.466
2015-05-21 00:00:00,2015-05-21 00:00:00,TMP,surface,-99.3754,29.7637,281.244
2015-05-21 00:00:00,2015-05-21 00:00:00,TMP,surface,-98.4379,29.7637,281.575
2015-05-21 00:00:00,2015-05-21 00:00:00,TMP,surface,-97.5004,29.7637,282.314
2015-05-21 00:00:00,2015-05-21 00:00:00,TMP,surface,-96.5629,29.7637,283.229
2015-05-21 00:00:00,2015-05-21 00:00:00,TMP,surface,-95.6254,29.7637,284.223
2015-05-21 00:00:00,2015-05-21 00:00:00,TMP,surface,-94.6879,29.7637,287.382
2015-05-21 00:00:00,2015-05-21 00:00:00,TMP,surface,-93.7504,29.7637,291.108
2015-05-21 00:00:00,2015-05-21 00:00:00,TMP,surface,-92.8129,29.7637,285.882
2015-05-21 00:00:00,2015-05-21 00:00:00,TMP,surface,-107.813,30.7085,281.297
2015-05-21 00:00:00,2015-05-21 00:00:00,TMP,surface,-106.875,30.7085,281.948
2015-05-21 00:00:00,2015-05-21 00:00:00,TMP,surface,-105.938,30.7085,281.706
2015-05-21 00:00:00,2015-05-21 00:00:00,TMP,surface,-105,30.7085,280.767
2015-05-21 00:00:00,2015-05-21 00:00:00,TMP,surface,-104.063,30.7085,280.338
2015-05-21 00:00:00,2015-05-21 00:00:00,TMP,surface,-103.125,30.7085,280.497
2015-05-21 00:00:00,2015-05-21 00:00:00,TMP,surface,-102.188,30.7085,280.655
2015-05-21 00:00:00,2015-05-21 00:00:00,TMP,surface,-101.25,30.7085,280.46
2015-05-21 00:00:00,2015-05-21 00:00:00,TMP,surface,-100.313,30.7085,280.023
2015-05-21 00:00:00,2015-05-21 00:00:00,TMP,surface,-99.3754,30.7085,280.01
2015-05-21 00:00:00,2015-05-21 00:00:00,TMP,surface,-98.4379,30.7085,280.561
2015-05-21 00:00:00,2015-05-21 00:00:00,TMP,surface,-97.5004,30.7085,281.33
2015-05-21 00:00:00,2015-05-21 00:00:00,TMP,surface,-96.5629,30.7085,282.086
2015-05-21 00:00:00,2015-05-21 00:00:00,TMP,surface,-95.6254,30.7085,282.751
2015-05-21 00:00:00,2015-05-21 00:00:00,TMP,surface,-94.6879,30.7085,283.229
2015-05-21 00:00:00,2015-05-21 00:00:00,TMP,surface,-93.7504,30.7085,283.465
2015-05-21 00:00:00,2015-05-21 00:00:00,TMP,surface,-92.8129,30.7085,283.503
2015-05-21 00:00:00,2015-05-21 00:00:00,TMP,surface,-107.813,31.6534,281.318
2015-05-21 00:00:00,2015-05-21 00:00:00,TMP,surface,-106.875,31.6534,281.596
2015-05-21 00:00:00,2015-05-21 00:00:00,TMP,surface,-105.938,31.6534,280.621
2015-05-21 00:00:00,2015-05-21 00:00:00,TMP,surface,-105,31.6534,279.916
2015-05-21 00:00:00,2015-05-21 00:00:00,TMP,surface,-104.063,31.6534,279.87
2015-05-21 00:00:00,2015-05-21 00:00:00,TMP,surface,-103.125,31.6534,280.087
2015-05-21 00:00:00,2015-05-21 00:00:00,TMP,surface,-102.188,31.6534,280.009
2015-05-21 00:00:00,2015-05-21 00:00:00,TMP,surface,-101.25,31.6534,279.647
2015-05-21 00:00:00,2015-05-21 00:00:00,TMP,surface,-100.313,31.6534,279.455
2015-05-21 00:00:00,2015-05-21 00:00:00,TMP,surface,-99.3754,31.6534,279.702
2015-05-21 00:00:00,2015-05-21 00:00:00,TMP,surface,-98.4379,31.6534,280.293
2015-05-21 00:00:00,2015-05-21 00:00:00,TMP,surface,-97.5004,31.6534,280.921
2015-05-21 00:00:00,2015-05-21 00:00:00,TMP,surface,-96.5629,31.6534,281.466
2015-05-21 00:00:00,2015-05-21 00:00:00,TMP,surface,-95.6254,31.6534,281.799
2015-05-21 00:00:00,2015-05-21 00:00:00,TMP,surface,-94.6879,31.6534,281.82
2015-05-21 00:00:00,2015-05-21 00:00:00,TMP,surface,-93.7504,31.6534,281.839
2015-05-21 00:00:00,2015-05-21 00:00:00,TMP,surface,-92.8129,31.6534,282.013
2015-05-21 00:00:00,2015-05-21 00:00:00,TMP,surface,-107.813,32.5983,278.578
2015-05-21 00:00:00,2015-05-21 00:00:00,TMP,surface,-106.875,32.5983,278.887
2015-05-21 00:00:00,2015-05-21 00:00:00,TMP,surface,-105.938,32.5983,278.97
2015-05-21 00:00:00,2015-05-21 00:00:00,TMP,surface,-105,32.5983,279.058
2015-05-21 00:00:00,2015-05-21 00:00:00,TMP,surface,-104.063,32.5983,279.671
2015-05-21 00:00:00,2015-05-21 00:00:00,TMP,surface,-103.125,32.5983,279.804
2015-05-21 00:00:00,2015-05-21 00:00:00,TMP,surface,-102.188,32.5983,279.246
2015-05-21 00:00:00,2015-05-21 00:00:00,TMP,surface,-101.25,32.5983,278.946
2015-05-21 00:00:00,2015-05-21 00:00:00,TMP,surface,-100.313,32.5983,279.236
2015-05-21 00:00:00,2015-05-21 00:00:00,TMP,surface,-99.3754,32.5983,279.833
2015-05-21 00:00:00,2015-05-21 00:00:00,TMP,surface,-98.4379,32.5983,280.285
2015-05-21 00:00:00,2015-05-21 00:00:00,TMP,surface,-97.5004,32.5983,280.669
2015-05-21 00:00:00,2015-05-21 00:00:00,TMP,surface,-96.5629,32.5983,281.023
2015-05-21 00:00:00,2015-05-21 00:00:00,TMP,surface,-95.6254,32.5983,281.117
2015-05-21 00:00:00,2015-05-21 00:00:00,TMP,surface,-94.6879,32.5983,280.946
2015-05-21 00:00:00,2015-05-21 00:00:00,TMP,surface,-93.7504,32.5983,280.857
2015-05-21 00:00:00,2015-05-21 00:00:00,TMP,surface,-92.8129,32.5983,281.177
2015-05-21 00:00:00,2015-05-21 00:00:00,TMP,surface,-107.813,33.5432,275.284
2015-05-21 00:00:00,2015-05-21 00:00:00,TMP,surface,-106.875,33.5432,276.386
2015-05-21 00:00:00,2015-05-21 00:00:00,TMP,surface,-105.938,33.5432,277.433
2015-05-21 00:00:00,2015-05-21 00:00:00,TMP,surface,-105,33.5432,278.25
2015-05-21 00:00:00,2015-05-21 00:00:00,TMP,surface,-104.063,33.5432,279.165
2015-05-21 00:00:00,2015-05-21 00:00:00,TMP,surface,-103.125,33.5432,279.089
2015-05-21 00:00:00,2015-05-21 00:00:00,TMP,surface,-102.188,33.5432,278.26
2015-05-21 00:00:00,2015-05-21 00:00:00,TMP,surface,-101.25,33.5432,277.878
2015-05-21 00:00:00,2015-05-21 00:00:00,TMP,surface,-100.313,33.5432,278.366
2015-05-21 00:00:00,2015-05-21 00:00:00,TMP,surface,-99.3754,33.5432,279.14
2015-05-21 00:00:00,2015-05-21 00:00:00,TMP,surface,-98.4379,33.5432,279.598
2015-05-21 00:00:00,2015-05-21 00:00:00,TMP,surface,-97.5004,33.5432,279.764
2015-05-21 00:00:00,2015-05-21 00:00:00,TMP,surface,-96.5629,33.5432,280.017
2015-05-21 00:00:00,2015-05-21 00:00:00,TMP,surface,-95.6254,33.5432,280.302
2015-05-21 00:00:00,2015-05-21 00:00:00,TMP,surface,-94.6879,33.5432,280.252
2015-05-21 00:00:00,2015-05-21 00:00:00,TMP,surface,-93.7504,33.5432,280.084
2015-05-21 00:00:00,2015-05-21 00:00:00,TMP,surface,-92.8129,33.5432,280.295
2015-05-21 00:00:00,2015-05-21 00:00:00,TMP,surface,-107.813,34.4881,274.277
2015-05-21 00:00:00,2015-05-21 00:00:00,TMP,surface,-106.875,34.4881,275.47
2015-05-21 00:00:00,2015-05-21 00:00:00,TMP,surface,-105.938,34.4881,276.556
2015-05-21 00:00:00,2015-05-21 00:00:00,TMP,surface,-105,34.4881,277.535
2015-05-21 00:00:00,2015-05-21 00:00:00,TMP,surface,-104.063,34.4881,278.117
2015-05-21 00:00:00,2015-05-21 00:00:00,TMP,surface,-103.125,34.4881,277.972
2015-05-21 00:00:00,2015-05-21 00:00:00,TMP,surface,-102.188,34.4881,277.321
2015-05-21 00:00:00,2015-05-21 00:00:00,TMP,surface,-101.25,34.4881,276.687
2015-05-21 00:00:00,2015-05-21 00:00:00,TMP,surface,-100.313,34.4881,277.015
2015-05-21 00:00:00,2015-05-21 00:00:00,TMP,surface,-99.3754,34.4881,277.766
2015-05-21 00:00:00,2015-05-21 00:00:00,TMP,surface,-98.4379,34.4881,278.239
2015-05-21 00:00:00,2015-05-21 00:00:00,TMP,surface,-97.5004,34.4881,278.481
2015-05-21 00:00:00,2015-05-21 00:00:00,TMP,surface,-96.5629,34.4881,278.885
2015-05-21 00:00:00,2015-05-21 00:00:00,TMP,surface,-95.6254,34.4881,279.298
2015-05-21 00:00:00,2015-05-21 00:00:00,TMP,surface,-94.6879,34.4881,279.289
2015-05-21 00:00:00,2015-05-21 00:00:00,TMP,surface,-93.7504,34.4881,279.106
2015-05-21 00:00:00,2015-05-21 00:00:00,TMP,surface,-92.8129,34.4881,279.233
2015-05-21 00:00:00,2015-05-21 00:00:00,TMP,surface,-107.813,35.4329,274.781
2015-05-21 00:00:00,2015-05-21 00:00:00,TMP,surface,-106.875,35.4329,274.893
2015-05-21 00:00:00,2015-05-21 00:00:00,TMP,surface,-105.938,35.4329,275.234
2015-05-21 00:00:00,2015-05-21 00:00:00,TMP,surface,-105,35.4329,276.002
2015-05-21 00:00:00,2015-05-21 00:00:00,TMP,surface,-104.063,35.4329,277.181
2015-05-21 00:00:00,2015-05-21 00:00:00,TMP,surface,-103.125,35.4329,277.295
2015-05-21 00:00:00,2015-05-21 00:00:00,TMP,surface,-102.188,35.4329,276.43
2015-05-21 00:00:00,2015-05-21 00:00:00,TMP,surface,-101.25,35.4329,275.65
2015-05-21 00:00:00,2015-05-21 00:00:00,TMP,surface,-100.313,35.4329,275.644
2015-05-21 00:00:00,2015-05-21 00:00:00,TMP,surface,-99.3754,35.4329,276.105
2015-05-21 00:00:00,2015-05-21 00:00:00,TMP,surface,-98.4379,35.4329,276.654
2015-05-21 00:00:00,2015-05-21 00:00:00,TMP,surface,-97.5004,35.4329,277.181
2015-05-21 00:00:00,2015-05-21 00:00:00,TMP,surface,-96.5629,35.4329,277.687
2015-05-21 00:00:00,2015-05-21 00:00:00,TMP,surface,-95.6254,35.4329,278.031
2015-05-21 00:00:00,2015-05-21 00:00:00,TMP,surface,-94.6879,35.4329,278.026
2015-05-21 00:00:00,2015-05-21 00:00:00,TMP,surface,-93.7504,35.4329,277.823
2015-05-21 00:00:00,2015-05-21 00:00:00,TMP,surface,-92.8129,35.4329,277.86
2015-05-21 00:00:00,2015-05-21 00:00:00,TMP,surface,-107.813,36.3778,273.97
2015-05-21 00:00:00,2015-05-21 00:00:00,TMP,surface,-106.875,36.3778,272.554
2015-05-21 00:00:00,2015-05-21 00:00:00,TMP,surface,-105.938,36.3778,272.722
2015-05-21 00:00:00,2015-05-21 00:00:00,TMP,surface,-105,36.3778,274.225
2015-05-21 00:00:00,2015-05-21 00:00:00,TMP,surface,-104.063,36.3778,275.857
2015-05-21 00:00:00,2015-05-21 00:00:00,TMP,surface,-103.125,36.3778,276.178
2015-05-21 00:00:00,2015-05-21 00:00:00,TMP,surface,-102.188,36.3778,275.621
2015-05-21 00:00:00,2015-05-21 00:00:00,TMP,surface,-101.25,36.3778,274.929
2015-05-21 00:00:00,2015-05-21 00:00:00,TMP,surface,-100.313,36.3778,274.745
2015-05-21 00:00:00,2015-05-21 00:00:00,TMP,surface,-99.3754,36.3778,275.097
2015-05-21 00:00:00,2015-05-21 00:00:00,TMP,surface,-98.4379,36.3778,275.514
2015-05-21 00:00:00,2015-05-21 00:00:00,TMP,surface,-97.5004,36.3778,276.06
2015-05-21 00:00:00,2015-05-21 00:00:00,TMP,surface,-96.5629,36.3778,276.66
2015-05-21 00:00:00,2015-05-21 00:00:00,TMP,surface,-95.6254,36.3778,276.881
2015-05-21 00:00:00,2015-05-21 00:00:00,TMP,surface,-94.6879,36.3778,276.646
2015-05-21 00:00:00,2015-05-21 00:00:00,TMP,surface,-93.7504,36.3778,276.308
2015-05-21 00:00:00,2015-05-21 00:00:00,TMP,surface,-92.8129,36.3778,276.289
2015-05-21 00:00:00,2015-05-21 00:00:00,PRATE,surface,-107.813,25.0393,3.87e-05
2015-05-21 00:00:00,2015-05-21 00:00:00,PRATE,surface,-106.875,25.0393,5.12e-05
2015-05-21 00:00:00,2015-05-21 00:00:00,PRATE,surface,-105.938,25.0393,4.4e-05
2015-05-21 00:00:00,2015-05-21 00:00:00,PRATE,surface,-105,25.0393,1.78e-05
2015-05-21 00:00:00,2015-05-21 00:00:00,PRATE,surface,-104.063,25.0393,4e-06
2015-05-21 00:00:00,2015-05-21 00:00:00,PRATE,surface,-103.125,25.0393,1e-06
2015-05-21 00:00:00,2015-05-21 00:00:00,PRATE,surface,-102.188,25.0393,2.1e-06
2015-05-21 00:00:00,2015-05-21 00:00:00,PRATE,surface,-101.25,25.0393,1.52e-05
2015-05-21 00:00:00,2015-05-21 00:00:00,PRATE,surface,-100.313,25.0393,3.16e-05
2015-05-21 00:00:00,2015-05-21 00:00:00,PRATE,surface,-99.3754,25.0393,3.13e-05
2015-05-21 00:00:00,2015-05-21 00:00:00,PRATE,surface,-98.4379,25.0393,4.4e-05
2015-05-21 00:00:00,2015-05-21 00:00:00,PRATE,surface,-97.5004,25.0393,6.46e-05
2015-05-21 00:00:00,2015-05-21 00:00:00,PRATE,surface,-96.5629,25.0393,8.65e-05
2015-05-21 00:00:00,2015-05-21 00:00:00,PRATE,surface,-95.6254,25.0393,8.75e-05
2015-05-21 00:00:00,2015-05-21 00:00:00,PRATE,surface,-94.6879,25.0393,6.36e-05
2015-05-21 00:00:00,2015-05-21 00:00:00,PRATE,surface,-93.7504,25.0393,4.27e-05
2015-05-21 00:00:00,2015-05-21 00:00:00,PRATE,surface,-92.8129,25.0393,3.49e-05
2015-05-21 00:00:00,2015-05-21 00:00:00,PRATE,surface,-107.813,25.9842,4.72e-05
2015-05-21 00:00:00,2015-05-21 00:00:00,PRATE,surface,-106.875,25.9842,4.05e-05
2015-05-21 00:00:00,2015-05-21 00:00:00,PRATE,surface,-105.938,25.9842,2.72e-05
2015-05-21 00:00:00,2015-05-21 00:00:00,PRATE,surface,-105,25.9842,1.47e-05
2015-05-21 00:00:00,2015-05-21 00:00:00,PRATE,surface,-104.063,25.9842,3.8e-06
2015-05-21 00:00:00,2015-05-21 00:00:00,PRATE,surface,-103.125,25.9842,7e-07
2015-05-21 00:00:00,2015-05-21 00:00:00,PRATE,surface,-102.188,25.9842,3.3e-06
2015-05-21 00:00:00,2015-05-21 00:00:00,PRATE,surface,-101.25,25.9842,1.24e-05
2015-05-21 00:00:00,2015-05-21 00:00:00,PRATE,surface,-100.313,25.9842,3.07e-05
2015-05-21 00:00:00,2015-05-21 00:00:00,PRATE,surface,-99.3754,25.9842,3.98e-05
2015-05-21 00:00:00,2015-05-21 00:00:00,PRATE,surface,-98.4379,25.9842,4.41e-05
2015-05-21 00:00:00,2015-05-21 00:00:00,PRATE,surface,-97.5004,25.9842,7.18e-05
2015-05-21 00:00:00,2015-05-21 00:00:00,PRATE,surface,-96.5629,25.9842,0.0001062
2015-05-21 00:00:00,2015-05-21 00:00:00,PRATE,surface,-95.6254,25.9842,0.0001199
2015-05-21 00:00:00,2015-05-21 00:00:00,PRATE,surface,-94.6879,25.9842,0.000117
2015-05-21 00:00:00,2015-05-21 00:00:00,PRATE,surface,-93.7504,25.9842,8.99e-05
2015-05-21 00:00:00,2015-05-21 00:00:00,PRATE,surface,-92.8129,25.9842,6.38e-05
2015-05-21 00:00:00,2015-05-21 00:00:00,PRATE,surface,-107.813,26.929,4.16e-05
2015-05-21 00:00:00,2015-05-21 00:00:00,PRATE,surface,-106.875,26.929,2.35e-05
2015-05-21 00:00:00,2015-05-21 00:00:00,PRATE,surface,-105.938,26.929,1.66e-05
2015-05-21 00:00:00,2015-05-21 00:00:00,PRATE,surface,-105,26.929,1.19e-05
2015-05-21 00:00:00,2015-05-21 00:00:00,PRATE,surface,-104.063,26.929,7.6e-06
2015-05-21 00:00:00,2015-05-21 00:00:00,PRATE,surface,-103.125,26.929,1.07e-05
2015-05-21 00:00:00,2015-05-21 00:00:00,PRATE,surface,-102.188,26.929,1.58e-05
2015-05-21 00:00:00,2015-05-21 00:00:00,PRATE,surface,-101.25,26.929,2.24e-05
2015-05-21 00:00:00,2015-05-21 00:00:00,PRATE,surface,-100.313,26.929,3.15e-05
2015-05-21 00:00:00,2015-05-21 00:00:00,PRATE,surface,-99.3754,26.929,3.53e-05
2015-05-21 00:00:00,2015-05-21 00:00:00,PRATE,surface,-98.4379,26.929,4.59e-05
2015-05-21 00:00:00,2015-05-21 00:00:00,PRATE,surface,-97.5004,26.929,7.44e-05
2015-05-21 00:00:00,2015-05-21 00:00:00,PRATE,surface,-96.5629,26.929,0.0001109
2015-05-21 00:00:00,2015-05-21 00:00:00,PRATE,surface,-95.6254,26.929,0.0001413
2015-05-21 00:00:00,2015-05-21 00:00:00,PRATE,surface,-94.6879,26.929,0.000159
2015-05-21 00:00:00,2015-05-21 00:00:00,PRATE,surface,-93.7504,26.929,0.0001432
2015-05-21 00:00:00,2015-05-21 00:00:00,PRATE,surface,-92.8129,26.929,0.0001174
2015-05-21 00:00:00,2015-05-21 00:00:00,PRATE,surface,-107.813,27.8739,4.42e-05
2015-05-21 00:00:00,2015-05-21 00:00:00,PRATE,surface,-106.875,27.8739,1.96e-05
2015-05-21 00:00:00,2015-05-21 00:00:00,PRATE,surface,-105.938,27.8739,1.06e-05
2015-05-21 00:00:00,2015-05-21 00:00:00,PRATE,surface,-105,27.8739,9.3e-06
2015-05-21 00:00:00,2015-05-21 00:00:00,PRATE,surface,-104.063,27.8739,1.44e-05
2015-05-21 00:00:00,2015-05-21 00:00:00,PRATE,surface,-103.125,27.8739,2.73e-05
2015-05-21 00:00:00,2015-05-21 00:00:00,PRATE,surface,-102.188,27.8739,3.57e-05
2015-05-21 00:00:00,2015-05-21 00:00:00,PRATE,surface,-101.25,27.8739,3.19e-05
2015-05-21 00:00:00,2015-05-21 00:00:00,PRATE,surface,-100.313,27.8739,2.69e-05
2015-05-21 00:00:00,2015-05-21 00:00:00,PRATE,surface,-99.3754,27.8739,2.9e-05
2015-05-21 00:00:00,2015-05-21 00:00:00,PRATE,surface,-98.4379,27.8739,4.13e-05
2015-05-21 00:00:00,2015-05-21 00:00:00,PRATE,surface,-97.5004,27.8739,6.03e-05
2015-05-21 00:00:00,2015-05-21 00:00:00,PRATE,surface,-96.5629,27.8739,8.73e-05
2015-05-21 00:00:00,2015-05-21 00:00:00,PRATE,surface,-95.6254,27.8739,0.0001263
2015-05-21 00:00:00,2015-05-21 00:00:00,PRATE,surface,-94.6879,27.8739,0.000163
2015-05-21 00:00:00,2015-05-21 00:00:00,PRATE,surface,-93.7504,27.8739,0.0001703
2015-05-21 00:00:00,2015-05-21 00:00:00,PRATE,surface,-92.8129,27.8739,0.0001508
2015-05-21 00:00:00,2015-05-21 00:00:00,PRATE,surface,-107.813,28.8188,4.27e-05
2015-05-21 00:00:00,2015-05-21 00:00:00,PRATE,surface,-106.875,28.8188,2.34e-05
2015-05-21 00:00:00,2015-05-21 00:00:00,PRATE,surface,-105.938,28.8188,1.24e-05
2015-05-21 00:00:00,2015-05-21 00:00:00,PRATE,surface,-105,28.8188,7.7e-06
2015-05-21 00:00:00,2015-05-21 00:00:00,PRATE,surface,-104.063,28.8188,1.67e-05
2015-05-21 00:00:00,2015-05-21 00:00:00,PRATE,surface,-103.125,28.8188,3.46e-05
2015-05-21 00:00:00,2015-05-21 00:00:00,PRATE,surface,-102.188,28.8188,4.21e-05
2015-05-21 00:00:00,2015-05-21 00:00:00,PRATE,surface,-101.25,28.8188,3.22e-05
2015-05-21 00:00:00,2015-05-21 00:00:00,PRATE,surface,-100.313,28.8188,2.98e-05
2015-05-21 00:00:00,2015-05-21 00:00:00,PRATE,surface,-99.3754,28.8188,3.43e-05
2015-05-21 00:00:00,2015-05-21 00:00:00,PRATE,surface,-98.4379,28.8188,4.08e-05
2015-05-21 00:00:00,2015-05-21 00:00:00,PRATE,surface,-97.5004,28.8188,4.62e-05
2015-05-21 00:00:00,2015-05-21 00:00:00,PRATE,surface,-96.5629,28.8188,6.08e-05
2015-05-21 00:00:00,2015-05-21 00:00:00,PRATE,surface,-95.6254,28.8188,9.19e-05
2015-05-21 00:00:00,2015-05-21 00:00:00,PRATE,surface,-94.6879,28.8188,0.000127
2015-05-21 00:00:00,2015-05-21 00:00:00,PRATE,surface,-93.7504,28.8188,0.0001478
2015-05-21 00:00:00,2015-05-21 00:00:00,PRATE,surface,-92.8129,28.8188,0.0001441
2015-05-21 00:00:00,2015-05-21 00:00:00,PRATE,surface,-107.813,29.7637,3.3e-05
2015-05-21 00:00:00,2015-05-21 00:00:00,PRATE,surface,-106.875,29.7637,2.93e-05
2015-05-21 00:00:00,2015-05-21 00:00:00,PRATE,surface,-105.938,29.7637,2.39e-05
2015-05-21 00:00:00,2015-05-21 00:00:00,PRATE,surface,-105,29.7637,1.64e-05
2015-05-21 00:00:00,2015-05-21 00:00:00,PRATE,surface,-104.063,29.7637,1.95e-05
2015-05-21 00:00:00,2015-05-21 00:00:00,PRATE,surface,-103.125,29.7637,3.27e-05
2015-05-21 00:00:00,2015-05-21 00:00:00,PRATE,surface,-102.188,29.7637,3.6e-05
2015-05-21 00:00:00,2015-05-21 00:00:00,PRATE,surface,-101.25,29.7637,3.3e-05
2015-05-21 00:00:00,2015-05-21 00:00:00,PRATE,surface,-100.313,29.7637,3.58e-05
2015-05-21 00:00:00,2015-05-21 00:00:00,PRATE,surface,-99.3754,29.7637,4.07e-05
2015-05-21 00:00:00,2015-05-21 00:00:00,PRATE,surface,-98.4379,29.7637,4.33e-05
2015-05-21 00:00:00,2015-05-21 00:00:00,PRATE,surface,-97.5004,29.7637,4.91e-05
2015-05-21 00:00:00,2015-05-21 00:00:00,PRATE,surface,-96.5629,29.7637,6.1e-05
2015-05-21 00:00:00,2015-05-21 00:00:00,PRATE,surface,-95.6254,29.7637,7.89e-05
2015-05-21 00:00:00,2015-05-21 00:00:00,PRATE,surface,-94.6879,29.7637,9.79e-05
2015-05-21 00:00:00,2015-05-21 00:00:00,PRATE,surface,-93.7504,29.7637,0.0001057
2015-05-21 00:00:00,2015-05-21 00:00:00,PRATE,surface,-92.8129,29.7637,0.0001132
2015-05-21 00:00:00,2015-05-21 00:00:00,PRATE,surface,-107.813,30.7085,2.16e-05
2015-05-21 00:00:00,2015-05-21 00:00:00,PRATE,surface,-106.875,30.7085,2.44e-05
2015-05-21 00:00:00,2015-05-21 00:00:00,PRATE,surface,-105.938,30.7085,2.85e-05
2015-05-21 00:00:00,2015-05-21 00:00:00,PRATE,surface,-105,30.7085,2.56e-05
2015-05-21 00:00:00,2015-05-21 00:00:00,PRATE,surface,-104.063,30.7085,2.56e-05
2015-05-21 00:00:00,2015-05-21 00:00:00,PRATE,surface,-103.125,30.7085,2.9e-05
2015-05-21 00:00:00,2015-05-21 00:00:00,PRATE,surface,-102.188,30.7085,3.2e-05
2015-05-21 00:00:00,2015-05-21 00:00:00,PRATE,surface,-101.25,30.7085,3.32e-05
2015-05-21 00:00:00,2015-05-21 00:00:00,PRATE,surface,-100.313,30.7085,3.56e-05
2015-05-21 00:00:00,2015-05-21 00:00:00,PRATE,surface,-99.3754,30.7085,3.72e-05
2015-05-21 00:00:00,2015-05-21 00:00:00,PRATE,surface,-98.4379,30.7085,3.96e-05
2015-05-21 00:00:00,2015-05-21 00:00:00,PRATE,surface,-97.5004,30.7085,4.62e-05
2015-05-21 00:00:00,2015-05-21 00:00:00,PRATE,surface,-96.5629,30.7085,6.15e-05
2015-05-21 00:00:00,2015-05-21 00:00:00,PRATE,surface,-95.6254,30.7085,7.98e-05
2015-05-21 00:00:00,2015-05-21 00:00:00,PRATE,surface,-94.6879,30.7085,8.99e-05
2015-05-21 00:00:00,2015-05-21 00:00:00,PRATE,surface,-93.7504,30.7085,9.27e-05
2015-05-21 00:00:00,2015-05-21 00:00:00,PRATE,surface,-92.8129,30.7085,9.52e-05
2015-05-21 00:00:00,2015-05-21 00:00:00,PRATE,surface,-107.813,31.6534,1.85e-05
2015-05-21 00:00:00,2015-05-21 00:00:00,PRATE,surface,-106.875,31.6534,1.88e-05
2015-05-21 00:00:00,2015-05-21 00:00:00,PRATE,surface,-105.938,31.6534,2.21e-05
2015-05-21 00:00:00,2015-05-21 00:00:00,PRATE,surface,-105,31.6534,2.24e-05
2015-05-21 00:00:00,2015-05-21 00:00:00,PRATE,surface,-104.063,31.6534,2.35e-05
2015-05-21 00:00:00,2015-05-21 00:00:00,PRATE,surface,-103.125,31.6534,2.64e-05
2015-05-21 00:00:00,2015-05-21 00:00:00,PRATE,surface,-102.188,31.6534,2.99e-05
2015-05-21 00:00:00,2015-05-21 00:00:00,PRATE,surface,-101.25,31.6534,3.06e-05
2015-05-21 00:00:00,2015-05-21 00:00:00,PRATE,surface,-100.313,31.6534,2.9e-05
2015-05-21 00:00:00,2015-05-21 00:00:00,PRATE,surface,-99.3754,31.6534,2.95e-05
2015-05-21 00:00:00,2015-05-21 00:00:00,PRATE,surface,-98.4379,31.6534,3.27e-05
2015-05-21 00:00:00,2015-05-21 00:00:00,PRATE,surface,-97.5004,31.6534,3.73e-05
2015-05-21 00:00:00,2015-05-21 00:00:00,PRATE,surface,-96.5629,31.6534,4.42e-05
2015-05-21 00:00:00,2015-05-21 00:00:00,PRATE,surface,-95.6254,31.6534,6.2e-05
2015-05-21 00:00:00,2015-05-21 00:00:00,PRATE,surface,-94.6879,31.6534,8.72e-05
2015-05-21 00:00:00,2015-05-21 00:00:00,PRATE,surface,-93.7504,31.6534,9.63e-05
2015-05-21 00:00:00,2015-05-21 00:00:00,PRATE,surface,-92.8129,31.6534,9.3e-05
2015-05-21 00:00:00,2015-05-21 00:00:00,PRATE,surface,-107.813,32.5983,2.92e-05
2015-05-21 00:00:00,2015-05-21 00:00:00,PRATE,surface,-106.875,32.5983,2.24e-05
2015-05-21 00:00:00,2015-05-21 00:00:00,PRATE,surface,-105.938,32.5983,1.93e-05
2015-05-21 00:00:00,2015-05-21 00:00:00,PRATE,surface,-105,32.5983,1.81e-05
2015-05-21 00:00:00,2015-05-21 00:00:00,PRATE,surface,-104.063,32.5983,1.8e-05
2015-05-21 00:00:00,2015-05-21 00:00:00,PRATE,surface,-103.125,32.5983,2.26e-05
2015-05-21 00:00:00,2015-05-21 00:00:00,PRATE,surface,-102.188,32.5983,2.96e-05
2015-05-21 00:00:00,2015-05-21 00:00:00,PRATE,surface,-101.25,32.5983,3.26e-05
2015-05-21 00:00:00,2015-05-21 00:00:00,PRATE,surface,-100.313,32.5983,2.71e-05
2015-05-21 00:00:00,2015-05-21 00:00:00,PRATE,surface,-99.3754,32.5983,2.22e-05
2015-05-21 00:00:00,2015-05-21 00:00:00,PRATE,surface,-98.4379,32.5983,2.38e-05
2015-05-21 00:00:00,2015-05-21 00:00:00,PRATE,surface,-97.5004,32.5983,2.9e-05
2015-05-21 00:00:00,2015-05-21 00:00:00,PRATE,surface,-96.5629,32.5983,3.62e-05
2015-05-21 00:00:00,2015-05-21 00:00:00,PRATE,surface,-95.6254,32.5983,4.89e-05
2015-05-21 00:00:00,2015-05-21 00:00:00,PRATE,surface,-94.6879,32.5983,7.04e-05
2015-05-21 00:00:00,2015-05-21 00:00:00,PRATE,surface,-93.7504,32.5983,9.44e-05
2015-05-21 00:00:00,2015-05-21 00:00:00,PRATE,surface,-92.8129,32.5983,0.0001
2015-05-21 00:00:00,2015-05-21 00:00:00,PRATE,surface,-107.813,33.5432,4.33e-05
2015-05-21 00:00:00,2015-05-21 00:00:00,PRATE,surface,-106.875,33.5432,2.88e-05
2015-05-21 00:00:00,2015-05-21 00:00:00,PRATE,surface,-105.938,33.5432,1.8e-05
2015-05-21 00:00:00,2015-05-21 00:00:00,PRATE,surface,-105,33.5432,1.57e-05
2015-05-21 00:00:00,2015-05-21 00:00:00,PRATE,surface,-104.063,33.5432,1.69e-05
2015-05-21 00:00:00,2015-05-21 00:00:00,PRATE,surface,-103.125,33.5432,1.91e-05
2015-05-21 00:00:00,2015-05-21 00:00:00,PRATE,surface,-102.188,33.5432,2.84e-05
2015-05-21 00:00:00,2015-05-21 00:00:00,PRATE,surface,-101.25,33.5432,3.64e-05
2015-05-21 00:00:00,2015-05-21 00:00:00,PRATE,surface,-100.313,33.5432,3.19e-05
2015-05-21 00:00:00,2015-05-21 00:00:00,PRATE,surface,-99.3754,33.5432,2.38e-05
2015-05-21 00:00:00,2015-05-21 00:00:00,PRATE,surface,-98.4379,33.5432,2.11e-05
2015-05-21 00:00:00,2015-05-21 00:00:00,PRATE,surface,-97.5004,33.5432,2.6e-05
2015-05-21 00:00:00,2015-05-21 00:00:00,PRATE,surface,-96.5629,33.5432,3.46e-05
2015-05-21 00:00:00,2015-05-21 00:00:00,PRATE,surface,-95.6254,33.5432,4.47e-05
2015-05-21 00:00:00,2015-05-21 00:00:00,PRATE,surface,-94.6879,33.5432,6.07e-05
2015-05-21 00:00:00,2015-05-21 00:00:00,PRATE,surface,-93.7504,33.5432,8.32e-05
2015-05-21 00:00:00,2015-05-21 00:00:00,PRATE,surface,-92.8129,33.5432,9.99e-05
2015-05-21 00:00:00,2015-05-21 00:00:00,PRATE,surface,-107.813,34.4881,3.62e-05
2015-05-21 00:00:00,2015-05-21 00:00:00,PRATE,surface,-106.875,34.4881,2.16e-05
2015-05-21 00:00:00,2015-05-21 00:00:00,PRATE,surface,-105.938,34.4881,1.31e-05
2015-05-21 00:00:00,2015-05-21 00:00:00,PRATE,surface,-105,34.4881,1.52e-05
2015-05-21 00:00:00,2015-05-21 00:00:00,PRATE,surface,-104.063,34.4881,1.66e-05
2015-05-21 00:00:00,2015-05-21 00:00:00,PRATE,surface,-103.125,34.4881,1.83e-05
2015-05-21 00:00:00,2015-05-21 00:00:00,PRATE,surface,-102.188,34.4881,2.34e-05
2015-05-21 00:00:00,2015-05-21 00:00:00,PRATE,surface,-101.25,34.4881,3.45e-05
2015-05-21 00:00:00,2015-05-21 00:00:00,PRATE,surface,-100.313,34.4881,3.84e-05
2015-05-21 00:00:00,2015-05-21 00:00:00,PRATE,surface,-99.3754,34.4881,3.19e-05
2015-05-21 00:00:00,2015-05-21 00:00:00,PRATE,surface,-98.4379,34.4881,2.67e-05
2015-05-21 00:00:00,2015-05-21 00:00:00,PRATE,surface,-97.5004,34.4881,2.87e-05
2015-05-21 00:00:00,2015-05-21 00:00:00,PRATE,surface,-96.5629,34.4881,3.75e-05
2015-05-21 00:00:00,2015-05-21 00:00:00,PRATE,surface,-95.6254,34.4881,5.15e-05
2015-05-21 00:00:00,2015-05-21 00:00:00,PRATE,surface,-94.6879,34.4881,6.81e-05
2015-05-21 00:00:00,2015-05-21 00:00:00,PRATE,surface,-93.7504,34.4881,8.22e-05
2015-05-21 00:00:00,2015-05-21 00:00:00,PRATE,surface,-92.8129,34.4881,8.47e-05
2015-05-21 00:00:00,2015-05-21 00:00:00,PRATE,surface,-107.813,35.4329,2.56e-05
2015-05-21 00:00:00,2015-05-21 00:00:00,PRATE,surface,-106.875,35.4329,1.37e-05
2015-05-21 00:00:00,2015-05-21 00:00:00,PRATE,surface,-105.938,35.4329,1.24e-05
2015-05-21 00:00:00,2015-05-21 00:00:00,PRATE,surface,-105,35.4329,1.73e-05
2015-05-21 00:00:00,2015-05-21 00:00:00,PRATE,surface,-104.063,35.4329,1.75e-05
2015-05-21 00:00:00,2015-05-21 00:00:00,PRATE,surface,-103.125,35.4329,1.92e-05
2015-05-21 00:00:00,2015-05-21 00:00:00,PRATE,surface,-102.188,35.4329,2.43e-05
2015-05-21 00:00:00,2015-05-21 00:00:00,PRATE,surface,-101.25,35.4329,3.12e-05
2015-05-21 00:00:00,2015-05-21 00:00:00,PRATE,surface,-100.313,35.4329,3.33e-05
2015-05-21 00:00:00,2015-05-21 00:00:00,PRATE,surface,-99.3754,35.4329,3.41e-05
2015-05-21 00:00:00,2015-05-21 00:00:00,PRATE,surface,-98.4379,35.4329,3.29e-05
2015-05-21 00:00:00,2015-05-21 00:00:00,PRATE,surface,-97.5004,35.4329,3.31e-05
2015-05-21 00:00:00,2015-05-21 00:00:00,PRATE,surface,-96.5629,35.4329,4.16e-05
2015-05-21 00:00:00,2015-05-21 00:00:00,PRATE,surface,-95.6254,35.4329,5.93e-05
2015-05-21 00:00:00,2015-05-21 00:00:00,PRATE,surface,-94.6879,35.4329,7.85e-05
2015-05-21 00:00:00,2015-05-21 00:00:00,PRATE,surface,-93.7504,35.4329,8.75e-05
2015-05-21 00:00:00,2015-05-21 00:00:00,PRATE,surface,-92.8129,35.4329,7.77e-05
2015-05-21 00:00:00,2015-05-21 00:00:00,PRATE,surface,-107.813,36.3778,2.82e-05
2015-05-21 00:00:00,2015-05-21 00:00:00,PRATE,surface,-106.875,36.3778,2.7e-05
2015-05-21 00:00:00,2015-05-21 00:00:00,PRATE,surface,-105.938,36.3778,2.84e-05
2015-05-21 00:00:00,2015-05-21 00:00:00,PRATE,surface,-105,36.3778,2.34e-05
2015-05-21 00:00:00,2015-05-21 00:00:00,PRATE,surface,-104.063,36.3778,1.61e-05
2015-05-21 00:00:00,2015-05-21 00:00:00,PRATE,surface,-103.125,36.3778,1.83e-05
2015-05-21 00:00:00,2015-05-21 00:00:00,PRATE,surface,-102.188,36.3778,2.29e-05
2015-05-21 00:00:00,2015-05-21 00:00:00,PRATE,surface,-101.25,36.3778,2.94e-05
2015-05-21 00:00:00,2015-05-21 00:00:00,PRATE,surface,-100.313,36.3778,3.26e-05
2015-05-21 00:00:00,2015-05-21 00:00:00,PRATE,surface,-99.3754,36.3778,2.97e-05
2015-05-21 00:00:00,2015-05-21 00:00:00,PRATE,surface,-98.4379,36.3778,2.83e-05
2015-05-21 00:00:00,2015-05-21 00:00:00,PRATE,surface,-97.5004,36.3778,3.05e-05
2015-05-21 00:00:00,2015-05-21 00:00:00,PRATE,surface,-96.5629,36.3778,3.35e-05
2015-05-21 00:00:00,2015-05-21 00:00:00,PRATE,surface,-95.6254,36.3778,4.2e-05
2015-05-21 00:00:00,2015-05-21 00:00:00,PRATE,surface,-94.6879,36.3778,5.71e-05
2015-05-21 00:00:00,2015-05-21 00:00:00,PRATE,surface,-93.7504,36.3778,6.54e-05
2015-05-21 00:00:00,2015-05-21 00:00:00,PRATE,surface,-92.8129,36.3778,6.06e-05
