2018-11-28 00:00:00,2018-11-28 00:00:00,TMP,surface,-107.813,25.0393,293.172
2018-11-28 00:00:00,2018-11-28 00:00:00,TMP,surface,-106.875,25.0393,288.212
2018-11-28 00:00:00,2018-11-28 00:00:00,TMP,surface,-105.938,25.0393,282.876
2018-11-28 00:00:00,2018-11-28 00:00:00,TMP,surface,-105,25.0393,281.081
2018-11-28 00:00:00,2018-11-28 00:00:00,TMP,surface,-104.063,25.0393,284.073
2018-11-28 00:00:00,2018-11-28 00:00:00,TMP,surface,-103.125,25.0393,286.078
2018-11-28 00:00:00,2018-11-28 00:00:00,TMP,surface,-102.188,25.0393,285.617
2018-11-28 00:00:00,2018-11-28 00:00:00,TMP,surface,-101.25,25.0393,283.833
2018-11-28 00:00:00,2018-11-28 00:00:00,TMP,surface,-100.313,25.0393,284.052
2018-11-28 00:00:00,2018-11-28 00:00:00,TMP,surface,-99.3754,25.0393,286.304
2018-11-28 00:00:00,2018-11-28 00:00:00,TMP,surface,-98.4379,25.0393,288.656
2018-11-28 00:00:00,2018-11-28 00:00:00,TMP,surface,-97.5004,25.0393,291.853
2018-11-28 00:00:00,2018-11-28 00:00:00,TMP,surface,-96.5629,25.0393,292.91
2018-11-28 00:00:00,2018-11-28 00:00:00,TMP,surface,-95.6254,25.0393,294.752
2018-11-28 00:00:00,2018-11-28 00:00:00,TMP,surface,-94.6879,25.0393,295.996
2018-11-28 00:00:00,2018-11-28 00:00:00,TMP,surface,-93.7504,25.0393,295.881
2018-11-28 00:00:00,2018-11-28 00:00:00,TMP,surface,-92.8129,25.0393,295.608
2018-11-28 00:00:00,2018-11-28 00:00:00,TMP,surface,-107.813,25.9842,289.31
2018-11-28 00:00:00,2018-11-28 00:00:00,TMP,surface,-106.875,25.9842,283.569
2018-11-28 00:00:00,2018-11-28 00:00:00,TMP,surface,-105.938,25.9842,280.734
2018-11-28 00:00:00,2018-11-28 00:00:00,TMP,surface,-105,25.9842,282.001
2018-11-28 00:00:00,2018-11-28 00:00:00,TMP,surface,-104.063,25.9842,285.254
2018-11-28 00:00:00,2018-11-28 00:00:00,TMP,surface,-103.125,25.9842,286.363
2018-11-28 00:00:00,2018-11-28 00:00:00,TMP,surface,-102.188,25.9842,285.766
2018-11-28 00:00:00,2018-11-28 00:00:00,TMP,surface,-101.25,25.9842,284.601
2018-11-28 00:00:00,2018-11-28 00:00:00,TMP,surface,-100.313,25.9842,284.792
2018-11-28 00:00:00,2018-11-28 00:00:00,TMP,surface,-99.3754,25.9842,286.79
2018-11-28 00:00:00,2018-11-28 00:00:00,TMP,surface,-98.4379,25.9842,288.496
2018-11-28 00:00:00,2018-11-28 00:00:00,TMP,surface,-97.5004,25.9842,289.795
2018-11-28 00:00:00,2018-11-28 00:00:00,TMP,surface,-96.5629,25.9842,291.921
2018-11-28 00:00:00,2018-11-28 00:00:00,TMP,surface,-95.6254,25.9842,293.268
2018-11-28 00:00:00,2018-11-28 00:00:00,TMP,surface,-94.6879,25.9842,294.441
2018-11-28 00:00:00,2018-11-28 00:00:00,TMP,surface,-93.7504,25.9842,294.6
2018-11-28 00:00:00,2018-11-28 00:00:00,TMP,surface,-92.8129,25.9842,294.582
2018-11-28 00:00:00,2018-11-28 00:00:00,TMP,surface,-107.813,26.929,284.539
2018-11-28 00:00:00,2018-11-28 00:00:00,TMP,surface,-106.875,26.929,280.499
2018-11-28 00:00:00,2018-11-28 00:00:00,TMP,surface,-105.938,26.929,281.249
2018-11-28 00:00:00,2018-11-28 00:00:00,TMP,surface,-105,26.929,283.768
2018-11-28 00:00:00,2018-11-28 00:00:00,TMP,surface,-104.063,26.929,285.163
2018-11-28 00:00:00,2018-11-28 00:00:00,TMP,surface,-103.125,26.929,284.627
2018-11-28 00:00:00,2018-11-28 00:00:00,TMP,surface,-102.188,26.929,284.414
2018-11-28 00:00:00,2018-11-28 00:00:00,TMP,surface,-101.25,26.929,284.619
2018-11-28 00:00:00,2018-11-28 00:00:00,TMP,surface,-100.313,26.929,285.683
2018-11-28 00:00:00,2018-11-28 00:00:00,TMP,surface,-99.3754,26.929,286.741
2018-11-28 00:00:00,2018-11-28 00:00:00,TMP,surface,-98.4379,26.929,287.326
2018-11-28 00:00:00,2018-11-28 00:00:00,TMP,surface,-97.5004,26.929,290.492
2018-11-28 00:00:00,2018-11-28 00:00:00,TMP,surface,-96.5629,26.929,291.403
2018-11-28 00:00:00,2018-11-28 00:00:00,TMP,surface,-95.6254,26.929,292.715
2018-11-28 00:00:00,2018-11-28 00:00:00,TMP,surface,-94.6879,26.929,293.425
2018-11-28 00:00:00,2018-11-28 00:00:00,TMP,surface,-93.7504,26.929,293.525
2018-11-28 00:00:00,2018-11-28 00:00:00,TMP,surface,-92.8129,26.929,293.646
2018-11-28 00:00:00,2018-11-28 00:00:00,TMP,surface,-107.813,27.8739,281.544
2018-11-28 00:00:00,2018-11-28 00:00:00,TMP,surface,-106.875,27.8739,279.929
2018-11-28 00:00:00,2018-11-28 00:00:00,TMP,surface,-105.938,27.8739,282.299
2018-11-28 00:00:00,2018-11-28 00:00:00,TMP,surface,-105,27.8739,284.693
2018-11-28 00:00:00,2018-11-28 00:00:00,TMP,surface,-104.063,27.8739,285.021
2018-11-28 00:00:00,2018-11-28 00:00:00,TMP,surface,-103.125,27.8739,283.763
2018-11-28 00:00:00,2018-11-28 00:00:00,TMP,surface,-102.188,27.8739,283.592
2018-11-28 00:00:00,2018-11-28 00:00:00,TMP,surface,-101.25,27.8739,284.515
2018-11-28 00:00:00,2018-11-28 00:00:00,TMP,surface,-100.313,27.8739,285.397
2018-11-28 00:00:00,2018-11-28 00:00:00,TMP,surface,-99.3754,27.8739,285.737
2018-11-28 00:00:00,2018-11-28 00:00:00,TMP,surface,-98.4379,27.8739,286.029
2018-11-28 00:00:00,2018-11-28 00:00:00,TMP,surface,-97.5004,27.8739,288.635
2018-11-28 00:00:00,2018-11-28 00:00:00,TMP,surface,-96.5629,27.8739,291.393
2018-11-28 00:00:00,2018-11-28 00:00:00,TMP,surface,-95.6254,27.8739,291.988
2018-11-28 00:00:00,2018-11-28 00:00:00,TMP,surface,-94.6879,27.8739,292.246
2018-11-28 00:00:00,2018-11-28 00:00:00,TMP,surface,-93.7504,27.8739,292.262
2018-11-28 00:00:00,2018-11-28 00:00:00,TMP,surface,-92.8129,27.8739,292.405
2018-11-28 00:00:00,2018-11-28 00:00:00,TMP,surface,-107.813,28.8188,280.195
2018-11-28 00:00:00,2018-11-28 00:00:00,TMP,surface,-106.875,28.8188,280.152
2018-11-28 00:00:00,2018-11-28 00:00:00,TMP,surface,-105.938,28.8188,282.667
2018-11-28 00:00:00,2018-11-28 00:00:00,TMP,surface,-105,28.8188,284.296
2018-11-28 00:00:00,2018-11-28 00:00:00,TMP,surface,-104.063,28.8188,283.584
2018-11-28 00:00:00,2018-11-28 00:00:00,TMP,surface,-103.125,28.8188,282.865
2018-11-28 00:00:00,2018-11-28 00:00:00,TMP,surface,-102.188,28.8188,283.069
2018-11-28 00:00:00,2018-11-28 00:00:00,TMP,surface,-101.25,28.8188,283.977
2018-11-28 00:00:00,2018-11-28 00:00:00,TMP,surface,-100.313,28.8188,284.16
2018-11-28 00:00:00,2018-11-28 00:00:00,TMP,surface,-99.3754,28.8188,284.048
2018-11-28 00:00:00,2018-11-28 00:00:00,TMP,surface,-98.4379,28.8188,284.326
2018-11-28 00:00:00,2018-11-28 00:00:00,TMP,surface,-97.5004,28.8188,285.036
2018-11-28 00:00:00,2018-11-28 00:00:00,TMP,surface,-96.5629,28.8188,285.833
2018-11-28 00:00:00,2018-11-28 00:00:00,TMP,surface,-95.6254,28.8188,287.965
2018-11-28 00:00:00,2018-11-28 00:00:00,TMP,surface,-94.6879,28.8188,290.768
2018-11-28 00:00:00,2018-11-28 00:00:00,TMP,surface,-93.7504,28.8188,290.75
2018-11-28 00:00:00,2018-11-28 00:00:00,TMP,surface,-92.8129,28.8188,290.917
2018-11-28 00:00:00,2018-11-28 00:00:00,TMP,surface,-107.813,29.7637,280.686
2018-11-28 00:00:00,2018-11-28 00:00:00,TMP,surface,-106.875,29.7637,281.228
2018-11-28 00:00:00,2018-11-28 00:00:00,TMP,surface,-105.938,29.7637,283.125
2018-11-28 00:00:00,2018-11-28 00:00:00,TMP,surface,-105,29.7637,282.888
2018-11-28 00:00:00,2018-11-28 00:00:00,TMP,surface,-104.063,29.7637,282.691
2018-11-28 00:00:00,2018-11-28 00:00:00,TMP,surface,-103.125,29.7637,282.825
2018-11-28 00:00:00,2018-11-28 00:00:00,TMP,surface,-102.188,29.7637,283.395
2018-11-28 00:00:00,2018-11-28 00:00:00,TMP,surface,-101.25,29.7637,283.424
2018-11-28 00:00:00,2018-11-28 00:00:00,TMP,surface,-100.313,29.7637,282.849
2018-11-28 00:00:00,2018-11-28 00:00:00,TMP,surface,-99.3754,29.7637,282.56
2018-11-28 00:00:00,2018-11-28 00:00:00,TMP,surface,-98.4379,29.7637,282.761
2018-11-28 00:00:00,2018-11-28 00:00:00,TMP,surface,-97.5004,29.7637,283.219
2018-11-28 00:00:00,2018-11-28 00:00:00,TMP,surface,-96.5629,29.7637,283.747
2018-11-28 00:00:00,2018-11-28 00:00:00,TMP,surface,-95.6254,29.7637,284.349
2018-11-28 00:00:00,2018-11-28 00:00:00,TMP,surface,-94.6879,29.7637,286.436
2018-11-28 00:00:00,2018-11-28 00:00:00,TMP,surface,-93.7504,29.7637,288.787
2018-11-28 00:00:00,2018-11-28 00:00:00,TMP,surface,-92.8129,29.7637,285.129
2018-11-28 00:00:00,2018-11-28 00:00:00,TMP,surface,-107.813,30.7085,282.368
2018-11-28 00:00:00,2018-11-28 00:00:00,TMP,surface,-106.875,30.7085,283.077
2018-11-28 00:00:00,2018-11-28 00:00:00,TMP,surface,-105.938,30.7085,282.838
2018-11-28 00:00:00,2018-11-28 00:00:00,TMP,surface,-105,30.7085,282.11
2018-11-28 00:00:00,2018-11-28 00:00:00,TMP,surface,-104.063,30.7085,281.894
2018-11-28 00:00:00,2018-11-28 00:00:00,TMP,surface,-103.125,30.7085,282.64
2018-11-28 00:00:00,2018-11-28 00:00:00,TMP,surface,-102.188,30.7085,283.056
2018-11-28 00:00:00,2018-11-28 00:00:00,TMP,surface,-101.25,30.7085,282.726
2018-11-28 00:00:00,2018-11-28 00:00:00,TMP,surface,-100.313,30.7085,282.051
2018-11-28 00:00:00,2018-11-28 00:00:00,TMP,surface,-99.3754,30.7085,281.816
2018-11-28 00:00:00,2018-11-28 00:00:00,TMP,surface,-98.4379,30.7085,281.99
2018-11-28 00:00:00,2018-11-28 00:00:00,TMP,surface,-97.5004,30.7085,282.237
2018-11-28 00:00:00,2018-11-28 00:00:00,TMP,surface,-96.5629,30.7085,282.496
2018-11-28 00:00:00,2018-11-28 00:00:00,TMP,surface,-95.6254,30.7085,282.76
2018-11-28 00:00:00,2018-11-28 00:00:00,TMP,surface,-94.6879,30.7085,282.897
2018-11-28 00:00:00,2018-11-28 00:00:00,TMP,surface,-93.7504,30.7085,282.881
2018-11-28 00:00:00,2018-11-28 00:00:00,TMP,surface,-92.8129,30.7085,282.763
2018-11-28 00:00:00,2018-11-28 00:00:00,TMP,surface,-107.813,31.6534,282.451
2018-11-28 00:00:00,2018-11-28 00:00:00,TMP,surface,-106.875,31.6534,282.932
2018-11-28 00:00:00,2018-11-28 00:00:00,TMP,surface,-105.938,31.6534,281.868
2018-11-28 00:00:00,2018-11-28 00:00:00,TMP,surface,-105,31.6534,281.494
2018-11-28 00:00:00,2018-11-28 00:00:00,TMP,surface,-104.063,31.6534,281.63
2018-11-28 00:00:00,2018-11-28 00:00:00,TMP,surface,-103.125,31.6534,282.267
2018-11-28 00:00:00,2018-11-28 00:00:00,TMP,surface,-102.188,31.6534,282.552
2018-11-28 00:00:00,2018-11-28 00:00:00,TMP,surface,-101.25,31.6534,282.228
2018-11-28 00:00:00,2018-11-28 00:00:00,TMP,surface,-100.313,31.6534,281.921
2018-11-28 00:00:00,2018-11-28 00:00:00,TMP,surface,-99.3754,31.6534,281.785
2018-11-28 00:00:00,2018-11-28 00:00:00,TMP,surface,-98.4379,31.6534,281.741
2018-11-28 00:00:00,2018-11-28 00:00:00,TMP,surface,-97.5004,31.6534,281.752
2018-11-28 00:00:00,2018-11-28 00:00:00,TMP,surface,-96.5629,31.6534,281.896
2018-11-28 00:00:00,2018-11-28 00:00:00,TMP,surface,-95.6254,31.6534,281.958
2018-11-28 00:00:00,2018-11-28 00:00:00,TMP,surface,-94.6879,31.6534,281.681
2018-11-28 00:00:00,2018-11-28 00:00:00,TMP,surface,-93.7504,31.6534,281.435
2018-11-28 00:00:00,2018-11-28 00:00:00,TMP,surface,-92.8129,31.6534,281.475
2018-11-28 00:00:00,2018-11-28 00:00:00,TMP,surface,-107.813,32.5983,280.28
2018-11-28 00:00:00,2018-11-28 00:00:00,TMP,surface,-106.875,32.5983,280.382
2018-11-28 00:00:00,2018-11-28 00:00:00,TMP,surface,-105.938,32.5983,280.424
2018-11-28 00:00:00,2018-11-28 00:00:00,TMP,surface,-105,32.5983,280.395
2018-11-28 00:00:00,2018-11-28 00:00:00,TMP,surface,-104.063,32.5983,281.579
2018-11-28 00:00:00,2018-11-28 00:00:00,TMP,surface,-103.125,32.5983,282.235
2018-11-28 00:00:00,2018-11-28 00:00:00,TMP,surface,-102.188,32.5983,282.04
2018-11-28 00:00:00,2018-11-28 00:00:00,TMP,surface,-101.25,32.5983,281.979
2018-11-28 00:00:00,2018-11-28 00:00:00,TMP,surface,-100.313,32.5983,282.001
2018-11-28 00:00:00,2018-11-28 00:00:00,TMP,surface,-99.3754,32.5983,281.984
2018-11-28 00:00:00,2018-11-28 00:00:00,TMP,surface,-98.4379,32.5983,281.784
2018-11-28 00:00:00,2018-11-28 00:00:00,TMP,surface,-97.5004,32.5983,281.561
2018-11-28 00:00:00,2018-11-28 00:00:00,TMP,surface,-96.5629,32.5983,281.464
2018-11-28 00:00:00,2018-11-28 00:00:00,TMP,surface,-95.6254,32.5983,281.312
2018-11-28 00:00:00,2018-11-28 00:00:00,TMP,surface,-94.6879,32.5983,280.94
2018-11-28 00:00:00,2018-11-28 00:00:00,TMP,surface,-93.7504,32.5983,280.6
2018-11-28 00:00:00,2018-11-28 00:00:00,TMP,surface,-92.8129,32.5983,280.677
2018-11-28 00:00:00,2018-11-28 00:00:00,TMP,surface,-107.813,33.5432,277.347
2018-11-28 00:00:00,2018-11-28 00:00:00,TMP,surface,-106.875,33.5432,278.259
2018-11-28 00:00:00,2018-11-28 00:00:00,TMP,surface,-105.938,33.5432,278.857
2018-11-28 00:00:00,2018-11-28 00:00:00,TMP,surface,-105,33.5432,279.382
2018-11-28 00:00:00,2018-11-28 00:00:00,TMP,surface,-104.063,33.5432,280.805
2018-11-28 00:00:00,2018-11-28 00:00:00,TMP,surface,-103.125,33.5432,281.31
2018-11-28 00:00:00,2018-11-28 00:00:00,TMP,surface,-102.188,33.5432,281.107
2018-11-28 00:00:00,2018-11-28 00:00:00,TMP,surface,-101.25,33.5432,281.096
2018-11-28 00:00:00,2018-11-28 00:00:00,TMP,surface,-100.313,33.5432,281.35
2018-11-28 00:00:00,2018-11-28 00:00:00,TMP,surface,-99.3754,33.5432,281.446
2018-11-28 00:00:00,2018-11-28 00:00:00,TMP,surface,-98.4379,33.5432,281.233
2018-11-28 00:00:00,2018-11-28 00:00:00,TMP,surface,-97.5004,33.5432,280.812
2018-11-28 00:00:00,2018-11-28 00:00:00,TMP,surface,-96.5629,33.5432,280.448
2018-11-28 00:00:00,2018-11-28 00:00:00,TMP,surface,-95.6254,33.5432,280.246
2018-11-28 00:00:00,2018-11-28 00:00:00,TMP,surface,-94.6879,33.5432,279.993
2018-11-28 00:00:00,2018-11-28 00:00:00,TMP,surface,-93.7504,33.5432,279.67
2018-11-28 00:00:00,2018-11-28 00:00:00,TMP,surface,-92.8129,33.5432,279.652
2018-11-28 00:00:00,2018-11-28 00:00:00,TMP,surface,-107.813,34.4881,275.83
2018-11-28 00:00:00,2018-11-28 00:00:00,TMP,surface,-106.875,34.4881,277.137
2018-11-28 00:00:00,2018-11-28 00:00:00,TMP,surface,-105.938,34.4881,277.797
2018-11-28 00:00:00,2018-11-28 00:00:00,TMP,surface,-105,34.4881,278.64
2018-11-28 00:00:00,2018-11-28 00:00:00,TMP,surface,-104.063,34.4881,279.358
2018-11-28 00:00:00,2018-11-28 00:00:00,TMP,surface,-103.125,34.4881,279.76
2018-11-28 00:00:00,2018-11-28 00:00:00,TMP,surface,-102.188,34.4881,279.948
2018-11-28 00:00:00,2018-11-28 00:00:00,TMP,surface,-101.25,34.4881,280.2
2018-11-28 00:00:00,2018-11-28 00:00:00,TMP,surface,-100.313,34.4881,280.414
2018-11-28 00:00:00,2018-11-28 00:00:00,TMP,surface,-99.3754,34.4881,280.438
2018-11-28 00:00:00,2018-11-28 00:00:00,TMP,surface,-98.4379,34.4881,280.233
2018-11-28 00:00:00,2018-11-28 00:00:00,TMP,surface,-97.5004,34.4881,279.92
2018-11-28 00:00:00,2018-11-28 00:00:00,TMP,surface,-96.5629,34.4881,279.697
2018-11-28 00:00:00,2018-11-28 00:00:00,TMP,surface,-95.6254,34.4881,279.448
2018-11-28 00:00:00,2018-11-28 00:00:00,TMP,surface,-94.6879,34.4881,278.912
2018-11-28 00:00:00,2018-11-28 00:00:00,TMP,surface,-93.7504,34.4881,278.363
2018-11-28 00:00:00,2018-11-28 00:00:00,TMP,surface,-92.8129,34.4881,278.289
2018-11-28 00:00:00,2018-11-28 00:00:00,TMP,surface,-107.813,35.4329,275.574
2018-11-28 00:00:00,2018-11-28 00:00:00,TMP,surface,-106.875,35.4329,276.104
2018-11-28 00:00:00,2018-11-28 00:00:00,TMP,surface,-105.938,35.4329,276.577
2018-11-28 00:00:00,2018-11-28 00:00:00,TMP,surface,-105,35.4329,277.118
2018-11-28 00:00:00,2018-11-28 00:00:00,TMP,surface,-104.063,35.4329,278.59
2018-11-28 00:00:00,2018-11-28 00:00:00,TMP,surface,-103.125,35.4329,279.294
2018-11-28 00:00:00,2018-11-28 00:00:00,TMP,surface,-102.188,35.4329,279.326
2018-11-28 00:00:00,2018-11-28 00:00:00,TMP,surface,-101.25,35.4329,279.44
2018-11-28 00:00:00,2018-11-28 00:00:00,TMP,surface,-100.313,35.4329,279.539
2018-11-28 00:00:00,2018-11-28 00:00:00,TMP,surface,-99.3754,35.4329,279.47
2018-11-28 00:00:00,2018-11-28 00:00:00,TMP,surface,-98.4379,35.4329,279.35
2018-11-28 00:00:00,2018-11-28 00:00:00,TMP,surface,-97.5004,35.4329,279.323
2018-11-28 00:00:00,2018-11-28 00:00:00,TMP,surface,-96.5629,35.4329,279.257
2018-11-28 00:00:00,2018-11-28 00:00:00,TMP,surface,-95.6254,35.4329,278.948
2018-11-28 00:00:00,2018-11-28 00:00:00,TMP,surface,-94.6879,35.4329,278.304
2018-11-28 00:00:00,2018-11-28 00:00:00,TMP,surface,-93.7504,35.4329,277.443
2018-11-28 00:00:00,2018-11-28 00:00:00,TMP,surface,-92.8129,35.4329,276.971
2018-11-28 00:00:00,2018-11-28 00:00:00,TMP,surface,-107.813,36.3778,274.529
2018-11-28 00:00:00,2018-11-28 00:00:00,TMP,surface,-106.875,36.3778,273.645
2018-11-28 00:00:00,2018-11-28 00:00:00,TMP,surface,-105.938,36.3778,274.144
2018-11-28 00:00:00,2018-11-28 00:00:00,TMP,surface,-105,36.3778,275.569
2018-11-28 00:00:00,2018-11-28 00:00:00,TMP,surface,-104.063,36.3778,277.153
2018-11-28 00:00:00,2018-11-28 00:00:00,TMP,surface,-103.125,36.3778,277.993
2018-11-28 00:00:00,2018-11-28 00:00:00,TMP,surface,-102.188,36.3778,278.321
2018-11-28 00:00:00,2018-11-28 00:00:00,TMP,surface,-101.25,36.3778,278.6
2018-11-28 00:00:00,2018-11-28 00:00:00,TMP,surface,-100.313,36.3778,278.862
2018-11-28 00:00:00,2018-11-28 00:00:00,TMP,surface,-99.3754,36.3778,278.888
2018-11-28 00:00:00,2018-11-28 00:00:00,TMP,surface,-98.4379,36.3778,278.718
2018-11-28 00:00:00,2018-11-28 00:00:00,TMP,surface,-97.5004,36.3778,278.739
2018-11-28 00:00:00,2018-11-28 00:00:00,TMP,surface,-96.5629,36.3778,278.777
2018-11-28 00:00:00,2018-11-28 00:00:00,TMP,surface,-95.6254,36.3778,278.421
2018-11-28 00:00:00,2018-11-28 00:00:00,TMP,surface,-94.6879,36.3778,277.646
2018-11-28 00:00:00,2018-11-28 00:00:00,TMP,surface,-93.7504,36.3778,276.629
2018-11-28 00:00:00,2018-11-28 00:00:00,TMP,surface,-92.8129,36.3778,275.947
2018-11-28 00:00:00,2018-11-28 00:00:00,PRATE,surface,-107.813,25.0393,2.05e-05
2018-11-28 00:00:00,2018-11-28 00:00:00,PRATE,surface,-106.875,25.0393,3.54e-05
2018-11-28 00:00:00,2018-11-28 00:00:00,PRATE,surface,-105.938,25.0393,3.66e-05
2018-11-28 00:00:00,2018-11-28 00:00:00,PRATE,surface,-105,25.0393,3.48e-05
2018-11-28 00:00:00,2018-11-28 00:00:00,PRATE,surface,-104.063,25.0393,1.98e-05
2018-11-28 00:00:00,2018-11-28 00:00:00,PRATE,surface,-103.125,25.0393,1.16e-05
2018-11-28 00:00:00,2018-11-28 00:00:00,PRATE,surface,-102.188,25.0393,2.14e-05
2018-11-28 00:00:00,2018-11-28 00:00:00,PRATE,surface,-101.25,25.0393,4e-05
2018-11-28 00:00:00,2018-11-28 00:00:00,PRATE,surface,-100.313,25.0393,6.01e-05
2018-11-28 00:00:00,2018-11-28 00:00:00,PRATE,surface,-99.3754,25.0393,4.43e-05
2018-11-28 00:00:00,2018-11-28 00:00:00,PRATE,surface,-98.4379,25.0393,3.71e-05
2018-11-28 00:00:00,2018-11-28 00:00:00,PRATE,surface,-97.5004,25.0393,4.62e-05
2018-11-28 00:00:00,2018-11-28 00:00:00,PRATE,surface,-96.5629,25.0393,7.11e-05
2018-11-28 00:00:00,2018-11-28 00:00:00,PRATE,surface,-95.6254,25.0393,0.000106
2018-11-28 00:00:00,2018-11-28 00:00:00,PRATE,surface,-94.6879,25.0393,9.61e-05
2018-11-28 00:00:00,2018-11-28 00:00:00,PRATE,surface,-93.7504,25.0393,5.37e-05
2018-11-28 00:00:00,2018-11-28 00:00:00,PRATE,surface,-92.8129,25.0393,3.91e-05
2018-11-28 00:00:00,2018-11-28 00:00:00,PRATE,surface,-107.813,25.9842,3.14e-05
2018-11-28 00:00:00,2018-11-28 00:00:00,PRATE,surface,-106.875,25.9842,4.18e-05
2018-11-28 00:00:00,2018-11-28 00:00:00,PRATE,surface,-105.938,25.9842,4.62e-05
2018-11-28 00:00:00,2018-11-28 00:00:00,PRATE,surface,-105,25.9842,3.81e-05
2018-11-28 00:00:00,2018-11-28 00:00:00,PRATE,surface,-104.063,25.9842,2.14e-05
2018-11-28 00:00:00,2018-11-28 00:00:00,PRATE,surface,-103.125,25.9842,2.09e-05
2018-11-28 00:00:00,2018-11-28 00:00:00,PRATE,surface,-102.188,25.9842,3e-05
2018-11-28 00:00:00,2018-11-28 00:00:00,PRATE,surface,-101.25,25.9842,4.66e-05
2018-11-28 00:00:00,2018-11-28 00:00:00,PRATE,surface,-100.313,25.9842,5.11e-05
2018-11-28 00:00:00,2018-11-28 00:00:00,PRATE,surface,-99.3754,25.9842,4.25e-05
2018-11-28 00:00:00,2018-11-28 00:00:00,PRATE,surface,-98.4379,25.9842,4.25e-05
2018-11-28 00:00:00,2018-11-28 00:00:00,PRATE,surface,-97.5004,25.9842,4.38e-05
2018-11-28 00:00:00,2018-11-28 00:00:00,PRATE,surface,-96.5629,25.9842,7.15e-05
2018-11-28 00:00:00,2018-11-28 00:00:00,PRATE,surface,-95.6254,25.9842,9.19e-05
2018-11-28 00:00:00,2018-11-28 00:00:00,PRATE,surface,-94.6879,25.9842,8.71e-05
2018-11-28 00:00:00,2018-11-28 00:00:00,PRATE,surface,-93.7504,25.9842,7.05e-05
2018-11-28 00:00:00,2018-11-28 00:00:00,PRATE,surface,-92.8129,25.9842,6.58e-05
2018-11-28 00:00:00,2018-11-28 00:00:00,PRATE,surface,-107.813,26.929,3.77e-05
2018-11-28 00:00:00,2018-11-28 00:00:00,PRATE,surface,-106.875,26.929,4.69e-05
2018-11-28 00:00:00,2018-11-28 00:00:00,PRATE,surface,-105.938,26.929,4.77e-05
2018-11-28 00:00:00,2018-11-28 00:00:00,PRATE,surface,-105,26.929,4.07e-05
2018-11-28 00:00:00,2018-11-28 00:00:00,PRATE,surface,-104.063,26.929,3.26e-05
2018-11-28 00:00:00,2018-11-28 00:00:00,PRATE,surface,-103.125,26.929,4.01e-05
2018-11-28 00:00:00,2018-11-28 00:00:00,PRATE,surface,-102.188,26.929,5e-05
2018-11-28 00:00:00,2018-11-28 00:00:00,PRATE,surface,-101.25,26.929,6.5e-05
2018-11-28 00:00:00,2018-11-28 00:00:00,PRATE,surface,-100.313,26.929,5.09e-05
2018-11-28 00:00:00,2018-11-28 00:00:00,PRATE,surface,-99.3754,26.929,4.88e-05
2018-11-28 00:00:00,2018-11-28 00:00:00,PRATE,surface,-98.4379,26.929,6.46e-05
2018-11-28 00:00:00,2018-11-28 00:00:00,PRATE,surface,-97.5004,26.929,6.98e-05
2018-11-28 00:00:00,2018-11-28 00:00:00,PRATE,surface,-96.5629,26.929,6.33e-05
2018-11-28 00:00:00,2018-11-28 00:00:00,PRATE,surface,-95.6254,26.929,7.14e-05
2018-11-28 00:00:00,2018-11-28 00:00:00,PRATE,surface,-94.6879,26.929,7.87e-05
2018-11-28 00:00:00,2018-11-28 00:00:00,PRATE,surface,-93.7504,26.929,7.18e-05
2018-11-28 00:00:00,2018-11-28 00:00:00,PRATE,surface,-92.8129,26.929,5.84e-05
2018-11-28 00:00:00,2018-11-28 00:00:00,PRATE,surface,-107.813,27.8739,4.27e-05
2018-11-28 00:00:00,2018-11-28 00:00:00,PRATE,surface,-106.875,27.8739,5.13e-05
2018-11-28 00:00:00,2018-11-28 00:00:00,PRATE,surface,-105.938,27.8739,3.2e-05
2018-11-28 00:00:00,2018-11-28 00:00:00,PRATE,surface,-105,27.8739,2.42e-05
2018-11-28 00:00:00,2018-11-28 00:00:00,PRATE,surface,-104.063,27.8739,3.53e-05
2018-11-28 00:00:00,2018-11-28 00:00:00,PRATE,surface,-103.125,27.8739,5.35e-05
2018-11-28 00:00:00,2018-11-28 00:00:00,PRATE,surface,-102.188,27.8739,7.31e-05
2018-11-28 00:00:00,2018-11-28 00:00:00,PRATE,surface,-101.25,27.8739,6.07e-05
2018-11-28 00:00:00,2018-11-28 00:00:00,PRATE,surface,-100.313,27.8739,4.81e-05
2018-11-28 00:00:00,2018-11-28 00:00:00,PRATE,surface,-99.3754,27.8739,5.92e-05
2018-11-28 00:00:00,2018-11-28 00:00:00,PRATE,surface,-98.4379,27.8739,7.84e-05
2018-11-28 00:00:00,2018-11-28 00:00:00,PRATE,surface,-97.5004,27.8739,8.16e-05
2018-11-28 00:00:00,2018-11-28 00:00:00,PRATE,surface,-96.5629,27.8739,6.86e-05
2018-11-28 00:00:00,2018-11-28 00:00:00,PRATE,surface,-95.6254,27.8739,5.77e-05
2018-11-28 00:00:00,2018-11-28 00:00:00,PRATE,surface,-94.6879,27.8739,5.76e-05
2018-11-28 00:00:00,2018-11-28 00:00:00,PRATE,surface,-93.7504,27.8739,5.95e-05
2018-11-28 00:00:00,2018-11-28 00:00:00,PRATE,surface,-92.8129,27.8739,5.37e-05
2018-11-28 00:00:00,2018-11-28 00:00:00,PRATE,surface,-107.813,28.8188,3.87e-05
2018-11-28 00:00:00,2018-11-28 00:00:00,PRATE,surface,-106.875,28.8188,4.36e-05
2018-11-28 00:00:00,2018-11-28 00:00:00,PRATE,surface,-105.938,28.8188,2.9e-05
2018-11-28 00:00:00,2018-11-28 00:00:00,PRATE,surface,-105,28.8188,2.54e-05
2018-11-28 00:00:00,2018-11-28 00:00:00,PRATE,surface,-104.063,28.8188,4.01e-05
2018-11-28 00:00:00,2018-11-28 00:00:00,PRATE,surface,-103.125,28.8188,5.7e-05
2018-11-28 00:00:00,2018-11-28 00:00:00,PRATE,surface,-102.188,28.8188,6.09e-05
2018-11-28 00:00:00,2018-11-28 00:00:00,PRATE,surface,-101.25,28.8188,5.25e-05
2018-11-28 00:00:00,2018-11-28 00:00:00,PRATE,surface,-100.313,28.8188,4.52e-05
2018-11-28 00:00:00,2018-11-28 00:00:00,PRATE,surface,-99.3754,28.8188,5.8e-05
2018-11-28 00:00:00,2018-11-28 00:00:00,PRATE,surface,-98.4379,28.8188,7.69e-05
2018-11-28 00:00:00,2018-11-28 00:00:00,PRATE,surface,-97.5004,28.8188,8.24e-05
2018-11-28 00:00:00,2018-11-28 00:00:00,PRATE,surface,-96.5629,28.8188,6.99e-05
2018-11-28 00:00:00,2018-11-28 00:00:00,PRATE,surface,-95.6254,28.8188,5.32e-05
2018-11-28 00:00:00,2018-11-28 00:00:00,PRATE,surface,-94.6879,28.8188,4.72e-05
2018-11-28 00:00:00,2018-11-28 00:00:00,PRATE,surface,-93.7504,28.8188,4.62e-05
2018-11-28 00:00:00,2018-11-28 00:00:00,PRATE,surface,-92.8129,28.8188,4.56e-05
2018-11-28 00:00:00,2018-11-28 00:00:00,PRATE,surface,-107.813,29.7637,2.84e-05
2018-11-28 00:00:00,2018-11-28 00:00:00,PRATE,surface,-106.875,29.7637,3.56e-05
2018-11-28 00:00:00,2018-11-28 00:00:00,PRATE,surface,-105.938,29.7637,3.44e-05
2018-11-28 00:00:00,2018-11-28 00:00:00,PRATE,surface,-105,29.7637,3.86e-05
2018-11-28 00:00:00,2018-11-28 00:00:00,PRATE,surface,-104.063,29.7637,5.47e-05
2018-11-28 00:00:00,2018-11-28 00:00:00,PRATE,surface,-103.125,29.7637,5.61e-05
2018-11-28 00:00:00,2018-11-28 00:00:00,PRATE,surface,-102.188,29.7637,4.69e-05
2018-11-28 00:00:00,2018-11-28 00:00:00,PRATE,surface,-101.25,29.7637,4.47e-05
2018-11-28 00:00:00,2018-11-28 00:00:00,PRATE,surface,-100.313,29.7637,4.65e-05
2018-11-28 00:00:00,2018-11-28 00:00:00,PRATE,surface,-99.3754,29.7637,5.83e-05
2018-11-28 00:00:00,2018-11-28 00:00:00,PRATE,surface,-98.4379,29.7637,7.42e-05
2018-11-28 00:00:00,2018-11-28 00:00:00,PRATE,surface,-97.5004,29.7637,8.21e-05
2018-11-28 00:00:00,2018-11-28 00:00:00,PRATE,surface,-96.5629,29.7637,7.63e-05
2018-11-28 00:00:00,2018-11-28 00:00:00,PRATE,surface,-95.6254,29.7637,6.26e-05
2018-11-28 00:00:00,2018-11-28 00:00:00,PRATE,surface,-94.6879,29.7637,5.22e-05
2018-11-28 00:00:00,2018-11-28 00:00:00,PRATE,surface,-93.7504,29.7637,4.83e-05
2018-11-28 00:00:00,2018-11-28 00:00:00,PRATE,surface,-92.8129,29.7637,4.59e-05
2018-11-28 00:00:00,2018-11-28 00:00:00,PRATE,surface,-107.813,30.7085,1.72e-05
2018-11-28 00:00:00,2018-11-28 00:00:00,PRATE,surface,-106.875,30.7085,2.34e-05
2018-11-28 00:00:00,2018-11-28 00:00:00,PRATE,surface,-105.938,30.7085,2.94e-05
2018-11-28 00:00:00,2018-11-28 00:00:00,PRATE,surface,-105,30.7085,3.69e-05
2018-11-28 00:00:00,2018-11-28 00:00:00,PRATE,surface,-104.063,30.7085,4.9e-05
2018-11-28 00:00:00,2018-11-28 00:00:00,PRATE,surface,-103.125,30.7085,4.52e-05
2018-11-28 00:00:00,2018-11-28 00:00:00,PRATE,surface,-102.188,30.7085,3.63e-05
2018-11-28 00:00:00,2018-11-28 00:00:00,PRATE,surface,-101.25,30.7085,3.78e-05
2018-11-28 00:00:00,2018-11-28 00:00:00,PRATE,surface,-100.313,30.7085,4.53e-05
2018-11-28 00:00:00,2018-11-28 00:00:00,PRATE,surface,-99.3754,30.7085,5.17e-05
2018-11-28 00:00:00,2018-11-28 00:00:00,PRATE,surface,-98.4379,30.7085,6.07e-05
2018-11-28 00:00:00,2018-11-28 00:00:00,PRATE,surface,-97.5004,30.7085,6.76e-05
2018-11-28 00:00:00,2018-11-28 00:00:00,PRATE,surface,-96.5629,30.7085,6.66e-05
2018-11-28 00:00:00,2018-11-28 00:00:00,PRATE,surface,-95.6254,30.7085,6.22e-05
2018-11-28 00:00:00,2018-11-28 00:00:00,PRATE,surface,-94.6879,30.7085,5.93e-05
2018-11-28 00:00:00,2018-11-28 00:00:00,PRATE,surface,-93.7504,30.7085,5.59e-05
2018-11-28 00:00:00,2018-11-28 00:00:00,PRATE,surface,-92.8129,30.7085,5.04e-05
2018-11-28 00:00:00,2018-11-28 00:00:00,PRATE,surface,-107.813,31.6534,9e-06
2018-11-28 00:00:00,2018-11-28 00:00:00,PRATE,surface,-106.875,31.6534,1.15e-05
2018-11-28 00:00:00,2018-11-28 00:00:00,PRATE,surface,-105.938,31.6534,1.79e-05
2018-11-28 00:00:00,2018-11-28 00:00:00,PRATE,surface,-105,31.6534,2.65e-05
2018-11-28 00:00:00,2018-11-28 00:00:00,PRATE,surface,-104.063,31.6534,3.65e-05
2018-11-28 00:00:00,2018-11-28 00:00:00,PRATE,surface,-103.125,31.6534,3.41e-05
2018-11-28 00:00:00,2018-11-28 00:00:00,PRATE,surface,-102.188,31.6534,3.08e-05
2018-11-28 00:00:00,2018-11-28 00:00:00,PRATE,surface,-101.25,31.6534,3.71e-05
2018-11-28 00:00:00,2018-11-28 00:00:00,PRATE,surface,-100.313,31.6534,4.85e-05
2018-11-28 00:00:00,2018-11-28 00:00:00,PRATE,surface,-99.3754,31.6534,5.58e-05
2018-11-28 00:00:00,2018-11-28 00:00:00,PRATE,surface,-98.4379,31.6534,5.86e-05
2018-11-28 00:00:00,2018-11-28 00:00:00,PRATE,surface,-97.5004,31.6534,5.89e-05
2018-11-28 00:00:00,2018-11-28 00:00:00,PRATE,surface,-96.5629,31.6534,5.53e-05
2018-11-28 00:00:00,2018-11-28 00:00:00,PRATE,surface,-95.6254,31.6534,4.99e-05
2018-11-28 00:00:00,2018-11-28 00:00:00,PRATE,surface,-94.6879,31.6534,4.97e-05
2018-11-28 00:00:00,2018-11-28 00:00:00,PRATE,surface,-93.7504,31.6534,5.37e-05
2018-11-28 00:00:00,2018-11-28 00:00:00,PRATE,surface,-92.8129,31.6534,5.26e-05
2018-11-28 00:00:00,2018-11-28 00:00:00,PRATE,surface,-107.813,32.5983,1.08e-05
2018-11-28 00:00:00,2018-11-28 00:00:00,PRATE,surface,-106.875,32.5983,1.21e-05
2018-11-28 00:00:00,2018-11-28 00:00:00,PRATE,surface,-105.938,32.5983,1.56e-05
2018-11-28 00:00:00,2018-11-28 00:00:00,PRATE,surface,-105,32.5983,2.24e-05
2018-11-28 00:00:00,2018-11-28 00:00:00,PRATE,surface,-104.063,32.5983,3.27e-05
2018-11-28 00:00:00,2018-11-28 00:00:00,PRATE,surface,-103.125,32.5983,2.94e-05
2018-11-28 00:00:00,2018-11-28 00:00:00,PRATE,surface,-102.188,32.5983,2.93e-05
2018-11-28 00:00:00,2018-11-28 00:00:00,PRATE,surface,-101.25,32.5983,3.26e-05
2018-11-28 00:00:00,2018-11-28 00:00:00,PRATE,surface,-100.313,32.5983,4.08e-05
2018-11-28 00:00:00,2018-11-28 00:00:00,PRATE,surface,-99.3754,32.5983,4.88e-05
2018-11-28 00:00:00,2018-11-28 00:00:00,PRATE,surface,-98.4379,32.5983,5.55e-05
2018-11-28 00:00:00,2018-11-28 00:00:00,PRATE,surface,-97.5004,32.5983,6.09e-05
2018-11-28 00:00:00,2018-11-28 00:00:00,PRATE,surface,-96.5629,32.5983,6.35e-05
2018-11-28 00:00:00,2018-11-28 00:00:00,PRATE,surface,-95.6254,32.5983,6.22e-05
2018-11-28 00:00:00,2018-11-28 00:00:00,PRATE,surface,-94.6879,32.5983,5.8e-05
2018-11-28 00:00:00,2018-11-28 00:00:00,PRATE,surface,-93.7504,32.5983,5.32e-05
2018-11-28 00:00:00,2018-11-28 00:00:00,PRATE,surface,-92.8129,32.5983,4.95e-05
2018-11-28 00:00:00,2018-11-28 00:00:00,PRATE,surface,-107.813,33.5432,1.24e-05
2018-11-28 00:00:00,2018-11-28 00:00:00,PRATE,surface,-106.875,33.5432,1.2e-05
2018-11-28 00:00:00,2018-11-28 00:00:00,PRATE,surface,-105.938,33.5432,1.49e-05
2018-11-28 00:00:00,2018-11-28 00:00:00,PRATE,surface,-105,33.5432,2.29e-05
2018-11-28 00:00:00,2018-11-28 00:00:00,PRATE,surface,-104.063,33.5432,2.81e-05
2018-11-28 00:00:00,2018-11-28 00:00:00,PRATE,surface,-103.125,33.5432,2.83e-05
2018-11-28 00:00:00,2018-11-28 00:00:00,PRATE,surface,-102.188,33.5432,2.93e-05
2018-11-28 00:00:00,2018-11-28 00:00:00,PRATE,surface,-101.25,33.5432,3.09e-05
2018-11-28 00:00:00,2018-11-28 00:00:00,PRATE,surface,-100.313,33.5432,2.95e-05
2018-11-28 00:00:00,2018-11-28 00:00:00,PRATE,surface,-99.3754,33.5432,2.95e-05
2018-11-28 00:00:00,2018-11-28 00:00:00,PRATE,surface,-98.4379,33.5432,3.54e-05
2018-11-28 00:00:00,2018-11-28 00:00:00,PRATE,surface,-97.5004,33.5432,4.77e-05
2018-11-28 00:00:00,2018-11-28 00:00:00,PRATE,surface,-96.5629,33.5432,5.98e-05
2018-11-28 00:00:00,2018-11-28 00:00:00,PRATE,surface,-95.6254,33.5432,6.63e-05
2018-11-28 00:00:00,2018-11-28 00:00:00,PRATE,surface,-94.6879,33.5432,6.76e-05
2018-11-28 00:00:00,2018-11-28 00:00:00,PRATE,surface,-93.7504,33.5432,6.4e-05
2018-11-28 00:00:00,2018-11-28 00:00:00,PRATE,surface,-92.8129,33.5432,5.84e-05
2018-11-28 00:00:00,2018-11-28 00:00:00,PRATE,surface,-107.813,34.4881,1.15e-05
2018-11-28 00:00:00,2018-11-28 00:00:00,PRATE,surface,-106.875,34.4881,8.5e-06
2018-11-28 00:00:00,2018-11-28 00:00:00,PRATE,surface,-105.938,34.4881,1e-05
2018-11-28 00:00:00,2018-11-28 00:00:00,PRATE,surface,-105,34.4881,1.69e-05
2018-11-28 00:00:00,2018-11-28 00:00:00,PRATE,surface,-104.063,34.4881,2.05e-05
2018-11-28 00:00:00,2018-11-28 00:00:00,PRATE,surface,-103.125,34.4881,2.19e-05
2018-11-28 00:00:00,2018-11-28 00:00:00,PRATE,surface,-102.188,34.4881,2.43e-05
2018-11-28 00:00:00,2018-11-28 00:00:00,PRATE,surface,-101.25,34.4881,2.51e-05
2018-11-28 00:00:00,2018-11-28 00:00:00,PRATE,surface,-100.313,34.4881,2.36e-05
2018-11-28 00:00:00,2018-11-28 00:00:00,PRATE,surface,-99.3754,34.4881,2.09e-05
2018-11-28 00:00:00,2018-11-28 00:00:00,PRATE,surface,-98.4379,34.4881,2.07e-05
2018-11-28 00:00:00,2018-11-28 00:00:00,PRATE,surface,-97.5004,34.4881,2.42e-05
2018-11-28 00:00:00,2018-11-28 00:00:00,PRATE,surface,-96.5629,34.4881,3.34e-05
2018-11-28 00:00:00,2018-11-28 00:00:00,PRATE,surface,-95.6254,34.4881,4.52e-05
2018-11-28 00:00:00,2018-11-28 00:00:00,PRATE,surface,-94.6879,34.4881,5.36e-05
2018-11-28 00:00:00,2018-11-28 00:00:00,PRATE,surface,-93.7504,34.4881,5.93e-05
2018-11-28 00:00:00,2018-11-28 00:00:00,PRATE,surface,-92.8129,34.4881,6.07e-05
2018-11-28 00:00:00,2018-11-28 00:00:00,PRATE,surface,-107.813,35.4329,7e-06
2018-11-28 00:00:00,2018-11-28 00:00:00,PRATE,surface,-106.875,35.4329,5.2e-06
2018-11-28 00:00:00,2018-11-28 00:00:00,PRATE,surface,-105.938,35.4329,6.3e-06
2018-11-28 00:00:00,2018-11-28 00:00:00,PRATE,surface,-105,35.4329,9.6e-06
2018-11-28 00:00:00,2018-11-28 00:00:00,PRATE,surface,-104.063,35.4329,1.46e-05
2018-11-28 00:00:00,2018-11-28 00:00:00,PRATE,surface,-103.125,35.4329,1.65e-05
2018-11-28 00:00:00,2018-11-28 00:00:00,PRATE,surface,-102.188,35.4329,1.85e-05
2018-11-28 00:00:00,2018-11-28 00:00:00,PRATE,surface,-101.25,35.4329,2.18e-05
2018-11-28 00:00:00,2018-11-28 00:00:00,PRATE,surface,-100.313,35.4329,2.29e-05
2018-11-28 00:00:00,2018-11-28 00:00:00,PRATE,surface,-99.3754,35.4329,1.99e-05
2018-11-28 00:00:00,2018-11-28 00:00:00,PRATE,surface,-98.4379,35.4329,1.55e-05
2018-11-28 00:00:00,2018-11-28 00:00:00,PRATE,surface,-97.5004,35.4329,1.25e-05
2018-11-28 00:00:00,2018-11-28 00:00:00,PRATE,surface,-96.5629,35.4329,1.21e-05
2018-11-28 00:00:00,2018-11-28 00:00:00,PRATE,surface,-95.6254,35.4329,1.49e-05
2018-11-28 00:00:00,2018-11-28 00:00:00,PRATE,surface,-94.6879,35.4329,2.12e-05
2018-11-28 00:00:00,2018-11-28 00:00:00,PRATE,surface,-93.7504,35.4329,2.85e-05
2018-11-28 00:00:00,2018-11-28 00:00:00,PRATE,surface,-92.8129,35.4329,3.4e-05
2018-11-28 00:00:00,2018-11-28 00:00:00,PRATE,surface,-107.813,36.3778,5.6e-06
2018-11-28 00:00:00,2018-11-28 00:00:00,PRATE,surface,-106.875,36.3778,5e-06
2018-11-28 00:00:00,2018-11-28 00:00:00,PRATE,surface,-105.938,36.3778,6e-06
2018-11-28 00:00:00,2018-11-28 00:00:00,PRATE,surface,-105,36.3778,7.1e-06
2018-11-28 00:00:00,2018-11-28 00:00:00,PRATE,surface,-104.063,36.3778,1.07e-05
2018-11-28 00:00:00,2018-11-28 00:00:00,PRATE,surface,-103.125,36.3778,1.3e-05
2018-11-28 00:00:00,2018-11-28 00:00:00,PRATE,surface,-102.188,36.3778,1.63e-05
2018-11-28 00:00:00,2018-11-28 00:00:00,PRATE,surface,-101.25,36.3778,2.37e-05
2018-11-28 00:00:00,2018-11-28 00:00:00,PRATE,surface,-100.313,36.3778,2.53e-05
2018-11-28 00:00:00,2018-11-28 00:00:00,PRATE,surface,-99.3754,36.3778,2.25e-05
2018-11-28 00:00:00,2018-11-28 00:00:00,PRATE,surface,-98.4379,36.3778,1.82e-05
2018-11-28 00:00:00,2018-11-28 00:00:00,PRATE,surface,-97.5004,36.3778,1.32e-05
2018-11-28 00:00:00,2018-11-28 00:00:00,PRATE,surface,-96.5629,36.3778,9.6e-06
2018-11-28 00:00:00,2018-11-28 00:00:00,PRATE,surface,-95.6254,36.3778,9e-06
2018-11-28 00:00:00,2018-11-28 00:00:00,PRATE,surface,-94.6879,36.3778,1.05e-05
2018-11-28 00:00:00,2018-11-28 00:00:00,PRATE,surface,-93.7504,36.3778,1.28e-05
2018-11-28 00:00:00,2018-11-28 00:00:00,PRATE,surface,-92.8129,36.3778,1.47e-05
