2016-10-04 00:00:00,2016-10-04 00:00:00,TMP,surface,-107.813,25.0393,298.929
2016-10-04 00:00:00,2016-10-04 00:00:00,TMP,surface,-106.875,25.0393,293.729
2016-10-04 00:00:00,2016-10-04 00:00:00,TMP,surface,-105.938,25.0393,288.472
2016-10-04 00:00:00,2016-10-04 00:00:00,TMP,surface,-105,25.0393,285.752
2016-10-04 00:00:00,2016-10-04 00:00:00,TMP,surface,-104.063,25.0393,288.125
2016-10-04 00:00:00,2016-10-04 00:00:00,TMP,surface,-103.125,25.0393,289.556
2016-10-04 00:00:00,2016-10-04 00:00:00,TMP,surface,-102.188,25.0393,289.883
2016-10-04 00:00:00,2016-10-04 00:00:00,TMP,surface,-101.25,25.0393,288.397
2016-10-04 00:00:00,2016-10-04 00:00:00,TMP,surface,-100.313,25.0393,289.003
2016-10-04 00:00:00,2016-10-04 00:00:00,TMP,surface,-99.3754,25.0393,291.923
2016-10-04 00:00:00,2016-10-04 00:00:00,TMP,surface,-98.4379,25.0393,295.294
2016-10-04 00:00:00,2016-10-04 00:00:00,TMP,surface,-97.5004,25.0393,301.131
2016-10-04 00:00:00,2016-10-04 00:00:00,TMP,surface,-96.5629,25.0393,301.838
2016-10-04 00:00:00,2016-10-04 00:00:00,TMP,surface,-95.6254,25.0393,302.281
2016-10-04 00:00:00,2016-10-04 00:00:00,TMP,surface,-94.6879,25.0393,302.456
2016-10-04 00:00:00,2016-10-04 00:00:00,TMP,surface,-93.7504,25.0393,302.345
2016-10-04 00:00:00,2016-10-04 00:00:00,TMP,surface,-92.8129,25.0393,302.168
2016-10-04 00:00:00,2016-10-04 00:00:00,TMP,surface,-107.813,25.9842,294.291
2016-10-04 00:00:00,2016-10-04 00:00:00,TMP,surface,-106.875,25.9842,289.798
2016-10-04 00:00:00,2016-10-04 00:00:00,TMP,surface,-105.938,25.9842,286.704
2016-10-04 00:00:00,2016-10-04 00:00:00,TMP,surface,-105,25.9842,287.169
2016-10-04 00:00:00,2016-10-04 00:00:00,TMP,surface,-104.063,25.9842,290.379
2016-10-04 00:00:00,2016-10-04 00:00:00,TMP,surface,-103.125,25.9842,291.461
2016-10-04 00:00:00,2016-10-04 00:00:00,TMP,surface,-102.188,25.9842,291.512
2016-10-04 00:00:00,2016-10-04 00:00:00,TMP,surface,-101.25,25.9842,290.419
2016-10-04 00:00:00,2016-10-04 00:00:00,TMP,surface,-100.313,25.9842,290.312
2016-10-04 00:00:00,2016-10-04 00:00:00,TMP,surface,-99.3754,25.9842,293.161
2016-10-04 00:00:00,2016-10-04 00:00:00,TMP,surface,-98.4379,25.9842,295.681
2016-10-04 00:00:00,2016-10-04 00:00:00,TMP,surface,-97.5004,25.9842,296.94
2016-10-04 00:00:00,2016-10-04 00:00:00,TMP,surface,-96.5629,25.9842,301.371
2016-10-04 00:00:00,2016-10-04 00:00:00,TMP,surface,-95.6254,25.9842,301.913
2016-10-04 00:00:00,2016-10-04 00:00:00,TMP,surface,-94.6879,25.9842,302.016
2016-10-04 00:00:00,2016-10-04 00:00:00,TMP,surface,-93.7504,25.9842,301.969
2016-10-04 00:00:00,2016-10-04 00:00:00,TMP,surface,-92.8129,25.9842,301.99
2016-10-04 00:00:00,2016-10-04 00:00:00,TMP,surface,-107.813,26.929,290.843
2016-10-04 00:00:00,2016-10-04 00:00:00,TMP,surface,-106.875,26.929,286.685
2016-10-04 00:00:00,2016-10-04 00:00:00,TMP,surface,-105.938,26.929,287.321
2016-10-04 00:00:00,2016-10-04 00:00:00,TMP,surface,-105,26.929,289.582
2016-10-04 00:00:00,2016-10-04 00:00:00,TMP,surface,-104.063,26.929,291.288
2016-10-04 00:00:00,2016-10-04 00:00:00,TMP,surface,-103.125,26.929,291.116
2016-10-04 00:00:00,2016-10-04 00:00:00,TMP,surface,-102.188,26.929,291.148
2016-10-04 00:00:00,2016-10-04 00:00:00,TMP,surface,-101.25,26.929,291.341
2016-10-04 00:00:00,2016-10-04 00:00:00,TMP,surface,-100.313,26.929,292.027
2016-10-04 00:00:00,2016-10-04 00:00:00,TMP,surface,-99.3754,26.929,294.001
2016-10-04 00:00:00,2016-10-04 00:00:00,TMP,surface,-98.4379,26.929,294.757
2016-10-04 00:00:00,2016-10-04 00:00:00,TMP,surface,-97.5004,26.929,299.853
2016-10-04 00:00:00,2016-10-04 00:00:00,TMP,surface,-96.5629,26.929,300.824
2016-10-04 00:00:00,2016-10-04 00:00:00,TMP,surface,-95.6254,26.929,301.414
2016-10-04 00:00:00,2016-10-04 00:00:00,TMP,surface,-94.6879,26.929,301.481
2016-10-04 00:00:00,2016-10-04 00:00:00,TMP,surface,-93.7504,26.929,301.358
2016-10-04 00:00:00,2016-10-04 00:00:00,TMP,surface,-92.8129,26.929,301.388
2016-10-04 00:00:00,2016-10-04 00:00:00,TMP,surface,-107.813,27.8739,287.6
2016-10-04 00:00:00,2016-10-04 00:00:00,TMP,surface,-106.875,27.8739,285.565
2016-10-04 00:00:00,2016-10-04 00:00:00,TMP,surface,-105.938,27.8739,287.876
2016-10-04 00:00:00,2016-10-04 00:00:00,TMP,surface,-105,27.8739,290.481
2016-10-04 00:00:00,2016-10-04 00:00:00,TMP,surface,-104.063,27.8739,291.268
2016-10-04 00:00:00,2016-10-04 00:00:00,TMP,surface,-103.125,27.8739,290.542
2016-10-04 00:00:00,2016-10-04 00:00:00,TMP,surface,-102.188,27.8739,290.049
2016-10-04 00:00:00,2016-10-04 00:00:00,TMP,surface,-101.25,27.8739,290.873
2016-10-04 00:00:00,2016-10-04 00:00:00,TMP,surface,-100.313,27.8739,292.662
2016-10-04 00:00:00,2016-10-04 00:00:00,TMP,surface,-99.3754,27.8739,293.603
2016-10-04 00:00:00,2016-10-04 00:00:00,TMP,surface,-98.4379,27.8739,293.963
2016-10-04 00:00:00,2016-10-04 00:00:00,TMP,surface,-97.5004,27.8739,297.254
2016-10-04 00:00:00,2016-10-04 00:00:00,TMP,surface,-96.5629,27.8739,300.662
2016-10-04 00:00:00,2016-10-04 00:00:00,TMP,surface,-95.6254,27.8739,300.98
2016-10-04 00:00:00,2016-10-04 00:00:00,TMP,surface,-94.6879,27.8739,300.857
2016-10-04 00:00:00,2016-10-04 00:00:00,TMP,surface,-93.7504,27.8739,300.689
2016-10-04 00:00:00,2016-10-04 00:00:00,TMP,surface,-92.8129,27.8739,300.689
2016-10-04 00:00:00,2016-10-04 00:00:00,TMP,surface,-107.813,28.8188,285.589
2016-10-04 00:00:00,2016-10-04 00:00:00,TMP,surface,-106.875,28.8188,285.76
2016-10-04 00:00:00,2016-10-04 00:00:00,TMP,surface,-105.938,28.8188,288.565
2016-10-04 00:00:00,2016-10-04 00:00:00,TMP,surface,-105,28.8188,290.158
2016-10-04 00:00:00,2016-10-04 00:00:00,TMP,surface,-104.063,28.8188,289.461
2016-10-04 00:00:00,2016-10-04 00:00:00,TMP,surface,-103.125,28.8188,289.76
2016-10-04 00:00:00,2016-10-04 00:00:00,TMP,surface,-102.188,28.8188,289.696
2016-10-04 00:00:00,2016-10-04 00:00:00,TMP,surface,-101.25,28.8188,290.849
2016-10-04 00:00:00,2016-10-04 00:00:00,TMP,surface,-100.313,28.8188,291.789
2016-10-04 00:00:00,2016-10-04 00:00:00,TMP,surface,-99.3754,28.8188,291.683
2016-10-04 00:00:00,2016-10-04 00:00:00,TMP,surface,-98.4379,28.8188,291.54
2016-10-04 00:00:00,2016-10-04 00:00:00,TMP,surface,-97.5004,28.8188,291.924
2016-10-04 00:00:00,2016-10-04 00:00:00,TMP,surface,-96.5629,28.8188,292.968
2016-10-04 00:00:00,2016-10-04 00:00:00,TMP,surface,-95.6254,28.8188,296.22
2016-10-04 00:00:00,2016-10-04 00:00:00,TMP,surface,-94.6879,28.8188,300.077
2016-10-04 00:00:00,2016-10-04 00:00:00,TMP,surface,-93.7504,28.8188,300.003
2016-10-04 00:00:00,2016-10-04 00:00:00,TMP,surface,-92.8129,28.8188,300.062
2016-10-04 00:00:00,2016-10-04 00:00:00,TMP,surface,-107.813,29.7637,286.361
2016-10-04 00:00:00,2016-10-04 00:00:00,TMP,surface,-106.875,29.7637,287.224
2016-10-04 00:00:00,2016-10-04 00:00:00,TMP,surface,-105.938,29.7637,289.574
2016-10-04 00:00:00,2016-10-04 00:00:00,TMP,surface,-105,29.7637,289.436
2016-10-04 00:00:00,2016-10-04 00:00:00,TMP,surface,-104.063,29.7637,289.841
2016-10-04 00:00:00,2016-10-04 00:00:00,TMP,surface,-103.125,29.7637,290.451
2016-10-04 00:00:00,2016-10-04 00:00:00,TMP,surface,-102.188,29.7637,291.107
2016-10-04 00:00:00,2016-10-04 00:00:00,TMP,surface,-101.25,29.7637,291.07
2016-10-04 00:00:00,2016-10-04 00:00:00,TMP,surface,-100.313,29.7637,290.446
2016-10-04 00:00:00,2016-10-04 00:00:00,TMP,surface,-99.3754,29.7637,289.789
2016-10-04 00:00:00,2016-10-04 00:00:00,TMP,surface,-98.4379,29.7637,289.627
2016-10-04 00:00:00,2016-10-04 00:00:00,TMP,surface,-97.5004,29.7637,289.92
2016-10-04 00:00:00,2016-10-04 00:00:00,TMP,surface,-96.5629,29.7637,290.609
2016-10-04 00:00:00,2016-10-04 00:00:00,TMP,surface,-95.6254,29.7637,291.637
2016-10-04 00:00:00,2016-10-04 00:00:00,TMP,surface,-94.6879,29.7637,294.509
2016-10-04 00:00:00,2016-10-04 00:00:00,TMP,surface,-93.7504,29.7637,297.568
2016-10-04 00:00:00,2016-10-04 00:00:00,TMP,surface,-92.8129,29.7637,292.497
2016-10-04 00:00:00,2016-10-04 00:00:00,TMP,surface,-107.813,30.7085,289.332
2016-10-04 00:00:00,2016-10-04 00:00:00,TMP,surface,-106.875,30.7085,290.182
2016-10-04 00:00:00,2016-10-04 00:00:00,TMP,surface,-105.938,30.7085,289.95
2016-10-04 00:00:00,2016-10-04 00:00:00,TMP,surface,-105,30.7085,289.79
2016-10-04 00:00:00,2016-10-04 00:00:00,TMP,surface,-104.063,30.7085,288.808
2016-10-04 00:00:00,2016-10-04 00:00:00,TMP,surface,-103.125,30.7085,290.275
2016-10-04 00:00:00,2016-10-04 00:00:00,TMP,surface,-102.188,30.7085,290.809
2016-10-04 00:00:00,2016-10-04 00:00:00,TMP,surface,-101.25,30.7085,290.548
2016-10-04 00:00:00,2016-10-04 00:00:00,TMP,surface,-100.313,30.7085,289.95
2016-10-04 00:00:00,2016-10-04 00:00:00,TMP,surface,-99.3754,30.7085,289.52
2016-10-04 00:00:00,2016-10-04 00:00:00,TMP,surface,-98.4379,30.7085,289.413
2016-10-04 00:00:00,2016-10-04 00:00:00,TMP,surface,-97.5004,30.7085,289.526
2016-10-04 00:00:00,2016-10-04 00:00:00,TMP,surface,-96.5629,30.7085,289.924
2016-10-04 00:00:00,2016-10-04 00:00:00,TMP,surface,-95.6254,30.7085,290.548
2016-10-04 00:00:00,2016-10-04 00:00:00,TMP,surface,-94.6879,30.7085,290.884
2016-10-04 00:00:00,2016-10-04 00:00:00,TMP,surface,-93.7504,30.7085,290.598
2016-10-04 00:00:00,2016-10-04 00:00:00,TMP,surface,-92.8129,30.7085,290.057
2016-10-04 00:00:00,2016-10-04 00:00:00,TMP,surface,-107.813,31.6534,289.945
2016-10-04 00:00:00,2016-10-04 00:00:00,TMP,surface,-106.875,31.6534,290.361
2016-10-04 00:00:00,2016-10-04 00:00:00,TMP,surface,-105.938,31.6534,289.526
2016-10-04 00:00:00,2016-10-04 00:00:00,TMP,surface,-105,31.6534,289.219
2016-10-04 00:00:00,2016-10-04 00:00:00,TMP,surface,-104.063,31.6534,289.609
2016-10-04 00:00:00,2016-10-04 00:00:00,TMP,surface,-103.125,31.6534,290.233
2016-10-04 00:00:00,2016-10-04 00:00:00,TMP,surface,-102.188,31.6534,290.357
2016-10-04 00:00:00,2016-10-04 00:00:00,TMP,surface,-101.25,31.6534,290.056
2016-10-04 00:00:00,2016-10-04 00:00:00,TMP,surface,-100.313,31.6534,289.973
2016-10-04 00:00:00,2016-10-04 00:00:00,TMP,surface,-99.3754,31.6534,289.861
2016-10-04 00:00:00,2016-10-04 00:00:00,TMP,surface,-98.4379,31.6534,289.76
2016-10-04 00:00:00,2016-10-04 00:00:00,TMP,surface,-97.5004,31.6534,289.824
2016-10-04 00:00:00,2016-10-04 00:00:00,TMP,surface,-96.5629,31.6534,290.06
2016-10-04 00:00:00,2016-10-04 00:00:00,TMP,surface,-95.6254,31.6534,290.304
2016-10-04 00:00:00,2016-10-04 00:00:00,TMP,surface,-94.6879,31.6534,290.296
2016-10-04 00:00:00,2016-10-04 00:00:00,TMP,surface,-93.7504,31.6534,290.052
2016-10-04 00:00:00,2016-10-04 00:00:00,TMP,surface,-92.8129,31.6534,290.03
2016-10-04 00:00:00,2016-10-04 00:00:00,TMP,surface,-107.813,32.5983,287.382
2016-10-04 00:00:00,2016-10-04 00:00:00,TMP,surface,-106.875,32.5983,287.683
2016-10-04 00:00:00,2016-10-04 00:00:00,TMP,surface,-105.938,32.5983,287.987
2016-10-04 00:00:00,2016-10-04 00:00:00,TMP,surface,-105,32.5983,288.11
2016-10-04 00:00:00,2016-10-04 00:00:00,TMP,surface,-104.063,32.5983,289.177
2016-10-04 00:00:00,2016-10-04 00:00:00,TMP,surface,-103.125,32.5983,289.744
2016-10-04 00:00:00,2016-10-04 00:00:00,TMP,surface,-102.188,32.5983,289.798
2016-10-04 00:00:00,2016-10-04 00:00:00,TMP,surface,-101.25,32.5983,289.832
2016-10-04 00:00:00,2016-10-04 00:00:00,TMP,surface,-100.313,32.5983,290.097
2016-10-04 00:00:00,2016-10-04 00:00:00,TMP,surface,-99.3754,32.5983,290.086
2016-10-04 00:00:00,2016-10-04 00:00:00,TMP,surface,-98.4379,32.5983,289.861
2016-10-04 00:00:00,2016-10-04 00:00:00,TMP,surface,-97.5004,32.5983,289.875
2016-10-04 00:00:00,2016-10-04 00:00:00,TMP,surface,-96.5629,32.5983,290.184
2016-10-04 00:00:00,2016-10-04 00:00:00,TMP,surface,-95.6254,32.5983,290.366
2016-10-04 00:00:00,2016-10-04 00:00:00,TMP,surface,-94.6879,32.5983,290.062
2016-10-04 00:00:00,2016-10-04 00:00:00,TMP,surface,-93.7504,32.5983,289.627
2016-10-04 00:00:00,2016-10-04 00:00:00,TMP,surface,-92.8129,32.5983,289.987
2016-10-04 00:00:00,2016-10-04 00:00:00,TMP,surface,-107.813,33.5432,284.816
2016-10-04 00:00:00,2016-10-04 00:00:00,TMP,surface,-106.875,33.5432,286.011
2016-10-04 00:00:00,2016-10-04 00:00:00,TMP,surface,-105.938,33.5432,286.505
2016-10-04 00:00:00,2016-10-04 00:00:00,TMP,surface,-105,33.5432,287.328
2016-10-04 00:00:00,2016-10-04 00:00:00,TMP,surface,-104.063,33.5432,288.592
2016-10-04 00:00:00,2016-10-04 00:00:00,TMP,surface,-103.125,33.5432,288.992
2016-10-04 00:00:00,2016-10-04 00:00:00,TMP,surface,-102.188,33.5432,288.761
2016-10-04 00:00:00,2016-10-04 00:00:00,TMP,surface,-101.25,33.5432,289.155
2016-10-04 00:00:00,2016-10-04 00:00:00,TMP,surface,-100.313,33.5432,289.828
2016-10-04 00:00:00,2016-10-04 00:00:00,TMP,surface,-99.3754,33.5432,290
2016-10-04 00:00:00,2016-10-04 00:00:00,TMP,surface,-98.4379,33.5432,289.614
2016-10-04 00:00:00,2016-10-04 00:00:00,TMP,surface,-97.5004,33.5432,289.281
2016-10-04 00:00:00,2016-10-04 00:00:00,TMP,surface,-96.5629,33.5432,289.305
2016-10-04 00:00:00,2016-10-04 00:00:00,TMP,surface,-95.6254,33.5432,289.525
2016-10-04 00:00:00,2016-10-04 00:00:00,TMP,surface,-94.6879,33.5432,289.513
2016-10-04 00:00:00,2016-10-04 00:00:00,TMP,surface,-93.7504,33.5432,289.054
2016-10-04 00:00:00,2016-10-04 00:00:00,TMP,surface,-92.8129,33.5432,289.016
2016-10-04 00:00:00,2016-10-04 00:00:00,TMP,surface,-107.813,34.4881,283.222
2016-10-04 00:00:00,2016-10-04 00:00:00,TMP,surface,-106.875,34.4881,284.686
2016-10-04 00:00:00,2016-10-04 00:00:00,TMP,surface,-105.938,34.4881,285.313
2016-10-04 00:00:00,2016-10-04 00:00:00,TMP,surface,-105,34.4881,286.433
2016-10-04 00:00:00,2016-10-04 00:00:00,TMP,surface,-104.063,34.4881,287.478
2016-10-04 00:00:00,2016-10-04 00:00:00,TMP,surface,-103.125,34.4881,287.875
2016-10-04 00:00:00,2016-10-04 00:00:00,TMP,surface,-102.188,34.4881,287.995
2016-10-04 00:00:00,2016-10-04 00:00:00,TMP,surface,-101.25,34.4881,288.488
2016-10-04 00:00:00,2016-10-04 00:00:00,TMP,surface,-100.313,34.4881,289.057
2016-10-04 00:00:00,2016-10-04 00:00:00,TMP,surface,-99.3754,34.4881,289.182
2016-10-04 00:00:00,2016-10-04 00:00:00,TMP,surface,-98.4379,34.4881,288.901
2016-10-04 00:00:00,2016-10-04 00:00:00,TMP,surface,-97.5004,34.4881,288.574
2016-10-04 00:00:00,2016-10-04 00:00:00,TMP,surface,-96.5629,34.4881,288.611
2016-10-04 00:00:00,2016-10-04 00:00:00,TMP,surface,-95.6254,34.4881,288.63
2016-10-04 00:00:00,2016-10-04 00:00:00,TMP,surface,-94.6879,34.4881,288.044
2016-10-04 00:00:00,2016-10-04 00:00:00,TMP,surface,-93.7504,34.4881,287.5
2016-10-04 00:00:00,2016-10-04 00:00:00,TMP,surface,-92.8129,34.4881,287.643
2016-10-04 00:00:00,2016-10-04 00:00:00,TMP,surface,-107.813,35.4329,282.713
2016-10-04 00:00:00,2016-10-04 00:00:00,TMP,surface,-106.875,35.4329,283.28
2016-10-04 00:00:00,2016-10-04 00:00:00,TMP,surface,-105.938,35.4329,283.657
2016-10-04 00:00:00,2016-10-04 00:00:00,TMP,surface,-105,35.4329,284.419
2016-10-04 00:00:00,2016-10-04 00:00:00,TMP,surface,-104.063,35.4329,286.147
2016-10-04 00:00:00,2016-10-04 00:00:00,TMP,surface,-103.125,35.4329,287.296
2016-10-04 00:00:00,2016-10-04 00:00:00,TMP,surface,-102.188,35.4329,287.713
2016-10-04 00:00:00,2016-10-04 00:00:00,TMP,surface,-101.25,35.4329,288.091
2016-10-04 00:00:00,2016-10-04 00:00:00,TMP,surface,-100.313,35.4329,288.345
2016-10-04 00:00:00,2016-10-04 00:00:00,TMP,surface,-99.3754,35.4329,288.334
2016-10-04 00:00:00,2016-10-04 00:00:00,TMP,surface,-98.4379,35.4329,288.257
2016-10-04 00:00:00,2016-10-04 00:00:00,TMP,surface,-97.5004,35.4329,288.318
2016-10-04 00:00:00,2016-10-04 00:00:00,TMP,surface,-96.5629,35.4329,288.427
2016-10-04 00:00:00,2016-10-04 00:00:00,TMP,surface,-95.6254,35.4329,288.425
2016-10-04 00:00:00,2016-10-04 00:00:00,TMP,surface,-94.6879,35.4329,288.179
2016-10-04 00:00:00,2016-10-04 00:00:00,TMP,surface,-93.7504,35.4329,287.558
2016-10-04 00:00:00,2016-10-04 00:00:00,TMP,surface,-92.8129,35.4329,286.928
2016-10-04 00:00:00,2016-10-04 00:00:00,TMP,surface,-107.813,36.3778,282.009
2016-10-04 00:00:00,2016-10-04 00:00:00,TMP,surface,-106.875,36.3778,280.296
2016-10-04 00:00:00,2016-10-04 00:00:00,TMP,surface,-105.938,36.3778,281.161
2016-10-04 00:00:00,2016-10-04 00:00:00,TMP,surface,-105,36.3778,282.254
2016-10-04 00:00:00,2016-10-04 00:00:00,TMP,surface,-104.063,36.3778,284.444
2016-10-04 00:00:00,2016-10-04 00:00:00,TMP,surface,-103.125,36.3778,285.995
2016-10-04 00:00:00,2016-10-04 00:00:00,TMP,surface,-102.188,36.3778,287.022
2016-10-04 00:00:00,2016-10-04 00:00:00,TMP,surface,-101.25,36.3778,287.772
2016-10-04 00:00:00,2016-10-04 00:00:00,TMP,surface,-100.313,36.3778,288.237
2016-10-04 00:00:00,2016-10-04 00:00:00,TMP,surface,-99.3754,36.3778,288.235
2016-10-04 00:00:00,2016-10-04 00:00:00,TMP,surface,-98.4379,36.3778,288.038
2016-10-04 00:00:00,2016-10-04 00:00:00,TMP,surface,-97.5004,36.3778,288.019
2016-10-04 00:00:00,2016-10-04 00:00:00,TMP,surface,-96.5629,36.3778,288.069
2016-10-04 00:00:00,2016-10-04 00:00:00,TMP,surface,-95.6254,36.3778,287.995
2016-10-04 00:00:00,2016-10-04 00:00:00,TMP,surface,-94.6879,36.3778,287.67
2016-10-04 00:00:00,2016-10-04 00:00:00,TMP,surface,-93.7504,36.3778,287.001
2016-10-04 00:00:00,2016-10-04 00:00:00,TMP,surface,-92.8129,36.3778,286.622
2016-10-04 00:00:00,2016-10-04 00:00:00,PRATE,surface,-107.813,25.0393,0
2016-10-04 00:00:00,2016-10-04 00:00:00,PRATE,surface,-106.875,25.0393,2.1e-06
2016-10-04 00:00:00,2016-10-04 00:00:00,PRATE,surface,-105.938,25.0393,1.63e-05
2016-10-04 00:00:00,2016-10-04 00:00:00,PRATE,surface,-105,25.0393,3.05e-05
2016-10-04 00:00:00,2016-10-04 00:00:00,PRATE,surface,-104.063,25.0393,2.84e-05
2016-10-04 00:00:00,2016-10-04 00:00:00,PRATE,surface,-103.125,25.0393,2.05e-05
2016-10-04 00:00:00,2016-10-04 00:00:00,PRATE,surface,-102.188,25.0393,2.26e-05
2016-10-04 00:00:00,2016-10-04 00:00:00,PRATE,surface,-101.25,25.0393,2.97e-05
2016-10-04 00:00:00,2016-10-04 00:00:00,PRATE,surface,-100.313,25.0393,2.53e-05
2016-10-04 00:00:00,2016-10-04 00:00:00,PRATE,surface,-99.3754,25.0393,1.09e-05
2016-10-04 00:00:00,2016-10-04 00:00:00,PRATE,surface,-98.4379,25.0393,7.9e-06
2016-10-04 00:00:00,2016-10-04 00:00:00,PRATE,surface,-97.5004,25.0393,9e-06
2016-10-04 00:00:00,2016-10-04 00:00:00,PRATE,surface,-96.5629,25.0393,8.4e-06
2016-10-04 00:00:00,2016-10-04 00:00:00,PRATE,surface,-95.6254,25.0393,4.28e-05
2016-10-04 00:00:00,2016-10-04 00:00:00,PRATE,surface,-94.6879,25.0393,2.43e-05
2016-10-04 00:00:00,2016-10-04 00:00:00,PRATE,surface,-93.7504,25.0393,1.3e-05
2016-10-04 00:00:00,2016-10-04 00:00:00,PRATE,surface,-92.8129,25.0393,3.47e-05
2016-10-04 00:00:00,2016-10-04 00:00:00,PRATE,surface,-107.813,25.9842,2e-07
2016-10-04 00:00:00,2016-10-04 00:00:00,PRATE,surface,-106.875,25.9842,2.5e-06
2016-10-04 00:00:00,2016-10-04 00:00:00,PRATE,surface,-105.938,25.9842,7.7e-06
2016-10-04 00:00:00,2016-10-04 00:00:00,PRATE,surface,-105,25.9842,1.35e-05
2016-10-04 00:00:00,2016-10-04 00:00:00,PRATE,surface,-104.063,25.9842,1.27e-05
2016-10-04 00:00:00,2016-10-04 00:00:00,PRATE,surface,-103.125,25.9842,1.77e-05
2016-10-04 00:00:00,2016-10-04 00:00:00,PRATE,surface,-102.188,25.9842,2.65e-05
2016-10-04 00:00:00,2016-10-04 00:00:00,PRATE,surface,-101.25,25.9842,4.13e-05
2016-10-04 00:00:00,2016-10-04 00:00:00,PRATE,surface,-100.313,25.9842,3.7e-05
2016-10-04 00:00:00,2016-10-04 00:00:00,PRATE,surface,-99.3754,25.9842,1.55e-05
2016-10-04 00:00:00,2016-10-04 00:00:00,PRATE,surface,-98.4379,25.9842,8.8e-06
2016-10-04 00:00:00,2016-10-04 00:00:00,PRATE,surface,-97.5004,25.9842,7.8e-06
2016-10-04 00:00:00,2016-10-04 00:00:00,PRATE,surface,-96.5629,25.9842,2.79e-05
2016-10-04 00:00:00,2016-10-04 00:00:00,PRATE,surface,-95.6254,25.9842,7.4e-05
2016-10-04 00:00:00,2016-10-04 00:00:00,PRATE,surface,-94.6879,25.9842,4e-05
2016-10-04 00:00:00,2016-10-04 00:00:00,PRATE,surface,-93.7504,25.9842,2.52e-05
2016-10-04 00:00:00,2016-10-04 00:00:00,PRATE,surface,-92.8129,25.9842,4.48e-05
2016-10-04 00:00:00,2016-10-04 00:00:00,PRATE,surface,-107.813,26.929,3.2e-06
2016-10-04 00:00:00,2016-10-04 00:00:00,PRATE,surface,-106.875,26.929,3.6e-06
2016-10-04 00:00:00,2016-10-04 00:00:00,PRATE,surface,-105.938,26.929,8e-06
2016-10-04 00:00:00,2016-10-04 00:00:00,PRATE,surface,-105,26.929,4.3e-06
2016-10-04 00:00:00,2016-10-04 00:00:00,PRATE,surface,-104.063,26.929,5.7e-06
2016-10-04 00:00:00,2016-10-04 00:00:00,PRATE,surface,-103.125,26.929,1.26e-05
2016-10-04 00:00:00,2016-10-04 00:00:00,PRATE,surface,-102.188,26.929,2.48e-05
2016-10-04 00:00:00,2016-10-04 00:00:00,PRATE,surface,-101.25,26.929,4.04e-05
2016-10-04 00:00:00,2016-10-04 00:00:00,PRATE,surface,-100.313,26.929,3.77e-05
2016-10-04 00:00:00,2016-10-04 00:00:00,PRATE,surface,-99.3754,26.929,2.2e-05
2016-10-04 00:00:00,2016-10-04 00:00:00,PRATE,surface,-98.4379,26.929,1.76e-05
2016-10-04 00:00:00,2016-10-04 00:00:00,PRATE,surface,-97.5004,26.929,2.08e-05
2016-10-04 00:00:00,2016-10-04 00:00:00,PRATE,surface,-96.5629,26.929,5.05e-05
2016-10-04 00:00:00,2016-10-04 00:00:00,PRATE,surface,-95.6254,26.929,8.2e-05
2016-10-04 00:00:00,2016-10-04 00:00:00,PRATE,surface,-94.6879,26.929,7.4e-05
2016-10-04 00:00:00,2016-10-04 00:00:00,PRATE,surface,-93.7504,26.929,5.35e-05
2016-10-04 00:00:00,2016-10-04 00:00:00,PRATE,surface,-92.8129,26.929,8.2e-05
2016-10-04 00:00:00,2016-10-04 00:00:00,PRATE,surface,-107.813,27.8739,4.3e-06
2016-10-04 00:00:00,2016-10-04 00:00:00,PRATE,surface,-106.875,27.8739,7.1e-06
2016-10-04 00:00:00,2016-10-04 00:00:00,PRATE,surface,-105.938,27.8739,2.8e-06
2016-10-04 00:00:00,2016-10-04 00:00:00,PRATE,surface,-105,27.8739,1.5e-06
2016-10-04 00:00:00,2016-10-04 00:00:00,PRATE,surface,-104.063,27.8739,5.6e-06
2016-10-04 00:00:00,2016-10-04 00:00:00,PRATE,surface,-103.125,27.8739,1.18e-05
2016-10-04 00:00:00,2016-10-04 00:00:00,PRATE,surface,-102.188,27.8739,2.11e-05
2016-10-04 00:00:00,2016-10-04 00:00:00,PRATE,surface,-101.25,27.8739,2.53e-05
2016-10-04 00:00:00,2016-10-04 00:00:00,PRATE,surface,-100.313,27.8739,2.87e-05
2016-10-04 00:00:00,2016-10-04 00:00:00,PRATE,surface,-99.3754,27.8739,2.77e-05
2016-10-04 00:00:00,2016-10-04 00:00:00,PRATE,surface,-98.4379,27.8739,2.44e-05
2016-10-04 00:00:00,2016-10-04 00:00:00,PRATE,surface,-97.5004,27.8739,1.94e-05
2016-10-04 00:00:00,2016-10-04 00:00:00,PRATE,surface,-96.5629,27.8739,1.51e-05
2016-10-04 00:00:00,2016-10-04 00:00:00,PRATE,surface,-95.6254,27.8739,1.07e-05
2016-10-04 00:00:00,2016-10-04 00:00:00,PRATE,surface,-94.6879,27.8739,6.4e-06
2016-10-04 00:00:00,2016-10-04 00:00:00,PRATE,surface,-93.7504,27.8739,8.9e-06
2016-10-04 00:00:00,2016-10-04 00:00:00,PRATE,surface,-92.8129,27.8739,1.22e-05
2016-10-04 00:00:00,2016-10-04 00:00:00,PRATE,surface,-107.813,28.8188,4.6e-06
2016-10-04 00:00:00,2016-10-04 00:00:00,PRATE,surface,-106.875,28.8188,3.2e-06
2016-10-04 00:00:00,2016-10-04 00:00:00,PRATE,surface,-105.938,28.8188,2.2e-06
2016-10-04 00:00:00,2016-10-04 00:00:00,PRATE,surface,-105,28.8188,3.2e-06
2016-10-04 00:00:00,2016-10-04 00:00:00,PRATE,surface,-104.063,28.8188,5.7e-06
2016-10-04 00:00:00,2016-10-04 00:00:00,PRATE,surface,-103.125,28.8188,1.37e-05
2016-10-04 00:00:00,2016-10-04 00:00:00,PRATE,surface,-102.188,28.8188,1.12e-05
2016-10-04 00:00:00,2016-10-04 00:00:00,PRATE,surface,-101.25,28.8188,1.1e-05
2016-10-04 00:00:00,2016-10-04 00:00:00,PRATE,surface,-100.313,28.8188,1.95e-05
2016-10-04 00:00:00,2016-10-04 00:00:00,PRATE,surface,-99.3754,28.8188,3.06e-05
2016-10-04 00:00:00,2016-10-04 00:00:00,PRATE,surface,-98.4379,28.8188,3.42e-05
2016-10-04 00:00:00,2016-10-04 00:00:00,PRATE,surface,-97.5004,28.8188,3.07e-05
2016-10-04 00:00:00,2016-10-04 00:00:00,PRATE,surface,-96.5629,28.8188,2.04e-05
2016-10-04 00:00:00,2016-10-04 00:00:00,PRATE,surface,-95.6254,28.8188,7.4e-06
2016-10-04 00:00:00,2016-10-04 00:00:00,PRATE,surface,-94.6879,28.8188,2.7e-06
2016-10-04 00:00:00,2016-10-04 00:00:00,PRATE,surface,-93.7504,28.8188,4e-06
2016-10-04 00:00:00,2016-10-04 00:00:00,PRATE,surface,-92.8129,28.8188,1.6e-06
2016-10-04 00:00:00,2016-10-04 00:00:00,PRATE,surface,-107.813,29.7637,1.1e-06
2016-10-04 00:00:00,2016-10-04 00:00:00,PRATE,surface,-106.875,29.7637,4e-07
2016-10-04 00:00:00,2016-10-04 00:00:00,PRATE,surface,-105.938,29.7637,5e-07
2016-10-04 00:00:00,2016-10-04 00:00:00,PRATE,surface,-105,29.7637,2.4e-06
2016-10-04 00:00:00,2016-10-04 00:00:00,PRATE,surface,-104.063,29.7637,6.8e-06
2016-10-04 00:00:00,2016-10-04 00:00:00,PRATE,surface,-103.125,29.7637,8e-06
2016-10-04 00:00:00,2016-10-04 00:00:00,PRATE,surface,-102.188,29.7637,5.9e-06
2016-10-04 00:00:00,2016-10-04 00:00:00,PRATE,surface,-101.25,29.7637,8e-06
2016-10-04 00:00:00,2016-10-04 00:00:00,PRATE,surface,-100.313,29.7637,1.45e-05
2016-10-04 00:00:00,2016-10-04 00:00:00,PRATE,surface,-99.3754,29.7637,2.61e-05
2016-10-04 00:00:00,2016-10-04 00:00:00,PRATE,surface,-98.4379,29.7637,3.68e-05
2016-10-04 00:00:00,2016-10-04 00:00:00,PRATE,surface,-97.5004,29.7637,3.96e-05
2016-10-04 00:00:00,2016-10-04 00:00:00,PRATE,surface,-96.5629,29.7637,2.75e-05
2016-10-04 00:00:00,2016-10-04 00:00:00,PRATE,surface,-95.6254,29.7637,1.03e-05
2016-10-04 00:00:00,2016-10-04 00:00:00,PRATE,surface,-94.6879,29.7637,3.9e-06
2016-10-04 00:00:00,2016-10-04 00:00:00,PRATE,surface,-93.7504,29.7637,2.2e-06
2016-10-04 00:00:00,2016-10-04 00:00:00,PRATE,surface,-92.8129,29.7637,2.1e-06
2016-10-04 00:00:00,2016-10-04 00:00:00,PRATE,surface,-107.813,30.7085,1e-07
2016-10-04 00:00:00,2016-10-04 00:00:00,PRATE,surface,-106.875,30.7085,0
2016-10-04 00:00:00,2016-10-04 00:00:00,PRATE,surface,-105.938,30.7085,1e-07
2016-10-04 00:00:00,2016-10-04 00:00:00,PRATE,surface,-105,30.7085,1.1e-06
2016-10-04 00:00:00,2016-10-04 00:00:00,PRATE,surface,-104.063,30.7085,9.6e-06
2016-10-04 00:00:00,2016-10-04 00:00:00,PRATE,surface,-103.125,30.7085,1.01e-05
2016-10-04 00:00:00,2016-10-04 00:00:00,PRATE,surface,-102.188,30.7085,8e-06
2016-10-04 00:00:00,2016-10-04 00:00:00,PRATE,surface,-101.25,30.7085,9.3e-06
2016-10-04 00:00:00,2016-10-04 00:00:00,PRATE,surface,-100.313,30.7085,1.25e-05
2016-10-04 00:00:00,2016-10-04 00:00:00,PRATE,surface,-99.3754,30.7085,1.9e-05
2016-10-04 00:00:00,2016-10-04 00:00:00,PRATE,surface,-98.4379,30.7085,2.84e-05
2016-10-04 00:00:00,2016-10-04 00:00:00,PRATE,surface,-97.5004,30.7085,3.4e-05
2016-10-04 00:00:00,2016-10-04 00:00:00,PRATE,surface,-96.5629,30.7085,2.67e-05
2016-10-04 00:00:00,2016-10-04 00:00:00,PRATE,surface,-95.6254,30.7085,1.12e-05
2016-10-04 00:00:00,2016-10-04 00:00:00,PRATE,surface,-94.6879,30.7085,2.9e-06
2016-10-04 00:00:00,2016-10-04 00:00:00,PRATE,surface,-93.7504,30.7085,1.9e-06
2016-10-04 00:00:00,2016-10-04 00:00:00,PRATE,surface,-92.8129,30.7085,1e-06
2016-10-04 00:00:00,2016-10-04 00:00:00,PRATE,surface,-107.813,31.6534,0
2016-10-04 00:00:00,2016-10-04 00:00:00,PRATE,surface,-106.875,31.6534,0
2016-10-04 00:00:00,2016-10-04 00:00:00,PRATE,surface,-105.938,31.6534,4e-07
2016-10-04 00:00:00,2016-10-04 00:00:00,PRATE,surface,-105,31.6534,2.3e-06
2016-10-04 00:00:00,2016-10-04 00:00:00,PRATE,surface,-104.063,31.6534,1.15e-05
2016-10-04 00:00:00,2016-10-04 00:00:00,PRATE,surface,-103.125,31.6534,1.55e-05
2016-10-04 00:00:00,2016-10-04 00:00:00,PRATE,surface,-102.188,31.6534,1.36e-05
2016-10-04 00:00:00,2016-10-04 00:00:00,PRATE,surface,-101.25,31.6534,1.29e-05
2016-10-04 00:00:00,2016-10-04 00:00:00,PRATE,surface,-100.313,31.6534,1.72e-05
2016-10-04 00:00:00,2016-10-04 00:00:00,PRATE,surface,-99.3754,31.6534,2.27e-05
2016-10-04 00:00:00,2016-10-04 00:00:00,PRATE,surface,-98.4379,31.6534,2.52e-05
2016-10-04 00:00:00,2016-10-04 00:00:00,PRATE,surface,-97.5004,31.6534,2.76e-05
2016-10-04 00:00:00,2016-10-04 00:00:00,PRATE,surface,-96.5629,31.6534,2.27e-05
2016-10-04 00:00:00,2016-10-04 00:00:00,PRATE,surface,-95.6254,31.6534,1.02e-05
2016-10-04 00:00:00,2016-10-04 00:00:00,PRATE,surface,-94.6879,31.6534,3.8e-06
2016-10-04 00:00:00,2016-10-04 00:00:00,PRATE,surface,-93.7504,31.6534,2.7e-06
2016-10-04 00:00:00,2016-10-04 00:00:00,PRATE,surface,-92.8129,31.6534,1.6e-06
2016-10-04 00:00:00,2016-10-04 00:00:00,PRATE,surface,-107.813,32.5983,3e-07
2016-10-04 00:00:00,2016-10-04 00:00:00,PRATE,surface,-106.875,32.5983,1e-06
2016-10-04 00:00:00,2016-10-04 00:00:00,PRATE,surface,-105.938,32.5983,4.1e-06
2016-10-04 00:00:00,2016-10-04 00:00:00,PRATE,surface,-105,32.5983,1.07e-05
2016-10-04 00:00:00,2016-10-04 00:00:00,PRATE,surface,-104.063,32.5983,1.53e-05
2016-10-04 00:00:00,2016-10-04 00:00:00,PRATE,surface,-103.125,32.5983,1.86e-05
2016-10-04 00:00:00,2016-10-04 00:00:00,PRATE,surface,-102.188,32.5983,2.12e-05
2016-10-04 00:00:00,2016-10-04 00:00:00,PRATE,surface,-101.25,32.5983,2.51e-05
2016-10-04 00:00:00,2016-10-04 00:00:00,PRATE,surface,-100.313,32.5983,2.75e-05
2016-10-04 00:00:00,2016-10-04 00:00:00,PRATE,surface,-99.3754,32.5983,2.17e-05
2016-10-04 00:00:00,2016-10-04 00:00:00,PRATE,surface,-98.4379,32.5983,1.83e-05
2016-10-04 00:00:00,2016-10-04 00:00:00,PRATE,surface,-97.5004,32.5983,1.98e-05
2016-10-04 00:00:00,2016-10-04 00:00:00,PRATE,surface,-96.5629,32.5983,1.82e-05
2016-10-04 00:00:00,2016-10-04 00:00:00,PRATE,surface,-95.6254,32.5983,1.05e-05
2016-10-04 00:00:00,2016-10-04 00:00:00,PRATE,surface,-94.6879,32.5983,3.3e-06
2016-10-04 00:00:00,2016-10-04 00:00:00,PRATE,surface,-93.7504,32.5983,2.6e-06
2016-10-04 00:00:00,2016-10-04 00:00:00,PRATE,surface,-92.8129,32.5983,1.5e-06
2016-10-04 00:00:00,2016-10-04 00:00:00,PRATE,surface,-107.813,33.5432,1.2e-06
2016-10-04 00:00:00,2016-10-04 00:00:00,PRATE,surface,-106.875,33.5432,3e-06
2016-10-04 00:00:00,2016-10-04 00:00:00,PRATE,surface,-105.938,33.5432,8.1e-06
2016-10-04 00:00:00,2016-10-04 00:00:00,PRATE,surface,-105,33.5432,1.66e-05
2016-10-04 00:00:00,2016-10-04 00:00:00,PRATE,surface,-104.063,33.5432,2.21e-05
2016-10-04 00:00:00,2016-10-04 00:00:00,PRATE,surface,-103.125,33.5432,2.46e-05
2016-10-04 00:00:00,2016-10-04 00:00:00,PRATE,surface,-102.188,33.5432,3.58e-05
2016-10-04 00:00:00,2016-10-04 00:00:00,PRATE,surface,-101.25,33.5432,3.72e-05
2016-10-04 00:00:00,2016-10-04 00:00:00,PRATE,surface,-100.313,33.5432,3.24e-05
2016-10-04 00:00:00,2016-10-04 00:00:00,PRATE,surface,-99.3754,33.5432,2.08e-05
2016-10-04 00:00:00,2016-10-04 00:00:00,PRATE,surface,-98.4379,33.5432,1.56e-05
2016-10-04 00:00:00,2016-10-04 00:00:00,PRATE,surface,-97.5004,33.5432,1.78e-05
2016-10-04 00:00:00,2016-10-04 00:00:00,PRATE,surface,-96.5629,33.5432,1.63e-05
2016-10-04 00:00:00,2016-10-04 00:00:00,PRATE,surface,-95.6254,33.5432,8.4e-06
2016-10-04 00:00:00,2016-10-04 00:00:00,PRATE,surface,-94.6879,33.5432,2.5e-06
2016-10-04 00:00:00,2016-10-04 00:00:00,PRATE,surface,-93.7504,33.5432,1.9e-06
2016-10-04 00:00:00,2016-10-04 00:00:00,PRATE,surface,-92.8129,33.5432,8e-07
2016-10-04 00:00:00,2016-10-04 00:00:00,PRATE,surface,-107.813,34.4881,1.1e-06
2016-10-04 00:00:00,2016-10-04 00:00:00,PRATE,surface,-106.875,34.4881,2.6e-06
2016-10-04 00:00:00,2016-10-04 00:00:00,PRATE,surface,-105.938,34.4881,6.7e-06
2016-10-04 00:00:00,2016-10-04 00:00:00,PRATE,surface,-105,34.4881,1.35e-05
2016-10-04 00:00:00,2016-10-04 00:00:00,PRATE,surface,-104.063,34.4881,1.7e-05
2016-10-04 00:00:00,2016-10-04 00:00:00,PRATE,surface,-103.125,34.4881,2.4e-05
2016-10-04 00:00:00,2016-10-04 00:00:00,PRATE,surface,-102.188,34.4881,3.8e-05
2016-10-04 00:00:00,2016-10-04 00:00:00,PRATE,surface,-101.25,34.4881,4.17e-05
2016-10-04 00:00:00,2016-10-04 00:00:00,PRATE,surface,-100.313,34.4881,3.38e-05
2016-10-04 00:00:00,2016-10-04 00:00:00,PRATE,surface,-99.3754,34.4881,2.38e-05
2016-10-04 00:00:00,2016-10-04 00:00:00,PRATE,surface,-98.4379,34.4881,1.86e-05
2016-10-04 00:00:00,2016-10-04 00:00:00,PRATE,surface,-97.5004,34.4881,1.85e-05
2016-10-04 00:00:00,2016-10-04 00:00:00,PRATE,surface,-96.5629,34.4881,1.78e-05
2016-10-04 00:00:00,2016-10-04 00:00:00,PRATE,surface,-95.6254,34.4881,1.16e-05
2016-10-04 00:00:00,2016-10-04 00:00:00,PRATE,surface,-94.6879,34.4881,5.4e-06
2016-10-04 00:00:00,2016-10-04 00:00:00,PRATE,surface,-93.7504,34.4881,5.5e-06
2016-10-04 00:00:00,2016-10-04 00:00:00,PRATE,surface,-92.8129,34.4881,4.1e-06
2016-10-04 00:00:00,2016-10-04 00:00:00,PRATE,surface,-107.813,35.4329,9e-07
2016-10-04 00:00:00,2016-10-04 00:00:00,PRATE,surface,-106.875,35.4329,1.7e-06
2016-10-04 00:00:00,2016-10-04 00:00:00,PRATE,surface,-105.938,35.4329,4.8e-06
2016-10-04 00:00:00,2016-10-04 00:00:00,PRATE,surface,-105,35.4329,1.13e-05
2016-10-04 00:00:00,2016-10-04 00:00:00,PRATE,surface,-104.063,35.4329,1.8e-05
2016-10-04 00:00:00,2016-10-04 00:00:00,PRATE,surface,-103.125,35.4329,2.63e-05
2016-10-04 00:00:00,2016-10-04 00:00:00,PRATE,surface,-102.188,35.4329,3.59e-05
2016-10-04 00:00:00,2016-10-04 00:00:00,PRATE,surface,-101.25,35.4329,3.58e-05
2016-10-04 00:00:00,2016-10-04 00:00:00,PRATE,surface,-100.313,35.4329,3.08e-05
2016-10-04 00:00:00,2016-10-04 00:00:00,PRATE,surface,-99.3754,35.4329,2.6e-05
2016-10-04 00:00:00,2016-10-04 00:00:00,PRATE,surface,-98.4379,35.4329,2.16e-05
2016-10-04 00:00:00,2016-10-04 00:00:00,PRATE,surface,-97.5004,35.4329,1.93e-05
2016-10-04 00:00:00,2016-10-04 00:00:00,PRATE,surface,-96.5629,35.4329,1.6e-05
2016-10-04 00:00:00,2016-10-04 00:00:00,PRATE,surface,-95.6254,35.4329,1.02e-05
2016-10-04 00:00:00,2016-10-04 00:00:00,PRATE,surface,-94.6879,35.4329,7e-06
2016-10-04 00:00:00,2016-10-04 00:00:00,PRATE,surface,-93.7504,35.4329,6.9e-06
2016-10-04 00:00:00,2016-10-04 00:00:00,PRATE,surface,-92.8129,35.4329,8.9e-06
2016-10-04 00:00:00,2016-10-04 00:00:00,PRATE,surface,-107.813,36.3778,1.2e-06
2016-10-04 00:00:00,2016-10-04 00:00:00,PRATE,surface,-106.875,36.3778,1.4e-06
2016-10-04 00:00:00,2016-10-04 00:00:00,PRATE,surface,-105.938,36.3778,3.7e-06
2016-10-04 00:00:00,2016-10-04 00:00:00,PRATE,surface,-105,36.3778,9.3e-06
2016-10-04 00:00:00,2016-10-04 00:00:00,PRATE,surface,-104.063,36.3778,1.48e-05
2016-10-04 00:00:00,2016-10-04 00:00:00,PRATE,surface,-103.125,36.3778,2.33e-05
2016-10-04 00:00:00,2016-10-04 00:00:00,PRATE,surface,-102.188,36.3778,3.44e-05
2016-10-04 00:00:00,2016-10-04 00:00:00,PRATE,surface,-101.25,36.3778,3.76e-05
2016-10-04 00:00:00,2016-10-04 00:00:00,PRATE,surface,-100.313,36.3778,3.09e-05
2016-10-04 00:00:00,2016-10-04 00:00:00,PRATE,surface,-99.3754,36.3778,2.74e-05
2016-10-04 00:00:00,2016-10-04 00:00:00,PRATE,surface,-98.4379,36.3778,2.67e-05
2016-10-04 00:00:00,2016-10-04 00:00:00,PRATE,surface,-97.5004,36.3778,2.4e-05
2016-10-04 00:00:00,2016-10-04 00:00:00,PRATE,surface,-96.5629,36.3778,1.78e-05
2016-10-04 00:00:00,2016-10-04 00:00:00,PRATE,surface,-95.6254,36.3778,1.06e-05
2016-10-04 00:00:00,2016-10-04 00:00:00,PRATE,surface,-94.6879,36.3778,6.8e-06
2016-10-04 00:00:00,2016-10-04 00:00:00,PRATE,surface,-93.7504,36.3778,6e-06
2016-10-04 00:00:00,2016-10-04 00:00:00,PRATE,surface,-92.8129,36.3778,5.4e-06
