2019-01-24 00:00:00,2019-01-24 00:00:00,TMP,surface,-107.813,25.0393,299.852
2019-01-24 00:00:00,2019-01-24 00:00:00,TMP,surface,-106.875,25.0393,294.617
2019-01-24 00:00:00,2019-01-24 00:00:00,TMP,surface,-105.938,25.0393,289.453
2019-01-24 00:00:00,2019-01-24 00:00:00,TMP,surface,-105,25.0393,290.564
2019-01-24 00:00:00,2019-01-24 00:00:00,TMP,surface,-104.063,25.0393,295.316
2019-01-24 00:00:00,2019-01-24 00:00:00,TMP,surface,-103.125,25.0393,297.369
2019-01-24 00:00:00,2019-01-24 00:00:00,TMP,surface,-102.188,25.0393,296.124
2019-01-24 00:00:00,2019-01-24 00:00:00,TMP,surface,-101.25,25.0393,293.228
2019-01-24 00:00:00,2019-01-24 00:00:00,TMP,surface,-100.313,25.0393,292.994
2019-01-24 00:00:00,2019-01-24 00:00:00,TMP,surface,-99.3754,25.0393,295.617
2019-01-24 00:00:00,2019-01-24 00:00:00,TMP,surface,-98.4379,25.0393,298.361
2019-01-24 00:00:00,2019-01-24 00:00:00,TMP,surface,-97.5004,25.0393,296.733
2019-01-24 00:00:00,2019-01-24 00:00:00,TMP,surface,-96.5629,25.0393,297.337
2019-01-24 00:00:00,2019-01-24 00:00:00,TMP,surface,-95.6254,25.0393,298.642
2019-01-24 00:00:00,2019-01-24 00:00:00,TMP,surface,-94.6879,25.0393,299.14
2019-01-24 00:00:00,2019-01-24 00:00:00,TMP,surface,-93.7504,25.0393,299.236
2019-01-24 00:00:00,2019-01-24 00:00:00,TMP,surface,-92.8129,25.0393,299.261
2019-01-24 00:00:00,2019-01-24 00:00:00,TMP,surface,-107.813,25.9842,296.725
2019-01-24 00:00:00,2019-01-24 00:00:00,TMP,surface,-106.875,25.9842,290.53
2019-01-24 00:00:00,2019-01-24 00:00:00,TMP,surface,-105.938,25.9842,289.303
2019-01-24 00:00:00,2019-01-24 00:00:00,TMP,surface,-105,25.9842,292.685
2019-01-24 00:00:00,2019-01-24 00:00:00,TMP,surface,-104.063,25.9842,297.445
2019-01-24 00:00:00,2019-01-24 00:00:00,TMP,surface,-103.125,25.9842,298.997
2019-01-24 00:00:00,2019-01-24 00:00:00,TMP,surface,-102.188,25.9842,297.783
2019-01-24 00:00:00,2019-01-24 00:00:00,TMP,surface,-101.25,25.9842,295.501
2019-01-24 00:00:00,2019-01-24 00:00:00,TMP,surface,-100.313,25.9842,295.073
2019-01-24 00:00:00,2019-01-24 00:00:00,TMP,surface,-99.3754,25.9842,297.431
2019-01-24 00:00:00,2019-01-24 00:00:00,TMP,surface,-98.4379,25.9842,298.466
2019-01-24 00:00:00,2019-01-24 00:00:00,TMP,surface,-97.5004,25.9842,297.865
2019-01-24 00:00:00,2019-01-24 00:00:00,TMP,surface,-96.5629,25.9842,295.637
2019-01-24 00:00:00,2019-01-24 00:00:00,TMP,surface,-95.6254,25.9842,297.663
2019-01-24 00:00:00,2019-01-24 00:00:00,TMP,surface,-94.6879,25.9842,298.415
2019-01-24 00:00:00,2019-01-24 00:00:00,TMP,surface,-93.7504,25.9842,298.652
2019-01-24 00:00:00,2019-01-24 00:00:00,TMP,surface,-92.8129,25.9842,298.713
2019-01-24 00:00:00,2019-01-24 00:00:00,TMP,surface,-107.813,26.929,291.698
2019-01-24 00:00:00,2019-01-24 00:00:00,TMP,surface,-106.875,26.929,288.997
2019-01-24 00:00:00,2019-01-24 00:00:00,TMP,surface,-105.938,26.929,291.778
2019-01-24 00:00:00,2019-01-24 00:00:00,TMP,surface,-105,26.929,295.401
2019-01-24 00:00:00,2019-01-24 00:00:00,TMP,surface,-104.063,26.929,297.676
2019-01-24 00:00:00,2019-01-24 00:00:00,TMP,surface,-103.125,26.929,296.977
2019-01-24 00:00:00,2019-01-24 00:00:00,TMP,surface,-102.188,26.929,295.839
2019-01-24 00:00:00,2019-01-24 00:00:00,TMP,surface,-101.25,26.929,295.821
2019-01-24 00:00:00,2019-01-24 00:00:00,TMP,surface,-100.313,26.929,296.666
2019-01-24 00:00:00,2019-01-24 00:00:00,TMP,surface,-99.3754,26.929,297.865
2019-01-24 00:00:00,2019-01-24 00:00:00,TMP,surface,-98.4379,26.929,297.327
2019-01-24 00:00:00,2019-01-24 00:00:00,TMP,surface,-97.5004,26.929,294.186
2019-01-24 00:00:00,2019-01-24 00:00:00,TMP,surface,-96.5629,26.929,294.69
2019-01-24 00:00:00,2019-01-24 00:00:00,TMP,surface,-95.6254,26.929,296.767
2019-01-24 00:00:00,2019-01-24 00:00:00,TMP,surface,-94.6879,26.929,297.78
2019-01-24 00:00:00,2019-01-24 00:00:00,TMP,surface,-93.7504,26.929,297.932
2019-01-24 00:00:00,2019-01-24 00:00:00,TMP,surface,-92.8129,26.929,297.89
2019-01-24 00:00:00,2019-01-24 00:00:00,TMP,surface,-107.813,27.8739,289.282
2019-01-24 00:00:00,2019-01-24 00:00:00,TMP,surface,-106.875,27.8739,289.506
2019-01-24 00:00:00,2019-01-24 00:00:00,TMP,surface,-105.938,27.8739,293.465
2019-01-24 00:00:00,2019-01-24 00:00:00,TMP,surface,-105,27.8739,296.927
2019-01-24 00:00:00,2019-01-24 00:00:00,TMP,surface,-104.063,27.8739,297.29
2019-01-24 00:00:00,2019-01-24 00:00:00,TMP,surface,-103.125,27.8739,295.21
2019-01-24 00:00:00,2019-01-24 00:00:00,TMP,surface,-102.188,27.8739,294.223
2019-01-24 00:00:00,2019-01-24 00:00:00,TMP,surface,-101.25,27.8739,295.218
2019-01-24 00:00:00,2019-01-24 00:00:00,TMP,surface,-100.313,27.8739,296.551
2019-01-24 00:00:00,2019-01-24 00:00:00,TMP,surface,-99.3754,27.8739,296.693
2019-01-24 00:00:00,2019-01-24 00:00:00,TMP,surface,-98.4379,27.8739,295.871
2019-01-24 00:00:00,2019-01-24 00:00:00,TMP,surface,-97.5004,27.8739,294.98
2019-01-24 00:00:00,2019-01-24 00:00:00,TMP,surface,-96.5629,27.8739,294.855
2019-01-24 00:00:00,2019-01-24 00:00:00,TMP,surface,-95.6254,27.8739,295.629
2019-01-24 00:00:00,2019-01-24 00:00:00,TMP,surface,-94.6879,27.8739,296.457
2019-01-24 00:00:00,2019-01-24 00:00:00,TMP,surface,-93.7504,27.8739,296.676
2019-01-24 00:00:00,2019-01-24 00:00:00,TMP,surface,-92.8129,27.8739,296.749
2019-01-24 00:00:00,2019-01-24 00:00:00,TMP,surface,-107.813,28.8188,288.7
2019-01-24 00:00:00,2019-01-24 00:00:00,TMP,surface,-106.875,28.8188,290.105
2019-01-24 00:00:00,2019-01-24 00:00:00,TMP,surface,-105.938,28.8188,294.324
2019-01-24 00:00:00,2019-01-24 00:00:00,TMP,surface,-105,28.8188,297.394
2019-01-24 00:00:00,2019-01-24 00:00:00,TMP,surface,-104.063,28.8188,295.911
2019-01-24 00:00:00,2019-01-24 00:00:00,TMP,surface,-103.125,28.8188,294.193
2019-01-24 00:00:00,2019-01-24 00:00:00,TMP,surface,-102.188,28.8188,293.583
2019-01-24 00:00:00,2019-01-24 00:00:00,TMP,surface,-101.25,28.8188,294.796
2019-01-24 00:00:00,2019-01-24 00:00:00,TMP,surface,-100.313,28.8188,295.231
2019-01-24 00:00:00,2019-01-24 00:00:00,TMP,surface,-99.3754,28.8188,294.935
2019-01-24 00:00:00,2019-01-24 00:00:00,TMP,surface,-98.4379,28.8188,294.754
2019-01-24 00:00:00,2019-01-24 00:00:00,TMP,surface,-97.5004,28.8188,294.935
2019-01-24 00:00:00,2019-01-24 00:00:00,TMP,surface,-96.5629,28.8188,295.365
2019-01-24 00:00:00,2019-01-24 00:00:00,TMP,surface,-95.6254,28.8188,294.922
2019-01-24 00:00:00,2019-01-24 00:00:00,TMP,surface,-94.6879,28.8188,293.922
2019-01-24 00:00:00,2019-01-24 00:00:00,TMP,surface,-93.7504,28.8188,294.626
2019-01-24 00:00:00,2019-01-24 00:00:00,TMP,surface,-92.8129,28.8188,294.93
2019-01-24 00:00:00,2019-01-24 00:00:00,TMP,surface,-107.813,29.7637,290.533
2019-01-24 00:00:00,2019-01-24 00:00:00,TMP,surface,-106.875,29.7637,291.925
2019-01-24 00:00:00,2019-01-24 00:00:00,TMP,surface,-105.938,29.7637,295.674
2019-01-24 00:00:00,2019-01-24 00:00:00,TMP,surface,-105,29.7637,296.17
2019-01-24 00:00:00,2019-01-24 00:00:00,TMP,surface,-104.063,29.7637,295.234
2019-01-24 00:00:00,2019-01-24 00:00:00,TMP,surface,-103.125,29.7637,294.809
2019-01-24 00:00:00,2019-01-24 00:00:00,TMP,surface,-102.188,29.7637,294.897
2019-01-24 00:00:00,2019-01-24 00:00:00,TMP,surface,-101.25,29.7637,294.833
2019-01-24 00:00:00,2019-01-24 00:00:00,TMP,surface,-100.313,29.7637,293.97
2019-01-24 00:00:00,2019-01-24 00:00:00,TMP,surface,-99.3754,29.7637,293.373
2019-01-24 00:00:00,2019-01-24 00:00:00,TMP,surface,-98.4379,29.7637,293.508
2019-01-24 00:00:00,2019-01-24 00:00:00,TMP,surface,-97.5004,29.7637,294.092
2019-01-24 00:00:00,2019-01-24 00:00:00,TMP,surface,-96.5629,29.7637,294.629
2019-01-24 00:00:00,2019-01-24 00:00:00,TMP,surface,-95.6254,29.7637,294.975
2019-01-24 00:00:00,2019-01-24 00:00:00,TMP,surface,-94.6879,29.7637,294.589
2019-01-24 00:00:00,2019-01-24 00:00:00,TMP,surface,-93.7504,29.7637,294.02
2019-01-24 00:00:00,2019-01-24 00:00:00,TMP,surface,-92.8129,29.7637,296.313
2019-01-24 00:00:00,2019-01-24 00:00:00,TMP,surface,-107.813,30.7085,294.409
2019-01-24 00:00:00,2019-01-24 00:00:00,TMP,surface,-106.875,30.7085,295.452
2019-01-24 00:00:00,2019-01-24 00:00:00,TMP,surface,-105.938,30.7085,295.852
2019-01-24 00:00:00,2019-01-24 00:00:00,TMP,surface,-105,30.7085,295.106
2019-01-24 00:00:00,2019-01-24 00:00:00,TMP,surface,-104.063,30.7085,294.143
2019-01-24 00:00:00,2019-01-24 00:00:00,TMP,surface,-103.125,30.7085,294.925
2019-01-24 00:00:00,2019-01-24 00:00:00,TMP,surface,-102.188,30.7085,295.258
2019-01-24 00:00:00,2019-01-24 00:00:00,TMP,surface,-101.25,30.7085,294.501
2019-01-24 00:00:00,2019-01-24 00:00:00,TMP,surface,-100.313,30.7085,293.277
2019-01-24 00:00:00,2019-01-24 00:00:00,TMP,surface,-99.3754,30.7085,292.749
2019-01-24 00:00:00,2019-01-24 00:00:00,TMP,surface,-98.4379,30.7085,293.013
2019-01-24 00:00:00,2019-01-24 00:00:00,TMP,surface,-97.5004,30.7085,293.617
2019-01-24 00:00:00,2019-01-24 00:00:00,TMP,surface,-96.5629,30.7085,294.508
2019-01-24 00:00:00,2019-01-24 00:00:00,TMP,surface,-95.6254,30.7085,295.252
2019-01-24 00:00:00,2019-01-24 00:00:00,TMP,surface,-94.6879,30.7085,295.415
2019-01-24 00:00:00,2019-01-24 00:00:00,TMP,surface,-93.7504,30.7085,295.669
2019-01-24 00:00:00,2019-01-24 00:00:00,TMP,surface,-92.8129,30.7085,295.709
2019-01-24 00:00:00,2019-01-24 00:00:00,TMP,surface,-107.813,31.6534,295.026
2019-01-24 00:00:00,2019-01-24 00:00:00,TMP,surface,-106.875,31.6534,295.636
2019-01-24 00:00:00,2019-01-24 00:00:00,TMP,surface,-105.938,31.6534,294.745
2019-01-24 00:00:00,2019-01-24 00:00:00,TMP,surface,-105,31.6534,294.167
2019-01-24 00:00:00,2019-01-24 00:00:00,TMP,surface,-104.063,31.6534,293.978
2019-01-24 00:00:00,2019-01-24 00:00:00,TMP,surface,-103.125,31.6534,294.597
2019-01-24 00:00:00,2019-01-24 00:00:00,TMP,surface,-102.188,31.6534,294.857
2019-01-24 00:00:00,2019-01-24 00:00:00,TMP,surface,-101.25,31.6534,294.057
2019-01-24 00:00:00,2019-01-24 00:00:00,TMP,surface,-100.313,31.6534,293.212
2019-01-24 00:00:00,2019-01-24 00:00:00,TMP,surface,-99.3754,31.6534,292.823
2019-01-24 00:00:00,2019-01-24 00:00:00,TMP,surface,-98.4379,31.6534,292.954
2019-01-24 00:00:00,2019-01-24 00:00:00,TMP,surface,-97.5004,31.6534,293.415
2019-01-24 00:00:00,2019-01-24 00:00:00,TMP,surface,-96.5629,31.6534,294.308
2019-01-24 00:00:00,2019-01-24 00:00:00,TMP,surface,-95.6254,31.6534,295.167
2019-01-24 00:00:00,2019-01-24 00:00:00,TMP,surface,-94.6879,31.6534,295.261
2019-01-24 00:00:00,2019-01-24 00:00:00,TMP,surface,-93.7504,31.6534,295.133
2019-01-24 00:00:00,2019-01-24 00:00:00,TMP,surface,-92.8129,31.6534,295.202
2019-01-24 00:00:00,2019-01-24 00:00:00,TMP,surface,-107.813,32.5983,291.45
2019-01-24 00:00:00,2019-01-24 00:00:00,TMP,surface,-106.875,32.5983,292.124
2019-01-24 00:00:00,2019-01-24 00:00:00,TMP,surface,-105.938,32.5983,292.452
2019-01-24 00:00:00,2019-01-24 00:00:00,TMP,surface,-105,32.5983,292.66
2019-01-24 00:00:00,2019-01-24 00:00:00,TMP,surface,-104.063,32.5983,293.511
2019-01-24 00:00:00,2019-01-24 00:00:00,TMP,surface,-103.125,32.5983,294.29
2019-01-24 00:00:00,2019-01-24 00:00:00,TMP,surface,-102.188,32.5983,293.997
2019-01-24 00:00:00,2019-01-24 00:00:00,TMP,surface,-101.25,32.5983,293.695
2019-01-24 00:00:00,2019-01-24 00:00:00,TMP,surface,-100.313,32.5983,293.703
2019-01-24 00:00:00,2019-01-24 00:00:00,TMP,surface,-99.3754,32.5983,293.565
2019-01-24 00:00:00,2019-01-24 00:00:00,TMP,surface,-98.4379,32.5983,293.333
2019-01-24 00:00:00,2019-01-24 00:00:00,TMP,surface,-97.5004,32.5983,293.324
2019-01-24 00:00:00,2019-01-24 00:00:00,TMP,surface,-96.5629,32.5983,293.855
2019-01-24 00:00:00,2019-01-24 00:00:00,TMP,surface,-95.6254,32.5983,294.594
2019-01-24 00:00:00,2019-01-24 00:00:00,TMP,surface,-94.6879,32.5983,294.802
2019-01-24 00:00:00,2019-01-24 00:00:00,TMP,surface,-93.7504,32.5983,294.58
2019-01-24 00:00:00,2019-01-24 00:00:00,TMP,surface,-92.8129,32.5983,294.516
2019-01-24 00:00:00,2019-01-24 00:00:00,TMP,surface,-107.813,33.5432,286.898
2019-01-24 00:00:00,2019-01-24 00:00:00,TMP,surface,-106.875,33.5432,288.434
2019-01-24 00:00:00,2019-01-24 00:00:00,TMP,surface,-105.938,33.5432,289.585
2019-01-24 00:00:00,2019-01-24 00:00:00,TMP,surface,-105,33.5432,290.725
2019-01-24 00:00:00,2019-01-24 00:00:00,TMP,surface,-104.063,33.5432,292.828
2019-01-24 00:00:00,2019-01-24 00:00:00,TMP,surface,-103.125,33.5432,293.223
2019-01-24 00:00:00,2019-01-24 00:00:00,TMP,surface,-102.188,33.5432,293.045
2019-01-24 00:00:00,2019-01-24 00:00:00,TMP,surface,-101.25,33.5432,292.959
2019-01-24 00:00:00,2019-01-24 00:00:00,TMP,surface,-100.313,33.5432,293.503
2019-01-24 00:00:00,2019-01-24 00:00:00,TMP,surface,-99.3754,33.5432,293.509
2019-01-24 00:00:00,2019-01-24 00:00:00,TMP,surface,-98.4379,33.5432,293.081
2019-01-24 00:00:00,2019-01-24 00:00:00,TMP,surface,-97.5004,33.5432,292.812
2019-01-24 00:00:00,2019-01-24 00:00:00,TMP,surface,-96.5629,33.5432,292.85
2019-01-24 00:00:00,2019-01-24 00:00:00,TMP,surface,-95.6254,33.5432,293.329
2019-01-24 00:00:00,2019-01-24 00:00:00,TMP,surface,-94.6879,33.5432,293.834
2019-01-24 00:00:00,2019-01-24 00:00:00,TMP,surface,-93.7504,33.5432,293.564
2019-01-24 00:00:00,2019-01-24 00:00:00,TMP,surface,-92.8129,33.5432,293.423
2019-01-24 00:00:00,2019-01-24 00:00:00,TMP,surface,-107.813,34.4881,285.255
2019-01-24 00:00:00,2019-01-24 00:00:00,TMP,surface,-106.875,34.4881,287.017
2019-01-24 00:00:00,2019-01-24 00:00:00,TMP,surface,-105.938,34.4881,288.177
2019-01-24 00:00:00,2019-01-24 00:00:00,TMP,surface,-105,34.4881,289.831
2019-01-24 00:00:00,2019-01-24 00:00:00,TMP,surface,-104.063,34.4881,291.218
2019-01-24 00:00:00,2019-01-24 00:00:00,TMP,surface,-103.125,34.4881,292.002
2019-01-24 00:00:00,2019-01-24 00:00:00,TMP,surface,-102.188,34.4881,292.244
2019-01-24 00:00:00,2019-01-24 00:00:00,TMP,surface,-101.25,34.4881,292.367
2019-01-24 00:00:00,2019-01-24 00:00:00,TMP,surface,-100.313,34.4881,292.564
2019-01-24 00:00:00,2019-01-24 00:00:00,TMP,surface,-99.3754,34.4881,292.698
2019-01-24 00:00:00,2019-01-24 00:00:00,TMP,surface,-98.4379,34.4881,292.385
2019-01-24 00:00:00,2019-01-24 00:00:00,TMP,surface,-97.5004,34.4881,292.005
2019-01-24 00:00:00,2019-01-24 00:00:00,TMP,surface,-96.5629,34.4881,292.311
2019-01-24 00:00:00,2019-01-24 00:00:00,TMP,surface,-95.6254,34.4881,292.919
2019-01-24 00:00:00,2019-01-24 00:00:00,TMP,surface,-94.6879,34.4881,292.879
2019-01-24 00:00:00,2019-01-24 00:00:00,TMP,surface,-93.7504,34.4881,292.45
2019-01-24 00:00:00,2019-01-24 00:00:00,TMP,surface,-92.8129,34.4881,292.341
2019-01-24 00:00:00,2019-01-24 00:00:00,TMP,surface,-107.813,35.4329,285.673
2019-01-24 00:00:00,2019-01-24 00:00:00,TMP,surface,-106.875,35.4329,286.076
2019-01-24 00:00:00,2019-01-24 00:00:00,TMP,surface,-105.938,35.4329,286.359
2019-01-24 00:00:00,2019-01-24 00:00:00,TMP,surface,-105,35.4329,287.335
2019-01-24 00:00:00,2019-01-24 00:00:00,TMP,surface,-104.063,35.4329,289.975
2019-01-24 00:00:00,2019-01-24 00:00:00,TMP,surface,-103.125,35.4329,291.431
2019-01-24 00:00:00,2019-01-24 00:00:00,TMP,surface,-102.188,35.4329,291.876
2019-01-24 00:00:00,2019-01-24 00:00:00,TMP,surface,-101.25,35.4329,292.005
2019-01-24 00:00:00,2019-01-24 00:00:00,TMP,surface,-100.313,35.4329,291.82
2019-01-24 00:00:00,2019-01-24 00:00:00,TMP,surface,-99.3754,35.4329,291.657
2019-01-24 00:00:00,2019-01-24 00:00:00,TMP,surface,-98.4379,35.4329,291.447
2019-01-24 00:00:00,2019-01-24 00:00:00,TMP,surface,-97.5004,35.4329,291.263
2019-01-24 00:00:00,2019-01-24 00:00:00,TMP,surface,-96.5629,35.4329,291.279
2019-01-24 00:00:00,2019-01-24 00:00:00,TMP,surface,-95.6254,35.4329,291.676
2019-01-24 00:00:00,2019-01-24 00:00:00,TMP,surface,-94.6879,35.4329,292.033
2019-01-24 00:00:00,2019-01-24 00:00:00,TMP,surface,-93.7504,35.4329,291.498
2019-01-24 00:00:00,2019-01-24 00:00:00,TMP,surface,-92.8129,35.4329,290.903
2019-01-24 00:00:00,2019-01-24 00:00:00,TMP,surface,-107.813,36.3778,285.234
2019-01-24 00:00:00,2019-01-24 00:00:00,TMP,surface,-106.875,36.3778,283.215
2019-01-24 00:00:00,2019-01-24 00:00:00,TMP,surface,-105.938,36.3778,283.633
2019-01-24 00:00:00,2019-01-24 00:00:00,TMP,surface,-105,36.3778,284.941
2019-01-24 00:00:00,2019-01-24 00:00:00,TMP,surface,-104.063,36.3778,287.815
2019-01-24 00:00:00,2019-01-24 00:00:00,TMP,surface,-103.125,36.3778,289.412
2019-01-24 00:00:00,2019-01-24 00:00:00,TMP,surface,-102.188,36.3778,290.54
2019-01-24 00:00:00,2019-01-24 00:00:00,TMP,surface,-101.25,36.3778,291.157
2019-01-24 00:00:00,2019-01-24 00:00:00,TMP,surface,-100.313,36.3778,291.292
2019-01-24 00:00:00,2019-01-24 00:00:00,TMP,surface,-99.3754,36.3778,291.173
2019-01-24 00:00:00,2019-01-24 00:00:00,TMP,surface,-98.4379,36.3778,290.853
2019-01-24 00:00:00,2019-01-24 00:00:00,TMP,surface,-97.5004,36.3778,290.58
2019-01-24 00:00:00,2019-01-24 00:00:00,TMP,surface,-96.5629,36.3778,290.543
2019-01-24 00:00:00,2019-01-24 00:00:00,TMP,surface,-95.6254,36.3778,290.821
2019-01-24 00:00:00,2019-01-24 00:00:00,TMP,surface,-94.6879,36.3778,291.002
2019-01-24 00:00:00,2019-01-24 00:00:00,TMP,surface,-93.7504,36.3778,290.433
2019-01-24 00:00:00,2019-01-24 00:00:00,TMP,surface,-92.8129,36.3778,289.901
2019-01-24 00:00:00,2019-01-24 00:00:00,PRATE,surface,-107.813,25.0393,9e-07
2019-01-24 00:00:00,2019-01-24 00:00:00,PRATE,surface,-106.875,25.0393,8e-07
2019-01-24 00:00:00,2019-01-24 00:00:00,PRATE,surface,-105.938,25.0393,3.02e-05
2019-01-24 00:00:00,2019-01-24 00:00:00,PRATE,surface,-105,25.0393,3.25e-05
2019-01-24 00:00:00,2019-01-24 00:00:00,PRATE,surface,-104.063,25.0393,1.38e-05
2019-01-24 00:00:00,2019-01-24 00:00:00,PRATE,surface,-103.125,25.0393,1.19e-05
2019-01-24 00:00:00,2019-01-24 00:00:00,PRATE,surface,-102.188,25.0393,2.04e-05
2019-01-24 00:00:00,2019-01-24 00:00:00,PRATE,surface,-101.25,25.0393,6.9e-05
2019-01-24 00:00:00,2019-01-24 00:00:00,PRATE,surface,-100.313,25.0393,9.02e-05
2019-01-24 00:00:00,2019-01-24 00:00:00,PRATE,surface,-99.3754,25.0393,8.29e-05
2019-01-24 00:00:00,2019-01-24 00:00:00,PRATE,surface,-98.4379,25.0393,2.11e-05
2019-01-24 00:00:00,2019-01-24 00:00:00,PRATE,surface,-97.5004,25.0393,3.23e-05
2019-01-24 00:00:00,2019-01-24 00:00:00,PRATE,surface,-96.5629,25.0393,4.21e-05
2019-01-24 00:00:00,2019-01-24 00:00:00,PRATE,surface,-95.6254,25.0393,4.93e-05
2019-01-24 00:00:00,2019-01-24 00:00:00,PRATE,surface,-94.6879,25.0393,4.14e-05
2019-01-24 00:00:00,2019-01-24 00:00:00,PRATE,surface,-93.7504,25.0393,4.13e-05
2019-01-24 00:00:00,2019-01-24 00:00:00,PRATE,surface,-92.8129,25.0393,4.49e-05
2019-01-24 00:00:00,2019-01-24 00:00:00,PRATE,surface,-107.813,25.9842,2e-06
2019-01-24 00:00:00,2019-01-24 00:00:00,PRATE,surface,-106.875,25.9842,6.5e-06
2019-01-24 00:00:00,2019-01-24 00:00:00,PRATE,surface,-105.938,25.9842,3.6e-05
2019-01-24 00:00:00,2019-01-24 00:00:00,PRATE,surface,-105,25.9842,3.21e-05
2019-01-24 00:00:00,2019-01-24 00:00:00,PRATE,surface,-104.063,25.9842,1.44e-05
2019-01-24 00:00:00,2019-01-24 00:00:00,PRATE,surface,-103.125,25.9842,1.26e-05
2019-01-24 00:00:00,2019-01-24 00:00:00,PRATE,surface,-102.188,25.9842,1.88e-05
2019-01-24 00:00:00,2019-01-24 00:00:00,PRATE,surface,-101.25,25.9842,3.53e-05
2019-01-24 00:00:00,2019-01-24 00:00:00,PRATE,surface,-100.313,25.9842,8e-05
2019-01-24 00:00:00,2019-01-24 00:00:00,PRATE,surface,-99.3754,25.9842,6.29e-05
2019-01-24 00:00:00,2019-01-24 00:00:00,PRATE,surface,-98.4379,25.9842,3.07e-05
2019-01-24 00:00:00,2019-01-24 00:00:00,PRATE,surface,-97.5004,25.9842,2.4e-05
2019-01-24 00:00:00,2019-01-24 00:00:00,PRATE,surface,-96.5629,25.9842,3.03e-05
2019-01-24 00:00:00,2019-01-24 00:00:00,PRATE,surface,-95.6254,25.9842,3.11e-05
2019-01-24 00:00:00,2019-01-24 00:00:00,PRATE,surface,-94.6879,25.9842,3.22e-05
2019-01-24 00:00:00,2019-01-24 00:00:00,PRATE,surface,-93.7504,25.9842,2.57e-05
2019-01-24 00:00:00,2019-01-24 00:00:00,PRATE,surface,-92.8129,25.9842,3.18e-05
2019-01-24 00:00:00,2019-01-24 00:00:00,PRATE,surface,-107.813,26.929,1.4e-06
2019-01-24 00:00:00,2019-01-24 00:00:00,PRATE,surface,-106.875,26.929,1.6e-05
2019-01-24 00:00:00,2019-01-24 00:00:00,PRATE,surface,-105.938,26.929,2.96e-05
2019-01-24 00:00:00,2019-01-24 00:00:00,PRATE,surface,-105,26.929,2.36e-05
2019-01-24 00:00:00,2019-01-24 00:00:00,PRATE,surface,-104.063,26.929,2.51e-05
2019-01-24 00:00:00,2019-01-24 00:00:00,PRATE,surface,-103.125,26.929,3.14e-05
2019-01-24 00:00:00,2019-01-24 00:00:00,PRATE,surface,-102.188,26.929,4.36e-05
2019-01-24 00:00:00,2019-01-24 00:00:00,PRATE,surface,-101.25,26.929,6.03e-05
2019-01-24 00:00:00,2019-01-24 00:00:00,PRATE,surface,-100.313,26.929,6.21e-05
2019-01-24 00:00:00,2019-01-24 00:00:00,PRATE,surface,-99.3754,26.929,6.96e-05
2019-01-24 00:00:00,2019-01-24 00:00:00,PRATE,surface,-98.4379,26.929,4.6e-05
2019-01-24 00:00:00,2019-01-24 00:00:00,PRATE,surface,-97.5004,26.929,2.48e-05
2019-01-24 00:00:00,2019-01-24 00:00:00,PRATE,surface,-96.5629,26.929,2.56e-05
2019-01-24 00:00:00,2019-01-24 00:00:00,PRATE,surface,-95.6254,26.929,2.82e-05
2019-01-24 00:00:00,2019-01-24 00:00:00,PRATE,surface,-94.6879,26.929,2.48e-05
2019-01-24 00:00:00,2019-01-24 00:00:00,PRATE,surface,-93.7504,26.929,2.74e-05
2019-01-24 00:00:00,2019-01-24 00:00:00,PRATE,surface,-92.8129,26.929,3.7e-05
2019-01-24 00:00:00,2019-01-24 00:00:00,PRATE,surface,-107.813,27.8739,1.01e-05
2019-01-24 00:00:00,2019-01-24 00:00:00,PRATE,surface,-106.875,27.8739,2.32e-05
2019-01-24 00:00:00,2019-01-24 00:00:00,PRATE,surface,-105.938,27.8739,1.73e-05
2019-01-24 00:00:00,2019-01-24 00:00:00,PRATE,surface,-105,27.8739,1.25e-05
2019-01-24 00:00:00,2019-01-24 00:00:00,PRATE,surface,-104.063,27.8739,2.82e-05
2019-01-24 00:00:00,2019-01-24 00:00:00,PRATE,surface,-103.125,27.8739,7.29e-05
2019-01-24 00:00:00,2019-01-24 00:00:00,PRATE,surface,-102.188,27.8739,9.57e-05
2019-01-24 00:00:00,2019-01-24 00:00:00,PRATE,surface,-101.25,27.8739,6.73e-05
2019-01-24 00:00:00,2019-01-24 00:00:00,PRATE,surface,-100.313,27.8739,5.38e-05
2019-01-24 00:00:00,2019-01-24 00:00:00,PRATE,surface,-99.3754,27.8739,6.9e-05
2019-01-24 00:00:00,2019-01-24 00:00:00,PRATE,surface,-98.4379,27.8739,6.6e-05
2019-01-24 00:00:00,2019-01-24 00:00:00,PRATE,surface,-97.5004,27.8739,4.46e-05
2019-01-24 00:00:00,2019-01-24 00:00:00,PRATE,surface,-96.5629,27.8739,2.65e-05
2019-01-24 00:00:00,2019-01-24 00:00:00,PRATE,surface,-95.6254,27.8739,2.1e-05
2019-01-24 00:00:00,2019-01-24 00:00:00,PRATE,surface,-94.6879,27.8739,2.98e-05
2019-01-24 00:00:00,2019-01-24 00:00:00,PRATE,surface,-93.7504,27.8739,4.49e-05
2019-01-24 00:00:00,2019-01-24 00:00:00,PRATE,surface,-92.8129,27.8739,6.78e-05
2019-01-24 00:00:00,2019-01-24 00:00:00,PRATE,surface,-107.813,28.8188,2.95e-05
2019-01-24 00:00:00,2019-01-24 00:00:00,PRATE,surface,-106.875,28.8188,4.21e-05
2019-01-24 00:00:00,2019-01-24 00:00:00,PRATE,surface,-105.938,28.8188,1.85e-05
2019-01-24 00:00:00,2019-01-24 00:00:00,PRATE,surface,-105,28.8188,7.4e-06
2019-01-24 00:00:00,2019-01-24 00:00:00,PRATE,surface,-104.063,28.8188,3.18e-05
2019-01-24 00:00:00,2019-01-24 00:00:00,PRATE,surface,-103.125,28.8188,7.15e-05
2019-01-24 00:00:00,2019-01-24 00:00:00,PRATE,surface,-102.188,28.8188,8.2e-05
2019-01-24 00:00:00,2019-01-24 00:00:00,PRATE,surface,-101.25,28.8188,5.45e-05
2019-01-24 00:00:00,2019-01-24 00:00:00,PRATE,surface,-100.313,28.8188,5.4e-05
2019-01-24 00:00:00,2019-01-24 00:00:00,PRATE,surface,-99.3754,28.8188,7.96e-05
2019-01-24 00:00:00,2019-01-24 00:00:00,PRATE,surface,-98.4379,28.8188,9.44e-05
2019-01-24 00:00:00,2019-01-24 00:00:00,PRATE,surface,-97.5004,28.8188,7.78e-05
2019-01-24 00:00:00,2019-01-24 00:00:00,PRATE,surface,-96.5629,28.8188,4.85e-05
2019-01-24 00:00:00,2019-01-24 00:00:00,PRATE,surface,-95.6254,28.8188,3.02e-05
2019-01-24 00:00:00,2019-01-24 00:00:00,PRATE,surface,-94.6879,28.8188,2.47e-05
2019-01-24 00:00:00,2019-01-24 00:00:00,PRATE,surface,-93.7504,28.8188,3.1e-05
2019-01-24 00:00:00,2019-01-24 00:00:00,PRATE,surface,-92.8129,28.8188,4.83e-05
2019-01-24 00:00:00,2019-01-24 00:00:00,PRATE,surface,-107.813,29.7637,3.76e-05
2019-01-24 00:00:00,2019-01-24 00:00:00,PRATE,surface,-106.875,29.7637,4.27e-05
2019-01-24 00:00:00,2019-01-24 00:00:00,PRATE,surface,-105.938,29.7637,1.06e-05
2019-01-24 00:00:00,2019-01-24 00:00:00,PRATE,surface,-105,29.7637,1.2e-05
2019-01-24 00:00:00,2019-01-24 00:00:00,PRATE,surface,-104.063,29.7637,3.23e-05
2019-01-24 00:00:00,2019-01-24 00:00:00,PRATE,surface,-103.125,29.7637,4.16e-05
2019-01-24 00:00:00,2019-01-24 00:00:00,PRATE,surface,-102.188,29.7637,4.33e-05
2019-01-24 00:00:00,2019-01-24 00:00:00,PRATE,surface,-101.25,29.7637,4.5e-05
2019-01-24 00:00:00,2019-01-24 00:00:00,PRATE,surface,-100.313,29.7637,5.47e-05
2019-01-24 00:00:00,2019-01-24 00:00:00,PRATE,surface,-99.3754,29.7637,8.51e-05
2019-01-24 00:00:00,2019-01-24 00:00:00,PRATE,surface,-98.4379,29.7637,0.0001078
2019-01-24 00:00:00,2019-01-24 00:00:00,PRATE,surface,-97.5004,29.7637,0.0001038
2019-01-24 00:00:00,2019-01-24 00:00:00,PRATE,surface,-96.5629,29.7637,9.07e-05
2019-01-24 00:00:00,2019-01-24 00:00:00,PRATE,surface,-95.6254,29.7637,7.38e-05
2019-01-24 00:00:00,2019-01-24 00:00:00,PRATE,surface,-94.6879,29.7637,4.64e-05
2019-01-24 00:00:00,2019-01-24 00:00:00,PRATE,surface,-93.7504,29.7637,2.92e-05
2019-01-24 00:00:00,2019-01-24 00:00:00,PRATE,surface,-92.8129,29.7637,3.1e-05
2019-01-24 00:00:00,2019-01-24 00:00:00,PRATE,surface,-107.813,30.7085,7.6e-06
2019-01-24 00:00:00,2019-01-24 00:00:00,PRATE,surface,-106.875,30.7085,1.05e-05
2019-01-24 00:00:00,2019-01-24 00:00:00,PRATE,surface,-105.938,30.7085,1.02e-05
2019-01-24 00:00:00,2019-01-24 00:00:00,PRATE,surface,-105,30.7085,2.78e-05
2019-01-24 00:00:00,2019-01-24 00:00:00,PRATE,surface,-104.063,30.7085,3.65e-05
2019-01-24 00:00:00,2019-01-24 00:00:00,PRATE,surface,-103.125,30.7085,3.38e-05
2019-01-24 00:00:00,2019-01-24 00:00:00,PRATE,surface,-102.188,30.7085,2.52e-05
2019-01-24 00:00:00,2019-01-24 00:00:00,PRATE,surface,-101.25,30.7085,3.53e-05
2019-01-24 00:00:00,2019-01-24 00:00:00,PRATE,surface,-100.313,30.7085,5.65e-05
2019-01-24 00:00:00,2019-01-24 00:00:00,PRATE,surface,-99.3754,30.7085,6.65e-05
2019-01-24 00:00:00,2019-01-24 00:00:00,PRATE,surface,-98.4379,30.7085,6.76e-05
2019-01-24 00:00:00,2019-01-24 00:00:00,PRATE,surface,-97.5004,30.7085,6.46e-05
2019-01-24 00:00:00,2019-01-24 00:00:00,PRATE,surface,-96.5629,30.7085,6.36e-05
2019-01-24 00:00:00,2019-01-24 00:00:00,PRATE,surface,-95.6254,30.7085,6.46e-05
2019-01-24 00:00:00,2019-01-24 00:00:00,PRATE,surface,-94.6879,30.7085,5.84e-05
2019-01-24 00:00:00,2019-01-24 00:00:00,PRATE,surface,-93.7504,30.7085,4.77e-05
2019-01-24 00:00:00,2019-01-24 00:00:00,PRATE,surface,-92.8129,30.7085,4.05e-05
2019-01-24 00:00:00,2019-01-24 00:00:00,PRATE,surface,-107.813,31.6534,5.5e-06
2019-01-24 00:00:00,2019-01-24 00:00:00,PRATE,surface,-106.875,31.6534,8.5e-06
2019-01-24 00:00:00,2019-01-24 00:00:00,PRATE,surface,-105.938,31.6534,1.39e-05
2019-01-24 00:00:00,2019-01-24 00:00:00,PRATE,surface,-105,31.6534,2.58e-05
2019-01-24 00:00:00,2019-01-24 00:00:00,PRATE,surface,-104.063,31.6534,4.7e-05
2019-01-24 00:00:00,2019-01-24 00:00:00,PRATE,surface,-103.125,31.6534,3.75e-05
2019-01-24 00:00:00,2019-01-24 00:00:00,PRATE,surface,-102.188,31.6534,2.29e-05
2019-01-24 00:00:00,2019-01-24 00:00:00,PRATE,surface,-101.25,31.6534,4e-05
2019-01-24 00:00:00,2019-01-24 00:00:00,PRATE,surface,-100.313,31.6534,5.49e-05
2019-01-24 00:00:00,2019-01-24 00:00:00,PRATE,surface,-99.3754,31.6534,5.92e-05
2019-01-24 00:00:00,2019-01-24 00:00:00,PRATE,surface,-98.4379,31.6534,4.75e-05
2019-01-24 00:00:00,2019-01-24 00:00:00,PRATE,surface,-97.5004,31.6534,3.37e-05
2019-01-24 00:00:00,2019-01-24 00:00:00,PRATE,surface,-96.5629,31.6534,3.6e-05
2019-01-24 00:00:00,2019-01-24 00:00:00,PRATE,surface,-95.6254,31.6534,4.47e-05
2019-01-24 00:00:00,2019-01-24 00:00:00,PRATE,surface,-94.6879,31.6534,4.4e-05
2019-01-24 00:00:00,2019-01-24 00:00:00,PRATE,surface,-93.7504,31.6534,4.26e-05
2019-01-24 00:00:00,2019-01-24 00:00:00,PRATE,surface,-92.8129,31.6534,4.45e-05
2019-01-24 00:00:00,2019-01-24 00:00:00,PRATE,surface,-107.813,32.5983,1.58e-05
2019-01-24 00:00:00,2019-01-24 00:00:00,PRATE,surface,-106.875,32.5983,1.89e-05
2019-01-24 00:00:00,2019-01-24 00:00:00,PRATE,surface,-105.938,32.5983,2.34e-05
2019-01-24 00:00:00,2019-01-24 00:00:00,PRATE,surface,-105,32.5983,3.14e-05
2019-01-24 00:00:00,2019-01-24 00:00:00,PRATE,surface,-104.063,32.5983,4.97e-05
2019-01-24 00:00:00,2019-01-24 00:00:00,PRATE,surface,-103.125,32.5983,4.62e-05
2019-01-24 00:00:00,2019-01-24 00:00:00,PRATE,surface,-102.188,32.5983,3.82e-05
2019-01-24 00:00:00,2019-01-24 00:00:00,PRATE,surface,-101.25,32.5983,3.48e-05
2019-01-24 00:00:00,2019-01-24 00:00:00,PRATE,surface,-100.313,32.5983,3.72e-05
2019-01-24 00:00:00,2019-01-24 00:00:00,PRATE,surface,-99.3754,32.5983,3.36e-05
2019-01-24 00:00:00,2019-01-24 00:00:00,PRATE,surface,-98.4379,32.5983,3.12e-05
2019-01-24 00:00:00,2019-01-24 00:00:00,PRATE,surface,-97.5004,32.5983,3.73e-05
2019-01-24 00:00:00,2019-01-24 00:00:00,PRATE,surface,-96.5629,32.5983,4.27e-05
2019-01-24 00:00:00,2019-01-24 00:00:00,PRATE,surface,-95.6254,32.5983,4.08e-05
2019-01-24 00:00:00,2019-01-24 00:00:00,PRATE,surface,-94.6879,32.5983,3.83e-05
2019-01-24 00:00:00,2019-01-24 00:00:00,PRATE,surface,-93.7504,32.5983,3.7e-05
2019-01-24 00:00:00,2019-01-24 00:00:00,PRATE,surface,-92.8129,32.5983,3.25e-05
2019-01-24 00:00:00,2019-01-24 00:00:00,PRATE,surface,-107.813,33.5432,4.45e-05
2019-01-24 00:00:00,2019-01-24 00:00:00,PRATE,surface,-106.875,33.5432,4.55e-05
2019-01-24 00:00:00,2019-01-24 00:00:00,PRATE,surface,-105.938,33.5432,4.22e-05
2019-01-24 00:00:00,2019-01-24 00:00:00,PRATE,surface,-105,33.5432,4.27e-05
2019-01-24 00:00:00,2019-01-24 00:00:00,PRATE,surface,-104.063,33.5432,4.6e-05
2019-01-24 00:00:00,2019-01-24 00:00:00,PRATE,surface,-103.125,33.5432,5.6e-05
2019-01-24 00:00:00,2019-01-24 00:00:00,PRATE,surface,-102.188,33.5432,5.67e-05
2019-01-24 00:00:00,2019-01-24 00:00:00,PRATE,surface,-101.25,33.5432,3.98e-05
2019-01-24 00:00:00,2019-01-24 00:00:00,PRATE,surface,-100.313,33.5432,2.6e-05
2019-01-24 00:00:00,2019-01-24 00:00:00,PRATE,surface,-99.3754,33.5432,2e-05
2019-01-24 00:00:00,2019-01-24 00:00:00,PRATE,surface,-98.4379,33.5432,1.99e-05
2019-01-24 00:00:00,2019-01-24 00:00:00,PRATE,surface,-97.5004,33.5432,2.3e-05
2019-01-24 00:00:00,2019-01-24 00:00:00,PRATE,surface,-96.5629,33.5432,2.33e-05
2019-01-24 00:00:00,2019-01-24 00:00:00,PRATE,surface,-95.6254,33.5432,2.02e-05
2019-01-24 00:00:00,2019-01-24 00:00:00,PRATE,surface,-94.6879,33.5432,2.21e-05
2019-01-24 00:00:00,2019-01-24 00:00:00,PRATE,surface,-93.7504,33.5432,3e-05
2019-01-24 00:00:00,2019-01-24 00:00:00,PRATE,surface,-92.8129,33.5432,3.3e-05
2019-01-24 00:00:00,2019-01-24 00:00:00,PRATE,surface,-107.813,34.4881,4.26e-05
2019-01-24 00:00:00,2019-01-24 00:00:00,PRATE,surface,-106.875,34.4881,3.47e-05
2019-01-24 00:00:00,2019-01-24 00:00:00,PRATE,surface,-105.938,34.4881,3.68e-05
2019-01-24 00:00:00,2019-01-24 00:00:00,PRATE,surface,-105,34.4881,5.01e-05
2019-01-24 00:00:00,2019-01-24 00:00:00,PRATE,surface,-104.063,34.4881,5.24e-05
2019-01-24 00:00:00,2019-01-24 00:00:00,PRATE,surface,-103.125,34.4881,5.31e-05
2019-01-24 00:00:00,2019-01-24 00:00:00,PRATE,surface,-102.188,34.4881,5.41e-05
2019-01-24 00:00:00,2019-01-24 00:00:00,PRATE,surface,-101.25,34.4881,4.51e-05
2019-01-24 00:00:00,2019-01-24 00:00:00,PRATE,surface,-100.313,34.4881,3.18e-05
2019-01-24 00:00:00,2019-01-24 00:00:00,PRATE,surface,-99.3754,34.4881,2.51e-05
2019-01-24 00:00:00,2019-01-24 00:00:00,PRATE,surface,-98.4379,34.4881,2.13e-05
2019-01-24 00:00:00,2019-01-24 00:00:00,PRATE,surface,-97.5004,34.4881,2.22e-05
2019-01-24 00:00:00,2019-01-24 00:00:00,PRATE,surface,-96.5629,34.4881,2.58e-05
2019-01-24 00:00:00,2019-01-24 00:00:00,PRATE,surface,-95.6254,34.4881,2.49e-05
2019-01-24 00:00:00,2019-01-24 00:00:00,PRATE,surface,-94.6879,34.4881,2.41e-05
2019-01-24 00:00:00,2019-01-24 00:00:00,PRATE,surface,-93.7504,34.4881,2.96e-05
2019-01-24 00:00:00,2019-01-24 00:00:00,PRATE,surface,-92.8129,34.4881,3.5e-05
2019-01-24 00:00:00,2019-01-24 00:00:00,PRATE,surface,-107.813,35.4329,3.56e-05
2019-01-24 00:00:00,2019-01-24 00:00:00,PRATE,surface,-106.875,35.4329,3.33e-05
2019-01-24 00:00:00,2019-01-24 00:00:00,PRATE,surface,-105.938,35.4329,4.12e-05
2019-01-24 00:00:00,2019-01-24 00:00:00,PRATE,surface,-105,35.4329,5.63e-05
2019-01-24 00:00:00,2019-01-24 00:00:00,PRATE,surface,-104.063,35.4329,5.91e-05
2019-01-24 00:00:00,2019-01-24 00:00:00,PRATE,surface,-103.125,35.4329,4.42e-05
2019-01-24 00:00:00,2019-01-24 00:00:00,PRATE,surface,-102.188,35.4329,3.86e-05
2019-01-24 00:00:00,2019-01-24 00:00:00,PRATE,surface,-101.25,35.4329,3.96e-05
2019-01-24 00:00:00,2019-01-24 00:00:00,PRATE,surface,-100.313,35.4329,3.77e-05
2019-01-24 00:00:00,2019-01-24 00:00:00,PRATE,surface,-99.3754,35.4329,3.63e-05
2019-01-24 00:00:00,2019-01-24 00:00:00,PRATE,surface,-98.4379,35.4329,4.57e-05
2019-01-24 00:00:00,2019-01-24 00:00:00,PRATE,surface,-97.5004,35.4329,4.78e-05
2019-01-24 00:00:00,2019-01-24 00:00:00,PRATE,surface,-96.5629,35.4329,3.16e-05
2019-01-24 00:00:00,2019-01-24 00:00:00,PRATE,surface,-95.6254,35.4329,1.79e-05
2019-01-24 00:00:00,2019-01-24 00:00:00,PRATE,surface,-94.6879,35.4329,2.05e-05
2019-01-24 00:00:00,2019-01-24 00:00:00,PRATE,surface,-93.7504,35.4329,2.85e-05
2019-01-24 00:00:00,2019-01-24 00:00:00,PRATE,surface,-92.8129,35.4329,3.33e-05
2019-01-24 00:00:00,2019-01-24 00:00:00,PRATE,surface,-107.813,36.3778,4.19e-05
2019-01-24 00:00:00,2019-01-24 00:00:00,PRATE,surface,-106.875,36.3778,5.35e-05
2019-01-24 00:00:00,2019-01-24 00:00:00,PRATE,surface,-105.938,36.3778,6.26e-05
2019-01-24 00:00:00,2019-01-24 00:00:00,PRATE,surface,-105,36.3778,6.06e-05
2019-01-24 00:00:00,2019-01-24 00:00:00,PRATE,surface,-104.063,36.3778,5.53e-05
2019-01-24 00:00:00,2019-01-24 00:00:00,PRATE,surface,-103.125,36.3778,4.46e-05
2019-01-24 00:00:00,2019-01-24 00:00:00,PRATE,surface,-102.188,36.3778,3.2e-05
2019-01-24 00:00:00,2019-01-24 00:00:00,PRATE,surface,-101.25,36.3778,2.69e-05
2019-01-24 00:00:00,2019-01-24 00:00:00,PRATE,surface,-100.313,36.3778,3.47e-05
2019-01-24 00:00:00,2019-01-24 00:00:00,PRATE,surface,-99.3754,36.3778,4.82e-05
2019-01-24 00:00:00,2019-01-24 00:00:00,PRATE,surface,-98.4379,36.3778,5.84e-05
2019-01-24 00:00:00,2019-01-24 00:00:00,PRATE,surface,-97.5004,36.3778,5.91e-05
2019-01-24 00:00:00,2019-01-24 00:00:00,PRATE,surface,-96.5629,36.3778,4.77e-05
2019-01-24 00:00:00,2019-01-24 00:00:00,PRATE,surface,-95.6254,36.3778,3.5e-05
2019-01-24 00:00:00,2019-01-24 00:00:00,PRATE,surface,-94.6879,36.3778,3.42e-05
2019-01-24 00:00:00,2019-01-24 00:00:00,PRATE,surface,-93.7504,36.3778,3.81e-05
2019-01-24 00:00:00,2019-01-24 00:00:00,PRATE,surface,-92.8129,36.3778,3.78e-05
