2017-09-24 00:00:00,2017-09-24 00:00:00,TMP,surface,-107.813,25.0393,298.889
2017-09-24 00:00:00,2017-09-24 00:00:00,TMP,surface,-106.875,25.0393,294.169
2017-09-24 00:00:00,2017-09-24 00:00:00,TMP,surface,-105.938,25.0393,288.665
2017-09-24 00:00:00,2017-09-24 00:00:00,TMP,surface,-105,25.0393,291.46
2017-09-24 00:00:00,2017-09-24 00:00:00,TMP,surface,-104.063,25.0393,296.257
2017-09-24 00:00:00,2017-09-24 00:00:00,TMP,surface,-103.125,25.0393,297.98
2017-09-24 00:00:00,2017-09-24 00:00:00,TMP,surface,-102.188,25.0393,296.588
2017-09-24 00:00:00,2017-09-24 00:00:00,TMP,surface,-101.25,25.0393,294.422
2017-09-24 00:00:00,2017-09-24 00:00:00,TMP,surface,-100.313,25.0393,293.867
2017-09-24 00:00:00,2017-09-24 00:00:00,TMP,surface,-99.3754,25.0393,297.22
2017-09-24 00:00:00,2017-09-24 00:00:00,TMP,surface,-98.4379,25.0393,299.929
2017-09-24 00:00:00,2017-09-24 00:00:00,TMP,surface,-97.5004,25.0393,298.147
2017-09-24 00:00:00,2017-09-24 00:00:00,TMP,surface,-96.5629,25.0393,297.934
2017-09-24 00:00:00,2017-09-24 00:00:00,TMP,surface,-95.6254,25.0393,298.785
2017-09-24 00:00:00,2017-09-24 00:00:00,TMP,surface,-94.6879,25.0393,299.428
2017-09-24 00:00:00,2017-09-24 00:00:00,TMP,surface,-93.7504,25.0393,299.465
2017-09-24 00:00:00,2017-09-24 00:00:00,TMP,surface,-92.8129,25.0393,299.417
2017-09-24 00:00:00,2017-09-24 00:00:00,TMP,surface,-107.813,25.9842,296.089
2017-09-24 00:00:00,2017-09-24 00:00:00,TMP,surface,-106.875,25.9842,290.137
2017-09-24 00:00:00,2017-09-24 00:00:00,TMP,surface,-105.938,25.9842,289.329
2017-09-24 00:00:00,2017-09-24 00:00:00,TMP,surface,-105,25.9842,294.479
2017-09-24 00:00:00,2017-09-24 00:00:00,TMP,surface,-104.063,25.9842,298.553
2017-09-24 00:00:00,2017-09-24 00:00:00,TMP,surface,-103.125,25.9842,300.124
2017-09-24 00:00:00,2017-09-24 00:00:00,TMP,surface,-102.188,25.9842,298.985
2017-09-24 00:00:00,2017-09-24 00:00:00,TMP,surface,-101.25,25.9842,296.614
2017-09-24 00:00:00,2017-09-24 00:00:00,TMP,surface,-100.313,25.9842,296.395
2017-09-24 00:00:00,2017-09-24 00:00:00,TMP,surface,-99.3754,25.9842,299.316
2017-09-24 00:00:00,2017-09-24 00:00:00,TMP,surface,-98.4379,25.9842,300.089
2017-09-24 00:00:00,2017-09-24 00:00:00,TMP,surface,-97.5004,25.9842,298.803
2017-09-24 00:00:00,2017-09-24 00:00:00,TMP,surface,-96.5629,25.9842,296.041
2017-09-24 00:00:00,2017-09-24 00:00:00,TMP,surface,-95.6254,25.9842,297.846
2017-09-24 00:00:00,2017-09-24 00:00:00,TMP,surface,-94.6879,25.9842,298.969
2017-09-24 00:00:00,2017-09-24 00:00:00,TMP,surface,-93.7504,25.9842,299.249
2017-09-24 00:00:00,2017-09-24 00:00:00,TMP,surface,-92.8129,25.9842,299.313
2017-09-24 00:00:00,2017-09-24 00:00:00,TMP,surface,-107.813,26.929,291.097
2017-09-24 00:00:00,2017-09-24 00:00:00,TMP,surface,-106.875,26.929,288.58
2017-09-24 00:00:00,2017-09-24 00:00:00,TMP,surface,-105.938,26.929,292.307
2017-09-24 00:00:00,2017-09-24 00:00:00,TMP,surface,-105,26.929,296.782
2017-09-24 00:00:00,2017-09-24 00:00:00,TMP,surface,-104.063,26.929,299.303
2017-09-24 00:00:00,2017-09-24 00:00:00,TMP,surface,-103.125,26.929,298.859
2017-09-24 00:00:00,2017-09-24 00:00:00,TMP,surface,-102.188,26.929,297.335
2017-09-24 00:00:00,2017-09-24 00:00:00,TMP,surface,-101.25,26.929,297.265
2017-09-24 00:00:00,2017-09-24 00:00:00,TMP,surface,-100.313,26.929,298.492
2017-09-24 00:00:00,2017-09-24 00:00:00,TMP,surface,-99.3754,26.929,299.859
2017-09-24 00:00:00,2017-09-24 00:00:00,TMP,surface,-98.4379,26.929,298.895
2017-09-24 00:00:00,2017-09-24 00:00:00,TMP,surface,-97.5004,26.929,295.502
2017-09-24 00:00:00,2017-09-24 00:00:00,TMP,surface,-96.5629,26.929,295.782
2017-09-24 00:00:00,2017-09-24 00:00:00,TMP,surface,-95.6254,26.929,297.542
2017-09-24 00:00:00,2017-09-24 00:00:00,TMP,surface,-94.6879,26.929,298.443
2017-09-24 00:00:00,2017-09-24 00:00:00,TMP,surface,-93.7504,26.929,298.647
2017-09-24 00:00:00,2017-09-24 00:00:00,TMP,surface,-92.8129,26.929,298.742
2017-09-24 00:00:00,2017-09-24 00:00:00,TMP,surface,-107.813,27.8739,288.619
2017-09-24 00:00:00,2017-09-24 00:00:00,TMP,surface,-106.875,27.8739,289.351
2017-09-24 00:00:00,2017-09-24 00:00:00,TMP,surface,-105.938,27.8739,293.998
2017-09-24 00:00:00,2017-09-24 00:00:00,TMP,surface,-105,27.8739,297.407
2017-09-24 00:00:00,2017-09-24 00:00:00,TMP,surface,-104.063,27.8739,298.025
2017-09-24 00:00:00,2017-09-24 00:00:00,TMP,surface,-103.125,27.8739,296.483
2017-09-24 00:00:00,2017-09-24 00:00:00,TMP,surface,-102.188,27.8739,295.655
2017-09-24 00:00:00,2017-09-24 00:00:00,TMP,surface,-101.25,27.8739,296.659
2017-09-24 00:00:00,2017-09-24 00:00:00,TMP,surface,-100.313,27.8739,298.289
2017-09-24 00:00:00,2017-09-24 00:00:00,TMP,surface,-99.3754,27.8739,298.415
2017-09-24 00:00:00,2017-09-24 00:00:00,TMP,surface,-98.4379,27.8739,297.313
2017-09-24 00:00:00,2017-09-24 00:00:00,TMP,surface,-97.5004,27.8739,296.582
2017-09-24 00:00:00,2017-09-24 00:00:00,TMP,surface,-96.5629,27.8739,296.678
2017-09-24 00:00:00,2017-09-24 00:00:00,TMP,surface,-95.6254,27.8739,297.175
2017-09-24 00:00:00,2017-09-24 00:00:00,TMP,surface,-94.6879,27.8739,297.743
2017-09-24 00:00:00,2017-09-24 00:00:00,TMP,surface,-93.7504,27.8739,298.033
2017-09-24 00:00:00,2017-09-24 00:00:00,TMP,surface,-92.8129,27.8739,298.252
2017-09-24 00:00:00,2017-09-24 00:00:00,TMP,surface,-107.813,28.8188,288.003
2017-09-24 00:00:00,2017-09-24 00:00:00,TMP,surface,-106.875,28.8188,290.105
2017-09-24 00:00:00,2017-09-24 00:00:00,TMP,surface,-105.938,28.8188,294.534
2017-09-24 00:00:00,2017-09-24 00:00:00,TMP,surface,-105,28.8188,297.395
2017-09-24 00:00:00,2017-09-24 00:00:00,TMP,surface,-104.063,28.8188,296.619
2017-09-24 00:00:00,2017-09-24 00:00:00,TMP,surface,-103.125,28.8188,294.687
2017-09-24 00:00:00,2017-09-24 00:00:00,TMP,surface,-102.188,28.8188,294.623
2017-09-24 00:00:00,2017-09-24 00:00:00,TMP,surface,-101.25,28.8188,296.268
2017-09-24 00:00:00,2017-09-24 00:00:00,TMP,surface,-100.313,28.8188,296.995
2017-09-24 00:00:00,2017-09-24 00:00:00,TMP,surface,-99.3754,28.8188,296.521
2017-09-24 00:00:00,2017-09-24 00:00:00,TMP,surface,-98.4379,28.8188,296.11
2017-09-24 00:00:00,2017-09-24 00:00:00,TMP,surface,-97.5004,28.8188,296.211
2017-09-24 00:00:00,2017-09-24 00:00:00,TMP,surface,-96.5629,28.8188,296.598
2017-09-24 00:00:00,2017-09-24 00:00:00,TMP,surface,-95.6254,28.8188,296.438
2017-09-24 00:00:00,2017-09-24 00:00:00,TMP,surface,-94.6879,28.8188,296.015
2017-09-24 00:00:00,2017-09-24 00:00:00,TMP,surface,-93.7504,28.8188,296.929
2017-09-24 00:00:00,2017-09-24 00:00:00,TMP,surface,-92.8129,28.8188,297.443
2017-09-24 00:00:00,2017-09-24 00:00:00,TMP,surface,-107.813,29.7637,290.055
2017-09-24 00:00:00,2017-09-24 00:00:00,TMP,surface,-106.875,29.7637,292.076
2017-09-24 00:00:00,2017-09-24 00:00:00,TMP,surface,-105.938,29.7637,295.361
2017-09-24 00:00:00,2017-09-24 00:00:00,TMP,surface,-105,29.7637,295.982
2017-09-24 00:00:00,2017-09-24 00:00:00,TMP,surface,-104.063,29.7637,295.899
2017-09-24 00:00:00,2017-09-24 00:00:00,TMP,surface,-103.125,29.7637,295.532
2017-09-24 00:00:00,2017-09-24 00:00:00,TMP,surface,-102.188,29.7637,295.955
2017-09-24 00:00:00,2017-09-24 00:00:00,TMP,surface,-101.25,29.7637,296.23
2017-09-24 00:00:00,2017-09-24 00:00:00,TMP,surface,-100.313,29.7637,295.42
2017-09-24 00:00:00,2017-09-24 00:00:00,TMP,surface,-99.3754,29.7637,294.641
2017-09-24 00:00:00,2017-09-24 00:00:00,TMP,surface,-98.4379,29.7637,294.614
2017-09-24 00:00:00,2017-09-24 00:00:00,TMP,surface,-97.5004,29.7637,295.099
2017-09-24 00:00:00,2017-09-24 00:00:00,TMP,surface,-96.5629,29.7637,295.638
2017-09-24 00:00:00,2017-09-24 00:00:00,TMP,surface,-95.6254,29.7637,296.1
2017-09-24 00:00:00,2017-09-24 00:00:00,TMP,surface,-94.6879,29.7637,296.19
2017-09-24 00:00:00,2017-09-24 00:00:00,TMP,surface,-93.7504,29.7637,296.238
2017-09-24 00:00:00,2017-09-24 00:00:00,TMP,surface,-92.8129,29.7637,297.763
2017-09-24 00:00:00,2017-09-24 00:00:00,TMP,surface,-107.813,30.7085,293.753
2017-09-24 00:00:00,2017-09-24 00:00:00,TMP,surface,-106.875,30.7085,295.159
2017-09-24 00:00:00,2017-09-24 00:00:00,TMP,surface,-105.938,30.7085,295.318
2017-09-24 00:00:00,2017-09-24 00:00:00,TMP,surface,-105,30.7085,295.059
2017-09-24 00:00:00,2017-09-24 00:00:00,TMP,surface,-104.063,30.7085,294.836
2017-09-24 00:00:00,2017-09-24 00:00:00,TMP,surface,-103.125,30.7085,295.806
2017-09-24 00:00:00,2017-09-24 00:00:00,TMP,surface,-102.188,30.7085,296.209
2017-09-24 00:00:00,2017-09-24 00:00:00,TMP,surface,-101.25,30.7085,295.516
2017-09-24 00:00:00,2017-09-24 00:00:00,TMP,surface,-100.313,30.7085,294.254
2017-09-24 00:00:00,2017-09-24 00:00:00,TMP,surface,-99.3754,30.7085,293.639
2017-09-24 00:00:00,2017-09-24 00:00:00,TMP,surface,-98.4379,30.7085,293.891
2017-09-24 00:00:00,2017-09-24 00:00:00,TMP,surface,-97.5004,30.7085,294.484
2017-09-24 00:00:00,2017-09-24 00:00:00,TMP,surface,-96.5629,30.7085,295.335
2017-09-24 00:00:00,2017-09-24 00:00:00,TMP,surface,-95.6254,30.7085,296.099
2017-09-24 00:00:00,2017-09-24 00:00:00,TMP,surface,-94.6879,30.7085,296.291
2017-09-24 00:00:00,2017-09-24 00:00:00,TMP,surface,-93.7504,30.7085,296.452
2017-09-24 00:00:00,2017-09-24 00:00:00,TMP,surface,-92.8129,30.7085,296.497
2017-09-24 00:00:00,2017-09-24 00:00:00,TMP,surface,-107.813,31.6534,294.609
2017-09-24 00:00:00,2017-09-24 00:00:00,TMP,surface,-106.875,31.6534,295.215
2017-09-24 00:00:00,2017-09-24 00:00:00,TMP,surface,-105.938,31.6534,294.719
2017-09-24 00:00:00,2017-09-24 00:00:00,TMP,surface,-105,31.6534,294.411
2017-09-24 00:00:00,2017-09-24 00:00:00,TMP,surface,-104.063,31.6534,294.839
2017-09-24 00:00:00,2017-09-24 00:00:00,TMP,surface,-103.125,31.6534,295.203
2017-09-24 00:00:00,2017-09-24 00:00:00,TMP,surface,-102.188,31.6534,295.337
2017-09-24 00:00:00,2017-09-24 00:00:00,TMP,surface,-101.25,31.6534,294.537
2017-09-24 00:00:00,2017-09-24 00:00:00,TMP,surface,-100.313,31.6534,293.668
2017-09-24 00:00:00,2017-09-24 00:00:00,TMP,surface,-99.3754,31.6534,293.34
2017-09-24 00:00:00,2017-09-24 00:00:00,TMP,surface,-98.4379,31.6534,293.575
2017-09-24 00:00:00,2017-09-24 00:00:00,TMP,surface,-97.5004,31.6534,294.052
2017-09-24 00:00:00,2017-09-24 00:00:00,TMP,surface,-96.5629,31.6534,294.876
2017-09-24 00:00:00,2017-09-24 00:00:00,TMP,surface,-95.6254,31.6534,295.609
2017-09-24 00:00:00,2017-09-24 00:00:00,TMP,surface,-94.6879,31.6534,295.582
2017-09-24 00:00:00,2017-09-24 00:00:00,TMP,surface,-93.7504,31.6534,295.503
2017-09-24 00:00:00,2017-09-24 00:00:00,TMP,surface,-92.8129,31.6534,295.646
2017-09-24 00:00:00,2017-09-24 00:00:00,TMP,surface,-107.813,32.5983,291.583
2017-09-24 00:00:00,2017-09-24 00:00:00,TMP,surface,-106.875,32.5983,292.342
2017-09-24 00:00:00,2017-09-24 00:00:00,TMP,surface,-105.938,32.5983,292.782
2017-09-24 00:00:00,2017-09-24 00:00:00,TMP,surface,-105,32.5983,293.204
2017-09-24 00:00:00,2017-09-24 00:00:00,TMP,surface,-104.063,32.5983,294.035
2017-09-24 00:00:00,2017-09-24 00:00:00,TMP,surface,-103.125,32.5983,294.563
2017-09-24 00:00:00,2017-09-24 00:00:00,TMP,surface,-102.188,32.5983,294.206
2017-09-24 00:00:00,2017-09-24 00:00:00,TMP,surface,-101.25,32.5983,293.759
2017-09-24 00:00:00,2017-09-24 00:00:00,TMP,surface,-100.313,32.5983,293.747
2017-09-24 00:00:00,2017-09-24 00:00:00,TMP,surface,-99.3754,32.5983,293.726
2017-09-24 00:00:00,2017-09-24 00:00:00,TMP,surface,-98.4379,32.5983,293.67
2017-09-24 00:00:00,2017-09-24 00:00:00,TMP,surface,-97.5004,32.5983,293.777
2017-09-24 00:00:00,2017-09-24 00:00:00,TMP,surface,-96.5629,32.5983,294.222
2017-09-24 00:00:00,2017-09-24 00:00:00,TMP,surface,-95.6254,32.5983,294.695
2017-09-24 00:00:00,2017-09-24 00:00:00,TMP,surface,-94.6879,32.5983,294.751
2017-09-24 00:00:00,2017-09-24 00:00:00,TMP,surface,-93.7504,32.5983,294.708
2017-09-24 00:00:00,2017-09-24 00:00:00,TMP,surface,-92.8129,32.5983,294.844
2017-09-24 00:00:00,2017-09-24 00:00:00,TMP,surface,-107.813,33.5432,287.977
2017-09-24 00:00:00,2017-09-24 00:00:00,TMP,surface,-106.875,33.5432,289.606
2017-09-24 00:00:00,2017-09-24 00:00:00,TMP,surface,-105.938,33.5432,290.641
2017-09-24 00:00:00,2017-09-24 00:00:00,TMP,surface,-105,33.5432,291.851
2017-09-24 00:00:00,2017-09-24 00:00:00,TMP,surface,-104.063,33.5432,293.243
2017-09-24 00:00:00,2017-09-24 00:00:00,TMP,surface,-103.125,33.5432,293.452
2017-09-24 00:00:00,2017-09-24 00:00:00,TMP,surface,-102.188,33.5432,293.06
2017-09-24 00:00:00,2017-09-24 00:00:00,TMP,surface,-101.25,33.5432,292.809
2017-09-24 00:00:00,2017-09-24 00:00:00,TMP,surface,-100.313,33.5432,293.369
2017-09-24 00:00:00,2017-09-24 00:00:00,TMP,surface,-99.3754,33.5432,293.663
2017-09-24 00:00:00,2017-09-24 00:00:00,TMP,surface,-98.4379,33.5432,293.401
2017-09-24 00:00:00,2017-09-24 00:00:00,TMP,surface,-97.5004,33.5432,293.116
2017-09-24 00:00:00,2017-09-24 00:00:00,TMP,surface,-96.5629,33.5432,293.11
2017-09-24 00:00:00,2017-09-24 00:00:00,TMP,surface,-95.6254,33.5432,293.473
2017-09-24 00:00:00,2017-09-24 00:00:00,TMP,surface,-94.6879,33.5432,293.886
2017-09-24 00:00:00,2017-09-24 00:00:00,TMP,surface,-93.7504,33.5432,293.787
2017-09-24 00:00:00,2017-09-24 00:00:00,TMP,surface,-92.8129,33.5432,293.863
2017-09-24 00:00:00,2017-09-24 00:00:00,TMP,surface,-107.813,34.4881,287.062
2017-09-24 00:00:00,2017-09-24 00:00:00,TMP,surface,-106.875,34.4881,288.497
2017-09-24 00:00:00,2017-09-24 00:00:00,TMP,surface,-105.938,34.4881,289.26
2017-09-24 00:00:00,2017-09-24 00:00:00,TMP,surface,-105,34.4881,290.644
2017-09-24 00:00:00,2017-09-24 00:00:00,TMP,surface,-104.063,34.4881,291.867
2017-09-24 00:00:00,2017-09-24 00:00:00,TMP,surface,-103.125,34.4881,292.284
2017-09-24 00:00:00,2017-09-24 00:00:00,TMP,surface,-102.188,34.4881,292.015
2017-09-24 00:00:00,2017-09-24 00:00:00,TMP,surface,-101.25,34.4881,291.998
2017-09-24 00:00:00,2017-09-24 00:00:00,TMP,surface,-100.313,34.4881,292.443
2017-09-24 00:00:00,2017-09-24 00:00:00,TMP,surface,-99.3754,34.4881,292.814
2017-09-24 00:00:00,2017-09-24 00:00:00,TMP,surface,-98.4379,34.4881,292.641
2017-09-24 00:00:00,2017-09-24 00:00:00,TMP,surface,-97.5004,34.4881,292.311
2017-09-24 00:00:00,2017-09-24 00:00:00,TMP,surface,-96.5629,34.4881,292.51
2017-09-24 00:00:00,2017-09-24 00:00:00,TMP,surface,-95.6254,34.4881,293.049
2017-09-24 00:00:00,2017-09-24 00:00:00,TMP,surface,-94.6879,34.4881,293.166
2017-09-24 00:00:00,2017-09-24 00:00:00,TMP,surface,-93.7504,34.4881,292.926
2017-09-24 00:00:00,2017-09-24 00:00:00,TMP,surface,-92.8129,34.4881,293.035
2017-09-24 00:00:00,2017-09-24 00:00:00,TMP,surface,-107.813,35.4329,287.627
2017-09-24 00:00:00,2017-09-24 00:00:00,TMP,surface,-106.875,35.4329,287.833
2017-09-24 00:00:00,2017-09-24 00:00:00,TMP,surface,-105.938,35.4329,287.651
2017-09-24 00:00:00,2017-09-24 00:00:00,TMP,surface,-105,35.4329,288.268
2017-09-24 00:00:00,2017-09-24 00:00:00,TMP,surface,-104.063,35.4329,290.374
2017-09-24 00:00:00,2017-09-24 00:00:00,TMP,surface,-103.125,35.4329,291.446
2017-09-24 00:00:00,2017-09-24 00:00:00,TMP,surface,-102.188,35.4329,291.54
2017-09-24 00:00:00,2017-09-24 00:00:00,TMP,surface,-101.25,35.4329,291.534
2017-09-24 00:00:00,2017-09-24 00:00:00,TMP,surface,-100.313,35.4329,291.455
2017-09-24 00:00:00,2017-09-24 00:00:00,TMP,surface,-99.3754,35.4329,291.639
2017-09-24 00:00:00,2017-09-24 00:00:00,TMP,surface,-98.4379,35.4329,291.737
2017-09-24 00:00:00,2017-09-24 00:00:00,TMP,surface,-97.5004,35.4329,291.71
2017-09-24 00:00:00,2017-09-24 00:00:00,TMP,surface,-96.5629,35.4329,291.721
2017-09-24 00:00:00,2017-09-24 00:00:00,TMP,surface,-95.6254,35.4329,291.963
2017-09-24 00:00:00,2017-09-24 00:00:00,TMP,surface,-94.6879,35.4329,292.193
2017-09-24 00:00:00,2017-09-24 00:00:00,TMP,surface,-93.7504,35.4329,291.841
2017-09-24 00:00:00,2017-09-24 00:00:00,TMP,surface,-92.8129,35.4329,291.791
2017-09-24 00:00:00,2017-09-24 00:00:00,TMP,surface,-107.813,36.3778,286.598
2017-09-24 00:00:00,2017-09-24 00:00:00,TMP,surface,-106.875,36.3778,284.351
2017-09-24 00:00:00,2017-09-24 00:00:00,TMP,surface,-105.938,36.3778,284.726
2017-09-24 00:00:00,2017-09-24 00:00:00,TMP,surface,-105,36.3778,285.638
2017-09-24 00:00:00,2017-09-24 00:00:00,TMP,surface,-104.063,36.3778,288.097
2017-09-24 00:00:00,2017-09-24 00:00:00,TMP,surface,-103.125,36.3778,289.364
2017-09-24 00:00:00,2017-09-24 00:00:00,TMP,surface,-102.188,36.3778,290.166
2017-09-24 00:00:00,2017-09-24 00:00:00,TMP,surface,-101.25,36.3778,290.534
2017-09-24 00:00:00,2017-09-24 00:00:00,TMP,surface,-100.313,36.3778,290.779
2017-09-24 00:00:00,2017-09-24 00:00:00,TMP,surface,-99.3754,36.3778,290.996
2017-09-24 00:00:00,2017-09-24 00:00:00,TMP,surface,-98.4379,36.3778,290.979
2017-09-24 00:00:00,2017-09-24 00:00:00,TMP,surface,-97.5004,36.3778,290.967
2017-09-24 00:00:00,2017-09-24 00:00:00,TMP,surface,-96.5629,36.3778,291.079
2017-09-24 00:00:00,2017-09-24 00:00:00,TMP,surface,-95.6254,36.3778,291.345
2017-09-24 00:00:00,2017-09-24 00:00:00,TMP,surface,-94.6879,36.3778,291.537
2017-09-24 00:00:00,2017-09-24 00:00:00,TMP,surface,-93.7504,36.3778,291.108
2017-09-24 00:00:00,2017-09-24 00:00:00,TMP,surface,-92.8129,36.3778,290.843
2017-09-24 00:00:00,2017-09-24 00:00:00,PRATE,surface,-107.813,25.0393,0
2017-09-24 00:00:00,2017-09-24 00:00:00,PRATE,surface,-106.875,25.0393,0
2017-09-24 00:00:00,2017-09-24 00:00:00,PRATE,surface,-105.938,25.0393,1.7e-06
2017-09-24 00:00:00,2017-09-24 00:00:00,PRATE,surface,-105,25.0393,1.9e-06
2017-09-24 00:00:00,2017-09-24 00:00:00,PRATE,surface,-104.063,25.0393,2.6e-06
2017-09-24 00:00:00,2017-09-24 00:00:00,PRATE,surface,-103.125,25.0393,1.1e-06
2017-09-24 00:00:00,2017-09-24 00:00:00,PRATE,surface,-102.188,25.0393,1.75e-05
2017-09-24 00:00:00,2017-09-24 00:00:00,PRATE,surface,-101.25,25.0393,5.79e-05
2017-09-24 00:00:00,2017-09-24 00:00:00,PRATE,surface,-100.313,25.0393,8.45e-05
2017-09-24 00:00:00,2017-09-24 00:00:00,PRATE,surface,-99.3754,25.0393,2.81e-05
2017-09-24 00:00:00,2017-09-24 00:00:00,PRATE,surface,-98.4379,25.0393,9.3e-06
2017-09-24 00:00:00,2017-09-24 00:00:00,PRATE,surface,-97.5004,25.0393,1.19e-05
2017-09-24 00:00:00,2017-09-24 00:00:00,PRATE,surface,-96.5629,25.0393,1.27e-05
2017-09-24 00:00:00,2017-09-24 00:00:00,PRATE,surface,-95.6254,25.0393,5.5e-06
2017-09-24 00:00:00,2017-09-24 00:00:00,PRATE,surface,-94.6879,25.0393,1.4e-06
2017-09-24 00:00:00,2017-09-24 00:00:00,PRATE,surface,-93.7504,25.0393,1.8e-06
2017-09-24 00:00:00,2017-09-24 00:00:00,PRATE,surface,-92.8129,25.0393,1.2e-06
2017-09-24 00:00:00,2017-09-24 00:00:00,PRATE,surface,-107.813,25.9842,4e-07
2017-09-24 00:00:00,2017-09-24 00:00:00,PRATE,surface,-106.875,25.9842,3e-06
2017-09-24 00:00:00,2017-09-24 00:00:00,PRATE,surface,-105.938,25.9842,3.8e-06
2017-09-24 00:00:00,2017-09-24 00:00:00,PRATE,surface,-105,25.9842,4e-06
2017-09-24 00:00:00,2017-09-24 00:00:00,PRATE,surface,-104.063,25.9842,3.3e-06
2017-09-24 00:00:00,2017-09-24 00:00:00,PRATE,surface,-103.125,25.9842,8e-07
2017-09-24 00:00:00,2017-09-24 00:00:00,PRATE,surface,-102.188,25.9842,1.91e-05
2017-09-24 00:00:00,2017-09-24 00:00:00,PRATE,surface,-101.25,25.9842,6.63e-05
2017-09-24 00:00:00,2017-09-24 00:00:00,PRATE,surface,-100.313,25.9842,7.98e-05
2017-09-24 00:00:00,2017-09-24 00:00:00,PRATE,surface,-99.3754,25.9842,2.53e-05
2017-09-24 00:00:00,2017-09-24 00:00:00,PRATE,surface,-98.4379,25.9842,1.35e-05
2017-09-24 00:00:00,2017-09-24 00:00:00,PRATE,surface,-97.5004,25.9842,2.27e-05
2017-09-24 00:00:00,2017-09-24 00:00:00,PRATE,surface,-96.5629,25.9842,2.85e-05
2017-09-24 00:00:00,2017-09-24 00:00:00,PRATE,surface,-95.6254,25.9842,2.02e-05
2017-09-24 00:00:00,2017-09-24 00:00:00,PRATE,surface,-94.6879,25.9842,1.05e-05
2017-09-24 00:00:00,2017-09-24 00:00:00,PRATE,surface,-93.7504,25.9842,8e-06
2017-09-24 00:00:00,2017-09-24 00:00:00,PRATE,surface,-92.8129,25.9842,7.3e-06
2017-09-24 00:00:00,2017-09-24 00:00:00,PRATE,surface,-107.813,26.929,1.08e-05
2017-09-24 00:00:00,2017-09-24 00:00:00,PRATE,surface,-106.875,26.929,1.48e-05
2017-09-24 00:00:00,2017-09-24 00:00:00,PRATE,surface,-105.938,26.929,8.6e-06
2017-09-24 00:00:00,2017-09-24 00:00:00,PRATE,surface,-105,26.929,5.6e-06
2017-09-24 00:00:00,2017-09-24 00:00:00,PRATE,surface,-104.063,26.929,3.6e-06
2017-09-24 00:00:00,2017-09-24 00:00:00,PRATE,surface,-103.125,26.929,1.11e-05
2017-09-24 00:00:00,2017-09-24 00:00:00,PRATE,surface,-102.188,26.929,4.99e-05
2017-09-24 00:00:00,2017-09-24 00:00:00,PRATE,surface,-101.25,26.929,0.0001048
2017-09-24 00:00:00,2017-09-24 00:00:00,PRATE,surface,-100.313,26.929,4.43e-05
2017-09-24 00:00:00,2017-09-24 00:00:00,PRATE,surface,-99.3754,26.929,2.25e-05
2017-09-24 00:00:00,2017-09-24 00:00:00,PRATE,surface,-98.4379,26.929,2.64e-05
2017-09-24 00:00:00,2017-09-24 00:00:00,PRATE,surface,-97.5004,26.929,4.07e-05
2017-09-24 00:00:00,2017-09-24 00:00:00,PRATE,surface,-96.5629,26.929,4.71e-05
2017-09-24 00:00:00,2017-09-24 00:00:00,PRATE,surface,-95.6254,26.929,4.01e-05
2017-09-24 00:00:00,2017-09-24 00:00:00,PRATE,surface,-94.6879,26.929,3.7e-05
2017-09-24 00:00:00,2017-09-24 00:00:00,PRATE,surface,-93.7504,26.929,2.83e-05
2017-09-24 00:00:00,2017-09-24 00:00:00,PRATE,surface,-92.8129,26.929,2.24e-05
2017-09-24 00:00:00,2017-09-24 00:00:00,PRATE,surface,-107.813,27.8739,1.69e-05
2017-09-24 00:00:00,2017-09-24 00:00:00,PRATE,surface,-106.875,27.8739,1.62e-05
2017-09-24 00:00:00,2017-09-24 00:00:00,PRATE,surface,-105.938,27.8739,8.9e-06
2017-09-24 00:00:00,2017-09-24 00:00:00,PRATE,surface,-105,27.8739,1.6e-06
2017-09-24 00:00:00,2017-09-24 00:00:00,PRATE,surface,-104.063,27.8739,7.8e-06
2017-09-24 00:00:00,2017-09-24 00:00:00,PRATE,surface,-103.125,27.8739,3.93e-05
2017-09-24 00:00:00,2017-09-24 00:00:00,PRATE,surface,-102.188,27.8739,0.0001109
2017-09-24 00:00:00,2017-09-24 00:00:00,PRATE,surface,-101.25,27.8739,8.84e-05
2017-09-24 00:00:00,2017-09-24 00:00:00,PRATE,surface,-100.313,27.8739,4.09e-05
2017-09-24 00:00:00,2017-09-24 00:00:00,PRATE,surface,-99.3754,27.8739,2.96e-05
2017-09-24 00:00:00,2017-09-24 00:00:00,PRATE,surface,-98.4379,27.8739,3.19e-05
2017-09-24 00:00:00,2017-09-24 00:00:00,PRATE,surface,-97.5004,27.8739,3.23e-05
2017-09-24 00:00:00,2017-09-24 00:00:00,PRATE,surface,-96.5629,27.8739,3.74e-05
2017-09-24 00:00:00,2017-09-24 00:00:00,PRATE,surface,-95.6254,27.8739,4.25e-05
2017-09-24 00:00:00,2017-09-24 00:00:00,PRATE,surface,-94.6879,27.8739,3.8e-05
2017-09-24 00:00:00,2017-09-24 00:00:00,PRATE,surface,-93.7504,27.8739,2.88e-05
2017-09-24 00:00:00,2017-09-24 00:00:00,PRATE,surface,-92.8129,27.8739,2.14e-05
2017-09-24 00:00:00,2017-09-24 00:00:00,PRATE,surface,-107.813,28.8188,1.97e-05
2017-09-24 00:00:00,2017-09-24 00:00:00,PRATE,surface,-106.875,28.8188,2.44e-05
2017-09-24 00:00:00,2017-09-24 00:00:00,PRATE,surface,-105.938,28.8188,8e-06
2017-09-24 00:00:00,2017-09-24 00:00:00,PRATE,surface,-105,28.8188,2.3e-06
2017-09-24 00:00:00,2017-09-24 00:00:00,PRATE,surface,-104.063,28.8188,1.37e-05
2017-09-24 00:00:00,2017-09-24 00:00:00,PRATE,surface,-103.125,28.8188,6.08e-05
2017-09-24 00:00:00,2017-09-24 00:00:00,PRATE,surface,-102.188,28.8188,9.42e-05
2017-09-24 00:00:00,2017-09-24 00:00:00,PRATE,surface,-101.25,28.8188,7.17e-05
2017-09-24 00:00:00,2017-09-24 00:00:00,PRATE,surface,-100.313,28.8188,5.12e-05
2017-09-24 00:00:00,2017-09-24 00:00:00,PRATE,surface,-99.3754,28.8188,4.71e-05
2017-09-24 00:00:00,2017-09-24 00:00:00,PRATE,surface,-98.4379,28.8188,4.12e-05
2017-09-24 00:00:00,2017-09-24 00:00:00,PRATE,surface,-97.5004,28.8188,2.92e-05
2017-09-24 00:00:00,2017-09-24 00:00:00,PRATE,surface,-96.5629,28.8188,3.13e-05
2017-09-24 00:00:00,2017-09-24 00:00:00,PRATE,surface,-95.6254,28.8188,4.81e-05
2017-09-24 00:00:00,2017-09-24 00:00:00,PRATE,surface,-94.6879,28.8188,5.71e-05
2017-09-24 00:00:00,2017-09-24 00:00:00,PRATE,surface,-93.7504,28.8188,5.58e-05
2017-09-24 00:00:00,2017-09-24 00:00:00,PRATE,surface,-92.8129,28.8188,4.73e-05
2017-09-24 00:00:00,2017-09-24 00:00:00,PRATE,surface,-107.813,29.7637,2.09e-05
2017-09-24 00:00:00,2017-09-24 00:00:00,PRATE,surface,-106.875,29.7637,2.19e-05
2017-09-24 00:00:00,2017-09-24 00:00:00,PRATE,surface,-105.938,29.7637,1.07e-05
2017-09-24 00:00:00,2017-09-24 00:00:00,PRATE,surface,-105,29.7637,7.1e-06
2017-09-24 00:00:00,2017-09-24 00:00:00,PRATE,surface,-104.063,29.7637,2.82e-05
2017-09-24 00:00:00,2017-09-24 00:00:00,PRATE,surface,-103.125,29.7637,5.08e-05
2017-09-24 00:00:00,2017-09-24 00:00:00,PRATE,surface,-102.188,29.7637,5.92e-05
2017-09-24 00:00:00,2017-09-24 00:00:00,PRATE,surface,-101.25,29.7637,6e-05
2017-09-24 00:00:00,2017-09-24 00:00:00,PRATE,surface,-100.313,29.7637,7.56e-05
2017-09-24 00:00:00,2017-09-24 00:00:00,PRATE,surface,-99.3754,29.7637,8.69e-05
2017-09-24 00:00:00,2017-09-24 00:00:00,PRATE,surface,-98.4379,29.7637,8.06e-05
2017-09-24 00:00:00,2017-09-24 00:00:00,PRATE,surface,-97.5004,29.7637,6.5e-05
2017-09-24 00:00:00,2017-09-24 00:00:00,PRATE,surface,-96.5629,29.7637,6.36e-05
2017-09-24 00:00:00,2017-09-24 00:00:00,PRATE,surface,-95.6254,29.7637,7.69e-05
2017-09-24 00:00:00,2017-09-24 00:00:00,PRATE,surface,-94.6879,29.7637,8.46e-05
2017-09-24 00:00:00,2017-09-24 00:00:00,PRATE,surface,-93.7504,29.7637,9.24e-05
2017-09-24 00:00:00,2017-09-24 00:00:00,PRATE,surface,-92.8129,29.7637,0.0001028
2017-09-24 00:00:00,2017-09-24 00:00:00,PRATE,surface,-107.813,30.7085,6.8e-06
2017-09-24 00:00:00,2017-09-24 00:00:00,PRATE,surface,-106.875,30.7085,6.6e-06
2017-09-24 00:00:00,2017-09-24 00:00:00,PRATE,surface,-105.938,30.7085,1.26e-05
2017-09-24 00:00:00,2017-09-24 00:00:00,PRATE,surface,-105,30.7085,1.61e-05
2017-09-24 00:00:00,2017-09-24 00:00:00,PRATE,surface,-104.063,30.7085,2.5e-05
2017-09-24 00:00:00,2017-09-24 00:00:00,PRATE,surface,-103.125,30.7085,3.61e-05
2017-09-24 00:00:00,2017-09-24 00:00:00,PRATE,surface,-102.188,30.7085,4.23e-05
2017-09-24 00:00:00,2017-09-24 00:00:00,PRATE,surface,-101.25,30.7085,6.55e-05
2017-09-24 00:00:00,2017-09-24 00:00:00,PRATE,surface,-100.313,30.7085,9.44e-05
2017-09-24 00:00:00,2017-09-24 00:00:00,PRATE,surface,-99.3754,30.7085,0.0001133
2017-09-24 00:00:00,2017-09-24 00:00:00,PRATE,surface,-98.4379,30.7085,0.0001063
2017-09-24 00:00:00,2017-09-24 00:00:00,PRATE,surface,-97.5004,30.7085,8.97e-05
2017-09-24 00:00:00,2017-09-24 00:00:00,PRATE,surface,-96.5629,30.7085,8.59e-05
2017-09-24 00:00:00,2017-09-24 00:00:00,PRATE,surface,-95.6254,30.7085,8.78e-05
2017-09-24 00:00:00,2017-09-24 00:00:00,PRATE,surface,-94.6879,30.7085,8.64e-05
2017-09-24 00:00:00,2017-09-24 00:00:00,PRATE,surface,-93.7504,30.7085,9.74e-05
2017-09-24 00:00:00,2017-09-24 00:00:00,PRATE,surface,-92.8129,30.7085,0.0001184
2017-09-24 00:00:00,2017-09-24 00:00:00,PRATE,surface,-107.813,31.6534,4.7e-06
2017-09-24 00:00:00,2017-09-24 00:00:00,PRATE,surface,-106.875,31.6534,5.5e-06
2017-09-24 00:00:00,2017-09-24 00:00:00,PRATE,surface,-105.938,31.6534,1.07e-05
2017-09-24 00:00:00,2017-09-24 00:00:00,PRATE,surface,-105,31.6534,1.03e-05
2017-09-24 00:00:00,2017-09-24 00:00:00,PRATE,surface,-104.063,31.6534,2.19e-05
2017-09-24 00:00:00,2017-09-24 00:00:00,PRATE,surface,-103.125,31.6534,3.43e-05
2017-09-24 00:00:00,2017-09-24 00:00:00,PRATE,surface,-102.188,31.6534,5.5e-05
2017-09-24 00:00:00,2017-09-24 00:00:00,PRATE,surface,-101.25,31.6534,7.92e-05
2017-09-24 00:00:00,2017-09-24 00:00:00,PRATE,surface,-100.313,31.6534,0.0001152
2017-09-24 00:00:00,2017-09-24 00:00:00,PRATE,surface,-99.3754,31.6534,0.0001179
2017-09-24 00:00:00,2017-09-24 00:00:00,PRATE,surface,-98.4379,31.6534,0.0001082
2017-09-24 00:00:00,2017-09-24 00:00:00,PRATE,surface,-97.5004,31.6534,0.0001045
2017-09-24 00:00:00,2017-09-24 00:00:00,PRATE,surface,-96.5629,31.6534,0.0001006
2017-09-24 00:00:00,2017-09-24 00:00:00,PRATE,surface,-95.6254,31.6534,9.97e-05
2017-09-24 00:00:00,2017-09-24 00:00:00,PRATE,surface,-94.6879,31.6534,0.0001042
2017-09-24 00:00:00,2017-09-24 00:00:00,PRATE,surface,-93.7504,31.6534,9.97e-05
2017-09-24 00:00:00,2017-09-24 00:00:00,PRATE,surface,-92.8129,31.6534,8.18e-05
2017-09-24 00:00:00,2017-09-24 00:00:00,PRATE,surface,-107.813,32.5983,1e-05
2017-09-24 00:00:00,2017-09-24 00:00:00,PRATE,surface,-106.875,32.5983,1.14e-05
2017-09-24 00:00:00,2017-09-24 00:00:00,PRATE,surface,-105.938,32.5983,8.5e-06
2017-09-24 00:00:00,2017-09-24 00:00:00,PRATE,surface,-105,32.5983,9.6e-06
2017-09-24 00:00:00,2017-09-24 00:00:00,PRATE,surface,-104.063,32.5983,1.12e-05
2017-09-24 00:00:00,2017-09-24 00:00:00,PRATE,surface,-103.125,32.5983,2.77e-05
2017-09-24 00:00:00,2017-09-24 00:00:00,PRATE,surface,-102.188,32.5983,5.95e-05
2017-09-24 00:00:00,2017-09-24 00:00:00,PRATE,surface,-101.25,32.5983,7.68e-05
2017-09-24 00:00:00,2017-09-24 00:00:00,PRATE,surface,-100.313,32.5983,8.2e-05
2017-09-24 00:00:00,2017-09-24 00:00:00,PRATE,surface,-99.3754,32.5983,8.08e-05
2017-09-24 00:00:00,2017-09-24 00:00:00,PRATE,surface,-98.4379,32.5983,8.32e-05
2017-09-24 00:00:00,2017-09-24 00:00:00,PRATE,surface,-97.5004,32.5983,9.06e-05
2017-09-24 00:00:00,2017-09-24 00:00:00,PRATE,surface,-96.5629,32.5983,9.21e-05
2017-09-24 00:00:00,2017-09-24 00:00:00,PRATE,surface,-95.6254,32.5983,9.38e-05
2017-09-24 00:00:00,2017-09-24 00:00:00,PRATE,surface,-94.6879,32.5983,0.0001053
2017-09-24 00:00:00,2017-09-24 00:00:00,PRATE,surface,-93.7504,32.5983,0.0001048
2017-09-24 00:00:00,2017-09-24 00:00:00,PRATE,surface,-92.8129,32.5983,8.61e-05
2017-09-24 00:00:00,2017-09-24 00:00:00,PRATE,surface,-107.813,33.5432,2.17e-05
2017-09-24 00:00:00,2017-09-24 00:00:00,PRATE,surface,-106.875,33.5432,2.08e-05
2017-09-24 00:00:00,2017-09-24 00:00:00,PRATE,surface,-105.938,33.5432,1.67e-05
2017-09-24 00:00:00,2017-09-24 00:00:00,PRATE,surface,-105,33.5432,1.29e-05
2017-09-24 00:00:00,2017-09-24 00:00:00,PRATE,surface,-104.063,33.5432,1.39e-05
2017-09-24 00:00:00,2017-09-24 00:00:00,PRATE,surface,-103.125,33.5432,2.01e-05
2017-09-24 00:00:00,2017-09-24 00:00:00,PRATE,surface,-102.188,33.5432,4.69e-05
2017-09-24 00:00:00,2017-09-24 00:00:00,PRATE,surface,-101.25,33.5432,5.98e-05
2017-09-24 00:00:00,2017-09-24 00:00:00,PRATE,surface,-100.313,33.5432,5.38e-05
2017-09-24 00:00:00,2017-09-24 00:00:00,PRATE,surface,-99.3754,33.5432,4.41e-05
2017-09-24 00:00:00,2017-09-24 00:00:00,PRATE,surface,-98.4379,33.5432,4.73e-05
2017-09-24 00:00:00,2017-09-24 00:00:00,PRATE,surface,-97.5004,33.5432,6.05e-05
2017-09-24 00:00:00,2017-09-24 00:00:00,PRATE,surface,-96.5629,33.5432,6.61e-05
2017-09-24 00:00:00,2017-09-24 00:00:00,PRATE,surface,-95.6254,33.5432,6.38e-05
2017-09-24 00:00:00,2017-09-24 00:00:00,PRATE,surface,-94.6879,33.5432,6.8e-05
2017-09-24 00:00:00,2017-09-24 00:00:00,PRATE,surface,-93.7504,33.5432,7.29e-05
2017-09-24 00:00:00,2017-09-24 00:00:00,PRATE,surface,-92.8129,33.5432,6.76e-05
2017-09-24 00:00:00,2017-09-24 00:00:00,PRATE,surface,-107.813,34.4881,1.9e-05
2017-09-24 00:00:00,2017-09-24 00:00:00,PRATE,surface,-106.875,34.4881,2.31e-05
2017-09-24 00:00:00,2017-09-24 00:00:00,PRATE,surface,-105.938,34.4881,2.74e-05
2017-09-24 00:00:00,2017-09-24 00:00:00,PRATE,surface,-105,34.4881,2.67e-05
2017-09-24 00:00:00,2017-09-24 00:00:00,PRATE,surface,-104.063,34.4881,1.85e-05
2017-09-24 00:00:00,2017-09-24 00:00:00,PRATE,surface,-103.125,34.4881,1.39e-05
2017-09-24 00:00:00,2017-09-24 00:00:00,PRATE,surface,-102.188,34.4881,3.08e-05
2017-09-24 00:00:00,2017-09-24 00:00:00,PRATE,surface,-101.25,34.4881,4.42e-05
2017-09-24 00:00:00,2017-09-24 00:00:00,PRATE,surface,-100.313,34.4881,3.98e-05
2017-09-24 00:00:00,2017-09-24 00:00:00,PRATE,surface,-99.3754,34.4881,3.93e-05
2017-09-24 00:00:00,2017-09-24 00:00:00,PRATE,surface,-98.4379,34.4881,4.5e-05
2017-09-24 00:00:00,2017-09-24 00:00:00,PRATE,surface,-97.5004,34.4881,5.71e-05
2017-09-24 00:00:00,2017-09-24 00:00:00,PRATE,surface,-96.5629,34.4881,6.38e-05
2017-09-24 00:00:00,2017-09-24 00:00:00,PRATE,surface,-95.6254,34.4881,5.7e-05
2017-09-24 00:00:00,2017-09-24 00:00:00,PRATE,surface,-94.6879,34.4881,5.04e-05
2017-09-24 00:00:00,2017-09-24 00:00:00,PRATE,surface,-93.7504,34.4881,4.83e-05
2017-09-24 00:00:00,2017-09-24 00:00:00,PRATE,surface,-92.8129,34.4881,4.3e-05
2017-09-24 00:00:00,2017-09-24 00:00:00,PRATE,surface,-107.813,35.4329,7.5e-06
2017-09-24 00:00:00,2017-09-24 00:00:00,PRATE,surface,-106.875,35.4329,1.16e-05
2017-09-24 00:00:00,2017-09-24 00:00:00,PRATE,surface,-105.938,35.4329,2.3e-05
2017-09-24 00:00:00,2017-09-24 00:00:00,PRATE,surface,-105,35.4329,3.65e-05
2017-09-24 00:00:00,2017-09-24 00:00:00,PRATE,surface,-104.063,35.4329,2.38e-05
2017-09-24 00:00:00,2017-09-24 00:00:00,PRATE,surface,-103.125,35.4329,1.5e-05
2017-09-24 00:00:00,2017-09-24 00:00:00,PRATE,surface,-102.188,35.4329,1.99e-05
2017-09-24 00:00:00,2017-09-24 00:00:00,PRATE,surface,-101.25,35.4329,3.19e-05
2017-09-24 00:00:00,2017-09-24 00:00:00,PRATE,surface,-100.313,35.4329,3.34e-05
2017-09-24 00:00:00,2017-09-24 00:00:00,PRATE,surface,-99.3754,35.4329,3.12e-05
2017-09-24 00:00:00,2017-09-24 00:00:00,PRATE,surface,-98.4379,35.4329,3.35e-05
2017-09-24 00:00:00,2017-09-24 00:00:00,PRATE,surface,-97.5004,35.4329,3.63e-05
2017-09-24 00:00:00,2017-09-24 00:00:00,PRATE,surface,-96.5629,35.4329,3.63e-05
2017-09-24 00:00:00,2017-09-24 00:00:00,PRATE,surface,-95.6254,35.4329,3.89e-05
2017-09-24 00:00:00,2017-09-24 00:00:00,PRATE,surface,-94.6879,35.4329,4.73e-05
2017-09-24 00:00:00,2017-09-24 00:00:00,PRATE,surface,-93.7504,35.4329,5.35e-05
2017-09-24 00:00:00,2017-09-24 00:00:00,PRATE,surface,-92.8129,35.4329,5.01e-05
2017-09-24 00:00:00,2017-09-24 00:00:00,PRATE,surface,-107.813,36.3778,3.6e-06
2017-09-24 00:00:00,2017-09-24 00:00:00,PRATE,surface,-106.875,36.3778,1.28e-05
2017-09-24 00:00:00,2017-09-24 00:00:00,PRATE,surface,-105.938,36.3778,2.61e-05
2017-09-24 00:00:00,2017-09-24 00:00:00,PRATE,surface,-105,36.3778,3.48e-05
2017-09-24 00:00:00,2017-09-24 00:00:00,PRATE,surface,-104.063,36.3778,2.86e-05
2017-09-24 00:00:00,2017-09-24 00:00:00,PRATE,surface,-103.125,36.3778,1.79e-05
2017-09-24 00:00:00,2017-09-24 00:00:00,PRATE,surface,-102.188,36.3778,1.49e-05
2017-09-24 00:00:00,2017-09-24 00:00:00,PRATE,surface,-101.25,36.3778,2.24e-05
2017-09-24 00:00:00,2017-09-24 00:00:00,PRATE,surface,-100.313,36.3778,3.63e-05
2017-09-24 00:00:00,2017-09-24 00:00:00,PRATE,surface,-99.3754,36.3778,4.18e-05
2017-09-24 00:00:00,2017-09-24 00:00:00,PRATE,surface,-98.4379,36.3778,4.07e-05
2017-09-24 00:00:00,2017-09-24 00:00:00,PRATE,surface,-97.5004,36.3778,3.75e-05
2017-09-24 00:00:00,2017-09-24 00:00:00,PRATE,surface,-96.5629,36.3778,3.85e-05
2017-09-24 00:00:00,2017-09-24 00:00:00,PRATE,surface,-95.6254,36.3778,4.29e-05
2017-09-24 00:00:00,2017-09-24 00:00:00,PRATE,surface,-94.6879,36.3778,4.48e-05
2017-09-24 00:00:00,2017-09-24 00:00:00,PRATE,surface,-93.7504,36.3778,5e-05
2017-09-24 00:00:00,2017-09-24 00:00:00,PRATE,surface,-92.8129,36.3778,5.8e-05
