2011-09-11 00:00:00,2011-09-11 00:00:00,TMP,surface,-107.813,25.0393,292.533
2011-09-11 00:00:00,2011-09-11 00:00:00,TMP,surface,-106.875,25.0393,286.897
2011-09-11 00:00:00,2011-09-11 00:00:00,TMP,surface,-105.938,25.0393,281.992
2011-09-11 00:00:00,2011-09-11 00:00:00,TMP,surface,-105,25.0393,281.92
2011-09-11 00:00:00,2011-09-11 00:00:00,TMP,surface,-104.063,25.0393,286.137
2011-09-11 00:00:00,2011-09-11 00:00:00,TMP,surface,-103.125,25.0393,288.278
2011-09-11 00:00:00,2011-09-11 00:00:00,TMP,surface,-102.188,25.0393,287.937
2011-09-11 00:00:00,2011-09-11 00:00:00,TMP,surface,-101.25,25.0393,286.44
2011-09-11 00:00:00,2011-09-11 00:00:00,TMP,surface,-100.313,25.0393,287.099
2011-09-11 00:00:00,2011-09-11 00:00:00,TMP,surface,-99.3754,25.0393,289.822
2011-09-11 00:00:00,2011-09-11 00:00:00,TMP,surface,-98.4379,25.0393,292.867
2011-09-11 00:00:00,2011-09-11 00:00:00,TMP,surface,-97.5004,25.0393,295.256
2011-09-11 00:00:00,2011-09-11 00:00:00,TMP,surface,-96.5629,25.0393,295.365
2011-09-11 00:00:00,2011-09-11 00:00:00,TMP,surface,-95.6254,25.0393,295.521
2011-09-11 00:00:00,2011-09-11 00:00:00,TMP,surface,-94.6879,25.0393,295.66
2011-09-11 00:00:00,2011-09-11 00:00:00,TMP,surface,-93.7504,25.0393,295.638
2011-09-11 00:00:00,2011-09-11 00:00:00,TMP,surface,-92.8129,25.0393,295.726
2011-09-11 00:00:00,2011-09-11 00:00:00,TMP,surface,-107.813,25.9842,287.872
2011-09-11 00:00:00,2011-09-11 00:00:00,TMP,surface,-106.875,25.9842,281.961
2011-09-11 00:00:00,2011-09-11 00:00:00,TMP,surface,-105.938,25.9842,281.019
2011-09-11 00:00:00,2011-09-11 00:00:00,TMP,surface,-105,25.9842,284.352
2011-09-11 00:00:00,2011-09-11 00:00:00,TMP,surface,-104.063,25.9842,288.398
2011-09-11 00:00:00,2011-09-11 00:00:00,TMP,surface,-103.125,25.9842,289.947
2011-09-11 00:00:00,2011-09-11 00:00:00,TMP,surface,-102.188,25.9842,289.257
2011-09-11 00:00:00,2011-09-11 00:00:00,TMP,surface,-101.25,25.9842,288.347
2011-09-11 00:00:00,2011-09-11 00:00:00,TMP,surface,-100.313,25.9842,288.811
2011-09-11 00:00:00,2011-09-11 00:00:00,TMP,surface,-99.3754,25.9842,291.254
2011-09-11 00:00:00,2011-09-11 00:00:00,TMP,surface,-98.4379,25.9842,293.014
2011-09-11 00:00:00,2011-09-11 00:00:00,TMP,surface,-97.5004,25.9842,293.8
2011-09-11 00:00:00,2011-09-11 00:00:00,TMP,surface,-96.5629,25.9842,294.752
2011-09-11 00:00:00,2011-09-11 00:00:00,TMP,surface,-95.6254,25.9842,294.977
2011-09-11 00:00:00,2011-09-11 00:00:00,TMP,surface,-94.6879,25.9842,295.113
2011-09-11 00:00:00,2011-09-11 00:00:00,TMP,surface,-93.7504,25.9842,295.102
2011-09-11 00:00:00,2011-09-11 00:00:00,TMP,surface,-92.8129,25.9842,295.235
2011-09-11 00:00:00,2011-09-11 00:00:00,TMP,surface,-107.813,26.929,282.646
2011-09-11 00:00:00,2011-09-11 00:00:00,TMP,surface,-106.875,26.929,279.571
2011-09-11 00:00:00,2011-09-11 00:00:00,TMP,surface,-105.938,26.929,282.905
2011-09-11 00:00:00,2011-09-11 00:00:00,TMP,surface,-105,26.929,287.072
2011-09-11 00:00:00,2011-09-11 00:00:00,TMP,surface,-104.063,26.929,288.616
2011-09-11 00:00:00,2011-09-11 00:00:00,TMP,surface,-103.125,26.929,288.136
2011-09-11 00:00:00,2011-09-11 00:00:00,TMP,surface,-102.188,26.929,287.924
2011-09-11 00:00:00,2011-09-11 00:00:00,TMP,surface,-101.25,26.929,288.849
2011-09-11 00:00:00,2011-09-11 00:00:00,TMP,surface,-100.313,26.929,290.19
2011-09-11 00:00:00,2011-09-11 00:00:00,TMP,surface,-99.3754,26.929,291.489
2011-09-11 00:00:00,2011-09-11 00:00:00,TMP,surface,-98.4379,26.929,291.83
2011-09-11 00:00:00,2011-09-11 00:00:00,TMP,surface,-97.5004,26.929,293.774
2011-09-11 00:00:00,2011-09-11 00:00:00,TMP,surface,-96.5629,26.929,294.073
2011-09-11 00:00:00,2011-09-11 00:00:00,TMP,surface,-95.6254,26.929,294.488
2011-09-11 00:00:00,2011-09-11 00:00:00,TMP,surface,-94.6879,26.929,294.657
2011-09-11 00:00:00,2011-09-11 00:00:00,TMP,surface,-93.7504,26.929,294.44
2011-09-11 00:00:00,2011-09-11 00:00:00,TMP,surface,-92.8129,26.929,294.416
2011-09-11 00:00:00,2011-09-11 00:00:00,TMP,surface,-107.813,27.8739,279.969
2011-09-11 00:00:00,2011-09-11 00:00:00,TMP,surface,-106.875,27.8739,279.992
2011-09-11 00:00:00,2011-09-11 00:00:00,TMP,surface,-105.938,27.8739,284.307
2011-09-11 00:00:00,2011-09-11 00:00:00,TMP,surface,-105,27.8739,287.685
2011-09-11 00:00:00,2011-09-11 00:00:00,TMP,surface,-104.063,27.8739,287.63
2011-09-11 00:00:00,2011-09-11 00:00:00,TMP,surface,-103.125,27.8739,286.414
2011-09-11 00:00:00,2011-09-11 00:00:00,TMP,surface,-102.188,27.8739,286.635
2011-09-11 00:00:00,2011-09-11 00:00:00,TMP,surface,-101.25,27.8739,288.238
2011-09-11 00:00:00,2011-09-11 00:00:00,TMP,surface,-100.313,27.8739,289.568
2011-09-11 00:00:00,2011-09-11 00:00:00,TMP,surface,-99.3754,27.8739,290.008
2011-09-11 00:00:00,2011-09-11 00:00:00,TMP,surface,-98.4379,27.8739,290.121
2011-09-11 00:00:00,2011-09-11 00:00:00,TMP,surface,-97.5004,27.8739,291.884
2011-09-11 00:00:00,2011-09-11 00:00:00,TMP,surface,-96.5629,27.8739,293.731
2011-09-11 00:00:00,2011-09-11 00:00:00,TMP,surface,-95.6254,27.8739,293.853
2011-09-11 00:00:00,2011-09-11 00:00:00,TMP,surface,-94.6879,27.8739,293.643
2011-09-11 00:00:00,2011-09-11 00:00:00,TMP,surface,-93.7504,27.8739,293.365
2011-09-11 00:00:00,2011-09-11 00:00:00,TMP,surface,-92.8129,27.8739,293.265
2011-09-11 00:00:00,2011-09-11 00:00:00,TMP,surface,-107.813,28.8188,279.184
2011-09-11 00:00:00,2011-09-11 00:00:00,TMP,surface,-106.875,28.8188,280.768
2011-09-11 00:00:00,2011-09-11 00:00:00,TMP,surface,-105.938,28.8188,284.611
2011-09-11 00:00:00,2011-09-11 00:00:00,TMP,surface,-105,28.8188,286.841
2011-09-11 00:00:00,2011-09-11 00:00:00,TMP,surface,-104.063,28.8188,285.952
2011-09-11 00:00:00,2011-09-11 00:00:00,TMP,surface,-103.125,28.8188,285.206
2011-09-11 00:00:00,2011-09-11 00:00:00,TMP,surface,-102.188,28.8188,285.958
2011-09-11 00:00:00,2011-09-11 00:00:00,TMP,surface,-101.25,28.8188,287.489
2011-09-11 00:00:00,2011-09-11 00:00:00,TMP,surface,-100.313,28.8188,288.011
2011-09-11 00:00:00,2011-09-11 00:00:00,TMP,surface,-99.3754,28.8188,287.929
2011-09-11 00:00:00,2011-09-11 00:00:00,TMP,surface,-98.4379,28.8188,288.088
2011-09-11 00:00:00,2011-09-11 00:00:00,TMP,surface,-97.5004,28.8188,288.672
2011-09-11 00:00:00,2011-09-11 00:00:00,TMP,surface,-96.5629,28.8188,289.334
2011-09-11 00:00:00,2011-09-11 00:00:00,TMP,surface,-95.6254,28.8188,290.924
2011-09-11 00:00:00,2011-09-11 00:00:00,TMP,surface,-94.6879,28.8188,292.932
2011-09-11 00:00:00,2011-09-11 00:00:00,TMP,surface,-93.7504,28.8188,292.694
2011-09-11 00:00:00,2011-09-11 00:00:00,TMP,surface,-92.8129,28.8188,292.641
2011-09-11 00:00:00,2011-09-11 00:00:00,TMP,surface,-107.813,29.7637,280.51
2011-09-11 00:00:00,2011-09-11 00:00:00,TMP,surface,-106.875,29.7637,282.172
2011-09-11 00:00:00,2011-09-11 00:00:00,TMP,surface,-105.938,29.7637,284.739
2011-09-11 00:00:00,2011-09-11 00:00:00,TMP,surface,-105,29.7637,284.878
2011-09-11 00:00:00,2011-09-11 00:00:00,TMP,surface,-104.063,29.7637,284.716
2011-09-11 00:00:00,2011-09-11 00:00:00,TMP,surface,-103.125,29.7637,285.057
2011-09-11 00:00:00,2011-09-11 00:00:00,TMP,surface,-102.188,29.7637,286.171
2011-09-11 00:00:00,2011-09-11 00:00:00,TMP,surface,-101.25,29.7637,286.752
2011-09-11 00:00:00,2011-09-11 00:00:00,TMP,surface,-100.313,29.7637,286.355
2011-09-11 00:00:00,2011-09-11 00:00:00,TMP,surface,-99.3754,29.7637,285.936
2011-09-11 00:00:00,2011-09-11 00:00:00,TMP,surface,-98.4379,29.7637,286.102
2011-09-11 00:00:00,2011-09-11 00:00:00,TMP,surface,-97.5004,29.7637,286.629
2011-09-11 00:00:00,2011-09-11 00:00:00,TMP,surface,-96.5629,29.7637,287.169
2011-09-11 00:00:00,2011-09-11 00:00:00,TMP,surface,-95.6254,29.7637,287.685
2011-09-11 00:00:00,2011-09-11 00:00:00,TMP,surface,-94.6879,29.7637,289.323
2011-09-11 00:00:00,2011-09-11 00:00:00,TMP,surface,-93.7504,29.7637,291.232
2011-09-11 00:00:00,2011-09-11 00:00:00,TMP,surface,-92.8129,29.7637,288.462
2011-09-11 00:00:00,2011-09-11 00:00:00,TMP,surface,-107.813,30.7085,283.405
2011-09-11 00:00:00,2011-09-11 00:00:00,TMP,surface,-106.875,30.7085,284.432
2011-09-11 00:00:00,2011-09-11 00:00:00,TMP,surface,-105.938,30.7085,284.417
2011-09-11 00:00:00,2011-09-11 00:00:00,TMP,surface,-105,30.7085,283.845
2011-09-11 00:00:00,2011-09-11 00:00:00,TMP,surface,-104.063,30.7085,283.782
2011-09-11 00:00:00,2011-09-11 00:00:00,TMP,surface,-103.125,30.7085,284.771
2011-09-11 00:00:00,2011-09-11 00:00:00,TMP,surface,-102.188,30.7085,285.691
2011-09-11 00:00:00,2011-09-11 00:00:00,TMP,surface,-101.25,30.7085,285.817
2011-09-11 00:00:00,2011-09-11 00:00:00,TMP,surface,-100.313,30.7085,285.331
2011-09-11 00:00:00,2011-09-11 00:00:00,TMP,surface,-99.3754,30.7085,284.996
2011-09-11 00:00:00,2011-09-11 00:00:00,TMP,surface,-98.4379,30.7085,285.112
2011-09-11 00:00:00,2011-09-11 00:00:00,TMP,surface,-97.5004,30.7085,285.459
2011-09-11 00:00:00,2011-09-11 00:00:00,TMP,surface,-96.5629,30.7085,285.924
2011-09-11 00:00:00,2011-09-11 00:00:00,TMP,surface,-95.6254,30.7085,286.296
2011-09-11 00:00:00,2011-09-11 00:00:00,TMP,surface,-94.6879,30.7085,286.297
2011-09-11 00:00:00,2011-09-11 00:00:00,TMP,surface,-93.7504,30.7085,286.126
2011-09-11 00:00:00,2011-09-11 00:00:00,TMP,surface,-92.8129,30.7085,285.864
2011-09-11 00:00:00,2011-09-11 00:00:00,TMP,surface,-107.813,31.6534,283.592
2011-09-11 00:00:00,2011-09-11 00:00:00,TMP,surface,-106.875,31.6534,284.184
2011-09-11 00:00:00,2011-09-11 00:00:00,TMP,surface,-105.938,31.6534,283.542
2011-09-11 00:00:00,2011-09-11 00:00:00,TMP,surface,-105,31.6534,283.129
2011-09-11 00:00:00,2011-09-11 00:00:00,TMP,surface,-104.063,31.6534,283.515
2011-09-11 00:00:00,2011-09-11 00:00:00,TMP,surface,-103.125,31.6534,284.227
2011-09-11 00:00:00,2011-09-11 00:00:00,TMP,surface,-102.188,31.6534,284.854
2011-09-11 00:00:00,2011-09-11 00:00:00,TMP,surface,-101.25,31.6534,284.891
2011-09-11 00:00:00,2011-09-11 00:00:00,TMP,surface,-100.313,31.6534,284.753
2011-09-11 00:00:00,2011-09-11 00:00:00,TMP,surface,-99.3754,31.6534,284.741
2011-09-11 00:00:00,2011-09-11 00:00:00,TMP,surface,-98.4379,31.6534,284.84
2011-09-11 00:00:00,2011-09-11 00:00:00,TMP,surface,-97.5004,31.6534,284.886
2011-09-11 00:00:00,2011-09-11 00:00:00,TMP,surface,-96.5629,31.6534,284.952
2011-09-11 00:00:00,2011-09-11 00:00:00,TMP,surface,-95.6254,31.6534,284.979
2011-09-11 00:00:00,2011-09-11 00:00:00,TMP,surface,-94.6879,31.6534,284.713
2011-09-11 00:00:00,2011-09-11 00:00:00,TMP,surface,-93.7504,31.6534,284.336
2011-09-11 00:00:00,2011-09-11 00:00:00,TMP,surface,-92.8129,31.6534,284.133
2011-09-11 00:00:00,2011-09-11 00:00:00,TMP,surface,-107.813,32.5983,280.91
2011-09-11 00:00:00,2011-09-11 00:00:00,TMP,surface,-106.875,32.5983,281.499
2011-09-11 00:00:00,2011-09-11 00:00:00,TMP,surface,-105.938,32.5983,281.873
2011-09-11 00:00:00,2011-09-11 00:00:00,TMP,surface,-105,32.5983,282.164
2011-09-11 00:00:00,2011-09-11 00:00:00,TMP,surface,-104.063,32.5983,282.969
2011-09-11 00:00:00,2011-09-11 00:00:00,TMP,surface,-103.125,32.5983,283.596
2011-09-11 00:00:00,2011-09-11 00:00:00,TMP,surface,-102.188,32.5983,283.766
2011-09-11 00:00:00,2011-09-11 00:00:00,TMP,surface,-101.25,32.5983,283.923
2011-09-11 00:00:00,2011-09-11 00:00:00,TMP,surface,-100.313,32.5983,284.176
2011-09-11 00:00:00,2011-09-11 00:00:00,TMP,surface,-99.3754,32.5983,284.409
2011-09-11 00:00:00,2011-09-11 00:00:00,TMP,surface,-98.4379,32.5983,284.344
2011-09-11 00:00:00,2011-09-11 00:00:00,TMP,surface,-97.5004,32.5983,284.086
2011-09-11 00:00:00,2011-09-11 00:00:00,TMP,surface,-96.5629,32.5983,283.899
2011-09-11 00:00:00,2011-09-11 00:00:00,TMP,surface,-95.6254,32.5983,283.708
2011-09-11 00:00:00,2011-09-11 00:00:00,TMP,surface,-94.6879,32.5983,283.297
2011-09-11 00:00:00,2011-09-11 00:00:00,TMP,surface,-93.7504,32.5983,282.824
2011-09-11 00:00:00,2011-09-11 00:00:00,TMP,surface,-92.8129,32.5983,282.694
2011-09-11 00:00:00,2011-09-11 00:00:00,TMP,surface,-107.813,33.5432,277.832
2011-09-11 00:00:00,2011-09-11 00:00:00,TMP,surface,-106.875,33.5432,279.013
2011-09-11 00:00:00,2011-09-11 00:00:00,TMP,surface,-105.938,33.5432,280.009
2011-09-11 00:00:00,2011-09-11 00:00:00,TMP,surface,-105,33.5432,281.065
2011-09-11 00:00:00,2011-09-11 00:00:00,TMP,surface,-104.063,33.5432,282.211
2011-09-11 00:00:00,2011-09-11 00:00:00,TMP,surface,-103.125,33.5432,282.724
2011-09-11 00:00:00,2011-09-11 00:00:00,TMP,surface,-102.188,33.5432,282.71
2011-09-11 00:00:00,2011-09-11 00:00:00,TMP,surface,-101.25,33.5432,282.67
2011-09-11 00:00:00,2011-09-11 00:00:00,TMP,surface,-100.313,33.5432,282.973
2011-09-11 00:00:00,2011-09-11 00:00:00,TMP,surface,-99.3754,33.5432,283.276
2011-09-11 00:00:00,2011-09-11 00:00:00,TMP,surface,-98.4379,33.5432,283.06
2011-09-11 00:00:00,2011-09-11 00:00:00,TMP,surface,-97.5004,33.5432,282.54
2011-09-11 00:00:00,2011-09-11 00:00:00,TMP,surface,-96.5629,33.5432,282.193
2011-09-11 00:00:00,2011-09-11 00:00:00,TMP,surface,-95.6254,33.5432,282.036
2011-09-11 00:00:00,2011-09-11 00:00:00,TMP,surface,-94.6879,33.5432,281.734
2011-09-11 00:00:00,2011-09-11 00:00:00,TMP,surface,-93.7504,33.5432,281.251
2011-09-11 00:00:00,2011-09-11 00:00:00,TMP,surface,-92.8129,33.5432,281.077
2011-09-11 00:00:00,2011-09-11 00:00:00,TMP,surface,-107.813,34.4881,276.281
2011-09-11 00:00:00,2011-09-11 00:00:00,TMP,surface,-106.875,34.4881,277.558
2011-09-11 00:00:00,2011-09-11 00:00:00,TMP,surface,-105.938,34.4881,278.593
2011-09-11 00:00:00,2011-09-11 00:00:00,TMP,surface,-105,34.4881,279.841
2011-09-11 00:00:00,2011-09-11 00:00:00,TMP,surface,-104.063,34.4881,281.048
2011-09-11 00:00:00,2011-09-11 00:00:00,TMP,surface,-103.125,34.4881,281.584
2011-09-11 00:00:00,2011-09-11 00:00:00,TMP,surface,-102.188,34.4881,281.355
2011-09-11 00:00:00,2011-09-11 00:00:00,TMP,surface,-101.25,34.4881,281.125
2011-09-11 00:00:00,2011-09-11 00:00:00,TMP,surface,-100.313,34.4881,281.169
2011-09-11 00:00:00,2011-09-11 00:00:00,TMP,surface,-99.3754,34.4881,281.224
2011-09-11 00:00:00,2011-09-11 00:00:00,TMP,surface,-98.4379,34.4881,281.027
2011-09-11 00:00:00,2011-09-11 00:00:00,TMP,surface,-97.5004,34.4881,280.731
2011-09-11 00:00:00,2011-09-11 00:00:00,TMP,surface,-96.5629,34.4881,280.577
2011-09-11 00:00:00,2011-09-11 00:00:00,TMP,surface,-95.6254,34.4881,280.432
2011-09-11 00:00:00,2011-09-11 00:00:00,TMP,surface,-94.6879,34.4881,280.003
2011-09-11 00:00:00,2011-09-11 00:00:00,TMP,surface,-93.7504,34.4881,279.453
2011-09-11 00:00:00,2011-09-11 00:00:00,TMP,surface,-92.8129,34.4881,279.257
2011-09-11 00:00:00,2011-09-11 00:00:00,TMP,surface,-107.813,35.4329,276.017
2011-09-11 00:00:00,2011-09-11 00:00:00,TMP,surface,-106.875,35.4329,276.235
2011-09-11 00:00:00,2011-09-11 00:00:00,TMP,surface,-105.938,35.4329,276.697
2011-09-11 00:00:00,2011-09-11 00:00:00,TMP,surface,-105,35.4329,277.764
2011-09-11 00:00:00,2011-09-11 00:00:00,TMP,surface,-104.063,35.4329,279.494
2011-09-11 00:00:00,2011-09-11 00:00:00,TMP,surface,-103.125,35.4329,280.323
2011-09-11 00:00:00,2011-09-11 00:00:00,TMP,surface,-102.188,35.4329,280.203
2011-09-11 00:00:00,2011-09-11 00:00:00,TMP,surface,-101.25,35.4329,279.681
2011-09-11 00:00:00,2011-09-11 00:00:00,TMP,surface,-100.313,35.4329,279.225
2011-09-11 00:00:00,2011-09-11 00:00:00,TMP,surface,-99.3754,35.4329,279.035
2011-09-11 00:00:00,2011-09-11 00:00:00,TMP,surface,-98.4379,35.4329,279.017
2011-09-11 00:00:00,2011-09-11 00:00:00,TMP,surface,-97.5004,35.4329,279.089
2011-09-11 00:00:00,2011-09-11 00:00:00,TMP,surface,-96.5629,35.4329,279.16
2011-09-11 00:00:00,2011-09-11 00:00:00,TMP,surface,-95.6254,35.4329,279.035
2011-09-11 00:00:00,2011-09-11 00:00:00,TMP,surface,-94.6879,35.4329,278.552
2011-09-11 00:00:00,2011-09-11 00:00:00,TMP,surface,-93.7504,35.4329,277.825
2011-09-11 00:00:00,2011-09-11 00:00:00,TMP,surface,-92.8129,35.4329,277.344
2011-09-11 00:00:00,2011-09-11 00:00:00,TMP,surface,-107.813,36.3778,274.817
2011-09-11 00:00:00,2011-09-11 00:00:00,TMP,surface,-106.875,36.3778,273.441
2011-09-11 00:00:00,2011-09-11 00:00:00,TMP,surface,-105.938,36.3778,273.752
2011-09-11 00:00:00,2011-09-11 00:00:00,TMP,surface,-105,36.3778,275.478
2011-09-11 00:00:00,2011-09-11 00:00:00,TMP,surface,-104.063,36.3778,277.681
2011-09-11 00:00:00,2011-09-11 00:00:00,TMP,surface,-103.125,36.3778,278.677
2011-09-11 00:00:00,2011-09-11 00:00:00,TMP,surface,-102.188,36.3778,278.805
2011-09-11 00:00:00,2011-09-11 00:00:00,TMP,surface,-101.25,36.3778,278.448
2011-09-11 00:00:00,2011-09-11 00:00:00,TMP,surface,-100.313,36.3778,278.011
2011-09-11 00:00:00,2011-09-11 00:00:00,TMP,surface,-99.3754,36.3778,277.71
2011-09-11 00:00:00,2011-09-11 00:00:00,TMP,surface,-98.4379,36.3778,277.428
2011-09-11 00:00:00,2011-09-11 00:00:00,TMP,surface,-97.5004,36.3778,277.499
2011-09-11 00:00:00,2011-09-11 00:00:00,TMP,surface,-96.5629,36.3778,277.749
2011-09-11 00:00:00,2011-09-11 00:00:00,TMP,surface,-95.6254,36.3778,277.568
2011-09-11 00:00:00,2011-09-11 00:00:00,TMP,surface,-94.6879,36.3778,276.91
2011-09-11 00:00:00,2011-09-11 00:00:00,TMP,surface,-93.7504,36.3778,276.113
2011-09-11 00:00:00,2011-09-11 00:00:00,TMP,surface,-92.8129,36.3778,275.582
2011-09-11 00:00:00,2011-09-11 00:00:00,PRATE,surface,-107.813,25.0393,3.6e-05
2011-09-11 00:00:00,2011-09-11 00:00:00,PRATE,surface,-106.875,25.0393,2.45e-05
2011-09-11 00:00:00,2011-09-11 00:00:00,PRATE,surface,-105.938,25.0393,1.39e-05
2011-09-11 00:00:00,2011-09-11 00:00:00,PRATE,surface,-105,25.0393,1.68e-05
2011-09-11 00:00:00,2011-09-11 00:00:00,PRATE,surface,-104.063,25.0393,1.15e-05
2011-09-11 00:00:00,2011-09-11 00:00:00,PRATE,surface,-103.125,25.0393,4.6e-06
2011-09-11 00:00:00,2011-09-11 00:00:00,PRATE,surface,-102.188,25.0393,1.19e-05
2011-09-11 00:00:00,2011-09-11 00:00:00,PRATE,surface,-101.25,25.0393,2.18e-05
2011-09-11 00:00:00,2011-09-11 00:00:00,PRATE,surface,-100.313,25.0393,4.27e-05
2011-09-11 00:00:00,2011-09-11 00:00:00,PRATE,surface,-99.3754,25.0393,4.37e-05
2011-09-11 00:00:00,2011-09-11 00:00:00,PRATE,surface,-98.4379,25.0393,1.58e-05
2011-09-11 00:00:00,2011-09-11 00:00:00,PRATE,surface,-97.5004,25.0393,1.73e-05
2011-09-11 00:00:00,2011-09-11 00:00:00,PRATE,surface,-96.5629,25.0393,3.56e-05
2011-09-11 00:00:00,2011-09-11 00:00:00,PRATE,surface,-95.6254,25.0393,4.46e-05
2011-09-11 00:00:00,2011-09-11 00:00:00,PRATE,surface,-94.6879,25.0393,3.97e-05
2011-09-11 00:00:00,2011-09-11 00:00:00,PRATE,surface,-93.7504,25.0393,2.34e-05
2011-09-11 00:00:00,2011-09-11 00:00:00,PRATE,surface,-92.8129,25.0393,2.07e-05
2011-09-11 00:00:00,2011-09-11 00:00:00,PRATE,surface,-107.813,25.9842,4.86e-05
2011-09-11 00:00:00,2011-09-11 00:00:00,PRATE,surface,-106.875,25.9842,2.75e-05
2011-09-11 00:00:00,2011-09-11 00:00:00,PRATE,surface,-105.938,25.9842,1.02e-05
2011-09-11 00:00:00,2011-09-11 00:00:00,PRATE,surface,-105,25.9842,9.7e-06
2011-09-11 00:00:00,2011-09-11 00:00:00,PRATE,surface,-104.063,25.9842,8.2e-06
2011-09-11 00:00:00,2011-09-11 00:00:00,PRATE,surface,-103.125,25.9842,5.1e-06
2011-09-11 00:00:00,2011-09-11 00:00:00,PRATE,surface,-102.188,25.9842,5.2e-06
2011-09-11 00:00:00,2011-09-11 00:00:00,PRATE,surface,-101.25,25.9842,7.7e-06
2011-09-11 00:00:00,2011-09-11 00:00:00,PRATE,surface,-100.313,25.9842,1.75e-05
2011-09-11 00:00:00,2011-09-11 00:00:00,PRATE,surface,-99.3754,25.9842,1.94e-05
2011-09-11 00:00:00,2011-09-11 00:00:00,PRATE,surface,-98.4379,25.9842,2.01e-05
2011-09-11 00:00:00,2011-09-11 00:00:00,PRATE,surface,-97.5004,25.9842,3.45e-05
2011-09-11 00:00:00,2011-09-11 00:00:00,PRATE,surface,-96.5629,25.9842,5.22e-05
2011-09-11 00:00:00,2011-09-11 00:00:00,PRATE,surface,-95.6254,25.9842,4.63e-05
2011-09-11 00:00:00,2011-09-11 00:00:00,PRATE,surface,-94.6879,25.9842,3.77e-05
2011-09-11 00:00:00,2011-09-11 00:00:00,PRATE,surface,-93.7504,25.9842,2.95e-05
2011-09-11 00:00:00,2011-09-11 00:00:00,PRATE,surface,-92.8129,25.9842,2.78e-05
2011-09-11 00:00:00,2011-09-11 00:00:00,PRATE,surface,-107.813,26.929,4.7e-05
2011-09-11 00:00:00,2011-09-11 00:00:00,PRATE,surface,-106.875,26.929,1.91e-05
2011-09-11 00:00:00,2011-09-11 00:00:00,PRATE,surface,-105.938,26.929,6.3e-06
2011-09-11 00:00:00,2011-09-11 00:00:00,PRATE,surface,-105,26.929,3.5e-06
2011-09-11 00:00:00,2011-09-11 00:00:00,PRATE,surface,-104.063,26.929,5.5e-06
2011-09-11 00:00:00,2011-09-11 00:00:00,PRATE,surface,-103.125,26.929,1.09e-05
2011-09-11 00:00:00,2011-09-11 00:00:00,PRATE,surface,-102.188,26.929,1.59e-05
2011-09-11 00:00:00,2011-09-11 00:00:00,PRATE,surface,-101.25,26.929,1.57e-05
2011-09-11 00:00:00,2011-09-11 00:00:00,PRATE,surface,-100.313,26.929,1.24e-05
2011-09-11 00:00:00,2011-09-11 00:00:00,PRATE,surface,-99.3754,26.929,1.5e-05
2011-09-11 00:00:00,2011-09-11 00:00:00,PRATE,surface,-98.4379,26.929,2.53e-05
2011-09-11 00:00:00,2011-09-11 00:00:00,PRATE,surface,-97.5004,26.929,4.29e-05
2011-09-11 00:00:00,2011-09-11 00:00:00,PRATE,surface,-96.5629,26.929,5.65e-05
2011-09-11 00:00:00,2011-09-11 00:00:00,PRATE,surface,-95.6254,26.929,4.84e-05
2011-09-11 00:00:00,2011-09-11 00:00:00,PRATE,surface,-94.6879,26.929,4.78e-05
2011-09-11 00:00:00,2011-09-11 00:00:00,PRATE,surface,-93.7504,26.929,3.91e-05
2011-09-11 00:00:00,2011-09-11 00:00:00,PRATE,surface,-92.8129,26.929,3.05e-05
2011-09-11 00:00:00,2011-09-11 00:00:00,PRATE,surface,-107.813,27.8739,3.67e-05
2011-09-11 00:00:00,2011-09-11 00:00:00,PRATE,surface,-106.875,27.8739,1.77e-05
2011-09-11 00:00:00,2011-09-11 00:00:00,PRATE,surface,-105.938,27.8739,4.9e-06
2011-09-11 00:00:00,2011-09-11 00:00:00,PRATE,surface,-105,27.8739,1e-06
2011-09-11 00:00:00,2011-09-11 00:00:00,PRATE,surface,-104.063,27.8739,5.4e-06
2011-09-11 00:00:00,2011-09-11 00:00:00,PRATE,surface,-103.125,27.8739,1.87e-05
2011-09-11 00:00:00,2011-09-11 00:00:00,PRATE,surface,-102.188,27.8739,2.39e-05
2011-09-11 00:00:00,2011-09-11 00:00:00,PRATE,surface,-101.25,27.8739,1.73e-05
2011-09-11 00:00:00,2011-09-11 00:00:00,PRATE,surface,-100.313,27.8739,1.74e-05
2011-09-11 00:00:00,2011-09-11 00:00:00,PRATE,surface,-99.3754,27.8739,2.08e-05
2011-09-11 00:00:00,2011-09-11 00:00:00,PRATE,surface,-98.4379,27.8739,2.92e-05
2011-09-11 00:00:00,2011-09-11 00:00:00,PRATE,surface,-97.5004,27.8739,3.9e-05
2011-09-11 00:00:00,2011-09-11 00:00:00,PRATE,surface,-96.5629,27.8739,4.61e-05
2011-09-11 00:00:00,2011-09-11 00:00:00,PRATE,surface,-95.6254,27.8739,4.91e-05
2011-09-11 00:00:00,2011-09-11 00:00:00,PRATE,surface,-94.6879,27.8739,4.62e-05
2011-09-11 00:00:00,2011-09-11 00:00:00,PRATE,surface,-93.7504,27.8739,3.99e-05
2011-09-11 00:00:00,2011-09-11 00:00:00,PRATE,surface,-92.8129,27.8739,3.3e-05
2011-09-11 00:00:00,2011-09-11 00:00:00,PRATE,surface,-107.813,28.8188,2.81e-05
2011-09-11 00:00:00,2011-09-11 00:00:00,PRATE,surface,-106.875,28.8188,1.87e-05
2011-09-11 00:00:00,2011-09-11 00:00:00,PRATE,surface,-105.938,28.8188,8.3e-06
2011-09-11 00:00:00,2011-09-11 00:00:00,PRATE,surface,-105,28.8188,4.2e-06
2011-09-11 00:00:00,2011-09-11 00:00:00,PRATE,surface,-104.063,28.8188,1.04e-05
2011-09-11 00:00:00,2011-09-11 00:00:00,PRATE,surface,-103.125,28.8188,1.91e-05
2011-09-11 00:00:00,2011-09-11 00:00:00,PRATE,surface,-102.188,28.8188,1.54e-05
2011-09-11 00:00:00,2011-09-11 00:00:00,PRATE,surface,-101.25,28.8188,1.43e-05
2011-09-11 00:00:00,2011-09-11 00:00:00,PRATE,surface,-100.313,28.8188,1.78e-05
2011-09-11 00:00:00,2011-09-11 00:00:00,PRATE,surface,-99.3754,28.8188,2.36e-05
2011-09-11 00:00:00,2011-09-11 00:00:00,PRATE,surface,-98.4379,28.8188,3.04e-05
2011-09-11 00:00:00,2011-09-11 00:00:00,PRATE,surface,-97.5004,28.8188,3.98e-05
2011-09-11 00:00:00,2011-09-11 00:00:00,PRATE,surface,-96.5629,28.8188,4.92e-05
2011-09-11 00:00:00,2011-09-11 00:00:00,PRATE,surface,-95.6254,28.8188,5.47e-05
2011-09-11 00:00:00,2011-09-11 00:00:00,PRATE,surface,-94.6879,28.8188,5.65e-05
2011-09-11 00:00:00,2011-09-11 00:00:00,PRATE,surface,-93.7504,28.8188,5.28e-05
2011-09-11 00:00:00,2011-09-11 00:00:00,PRATE,surface,-92.8129,28.8188,3.94e-05
2011-09-11 00:00:00,2011-09-11 00:00:00,PRATE,surface,-107.813,29.7637,1.79e-05
2011-09-11 00:00:00,2011-09-11 00:00:00,PRATE,surface,-106.875,29.7637,1.5e-05
2011-09-11 00:00:00,2011-09-11 00:00:00,PRATE,surface,-105.938,29.7637,1.67e-05
2011-09-11 00:00:00,2011-09-11 00:00:00,PRATE,surface,-105,29.7637,2.17e-05
2011-09-11 00:00:00,2011-09-11 00:00:00,PRATE,surface,-104.063,29.7637,2.17e-05
2011-09-11 00:00:00,2011-09-11 00:00:00,PRATE,surface,-103.125,29.7637,1.61e-05
2011-09-11 00:00:00,2011-09-11 00:00:00,PRATE,surface,-102.188,29.7637,1.15e-05
2011-09-11 00:00:00,2011-09-11 00:00:00,PRATE,surface,-101.25,29.7637,1.06e-05
2011-09-11 00:00:00,2011-09-11 00:00:00,PRATE,surface,-100.313,29.7637,1.79e-05
2011-09-11 00:00:00,2011-09-11 00:00:00,PRATE,surface,-99.3754,29.7637,2.74e-05
2011-09-11 00:00:00,2011-09-11 00:00:00,PRATE,surface,-98.4379,29.7637,3.33e-05
2011-09-11 00:00:00,2011-09-11 00:00:00,PRATE,surface,-97.5004,29.7637,3.93e-05
2011-09-11 00:00:00,2011-09-11 00:00:00,PRATE,surface,-96.5629,29.7637,4.94e-05
2011-09-11 00:00:00,2011-09-11 00:00:00,PRATE,surface,-95.6254,29.7637,5.88e-05
2011-09-11 00:00:00,2011-09-11 00:00:00,PRATE,surface,-94.6879,29.7637,6.16e-05
2011-09-11 00:00:00,2011-09-11 00:00:00,PRATE,surface,-93.7504,29.7637,5.99e-05
2011-09-11 00:00:00,2011-09-11 00:00:00,PRATE,surface,-92.8129,29.7637,5.79e-05
2011-09-11 00:00:00,2011-09-11 00:00:00,PRATE,surface,-107.813,30.7085,9.4e-06
2011-09-11 00:00:00,2011-09-11 00:00:00,PRATE,surface,-106.875,30.7085,1.02e-05
2011-09-11 00:00:00,2011-09-11 00:00:00,PRATE,surface,-105.938,30.7085,1.59e-05
2011-09-11 00:00:00,2011-09-11 00:00:00,PRATE,surface,-105,30.7085,2.59e-05
2011-09-11 00:00:00,2011-09-11 00:00:00,PRATE,surface,-104.063,30.7085,2.75e-05
2011-09-11 00:00:00,2011-09-11 00:00:00,PRATE,surface,-103.125,30.7085,1.82e-05
2011-09-11 00:00:00,2011-09-11 00:00:00,PRATE,surface,-102.188,30.7085,1.11e-05
2011-09-11 00:00:00,2011-09-11 00:00:00,PRATE,surface,-101.25,30.7085,1.38e-05
2011-09-11 00:00:00,2011-09-11 00:00:00,PRATE,surface,-100.313,30.7085,2.61e-05
2011-09-11 00:00:00,2011-09-11 00:00:00,PRATE,surface,-99.3754,30.7085,3.26e-05
2011-09-11 00:00:00,2011-09-11 00:00:00,PRATE,surface,-98.4379,30.7085,3.03e-05
2011-09-11 00:00:00,2011-09-11 00:00:00,PRATE,surface,-97.5004,30.7085,2.97e-05
2011-09-11 00:00:00,2011-09-11 00:00:00,PRATE,surface,-96.5629,30.7085,3.68e-05
2011-09-11 00:00:00,2011-09-11 00:00:00,PRATE,surface,-95.6254,30.7085,4.82e-05
2011-09-11 00:00:00,2011-09-11 00:00:00,PRATE,surface,-94.6879,30.7085,5.87e-05
2011-09-11 00:00:00,2011-09-11 00:00:00,PRATE,surface,-93.7504,30.7085,6.57e-05
2011-09-11 00:00:00,2011-09-11 00:00:00,PRATE,surface,-92.8129,30.7085,6.37e-05
2011-09-11 00:00:00,2011-09-11 00:00:00,PRATE,surface,-107.813,31.6534,6e-06
2011-09-11 00:00:00,2011-09-11 00:00:00,PRATE,surface,-106.875,31.6534,7.2e-06
2011-09-11 00:00:00,2011-09-11 00:00:00,PRATE,surface,-105.938,31.6534,1.35e-05
2011-09-11 00:00:00,2011-09-11 00:00:00,PRATE,surface,-105,31.6534,2.1e-05
2011-09-11 00:00:00,2011-09-11 00:00:00,PRATE,surface,-104.063,31.6534,1.9e-05
2011-09-11 00:00:00,2011-09-11 00:00:00,PRATE,surface,-103.125,31.6534,1.49e-05
2011-09-11 00:00:00,2011-09-11 00:00:00,PRATE,surface,-102.188,31.6534,1.37e-05
2011-09-11 00:00:00,2011-09-11 00:00:00,PRATE,surface,-101.25,31.6534,1.53e-05
2011-09-11 00:00:00,2011-09-11 00:00:00,PRATE,surface,-100.313,31.6534,2.25e-05
2011-09-11 00:00:00,2011-09-11 00:00:00,PRATE,surface,-99.3754,31.6534,2.88e-05
2011-09-11 00:00:00,2011-09-11 00:00:00,PRATE,surface,-98.4379,31.6534,3.02e-05
2011-09-11 00:00:00,2011-09-11 00:00:00,PRATE,surface,-97.5004,31.6534,3.15e-05
2011-09-11 00:00:00,2011-09-11 00:00:00,PRATE,surface,-96.5629,31.6534,3.49e-05
2011-09-11 00:00:00,2011-09-11 00:00:00,PRATE,surface,-95.6254,31.6534,3.9e-05
2011-09-11 00:00:00,2011-09-11 00:00:00,PRATE,surface,-94.6879,31.6534,4.3e-05
2011-09-11 00:00:00,2011-09-11 00:00:00,PRATE,surface,-93.7504,31.6534,4.43e-05
2011-09-11 00:00:00,2011-09-11 00:00:00,PRATE,surface,-92.8129,31.6534,4.58e-05
2011-09-11 00:00:00,2011-09-11 00:00:00,PRATE,surface,-107.813,32.5983,1.43e-05
2011-09-11 00:00:00,2011-09-11 00:00:00,PRATE,surface,-106.875,32.5983,1.29e-05
2011-09-11 00:00:00,2011-09-11 00:00:00,PRATE,surface,-105.938,32.5983,1.25e-05
2011-09-11 00:00:00,2011-09-11 00:00:00,PRATE,surface,-105,32.5983,1.22e-05
2011-09-11 00:00:00,2011-09-11 00:00:00,PRATE,surface,-104.063,32.5983,1.21e-05
2011-09-11 00:00:00,2011-09-11 00:00:00,PRATE,surface,-103.125,32.5983,1.02e-05
2011-09-11 00:00:00,2011-09-11 00:00:00,PRATE,surface,-102.188,32.5983,1.43e-05
2011-09-11 00:00:00,2011-09-11 00:00:00,PRATE,surface,-101.25,32.5983,1.79e-05
2011-09-11 00:00:00,2011-09-11 00:00:00,PRATE,surface,-100.313,32.5983,2.03e-05
2011-09-11 00:00:00,2011-09-11 00:00:00,PRATE,surface,-99.3754,32.5983,2.28e-05
2011-09-11 00:00:00,2011-09-11 00:00:00,PRATE,surface,-98.4379,32.5983,2.7e-05
2011-09-11 00:00:00,2011-09-11 00:00:00,PRATE,surface,-97.5004,32.5983,3.42e-05
2011-09-11 00:00:00,2011-09-11 00:00:00,PRATE,surface,-96.5629,32.5983,4.13e-05
2011-09-11 00:00:00,2011-09-11 00:00:00,PRATE,surface,-95.6254,32.5983,4.28e-05
2011-09-11 00:00:00,2011-09-11 00:00:00,PRATE,surface,-94.6879,32.5983,3.93e-05
2011-09-11 00:00:00,2011-09-11 00:00:00,PRATE,surface,-93.7504,32.5983,3.88e-05
2011-09-11 00:00:00,2011-09-11 00:00:00,PRATE,surface,-92.8129,32.5983,4.04e-05
2011-09-11 00:00:00,2011-09-11 00:00:00,PRATE,surface,-107.813,33.5432,2.72e-05
2011-09-11 00:00:00,2011-09-11 00:00:00,PRATE,surface,-106.875,33.5432,2.27e-05
2011-09-11 00:00:00,2011-09-11 00:00:00,PRATE,surface,-105.938,33.5432,1.72e-05
2011-09-11 00:00:00,2011-09-11 00:00:00,PRATE,surface,-105,33.5432,1.3e-05
2011-09-11 00:00:00,2011-09-11 00:00:00,PRATE,surface,-104.063,33.5432,8.3e-06
2011-09-11 00:00:00,2011-09-11 00:00:00,PRATE,surface,-103.125,33.5432,8.6e-06
2011-09-11 00:00:00,2011-09-11 00:00:00,PRATE,surface,-102.188,33.5432,1.35e-05
2011-09-11 00:00:00,2011-09-11 00:00:00,PRATE,surface,-101.25,33.5432,1.77e-05
2011-09-11 00:00:00,2011-09-11 00:00:00,PRATE,surface,-100.313,33.5432,2.04e-05
2011-09-11 00:00:00,2011-09-11 00:00:00,PRATE,surface,-99.3754,33.5432,2.5e-05
2011-09-11 00:00:00,2011-09-11 00:00:00,PRATE,surface,-98.4379,33.5432,3.17e-05
2011-09-11 00:00:00,2011-09-11 00:00:00,PRATE,surface,-97.5004,33.5432,3.91e-05
2011-09-11 00:00:00,2011-09-11 00:00:00,PRATE,surface,-96.5629,33.5432,4.19e-05
2011-09-11 00:00:00,2011-09-11 00:00:00,PRATE,surface,-95.6254,33.5432,3.93e-05
2011-09-11 00:00:00,2011-09-11 00:00:00,PRATE,surface,-94.6879,33.5432,3.83e-05
2011-09-11 00:00:00,2011-09-11 00:00:00,PRATE,surface,-93.7504,33.5432,4.04e-05
2011-09-11 00:00:00,2011-09-11 00:00:00,PRATE,surface,-92.8129,33.5432,3.77e-05
2011-09-11 00:00:00,2011-09-11 00:00:00,PRATE,surface,-107.813,34.4881,2.66e-05
2011-09-11 00:00:00,2011-09-11 00:00:00,PRATE,surface,-106.875,34.4881,2.18e-05
2011-09-11 00:00:00,2011-09-11 00:00:00,PRATE,surface,-105.938,34.4881,1.74e-05
2011-09-11 00:00:00,2011-09-11 00:00:00,PRATE,surface,-105,34.4881,1.51e-05
2011-09-11 00:00:00,2011-09-11 00:00:00,PRATE,surface,-104.063,34.4881,9.2e-06
2011-09-11 00:00:00,2011-09-11 00:00:00,PRATE,surface,-103.125,34.4881,1.03e-05
2011-09-11 00:00:00,2011-09-11 00:00:00,PRATE,surface,-102.188,34.4881,1.62e-05
2011-09-11 00:00:00,2011-09-11 00:00:00,PRATE,surface,-101.25,34.4881,2.2e-05
2011-09-11 00:00:00,2011-09-11 00:00:00,PRATE,surface,-100.313,34.4881,2.39e-05
2011-09-11 00:00:00,2011-09-11 00:00:00,PRATE,surface,-99.3754,34.4881,2.81e-05
2011-09-11 00:00:00,2011-09-11 00:00:00,PRATE,surface,-98.4379,34.4881,3.98e-05
2011-09-11 00:00:00,2011-09-11 00:00:00,PRATE,surface,-97.5004,34.4881,4.95e-05
2011-09-11 00:00:00,2011-09-11 00:00:00,PRATE,surface,-96.5629,34.4881,4.91e-05
2011-09-11 00:00:00,2011-09-11 00:00:00,PRATE,surface,-95.6254,34.4881,4.43e-05
2011-09-11 00:00:00,2011-09-11 00:00:00,PRATE,surface,-94.6879,34.4881,4.23e-05
2011-09-11 00:00:00,2011-09-11 00:00:00,PRATE,surface,-93.7504,34.4881,4.21e-05
2011-09-11 00:00:00,2011-09-11 00:00:00,PRATE,surface,-92.8129,34.4881,4.11e-05
2011-09-11 00:00:00,2011-09-11 00:00:00,PRATE,surface,-107.813,35.4329,2e-05
2011-09-11 00:00:00,2011-09-11 00:00:00,PRATE,surface,-106.875,35.4329,1.95e-05
2011-09-11 00:00:00,2011-09-11 00:00:00,PRATE,surface,-105.938,35.4329,1.84e-05
2011-09-11 00:00:00,2011-09-11 00:00:00,PRATE,surface,-105,35.4329,1.27e-05
2011-09-11 00:00:00,2011-09-11 00:00:00,PRATE,surface,-104.063,35.4329,9e-06
2011-09-11 00:00:00,2011-09-11 00:00:00,PRATE,surface,-103.125,35.4329,1.03e-05
2011-09-11 00:00:00,2011-09-11 00:00:00,PRATE,surface,-102.188,35.4329,1.48e-05
2011-09-11 00:00:00,2011-09-11 00:00:00,PRATE,surface,-101.25,35.4329,1.99e-05
2011-09-11 00:00:00,2011-09-11 00:00:00,PRATE,surface,-100.313,35.4329,2.47e-05
2011-09-11 00:00:00,2011-09-11 00:00:00,PRATE,surface,-99.3754,35.4329,2.88e-05
2011-09-11 00:00:00,2011-09-11 00:00:00,PRATE,surface,-98.4379,35.4329,3.78e-05
2011-09-11 00:00:00,2011-09-11 00:00:00,PRATE,surface,-97.5004,35.4329,5.06e-05
2011-09-11 00:00:00,2011-09-11 00:00:00,PRATE,surface,-96.5629,35.4329,5.79e-05
2011-09-11 00:00:00,2011-09-11 00:00:00,PRATE,surface,-95.6254,35.4329,5.79e-05
2011-09-11 00:00:00,2011-09-11 00:00:00,PRATE,surface,-94.6879,35.4329,5.88e-05
2011-09-11 00:00:00,2011-09-11 00:00:00,PRATE,surface,-93.7504,35.4329,6.21e-05
2011-09-11 00:00:00,2011-09-11 00:00:00,PRATE,surface,-92.8129,35.4329,5.79e-05
2011-09-11 00:00:00,2011-09-11 00:00:00,PRATE,surface,-107.813,36.3778,2.29e-05
2011-09-11 00:00:00,2011-09-11 00:00:00,PRATE,surface,-106.875,36.3778,2.67e-05
2011-09-11 00:00:00,2011-09-11 00:00:00,PRATE,surface,-105.938,36.3778,2.06e-05
2011-09-11 00:00:00,2011-09-11 00:00:00,PRATE,surface,-105,36.3778,1.51e-05
2011-09-11 00:00:00,2011-09-11 00:00:00,PRATE,surface,-104.063,36.3778,1.18e-05
2011-09-11 00:00:00,2011-09-11 00:00:00,PRATE,surface,-103.125,36.3778,9.9e-06
2011-09-11 00:00:00,2011-09-11 00:00:00,PRATE,surface,-102.188,36.3778,1.09e-05
2011-09-11 00:00:00,2011-09-11 00:00:00,PRATE,surface,-101.25,36.3778,1.43e-05
2011-09-11 00:00:00,2011-09-11 00:00:00,PRATE,surface,-100.313,36.3778,1.79e-05
2011-09-11 00:00:00,2011-09-11 00:00:00,PRATE,surface,-99.3754,36.3778,2.28e-05
2011-09-11 00:00:00,2011-09-11 00:00:00,PRATE,surface,-98.4379,36.3778,3.18e-05
2011-09-11 00:00:00,2011-09-11 00:00:00,PRATE,surface,-97.5004,36.3778,4.18e-05
2011-09-11 00:00:00,2011-09-11 00:00:00,PRATE,surface,-96.5629,36.3778,4.93e-05
2011-09-11 00:00:00,2011-09-11 00:00:00,PRATE,surface,-95.6254,36.3778,5.61e-05
2011-09-11 00:00:00,2011-09-11 00:00:00,PRATE,surface,-94.6879,36.3778,6.34e-05
2011-09-11 00:00:00,2011-09-11 00:00:00,PRATE,surface,-93.7504,36.3778,6.71e-05
2011-09-11 00:00:00,2011-09-11 00:00:00,PRATE,surface,-92.8129,36.3778,6.51e-05
