2017-10-08 00:00:00,2017-10-08 00:00:00,TMP,surface,-107.813,25.0393,290.849
2017-10-08 00:00:00,2017-10-08 00:00:00,TMP,surface,-106.875,25.0393,285.413
2017-10-08 00:00:00,2017-10-08 00:00:00,TMP,surface,-105.938,25.0393,280.424
2017-10-08 00:00:00,2017-10-08 00:00:00,TMP,surface,-105,25.0393,279.79
2017-10-08 00:00:00,2017-10-08 00:00:00,TMP,surface,-104.063,25.0393,283.451
2017-10-08 00:00:00,2017-10-08 00:00:00,TMP,surface,-103.125,25.0393,285.504
2017-10-08 00:00:00,2017-10-08 00:00:00,TMP,surface,-102.188,25.0393,285.401
2017-10-08 00:00:00,2017-10-08 00:00:00,TMP,surface,-101.25,25.0393,284.181
2017-10-08 00:00:00,2017-10-08 00:00:00,TMP,surface,-100.313,25.0393,284.565
2017-10-08 00:00:00,2017-10-08 00:00:00,TMP,surface,-99.3754,25.0393,286.693
2017-10-08 00:00:00,2017-10-08 00:00:00,TMP,surface,-98.4379,25.0393,289.393
2017-10-08 00:00:00,2017-10-08 00:00:00,TMP,surface,-97.5004,25.0393,295.835
2017-10-08 00:00:00,2017-10-08 00:00:00,TMP,surface,-96.5629,25.0393,296.26
2017-10-08 00:00:00,2017-10-08 00:00:00,TMP,surface,-95.6254,25.0393,296.6
2017-10-08 00:00:00,2017-10-08 00:00:00,TMP,surface,-94.6879,25.0393,296.779
2017-10-08 00:00:00,2017-10-08 00:00:00,TMP,surface,-93.7504,25.0393,296.606
2017-10-08 00:00:00,2017-10-08 00:00:00,TMP,surface,-92.8129,25.0393,296.481
2017-10-08 00:00:00,2017-10-08 00:00:00,TMP,surface,-107.813,25.9842,286.521
2017-10-08 00:00:00,2017-10-08 00:00:00,TMP,surface,-106.875,25.9842,280.867
2017-10-08 00:00:00,2017-10-08 00:00:00,TMP,surface,-105.938,25.9842,279.017
2017-10-08 00:00:00,2017-10-08 00:00:00,TMP,surface,-105,25.9842,281.841
2017-10-08 00:00:00,2017-10-08 00:00:00,TMP,surface,-104.063,25.9842,285.107
2017-10-08 00:00:00,2017-10-08 00:00:00,TMP,surface,-103.125,25.9842,286.365
2017-10-08 00:00:00,2017-10-08 00:00:00,TMP,surface,-102.188,25.9842,285.985
2017-10-08 00:00:00,2017-10-08 00:00:00,TMP,surface,-101.25,25.9842,284.971
2017-10-08 00:00:00,2017-10-08 00:00:00,TMP,surface,-100.313,25.9842,284.753
2017-10-08 00:00:00,2017-10-08 00:00:00,TMP,surface,-99.3754,25.9842,286.641
2017-10-08 00:00:00,2017-10-08 00:00:00,TMP,surface,-98.4379,25.9842,288.6
2017-10-08 00:00:00,2017-10-08 00:00:00,TMP,surface,-97.5004,25.9842,290.422
2017-10-08 00:00:00,2017-10-08 00:00:00,TMP,surface,-96.5629,25.9842,295.529
2017-10-08 00:00:00,2017-10-08 00:00:00,TMP,surface,-95.6254,25.9842,295.878
2017-10-08 00:00:00,2017-10-08 00:00:00,TMP,surface,-94.6879,25.9842,295.953
2017-10-08 00:00:00,2017-10-08 00:00:00,TMP,surface,-93.7504,25.9842,295.894
2017-10-08 00:00:00,2017-10-08 00:00:00,TMP,surface,-92.8129,25.9842,295.843
2017-10-08 00:00:00,2017-10-08 00:00:00,TMP,surface,-107.813,26.929,281.616
2017-10-08 00:00:00,2017-10-08 00:00:00,TMP,surface,-106.875,26.929,277.921
2017-10-08 00:00:00,2017-10-08 00:00:00,TMP,surface,-105.938,26.929,280.377
2017-10-08 00:00:00,2017-10-08 00:00:00,TMP,surface,-105,26.929,283.771
2017-10-08 00:00:00,2017-10-08 00:00:00,TMP,surface,-104.063,26.929,285.006
2017-10-08 00:00:00,2017-10-08 00:00:00,TMP,surface,-103.125,26.929,284.489
2017-10-08 00:00:00,2017-10-08 00:00:00,TMP,surface,-102.188,26.929,284.177
2017-10-08 00:00:00,2017-10-08 00:00:00,TMP,surface,-101.25,26.929,284.228
2017-10-08 00:00:00,2017-10-08 00:00:00,TMP,surface,-100.313,26.929,284.505
2017-10-08 00:00:00,2017-10-08 00:00:00,TMP,surface,-99.3754,26.929,285.424
2017-10-08 00:00:00,2017-10-08 00:00:00,TMP,surface,-98.4379,26.929,286.544
2017-10-08 00:00:00,2017-10-08 00:00:00,TMP,surface,-97.5004,26.929,293.48
2017-10-08 00:00:00,2017-10-08 00:00:00,TMP,surface,-96.5629,26.929,294.523
2017-10-08 00:00:00,2017-10-08 00:00:00,TMP,surface,-95.6254,26.929,294.846
2017-10-08 00:00:00,2017-10-08 00:00:00,TMP,surface,-94.6879,26.929,294.92
2017-10-08 00:00:00,2017-10-08 00:00:00,TMP,surface,-93.7504,26.929,294.872
2017-10-08 00:00:00,2017-10-08 00:00:00,TMP,surface,-92.8129,26.929,294.789
2017-10-08 00:00:00,2017-10-08 00:00:00,TMP,surface,-107.813,27.8739,278.272
2017-10-08 00:00:00,2017-10-08 00:00:00,TMP,surface,-106.875,27.8739,277.741
2017-10-08 00:00:00,2017-10-08 00:00:00,TMP,surface,-105.938,27.8739,281.521
2017-10-08 00:00:00,2017-10-08 00:00:00,TMP,surface,-105,27.8739,284.243
2017-10-08 00:00:00,2017-10-08 00:00:00,TMP,surface,-104.063,27.8739,284.052
2017-10-08 00:00:00,2017-10-08 00:00:00,TMP,surface,-103.125,27.8739,282.846
2017-10-08 00:00:00,2017-10-08 00:00:00,TMP,surface,-102.188,27.8739,282.419
2017-10-08 00:00:00,2017-10-08 00:00:00,TMP,surface,-101.25,27.8739,282.936
2017-10-08 00:00:00,2017-10-08 00:00:00,TMP,surface,-100.313,27.8739,283.51
2017-10-08 00:00:00,2017-10-08 00:00:00,TMP,surface,-99.3754,27.8739,283.728
2017-10-08 00:00:00,2017-10-08 00:00:00,TMP,surface,-98.4379,27.8739,284.316
2017-10-08 00:00:00,2017-10-08 00:00:00,TMP,surface,-97.5004,27.8739,289.539
2017-10-08 00:00:00,2017-10-08 00:00:00,TMP,surface,-96.5629,27.8739,294.54
2017-10-08 00:00:00,2017-10-08 00:00:00,TMP,surface,-95.6254,27.8739,294.622
2017-10-08 00:00:00,2017-10-08 00:00:00,TMP,surface,-94.6879,27.8739,294.185
2017-10-08 00:00:00,2017-10-08 00:00:00,TMP,surface,-93.7504,27.8739,293.937
2017-10-08 00:00:00,2017-10-08 00:00:00,TMP,surface,-92.8129,27.8739,293.875
2017-10-08 00:00:00,2017-10-08 00:00:00,TMP,surface,-107.813,28.8188,277.121
2017-10-08 00:00:00,2017-10-08 00:00:00,TMP,surface,-106.875,28.8188,278.352
2017-10-08 00:00:00,2017-10-08 00:00:00,TMP,surface,-105.938,28.8188,281.63
2017-10-08 00:00:00,2017-10-08 00:00:00,TMP,surface,-105,28.8188,282.958
2017-10-08 00:00:00,2017-10-08 00:00:00,TMP,surface,-104.063,28.8188,282.2
2017-10-08 00:00:00,2017-10-08 00:00:00,TMP,surface,-103.125,28.8188,281.35
2017-10-08 00:00:00,2017-10-08 00:00:00,TMP,surface,-102.188,28.8188,281.273
2017-10-08 00:00:00,2017-10-08 00:00:00,TMP,surface,-101.25,28.8188,281.924
2017-10-08 00:00:00,2017-10-08 00:00:00,TMP,surface,-100.313,28.8188,282.048
2017-10-08 00:00:00,2017-10-08 00:00:00,TMP,surface,-99.3754,28.8188,281.744
2017-10-08 00:00:00,2017-10-08 00:00:00,TMP,surface,-98.4379,28.8188,281.797
2017-10-08 00:00:00,2017-10-08 00:00:00,TMP,surface,-97.5004,28.8188,282.584
2017-10-08 00:00:00,2017-10-08 00:00:00,TMP,surface,-96.5629,28.8188,283.84
2017-10-08 00:00:00,2017-10-08 00:00:00,TMP,surface,-95.6254,28.8188,288.131
2017-10-08 00:00:00,2017-10-08 00:00:00,TMP,surface,-94.6879,28.8188,293.859
2017-10-08 00:00:00,2017-10-08 00:00:00,TMP,surface,-93.7504,28.8188,293.739
2017-10-08 00:00:00,2017-10-08 00:00:00,TMP,surface,-92.8129,28.8188,293.805
2017-10-08 00:00:00,2017-10-08 00:00:00,TMP,surface,-107.813,29.7637,277.878
2017-10-08 00:00:00,2017-10-08 00:00:00,TMP,surface,-106.875,29.7637,279.021
2017-10-08 00:00:00,2017-10-08 00:00:00,TMP,surface,-105.938,29.7637,280.806
2017-10-08 00:00:00,2017-10-08 00:00:00,TMP,surface,-105,29.7637,280.504
2017-10-08 00:00:00,2017-10-08 00:00:00,TMP,surface,-104.063,29.7637,280.353
2017-10-08 00:00:00,2017-10-08 00:00:00,TMP,surface,-103.125,29.7637,280.28
2017-10-08 00:00:00,2017-10-08 00:00:00,TMP,surface,-102.188,29.7637,280.688
2017-10-08 00:00:00,2017-10-08 00:00:00,TMP,surface,-101.25,29.7637,280.704
2017-10-08 00:00:00,2017-10-08 00:00:00,TMP,surface,-100.313,29.7637,280.078
2017-10-08 00:00:00,2017-10-08 00:00:00,TMP,surface,-99.3754,29.7637,279.681
2017-10-08 00:00:00,2017-10-08 00:00:00,TMP,surface,-98.4379,29.7637,279.677
2017-10-08 00:00:00,2017-10-08 00:00:00,TMP,surface,-97.5004,29.7637,279.917
2017-10-08 00:00:00,2017-10-08 00:00:00,TMP,surface,-96.5629,29.7637,280.596
2017-10-08 00:00:00,2017-10-08 00:00:00,TMP,surface,-95.6254,29.7637,281.87
2017-10-08 00:00:00,2017-10-08 00:00:00,TMP,surface,-94.6879,29.7637,286.313
2017-10-08 00:00:00,2017-10-08 00:00:00,TMP,surface,-93.7504,29.7637,291.296
2017-10-08 00:00:00,2017-10-08 00:00:00,TMP,surface,-92.8129,29.7637,283.812
2017-10-08 00:00:00,2017-10-08 00:00:00,TMP,surface,-107.813,30.7085,279.013
2017-10-08 00:00:00,2017-10-08 00:00:00,TMP,surface,-106.875,30.7085,279.507
2017-10-08 00:00:00,2017-10-08 00:00:00,TMP,surface,-105.938,30.7085,279.097
2017-10-08 00:00:00,2017-10-08 00:00:00,TMP,surface,-105,30.7085,278.526
2017-10-08 00:00:00,2017-10-08 00:00:00,TMP,surface,-104.063,30.7085,278.416
2017-10-08 00:00:00,2017-10-08 00:00:00,TMP,surface,-103.125,30.7085,279.03
2017-10-08 00:00:00,2017-10-08 00:00:00,TMP,surface,-102.188,30.7085,279.315
2017-10-08 00:00:00,2017-10-08 00:00:00,TMP,surface,-101.25,30.7085,278.94
2017-10-08 00:00:00,2017-10-08 00:00:00,TMP,surface,-100.313,30.7085,278.465
2017-10-08 00:00:00,2017-10-08 00:00:00,TMP,surface,-99.3754,30.7085,278.286
2017-10-08 00:00:00,2017-10-08 00:00:00,TMP,surface,-98.4379,30.7085,278.374
2017-10-08 00:00:00,2017-10-08 00:00:00,TMP,surface,-97.5004,30.7085,278.593
2017-10-08 00:00:00,2017-10-08 00:00:00,TMP,surface,-96.5629,30.7085,278.99
2017-10-08 00:00:00,2017-10-08 00:00:00,TMP,surface,-95.6254,30.7085,279.598
2017-10-08 00:00:00,2017-10-08 00:00:00,TMP,surface,-94.6879,30.7085,280.19
2017-10-08 00:00:00,2017-10-08 00:00:00,TMP,surface,-93.7504,30.7085,280.432
2017-10-08 00:00:00,2017-10-08 00:00:00,TMP,surface,-92.8129,30.7085,280.26
2017-10-08 00:00:00,2017-10-08 00:00:00,TMP,surface,-107.813,31.6534,277.923
2017-10-08 00:00:00,2017-10-08 00:00:00,TMP,surface,-106.875,31.6534,277.917
2017-10-08 00:00:00,2017-10-08 00:00:00,TMP,surface,-105.938,31.6534,276.566
2017-10-08 00:00:00,2017-10-08 00:00:00,TMP,surface,-105,31.6534,276.556
2017-10-08 00:00:00,2017-10-08 00:00:00,TMP,surface,-104.063,31.6534,277.03
2017-10-08 00:00:00,2017-10-08 00:00:00,TMP,surface,-103.125,31.6534,277.569
2017-10-08 00:00:00,2017-10-08 00:00:00,TMP,surface,-102.188,31.6534,277.686
2017-10-08 00:00:00,2017-10-08 00:00:00,TMP,surface,-101.25,31.6534,277.36
2017-10-08 00:00:00,2017-10-08 00:00:00,TMP,surface,-100.313,31.6534,277.201
2017-10-08 00:00:00,2017-10-08 00:00:00,TMP,surface,-99.3754,31.6534,277.309
2017-10-08 00:00:00,2017-10-08 00:00:00,TMP,surface,-98.4379,31.6534,277.59
2017-10-08 00:00:00,2017-10-08 00:00:00,TMP,surface,-97.5004,31.6534,277.92
2017-10-08 00:00:00,2017-10-08 00:00:00,TMP,surface,-96.5629,31.6534,278.217
2017-10-08 00:00:00,2017-10-08 00:00:00,TMP,surface,-95.6254,31.6534,278.409
2017-10-08 00:00:00,2017-10-08 00:00:00,TMP,surface,-94.6879,31.6534,278.453
2017-10-08 00:00:00,2017-10-08 00:00:00,TMP,surface,-93.7504,31.6534,278.465
2017-10-08 00:00:00,2017-10-08 00:00:00,TMP,surface,-92.8129,31.6534,278.619
2017-10-08 00:00:00,2017-10-08 00:00:00,TMP,surface,-107.813,32.5983,274.929
2017-10-08 00:00:00,2017-10-08 00:00:00,TMP,surface,-106.875,32.5983,274.705
2017-10-08 00:00:00,2017-10-08 00:00:00,TMP,surface,-105.938,32.5983,274.665
2017-10-08 00:00:00,2017-10-08 00:00:00,TMP,surface,-105,32.5983,274.876
2017-10-08 00:00:00,2017-10-08 00:00:00,TMP,surface,-104.063,32.5983,275.355
2017-10-08 00:00:00,2017-10-08 00:00:00,TMP,surface,-103.125,32.5983,275.742
2017-10-08 00:00:00,2017-10-08 00:00:00,TMP,surface,-102.188,32.5983,275.758
2017-10-08 00:00:00,2017-10-08 00:00:00,TMP,surface,-101.25,32.5983,275.881
2017-10-08 00:00:00,2017-10-08 00:00:00,TMP,surface,-100.313,32.5983,276.116
2017-10-08 00:00:00,2017-10-08 00:00:00,TMP,surface,-99.3754,32.5983,276.312
2017-10-08 00:00:00,2017-10-08 00:00:00,TMP,surface,-98.4379,32.5983,276.523
2017-10-08 00:00:00,2017-10-08 00:00:00,TMP,surface,-97.5004,32.5983,276.845
2017-10-08 00:00:00,2017-10-08 00:00:00,TMP,surface,-96.5629,32.5983,277.214
2017-10-08 00:00:00,2017-10-08 00:00:00,TMP,surface,-95.6254,32.5983,277.436
2017-10-08 00:00:00,2017-10-08 00:00:00,TMP,surface,-94.6879,32.5983,277.401
2017-10-08 00:00:00,2017-10-08 00:00:00,TMP,surface,-93.7504,32.5983,277.355
2017-10-08 00:00:00,2017-10-08 00:00:00,TMP,surface,-92.8129,32.5983,277.715
2017-10-08 00:00:00,2017-10-08 00:00:00,TMP,surface,-107.813,33.5432,271.321
2017-10-08 00:00:00,2017-10-08 00:00:00,TMP,surface,-106.875,33.5432,271.939
2017-10-08 00:00:00,2017-10-08 00:00:00,TMP,surface,-105.938,33.5432,272.757
2017-10-08 00:00:00,2017-10-08 00:00:00,TMP,surface,-105,33.5432,273.344
2017-10-08 00:00:00,2017-10-08 00:00:00,TMP,surface,-104.063,33.5432,273.716
2017-10-08 00:00:00,2017-10-08 00:00:00,TMP,surface,-103.125,33.5432,273.928
2017-10-08 00:00:00,2017-10-08 00:00:00,TMP,surface,-102.188,33.5432,273.952
2017-10-08 00:00:00,2017-10-08 00:00:00,TMP,surface,-101.25,33.5432,274.329
2017-10-08 00:00:00,2017-10-08 00:00:00,TMP,surface,-100.313,33.5432,274.966
2017-10-08 00:00:00,2017-10-08 00:00:00,TMP,surface,-99.3754,33.5432,275.32
2017-10-08 00:00:00,2017-10-08 00:00:00,TMP,surface,-98.4379,33.5432,275.294
2017-10-08 00:00:00,2017-10-08 00:00:00,TMP,surface,-97.5004,33.5432,275.272
2017-10-08 00:00:00,2017-10-08 00:00:00,TMP,surface,-96.5629,33.5432,275.641
2017-10-08 00:00:00,2017-10-08 00:00:00,TMP,surface,-95.6254,33.5432,276.144
2017-10-08 00:00:00,2017-10-08 00:00:00,TMP,surface,-94.6879,33.5432,276.259
2017-10-08 00:00:00,2017-10-08 00:00:00,TMP,surface,-93.7504,33.5432,276.209
2017-10-08 00:00:00,2017-10-08 00:00:00,TMP,surface,-92.8129,33.5432,276.436
2017-10-08 00:00:00,2017-10-08 00:00:00,TMP,surface,-107.813,34.4881,269.358
2017-10-08 00:00:00,2017-10-08 00:00:00,TMP,surface,-106.875,34.4881,270.438
2017-10-08 00:00:00,2017-10-08 00:00:00,TMP,surface,-105.938,34.4881,271.232
2017-10-08 00:00:00,2017-10-08 00:00:00,TMP,surface,-105,34.4881,271.606
2017-10-08 00:00:00,2017-10-08 00:00:00,TMP,surface,-104.063,34.4881,271.857
2017-10-08 00:00:00,2017-10-08 00:00:00,TMP,surface,-103.125,34.4881,272.004
2017-10-08 00:00:00,2017-10-08 00:00:00,TMP,surface,-102.188,34.4881,272.246
2017-10-08 00:00:00,2017-10-08 00:00:00,TMP,surface,-101.25,34.4881,272.723
2017-10-08 00:00:00,2017-10-08 00:00:00,TMP,surface,-100.313,34.4881,273.254
2017-10-08 00:00:00,2017-10-08 00:00:00,TMP,surface,-99.3754,34.4881,273.579
2017-10-08 00:00:00,2017-10-08 00:00:00,TMP,surface,-98.4379,34.4881,273.604
2017-10-08 00:00:00,2017-10-08 00:00:00,TMP,surface,-97.5004,34.4881,273.667
2017-10-08 00:00:00,2017-10-08 00:00:00,TMP,surface,-96.5629,34.4881,274.115
2017-10-08 00:00:00,2017-10-08 00:00:00,TMP,surface,-95.6254,34.4881,274.641
2017-10-08 00:00:00,2017-10-08 00:00:00,TMP,surface,-94.6879,34.4881,274.776
2017-10-08 00:00:00,2017-10-08 00:00:00,TMP,surface,-93.7504,34.4881,274.761
2017-10-08 00:00:00,2017-10-08 00:00:00,TMP,surface,-92.8129,34.4881,274.95
2017-10-08 00:00:00,2017-10-08 00:00:00,TMP,surface,-107.813,35.4329,269.102
2017-10-08 00:00:00,2017-10-08 00:00:00,TMP,surface,-106.875,35.4329,269.444
2017-10-08 00:00:00,2017-10-08 00:00:00,TMP,surface,-105.938,35.4329,269.696
2017-10-08 00:00:00,2017-10-08 00:00:00,TMP,surface,-105,35.4329,269.969
2017-10-08 00:00:00,2017-10-08 00:00:00,TMP,surface,-104.063,35.4329,270.013
2017-10-08 00:00:00,2017-10-08 00:00:00,TMP,surface,-103.125,35.4329,270.654
2017-10-08 00:00:00,2017-10-08 00:00:00,TMP,surface,-102.188,35.4329,270.993
2017-10-08 00:00:00,2017-10-08 00:00:00,TMP,surface,-101.25,35.4329,271.212
2017-10-08 00:00:00,2017-10-08 00:00:00,TMP,surface,-100.313,35.4329,271.616
2017-10-08 00:00:00,2017-10-08 00:00:00,TMP,surface,-99.3754,35.4329,271.905
2017-10-08 00:00:00,2017-10-08 00:00:00,TMP,surface,-98.4379,35.4329,272.021
2017-10-08 00:00:00,2017-10-08 00:00:00,TMP,surface,-97.5004,35.4329,272.313
2017-10-08 00:00:00,2017-10-08 00:00:00,TMP,surface,-96.5629,35.4329,272.907
2017-10-08 00:00:00,2017-10-08 00:00:00,TMP,surface,-95.6254,35.4329,273.48
2017-10-08 00:00:00,2017-10-08 00:00:00,TMP,surface,-94.6879,35.4329,273.701
2017-10-08 00:00:00,2017-10-08 00:00:00,TMP,surface,-93.7504,35.4329,273.622
2017-10-08 00:00:00,2017-10-08 00:00:00,TMP,surface,-92.8129,35.4329,273.622
2017-10-08 00:00:00,2017-10-08 00:00:00,TMP,surface,-107.813,36.3778,267.853
2017-10-08 00:00:00,2017-10-08 00:00:00,TMP,surface,-106.875,36.3778,267.004
2017-10-08 00:00:00,2017-10-08 00:00:00,TMP,surface,-105.938,36.3778,267.091
2017-10-08 00:00:00,2017-10-08 00:00:00,TMP,surface,-105,36.3778,267.948
2017-10-08 00:00:00,2017-10-08 00:00:00,TMP,surface,-104.063,36.3778,268.492
2017-10-08 00:00:00,2017-10-08 00:00:00,TMP,surface,-103.125,36.3778,269.345
2017-10-08 00:00:00,2017-10-08 00:00:00,TMP,surface,-102.188,36.3778,269.704
2017-10-08 00:00:00,2017-10-08 00:00:00,TMP,surface,-101.25,36.3778,270.029
2017-10-08 00:00:00,2017-10-08 00:00:00,TMP,surface,-100.313,36.3778,270.507
2017-10-08 00:00:00,2017-10-08 00:00:00,TMP,surface,-99.3754,36.3778,270.699
2017-10-08 00:00:00,2017-10-08 00:00:00,TMP,surface,-98.4379,36.3778,270.504
2017-10-08 00:00:00,2017-10-08 00:00:00,TMP,surface,-97.5004,36.3778,270.816
2017-10-08 00:00:00,2017-10-08 00:00:00,TMP,surface,-96.5629,36.3778,271.768
2017-10-08 00:00:00,2017-10-08 00:00:00,TMP,surface,-95.6254,36.3778,272.54
2017-10-08 00:00:00,2017-10-08 00:00:00,TMP,surface,-94.6879,36.3778,272.742
2017-10-08 00:00:00,2017-10-08 00:00:00,TMP,surface,-93.7504,36.3778,272.614
2017-10-08 00:00:00,2017-10-08 00:00:00,TMP,surface,-92.8129,36.3778,272.614
2017-10-08 00:00:00,2017-10-08 00:00:00,PRATE,surface,-107.813,25.0393,3.9e-05
2017-10-08 00:00:00,2017-10-08 00:00:00,PRATE,surface,-106.875,25.0393,6.72e-05
2017-10-08 00:00:00,2017-10-08 00:00:00,PRATE,surface,-105.938,25.0393,6.81e-05
2017-10-08 00:00:00,2017-10-08 00:00:00,PRATE,surface,-105,25.0393,3.83e-05
2017-10-08 00:00:00,2017-10-08 00:00:00,PRATE,surface,-104.063,25.0393,1.63e-05
2017-10-08 00:00:00,2017-10-08 00:00:00,PRATE,surface,-103.125,25.0393,8.5e-06
2017-10-08 00:00:00,2017-10-08 00:00:00,PRATE,surface,-102.188,25.0393,1.23e-05
2017-10-08 00:00:00,2017-10-08 00:00:00,PRATE,surface,-101.25,25.0393,2.28e-05
2017-10-08 00:00:00,2017-10-08 00:00:00,PRATE,surface,-100.313,25.0393,2.87e-05
2017-10-08 00:00:00,2017-10-08 00:00:00,PRATE,surface,-99.3754,25.0393,2.58e-05
2017-10-08 00:00:00,2017-10-08 00:00:00,PRATE,surface,-98.4379,25.0393,2.35e-05
2017-10-08 00:00:00,2017-10-08 00:00:00,PRATE,surface,-97.5004,25.0393,3.82e-05
2017-10-08 00:00:00,2017-10-08 00:00:00,PRATE,surface,-96.5629,25.0393,5.21e-05
2017-10-08 00:00:00,2017-10-08 00:00:00,PRATE,surface,-95.6254,25.0393,6.4e-05
2017-10-08 00:00:00,2017-10-08 00:00:00,PRATE,surface,-94.6879,25.0393,6.12e-05
2017-10-08 00:00:00,2017-10-08 00:00:00,PRATE,surface,-93.7504,25.0393,4.83e-05
2017-10-08 00:00:00,2017-10-08 00:00:00,PRATE,surface,-92.8129,25.0393,5.62e-05
2017-10-08 00:00:00,2017-10-08 00:00:00,PRATE,surface,-107.813,25.9842,3.7e-05
2017-10-08 00:00:00,2017-10-08 00:00:00,PRATE,surface,-106.875,25.9842,5.41e-05
2017-10-08 00:00:00,2017-10-08 00:00:00,PRATE,surface,-105.938,25.9842,4.23e-05
2017-10-08 00:00:00,2017-10-08 00:00:00,PRATE,surface,-105,25.9842,2.93e-05
2017-10-08 00:00:00,2017-10-08 00:00:00,PRATE,surface,-104.063,25.9842,1.88e-05
2017-10-08 00:00:00,2017-10-08 00:00:00,PRATE,surface,-103.125,25.9842,1.47e-05
2017-10-08 00:00:00,2017-10-08 00:00:00,PRATE,surface,-102.188,25.9842,1.58e-05
2017-10-08 00:00:00,2017-10-08 00:00:00,PRATE,surface,-101.25,25.9842,1.79e-05
2017-10-08 00:00:00,2017-10-08 00:00:00,PRATE,surface,-100.313,25.9842,2.03e-05
2017-10-08 00:00:00,2017-10-08 00:00:00,PRATE,surface,-99.3754,25.9842,1.67e-05
2017-10-08 00:00:00,2017-10-08 00:00:00,PRATE,surface,-98.4379,25.9842,2.16e-05
2017-10-08 00:00:00,2017-10-08 00:00:00,PRATE,surface,-97.5004,25.9842,3.78e-05
2017-10-08 00:00:00,2017-10-08 00:00:00,PRATE,surface,-96.5629,25.9842,5.28e-05
2017-10-08 00:00:00,2017-10-08 00:00:00,PRATE,surface,-95.6254,25.9842,7.56e-05
2017-10-08 00:00:00,2017-10-08 00:00:00,PRATE,surface,-94.6879,25.9842,8.01e-05
2017-10-08 00:00:00,2017-10-08 00:00:00,PRATE,surface,-93.7504,25.9842,6.98e-05
2017-10-08 00:00:00,2017-10-08 00:00:00,PRATE,surface,-92.8129,25.9842,7.52e-05
2017-10-08 00:00:00,2017-10-08 00:00:00,PRATE,surface,-107.813,26.929,3.43e-05
2017-10-08 00:00:00,2017-10-08 00:00:00,PRATE,surface,-106.875,26.929,3.11e-05
2017-10-08 00:00:00,2017-10-08 00:00:00,PRATE,surface,-105.938,26.929,2.52e-05
2017-10-08 00:00:00,2017-10-08 00:00:00,PRATE,surface,-105,26.929,2.15e-05
2017-10-08 00:00:00,2017-10-08 00:00:00,PRATE,surface,-104.063,26.929,1.87e-05
2017-10-08 00:00:00,2017-10-08 00:00:00,PRATE,surface,-103.125,26.929,2.56e-05
2017-10-08 00:00:00,2017-10-08 00:00:00,PRATE,surface,-102.188,26.929,3.11e-05
2017-10-08 00:00:00,2017-10-08 00:00:00,PRATE,surface,-101.25,26.929,3.29e-05
2017-10-08 00:00:00,2017-10-08 00:00:00,PRATE,surface,-100.313,26.929,3.11e-05
2017-10-08 00:00:00,2017-10-08 00:00:00,PRATE,surface,-99.3754,26.929,2.79e-05
2017-10-08 00:00:00,2017-10-08 00:00:00,PRATE,surface,-98.4379,26.929,3.13e-05
2017-10-08 00:00:00,2017-10-08 00:00:00,PRATE,surface,-97.5004,26.929,4.15e-05
2017-10-08 00:00:00,2017-10-08 00:00:00,PRATE,surface,-96.5629,26.929,5.54e-05
2017-10-08 00:00:00,2017-10-08 00:00:00,PRATE,surface,-95.6254,26.929,6.36e-05
2017-10-08 00:00:00,2017-10-08 00:00:00,PRATE,surface,-94.6879,26.929,9.13e-05
2017-10-08 00:00:00,2017-10-08 00:00:00,PRATE,surface,-93.7504,26.929,0.0001001
2017-10-08 00:00:00,2017-10-08 00:00:00,PRATE,surface,-92.8129,26.929,0.0001124
2017-10-08 00:00:00,2017-10-08 00:00:00,PRATE,surface,-107.813,27.8739,2.99e-05
2017-10-08 00:00:00,2017-10-08 00:00:00,PRATE,surface,-106.875,27.8739,2.12e-05
2017-10-08 00:00:00,2017-10-08 00:00:00,PRATE,surface,-105.938,27.8739,1.25e-05
2017-10-08 00:00:00,2017-10-08 00:00:00,PRATE,surface,-105,27.8739,8.9e-06
2017-10-08 00:00:00,2017-10-08 00:00:00,PRATE,surface,-104.063,27.8739,1.4e-05
2017-10-08 00:00:00,2017-10-08 00:00:00,PRATE,surface,-103.125,27.8739,2.67e-05
2017-10-08 00:00:00,2017-10-08 00:00:00,PRATE,surface,-102.188,27.8739,3.54e-05
2017-10-08 00:00:00,2017-10-08 00:00:00,PRATE,surface,-101.25,27.8739,3.58e-05
2017-10-08 00:00:00,2017-10-08 00:00:00,PRATE,surface,-100.313,27.8739,3.56e-05
2017-10-08 00:00:00,2017-10-08 00:00:00,PRATE,surface,-99.3754,27.8739,3.83e-05
2017-10-08 00:00:00,2017-10-08 00:00:00,PRATE,surface,-98.4379,27.8739,4e-05
2017-10-08 00:00:00,2017-10-08 00:00:00,PRATE,surface,-97.5004,27.8739,4.24e-05
2017-10-08 00:00:00,2017-10-08 00:00:00,PRATE,surface,-96.5629,27.8739,5.16e-05
2017-10-08 00:00:00,2017-10-08 00:00:00,PRATE,surface,-95.6254,27.8739,6.76e-05
2017-10-08 00:00:00,2017-10-08 00:00:00,PRATE,surface,-94.6879,27.8739,8.9e-05
2017-10-08 00:00:00,2017-10-08 00:00:00,PRATE,surface,-93.7504,27.8739,0.0001159
2017-10-08 00:00:00,2017-10-08 00:00:00,PRATE,surface,-92.8129,27.8739,0.0001356
2017-10-08 00:00:00,2017-10-08 00:00:00,PRATE,surface,-107.813,28.8188,2.75e-05
2017-10-08 00:00:00,2017-10-08 00:00:00,PRATE,surface,-106.875,28.8188,1.9e-05
2017-10-08 00:00:00,2017-10-08 00:00:00,PRATE,surface,-105.938,28.8188,1.03e-05
2017-10-08 00:00:00,2017-10-08 00:00:00,PRATE,surface,-105,28.8188,7.2e-06
2017-10-08 00:00:00,2017-10-08 00:00:00,PRATE,surface,-104.063,28.8188,1e-05
2017-10-08 00:00:00,2017-10-08 00:00:00,PRATE,surface,-103.125,28.8188,1.92e-05
2017-10-08 00:00:00,2017-10-08 00:00:00,PRATE,surface,-102.188,28.8188,2.42e-05
2017-10-08 00:00:00,2017-10-08 00:00:00,PRATE,surface,-101.25,28.8188,2.56e-05
2017-10-08 00:00:00,2017-10-08 00:00:00,PRATE,surface,-100.313,28.8188,2.95e-05
2017-10-08 00:00:00,2017-10-08 00:00:00,PRATE,surface,-99.3754,28.8188,3.25e-05
2017-10-08 00:00:00,2017-10-08 00:00:00,PRATE,surface,-98.4379,28.8188,3.75e-05
2017-10-08 00:00:00,2017-10-08 00:00:00,PRATE,surface,-97.5004,28.8188,4.17e-05
2017-10-08 00:00:00,2017-10-08 00:00:00,PRATE,surface,-96.5629,28.8188,5.09e-05
2017-10-08 00:00:00,2017-10-08 00:00:00,PRATE,surface,-95.6254,28.8188,7.13e-05
2017-10-08 00:00:00,2017-10-08 00:00:00,PRATE,surface,-94.6879,28.8188,9.02e-05
2017-10-08 00:00:00,2017-10-08 00:00:00,PRATE,surface,-93.7504,28.8188,0.0001022
2017-10-08 00:00:00,2017-10-08 00:00:00,PRATE,surface,-92.8129,28.8188,0.0001252
2017-10-08 00:00:00,2017-10-08 00:00:00,PRATE,surface,-107.813,29.7637,1.76e-05
2017-10-08 00:00:00,2017-10-08 00:00:00,PRATE,surface,-106.875,29.7637,1.63e-05
2017-10-08 00:00:00,2017-10-08 00:00:00,PRATE,surface,-105.938,29.7637,1.2e-05
2017-10-08 00:00:00,2017-10-08 00:00:00,PRATE,surface,-105,29.7637,9.6e-06
2017-10-08 00:00:00,2017-10-08 00:00:00,PRATE,surface,-104.063,29.7637,1.22e-05
2017-10-08 00:00:00,2017-10-08 00:00:00,PRATE,surface,-103.125,29.7637,1.9e-05
2017-10-08 00:00:00,2017-10-08 00:00:00,PRATE,surface,-102.188,29.7637,2.14e-05
2017-10-08 00:00:00,2017-10-08 00:00:00,PRATE,surface,-101.25,29.7637,2.12e-05
2017-10-08 00:00:00,2017-10-08 00:00:00,PRATE,surface,-100.313,29.7637,2.4e-05
2017-10-08 00:00:00,2017-10-08 00:00:00,PRATE,surface,-99.3754,29.7637,2.68e-05
2017-10-08 00:00:00,2017-10-08 00:00:00,PRATE,surface,-98.4379,29.7637,3.35e-05
2017-10-08 00:00:00,2017-10-08 00:00:00,PRATE,surface,-97.5004,29.7637,4.59e-05
2017-10-08 00:00:00,2017-10-08 00:00:00,PRATE,surface,-96.5629,29.7637,6.04e-05
2017-10-08 00:00:00,2017-10-08 00:00:00,PRATE,surface,-95.6254,29.7637,7.32e-05
2017-10-08 00:00:00,2017-10-08 00:00:00,PRATE,surface,-94.6879,29.7637,8.78e-05
2017-10-08 00:00:00,2017-10-08 00:00:00,PRATE,surface,-93.7504,29.7637,0.0001051
2017-10-08 00:00:00,2017-10-08 00:00:00,PRATE,surface,-92.8129,29.7637,0.000112
2017-10-08 00:00:00,2017-10-08 00:00:00,PRATE,surface,-107.813,30.7085,8.4e-06
2017-10-08 00:00:00,2017-10-08 00:00:00,PRATE,surface,-106.875,30.7085,1.05e-05
2017-10-08 00:00:00,2017-10-08 00:00:00,PRATE,surface,-105.938,30.7085,1.05e-05
2017-10-08 00:00:00,2017-10-08 00:00:00,PRATE,surface,-105,30.7085,9.3e-06
2017-10-08 00:00:00,2017-10-08 00:00:00,PRATE,surface,-104.063,30.7085,8.9e-06
2017-10-08 00:00:00,2017-10-08 00:00:00,PRATE,surface,-103.125,30.7085,9.2e-06
2017-10-08 00:00:00,2017-10-08 00:00:00,PRATE,surface,-102.188,30.7085,1.27e-05
2017-10-08 00:00:00,2017-10-08 00:00:00,PRATE,surface,-101.25,30.7085,1.96e-05
2017-10-08 00:00:00,2017-10-08 00:00:00,PRATE,surface,-100.313,30.7085,2.46e-05
2017-10-08 00:00:00,2017-10-08 00:00:00,PRATE,surface,-99.3754,30.7085,2.55e-05
2017-10-08 00:00:00,2017-10-08 00:00:00,PRATE,surface,-98.4379,30.7085,2.87e-05
2017-10-08 00:00:00,2017-10-08 00:00:00,PRATE,surface,-97.5004,30.7085,3.9e-05
2017-10-08 00:00:00,2017-10-08 00:00:00,PRATE,surface,-96.5629,30.7085,5.24e-05
2017-10-08 00:00:00,2017-10-08 00:00:00,PRATE,surface,-95.6254,30.7085,6.21e-05
2017-10-08 00:00:00,2017-10-08 00:00:00,PRATE,surface,-94.6879,30.7085,6.8e-05
2017-10-08 00:00:00,2017-10-08 00:00:00,PRATE,surface,-93.7504,30.7085,7.45e-05
2017-10-08 00:00:00,2017-10-08 00:00:00,PRATE,surface,-92.8129,30.7085,8.11e-05
2017-10-08 00:00:00,2017-10-08 00:00:00,PRATE,surface,-107.813,31.6534,9.3e-06
2017-10-08 00:00:00,2017-10-08 00:00:00,PRATE,surface,-106.875,31.6534,1.24e-05
2017-10-08 00:00:00,2017-10-08 00:00:00,PRATE,surface,-105.938,31.6534,1.4e-05
2017-10-08 00:00:00,2017-10-08 00:00:00,PRATE,surface,-105,31.6534,1.11e-05
2017-10-08 00:00:00,2017-10-08 00:00:00,PRATE,surface,-104.063,31.6534,7e-06
2017-10-08 00:00:00,2017-10-08 00:00:00,PRATE,surface,-103.125,31.6534,6.2e-06
2017-10-08 00:00:00,2017-10-08 00:00:00,PRATE,surface,-102.188,31.6534,8.7e-06
2017-10-08 00:00:00,2017-10-08 00:00:00,PRATE,surface,-101.25,31.6534,1.53e-05
2017-10-08 00:00:00,2017-10-08 00:00:00,PRATE,surface,-100.313,31.6534,2.1e-05
2017-10-08 00:00:00,2017-10-08 00:00:00,PRATE,surface,-99.3754,31.6534,2.37e-05
2017-10-08 00:00:00,2017-10-08 00:00:00,PRATE,surface,-98.4379,31.6534,2.71e-05
2017-10-08 00:00:00,2017-10-08 00:00:00,PRATE,surface,-97.5004,31.6534,3.64e-05
2017-10-08 00:00:00,2017-10-08 00:00:00,PRATE,surface,-96.5629,31.6534,4.51e-05
2017-10-08 00:00:00,2017-10-08 00:00:00,PRATE,surface,-95.6254,31.6534,5.04e-05
2017-10-08 00:00:00,2017-10-08 00:00:00,PRATE,surface,-94.6879,31.6534,5.94e-05
2017-10-08 00:00:00,2017-10-08 00:00:00,PRATE,surface,-93.7504,31.6534,6.98e-05
2017-10-08 00:00:00,2017-10-08 00:00:00,PRATE,surface,-92.8129,31.6534,7.84e-05
2017-10-08 00:00:00,2017-10-08 00:00:00,PRATE,surface,-107.813,32.5983,1.97e-05
2017-10-08 00:00:00,2017-10-08 00:00:00,PRATE,surface,-106.875,32.5983,1.74e-05
2017-10-08 00:00:00,2017-10-08 00:00:00,PRATE,surface,-105.938,32.5983,1.63e-05
2017-10-08 00:00:00,2017-10-08 00:00:00,PRATE,surface,-105,32.5983,1.28e-05
2017-10-08 00:00:00,2017-10-08 00:00:00,PRATE,surface,-104.063,32.5983,1.07e-05
2017-10-08 00:00:00,2017-10-08 00:00:00,PRATE,surface,-103.125,32.5983,1.09e-05
2017-10-08 00:00:00,2017-10-08 00:00:00,PRATE,surface,-102.188,32.5983,1.28e-05
2017-10-08 00:00:00,2017-10-08 00:00:00,PRATE,surface,-101.25,32.5983,1.44e-05
2017-10-08 00:00:00,2017-10-08 00:00:00,PRATE,surface,-100.313,32.5983,1.67e-05
2017-10-08 00:00:00,2017-10-08 00:00:00,PRATE,surface,-99.3754,32.5983,1.97e-05
2017-10-08 00:00:00,2017-10-08 00:00:00,PRATE,surface,-98.4379,32.5983,2.45e-05
2017-10-08 00:00:00,2017-10-08 00:00:00,PRATE,surface,-97.5004,32.5983,3.15e-05
2017-10-08 00:00:00,2017-10-08 00:00:00,PRATE,surface,-96.5629,32.5983,3.99e-05
2017-10-08 00:00:00,2017-10-08 00:00:00,PRATE,surface,-95.6254,32.5983,4.84e-05
2017-10-08 00:00:00,2017-10-08 00:00:00,PRATE,surface,-94.6879,32.5983,5.59e-05
2017-10-08 00:00:00,2017-10-08 00:00:00,PRATE,surface,-93.7504,32.5983,6.26e-05
2017-10-08 00:00:00,2017-10-08 00:00:00,PRATE,surface,-92.8129,32.5983,6.72e-05
2017-10-08 00:00:00,2017-10-08 00:00:00,PRATE,surface,-107.813,33.5432,2.94e-05
2017-10-08 00:00:00,2017-10-08 00:00:00,PRATE,surface,-106.875,33.5432,2.26e-05
2017-10-08 00:00:00,2017-10-08 00:00:00,PRATE,surface,-105.938,33.5432,1.85e-05
2017-10-08 00:00:00,2017-10-08 00:00:00,PRATE,surface,-105,33.5432,1.59e-05
2017-10-08 00:00:00,2017-10-08 00:00:00,PRATE,surface,-104.063,33.5432,1.52e-05
2017-10-08 00:00:00,2017-10-08 00:00:00,PRATE,surface,-103.125,33.5432,1.5e-05
2017-10-08 00:00:00,2017-10-08 00:00:00,PRATE,surface,-102.188,33.5432,1.38e-05
2017-10-08 00:00:00,2017-10-08 00:00:00,PRATE,surface,-101.25,33.5432,1.43e-05
2017-10-08 00:00:00,2017-10-08 00:00:00,PRATE,surface,-100.313,33.5432,1.36e-05
2017-10-08 00:00:00,2017-10-08 00:00:00,PRATE,surface,-99.3754,33.5432,1.45e-05
2017-10-08 00:00:00,2017-10-08 00:00:00,PRATE,surface,-98.4379,33.5432,1.91e-05
2017-10-08 00:00:00,2017-10-08 00:00:00,PRATE,surface,-97.5004,33.5432,2.62e-05
2017-10-08 00:00:00,2017-10-08 00:00:00,PRATE,surface,-96.5629,33.5432,3.16e-05
2017-10-08 00:00:00,2017-10-08 00:00:00,PRATE,surface,-95.6254,33.5432,3.51e-05
2017-10-08 00:00:00,2017-10-08 00:00:00,PRATE,surface,-94.6879,33.5432,4.1e-05
2017-10-08 00:00:00,2017-10-08 00:00:00,PRATE,surface,-93.7504,33.5432,4.78e-05
2017-10-08 00:00:00,2017-10-08 00:00:00,PRATE,surface,-92.8129,33.5432,5.01e-05
2017-10-08 00:00:00,2017-10-08 00:00:00,PRATE,surface,-107.813,34.4881,2.05e-05
2017-10-08 00:00:00,2017-10-08 00:00:00,PRATE,surface,-106.875,34.4881,1.67e-05
2017-10-08 00:00:00,2017-10-08 00:00:00,PRATE,surface,-105.938,34.4881,1.64e-05
2017-10-08 00:00:00,2017-10-08 00:00:00,PRATE,surface,-105,34.4881,1.77e-05
2017-10-08 00:00:00,2017-10-08 00:00:00,PRATE,surface,-104.063,34.4881,1.71e-05
2017-10-08 00:00:00,2017-10-08 00:00:00,PRATE,surface,-103.125,34.4881,1.65e-05
2017-10-08 00:00:00,2017-10-08 00:00:00,PRATE,surface,-102.188,34.4881,1.57e-05
2017-10-08 00:00:00,2017-10-08 00:00:00,PRATE,surface,-101.25,34.4881,1.65e-05
2017-10-08 00:00:00,2017-10-08 00:00:00,PRATE,surface,-100.313,34.4881,1.71e-05
2017-10-08 00:00:00,2017-10-08 00:00:00,PRATE,surface,-99.3754,34.4881,1.71e-05
2017-10-08 00:00:00,2017-10-08 00:00:00,PRATE,surface,-98.4379,34.4881,2.1e-05
2017-10-08 00:00:00,2017-10-08 00:00:00,PRATE,surface,-97.5004,34.4881,2.74e-05
2017-10-08 00:00:00,2017-10-08 00:00:00,PRATE,surface,-96.5629,34.4881,3.12e-05
2017-10-08 00:00:00,2017-10-08 00:00:00,PRATE,surface,-95.6254,34.4881,3.09e-05
2017-10-08 00:00:00,2017-10-08 00:00:00,PRATE,surface,-94.6879,34.4881,3.1e-05
2017-10-08 00:00:00,2017-10-08 00:00:00,PRATE,surface,-93.7504,34.4881,3.45e-05
2017-10-08 00:00:00,2017-10-08 00:00:00,PRATE,surface,-92.8129,34.4881,3.87e-05
2017-10-08 00:00:00,2017-10-08 00:00:00,PRATE,surface,-107.813,35.4329,1.83e-05
2017-10-08 00:00:00,2017-10-08 00:00:00,PRATE,surface,-106.875,35.4329,1.62e-05
2017-10-08 00:00:00,2017-10-08 00:00:00,PRATE,surface,-105.938,35.4329,1.94e-05
2017-10-08 00:00:00,2017-10-08 00:00:00,PRATE,surface,-105,35.4329,2.47e-05
2017-10-08 00:00:00,2017-10-08 00:00:00,PRATE,surface,-104.063,35.4329,2.52e-05
2017-10-08 00:00:00,2017-10-08 00:00:00,PRATE,surface,-103.125,35.4329,2.17e-05
2017-10-08 00:00:00,2017-10-08 00:00:00,PRATE,surface,-102.188,35.4329,1.89e-05
2017-10-08 00:00:00,2017-10-08 00:00:00,PRATE,surface,-101.25,35.4329,2.1e-05
2017-10-08 00:00:00,2017-10-08 00:00:00,PRATE,surface,-100.313,35.4329,2.16e-05
2017-10-08 00:00:00,2017-10-08 00:00:00,PRATE,surface,-99.3754,35.4329,2.12e-05
2017-10-08 00:00:00,2017-10-08 00:00:00,PRATE,surface,-98.4379,35.4329,2.54e-05
2017-10-08 00:00:00,2017-10-08 00:00:00,PRATE,surface,-97.5004,35.4329,3.19e-05
2017-10-08 00:00:00,2017-10-08 00:00:00,PRATE,surface,-96.5629,35.4329,3.37e-05
2017-10-08 00:00:00,2017-10-08 00:00:00,PRATE,surface,-95.6254,35.4329,3.11e-05
2017-10-08 00:00:00,2017-10-08 00:00:00,PRATE,surface,-94.6879,35.4329,2.87e-05
2017-10-08 00:00:00,2017-10-08 00:00:00,PRATE,surface,-93.7504,35.4329,2.88e-05
2017-10-08 00:00:00,2017-10-08 00:00:00,PRATE,surface,-92.8129,35.4329,3.19e-05
2017-10-08 00:00:00,2017-10-08 00:00:00,PRATE,surface,-107.813,36.3778,2.5e-05
2017-10-08 00:00:00,2017-10-08 00:00:00,PRATE,surface,-106.875,36.3778,2.22e-05
2017-10-08 00:00:00,2017-10-08 00:00:00,PRATE,surface,-105.938,36.3778,2.18e-05
2017-10-08 00:00:00,2017-10-08 00:00:00,PRATE,surface,-105,36.3778,2.61e-05
2017-10-08 00:00:00,2017-10-08 00:00:00,PRATE,surface,-104.063,36.3778,2.7e-05
2017-10-08 00:00:00,2017-10-08 00:00:00,PRATE,surface,-103.125,36.3778,2.54e-05
2017-10-08 00:00:00,2017-10-08 00:00:00,PRATE,surface,-102.188,36.3778,2.32e-05
2017-10-08 00:00:00,2017-10-08 00:00:00,PRATE,surface,-101.25,36.3778,2.14e-05
2017-10-08 00:00:00,2017-10-08 00:00:00,PRATE,surface,-100.313,36.3778,2.1e-05
2017-10-08 00:00:00,2017-10-08 00:00:00,PRATE,surface,-99.3754,36.3778,2.26e-05
2017-10-08 00:00:00,2017-10-08 00:00:00,PRATE,surface,-98.4379,36.3778,2.83e-05
2017-10-08 00:00:00,2017-10-08 00:00:00,PRATE,surface,-97.5004,36.3778,3.33e-05
2017-10-08 00:00:00,2017-10-08 00:00:00,PRATE,surface,-96.5629,36.3778,3.13e-05
2017-10-08 00:00:00,2017-10-08 00:00:00,PRATE,surface,-95.6254,36.3778,2.72e-05
2017-10-08 00:00:00,2017-10-08 00:00:00,PRATE,surface,-94.6879,36.3778,2.76e-05
2017-10-08 00:00:00,2017-10-08 00:00:00,PRATE,surface,-93.7504,36.3778,2.83e-05
2017-10-08 00:00:00,2017-10-08 00:00:00,PRATE,surface,-92.8129,36.3778,2.76e-05
