2018-04-15 00:00:00,2018-04-15 00:00:00,TMP,surface,-107.813,25.0393,299.435
2018-04-15 00:00:00,2018-04-15 00:00:00,TMP,surface,-106.875,25.0393,293.467
2018-04-15 00:00:00,2018-04-15 00:00:00,TMP,surface,-105.938,25.0393,289.091
2018-04-15 00:00:00,2018-04-15 00:00:00,TMP,surface,-105,25.0393,287.669
2018-04-15 00:00:00,2018-04-15 00:00:00,TMP,surface,-104.063,25.0393,291.928
2018-04-15 00:00:00,2018-04-15 00:00:00,TMP,surface,-103.125,25.0393,293.935
2018-04-15 00:00:00,2018-04-15 00:00:00,TMP,surface,-102.188,25.0393,293.344
2018-04-15 00:00:00,2018-04-15 00:00:00,TMP,surface,-101.25,25.0393,291.456
2018-04-15 00:00:00,2018-04-15 00:00:00,TMP,surface,-100.313,25.0393,291.45
2018-04-15 00:00:00,2018-04-15 00:00:00,TMP,surface,-99.3754,25.0393,294.81
2018-04-15 00:00:00,2018-04-15 00:00:00,TMP,surface,-98.4379,25.0393,298.515
2018-04-15 00:00:00,2018-04-15 00:00:00,TMP,surface,-97.5004,25.0393,301.581
2018-04-15 00:00:00,2018-04-15 00:00:00,TMP,surface,-96.5629,25.0393,301.93
2018-04-15 00:00:00,2018-04-15 00:00:00,TMP,surface,-95.6254,25.0393,302.104
2018-04-15 00:00:00,2018-04-15 00:00:00,TMP,surface,-94.6879,25.0393,302.099
2018-04-15 00:00:00,2018-04-15 00:00:00,TMP,surface,-93.7504,25.0393,301.92
2018-04-15 00:00:00,2018-04-15 00:00:00,TMP,surface,-92.8129,25.0393,301.93
2018-04-15 00:00:00,2018-04-15 00:00:00,TMP,surface,-107.813,25.9842,294.191
2018-04-15 00:00:00,2018-04-15 00:00:00,TMP,surface,-106.875,25.9842,289.661
2018-04-15 00:00:00,2018-04-15 00:00:00,TMP,surface,-105.938,25.9842,287.544
2018-04-15 00:00:00,2018-04-15 00:00:00,TMP,surface,-105,25.9842,289.827
2018-04-15 00:00:00,2018-04-15 00:00:00,TMP,surface,-104.063,25.9842,294.567
2018-04-15 00:00:00,2018-04-15 00:00:00,TMP,surface,-103.125,25.9842,295.634
2018-04-15 00:00:00,2018-04-15 00:00:00,TMP,surface,-102.188,25.9842,295.023
2018-04-15 00:00:00,2018-04-15 00:00:00,TMP,surface,-101.25,25.9842,293.738
2018-04-15 00:00:00,2018-04-15 00:00:00,TMP,surface,-100.313,25.9842,293.991
2018-04-15 00:00:00,2018-04-15 00:00:00,TMP,surface,-99.3754,25.9842,297.28
2018-04-15 00:00:00,2018-04-15 00:00:00,TMP,surface,-98.4379,25.9842,299.298
2018-04-15 00:00:00,2018-04-15 00:00:00,TMP,surface,-97.5004,25.9842,299.571
2018-04-15 00:00:00,2018-04-15 00:00:00,TMP,surface,-96.5629,25.9842,301.503
2018-04-15 00:00:00,2018-04-15 00:00:00,TMP,surface,-95.6254,25.9842,301.738
2018-04-15 00:00:00,2018-04-15 00:00:00,TMP,surface,-94.6879,25.9842,301.752
2018-04-15 00:00:00,2018-04-15 00:00:00,TMP,surface,-93.7504,25.9842,301.509
2018-04-15 00:00:00,2018-04-15 00:00:00,TMP,surface,-92.8129,25.9842,301.434
2018-04-15 00:00:00,2018-04-15 00:00:00,TMP,surface,-107.813,26.929,290.018
2018-04-15 00:00:00,2018-04-15 00:00:00,TMP,surface,-106.875,26.929,287.176
2018-04-15 00:00:00,2018-04-15 00:00:00,TMP,surface,-105.938,26.929,288.84
2018-04-15 00:00:00,2018-04-15 00:00:00,TMP,surface,-105,26.929,292.73
2018-04-15 00:00:00,2018-04-15 00:00:00,TMP,surface,-104.063,26.929,294.975
2018-04-15 00:00:00,2018-04-15 00:00:00,TMP,surface,-103.125,26.929,294.805
2018-04-15 00:00:00,2018-04-15 00:00:00,TMP,surface,-102.188,26.929,294.325
2018-04-15 00:00:00,2018-04-15 00:00:00,TMP,surface,-101.25,26.929,294.647
2018-04-15 00:00:00,2018-04-15 00:00:00,TMP,surface,-100.313,26.929,296.488
2018-04-15 00:00:00,2018-04-15 00:00:00,TMP,surface,-99.3754,26.929,298.274
2018-04-15 00:00:00,2018-04-15 00:00:00,TMP,surface,-98.4379,26.929,298.256
2018-04-15 00:00:00,2018-04-15 00:00:00,TMP,surface,-97.5004,26.929,300.285
2018-04-15 00:00:00,2018-04-15 00:00:00,TMP,surface,-96.5629,26.929,300.597
2018-04-15 00:00:00,2018-04-15 00:00:00,TMP,surface,-95.6254,26.929,301.115
2018-04-15 00:00:00,2018-04-15 00:00:00,TMP,surface,-94.6879,26.929,301.363
2018-04-15 00:00:00,2018-04-15 00:00:00,TMP,surface,-93.7504,26.929,301.181
2018-04-15 00:00:00,2018-04-15 00:00:00,TMP,surface,-92.8129,26.929,301.029
2018-04-15 00:00:00,2018-04-15 00:00:00,TMP,surface,-107.813,27.8739,287.736
2018-04-15 00:00:00,2018-04-15 00:00:00,TMP,surface,-106.875,27.8739,286.744
2018-04-15 00:00:00,2018-04-15 00:00:00,TMP,surface,-105.938,27.8739,290.349
2018-04-15 00:00:00,2018-04-15 00:00:00,TMP,surface,-105,27.8739,293.808
2018-04-15 00:00:00,2018-04-15 00:00:00,TMP,surface,-104.063,27.8739,294.191
2018-04-15 00:00:00,2018-04-15 00:00:00,TMP,surface,-103.125,27.8739,293.437
2018-04-15 00:00:00,2018-04-15 00:00:00,TMP,surface,-102.188,27.8739,293.307
2018-04-15 00:00:00,2018-04-15 00:00:00,TMP,surface,-101.25,27.8739,295.032
2018-04-15 00:00:00,2018-04-15 00:00:00,TMP,surface,-100.313,27.8739,296.968
2018-04-15 00:00:00,2018-04-15 00:00:00,TMP,surface,-99.3754,27.8739,297.282
2018-04-15 00:00:00,2018-04-15 00:00:00,TMP,surface,-98.4379,27.8739,296.943
2018-04-15 00:00:00,2018-04-15 00:00:00,TMP,surface,-97.5004,27.8739,298.603
2018-04-15 00:00:00,2018-04-15 00:00:00,TMP,surface,-96.5629,27.8739,300.554
2018-04-15 00:00:00,2018-04-15 00:00:00,TMP,surface,-95.6254,27.8739,300.768
2018-04-15 00:00:00,2018-04-15 00:00:00,TMP,surface,-94.6879,27.8739,300.714
2018-04-15 00:00:00,2018-04-15 00:00:00,TMP,surface,-93.7504,27.8739,300.6
2018-04-15 00:00:00,2018-04-15 00:00:00,TMP,surface,-92.8129,27.8739,300.632
2018-04-15 00:00:00,2018-04-15 00:00:00,TMP,surface,-107.813,28.8188,286.584
2018-04-15 00:00:00,2018-04-15 00:00:00,TMP,surface,-106.875,28.8188,287.691
2018-04-15 00:00:00,2018-04-15 00:00:00,TMP,surface,-105.938,28.8188,291.376
2018-04-15 00:00:00,2018-04-15 00:00:00,TMP,surface,-105,28.8188,293.743
2018-04-15 00:00:00,2018-04-15 00:00:00,TMP,surface,-104.063,28.8188,293.088
2018-04-15 00:00:00,2018-04-15 00:00:00,TMP,surface,-103.125,28.8188,292.813
2018-04-15 00:00:00,2018-04-15 00:00:00,TMP,surface,-102.188,28.8188,293.567
2018-04-15 00:00:00,2018-04-15 00:00:00,TMP,surface,-101.25,28.8188,295.168
2018-04-15 00:00:00,2018-04-15 00:00:00,TMP,surface,-100.313,28.8188,296.067
2018-04-15 00:00:00,2018-04-15 00:00:00,TMP,surface,-99.3754,28.8188,295.578
2018-04-15 00:00:00,2018-04-15 00:00:00,TMP,surface,-98.4379,28.8188,295.058
2018-04-15 00:00:00,2018-04-15 00:00:00,TMP,surface,-97.5004,28.8188,295.223
2018-04-15 00:00:00,2018-04-15 00:00:00,TMP,surface,-96.5629,28.8188,295.805
2018-04-15 00:00:00,2018-04-15 00:00:00,TMP,surface,-95.6254,28.8188,297.749
2018-04-15 00:00:00,2018-04-15 00:00:00,TMP,surface,-94.6879,28.8188,300.242
2018-04-15 00:00:00,2018-04-15 00:00:00,TMP,surface,-93.7504,28.8188,300.175
2018-04-15 00:00:00,2018-04-15 00:00:00,TMP,surface,-92.8129,28.8188,300.251
2018-04-15 00:00:00,2018-04-15 00:00:00,TMP,surface,-107.813,29.7637,288.498
2018-04-15 00:00:00,2018-04-15 00:00:00,TMP,surface,-106.875,29.7637,289.792
2018-04-15 00:00:00,2018-04-15 00:00:00,TMP,surface,-105.938,29.7637,292.146
2018-04-15 00:00:00,2018-04-15 00:00:00,TMP,surface,-105,29.7637,292.557
2018-04-15 00:00:00,2018-04-15 00:00:00,TMP,surface,-104.063,29.7637,292.639
2018-04-15 00:00:00,2018-04-15 00:00:00,TMP,surface,-103.125,29.7637,293.277
2018-04-15 00:00:00,2018-04-15 00:00:00,TMP,surface,-102.188,29.7637,294.525
2018-04-15 00:00:00,2018-04-15 00:00:00,TMP,surface,-101.25,29.7637,295.171
2018-04-15 00:00:00,2018-04-15 00:00:00,TMP,surface,-100.313,29.7637,294.578
2018-04-15 00:00:00,2018-04-15 00:00:00,TMP,surface,-99.3754,29.7637,293.623
2018-04-15 00:00:00,2018-04-15 00:00:00,TMP,surface,-98.4379,29.7637,293.471
2018-04-15 00:00:00,2018-04-15 00:00:00,TMP,surface,-97.5004,29.7637,293.826
2018-04-15 00:00:00,2018-04-15 00:00:00,TMP,surface,-96.5629,29.7637,294.093
2018-04-15 00:00:00,2018-04-15 00:00:00,TMP,surface,-95.6254,29.7637,294.347
2018-04-15 00:00:00,2018-04-15 00:00:00,TMP,surface,-94.6879,29.7637,296.219
2018-04-15 00:00:00,2018-04-15 00:00:00,TMP,surface,-93.7504,29.7637,298.615
2018-04-15 00:00:00,2018-04-15 00:00:00,TMP,surface,-92.8129,29.7637,294.829
2018-04-15 00:00:00,2018-04-15 00:00:00,TMP,surface,-107.813,30.7085,291.072
2018-04-15 00:00:00,2018-04-15 00:00:00,TMP,surface,-106.875,30.7085,292.066
2018-04-15 00:00:00,2018-04-15 00:00:00,TMP,surface,-105.938,30.7085,292.098
2018-04-15 00:00:00,2018-04-15 00:00:00,TMP,surface,-105,30.7085,291.504
2018-04-15 00:00:00,2018-04-15 00:00:00,TMP,surface,-104.063,30.7085,291.751
2018-04-15 00:00:00,2018-04-15 00:00:00,TMP,surface,-103.125,30.7085,293.215
2018-04-15 00:00:00,2018-04-15 00:00:00,TMP,surface,-102.188,30.7085,294.32
2018-04-15 00:00:00,2018-04-15 00:00:00,TMP,surface,-101.25,30.7085,294.28
2018-04-15 00:00:00,2018-04-15 00:00:00,TMP,surface,-100.313,30.7085,293.723
2018-04-15 00:00:00,2018-04-15 00:00:00,TMP,surface,-99.3754,30.7085,293.227
2018-04-15 00:00:00,2018-04-15 00:00:00,TMP,surface,-98.4379,30.7085,293.339
2018-04-15 00:00:00,2018-04-15 00:00:00,TMP,surface,-97.5004,30.7085,293.687
2018-04-15 00:00:00,2018-04-15 00:00:00,TMP,surface,-96.5629,30.7085,293.626
2018-04-15 00:00:00,2018-04-15 00:00:00,TMP,surface,-95.6254,30.7085,293.323
2018-04-15 00:00:00,2018-04-15 00:00:00,TMP,surface,-94.6879,30.7085,293.21
2018-04-15 00:00:00,2018-04-15 00:00:00,TMP,surface,-93.7504,30.7085,293.053
2018-04-15 00:00:00,2018-04-15 00:00:00,TMP,surface,-92.8129,30.7085,292.634
2018-04-15 00:00:00,2018-04-15 00:00:00,TMP,surface,-107.813,31.6534,291.171
2018-04-15 00:00:00,2018-04-15 00:00:00,TMP,surface,-106.875,31.6534,291.579
2018-04-15 00:00:00,2018-04-15 00:00:00,TMP,surface,-105.938,31.6534,290.813
2018-04-15 00:00:00,2018-04-15 00:00:00,TMP,surface,-105,31.6534,290.76
2018-04-15 00:00:00,2018-04-15 00:00:00,TMP,surface,-104.063,31.6534,291.667
2018-04-15 00:00:00,2018-04-15 00:00:00,TMP,surface,-103.125,31.6534,292.923
2018-04-15 00:00:00,2018-04-15 00:00:00,TMP,surface,-102.188,31.6534,293.338
2018-04-15 00:00:00,2018-04-15 00:00:00,TMP,surface,-101.25,31.6534,293.151
2018-04-15 00:00:00,2018-04-15 00:00:00,TMP,surface,-100.313,31.6534,292.901
2018-04-15 00:00:00,2018-04-15 00:00:00,TMP,surface,-99.3754,31.6534,293.079
2018-04-15 00:00:00,2018-04-15 00:00:00,TMP,surface,-98.4379,31.6534,293.562
2018-04-15 00:00:00,2018-04-15 00:00:00,TMP,surface,-97.5004,31.6534,293.787
2018-04-15 00:00:00,2018-04-15 00:00:00,TMP,surface,-96.5629,31.6534,293.615
2018-04-15 00:00:00,2018-04-15 00:00:00,TMP,surface,-95.6254,31.6534,293.234
2018-04-15 00:00:00,2018-04-15 00:00:00,TMP,surface,-94.6879,31.6534,292.677
2018-04-15 00:00:00,2018-04-15 00:00:00,TMP,surface,-93.7504,31.6534,292.157
2018-04-15 00:00:00,2018-04-15 00:00:00,TMP,surface,-92.8129,31.6534,292.093
2018-04-15 00:00:00,2018-04-15 00:00:00,TMP,surface,-107.813,32.5983,288.035
2018-04-15 00:00:00,2018-04-15 00:00:00,TMP,surface,-106.875,32.5983,288.421
2018-04-15 00:00:00,2018-04-15 00:00:00,TMP,surface,-105.938,32.5983,288.813
2018-04-15 00:00:00,2018-04-15 00:00:00,TMP,surface,-105,32.5983,289.256
2018-04-15 00:00:00,2018-04-15 00:00:00,TMP,surface,-104.063,32.5983,290.986
2018-04-15 00:00:00,2018-04-15 00:00:00,TMP,surface,-103.125,32.5983,291.995
2018-04-15 00:00:00,2018-04-15 00:00:00,TMP,surface,-102.188,32.5983,291.984
2018-04-15 00:00:00,2018-04-15 00:00:00,TMP,surface,-101.25,32.5983,292.045
2018-04-15 00:00:00,2018-04-15 00:00:00,TMP,surface,-100.313,32.5983,292.543
2018-04-15 00:00:00,2018-04-15 00:00:00,TMP,surface,-99.3754,32.5983,293.098
2018-04-15 00:00:00,2018-04-15 00:00:00,TMP,surface,-98.4379,32.5983,293.41
2018-04-15 00:00:00,2018-04-15 00:00:00,TMP,surface,-97.5004,32.5983,293.408
2018-04-15 00:00:00,2018-04-15 00:00:00,TMP,surface,-96.5629,32.5983,293.293
2018-04-15 00:00:00,2018-04-15 00:00:00,TMP,surface,-95.6254,32.5983,293.063
2018-04-15 00:00:00,2018-04-15 00:00:00,TMP,surface,-94.6879,32.5983,292.475
2018-04-15 00:00:00,2018-04-15 00:00:00,TMP,surface,-93.7504,32.5983,291.855
2018-04-15 00:00:00,2018-04-15 00:00:00,TMP,surface,-92.8129,32.5983,291.792
2018-04-15 00:00:00,2018-04-15 00:00:00,TMP,surface,-107.813,33.5432,284.583
2018-04-15 00:00:00,2018-04-15 00:00:00,TMP,surface,-106.875,33.5432,286.072
2018-04-15 00:00:00,2018-04-15 00:00:00,TMP,surface,-105.938,33.5432,287.154
2018-04-15 00:00:00,2018-04-15 00:00:00,TMP,surface,-105,33.5432,288.165
2018-04-15 00:00:00,2018-04-15 00:00:00,TMP,surface,-104.063,33.5432,289.898
2018-04-15 00:00:00,2018-04-15 00:00:00,TMP,surface,-103.125,33.5432,290.568
2018-04-15 00:00:00,2018-04-15 00:00:00,TMP,surface,-102.188,33.5432,290.426
2018-04-15 00:00:00,2018-04-15 00:00:00,TMP,surface,-101.25,33.5432,290.717
2018-04-15 00:00:00,2018-04-15 00:00:00,TMP,surface,-100.313,33.5432,291.559
2018-04-15 00:00:00,2018-04-15 00:00:00,TMP,surface,-99.3754,33.5432,292.368
2018-04-15 00:00:00,2018-04-15 00:00:00,TMP,surface,-98.4379,33.5432,292.44
2018-04-15 00:00:00,2018-04-15 00:00:00,TMP,surface,-97.5004,33.5432,292.144
2018-04-15 00:00:00,2018-04-15 00:00:00,TMP,surface,-96.5629,33.5432,292.069
2018-04-15 00:00:00,2018-04-15 00:00:00,TMP,surface,-95.6254,33.5432,292.032
2018-04-15 00:00:00,2018-04-15 00:00:00,TMP,surface,-94.6879,33.5432,291.587
2018-04-15 00:00:00,2018-04-15 00:00:00,TMP,surface,-93.7504,33.5432,290.88
2018-04-15 00:00:00,2018-04-15 00:00:00,TMP,surface,-92.8129,33.5432,290.619
2018-04-15 00:00:00,2018-04-15 00:00:00,TMP,surface,-107.813,34.4881,283.053
2018-04-15 00:00:00,2018-04-15 00:00:00,TMP,surface,-106.875,34.4881,284.883
2018-04-15 00:00:00,2018-04-15 00:00:00,TMP,surface,-105.938,34.4881,286.015
2018-04-15 00:00:00,2018-04-15 00:00:00,TMP,surface,-105,34.4881,286.947
2018-04-15 00:00:00,2018-04-15 00:00:00,TMP,surface,-104.063,34.4881,288.005
2018-04-15 00:00:00,2018-04-15 00:00:00,TMP,surface,-103.125,34.4881,288.73
2018-04-15 00:00:00,2018-04-15 00:00:00,TMP,surface,-102.188,34.4881,288.962
2018-04-15 00:00:00,2018-04-15 00:00:00,TMP,surface,-101.25,34.4881,289.303
2018-04-15 00:00:00,2018-04-15 00:00:00,TMP,surface,-100.313,34.4881,290.141
2018-04-15 00:00:00,2018-04-15 00:00:00,TMP,surface,-99.3754,34.4881,290.879
2018-04-15 00:00:00,2018-04-15 00:00:00,TMP,surface,-98.4379,34.4881,290.939
2018-04-15 00:00:00,2018-04-15 00:00:00,TMP,surface,-97.5004,34.4881,290.618
2018-04-15 00:00:00,2018-04-15 00:00:00,TMP,surface,-96.5629,34.4881,290.503
2018-04-15 00:00:00,2018-04-15 00:00:00,TMP,surface,-95.6254,34.4881,290.448
2018-04-15 00:00:00,2018-04-15 00:00:00,TMP,surface,-94.6879,34.4881,289.922
2018-04-15 00:00:00,2018-04-15 00:00:00,TMP,surface,-93.7504,34.4881,289.165
2018-04-15 00:00:00,2018-04-15 00:00:00,TMP,surface,-92.8129,34.4881,288.955
2018-04-15 00:00:00,2018-04-15 00:00:00,TMP,surface,-107.813,35.4329,282.896
2018-04-15 00:00:00,2018-04-15 00:00:00,TMP,surface,-106.875,35.4329,283.447
2018-04-15 00:00:00,2018-04-15 00:00:00,TMP,surface,-105.938,35.4329,284.139
2018-04-15 00:00:00,2018-04-15 00:00:00,TMP,surface,-105,35.4329,284.93
2018-04-15 00:00:00,2018-04-15 00:00:00,TMP,surface,-104.063,35.4329,286.699
2018-04-15 00:00:00,2018-04-15 00:00:00,TMP,surface,-103.125,35.4329,287.719
2018-04-15 00:00:00,2018-04-15 00:00:00,TMP,surface,-102.188,35.4329,287.84
2018-04-15 00:00:00,2018-04-15 00:00:00,TMP,surface,-101.25,35.4329,288.095
2018-04-15 00:00:00,2018-04-15 00:00:00,TMP,surface,-100.313,35.4329,288.658
2018-04-15 00:00:00,2018-04-15 00:00:00,TMP,surface,-99.3754,35.4329,289.162
2018-04-15 00:00:00,2018-04-15 00:00:00,TMP,surface,-98.4379,35.4329,289.346
2018-04-15 00:00:00,2018-04-15 00:00:00,TMP,surface,-97.5004,35.4329,289.397
2018-04-15 00:00:00,2018-04-15 00:00:00,TMP,surface,-96.5629,35.4329,289.495
2018-04-15 00:00:00,2018-04-15 00:00:00,TMP,surface,-95.6254,35.4329,289.386
2018-04-15 00:00:00,2018-04-15 00:00:00,TMP,surface,-94.6879,35.4329,288.77
2018-04-15 00:00:00,2018-04-15 00:00:00,TMP,surface,-93.7504,35.4329,287.888
2018-04-15 00:00:00,2018-04-15 00:00:00,TMP,surface,-92.8129,35.4329,287.394
2018-04-15 00:00:00,2018-04-15 00:00:00,TMP,surface,-107.813,36.3778,281.919
2018-04-15 00:00:00,2018-04-15 00:00:00,TMP,surface,-106.875,36.3778,280.253
2018-04-15 00:00:00,2018-04-15 00:00:00,TMP,surface,-105.938,36.3778,281.135
2018-04-15 00:00:00,2018-04-15 00:00:00,TMP,surface,-105,36.3778,282.331
2018-04-15 00:00:00,2018-04-15 00:00:00,TMP,surface,-104.063,36.3778,284.346
2018-04-15 00:00:00,2018-04-15 00:00:00,TMP,surface,-103.125,36.3778,285.835
2018-04-15 00:00:00,2018-04-15 00:00:00,TMP,surface,-102.188,36.3778,286.701
2018-04-15 00:00:00,2018-04-15 00:00:00,TMP,surface,-101.25,36.3778,287.319
2018-04-15 00:00:00,2018-04-15 00:00:00,TMP,surface,-100.313,36.3778,287.947
2018-04-15 00:00:00,2018-04-15 00:00:00,TMP,surface,-99.3754,36.3778,288.338
2018-04-15 00:00:00,2018-04-15 00:00:00,TMP,surface,-98.4379,36.3778,288.298
2018-04-15 00:00:00,2018-04-15 00:00:00,TMP,surface,-97.5004,36.3778,288.363
2018-04-15 00:00:00,2018-04-15 00:00:00,TMP,surface,-96.5629,36.3778,288.543
2018-04-15 00:00:00,2018-04-15 00:00:00,TMP,surface,-95.6254,36.3778,288.314
2018-04-15 00:00:00,2018-04-15 00:00:00,TMP,surface,-94.6879,36.3778,287.589
2018-04-15 00:00:00,2018-04-15 00:00:00,TMP,surface,-93.7504,36.3778,286.709
2018-04-15 00:00:00,2018-04-15 00:00:00,TMP,surface,-92.8129,36.3778,286.306
2018-04-15 00:00:00,2018-04-15 00:00:00,PRATE,surface,-107.813,25.0393,1.5e-06
2018-04-15 00:00:00,2018-04-15 00:00:00,PRATE,surface,-106.875,25.0393,1.29e-05
2018-04-15 00:00:00,2018-04-15 00:00:00,PRATE,surface,-105.938,25.0393,2.99e-05
2018-04-15 00:00:00,2018-04-15 00:00:00,PRATE,surface,-105,25.0393,2.52e-05
2018-04-15 00:00:00,2018-04-15 00:00:00,PRATE,surface,-104.063,25.0393,7.9e-06
2018-04-15 00:00:00,2018-04-15 00:00:00,PRATE,surface,-103.125,25.0393,1.9e-06
2018-04-15 00:00:00,2018-04-15 00:00:00,PRATE,surface,-102.188,25.0393,5.9e-06
2018-04-15 00:00:00,2018-04-15 00:00:00,PRATE,surface,-101.25,25.0393,2.56e-05
2018-04-15 00:00:00,2018-04-15 00:00:00,PRATE,surface,-100.313,25.0393,5.71e-05
2018-04-15 00:00:00,2018-04-15 00:00:00,PRATE,surface,-99.3754,25.0393,3.67e-05
2018-04-15 00:00:00,2018-04-15 00:00:00,PRATE,surface,-98.4379,25.0393,1.61e-05
2018-04-15 00:00:00,2018-04-15 00:00:00,PRATE,surface,-97.5004,25.0393,2.48e-05
2018-04-15 00:00:00,2018-04-15 00:00:00,PRATE,surface,-96.5629,25.0393,3.77e-05
2018-04-15 00:00:00,2018-04-15 00:00:00,PRATE,surface,-95.6254,25.0393,4.73e-05
2018-04-15 00:00:00,2018-04-15 00:00:00,PRATE,surface,-94.6879,25.0393,4.22e-05
2018-04-15 00:00:00,2018-04-15 00:00:00,PRATE,surface,-93.7504,25.0393,4.37e-05
2018-04-15 00:00:00,2018-04-15 00:00:00,PRATE,surface,-92.8129,25.0393,4.47e-05
2018-04-15 00:00:00,2018-04-15 00:00:00,PRATE,surface,-107.813,25.9842,1.53e-05
2018-04-15 00:00:00,2018-04-15 00:00:00,PRATE,surface,-106.875,25.9842,1.7e-05
2018-04-15 00:00:00,2018-04-15 00:00:00,PRATE,surface,-105.938,25.9842,2.1e-05
2018-04-15 00:00:00,2018-04-15 00:00:00,PRATE,surface,-105,25.9842,1.79e-05
2018-04-15 00:00:00,2018-04-15 00:00:00,PRATE,surface,-104.063,25.9842,1.7e-06
2018-04-15 00:00:00,2018-04-15 00:00:00,PRATE,surface,-103.125,25.9842,1.5e-06
2018-04-15 00:00:00,2018-04-15 00:00:00,PRATE,surface,-102.188,25.9842,2.8e-06
2018-04-15 00:00:00,2018-04-15 00:00:00,PRATE,surface,-101.25,25.9842,1.73e-05
2018-04-15 00:00:00,2018-04-15 00:00:00,PRATE,surface,-100.313,25.9842,4.06e-05
2018-04-15 00:00:00,2018-04-15 00:00:00,PRATE,surface,-99.3754,25.9842,1.7e-05
2018-04-15 00:00:00,2018-04-15 00:00:00,PRATE,surface,-98.4379,25.9842,1.38e-05
2018-04-15 00:00:00,2018-04-15 00:00:00,PRATE,surface,-97.5004,25.9842,2.86e-05
2018-04-15 00:00:00,2018-04-15 00:00:00,PRATE,surface,-96.5629,25.9842,7.68e-05
2018-04-15 00:00:00,2018-04-15 00:00:00,PRATE,surface,-95.6254,25.9842,7.34e-05
2018-04-15 00:00:00,2018-04-15 00:00:00,PRATE,surface,-94.6879,25.9842,4.07e-05
2018-04-15 00:00:00,2018-04-15 00:00:00,PRATE,surface,-93.7504,25.9842,3.21e-05
2018-04-15 00:00:00,2018-04-15 00:00:00,PRATE,surface,-92.8129,25.9842,2.35e-05
2018-04-15 00:00:00,2018-04-15 00:00:00,PRATE,surface,-107.813,26.929,2.19e-05
2018-04-15 00:00:00,2018-04-15 00:00:00,PRATE,surface,-106.875,26.929,1.07e-05
2018-04-15 00:00:00,2018-04-15 00:00:00,PRATE,surface,-105.938,26.929,1.41e-05
2018-04-15 00:00:00,2018-04-15 00:00:00,PRATE,surface,-105,26.929,5.8e-06
2018-04-15 00:00:00,2018-04-15 00:00:00,PRATE,surface,-104.063,26.929,4.2e-06
2018-04-15 00:00:00,2018-04-15 00:00:00,PRATE,surface,-103.125,26.929,6.4e-06
2018-04-15 00:00:00,2018-04-15 00:00:00,PRATE,surface,-102.188,26.929,1.12e-05
2018-04-15 00:00:00,2018-04-15 00:00:00,PRATE,surface,-101.25,26.929,1.8e-05
2018-04-15 00:00:00,2018-04-15 00:00:00,PRATE,surface,-100.313,26.929,1.49e-05
2018-04-15 00:00:00,2018-04-15 00:00:00,PRATE,surface,-99.3754,26.929,1.48e-05
2018-04-15 00:00:00,2018-04-15 00:00:00,PRATE,surface,-98.4379,26.929,2.87e-05
2018-04-15 00:00:00,2018-04-15 00:00:00,PRATE,surface,-97.5004,26.929,4.05e-05
2018-04-15 00:00:00,2018-04-15 00:00:00,PRATE,surface,-96.5629,26.929,6.91e-05
2018-04-15 00:00:00,2018-04-15 00:00:00,PRATE,surface,-95.6254,26.929,4.69e-05
2018-04-15 00:00:00,2018-04-15 00:00:00,PRATE,surface,-94.6879,26.929,2.95e-05
2018-04-15 00:00:00,2018-04-15 00:00:00,PRATE,surface,-93.7504,26.929,2.37e-05
2018-04-15 00:00:00,2018-04-15 00:00:00,PRATE,surface,-92.8129,26.929,2.4e-05
2018-04-15 00:00:00,2018-04-15 00:00:00,PRATE,surface,-107.813,27.8739,1.28e-05
2018-04-15 00:00:00,2018-04-15 00:00:00,PRATE,surface,-106.875,27.8739,7e-06
2018-04-15 00:00:00,2018-04-15 00:00:00,PRATE,surface,-105.938,27.8739,9.2e-06
2018-04-15 00:00:00,2018-04-15 00:00:00,PRATE,surface,-105,27.8739,2.1e-06
2018-04-15 00:00:00,2018-04-15 00:00:00,PRATE,surface,-104.063,27.8739,8.3e-06
2018-04-15 00:00:00,2018-04-15 00:00:00,PRATE,surface,-103.125,27.8739,1.27e-05
2018-04-15 00:00:00,2018-04-15 00:00:00,PRATE,surface,-102.188,27.8739,1.49e-05
2018-04-15 00:00:00,2018-04-15 00:00:00,PRATE,surface,-101.25,27.8739,1.49e-05
2018-04-15 00:00:00,2018-04-15 00:00:00,PRATE,surface,-100.313,27.8739,1.06e-05
2018-04-15 00:00:00,2018-04-15 00:00:00,PRATE,surface,-99.3754,27.8739,2.4e-05
2018-04-15 00:00:00,2018-04-15 00:00:00,PRATE,surface,-98.4379,27.8739,3.67e-05
2018-04-15 00:00:00,2018-04-15 00:00:00,PRATE,surface,-97.5004,27.8739,3.84e-05
2018-04-15 00:00:00,2018-04-15 00:00:00,PRATE,surface,-96.5629,27.8739,3.75e-05
2018-04-15 00:00:00,2018-04-15 00:00:00,PRATE,surface,-95.6254,27.8739,3.36e-05
2018-04-15 00:00:00,2018-04-15 00:00:00,PRATE,surface,-94.6879,27.8739,3.17e-05
2018-04-15 00:00:00,2018-04-15 00:00:00,PRATE,surface,-93.7504,27.8739,4.07e-05
2018-04-15 00:00:00,2018-04-15 00:00:00,PRATE,surface,-92.8129,27.8739,3.4e-05
2018-04-15 00:00:00,2018-04-15 00:00:00,PRATE,surface,-107.813,28.8188,4.9e-06
2018-04-15 00:00:00,2018-04-15 00:00:00,PRATE,surface,-106.875,28.8188,6.3e-06
2018-04-15 00:00:00,2018-04-15 00:00:00,PRATE,surface,-105.938,28.8188,3e-06
2018-04-15 00:00:00,2018-04-15 00:00:00,PRATE,surface,-105,28.8188,3.3e-06
2018-04-15 00:00:00,2018-04-15 00:00:00,PRATE,surface,-104.063,28.8188,6.9e-06
2018-04-15 00:00:00,2018-04-15 00:00:00,PRATE,surface,-103.125,28.8188,5.8e-06
2018-04-15 00:00:00,2018-04-15 00:00:00,PRATE,surface,-102.188,28.8188,6.8e-06
2018-04-15 00:00:00,2018-04-15 00:00:00,PRATE,surface,-101.25,28.8188,7.5e-06
2018-04-15 00:00:00,2018-04-15 00:00:00,PRATE,surface,-100.313,28.8188,1.29e-05
2018-04-15 00:00:00,2018-04-15 00:00:00,PRATE,surface,-99.3754,28.8188,3.04e-05
2018-04-15 00:00:00,2018-04-15 00:00:00,PRATE,surface,-98.4379,28.8188,3.75e-05
2018-04-15 00:00:00,2018-04-15 00:00:00,PRATE,surface,-97.5004,28.8188,3.99e-05
2018-04-15 00:00:00,2018-04-15 00:00:00,PRATE,surface,-96.5629,28.8188,4.82e-05
2018-04-15 00:00:00,2018-04-15 00:00:00,PRATE,surface,-95.6254,28.8188,5.32e-05
2018-04-15 00:00:00,2018-04-15 00:00:00,PRATE,surface,-94.6879,28.8188,5.25e-05
2018-04-15 00:00:00,2018-04-15 00:00:00,PRATE,surface,-93.7504,28.8188,4.75e-05
2018-04-15 00:00:00,2018-04-15 00:00:00,PRATE,surface,-92.8129,28.8188,2.81e-05
2018-04-15 00:00:00,2018-04-15 00:00:00,PRATE,surface,-107.813,29.7637,1.4e-06
2018-04-15 00:00:00,2018-04-15 00:00:00,PRATE,surface,-106.875,29.7637,1.2e-06
2018-04-15 00:00:00,2018-04-15 00:00:00,PRATE,surface,-105.938,29.7637,1.8e-06
2018-04-15 00:00:00,2018-04-15 00:00:00,PRATE,surface,-105,29.7637,3.9e-06
2018-04-15 00:00:00,2018-04-15 00:00:00,PRATE,surface,-104.063,29.7637,5.7e-06
2018-04-15 00:00:00,2018-04-15 00:00:00,PRATE,surface,-103.125,29.7637,5.3e-06
2018-04-15 00:00:00,2018-04-15 00:00:00,PRATE,surface,-102.188,29.7637,3.9e-06
2018-04-15 00:00:00,2018-04-15 00:00:00,PRATE,surface,-101.25,29.7637,4.5e-06
2018-04-15 00:00:00,2018-04-15 00:00:00,PRATE,surface,-100.313,29.7637,1.97e-05
2018-04-15 00:00:00,2018-04-15 00:00:00,PRATE,surface,-99.3754,29.7637,4.11e-05
2018-04-15 00:00:00,2018-04-15 00:00:00,PRATE,surface,-98.4379,29.7637,4.65e-05
2018-04-15 00:00:00,2018-04-15 00:00:00,PRATE,surface,-97.5004,29.7637,4.18e-05
2018-04-15 00:00:00,2018-04-15 00:00:00,PRATE,surface,-96.5629,29.7637,4.55e-05
2018-04-15 00:00:00,2018-04-15 00:00:00,PRATE,surface,-95.6254,29.7637,5.95e-05
2018-04-15 00:00:00,2018-04-15 00:00:00,PRATE,surface,-94.6879,29.7637,6.36e-05
2018-04-15 00:00:00,2018-04-15 00:00:00,PRATE,surface,-93.7504,29.7637,4.66e-05
2018-04-15 00:00:00,2018-04-15 00:00:00,PRATE,surface,-92.8129,29.7637,4.04e-05
2018-04-15 00:00:00,2018-04-15 00:00:00,PRATE,surface,-107.813,30.7085,1e-07
2018-04-15 00:00:00,2018-04-15 00:00:00,PRATE,surface,-106.875,30.7085,3e-07
2018-04-15 00:00:00,2018-04-15 00:00:00,PRATE,surface,-105.938,30.7085,1.3e-06
2018-04-15 00:00:00,2018-04-15 00:00:00,PRATE,surface,-105,30.7085,5.4e-06
2018-04-15 00:00:00,2018-04-15 00:00:00,PRATE,surface,-104.063,30.7085,8.1e-06
2018-04-15 00:00:00,2018-04-15 00:00:00,PRATE,surface,-103.125,30.7085,7.2e-06
2018-04-15 00:00:00,2018-04-15 00:00:00,PRATE,surface,-102.188,30.7085,7.1e-06
2018-04-15 00:00:00,2018-04-15 00:00:00,PRATE,surface,-101.25,30.7085,1.12e-05
2018-04-15 00:00:00,2018-04-15 00:00:00,PRATE,surface,-100.313,30.7085,1.74e-05
2018-04-15 00:00:00,2018-04-15 00:00:00,PRATE,surface,-99.3754,30.7085,2.76e-05
2018-04-15 00:00:00,2018-04-15 00:00:00,PRATE,surface,-98.4379,30.7085,3.23e-05
2018-04-15 00:00:00,2018-04-15 00:00:00,PRATE,surface,-97.5004,30.7085,3.21e-05
2018-04-15 00:00:00,2018-04-15 00:00:00,PRATE,surface,-96.5629,30.7085,3.63e-05
2018-04-15 00:00:00,2018-04-15 00:00:00,PRATE,surface,-95.6254,30.7085,4.29e-05
2018-04-15 00:00:00,2018-04-15 00:00:00,PRATE,surface,-94.6879,30.7085,4.14e-05
2018-04-15 00:00:00,2018-04-15 00:00:00,PRATE,surface,-93.7504,30.7085,3.6e-05
2018-04-15 00:00:00,2018-04-15 00:00:00,PRATE,surface,-92.8129,30.7085,3.89e-05
2018-04-15 00:00:00,2018-04-15 00:00:00,PRATE,surface,-107.813,31.6534,3e-07
2018-04-15 00:00:00,2018-04-15 00:00:00,PRATE,surface,-106.875,31.6534,7e-07
2018-04-15 00:00:00,2018-04-15 00:00:00,PRATE,surface,-105.938,31.6534,3e-06
2018-04-15 00:00:00,2018-04-15 00:00:00,PRATE,surface,-105,31.6534,3.4e-06
2018-04-15 00:00:00,2018-04-15 00:00:00,PRATE,surface,-104.063,31.6534,7.6e-06
2018-04-15 00:00:00,2018-04-15 00:00:00,PRATE,surface,-103.125,31.6534,6.9e-06
2018-04-15 00:00:00,2018-04-15 00:00:00,PRATE,surface,-102.188,31.6534,9.2e-06
2018-04-15 00:00:00,2018-04-15 00:00:00,PRATE,surface,-101.25,31.6534,1.35e-05
2018-04-15 00:00:00,2018-04-15 00:00:00,PRATE,surface,-100.313,31.6534,2.31e-05
2018-04-15 00:00:00,2018-04-15 00:00:00,PRATE,surface,-99.3754,31.6534,3.07e-05
2018-04-15 00:00:00,2018-04-15 00:00:00,PRATE,surface,-98.4379,31.6534,2.76e-05
2018-04-15 00:00:00,2018-04-15 00:00:00,PRATE,surface,-97.5004,31.6534,2.4e-05
2018-04-15 00:00:00,2018-04-15 00:00:00,PRATE,surface,-96.5629,31.6534,2.71e-05
2018-04-15 00:00:00,2018-04-15 00:00:00,PRATE,surface,-95.6254,31.6534,3.21e-05
2018-04-15 00:00:00,2018-04-15 00:00:00,PRATE,surface,-94.6879,31.6534,3.53e-05
2018-04-15 00:00:00,2018-04-15 00:00:00,PRATE,surface,-93.7504,31.6534,3.61e-05
2018-04-15 00:00:00,2018-04-15 00:00:00,PRATE,surface,-92.8129,31.6534,3.58e-05
2018-04-15 00:00:00,2018-04-15 00:00:00,PRATE,surface,-107.813,32.5983,2.6e-06
2018-04-15 00:00:00,2018-04-15 00:00:00,PRATE,surface,-106.875,32.5983,3.7e-06
2018-04-15 00:00:00,2018-04-15 00:00:00,PRATE,surface,-105.938,32.5983,4.6e-06
2018-04-15 00:00:00,2018-04-15 00:00:00,PRATE,surface,-105,32.5983,8.5e-06
2018-04-15 00:00:00,2018-04-15 00:00:00,PRATE,surface,-104.063,32.5983,1.23e-05
2018-04-15 00:00:00,2018-04-15 00:00:00,PRATE,surface,-103.125,32.5983,1.37e-05
2018-04-15 00:00:00,2018-04-15 00:00:00,PRATE,surface,-102.188,32.5983,1.7e-05
2018-04-15 00:00:00,2018-04-15 00:00:00,PRATE,surface,-101.25,32.5983,2.47e-05
2018-04-15 00:00:00,2018-04-15 00:00:00,PRATE,surface,-100.313,32.5983,2.88e-05
2018-04-15 00:00:00,2018-04-15 00:00:00,PRATE,surface,-99.3754,32.5983,3.13e-05
2018-04-15 00:00:00,2018-04-15 00:00:00,PRATE,surface,-98.4379,32.5983,2.99e-05
2018-04-15 00:00:00,2018-04-15 00:00:00,PRATE,surface,-97.5004,32.5983,2.84e-05
2018-04-15 00:00:00,2018-04-15 00:00:00,PRATE,surface,-96.5629,32.5983,2.61e-05
2018-04-15 00:00:00,2018-04-15 00:00:00,PRATE,surface,-95.6254,32.5983,2.53e-05
2018-04-15 00:00:00,2018-04-15 00:00:00,PRATE,surface,-94.6879,32.5983,3.04e-05
2018-04-15 00:00:00,2018-04-15 00:00:00,PRATE,surface,-93.7504,32.5983,3.19e-05
2018-04-15 00:00:00,2018-04-15 00:00:00,PRATE,surface,-92.8129,32.5983,3.3e-05
2018-04-15 00:00:00,2018-04-15 00:00:00,PRATE,surface,-107.813,33.5432,4.2e-06
2018-04-15 00:00:00,2018-04-15 00:00:00,PRATE,surface,-106.875,33.5432,4.1e-06
2018-04-15 00:00:00,2018-04-15 00:00:00,PRATE,surface,-105.938,33.5432,5.1e-06
2018-04-15 00:00:00,2018-04-15 00:00:00,PRATE,surface,-105,33.5432,6.5e-06
2018-04-15 00:00:00,2018-04-15 00:00:00,PRATE,surface,-104.063,33.5432,1.34e-05
2018-04-15 00:00:00,2018-04-15 00:00:00,PRATE,surface,-103.125,33.5432,1.89e-05
2018-04-15 00:00:00,2018-04-15 00:00:00,PRATE,surface,-102.188,33.5432,2.66e-05
2018-04-15 00:00:00,2018-04-15 00:00:00,PRATE,surface,-101.25,33.5432,3.9e-05
2018-04-15 00:00:00,2018-04-15 00:00:00,PRATE,surface,-100.313,33.5432,3.99e-05
2018-04-15 00:00:00,2018-04-15 00:00:00,PRATE,surface,-99.3754,33.5432,3.58e-05
2018-04-15 00:00:00,2018-04-15 00:00:00,PRATE,surface,-98.4379,33.5432,3.93e-05
2018-04-15 00:00:00,2018-04-15 00:00:00,PRATE,surface,-97.5004,33.5432,4.23e-05
2018-04-15 00:00:00,2018-04-15 00:00:00,PRATE,surface,-96.5629,33.5432,3.78e-05
2018-04-15 00:00:00,2018-04-15 00:00:00,PRATE,surface,-95.6254,33.5432,3.15e-05
2018-04-15 00:00:00,2018-04-15 00:00:00,PRATE,surface,-94.6879,33.5432,3.12e-05
2018-04-15 00:00:00,2018-04-15 00:00:00,PRATE,surface,-93.7504,33.5432,3.63e-05
2018-04-15 00:00:00,2018-04-15 00:00:00,PRATE,surface,-92.8129,33.5432,3.14e-05
2018-04-15 00:00:00,2018-04-15 00:00:00,PRATE,surface,-107.813,34.4881,4.5e-06
2018-04-15 00:00:00,2018-04-15 00:00:00,PRATE,surface,-106.875,34.4881,4.9e-06
2018-04-15 00:00:00,2018-04-15 00:00:00,PRATE,surface,-105.938,34.4881,3.3e-06
2018-04-15 00:00:00,2018-04-15 00:00:00,PRATE,surface,-105,34.4881,6.3e-06
2018-04-15 00:00:00,2018-04-15 00:00:00,PRATE,surface,-104.063,34.4881,8.9e-06
2018-04-15 00:00:00,2018-04-15 00:00:00,PRATE,surface,-103.125,34.4881,1.32e-05
2018-04-15 00:00:00,2018-04-15 00:00:00,PRATE,surface,-102.188,34.4881,1.83e-05
2018-04-15 00:00:00,2018-04-15 00:00:00,PRATE,surface,-101.25,34.4881,2.95e-05
2018-04-15 00:00:00,2018-04-15 00:00:00,PRATE,surface,-100.313,34.4881,3.61e-05
2018-04-15 00:00:00,2018-04-15 00:00:00,PRATE,surface,-99.3754,34.4881,4.16e-05
2018-04-15 00:00:00,2018-04-15 00:00:00,PRATE,surface,-98.4379,34.4881,5e-05
2018-04-15 00:00:00,2018-04-15 00:00:00,PRATE,surface,-97.5004,34.4881,5.73e-05
2018-04-15 00:00:00,2018-04-15 00:00:00,PRATE,surface,-96.5629,34.4881,5.85e-05
2018-04-15 00:00:00,2018-04-15 00:00:00,PRATE,surface,-95.6254,34.4881,5.55e-05
2018-04-15 00:00:00,2018-04-15 00:00:00,PRATE,surface,-94.6879,34.4881,5.3e-05
2018-04-15 00:00:00,2018-04-15 00:00:00,PRATE,surface,-93.7504,34.4881,5.38e-05
2018-04-15 00:00:00,2018-04-15 00:00:00,PRATE,surface,-92.8129,34.4881,5.44e-05
2018-04-15 00:00:00,2018-04-15 00:00:00,PRATE,surface,-107.813,35.4329,6.5e-06
2018-04-15 00:00:00,2018-04-15 00:00:00,PRATE,surface,-106.875,35.4329,6.2e-06
2018-04-15 00:00:00,2018-04-15 00:00:00,PRATE,surface,-105.938,35.4329,6e-06
2018-04-15 00:00:00,2018-04-15 00:00:00,PRATE,surface,-105,35.4329,1.04e-05
2018-04-15 00:00:00,2018-04-15 00:00:00,PRATE,surface,-104.063,35.4329,8.3e-06
2018-04-15 00:00:00,2018-04-15 00:00:00,PRATE,surface,-103.125,35.4329,1.39e-05
2018-04-15 00:00:00,2018-04-15 00:00:00,PRATE,surface,-102.188,35.4329,1.64e-05
2018-04-15 00:00:00,2018-04-15 00:00:00,PRATE,surface,-101.25,35.4329,2.2e-05
2018-04-15 00:00:00,2018-04-15 00:00:00,PRATE,surface,-100.313,35.4329,2.95e-05
2018-04-15 00:00:00,2018-04-15 00:00:00,PRATE,surface,-99.3754,35.4329,3.71e-05
2018-04-15 00:00:00,2018-04-15 00:00:00,PRATE,surface,-98.4379,35.4329,4.95e-05
2018-04-15 00:00:00,2018-04-15 00:00:00,PRATE,surface,-97.5004,35.4329,6.16e-05
2018-04-15 00:00:00,2018-04-15 00:00:00,PRATE,surface,-96.5629,35.4329,6.42e-05
2018-04-15 00:00:00,2018-04-15 00:00:00,PRATE,surface,-95.6254,35.4329,5.95e-05
2018-04-15 00:00:00,2018-04-15 00:00:00,PRATE,surface,-94.6879,35.4329,5.52e-05
2018-04-15 00:00:00,2018-04-15 00:00:00,PRATE,surface,-93.7504,35.4329,5.31e-05
2018-04-15 00:00:00,2018-04-15 00:00:00,PRATE,surface,-92.8129,35.4329,5.34e-05
2018-04-15 00:00:00,2018-04-15 00:00:00,PRATE,surface,-107.813,36.3778,1.36e-05
2018-04-15 00:00:00,2018-04-15 00:00:00,PRATE,surface,-106.875,36.3778,1.31e-05
2018-04-15 00:00:00,2018-04-15 00:00:00,PRATE,surface,-105.938,36.3778,1.1e-05
2018-04-15 00:00:00,2018-04-15 00:00:00,PRATE,surface,-105,36.3778,1.43e-05
2018-04-15 00:00:00,2018-04-15 00:00:00,PRATE,surface,-104.063,36.3778,1.26e-05
2018-04-15 00:00:00,2018-04-15 00:00:00,PRATE,surface,-103.125,36.3778,1.33e-05
2018-04-15 00:00:00,2018-04-15 00:00:00,PRATE,surface,-102.188,36.3778,1.71e-05
2018-04-15 00:00:00,2018-04-15 00:00:00,PRATE,surface,-101.25,36.3778,1.92e-05
2018-04-15 00:00:00,2018-04-15 00:00:00,PRATE,surface,-100.313,36.3778,2.06e-05
2018-04-15 00:00:00,2018-04-15 00:00:00,PRATE,surface,-99.3754,36.3778,2.61e-05
2018-04-15 00:00:00,2018-04-15 00:00:00,PRATE,surface,-98.4379,36.3778,3.77e-05
2018-04-15 00:00:00,2018-04-15 00:00:00,PRATE,surface,-97.5004,36.3778,4.6e-05
2018-04-15 00:00:00,2018-04-15 00:00:00,PRATE,surface,-96.5629,36.3778,4.85e-05
2018-04-15 00:00:00,2018-04-15 00:00:00,PRATE,surface,-95.6254,36.3778,5.09e-05
2018-04-15 00:00:00,2018-04-15 00:00:00,PRATE,surface,-94.6879,36.3778,5.29e-05
2018-04-15 00:00:00,2018-04-15 00:00:00,PRATE,surface,-93.7504,36.3778,4.99e-05
2018-04-15 00:00:00,2018-04-15 00:00:00,PRATE,surface,-92.8129,36.3778,4.36e-05
