2014-06-07 00:00:00,2014-06-07 00:00:00,TMP,surface,-107.813,25.0393,289.85
2014-06-07 00:00:00,2014-06-07 00:00:00,TMP,surface,-106.875,25.0393,284.06
2014-06-07 00:00:00,2014-06-07 00:00:00,TMP,surface,-105.938,25.0393,279.148
2014-06-07 00:00:00,2014-06-07 00:00:00,TMP,surface,-105,25.0393,278.151
2014-06-07 00:00:00,2014-06-07 00:00:00,TMP,surface,-104.063,25.0393,281.537
2014-06-07 00:00:00,2014-06-07 00:00:00,TMP,surface,-103.125,25.0393,283.814
2014-06-07 00:00:00,2014-06-07 00:00:00,TMP,surface,-102.188,25.0393,283.553
2014-06-07 00:00:00,2014-06-07 00:00:00,TMP,surface,-101.25,25.0393,282.13
2014-06-07 00:00:00,2014-06-07 00:00:00,TMP,surface,-100.313,25.0393,282.742
2014-06-07 00:00:00,2014-06-07 00:00:00,TMP,surface,-99.3754,25.0393,285.532
2014-06-07 00:00:00,2014-06-07 00:00:00,TMP,surface,-98.4379,25.0393,288.428
2014-06-07 00:00:00,2014-06-07 00:00:00,TMP,surface,-97.5004,25.0393,292.289
2014-06-07 00:00:00,2014-06-07 00:00:00,TMP,surface,-96.5629,25.0393,291.983
2014-06-07 00:00:00,2014-06-07 00:00:00,TMP,surface,-95.6254,25.0393,291.835
2014-06-07 00:00:00,2014-06-07 00:00:00,TMP,surface,-94.6879,25.0393,292.148
2014-06-07 00:00:00,2014-06-07 00:00:00,TMP,surface,-93.7504,25.0393,292.586
2014-06-07 00:00:00,2014-06-07 00:00:00,TMP,surface,-92.8129,25.0393,293.091
2014-06-07 00:00:00,2014-06-07 00:00:00,TMP,surface,-107.813,25.9842,285.604
2014-06-07 00:00:00,2014-06-07 00:00:00,TMP,surface,-106.875,25.9842,279.926
2014-06-07 00:00:00,2014-06-07 00:00:00,TMP,surface,-105.938,25.9842,278.041
2014-06-07 00:00:00,2014-06-07 00:00:00,TMP,surface,-105,25.9842,280.094
2014-06-07 00:00:00,2014-06-07 00:00:00,TMP,surface,-104.063,25.9842,283.844
2014-06-07 00:00:00,2014-06-07 00:00:00,TMP,surface,-103.125,25.9842,285.327
2014-06-07 00:00:00,2014-06-07 00:00:00,TMP,surface,-102.188,25.9842,284.612
2014-06-07 00:00:00,2014-06-07 00:00:00,TMP,surface,-101.25,25.9842,283.558
2014-06-07 00:00:00,2014-06-07 00:00:00,TMP,surface,-100.313,25.9842,283.894
2014-06-07 00:00:00,2014-06-07 00:00:00,TMP,surface,-99.3754,25.9842,286.234
2014-06-07 00:00:00,2014-06-07 00:00:00,TMP,surface,-98.4379,25.9842,288.23
2014-06-07 00:00:00,2014-06-07 00:00:00,TMP,surface,-97.5004,25.9842,289.329
2014-06-07 00:00:00,2014-06-07 00:00:00,TMP,surface,-96.5629,25.9842,291.494
2014-06-07 00:00:00,2014-06-07 00:00:00,TMP,surface,-95.6254,25.9842,291.222
2014-06-07 00:00:00,2014-06-07 00:00:00,TMP,surface,-94.6879,25.9842,291.543
2014-06-07 00:00:00,2014-06-07 00:00:00,TMP,surface,-93.7504,25.9842,291.927
2014-06-07 00:00:00,2014-06-07 00:00:00,TMP,surface,-92.8129,25.9842,292.295
2014-06-07 00:00:00,2014-06-07 00:00:00,TMP,surface,-107.813,26.929,281.033
2014-06-07 00:00:00,2014-06-07 00:00:00,TMP,surface,-106.875,26.929,277.799
2014-06-07 00:00:00,2014-06-07 00:00:00,TMP,surface,-105.938,26.929,279.337
2014-06-07 00:00:00,2014-06-07 00:00:00,TMP,surface,-105,26.929,282.267
2014-06-07 00:00:00,2014-06-07 00:00:00,TMP,surface,-104.063,26.929,283.914
2014-06-07 00:00:00,2014-06-07 00:00:00,TMP,surface,-103.125,26.929,283.539
2014-06-07 00:00:00,2014-06-07 00:00:00,TMP,surface,-102.188,26.929,283.427
2014-06-07 00:00:00,2014-06-07 00:00:00,TMP,surface,-101.25,26.929,283.927
2014-06-07 00:00:00,2014-06-07 00:00:00,TMP,surface,-100.313,26.929,285.103
2014-06-07 00:00:00,2014-06-07 00:00:00,TMP,surface,-99.3754,26.929,286.326
2014-06-07 00:00:00,2014-06-07 00:00:00,TMP,surface,-98.4379,26.929,286.881
2014-06-07 00:00:00,2014-06-07 00:00:00,TMP,surface,-97.5004,26.929,291.092
2014-06-07 00:00:00,2014-06-07 00:00:00,TMP,surface,-96.5629,26.929,291.242
2014-06-07 00:00:00,2014-06-07 00:00:00,TMP,surface,-95.6254,26.929,291.183
2014-06-07 00:00:00,2014-06-07 00:00:00,TMP,surface,-94.6879,26.929,291.553
2014-06-07 00:00:00,2014-06-07 00:00:00,TMP,surface,-93.7504,26.929,291.766
2014-06-07 00:00:00,2014-06-07 00:00:00,TMP,surface,-92.8129,26.929,291.924
2014-06-07 00:00:00,2014-06-07 00:00:00,TMP,surface,-107.813,27.8739,278.555
2014-06-07 00:00:00,2014-06-07 00:00:00,TMP,surface,-106.875,27.8739,277.655
2014-06-07 00:00:00,2014-06-07 00:00:00,TMP,surface,-105.938,27.8739,280.539
2014-06-07 00:00:00,2014-06-07 00:00:00,TMP,surface,-105,27.8739,283.178
2014-06-07 00:00:00,2014-06-07 00:00:00,TMP,surface,-104.063,27.8739,283.451
2014-06-07 00:00:00,2014-06-07 00:00:00,TMP,surface,-103.125,27.8739,282.172
2014-06-07 00:00:00,2014-06-07 00:00:00,TMP,surface,-102.188,27.8739,282.407
2014-06-07 00:00:00,2014-06-07 00:00:00,TMP,surface,-101.25,27.8739,283.73
2014-06-07 00:00:00,2014-06-07 00:00:00,TMP,surface,-100.313,27.8739,284.849
2014-06-07 00:00:00,2014-06-07 00:00:00,TMP,surface,-99.3754,27.8739,285.196
2014-06-07 00:00:00,2014-06-07 00:00:00,TMP,surface,-98.4379,27.8739,285.327
2014-06-07 00:00:00,2014-06-07 00:00:00,TMP,surface,-97.5004,27.8739,288.62
2014-06-07 00:00:00,2014-06-07 00:00:00,TMP,surface,-96.5629,27.8739,291.86
2014-06-07 00:00:00,2014-06-07 00:00:00,TMP,surface,-95.6254,27.8739,291.746
2014-06-07 00:00:00,2014-06-07 00:00:00,TMP,surface,-94.6879,27.8739,291.428
2014-06-07 00:00:00,2014-06-07 00:00:00,TMP,surface,-93.7504,27.8739,291.359
2014-06-07 00:00:00,2014-06-07 00:00:00,TMP,surface,-92.8129,27.8739,291.474
2014-06-07 00:00:00,2014-06-07 00:00:00,TMP,surface,-107.813,28.8188,277.534
2014-06-07 00:00:00,2014-06-07 00:00:00,TMP,surface,-106.875,28.8188,278.327
2014-06-07 00:00:00,2014-06-07 00:00:00,TMP,surface,-105.938,28.8188,281.111
2014-06-07 00:00:00,2014-06-07 00:00:00,TMP,surface,-105,28.8188,283.057
2014-06-07 00:00:00,2014-06-07 00:00:00,TMP,surface,-104.063,28.8188,282.183
2014-06-07 00:00:00,2014-06-07 00:00:00,TMP,surface,-103.125,28.8188,281.247
2014-06-07 00:00:00,2014-06-07 00:00:00,TMP,surface,-102.188,28.8188,281.919
2014-06-07 00:00:00,2014-06-07 00:00:00,TMP,surface,-101.25,28.8188,283.268
2014-06-07 00:00:00,2014-06-07 00:00:00,TMP,surface,-100.313,28.8188,283.689
2014-06-07 00:00:00,2014-06-07 00:00:00,TMP,surface,-99.3754,28.8188,283.499
2014-06-07 00:00:00,2014-06-07 00:00:00,TMP,surface,-98.4379,28.8188,283.404
2014-06-07 00:00:00,2014-06-07 00:00:00,TMP,surface,-97.5004,28.8188,283.782
2014-06-07 00:00:00,2014-06-07 00:00:00,TMP,surface,-96.5629,28.8188,284.497
2014-06-07 00:00:00,2014-06-07 00:00:00,TMP,surface,-95.6254,28.8188,287.395
2014-06-07 00:00:00,2014-06-07 00:00:00,TMP,surface,-94.6879,28.8188,291.396
2014-06-07 00:00:00,2014-06-07 00:00:00,TMP,surface,-93.7504,28.8188,291.267
2014-06-07 00:00:00,2014-06-07 00:00:00,TMP,surface,-92.8129,28.8188,291.295
2014-06-07 00:00:00,2014-06-07 00:00:00,TMP,surface,-107.813,29.7637,278.497
2014-06-07 00:00:00,2014-06-07 00:00:00,TMP,surface,-106.875,29.7637,279.529
2014-06-07 00:00:00,2014-06-07 00:00:00,TMP,surface,-105.938,29.7637,281.663
2014-06-07 00:00:00,2014-06-07 00:00:00,TMP,surface,-105,29.7637,281.775
2014-06-07 00:00:00,2014-06-07 00:00:00,TMP,surface,-104.063,29.7637,281.466
2014-06-07 00:00:00,2014-06-07 00:00:00,TMP,surface,-103.125,29.7637,281.458
2014-06-07 00:00:00,2014-06-07 00:00:00,TMP,surface,-102.188,29.7637,282.183
2014-06-07 00:00:00,2014-06-07 00:00:00,TMP,surface,-101.25,29.7637,282.684
2014-06-07 00:00:00,2014-06-07 00:00:00,TMP,surface,-100.313,29.7637,282.29
2014-06-07 00:00:00,2014-06-07 00:00:00,TMP,surface,-99.3754,29.7637,281.775
2014-06-07 00:00:00,2014-06-07 00:00:00,TMP,surface,-98.4379,29.7637,281.642
2014-06-07 00:00:00,2014-06-07 00:00:00,TMP,surface,-97.5004,29.7637,281.855
2014-06-07 00:00:00,2014-06-07 00:00:00,TMP,surface,-96.5629,29.7637,282.316
2014-06-07 00:00:00,2014-06-07 00:00:00,TMP,surface,-95.6254,29.7637,282.958
2014-06-07 00:00:00,2014-06-07 00:00:00,TMP,surface,-94.6879,29.7637,285.988
2014-06-07 00:00:00,2014-06-07 00:00:00,TMP,surface,-93.7504,29.7637,289.532
2014-06-07 00:00:00,2014-06-07 00:00:00,TMP,surface,-92.8129,29.7637,283.201
2014-06-07 00:00:00,2014-06-07 00:00:00,TMP,surface,-107.813,30.7085,280.993
2014-06-07 00:00:00,2014-06-07 00:00:00,TMP,surface,-106.875,30.7085,281.777
2014-06-07 00:00:00,2014-06-07 00:00:00,TMP,surface,-105.938,30.7085,281.783
2014-06-07 00:00:00,2014-06-07 00:00:00,TMP,surface,-105,30.7085,281.092
2014-06-07 00:00:00,2014-06-07 00:00:00,TMP,surface,-104.063,30.7085,281.028
2014-06-07 00:00:00,2014-06-07 00:00:00,TMP,surface,-103.125,30.7085,281.551
2014-06-07 00:00:00,2014-06-07 00:00:00,TMP,surface,-102.188,30.7085,282.079
2014-06-07 00:00:00,2014-06-07 00:00:00,TMP,surface,-101.25,30.7085,281.953
2014-06-07 00:00:00,2014-06-07 00:00:00,TMP,surface,-100.313,30.7085,281.334
2014-06-07 00:00:00,2014-06-07 00:00:00,TMP,surface,-99.3754,30.7085,280.883
2014-06-07 00:00:00,2014-06-07 00:00:00,TMP,surface,-98.4379,30.7085,280.854
2014-06-07 00:00:00,2014-06-07 00:00:00,TMP,surface,-97.5004,30.7085,281.026
2014-06-07 00:00:00,2014-06-07 00:00:00,TMP,surface,-96.5629,30.7085,281.267
2014-06-07 00:00:00,2014-06-07 00:00:00,TMP,surface,-95.6254,30.7085,281.47
2014-06-07 00:00:00,2014-06-07 00:00:00,TMP,surface,-94.6879,30.7085,281.369
2014-06-07 00:00:00,2014-06-07 00:00:00,TMP,surface,-93.7504,30.7085,280.881
2014-06-07 00:00:00,2014-06-07 00:00:00,TMP,surface,-92.8129,30.7085,280.215
2014-06-07 00:00:00,2014-06-07 00:00:00,TMP,surface,-107.813,31.6534,281.575
2014-06-07 00:00:00,2014-06-07 00:00:00,TMP,surface,-106.875,31.6534,281.967
2014-06-07 00:00:00,2014-06-07 00:00:00,TMP,surface,-105.938,31.6534,281.134
2014-06-07 00:00:00,2014-06-07 00:00:00,TMP,surface,-105,31.6534,280.713
2014-06-07 00:00:00,2014-06-07 00:00:00,TMP,surface,-104.063,31.6534,280.862
2014-06-07 00:00:00,2014-06-07 00:00:00,TMP,surface,-103.125,31.6534,281.35
2014-06-07 00:00:00,2014-06-07 00:00:00,TMP,surface,-102.188,31.6534,281.489
2014-06-07 00:00:00,2014-06-07 00:00:00,TMP,surface,-101.25,31.6534,281.263
2014-06-07 00:00:00,2014-06-07 00:00:00,TMP,surface,-100.313,31.6534,280.911
2014-06-07 00:00:00,2014-06-07 00:00:00,TMP,surface,-99.3754,31.6534,280.734
2014-06-07 00:00:00,2014-06-07 00:00:00,TMP,surface,-98.4379,31.6534,280.708
2014-06-07 00:00:00,2014-06-07 00:00:00,TMP,surface,-97.5004,31.6534,280.746
2014-06-07 00:00:00,2014-06-07 00:00:00,TMP,surface,-96.5629,31.6534,280.807
2014-06-07 00:00:00,2014-06-07 00:00:00,TMP,surface,-95.6254,31.6534,280.676
2014-06-07 00:00:00,2014-06-07 00:00:00,TMP,surface,-94.6879,31.6534,280.166
2014-06-07 00:00:00,2014-06-07 00:00:00,TMP,surface,-93.7504,31.6534,279.513
2014-06-07 00:00:00,2014-06-07 00:00:00,TMP,surface,-92.8129,31.6534,279.03
2014-06-07 00:00:00,2014-06-07 00:00:00,TMP,surface,-107.813,32.5983,279.297
2014-06-07 00:00:00,2014-06-07 00:00:00,TMP,surface,-106.875,32.5983,279.451
2014-06-07 00:00:00,2014-06-07 00:00:00,TMP,surface,-105.938,32.5983,279.665
2014-06-07 00:00:00,2014-06-07 00:00:00,TMP,surface,-105,32.5983,279.863
2014-06-07 00:00:00,2014-06-07 00:00:00,TMP,surface,-104.063,32.5983,280.804
2014-06-07 00:00:00,2014-06-07 00:00:00,TMP,surface,-103.125,32.5983,281.236
2014-06-07 00:00:00,2014-06-07 00:00:00,TMP,surface,-102.188,32.5983,280.827
2014-06-07 00:00:00,2014-06-07 00:00:00,TMP,surface,-101.25,32.5983,280.57
2014-06-07 00:00:00,2014-06-07 00:00:00,TMP,surface,-100.313,32.5983,280.634
2014-06-07 00:00:00,2014-06-07 00:00:00,TMP,surface,-99.3754,32.5983,280.684
2014-06-07 00:00:00,2014-06-07 00:00:00,TMP,surface,-98.4379,32.5983,280.585
2014-06-07 00:00:00,2014-06-07 00:00:00,TMP,surface,-97.5004,32.5983,280.435
2014-06-07 00:00:00,2014-06-07 00:00:00,TMP,surface,-96.5629,32.5983,280.212
2014-06-07 00:00:00,2014-06-07 00:00:00,TMP,surface,-95.6254,32.5983,279.831
2014-06-07 00:00:00,2014-06-07 00:00:00,TMP,surface,-94.6879,32.5983,279.276
2014-06-07 00:00:00,2014-06-07 00:00:00,TMP,surface,-93.7504,32.5983,278.663
2014-06-07 00:00:00,2014-06-07 00:00:00,TMP,surface,-92.8129,32.5983,278.38
2014-06-07 00:00:00,2014-06-07 00:00:00,TMP,surface,-107.813,33.5432,276.385
2014-06-07 00:00:00,2014-06-07 00:00:00,TMP,surface,-106.875,33.5432,277.26
2014-06-07 00:00:00,2014-06-07 00:00:00,TMP,surface,-105.938,33.5432,278.092
2014-06-07 00:00:00,2014-06-07 00:00:00,TMP,surface,-105,33.5432,278.875
2014-06-07 00:00:00,2014-06-07 00:00:00,TMP,surface,-104.063,33.5432,280.185
2014-06-07 00:00:00,2014-06-07 00:00:00,TMP,surface,-103.125,33.5432,280.374
2014-06-07 00:00:00,2014-06-07 00:00:00,TMP,surface,-102.188,33.5432,279.799
2014-06-07 00:00:00,2014-06-07 00:00:00,TMP,surface,-101.25,33.5432,279.551
2014-06-07 00:00:00,2014-06-07 00:00:00,TMP,surface,-100.313,33.5432,279.844
2014-06-07 00:00:00,2014-06-07 00:00:00,TMP,surface,-99.3754,33.5432,280.081
2014-06-07 00:00:00,2014-06-07 00:00:00,TMP,surface,-98.4379,33.5432,279.884
2014-06-07 00:00:00,2014-06-07 00:00:00,TMP,surface,-97.5004,33.5432,279.441
2014-06-07 00:00:00,2014-06-07 00:00:00,TMP,surface,-96.5629,33.5432,279.033
2014-06-07 00:00:00,2014-06-07 00:00:00,TMP,surface,-95.6254,33.5432,278.62
2014-06-07 00:00:00,2014-06-07 00:00:00,TMP,surface,-94.6879,33.5432,278.033
2014-06-07 00:00:00,2014-06-07 00:00:00,TMP,surface,-93.7504,33.5432,277.435
2014-06-07 00:00:00,2014-06-07 00:00:00,TMP,surface,-92.8129,33.5432,277.236
2014-06-07 00:00:00,2014-06-07 00:00:00,TMP,surface,-107.813,34.4881,275.383
2014-06-07 00:00:00,2014-06-07 00:00:00,TMP,surface,-106.875,34.4881,276.503
2014-06-07 00:00:00,2014-06-07 00:00:00,TMP,surface,-105.938,34.4881,277.3
2014-06-07 00:00:00,2014-06-07 00:00:00,TMP,surface,-105,34.4881,278.372
2014-06-07 00:00:00,2014-06-07 00:00:00,TMP,surface,-104.063,34.4881,279.105
2014-06-07 00:00:00,2014-06-07 00:00:00,TMP,surface,-103.125,34.4881,279.327
2014-06-07 00:00:00,2014-06-07 00:00:00,TMP,surface,-102.188,34.4881,278.988
2014-06-07 00:00:00,2014-06-07 00:00:00,TMP,surface,-101.25,34.4881,278.684
2014-06-07 00:00:00,2014-06-07 00:00:00,TMP,surface,-100.313,34.4881,278.767
2014-06-07 00:00:00,2014-06-07 00:00:00,TMP,surface,-99.3754,34.4881,278.863
2014-06-07 00:00:00,2014-06-07 00:00:00,TMP,surface,-98.4379,34.4881,278.633
2014-06-07 00:00:00,2014-06-07 00:00:00,TMP,surface,-97.5004,34.4881,278.265
2014-06-07 00:00:00,2014-06-07 00:00:00,TMP,surface,-96.5629,34.4881,277.959
2014-06-07 00:00:00,2014-06-07 00:00:00,TMP,surface,-95.6254,34.4881,277.513
2014-06-07 00:00:00,2014-06-07 00:00:00,TMP,surface,-94.6879,34.4881,276.754
2014-06-07 00:00:00,2014-06-07 00:00:00,TMP,surface,-93.7504,34.4881,276.046
2014-06-07 00:00:00,2014-06-07 00:00:00,TMP,surface,-92.8129,34.4881,275.825
2014-06-07 00:00:00,2014-06-07 00:00:00,TMP,surface,-107.813,35.4329,275.585
2014-06-07 00:00:00,2014-06-07 00:00:00,TMP,surface,-106.875,35.4329,275.707
2014-06-07 00:00:00,2014-06-07 00:00:00,TMP,surface,-105.938,35.4329,275.945
2014-06-07 00:00:00,2014-06-07 00:00:00,TMP,surface,-105,35.4329,276.638
2014-06-07 00:00:00,2014-06-07 00:00:00,TMP,surface,-104.063,35.4329,278.305
2014-06-07 00:00:00,2014-06-07 00:00:00,TMP,surface,-103.125,35.4329,278.961
2014-06-07 00:00:00,2014-06-07 00:00:00,TMP,surface,-102.188,35.4329,278.486
2014-06-07 00:00:00,2014-06-07 00:00:00,TMP,surface,-101.25,35.4329,277.804
2014-06-07 00:00:00,2014-06-07 00:00:00,TMP,surface,-100.313,35.4329,277.489
2014-06-07 00:00:00,2014-06-07 00:00:00,TMP,surface,-99.3754,35.4329,277.414
2014-06-07 00:00:00,2014-06-07 00:00:00,TMP,surface,-98.4379,35.4329,277.342
2014-06-07 00:00:00,2014-06-07 00:00:00,TMP,surface,-97.5004,35.4329,277.339
2014-06-07 00:00:00,2014-06-07 00:00:00,TMP,surface,-96.5629,35.4329,277.289
2014-06-07 00:00:00,2014-06-07 00:00:00,TMP,surface,-95.6254,35.4329,276.895
2014-06-07 00:00:00,2014-06-07 00:00:00,TMP,surface,-94.6879,35.4329,276.111
2014-06-07 00:00:00,2014-06-07 00:00:00,TMP,surface,-93.7504,35.4329,275.247
2014-06-07 00:00:00,2014-06-07 00:00:00,TMP,surface,-92.8129,35.4329,274.9
2014-06-07 00:00:00,2014-06-07 00:00:00,TMP,surface,-107.813,36.3778,274.707
2014-06-07 00:00:00,2014-06-07 00:00:00,TMP,surface,-106.875,36.3778,273.222
2014-06-07 00:00:00,2014-06-07 00:00:00,TMP,surface,-105.938,36.3778,273.174
2014-06-07 00:00:00,2014-06-07 00:00:00,TMP,surface,-105,36.3778,274.71
2014-06-07 00:00:00,2014-06-07 00:00:00,TMP,surface,-104.063,36.3778,276.982
2014-06-07 00:00:00,2014-06-07 00:00:00,TMP,surface,-103.125,36.3778,277.962
2014-06-07 00:00:00,2014-06-07 00:00:00,TMP,surface,-102.188,36.3778,277.796
2014-06-07 00:00:00,2014-06-07 00:00:00,TMP,surface,-101.25,36.3778,277.07
2014-06-07 00:00:00,2014-06-07 00:00:00,TMP,surface,-100.313,36.3778,276.502
2014-06-07 00:00:00,2014-06-07 00:00:00,TMP,surface,-99.3754,36.3778,276.358
2014-06-07 00:00:00,2014-06-07 00:00:00,TMP,surface,-98.4379,36.3778,276.35
2014-06-07 00:00:00,2014-06-07 00:00:00,TMP,surface,-97.5004,36.3778,276.443
2014-06-07 00:00:00,2014-06-07 00:00:00,TMP,surface,-96.5629,36.3778,276.54
2014-06-07 00:00:00,2014-06-07 00:00:00,TMP,surface,-95.6254,36.3778,276.273
2014-06-07 00:00:00,2014-06-07 00:00:00,TMP,surface,-94.6879,36.3778,275.494
2014-06-07 00:00:00,2014-06-07 00:00:00,TMP,surface,-93.7504,36.3778,274.574
2014-06-07 00:00:00,2014-06-07 00:00:00,TMP,surface,-92.8129,36.3778,274.078
2014-06-07 00:00:00,2014-06-07 00:00:00,PRATE,surface,-107.813,25.0393,6.96e-05
2014-06-07 00:00:00,2014-06-07 00:00:00,PRATE,surface,-106.875,25.0393,0.0001297
2014-06-07 00:00:00,2014-06-07 00:00:00,PRATE,surface,-105.938,25.0393,0.0001179
2014-06-07 00:00:00,2014-06-07 00:00:00,PRATE,surface,-105,25.0393,8.89e-05
2014-06-07 00:00:00,2014-06-07 00:00:00,PRATE,surface,-104.063,25.0393,5.18e-05
2014-06-07 00:00:00,2014-06-07 00:00:00,PRATE,surface,-103.125,25.0393,2.8e-05
2014-06-07 00:00:00,2014-06-07 00:00:00,PRATE,surface,-102.188,25.0393,3.61e-05
2014-06-07 00:00:00,2014-06-07 00:00:00,PRATE,surface,-101.25,25.0393,6.82e-05
2014-06-07 00:00:00,2014-06-07 00:00:00,PRATE,surface,-100.313,25.0393,0.0001293
2014-06-07 00:00:00,2014-06-07 00:00:00,PRATE,surface,-99.3754,25.0393,0.0001106
2014-06-07 00:00:00,2014-06-07 00:00:00,PRATE,surface,-98.4379,25.0393,6.81e-05
2014-06-07 00:00:00,2014-06-07 00:00:00,PRATE,surface,-97.5004,25.0393,7.58e-05
2014-06-07 00:00:00,2014-06-07 00:00:00,PRATE,surface,-96.5629,25.0393,7.74e-05
2014-06-07 00:00:00,2014-06-07 00:00:00,PRATE,surface,-95.6254,25.0393,7.74e-05
2014-06-07 00:00:00,2014-06-07 00:00:00,PRATE,surface,-94.6879,25.0393,6.96e-05
2014-06-07 00:00:00,2014-06-07 00:00:00,PRATE,surface,-93.7504,25.0393,6.29e-05
2014-06-07 00:00:00,2014-06-07 00:00:00,PRATE,surface,-92.8129,25.0393,6.43e-05
2014-06-07 00:00:00,2014-06-07 00:00:00,PRATE,surface,-107.813,25.9842,8.66e-05
2014-06-07 00:00:00,2014-06-07 00:00:00,PRATE,surface,-106.875,25.9842,9.95e-05
2014-06-07 00:00:00,2014-06-07 00:00:00,PRATE,surface,-105.938,25.9842,9.56e-05
2014-06-07 00:00:00,2014-06-07 00:00:00,PRATE,surface,-105,25.9842,6.93e-05
2014-06-07 00:00:00,2014-06-07 00:00:00,PRATE,surface,-104.063,25.9842,2.75e-05
2014-06-07 00:00:00,2014-06-07 00:00:00,PRATE,surface,-103.125,25.9842,1.83e-05
2014-06-07 00:00:00,2014-06-07 00:00:00,PRATE,surface,-102.188,25.9842,3.21e-05
2014-06-07 00:00:00,2014-06-07 00:00:00,PRATE,surface,-101.25,25.9842,6.7e-05
2014-06-07 00:00:00,2014-06-07 00:00:00,PRATE,surface,-100.313,25.9842,9.79e-05
2014-06-07 00:00:00,2014-06-07 00:00:00,PRATE,surface,-99.3754,25.9842,8.69e-05
2014-06-07 00:00:00,2014-06-07 00:00:00,PRATE,surface,-98.4379,25.9842,6.65e-05
2014-06-07 00:00:00,2014-06-07 00:00:00,PRATE,surface,-97.5004,25.9842,7.43e-05
2014-06-07 00:00:00,2014-06-07 00:00:00,PRATE,surface,-96.5629,25.9842,9.31e-05
2014-06-07 00:00:00,2014-06-07 00:00:00,PRATE,surface,-95.6254,25.9842,0.0001009
2014-06-07 00:00:00,2014-06-07 00:00:00,PRATE,surface,-94.6879,25.9842,0.0001048
2014-06-07 00:00:00,2014-06-07 00:00:00,PRATE,surface,-93.7504,25.9842,0.0001234
2014-06-07 00:00:00,2014-06-07 00:00:00,PRATE,surface,-92.8129,25.9842,0.0001341
2014-06-07 00:00:00,2014-06-07 00:00:00,PRATE,surface,-107.813,26.929,7.61e-05
2014-06-07 00:00:00,2014-06-07 00:00:00,PRATE,surface,-106.875,26.929,6.56e-05
2014-06-07 00:00:00,2014-06-07 00:00:00,PRATE,surface,-105.938,26.929,6.78e-05
2014-06-07 00:00:00,2014-06-07 00:00:00,PRATE,surface,-105,26.929,5.3e-05
2014-06-07 00:00:00,2014-06-07 00:00:00,PRATE,surface,-104.063,26.929,3.35e-05
2014-06-07 00:00:00,2014-06-07 00:00:00,PRATE,surface,-103.125,26.929,3.43e-05
2014-06-07 00:00:00,2014-06-07 00:00:00,PRATE,surface,-102.188,26.929,4.72e-05
2014-06-07 00:00:00,2014-06-07 00:00:00,PRATE,surface,-101.25,26.929,6.9e-05
2014-06-07 00:00:00,2014-06-07 00:00:00,PRATE,surface,-100.313,26.929,7.04e-05
2014-06-07 00:00:00,2014-06-07 00:00:00,PRATE,surface,-99.3754,26.929,7.59e-05
2014-06-07 00:00:00,2014-06-07 00:00:00,PRATE,surface,-98.4379,26.929,9.3e-05
2014-06-07 00:00:00,2014-06-07 00:00:00,PRATE,surface,-97.5004,26.929,0.000115
2014-06-07 00:00:00,2014-06-07 00:00:00,PRATE,surface,-96.5629,26.929,0.0001055
2014-06-07 00:00:00,2014-06-07 00:00:00,PRATE,surface,-95.6254,26.929,0.0001077
2014-06-07 00:00:00,2014-06-07 00:00:00,PRATE,surface,-94.6879,26.929,0.000114
2014-06-07 00:00:00,2014-06-07 00:00:00,PRATE,surface,-93.7504,26.929,0.0001233
2014-06-07 00:00:00,2014-06-07 00:00:00,PRATE,surface,-92.8129,26.929,0.0001485
2014-06-07 00:00:00,2014-06-07 00:00:00,PRATE,surface,-107.813,27.8739,6.83e-05
2014-06-07 00:00:00,2014-06-07 00:00:00,PRATE,surface,-106.875,27.8739,5.09e-05
2014-06-07 00:00:00,2014-06-07 00:00:00,PRATE,surface,-105.938,27.8739,3.84e-05
2014-06-07 00:00:00,2014-06-07 00:00:00,PRATE,surface,-105,27.8739,3.16e-05
2014-06-07 00:00:00,2014-06-07 00:00:00,PRATE,surface,-104.063,27.8739,4.22e-05
2014-06-07 00:00:00,2014-06-07 00:00:00,PRATE,surface,-103.125,27.8739,6.84e-05
2014-06-07 00:00:00,2014-06-07 00:00:00,PRATE,surface,-102.188,27.8739,8.14e-05
2014-06-07 00:00:00,2014-06-07 00:00:00,PRATE,surface,-101.25,27.8739,6.46e-05
2014-06-07 00:00:00,2014-06-07 00:00:00,PRATE,surface,-100.313,27.8739,5.47e-05
2014-06-07 00:00:00,2014-06-07 00:00:00,PRATE,surface,-99.3754,27.8739,6.57e-05
2014-06-07 00:00:00,2014-06-07 00:00:00,PRATE,surface,-98.4379,27.8739,8.62e-05
2014-06-07 00:00:00,2014-06-07 00:00:00,PRATE,surface,-97.5004,27.8739,9.63e-05
2014-06-07 00:00:00,2014-06-07 00:00:00,PRATE,surface,-96.5629,27.8739,8.89e-05
2014-06-07 00:00:00,2014-06-07 00:00:00,PRATE,surface,-95.6254,27.8739,8.63e-05
2014-06-07 00:00:00,2014-06-07 00:00:00,PRATE,surface,-94.6879,27.8739,9.77e-05
2014-06-07 00:00:00,2014-06-07 00:00:00,PRATE,surface,-93.7504,27.8739,9.98e-05
2014-06-07 00:00:00,2014-06-07 00:00:00,PRATE,surface,-92.8129,27.8739,0.0001118
2014-06-07 00:00:00,2014-06-07 00:00:00,PRATE,surface,-107.813,28.8188,6.52e-05
2014-06-07 00:00:00,2014-06-07 00:00:00,PRATE,surface,-106.875,28.8188,5.25e-05
2014-06-07 00:00:00,2014-06-07 00:00:00,PRATE,surface,-105.938,28.8188,2.91e-05
2014-06-07 00:00:00,2014-06-07 00:00:00,PRATE,surface,-105,28.8188,1.87e-05
2014-06-07 00:00:00,2014-06-07 00:00:00,PRATE,surface,-104.063,28.8188,4.22e-05
2014-06-07 00:00:00,2014-06-07 00:00:00,PRATE,surface,-103.125,28.8188,6.58e-05
2014-06-07 00:00:00,2014-06-07 00:00:00,PRATE,surface,-102.188,28.8188,6.08e-05
2014-06-07 00:00:00,2014-06-07 00:00:00,PRATE,surface,-101.25,28.8188,4.27e-05
2014-06-07 00:00:00,2014-06-07 00:00:00,PRATE,surface,-100.313,28.8188,3.58e-05
2014-06-07 00:00:00,2014-06-07 00:00:00,PRATE,surface,-99.3754,28.8188,4.55e-05
2014-06-07 00:00:00,2014-06-07 00:00:00,PRATE,surface,-98.4379,28.8188,6.11e-05
2014-06-07 00:00:00,2014-06-07 00:00:00,PRATE,surface,-97.5004,28.8188,6.83e-05
2014-06-07 00:00:00,2014-06-07 00:00:00,PRATE,surface,-96.5629,28.8188,6.6e-05
2014-06-07 00:00:00,2014-06-07 00:00:00,PRATE,surface,-95.6254,28.8188,6.82e-05
2014-06-07 00:00:00,2014-06-07 00:00:00,PRATE,surface,-94.6879,28.8188,7.57e-05
2014-06-07 00:00:00,2014-06-07 00:00:00,PRATE,surface,-93.7504,28.8188,7.4e-05
2014-06-07 00:00:00,2014-06-07 00:00:00,PRATE,surface,-92.8129,28.8188,7.85e-05
2014-06-07 00:00:00,2014-06-07 00:00:00,PRATE,surface,-107.813,29.7637,3.66e-05
2014-06-07 00:00:00,2014-06-07 00:00:00,PRATE,surface,-106.875,29.7637,3.91e-05
2014-06-07 00:00:00,2014-06-07 00:00:00,PRATE,surface,-105.938,29.7637,2.74e-05
2014-06-07 00:00:00,2014-06-07 00:00:00,PRATE,surface,-105,29.7637,2.4e-05
2014-06-07 00:00:00,2014-06-07 00:00:00,PRATE,surface,-104.063,29.7637,4.05e-05
2014-06-07 00:00:00,2014-06-07 00:00:00,PRATE,surface,-103.125,29.7637,4.51e-05
2014-06-07 00:00:00,2014-06-07 00:00:00,PRATE,surface,-102.188,29.7637,3.44e-05
2014-06-07 00:00:00,2014-06-07 00:00:00,PRATE,surface,-101.25,29.7637,3.06e-05
2014-06-07 00:00:00,2014-06-07 00:00:00,PRATE,surface,-100.313,29.7637,3.42e-05
2014-06-07 00:00:00,2014-06-07 00:00:00,PRATE,surface,-99.3754,29.7637,3.86e-05
2014-06-07 00:00:00,2014-06-07 00:00:00,PRATE,surface,-98.4379,29.7637,4.2e-05
2014-06-07 00:00:00,2014-06-07 00:00:00,PRATE,surface,-97.5004,29.7637,4.6e-05
2014-06-07 00:00:00,2014-06-07 00:00:00,PRATE,surface,-96.5629,29.7637,4.8e-05
2014-06-07 00:00:00,2014-06-07 00:00:00,PRATE,surface,-95.6254,29.7637,4.95e-05
2014-06-07 00:00:00,2014-06-07 00:00:00,PRATE,surface,-94.6879,29.7637,5.44e-05
2014-06-07 00:00:00,2014-06-07 00:00:00,PRATE,surface,-93.7504,29.7637,5.78e-05
2014-06-07 00:00:00,2014-06-07 00:00:00,PRATE,surface,-92.8129,29.7637,5.9e-05
2014-06-07 00:00:00,2014-06-07 00:00:00,PRATE,surface,-107.813,30.7085,1.39e-05
2014-06-07 00:00:00,2014-06-07 00:00:00,PRATE,surface,-106.875,30.7085,1.46e-05
2014-06-07 00:00:00,2014-06-07 00:00:00,PRATE,surface,-105.938,30.7085,1.6e-05
2014-06-07 00:00:00,2014-06-07 00:00:00,PRATE,surface,-105,30.7085,2.64e-05
2014-06-07 00:00:00,2014-06-07 00:00:00,PRATE,surface,-104.063,30.7085,4.29e-05
2014-06-07 00:00:00,2014-06-07 00:00:00,PRATE,surface,-103.125,30.7085,3.81e-05
2014-06-07 00:00:00,2014-06-07 00:00:00,PRATE,surface,-102.188,30.7085,2.9e-05
2014-06-07 00:00:00,2014-06-07 00:00:00,PRATE,surface,-101.25,30.7085,3.24e-05
2014-06-07 00:00:00,2014-06-07 00:00:00,PRATE,surface,-100.313,30.7085,4.1e-05
2014-06-07 00:00:00,2014-06-07 00:00:00,PRATE,surface,-99.3754,30.7085,4.42e-05
2014-06-07 00:00:00,2014-06-07 00:00:00,PRATE,surface,-98.4379,30.7085,4.31e-05
2014-06-07 00:00:00,2014-06-07 00:00:00,PRATE,surface,-97.5004,30.7085,4.03e-05
2014-06-07 00:00:00,2014-06-07 00:00:00,PRATE,surface,-96.5629,30.7085,3.69e-05
2014-06-07 00:00:00,2014-06-07 00:00:00,PRATE,surface,-95.6254,30.7085,3.55e-05
2014-06-07 00:00:00,2014-06-07 00:00:00,PRATE,surface,-94.6879,30.7085,3.8e-05
2014-06-07 00:00:00,2014-06-07 00:00:00,PRATE,surface,-93.7504,30.7085,4.28e-05
2014-06-07 00:00:00,2014-06-07 00:00:00,PRATE,surface,-92.8129,30.7085,4.93e-05
2014-06-07 00:00:00,2014-06-07 00:00:00,PRATE,surface,-107.813,31.6534,7.5e-06
2014-06-07 00:00:00,2014-06-07 00:00:00,PRATE,surface,-106.875,31.6534,7.4e-06
2014-06-07 00:00:00,2014-06-07 00:00:00,PRATE,surface,-105.938,31.6534,1.14e-05
2014-06-07 00:00:00,2014-06-07 00:00:00,PRATE,surface,-105,31.6534,2.24e-05
2014-06-07 00:00:00,2014-06-07 00:00:00,PRATE,surface,-104.063,31.6534,3.94e-05
2014-06-07 00:00:00,2014-06-07 00:00:00,PRATE,surface,-103.125,31.6534,3.89e-05
2014-06-07 00:00:00,2014-06-07 00:00:00,PRATE,surface,-102.188,31.6534,3.36e-05
2014-06-07 00:00:00,2014-06-07 00:00:00,PRATE,surface,-101.25,31.6534,3.55e-05
2014-06-07 00:00:00,2014-06-07 00:00:00,PRATE,surface,-100.313,31.6534,4.17e-05
2014-06-07 00:00:00,2014-06-07 00:00:00,PRATE,surface,-99.3754,31.6534,4.53e-05
2014-06-07 00:00:00,2014-06-07 00:00:00,PRATE,surface,-98.4379,31.6534,4.52e-05
2014-06-07 00:00:00,2014-06-07 00:00:00,PRATE,surface,-97.5004,31.6534,4.06e-05
2014-06-07 00:00:00,2014-06-07 00:00:00,PRATE,surface,-96.5629,31.6534,3.33e-05
2014-06-07 00:00:00,2014-06-07 00:00:00,PRATE,surface,-95.6254,31.6534,2.76e-05
2014-06-07 00:00:00,2014-06-07 00:00:00,PRATE,surface,-94.6879,31.6534,2.63e-05
2014-06-07 00:00:00,2014-06-07 00:00:00,PRATE,surface,-93.7504,31.6534,3.08e-05
2014-06-07 00:00:00,2014-06-07 00:00:00,PRATE,surface,-92.8129,31.6534,3.92e-05
2014-06-07 00:00:00,2014-06-07 00:00:00,PRATE,surface,-107.813,32.5983,1.69e-05
2014-06-07 00:00:00,2014-06-07 00:00:00,PRATE,surface,-106.875,32.5983,1.78e-05
2014-06-07 00:00:00,2014-06-07 00:00:00,PRATE,surface,-105.938,32.5983,1.78e-05
2014-06-07 00:00:00,2014-06-07 00:00:00,PRATE,surface,-105,32.5983,2.11e-05
2014-06-07 00:00:00,2014-06-07 00:00:00,PRATE,surface,-104.063,32.5983,2.99e-05
2014-06-07 00:00:00,2014-06-07 00:00:00,PRATE,surface,-103.125,32.5983,3.32e-05
2014-06-07 00:00:00,2014-06-07 00:00:00,PRATE,surface,-102.188,32.5983,3.7e-05
2014-06-07 00:00:00,2014-06-07 00:00:00,PRATE,surface,-101.25,32.5983,4.42e-05
2014-06-07 00:00:00,2014-06-07 00:00:00,PRATE,surface,-100.313,32.5983,4.8e-05
2014-06-07 00:00:00,2014-06-07 00:00:00,PRATE,surface,-99.3754,32.5983,4.83e-05
2014-06-07 00:00:00,2014-06-07 00:00:00,PRATE,surface,-98.4379,32.5983,4.92e-05
2014-06-07 00:00:00,2014-06-07 00:00:00,PRATE,surface,-97.5004,32.5983,4.53e-05
2014-06-07 00:00:00,2014-06-07 00:00:00,PRATE,surface,-96.5629,32.5983,3.53e-05
2014-06-07 00:00:00,2014-06-07 00:00:00,PRATE,surface,-95.6254,32.5983,2.58e-05
2014-06-07 00:00:00,2014-06-07 00:00:00,PRATE,surface,-94.6879,32.5983,2.12e-05
2014-06-07 00:00:00,2014-06-07 00:00:00,PRATE,surface,-93.7504,32.5983,2.21e-05
2014-06-07 00:00:00,2014-06-07 00:00:00,PRATE,surface,-92.8129,32.5983,2.69e-05
2014-06-07 00:00:00,2014-06-07 00:00:00,PRATE,surface,-107.813,33.5432,3.61e-05
2014-06-07 00:00:00,2014-06-07 00:00:00,PRATE,surface,-106.875,33.5432,3.02e-05
2014-06-07 00:00:00,2014-06-07 00:00:00,PRATE,surface,-105.938,33.5432,2.33e-05
2014-06-07 00:00:00,2014-06-07 00:00:00,PRATE,surface,-105,33.5432,2.21e-05
2014-06-07 00:00:00,2014-06-07 00:00:00,PRATE,surface,-104.063,33.5432,2.12e-05
2014-06-07 00:00:00,2014-06-07 00:00:00,PRATE,surface,-103.125,33.5432,2.43e-05
2014-06-07 00:00:00,2014-06-07 00:00:00,PRATE,surface,-102.188,33.5432,3.07e-05
2014-06-07 00:00:00,2014-06-07 00:00:00,PRATE,surface,-101.25,33.5432,3.78e-05
2014-06-07 00:00:00,2014-06-07 00:00:00,PRATE,surface,-100.313,33.5432,4.02e-05
2014-06-07 00:00:00,2014-06-07 00:00:00,PRATE,surface,-99.3754,33.5432,3.88e-05
2014-06-07 00:00:00,2014-06-07 00:00:00,PRATE,surface,-98.4379,33.5432,4.01e-05
2014-06-07 00:00:00,2014-06-07 00:00:00,PRATE,surface,-97.5004,33.5432,3.96e-05
2014-06-07 00:00:00,2014-06-07 00:00:00,PRATE,surface,-96.5629,33.5432,3.3e-05
2014-06-07 00:00:00,2014-06-07 00:00:00,PRATE,surface,-95.6254,33.5432,2.49e-05
2014-06-07 00:00:00,2014-06-07 00:00:00,PRATE,surface,-94.6879,33.5432,1.89e-05
2014-06-07 00:00:00,2014-06-07 00:00:00,PRATE,surface,-93.7504,33.5432,1.43e-05
2014-06-07 00:00:00,2014-06-07 00:00:00,PRATE,surface,-92.8129,33.5432,1.2e-05
2014-06-07 00:00:00,2014-06-07 00:00:00,PRATE,surface,-107.813,34.4881,3.32e-05
2014-06-07 00:00:00,2014-06-07 00:00:00,PRATE,surface,-106.875,34.4881,1.97e-05
2014-06-07 00:00:00,2014-06-07 00:00:00,PRATE,surface,-105.938,34.4881,1.54e-05
2014-06-07 00:00:00,2014-06-07 00:00:00,PRATE,surface,-105,34.4881,1.59e-05
2014-06-07 00:00:00,2014-06-07 00:00:00,PRATE,surface,-104.063,34.4881,1.54e-05
2014-06-07 00:00:00,2014-06-07 00:00:00,PRATE,surface,-103.125,34.4881,1.53e-05
2014-06-07 00:00:00,2014-06-07 00:00:00,PRATE,surface,-102.188,34.4881,1.82e-05
2014-06-07 00:00:00,2014-06-07 00:00:00,PRATE,surface,-101.25,34.4881,2.37e-05
2014-06-07 00:00:00,2014-06-07 00:00:00,PRATE,surface,-100.313,34.4881,2.59e-05
2014-06-07 00:00:00,2014-06-07 00:00:00,PRATE,surface,-99.3754,34.4881,2.59e-05
2014-06-07 00:00:00,2014-06-07 00:00:00,PRATE,surface,-98.4379,34.4881,2.89e-05
2014-06-07 00:00:00,2014-06-07 00:00:00,PRATE,surface,-97.5004,34.4881,2.99e-05
2014-06-07 00:00:00,2014-06-07 00:00:00,PRATE,surface,-96.5629,34.4881,2.69e-05
2014-06-07 00:00:00,2014-06-07 00:00:00,PRATE,surface,-95.6254,34.4881,2.37e-05
2014-06-07 00:00:00,2014-06-07 00:00:00,PRATE,surface,-94.6879,34.4881,2.11e-05
2014-06-07 00:00:00,2014-06-07 00:00:00,PRATE,surface,-93.7504,34.4881,1.79e-05
2014-06-07 00:00:00,2014-06-07 00:00:00,PRATE,surface,-92.8129,34.4881,1.26e-05
2014-06-07 00:00:00,2014-06-07 00:00:00,PRATE,surface,-107.813,35.4329,1.75e-05
2014-06-07 00:00:00,2014-06-07 00:00:00,PRATE,surface,-106.875,35.4329,1.11e-05
2014-06-07 00:00:00,2014-06-07 00:00:00,PRATE,surface,-105.938,35.4329,1.03e-05
2014-06-07 00:00:00,2014-06-07 00:00:00,PRATE,surface,-105,35.4329,1.48e-05
2014-06-07 00:00:00,2014-06-07 00:00:00,PRATE,surface,-104.063,35.4329,1.53e-05
2014-06-07 00:00:00,2014-06-07 00:00:00,PRATE,surface,-103.125,35.4329,1.43e-05
2014-06-07 00:00:00,2014-06-07 00:00:00,PRATE,surface,-102.188,35.4329,1.53e-05
2014-06-07 00:00:00,2014-06-07 00:00:00,PRATE,surface,-101.25,35.4329,2.18e-05
2014-06-07 00:00:00,2014-06-07 00:00:00,PRATE,surface,-100.313,35.4329,2.55e-05
2014-06-07 00:00:00,2014-06-07 00:00:00,PRATE,surface,-99.3754,35.4329,2.49e-05
2014-06-07 00:00:00,2014-06-07 00:00:00,PRATE,surface,-98.4379,35.4329,2.44e-05
2014-06-07 00:00:00,2014-06-07 00:00:00,PRATE,surface,-97.5004,35.4329,2.41e-05
2014-06-07 00:00:00,2014-06-07 00:00:00,PRATE,surface,-96.5629,35.4329,2.19e-05
2014-06-07 00:00:00,2014-06-07 00:00:00,PRATE,surface,-95.6254,35.4329,1.94e-05
2014-06-07 00:00:00,2014-06-07 00:00:00,PRATE,surface,-94.6879,35.4329,1.86e-05
2014-06-07 00:00:00,2014-06-07 00:00:00,PRATE,surface,-93.7504,35.4329,1.68e-05
2014-06-07 00:00:00,2014-06-07 00:00:00,PRATE,surface,-92.8129,35.4329,1.26e-05
2014-06-07 00:00:00,2014-06-07 00:00:00,PRATE,surface,-107.813,36.3778,1.43e-05
2014-06-07 00:00:00,2014-06-07 00:00:00,PRATE,surface,-106.875,36.3778,1.57e-05
2014-06-07 00:00:00,2014-06-07 00:00:00,PRATE,surface,-105.938,36.3778,1.68e-05
2014-06-07 00:00:00,2014-06-07 00:00:00,PRATE,surface,-105,36.3778,1.89e-05
2014-06-07 00:00:00,2014-06-07 00:00:00,PRATE,surface,-104.063,36.3778,1.71e-05
2014-06-07 00:00:00,2014-06-07 00:00:00,PRATE,surface,-103.125,36.3778,1.66e-05
2014-06-07 00:00:00,2014-06-07 00:00:00,PRATE,surface,-102.188,36.3778,1.77e-05
2014-06-07 00:00:00,2014-06-07 00:00:00,PRATE,surface,-101.25,36.3778,2.36e-05
2014-06-07 00:00:00,2014-06-07 00:00:00,PRATE,surface,-100.313,36.3778,2.95e-05
2014-06-07 00:00:00,2014-06-07 00:00:00,PRATE,surface,-99.3754,36.3778,3.26e-05
2014-06-07 00:00:00,2014-06-07 00:00:00,PRATE,surface,-98.4379,36.3778,3.03e-05
2014-06-07 00:00:00,2014-06-07 00:00:00,PRATE,surface,-97.5004,36.3778,2.52e-05
2014-06-07 00:00:00,2014-06-07 00:00:00,PRATE,surface,-96.5629,36.3778,1.99e-05
2014-06-07 00:00:00,2014-06-07 00:00:00,PRATE,surface,-95.6254,36.3778,1.6e-05
2014-06-07 00:00:00,2014-06-07 00:00:00,PRATE,surface,-94.6879,36.3778,1.43e-05
2014-06-07 00:00:00,2014-06-07 00:00:00,PRATE,surface,-93.7504,36.3778,1.29e-05
2014-06-07 00:00:00,2014-06-07 00:00:00,PRATE,surface,-92.8129,36.3778,1e-05
