2015-12-04 00:00:00,2015-12-04 00:00:00,TMP,surface,-107.813,25.0393,291.726
2015-12-04 00:00:00,2015-12-04 00:00:00,TMP,surface,-106.875,25.0393,286.097
2015-12-04 00:00:00,2015-12-04 00:00:00,TMP,surface,-105.938,25.0393,281.247
2015-12-04 00:00:00,2015-12-04 00:00:00,TMP,surface,-105,25.0393,280.786
2015-12-04 00:00:00,2015-12-04 00:00:00,TMP,surface,-104.063,25.0393,284.833
2015-12-04 00:00:00,2015-12-04 00:00:00,TMP,surface,-103.125,25.0393,286.634
2015-12-04 00:00:00,2015-12-04 00:00:00,TMP,surface,-102.188,25.0393,286.012
2015-12-04 00:00:00,2015-12-04 00:00:00,TMP,surface,-101.25,25.0393,284.158
2015-12-04 00:00:00,2015-12-04 00:00:00,TMP,surface,-100.313,25.0393,284.809
2015-12-04 00:00:00,2015-12-04 00:00:00,TMP,surface,-99.3754,25.0393,287.351
2015-12-04 00:00:00,2015-12-04 00:00:00,TMP,surface,-98.4379,25.0393,289.913
2015-12-04 00:00:00,2015-12-04 00:00:00,TMP,surface,-97.5004,25.0393,292.614
2015-12-04 00:00:00,2015-12-04 00:00:00,TMP,surface,-96.5629,25.0393,293.953
2015-12-04 00:00:00,2015-12-04 00:00:00,TMP,surface,-95.6254,25.0393,295.593
2015-12-04 00:00:00,2015-12-04 00:00:00,TMP,surface,-94.6879,25.0393,296.078
2015-12-04 00:00:00,2015-12-04 00:00:00,TMP,surface,-93.7504,25.0393,296.234
2015-12-04 00:00:00,2015-12-04 00:00:00,TMP,surface,-92.8129,25.0393,296.526
2015-12-04 00:00:00,2015-12-04 00:00:00,TMP,surface,-107.813,25.9842,287.273
2015-12-04 00:00:00,2015-12-04 00:00:00,TMP,surface,-106.875,25.9842,281.5
2015-12-04 00:00:00,2015-12-04 00:00:00,TMP,surface,-105.938,25.9842,279.948
2015-12-04 00:00:00,2015-12-04 00:00:00,TMP,surface,-105,25.9842,282.535
2015-12-04 00:00:00,2015-12-04 00:00:00,TMP,surface,-104.063,25.9842,286.23
2015-12-04 00:00:00,2015-12-04 00:00:00,TMP,surface,-103.125,25.9842,287.228
2015-12-04 00:00:00,2015-12-04 00:00:00,TMP,surface,-102.188,25.9842,286.22
2015-12-04 00:00:00,2015-12-04 00:00:00,TMP,surface,-101.25,25.9842,285.122
2015-12-04 00:00:00,2015-12-04 00:00:00,TMP,surface,-100.313,25.9842,285.574
2015-12-04 00:00:00,2015-12-04 00:00:00,TMP,surface,-99.3754,25.9842,287.778
2015-12-04 00:00:00,2015-12-04 00:00:00,TMP,surface,-98.4379,25.9842,289.554
2015-12-04 00:00:00,2015-12-04 00:00:00,TMP,surface,-97.5004,25.9842,290.897
2015-12-04 00:00:00,2015-12-04 00:00:00,TMP,surface,-96.5629,25.9842,292.69
2015-12-04 00:00:00,2015-12-04 00:00:00,TMP,surface,-95.6254,25.9842,294.53
2015-12-04 00:00:00,2015-12-04 00:00:00,TMP,surface,-94.6879,25.9842,295.302
2015-12-04 00:00:00,2015-12-04 00:00:00,TMP,surface,-93.7504,25.9842,295.298
2015-12-04 00:00:00,2015-12-04 00:00:00,TMP,surface,-92.8129,25.9842,295.359
2015-12-04 00:00:00,2015-12-04 00:00:00,TMP,surface,-107.813,26.929,282.426
2015-12-04 00:00:00,2015-12-04 00:00:00,TMP,surface,-106.875,26.929,279.042
2015-12-04 00:00:00,2015-12-04 00:00:00,TMP,surface,-105.938,26.929,280.934
2015-12-04 00:00:00,2015-12-04 00:00:00,TMP,surface,-105,26.929,284.31
2015-12-04 00:00:00,2015-12-04 00:00:00,TMP,surface,-104.063,26.929,285.53
2015-12-04 00:00:00,2015-12-04 00:00:00,TMP,surface,-103.125,26.929,284.866
2015-12-04 00:00:00,2015-12-04 00:00:00,TMP,surface,-102.188,26.929,284.527
2015-12-04 00:00:00,2015-12-04 00:00:00,TMP,surface,-101.25,26.929,285.401
2015-12-04 00:00:00,2015-12-04 00:00:00,TMP,surface,-100.313,26.929,286.466
2015-12-04 00:00:00,2015-12-04 00:00:00,TMP,surface,-99.3754,26.929,287.732
2015-12-04 00:00:00,2015-12-04 00:00:00,TMP,surface,-98.4379,26.929,288.298
2015-12-04 00:00:00,2015-12-04 00:00:00,TMP,surface,-97.5004,26.929,291.214
2015-12-04 00:00:00,2015-12-04 00:00:00,TMP,surface,-96.5629,26.929,291.998
2015-12-04 00:00:00,2015-12-04 00:00:00,TMP,surface,-95.6254,26.929,293.321
2015-12-04 00:00:00,2015-12-04 00:00:00,TMP,surface,-94.6879,26.929,294.223
2015-12-04 00:00:00,2015-12-04 00:00:00,TMP,surface,-93.7504,26.929,294.206
2015-12-04 00:00:00,2015-12-04 00:00:00,TMP,surface,-92.8129,26.929,294.028
2015-12-04 00:00:00,2015-12-04 00:00:00,TMP,surface,-107.813,27.8739,279.414
2015-12-04 00:00:00,2015-12-04 00:00:00,TMP,surface,-106.875,27.8739,278.679
2015-12-04 00:00:00,2015-12-04 00:00:00,TMP,surface,-105.938,27.8739,281.895
2015-12-04 00:00:00,2015-12-04 00:00:00,TMP,surface,-105,27.8739,284.382
2015-12-04 00:00:00,2015-12-04 00:00:00,TMP,surface,-104.063,27.8739,284.466
2015-12-04 00:00:00,2015-12-04 00:00:00,TMP,surface,-103.125,27.8739,283.172
2015-12-04 00:00:00,2015-12-04 00:00:00,TMP,surface,-102.188,27.8739,283.46
2015-12-04 00:00:00,2015-12-04 00:00:00,TMP,surface,-101.25,27.8739,284.862
2015-12-04 00:00:00,2015-12-04 00:00:00,TMP,surface,-100.313,27.8739,286.084
2015-12-04 00:00:00,2015-12-04 00:00:00,TMP,surface,-99.3754,27.8739,286.577
2015-12-04 00:00:00,2015-12-04 00:00:00,TMP,surface,-98.4379,27.8739,286.812
2015-12-04 00:00:00,2015-12-04 00:00:00,TMP,surface,-97.5004,27.8739,289.358
2015-12-04 00:00:00,2015-12-04 00:00:00,TMP,surface,-96.5629,27.8739,292.058
2015-12-04 00:00:00,2015-12-04 00:00:00,TMP,surface,-95.6254,27.8739,292.51
2015-12-04 00:00:00,2015-12-04 00:00:00,TMP,surface,-94.6879,27.8739,292.666
2015-12-04 00:00:00,2015-12-04 00:00:00,TMP,surface,-93.7504,27.8739,292.666
2015-12-04 00:00:00,2015-12-04 00:00:00,TMP,surface,-92.8129,27.8739,292.695
2015-12-04 00:00:00,2015-12-04 00:00:00,TMP,surface,-107.813,28.8188,278.33
2015-12-04 00:00:00,2015-12-04 00:00:00,TMP,surface,-106.875,28.8188,279.142
2015-12-04 00:00:00,2015-12-04 00:00:00,TMP,surface,-105.938,28.8188,282.09
2015-12-04 00:00:00,2015-12-04 00:00:00,TMP,surface,-105,28.8188,283.718
2015-12-04 00:00:00,2015-12-04 00:00:00,TMP,surface,-104.063,28.8188,282.94
2015-12-04 00:00:00,2015-12-04 00:00:00,TMP,surface,-103.125,28.8188,282.02
2015-12-04 00:00:00,2015-12-04 00:00:00,TMP,surface,-102.188,28.8188,282.583
2015-12-04 00:00:00,2015-12-04 00:00:00,TMP,surface,-101.25,28.8188,284.07
2015-12-04 00:00:00,2015-12-04 00:00:00,TMP,surface,-100.313,28.8188,284.802
2015-12-04 00:00:00,2015-12-04 00:00:00,TMP,surface,-99.3754,28.8188,284.852
2015-12-04 00:00:00,2015-12-04 00:00:00,TMP,surface,-98.4379,28.8188,284.974
2015-12-04 00:00:00,2015-12-04 00:00:00,TMP,surface,-97.5004,28.8188,285.513
2015-12-04 00:00:00,2015-12-04 00:00:00,TMP,surface,-96.5629,28.8188,286.279
2015-12-04 00:00:00,2015-12-04 00:00:00,TMP,surface,-95.6254,28.8188,288.638
2015-12-04 00:00:00,2015-12-04 00:00:00,TMP,surface,-94.6879,28.8188,291.777
2015-12-04 00:00:00,2015-12-04 00:00:00,TMP,surface,-93.7504,28.8188,291.78
2015-12-04 00:00:00,2015-12-04 00:00:00,TMP,surface,-92.8129,28.8188,291.881
2015-12-04 00:00:00,2015-12-04 00:00:00,TMP,surface,-107.813,29.7637,279.183
2015-12-04 00:00:00,2015-12-04 00:00:00,TMP,surface,-106.875,29.7637,280.247
2015-12-04 00:00:00,2015-12-04 00:00:00,TMP,surface,-105.938,29.7637,282.217
2015-12-04 00:00:00,2015-12-04 00:00:00,TMP,surface,-105,29.7637,282.3
2015-12-04 00:00:00,2015-12-04 00:00:00,TMP,surface,-104.063,29.7637,281.914
2015-12-04 00:00:00,2015-12-04 00:00:00,TMP,surface,-103.125,29.7637,281.889
2015-12-04 00:00:00,2015-12-04 00:00:00,TMP,surface,-102.188,29.7637,282.67
2015-12-04 00:00:00,2015-12-04 00:00:00,TMP,surface,-101.25,29.7637,283.338
2015-12-04 00:00:00,2015-12-04 00:00:00,TMP,surface,-100.313,29.7637,283.294
2015-12-04 00:00:00,2015-12-04 00:00:00,TMP,surface,-99.3754,29.7637,283.146
2015-12-04 00:00:00,2015-12-04 00:00:00,TMP,surface,-98.4379,29.7637,283.34
2015-12-04 00:00:00,2015-12-04 00:00:00,TMP,surface,-97.5004,29.7637,283.82
2015-12-04 00:00:00,2015-12-04 00:00:00,TMP,surface,-96.5629,29.7637,284.418
2015-12-04 00:00:00,2015-12-04 00:00:00,TMP,surface,-95.6254,29.7637,285.122
2015-12-04 00:00:00,2015-12-04 00:00:00,TMP,surface,-94.6879,29.7637,287.396
2015-12-04 00:00:00,2015-12-04 00:00:00,TMP,surface,-93.7504,29.7637,290.033
2015-12-04 00:00:00,2015-12-04 00:00:00,TMP,surface,-92.8129,29.7637,286.478
2015-12-04 00:00:00,2015-12-04 00:00:00,TMP,surface,-107.813,30.7085,281.081
2015-12-04 00:00:00,2015-12-04 00:00:00,TMP,surface,-106.875,30.7085,281.998
2015-12-04 00:00:00,2015-12-04 00:00:00,TMP,surface,-105.938,30.7085,282.038
2015-12-04 00:00:00,2015-12-04 00:00:00,TMP,surface,-105,30.7085,281.364
2015-12-04 00:00:00,2015-12-04 00:00:00,TMP,surface,-104.063,30.7085,281.114
2015-12-04 00:00:00,2015-12-04 00:00:00,TMP,surface,-103.125,30.7085,281.855
2015-12-04 00:00:00,2015-12-04 00:00:00,TMP,surface,-102.188,30.7085,282.372
2015-12-04 00:00:00,2015-12-04 00:00:00,TMP,surface,-101.25,30.7085,282.537
2015-12-04 00:00:00,2015-12-04 00:00:00,TMP,surface,-100.313,30.7085,282.391
2015-12-04 00:00:00,2015-12-04 00:00:00,TMP,surface,-99.3754,30.7085,282.342
2015-12-04 00:00:00,2015-12-04 00:00:00,TMP,surface,-98.4379,30.7085,282.614
2015-12-04 00:00:00,2015-12-04 00:00:00,TMP,surface,-97.5004,30.7085,283.034
2015-12-04 00:00:00,2015-12-04 00:00:00,TMP,surface,-96.5629,30.7085,283.484
2015-12-04 00:00:00,2015-12-04 00:00:00,TMP,surface,-95.6254,30.7085,283.906
2015-12-04 00:00:00,2015-12-04 00:00:00,TMP,surface,-94.6879,30.7085,284.209
2015-12-04 00:00:00,2015-12-04 00:00:00,TMP,surface,-93.7504,30.7085,284.42
2015-12-04 00:00:00,2015-12-04 00:00:00,TMP,surface,-92.8129,30.7085,284.398
2015-12-04 00:00:00,2015-12-04 00:00:00,TMP,surface,-107.813,31.6534,280.924
2015-12-04 00:00:00,2015-12-04 00:00:00,TMP,surface,-106.875,31.6534,281.641
2015-12-04 00:00:00,2015-12-04 00:00:00,TMP,surface,-105.938,31.6534,281.041
2015-12-04 00:00:00,2015-12-04 00:00:00,TMP,surface,-105,31.6534,280.522
2015-12-04 00:00:00,2015-12-04 00:00:00,TMP,surface,-104.063,31.6534,280.828
2015-12-04 00:00:00,2015-12-04 00:00:00,TMP,surface,-103.125,31.6534,281.558
2015-12-04 00:00:00,2015-12-04 00:00:00,TMP,surface,-102.188,31.6534,281.91
2015-12-04 00:00:00,2015-12-04 00:00:00,TMP,surface,-101.25,31.6534,281.914
2015-12-04 00:00:00,2015-12-04 00:00:00,TMP,surface,-100.313,31.6534,281.978
2015-12-04 00:00:00,2015-12-04 00:00:00,TMP,surface,-99.3754,31.6534,282.174
2015-12-04 00:00:00,2015-12-04 00:00:00,TMP,surface,-98.4379,31.6534,282.489
2015-12-04 00:00:00,2015-12-04 00:00:00,TMP,surface,-97.5004,31.6534,282.791
2015-12-04 00:00:00,2015-12-04 00:00:00,TMP,surface,-96.5629,31.6534,283.1
2015-12-04 00:00:00,2015-12-04 00:00:00,TMP,surface,-95.6254,31.6534,283.319
2015-12-04 00:00:00,2015-12-04 00:00:00,TMP,surface,-94.6879,31.6534,283.298
2015-12-04 00:00:00,2015-12-04 00:00:00,TMP,surface,-93.7504,31.6534,283.3
2015-12-04 00:00:00,2015-12-04 00:00:00,TMP,surface,-92.8129,31.6534,283.393
2015-12-04 00:00:00,2015-12-04 00:00:00,TMP,surface,-107.813,32.5983,278.284
2015-12-04 00:00:00,2015-12-04 00:00:00,TMP,surface,-106.875,32.5983,278.833
2015-12-04 00:00:00,2015-12-04 00:00:00,TMP,surface,-105.938,32.5983,279.337
2015-12-04 00:00:00,2015-12-04 00:00:00,TMP,surface,-105,32.5983,279.526
2015-12-04 00:00:00,2015-12-04 00:00:00,TMP,surface,-104.063,32.5983,280.633
2015-12-04 00:00:00,2015-12-04 00:00:00,TMP,surface,-103.125,32.5983,281.327
2015-12-04 00:00:00,2015-12-04 00:00:00,TMP,surface,-102.188,32.5983,281.218
2015-12-04 00:00:00,2015-12-04 00:00:00,TMP,surface,-101.25,32.5983,281.401
2015-12-04 00:00:00,2015-12-04 00:00:00,TMP,surface,-100.313,32.5983,281.788
2015-12-04 00:00:00,2015-12-04 00:00:00,TMP,surface,-99.3754,32.5983,282.194
2015-12-04 00:00:00,2015-12-04 00:00:00,TMP,surface,-98.4379,32.5983,282.471
2015-12-04 00:00:00,2015-12-04 00:00:00,TMP,surface,-97.5004,32.5983,282.61
2015-12-04 00:00:00,2015-12-04 00:00:00,TMP,surface,-96.5629,32.5983,282.743
2015-12-04 00:00:00,2015-12-04 00:00:00,TMP,surface,-95.6254,32.5983,282.82
2015-12-04 00:00:00,2015-12-04 00:00:00,TMP,surface,-94.6879,32.5983,282.721
2015-12-04 00:00:00,2015-12-04 00:00:00,TMP,surface,-93.7504,32.5983,282.676
2015-12-04 00:00:00,2015-12-04 00:00:00,TMP,surface,-92.8129,32.5983,282.948
2015-12-04 00:00:00,2015-12-04 00:00:00,TMP,surface,-107.813,33.5432,275.274
2015-12-04 00:00:00,2015-12-04 00:00:00,TMP,surface,-106.875,33.5432,276.378
2015-12-04 00:00:00,2015-12-04 00:00:00,TMP,surface,-105.938,33.5432,277.502
2015-12-04 00:00:00,2015-12-04 00:00:00,TMP,surface,-105,33.5432,278.55
2015-12-04 00:00:00,2015-12-04 00:00:00,TMP,surface,-104.063,33.5432,280.102
2015-12-04 00:00:00,2015-12-04 00:00:00,TMP,surface,-103.125,33.5432,280.583
2015-12-04 00:00:00,2015-12-04 00:00:00,TMP,surface,-102.188,33.5432,280.45
2015-12-04 00:00:00,2015-12-04 00:00:00,TMP,surface,-101.25,33.5432,280.692
2015-12-04 00:00:00,2015-12-04 00:00:00,TMP,surface,-100.313,33.5432,281.297
2015-12-04 00:00:00,2015-12-04 00:00:00,TMP,surface,-99.3754,33.5432,281.865
2015-12-04 00:00:00,2015-12-04 00:00:00,TMP,surface,-98.4379,33.5432,282.034
2015-12-04 00:00:00,2015-12-04 00:00:00,TMP,surface,-97.5004,33.5432,281.87
2015-12-04 00:00:00,2015-12-04 00:00:00,TMP,surface,-96.5629,33.5432,281.783
2015-12-04 00:00:00,2015-12-04 00:00:00,TMP,surface,-95.6254,33.5432,281.908
2015-12-04 00:00:00,2015-12-04 00:00:00,TMP,surface,-94.6879,33.5432,281.972
2015-12-04 00:00:00,2015-12-04 00:00:00,TMP,surface,-93.7504,33.5432,281.962
2015-12-04 00:00:00,2015-12-04 00:00:00,TMP,surface,-92.8129,33.5432,282.233
2015-12-04 00:00:00,2015-12-04 00:00:00,TMP,surface,-107.813,34.4881,274.151
2015-12-04 00:00:00,2015-12-04 00:00:00,TMP,surface,-106.875,34.4881,275.478
2015-12-04 00:00:00,2015-12-04 00:00:00,TMP,surface,-105.938,34.4881,276.716
2015-12-04 00:00:00,2015-12-04 00:00:00,TMP,surface,-105,34.4881,278.063
2015-12-04 00:00:00,2015-12-04 00:00:00,TMP,surface,-104.063,34.4881,278.898
2015-12-04 00:00:00,2015-12-04 00:00:00,TMP,surface,-103.125,34.4881,279.284
2015-12-04 00:00:00,2015-12-04 00:00:00,TMP,surface,-102.188,34.4881,279.55
2015-12-04 00:00:00,2015-12-04 00:00:00,TMP,surface,-101.25,34.4881,279.991
2015-12-04 00:00:00,2015-12-04 00:00:00,TMP,surface,-100.313,34.4881,280.556
2015-12-04 00:00:00,2015-12-04 00:00:00,TMP,surface,-99.3754,34.4881,281.002
2015-12-04 00:00:00,2015-12-04 00:00:00,TMP,surface,-98.4379,34.4881,281.086
2015-12-04 00:00:00,2015-12-04 00:00:00,TMP,surface,-97.5004,34.4881,280.954
2015-12-04 00:00:00,2015-12-04 00:00:00,TMP,surface,-96.5629,34.4881,280.951
2015-12-04 00:00:00,2015-12-04 00:00:00,TMP,surface,-95.6254,34.4881,281.006
2015-12-04 00:00:00,2015-12-04 00:00:00,TMP,surface,-94.6879,34.4881,280.882
2015-12-04 00:00:00,2015-12-04 00:00:00,TMP,surface,-93.7504,34.4881,280.847
2015-12-04 00:00:00,2015-12-04 00:00:00,TMP,surface,-92.8129,34.4881,281.191
2015-12-04 00:00:00,2015-12-04 00:00:00,TMP,surface,-107.813,35.4329,274.639
2015-12-04 00:00:00,2015-12-04 00:00:00,TMP,surface,-106.875,35.4329,274.788
2015-12-04 00:00:00,2015-12-04 00:00:00,TMP,surface,-105.938,35.4329,275.09
2015-12-04 00:00:00,2015-12-04 00:00:00,TMP,surface,-105,35.4329,275.95
2015-12-04 00:00:00,2015-12-04 00:00:00,TMP,surface,-104.063,35.4329,277.782
2015-12-04 00:00:00,2015-12-04 00:00:00,TMP,surface,-103.125,35.4329,278.726
2015-12-04 00:00:00,2015-12-04 00:00:00,TMP,surface,-102.188,35.4329,278.911
2015-12-04 00:00:00,2015-12-04 00:00:00,TMP,surface,-101.25,35.4329,279.201
2015-12-04 00:00:00,2015-12-04 00:00:00,TMP,surface,-100.313,35.4329,279.578
2015-12-04 00:00:00,2015-12-04 00:00:00,TMP,surface,-99.3754,35.4329,279.882
2015-12-04 00:00:00,2015-12-04 00:00:00,TMP,surface,-98.4379,35.4329,280.068
2015-12-04 00:00:00,2015-12-04 00:00:00,TMP,surface,-97.5004,35.4329,280.239
2015-12-04 00:00:00,2015-12-04 00:00:00,TMP,surface,-96.5629,35.4329,280.37
2015-12-04 00:00:00,2015-12-04 00:00:00,TMP,surface,-95.6254,35.4329,280.38
2015-12-04 00:00:00,2015-12-04 00:00:00,TMP,surface,-94.6879,35.4329,280.212
2015-12-04 00:00:00,2015-12-04 00:00:00,TMP,surface,-93.7504,35.4329,279.913
2015-12-04 00:00:00,2015-12-04 00:00:00,TMP,surface,-92.8129,35.4329,280.022
2015-12-04 00:00:00,2015-12-04 00:00:00,TMP,surface,-107.813,36.3778,274.105
2015-12-04 00:00:00,2015-12-04 00:00:00,TMP,surface,-106.875,36.3778,272.106
2015-12-04 00:00:00,2015-12-04 00:00:00,TMP,surface,-105.938,36.3778,271.894
2015-12-04 00:00:00,2015-12-04 00:00:00,TMP,surface,-105,36.3778,273.17
2015-12-04 00:00:00,2015-12-04 00:00:00,TMP,surface,-104.063,36.3778,275.359
2015-12-04 00:00:00,2015-12-04 00:00:00,TMP,surface,-103.125,36.3778,277.049
2015-12-04 00:00:00,2015-12-04 00:00:00,TMP,surface,-102.188,36.3778,277.876
2015-12-04 00:00:00,2015-12-04 00:00:00,TMP,surface,-101.25,36.3778,278.42
2015-12-04 00:00:00,2015-12-04 00:00:00,TMP,surface,-100.313,36.3778,279.076
2015-12-04 00:00:00,2015-12-04 00:00:00,TMP,surface,-99.3754,36.3778,279.466
2015-12-04 00:00:00,2015-12-04 00:00:00,TMP,surface,-98.4379,36.3778,279.511
2015-12-04 00:00:00,2015-12-04 00:00:00,TMP,surface,-97.5004,36.3778,279.682
2015-12-04 00:00:00,2015-12-04 00:00:00,TMP,surface,-96.5629,36.3778,279.927
2015-12-04 00:00:00,2015-12-04 00:00:00,TMP,surface,-95.6254,36.3778,279.865
2015-12-04 00:00:00,2015-12-04 00:00:00,TMP,surface,-94.6879,36.3778,279.468
2015-12-04 00:00:00,2015-12-04 00:00:00,TMP,surface,-93.7504,36.3778,278.921
2015-12-04 00:00:00,2015-12-04 00:00:00,TMP,surface,-92.8129,36.3778,278.79
2015-12-04 00:00:00,2015-12-04 00:00:00,PRATE,surface,-107.813,25.0393,4.34e-05
2015-12-04 00:00:00,2015-12-04 00:00:00,PRATE,surface,-106.875,25.0393,6.64e-05
2015-12-04 00:00:00,2015-12-04 00:00:00,PRATE,surface,-105.938,25.0393,5.67e-05
2015-12-04 00:00:00,2015-12-04 00:00:00,PRATE,surface,-105,25.0393,2.78e-05
2015-12-04 00:00:00,2015-12-04 00:00:00,PRATE,surface,-104.063,25.0393,1.02e-05
2015-12-04 00:00:00,2015-12-04 00:00:00,PRATE,surface,-103.125,25.0393,5e-06
2015-12-04 00:00:00,2015-12-04 00:00:00,PRATE,surface,-102.188,25.0393,5.7e-06
2015-12-04 00:00:00,2015-12-04 00:00:00,PRATE,surface,-101.25,25.0393,1.91e-05
2015-12-04 00:00:00,2015-12-04 00:00:00,PRATE,surface,-100.313,25.0393,4.69e-05
2015-12-04 00:00:00,2015-12-04 00:00:00,PRATE,surface,-99.3754,25.0393,5.45e-05
2015-12-04 00:00:00,2015-12-04 00:00:00,PRATE,surface,-98.4379,25.0393,5.15e-05
2015-12-04 00:00:00,2015-12-04 00:00:00,PRATE,surface,-97.5004,25.0393,4.88e-05
2015-12-04 00:00:00,2015-12-04 00:00:00,PRATE,surface,-96.5629,25.0393,3.68e-05
2015-12-04 00:00:00,2015-12-04 00:00:00,PRATE,surface,-95.6254,25.0393,5.02e-05
2015-12-04 00:00:00,2015-12-04 00:00:00,PRATE,surface,-94.6879,25.0393,6.56e-05
2015-12-04 00:00:00,2015-12-04 00:00:00,PRATE,surface,-93.7504,25.0393,8.1e-05
2015-12-04 00:00:00,2015-12-04 00:00:00,PRATE,surface,-92.8129,25.0393,7.77e-05
2015-12-04 00:00:00,2015-12-04 00:00:00,PRATE,surface,-107.813,25.9842,5.03e-05
2015-12-04 00:00:00,2015-12-04 00:00:00,PRATE,surface,-106.875,25.9842,5.33e-05
2015-12-04 00:00:00,2015-12-04 00:00:00,PRATE,surface,-105.938,25.9842,3.19e-05
2015-12-04 00:00:00,2015-12-04 00:00:00,PRATE,surface,-105,25.9842,1.98e-05
2015-12-04 00:00:00,2015-12-04 00:00:00,PRATE,surface,-104.063,25.9842,1.07e-05
2015-12-04 00:00:00,2015-12-04 00:00:00,PRATE,surface,-103.125,25.9842,7.8e-06
2015-12-04 00:00:00,2015-12-04 00:00:00,PRATE,surface,-102.188,25.9842,9.6e-06
2015-12-04 00:00:00,2015-12-04 00:00:00,PRATE,surface,-101.25,25.9842,1.93e-05
2015-12-04 00:00:00,2015-12-04 00:00:00,PRATE,surface,-100.313,25.9842,4.67e-05
2015-12-04 00:00:00,2015-12-04 00:00:00,PRATE,surface,-99.3754,25.9842,6.09e-05
2015-12-04 00:00:00,2015-12-04 00:00:00,PRATE,surface,-98.4379,25.9842,6.45e-05
2015-12-04 00:00:00,2015-12-04 00:00:00,PRATE,surface,-97.5004,25.9842,6.39e-05
2015-12-04 00:00:00,2015-12-04 00:00:00,PRATE,surface,-96.5629,25.9842,5.88e-05
2015-12-04 00:00:00,2015-12-04 00:00:00,PRATE,surface,-95.6254,25.9842,5.53e-05
2015-12-04 00:00:00,2015-12-04 00:00:00,PRATE,surface,-94.6879,25.9842,4.75e-05
2015-12-04 00:00:00,2015-12-04 00:00:00,PRATE,surface,-93.7504,25.9842,6.64e-05
2015-12-04 00:00:00,2015-12-04 00:00:00,PRATE,surface,-92.8129,25.9842,8.64e-05
2015-12-04 00:00:00,2015-12-04 00:00:00,PRATE,surface,-107.813,26.929,6.27e-05
2015-12-04 00:00:00,2015-12-04 00:00:00,PRATE,surface,-106.875,26.929,3.64e-05
2015-12-04 00:00:00,2015-12-04 00:00:00,PRATE,surface,-105.938,26.929,2.13e-05
2015-12-04 00:00:00,2015-12-04 00:00:00,PRATE,surface,-105,26.929,1.39e-05
2015-12-04 00:00:00,2015-12-04 00:00:00,PRATE,surface,-104.063,26.929,1.46e-05
2015-12-04 00:00:00,2015-12-04 00:00:00,PRATE,surface,-103.125,26.929,2.01e-05
2015-12-04 00:00:00,2015-12-04 00:00:00,PRATE,surface,-102.188,26.929,1.97e-05
2015-12-04 00:00:00,2015-12-04 00:00:00,PRATE,surface,-101.25,26.929,2.48e-05
2015-12-04 00:00:00,2015-12-04 00:00:00,PRATE,surface,-100.313,26.929,4.46e-05
2015-12-04 00:00:00,2015-12-04 00:00:00,PRATE,surface,-99.3754,26.929,5.59e-05
2015-12-04 00:00:00,2015-12-04 00:00:00,PRATE,surface,-98.4379,26.929,6.14e-05
2015-12-04 00:00:00,2015-12-04 00:00:00,PRATE,surface,-97.5004,26.929,8.29e-05
2015-12-04 00:00:00,2015-12-04 00:00:00,PRATE,surface,-96.5629,26.929,8.95e-05
2015-12-04 00:00:00,2015-12-04 00:00:00,PRATE,surface,-95.6254,26.929,5.52e-05
2015-12-04 00:00:00,2015-12-04 00:00:00,PRATE,surface,-94.6879,26.929,5.01e-05
2015-12-04 00:00:00,2015-12-04 00:00:00,PRATE,surface,-93.7504,26.929,5.15e-05
2015-12-04 00:00:00,2015-12-04 00:00:00,PRATE,surface,-92.8129,26.929,6.26e-05
2015-12-04 00:00:00,2015-12-04 00:00:00,PRATE,surface,-107.813,27.8739,6.23e-05
2015-12-04 00:00:00,2015-12-04 00:00:00,PRATE,surface,-106.875,27.8739,2.75e-05
2015-12-04 00:00:00,2015-12-04 00:00:00,PRATE,surface,-105.938,27.8739,1.71e-05
2015-12-04 00:00:00,2015-12-04 00:00:00,PRATE,surface,-105,27.8739,1.54e-05
2015-12-04 00:00:00,2015-12-04 00:00:00,PRATE,surface,-104.063,27.8739,1.86e-05
2015-12-04 00:00:00,2015-12-04 00:00:00,PRATE,surface,-103.125,27.8739,2.99e-05
2015-12-04 00:00:00,2015-12-04 00:00:00,PRATE,surface,-102.188,27.8739,3.52e-05
2015-12-04 00:00:00,2015-12-04 00:00:00,PRATE,surface,-101.25,27.8739,3.39e-05
2015-12-04 00:00:00,2015-12-04 00:00:00,PRATE,surface,-100.313,27.8739,3.94e-05
2015-12-04 00:00:00,2015-12-04 00:00:00,PRATE,surface,-99.3754,27.8739,4.9e-05
2015-12-04 00:00:00,2015-12-04 00:00:00,PRATE,surface,-98.4379,27.8739,6.05e-05
2015-12-04 00:00:00,2015-12-04 00:00:00,PRATE,surface,-97.5004,27.8739,7.12e-05
2015-12-04 00:00:00,2015-12-04 00:00:00,PRATE,surface,-96.5629,27.8739,7.32e-05
2015-12-04 00:00:00,2015-12-04 00:00:00,PRATE,surface,-95.6254,27.8739,6.69e-05
2015-12-04 00:00:00,2015-12-04 00:00:00,PRATE,surface,-94.6879,27.8739,6.22e-05
2015-12-04 00:00:00,2015-12-04 00:00:00,PRATE,surface,-93.7504,27.8739,6.24e-05
2015-12-04 00:00:00,2015-12-04 00:00:00,PRATE,surface,-92.8129,27.8739,6.93e-05
2015-12-04 00:00:00,2015-12-04 00:00:00,PRATE,surface,-107.813,28.8188,5.71e-05
2015-12-04 00:00:00,2015-12-04 00:00:00,PRATE,surface,-106.875,28.8188,3.17e-05
2015-12-04 00:00:00,2015-12-04 00:00:00,PRATE,surface,-105.938,28.8188,2.11e-05
2015-12-04 00:00:00,2015-12-04 00:00:00,PRATE,surface,-105,28.8188,1.54e-05
2015-12-04 00:00:00,2015-12-04 00:00:00,PRATE,surface,-104.063,28.8188,2.11e-05
2015-12-04 00:00:00,2015-12-04 00:00:00,PRATE,surface,-103.125,28.8188,3.34e-05
2015-12-04 00:00:00,2015-12-04 00:00:00,PRATE,surface,-102.188,28.8188,3.54e-05
2015-12-04 00:00:00,2015-12-04 00:00:00,PRATE,surface,-101.25,28.8188,3.22e-05
2015-12-04 00:00:00,2015-12-04 00:00:00,PRATE,surface,-100.313,28.8188,3.49e-05
2015-12-04 00:00:00,2015-12-04 00:00:00,PRATE,surface,-99.3754,28.8188,4.6e-05
2015-12-04 00:00:00,2015-12-04 00:00:00,PRATE,surface,-98.4379,28.8188,5.9e-05
2015-12-04 00:00:00,2015-12-04 00:00:00,PRATE,surface,-97.5004,28.8188,6.77e-05
2015-12-04 00:00:00,2015-12-04 00:00:00,PRATE,surface,-96.5629,28.8188,7.21e-05
2015-12-04 00:00:00,2015-12-04 00:00:00,PRATE,surface,-95.6254,28.8188,7.12e-05
2015-12-04 00:00:00,2015-12-04 00:00:00,PRATE,surface,-94.6879,28.8188,6.62e-05
2015-12-04 00:00:00,2015-12-04 00:00:00,PRATE,surface,-93.7504,28.8188,6.75e-05
2015-12-04 00:00:00,2015-12-04 00:00:00,PRATE,surface,-92.8129,28.8188,7.66e-05
2015-12-04 00:00:00,2015-12-04 00:00:00,PRATE,surface,-107.813,29.7637,3.48e-05
2015-12-04 00:00:00,2015-12-04 00:00:00,PRATE,surface,-106.875,29.7637,2.72e-05
2015-12-04 00:00:00,2015-12-04 00:00:00,PRATE,surface,-105.938,29.7637,2.11e-05
2015-12-04 00:00:00,2015-12-04 00:00:00,PRATE,surface,-105,29.7637,2.15e-05
2015-12-04 00:00:00,2015-12-04 00:00:00,PRATE,surface,-104.063,29.7637,3.17e-05
2015-12-04 00:00:00,2015-12-04 00:00:00,PRATE,surface,-103.125,29.7637,3.49e-05
2015-12-04 00:00:00,2015-12-04 00:00:00,PRATE,surface,-102.188,29.7637,3.29e-05
2015-12-04 00:00:00,2015-12-04 00:00:00,PRATE,surface,-101.25,29.7637,3.07e-05
2015-12-04 00:00:00,2015-12-04 00:00:00,PRATE,surface,-100.313,29.7637,3.85e-05
2015-12-04 00:00:00,2015-12-04 00:00:00,PRATE,surface,-99.3754,29.7637,5.29e-05
2015-12-04 00:00:00,2015-12-04 00:00:00,PRATE,surface,-98.4379,29.7637,7.22e-05
2015-12-04 00:00:00,2015-12-04 00:00:00,PRATE,surface,-97.5004,29.7637,8.6e-05
2015-12-04 00:00:00,2015-12-04 00:00:00,PRATE,surface,-96.5629,29.7637,9.43e-05
2015-12-04 00:00:00,2015-12-04 00:00:00,PRATE,surface,-95.6254,29.7637,9.41e-05
2015-12-04 00:00:00,2015-12-04 00:00:00,PRATE,surface,-94.6879,29.7637,8.15e-05
2015-12-04 00:00:00,2015-12-04 00:00:00,PRATE,surface,-93.7504,29.7637,7.84e-05
2015-12-04 00:00:00,2015-12-04 00:00:00,PRATE,surface,-92.8129,29.7637,8.25e-05
2015-12-04 00:00:00,2015-12-04 00:00:00,PRATE,surface,-107.813,30.7085,1.96e-05
2015-12-04 00:00:00,2015-12-04 00:00:00,PRATE,surface,-106.875,30.7085,1.51e-05
2015-12-04 00:00:00,2015-12-04 00:00:00,PRATE,surface,-105.938,30.7085,1.91e-05
2015-12-04 00:00:00,2015-12-04 00:00:00,PRATE,surface,-105,30.7085,3.18e-05
2015-12-04 00:00:00,2015-12-04 00:00:00,PRATE,surface,-104.063,30.7085,3.74e-05
2015-12-04 00:00:00,2015-12-04 00:00:00,PRATE,surface,-103.125,30.7085,3.14e-05
2015-12-04 00:00:00,2015-12-04 00:00:00,PRATE,surface,-102.188,30.7085,2.82e-05
2015-12-04 00:00:00,2015-12-04 00:00:00,PRATE,surface,-101.25,30.7085,2.95e-05
2015-12-04 00:00:00,2015-12-04 00:00:00,PRATE,surface,-100.313,30.7085,3.83e-05
2015-12-04 00:00:00,2015-12-04 00:00:00,PRATE,surface,-99.3754,30.7085,5.1e-05
2015-12-04 00:00:00,2015-12-04 00:00:00,PRATE,surface,-98.4379,30.7085,6.55e-05
2015-12-04 00:00:00,2015-12-04 00:00:00,PRATE,surface,-97.5004,30.7085,7.84e-05
2015-12-04 00:00:00,2015-12-04 00:00:00,PRATE,surface,-96.5629,30.7085,9.07e-05
2015-12-04 00:00:00,2015-12-04 00:00:00,PRATE,surface,-95.6254,30.7085,9.49e-05
2015-12-04 00:00:00,2015-12-04 00:00:00,PRATE,surface,-94.6879,30.7085,8.14e-05
2015-12-04 00:00:00,2015-12-04 00:00:00,PRATE,surface,-93.7504,30.7085,6.74e-05
2015-12-04 00:00:00,2015-12-04 00:00:00,PRATE,surface,-92.8129,30.7085,6.89e-05
2015-12-04 00:00:00,2015-12-04 00:00:00,PRATE,surface,-107.813,31.6534,1.37e-05
2015-12-04 00:00:00,2015-12-04 00:00:00,PRATE,surface,-106.875,31.6534,1.18e-05
2015-12-04 00:00:00,2015-12-04 00:00:00,PRATE,surface,-105.938,31.6534,1.67e-05
2015-12-04 00:00:00,2015-12-04 00:00:00,PRATE,surface,-105,31.6534,2.97e-05
2015-12-04 00:00:00,2015-12-04 00:00:00,PRATE,surface,-104.063,31.6534,3.35e-05
2015-12-04 00:00:00,2015-12-04 00:00:00,PRATE,surface,-103.125,31.6534,2.98e-05
2015-12-04 00:00:00,2015-12-04 00:00:00,PRATE,surface,-102.188,31.6534,2.62e-05
2015-12-04 00:00:00,2015-12-04 00:00:00,PRATE,surface,-101.25,31.6534,3.08e-05
2015-12-04 00:00:00,2015-12-04 00:00:00,PRATE,surface,-100.313,31.6534,3.89e-05
2015-12-04 00:00:00,2015-12-04 00:00:00,PRATE,surface,-99.3754,31.6534,4.65e-05
2015-12-04 00:00:00,2015-12-04 00:00:00,PRATE,surface,-98.4379,31.6534,5.21e-05
2015-12-04 00:00:00,2015-12-04 00:00:00,PRATE,surface,-97.5004,31.6534,5.37e-05
2015-12-04 00:00:00,2015-12-04 00:00:00,PRATE,surface,-96.5629,31.6534,5.37e-05
2015-12-04 00:00:00,2015-12-04 00:00:00,PRATE,surface,-95.6254,31.6534,5.3e-05
2015-12-04 00:00:00,2015-12-04 00:00:00,PRATE,surface,-94.6879,31.6534,4.8e-05
2015-12-04 00:00:00,2015-12-04 00:00:00,PRATE,surface,-93.7504,31.6534,4.2e-05
2015-12-04 00:00:00,2015-12-04 00:00:00,PRATE,surface,-92.8129,31.6534,4.07e-05
2015-12-04 00:00:00,2015-12-04 00:00:00,PRATE,surface,-107.813,32.5983,2.11e-05
2015-12-04 00:00:00,2015-12-04 00:00:00,PRATE,surface,-106.875,32.5983,1.61e-05
2015-12-04 00:00:00,2015-12-04 00:00:00,PRATE,surface,-105.938,32.5983,1.61e-05
2015-12-04 00:00:00,2015-12-04 00:00:00,PRATE,surface,-105,32.5983,2.46e-05
2015-12-04 00:00:00,2015-12-04 00:00:00,PRATE,surface,-104.063,32.5983,2.94e-05
2015-12-04 00:00:00,2015-12-04 00:00:00,PRATE,surface,-103.125,32.5983,3.44e-05
2015-12-04 00:00:00,2015-12-04 00:00:00,PRATE,surface,-102.188,32.5983,3.99e-05
2015-12-04 00:00:00,2015-12-04 00:00:00,PRATE,surface,-101.25,32.5983,3.87e-05
2015-12-04 00:00:00,2015-12-04 00:00:00,PRATE,surface,-100.313,32.5983,3.43e-05
2015-12-04 00:00:00,2015-12-04 00:00:00,PRATE,surface,-99.3754,32.5983,3.27e-05
2015-12-04 00:00:00,2015-12-04 00:00:00,PRATE,surface,-98.4379,32.5983,3.46e-05
2015-12-04 00:00:00,2015-12-04 00:00:00,PRATE,surface,-97.5004,32.5983,3.55e-05
2015-12-04 00:00:00,2015-12-04 00:00:00,PRATE,surface,-96.5629,32.5983,3.21e-05
2015-12-04 00:00:00,2015-12-04 00:00:00,PRATE,surface,-95.6254,32.5983,2.76e-05
2015-12-04 00:00:00,2015-12-04 00:00:00,PRATE,surface,-94.6879,32.5983,2.64e-05
2015-12-04 00:00:00,2015-12-04 00:00:00,PRATE,surface,-93.7504,32.5983,2.68e-05
2015-12-04 00:00:00,2015-12-04 00:00:00,PRATE,surface,-92.8129,32.5983,2.6e-05
2015-12-04 00:00:00,2015-12-04 00:00:00,PRATE,surface,-107.813,33.5432,3.76e-05
2015-12-04 00:00:00,2015-12-04 00:00:00,PRATE,surface,-106.875,33.5432,2.74e-05
2015-12-04 00:00:00,2015-12-04 00:00:00,PRATE,surface,-105.938,33.5432,2.47e-05
2015-12-04 00:00:00,2015-12-04 00:00:00,PRATE,surface,-105,33.5432,2.83e-05
2015-12-04 00:00:00,2015-12-04 00:00:00,PRATE,surface,-104.063,33.5432,3.44e-05
2015-12-04 00:00:00,2015-12-04 00:00:00,PRATE,surface,-103.125,33.5432,3.8e-05
2015-12-04 00:00:00,2015-12-04 00:00:00,PRATE,surface,-102.188,33.5432,4.74e-05
2015-12-04 00:00:00,2015-12-04 00:00:00,PRATE,surface,-101.25,33.5432,4.57e-05
2015-12-04 00:00:00,2015-12-04 00:00:00,PRATE,surface,-100.313,33.5432,3.45e-05
2015-12-04 00:00:00,2015-12-04 00:00:00,PRATE,surface,-99.3754,33.5432,2.72e-05
2015-12-04 00:00:00,2015-12-04 00:00:00,PRATE,surface,-98.4379,33.5432,2.9e-05
2015-12-04 00:00:00,2015-12-04 00:00:00,PRATE,surface,-97.5004,33.5432,3.39e-05
2015-12-04 00:00:00,2015-12-04 00:00:00,PRATE,surface,-96.5629,33.5432,3.23e-05
2015-12-04 00:00:00,2015-12-04 00:00:00,PRATE,surface,-95.6254,33.5432,2.45e-05
2015-12-04 00:00:00,2015-12-04 00:00:00,PRATE,surface,-94.6879,33.5432,2.04e-05
2015-12-04 00:00:00,2015-12-04 00:00:00,PRATE,surface,-93.7504,33.5432,2.24e-05
2015-12-04 00:00:00,2015-12-04 00:00:00,PRATE,surface,-92.8129,33.5432,2.34e-05
2015-12-04 00:00:00,2015-12-04 00:00:00,PRATE,surface,-107.813,34.4881,4.17e-05
2015-12-04 00:00:00,2015-12-04 00:00:00,PRATE,surface,-106.875,34.4881,2.99e-05
2015-12-04 00:00:00,2015-12-04 00:00:00,PRATE,surface,-105.938,34.4881,2.95e-05
2015-12-04 00:00:00,2015-12-04 00:00:00,PRATE,surface,-105,34.4881,3.24e-05
2015-12-04 00:00:00,2015-12-04 00:00:00,PRATE,surface,-104.063,34.4881,3.76e-05
2015-12-04 00:00:00,2015-12-04 00:00:00,PRATE,surface,-103.125,34.4881,3.42e-05
2015-12-04 00:00:00,2015-12-04 00:00:00,PRATE,surface,-102.188,34.4881,3.54e-05
2015-12-04 00:00:00,2015-12-04 00:00:00,PRATE,surface,-101.25,34.4881,3.78e-05
2015-12-04 00:00:00,2015-12-04 00:00:00,PRATE,surface,-100.313,34.4881,3.05e-05
2015-12-04 00:00:00,2015-12-04 00:00:00,PRATE,surface,-99.3754,34.4881,2.44e-05
2015-12-04 00:00:00,2015-12-04 00:00:00,PRATE,surface,-98.4379,34.4881,2.71e-05
2015-12-04 00:00:00,2015-12-04 00:00:00,PRATE,surface,-97.5004,34.4881,3.36e-05
2015-12-04 00:00:00,2015-12-04 00:00:00,PRATE,surface,-96.5629,34.4881,3.53e-05
2015-12-04 00:00:00,2015-12-04 00:00:00,PRATE,surface,-95.6254,34.4881,2.96e-05
2015-12-04 00:00:00,2015-12-04 00:00:00,PRATE,surface,-94.6879,34.4881,2.28e-05
2015-12-04 00:00:00,2015-12-04 00:00:00,PRATE,surface,-93.7504,34.4881,2.11e-05
2015-12-04 00:00:00,2015-12-04 00:00:00,PRATE,surface,-92.8129,34.4881,2.09e-05
2015-12-04 00:00:00,2015-12-04 00:00:00,PRATE,surface,-107.813,35.4329,2.56e-05
2015-12-04 00:00:00,2015-12-04 00:00:00,PRATE,surface,-106.875,35.4329,2.07e-05
2015-12-04 00:00:00,2015-12-04 00:00:00,PRATE,surface,-105.938,35.4329,2.41e-05
2015-12-04 00:00:00,2015-12-04 00:00:00,PRATE,surface,-105,35.4329,3.37e-05
2015-12-04 00:00:00,2015-12-04 00:00:00,PRATE,surface,-104.063,35.4329,4.15e-05
2015-12-04 00:00:00,2015-12-04 00:00:00,PRATE,surface,-103.125,35.4329,3.66e-05
2015-12-04 00:00:00,2015-12-04 00:00:00,PRATE,surface,-102.188,35.4329,3.51e-05
2015-12-04 00:00:00,2015-12-04 00:00:00,PRATE,surface,-101.25,35.4329,3.38e-05
2015-12-04 00:00:00,2015-12-04 00:00:00,PRATE,surface,-100.313,35.4329,2.7e-05
2015-12-04 00:00:00,2015-12-04 00:00:00,PRATE,surface,-99.3754,35.4329,2.22e-05
2015-12-04 00:00:00,2015-12-04 00:00:00,PRATE,surface,-98.4379,35.4329,2.49e-05
2015-12-04 00:00:00,2015-12-04 00:00:00,PRATE,surface,-97.5004,35.4329,2.9e-05
2015-12-04 00:00:00,2015-12-04 00:00:00,PRATE,surface,-96.5629,35.4329,3.02e-05
2015-12-04 00:00:00,2015-12-04 00:00:00,PRATE,surface,-95.6254,35.4329,2.94e-05
2015-12-04 00:00:00,2015-12-04 00:00:00,PRATE,surface,-94.6879,35.4329,2.67e-05
2015-12-04 00:00:00,2015-12-04 00:00:00,PRATE,surface,-93.7504,35.4329,2.41e-05
2015-12-04 00:00:00,2015-12-04 00:00:00,PRATE,surface,-92.8129,35.4329,2.41e-05
2015-12-04 00:00:00,2015-12-04 00:00:00,PRATE,surface,-107.813,36.3778,2.2e-05
2015-12-04 00:00:00,2015-12-04 00:00:00,PRATE,surface,-106.875,36.3778,2.54e-05
2015-12-04 00:00:00,2015-12-04 00:00:00,PRATE,surface,-105.938,36.3778,2.84e-05
2015-12-04 00:00:00,2015-12-04 00:00:00,PRATE,surface,-105,36.3778,3.63e-05
2015-12-04 00:00:00,2015-12-04 00:00:00,PRATE,surface,-104.063,36.3778,4.8e-05
2015-12-04 00:00:00,2015-12-04 00:00:00,PRATE,surface,-103.125,36.3778,4.5e-05
2015-12-04 00:00:00,2015-12-04 00:00:00,PRATE,surface,-102.188,36.3778,3.97e-05
2015-12-04 00:00:00,2015-12-04 00:00:00,PRATE,surface,-101.25,36.3778,3.38e-05
2015-12-04 00:00:00,2015-12-04 00:00:00,PRATE,surface,-100.313,36.3778,2.67e-05
2015-12-04 00:00:00,2015-12-04 00:00:00,PRATE,surface,-99.3754,36.3778,2.18e-05
2015-12-04 00:00:00,2015-12-04 00:00:00,PRATE,surface,-98.4379,36.3778,1.96e-05
2015-12-04 00:00:00,2015-12-04 00:00:00,PRATE,surface,-97.5004,36.3778,1.89e-05
2015-12-04 00:00:00,2015-12-04 00:00:00,PRATE,surface,-96.5629,36.3778,1.88e-05
2015-12-04 00:00:00,2015-12-04 00:00:00,PRATE,surface,-95.6254,36.3778,2.05e-05
2015-12-04 00:00:00,2015-12-04 00:00:00,PRATE,surface,-94.6879,36.3778,2.46e-05
2015-12-04 00:00:00,2015-12-04 00:00:00,PRATE,surface,-93.7504,36.3778,2.94e-05
2015-12-04 00:00:00,2015-12-04 00:00:00,PRATE,surface,-92.8129,36.3778,3.12e-05
