2016-08-12 00:00:00,2016-08-12 00:00:00,TMP,surface,-107.813,25.0393,296.269
2016-08-12 00:00:00,2016-08-12 00:00:00,TMP,surface,-106.875,25.0393,289.526
2016-08-12 00:00:00,2016-08-12 00:00:00,TMP,surface,-105.938,25.0393,284.426
2016-08-12 00:00:00,2016-08-12 00:00:00,TMP,surface,-105,25.0393,283.019
2016-08-12 00:00:00,2016-08-12 00:00:00,TMP,surface,-104.063,25.0393,286.274
2016-08-12 00:00:00,2016-08-12 00:00:00,TMP,surface,-103.125,25.0393,288.856
2016-08-12 00:00:00,2016-08-12 00:00:00,TMP,surface,-102.188,25.0393,288.594
2016-08-12 00:00:00,2016-08-12 00:00:00,TMP,surface,-101.25,25.0393,287.317
2016-08-12 00:00:00,2016-08-12 00:00:00,TMP,surface,-100.313,25.0393,288.275
2016-08-12 00:00:00,2016-08-12 00:00:00,TMP,surface,-99.3754,25.0393,291.434
2016-08-12 00:00:00,2016-08-12 00:00:00,TMP,surface,-98.4379,25.0393,294.63
2016-08-12 00:00:00,2016-08-12 00:00:00,TMP,surface,-97.5004,25.0393,300.053
2016-08-12 00:00:00,2016-08-12 00:00:00,TMP,surface,-96.5629,25.0393,300.149
2016-08-12 00:00:00,2016-08-12 00:00:00,TMP,surface,-95.6254,25.0393,300.082
2016-08-12 00:00:00,2016-08-12 00:00:00,TMP,surface,-94.6879,25.0393,300.061
2016-08-12 00:00:00,2016-08-12 00:00:00,TMP,surface,-93.7504,25.0393,299.912
2016-08-12 00:00:00,2016-08-12 00:00:00,TMP,surface,-92.8129,25.0393,299.696
2016-08-12 00:00:00,2016-08-12 00:00:00,TMP,surface,-107.813,25.9842,290.36
2016-08-12 00:00:00,2016-08-12 00:00:00,TMP,surface,-106.875,25.9842,285.022
2016-08-12 00:00:00,2016-08-12 00:00:00,TMP,surface,-105.938,25.9842,282.73
2016-08-12 00:00:00,2016-08-12 00:00:00,TMP,surface,-105,25.9842,284.64
2016-08-12 00:00:00,2016-08-12 00:00:00,TMP,surface,-104.063,25.9842,288.435
2016-08-12 00:00:00,2016-08-12 00:00:00,TMP,surface,-103.125,25.9842,290.139
2016-08-12 00:00:00,2016-08-12 00:00:00,TMP,surface,-102.188,25.9842,289.904
2016-08-12 00:00:00,2016-08-12 00:00:00,TMP,surface,-101.25,25.9842,289.546
2016-08-12 00:00:00,2016-08-12 00:00:00,TMP,surface,-100.313,25.9842,290.616
2016-08-12 00:00:00,2016-08-12 00:00:00,TMP,surface,-99.3754,25.9842,293.445
2016-08-12 00:00:00,2016-08-12 00:00:00,TMP,surface,-98.4379,25.9842,295.264
2016-08-12 00:00:00,2016-08-12 00:00:00,TMP,surface,-97.5004,25.9842,296.27
2016-08-12 00:00:00,2016-08-12 00:00:00,TMP,surface,-96.5629,25.9842,299.627
2016-08-12 00:00:00,2016-08-12 00:00:00,TMP,surface,-95.6254,25.9842,299.651
2016-08-12 00:00:00,2016-08-12 00:00:00,TMP,surface,-94.6879,25.9842,299.658
2016-08-12 00:00:00,2016-08-12 00:00:00,TMP,surface,-93.7504,25.9842,299.6
2016-08-12 00:00:00,2016-08-12 00:00:00,TMP,surface,-92.8129,25.9842,299.653
2016-08-12 00:00:00,2016-08-12 00:00:00,TMP,surface,-107.813,26.929,285.64
2016-08-12 00:00:00,2016-08-12 00:00:00,TMP,surface,-106.875,26.929,282.013
2016-08-12 00:00:00,2016-08-12 00:00:00,TMP,surface,-105.938,26.929,283.938
2016-08-12 00:00:00,2016-08-12 00:00:00,TMP,surface,-105,26.929,286.87
2016-08-12 00:00:00,2016-08-12 00:00:00,TMP,surface,-104.063,26.929,288.934
2016-08-12 00:00:00,2016-08-12 00:00:00,TMP,surface,-103.125,26.929,288.859
2016-08-12 00:00:00,2016-08-12 00:00:00,TMP,surface,-102.188,26.929,289.115
2016-08-12 00:00:00,2016-08-12 00:00:00,TMP,surface,-101.25,26.929,290.352
2016-08-12 00:00:00,2016-08-12 00:00:00,TMP,surface,-100.313,26.929,292.144
2016-08-12 00:00:00,2016-08-12 00:00:00,TMP,surface,-99.3754,26.929,293.922
2016-08-12 00:00:00,2016-08-12 00:00:00,TMP,surface,-98.4379,26.929,294.293
2016-08-12 00:00:00,2016-08-12 00:00:00,TMP,surface,-97.5004,26.929,298.285
2016-08-12 00:00:00,2016-08-12 00:00:00,TMP,surface,-96.5629,26.929,298.674
2016-08-12 00:00:00,2016-08-12 00:00:00,TMP,surface,-95.6254,26.929,299.107
2016-08-12 00:00:00,2016-08-12 00:00:00,TMP,surface,-94.6879,26.929,299.258
2016-08-12 00:00:00,2016-08-12 00:00:00,TMP,surface,-93.7504,26.929,299.186
2016-08-12 00:00:00,2016-08-12 00:00:00,TMP,surface,-92.8129,26.929,299.234
2016-08-12 00:00:00,2016-08-12 00:00:00,TMP,surface,-107.813,27.8739,282.706
2016-08-12 00:00:00,2016-08-12 00:00:00,TMP,surface,-106.875,27.8739,281.531
2016-08-12 00:00:00,2016-08-12 00:00:00,TMP,surface,-105.938,27.8739,284.92
2016-08-12 00:00:00,2016-08-12 00:00:00,TMP,surface,-105,27.8739,287.891
2016-08-12 00:00:00,2016-08-12 00:00:00,TMP,surface,-104.063,27.8739,288.578
2016-08-12 00:00:00,2016-08-12 00:00:00,TMP,surface,-103.125,27.8739,287.811
2016-08-12 00:00:00,2016-08-12 00:00:00,TMP,surface,-102.188,27.8739,288.11
2016-08-12 00:00:00,2016-08-12 00:00:00,TMP,surface,-101.25,27.8739,290.029
2016-08-12 00:00:00,2016-08-12 00:00:00,TMP,surface,-100.313,27.8739,291.944
2016-08-12 00:00:00,2016-08-12 00:00:00,TMP,surface,-99.3754,27.8739,292.706
2016-08-12 00:00:00,2016-08-12 00:00:00,TMP,surface,-98.4379,27.8739,292.955
2016-08-12 00:00:00,2016-08-12 00:00:00,TMP,surface,-97.5004,27.8739,295.752
2016-08-12 00:00:00,2016-08-12 00:00:00,TMP,surface,-96.5629,27.8739,298.659
2016-08-12 00:00:00,2016-08-12 00:00:00,TMP,surface,-95.6254,27.8739,298.87
2016-08-12 00:00:00,2016-08-12 00:00:00,TMP,surface,-94.6879,27.8739,298.619
2016-08-12 00:00:00,2016-08-12 00:00:00,TMP,surface,-93.7504,27.8739,298.336
2016-08-12 00:00:00,2016-08-12 00:00:00,TMP,surface,-92.8129,27.8739,298.264
2016-08-12 00:00:00,2016-08-12 00:00:00,TMP,surface,-107.813,28.8188,281.504
2016-08-12 00:00:00,2016-08-12 00:00:00,TMP,surface,-106.875,28.8188,282.181
2016-08-12 00:00:00,2016-08-12 00:00:00,TMP,surface,-105.938,28.8188,285.704
2016-08-12 00:00:00,2016-08-12 00:00:00,TMP,surface,-105,28.8188,287.798
2016-08-12 00:00:00,2016-08-12 00:00:00,TMP,surface,-104.063,28.8188,287.178
2016-08-12 00:00:00,2016-08-12 00:00:00,TMP,surface,-103.125,28.8188,286.792
2016-08-12 00:00:00,2016-08-12 00:00:00,TMP,surface,-102.188,28.8188,287.704
2016-08-12 00:00:00,2016-08-12 00:00:00,TMP,surface,-101.25,28.8188,289.523
2016-08-12 00:00:00,2016-08-12 00:00:00,TMP,surface,-100.313,28.8188,290.485
2016-08-12 00:00:00,2016-08-12 00:00:00,TMP,surface,-99.3754,28.8188,290.538
2016-08-12 00:00:00,2016-08-12 00:00:00,TMP,surface,-98.4379,28.8188,290.758
2016-08-12 00:00:00,2016-08-12 00:00:00,TMP,surface,-97.5004,28.8188,291.461
2016-08-12 00:00:00,2016-08-12 00:00:00,TMP,surface,-96.5629,28.8188,292.382
2016-08-12 00:00:00,2016-08-12 00:00:00,TMP,surface,-95.6254,28.8188,294.966
2016-08-12 00:00:00,2016-08-12 00:00:00,TMP,surface,-94.6879,28.8188,298.126
2016-08-12 00:00:00,2016-08-12 00:00:00,TMP,surface,-93.7504,28.8188,297.778
2016-08-12 00:00:00,2016-08-12 00:00:00,TMP,surface,-92.8129,28.8188,297.773
2016-08-12 00:00:00,2016-08-12 00:00:00,TMP,surface,-107.813,29.7637,282.672
2016-08-12 00:00:00,2016-08-12 00:00:00,TMP,surface,-106.875,29.7637,283.866
2016-08-12 00:00:00,2016-08-12 00:00:00,TMP,surface,-105.938,29.7637,286.48
2016-08-12 00:00:00,2016-08-12 00:00:00,TMP,surface,-105,29.7637,286.699
2016-08-12 00:00:00,2016-08-12 00:00:00,TMP,surface,-104.063,29.7637,286.834
2016-08-12 00:00:00,2016-08-12 00:00:00,TMP,surface,-103.125,29.7637,287.456
2016-08-12 00:00:00,2016-08-12 00:00:00,TMP,surface,-102.188,29.7637,288.603
2016-08-12 00:00:00,2016-08-12 00:00:00,TMP,surface,-101.25,29.7637,289.197
2016-08-12 00:00:00,2016-08-12 00:00:00,TMP,surface,-100.313,29.7637,288.829
2016-08-12 00:00:00,2016-08-12 00:00:00,TMP,surface,-99.3754,29.7637,288.517
2016-08-12 00:00:00,2016-08-12 00:00:00,TMP,surface,-98.4379,29.7637,288.888
2016-08-12 00:00:00,2016-08-12 00:00:00,TMP,surface,-97.5004,29.7637,289.614
2016-08-12 00:00:00,2016-08-12 00:00:00,TMP,surface,-96.5629,29.7637,290.349
2016-08-12 00:00:00,2016-08-12 00:00:00,TMP,surface,-95.6254,29.7637,291.088
2016-08-12 00:00:00,2016-08-12 00:00:00,TMP,surface,-94.6879,29.7637,293.394
2016-08-12 00:00:00,2016-08-12 00:00:00,TMP,surface,-93.7504,29.7637,296.051
2016-08-12 00:00:00,2016-08-12 00:00:00,TMP,surface,-92.8129,29.7637,292.026
2016-08-12 00:00:00,2016-08-12 00:00:00,TMP,surface,-107.813,30.7085,285.25
2016-08-12 00:00:00,2016-08-12 00:00:00,TMP,surface,-106.875,30.7085,286.563
2016-08-12 00:00:00,2016-08-12 00:00:00,TMP,surface,-105.938,30.7085,286.542
2016-08-12 00:00:00,2016-08-12 00:00:00,TMP,surface,-105,30.7085,286.048
2016-08-12 00:00:00,2016-08-12 00:00:00,TMP,surface,-104.063,30.7085,286.277
2016-08-12 00:00:00,2016-08-12 00:00:00,TMP,surface,-103.125,30.7085,287.645
2016-08-12 00:00:00,2016-08-12 00:00:00,TMP,surface,-102.188,30.7085,288.584
2016-08-12 00:00:00,2016-08-12 00:00:00,TMP,surface,-101.25,30.7085,288.514
2016-08-12 00:00:00,2016-08-12 00:00:00,TMP,surface,-100.313,30.7085,288.147
2016-08-12 00:00:00,2016-08-12 00:00:00,TMP,surface,-99.3754,30.7085,288.085
2016-08-12 00:00:00,2016-08-12 00:00:00,TMP,surface,-98.4379,30.7085,288.467
2016-08-12 00:00:00,2016-08-12 00:00:00,TMP,surface,-97.5004,30.7085,289.037
2016-08-12 00:00:00,2016-08-12 00:00:00,TMP,surface,-96.5629,30.7085,289.506
2016-08-12 00:00:00,2016-08-12 00:00:00,TMP,surface,-95.6254,30.7085,289.754
2016-08-12 00:00:00,2016-08-12 00:00:00,TMP,surface,-94.6879,30.7085,289.794
2016-08-12 00:00:00,2016-08-12 00:00:00,TMP,surface,-93.7504,30.7085,289.675
2016-08-12 00:00:00,2016-08-12 00:00:00,TMP,surface,-92.8129,30.7085,289.386
2016-08-12 00:00:00,2016-08-12 00:00:00,TMP,surface,-107.813,31.6534,285.454
2016-08-12 00:00:00,2016-08-12 00:00:00,TMP,surface,-106.875,31.6534,286.227
2016-08-12 00:00:00,2016-08-12 00:00:00,TMP,surface,-105.938,31.6534,285.294
2016-08-12 00:00:00,2016-08-12 00:00:00,TMP,surface,-105,31.6534,285.242
2016-08-12 00:00:00,2016-08-12 00:00:00,TMP,surface,-104.063,31.6534,286.179
2016-08-12 00:00:00,2016-08-12 00:00:00,TMP,surface,-103.125,31.6534,287.494
2016-08-12 00:00:00,2016-08-12 00:00:00,TMP,surface,-102.188,31.6534,288.01
2016-08-12 00:00:00,2016-08-12 00:00:00,TMP,surface,-101.25,31.6534,287.883
2016-08-12 00:00:00,2016-08-12 00:00:00,TMP,surface,-100.313,31.6534,287.902
2016-08-12 00:00:00,2016-08-12 00:00:00,TMP,surface,-99.3754,31.6534,288.163
2016-08-12 00:00:00,2016-08-12 00:00:00,TMP,surface,-98.4379,31.6534,288.574
2016-08-12 00:00:00,2016-08-12 00:00:00,TMP,surface,-97.5004,31.6534,288.899
2016-08-12 00:00:00,2016-08-12 00:00:00,TMP,surface,-96.5629,31.6534,289.114
2016-08-12 00:00:00,2016-08-12 00:00:00,TMP,surface,-95.6254,31.6534,289.19
2016-08-12 00:00:00,2016-08-12 00:00:00,TMP,surface,-94.6879,31.6534,288.965
2016-08-12 00:00:00,2016-08-12 00:00:00,TMP,surface,-93.7504,31.6534,288.65
2016-08-12 00:00:00,2016-08-12 00:00:00,TMP,surface,-92.8129,31.6534,288.587
2016-08-12 00:00:00,2016-08-12 00:00:00,TMP,surface,-107.813,32.5983,282.506
2016-08-12 00:00:00,2016-08-12 00:00:00,TMP,surface,-106.875,32.5983,283.141
2016-08-12 00:00:00,2016-08-12 00:00:00,TMP,surface,-105.938,32.5983,283.608
2016-08-12 00:00:00,2016-08-12 00:00:00,TMP,surface,-105,32.5983,284.256
2016-08-12 00:00:00,2016-08-12 00:00:00,TMP,surface,-104.063,32.5983,285.934
2016-08-12 00:00:00,2016-08-12 00:00:00,TMP,surface,-103.125,32.5983,286.984
2016-08-12 00:00:00,2016-08-12 00:00:00,TMP,surface,-102.188,32.5983,287.28
2016-08-12 00:00:00,2016-08-12 00:00:00,TMP,surface,-101.25,32.5983,287.522
2016-08-12 00:00:00,2016-08-12 00:00:00,TMP,surface,-100.313,32.5983,287.995
2016-08-12 00:00:00,2016-08-12 00:00:00,TMP,surface,-99.3754,32.5983,288.413
2016-08-12 00:00:00,2016-08-12 00:00:00,TMP,surface,-98.4379,32.5983,288.6
2016-08-12 00:00:00,2016-08-12 00:00:00,TMP,surface,-97.5004,32.5983,288.722
2016-08-12 00:00:00,2016-08-12 00:00:00,TMP,surface,-96.5629,32.5983,288.795
2016-08-12 00:00:00,2016-08-12 00:00:00,TMP,surface,-95.6254,32.5983,288.642
2016-08-12 00:00:00,2016-08-12 00:00:00,TMP,surface,-94.6879,32.5983,288.251
2016-08-12 00:00:00,2016-08-12 00:00:00,TMP,surface,-93.7504,32.5983,287.954
2016-08-12 00:00:00,2016-08-12 00:00:00,TMP,surface,-92.8129,32.5983,288.261
2016-08-12 00:00:00,2016-08-12 00:00:00,TMP,surface,-107.813,33.5432,279.15
2016-08-12 00:00:00,2016-08-12 00:00:00,TMP,surface,-106.875,33.5432,280.704
2016-08-12 00:00:00,2016-08-12 00:00:00,TMP,surface,-105.938,33.5432,282.024
2016-08-12 00:00:00,2016-08-12 00:00:00,TMP,surface,-105,33.5432,283.314
2016-08-12 00:00:00,2016-08-12 00:00:00,TMP,surface,-104.063,33.5432,285.066
2016-08-12 00:00:00,2016-08-12 00:00:00,TMP,surface,-103.125,33.5432,286.008
2016-08-12 00:00:00,2016-08-12 00:00:00,TMP,surface,-102.188,33.5432,286.221
2016-08-12 00:00:00,2016-08-12 00:00:00,TMP,surface,-101.25,33.5432,286.722
2016-08-12 00:00:00,2016-08-12 00:00:00,TMP,surface,-100.313,33.5432,287.477
2016-08-12 00:00:00,2016-08-12 00:00:00,TMP,surface,-99.3754,33.5432,288.03
2016-08-12 00:00:00,2016-08-12 00:00:00,TMP,surface,-98.4379,33.5432,288.085
2016-08-12 00:00:00,2016-08-12 00:00:00,TMP,surface,-97.5004,33.5432,287.861
2016-08-12 00:00:00,2016-08-12 00:00:00,TMP,surface,-96.5629,33.5432,287.686
2016-08-12 00:00:00,2016-08-12 00:00:00,TMP,surface,-95.6254,33.5432,287.552
2016-08-12 00:00:00,2016-08-12 00:00:00,TMP,surface,-94.6879,33.5432,287.259
2016-08-12 00:00:00,2016-08-12 00:00:00,TMP,surface,-93.7504,33.5432,286.914
2016-08-12 00:00:00,2016-08-12 00:00:00,TMP,surface,-92.8129,33.5432,287.022
2016-08-12 00:00:00,2016-08-12 00:00:00,TMP,surface,-107.813,34.4881,277.749
2016-08-12 00:00:00,2016-08-12 00:00:00,TMP,surface,-106.875,34.4881,279.366
2016-08-12 00:00:00,2016-08-12 00:00:00,TMP,surface,-105.938,34.4881,280.483
2016-08-12 00:00:00,2016-08-12 00:00:00,TMP,surface,-105,34.4881,281.84
2016-08-12 00:00:00,2016-08-12 00:00:00,TMP,surface,-104.063,34.4881,283.269
2016-08-12 00:00:00,2016-08-12 00:00:00,TMP,surface,-103.125,34.4881,284.11
2016-08-12 00:00:00,2016-08-12 00:00:00,TMP,surface,-102.188,34.4881,284.73
2016-08-12 00:00:00,2016-08-12 00:00:00,TMP,surface,-101.25,34.4881,285.47
2016-08-12 00:00:00,2016-08-12 00:00:00,TMP,surface,-100.313,34.4881,286.27
2016-08-12 00:00:00,2016-08-12 00:00:00,TMP,surface,-99.3754,34.4881,286.838
2016-08-12 00:00:00,2016-08-12 00:00:00,TMP,surface,-98.4379,34.4881,286.906
2016-08-12 00:00:00,2016-08-12 00:00:00,TMP,surface,-97.5004,34.4881,286.766
2016-08-12 00:00:00,2016-08-12 00:00:00,TMP,surface,-96.5629,34.4881,286.694
2016-08-12 00:00:00,2016-08-12 00:00:00,TMP,surface,-95.6254,34.4881,286.43
2016-08-12 00:00:00,2016-08-12 00:00:00,TMP,surface,-94.6879,34.4881,285.848
2016-08-12 00:00:00,2016-08-12 00:00:00,TMP,surface,-93.7504,34.4881,285.435
2016-08-12 00:00:00,2016-08-12 00:00:00,TMP,surface,-92.8129,34.4881,285.584
2016-08-12 00:00:00,2016-08-12 00:00:00,TMP,surface,-107.813,35.4329,277.715
2016-08-12 00:00:00,2016-08-12 00:00:00,TMP,surface,-106.875,35.4329,278.258
2016-08-12 00:00:00,2016-08-12 00:00:00,TMP,surface,-105.938,35.4329,279.04
2016-08-12 00:00:00,2016-08-12 00:00:00,TMP,surface,-105,35.4329,279.994
2016-08-12 00:00:00,2016-08-12 00:00:00,TMP,surface,-104.063,35.4329,281.92
2016-08-12 00:00:00,2016-08-12 00:00:00,TMP,surface,-103.125,35.4329,283.317
2016-08-12 00:00:00,2016-08-12 00:00:00,TMP,surface,-102.188,35.4329,283.699
2016-08-12 00:00:00,2016-08-12 00:00:00,TMP,surface,-101.25,35.4329,284.192
2016-08-12 00:00:00,2016-08-12 00:00:00,TMP,surface,-100.313,35.4329,284.952
2016-08-12 00:00:00,2016-08-12 00:00:00,TMP,surface,-99.3754,35.4329,285.363
2016-08-12 00:00:00,2016-08-12 00:00:00,TMP,surface,-98.4379,35.4329,285.608
2016-08-12 00:00:00,2016-08-12 00:00:00,TMP,surface,-97.5004,35.4329,285.958
2016-08-12 00:00:00,2016-08-12 00:00:00,TMP,surface,-96.5629,35.4329,286.149
2016-08-12 00:00:00,2016-08-12 00:00:00,TMP,surface,-95.6254,35.4329,285.901
2016-08-12 00:00:00,2016-08-12 00:00:00,TMP,surface,-94.6879,35.4329,285.286
2016-08-12 00:00:00,2016-08-12 00:00:00,TMP,surface,-93.7504,35.4329,284.592
2016-08-12 00:00:00,2016-08-12 00:00:00,TMP,surface,-92.8129,35.4329,284.355
2016-08-12 00:00:00,2016-08-12 00:00:00,TMP,surface,-107.813,36.3778,277.006
2016-08-12 00:00:00,2016-08-12 00:00:00,TMP,surface,-106.875,36.3778,275.517
2016-08-12 00:00:00,2016-08-12 00:00:00,TMP,surface,-105.938,36.3778,276.456
2016-08-12 00:00:00,2016-08-12 00:00:00,TMP,surface,-105,36.3778,277.968
2016-08-12 00:00:00,2016-08-12 00:00:00,TMP,surface,-104.063,36.3778,280.002
2016-08-12 00:00:00,2016-08-12 00:00:00,TMP,surface,-103.125,36.3778,281.478
2016-08-12 00:00:00,2016-08-12 00:00:00,TMP,surface,-102.188,36.3778,282.379
2016-08-12 00:00:00,2016-08-12 00:00:00,TMP,surface,-101.25,36.3778,283.272
2016-08-12 00:00:00,2016-08-12 00:00:00,TMP,surface,-100.313,36.3778,284.189
2016-08-12 00:00:00,2016-08-12 00:00:00,TMP,surface,-99.3754,36.3778,284.749
2016-08-12 00:00:00,2016-08-12 00:00:00,TMP,surface,-98.4379,36.3778,284.798
2016-08-12 00:00:00,2016-08-12 00:00:00,TMP,surface,-97.5004,36.3778,285.078
2016-08-12 00:00:00,2016-08-12 00:00:00,TMP,surface,-96.5629,36.3778,285.486
2016-08-12 00:00:00,2016-08-12 00:00:00,TMP,surface,-95.6254,36.3778,285.36
2016-08-12 00:00:00,2016-08-12 00:00:00,TMP,surface,-94.6879,36.3778,284.749
2016-08-12 00:00:00,2016-08-12 00:00:00,TMP,surface,-93.7504,36.3778,284
2016-08-12 00:00:00,2016-08-12 00:00:00,TMP,surface,-92.8129,36.3778,283.773
2016-08-12 00:00:00,2016-08-12 00:00:00,PRATE,surface,-107.813,25.0393,9.5e-06
2016-08-12 00:00:00,2016-08-12 00:00:00,PRATE,surface,-106.875,25.0393,2.34e-05
2016-08-12 00:00:00,2016-08-12 00:00:00,PRATE,surface,-105.938,25.0393,2.22e-05
2016-08-12 00:00:00,2016-08-12 00:00:00,PRATE,surface,-105,25.0393,1.28e-05
2016-08-12 00:00:00,2016-08-12 00:00:00,PRATE,surface,-104.063,25.0393,9.5e-06
2016-08-12 00:00:00,2016-08-12 00:00:00,PRATE,surface,-103.125,25.0393,4.5e-06
2016-08-12 00:00:00,2016-08-12 00:00:00,PRATE,surface,-102.188,25.0393,1.2e-05
2016-08-12 00:00:00,2016-08-12 00:00:00,PRATE,surface,-101.25,25.0393,1.34e-05
2016-08-12 00:00:00,2016-08-12 00:00:00,PRATE,surface,-100.313,25.0393,1.13e-05
2016-08-12 00:00:00,2016-08-12 00:00:00,PRATE,surface,-99.3754,25.0393,1.11e-05
2016-08-12 00:00:00,2016-08-12 00:00:00,PRATE,surface,-98.4379,25.0393,1.89e-05
2016-08-12 00:00:00,2016-08-12 00:00:00,PRATE,surface,-97.5004,25.0393,5.28e-05
2016-08-12 00:00:00,2016-08-12 00:00:00,PRATE,surface,-96.5629,25.0393,0.0001272
2016-08-12 00:00:00,2016-08-12 00:00:00,PRATE,surface,-95.6254,25.0393,0.0001413
2016-08-12 00:00:00,2016-08-12 00:00:00,PRATE,surface,-94.6879,25.0393,0.0001049
2016-08-12 00:00:00,2016-08-12 00:00:00,PRATE,surface,-93.7504,25.0393,7e-05
2016-08-12 00:00:00,2016-08-12 00:00:00,PRATE,surface,-92.8129,25.0393,3.35e-05
2016-08-12 00:00:00,2016-08-12 00:00:00,PRATE,surface,-107.813,25.9842,1.8e-05
2016-08-12 00:00:00,2016-08-12 00:00:00,PRATE,surface,-106.875,25.9842,1.63e-05
2016-08-12 00:00:00,2016-08-12 00:00:00,PRATE,surface,-105.938,25.9842,1.44e-05
2016-08-12 00:00:00,2016-08-12 00:00:00,PRATE,surface,-105,25.9842,1.43e-05
2016-08-12 00:00:00,2016-08-12 00:00:00,PRATE,surface,-104.063,25.9842,4.4e-06
2016-08-12 00:00:00,2016-08-12 00:00:00,PRATE,surface,-103.125,25.9842,3.3e-06
2016-08-12 00:00:00,2016-08-12 00:00:00,PRATE,surface,-102.188,25.9842,4.7e-06
2016-08-12 00:00:00,2016-08-12 00:00:00,PRATE,surface,-101.25,25.9842,9.7e-06
2016-08-12 00:00:00,2016-08-12 00:00:00,PRATE,surface,-100.313,25.9842,7.9e-06
2016-08-12 00:00:00,2016-08-12 00:00:00,PRATE,surface,-99.3754,25.9842,6.3e-06
2016-08-12 00:00:00,2016-08-12 00:00:00,PRATE,surface,-98.4379,25.9842,1.48e-05
2016-08-12 00:00:00,2016-08-12 00:00:00,PRATE,surface,-97.5004,25.9842,6.81e-05
2016-08-12 00:00:00,2016-08-12 00:00:00,PRATE,surface,-96.5629,25.9842,0.0001631
2016-08-12 00:00:00,2016-08-12 00:00:00,PRATE,surface,-95.6254,25.9842,0.0001886
2016-08-12 00:00:00,2016-08-12 00:00:00,PRATE,surface,-94.6879,25.9842,0.00012
2016-08-12 00:00:00,2016-08-12 00:00:00,PRATE,surface,-93.7504,25.9842,0.0001034
2016-08-12 00:00:00,2016-08-12 00:00:00,PRATE,surface,-92.8129,25.9842,7.18e-05
2016-08-12 00:00:00,2016-08-12 00:00:00,PRATE,surface,-107.813,26.929,1.74e-05
2016-08-12 00:00:00,2016-08-12 00:00:00,PRATE,surface,-106.875,26.929,7.5e-06
2016-08-12 00:00:00,2016-08-12 00:00:00,PRATE,surface,-105.938,26.929,7.4e-06
2016-08-12 00:00:00,2016-08-12 00:00:00,PRATE,surface,-105,26.929,1.11e-05
2016-08-12 00:00:00,2016-08-12 00:00:00,PRATE,surface,-104.063,26.929,6.6e-06
2016-08-12 00:00:00,2016-08-12 00:00:00,PRATE,surface,-103.125,26.929,7.9e-06
2016-08-12 00:00:00,2016-08-12 00:00:00,PRATE,surface,-102.188,26.929,1.45e-05
2016-08-12 00:00:00,2016-08-12 00:00:00,PRATE,surface,-101.25,26.929,1.45e-05
2016-08-12 00:00:00,2016-08-12 00:00:00,PRATE,surface,-100.313,26.929,7.1e-06
2016-08-12 00:00:00,2016-08-12 00:00:00,PRATE,surface,-99.3754,26.929,8.6e-06
2016-08-12 00:00:00,2016-08-12 00:00:00,PRATE,surface,-98.4379,26.929,2.37e-05
2016-08-12 00:00:00,2016-08-12 00:00:00,PRATE,surface,-97.5004,26.929,8.81e-05
2016-08-12 00:00:00,2016-08-12 00:00:00,PRATE,surface,-96.5629,26.929,0.0001699
2016-08-12 00:00:00,2016-08-12 00:00:00,PRATE,surface,-95.6254,26.929,0.0001699
2016-08-12 00:00:00,2016-08-12 00:00:00,PRATE,surface,-94.6879,26.929,0.0001242
2016-08-12 00:00:00,2016-08-12 00:00:00,PRATE,surface,-93.7504,26.929,0.0001135
2016-08-12 00:00:00,2016-08-12 00:00:00,PRATE,surface,-92.8129,26.929,9.89e-05
2016-08-12 00:00:00,2016-08-12 00:00:00,PRATE,surface,-107.813,27.8739,2.03e-05
2016-08-12 00:00:00,2016-08-12 00:00:00,PRATE,surface,-106.875,27.8739,6.8e-06
2016-08-12 00:00:00,2016-08-12 00:00:00,PRATE,surface,-105.938,27.8739,3.1e-06
2016-08-12 00:00:00,2016-08-12 00:00:00,PRATE,surface,-105,27.8739,4.5e-06
2016-08-12 00:00:00,2016-08-12 00:00:00,PRATE,surface,-104.063,27.8739,8.2e-06
2016-08-12 00:00:00,2016-08-12 00:00:00,PRATE,surface,-103.125,27.8739,1.42e-05
2016-08-12 00:00:00,2016-08-12 00:00:00,PRATE,surface,-102.188,27.8739,2.1e-05
2016-08-12 00:00:00,2016-08-12 00:00:00,PRATE,surface,-101.25,27.8739,1.42e-05
2016-08-12 00:00:00,2016-08-12 00:00:00,PRATE,surface,-100.313,27.8739,9.2e-06
2016-08-12 00:00:00,2016-08-12 00:00:00,PRATE,surface,-99.3754,27.8739,1.02e-05
2016-08-12 00:00:00,2016-08-12 00:00:00,PRATE,surface,-98.4379,27.8739,2.92e-05
2016-08-12 00:00:00,2016-08-12 00:00:00,PRATE,surface,-97.5004,27.8739,7.25e-05
2016-08-12 00:00:00,2016-08-12 00:00:00,PRATE,surface,-96.5629,27.8739,0.0001269
2016-08-12 00:00:00,2016-08-12 00:00:00,PRATE,surface,-95.6254,27.8739,0.0001499
2016-08-12 00:00:00,2016-08-12 00:00:00,PRATE,surface,-94.6879,27.8739,0.00013
2016-08-12 00:00:00,2016-08-12 00:00:00,PRATE,surface,-93.7504,27.8739,0.0001173
2016-08-12 00:00:00,2016-08-12 00:00:00,PRATE,surface,-92.8129,27.8739,0.000106
2016-08-12 00:00:00,2016-08-12 00:00:00,PRATE,surface,-107.813,28.8188,1.98e-05
2016-08-12 00:00:00,2016-08-12 00:00:00,PRATE,surface,-106.875,28.8188,8.6e-06
2016-08-12 00:00:00,2016-08-12 00:00:00,PRATE,surface,-105.938,28.8188,3.2e-06
2016-08-12 00:00:00,2016-08-12 00:00:00,PRATE,surface,-105,28.8188,2.4e-06
2016-08-12 00:00:00,2016-08-12 00:00:00,PRATE,surface,-104.063,28.8188,6.9e-06
2016-08-12 00:00:00,2016-08-12 00:00:00,PRATE,surface,-103.125,28.8188,1.49e-05
2016-08-12 00:00:00,2016-08-12 00:00:00,PRATE,surface,-102.188,28.8188,1.86e-05
2016-08-12 00:00:00,2016-08-12 00:00:00,PRATE,surface,-101.25,28.8188,1.51e-05
2016-08-12 00:00:00,2016-08-12 00:00:00,PRATE,surface,-100.313,28.8188,1.31e-05
2016-08-12 00:00:00,2016-08-12 00:00:00,PRATE,surface,-99.3754,28.8188,1.95e-05
2016-08-12 00:00:00,2016-08-12 00:00:00,PRATE,surface,-98.4379,28.8188,3.09e-05
2016-08-12 00:00:00,2016-08-12 00:00:00,PRATE,surface,-97.5004,28.8188,4.39e-05
2016-08-12 00:00:00,2016-08-12 00:00:00,PRATE,surface,-96.5629,28.8188,6.85e-05
2016-08-12 00:00:00,2016-08-12 00:00:00,PRATE,surface,-95.6254,28.8188,0.0001115
2016-08-12 00:00:00,2016-08-12 00:00:00,PRATE,surface,-94.6879,28.8188,0.000141
2016-08-12 00:00:00,2016-08-12 00:00:00,PRATE,surface,-93.7504,28.8188,0.000125
2016-08-12 00:00:00,2016-08-12 00:00:00,PRATE,surface,-92.8129,28.8188,0.0001085
2016-08-12 00:00:00,2016-08-12 00:00:00,PRATE,surface,-107.813,29.7637,1.12e-05
2016-08-12 00:00:00,2016-08-12 00:00:00,PRATE,surface,-106.875,29.7637,1.31e-05
2016-08-12 00:00:00,2016-08-12 00:00:00,PRATE,surface,-105.938,29.7637,1.03e-05
2016-08-12 00:00:00,2016-08-12 00:00:00,PRATE,surface,-105,29.7637,7e-06
2016-08-12 00:00:00,2016-08-12 00:00:00,PRATE,surface,-104.063,29.7637,8.9e-06
2016-08-12 00:00:00,2016-08-12 00:00:00,PRATE,surface,-103.125,29.7637,1.19e-05
2016-08-12 00:00:00,2016-08-12 00:00:00,PRATE,surface,-102.188,29.7637,1.33e-05
2016-08-12 00:00:00,2016-08-12 00:00:00,PRATE,surface,-101.25,29.7637,1.93e-05
2016-08-12 00:00:00,2016-08-12 00:00:00,PRATE,surface,-100.313,29.7637,2.91e-05
2016-08-12 00:00:00,2016-08-12 00:00:00,PRATE,surface,-99.3754,29.7637,3.55e-05
2016-08-12 00:00:00,2016-08-12 00:00:00,PRATE,surface,-98.4379,29.7637,3.92e-05
2016-08-12 00:00:00,2016-08-12 00:00:00,PRATE,surface,-97.5004,29.7637,4.27e-05
2016-08-12 00:00:00,2016-08-12 00:00:00,PRATE,surface,-96.5629,29.7637,5.67e-05
2016-08-12 00:00:00,2016-08-12 00:00:00,PRATE,surface,-95.6254,29.7637,8.48e-05
2016-08-12 00:00:00,2016-08-12 00:00:00,PRATE,surface,-94.6879,29.7637,0.0001107
2016-08-12 00:00:00,2016-08-12 00:00:00,PRATE,surface,-93.7504,29.7637,0.0001091
2016-08-12 00:00:00,2016-08-12 00:00:00,PRATE,surface,-92.8129,29.7637,7.02e-05
2016-08-12 00:00:00,2016-08-12 00:00:00,PRATE,surface,-107.813,30.7085,2.1e-06
2016-08-12 00:00:00,2016-08-12 00:00:00,PRATE,surface,-106.875,30.7085,5.8e-06
2016-08-12 00:00:00,2016-08-12 00:00:00,PRATE,surface,-105.938,30.7085,1.11e-05
2016-08-12 00:00:00,2016-08-12 00:00:00,PRATE,surface,-105,30.7085,1.45e-05
2016-08-12 00:00:00,2016-08-12 00:00:00,PRATE,surface,-104.063,30.7085,1.42e-05
2016-08-12 00:00:00,2016-08-12 00:00:00,PRATE,surface,-103.125,30.7085,1.34e-05
2016-08-12 00:00:00,2016-08-12 00:00:00,PRATE,surface,-102.188,30.7085,1.37e-05
2016-08-12 00:00:00,2016-08-12 00:00:00,PRATE,surface,-101.25,30.7085,2.11e-05
2016-08-12 00:00:00,2016-08-12 00:00:00,PRATE,surface,-100.313,30.7085,3.29e-05
2016-08-12 00:00:00,2016-08-12 00:00:00,PRATE,surface,-99.3754,30.7085,4.2e-05
2016-08-12 00:00:00,2016-08-12 00:00:00,PRATE,surface,-98.4379,30.7085,4.16e-05
2016-08-12 00:00:00,2016-08-12 00:00:00,PRATE,surface,-97.5004,30.7085,3.86e-05
2016-08-12 00:00:00,2016-08-12 00:00:00,PRATE,surface,-96.5629,30.7085,4.28e-05
2016-08-12 00:00:00,2016-08-12 00:00:00,PRATE,surface,-95.6254,30.7085,5.69e-05
2016-08-12 00:00:00,2016-08-12 00:00:00,PRATE,surface,-94.6879,30.7085,7.18e-05
2016-08-12 00:00:00,2016-08-12 00:00:00,PRATE,surface,-93.7504,30.7085,7.12e-05
2016-08-12 00:00:00,2016-08-12 00:00:00,PRATE,surface,-92.8129,30.7085,5.82e-05
2016-08-12 00:00:00,2016-08-12 00:00:00,PRATE,surface,-107.813,31.6534,2.5e-06
2016-08-12 00:00:00,2016-08-12 00:00:00,PRATE,surface,-106.875,31.6534,3.4e-06
2016-08-12 00:00:00,2016-08-12 00:00:00,PRATE,surface,-105.938,31.6534,6e-06
2016-08-12 00:00:00,2016-08-12 00:00:00,PRATE,surface,-105,31.6534,1.12e-05
2016-08-12 00:00:00,2016-08-12 00:00:00,PRATE,surface,-104.063,31.6534,1.43e-05
2016-08-12 00:00:00,2016-08-12 00:00:00,PRATE,surface,-103.125,31.6534,1.31e-05
2016-08-12 00:00:00,2016-08-12 00:00:00,PRATE,surface,-102.188,31.6534,1.61e-05
2016-08-12 00:00:00,2016-08-12 00:00:00,PRATE,surface,-101.25,31.6534,2.38e-05
2016-08-12 00:00:00,2016-08-12 00:00:00,PRATE,surface,-100.313,31.6534,3.66e-05
2016-08-12 00:00:00,2016-08-12 00:00:00,PRATE,surface,-99.3754,31.6534,4.13e-05
2016-08-12 00:00:00,2016-08-12 00:00:00,PRATE,surface,-98.4379,31.6534,3.81e-05
2016-08-12 00:00:00,2016-08-12 00:00:00,PRATE,surface,-97.5004,31.6534,3.51e-05
2016-08-12 00:00:00,2016-08-12 00:00:00,PRATE,surface,-96.5629,31.6534,3.57e-05
2016-08-12 00:00:00,2016-08-12 00:00:00,PRATE,surface,-95.6254,31.6534,4.35e-05
2016-08-12 00:00:00,2016-08-12 00:00:00,PRATE,surface,-94.6879,31.6534,5.43e-05
2016-08-12 00:00:00,2016-08-12 00:00:00,PRATE,surface,-93.7504,31.6534,5e-05
2016-08-12 00:00:00,2016-08-12 00:00:00,PRATE,surface,-92.8129,31.6534,3.45e-05
2016-08-12 00:00:00,2016-08-12 00:00:00,PRATE,surface,-107.813,32.5983,7.2e-06
2016-08-12 00:00:00,2016-08-12 00:00:00,PRATE,surface,-106.875,32.5983,6e-06
2016-08-12 00:00:00,2016-08-12 00:00:00,PRATE,surface,-105.938,32.5983,5.6e-06
2016-08-12 00:00:00,2016-08-12 00:00:00,PRATE,surface,-105,32.5983,7.1e-06
2016-08-12 00:00:00,2016-08-12 00:00:00,PRATE,surface,-104.063,32.5983,1.17e-05
2016-08-12 00:00:00,2016-08-12 00:00:00,PRATE,surface,-103.125,32.5983,1.67e-05
2016-08-12 00:00:00,2016-08-12 00:00:00,PRATE,surface,-102.188,32.5983,2.19e-05
2016-08-12 00:00:00,2016-08-12 00:00:00,PRATE,surface,-101.25,32.5983,2.54e-05
2016-08-12 00:00:00,2016-08-12 00:00:00,PRATE,surface,-100.313,32.5983,3.38e-05
2016-08-12 00:00:00,2016-08-12 00:00:00,PRATE,surface,-99.3754,32.5983,4.28e-05
2016-08-12 00:00:00,2016-08-12 00:00:00,PRATE,surface,-98.4379,32.5983,4.05e-05
2016-08-12 00:00:00,2016-08-12 00:00:00,PRATE,surface,-97.5004,32.5983,3.24e-05
2016-08-12 00:00:00,2016-08-12 00:00:00,PRATE,surface,-96.5629,32.5983,3.12e-05
2016-08-12 00:00:00,2016-08-12 00:00:00,PRATE,surface,-95.6254,32.5983,3.86e-05
2016-08-12 00:00:00,2016-08-12 00:00:00,PRATE,surface,-94.6879,32.5983,4.59e-05
2016-08-12 00:00:00,2016-08-12 00:00:00,PRATE,surface,-93.7504,32.5983,4.14e-05
2016-08-12 00:00:00,2016-08-12 00:00:00,PRATE,surface,-92.8129,32.5983,2.4e-05
2016-08-12 00:00:00,2016-08-12 00:00:00,PRATE,surface,-107.813,33.5432,1.55e-05
2016-08-12 00:00:00,2016-08-12 00:00:00,PRATE,surface,-106.875,33.5432,1.15e-05
2016-08-12 00:00:00,2016-08-12 00:00:00,PRATE,surface,-105.938,33.5432,5.6e-06
2016-08-12 00:00:00,2016-08-12 00:00:00,PRATE,surface,-105,33.5432,5.1e-06
2016-08-12 00:00:00,2016-08-12 00:00:00,PRATE,surface,-104.063,33.5432,7.9e-06
2016-08-12 00:00:00,2016-08-12 00:00:00,PRATE,surface,-103.125,33.5432,1.17e-05
2016-08-12 00:00:00,2016-08-12 00:00:00,PRATE,surface,-102.188,33.5432,2.36e-05
2016-08-12 00:00:00,2016-08-12 00:00:00,PRATE,surface,-101.25,33.5432,3.17e-05
2016-08-12 00:00:00,2016-08-12 00:00:00,PRATE,surface,-100.313,33.5432,3.88e-05
2016-08-12 00:00:00,2016-08-12 00:00:00,PRATE,surface,-99.3754,33.5432,4.39e-05
2016-08-12 00:00:00,2016-08-12 00:00:00,PRATE,surface,-98.4379,33.5432,4.11e-05
2016-08-12 00:00:00,2016-08-12 00:00:00,PRATE,surface,-97.5004,33.5432,3.28e-05
2016-08-12 00:00:00,2016-08-12 00:00:00,PRATE,surface,-96.5629,33.5432,2.93e-05
2016-08-12 00:00:00,2016-08-12 00:00:00,PRATE,surface,-95.6254,33.5432,3.47e-05
2016-08-12 00:00:00,2016-08-12 00:00:00,PRATE,surface,-94.6879,33.5432,4.19e-05
2016-08-12 00:00:00,2016-08-12 00:00:00,PRATE,surface,-93.7504,33.5432,4.05e-05
2016-08-12 00:00:00,2016-08-12 00:00:00,PRATE,surface,-92.8129,33.5432,2.85e-05
2016-08-12 00:00:00,2016-08-12 00:00:00,PRATE,surface,-107.813,34.4881,1.25e-05
2016-08-12 00:00:00,2016-08-12 00:00:00,PRATE,surface,-106.875,34.4881,9.2e-06
2016-08-12 00:00:00,2016-08-12 00:00:00,PRATE,surface,-105.938,34.4881,7.6e-06
2016-08-12 00:00:00,2016-08-12 00:00:00,PRATE,surface,-105,34.4881,9e-06
2016-08-12 00:00:00,2016-08-12 00:00:00,PRATE,surface,-104.063,34.4881,1.42e-05
2016-08-12 00:00:00,2016-08-12 00:00:00,PRATE,surface,-103.125,34.4881,1.76e-05
2016-08-12 00:00:00,2016-08-12 00:00:00,PRATE,surface,-102.188,34.4881,3.12e-05
2016-08-12 00:00:00,2016-08-12 00:00:00,PRATE,surface,-101.25,34.4881,3.93e-05
2016-08-12 00:00:00,2016-08-12 00:00:00,PRATE,surface,-100.313,34.4881,4.9e-05
2016-08-12 00:00:00,2016-08-12 00:00:00,PRATE,surface,-99.3754,34.4881,5.18e-05
2016-08-12 00:00:00,2016-08-12 00:00:00,PRATE,surface,-98.4379,34.4881,5.21e-05
2016-08-12 00:00:00,2016-08-12 00:00:00,PRATE,surface,-97.5004,34.4881,4.35e-05
2016-08-12 00:00:00,2016-08-12 00:00:00,PRATE,surface,-96.5629,34.4881,3.26e-05
2016-08-12 00:00:00,2016-08-12 00:00:00,PRATE,surface,-95.6254,34.4881,3.16e-05
2016-08-12 00:00:00,2016-08-12 00:00:00,PRATE,surface,-94.6879,34.4881,3.43e-05
2016-08-12 00:00:00,2016-08-12 00:00:00,PRATE,surface,-93.7504,34.4881,3.28e-05
2016-08-12 00:00:00,2016-08-12 00:00:00,PRATE,surface,-92.8129,34.4881,2.64e-05
2016-08-12 00:00:00,2016-08-12 00:00:00,PRATE,surface,-107.813,35.4329,1.1e-05
2016-08-12 00:00:00,2016-08-12 00:00:00,PRATE,surface,-106.875,35.4329,7.8e-06
2016-08-12 00:00:00,2016-08-12 00:00:00,PRATE,surface,-105.938,35.4329,9.2e-06
2016-08-12 00:00:00,2016-08-12 00:00:00,PRATE,surface,-105,35.4329,1.72e-05
2016-08-12 00:00:00,2016-08-12 00:00:00,PRATE,surface,-104.063,35.4329,2.51e-05
2016-08-12 00:00:00,2016-08-12 00:00:00,PRATE,surface,-103.125,35.4329,2.76e-05
2016-08-12 00:00:00,2016-08-12 00:00:00,PRATE,surface,-102.188,35.4329,3.39e-05
2016-08-12 00:00:00,2016-08-12 00:00:00,PRATE,surface,-101.25,35.4329,4.02e-05
2016-08-12 00:00:00,2016-08-12 00:00:00,PRATE,surface,-100.313,35.4329,5.15e-05
2016-08-12 00:00:00,2016-08-12 00:00:00,PRATE,surface,-99.3754,35.4329,6.5e-05
2016-08-12 00:00:00,2016-08-12 00:00:00,PRATE,surface,-98.4379,35.4329,6.74e-05
2016-08-12 00:00:00,2016-08-12 00:00:00,PRATE,surface,-97.5004,35.4329,5.73e-05
2016-08-12 00:00:00,2016-08-12 00:00:00,PRATE,surface,-96.5629,35.4329,4.45e-05
2016-08-12 00:00:00,2016-08-12 00:00:00,PRATE,surface,-95.6254,35.4329,3.78e-05
2016-08-12 00:00:00,2016-08-12 00:00:00,PRATE,surface,-94.6879,35.4329,3.6e-05
2016-08-12 00:00:00,2016-08-12 00:00:00,PRATE,surface,-93.7504,35.4329,3.22e-05
2016-08-12 00:00:00,2016-08-12 00:00:00,PRATE,surface,-92.8129,35.4329,2.82e-05
2016-08-12 00:00:00,2016-08-12 00:00:00,PRATE,surface,-107.813,36.3778,1.54e-05
2016-08-12 00:00:00,2016-08-12 00:00:00,PRATE,surface,-106.875,36.3778,1.32e-05
2016-08-12 00:00:00,2016-08-12 00:00:00,PRATE,surface,-105.938,36.3778,1.33e-05
2016-08-12 00:00:00,2016-08-12 00:00:00,PRATE,surface,-105,36.3778,2.03e-05
2016-08-12 00:00:00,2016-08-12 00:00:00,PRATE,surface,-104.063,36.3778,3.06e-05
2016-08-12 00:00:00,2016-08-12 00:00:00,PRATE,surface,-103.125,36.3778,3.03e-05
2016-08-12 00:00:00,2016-08-12 00:00:00,PRATE,surface,-102.188,36.3778,3.47e-05
2016-08-12 00:00:00,2016-08-12 00:00:00,PRATE,surface,-101.25,36.3778,4.27e-05
2016-08-12 00:00:00,2016-08-12 00:00:00,PRATE,surface,-100.313,36.3778,5.31e-05
2016-08-12 00:00:00,2016-08-12 00:00:00,PRATE,surface,-99.3754,36.3778,6.37e-05
2016-08-12 00:00:00,2016-08-12 00:00:00,PRATE,surface,-98.4379,36.3778,7.07e-05
2016-08-12 00:00:00,2016-08-12 00:00:00,PRATE,surface,-97.5004,36.3778,6.73e-05
2016-08-12 00:00:00,2016-08-12 00:00:00,PRATE,surface,-96.5629,36.3778,5.66e-05
2016-08-12 00:00:00,2016-08-12 00:00:00,PRATE,surface,-95.6254,36.3778,4.75e-05
2016-08-12 00:00:00,2016-08-12 00:00:00,PRATE,surface,-94.6879,36.3778,4.03e-05
2016-08-12 00:00:00,2016-08-12 00:00:00,PRATE,surface,-93.7504,36.3778,3.27e-05
2016-08-12 00:00:00,2016-08-12 00:00:00,PRATE,surface,-92.8129,36.3778,2.95e-05
