2016-06-09 00:00:00,2016-06-09 00:00:00,TMP,surface,-107.813,25.0393,303.569
2016-06-09 00:00:00,2016-06-09 00:00:00,TMP,surface,-106.875,25.0393,296.795
2016-06-09 00:00:00,2016-06-09 00:00:00,TMP,surface,-105.938,25.0393,292.804
2016-06-09 00:00:00,2016-06-09 00:00:00,TMP,surface,-105,25.0393,290.683
2016-06-09 00:00:00,2016-06-09 00:00:00,TMP,surface,-104.063,25.0393,294.728
2016-06-09 00:00:00,2016-06-09 00:00:00,TMP,surface,-103.125,25.0393,297.848
2016-06-09 00:00:00,2016-06-09 00:00:00,TMP,surface,-102.188,25.0393,296.459
2016-06-09 00:00:00,2016-06-09 00:00:00,TMP,surface,-101.25,25.0393,293.252
2016-06-09 00:00:00,2016-06-09 00:00:00,TMP,surface,-100.313,25.0393,293.323
2016-06-09 00:00:00,2016-06-09 00:00:00,TMP,surface,-99.3754,25.0393,296.74
2016-06-09 00:00:00,2016-06-09 00:00:00,TMP,surface,-98.4379,25.0393,300.862
2016-06-09 00:00:00,2016-06-09 00:00:00,TMP,surface,-97.5004,25.0393,303.281
2016-06-09 00:00:00,2016-06-09 00:00:00,TMP,surface,-96.5629,25.0393,303.611
2016-06-09 00:00:00,2016-06-09 00:00:00,TMP,surface,-95.6254,25.0393,303.604
2016-06-09 00:00:00,2016-06-09 00:00:00,TMP,surface,-94.6879,25.0393,303.672
2016-06-09 00:00:00,2016-06-09 00:00:00,TMP,surface,-93.7504,25.0393,303.659
2016-06-09 00:00:00,2016-06-09 00:00:00,TMP,surface,-92.8129,25.0393,303.672
2016-06-09 00:00:00,2016-06-09 00:00:00,TMP,surface,-107.813,25.9842,299.444
2016-06-09 00:00:00,2016-06-09 00:00:00,TMP,surface,-106.875,25.9842,293.492
2016-06-09 00:00:00,2016-06-09 00:00:00,TMP,surface,-105.938,25.9842,291.499
2016-06-09 00:00:00,2016-06-09 00:00:00,TMP,surface,-105,25.9842,293.425
2016-06-09 00:00:00,2016-06-09 00:00:00,TMP,surface,-104.063,25.9842,298.769
2016-06-09 00:00:00,2016-06-09 00:00:00,TMP,surface,-103.125,25.9842,299.796
2016-06-09 00:00:00,2016-06-09 00:00:00,TMP,surface,-102.188,25.9842,298.139
2016-06-09 00:00:00,2016-06-09 00:00:00,TMP,surface,-101.25,25.9842,296.321
2016-06-09 00:00:00,2016-06-09 00:00:00,TMP,surface,-100.313,25.9842,296.372
2016-06-09 00:00:00,2016-06-09 00:00:00,TMP,surface,-99.3754,25.9842,299.697
2016-06-09 00:00:00,2016-06-09 00:00:00,TMP,surface,-98.4379,25.9842,301.662
2016-06-09 00:00:00,2016-06-09 00:00:00,TMP,surface,-97.5004,25.9842,301.531
2016-06-09 00:00:00,2016-06-09 00:00:00,TMP,surface,-96.5629,25.9842,302.376
2016-06-09 00:00:00,2016-06-09 00:00:00,TMP,surface,-95.6254,25.9842,302.9
2016-06-09 00:00:00,2016-06-09 00:00:00,TMP,surface,-94.6879,25.9842,303.23
2016-06-09 00:00:00,2016-06-09 00:00:00,TMP,surface,-93.7504,25.9842,303.444
2016-06-09 00:00:00,2016-06-09 00:00:00,TMP,surface,-92.8129,25.9842,303.566
2016-06-09 00:00:00,2016-06-09 00:00:00,TMP,surface,-107.813,26.929,295.121
2016-06-09 00:00:00,2016-06-09 00:00:00,TMP,surface,-106.875,26.929,292.318
2016-06-09 00:00:00,2016-06-09 00:00:00,TMP,surface,-105.938,26.929,293.134
2016-06-09 00:00:00,2016-06-09 00:00:00,TMP,surface,-105,26.929,297.598
2016-06-09 00:00:00,2016-06-09 00:00:00,TMP,surface,-104.063,26.929,300.052
2016-06-09 00:00:00,2016-06-09 00:00:00,TMP,surface,-103.125,26.929,298.638
2016-06-09 00:00:00,2016-06-09 00:00:00,TMP,surface,-102.188,26.929,297.582
2016-06-09 00:00:00,2016-06-09 00:00:00,TMP,surface,-101.25,26.929,298.321
2016-06-09 00:00:00,2016-06-09 00:00:00,TMP,surface,-100.313,26.929,300.296
2016-06-09 00:00:00,2016-06-09 00:00:00,TMP,surface,-99.3754,26.929,301.515
2016-06-09 00:00:00,2016-06-09 00:00:00,TMP,surface,-98.4379,26.929,300.472
2016-06-09 00:00:00,2016-06-09 00:00:00,TMP,surface,-97.5004,26.929,301.473
2016-06-09 00:00:00,2016-06-09 00:00:00,TMP,surface,-96.5629,26.929,302.155
2016-06-09 00:00:00,2016-06-09 00:00:00,TMP,surface,-95.6254,26.929,302.897
2016-06-09 00:00:00,2016-06-09 00:00:00,TMP,surface,-94.6879,26.929,303.323
2016-06-09 00:00:00,2016-06-09 00:00:00,TMP,surface,-93.7504,26.929,303.409
2016-06-09 00:00:00,2016-06-09 00:00:00,TMP,surface,-92.8129,26.929,303.368
2016-06-09 00:00:00,2016-06-09 00:00:00,TMP,surface,-107.813,27.8739,293.332
2016-06-09 00:00:00,2016-06-09 00:00:00,TMP,surface,-106.875,27.8739,292.34
2016-06-09 00:00:00,2016-06-09 00:00:00,TMP,surface,-105.938,27.8739,295.694
2016-06-09 00:00:00,2016-06-09 00:00:00,TMP,surface,-105,27.8739,299.928
2016-06-09 00:00:00,2016-06-09 00:00:00,TMP,surface,-104.063,27.8739,299.572
2016-06-09 00:00:00,2016-06-09 00:00:00,TMP,surface,-103.125,27.8739,297.377
2016-06-09 00:00:00,2016-06-09 00:00:00,TMP,surface,-102.188,27.8739,296.968
2016-06-09 00:00:00,2016-06-09 00:00:00,TMP,surface,-101.25,27.8739,299.476
2016-06-09 00:00:00,2016-06-09 00:00:00,TMP,surface,-100.313,27.8739,301.54
2016-06-09 00:00:00,2016-06-09 00:00:00,TMP,surface,-99.3754,27.8739,300.996
2016-06-09 00:00:00,2016-06-09 00:00:00,TMP,surface,-98.4379,27.8739,299.819
2016-06-09 00:00:00,2016-06-09 00:00:00,TMP,surface,-97.5004,27.8739,301.032
2016-06-09 00:00:00,2016-06-09 00:00:00,TMP,surface,-96.5629,27.8739,302.801
2016-06-09 00:00:00,2016-06-09 00:00:00,TMP,surface,-95.6254,27.8739,303.118
2016-06-09 00:00:00,2016-06-09 00:00:00,TMP,surface,-94.6879,27.8739,303.364
2016-06-09 00:00:00,2016-06-09 00:00:00,TMP,surface,-93.7504,27.8739,303.444
2016-06-09 00:00:00,2016-06-09 00:00:00,TMP,surface,-92.8129,27.8739,303.38
2016-06-09 00:00:00,2016-06-09 00:00:00,TMP,surface,-107.813,28.8188,292.99
2016-06-09 00:00:00,2016-06-09 00:00:00,TMP,surface,-106.875,28.8188,293.848
2016-06-09 00:00:00,2016-06-09 00:00:00,TMP,surface,-105.938,28.8188,297.793
2016-06-09 00:00:00,2016-06-09 00:00:00,TMP,surface,-105,28.8188,301.009
2016-06-09 00:00:00,2016-06-09 00:00:00,TMP,surface,-104.063,28.8188,299.185
2016-06-09 00:00:00,2016-06-09 00:00:00,TMP,surface,-103.125,28.8188,297.662
2016-06-09 00:00:00,2016-06-09 00:00:00,TMP,surface,-102.188,28.8188,297.662
2016-06-09 00:00:00,2016-06-09 00:00:00,TMP,surface,-101.25,28.8188,299.838
2016-06-09 00:00:00,2016-06-09 00:00:00,TMP,surface,-100.313,28.8188,300.328
2016-06-09 00:00:00,2016-06-09 00:00:00,TMP,surface,-99.3754,28.8188,299.339
2016-06-09 00:00:00,2016-06-09 00:00:00,TMP,surface,-98.4379,28.8188,298.68
2016-06-09 00:00:00,2016-06-09 00:00:00,TMP,surface,-97.5004,28.8188,298.756
2016-06-09 00:00:00,2016-06-09 00:00:00,TMP,surface,-96.5629,28.8188,299.326
2016-06-09 00:00:00,2016-06-09 00:00:00,TMP,surface,-95.6254,28.8188,300.776
2016-06-09 00:00:00,2016-06-09 00:00:00,TMP,surface,-94.6879,28.8188,302.542
2016-06-09 00:00:00,2016-06-09 00:00:00,TMP,surface,-93.7504,28.8188,302.974
2016-06-09 00:00:00,2016-06-09 00:00:00,TMP,surface,-92.8129,28.8188,302.961
2016-06-09 00:00:00,2016-06-09 00:00:00,TMP,surface,-107.813,29.7637,295.713
2016-06-09 00:00:00,2016-06-09 00:00:00,TMP,surface,-106.875,29.7637,296.804
2016-06-09 00:00:00,2016-06-09 00:00:00,TMP,surface,-105.938,29.7637,299.464
2016-06-09 00:00:00,2016-06-09 00:00:00,TMP,surface,-105,29.7637,300.692
2016-06-09 00:00:00,2016-06-09 00:00:00,TMP,surface,-104.063,29.7637,299.499
2016-06-09 00:00:00,2016-06-09 00:00:00,TMP,surface,-103.125,29.7637,299.179
2016-06-09 00:00:00,2016-06-09 00:00:00,TMP,surface,-102.188,29.7637,300.033
2016-06-09 00:00:00,2016-06-09 00:00:00,TMP,surface,-101.25,29.7637,300.212
2016-06-09 00:00:00,2016-06-09 00:00:00,TMP,surface,-100.313,29.7637,298.872
2016-06-09 00:00:00,2016-06-09 00:00:00,TMP,surface,-99.3754,29.7637,297.393
2016-06-09 00:00:00,2016-06-09 00:00:00,TMP,surface,-98.4379,29.7637,297.214
2016-06-09 00:00:00,2016-06-09 00:00:00,TMP,surface,-97.5004,29.7637,298.18
2016-06-09 00:00:00,2016-06-09 00:00:00,TMP,surface,-96.5629,29.7637,299.028
2016-06-09 00:00:00,2016-06-09 00:00:00,TMP,surface,-95.6254,29.7637,299.268
2016-06-09 00:00:00,2016-06-09 00:00:00,TMP,surface,-94.6879,29.7637,300.308
2016-06-09 00:00:00,2016-06-09 00:00:00,TMP,surface,-93.7504,29.7637,301.915
2016-06-09 00:00:00,2016-06-09 00:00:00,TMP,surface,-92.8129,29.7637,300.44
2016-06-09 00:00:00,2016-06-09 00:00:00,TMP,surface,-107.813,30.7085,300.443
2016-06-09 00:00:00,2016-06-09 00:00:00,TMP,surface,-106.875,30.7085,301.035
2016-06-09 00:00:00,2016-06-09 00:00:00,TMP,surface,-105.938,30.7085,300.955
2016-06-09 00:00:00,2016-06-09 00:00:00,TMP,surface,-105,30.7085,300.196
2016-06-09 00:00:00,2016-06-09 00:00:00,TMP,surface,-104.063,30.7085,299.16
2016-06-09 00:00:00,2016-06-09 00:00:00,TMP,surface,-103.125,30.7085,300.088
2016-06-09 00:00:00,2016-06-09 00:00:00,TMP,surface,-102.188,30.7085,300.558
2016-06-09 00:00:00,2016-06-09 00:00:00,TMP,surface,-101.25,30.7085,299.688
2016-06-09 00:00:00,2016-06-09 00:00:00,TMP,surface,-100.313,30.7085,298.34
2016-06-09 00:00:00,2016-06-09 00:00:00,TMP,surface,-99.3754,30.7085,297.284
2016-06-09 00:00:00,2016-06-09 00:00:00,TMP,surface,-98.4379,30.7085,297.56
2016-06-09 00:00:00,2016-06-09 00:00:00,TMP,surface,-97.5004,30.7085,298.504
2016-06-09 00:00:00,2016-06-09 00:00:00,TMP,surface,-96.5629,30.7085,299.489
2016-06-09 00:00:00,2016-06-09 00:00:00,TMP,surface,-95.6254,30.7085,300.081
2016-06-09 00:00:00,2016-06-09 00:00:00,TMP,surface,-94.6879,30.7085,300.004
2016-06-09 00:00:00,2016-06-09 00:00:00,TMP,surface,-93.7504,30.7085,300.132
2016-06-09 00:00:00,2016-06-09 00:00:00,TMP,surface,-92.8129,30.7085,299.921
2016-06-09 00:00:00,2016-06-09 00:00:00,TMP,surface,-107.813,31.6534,301.976
2016-06-09 00:00:00,2016-06-09 00:00:00,TMP,surface,-106.875,31.6534,301.787
2016-06-09 00:00:00,2016-06-09 00:00:00,TMP,surface,-105.938,31.6534,300.769
2016-06-09 00:00:00,2016-06-09 00:00:00,TMP,surface,-105,31.6534,299.697
2016-06-09 00:00:00,2016-06-09 00:00:00,TMP,surface,-104.063,31.6534,299.94
2016-06-09 00:00:00,2016-06-09 00:00:00,TMP,surface,-103.125,31.6534,300.491
2016-06-09 00:00:00,2016-06-09 00:00:00,TMP,surface,-102.188,31.6534,300.568
2016-06-09 00:00:00,2016-06-09 00:00:00,TMP,surface,-101.25,31.6534,299.646
2016-06-09 00:00:00,2016-06-09 00:00:00,TMP,surface,-100.313,31.6534,298.702
2016-06-09 00:00:00,2016-06-09 00:00:00,TMP,surface,-99.3754,31.6534,298.267
2016-06-09 00:00:00,2016-06-09 00:00:00,TMP,surface,-98.4379,31.6534,298.414
2016-06-09 00:00:00,2016-06-09 00:00:00,TMP,surface,-97.5004,31.6534,299.064
2016-06-09 00:00:00,2016-06-09 00:00:00,TMP,surface,-96.5629,31.6534,299.94
2016-06-09 00:00:00,2016-06-09 00:00:00,TMP,surface,-95.6254,31.6534,300.427
2016-06-09 00:00:00,2016-06-09 00:00:00,TMP,surface,-94.6879,31.6534,300.35
2016-06-09 00:00:00,2016-06-09 00:00:00,TMP,surface,-93.7504,31.6534,300.312
2016-06-09 00:00:00,2016-06-09 00:00:00,TMP,surface,-92.8129,31.6534,300.251
2016-06-09 00:00:00,2016-06-09 00:00:00,TMP,surface,-107.813,32.5983,298.017
2016-06-09 00:00:00,2016-06-09 00:00:00,TMP,surface,-106.875,32.5983,297.8
2016-06-09 00:00:00,2016-06-09 00:00:00,TMP,surface,-105.938,32.5983,298.308
2016-06-09 00:00:00,2016-06-09 00:00:00,TMP,surface,-105,32.5983,298.612
2016-06-09 00:00:00,2016-06-09 00:00:00,TMP,surface,-104.063,32.5983,299.4
2016-06-09 00:00:00,2016-06-09 00:00:00,TMP,surface,-103.125,32.5983,300.18
2016-06-09 00:00:00,2016-06-09 00:00:00,TMP,surface,-102.188,32.5983,300.184
2016-06-09 00:00:00,2016-06-09 00:00:00,TMP,surface,-101.25,32.5983,299.892
2016-06-09 00:00:00,2016-06-09 00:00:00,TMP,surface,-100.313,32.5983,299.924
2016-06-09 00:00:00,2016-06-09 00:00:00,TMP,surface,-99.3754,32.5983,299.652
2016-06-09 00:00:00,2016-06-09 00:00:00,TMP,surface,-98.4379,32.5983,299.163
2016-06-09 00:00:00,2016-06-09 00:00:00,TMP,surface,-97.5004,32.5983,299.201
2016-06-09 00:00:00,2016-06-09 00:00:00,TMP,surface,-96.5629,32.5983,300.014
2016-06-09 00:00:00,2016-06-09 00:00:00,TMP,surface,-95.6254,32.5983,300.808
2016-06-09 00:00:00,2016-06-09 00:00:00,TMP,surface,-94.6879,32.5983,300.859
2016-06-09 00:00:00,2016-06-09 00:00:00,TMP,surface,-93.7504,32.5983,300.644
2016-06-09 00:00:00,2016-06-09 00:00:00,TMP,surface,-92.8129,32.5983,300.718
2016-06-09 00:00:00,2016-06-09 00:00:00,TMP,surface,-107.813,33.5432,293.332
2016-06-09 00:00:00,2016-06-09 00:00:00,TMP,surface,-106.875,33.5432,294.436
2016-06-09 00:00:00,2016-06-09 00:00:00,TMP,surface,-105.938,33.5432,295.592
2016-06-09 00:00:00,2016-06-09 00:00:00,TMP,surface,-105,33.5432,297.505
2016-06-09 00:00:00,2016-06-09 00:00:00,TMP,surface,-104.063,33.5432,299.368
2016-06-09 00:00:00,2016-06-09 00:00:00,TMP,surface,-103.125,33.5432,299.611
2016-06-09 00:00:00,2016-06-09 00:00:00,TMP,surface,-102.188,33.5432,299.604
2016-06-09 00:00:00,2016-06-09 00:00:00,TMP,surface,-101.25,33.5432,299.883
2016-06-09 00:00:00,2016-06-09 00:00:00,TMP,surface,-100.313,33.5432,300.74
2016-06-09 00:00:00,2016-06-09 00:00:00,TMP,surface,-99.3754,33.5432,300.852
2016-06-09 00:00:00,2016-06-09 00:00:00,TMP,surface,-98.4379,33.5432,299.912
2016-06-09 00:00:00,2016-06-09 00:00:00,TMP,surface,-97.5004,33.5432,299.284
2016-06-09 00:00:00,2016-06-09 00:00:00,TMP,surface,-96.5629,33.5432,299.451
2016-06-09 00:00:00,2016-06-09 00:00:00,TMP,surface,-95.6254,33.5432,300.033
2016-06-09 00:00:00,2016-06-09 00:00:00,TMP,surface,-94.6879,33.5432,300.564
2016-06-09 00:00:00,2016-06-09 00:00:00,TMP,surface,-93.7504,33.5432,300.424
2016-06-09 00:00:00,2016-06-09 00:00:00,TMP,surface,-92.8129,33.5432,300.449
2016-06-09 00:00:00,2016-06-09 00:00:00,TMP,surface,-107.813,34.4881,292.84
2016-06-09 00:00:00,2016-06-09 00:00:00,TMP,surface,-106.875,34.4881,294.513
2016-06-09 00:00:00,2016-06-09 00:00:00,TMP,surface,-105.938,34.4881,295.726
2016-06-09 00:00:00,2016-06-09 00:00:00,TMP,surface,-105,34.4881,297.822
2016-06-09 00:00:00,2016-06-09 00:00:00,TMP,surface,-104.063,34.4881,298.929
2016-06-09 00:00:00,2016-06-09 00:00:00,TMP,surface,-103.125,34.4881,299.144
2016-06-09 00:00:00,2016-06-09 00:00:00,TMP,surface,-102.188,34.4881,299.422
2016-06-09 00:00:00,2016-06-09 00:00:00,TMP,surface,-101.25,34.4881,299.912
2016-06-09 00:00:00,2016-06-09 00:00:00,TMP,surface,-100.313,34.4881,300.555
2016-06-09 00:00:00,2016-06-09 00:00:00,TMP,surface,-99.3754,34.4881,300.664
2016-06-09 00:00:00,2016-06-09 00:00:00,TMP,surface,-98.4379,34.4881,299.854
2016-06-09 00:00:00,2016-06-09 00:00:00,TMP,surface,-97.5004,34.4881,299.08
2016-06-09 00:00:00,2016-06-09 00:00:00,TMP,surface,-96.5629,34.4881,299.492
2016-06-09 00:00:00,2016-06-09 00:00:00,TMP,surface,-95.6254,34.4881,300.225
2016-06-09 00:00:00,2016-06-09 00:00:00,TMP,surface,-94.6879,34.4881,299.864
2016-06-09 00:00:00,2016-06-09 00:00:00,TMP,surface,-93.7504,34.4881,299.355
2016-06-09 00:00:00,2016-06-09 00:00:00,TMP,surface,-92.8129,34.4881,299.761
2016-06-09 00:00:00,2016-06-09 00:00:00,TMP,surface,-107.813,35.4329,294.817
2016-06-09 00:00:00,2016-06-09 00:00:00,TMP,surface,-106.875,35.4329,294.766
2016-06-09 00:00:00,2016-06-09 00:00:00,TMP,surface,-105.938,35.4329,294.398
2016-06-09 00:00:00,2016-06-09 00:00:00,TMP,surface,-105,35.4329,295.028
2016-06-09 00:00:00,2016-06-09 00:00:00,TMP,surface,-104.063,35.4329,297.508
2016-06-09 00:00:00,2016-06-09 00:00:00,TMP,surface,-103.125,35.4329,299.15
2016-06-09 00:00:00,2016-06-09 00:00:00,TMP,surface,-102.188,35.4329,299.953
2016-06-09 00:00:00,2016-06-09 00:00:00,TMP,surface,-101.25,35.4329,300.305
2016-06-09 00:00:00,2016-06-09 00:00:00,TMP,surface,-100.313,35.4329,300.436
2016-06-09 00:00:00,2016-06-09 00:00:00,TMP,surface,-99.3754,35.4329,300.584
2016-06-09 00:00:00,2016-06-09 00:00:00,TMP,surface,-98.4379,35.4329,300.238
2016-06-09 00:00:00,2016-06-09 00:00:00,TMP,surface,-97.5004,35.4329,299.585
2016-06-09 00:00:00,2016-06-09 00:00:00,TMP,surface,-96.5629,35.4329,299.291
2016-06-09 00:00:00,2016-06-09 00:00:00,TMP,surface,-95.6254,35.4329,299.576
2016-06-09 00:00:00,2016-06-09 00:00:00,TMP,surface,-94.6879,35.4329,299.78
2016-06-09 00:00:00,2016-06-09 00:00:00,TMP,surface,-93.7504,35.4329,299.185
2016-06-09 00:00:00,2016-06-09 00:00:00,TMP,surface,-92.8129,35.4329,298.824
2016-06-09 00:00:00,2016-06-09 00:00:00,TMP,surface,-107.813,36.3778,294.769
2016-06-09 00:00:00,2016-06-09 00:00:00,TMP,surface,-106.875,36.3778,291.844
2016-06-09 00:00:00,2016-06-09 00:00:00,TMP,surface,-105.938,36.3778,291.748
2016-06-09 00:00:00,2016-06-09 00:00:00,TMP,surface,-105,36.3778,292.51
2016-06-09 00:00:00,2016-06-09 00:00:00,TMP,surface,-104.063,36.3778,295.419
2016-06-09 00:00:00,2016-06-09 00:00:00,TMP,surface,-103.125,36.3778,297.864
2016-06-09 00:00:00,2016-06-09 00:00:00,TMP,surface,-102.188,36.3778,299.502
2016-06-09 00:00:00,2016-06-09 00:00:00,TMP,surface,-101.25,36.3778,300.456
2016-06-09 00:00:00,2016-06-09 00:00:00,TMP,surface,-100.313,36.3778,300.932
2016-06-09 00:00:00,2016-06-09 00:00:00,TMP,surface,-99.3754,36.3778,300.913
2016-06-09 00:00:00,2016-06-09 00:00:00,TMP,surface,-98.4379,36.3778,300.593
2016-06-09 00:00:00,2016-06-09 00:00:00,TMP,surface,-97.5004,36.3778,299.844
2016-06-09 00:00:00,2016-06-09 00:00:00,TMP,surface,-96.5629,36.3778,299.06
2016-06-09 00:00:00,2016-06-09 00:00:00,TMP,surface,-95.6254,36.3778,299.032
2016-06-09 00:00:00,2016-06-09 00:00:00,TMP,surface,-94.6879,36.3778,299.358
2016-06-09 00:00:00,2016-06-09 00:00:00,TMP,surface,-93.7504,36.3778,298.974
2016-06-09 00:00:00,2016-06-09 00:00:00,TMP,surface,-92.8129,36.3778,298.484
2016-06-09 00:00:00,2016-06-09 00:00:00,PRATE,surface,-107.813,25.0393,5e-07
2016-06-09 00:00:00,2016-06-09 00:00:00,PRATE,surface,-106.875,25.0393,0.000116
2016-06-09 00:00:00,2016-06-09 00:00:00,PRATE,surface,-105.938,25.0393,0.0001935
2016-06-09 00:00:00,2016-06-09 00:00:00,PRATE,surface,-105,25.0393,8.44e-05
2016-06-09 00:00:00,2016-06-09 00:00:00,PRATE,surface,-104.063,25.0393,2.9e-05
2016-06-09 00:00:00,2016-06-09 00:00:00,PRATE,surface,-103.125,25.0393,3.5e-06
2016-06-09 00:00:00,2016-06-09 00:00:00,PRATE,surface,-102.188,25.0393,8.9e-06
2016-06-09 00:00:00,2016-06-09 00:00:00,PRATE,surface,-101.25,25.0393,5.01e-05
2016-06-09 00:00:00,2016-06-09 00:00:00,PRATE,surface,-100.313,25.0393,0.0001573
2016-06-09 00:00:00,2016-06-09 00:00:00,PRATE,surface,-99.3754,25.0393,0.0001141
2016-06-09 00:00:00,2016-06-09 00:00:00,PRATE,surface,-98.4379,25.0393,4.07e-05
2016-06-09 00:00:00,2016-06-09 00:00:00,PRATE,surface,-97.5004,25.0393,6.71e-05
2016-06-09 00:00:00,2016-06-09 00:00:00,PRATE,surface,-96.5629,25.0393,7.21e-05
2016-06-09 00:00:00,2016-06-09 00:00:00,PRATE,surface,-95.6254,25.0393,6.29e-05
2016-06-09 00:00:00,2016-06-09 00:00:00,PRATE,surface,-94.6879,25.0393,4.51e-05
2016-06-09 00:00:00,2016-06-09 00:00:00,PRATE,surface,-93.7504,25.0393,5.33e-05
2016-06-09 00:00:00,2016-06-09 00:00:00,PRATE,surface,-92.8129,25.0393,6.63e-05
2016-06-09 00:00:00,2016-06-09 00:00:00,PRATE,surface,-107.813,25.9842,6.61e-05
2016-06-09 00:00:00,2016-06-09 00:00:00,PRATE,surface,-106.875,25.9842,0.000157
2016-06-09 00:00:00,2016-06-09 00:00:00,PRATE,surface,-105.938,25.9842,9.09e-05
2016-06-09 00:00:00,2016-06-09 00:00:00,PRATE,surface,-105,25.9842,4.58e-05
2016-06-09 00:00:00,2016-06-09 00:00:00,PRATE,surface,-104.063,25.9842,2.3e-06
2016-06-09 00:00:00,2016-06-09 00:00:00,PRATE,surface,-103.125,25.9842,2.1e-06
2016-06-09 00:00:00,2016-06-09 00:00:00,PRATE,surface,-102.188,25.9842,8.1e-06
2016-06-09 00:00:00,2016-06-09 00:00:00,PRATE,surface,-101.25,25.9842,3.49e-05
2016-06-09 00:00:00,2016-06-09 00:00:00,PRATE,surface,-100.313,25.9842,9.04e-05
2016-06-09 00:00:00,2016-06-09 00:00:00,PRATE,surface,-99.3754,25.9842,4.59e-05
2016-06-09 00:00:00,2016-06-09 00:00:00,PRATE,surface,-98.4379,25.9842,4.59e-05
2016-06-09 00:00:00,2016-06-09 00:00:00,PRATE,surface,-97.5004,25.9842,9.46e-05
2016-06-09 00:00:00,2016-06-09 00:00:00,PRATE,surface,-96.5629,25.9842,9.37e-05
2016-06-09 00:00:00,2016-06-09 00:00:00,PRATE,surface,-95.6254,25.9842,6.73e-05
2016-06-09 00:00:00,2016-06-09 00:00:00,PRATE,surface,-94.6879,25.9842,5.93e-05
2016-06-09 00:00:00,2016-06-09 00:00:00,PRATE,surface,-93.7504,25.9842,5.83e-05
2016-06-09 00:00:00,2016-06-09 00:00:00,PRATE,surface,-92.8129,25.9842,5.7e-05
2016-06-09 00:00:00,2016-06-09 00:00:00,PRATE,surface,-107.813,26.929,0.0001297
2016-06-09 00:00:00,2016-06-09 00:00:00,PRATE,surface,-106.875,26.929,9e-05
2016-06-09 00:00:00,2016-06-09 00:00:00,PRATE,surface,-105.938,26.929,4.74e-05
2016-06-09 00:00:00,2016-06-09 00:00:00,PRATE,surface,-105,26.929,2.54e-05
2016-06-09 00:00:00,2016-06-09 00:00:00,PRATE,surface,-104.063,26.929,1.38e-05
2016-06-09 00:00:00,2016-06-09 00:00:00,PRATE,surface,-103.125,26.929,2.44e-05
2016-06-09 00:00:00,2016-06-09 00:00:00,PRATE,surface,-102.188,26.929,2.62e-05
2016-06-09 00:00:00,2016-06-09 00:00:00,PRATE,surface,-101.25,26.929,4.14e-05
2016-06-09 00:00:00,2016-06-09 00:00:00,PRATE,surface,-100.313,26.929,2.03e-05
2016-06-09 00:00:00,2016-06-09 00:00:00,PRATE,surface,-99.3754,26.929,3.95e-05
2016-06-09 00:00:00,2016-06-09 00:00:00,PRATE,surface,-98.4379,26.929,0.0001008
2016-06-09 00:00:00,2016-06-09 00:00:00,PRATE,surface,-97.5004,26.929,8.85e-05
2016-06-09 00:00:00,2016-06-09 00:00:00,PRATE,surface,-96.5629,26.929,6.06e-05
2016-06-09 00:00:00,2016-06-09 00:00:00,PRATE,surface,-95.6254,26.929,5.26e-05
2016-06-09 00:00:00,2016-06-09 00:00:00,PRATE,surface,-94.6879,26.929,4.67e-05
2016-06-09 00:00:00,2016-06-09 00:00:00,PRATE,surface,-93.7504,26.929,4.57e-05
2016-06-09 00:00:00,2016-06-09 00:00:00,PRATE,surface,-92.8129,26.929,3.33e-05
2016-06-09 00:00:00,2016-06-09 00:00:00,PRATE,surface,-107.813,27.8739,0.0001066
2016-06-09 00:00:00,2016-06-09 00:00:00,PRATE,surface,-106.875,27.8739,4.33e-05
2016-06-09 00:00:00,2016-06-09 00:00:00,PRATE,surface,-105.938,27.8739,1.62e-05
2016-06-09 00:00:00,2016-06-09 00:00:00,PRATE,surface,-105,27.8739,3.4e-06
2016-06-09 00:00:00,2016-06-09 00:00:00,PRATE,surface,-104.063,27.8739,3.85e-05
2016-06-09 00:00:00,2016-06-09 00:00:00,PRATE,surface,-103.125,27.8739,4.9e-05
2016-06-09 00:00:00,2016-06-09 00:00:00,PRATE,surface,-102.188,27.8739,5.54e-05
2016-06-09 00:00:00,2016-06-09 00:00:00,PRATE,surface,-101.25,27.8739,2.12e-05
2016-06-09 00:00:00,2016-06-09 00:00:00,PRATE,surface,-100.313,27.8739,1.13e-05
2016-06-09 00:00:00,2016-06-09 00:00:00,PRATE,surface,-99.3754,27.8739,4.48e-05
2016-06-09 00:00:00,2016-06-09 00:00:00,PRATE,surface,-98.4379,27.8739,9.45e-05
2016-06-09 00:00:00,2016-06-09 00:00:00,PRATE,surface,-97.5004,27.8739,8.19e-05
2016-06-09 00:00:00,2016-06-09 00:00:00,PRATE,surface,-96.5629,27.8739,3.65e-05
2016-06-09 00:00:00,2016-06-09 00:00:00,PRATE,surface,-95.6254,27.8739,3.31e-05
2016-06-09 00:00:00,2016-06-09 00:00:00,PRATE,surface,-94.6879,27.8739,4.93e-05
2016-06-09 00:00:00,2016-06-09 00:00:00,PRATE,surface,-93.7504,27.8739,5.25e-05
2016-06-09 00:00:00,2016-06-09 00:00:00,PRATE,surface,-92.8129,27.8739,5e-05
2016-06-09 00:00:00,2016-06-09 00:00:00,PRATE,surface,-107.813,28.8188,6.98e-05
2016-06-09 00:00:00,2016-06-09 00:00:00,PRATE,surface,-106.875,28.8188,2.98e-05
2016-06-09 00:00:00,2016-06-09 00:00:00,PRATE,surface,-105.938,28.8188,6.3e-06
2016-06-09 00:00:00,2016-06-09 00:00:00,PRATE,surface,-105,28.8188,5.1e-06
2016-06-09 00:00:00,2016-06-09 00:00:00,PRATE,surface,-104.063,28.8188,2.92e-05
2016-06-09 00:00:00,2016-06-09 00:00:00,PRATE,surface,-103.125,28.8188,3.09e-05
2016-06-09 00:00:00,2016-06-09 00:00:00,PRATE,surface,-102.188,28.8188,1.97e-05
2016-06-09 00:00:00,2016-06-09 00:00:00,PRATE,surface,-101.25,28.8188,6.5e-06
2016-06-09 00:00:00,2016-06-09 00:00:00,PRATE,surface,-100.313,28.8188,2.19e-05
2016-06-09 00:00:00,2016-06-09 00:00:00,PRATE,surface,-99.3754,28.8188,5.52e-05
2016-06-09 00:00:00,2016-06-09 00:00:00,PRATE,surface,-98.4379,28.8188,8.6e-05
2016-06-09 00:00:00,2016-06-09 00:00:00,PRATE,surface,-97.5004,28.8188,7.76e-05
2016-06-09 00:00:00,2016-06-09 00:00:00,PRATE,surface,-96.5629,28.8188,4.82e-05
2016-06-09 00:00:00,2016-06-09 00:00:00,PRATE,surface,-95.6254,28.8188,3.76e-05
2016-06-09 00:00:00,2016-06-09 00:00:00,PRATE,surface,-94.6879,28.8188,4.01e-05
2016-06-09 00:00:00,2016-06-09 00:00:00,PRATE,surface,-93.7504,28.8188,4.42e-05
2016-06-09 00:00:00,2016-06-09 00:00:00,PRATE,surface,-92.8129,28.8188,4.71e-05
2016-06-09 00:00:00,2016-06-09 00:00:00,PRATE,surface,-107.813,29.7637,2.84e-05
2016-06-09 00:00:00,2016-06-09 00:00:00,PRATE,surface,-106.875,29.7637,1.6e-05
2016-06-09 00:00:00,2016-06-09 00:00:00,PRATE,surface,-105.938,29.7637,5e-06
2016-06-09 00:00:00,2016-06-09 00:00:00,PRATE,surface,-105,29.7637,5.1e-06
2016-06-09 00:00:00,2016-06-09 00:00:00,PRATE,surface,-104.063,29.7637,1.17e-05
2016-06-09 00:00:00,2016-06-09 00:00:00,PRATE,surface,-103.125,29.7637,9.4e-06
2016-06-09 00:00:00,2016-06-09 00:00:00,PRATE,surface,-102.188,29.7637,5.3e-06
2016-06-09 00:00:00,2016-06-09 00:00:00,PRATE,surface,-101.25,29.7637,5.3e-06
2016-06-09 00:00:00,2016-06-09 00:00:00,PRATE,surface,-100.313,29.7637,2.49e-05
2016-06-09 00:00:00,2016-06-09 00:00:00,PRATE,surface,-99.3754,29.7637,5.93e-05
2016-06-09 00:00:00,2016-06-09 00:00:00,PRATE,surface,-98.4379,29.7637,6.94e-05
2016-06-09 00:00:00,2016-06-09 00:00:00,PRATE,surface,-97.5004,29.7637,5.2e-05
2016-06-09 00:00:00,2016-06-09 00:00:00,PRATE,surface,-96.5629,29.7637,4.49e-05
2016-06-09 00:00:00,2016-06-09 00:00:00,PRATE,surface,-95.6254,29.7637,5.99e-05
2016-06-09 00:00:00,2016-06-09 00:00:00,PRATE,surface,-94.6879,29.7637,6.24e-05
2016-06-09 00:00:00,2016-06-09 00:00:00,PRATE,surface,-93.7504,29.7637,4.4e-05
2016-06-09 00:00:00,2016-06-09 00:00:00,PRATE,surface,-92.8129,29.7637,5.08e-05
2016-06-09 00:00:00,2016-06-09 00:00:00,PRATE,surface,-107.813,30.7085,4.6e-06
2016-06-09 00:00:00,2016-06-09 00:00:00,PRATE,surface,-106.875,30.7085,3.5e-06
2016-06-09 00:00:00,2016-06-09 00:00:00,PRATE,surface,-105.938,30.7085,6e-06
2016-06-09 00:00:00,2016-06-09 00:00:00,PRATE,surface,-105,30.7085,1.04e-05
2016-06-09 00:00:00,2016-06-09 00:00:00,PRATE,surface,-104.063,30.7085,1.01e-05
2016-06-09 00:00:00,2016-06-09 00:00:00,PRATE,surface,-103.125,30.7085,6.2e-06
2016-06-09 00:00:00,2016-06-09 00:00:00,PRATE,surface,-102.188,30.7085,7.5e-06
2016-06-09 00:00:00,2016-06-09 00:00:00,PRATE,surface,-101.25,30.7085,1.62e-05
2016-06-09 00:00:00,2016-06-09 00:00:00,PRATE,surface,-100.313,30.7085,3.17e-05
2016-06-09 00:00:00,2016-06-09 00:00:00,PRATE,surface,-99.3754,30.7085,4.96e-05
2016-06-09 00:00:00,2016-06-09 00:00:00,PRATE,surface,-98.4379,30.7085,4.31e-05
2016-06-09 00:00:00,2016-06-09 00:00:00,PRATE,surface,-97.5004,30.7085,3.66e-05
2016-06-09 00:00:00,2016-06-09 00:00:00,PRATE,surface,-96.5629,30.7085,4.42e-05
2016-06-09 00:00:00,2016-06-09 00:00:00,PRATE,surface,-95.6254,30.7085,5.21e-05
2016-06-09 00:00:00,2016-06-09 00:00:00,PRATE,surface,-94.6879,30.7085,5.12e-05
2016-06-09 00:00:00,2016-06-09 00:00:00,PRATE,surface,-93.7504,30.7085,4.01e-05
2016-06-09 00:00:00,2016-06-09 00:00:00,PRATE,surface,-92.8129,30.7085,5.57e-05
2016-06-09 00:00:00,2016-06-09 00:00:00,PRATE,surface,-107.813,31.6534,4.9e-06
2016-06-09 00:00:00,2016-06-09 00:00:00,PRATE,surface,-106.875,31.6534,7.4e-06
2016-06-09 00:00:00,2016-06-09 00:00:00,PRATE,surface,-105.938,31.6534,7.6e-06
2016-06-09 00:00:00,2016-06-09 00:00:00,PRATE,surface,-105,31.6534,1.19e-05
2016-06-09 00:00:00,2016-06-09 00:00:00,PRATE,surface,-104.063,31.6534,7.8e-06
2016-06-09 00:00:00,2016-06-09 00:00:00,PRATE,surface,-103.125,31.6534,6.5e-06
2016-06-09 00:00:00,2016-06-09 00:00:00,PRATE,surface,-102.188,31.6534,8.7e-06
2016-06-09 00:00:00,2016-06-09 00:00:00,PRATE,surface,-101.25,31.6534,1.75e-05
2016-06-09 00:00:00,2016-06-09 00:00:00,PRATE,surface,-100.313,31.6534,2.6e-05
2016-06-09 00:00:00,2016-06-09 00:00:00,PRATE,surface,-99.3754,31.6534,2.67e-05
2016-06-09 00:00:00,2016-06-09 00:00:00,PRATE,surface,-98.4379,31.6534,2.64e-05
2016-06-09 00:00:00,2016-06-09 00:00:00,PRATE,surface,-97.5004,31.6534,2.75e-05
2016-06-09 00:00:00,2016-06-09 00:00:00,PRATE,surface,-96.5629,31.6534,2.84e-05
2016-06-09 00:00:00,2016-06-09 00:00:00,PRATE,surface,-95.6254,31.6534,2.95e-05
2016-06-09 00:00:00,2016-06-09 00:00:00,PRATE,surface,-94.6879,31.6534,2.76e-05
2016-06-09 00:00:00,2016-06-09 00:00:00,PRATE,surface,-93.7504,31.6534,2.32e-05
2016-06-09 00:00:00,2016-06-09 00:00:00,PRATE,surface,-92.8129,31.6534,2.78e-05
2016-06-09 00:00:00,2016-06-09 00:00:00,PRATE,surface,-107.813,32.5983,4.04e-05
2016-06-09 00:00:00,2016-06-09 00:00:00,PRATE,surface,-106.875,32.5983,4.8e-05
2016-06-09 00:00:00,2016-06-09 00:00:00,PRATE,surface,-105.938,32.5983,3.43e-05
2016-06-09 00:00:00,2016-06-09 00:00:00,PRATE,surface,-105,32.5983,1.6e-05
2016-06-09 00:00:00,2016-06-09 00:00:00,PRATE,surface,-104.063,32.5983,8.8e-06
2016-06-09 00:00:00,2016-06-09 00:00:00,PRATE,surface,-103.125,32.5983,9.1e-06
2016-06-09 00:00:00,2016-06-09 00:00:00,PRATE,surface,-102.188,32.5983,7e-06
2016-06-09 00:00:00,2016-06-09 00:00:00,PRATE,surface,-101.25,32.5983,1.34e-05
2016-06-09 00:00:00,2016-06-09 00:00:00,PRATE,surface,-100.313,32.5983,1.23e-05
2016-06-09 00:00:00,2016-06-09 00:00:00,PRATE,surface,-99.3754,32.5983,8.8e-06
2016-06-09 00:00:00,2016-06-09 00:00:00,PRATE,surface,-98.4379,32.5983,1.34e-05
2016-06-09 00:00:00,2016-06-09 00:00:00,PRATE,surface,-97.5004,32.5983,2.21e-05
2016-06-09 00:00:00,2016-06-09 00:00:00,PRATE,surface,-96.5629,32.5983,2.22e-05
2016-06-09 00:00:00,2016-06-09 00:00:00,PRATE,surface,-95.6254,32.5983,1.73e-05
2016-06-09 00:00:00,2016-06-09 00:00:00,PRATE,surface,-94.6879,32.5983,1.56e-05
2016-06-09 00:00:00,2016-06-09 00:00:00,PRATE,surface,-93.7504,32.5983,1e-05
2016-06-09 00:00:00,2016-06-09 00:00:00,PRATE,surface,-92.8129,32.5983,8.3e-06
2016-06-09 00:00:00,2016-06-09 00:00:00,PRATE,surface,-107.813,33.5432,7.65e-05
2016-06-09 00:00:00,2016-06-09 00:00:00,PRATE,surface,-106.875,33.5432,7.2e-05
2016-06-09 00:00:00,2016-06-09 00:00:00,PRATE,surface,-105.938,33.5432,4.38e-05
2016-06-09 00:00:00,2016-06-09 00:00:00,PRATE,surface,-105,33.5432,1.92e-05
2016-06-09 00:00:00,2016-06-09 00:00:00,PRATE,surface,-104.063,33.5432,1.3e-05
2016-06-09 00:00:00,2016-06-09 00:00:00,PRATE,surface,-103.125,33.5432,1.03e-05
2016-06-09 00:00:00,2016-06-09 00:00:00,PRATE,surface,-102.188,33.5432,8.2e-06
2016-06-09 00:00:00,2016-06-09 00:00:00,PRATE,surface,-101.25,33.5432,1.44e-05
2016-06-09 00:00:00,2016-06-09 00:00:00,PRATE,surface,-100.313,33.5432,9.4e-06
2016-06-09 00:00:00,2016-06-09 00:00:00,PRATE,surface,-99.3754,33.5432,5.4e-06
2016-06-09 00:00:00,2016-06-09 00:00:00,PRATE,surface,-98.4379,33.5432,1.03e-05
2016-06-09 00:00:00,2016-06-09 00:00:00,PRATE,surface,-97.5004,33.5432,1.55e-05
2016-06-09 00:00:00,2016-06-09 00:00:00,PRATE,surface,-96.5629,33.5432,1.48e-05
2016-06-09 00:00:00,2016-06-09 00:00:00,PRATE,surface,-95.6254,33.5432,1.25e-05
2016-06-09 00:00:00,2016-06-09 00:00:00,PRATE,surface,-94.6879,33.5432,1.19e-05
2016-06-09 00:00:00,2016-06-09 00:00:00,PRATE,surface,-93.7504,33.5432,1.09e-05
2016-06-09 00:00:00,2016-06-09 00:00:00,PRATE,surface,-92.8129,33.5432,8.8e-06
2016-06-09 00:00:00,2016-06-09 00:00:00,PRATE,surface,-107.813,34.4881,4.02e-05
2016-06-09 00:00:00,2016-06-09 00:00:00,PRATE,surface,-106.875,34.4881,2.2e-05
2016-06-09 00:00:00,2016-06-09 00:00:00,PRATE,surface,-105.938,34.4881,1.02e-05
2016-06-09 00:00:00,2016-06-09 00:00:00,PRATE,surface,-105,34.4881,1.02e-05
2016-06-09 00:00:00,2016-06-09 00:00:00,PRATE,surface,-104.063,34.4881,1.32e-05
2016-06-09 00:00:00,2016-06-09 00:00:00,PRATE,surface,-103.125,34.4881,8.2e-06
2016-06-09 00:00:00,2016-06-09 00:00:00,PRATE,surface,-102.188,34.4881,8.4e-06
2016-06-09 00:00:00,2016-06-09 00:00:00,PRATE,surface,-101.25,34.4881,1.63e-05
2016-06-09 00:00:00,2016-06-09 00:00:00,PRATE,surface,-100.313,34.4881,1.09e-05
2016-06-09 00:00:00,2016-06-09 00:00:00,PRATE,surface,-99.3754,34.4881,8.3e-06
2016-06-09 00:00:00,2016-06-09 00:00:00,PRATE,surface,-98.4379,34.4881,1.25e-05
2016-06-09 00:00:00,2016-06-09 00:00:00,PRATE,surface,-97.5004,34.4881,1.28e-05
2016-06-09 00:00:00,2016-06-09 00:00:00,PRATE,surface,-96.5629,34.4881,1.06e-05
2016-06-09 00:00:00,2016-06-09 00:00:00,PRATE,surface,-95.6254,34.4881,1.37e-05
2016-06-09 00:00:00,2016-06-09 00:00:00,PRATE,surface,-94.6879,34.4881,1.85e-05
2016-06-09 00:00:00,2016-06-09 00:00:00,PRATE,surface,-93.7504,34.4881,1.9e-05
2016-06-09 00:00:00,2016-06-09 00:00:00,PRATE,surface,-92.8129,34.4881,1.39e-05
2016-06-09 00:00:00,2016-06-09 00:00:00,PRATE,surface,-107.813,35.4329,1.14e-05
2016-06-09 00:00:00,2016-06-09 00:00:00,PRATE,surface,-106.875,35.4329,1.09e-05
2016-06-09 00:00:00,2016-06-09 00:00:00,PRATE,surface,-105.938,35.4329,1.4e-05
2016-06-09 00:00:00,2016-06-09 00:00:00,PRATE,surface,-105,35.4329,2.78e-05
2016-06-09 00:00:00,2016-06-09 00:00:00,PRATE,surface,-104.063,35.4329,2.12e-05
2016-06-09 00:00:00,2016-06-09 00:00:00,PRATE,surface,-103.125,35.4329,1.1e-05
2016-06-09 00:00:00,2016-06-09 00:00:00,PRATE,surface,-102.188,35.4329,1.15e-05
2016-06-09 00:00:00,2016-06-09 00:00:00,PRATE,surface,-101.25,35.4329,1.13e-05
2016-06-09 00:00:00,2016-06-09 00:00:00,PRATE,surface,-100.313,35.4329,1.13e-05
2016-06-09 00:00:00,2016-06-09 00:00:00,PRATE,surface,-99.3754,35.4329,8.8e-06
2016-06-09 00:00:00,2016-06-09 00:00:00,PRATE,surface,-98.4379,35.4329,1.08e-05
2016-06-09 00:00:00,2016-06-09 00:00:00,PRATE,surface,-97.5004,35.4329,1.12e-05
2016-06-09 00:00:00,2016-06-09 00:00:00,PRATE,surface,-96.5629,35.4329,1.14e-05
2016-06-09 00:00:00,2016-06-09 00:00:00,PRATE,surface,-95.6254,35.4329,2.01e-05
2016-06-09 00:00:00,2016-06-09 00:00:00,PRATE,surface,-94.6879,35.4329,3.01e-05
2016-06-09 00:00:00,2016-06-09 00:00:00,PRATE,surface,-93.7504,35.4329,2.79e-05
2016-06-09 00:00:00,2016-06-09 00:00:00,PRATE,surface,-92.8129,35.4329,1.51e-05
2016-06-09 00:00:00,2016-06-09 00:00:00,PRATE,surface,-107.813,36.3778,1.38e-05
2016-06-09 00:00:00,2016-06-09 00:00:00,PRATE,surface,-106.875,36.3778,2.73e-05
2016-06-09 00:00:00,2016-06-09 00:00:00,PRATE,surface,-105.938,36.3778,3.17e-05
2016-06-09 00:00:00,2016-06-09 00:00:00,PRATE,surface,-105,36.3778,3.96e-05
2016-06-09 00:00:00,2016-06-09 00:00:00,PRATE,surface,-104.063,36.3778,3.1e-05
2016-06-09 00:00:00,2016-06-09 00:00:00,PRATE,surface,-103.125,36.3778,1.61e-05
2016-06-09 00:00:00,2016-06-09 00:00:00,PRATE,surface,-102.188,36.3778,1.7e-05
2016-06-09 00:00:00,2016-06-09 00:00:00,PRATE,surface,-101.25,36.3778,1.64e-05
2016-06-09 00:00:00,2016-06-09 00:00:00,PRATE,surface,-100.313,36.3778,1.45e-05
2016-06-09 00:00:00,2016-06-09 00:00:00,PRATE,surface,-99.3754,36.3778,1.24e-05
2016-06-09 00:00:00,2016-06-09 00:00:00,PRATE,surface,-98.4379,36.3778,1.46e-05
2016-06-09 00:00:00,2016-06-09 00:00:00,PRATE,surface,-97.5004,36.3778,1.6e-05
2016-06-09 00:00:00,2016-06-09 00:00:00,PRATE,surface,-96.5629,36.3778,1.52e-05
2016-06-09 00:00:00,2016-06-09 00:00:00,PRATE,surface,-95.6254,36.3778,2.02e-05
2016-06-09 00:00:00,2016-06-09 00:00:00,PRATE,surface,-94.6879,36.3778,2.49e-05
2016-06-09 00:00:00,2016-06-09 00:00:00,PRATE,surface,-93.7504,36.3778,1.7e-05
2016-06-09 00:00:00,2016-06-09 00:00:00,PRATE,surface,-92.8129,36.3778,1.59e-05
