2015-06-30 00:00:00,2015-06-30 00:00:00,TMP,surface,-107.813,25.0393,298.153
2015-06-30 00:00:00,2015-06-30 00:00:00,TMP,surface,-106.875,25.0393,291.664
2015-06-30 00:00:00,2015-06-30 00:00:00,TMP,surface,-105.938,25.0393,286.603
2015-06-30 00:00:00,2015-06-30 00:00:00,TMP,surface,-105,25.0393,285.163
2015-06-30 00:00:00,2015-06-30 00:00:00,TMP,surface,-104.063,25.0393,288.044
2015-06-30 00:00:00,2015-06-30 00:00:00,TMP,surface,-103.125,25.0393,290.611
2015-06-30 00:00:00,2015-06-30 00:00:00,TMP,surface,-102.188,25.0393,290.414
2015-06-30 00:00:00,2015-06-30 00:00:00,TMP,surface,-101.25,25.0393,288.433
2015-06-30 00:00:00,2015-06-30 00:00:00,TMP,surface,-100.313,25.0393,288.772
2015-06-30 00:00:00,2015-06-30 00:00:00,TMP,surface,-99.3754,25.0393,291.584
2015-06-30 00:00:00,2015-06-30 00:00:00,TMP,surface,-98.4379,25.0393,295.118
2015-06-30 00:00:00,2015-06-30 00:00:00,TMP,surface,-97.5004,25.0393,300.147
2015-06-30 00:00:00,2015-06-30 00:00:00,TMP,surface,-96.5629,25.0393,300.414
2015-06-30 00:00:00,2015-06-30 00:00:00,TMP,surface,-95.6254,25.0393,300.872
2015-06-30 00:00:00,2015-06-30 00:00:00,TMP,surface,-94.6879,25.0393,301.11
2015-06-30 00:00:00,2015-06-30 00:00:00,TMP,surface,-93.7504,25.0393,301.078
2015-06-30 00:00:00,2015-06-30 00:00:00,TMP,surface,-92.8129,25.0393,301.123
2015-06-30 00:00:00,2015-06-30 00:00:00,TMP,surface,-107.813,25.9842,292.672
2015-06-30 00:00:00,2015-06-30 00:00:00,TMP,surface,-106.875,25.9842,287.643
2015-06-30 00:00:00,2015-06-30 00:00:00,TMP,surface,-105.938,25.9842,285.316
2015-06-30 00:00:00,2015-06-30 00:00:00,TMP,surface,-105,25.9842,286.596
2015-06-30 00:00:00,2015-06-30 00:00:00,TMP,surface,-104.063,25.9842,290.395
2015-06-30 00:00:00,2015-06-30 00:00:00,TMP,surface,-103.125,25.9842,292.208
2015-06-30 00:00:00,2015-06-30 00:00:00,TMP,surface,-102.188,25.9842,291.504
2015-06-30 00:00:00,2015-06-30 00:00:00,TMP,surface,-101.25,25.9842,290.411
2015-06-30 00:00:00,2015-06-30 00:00:00,TMP,surface,-100.313,25.9842,290.656
2015-06-30 00:00:00,2015-06-30 00:00:00,TMP,surface,-99.3754,25.9842,293.179
2015-06-30 00:00:00,2015-06-30 00:00:00,TMP,surface,-98.4379,25.9842,295.518
2015-06-30 00:00:00,2015-06-30 00:00:00,TMP,surface,-97.5004,25.9842,297.097
2015-06-30 00:00:00,2015-06-30 00:00:00,TMP,surface,-96.5629,25.9842,299.784
2015-06-30 00:00:00,2015-06-30 00:00:00,TMP,surface,-95.6254,25.9842,300.366
2015-06-30 00:00:00,2015-06-30 00:00:00,TMP,surface,-94.6879,25.9842,300.56
2015-06-30 00:00:00,2015-06-30 00:00:00,TMP,surface,-93.7504,25.9842,300.696
2015-06-30 00:00:00,2015-06-30 00:00:00,TMP,surface,-92.8129,25.9842,300.904
2015-06-30 00:00:00,2015-06-30 00:00:00,TMP,surface,-107.813,26.929,288.488
2015-06-30 00:00:00,2015-06-30 00:00:00,TMP,surface,-106.875,26.929,285.059
2015-06-30 00:00:00,2015-06-30 00:00:00,TMP,surface,-105.938,26.929,286.072
2015-06-30 00:00:00,2015-06-30 00:00:00,TMP,surface,-105,26.929,288.582
2015-06-30 00:00:00,2015-06-30 00:00:00,TMP,surface,-104.063,26.929,290.814
2015-06-30 00:00:00,2015-06-30 00:00:00,TMP,surface,-103.125,26.929,290.689
2015-06-30 00:00:00,2015-06-30 00:00:00,TMP,surface,-102.188,26.929,290.51
2015-06-30 00:00:00,2015-06-30 00:00:00,TMP,surface,-101.25,26.929,291.348
2015-06-30 00:00:00,2015-06-30 00:00:00,TMP,surface,-100.313,26.929,292.753
2015-06-30 00:00:00,2015-06-30 00:00:00,TMP,surface,-99.3754,26.929,294.241
2015-06-30 00:00:00,2015-06-30 00:00:00,TMP,surface,-98.4379,26.929,294.806
2015-06-30 00:00:00,2015-06-30 00:00:00,TMP,surface,-97.5004,26.929,298.764
2015-06-30 00:00:00,2015-06-30 00:00:00,TMP,surface,-96.5629,26.929,299.371
2015-06-30 00:00:00,2015-06-30 00:00:00,TMP,surface,-95.6254,26.929,299.833
2015-06-30 00:00:00,2015-06-30 00:00:00,TMP,surface,-94.6879,26.929,300.02
2015-06-30 00:00:00,2015-06-30 00:00:00,TMP,surface,-93.7504,26.929,300.121
2015-06-30 00:00:00,2015-06-30 00:00:00,TMP,surface,-92.8129,26.929,300.366
2015-06-30 00:00:00,2015-06-30 00:00:00,TMP,surface,-107.813,27.8739,285.952
2015-06-30 00:00:00,2015-06-30 00:00:00,TMP,surface,-106.875,27.8739,284.47
2015-06-30 00:00:00,2015-06-30 00:00:00,TMP,surface,-105.938,27.8739,286.848
2015-06-30 00:00:00,2015-06-30 00:00:00,TMP,surface,-105,27.8739,289.708
2015-06-30 00:00:00,2015-06-30 00:00:00,TMP,surface,-104.063,27.8739,290.121
2015-06-30 00:00:00,2015-06-30 00:00:00,TMP,surface,-103.125,27.8739,289.124
2015-06-30 00:00:00,2015-06-30 00:00:00,TMP,surface,-102.188,27.8739,289.275
2015-06-30 00:00:00,2015-06-30 00:00:00,TMP,surface,-101.25,27.8739,291.099
2015-06-30 00:00:00,2015-06-30 00:00:00,TMP,surface,-100.313,27.8739,293.214
2015-06-30 00:00:00,2015-06-30 00:00:00,TMP,surface,-99.3754,27.8739,293.873
2015-06-30 00:00:00,2015-06-30 00:00:00,TMP,surface,-98.4379,27.8739,293.977
2015-06-30 00:00:00,2015-06-30 00:00:00,TMP,surface,-97.5004,27.8739,296.905
2015-06-30 00:00:00,2015-06-30 00:00:00,TMP,surface,-96.5629,27.8739,299.892
2015-06-30 00:00:00,2015-06-30 00:00:00,TMP,surface,-95.6254,27.8739,299.979
2015-06-30 00:00:00,2015-06-30 00:00:00,TMP,surface,-94.6879,27.8739,299.744
2015-06-30 00:00:00,2015-06-30 00:00:00,TMP,surface,-93.7504,27.8739,299.675
2015-06-30 00:00:00,2015-06-30 00:00:00,TMP,surface,-92.8129,27.8739,299.782
2015-06-30 00:00:00,2015-06-30 00:00:00,TMP,surface,-107.813,28.8188,284.59
2015-06-30 00:00:00,2015-06-30 00:00:00,TMP,surface,-106.875,28.8188,284.633
2015-06-30 00:00:00,2015-06-30 00:00:00,TMP,surface,-105.938,28.8188,287.515
2015-06-30 00:00:00,2015-06-30 00:00:00,TMP,surface,-105,28.8188,289.476
2015-06-30 00:00:00,2015-06-30 00:00:00,TMP,surface,-104.063,28.8188,288.63
2015-06-30 00:00:00,2015-06-30 00:00:00,TMP,surface,-103.125,28.8188,288.089
2015-06-30 00:00:00,2015-06-30 00:00:00,TMP,surface,-102.188,28.8188,288.766
2015-06-30 00:00:00,2015-06-30 00:00:00,TMP,surface,-101.25,28.8188,290.552
2015-06-30 00:00:00,2015-06-30 00:00:00,TMP,surface,-100.313,28.8188,291.892
2015-06-30 00:00:00,2015-06-30 00:00:00,TMP,surface,-99.3754,28.8188,291.814
2015-06-30 00:00:00,2015-06-30 00:00:00,TMP,surface,-98.4379,28.8188,291.612
2015-06-30 00:00:00,2015-06-30 00:00:00,TMP,surface,-97.5004,28.8188,292.035
2015-06-30 00:00:00,2015-06-30 00:00:00,TMP,surface,-96.5629,28.8188,293.089
2015-06-30 00:00:00,2015-06-30 00:00:00,TMP,surface,-95.6254,28.8188,296.024
2015-06-30 00:00:00,2015-06-30 00:00:00,TMP,surface,-94.6879,28.8188,299.396
2015-06-30 00:00:00,2015-06-30 00:00:00,TMP,surface,-93.7504,28.8188,299.278
2015-06-30 00:00:00,2015-06-30 00:00:00,TMP,surface,-92.8129,28.8188,299.332
2015-06-30 00:00:00,2015-06-30 00:00:00,TMP,surface,-107.813,29.7637,285.384
2015-06-30 00:00:00,2015-06-30 00:00:00,TMP,surface,-106.875,29.7637,286.062
2015-06-30 00:00:00,2015-06-30 00:00:00,TMP,surface,-105.938,29.7637,288.064
2015-06-30 00:00:00,2015-06-30 00:00:00,TMP,surface,-105,29.7637,288.161
2015-06-30 00:00:00,2015-06-30 00:00:00,TMP,surface,-104.063,29.7637,288.094
2015-06-30 00:00:00,2015-06-30 00:00:00,TMP,surface,-103.125,29.7637,288.603
2015-06-30 00:00:00,2015-06-30 00:00:00,TMP,surface,-102.188,29.7637,289.558
2015-06-30 00:00:00,2015-06-30 00:00:00,TMP,surface,-101.25,29.7637,290.206
2015-06-30 00:00:00,2015-06-30 00:00:00,TMP,surface,-100.313,29.7637,290.003
2015-06-30 00:00:00,2015-06-30 00:00:00,TMP,surface,-99.3754,29.7637,289.513
2015-06-30 00:00:00,2015-06-30 00:00:00,TMP,surface,-98.4379,29.7637,289.492
2015-06-30 00:00:00,2015-06-30 00:00:00,TMP,surface,-97.5004,29.7637,290.107
2015-06-30 00:00:00,2015-06-30 00:00:00,TMP,surface,-96.5629,29.7637,291.129
2015-06-30 00:00:00,2015-06-30 00:00:00,TMP,surface,-95.6254,29.7637,292.288
2015-06-30 00:00:00,2015-06-30 00:00:00,TMP,surface,-94.6879,29.7637,294.963
2015-06-30 00:00:00,2015-06-30 00:00:00,TMP,surface,-93.7504,29.7637,297.864
2015-06-30 00:00:00,2015-06-30 00:00:00,TMP,surface,-92.8129,29.7637,293.758
2015-06-30 00:00:00,2015-06-30 00:00:00,TMP,surface,-107.813,30.7085,287.91
2015-06-30 00:00:00,2015-06-30 00:00:00,TMP,surface,-106.875,30.7085,288.676
2015-06-30 00:00:00,2015-06-30 00:00:00,TMP,surface,-105.938,30.7085,288.401
2015-06-30 00:00:00,2015-06-30 00:00:00,TMP,surface,-105,30.7085,287.52
2015-06-30 00:00:00,2015-06-30 00:00:00,TMP,surface,-104.063,30.7085,287.476
2015-06-30 00:00:00,2015-06-30 00:00:00,TMP,surface,-103.125,30.7085,288.64
2015-06-30 00:00:00,2015-06-30 00:00:00,TMP,surface,-102.188,30.7085,289.534
2015-06-30 00:00:00,2015-06-30 00:00:00,TMP,surface,-101.25,30.7085,289.603
2015-06-30 00:00:00,2015-06-30 00:00:00,TMP,surface,-100.313,30.7085,289.438
2015-06-30 00:00:00,2015-06-30 00:00:00,TMP,surface,-99.3754,30.7085,289.254
2015-06-30 00:00:00,2015-06-30 00:00:00,TMP,surface,-98.4379,30.7085,289.411
2015-06-30 00:00:00,2015-06-30 00:00:00,TMP,surface,-97.5004,30.7085,290.012
2015-06-30 00:00:00,2015-06-30 00:00:00,TMP,surface,-96.5629,30.7085,290.739
2015-06-30 00:00:00,2015-06-30 00:00:00,TMP,surface,-95.6254,30.7085,291.283
2015-06-30 00:00:00,2015-06-30 00:00:00,TMP,surface,-94.6879,30.7085,291.641
2015-06-30 00:00:00,2015-06-30 00:00:00,TMP,surface,-93.7504,30.7085,291.795
2015-06-30 00:00:00,2015-06-30 00:00:00,TMP,surface,-92.8129,30.7085,291.488
2015-06-30 00:00:00,2015-06-30 00:00:00,TMP,surface,-107.813,31.6534,288.641
2015-06-30 00:00:00,2015-06-30 00:00:00,TMP,surface,-106.875,31.6534,289.096
2015-06-30 00:00:00,2015-06-30 00:00:00,TMP,surface,-105.938,31.6534,287.652
2015-06-30 00:00:00,2015-06-30 00:00:00,TMP,surface,-105,31.6534,286.99
2015-06-30 00:00:00,2015-06-30 00:00:00,TMP,surface,-104.063,31.6534,287.672
2015-06-30 00:00:00,2015-06-30 00:00:00,TMP,surface,-103.125,31.6534,288.74
2015-06-30 00:00:00,2015-06-30 00:00:00,TMP,surface,-102.188,31.6534,289.268
2015-06-30 00:00:00,2015-06-30 00:00:00,TMP,surface,-101.25,31.6534,289.324
2015-06-30 00:00:00,2015-06-30 00:00:00,TMP,surface,-100.313,31.6534,289.568
2015-06-30 00:00:00,2015-06-30 00:00:00,TMP,surface,-99.3754,31.6534,289.961
2015-06-30 00:00:00,2015-06-30 00:00:00,TMP,surface,-98.4379,31.6534,290.177
2015-06-30 00:00:00,2015-06-30 00:00:00,TMP,surface,-97.5004,31.6534,290.371
2015-06-30 00:00:00,2015-06-30 00:00:00,TMP,surface,-96.5629,31.6534,290.7
2015-06-30 00:00:00,2015-06-30 00:00:00,TMP,surface,-95.6254,31.6534,290.985
2015-06-30 00:00:00,2015-06-30 00:00:00,TMP,surface,-94.6879,31.6534,291.081
2015-06-30 00:00:00,2015-06-30 00:00:00,TMP,surface,-93.7504,31.6534,291.041
2015-06-30 00:00:00,2015-06-30 00:00:00,TMP,surface,-92.8129,31.6534,290.985
2015-06-30 00:00:00,2015-06-30 00:00:00,TMP,surface,-107.813,32.5983,286.174
2015-06-30 00:00:00,2015-06-30 00:00:00,TMP,surface,-106.875,32.5983,286.246
2015-06-30 00:00:00,2015-06-30 00:00:00,TMP,surface,-105.938,32.5983,286.225
2015-06-30 00:00:00,2015-06-30 00:00:00,TMP,surface,-105,32.5983,286.134
2015-06-30 00:00:00,2015-06-30 00:00:00,TMP,surface,-104.063,32.5983,287.737
2015-06-30 00:00:00,2015-06-30 00:00:00,TMP,surface,-103.125,32.5983,288.763
2015-06-30 00:00:00,2015-06-30 00:00:00,TMP,surface,-102.188,32.5983,288.939
2015-06-30 00:00:00,2015-06-30 00:00:00,TMP,surface,-101.25,32.5983,289.292
2015-06-30 00:00:00,2015-06-30 00:00:00,TMP,surface,-100.313,32.5983,289.942
2015-06-30 00:00:00,2015-06-30 00:00:00,TMP,surface,-99.3754,32.5983,290.448
2015-06-30 00:00:00,2015-06-30 00:00:00,TMP,surface,-98.4379,32.5983,290.486
2015-06-30 00:00:00,2015-06-30 00:00:00,TMP,surface,-97.5004,32.5983,290.424
2015-06-30 00:00:00,2015-06-30 00:00:00,TMP,surface,-96.5629,32.5983,290.585
2015-06-30 00:00:00,2015-06-30 00:00:00,TMP,surface,-95.6254,32.5983,290.809
2015-06-30 00:00:00,2015-06-30 00:00:00,TMP,surface,-94.6879,32.5983,290.8
2015-06-30 00:00:00,2015-06-30 00:00:00,TMP,surface,-93.7504,32.5983,290.601
2015-06-30 00:00:00,2015-06-30 00:00:00,TMP,surface,-92.8129,32.5983,290.739
2015-06-30 00:00:00,2015-06-30 00:00:00,TMP,surface,-107.813,33.5432,283.115
2015-06-30 00:00:00,2015-06-30 00:00:00,TMP,surface,-106.875,33.5432,283.987
2015-06-30 00:00:00,2015-06-30 00:00:00,TMP,surface,-105.938,33.5432,284.612
2015-06-30 00:00:00,2015-06-30 00:00:00,TMP,surface,-105,33.5432,285.446
2015-06-30 00:00:00,2015-06-30 00:00:00,TMP,surface,-104.063,33.5432,287.345
2015-06-30 00:00:00,2015-06-30 00:00:00,TMP,surface,-103.125,33.5432,288.099
2015-06-30 00:00:00,2015-06-30 00:00:00,TMP,surface,-102.188,33.5432,288.256
2015-06-30 00:00:00,2015-06-30 00:00:00,TMP,surface,-101.25,33.5432,288.736
2015-06-30 00:00:00,2015-06-30 00:00:00,TMP,surface,-100.313,33.5432,289.659
2015-06-30 00:00:00,2015-06-30 00:00:00,TMP,surface,-99.3754,33.5432,290.248
2015-06-30 00:00:00,2015-06-30 00:00:00,TMP,surface,-98.4379,33.5432,290.097
2015-06-30 00:00:00,2015-06-30 00:00:00,TMP,surface,-97.5004,33.5432,289.724
2015-06-30 00:00:00,2015-06-30 00:00:00,TMP,surface,-96.5629,33.5432,289.66
2015-06-30 00:00:00,2015-06-30 00:00:00,TMP,surface,-95.6254,33.5432,289.833
2015-06-30 00:00:00,2015-06-30 00:00:00,TMP,surface,-94.6879,33.5432,289.889
2015-06-30 00:00:00,2015-06-30 00:00:00,TMP,surface,-93.7504,33.5432,289.728
2015-06-30 00:00:00,2015-06-30 00:00:00,TMP,surface,-92.8129,33.5432,289.676
2015-06-30 00:00:00,2015-06-30 00:00:00,TMP,surface,-107.813,34.4881,282.216
2015-06-30 00:00:00,2015-06-30 00:00:00,TMP,surface,-106.875,34.4881,283.548
2015-06-30 00:00:00,2015-06-30 00:00:00,TMP,surface,-105.938,34.4881,284.259
2015-06-30 00:00:00,2015-06-30 00:00:00,TMP,surface,-105,34.4881,285.15
2015-06-30 00:00:00,2015-06-30 00:00:00,TMP,surface,-104.063,34.4881,286.11
2015-06-30 00:00:00,2015-06-30 00:00:00,TMP,surface,-103.125,34.4881,286.881
2015-06-30 00:00:00,2015-06-30 00:00:00,TMP,surface,-102.188,34.4881,287.393
2015-06-30 00:00:00,2015-06-30 00:00:00,TMP,surface,-101.25,34.4881,288.03
2015-06-30 00:00:00,2015-06-30 00:00:00,TMP,surface,-100.313,34.4881,288.876
2015-06-30 00:00:00,2015-06-30 00:00:00,TMP,surface,-99.3754,34.4881,289.355
2015-06-30 00:00:00,2015-06-30 00:00:00,TMP,surface,-98.4379,34.4881,289.179
2015-06-30 00:00:00,2015-06-30 00:00:00,TMP,surface,-97.5004,34.4881,288.83
2015-06-30 00:00:00,2015-06-30 00:00:00,TMP,surface,-96.5629,34.4881,288.804
2015-06-30 00:00:00,2015-06-30 00:00:00,TMP,surface,-95.6254,34.4881,288.747
2015-06-30 00:00:00,2015-06-30 00:00:00,TMP,surface,-94.6879,34.4881,288.32
2015-06-30 00:00:00,2015-06-30 00:00:00,TMP,surface,-93.7504,34.4881,288.124
2015-06-30 00:00:00,2015-06-30 00:00:00,TMP,surface,-92.8129,34.4881,288.368
2015-06-30 00:00:00,2015-06-30 00:00:00,TMP,surface,-107.813,35.4329,283.296
2015-06-30 00:00:00,2015-06-30 00:00:00,TMP,surface,-106.875,35.4329,283.593
2015-06-30 00:00:00,2015-06-30 00:00:00,TMP,surface,-105.938,35.4329,283.436
2015-06-30 00:00:00,2015-06-30 00:00:00,TMP,surface,-105,35.4329,283.905
2015-06-30 00:00:00,2015-06-30 00:00:00,TMP,surface,-104.063,35.4329,285.588
2015-06-30 00:00:00,2015-06-30 00:00:00,TMP,surface,-103.125,35.4329,286.742
2015-06-30 00:00:00,2015-06-30 00:00:00,TMP,surface,-102.188,35.4329,287.195
2015-06-30 00:00:00,2015-06-30 00:00:00,TMP,surface,-101.25,35.4329,287.588
2015-06-30 00:00:00,2015-06-30 00:00:00,TMP,surface,-100.313,35.4329,287.924
2015-06-30 00:00:00,2015-06-30 00:00:00,TMP,surface,-99.3754,35.4329,288.091
2015-06-30 00:00:00,2015-06-30 00:00:00,TMP,surface,-98.4379,35.4329,288.148
2015-06-30 00:00:00,2015-06-30 00:00:00,TMP,surface,-97.5004,35.4329,288.329
2015-06-30 00:00:00,2015-06-30 00:00:00,TMP,surface,-96.5629,35.4329,288.587
2015-06-30 00:00:00,2015-06-30 00:00:00,TMP,surface,-95.6254,35.4329,288.475
2015-06-30 00:00:00,2015-06-30 00:00:00,TMP,surface,-94.6879,35.4329,287.862
2015-06-30 00:00:00,2015-06-30 00:00:00,TMP,surface,-93.7504,35.4329,287.278
2015-06-30 00:00:00,2015-06-30 00:00:00,TMP,surface,-92.8129,35.4329,287.097
2015-06-30 00:00:00,2015-06-30 00:00:00,TMP,surface,-107.813,36.3778,283.353
2015-06-30 00:00:00,2015-06-30 00:00:00,TMP,surface,-106.875,36.3778,281.55
2015-06-30 00:00:00,2015-06-30 00:00:00,TMP,surface,-105.938,36.3778,281.486
2015-06-30 00:00:00,2015-06-30 00:00:00,TMP,surface,-105,36.3778,282.321
2015-06-30 00:00:00,2015-06-30 00:00:00,TMP,surface,-104.063,36.3778,284.529
2015-06-30 00:00:00,2015-06-30 00:00:00,TMP,surface,-103.125,36.3778,285.896
2015-06-30 00:00:00,2015-06-30 00:00:00,TMP,surface,-102.188,36.3778,286.752
2015-06-30 00:00:00,2015-06-30 00:00:00,TMP,surface,-101.25,36.3778,287.264
2015-06-30 00:00:00,2015-06-30 00:00:00,TMP,surface,-100.313,36.3778,287.528
2015-06-30 00:00:00,2015-06-30 00:00:00,TMP,surface,-99.3754,36.3778,287.576
2015-06-30 00:00:00,2015-06-30 00:00:00,TMP,surface,-98.4379,36.3778,287.492
2015-06-30 00:00:00,2015-06-30 00:00:00,TMP,surface,-97.5004,36.3778,287.7
2015-06-30 00:00:00,2015-06-30 00:00:00,TMP,surface,-96.5629,36.3778,288.099
2015-06-30 00:00:00,2015-06-30 00:00:00,TMP,surface,-95.6254,36.3778,288.024
2015-06-30 00:00:00,2015-06-30 00:00:00,TMP,surface,-94.6879,36.3778,287.238
2015-06-30 00:00:00,2015-06-30 00:00:00,TMP,surface,-93.7504,36.3778,286.363
2015-06-30 00:00:00,2015-06-30 00:00:00,TMP,surface,-92.8129,36.3778,286.228
2015-06-30 00:00:00,2015-06-30 00:00:00,PRATE,surface,-107.813,25.0393,8.17e-05
2015-06-30 00:00:00,2015-06-30 00:00:00,PRATE,surface,-106.875,25.0393,0.0001064
2015-06-30 00:00:00,2015-06-30 00:00:00,PRATE,surface,-105.938,25.0393,0.0001002
2015-06-30 00:00:00,2015-06-30 00:00:00,PRATE,surface,-105,25.0393,6.11e-05
2015-06-30 00:00:00,2015-06-30 00:00:00,PRATE,surface,-104.063,25.0393,3.58e-05
2015-06-30 00:00:00,2015-06-30 00:00:00,PRATE,surface,-103.125,25.0393,2.05e-05
2015-06-30 00:00:00,2015-06-30 00:00:00,PRATE,surface,-102.188,25.0393,2.68e-05
2015-06-30 00:00:00,2015-06-30 00:00:00,PRATE,surface,-101.25,25.0393,4.48e-05
2015-06-30 00:00:00,2015-06-30 00:00:00,PRATE,surface,-100.313,25.0393,7.95e-05
2015-06-30 00:00:00,2015-06-30 00:00:00,PRATE,surface,-99.3754,25.0393,8.26e-05
2015-06-30 00:00:00,2015-06-30 00:00:00,PRATE,surface,-98.4379,25.0393,5.86e-05
2015-06-30 00:00:00,2015-06-30 00:00:00,PRATE,surface,-97.5004,25.0393,6.74e-05
2015-06-30 00:00:00,2015-06-30 00:00:00,PRATE,surface,-96.5629,25.0393,9.19e-05
2015-06-30 00:00:00,2015-06-30 00:00:00,PRATE,surface,-95.6254,25.0393,0.0001126
2015-06-30 00:00:00,2015-06-30 00:00:00,PRATE,surface,-94.6879,25.0393,0.0001047
2015-06-30 00:00:00,2015-06-30 00:00:00,PRATE,surface,-93.7504,25.0393,0.0001014
2015-06-30 00:00:00,2015-06-30 00:00:00,PRATE,surface,-92.8129,25.0393,9.12e-05
2015-06-30 00:00:00,2015-06-30 00:00:00,PRATE,surface,-107.813,25.9842,7.69e-05
2015-06-30 00:00:00,2015-06-30 00:00:00,PRATE,surface,-106.875,25.9842,8.17e-05
2015-06-30 00:00:00,2015-06-30 00:00:00,PRATE,surface,-105.938,25.9842,5.86e-05
2015-06-30 00:00:00,2015-06-30 00:00:00,PRATE,surface,-105,25.9842,3.13e-05
2015-06-30 00:00:00,2015-06-30 00:00:00,PRATE,surface,-104.063,25.9842,1.29e-05
2015-06-30 00:00:00,2015-06-30 00:00:00,PRATE,surface,-103.125,25.9842,7.1e-06
2015-06-30 00:00:00,2015-06-30 00:00:00,PRATE,surface,-102.188,25.9842,1.07e-05
2015-06-30 00:00:00,2015-06-30 00:00:00,PRATE,surface,-101.25,25.9842,2.77e-05
2015-06-30 00:00:00,2015-06-30 00:00:00,PRATE,surface,-100.313,25.9842,5.56e-05
2015-06-30 00:00:00,2015-06-30 00:00:00,PRATE,surface,-99.3754,25.9842,6.39e-05
2015-06-30 00:00:00,2015-06-30 00:00:00,PRATE,surface,-98.4379,25.9842,6.25e-05
2015-06-30 00:00:00,2015-06-30 00:00:00,PRATE,surface,-97.5004,25.9842,6.89e-05
2015-06-30 00:00:00,2015-06-30 00:00:00,PRATE,surface,-96.5629,25.9842,9.97e-05
2015-06-30 00:00:00,2015-06-30 00:00:00,PRATE,surface,-95.6254,25.9842,0.0001189
2015-06-30 00:00:00,2015-06-30 00:00:00,PRATE,surface,-94.6879,25.9842,9.88e-05
2015-06-30 00:00:00,2015-06-30 00:00:00,PRATE,surface,-93.7504,25.9842,7.83e-05
2015-06-30 00:00:00,2015-06-30 00:00:00,PRATE,surface,-92.8129,25.9842,9.22e-05
2015-06-30 00:00:00,2015-06-30 00:00:00,PRATE,surface,-107.813,26.929,7.91e-05
2015-06-30 00:00:00,2015-06-30 00:00:00,PRATE,surface,-106.875,26.929,6.77e-05
2015-06-30 00:00:00,2015-06-30 00:00:00,PRATE,surface,-105.938,26.929,3.79e-05
2015-06-30 00:00:00,2015-06-30 00:00:00,PRATE,surface,-105,26.929,1.91e-05
2015-06-30 00:00:00,2015-06-30 00:00:00,PRATE,surface,-104.063,26.929,1.18e-05
2015-06-30 00:00:00,2015-06-30 00:00:00,PRATE,surface,-103.125,26.929,1.58e-05
2015-06-30 00:00:00,2015-06-30 00:00:00,PRATE,surface,-102.188,26.929,2.1e-05
2015-06-30 00:00:00,2015-06-30 00:00:00,PRATE,surface,-101.25,26.929,2.28e-05
2015-06-30 00:00:00,2015-06-30 00:00:00,PRATE,surface,-100.313,26.929,2.99e-05
2015-06-30 00:00:00,2015-06-30 00:00:00,PRATE,surface,-99.3754,26.929,3.97e-05
2015-06-30 00:00:00,2015-06-30 00:00:00,PRATE,surface,-98.4379,26.929,4.72e-05
2015-06-30 00:00:00,2015-06-30 00:00:00,PRATE,surface,-97.5004,26.929,7.33e-05
2015-06-30 00:00:00,2015-06-30 00:00:00,PRATE,surface,-96.5629,26.929,7.88e-05
2015-06-30 00:00:00,2015-06-30 00:00:00,PRATE,surface,-95.6254,26.929,8.42e-05
2015-06-30 00:00:00,2015-06-30 00:00:00,PRATE,surface,-94.6879,26.929,6.81e-05
2015-06-30 00:00:00,2015-06-30 00:00:00,PRATE,surface,-93.7504,26.929,6.61e-05
2015-06-30 00:00:00,2015-06-30 00:00:00,PRATE,surface,-92.8129,26.929,7e-05
2015-06-30 00:00:00,2015-06-30 00:00:00,PRATE,surface,-107.813,27.8739,6.22e-05
2015-06-30 00:00:00,2015-06-30 00:00:00,PRATE,surface,-106.875,27.8739,4.76e-05
2015-06-30 00:00:00,2015-06-30 00:00:00,PRATE,surface,-105.938,27.8739,2.53e-05
2015-06-30 00:00:00,2015-06-30 00:00:00,PRATE,surface,-105,27.8739,1.16e-05
2015-06-30 00:00:00,2015-06-30 00:00:00,PRATE,surface,-104.063,27.8739,1.74e-05
2015-06-30 00:00:00,2015-06-30 00:00:00,PRATE,surface,-103.125,27.8739,2.65e-05
2015-06-30 00:00:00,2015-06-30 00:00:00,PRATE,surface,-102.188,27.8739,2.62e-05
2015-06-30 00:00:00,2015-06-30 00:00:00,PRATE,surface,-101.25,27.8739,1.88e-05
2015-06-30 00:00:00,2015-06-30 00:00:00,PRATE,surface,-100.313,27.8739,1.66e-05
2015-06-30 00:00:00,2015-06-30 00:00:00,PRATE,surface,-99.3754,27.8739,2.01e-05
2015-06-30 00:00:00,2015-06-30 00:00:00,PRATE,surface,-98.4379,27.8739,2.43e-05
2015-06-30 00:00:00,2015-06-30 00:00:00,PRATE,surface,-97.5004,27.8739,3.15e-05
2015-06-30 00:00:00,2015-06-30 00:00:00,PRATE,surface,-96.5629,27.8739,3.88e-05
2015-06-30 00:00:00,2015-06-30 00:00:00,PRATE,surface,-95.6254,27.8739,4.03e-05
2015-06-30 00:00:00,2015-06-30 00:00:00,PRATE,surface,-94.6879,27.8739,4.69e-05
2015-06-30 00:00:00,2015-06-30 00:00:00,PRATE,surface,-93.7504,27.8739,6.44e-05
2015-06-30 00:00:00,2015-06-30 00:00:00,PRATE,surface,-92.8129,27.8739,6.07e-05
2015-06-30 00:00:00,2015-06-30 00:00:00,PRATE,surface,-107.813,28.8188,4.96e-05
2015-06-30 00:00:00,2015-06-30 00:00:00,PRATE,surface,-106.875,28.8188,4.05e-05
2015-06-30 00:00:00,2015-06-30 00:00:00,PRATE,surface,-105.938,28.8188,2.42e-05
2015-06-30 00:00:00,2015-06-30 00:00:00,PRATE,surface,-105,28.8188,1.54e-05
2015-06-30 00:00:00,2015-06-30 00:00:00,PRATE,surface,-104.063,28.8188,2.34e-05
2015-06-30 00:00:00,2015-06-30 00:00:00,PRATE,surface,-103.125,28.8188,3.09e-05
2015-06-30 00:00:00,2015-06-30 00:00:00,PRATE,surface,-102.188,28.8188,2.59e-05
2015-06-30 00:00:00,2015-06-30 00:00:00,PRATE,surface,-101.25,28.8188,1.87e-05
2015-06-30 00:00:00,2015-06-30 00:00:00,PRATE,surface,-100.313,28.8188,1.56e-05
2015-06-30 00:00:00,2015-06-30 00:00:00,PRATE,surface,-99.3754,28.8188,1.64e-05
2015-06-30 00:00:00,2015-06-30 00:00:00,PRATE,surface,-98.4379,28.8188,1.89e-05
2015-06-30 00:00:00,2015-06-30 00:00:00,PRATE,surface,-97.5004,28.8188,1.88e-05
2015-06-30 00:00:00,2015-06-30 00:00:00,PRATE,surface,-96.5629,28.8188,2.56e-05
2015-06-30 00:00:00,2015-06-30 00:00:00,PRATE,surface,-95.6254,28.8188,4.14e-05
2015-06-30 00:00:00,2015-06-30 00:00:00,PRATE,surface,-94.6879,28.8188,5.15e-05
2015-06-30 00:00:00,2015-06-30 00:00:00,PRATE,surface,-93.7504,28.8188,5.12e-05
2015-06-30 00:00:00,2015-06-30 00:00:00,PRATE,surface,-92.8129,28.8188,4.24e-05
2015-06-30 00:00:00,2015-06-30 00:00:00,PRATE,surface,-107.813,29.7637,3.71e-05
2015-06-30 00:00:00,2015-06-30 00:00:00,PRATE,surface,-106.875,29.7637,3.44e-05
2015-06-30 00:00:00,2015-06-30 00:00:00,PRATE,surface,-105.938,29.7637,3.08e-05
2015-06-30 00:00:00,2015-06-30 00:00:00,PRATE,surface,-105,29.7637,3.14e-05
2015-06-30 00:00:00,2015-06-30 00:00:00,PRATE,surface,-104.063,29.7637,3.41e-05
2015-06-30 00:00:00,2015-06-30 00:00:00,PRATE,surface,-103.125,29.7637,3.21e-05
2015-06-30 00:00:00,2015-06-30 00:00:00,PRATE,surface,-102.188,29.7637,2.79e-05
2015-06-30 00:00:00,2015-06-30 00:00:00,PRATE,surface,-101.25,29.7637,2.56e-05
2015-06-30 00:00:00,2015-06-30 00:00:00,PRATE,surface,-100.313,29.7637,2.5e-05
2015-06-30 00:00:00,2015-06-30 00:00:00,PRATE,surface,-99.3754,29.7637,2.14e-05
2015-06-30 00:00:00,2015-06-30 00:00:00,PRATE,surface,-98.4379,29.7637,1.62e-05
2015-06-30 00:00:00,2015-06-30 00:00:00,PRATE,surface,-97.5004,29.7637,1.57e-05
2015-06-30 00:00:00,2015-06-30 00:00:00,PRATE,surface,-96.5629,29.7637,1.96e-05
2015-06-30 00:00:00,2015-06-30 00:00:00,PRATE,surface,-95.6254,29.7637,2.81e-05
2015-06-30 00:00:00,2015-06-30 00:00:00,PRATE,surface,-94.6879,29.7637,3.91e-05
2015-06-30 00:00:00,2015-06-30 00:00:00,PRATE,surface,-93.7504,29.7637,4.01e-05
2015-06-30 00:00:00,2015-06-30 00:00:00,PRATE,surface,-92.8129,29.7637,3.53e-05
2015-06-30 00:00:00,2015-06-30 00:00:00,PRATE,surface,-107.813,30.7085,3.38e-05
2015-06-30 00:00:00,2015-06-30 00:00:00,PRATE,surface,-106.875,30.7085,3.14e-05
2015-06-30 00:00:00,2015-06-30 00:00:00,PRATE,surface,-105.938,30.7085,3.46e-05
2015-06-30 00:00:00,2015-06-30 00:00:00,PRATE,surface,-105,30.7085,3.99e-05
2015-06-30 00:00:00,2015-06-30 00:00:00,PRATE,surface,-104.063,30.7085,4.07e-05
2015-06-30 00:00:00,2015-06-30 00:00:00,PRATE,surface,-103.125,30.7085,3.5e-05
2015-06-30 00:00:00,2015-06-30 00:00:00,PRATE,surface,-102.188,30.7085,3.29e-05
2015-06-30 00:00:00,2015-06-30 00:00:00,PRATE,surface,-101.25,30.7085,3.25e-05
2015-06-30 00:00:00,2015-06-30 00:00:00,PRATE,surface,-100.313,30.7085,2.79e-05
2015-06-30 00:00:00,2015-06-30 00:00:00,PRATE,surface,-99.3754,30.7085,2e-05
2015-06-30 00:00:00,2015-06-30 00:00:00,PRATE,surface,-98.4379,30.7085,1.33e-05
2015-06-30 00:00:00,2015-06-30 00:00:00,PRATE,surface,-97.5004,30.7085,1.01e-05
2015-06-30 00:00:00,2015-06-30 00:00:00,PRATE,surface,-96.5629,30.7085,1.2e-05
2015-06-30 00:00:00,2015-06-30 00:00:00,PRATE,surface,-95.6254,30.7085,1.67e-05
2015-06-30 00:00:00,2015-06-30 00:00:00,PRATE,surface,-94.6879,30.7085,2.25e-05
2015-06-30 00:00:00,2015-06-30 00:00:00,PRATE,surface,-93.7504,30.7085,3.12e-05
2015-06-30 00:00:00,2015-06-30 00:00:00,PRATE,surface,-92.8129,30.7085,3.35e-05
2015-06-30 00:00:00,2015-06-30 00:00:00,PRATE,surface,-107.813,31.6534,3.23e-05
2015-06-30 00:00:00,2015-06-30 00:00:00,PRATE,surface,-106.875,31.6534,2.99e-05
2015-06-30 00:00:00,2015-06-30 00:00:00,PRATE,surface,-105.938,31.6534,3.31e-05
2015-06-30 00:00:00,2015-06-30 00:00:00,PRATE,surface,-105,31.6534,3.86e-05
2015-06-30 00:00:00,2015-06-30 00:00:00,PRATE,surface,-104.063,31.6534,3.46e-05
2015-06-30 00:00:00,2015-06-30 00:00:00,PRATE,surface,-103.125,31.6534,3.04e-05
2015-06-30 00:00:00,2015-06-30 00:00:00,PRATE,surface,-102.188,31.6534,3.03e-05
2015-06-30 00:00:00,2015-06-30 00:00:00,PRATE,surface,-101.25,31.6534,2.99e-05
2015-06-30 00:00:00,2015-06-30 00:00:00,PRATE,surface,-100.313,31.6534,2.74e-05
2015-06-30 00:00:00,2015-06-30 00:00:00,PRATE,surface,-99.3754,31.6534,2.11e-05
2015-06-30 00:00:00,2015-06-30 00:00:00,PRATE,surface,-98.4379,31.6534,1.58e-05
2015-06-30 00:00:00,2015-06-30 00:00:00,PRATE,surface,-97.5004,31.6534,1.34e-05
2015-06-30 00:00:00,2015-06-30 00:00:00,PRATE,surface,-96.5629,31.6534,1.22e-05
2015-06-30 00:00:00,2015-06-30 00:00:00,PRATE,surface,-95.6254,31.6534,1.27e-05
2015-06-30 00:00:00,2015-06-30 00:00:00,PRATE,surface,-94.6879,31.6534,1.63e-05
2015-06-30 00:00:00,2015-06-30 00:00:00,PRATE,surface,-93.7504,31.6534,2.17e-05
2015-06-30 00:00:00,2015-06-30 00:00:00,PRATE,surface,-92.8129,31.6534,2.64e-05
2015-06-30 00:00:00,2015-06-30 00:00:00,PRATE,surface,-107.813,32.5983,3e-05
2015-06-30 00:00:00,2015-06-30 00:00:00,PRATE,surface,-106.875,32.5983,3.15e-05
2015-06-30 00:00:00,2015-06-30 00:00:00,PRATE,surface,-105.938,32.5983,3.32e-05
2015-06-30 00:00:00,2015-06-30 00:00:00,PRATE,surface,-105,32.5983,3.4e-05
2015-06-30 00:00:00,2015-06-30 00:00:00,PRATE,surface,-104.063,32.5983,2.65e-05
2015-06-30 00:00:00,2015-06-30 00:00:00,PRATE,surface,-103.125,32.5983,2.16e-05
2015-06-30 00:00:00,2015-06-30 00:00:00,PRATE,surface,-102.188,32.5983,2.38e-05
2015-06-30 00:00:00,2015-06-30 00:00:00,PRATE,surface,-101.25,32.5983,2.35e-05
2015-06-30 00:00:00,2015-06-30 00:00:00,PRATE,surface,-100.313,32.5983,2.25e-05
2015-06-30 00:00:00,2015-06-30 00:00:00,PRATE,surface,-99.3754,32.5983,2.07e-05
2015-06-30 00:00:00,2015-06-30 00:00:00,PRATE,surface,-98.4379,32.5983,1.77e-05
2015-06-30 00:00:00,2015-06-30 00:00:00,PRATE,surface,-97.5004,32.5983,1.48e-05
2015-06-30 00:00:00,2015-06-30 00:00:00,PRATE,surface,-96.5629,32.5983,1.32e-05
2015-06-30 00:00:00,2015-06-30 00:00:00,PRATE,surface,-95.6254,32.5983,1.3e-05
2015-06-30 00:00:00,2015-06-30 00:00:00,PRATE,surface,-94.6879,32.5983,1.46e-05
2015-06-30 00:00:00,2015-06-30 00:00:00,PRATE,surface,-93.7504,32.5983,1.73e-05
2015-06-30 00:00:00,2015-06-30 00:00:00,PRATE,surface,-92.8129,32.5983,1.92e-05
2015-06-30 00:00:00,2015-06-30 00:00:00,PRATE,surface,-107.813,33.5432,2.55e-05
2015-06-30 00:00:00,2015-06-30 00:00:00,PRATE,surface,-106.875,33.5432,2.81e-05
2015-06-30 00:00:00,2015-06-30 00:00:00,PRATE,surface,-105.938,33.5432,2.88e-05
2015-06-30 00:00:00,2015-06-30 00:00:00,PRATE,surface,-105,33.5432,2.93e-05
2015-06-30 00:00:00,2015-06-30 00:00:00,PRATE,surface,-104.063,33.5432,2.14e-05
2015-06-30 00:00:00,2015-06-30 00:00:00,PRATE,surface,-103.125,33.5432,1.46e-05
2015-06-30 00:00:00,2015-06-30 00:00:00,PRATE,surface,-102.188,33.5432,1.67e-05
2015-06-30 00:00:00,2015-06-30 00:00:00,PRATE,surface,-101.25,33.5432,2.11e-05
2015-06-30 00:00:00,2015-06-30 00:00:00,PRATE,surface,-100.313,33.5432,1.88e-05
2015-06-30 00:00:00,2015-06-30 00:00:00,PRATE,surface,-99.3754,33.5432,1.85e-05
2015-06-30 00:00:00,2015-06-30 00:00:00,PRATE,surface,-98.4379,33.5432,1.94e-05
2015-06-30 00:00:00,2015-06-30 00:00:00,PRATE,surface,-97.5004,33.5432,1.83e-05
2015-06-30 00:00:00,2015-06-30 00:00:00,PRATE,surface,-96.5629,33.5432,1.58e-05
2015-06-30 00:00:00,2015-06-30 00:00:00,PRATE,surface,-95.6254,33.5432,1.43e-05
2015-06-30 00:00:00,2015-06-30 00:00:00,PRATE,surface,-94.6879,33.5432,1.55e-05
2015-06-30 00:00:00,2015-06-30 00:00:00,PRATE,surface,-93.7504,33.5432,1.82e-05
2015-06-30 00:00:00,2015-06-30 00:00:00,PRATE,surface,-92.8129,33.5432,1.92e-05
2015-06-30 00:00:00,2015-06-30 00:00:00,PRATE,surface,-107.813,34.4881,1.69e-05
2015-06-30 00:00:00,2015-06-30 00:00:00,PRATE,surface,-106.875,34.4881,1.68e-05
2015-06-30 00:00:00,2015-06-30 00:00:00,PRATE,surface,-105.938,34.4881,1.98e-05
2015-06-30 00:00:00,2015-06-30 00:00:00,PRATE,surface,-105,34.4881,2.51e-05
2015-06-30 00:00:00,2015-06-30 00:00:00,PRATE,surface,-104.063,34.4881,2.26e-05
2015-06-30 00:00:00,2015-06-30 00:00:00,PRATE,surface,-103.125,34.4881,1.54e-05
2015-06-30 00:00:00,2015-06-30 00:00:00,PRATE,surface,-102.188,34.4881,1.54e-05
2015-06-30 00:00:00,2015-06-30 00:00:00,PRATE,surface,-101.25,34.4881,1.82e-05
2015-06-30 00:00:00,2015-06-30 00:00:00,PRATE,surface,-100.313,34.4881,1.94e-05
2015-06-30 00:00:00,2015-06-30 00:00:00,PRATE,surface,-99.3754,34.4881,2.19e-05
2015-06-30 00:00:00,2015-06-30 00:00:00,PRATE,surface,-98.4379,34.4881,2.49e-05
2015-06-30 00:00:00,2015-06-30 00:00:00,PRATE,surface,-97.5004,34.4881,2.69e-05
2015-06-30 00:00:00,2015-06-30 00:00:00,PRATE,surface,-96.5629,34.4881,2.45e-05
2015-06-30 00:00:00,2015-06-30 00:00:00,PRATE,surface,-95.6254,34.4881,1.9e-05
2015-06-30 00:00:00,2015-06-30 00:00:00,PRATE,surface,-94.6879,34.4881,1.72e-05
2015-06-30 00:00:00,2015-06-30 00:00:00,PRATE,surface,-93.7504,34.4881,1.87e-05
2015-06-30 00:00:00,2015-06-30 00:00:00,PRATE,surface,-92.8129,34.4881,1.95e-05
2015-06-30 00:00:00,2015-06-30 00:00:00,PRATE,surface,-107.813,35.4329,1.19e-05
2015-06-30 00:00:00,2015-06-30 00:00:00,PRATE,surface,-106.875,35.4329,1.03e-05
2015-06-30 00:00:00,2015-06-30 00:00:00,PRATE,surface,-105.938,35.4329,1.47e-05
2015-06-30 00:00:00,2015-06-30 00:00:00,PRATE,surface,-105,35.4329,2.06e-05
2015-06-30 00:00:00,2015-06-30 00:00:00,PRATE,surface,-104.063,35.4329,2.49e-05
2015-06-30 00:00:00,2015-06-30 00:00:00,PRATE,surface,-103.125,35.4329,1.85e-05
2015-06-30 00:00:00,2015-06-30 00:00:00,PRATE,surface,-102.188,35.4329,1.61e-05
2015-06-30 00:00:00,2015-06-30 00:00:00,PRATE,surface,-101.25,35.4329,2.04e-05
2015-06-30 00:00:00,2015-06-30 00:00:00,PRATE,surface,-100.313,35.4329,2.63e-05
2015-06-30 00:00:00,2015-06-30 00:00:00,PRATE,surface,-99.3754,35.4329,3.15e-05
2015-06-30 00:00:00,2015-06-30 00:00:00,PRATE,surface,-98.4379,35.4329,3.48e-05
2015-06-30 00:00:00,2015-06-30 00:00:00,PRATE,surface,-97.5004,35.4329,3.42e-05
2015-06-30 00:00:00,2015-06-30 00:00:00,PRATE,surface,-96.5629,35.4329,2.98e-05
2015-06-30 00:00:00,2015-06-30 00:00:00,PRATE,surface,-95.6254,35.4329,2.5e-05
2015-06-30 00:00:00,2015-06-30 00:00:00,PRATE,surface,-94.6879,35.4329,2.28e-05
2015-06-30 00:00:00,2015-06-30 00:00:00,PRATE,surface,-93.7504,35.4329,2.25e-05
2015-06-30 00:00:00,2015-06-30 00:00:00,PRATE,surface,-92.8129,35.4329,2.12e-05
2015-06-30 00:00:00,2015-06-30 00:00:00,PRATE,surface,-107.813,36.3778,1.79e-05
2015-06-30 00:00:00,2015-06-30 00:00:00,PRATE,surface,-106.875,36.3778,1.6e-05
2015-06-30 00:00:00,2015-06-30 00:00:00,PRATE,surface,-105.938,36.3778,2.1e-05
2015-06-30 00:00:00,2015-06-30 00:00:00,PRATE,surface,-105,36.3778,2.63e-05
2015-06-30 00:00:00,2015-06-30 00:00:00,PRATE,surface,-104.063,36.3778,2.35e-05
2015-06-30 00:00:00,2015-06-30 00:00:00,PRATE,surface,-103.125,36.3778,2.12e-05
2015-06-30 00:00:00,2015-06-30 00:00:00,PRATE,surface,-102.188,36.3778,1.93e-05
2015-06-30 00:00:00,2015-06-30 00:00:00,PRATE,surface,-101.25,36.3778,2.27e-05
2015-06-30 00:00:00,2015-06-30 00:00:00,PRATE,surface,-100.313,36.3778,2.97e-05
2015-06-30 00:00:00,2015-06-30 00:00:00,PRATE,surface,-99.3754,36.3778,3.28e-05
2015-06-30 00:00:00,2015-06-30 00:00:00,PRATE,surface,-98.4379,36.3778,3.28e-05
2015-06-30 00:00:00,2015-06-30 00:00:00,PRATE,surface,-97.5004,36.3778,3.12e-05
2015-06-30 00:00:00,2015-06-30 00:00:00,PRATE,surface,-96.5629,36.3778,2.88e-05
2015-06-30 00:00:00,2015-06-30 00:00:00,PRATE,surface,-95.6254,36.3778,2.62e-05
2015-06-30 00:00:00,2015-06-30 00:00:00,PRATE,surface,-94.6879,36.3778,2.34e-05
2015-06-30 00:00:00,2015-06-30 00:00:00,PRATE,surface,-93.7504,36.3778,2.2e-05
2015-06-30 00:00:00,2015-06-30 00:00:00,PRATE,surface,-92.8129,36.3778,2.08e-05
