2016-10-04 00:00:00,2016-10-04 00:00:00,TMP,surface,-107.813,25.0393,293.9
2016-10-04 00:00:00,2016-10-04 00:00:00,TMP,surface,-106.875,25.0393,288.196
2016-10-04 00:00:00,2016-10-04 00:00:00,TMP,surface,-105.938,25.0393,282.862
2016-10-04 00:00:00,2016-10-04 00:00:00,TMP,surface,-105,25.0393,282.572
2016-10-04 00:00:00,2016-10-04 00:00:00,TMP,surface,-104.063,25.0393,286.478
2016-10-04 00:00:00,2016-10-04 00:00:00,TMP,surface,-103.125,25.0393,288.441
2016-10-04 00:00:00,2016-10-04 00:00:00,TMP,surface,-102.188,25.0393,288.064
2016-10-04 00:00:00,2016-10-04 00:00:00,TMP,surface,-101.25,25.0393,286.34
2016-10-04 00:00:00,2016-10-04 00:00:00,TMP,surface,-100.313,25.0393,286.814
2016-10-04 00:00:00,2016-10-04 00:00:00,TMP,surface,-99.3754,25.0393,289.691
2016-10-04 00:00:00,2016-10-04 00:00:00,TMP,surface,-98.4379,25.0393,292.764
2016-10-04 00:00:00,2016-10-04 00:00:00,TMP,surface,-97.5004,25.0393,295.988
2016-10-04 00:00:00,2016-10-04 00:00:00,TMP,surface,-96.5629,25.0393,295.875
2016-10-04 00:00:00,2016-10-04 00:00:00,TMP,surface,-95.6254,25.0393,295.737
2016-10-04 00:00:00,2016-10-04 00:00:00,TMP,surface,-94.6879,25.0393,295.707
2016-10-04 00:00:00,2016-10-04 00:00:00,TMP,surface,-93.7504,25.0393,295.729
2016-10-04 00:00:00,2016-10-04 00:00:00,TMP,surface,-92.8129,25.0393,295.988
2016-10-04 00:00:00,2016-10-04 00:00:00,TMP,surface,-107.813,25.9842,289.558
2016-10-04 00:00:00,2016-10-04 00:00:00,TMP,surface,-106.875,25.9842,283.387
2016-10-04 00:00:00,2016-10-04 00:00:00,TMP,surface,-105.938,25.9842,281.646
2016-10-04 00:00:00,2016-10-04 00:00:00,TMP,surface,-105,25.9842,284.148
2016-10-04 00:00:00,2016-10-04 00:00:00,TMP,surface,-104.063,25.9842,287.686
2016-10-04 00:00:00,2016-10-04 00:00:00,TMP,surface,-103.125,25.9842,289.212
2016-10-04 00:00:00,2016-10-04 00:00:00,TMP,surface,-102.188,25.9842,288.591
2016-10-04 00:00:00,2016-10-04 00:00:00,TMP,surface,-101.25,25.9842,287.595
2016-10-04 00:00:00,2016-10-04 00:00:00,TMP,surface,-100.313,25.9842,287.972
2016-10-04 00:00:00,2016-10-04 00:00:00,TMP,surface,-99.3754,25.9842,290.568
2016-10-04 00:00:00,2016-10-04 00:00:00,TMP,surface,-98.4379,25.9842,292.71
2016-10-04 00:00:00,2016-10-04 00:00:00,TMP,surface,-97.5004,25.9842,293.624
2016-10-04 00:00:00,2016-10-04 00:00:00,TMP,surface,-96.5629,25.9842,295.433
2016-10-04 00:00:00,2016-10-04 00:00:00,TMP,surface,-95.6254,25.9842,295.414
2016-10-04 00:00:00,2016-10-04 00:00:00,TMP,surface,-94.6879,25.9842,295.334
2016-10-04 00:00:00,2016-10-04 00:00:00,TMP,surface,-93.7504,25.9842,295.375
2016-10-04 00:00:00,2016-10-04 00:00:00,TMP,surface,-92.8129,25.9842,295.695
2016-10-04 00:00:00,2016-10-04 00:00:00,TMP,surface,-107.813,26.929,284.151
2016-10-04 00:00:00,2016-10-04 00:00:00,TMP,surface,-106.875,26.929,280.617
2016-10-04 00:00:00,2016-10-04 00:00:00,TMP,surface,-105.938,26.929,282.881
2016-10-04 00:00:00,2016-10-04 00:00:00,TMP,surface,-105,26.929,285.918
2016-10-04 00:00:00,2016-10-04 00:00:00,TMP,surface,-104.063,26.929,287.62
2016-10-04 00:00:00,2016-10-04 00:00:00,TMP,surface,-103.125,26.929,287.278
2016-10-04 00:00:00,2016-10-04 00:00:00,TMP,surface,-102.188,26.929,287.064
2016-10-04 00:00:00,2016-10-04 00:00:00,TMP,surface,-101.25,26.929,287.756
2016-10-04 00:00:00,2016-10-04 00:00:00,TMP,surface,-100.313,26.929,289.006
2016-10-04 00:00:00,2016-10-04 00:00:00,TMP,surface,-99.3754,26.929,290.475
2016-10-04 00:00:00,2016-10-04 00:00:00,TMP,surface,-98.4379,26.929,291.161
2016-10-04 00:00:00,2016-10-04 00:00:00,TMP,surface,-97.5004,26.929,294.219
2016-10-04 00:00:00,2016-10-04 00:00:00,TMP,surface,-96.5629,26.929,294.694
2016-10-04 00:00:00,2016-10-04 00:00:00,TMP,surface,-95.6254,26.929,295.003
2016-10-04 00:00:00,2016-10-04 00:00:00,TMP,surface,-94.6879,26.929,294.979
2016-10-04 00:00:00,2016-10-04 00:00:00,TMP,surface,-93.7504,26.929,294.904
2016-10-04 00:00:00,2016-10-04 00:00:00,TMP,surface,-92.8129,26.929,295.06
2016-10-04 00:00:00,2016-10-04 00:00:00,TMP,surface,-107.813,27.8739,281.016
2016-10-04 00:00:00,2016-10-04 00:00:00,TMP,surface,-106.875,27.8739,280.307
2016-10-04 00:00:00,2016-10-04 00:00:00,TMP,surface,-105.938,27.8739,283.793
2016-10-04 00:00:00,2016-10-04 00:00:00,TMP,surface,-105,27.8739,286.664
2016-10-04 00:00:00,2016-10-04 00:00:00,TMP,surface,-104.063,27.8739,286.883
2016-10-04 00:00:00,2016-10-04 00:00:00,TMP,surface,-103.125,27.8739,285.646
2016-10-04 00:00:00,2016-10-04 00:00:00,TMP,surface,-102.188,27.8739,285.876
2016-10-04 00:00:00,2016-10-04 00:00:00,TMP,surface,-101.25,27.8739,287.353
2016-10-04 00:00:00,2016-10-04 00:00:00,TMP,surface,-100.313,27.8739,288.715
2016-10-04 00:00:00,2016-10-04 00:00:00,TMP,surface,-99.3754,27.8739,289.163
2016-10-04 00:00:00,2016-10-04 00:00:00,TMP,surface,-98.4379,27.8739,289.408
2016-10-04 00:00:00,2016-10-04 00:00:00,TMP,surface,-97.5004,27.8739,292.012
2016-10-04 00:00:00,2016-10-04 00:00:00,TMP,surface,-96.5629,27.8739,294.628
2016-10-04 00:00:00,2016-10-04 00:00:00,TMP,surface,-95.6254,27.8739,294.74
2016-10-04 00:00:00,2016-10-04 00:00:00,TMP,surface,-94.6879,27.8739,294.414
2016-10-04 00:00:00,2016-10-04 00:00:00,TMP,surface,-93.7504,27.8739,294.151
2016-10-04 00:00:00,2016-10-04 00:00:00,TMP,surface,-92.8129,27.8739,294.123
2016-10-04 00:00:00,2016-10-04 00:00:00,TMP,surface,-107.813,28.8188,279.742
2016-10-04 00:00:00,2016-10-04 00:00:00,TMP,surface,-106.875,28.8188,280.707
2016-10-04 00:00:00,2016-10-04 00:00:00,TMP,surface,-105.938,28.8188,283.905
2016-10-04 00:00:00,2016-10-04 00:00:00,TMP,surface,-105,28.8188,286.006
2016-10-04 00:00:00,2016-10-04 00:00:00,TMP,surface,-104.063,28.8188,285.406
2016-10-04 00:00:00,2016-10-04 00:00:00,TMP,surface,-103.125,28.8188,284.483
2016-10-04 00:00:00,2016-10-04 00:00:00,TMP,surface,-102.188,28.8188,285.094
2016-10-04 00:00:00,2016-10-04 00:00:00,TMP,surface,-101.25,28.8188,286.711
2016-10-04 00:00:00,2016-10-04 00:00:00,TMP,surface,-100.313,28.8188,287.393
2016-10-04 00:00:00,2016-10-04 00:00:00,TMP,surface,-99.3754,28.8188,287.216
2016-10-04 00:00:00,2016-10-04 00:00:00,TMP,surface,-98.4379,28.8188,287.198
2016-10-04 00:00:00,2016-10-04 00:00:00,TMP,surface,-97.5004,28.8188,287.769
2016-10-04 00:00:00,2016-10-04 00:00:00,TMP,surface,-96.5629,28.8188,288.576
2016-10-04 00:00:00,2016-10-04 00:00:00,TMP,surface,-95.6254,28.8188,290.952
2016-10-04 00:00:00,2016-10-04 00:00:00,TMP,surface,-94.6879,28.8188,294.043
2016-10-04 00:00:00,2016-10-04 00:00:00,TMP,surface,-93.7504,28.8188,293.787
2016-10-04 00:00:00,2016-10-04 00:00:00,TMP,surface,-92.8129,28.8188,293.836
2016-10-04 00:00:00,2016-10-04 00:00:00,TMP,surface,-107.813,29.7637,280.667
2016-10-04 00:00:00,2016-10-04 00:00:00,TMP,surface,-106.875,29.7637,281.721
2016-10-04 00:00:00,2016-10-04 00:00:00,TMP,surface,-105.938,29.7637,283.817
2016-10-04 00:00:00,2016-10-04 00:00:00,TMP,surface,-105,29.7637,284.359
2016-10-04 00:00:00,2016-10-04 00:00:00,TMP,surface,-104.063,29.7637,284.363
2016-10-04 00:00:00,2016-10-04 00:00:00,TMP,surface,-103.125,29.7637,284.358
2016-10-04 00:00:00,2016-10-04 00:00:00,TMP,surface,-102.188,29.7637,285.212
2016-10-04 00:00:00,2016-10-04 00:00:00,TMP,surface,-101.25,29.7637,285.919
2016-10-04 00:00:00,2016-10-04 00:00:00,TMP,surface,-100.313,29.7637,285.718
2016-10-04 00:00:00,2016-10-04 00:00:00,TMP,surface,-99.3754,29.7637,285.305
2016-10-04 00:00:00,2016-10-04 00:00:00,TMP,surface,-98.4379,29.7637,285.326
2016-10-04 00:00:00,2016-10-04 00:00:00,TMP,surface,-97.5004,29.7637,285.748
2016-10-04 00:00:00,2016-10-04 00:00:00,TMP,surface,-96.5629,29.7637,286.315
2016-10-04 00:00:00,2016-10-04 00:00:00,TMP,surface,-95.6254,29.7637,286.995
2016-10-04 00:00:00,2016-10-04 00:00:00,TMP,surface,-94.6879,29.7637,289.34
2016-10-04 00:00:00,2016-10-04 00:00:00,TMP,surface,-93.7504,29.7637,292.022
2016-10-04 00:00:00,2016-10-04 00:00:00,TMP,surface,-92.8129,29.7637,288.073
2016-10-04 00:00:00,2016-10-04 00:00:00,TMP,surface,-107.813,30.7085,282.836
2016-10-04 00:00:00,2016-10-04 00:00:00,TMP,surface,-106.875,30.7085,283.537
2016-10-04 00:00:00,2016-10-04 00:00:00,TMP,surface,-105.938,30.7085,283.596
2016-10-04 00:00:00,2016-10-04 00:00:00,TMP,surface,-105,30.7085,283.251
2016-10-04 00:00:00,2016-10-04 00:00:00,TMP,surface,-104.063,30.7085,283.323
2016-10-04 00:00:00,2016-10-04 00:00:00,TMP,surface,-103.125,30.7085,284.086
2016-10-04 00:00:00,2016-10-04 00:00:00,TMP,surface,-102.188,30.7085,284.66
2016-10-04 00:00:00,2016-10-04 00:00:00,TMP,surface,-101.25,30.7085,284.755
2016-10-04 00:00:00,2016-10-04 00:00:00,TMP,surface,-100.313,30.7085,284.393
2016-10-04 00:00:00,2016-10-04 00:00:00,TMP,surface,-99.3754,30.7085,284.168
2016-10-04 00:00:00,2016-10-04 00:00:00,TMP,surface,-98.4379,30.7085,284.303
2016-10-04 00:00:00,2016-10-04 00:00:00,TMP,surface,-97.5004,30.7085,284.63
2016-10-04 00:00:00,2016-10-04 00:00:00,TMP,surface,-96.5629,30.7085,285.035
2016-10-04 00:00:00,2016-10-04 00:00:00,TMP,surface,-95.6254,30.7085,285.382
2016-10-04 00:00:00,2016-10-04 00:00:00,TMP,surface,-94.6879,30.7085,285.543
2016-10-04 00:00:00,2016-10-04 00:00:00,TMP,surface,-93.7504,30.7085,285.574
2016-10-04 00:00:00,2016-10-04 00:00:00,TMP,surface,-92.8129,30.7085,285.3
2016-10-04 00:00:00,2016-10-04 00:00:00,TMP,surface,-107.813,31.6534,282.956
2016-10-04 00:00:00,2016-10-04 00:00:00,TMP,surface,-106.875,31.6534,283.443
2016-10-04 00:00:00,2016-10-04 00:00:00,TMP,surface,-105.938,31.6534,282.926
2016-10-04 00:00:00,2016-10-04 00:00:00,TMP,surface,-105,31.6534,282.582
2016-10-04 00:00:00,2016-10-04 00:00:00,TMP,surface,-104.063,31.6534,282.806
2016-10-04 00:00:00,2016-10-04 00:00:00,TMP,surface,-103.125,31.6534,283.543
2016-10-04 00:00:00,2016-10-04 00:00:00,TMP,surface,-102.188,31.6534,283.907
2016-10-04 00:00:00,2016-10-04 00:00:00,TMP,surface,-101.25,31.6534,283.711
2016-10-04 00:00:00,2016-10-04 00:00:00,TMP,surface,-100.313,31.6534,283.478
2016-10-04 00:00:00,2016-10-04 00:00:00,TMP,surface,-99.3754,31.6534,283.505
2016-10-04 00:00:00,2016-10-04 00:00:00,TMP,surface,-98.4379,31.6534,283.708
2016-10-04 00:00:00,2016-10-04 00:00:00,TMP,surface,-97.5004,31.6534,283.919
2016-10-04 00:00:00,2016-10-04 00:00:00,TMP,surface,-96.5629,31.6534,284.135
2016-10-04 00:00:00,2016-10-04 00:00:00,TMP,surface,-95.6254,31.6534,284.207
2016-10-04 00:00:00,2016-10-04 00:00:00,TMP,surface,-94.6879,31.6534,283.942
2016-10-04 00:00:00,2016-10-04 00:00:00,TMP,surface,-93.7504,31.6534,283.643
2016-10-04 00:00:00,2016-10-04 00:00:00,TMP,surface,-92.8129,31.6534,283.625
2016-10-04 00:00:00,2016-10-04 00:00:00,TMP,surface,-107.813,32.5983,280.508
2016-10-04 00:00:00,2016-10-04 00:00:00,TMP,surface,-106.875,32.5983,281.033
2016-10-04 00:00:00,2016-10-04 00:00:00,TMP,surface,-105.938,32.5983,281.257
2016-10-04 00:00:00,2016-10-04 00:00:00,TMP,surface,-105,32.5983,281.422
2016-10-04 00:00:00,2016-10-04 00:00:00,TMP,surface,-104.063,32.5983,282.177
2016-10-04 00:00:00,2016-10-04 00:00:00,TMP,surface,-103.125,32.5983,282.841
2016-10-04 00:00:00,2016-10-04 00:00:00,TMP,surface,-102.188,32.5983,282.833
2016-10-04 00:00:00,2016-10-04 00:00:00,TMP,surface,-101.25,32.5983,282.697
2016-10-04 00:00:00,2016-10-04 00:00:00,TMP,surface,-100.313,32.5983,282.74
2016-10-04 00:00:00,2016-10-04 00:00:00,TMP,surface,-99.3754,32.5983,282.953
2016-10-04 00:00:00,2016-10-04 00:00:00,TMP,surface,-98.4379,32.5983,283.075
2016-10-04 00:00:00,2016-10-04 00:00:00,TMP,surface,-97.5004,32.5983,283.134
2016-10-04 00:00:00,2016-10-04 00:00:00,TMP,surface,-96.5629,32.5983,283.169
2016-10-04 00:00:00,2016-10-04 00:00:00,TMP,surface,-95.6254,32.5983,283.067
2016-10-04 00:00:00,2016-10-04 00:00:00,TMP,surface,-94.6879,32.5983,282.828
2016-10-04 00:00:00,2016-10-04 00:00:00,TMP,surface,-93.7504,32.5983,282.595
2016-10-04 00:00:00,2016-10-04 00:00:00,TMP,surface,-92.8129,32.5983,282.588
2016-10-04 00:00:00,2016-10-04 00:00:00,TMP,surface,-107.813,33.5432,277.209
2016-10-04 00:00:00,2016-10-04 00:00:00,TMP,surface,-106.875,33.5432,278.483
2016-10-04 00:00:00,2016-10-04 00:00:00,TMP,surface,-105.938,33.5432,279.409
2016-10-04 00:00:00,2016-10-04 00:00:00,TMP,surface,-105,33.5432,280.039
2016-10-04 00:00:00,2016-10-04 00:00:00,TMP,surface,-104.063,33.5432,281.03
2016-10-04 00:00:00,2016-10-04 00:00:00,TMP,surface,-103.125,33.5432,281.537
2016-10-04 00:00:00,2016-10-04 00:00:00,TMP,surface,-102.188,33.5432,281.44
2016-10-04 00:00:00,2016-10-04 00:00:00,TMP,surface,-101.25,33.5432,281.395
2016-10-04 00:00:00,2016-10-04 00:00:00,TMP,surface,-100.313,33.5432,281.606
2016-10-04 00:00:00,2016-10-04 00:00:00,TMP,surface,-99.3754,33.5432,281.927
2016-10-04 00:00:00,2016-10-04 00:00:00,TMP,surface,-98.4379,33.5432,282.047
2016-10-04 00:00:00,2016-10-04 00:00:00,TMP,surface,-97.5004,33.5432,281.907
2016-10-04 00:00:00,2016-10-04 00:00:00,TMP,surface,-96.5629,33.5432,281.803
2016-10-04 00:00:00,2016-10-04 00:00:00,TMP,surface,-95.6254,33.5432,281.759
2016-10-04 00:00:00,2016-10-04 00:00:00,TMP,surface,-94.6879,33.5432,281.532
2016-10-04 00:00:00,2016-10-04 00:00:00,TMP,surface,-93.7504,33.5432,281.284
2016-10-04 00:00:00,2016-10-04 00:00:00,TMP,surface,-92.8129,33.5432,281.272
2016-10-04 00:00:00,2016-10-04 00:00:00,TMP,surface,-107.813,34.4881,275.678
2016-10-04 00:00:00,2016-10-04 00:00:00,TMP,surface,-106.875,34.4881,277.084
2016-10-04 00:00:00,2016-10-04 00:00:00,TMP,surface,-105.938,34.4881,278.062
2016-10-04 00:00:00,2016-10-04 00:00:00,TMP,surface,-105,34.4881,278.929
2016-10-04 00:00:00,2016-10-04 00:00:00,TMP,surface,-104.063,34.4881,279.489
2016-10-04 00:00:00,2016-10-04 00:00:00,TMP,surface,-103.125,34.4881,279.803
2016-10-04 00:00:00,2016-10-04 00:00:00,TMP,surface,-102.188,34.4881,279.945
2016-10-04 00:00:00,2016-10-04 00:00:00,TMP,surface,-101.25,34.4881,279.983
2016-10-04 00:00:00,2016-10-04 00:00:00,TMP,surface,-100.313,34.4881,280.259
2016-10-04 00:00:00,2016-10-04 00:00:00,TMP,surface,-99.3754,34.4881,280.499
2016-10-04 00:00:00,2016-10-04 00:00:00,TMP,surface,-98.4379,34.4881,280.545
2016-10-04 00:00:00,2016-10-04 00:00:00,TMP,surface,-97.5004,34.4881,280.422
2016-10-04 00:00:00,2016-10-04 00:00:00,TMP,surface,-96.5629,34.4881,280.364
2016-10-04 00:00:00,2016-10-04 00:00:00,TMP,surface,-95.6254,34.4881,280.243
2016-10-04 00:00:00,2016-10-04 00:00:00,TMP,surface,-94.6879,34.4881,279.823
2016-10-04 00:00:00,2016-10-04 00:00:00,TMP,surface,-93.7504,34.4881,279.552
2016-10-04 00:00:00,2016-10-04 00:00:00,TMP,surface,-92.8129,34.4881,279.654
2016-10-04 00:00:00,2016-10-04 00:00:00,TMP,surface,-107.813,35.4329,275.571
2016-10-04 00:00:00,2016-10-04 00:00:00,TMP,surface,-106.875,35.4329,276.012
2016-10-04 00:00:00,2016-10-04 00:00:00,TMP,surface,-105.938,35.4329,276.444
2016-10-04 00:00:00,2016-10-04 00:00:00,TMP,surface,-105,35.4329,276.963
2016-10-04 00:00:00,2016-10-04 00:00:00,TMP,surface,-104.063,35.4329,278.06
2016-10-04 00:00:00,2016-10-04 00:00:00,TMP,surface,-103.125,35.4329,278.614
2016-10-04 00:00:00,2016-10-04 00:00:00,TMP,surface,-102.188,35.4329,278.622
2016-10-04 00:00:00,2016-10-04 00:00:00,TMP,surface,-101.25,35.4329,278.635
2016-10-04 00:00:00,2016-10-04 00:00:00,TMP,surface,-100.313,35.4329,278.835
2016-10-04 00:00:00,2016-10-04 00:00:00,TMP,surface,-99.3754,35.4329,279.049
2016-10-04 00:00:00,2016-10-04 00:00:00,TMP,surface,-98.4379,35.4329,279.155
2016-10-04 00:00:00,2016-10-04 00:00:00,TMP,surface,-97.5004,35.4329,279.332
2016-10-04 00:00:00,2016-10-04 00:00:00,TMP,surface,-96.5629,35.4329,279.443
2016-10-04 00:00:00,2016-10-04 00:00:00,TMP,surface,-95.6254,35.4329,279.276
2016-10-04 00:00:00,2016-10-04 00:00:00,TMP,surface,-94.6879,35.4329,278.852
2016-10-04 00:00:00,2016-10-04 00:00:00,TMP,surface,-93.7504,35.4329,278.222
2016-10-04 00:00:00,2016-10-04 00:00:00,TMP,surface,-92.8129,35.4329,278.023
2016-10-04 00:00:00,2016-10-04 00:00:00,TMP,surface,-107.813,36.3778,274.654
2016-10-04 00:00:00,2016-10-04 00:00:00,TMP,surface,-106.875,36.3778,273.512
2016-10-04 00:00:00,2016-10-04 00:00:00,TMP,surface,-105.938,36.3778,273.868
2016-10-04 00:00:00,2016-10-04 00:00:00,TMP,surface,-105,36.3778,274.977
2016-10-04 00:00:00,2016-10-04 00:00:00,TMP,surface,-104.063,36.3778,276.419
2016-10-04 00:00:00,2016-10-04 00:00:00,TMP,surface,-103.125,36.3778,277.1
2016-10-04 00:00:00,2016-10-04 00:00:00,TMP,surface,-102.188,36.3778,277.43
2016-10-04 00:00:00,2016-10-04 00:00:00,TMP,surface,-101.25,36.3778,277.654
2016-10-04 00:00:00,2016-10-04 00:00:00,TMP,surface,-100.313,36.3778,277.902
2016-10-04 00:00:00,2016-10-04 00:00:00,TMP,surface,-99.3754,36.3778,278.004
2016-10-04 00:00:00,2016-10-04 00:00:00,TMP,surface,-98.4379,36.3778,278.02
2016-10-04 00:00:00,2016-10-04 00:00:00,TMP,surface,-97.5004,36.3778,278.296
2016-10-04 00:00:00,2016-10-04 00:00:00,TMP,surface,-96.5629,36.3778,278.632
2016-10-04 00:00:00,2016-10-04 00:00:00,TMP,surface,-95.6254,36.3778,278.548
2016-10-04 00:00:00,2016-10-04 00:00:00,TMP,surface,-94.6879,36.3778,277.942
2016-10-04 00:00:00,2016-10-04 00:00:00,TMP,surface,-93.7504,36.3778,277.076
2016-10-04 00:00:00,2016-10-04 00:00:00,TMP,surface,-92.8129,36.3778,276.55
2016-10-04 00:00:00,2016-10-04 00:00:00,PRATE,surface,-107.813,25.0393,9.5e-06
2016-10-04 00:00:00,2016-10-04 00:00:00,PRATE,surface,-106.875,25.0393,1.95e-05
2016-10-04 00:00:00,2016-10-04 00:00:00,PRATE,surface,-105.938,25.0393,2.06e-05
2016-10-04 00:00:00,2016-10-04 00:00:00,PRATE,surface,-105,25.0393,2.22e-05
2016-10-04 00:00:00,2016-10-04 00:00:00,PRATE,surface,-104.063,25.0393,1.98e-05
2016-10-04 00:00:00,2016-10-04 00:00:00,PRATE,surface,-103.125,25.0393,1.04e-05
2016-10-04 00:00:00,2016-10-04 00:00:00,PRATE,surface,-102.188,25.0393,1.15e-05
2016-10-04 00:00:00,2016-10-04 00:00:00,PRATE,surface,-101.25,25.0393,2.17e-05
2016-10-04 00:00:00,2016-10-04 00:00:00,PRATE,surface,-100.313,25.0393,6.07e-05
2016-10-04 00:00:00,2016-10-04 00:00:00,PRATE,surface,-99.3754,25.0393,4.87e-05
2016-10-04 00:00:00,2016-10-04 00:00:00,PRATE,surface,-98.4379,25.0393,2.49e-05
2016-10-04 00:00:00,2016-10-04 00:00:00,PRATE,surface,-97.5004,25.0393,3.49e-05
2016-10-04 00:00:00,2016-10-04 00:00:00,PRATE,surface,-96.5629,25.0393,4.25e-05
2016-10-04 00:00:00,2016-10-04 00:00:00,PRATE,surface,-95.6254,25.0393,2.58e-05
2016-10-04 00:00:00,2016-10-04 00:00:00,PRATE,surface,-94.6879,25.0393,2.86e-05
2016-10-04 00:00:00,2016-10-04 00:00:00,PRATE,surface,-93.7504,25.0393,2.64e-05
2016-10-04 00:00:00,2016-10-04 00:00:00,PRATE,surface,-92.8129,25.0393,2.68e-05
2016-10-04 00:00:00,2016-10-04 00:00:00,PRATE,surface,-107.813,25.9842,8.9e-06
2016-10-04 00:00:00,2016-10-04 00:00:00,PRATE,surface,-106.875,25.9842,1.81e-05
2016-10-04 00:00:00,2016-10-04 00:00:00,PRATE,surface,-105.938,25.9842,2.43e-05
2016-10-04 00:00:00,2016-10-04 00:00:00,PRATE,surface,-105,25.9842,2.9e-05
2016-10-04 00:00:00,2016-10-04 00:00:00,PRATE,surface,-104.063,25.9842,1.31e-05
2016-10-04 00:00:00,2016-10-04 00:00:00,PRATE,surface,-103.125,25.9842,8e-06
2016-10-04 00:00:00,2016-10-04 00:00:00,PRATE,surface,-102.188,25.9842,1.22e-05
2016-10-04 00:00:00,2016-10-04 00:00:00,PRATE,surface,-101.25,25.9842,2.57e-05
2016-10-04 00:00:00,2016-10-04 00:00:00,PRATE,surface,-100.313,25.9842,5.32e-05
2016-10-04 00:00:00,2016-10-04 00:00:00,PRATE,surface,-99.3754,25.9842,3.69e-05
2016-10-04 00:00:00,2016-10-04 00:00:00,PRATE,surface,-98.4379,25.9842,2.33e-05
2016-10-04 00:00:00,2016-10-04 00:00:00,PRATE,surface,-97.5004,25.9842,3.26e-05
2016-10-04 00:00:00,2016-10-04 00:00:00,PRATE,surface,-96.5629,25.9842,5.48e-05
2016-10-04 00:00:00,2016-10-04 00:00:00,PRATE,surface,-95.6254,25.9842,5.35e-05
2016-10-04 00:00:00,2016-10-04 00:00:00,PRATE,surface,-94.6879,25.9842,4.1e-05
2016-10-04 00:00:00,2016-10-04 00:00:00,PRATE,surface,-93.7504,25.9842,3e-05
2016-10-04 00:00:00,2016-10-04 00:00:00,PRATE,surface,-92.8129,25.9842,2.26e-05
2016-10-04 00:00:00,2016-10-04 00:00:00,PRATE,surface,-107.813,26.929,2.37e-05
2016-10-04 00:00:00,2016-10-04 00:00:00,PRATE,surface,-106.875,26.929,2.5e-05
2016-10-04 00:00:00,2016-10-04 00:00:00,PRATE,surface,-105.938,26.929,2.62e-05
2016-10-04 00:00:00,2016-10-04 00:00:00,PRATE,surface,-105,26.929,2.33e-05
2016-10-04 00:00:00,2016-10-04 00:00:00,PRATE,surface,-104.063,26.929,1.04e-05
2016-10-04 00:00:00,2016-10-04 00:00:00,PRATE,surface,-103.125,26.929,1.07e-05
2016-10-04 00:00:00,2016-10-04 00:00:00,PRATE,surface,-102.188,26.929,2.25e-05
2016-10-04 00:00:00,2016-10-04 00:00:00,PRATE,surface,-101.25,26.929,3.5e-05
2016-10-04 00:00:00,2016-10-04 00:00:00,PRATE,surface,-100.313,26.929,4.14e-05
2016-10-04 00:00:00,2016-10-04 00:00:00,PRATE,surface,-99.3754,26.929,3.56e-05
2016-10-04 00:00:00,2016-10-04 00:00:00,PRATE,surface,-98.4379,26.929,3e-05
2016-10-04 00:00:00,2016-10-04 00:00:00,PRATE,surface,-97.5004,26.929,4.57e-05
2016-10-04 00:00:00,2016-10-04 00:00:00,PRATE,surface,-96.5629,26.929,5.95e-05
2016-10-04 00:00:00,2016-10-04 00:00:00,PRATE,surface,-95.6254,26.929,5.79e-05
2016-10-04 00:00:00,2016-10-04 00:00:00,PRATE,surface,-94.6879,26.929,5.09e-05
2016-10-04 00:00:00,2016-10-04 00:00:00,PRATE,surface,-93.7504,26.929,4.56e-05
2016-10-04 00:00:00,2016-10-04 00:00:00,PRATE,surface,-92.8129,26.929,4.32e-05
2016-10-04 00:00:00,2016-10-04 00:00:00,PRATE,surface,-107.813,27.8739,4.14e-05
2016-10-04 00:00:00,2016-10-04 00:00:00,PRATE,surface,-106.875,27.8739,3.24e-05
2016-10-04 00:00:00,2016-10-04 00:00:00,PRATE,surface,-105.938,27.8739,2.55e-05
2016-10-04 00:00:00,2016-10-04 00:00:00,PRATE,surface,-105,27.8739,1.25e-05
2016-10-04 00:00:00,2016-10-04 00:00:00,PRATE,surface,-104.063,27.8739,1.35e-05
2016-10-04 00:00:00,2016-10-04 00:00:00,PRATE,surface,-103.125,27.8739,2.38e-05
2016-10-04 00:00:00,2016-10-04 00:00:00,PRATE,surface,-102.188,27.8739,4.06e-05
2016-10-04 00:00:00,2016-10-04 00:00:00,PRATE,surface,-101.25,27.8739,4.05e-05
2016-10-04 00:00:00,2016-10-04 00:00:00,PRATE,surface,-100.313,27.8739,3.75e-05
2016-10-04 00:00:00,2016-10-04 00:00:00,PRATE,surface,-99.3754,27.8739,3.56e-05
2016-10-04 00:00:00,2016-10-04 00:00:00,PRATE,surface,-98.4379,27.8739,3.73e-05
2016-10-04 00:00:00,2016-10-04 00:00:00,PRATE,surface,-97.5004,27.8739,4.93e-05
2016-10-04 00:00:00,2016-10-04 00:00:00,PRATE,surface,-96.5629,27.8739,5.74e-05
2016-10-04 00:00:00,2016-10-04 00:00:00,PRATE,surface,-95.6254,27.8739,5.93e-05
2016-10-04 00:00:00,2016-10-04 00:00:00,PRATE,surface,-94.6879,27.8739,6.82e-05
2016-10-04 00:00:00,2016-10-04 00:00:00,PRATE,surface,-93.7504,27.8739,6.81e-05
2016-10-04 00:00:00,2016-10-04 00:00:00,PRATE,surface,-92.8129,27.8739,5.68e-05
2016-10-04 00:00:00,2016-10-04 00:00:00,PRATE,surface,-107.813,28.8188,3.91e-05
2016-10-04 00:00:00,2016-10-04 00:00:00,PRATE,surface,-106.875,28.8188,2.91e-05
2016-10-04 00:00:00,2016-10-04 00:00:00,PRATE,surface,-105.938,28.8188,1.83e-05
2016-10-04 00:00:00,2016-10-04 00:00:00,PRATE,surface,-105,28.8188,1.17e-05
2016-10-04 00:00:00,2016-10-04 00:00:00,PRATE,surface,-104.063,28.8188,1.91e-05
2016-10-04 00:00:00,2016-10-04 00:00:00,PRATE,surface,-103.125,28.8188,3.01e-05
2016-10-04 00:00:00,2016-10-04 00:00:00,PRATE,surface,-102.188,28.8188,4.2e-05
2016-10-04 00:00:00,2016-10-04 00:00:00,PRATE,surface,-101.25,28.8188,4.39e-05
2016-10-04 00:00:00,2016-10-04 00:00:00,PRATE,surface,-100.313,28.8188,4.48e-05
2016-10-04 00:00:00,2016-10-04 00:00:00,PRATE,surface,-99.3754,28.8188,5.26e-05
2016-10-04 00:00:00,2016-10-04 00:00:00,PRATE,surface,-98.4379,28.8188,6.48e-05
2016-10-04 00:00:00,2016-10-04 00:00:00,PRATE,surface,-97.5004,28.8188,7.02e-05
2016-10-04 00:00:00,2016-10-04 00:00:00,PRATE,surface,-96.5629,28.8188,7.16e-05
2016-10-04 00:00:00,2016-10-04 00:00:00,PRATE,surface,-95.6254,28.8188,7.78e-05
2016-10-04 00:00:00,2016-10-04 00:00:00,PRATE,surface,-94.6879,28.8188,8.21e-05
2016-10-04 00:00:00,2016-10-04 00:00:00,PRATE,surface,-93.7504,28.8188,7.44e-05
2016-10-04 00:00:00,2016-10-04 00:00:00,PRATE,surface,-92.8129,28.8188,6.04e-05
2016-10-04 00:00:00,2016-10-04 00:00:00,PRATE,surface,-107.813,29.7637,2.32e-05
2016-10-04 00:00:00,2016-10-04 00:00:00,PRATE,surface,-106.875,29.7637,2.56e-05
2016-10-04 00:00:00,2016-10-04 00:00:00,PRATE,surface,-105.938,29.7637,2.2e-05
2016-10-04 00:00:00,2016-10-04 00:00:00,PRATE,surface,-105,29.7637,2.09e-05
2016-10-04 00:00:00,2016-10-04 00:00:00,PRATE,surface,-104.063,29.7637,2.12e-05
2016-10-04 00:00:00,2016-10-04 00:00:00,PRATE,surface,-103.125,29.7637,2.76e-05
2016-10-04 00:00:00,2016-10-04 00:00:00,PRATE,surface,-102.188,29.7637,3.12e-05
2016-10-04 00:00:00,2016-10-04 00:00:00,PRATE,surface,-101.25,29.7637,4.22e-05
2016-10-04 00:00:00,2016-10-04 00:00:00,PRATE,surface,-100.313,29.7637,6.33e-05
2016-10-04 00:00:00,2016-10-04 00:00:00,PRATE,surface,-99.3754,29.7637,9e-05
2016-10-04 00:00:00,2016-10-04 00:00:00,PRATE,surface,-98.4379,29.7637,0.0001037
2016-10-04 00:00:00,2016-10-04 00:00:00,PRATE,surface,-97.5004,29.7637,0.0001018
2016-10-04 00:00:00,2016-10-04 00:00:00,PRATE,surface,-96.5629,29.7637,9.71e-05
2016-10-04 00:00:00,2016-10-04 00:00:00,PRATE,surface,-95.6254,29.7637,9.34e-05
2016-10-04 00:00:00,2016-10-04 00:00:00,PRATE,surface,-94.6879,29.7637,8.49e-05
2016-10-04 00:00:00,2016-10-04 00:00:00,PRATE,surface,-93.7504,29.7637,6.95e-05
2016-10-04 00:00:00,2016-10-04 00:00:00,PRATE,surface,-92.8129,29.7637,5.08e-05
2016-10-04 00:00:00,2016-10-04 00:00:00,PRATE,surface,-107.813,30.7085,1.33e-05
2016-10-04 00:00:00,2016-10-04 00:00:00,PRATE,surface,-106.875,30.7085,1.46e-05
2016-10-04 00:00:00,2016-10-04 00:00:00,PRATE,surface,-105.938,30.7085,2e-05
2016-10-04 00:00:00,2016-10-04 00:00:00,PRATE,surface,-105,30.7085,2.4e-05
2016-10-04 00:00:00,2016-10-04 00:00:00,PRATE,surface,-104.063,30.7085,2.47e-05
2016-10-04 00:00:00,2016-10-04 00:00:00,PRATE,surface,-103.125,30.7085,2.64e-05
2016-10-04 00:00:00,2016-10-04 00:00:00,PRATE,surface,-102.188,30.7085,3.28e-05
2016-10-04 00:00:00,2016-10-04 00:00:00,PRATE,surface,-101.25,30.7085,4.83e-05
2016-10-04 00:00:00,2016-10-04 00:00:00,PRATE,surface,-100.313,30.7085,7.39e-05
2016-10-04 00:00:00,2016-10-04 00:00:00,PRATE,surface,-99.3754,30.7085,9.76e-05
2016-10-04 00:00:00,2016-10-04 00:00:00,PRATE,surface,-98.4379,30.7085,0.0001026
2016-10-04 00:00:00,2016-10-04 00:00:00,PRATE,surface,-97.5004,30.7085,0.0001021
2016-10-04 00:00:00,2016-10-04 00:00:00,PRATE,surface,-96.5629,30.7085,0.0001042
2016-10-04 00:00:00,2016-10-04 00:00:00,PRATE,surface,-95.6254,30.7085,0.0001006
2016-10-04 00:00:00,2016-10-04 00:00:00,PRATE,surface,-94.6879,30.7085,9.14e-05
2016-10-04 00:00:00,2016-10-04 00:00:00,PRATE,surface,-93.7504,30.7085,7.76e-05
2016-10-04 00:00:00,2016-10-04 00:00:00,PRATE,surface,-92.8129,30.7085,5.73e-05
2016-10-04 00:00:00,2016-10-04 00:00:00,PRATE,surface,-107.813,31.6534,1.41e-05
2016-10-04 00:00:00,2016-10-04 00:00:00,PRATE,surface,-106.875,31.6534,1.27e-05
2016-10-04 00:00:00,2016-10-04 00:00:00,PRATE,surface,-105.938,31.6534,1.72e-05
2016-10-04 00:00:00,2016-10-04 00:00:00,PRATE,surface,-105,31.6534,2.13e-05
2016-10-04 00:00:00,2016-10-04 00:00:00,PRATE,surface,-104.063,31.6534,2.21e-05
2016-10-04 00:00:00,2016-10-04 00:00:00,PRATE,surface,-103.125,31.6534,2.46e-05
2016-10-04 00:00:00,2016-10-04 00:00:00,PRATE,surface,-102.188,31.6534,3.15e-05
2016-10-04 00:00:00,2016-10-04 00:00:00,PRATE,surface,-101.25,31.6534,4.78e-05
2016-10-04 00:00:00,2016-10-04 00:00:00,PRATE,surface,-100.313,31.6534,7.11e-05
2016-10-04 00:00:00,2016-10-04 00:00:00,PRATE,surface,-99.3754,31.6534,8.3e-05
2016-10-04 00:00:00,2016-10-04 00:00:00,PRATE,surface,-98.4379,31.6534,8.78e-05
2016-10-04 00:00:00,2016-10-04 00:00:00,PRATE,surface,-97.5004,31.6534,9.08e-05
2016-10-04 00:00:00,2016-10-04 00:00:00,PRATE,surface,-96.5629,31.6534,9.48e-05
2016-10-04 00:00:00,2016-10-04 00:00:00,PRATE,surface,-95.6254,31.6534,9.59e-05
2016-10-04 00:00:00,2016-10-04 00:00:00,PRATE,surface,-94.6879,31.6534,8.87e-05
2016-10-04 00:00:00,2016-10-04 00:00:00,PRATE,surface,-93.7504,31.6534,7.81e-05
2016-10-04 00:00:00,2016-10-04 00:00:00,PRATE,surface,-92.8129,31.6534,6.04e-05
2016-10-04 00:00:00,2016-10-04 00:00:00,PRATE,surface,-107.813,32.5983,2.93e-05
2016-10-04 00:00:00,2016-10-04 00:00:00,PRATE,surface,-106.875,32.5983,2.35e-05
2016-10-04 00:00:00,2016-10-04 00:00:00,PRATE,surface,-105.938,32.5983,2.12e-05
2016-10-04 00:00:00,2016-10-04 00:00:00,PRATE,surface,-105,32.5983,1.88e-05
2016-10-04 00:00:00,2016-10-04 00:00:00,PRATE,surface,-104.063,32.5983,1.69e-05
2016-10-04 00:00:00,2016-10-04 00:00:00,PRATE,surface,-103.125,32.5983,2.18e-05
2016-10-04 00:00:00,2016-10-04 00:00:00,PRATE,surface,-102.188,32.5983,3.04e-05
2016-10-04 00:00:00,2016-10-04 00:00:00,PRATE,surface,-101.25,32.5983,3.74e-05
2016-10-04 00:00:00,2016-10-04 00:00:00,PRATE,surface,-100.313,32.5983,4.95e-05
2016-10-04 00:00:00,2016-10-04 00:00:00,PRATE,surface,-99.3754,32.5983,7e-05
2016-10-04 00:00:00,2016-10-04 00:00:00,PRATE,surface,-98.4379,32.5983,8.8e-05
2016-10-04 00:00:00,2016-10-04 00:00:00,PRATE,surface,-97.5004,32.5983,9.62e-05
2016-10-04 00:00:00,2016-10-04 00:00:00,PRATE,surface,-96.5629,32.5983,9.33e-05
2016-10-04 00:00:00,2016-10-04 00:00:00,PRATE,surface,-95.6254,32.5983,8.85e-05
2016-10-04 00:00:00,2016-10-04 00:00:00,PRATE,surface,-94.6879,32.5983,8.98e-05
2016-10-04 00:00:00,2016-10-04 00:00:00,PRATE,surface,-93.7504,32.5983,8.54e-05
2016-10-04 00:00:00,2016-10-04 00:00:00,PRATE,surface,-92.8129,32.5983,7.29e-05
2016-10-04 00:00:00,2016-10-04 00:00:00,PRATE,surface,-107.813,33.5432,4.53e-05
2016-10-04 00:00:00,2016-10-04 00:00:00,PRATE,surface,-106.875,33.5432,3.41e-05
2016-10-04 00:00:00,2016-10-04 00:00:00,PRATE,surface,-105.938,33.5432,2.37e-05
2016-10-04 00:00:00,2016-10-04 00:00:00,PRATE,surface,-105,33.5432,1.95e-05
2016-10-04 00:00:00,2016-10-04 00:00:00,PRATE,surface,-104.063,33.5432,1.92e-05
2016-10-04 00:00:00,2016-10-04 00:00:00,PRATE,surface,-103.125,33.5432,2.19e-05
2016-10-04 00:00:00,2016-10-04 00:00:00,PRATE,surface,-102.188,33.5432,2.41e-05
2016-10-04 00:00:00,2016-10-04 00:00:00,PRATE,surface,-101.25,33.5432,3.11e-05
2016-10-04 00:00:00,2016-10-04 00:00:00,PRATE,surface,-100.313,33.5432,3.98e-05
2016-10-04 00:00:00,2016-10-04 00:00:00,PRATE,surface,-99.3754,33.5432,5.28e-05
2016-10-04 00:00:00,2016-10-04 00:00:00,PRATE,surface,-98.4379,33.5432,7.25e-05
2016-10-04 00:00:00,2016-10-04 00:00:00,PRATE,surface,-97.5004,33.5432,8.7e-05
2016-10-04 00:00:00,2016-10-04 00:00:00,PRATE,surface,-96.5629,33.5432,8.53e-05
2016-10-04 00:00:00,2016-10-04 00:00:00,PRATE,surface,-95.6254,33.5432,7.66e-05
2016-10-04 00:00:00,2016-10-04 00:00:00,PRATE,surface,-94.6879,33.5432,7.55e-05
2016-10-04 00:00:00,2016-10-04 00:00:00,PRATE,surface,-93.7504,33.5432,7.95e-05
2016-10-04 00:00:00,2016-10-04 00:00:00,PRATE,surface,-92.8129,33.5432,7.5e-05
2016-10-04 00:00:00,2016-10-04 00:00:00,PRATE,surface,-107.813,34.4881,2.87e-05
2016-10-04 00:00:00,2016-10-04 00:00:00,PRATE,surface,-106.875,34.4881,2.04e-05
2016-10-04 00:00:00,2016-10-04 00:00:00,PRATE,surface,-105.938,34.4881,1.59e-05
2016-10-04 00:00:00,2016-10-04 00:00:00,PRATE,surface,-105,34.4881,1.57e-05
2016-10-04 00:00:00,2016-10-04 00:00:00,PRATE,surface,-104.063,34.4881,1.75e-05
2016-10-04 00:00:00,2016-10-04 00:00:00,PRATE,surface,-103.125,34.4881,2.11e-05
2016-10-04 00:00:00,2016-10-04 00:00:00,PRATE,surface,-102.188,34.4881,2.42e-05
2016-10-04 00:00:00,2016-10-04 00:00:00,PRATE,surface,-101.25,34.4881,3.02e-05
2016-10-04 00:00:00,2016-10-04 00:00:00,PRATE,surface,-100.313,34.4881,3.58e-05
2016-10-04 00:00:00,2016-10-04 00:00:00,PRATE,surface,-99.3754,34.4881,4.33e-05
2016-10-04 00:00:00,2016-10-04 00:00:00,PRATE,surface,-98.4379,34.4881,5.78e-05
2016-10-04 00:00:00,2016-10-04 00:00:00,PRATE,surface,-97.5004,34.4881,7.33e-05
2016-10-04 00:00:00,2016-10-04 00:00:00,PRATE,surface,-96.5629,34.4881,7.87e-05
2016-10-04 00:00:00,2016-10-04 00:00:00,PRATE,surface,-95.6254,34.4881,7.46e-05
2016-10-04 00:00:00,2016-10-04 00:00:00,PRATE,surface,-94.6879,34.4881,7.08e-05
2016-10-04 00:00:00,2016-10-04 00:00:00,PRATE,surface,-93.7504,34.4881,7.01e-05
2016-10-04 00:00:00,2016-10-04 00:00:00,PRATE,surface,-92.8129,34.4881,6.77e-05
2016-10-04 00:00:00,2016-10-04 00:00:00,PRATE,surface,-107.813,35.4329,1.7e-05
2016-10-04 00:00:00,2016-10-04 00:00:00,PRATE,surface,-106.875,35.4329,1.47e-05
2016-10-04 00:00:00,2016-10-04 00:00:00,PRATE,surface,-105.938,35.4329,1.39e-05
2016-10-04 00:00:00,2016-10-04 00:00:00,PRATE,surface,-105,35.4329,1.58e-05
2016-10-04 00:00:00,2016-10-04 00:00:00,PRATE,surface,-104.063,35.4329,1.77e-05
2016-10-04 00:00:00,2016-10-04 00:00:00,PRATE,surface,-103.125,35.4329,1.68e-05
2016-10-04 00:00:00,2016-10-04 00:00:00,PRATE,surface,-102.188,35.4329,2.1e-05
2016-10-04 00:00:00,2016-10-04 00:00:00,PRATE,surface,-101.25,35.4329,2.75e-05
2016-10-04 00:00:00,2016-10-04 00:00:00,PRATE,surface,-100.313,35.4329,3.09e-05
2016-10-04 00:00:00,2016-10-04 00:00:00,PRATE,surface,-99.3754,35.4329,3.43e-05
2016-10-04 00:00:00,2016-10-04 00:00:00,PRATE,surface,-98.4379,35.4329,4.08e-05
2016-10-04 00:00:00,2016-10-04 00:00:00,PRATE,surface,-97.5004,35.4329,5.01e-05
2016-10-04 00:00:00,2016-10-04 00:00:00,PRATE,surface,-96.5629,35.4329,5.88e-05
2016-10-04 00:00:00,2016-10-04 00:00:00,PRATE,surface,-95.6254,35.4329,6.39e-05
2016-10-04 00:00:00,2016-10-04 00:00:00,PRATE,surface,-94.6879,35.4329,6.64e-05
2016-10-04 00:00:00,2016-10-04 00:00:00,PRATE,surface,-93.7504,35.4329,6.65e-05
2016-10-04 00:00:00,2016-10-04 00:00:00,PRATE,surface,-92.8129,35.4329,6.2e-05
2016-10-04 00:00:00,2016-10-04 00:00:00,PRATE,surface,-107.813,36.3778,2.03e-05
2016-10-04 00:00:00,2016-10-04 00:00:00,PRATE,surface,-106.875,36.3778,2.18e-05
2016-10-04 00:00:00,2016-10-04 00:00:00,PRATE,surface,-105.938,36.3778,2.06e-05
2016-10-04 00:00:00,2016-10-04 00:00:00,PRATE,surface,-105,36.3778,1.72e-05
2016-10-04 00:00:00,2016-10-04 00:00:00,PRATE,surface,-104.063,36.3778,1.49e-05
2016-10-04 00:00:00,2016-10-04 00:00:00,PRATE,surface,-103.125,36.3778,1.3e-05
2016-10-04 00:00:00,2016-10-04 00:00:00,PRATE,surface,-102.188,36.3778,1.57e-05
2016-10-04 00:00:00,2016-10-04 00:00:00,PRATE,surface,-101.25,36.3778,1.99e-05
2016-10-04 00:00:00,2016-10-04 00:00:00,PRATE,surface,-100.313,36.3778,2.48e-05
2016-10-04 00:00:00,2016-10-04 00:00:00,PRATE,surface,-99.3754,36.3778,2.92e-05
2016-10-04 00:00:00,2016-10-04 00:00:00,PRATE,surface,-98.4379,36.3778,3.34e-05
2016-10-04 00:00:00,2016-10-04 00:00:00,PRATE,surface,-97.5004,36.3778,3.9e-05
2016-10-04 00:00:00,2016-10-04 00:00:00,PRATE,surface,-96.5629,36.3778,4.59e-05
2016-10-04 00:00:00,2016-10-04 00:00:00,PRATE,surface,-95.6254,36.3778,5.1e-05
2016-10-04 00:00:00,2016-10-04 00:00:00,PRATE,surface,-94.6879,36.3778,5.18e-05
2016-10-04 00:00:00,2016-10-04 00:00:00,PRATE,surface,-93.7504,36.3778,4.83e-05
2016-10-04 00:00:00,2016-10-04 00:00:00,PRATE,surface,-92.8129,36.3778,4.4e-05
