2018-11-03 00:00:00,2018-11-03 00:00:00,TMP,surface,-107.813,25.0393,293.084
2018-11-03 00:00:00,2018-11-03 00:00:00,TMP,surface,-106.875,25.0393,288.018
2018-11-03 00:00:00,2018-11-03 00:00:00,TMP,surface,-105.938,25.0393,283.227
2018-11-03 00:00:00,2018-11-03 00:00:00,TMP,surface,-105,25.0393,282.228
2018-11-03 00:00:00,2018-11-03 00:00:00,TMP,surface,-104.063,25.0393,285.846
2018-11-03 00:00:00,2018-11-03 00:00:00,TMP,surface,-103.125,25.0393,287.771
2018-11-03 00:00:00,2018-11-03 00:00:00,TMP,surface,-102.188,25.0393,287.086
2018-11-03 00:00:00,2018-11-03 00:00:00,TMP,surface,-101.25,25.0393,285.111
2018-11-03 00:00:00,2018-11-03 00:00:00,TMP,surface,-100.313,25.0393,284.494
2018-11-03 00:00:00,2018-11-03 00:00:00,TMP,surface,-99.3754,25.0393,285.726
2018-11-03 00:00:00,2018-11-03 00:00:00,TMP,surface,-98.4379,25.0393,287.761
2018-11-03 00:00:00,2018-11-03 00:00:00,TMP,surface,-97.5004,25.0393,293.298
2018-11-03 00:00:00,2018-11-03 00:00:00,TMP,surface,-96.5629,25.0393,293.758
2018-11-03 00:00:00,2018-11-03 00:00:00,TMP,surface,-95.6254,25.0393,294.529
2018-11-03 00:00:00,2018-11-03 00:00:00,TMP,surface,-94.6879,25.0393,295.583
2018-11-03 00:00:00,2018-11-03 00:00:00,TMP,surface,-93.7504,25.0393,295.721
2018-11-03 00:00:00,2018-11-03 00:00:00,TMP,surface,-92.8129,25.0393,295.662
2018-11-03 00:00:00,2018-11-03 00:00:00,TMP,surface,-107.813,25.9842,288.74
2018-11-03 00:00:00,2018-11-03 00:00:00,TMP,surface,-106.875,25.9842,283.204
2018-11-03 00:00:00,2018-11-03 00:00:00,TMP,surface,-105.938,25.9842,281.425
2018-11-03 00:00:00,2018-11-03 00:00:00,TMP,surface,-105,25.9842,283.401
2018-11-03 00:00:00,2018-11-03 00:00:00,TMP,surface,-104.063,25.9842,286.478
2018-11-03 00:00:00,2018-11-03 00:00:00,TMP,surface,-103.125,25.9842,287.407
2018-11-03 00:00:00,2018-11-03 00:00:00,TMP,surface,-102.188,25.9842,286.468
2018-11-03 00:00:00,2018-11-03 00:00:00,TMP,surface,-101.25,25.9842,284.878
2018-11-03 00:00:00,2018-11-03 00:00:00,TMP,surface,-100.313,25.9842,284.262
2018-11-03 00:00:00,2018-11-03 00:00:00,TMP,surface,-99.3754,25.9842,285.567
2018-11-03 00:00:00,2018-11-03 00:00:00,TMP,surface,-98.4379,25.9842,287.345
2018-11-03 00:00:00,2018-11-03 00:00:00,TMP,surface,-97.5004,25.9842,288.943
2018-11-03 00:00:00,2018-11-03 00:00:00,TMP,surface,-96.5629,25.9842,293.252
2018-11-03 00:00:00,2018-11-03 00:00:00,TMP,surface,-95.6254,25.9842,293.746
2018-11-03 00:00:00,2018-11-03 00:00:00,TMP,surface,-94.6879,25.9842,294.585
2018-11-03 00:00:00,2018-11-03 00:00:00,TMP,surface,-93.7504,25.9842,294.771
2018-11-03 00:00:00,2018-11-03 00:00:00,TMP,surface,-92.8129,25.9842,294.855
2018-11-03 00:00:00,2018-11-03 00:00:00,TMP,surface,-107.813,26.929,283.767
2018-11-03 00:00:00,2018-11-03 00:00:00,TMP,surface,-106.875,26.929,280.095
2018-11-03 00:00:00,2018-11-03 00:00:00,TMP,surface,-105.938,26.929,282.332
2018-11-03 00:00:00,2018-11-03 00:00:00,TMP,surface,-105,26.929,284.588
2018-11-03 00:00:00,2018-11-03 00:00:00,TMP,surface,-104.063,26.929,285.255
2018-11-03 00:00:00,2018-11-03 00:00:00,TMP,surface,-103.125,26.929,284.532
2018-11-03 00:00:00,2018-11-03 00:00:00,TMP,surface,-102.188,26.929,284.134
2018-11-03 00:00:00,2018-11-03 00:00:00,TMP,surface,-101.25,26.929,284.182
2018-11-03 00:00:00,2018-11-03 00:00:00,TMP,surface,-100.313,26.929,284.492
2018-11-03 00:00:00,2018-11-03 00:00:00,TMP,surface,-99.3754,26.929,285.186
2018-11-03 00:00:00,2018-11-03 00:00:00,TMP,surface,-98.4379,26.929,285.931
2018-11-03 00:00:00,2018-11-03 00:00:00,TMP,surface,-97.5004,26.929,291.886
2018-11-03 00:00:00,2018-11-03 00:00:00,TMP,surface,-96.5629,26.929,292.857
2018-11-03 00:00:00,2018-11-03 00:00:00,TMP,surface,-95.6254,26.929,293.414
2018-11-03 00:00:00,2018-11-03 00:00:00,TMP,surface,-94.6879,26.929,294.031
2018-11-03 00:00:00,2018-11-03 00:00:00,TMP,surface,-93.7504,26.929,294.196
2018-11-03 00:00:00,2018-11-03 00:00:00,TMP,surface,-92.8129,26.929,294.306
2018-11-03 00:00:00,2018-11-03 00:00:00,TMP,surface,-107.813,27.8739,280.881
2018-11-03 00:00:00,2018-11-03 00:00:00,TMP,surface,-106.875,27.8739,280.018
2018-11-03 00:00:00,2018-11-03 00:00:00,TMP,surface,-105.938,27.8739,282.67
2018-11-03 00:00:00,2018-11-03 00:00:00,TMP,surface,-105,27.8739,284.439
2018-11-03 00:00:00,2018-11-03 00:00:00,TMP,surface,-104.063,27.8739,284.188
2018-11-03 00:00:00,2018-11-03 00:00:00,TMP,surface,-103.125,27.8739,282.958
2018-11-03 00:00:00,2018-11-03 00:00:00,TMP,surface,-102.188,27.8739,282.947
2018-11-03 00:00:00,2018-11-03 00:00:00,TMP,surface,-101.25,27.8739,283.444
2018-11-03 00:00:00,2018-11-03 00:00:00,TMP,surface,-100.313,27.8739,283.996
2018-11-03 00:00:00,2018-11-03 00:00:00,TMP,surface,-99.3754,27.8739,284.209
2018-11-03 00:00:00,2018-11-03 00:00:00,TMP,surface,-98.4379,27.8739,284.441
2018-11-03 00:00:00,2018-11-03 00:00:00,TMP,surface,-97.5004,27.8739,288.715
2018-11-03 00:00:00,2018-11-03 00:00:00,TMP,surface,-96.5629,27.8739,293.11
2018-11-03 00:00:00,2018-11-03 00:00:00,TMP,surface,-95.6254,27.8739,293.505
2018-11-03 00:00:00,2018-11-03 00:00:00,TMP,surface,-94.6879,27.8739,293.55
2018-11-03 00:00:00,2018-11-03 00:00:00,TMP,surface,-93.7504,27.8739,293.564
2018-11-03 00:00:00,2018-11-03 00:00:00,TMP,surface,-92.8129,27.8739,293.607
2018-11-03 00:00:00,2018-11-03 00:00:00,TMP,surface,-107.813,28.8188,279.812
2018-11-03 00:00:00,2018-11-03 00:00:00,TMP,surface,-106.875,28.8188,280.388
2018-11-03 00:00:00,2018-11-03 00:00:00,TMP,surface,-105.938,28.8188,282.692
2018-11-03 00:00:00,2018-11-03 00:00:00,TMP,surface,-105,28.8188,283.599
2018-11-03 00:00:00,2018-11-03 00:00:00,TMP,surface,-104.063,28.8188,282.542
2018-11-03 00:00:00,2018-11-03 00:00:00,TMP,surface,-103.125,28.8188,281.788
2018-11-03 00:00:00,2018-11-03 00:00:00,TMP,surface,-102.188,28.8188,282.086
2018-11-03 00:00:00,2018-11-03 00:00:00,TMP,surface,-101.25,28.8188,282.69
2018-11-03 00:00:00,2018-11-03 00:00:00,TMP,surface,-100.313,28.8188,282.601
2018-11-03 00:00:00,2018-11-03 00:00:00,TMP,surface,-99.3754,28.8188,282.339
2018-11-03 00:00:00,2018-11-03 00:00:00,TMP,surface,-98.4379,28.8188,282.427
2018-11-03 00:00:00,2018-11-03 00:00:00,TMP,surface,-97.5004,28.8188,282.983
2018-11-03 00:00:00,2018-11-03 00:00:00,TMP,surface,-96.5629,28.8188,283.817
2018-11-03 00:00:00,2018-11-03 00:00:00,TMP,surface,-95.6254,28.8188,287.618
2018-11-03 00:00:00,2018-11-03 00:00:00,TMP,surface,-94.6879,28.8188,293.031
2018-11-03 00:00:00,2018-11-03 00:00:00,TMP,surface,-93.7504,28.8188,292.991
2018-11-03 00:00:00,2018-11-03 00:00:00,TMP,surface,-92.8129,28.8188,293.129
2018-11-03 00:00:00,2018-11-03 00:00:00,TMP,surface,-107.813,29.7637,280.375
2018-11-03 00:00:00,2018-11-03 00:00:00,TMP,surface,-106.875,29.7637,281.126
2018-11-03 00:00:00,2018-11-03 00:00:00,TMP,surface,-105.938,29.7637,282.476
2018-11-03 00:00:00,2018-11-03 00:00:00,TMP,surface,-105,29.7637,281.929
2018-11-03 00:00:00,2018-11-03 00:00:00,TMP,surface,-104.063,29.7637,281.463
2018-11-03 00:00:00,2018-11-03 00:00:00,TMP,surface,-103.125,29.7637,281.5
2018-11-03 00:00:00,2018-11-03 00:00:00,TMP,surface,-102.188,29.7637,281.831
2018-11-03 00:00:00,2018-11-03 00:00:00,TMP,surface,-101.25,29.7637,281.715
2018-11-03 00:00:00,2018-11-03 00:00:00,TMP,surface,-100.313,29.7637,281.017
2018-11-03 00:00:00,2018-11-03 00:00:00,TMP,surface,-99.3754,29.7637,280.567
2018-11-03 00:00:00,2018-11-03 00:00:00,TMP,surface,-98.4379,29.7637,280.547
2018-11-03 00:00:00,2018-11-03 00:00:00,TMP,surface,-97.5004,29.7637,280.78
2018-11-03 00:00:00,2018-11-03 00:00:00,TMP,surface,-96.5629,29.7637,281.233
2018-11-03 00:00:00,2018-11-03 00:00:00,TMP,surface,-95.6254,29.7637,281.91
2018-11-03 00:00:00,2018-11-03 00:00:00,TMP,surface,-94.6879,29.7637,285.518
2018-11-03 00:00:00,2018-11-03 00:00:00,TMP,surface,-93.7504,29.7637,289.836
2018-11-03 00:00:00,2018-11-03 00:00:00,TMP,surface,-92.8129,29.7637,282.327
2018-11-03 00:00:00,2018-11-03 00:00:00,TMP,surface,-107.813,30.7085,281.729
2018-11-03 00:00:00,2018-11-03 00:00:00,TMP,surface,-106.875,30.7085,282.255
2018-11-03 00:00:00,2018-11-03 00:00:00,TMP,surface,-105.938,30.7085,281.654
2018-11-03 00:00:00,2018-11-03 00:00:00,TMP,surface,-105,30.7085,280.387
2018-11-03 00:00:00,2018-11-03 00:00:00,TMP,surface,-104.063,30.7085,280.196
2018-11-03 00:00:00,2018-11-03 00:00:00,TMP,surface,-103.125,30.7085,280.806
2018-11-03 00:00:00,2018-11-03 00:00:00,TMP,surface,-102.188,30.7085,280.922
2018-11-03 00:00:00,2018-11-03 00:00:00,TMP,surface,-101.25,30.7085,280.366
2018-11-03 00:00:00,2018-11-03 00:00:00,TMP,surface,-100.313,30.7085,279.674
2018-11-03 00:00:00,2018-11-03 00:00:00,TMP,surface,-99.3754,30.7085,279.395
2018-11-03 00:00:00,2018-11-03 00:00:00,TMP,surface,-98.4379,30.7085,279.418
2018-11-03 00:00:00,2018-11-03 00:00:00,TMP,surface,-97.5004,30.7085,279.535
2018-11-03 00:00:00,2018-11-03 00:00:00,TMP,surface,-96.5629,30.7085,279.718
2018-11-03 00:00:00,2018-11-03 00:00:00,TMP,surface,-95.6254,30.7085,279.9
2018-11-03 00:00:00,2018-11-03 00:00:00,TMP,surface,-94.6879,30.7085,279.906
2018-11-03 00:00:00,2018-11-03 00:00:00,TMP,surface,-93.7504,30.7085,279.642
2018-11-03 00:00:00,2018-11-03 00:00:00,TMP,surface,-92.8129,30.7085,279.148
2018-11-03 00:00:00,2018-11-03 00:00:00,TMP,surface,-107.813,31.6534,281.267
2018-11-03 00:00:00,2018-11-03 00:00:00,TMP,surface,-106.875,31.6534,281.507
2018-11-03 00:00:00,2018-11-03 00:00:00,TMP,surface,-105.938,31.6534,280.238
2018-11-03 00:00:00,2018-11-03 00:00:00,TMP,surface,-105,31.6534,279.46
2018-11-03 00:00:00,2018-11-03 00:00:00,TMP,surface,-104.063,31.6534,279.406
2018-11-03 00:00:00,2018-11-03 00:00:00,TMP,surface,-103.125,31.6534,279.774
2018-11-03 00:00:00,2018-11-03 00:00:00,TMP,surface,-102.188,31.6534,279.764
2018-11-03 00:00:00,2018-11-03 00:00:00,TMP,surface,-101.25,31.6534,279.214
2018-11-03 00:00:00,2018-11-03 00:00:00,TMP,surface,-100.313,31.6534,278.806
2018-11-03 00:00:00,2018-11-03 00:00:00,TMP,surface,-99.3754,31.6534,278.694
2018-11-03 00:00:00,2018-11-03 00:00:00,TMP,surface,-98.4379,31.6534,278.788
2018-11-03 00:00:00,2018-11-03 00:00:00,TMP,surface,-97.5004,31.6534,278.854
2018-11-03 00:00:00,2018-11-03 00:00:00,TMP,surface,-96.5629,31.6534,278.866
2018-11-03 00:00:00,2018-11-03 00:00:00,TMP,surface,-95.6254,31.6534,278.738
2018-11-03 00:00:00,2018-11-03 00:00:00,TMP,surface,-94.6879,31.6534,278.308
2018-11-03 00:00:00,2018-11-03 00:00:00,TMP,surface,-93.7504,31.6534,277.871
2018-11-03 00:00:00,2018-11-03 00:00:00,TMP,surface,-92.8129,31.6534,277.618
2018-11-03 00:00:00,2018-11-03 00:00:00,TMP,surface,-107.813,32.5983,278.769
2018-11-03 00:00:00,2018-11-03 00:00:00,TMP,surface,-106.875,32.5983,278.799
2018-11-03 00:00:00,2018-11-03 00:00:00,TMP,surface,-105.938,32.5983,278.79
2018-11-03 00:00:00,2018-11-03 00:00:00,TMP,surface,-105,32.5983,278.634
2018-11-03 00:00:00,2018-11-03 00:00:00,TMP,surface,-104.063,32.5983,279.041
2018-11-03 00:00:00,2018-11-03 00:00:00,TMP,surface,-103.125,32.5983,279.318
2018-11-03 00:00:00,2018-11-03 00:00:00,TMP,surface,-102.188,32.5983,278.898
2018-11-03 00:00:00,2018-11-03 00:00:00,TMP,surface,-101.25,32.5983,278.606
2018-11-03 00:00:00,2018-11-03 00:00:00,TMP,surface,-100.313,32.5983,278.505
2018-11-03 00:00:00,2018-11-03 00:00:00,TMP,surface,-99.3754,32.5983,278.412
2018-11-03 00:00:00,2018-11-03 00:00:00,TMP,surface,-98.4379,32.5983,278.241
2018-11-03 00:00:00,2018-11-03 00:00:00,TMP,surface,-97.5004,32.5983,278.047
2018-11-03 00:00:00,2018-11-03 00:00:00,TMP,surface,-96.5629,32.5983,277.875
2018-11-03 00:00:00,2018-11-03 00:00:00,TMP,surface,-95.6254,32.5983,277.636
2018-11-03 00:00:00,2018-11-03 00:00:00,TMP,surface,-94.6879,32.5983,277.219
2018-11-03 00:00:00,2018-11-03 00:00:00,TMP,surface,-93.7504,32.5983,276.775
2018-11-03 00:00:00,2018-11-03 00:00:00,TMP,surface,-92.8129,32.5983,276.642
2018-11-03 00:00:00,2018-11-03 00:00:00,TMP,surface,-107.813,33.5432,275.87
2018-11-03 00:00:00,2018-11-03 00:00:00,TMP,surface,-106.875,33.5432,276.721
2018-11-03 00:00:00,2018-11-03 00:00:00,TMP,surface,-105.938,33.5432,277.454
2018-11-03 00:00:00,2018-11-03 00:00:00,TMP,surface,-105,33.5432,278.049
2018-11-03 00:00:00,2018-11-03 00:00:00,TMP,surface,-104.063,33.5432,278.847
2018-11-03 00:00:00,2018-11-03 00:00:00,TMP,surface,-103.125,33.5432,278.974
2018-11-03 00:00:00,2018-11-03 00:00:00,TMP,surface,-102.188,33.5432,278.402
2018-11-03 00:00:00,2018-11-03 00:00:00,TMP,surface,-101.25,33.5432,278.01
2018-11-03 00:00:00,2018-11-03 00:00:00,TMP,surface,-100.313,33.5432,277.857
2018-11-03 00:00:00,2018-11-03 00:00:00,TMP,surface,-99.3754,33.5432,277.591
2018-11-03 00:00:00,2018-11-03 00:00:00,TMP,surface,-98.4379,33.5432,277.009
2018-11-03 00:00:00,2018-11-03 00:00:00,TMP,surface,-97.5004,33.5432,276.409
2018-11-03 00:00:00,2018-11-03 00:00:00,TMP,surface,-96.5629,33.5432,276.097
2018-11-03 00:00:00,2018-11-03 00:00:00,TMP,surface,-95.6254,33.5432,275.898
2018-11-03 00:00:00,2018-11-03 00:00:00,TMP,surface,-94.6879,33.5432,275.521
2018-11-03 00:00:00,2018-11-03 00:00:00,TMP,surface,-93.7504,33.5432,275.135
2018-11-03 00:00:00,2018-11-03 00:00:00,TMP,surface,-92.8129,33.5432,275.065
2018-11-03 00:00:00,2018-11-03 00:00:00,TMP,surface,-107.813,34.4881,274.692
2018-11-03 00:00:00,2018-11-03 00:00:00,TMP,surface,-106.875,34.4881,275.852
2018-11-03 00:00:00,2018-11-03 00:00:00,TMP,surface,-105.938,34.4881,276.82
2018-11-03 00:00:00,2018-11-03 00:00:00,TMP,surface,-105,34.4881,277.707
2018-11-03 00:00:00,2018-11-03 00:00:00,TMP,surface,-104.063,34.4881,278.387
2018-11-03 00:00:00,2018-11-03 00:00:00,TMP,surface,-103.125,34.4881,278.346
2018-11-03 00:00:00,2018-11-03 00:00:00,TMP,surface,-102.188,34.4881,277.775
2018-11-03 00:00:00,2018-11-03 00:00:00,TMP,surface,-101.25,34.4881,277.199
2018-11-03 00:00:00,2018-11-03 00:00:00,TMP,surface,-100.313,34.4881,276.759
2018-11-03 00:00:00,2018-11-03 00:00:00,TMP,surface,-99.3754,34.4881,276.276
2018-11-03 00:00:00,2018-11-03 00:00:00,TMP,surface,-98.4379,34.4881,275.57
2018-11-03 00:00:00,2018-11-03 00:00:00,TMP,surface,-97.5004,34.4881,274.754
2018-11-03 00:00:00,2018-11-03 00:00:00,TMP,surface,-96.5629,34.4881,274.055
2018-11-03 00:00:00,2018-11-03 00:00:00,TMP,surface,-95.6254,34.4881,273.5
2018-11-03 00:00:00,2018-11-03 00:00:00,TMP,surface,-94.6879,34.4881,273.102
2018-11-03 00:00:00,2018-11-03 00:00:00,TMP,surface,-93.7504,34.4881,273.003
2018-11-03 00:00:00,2018-11-03 00:00:00,TMP,surface,-92.8129,34.4881,273.111
2018-11-03 00:00:00,2018-11-03 00:00:00,TMP,surface,-107.813,35.4329,274.484
2018-11-03 00:00:00,2018-11-03 00:00:00,TMP,surface,-106.875,35.4329,274.783
2018-11-03 00:00:00,2018-11-03 00:00:00,TMP,surface,-105.938,35.4329,275.471
2018-11-03 00:00:00,2018-11-03 00:00:00,TMP,surface,-105,35.4329,276.41
2018-11-03 00:00:00,2018-11-03 00:00:00,TMP,surface,-104.063,35.4329,277.514
2018-11-03 00:00:00,2018-11-03 00:00:00,TMP,surface,-103.125,35.4329,277.676
2018-11-03 00:00:00,2018-11-03 00:00:00,TMP,surface,-102.188,35.4329,276.942
2018-11-03 00:00:00,2018-11-03 00:00:00,TMP,surface,-101.25,35.4329,276.091
2018-11-03 00:00:00,2018-11-03 00:00:00,TMP,surface,-100.313,35.4329,275.497
2018-11-03 00:00:00,2018-11-03 00:00:00,TMP,surface,-99.3754,35.4329,274.868
2018-11-03 00:00:00,2018-11-03 00:00:00,TMP,surface,-98.4379,35.4329,274.231
2018-11-03 00:00:00,2018-11-03 00:00:00,TMP,surface,-97.5004,35.4329,273.646
2018-11-03 00:00:00,2018-11-03 00:00:00,TMP,surface,-96.5629,35.4329,273.043
2018-11-03 00:00:00,2018-11-03 00:00:00,TMP,surface,-95.6254,35.4329,272.22
2018-11-03 00:00:00,2018-11-03 00:00:00,TMP,surface,-94.6879,35.4329,271.324
2018-11-03 00:00:00,2018-11-03 00:00:00,TMP,surface,-93.7504,35.4329,270.959
2018-11-03 00:00:00,2018-11-03 00:00:00,TMP,surface,-92.8129,35.4329,271.028
2018-11-03 00:00:00,2018-11-03 00:00:00,TMP,surface,-107.813,36.3778,273.321
2018-11-03 00:00:00,2018-11-03 00:00:00,TMP,surface,-106.875,36.3778,272.057
2018-11-03 00:00:00,2018-11-03 00:00:00,TMP,surface,-105.938,36.3778,272.841
2018-11-03 00:00:00,2018-11-03 00:00:00,TMP,surface,-105,36.3778,274.499
2018-11-03 00:00:00,2018-11-03 00:00:00,TMP,surface,-104.063,36.3778,275.804
2018-11-03 00:00:00,2018-11-03 00:00:00,TMP,surface,-103.125,36.3778,276.121
2018-11-03 00:00:00,2018-11-03 00:00:00,TMP,surface,-102.188,36.3778,275.698
2018-11-03 00:00:00,2018-11-03 00:00:00,TMP,surface,-101.25,36.3778,274.947
2018-11-03 00:00:00,2018-11-03 00:00:00,TMP,surface,-100.313,36.3778,274.401
2018-11-03 00:00:00,2018-11-03 00:00:00,TMP,surface,-99.3754,36.3778,273.887
2018-11-03 00:00:00,2018-11-03 00:00:00,TMP,surface,-98.4379,36.3778,273.265
2018-11-03 00:00:00,2018-11-03 00:00:00,TMP,surface,-97.5004,36.3778,272.921
2018-11-03 00:00:00,2018-11-03 00:00:00,TMP,surface,-96.5629,36.3778,272.775
2018-11-03 00:00:00,2018-11-03 00:00:00,TMP,surface,-95.6254,36.3778,272.134
2018-11-03 00:00:00,2018-11-03 00:00:00,TMP,surface,-94.6879,36.3778,270.964
2018-11-03 00:00:00,2018-11-03 00:00:00,TMP,surface,-93.7504,36.3778,270.178
2018-11-03 00:00:00,2018-11-03 00:00:00,TMP,surface,-92.8129,36.3778,270.207
2018-11-03 00:00:00,2018-11-03 00:00:00,PRATE,surface,-107.813,25.0393,1.2e-06
2018-11-03 00:00:00,2018-11-03 00:00:00,PRATE,surface,-106.875,25.0393,4.2e-06
2018-11-03 00:00:00,2018-11-03 00:00:00,PRATE,surface,-105.938,25.0393,1.03e-05
2018-11-03 00:00:00,2018-11-03 00:00:00,PRATE,surface,-105,25.0393,5.1e-06
2018-11-03 00:00:00,2018-11-03 00:00:00,PRATE,surface,-104.063,25.0393,1.4e-06
2018-11-03 00:00:00,2018-11-03 00:00:00,PRATE,surface,-103.125,25.0393,6e-07
2018-11-03 00:00:00,2018-11-03 00:00:00,PRATE,surface,-102.188,25.0393,6.1e-06
2018-11-03 00:00:00,2018-11-03 00:00:00,PRATE,surface,-101.25,25.0393,1.33e-05
2018-11-03 00:00:00,2018-11-03 00:00:00,PRATE,surface,-100.313,25.0393,2.74e-05
2018-11-03 00:00:00,2018-11-03 00:00:00,PRATE,surface,-99.3754,25.0393,3.34e-05
2018-11-03 00:00:00,2018-11-03 00:00:00,PRATE,surface,-98.4379,25.0393,2.66e-05
2018-11-03 00:00:00,2018-11-03 00:00:00,PRATE,surface,-97.5004,25.0393,2.58e-05
2018-11-03 00:00:00,2018-11-03 00:00:00,PRATE,surface,-96.5629,25.0393,3.61e-05
2018-11-03 00:00:00,2018-11-03 00:00:00,PRATE,surface,-95.6254,25.0393,3.47e-05
2018-11-03 00:00:00,2018-11-03 00:00:00,PRATE,surface,-94.6879,25.0393,2.53e-05
2018-11-03 00:00:00,2018-11-03 00:00:00,PRATE,surface,-93.7504,25.0393,2.03e-05
2018-11-03 00:00:00,2018-11-03 00:00:00,PRATE,surface,-92.8129,25.0393,1.73e-05
2018-11-03 00:00:00,2018-11-03 00:00:00,PRATE,surface,-107.813,25.9842,1.45e-05
2018-11-03 00:00:00,2018-11-03 00:00:00,PRATE,surface,-106.875,25.9842,1.82e-05
2018-11-03 00:00:00,2018-11-03 00:00:00,PRATE,surface,-105.938,25.9842,1.08e-05
2018-11-03 00:00:00,2018-11-03 00:00:00,PRATE,surface,-105,25.9842,3.9e-06
2018-11-03 00:00:00,2018-11-03 00:00:00,PRATE,surface,-104.063,25.9842,3.1e-06
2018-11-03 00:00:00,2018-11-03 00:00:00,PRATE,surface,-103.125,25.9842,2.1e-06
2018-11-03 00:00:00,2018-11-03 00:00:00,PRATE,surface,-102.188,25.9842,6e-06
2018-11-03 00:00:00,2018-11-03 00:00:00,PRATE,surface,-101.25,25.9842,9.4e-06
2018-11-03 00:00:00,2018-11-03 00:00:00,PRATE,surface,-100.313,25.9842,1.61e-05
2018-11-03 00:00:00,2018-11-03 00:00:00,PRATE,surface,-99.3754,25.9842,2.73e-05
2018-11-03 00:00:00,2018-11-03 00:00:00,PRATE,surface,-98.4379,25.9842,2.94e-05
2018-11-03 00:00:00,2018-11-03 00:00:00,PRATE,surface,-97.5004,25.9842,3.66e-05
2018-11-03 00:00:00,2018-11-03 00:00:00,PRATE,surface,-96.5629,25.9842,5.01e-05
2018-11-03 00:00:00,2018-11-03 00:00:00,PRATE,surface,-95.6254,25.9842,4.24e-05
2018-11-03 00:00:00,2018-11-03 00:00:00,PRATE,surface,-94.6879,25.9842,2.5e-05
2018-11-03 00:00:00,2018-11-03 00:00:00,PRATE,surface,-93.7504,25.9842,2.13e-05
2018-11-03 00:00:00,2018-11-03 00:00:00,PRATE,surface,-92.8129,25.9842,2.08e-05
2018-11-03 00:00:00,2018-11-03 00:00:00,PRATE,surface,-107.813,26.929,5.77e-05
2018-11-03 00:00:00,2018-11-03 00:00:00,PRATE,surface,-106.875,26.929,3.95e-05
2018-11-03 00:00:00,2018-11-03 00:00:00,PRATE,surface,-105.938,26.929,1.65e-05
2018-11-03 00:00:00,2018-11-03 00:00:00,PRATE,surface,-105,26.929,8.9e-06
2018-11-03 00:00:00,2018-11-03 00:00:00,PRATE,surface,-104.063,26.929,9.1e-06
2018-11-03 00:00:00,2018-11-03 00:00:00,PRATE,surface,-103.125,26.929,1.33e-05
2018-11-03 00:00:00,2018-11-03 00:00:00,PRATE,surface,-102.188,26.929,1.73e-05
2018-11-03 00:00:00,2018-11-03 00:00:00,PRATE,surface,-101.25,26.929,1.55e-05
2018-11-03 00:00:00,2018-11-03 00:00:00,PRATE,surface,-100.313,26.929,1.32e-05
2018-11-03 00:00:00,2018-11-03 00:00:00,PRATE,surface,-99.3754,26.929,1.59e-05
2018-11-03 00:00:00,2018-11-03 00:00:00,PRATE,surface,-98.4379,26.929,2.09e-05
2018-11-03 00:00:00,2018-11-03 00:00:00,PRATE,surface,-97.5004,26.929,2.87e-05
2018-11-03 00:00:00,2018-11-03 00:00:00,PRATE,surface,-96.5629,26.929,4.03e-05
2018-11-03 00:00:00,2018-11-03 00:00:00,PRATE,surface,-95.6254,26.929,3.67e-05
2018-11-03 00:00:00,2018-11-03 00:00:00,PRATE,surface,-94.6879,26.929,3.28e-05
2018-11-03 00:00:00,2018-11-03 00:00:00,PRATE,surface,-93.7504,26.929,2.99e-05
2018-11-03 00:00:00,2018-11-03 00:00:00,PRATE,surface,-92.8129,26.929,2.88e-05
2018-11-03 00:00:00,2018-11-03 00:00:00,PRATE,surface,-107.813,27.8739,5.41e-05
2018-11-03 00:00:00,2018-11-03 00:00:00,PRATE,surface,-106.875,27.8739,3.37e-05
2018-11-03 00:00:00,2018-11-03 00:00:00,PRATE,surface,-105.938,27.8739,1.79e-05
2018-11-03 00:00:00,2018-11-03 00:00:00,PRATE,surface,-105,27.8739,1.2e-05
2018-11-03 00:00:00,2018-11-03 00:00:00,PRATE,surface,-104.063,27.8739,1.41e-05
2018-11-03 00:00:00,2018-11-03 00:00:00,PRATE,surface,-103.125,27.8739,1.97e-05
2018-11-03 00:00:00,2018-11-03 00:00:00,PRATE,surface,-102.188,27.8739,1.88e-05
2018-11-03 00:00:00,2018-11-03 00:00:00,PRATE,surface,-101.25,27.8739,1.38e-05
2018-11-03 00:00:00,2018-11-03 00:00:00,PRATE,surface,-100.313,27.8739,1.1e-05
2018-11-03 00:00:00,2018-11-03 00:00:00,PRATE,surface,-99.3754,27.8739,1.15e-05
2018-11-03 00:00:00,2018-11-03 00:00:00,PRATE,surface,-98.4379,27.8739,1.25e-05
2018-11-03 00:00:00,2018-11-03 00:00:00,PRATE,surface,-97.5004,27.8739,1.76e-05
2018-11-03 00:00:00,2018-11-03 00:00:00,PRATE,surface,-96.5629,27.8739,2.5e-05
2018-11-03 00:00:00,2018-11-03 00:00:00,PRATE,surface,-95.6254,27.8739,3.2e-05
2018-11-03 00:00:00,2018-11-03 00:00:00,PRATE,surface,-94.6879,27.8739,4.07e-05
2018-11-03 00:00:00,2018-11-03 00:00:00,PRATE,surface,-93.7504,27.8739,4.52e-05
2018-11-03 00:00:00,2018-11-03 00:00:00,PRATE,surface,-92.8129,27.8739,4.16e-05
2018-11-03 00:00:00,2018-11-03 00:00:00,PRATE,surface,-107.813,28.8188,3.36e-05
2018-11-03 00:00:00,2018-11-03 00:00:00,PRATE,surface,-106.875,28.8188,2.31e-05
2018-11-03 00:00:00,2018-11-03 00:00:00,PRATE,surface,-105.938,28.8188,1.62e-05
2018-11-03 00:00:00,2018-11-03 00:00:00,PRATE,surface,-105,28.8188,1.25e-05
2018-11-03 00:00:00,2018-11-03 00:00:00,PRATE,surface,-104.063,28.8188,1.63e-05
2018-11-03 00:00:00,2018-11-03 00:00:00,PRATE,surface,-103.125,28.8188,1.93e-05
2018-11-03 00:00:00,2018-11-03 00:00:00,PRATE,surface,-102.188,28.8188,1.4e-05
2018-11-03 00:00:00,2018-11-03 00:00:00,PRATE,surface,-101.25,28.8188,9.6e-06
2018-11-03 00:00:00,2018-11-03 00:00:00,PRATE,surface,-100.313,28.8188,8.7e-06
2018-11-03 00:00:00,2018-11-03 00:00:00,PRATE,surface,-99.3754,28.8188,1.05e-05
2018-11-03 00:00:00,2018-11-03 00:00:00,PRATE,surface,-98.4379,28.8188,1.25e-05
2018-11-03 00:00:00,2018-11-03 00:00:00,PRATE,surface,-97.5004,28.8188,1.57e-05
2018-11-03 00:00:00,2018-11-03 00:00:00,PRATE,surface,-96.5629,28.8188,2.43e-05
2018-11-03 00:00:00,2018-11-03 00:00:00,PRATE,surface,-95.6254,28.8188,3.69e-05
2018-11-03 00:00:00,2018-11-03 00:00:00,PRATE,surface,-94.6879,28.8188,4.47e-05
2018-11-03 00:00:00,2018-11-03 00:00:00,PRATE,surface,-93.7504,28.8188,4.53e-05
2018-11-03 00:00:00,2018-11-03 00:00:00,PRATE,surface,-92.8129,28.8188,4.43e-05
2018-11-03 00:00:00,2018-11-03 00:00:00,PRATE,surface,-107.813,29.7637,2.29e-05
2018-11-03 00:00:00,2018-11-03 00:00:00,PRATE,surface,-106.875,29.7637,2.01e-05
2018-11-03 00:00:00,2018-11-03 00:00:00,PRATE,surface,-105.938,29.7637,1.79e-05
2018-11-03 00:00:00,2018-11-03 00:00:00,PRATE,surface,-105,29.7637,1.87e-05
2018-11-03 00:00:00,2018-11-03 00:00:00,PRATE,surface,-104.063,29.7637,1.91e-05
2018-11-03 00:00:00,2018-11-03 00:00:00,PRATE,surface,-103.125,29.7637,1.38e-05
2018-11-03 00:00:00,2018-11-03 00:00:00,PRATE,surface,-102.188,29.7637,1.12e-05
2018-11-03 00:00:00,2018-11-03 00:00:00,PRATE,surface,-101.25,29.7637,9.3e-06
2018-11-03 00:00:00,2018-11-03 00:00:00,PRATE,surface,-100.313,29.7637,1.01e-05
2018-11-03 00:00:00,2018-11-03 00:00:00,PRATE,surface,-99.3754,29.7637,1.22e-05
2018-11-03 00:00:00,2018-11-03 00:00:00,PRATE,surface,-98.4379,29.7637,1.34e-05
2018-11-03 00:00:00,2018-11-03 00:00:00,PRATE,surface,-97.5004,29.7637,1.75e-05
2018-11-03 00:00:00,2018-11-03 00:00:00,PRATE,surface,-96.5629,29.7637,2.61e-05
2018-11-03 00:00:00,2018-11-03 00:00:00,PRATE,surface,-95.6254,29.7637,3.5e-05
2018-11-03 00:00:00,2018-11-03 00:00:00,PRATE,surface,-94.6879,29.7637,3.99e-05
2018-11-03 00:00:00,2018-11-03 00:00:00,PRATE,surface,-93.7504,29.7637,3.71e-05
2018-11-03 00:00:00,2018-11-03 00:00:00,PRATE,surface,-92.8129,29.7637,3.02e-05
2018-11-03 00:00:00,2018-11-03 00:00:00,PRATE,surface,-107.813,30.7085,1.88e-05
2018-11-03 00:00:00,2018-11-03 00:00:00,PRATE,surface,-106.875,30.7085,1.66e-05
2018-11-03 00:00:00,2018-11-03 00:00:00,PRATE,surface,-105.938,30.7085,1.69e-05
2018-11-03 00:00:00,2018-11-03 00:00:00,PRATE,surface,-105,30.7085,1.7e-05
2018-11-03 00:00:00,2018-11-03 00:00:00,PRATE,surface,-104.063,30.7085,1.77e-05
2018-11-03 00:00:00,2018-11-03 00:00:00,PRATE,surface,-103.125,30.7085,1.72e-05
2018-11-03 00:00:00,2018-11-03 00:00:00,PRATE,surface,-102.188,30.7085,1.47e-05
2018-11-03 00:00:00,2018-11-03 00:00:00,PRATE,surface,-101.25,30.7085,1.32e-05
2018-11-03 00:00:00,2018-11-03 00:00:00,PRATE,surface,-100.313,30.7085,1.39e-05
2018-11-03 00:00:00,2018-11-03 00:00:00,PRATE,surface,-99.3754,30.7085,1.48e-05
2018-11-03 00:00:00,2018-11-03 00:00:00,PRATE,surface,-98.4379,30.7085,1.5e-05
2018-11-03 00:00:00,2018-11-03 00:00:00,PRATE,surface,-97.5004,30.7085,1.61e-05
2018-11-03 00:00:00,2018-11-03 00:00:00,PRATE,surface,-96.5629,30.7085,2.26e-05
2018-11-03 00:00:00,2018-11-03 00:00:00,PRATE,surface,-95.6254,30.7085,3.19e-05
2018-11-03 00:00:00,2018-11-03 00:00:00,PRATE,surface,-94.6879,30.7085,3.56e-05
2018-11-03 00:00:00,2018-11-03 00:00:00,PRATE,surface,-93.7504,30.7085,3.35e-05
2018-11-03 00:00:00,2018-11-03 00:00:00,PRATE,surface,-92.8129,30.7085,2.89e-05
2018-11-03 00:00:00,2018-11-03 00:00:00,PRATE,surface,-107.813,31.6534,1.3e-05
2018-11-03 00:00:00,2018-11-03 00:00:00,PRATE,surface,-106.875,31.6534,1.03e-05
2018-11-03 00:00:00,2018-11-03 00:00:00,PRATE,surface,-105.938,31.6534,1.41e-05
2018-11-03 00:00:00,2018-11-03 00:00:00,PRATE,surface,-105,31.6534,1.81e-05
2018-11-03 00:00:00,2018-11-03 00:00:00,PRATE,surface,-104.063,31.6534,2.34e-05
2018-11-03 00:00:00,2018-11-03 00:00:00,PRATE,surface,-103.125,31.6534,1.93e-05
2018-11-03 00:00:00,2018-11-03 00:00:00,PRATE,surface,-102.188,31.6534,1.37e-05
2018-11-03 00:00:00,2018-11-03 00:00:00,PRATE,surface,-101.25,31.6534,1.28e-05
2018-11-03 00:00:00,2018-11-03 00:00:00,PRATE,surface,-100.313,31.6534,1.32e-05
2018-11-03 00:00:00,2018-11-03 00:00:00,PRATE,surface,-99.3754,31.6534,1.36e-05
2018-11-03 00:00:00,2018-11-03 00:00:00,PRATE,surface,-98.4379,31.6534,1.46e-05
2018-11-03 00:00:00,2018-11-03 00:00:00,PRATE,surface,-97.5004,31.6534,1.63e-05
2018-11-03 00:00:00,2018-11-03 00:00:00,PRATE,surface,-96.5629,31.6534,1.91e-05
2018-11-03 00:00:00,2018-11-03 00:00:00,PRATE,surface,-95.6254,31.6534,2.48e-05
2018-11-03 00:00:00,2018-11-03 00:00:00,PRATE,surface,-94.6879,31.6534,3.34e-05
2018-11-03 00:00:00,2018-11-03 00:00:00,PRATE,surface,-93.7504,31.6534,3.95e-05
2018-11-03 00:00:00,2018-11-03 00:00:00,PRATE,surface,-92.8129,31.6534,3.88e-05
2018-11-03 00:00:00,2018-11-03 00:00:00,PRATE,surface,-107.813,32.5983,9.2e-06
2018-11-03 00:00:00,2018-11-03 00:00:00,PRATE,surface,-106.875,32.5983,1.21e-05
2018-11-03 00:00:00,2018-11-03 00:00:00,PRATE,surface,-105.938,32.5983,1.32e-05
2018-11-03 00:00:00,2018-11-03 00:00:00,PRATE,surface,-105,32.5983,1.91e-05
2018-11-03 00:00:00,2018-11-03 00:00:00,PRATE,surface,-104.063,32.5983,1.6e-05
2018-11-03 00:00:00,2018-11-03 00:00:00,PRATE,surface,-103.125,32.5983,1.35e-05
2018-11-03 00:00:00,2018-11-03 00:00:00,PRATE,surface,-102.188,32.5983,1.29e-05
2018-11-03 00:00:00,2018-11-03 00:00:00,PRATE,surface,-101.25,32.5983,1.22e-05
2018-11-03 00:00:00,2018-11-03 00:00:00,PRATE,surface,-100.313,32.5983,9e-06
2018-11-03 00:00:00,2018-11-03 00:00:00,PRATE,surface,-99.3754,32.5983,9.5e-06
2018-11-03 00:00:00,2018-11-03 00:00:00,PRATE,surface,-98.4379,32.5983,1.33e-05
2018-11-03 00:00:00,2018-11-03 00:00:00,PRATE,surface,-97.5004,32.5983,1.84e-05
2018-11-03 00:00:00,2018-11-03 00:00:00,PRATE,surface,-96.5629,32.5983,2.24e-05
2018-11-03 00:00:00,2018-11-03 00:00:00,PRATE,surface,-95.6254,32.5983,2.56e-05
2018-11-03 00:00:00,2018-11-03 00:00:00,PRATE,surface,-94.6879,32.5983,3.07e-05
2018-11-03 00:00:00,2018-11-03 00:00:00,PRATE,surface,-93.7504,32.5983,3.72e-05
2018-11-03 00:00:00,2018-11-03 00:00:00,PRATE,surface,-92.8129,32.5983,4.16e-05
2018-11-03 00:00:00,2018-11-03 00:00:00,PRATE,surface,-107.813,33.5432,1.03e-05
2018-11-03 00:00:00,2018-11-03 00:00:00,PRATE,surface,-106.875,33.5432,1.12e-05
2018-11-03 00:00:00,2018-11-03 00:00:00,PRATE,surface,-105.938,33.5432,1.1e-05
2018-11-03 00:00:00,2018-11-03 00:00:00,PRATE,surface,-105,33.5432,1.07e-05
2018-11-03 00:00:00,2018-11-03 00:00:00,PRATE,surface,-104.063,33.5432,9.3e-06
2018-11-03 00:00:00,2018-11-03 00:00:00,PRATE,surface,-103.125,33.5432,9.5e-06
2018-11-03 00:00:00,2018-11-03 00:00:00,PRATE,surface,-102.188,33.5432,9.6e-06
2018-11-03 00:00:00,2018-11-03 00:00:00,PRATE,surface,-101.25,33.5432,1.01e-05
2018-11-03 00:00:00,2018-11-03 00:00:00,PRATE,surface,-100.313,33.5432,1.27e-05
2018-11-03 00:00:00,2018-11-03 00:00:00,PRATE,surface,-99.3754,33.5432,1.54e-05
2018-11-03 00:00:00,2018-11-03 00:00:00,PRATE,surface,-98.4379,33.5432,2.07e-05
2018-11-03 00:00:00,2018-11-03 00:00:00,PRATE,surface,-97.5004,33.5432,2.75e-05
2018-11-03 00:00:00,2018-11-03 00:00:00,PRATE,surface,-96.5629,33.5432,3.15e-05
2018-11-03 00:00:00,2018-11-03 00:00:00,PRATE,surface,-95.6254,33.5432,3.21e-05
2018-11-03 00:00:00,2018-11-03 00:00:00,PRATE,surface,-94.6879,33.5432,3.16e-05
2018-11-03 00:00:00,2018-11-03 00:00:00,PRATE,surface,-93.7504,33.5432,3.15e-05
2018-11-03 00:00:00,2018-11-03 00:00:00,PRATE,surface,-92.8129,33.5432,3.19e-05
2018-11-03 00:00:00,2018-11-03 00:00:00,PRATE,surface,-107.813,34.4881,5.7e-06
2018-11-03 00:00:00,2018-11-03 00:00:00,PRATE,surface,-106.875,34.4881,4.4e-06
2018-11-03 00:00:00,2018-11-03 00:00:00,PRATE,surface,-105.938,34.4881,3.9e-06
2018-11-03 00:00:00,2018-11-03 00:00:00,PRATE,surface,-105,34.4881,6.2e-06
2018-11-03 00:00:00,2018-11-03 00:00:00,PRATE,surface,-104.063,34.4881,7.4e-06
2018-11-03 00:00:00,2018-11-03 00:00:00,PRATE,surface,-103.125,34.4881,7.1e-06
2018-11-03 00:00:00,2018-11-03 00:00:00,PRATE,surface,-102.188,34.4881,1.08e-05
2018-11-03 00:00:00,2018-11-03 00:00:00,PRATE,surface,-101.25,34.4881,1.59e-05
2018-11-03 00:00:00,2018-11-03 00:00:00,PRATE,surface,-100.313,34.4881,1.98e-05
2018-11-03 00:00:00,2018-11-03 00:00:00,PRATE,surface,-99.3754,34.4881,2.22e-05
2018-11-03 00:00:00,2018-11-03 00:00:00,PRATE,surface,-98.4379,34.4881,2.62e-05
2018-11-03 00:00:00,2018-11-03 00:00:00,PRATE,surface,-97.5004,34.4881,3.05e-05
2018-11-03 00:00:00,2018-11-03 00:00:00,PRATE,surface,-96.5629,34.4881,3.29e-05
2018-11-03 00:00:00,2018-11-03 00:00:00,PRATE,surface,-95.6254,34.4881,3.25e-05
2018-11-03 00:00:00,2018-11-03 00:00:00,PRATE,surface,-94.6879,34.4881,3.07e-05
2018-11-03 00:00:00,2018-11-03 00:00:00,PRATE,surface,-93.7504,34.4881,2.92e-05
2018-11-03 00:00:00,2018-11-03 00:00:00,PRATE,surface,-92.8129,34.4881,2.58e-05
2018-11-03 00:00:00,2018-11-03 00:00:00,PRATE,surface,-107.813,35.4329,6.1e-06
2018-11-03 00:00:00,2018-11-03 00:00:00,PRATE,surface,-106.875,35.4329,3.6e-06
2018-11-03 00:00:00,2018-11-03 00:00:00,PRATE,surface,-105.938,35.4329,3.5e-06
2018-11-03 00:00:00,2018-11-03 00:00:00,PRATE,surface,-105,35.4329,7.8e-06
2018-11-03 00:00:00,2018-11-03 00:00:00,PRATE,surface,-104.063,35.4329,1.05e-05
2018-11-03 00:00:00,2018-11-03 00:00:00,PRATE,surface,-103.125,35.4329,1e-05
2018-11-03 00:00:00,2018-11-03 00:00:00,PRATE,surface,-102.188,35.4329,1.28e-05
2018-11-03 00:00:00,2018-11-03 00:00:00,PRATE,surface,-101.25,35.4329,1.63e-05
2018-11-03 00:00:00,2018-11-03 00:00:00,PRATE,surface,-100.313,35.4329,1.92e-05
2018-11-03 00:00:00,2018-11-03 00:00:00,PRATE,surface,-99.3754,35.4329,2.17e-05
2018-11-03 00:00:00,2018-11-03 00:00:00,PRATE,surface,-98.4379,35.4329,2.37e-05
2018-11-03 00:00:00,2018-11-03 00:00:00,PRATE,surface,-97.5004,35.4329,2.53e-05
2018-11-03 00:00:00,2018-11-03 00:00:00,PRATE,surface,-96.5629,35.4329,2.59e-05
2018-11-03 00:00:00,2018-11-03 00:00:00,PRATE,surface,-95.6254,35.4329,2.51e-05
2018-11-03 00:00:00,2018-11-03 00:00:00,PRATE,surface,-94.6879,35.4329,2.41e-05
2018-11-03 00:00:00,2018-11-03 00:00:00,PRATE,surface,-93.7504,35.4329,2.25e-05
2018-11-03 00:00:00,2018-11-03 00:00:00,PRATE,surface,-92.8129,35.4329,1.86e-05
2018-11-03 00:00:00,2018-11-03 00:00:00,PRATE,surface,-107.813,36.3778,1.26e-05
2018-11-03 00:00:00,2018-11-03 00:00:00,PRATE,surface,-106.875,36.3778,1.09e-05
2018-11-03 00:00:00,2018-11-03 00:00:00,PRATE,surface,-105.938,36.3778,8.9e-06
2018-11-03 00:00:00,2018-11-03 00:00:00,PRATE,surface,-105,36.3778,1.56e-05
2018-11-03 00:00:00,2018-11-03 00:00:00,PRATE,surface,-104.063,36.3778,1.7e-05
2018-11-03 00:00:00,2018-11-03 00:00:00,PRATE,surface,-103.125,36.3778,1.46e-05
2018-11-03 00:00:00,2018-11-03 00:00:00,PRATE,surface,-102.188,36.3778,1.53e-05
2018-11-03 00:00:00,2018-11-03 00:00:00,PRATE,surface,-101.25,36.3778,1.66e-05
2018-11-03 00:00:00,2018-11-03 00:00:00,PRATE,surface,-100.313,36.3778,1.79e-05
2018-11-03 00:00:00,2018-11-03 00:00:00,PRATE,surface,-99.3754,36.3778,1.93e-05
2018-11-03 00:00:00,2018-11-03 00:00:00,PRATE,surface,-98.4379,36.3778,2.05e-05
2018-11-03 00:00:00,2018-11-03 00:00:00,PRATE,surface,-97.5004,36.3778,2.05e-05
2018-11-03 00:00:00,2018-11-03 00:00:00,PRATE,surface,-96.5629,36.3778,1.88e-05
2018-11-03 00:00:00,2018-11-03 00:00:00,PRATE,surface,-95.6254,36.3778,1.63e-05
2018-11-03 00:00:00,2018-11-03 00:00:00,PRATE,surface,-94.6879,36.3778,1.48e-05
2018-11-03 00:00:00,2018-11-03 00:00:00,PRATE,surface,-93.7504,36.3778,1.44e-05
2018-11-03 00:00:00,2018-11-03 00:00:00,PRATE,surface,-92.8129,36.3778,1.23e-05
