2014-12-25 00:00:00,2014-12-25 00:00:00,TMP,surface,-107.813,25.0393,297.053
2014-12-25 00:00:00,2014-12-25 00:00:00,TMP,surface,-106.875,25.0393,291.72
2014-12-25 00:00:00,2014-12-25 00:00:00,TMP,surface,-105.938,25.0393,287.299
2014-12-25 00:00:00,2014-12-25 00:00:00,TMP,surface,-105,25.0393,287.942
2014-12-25 00:00:00,2014-12-25 00:00:00,TMP,surface,-104.063,25.0393,292.562
2014-12-25 00:00:00,2014-12-25 00:00:00,TMP,surface,-103.125,25.0393,294.693
2014-12-25 00:00:00,2014-12-25 00:00:00,TMP,surface,-102.188,25.0393,293.794
2014-12-25 00:00:00,2014-12-25 00:00:00,TMP,surface,-101.25,25.0393,291.35
2014-12-25 00:00:00,2014-12-25 00:00:00,TMP,surface,-100.313,25.0393,291.501
2014-12-25 00:00:00,2014-12-25 00:00:00,TMP,surface,-99.3754,25.0393,293.861
2014-12-25 00:00:00,2014-12-25 00:00:00,TMP,surface,-98.4379,25.0393,296.474
2014-12-25 00:00:00,2014-12-25 00:00:00,TMP,surface,-97.5004,25.0393,295.224
2014-12-25 00:00:00,2014-12-25 00:00:00,TMP,surface,-96.5629,25.0393,295.522
2014-12-25 00:00:00,2014-12-25 00:00:00,TMP,surface,-95.6254,25.0393,296.747
2014-12-25 00:00:00,2014-12-25 00:00:00,TMP,surface,-94.6879,25.0393,296.845
2014-12-25 00:00:00,2014-12-25 00:00:00,TMP,surface,-93.7504,25.0393,296.514
2014-12-25 00:00:00,2014-12-25 00:00:00,TMP,surface,-92.8129,25.0393,296.349
2014-12-25 00:00:00,2014-12-25 00:00:00,TMP,surface,-107.813,25.9842,292.93
2014-12-25 00:00:00,2014-12-25 00:00:00,TMP,surface,-106.875,25.9842,287.154
2014-12-25 00:00:00,2014-12-25 00:00:00,TMP,surface,-105.938,25.9842,286.819
2014-12-25 00:00:00,2014-12-25 00:00:00,TMP,surface,-105,25.9842,291.088
2014-12-25 00:00:00,2014-12-25 00:00:00,TMP,surface,-104.063,25.9842,295.214
2014-12-25 00:00:00,2014-12-25 00:00:00,TMP,surface,-103.125,25.9842,296.957
2014-12-25 00:00:00,2014-12-25 00:00:00,TMP,surface,-102.188,25.9842,295.909
2014-12-25 00:00:00,2014-12-25 00:00:00,TMP,surface,-101.25,25.9842,293.789
2014-12-25 00:00:00,2014-12-25 00:00:00,TMP,surface,-100.313,25.9842,293.53
2014-12-25 00:00:00,2014-12-25 00:00:00,TMP,surface,-99.3754,25.9842,296.112
2014-12-25 00:00:00,2014-12-25 00:00:00,TMP,surface,-98.4379,25.9842,297.098
2014-12-25 00:00:00,2014-12-25 00:00:00,TMP,surface,-97.5004,25.9842,296.459
2014-12-25 00:00:00,2014-12-25 00:00:00,TMP,surface,-96.5629,25.9842,294.213
2014-12-25 00:00:00,2014-12-25 00:00:00,TMP,surface,-95.6254,25.9842,295.304
2014-12-25 00:00:00,2014-12-25 00:00:00,TMP,surface,-94.6879,25.9842,295.8
2014-12-25 00:00:00,2014-12-25 00:00:00,TMP,surface,-93.7504,25.9842,295.632
2014-12-25 00:00:00,2014-12-25 00:00:00,TMP,surface,-92.8129,25.9842,295.373
2014-12-25 00:00:00,2014-12-25 00:00:00,TMP,surface,-107.813,26.929,287.803
2014-12-25 00:00:00,2014-12-25 00:00:00,TMP,surface,-106.875,26.929,285.405
2014-12-25 00:00:00,2014-12-25 00:00:00,TMP,surface,-105.938,26.929,289.336
2014-12-25 00:00:00,2014-12-25 00:00:00,TMP,surface,-105,26.929,293.982
2014-12-25 00:00:00,2014-12-25 00:00:00,TMP,surface,-104.063,26.929,295.949
2014-12-25 00:00:00,2014-12-25 00:00:00,TMP,surface,-103.125,26.929,295.89
2014-12-25 00:00:00,2014-12-25 00:00:00,TMP,surface,-102.188,26.929,294.549
2014-12-25 00:00:00,2014-12-25 00:00:00,TMP,surface,-101.25,26.929,294.49
2014-12-25 00:00:00,2014-12-25 00:00:00,TMP,surface,-100.313,26.929,295.336
2014-12-25 00:00:00,2014-12-25 00:00:00,TMP,surface,-99.3754,26.929,296.754
2014-12-25 00:00:00,2014-12-25 00:00:00,TMP,surface,-98.4379,26.929,296.282
2014-12-25 00:00:00,2014-12-25 00:00:00,TMP,surface,-97.5004,26.929,294.235
2014-12-25 00:00:00,2014-12-25 00:00:00,TMP,surface,-96.5629,26.929,294.144
2014-12-25 00:00:00,2014-12-25 00:00:00,TMP,surface,-95.6254,26.929,294.755
2014-12-25 00:00:00,2014-12-25 00:00:00,TMP,surface,-94.6879,26.929,295.083
2014-12-25 00:00:00,2014-12-25 00:00:00,TMP,surface,-93.7504,26.929,295.069
2014-12-25 00:00:00,2014-12-25 00:00:00,TMP,surface,-92.8129,26.929,294.998
2014-12-25 00:00:00,2014-12-25 00:00:00,TMP,surface,-107.813,27.8739,285.406
2014-12-25 00:00:00,2014-12-25 00:00:00,TMP,surface,-106.875,27.8739,286.328
2014-12-25 00:00:00,2014-12-25 00:00:00,TMP,surface,-105.938,27.8739,291.477
2014-12-25 00:00:00,2014-12-25 00:00:00,TMP,surface,-105,27.8739,294.658
2014-12-25 00:00:00,2014-12-25 00:00:00,TMP,surface,-104.063,27.8739,295.253
2014-12-25 00:00:00,2014-12-25 00:00:00,TMP,surface,-103.125,27.8739,293.707
2014-12-25 00:00:00,2014-12-25 00:00:00,TMP,surface,-102.188,27.8739,292.894
2014-12-25 00:00:00,2014-12-25 00:00:00,TMP,surface,-101.25,27.8739,293.696
2014-12-25 00:00:00,2014-12-25 00:00:00,TMP,surface,-100.313,27.8739,295.096
2014-12-25 00:00:00,2014-12-25 00:00:00,TMP,surface,-99.3754,27.8739,295.376
2014-12-25 00:00:00,2014-12-25 00:00:00,TMP,surface,-98.4379,27.8739,294.749
2014-12-25 00:00:00,2014-12-25 00:00:00,TMP,surface,-97.5004,27.8739,294.267
2014-12-25 00:00:00,2014-12-25 00:00:00,TMP,surface,-96.5629,27.8739,294.29
2014-12-25 00:00:00,2014-12-25 00:00:00,TMP,surface,-95.6254,27.8739,294.565
2014-12-25 00:00:00,2014-12-25 00:00:00,TMP,surface,-94.6879,27.8739,294.798
2014-12-25 00:00:00,2014-12-25 00:00:00,TMP,surface,-93.7504,27.8739,294.856
2014-12-25 00:00:00,2014-12-25 00:00:00,TMP,surface,-92.8129,27.8739,294.866
2014-12-25 00:00:00,2014-12-25 00:00:00,TMP,surface,-107.813,28.8188,284.979
2014-12-25 00:00:00,2014-12-25 00:00:00,TMP,surface,-106.875,28.8188,287.723
2014-12-25 00:00:00,2014-12-25 00:00:00,TMP,surface,-105.938,28.8188,292.17
2014-12-25 00:00:00,2014-12-25 00:00:00,TMP,surface,-105,28.8188,294.531
2014-12-25 00:00:00,2014-12-25 00:00:00,TMP,surface,-104.063,28.8188,293.688
2014-12-25 00:00:00,2014-12-25 00:00:00,TMP,surface,-103.125,28.8188,292.234
2014-12-25 00:00:00,2014-12-25 00:00:00,TMP,surface,-102.188,28.8188,291.88
2014-12-25 00:00:00,2014-12-25 00:00:00,TMP,surface,-101.25,28.8188,293.069
2014-12-25 00:00:00,2014-12-25 00:00:00,TMP,surface,-100.313,28.8188,293.56
2014-12-25 00:00:00,2014-12-25 00:00:00,TMP,surface,-99.3754,28.8188,293.277
2014-12-25 00:00:00,2014-12-25 00:00:00,TMP,surface,-98.4379,28.8188,293.213
2014-12-25 00:00:00,2014-12-25 00:00:00,TMP,surface,-97.5004,28.8188,293.512
2014-12-25 00:00:00,2014-12-25 00:00:00,TMP,surface,-96.5629,28.8188,293.862
2014-12-25 00:00:00,2014-12-25 00:00:00,TMP,surface,-95.6254,28.8188,293.952
2014-12-25 00:00:00,2014-12-25 00:00:00,TMP,surface,-94.6879,28.8188,293.904
2014-12-25 00:00:00,2014-12-25 00:00:00,TMP,surface,-93.7504,28.8188,294.211
2014-12-25 00:00:00,2014-12-25 00:00:00,TMP,surface,-92.8129,28.8188,294.33
2014-12-25 00:00:00,2014-12-25 00:00:00,TMP,surface,-107.813,29.7637,286.92
2014-12-25 00:00:00,2014-12-25 00:00:00,TMP,surface,-106.875,29.7637,289.422
2014-12-25 00:00:00,2014-12-25 00:00:00,TMP,surface,-105.938,29.7637,292.45
2014-12-25 00:00:00,2014-12-25 00:00:00,TMP,surface,-105,29.7637,292.899
2014-12-25 00:00:00,2014-12-25 00:00:00,TMP,surface,-104.063,29.7637,292.605
2014-12-25 00:00:00,2014-12-25 00:00:00,TMP,surface,-103.125,29.7637,292.386
2014-12-25 00:00:00,2014-12-25 00:00:00,TMP,surface,-102.188,29.7637,292.704
2014-12-25 00:00:00,2014-12-25 00:00:00,TMP,surface,-101.25,29.7637,292.814
2014-12-25 00:00:00,2014-12-25 00:00:00,TMP,surface,-100.313,29.7637,292.134
2014-12-25 00:00:00,2014-12-25 00:00:00,TMP,surface,-99.3754,29.7637,291.6
2014-12-25 00:00:00,2014-12-25 00:00:00,TMP,surface,-98.4379,29.7637,291.754
2014-12-25 00:00:00,2014-12-25 00:00:00,TMP,surface,-97.5004,29.7637,292.27
2014-12-25 00:00:00,2014-12-25 00:00:00,TMP,surface,-96.5629,29.7637,292.744
2014-12-25 00:00:00,2014-12-25 00:00:00,TMP,surface,-95.6254,29.7637,293.058
2014-12-25 00:00:00,2014-12-25 00:00:00,TMP,surface,-94.6879,29.7637,293.318
2014-12-25 00:00:00,2014-12-25 00:00:00,TMP,surface,-93.7504,29.7637,293.584
2014-12-25 00:00:00,2014-12-25 00:00:00,TMP,surface,-92.8129,29.7637,293.499
2014-12-25 00:00:00,2014-12-25 00:00:00,TMP,surface,-107.813,30.7085,289.6
2014-12-25 00:00:00,2014-12-25 00:00:00,TMP,surface,-106.875,30.7085,291.299
2014-12-25 00:00:00,2014-12-25 00:00:00,TMP,surface,-105.938,30.7085,291.88
2014-12-25 00:00:00,2014-12-25 00:00:00,TMP,surface,-105,30.7085,291.733
2014-12-25 00:00:00,2014-12-25 00:00:00,TMP,surface,-104.063,30.7085,291.552
2014-12-25 00:00:00,2014-12-25 00:00:00,TMP,surface,-103.125,30.7085,292.49
2014-12-25 00:00:00,2014-12-25 00:00:00,TMP,surface,-102.188,30.7085,292.746
2014-12-25 00:00:00,2014-12-25 00:00:00,TMP,surface,-101.25,30.7085,292.254
2014-12-25 00:00:00,2014-12-25 00:00:00,TMP,surface,-100.313,30.7085,291.37
2014-12-25 00:00:00,2014-12-25 00:00:00,TMP,surface,-99.3754,30.7085,290.931
2014-12-25 00:00:00,2014-12-25 00:00:00,TMP,surface,-98.4379,30.7085,291.256
2014-12-25 00:00:00,2014-12-25 00:00:00,TMP,surface,-97.5004,30.7085,291.837
2014-12-25 00:00:00,2014-12-25 00:00:00,TMP,surface,-96.5629,30.7085,292.581
2014-12-25 00:00:00,2014-12-25 00:00:00,TMP,surface,-95.6254,30.7085,293.146
2014-12-25 00:00:00,2014-12-25 00:00:00,TMP,surface,-94.6879,30.7085,293
2014-12-25 00:00:00,2014-12-25 00:00:00,TMP,surface,-93.7504,30.7085,292.749
2014-12-25 00:00:00,2014-12-25 00:00:00,TMP,surface,-92.8129,30.7085,292.282
2014-12-25 00:00:00,2014-12-25 00:00:00,TMP,surface,-107.813,31.6534,289.734
2014-12-25 00:00:00,2014-12-25 00:00:00,TMP,surface,-106.875,31.6534,290.826
2014-12-25 00:00:00,2014-12-25 00:00:00,TMP,surface,-105.938,31.6534,290.595
2014-12-25 00:00:00,2014-12-25 00:00:00,TMP,surface,-105,31.6534,290.794
2014-12-25 00:00:00,2014-12-25 00:00:00,TMP,surface,-104.063,31.6534,291.485
2014-12-25 00:00:00,2014-12-25 00:00:00,TMP,surface,-103.125,31.6534,292.122
2014-12-25 00:00:00,2014-12-25 00:00:00,TMP,surface,-102.188,31.6534,292.235
2014-12-25 00:00:00,2014-12-25 00:00:00,TMP,surface,-101.25,31.6534,291.778
2014-12-25 00:00:00,2014-12-25 00:00:00,TMP,surface,-100.313,31.6534,291.376
2014-12-25 00:00:00,2014-12-25 00:00:00,TMP,surface,-99.3754,31.6534,291.126
2014-12-25 00:00:00,2014-12-25 00:00:00,TMP,surface,-98.4379,31.6534,291.208
2014-12-25 00:00:00,2014-12-25 00:00:00,TMP,surface,-97.5004,31.6534,291.514
2014-12-25 00:00:00,2014-12-25 00:00:00,TMP,surface,-96.5629,31.6534,292.072
2014-12-25 00:00:00,2014-12-25 00:00:00,TMP,surface,-95.6254,31.6534,292.485
2014-12-25 00:00:00,2014-12-25 00:00:00,TMP,surface,-94.6879,31.6534,292.165
2014-12-25 00:00:00,2014-12-25 00:00:00,TMP,surface,-93.7504,31.6534,291.69
2014-12-25 00:00:00,2014-12-25 00:00:00,TMP,surface,-92.8129,31.6534,291.542
2014-12-25 00:00:00,2014-12-25 00:00:00,TMP,surface,-107.813,32.5983,286.694
2014-12-25 00:00:00,2014-12-25 00:00:00,TMP,surface,-106.875,32.5983,287.83
2014-12-25 00:00:00,2014-12-25 00:00:00,TMP,surface,-105.938,32.5983,288.832
2014-12-25 00:00:00,2014-12-25 00:00:00,TMP,surface,-105,32.5983,289.85
2014-12-25 00:00:00,2014-12-25 00:00:00,TMP,surface,-104.063,32.5983,291.123
2014-12-25 00:00:00,2014-12-25 00:00:00,TMP,surface,-103.125,32.5983,291.859
2014-12-25 00:00:00,2014-12-25 00:00:00,TMP,surface,-102.188,32.5983,291.285
2014-12-25 00:00:00,2014-12-25 00:00:00,TMP,surface,-101.25,32.5983,290.997
2014-12-25 00:00:00,2014-12-25 00:00:00,TMP,surface,-100.313,32.5983,291.259
2014-12-25 00:00:00,2014-12-25 00:00:00,TMP,surface,-99.3754,32.5983,291.304
2014-12-25 00:00:00,2014-12-25 00:00:00,TMP,surface,-98.4379,32.5983,291.133
2014-12-25 00:00:00,2014-12-25 00:00:00,TMP,surface,-97.5004,32.5983,291.034
2014-12-25 00:00:00,2014-12-25 00:00:00,TMP,surface,-96.5629,32.5983,291.243
2014-12-25 00:00:00,2014-12-25 00:00:00,TMP,surface,-95.6254,32.5983,291.566
2014-12-25 00:00:00,2014-12-25 00:00:00,TMP,surface,-94.6879,32.5983,291.486
2014-12-25 00:00:00,2014-12-25 00:00:00,TMP,surface,-93.7504,32.5983,291.155
2014-12-25 00:00:00,2014-12-25 00:00:00,TMP,surface,-92.8129,32.5983,291.176
2014-12-25 00:00:00,2014-12-25 00:00:00,TMP,surface,-107.813,33.5432,283.278
2014-12-25 00:00:00,2014-12-25 00:00:00,TMP,surface,-106.875,33.5432,285.181
2014-12-25 00:00:00,2014-12-25 00:00:00,TMP,surface,-105.938,33.5432,286.776
2014-12-25 00:00:00,2014-12-25 00:00:00,TMP,surface,-105,33.5432,288.478
2014-12-25 00:00:00,2014-12-25 00:00:00,TMP,surface,-104.063,33.5432,290.253
2014-12-25 00:00:00,2014-12-25 00:00:00,TMP,surface,-103.125,33.5432,290.498
2014-12-25 00:00:00,2014-12-25 00:00:00,TMP,surface,-102.188,33.5432,289.725
2014-12-25 00:00:00,2014-12-25 00:00:00,TMP,surface,-101.25,33.5432,289.43
2014-12-25 00:00:00,2014-12-25 00:00:00,TMP,surface,-100.313,33.5432,290.162
2014-12-25 00:00:00,2014-12-25 00:00:00,TMP,surface,-99.3754,33.5432,290.658
2014-12-25 00:00:00,2014-12-25 00:00:00,TMP,surface,-98.4379,33.5432,290.541
2014-12-25 00:00:00,2014-12-25 00:00:00,TMP,surface,-97.5004,33.5432,290.174
2014-12-25 00:00:00,2014-12-25 00:00:00,TMP,surface,-96.5629,33.5432,289.936
2014-12-25 00:00:00,2014-12-25 00:00:00,TMP,surface,-95.6254,33.5432,290.061
2014-12-25 00:00:00,2014-12-25 00:00:00,TMP,surface,-94.6879,33.5432,290.242
2014-12-25 00:00:00,2014-12-25 00:00:00,TMP,surface,-93.7504,33.5432,290.032
2014-12-25 00:00:00,2014-12-25 00:00:00,TMP,surface,-92.8129,33.5432,290.038
2014-12-25 00:00:00,2014-12-25 00:00:00,TMP,surface,-107.813,34.4881,281.717
2014-12-25 00:00:00,2014-12-25 00:00:00,TMP,surface,-106.875,34.4881,283.798
2014-12-25 00:00:00,2014-12-25 00:00:00,TMP,surface,-105.938,34.4881,285.432
2014-12-25 00:00:00,2014-12-25 00:00:00,TMP,surface,-105,34.4881,287.366
2014-12-25 00:00:00,2014-12-25 00:00:00,TMP,surface,-104.063,34.4881,288.704
2014-12-25 00:00:00,2014-12-25 00:00:00,TMP,surface,-103.125,34.4881,288.8
2014-12-25 00:00:00,2014-12-25 00:00:00,TMP,surface,-102.188,34.4881,288.31
2014-12-25 00:00:00,2014-12-25 00:00:00,TMP,surface,-101.25,34.4881,288.298
2014-12-25 00:00:00,2014-12-25 00:00:00,TMP,surface,-100.313,34.4881,288.728
2014-12-25 00:00:00,2014-12-25 00:00:00,TMP,surface,-99.3754,34.4881,289.2
2014-12-25 00:00:00,2014-12-25 00:00:00,TMP,surface,-98.4379,34.4881,289.304
2014-12-25 00:00:00,2014-12-25 00:00:00,TMP,surface,-97.5004,34.4881,289.157
2014-12-25 00:00:00,2014-12-25 00:00:00,TMP,surface,-96.5629,34.4881,289.333
2014-12-25 00:00:00,2014-12-25 00:00:00,TMP,surface,-95.6254,34.4881,289.634
2014-12-25 00:00:00,2014-12-25 00:00:00,TMP,surface,-94.6879,34.4881,289.384
2014-12-25 00:00:00,2014-12-25 00:00:00,TMP,surface,-93.7504,34.4881,288.93
2014-12-25 00:00:00,2014-12-25 00:00:00,TMP,surface,-92.8129,34.4881,288.845
2014-12-25 00:00:00,2014-12-25 00:00:00,TMP,surface,-107.813,35.4329,281.666
2014-12-25 00:00:00,2014-12-25 00:00:00,TMP,surface,-106.875,35.4329,282.494
2014-12-25 00:00:00,2014-12-25 00:00:00,TMP,surface,-105.938,35.4329,283.392
2014-12-25 00:00:00,2014-12-25 00:00:00,TMP,surface,-105,35.4329,284.864
2014-12-25 00:00:00,2014-12-25 00:00:00,TMP,surface,-104.063,35.4329,287.109
2014-12-25 00:00:00,2014-12-25 00:00:00,TMP,surface,-103.125,35.4329,288.062
2014-12-25 00:00:00,2014-12-25 00:00:00,TMP,surface,-102.188,35.4329,287.819
2014-12-25 00:00:00,2014-12-25 00:00:00,TMP,surface,-101.25,35.4329,287.579
2014-12-25 00:00:00,2014-12-25 00:00:00,TMP,surface,-100.313,35.4329,287.629
2014-12-25 00:00:00,2014-12-25 00:00:00,TMP,surface,-99.3754,35.4329,287.842
2014-12-25 00:00:00,2014-12-25 00:00:00,TMP,surface,-98.4379,35.4329,288.074
2014-12-25 00:00:00,2014-12-25 00:00:00,TMP,surface,-97.5004,35.4329,288.33
2014-12-25 00:00:00,2014-12-25 00:00:00,TMP,surface,-96.5629,35.4329,288.571
2014-12-25 00:00:00,2014-12-25 00:00:00,TMP,surface,-95.6254,35.4329,288.802
2014-12-25 00:00:00,2014-12-25 00:00:00,TMP,surface,-94.6879,35.4329,288.789
2014-12-25 00:00:00,2014-12-25 00:00:00,TMP,surface,-93.7504,35.4329,288.222
2014-12-25 00:00:00,2014-12-25 00:00:00,TMP,surface,-92.8129,35.4329,287.864
2014-12-25 00:00:00,2014-12-25 00:00:00,TMP,surface,-107.813,36.3778,280.752
2014-12-25 00:00:00,2014-12-25 00:00:00,TMP,surface,-106.875,36.3778,279.403
2014-12-25 00:00:00,2014-12-25 00:00:00,TMP,surface,-105.938,36.3778,280.462
2014-12-25 00:00:00,2014-12-25 00:00:00,TMP,surface,-105,36.3778,282.418
2014-12-25 00:00:00,2014-12-25 00:00:00,TMP,surface,-104.063,36.3778,285.381
2014-12-25 00:00:00,2014-12-25 00:00:00,TMP,surface,-103.125,36.3778,286.562
2014-12-25 00:00:00,2014-12-25 00:00:00,TMP,surface,-102.188,36.3778,286.704
2014-12-25 00:00:00,2014-12-25 00:00:00,TMP,surface,-101.25,36.3778,286.506
2014-12-25 00:00:00,2014-12-25 00:00:00,TMP,surface,-100.313,36.3778,286.643
2014-12-25 00:00:00,2014-12-25 00:00:00,TMP,surface,-99.3754,36.3778,286.888
2014-12-25 00:00:00,2014-12-25 00:00:00,TMP,surface,-98.4379,36.3778,286.992
2014-12-25 00:00:00,2014-12-25 00:00:00,TMP,surface,-97.5004,36.3778,287.274
2014-12-25 00:00:00,2014-12-25 00:00:00,TMP,surface,-96.5629,36.3778,287.682
2014-12-25 00:00:00,2014-12-25 00:00:00,TMP,surface,-95.6254,36.3778,287.984
2014-12-25 00:00:00,2014-12-25 00:00:00,TMP,surface,-94.6879,36.3778,287.984
2014-12-25 00:00:00,2014-12-25 00:00:00,TMP,surface,-93.7504,36.3778,287.422
2014-12-25 00:00:00,2014-12-25 00:00:00,TMP,surface,-92.8129,36.3778,287.126
2014-12-25 00:00:00,2014-12-25 00:00:00,PRATE,surface,-107.813,25.0393,2.29e-05
2014-12-25 00:00:00,2014-12-25 00:00:00,PRATE,surface,-106.875,25.0393,1.99e-05
2014-12-25 00:00:00,2014-12-25 00:00:00,PRATE,surface,-105.938,25.0393,1.96e-05
2014-12-25 00:00:00,2014-12-25 00:00:00,PRATE,surface,-105,25.0393,1.5e-05
2014-12-25 00:00:00,2014-12-25 00:00:00,PRATE,surface,-104.063,25.0393,1.29e-05
2014-12-25 00:00:00,2014-12-25 00:00:00,PRATE,surface,-103.125,25.0393,8.7e-06
2014-12-25 00:00:00,2014-12-25 00:00:00,PRATE,surface,-102.188,25.0393,1.58e-05
2014-12-25 00:00:00,2014-12-25 00:00:00,PRATE,surface,-101.25,25.0393,5.34e-05
2014-12-25 00:00:00,2014-12-25 00:00:00,PRATE,surface,-100.313,25.0393,9.24e-05
2014-12-25 00:00:00,2014-12-25 00:00:00,PRATE,surface,-99.3754,25.0393,7.03e-05
2014-12-25 00:00:00,2014-12-25 00:00:00,PRATE,surface,-98.4379,25.0393,2.37e-05
2014-12-25 00:00:00,2014-12-25 00:00:00,PRATE,surface,-97.5004,25.0393,2.59e-05
2014-12-25 00:00:00,2014-12-25 00:00:00,PRATE,surface,-96.5629,25.0393,2.32e-05
2014-12-25 00:00:00,2014-12-25 00:00:00,PRATE,surface,-95.6254,25.0393,2.05e-05
2014-12-25 00:00:00,2014-12-25 00:00:00,PRATE,surface,-94.6879,25.0393,2.54e-05
2014-12-25 00:00:00,2014-12-25 00:00:00,PRATE,surface,-93.7504,25.0393,2.99e-05
2014-12-25 00:00:00,2014-12-25 00:00:00,PRATE,surface,-92.8129,25.0393,3.19e-05
2014-12-25 00:00:00,2014-12-25 00:00:00,PRATE,surface,-107.813,25.9842,3.74e-05
2014-12-25 00:00:00,2014-12-25 00:00:00,PRATE,surface,-106.875,25.9842,2.38e-05
2014-12-25 00:00:00,2014-12-25 00:00:00,PRATE,surface,-105.938,25.9842,1.21e-05
2014-12-25 00:00:00,2014-12-25 00:00:00,PRATE,surface,-105,25.9842,8.9e-06
2014-12-25 00:00:00,2014-12-25 00:00:00,PRATE,surface,-104.063,25.9842,4.6e-06
2014-12-25 00:00:00,2014-12-25 00:00:00,PRATE,surface,-103.125,25.9842,1.4e-06
2014-12-25 00:00:00,2014-12-25 00:00:00,PRATE,surface,-102.188,25.9842,3.7e-06
2014-12-25 00:00:00,2014-12-25 00:00:00,PRATE,surface,-101.25,25.9842,2.08e-05
2014-12-25 00:00:00,2014-12-25 00:00:00,PRATE,surface,-100.313,25.9842,5.89e-05
2014-12-25 00:00:00,2014-12-25 00:00:00,PRATE,surface,-99.3754,25.9842,2.37e-05
2014-12-25 00:00:00,2014-12-25 00:00:00,PRATE,surface,-98.4379,25.9842,9.1e-06
2014-12-25 00:00:00,2014-12-25 00:00:00,PRATE,surface,-97.5004,25.9842,9.4e-06
2014-12-25 00:00:00,2014-12-25 00:00:00,PRATE,surface,-96.5629,25.9842,9.8e-06
2014-12-25 00:00:00,2014-12-25 00:00:00,PRATE,surface,-95.6254,25.9842,9.9e-06
2014-12-25 00:00:00,2014-12-25 00:00:00,PRATE,surface,-94.6879,25.9842,1.13e-05
2014-12-25 00:00:00,2014-12-25 00:00:00,PRATE,surface,-93.7504,25.9842,1.67e-05
2014-12-25 00:00:00,2014-12-25 00:00:00,PRATE,surface,-92.8129,25.9842,2.58e-05
2014-12-25 00:00:00,2014-12-25 00:00:00,PRATE,surface,-107.813,26.929,4.01e-05
2014-12-25 00:00:00,2014-12-25 00:00:00,PRATE,surface,-106.875,26.929,2.13e-05
2014-12-25 00:00:00,2014-12-25 00:00:00,PRATE,surface,-105.938,26.929,7e-06
2014-12-25 00:00:00,2014-12-25 00:00:00,PRATE,surface,-105,26.929,5.1e-06
2014-12-25 00:00:00,2014-12-25 00:00:00,PRATE,surface,-104.063,26.929,4.2e-06
2014-12-25 00:00:00,2014-12-25 00:00:00,PRATE,surface,-103.125,26.929,4.8e-06
2014-12-25 00:00:00,2014-12-25 00:00:00,PRATE,surface,-102.188,26.929,1.55e-05
2014-12-25 00:00:00,2014-12-25 00:00:00,PRATE,surface,-101.25,26.929,2.95e-05
2014-12-25 00:00:00,2014-12-25 00:00:00,PRATE,surface,-100.313,26.929,2.93e-05
2014-12-25 00:00:00,2014-12-25 00:00:00,PRATE,surface,-99.3754,26.929,1.45e-05
2014-12-25 00:00:00,2014-12-25 00:00:00,PRATE,surface,-98.4379,26.929,1.17e-05
2014-12-25 00:00:00,2014-12-25 00:00:00,PRATE,surface,-97.5004,26.929,9.6e-06
2014-12-25 00:00:00,2014-12-25 00:00:00,PRATE,surface,-96.5629,26.929,6e-06
2014-12-25 00:00:00,2014-12-25 00:00:00,PRATE,surface,-95.6254,26.929,5.4e-06
2014-12-25 00:00:00,2014-12-25 00:00:00,PRATE,surface,-94.6879,26.929,6.6e-06
2014-12-25 00:00:00,2014-12-25 00:00:00,PRATE,surface,-93.7504,26.929,1.51e-05
2014-12-25 00:00:00,2014-12-25 00:00:00,PRATE,surface,-92.8129,26.929,2.29e-05
2014-12-25 00:00:00,2014-12-25 00:00:00,PRATE,surface,-107.813,27.8739,3.28e-05
2014-12-25 00:00:00,2014-12-25 00:00:00,PRATE,surface,-106.875,27.8739,1.39e-05
2014-12-25 00:00:00,2014-12-25 00:00:00,PRATE,surface,-105.938,27.8739,5.6e-06
2014-12-25 00:00:00,2014-12-25 00:00:00,PRATE,surface,-105,27.8739,4.6e-06
2014-12-25 00:00:00,2014-12-25 00:00:00,PRATE,surface,-104.063,27.8739,8e-06
2014-12-25 00:00:00,2014-12-25 00:00:00,PRATE,surface,-103.125,27.8739,2.22e-05
2014-12-25 00:00:00,2014-12-25 00:00:00,PRATE,surface,-102.188,27.8739,5.02e-05
2014-12-25 00:00:00,2014-12-25 00:00:00,PRATE,surface,-101.25,27.8739,4.39e-05
2014-12-25 00:00:00,2014-12-25 00:00:00,PRATE,surface,-100.313,27.8739,2.32e-05
2014-12-25 00:00:00,2014-12-25 00:00:00,PRATE,surface,-99.3754,27.8739,1.84e-05
2014-12-25 00:00:00,2014-12-25 00:00:00,PRATE,surface,-98.4379,27.8739,1.9e-05
2014-12-25 00:00:00,2014-12-25 00:00:00,PRATE,surface,-97.5004,27.8739,1.42e-05
2014-12-25 00:00:00,2014-12-25 00:00:00,PRATE,surface,-96.5629,27.8739,9.8e-06
2014-12-25 00:00:00,2014-12-25 00:00:00,PRATE,surface,-95.6254,27.8739,1.5e-05
2014-12-25 00:00:00,2014-12-25 00:00:00,PRATE,surface,-94.6879,27.8739,2.55e-05
2014-12-25 00:00:00,2014-12-25 00:00:00,PRATE,surface,-93.7504,27.8739,3.12e-05
2014-12-25 00:00:00,2014-12-25 00:00:00,PRATE,surface,-92.8129,27.8739,4.24e-05
2014-12-25 00:00:00,2014-12-25 00:00:00,PRATE,surface,-107.813,28.8188,1.82e-05
2014-12-25 00:00:00,2014-12-25 00:00:00,PRATE,surface,-106.875,28.8188,1.11e-05
2014-12-25 00:00:00,2014-12-25 00:00:00,PRATE,surface,-105.938,28.8188,5.6e-06
2014-12-25 00:00:00,2014-12-25 00:00:00,PRATE,surface,-105,28.8188,5.9e-06
2014-12-25 00:00:00,2014-12-25 00:00:00,PRATE,surface,-104.063,28.8188,1.47e-05
2014-12-25 00:00:00,2014-12-25 00:00:00,PRATE,surface,-103.125,28.8188,2.85e-05
2014-12-25 00:00:00,2014-12-25 00:00:00,PRATE,surface,-102.188,28.8188,3.85e-05
2014-12-25 00:00:00,2014-12-25 00:00:00,PRATE,surface,-101.25,28.8188,2.75e-05
2014-12-25 00:00:00,2014-12-25 00:00:00,PRATE,surface,-100.313,28.8188,1.85e-05
2014-12-25 00:00:00,2014-12-25 00:00:00,PRATE,surface,-99.3754,28.8188,2.24e-05
2014-12-25 00:00:00,2014-12-25 00:00:00,PRATE,surface,-98.4379,28.8188,2.15e-05
2014-12-25 00:00:00,2014-12-25 00:00:00,PRATE,surface,-97.5004,28.8188,1.59e-05
2014-12-25 00:00:00,2014-12-25 00:00:00,PRATE,surface,-96.5629,28.8188,1.58e-05
2014-12-25 00:00:00,2014-12-25 00:00:00,PRATE,surface,-95.6254,28.8188,2.28e-05
2014-12-25 00:00:00,2014-12-25 00:00:00,PRATE,surface,-94.6879,28.8188,3.1e-05
2014-12-25 00:00:00,2014-12-25 00:00:00,PRATE,surface,-93.7504,28.8188,3.45e-05
2014-12-25 00:00:00,2014-12-25 00:00:00,PRATE,surface,-92.8129,28.8188,3.57e-05
2014-12-25 00:00:00,2014-12-25 00:00:00,PRATE,surface,-107.813,29.7637,1.01e-05
2014-12-25 00:00:00,2014-12-25 00:00:00,PRATE,surface,-106.875,29.7637,7e-06
2014-12-25 00:00:00,2014-12-25 00:00:00,PRATE,surface,-105.938,29.7637,6.4e-06
2014-12-25 00:00:00,2014-12-25 00:00:00,PRATE,surface,-105,29.7637,1e-05
2014-12-25 00:00:00,2014-12-25 00:00:00,PRATE,surface,-104.063,29.7637,2.1e-05
2014-12-25 00:00:00,2014-12-25 00:00:00,PRATE,surface,-103.125,29.7637,2.35e-05
2014-12-25 00:00:00,2014-12-25 00:00:00,PRATE,surface,-102.188,29.7637,2.53e-05
2014-12-25 00:00:00,2014-12-25 00:00:00,PRATE,surface,-101.25,29.7637,2.61e-05
2014-12-25 00:00:00,2014-12-25 00:00:00,PRATE,surface,-100.313,29.7637,2.87e-05
2014-12-25 00:00:00,2014-12-25 00:00:00,PRATE,surface,-99.3754,29.7637,3.1e-05
2014-12-25 00:00:00,2014-12-25 00:00:00,PRATE,surface,-98.4379,29.7637,2.79e-05
2014-12-25 00:00:00,2014-12-25 00:00:00,PRATE,surface,-97.5004,29.7637,2.2e-05
2014-12-25 00:00:00,2014-12-25 00:00:00,PRATE,surface,-96.5629,29.7637,1.73e-05
2014-12-25 00:00:00,2014-12-25 00:00:00,PRATE,surface,-95.6254,29.7637,1.85e-05
2014-12-25 00:00:00,2014-12-25 00:00:00,PRATE,surface,-94.6879,29.7637,2.2e-05
2014-12-25 00:00:00,2014-12-25 00:00:00,PRATE,surface,-93.7504,29.7637,1.78e-05
2014-12-25 00:00:00,2014-12-25 00:00:00,PRATE,surface,-92.8129,29.7637,1.85e-05
2014-12-25 00:00:00,2014-12-25 00:00:00,PRATE,surface,-107.813,30.7085,8.2e-06
2014-12-25 00:00:00,2014-12-25 00:00:00,PRATE,surface,-106.875,30.7085,6.3e-06
2014-12-25 00:00:00,2014-12-25 00:00:00,PRATE,surface,-105.938,30.7085,6.2e-06
2014-12-25 00:00:00,2014-12-25 00:00:00,PRATE,surface,-105,30.7085,1.24e-05
2014-12-25 00:00:00,2014-12-25 00:00:00,PRATE,surface,-104.063,30.7085,1.88e-05
2014-12-25 00:00:00,2014-12-25 00:00:00,PRATE,surface,-103.125,30.7085,2.03e-05
2014-12-25 00:00:00,2014-12-25 00:00:00,PRATE,surface,-102.188,30.7085,2.79e-05
2014-12-25 00:00:00,2014-12-25 00:00:00,PRATE,surface,-101.25,30.7085,3.04e-05
2014-12-25 00:00:00,2014-12-25 00:00:00,PRATE,surface,-100.313,30.7085,4.24e-05
2014-12-25 00:00:00,2014-12-25 00:00:00,PRATE,surface,-99.3754,30.7085,4.6e-05
2014-12-25 00:00:00,2014-12-25 00:00:00,PRATE,surface,-98.4379,30.7085,3.8e-05
2014-12-25 00:00:00,2014-12-25 00:00:00,PRATE,surface,-97.5004,30.7085,2.77e-05
2014-12-25 00:00:00,2014-12-25 00:00:00,PRATE,surface,-96.5629,30.7085,2.19e-05
2014-12-25 00:00:00,2014-12-25 00:00:00,PRATE,surface,-95.6254,30.7085,2.03e-05
2014-12-25 00:00:00,2014-12-25 00:00:00,PRATE,surface,-94.6879,30.7085,1.88e-05
2014-12-25 00:00:00,2014-12-25 00:00:00,PRATE,surface,-93.7504,30.7085,1.64e-05
2014-12-25 00:00:00,2014-12-25 00:00:00,PRATE,surface,-92.8129,30.7085,1.67e-05
2014-12-25 00:00:00,2014-12-25 00:00:00,PRATE,surface,-107.813,31.6534,9e-06
2014-12-25 00:00:00,2014-12-25 00:00:00,PRATE,surface,-106.875,31.6534,7.5e-06
2014-12-25 00:00:00,2014-12-25 00:00:00,PRATE,surface,-105.938,31.6534,6.7e-06
2014-12-25 00:00:00,2014-12-25 00:00:00,PRATE,surface,-105,31.6534,1.19e-05
2014-12-25 00:00:00,2014-12-25 00:00:00,PRATE,surface,-104.063,31.6534,1.9e-05
2014-12-25 00:00:00,2014-12-25 00:00:00,PRATE,surface,-103.125,31.6534,2.47e-05
2014-12-25 00:00:00,2014-12-25 00:00:00,PRATE,surface,-102.188,31.6534,3.05e-05
2014-12-25 00:00:00,2014-12-25 00:00:00,PRATE,surface,-101.25,31.6534,3.96e-05
2014-12-25 00:00:00,2014-12-25 00:00:00,PRATE,surface,-100.313,31.6534,4.3e-05
2014-12-25 00:00:00,2014-12-25 00:00:00,PRATE,surface,-99.3754,31.6534,4.22e-05
2014-12-25 00:00:00,2014-12-25 00:00:00,PRATE,surface,-98.4379,31.6534,4.08e-05
2014-12-25 00:00:00,2014-12-25 00:00:00,PRATE,surface,-97.5004,31.6534,3.52e-05
2014-12-25 00:00:00,2014-12-25 00:00:00,PRATE,surface,-96.5629,31.6534,2.8e-05
2014-12-25 00:00:00,2014-12-25 00:00:00,PRATE,surface,-95.6254,31.6534,2.44e-05
2014-12-25 00:00:00,2014-12-25 00:00:00,PRATE,surface,-94.6879,31.6534,2.56e-05
2014-12-25 00:00:00,2014-12-25 00:00:00,PRATE,surface,-93.7504,31.6534,2.86e-05
2014-12-25 00:00:00,2014-12-25 00:00:00,PRATE,surface,-92.8129,31.6534,2.09e-05
2014-12-25 00:00:00,2014-12-25 00:00:00,PRATE,surface,-107.813,32.5983,1.59e-05
2014-12-25 00:00:00,2014-12-25 00:00:00,PRATE,surface,-106.875,32.5983,1.11e-05
2014-12-25 00:00:00,2014-12-25 00:00:00,PRATE,surface,-105.938,32.5983,8.4e-06
2014-12-25 00:00:00,2014-12-25 00:00:00,PRATE,surface,-105,32.5983,1.16e-05
2014-12-25 00:00:00,2014-12-25 00:00:00,PRATE,surface,-104.063,32.5983,2.18e-05
2014-12-25 00:00:00,2014-12-25 00:00:00,PRATE,surface,-103.125,32.5983,2.4e-05
2014-12-25 00:00:00,2014-12-25 00:00:00,PRATE,surface,-102.188,32.5983,3.57e-05
2014-12-25 00:00:00,2014-12-25 00:00:00,PRATE,surface,-101.25,32.5983,4.59e-05
2014-12-25 00:00:00,2014-12-25 00:00:00,PRATE,surface,-100.313,32.5983,4.54e-05
2014-12-25 00:00:00,2014-12-25 00:00:00,PRATE,surface,-99.3754,32.5983,4.04e-05
2014-12-25 00:00:00,2014-12-25 00:00:00,PRATE,surface,-98.4379,32.5983,4.2e-05
2014-12-25 00:00:00,2014-12-25 00:00:00,PRATE,surface,-97.5004,32.5983,4.4e-05
2014-12-25 00:00:00,2014-12-25 00:00:00,PRATE,surface,-96.5629,32.5983,3.81e-05
2014-12-25 00:00:00,2014-12-25 00:00:00,PRATE,surface,-95.6254,32.5983,2.97e-05
2014-12-25 00:00:00,2014-12-25 00:00:00,PRATE,surface,-94.6879,32.5983,2.66e-05
2014-12-25 00:00:00,2014-12-25 00:00:00,PRATE,surface,-93.7504,32.5983,2.76e-05
2014-12-25 00:00:00,2014-12-25 00:00:00,PRATE,surface,-92.8129,32.5983,2.44e-05
2014-12-25 00:00:00,2014-12-25 00:00:00,PRATE,surface,-107.813,33.5432,2.2e-05
2014-12-25 00:00:00,2014-12-25 00:00:00,PRATE,surface,-106.875,33.5432,1.74e-05
2014-12-25 00:00:00,2014-12-25 00:00:00,PRATE,surface,-105.938,33.5432,1.24e-05
2014-12-25 00:00:00,2014-12-25 00:00:00,PRATE,surface,-105,33.5432,1.37e-05
2014-12-25 00:00:00,2014-12-25 00:00:00,PRATE,surface,-104.063,33.5432,2.08e-05
2014-12-25 00:00:00,2014-12-25 00:00:00,PRATE,surface,-103.125,33.5432,2.12e-05
2014-12-25 00:00:00,2014-12-25 00:00:00,PRATE,surface,-102.188,33.5432,3.6e-05
2014-12-25 00:00:00,2014-12-25 00:00:00,PRATE,surface,-101.25,33.5432,4.63e-05
2014-12-25 00:00:00,2014-12-25 00:00:00,PRATE,surface,-100.313,33.5432,4.48e-05
2014-12-25 00:00:00,2014-12-25 00:00:00,PRATE,surface,-99.3754,33.5432,3.81e-05
2014-12-25 00:00:00,2014-12-25 00:00:00,PRATE,surface,-98.4379,33.5432,3.84e-05
2014-12-25 00:00:00,2014-12-25 00:00:00,PRATE,surface,-97.5004,33.5432,4.39e-05
2014-12-25 00:00:00,2014-12-25 00:00:00,PRATE,surface,-96.5629,33.5432,4e-05
2014-12-25 00:00:00,2014-12-25 00:00:00,PRATE,surface,-95.6254,33.5432,2.86e-05
2014-12-25 00:00:00,2014-12-25 00:00:00,PRATE,surface,-94.6879,33.5432,2.38e-05
2014-12-25 00:00:00,2014-12-25 00:00:00,PRATE,surface,-93.7504,33.5432,2.3e-05
2014-12-25 00:00:00,2014-12-25 00:00:00,PRATE,surface,-92.8129,33.5432,2.35e-05
2014-12-25 00:00:00,2014-12-25 00:00:00,PRATE,surface,-107.813,34.4881,1.79e-05
2014-12-25 00:00:00,2014-12-25 00:00:00,PRATE,surface,-106.875,34.4881,1.41e-05
2014-12-25 00:00:00,2014-12-25 00:00:00,PRATE,surface,-105.938,34.4881,1.22e-05
2014-12-25 00:00:00,2014-12-25 00:00:00,PRATE,surface,-105,34.4881,1.66e-05
2014-12-25 00:00:00,2014-12-25 00:00:00,PRATE,surface,-104.063,34.4881,1.71e-05
2014-12-25 00:00:00,2014-12-25 00:00:00,PRATE,surface,-103.125,34.4881,2.1e-05
2014-12-25 00:00:00,2014-12-25 00:00:00,PRATE,surface,-102.188,34.4881,3.38e-05
2014-12-25 00:00:00,2014-12-25 00:00:00,PRATE,surface,-101.25,34.4881,4.71e-05
2014-12-25 00:00:00,2014-12-25 00:00:00,PRATE,surface,-100.313,34.4881,4.82e-05
2014-12-25 00:00:00,2014-12-25 00:00:00,PRATE,surface,-99.3754,34.4881,4e-05
2014-12-25 00:00:00,2014-12-25 00:00:00,PRATE,surface,-98.4379,34.4881,3.42e-05
2014-12-25 00:00:00,2014-12-25 00:00:00,PRATE,surface,-97.5004,34.4881,3.83e-05
2014-12-25 00:00:00,2014-12-25 00:00:00,PRATE,surface,-96.5629,34.4881,3.73e-05
2014-12-25 00:00:00,2014-12-25 00:00:00,PRATE,surface,-95.6254,34.4881,2.76e-05
2014-12-25 00:00:00,2014-12-25 00:00:00,PRATE,surface,-94.6879,34.4881,2.33e-05
2014-12-25 00:00:00,2014-12-25 00:00:00,PRATE,surface,-93.7504,34.4881,2.11e-05
2014-12-25 00:00:00,2014-12-25 00:00:00,PRATE,surface,-92.8129,34.4881,2.49e-05
2014-12-25 00:00:00,2014-12-25 00:00:00,PRATE,surface,-107.813,35.4329,1.34e-05
2014-12-25 00:00:00,2014-12-25 00:00:00,PRATE,surface,-106.875,35.4329,1.1e-05
2014-12-25 00:00:00,2014-12-25 00:00:00,PRATE,surface,-105.938,35.4329,1.27e-05
2014-12-25 00:00:00,2014-12-25 00:00:00,PRATE,surface,-105,35.4329,1.55e-05
2014-12-25 00:00:00,2014-12-25 00:00:00,PRATE,surface,-104.063,35.4329,2.33e-05
2014-12-25 00:00:00,2014-12-25 00:00:00,PRATE,surface,-103.125,35.4329,2.27e-05
2014-12-25 00:00:00,2014-12-25 00:00:00,PRATE,surface,-102.188,35.4329,3.37e-05
2014-12-25 00:00:00,2014-12-25 00:00:00,PRATE,surface,-101.25,35.4329,4.86e-05
2014-12-25 00:00:00,2014-12-25 00:00:00,PRATE,surface,-100.313,35.4329,5.46e-05
2014-12-25 00:00:00,2014-12-25 00:00:00,PRATE,surface,-99.3754,35.4329,4.68e-05
2014-12-25 00:00:00,2014-12-25 00:00:00,PRATE,surface,-98.4379,35.4329,3.93e-05
2014-12-25 00:00:00,2014-12-25 00:00:00,PRATE,surface,-97.5004,35.4329,3.71e-05
2014-12-25 00:00:00,2014-12-25 00:00:00,PRATE,surface,-96.5629,35.4329,3.09e-05
2014-12-25 00:00:00,2014-12-25 00:00:00,PRATE,surface,-95.6254,35.4329,2.45e-05
2014-12-25 00:00:00,2014-12-25 00:00:00,PRATE,surface,-94.6879,35.4329,2.56e-05
2014-12-25 00:00:00,2014-12-25 00:00:00,PRATE,surface,-93.7504,35.4329,2.53e-05
2014-12-25 00:00:00,2014-12-25 00:00:00,PRATE,surface,-92.8129,35.4329,2.51e-05
2014-12-25 00:00:00,2014-12-25 00:00:00,PRATE,surface,-107.813,36.3778,1.67e-05
2014-12-25 00:00:00,2014-12-25 00:00:00,PRATE,surface,-106.875,36.3778,1.96e-05
2014-12-25 00:00:00,2014-12-25 00:00:00,PRATE,surface,-105.938,36.3778,2.39e-05
2014-12-25 00:00:00,2014-12-25 00:00:00,PRATE,surface,-105,36.3778,2.54e-05
2014-12-25 00:00:00,2014-12-25 00:00:00,PRATE,surface,-104.063,36.3778,3.05e-05
2014-12-25 00:00:00,2014-12-25 00:00:00,PRATE,surface,-103.125,36.3778,2.54e-05
2014-12-25 00:00:00,2014-12-25 00:00:00,PRATE,surface,-102.188,36.3778,2.96e-05
2014-12-25 00:00:00,2014-12-25 00:00:00,PRATE,surface,-101.25,36.3778,3.75e-05
2014-12-25 00:00:00,2014-12-25 00:00:00,PRATE,surface,-100.313,36.3778,4.73e-05
2014-12-25 00:00:00,2014-12-25 00:00:00,PRATE,surface,-99.3754,36.3778,4.91e-05
2014-12-25 00:00:00,2014-12-25 00:00:00,PRATE,surface,-98.4379,36.3778,4.61e-05
2014-12-25 00:00:00,2014-12-25 00:00:00,PRATE,surface,-97.5004,36.3778,4.01e-05
2014-12-25 00:00:00,2014-12-25 00:00:00,PRATE,surface,-96.5629,36.3778,3.37e-05
2014-12-25 00:00:00,2014-12-25 00:00:00,PRATE,surface,-95.6254,36.3778,2.89e-05
2014-12-25 00:00:00,2014-12-25 00:00:00,PRATE,surface,-94.6879,36.3778,2.58e-05
2014-12-25 00:00:00,2014-12-25 00:00:00,PRATE,surface,-93.7504,36.3778,2.76e-05
2014-12-25 00:00:00,2014-12-25 00:00:00,PRATE,surface,-92.8129,36.3778,2.46e-05
