2016-08-20 00:00:00,2016-08-20 00:00:00,TMP,surface,-107.813,25.0393,300.56
2016-08-20 00:00:00,2016-08-20 00:00:00,TMP,surface,-106.875,25.0393,295.334
2016-08-20 00:00:00,2016-08-20 00:00:00,TMP,surface,-105.938,25.0393,290.975
2016-08-20 00:00:00,2016-08-20 00:00:00,TMP,surface,-105,25.0393,289.478
2016-08-20 00:00:00,2016-08-20 00:00:00,TMP,surface,-104.063,25.0393,292.863
2016-08-20 00:00:00,2016-08-20 00:00:00,TMP,surface,-103.125,25.0393,295.456
2016-08-20 00:00:00,2016-08-20 00:00:00,TMP,surface,-102.188,25.0393,295.967
2016-08-20 00:00:00,2016-08-20 00:00:00,TMP,surface,-101.25,25.0393,293.609
2016-08-20 00:00:00,2016-08-20 00:00:00,TMP,surface,-100.313,25.0393,294.467
2016-08-20 00:00:00,2016-08-20 00:00:00,TMP,surface,-99.3754,25.0393,298.716
2016-08-20 00:00:00,2016-08-20 00:00:00,TMP,surface,-98.4379,25.0393,302.47
2016-08-20 00:00:00,2016-08-20 00:00:00,TMP,surface,-97.5004,25.0393,302.668
2016-08-20 00:00:00,2016-08-20 00:00:00,TMP,surface,-96.5629,25.0393,303.299
2016-08-20 00:00:00,2016-08-20 00:00:00,TMP,surface,-95.6254,25.0393,303.574
2016-08-20 00:00:00,2016-08-20 00:00:00,TMP,surface,-94.6879,25.0393,303.616
2016-08-20 00:00:00,2016-08-20 00:00:00,TMP,surface,-93.7504,25.0393,303.599
2016-08-20 00:00:00,2016-08-20 00:00:00,TMP,surface,-92.8129,25.0393,303.571
2016-08-20 00:00:00,2016-08-20 00:00:00,TMP,surface,-107.813,25.9842,296.707
2016-08-20 00:00:00,2016-08-20 00:00:00,TMP,surface,-106.875,25.9842,292.3
2016-08-20 00:00:00,2016-08-20 00:00:00,TMP,surface,-105.938,25.9842,289.929
2016-08-20 00:00:00,2016-08-20 00:00:00,TMP,surface,-105,25.9842,291.193
2016-08-20 00:00:00,2016-08-20 00:00:00,TMP,surface,-104.063,25.9842,295.526
2016-08-20 00:00:00,2016-08-20 00:00:00,TMP,surface,-103.125,25.9842,297.654
2016-08-20 00:00:00,2016-08-20 00:00:00,TMP,surface,-102.188,25.9842,298.006
2016-08-20 00:00:00,2016-08-20 00:00:00,TMP,surface,-101.25,25.9842,297.062
2016-08-20 00:00:00,2016-08-20 00:00:00,TMP,surface,-100.313,25.9842,298.051
2016-08-20 00:00:00,2016-08-20 00:00:00,TMP,surface,-99.3754,25.9842,301.619
2016-08-20 00:00:00,2016-08-20 00:00:00,TMP,surface,-98.4379,25.9842,303.817
2016-08-20 00:00:00,2016-08-20 00:00:00,TMP,surface,-97.5004,25.9842,303.084
2016-08-20 00:00:00,2016-08-20 00:00:00,TMP,surface,-96.5629,25.9842,302.956
2016-08-20 00:00:00,2016-08-20 00:00:00,TMP,surface,-95.6254,25.9842,303.379
2016-08-20 00:00:00,2016-08-20 00:00:00,TMP,surface,-94.6879,25.9842,303.385
2016-08-20 00:00:00,2016-08-20 00:00:00,TMP,surface,-93.7504,25.9842,303.526
2016-08-20 00:00:00,2016-08-20 00:00:00,TMP,surface,-92.8129,25.9842,303.67
2016-08-20 00:00:00,2016-08-20 00:00:00,TMP,surface,-107.813,26.929,293.28
2016-08-20 00:00:00,2016-08-20 00:00:00,TMP,surface,-106.875,26.929,290.303
2016-08-20 00:00:00,2016-08-20 00:00:00,TMP,surface,-105.938,26.929,291.235
2016-08-20 00:00:00,2016-08-20 00:00:00,TMP,surface,-105,26.929,294.185
2016-08-20 00:00:00,2016-08-20 00:00:00,TMP,surface,-104.063,26.929,296.924
2016-08-20 00:00:00,2016-08-20 00:00:00,TMP,surface,-103.125,26.929,297.155
2016-08-20 00:00:00,2016-08-20 00:00:00,TMP,surface,-102.188,26.929,297.683
2016-08-20 00:00:00,2016-08-20 00:00:00,TMP,surface,-101.25,26.929,298.966
2016-08-20 00:00:00,2016-08-20 00:00:00,TMP,surface,-100.313,26.929,301.196
2016-08-20 00:00:00,2016-08-20 00:00:00,TMP,surface,-99.3754,26.929,303.814
2016-08-20 00:00:00,2016-08-20 00:00:00,TMP,surface,-98.4379,26.929,303.228
2016-08-20 00:00:00,2016-08-20 00:00:00,TMP,surface,-97.5004,26.929,300.707
2016-08-20 00:00:00,2016-08-20 00:00:00,TMP,surface,-96.5629,26.929,301.804
2016-08-20 00:00:00,2016-08-20 00:00:00,TMP,surface,-95.6254,26.929,303.203
2016-08-20 00:00:00,2016-08-20 00:00:00,TMP,surface,-94.6879,26.929,303.603
2016-08-20 00:00:00,2016-08-20 00:00:00,TMP,surface,-93.7504,26.929,303.628
2016-08-20 00:00:00,2016-08-20 00:00:00,TMP,surface,-92.8129,26.929,303.686
2016-08-20 00:00:00,2016-08-20 00:00:00,TMP,surface,-107.813,27.8739,291.475
2016-08-20 00:00:00,2016-08-20 00:00:00,TMP,surface,-106.875,27.8739,290.028
2016-08-20 00:00:00,2016-08-20 00:00:00,TMP,surface,-105.938,27.8739,292.678
2016-08-20 00:00:00,2016-08-20 00:00:00,TMP,surface,-105,27.8739,296.092
2016-08-20 00:00:00,2016-08-20 00:00:00,TMP,surface,-104.063,27.8739,297.692
2016-08-20 00:00:00,2016-08-20 00:00:00,TMP,surface,-103.125,27.8739,296.598
2016-08-20 00:00:00,2016-08-20 00:00:00,TMP,surface,-102.188,27.8739,296.751
2016-08-20 00:00:00,2016-08-20 00:00:00,TMP,surface,-101.25,27.8739,299.087
2016-08-20 00:00:00,2016-08-20 00:00:00,TMP,surface,-100.313,27.8739,301.916
2016-08-20 00:00:00,2016-08-20 00:00:00,TMP,surface,-99.3754,27.8739,302.736
2016-08-20 00:00:00,2016-08-20 00:00:00,TMP,surface,-98.4379,27.8739,302.272
2016-08-20 00:00:00,2016-08-20 00:00:00,TMP,surface,-97.5004,27.8739,302.035
2016-08-20 00:00:00,2016-08-20 00:00:00,TMP,surface,-96.5629,27.8739,302.364
2016-08-20 00:00:00,2016-08-20 00:00:00,TMP,surface,-95.6254,27.8739,302.944
2016-08-20 00:00:00,2016-08-20 00:00:00,TMP,surface,-94.6879,27.8739,303.388
2016-08-20 00:00:00,2016-08-20 00:00:00,TMP,surface,-93.7504,27.8739,303.475
2016-08-20 00:00:00,2016-08-20 00:00:00,TMP,surface,-92.8129,27.8739,303.507
2016-08-20 00:00:00,2016-08-20 00:00:00,TMP,surface,-107.813,28.8188,290.377
2016-08-20 00:00:00,2016-08-20 00:00:00,TMP,surface,-106.875,28.8188,290.777
2016-08-20 00:00:00,2016-08-20 00:00:00,TMP,surface,-105.938,28.8188,294.563
2016-08-20 00:00:00,2016-08-20 00:00:00,TMP,surface,-105,28.8188,297.289
2016-08-20 00:00:00,2016-08-20 00:00:00,TMP,surface,-104.063,28.8188,296.467
2016-08-20 00:00:00,2016-08-20 00:00:00,TMP,surface,-103.125,28.8188,296.3
2016-08-20 00:00:00,2016-08-20 00:00:00,TMP,surface,-102.188,28.8188,296.444
2016-08-20 00:00:00,2016-08-20 00:00:00,TMP,surface,-101.25,28.8188,298.483
2016-08-20 00:00:00,2016-08-20 00:00:00,TMP,surface,-100.313,28.8188,300.131
2016-08-20 00:00:00,2016-08-20 00:00:00,TMP,surface,-99.3754,28.8188,300.166
2016-08-20 00:00:00,2016-08-20 00:00:00,TMP,surface,-98.4379,28.8188,300.115
2016-08-20 00:00:00,2016-08-20 00:00:00,TMP,surface,-97.5004,28.8188,300.467
2016-08-20 00:00:00,2016-08-20 00:00:00,TMP,surface,-96.5629,28.8188,300.896
2016-08-20 00:00:00,2016-08-20 00:00:00,TMP,surface,-95.6254,28.8188,301.827
2016-08-20 00:00:00,2016-08-20 00:00:00,TMP,surface,-94.6879,28.8188,303.027
2016-08-20 00:00:00,2016-08-20 00:00:00,TMP,surface,-93.7504,28.8188,303.356
2016-08-20 00:00:00,2016-08-20 00:00:00,TMP,surface,-92.8129,28.8188,303.427
2016-08-20 00:00:00,2016-08-20 00:00:00,TMP,surface,-107.813,29.7637,292.255
2016-08-20 00:00:00,2016-08-20 00:00:00,TMP,surface,-106.875,29.7637,293.759
2016-08-20 00:00:00,2016-08-20 00:00:00,TMP,surface,-105.938,29.7637,297.44
2016-08-20 00:00:00,2016-08-20 00:00:00,TMP,surface,-105,29.7637,297.532
2016-08-20 00:00:00,2016-08-20 00:00:00,TMP,surface,-104.063,29.7637,297.216
2016-08-20 00:00:00,2016-08-20 00:00:00,TMP,surface,-103.125,29.7637,297.417
2016-08-20 00:00:00,2016-08-20 00:00:00,TMP,surface,-102.188,29.7637,298.249
2016-08-20 00:00:00,2016-08-20 00:00:00,TMP,surface,-101.25,29.7637,298.47
2016-08-20 00:00:00,2016-08-20 00:00:00,TMP,surface,-100.313,29.7637,298.185
2016-08-20 00:00:00,2016-08-20 00:00:00,TMP,surface,-99.3754,29.7637,297.868
2016-08-20 00:00:00,2016-08-20 00:00:00,TMP,surface,-98.4379,29.7637,298.191
2016-08-20 00:00:00,2016-08-20 00:00:00,TMP,surface,-97.5004,29.7637,299.212
2016-08-20 00:00:00,2016-08-20 00:00:00,TMP,surface,-96.5629,29.7637,300.086
2016-08-20 00:00:00,2016-08-20 00:00:00,TMP,surface,-95.6254,29.7637,300.374
2016-08-20 00:00:00,2016-08-20 00:00:00,TMP,surface,-94.6879,29.7637,301.286
2016-08-20 00:00:00,2016-08-20 00:00:00,TMP,surface,-93.7504,29.7637,302.672
2016-08-20 00:00:00,2016-08-20 00:00:00,TMP,surface,-92.8129,29.7637,301.238
2016-08-20 00:00:00,2016-08-20 00:00:00,TMP,surface,-107.813,30.7085,297.254
2016-08-20 00:00:00,2016-08-20 00:00:00,TMP,surface,-106.875,30.7085,299.347
2016-08-20 00:00:00,2016-08-20 00:00:00,TMP,surface,-105.938,30.7085,299.206
2016-08-20 00:00:00,2016-08-20 00:00:00,TMP,surface,-105,30.7085,298.064
2016-08-20 00:00:00,2016-08-20 00:00:00,TMP,surface,-104.063,30.7085,296.748
2016-08-20 00:00:00,2016-08-20 00:00:00,TMP,surface,-103.125,30.7085,298.604
2016-08-20 00:00:00,2016-08-20 00:00:00,TMP,surface,-102.188,30.7085,299.366
2016-08-20 00:00:00,2016-08-20 00:00:00,TMP,surface,-101.25,30.7085,298.668
2016-08-20 00:00:00,2016-08-20 00:00:00,TMP,surface,-100.313,30.7085,297.814
2016-08-20 00:00:00,2016-08-20 00:00:00,TMP,surface,-99.3754,30.7085,297.52
2016-08-20 00:00:00,2016-08-20 00:00:00,TMP,surface,-98.4379,30.7085,297.977
2016-08-20 00:00:00,2016-08-20 00:00:00,TMP,surface,-97.5004,30.7085,299.036
2016-08-20 00:00:00,2016-08-20 00:00:00,TMP,surface,-96.5629,30.7085,300.143
2016-08-20 00:00:00,2016-08-20 00:00:00,TMP,surface,-95.6254,30.7085,300.652
2016-08-20 00:00:00,2016-08-20 00:00:00,TMP,surface,-94.6879,30.7085,300.582
2016-08-20 00:00:00,2016-08-20 00:00:00,TMP,surface,-93.7504,30.7085,300.508
2016-08-20 00:00:00,2016-08-20 00:00:00,TMP,surface,-92.8129,30.7085,300.156
2016-08-20 00:00:00,2016-08-20 00:00:00,TMP,surface,-107.813,31.6534,300.105
2016-08-20 00:00:00,2016-08-20 00:00:00,TMP,surface,-106.875,31.6534,300.799
2016-08-20 00:00:00,2016-08-20 00:00:00,TMP,surface,-105.938,31.6534,299.008
2016-08-20 00:00:00,2016-08-20 00:00:00,TMP,surface,-105,31.6534,298.07
2016-08-20 00:00:00,2016-08-20 00:00:00,TMP,surface,-104.063,31.6534,298.275
2016-08-20 00:00:00,2016-08-20 00:00:00,TMP,surface,-103.125,31.6534,299.308
2016-08-20 00:00:00,2016-08-20 00:00:00,TMP,surface,-102.188,31.6534,299.721
2016-08-20 00:00:00,2016-08-20 00:00:00,TMP,surface,-101.25,31.6534,298.991
2016-08-20 00:00:00,2016-08-20 00:00:00,TMP,surface,-100.313,31.6534,298.121
2016-08-20 00:00:00,2016-08-20 00:00:00,TMP,surface,-99.3754,31.6534,298.044
2016-08-20 00:00:00,2016-08-20 00:00:00,TMP,surface,-98.4379,31.6534,298.534
2016-08-20 00:00:00,2016-08-20 00:00:00,TMP,surface,-97.5004,31.6534,299.34
2016-08-20 00:00:00,2016-08-20 00:00:00,TMP,surface,-96.5629,31.6534,300.118
2016-08-20 00:00:00,2016-08-20 00:00:00,TMP,surface,-95.6254,31.6534,300.415
2016-08-20 00:00:00,2016-08-20 00:00:00,TMP,surface,-94.6879,31.6534,300.288
2016-08-20 00:00:00,2016-08-20 00:00:00,TMP,surface,-93.7504,31.6534,300.089
2016-08-20 00:00:00,2016-08-20 00:00:00,TMP,surface,-92.8129,31.6534,299.846
2016-08-20 00:00:00,2016-08-20 00:00:00,TMP,surface,-107.813,32.5983,296.806
2016-08-20 00:00:00,2016-08-20 00:00:00,TMP,surface,-106.875,32.5983,297.311
2016-08-20 00:00:00,2016-08-20 00:00:00,TMP,surface,-105.938,32.5983,297.756
2016-08-20 00:00:00,2016-08-20 00:00:00,TMP,surface,-105,32.5983,297.036
2016-08-20 00:00:00,2016-08-20 00:00:00,TMP,surface,-104.063,32.5983,298.051
2016-08-20 00:00:00,2016-08-20 00:00:00,TMP,surface,-103.125,32.5983,298.905
2016-08-20 00:00:00,2016-08-20 00:00:00,TMP,surface,-102.188,32.5983,298.995
2016-08-20 00:00:00,2016-08-20 00:00:00,TMP,surface,-101.25,32.5983,298.851
2016-08-20 00:00:00,2016-08-20 00:00:00,TMP,surface,-100.313,32.5983,298.639
2016-08-20 00:00:00,2016-08-20 00:00:00,TMP,surface,-99.3754,32.5983,298.643
2016-08-20 00:00:00,2016-08-20 00:00:00,TMP,surface,-98.4379,32.5983,298.745
2016-08-20 00:00:00,2016-08-20 00:00:00,TMP,surface,-97.5004,32.5983,299.171
2016-08-20 00:00:00,2016-08-20 00:00:00,TMP,surface,-96.5629,32.5983,299.801
2016-08-20 00:00:00,2016-08-20 00:00:00,TMP,surface,-95.6254,32.5983,300.172
2016-08-20 00:00:00,2016-08-20 00:00:00,TMP,surface,-94.6879,32.5983,300.06
2016-08-20 00:00:00,2016-08-20 00:00:00,TMP,surface,-93.7504,32.5983,299.599
2016-08-20 00:00:00,2016-08-20 00:00:00,TMP,surface,-92.8129,32.5983,299.491
2016-08-20 00:00:00,2016-08-20 00:00:00,TMP,surface,-107.813,33.5432,292.483
2016-08-20 00:00:00,2016-08-20 00:00:00,TMP,surface,-106.875,33.5432,294.483
2016-08-20 00:00:00,2016-08-20 00:00:00,TMP,surface,-105.938,33.5432,295.296
2016-08-20 00:00:00,2016-08-20 00:00:00,TMP,surface,-105,33.5432,296.022
2016-08-20 00:00:00,2016-08-20 00:00:00,TMP,surface,-104.063,33.5432,297.52
2016-08-20 00:00:00,2016-08-20 00:00:00,TMP,surface,-103.125,33.5432,297.561
2016-08-20 00:00:00,2016-08-20 00:00:00,TMP,surface,-102.188,33.5432,297.359
2016-08-20 00:00:00,2016-08-20 00:00:00,TMP,surface,-101.25,33.5432,297.833
2016-08-20 00:00:00,2016-08-20 00:00:00,TMP,surface,-100.313,33.5432,298.755
2016-08-20 00:00:00,2016-08-20 00:00:00,TMP,surface,-99.3754,33.5432,299.276
2016-08-20 00:00:00,2016-08-20 00:00:00,TMP,surface,-98.4379,33.5432,298.988
2016-08-20 00:00:00,2016-08-20 00:00:00,TMP,surface,-97.5004,33.5432,298.716
2016-08-20 00:00:00,2016-08-20 00:00:00,TMP,surface,-96.5629,33.5432,298.822
2016-08-20 00:00:00,2016-08-20 00:00:00,TMP,surface,-95.6254,33.5432,299.135
2016-08-20 00:00:00,2016-08-20 00:00:00,TMP,surface,-94.6879,33.5432,299.347
2016-08-20 00:00:00,2016-08-20 00:00:00,TMP,surface,-93.7504,33.5432,298.896
2016-08-20 00:00:00,2016-08-20 00:00:00,TMP,surface,-92.8129,33.5432,298.694
2016-08-20 00:00:00,2016-08-20 00:00:00,TMP,surface,-107.813,34.4881,291.11
2016-08-20 00:00:00,2016-08-20 00:00:00,TMP,surface,-106.875,34.4881,293.395
2016-08-20 00:00:00,2016-08-20 00:00:00,TMP,surface,-105.938,34.4881,293.907
2016-08-20 00:00:00,2016-08-20 00:00:00,TMP,surface,-105,34.4881,295.449
2016-08-20 00:00:00,2016-08-20 00:00:00,TMP,surface,-104.063,34.4881,296.496
2016-08-20 00:00:00,2016-08-20 00:00:00,TMP,surface,-103.125,34.4881,296.697
2016-08-20 00:00:00,2016-08-20 00:00:00,TMP,surface,-102.188,34.4881,296.745
2016-08-20 00:00:00,2016-08-20 00:00:00,TMP,surface,-101.25,34.4881,297.427
2016-08-20 00:00:00,2016-08-20 00:00:00,TMP,surface,-100.313,34.4881,298.403
2016-08-20 00:00:00,2016-08-20 00:00:00,TMP,surface,-99.3754,34.4881,298.876
2016-08-20 00:00:00,2016-08-20 00:00:00,TMP,surface,-98.4379,34.4881,298.556
2016-08-20 00:00:00,2016-08-20 00:00:00,TMP,surface,-97.5004,34.4881,298.079
2016-08-20 00:00:00,2016-08-20 00:00:00,TMP,surface,-96.5629,34.4881,298.217
2016-08-20 00:00:00,2016-08-20 00:00:00,TMP,surface,-95.6254,34.4881,298.652
2016-08-20 00:00:00,2016-08-20 00:00:00,TMP,surface,-94.6879,34.4881,298.396
2016-08-20 00:00:00,2016-08-20 00:00:00,TMP,surface,-93.7504,34.4881,297.664
2016-08-20 00:00:00,2016-08-20 00:00:00,TMP,surface,-92.8129,34.4881,297.705
2016-08-20 00:00:00,2016-08-20 00:00:00,TMP,surface,-107.813,35.4329,292.7
2016-08-20 00:00:00,2016-08-20 00:00:00,TMP,surface,-106.875,35.4329,292.796
2016-08-20 00:00:00,2016-08-20 00:00:00,TMP,surface,-105.938,35.4329,292.243
2016-08-20 00:00:00,2016-08-20 00:00:00,TMP,surface,-105,35.4329,292.876
2016-08-20 00:00:00,2016-08-20 00:00:00,TMP,surface,-104.063,35.4329,295.014
2016-08-20 00:00:00,2016-08-20 00:00:00,TMP,surface,-103.125,35.4329,296.547
2016-08-20 00:00:00,2016-08-20 00:00:00,TMP,surface,-102.188,35.4329,297.199
2016-08-20 00:00:00,2016-08-20 00:00:00,TMP,surface,-101.25,35.4329,297.526
2016-08-20 00:00:00,2016-08-20 00:00:00,TMP,surface,-100.313,35.4329,297.785
2016-08-20 00:00:00,2016-08-20 00:00:00,TMP,surface,-99.3754,35.4329,298.099
2016-08-20 00:00:00,2016-08-20 00:00:00,TMP,surface,-98.4379,35.4329,297.961
2016-08-20 00:00:00,2016-08-20 00:00:00,TMP,surface,-97.5004,35.4329,297.564
2016-08-20 00:00:00,2016-08-20 00:00:00,TMP,surface,-96.5629,35.4329,297.462
2016-08-20 00:00:00,2016-08-20 00:00:00,TMP,surface,-95.6254,35.4329,297.766
2016-08-20 00:00:00,2016-08-20 00:00:00,TMP,surface,-94.6879,35.4329,297.932
2016-08-20 00:00:00,2016-08-20 00:00:00,TMP,surface,-93.7504,35.4329,297.321
2016-08-20 00:00:00,2016-08-20 00:00:00,TMP,surface,-92.8129,35.4329,296.614
2016-08-20 00:00:00,2016-08-20 00:00:00,TMP,surface,-107.813,36.3778,292.147
2016-08-20 00:00:00,2016-08-20 00:00:00,TMP,surface,-106.875,36.3778,289.145
2016-08-20 00:00:00,2016-08-20 00:00:00,TMP,surface,-105.938,36.3778,289.087
2016-08-20 00:00:00,2016-08-20 00:00:00,TMP,surface,-105,36.3778,289.737
2016-08-20 00:00:00,2016-08-20 00:00:00,TMP,surface,-104.063,36.3778,292.352
2016-08-20 00:00:00,2016-08-20 00:00:00,TMP,surface,-103.125,36.3778,294.691
2016-08-20 00:00:00,2016-08-20 00:00:00,TMP,surface,-102.188,36.3778,296.515
2016-08-20 00:00:00,2016-08-20 00:00:00,TMP,surface,-101.25,36.3778,297.542
2016-08-20 00:00:00,2016-08-20 00:00:00,TMP,surface,-100.313,36.3778,297.747
2016-08-20 00:00:00,2016-08-20 00:00:00,TMP,surface,-99.3754,36.3778,297.542
2016-08-20 00:00:00,2016-08-20 00:00:00,TMP,surface,-98.4379,36.3778,297.385
2016-08-20 00:00:00,2016-08-20 00:00:00,TMP,surface,-97.5004,36.3778,297.052
2016-08-20 00:00:00,2016-08-20 00:00:00,TMP,surface,-96.5629,36.3778,296.72
2016-08-20 00:00:00,2016-08-20 00:00:00,TMP,surface,-95.6254,36.3778,296.841
2016-08-20 00:00:00,2016-08-20 00:00:00,TMP,surface,-94.6879,36.3778,296.975
2016-08-20 00:00:00,2016-08-20 00:00:00,TMP,surface,-93.7504,36.3778,296.483
2016-08-20 00:00:00,2016-08-20 00:00:00,TMP,surface,-92.8129,36.3778,295.843
2016-08-20 00:00:00,2016-08-20 00:00:00,PRATE,surface,-107.813,25.0393,7.16e-05
2016-08-20 00:00:00,2016-08-20 00:00:00,PRATE,surface,-106.875,25.0393,0.0002089
2016-08-20 00:00:00,2016-08-20 00:00:00,PRATE,surface,-105.938,25.0393,0.0002032
2016-08-20 00:00:00,2016-08-20 00:00:00,PRATE,surface,-105,25.0393,0.0001152
2016-08-20 00:00:00,2016-08-20 00:00:00,PRATE,surface,-104.063,25.0393,7.44e-05
2016-08-20 00:00:00,2016-08-20 00:00:00,PRATE,surface,-103.125,25.0393,1.91e-05
2016-08-20 00:00:00,2016-08-20 00:00:00,PRATE,surface,-102.188,25.0393,3.64e-05
2016-08-20 00:00:00,2016-08-20 00:00:00,PRATE,surface,-101.25,25.0393,9.71e-05
2016-08-20 00:00:00,2016-08-20 00:00:00,PRATE,surface,-100.313,25.0393,6.66e-05
2016-08-20 00:00:00,2016-08-20 00:00:00,PRATE,surface,-99.3754,25.0393,2.12e-05
2016-08-20 00:00:00,2016-08-20 00:00:00,PRATE,surface,-98.4379,25.0393,1.4e-05
2016-08-20 00:00:00,2016-08-20 00:00:00,PRATE,surface,-97.5004,25.0393,4.24e-05
2016-08-20 00:00:00,2016-08-20 00:00:00,PRATE,surface,-96.5629,25.0393,3.79e-05
2016-08-20 00:00:00,2016-08-20 00:00:00,PRATE,surface,-95.6254,25.0393,4.78e-05
2016-08-20 00:00:00,2016-08-20 00:00:00,PRATE,surface,-94.6879,25.0393,4.3e-05
2016-08-20 00:00:00,2016-08-20 00:00:00,PRATE,surface,-93.7504,25.0393,5.84e-05
2016-08-20 00:00:00,2016-08-20 00:00:00,PRATE,surface,-92.8129,25.0393,4.51e-05
2016-08-20 00:00:00,2016-08-20 00:00:00,PRATE,surface,-107.813,25.9842,0.0002048
2016-08-20 00:00:00,2016-08-20 00:00:00,PRATE,surface,-106.875,25.9842,0.0002812
2016-08-20 00:00:00,2016-08-20 00:00:00,PRATE,surface,-105.938,25.9842,0.0001424
2016-08-20 00:00:00,2016-08-20 00:00:00,PRATE,surface,-105,25.9842,8.06e-05
2016-08-20 00:00:00,2016-08-20 00:00:00,PRATE,surface,-104.063,25.9842,3.2e-05
2016-08-20 00:00:00,2016-08-20 00:00:00,PRATE,surface,-103.125,25.9842,1.21e-05
2016-08-20 00:00:00,2016-08-20 00:00:00,PRATE,surface,-102.188,25.9842,2.68e-05
2016-08-20 00:00:00,2016-08-20 00:00:00,PRATE,surface,-101.25,25.9842,9.81e-05
2016-08-20 00:00:00,2016-08-20 00:00:00,PRATE,surface,-100.313,25.9842,5.61e-05
2016-08-20 00:00:00,2016-08-20 00:00:00,PRATE,surface,-99.3754,25.9842,2.1e-05
2016-08-20 00:00:00,2016-08-20 00:00:00,PRATE,surface,-98.4379,25.9842,1.44e-05
2016-08-20 00:00:00,2016-08-20 00:00:00,PRATE,surface,-97.5004,25.9842,4.21e-05
2016-08-20 00:00:00,2016-08-20 00:00:00,PRATE,surface,-96.5629,25.9842,5.21e-05
2016-08-20 00:00:00,2016-08-20 00:00:00,PRATE,surface,-95.6254,25.9842,4.9e-05
2016-08-20 00:00:00,2016-08-20 00:00:00,PRATE,surface,-94.6879,25.9842,3.57e-05
2016-08-20 00:00:00,2016-08-20 00:00:00,PRATE,surface,-93.7504,25.9842,5.97e-05
2016-08-20 00:00:00,2016-08-20 00:00:00,PRATE,surface,-92.8129,25.9842,4.2e-05
2016-08-20 00:00:00,2016-08-20 00:00:00,PRATE,surface,-107.813,26.929,0.0002528
2016-08-20 00:00:00,2016-08-20 00:00:00,PRATE,surface,-106.875,26.929,0.000172
2016-08-20 00:00:00,2016-08-20 00:00:00,PRATE,surface,-105.938,26.929,7.96e-05
2016-08-20 00:00:00,2016-08-20 00:00:00,PRATE,surface,-105,26.929,4.29e-05
2016-08-20 00:00:00,2016-08-20 00:00:00,PRATE,surface,-104.063,26.929,3.18e-05
2016-08-20 00:00:00,2016-08-20 00:00:00,PRATE,surface,-103.125,26.929,3.69e-05
2016-08-20 00:00:00,2016-08-20 00:00:00,PRATE,surface,-102.188,26.929,4.57e-05
2016-08-20 00:00:00,2016-08-20 00:00:00,PRATE,surface,-101.25,26.929,7.75e-05
2016-08-20 00:00:00,2016-08-20 00:00:00,PRATE,surface,-100.313,26.929,1.77e-05
2016-08-20 00:00:00,2016-08-20 00:00:00,PRATE,surface,-99.3754,26.929,6.9e-06
2016-08-20 00:00:00,2016-08-20 00:00:00,PRATE,surface,-98.4379,26.929,2.99e-05
2016-08-20 00:00:00,2016-08-20 00:00:00,PRATE,surface,-97.5004,26.929,2.92e-05
2016-08-20 00:00:00,2016-08-20 00:00:00,PRATE,surface,-96.5629,26.929,1.86e-05
2016-08-20 00:00:00,2016-08-20 00:00:00,PRATE,surface,-95.6254,26.929,1.27e-05
2016-08-20 00:00:00,2016-08-20 00:00:00,PRATE,surface,-94.6879,26.929,1.2e-05
2016-08-20 00:00:00,2016-08-20 00:00:00,PRATE,surface,-93.7504,26.929,2.54e-05
2016-08-20 00:00:00,2016-08-20 00:00:00,PRATE,surface,-92.8129,26.929,1.94e-05
2016-08-20 00:00:00,2016-08-20 00:00:00,PRATE,surface,-107.813,27.8739,0.0001706
2016-08-20 00:00:00,2016-08-20 00:00:00,PRATE,surface,-106.875,27.8739,8.82e-05
2016-08-20 00:00:00,2016-08-20 00:00:00,PRATE,surface,-105.938,27.8739,3.13e-05
2016-08-20 00:00:00,2016-08-20 00:00:00,PRATE,surface,-105,27.8739,7e-06
2016-08-20 00:00:00,2016-08-20 00:00:00,PRATE,surface,-104.063,27.8739,2.8e-05
2016-08-20 00:00:00,2016-08-20 00:00:00,PRATE,surface,-103.125,27.8739,6.2e-05
2016-08-20 00:00:00,2016-08-20 00:00:00,PRATE,surface,-102.188,27.8739,6.21e-05
2016-08-20 00:00:00,2016-08-20 00:00:00,PRATE,surface,-101.25,27.8739,3.26e-05
2016-08-20 00:00:00,2016-08-20 00:00:00,PRATE,surface,-100.313,27.8739,1.58e-05
2016-08-20 00:00:00,2016-08-20 00:00:00,PRATE,surface,-99.3754,27.8739,2.29e-05
2016-08-20 00:00:00,2016-08-20 00:00:00,PRATE,surface,-98.4379,27.8739,3.04e-05
2016-08-20 00:00:00,2016-08-20 00:00:00,PRATE,surface,-97.5004,27.8739,2.1e-05
2016-08-20 00:00:00,2016-08-20 00:00:00,PRATE,surface,-96.5629,27.8739,1.33e-05
2016-08-20 00:00:00,2016-08-20 00:00:00,PRATE,surface,-95.6254,27.8739,1.78e-05
2016-08-20 00:00:00,2016-08-20 00:00:00,PRATE,surface,-94.6879,27.8739,2.48e-05
2016-08-20 00:00:00,2016-08-20 00:00:00,PRATE,surface,-93.7504,27.8739,3.01e-05
2016-08-20 00:00:00,2016-08-20 00:00:00,PRATE,surface,-92.8129,27.8739,1.47e-05
2016-08-20 00:00:00,2016-08-20 00:00:00,PRATE,surface,-107.813,28.8188,9.58e-05
2016-08-20 00:00:00,2016-08-20 00:00:00,PRATE,surface,-106.875,28.8188,5.89e-05
2016-08-20 00:00:00,2016-08-20 00:00:00,PRATE,surface,-105.938,28.8188,1.95e-05
2016-08-20 00:00:00,2016-08-20 00:00:00,PRATE,surface,-105,28.8188,5.8e-06
2016-08-20 00:00:00,2016-08-20 00:00:00,PRATE,surface,-104.063,28.8188,2.48e-05
2016-08-20 00:00:00,2016-08-20 00:00:00,PRATE,surface,-103.125,28.8188,3.44e-05
2016-08-20 00:00:00,2016-08-20 00:00:00,PRATE,surface,-102.188,28.8188,4e-05
2016-08-20 00:00:00,2016-08-20 00:00:00,PRATE,surface,-101.25,28.8188,4.62e-05
2016-08-20 00:00:00,2016-08-20 00:00:00,PRATE,surface,-100.313,28.8188,6.58e-05
2016-08-20 00:00:00,2016-08-20 00:00:00,PRATE,surface,-99.3754,28.8188,0.0001153
2016-08-20 00:00:00,2016-08-20 00:00:00,PRATE,surface,-98.4379,28.8188,9.41e-05
2016-08-20 00:00:00,2016-08-20 00:00:00,PRATE,surface,-97.5004,28.8188,4.47e-05
2016-08-20 00:00:00,2016-08-20 00:00:00,PRATE,surface,-96.5629,28.8188,3.27e-05
2016-08-20 00:00:00,2016-08-20 00:00:00,PRATE,surface,-95.6254,28.8188,3.21e-05
2016-08-20 00:00:00,2016-08-20 00:00:00,PRATE,surface,-94.6879,28.8188,2.74e-05
2016-08-20 00:00:00,2016-08-20 00:00:00,PRATE,surface,-93.7504,28.8188,2.81e-05
2016-08-20 00:00:00,2016-08-20 00:00:00,PRATE,surface,-92.8129,28.8188,3e-05
2016-08-20 00:00:00,2016-08-20 00:00:00,PRATE,surface,-107.813,29.7637,5.01e-05
2016-08-20 00:00:00,2016-08-20 00:00:00,PRATE,surface,-106.875,29.7637,3.36e-05
2016-08-20 00:00:00,2016-08-20 00:00:00,PRATE,surface,-105.938,29.7637,1.01e-05
2016-08-20 00:00:00,2016-08-20 00:00:00,PRATE,surface,-105,29.7637,1.29e-05
2016-08-20 00:00:00,2016-08-20 00:00:00,PRATE,surface,-104.063,29.7637,1.99e-05
2016-08-20 00:00:00,2016-08-20 00:00:00,PRATE,surface,-103.125,29.7637,1.32e-05
2016-08-20 00:00:00,2016-08-20 00:00:00,PRATE,surface,-102.188,29.7637,1.77e-05
2016-08-20 00:00:00,2016-08-20 00:00:00,PRATE,surface,-101.25,29.7637,5.83e-05
2016-08-20 00:00:00,2016-08-20 00:00:00,PRATE,surface,-100.313,29.7637,0.0001063
2016-08-20 00:00:00,2016-08-20 00:00:00,PRATE,surface,-99.3754,29.7637,0.0001628
2016-08-20 00:00:00,2016-08-20 00:00:00,PRATE,surface,-98.4379,29.7637,0.000185
2016-08-20 00:00:00,2016-08-20 00:00:00,PRATE,surface,-97.5004,29.7637,0.000121
2016-08-20 00:00:00,2016-08-20 00:00:00,PRATE,surface,-96.5629,29.7637,4.97e-05
2016-08-20 00:00:00,2016-08-20 00:00:00,PRATE,surface,-95.6254,29.7637,4.53e-05
2016-08-20 00:00:00,2016-08-20 00:00:00,PRATE,surface,-94.6879,29.7637,5.1e-05
2016-08-20 00:00:00,2016-08-20 00:00:00,PRATE,surface,-93.7504,29.7637,4.4e-05
2016-08-20 00:00:00,2016-08-20 00:00:00,PRATE,surface,-92.8129,29.7637,6.09e-05
2016-08-20 00:00:00,2016-08-20 00:00:00,PRATE,surface,-107.813,30.7085,9e-07
2016-08-20 00:00:00,2016-08-20 00:00:00,PRATE,surface,-106.875,30.7085,4.7e-06
2016-08-20 00:00:00,2016-08-20 00:00:00,PRATE,surface,-105.938,30.7085,6.6e-06
2016-08-20 00:00:00,2016-08-20 00:00:00,PRATE,surface,-105,30.7085,3.23e-05
2016-08-20 00:00:00,2016-08-20 00:00:00,PRATE,surface,-104.063,30.7085,3.9e-05
2016-08-20 00:00:00,2016-08-20 00:00:00,PRATE,surface,-103.125,30.7085,1.17e-05
2016-08-20 00:00:00,2016-08-20 00:00:00,PRATE,surface,-102.188,30.7085,3.9e-06
2016-08-20 00:00:00,2016-08-20 00:00:00,PRATE,surface,-101.25,30.7085,2.18e-05
2016-08-20 00:00:00,2016-08-20 00:00:00,PRATE,surface,-100.313,30.7085,6.86e-05
2016-08-20 00:00:00,2016-08-20 00:00:00,PRATE,surface,-99.3754,30.7085,0.0001214
2016-08-20 00:00:00,2016-08-20 00:00:00,PRATE,surface,-98.4379,30.7085,0.0001355
2016-08-20 00:00:00,2016-08-20 00:00:00,PRATE,surface,-97.5004,30.7085,0.0001028
2016-08-20 00:00:00,2016-08-20 00:00:00,PRATE,surface,-96.5629,30.7085,5.91e-05
2016-08-20 00:00:00,2016-08-20 00:00:00,PRATE,surface,-95.6254,30.7085,3.5e-05
2016-08-20 00:00:00,2016-08-20 00:00:00,PRATE,surface,-94.6879,30.7085,2.94e-05
2016-08-20 00:00:00,2016-08-20 00:00:00,PRATE,surface,-93.7504,30.7085,3.24e-05
2016-08-20 00:00:00,2016-08-20 00:00:00,PRATE,surface,-92.8129,30.7085,4.6e-05
2016-08-20 00:00:00,2016-08-20 00:00:00,PRATE,surface,-107.813,31.6534,5e-07
2016-08-20 00:00:00,2016-08-20 00:00:00,PRATE,surface,-106.875,31.6534,3.3e-06
2016-08-20 00:00:00,2016-08-20 00:00:00,PRATE,surface,-105.938,31.6534,7.6e-06
2016-08-20 00:00:00,2016-08-20 00:00:00,PRATE,surface,-105,31.6534,2.16e-05
2016-08-20 00:00:00,2016-08-20 00:00:00,PRATE,surface,-104.063,31.6534,2.74e-05
2016-08-20 00:00:00,2016-08-20 00:00:00,PRATE,surface,-103.125,31.6534,1.2e-05
2016-08-20 00:00:00,2016-08-20 00:00:00,PRATE,surface,-102.188,31.6534,3.7e-06
2016-08-20 00:00:00,2016-08-20 00:00:00,PRATE,surface,-101.25,31.6534,1.26e-05
2016-08-20 00:00:00,2016-08-20 00:00:00,PRATE,surface,-100.313,31.6534,4.18e-05
2016-08-20 00:00:00,2016-08-20 00:00:00,PRATE,surface,-99.3754,31.6534,7.23e-05
2016-08-20 00:00:00,2016-08-20 00:00:00,PRATE,surface,-98.4379,31.6534,8.4e-05
2016-08-20 00:00:00,2016-08-20 00:00:00,PRATE,surface,-97.5004,31.6534,6.97e-05
2016-08-20 00:00:00,2016-08-20 00:00:00,PRATE,surface,-96.5629,31.6534,4.33e-05
2016-08-20 00:00:00,2016-08-20 00:00:00,PRATE,surface,-95.6254,31.6534,2.63e-05
2016-08-20 00:00:00,2016-08-20 00:00:00,PRATE,surface,-94.6879,31.6534,2.35e-05
2016-08-20 00:00:00,2016-08-20 00:00:00,PRATE,surface,-93.7504,31.6534,2.4e-05
2016-08-20 00:00:00,2016-08-20 00:00:00,PRATE,surface,-92.8129,31.6534,2.92e-05
2016-08-20 00:00:00,2016-08-20 00:00:00,PRATE,surface,-107.813,32.5983,3.4e-06
2016-08-20 00:00:00,2016-08-20 00:00:00,PRATE,surface,-106.875,32.5983,4.8e-06
2016-08-20 00:00:00,2016-08-20 00:00:00,PRATE,surface,-105.938,32.5983,1.86e-05
2016-08-20 00:00:00,2016-08-20 00:00:00,PRATE,surface,-105,32.5983,2.16e-05
2016-08-20 00:00:00,2016-08-20 00:00:00,PRATE,surface,-104.063,32.5983,3.09e-05
2016-08-20 00:00:00,2016-08-20 00:00:00,PRATE,surface,-103.125,32.5983,2.26e-05
2016-08-20 00:00:00,2016-08-20 00:00:00,PRATE,surface,-102.188,32.5983,1.61e-05
2016-08-20 00:00:00,2016-08-20 00:00:00,PRATE,surface,-101.25,32.5983,2.21e-05
2016-08-20 00:00:00,2016-08-20 00:00:00,PRATE,surface,-100.313,32.5983,4.67e-05
2016-08-20 00:00:00,2016-08-20 00:00:00,PRATE,surface,-99.3754,32.5983,7.47e-05
2016-08-20 00:00:00,2016-08-20 00:00:00,PRATE,surface,-98.4379,32.5983,9.5e-05
2016-08-20 00:00:00,2016-08-20 00:00:00,PRATE,surface,-97.5004,32.5983,9.28e-05
2016-08-20 00:00:00,2016-08-20 00:00:00,PRATE,surface,-96.5629,32.5983,6.61e-05
2016-08-20 00:00:00,2016-08-20 00:00:00,PRATE,surface,-95.6254,32.5983,3.73e-05
2016-08-20 00:00:00,2016-08-20 00:00:00,PRATE,surface,-94.6879,32.5983,2.67e-05
2016-08-20 00:00:00,2016-08-20 00:00:00,PRATE,surface,-93.7504,32.5983,2.99e-05
2016-08-20 00:00:00,2016-08-20 00:00:00,PRATE,surface,-92.8129,32.5983,3.64e-05
2016-08-20 00:00:00,2016-08-20 00:00:00,PRATE,surface,-107.813,33.5432,4.85e-05
2016-08-20 00:00:00,2016-08-20 00:00:00,PRATE,surface,-106.875,33.5432,3.32e-05
2016-08-20 00:00:00,2016-08-20 00:00:00,PRATE,surface,-105.938,33.5432,2.62e-05
2016-08-20 00:00:00,2016-08-20 00:00:00,PRATE,surface,-105,33.5432,2.51e-05
2016-08-20 00:00:00,2016-08-20 00:00:00,PRATE,surface,-104.063,33.5432,3.46e-05
2016-08-20 00:00:00,2016-08-20 00:00:00,PRATE,surface,-103.125,33.5432,3.41e-05
2016-08-20 00:00:00,2016-08-20 00:00:00,PRATE,surface,-102.188,33.5432,3.17e-05
2016-08-20 00:00:00,2016-08-20 00:00:00,PRATE,surface,-101.25,33.5432,3.24e-05
2016-08-20 00:00:00,2016-08-20 00:00:00,PRATE,surface,-100.313,33.5432,3.76e-05
2016-08-20 00:00:00,2016-08-20 00:00:00,PRATE,surface,-99.3754,33.5432,4.22e-05
2016-08-20 00:00:00,2016-08-20 00:00:00,PRATE,surface,-98.4379,33.5432,5.34e-05
2016-08-20 00:00:00,2016-08-20 00:00:00,PRATE,surface,-97.5004,33.5432,7.22e-05
2016-08-20 00:00:00,2016-08-20 00:00:00,PRATE,surface,-96.5629,33.5432,7.1e-05
2016-08-20 00:00:00,2016-08-20 00:00:00,PRATE,surface,-95.6254,33.5432,4.84e-05
2016-08-20 00:00:00,2016-08-20 00:00:00,PRATE,surface,-94.6879,33.5432,3.8e-05
2016-08-20 00:00:00,2016-08-20 00:00:00,PRATE,surface,-93.7504,33.5432,3.82e-05
2016-08-20 00:00:00,2016-08-20 00:00:00,PRATE,surface,-92.8129,33.5432,3.55e-05
2016-08-20 00:00:00,2016-08-20 00:00:00,PRATE,surface,-107.813,34.4881,6.12e-05
2016-08-20 00:00:00,2016-08-20 00:00:00,PRATE,surface,-106.875,34.4881,2.82e-05
2016-08-20 00:00:00,2016-08-20 00:00:00,PRATE,surface,-105.938,34.4881,2.59e-05
2016-08-20 00:00:00,2016-08-20 00:00:00,PRATE,surface,-105,34.4881,3.1e-05
2016-08-20 00:00:00,2016-08-20 00:00:00,PRATE,surface,-104.063,34.4881,3.3e-05
2016-08-20 00:00:00,2016-08-20 00:00:00,PRATE,surface,-103.125,34.4881,2.56e-05
2016-08-20 00:00:00,2016-08-20 00:00:00,PRATE,surface,-102.188,34.4881,2.58e-05
2016-08-20 00:00:00,2016-08-20 00:00:00,PRATE,surface,-101.25,34.4881,3.84e-05
2016-08-20 00:00:00,2016-08-20 00:00:00,PRATE,surface,-100.313,34.4881,2.96e-05
2016-08-20 00:00:00,2016-08-20 00:00:00,PRATE,surface,-99.3754,34.4881,1.81e-05
2016-08-20 00:00:00,2016-08-20 00:00:00,PRATE,surface,-98.4379,34.4881,2.16e-05
2016-08-20 00:00:00,2016-08-20 00:00:00,PRATE,surface,-97.5004,34.4881,3.07e-05
2016-08-20 00:00:00,2016-08-20 00:00:00,PRATE,surface,-96.5629,34.4881,3.43e-05
2016-08-20 00:00:00,2016-08-20 00:00:00,PRATE,surface,-95.6254,34.4881,3.06e-05
2016-08-20 00:00:00,2016-08-20 00:00:00,PRATE,surface,-94.6879,34.4881,2.9e-05
2016-08-20 00:00:00,2016-08-20 00:00:00,PRATE,surface,-93.7504,34.4881,3.94e-05
2016-08-20 00:00:00,2016-08-20 00:00:00,PRATE,surface,-92.8129,34.4881,3.98e-05
2016-08-20 00:00:00,2016-08-20 00:00:00,PRATE,surface,-107.813,35.4329,1.45e-05
2016-08-20 00:00:00,2016-08-20 00:00:00,PRATE,surface,-106.875,35.4329,1.61e-05
2016-08-20 00:00:00,2016-08-20 00:00:00,PRATE,surface,-105.938,35.4329,3.34e-05
2016-08-20 00:00:00,2016-08-20 00:00:00,PRATE,surface,-105,35.4329,4.7e-05
2016-08-20 00:00:00,2016-08-20 00:00:00,PRATE,surface,-104.063,35.4329,4.53e-05
2016-08-20 00:00:00,2016-08-20 00:00:00,PRATE,surface,-103.125,35.4329,1.6e-05
2016-08-20 00:00:00,2016-08-20 00:00:00,PRATE,surface,-102.188,35.4329,1.65e-05
2016-08-20 00:00:00,2016-08-20 00:00:00,PRATE,surface,-101.25,35.4329,3.27e-05
2016-08-20 00:00:00,2016-08-20 00:00:00,PRATE,surface,-100.313,35.4329,3.59e-05
2016-08-20 00:00:00,2016-08-20 00:00:00,PRATE,surface,-99.3754,35.4329,2.96e-05
2016-08-20 00:00:00,2016-08-20 00:00:00,PRATE,surface,-98.4379,35.4329,3.41e-05
2016-08-20 00:00:00,2016-08-20 00:00:00,PRATE,surface,-97.5004,35.4329,3.46e-05
2016-08-20 00:00:00,2016-08-20 00:00:00,PRATE,surface,-96.5629,35.4329,2.65e-05
2016-08-20 00:00:00,2016-08-20 00:00:00,PRATE,surface,-95.6254,35.4329,1.94e-05
2016-08-20 00:00:00,2016-08-20 00:00:00,PRATE,surface,-94.6879,35.4329,1.63e-05
2016-08-20 00:00:00,2016-08-20 00:00:00,PRATE,surface,-93.7504,35.4329,2.38e-05
2016-08-20 00:00:00,2016-08-20 00:00:00,PRATE,surface,-92.8129,35.4329,2.21e-05
2016-08-20 00:00:00,2016-08-20 00:00:00,PRATE,surface,-107.813,36.3778,1.53e-05
2016-08-20 00:00:00,2016-08-20 00:00:00,PRATE,surface,-106.875,36.3778,3.62e-05
2016-08-20 00:00:00,2016-08-20 00:00:00,PRATE,surface,-105.938,36.3778,7.17e-05
2016-08-20 00:00:00,2016-08-20 00:00:00,PRATE,surface,-105,36.3778,7.07e-05
2016-08-20 00:00:00,2016-08-20 00:00:00,PRATE,surface,-104.063,36.3778,4.2e-05
2016-08-20 00:00:00,2016-08-20 00:00:00,PRATE,surface,-103.125,36.3778,1.7e-05
2016-08-20 00:00:00,2016-08-20 00:00:00,PRATE,surface,-102.188,36.3778,1.35e-05
2016-08-20 00:00:00,2016-08-20 00:00:00,PRATE,surface,-101.25,36.3778,1.43e-05
2016-08-20 00:00:00,2016-08-20 00:00:00,PRATE,surface,-100.313,36.3778,1.68e-05
2016-08-20 00:00:00,2016-08-20 00:00:00,PRATE,surface,-99.3754,36.3778,2.42e-05
2016-08-20 00:00:00,2016-08-20 00:00:00,PRATE,surface,-98.4379,36.3778,3.25e-05
2016-08-20 00:00:00,2016-08-20 00:00:00,PRATE,surface,-97.5004,36.3778,3.19e-05
2016-08-20 00:00:00,2016-08-20 00:00:00,PRATE,surface,-96.5629,36.3778,3.15e-05
2016-08-20 00:00:00,2016-08-20 00:00:00,PRATE,surface,-95.6254,36.3778,3.44e-05
2016-08-20 00:00:00,2016-08-20 00:00:00,PRATE,surface,-94.6879,36.3778,3.07e-05
2016-08-20 00:00:00,2016-08-20 00:00:00,PRATE,surface,-93.7504,36.3778,3.13e-05
2016-08-20 00:00:00,2016-08-20 00:00:00,PRATE,surface,-92.8129,36.3778,3.65e-05
