2011-08-07 00:00:00,2011-08-07 00:00:00,TMP,surface,-107.813,25.0393,293
2011-08-07 00:00:00,2011-08-07 00:00:00,TMP,surface,-106.875,25.0393,286.645
2011-08-07 00:00:00,2011-08-07 00:00:00,TMP,surface,-105.938,25.0393,281.495
2011-08-07 00:00:00,2011-08-07 00:00:00,TMP,surface,-105,25.0393,280.583
2011-08-07 00:00:00,2011-08-07 00:00:00,TMP,surface,-104.063,25.0393,284.002
2011-08-07 00:00:00,2011-08-07 00:00:00,TMP,surface,-103.125,25.0393,286.015
2011-08-07 00:00:00,2011-08-07 00:00:00,TMP,surface,-102.188,25.0393,285.541
2011-08-07 00:00:00,2011-08-07 00:00:00,TMP,surface,-101.25,25.0393,284.253
2011-08-07 00:00:00,2011-08-07 00:00:00,TMP,surface,-100.313,25.0393,284.175
2011-08-07 00:00:00,2011-08-07 00:00:00,TMP,surface,-99.3754,25.0393,286.394
2011-08-07 00:00:00,2011-08-07 00:00:00,TMP,surface,-98.4379,25.0393,289.283
2011-08-07 00:00:00,2011-08-07 00:00:00,TMP,surface,-97.5004,25.0393,296.539
2011-08-07 00:00:00,2011-08-07 00:00:00,TMP,surface,-96.5629,25.0393,297.245
2011-08-07 00:00:00,2011-08-07 00:00:00,TMP,surface,-95.6254,25.0393,297.359
2011-08-07 00:00:00,2011-08-07 00:00:00,TMP,surface,-94.6879,25.0393,297.219
2011-08-07 00:00:00,2011-08-07 00:00:00,TMP,surface,-93.7504,25.0393,296.955
2011-08-07 00:00:00,2011-08-07 00:00:00,TMP,surface,-92.8129,25.0393,296.861
2011-08-07 00:00:00,2011-08-07 00:00:00,TMP,surface,-107.813,25.9842,287.888
2011-08-07 00:00:00,2011-08-07 00:00:00,TMP,surface,-106.875,25.9842,282.389
2011-08-07 00:00:00,2011-08-07 00:00:00,TMP,surface,-105.938,25.9842,279.875
2011-08-07 00:00:00,2011-08-07 00:00:00,TMP,surface,-105,25.9842,282.266
2011-08-07 00:00:00,2011-08-07 00:00:00,TMP,surface,-104.063,25.9842,285.416
2011-08-07 00:00:00,2011-08-07 00:00:00,TMP,surface,-103.125,25.9842,285.981
2011-08-07 00:00:00,2011-08-07 00:00:00,TMP,surface,-102.188,25.9842,284.88
2011-08-07 00:00:00,2011-08-07 00:00:00,TMP,surface,-101.25,25.9842,284.171
2011-08-07 00:00:00,2011-08-07 00:00:00,TMP,surface,-100.313,25.9842,284.341
2011-08-07 00:00:00,2011-08-07 00:00:00,TMP,surface,-99.3754,25.9842,286.325
2011-08-07 00:00:00,2011-08-07 00:00:00,TMP,surface,-98.4379,25.9842,288.323
2011-08-07 00:00:00,2011-08-07 00:00:00,TMP,surface,-97.5004,25.9842,290.667
2011-08-07 00:00:00,2011-08-07 00:00:00,TMP,surface,-96.5629,25.9842,296.738
2011-08-07 00:00:00,2011-08-07 00:00:00,TMP,surface,-95.6254,25.9842,297.031
2011-08-07 00:00:00,2011-08-07 00:00:00,TMP,surface,-94.6879,25.9842,296.923
2011-08-07 00:00:00,2011-08-07 00:00:00,TMP,surface,-93.7504,25.9842,296.639
2011-08-07 00:00:00,2011-08-07 00:00:00,TMP,surface,-92.8129,25.9842,296.683
2011-08-07 00:00:00,2011-08-07 00:00:00,TMP,surface,-107.813,26.929,282.976
2011-08-07 00:00:00,2011-08-07 00:00:00,TMP,surface,-106.875,26.929,279.451
2011-08-07 00:00:00,2011-08-07 00:00:00,TMP,surface,-105.938,26.929,280.818
2011-08-07 00:00:00,2011-08-07 00:00:00,TMP,surface,-105,26.929,284.221
2011-08-07 00:00:00,2011-08-07 00:00:00,TMP,surface,-104.063,26.929,284.997
2011-08-07 00:00:00,2011-08-07 00:00:00,TMP,surface,-103.125,26.929,283.786
2011-08-07 00:00:00,2011-08-07 00:00:00,TMP,surface,-102.188,26.929,282.755
2011-08-07 00:00:00,2011-08-07 00:00:00,TMP,surface,-101.25,26.929,283.365
2011-08-07 00:00:00,2011-08-07 00:00:00,TMP,surface,-100.313,26.929,284.242
2011-08-07 00:00:00,2011-08-07 00:00:00,TMP,surface,-99.3754,26.929,285.232
2011-08-07 00:00:00,2011-08-07 00:00:00,TMP,surface,-98.4379,26.929,286.389
2011-08-07 00:00:00,2011-08-07 00:00:00,TMP,surface,-97.5004,26.929,294.743
2011-08-07 00:00:00,2011-08-07 00:00:00,TMP,surface,-96.5629,26.929,296.055
2011-08-07 00:00:00,2011-08-07 00:00:00,TMP,surface,-95.6254,26.929,296.488
2011-08-07 00:00:00,2011-08-07 00:00:00,TMP,surface,-94.6879,26.929,296.36
2011-08-07 00:00:00,2011-08-07 00:00:00,TMP,surface,-93.7504,26.929,295.923
2011-08-07 00:00:00,2011-08-07 00:00:00,TMP,surface,-92.8129,26.929,295.97
2011-08-07 00:00:00,2011-08-07 00:00:00,TMP,surface,-107.813,27.8739,279.738
2011-08-07 00:00:00,2011-08-07 00:00:00,TMP,surface,-106.875,27.8739,278.799
2011-08-07 00:00:00,2011-08-07 00:00:00,TMP,surface,-105.938,27.8739,282.123
2011-08-07 00:00:00,2011-08-07 00:00:00,TMP,surface,-105,27.8739,284.357
2011-08-07 00:00:00,2011-08-07 00:00:00,TMP,surface,-104.063,27.8739,283.381
2011-08-07 00:00:00,2011-08-07 00:00:00,TMP,surface,-103.125,27.8739,282.197
2011-08-07 00:00:00,2011-08-07 00:00:00,TMP,surface,-102.188,27.8739,281.778
2011-08-07 00:00:00,2011-08-07 00:00:00,TMP,surface,-101.25,27.8739,282.535
2011-08-07 00:00:00,2011-08-07 00:00:00,TMP,surface,-100.313,27.8739,283.387
2011-08-07 00:00:00,2011-08-07 00:00:00,TMP,surface,-99.3754,27.8739,283.719
2011-08-07 00:00:00,2011-08-07 00:00:00,TMP,surface,-98.4379,27.8739,284.443
2011-08-07 00:00:00,2011-08-07 00:00:00,TMP,surface,-97.5004,27.8739,290.269
2011-08-07 00:00:00,2011-08-07 00:00:00,TMP,surface,-96.5629,27.8739,295.848
2011-08-07 00:00:00,2011-08-07 00:00:00,TMP,surface,-95.6254,27.8739,295.999
2011-08-07 00:00:00,2011-08-07 00:00:00,TMP,surface,-94.6879,27.8739,295.458
2011-08-07 00:00:00,2011-08-07 00:00:00,TMP,surface,-93.7504,27.8739,295.069
2011-08-07 00:00:00,2011-08-07 00:00:00,TMP,surface,-92.8129,27.8739,295.106
2011-08-07 00:00:00,2011-08-07 00:00:00,TMP,surface,-107.813,28.8188,278.392
2011-08-07 00:00:00,2011-08-07 00:00:00,TMP,surface,-106.875,28.8188,278.978
2011-08-07 00:00:00,2011-08-07 00:00:00,TMP,surface,-105.938,28.8188,282.023
2011-08-07 00:00:00,2011-08-07 00:00:00,TMP,surface,-105,28.8188,283.112
2011-08-07 00:00:00,2011-08-07 00:00:00,TMP,surface,-104.063,28.8188,282.275
2011-08-07 00:00:00,2011-08-07 00:00:00,TMP,surface,-103.125,28.8188,281.255
2011-08-07 00:00:00,2011-08-07 00:00:00,TMP,surface,-102.188,28.8188,281.072
2011-08-07 00:00:00,2011-08-07 00:00:00,TMP,surface,-101.25,28.8188,281.872
2011-08-07 00:00:00,2011-08-07 00:00:00,TMP,surface,-100.313,28.8188,282.235
2011-08-07 00:00:00,2011-08-07 00:00:00,TMP,surface,-99.3754,28.8188,282.093
2011-08-07 00:00:00,2011-08-07 00:00:00,TMP,surface,-98.4379,28.8188,282.323
2011-08-07 00:00:00,2011-08-07 00:00:00,TMP,surface,-97.5004,28.8188,283.269
2011-08-07 00:00:00,2011-08-07 00:00:00,TMP,surface,-96.5629,28.8188,284.703
2011-08-07 00:00:00,2011-08-07 00:00:00,TMP,surface,-95.6254,28.8188,289.386
2011-08-07 00:00:00,2011-08-07 00:00:00,TMP,surface,-94.6879,28.8188,295.424
2011-08-07 00:00:00,2011-08-07 00:00:00,TMP,surface,-93.7504,28.8188,295.112
2011-08-07 00:00:00,2011-08-07 00:00:00,TMP,surface,-92.8129,28.8188,295.173
2011-08-07 00:00:00,2011-08-07 00:00:00,TMP,surface,-107.813,29.7637,279.029
2011-08-07 00:00:00,2011-08-07 00:00:00,TMP,surface,-106.875,29.7637,279.607
2011-08-07 00:00:00,2011-08-07 00:00:00,TMP,surface,-105.938,29.7637,280.984
2011-08-07 00:00:00,2011-08-07 00:00:00,TMP,surface,-105,29.7637,281.155
2011-08-07 00:00:00,2011-08-07 00:00:00,TMP,surface,-104.063,29.7637,280.863
2011-08-07 00:00:00,2011-08-07 00:00:00,TMP,surface,-103.125,29.7637,280.64
2011-08-07 00:00:00,2011-08-07 00:00:00,TMP,surface,-102.188,29.7637,280.915
2011-08-07 00:00:00,2011-08-07 00:00:00,TMP,surface,-101.25,29.7637,280.995
2011-08-07 00:00:00,2011-08-07 00:00:00,TMP,surface,-100.313,29.7637,280.711
2011-08-07 00:00:00,2011-08-07 00:00:00,TMP,surface,-99.3754,29.7637,280.504
2011-08-07 00:00:00,2011-08-07 00:00:00,TMP,surface,-98.4379,29.7637,280.738
2011-08-07 00:00:00,2011-08-07 00:00:00,TMP,surface,-97.5004,29.7637,281.258
2011-08-07 00:00:00,2011-08-07 00:00:00,TMP,surface,-96.5629,29.7637,282.037
2011-08-07 00:00:00,2011-08-07 00:00:00,TMP,surface,-95.6254,29.7637,283.167
2011-08-07 00:00:00,2011-08-07 00:00:00,TMP,surface,-94.6879,29.7637,287.514
2011-08-07 00:00:00,2011-08-07 00:00:00,TMP,surface,-93.7504,29.7637,292.554
2011-08-07 00:00:00,2011-08-07 00:00:00,TMP,surface,-92.8129,29.7637,284.6
2011-08-07 00:00:00,2011-08-07 00:00:00,TMP,surface,-107.813,30.7085,279.915
2011-08-07 00:00:00,2011-08-07 00:00:00,TMP,surface,-106.875,30.7085,280.053
2011-08-07 00:00:00,2011-08-07 00:00:00,TMP,surface,-105.938,30.7085,279.93
2011-08-07 00:00:00,2011-08-07 00:00:00,TMP,surface,-105,30.7085,279.563
2011-08-07 00:00:00,2011-08-07 00:00:00,TMP,surface,-104.063,30.7085,279.135
2011-08-07 00:00:00,2011-08-07 00:00:00,TMP,surface,-103.125,30.7085,279.527
2011-08-07 00:00:00,2011-08-07 00:00:00,TMP,surface,-102.188,30.7085,279.749
2011-08-07 00:00:00,2011-08-07 00:00:00,TMP,surface,-101.25,30.7085,279.525
2011-08-07 00:00:00,2011-08-07 00:00:00,TMP,surface,-100.313,30.7085,279.203
2011-08-07 00:00:00,2011-08-07 00:00:00,TMP,surface,-99.3754,30.7085,279.322
2011-08-07 00:00:00,2011-08-07 00:00:00,TMP,surface,-98.4379,30.7085,279.823
2011-08-07 00:00:00,2011-08-07 00:00:00,TMP,surface,-97.5004,30.7085,280.421
2011-08-07 00:00:00,2011-08-07 00:00:00,TMP,surface,-96.5629,30.7085,280.941
2011-08-07 00:00:00,2011-08-07 00:00:00,TMP,surface,-95.6254,30.7085,281.357
2011-08-07 00:00:00,2011-08-07 00:00:00,TMP,surface,-94.6879,30.7085,281.589
2011-08-07 00:00:00,2011-08-07 00:00:00,TMP,surface,-93.7504,30.7085,281.411
2011-08-07 00:00:00,2011-08-07 00:00:00,TMP,surface,-92.8129,30.7085,280.986
2011-08-07 00:00:00,2011-08-07 00:00:00,TMP,surface,-107.813,31.6534,279.341
2011-08-07 00:00:00,2011-08-07 00:00:00,TMP,surface,-106.875,31.6534,279.267
2011-08-07 00:00:00,2011-08-07 00:00:00,TMP,surface,-105.938,31.6534,278.57
2011-08-07 00:00:00,2011-08-07 00:00:00,TMP,surface,-105,31.6534,278.155
2011-08-07 00:00:00,2011-08-07 00:00:00,TMP,surface,-104.063,31.6534,278.103
2011-08-07 00:00:00,2011-08-07 00:00:00,TMP,surface,-103.125,31.6534,278.362
2011-08-07 00:00:00,2011-08-07 00:00:00,TMP,surface,-102.188,31.6534,278.379
2011-08-07 00:00:00,2011-08-07 00:00:00,TMP,surface,-101.25,31.6534,278.109
2011-08-07 00:00:00,2011-08-07 00:00:00,TMP,surface,-100.313,31.6534,278.066
2011-08-07 00:00:00,2011-08-07 00:00:00,TMP,surface,-99.3754,31.6534,278.37
2011-08-07 00:00:00,2011-08-07 00:00:00,TMP,surface,-98.4379,31.6534,279.067
2011-08-07 00:00:00,2011-08-07 00:00:00,TMP,surface,-97.5004,31.6534,279.835
2011-08-07 00:00:00,2011-08-07 00:00:00,TMP,surface,-96.5629,31.6534,280.375
2011-08-07 00:00:00,2011-08-07 00:00:00,TMP,surface,-95.6254,31.6534,280.562
2011-08-07 00:00:00,2011-08-07 00:00:00,TMP,surface,-94.6879,31.6534,280.336
2011-08-07 00:00:00,2011-08-07 00:00:00,TMP,surface,-93.7504,31.6534,279.962
2011-08-07 00:00:00,2011-08-07 00:00:00,TMP,surface,-92.8129,31.6534,279.816
2011-08-07 00:00:00,2011-08-07 00:00:00,TMP,surface,-107.813,32.5983,276.666
2011-08-07 00:00:00,2011-08-07 00:00:00,TMP,surface,-106.875,32.5983,276.789
2011-08-07 00:00:00,2011-08-07 00:00:00,TMP,surface,-105.938,32.5983,276.407
2011-08-07 00:00:00,2011-08-07 00:00:00,TMP,surface,-105,32.5983,276.418
2011-08-07 00:00:00,2011-08-07 00:00:00,TMP,surface,-104.063,32.5983,276.736
2011-08-07 00:00:00,2011-08-07 00:00:00,TMP,surface,-103.125,32.5983,276.922
2011-08-07 00:00:00,2011-08-07 00:00:00,TMP,surface,-102.188,32.5983,276.869
2011-08-07 00:00:00,2011-08-07 00:00:00,TMP,surface,-101.25,32.5983,276.899
2011-08-07 00:00:00,2011-08-07 00:00:00,TMP,surface,-100.313,32.5983,277.298
2011-08-07 00:00:00,2011-08-07 00:00:00,TMP,surface,-99.3754,32.5983,277.808
2011-08-07 00:00:00,2011-08-07 00:00:00,TMP,surface,-98.4379,32.5983,278.394
2011-08-07 00:00:00,2011-08-07 00:00:00,TMP,surface,-97.5004,32.5983,279.119
2011-08-07 00:00:00,2011-08-07 00:00:00,TMP,surface,-96.5629,32.5983,279.736
2011-08-07 00:00:00,2011-08-07 00:00:00,TMP,surface,-95.6254,32.5983,279.928
2011-08-07 00:00:00,2011-08-07 00:00:00,TMP,surface,-94.6879,32.5983,279.72
2011-08-07 00:00:00,2011-08-07 00:00:00,TMP,surface,-93.7504,32.5983,279.472
2011-08-07 00:00:00,2011-08-07 00:00:00,TMP,surface,-92.8129,32.5983,279.597
2011-08-07 00:00:00,2011-08-07 00:00:00,TMP,surface,-107.813,33.5432,272.763
2011-08-07 00:00:00,2011-08-07 00:00:00,TMP,surface,-106.875,33.5432,273.666
2011-08-07 00:00:00,2011-08-07 00:00:00,TMP,surface,-105.938,33.5432,274.359
2011-08-07 00:00:00,2011-08-07 00:00:00,TMP,surface,-105,33.5432,275.027
2011-08-07 00:00:00,2011-08-07 00:00:00,TMP,surface,-104.063,33.5432,275.413
2011-08-07 00:00:00,2011-08-07 00:00:00,TMP,surface,-103.125,33.5432,275.189
2011-08-07 00:00:00,2011-08-07 00:00:00,TMP,surface,-102.188,33.5432,275.026
2011-08-07 00:00:00,2011-08-07 00:00:00,TMP,surface,-101.25,33.5432,275.474
2011-08-07 00:00:00,2011-08-07 00:00:00,TMP,surface,-100.313,33.5432,276.339
2011-08-07 00:00:00,2011-08-07 00:00:00,TMP,surface,-99.3754,33.5432,277.061
2011-08-07 00:00:00,2011-08-07 00:00:00,TMP,surface,-98.4379,33.5432,277.427
2011-08-07 00:00:00,2011-08-07 00:00:00,TMP,surface,-97.5004,33.5432,277.752
2011-08-07 00:00:00,2011-08-07 00:00:00,TMP,surface,-96.5629,33.5432,278.288
2011-08-07 00:00:00,2011-08-07 00:00:00,TMP,surface,-95.6254,33.5432,278.723
2011-08-07 00:00:00,2011-08-07 00:00:00,TMP,surface,-94.6879,33.5432,278.693
2011-08-07 00:00:00,2011-08-07 00:00:00,TMP,surface,-93.7504,33.5432,278.517
2011-08-07 00:00:00,2011-08-07 00:00:00,TMP,surface,-92.8129,33.5432,278.682
2011-08-07 00:00:00,2011-08-07 00:00:00,TMP,surface,-107.813,34.4881,269.579
2011-08-07 00:00:00,2011-08-07 00:00:00,TMP,surface,-106.875,34.4881,271.373
2011-08-07 00:00:00,2011-08-07 00:00:00,TMP,surface,-105.938,34.4881,272.403
2011-08-07 00:00:00,2011-08-07 00:00:00,TMP,surface,-105,34.4881,273.341
2011-08-07 00:00:00,2011-08-07 00:00:00,TMP,surface,-104.063,34.4881,273.599
2011-08-07 00:00:00,2011-08-07 00:00:00,TMP,surface,-103.125,34.4881,273.615
2011-08-07 00:00:00,2011-08-07 00:00:00,TMP,surface,-102.188,34.4881,273.935
2011-08-07 00:00:00,2011-08-07 00:00:00,TMP,surface,-101.25,34.4881,274.421
2011-08-07 00:00:00,2011-08-07 00:00:00,TMP,surface,-100.313,34.4881,275.002
2011-08-07 00:00:00,2011-08-07 00:00:00,TMP,surface,-99.3754,34.4881,275.741
2011-08-07 00:00:00,2011-08-07 00:00:00,TMP,surface,-98.4379,34.4881,276.288
2011-08-07 00:00:00,2011-08-07 00:00:00,TMP,surface,-97.5004,34.4881,276.651
2011-08-07 00:00:00,2011-08-07 00:00:00,TMP,surface,-96.5629,34.4881,277.024
2011-08-07 00:00:00,2011-08-07 00:00:00,TMP,surface,-95.6254,34.4881,277.173
2011-08-07 00:00:00,2011-08-07 00:00:00,TMP,surface,-94.6879,34.4881,276.938
2011-08-07 00:00:00,2011-08-07 00:00:00,TMP,surface,-93.7504,34.4881,276.791
2011-08-07 00:00:00,2011-08-07 00:00:00,TMP,surface,-92.8129,34.4881,277.045
2011-08-07 00:00:00,2011-08-07 00:00:00,TMP,surface,-107.813,35.4329,268.701
2011-08-07 00:00:00,2011-08-07 00:00:00,TMP,surface,-106.875,35.4329,269.352
2011-08-07 00:00:00,2011-08-07 00:00:00,TMP,surface,-105.938,35.4329,270.263
2011-08-07 00:00:00,2011-08-07 00:00:00,TMP,surface,-105,35.4329,271.576
2011-08-07 00:00:00,2011-08-07 00:00:00,TMP,surface,-104.063,35.4329,272.442
2011-08-07 00:00:00,2011-08-07 00:00:00,TMP,surface,-103.125,35.4329,273.059
2011-08-07 00:00:00,2011-08-07 00:00:00,TMP,surface,-102.188,35.4329,273.219
2011-08-07 00:00:00,2011-08-07 00:00:00,TMP,surface,-101.25,35.4329,273.383
2011-08-07 00:00:00,2011-08-07 00:00:00,TMP,surface,-100.313,35.4329,273.791
2011-08-07 00:00:00,2011-08-07 00:00:00,TMP,surface,-99.3754,35.4329,274.272
2011-08-07 00:00:00,2011-08-07 00:00:00,TMP,surface,-98.4379,35.4329,274.867
2011-08-07 00:00:00,2011-08-07 00:00:00,TMP,surface,-97.5004,35.4329,275.656
2011-08-07 00:00:00,2011-08-07 00:00:00,TMP,surface,-96.5629,35.4329,276.29
2011-08-07 00:00:00,2011-08-07 00:00:00,TMP,surface,-95.6254,35.4329,276.365
2011-08-07 00:00:00,2011-08-07 00:00:00,TMP,surface,-94.6879,35.4329,275.984
2011-08-07 00:00:00,2011-08-07 00:00:00,TMP,surface,-93.7504,35.4329,275.538
2011-08-07 00:00:00,2011-08-07 00:00:00,TMP,surface,-92.8129,35.4329,275.411
2011-08-07 00:00:00,2011-08-07 00:00:00,TMP,surface,-107.813,36.3778,267.479
2011-08-07 00:00:00,2011-08-07 00:00:00,TMP,surface,-106.875,36.3778,266.819
2011-08-07 00:00:00,2011-08-07 00:00:00,TMP,surface,-105.938,36.3778,267.883
2011-08-07 00:00:00,2011-08-07 00:00:00,TMP,surface,-105,36.3778,269.384
2011-08-07 00:00:00,2011-08-07 00:00:00,TMP,surface,-104.063,36.3778,270.866
2011-08-07 00:00:00,2011-08-07 00:00:00,TMP,surface,-103.125,36.3778,271.703
2011-08-07 00:00:00,2011-08-07 00:00:00,TMP,surface,-102.188,36.3778,272.165
2011-08-07 00:00:00,2011-08-07 00:00:00,TMP,surface,-101.25,36.3778,272.403
2011-08-07 00:00:00,2011-08-07 00:00:00,TMP,surface,-100.313,36.3778,272.779
2011-08-07 00:00:00,2011-08-07 00:00:00,TMP,surface,-99.3754,36.3778,273.285
2011-08-07 00:00:00,2011-08-07 00:00:00,TMP,surface,-98.4379,36.3778,273.731
2011-08-07 00:00:00,2011-08-07 00:00:00,TMP,surface,-97.5004,36.3778,274.517
2011-08-07 00:00:00,2011-08-07 00:00:00,TMP,surface,-96.5629,36.3778,275.362
2011-08-07 00:00:00,2011-08-07 00:00:00,TMP,surface,-95.6254,36.3778,275.541
2011-08-07 00:00:00,2011-08-07 00:00:00,TMP,surface,-94.6879,36.3778,275.074
2011-08-07 00:00:00,2011-08-07 00:00:00,TMP,surface,-93.7504,36.3778,274.458
2011-08-07 00:00:00,2011-08-07 00:00:00,TMP,surface,-92.8129,36.3778,274.351
2011-08-07 00:00:00,2011-08-07 00:00:00,PRATE,surface,-107.813,25.0393,2.67e-05
2011-08-07 00:00:00,2011-08-07 00:00:00,PRATE,surface,-106.875,25.0393,3.32e-05
2011-08-07 00:00:00,2011-08-07 00:00:00,PRATE,surface,-105.938,25.0393,3.95e-05
2011-08-07 00:00:00,2011-08-07 00:00:00,PRATE,surface,-105,25.0393,2.37e-05
2011-08-07 00:00:00,2011-08-07 00:00:00,PRATE,surface,-104.063,25.0393,7.2e-06
2011-08-07 00:00:00,2011-08-07 00:00:00,PRATE,surface,-103.125,25.0393,2.9e-06
2011-08-07 00:00:00,2011-08-07 00:00:00,PRATE,surface,-102.188,25.0393,4.6e-06
2011-08-07 00:00:00,2011-08-07 00:00:00,PRATE,surface,-101.25,25.0393,1.14e-05
2011-08-07 00:00:00,2011-08-07 00:00:00,PRATE,surface,-100.313,25.0393,1.29e-05
2011-08-07 00:00:00,2011-08-07 00:00:00,PRATE,surface,-99.3754,25.0393,1.05e-05
2011-08-07 00:00:00,2011-08-07 00:00:00,PRATE,surface,-98.4379,25.0393,1.62e-05
2011-08-07 00:00:00,2011-08-07 00:00:00,PRATE,surface,-97.5004,25.0393,2.36e-05
2011-08-07 00:00:00,2011-08-07 00:00:00,PRATE,surface,-96.5629,25.0393,4.02e-05
2011-08-07 00:00:00,2011-08-07 00:00:00,PRATE,surface,-95.6254,25.0393,4.42e-05
2011-08-07 00:00:00,2011-08-07 00:00:00,PRATE,surface,-94.6879,25.0393,4.44e-05
2011-08-07 00:00:00,2011-08-07 00:00:00,PRATE,surface,-93.7504,25.0393,3.77e-05
2011-08-07 00:00:00,2011-08-07 00:00:00,PRATE,surface,-92.8129,25.0393,3.5e-05
2011-08-07 00:00:00,2011-08-07 00:00:00,PRATE,surface,-107.813,25.9842,4.59e-05
2011-08-07 00:00:00,2011-08-07 00:00:00,PRATE,surface,-106.875,25.9842,3.73e-05
2011-08-07 00:00:00,2011-08-07 00:00:00,PRATE,surface,-105.938,25.9842,2.69e-05
2011-08-07 00:00:00,2011-08-07 00:00:00,PRATE,surface,-105,25.9842,1.85e-05
2011-08-07 00:00:00,2011-08-07 00:00:00,PRATE,surface,-104.063,25.9842,8.7e-06
2011-08-07 00:00:00,2011-08-07 00:00:00,PRATE,surface,-103.125,25.9842,5.1e-06
2011-08-07 00:00:00,2011-08-07 00:00:00,PRATE,surface,-102.188,25.9842,8.2e-06
2011-08-07 00:00:00,2011-08-07 00:00:00,PRATE,surface,-101.25,25.9842,1.5e-05
2011-08-07 00:00:00,2011-08-07 00:00:00,PRATE,surface,-100.313,25.9842,1.45e-05
2011-08-07 00:00:00,2011-08-07 00:00:00,PRATE,surface,-99.3754,25.9842,1.35e-05
2011-08-07 00:00:00,2011-08-07 00:00:00,PRATE,surface,-98.4379,25.9842,1.91e-05
2011-08-07 00:00:00,2011-08-07 00:00:00,PRATE,surface,-97.5004,25.9842,2.85e-05
2011-08-07 00:00:00,2011-08-07 00:00:00,PRATE,surface,-96.5629,25.9842,6.48e-05
2011-08-07 00:00:00,2011-08-07 00:00:00,PRATE,surface,-95.6254,25.9842,8.84e-05
2011-08-07 00:00:00,2011-08-07 00:00:00,PRATE,surface,-94.6879,25.9842,6.06e-05
2011-08-07 00:00:00,2011-08-07 00:00:00,PRATE,surface,-93.7504,25.9842,4.22e-05
2011-08-07 00:00:00,2011-08-07 00:00:00,PRATE,surface,-92.8129,25.9842,3.6e-05
2011-08-07 00:00:00,2011-08-07 00:00:00,PRATE,surface,-107.813,26.929,5.8e-05
2011-08-07 00:00:00,2011-08-07 00:00:00,PRATE,surface,-106.875,26.929,3.27e-05
2011-08-07 00:00:00,2011-08-07 00:00:00,PRATE,surface,-105.938,26.929,1.53e-05
2011-08-07 00:00:00,2011-08-07 00:00:00,PRATE,surface,-105,26.929,1.19e-05
2011-08-07 00:00:00,2011-08-07 00:00:00,PRATE,surface,-104.063,26.929,1.26e-05
2011-08-07 00:00:00,2011-08-07 00:00:00,PRATE,surface,-103.125,26.929,2.03e-05
2011-08-07 00:00:00,2011-08-07 00:00:00,PRATE,surface,-102.188,26.929,2.86e-05
2011-08-07 00:00:00,2011-08-07 00:00:00,PRATE,surface,-101.25,26.929,2.55e-05
2011-08-07 00:00:00,2011-08-07 00:00:00,PRATE,surface,-100.313,26.929,1.99e-05
2011-08-07 00:00:00,2011-08-07 00:00:00,PRATE,surface,-99.3754,26.929,2.2e-05
2011-08-07 00:00:00,2011-08-07 00:00:00,PRATE,surface,-98.4379,26.929,3.28e-05
2011-08-07 00:00:00,2011-08-07 00:00:00,PRATE,surface,-97.5004,26.929,3.6e-05
2011-08-07 00:00:00,2011-08-07 00:00:00,PRATE,surface,-96.5629,26.929,5.62e-05
2011-08-07 00:00:00,2011-08-07 00:00:00,PRATE,surface,-95.6254,26.929,9.08e-05
2011-08-07 00:00:00,2011-08-07 00:00:00,PRATE,surface,-94.6879,26.929,9.19e-05
2011-08-07 00:00:00,2011-08-07 00:00:00,PRATE,surface,-93.7504,26.929,8.52e-05
2011-08-07 00:00:00,2011-08-07 00:00:00,PRATE,surface,-92.8129,26.929,7.28e-05
2011-08-07 00:00:00,2011-08-07 00:00:00,PRATE,surface,-107.813,27.8739,4.33e-05
2011-08-07 00:00:00,2011-08-07 00:00:00,PRATE,surface,-106.875,27.8739,2.32e-05
2011-08-07 00:00:00,2011-08-07 00:00:00,PRATE,surface,-105.938,27.8739,8.1e-06
2011-08-07 00:00:00,2011-08-07 00:00:00,PRATE,surface,-105,27.8739,5e-06
2011-08-07 00:00:00,2011-08-07 00:00:00,PRATE,surface,-104.063,27.8739,8.7e-06
2011-08-07 00:00:00,2011-08-07 00:00:00,PRATE,surface,-103.125,27.8739,2.09e-05
2011-08-07 00:00:00,2011-08-07 00:00:00,PRATE,surface,-102.188,27.8739,2.99e-05
2011-08-07 00:00:00,2011-08-07 00:00:00,PRATE,surface,-101.25,27.8739,2.8e-05
2011-08-07 00:00:00,2011-08-07 00:00:00,PRATE,surface,-100.313,27.8739,2.6e-05
2011-08-07 00:00:00,2011-08-07 00:00:00,PRATE,surface,-99.3754,27.8739,3.21e-05
2011-08-07 00:00:00,2011-08-07 00:00:00,PRATE,surface,-98.4379,27.8739,3.75e-05
2011-08-07 00:00:00,2011-08-07 00:00:00,PRATE,surface,-97.5004,27.8739,4.17e-05
2011-08-07 00:00:00,2011-08-07 00:00:00,PRATE,surface,-96.5629,27.8739,5.17e-05
2011-08-07 00:00:00,2011-08-07 00:00:00,PRATE,surface,-95.6254,27.8739,6.75e-05
2011-08-07 00:00:00,2011-08-07 00:00:00,PRATE,surface,-94.6879,27.8739,8.54e-05
2011-08-07 00:00:00,2011-08-07 00:00:00,PRATE,surface,-93.7504,27.8739,9.96e-05
2011-08-07 00:00:00,2011-08-07 00:00:00,PRATE,surface,-92.8129,27.8739,9.79e-05
2011-08-07 00:00:00,2011-08-07 00:00:00,PRATE,surface,-107.813,28.8188,2.08e-05
2011-08-07 00:00:00,2011-08-07 00:00:00,PRATE,surface,-106.875,28.8188,1.18e-05
2011-08-07 00:00:00,2011-08-07 00:00:00,PRATE,surface,-105.938,28.8188,5.7e-06
2011-08-07 00:00:00,2011-08-07 00:00:00,PRATE,surface,-105,28.8188,4.4e-06
2011-08-07 00:00:00,2011-08-07 00:00:00,PRATE,surface,-104.063,28.8188,7.8e-06
2011-08-07 00:00:00,2011-08-07 00:00:00,PRATE,surface,-103.125,28.8188,1.34e-05
2011-08-07 00:00:00,2011-08-07 00:00:00,PRATE,surface,-102.188,28.8188,1.47e-05
2011-08-07 00:00:00,2011-08-07 00:00:00,PRATE,surface,-101.25,28.8188,1.34e-05
2011-08-07 00:00:00,2011-08-07 00:00:00,PRATE,surface,-100.313,28.8188,1.55e-05
2011-08-07 00:00:00,2011-08-07 00:00:00,PRATE,surface,-99.3754,28.8188,2e-05
2011-08-07 00:00:00,2011-08-07 00:00:00,PRATE,surface,-98.4379,28.8188,2.29e-05
2011-08-07 00:00:00,2011-08-07 00:00:00,PRATE,surface,-97.5004,28.8188,2.64e-05
2011-08-07 00:00:00,2011-08-07 00:00:00,PRATE,surface,-96.5629,28.8188,3.84e-05
2011-08-07 00:00:00,2011-08-07 00:00:00,PRATE,surface,-95.6254,28.8188,5.89e-05
2011-08-07 00:00:00,2011-08-07 00:00:00,PRATE,surface,-94.6879,28.8188,8.1e-05
2011-08-07 00:00:00,2011-08-07 00:00:00,PRATE,surface,-93.7504,28.8188,9.89e-05
2011-08-07 00:00:00,2011-08-07 00:00:00,PRATE,surface,-92.8129,28.8188,0.0001017
2011-08-07 00:00:00,2011-08-07 00:00:00,PRATE,surface,-107.813,29.7637,9.4e-06
2011-08-07 00:00:00,2011-08-07 00:00:00,PRATE,surface,-106.875,29.7637,7.8e-06
2011-08-07 00:00:00,2011-08-07 00:00:00,PRATE,surface,-105.938,29.7637,6e-06
2011-08-07 00:00:00,2011-08-07 00:00:00,PRATE,surface,-105,29.7637,6e-06
2011-08-07 00:00:00,2011-08-07 00:00:00,PRATE,surface,-104.063,29.7637,1.15e-05
2011-08-07 00:00:00,2011-08-07 00:00:00,PRATE,surface,-103.125,29.7637,1.37e-05
2011-08-07 00:00:00,2011-08-07 00:00:00,PRATE,surface,-102.188,29.7637,1.45e-05
2011-08-07 00:00:00,2011-08-07 00:00:00,PRATE,surface,-101.25,29.7637,1.71e-05
2011-08-07 00:00:00,2011-08-07 00:00:00,PRATE,surface,-100.313,29.7637,1.95e-05
2011-08-07 00:00:00,2011-08-07 00:00:00,PRATE,surface,-99.3754,29.7637,1.89e-05
2011-08-07 00:00:00,2011-08-07 00:00:00,PRATE,surface,-98.4379,29.7637,1.73e-05
2011-08-07 00:00:00,2011-08-07 00:00:00,PRATE,surface,-97.5004,29.7637,1.98e-05
2011-08-07 00:00:00,2011-08-07 00:00:00,PRATE,surface,-96.5629,29.7637,2.9e-05
2011-08-07 00:00:00,2011-08-07 00:00:00,PRATE,surface,-95.6254,29.7637,4.28e-05
2011-08-07 00:00:00,2011-08-07 00:00:00,PRATE,surface,-94.6879,29.7637,6.13e-05
2011-08-07 00:00:00,2011-08-07 00:00:00,PRATE,surface,-93.7504,29.7637,7.88e-05
2011-08-07 00:00:00,2011-08-07 00:00:00,PRATE,surface,-92.8129,29.7637,7.74e-05
2011-08-07 00:00:00,2011-08-07 00:00:00,PRATE,surface,-107.813,30.7085,3.8e-06
2011-08-07 00:00:00,2011-08-07 00:00:00,PRATE,surface,-106.875,30.7085,4.9e-06
2011-08-07 00:00:00,2011-08-07 00:00:00,PRATE,surface,-105.938,30.7085,6.7e-06
2011-08-07 00:00:00,2011-08-07 00:00:00,PRATE,surface,-105,30.7085,8.8e-06
2011-08-07 00:00:00,2011-08-07 00:00:00,PRATE,surface,-104.063,30.7085,1.22e-05
2011-08-07 00:00:00,2011-08-07 00:00:00,PRATE,surface,-103.125,30.7085,1.41e-05
2011-08-07 00:00:00,2011-08-07 00:00:00,PRATE,surface,-102.188,30.7085,1.56e-05
2011-08-07 00:00:00,2011-08-07 00:00:00,PRATE,surface,-101.25,30.7085,2.16e-05
2011-08-07 00:00:00,2011-08-07 00:00:00,PRATE,surface,-100.313,30.7085,2.97e-05
2011-08-07 00:00:00,2011-08-07 00:00:00,PRATE,surface,-99.3754,30.7085,3.41e-05
2011-08-07 00:00:00,2011-08-07 00:00:00,PRATE,surface,-98.4379,30.7085,3.16e-05
2011-08-07 00:00:00,2011-08-07 00:00:00,PRATE,surface,-97.5004,30.7085,2.98e-05
2011-08-07 00:00:00,2011-08-07 00:00:00,PRATE,surface,-96.5629,30.7085,3.21e-05
2011-08-07 00:00:00,2011-08-07 00:00:00,PRATE,surface,-95.6254,30.7085,3.49e-05
2011-08-07 00:00:00,2011-08-07 00:00:00,PRATE,surface,-94.6879,30.7085,4.28e-05
2011-08-07 00:00:00,2011-08-07 00:00:00,PRATE,surface,-93.7504,30.7085,6.07e-05
2011-08-07 00:00:00,2011-08-07 00:00:00,PRATE,surface,-92.8129,30.7085,7.19e-05
2011-08-07 00:00:00,2011-08-07 00:00:00,PRATE,surface,-107.813,31.6534,2.3e-06
2011-08-07 00:00:00,2011-08-07 00:00:00,PRATE,surface,-106.875,31.6534,3.1e-06
2011-08-07 00:00:00,2011-08-07 00:00:00,PRATE,surface,-105.938,31.6534,6.8e-06
2011-08-07 00:00:00,2011-08-07 00:00:00,PRATE,surface,-105,31.6534,1.05e-05
2011-08-07 00:00:00,2011-08-07 00:00:00,PRATE,surface,-104.063,31.6534,1.36e-05
2011-08-07 00:00:00,2011-08-07 00:00:00,PRATE,surface,-103.125,31.6534,1.45e-05
2011-08-07 00:00:00,2011-08-07 00:00:00,PRATE,surface,-102.188,31.6534,1.52e-05
2011-08-07 00:00:00,2011-08-07 00:00:00,PRATE,surface,-101.25,31.6534,1.98e-05
2011-08-07 00:00:00,2011-08-07 00:00:00,PRATE,surface,-100.313,31.6534,2.64e-05
2011-08-07 00:00:00,2011-08-07 00:00:00,PRATE,surface,-99.3754,31.6534,3.47e-05
2011-08-07 00:00:00,2011-08-07 00:00:00,PRATE,surface,-98.4379,31.6534,3.96e-05
2011-08-07 00:00:00,2011-08-07 00:00:00,PRATE,surface,-97.5004,31.6534,3.97e-05
2011-08-07 00:00:00,2011-08-07 00:00:00,PRATE,surface,-96.5629,31.6534,3.85e-05
2011-08-07 00:00:00,2011-08-07 00:00:00,PRATE,surface,-95.6254,31.6534,4.15e-05
2011-08-07 00:00:00,2011-08-07 00:00:00,PRATE,surface,-94.6879,31.6534,5.2e-05
2011-08-07 00:00:00,2011-08-07 00:00:00,PRATE,surface,-93.7504,31.6534,6.4e-05
2011-08-07 00:00:00,2011-08-07 00:00:00,PRATE,surface,-92.8129,31.6534,6.82e-05
2011-08-07 00:00:00,2011-08-07 00:00:00,PRATE,surface,-107.813,32.5983,6.9e-06
2011-08-07 00:00:00,2011-08-07 00:00:00,PRATE,surface,-106.875,32.5983,5.1e-06
2011-08-07 00:00:00,2011-08-07 00:00:00,PRATE,surface,-105.938,32.5983,7.6e-06
2011-08-07 00:00:00,2011-08-07 00:00:00,PRATE,surface,-105,32.5983,1.26e-05
2011-08-07 00:00:00,2011-08-07 00:00:00,PRATE,surface,-104.063,32.5983,1.63e-05
2011-08-07 00:00:00,2011-08-07 00:00:00,PRATE,surface,-103.125,32.5983,1.72e-05
2011-08-07 00:00:00,2011-08-07 00:00:00,PRATE,surface,-102.188,32.5983,1.82e-05
2011-08-07 00:00:00,2011-08-07 00:00:00,PRATE,surface,-101.25,32.5983,1.91e-05
2011-08-07 00:00:00,2011-08-07 00:00:00,PRATE,surface,-100.313,32.5983,2.07e-05
2011-08-07 00:00:00,2011-08-07 00:00:00,PRATE,surface,-99.3754,32.5983,2.3e-05
2011-08-07 00:00:00,2011-08-07 00:00:00,PRATE,surface,-98.4379,32.5983,2.66e-05
2011-08-07 00:00:00,2011-08-07 00:00:00,PRATE,surface,-97.5004,32.5983,2.98e-05
2011-08-07 00:00:00,2011-08-07 00:00:00,PRATE,surface,-96.5629,32.5983,3.4e-05
2011-08-07 00:00:00,2011-08-07 00:00:00,PRATE,surface,-95.6254,32.5983,3.92e-05
2011-08-07 00:00:00,2011-08-07 00:00:00,PRATE,surface,-94.6879,32.5983,4.56e-05
2011-08-07 00:00:00,2011-08-07 00:00:00,PRATE,surface,-93.7504,32.5983,5.69e-05
2011-08-07 00:00:00,2011-08-07 00:00:00,PRATE,surface,-92.8129,32.5983,6.43e-05
2011-08-07 00:00:00,2011-08-07 00:00:00,PRATE,surface,-107.813,33.5432,1.63e-05
2011-08-07 00:00:00,2011-08-07 00:00:00,PRATE,surface,-106.875,33.5432,1.32e-05
2011-08-07 00:00:00,2011-08-07 00:00:00,PRATE,surface,-105.938,33.5432,1.17e-05
2011-08-07 00:00:00,2011-08-07 00:00:00,PRATE,surface,-105,33.5432,1.43e-05
2011-08-07 00:00:00,2011-08-07 00:00:00,PRATE,surface,-104.063,33.5432,1.78e-05
2011-08-07 00:00:00,2011-08-07 00:00:00,PRATE,surface,-103.125,33.5432,2.02e-05
2011-08-07 00:00:00,2011-08-07 00:00:00,PRATE,surface,-102.188,33.5432,2.24e-05
2011-08-07 00:00:00,2011-08-07 00:00:00,PRATE,surface,-101.25,33.5432,2.19e-05
2011-08-07 00:00:00,2011-08-07 00:00:00,PRATE,surface,-100.313,33.5432,1.89e-05
2011-08-07 00:00:00,2011-08-07 00:00:00,PRATE,surface,-99.3754,33.5432,1.71e-05
2011-08-07 00:00:00,2011-08-07 00:00:00,PRATE,surface,-98.4379,33.5432,1.86e-05
2011-08-07 00:00:00,2011-08-07 00:00:00,PRATE,surface,-97.5004,33.5432,2.15e-05
2011-08-07 00:00:00,2011-08-07 00:00:00,PRATE,surface,-96.5629,33.5432,2.34e-05
2011-08-07 00:00:00,2011-08-07 00:00:00,PRATE,surface,-95.6254,33.5432,2.77e-05
2011-08-07 00:00:00,2011-08-07 00:00:00,PRATE,surface,-94.6879,33.5432,3.68e-05
2011-08-07 00:00:00,2011-08-07 00:00:00,PRATE,surface,-93.7504,33.5432,4.71e-05
2011-08-07 00:00:00,2011-08-07 00:00:00,PRATE,surface,-92.8129,33.5432,5.56e-05
2011-08-07 00:00:00,2011-08-07 00:00:00,PRATE,surface,-107.813,34.4881,1.62e-05
2011-08-07 00:00:00,2011-08-07 00:00:00,PRATE,surface,-106.875,34.4881,1.21e-05
2011-08-07 00:00:00,2011-08-07 00:00:00,PRATE,surface,-105.938,34.4881,1.05e-05
2011-08-07 00:00:00,2011-08-07 00:00:00,PRATE,surface,-105,34.4881,1.25e-05
2011-08-07 00:00:00,2011-08-07 00:00:00,PRATE,surface,-104.063,34.4881,1.68e-05
2011-08-07 00:00:00,2011-08-07 00:00:00,PRATE,surface,-103.125,34.4881,1.79e-05
2011-08-07 00:00:00,2011-08-07 00:00:00,PRATE,surface,-102.188,34.4881,1.97e-05
2011-08-07 00:00:00,2011-08-07 00:00:00,PRATE,surface,-101.25,34.4881,2.22e-05
2011-08-07 00:00:00,2011-08-07 00:00:00,PRATE,surface,-100.313,34.4881,2.02e-05
2011-08-07 00:00:00,2011-08-07 00:00:00,PRATE,surface,-99.3754,34.4881,1.7e-05
2011-08-07 00:00:00,2011-08-07 00:00:00,PRATE,surface,-98.4379,34.4881,1.54e-05
2011-08-07 00:00:00,2011-08-07 00:00:00,PRATE,surface,-97.5004,34.4881,1.62e-05
2011-08-07 00:00:00,2011-08-07 00:00:00,PRATE,surface,-96.5629,34.4881,1.79e-05
2011-08-07 00:00:00,2011-08-07 00:00:00,PRATE,surface,-95.6254,34.4881,1.99e-05
2011-08-07 00:00:00,2011-08-07 00:00:00,PRATE,surface,-94.6879,34.4881,2.42e-05
2011-08-07 00:00:00,2011-08-07 00:00:00,PRATE,surface,-93.7504,34.4881,3.23e-05
2011-08-07 00:00:00,2011-08-07 00:00:00,PRATE,surface,-92.8129,34.4881,4.27e-05
2011-08-07 00:00:00,2011-08-07 00:00:00,PRATE,surface,-107.813,35.4329,1.67e-05
2011-08-07 00:00:00,2011-08-07 00:00:00,PRATE,surface,-106.875,35.4329,1.37e-05
2011-08-07 00:00:00,2011-08-07 00:00:00,PRATE,surface,-105.938,35.4329,1.19e-05
2011-08-07 00:00:00,2011-08-07 00:00:00,PRATE,surface,-105,35.4329,1.33e-05
2011-08-07 00:00:00,2011-08-07 00:00:00,PRATE,surface,-104.063,35.4329,1.79e-05
2011-08-07 00:00:00,2011-08-07 00:00:00,PRATE,surface,-103.125,35.4329,1.68e-05
2011-08-07 00:00:00,2011-08-07 00:00:00,PRATE,surface,-102.188,35.4329,1.63e-05
2011-08-07 00:00:00,2011-08-07 00:00:00,PRATE,surface,-101.25,35.4329,1.83e-05
2011-08-07 00:00:00,2011-08-07 00:00:00,PRATE,surface,-100.313,35.4329,1.83e-05
2011-08-07 00:00:00,2011-08-07 00:00:00,PRATE,surface,-99.3754,35.4329,1.61e-05
2011-08-07 00:00:00,2011-08-07 00:00:00,PRATE,surface,-98.4379,35.4329,1.42e-05
2011-08-07 00:00:00,2011-08-07 00:00:00,PRATE,surface,-97.5004,35.4329,1.4e-05
2011-08-07 00:00:00,2011-08-07 00:00:00,PRATE,surface,-96.5629,35.4329,1.46e-05
2011-08-07 00:00:00,2011-08-07 00:00:00,PRATE,surface,-95.6254,35.4329,1.64e-05
2011-08-07 00:00:00,2011-08-07 00:00:00,PRATE,surface,-94.6879,35.4329,1.98e-05
2011-08-07 00:00:00,2011-08-07 00:00:00,PRATE,surface,-93.7504,35.4329,2.47e-05
2011-08-07 00:00:00,2011-08-07 00:00:00,PRATE,surface,-92.8129,35.4329,3.3e-05
2011-08-07 00:00:00,2011-08-07 00:00:00,PRATE,surface,-107.813,36.3778,2.08e-05
2011-08-07 00:00:00,2011-08-07 00:00:00,PRATE,surface,-106.875,36.3778,2.06e-05
2011-08-07 00:00:00,2011-08-07 00:00:00,PRATE,surface,-105.938,36.3778,1.7e-05
2011-08-07 00:00:00,2011-08-07 00:00:00,PRATE,surface,-105,36.3778,1.6e-05
2011-08-07 00:00:00,2011-08-07 00:00:00,PRATE,surface,-104.063,36.3778,1.75e-05
2011-08-07 00:00:00,2011-08-07 00:00:00,PRATE,surface,-103.125,36.3778,1.78e-05
2011-08-07 00:00:00,2011-08-07 00:00:00,PRATE,surface,-102.188,36.3778,1.61e-05
2011-08-07 00:00:00,2011-08-07 00:00:00,PRATE,surface,-101.25,36.3778,1.71e-05
2011-08-07 00:00:00,2011-08-07 00:00:00,PRATE,surface,-100.313,36.3778,1.81e-05
2011-08-07 00:00:00,2011-08-07 00:00:00,PRATE,surface,-99.3754,36.3778,1.78e-05
2011-08-07 00:00:00,2011-08-07 00:00:00,PRATE,surface,-98.4379,36.3778,1.63e-05
2011-08-07 00:00:00,2011-08-07 00:00:00,PRATE,surface,-97.5004,36.3778,1.44e-05
2011-08-07 00:00:00,2011-08-07 00:00:00,PRATE,surface,-96.5629,36.3778,1.34e-05
2011-08-07 00:00:00,2011-08-07 00:00:00,PRATE,surface,-95.6254,36.3778,1.4e-05
2011-08-07 00:00:00,2011-08-07 00:00:00,PRATE,surface,-94.6879,36.3778,1.57e-05
2011-08-07 00:00:00,2011-08-07 00:00:00,PRATE,surface,-93.7504,36.3778,1.81e-05
2011-08-07 00:00:00,2011-08-07 00:00:00,PRATE,surface,-92.8129,36.3778,2.1e-05
