2013-12-04 00:00:00,2013-12-04 00:00:00,TMP,surface,-107.813,25.0393,302.458
2013-12-04 00:00:00,2013-12-04 00:00:00,TMP,surface,-106.875,25.0393,295.567
2013-12-04 00:00:00,2013-12-04 00:00:00,TMP,surface,-105.938,25.0393,290.538
2013-12-04 00:00:00,2013-12-04 00:00:00,TMP,surface,-105,25.0393,287.413
2013-12-04 00:00:00,2013-12-04 00:00:00,TMP,surface,-104.063,25.0393,290.333
2013-12-04 00:00:00,2013-12-04 00:00:00,TMP,surface,-103.125,25.0393,293.864
2013-12-04 00:00:00,2013-12-04 00:00:00,TMP,surface,-102.188,25.0393,294.021
2013-12-04 00:00:00,2013-12-04 00:00:00,TMP,surface,-101.25,25.0393,291.712
2013-12-04 00:00:00,2013-12-04 00:00:00,TMP,surface,-100.313,25.0393,292.384
2013-12-04 00:00:00,2013-12-04 00:00:00,TMP,surface,-99.3754,25.0393,296.546
2013-12-04 00:00:00,2013-12-04 00:00:00,TMP,surface,-98.4379,25.0393,300.363
2013-12-04 00:00:00,2013-12-04 00:00:00,TMP,surface,-97.5004,25.0393,302.767
2013-12-04 00:00:00,2013-12-04 00:00:00,TMP,surface,-96.5629,25.0393,302.927
2013-12-04 00:00:00,2013-12-04 00:00:00,TMP,surface,-95.6254,25.0393,303.133
2013-12-04 00:00:00,2013-12-04 00:00:00,TMP,surface,-94.6879,25.0393,303.199
2013-12-04 00:00:00,2013-12-04 00:00:00,TMP,surface,-93.7504,25.0393,303.052
2013-12-04 00:00:00,2013-12-04 00:00:00,TMP,surface,-92.8129,25.0393,302.909
2013-12-04 00:00:00,2013-12-04 00:00:00,TMP,surface,-107.813,25.9842,297.573
2013-12-04 00:00:00,2013-12-04 00:00:00,TMP,surface,-106.875,25.9842,292.191
2013-12-04 00:00:00,2013-12-04 00:00:00,TMP,surface,-105.938,25.9842,288.858
2013-12-04 00:00:00,2013-12-04 00:00:00,TMP,surface,-105,25.9842,289.066
2013-12-04 00:00:00,2013-12-04 00:00:00,TMP,surface,-104.063,25.9842,294.122
2013-12-04 00:00:00,2013-12-04 00:00:00,TMP,surface,-103.125,25.9842,296.752
2013-12-04 00:00:00,2013-12-04 00:00:00,TMP,surface,-102.188,25.9842,296.259
2013-12-04 00:00:00,2013-12-04 00:00:00,TMP,surface,-101.25,25.9842,295.354
2013-12-04 00:00:00,2013-12-04 00:00:00,TMP,surface,-100.313,25.9842,296.583
2013-12-04 00:00:00,2013-12-04 00:00:00,TMP,surface,-99.3754,25.9842,300.344
2013-12-04 00:00:00,2013-12-04 00:00:00,TMP,surface,-98.4379,25.9842,302.052
2013-12-04 00:00:00,2013-12-04 00:00:00,TMP,surface,-97.5004,25.9842,301.533
2013-12-04 00:00:00,2013-12-04 00:00:00,TMP,surface,-96.5629,25.9842,302.539
2013-12-04 00:00:00,2013-12-04 00:00:00,TMP,surface,-95.6254,25.9842,302.754
2013-12-04 00:00:00,2013-12-04 00:00:00,TMP,surface,-94.6879,25.9842,302.728
2013-12-04 00:00:00,2013-12-04 00:00:00,TMP,surface,-93.7504,25.9842,302.589
2013-12-04 00:00:00,2013-12-04 00:00:00,TMP,surface,-92.8129,25.9842,302.64
2013-12-04 00:00:00,2013-12-04 00:00:00,TMP,surface,-107.813,26.929,293.348
2013-12-04 00:00:00,2013-12-04 00:00:00,TMP,surface,-106.875,26.929,289.736
2013-12-04 00:00:00,2013-12-04 00:00:00,TMP,surface,-105.938,26.929,289.65
2013-12-04 00:00:00,2013-12-04 00:00:00,TMP,surface,-105,26.929,292.908
2013-12-04 00:00:00,2013-12-04 00:00:00,TMP,surface,-104.063,26.929,296.346
2013-12-04 00:00:00,2013-12-04 00:00:00,TMP,surface,-103.125,26.929,296.536
2013-12-04 00:00:00,2013-12-04 00:00:00,TMP,surface,-102.188,26.929,296.106
2013-12-04 00:00:00,2013-12-04 00:00:00,TMP,surface,-101.25,26.929,297.221
2013-12-04 00:00:00,2013-12-04 00:00:00,TMP,surface,-100.313,26.929,300.088
2013-12-04 00:00:00,2013-12-04 00:00:00,TMP,surface,-99.3754,26.929,302.315
2013-12-04 00:00:00,2013-12-04 00:00:00,TMP,surface,-98.4379,26.929,301.676
2013-12-04 00:00:00,2013-12-04 00:00:00,TMP,surface,-97.5004,26.929,301.49
2013-12-04 00:00:00,2013-12-04 00:00:00,TMP,surface,-96.5629,26.929,301.612
2013-12-04 00:00:00,2013-12-04 00:00:00,TMP,surface,-95.6254,26.929,302.064
2013-12-04 00:00:00,2013-12-04 00:00:00,TMP,surface,-94.6879,26.929,302.375
2013-12-04 00:00:00,2013-12-04 00:00:00,TMP,surface,-93.7504,26.929,302.392
2013-12-04 00:00:00,2013-12-04 00:00:00,TMP,surface,-92.8129,26.929,302.404
2013-12-04 00:00:00,2013-12-04 00:00:00,TMP,surface,-107.813,27.8739,291.269
2013-12-04 00:00:00,2013-12-04 00:00:00,TMP,surface,-106.875,27.8739,288.906
2013-12-04 00:00:00,2013-12-04 00:00:00,TMP,surface,-105.938,27.8739,291.12
2013-12-04 00:00:00,2013-12-04 00:00:00,TMP,surface,-105,27.8739,295.274
2013-12-04 00:00:00,2013-12-04 00:00:00,TMP,surface,-104.063,27.8739,296.709
2013-12-04 00:00:00,2013-12-04 00:00:00,TMP,surface,-103.125,27.8739,295.69
2013-12-04 00:00:00,2013-12-04 00:00:00,TMP,surface,-102.188,27.8739,295.445
2013-12-04 00:00:00,2013-12-04 00:00:00,TMP,surface,-101.25,27.8739,298.215
2013-12-04 00:00:00,2013-12-04 00:00:00,TMP,surface,-100.313,27.8739,301.151
2013-12-04 00:00:00,2013-12-04 00:00:00,TMP,surface,-99.3754,27.8739,301.933
2013-12-04 00:00:00,2013-12-04 00:00:00,TMP,surface,-98.4379,27.8739,301.28
2013-12-04 00:00:00,2013-12-04 00:00:00,TMP,surface,-97.5004,27.8739,301.152
2013-12-04 00:00:00,2013-12-04 00:00:00,TMP,surface,-96.5629,27.8739,301.57
2013-12-04 00:00:00,2013-12-04 00:00:00,TMP,surface,-95.6254,27.8739,301.834
2013-12-04 00:00:00,2013-12-04 00:00:00,TMP,surface,-94.6879,27.8739,302.127
2013-12-04 00:00:00,2013-12-04 00:00:00,TMP,surface,-93.7504,27.8739,302.248
2013-12-04 00:00:00,2013-12-04 00:00:00,TMP,surface,-92.8129,27.8739,302.189
2013-12-04 00:00:00,2013-12-04 00:00:00,TMP,surface,-107.813,28.8188,289.979
2013-12-04 00:00:00,2013-12-04 00:00:00,TMP,surface,-106.875,28.8188,289.411
2013-12-04 00:00:00,2013-12-04 00:00:00,TMP,surface,-105.938,28.8188,293.37
2013-12-04 00:00:00,2013-12-04 00:00:00,TMP,surface,-105,28.8188,296.464
2013-12-04 00:00:00,2013-12-04 00:00:00,TMP,surface,-104.063,28.8188,296.288
2013-12-04 00:00:00,2013-12-04 00:00:00,TMP,surface,-103.125,28.8188,295.788
2013-12-04 00:00:00,2013-12-04 00:00:00,TMP,surface,-102.188,28.8188,296.287
2013-12-04 00:00:00,2013-12-04 00:00:00,TMP,surface,-101.25,28.8188,298.714
2013-12-04 00:00:00,2013-12-04 00:00:00,TMP,surface,-100.313,28.8188,300.426
2013-12-04 00:00:00,2013-12-04 00:00:00,TMP,surface,-99.3754,28.8188,300.292
2013-12-04 00:00:00,2013-12-04 00:00:00,TMP,surface,-98.4379,28.8188,299.767
2013-12-04 00:00:00,2013-12-04 00:00:00,TMP,surface,-97.5004,28.8188,299.93
2013-12-04 00:00:00,2013-12-04 00:00:00,TMP,surface,-96.5629,28.8188,300.407
2013-12-04 00:00:00,2013-12-04 00:00:00,TMP,surface,-95.6254,28.8188,300.784
2013-12-04 00:00:00,2013-12-04 00:00:00,TMP,surface,-94.6879,28.8188,301.17
2013-12-04 00:00:00,2013-12-04 00:00:00,TMP,surface,-93.7504,28.8188,301.455
2013-12-04 00:00:00,2013-12-04 00:00:00,TMP,surface,-92.8129,28.8188,301.57
2013-12-04 00:00:00,2013-12-04 00:00:00,TMP,surface,-107.813,29.7637,292.722
2013-12-04 00:00:00,2013-12-04 00:00:00,TMP,surface,-106.875,29.7637,293.175
2013-12-04 00:00:00,2013-12-04 00:00:00,TMP,surface,-105.938,29.7637,295.813
2013-12-04 00:00:00,2013-12-04 00:00:00,TMP,surface,-105,29.7637,296.685
2013-12-04 00:00:00,2013-12-04 00:00:00,TMP,surface,-104.063,29.7637,296.752
2013-12-04 00:00:00,2013-12-04 00:00:00,TMP,surface,-103.125,29.7637,297.32
2013-12-04 00:00:00,2013-12-04 00:00:00,TMP,surface,-102.188,29.7637,298.552
2013-12-04 00:00:00,2013-12-04 00:00:00,TMP,surface,-101.25,29.7637,299.335
2013-12-04 00:00:00,2013-12-04 00:00:00,TMP,surface,-100.313,29.7637,299.05
2013-12-04 00:00:00,2013-12-04 00:00:00,TMP,surface,-99.3754,29.7637,298.226
2013-12-04 00:00:00,2013-12-04 00:00:00,TMP,surface,-98.4379,29.7637,298.243
2013-12-04 00:00:00,2013-12-04 00:00:00,TMP,surface,-97.5004,29.7637,299.058
2013-12-04 00:00:00,2013-12-04 00:00:00,TMP,surface,-96.5629,29.7637,299.698
2013-12-04 00:00:00,2013-12-04 00:00:00,TMP,surface,-95.6254,29.7637,299.867
2013-12-04 00:00:00,2013-12-04 00:00:00,TMP,surface,-94.6879,29.7637,300.112
2013-12-04 00:00:00,2013-12-04 00:00:00,TMP,surface,-93.7504,29.7637,300.394
2013-12-04 00:00:00,2013-12-04 00:00:00,TMP,surface,-92.8129,29.7637,299.44
2013-12-04 00:00:00,2013-12-04 00:00:00,TMP,surface,-107.813,30.7085,296.877
2013-12-04 00:00:00,2013-12-04 00:00:00,TMP,surface,-106.875,30.7085,297.786
2013-12-04 00:00:00,2013-12-04 00:00:00,TMP,surface,-105.938,30.7085,297.562
2013-12-04 00:00:00,2013-12-04 00:00:00,TMP,surface,-105,30.7085,297.066
2013-12-04 00:00:00,2013-12-04 00:00:00,TMP,surface,-104.063,30.7085,296.332
2013-12-04 00:00:00,2013-12-04 00:00:00,TMP,surface,-103.125,30.7085,297.989
2013-12-04 00:00:00,2013-12-04 00:00:00,TMP,surface,-102.188,30.7085,299.184
2013-12-04 00:00:00,2013-12-04 00:00:00,TMP,surface,-101.25,30.7085,298.986
2013-12-04 00:00:00,2013-12-04 00:00:00,TMP,surface,-100.313,30.7085,298.202
2013-12-04 00:00:00,2013-12-04 00:00:00,TMP,surface,-99.3754,30.7085,297.62
2013-12-04 00:00:00,2013-12-04 00:00:00,TMP,surface,-98.4379,30.7085,297.767
2013-12-04 00:00:00,2013-12-04 00:00:00,TMP,surface,-97.5004,30.7085,298.552
2013-12-04 00:00:00,2013-12-04 00:00:00,TMP,surface,-96.5629,30.7085,299.05
2013-12-04 00:00:00,2013-12-04 00:00:00,TMP,surface,-95.6254,30.7085,298.866
2013-12-04 00:00:00,2013-12-04 00:00:00,TMP,surface,-94.6879,30.7085,298.522
2013-12-04 00:00:00,2013-12-04 00:00:00,TMP,surface,-93.7504,30.7085,298.226
2013-12-04 00:00:00,2013-12-04 00:00:00,TMP,surface,-92.8129,30.7085,298.013
2013-12-04 00:00:00,2013-12-04 00:00:00,TMP,surface,-107.813,31.6534,298.575
2013-12-04 00:00:00,2013-12-04 00:00:00,TMP,surface,-106.875,31.6534,298.824
2013-12-04 00:00:00,2013-12-04 00:00:00,TMP,surface,-105.938,31.6534,297.834
2013-12-04 00:00:00,2013-12-04 00:00:00,TMP,surface,-105,31.6534,297.21
2013-12-04 00:00:00,2013-12-04 00:00:00,TMP,surface,-104.063,31.6534,297.445
2013-12-04 00:00:00,2013-12-04 00:00:00,TMP,surface,-103.125,31.6534,298.416
2013-12-04 00:00:00,2013-12-04 00:00:00,TMP,surface,-102.188,31.6534,298.828
2013-12-04 00:00:00,2013-12-04 00:00:00,TMP,surface,-101.25,31.6534,298.389
2013-12-04 00:00:00,2013-12-04 00:00:00,TMP,surface,-100.313,31.6534,297.908
2013-12-04 00:00:00,2013-12-04 00:00:00,TMP,surface,-99.3754,31.6534,297.728
2013-12-04 00:00:00,2013-12-04 00:00:00,TMP,surface,-98.4379,31.6534,297.839
2013-12-04 00:00:00,2013-12-04 00:00:00,TMP,surface,-97.5004,31.6534,298.287
2013-12-04 00:00:00,2013-12-04 00:00:00,TMP,surface,-96.5629,31.6534,298.567
2013-12-04 00:00:00,2013-12-04 00:00:00,TMP,surface,-95.6254,31.6534,298.306
2013-12-04 00:00:00,2013-12-04 00:00:00,TMP,surface,-94.6879,31.6534,297.845
2013-12-04 00:00:00,2013-12-04 00:00:00,TMP,surface,-93.7504,31.6534,297.439
2013-12-04 00:00:00,2013-12-04 00:00:00,TMP,surface,-92.8129,31.6534,297.21
2013-12-04 00:00:00,2013-12-04 00:00:00,TMP,surface,-107.813,32.5983,295.949
2013-12-04 00:00:00,2013-12-04 00:00:00,TMP,surface,-106.875,32.5983,296.333
2013-12-04 00:00:00,2013-12-04 00:00:00,TMP,surface,-105.938,32.5983,296.397
2013-12-04 00:00:00,2013-12-04 00:00:00,TMP,surface,-105,32.5983,296.64
2013-12-04 00:00:00,2013-12-04 00:00:00,TMP,surface,-104.063,32.5983,297.437
2013-12-04 00:00:00,2013-12-04 00:00:00,TMP,surface,-103.125,32.5983,298.055
2013-12-04 00:00:00,2013-12-04 00:00:00,TMP,surface,-102.188,32.5983,297.725
2013-12-04 00:00:00,2013-12-04 00:00:00,TMP,surface,-101.25,32.5983,297.475
2013-12-04 00:00:00,2013-12-04 00:00:00,TMP,surface,-100.313,32.5983,297.879
2013-12-04 00:00:00,2013-12-04 00:00:00,TMP,surface,-99.3754,32.5983,298.45
2013-12-04 00:00:00,2013-12-04 00:00:00,TMP,surface,-98.4379,32.5983,298.458
2013-12-04 00:00:00,2013-12-04 00:00:00,TMP,surface,-97.5004,32.5983,298.287
2013-12-04 00:00:00,2013-12-04 00:00:00,TMP,surface,-96.5629,32.5983,298.261
2013-12-04 00:00:00,2013-12-04 00:00:00,TMP,surface,-95.6254,32.5983,298.055
2013-12-04 00:00:00,2013-12-04 00:00:00,TMP,surface,-94.6879,32.5983,297.447
2013-12-04 00:00:00,2013-12-04 00:00:00,TMP,surface,-93.7504,32.5983,296.693
2013-12-04 00:00:00,2013-12-04 00:00:00,TMP,surface,-92.8129,32.5983,296.46
2013-12-04 00:00:00,2013-12-04 00:00:00,TMP,surface,-107.813,33.5432,292.332
2013-12-04 00:00:00,2013-12-04 00:00:00,TMP,surface,-106.875,33.5432,293.9
2013-12-04 00:00:00,2013-12-04 00:00:00,TMP,surface,-105.938,33.5432,294.856
2013-12-04 00:00:00,2013-12-04 00:00:00,TMP,surface,-105,33.5432,296.091
2013-12-04 00:00:00,2013-12-04 00:00:00,TMP,surface,-104.063,33.5432,297.341
2013-12-04 00:00:00,2013-12-04 00:00:00,TMP,surface,-103.125,33.5432,297.404
2013-12-04 00:00:00,2013-12-04 00:00:00,TMP,surface,-102.188,33.5432,296.767
2013-12-04 00:00:00,2013-12-04 00:00:00,TMP,surface,-101.25,33.5432,296.74
2013-12-04 00:00:00,2013-12-04 00:00:00,TMP,surface,-100.313,33.5432,297.615
2013-12-04 00:00:00,2013-12-04 00:00:00,TMP,surface,-99.3754,33.5432,298.594
2013-12-04 00:00:00,2013-12-04 00:00:00,TMP,surface,-98.4379,33.5432,298.64
2013-12-04 00:00:00,2013-12-04 00:00:00,TMP,surface,-97.5004,33.5432,298.101
2013-12-04 00:00:00,2013-12-04 00:00:00,TMP,surface,-96.5629,33.5432,297.855
2013-12-04 00:00:00,2013-12-04 00:00:00,TMP,surface,-95.6254,33.5432,297.575
2013-12-04 00:00:00,2013-12-04 00:00:00,TMP,surface,-94.6879,33.5432,296.698
2013-12-04 00:00:00,2013-12-04 00:00:00,TMP,surface,-93.7504,33.5432,295.892
2013-12-04 00:00:00,2013-12-04 00:00:00,TMP,surface,-92.8129,33.5432,295.485
2013-12-04 00:00:00,2013-12-04 00:00:00,TMP,surface,-107.813,34.4881,291.301
2013-12-04 00:00:00,2013-12-04 00:00:00,TMP,surface,-106.875,34.4881,293.116
2013-12-04 00:00:00,2013-12-04 00:00:00,TMP,surface,-105.938,34.4881,294.002
2013-12-04 00:00:00,2013-12-04 00:00:00,TMP,surface,-105,34.4881,295.482
2013-12-04 00:00:00,2013-12-04 00:00:00,TMP,surface,-104.063,34.4881,296.491
2013-12-04 00:00:00,2013-12-04 00:00:00,TMP,surface,-103.125,34.4881,296.836
2013-12-04 00:00:00,2013-12-04 00:00:00,TMP,surface,-102.188,34.4881,296.576
2013-12-04 00:00:00,2013-12-04 00:00:00,TMP,surface,-101.25,34.4881,296.202
2013-12-04 00:00:00,2013-12-04 00:00:00,TMP,surface,-100.313,34.4881,296.906
2013-12-04 00:00:00,2013-12-04 00:00:00,TMP,surface,-99.3754,34.4881,297.672
2013-12-04 00:00:00,2013-12-04 00:00:00,TMP,surface,-98.4379,34.4881,297.859
2013-12-04 00:00:00,2013-12-04 00:00:00,TMP,surface,-97.5004,34.4881,297.423
2013-12-04 00:00:00,2013-12-04 00:00:00,TMP,surface,-96.5629,34.4881,296.821
2013-12-04 00:00:00,2013-12-04 00:00:00,TMP,surface,-95.6254,34.4881,296.176
2013-12-04 00:00:00,2013-12-04 00:00:00,TMP,surface,-94.6879,34.4881,295.154
2013-12-04 00:00:00,2013-12-04 00:00:00,TMP,surface,-93.7504,34.4881,294.274
2013-12-04 00:00:00,2013-12-04 00:00:00,TMP,surface,-92.8129,34.4881,294.2
2013-12-04 00:00:00,2013-12-04 00:00:00,TMP,surface,-107.813,35.4329,291.93
2013-12-04 00:00:00,2013-12-04 00:00:00,TMP,surface,-106.875,35.4329,292.288
2013-12-04 00:00:00,2013-12-04 00:00:00,TMP,surface,-105.938,35.4329,292.618
2013-12-04 00:00:00,2013-12-04 00:00:00,TMP,surface,-105,35.4329,293.378
2013-12-04 00:00:00,2013-12-04 00:00:00,TMP,surface,-104.063,35.4329,295.004
2013-12-04 00:00:00,2013-12-04 00:00:00,TMP,surface,-103.125,35.4329,295.994
2013-12-04 00:00:00,2013-12-04 00:00:00,TMP,surface,-102.188,35.4329,296.167
2013-12-04 00:00:00,2013-12-04 00:00:00,TMP,surface,-101.25,35.4329,296.109
2013-12-04 00:00:00,2013-12-04 00:00:00,TMP,surface,-100.313,35.4329,296.164
2013-12-04 00:00:00,2013-12-04 00:00:00,TMP,surface,-99.3754,35.4329,296.373
2013-12-04 00:00:00,2013-12-04 00:00:00,TMP,surface,-98.4379,35.4329,296.421
2013-12-04 00:00:00,2013-12-04 00:00:00,TMP,surface,-97.5004,35.4329,296.258
2013-12-04 00:00:00,2013-12-04 00:00:00,TMP,surface,-96.5629,35.4329,295.979
2013-12-04 00:00:00,2013-12-04 00:00:00,TMP,surface,-95.6254,35.4329,295.355
2013-12-04 00:00:00,2013-12-04 00:00:00,TMP,surface,-94.6879,35.4329,294.296
2013-12-04 00:00:00,2013-12-04 00:00:00,TMP,surface,-93.7504,35.4329,293.282
2013-12-04 00:00:00,2013-12-04 00:00:00,TMP,surface,-92.8129,35.4329,292.591
2013-12-04 00:00:00,2013-12-04 00:00:00,TMP,surface,-107.813,36.3778,291.479
2013-12-04 00:00:00,2013-12-04 00:00:00,TMP,surface,-106.875,36.3778,289.315
2013-12-04 00:00:00,2013-12-04 00:00:00,TMP,surface,-105.938,36.3778,290.186
2013-12-04 00:00:00,2013-12-04 00:00:00,TMP,surface,-105,36.3778,290.84
2013-12-04 00:00:00,2013-12-04 00:00:00,TMP,surface,-104.063,36.3778,292.69
2013-12-04 00:00:00,2013-12-04 00:00:00,TMP,surface,-103.125,36.3778,294.586
2013-12-04 00:00:00,2013-12-04 00:00:00,TMP,surface,-102.188,36.3778,295.57
2013-12-04 00:00:00,2013-12-04 00:00:00,TMP,surface,-101.25,36.3778,295.844
2013-12-04 00:00:00,2013-12-04 00:00:00,TMP,surface,-100.313,36.3778,295.848
2013-12-04 00:00:00,2013-12-04 00:00:00,TMP,surface,-99.3754,36.3778,295.703
2013-12-04 00:00:00,2013-12-04 00:00:00,TMP,surface,-98.4379,36.3778,295.525
2013-12-04 00:00:00,2013-12-04 00:00:00,TMP,surface,-97.5004,36.3778,295.288
2013-12-04 00:00:00,2013-12-04 00:00:00,TMP,surface,-96.5629,36.3778,294.964
2013-12-04 00:00:00,2013-12-04 00:00:00,TMP,surface,-95.6254,36.3778,294.429
2013-12-04 00:00:00,2013-12-04 00:00:00,TMP,surface,-94.6879,36.3778,293.464
2013-12-04 00:00:00,2013-12-04 00:00:00,TMP,surface,-93.7504,36.3778,292.284
2013-12-04 00:00:00,2013-12-04 00:00:00,TMP,surface,-92.8129,36.3778,291.48
2013-12-04 00:00:00,2013-12-04 00:00:00,PRATE,surface,-107.813,25.0393,1.54e-05
2013-12-04 00:00:00,2013-12-04 00:00:00,PRATE,surface,-106.875,25.0393,9.07e-05
2013-12-04 00:00:00,2013-12-04 00:00:00,PRATE,surface,-105.938,25.0393,5.93e-05
2013-12-04 00:00:00,2013-12-04 00:00:00,PRATE,surface,-105,25.0393,4.45e-05
2013-12-04 00:00:00,2013-12-04 00:00:00,PRATE,surface,-104.063,25.0393,3.49e-05
2013-12-04 00:00:00,2013-12-04 00:00:00,PRATE,surface,-103.125,25.0393,3.32e-05
2013-12-04 00:00:00,2013-12-04 00:00:00,PRATE,surface,-102.188,25.0393,1.92e-05
2013-12-04 00:00:00,2013-12-04 00:00:00,PRATE,surface,-101.25,25.0393,1.89e-05
2013-12-04 00:00:00,2013-12-04 00:00:00,PRATE,surface,-100.313,25.0393,1.27e-05
2013-12-04 00:00:00,2013-12-04 00:00:00,PRATE,surface,-99.3754,25.0393,8.2e-06
2013-12-04 00:00:00,2013-12-04 00:00:00,PRATE,surface,-98.4379,25.0393,9.3e-06
2013-12-04 00:00:00,2013-12-04 00:00:00,PRATE,surface,-97.5004,25.0393,2.27e-05
2013-12-04 00:00:00,2013-12-04 00:00:00,PRATE,surface,-96.5629,25.0393,2.31e-05
2013-12-04 00:00:00,2013-12-04 00:00:00,PRATE,surface,-95.6254,25.0393,2.57e-05
2013-12-04 00:00:00,2013-12-04 00:00:00,PRATE,surface,-94.6879,25.0393,1.71e-05
2013-12-04 00:00:00,2013-12-04 00:00:00,PRATE,surface,-93.7504,25.0393,3.42e-05
2013-12-04 00:00:00,2013-12-04 00:00:00,PRATE,surface,-92.8129,25.0393,4.75e-05
2013-12-04 00:00:00,2013-12-04 00:00:00,PRATE,surface,-107.813,25.9842,5.22e-05
2013-12-04 00:00:00,2013-12-04 00:00:00,PRATE,surface,-106.875,25.9842,5.72e-05
2013-12-04 00:00:00,2013-12-04 00:00:00,PRATE,surface,-105.938,25.9842,2.61e-05
2013-12-04 00:00:00,2013-12-04 00:00:00,PRATE,surface,-105,25.9842,1.12e-05
2013-12-04 00:00:00,2013-12-04 00:00:00,PRATE,surface,-104.063,25.9842,1.23e-05
2013-12-04 00:00:00,2013-12-04 00:00:00,PRATE,surface,-103.125,25.9842,1.88e-05
2013-12-04 00:00:00,2013-12-04 00:00:00,PRATE,surface,-102.188,25.9842,2.18e-05
2013-12-04 00:00:00,2013-12-04 00:00:00,PRATE,surface,-101.25,25.9842,1.24e-05
2013-12-04 00:00:00,2013-12-04 00:00:00,PRATE,surface,-100.313,25.9842,2e-06
2013-12-04 00:00:00,2013-12-04 00:00:00,PRATE,surface,-99.3754,25.9842,8e-07
2013-12-04 00:00:00,2013-12-04 00:00:00,PRATE,surface,-98.4379,25.9842,6.6e-06
2013-12-04 00:00:00,2013-12-04 00:00:00,PRATE,surface,-97.5004,25.9842,1.47e-05
2013-12-04 00:00:00,2013-12-04 00:00:00,PRATE,surface,-96.5629,25.9842,2.67e-05
2013-12-04 00:00:00,2013-12-04 00:00:00,PRATE,surface,-95.6254,25.9842,3.03e-05
2013-12-04 00:00:00,2013-12-04 00:00:00,PRATE,surface,-94.6879,25.9842,2.19e-05
2013-12-04 00:00:00,2013-12-04 00:00:00,PRATE,surface,-93.7504,25.9842,2.36e-05
2013-12-04 00:00:00,2013-12-04 00:00:00,PRATE,surface,-92.8129,25.9842,1.89e-05
2013-12-04 00:00:00,2013-12-04 00:00:00,PRATE,surface,-107.813,26.929,5.73e-05
2013-12-04 00:00:00,2013-12-04 00:00:00,PRATE,surface,-106.875,26.929,1.99e-05
2013-12-04 00:00:00,2013-12-04 00:00:00,PRATE,surface,-105.938,26.929,6.4e-06
2013-12-04 00:00:00,2013-12-04 00:00:00,PRATE,surface,-105,26.929,3.5e-06
2013-12-04 00:00:00,2013-12-04 00:00:00,PRATE,surface,-104.063,26.929,9.4e-06
2013-12-04 00:00:00,2013-12-04 00:00:00,PRATE,surface,-103.125,26.929,1.71e-05
2013-12-04 00:00:00,2013-12-04 00:00:00,PRATE,surface,-102.188,26.929,1.74e-05
2013-12-04 00:00:00,2013-12-04 00:00:00,PRATE,surface,-101.25,26.929,9.2e-06
2013-12-04 00:00:00,2013-12-04 00:00:00,PRATE,surface,-100.313,26.929,9e-07
2013-12-04 00:00:00,2013-12-04 00:00:00,PRATE,surface,-99.3754,26.929,8e-07
2013-12-04 00:00:00,2013-12-04 00:00:00,PRATE,surface,-98.4379,26.929,8.2e-06
2013-12-04 00:00:00,2013-12-04 00:00:00,PRATE,surface,-97.5004,26.929,1.12e-05
2013-12-04 00:00:00,2013-12-04 00:00:00,PRATE,surface,-96.5629,26.929,1.16e-05
2013-12-04 00:00:00,2013-12-04 00:00:00,PRATE,surface,-95.6254,26.929,1.33e-05
2013-12-04 00:00:00,2013-12-04 00:00:00,PRATE,surface,-94.6879,26.929,9e-06
2013-12-04 00:00:00,2013-12-04 00:00:00,PRATE,surface,-93.7504,26.929,1.22e-05
2013-12-04 00:00:00,2013-12-04 00:00:00,PRATE,surface,-92.8129,26.929,7.5e-06
2013-12-04 00:00:00,2013-12-04 00:00:00,PRATE,surface,-107.813,27.8739,3.94e-05
2013-12-04 00:00:00,2013-12-04 00:00:00,PRATE,surface,-106.875,27.8739,8.2e-06
2013-12-04 00:00:00,2013-12-04 00:00:00,PRATE,surface,-105.938,27.8739,6e-07
2013-12-04 00:00:00,2013-12-04 00:00:00,PRATE,surface,-105,27.8739,1.6e-06
2013-12-04 00:00:00,2013-12-04 00:00:00,PRATE,surface,-104.063,27.8739,7.8e-06
2013-12-04 00:00:00,2013-12-04 00:00:00,PRATE,surface,-103.125,27.8739,1.07e-05
2013-12-04 00:00:00,2013-12-04 00:00:00,PRATE,surface,-102.188,27.8739,7.3e-06
2013-12-04 00:00:00,2013-12-04 00:00:00,PRATE,surface,-101.25,27.8739,2e-06
2013-12-04 00:00:00,2013-12-04 00:00:00,PRATE,surface,-100.313,27.8739,2e-07
2013-12-04 00:00:00,2013-12-04 00:00:00,PRATE,surface,-99.3754,27.8739,2.5e-06
2013-12-04 00:00:00,2013-12-04 00:00:00,PRATE,surface,-98.4379,27.8739,6.4e-06
2013-12-04 00:00:00,2013-12-04 00:00:00,PRATE,surface,-97.5004,27.8739,9.2e-06
2013-12-04 00:00:00,2013-12-04 00:00:00,PRATE,surface,-96.5629,27.8739,7.8e-06
2013-12-04 00:00:00,2013-12-04 00:00:00,PRATE,surface,-95.6254,27.8739,4.7e-06
2013-12-04 00:00:00,2013-12-04 00:00:00,PRATE,surface,-94.6879,27.8739,3.5e-06
2013-12-04 00:00:00,2013-12-04 00:00:00,PRATE,surface,-93.7504,27.8739,2.8e-06
2013-12-04 00:00:00,2013-12-04 00:00:00,PRATE,surface,-92.8129,27.8739,9e-06
2013-12-04 00:00:00,2013-12-04 00:00:00,PRATE,surface,-107.813,28.8188,2.62e-05
2013-12-04 00:00:00,2013-12-04 00:00:00,PRATE,surface,-106.875,28.8188,9.2e-06
2013-12-04 00:00:00,2013-12-04 00:00:00,PRATE,surface,-105.938,28.8188,1e-06
2013-12-04 00:00:00,2013-12-04 00:00:00,PRATE,surface,-105,28.8188,1.9e-06
2013-12-04 00:00:00,2013-12-04 00:00:00,PRATE,surface,-104.063,28.8188,1.3e-06
2013-12-04 00:00:00,2013-12-04 00:00:00,PRATE,surface,-103.125,28.8188,4.4e-06
2013-12-04 00:00:00,2013-12-04 00:00:00,PRATE,surface,-102.188,28.8188,3.2e-06
2013-12-04 00:00:00,2013-12-04 00:00:00,PRATE,surface,-101.25,28.8188,7e-07
2013-12-04 00:00:00,2013-12-04 00:00:00,PRATE,surface,-100.313,28.8188,1.6e-06
2013-12-04 00:00:00,2013-12-04 00:00:00,PRATE,surface,-99.3754,28.8188,6.9e-06
2013-12-04 00:00:00,2013-12-04 00:00:00,PRATE,surface,-98.4379,28.8188,9.5e-06
2013-12-04 00:00:00,2013-12-04 00:00:00,PRATE,surface,-97.5004,28.8188,7.4e-06
2013-12-04 00:00:00,2013-12-04 00:00:00,PRATE,surface,-96.5629,28.8188,3.6e-06
2013-12-04 00:00:00,2013-12-04 00:00:00,PRATE,surface,-95.6254,28.8188,1e-06
2013-12-04 00:00:00,2013-12-04 00:00:00,PRATE,surface,-94.6879,28.8188,1.1e-06
2013-12-04 00:00:00,2013-12-04 00:00:00,PRATE,surface,-93.7504,28.8188,3.2e-06
2013-12-04 00:00:00,2013-12-04 00:00:00,PRATE,surface,-92.8129,28.8188,7.7e-06
2013-12-04 00:00:00,2013-12-04 00:00:00,PRATE,surface,-107.813,29.7637,1e-05
2013-12-04 00:00:00,2013-12-04 00:00:00,PRATE,surface,-106.875,29.7637,5.7e-06
2013-12-04 00:00:00,2013-12-04 00:00:00,PRATE,surface,-105.938,29.7637,1.3e-06
2013-12-04 00:00:00,2013-12-04 00:00:00,PRATE,surface,-105,29.7637,1.1e-06
2013-12-04 00:00:00,2013-12-04 00:00:00,PRATE,surface,-104.063,29.7637,1.3e-06
2013-12-04 00:00:00,2013-12-04 00:00:00,PRATE,surface,-103.125,29.7637,1.3e-06
2013-12-04 00:00:00,2013-12-04 00:00:00,PRATE,surface,-102.188,29.7637,1e-06
2013-12-04 00:00:00,2013-12-04 00:00:00,PRATE,surface,-101.25,29.7637,1.1e-06
2013-12-04 00:00:00,2013-12-04 00:00:00,PRATE,surface,-100.313,29.7637,3.7e-06
2013-12-04 00:00:00,2013-12-04 00:00:00,PRATE,surface,-99.3754,29.7637,1.05e-05
2013-12-04 00:00:00,2013-12-04 00:00:00,PRATE,surface,-98.4379,29.7637,1.27e-05
2013-12-04 00:00:00,2013-12-04 00:00:00,PRATE,surface,-97.5004,29.7637,9.1e-06
2013-12-04 00:00:00,2013-12-04 00:00:00,PRATE,surface,-96.5629,29.7637,5.3e-06
2013-12-04 00:00:00,2013-12-04 00:00:00,PRATE,surface,-95.6254,29.7637,4.5e-06
2013-12-04 00:00:00,2013-12-04 00:00:00,PRATE,surface,-94.6879,29.7637,5.2e-06
2013-12-04 00:00:00,2013-12-04 00:00:00,PRATE,surface,-93.7504,29.7637,4.3e-06
2013-12-04 00:00:00,2013-12-04 00:00:00,PRATE,surface,-92.8129,29.7637,1.2e-06
2013-12-04 00:00:00,2013-12-04 00:00:00,PRATE,surface,-107.813,30.7085,2e-07
2013-12-04 00:00:00,2013-12-04 00:00:00,PRATE,surface,-106.875,30.7085,6e-07
2013-12-04 00:00:00,2013-12-04 00:00:00,PRATE,surface,-105.938,30.7085,5e-07
2013-12-04 00:00:00,2013-12-04 00:00:00,PRATE,surface,-105,30.7085,6e-07
2013-12-04 00:00:00,2013-12-04 00:00:00,PRATE,surface,-104.063,30.7085,1.7e-06
2013-12-04 00:00:00,2013-12-04 00:00:00,PRATE,surface,-103.125,30.7085,1.1e-06
2013-12-04 00:00:00,2013-12-04 00:00:00,PRATE,surface,-102.188,30.7085,1e-06
2013-12-04 00:00:00,2013-12-04 00:00:00,PRATE,surface,-101.25,30.7085,3.4e-06
2013-12-04 00:00:00,2013-12-04 00:00:00,PRATE,surface,-100.313,30.7085,7.5e-06
2013-12-04 00:00:00,2013-12-04 00:00:00,PRATE,surface,-99.3754,30.7085,1.27e-05
2013-12-04 00:00:00,2013-12-04 00:00:00,PRATE,surface,-98.4379,30.7085,1.16e-05
2013-12-04 00:00:00,2013-12-04 00:00:00,PRATE,surface,-97.5004,30.7085,8.3e-06
2013-12-04 00:00:00,2013-12-04 00:00:00,PRATE,surface,-96.5629,30.7085,6.6e-06
2013-12-04 00:00:00,2013-12-04 00:00:00,PRATE,surface,-95.6254,30.7085,4.6e-06
2013-12-04 00:00:00,2013-12-04 00:00:00,PRATE,surface,-94.6879,30.7085,3e-06
2013-12-04 00:00:00,2013-12-04 00:00:00,PRATE,surface,-93.7504,30.7085,1.4e-06
2013-12-04 00:00:00,2013-12-04 00:00:00,PRATE,surface,-92.8129,30.7085,7e-07
2013-12-04 00:00:00,2013-12-04 00:00:00,PRATE,surface,-107.813,31.6534,0
2013-12-04 00:00:00,2013-12-04 00:00:00,PRATE,surface,-106.875,31.6534,0
2013-12-04 00:00:00,2013-12-04 00:00:00,PRATE,surface,-105.938,31.6534,2e-07
2013-12-04 00:00:00,2013-12-04 00:00:00,PRATE,surface,-105,31.6534,8e-07
2013-12-04 00:00:00,2013-12-04 00:00:00,PRATE,surface,-104.063,31.6534,3.6e-06
2013-12-04 00:00:00,2013-12-04 00:00:00,PRATE,surface,-103.125,31.6534,2.3e-06
2013-12-04 00:00:00,2013-12-04 00:00:00,PRATE,surface,-102.188,31.6534,2.9e-06
2013-12-04 00:00:00,2013-12-04 00:00:00,PRATE,surface,-101.25,31.6534,4.5e-06
2013-12-04 00:00:00,2013-12-04 00:00:00,PRATE,surface,-100.313,31.6534,9.8e-06
2013-12-04 00:00:00,2013-12-04 00:00:00,PRATE,surface,-99.3754,31.6534,1.35e-05
2013-12-04 00:00:00,2013-12-04 00:00:00,PRATE,surface,-98.4379,31.6534,1.7e-05
2013-12-04 00:00:00,2013-12-04 00:00:00,PRATE,surface,-97.5004,31.6534,1.33e-05
2013-12-04 00:00:00,2013-12-04 00:00:00,PRATE,surface,-96.5629,31.6534,5.9e-06
2013-12-04 00:00:00,2013-12-04 00:00:00,PRATE,surface,-95.6254,31.6534,5.1e-06
2013-12-04 00:00:00,2013-12-04 00:00:00,PRATE,surface,-94.6879,31.6534,6.2e-06
2013-12-04 00:00:00,2013-12-04 00:00:00,PRATE,surface,-93.7504,31.6534,3.1e-06
2013-12-04 00:00:00,2013-12-04 00:00:00,PRATE,surface,-92.8129,31.6534,2.1e-06
2013-12-04 00:00:00,2013-12-04 00:00:00,PRATE,surface,-107.813,32.5983,1.1e-06
2013-12-04 00:00:00,2013-12-04 00:00:00,PRATE,surface,-106.875,32.5983,4e-07
2013-12-04 00:00:00,2013-12-04 00:00:00,PRATE,surface,-105.938,32.5983,8e-07
2013-12-04 00:00:00,2013-12-04 00:00:00,PRATE,surface,-105,32.5983,4e-07
2013-12-04 00:00:00,2013-12-04 00:00:00,PRATE,surface,-104.063,32.5983,2e-06
2013-12-04 00:00:00,2013-12-04 00:00:00,PRATE,surface,-103.125,32.5983,2.6e-06
2013-12-04 00:00:00,2013-12-04 00:00:00,PRATE,surface,-102.188,32.5983,4.6e-06
2013-12-04 00:00:00,2013-12-04 00:00:00,PRATE,surface,-101.25,32.5983,1.01e-05
2013-12-04 00:00:00,2013-12-04 00:00:00,PRATE,surface,-100.313,32.5983,1.1e-05
2013-12-04 00:00:00,2013-12-04 00:00:00,PRATE,surface,-99.3754,32.5983,1.08e-05
2013-12-04 00:00:00,2013-12-04 00:00:00,PRATE,surface,-98.4379,32.5983,1.38e-05
2013-12-04 00:00:00,2013-12-04 00:00:00,PRATE,surface,-97.5004,32.5983,1.23e-05
2013-12-04 00:00:00,2013-12-04 00:00:00,PRATE,surface,-96.5629,32.5983,7.4e-06
2013-12-04 00:00:00,2013-12-04 00:00:00,PRATE,surface,-95.6254,32.5983,5.3e-06
2013-12-04 00:00:00,2013-12-04 00:00:00,PRATE,surface,-94.6879,32.5983,4.7e-06
2013-12-04 00:00:00,2013-12-04 00:00:00,PRATE,surface,-93.7504,32.5983,7.3e-06
2013-12-04 00:00:00,2013-12-04 00:00:00,PRATE,surface,-92.8129,32.5983,1.05e-05
2013-12-04 00:00:00,2013-12-04 00:00:00,PRATE,surface,-107.813,33.5432,1.6e-05
2013-12-04 00:00:00,2013-12-04 00:00:00,PRATE,surface,-106.875,33.5432,9.5e-06
2013-12-04 00:00:00,2013-12-04 00:00:00,PRATE,surface,-105.938,33.5432,3.5e-06
2013-12-04 00:00:00,2013-12-04 00:00:00,PRATE,surface,-105,33.5432,1e-07
2013-12-04 00:00:00,2013-12-04 00:00:00,PRATE,surface,-104.063,33.5432,1.7e-06
2013-12-04 00:00:00,2013-12-04 00:00:00,PRATE,surface,-103.125,33.5432,1.4e-06
2013-12-04 00:00:00,2013-12-04 00:00:00,PRATE,surface,-102.188,33.5432,4.6e-06
2013-12-04 00:00:00,2013-12-04 00:00:00,PRATE,surface,-101.25,33.5432,5.8e-06
2013-12-04 00:00:00,2013-12-04 00:00:00,PRATE,surface,-100.313,33.5432,6.1e-06
2013-12-04 00:00:00,2013-12-04 00:00:00,PRATE,surface,-99.3754,33.5432,7.8e-06
2013-12-04 00:00:00,2013-12-04 00:00:00,PRATE,surface,-98.4379,33.5432,1.06e-05
2013-12-04 00:00:00,2013-12-04 00:00:00,PRATE,surface,-97.5004,33.5432,1.12e-05
2013-12-04 00:00:00,2013-12-04 00:00:00,PRATE,surface,-96.5629,33.5432,8.7e-06
2013-12-04 00:00:00,2013-12-04 00:00:00,PRATE,surface,-95.6254,33.5432,6e-06
2013-12-04 00:00:00,2013-12-04 00:00:00,PRATE,surface,-94.6879,33.5432,6.7e-06
2013-12-04 00:00:00,2013-12-04 00:00:00,PRATE,surface,-93.7504,33.5432,1.07e-05
2013-12-04 00:00:00,2013-12-04 00:00:00,PRATE,surface,-92.8129,33.5432,9.5e-06
2013-12-04 00:00:00,2013-12-04 00:00:00,PRATE,surface,-107.813,34.4881,1.56e-05
2013-12-04 00:00:00,2013-12-04 00:00:00,PRATE,surface,-106.875,34.4881,6.1e-06
2013-12-04 00:00:00,2013-12-04 00:00:00,PRATE,surface,-105.938,34.4881,4.8e-06
2013-12-04 00:00:00,2013-12-04 00:00:00,PRATE,surface,-105,34.4881,5.3e-06
2013-12-04 00:00:00,2013-12-04 00:00:00,PRATE,surface,-104.063,34.4881,9.3e-06
2013-12-04 00:00:00,2013-12-04 00:00:00,PRATE,surface,-103.125,34.4881,5.3e-06
2013-12-04 00:00:00,2013-12-04 00:00:00,PRATE,surface,-102.188,34.4881,5.9e-06
2013-12-04 00:00:00,2013-12-04 00:00:00,PRATE,surface,-101.25,34.4881,1e-05
2013-12-04 00:00:00,2013-12-04 00:00:00,PRATE,surface,-100.313,34.4881,7.5e-06
2013-12-04 00:00:00,2013-12-04 00:00:00,PRATE,surface,-99.3754,34.4881,6e-06
2013-12-04 00:00:00,2013-12-04 00:00:00,PRATE,surface,-98.4379,34.4881,5.2e-06
2013-12-04 00:00:00,2013-12-04 00:00:00,PRATE,surface,-97.5004,34.4881,6.3e-06
2013-12-04 00:00:00,2013-12-04 00:00:00,PRATE,surface,-96.5629,34.4881,8.8e-06
2013-12-04 00:00:00,2013-12-04 00:00:00,PRATE,surface,-95.6254,34.4881,1.19e-05
2013-12-04 00:00:00,2013-12-04 00:00:00,PRATE,surface,-94.6879,34.4881,1.46e-05
2013-12-04 00:00:00,2013-12-04 00:00:00,PRATE,surface,-93.7504,34.4881,1.11e-05
2013-12-04 00:00:00,2013-12-04 00:00:00,PRATE,surface,-92.8129,34.4881,6.5e-06
2013-12-04 00:00:00,2013-12-04 00:00:00,PRATE,surface,-107.813,35.4329,4.8e-06
2013-12-04 00:00:00,2013-12-04 00:00:00,PRATE,surface,-106.875,35.4329,2.9e-06
2013-12-04 00:00:00,2013-12-04 00:00:00,PRATE,surface,-105.938,35.4329,3.9e-06
2013-12-04 00:00:00,2013-12-04 00:00:00,PRATE,surface,-105,35.4329,1.04e-05
2013-12-04 00:00:00,2013-12-04 00:00:00,PRATE,surface,-104.063,35.4329,1.72e-05
2013-12-04 00:00:00,2013-12-04 00:00:00,PRATE,surface,-103.125,35.4329,1.32e-05
2013-12-04 00:00:00,2013-12-04 00:00:00,PRATE,surface,-102.188,35.4329,9.1e-06
2013-12-04 00:00:00,2013-12-04 00:00:00,PRATE,surface,-101.25,35.4329,8e-06
2013-12-04 00:00:00,2013-12-04 00:00:00,PRATE,surface,-100.313,35.4329,7.4e-06
2013-12-04 00:00:00,2013-12-04 00:00:00,PRATE,surface,-99.3754,35.4329,7.4e-06
2013-12-04 00:00:00,2013-12-04 00:00:00,PRATE,surface,-98.4379,35.4329,8.2e-06
2013-12-04 00:00:00,2013-12-04 00:00:00,PRATE,surface,-97.5004,35.4329,7.6e-06
2013-12-04 00:00:00,2013-12-04 00:00:00,PRATE,surface,-96.5629,35.4329,9.6e-06
2013-12-04 00:00:00,2013-12-04 00:00:00,PRATE,surface,-95.6254,35.4329,1.59e-05
2013-12-04 00:00:00,2013-12-04 00:00:00,PRATE,surface,-94.6879,35.4329,1.89e-05
2013-12-04 00:00:00,2013-12-04 00:00:00,PRATE,surface,-93.7504,35.4329,1.46e-05
2013-12-04 00:00:00,2013-12-04 00:00:00,PRATE,surface,-92.8129,35.4329,7.6e-06
2013-12-04 00:00:00,2013-12-04 00:00:00,PRATE,surface,-107.813,36.3778,2.6e-06
2013-12-04 00:00:00,2013-12-04 00:00:00,PRATE,surface,-106.875,36.3778,3.9e-06
2013-12-04 00:00:00,2013-12-04 00:00:00,PRATE,surface,-105.938,36.3778,5.8e-06
2013-12-04 00:00:00,2013-12-04 00:00:00,PRATE,surface,-105,36.3778,1.81e-05
2013-12-04 00:00:00,2013-12-04 00:00:00,PRATE,surface,-104.063,36.3778,2.72e-05
2013-12-04 00:00:00,2013-12-04 00:00:00,PRATE,surface,-103.125,36.3778,1.63e-05
2013-12-04 00:00:00,2013-12-04 00:00:00,PRATE,surface,-102.188,36.3778,1.24e-05
2013-12-04 00:00:00,2013-12-04 00:00:00,PRATE,surface,-101.25,36.3778,9.9e-06
2013-12-04 00:00:00,2013-12-04 00:00:00,PRATE,surface,-100.313,36.3778,7.5e-06
2013-12-04 00:00:00,2013-12-04 00:00:00,PRATE,surface,-99.3754,36.3778,6.6e-06
2013-12-04 00:00:00,2013-12-04 00:00:00,PRATE,surface,-98.4379,36.3778,5.6e-06
2013-12-04 00:00:00,2013-12-04 00:00:00,PRATE,surface,-97.5004,36.3778,5.6e-06
2013-12-04 00:00:00,2013-12-04 00:00:00,PRATE,surface,-96.5629,36.3778,6.8e-06
2013-12-04 00:00:00,2013-12-04 00:00:00,PRATE,surface,-95.6254,36.3778,8.6e-06
2013-12-04 00:00:00,2013-12-04 00:00:00,PRATE,surface,-94.6879,36.3778,9.5e-06
2013-12-04 00:00:00,2013-12-04 00:00:00,PRATE,surface,-93.7504,36.3778,6.6e-06
2013-12-04 00:00:00,2013-12-04 00:00:00,PRATE,surface,-92.8129,36.3778,7e-06
