2015-12-03 00:00:00,2015-12-03 00:00:00,TMP,surface,-107.813,25.0393,291.97
2015-12-03 00:00:00,2015-12-03 00:00:00,TMP,surface,-106.875,25.0393,285.839
2015-12-03 00:00:00,2015-12-03 00:00:00,TMP,surface,-105.938,25.0393,280.887
2015-12-03 00:00:00,2015-12-03 00:00:00,TMP,surface,-105,25.0393,281.059
2015-12-03 00:00:00,2015-12-03 00:00:00,TMP,surface,-104.063,25.0393,285.479
2015-12-03 00:00:00,2015-12-03 00:00:00,TMP,surface,-103.125,25.0393,286.895
2015-12-03 00:00:00,2015-12-03 00:00:00,TMP,surface,-102.188,25.0393,286.108
2015-12-03 00:00:00,2015-12-03 00:00:00,TMP,surface,-101.25,25.0393,284.687
2015-12-03 00:00:00,2015-12-03 00:00:00,TMP,surface,-100.313,25.0393,285.201
2015-12-03 00:00:00,2015-12-03 00:00:00,TMP,surface,-99.3754,25.0393,287.433
2015-12-03 00:00:00,2015-12-03 00:00:00,TMP,surface,-98.4379,25.0393,289.921
2015-12-03 00:00:00,2015-12-03 00:00:00,TMP,surface,-97.5004,25.0393,293.209
2015-12-03 00:00:00,2015-12-03 00:00:00,TMP,surface,-96.5629,25.0393,294.348
2015-12-03 00:00:00,2015-12-03 00:00:00,TMP,surface,-95.6254,25.0393,295.679
2015-12-03 00:00:00,2015-12-03 00:00:00,TMP,surface,-94.6879,25.0393,296.046
2015-12-03 00:00:00,2015-12-03 00:00:00,TMP,surface,-93.7504,25.0393,296.134
2015-12-03 00:00:00,2015-12-03 00:00:00,TMP,surface,-92.8129,25.0393,296.407
2015-12-03 00:00:00,2015-12-03 00:00:00,TMP,surface,-107.813,25.9842,287.188
2015-12-03 00:00:00,2015-12-03 00:00:00,TMP,surface,-106.875,25.9842,281.271
2015-12-03 00:00:00,2015-12-03 00:00:00,TMP,surface,-105.938,25.9842,280.082
2015-12-03 00:00:00,2015-12-03 00:00:00,TMP,surface,-105,25.9842,283.206
2015-12-03 00:00:00,2015-12-03 00:00:00,TMP,surface,-104.063,25.9842,287.047
2015-12-03 00:00:00,2015-12-03 00:00:00,TMP,surface,-103.125,25.9842,288.017
2015-12-03 00:00:00,2015-12-03 00:00:00,TMP,surface,-102.188,25.9842,287.3
2015-12-03 00:00:00,2015-12-03 00:00:00,TMP,surface,-101.25,25.9842,285.975
2015-12-03 00:00:00,2015-12-03 00:00:00,TMP,surface,-100.313,25.9842,285.991
2015-12-03 00:00:00,2015-12-03 00:00:00,TMP,surface,-99.3754,25.9842,288.105
2015-12-03 00:00:00,2015-12-03 00:00:00,TMP,surface,-98.4379,25.9842,289.74
2015-12-03 00:00:00,2015-12-03 00:00:00,TMP,surface,-97.5004,25.9842,290.886
2015-12-03 00:00:00,2015-12-03 00:00:00,TMP,surface,-96.5629,25.9842,293.087
2015-12-03 00:00:00,2015-12-03 00:00:00,TMP,surface,-95.6254,25.9842,294.751
2015-12-03 00:00:00,2015-12-03 00:00:00,TMP,surface,-94.6879,25.9842,295.316
2015-12-03 00:00:00,2015-12-03 00:00:00,TMP,surface,-93.7504,25.9842,295.31
2015-12-03 00:00:00,2015-12-03 00:00:00,TMP,surface,-92.8129,25.9842,295.458
2015-12-03 00:00:00,2015-12-03 00:00:00,TMP,surface,-107.813,26.929,282.287
2015-12-03 00:00:00,2015-12-03 00:00:00,TMP,surface,-106.875,26.929,279.313
2015-12-03 00:00:00,2015-12-03 00:00:00,TMP,surface,-105.938,26.929,281.647
2015-12-03 00:00:00,2015-12-03 00:00:00,TMP,surface,-105,26.929,285.038
2015-12-03 00:00:00,2015-12-03 00:00:00,TMP,surface,-104.063,26.929,286.215
2015-12-03 00:00:00,2015-12-03 00:00:00,TMP,surface,-103.125,26.929,286.026
2015-12-03 00:00:00,2015-12-03 00:00:00,TMP,surface,-102.188,26.929,285.919
2015-12-03 00:00:00,2015-12-03 00:00:00,TMP,surface,-101.25,26.929,286.228
2015-12-03 00:00:00,2015-12-03 00:00:00,TMP,surface,-100.313,26.929,286.961
2015-12-03 00:00:00,2015-12-03 00:00:00,TMP,surface,-99.3754,26.929,288.014
2015-12-03 00:00:00,2015-12-03 00:00:00,TMP,surface,-98.4379,26.929,288.438
2015-12-03 00:00:00,2015-12-03 00:00:00,TMP,surface,-97.5004,26.929,291.478
2015-12-03 00:00:00,2015-12-03 00:00:00,TMP,surface,-96.5629,26.929,292.111
2015-12-03 00:00:00,2015-12-03 00:00:00,TMP,surface,-95.6254,26.929,293.422
2015-12-03 00:00:00,2015-12-03 00:00:00,TMP,surface,-94.6879,26.929,294.27
2015-12-03 00:00:00,2015-12-03 00:00:00,TMP,surface,-93.7504,26.929,294.276
2015-12-03 00:00:00,2015-12-03 00:00:00,TMP,surface,-92.8129,26.929,294.158
2015-12-03 00:00:00,2015-12-03 00:00:00,TMP,surface,-107.813,27.8739,279.561
2015-12-03 00:00:00,2015-12-03 00:00:00,TMP,surface,-106.875,27.8739,279.332
2015-12-03 00:00:00,2015-12-03 00:00:00,TMP,surface,-105.938,27.8739,282.738
2015-12-03 00:00:00,2015-12-03 00:00:00,TMP,surface,-105,27.8739,285.087
2015-12-03 00:00:00,2015-12-03 00:00:00,TMP,surface,-104.063,27.8739,285.174
2015-12-03 00:00:00,2015-12-03 00:00:00,TMP,surface,-103.125,27.8739,284.249
2015-12-03 00:00:00,2015-12-03 00:00:00,TMP,surface,-102.188,27.8739,284.516
2015-12-03 00:00:00,2015-12-03 00:00:00,TMP,surface,-101.25,27.8739,285.678
2015-12-03 00:00:00,2015-12-03 00:00:00,TMP,surface,-100.313,27.8739,286.611
2015-12-03 00:00:00,2015-12-03 00:00:00,TMP,surface,-99.3754,27.8739,286.863
2015-12-03 00:00:00,2015-12-03 00:00:00,TMP,surface,-98.4379,27.8739,286.898
2015-12-03 00:00:00,2015-12-03 00:00:00,TMP,surface,-97.5004,27.8739,289.395
2015-12-03 00:00:00,2015-12-03 00:00:00,TMP,surface,-96.5629,27.8739,292.076
2015-12-03 00:00:00,2015-12-03 00:00:00,TMP,surface,-95.6254,27.8739,292.42
2015-12-03 00:00:00,2015-12-03 00:00:00,TMP,surface,-94.6879,27.8739,292.539
2015-12-03 00:00:00,2015-12-03 00:00:00,TMP,surface,-93.7504,27.8739,292.586
2015-12-03 00:00:00,2015-12-03 00:00:00,TMP,surface,-92.8129,27.8739,292.681
2015-12-03 00:00:00,2015-12-03 00:00:00,TMP,surface,-107.813,28.8188,278.497
2015-12-03 00:00:00,2015-12-03 00:00:00,TMP,surface,-106.875,28.8188,279.66
2015-12-03 00:00:00,2015-12-03 00:00:00,TMP,surface,-105.938,28.8188,282.83
2015-12-03 00:00:00,2015-12-03 00:00:00,TMP,surface,-105,28.8188,284.298
2015-12-03 00:00:00,2015-12-03 00:00:00,TMP,surface,-104.063,28.8188,283.495
2015-12-03 00:00:00,2015-12-03 00:00:00,TMP,surface,-103.125,28.8188,282.964
2015-12-03 00:00:00,2015-12-03 00:00:00,TMP,surface,-102.188,28.8188,283.622
2015-12-03 00:00:00,2015-12-03 00:00:00,TMP,surface,-101.25,28.8188,284.934
2015-12-03 00:00:00,2015-12-03 00:00:00,TMP,surface,-100.313,28.8188,285.364
2015-12-03 00:00:00,2015-12-03 00:00:00,TMP,surface,-99.3754,28.8188,285.164
2015-12-03 00:00:00,2015-12-03 00:00:00,TMP,surface,-98.4379,28.8188,285.046
2015-12-03 00:00:00,2015-12-03 00:00:00,TMP,surface,-97.5004,28.8188,285.326
2015-12-03 00:00:00,2015-12-03 00:00:00,TMP,surface,-96.5629,28.8188,285.823
2015-12-03 00:00:00,2015-12-03 00:00:00,TMP,surface,-95.6254,28.8188,288.212
2015-12-03 00:00:00,2015-12-03 00:00:00,TMP,surface,-94.6879,28.8188,291.707
2015-12-03 00:00:00,2015-12-03 00:00:00,TMP,surface,-93.7504,28.8188,291.751
2015-12-03 00:00:00,2015-12-03 00:00:00,TMP,surface,-92.8129,28.8188,291.918
2015-12-03 00:00:00,2015-12-03 00:00:00,TMP,surface,-107.813,29.7637,279.505
2015-12-03 00:00:00,2015-12-03 00:00:00,TMP,surface,-106.875,29.7637,280.777
2015-12-03 00:00:00,2015-12-03 00:00:00,TMP,surface,-105.938,29.7637,282.924
2015-12-03 00:00:00,2015-12-03 00:00:00,TMP,surface,-105,29.7637,282.815
2015-12-03 00:00:00,2015-12-03 00:00:00,TMP,surface,-104.063,29.7637,282.639
2015-12-03 00:00:00,2015-12-03 00:00:00,TMP,surface,-103.125,29.7637,282.951
2015-12-03 00:00:00,2015-12-03 00:00:00,TMP,surface,-102.188,29.7637,283.737
2015-12-03 00:00:00,2015-12-03 00:00:00,TMP,surface,-101.25,29.7637,284.204
2015-12-03 00:00:00,2015-12-03 00:00:00,TMP,surface,-100.313,29.7637,283.921
2015-12-03 00:00:00,2015-12-03 00:00:00,TMP,surface,-99.3754,29.7637,283.487
2015-12-03 00:00:00,2015-12-03 00:00:00,TMP,surface,-98.4379,29.7637,283.339
2015-12-03 00:00:00,2015-12-03 00:00:00,TMP,surface,-97.5004,29.7637,283.395
2015-12-03 00:00:00,2015-12-03 00:00:00,TMP,surface,-96.5629,29.7637,283.559
2015-12-03 00:00:00,2015-12-03 00:00:00,TMP,surface,-95.6254,29.7637,283.935
2015-12-03 00:00:00,2015-12-03 00:00:00,TMP,surface,-94.6879,29.7637,286.422
2015-12-03 00:00:00,2015-12-03 00:00:00,TMP,surface,-93.7504,29.7637,289.385
2015-12-03 00:00:00,2015-12-03 00:00:00,TMP,surface,-92.8129,29.7637,284.239
2015-12-03 00:00:00,2015-12-03 00:00:00,TMP,surface,-107.813,30.7085,281.588
2015-12-03 00:00:00,2015-12-03 00:00:00,TMP,surface,-106.875,30.7085,282.513
2015-12-03 00:00:00,2015-12-03 00:00:00,TMP,surface,-105.938,30.7085,282.463
2015-12-03 00:00:00,2015-12-03 00:00:00,TMP,surface,-105,30.7085,281.804
2015-12-03 00:00:00,2015-12-03 00:00:00,TMP,surface,-104.063,30.7085,281.807
2015-12-03 00:00:00,2015-12-03 00:00:00,TMP,surface,-103.125,30.7085,282.751
2015-12-03 00:00:00,2015-12-03 00:00:00,TMP,surface,-102.188,30.7085,283.279
2015-12-03 00:00:00,2015-12-03 00:00:00,TMP,surface,-101.25,30.7085,283.191
2015-12-03 00:00:00,2015-12-03 00:00:00,TMP,surface,-100.313,30.7085,282.801
2015-12-03 00:00:00,2015-12-03 00:00:00,TMP,surface,-99.3754,30.7085,282.505
2015-12-03 00:00:00,2015-12-03 00:00:00,TMP,surface,-98.4379,30.7085,282.476
2015-12-03 00:00:00,2015-12-03 00:00:00,TMP,surface,-97.5004,30.7085,282.452
2015-12-03 00:00:00,2015-12-03 00:00:00,TMP,surface,-96.5629,30.7085,282.404
2015-12-03 00:00:00,2015-12-03 00:00:00,TMP,surface,-95.6254,30.7085,282.414
2015-12-03 00:00:00,2015-12-03 00:00:00,TMP,surface,-94.6879,30.7085,282.316
2015-12-03 00:00:00,2015-12-03 00:00:00,TMP,surface,-93.7504,30.7085,282.051
2015-12-03 00:00:00,2015-12-03 00:00:00,TMP,surface,-92.8129,30.7085,281.577
2015-12-03 00:00:00,2015-12-03 00:00:00,TMP,surface,-107.813,31.6534,281.431
2015-12-03 00:00:00,2015-12-03 00:00:00,TMP,surface,-106.875,31.6534,282.06
2015-12-03 00:00:00,2015-12-03 00:00:00,TMP,surface,-105.938,31.6534,281.089
2015-12-03 00:00:00,2015-12-03 00:00:00,TMP,surface,-105,31.6534,280.684
2015-12-03 00:00:00,2015-12-03 00:00:00,TMP,surface,-104.063,31.6534,281.215
2015-12-03 00:00:00,2015-12-03 00:00:00,TMP,surface,-103.125,31.6534,282.057
2015-12-03 00:00:00,2015-12-03 00:00:00,TMP,surface,-102.188,31.6534,282.385
2015-12-03 00:00:00,2015-12-03 00:00:00,TMP,surface,-101.25,31.6534,282.238
2015-12-03 00:00:00,2015-12-03 00:00:00,TMP,surface,-100.313,31.6534,282.1
2015-12-03 00:00:00,2015-12-03 00:00:00,TMP,surface,-99.3754,31.6534,282.102
2015-12-03 00:00:00,2015-12-03 00:00:00,TMP,surface,-98.4379,31.6534,282.19
2015-12-03 00:00:00,2015-12-03 00:00:00,TMP,surface,-97.5004,31.6534,282.188
2015-12-03 00:00:00,2015-12-03 00:00:00,TMP,surface,-96.5629,31.6534,282.091
2015-12-03 00:00:00,2015-12-03 00:00:00,TMP,surface,-95.6254,31.6534,281.827
2015-12-03 00:00:00,2015-12-03 00:00:00,TMP,surface,-94.6879,31.6534,281.305
2015-12-03 00:00:00,2015-12-03 00:00:00,TMP,surface,-93.7504,31.6534,280.838
2015-12-03 00:00:00,2015-12-03 00:00:00,TMP,surface,-92.8129,31.6534,280.578
2015-12-03 00:00:00,2015-12-03 00:00:00,TMP,surface,-107.813,32.5983,278.702
2015-12-03 00:00:00,2015-12-03 00:00:00,TMP,surface,-106.875,32.5983,279.046
2015-12-03 00:00:00,2015-12-03 00:00:00,TMP,surface,-105.938,32.5983,279.406
2015-12-03 00:00:00,2015-12-03 00:00:00,TMP,surface,-105,32.5983,279.465
2015-12-03 00:00:00,2015-12-03 00:00:00,TMP,surface,-104.063,32.5983,280.692
2015-12-03 00:00:00,2015-12-03 00:00:00,TMP,surface,-103.125,32.5983,281.395
2015-12-03 00:00:00,2015-12-03 00:00:00,TMP,surface,-102.188,32.5983,281.364
2015-12-03 00:00:00,2015-12-03 00:00:00,TMP,surface,-101.25,32.5983,281.414
2015-12-03 00:00:00,2015-12-03 00:00:00,TMP,surface,-100.313,32.5983,281.682
2015-12-03 00:00:00,2015-12-03 00:00:00,TMP,surface,-99.3754,32.5983,281.927
2015-12-03 00:00:00,2015-12-03 00:00:00,TMP,surface,-98.4379,32.5983,281.99
2015-12-03 00:00:00,2015-12-03 00:00:00,TMP,surface,-97.5004,32.5983,281.892
2015-12-03 00:00:00,2015-12-03 00:00:00,TMP,surface,-96.5629,32.5983,281.732
2015-12-03 00:00:00,2015-12-03 00:00:00,TMP,surface,-95.6254,32.5983,281.443
2015-12-03 00:00:00,2015-12-03 00:00:00,TMP,surface,-94.6879,32.5983,280.866
2015-12-03 00:00:00,2015-12-03 00:00:00,TMP,surface,-93.7504,32.5983,280.255
2015-12-03 00:00:00,2015-12-03 00:00:00,TMP,surface,-92.8129,32.5983,280.148
2015-12-03 00:00:00,2015-12-03 00:00:00,TMP,surface,-107.813,33.5432,275.591
2015-12-03 00:00:00,2015-12-03 00:00:00,TMP,surface,-106.875,33.5432,276.604
2015-12-03 00:00:00,2015-12-03 00:00:00,TMP,surface,-105.938,33.5432,277.54
2015-12-03 00:00:00,2015-12-03 00:00:00,TMP,surface,-105,33.5432,278.326
2015-12-03 00:00:00,2015-12-03 00:00:00,TMP,surface,-104.063,33.5432,279.646
2015-12-03 00:00:00,2015-12-03 00:00:00,TMP,surface,-103.125,33.5432,280.119
2015-12-03 00:00:00,2015-12-03 00:00:00,TMP,surface,-102.188,33.5432,280.004
2015-12-03 00:00:00,2015-12-03 00:00:00,TMP,surface,-101.25,33.5432,280.263
2015-12-03 00:00:00,2015-12-03 00:00:00,TMP,surface,-100.313,33.5432,280.73
2015-12-03 00:00:00,2015-12-03 00:00:00,TMP,surface,-99.3754,33.5432,281.19
2015-12-03 00:00:00,2015-12-03 00:00:00,TMP,surface,-98.4379,33.5432,281.279
2015-12-03 00:00:00,2015-12-03 00:00:00,TMP,surface,-97.5004,33.5432,281.025
2015-12-03 00:00:00,2015-12-03 00:00:00,TMP,surface,-96.5629,33.5432,280.751
2015-12-03 00:00:00,2015-12-03 00:00:00,TMP,surface,-95.6254,33.5432,280.545
2015-12-03 00:00:00,2015-12-03 00:00:00,TMP,surface,-94.6879,33.5432,280.121
2015-12-03 00:00:00,2015-12-03 00:00:00,TMP,surface,-93.7504,33.5432,279.466
2015-12-03 00:00:00,2015-12-03 00:00:00,TMP,surface,-92.8129,33.5432,279.231
2015-12-03 00:00:00,2015-12-03 00:00:00,TMP,surface,-107.813,34.4881,274.244
2015-12-03 00:00:00,2015-12-03 00:00:00,TMP,surface,-106.875,34.4881,275.433
2015-12-03 00:00:00,2015-12-03 00:00:00,TMP,surface,-105.938,34.4881,276.409
2015-12-03 00:00:00,2015-12-03 00:00:00,TMP,surface,-105,34.4881,277.513
2015-12-03 00:00:00,2015-12-03 00:00:00,TMP,surface,-104.063,34.4881,278.26
2015-12-03 00:00:00,2015-12-03 00:00:00,TMP,surface,-103.125,34.4881,278.67
2015-12-03 00:00:00,2015-12-03 00:00:00,TMP,surface,-102.188,34.4881,278.81
2015-12-03 00:00:00,2015-12-03 00:00:00,TMP,surface,-101.25,34.4881,279.068
2015-12-03 00:00:00,2015-12-03 00:00:00,TMP,surface,-100.313,34.4881,279.559
2015-12-03 00:00:00,2015-12-03 00:00:00,TMP,surface,-99.3754,34.4881,280.007
2015-12-03 00:00:00,2015-12-03 00:00:00,TMP,surface,-98.4379,34.4881,280.132
2015-12-03 00:00:00,2015-12-03 00:00:00,TMP,surface,-97.5004,34.4881,279.99
2015-12-03 00:00:00,2015-12-03 00:00:00,TMP,surface,-96.5629,34.4881,279.842
2015-12-03 00:00:00,2015-12-03 00:00:00,TMP,surface,-95.6254,34.4881,279.57
2015-12-03 00:00:00,2015-12-03 00:00:00,TMP,surface,-94.6879,34.4881,278.959
2015-12-03 00:00:00,2015-12-03 00:00:00,TMP,surface,-93.7504,34.4881,278.359
2015-12-03 00:00:00,2015-12-03 00:00:00,TMP,surface,-92.8129,34.4881,278.155
2015-12-03 00:00:00,2015-12-03 00:00:00,TMP,surface,-107.813,35.4329,274.38
2015-12-03 00:00:00,2015-12-03 00:00:00,TMP,surface,-106.875,35.4329,274.41
2015-12-03 00:00:00,2015-12-03 00:00:00,TMP,surface,-105.938,35.4329,274.69
2015-12-03 00:00:00,2015-12-03 00:00:00,TMP,surface,-105,35.4329,275.499
2015-12-03 00:00:00,2015-12-03 00:00:00,TMP,surface,-104.063,35.4329,277.062
2015-12-03 00:00:00,2015-12-03 00:00:00,TMP,surface,-103.125,35.4329,277.815
2015-12-03 00:00:00,2015-12-03 00:00:00,TMP,surface,-102.188,35.4329,277.78
2015-12-03 00:00:00,2015-12-03 00:00:00,TMP,surface,-101.25,35.4329,277.881
2015-12-03 00:00:00,2015-12-03 00:00:00,TMP,surface,-100.313,35.4329,278.281
2015-12-03 00:00:00,2015-12-03 00:00:00,TMP,surface,-99.3754,35.4329,278.721
2015-12-03 00:00:00,2015-12-03 00:00:00,TMP,surface,-98.4379,35.4329,279.007
2015-12-03 00:00:00,2015-12-03 00:00:00,TMP,surface,-97.5004,35.4329,279.156
2015-12-03 00:00:00,2015-12-03 00:00:00,TMP,surface,-96.5629,35.4329,279.142
2015-12-03 00:00:00,2015-12-03 00:00:00,TMP,surface,-95.6254,35.4329,278.905
2015-12-03 00:00:00,2015-12-03 00:00:00,TMP,surface,-94.6879,35.4329,278.38
2015-12-03 00:00:00,2015-12-03 00:00:00,TMP,surface,-93.7504,35.4329,277.611
2015-12-03 00:00:00,2015-12-03 00:00:00,TMP,surface,-92.8129,35.4329,277.19
2015-12-03 00:00:00,2015-12-03 00:00:00,TMP,surface,-107.813,36.3778,273.599
2015-12-03 00:00:00,2015-12-03 00:00:00,TMP,surface,-106.875,36.3778,271.962
2015-12-03 00:00:00,2015-12-03 00:00:00,TMP,surface,-105.938,36.3778,272.022
2015-12-03 00:00:00,2015-12-03 00:00:00,TMP,surface,-105,36.3778,273.468
2015-12-03 00:00:00,2015-12-03 00:00:00,TMP,surface,-104.063,36.3778,275.385
2015-12-03 00:00:00,2015-12-03 00:00:00,TMP,surface,-103.125,36.3778,276.435
2015-12-03 00:00:00,2015-12-03 00:00:00,TMP,surface,-102.188,36.3778,276.838
2015-12-03 00:00:00,2015-12-03 00:00:00,TMP,surface,-101.25,36.3778,276.985
2015-12-03 00:00:00,2015-12-03 00:00:00,TMP,surface,-100.313,36.3778,277.522
2015-12-03 00:00:00,2015-12-03 00:00:00,TMP,surface,-99.3754,36.3778,278.086
2015-12-03 00:00:00,2015-12-03 00:00:00,TMP,surface,-98.4379,36.3778,278.283
2015-12-03 00:00:00,2015-12-03 00:00:00,TMP,surface,-97.5004,36.3778,278.369
2015-12-03 00:00:00,2015-12-03 00:00:00,TMP,surface,-96.5629,36.3778,278.479
2015-12-03 00:00:00,2015-12-03 00:00:00,TMP,surface,-95.6254,36.3778,278.283
2015-12-03 00:00:00,2015-12-03 00:00:00,TMP,surface,-94.6879,36.3778,277.611
2015-12-03 00:00:00,2015-12-03 00:00:00,TMP,surface,-93.7504,36.3778,276.823
2015-12-03 00:00:00,2015-12-03 00:00:00,TMP,surface,-92.8129,36.3778,276.351
2015-12-03 00:00:00,2015-12-03 00:00:00,PRATE,surface,-107.813,25.0393,2.2e-06
2015-12-03 00:00:00,2015-12-03 00:00:00,PRATE,surface,-106.875,25.0393,5e-06
2015-12-03 00:00:00,2015-12-03 00:00:00,PRATE,surface,-105.938,25.0393,7.9e-06
2015-12-03 00:00:00,2015-12-03 00:00:00,PRATE,surface,-105,25.0393,6.6e-06
2015-12-03 00:00:00,2015-12-03 00:00:00,PRATE,surface,-104.063,25.0393,3.1e-06
2015-12-03 00:00:00,2015-12-03 00:00:00,PRATE,surface,-103.125,25.0393,9e-07
2015-12-03 00:00:00,2015-12-03 00:00:00,PRATE,surface,-102.188,25.0393,4.7e-06
2015-12-03 00:00:00,2015-12-03 00:00:00,PRATE,surface,-101.25,25.0393,2.12e-05
2015-12-03 00:00:00,2015-12-03 00:00:00,PRATE,surface,-100.313,25.0393,6.68e-05
2015-12-03 00:00:00,2015-12-03 00:00:00,PRATE,surface,-99.3754,25.0393,8.41e-05
2015-12-03 00:00:00,2015-12-03 00:00:00,PRATE,surface,-98.4379,25.0393,7.49e-05
2015-12-03 00:00:00,2015-12-03 00:00:00,PRATE,surface,-97.5004,25.0393,0.0001074
2015-12-03 00:00:00,2015-12-03 00:00:00,PRATE,surface,-96.5629,25.0393,0.0001398
2015-12-03 00:00:00,2015-12-03 00:00:00,PRATE,surface,-95.6254,25.0393,0.0001426
2015-12-03 00:00:00,2015-12-03 00:00:00,PRATE,surface,-94.6879,25.0393,0.0001145
2015-12-03 00:00:00,2015-12-03 00:00:00,PRATE,surface,-93.7504,25.0393,0.0001042
2015-12-03 00:00:00,2015-12-03 00:00:00,PRATE,surface,-92.8129,25.0393,8.71e-05
2015-12-03 00:00:00,2015-12-03 00:00:00,PRATE,surface,-107.813,25.9842,2.7e-06
2015-12-03 00:00:00,2015-12-03 00:00:00,PRATE,surface,-106.875,25.9842,6.7e-06
2015-12-03 00:00:00,2015-12-03 00:00:00,PRATE,surface,-105.938,25.9842,1.13e-05
2015-12-03 00:00:00,2015-12-03 00:00:00,PRATE,surface,-105,25.9842,1.38e-05
2015-12-03 00:00:00,2015-12-03 00:00:00,PRATE,surface,-104.063,25.9842,4.2e-06
2015-12-03 00:00:00,2015-12-03 00:00:00,PRATE,surface,-103.125,25.9842,1.2e-06
2015-12-03 00:00:00,2015-12-03 00:00:00,PRATE,surface,-102.188,25.9842,2.8e-06
2015-12-03 00:00:00,2015-12-03 00:00:00,PRATE,surface,-101.25,25.9842,1.89e-05
2015-12-03 00:00:00,2015-12-03 00:00:00,PRATE,surface,-100.313,25.9842,5.41e-05
2015-12-03 00:00:00,2015-12-03 00:00:00,PRATE,surface,-99.3754,25.9842,6.08e-05
2015-12-03 00:00:00,2015-12-03 00:00:00,PRATE,surface,-98.4379,25.9842,7.35e-05
2015-12-03 00:00:00,2015-12-03 00:00:00,PRATE,surface,-97.5004,25.9842,0.0001043
2015-12-03 00:00:00,2015-12-03 00:00:00,PRATE,surface,-96.5629,25.9842,0.0001375
2015-12-03 00:00:00,2015-12-03 00:00:00,PRATE,surface,-95.6254,25.9842,0.0001374
2015-12-03 00:00:00,2015-12-03 00:00:00,PRATE,surface,-94.6879,25.9842,0.0001273
2015-12-03 00:00:00,2015-12-03 00:00:00,PRATE,surface,-93.7504,25.9842,0.0001101
2015-12-03 00:00:00,2015-12-03 00:00:00,PRATE,surface,-92.8129,25.9842,0.0001049
2015-12-03 00:00:00,2015-12-03 00:00:00,PRATE,surface,-107.813,26.929,8.4e-06
2015-12-03 00:00:00,2015-12-03 00:00:00,PRATE,surface,-106.875,26.929,7.6e-06
2015-12-03 00:00:00,2015-12-03 00:00:00,PRATE,surface,-105.938,26.929,1.5e-05
2015-12-03 00:00:00,2015-12-03 00:00:00,PRATE,surface,-105,26.929,1.94e-05
2015-12-03 00:00:00,2015-12-03 00:00:00,PRATE,surface,-104.063,26.929,1.13e-05
2015-12-03 00:00:00,2015-12-03 00:00:00,PRATE,surface,-103.125,26.929,9.1e-06
2015-12-03 00:00:00,2015-12-03 00:00:00,PRATE,surface,-102.188,26.929,1.05e-05
2015-12-03 00:00:00,2015-12-03 00:00:00,PRATE,surface,-101.25,26.929,2.71e-05
2015-12-03 00:00:00,2015-12-03 00:00:00,PRATE,surface,-100.313,26.929,3.34e-05
2015-12-03 00:00:00,2015-12-03 00:00:00,PRATE,surface,-99.3754,26.929,3.74e-05
2015-12-03 00:00:00,2015-12-03 00:00:00,PRATE,surface,-98.4379,26.929,6.24e-05
2015-12-03 00:00:00,2015-12-03 00:00:00,PRATE,surface,-97.5004,26.929,9.74e-05
2015-12-03 00:00:00,2015-12-03 00:00:00,PRATE,surface,-96.5629,26.929,0.0001184
2015-12-03 00:00:00,2015-12-03 00:00:00,PRATE,surface,-95.6254,26.929,0.0001137
2015-12-03 00:00:00,2015-12-03 00:00:00,PRATE,surface,-94.6879,26.929,0.0001079
2015-12-03 00:00:00,2015-12-03 00:00:00,PRATE,surface,-93.7504,26.929,9.5e-05
2015-12-03 00:00:00,2015-12-03 00:00:00,PRATE,surface,-92.8129,26.929,9.17e-05
2015-12-03 00:00:00,2015-12-03 00:00:00,PRATE,surface,-107.813,27.8739,1.73e-05
2015-12-03 00:00:00,2015-12-03 00:00:00,PRATE,surface,-106.875,27.8739,1.5e-05
2015-12-03 00:00:00,2015-12-03 00:00:00,PRATE,surface,-105.938,27.8739,1.74e-05
2015-12-03 00:00:00,2015-12-03 00:00:00,PRATE,surface,-105,27.8739,1.27e-05
2015-12-03 00:00:00,2015-12-03 00:00:00,PRATE,surface,-104.063,27.8739,1.98e-05
2015-12-03 00:00:00,2015-12-03 00:00:00,PRATE,surface,-103.125,27.8739,2.89e-05
2015-12-03 00:00:00,2015-12-03 00:00:00,PRATE,surface,-102.188,27.8739,3.77e-05
2015-12-03 00:00:00,2015-12-03 00:00:00,PRATE,surface,-101.25,27.8739,3.32e-05
2015-12-03 00:00:00,2015-12-03 00:00:00,PRATE,surface,-100.313,27.8739,3.19e-05
2015-12-03 00:00:00,2015-12-03 00:00:00,PRATE,surface,-99.3754,27.8739,3.19e-05
2015-12-03 00:00:00,2015-12-03 00:00:00,PRATE,surface,-98.4379,27.8739,4.71e-05
2015-12-03 00:00:00,2015-12-03 00:00:00,PRATE,surface,-97.5004,27.8739,7.52e-05
2015-12-03 00:00:00,2015-12-03 00:00:00,PRATE,surface,-96.5629,27.8739,9.56e-05
2015-12-03 00:00:00,2015-12-03 00:00:00,PRATE,surface,-95.6254,27.8739,0.0001034
2015-12-03 00:00:00,2015-12-03 00:00:00,PRATE,surface,-94.6879,27.8739,0.0001054
2015-12-03 00:00:00,2015-12-03 00:00:00,PRATE,surface,-93.7504,27.8739,9.63e-05
2015-12-03 00:00:00,2015-12-03 00:00:00,PRATE,surface,-92.8129,27.8739,8.15e-05
2015-12-03 00:00:00,2015-12-03 00:00:00,PRATE,surface,-107.813,28.8188,2.23e-05
2015-12-03 00:00:00,2015-12-03 00:00:00,PRATE,surface,-106.875,28.8188,2.42e-05
2015-12-03 00:00:00,2015-12-03 00:00:00,PRATE,surface,-105.938,28.8188,1.8e-05
2015-12-03 00:00:00,2015-12-03 00:00:00,PRATE,surface,-105,28.8188,1.35e-05
2015-12-03 00:00:00,2015-12-03 00:00:00,PRATE,surface,-104.063,28.8188,2.02e-05
2015-12-03 00:00:00,2015-12-03 00:00:00,PRATE,surface,-103.125,28.8188,3.06e-05
2015-12-03 00:00:00,2015-12-03 00:00:00,PRATE,surface,-102.188,28.8188,3.56e-05
2015-12-03 00:00:00,2015-12-03 00:00:00,PRATE,surface,-101.25,28.8188,3.04e-05
2015-12-03 00:00:00,2015-12-03 00:00:00,PRATE,surface,-100.313,28.8188,2.51e-05
2015-12-03 00:00:00,2015-12-03 00:00:00,PRATE,surface,-99.3754,28.8188,2.6e-05
2015-12-03 00:00:00,2015-12-03 00:00:00,PRATE,surface,-98.4379,28.8188,3.64e-05
2015-12-03 00:00:00,2015-12-03 00:00:00,PRATE,surface,-97.5004,28.8188,5.36e-05
2015-12-03 00:00:00,2015-12-03 00:00:00,PRATE,surface,-96.5629,28.8188,7.28e-05
2015-12-03 00:00:00,2015-12-03 00:00:00,PRATE,surface,-95.6254,28.8188,9.24e-05
2015-12-03 00:00:00,2015-12-03 00:00:00,PRATE,surface,-94.6879,28.8188,0.0001096
2015-12-03 00:00:00,2015-12-03 00:00:00,PRATE,surface,-93.7504,28.8188,0.0001148
2015-12-03 00:00:00,2015-12-03 00:00:00,PRATE,surface,-92.8129,28.8188,0.0001062
2015-12-03 00:00:00,2015-12-03 00:00:00,PRATE,surface,-107.813,29.7637,1.39e-05
2015-12-03 00:00:00,2015-12-03 00:00:00,PRATE,surface,-106.875,29.7637,1.78e-05
2015-12-03 00:00:00,2015-12-03 00:00:00,PRATE,surface,-105.938,29.7637,1.97e-05
2015-12-03 00:00:00,2015-12-03 00:00:00,PRATE,surface,-105,29.7637,1.74e-05
2015-12-03 00:00:00,2015-12-03 00:00:00,PRATE,surface,-104.063,29.7637,2.1e-05
2015-12-03 00:00:00,2015-12-03 00:00:00,PRATE,surface,-103.125,29.7637,2.64e-05
2015-12-03 00:00:00,2015-12-03 00:00:00,PRATE,surface,-102.188,29.7637,2.69e-05
2015-12-03 00:00:00,2015-12-03 00:00:00,PRATE,surface,-101.25,29.7637,2.62e-05
2015-12-03 00:00:00,2015-12-03 00:00:00,PRATE,surface,-100.313,29.7637,2.35e-05
2015-12-03 00:00:00,2015-12-03 00:00:00,PRATE,surface,-99.3754,29.7637,2.83e-05
2015-12-03 00:00:00,2015-12-03 00:00:00,PRATE,surface,-98.4379,29.7637,3.79e-05
2015-12-03 00:00:00,2015-12-03 00:00:00,PRATE,surface,-97.5004,29.7637,4.56e-05
2015-12-03 00:00:00,2015-12-03 00:00:00,PRATE,surface,-96.5629,29.7637,5.61e-05
2015-12-03 00:00:00,2015-12-03 00:00:00,PRATE,surface,-95.6254,29.7637,6.99e-05
2015-12-03 00:00:00,2015-12-03 00:00:00,PRATE,surface,-94.6879,29.7637,8.19e-05
2015-12-03 00:00:00,2015-12-03 00:00:00,PRATE,surface,-93.7504,29.7637,9.31e-05
2015-12-03 00:00:00,2015-12-03 00:00:00,PRATE,surface,-92.8129,29.7637,9.29e-05
2015-12-03 00:00:00,2015-12-03 00:00:00,PRATE,surface,-107.813,30.7085,7.6e-06
2015-12-03 00:00:00,2015-12-03 00:00:00,PRATE,surface,-106.875,30.7085,1.06e-05
2015-12-03 00:00:00,2015-12-03 00:00:00,PRATE,surface,-105.938,30.7085,1.6e-05
2015-12-03 00:00:00,2015-12-03 00:00:00,PRATE,surface,-105,30.7085,2.36e-05
2015-12-03 00:00:00,2015-12-03 00:00:00,PRATE,surface,-104.063,30.7085,2.69e-05
2015-12-03 00:00:00,2015-12-03 00:00:00,PRATE,surface,-103.125,30.7085,2.31e-05
2015-12-03 00:00:00,2015-12-03 00:00:00,PRATE,surface,-102.188,30.7085,2.26e-05
2015-12-03 00:00:00,2015-12-03 00:00:00,PRATE,surface,-101.25,30.7085,2.46e-05
2015-12-03 00:00:00,2015-12-03 00:00:00,PRATE,surface,-100.313,30.7085,2.88e-05
2015-12-03 00:00:00,2015-12-03 00:00:00,PRATE,surface,-99.3754,30.7085,3.35e-05
2015-12-03 00:00:00,2015-12-03 00:00:00,PRATE,surface,-98.4379,30.7085,3.29e-05
2015-12-03 00:00:00,2015-12-03 00:00:00,PRATE,surface,-97.5004,30.7085,3.35e-05
2015-12-03 00:00:00,2015-12-03 00:00:00,PRATE,surface,-96.5629,30.7085,3.88e-05
2015-12-03 00:00:00,2015-12-03 00:00:00,PRATE,surface,-95.6254,30.7085,4.51e-05
2015-12-03 00:00:00,2015-12-03 00:00:00,PRATE,surface,-94.6879,30.7085,5.21e-05
2015-12-03 00:00:00,2015-12-03 00:00:00,PRATE,surface,-93.7504,30.7085,5.87e-05
2015-12-03 00:00:00,2015-12-03 00:00:00,PRATE,surface,-92.8129,30.7085,6.31e-05
2015-12-03 00:00:00,2015-12-03 00:00:00,PRATE,surface,-107.813,31.6534,7.8e-06
2015-12-03 00:00:00,2015-12-03 00:00:00,PRATE,surface,-106.875,31.6534,9.2e-06
2015-12-03 00:00:00,2015-12-03 00:00:00,PRATE,surface,-105.938,31.6534,1.44e-05
2015-12-03 00:00:00,2015-12-03 00:00:00,PRATE,surface,-105,31.6534,2.05e-05
2015-12-03 00:00:00,2015-12-03 00:00:00,PRATE,surface,-104.063,31.6534,2.41e-05
2015-12-03 00:00:00,2015-12-03 00:00:00,PRATE,surface,-103.125,31.6534,2.64e-05
2015-12-03 00:00:00,2015-12-03 00:00:00,PRATE,surface,-102.188,31.6534,2.71e-05
2015-12-03 00:00:00,2015-12-03 00:00:00,PRATE,surface,-101.25,31.6534,2.49e-05
2015-12-03 00:00:00,2015-12-03 00:00:00,PRATE,surface,-100.313,31.6534,2.67e-05
2015-12-03 00:00:00,2015-12-03 00:00:00,PRATE,surface,-99.3754,31.6534,2.78e-05
2015-12-03 00:00:00,2015-12-03 00:00:00,PRATE,surface,-98.4379,31.6534,2.68e-05
2015-12-03 00:00:00,2015-12-03 00:00:00,PRATE,surface,-97.5004,31.6534,2.6e-05
2015-12-03 00:00:00,2015-12-03 00:00:00,PRATE,surface,-96.5629,31.6534,2.67e-05
2015-12-03 00:00:00,2015-12-03 00:00:00,PRATE,surface,-95.6254,31.6534,2.95e-05
2015-12-03 00:00:00,2015-12-03 00:00:00,PRATE,surface,-94.6879,31.6534,3.64e-05
2015-12-03 00:00:00,2015-12-03 00:00:00,PRATE,surface,-93.7504,31.6534,4.74e-05
2015-12-03 00:00:00,2015-12-03 00:00:00,PRATE,surface,-92.8129,31.6534,5.49e-05
2015-12-03 00:00:00,2015-12-03 00:00:00,PRATE,surface,-107.813,32.5983,1.88e-05
2015-12-03 00:00:00,2015-12-03 00:00:00,PRATE,surface,-106.875,32.5983,1.59e-05
2015-12-03 00:00:00,2015-12-03 00:00:00,PRATE,surface,-105.938,32.5983,1.39e-05
2015-12-03 00:00:00,2015-12-03 00:00:00,PRATE,surface,-105,32.5983,2e-05
2015-12-03 00:00:00,2015-12-03 00:00:00,PRATE,surface,-104.063,32.5983,2.68e-05
2015-12-03 00:00:00,2015-12-03 00:00:00,PRATE,surface,-103.125,32.5983,3.33e-05
2015-12-03 00:00:00,2015-12-03 00:00:00,PRATE,surface,-102.188,32.5983,3.59e-05
2015-12-03 00:00:00,2015-12-03 00:00:00,PRATE,surface,-101.25,32.5983,2.84e-05
2015-12-03 00:00:00,2015-12-03 00:00:00,PRATE,surface,-100.313,32.5983,2.47e-05
2015-12-03 00:00:00,2015-12-03 00:00:00,PRATE,surface,-99.3754,32.5983,2.28e-05
2015-12-03 00:00:00,2015-12-03 00:00:00,PRATE,surface,-98.4379,32.5983,2.13e-05
2015-12-03 00:00:00,2015-12-03 00:00:00,PRATE,surface,-97.5004,32.5983,2.11e-05
2015-12-03 00:00:00,2015-12-03 00:00:00,PRATE,surface,-96.5629,32.5983,2.09e-05
2015-12-03 00:00:00,2015-12-03 00:00:00,PRATE,surface,-95.6254,32.5983,2.12e-05
2015-12-03 00:00:00,2015-12-03 00:00:00,PRATE,surface,-94.6879,32.5983,2.59e-05
2015-12-03 00:00:00,2015-12-03 00:00:00,PRATE,surface,-93.7504,32.5983,3.64e-05
2015-12-03 00:00:00,2015-12-03 00:00:00,PRATE,surface,-92.8129,32.5983,4.7e-05
2015-12-03 00:00:00,2015-12-03 00:00:00,PRATE,surface,-107.813,33.5432,3.62e-05
2015-12-03 00:00:00,2015-12-03 00:00:00,PRATE,surface,-106.875,33.5432,2.54e-05
2015-12-03 00:00:00,2015-12-03 00:00:00,PRATE,surface,-105.938,33.5432,1.93e-05
2015-12-03 00:00:00,2015-12-03 00:00:00,PRATE,surface,-105,33.5432,2.14e-05
2015-12-03 00:00:00,2015-12-03 00:00:00,PRATE,surface,-104.063,33.5432,2.5e-05
2015-12-03 00:00:00,2015-12-03 00:00:00,PRATE,surface,-103.125,33.5432,3.56e-05
2015-12-03 00:00:00,2015-12-03 00:00:00,PRATE,surface,-102.188,33.5432,4.09e-05
2015-12-03 00:00:00,2015-12-03 00:00:00,PRATE,surface,-101.25,33.5432,3.6e-05
2015-12-03 00:00:00,2015-12-03 00:00:00,PRATE,surface,-100.313,33.5432,2.77e-05
2015-12-03 00:00:00,2015-12-03 00:00:00,PRATE,surface,-99.3754,33.5432,2.12e-05
2015-12-03 00:00:00,2015-12-03 00:00:00,PRATE,surface,-98.4379,33.5432,1.96e-05
2015-12-03 00:00:00,2015-12-03 00:00:00,PRATE,surface,-97.5004,33.5432,2.05e-05
2015-12-03 00:00:00,2015-12-03 00:00:00,PRATE,surface,-96.5629,33.5432,2.04e-05
2015-12-03 00:00:00,2015-12-03 00:00:00,PRATE,surface,-95.6254,33.5432,1.94e-05
2015-12-03 00:00:00,2015-12-03 00:00:00,PRATE,surface,-94.6879,33.5432,1.95e-05
2015-12-03 00:00:00,2015-12-03 00:00:00,PRATE,surface,-93.7504,33.5432,2.31e-05
2015-12-03 00:00:00,2015-12-03 00:00:00,PRATE,surface,-92.8129,33.5432,3.28e-05
2015-12-03 00:00:00,2015-12-03 00:00:00,PRATE,surface,-107.813,34.4881,4e-05
2015-12-03 00:00:00,2015-12-03 00:00:00,PRATE,surface,-106.875,34.4881,2.97e-05
2015-12-03 00:00:00,2015-12-03 00:00:00,PRATE,surface,-105.938,34.4881,2.33e-05
2015-12-03 00:00:00,2015-12-03 00:00:00,PRATE,surface,-105,34.4881,2.5e-05
2015-12-03 00:00:00,2015-12-03 00:00:00,PRATE,surface,-104.063,34.4881,2.84e-05
2015-12-03 00:00:00,2015-12-03 00:00:00,PRATE,surface,-103.125,34.4881,3.26e-05
2015-12-03 00:00:00,2015-12-03 00:00:00,PRATE,surface,-102.188,34.4881,4.47e-05
2015-12-03 00:00:00,2015-12-03 00:00:00,PRATE,surface,-101.25,34.4881,4.89e-05
2015-12-03 00:00:00,2015-12-03 00:00:00,PRATE,surface,-100.313,34.4881,4.06e-05
2015-12-03 00:00:00,2015-12-03 00:00:00,PRATE,surface,-99.3754,34.4881,2.99e-05
2015-12-03 00:00:00,2015-12-03 00:00:00,PRATE,surface,-98.4379,34.4881,2.54e-05
2015-12-03 00:00:00,2015-12-03 00:00:00,PRATE,surface,-97.5004,34.4881,2.42e-05
2015-12-03 00:00:00,2015-12-03 00:00:00,PRATE,surface,-96.5629,34.4881,2.22e-05
2015-12-03 00:00:00,2015-12-03 00:00:00,PRATE,surface,-95.6254,34.4881,2.03e-05
2015-12-03 00:00:00,2015-12-03 00:00:00,PRATE,surface,-94.6879,34.4881,1.95e-05
2015-12-03 00:00:00,2015-12-03 00:00:00,PRATE,surface,-93.7504,34.4881,2.07e-05
2015-12-03 00:00:00,2015-12-03 00:00:00,PRATE,surface,-92.8129,34.4881,2.5e-05
2015-12-03 00:00:00,2015-12-03 00:00:00,PRATE,surface,-107.813,35.4329,3.39e-05
2015-12-03 00:00:00,2015-12-03 00:00:00,PRATE,surface,-106.875,35.4329,2.32e-05
2015-12-03 00:00:00,2015-12-03 00:00:00,PRATE,surface,-105.938,35.4329,2.14e-05
2015-12-03 00:00:00,2015-12-03 00:00:00,PRATE,surface,-105,35.4329,3.11e-05
2015-12-03 00:00:00,2015-12-03 00:00:00,PRATE,surface,-104.063,35.4329,3.95e-05
2015-12-03 00:00:00,2015-12-03 00:00:00,PRATE,surface,-103.125,35.4329,4.14e-05
2015-12-03 00:00:00,2015-12-03 00:00:00,PRATE,surface,-102.188,35.4329,4.52e-05
2015-12-03 00:00:00,2015-12-03 00:00:00,PRATE,surface,-101.25,35.4329,5.02e-05
2015-12-03 00:00:00,2015-12-03 00:00:00,PRATE,surface,-100.313,35.4329,4.61e-05
2015-12-03 00:00:00,2015-12-03 00:00:00,PRATE,surface,-99.3754,35.4329,3.49e-05
2015-12-03 00:00:00,2015-12-03 00:00:00,PRATE,surface,-98.4379,35.4329,2.61e-05
2015-12-03 00:00:00,2015-12-03 00:00:00,PRATE,surface,-97.5004,35.4329,2.16e-05
2015-12-03 00:00:00,2015-12-03 00:00:00,PRATE,surface,-96.5629,35.4329,1.81e-05
2015-12-03 00:00:00,2015-12-03 00:00:00,PRATE,surface,-95.6254,35.4329,1.55e-05
2015-12-03 00:00:00,2015-12-03 00:00:00,PRATE,surface,-94.6879,35.4329,1.42e-05
2015-12-03 00:00:00,2015-12-03 00:00:00,PRATE,surface,-93.7504,35.4329,1.36e-05
2015-12-03 00:00:00,2015-12-03 00:00:00,PRATE,surface,-92.8129,35.4329,1.5e-05
2015-12-03 00:00:00,2015-12-03 00:00:00,PRATE,surface,-107.813,36.3778,3.27e-05
2015-12-03 00:00:00,2015-12-03 00:00:00,PRATE,surface,-106.875,36.3778,2.9e-05
2015-12-03 00:00:00,2015-12-03 00:00:00,PRATE,surface,-105.938,36.3778,2.52e-05
2015-12-03 00:00:00,2015-12-03 00:00:00,PRATE,surface,-105,36.3778,3.21e-05
2015-12-03 00:00:00,2015-12-03 00:00:00,PRATE,surface,-104.063,36.3778,3.91e-05
2015-12-03 00:00:00,2015-12-03 00:00:00,PRATE,surface,-103.125,36.3778,3.64e-05
2015-12-03 00:00:00,2015-12-03 00:00:00,PRATE,surface,-102.188,36.3778,3.66e-05
2015-12-03 00:00:00,2015-12-03 00:00:00,PRATE,surface,-101.25,36.3778,3.94e-05
2015-12-03 00:00:00,2015-12-03 00:00:00,PRATE,surface,-100.313,36.3778,3.75e-05
2015-12-03 00:00:00,2015-12-03 00:00:00,PRATE,surface,-99.3754,36.3778,3.07e-05
2015-12-03 00:00:00,2015-12-03 00:00:00,PRATE,surface,-98.4379,36.3778,2.32e-05
2015-12-03 00:00:00,2015-12-03 00:00:00,PRATE,surface,-97.5004,36.3778,1.63e-05
2015-12-03 00:00:00,2015-12-03 00:00:00,PRATE,surface,-96.5629,36.3778,1.1e-05
2015-12-03 00:00:00,2015-12-03 00:00:00,PRATE,surface,-95.6254,36.3778,8.6e-06
2015-12-03 00:00:00,2015-12-03 00:00:00,PRATE,surface,-94.6879,36.3778,7.8e-06
2015-12-03 00:00:00,2015-12-03 00:00:00,PRATE,surface,-93.7504,36.3778,7e-06
2015-12-03 00:00:00,2015-12-03 00:00:00,PRATE,surface,-92.8129,36.3778,7.4e-06
