2015-11-08 00:00:00,2015-11-08 00:00:00,TMP,surface,-107.813,25.0393,298.41
2015-11-08 00:00:00,2015-11-08 00:00:00,TMP,surface,-106.875,25.0393,293.471
2015-11-08 00:00:00,2015-11-08 00:00:00,TMP,surface,-105.938,25.0393,287.871
2015-11-08 00:00:00,2015-11-08 00:00:00,TMP,surface,-105,25.0393,290.442
2015-11-08 00:00:00,2015-11-08 00:00:00,TMP,surface,-104.063,25.0393,295.058
2015-11-08 00:00:00,2015-11-08 00:00:00,TMP,surface,-103.125,25.0393,297.54
2015-11-08 00:00:00,2015-11-08 00:00:00,TMP,surface,-102.188,25.0393,296.375
2015-11-08 00:00:00,2015-11-08 00:00:00,TMP,surface,-101.25,25.0393,293.841
2015-11-08 00:00:00,2015-11-08 00:00:00,TMP,surface,-100.313,25.0393,293.577
2015-11-08 00:00:00,2015-11-08 00:00:00,TMP,surface,-99.3754,25.0393,296.885
2015-11-08 00:00:00,2015-11-08 00:00:00,TMP,surface,-98.4379,25.0393,299.636
2015-11-08 00:00:00,2015-11-08 00:00:00,TMP,surface,-97.5004,25.0393,298.596
2015-11-08 00:00:00,2015-11-08 00:00:00,TMP,surface,-96.5629,25.0393,298.426
2015-11-08 00:00:00,2015-11-08 00:00:00,TMP,surface,-95.6254,25.0393,298.773
2015-11-08 00:00:00,2015-11-08 00:00:00,TMP,surface,-94.6879,25.0393,298.964
2015-11-08 00:00:00,2015-11-08 00:00:00,TMP,surface,-93.7504,25.0393,298.944
2015-11-08 00:00:00,2015-11-08 00:00:00,TMP,surface,-92.8129,25.0393,298.996
2015-11-08 00:00:00,2015-11-08 00:00:00,TMP,surface,-107.813,25.9842,295.484
2015-11-08 00:00:00,2015-11-08 00:00:00,TMP,surface,-106.875,25.9842,289.741
2015-11-08 00:00:00,2015-11-08 00:00:00,TMP,surface,-105.938,25.9842,289.007
2015-11-08 00:00:00,2015-11-08 00:00:00,TMP,surface,-105,25.9842,293.253
2015-11-08 00:00:00,2015-11-08 00:00:00,TMP,surface,-104.063,25.9842,298.167
2015-11-08 00:00:00,2015-11-08 00:00:00,TMP,surface,-103.125,25.9842,299.641
2015-11-08 00:00:00,2015-11-08 00:00:00,TMP,surface,-102.188,25.9842,298.513
2015-11-08 00:00:00,2015-11-08 00:00:00,TMP,surface,-101.25,25.9842,296.829
2015-11-08 00:00:00,2015-11-08 00:00:00,TMP,surface,-100.313,25.9842,296.605
2015-11-08 00:00:00,2015-11-08 00:00:00,TMP,surface,-99.3754,25.9842,299.612
2015-11-08 00:00:00,2015-11-08 00:00:00,TMP,surface,-98.4379,25.9842,300.029
2015-11-08 00:00:00,2015-11-08 00:00:00,TMP,surface,-97.5004,25.9842,298.786
2015-11-08 00:00:00,2015-11-08 00:00:00,TMP,surface,-96.5629,25.9842,296.453
2015-11-08 00:00:00,2015-11-08 00:00:00,TMP,surface,-95.6254,25.9842,297.823
2015-11-08 00:00:00,2015-11-08 00:00:00,TMP,surface,-94.6879,25.9842,298.529
2015-11-08 00:00:00,2015-11-08 00:00:00,TMP,surface,-93.7504,25.9842,298.549
2015-11-08 00:00:00,2015-11-08 00:00:00,TMP,surface,-92.8129,25.9842,298.592
2015-11-08 00:00:00,2015-11-08 00:00:00,TMP,surface,-107.813,26.929,290.823
2015-11-08 00:00:00,2015-11-08 00:00:00,TMP,surface,-106.875,26.929,288.701
2015-11-08 00:00:00,2015-11-08 00:00:00,TMP,surface,-105.938,26.929,291.812
2015-11-08 00:00:00,2015-11-08 00:00:00,TMP,surface,-105,26.929,296.644
2015-11-08 00:00:00,2015-11-08 00:00:00,TMP,surface,-104.063,26.929,299.108
2015-11-08 00:00:00,2015-11-08 00:00:00,TMP,surface,-103.125,26.929,298.585
2015-11-08 00:00:00,2015-11-08 00:00:00,TMP,surface,-102.188,26.929,297.72
2015-11-08 00:00:00,2015-11-08 00:00:00,TMP,surface,-101.25,26.929,297.509
2015-11-08 00:00:00,2015-11-08 00:00:00,TMP,surface,-100.313,26.929,299.042
2015-11-08 00:00:00,2015-11-08 00:00:00,TMP,surface,-99.3754,26.929,300.625
2015-11-08 00:00:00,2015-11-08 00:00:00,TMP,surface,-98.4379,26.929,299.162
2015-11-08 00:00:00,2015-11-08 00:00:00,TMP,surface,-97.5004,26.929,295.66
2015-11-08 00:00:00,2015-11-08 00:00:00,TMP,surface,-96.5629,26.929,295.572
2015-11-08 00:00:00,2015-11-08 00:00:00,TMP,surface,-95.6254,26.929,296.964
2015-11-08 00:00:00,2015-11-08 00:00:00,TMP,surface,-94.6879,26.929,297.922
2015-11-08 00:00:00,2015-11-08 00:00:00,TMP,surface,-93.7504,26.929,297.975
2015-11-08 00:00:00,2015-11-08 00:00:00,TMP,surface,-92.8129,26.929,297.906
2015-11-08 00:00:00,2015-11-08 00:00:00,TMP,surface,-107.813,27.8739,288.898
2015-11-08 00:00:00,2015-11-08 00:00:00,TMP,surface,-106.875,27.8739,289.714
2015-11-08 00:00:00,2015-11-08 00:00:00,TMP,surface,-105.938,27.8739,294.586
2015-11-08 00:00:00,2015-11-08 00:00:00,TMP,surface,-105,27.8739,297.824
2015-11-08 00:00:00,2015-11-08 00:00:00,TMP,surface,-104.063,27.8739,298.327
2015-11-08 00:00:00,2015-11-08 00:00:00,TMP,surface,-103.125,27.8739,296.62
2015-11-08 00:00:00,2015-11-08 00:00:00,TMP,surface,-102.188,27.8739,295.402
2015-11-08 00:00:00,2015-11-08 00:00:00,TMP,surface,-101.25,27.8739,296.668
2015-11-08 00:00:00,2015-11-08 00:00:00,TMP,surface,-100.313,27.8739,298.648
2015-11-08 00:00:00,2015-11-08 00:00:00,TMP,surface,-99.3754,27.8739,298.941
2015-11-08 00:00:00,2015-11-08 00:00:00,TMP,surface,-98.4379,27.8739,297.642
2015-11-08 00:00:00,2015-11-08 00:00:00,TMP,surface,-97.5004,27.8739,296.471
2015-11-08 00:00:00,2015-11-08 00:00:00,TMP,surface,-96.5629,27.8739,296.244
2015-11-08 00:00:00,2015-11-08 00:00:00,TMP,surface,-95.6254,27.8739,296.618
2015-11-08 00:00:00,2015-11-08 00:00:00,TMP,surface,-94.6879,27.8739,297.066
2015-11-08 00:00:00,2015-11-08 00:00:00,TMP,surface,-93.7504,27.8739,297.193
2015-11-08 00:00:00,2015-11-08 00:00:00,TMP,surface,-92.8129,27.8739,297.172
2015-11-08 00:00:00,2015-11-08 00:00:00,TMP,surface,-107.813,28.8188,288.799
2015-11-08 00:00:00,2015-11-08 00:00:00,TMP,surface,-106.875,28.8188,291.272
2015-11-08 00:00:00,2015-11-08 00:00:00,TMP,surface,-105.938,28.8188,295.594
2015-11-08 00:00:00,2015-11-08 00:00:00,TMP,surface,-105,28.8188,298.37
2015-11-08 00:00:00,2015-11-08 00:00:00,TMP,surface,-104.063,28.8188,297.514
2015-11-08 00:00:00,2015-11-08 00:00:00,TMP,surface,-103.125,28.8188,295.234
2015-11-08 00:00:00,2015-11-08 00:00:00,TMP,surface,-102.188,28.8188,294.167
2015-11-08 00:00:00,2015-11-08 00:00:00,TMP,surface,-101.25,28.8188,295.493
2015-11-08 00:00:00,2015-11-08 00:00:00,TMP,surface,-100.313,28.8188,296.38
2015-11-08 00:00:00,2015-11-08 00:00:00,TMP,surface,-99.3754,28.8188,296.223
2015-11-08 00:00:00,2015-11-08 00:00:00,TMP,surface,-98.4379,28.8188,295.983
2015-11-08 00:00:00,2015-11-08 00:00:00,TMP,surface,-97.5004,28.8188,296.095
2015-11-08 00:00:00,2015-11-08 00:00:00,TMP,surface,-96.5629,28.8188,296.46
2015-11-08 00:00:00,2015-11-08 00:00:00,TMP,surface,-95.6254,28.8188,296.042
2015-11-08 00:00:00,2015-11-08 00:00:00,TMP,surface,-94.6879,28.8188,295.175
2015-11-08 00:00:00,2015-11-08 00:00:00,TMP,surface,-93.7504,28.8188,295.94
2015-11-08 00:00:00,2015-11-08 00:00:00,TMP,surface,-92.8129,28.8188,296.208
2015-11-08 00:00:00,2015-11-08 00:00:00,TMP,surface,-107.813,29.7637,291.17
2015-11-08 00:00:00,2015-11-08 00:00:00,TMP,surface,-106.875,29.7637,293.647
2015-11-08 00:00:00,2015-11-08 00:00:00,TMP,surface,-105.938,29.7637,296.524
2015-11-08 00:00:00,2015-11-08 00:00:00,TMP,surface,-105,29.7637,297.424
2015-11-08 00:00:00,2015-11-08 00:00:00,TMP,surface,-104.063,29.7637,296.685
2015-11-08 00:00:00,2015-11-08 00:00:00,TMP,surface,-103.125,29.7637,295.592
2015-11-08 00:00:00,2015-11-08 00:00:00,TMP,surface,-102.188,29.7637,295.247
2015-11-08 00:00:00,2015-11-08 00:00:00,TMP,surface,-101.25,29.7637,295.151
2015-11-08 00:00:00,2015-11-08 00:00:00,TMP,surface,-100.313,29.7637,294.533
2015-11-08 00:00:00,2015-11-08 00:00:00,TMP,surface,-99.3754,29.7637,294.188
2015-11-08 00:00:00,2015-11-08 00:00:00,TMP,surface,-98.4379,29.7637,294.444
2015-11-08 00:00:00,2015-11-08 00:00:00,TMP,surface,-97.5004,29.7637,295.013
2015-11-08 00:00:00,2015-11-08 00:00:00,TMP,surface,-96.5629,29.7637,295.48
2015-11-08 00:00:00,2015-11-08 00:00:00,TMP,surface,-95.6254,29.7637,295.74
2015-11-08 00:00:00,2015-11-08 00:00:00,TMP,surface,-94.6879,29.7637,295.592
2015-11-08 00:00:00,2015-11-08 00:00:00,TMP,surface,-93.7504,29.7637,295.412
2015-11-08 00:00:00,2015-11-08 00:00:00,TMP,surface,-92.8129,29.7637,296.784
2015-11-08 00:00:00,2015-11-08 00:00:00,TMP,surface,-107.813,30.7085,295.007
2015-11-08 00:00:00,2015-11-08 00:00:00,TMP,surface,-106.875,30.7085,296.212
2015-11-08 00:00:00,2015-11-08 00:00:00,TMP,surface,-105.938,30.7085,296.618
2015-11-08 00:00:00,2015-11-08 00:00:00,TMP,surface,-105,30.7085,296.18
2015-11-08 00:00:00,2015-11-08 00:00:00,TMP,surface,-104.063,30.7085,295.44
2015-11-08 00:00:00,2015-11-08 00:00:00,TMP,surface,-103.125,30.7085,295.959
2015-11-08 00:00:00,2015-11-08 00:00:00,TMP,surface,-102.188,30.7085,295.674
2015-11-08 00:00:00,2015-11-08 00:00:00,TMP,surface,-101.25,30.7085,294.732
2015-11-08 00:00:00,2015-11-08 00:00:00,TMP,surface,-100.313,30.7085,293.722
2015-11-08 00:00:00,2015-11-08 00:00:00,TMP,surface,-99.3754,30.7085,293.461
2015-11-08 00:00:00,2015-11-08 00:00:00,TMP,surface,-98.4379,30.7085,293.986
2015-11-08 00:00:00,2015-11-08 00:00:00,TMP,surface,-97.5004,30.7085,294.634
2015-11-08 00:00:00,2015-11-08 00:00:00,TMP,surface,-96.5629,30.7085,295.402
2015-11-08 00:00:00,2015-11-08 00:00:00,TMP,surface,-95.6254,30.7085,296.012
2015-11-08 00:00:00,2015-11-08 00:00:00,TMP,surface,-94.6879,30.7085,296.015
2015-11-08 00:00:00,2015-11-08 00:00:00,TMP,surface,-93.7504,30.7085,296.149
2015-11-08 00:00:00,2015-11-08 00:00:00,TMP,surface,-92.8129,30.7085,296.071
2015-11-08 00:00:00,2015-11-08 00:00:00,TMP,surface,-107.813,31.6534,295.605
2015-11-08 00:00:00,2015-11-08 00:00:00,TMP,surface,-106.875,31.6534,295.973
2015-11-08 00:00:00,2015-11-08 00:00:00,TMP,surface,-105.938,31.6534,296.16
2015-11-08 00:00:00,2015-11-08 00:00:00,TMP,surface,-105,31.6534,295.626
2015-11-08 00:00:00,2015-11-08 00:00:00,TMP,surface,-104.063,31.6534,295.981
2015-11-08 00:00:00,2015-11-08 00:00:00,TMP,surface,-103.125,31.6534,296.125
2015-11-08 00:00:00,2015-11-08 00:00:00,TMP,surface,-102.188,31.6534,295.639
2015-11-08 00:00:00,2015-11-08 00:00:00,TMP,surface,-101.25,31.6534,294.599
2015-11-08 00:00:00,2015-11-08 00:00:00,TMP,surface,-100.313,31.6534,293.924
2015-11-08 00:00:00,2015-11-08 00:00:00,TMP,surface,-99.3754,31.6534,293.784
2015-11-08 00:00:00,2015-11-08 00:00:00,TMP,surface,-98.4379,31.6534,294.159
2015-11-08 00:00:00,2015-11-08 00:00:00,TMP,surface,-97.5004,31.6534,294.648
2015-11-08 00:00:00,2015-11-08 00:00:00,TMP,surface,-96.5629,31.6534,295.439
2015-11-08 00:00:00,2015-11-08 00:00:00,TMP,surface,-95.6254,31.6534,296.167
2015-11-08 00:00:00,2015-11-08 00:00:00,TMP,surface,-94.6879,31.6534,296.103
2015-11-08 00:00:00,2015-11-08 00:00:00,TMP,surface,-93.7504,31.6534,296.056
2015-11-08 00:00:00,2015-11-08 00:00:00,TMP,surface,-92.8129,31.6534,296.207
2015-11-08 00:00:00,2015-11-08 00:00:00,TMP,surface,-107.813,32.5983,292.471
2015-11-08 00:00:00,2015-11-08 00:00:00,TMP,surface,-106.875,32.5983,293.33
2015-11-08 00:00:00,2015-11-08 00:00:00,TMP,surface,-105.938,32.5983,294.037
2015-11-08 00:00:00,2015-11-08 00:00:00,TMP,surface,-105,32.5983,294.719
2015-11-08 00:00:00,2015-11-08 00:00:00,TMP,surface,-104.063,32.5983,295.652
2015-11-08 00:00:00,2015-11-08 00:00:00,TMP,surface,-103.125,32.5983,296.226
2015-11-08 00:00:00,2015-11-08 00:00:00,TMP,surface,-102.188,32.5983,295.34
2015-11-08 00:00:00,2015-11-08 00:00:00,TMP,surface,-101.25,32.5983,294.444
2015-11-08 00:00:00,2015-11-08 00:00:00,TMP,surface,-100.313,32.5983,294.314
2015-11-08 00:00:00,2015-11-08 00:00:00,TMP,surface,-99.3754,32.5983,294.325
2015-11-08 00:00:00,2015-11-08 00:00:00,TMP,surface,-98.4379,32.5983,294.373
2015-11-08 00:00:00,2015-11-08 00:00:00,TMP,surface,-97.5004,32.5983,294.626
2015-11-08 00:00:00,2015-11-08 00:00:00,TMP,surface,-96.5629,32.5983,295.269
2015-11-08 00:00:00,2015-11-08 00:00:00,TMP,surface,-95.6254,32.5983,295.975
2015-11-08 00:00:00,2015-11-08 00:00:00,TMP,surface,-94.6879,32.5983,296.127
2015-11-08 00:00:00,2015-11-08 00:00:00,TMP,surface,-93.7504,32.5983,296.026
2015-11-08 00:00:00,2015-11-08 00:00:00,TMP,surface,-92.8129,32.5983,296.357
2015-11-08 00:00:00,2015-11-08 00:00:00,TMP,surface,-107.813,33.5432,288.577
2015-11-08 00:00:00,2015-11-08 00:00:00,TMP,surface,-106.875,33.5432,290.508
2015-11-08 00:00:00,2015-11-08 00:00:00,TMP,surface,-105.938,33.5432,292.093
2015-11-08 00:00:00,2015-11-08 00:00:00,TMP,surface,-105,33.5432,293.656
2015-11-08 00:00:00,2015-11-08 00:00:00,TMP,surface,-104.063,33.5432,295.247
2015-11-08 00:00:00,2015-11-08 00:00:00,TMP,surface,-103.125,33.5432,295.482
2015-11-08 00:00:00,2015-11-08 00:00:00,TMP,surface,-102.188,33.5432,294.656
2015-11-08 00:00:00,2015-11-08 00:00:00,TMP,surface,-101.25,33.5432,293.897
2015-11-08 00:00:00,2015-11-08 00:00:00,TMP,surface,-100.313,33.5432,294.228
2015-11-08 00:00:00,2015-11-08 00:00:00,TMP,surface,-99.3754,33.5432,294.466
2015-11-08 00:00:00,2015-11-08 00:00:00,TMP,surface,-98.4379,33.5432,294.316
2015-11-08 00:00:00,2015-11-08 00:00:00,TMP,surface,-97.5004,33.5432,294.261
2015-11-08 00:00:00,2015-11-08 00:00:00,TMP,surface,-96.5629,33.5432,294.485
2015-11-08 00:00:00,2015-11-08 00:00:00,TMP,surface,-95.6254,33.5432,295.026
2015-11-08 00:00:00,2015-11-08 00:00:00,TMP,surface,-94.6879,33.5432,295.514
2015-11-08 00:00:00,2015-11-08 00:00:00,TMP,surface,-93.7504,33.5432,295.432
2015-11-08 00:00:00,2015-11-08 00:00:00,TMP,surface,-92.8129,33.5432,295.783
2015-11-08 00:00:00,2015-11-08 00:00:00,TMP,surface,-107.813,34.4881,287.244
2015-11-08 00:00:00,2015-11-08 00:00:00,TMP,surface,-106.875,34.4881,289.404
2015-11-08 00:00:00,2015-11-08 00:00:00,TMP,surface,-105.938,34.4881,290.818
2015-11-08 00:00:00,2015-11-08 00:00:00,TMP,surface,-105,34.4881,292.853
2015-11-08 00:00:00,2015-11-08 00:00:00,TMP,surface,-104.063,34.4881,294.255
2015-11-08 00:00:00,2015-11-08 00:00:00,TMP,surface,-103.125,34.4881,294.621
2015-11-08 00:00:00,2015-11-08 00:00:00,TMP,surface,-102.188,34.4881,294.093
2015-11-08 00:00:00,2015-11-08 00:00:00,TMP,surface,-101.25,34.4881,293.695
2015-11-08 00:00:00,2015-11-08 00:00:00,TMP,surface,-100.313,34.4881,293.745
2015-11-08 00:00:00,2015-11-08 00:00:00,TMP,surface,-99.3754,34.4881,293.981
2015-11-08 00:00:00,2015-11-08 00:00:00,TMP,surface,-98.4379,34.4881,293.909
2015-11-08 00:00:00,2015-11-08 00:00:00,TMP,surface,-97.5004,34.4881,293.804
2015-11-08 00:00:00,2015-11-08 00:00:00,TMP,surface,-96.5629,34.4881,294.266
2015-11-08 00:00:00,2015-11-08 00:00:00,TMP,surface,-95.6254,34.4881,294.924
2015-11-08 00:00:00,2015-11-08 00:00:00,TMP,surface,-94.6879,34.4881,294.935
2015-11-08 00:00:00,2015-11-08 00:00:00,TMP,surface,-93.7504,34.4881,294.666
2015-11-08 00:00:00,2015-11-08 00:00:00,TMP,surface,-92.8129,34.4881,295.087
2015-11-08 00:00:00,2015-11-08 00:00:00,TMP,surface,-107.813,35.4329,287.506
2015-11-08 00:00:00,2015-11-08 00:00:00,TMP,surface,-106.875,35.4329,288.268
2015-11-08 00:00:00,2015-11-08 00:00:00,TMP,surface,-105.938,35.4329,288.887
2015-11-08 00:00:00,2015-11-08 00:00:00,TMP,surface,-105,35.4329,290.34
2015-11-08 00:00:00,2015-11-08 00:00:00,TMP,surface,-104.063,35.4329,292.956
2015-11-08 00:00:00,2015-11-08 00:00:00,TMP,surface,-103.125,35.4329,294.234
2015-11-08 00:00:00,2015-11-08 00:00:00,TMP,surface,-102.188,35.4329,294.173
2015-11-08 00:00:00,2015-11-08 00:00:00,TMP,surface,-101.25,35.4329,293.748
2015-11-08 00:00:00,2015-11-08 00:00:00,TMP,surface,-100.313,35.4329,293.314
2015-11-08 00:00:00,2015-11-08 00:00:00,TMP,surface,-99.3754,35.4329,293.231
2015-11-08 00:00:00,2015-11-08 00:00:00,TMP,surface,-98.4379,35.4329,293.353
2015-11-08 00:00:00,2015-11-08 00:00:00,TMP,surface,-97.5004,35.4329,293.56
2015-11-08 00:00:00,2015-11-08 00:00:00,TMP,surface,-96.5629,35.4329,293.81
2015-11-08 00:00:00,2015-11-08 00:00:00,TMP,surface,-95.6254,35.4329,294.212
2015-11-08 00:00:00,2015-11-08 00:00:00,TMP,surface,-94.6879,35.4329,294.479
2015-11-08 00:00:00,2015-11-08 00:00:00,TMP,surface,-93.7504,35.4329,294.065
2015-11-08 00:00:00,2015-11-08 00:00:00,TMP,surface,-92.8129,35.4329,294.096
2015-11-08 00:00:00,2015-11-08 00:00:00,TMP,surface,-107.813,36.3778,286.625
2015-11-08 00:00:00,2015-11-08 00:00:00,TMP,surface,-106.875,36.3778,284.615
2015-11-08 00:00:00,2015-11-08 00:00:00,TMP,surface,-105.938,36.3778,285.717
2015-11-08 00:00:00,2015-11-08 00:00:00,TMP,surface,-105,36.3778,287.357
2015-11-08 00:00:00,2015-11-08 00:00:00,TMP,surface,-104.063,36.3778,290.757
2015-11-08 00:00:00,2015-11-08 00:00:00,TMP,surface,-103.125,36.3778,292.488
2015-11-08 00:00:00,2015-11-08 00:00:00,TMP,surface,-102.188,36.3778,293.453
2015-11-08 00:00:00,2015-11-08 00:00:00,TMP,surface,-101.25,36.3778,293.53
2015-11-08 00:00:00,2015-11-08 00:00:00,TMP,surface,-100.313,36.3778,293.373
2015-11-08 00:00:00,2015-11-08 00:00:00,TMP,surface,-99.3754,36.3778,293.247
2015-11-08 00:00:00,2015-11-08 00:00:00,TMP,surface,-98.4379,36.3778,293.138
2015-11-08 00:00:00,2015-11-08 00:00:00,TMP,surface,-97.5004,36.3778,293.282
2015-11-08 00:00:00,2015-11-08 00:00:00,TMP,surface,-96.5629,36.3778,293.644
2015-11-08 00:00:00,2015-11-08 00:00:00,TMP,surface,-95.6254,36.3778,294.06
2015-11-08 00:00:00,2015-11-08 00:00:00,TMP,surface,-94.6879,36.3778,294.237
2015-11-08 00:00:00,2015-11-08 00:00:00,TMP,surface,-93.7504,36.3778,293.82
2015-11-08 00:00:00,2015-11-08 00:00:00,TMP,surface,-92.8129,36.3778,293.709
2015-11-08 00:00:00,2015-11-08 00:00:00,PRATE,surface,-107.813,25.0393,0
2015-11-08 00:00:00,2015-11-08 00:00:00,PRATE,surface,-106.875,25.0393,8.4e-06
2015-11-08 00:00:00,2015-11-08 00:00:00,PRATE,surface,-105.938,25.0393,2.04e-05
2015-11-08 00:00:00,2015-11-08 00:00:00,PRATE,surface,-105,25.0393,1.16e-05
2015-11-08 00:00:00,2015-11-08 00:00:00,PRATE,surface,-104.063,25.0393,6.8e-06
2015-11-08 00:00:00,2015-11-08 00:00:00,PRATE,surface,-103.125,25.0393,3.7e-06
2015-11-08 00:00:00,2015-11-08 00:00:00,PRATE,surface,-102.188,25.0393,9.1e-06
2015-11-08 00:00:00,2015-11-08 00:00:00,PRATE,surface,-101.25,25.0393,3.95e-05
2015-11-08 00:00:00,2015-11-08 00:00:00,PRATE,surface,-100.313,25.0393,8.03e-05
2015-11-08 00:00:00,2015-11-08 00:00:00,PRATE,surface,-99.3754,25.0393,3.01e-05
2015-11-08 00:00:00,2015-11-08 00:00:00,PRATE,surface,-98.4379,25.0393,1.2e-05
2015-11-08 00:00:00,2015-11-08 00:00:00,PRATE,surface,-97.5004,25.0393,6.3e-06
2015-11-08 00:00:00,2015-11-08 00:00:00,PRATE,surface,-96.5629,25.0393,2.3e-06
2015-11-08 00:00:00,2015-11-08 00:00:00,PRATE,surface,-95.6254,25.0393,1e-07
2015-11-08 00:00:00,2015-11-08 00:00:00,PRATE,surface,-94.6879,25.0393,4e-07
2015-11-08 00:00:00,2015-11-08 00:00:00,PRATE,surface,-93.7504,25.0393,2.5e-06
2015-11-08 00:00:00,2015-11-08 00:00:00,PRATE,surface,-92.8129,25.0393,6.6e-06
2015-11-08 00:00:00,2015-11-08 00:00:00,PRATE,surface,-107.813,25.9842,8e-07
2015-11-08 00:00:00,2015-11-08 00:00:00,PRATE,surface,-106.875,25.9842,1.29e-05
2015-11-08 00:00:00,2015-11-08 00:00:00,PRATE,surface,-105.938,25.9842,1.7e-05
2015-11-08 00:00:00,2015-11-08 00:00:00,PRATE,surface,-105,25.9842,1.71e-05
2015-11-08 00:00:00,2015-11-08 00:00:00,PRATE,surface,-104.063,25.9842,7.1e-06
2015-11-08 00:00:00,2015-11-08 00:00:00,PRATE,surface,-103.125,25.9842,2.6e-06
2015-11-08 00:00:00,2015-11-08 00:00:00,PRATE,surface,-102.188,25.9842,5.1e-06
2015-11-08 00:00:00,2015-11-08 00:00:00,PRATE,surface,-101.25,25.9842,2.46e-05
2015-11-08 00:00:00,2015-11-08 00:00:00,PRATE,surface,-100.313,25.9842,5.37e-05
2015-11-08 00:00:00,2015-11-08 00:00:00,PRATE,surface,-99.3754,25.9842,1.57e-05
2015-11-08 00:00:00,2015-11-08 00:00:00,PRATE,surface,-98.4379,25.9842,1.55e-05
2015-11-08 00:00:00,2015-11-08 00:00:00,PRATE,surface,-97.5004,25.9842,1.27e-05
2015-11-08 00:00:00,2015-11-08 00:00:00,PRATE,surface,-96.5629,25.9842,2.4e-06
2015-11-08 00:00:00,2015-11-08 00:00:00,PRATE,surface,-95.6254,25.9842,7e-07
2015-11-08 00:00:00,2015-11-08 00:00:00,PRATE,surface,-94.6879,25.9842,7e-07
2015-11-08 00:00:00,2015-11-08 00:00:00,PRATE,surface,-93.7504,25.9842,5.3e-06
2015-11-08 00:00:00,2015-11-08 00:00:00,PRATE,surface,-92.8129,25.9842,4.9e-06
2015-11-08 00:00:00,2015-11-08 00:00:00,PRATE,surface,-107.813,26.929,5.1e-06
2015-11-08 00:00:00,2015-11-08 00:00:00,PRATE,surface,-106.875,26.929,1.42e-05
2015-11-08 00:00:00,2015-11-08 00:00:00,PRATE,surface,-105.938,26.929,1.66e-05
2015-11-08 00:00:00,2015-11-08 00:00:00,PRATE,surface,-105,26.929,5.3e-06
2015-11-08 00:00:00,2015-11-08 00:00:00,PRATE,surface,-104.063,26.929,3.9e-06
2015-11-08 00:00:00,2015-11-08 00:00:00,PRATE,surface,-103.125,26.929,9.1e-06
2015-11-08 00:00:00,2015-11-08 00:00:00,PRATE,surface,-102.188,26.929,5.4e-06
2015-11-08 00:00:00,2015-11-08 00:00:00,PRATE,surface,-101.25,26.929,3.72e-05
2015-11-08 00:00:00,2015-11-08 00:00:00,PRATE,surface,-100.313,26.929,2.52e-05
2015-11-08 00:00:00,2015-11-08 00:00:00,PRATE,surface,-99.3754,26.929,1.03e-05
2015-11-08 00:00:00,2015-11-08 00:00:00,PRATE,surface,-98.4379,26.929,2.93e-05
2015-11-08 00:00:00,2015-11-08 00:00:00,PRATE,surface,-97.5004,26.929,1.29e-05
2015-11-08 00:00:00,2015-11-08 00:00:00,PRATE,surface,-96.5629,26.929,2e-06
2015-11-08 00:00:00,2015-11-08 00:00:00,PRATE,surface,-95.6254,26.929,5e-07
2015-11-08 00:00:00,2015-11-08 00:00:00,PRATE,surface,-94.6879,26.929,3.5e-06
2015-11-08 00:00:00,2015-11-08 00:00:00,PRATE,surface,-93.7504,26.929,2.8e-06
2015-11-08 00:00:00,2015-11-08 00:00:00,PRATE,surface,-92.8129,26.929,4.4e-06
2015-11-08 00:00:00,2015-11-08 00:00:00,PRATE,surface,-107.813,27.8739,1.88e-05
2015-11-08 00:00:00,2015-11-08 00:00:00,PRATE,surface,-106.875,27.8739,2.9e-05
2015-11-08 00:00:00,2015-11-08 00:00:00,PRATE,surface,-105.938,27.8739,4.6e-06
2015-11-08 00:00:00,2015-11-08 00:00:00,PRATE,surface,-105,27.8739,8e-07
2015-11-08 00:00:00,2015-11-08 00:00:00,PRATE,surface,-104.063,27.8739,6.4e-06
2015-11-08 00:00:00,2015-11-08 00:00:00,PRATE,surface,-103.125,27.8739,1.55e-05
2015-11-08 00:00:00,2015-11-08 00:00:00,PRATE,surface,-102.188,27.8739,4.98e-05
2015-11-08 00:00:00,2015-11-08 00:00:00,PRATE,surface,-101.25,27.8739,4.36e-05
2015-11-08 00:00:00,2015-11-08 00:00:00,PRATE,surface,-100.313,27.8739,2.15e-05
2015-11-08 00:00:00,2015-11-08 00:00:00,PRATE,surface,-99.3754,27.8739,1.98e-05
2015-11-08 00:00:00,2015-11-08 00:00:00,PRATE,surface,-98.4379,27.8739,2.35e-05
2015-11-08 00:00:00,2015-11-08 00:00:00,PRATE,surface,-97.5004,27.8739,1.38e-05
2015-11-08 00:00:00,2015-11-08 00:00:00,PRATE,surface,-96.5629,27.8739,3.4e-06
2015-11-08 00:00:00,2015-11-08 00:00:00,PRATE,surface,-95.6254,27.8739,2.5e-06
2015-11-08 00:00:00,2015-11-08 00:00:00,PRATE,surface,-94.6879,27.8739,2.2e-06
2015-11-08 00:00:00,2015-11-08 00:00:00,PRATE,surface,-93.7504,27.8739,2.6e-06
2015-11-08 00:00:00,2015-11-08 00:00:00,PRATE,surface,-92.8129,27.8739,4.3e-06
2015-11-08 00:00:00,2015-11-08 00:00:00,PRATE,surface,-107.813,28.8188,3.42e-05
2015-11-08 00:00:00,2015-11-08 00:00:00,PRATE,surface,-106.875,28.8188,2.36e-05
2015-11-08 00:00:00,2015-11-08 00:00:00,PRATE,surface,-105.938,28.8188,2.9e-06
2015-11-08 00:00:00,2015-11-08 00:00:00,PRATE,surface,-105,28.8188,1.4e-06
2015-11-08 00:00:00,2015-11-08 00:00:00,PRATE,surface,-104.063,28.8188,7.9e-06
2015-11-08 00:00:00,2015-11-08 00:00:00,PRATE,surface,-103.125,28.8188,2.62e-05
2015-11-08 00:00:00,2015-11-08 00:00:00,PRATE,surface,-102.188,28.8188,4.33e-05
2015-11-08 00:00:00,2015-11-08 00:00:00,PRATE,surface,-101.25,28.8188,4.11e-05
2015-11-08 00:00:00,2015-11-08 00:00:00,PRATE,surface,-100.313,28.8188,3.04e-05
2015-11-08 00:00:00,2015-11-08 00:00:00,PRATE,surface,-99.3754,28.8188,2.88e-05
2015-11-08 00:00:00,2015-11-08 00:00:00,PRATE,surface,-98.4379,28.8188,3.23e-05
2015-11-08 00:00:00,2015-11-08 00:00:00,PRATE,surface,-97.5004,28.8188,2.57e-05
2015-11-08 00:00:00,2015-11-08 00:00:00,PRATE,surface,-96.5629,28.8188,1.7e-05
2015-11-08 00:00:00,2015-11-08 00:00:00,PRATE,surface,-95.6254,28.8188,1.28e-05
2015-11-08 00:00:00,2015-11-08 00:00:00,PRATE,surface,-94.6879,28.8188,6.5e-06
2015-11-08 00:00:00,2015-11-08 00:00:00,PRATE,surface,-93.7504,28.8188,6.2e-06
2015-11-08 00:00:00,2015-11-08 00:00:00,PRATE,surface,-92.8129,28.8188,8.2e-06
2015-11-08 00:00:00,2015-11-08 00:00:00,PRATE,surface,-107.813,29.7637,1.8e-05
2015-11-08 00:00:00,2015-11-08 00:00:00,PRATE,surface,-106.875,29.7637,6e-06
2015-11-08 00:00:00,2015-11-08 00:00:00,PRATE,surface,-105.938,29.7637,3.7e-06
2015-11-08 00:00:00,2015-11-08 00:00:00,PRATE,surface,-105,29.7637,5.7e-06
2015-11-08 00:00:00,2015-11-08 00:00:00,PRATE,surface,-104.063,29.7637,1.22e-05
2015-11-08 00:00:00,2015-11-08 00:00:00,PRATE,surface,-103.125,29.7637,2.14e-05
2015-11-08 00:00:00,2015-11-08 00:00:00,PRATE,surface,-102.188,29.7637,3.87e-05
2015-11-08 00:00:00,2015-11-08 00:00:00,PRATE,surface,-101.25,29.7637,4.53e-05
2015-11-08 00:00:00,2015-11-08 00:00:00,PRATE,surface,-100.313,29.7637,4.41e-05
2015-11-08 00:00:00,2015-11-08 00:00:00,PRATE,surface,-99.3754,29.7637,3.97e-05
2015-11-08 00:00:00,2015-11-08 00:00:00,PRATE,surface,-98.4379,29.7637,3.66e-05
2015-11-08 00:00:00,2015-11-08 00:00:00,PRATE,surface,-97.5004,29.7637,3.94e-05
2015-11-08 00:00:00,2015-11-08 00:00:00,PRATE,surface,-96.5629,29.7637,4.26e-05
2015-11-08 00:00:00,2015-11-08 00:00:00,PRATE,surface,-95.6254,29.7637,3.79e-05
2015-11-08 00:00:00,2015-11-08 00:00:00,PRATE,surface,-94.6879,29.7637,2.67e-05
2015-11-08 00:00:00,2015-11-08 00:00:00,PRATE,surface,-93.7504,29.7637,1.96e-05
2015-11-08 00:00:00,2015-11-08 00:00:00,PRATE,surface,-92.8129,29.7637,2.86e-05
2015-11-08 00:00:00,2015-11-08 00:00:00,PRATE,surface,-107.813,30.7085,2.2e-06
2015-11-08 00:00:00,2015-11-08 00:00:00,PRATE,surface,-106.875,30.7085,1.6e-06
2015-11-08 00:00:00,2015-11-08 00:00:00,PRATE,surface,-105.938,30.7085,3.6e-06
2015-11-08 00:00:00,2015-11-08 00:00:00,PRATE,surface,-105,30.7085,1.38e-05
2015-11-08 00:00:00,2015-11-08 00:00:00,PRATE,surface,-104.063,30.7085,2.09e-05
2015-11-08 00:00:00,2015-11-08 00:00:00,PRATE,surface,-103.125,30.7085,2.68e-05
2015-11-08 00:00:00,2015-11-08 00:00:00,PRATE,surface,-102.188,30.7085,4.42e-05
2015-11-08 00:00:00,2015-11-08 00:00:00,PRATE,surface,-101.25,30.7085,5.64e-05
2015-11-08 00:00:00,2015-11-08 00:00:00,PRATE,surface,-100.313,30.7085,6.02e-05
2015-11-08 00:00:00,2015-11-08 00:00:00,PRATE,surface,-99.3754,30.7085,4.41e-05
2015-11-08 00:00:00,2015-11-08 00:00:00,PRATE,surface,-98.4379,30.7085,3.05e-05
2015-11-08 00:00:00,2015-11-08 00:00:00,PRATE,surface,-97.5004,30.7085,3.55e-05
2015-11-08 00:00:00,2015-11-08 00:00:00,PRATE,surface,-96.5629,30.7085,4.35e-05
2015-11-08 00:00:00,2015-11-08 00:00:00,PRATE,surface,-95.6254,30.7085,4.14e-05
2015-11-08 00:00:00,2015-11-08 00:00:00,PRATE,surface,-94.6879,30.7085,3.87e-05
2015-11-08 00:00:00,2015-11-08 00:00:00,PRATE,surface,-93.7504,30.7085,4.1e-05
2015-11-08 00:00:00,2015-11-08 00:00:00,PRATE,surface,-92.8129,30.7085,3.88e-05
2015-11-08 00:00:00,2015-11-08 00:00:00,PRATE,surface,-107.813,31.6534,3e-07
2015-11-08 00:00:00,2015-11-08 00:00:00,PRATE,surface,-106.875,31.6534,4e-07
2015-11-08 00:00:00,2015-11-08 00:00:00,PRATE,surface,-105.938,31.6534,2.4e-06
2015-11-08 00:00:00,2015-11-08 00:00:00,PRATE,surface,-105,31.6534,1.1e-05
2015-11-08 00:00:00,2015-11-08 00:00:00,PRATE,surface,-104.063,31.6534,1.92e-05
2015-11-08 00:00:00,2015-11-08 00:00:00,PRATE,surface,-103.125,31.6534,2.77e-05
2015-11-08 00:00:00,2015-11-08 00:00:00,PRATE,surface,-102.188,31.6534,4.24e-05
2015-11-08 00:00:00,2015-11-08 00:00:00,PRATE,surface,-101.25,31.6534,4.95e-05
2015-11-08 00:00:00,2015-11-08 00:00:00,PRATE,surface,-100.313,31.6534,4.56e-05
2015-11-08 00:00:00,2015-11-08 00:00:00,PRATE,surface,-99.3754,31.6534,3.05e-05
2015-11-08 00:00:00,2015-11-08 00:00:00,PRATE,surface,-98.4379,31.6534,2.18e-05
2015-11-08 00:00:00,2015-11-08 00:00:00,PRATE,surface,-97.5004,31.6534,2.64e-05
2015-11-08 00:00:00,2015-11-08 00:00:00,PRATE,surface,-96.5629,31.6534,3.18e-05
2015-11-08 00:00:00,2015-11-08 00:00:00,PRATE,surface,-95.6254,31.6534,3.36e-05
2015-11-08 00:00:00,2015-11-08 00:00:00,PRATE,surface,-94.6879,31.6534,3.67e-05
2015-11-08 00:00:00,2015-11-08 00:00:00,PRATE,surface,-93.7504,31.6534,3.67e-05
2015-11-08 00:00:00,2015-11-08 00:00:00,PRATE,surface,-92.8129,31.6534,3.34e-05
2015-11-08 00:00:00,2015-11-08 00:00:00,PRATE,surface,-107.813,32.5983,1.2e-06
2015-11-08 00:00:00,2015-11-08 00:00:00,PRATE,surface,-106.875,32.5983,9e-07
2015-11-08 00:00:00,2015-11-08 00:00:00,PRATE,surface,-105.938,32.5983,1.7e-06
2015-11-08 00:00:00,2015-11-08 00:00:00,PRATE,surface,-105,32.5983,7.1e-06
2015-11-08 00:00:00,2015-11-08 00:00:00,PRATE,surface,-104.063,32.5983,1.44e-05
2015-11-08 00:00:00,2015-11-08 00:00:00,PRATE,surface,-103.125,32.5983,2.5e-05
2015-11-08 00:00:00,2015-11-08 00:00:00,PRATE,surface,-102.188,32.5983,3.48e-05
2015-11-08 00:00:00,2015-11-08 00:00:00,PRATE,surface,-101.25,32.5983,5.39e-05
2015-11-08 00:00:00,2015-11-08 00:00:00,PRATE,surface,-100.313,32.5983,4.73e-05
2015-11-08 00:00:00,2015-11-08 00:00:00,PRATE,surface,-99.3754,32.5983,3.33e-05
2015-11-08 00:00:00,2015-11-08 00:00:00,PRATE,surface,-98.4379,32.5983,3.29e-05
2015-11-08 00:00:00,2015-11-08 00:00:00,PRATE,surface,-97.5004,32.5983,3.42e-05
2015-11-08 00:00:00,2015-11-08 00:00:00,PRATE,surface,-96.5629,32.5983,3.16e-05
2015-11-08 00:00:00,2015-11-08 00:00:00,PRATE,surface,-95.6254,32.5983,3.34e-05
2015-11-08 00:00:00,2015-11-08 00:00:00,PRATE,surface,-94.6879,32.5983,3.83e-05
2015-11-08 00:00:00,2015-11-08 00:00:00,PRATE,surface,-93.7504,32.5983,3.82e-05
2015-11-08 00:00:00,2015-11-08 00:00:00,PRATE,surface,-92.8129,32.5983,3.05e-05
2015-11-08 00:00:00,2015-11-08 00:00:00,PRATE,surface,-107.813,33.5432,5.4e-06
2015-11-08 00:00:00,2015-11-08 00:00:00,PRATE,surface,-106.875,33.5432,4.4e-06
2015-11-08 00:00:00,2015-11-08 00:00:00,PRATE,surface,-105.938,33.5432,3e-06
2015-11-08 00:00:00,2015-11-08 00:00:00,PRATE,surface,-105,33.5432,6.4e-06
2015-11-08 00:00:00,2015-11-08 00:00:00,PRATE,surface,-104.063,33.5432,9.1e-06
2015-11-08 00:00:00,2015-11-08 00:00:00,PRATE,surface,-103.125,33.5432,1.6e-05
2015-11-08 00:00:00,2015-11-08 00:00:00,PRATE,surface,-102.188,33.5432,3.58e-05
2015-11-08 00:00:00,2015-11-08 00:00:00,PRATE,surface,-101.25,33.5432,5.62e-05
2015-11-08 00:00:00,2015-11-08 00:00:00,PRATE,surface,-100.313,33.5432,5.52e-05
2015-11-08 00:00:00,2015-11-08 00:00:00,PRATE,surface,-99.3754,33.5432,4.21e-05
2015-11-08 00:00:00,2015-11-08 00:00:00,PRATE,surface,-98.4379,33.5432,3.85e-05
2015-11-08 00:00:00,2015-11-08 00:00:00,PRATE,surface,-97.5004,33.5432,4.08e-05
2015-11-08 00:00:00,2015-11-08 00:00:00,PRATE,surface,-96.5629,33.5432,3.67e-05
2015-11-08 00:00:00,2015-11-08 00:00:00,PRATE,surface,-95.6254,33.5432,3.23e-05
2015-11-08 00:00:00,2015-11-08 00:00:00,PRATE,surface,-94.6879,33.5432,3.96e-05
2015-11-08 00:00:00,2015-11-08 00:00:00,PRATE,surface,-93.7504,33.5432,4.76e-05
2015-11-08 00:00:00,2015-11-08 00:00:00,PRATE,surface,-92.8129,33.5432,3.61e-05
2015-11-08 00:00:00,2015-11-08 00:00:00,PRATE,surface,-107.813,34.4881,7e-06
2015-11-08 00:00:00,2015-11-08 00:00:00,PRATE,surface,-106.875,34.4881,5e-06
2015-11-08 00:00:00,2015-11-08 00:00:00,PRATE,surface,-105.938,34.4881,4.4e-06
2015-11-08 00:00:00,2015-11-08 00:00:00,PRATE,surface,-105,34.4881,7.3e-06
2015-11-08 00:00:00,2015-11-08 00:00:00,PRATE,surface,-104.063,34.4881,8.8e-06
2015-11-08 00:00:00,2015-11-08 00:00:00,PRATE,surface,-103.125,34.4881,1.96e-05
2015-11-08 00:00:00,2015-11-08 00:00:00,PRATE,surface,-102.188,34.4881,4.1e-05
2015-11-08 00:00:00,2015-11-08 00:00:00,PRATE,surface,-101.25,34.4881,6.63e-05
2015-11-08 00:00:00,2015-11-08 00:00:00,PRATE,surface,-100.313,34.4881,7.51e-05
2015-11-08 00:00:00,2015-11-08 00:00:00,PRATE,surface,-99.3754,34.4881,7e-05
2015-11-08 00:00:00,2015-11-08 00:00:00,PRATE,surface,-98.4379,34.4881,7.11e-05
2015-11-08 00:00:00,2015-11-08 00:00:00,PRATE,surface,-97.5004,34.4881,7.32e-05
2015-11-08 00:00:00,2015-11-08 00:00:00,PRATE,surface,-96.5629,34.4881,6.27e-05
2015-11-08 00:00:00,2015-11-08 00:00:00,PRATE,surface,-95.6254,34.4881,5.01e-05
2015-11-08 00:00:00,2015-11-08 00:00:00,PRATE,surface,-94.6879,34.4881,5.09e-05
2015-11-08 00:00:00,2015-11-08 00:00:00,PRATE,surface,-93.7504,34.4881,5.7e-05
2015-11-08 00:00:00,2015-11-08 00:00:00,PRATE,surface,-92.8129,34.4881,5.61e-05
2015-11-08 00:00:00,2015-11-08 00:00:00,PRATE,surface,-107.813,35.4329,4.3e-06
2015-11-08 00:00:00,2015-11-08 00:00:00,PRATE,surface,-106.875,35.4329,4e-06
2015-11-08 00:00:00,2015-11-08 00:00:00,PRATE,surface,-105.938,35.4329,4.5e-06
2015-11-08 00:00:00,2015-11-08 00:00:00,PRATE,surface,-105,35.4329,7.6e-06
2015-11-08 00:00:00,2015-11-08 00:00:00,PRATE,surface,-104.063,35.4329,6.7e-06
2015-11-08 00:00:00,2015-11-08 00:00:00,PRATE,surface,-103.125,35.4329,1.81e-05
2015-11-08 00:00:00,2015-11-08 00:00:00,PRATE,surface,-102.188,35.4329,2.83e-05
2015-11-08 00:00:00,2015-11-08 00:00:00,PRATE,surface,-101.25,35.4329,4.73e-05
2015-11-08 00:00:00,2015-11-08 00:00:00,PRATE,surface,-100.313,35.4329,6.96e-05
2015-11-08 00:00:00,2015-11-08 00:00:00,PRATE,surface,-99.3754,35.4329,8.78e-05
2015-11-08 00:00:00,2015-11-08 00:00:00,PRATE,surface,-98.4379,35.4329,9.91e-05
2015-11-08 00:00:00,2015-11-08 00:00:00,PRATE,surface,-97.5004,35.4329,9.62e-05
2015-11-08 00:00:00,2015-11-08 00:00:00,PRATE,surface,-96.5629,35.4329,8.14e-05
2015-11-08 00:00:00,2015-11-08 00:00:00,PRATE,surface,-95.6254,35.4329,6.8e-05
2015-11-08 00:00:00,2015-11-08 00:00:00,PRATE,surface,-94.6879,35.4329,6.3e-05
2015-11-08 00:00:00,2015-11-08 00:00:00,PRATE,surface,-93.7504,35.4329,6.31e-05
2015-11-08 00:00:00,2015-11-08 00:00:00,PRATE,surface,-92.8129,35.4329,6.09e-05
2015-11-08 00:00:00,2015-11-08 00:00:00,PRATE,surface,-107.813,36.3778,5.3e-06
2015-11-08 00:00:00,2015-11-08 00:00:00,PRATE,surface,-106.875,36.3778,8.2e-06
2015-11-08 00:00:00,2015-11-08 00:00:00,PRATE,surface,-105.938,36.3778,9.5e-06
2015-11-08 00:00:00,2015-11-08 00:00:00,PRATE,surface,-105,36.3778,9.7e-06
2015-11-08 00:00:00,2015-11-08 00:00:00,PRATE,surface,-104.063,36.3778,9.3e-06
2015-11-08 00:00:00,2015-11-08 00:00:00,PRATE,surface,-103.125,36.3778,9.3e-06
2015-11-08 00:00:00,2015-11-08 00:00:00,PRATE,surface,-102.188,36.3778,1.3e-05
2015-11-08 00:00:00,2015-11-08 00:00:00,PRATE,surface,-101.25,36.3778,1.98e-05
2015-11-08 00:00:00,2015-11-08 00:00:00,PRATE,surface,-100.313,36.3778,2.98e-05
2015-11-08 00:00:00,2015-11-08 00:00:00,PRATE,surface,-99.3754,36.3778,4.64e-05
2015-11-08 00:00:00,2015-11-08 00:00:00,PRATE,surface,-98.4379,36.3778,6.83e-05
2015-11-08 00:00:00,2015-11-08 00:00:00,PRATE,surface,-97.5004,36.3778,7.91e-05
2015-11-08 00:00:00,2015-11-08 00:00:00,PRATE,surface,-96.5629,36.3778,7.61e-05
2015-11-08 00:00:00,2015-11-08 00:00:00,PRATE,surface,-95.6254,36.3778,7.76e-05
2015-11-08 00:00:00,2015-11-08 00:00:00,PRATE,surface,-94.6879,36.3778,8.15e-05
2015-11-08 00:00:00,2015-11-08 00:00:00,PRATE,surface,-93.7504,36.3778,7.05e-05
2015-11-08 00:00:00,2015-11-08 00:00:00,PRATE,surface,-92.8129,36.3778,6.14e-05
