2013-03-21 00:00:00,2013-03-21 00:00:00,TMP,surface,-107.813,25.0393,295.88
2013-03-21 00:00:00,2013-03-21 00:00:00,TMP,surface,-106.875,25.0393,289.067
2013-03-21 00:00:00,2013-03-21 00:00:00,TMP,surface,-105.938,25.0393,283.614
2013-03-21 00:00:00,2013-03-21 00:00:00,TMP,surface,-105,25.0393,282.392
2013-03-21 00:00:00,2013-03-21 00:00:00,TMP,surface,-104.063,25.0393,286.358
2013-03-21 00:00:00,2013-03-21 00:00:00,TMP,surface,-103.125,25.0393,288.798
2013-03-21 00:00:00,2013-03-21 00:00:00,TMP,surface,-102.188,25.0393,288.63
2013-03-21 00:00:00,2013-03-21 00:00:00,TMP,surface,-101.25,25.0393,287.128
2013-03-21 00:00:00,2013-03-21 00:00:00,TMP,surface,-100.313,25.0393,287.209
2013-03-21 00:00:00,2013-03-21 00:00:00,TMP,surface,-99.3754,25.0393,289.558
2013-03-21 00:00:00,2013-03-21 00:00:00,TMP,surface,-98.4379,25.0393,292.916
2013-03-21 00:00:00,2013-03-21 00:00:00,TMP,surface,-97.5004,25.0393,298.684
2013-03-21 00:00:00,2013-03-21 00:00:00,TMP,surface,-96.5629,25.0393,299.292
2013-03-21 00:00:00,2013-03-21 00:00:00,TMP,surface,-95.6254,25.0393,299.294
2013-03-21 00:00:00,2013-03-21 00:00:00,TMP,surface,-94.6879,25.0393,299.313
2013-03-21 00:00:00,2013-03-21 00:00:00,TMP,surface,-93.7504,25.0393,299.15
2013-03-21 00:00:00,2013-03-21 00:00:00,TMP,surface,-92.8129,25.0393,299.078
2013-03-21 00:00:00,2013-03-21 00:00:00,TMP,surface,-107.813,25.9842,290.041
2013-03-21 00:00:00,2013-03-21 00:00:00,TMP,surface,-106.875,25.9842,284.001
2013-03-21 00:00:00,2013-03-21 00:00:00,TMP,surface,-105.938,25.9842,281.579
2013-03-21 00:00:00,2013-03-21 00:00:00,TMP,surface,-105,25.9842,284.401
2013-03-21 00:00:00,2013-03-21 00:00:00,TMP,surface,-104.063,25.9842,288.052
2013-03-21 00:00:00,2013-03-21 00:00:00,TMP,surface,-103.125,25.9842,289.363
2013-03-21 00:00:00,2013-03-21 00:00:00,TMP,surface,-102.188,25.9842,288.913
2013-03-21 00:00:00,2013-03-21 00:00:00,TMP,surface,-101.25,25.9842,288.083
2013-03-21 00:00:00,2013-03-21 00:00:00,TMP,surface,-100.313,25.9842,288.097
2013-03-21 00:00:00,2013-03-21 00:00:00,TMP,surface,-99.3754,25.9842,290.66
2013-03-21 00:00:00,2013-03-21 00:00:00,TMP,surface,-98.4379,25.9842,292.926
2013-03-21 00:00:00,2013-03-21 00:00:00,TMP,surface,-97.5004,25.9842,294.545
2013-03-21 00:00:00,2013-03-21 00:00:00,TMP,surface,-96.5629,25.9842,298.553
2013-03-21 00:00:00,2013-03-21 00:00:00,TMP,surface,-95.6254,25.9842,298.897
2013-03-21 00:00:00,2013-03-21 00:00:00,TMP,surface,-94.6879,25.9842,298.945
2013-03-21 00:00:00,2013-03-21 00:00:00,TMP,surface,-93.7504,25.9842,298.854
2013-03-21 00:00:00,2013-03-21 00:00:00,TMP,surface,-92.8129,25.9842,298.904
2013-03-21 00:00:00,2013-03-21 00:00:00,TMP,surface,-107.813,26.929,284.46
2013-03-21 00:00:00,2013-03-21 00:00:00,TMP,surface,-106.875,26.929,280.561
2013-03-21 00:00:00,2013-03-21 00:00:00,TMP,surface,-105.938,26.929,282.603
2013-03-21 00:00:00,2013-03-21 00:00:00,TMP,surface,-105,26.929,286.096
2013-03-21 00:00:00,2013-03-21 00:00:00,TMP,surface,-104.063,26.929,287.486
2013-03-21 00:00:00,2013-03-21 00:00:00,TMP,surface,-103.125,26.929,287.201
2013-03-21 00:00:00,2013-03-21 00:00:00,TMP,surface,-102.188,26.929,286.88
2013-03-21 00:00:00,2013-03-21 00:00:00,TMP,surface,-101.25,26.929,287.657
2013-03-21 00:00:00,2013-03-21 00:00:00,TMP,surface,-100.313,26.929,289.073
2013-03-21 00:00:00,2013-03-21 00:00:00,TMP,surface,-99.3754,26.929,290.641
2013-03-21 00:00:00,2013-03-21 00:00:00,TMP,surface,-98.4379,26.929,291.588
2013-03-21 00:00:00,2013-03-21 00:00:00,TMP,surface,-97.5004,26.929,296.756
2013-03-21 00:00:00,2013-03-21 00:00:00,TMP,surface,-96.5629,26.929,297.62
2013-03-21 00:00:00,2013-03-21 00:00:00,TMP,surface,-95.6254,26.929,298.353
2013-03-21 00:00:00,2013-03-21 00:00:00,TMP,surface,-94.6879,26.929,298.563
2013-03-21 00:00:00,2013-03-21 00:00:00,TMP,surface,-93.7504,26.929,298.438
2013-03-21 00:00:00,2013-03-21 00:00:00,TMP,surface,-92.8129,26.929,298.424
2013-03-21 00:00:00,2013-03-21 00:00:00,TMP,surface,-107.813,27.8739,281.228
2013-03-21 00:00:00,2013-03-21 00:00:00,TMP,surface,-106.875,27.8739,279.859
2013-03-21 00:00:00,2013-03-21 00:00:00,TMP,surface,-105.938,27.8739,283.156
2013-03-21 00:00:00,2013-03-21 00:00:00,TMP,surface,-105,27.8739,285.82
2013-03-21 00:00:00,2013-03-21 00:00:00,TMP,surface,-104.063,27.8739,286.025
2013-03-21 00:00:00,2013-03-21 00:00:00,TMP,surface,-103.125,27.8739,284.945
2013-03-21 00:00:00,2013-03-21 00:00:00,TMP,surface,-102.188,27.8739,285.139
2013-03-21 00:00:00,2013-03-21 00:00:00,TMP,surface,-101.25,27.8739,286.673
2013-03-21 00:00:00,2013-03-21 00:00:00,TMP,surface,-100.313,27.8739,288.484
2013-03-21 00:00:00,2013-03-21 00:00:00,TMP,surface,-99.3754,27.8739,289.44
2013-03-21 00:00:00,2013-03-21 00:00:00,TMP,surface,-98.4379,27.8739,290.275
2013-03-21 00:00:00,2013-03-21 00:00:00,TMP,surface,-97.5004,27.8739,294.15
2013-03-21 00:00:00,2013-03-21 00:00:00,TMP,surface,-96.5629,27.8739,297.761
2013-03-21 00:00:00,2013-03-21 00:00:00,TMP,surface,-95.6254,27.8739,297.963
2013-03-21 00:00:00,2013-03-21 00:00:00,TMP,surface,-94.6879,27.8739,297.745
2013-03-21 00:00:00,2013-03-21 00:00:00,TMP,surface,-93.7504,27.8739,297.574
2013-03-21 00:00:00,2013-03-21 00:00:00,TMP,surface,-92.8129,27.8739,297.544
2013-03-21 00:00:00,2013-03-21 00:00:00,TMP,surface,-107.813,28.8188,279.576
2013-03-21 00:00:00,2013-03-21 00:00:00,TMP,surface,-106.875,28.8188,280.004
2013-03-21 00:00:00,2013-03-21 00:00:00,TMP,surface,-105.938,28.8188,283.081
2013-03-21 00:00:00,2013-03-21 00:00:00,TMP,surface,-105,28.8188,284.494
2013-03-21 00:00:00,2013-03-21 00:00:00,TMP,surface,-104.063,28.8188,283.822
2013-03-21 00:00:00,2013-03-21 00:00:00,TMP,surface,-103.125,28.8188,283.444
2013-03-21 00:00:00,2013-03-21 00:00:00,TMP,surface,-102.188,28.8188,284.32
2013-03-21 00:00:00,2013-03-21 00:00:00,TMP,surface,-101.25,28.8188,285.963
2013-03-21 00:00:00,2013-03-21 00:00:00,TMP,surface,-100.313,28.8188,286.947
2013-03-21 00:00:00,2013-03-21 00:00:00,TMP,surface,-99.3754,28.8188,287.235
2013-03-21 00:00:00,2013-03-21 00:00:00,TMP,surface,-98.4379,28.8188,287.886
2013-03-21 00:00:00,2013-03-21 00:00:00,TMP,surface,-97.5004,28.8188,289.049
2013-03-21 00:00:00,2013-03-21 00:00:00,TMP,surface,-96.5629,28.8188,290.248
2013-03-21 00:00:00,2013-03-21 00:00:00,TMP,surface,-95.6254,28.8188,293.211
2013-03-21 00:00:00,2013-03-21 00:00:00,TMP,surface,-94.6879,28.8188,296.95
2013-03-21 00:00:00,2013-03-21 00:00:00,TMP,surface,-93.7504,28.8188,296.724
2013-03-21 00:00:00,2013-03-21 00:00:00,TMP,surface,-92.8129,28.8188,296.705
2013-03-21 00:00:00,2013-03-21 00:00:00,TMP,surface,-107.813,29.7637,280.452
2013-03-21 00:00:00,2013-03-21 00:00:00,TMP,surface,-106.875,29.7637,281.07
2013-03-21 00:00:00,2013-03-21 00:00:00,TMP,surface,-105.938,29.7637,282.646
2013-03-21 00:00:00,2013-03-21 00:00:00,TMP,surface,-105,29.7637,282.502
2013-03-21 00:00:00,2013-03-21 00:00:00,TMP,surface,-104.063,29.7637,282.513
2013-03-21 00:00:00,2013-03-21 00:00:00,TMP,surface,-103.125,29.7637,283.224
2013-03-21 00:00:00,2013-03-21 00:00:00,TMP,surface,-102.188,29.7637,284.331
2013-03-21 00:00:00,2013-03-21 00:00:00,TMP,surface,-101.25,29.7637,285.004
2013-03-21 00:00:00,2013-03-21 00:00:00,TMP,surface,-100.313,29.7637,284.972
2013-03-21 00:00:00,2013-03-21 00:00:00,TMP,surface,-99.3754,29.7637,285.06
2013-03-21 00:00:00,2013-03-21 00:00:00,TMP,surface,-98.4379,29.7637,285.676
2013-03-21 00:00:00,2013-03-21 00:00:00,TMP,surface,-97.5004,29.7637,286.521
2013-03-21 00:00:00,2013-03-21 00:00:00,TMP,surface,-96.5629,29.7637,287.358
2013-03-21 00:00:00,2013-03-21 00:00:00,TMP,surface,-95.6254,29.7637,288.332
2013-03-21 00:00:00,2013-03-21 00:00:00,TMP,surface,-94.6879,29.7637,291.406
2013-03-21 00:00:00,2013-03-21 00:00:00,TMP,surface,-93.7504,29.7637,294.755
2013-03-21 00:00:00,2013-03-21 00:00:00,TMP,surface,-92.8129,29.7637,289.595
2013-03-21 00:00:00,2013-03-21 00:00:00,TMP,surface,-107.813,30.7085,281.731
2013-03-21 00:00:00,2013-03-21 00:00:00,TMP,surface,-106.875,30.7085,282.334
2013-03-21 00:00:00,2013-03-21 00:00:00,TMP,surface,-105.938,30.7085,281.992
2013-03-21 00:00:00,2013-03-21 00:00:00,TMP,surface,-105,30.7085,281.334
2013-03-21 00:00:00,2013-03-21 00:00:00,TMP,surface,-104.063,30.7085,281.668
2013-03-21 00:00:00,2013-03-21 00:00:00,TMP,surface,-103.125,30.7085,282.689
2013-03-21 00:00:00,2013-03-21 00:00:00,TMP,surface,-102.188,30.7085,283.608
2013-03-21 00:00:00,2013-03-21 00:00:00,TMP,surface,-101.25,30.7085,283.704
2013-03-21 00:00:00,2013-03-21 00:00:00,TMP,surface,-100.313,30.7085,283.584
2013-03-21 00:00:00,2013-03-21 00:00:00,TMP,surface,-99.3754,30.7085,283.886
2013-03-21 00:00:00,2013-03-21 00:00:00,TMP,surface,-98.4379,30.7085,284.596
2013-03-21 00:00:00,2013-03-21 00:00:00,TMP,surface,-97.5004,30.7085,285.329
2013-03-21 00:00:00,2013-03-21 00:00:00,TMP,surface,-96.5629,30.7085,285.926
2013-03-21 00:00:00,2013-03-21 00:00:00,TMP,surface,-95.6254,30.7085,286.46
2013-03-21 00:00:00,2013-03-21 00:00:00,TMP,surface,-94.6879,30.7085,286.905
2013-03-21 00:00:00,2013-03-21 00:00:00,TMP,surface,-93.7504,30.7085,287.044
2013-03-21 00:00:00,2013-03-21 00:00:00,TMP,surface,-92.8129,30.7085,286.78
2013-03-21 00:00:00,2013-03-21 00:00:00,TMP,surface,-107.813,31.6534,281.14
2013-03-21 00:00:00,2013-03-21 00:00:00,TMP,surface,-106.875,31.6534,281.56
2013-03-21 00:00:00,2013-03-21 00:00:00,TMP,surface,-105.938,31.6534,280.512
2013-03-21 00:00:00,2013-03-21 00:00:00,TMP,surface,-105,31.6534,280.363
2013-03-21 00:00:00,2013-03-21 00:00:00,TMP,surface,-104.063,31.6534,281.032
2013-03-21 00:00:00,2013-03-21 00:00:00,TMP,surface,-103.125,31.6534,281.955
2013-03-21 00:00:00,2013-03-21 00:00:00,TMP,surface,-102.188,31.6534,282.46
2013-03-21 00:00:00,2013-03-21 00:00:00,TMP,surface,-101.25,31.6534,282.67
2013-03-21 00:00:00,2013-03-21 00:00:00,TMP,surface,-100.313,31.6534,282.891
2013-03-21 00:00:00,2013-03-21 00:00:00,TMP,surface,-99.3754,31.6534,283.433
2013-03-21 00:00:00,2013-03-21 00:00:00,TMP,surface,-98.4379,31.6534,284.14
2013-03-21 00:00:00,2013-03-21 00:00:00,TMP,surface,-97.5004,31.6534,284.748
2013-03-21 00:00:00,2013-03-21 00:00:00,TMP,surface,-96.5629,31.6534,285.23
2013-03-21 00:00:00,2013-03-21 00:00:00,TMP,surface,-95.6254,31.6534,285.528
2013-03-21 00:00:00,2013-03-21 00:00:00,TMP,surface,-94.6879,31.6534,285.58
2013-03-21 00:00:00,2013-03-21 00:00:00,TMP,surface,-93.7504,31.6534,285.628
2013-03-21 00:00:00,2013-03-21 00:00:00,TMP,surface,-92.8129,31.6534,285.804
2013-03-21 00:00:00,2013-03-21 00:00:00,TMP,surface,-107.813,32.5983,278.524
2013-03-21 00:00:00,2013-03-21 00:00:00,TMP,surface,-106.875,32.5983,278.795
2013-03-21 00:00:00,2013-03-21 00:00:00,TMP,surface,-105.938,32.5983,278.665
2013-03-21 00:00:00,2013-03-21 00:00:00,TMP,surface,-105,32.5983,279.158
2013-03-21 00:00:00,2013-03-21 00:00:00,TMP,surface,-104.063,32.5983,280.15
2013-03-21 00:00:00,2013-03-21 00:00:00,TMP,surface,-103.125,32.5983,281.07
2013-03-21 00:00:00,2013-03-21 00:00:00,TMP,surface,-102.188,32.5983,281.364
2013-03-21 00:00:00,2013-03-21 00:00:00,TMP,surface,-101.25,32.5983,281.908
2013-03-21 00:00:00,2013-03-21 00:00:00,TMP,surface,-100.313,32.5983,282.62
2013-03-21 00:00:00,2013-03-21 00:00:00,TMP,surface,-99.3754,32.5983,283.32
2013-03-21 00:00:00,2013-03-21 00:00:00,TMP,surface,-98.4379,32.5983,283.868
2013-03-21 00:00:00,2013-03-21 00:00:00,TMP,surface,-97.5004,32.5983,284.268
2013-03-21 00:00:00,2013-03-21 00:00:00,TMP,surface,-96.5629,32.5983,284.617
2013-03-21 00:00:00,2013-03-21 00:00:00,TMP,surface,-95.6254,32.5983,284.838
2013-03-21 00:00:00,2013-03-21 00:00:00,TMP,surface,-94.6879,32.5983,284.844
2013-03-21 00:00:00,2013-03-21 00:00:00,TMP,surface,-93.7504,32.5983,284.963
2013-03-21 00:00:00,2013-03-21 00:00:00,TMP,surface,-92.8129,32.5983,285.484
2013-03-21 00:00:00,2013-03-21 00:00:00,TMP,surface,-107.813,33.5432,275.06
2013-03-21 00:00:00,2013-03-21 00:00:00,TMP,surface,-106.875,33.5432,276.326
2013-03-21 00:00:00,2013-03-21 00:00:00,TMP,surface,-105.938,33.5432,277.192
2013-03-21 00:00:00,2013-03-21 00:00:00,TMP,surface,-105,33.5432,278.225
2013-03-21 00:00:00,2013-03-21 00:00:00,TMP,surface,-104.063,33.5432,279.262
2013-03-21 00:00:00,2013-03-21 00:00:00,TMP,surface,-103.125,33.5432,280.033
2013-03-21 00:00:00,2013-03-21 00:00:00,TMP,surface,-102.188,33.5432,280.371
2013-03-21 00:00:00,2013-03-21 00:00:00,TMP,surface,-101.25,33.5432,281.028
2013-03-21 00:00:00,2013-03-21 00:00:00,TMP,surface,-100.313,33.5432,281.913
2013-03-21 00:00:00,2013-03-21 00:00:00,TMP,surface,-99.3754,33.5432,282.715
2013-03-21 00:00:00,2013-03-21 00:00:00,TMP,surface,-98.4379,33.5432,283.147
2013-03-21 00:00:00,2013-03-21 00:00:00,TMP,surface,-97.5004,33.5432,283.369
2013-03-21 00:00:00,2013-03-21 00:00:00,TMP,surface,-96.5629,33.5432,283.68
2013-03-21 00:00:00,2013-03-21 00:00:00,TMP,surface,-95.6254,33.5432,283.971
2013-03-21 00:00:00,2013-03-21 00:00:00,TMP,surface,-94.6879,33.5432,284.062
2013-03-21 00:00:00,2013-03-21 00:00:00,TMP,surface,-93.7504,33.5432,284.259
2013-03-21 00:00:00,2013-03-21 00:00:00,TMP,surface,-92.8129,33.5432,284.844
2013-03-21 00:00:00,2013-03-21 00:00:00,TMP,surface,-107.813,34.4881,272.908
2013-03-21 00:00:00,2013-03-21 00:00:00,TMP,surface,-106.875,34.4881,274.54
2013-03-21 00:00:00,2013-03-21 00:00:00,TMP,surface,-105.938,34.4881,275.785
2013-03-21 00:00:00,2013-03-21 00:00:00,TMP,surface,-105,34.4881,276.969
2013-03-21 00:00:00,2013-03-21 00:00:00,TMP,surface,-104.063,34.4881,277.972
2013-03-21 00:00:00,2013-03-21 00:00:00,TMP,surface,-103.125,34.4881,278.742
2013-03-21 00:00:00,2013-03-21 00:00:00,TMP,surface,-102.188,34.4881,279.259
2013-03-21 00:00:00,2013-03-21 00:00:00,TMP,surface,-101.25,34.4881,279.924
2013-03-21 00:00:00,2013-03-21 00:00:00,TMP,surface,-100.313,34.4881,280.936
2013-03-21 00:00:00,2013-03-21 00:00:00,TMP,surface,-99.3754,34.4881,281.755
2013-03-21 00:00:00,2013-03-21 00:00:00,TMP,surface,-98.4379,34.4881,282.099
2013-03-21 00:00:00,2013-03-21 00:00:00,TMP,surface,-97.5004,34.4881,282.339
2013-03-21 00:00:00,2013-03-21 00:00:00,TMP,surface,-96.5629,34.4881,282.752
2013-03-21 00:00:00,2013-03-21 00:00:00,TMP,surface,-95.6254,34.4881,283.035
2013-03-21 00:00:00,2013-03-21 00:00:00,TMP,surface,-94.6879,34.4881,282.952
2013-03-21 00:00:00,2013-03-21 00:00:00,TMP,surface,-93.7504,34.4881,282.952
2013-03-21 00:00:00,2013-03-21 00:00:00,TMP,surface,-92.8129,34.4881,283.593
2013-03-21 00:00:00,2013-03-21 00:00:00,TMP,surface,-107.813,35.4329,272.465
2013-03-21 00:00:00,2013-03-21 00:00:00,TMP,surface,-106.875,35.4329,273.136
2013-03-21 00:00:00,2013-03-21 00:00:00,TMP,surface,-105.938,35.4329,274.028
2013-03-21 00:00:00,2013-03-21 00:00:00,TMP,surface,-105,35.4329,275.131
2013-03-21 00:00:00,2013-03-21 00:00:00,TMP,surface,-104.063,35.4329,276.691
2013-03-21 00:00:00,2013-03-21 00:00:00,TMP,surface,-103.125,35.4329,277.833
2013-03-21 00:00:00,2013-03-21 00:00:00,TMP,surface,-102.188,35.4329,278.411
2013-03-21 00:00:00,2013-03-21 00:00:00,TMP,surface,-101.25,35.4329,279.11
2013-03-21 00:00:00,2013-03-21 00:00:00,TMP,surface,-100.313,35.4329,279.988
2013-03-21 00:00:00,2013-03-21 00:00:00,TMP,surface,-99.3754,35.4329,280.66
2013-03-21 00:00:00,2013-03-21 00:00:00,TMP,surface,-98.4379,35.4329,281.15
2013-03-21 00:00:00,2013-03-21 00:00:00,TMP,surface,-97.5004,35.4329,281.668
2013-03-21 00:00:00,2013-03-21 00:00:00,TMP,surface,-96.5629,35.4329,282.18
2013-03-21 00:00:00,2013-03-21 00:00:00,TMP,surface,-95.6254,35.4329,282.408
2013-03-21 00:00:00,2013-03-21 00:00:00,TMP,surface,-94.6879,35.4329,282.224
2013-03-21 00:00:00,2013-03-21 00:00:00,TMP,surface,-93.7504,35.4329,281.966
2013-03-21 00:00:00,2013-03-21 00:00:00,TMP,surface,-92.8129,35.4329,282.203
2013-03-21 00:00:00,2013-03-21 00:00:00,TMP,surface,-107.813,36.3778,271.345
2013-03-21 00:00:00,2013-03-21 00:00:00,TMP,surface,-106.875,36.3778,270.116
2013-03-21 00:00:00,2013-03-21 00:00:00,TMP,surface,-105.938,36.3778,271.219
2013-03-21 00:00:00,2013-03-21 00:00:00,TMP,surface,-105,36.3778,272.982
2013-03-21 00:00:00,2013-03-21 00:00:00,TMP,surface,-104.063,36.3778,274.992
2013-03-21 00:00:00,2013-03-21 00:00:00,TMP,surface,-103.125,36.3778,276.478
2013-03-21 00:00:00,2013-03-21 00:00:00,TMP,surface,-102.188,36.3778,277.612
2013-03-21 00:00:00,2013-03-21 00:00:00,TMP,surface,-101.25,36.3778,278.515
2013-03-21 00:00:00,2013-03-21 00:00:00,TMP,surface,-100.313,36.3778,279.457
2013-03-21 00:00:00,2013-03-21 00:00:00,TMP,surface,-99.3754,36.3778,280.118
2013-03-21 00:00:00,2013-03-21 00:00:00,TMP,surface,-98.4379,36.3778,280.484
2013-03-21 00:00:00,2013-03-21 00:00:00,TMP,surface,-97.5004,36.3778,280.982
2013-03-21 00:00:00,2013-03-21 00:00:00,TMP,surface,-96.5629,36.3778,281.558
2013-03-21 00:00:00,2013-03-21 00:00:00,TMP,surface,-95.6254,36.3778,281.764
2013-03-21 00:00:00,2013-03-21 00:00:00,TMP,surface,-94.6879,36.3778,281.516
2013-03-21 00:00:00,2013-03-21 00:00:00,TMP,surface,-93.7504,36.3778,281.18
2013-03-21 00:00:00,2013-03-21 00:00:00,TMP,surface,-92.8129,36.3778,281.26
2013-03-21 00:00:00,2013-03-21 00:00:00,PRATE,surface,-107.813,25.0393,6.4e-06
2013-03-21 00:00:00,2013-03-21 00:00:00,PRATE,surface,-106.875,25.0393,1.24e-05
2013-03-21 00:00:00,2013-03-21 00:00:00,PRATE,surface,-105.938,25.0393,1.09e-05
2013-03-21 00:00:00,2013-03-21 00:00:00,PRATE,surface,-105,25.0393,6.5e-06
2013-03-21 00:00:00,2013-03-21 00:00:00,PRATE,surface,-104.063,25.0393,3.7e-06
2013-03-21 00:00:00,2013-03-21 00:00:00,PRATE,surface,-103.125,25.0393,1.5e-06
2013-03-21 00:00:00,2013-03-21 00:00:00,PRATE,surface,-102.188,25.0393,1.1e-06
2013-03-21 00:00:00,2013-03-21 00:00:00,PRATE,surface,-101.25,25.0393,2.9e-06
2013-03-21 00:00:00,2013-03-21 00:00:00,PRATE,surface,-100.313,25.0393,1.02e-05
2013-03-21 00:00:00,2013-03-21 00:00:00,PRATE,surface,-99.3754,25.0393,1.95e-05
2013-03-21 00:00:00,2013-03-21 00:00:00,PRATE,surface,-98.4379,25.0393,3.22e-05
2013-03-21 00:00:00,2013-03-21 00:00:00,PRATE,surface,-97.5004,25.0393,2.48e-05
2013-03-21 00:00:00,2013-03-21 00:00:00,PRATE,surface,-96.5629,25.0393,1.83e-05
2013-03-21 00:00:00,2013-03-21 00:00:00,PRATE,surface,-95.6254,25.0393,1.75e-05
2013-03-21 00:00:00,2013-03-21 00:00:00,PRATE,surface,-94.6879,25.0393,1.15e-05
2013-03-21 00:00:00,2013-03-21 00:00:00,PRATE,surface,-93.7504,25.0393,1.13e-05
2013-03-21 00:00:00,2013-03-21 00:00:00,PRATE,surface,-92.8129,25.0393,1.76e-05
2013-03-21 00:00:00,2013-03-21 00:00:00,PRATE,surface,-107.813,25.9842,8.3e-06
2013-03-21 00:00:00,2013-03-21 00:00:00,PRATE,surface,-106.875,25.9842,1.55e-05
2013-03-21 00:00:00,2013-03-21 00:00:00,PRATE,surface,-105.938,25.9842,6.3e-06
2013-03-21 00:00:00,2013-03-21 00:00:00,PRATE,surface,-105,25.9842,2.7e-06
2013-03-21 00:00:00,2013-03-21 00:00:00,PRATE,surface,-104.063,25.9842,8e-07
2013-03-21 00:00:00,2013-03-21 00:00:00,PRATE,surface,-103.125,25.9842,8e-07
2013-03-21 00:00:00,2013-03-21 00:00:00,PRATE,surface,-102.188,25.9842,8e-07
2013-03-21 00:00:00,2013-03-21 00:00:00,PRATE,surface,-101.25,25.9842,3.8e-06
2013-03-21 00:00:00,2013-03-21 00:00:00,PRATE,surface,-100.313,25.9842,1.04e-05
2013-03-21 00:00:00,2013-03-21 00:00:00,PRATE,surface,-99.3754,25.9842,1.19e-05
2013-03-21 00:00:00,2013-03-21 00:00:00,PRATE,surface,-98.4379,25.9842,2.1e-05
2013-03-21 00:00:00,2013-03-21 00:00:00,PRATE,surface,-97.5004,25.9842,3.69e-05
2013-03-21 00:00:00,2013-03-21 00:00:00,PRATE,surface,-96.5629,25.9842,3.06e-05
2013-03-21 00:00:00,2013-03-21 00:00:00,PRATE,surface,-95.6254,25.9842,2.16e-05
2013-03-21 00:00:00,2013-03-21 00:00:00,PRATE,surface,-94.6879,25.9842,1.41e-05
2013-03-21 00:00:00,2013-03-21 00:00:00,PRATE,surface,-93.7504,25.9842,1.21e-05
2013-03-21 00:00:00,2013-03-21 00:00:00,PRATE,surface,-92.8129,25.9842,1.84e-05
2013-03-21 00:00:00,2013-03-21 00:00:00,PRATE,surface,-107.813,26.929,8.6e-06
2013-03-21 00:00:00,2013-03-21 00:00:00,PRATE,surface,-106.875,26.929,1.81e-05
2013-03-21 00:00:00,2013-03-21 00:00:00,PRATE,surface,-105.938,26.929,7.5e-06
2013-03-21 00:00:00,2013-03-21 00:00:00,PRATE,surface,-105,26.929,1.2e-06
2013-03-21 00:00:00,2013-03-21 00:00:00,PRATE,surface,-104.063,26.929,1.2e-06
2013-03-21 00:00:00,2013-03-21 00:00:00,PRATE,surface,-103.125,26.929,1e-06
2013-03-21 00:00:00,2013-03-21 00:00:00,PRATE,surface,-102.188,26.929,2.8e-06
2013-03-21 00:00:00,2013-03-21 00:00:00,PRATE,surface,-101.25,26.929,4.5e-06
2013-03-21 00:00:00,2013-03-21 00:00:00,PRATE,surface,-100.313,26.929,9.2e-06
2013-03-21 00:00:00,2013-03-21 00:00:00,PRATE,surface,-99.3754,26.929,2.56e-05
2013-03-21 00:00:00,2013-03-21 00:00:00,PRATE,surface,-98.4379,26.929,2.73e-05
2013-03-21 00:00:00,2013-03-21 00:00:00,PRATE,surface,-97.5004,26.929,2.89e-05
2013-03-21 00:00:00,2013-03-21 00:00:00,PRATE,surface,-96.5629,26.929,2.9e-05
2013-03-21 00:00:00,2013-03-21 00:00:00,PRATE,surface,-95.6254,26.929,2.88e-05
2013-03-21 00:00:00,2013-03-21 00:00:00,PRATE,surface,-94.6879,26.929,1.48e-05
2013-03-21 00:00:00,2013-03-21 00:00:00,PRATE,surface,-93.7504,26.929,1.53e-05
2013-03-21 00:00:00,2013-03-21 00:00:00,PRATE,surface,-92.8129,26.929,1.39e-05
2013-03-21 00:00:00,2013-03-21 00:00:00,PRATE,surface,-107.813,27.8739,8.5e-06
2013-03-21 00:00:00,2013-03-21 00:00:00,PRATE,surface,-106.875,27.8739,1.68e-05
2013-03-21 00:00:00,2013-03-21 00:00:00,PRATE,surface,-105.938,27.8739,1.39e-05
2013-03-21 00:00:00,2013-03-21 00:00:00,PRATE,surface,-105,27.8739,6.1e-06
2013-03-21 00:00:00,2013-03-21 00:00:00,PRATE,surface,-104.063,27.8739,4.5e-06
2013-03-21 00:00:00,2013-03-21 00:00:00,PRATE,surface,-103.125,27.8739,5.8e-06
2013-03-21 00:00:00,2013-03-21 00:00:00,PRATE,surface,-102.188,27.8739,6.3e-06
2013-03-21 00:00:00,2013-03-21 00:00:00,PRATE,surface,-101.25,27.8739,6.7e-06
2013-03-21 00:00:00,2013-03-21 00:00:00,PRATE,surface,-100.313,27.8739,1.66e-05
2013-03-21 00:00:00,2013-03-21 00:00:00,PRATE,surface,-99.3754,27.8739,2.73e-05
2013-03-21 00:00:00,2013-03-21 00:00:00,PRATE,surface,-98.4379,27.8739,2.69e-05
2013-03-21 00:00:00,2013-03-21 00:00:00,PRATE,surface,-97.5004,27.8739,2.73e-05
2013-03-21 00:00:00,2013-03-21 00:00:00,PRATE,surface,-96.5629,27.8739,3.04e-05
2013-03-21 00:00:00,2013-03-21 00:00:00,PRATE,surface,-95.6254,27.8739,2.46e-05
2013-03-21 00:00:00,2013-03-21 00:00:00,PRATE,surface,-94.6879,27.8739,1.89e-05
2013-03-21 00:00:00,2013-03-21 00:00:00,PRATE,surface,-93.7504,27.8739,2.47e-05
2013-03-21 00:00:00,2013-03-21 00:00:00,PRATE,surface,-92.8129,27.8739,2.38e-05
2013-03-21 00:00:00,2013-03-21 00:00:00,PRATE,surface,-107.813,28.8188,7.4e-06
2013-03-21 00:00:00,2013-03-21 00:00:00,PRATE,surface,-106.875,28.8188,1.76e-05
2013-03-21 00:00:00,2013-03-21 00:00:00,PRATE,surface,-105.938,28.8188,2.03e-05
2013-03-21 00:00:00,2013-03-21 00:00:00,PRATE,surface,-105,28.8188,1.51e-05
2013-03-21 00:00:00,2013-03-21 00:00:00,PRATE,surface,-104.063,28.8188,1.13e-05
2013-03-21 00:00:00,2013-03-21 00:00:00,PRATE,surface,-103.125,28.8188,8.1e-06
2013-03-21 00:00:00,2013-03-21 00:00:00,PRATE,surface,-102.188,28.8188,8.6e-06
2013-03-21 00:00:00,2013-03-21 00:00:00,PRATE,surface,-101.25,28.8188,1.13e-05
2013-03-21 00:00:00,2013-03-21 00:00:00,PRATE,surface,-100.313,28.8188,2.81e-05
2013-03-21 00:00:00,2013-03-21 00:00:00,PRATE,surface,-99.3754,28.8188,4.56e-05
2013-03-21 00:00:00,2013-03-21 00:00:00,PRATE,surface,-98.4379,28.8188,4.18e-05
2013-03-21 00:00:00,2013-03-21 00:00:00,PRATE,surface,-97.5004,28.8188,3.27e-05
2013-03-21 00:00:00,2013-03-21 00:00:00,PRATE,surface,-96.5629,28.8188,3.02e-05
2013-03-21 00:00:00,2013-03-21 00:00:00,PRATE,surface,-95.6254,28.8188,3.11e-05
2013-03-21 00:00:00,2013-03-21 00:00:00,PRATE,surface,-94.6879,28.8188,3.8e-05
2013-03-21 00:00:00,2013-03-21 00:00:00,PRATE,surface,-93.7504,28.8188,3.94e-05
2013-03-21 00:00:00,2013-03-21 00:00:00,PRATE,surface,-92.8129,28.8188,2.5e-05
2013-03-21 00:00:00,2013-03-21 00:00:00,PRATE,surface,-107.813,29.7637,5.3e-06
2013-03-21 00:00:00,2013-03-21 00:00:00,PRATE,surface,-106.875,29.7637,1.2e-05
2013-03-21 00:00:00,2013-03-21 00:00:00,PRATE,surface,-105.938,29.7637,1.75e-05
2013-03-21 00:00:00,2013-03-21 00:00:00,PRATE,surface,-105,29.7637,1.75e-05
2013-03-21 00:00:00,2013-03-21 00:00:00,PRATE,surface,-104.063,29.7637,1.52e-05
2013-03-21 00:00:00,2013-03-21 00:00:00,PRATE,surface,-103.125,29.7637,1.33e-05
2013-03-21 00:00:00,2013-03-21 00:00:00,PRATE,surface,-102.188,29.7637,1.44e-05
2013-03-21 00:00:00,2013-03-21 00:00:00,PRATE,surface,-101.25,29.7637,2.25e-05
2013-03-21 00:00:00,2013-03-21 00:00:00,PRATE,surface,-100.313,29.7637,4.34e-05
2013-03-21 00:00:00,2013-03-21 00:00:00,PRATE,surface,-99.3754,29.7637,6.59e-05
2013-03-21 00:00:00,2013-03-21 00:00:00,PRATE,surface,-98.4379,29.7637,6.22e-05
2013-03-21 00:00:00,2013-03-21 00:00:00,PRATE,surface,-97.5004,29.7637,4.99e-05
2013-03-21 00:00:00,2013-03-21 00:00:00,PRATE,surface,-96.5629,29.7637,4.51e-05
2013-03-21 00:00:00,2013-03-21 00:00:00,PRATE,surface,-95.6254,29.7637,3.91e-05
2013-03-21 00:00:00,2013-03-21 00:00:00,PRATE,surface,-94.6879,29.7637,3.45e-05
2013-03-21 00:00:00,2013-03-21 00:00:00,PRATE,surface,-93.7504,29.7637,3.12e-05
2013-03-21 00:00:00,2013-03-21 00:00:00,PRATE,surface,-92.8129,29.7637,1.62e-05
2013-03-21 00:00:00,2013-03-21 00:00:00,PRATE,surface,-107.813,30.7085,4.3e-06
2013-03-21 00:00:00,2013-03-21 00:00:00,PRATE,surface,-106.875,30.7085,8e-06
2013-03-21 00:00:00,2013-03-21 00:00:00,PRATE,surface,-105.938,30.7085,1.16e-05
2013-03-21 00:00:00,2013-03-21 00:00:00,PRATE,surface,-105,30.7085,1.69e-05
2013-03-21 00:00:00,2013-03-21 00:00:00,PRATE,surface,-104.063,30.7085,1.69e-05
2013-03-21 00:00:00,2013-03-21 00:00:00,PRATE,surface,-103.125,30.7085,1.88e-05
2013-03-21 00:00:00,2013-03-21 00:00:00,PRATE,surface,-102.188,30.7085,1.9e-05
2013-03-21 00:00:00,2013-03-21 00:00:00,PRATE,surface,-101.25,30.7085,2.45e-05
2013-03-21 00:00:00,2013-03-21 00:00:00,PRATE,surface,-100.313,30.7085,4.42e-05
2013-03-21 00:00:00,2013-03-21 00:00:00,PRATE,surface,-99.3754,30.7085,6.4e-05
2013-03-21 00:00:00,2013-03-21 00:00:00,PRATE,surface,-98.4379,30.7085,6.87e-05
2013-03-21 00:00:00,2013-03-21 00:00:00,PRATE,surface,-97.5004,30.7085,6.24e-05
2013-03-21 00:00:00,2013-03-21 00:00:00,PRATE,surface,-96.5629,30.7085,5.22e-05
2013-03-21 00:00:00,2013-03-21 00:00:00,PRATE,surface,-95.6254,30.7085,3.86e-05
2013-03-21 00:00:00,2013-03-21 00:00:00,PRATE,surface,-94.6879,30.7085,2.69e-05
2013-03-21 00:00:00,2013-03-21 00:00:00,PRATE,surface,-93.7504,30.7085,2.3e-05
2013-03-21 00:00:00,2013-03-21 00:00:00,PRATE,surface,-92.8129,30.7085,1.89e-05
2013-03-21 00:00:00,2013-03-21 00:00:00,PRATE,surface,-107.813,31.6534,7.8e-06
2013-03-21 00:00:00,2013-03-21 00:00:00,PRATE,surface,-106.875,31.6534,7.1e-06
2013-03-21 00:00:00,2013-03-21 00:00:00,PRATE,surface,-105.938,31.6534,1.04e-05
2013-03-21 00:00:00,2013-03-21 00:00:00,PRATE,surface,-105,31.6534,1.51e-05
2013-03-21 00:00:00,2013-03-21 00:00:00,PRATE,surface,-104.063,31.6534,1.8e-05
2013-03-21 00:00:00,2013-03-21 00:00:00,PRATE,surface,-103.125,31.6534,2.13e-05
2013-03-21 00:00:00,2013-03-21 00:00:00,PRATE,surface,-102.188,31.6534,2.19e-05
2013-03-21 00:00:00,2013-03-21 00:00:00,PRATE,surface,-101.25,31.6534,2.51e-05
2013-03-21 00:00:00,2013-03-21 00:00:00,PRATE,surface,-100.313,31.6534,4.03e-05
2013-03-21 00:00:00,2013-03-21 00:00:00,PRATE,surface,-99.3754,31.6534,5.47e-05
2013-03-21 00:00:00,2013-03-21 00:00:00,PRATE,surface,-98.4379,31.6534,6.48e-05
2013-03-21 00:00:00,2013-03-21 00:00:00,PRATE,surface,-97.5004,31.6534,6.14e-05
2013-03-21 00:00:00,2013-03-21 00:00:00,PRATE,surface,-96.5629,31.6534,4.91e-05
2013-03-21 00:00:00,2013-03-21 00:00:00,PRATE,surface,-95.6254,31.6534,3.63e-05
2013-03-21 00:00:00,2013-03-21 00:00:00,PRATE,surface,-94.6879,31.6534,2.38e-05
2013-03-21 00:00:00,2013-03-21 00:00:00,PRATE,surface,-93.7504,31.6534,2.02e-05
2013-03-21 00:00:00,2013-03-21 00:00:00,PRATE,surface,-92.8129,31.6534,2.05e-05
2013-03-21 00:00:00,2013-03-21 00:00:00,PRATE,surface,-107.813,32.5983,1.05e-05
2013-03-21 00:00:00,2013-03-21 00:00:00,PRATE,surface,-106.875,32.5983,9.4e-06
2013-03-21 00:00:00,2013-03-21 00:00:00,PRATE,surface,-105.938,32.5983,1.11e-05
2013-03-21 00:00:00,2013-03-21 00:00:00,PRATE,surface,-105,32.5983,1.61e-05
2013-03-21 00:00:00,2013-03-21 00:00:00,PRATE,surface,-104.063,32.5983,1.88e-05
2013-03-21 00:00:00,2013-03-21 00:00:00,PRATE,surface,-103.125,32.5983,1.87e-05
2013-03-21 00:00:00,2013-03-21 00:00:00,PRATE,surface,-102.188,32.5983,2.31e-05
2013-03-21 00:00:00,2013-03-21 00:00:00,PRATE,surface,-101.25,32.5983,2.56e-05
2013-03-21 00:00:00,2013-03-21 00:00:00,PRATE,surface,-100.313,32.5983,3.28e-05
2013-03-21 00:00:00,2013-03-21 00:00:00,PRATE,surface,-99.3754,32.5983,4.97e-05
2013-03-21 00:00:00,2013-03-21 00:00:00,PRATE,surface,-98.4379,32.5983,6.32e-05
2013-03-21 00:00:00,2013-03-21 00:00:00,PRATE,surface,-97.5004,32.5983,6.6e-05
2013-03-21 00:00:00,2013-03-21 00:00:00,PRATE,surface,-96.5629,32.5983,5.53e-05
2013-03-21 00:00:00,2013-03-21 00:00:00,PRATE,surface,-95.6254,32.5983,4.01e-05
2013-03-21 00:00:00,2013-03-21 00:00:00,PRATE,surface,-94.6879,32.5983,3.07e-05
2013-03-21 00:00:00,2013-03-21 00:00:00,PRATE,surface,-93.7504,32.5983,2.17e-05
2013-03-21 00:00:00,2013-03-21 00:00:00,PRATE,surface,-92.8129,32.5983,2.21e-05
2013-03-21 00:00:00,2013-03-21 00:00:00,PRATE,surface,-107.813,33.5432,1.4e-05
2013-03-21 00:00:00,2013-03-21 00:00:00,PRATE,surface,-106.875,33.5432,1.25e-05
2013-03-21 00:00:00,2013-03-21 00:00:00,PRATE,surface,-105.938,33.5432,1.11e-05
2013-03-21 00:00:00,2013-03-21 00:00:00,PRATE,surface,-105,33.5432,1.41e-05
2013-03-21 00:00:00,2013-03-21 00:00:00,PRATE,surface,-104.063,33.5432,1.81e-05
2013-03-21 00:00:00,2013-03-21 00:00:00,PRATE,surface,-103.125,33.5432,1.76e-05
2013-03-21 00:00:00,2013-03-21 00:00:00,PRATE,surface,-102.188,33.5432,2.08e-05
2013-03-21 00:00:00,2013-03-21 00:00:00,PRATE,surface,-101.25,33.5432,2.85e-05
2013-03-21 00:00:00,2013-03-21 00:00:00,PRATE,surface,-100.313,33.5432,3.35e-05
2013-03-21 00:00:00,2013-03-21 00:00:00,PRATE,surface,-99.3754,33.5432,4.02e-05
2013-03-21 00:00:00,2013-03-21 00:00:00,PRATE,surface,-98.4379,33.5432,5.78e-05
2013-03-21 00:00:00,2013-03-21 00:00:00,PRATE,surface,-97.5004,33.5432,7.33e-05
2013-03-21 00:00:00,2013-03-21 00:00:00,PRATE,surface,-96.5629,33.5432,6.7e-05
2013-03-21 00:00:00,2013-03-21 00:00:00,PRATE,surface,-95.6254,33.5432,5.01e-05
2013-03-21 00:00:00,2013-03-21 00:00:00,PRATE,surface,-94.6879,33.5432,3.94e-05
2013-03-21 00:00:00,2013-03-21 00:00:00,PRATE,surface,-93.7504,33.5432,2.71e-05
2013-03-21 00:00:00,2013-03-21 00:00:00,PRATE,surface,-92.8129,33.5432,2.43e-05
2013-03-21 00:00:00,2013-03-21 00:00:00,PRATE,surface,-107.813,34.4881,2.01e-05
2013-03-21 00:00:00,2013-03-21 00:00:00,PRATE,surface,-106.875,34.4881,1.52e-05
2013-03-21 00:00:00,2013-03-21 00:00:00,PRATE,surface,-105.938,34.4881,9.5e-06
2013-03-21 00:00:00,2013-03-21 00:00:00,PRATE,surface,-105,34.4881,1.02e-05
2013-03-21 00:00:00,2013-03-21 00:00:00,PRATE,surface,-104.063,34.4881,1.62e-05
2013-03-21 00:00:00,2013-03-21 00:00:00,PRATE,surface,-103.125,34.4881,1.78e-05
2013-03-21 00:00:00,2013-03-21 00:00:00,PRATE,surface,-102.188,34.4881,2.05e-05
2013-03-21 00:00:00,2013-03-21 00:00:00,PRATE,surface,-101.25,34.4881,2.8e-05
2013-03-21 00:00:00,2013-03-21 00:00:00,PRATE,surface,-100.313,34.4881,3.34e-05
2013-03-21 00:00:00,2013-03-21 00:00:00,PRATE,surface,-99.3754,34.4881,3.72e-05
2013-03-21 00:00:00,2013-03-21 00:00:00,PRATE,surface,-98.4379,34.4881,5.38e-05
2013-03-21 00:00:00,2013-03-21 00:00:00,PRATE,surface,-97.5004,34.4881,7.51e-05
2013-03-21 00:00:00,2013-03-21 00:00:00,PRATE,surface,-96.5629,34.4881,7.61e-05
2013-03-21 00:00:00,2013-03-21 00:00:00,PRATE,surface,-95.6254,34.4881,5.7e-05
2013-03-21 00:00:00,2013-03-21 00:00:00,PRATE,surface,-94.6879,34.4881,4.1e-05
2013-03-21 00:00:00,2013-03-21 00:00:00,PRATE,surface,-93.7504,34.4881,3.5e-05
2013-03-21 00:00:00,2013-03-21 00:00:00,PRATE,surface,-92.8129,34.4881,3.1e-05
2013-03-21 00:00:00,2013-03-21 00:00:00,PRATE,surface,-107.813,35.4329,1.86e-05
2013-03-21 00:00:00,2013-03-21 00:00:00,PRATE,surface,-106.875,35.4329,1.6e-05
2013-03-21 00:00:00,2013-03-21 00:00:00,PRATE,surface,-105.938,35.4329,1.01e-05
2013-03-21 00:00:00,2013-03-21 00:00:00,PRATE,surface,-105,35.4329,1.1e-05
2013-03-21 00:00:00,2013-03-21 00:00:00,PRATE,surface,-104.063,35.4329,1.34e-05
2013-03-21 00:00:00,2013-03-21 00:00:00,PRATE,surface,-103.125,35.4329,1.66e-05
2013-03-21 00:00:00,2013-03-21 00:00:00,PRATE,surface,-102.188,35.4329,2.07e-05
2013-03-21 00:00:00,2013-03-21 00:00:00,PRATE,surface,-101.25,35.4329,2.9e-05
2013-03-21 00:00:00,2013-03-21 00:00:00,PRATE,surface,-100.313,35.4329,3.4e-05
2013-03-21 00:00:00,2013-03-21 00:00:00,PRATE,surface,-99.3754,35.4329,3.72e-05
2013-03-21 00:00:00,2013-03-21 00:00:00,PRATE,surface,-98.4379,35.4329,5.15e-05
2013-03-21 00:00:00,2013-03-21 00:00:00,PRATE,surface,-97.5004,35.4329,7.13e-05
2013-03-21 00:00:00,2013-03-21 00:00:00,PRATE,surface,-96.5629,35.4329,8.13e-05
2013-03-21 00:00:00,2013-03-21 00:00:00,PRATE,surface,-95.6254,35.4329,6.73e-05
2013-03-21 00:00:00,2013-03-21 00:00:00,PRATE,surface,-94.6879,35.4329,4.15e-05
2013-03-21 00:00:00,2013-03-21 00:00:00,PRATE,surface,-93.7504,35.4329,3.89e-05
2013-03-21 00:00:00,2013-03-21 00:00:00,PRATE,surface,-92.8129,35.4329,3.96e-05
2013-03-21 00:00:00,2013-03-21 00:00:00,PRATE,surface,-107.813,36.3778,1.96e-05
2013-03-21 00:00:00,2013-03-21 00:00:00,PRATE,surface,-106.875,36.3778,2.13e-05
2013-03-21 00:00:00,2013-03-21 00:00:00,PRATE,surface,-105.938,36.3778,1.44e-05
2013-03-21 00:00:00,2013-03-21 00:00:00,PRATE,surface,-105,36.3778,1.38e-05
2013-03-21 00:00:00,2013-03-21 00:00:00,PRATE,surface,-104.063,36.3778,1.38e-05
2013-03-21 00:00:00,2013-03-21 00:00:00,PRATE,surface,-103.125,36.3778,1.49e-05
2013-03-21 00:00:00,2013-03-21 00:00:00,PRATE,surface,-102.188,36.3778,1.76e-05
2013-03-21 00:00:00,2013-03-21 00:00:00,PRATE,surface,-101.25,36.3778,2.63e-05
2013-03-21 00:00:00,2013-03-21 00:00:00,PRATE,surface,-100.313,36.3778,3.49e-05
2013-03-21 00:00:00,2013-03-21 00:00:00,PRATE,surface,-99.3754,36.3778,4.03e-05
2013-03-21 00:00:00,2013-03-21 00:00:00,PRATE,surface,-98.4379,36.3778,5.23e-05
2013-03-21 00:00:00,2013-03-21 00:00:00,PRATE,surface,-97.5004,36.3778,6.85e-05
2013-03-21 00:00:00,2013-03-21 00:00:00,PRATE,surface,-96.5629,36.3778,8.11e-05
2013-03-21 00:00:00,2013-03-21 00:00:00,PRATE,surface,-95.6254,36.3778,7.49e-05
2013-03-21 00:00:00,2013-03-21 00:00:00,PRATE,surface,-94.6879,36.3778,4.85e-05
2013-03-21 00:00:00,2013-03-21 00:00:00,PRATE,surface,-93.7504,36.3778,3.55e-05
2013-03-21 00:00:00,2013-03-21 00:00:00,PRATE,surface,-92.8129,36.3778,3.8e-05
