2018-09-16 00:00:00,2018-09-16 00:00:00,TMP,surface,-107.813,25.0393,299.76
2018-09-16 00:00:00,2018-09-16 00:00:00,TMP,surface,-106.875,25.0393,294.774
2018-09-16 00:00:00,2018-09-16 00:00:00,TMP,surface,-105.938,25.0393,289.718
2018-09-16 00:00:00,2018-09-16 00:00:00,TMP,surface,-105,25.0393,289.181
2018-09-16 00:00:00,2018-09-16 00:00:00,TMP,surface,-104.063,25.0393,293.513
2018-09-16 00:00:00,2018-09-16 00:00:00,TMP,surface,-103.125,25.0393,296.428
2018-09-16 00:00:00,2018-09-16 00:00:00,TMP,surface,-102.188,25.0393,295.563
2018-09-16 00:00:00,2018-09-16 00:00:00,TMP,surface,-101.25,25.0393,292.987
2018-09-16 00:00:00,2018-09-16 00:00:00,TMP,surface,-100.313,25.0393,293.198
2018-09-16 00:00:00,2018-09-16 00:00:00,TMP,surface,-99.3754,25.0393,296.036
2018-09-16 00:00:00,2018-09-16 00:00:00,TMP,surface,-98.4379,25.0393,299.469
2018-09-16 00:00:00,2018-09-16 00:00:00,TMP,surface,-97.5004,25.0393,299.072
2018-09-16 00:00:00,2018-09-16 00:00:00,TMP,surface,-96.5629,25.0393,299.185
2018-09-16 00:00:00,2018-09-16 00:00:00,TMP,surface,-95.6254,25.0393,299.654
2018-09-16 00:00:00,2018-09-16 00:00:00,TMP,surface,-94.6879,25.0393,299.78
2018-09-16 00:00:00,2018-09-16 00:00:00,TMP,surface,-93.7504,25.0393,299.504
2018-09-16 00:00:00,2018-09-16 00:00:00,TMP,surface,-92.8129,25.0393,299.281
2018-09-16 00:00:00,2018-09-16 00:00:00,TMP,surface,-107.813,25.9842,296.724
2018-09-16 00:00:00,2018-09-16 00:00:00,TMP,surface,-106.875,25.9842,290.745
2018-09-16 00:00:00,2018-09-16 00:00:00,TMP,surface,-105.938,25.9842,289.077
2018-09-16 00:00:00,2018-09-16 00:00:00,TMP,surface,-105,25.9842,291.945
2018-09-16 00:00:00,2018-09-16 00:00:00,TMP,surface,-104.063,25.9842,296.832
2018-09-16 00:00:00,2018-09-16 00:00:00,TMP,surface,-103.125,25.9842,298.988
2018-09-16 00:00:00,2018-09-16 00:00:00,TMP,surface,-102.188,25.9842,297.654
2018-09-16 00:00:00,2018-09-16 00:00:00,TMP,surface,-101.25,25.9842,295.854
2018-09-16 00:00:00,2018-09-16 00:00:00,TMP,surface,-100.313,25.9842,295.768
2018-09-16 00:00:00,2018-09-16 00:00:00,TMP,surface,-99.3754,25.9842,298.409
2018-09-16 00:00:00,2018-09-16 00:00:00,TMP,surface,-98.4379,25.9842,299.469
2018-09-16 00:00:00,2018-09-16 00:00:00,TMP,surface,-97.5004,25.9842,298.98
2018-09-16 00:00:00,2018-09-16 00:00:00,TMP,surface,-96.5629,25.9842,297.376
2018-09-16 00:00:00,2018-09-16 00:00:00,TMP,surface,-95.6254,25.9842,298.755
2018-09-16 00:00:00,2018-09-16 00:00:00,TMP,surface,-94.6879,25.9842,299.212
2018-09-16 00:00:00,2018-09-16 00:00:00,TMP,surface,-93.7504,25.9842,299.043
2018-09-16 00:00:00,2018-09-16 00:00:00,TMP,surface,-92.8129,25.9842,298.872
2018-09-16 00:00:00,2018-09-16 00:00:00,TMP,surface,-107.813,26.929,292.004
2018-09-16 00:00:00,2018-09-16 00:00:00,TMP,surface,-106.875,26.929,289.425
2018-09-16 00:00:00,2018-09-16 00:00:00,TMP,surface,-105.938,26.929,291.44
2018-09-16 00:00:00,2018-09-16 00:00:00,TMP,surface,-105,26.929,295.409
2018-09-16 00:00:00,2018-09-16 00:00:00,TMP,surface,-104.063,26.929,298.545
2018-09-16 00:00:00,2018-09-16 00:00:00,TMP,surface,-103.125,26.929,298.302
2018-09-16 00:00:00,2018-09-16 00:00:00,TMP,surface,-102.188,26.929,296.496
2018-09-16 00:00:00,2018-09-16 00:00:00,TMP,surface,-101.25,26.929,296.817
2018-09-16 00:00:00,2018-09-16 00:00:00,TMP,surface,-100.313,26.929,298.112
2018-09-16 00:00:00,2018-09-16 00:00:00,TMP,surface,-99.3754,26.929,299.388
2018-09-16 00:00:00,2018-09-16 00:00:00,TMP,surface,-98.4379,26.929,298.512
2018-09-16 00:00:00,2018-09-16 00:00:00,TMP,surface,-97.5004,26.929,296.806
2018-09-16 00:00:00,2018-09-16 00:00:00,TMP,surface,-96.5629,26.929,296.931
2018-09-16 00:00:00,2018-09-16 00:00:00,TMP,surface,-95.6254,26.929,298
2018-09-16 00:00:00,2018-09-16 00:00:00,TMP,surface,-94.6879,26.929,298.704
2018-09-16 00:00:00,2018-09-16 00:00:00,TMP,surface,-93.7504,26.929,298.643
2018-09-16 00:00:00,2018-09-16 00:00:00,TMP,surface,-92.8129,26.929,298.454
2018-09-16 00:00:00,2018-09-16 00:00:00,TMP,surface,-107.813,27.8739,289.691
2018-09-16 00:00:00,2018-09-16 00:00:00,TMP,surface,-106.875,27.8739,289.741
2018-09-16 00:00:00,2018-09-16 00:00:00,TMP,surface,-105.938,27.8739,293.313
2018-09-16 00:00:00,2018-09-16 00:00:00,TMP,surface,-105,27.8739,297.27
2018-09-16 00:00:00,2018-09-16 00:00:00,TMP,surface,-104.063,27.8739,297.971
2018-09-16 00:00:00,2018-09-16 00:00:00,TMP,surface,-103.125,27.8739,295.901
2018-09-16 00:00:00,2018-09-16 00:00:00,TMP,surface,-102.188,27.8739,294.904
2018-09-16 00:00:00,2018-09-16 00:00:00,TMP,surface,-101.25,27.8739,296.436
2018-09-16 00:00:00,2018-09-16 00:00:00,TMP,surface,-100.313,27.8739,298.312
2018-09-16 00:00:00,2018-09-16 00:00:00,TMP,surface,-99.3754,27.8739,298.369
2018-09-16 00:00:00,2018-09-16 00:00:00,TMP,surface,-98.4379,27.8739,297.126
2018-09-16 00:00:00,2018-09-16 00:00:00,TMP,surface,-97.5004,27.8739,296.836
2018-09-16 00:00:00,2018-09-16 00:00:00,TMP,surface,-96.5629,27.8739,297.243
2018-09-16 00:00:00,2018-09-16 00:00:00,TMP,surface,-95.6254,27.8739,297.374
2018-09-16 00:00:00,2018-09-16 00:00:00,TMP,surface,-94.6879,27.8739,297.696
2018-09-16 00:00:00,2018-09-16 00:00:00,TMP,surface,-93.7504,27.8739,297.812
2018-09-16 00:00:00,2018-09-16 00:00:00,TMP,surface,-92.8129,27.8739,297.766
2018-09-16 00:00:00,2018-09-16 00:00:00,TMP,surface,-107.813,28.8188,288.769
2018-09-16 00:00:00,2018-09-16 00:00:00,TMP,surface,-106.875,28.8188,290.545
2018-09-16 00:00:00,2018-09-16 00:00:00,TMP,surface,-105.938,28.8188,294.297
2018-09-16 00:00:00,2018-09-16 00:00:00,TMP,surface,-105,28.8188,297.697
2018-09-16 00:00:00,2018-09-16 00:00:00,TMP,surface,-104.063,28.8188,296.731
2018-09-16 00:00:00,2018-09-16 00:00:00,TMP,surface,-103.125,28.8188,294.827
2018-09-16 00:00:00,2018-09-16 00:00:00,TMP,surface,-102.188,28.8188,294.379
2018-09-16 00:00:00,2018-09-16 00:00:00,TMP,surface,-101.25,28.8188,296.081
2018-09-16 00:00:00,2018-09-16 00:00:00,TMP,surface,-100.313,28.8188,296.707
2018-09-16 00:00:00,2018-09-16 00:00:00,TMP,surface,-99.3754,28.8188,296.172
2018-09-16 00:00:00,2018-09-16 00:00:00,TMP,surface,-98.4379,28.8188,295.668
2018-09-16 00:00:00,2018-09-16 00:00:00,TMP,surface,-97.5004,28.8188,295.646
2018-09-16 00:00:00,2018-09-16 00:00:00,TMP,surface,-96.5629,28.8188,296.014
2018-09-16 00:00:00,2018-09-16 00:00:00,TMP,surface,-95.6254,28.8188,296.281
2018-09-16 00:00:00,2018-09-16 00:00:00,TMP,surface,-94.6879,28.8188,296.341
2018-09-16 00:00:00,2018-09-16 00:00:00,TMP,surface,-93.7504,28.8188,296.71
2018-09-16 00:00:00,2018-09-16 00:00:00,TMP,surface,-92.8129,28.8188,296.753
2018-09-16 00:00:00,2018-09-16 00:00:00,TMP,surface,-107.813,29.7637,290.681
2018-09-16 00:00:00,2018-09-16 00:00:00,TMP,surface,-106.875,29.7637,292.784
2018-09-16 00:00:00,2018-09-16 00:00:00,TMP,surface,-105.938,29.7637,295.828
2018-09-16 00:00:00,2018-09-16 00:00:00,TMP,surface,-105,29.7637,296.283
2018-09-16 00:00:00,2018-09-16 00:00:00,TMP,surface,-104.063,29.7637,296.003
2018-09-16 00:00:00,2018-09-16 00:00:00,TMP,surface,-103.125,29.7637,295.529
2018-09-16 00:00:00,2018-09-16 00:00:00,TMP,surface,-102.188,29.7637,296.105
2018-09-16 00:00:00,2018-09-16 00:00:00,TMP,surface,-101.25,29.7637,296.305
2018-09-16 00:00:00,2018-09-16 00:00:00,TMP,surface,-100.313,29.7637,295.156
2018-09-16 00:00:00,2018-09-16 00:00:00,TMP,surface,-99.3754,29.7637,294.177
2018-09-16 00:00:00,2018-09-16 00:00:00,TMP,surface,-98.4379,29.7637,294.115
2018-09-16 00:00:00,2018-09-16 00:00:00,TMP,surface,-97.5004,29.7637,294.563
2018-09-16 00:00:00,2018-09-16 00:00:00,TMP,surface,-96.5629,29.7637,295.011
2018-09-16 00:00:00,2018-09-16 00:00:00,TMP,surface,-95.6254,29.7637,295.366
2018-09-16 00:00:00,2018-09-16 00:00:00,TMP,surface,-94.6879,29.7637,295.761
2018-09-16 00:00:00,2018-09-16 00:00:00,TMP,surface,-93.7504,29.7637,296.224
2018-09-16 00:00:00,2018-09-16 00:00:00,TMP,surface,-92.8129,29.7637,296.595
2018-09-16 00:00:00,2018-09-16 00:00:00,TMP,surface,-107.813,30.7085,294.112
2018-09-16 00:00:00,2018-09-16 00:00:00,TMP,surface,-106.875,30.7085,295.12
2018-09-16 00:00:00,2018-09-16 00:00:00,TMP,surface,-105.938,30.7085,295.491
2018-09-16 00:00:00,2018-09-16 00:00:00,TMP,surface,-105,30.7085,295.324
2018-09-16 00:00:00,2018-09-16 00:00:00,TMP,surface,-104.063,30.7085,294.878
2018-09-16 00:00:00,2018-09-16 00:00:00,TMP,surface,-103.125,30.7085,295.582
2018-09-16 00:00:00,2018-09-16 00:00:00,TMP,surface,-102.188,30.7085,296.137
2018-09-16 00:00:00,2018-09-16 00:00:00,TMP,surface,-101.25,30.7085,295.603
2018-09-16 00:00:00,2018-09-16 00:00:00,TMP,surface,-100.313,30.7085,294.299
2018-09-16 00:00:00,2018-09-16 00:00:00,TMP,surface,-99.3754,30.7085,293.509
2018-09-16 00:00:00,2018-09-16 00:00:00,TMP,surface,-98.4379,30.7085,293.712
2018-09-16 00:00:00,2018-09-16 00:00:00,TMP,surface,-97.5004,30.7085,294.254
2018-09-16 00:00:00,2018-09-16 00:00:00,TMP,surface,-96.5629,30.7085,295.003
2018-09-16 00:00:00,2018-09-16 00:00:00,TMP,surface,-95.6254,30.7085,295.678
2018-09-16 00:00:00,2018-09-16 00:00:00,TMP,surface,-94.6879,30.7085,295.757
2018-09-16 00:00:00,2018-09-16 00:00:00,TMP,surface,-93.7504,30.7085,295.835
2018-09-16 00:00:00,2018-09-16 00:00:00,TMP,surface,-92.8129,30.7085,295.728
2018-09-16 00:00:00,2018-09-16 00:00:00,TMP,surface,-107.813,31.6534,294.801
2018-09-16 00:00:00,2018-09-16 00:00:00,TMP,surface,-106.875,31.6534,295.158
2018-09-16 00:00:00,2018-09-16 00:00:00,TMP,surface,-105.938,31.6534,294.923
2018-09-16 00:00:00,2018-09-16 00:00:00,TMP,surface,-105,31.6534,294.584
2018-09-16 00:00:00,2018-09-16 00:00:00,TMP,surface,-104.063,31.6534,294.953
2018-09-16 00:00:00,2018-09-16 00:00:00,TMP,surface,-103.125,31.6534,295.382
2018-09-16 00:00:00,2018-09-16 00:00:00,TMP,surface,-102.188,31.6534,295.433
2018-09-16 00:00:00,2018-09-16 00:00:00,TMP,surface,-101.25,31.6534,294.747
2018-09-16 00:00:00,2018-09-16 00:00:00,TMP,surface,-100.313,31.6534,294.033
2018-09-16 00:00:00,2018-09-16 00:00:00,TMP,surface,-99.3754,31.6534,293.603
2018-09-16 00:00:00,2018-09-16 00:00:00,TMP,surface,-98.4379,31.6534,293.758
2018-09-16 00:00:00,2018-09-16 00:00:00,TMP,surface,-97.5004,31.6534,294.195
2018-09-16 00:00:00,2018-09-16 00:00:00,TMP,surface,-96.5629,31.6534,294.99
2018-09-16 00:00:00,2018-09-16 00:00:00,TMP,surface,-95.6254,31.6534,295.733
2018-09-16 00:00:00,2018-09-16 00:00:00,TMP,surface,-94.6879,31.6534,295.67
2018-09-16 00:00:00,2018-09-16 00:00:00,TMP,surface,-93.7504,31.6534,295.526
2018-09-16 00:00:00,2018-09-16 00:00:00,TMP,surface,-92.8129,31.6534,295.528
2018-09-16 00:00:00,2018-09-16 00:00:00,TMP,surface,-107.813,32.5983,291.568
2018-09-16 00:00:00,2018-09-16 00:00:00,TMP,surface,-106.875,32.5983,292.278
2018-09-16 00:00:00,2018-09-16 00:00:00,TMP,surface,-105.938,32.5983,292.98
2018-09-16 00:00:00,2018-09-16 00:00:00,TMP,surface,-105,32.5983,293.646
2018-09-16 00:00:00,2018-09-16 00:00:00,TMP,surface,-104.063,32.5983,294.662
2018-09-16 00:00:00,2018-09-16 00:00:00,TMP,surface,-103.125,32.5983,295.209
2018-09-16 00:00:00,2018-09-16 00:00:00,TMP,surface,-102.188,32.5983,294.579
2018-09-16 00:00:00,2018-09-16 00:00:00,TMP,surface,-101.25,32.5983,294.029
2018-09-16 00:00:00,2018-09-16 00:00:00,TMP,surface,-100.313,32.5983,294.033
2018-09-16 00:00:00,2018-09-16 00:00:00,TMP,surface,-99.3754,32.5983,293.944
2018-09-16 00:00:00,2018-09-16 00:00:00,TMP,surface,-98.4379,32.5983,293.806
2018-09-16 00:00:00,2018-09-16 00:00:00,TMP,surface,-97.5004,32.5983,293.924
2018-09-16 00:00:00,2018-09-16 00:00:00,TMP,surface,-96.5629,32.5983,294.492
2018-09-16 00:00:00,2018-09-16 00:00:00,TMP,surface,-95.6254,32.5983,295.211
2018-09-16 00:00:00,2018-09-16 00:00:00,TMP,surface,-94.6879,32.5983,295.461
2018-09-16 00:00:00,2018-09-16 00:00:00,TMP,surface,-93.7504,32.5983,295.345
2018-09-16 00:00:00,2018-09-16 00:00:00,TMP,surface,-92.8129,32.5983,295.478
2018-09-16 00:00:00,2018-09-16 00:00:00,TMP,surface,-107.813,33.5432,287.918
2018-09-16 00:00:00,2018-09-16 00:00:00,TMP,surface,-106.875,33.5432,289.393
2018-09-16 00:00:00,2018-09-16 00:00:00,TMP,surface,-105.938,33.5432,290.72
2018-09-16 00:00:00,2018-09-16 00:00:00,TMP,surface,-105,33.5432,292.145
2018-09-16 00:00:00,2018-09-16 00:00:00,TMP,surface,-104.063,33.5432,293.835
2018-09-16 00:00:00,2018-09-16 00:00:00,TMP,surface,-103.125,33.5432,294.104
2018-09-16 00:00:00,2018-09-16 00:00:00,TMP,surface,-102.188,33.5432,293.533
2018-09-16 00:00:00,2018-09-16 00:00:00,TMP,surface,-101.25,33.5432,292.976
2018-09-16 00:00:00,2018-09-16 00:00:00,TMP,surface,-100.313,33.5432,293.457
2018-09-16 00:00:00,2018-09-16 00:00:00,TMP,surface,-99.3754,33.5432,293.67
2018-09-16 00:00:00,2018-09-16 00:00:00,TMP,surface,-98.4379,33.5432,293.341
2018-09-16 00:00:00,2018-09-16 00:00:00,TMP,surface,-97.5004,33.5432,293.148
2018-09-16 00:00:00,2018-09-16 00:00:00,TMP,surface,-96.5629,33.5432,293.35
2018-09-16 00:00:00,2018-09-16 00:00:00,TMP,surface,-95.6254,33.5432,293.901
2018-09-16 00:00:00,2018-09-16 00:00:00,TMP,surface,-94.6879,33.5432,294.464
2018-09-16 00:00:00,2018-09-16 00:00:00,TMP,surface,-93.7504,33.5432,294.509
2018-09-16 00:00:00,2018-09-16 00:00:00,TMP,surface,-92.8129,33.5432,294.665
2018-09-16 00:00:00,2018-09-16 00:00:00,TMP,surface,-107.813,34.4881,286.645
2018-09-16 00:00:00,2018-09-16 00:00:00,TMP,surface,-106.875,34.4881,288.347
2018-09-16 00:00:00,2018-09-16 00:00:00,TMP,surface,-105.938,34.4881,289.526
2018-09-16 00:00:00,2018-09-16 00:00:00,TMP,surface,-105,34.4881,291.211
2018-09-16 00:00:00,2018-09-16 00:00:00,TMP,surface,-104.063,34.4881,292.081
2018-09-16 00:00:00,2018-09-16 00:00:00,TMP,surface,-103.125,34.4881,292.537
2018-09-16 00:00:00,2018-09-16 00:00:00,TMP,surface,-102.188,34.4881,292.27
2018-09-16 00:00:00,2018-09-16 00:00:00,TMP,surface,-101.25,34.4881,292.048
2018-09-16 00:00:00,2018-09-16 00:00:00,TMP,surface,-100.313,34.4881,292.323
2018-09-16 00:00:00,2018-09-16 00:00:00,TMP,surface,-99.3754,34.4881,292.654
2018-09-16 00:00:00,2018-09-16 00:00:00,TMP,surface,-98.4379,34.4881,292.374
2018-09-16 00:00:00,2018-09-16 00:00:00,TMP,surface,-97.5004,34.4881,292.088
2018-09-16 00:00:00,2018-09-16 00:00:00,TMP,surface,-96.5629,34.4881,292.633
2018-09-16 00:00:00,2018-09-16 00:00:00,TMP,surface,-95.6254,34.4881,293.491
2018-09-16 00:00:00,2018-09-16 00:00:00,TMP,surface,-94.6879,34.4881,293.621
2018-09-16 00:00:00,2018-09-16 00:00:00,TMP,surface,-93.7504,34.4881,293.264
2018-09-16 00:00:00,2018-09-16 00:00:00,TMP,surface,-92.8129,34.4881,293.435
2018-09-16 00:00:00,2018-09-16 00:00:00,TMP,surface,-107.813,35.4329,287.148
2018-09-16 00:00:00,2018-09-16 00:00:00,TMP,surface,-106.875,35.4329,287.492
2018-09-16 00:00:00,2018-09-16 00:00:00,TMP,surface,-105.938,35.4329,287.708
2018-09-16 00:00:00,2018-09-16 00:00:00,TMP,surface,-105,35.4329,288.411
2018-09-16 00:00:00,2018-09-16 00:00:00,TMP,surface,-104.063,35.4329,290.536
2018-09-16 00:00:00,2018-09-16 00:00:00,TMP,surface,-103.125,35.4329,291.603
2018-09-16 00:00:00,2018-09-16 00:00:00,TMP,surface,-102.188,35.4329,291.469
2018-09-16 00:00:00,2018-09-16 00:00:00,TMP,surface,-101.25,35.4329,291.365
2018-09-16 00:00:00,2018-09-16 00:00:00,TMP,surface,-100.313,35.4329,291.222
2018-09-16 00:00:00,2018-09-16 00:00:00,TMP,surface,-99.3754,35.4329,291.203
2018-09-16 00:00:00,2018-09-16 00:00:00,TMP,surface,-98.4379,35.4329,291.163
2018-09-16 00:00:00,2018-09-16 00:00:00,TMP,surface,-97.5004,35.4329,291.171
2018-09-16 00:00:00,2018-09-16 00:00:00,TMP,surface,-96.5629,35.4329,291.417
2018-09-16 00:00:00,2018-09-16 00:00:00,TMP,surface,-95.6254,35.4329,292.001
2018-09-16 00:00:00,2018-09-16 00:00:00,TMP,surface,-94.6879,35.4329,292.488
2018-09-16 00:00:00,2018-09-16 00:00:00,TMP,surface,-93.7504,35.4329,292.209
2018-09-16 00:00:00,2018-09-16 00:00:00,TMP,surface,-92.8129,35.4329,291.948
2018-09-16 00:00:00,2018-09-16 00:00:00,TMP,surface,-107.813,36.3778,286.425
2018-09-16 00:00:00,2018-09-16 00:00:00,TMP,surface,-106.875,36.3778,284.336
2018-09-16 00:00:00,2018-09-16 00:00:00,TMP,surface,-105.938,36.3778,284.838
2018-09-16 00:00:00,2018-09-16 00:00:00,TMP,surface,-105,36.3778,285.772
2018-09-16 00:00:00,2018-09-16 00:00:00,TMP,surface,-104.063,36.3778,288.347
2018-09-16 00:00:00,2018-09-16 00:00:00,TMP,surface,-103.125,36.3778,289.257
2018-09-16 00:00:00,2018-09-16 00:00:00,TMP,surface,-102.188,36.3778,289.899
2018-09-16 00:00:00,2018-09-16 00:00:00,TMP,surface,-101.25,36.3778,290.081
2018-09-16 00:00:00,2018-09-16 00:00:00,TMP,surface,-100.313,36.3778,290.086
2018-09-16 00:00:00,2018-09-16 00:00:00,TMP,surface,-99.3754,36.3778,289.988
2018-09-16 00:00:00,2018-09-16 00:00:00,TMP,surface,-98.4379,36.3778,289.862
2018-09-16 00:00:00,2018-09-16 00:00:00,TMP,surface,-97.5004,36.3778,289.969
2018-09-16 00:00:00,2018-09-16 00:00:00,TMP,surface,-96.5629,36.3778,290.323
2018-09-16 00:00:00,2018-09-16 00:00:00,TMP,surface,-95.6254,36.3778,290.811
2018-09-16 00:00:00,2018-09-16 00:00:00,TMP,surface,-94.6879,36.3778,291.096
2018-09-16 00:00:00,2018-09-16 00:00:00,TMP,surface,-93.7504,36.3778,290.716
2018-09-16 00:00:00,2018-09-16 00:00:00,TMP,surface,-92.8129,36.3778,290.365
2018-09-16 00:00:00,2018-09-16 00:00:00,PRATE,surface,-107.813,25.0393,0
2018-09-16 00:00:00,2018-09-16 00:00:00,PRATE,surface,-106.875,25.0393,8e-07
2018-09-16 00:00:00,2018-09-16 00:00:00,PRATE,surface,-105.938,25.0393,3.08e-05
2018-09-16 00:00:00,2018-09-16 00:00:00,PRATE,surface,-105,25.0393,5.91e-05
2018-09-16 00:00:00,2018-09-16 00:00:00,PRATE,surface,-104.063,25.0393,2.38e-05
2018-09-16 00:00:00,2018-09-16 00:00:00,PRATE,surface,-103.125,25.0393,2.3e-06
2018-09-16 00:00:00,2018-09-16 00:00:00,PRATE,surface,-102.188,25.0393,6.6e-06
2018-09-16 00:00:00,2018-09-16 00:00:00,PRATE,surface,-101.25,25.0393,3.59e-05
2018-09-16 00:00:00,2018-09-16 00:00:00,PRATE,surface,-100.313,25.0393,7.02e-05
2018-09-16 00:00:00,2018-09-16 00:00:00,PRATE,surface,-99.3754,25.0393,7.31e-05
2018-09-16 00:00:00,2018-09-16 00:00:00,PRATE,surface,-98.4379,25.0393,1.59e-05
2018-09-16 00:00:00,2018-09-16 00:00:00,PRATE,surface,-97.5004,25.0393,4.5e-06
2018-09-16 00:00:00,2018-09-16 00:00:00,PRATE,surface,-96.5629,25.0393,2.17e-05
2018-09-16 00:00:00,2018-09-16 00:00:00,PRATE,surface,-95.6254,25.0393,3.36e-05
2018-09-16 00:00:00,2018-09-16 00:00:00,PRATE,surface,-94.6879,25.0393,6.47e-05
2018-09-16 00:00:00,2018-09-16 00:00:00,PRATE,surface,-93.7504,25.0393,9.54e-05
2018-09-16 00:00:00,2018-09-16 00:00:00,PRATE,surface,-92.8129,25.0393,0.0001013
2018-09-16 00:00:00,2018-09-16 00:00:00,PRATE,surface,-107.813,25.9842,4e-07
2018-09-16 00:00:00,2018-09-16 00:00:00,PRATE,surface,-106.875,25.9842,4.5e-06
2018-09-16 00:00:00,2018-09-16 00:00:00,PRATE,surface,-105.938,25.9842,4.48e-05
2018-09-16 00:00:00,2018-09-16 00:00:00,PRATE,surface,-105,25.9842,4.29e-05
2018-09-16 00:00:00,2018-09-16 00:00:00,PRATE,surface,-104.063,25.9842,8.6e-06
2018-09-16 00:00:00,2018-09-16 00:00:00,PRATE,surface,-103.125,25.9842,1.7e-06
2018-09-16 00:00:00,2018-09-16 00:00:00,PRATE,surface,-102.188,25.9842,3.4e-06
2018-09-16 00:00:00,2018-09-16 00:00:00,PRATE,surface,-101.25,25.9842,2.7e-05
2018-09-16 00:00:00,2018-09-16 00:00:00,PRATE,surface,-100.313,25.9842,5.94e-05
2018-09-16 00:00:00,2018-09-16 00:00:00,PRATE,surface,-99.3754,25.9842,4.64e-05
2018-09-16 00:00:00,2018-09-16 00:00:00,PRATE,surface,-98.4379,25.9842,2.61e-05
2018-09-16 00:00:00,2018-09-16 00:00:00,PRATE,surface,-97.5004,25.9842,2.5e-05
2018-09-16 00:00:00,2018-09-16 00:00:00,PRATE,surface,-96.5629,25.9842,3.77e-05
2018-09-16 00:00:00,2018-09-16 00:00:00,PRATE,surface,-95.6254,25.9842,4.86e-05
2018-09-16 00:00:00,2018-09-16 00:00:00,PRATE,surface,-94.6879,25.9842,7.26e-05
2018-09-16 00:00:00,2018-09-16 00:00:00,PRATE,surface,-93.7504,25.9842,0.0001078
2018-09-16 00:00:00,2018-09-16 00:00:00,PRATE,surface,-92.8129,25.9842,0.000128
2018-09-16 00:00:00,2018-09-16 00:00:00,PRATE,surface,-107.813,26.929,2.7e-06
2018-09-16 00:00:00,2018-09-16 00:00:00,PRATE,surface,-106.875,26.929,1.84e-05
2018-09-16 00:00:00,2018-09-16 00:00:00,PRATE,surface,-105.938,26.929,3.3e-05
2018-09-16 00:00:00,2018-09-16 00:00:00,PRATE,surface,-105,26.929,2.23e-05
2018-09-16 00:00:00,2018-09-16 00:00:00,PRATE,surface,-104.063,26.929,4.6e-06
2018-09-16 00:00:00,2018-09-16 00:00:00,PRATE,surface,-103.125,26.929,7.5e-06
2018-09-16 00:00:00,2018-09-16 00:00:00,PRATE,surface,-102.188,26.929,1.94e-05
2018-09-16 00:00:00,2018-09-16 00:00:00,PRATE,surface,-101.25,26.929,3.51e-05
2018-09-16 00:00:00,2018-09-16 00:00:00,PRATE,surface,-100.313,26.929,3.78e-05
2018-09-16 00:00:00,2018-09-16 00:00:00,PRATE,surface,-99.3754,26.929,6.04e-05
2018-09-16 00:00:00,2018-09-16 00:00:00,PRATE,surface,-98.4379,26.929,5.3e-05
2018-09-16 00:00:00,2018-09-16 00:00:00,PRATE,surface,-97.5004,26.929,4.67e-05
2018-09-16 00:00:00,2018-09-16 00:00:00,PRATE,surface,-96.5629,26.929,3.73e-05
2018-09-16 00:00:00,2018-09-16 00:00:00,PRATE,surface,-95.6254,26.929,2.81e-05
2018-09-16 00:00:00,2018-09-16 00:00:00,PRATE,surface,-94.6879,26.929,3.99e-05
2018-09-16 00:00:00,2018-09-16 00:00:00,PRATE,surface,-93.7504,26.929,8.39e-05
2018-09-16 00:00:00,2018-09-16 00:00:00,PRATE,surface,-92.8129,26.929,0.0001069
2018-09-16 00:00:00,2018-09-16 00:00:00,PRATE,surface,-107.813,27.8739,9.6e-06
2018-09-16 00:00:00,2018-09-16 00:00:00,PRATE,surface,-106.875,27.8739,2.52e-05
2018-09-16 00:00:00,2018-09-16 00:00:00,PRATE,surface,-105.938,27.8739,2.64e-05
2018-09-16 00:00:00,2018-09-16 00:00:00,PRATE,surface,-105,27.8739,5.7e-06
2018-09-16 00:00:00,2018-09-16 00:00:00,PRATE,surface,-104.063,27.8739,9.7e-06
2018-09-16 00:00:00,2018-09-16 00:00:00,PRATE,surface,-103.125,27.8739,2.8e-05
2018-09-16 00:00:00,2018-09-16 00:00:00,PRATE,surface,-102.188,27.8739,4.57e-05
2018-09-16 00:00:00,2018-09-16 00:00:00,PRATE,surface,-101.25,27.8739,4.1e-05
2018-09-16 00:00:00,2018-09-16 00:00:00,PRATE,surface,-100.313,27.8739,4.16e-05
2018-09-16 00:00:00,2018-09-16 00:00:00,PRATE,surface,-99.3754,27.8739,5.9e-05
2018-09-16 00:00:00,2018-09-16 00:00:00,PRATE,surface,-98.4379,27.8739,6.71e-05
2018-09-16 00:00:00,2018-09-16 00:00:00,PRATE,surface,-97.5004,27.8739,5.04e-05
2018-09-16 00:00:00,2018-09-16 00:00:00,PRATE,surface,-96.5629,27.8739,2.65e-05
2018-09-16 00:00:00,2018-09-16 00:00:00,PRATE,surface,-95.6254,27.8739,2.11e-05
2018-09-16 00:00:00,2018-09-16 00:00:00,PRATE,surface,-94.6879,27.8739,4.12e-05
2018-09-16 00:00:00,2018-09-16 00:00:00,PRATE,surface,-93.7504,27.8739,7.67e-05
2018-09-16 00:00:00,2018-09-16 00:00:00,PRATE,surface,-92.8129,27.8739,0.0001098
2018-09-16 00:00:00,2018-09-16 00:00:00,PRATE,surface,-107.813,28.8188,1.87e-05
2018-09-16 00:00:00,2018-09-16 00:00:00,PRATE,surface,-106.875,28.8188,3.69e-05
2018-09-16 00:00:00,2018-09-16 00:00:00,PRATE,surface,-105.938,28.8188,2.97e-05
2018-09-16 00:00:00,2018-09-16 00:00:00,PRATE,surface,-105,28.8188,1.44e-05
2018-09-16 00:00:00,2018-09-16 00:00:00,PRATE,surface,-104.063,28.8188,1.9e-05
2018-09-16 00:00:00,2018-09-16 00:00:00,PRATE,surface,-103.125,28.8188,3.62e-05
2018-09-16 00:00:00,2018-09-16 00:00:00,PRATE,surface,-102.188,28.8188,4.07e-05
2018-09-16 00:00:00,2018-09-16 00:00:00,PRATE,surface,-101.25,28.8188,2.92e-05
2018-09-16 00:00:00,2018-09-16 00:00:00,PRATE,surface,-100.313,28.8188,2.94e-05
2018-09-16 00:00:00,2018-09-16 00:00:00,PRATE,surface,-99.3754,28.8188,4.19e-05
2018-09-16 00:00:00,2018-09-16 00:00:00,PRATE,surface,-98.4379,28.8188,5.55e-05
2018-09-16 00:00:00,2018-09-16 00:00:00,PRATE,surface,-97.5004,28.8188,5.69e-05
2018-09-16 00:00:00,2018-09-16 00:00:00,PRATE,surface,-96.5629,28.8188,4.8e-05
2018-09-16 00:00:00,2018-09-16 00:00:00,PRATE,surface,-95.6254,28.8188,4.17e-05
2018-09-16 00:00:00,2018-09-16 00:00:00,PRATE,surface,-94.6879,28.8188,4.76e-05
2018-09-16 00:00:00,2018-09-16 00:00:00,PRATE,surface,-93.7504,28.8188,6.78e-05
2018-09-16 00:00:00,2018-09-16 00:00:00,PRATE,surface,-92.8129,28.8188,9.11e-05
2018-09-16 00:00:00,2018-09-16 00:00:00,PRATE,surface,-107.813,29.7637,1.93e-05
2018-09-16 00:00:00,2018-09-16 00:00:00,PRATE,surface,-106.875,29.7637,3.17e-05
2018-09-16 00:00:00,2018-09-16 00:00:00,PRATE,surface,-105.938,29.7637,2.35e-05
2018-09-16 00:00:00,2018-09-16 00:00:00,PRATE,surface,-105,29.7637,1.57e-05
2018-09-16 00:00:00,2018-09-16 00:00:00,PRATE,surface,-104.063,29.7637,2.21e-05
2018-09-16 00:00:00,2018-09-16 00:00:00,PRATE,surface,-103.125,29.7637,3e-05
2018-09-16 00:00:00,2018-09-16 00:00:00,PRATE,surface,-102.188,29.7637,2.6e-05
2018-09-16 00:00:00,2018-09-16 00:00:00,PRATE,surface,-101.25,29.7637,2.2e-05
2018-09-16 00:00:00,2018-09-16 00:00:00,PRATE,surface,-100.313,29.7637,2.79e-05
2018-09-16 00:00:00,2018-09-16 00:00:00,PRATE,surface,-99.3754,29.7637,3.74e-05
2018-09-16 00:00:00,2018-09-16 00:00:00,PRATE,surface,-98.4379,29.7637,4.31e-05
2018-09-16 00:00:00,2018-09-16 00:00:00,PRATE,surface,-97.5004,29.7637,4.65e-05
2018-09-16 00:00:00,2018-09-16 00:00:00,PRATE,surface,-96.5629,29.7637,6.1e-05
2018-09-16 00:00:00,2018-09-16 00:00:00,PRATE,surface,-95.6254,29.7637,7.5e-05
2018-09-16 00:00:00,2018-09-16 00:00:00,PRATE,surface,-94.6879,29.7637,6.69e-05
2018-09-16 00:00:00,2018-09-16 00:00:00,PRATE,surface,-93.7504,29.7637,6.12e-05
2018-09-16 00:00:00,2018-09-16 00:00:00,PRATE,surface,-92.8129,29.7637,7.92e-05
2018-09-16 00:00:00,2018-09-16 00:00:00,PRATE,surface,-107.813,30.7085,7.8e-06
2018-09-16 00:00:00,2018-09-16 00:00:00,PRATE,surface,-106.875,30.7085,1.56e-05
2018-09-16 00:00:00,2018-09-16 00:00:00,PRATE,surface,-105.938,30.7085,2.4e-05
2018-09-16 00:00:00,2018-09-16 00:00:00,PRATE,surface,-105,30.7085,2.07e-05
2018-09-16 00:00:00,2018-09-16 00:00:00,PRATE,surface,-104.063,30.7085,2.3e-05
2018-09-16 00:00:00,2018-09-16 00:00:00,PRATE,surface,-103.125,30.7085,3.12e-05
2018-09-16 00:00:00,2018-09-16 00:00:00,PRATE,surface,-102.188,30.7085,2.58e-05
2018-09-16 00:00:00,2018-09-16 00:00:00,PRATE,surface,-101.25,30.7085,2.73e-05
2018-09-16 00:00:00,2018-09-16 00:00:00,PRATE,surface,-100.313,30.7085,3.56e-05
2018-09-16 00:00:00,2018-09-16 00:00:00,PRATE,surface,-99.3754,30.7085,4.17e-05
2018-09-16 00:00:00,2018-09-16 00:00:00,PRATE,surface,-98.4379,30.7085,3.32e-05
2018-09-16 00:00:00,2018-09-16 00:00:00,PRATE,surface,-97.5004,30.7085,2.93e-05
2018-09-16 00:00:00,2018-09-16 00:00:00,PRATE,surface,-96.5629,30.7085,4.29e-05
2018-09-16 00:00:00,2018-09-16 00:00:00,PRATE,surface,-95.6254,30.7085,5.85e-05
2018-09-16 00:00:00,2018-09-16 00:00:00,PRATE,surface,-94.6879,30.7085,6.05e-05
2018-09-16 00:00:00,2018-09-16 00:00:00,PRATE,surface,-93.7504,30.7085,5.46e-05
2018-09-16 00:00:00,2018-09-16 00:00:00,PRATE,surface,-92.8129,30.7085,6.05e-05
2018-09-16 00:00:00,2018-09-16 00:00:00,PRATE,surface,-107.813,31.6534,1.11e-05
2018-09-16 00:00:00,2018-09-16 00:00:00,PRATE,surface,-106.875,31.6534,2.52e-05
2018-09-16 00:00:00,2018-09-16 00:00:00,PRATE,surface,-105.938,31.6534,3.64e-05
2018-09-16 00:00:00,2018-09-16 00:00:00,PRATE,surface,-105,31.6534,3.25e-05
2018-09-16 00:00:00,2018-09-16 00:00:00,PRATE,surface,-104.063,31.6534,2.52e-05
2018-09-16 00:00:00,2018-09-16 00:00:00,PRATE,surface,-103.125,31.6534,3.15e-05
2018-09-16 00:00:00,2018-09-16 00:00:00,PRATE,surface,-102.188,31.6534,3.02e-05
2018-09-16 00:00:00,2018-09-16 00:00:00,PRATE,surface,-101.25,31.6534,3.38e-05
2018-09-16 00:00:00,2018-09-16 00:00:00,PRATE,surface,-100.313,31.6534,3.74e-05
2018-09-16 00:00:00,2018-09-16 00:00:00,PRATE,surface,-99.3754,31.6534,3.91e-05
2018-09-16 00:00:00,2018-09-16 00:00:00,PRATE,surface,-98.4379,31.6534,3.73e-05
2018-09-16 00:00:00,2018-09-16 00:00:00,PRATE,surface,-97.5004,31.6534,3.78e-05
2018-09-16 00:00:00,2018-09-16 00:00:00,PRATE,surface,-96.5629,31.6534,4.27e-05
2018-09-16 00:00:00,2018-09-16 00:00:00,PRATE,surface,-95.6254,31.6534,4.72e-05
2018-09-16 00:00:00,2018-09-16 00:00:00,PRATE,surface,-94.6879,31.6534,5.12e-05
2018-09-16 00:00:00,2018-09-16 00:00:00,PRATE,surface,-93.7504,31.6534,5.81e-05
2018-09-16 00:00:00,2018-09-16 00:00:00,PRATE,surface,-92.8129,31.6534,6.42e-05
2018-09-16 00:00:00,2018-09-16 00:00:00,PRATE,surface,-107.813,32.5983,2.84e-05
2018-09-16 00:00:00,2018-09-16 00:00:00,PRATE,surface,-106.875,32.5983,4.28e-05
2018-09-16 00:00:00,2018-09-16 00:00:00,PRATE,surface,-105.938,32.5983,4.8e-05
2018-09-16 00:00:00,2018-09-16 00:00:00,PRATE,surface,-105,32.5983,3.92e-05
2018-09-16 00:00:00,2018-09-16 00:00:00,PRATE,surface,-104.063,32.5983,2.89e-05
2018-09-16 00:00:00,2018-09-16 00:00:00,PRATE,surface,-103.125,32.5983,3.37e-05
2018-09-16 00:00:00,2018-09-16 00:00:00,PRATE,surface,-102.188,32.5983,3.79e-05
2018-09-16 00:00:00,2018-09-16 00:00:00,PRATE,surface,-101.25,32.5983,4.17e-05
2018-09-16 00:00:00,2018-09-16 00:00:00,PRATE,surface,-100.313,32.5983,3.97e-05
2018-09-16 00:00:00,2018-09-16 00:00:00,PRATE,surface,-99.3754,32.5983,3.6e-05
2018-09-16 00:00:00,2018-09-16 00:00:00,PRATE,surface,-98.4379,32.5983,3.71e-05
2018-09-16 00:00:00,2018-09-16 00:00:00,PRATE,surface,-97.5004,32.5983,4.37e-05
2018-09-16 00:00:00,2018-09-16 00:00:00,PRATE,surface,-96.5629,32.5983,5.27e-05
2018-09-16 00:00:00,2018-09-16 00:00:00,PRATE,surface,-95.6254,32.5983,5.73e-05
2018-09-16 00:00:00,2018-09-16 00:00:00,PRATE,surface,-94.6879,32.5983,5.65e-05
2018-09-16 00:00:00,2018-09-16 00:00:00,PRATE,surface,-93.7504,32.5983,5.56e-05
2018-09-16 00:00:00,2018-09-16 00:00:00,PRATE,surface,-92.8129,32.5983,4.87e-05
2018-09-16 00:00:00,2018-09-16 00:00:00,PRATE,surface,-107.813,33.5432,3.7e-05
2018-09-16 00:00:00,2018-09-16 00:00:00,PRATE,surface,-106.875,33.5432,4.17e-05
2018-09-16 00:00:00,2018-09-16 00:00:00,PRATE,surface,-105.938,33.5432,4.11e-05
2018-09-16 00:00:00,2018-09-16 00:00:00,PRATE,surface,-105,33.5432,3.54e-05
2018-09-16 00:00:00,2018-09-16 00:00:00,PRATE,surface,-104.063,33.5432,3.4e-05
2018-09-16 00:00:00,2018-09-16 00:00:00,PRATE,surface,-103.125,33.5432,3e-05
2018-09-16 00:00:00,2018-09-16 00:00:00,PRATE,surface,-102.188,33.5432,3.35e-05
2018-09-16 00:00:00,2018-09-16 00:00:00,PRATE,surface,-101.25,33.5432,4.63e-05
2018-09-16 00:00:00,2018-09-16 00:00:00,PRATE,surface,-100.313,33.5432,4.8e-05
2018-09-16 00:00:00,2018-09-16 00:00:00,PRATE,surface,-99.3754,33.5432,3.93e-05
2018-09-16 00:00:00,2018-09-16 00:00:00,PRATE,surface,-98.4379,33.5432,3.22e-05
2018-09-16 00:00:00,2018-09-16 00:00:00,PRATE,surface,-97.5004,33.5432,4.24e-05
2018-09-16 00:00:00,2018-09-16 00:00:00,PRATE,surface,-96.5629,33.5432,6.08e-05
2018-09-16 00:00:00,2018-09-16 00:00:00,PRATE,surface,-95.6254,33.5432,6.9e-05
2018-09-16 00:00:00,2018-09-16 00:00:00,PRATE,surface,-94.6879,33.5432,6.81e-05
2018-09-16 00:00:00,2018-09-16 00:00:00,PRATE,surface,-93.7504,33.5432,6.15e-05
2018-09-16 00:00:00,2018-09-16 00:00:00,PRATE,surface,-92.8129,33.5432,4.95e-05
2018-09-16 00:00:00,2018-09-16 00:00:00,PRATE,surface,-107.813,34.4881,2.14e-05
2018-09-16 00:00:00,2018-09-16 00:00:00,PRATE,surface,-106.875,34.4881,1.17e-05
2018-09-16 00:00:00,2018-09-16 00:00:00,PRATE,surface,-105.938,34.4881,1.79e-05
2018-09-16 00:00:00,2018-09-16 00:00:00,PRATE,surface,-105,34.4881,3.27e-05
2018-09-16 00:00:00,2018-09-16 00:00:00,PRATE,surface,-104.063,34.4881,4.11e-05
2018-09-16 00:00:00,2018-09-16 00:00:00,PRATE,surface,-103.125,34.4881,3e-05
2018-09-16 00:00:00,2018-09-16 00:00:00,PRATE,surface,-102.188,34.4881,2.99e-05
2018-09-16 00:00:00,2018-09-16 00:00:00,PRATE,surface,-101.25,34.4881,4.36e-05
2018-09-16 00:00:00,2018-09-16 00:00:00,PRATE,surface,-100.313,34.4881,4.63e-05
2018-09-16 00:00:00,2018-09-16 00:00:00,PRATE,surface,-99.3754,34.4881,3.84e-05
2018-09-16 00:00:00,2018-09-16 00:00:00,PRATE,surface,-98.4379,34.4881,3.33e-05
2018-09-16 00:00:00,2018-09-16 00:00:00,PRATE,surface,-97.5004,34.4881,3.96e-05
2018-09-16 00:00:00,2018-09-16 00:00:00,PRATE,surface,-96.5629,34.4881,5.53e-05
2018-09-16 00:00:00,2018-09-16 00:00:00,PRATE,surface,-95.6254,34.4881,7.17e-05
2018-09-16 00:00:00,2018-09-16 00:00:00,PRATE,surface,-94.6879,34.4881,8.37e-05
2018-09-16 00:00:00,2018-09-16 00:00:00,PRATE,surface,-93.7504,34.4881,8.75e-05
2018-09-16 00:00:00,2018-09-16 00:00:00,PRATE,surface,-92.8129,34.4881,7.1e-05
2018-09-16 00:00:00,2018-09-16 00:00:00,PRATE,surface,-107.813,35.4329,1.41e-05
2018-09-16 00:00:00,2018-09-16 00:00:00,PRATE,surface,-106.875,35.4329,9.9e-06
2018-09-16 00:00:00,2018-09-16 00:00:00,PRATE,surface,-105.938,35.4329,1.52e-05
2018-09-16 00:00:00,2018-09-16 00:00:00,PRATE,surface,-105,35.4329,2.5e-05
2018-09-16 00:00:00,2018-09-16 00:00:00,PRATE,surface,-104.063,35.4329,3.44e-05
2018-09-16 00:00:00,2018-09-16 00:00:00,PRATE,surface,-103.125,35.4329,3.84e-05
2018-09-16 00:00:00,2018-09-16 00:00:00,PRATE,surface,-102.188,35.4329,4.47e-05
2018-09-16 00:00:00,2018-09-16 00:00:00,PRATE,surface,-101.25,35.4329,5.07e-05
2018-09-16 00:00:00,2018-09-16 00:00:00,PRATE,surface,-100.313,35.4329,4.54e-05
2018-09-16 00:00:00,2018-09-16 00:00:00,PRATE,surface,-99.3754,35.4329,3.87e-05
2018-09-16 00:00:00,2018-09-16 00:00:00,PRATE,surface,-98.4379,35.4329,3.68e-05
2018-09-16 00:00:00,2018-09-16 00:00:00,PRATE,surface,-97.5004,35.4329,3.66e-05
2018-09-16 00:00:00,2018-09-16 00:00:00,PRATE,surface,-96.5629,35.4329,4.26e-05
2018-09-16 00:00:00,2018-09-16 00:00:00,PRATE,surface,-95.6254,35.4329,6.14e-05
2018-09-16 00:00:00,2018-09-16 00:00:00,PRATE,surface,-94.6879,35.4329,8.39e-05
2018-09-16 00:00:00,2018-09-16 00:00:00,PRATE,surface,-93.7504,35.4329,9.38e-05
2018-09-16 00:00:00,2018-09-16 00:00:00,PRATE,surface,-92.8129,35.4329,8.53e-05
2018-09-16 00:00:00,2018-09-16 00:00:00,PRATE,surface,-107.813,36.3778,1.35e-05
2018-09-16 00:00:00,2018-09-16 00:00:00,PRATE,surface,-106.875,36.3778,1.96e-05
2018-09-16 00:00:00,2018-09-16 00:00:00,PRATE,surface,-105.938,36.3778,2.72e-05
2018-09-16 00:00:00,2018-09-16 00:00:00,PRATE,surface,-105,36.3778,4.22e-05
2018-09-16 00:00:00,2018-09-16 00:00:00,PRATE,surface,-104.063,36.3778,5.84e-05
2018-09-16 00:00:00,2018-09-16 00:00:00,PRATE,surface,-103.125,36.3778,6.04e-05
2018-09-16 00:00:00,2018-09-16 00:00:00,PRATE,surface,-102.188,36.3778,6.96e-05
2018-09-16 00:00:00,2018-09-16 00:00:00,PRATE,surface,-101.25,36.3778,7.89e-05
2018-09-16 00:00:00,2018-09-16 00:00:00,PRATE,surface,-100.313,36.3778,7.65e-05
2018-09-16 00:00:00,2018-09-16 00:00:00,PRATE,surface,-99.3754,36.3778,6.32e-05
2018-09-16 00:00:00,2018-09-16 00:00:00,PRATE,surface,-98.4379,36.3778,5.72e-05
2018-09-16 00:00:00,2018-09-16 00:00:00,PRATE,surface,-97.5004,36.3778,5.44e-05
2018-09-16 00:00:00,2018-09-16 00:00:00,PRATE,surface,-96.5629,36.3778,5.14e-05
2018-09-16 00:00:00,2018-09-16 00:00:00,PRATE,surface,-95.6254,36.3778,5.72e-05
2018-09-16 00:00:00,2018-09-16 00:00:00,PRATE,surface,-94.6879,36.3778,7.21e-05
2018-09-16 00:00:00,2018-09-16 00:00:00,PRATE,surface,-93.7504,36.3778,8.54e-05
2018-09-16 00:00:00,2018-09-16 00:00:00,PRATE,surface,-92.8129,36.3778,8.44e-05
