2014-11-23 00:00:00,2014-11-23 00:00:00,TMP,surface,-107.813,25.0393,292.443
2014-11-23 00:00:00,2014-11-23 00:00:00,TMP,surface,-106.875,25.0393,287.464
2014-11-23 00:00:00,2014-11-23 00:00:00,TMP,surface,-105.938,25.0393,282.613
2014-11-23 00:00:00,2014-11-23 00:00:00,TMP,surface,-105,25.0393,280.707
2014-11-23 00:00:00,2014-11-23 00:00:00,TMP,surface,-104.063,25.0393,283.598
2014-11-23 00:00:00,2014-11-23 00:00:00,TMP,surface,-103.125,25.0393,285.09
2014-11-23 00:00:00,2014-11-23 00:00:00,TMP,surface,-102.188,25.0393,285.24
2014-11-23 00:00:00,2014-11-23 00:00:00,TMP,surface,-101.25,25.0393,283.648
2014-11-23 00:00:00,2014-11-23 00:00:00,TMP,surface,-100.313,25.0393,283.371
2014-11-23 00:00:00,2014-11-23 00:00:00,TMP,surface,-99.3754,25.0393,284.691
2014-11-23 00:00:00,2014-11-23 00:00:00,TMP,surface,-98.4379,25.0393,286.797
2014-11-23 00:00:00,2014-11-23 00:00:00,TMP,surface,-97.5004,25.0393,292.134
2014-11-23 00:00:00,2014-11-23 00:00:00,TMP,surface,-96.5629,25.0393,292.965
2014-11-23 00:00:00,2014-11-23 00:00:00,TMP,surface,-95.6254,25.0393,293.486
2014-11-23 00:00:00,2014-11-23 00:00:00,TMP,surface,-94.6879,25.0393,294.014
2014-11-23 00:00:00,2014-11-23 00:00:00,TMP,surface,-93.7504,25.0393,294.298
2014-11-23 00:00:00,2014-11-23 00:00:00,TMP,surface,-92.8129,25.0393,294.691
2014-11-23 00:00:00,2014-11-23 00:00:00,TMP,surface,-107.813,25.9842,288.142
2014-11-23 00:00:00,2014-11-23 00:00:00,TMP,surface,-106.875,25.9842,283.067
2014-11-23 00:00:00,2014-11-23 00:00:00,TMP,surface,-105.938,25.9842,280.541
2014-11-23 00:00:00,2014-11-23 00:00:00,TMP,surface,-105,25.9842,281.611
2014-11-23 00:00:00,2014-11-23 00:00:00,TMP,surface,-104.063,25.9842,284.069
2014-11-23 00:00:00,2014-11-23 00:00:00,TMP,surface,-103.125,25.9842,284.824
2014-11-23 00:00:00,2014-11-23 00:00:00,TMP,surface,-102.188,25.9842,284.138
2014-11-23 00:00:00,2014-11-23 00:00:00,TMP,surface,-101.25,25.9842,282.97
2014-11-23 00:00:00,2014-11-23 00:00:00,TMP,surface,-100.313,25.9842,282.83
2014-11-23 00:00:00,2014-11-23 00:00:00,TMP,surface,-99.3754,25.9842,284.197
2014-11-23 00:00:00,2014-11-23 00:00:00,TMP,surface,-98.4379,25.9842,285.886
2014-11-23 00:00:00,2014-11-23 00:00:00,TMP,surface,-97.5004,25.9842,288.099
2014-11-23 00:00:00,2014-11-23 00:00:00,TMP,surface,-96.5629,25.9842,292.67
2014-11-23 00:00:00,2014-11-23 00:00:00,TMP,surface,-95.6254,25.9842,293.174
2014-11-23 00:00:00,2014-11-23 00:00:00,TMP,surface,-94.6879,25.9842,293.331
2014-11-23 00:00:00,2014-11-23 00:00:00,TMP,surface,-93.7504,25.9842,293.472
2014-11-23 00:00:00,2014-11-23 00:00:00,TMP,surface,-92.8129,25.9842,293.864
2014-11-23 00:00:00,2014-11-23 00:00:00,TMP,surface,-107.813,26.929,283.709
2014-11-23 00:00:00,2014-11-23 00:00:00,TMP,surface,-106.875,26.929,279.981
2014-11-23 00:00:00,2014-11-23 00:00:00,TMP,surface,-105.938,26.929,281.019
2014-11-23 00:00:00,2014-11-23 00:00:00,TMP,surface,-105,26.929,283.08
2014-11-23 00:00:00,2014-11-23 00:00:00,TMP,surface,-104.063,26.929,283.619
2014-11-23 00:00:00,2014-11-23 00:00:00,TMP,surface,-103.125,26.929,282.51
2014-11-23 00:00:00,2014-11-23 00:00:00,TMP,surface,-102.188,26.929,281.949
2014-11-23 00:00:00,2014-11-23 00:00:00,TMP,surface,-101.25,26.929,282.163
2014-11-23 00:00:00,2014-11-23 00:00:00,TMP,surface,-100.313,26.929,282.526
2014-11-23 00:00:00,2014-11-23 00:00:00,TMP,surface,-99.3754,26.929,283.282
2014-11-23 00:00:00,2014-11-23 00:00:00,TMP,surface,-98.4379,26.929,284.2
2014-11-23 00:00:00,2014-11-23 00:00:00,TMP,surface,-97.5004,26.929,290.517
2014-11-23 00:00:00,2014-11-23 00:00:00,TMP,surface,-96.5629,26.929,292.189
2014-11-23 00:00:00,2014-11-23 00:00:00,TMP,surface,-95.6254,26.929,292.965
2014-11-23 00:00:00,2014-11-23 00:00:00,TMP,surface,-94.6879,26.929,293.189
2014-11-23 00:00:00,2014-11-23 00:00:00,TMP,surface,-93.7504,26.929,293.195
2014-11-23 00:00:00,2014-11-23 00:00:00,TMP,surface,-92.8129,26.929,293.266
2014-11-23 00:00:00,2014-11-23 00:00:00,TMP,surface,-107.813,27.8739,280.664
2014-11-23 00:00:00,2014-11-23 00:00:00,TMP,surface,-106.875,27.8739,279.078
2014-11-23 00:00:00,2014-11-23 00:00:00,TMP,surface,-105.938,27.8739,281.405
2014-11-23 00:00:00,2014-11-23 00:00:00,TMP,surface,-105,27.8739,283.243
2014-11-23 00:00:00,2014-11-23 00:00:00,TMP,surface,-104.063,27.8739,282.923
2014-11-23 00:00:00,2014-11-23 00:00:00,TMP,surface,-103.125,27.8739,281.168
2014-11-23 00:00:00,2014-11-23 00:00:00,TMP,surface,-102.188,27.8739,280.832
2014-11-23 00:00:00,2014-11-23 00:00:00,TMP,surface,-101.25,27.8739,281.466
2014-11-23 00:00:00,2014-11-23 00:00:00,TMP,surface,-100.313,27.8739,282
2014-11-23 00:00:00,2014-11-23 00:00:00,TMP,surface,-99.3754,27.8739,282.13
2014-11-23 00:00:00,2014-11-23 00:00:00,TMP,surface,-98.4379,27.8739,282.706
2014-11-23 00:00:00,2014-11-23 00:00:00,TMP,surface,-97.5004,27.8739,287.362
2014-11-23 00:00:00,2014-11-23 00:00:00,TMP,surface,-96.5629,27.8739,291.973
2014-11-23 00:00:00,2014-11-23 00:00:00,TMP,surface,-95.6254,27.8739,292.606
2014-11-23 00:00:00,2014-11-23 00:00:00,TMP,surface,-94.6879,27.8739,292.787
2014-11-23 00:00:00,2014-11-23 00:00:00,TMP,surface,-93.7504,27.8739,292.8
2014-11-23 00:00:00,2014-11-23 00:00:00,TMP,surface,-92.8129,27.8739,292.816
2014-11-23 00:00:00,2014-11-23 00:00:00,TMP,surface,-107.813,28.8188,278.997
2014-11-23 00:00:00,2014-11-23 00:00:00,TMP,surface,-106.875,28.8188,279.014
2014-11-23 00:00:00,2014-11-23 00:00:00,TMP,surface,-105.938,28.8188,281.141
2014-11-23 00:00:00,2014-11-23 00:00:00,TMP,surface,-105,28.8188,282.234
2014-11-23 00:00:00,2014-11-23 00:00:00,TMP,surface,-104.063,28.8188,281.106
2014-11-23 00:00:00,2014-11-23 00:00:00,TMP,surface,-103.125,28.8188,280.09
2014-11-23 00:00:00,2014-11-23 00:00:00,TMP,surface,-102.188,28.8188,280.112
2014-11-23 00:00:00,2014-11-23 00:00:00,TMP,surface,-101.25,28.8188,280.906
2014-11-23 00:00:00,2014-11-23 00:00:00,TMP,surface,-100.313,28.8188,280.955
2014-11-23 00:00:00,2014-11-23 00:00:00,TMP,surface,-99.3754,28.8188,280.629
2014-11-23 00:00:00,2014-11-23 00:00:00,TMP,surface,-98.4379,28.8188,280.774
2014-11-23 00:00:00,2014-11-23 00:00:00,TMP,surface,-97.5004,28.8188,281.598
2014-11-23 00:00:00,2014-11-23 00:00:00,TMP,surface,-96.5629,28.8188,282.778
2014-11-23 00:00:00,2014-11-23 00:00:00,TMP,surface,-95.6254,28.8188,286.717
2014-11-23 00:00:00,2014-11-23 00:00:00,TMP,surface,-94.6879,28.8188,292.094
2014-11-23 00:00:00,2014-11-23 00:00:00,TMP,surface,-93.7504,28.8188,292.261
2014-11-23 00:00:00,2014-11-23 00:00:00,TMP,surface,-92.8129,28.8188,292.432
2014-11-23 00:00:00,2014-11-23 00:00:00,TMP,surface,-107.813,29.7637,279.152
2014-11-23 00:00:00,2014-11-23 00:00:00,TMP,surface,-106.875,29.7637,279.362
2014-11-23 00:00:00,2014-11-23 00:00:00,TMP,surface,-105.938,29.7637,280.76
2014-11-23 00:00:00,2014-11-23 00:00:00,TMP,surface,-105,29.7637,280.208
2014-11-23 00:00:00,2014-11-23 00:00:00,TMP,surface,-104.063,29.7637,279.664
2014-11-23 00:00:00,2014-11-23 00:00:00,TMP,surface,-103.125,29.7637,279.65
2014-11-23 00:00:00,2014-11-23 00:00:00,TMP,surface,-102.188,29.7637,279.986
2014-11-23 00:00:00,2014-11-23 00:00:00,TMP,surface,-101.25,29.7637,280.032
2014-11-23 00:00:00,2014-11-23 00:00:00,TMP,surface,-100.313,29.7637,279.544
2014-11-23 00:00:00,2014-11-23 00:00:00,TMP,surface,-99.3754,29.7637,279.155
2014-11-23 00:00:00,2014-11-23 00:00:00,TMP,surface,-98.4379,29.7637,279.242
2014-11-23 00:00:00,2014-11-23 00:00:00,TMP,surface,-97.5004,29.7637,279.614
2014-11-23 00:00:00,2014-11-23 00:00:00,TMP,surface,-96.5629,29.7637,280.2
2014-11-23 00:00:00,2014-11-23 00:00:00,TMP,surface,-95.6254,29.7637,281.062
2014-11-23 00:00:00,2014-11-23 00:00:00,TMP,surface,-94.6879,29.7637,284.602
2014-11-23 00:00:00,2014-11-23 00:00:00,TMP,surface,-93.7504,29.7637,288.68
2014-11-23 00:00:00,2014-11-23 00:00:00,TMP,surface,-92.8129,29.7637,281.874
2014-11-23 00:00:00,2014-11-23 00:00:00,TMP,surface,-107.813,30.7085,280.099
2014-11-23 00:00:00,2014-11-23 00:00:00,TMP,surface,-106.875,30.7085,280.506
2014-11-23 00:00:00,2014-11-23 00:00:00,TMP,surface,-105.938,30.7085,279.835
2014-11-23 00:00:00,2014-11-23 00:00:00,TMP,surface,-105,30.7085,278.837
2014-11-23 00:00:00,2014-11-23 00:00:00,TMP,surface,-104.063,30.7085,278.338
2014-11-23 00:00:00,2014-11-23 00:00:00,TMP,surface,-103.125,30.7085,278.851
2014-11-23 00:00:00,2014-11-23 00:00:00,TMP,surface,-102.188,30.7085,279.12
2014-11-23 00:00:00,2014-11-23 00:00:00,TMP,surface,-101.25,30.7085,278.779
2014-11-23 00:00:00,2014-11-23 00:00:00,TMP,surface,-100.313,30.7085,278.373
2014-11-23 00:00:00,2014-11-23 00:00:00,TMP,surface,-99.3754,30.7085,278.31
2014-11-23 00:00:00,2014-11-23 00:00:00,TMP,surface,-98.4379,30.7085,278.504
2014-11-23 00:00:00,2014-11-23 00:00:00,TMP,surface,-97.5004,30.7085,278.734
2014-11-23 00:00:00,2014-11-23 00:00:00,TMP,surface,-96.5629,30.7085,278.904
2014-11-23 00:00:00,2014-11-23 00:00:00,TMP,surface,-95.6254,30.7085,279.03
2014-11-23 00:00:00,2014-11-23 00:00:00,TMP,surface,-94.6879,30.7085,279.032
2014-11-23 00:00:00,2014-11-23 00:00:00,TMP,surface,-93.7504,30.7085,278.739
2014-11-23 00:00:00,2014-11-23 00:00:00,TMP,surface,-92.8129,30.7085,278.314
2014-11-23 00:00:00,2014-11-23 00:00:00,TMP,surface,-107.813,31.6534,279.522
2014-11-23 00:00:00,2014-11-23 00:00:00,TMP,surface,-106.875,31.6534,279.662
2014-11-23 00:00:00,2014-11-23 00:00:00,TMP,surface,-105.938,31.6534,278.286
2014-11-23 00:00:00,2014-11-23 00:00:00,TMP,surface,-105,31.6534,277.653
2014-11-23 00:00:00,2014-11-23 00:00:00,TMP,surface,-104.063,31.6534,277.685
2014-11-23 00:00:00,2014-11-23 00:00:00,TMP,surface,-103.125,31.6534,278.011
2014-11-23 00:00:00,2014-11-23 00:00:00,TMP,surface,-102.188,31.6534,278.099
2014-11-23 00:00:00,2014-11-23 00:00:00,TMP,surface,-101.25,31.6534,277.763
2014-11-23 00:00:00,2014-11-23 00:00:00,TMP,surface,-100.313,31.6534,277.579
2014-11-23 00:00:00,2014-11-23 00:00:00,TMP,surface,-99.3754,31.6534,277.739
2014-11-23 00:00:00,2014-11-23 00:00:00,TMP,surface,-98.4379,31.6534,278.05
2014-11-23 00:00:00,2014-11-23 00:00:00,TMP,surface,-97.5004,31.6534,278.245
2014-11-23 00:00:00,2014-11-23 00:00:00,TMP,surface,-96.5629,31.6534,278.262
2014-11-23 00:00:00,2014-11-23 00:00:00,TMP,surface,-95.6254,31.6534,278.086
2014-11-23 00:00:00,2014-11-23 00:00:00,TMP,surface,-94.6879,31.6534,277.672
2014-11-23 00:00:00,2014-11-23 00:00:00,TMP,surface,-93.7504,31.6534,277.206
2014-11-23 00:00:00,2014-11-23 00:00:00,TMP,surface,-92.8129,31.6534,277.011
2014-11-23 00:00:00,2014-11-23 00:00:00,TMP,surface,-107.813,32.5983,277.266
2014-11-23 00:00:00,2014-11-23 00:00:00,TMP,surface,-106.875,32.5983,277.154
2014-11-23 00:00:00,2014-11-23 00:00:00,TMP,surface,-105.938,32.5983,276.917
2014-11-23 00:00:00,2014-11-23 00:00:00,TMP,surface,-105,32.5983,276.742
2014-11-23 00:00:00,2014-11-23 00:00:00,TMP,surface,-104.063,32.5983,277.222
2014-11-23 00:00:00,2014-11-23 00:00:00,TMP,surface,-103.125,32.5983,277.47
2014-11-23 00:00:00,2014-11-23 00:00:00,TMP,surface,-102.188,32.5983,277.336
2014-11-23 00:00:00,2014-11-23 00:00:00,TMP,surface,-101.25,32.5983,277.267
2014-11-23 00:00:00,2014-11-23 00:00:00,TMP,surface,-100.313,32.5983,277.285
2014-11-23 00:00:00,2014-11-23 00:00:00,TMP,surface,-99.3754,32.5983,277.346
2014-11-23 00:00:00,2014-11-23 00:00:00,TMP,surface,-98.4379,32.5983,277.354
2014-11-23 00:00:00,2014-11-23 00:00:00,TMP,surface,-97.5004,32.5983,277.397
2014-11-23 00:00:00,2014-11-23 00:00:00,TMP,surface,-96.5629,32.5983,277.429
2014-11-23 00:00:00,2014-11-23 00:00:00,TMP,surface,-95.6254,32.5983,277.198
2014-11-23 00:00:00,2014-11-23 00:00:00,TMP,surface,-94.6879,32.5983,276.691
2014-11-23 00:00:00,2014-11-23 00:00:00,TMP,surface,-93.7504,32.5983,276.288
2014-11-23 00:00:00,2014-11-23 00:00:00,TMP,surface,-92.8129,32.5983,276.307
2014-11-23 00:00:00,2014-11-23 00:00:00,TMP,surface,-107.813,33.5432,274.582
2014-11-23 00:00:00,2014-11-23 00:00:00,TMP,surface,-106.875,33.5432,275.358
2014-11-23 00:00:00,2014-11-23 00:00:00,TMP,surface,-105.938,33.5432,275.88
2014-11-23 00:00:00,2014-11-23 00:00:00,TMP,surface,-105,33.5432,276.117
2014-11-23 00:00:00,2014-11-23 00:00:00,TMP,surface,-104.063,33.5432,276.466
2014-11-23 00:00:00,2014-11-23 00:00:00,TMP,surface,-103.125,33.5432,276.678
2014-11-23 00:00:00,2014-11-23 00:00:00,TMP,surface,-102.188,33.5432,276.48
2014-11-23 00:00:00,2014-11-23 00:00:00,TMP,surface,-101.25,33.5432,276.544
2014-11-23 00:00:00,2014-11-23 00:00:00,TMP,surface,-100.313,33.5432,276.704
2014-11-23 00:00:00,2014-11-23 00:00:00,TMP,surface,-99.3754,33.5432,276.728
2014-11-23 00:00:00,2014-11-23 00:00:00,TMP,surface,-98.4379,33.5432,276.446
2014-11-23 00:00:00,2014-11-23 00:00:00,TMP,surface,-97.5004,33.5432,276.042
2014-11-23 00:00:00,2014-11-23 00:00:00,TMP,surface,-96.5629,33.5432,275.811
2014-11-23 00:00:00,2014-11-23 00:00:00,TMP,surface,-95.6254,33.5432,275.694
2014-11-23 00:00:00,2014-11-23 00:00:00,TMP,surface,-94.6879,33.5432,275.368
2014-11-23 00:00:00,2014-11-23 00:00:00,TMP,surface,-93.7504,33.5432,274.883
2014-11-23 00:00:00,2014-11-23 00:00:00,TMP,surface,-92.8129,33.5432,274.778
2014-11-23 00:00:00,2014-11-23 00:00:00,TMP,surface,-107.813,34.4881,273.141
2014-11-23 00:00:00,2014-11-23 00:00:00,TMP,surface,-106.875,34.4881,274.091
2014-11-23 00:00:00,2014-11-23 00:00:00,TMP,surface,-105.938,34.4881,274.555
2014-11-23 00:00:00,2014-11-23 00:00:00,TMP,surface,-105,34.4881,274.896
2014-11-23 00:00:00,2014-11-23 00:00:00,TMP,surface,-104.063,34.4881,275.256
2014-11-23 00:00:00,2014-11-23 00:00:00,TMP,surface,-103.125,34.4881,275.442
2014-11-23 00:00:00,2014-11-23 00:00:00,TMP,surface,-102.188,34.4881,275.595
2014-11-23 00:00:00,2014-11-23 00:00:00,TMP,surface,-101.25,34.4881,275.643
2014-11-23 00:00:00,2014-11-23 00:00:00,TMP,surface,-100.313,34.4881,275.654
2014-11-23 00:00:00,2014-11-23 00:00:00,TMP,surface,-99.3754,34.4881,275.493
2014-11-23 00:00:00,2014-11-23 00:00:00,TMP,surface,-98.4379,34.4881,275.122
2014-11-23 00:00:00,2014-11-23 00:00:00,TMP,surface,-97.5004,34.4881,274.731
2014-11-23 00:00:00,2014-11-23 00:00:00,TMP,surface,-96.5629,34.4881,274.501
2014-11-23 00:00:00,2014-11-23 00:00:00,TMP,surface,-95.6254,34.4881,274.234
2014-11-23 00:00:00,2014-11-23 00:00:00,TMP,surface,-94.6879,34.4881,273.686
2014-11-23 00:00:00,2014-11-23 00:00:00,TMP,surface,-93.7504,34.4881,273.152
2014-11-23 00:00:00,2014-11-23 00:00:00,TMP,surface,-92.8129,34.4881,273.045
2014-11-23 00:00:00,2014-11-23 00:00:00,TMP,surface,-107.813,35.4329,272.422
2014-11-23 00:00:00,2014-11-23 00:00:00,TMP,surface,-106.875,35.4329,272.552
2014-11-23 00:00:00,2014-11-23 00:00:00,TMP,surface,-105.938,35.4329,272.784
2014-11-23 00:00:00,2014-11-23 00:00:00,TMP,surface,-105,35.4329,273.347
2014-11-23 00:00:00,2014-11-23 00:00:00,TMP,surface,-104.063,35.4329,274.101
2014-11-23 00:00:00,2014-11-23 00:00:00,TMP,surface,-103.125,35.4329,274.749
2014-11-23 00:00:00,2014-11-23 00:00:00,TMP,surface,-102.188,35.4329,274.813
2014-11-23 00:00:00,2014-11-23 00:00:00,TMP,surface,-101.25,35.4329,274.618
2014-11-23 00:00:00,2014-11-23 00:00:00,TMP,surface,-100.313,35.4329,274.32
2014-11-23 00:00:00,2014-11-23 00:00:00,TMP,surface,-99.3754,35.4329,273.944
2014-11-23 00:00:00,2014-11-23 00:00:00,TMP,surface,-98.4379,35.4329,273.675
2014-11-23 00:00:00,2014-11-23 00:00:00,TMP,surface,-97.5004,35.4329,273.635
2014-11-23 00:00:00,2014-11-23 00:00:00,TMP,surface,-96.5629,35.4329,273.651
2014-11-23 00:00:00,2014-11-23 00:00:00,TMP,surface,-95.6254,35.4329,273.408
2014-11-23 00:00:00,2014-11-23 00:00:00,TMP,surface,-94.6879,35.4329,272.797
2014-11-23 00:00:00,2014-11-23 00:00:00,TMP,surface,-93.7504,35.4329,272.088
2014-11-23 00:00:00,2014-11-23 00:00:00,TMP,surface,-92.8129,35.4329,271.768
2014-11-23 00:00:00,2014-11-23 00:00:00,TMP,surface,-107.813,36.3778,271.352
2014-11-23 00:00:00,2014-11-23 00:00:00,TMP,surface,-106.875,36.3778,270.352
2014-11-23 00:00:00,2014-11-23 00:00:00,TMP,surface,-105.938,36.3778,270.429
2014-11-23 00:00:00,2014-11-23 00:00:00,TMP,surface,-105,36.3778,271.587
2014-11-23 00:00:00,2014-11-23 00:00:00,TMP,surface,-104.063,36.3778,272.955
2014-11-23 00:00:00,2014-11-23 00:00:00,TMP,surface,-103.125,36.3778,273.453
2014-11-23 00:00:00,2014-11-23 00:00:00,TMP,surface,-102.188,36.3778,273.525
2014-11-23 00:00:00,2014-11-23 00:00:00,TMP,surface,-101.25,36.3778,273.346
2014-11-23 00:00:00,2014-11-23 00:00:00,TMP,surface,-100.313,36.3778,273.299
2014-11-23 00:00:00,2014-11-23 00:00:00,TMP,surface,-99.3754,36.3778,273.12
2014-11-23 00:00:00,2014-11-23 00:00:00,TMP,surface,-98.4379,36.3778,272.685
2014-11-23 00:00:00,2014-11-23 00:00:00,TMP,surface,-97.5004,36.3778,272.6
2014-11-23 00:00:00,2014-11-23 00:00:00,TMP,surface,-96.5629,36.3778,272.73
2014-11-23 00:00:00,2014-11-23 00:00:00,TMP,surface,-95.6254,36.3778,272.466
2014-11-23 00:00:00,2014-11-23 00:00:00,TMP,surface,-94.6879,36.3778,271.837
2014-11-23 00:00:00,2014-11-23 00:00:00,TMP,surface,-93.7504,36.3778,271.157
2014-11-23 00:00:00,2014-11-23 00:00:00,TMP,surface,-92.8129,36.3778,270.893
2014-11-23 00:00:00,2014-11-23 00:00:00,PRATE,surface,-107.813,25.0393,4.28e-05
2014-11-23 00:00:00,2014-11-23 00:00:00,PRATE,surface,-106.875,25.0393,6e-05
2014-11-23 00:00:00,2014-11-23 00:00:00,PRATE,surface,-105.938,25.0393,6.42e-05
2014-11-23 00:00:00,2014-11-23 00:00:00,PRATE,surface,-105,25.0393,4e-05
2014-11-23 00:00:00,2014-11-23 00:00:00,PRATE,surface,-104.063,25.0393,2.04e-05
2014-11-23 00:00:00,2014-11-23 00:00:00,PRATE,surface,-103.125,25.0393,1.3e-05
2014-11-23 00:00:00,2014-11-23 00:00:00,PRATE,surface,-102.188,25.0393,1.73e-05
2014-11-23 00:00:00,2014-11-23 00:00:00,PRATE,surface,-101.25,25.0393,3.43e-05
2014-11-23 00:00:00,2014-11-23 00:00:00,PRATE,surface,-100.313,25.0393,5.24e-05
2014-11-23 00:00:00,2014-11-23 00:00:00,PRATE,surface,-99.3754,25.0393,4.48e-05
2014-11-23 00:00:00,2014-11-23 00:00:00,PRATE,surface,-98.4379,25.0393,4.3e-05
2014-11-23 00:00:00,2014-11-23 00:00:00,PRATE,surface,-97.5004,25.0393,3.97e-05
2014-11-23 00:00:00,2014-11-23 00:00:00,PRATE,surface,-96.5629,25.0393,4.58e-05
2014-11-23 00:00:00,2014-11-23 00:00:00,PRATE,surface,-95.6254,25.0393,6.11e-05
2014-11-23 00:00:00,2014-11-23 00:00:00,PRATE,surface,-94.6879,25.0393,8.41e-05
2014-11-23 00:00:00,2014-11-23 00:00:00,PRATE,surface,-93.7504,25.0393,7.74e-05
2014-11-23 00:00:00,2014-11-23 00:00:00,PRATE,surface,-92.8129,25.0393,5.97e-05
2014-11-23 00:00:00,2014-11-23 00:00:00,PRATE,surface,-107.813,25.9842,5.06e-05
2014-11-23 00:00:00,2014-11-23 00:00:00,PRATE,surface,-106.875,25.9842,5.26e-05
2014-11-23 00:00:00,2014-11-23 00:00:00,PRATE,surface,-105.938,25.9842,4.2e-05
2014-11-23 00:00:00,2014-11-23 00:00:00,PRATE,surface,-105,25.9842,2.88e-05
2014-11-23 00:00:00,2014-11-23 00:00:00,PRATE,surface,-104.063,25.9842,1.86e-05
2014-11-23 00:00:00,2014-11-23 00:00:00,PRATE,surface,-103.125,25.9842,1.4e-05
2014-11-23 00:00:00,2014-11-23 00:00:00,PRATE,surface,-102.188,25.9842,2.09e-05
2014-11-23 00:00:00,2014-11-23 00:00:00,PRATE,surface,-101.25,25.9842,3.51e-05
2014-11-23 00:00:00,2014-11-23 00:00:00,PRATE,surface,-100.313,25.9842,4.93e-05
2014-11-23 00:00:00,2014-11-23 00:00:00,PRATE,surface,-99.3754,25.9842,4.4e-05
2014-11-23 00:00:00,2014-11-23 00:00:00,PRATE,surface,-98.4379,25.9842,4.41e-05
2014-11-23 00:00:00,2014-11-23 00:00:00,PRATE,surface,-97.5004,25.9842,4.55e-05
2014-11-23 00:00:00,2014-11-23 00:00:00,PRATE,surface,-96.5629,25.9842,5.1e-05
2014-11-23 00:00:00,2014-11-23 00:00:00,PRATE,surface,-95.6254,25.9842,5.81e-05
2014-11-23 00:00:00,2014-11-23 00:00:00,PRATE,surface,-94.6879,25.9842,5.57e-05
2014-11-23 00:00:00,2014-11-23 00:00:00,PRATE,surface,-93.7504,25.9842,7.09e-05
2014-11-23 00:00:00,2014-11-23 00:00:00,PRATE,surface,-92.8129,25.9842,7.31e-05
2014-11-23 00:00:00,2014-11-23 00:00:00,PRATE,surface,-107.813,26.929,4.69e-05
2014-11-23 00:00:00,2014-11-23 00:00:00,PRATE,surface,-106.875,26.929,4.6e-05
2014-11-23 00:00:00,2014-11-23 00:00:00,PRATE,surface,-105.938,26.929,3.16e-05
2014-11-23 00:00:00,2014-11-23 00:00:00,PRATE,surface,-105,26.929,2.44e-05
2014-11-23 00:00:00,2014-11-23 00:00:00,PRATE,surface,-104.063,26.929,1.95e-05
2014-11-23 00:00:00,2014-11-23 00:00:00,PRATE,surface,-103.125,26.929,2.24e-05
2014-11-23 00:00:00,2014-11-23 00:00:00,PRATE,surface,-102.188,26.929,2.82e-05
2014-11-23 00:00:00,2014-11-23 00:00:00,PRATE,surface,-101.25,26.929,3.52e-05
2014-11-23 00:00:00,2014-11-23 00:00:00,PRATE,surface,-100.313,26.929,3.87e-05
2014-11-23 00:00:00,2014-11-23 00:00:00,PRATE,surface,-99.3754,26.929,3.92e-05
2014-11-23 00:00:00,2014-11-23 00:00:00,PRATE,surface,-98.4379,26.929,4.31e-05
2014-11-23 00:00:00,2014-11-23 00:00:00,PRATE,surface,-97.5004,26.929,4.6e-05
2014-11-23 00:00:00,2014-11-23 00:00:00,PRATE,surface,-96.5629,26.929,4.74e-05
2014-11-23 00:00:00,2014-11-23 00:00:00,PRATE,surface,-95.6254,26.929,5.28e-05
2014-11-23 00:00:00,2014-11-23 00:00:00,PRATE,surface,-94.6879,26.929,5.12e-05
2014-11-23 00:00:00,2014-11-23 00:00:00,PRATE,surface,-93.7504,26.929,6.03e-05
2014-11-23 00:00:00,2014-11-23 00:00:00,PRATE,surface,-92.8129,26.929,7.49e-05
2014-11-23 00:00:00,2014-11-23 00:00:00,PRATE,surface,-107.813,27.8739,3.11e-05
2014-11-23 00:00:00,2014-11-23 00:00:00,PRATE,surface,-106.875,27.8739,2.63e-05
2014-11-23 00:00:00,2014-11-23 00:00:00,PRATE,surface,-105.938,27.8739,1.9e-05
2014-11-23 00:00:00,2014-11-23 00:00:00,PRATE,surface,-105,27.8739,1.6e-05
2014-11-23 00:00:00,2014-11-23 00:00:00,PRATE,surface,-104.063,27.8739,2.18e-05
2014-11-23 00:00:00,2014-11-23 00:00:00,PRATE,surface,-103.125,27.8739,3.2e-05
2014-11-23 00:00:00,2014-11-23 00:00:00,PRATE,surface,-102.188,27.8739,3.13e-05
2014-11-23 00:00:00,2014-11-23 00:00:00,PRATE,surface,-101.25,27.8739,2.83e-05
2014-11-23 00:00:00,2014-11-23 00:00:00,PRATE,surface,-100.313,27.8739,3.01e-05
2014-11-23 00:00:00,2014-11-23 00:00:00,PRATE,surface,-99.3754,27.8739,3.55e-05
2014-11-23 00:00:00,2014-11-23 00:00:00,PRATE,surface,-98.4379,27.8739,3.83e-05
2014-11-23 00:00:00,2014-11-23 00:00:00,PRATE,surface,-97.5004,27.8739,3.86e-05
2014-11-23 00:00:00,2014-11-23 00:00:00,PRATE,surface,-96.5629,27.8739,3.85e-05
2014-11-23 00:00:00,2014-11-23 00:00:00,PRATE,surface,-95.6254,27.8739,3.93e-05
2014-11-23 00:00:00,2014-11-23 00:00:00,PRATE,surface,-94.6879,27.8739,4.47e-05
2014-11-23 00:00:00,2014-11-23 00:00:00,PRATE,surface,-93.7504,27.8739,5.87e-05
2014-11-23 00:00:00,2014-11-23 00:00:00,PRATE,surface,-92.8129,27.8739,7.85e-05
2014-11-23 00:00:00,2014-11-23 00:00:00,PRATE,surface,-107.813,28.8188,2.95e-05
2014-11-23 00:00:00,2014-11-23 00:00:00,PRATE,surface,-106.875,28.8188,2.58e-05
2014-11-23 00:00:00,2014-11-23 00:00:00,PRATE,surface,-105.938,28.8188,1.88e-05
2014-11-23 00:00:00,2014-11-23 00:00:00,PRATE,surface,-105,28.8188,1.47e-05
2014-11-23 00:00:00,2014-11-23 00:00:00,PRATE,surface,-104.063,28.8188,1.84e-05
2014-11-23 00:00:00,2014-11-23 00:00:00,PRATE,surface,-103.125,28.8188,2.37e-05
2014-11-23 00:00:00,2014-11-23 00:00:00,PRATE,surface,-102.188,28.8188,2.24e-05
2014-11-23 00:00:00,2014-11-23 00:00:00,PRATE,surface,-101.25,28.8188,2.2e-05
2014-11-23 00:00:00,2014-11-23 00:00:00,PRATE,surface,-100.313,28.8188,2.69e-05
2014-11-23 00:00:00,2014-11-23 00:00:00,PRATE,surface,-99.3754,28.8188,3.3e-05
2014-11-23 00:00:00,2014-11-23 00:00:00,PRATE,surface,-98.4379,28.8188,3.28e-05
2014-11-23 00:00:00,2014-11-23 00:00:00,PRATE,surface,-97.5004,28.8188,2.99e-05
2014-11-23 00:00:00,2014-11-23 00:00:00,PRATE,surface,-96.5629,28.8188,2.97e-05
2014-11-23 00:00:00,2014-11-23 00:00:00,PRATE,surface,-95.6254,28.8188,3.15e-05
2014-11-23 00:00:00,2014-11-23 00:00:00,PRATE,surface,-94.6879,28.8188,3.33e-05
2014-11-23 00:00:00,2014-11-23 00:00:00,PRATE,surface,-93.7504,28.8188,3.83e-05
2014-11-23 00:00:00,2014-11-23 00:00:00,PRATE,surface,-92.8129,28.8188,5.51e-05
2014-11-23 00:00:00,2014-11-23 00:00:00,PRATE,surface,-107.813,29.7637,2.13e-05
2014-11-23 00:00:00,2014-11-23 00:00:00,PRATE,surface,-106.875,29.7637,2.33e-05
2014-11-23 00:00:00,2014-11-23 00:00:00,PRATE,surface,-105.938,29.7637,2.24e-05
2014-11-23 00:00:00,2014-11-23 00:00:00,PRATE,surface,-105,29.7637,2.04e-05
2014-11-23 00:00:00,2014-11-23 00:00:00,PRATE,surface,-104.063,29.7637,1.98e-05
2014-11-23 00:00:00,2014-11-23 00:00:00,PRATE,surface,-103.125,29.7637,1.83e-05
2014-11-23 00:00:00,2014-11-23 00:00:00,PRATE,surface,-102.188,29.7637,1.8e-05
2014-11-23 00:00:00,2014-11-23 00:00:00,PRATE,surface,-101.25,29.7637,2.12e-05
2014-11-23 00:00:00,2014-11-23 00:00:00,PRATE,surface,-100.313,29.7637,2.72e-05
2014-11-23 00:00:00,2014-11-23 00:00:00,PRATE,surface,-99.3754,29.7637,3.09e-05
2014-11-23 00:00:00,2014-11-23 00:00:00,PRATE,surface,-98.4379,29.7637,3.01e-05
2014-11-23 00:00:00,2014-11-23 00:00:00,PRATE,surface,-97.5004,29.7637,2.74e-05
2014-11-23 00:00:00,2014-11-23 00:00:00,PRATE,surface,-96.5629,29.7637,2.65e-05
2014-11-23 00:00:00,2014-11-23 00:00:00,PRATE,surface,-95.6254,29.7637,2.68e-05
2014-11-23 00:00:00,2014-11-23 00:00:00,PRATE,surface,-94.6879,29.7637,2.61e-05
2014-11-23 00:00:00,2014-11-23 00:00:00,PRATE,surface,-93.7504,29.7637,2.53e-05
2014-11-23 00:00:00,2014-11-23 00:00:00,PRATE,surface,-92.8129,29.7637,2.77e-05
2014-11-23 00:00:00,2014-11-23 00:00:00,PRATE,surface,-107.813,30.7085,1.24e-05
2014-11-23 00:00:00,2014-11-23 00:00:00,PRATE,surface,-106.875,30.7085,1.58e-05
2014-11-23 00:00:00,2014-11-23 00:00:00,PRATE,surface,-105.938,30.7085,2.06e-05
2014-11-23 00:00:00,2014-11-23 00:00:00,PRATE,surface,-105,30.7085,2.15e-05
2014-11-23 00:00:00,2014-11-23 00:00:00,PRATE,surface,-104.063,30.7085,2.1e-05
2014-11-23 00:00:00,2014-11-23 00:00:00,PRATE,surface,-103.125,30.7085,1.85e-05
2014-11-23 00:00:00,2014-11-23 00:00:00,PRATE,surface,-102.188,30.7085,1.75e-05
2014-11-23 00:00:00,2014-11-23 00:00:00,PRATE,surface,-101.25,30.7085,2.14e-05
2014-11-23 00:00:00,2014-11-23 00:00:00,PRATE,surface,-100.313,30.7085,2.54e-05
2014-11-23 00:00:00,2014-11-23 00:00:00,PRATE,surface,-99.3754,30.7085,2.82e-05
2014-11-23 00:00:00,2014-11-23 00:00:00,PRATE,surface,-98.4379,30.7085,2.95e-05
2014-11-23 00:00:00,2014-11-23 00:00:00,PRATE,surface,-97.5004,30.7085,2.86e-05
2014-11-23 00:00:00,2014-11-23 00:00:00,PRATE,surface,-96.5629,30.7085,2.78e-05
2014-11-23 00:00:00,2014-11-23 00:00:00,PRATE,surface,-95.6254,30.7085,2.8e-05
2014-11-23 00:00:00,2014-11-23 00:00:00,PRATE,surface,-94.6879,30.7085,2.71e-05
2014-11-23 00:00:00,2014-11-23 00:00:00,PRATE,surface,-93.7504,30.7085,2.53e-05
2014-11-23 00:00:00,2014-11-23 00:00:00,PRATE,surface,-92.8129,30.7085,2.3e-05
2014-11-23 00:00:00,2014-11-23 00:00:00,PRATE,surface,-107.813,31.6534,1.18e-05
2014-11-23 00:00:00,2014-11-23 00:00:00,PRATE,surface,-106.875,31.6534,1.6e-05
2014-11-23 00:00:00,2014-11-23 00:00:00,PRATE,surface,-105.938,31.6534,1.69e-05
2014-11-23 00:00:00,2014-11-23 00:00:00,PRATE,surface,-105,31.6534,1.39e-05
2014-11-23 00:00:00,2014-11-23 00:00:00,PRATE,surface,-104.063,31.6534,1.34e-05
2014-11-23 00:00:00,2014-11-23 00:00:00,PRATE,surface,-103.125,31.6534,1.44e-05
2014-11-23 00:00:00,2014-11-23 00:00:00,PRATE,surface,-102.188,31.6534,1.53e-05
2014-11-23 00:00:00,2014-11-23 00:00:00,PRATE,surface,-101.25,31.6534,1.9e-05
2014-11-23 00:00:00,2014-11-23 00:00:00,PRATE,surface,-100.313,31.6534,2.34e-05
2014-11-23 00:00:00,2014-11-23 00:00:00,PRATE,surface,-99.3754,31.6534,2.53e-05
2014-11-23 00:00:00,2014-11-23 00:00:00,PRATE,surface,-98.4379,31.6534,2.46e-05
2014-11-23 00:00:00,2014-11-23 00:00:00,PRATE,surface,-97.5004,31.6534,2.45e-05
2014-11-23 00:00:00,2014-11-23 00:00:00,PRATE,surface,-96.5629,31.6534,2.63e-05
2014-11-23 00:00:00,2014-11-23 00:00:00,PRATE,surface,-95.6254,31.6534,2.84e-05
2014-11-23 00:00:00,2014-11-23 00:00:00,PRATE,surface,-94.6879,31.6534,3.04e-05
2014-11-23 00:00:00,2014-11-23 00:00:00,PRATE,surface,-93.7504,31.6534,3.11e-05
2014-11-23 00:00:00,2014-11-23 00:00:00,PRATE,surface,-92.8129,31.6534,2.93e-05
2014-11-23 00:00:00,2014-11-23 00:00:00,PRATE,surface,-107.813,32.5983,9.5e-06
2014-11-23 00:00:00,2014-11-23 00:00:00,PRATE,surface,-106.875,32.5983,1.64e-05
2014-11-23 00:00:00,2014-11-23 00:00:00,PRATE,surface,-105.938,32.5983,1.66e-05
2014-11-23 00:00:00,2014-11-23 00:00:00,PRATE,surface,-105,32.5983,1.34e-05
2014-11-23 00:00:00,2014-11-23 00:00:00,PRATE,surface,-104.063,32.5983,1.22e-05
2014-11-23 00:00:00,2014-11-23 00:00:00,PRATE,surface,-103.125,32.5983,1.2e-05
2014-11-23 00:00:00,2014-11-23 00:00:00,PRATE,surface,-102.188,32.5983,1.13e-05
2014-11-23 00:00:00,2014-11-23 00:00:00,PRATE,surface,-101.25,32.5983,1.26e-05
2014-11-23 00:00:00,2014-11-23 00:00:00,PRATE,surface,-100.313,32.5983,1.72e-05
2014-11-23 00:00:00,2014-11-23 00:00:00,PRATE,surface,-99.3754,32.5983,1.92e-05
2014-11-23 00:00:00,2014-11-23 00:00:00,PRATE,surface,-98.4379,32.5983,1.95e-05
2014-11-23 00:00:00,2014-11-23 00:00:00,PRATE,surface,-97.5004,32.5983,2.04e-05
2014-11-23 00:00:00,2014-11-23 00:00:00,PRATE,surface,-96.5629,32.5983,2.16e-05
2014-11-23 00:00:00,2014-11-23 00:00:00,PRATE,surface,-95.6254,32.5983,2.3e-05
2014-11-23 00:00:00,2014-11-23 00:00:00,PRATE,surface,-94.6879,32.5983,2.5e-05
2014-11-23 00:00:00,2014-11-23 00:00:00,PRATE,surface,-93.7504,32.5983,2.73e-05
2014-11-23 00:00:00,2014-11-23 00:00:00,PRATE,surface,-92.8129,32.5983,2.78e-05
2014-11-23 00:00:00,2014-11-23 00:00:00,PRATE,surface,-107.813,33.5432,8.1e-06
2014-11-23 00:00:00,2014-11-23 00:00:00,PRATE,surface,-106.875,33.5432,1.13e-05
2014-11-23 00:00:00,2014-11-23 00:00:00,PRATE,surface,-105.938,33.5432,1.08e-05
2014-11-23 00:00:00,2014-11-23 00:00:00,PRATE,surface,-105,33.5432,1.23e-05
2014-11-23 00:00:00,2014-11-23 00:00:00,PRATE,surface,-104.063,33.5432,1.5e-05
2014-11-23 00:00:00,2014-11-23 00:00:00,PRATE,surface,-103.125,33.5432,1.36e-05
2014-11-23 00:00:00,2014-11-23 00:00:00,PRATE,surface,-102.188,33.5432,1.07e-05
2014-11-23 00:00:00,2014-11-23 00:00:00,PRATE,surface,-101.25,33.5432,1.07e-05
2014-11-23 00:00:00,2014-11-23 00:00:00,PRATE,surface,-100.313,33.5432,1.28e-05
2014-11-23 00:00:00,2014-11-23 00:00:00,PRATE,surface,-99.3754,33.5432,1.41e-05
2014-11-23 00:00:00,2014-11-23 00:00:00,PRATE,surface,-98.4379,33.5432,1.53e-05
2014-11-23 00:00:00,2014-11-23 00:00:00,PRATE,surface,-97.5004,33.5432,1.73e-05
2014-11-23 00:00:00,2014-11-23 00:00:00,PRATE,surface,-96.5629,33.5432,1.9e-05
2014-11-23 00:00:00,2014-11-23 00:00:00,PRATE,surface,-95.6254,33.5432,1.95e-05
2014-11-23 00:00:00,2014-11-23 00:00:00,PRATE,surface,-94.6879,33.5432,1.97e-05
2014-11-23 00:00:00,2014-11-23 00:00:00,PRATE,surface,-93.7504,33.5432,2.11e-05
2014-11-23 00:00:00,2014-11-23 00:00:00,PRATE,surface,-92.8129,33.5432,2.23e-05
2014-11-23 00:00:00,2014-11-23 00:00:00,PRATE,surface,-107.813,34.4881,9.4e-06
2014-11-23 00:00:00,2014-11-23 00:00:00,PRATE,surface,-106.875,34.4881,9e-06
2014-11-23 00:00:00,2014-11-23 00:00:00,PRATE,surface,-105.938,34.4881,8.1e-06
2014-11-23 00:00:00,2014-11-23 00:00:00,PRATE,surface,-105,34.4881,9.6e-06
2014-11-23 00:00:00,2014-11-23 00:00:00,PRATE,surface,-104.063,34.4881,1.31e-05
2014-11-23 00:00:00,2014-11-23 00:00:00,PRATE,surface,-103.125,34.4881,1.31e-05
2014-11-23 00:00:00,2014-11-23 00:00:00,PRATE,surface,-102.188,34.4881,1.05e-05
2014-11-23 00:00:00,2014-11-23 00:00:00,PRATE,surface,-101.25,34.4881,1.11e-05
2014-11-23 00:00:00,2014-11-23 00:00:00,PRATE,surface,-100.313,34.4881,1.51e-05
2014-11-23 00:00:00,2014-11-23 00:00:00,PRATE,surface,-99.3754,34.4881,1.71e-05
2014-11-23 00:00:00,2014-11-23 00:00:00,PRATE,surface,-98.4379,34.4881,1.69e-05
2014-11-23 00:00:00,2014-11-23 00:00:00,PRATE,surface,-97.5004,34.4881,1.79e-05
2014-11-23 00:00:00,2014-11-23 00:00:00,PRATE,surface,-96.5629,34.4881,1.95e-05
2014-11-23 00:00:00,2014-11-23 00:00:00,PRATE,surface,-95.6254,34.4881,2.01e-05
2014-11-23 00:00:00,2014-11-23 00:00:00,PRATE,surface,-94.6879,34.4881,2.09e-05
2014-11-23 00:00:00,2014-11-23 00:00:00,PRATE,surface,-93.7504,34.4881,2.18e-05
2014-11-23 00:00:00,2014-11-23 00:00:00,PRATE,surface,-92.8129,34.4881,2.22e-05
2014-11-23 00:00:00,2014-11-23 00:00:00,PRATE,surface,-107.813,35.4329,9.7e-06
2014-11-23 00:00:00,2014-11-23 00:00:00,PRATE,surface,-106.875,35.4329,8.2e-06
2014-11-23 00:00:00,2014-11-23 00:00:00,PRATE,surface,-105.938,35.4329,7.7e-06
2014-11-23 00:00:00,2014-11-23 00:00:00,PRATE,surface,-105,35.4329,8.5e-06
2014-11-23 00:00:00,2014-11-23 00:00:00,PRATE,surface,-104.063,35.4329,1.05e-05
2014-11-23 00:00:00,2014-11-23 00:00:00,PRATE,surface,-103.125,35.4329,1.15e-05
2014-11-23 00:00:00,2014-11-23 00:00:00,PRATE,surface,-102.188,35.4329,1.07e-05
2014-11-23 00:00:00,2014-11-23 00:00:00,PRATE,surface,-101.25,35.4329,1.34e-05
2014-11-23 00:00:00,2014-11-23 00:00:00,PRATE,surface,-100.313,35.4329,1.81e-05
2014-11-23 00:00:00,2014-11-23 00:00:00,PRATE,surface,-99.3754,35.4329,1.9e-05
2014-11-23 00:00:00,2014-11-23 00:00:00,PRATE,surface,-98.4379,35.4329,1.7e-05
2014-11-23 00:00:00,2014-11-23 00:00:00,PRATE,surface,-97.5004,35.4329,1.63e-05
2014-11-23 00:00:00,2014-11-23 00:00:00,PRATE,surface,-96.5629,35.4329,1.7e-05
2014-11-23 00:00:00,2014-11-23 00:00:00,PRATE,surface,-95.6254,35.4329,1.68e-05
2014-11-23 00:00:00,2014-11-23 00:00:00,PRATE,surface,-94.6879,35.4329,1.63e-05
2014-11-23 00:00:00,2014-11-23 00:00:00,PRATE,surface,-93.7504,35.4329,1.62e-05
2014-11-23 00:00:00,2014-11-23 00:00:00,PRATE,surface,-92.8129,35.4329,1.58e-05
2014-11-23 00:00:00,2014-11-23 00:00:00,PRATE,surface,-107.813,36.3778,1.13e-05
2014-11-23 00:00:00,2014-11-23 00:00:00,PRATE,surface,-106.875,36.3778,9.6e-06
2014-11-23 00:00:00,2014-11-23 00:00:00,PRATE,surface,-105.938,36.3778,8e-06
2014-11-23 00:00:00,2014-11-23 00:00:00,PRATE,surface,-105,36.3778,7e-06
2014-11-23 00:00:00,2014-11-23 00:00:00,PRATE,surface,-104.063,36.3778,7.2e-06
2014-11-23 00:00:00,2014-11-23 00:00:00,PRATE,surface,-103.125,36.3778,1.02e-05
2014-11-23 00:00:00,2014-11-23 00:00:00,PRATE,surface,-102.188,36.3778,1.14e-05
2014-11-23 00:00:00,2014-11-23 00:00:00,PRATE,surface,-101.25,36.3778,1.62e-05
2014-11-23 00:00:00,2014-11-23 00:00:00,PRATE,surface,-100.313,36.3778,1.98e-05
2014-11-23 00:00:00,2014-11-23 00:00:00,PRATE,surface,-99.3754,36.3778,1.83e-05
2014-11-23 00:00:00,2014-11-23 00:00:00,PRATE,surface,-98.4379,36.3778,1.5e-05
2014-11-23 00:00:00,2014-11-23 00:00:00,PRATE,surface,-97.5004,36.3778,1.23e-05
2014-11-23 00:00:00,2014-11-23 00:00:00,PRATE,surface,-96.5629,36.3778,1.02e-05
2014-11-23 00:00:00,2014-11-23 00:00:00,PRATE,surface,-95.6254,36.3778,8.9e-06
2014-11-23 00:00:00,2014-11-23 00:00:00,PRATE,surface,-94.6879,36.3778,8.5e-06
2014-11-23 00:00:00,2014-11-23 00:00:00,PRATE,surface,-93.7504,36.3778,8.8e-06
2014-11-23 00:00:00,2014-11-23 00:00:00,PRATE,surface,-92.8129,36.3778,8.3e-06
