2015-07-27 00:00:00,2015-07-27 00:00:00,TMP,surface,-107.813,25.0393,291.761
2015-07-27 00:00:00,2015-07-27 00:00:00,TMP,surface,-106.875,25.0393,284.412
2015-07-27 00:00:00,2015-07-27 00:00:00,TMP,surface,-105.938,25.0393,279.257
2015-07-27 00:00:00,2015-07-27 00:00:00,TMP,surface,-105,25.0393,277.901
2015-07-27 00:00:00,2015-07-27 00:00:00,TMP,surface,-104.063,25.0393,280.857
2015-07-27 00:00:00,2015-07-27 00:00:00,TMP,surface,-103.125,25.0393,282.793
2015-07-27 00:00:00,2015-07-27 00:00:00,TMP,surface,-102.188,25.0393,282.748
2015-07-27 00:00:00,2015-07-27 00:00:00,TMP,surface,-101.25,25.0393,281.479
2015-07-27 00:00:00,2015-07-27 00:00:00,TMP,surface,-100.313,25.0393,281.962
2015-07-27 00:00:00,2015-07-27 00:00:00,TMP,surface,-99.3754,25.0393,284.362
2015-07-27 00:00:00,2015-07-27 00:00:00,TMP,surface,-98.4379,25.0393,287.698
2015-07-27 00:00:00,2015-07-27 00:00:00,TMP,surface,-97.5004,25.0393,296.22
2015-07-27 00:00:00,2015-07-27 00:00:00,TMP,surface,-96.5629,25.0393,297.1
2015-07-27 00:00:00,2015-07-27 00:00:00,TMP,surface,-95.6254,25.0393,297.551
2015-07-27 00:00:00,2015-07-27 00:00:00,TMP,surface,-94.6879,25.0393,297.783
2015-07-27 00:00:00,2015-07-27 00:00:00,TMP,surface,-93.7504,25.0393,297.834
2015-07-27 00:00:00,2015-07-27 00:00:00,TMP,surface,-92.8129,25.0393,297.906
2015-07-27 00:00:00,2015-07-27 00:00:00,TMP,surface,-107.813,25.9842,285.545
2015-07-27 00:00:00,2015-07-27 00:00:00,TMP,surface,-106.875,25.9842,279.498
2015-07-27 00:00:00,2015-07-27 00:00:00,TMP,surface,-105.938,25.9842,277.498
2015-07-27 00:00:00,2015-07-27 00:00:00,TMP,surface,-105,25.9842,278.954
2015-07-27 00:00:00,2015-07-27 00:00:00,TMP,surface,-104.063,25.9842,282.018
2015-07-27 00:00:00,2015-07-27 00:00:00,TMP,surface,-103.125,25.9842,282.961
2015-07-27 00:00:00,2015-07-27 00:00:00,TMP,surface,-102.188,25.9842,282.551
2015-07-27 00:00:00,2015-07-27 00:00:00,TMP,surface,-101.25,25.9842,281.994
2015-07-27 00:00:00,2015-07-27 00:00:00,TMP,surface,-100.313,25.9842,282.469
2015-07-27 00:00:00,2015-07-27 00:00:00,TMP,surface,-99.3754,25.9842,284.777
2015-07-27 00:00:00,2015-07-27 00:00:00,TMP,surface,-98.4379,25.9842,287.178
2015-07-27 00:00:00,2015-07-27 00:00:00,TMP,surface,-97.5004,25.9842,289.737
2015-07-27 00:00:00,2015-07-27 00:00:00,TMP,surface,-96.5629,25.9842,296.5
2015-07-27 00:00:00,2015-07-27 00:00:00,TMP,surface,-95.6254,25.9842,297.221
2015-07-27 00:00:00,2015-07-27 00:00:00,TMP,surface,-94.6879,25.9842,297.517
2015-07-27 00:00:00,2015-07-27 00:00:00,TMP,surface,-93.7504,25.9842,297.671
2015-07-27 00:00:00,2015-07-27 00:00:00,TMP,surface,-92.8129,25.9842,297.724
2015-07-27 00:00:00,2015-07-27 00:00:00,TMP,surface,-107.813,26.929,279.805
2015-07-27 00:00:00,2015-07-27 00:00:00,TMP,surface,-106.875,26.929,275.943
2015-07-27 00:00:00,2015-07-27 00:00:00,TMP,surface,-105.938,26.929,277.775
2015-07-27 00:00:00,2015-07-27 00:00:00,TMP,surface,-105,26.929,280.33
2015-07-27 00:00:00,2015-07-27 00:00:00,TMP,surface,-104.063,26.929,281.266
2015-07-27 00:00:00,2015-07-27 00:00:00,TMP,surface,-103.125,26.929,280.572
2015-07-27 00:00:00,2015-07-27 00:00:00,TMP,surface,-102.188,26.929,280.881
2015-07-27 00:00:00,2015-07-27 00:00:00,TMP,surface,-101.25,26.929,282.153
2015-07-27 00:00:00,2015-07-27 00:00:00,TMP,surface,-100.313,26.929,283.452
2015-07-27 00:00:00,2015-07-27 00:00:00,TMP,surface,-99.3754,26.929,284.783
2015-07-27 00:00:00,2015-07-27 00:00:00,TMP,surface,-98.4379,26.929,285.93
2015-07-27 00:00:00,2015-07-27 00:00:00,TMP,surface,-97.5004,26.929,294.431
2015-07-27 00:00:00,2015-07-27 00:00:00,TMP,surface,-96.5629,26.929,295.874
2015-07-27 00:00:00,2015-07-27 00:00:00,TMP,surface,-95.6254,26.929,296.594
2015-07-27 00:00:00,2015-07-27 00:00:00,TMP,surface,-94.6879,26.929,296.908
2015-07-27 00:00:00,2015-07-27 00:00:00,TMP,surface,-93.7504,26.929,296.946
2015-07-27 00:00:00,2015-07-27 00:00:00,TMP,surface,-92.8129,26.929,296.887
2015-07-27 00:00:00,2015-07-27 00:00:00,TMP,surface,-107.813,27.8739,276.356
2015-07-27 00:00:00,2015-07-27 00:00:00,TMP,surface,-106.875,27.8739,274.988
2015-07-27 00:00:00,2015-07-27 00:00:00,TMP,surface,-105.938,27.8739,278.167
2015-07-27 00:00:00,2015-07-27 00:00:00,TMP,surface,-105,27.8739,280.461
2015-07-27 00:00:00,2015-07-27 00:00:00,TMP,surface,-104.063,27.8739,280.325
2015-07-27 00:00:00,2015-07-27 00:00:00,TMP,surface,-103.125,27.8739,279.153
2015-07-27 00:00:00,2015-07-27 00:00:00,TMP,surface,-102.188,27.8739,279.789
2015-07-27 00:00:00,2015-07-27 00:00:00,TMP,surface,-101.25,27.8739,281.673
2015-07-27 00:00:00,2015-07-27 00:00:00,TMP,surface,-100.313,27.8739,283.327
2015-07-27 00:00:00,2015-07-27 00:00:00,TMP,surface,-99.3754,27.8739,283.949
2015-07-27 00:00:00,2015-07-27 00:00:00,TMP,surface,-98.4379,27.8739,284.564
2015-07-27 00:00:00,2015-07-27 00:00:00,TMP,surface,-97.5004,27.8739,290.349
2015-07-27 00:00:00,2015-07-27 00:00:00,TMP,surface,-96.5629,27.8739,295.895
2015-07-27 00:00:00,2015-07-27 00:00:00,TMP,surface,-95.6254,27.8739,295.983
2015-07-27 00:00:00,2015-07-27 00:00:00,TMP,surface,-94.6879,27.8739,295.706
2015-07-27 00:00:00,2015-07-27 00:00:00,TMP,surface,-93.7504,27.8739,295.639
2015-07-27 00:00:00,2015-07-27 00:00:00,TMP,surface,-92.8129,27.8739,295.737
2015-07-27 00:00:00,2015-07-27 00:00:00,TMP,surface,-107.813,28.8188,274.924
2015-07-27 00:00:00,2015-07-27 00:00:00,TMP,surface,-106.875,28.8188,275.38
2015-07-27 00:00:00,2015-07-27 00:00:00,TMP,surface,-105.938,28.8188,278.393
2015-07-27 00:00:00,2015-07-27 00:00:00,TMP,surface,-105,28.8188,279.697
2015-07-27 00:00:00,2015-07-27 00:00:00,TMP,surface,-104.063,28.8188,278.759
2015-07-27 00:00:00,2015-07-27 00:00:00,TMP,surface,-103.125,28.8188,278.178
2015-07-27 00:00:00,2015-07-27 00:00:00,TMP,surface,-102.188,28.8188,279.221
2015-07-27 00:00:00,2015-07-27 00:00:00,TMP,surface,-101.25,28.8188,281.058
2015-07-27 00:00:00,2015-07-27 00:00:00,TMP,surface,-100.313,28.8188,282.028
2015-07-27 00:00:00,2015-07-27 00:00:00,TMP,surface,-99.3754,28.8188,282.226
2015-07-27 00:00:00,2015-07-27 00:00:00,TMP,surface,-98.4379,28.8188,282.585
2015-07-27 00:00:00,2015-07-27 00:00:00,TMP,surface,-97.5004,28.8188,283.593
2015-07-27 00:00:00,2015-07-27 00:00:00,TMP,surface,-96.5629,28.8188,284.961
2015-07-27 00:00:00,2015-07-27 00:00:00,TMP,surface,-95.6254,28.8188,289.346
2015-07-27 00:00:00,2015-07-27 00:00:00,TMP,surface,-94.6879,28.8188,295.284
2015-07-27 00:00:00,2015-07-27 00:00:00,TMP,surface,-93.7504,28.8188,295.346
2015-07-27 00:00:00,2015-07-27 00:00:00,TMP,surface,-92.8129,28.8188,295.57
2015-07-27 00:00:00,2015-07-27 00:00:00,TMP,surface,-107.813,29.7637,276.205
2015-07-27 00:00:00,2015-07-27 00:00:00,TMP,surface,-106.875,29.7637,276.815
2015-07-27 00:00:00,2015-07-27 00:00:00,TMP,surface,-105.938,29.7637,278.551
2015-07-27 00:00:00,2015-07-27 00:00:00,TMP,surface,-105,29.7637,278.33
2015-07-27 00:00:00,2015-07-27 00:00:00,TMP,surface,-104.063,29.7637,278.236
2015-07-27 00:00:00,2015-07-27 00:00:00,TMP,surface,-103.125,29.7637,278.703
2015-07-27 00:00:00,2015-07-27 00:00:00,TMP,surface,-102.188,29.7637,279.81
2015-07-27 00:00:00,2015-07-27 00:00:00,TMP,surface,-101.25,29.7637,280.585
2015-07-27 00:00:00,2015-07-27 00:00:00,TMP,surface,-100.313,29.7637,280.572
2015-07-27 00:00:00,2015-07-27 00:00:00,TMP,surface,-99.3754,29.7637,280.485
2015-07-27 00:00:00,2015-07-27 00:00:00,TMP,surface,-98.4379,29.7637,280.927
2015-07-27 00:00:00,2015-07-27 00:00:00,TMP,surface,-97.5004,29.7637,281.649
2015-07-27 00:00:00,2015-07-27 00:00:00,TMP,surface,-96.5629,29.7637,282.453
2015-07-27 00:00:00,2015-07-27 00:00:00,TMP,surface,-95.6254,29.7637,283.436
2015-07-27 00:00:00,2015-07-27 00:00:00,TMP,surface,-94.6879,29.7637,287.604
2015-07-27 00:00:00,2015-07-27 00:00:00,TMP,surface,-93.7504,29.7637,292.493
2015-07-27 00:00:00,2015-07-27 00:00:00,TMP,surface,-92.8129,29.7637,284.317
2015-07-27 00:00:00,2015-07-27 00:00:00,TMP,surface,-107.813,30.7085,278.044
2015-07-27 00:00:00,2015-07-27 00:00:00,TMP,surface,-106.875,30.7085,278.725
2015-07-27 00:00:00,2015-07-27 00:00:00,TMP,surface,-105.938,30.7085,278.25
2015-07-27 00:00:00,2015-07-27 00:00:00,TMP,surface,-105,30.7085,277.469
2015-07-27 00:00:00,2015-07-27 00:00:00,TMP,surface,-104.063,30.7085,277.677
2015-07-27 00:00:00,2015-07-27 00:00:00,TMP,surface,-103.125,30.7085,278.837
2015-07-27 00:00:00,2015-07-27 00:00:00,TMP,surface,-102.188,30.7085,279.789
2015-07-27 00:00:00,2015-07-27 00:00:00,TMP,surface,-101.25,30.7085,280.005
2015-07-27 00:00:00,2015-07-27 00:00:00,TMP,surface,-100.313,30.7085,279.868
2015-07-27 00:00:00,2015-07-27 00:00:00,TMP,surface,-99.3754,30.7085,279.946
2015-07-27 00:00:00,2015-07-27 00:00:00,TMP,surface,-98.4379,30.7085,280.381
2015-07-27 00:00:00,2015-07-27 00:00:00,TMP,surface,-97.5004,30.7085,280.9
2015-07-27 00:00:00,2015-07-27 00:00:00,TMP,surface,-96.5629,30.7085,281.226
2015-07-27 00:00:00,2015-07-27 00:00:00,TMP,surface,-95.6254,30.7085,281.412
2015-07-27 00:00:00,2015-07-27 00:00:00,TMP,surface,-94.6879,30.7085,281.538
2015-07-27 00:00:00,2015-07-27 00:00:00,TMP,surface,-93.7504,30.7085,281.351
2015-07-27 00:00:00,2015-07-27 00:00:00,TMP,surface,-92.8129,30.7085,280.81
2015-07-27 00:00:00,2015-07-27 00:00:00,TMP,surface,-107.813,31.6534,277.805
2015-07-27 00:00:00,2015-07-27 00:00:00,TMP,surface,-106.875,31.6534,278.098
2015-07-27 00:00:00,2015-07-27 00:00:00,TMP,surface,-105.938,31.6534,276.917
2015-07-27 00:00:00,2015-07-27 00:00:00,TMP,surface,-105,31.6534,276.506
2015-07-27 00:00:00,2015-07-27 00:00:00,TMP,surface,-104.063,31.6534,277.266
2015-07-27 00:00:00,2015-07-27 00:00:00,TMP,surface,-103.125,31.6534,278.466
2015-07-27 00:00:00,2015-07-27 00:00:00,TMP,surface,-102.188,31.6534,279.303
2015-07-27 00:00:00,2015-07-27 00:00:00,TMP,surface,-101.25,31.6534,279.532
2015-07-27 00:00:00,2015-07-27 00:00:00,TMP,surface,-100.313,31.6534,279.716
2015-07-27 00:00:00,2015-07-27 00:00:00,TMP,surface,-99.3754,31.6534,280.004
2015-07-27 00:00:00,2015-07-27 00:00:00,TMP,surface,-98.4379,31.6534,280.373
2015-07-27 00:00:00,2015-07-27 00:00:00,TMP,surface,-97.5004,31.6534,280.621
2015-07-27 00:00:00,2015-07-27 00:00:00,TMP,surface,-96.5629,31.6534,280.682
2015-07-27 00:00:00,2015-07-27 00:00:00,TMP,surface,-95.6254,31.6534,280.543
2015-07-27 00:00:00,2015-07-27 00:00:00,TMP,surface,-94.6879,31.6534,280.175
2015-07-27 00:00:00,2015-07-27 00:00:00,TMP,surface,-93.7504,31.6534,279.834
2015-07-27 00:00:00,2015-07-27 00:00:00,TMP,surface,-92.8129,31.6534,279.693
2015-07-27 00:00:00,2015-07-27 00:00:00,TMP,surface,-107.813,32.5983,275.257
2015-07-27 00:00:00,2015-07-27 00:00:00,TMP,surface,-106.875,32.5983,275.234
2015-07-27 00:00:00,2015-07-27 00:00:00,TMP,surface,-105.938,32.5983,275.002
2015-07-27 00:00:00,2015-07-27 00:00:00,TMP,surface,-105,32.5983,275.274
2015-07-27 00:00:00,2015-07-27 00:00:00,TMP,surface,-104.063,32.5983,276.649
2015-07-27 00:00:00,2015-07-27 00:00:00,TMP,surface,-103.125,32.5983,277.834
2015-07-27 00:00:00,2015-07-27 00:00:00,TMP,surface,-102.188,32.5983,278.505
2015-07-27 00:00:00,2015-07-27 00:00:00,TMP,surface,-101.25,32.5983,279.017
2015-07-27 00:00:00,2015-07-27 00:00:00,TMP,surface,-100.313,32.5983,279.545
2015-07-27 00:00:00,2015-07-27 00:00:00,TMP,surface,-99.3754,32.5983,280.111
2015-07-27 00:00:00,2015-07-27 00:00:00,TMP,surface,-98.4379,32.5983,280.412
2015-07-27 00:00:00,2015-07-27 00:00:00,TMP,surface,-97.5004,32.5983,280.493
2015-07-27 00:00:00,2015-07-27 00:00:00,TMP,surface,-96.5629,32.5983,280.453
2015-07-27 00:00:00,2015-07-27 00:00:00,TMP,surface,-95.6254,32.5983,280.145
2015-07-27 00:00:00,2015-07-27 00:00:00,TMP,surface,-94.6879,32.5983,279.618
2015-07-27 00:00:00,2015-07-27 00:00:00,TMP,surface,-93.7504,32.5983,279.297
2015-07-27 00:00:00,2015-07-27 00:00:00,TMP,surface,-92.8129,32.5983,279.469
2015-07-27 00:00:00,2015-07-27 00:00:00,TMP,surface,-107.813,33.5432,271.684
2015-07-27 00:00:00,2015-07-27 00:00:00,TMP,surface,-106.875,33.5432,272.639
2015-07-27 00:00:00,2015-07-27 00:00:00,TMP,surface,-105.938,33.5432,273.365
2015-07-27 00:00:00,2015-07-27 00:00:00,TMP,surface,-105,33.5432,274.345
2015-07-27 00:00:00,2015-07-27 00:00:00,TMP,surface,-104.063,33.5432,275.946
2015-07-27 00:00:00,2015-07-27 00:00:00,TMP,surface,-103.125,33.5432,276.977
2015-07-27 00:00:00,2015-07-27 00:00:00,TMP,surface,-102.188,33.5432,277.513
2015-07-27 00:00:00,2015-07-27 00:00:00,TMP,surface,-101.25,33.5432,278.165
2015-07-27 00:00:00,2015-07-27 00:00:00,TMP,surface,-100.313,33.5432,279.009
2015-07-27 00:00:00,2015-07-27 00:00:00,TMP,surface,-99.3754,33.5432,279.599
2015-07-27 00:00:00,2015-07-27 00:00:00,TMP,surface,-98.4379,33.5432,279.794
2015-07-27 00:00:00,2015-07-27 00:00:00,TMP,surface,-97.5004,33.5432,279.671
2015-07-27 00:00:00,2015-07-27 00:00:00,TMP,surface,-96.5629,33.5432,279.509
2015-07-27 00:00:00,2015-07-27 00:00:00,TMP,surface,-95.6254,33.5432,279.359
2015-07-27 00:00:00,2015-07-27 00:00:00,TMP,surface,-94.6879,33.5432,279.017
2015-07-27 00:00:00,2015-07-27 00:00:00,TMP,surface,-93.7504,33.5432,278.7
2015-07-27 00:00:00,2015-07-27 00:00:00,TMP,surface,-92.8129,33.5432,278.73
2015-07-27 00:00:00,2015-07-27 00:00:00,TMP,surface,-107.813,34.4881,269.977
2015-07-27 00:00:00,2015-07-27 00:00:00,TMP,surface,-106.875,34.4881,271.273
2015-07-27 00:00:00,2015-07-27 00:00:00,TMP,surface,-105.938,34.4881,272.186
2015-07-27 00:00:00,2015-07-27 00:00:00,TMP,surface,-105,34.4881,273.306
2015-07-27 00:00:00,2015-07-27 00:00:00,TMP,surface,-104.063,34.4881,274.586
2015-07-27 00:00:00,2015-07-27 00:00:00,TMP,surface,-103.125,34.4881,275.535
2015-07-27 00:00:00,2015-07-27 00:00:00,TMP,surface,-102.188,34.4881,276.442
2015-07-27 00:00:00,2015-07-27 00:00:00,TMP,surface,-101.25,34.4881,277.415
2015-07-27 00:00:00,2015-07-27 00:00:00,TMP,surface,-100.313,34.4881,278.258
2015-07-27 00:00:00,2015-07-27 00:00:00,TMP,surface,-99.3754,34.4881,278.839
2015-07-27 00:00:00,2015-07-27 00:00:00,TMP,surface,-98.4379,34.4881,278.964
2015-07-27 00:00:00,2015-07-27 00:00:00,TMP,surface,-97.5004,34.4881,278.844
2015-07-27 00:00:00,2015-07-27 00:00:00,TMP,surface,-96.5629,34.4881,278.682
2015-07-27 00:00:00,2015-07-27 00:00:00,TMP,surface,-95.6254,34.4881,278.337
2015-07-27 00:00:00,2015-07-27 00:00:00,TMP,surface,-94.6879,34.4881,277.809
2015-07-27 00:00:00,2015-07-27 00:00:00,TMP,surface,-93.7504,34.4881,277.495
2015-07-27 00:00:00,2015-07-27 00:00:00,TMP,surface,-92.8129,34.4881,277.607
2015-07-27 00:00:00,2015-07-27 00:00:00,TMP,surface,-107.813,35.4329,269.69
2015-07-27 00:00:00,2015-07-27 00:00:00,TMP,surface,-106.875,35.4329,270.172
2015-07-27 00:00:00,2015-07-27 00:00:00,TMP,surface,-105.938,35.4329,270.796
2015-07-27 00:00:00,2015-07-27 00:00:00,TMP,surface,-105,35.4329,271.666
2015-07-27 00:00:00,2015-07-27 00:00:00,TMP,surface,-104.063,35.4329,273.705
2015-07-27 00:00:00,2015-07-27 00:00:00,TMP,surface,-103.125,35.4329,275.319
2015-07-27 00:00:00,2015-07-27 00:00:00,TMP,surface,-102.188,35.4329,276.116
2015-07-27 00:00:00,2015-07-27 00:00:00,TMP,surface,-101.25,35.4329,276.748
2015-07-27 00:00:00,2015-07-27 00:00:00,TMP,surface,-100.313,35.4329,277.447
2015-07-27 00:00:00,2015-07-27 00:00:00,TMP,surface,-99.3754,35.4329,277.812
2015-07-27 00:00:00,2015-07-27 00:00:00,TMP,surface,-98.4379,35.4329,277.957
2015-07-27 00:00:00,2015-07-27 00:00:00,TMP,surface,-97.5004,35.4329,278.213
2015-07-27 00:00:00,2015-07-27 00:00:00,TMP,surface,-96.5629,35.4329,278.338
2015-07-27 00:00:00,2015-07-27 00:00:00,TMP,surface,-95.6254,35.4329,278.012
2015-07-27 00:00:00,2015-07-27 00:00:00,TMP,surface,-94.6879,35.4329,277.345
2015-07-27 00:00:00,2015-07-27 00:00:00,TMP,surface,-93.7504,35.4329,276.647
2015-07-27 00:00:00,2015-07-27 00:00:00,TMP,surface,-92.8129,35.4329,276.452
2015-07-27 00:00:00,2015-07-27 00:00:00,TMP,surface,-107.813,36.3778,269.177
2015-07-27 00:00:00,2015-07-27 00:00:00,TMP,surface,-106.875,36.3778,268.519
2015-07-27 00:00:00,2015-07-27 00:00:00,TMP,surface,-105.938,36.3778,268.653
2015-07-27 00:00:00,2015-07-27 00:00:00,TMP,surface,-105,36.3778,269.505
2015-07-27 00:00:00,2015-07-27 00:00:00,TMP,surface,-104.063,36.3778,271.722
2015-07-27 00:00:00,2015-07-27 00:00:00,TMP,surface,-103.125,36.3778,273.759
2015-07-27 00:00:00,2015-07-27 00:00:00,TMP,surface,-102.188,36.3778,275.057
2015-07-27 00:00:00,2015-07-27 00:00:00,TMP,surface,-101.25,36.3778,276.084
2015-07-27 00:00:00,2015-07-27 00:00:00,TMP,surface,-100.313,36.3778,277.009
2015-07-27 00:00:00,2015-07-27 00:00:00,TMP,surface,-99.3754,36.3778,277.501
2015-07-27 00:00:00,2015-07-27 00:00:00,TMP,surface,-98.4379,36.3778,277.412
2015-07-27 00:00:00,2015-07-27 00:00:00,TMP,surface,-97.5004,36.3778,277.548
2015-07-27 00:00:00,2015-07-27 00:00:00,TMP,surface,-96.5629,36.3778,277.828
2015-07-27 00:00:00,2015-07-27 00:00:00,TMP,surface,-95.6254,36.3778,277.482
2015-07-27 00:00:00,2015-07-27 00:00:00,TMP,surface,-94.6879,36.3778,276.57
2015-07-27 00:00:00,2015-07-27 00:00:00,TMP,surface,-93.7504,36.3778,275.689
2015-07-27 00:00:00,2015-07-27 00:00:00,TMP,surface,-92.8129,36.3778,275.498
2015-07-27 00:00:00,2015-07-27 00:00:00,PRATE,surface,-107.813,25.0393,2.47e-05
2015-07-27 00:00:00,2015-07-27 00:00:00,PRATE,surface,-106.875,25.0393,3.47e-05
2015-07-27 00:00:00,2015-07-27 00:00:00,PRATE,surface,-105.938,25.0393,4.25e-05
2015-07-27 00:00:00,2015-07-27 00:00:00,PRATE,surface,-105,25.0393,3.89e-05
2015-07-27 00:00:00,2015-07-27 00:00:00,PRATE,surface,-104.063,25.0393,2.36e-05
2015-07-27 00:00:00,2015-07-27 00:00:00,PRATE,surface,-103.125,25.0393,1.63e-05
2015-07-27 00:00:00,2015-07-27 00:00:00,PRATE,surface,-102.188,25.0393,2.18e-05
2015-07-27 00:00:00,2015-07-27 00:00:00,PRATE,surface,-101.25,25.0393,3.92e-05
2015-07-27 00:00:00,2015-07-27 00:00:00,PRATE,surface,-100.313,25.0393,4.58e-05
2015-07-27 00:00:00,2015-07-27 00:00:00,PRATE,surface,-99.3754,25.0393,2.93e-05
2015-07-27 00:00:00,2015-07-27 00:00:00,PRATE,surface,-98.4379,25.0393,2.3e-05
2015-07-27 00:00:00,2015-07-27 00:00:00,PRATE,surface,-97.5004,25.0393,3.53e-05
2015-07-27 00:00:00,2015-07-27 00:00:00,PRATE,surface,-96.5629,25.0393,5.96e-05
2015-07-27 00:00:00,2015-07-27 00:00:00,PRATE,surface,-95.6254,25.0393,7.21e-05
2015-07-27 00:00:00,2015-07-27 00:00:00,PRATE,surface,-94.6879,25.0393,6.9e-05
2015-07-27 00:00:00,2015-07-27 00:00:00,PRATE,surface,-93.7504,25.0393,6.83e-05
2015-07-27 00:00:00,2015-07-27 00:00:00,PRATE,surface,-92.8129,25.0393,7.75e-05
2015-07-27 00:00:00,2015-07-27 00:00:00,PRATE,surface,-107.813,25.9842,3.53e-05
2015-07-27 00:00:00,2015-07-27 00:00:00,PRATE,surface,-106.875,25.9842,3.45e-05
2015-07-27 00:00:00,2015-07-27 00:00:00,PRATE,surface,-105.938,25.9842,2.63e-05
2015-07-27 00:00:00,2015-07-27 00:00:00,PRATE,surface,-105,25.9842,2.73e-05
2015-07-27 00:00:00,2015-07-27 00:00:00,PRATE,surface,-104.063,25.9842,2.1e-05
2015-07-27 00:00:00,2015-07-27 00:00:00,PRATE,surface,-103.125,25.9842,2.23e-05
2015-07-27 00:00:00,2015-07-27 00:00:00,PRATE,surface,-102.188,25.9842,2.98e-05
2015-07-27 00:00:00,2015-07-27 00:00:00,PRATE,surface,-101.25,25.9842,4.59e-05
2015-07-27 00:00:00,2015-07-27 00:00:00,PRATE,surface,-100.313,25.9842,4.63e-05
2015-07-27 00:00:00,2015-07-27 00:00:00,PRATE,surface,-99.3754,25.9842,3.36e-05
2015-07-27 00:00:00,2015-07-27 00:00:00,PRATE,surface,-98.4379,25.9842,2.86e-05
2015-07-27 00:00:00,2015-07-27 00:00:00,PRATE,surface,-97.5004,25.9842,3.68e-05
2015-07-27 00:00:00,2015-07-27 00:00:00,PRATE,surface,-96.5629,25.9842,7.34e-05
2015-07-27 00:00:00,2015-07-27 00:00:00,PRATE,surface,-95.6254,25.9842,9.13e-05
2015-07-27 00:00:00,2015-07-27 00:00:00,PRATE,surface,-94.6879,25.9842,9.11e-05
2015-07-27 00:00:00,2015-07-27 00:00:00,PRATE,surface,-93.7504,25.9842,8.65e-05
2015-07-27 00:00:00,2015-07-27 00:00:00,PRATE,surface,-92.8129,25.9842,9.5e-05
2015-07-27 00:00:00,2015-07-27 00:00:00,PRATE,surface,-107.813,26.929,4.61e-05
2015-07-27 00:00:00,2015-07-27 00:00:00,PRATE,surface,-106.875,26.929,3.46e-05
2015-07-27 00:00:00,2015-07-27 00:00:00,PRATE,surface,-105.938,26.929,2.64e-05
2015-07-27 00:00:00,2015-07-27 00:00:00,PRATE,surface,-105,26.929,2.63e-05
2015-07-27 00:00:00,2015-07-27 00:00:00,PRATE,surface,-104.063,26.929,2.74e-05
2015-07-27 00:00:00,2015-07-27 00:00:00,PRATE,surface,-103.125,26.929,3.67e-05
2015-07-27 00:00:00,2015-07-27 00:00:00,PRATE,surface,-102.188,26.929,5.02e-05
2015-07-27 00:00:00,2015-07-27 00:00:00,PRATE,surface,-101.25,26.929,4.71e-05
2015-07-27 00:00:00,2015-07-27 00:00:00,PRATE,surface,-100.313,26.929,3.54e-05
2015-07-27 00:00:00,2015-07-27 00:00:00,PRATE,surface,-99.3754,26.929,3.43e-05
2015-07-27 00:00:00,2015-07-27 00:00:00,PRATE,surface,-98.4379,26.929,3.97e-05
2015-07-27 00:00:00,2015-07-27 00:00:00,PRATE,surface,-97.5004,26.929,4.81e-05
2015-07-27 00:00:00,2015-07-27 00:00:00,PRATE,surface,-96.5629,26.929,7.3e-05
2015-07-27 00:00:00,2015-07-27 00:00:00,PRATE,surface,-95.6254,26.929,8.33e-05
2015-07-27 00:00:00,2015-07-27 00:00:00,PRATE,surface,-94.6879,26.929,9.34e-05
2015-07-27 00:00:00,2015-07-27 00:00:00,PRATE,surface,-93.7504,26.929,9.47e-05
2015-07-27 00:00:00,2015-07-27 00:00:00,PRATE,surface,-92.8129,26.929,9.93e-05
2015-07-27 00:00:00,2015-07-27 00:00:00,PRATE,surface,-107.813,27.8739,3.74e-05
2015-07-27 00:00:00,2015-07-27 00:00:00,PRATE,surface,-106.875,27.8739,2.75e-05
2015-07-27 00:00:00,2015-07-27 00:00:00,PRATE,surface,-105.938,27.8739,2.46e-05
2015-07-27 00:00:00,2015-07-27 00:00:00,PRATE,surface,-105,27.8739,2.15e-05
2015-07-27 00:00:00,2015-07-27 00:00:00,PRATE,surface,-104.063,27.8739,3.2e-05
2015-07-27 00:00:00,2015-07-27 00:00:00,PRATE,surface,-103.125,27.8739,5.29e-05
2015-07-27 00:00:00,2015-07-27 00:00:00,PRATE,surface,-102.188,27.8739,5.62e-05
2015-07-27 00:00:00,2015-07-27 00:00:00,PRATE,surface,-101.25,27.8739,4.46e-05
2015-07-27 00:00:00,2015-07-27 00:00:00,PRATE,surface,-100.313,27.8739,3.47e-05
2015-07-27 00:00:00,2015-07-27 00:00:00,PRATE,surface,-99.3754,27.8739,3.34e-05
2015-07-27 00:00:00,2015-07-27 00:00:00,PRATE,surface,-98.4379,27.8739,3.95e-05
2015-07-27 00:00:00,2015-07-27 00:00:00,PRATE,surface,-97.5004,27.8739,5.12e-05
2015-07-27 00:00:00,2015-07-27 00:00:00,PRATE,surface,-96.5629,27.8739,6.21e-05
2015-07-27 00:00:00,2015-07-27 00:00:00,PRATE,surface,-95.6254,27.8739,6.63e-05
2015-07-27 00:00:00,2015-07-27 00:00:00,PRATE,surface,-94.6879,27.8739,7.3e-05
2015-07-27 00:00:00,2015-07-27 00:00:00,PRATE,surface,-93.7504,27.8739,9.3e-05
2015-07-27 00:00:00,2015-07-27 00:00:00,PRATE,surface,-92.8129,27.8739,0.0001073
2015-07-27 00:00:00,2015-07-27 00:00:00,PRATE,surface,-107.813,28.8188,2.83e-05
2015-07-27 00:00:00,2015-07-27 00:00:00,PRATE,surface,-106.875,28.8188,2.23e-05
2015-07-27 00:00:00,2015-07-27 00:00:00,PRATE,surface,-105.938,28.8188,1.86e-05
2015-07-27 00:00:00,2015-07-27 00:00:00,PRATE,surface,-105,28.8188,1.64e-05
2015-07-27 00:00:00,2015-07-27 00:00:00,PRATE,surface,-104.063,28.8188,2.58e-05
2015-07-27 00:00:00,2015-07-27 00:00:00,PRATE,surface,-103.125,28.8188,3.91e-05
2015-07-27 00:00:00,2015-07-27 00:00:00,PRATE,surface,-102.188,28.8188,4.21e-05
2015-07-27 00:00:00,2015-07-27 00:00:00,PRATE,surface,-101.25,28.8188,3.6e-05
2015-07-27 00:00:00,2015-07-27 00:00:00,PRATE,surface,-100.313,28.8188,3.63e-05
2015-07-27 00:00:00,2015-07-27 00:00:00,PRATE,surface,-99.3754,28.8188,4.25e-05
2015-07-27 00:00:00,2015-07-27 00:00:00,PRATE,surface,-98.4379,28.8188,4.77e-05
2015-07-27 00:00:00,2015-07-27 00:00:00,PRATE,surface,-97.5004,28.8188,4.8e-05
2015-07-27 00:00:00,2015-07-27 00:00:00,PRATE,surface,-96.5629,28.8188,4.66e-05
2015-07-27 00:00:00,2015-07-27 00:00:00,PRATE,surface,-95.6254,28.8188,5.57e-05
2015-07-27 00:00:00,2015-07-27 00:00:00,PRATE,surface,-94.6879,28.8188,7.13e-05
2015-07-27 00:00:00,2015-07-27 00:00:00,PRATE,surface,-93.7504,28.8188,7.48e-05
2015-07-27 00:00:00,2015-07-27 00:00:00,PRATE,surface,-92.8129,28.8188,8.59e-05
2015-07-27 00:00:00,2015-07-27 00:00:00,PRATE,surface,-107.813,29.7637,1.95e-05
2015-07-27 00:00:00,2015-07-27 00:00:00,PRATE,surface,-106.875,29.7637,1.59e-05
2015-07-27 00:00:00,2015-07-27 00:00:00,PRATE,surface,-105.938,29.7637,1.3e-05
2015-07-27 00:00:00,2015-07-27 00:00:00,PRATE,surface,-105,29.7637,1.23e-05
2015-07-27 00:00:00,2015-07-27 00:00:00,PRATE,surface,-104.063,29.7637,1.85e-05
2015-07-27 00:00:00,2015-07-27 00:00:00,PRATE,surface,-103.125,29.7637,2.28e-05
2015-07-27 00:00:00,2015-07-27 00:00:00,PRATE,surface,-102.188,29.7637,2.5e-05
2015-07-27 00:00:00,2015-07-27 00:00:00,PRATE,surface,-101.25,29.7637,2.32e-05
2015-07-27 00:00:00,2015-07-27 00:00:00,PRATE,surface,-100.313,29.7637,2.78e-05
2015-07-27 00:00:00,2015-07-27 00:00:00,PRATE,surface,-99.3754,29.7637,3.86e-05
2015-07-27 00:00:00,2015-07-27 00:00:00,PRATE,surface,-98.4379,29.7637,5.1e-05
2015-07-27 00:00:00,2015-07-27 00:00:00,PRATE,surface,-97.5004,29.7637,5.93e-05
2015-07-27 00:00:00,2015-07-27 00:00:00,PRATE,surface,-96.5629,29.7637,6.07e-05
2015-07-27 00:00:00,2015-07-27 00:00:00,PRATE,surface,-95.6254,29.7637,5.79e-05
2015-07-27 00:00:00,2015-07-27 00:00:00,PRATE,surface,-94.6879,29.7637,5.71e-05
2015-07-27 00:00:00,2015-07-27 00:00:00,PRATE,surface,-93.7504,29.7637,6.03e-05
2015-07-27 00:00:00,2015-07-27 00:00:00,PRATE,surface,-92.8129,29.7637,6.27e-05
2015-07-27 00:00:00,2015-07-27 00:00:00,PRATE,surface,-107.813,30.7085,1.37e-05
2015-07-27 00:00:00,2015-07-27 00:00:00,PRATE,surface,-106.875,30.7085,1.11e-05
2015-07-27 00:00:00,2015-07-27 00:00:00,PRATE,surface,-105.938,30.7085,9.4e-06
2015-07-27 00:00:00,2015-07-27 00:00:00,PRATE,surface,-105,30.7085,1.1e-05
2015-07-27 00:00:00,2015-07-27 00:00:00,PRATE,surface,-104.063,30.7085,1.48e-05
2015-07-27 00:00:00,2015-07-27 00:00:00,PRATE,surface,-103.125,30.7085,1.64e-05
2015-07-27 00:00:00,2015-07-27 00:00:00,PRATE,surface,-102.188,30.7085,1.45e-05
2015-07-27 00:00:00,2015-07-27 00:00:00,PRATE,surface,-101.25,30.7085,1.44e-05
2015-07-27 00:00:00,2015-07-27 00:00:00,PRATE,surface,-100.313,30.7085,1.82e-05
2015-07-27 00:00:00,2015-07-27 00:00:00,PRATE,surface,-99.3754,30.7085,2.57e-05
2015-07-27 00:00:00,2015-07-27 00:00:00,PRATE,surface,-98.4379,30.7085,3.51e-05
2015-07-27 00:00:00,2015-07-27 00:00:00,PRATE,surface,-97.5004,30.7085,5.01e-05
2015-07-27 00:00:00,2015-07-27 00:00:00,PRATE,surface,-96.5629,30.7085,6.06e-05
2015-07-27 00:00:00,2015-07-27 00:00:00,PRATE,surface,-95.6254,30.7085,5.8e-05
2015-07-27 00:00:00,2015-07-27 00:00:00,PRATE,surface,-94.6879,30.7085,5.34e-05
2015-07-27 00:00:00,2015-07-27 00:00:00,PRATE,surface,-93.7504,30.7085,5.17e-05
2015-07-27 00:00:00,2015-07-27 00:00:00,PRATE,surface,-92.8129,30.7085,5.18e-05
2015-07-27 00:00:00,2015-07-27 00:00:00,PRATE,surface,-107.813,31.6534,8.9e-06
2015-07-27 00:00:00,2015-07-27 00:00:00,PRATE,surface,-106.875,31.6534,9.4e-06
2015-07-27 00:00:00,2015-07-27 00:00:00,PRATE,surface,-105.938,31.6534,8.9e-06
2015-07-27 00:00:00,2015-07-27 00:00:00,PRATE,surface,-105,31.6534,1.06e-05
2015-07-27 00:00:00,2015-07-27 00:00:00,PRATE,surface,-104.063,31.6534,1.37e-05
2015-07-27 00:00:00,2015-07-27 00:00:00,PRATE,surface,-103.125,31.6534,1.31e-05
2015-07-27 00:00:00,2015-07-27 00:00:00,PRATE,surface,-102.188,31.6534,1.08e-05
2015-07-27 00:00:00,2015-07-27 00:00:00,PRATE,surface,-101.25,31.6534,9.1e-06
2015-07-27 00:00:00,2015-07-27 00:00:00,PRATE,surface,-100.313,31.6534,1.17e-05
2015-07-27 00:00:00,2015-07-27 00:00:00,PRATE,surface,-99.3754,31.6534,1.7e-05
2015-07-27 00:00:00,2015-07-27 00:00:00,PRATE,surface,-98.4379,31.6534,2.53e-05
2015-07-27 00:00:00,2015-07-27 00:00:00,PRATE,surface,-97.5004,31.6534,4.14e-05
2015-07-27 00:00:00,2015-07-27 00:00:00,PRATE,surface,-96.5629,31.6534,5.48e-05
2015-07-27 00:00:00,2015-07-27 00:00:00,PRATE,surface,-95.6254,31.6534,5.28e-05
2015-07-27 00:00:00,2015-07-27 00:00:00,PRATE,surface,-94.6879,31.6534,4.55e-05
2015-07-27 00:00:00,2015-07-27 00:00:00,PRATE,surface,-93.7504,31.6534,4.51e-05
2015-07-27 00:00:00,2015-07-27 00:00:00,PRATE,surface,-92.8129,31.6534,4.53e-05
2015-07-27 00:00:00,2015-07-27 00:00:00,PRATE,surface,-107.813,32.5983,1.25e-05
2015-07-27 00:00:00,2015-07-27 00:00:00,PRATE,surface,-106.875,32.5983,1.29e-05
2015-07-27 00:00:00,2015-07-27 00:00:00,PRATE,surface,-105.938,32.5983,1.13e-05
2015-07-27 00:00:00,2015-07-27 00:00:00,PRATE,surface,-105,32.5983,1.18e-05
2015-07-27 00:00:00,2015-07-27 00:00:00,PRATE,surface,-104.063,32.5983,1.28e-05
2015-07-27 00:00:00,2015-07-27 00:00:00,PRATE,surface,-103.125,32.5983,1.05e-05
2015-07-27 00:00:00,2015-07-27 00:00:00,PRATE,surface,-102.188,32.5983,9.4e-06
2015-07-27 00:00:00,2015-07-27 00:00:00,PRATE,surface,-101.25,32.5983,8.8e-06
2015-07-27 00:00:00,2015-07-27 00:00:00,PRATE,surface,-100.313,32.5983,1.1e-05
2015-07-27 00:00:00,2015-07-27 00:00:00,PRATE,surface,-99.3754,32.5983,1.41e-05
2015-07-27 00:00:00,2015-07-27 00:00:00,PRATE,surface,-98.4379,32.5983,2.01e-05
2015-07-27 00:00:00,2015-07-27 00:00:00,PRATE,surface,-97.5004,32.5983,3.04e-05
2015-07-27 00:00:00,2015-07-27 00:00:00,PRATE,surface,-96.5629,32.5983,3.86e-05
2015-07-27 00:00:00,2015-07-27 00:00:00,PRATE,surface,-95.6254,32.5983,3.93e-05
2015-07-27 00:00:00,2015-07-27 00:00:00,PRATE,surface,-94.6879,32.5983,3.72e-05
2015-07-27 00:00:00,2015-07-27 00:00:00,PRATE,surface,-93.7504,32.5983,3.82e-05
2015-07-27 00:00:00,2015-07-27 00:00:00,PRATE,surface,-92.8129,32.5983,3.83e-05
2015-07-27 00:00:00,2015-07-27 00:00:00,PRATE,surface,-107.813,33.5432,1.54e-05
2015-07-27 00:00:00,2015-07-27 00:00:00,PRATE,surface,-106.875,33.5432,1.41e-05
2015-07-27 00:00:00,2015-07-27 00:00:00,PRATE,surface,-105.938,33.5432,1.24e-05
2015-07-27 00:00:00,2015-07-27 00:00:00,PRATE,surface,-105,33.5432,1.2e-05
2015-07-27 00:00:00,2015-07-27 00:00:00,PRATE,surface,-104.063,33.5432,1.23e-05
2015-07-27 00:00:00,2015-07-27 00:00:00,PRATE,surface,-103.125,33.5432,9.7e-06
2015-07-27 00:00:00,2015-07-27 00:00:00,PRATE,surface,-102.188,33.5432,7.9e-06
2015-07-27 00:00:00,2015-07-27 00:00:00,PRATE,surface,-101.25,33.5432,9.6e-06
2015-07-27 00:00:00,2015-07-27 00:00:00,PRATE,surface,-100.313,33.5432,1.22e-05
2015-07-27 00:00:00,2015-07-27 00:00:00,PRATE,surface,-99.3754,33.5432,1.49e-05
2015-07-27 00:00:00,2015-07-27 00:00:00,PRATE,surface,-98.4379,33.5432,1.95e-05
2015-07-27 00:00:00,2015-07-27 00:00:00,PRATE,surface,-97.5004,33.5432,2.44e-05
2015-07-27 00:00:00,2015-07-27 00:00:00,PRATE,surface,-96.5629,33.5432,2.79e-05
2015-07-27 00:00:00,2015-07-27 00:00:00,PRATE,surface,-95.6254,33.5432,3.25e-05
2015-07-27 00:00:00,2015-07-27 00:00:00,PRATE,surface,-94.6879,33.5432,3.8e-05
2015-07-27 00:00:00,2015-07-27 00:00:00,PRATE,surface,-93.7504,33.5432,3.96e-05
2015-07-27 00:00:00,2015-07-27 00:00:00,PRATE,surface,-92.8129,33.5432,3.76e-05
2015-07-27 00:00:00,2015-07-27 00:00:00,PRATE,surface,-107.813,34.4881,9.6e-06
2015-07-27 00:00:00,2015-07-27 00:00:00,PRATE,surface,-106.875,34.4881,7.9e-06
2015-07-27 00:00:00,2015-07-27 00:00:00,PRATE,surface,-105.938,34.4881,9e-06
2015-07-27 00:00:00,2015-07-27 00:00:00,PRATE,surface,-105,34.4881,1.27e-05
2015-07-27 00:00:00,2015-07-27 00:00:00,PRATE,surface,-104.063,34.4881,1.04e-05
2015-07-27 00:00:00,2015-07-27 00:00:00,PRATE,surface,-103.125,34.4881,7e-06
2015-07-27 00:00:00,2015-07-27 00:00:00,PRATE,surface,-102.188,34.4881,7.3e-06
2015-07-27 00:00:00,2015-07-27 00:00:00,PRATE,surface,-101.25,34.4881,1.28e-05
2015-07-27 00:00:00,2015-07-27 00:00:00,PRATE,surface,-100.313,34.4881,1.7e-05
2015-07-27 00:00:00,2015-07-27 00:00:00,PRATE,surface,-99.3754,34.4881,1.86e-05
2015-07-27 00:00:00,2015-07-27 00:00:00,PRATE,surface,-98.4379,34.4881,2.14e-05
2015-07-27 00:00:00,2015-07-27 00:00:00,PRATE,surface,-97.5004,34.4881,2.31e-05
2015-07-27 00:00:00,2015-07-27 00:00:00,PRATE,surface,-96.5629,34.4881,2.16e-05
2015-07-27 00:00:00,2015-07-27 00:00:00,PRATE,surface,-95.6254,34.4881,2.27e-05
2015-07-27 00:00:00,2015-07-27 00:00:00,PRATE,surface,-94.6879,34.4881,3.03e-05
2015-07-27 00:00:00,2015-07-27 00:00:00,PRATE,surface,-93.7504,34.4881,3.87e-05
2015-07-27 00:00:00,2015-07-27 00:00:00,PRATE,surface,-92.8129,34.4881,4.12e-05
2015-07-27 00:00:00,2015-07-27 00:00:00,PRATE,surface,-107.813,35.4329,6.8e-06
2015-07-27 00:00:00,2015-07-27 00:00:00,PRATE,surface,-106.875,35.4329,6.1e-06
2015-07-27 00:00:00,2015-07-27 00:00:00,PRATE,surface,-105.938,35.4329,9.4e-06
2015-07-27 00:00:00,2015-07-27 00:00:00,PRATE,surface,-105,35.4329,1.56e-05
2015-07-27 00:00:00,2015-07-27 00:00:00,PRATE,surface,-104.063,35.4329,1.08e-05
2015-07-27 00:00:00,2015-07-27 00:00:00,PRATE,surface,-103.125,35.4329,6.3e-06
2015-07-27 00:00:00,2015-07-27 00:00:00,PRATE,surface,-102.188,35.4329,7.7e-06
2015-07-27 00:00:00,2015-07-27 00:00:00,PRATE,surface,-101.25,35.4329,1.38e-05
2015-07-27 00:00:00,2015-07-27 00:00:00,PRATE,surface,-100.313,35.4329,2.01e-05
2015-07-27 00:00:00,2015-07-27 00:00:00,PRATE,surface,-99.3754,35.4329,2.2e-05
2015-07-27 00:00:00,2015-07-27 00:00:00,PRATE,surface,-98.4379,35.4329,2.36e-05
2015-07-27 00:00:00,2015-07-27 00:00:00,PRATE,surface,-97.5004,35.4329,2.39e-05
2015-07-27 00:00:00,2015-07-27 00:00:00,PRATE,surface,-96.5629,35.4329,1.99e-05
2015-07-27 00:00:00,2015-07-27 00:00:00,PRATE,surface,-95.6254,35.4329,1.73e-05
2015-07-27 00:00:00,2015-07-27 00:00:00,PRATE,surface,-94.6879,35.4329,2.17e-05
2015-07-27 00:00:00,2015-07-27 00:00:00,PRATE,surface,-93.7504,35.4329,2.92e-05
2015-07-27 00:00:00,2015-07-27 00:00:00,PRATE,surface,-92.8129,35.4329,3.49e-05
2015-07-27 00:00:00,2015-07-27 00:00:00,PRATE,surface,-107.813,36.3778,9.2e-06
2015-07-27 00:00:00,2015-07-27 00:00:00,PRATE,surface,-106.875,36.3778,1.05e-05
2015-07-27 00:00:00,2015-07-27 00:00:00,PRATE,surface,-105.938,36.3778,1.57e-05
2015-07-27 00:00:00,2015-07-27 00:00:00,PRATE,surface,-105,36.3778,2.16e-05
2015-07-27 00:00:00,2015-07-27 00:00:00,PRATE,surface,-104.063,36.3778,1.57e-05
2015-07-27 00:00:00,2015-07-27 00:00:00,PRATE,surface,-103.125,36.3778,8.3e-06
2015-07-27 00:00:00,2015-07-27 00:00:00,PRATE,surface,-102.188,36.3778,8.4e-06
2015-07-27 00:00:00,2015-07-27 00:00:00,PRATE,surface,-101.25,36.3778,1.21e-05
2015-07-27 00:00:00,2015-07-27 00:00:00,PRATE,surface,-100.313,36.3778,1.62e-05
2015-07-27 00:00:00,2015-07-27 00:00:00,PRATE,surface,-99.3754,36.3778,2.12e-05
2015-07-27 00:00:00,2015-07-27 00:00:00,PRATE,surface,-98.4379,36.3778,2.46e-05
2015-07-27 00:00:00,2015-07-27 00:00:00,PRATE,surface,-97.5004,36.3778,2.26e-05
2015-07-27 00:00:00,2015-07-27 00:00:00,PRATE,surface,-96.5629,36.3778,1.7e-05
2015-07-27 00:00:00,2015-07-27 00:00:00,PRATE,surface,-95.6254,36.3778,1.42e-05
2015-07-27 00:00:00,2015-07-27 00:00:00,PRATE,surface,-94.6879,36.3778,1.8e-05
2015-07-27 00:00:00,2015-07-27 00:00:00,PRATE,surface,-93.7504,36.3778,2.5e-05
2015-07-27 00:00:00,2015-07-27 00:00:00,PRATE,surface,-92.8129,36.3778,2.77e-05
