2016-06-27 00:00:00,2016-06-27 00:00:00,TMP,surface,-107.813,25.0393,302.82
2016-06-27 00:00:00,2016-06-27 00:00:00,TMP,surface,-106.875,25.0393,296.02
2016-06-27 00:00:00,2016-06-27 00:00:00,TMP,surface,-105.938,25.0393,292.333
2016-06-27 00:00:00,2016-06-27 00:00:00,TMP,surface,-105,25.0393,291.488
2016-06-27 00:00:00,2016-06-27 00:00:00,TMP,surface,-104.063,25.0393,296.391
2016-06-27 00:00:00,2016-06-27 00:00:00,TMP,surface,-103.125,25.0393,298.461
2016-06-27 00:00:00,2016-06-27 00:00:00,TMP,surface,-102.188,25.0393,297.597
2016-06-27 00:00:00,2016-06-27 00:00:00,TMP,surface,-101.25,25.0393,294.708
2016-06-27 00:00:00,2016-06-27 00:00:00,TMP,surface,-100.313,25.0393,294.525
2016-06-27 00:00:00,2016-06-27 00:00:00,TMP,surface,-99.3754,25.0393,298.257
2016-06-27 00:00:00,2016-06-27 00:00:00,TMP,surface,-98.4379,25.0393,301.434
2016-06-27 00:00:00,2016-06-27 00:00:00,TMP,surface,-97.5004,25.0393,302.362
2016-06-27 00:00:00,2016-06-27 00:00:00,TMP,surface,-96.5629,25.0393,302.468
2016-06-27 00:00:00,2016-06-27 00:00:00,TMP,surface,-95.6254,25.0393,302.631
2016-06-27 00:00:00,2016-06-27 00:00:00,TMP,surface,-94.6879,25.0393,302.768
2016-06-27 00:00:00,2016-06-27 00:00:00,TMP,surface,-93.7504,25.0393,302.788
2016-06-27 00:00:00,2016-06-27 00:00:00,TMP,surface,-92.8129,25.0393,302.768
2016-06-27 00:00:00,2016-06-27 00:00:00,TMP,surface,-107.813,25.9842,298.548
2016-06-27 00:00:00,2016-06-27 00:00:00,TMP,surface,-106.875,25.9842,293.082
2016-06-27 00:00:00,2016-06-27 00:00:00,TMP,surface,-105.938,25.9842,291.572
2016-06-27 00:00:00,2016-06-27 00:00:00,TMP,surface,-105,25.9842,293.61
2016-06-27 00:00:00,2016-06-27 00:00:00,TMP,surface,-104.063,25.9842,300.119
2016-06-27 00:00:00,2016-06-27 00:00:00,TMP,surface,-103.125,25.9842,301.201
2016-06-27 00:00:00,2016-06-27 00:00:00,TMP,surface,-102.188,25.9842,299.943
2016-06-27 00:00:00,2016-06-27 00:00:00,TMP,surface,-101.25,25.9842,298.237
2016-06-27 00:00:00,2016-06-27 00:00:00,TMP,surface,-100.313,25.9842,298.733
2016-06-27 00:00:00,2016-06-27 00:00:00,TMP,surface,-99.3754,25.9842,301.664
2016-06-27 00:00:00,2016-06-27 00:00:00,TMP,surface,-98.4379,25.9842,302.919
2016-06-27 00:00:00,2016-06-27 00:00:00,TMP,surface,-97.5004,25.9842,301.997
2016-06-27 00:00:00,2016-06-27 00:00:00,TMP,surface,-96.5629,25.9842,301.908
2016-06-27 00:00:00,2016-06-27 00:00:00,TMP,surface,-95.6254,25.9842,302.5
2016-06-27 00:00:00,2016-06-27 00:00:00,TMP,surface,-94.6879,25.9842,302.676
2016-06-27 00:00:00,2016-06-27 00:00:00,TMP,surface,-93.7504,25.9842,302.842
2016-06-27 00:00:00,2016-06-27 00:00:00,TMP,surface,-92.8129,25.9842,302.858
2016-06-27 00:00:00,2016-06-27 00:00:00,TMP,surface,-107.813,26.929,294.903
2016-06-27 00:00:00,2016-06-27 00:00:00,TMP,surface,-106.875,26.929,291.978
2016-06-27 00:00:00,2016-06-27 00:00:00,TMP,surface,-105.938,26.929,293.44
2016-06-27 00:00:00,2016-06-27 00:00:00,TMP,surface,-105,26.929,298.804
2016-06-27 00:00:00,2016-06-27 00:00:00,TMP,surface,-104.063,26.929,301.476
2016-06-27 00:00:00,2016-06-27 00:00:00,TMP,surface,-103.125,26.929,300.989
2016-06-27 00:00:00,2016-06-27 00:00:00,TMP,surface,-102.188,26.929,299.764
2016-06-27 00:00:00,2016-06-27 00:00:00,TMP,surface,-101.25,26.929,300.567
2016-06-27 00:00:00,2016-06-27 00:00:00,TMP,surface,-100.313,26.929,302.618
2016-06-27 00:00:00,2016-06-27 00:00:00,TMP,surface,-99.3754,26.929,304.5
2016-06-27 00:00:00,2016-06-27 00:00:00,TMP,surface,-98.4379,26.929,302.567
2016-06-27 00:00:00,2016-06-27 00:00:00,TMP,surface,-97.5004,26.929,301.357
2016-06-27 00:00:00,2016-06-27 00:00:00,TMP,surface,-96.5629,26.929,301.853
2016-06-27 00:00:00,2016-06-27 00:00:00,TMP,surface,-95.6254,26.929,302.644
2016-06-27 00:00:00,2016-06-27 00:00:00,TMP,surface,-94.6879,26.929,302.768
2016-06-27 00:00:00,2016-06-27 00:00:00,TMP,surface,-93.7504,26.929,302.781
2016-06-27 00:00:00,2016-06-27 00:00:00,TMP,surface,-92.8129,26.929,302.753
2016-06-27 00:00:00,2016-06-27 00:00:00,TMP,surface,-107.813,27.8739,292.999
2016-06-27 00:00:00,2016-06-27 00:00:00,TMP,surface,-106.875,27.8739,292.257
2016-06-27 00:00:00,2016-06-27 00:00:00,TMP,surface,-105.938,27.8739,296.589
2016-06-27 00:00:00,2016-06-27 00:00:00,TMP,surface,-105,27.8739,300.231
2016-06-27 00:00:00,2016-06-27 00:00:00,TMP,surface,-104.063,27.8739,300.82
2016-06-27 00:00:00,2016-06-27 00:00:00,TMP,surface,-103.125,27.8739,299.239
2016-06-27 00:00:00,2016-06-27 00:00:00,TMP,surface,-102.188,27.8739,298.66
2016-06-27 00:00:00,2016-06-27 00:00:00,TMP,surface,-101.25,27.8739,301.357
2016-06-27 00:00:00,2016-06-27 00:00:00,TMP,surface,-100.313,27.8739,303.978
2016-06-27 00:00:00,2016-06-27 00:00:00,TMP,surface,-99.3754,27.8739,303.975
2016-06-27 00:00:00,2016-06-27 00:00:00,TMP,surface,-98.4379,27.8739,302.417
2016-06-27 00:00:00,2016-06-27 00:00:00,TMP,surface,-97.5004,27.8739,302.071
2016-06-27 00:00:00,2016-06-27 00:00:00,TMP,surface,-96.5629,27.8739,302.73
2016-06-27 00:00:00,2016-06-27 00:00:00,TMP,surface,-95.6254,27.8739,302.964
2016-06-27 00:00:00,2016-06-27 00:00:00,TMP,surface,-94.6879,27.8739,302.992
2016-06-27 00:00:00,2016-06-27 00:00:00,TMP,surface,-93.7504,27.8739,302.897
2016-06-27 00:00:00,2016-06-27 00:00:00,TMP,surface,-92.8129,27.8739,302.772
2016-06-27 00:00:00,2016-06-27 00:00:00,TMP,surface,-107.813,28.8188,293.073
2016-06-27 00:00:00,2016-06-27 00:00:00,TMP,surface,-106.875,28.8188,293.991
2016-06-27 00:00:00,2016-06-27 00:00:00,TMP,surface,-105.938,28.8188,297.962
2016-06-27 00:00:00,2016-06-27 00:00:00,TMP,surface,-105,28.8188,300.765
2016-06-27 00:00:00,2016-06-27 00:00:00,TMP,surface,-104.063,28.8188,299.546
2016-06-27 00:00:00,2016-06-27 00:00:00,TMP,surface,-103.125,28.8188,299.159
2016-06-27 00:00:00,2016-06-27 00:00:00,TMP,surface,-102.188,28.8188,298.996
2016-06-27 00:00:00,2016-06-27 00:00:00,TMP,surface,-101.25,28.8188,301.536
2016-06-27 00:00:00,2016-06-27 00:00:00,TMP,surface,-100.313,28.8188,302.928
2016-06-27 00:00:00,2016-06-27 00:00:00,TMP,surface,-99.3754,28.8188,302.282
2016-06-27 00:00:00,2016-06-27 00:00:00,TMP,surface,-98.4379,28.8188,301.175
2016-06-27 00:00:00,2016-06-27 00:00:00,TMP,surface,-97.5004,28.8188,300.765
2016-06-27 00:00:00,2016-06-27 00:00:00,TMP,surface,-96.5629,28.8188,301.185
2016-06-27 00:00:00,2016-06-27 00:00:00,TMP,surface,-95.6254,28.8188,302.154
2016-06-27 00:00:00,2016-06-27 00:00:00,TMP,surface,-94.6879,28.8188,302.992
2016-06-27 00:00:00,2016-06-27 00:00:00,TMP,surface,-93.7504,28.8188,303.124
2016-06-27 00:00:00,2016-06-27 00:00:00,TMP,surface,-92.8129,28.8188,303.101
2016-06-27 00:00:00,2016-06-27 00:00:00,TMP,surface,-107.813,29.7637,294.97
2016-06-27 00:00:00,2016-06-27 00:00:00,TMP,surface,-106.875,29.7637,296.535
2016-06-27 00:00:00,2016-06-27 00:00:00,TMP,surface,-105.938,29.7637,299.322
2016-06-27 00:00:00,2016-06-27 00:00:00,TMP,surface,-105,29.7637,300.026
2016-06-27 00:00:00,2016-06-27 00:00:00,TMP,surface,-104.063,29.7637,299.351
2016-06-27 00:00:00,2016-06-27 00:00:00,TMP,surface,-103.125,29.7637,299.879
2016-06-27 00:00:00,2016-06-27 00:00:00,TMP,surface,-102.188,29.7637,300.202
2016-06-27 00:00:00,2016-06-27 00:00:00,TMP,surface,-101.25,29.7637,300.577
2016-06-27 00:00:00,2016-06-27 00:00:00,TMP,surface,-100.313,29.7637,300.577
2016-06-27 00:00:00,2016-06-27 00:00:00,TMP,surface,-99.3754,29.7637,299.754
2016-06-27 00:00:00,2016-06-27 00:00:00,TMP,surface,-98.4379,29.7637,299.533
2016-06-27 00:00:00,2016-06-27 00:00:00,TMP,surface,-97.5004,29.7637,300.189
2016-06-27 00:00:00,2016-06-27 00:00:00,TMP,surface,-96.5629,29.7637,300.82
2016-06-27 00:00:00,2016-06-27 00:00:00,TMP,surface,-95.6254,29.7637,301.117
2016-06-27 00:00:00,2016-06-27 00:00:00,TMP,surface,-94.6879,29.7637,301.818
2016-06-27 00:00:00,2016-06-27 00:00:00,TMP,surface,-93.7504,29.7637,302.768
2016-06-27 00:00:00,2016-06-27 00:00:00,TMP,surface,-92.8129,29.7637,301.933
2016-06-27 00:00:00,2016-06-27 00:00:00,TMP,surface,-107.813,30.7085,300.244
2016-06-27 00:00:00,2016-06-27 00:00:00,TMP,surface,-106.875,30.7085,301.178
2016-06-27 00:00:00,2016-06-27 00:00:00,TMP,surface,-105.938,30.7085,300.644
2016-06-27 00:00:00,2016-06-27 00:00:00,TMP,surface,-105,30.7085,300.183
2016-06-27 00:00:00,2016-06-27 00:00:00,TMP,surface,-104.063,30.7085,298.631
2016-06-27 00:00:00,2016-06-27 00:00:00,TMP,surface,-103.125,30.7085,299.933
2016-06-27 00:00:00,2016-06-27 00:00:00,TMP,surface,-102.188,30.7085,299.821
2016-06-27 00:00:00,2016-06-27 00:00:00,TMP,surface,-101.25,30.7085,299.463
2016-06-27 00:00:00,2016-06-27 00:00:00,TMP,surface,-100.313,30.7085,299.869
2016-06-27 00:00:00,2016-06-27 00:00:00,TMP,surface,-99.3754,30.7085,299.895
2016-06-27 00:00:00,2016-06-27 00:00:00,TMP,surface,-98.4379,30.7085,300.212
2016-06-27 00:00:00,2016-06-27 00:00:00,TMP,surface,-97.5004,30.7085,300.679
2016-06-27 00:00:00,2016-06-27 00:00:00,TMP,surface,-96.5629,30.7085,301.245
2016-06-27 00:00:00,2016-06-27 00:00:00,TMP,surface,-95.6254,30.7085,301.437
2016-06-27 00:00:00,2016-06-27 00:00:00,TMP,surface,-94.6879,30.7085,300.704
2016-06-27 00:00:00,2016-06-27 00:00:00,TMP,surface,-93.7504,30.7085,300.48
2016-06-27 00:00:00,2016-06-27 00:00:00,TMP,surface,-92.8129,30.7085,300.471
2016-06-27 00:00:00,2016-06-27 00:00:00,TMP,surface,-107.813,31.6534,302.519
2016-06-27 00:00:00,2016-06-27 00:00:00,TMP,surface,-106.875,31.6534,302.653
2016-06-27 00:00:00,2016-06-27 00:00:00,TMP,surface,-105.938,31.6534,301.485
2016-06-27 00:00:00,2016-06-27 00:00:00,TMP,surface,-105,31.6534,300.413
2016-06-27 00:00:00,2016-06-27 00:00:00,TMP,surface,-104.063,31.6534,299.895
2016-06-27 00:00:00,2016-06-27 00:00:00,TMP,surface,-103.125,31.6534,299.853
2016-06-27 00:00:00,2016-06-27 00:00:00,TMP,surface,-102.188,31.6534,299.076
2016-06-27 00:00:00,2016-06-27 00:00:00,TMP,surface,-101.25,31.6534,299.121
2016-06-27 00:00:00,2016-06-27 00:00:00,TMP,surface,-100.313,31.6534,299.956
2016-06-27 00:00:00,2016-06-27 00:00:00,TMP,surface,-99.3754,31.6534,300.455
2016-06-27 00:00:00,2016-06-27 00:00:00,TMP,surface,-98.4379,31.6534,300.88
2016-06-27 00:00:00,2016-06-27 00:00:00,TMP,surface,-97.5004,31.6534,301.258
2016-06-27 00:00:00,2016-06-27 00:00:00,TMP,surface,-96.5629,31.6534,301.706
2016-06-27 00:00:00,2016-06-27 00:00:00,TMP,surface,-95.6254,31.6534,301.751
2016-06-27 00:00:00,2016-06-27 00:00:00,TMP,surface,-94.6879,31.6534,300.977
2016-06-27 00:00:00,2016-06-27 00:00:00,TMP,surface,-93.7504,31.6534,300.695
2016-06-27 00:00:00,2016-06-27 00:00:00,TMP,surface,-92.8129,31.6534,300.849
2016-06-27 00:00:00,2016-06-27 00:00:00,TMP,surface,-107.813,32.5983,300.199
2016-06-27 00:00:00,2016-06-27 00:00:00,TMP,surface,-106.875,32.5983,300.138
2016-06-27 00:00:00,2016-06-27 00:00:00,TMP,surface,-105.938,32.5983,300.129
2016-06-27 00:00:00,2016-06-27 00:00:00,TMP,surface,-105,32.5983,299.751
2016-06-27 00:00:00,2016-06-27 00:00:00,TMP,surface,-104.063,32.5983,299.783
2016-06-27 00:00:00,2016-06-27 00:00:00,TMP,surface,-103.125,32.5983,300.039
2016-06-27 00:00:00,2016-06-27 00:00:00,TMP,surface,-102.188,32.5983,299.588
2016-06-27 00:00:00,2016-06-27 00:00:00,TMP,surface,-101.25,32.5983,300.087
2016-06-27 00:00:00,2016-06-27 00:00:00,TMP,surface,-100.313,32.5983,301.168
2016-06-27 00:00:00,2016-06-27 00:00:00,TMP,surface,-99.3754,32.5983,301.629
2016-06-27 00:00:00,2016-06-27 00:00:00,TMP,surface,-98.4379,32.5983,301.62
2016-06-27 00:00:00,2016-06-27 00:00:00,TMP,surface,-97.5004,32.5983,301.585
2016-06-27 00:00:00,2016-06-27 00:00:00,TMP,surface,-96.5629,32.5983,301.837
2016-06-27 00:00:00,2016-06-27 00:00:00,TMP,surface,-95.6254,32.5983,302.033
2016-06-27 00:00:00,2016-06-27 00:00:00,TMP,surface,-94.6879,32.5983,301.655
2016-06-27 00:00:00,2016-06-27 00:00:00,TMP,surface,-93.7504,32.5983,301.332
2016-06-27 00:00:00,2016-06-27 00:00:00,TMP,surface,-92.8129,32.5983,301.604
2016-06-27 00:00:00,2016-06-27 00:00:00,TMP,surface,-107.813,33.5432,295.85
2016-06-27 00:00:00,2016-06-27 00:00:00,TMP,surface,-106.875,33.5432,297.434
2016-06-27 00:00:00,2016-06-27 00:00:00,TMP,surface,-105.938,33.5432,297.754
2016-06-27 00:00:00,2016-06-27 00:00:00,TMP,surface,-105,33.5432,298.973
2016-06-27 00:00:00,2016-06-27 00:00:00,TMP,surface,-104.063,33.5432,300.465
2016-06-27 00:00:00,2016-06-27 00:00:00,TMP,surface,-103.125,33.5432,300.109
2016-06-27 00:00:00,2016-06-27 00:00:00,TMP,surface,-102.188,33.5432,299.652
2016-06-27 00:00:00,2016-06-27 00:00:00,TMP,surface,-101.25,33.5432,300.471
2016-06-27 00:00:00,2016-06-27 00:00:00,TMP,surface,-100.313,33.5432,302.279
2016-06-27 00:00:00,2016-06-27 00:00:00,TMP,surface,-99.3754,33.5432,302.772
2016-06-27 00:00:00,2016-06-27 00:00:00,TMP,surface,-98.4379,33.5432,301.924
2016-06-27 00:00:00,2016-06-27 00:00:00,TMP,surface,-97.5004,33.5432,301.201
2016-06-27 00:00:00,2016-06-27 00:00:00,TMP,surface,-96.5629,33.5432,301.047
2016-06-27 00:00:00,2016-06-27 00:00:00,TMP,surface,-95.6254,33.5432,301.354
2016-06-27 00:00:00,2016-06-27 00:00:00,TMP,surface,-94.6879,33.5432,301.629
2016-06-27 00:00:00,2016-06-27 00:00:00,TMP,surface,-93.7504,33.5432,301.082
2016-06-27 00:00:00,2016-06-27 00:00:00,TMP,surface,-92.8129,33.5432,301.124
2016-06-27 00:00:00,2016-06-27 00:00:00,TMP,surface,-107.813,34.4881,295.661
2016-06-27 00:00:00,2016-06-27 00:00:00,TMP,surface,-106.875,34.4881,296.615
2016-06-27 00:00:00,2016-06-27 00:00:00,TMP,surface,-105.938,34.4881,296.33
2016-06-27 00:00:00,2016-06-27 00:00:00,TMP,surface,-105,34.4881,299.063
2016-06-27 00:00:00,2016-06-27 00:00:00,TMP,surface,-104.063,34.4881,300.784
2016-06-27 00:00:00,2016-06-27 00:00:00,TMP,surface,-103.125,34.4881,300.365
2016-06-27 00:00:00,2016-06-27 00:00:00,TMP,surface,-102.188,34.4881,300.058
2016-06-27 00:00:00,2016-06-27 00:00:00,TMP,surface,-101.25,34.4881,300.727
2016-06-27 00:00:00,2016-06-27 00:00:00,TMP,surface,-100.313,34.4881,302.09
2016-06-27 00:00:00,2016-06-27 00:00:00,TMP,surface,-99.3754,34.4881,302.551
2016-06-27 00:00:00,2016-06-27 00:00:00,TMP,surface,-98.4379,34.4881,301.693
2016-06-27 00:00:00,2016-06-27 00:00:00,TMP,surface,-97.5004,34.4881,300.618
2016-06-27 00:00:00,2016-06-27 00:00:00,TMP,surface,-96.5629,34.4881,300.708
2016-06-27 00:00:00,2016-06-27 00:00:00,TMP,surface,-95.6254,34.4881,301.473
2016-06-27 00:00:00,2016-06-27 00:00:00,TMP,surface,-94.6879,34.4881,301.21
2016-06-27 00:00:00,2016-06-27 00:00:00,TMP,surface,-93.7504,34.4881,300.272
2016-06-27 00:00:00,2016-06-27 00:00:00,TMP,surface,-92.8129,34.4881,300.333
2016-06-27 00:00:00,2016-06-27 00:00:00,TMP,surface,-107.813,35.4329,298.125
2016-06-27 00:00:00,2016-06-27 00:00:00,TMP,surface,-106.875,35.4329,297.367
2016-06-27 00:00:00,2016-06-27 00:00:00,TMP,surface,-105.938,35.4329,295.857
2016-06-27 00:00:00,2016-06-27 00:00:00,TMP,surface,-105,35.4329,296.967
2016-06-27 00:00:00,2016-06-27 00:00:00,TMP,surface,-104.063,35.4329,299.93
2016-06-27 00:00:00,2016-06-27 00:00:00,TMP,surface,-103.125,35.4329,301.85
2016-06-27 00:00:00,2016-06-27 00:00:00,TMP,surface,-102.188,35.4329,302.289
2016-06-27 00:00:00,2016-06-27 00:00:00,TMP,surface,-101.25,35.4329,302.272
2016-06-27 00:00:00,2016-06-27 00:00:00,TMP,surface,-100.313,35.4329,302.052
2016-06-27 00:00:00,2016-06-27 00:00:00,TMP,surface,-99.3754,35.4329,302.048
2016-06-27 00:00:00,2016-06-27 00:00:00,TMP,surface,-98.4379,35.4329,301.565
2016-06-27 00:00:00,2016-06-27 00:00:00,TMP,surface,-97.5004,35.4329,300.634
2016-06-27 00:00:00,2016-06-27 00:00:00,TMP,surface,-96.5629,35.4329,300.145
2016-06-27 00:00:00,2016-06-27 00:00:00,TMP,surface,-95.6254,35.4329,300.378
2016-06-27 00:00:00,2016-06-27 00:00:00,TMP,surface,-94.6879,35.4329,300.506
2016-06-27 00:00:00,2016-06-27 00:00:00,TMP,surface,-93.7504,35.4329,299.837
2016-06-27 00:00:00,2016-06-27 00:00:00,TMP,surface,-92.8129,35.4329,299.271
2016-06-27 00:00:00,2016-06-27 00:00:00,TMP,surface,-107.813,36.3778,298.141
2016-06-27 00:00:00,2016-06-27 00:00:00,TMP,surface,-106.875,36.3778,294.381
2016-06-27 00:00:00,2016-06-27 00:00:00,TMP,surface,-105.938,36.3778,293.793
2016-06-27 00:00:00,2016-06-27 00:00:00,TMP,surface,-105,36.3778,293.194
2016-06-27 00:00:00,2016-06-27 00:00:00,TMP,surface,-104.063,36.3778,296.359
2016-06-27 00:00:00,2016-06-27 00:00:00,TMP,surface,-103.125,36.3778,299.268
2016-06-27 00:00:00,2016-06-27 00:00:00,TMP,surface,-102.188,36.3778,301.181
2016-06-27 00:00:00,2016-06-27 00:00:00,TMP,surface,-101.25,36.3778,301.943
2016-06-27 00:00:00,2016-06-27 00:00:00,TMP,surface,-100.313,36.3778,301.789
2016-06-27 00:00:00,2016-06-27 00:00:00,TMP,surface,-99.3754,36.3778,301.348
2016-06-27 00:00:00,2016-06-27 00:00:00,TMP,surface,-98.4379,36.3778,300.906
2016-06-27 00:00:00,2016-06-27 00:00:00,TMP,surface,-97.5004,36.3778,300.295
2016-06-27 00:00:00,2016-06-27 00:00:00,TMP,surface,-96.5629,36.3778,299.732
2016-06-27 00:00:00,2016-06-27 00:00:00,TMP,surface,-95.6254,36.3778,299.738
2016-06-27 00:00:00,2016-06-27 00:00:00,TMP,surface,-94.6879,36.3778,299.69
2016-06-27 00:00:00,2016-06-27 00:00:00,TMP,surface,-93.7504,36.3778,298.634
2016-06-27 00:00:00,2016-06-27 00:00:00,TMP,surface,-92.8129,36.3778,297.898
2016-06-27 00:00:00,2016-06-27 00:00:00,PRATE,surface,-107.813,25.0393,2.6e-06
2016-06-27 00:00:00,2016-06-27 00:00:00,PRATE,surface,-106.875,25.0393,0.000229
2016-06-27 00:00:00,2016-06-27 00:00:00,PRATE,surface,-105.938,25.0393,0.0002881
2016-06-27 00:00:00,2016-06-27 00:00:00,PRATE,surface,-105,25.0393,0.000166
2016-06-27 00:00:00,2016-06-27 00:00:00,PRATE,surface,-104.063,25.0393,2.08e-05
2016-06-27 00:00:00,2016-06-27 00:00:00,PRATE,surface,-103.125,25.0393,1.46e-05
2016-06-27 00:00:00,2016-06-27 00:00:00,PRATE,surface,-102.188,25.0393,3e-07
2016-06-27 00:00:00,2016-06-27 00:00:00,PRATE,surface,-101.25,25.0393,2.06e-05
2016-06-27 00:00:00,2016-06-27 00:00:00,PRATE,surface,-100.313,25.0393,7.16e-05
2016-06-27 00:00:00,2016-06-27 00:00:00,PRATE,surface,-99.3754,25.0393,5.87e-05
2016-06-27 00:00:00,2016-06-27 00:00:00,PRATE,surface,-98.4379,25.0393,3.79e-05
2016-06-27 00:00:00,2016-06-27 00:00:00,PRATE,surface,-97.5004,25.0393,2.93e-05
2016-06-27 00:00:00,2016-06-27 00:00:00,PRATE,surface,-96.5629,25.0393,3.08e-05
2016-06-27 00:00:00,2016-06-27 00:00:00,PRATE,surface,-95.6254,25.0393,3.9e-06
2016-06-27 00:00:00,2016-06-27 00:00:00,PRATE,surface,-94.6879,25.0393,1.09e-05
2016-06-27 00:00:00,2016-06-27 00:00:00,PRATE,surface,-93.7504,25.0393,1.3e-05
2016-06-27 00:00:00,2016-06-27 00:00:00,PRATE,surface,-92.8129,25.0393,2.69e-05
2016-06-27 00:00:00,2016-06-27 00:00:00,PRATE,surface,-107.813,25.9842,0.0001749
2016-06-27 00:00:00,2016-06-27 00:00:00,PRATE,surface,-106.875,25.9842,0.0003065
2016-06-27 00:00:00,2016-06-27 00:00:00,PRATE,surface,-105.938,25.9842,0.0001586
2016-06-27 00:00:00,2016-06-27 00:00:00,PRATE,surface,-105,25.9842,0.0001148
2016-06-27 00:00:00,2016-06-27 00:00:00,PRATE,surface,-104.063,25.9842,9.8e-06
2016-06-27 00:00:00,2016-06-27 00:00:00,PRATE,surface,-103.125,25.9842,1.9e-06
2016-06-27 00:00:00,2016-06-27 00:00:00,PRATE,surface,-102.188,25.9842,0
2016-06-27 00:00:00,2016-06-27 00:00:00,PRATE,surface,-101.25,25.9842,1.64e-05
2016-06-27 00:00:00,2016-06-27 00:00:00,PRATE,surface,-100.313,25.9842,3.16e-05
2016-06-27 00:00:00,2016-06-27 00:00:00,PRATE,surface,-99.3754,25.9842,2.4e-05
2016-06-27 00:00:00,2016-06-27 00:00:00,PRATE,surface,-98.4379,25.9842,2.44e-05
2016-06-27 00:00:00,2016-06-27 00:00:00,PRATE,surface,-97.5004,25.9842,7.52e-05
2016-06-27 00:00:00,2016-06-27 00:00:00,PRATE,surface,-96.5629,25.9842,5e-06
2016-06-27 00:00:00,2016-06-27 00:00:00,PRATE,surface,-95.6254,25.9842,5.4e-06
2016-06-27 00:00:00,2016-06-27 00:00:00,PRATE,surface,-94.6879,25.9842,9.1e-06
2016-06-27 00:00:00,2016-06-27 00:00:00,PRATE,surface,-93.7504,25.9842,1.99e-05
2016-06-27 00:00:00,2016-06-27 00:00:00,PRATE,surface,-92.8129,25.9842,1.19e-05
2016-06-27 00:00:00,2016-06-27 00:00:00,PRATE,surface,-107.813,26.929,0.0002696
2016-06-27 00:00:00,2016-06-27 00:00:00,PRATE,surface,-106.875,26.929,0.0001623
2016-06-27 00:00:00,2016-06-27 00:00:00,PRATE,surface,-105.938,26.929,9.83e-05
2016-06-27 00:00:00,2016-06-27 00:00:00,PRATE,surface,-105,26.929,2.83e-05
2016-06-27 00:00:00,2016-06-27 00:00:00,PRATE,surface,-104.063,26.929,2.04e-05
2016-06-27 00:00:00,2016-06-27 00:00:00,PRATE,surface,-103.125,26.929,6.6e-06
2016-06-27 00:00:00,2016-06-27 00:00:00,PRATE,surface,-102.188,26.929,6.9e-06
2016-06-27 00:00:00,2016-06-27 00:00:00,PRATE,surface,-101.25,26.929,1.1e-06
2016-06-27 00:00:00,2016-06-27 00:00:00,PRATE,surface,-100.313,26.929,0
2016-06-27 00:00:00,2016-06-27 00:00:00,PRATE,surface,-99.3754,26.929,1.8e-06
2016-06-27 00:00:00,2016-06-27 00:00:00,PRATE,surface,-98.4379,26.929,2.94e-05
2016-06-27 00:00:00,2016-06-27 00:00:00,PRATE,surface,-97.5004,26.929,1e-06
2016-06-27 00:00:00,2016-06-27 00:00:00,PRATE,surface,-96.5629,26.929,0
2016-06-27 00:00:00,2016-06-27 00:00:00,PRATE,surface,-95.6254,26.929,0
2016-06-27 00:00:00,2016-06-27 00:00:00,PRATE,surface,-94.6879,26.929,0
2016-06-27 00:00:00,2016-06-27 00:00:00,PRATE,surface,-93.7504,26.929,2.22e-05
2016-06-27 00:00:00,2016-06-27 00:00:00,PRATE,surface,-92.8129,26.929,5.83e-05
2016-06-27 00:00:00,2016-06-27 00:00:00,PRATE,surface,-107.813,27.8739,0.0001779
2016-06-27 00:00:00,2016-06-27 00:00:00,PRATE,surface,-106.875,27.8739,0.0001137
2016-06-27 00:00:00,2016-06-27 00:00:00,PRATE,surface,-105.938,27.8739,3.53e-05
2016-06-27 00:00:00,2016-06-27 00:00:00,PRATE,surface,-105,27.8739,4.08e-05
2016-06-27 00:00:00,2016-06-27 00:00:00,PRATE,surface,-104.063,27.8739,3.03e-05
2016-06-27 00:00:00,2016-06-27 00:00:00,PRATE,surface,-103.125,27.8739,2.67e-05
2016-06-27 00:00:00,2016-06-27 00:00:00,PRATE,surface,-102.188,27.8739,7.4e-06
2016-06-27 00:00:00,2016-06-27 00:00:00,PRATE,surface,-101.25,27.8739,5.7e-06
2016-06-27 00:00:00,2016-06-27 00:00:00,PRATE,surface,-100.313,27.8739,4.4e-06
2016-06-27 00:00:00,2016-06-27 00:00:00,PRATE,surface,-99.3754,27.8739,9.1e-06
2016-06-27 00:00:00,2016-06-27 00:00:00,PRATE,surface,-98.4379,27.8739,1.78e-05
2016-06-27 00:00:00,2016-06-27 00:00:00,PRATE,surface,-97.5004,27.8739,1.21e-05
2016-06-27 00:00:00,2016-06-27 00:00:00,PRATE,surface,-96.5629,27.8739,1.3e-06
2016-06-27 00:00:00,2016-06-27 00:00:00,PRATE,surface,-95.6254,27.8739,3.8e-06
2016-06-27 00:00:00,2016-06-27 00:00:00,PRATE,surface,-94.6879,27.8739,2.01e-05
2016-06-27 00:00:00,2016-06-27 00:00:00,PRATE,surface,-93.7504,27.8739,6.99e-05
2016-06-27 00:00:00,2016-06-27 00:00:00,PRATE,surface,-92.8129,27.8739,0.0001502
2016-06-27 00:00:00,2016-06-27 00:00:00,PRATE,surface,-107.813,28.8188,0.000105
2016-06-27 00:00:00,2016-06-27 00:00:00,PRATE,surface,-106.875,28.8188,6.69e-05
2016-06-27 00:00:00,2016-06-27 00:00:00,PRATE,surface,-105.938,28.8188,3.01e-05
2016-06-27 00:00:00,2016-06-27 00:00:00,PRATE,surface,-105,28.8188,3.73e-05
2016-06-27 00:00:00,2016-06-27 00:00:00,PRATE,surface,-104.063,28.8188,3.28e-05
2016-06-27 00:00:00,2016-06-27 00:00:00,PRATE,surface,-103.125,28.8188,1.04e-05
2016-06-27 00:00:00,2016-06-27 00:00:00,PRATE,surface,-102.188,28.8188,3.7e-06
2016-06-27 00:00:00,2016-06-27 00:00:00,PRATE,surface,-101.25,28.8188,9e-07
2016-06-27 00:00:00,2016-06-27 00:00:00,PRATE,surface,-100.313,28.8188,3.3e-06
2016-06-27 00:00:00,2016-06-27 00:00:00,PRATE,surface,-99.3754,28.8188,1.88e-05
2016-06-27 00:00:00,2016-06-27 00:00:00,PRATE,surface,-98.4379,28.8188,3.54e-05
2016-06-27 00:00:00,2016-06-27 00:00:00,PRATE,surface,-97.5004,28.8188,2.49e-05
2016-06-27 00:00:00,2016-06-27 00:00:00,PRATE,surface,-96.5629,28.8188,1.21e-05
2016-06-27 00:00:00,2016-06-27 00:00:00,PRATE,surface,-95.6254,28.8188,2.33e-05
2016-06-27 00:00:00,2016-06-27 00:00:00,PRATE,surface,-94.6879,28.8188,4.59e-05
2016-06-27 00:00:00,2016-06-27 00:00:00,PRATE,surface,-93.7504,28.8188,8.35e-05
2016-06-27 00:00:00,2016-06-27 00:00:00,PRATE,surface,-92.8129,28.8188,0.0001187
2016-06-27 00:00:00,2016-06-27 00:00:00,PRATE,surface,-107.813,29.7637,3.96e-05
2016-06-27 00:00:00,2016-06-27 00:00:00,PRATE,surface,-106.875,29.7637,4.83e-05
2016-06-27 00:00:00,2016-06-27 00:00:00,PRATE,surface,-105.938,29.7637,3.29e-05
2016-06-27 00:00:00,2016-06-27 00:00:00,PRATE,surface,-105,29.7637,3.11e-05
2016-06-27 00:00:00,2016-06-27 00:00:00,PRATE,surface,-104.063,29.7637,5.38e-05
2016-06-27 00:00:00,2016-06-27 00:00:00,PRATE,surface,-103.125,29.7637,8.7e-06
2016-06-27 00:00:00,2016-06-27 00:00:00,PRATE,surface,-102.188,29.7637,3.5e-06
2016-06-27 00:00:00,2016-06-27 00:00:00,PRATE,surface,-101.25,29.7637,1.6e-06
2016-06-27 00:00:00,2016-06-27 00:00:00,PRATE,surface,-100.313,29.7637,9.1e-06
2016-06-27 00:00:00,2016-06-27 00:00:00,PRATE,surface,-99.3754,29.7637,3.44e-05
2016-06-27 00:00:00,2016-06-27 00:00:00,PRATE,surface,-98.4379,29.7637,4.07e-05
2016-06-27 00:00:00,2016-06-27 00:00:00,PRATE,surface,-97.5004,29.7637,3.59e-05
2016-06-27 00:00:00,2016-06-27 00:00:00,PRATE,surface,-96.5629,29.7637,3.79e-05
2016-06-27 00:00:00,2016-06-27 00:00:00,PRATE,surface,-95.6254,29.7637,4.83e-05
2016-06-27 00:00:00,2016-06-27 00:00:00,PRATE,surface,-94.6879,29.7637,6.31e-05
2016-06-27 00:00:00,2016-06-27 00:00:00,PRATE,surface,-93.7504,29.7637,6.41e-05
2016-06-27 00:00:00,2016-06-27 00:00:00,PRATE,surface,-92.8129,29.7637,6.92e-05
2016-06-27 00:00:00,2016-06-27 00:00:00,PRATE,surface,-107.813,30.7085,1.5e-06
2016-06-27 00:00:00,2016-06-27 00:00:00,PRATE,surface,-106.875,30.7085,5.6e-06
2016-06-27 00:00:00,2016-06-27 00:00:00,PRATE,surface,-105.938,30.7085,9.4e-06
2016-06-27 00:00:00,2016-06-27 00:00:00,PRATE,surface,-105,30.7085,2.05e-05
2016-06-27 00:00:00,2016-06-27 00:00:00,PRATE,surface,-104.063,30.7085,5.14e-05
2016-06-27 00:00:00,2016-06-27 00:00:00,PRATE,surface,-103.125,30.7085,2.66e-05
2016-06-27 00:00:00,2016-06-27 00:00:00,PRATE,surface,-102.188,30.7085,1.23e-05
2016-06-27 00:00:00,2016-06-27 00:00:00,PRATE,surface,-101.25,30.7085,1.89e-05
2016-06-27 00:00:00,2016-06-27 00:00:00,PRATE,surface,-100.313,30.7085,2.37e-05
2016-06-27 00:00:00,2016-06-27 00:00:00,PRATE,surface,-99.3754,30.7085,2.52e-05
2016-06-27 00:00:00,2016-06-27 00:00:00,PRATE,surface,-98.4379,30.7085,2.33e-05
2016-06-27 00:00:00,2016-06-27 00:00:00,PRATE,surface,-97.5004,30.7085,2.89e-05
2016-06-27 00:00:00,2016-06-27 00:00:00,PRATE,surface,-96.5629,30.7085,3.48e-05
2016-06-27 00:00:00,2016-06-27 00:00:00,PRATE,surface,-95.6254,30.7085,4.95e-05
2016-06-27 00:00:00,2016-06-27 00:00:00,PRATE,surface,-94.6879,30.7085,6.29e-05
2016-06-27 00:00:00,2016-06-27 00:00:00,PRATE,surface,-93.7504,30.7085,3.89e-05
2016-06-27 00:00:00,2016-06-27 00:00:00,PRATE,surface,-92.8129,30.7085,5.61e-05
2016-06-27 00:00:00,2016-06-27 00:00:00,PRATE,surface,-107.813,31.6534,1e-07
2016-06-27 00:00:00,2016-06-27 00:00:00,PRATE,surface,-106.875,31.6534,9e-07
2016-06-27 00:00:00,2016-06-27 00:00:00,PRATE,surface,-105.938,31.6534,4.1e-06
2016-06-27 00:00:00,2016-06-27 00:00:00,PRATE,surface,-105,31.6534,9e-06
2016-06-27 00:00:00,2016-06-27 00:00:00,PRATE,surface,-104.063,31.6534,3.13e-05
2016-06-27 00:00:00,2016-06-27 00:00:00,PRATE,surface,-103.125,31.6534,3.24e-05
2016-06-27 00:00:00,2016-06-27 00:00:00,PRATE,surface,-102.188,31.6534,8.33e-05
2016-06-27 00:00:00,2016-06-27 00:00:00,PRATE,surface,-101.25,31.6534,9.09e-05
2016-06-27 00:00:00,2016-06-27 00:00:00,PRATE,surface,-100.313,31.6534,5.03e-05
2016-06-27 00:00:00,2016-06-27 00:00:00,PRATE,surface,-99.3754,31.6534,1.99e-05
2016-06-27 00:00:00,2016-06-27 00:00:00,PRATE,surface,-98.4379,31.6534,1.88e-05
2016-06-27 00:00:00,2016-06-27 00:00:00,PRATE,surface,-97.5004,31.6534,1.51e-05
2016-06-27 00:00:00,2016-06-27 00:00:00,PRATE,surface,-96.5629,31.6534,1.03e-05
2016-06-27 00:00:00,2016-06-27 00:00:00,PRATE,surface,-95.6254,31.6534,2.47e-05
2016-06-27 00:00:00,2016-06-27 00:00:00,PRATE,surface,-94.6879,31.6534,5.43e-05
2016-06-27 00:00:00,2016-06-27 00:00:00,PRATE,surface,-93.7504,31.6534,8.64e-05
2016-06-27 00:00:00,2016-06-27 00:00:00,PRATE,surface,-92.8129,31.6534,8.44e-05
2016-06-27 00:00:00,2016-06-27 00:00:00,PRATE,surface,-107.813,32.5983,1.4e-06
2016-06-27 00:00:00,2016-06-27 00:00:00,PRATE,surface,-106.875,32.5983,5e-07
2016-06-27 00:00:00,2016-06-27 00:00:00,PRATE,surface,-105.938,32.5983,3.9e-06
2016-06-27 00:00:00,2016-06-27 00:00:00,PRATE,surface,-105,32.5983,1.9e-06
2016-06-27 00:00:00,2016-06-27 00:00:00,PRATE,surface,-104.063,32.5983,2.41e-05
2016-06-27 00:00:00,2016-06-27 00:00:00,PRATE,surface,-103.125,32.5983,2.33e-05
2016-06-27 00:00:00,2016-06-27 00:00:00,PRATE,surface,-102.188,32.5983,3.44e-05
2016-06-27 00:00:00,2016-06-27 00:00:00,PRATE,surface,-101.25,32.5983,5.43e-05
2016-06-27 00:00:00,2016-06-27 00:00:00,PRATE,surface,-100.313,32.5983,3.22e-05
2016-06-27 00:00:00,2016-06-27 00:00:00,PRATE,surface,-99.3754,32.5983,2.71e-05
2016-06-27 00:00:00,2016-06-27 00:00:00,PRATE,surface,-98.4379,32.5983,2.31e-05
2016-06-27 00:00:00,2016-06-27 00:00:00,PRATE,surface,-97.5004,32.5983,9.3e-06
2016-06-27 00:00:00,2016-06-27 00:00:00,PRATE,surface,-96.5629,32.5983,7.2e-06
2016-06-27 00:00:00,2016-06-27 00:00:00,PRATE,surface,-95.6254,32.5983,3.28e-05
2016-06-27 00:00:00,2016-06-27 00:00:00,PRATE,surface,-94.6879,32.5983,6.38e-05
2016-06-27 00:00:00,2016-06-27 00:00:00,PRATE,surface,-93.7504,32.5983,5.56e-05
2016-06-27 00:00:00,2016-06-27 00:00:00,PRATE,surface,-92.8129,32.5983,3.17e-05
2016-06-27 00:00:00,2016-06-27 00:00:00,PRATE,surface,-107.813,33.5432,4.7e-06
2016-06-27 00:00:00,2016-06-27 00:00:00,PRATE,surface,-106.875,33.5432,1.1e-06
2016-06-27 00:00:00,2016-06-27 00:00:00,PRATE,surface,-105.938,33.5432,1.3e-06
2016-06-27 00:00:00,2016-06-27 00:00:00,PRATE,surface,-105,33.5432,5e-07
2016-06-27 00:00:00,2016-06-27 00:00:00,PRATE,surface,-104.063,33.5432,5.6e-06
2016-06-27 00:00:00,2016-06-27 00:00:00,PRATE,surface,-103.125,33.5432,1.69e-05
2016-06-27 00:00:00,2016-06-27 00:00:00,PRATE,surface,-102.188,33.5432,1.78e-05
2016-06-27 00:00:00,2016-06-27 00:00:00,PRATE,surface,-101.25,33.5432,5.9e-06
2016-06-27 00:00:00,2016-06-27 00:00:00,PRATE,surface,-100.313,33.5432,2.2e-06
2016-06-27 00:00:00,2016-06-27 00:00:00,PRATE,surface,-99.3754,33.5432,1.6e-05
2016-06-27 00:00:00,2016-06-27 00:00:00,PRATE,surface,-98.4379,33.5432,2.53e-05
2016-06-27 00:00:00,2016-06-27 00:00:00,PRATE,surface,-97.5004,33.5432,1.31e-05
2016-06-27 00:00:00,2016-06-27 00:00:00,PRATE,surface,-96.5629,33.5432,1.77e-05
2016-06-27 00:00:00,2016-06-27 00:00:00,PRATE,surface,-95.6254,33.5432,3.48e-05
2016-06-27 00:00:00,2016-06-27 00:00:00,PRATE,surface,-94.6879,33.5432,2.03e-05
2016-06-27 00:00:00,2016-06-27 00:00:00,PRATE,surface,-93.7504,33.5432,7.9e-06
2016-06-27 00:00:00,2016-06-27 00:00:00,PRATE,surface,-92.8129,33.5432,3e-06
2016-06-27 00:00:00,2016-06-27 00:00:00,PRATE,surface,-107.813,34.4881,6.3e-06
2016-06-27 00:00:00,2016-06-27 00:00:00,PRATE,surface,-106.875,34.4881,9e-07
2016-06-27 00:00:00,2016-06-27 00:00:00,PRATE,surface,-105.938,34.4881,1.3e-06
2016-06-27 00:00:00,2016-06-27 00:00:00,PRATE,surface,-105,34.4881,2.8e-06
2016-06-27 00:00:00,2016-06-27 00:00:00,PRATE,surface,-104.063,34.4881,2e-07
2016-06-27 00:00:00,2016-06-27 00:00:00,PRATE,surface,-103.125,34.4881,0
2016-06-27 00:00:00,2016-06-27 00:00:00,PRATE,surface,-102.188,34.4881,4.3e-06
2016-06-27 00:00:00,2016-06-27 00:00:00,PRATE,surface,-101.25,34.4881,1.4e-06
2016-06-27 00:00:00,2016-06-27 00:00:00,PRATE,surface,-100.313,34.4881,2.2e-06
2016-06-27 00:00:00,2016-06-27 00:00:00,PRATE,surface,-99.3754,34.4881,1.56e-05
2016-06-27 00:00:00,2016-06-27 00:00:00,PRATE,surface,-98.4379,34.4881,2.27e-05
2016-06-27 00:00:00,2016-06-27 00:00:00,PRATE,surface,-97.5004,34.4881,2.26e-05
2016-06-27 00:00:00,2016-06-27 00:00:00,PRATE,surface,-96.5629,34.4881,3.63e-05
2016-06-27 00:00:00,2016-06-27 00:00:00,PRATE,surface,-95.6254,34.4881,4.03e-05
2016-06-27 00:00:00,2016-06-27 00:00:00,PRATE,surface,-94.6879,34.4881,2.07e-05
2016-06-27 00:00:00,2016-06-27 00:00:00,PRATE,surface,-93.7504,34.4881,2.58e-05
2016-06-27 00:00:00,2016-06-27 00:00:00,PRATE,surface,-92.8129,34.4881,2.29e-05
2016-06-27 00:00:00,2016-06-27 00:00:00,PRATE,surface,-107.813,35.4329,8e-07
2016-06-27 00:00:00,2016-06-27 00:00:00,PRATE,surface,-106.875,35.4329,6e-07
2016-06-27 00:00:00,2016-06-27 00:00:00,PRATE,surface,-105.938,35.4329,2e-07
2016-06-27 00:00:00,2016-06-27 00:00:00,PRATE,surface,-105,35.4329,3.3e-06
2016-06-27 00:00:00,2016-06-27 00:00:00,PRATE,surface,-104.063,35.4329,2e-07
2016-06-27 00:00:00,2016-06-27 00:00:00,PRATE,surface,-103.125,35.4329,0
2016-06-27 00:00:00,2016-06-27 00:00:00,PRATE,surface,-102.188,35.4329,2.2e-06
2016-06-27 00:00:00,2016-06-27 00:00:00,PRATE,surface,-101.25,35.4329,2.1e-06
2016-06-27 00:00:00,2016-06-27 00:00:00,PRATE,surface,-100.313,35.4329,6e-07
2016-06-27 00:00:00,2016-06-27 00:00:00,PRATE,surface,-99.3754,35.4329,4.7e-06
2016-06-27 00:00:00,2016-06-27 00:00:00,PRATE,surface,-98.4379,35.4329,1.72e-05
2016-06-27 00:00:00,2016-06-27 00:00:00,PRATE,surface,-97.5004,35.4329,4.08e-05
2016-06-27 00:00:00,2016-06-27 00:00:00,PRATE,surface,-96.5629,35.4329,5.04e-05
2016-06-27 00:00:00,2016-06-27 00:00:00,PRATE,surface,-95.6254,35.4329,4.2e-05
2016-06-27 00:00:00,2016-06-27 00:00:00,PRATE,surface,-94.6879,35.4329,4.68e-05
2016-06-27 00:00:00,2016-06-27 00:00:00,PRATE,surface,-93.7504,35.4329,5.59e-05
2016-06-27 00:00:00,2016-06-27 00:00:00,PRATE,surface,-92.8129,35.4329,4.37e-05
2016-06-27 00:00:00,2016-06-27 00:00:00,PRATE,surface,-107.813,36.3778,5.4e-06
2016-06-27 00:00:00,2016-06-27 00:00:00,PRATE,surface,-106.875,36.3778,6.3e-06
2016-06-27 00:00:00,2016-06-27 00:00:00,PRATE,surface,-105.938,36.3778,8.7e-06
2016-06-27 00:00:00,2016-06-27 00:00:00,PRATE,surface,-105,36.3778,1.07e-05
2016-06-27 00:00:00,2016-06-27 00:00:00,PRATE,surface,-104.063,36.3778,8e-07
2016-06-27 00:00:00,2016-06-27 00:00:00,PRATE,surface,-103.125,36.3778,0
2016-06-27 00:00:00,2016-06-27 00:00:00,PRATE,surface,-102.188,36.3778,0
2016-06-27 00:00:00,2016-06-27 00:00:00,PRATE,surface,-101.25,36.3778,0
2016-06-27 00:00:00,2016-06-27 00:00:00,PRATE,surface,-100.313,36.3778,0
2016-06-27 00:00:00,2016-06-27 00:00:00,PRATE,surface,-99.3754,36.3778,6.6e-06
2016-06-27 00:00:00,2016-06-27 00:00:00,PRATE,surface,-98.4379,36.3778,3.99e-05
2016-06-27 00:00:00,2016-06-27 00:00:00,PRATE,surface,-97.5004,36.3778,5.36e-05
2016-06-27 00:00:00,2016-06-27 00:00:00,PRATE,surface,-96.5629,36.3778,4.29e-05
2016-06-27 00:00:00,2016-06-27 00:00:00,PRATE,surface,-95.6254,36.3778,4.11e-05
2016-06-27 00:00:00,2016-06-27 00:00:00,PRATE,surface,-94.6879,36.3778,4.94e-05
2016-06-27 00:00:00,2016-06-27 00:00:00,PRATE,surface,-93.7504,36.3778,6.36e-05
2016-06-27 00:00:00,2016-06-27 00:00:00,PRATE,surface,-92.8129,36.3778,5.43e-05
