2016-04-01 00:00:00,2016-04-01 00:00:00,TMP,surface,-107.813,25.0393,303.519
2016-04-01 00:00:00,2016-04-01 00:00:00,TMP,surface,-106.875,25.0393,297.634
2016-04-01 00:00:00,2016-04-01 00:00:00,TMP,surface,-105.938,25.0393,292.162
2016-04-01 00:00:00,2016-04-01 00:00:00,TMP,surface,-105,25.0393,290.532
2016-04-01 00:00:00,2016-04-01 00:00:00,TMP,surface,-104.063,25.0393,294.349
2016-04-01 00:00:00,2016-04-01 00:00:00,TMP,surface,-103.125,25.0393,297.386
2016-04-01 00:00:00,2016-04-01 00:00:00,TMP,surface,-102.188,25.0393,296.18
2016-04-01 00:00:00,2016-04-01 00:00:00,TMP,surface,-101.25,25.0393,293.575
2016-04-01 00:00:00,2016-04-01 00:00:00,TMP,surface,-100.313,25.0393,293.948
2016-04-01 00:00:00,2016-04-01 00:00:00,TMP,surface,-99.3754,25.0393,298.391
2016-04-01 00:00:00,2016-04-01 00:00:00,TMP,surface,-98.4379,25.0393,301.85
2016-04-01 00:00:00,2016-04-01 00:00:00,TMP,surface,-97.5004,25.0393,301.66
2016-04-01 00:00:00,2016-04-01 00:00:00,TMP,surface,-96.5629,25.0393,301.634
2016-04-01 00:00:00,2016-04-01 00:00:00,TMP,surface,-95.6254,25.0393,301.752
2016-04-01 00:00:00,2016-04-01 00:00:00,TMP,surface,-94.6879,25.0393,301.812
2016-04-01 00:00:00,2016-04-01 00:00:00,TMP,surface,-93.7504,25.0393,301.66
2016-04-01 00:00:00,2016-04-01 00:00:00,TMP,surface,-92.8129,25.0393,301.5
2016-04-01 00:00:00,2016-04-01 00:00:00,TMP,surface,-107.813,25.9842,300.396
2016-04-01 00:00:00,2016-04-01 00:00:00,TMP,surface,-106.875,25.9842,293.303
2016-04-01 00:00:00,2016-04-01 00:00:00,TMP,surface,-105.938,25.9842,291.215
2016-04-01 00:00:00,2016-04-01 00:00:00,TMP,surface,-105,25.9842,293.18
2016-04-01 00:00:00,2016-04-01 00:00:00,TMP,surface,-104.063,25.9842,298.461
2016-04-01 00:00:00,2016-04-01 00:00:00,TMP,surface,-103.125,25.9842,299.879
2016-04-01 00:00:00,2016-04-01 00:00:00,TMP,surface,-102.188,25.9842,298.564
2016-04-01 00:00:00,2016-04-01 00:00:00,TMP,surface,-101.25,25.9842,296.975
2016-04-01 00:00:00,2016-04-01 00:00:00,TMP,surface,-100.313,25.9842,297.868
2016-04-01 00:00:00,2016-04-01 00:00:00,TMP,surface,-99.3754,25.9842,301.543
2016-04-01 00:00:00,2016-04-01 00:00:00,TMP,surface,-98.4379,25.9842,302.65
2016-04-01 00:00:00,2016-04-01 00:00:00,TMP,surface,-97.5004,25.9842,301.421
2016-04-01 00:00:00,2016-04-01 00:00:00,TMP,surface,-96.5629,25.9842,300.053
2016-04-01 00:00:00,2016-04-01 00:00:00,TMP,surface,-95.6254,25.9842,300.669
2016-04-01 00:00:00,2016-04-01 00:00:00,TMP,surface,-94.6879,25.9842,301.231
2016-04-01 00:00:00,2016-04-01 00:00:00,TMP,surface,-93.7504,25.9842,301.383
2016-04-01 00:00:00,2016-04-01 00:00:00,TMP,surface,-92.8129,25.9842,301.381
2016-04-01 00:00:00,2016-04-01 00:00:00,TMP,surface,-107.813,26.929,295.677
2016-04-01 00:00:00,2016-04-01 00:00:00,TMP,surface,-106.875,26.929,292.074
2016-04-01 00:00:00,2016-04-01 00:00:00,TMP,surface,-105.938,26.929,293.556
2016-04-01 00:00:00,2016-04-01 00:00:00,TMP,surface,-105,26.929,297.746
2016-04-01 00:00:00,2016-04-01 00:00:00,TMP,surface,-104.063,26.929,300.122
2016-04-01 00:00:00,2016-04-01 00:00:00,TMP,surface,-103.125,26.929,299.17
2016-04-01 00:00:00,2016-04-01 00:00:00,TMP,surface,-102.188,26.929,298.079
2016-04-01 00:00:00,2016-04-01 00:00:00,TMP,surface,-101.25,26.929,298.749
2016-04-01 00:00:00,2016-04-01 00:00:00,TMP,surface,-100.313,26.929,301.048
2016-04-01 00:00:00,2016-04-01 00:00:00,TMP,surface,-99.3754,26.929,302.981
2016-04-01 00:00:00,2016-04-01 00:00:00,TMP,surface,-98.4379,26.929,301.874
2016-04-01 00:00:00,2016-04-01 00:00:00,TMP,surface,-97.5004,26.929,298.892
2016-04-01 00:00:00,2016-04-01 00:00:00,TMP,surface,-96.5629,26.929,299.106
2016-04-01 00:00:00,2016-04-01 00:00:00,TMP,surface,-95.6254,26.929,300.37
2016-04-01 00:00:00,2016-04-01 00:00:00,TMP,surface,-94.6879,26.929,301.05
2016-04-01 00:00:00,2016-04-01 00:00:00,TMP,surface,-93.7504,26.929,301.18
2016-04-01 00:00:00,2016-04-01 00:00:00,TMP,surface,-92.8129,26.929,301.128
2016-04-01 00:00:00,2016-04-01 00:00:00,TMP,surface,-107.813,27.8739,293.141
2016-04-01 00:00:00,2016-04-01 00:00:00,TMP,surface,-106.875,27.8739,292.61
2016-04-01 00:00:00,2016-04-01 00:00:00,TMP,surface,-105.938,27.8739,296.127
2016-04-01 00:00:00,2016-04-01 00:00:00,TMP,surface,-105,27.8739,299.906
2016-04-01 00:00:00,2016-04-01 00:00:00,TMP,surface,-104.063,27.8739,299.652
2016-04-01 00:00:00,2016-04-01 00:00:00,TMP,surface,-103.125,27.8739,297.333
2016-04-01 00:00:00,2016-04-01 00:00:00,TMP,surface,-102.188,27.8739,296.645
2016-04-01 00:00:00,2016-04-01 00:00:00,TMP,surface,-101.25,27.8739,298.813
2016-04-01 00:00:00,2016-04-01 00:00:00,TMP,surface,-100.313,27.8739,301.546
2016-04-01 00:00:00,2016-04-01 00:00:00,TMP,surface,-99.3754,27.8739,301.922
2016-04-01 00:00:00,2016-04-01 00:00:00,TMP,surface,-98.4379,27.8739,300.648
2016-04-01 00:00:00,2016-04-01 00:00:00,TMP,surface,-97.5004,27.8739,299.869
2016-04-01 00:00:00,2016-04-01 00:00:00,TMP,surface,-96.5629,27.8739,300.044
2016-04-01 00:00:00,2016-04-01 00:00:00,TMP,surface,-95.6254,27.8739,300.509
2016-04-01 00:00:00,2016-04-01 00:00:00,TMP,surface,-94.6879,27.8739,300.872
2016-04-01 00:00:00,2016-04-01 00:00:00,TMP,surface,-93.7504,27.8739,300.928
2016-04-01 00:00:00,2016-04-01 00:00:00,TMP,surface,-92.8129,27.8739,300.884
2016-04-01 00:00:00,2016-04-01 00:00:00,TMP,surface,-107.813,28.8188,292.888
2016-04-01 00:00:00,2016-04-01 00:00:00,TMP,surface,-106.875,28.8188,293.711
2016-04-01 00:00:00,2016-04-01 00:00:00,TMP,surface,-105.938,28.8188,297.856
2016-04-01 00:00:00,2016-04-01 00:00:00,TMP,surface,-105,28.8188,300.733
2016-04-01 00:00:00,2016-04-01 00:00:00,TMP,surface,-104.063,28.8188,298.805
2016-04-01 00:00:00,2016-04-01 00:00:00,TMP,surface,-103.125,28.8188,296.429
2016-04-01 00:00:00,2016-04-01 00:00:00,TMP,surface,-102.188,28.8188,296.378
2016-04-01 00:00:00,2016-04-01 00:00:00,TMP,surface,-101.25,28.8188,298.709
2016-04-01 00:00:00,2016-04-01 00:00:00,TMP,surface,-100.313,28.8188,300.031
2016-04-01 00:00:00,2016-04-01 00:00:00,TMP,surface,-99.3754,28.8188,299.557
2016-04-01 00:00:00,2016-04-01 00:00:00,TMP,surface,-98.4379,28.8188,298.938
2016-04-01 00:00:00,2016-04-01 00:00:00,TMP,surface,-97.5004,28.8188,298.909
2016-04-01 00:00:00,2016-04-01 00:00:00,TMP,surface,-96.5629,28.8188,299.322
2016-04-01 00:00:00,2016-04-01 00:00:00,TMP,surface,-95.6254,28.8188,299.46
2016-04-01 00:00:00,2016-04-01 00:00:00,TMP,surface,-94.6879,28.8188,299.188
2016-04-01 00:00:00,2016-04-01 00:00:00,TMP,surface,-93.7504,28.8188,299.594
2016-04-01 00:00:00,2016-04-01 00:00:00,TMP,surface,-92.8129,28.8188,299.837
2016-04-01 00:00:00,2016-04-01 00:00:00,TMP,surface,-107.813,29.7637,295.343
2016-04-01 00:00:00,2016-04-01 00:00:00,TMP,surface,-106.875,29.7637,296.544
2016-04-01 00:00:00,2016-04-01 00:00:00,TMP,surface,-105.938,29.7637,299.191
2016-04-01 00:00:00,2016-04-01 00:00:00,TMP,surface,-105,29.7637,299.568
2016-04-01 00:00:00,2016-04-01 00:00:00,TMP,surface,-104.063,29.7637,298.442
2016-04-01 00:00:00,2016-04-01 00:00:00,TMP,surface,-103.125,29.7637,298.052
2016-04-01 00:00:00,2016-04-01 00:00:00,TMP,surface,-102.188,29.7637,298.783
2016-04-01 00:00:00,2016-04-01 00:00:00,TMP,surface,-101.25,29.7637,299.047
2016-04-01 00:00:00,2016-04-01 00:00:00,TMP,surface,-100.313,29.7637,298.322
2016-04-01 00:00:00,2016-04-01 00:00:00,TMP,surface,-99.3754,29.7637,297.336
2016-04-01 00:00:00,2016-04-01 00:00:00,TMP,surface,-98.4379,29.7637,296.999
2016-04-01 00:00:00,2016-04-01 00:00:00,TMP,surface,-97.5004,29.7637,297.506
2016-04-01 00:00:00,2016-04-01 00:00:00,TMP,surface,-96.5629,29.7637,298.167
2016-04-01 00:00:00,2016-04-01 00:00:00,TMP,surface,-95.6254,29.7637,298.604
2016-04-01 00:00:00,2016-04-01 00:00:00,TMP,surface,-94.6879,29.7637,298.69
2016-04-01 00:00:00,2016-04-01 00:00:00,TMP,surface,-93.7504,29.7637,298.573
2016-04-01 00:00:00,2016-04-01 00:00:00,TMP,surface,-92.8129,29.7637,299.687
2016-04-01 00:00:00,2016-04-01 00:00:00,TMP,surface,-107.813,30.7085,299.583
2016-04-01 00:00:00,2016-04-01 00:00:00,TMP,surface,-106.875,30.7085,300.269
2016-04-01 00:00:00,2016-04-01 00:00:00,TMP,surface,-105.938,30.7085,299.89
2016-04-01 00:00:00,2016-04-01 00:00:00,TMP,surface,-105,30.7085,298.781
2016-04-01 00:00:00,2016-04-01 00:00:00,TMP,surface,-104.063,30.7085,297.78
2016-04-01 00:00:00,2016-04-01 00:00:00,TMP,surface,-103.125,30.7085,298.992
2016-04-01 00:00:00,2016-04-01 00:00:00,TMP,surface,-102.188,30.7085,299.498
2016-04-01 00:00:00,2016-04-01 00:00:00,TMP,surface,-101.25,30.7085,298.829
2016-04-01 00:00:00,2016-04-01 00:00:00,TMP,surface,-100.313,30.7085,297.767
2016-04-01 00:00:00,2016-04-01 00:00:00,TMP,surface,-99.3754,30.7085,296.917
2016-04-01 00:00:00,2016-04-01 00:00:00,TMP,surface,-98.4379,30.7085,296.909
2016-04-01 00:00:00,2016-04-01 00:00:00,TMP,surface,-97.5004,30.7085,297.407
2016-04-01 00:00:00,2016-04-01 00:00:00,TMP,surface,-96.5629,30.7085,298.29
2016-04-01 00:00:00,2016-04-01 00:00:00,TMP,surface,-95.6254,30.7085,299.111
2016-04-01 00:00:00,2016-04-01 00:00:00,TMP,surface,-94.6879,30.7085,299.183
2016-04-01 00:00:00,2016-04-01 00:00:00,TMP,surface,-93.7504,30.7085,299.213
2016-04-01 00:00:00,2016-04-01 00:00:00,TMP,surface,-92.8129,30.7085,299.136
2016-04-01 00:00:00,2016-04-01 00:00:00,TMP,surface,-107.813,31.6534,300.581
2016-04-01 00:00:00,2016-04-01 00:00:00,TMP,surface,-106.875,31.6534,300.855
2016-04-01 00:00:00,2016-04-01 00:00:00,TMP,surface,-105.938,31.6534,299.493
2016-04-01 00:00:00,2016-04-01 00:00:00,TMP,surface,-105,31.6534,298.232
2016-04-01 00:00:00,2016-04-01 00:00:00,TMP,surface,-104.063,31.6534,298.488
2016-04-01 00:00:00,2016-04-01 00:00:00,TMP,surface,-103.125,31.6534,299.22
2016-04-01 00:00:00,2016-04-01 00:00:00,TMP,surface,-102.188,31.6534,299.221
2016-04-01 00:00:00,2016-04-01 00:00:00,TMP,surface,-101.25,31.6534,298.183
2016-04-01 00:00:00,2016-04-01 00:00:00,TMP,surface,-100.313,31.6534,297.436
2016-04-01 00:00:00,2016-04-01 00:00:00,TMP,surface,-99.3754,31.6534,297.205
2016-04-01 00:00:00,2016-04-01 00:00:00,TMP,surface,-98.4379,31.6534,297.391
2016-04-01 00:00:00,2016-04-01 00:00:00,TMP,surface,-97.5004,31.6534,297.791
2016-04-01 00:00:00,2016-04-01 00:00:00,TMP,surface,-96.5629,31.6534,298.57
2016-04-01 00:00:00,2016-04-01 00:00:00,TMP,surface,-95.6254,31.6534,299.316
2016-04-01 00:00:00,2016-04-01 00:00:00,TMP,surface,-94.6879,31.6534,299.28
2016-04-01 00:00:00,2016-04-01 00:00:00,TMP,surface,-93.7504,31.6534,299.058
2016-04-01 00:00:00,2016-04-01 00:00:00,TMP,surface,-92.8129,31.6534,299.196
2016-04-01 00:00:00,2016-04-01 00:00:00,TMP,surface,-107.813,32.5983,296.999
2016-04-01 00:00:00,2016-04-01 00:00:00,TMP,surface,-106.875,32.5983,297.576
2016-04-01 00:00:00,2016-04-01 00:00:00,TMP,surface,-105.938,32.5983,297.565
2016-04-01 00:00:00,2016-04-01 00:00:00,TMP,surface,-105,32.5983,297
2016-04-01 00:00:00,2016-04-01 00:00:00,TMP,surface,-104.063,32.5983,298.021
2016-04-01 00:00:00,2016-04-01 00:00:00,TMP,surface,-103.125,32.5983,298.887
2016-04-01 00:00:00,2016-04-01 00:00:00,TMP,surface,-102.188,32.5983,298.223
2016-04-01 00:00:00,2016-04-01 00:00:00,TMP,surface,-101.25,32.5983,297.572
2016-04-01 00:00:00,2016-04-01 00:00:00,TMP,surface,-100.313,32.5983,297.676
2016-04-01 00:00:00,2016-04-01 00:00:00,TMP,surface,-99.3754,32.5983,297.772
2016-04-01 00:00:00,2016-04-01 00:00:00,TMP,surface,-98.4379,32.5983,297.632
2016-04-01 00:00:00,2016-04-01 00:00:00,TMP,surface,-97.5004,32.5983,297.72
2016-04-01 00:00:00,2016-04-01 00:00:00,TMP,surface,-96.5629,32.5983,298.412
2016-04-01 00:00:00,2016-04-01 00:00:00,TMP,surface,-95.6254,32.5983,299.192
2016-04-01 00:00:00,2016-04-01 00:00:00,TMP,surface,-94.6879,32.5983,299.269
2016-04-01 00:00:00,2016-04-01 00:00:00,TMP,surface,-93.7504,32.5983,298.92
2016-04-01 00:00:00,2016-04-01 00:00:00,TMP,surface,-92.8129,32.5983,298.9
2016-04-01 00:00:00,2016-04-01 00:00:00,TMP,surface,-107.813,33.5432,292.304
2016-04-01 00:00:00,2016-04-01 00:00:00,TMP,surface,-106.875,33.5432,293.717
2016-04-01 00:00:00,2016-04-01 00:00:00,TMP,surface,-105.938,33.5432,294.642
2016-04-01 00:00:00,2016-04-01 00:00:00,TMP,surface,-105,33.5432,295.448
2016-04-01 00:00:00,2016-04-01 00:00:00,TMP,surface,-104.063,33.5432,297.205
2016-04-01 00:00:00,2016-04-01 00:00:00,TMP,surface,-103.125,33.5432,297.445
2016-04-01 00:00:00,2016-04-01 00:00:00,TMP,surface,-102.188,33.5432,296.89
2016-04-01 00:00:00,2016-04-01 00:00:00,TMP,surface,-101.25,33.5432,296.485
2016-04-01 00:00:00,2016-04-01 00:00:00,TMP,surface,-100.313,33.5432,297.071
2016-04-01 00:00:00,2016-04-01 00:00:00,TMP,surface,-99.3754,33.5432,297.517
2016-04-01 00:00:00,2016-04-01 00:00:00,TMP,surface,-98.4379,33.5432,297.197
2016-04-01 00:00:00,2016-04-01 00:00:00,TMP,surface,-97.5004,33.5432,296.861
2016-04-01 00:00:00,2016-04-01 00:00:00,TMP,surface,-96.5629,33.5432,297.168
2016-04-01 00:00:00,2016-04-01 00:00:00,TMP,surface,-95.6254,33.5432,297.964
2016-04-01 00:00:00,2016-04-01 00:00:00,TMP,surface,-94.6879,33.5432,298.466
2016-04-01 00:00:00,2016-04-01 00:00:00,TMP,surface,-93.7504,33.5432,298.22
2016-04-01 00:00:00,2016-04-01 00:00:00,TMP,surface,-92.8129,33.5432,298.269
2016-04-01 00:00:00,2016-04-01 00:00:00,TMP,surface,-107.813,34.4881,291.228
2016-04-01 00:00:00,2016-04-01 00:00:00,TMP,surface,-106.875,34.4881,292.962
2016-04-01 00:00:00,2016-04-01 00:00:00,TMP,surface,-105.938,34.4881,293.789
2016-04-01 00:00:00,2016-04-01 00:00:00,TMP,surface,-105,34.4881,295.068
2016-04-01 00:00:00,2016-04-01 00:00:00,TMP,surface,-104.063,34.4881,295.898
2016-04-01 00:00:00,2016-04-01 00:00:00,TMP,surface,-103.125,34.4881,295.986
2016-04-01 00:00:00,2016-04-01 00:00:00,TMP,surface,-102.188,34.4881,295.807
2016-04-01 00:00:00,2016-04-01 00:00:00,TMP,surface,-101.25,34.4881,295.573
2016-04-01 00:00:00,2016-04-01 00:00:00,TMP,surface,-100.313,34.4881,295.754
2016-04-01 00:00:00,2016-04-01 00:00:00,TMP,surface,-99.3754,34.4881,295.975
2016-04-01 00:00:00,2016-04-01 00:00:00,TMP,surface,-98.4379,34.4881,295.812
2016-04-01 00:00:00,2016-04-01 00:00:00,TMP,surface,-97.5004,34.4881,295.615
2016-04-01 00:00:00,2016-04-01 00:00:00,TMP,surface,-96.5629,34.4881,296.175
2016-04-01 00:00:00,2016-04-01 00:00:00,TMP,surface,-95.6254,34.4881,297.144
2016-04-01 00:00:00,2016-04-01 00:00:00,TMP,surface,-94.6879,34.4881,297.418
2016-04-01 00:00:00,2016-04-01 00:00:00,TMP,surface,-93.7504,34.4881,297.197
2016-04-01 00:00:00,2016-04-01 00:00:00,TMP,surface,-92.8129,34.4881,297.394
2016-04-01 00:00:00,2016-04-01 00:00:00,TMP,surface,-107.813,35.4329,292.063
2016-04-01 00:00:00,2016-04-01 00:00:00,TMP,surface,-106.875,35.4329,292.38
2016-04-01 00:00:00,2016-04-01 00:00:00,TMP,surface,-105.938,35.4329,292.1
2016-04-01 00:00:00,2016-04-01 00:00:00,TMP,surface,-105,35.4329,292.604
2016-04-01 00:00:00,2016-04-01 00:00:00,TMP,surface,-104.063,35.4329,294.533
2016-04-01 00:00:00,2016-04-01 00:00:00,TMP,surface,-103.125,35.4329,295.28
2016-04-01 00:00:00,2016-04-01 00:00:00,TMP,surface,-102.188,35.4329,295.207
2016-04-01 00:00:00,2016-04-01 00:00:00,TMP,surface,-101.25,35.4329,295.012
2016-04-01 00:00:00,2016-04-01 00:00:00,TMP,surface,-100.313,35.4329,294.727
2016-04-01 00:00:00,2016-04-01 00:00:00,TMP,surface,-99.3754,35.4329,294.776
2016-04-01 00:00:00,2016-04-01 00:00:00,TMP,surface,-98.4379,35.4329,294.868
2016-04-01 00:00:00,2016-04-01 00:00:00,TMP,surface,-97.5004,35.4329,294.876
2016-04-01 00:00:00,2016-04-01 00:00:00,TMP,surface,-96.5629,35.4329,295.056
2016-04-01 00:00:00,2016-04-01 00:00:00,TMP,surface,-95.6254,35.4329,295.589
2016-04-01 00:00:00,2016-04-01 00:00:00,TMP,surface,-94.6879,35.4329,296.082
2016-04-01 00:00:00,2016-04-01 00:00:00,TMP,surface,-93.7504,35.4329,296.01
2016-04-01 00:00:00,2016-04-01 00:00:00,TMP,surface,-92.8129,35.4329,296.037
2016-04-01 00:00:00,2016-04-01 00:00:00,TMP,surface,-107.813,36.3778,291.984
2016-04-01 00:00:00,2016-04-01 00:00:00,TMP,surface,-106.875,36.3778,289.17
2016-04-01 00:00:00,2016-04-01 00:00:00,TMP,surface,-105.938,36.3778,289.005
2016-04-01 00:00:00,2016-04-01 00:00:00,TMP,surface,-105,36.3778,289.738
2016-04-01 00:00:00,2016-04-01 00:00:00,TMP,surface,-104.063,36.3778,292.109
2016-04-01 00:00:00,2016-04-01 00:00:00,TMP,surface,-103.125,36.3778,293.317
2016-04-01 00:00:00,2016-04-01 00:00:00,TMP,surface,-102.188,36.3778,294.052
2016-04-01 00:00:00,2016-04-01 00:00:00,TMP,surface,-101.25,36.3778,294.333
2016-04-01 00:00:00,2016-04-01 00:00:00,TMP,surface,-100.313,36.3778,294.348
2016-04-01 00:00:00,2016-04-01 00:00:00,TMP,surface,-99.3754,36.3778,294.434
2016-04-01 00:00:00,2016-04-01 00:00:00,TMP,surface,-98.4379,36.3778,294.487
2016-04-01 00:00:00,2016-04-01 00:00:00,TMP,surface,-97.5004,36.3778,294.452
2016-04-01 00:00:00,2016-04-01 00:00:00,TMP,surface,-96.5629,36.3778,294.492
2016-04-01 00:00:00,2016-04-01 00:00:00,TMP,surface,-95.6254,36.3778,294.781
2016-04-01 00:00:00,2016-04-01 00:00:00,TMP,surface,-94.6879,36.3778,295.064
2016-04-01 00:00:00,2016-04-01 00:00:00,TMP,surface,-93.7504,36.3778,294.912
2016-04-01 00:00:00,2016-04-01 00:00:00,TMP,surface,-92.8129,36.3778,294.828
2016-04-01 00:00:00,2016-04-01 00:00:00,PRATE,surface,-107.813,25.0393,0
2016-04-01 00:00:00,2016-04-01 00:00:00,PRATE,surface,-106.875,25.0393,2.87e-05
2016-04-01 00:00:00,2016-04-01 00:00:00,PRATE,surface,-105.938,25.0393,0.0001199
2016-04-01 00:00:00,2016-04-01 00:00:00,PRATE,surface,-105,25.0393,0.000106
2016-04-01 00:00:00,2016-04-01 00:00:00,PRATE,surface,-104.063,25.0393,4.68e-05
2016-04-01 00:00:00,2016-04-01 00:00:00,PRATE,surface,-103.125,25.0393,1.76e-05
2016-04-01 00:00:00,2016-04-01 00:00:00,PRATE,surface,-102.188,25.0393,3.29e-05
2016-04-01 00:00:00,2016-04-01 00:00:00,PRATE,surface,-101.25,25.0393,6.73e-05
2016-04-01 00:00:00,2016-04-01 00:00:00,PRATE,surface,-100.313,25.0393,8.72e-05
2016-04-01 00:00:00,2016-04-01 00:00:00,PRATE,surface,-99.3754,25.0393,3.08e-05
2016-04-01 00:00:00,2016-04-01 00:00:00,PRATE,surface,-98.4379,25.0393,1.39e-05
2016-04-01 00:00:00,2016-04-01 00:00:00,PRATE,surface,-97.5004,25.0393,1.69e-05
2016-04-01 00:00:00,2016-04-01 00:00:00,PRATE,surface,-96.5629,25.0393,1.11e-05
2016-04-01 00:00:00,2016-04-01 00:00:00,PRATE,surface,-95.6254,25.0393,7.6e-06
2016-04-01 00:00:00,2016-04-01 00:00:00,PRATE,surface,-94.6879,25.0393,9.5e-06
2016-04-01 00:00:00,2016-04-01 00:00:00,PRATE,surface,-93.7504,25.0393,2.48e-05
2016-04-01 00:00:00,2016-04-01 00:00:00,PRATE,surface,-92.8129,25.0393,3.76e-05
2016-04-01 00:00:00,2016-04-01 00:00:00,PRATE,surface,-107.813,25.9842,2.1e-05
2016-04-01 00:00:00,2016-04-01 00:00:00,PRATE,surface,-106.875,25.9842,7.54e-05
2016-04-01 00:00:00,2016-04-01 00:00:00,PRATE,surface,-105.938,25.9842,9.75e-05
2016-04-01 00:00:00,2016-04-01 00:00:00,PRATE,surface,-105,25.9842,7.25e-05
2016-04-01 00:00:00,2016-04-01 00:00:00,PRATE,surface,-104.063,25.9842,1.43e-05
2016-04-01 00:00:00,2016-04-01 00:00:00,PRATE,surface,-103.125,25.9842,1.47e-05
2016-04-01 00:00:00,2016-04-01 00:00:00,PRATE,surface,-102.188,25.9842,1.63e-05
2016-04-01 00:00:00,2016-04-01 00:00:00,PRATE,surface,-101.25,25.9842,3.6e-05
2016-04-01 00:00:00,2016-04-01 00:00:00,PRATE,surface,-100.313,25.9842,4.83e-05
2016-04-01 00:00:00,2016-04-01 00:00:00,PRATE,surface,-99.3754,25.9842,1.5e-05
2016-04-01 00:00:00,2016-04-01 00:00:00,PRATE,surface,-98.4379,25.9842,1.86e-05
2016-04-01 00:00:00,2016-04-01 00:00:00,PRATE,surface,-97.5004,25.9842,2.85e-05
2016-04-01 00:00:00,2016-04-01 00:00:00,PRATE,surface,-96.5629,25.9842,1.07e-05
2016-04-01 00:00:00,2016-04-01 00:00:00,PRATE,surface,-95.6254,25.9842,8.3e-06
2016-04-01 00:00:00,2016-04-01 00:00:00,PRATE,surface,-94.6879,25.9842,1.96e-05
2016-04-01 00:00:00,2016-04-01 00:00:00,PRATE,surface,-93.7504,25.9842,2.3e-05
2016-04-01 00:00:00,2016-04-01 00:00:00,PRATE,surface,-92.8129,25.9842,2e-05
2016-04-01 00:00:00,2016-04-01 00:00:00,PRATE,surface,-107.813,26.929,3.47e-05
2016-04-01 00:00:00,2016-04-01 00:00:00,PRATE,surface,-106.875,26.929,6.44e-05
2016-04-01 00:00:00,2016-04-01 00:00:00,PRATE,surface,-105.938,26.929,5.21e-05
2016-04-01 00:00:00,2016-04-01 00:00:00,PRATE,surface,-105,26.929,1.4e-05
2016-04-01 00:00:00,2016-04-01 00:00:00,PRATE,surface,-104.063,26.929,1.12e-05
2016-04-01 00:00:00,2016-04-01 00:00:00,PRATE,surface,-103.125,26.929,2.54e-05
2016-04-01 00:00:00,2016-04-01 00:00:00,PRATE,surface,-102.188,26.929,2.34e-05
2016-04-01 00:00:00,2016-04-01 00:00:00,PRATE,surface,-101.25,26.929,4.5e-05
2016-04-01 00:00:00,2016-04-01 00:00:00,PRATE,surface,-100.313,26.929,3.62e-05
2016-04-01 00:00:00,2016-04-01 00:00:00,PRATE,surface,-99.3754,26.929,2.88e-05
2016-04-01 00:00:00,2016-04-01 00:00:00,PRATE,surface,-98.4379,26.929,3.62e-05
2016-04-01 00:00:00,2016-04-01 00:00:00,PRATE,surface,-97.5004,26.929,2.32e-05
2016-04-01 00:00:00,2016-04-01 00:00:00,PRATE,surface,-96.5629,26.929,9.9e-06
2016-04-01 00:00:00,2016-04-01 00:00:00,PRATE,surface,-95.6254,26.929,1.49e-05
2016-04-01 00:00:00,2016-04-01 00:00:00,PRATE,surface,-94.6879,26.929,1.35e-05
2016-04-01 00:00:00,2016-04-01 00:00:00,PRATE,surface,-93.7504,26.929,1.33e-05
2016-04-01 00:00:00,2016-04-01 00:00:00,PRATE,surface,-92.8129,26.929,1.78e-05
2016-04-01 00:00:00,2016-04-01 00:00:00,PRATE,surface,-107.813,27.8739,5.2e-05
2016-04-01 00:00:00,2016-04-01 00:00:00,PRATE,surface,-106.875,27.8739,4.23e-05
2016-04-01 00:00:00,2016-04-01 00:00:00,PRATE,surface,-105.938,27.8739,1.4e-05
2016-04-01 00:00:00,2016-04-01 00:00:00,PRATE,surface,-105,27.8739,2.8e-06
2016-04-01 00:00:00,2016-04-01 00:00:00,PRATE,surface,-104.063,27.8739,2.01e-05
2016-04-01 00:00:00,2016-04-01 00:00:00,PRATE,surface,-103.125,27.8739,4.32e-05
2016-04-01 00:00:00,2016-04-01 00:00:00,PRATE,surface,-102.188,27.8739,6.72e-05
2016-04-01 00:00:00,2016-04-01 00:00:00,PRATE,surface,-101.25,27.8739,4.91e-05
2016-04-01 00:00:00,2016-04-01 00:00:00,PRATE,surface,-100.313,27.8739,2.78e-05
2016-04-01 00:00:00,2016-04-01 00:00:00,PRATE,surface,-99.3754,27.8739,2.9e-05
2016-04-01 00:00:00,2016-04-01 00:00:00,PRATE,surface,-98.4379,27.8739,3.69e-05
2016-04-01 00:00:00,2016-04-01 00:00:00,PRATE,surface,-97.5004,27.8739,3.16e-05
2016-04-01 00:00:00,2016-04-01 00:00:00,PRATE,surface,-96.5629,27.8739,1.79e-05
2016-04-01 00:00:00,2016-04-01 00:00:00,PRATE,surface,-95.6254,27.8739,1.3e-05
2016-04-01 00:00:00,2016-04-01 00:00:00,PRATE,surface,-94.6879,27.8739,1.68e-05
2016-04-01 00:00:00,2016-04-01 00:00:00,PRATE,surface,-93.7504,27.8739,1.76e-05
2016-04-01 00:00:00,2016-04-01 00:00:00,PRATE,surface,-92.8129,27.8739,2.46e-05
2016-04-01 00:00:00,2016-04-01 00:00:00,PRATE,surface,-107.813,28.8188,4.93e-05
2016-04-01 00:00:00,2016-04-01 00:00:00,PRATE,surface,-106.875,28.8188,3.77e-05
2016-04-01 00:00:00,2016-04-01 00:00:00,PRATE,surface,-105.938,28.8188,1.38e-05
2016-04-01 00:00:00,2016-04-01 00:00:00,PRATE,surface,-105,28.8188,7.9e-06
2016-04-01 00:00:00,2016-04-01 00:00:00,PRATE,surface,-104.063,28.8188,2.91e-05
2016-04-01 00:00:00,2016-04-01 00:00:00,PRATE,surface,-103.125,28.8188,5.96e-05
2016-04-01 00:00:00,2016-04-01 00:00:00,PRATE,surface,-102.188,28.8188,4.43e-05
2016-04-01 00:00:00,2016-04-01 00:00:00,PRATE,surface,-101.25,28.8188,3.95e-05
2016-04-01 00:00:00,2016-04-01 00:00:00,PRATE,surface,-100.313,28.8188,3.38e-05
2016-04-01 00:00:00,2016-04-01 00:00:00,PRATE,surface,-99.3754,28.8188,4.41e-05
2016-04-01 00:00:00,2016-04-01 00:00:00,PRATE,surface,-98.4379,28.8188,5.07e-05
2016-04-01 00:00:00,2016-04-01 00:00:00,PRATE,surface,-97.5004,28.8188,4.44e-05
2016-04-01 00:00:00,2016-04-01 00:00:00,PRATE,surface,-96.5629,28.8188,3.22e-05
2016-04-01 00:00:00,2016-04-01 00:00:00,PRATE,surface,-95.6254,28.8188,2.31e-05
2016-04-01 00:00:00,2016-04-01 00:00:00,PRATE,surface,-94.6879,28.8188,2.59e-05
2016-04-01 00:00:00,2016-04-01 00:00:00,PRATE,surface,-93.7504,28.8188,3.12e-05
2016-04-01 00:00:00,2016-04-01 00:00:00,PRATE,surface,-92.8129,28.8188,2.45e-05
2016-04-01 00:00:00,2016-04-01 00:00:00,PRATE,surface,-107.813,29.7637,1.72e-05
2016-04-01 00:00:00,2016-04-01 00:00:00,PRATE,surface,-106.875,29.7637,1.85e-05
2016-04-01 00:00:00,2016-04-01 00:00:00,PRATE,surface,-105.938,29.7637,1.65e-05
2016-04-01 00:00:00,2016-04-01 00:00:00,PRATE,surface,-105,29.7637,1.81e-05
2016-04-01 00:00:00,2016-04-01 00:00:00,PRATE,surface,-104.063,29.7637,3.14e-05
2016-04-01 00:00:00,2016-04-01 00:00:00,PRATE,surface,-103.125,29.7637,2.66e-05
2016-04-01 00:00:00,2016-04-01 00:00:00,PRATE,surface,-102.188,29.7637,1.83e-05
2016-04-01 00:00:00,2016-04-01 00:00:00,PRATE,surface,-101.25,29.7637,3.19e-05
2016-04-01 00:00:00,2016-04-01 00:00:00,PRATE,surface,-100.313,29.7637,4.19e-05
2016-04-01 00:00:00,2016-04-01 00:00:00,PRATE,surface,-99.3754,29.7637,4.48e-05
2016-04-01 00:00:00,2016-04-01 00:00:00,PRATE,surface,-98.4379,29.7637,4.82e-05
2016-04-01 00:00:00,2016-04-01 00:00:00,PRATE,surface,-97.5004,29.7637,4.32e-05
2016-04-01 00:00:00,2016-04-01 00:00:00,PRATE,surface,-96.5629,29.7637,3.61e-05
2016-04-01 00:00:00,2016-04-01 00:00:00,PRATE,surface,-95.6254,29.7637,3.61e-05
2016-04-01 00:00:00,2016-04-01 00:00:00,PRATE,surface,-94.6879,29.7637,3.39e-05
2016-04-01 00:00:00,2016-04-01 00:00:00,PRATE,surface,-93.7504,29.7637,2.9e-05
2016-04-01 00:00:00,2016-04-01 00:00:00,PRATE,surface,-92.8129,29.7637,2.74e-05
2016-04-01 00:00:00,2016-04-01 00:00:00,PRATE,surface,-107.813,30.7085,5.5e-06
2016-04-01 00:00:00,2016-04-01 00:00:00,PRATE,surface,-106.875,30.7085,8e-06
2016-04-01 00:00:00,2016-04-01 00:00:00,PRATE,surface,-105.938,30.7085,1.5e-05
2016-04-01 00:00:00,2016-04-01 00:00:00,PRATE,surface,-105,30.7085,3.45e-05
2016-04-01 00:00:00,2016-04-01 00:00:00,PRATE,surface,-104.063,30.7085,4e-05
2016-04-01 00:00:00,2016-04-01 00:00:00,PRATE,surface,-103.125,30.7085,2.32e-05
2016-04-01 00:00:00,2016-04-01 00:00:00,PRATE,surface,-102.188,30.7085,1.93e-05
2016-04-01 00:00:00,2016-04-01 00:00:00,PRATE,surface,-101.25,30.7085,2.89e-05
2016-04-01 00:00:00,2016-04-01 00:00:00,PRATE,surface,-100.313,30.7085,3.88e-05
2016-04-01 00:00:00,2016-04-01 00:00:00,PRATE,surface,-99.3754,30.7085,4.01e-05
2016-04-01 00:00:00,2016-04-01 00:00:00,PRATE,surface,-98.4379,30.7085,3.42e-05
2016-04-01 00:00:00,2016-04-01 00:00:00,PRATE,surface,-97.5004,30.7085,3.16e-05
2016-04-01 00:00:00,2016-04-01 00:00:00,PRATE,surface,-96.5629,30.7085,3.15e-05
2016-04-01 00:00:00,2016-04-01 00:00:00,PRATE,surface,-95.6254,30.7085,2.91e-05
2016-04-01 00:00:00,2016-04-01 00:00:00,PRATE,surface,-94.6879,30.7085,2.87e-05
2016-04-01 00:00:00,2016-04-01 00:00:00,PRATE,surface,-93.7504,30.7085,3.21e-05
2016-04-01 00:00:00,2016-04-01 00:00:00,PRATE,surface,-92.8129,30.7085,3.71e-05
2016-04-01 00:00:00,2016-04-01 00:00:00,PRATE,surface,-107.813,31.6534,6.2e-06
2016-04-01 00:00:00,2016-04-01 00:00:00,PRATE,surface,-106.875,31.6534,8.9e-06
2016-04-01 00:00:00,2016-04-01 00:00:00,PRATE,surface,-105.938,31.6534,2.16e-05
2016-04-01 00:00:00,2016-04-01 00:00:00,PRATE,surface,-105,31.6534,3.6e-05
2016-04-01 00:00:00,2016-04-01 00:00:00,PRATE,surface,-104.063,31.6534,3.38e-05
2016-04-01 00:00:00,2016-04-01 00:00:00,PRATE,surface,-103.125,31.6534,2.34e-05
2016-04-01 00:00:00,2016-04-01 00:00:00,PRATE,surface,-102.188,31.6534,2.37e-05
2016-04-01 00:00:00,2016-04-01 00:00:00,PRATE,surface,-101.25,31.6534,3.74e-05
2016-04-01 00:00:00,2016-04-01 00:00:00,PRATE,surface,-100.313,31.6534,4.47e-05
2016-04-01 00:00:00,2016-04-01 00:00:00,PRATE,surface,-99.3754,31.6534,4.27e-05
2016-04-01 00:00:00,2016-04-01 00:00:00,PRATE,surface,-98.4379,31.6534,3.01e-05
2016-04-01 00:00:00,2016-04-01 00:00:00,PRATE,surface,-97.5004,31.6534,2.16e-05
2016-04-01 00:00:00,2016-04-01 00:00:00,PRATE,surface,-96.5629,31.6534,2.31e-05
2016-04-01 00:00:00,2016-04-01 00:00:00,PRATE,surface,-95.6254,31.6534,2.28e-05
2016-04-01 00:00:00,2016-04-01 00:00:00,PRATE,surface,-94.6879,31.6534,2.08e-05
2016-04-01 00:00:00,2016-04-01 00:00:00,PRATE,surface,-93.7504,31.6534,2.67e-05
2016-04-01 00:00:00,2016-04-01 00:00:00,PRATE,surface,-92.8129,31.6534,2.94e-05
2016-04-01 00:00:00,2016-04-01 00:00:00,PRATE,surface,-107.813,32.5983,1.41e-05
2016-04-01 00:00:00,2016-04-01 00:00:00,PRATE,surface,-106.875,32.5983,1.57e-05
2016-04-01 00:00:00,2016-04-01 00:00:00,PRATE,surface,-105.938,32.5983,2.67e-05
2016-04-01 00:00:00,2016-04-01 00:00:00,PRATE,surface,-105,32.5983,3.42e-05
2016-04-01 00:00:00,2016-04-01 00:00:00,PRATE,surface,-104.063,32.5983,2.63e-05
2016-04-01 00:00:00,2016-04-01 00:00:00,PRATE,surface,-103.125,32.5983,2.23e-05
2016-04-01 00:00:00,2016-04-01 00:00:00,PRATE,surface,-102.188,32.5983,4.36e-05
2016-04-01 00:00:00,2016-04-01 00:00:00,PRATE,surface,-101.25,32.5983,5.79e-05
2016-04-01 00:00:00,2016-04-01 00:00:00,PRATE,surface,-100.313,32.5983,4.97e-05
2016-04-01 00:00:00,2016-04-01 00:00:00,PRATE,surface,-99.3754,32.5983,4.44e-05
2016-04-01 00:00:00,2016-04-01 00:00:00,PRATE,surface,-98.4379,32.5983,3.8e-05
2016-04-01 00:00:00,2016-04-01 00:00:00,PRATE,surface,-97.5004,32.5983,2.99e-05
2016-04-01 00:00:00,2016-04-01 00:00:00,PRATE,surface,-96.5629,32.5983,2.47e-05
2016-04-01 00:00:00,2016-04-01 00:00:00,PRATE,surface,-95.6254,32.5983,2.29e-05
2016-04-01 00:00:00,2016-04-01 00:00:00,PRATE,surface,-94.6879,32.5983,2.58e-05
2016-04-01 00:00:00,2016-04-01 00:00:00,PRATE,surface,-93.7504,32.5983,3.1e-05
2016-04-01 00:00:00,2016-04-01 00:00:00,PRATE,surface,-92.8129,32.5983,3.44e-05
2016-04-01 00:00:00,2016-04-01 00:00:00,PRATE,surface,-107.813,33.5432,6.44e-05
2016-04-01 00:00:00,2016-04-01 00:00:00,PRATE,surface,-106.875,33.5432,6.09e-05
2016-04-01 00:00:00,2016-04-01 00:00:00,PRATE,surface,-105.938,33.5432,4.65e-05
2016-04-01 00:00:00,2016-04-01 00:00:00,PRATE,surface,-105,33.5432,4.19e-05
2016-04-01 00:00:00,2016-04-01 00:00:00,PRATE,surface,-104.063,33.5432,2.85e-05
2016-04-01 00:00:00,2016-04-01 00:00:00,PRATE,surface,-103.125,33.5432,4.64e-05
2016-04-01 00:00:00,2016-04-01 00:00:00,PRATE,surface,-102.188,33.5432,8.69e-05
2016-04-01 00:00:00,2016-04-01 00:00:00,PRATE,surface,-101.25,33.5432,0.0001024
2016-04-01 00:00:00,2016-04-01 00:00:00,PRATE,surface,-100.313,33.5432,8.23e-05
2016-04-01 00:00:00,2016-04-01 00:00:00,PRATE,surface,-99.3754,33.5432,5.73e-05
2016-04-01 00:00:00,2016-04-01 00:00:00,PRATE,surface,-98.4379,33.5432,4.92e-05
2016-04-01 00:00:00,2016-04-01 00:00:00,PRATE,surface,-97.5004,33.5432,4.79e-05
2016-04-01 00:00:00,2016-04-01 00:00:00,PRATE,surface,-96.5629,33.5432,3.54e-05
2016-04-01 00:00:00,2016-04-01 00:00:00,PRATE,surface,-95.6254,33.5432,2.24e-05
2016-04-01 00:00:00,2016-04-01 00:00:00,PRATE,surface,-94.6879,33.5432,2.77e-05
2016-04-01 00:00:00,2016-04-01 00:00:00,PRATE,surface,-93.7504,33.5432,3.73e-05
2016-04-01 00:00:00,2016-04-01 00:00:00,PRATE,surface,-92.8129,33.5432,3.58e-05
2016-04-01 00:00:00,2016-04-01 00:00:00,PRATE,surface,-107.813,34.4881,4.29e-05
2016-04-01 00:00:00,2016-04-01 00:00:00,PRATE,surface,-106.875,34.4881,2.88e-05
2016-04-01 00:00:00,2016-04-01 00:00:00,PRATE,surface,-105.938,34.4881,2.81e-05
2016-04-01 00:00:00,2016-04-01 00:00:00,PRATE,surface,-105,34.4881,4.56e-05
2016-04-01 00:00:00,2016-04-01 00:00:00,PRATE,surface,-104.063,34.4881,5.74e-05
2016-04-01 00:00:00,2016-04-01 00:00:00,PRATE,surface,-103.125,34.4881,5.62e-05
2016-04-01 00:00:00,2016-04-01 00:00:00,PRATE,surface,-102.188,34.4881,8.19e-05
2016-04-01 00:00:00,2016-04-01 00:00:00,PRATE,surface,-101.25,34.4881,0.0001303
2016-04-01 00:00:00,2016-04-01 00:00:00,PRATE,surface,-100.313,34.4881,0.0001578
2016-04-01 00:00:00,2016-04-01 00:00:00,PRATE,surface,-99.3754,34.4881,0.0001447
2016-04-01 00:00:00,2016-04-01 00:00:00,PRATE,surface,-98.4379,34.4881,0.0001022
2016-04-01 00:00:00,2016-04-01 00:00:00,PRATE,surface,-97.5004,34.4881,7.59e-05
2016-04-01 00:00:00,2016-04-01 00:00:00,PRATE,surface,-96.5629,34.4881,6.21e-05
2016-04-01 00:00:00,2016-04-01 00:00:00,PRATE,surface,-95.6254,34.4881,4.5e-05
2016-04-01 00:00:00,2016-04-01 00:00:00,PRATE,surface,-94.6879,34.4881,4.59e-05
2016-04-01 00:00:00,2016-04-01 00:00:00,PRATE,surface,-93.7504,34.4881,5.82e-05
2016-04-01 00:00:00,2016-04-01 00:00:00,PRATE,surface,-92.8129,34.4881,6.05e-05
2016-04-01 00:00:00,2016-04-01 00:00:00,PRATE,surface,-107.813,35.4329,1.64e-05
2016-04-01 00:00:00,2016-04-01 00:00:00,PRATE,surface,-106.875,35.4329,1.55e-05
2016-04-01 00:00:00,2016-04-01 00:00:00,PRATE,surface,-105.938,35.4329,2e-05
2016-04-01 00:00:00,2016-04-01 00:00:00,PRATE,surface,-105,35.4329,3.77e-05
2016-04-01 00:00:00,2016-04-01 00:00:00,PRATE,surface,-104.063,35.4329,5.81e-05
2016-04-01 00:00:00,2016-04-01 00:00:00,PRATE,surface,-103.125,35.4329,5.51e-05
2016-04-01 00:00:00,2016-04-01 00:00:00,PRATE,surface,-102.188,35.4329,7.22e-05
2016-04-01 00:00:00,2016-04-01 00:00:00,PRATE,surface,-101.25,35.4329,0.0001145
2016-04-01 00:00:00,2016-04-01 00:00:00,PRATE,surface,-100.313,35.4329,0.000153
2016-04-01 00:00:00,2016-04-01 00:00:00,PRATE,surface,-99.3754,35.4329,0.0001714
2016-04-01 00:00:00,2016-04-01 00:00:00,PRATE,surface,-98.4379,35.4329,0.000162
2016-04-01 00:00:00,2016-04-01 00:00:00,PRATE,surface,-97.5004,35.4329,0.0001374
2016-04-01 00:00:00,2016-04-01 00:00:00,PRATE,surface,-96.5629,35.4329,0.0001105
2016-04-01 00:00:00,2016-04-01 00:00:00,PRATE,surface,-95.6254,35.4329,8.83e-05
2016-04-01 00:00:00,2016-04-01 00:00:00,PRATE,surface,-94.6879,35.4329,8.01e-05
2016-04-01 00:00:00,2016-04-01 00:00:00,PRATE,surface,-93.7504,35.4329,8.22e-05
2016-04-01 00:00:00,2016-04-01 00:00:00,PRATE,surface,-92.8129,35.4329,7.47e-05
2016-04-01 00:00:00,2016-04-01 00:00:00,PRATE,surface,-107.813,36.3778,9e-06
2016-04-01 00:00:00,2016-04-01 00:00:00,PRATE,surface,-106.875,36.3778,2.99e-05
2016-04-01 00:00:00,2016-04-01 00:00:00,PRATE,surface,-105.938,36.3778,4.74e-05
2016-04-01 00:00:00,2016-04-01 00:00:00,PRATE,surface,-105,36.3778,6.12e-05
2016-04-01 00:00:00,2016-04-01 00:00:00,PRATE,surface,-104.063,36.3778,7.35e-05
2016-04-01 00:00:00,2016-04-01 00:00:00,PRATE,surface,-103.125,36.3778,7.39e-05
2016-04-01 00:00:00,2016-04-01 00:00:00,PRATE,surface,-102.188,36.3778,8.17e-05
2016-04-01 00:00:00,2016-04-01 00:00:00,PRATE,surface,-101.25,36.3778,0.0001057
2016-04-01 00:00:00,2016-04-01 00:00:00,PRATE,surface,-100.313,36.3778,0.0001273
2016-04-01 00:00:00,2016-04-01 00:00:00,PRATE,surface,-99.3754,36.3778,0.0001367
2016-04-01 00:00:00,2016-04-01 00:00:00,PRATE,surface,-98.4379,36.3778,0.0001393
2016-04-01 00:00:00,2016-04-01 00:00:00,PRATE,surface,-97.5004,36.3778,0.0001376
2016-04-01 00:00:00,2016-04-01 00:00:00,PRATE,surface,-96.5629,36.3778,0.0001271
2016-04-01 00:00:00,2016-04-01 00:00:00,PRATE,surface,-95.6254,36.3778,0.0001097
2016-04-01 00:00:00,2016-04-01 00:00:00,PRATE,surface,-94.6879,36.3778,9.53e-05
2016-04-01 00:00:00,2016-04-01 00:00:00,PRATE,surface,-93.7504,36.3778,8.77e-05
2016-04-01 00:00:00,2016-04-01 00:00:00,PRATE,surface,-92.8129,36.3778,8.47e-05
