2011-12-31 00:00:00,2011-12-31 00:00:00,TMP,surface,-107.813,25.0393,296.638
2011-12-31 00:00:00,2011-12-31 00:00:00,TMP,surface,-106.875,25.0393,291.757
2011-12-31 00:00:00,2011-12-31 00:00:00,TMP,surface,-105.938,25.0393,286.701
2011-12-31 00:00:00,2011-12-31 00:00:00,TMP,surface,-105,25.0393,288.189
2011-12-31 00:00:00,2011-12-31 00:00:00,TMP,surface,-104.063,25.0393,293.237
2011-12-31 00:00:00,2011-12-31 00:00:00,TMP,surface,-103.125,25.0393,295.202
2011-12-31 00:00:00,2011-12-31 00:00:00,TMP,surface,-102.188,25.0393,294.483
2011-12-31 00:00:00,2011-12-31 00:00:00,TMP,surface,-101.25,25.0393,292.014
2011-12-31 00:00:00,2011-12-31 00:00:00,TMP,surface,-100.313,25.0393,291.802
2011-12-31 00:00:00,2011-12-31 00:00:00,TMP,surface,-99.3754,25.0393,294.032
2011-12-31 00:00:00,2011-12-31 00:00:00,TMP,surface,-98.4379,25.0393,296.355
2011-12-31 00:00:00,2011-12-31 00:00:00,TMP,surface,-97.5004,25.0393,296.085
2011-12-31 00:00:00,2011-12-31 00:00:00,TMP,surface,-96.5629,25.0393,296.675
2011-12-31 00:00:00,2011-12-31 00:00:00,TMP,surface,-95.6254,25.0393,297.256
2011-12-31 00:00:00,2011-12-31 00:00:00,TMP,surface,-94.6879,25.0393,297.478
2011-12-31 00:00:00,2011-12-31 00:00:00,TMP,surface,-93.7504,25.0393,297.464
2011-12-31 00:00:00,2011-12-31 00:00:00,TMP,surface,-92.8129,25.0393,297.525
2011-12-31 00:00:00,2011-12-31 00:00:00,TMP,surface,-107.813,25.9842,293.322
2011-12-31 00:00:00,2011-12-31 00:00:00,TMP,surface,-106.875,25.9842,287.406
2011-12-31 00:00:00,2011-12-31 00:00:00,TMP,surface,-105.938,25.9842,286.56
2011-12-31 00:00:00,2011-12-31 00:00:00,TMP,surface,-105,25.9842,290.917
2011-12-31 00:00:00,2011-12-31 00:00:00,TMP,surface,-104.063,25.9842,295.414
2011-12-31 00:00:00,2011-12-31 00:00:00,TMP,surface,-103.125,25.9842,296.854
2011-12-31 00:00:00,2011-12-31 00:00:00,TMP,surface,-102.188,25.9842,295.355
2011-12-31 00:00:00,2011-12-31 00:00:00,TMP,surface,-101.25,25.9842,293.457
2011-12-31 00:00:00,2011-12-31 00:00:00,TMP,surface,-100.313,25.9842,293.288
2011-12-31 00:00:00,2011-12-31 00:00:00,TMP,surface,-99.3754,25.9842,295.368
2011-12-31 00:00:00,2011-12-31 00:00:00,TMP,surface,-98.4379,25.9842,296.427
2011-12-31 00:00:00,2011-12-31 00:00:00,TMP,surface,-97.5004,25.9842,296.198
2011-12-31 00:00:00,2011-12-31 00:00:00,TMP,surface,-96.5629,25.9842,295.11
2011-12-31 00:00:00,2011-12-31 00:00:00,TMP,surface,-95.6254,25.9842,296.435
2011-12-31 00:00:00,2011-12-31 00:00:00,TMP,surface,-94.6879,25.9842,296.616
2011-12-31 00:00:00,2011-12-31 00:00:00,TMP,surface,-93.7504,25.9842,296.544
2011-12-31 00:00:00,2011-12-31 00:00:00,TMP,surface,-92.8129,25.9842,296.777
2011-12-31 00:00:00,2011-12-31 00:00:00,TMP,surface,-107.813,26.929,288.294
2011-12-31 00:00:00,2011-12-31 00:00:00,TMP,surface,-106.875,26.929,285.477
2011-12-31 00:00:00,2011-12-31 00:00:00,TMP,surface,-105.938,26.929,288.926
2011-12-31 00:00:00,2011-12-31 00:00:00,TMP,surface,-105,26.929,293.63
2011-12-31 00:00:00,2011-12-31 00:00:00,TMP,surface,-104.063,26.929,295.477
2011-12-31 00:00:00,2011-12-31 00:00:00,TMP,surface,-103.125,26.929,295.053
2011-12-31 00:00:00,2011-12-31 00:00:00,TMP,surface,-102.188,26.929,293.694
2011-12-31 00:00:00,2011-12-31 00:00:00,TMP,surface,-101.25,26.929,293.322
2011-12-31 00:00:00,2011-12-31 00:00:00,TMP,surface,-100.313,26.929,294.307
2011-12-31 00:00:00,2011-12-31 00:00:00,TMP,surface,-99.3754,26.929,295.6
2011-12-31 00:00:00,2011-12-31 00:00:00,TMP,surface,-98.4379,26.929,295.032
2011-12-31 00:00:00,2011-12-31 00:00:00,TMP,surface,-97.5004,26.929,293.241
2011-12-31 00:00:00,2011-12-31 00:00:00,TMP,surface,-96.5629,26.929,293.427
2011-12-31 00:00:00,2011-12-31 00:00:00,TMP,surface,-95.6254,26.929,295.213
2011-12-31 00:00:00,2011-12-31 00:00:00,TMP,surface,-94.6879,26.929,295.773
2011-12-31 00:00:00,2011-12-31 00:00:00,TMP,surface,-93.7504,26.929,295.531
2011-12-31 00:00:00,2011-12-31 00:00:00,TMP,surface,-92.8129,26.929,295.6
2011-12-31 00:00:00,2011-12-31 00:00:00,TMP,surface,-107.813,27.8739,285.329
2011-12-31 00:00:00,2011-12-31 00:00:00,TMP,surface,-106.875,27.8739,285.973
2011-12-31 00:00:00,2011-12-31 00:00:00,TMP,surface,-105.938,27.8739,290.658
2011-12-31 00:00:00,2011-12-31 00:00:00,TMP,surface,-105,27.8739,294.102
2011-12-31 00:00:00,2011-12-31 00:00:00,TMP,surface,-104.063,27.8739,294.441
2011-12-31 00:00:00,2011-12-31 00:00:00,TMP,surface,-103.125,27.8739,292.845
2011-12-31 00:00:00,2011-12-31 00:00:00,TMP,surface,-102.188,27.8739,291.835
2011-12-31 00:00:00,2011-12-31 00:00:00,TMP,surface,-101.25,27.8739,292.464
2011-12-31 00:00:00,2011-12-31 00:00:00,TMP,surface,-100.313,27.8739,293.659
2011-12-31 00:00:00,2011-12-31 00:00:00,TMP,surface,-99.3754,27.8739,293.859
2011-12-31 00:00:00,2011-12-31 00:00:00,TMP,surface,-98.4379,27.8739,293.32
2011-12-31 00:00:00,2011-12-31 00:00:00,TMP,surface,-97.5004,27.8739,293.069
2011-12-31 00:00:00,2011-12-31 00:00:00,TMP,surface,-96.5629,27.8739,293.336
2011-12-31 00:00:00,2011-12-31 00:00:00,TMP,surface,-95.6254,27.8739,293.837
2011-12-31 00:00:00,2011-12-31 00:00:00,TMP,surface,-94.6879,27.8739,294.258
2011-12-31 00:00:00,2011-12-31 00:00:00,TMP,surface,-93.7504,27.8739,294.286
2011-12-31 00:00:00,2011-12-31 00:00:00,TMP,surface,-92.8129,27.8739,294.326
2011-12-31 00:00:00,2011-12-31 00:00:00,TMP,surface,-107.813,28.8188,284.435
2011-12-31 00:00:00,2011-12-31 00:00:00,TMP,surface,-106.875,28.8188,286.737
2011-12-31 00:00:00,2011-12-31 00:00:00,TMP,surface,-105.938,28.8188,291.214
2011-12-31 00:00:00,2011-12-31 00:00:00,TMP,surface,-105,28.8188,293.856
2011-12-31 00:00:00,2011-12-31 00:00:00,TMP,surface,-104.063,28.8188,293.161
2011-12-31 00:00:00,2011-12-31 00:00:00,TMP,surface,-103.125,28.8188,291.309
2011-12-31 00:00:00,2011-12-31 00:00:00,TMP,surface,-102.188,28.8188,290.8
2011-12-31 00:00:00,2011-12-31 00:00:00,TMP,surface,-101.25,28.8188,291.419
2011-12-31 00:00:00,2011-12-31 00:00:00,TMP,surface,-100.313,28.8188,291.665
2011-12-31 00:00:00,2011-12-31 00:00:00,TMP,surface,-99.3754,28.8188,291.314
2011-12-31 00:00:00,2011-12-31 00:00:00,TMP,surface,-98.4379,28.8188,291.125
2011-12-31 00:00:00,2011-12-31 00:00:00,TMP,surface,-97.5004,28.8188,291.385
2011-12-31 00:00:00,2011-12-31 00:00:00,TMP,surface,-96.5629,28.8188,291.79
2011-12-31 00:00:00,2011-12-31 00:00:00,TMP,surface,-95.6254,28.8188,292.121
2011-12-31 00:00:00,2011-12-31 00:00:00,TMP,surface,-94.6879,28.8188,292.387
2011-12-31 00:00:00,2011-12-31 00:00:00,TMP,surface,-93.7504,28.8188,292.509
2011-12-31 00:00:00,2011-12-31 00:00:00,TMP,surface,-92.8129,28.8188,292.488
2011-12-31 00:00:00,2011-12-31 00:00:00,TMP,surface,-107.813,29.7637,286.4
2011-12-31 00:00:00,2011-12-31 00:00:00,TMP,surface,-106.875,29.7637,288.546
2011-12-31 00:00:00,2011-12-31 00:00:00,TMP,surface,-105.938,29.7637,291.667
2011-12-31 00:00:00,2011-12-31 00:00:00,TMP,surface,-105,29.7637,292.289
2011-12-31 00:00:00,2011-12-31 00:00:00,TMP,surface,-104.063,29.7637,292.235
2011-12-31 00:00:00,2011-12-31 00:00:00,TMP,surface,-103.125,29.7637,291.595
2011-12-31 00:00:00,2011-12-31 00:00:00,TMP,surface,-102.188,29.7637,291.309
2011-12-31 00:00:00,2011-12-31 00:00:00,TMP,surface,-101.25,29.7637,290.781
2011-12-31 00:00:00,2011-12-31 00:00:00,TMP,surface,-100.313,29.7637,289.848
2011-12-31 00:00:00,2011-12-31 00:00:00,TMP,surface,-99.3754,29.7637,289.238
2011-12-31 00:00:00,2011-12-31 00:00:00,TMP,surface,-98.4379,29.7637,289.243
2011-12-31 00:00:00,2011-12-31 00:00:00,TMP,surface,-97.5004,29.7637,289.587
2011-12-31 00:00:00,2011-12-31 00:00:00,TMP,surface,-96.5629,29.7637,289.987
2011-12-31 00:00:00,2011-12-31 00:00:00,TMP,surface,-95.6254,29.7637,290.382
2011-12-31 00:00:00,2011-12-31 00:00:00,TMP,surface,-94.6879,29.7637,290.849
2011-12-31 00:00:00,2011-12-31 00:00:00,TMP,surface,-93.7504,29.7637,291.326
2011-12-31 00:00:00,2011-12-31 00:00:00,TMP,surface,-92.8129,29.7637,291.36
2011-12-31 00:00:00,2011-12-31 00:00:00,TMP,surface,-107.813,30.7085,289.582
2011-12-31 00:00:00,2011-12-31 00:00:00,TMP,surface,-106.875,30.7085,290.99
2011-12-31 00:00:00,2011-12-31 00:00:00,TMP,surface,-105.938,30.7085,291.494
2011-12-31 00:00:00,2011-12-31 00:00:00,TMP,surface,-105,30.7085,291.405
2011-12-31 00:00:00,2011-12-31 00:00:00,TMP,surface,-104.063,30.7085,291.24
2011-12-31 00:00:00,2011-12-31 00:00:00,TMP,surface,-103.125,30.7085,291.64
2011-12-31 00:00:00,2011-12-31 00:00:00,TMP,surface,-102.188,30.7085,291.16
2011-12-31 00:00:00,2011-12-31 00:00:00,TMP,surface,-101.25,30.7085,289.971
2011-12-31 00:00:00,2011-12-31 00:00:00,TMP,surface,-100.313,30.7085,288.717
2011-12-31 00:00:00,2011-12-31 00:00:00,TMP,surface,-99.3754,30.7085,288.104
2011-12-31 00:00:00,2011-12-31 00:00:00,TMP,surface,-98.4379,30.7085,288.197
2011-12-31 00:00:00,2011-12-31 00:00:00,TMP,surface,-97.5004,30.7085,288.55
2011-12-31 00:00:00,2011-12-31 00:00:00,TMP,surface,-96.5629,30.7085,289.157
2011-12-31 00:00:00,2011-12-31 00:00:00,TMP,surface,-95.6254,30.7085,289.77
2011-12-31 00:00:00,2011-12-31 00:00:00,TMP,surface,-94.6879,30.7085,289.869
2011-12-31 00:00:00,2011-12-31 00:00:00,TMP,surface,-93.7504,30.7085,289.79
2011-12-31 00:00:00,2011-12-31 00:00:00,TMP,surface,-92.8129,30.7085,289.568
2011-12-31 00:00:00,2011-12-31 00:00:00,TMP,surface,-107.813,31.6534,290.009
2011-12-31 00:00:00,2011-12-31 00:00:00,TMP,surface,-106.875,31.6534,291.046
2011-12-31 00:00:00,2011-12-31 00:00:00,TMP,surface,-105.938,31.6534,290.91
2011-12-31 00:00:00,2011-12-31 00:00:00,TMP,surface,-105,31.6534,290.675
2011-12-31 00:00:00,2011-12-31 00:00:00,TMP,surface,-104.063,31.6534,290.81
2011-12-31 00:00:00,2011-12-31 00:00:00,TMP,surface,-103.125,31.6534,290.894
2011-12-31 00:00:00,2011-12-31 00:00:00,TMP,surface,-102.188,31.6534,290.011
2011-12-31 00:00:00,2011-12-31 00:00:00,TMP,surface,-101.25,31.6534,288.742
2011-12-31 00:00:00,2011-12-31 00:00:00,TMP,surface,-100.313,31.6534,287.835
2011-12-31 00:00:00,2011-12-31 00:00:00,TMP,surface,-99.3754,31.6534,287.48
2011-12-31 00:00:00,2011-12-31 00:00:00,TMP,surface,-98.4379,31.6534,287.557
2011-12-31 00:00:00,2011-12-31 00:00:00,TMP,surface,-97.5004,31.6534,287.766
2011-12-31 00:00:00,2011-12-31 00:00:00,TMP,surface,-96.5629,31.6534,288.195
2011-12-31 00:00:00,2011-12-31 00:00:00,TMP,surface,-95.6254,31.6534,288.67
2011-12-31 00:00:00,2011-12-31 00:00:00,TMP,surface,-94.6879,31.6534,288.698
2011-12-31 00:00:00,2011-12-31 00:00:00,TMP,surface,-93.7504,31.6534,288.52
2011-12-31 00:00:00,2011-12-31 00:00:00,TMP,surface,-92.8129,31.6534,288.414
2011-12-31 00:00:00,2011-12-31 00:00:00,TMP,surface,-107.813,32.5983,286.797
2011-12-31 00:00:00,2011-12-31 00:00:00,TMP,surface,-106.875,32.5983,288.035
2011-12-31 00:00:00,2011-12-31 00:00:00,TMP,surface,-105.938,32.5983,288.896
2011-12-31 00:00:00,2011-12-31 00:00:00,TMP,surface,-105,32.5983,289.016
2011-12-31 00:00:00,2011-12-31 00:00:00,TMP,surface,-104.063,32.5983,289.741
2011-12-31 00:00:00,2011-12-31 00:00:00,TMP,surface,-103.125,32.5983,289.733
2011-12-31 00:00:00,2011-12-31 00:00:00,TMP,surface,-102.188,32.5983,288.477
2011-12-31 00:00:00,2011-12-31 00:00:00,TMP,surface,-101.25,32.5983,287.52
2011-12-31 00:00:00,2011-12-31 00:00:00,TMP,surface,-100.313,32.5983,287.31
2011-12-31 00:00:00,2011-12-31 00:00:00,TMP,surface,-99.3754,32.5983,287.325
2011-12-31 00:00:00,2011-12-31 00:00:00,TMP,surface,-98.4379,32.5983,287.258
2011-12-31 00:00:00,2011-12-31 00:00:00,TMP,surface,-97.5004,32.5983,287.187
2011-12-31 00:00:00,2011-12-31 00:00:00,TMP,surface,-96.5629,32.5983,287.363
2011-12-31 00:00:00,2011-12-31 00:00:00,TMP,surface,-95.6254,32.5983,287.654
2011-12-31 00:00:00,2011-12-31 00:00:00,TMP,surface,-94.6879,32.5983,287.661
2011-12-31 00:00:00,2011-12-31 00:00:00,TMP,surface,-93.7504,32.5983,287.533
2011-12-31 00:00:00,2011-12-31 00:00:00,TMP,surface,-92.8129,32.5983,287.664
2011-12-31 00:00:00,2011-12-31 00:00:00,TMP,surface,-107.813,33.5432,283.051
2011-12-31 00:00:00,2011-12-31 00:00:00,TMP,surface,-106.875,33.5432,284.731
2011-12-31 00:00:00,2011-12-31 00:00:00,TMP,surface,-105.938,33.5432,286.126
2011-12-31 00:00:00,2011-12-31 00:00:00,TMP,surface,-105,33.5432,287.331
2011-12-31 00:00:00,2011-12-31 00:00:00,TMP,surface,-104.063,33.5432,288.464
2011-12-31 00:00:00,2011-12-31 00:00:00,TMP,surface,-103.125,33.5432,287.982
2011-12-31 00:00:00,2011-12-31 00:00:00,TMP,surface,-102.188,33.5432,286.931
2011-12-31 00:00:00,2011-12-31 00:00:00,TMP,surface,-101.25,33.5432,286.352
2011-12-31 00:00:00,2011-12-31 00:00:00,TMP,surface,-100.313,33.5432,286.523
2011-12-31 00:00:00,2011-12-31 00:00:00,TMP,surface,-99.3754,33.5432,286.658
2011-12-31 00:00:00,2011-12-31 00:00:00,TMP,surface,-98.4379,33.5432,286.426
2011-12-31 00:00:00,2011-12-31 00:00:00,TMP,surface,-97.5004,33.5432,286.109
2011-12-31 00:00:00,2011-12-31 00:00:00,TMP,surface,-96.5629,33.5432,286.034
2011-12-31 00:00:00,2011-12-31 00:00:00,TMP,surface,-95.6254,33.5432,286.283
2011-12-31 00:00:00,2011-12-31 00:00:00,TMP,surface,-94.6879,33.5432,286.546
2011-12-31 00:00:00,2011-12-31 00:00:00,TMP,surface,-93.7504,33.5432,286.512
2011-12-31 00:00:00,2011-12-31 00:00:00,TMP,surface,-92.8129,33.5432,286.594
2011-12-31 00:00:00,2011-12-31 00:00:00,TMP,surface,-107.813,34.4881,281.23
2011-12-31 00:00:00,2011-12-31 00:00:00,TMP,surface,-106.875,34.4881,283.035
2011-12-31 00:00:00,2011-12-31 00:00:00,TMP,surface,-105.938,34.4881,284.315
2011-12-31 00:00:00,2011-12-31 00:00:00,TMP,surface,-105,34.4881,285.606
2011-12-31 00:00:00,2011-12-31 00:00:00,TMP,surface,-104.063,34.4881,286.409
2011-12-31 00:00:00,2011-12-31 00:00:00,TMP,surface,-103.125,34.4881,286.336
2011-12-31 00:00:00,2011-12-31 00:00:00,TMP,surface,-102.188,34.4881,285.513
2011-12-31 00:00:00,2011-12-31 00:00:00,TMP,surface,-101.25,34.4881,285.237
2011-12-31 00:00:00,2011-12-31 00:00:00,TMP,surface,-100.313,34.4881,285.304
2011-12-31 00:00:00,2011-12-31 00:00:00,TMP,surface,-99.3754,34.4881,285.408
2011-12-31 00:00:00,2011-12-31 00:00:00,TMP,surface,-98.4379,34.4881,285.328
2011-12-31 00:00:00,2011-12-31 00:00:00,TMP,surface,-97.5004,34.4881,285.15
2011-12-31 00:00:00,2011-12-31 00:00:00,TMP,surface,-96.5629,34.4881,285.297
2011-12-31 00:00:00,2011-12-31 00:00:00,TMP,surface,-95.6254,34.4881,285.581
2011-12-31 00:00:00,2011-12-31 00:00:00,TMP,surface,-94.6879,34.4881,285.422
2011-12-31 00:00:00,2011-12-31 00:00:00,TMP,surface,-93.7504,34.4881,285.173
2011-12-31 00:00:00,2011-12-31 00:00:00,TMP,surface,-92.8129,34.4881,285.331
2011-12-31 00:00:00,2011-12-31 00:00:00,TMP,surface,-107.813,35.4329,281.281
2011-12-31 00:00:00,2011-12-31 00:00:00,TMP,surface,-106.875,35.4329,281.68
2011-12-31 00:00:00,2011-12-31 00:00:00,TMP,surface,-105.938,35.4329,282.197
2011-12-31 00:00:00,2011-12-31 00:00:00,TMP,surface,-105,35.4329,282.714
2011-12-31 00:00:00,2011-12-31 00:00:00,TMP,surface,-104.063,35.4329,284.001
2011-12-31 00:00:00,2011-12-31 00:00:00,TMP,surface,-103.125,35.4329,284.683
2011-12-31 00:00:00,2011-12-31 00:00:00,TMP,surface,-102.188,35.4329,284.445
2011-12-31 00:00:00,2011-12-31 00:00:00,TMP,surface,-101.25,35.4329,284.059
2011-12-31 00:00:00,2011-12-31 00:00:00,TMP,surface,-100.313,35.4329,284.005
2011-12-31 00:00:00,2011-12-31 00:00:00,TMP,surface,-99.3754,35.4329,284.034
2011-12-31 00:00:00,2011-12-31 00:00:00,TMP,surface,-98.4379,35.4329,284.099
2011-12-31 00:00:00,2011-12-31 00:00:00,TMP,surface,-97.5004,35.4329,284.275
2011-12-31 00:00:00,2011-12-31 00:00:00,TMP,surface,-96.5629,35.4329,284.47
2011-12-31 00:00:00,2011-12-31 00:00:00,TMP,surface,-95.6254,35.4329,284.53
2011-12-31 00:00:00,2011-12-31 00:00:00,TMP,surface,-94.6879,35.4329,284.302
2011-12-31 00:00:00,2011-12-31 00:00:00,TMP,surface,-93.7504,35.4329,283.878
2011-12-31 00:00:00,2011-12-31 00:00:00,TMP,surface,-92.8129,35.4329,283.904
2011-12-31 00:00:00,2011-12-31 00:00:00,TMP,surface,-107.813,36.3778,280.37
2011-12-31 00:00:00,2011-12-31 00:00:00,TMP,surface,-106.875,36.3778,278.645
2011-12-31 00:00:00,2011-12-31 00:00:00,TMP,surface,-105.938,36.3778,278.976
2011-12-31 00:00:00,2011-12-31 00:00:00,TMP,surface,-105,36.3778,279.894
2011-12-31 00:00:00,2011-12-31 00:00:00,TMP,surface,-104.063,36.3778,281.541
2011-12-31 00:00:00,2011-12-31 00:00:00,TMP,surface,-103.125,36.3778,282.301
2011-12-31 00:00:00,2011-12-31 00:00:00,TMP,surface,-102.188,36.3778,282.546
2011-12-31 00:00:00,2011-12-31 00:00:00,TMP,surface,-101.25,36.3778,282.792
2011-12-31 00:00:00,2011-12-31 00:00:00,TMP,surface,-100.313,36.3778,283.056
2011-12-31 00:00:00,2011-12-31 00:00:00,TMP,surface,-99.3754,36.3778,283.256
2011-12-31 00:00:00,2011-12-31 00:00:00,TMP,surface,-98.4379,36.3778,283.254
2011-12-31 00:00:00,2011-12-31 00:00:00,TMP,surface,-97.5004,36.3778,283.422
2011-12-31 00:00:00,2011-12-31 00:00:00,TMP,surface,-96.5629,36.3778,283.69
2011-12-31 00:00:00,2011-12-31 00:00:00,TMP,surface,-95.6254,36.3778,283.673
2011-12-31 00:00:00,2011-12-31 00:00:00,TMP,surface,-94.6879,36.3778,283.344
2011-12-31 00:00:00,2011-12-31 00:00:00,TMP,surface,-93.7504,36.3778,282.856
2011-12-31 00:00:00,2011-12-31 00:00:00,TMP,surface,-92.8129,36.3778,282.821
2011-12-31 00:00:00,2011-12-31 00:00:00,PRATE,surface,-107.813,25.0393,1e-07
2011-12-31 00:00:00,2011-12-31 00:00:00,PRATE,surface,-106.875,25.0393,7e-07
2011-12-31 00:00:00,2011-12-31 00:00:00,PRATE,surface,-105.938,25.0393,3.2e-06
2011-12-31 00:00:00,2011-12-31 00:00:00,PRATE,surface,-105,25.0393,3.8e-06
2011-12-31 00:00:00,2011-12-31 00:00:00,PRATE,surface,-104.063,25.0393,1.8e-06
2011-12-31 00:00:00,2011-12-31 00:00:00,PRATE,surface,-103.125,25.0393,4e-07
2011-12-31 00:00:00,2011-12-31 00:00:00,PRATE,surface,-102.188,25.0393,6.3e-06
2011-12-31 00:00:00,2011-12-31 00:00:00,PRATE,surface,-101.25,25.0393,2.77e-05
2011-12-31 00:00:00,2011-12-31 00:00:00,PRATE,surface,-100.313,25.0393,3.12e-05
2011-12-31 00:00:00,2011-12-31 00:00:00,PRATE,surface,-99.3754,25.0393,4.43e-05
2011-12-31 00:00:00,2011-12-31 00:00:00,PRATE,surface,-98.4379,25.0393,3.04e-05
2011-12-31 00:00:00,2011-12-31 00:00:00,PRATE,surface,-97.5004,25.0393,2.56e-05
2011-12-31 00:00:00,2011-12-31 00:00:00,PRATE,surface,-96.5629,25.0393,3.81e-05
2011-12-31 00:00:00,2011-12-31 00:00:00,PRATE,surface,-95.6254,25.0393,1.69e-05
2011-12-31 00:00:00,2011-12-31 00:00:00,PRATE,surface,-94.6879,25.0393,1.17e-05
2011-12-31 00:00:00,2011-12-31 00:00:00,PRATE,surface,-93.7504,25.0393,1.22e-05
2011-12-31 00:00:00,2011-12-31 00:00:00,PRATE,surface,-92.8129,25.0393,1.52e-05
2011-12-31 00:00:00,2011-12-31 00:00:00,PRATE,surface,-107.813,25.9842,1e-07
2011-12-31 00:00:00,2011-12-31 00:00:00,PRATE,surface,-106.875,25.9842,1.5e-06
2011-12-31 00:00:00,2011-12-31 00:00:00,PRATE,surface,-105.938,25.9842,2.9e-06
2011-12-31 00:00:00,2011-12-31 00:00:00,PRATE,surface,-105,25.9842,2.6e-06
2011-12-31 00:00:00,2011-12-31 00:00:00,PRATE,surface,-104.063,25.9842,1.3e-06
2011-12-31 00:00:00,2011-12-31 00:00:00,PRATE,surface,-103.125,25.9842,8e-07
2011-12-31 00:00:00,2011-12-31 00:00:00,PRATE,surface,-102.188,25.9842,8.5e-06
2011-12-31 00:00:00,2011-12-31 00:00:00,PRATE,surface,-101.25,25.9842,1.3e-05
2011-12-31 00:00:00,2011-12-31 00:00:00,PRATE,surface,-100.313,25.9842,3.39e-05
2011-12-31 00:00:00,2011-12-31 00:00:00,PRATE,surface,-99.3754,25.9842,2.9e-05
2011-12-31 00:00:00,2011-12-31 00:00:00,PRATE,surface,-98.4379,25.9842,2.45e-05
2011-12-31 00:00:00,2011-12-31 00:00:00,PRATE,surface,-97.5004,25.9842,2.44e-05
2011-12-31 00:00:00,2011-12-31 00:00:00,PRATE,surface,-96.5629,25.9842,3.9e-05
2011-12-31 00:00:00,2011-12-31 00:00:00,PRATE,surface,-95.6254,25.9842,3.46e-05
2011-12-31 00:00:00,2011-12-31 00:00:00,PRATE,surface,-94.6879,25.9842,2.91e-05
2011-12-31 00:00:00,2011-12-31 00:00:00,PRATE,surface,-93.7504,25.9842,2.71e-05
2011-12-31 00:00:00,2011-12-31 00:00:00,PRATE,surface,-92.8129,25.9842,3.74e-05
2011-12-31 00:00:00,2011-12-31 00:00:00,PRATE,surface,-107.813,26.929,1.4e-06
2011-12-31 00:00:00,2011-12-31 00:00:00,PRATE,surface,-106.875,26.929,1.8e-06
2011-12-31 00:00:00,2011-12-31 00:00:00,PRATE,surface,-105.938,26.929,1.3e-06
2011-12-31 00:00:00,2011-12-31 00:00:00,PRATE,surface,-105,26.929,8e-07
2011-12-31 00:00:00,2011-12-31 00:00:00,PRATE,surface,-104.063,26.929,1e-06
2011-12-31 00:00:00,2011-12-31 00:00:00,PRATE,surface,-103.125,26.929,8e-06
2011-12-31 00:00:00,2011-12-31 00:00:00,PRATE,surface,-102.188,26.929,2.21e-05
2011-12-31 00:00:00,2011-12-31 00:00:00,PRATE,surface,-101.25,26.929,3.54e-05
2011-12-31 00:00:00,2011-12-31 00:00:00,PRATE,surface,-100.313,26.929,2.48e-05
2011-12-31 00:00:00,2011-12-31 00:00:00,PRATE,surface,-99.3754,26.929,2.12e-05
2011-12-31 00:00:00,2011-12-31 00:00:00,PRATE,surface,-98.4379,26.929,1.88e-05
2011-12-31 00:00:00,2011-12-31 00:00:00,PRATE,surface,-97.5004,26.929,2.83e-05
2011-12-31 00:00:00,2011-12-31 00:00:00,PRATE,surface,-96.5629,26.929,3.61e-05
2011-12-31 00:00:00,2011-12-31 00:00:00,PRATE,surface,-95.6254,26.929,4.28e-05
2011-12-31 00:00:00,2011-12-31 00:00:00,PRATE,surface,-94.6879,26.929,4.27e-05
2011-12-31 00:00:00,2011-12-31 00:00:00,PRATE,surface,-93.7504,26.929,4.16e-05
2011-12-31 00:00:00,2011-12-31 00:00:00,PRATE,surface,-92.8129,26.929,3.65e-05
2011-12-31 00:00:00,2011-12-31 00:00:00,PRATE,surface,-107.813,27.8739,9.1e-06
2011-12-31 00:00:00,2011-12-31 00:00:00,PRATE,surface,-106.875,27.8739,3.1e-06
2011-12-31 00:00:00,2011-12-31 00:00:00,PRATE,surface,-105.938,27.8739,5e-07
2011-12-31 00:00:00,2011-12-31 00:00:00,PRATE,surface,-105,27.8739,1e-07
2011-12-31 00:00:00,2011-12-31 00:00:00,PRATE,surface,-104.063,27.8739,1.9e-06
2011-12-31 00:00:00,2011-12-31 00:00:00,PRATE,surface,-103.125,27.8739,2.24e-05
2011-12-31 00:00:00,2011-12-31 00:00:00,PRATE,surface,-102.188,27.8739,4.43e-05
2011-12-31 00:00:00,2011-12-31 00:00:00,PRATE,surface,-101.25,27.8739,3.65e-05
2011-12-31 00:00:00,2011-12-31 00:00:00,PRATE,surface,-100.313,27.8739,2.15e-05
2011-12-31 00:00:00,2011-12-31 00:00:00,PRATE,surface,-99.3754,27.8739,1.72e-05
2011-12-31 00:00:00,2011-12-31 00:00:00,PRATE,surface,-98.4379,27.8739,1.71e-05
2011-12-31 00:00:00,2011-12-31 00:00:00,PRATE,surface,-97.5004,27.8739,1.84e-05
2011-12-31 00:00:00,2011-12-31 00:00:00,PRATE,surface,-96.5629,27.8739,2.26e-05
2011-12-31 00:00:00,2011-12-31 00:00:00,PRATE,surface,-95.6254,27.8739,2.75e-05
2011-12-31 00:00:00,2011-12-31 00:00:00,PRATE,surface,-94.6879,27.8739,3.27e-05
2011-12-31 00:00:00,2011-12-31 00:00:00,PRATE,surface,-93.7504,27.8739,3.7e-05
2011-12-31 00:00:00,2011-12-31 00:00:00,PRATE,surface,-92.8129,27.8739,3.31e-05
2011-12-31 00:00:00,2011-12-31 00:00:00,PRATE,surface,-107.813,28.8188,1.44e-05
2011-12-31 00:00:00,2011-12-31 00:00:00,PRATE,surface,-106.875,28.8188,6.7e-06
2011-12-31 00:00:00,2011-12-31 00:00:00,PRATE,surface,-105.938,28.8188,9e-07
2011-12-31 00:00:00,2011-12-31 00:00:00,PRATE,surface,-105,28.8188,5e-07
2011-12-31 00:00:00,2011-12-31 00:00:00,PRATE,surface,-104.063,28.8188,2.7e-06
2011-12-31 00:00:00,2011-12-31 00:00:00,PRATE,surface,-103.125,28.8188,2.61e-05
2011-12-31 00:00:00,2011-12-31 00:00:00,PRATE,surface,-102.188,28.8188,3.61e-05
2011-12-31 00:00:00,2011-12-31 00:00:00,PRATE,surface,-101.25,28.8188,3.59e-05
2011-12-31 00:00:00,2011-12-31 00:00:00,PRATE,surface,-100.313,28.8188,3.09e-05
2011-12-31 00:00:00,2011-12-31 00:00:00,PRATE,surface,-99.3754,28.8188,2.98e-05
2011-12-31 00:00:00,2011-12-31 00:00:00,PRATE,surface,-98.4379,28.8188,3.06e-05
2011-12-31 00:00:00,2011-12-31 00:00:00,PRATE,surface,-97.5004,28.8188,2.73e-05
2011-12-31 00:00:00,2011-12-31 00:00:00,PRATE,surface,-96.5629,28.8188,2.26e-05
2011-12-31 00:00:00,2011-12-31 00:00:00,PRATE,surface,-95.6254,28.8188,2.55e-05
2011-12-31 00:00:00,2011-12-31 00:00:00,PRATE,surface,-94.6879,28.8188,3.57e-05
2011-12-31 00:00:00,2011-12-31 00:00:00,PRATE,surface,-93.7504,28.8188,4.36e-05
2011-12-31 00:00:00,2011-12-31 00:00:00,PRATE,surface,-92.8129,28.8188,4.82e-05
2011-12-31 00:00:00,2011-12-31 00:00:00,PRATE,surface,-107.813,29.7637,1.15e-05
2011-12-31 00:00:00,2011-12-31 00:00:00,PRATE,surface,-106.875,29.7637,8.4e-06
2011-12-31 00:00:00,2011-12-31 00:00:00,PRATE,surface,-105.938,29.7637,5.2e-06
2011-12-31 00:00:00,2011-12-31 00:00:00,PRATE,surface,-105,29.7637,4.7e-06
2011-12-31 00:00:00,2011-12-31 00:00:00,PRATE,surface,-104.063,29.7637,9.8e-06
2011-12-31 00:00:00,2011-12-31 00:00:00,PRATE,surface,-103.125,29.7637,2.11e-05
2011-12-31 00:00:00,2011-12-31 00:00:00,PRATE,surface,-102.188,29.7637,3.33e-05
2011-12-31 00:00:00,2011-12-31 00:00:00,PRATE,surface,-101.25,29.7637,4.5e-05
2011-12-31 00:00:00,2011-12-31 00:00:00,PRATE,surface,-100.313,29.7637,4.76e-05
2011-12-31 00:00:00,2011-12-31 00:00:00,PRATE,surface,-99.3754,29.7637,5.01e-05
2011-12-31 00:00:00,2011-12-31 00:00:00,PRATE,surface,-98.4379,29.7637,5.12e-05
2011-12-31 00:00:00,2011-12-31 00:00:00,PRATE,surface,-97.5004,29.7637,5.43e-05
2011-12-31 00:00:00,2011-12-31 00:00:00,PRATE,surface,-96.5629,29.7637,5.78e-05
2011-12-31 00:00:00,2011-12-31 00:00:00,PRATE,surface,-95.6254,29.7637,5.4e-05
2011-12-31 00:00:00,2011-12-31 00:00:00,PRATE,surface,-94.6879,29.7637,4.8e-05
2011-12-31 00:00:00,2011-12-31 00:00:00,PRATE,surface,-93.7504,29.7637,4.96e-05
2011-12-31 00:00:00,2011-12-31 00:00:00,PRATE,surface,-92.8129,29.7637,5.22e-05
2011-12-31 00:00:00,2011-12-31 00:00:00,PRATE,surface,-107.813,30.7085,7.6e-06
2011-12-31 00:00:00,2011-12-31 00:00:00,PRATE,surface,-106.875,30.7085,6.7e-06
2011-12-31 00:00:00,2011-12-31 00:00:00,PRATE,surface,-105.938,30.7085,6.8e-06
2011-12-31 00:00:00,2011-12-31 00:00:00,PRATE,surface,-105,30.7085,1.34e-05
2011-12-31 00:00:00,2011-12-31 00:00:00,PRATE,surface,-104.063,30.7085,1.63e-05
2011-12-31 00:00:00,2011-12-31 00:00:00,PRATE,surface,-103.125,30.7085,2.44e-05
2011-12-31 00:00:00,2011-12-31 00:00:00,PRATE,surface,-102.188,30.7085,2.71e-05
2011-12-31 00:00:00,2011-12-31 00:00:00,PRATE,surface,-101.25,30.7085,3.7e-05
2011-12-31 00:00:00,2011-12-31 00:00:00,PRATE,surface,-100.313,30.7085,5.39e-05
2011-12-31 00:00:00,2011-12-31 00:00:00,PRATE,surface,-99.3754,30.7085,6.24e-05
2011-12-31 00:00:00,2011-12-31 00:00:00,PRATE,surface,-98.4379,30.7085,6.39e-05
2011-12-31 00:00:00,2011-12-31 00:00:00,PRATE,surface,-97.5004,30.7085,6.5e-05
2011-12-31 00:00:00,2011-12-31 00:00:00,PRATE,surface,-96.5629,30.7085,6.56e-05
2011-12-31 00:00:00,2011-12-31 00:00:00,PRATE,surface,-95.6254,30.7085,6.55e-05
2011-12-31 00:00:00,2011-12-31 00:00:00,PRATE,surface,-94.6879,30.7085,6.7e-05
2011-12-31 00:00:00,2011-12-31 00:00:00,PRATE,surface,-93.7504,30.7085,6.95e-05
2011-12-31 00:00:00,2011-12-31 00:00:00,PRATE,surface,-92.8129,30.7085,7.3e-05
2011-12-31 00:00:00,2011-12-31 00:00:00,PRATE,surface,-107.813,31.6534,5.9e-06
2011-12-31 00:00:00,2011-12-31 00:00:00,PRATE,surface,-106.875,31.6534,5.9e-06
2011-12-31 00:00:00,2011-12-31 00:00:00,PRATE,surface,-105.938,31.6534,6.9e-06
2011-12-31 00:00:00,2011-12-31 00:00:00,PRATE,surface,-105,31.6534,1.28e-05
2011-12-31 00:00:00,2011-12-31 00:00:00,PRATE,surface,-104.063,31.6534,1.75e-05
2011-12-31 00:00:00,2011-12-31 00:00:00,PRATE,surface,-103.125,31.6534,1.84e-05
2011-12-31 00:00:00,2011-12-31 00:00:00,PRATE,surface,-102.188,31.6534,3.04e-05
2011-12-31 00:00:00,2011-12-31 00:00:00,PRATE,surface,-101.25,31.6534,3.4e-05
2011-12-31 00:00:00,2011-12-31 00:00:00,PRATE,surface,-100.313,31.6534,4.25e-05
2011-12-31 00:00:00,2011-12-31 00:00:00,PRATE,surface,-99.3754,31.6534,5.13e-05
2011-12-31 00:00:00,2011-12-31 00:00:00,PRATE,surface,-98.4379,31.6534,5.65e-05
2011-12-31 00:00:00,2011-12-31 00:00:00,PRATE,surface,-97.5004,31.6534,5.98e-05
2011-12-31 00:00:00,2011-12-31 00:00:00,PRATE,surface,-96.5629,31.6534,6.58e-05
2011-12-31 00:00:00,2011-12-31 00:00:00,PRATE,surface,-95.6254,31.6534,7.42e-05
2011-12-31 00:00:00,2011-12-31 00:00:00,PRATE,surface,-94.6879,31.6534,7.96e-05
2011-12-31 00:00:00,2011-12-31 00:00:00,PRATE,surface,-93.7504,31.6534,8.12e-05
2011-12-31 00:00:00,2011-12-31 00:00:00,PRATE,surface,-92.8129,31.6534,8.08e-05
2011-12-31 00:00:00,2011-12-31 00:00:00,PRATE,surface,-107.813,32.5983,1.2e-05
2011-12-31 00:00:00,2011-12-31 00:00:00,PRATE,surface,-106.875,32.5983,8.5e-06
2011-12-31 00:00:00,2011-12-31 00:00:00,PRATE,surface,-105.938,32.5983,8.9e-06
2011-12-31 00:00:00,2011-12-31 00:00:00,PRATE,surface,-105,32.5983,1.14e-05
2011-12-31 00:00:00,2011-12-31 00:00:00,PRATE,surface,-104.063,32.5983,1.77e-05
2011-12-31 00:00:00,2011-12-31 00:00:00,PRATE,surface,-103.125,32.5983,1.64e-05
2011-12-31 00:00:00,2011-12-31 00:00:00,PRATE,surface,-102.188,32.5983,2.78e-05
2011-12-31 00:00:00,2011-12-31 00:00:00,PRATE,surface,-101.25,32.5983,3.82e-05
2011-12-31 00:00:00,2011-12-31 00:00:00,PRATE,surface,-100.313,32.5983,4.01e-05
2011-12-31 00:00:00,2011-12-31 00:00:00,PRATE,surface,-99.3754,32.5983,4.37e-05
2011-12-31 00:00:00,2011-12-31 00:00:00,PRATE,surface,-98.4379,32.5983,4.88e-05
2011-12-31 00:00:00,2011-12-31 00:00:00,PRATE,surface,-97.5004,32.5983,5.43e-05
2011-12-31 00:00:00,2011-12-31 00:00:00,PRATE,surface,-96.5629,32.5983,6.17e-05
2011-12-31 00:00:00,2011-12-31 00:00:00,PRATE,surface,-95.6254,32.5983,7.04e-05
2011-12-31 00:00:00,2011-12-31 00:00:00,PRATE,surface,-94.6879,32.5983,7.99e-05
2011-12-31 00:00:00,2011-12-31 00:00:00,PRATE,surface,-93.7504,32.5983,8.71e-05
2011-12-31 00:00:00,2011-12-31 00:00:00,PRATE,surface,-92.8129,32.5983,8.74e-05
2011-12-31 00:00:00,2011-12-31 00:00:00,PRATE,surface,-107.813,33.5432,2.58e-05
2011-12-31 00:00:00,2011-12-31 00:00:00,PRATE,surface,-106.875,33.5432,2.15e-05
2011-12-31 00:00:00,2011-12-31 00:00:00,PRATE,surface,-105.938,33.5432,1.62e-05
2011-12-31 00:00:00,2011-12-31 00:00:00,PRATE,surface,-105,33.5432,1.19e-05
2011-12-31 00:00:00,2011-12-31 00:00:00,PRATE,surface,-104.063,33.5432,1.42e-05
2011-12-31 00:00:00,2011-12-31 00:00:00,PRATE,surface,-103.125,33.5432,2.13e-05
2011-12-31 00:00:00,2011-12-31 00:00:00,PRATE,surface,-102.188,33.5432,2.9e-05
2011-12-31 00:00:00,2011-12-31 00:00:00,PRATE,surface,-101.25,33.5432,4.33e-05
2011-12-31 00:00:00,2011-12-31 00:00:00,PRATE,surface,-100.313,33.5432,4.27e-05
2011-12-31 00:00:00,2011-12-31 00:00:00,PRATE,surface,-99.3754,33.5432,3.92e-05
2011-12-31 00:00:00,2011-12-31 00:00:00,PRATE,surface,-98.4379,33.5432,4.24e-05
2011-12-31 00:00:00,2011-12-31 00:00:00,PRATE,surface,-97.5004,33.5432,5.07e-05
2011-12-31 00:00:00,2011-12-31 00:00:00,PRATE,surface,-96.5629,33.5432,5.82e-05
2011-12-31 00:00:00,2011-12-31 00:00:00,PRATE,surface,-95.6254,33.5432,6.35e-05
2011-12-31 00:00:00,2011-12-31 00:00:00,PRATE,surface,-94.6879,33.5432,7.18e-05
2011-12-31 00:00:00,2011-12-31 00:00:00,PRATE,surface,-93.7504,33.5432,8.27e-05
2011-12-31 00:00:00,2011-12-31 00:00:00,PRATE,surface,-92.8129,33.5432,8.89e-05
2011-12-31 00:00:00,2011-12-31 00:00:00,PRATE,surface,-107.813,34.4881,2.77e-05
2011-12-31 00:00:00,2011-12-31 00:00:00,PRATE,surface,-106.875,34.4881,2.42e-05
2011-12-31 00:00:00,2011-12-31 00:00:00,PRATE,surface,-105.938,34.4881,2.28e-05
2011-12-31 00:00:00,2011-12-31 00:00:00,PRATE,surface,-105,34.4881,2e-05
2011-12-31 00:00:00,2011-12-31 00:00:00,PRATE,surface,-104.063,34.4881,1.82e-05
2011-12-31 00:00:00,2011-12-31 00:00:00,PRATE,surface,-103.125,34.4881,1.96e-05
2011-12-31 00:00:00,2011-12-31 00:00:00,PRATE,surface,-102.188,34.4881,3.39e-05
2011-12-31 00:00:00,2011-12-31 00:00:00,PRATE,surface,-101.25,34.4881,4.7e-05
2011-12-31 00:00:00,2011-12-31 00:00:00,PRATE,surface,-100.313,34.4881,5.06e-05
2011-12-31 00:00:00,2011-12-31 00:00:00,PRATE,surface,-99.3754,34.4881,4.6e-05
2011-12-31 00:00:00,2011-12-31 00:00:00,PRATE,surface,-98.4379,34.4881,4.68e-05
2011-12-31 00:00:00,2011-12-31 00:00:00,PRATE,surface,-97.5004,34.4881,5.06e-05
2011-12-31 00:00:00,2011-12-31 00:00:00,PRATE,surface,-96.5629,34.4881,5.18e-05
2011-12-31 00:00:00,2011-12-31 00:00:00,PRATE,surface,-95.6254,34.4881,5.46e-05
2011-12-31 00:00:00,2011-12-31 00:00:00,PRATE,surface,-94.6879,34.4881,6.11e-05
2011-12-31 00:00:00,2011-12-31 00:00:00,PRATE,surface,-93.7504,34.4881,6.76e-05
2011-12-31 00:00:00,2011-12-31 00:00:00,PRATE,surface,-92.8129,34.4881,7.2e-05
2011-12-31 00:00:00,2011-12-31 00:00:00,PRATE,surface,-107.813,35.4329,2.06e-05
2011-12-31 00:00:00,2011-12-31 00:00:00,PRATE,surface,-106.875,35.4329,2.57e-05
2011-12-31 00:00:00,2011-12-31 00:00:00,PRATE,surface,-105.938,35.4329,3.05e-05
2011-12-31 00:00:00,2011-12-31 00:00:00,PRATE,surface,-105,35.4329,3.14e-05
2011-12-31 00:00:00,2011-12-31 00:00:00,PRATE,surface,-104.063,35.4329,2.7e-05
2011-12-31 00:00:00,2011-12-31 00:00:00,PRATE,surface,-103.125,35.4329,2.18e-05
2011-12-31 00:00:00,2011-12-31 00:00:00,PRATE,surface,-102.188,35.4329,3.1e-05
2011-12-31 00:00:00,2011-12-31 00:00:00,PRATE,surface,-101.25,35.4329,4.47e-05
2011-12-31 00:00:00,2011-12-31 00:00:00,PRATE,surface,-100.313,35.4329,5.48e-05
2011-12-31 00:00:00,2011-12-31 00:00:00,PRATE,surface,-99.3754,35.4329,5.46e-05
2011-12-31 00:00:00,2011-12-31 00:00:00,PRATE,surface,-98.4379,35.4329,5.61e-05
2011-12-31 00:00:00,2011-12-31 00:00:00,PRATE,surface,-97.5004,35.4329,5.48e-05
2011-12-31 00:00:00,2011-12-31 00:00:00,PRATE,surface,-96.5629,35.4329,4.57e-05
2011-12-31 00:00:00,2011-12-31 00:00:00,PRATE,surface,-95.6254,35.4329,4.13e-05
2011-12-31 00:00:00,2011-12-31 00:00:00,PRATE,surface,-94.6879,35.4329,4.92e-05
2011-12-31 00:00:00,2011-12-31 00:00:00,PRATE,surface,-93.7504,35.4329,5.87e-05
2011-12-31 00:00:00,2011-12-31 00:00:00,PRATE,surface,-92.8129,35.4329,5.8e-05
2011-12-31 00:00:00,2011-12-31 00:00:00,PRATE,surface,-107.813,36.3778,2.56e-05
2011-12-31 00:00:00,2011-12-31 00:00:00,PRATE,surface,-106.875,36.3778,3.89e-05
2011-12-31 00:00:00,2011-12-31 00:00:00,PRATE,surface,-105.938,36.3778,4.01e-05
2011-12-31 00:00:00,2011-12-31 00:00:00,PRATE,surface,-105,36.3778,4.06e-05
2011-12-31 00:00:00,2011-12-31 00:00:00,PRATE,surface,-104.063,36.3778,3.33e-05
2011-12-31 00:00:00,2011-12-31 00:00:00,PRATE,surface,-103.125,36.3778,2.78e-05
2011-12-31 00:00:00,2011-12-31 00:00:00,PRATE,surface,-102.188,36.3778,3.43e-05
2011-12-31 00:00:00,2011-12-31 00:00:00,PRATE,surface,-101.25,36.3778,4.36e-05
2011-12-31 00:00:00,2011-12-31 00:00:00,PRATE,surface,-100.313,36.3778,4.52e-05
2011-12-31 00:00:00,2011-12-31 00:00:00,PRATE,surface,-99.3754,36.3778,4.39e-05
2011-12-31 00:00:00,2011-12-31 00:00:00,PRATE,surface,-98.4379,36.3778,5.16e-05
2011-12-31 00:00:00,2011-12-31 00:00:00,PRATE,surface,-97.5004,36.3778,5.88e-05
2011-12-31 00:00:00,2011-12-31 00:00:00,PRATE,surface,-96.5629,36.3778,5.62e-05
2011-12-31 00:00:00,2011-12-31 00:00:00,PRATE,surface,-95.6254,36.3778,5.31e-05
2011-12-31 00:00:00,2011-12-31 00:00:00,PRATE,surface,-94.6879,36.3778,5.53e-05
2011-12-31 00:00:00,2011-12-31 00:00:00,PRATE,surface,-93.7504,36.3778,5.51e-05
2011-12-31 00:00:00,2011-12-31 00:00:00,PRATE,surface,-92.8129,36.3778,5.82e-05
