2012-06-17 00:00:00,2012-06-17 00:00:00,TMP,surface,-107.813,25.0393,303.424
2012-06-17 00:00:00,2012-06-17 00:00:00,TMP,surface,-106.875,25.0393,295.971
2012-06-17 00:00:00,2012-06-17 00:00:00,TMP,surface,-105.938,25.0393,291.197
2012-06-17 00:00:00,2012-06-17 00:00:00,TMP,surface,-105,25.0393,288.985
2012-06-17 00:00:00,2012-06-17 00:00:00,TMP,surface,-104.063,25.0393,293.141
2012-06-17 00:00:00,2012-06-17 00:00:00,TMP,surface,-103.125,25.0393,296.31
2012-06-17 00:00:00,2012-06-17 00:00:00,TMP,surface,-102.188,25.0393,295.322
2012-06-17 00:00:00,2012-06-17 00:00:00,TMP,surface,-101.25,25.0393,293.033
2012-06-17 00:00:00,2012-06-17 00:00:00,TMP,surface,-100.313,25.0393,293.165
2012-06-17 00:00:00,2012-06-17 00:00:00,TMP,surface,-99.3754,25.0393,296.795
2012-06-17 00:00:00,2012-06-17 00:00:00,TMP,surface,-98.4379,25.0393,300.435
2012-06-17 00:00:00,2012-06-17 00:00:00,TMP,surface,-97.5004,25.0393,302.883
2012-06-17 00:00:00,2012-06-17 00:00:00,TMP,surface,-96.5629,25.0393,303.046
2012-06-17 00:00:00,2012-06-17 00:00:00,TMP,surface,-95.6254,25.0393,303.2
2012-06-17 00:00:00,2012-06-17 00:00:00,TMP,surface,-94.6879,25.0393,303.086
2012-06-17 00:00:00,2012-06-17 00:00:00,TMP,surface,-93.7504,25.0393,302.806
2012-06-17 00:00:00,2012-06-17 00:00:00,TMP,surface,-92.8129,25.0393,302.606
2012-06-17 00:00:00,2012-06-17 00:00:00,TMP,surface,-107.813,25.9842,298.137
2012-06-17 00:00:00,2012-06-17 00:00:00,TMP,surface,-106.875,25.9842,292.419
2012-06-17 00:00:00,2012-06-17 00:00:00,TMP,surface,-105.938,25.9842,289.595
2012-06-17 00:00:00,2012-06-17 00:00:00,TMP,surface,-105,25.9842,290.8
2012-06-17 00:00:00,2012-06-17 00:00:00,TMP,surface,-104.063,25.9842,296.617
2012-06-17 00:00:00,2012-06-17 00:00:00,TMP,surface,-103.125,25.9842,298.813
2012-06-17 00:00:00,2012-06-17 00:00:00,TMP,surface,-102.188,25.9842,297.261
2012-06-17 00:00:00,2012-06-17 00:00:00,TMP,surface,-101.25,25.9842,296.136
2012-06-17 00:00:00,2012-06-17 00:00:00,TMP,surface,-100.313,25.9842,296.768
2012-06-17 00:00:00,2012-06-17 00:00:00,TMP,surface,-99.3754,25.9842,299.873
2012-06-17 00:00:00,2012-06-17 00:00:00,TMP,surface,-98.4379,25.9842,301.625
2012-06-17 00:00:00,2012-06-17 00:00:00,TMP,surface,-97.5004,25.9842,301.353
2012-06-17 00:00:00,2012-06-17 00:00:00,TMP,surface,-96.5629,25.9842,302.529
2012-06-17 00:00:00,2012-06-17 00:00:00,TMP,surface,-95.6254,25.9842,302.862
2012-06-17 00:00:00,2012-06-17 00:00:00,TMP,surface,-94.6879,25.9842,302.845
2012-06-17 00:00:00,2012-06-17 00:00:00,TMP,surface,-93.7504,25.9842,302.75
2012-06-17 00:00:00,2012-06-17 00:00:00,TMP,surface,-92.8129,25.9842,302.701
2012-06-17 00:00:00,2012-06-17 00:00:00,TMP,surface,-107.813,26.929,293.253
2012-06-17 00:00:00,2012-06-17 00:00:00,TMP,surface,-106.875,26.929,289.827
2012-06-17 00:00:00,2012-06-17 00:00:00,TMP,surface,-105.938,26.929,290.43
2012-06-17 00:00:00,2012-06-17 00:00:00,TMP,surface,-105,26.929,294.731
2012-06-17 00:00:00,2012-06-17 00:00:00,TMP,surface,-104.063,26.929,298.424
2012-06-17 00:00:00,2012-06-17 00:00:00,TMP,surface,-103.125,26.929,298.333
2012-06-17 00:00:00,2012-06-17 00:00:00,TMP,surface,-102.188,26.929,297.214
2012-06-17 00:00:00,2012-06-17 00:00:00,TMP,surface,-101.25,26.929,297.805
2012-06-17 00:00:00,2012-06-17 00:00:00,TMP,surface,-100.313,26.929,300.214
2012-06-17 00:00:00,2012-06-17 00:00:00,TMP,surface,-99.3754,26.929,301.773
2012-06-17 00:00:00,2012-06-17 00:00:00,TMP,surface,-98.4379,26.929,300.872
2012-06-17 00:00:00,2012-06-17 00:00:00,TMP,surface,-97.5004,26.929,301.505
2012-06-17 00:00:00,2012-06-17 00:00:00,TMP,surface,-96.5629,26.929,301.957
2012-06-17 00:00:00,2012-06-17 00:00:00,TMP,surface,-95.6254,26.929,302.454
2012-06-17 00:00:00,2012-06-17 00:00:00,TMP,surface,-94.6879,26.929,302.699
2012-06-17 00:00:00,2012-06-17 00:00:00,TMP,surface,-93.7504,26.929,302.702
2012-06-17 00:00:00,2012-06-17 00:00:00,TMP,surface,-92.8129,26.929,302.665
2012-06-17 00:00:00,2012-06-17 00:00:00,TMP,surface,-107.813,27.8739,290.987
2012-06-17 00:00:00,2012-06-17 00:00:00,TMP,surface,-106.875,27.8739,289.307
2012-06-17 00:00:00,2012-06-17 00:00:00,TMP,surface,-105.938,27.8739,292.19
2012-06-17 00:00:00,2012-06-17 00:00:00,TMP,surface,-105,27.8739,296.857
2012-06-17 00:00:00,2012-06-17 00:00:00,TMP,surface,-104.063,27.8739,297.926
2012-06-17 00:00:00,2012-06-17 00:00:00,TMP,surface,-103.125,27.8739,296.729
2012-06-17 00:00:00,2012-06-17 00:00:00,TMP,surface,-102.188,27.8739,296.531
2012-06-17 00:00:00,2012-06-17 00:00:00,TMP,surface,-101.25,27.8739,299.006
2012-06-17 00:00:00,2012-06-17 00:00:00,TMP,surface,-100.313,27.8739,301.291
2012-06-17 00:00:00,2012-06-17 00:00:00,TMP,surface,-99.3754,27.8739,301.434
2012-06-17 00:00:00,2012-06-17 00:00:00,TMP,surface,-98.4379,27.8739,300.101
2012-06-17 00:00:00,2012-06-17 00:00:00,TMP,surface,-97.5004,27.8739,300.606
2012-06-17 00:00:00,2012-06-17 00:00:00,TMP,surface,-96.5629,27.8739,302.032
2012-06-17 00:00:00,2012-06-17 00:00:00,TMP,surface,-95.6254,27.8739,302.257
2012-06-17 00:00:00,2012-06-17 00:00:00,TMP,surface,-94.6879,27.8739,302.398
2012-06-17 00:00:00,2012-06-17 00:00:00,TMP,surface,-93.7504,27.8739,302.451
2012-06-17 00:00:00,2012-06-17 00:00:00,TMP,surface,-92.8129,27.8739,302.422
2012-06-17 00:00:00,2012-06-17 00:00:00,TMP,surface,-107.813,28.8188,289.905
2012-06-17 00:00:00,2012-06-17 00:00:00,TMP,surface,-106.875,28.8188,290.03
2012-06-17 00:00:00,2012-06-17 00:00:00,TMP,surface,-105.938,28.8188,294.454
2012-06-17 00:00:00,2012-06-17 00:00:00,TMP,surface,-105,28.8188,297.84
2012-06-17 00:00:00,2012-06-17 00:00:00,TMP,surface,-104.063,28.8188,297.453
2012-06-17 00:00:00,2012-06-17 00:00:00,TMP,surface,-103.125,28.8188,297.033
2012-06-17 00:00:00,2012-06-17 00:00:00,TMP,surface,-102.188,28.8188,297.507
2012-06-17 00:00:00,2012-06-17 00:00:00,TMP,surface,-101.25,28.8188,299.48
2012-06-17 00:00:00,2012-06-17 00:00:00,TMP,surface,-100.313,28.8188,300.573
2012-06-17 00:00:00,2012-06-17 00:00:00,TMP,surface,-99.3754,28.8188,299.886
2012-06-17 00:00:00,2012-06-17 00:00:00,TMP,surface,-98.4379,28.8188,298.598
2012-06-17 00:00:00,2012-06-17 00:00:00,TMP,surface,-97.5004,28.8188,298.121
2012-06-17 00:00:00,2012-06-17 00:00:00,TMP,surface,-96.5629,28.8188,298.617
2012-06-17 00:00:00,2012-06-17 00:00:00,TMP,surface,-95.6254,28.8188,300.217
2012-06-17 00:00:00,2012-06-17 00:00:00,TMP,surface,-94.6879,28.8188,302.133
2012-06-17 00:00:00,2012-06-17 00:00:00,TMP,surface,-93.7504,28.8188,302.329
2012-06-17 00:00:00,2012-06-17 00:00:00,TMP,surface,-92.8129,28.8188,302.345
2012-06-17 00:00:00,2012-06-17 00:00:00,TMP,surface,-107.813,29.7637,291.905
2012-06-17 00:00:00,2012-06-17 00:00:00,TMP,surface,-106.875,29.7637,293.189
2012-06-17 00:00:00,2012-06-17 00:00:00,TMP,surface,-105.938,29.7637,296.622
2012-06-17 00:00:00,2012-06-17 00:00:00,TMP,surface,-105,29.7637,297.832
2012-06-17 00:00:00,2012-06-17 00:00:00,TMP,surface,-104.063,29.7637,297.987
2012-06-17 00:00:00,2012-06-17 00:00:00,TMP,surface,-103.125,29.7637,298.434
2012-06-17 00:00:00,2012-06-17 00:00:00,TMP,surface,-102.188,29.7637,299.176
2012-06-17 00:00:00,2012-06-17 00:00:00,TMP,surface,-101.25,29.7637,299.704
2012-06-17 00:00:00,2012-06-17 00:00:00,TMP,surface,-100.313,29.7637,299.264
2012-06-17 00:00:00,2012-06-17 00:00:00,TMP,surface,-99.3754,29.7637,298.197
2012-06-17 00:00:00,2012-06-17 00:00:00,TMP,surface,-98.4379,29.7637,297.635
2012-06-17 00:00:00,2012-06-17 00:00:00,TMP,surface,-97.5004,29.7637,297.707
2012-06-17 00:00:00,2012-06-17 00:00:00,TMP,surface,-96.5629,29.7637,297.921
2012-06-17 00:00:00,2012-06-17 00:00:00,TMP,surface,-95.6254,29.7637,298.246
2012-06-17 00:00:00,2012-06-17 00:00:00,TMP,surface,-94.6879,29.7637,299.717
2012-06-17 00:00:00,2012-06-17 00:00:00,TMP,surface,-93.7504,29.7637,301.457
2012-06-17 00:00:00,2012-06-17 00:00:00,TMP,surface,-92.8129,29.7637,299.245
2012-06-17 00:00:00,2012-06-17 00:00:00,TMP,surface,-107.813,30.7085,296.099
2012-06-17 00:00:00,2012-06-17 00:00:00,TMP,surface,-106.875,30.7085,297.587
2012-06-17 00:00:00,2012-06-17 00:00:00,TMP,surface,-105.938,30.7085,297.808
2012-06-17 00:00:00,2012-06-17 00:00:00,TMP,surface,-105,30.7085,297.709
2012-06-17 00:00:00,2012-06-17 00:00:00,TMP,surface,-104.063,30.7085,297.705
2012-06-17 00:00:00,2012-06-17 00:00:00,TMP,surface,-103.125,30.7085,299.144
2012-06-17 00:00:00,2012-06-17 00:00:00,TMP,surface,-102.188,30.7085,299.731
2012-06-17 00:00:00,2012-06-17 00:00:00,TMP,surface,-101.25,30.7085,299.322
2012-06-17 00:00:00,2012-06-17 00:00:00,TMP,surface,-100.313,30.7085,298.587
2012-06-17 00:00:00,2012-06-17 00:00:00,TMP,surface,-99.3754,30.7085,298.067
2012-06-17 00:00:00,2012-06-17 00:00:00,TMP,surface,-98.4379,30.7085,298.187
2012-06-17 00:00:00,2012-06-17 00:00:00,TMP,surface,-97.5004,30.7085,298.549
2012-06-17 00:00:00,2012-06-17 00:00:00,TMP,surface,-96.5629,30.7085,298.608
2012-06-17 00:00:00,2012-06-17 00:00:00,TMP,surface,-95.6254,30.7085,298.486
2012-06-17 00:00:00,2012-06-17 00:00:00,TMP,surface,-94.6879,30.7085,298.481
2012-06-17 00:00:00,2012-06-17 00:00:00,TMP,surface,-93.7504,30.7085,298.523
2012-06-17 00:00:00,2012-06-17 00:00:00,TMP,surface,-92.8129,30.7085,298.369
2012-06-17 00:00:00,2012-06-17 00:00:00,TMP,surface,-107.813,31.6534,297.87
2012-06-17 00:00:00,2012-06-17 00:00:00,TMP,surface,-106.875,31.6534,298.427
2012-06-17 00:00:00,2012-06-17 00:00:00,TMP,surface,-105.938,31.6534,297.427
2012-06-17 00:00:00,2012-06-17 00:00:00,TMP,surface,-105,31.6534,297.065
2012-06-17 00:00:00,2012-06-17 00:00:00,TMP,surface,-104.063,31.6534,298.131
2012-06-17 00:00:00,2012-06-17 00:00:00,TMP,surface,-103.125,31.6534,299.158
2012-06-17 00:00:00,2012-06-17 00:00:00,TMP,surface,-102.188,31.6534,299.333
2012-06-17 00:00:00,2012-06-17 00:00:00,TMP,surface,-101.25,31.6534,298.826
2012-06-17 00:00:00,2012-06-17 00:00:00,TMP,surface,-100.313,31.6534,298.533
2012-06-17 00:00:00,2012-06-17 00:00:00,TMP,surface,-99.3754,31.6534,298.798
2012-06-17 00:00:00,2012-06-17 00:00:00,TMP,surface,-98.4379,31.6534,299.214
2012-06-17 00:00:00,2012-06-17 00:00:00,TMP,surface,-97.5004,31.6534,299.432
2012-06-17 00:00:00,2012-06-17 00:00:00,TMP,surface,-96.5629,31.6534,299.246
2012-06-17 00:00:00,2012-06-17 00:00:00,TMP,surface,-95.6254,31.6534,298.745
2012-06-17 00:00:00,2012-06-17 00:00:00,TMP,surface,-94.6879,31.6534,298.318
2012-06-17 00:00:00,2012-06-17 00:00:00,TMP,surface,-93.7504,31.6534,298.165
2012-06-17 00:00:00,2012-06-17 00:00:00,TMP,surface,-92.8129,31.6534,298.28
2012-06-17 00:00:00,2012-06-17 00:00:00,TMP,surface,-107.813,32.5983,294.925
2012-06-17 00:00:00,2012-06-17 00:00:00,TMP,surface,-106.875,32.5983,295.736
2012-06-17 00:00:00,2012-06-17 00:00:00,TMP,surface,-105.938,32.5983,295.969
2012-06-17 00:00:00,2012-06-17 00:00:00,TMP,surface,-105,32.5983,295.952
2012-06-17 00:00:00,2012-06-17 00:00:00,TMP,surface,-104.063,32.5983,297.299
2012-06-17 00:00:00,2012-06-17 00:00:00,TMP,surface,-103.125,32.5983,298.121
2012-06-17 00:00:00,2012-06-17 00:00:00,TMP,surface,-102.188,32.5983,298.313
2012-06-17 00:00:00,2012-06-17 00:00:00,TMP,surface,-101.25,32.5983,298.347
2012-06-17 00:00:00,2012-06-17 00:00:00,TMP,surface,-100.313,32.5983,299.003
2012-06-17 00:00:00,2012-06-17 00:00:00,TMP,surface,-99.3754,32.5983,299.731
2012-06-17 00:00:00,2012-06-17 00:00:00,TMP,surface,-98.4379,32.5983,299.869
2012-06-17 00:00:00,2012-06-17 00:00:00,TMP,surface,-97.5004,32.5983,299.675
2012-06-17 00:00:00,2012-06-17 00:00:00,TMP,surface,-96.5629,32.5983,299.488
2012-06-17 00:00:00,2012-06-17 00:00:00,TMP,surface,-95.6254,32.5983,299.261
2012-06-17 00:00:00,2012-06-17 00:00:00,TMP,surface,-94.6879,32.5983,298.92
2012-06-17 00:00:00,2012-06-17 00:00:00,TMP,surface,-93.7504,32.5983,298.64
2012-06-17 00:00:00,2012-06-17 00:00:00,TMP,surface,-92.8129,32.5983,298.813
2012-06-17 00:00:00,2012-06-17 00:00:00,TMP,surface,-107.813,33.5432,291.421
2012-06-17 00:00:00,2012-06-17 00:00:00,TMP,surface,-106.875,33.5432,293.043
2012-06-17 00:00:00,2012-06-17 00:00:00,TMP,surface,-105.938,33.5432,293.851
2012-06-17 00:00:00,2012-06-17 00:00:00,TMP,surface,-105,33.5432,294.737
2012-06-17 00:00:00,2012-06-17 00:00:00,TMP,surface,-104.063,33.5432,296.457
2012-06-17 00:00:00,2012-06-17 00:00:00,TMP,surface,-103.125,33.5432,296.968
2012-06-17 00:00:00,2012-06-17 00:00:00,TMP,surface,-102.188,33.5432,296.965
2012-06-17 00:00:00,2012-06-17 00:00:00,TMP,surface,-101.25,33.5432,297.749
2012-06-17 00:00:00,2012-06-17 00:00:00,TMP,surface,-100.313,33.5432,299.109
2012-06-17 00:00:00,2012-06-17 00:00:00,TMP,surface,-99.3754,33.5432,300.089
2012-06-17 00:00:00,2012-06-17 00:00:00,TMP,surface,-98.4379,33.5432,300.102
2012-06-17 00:00:00,2012-06-17 00:00:00,TMP,surface,-97.5004,33.5432,299.557
2012-06-17 00:00:00,2012-06-17 00:00:00,TMP,surface,-96.5629,33.5432,299.328
2012-06-17 00:00:00,2012-06-17 00:00:00,TMP,surface,-95.6254,33.5432,299.347
2012-06-17 00:00:00,2012-06-17 00:00:00,TMP,surface,-94.6879,33.5432,299.053
2012-06-17 00:00:00,2012-06-17 00:00:00,TMP,surface,-93.7504,33.5432,298.774
2012-06-17 00:00:00,2012-06-17 00:00:00,TMP,surface,-92.8129,33.5432,298.71
2012-06-17 00:00:00,2012-06-17 00:00:00,TMP,surface,-107.813,34.4881,289.998
2012-06-17 00:00:00,2012-06-17 00:00:00,TMP,surface,-106.875,34.4881,291.76
2012-06-17 00:00:00,2012-06-17 00:00:00,TMP,surface,-105.938,34.4881,292.555
2012-06-17 00:00:00,2012-06-17 00:00:00,TMP,surface,-105,34.4881,293.854
2012-06-17 00:00:00,2012-06-17 00:00:00,TMP,surface,-104.063,34.4881,295.105
2012-06-17 00:00:00,2012-06-17 00:00:00,TMP,surface,-103.125,34.4881,295.8
2012-06-17 00:00:00,2012-06-17 00:00:00,TMP,surface,-102.188,34.4881,296.213
2012-06-17 00:00:00,2012-06-17 00:00:00,TMP,surface,-101.25,34.4881,297.107
2012-06-17 00:00:00,2012-06-17 00:00:00,TMP,surface,-100.313,34.4881,298.544
2012-06-17 00:00:00,2012-06-17 00:00:00,TMP,surface,-99.3754,34.4881,299.499
2012-06-17 00:00:00,2012-06-17 00:00:00,TMP,surface,-98.4379,34.4881,299.63
2012-06-17 00:00:00,2012-06-17 00:00:00,TMP,surface,-97.5004,34.4881,299.275
2012-06-17 00:00:00,2012-06-17 00:00:00,TMP,surface,-96.5629,34.4881,298.894
2012-06-17 00:00:00,2012-06-17 00:00:00,TMP,surface,-95.6254,34.4881,298.579
2012-06-17 00:00:00,2012-06-17 00:00:00,TMP,surface,-94.6879,34.4881,298.083
2012-06-17 00:00:00,2012-06-17 00:00:00,TMP,surface,-93.7504,34.4881,297.561
2012-06-17 00:00:00,2012-06-17 00:00:00,TMP,surface,-92.8129,34.4881,297.627
2012-06-17 00:00:00,2012-06-17 00:00:00,TMP,surface,-107.813,35.4329,290.118
2012-06-17 00:00:00,2012-06-17 00:00:00,TMP,surface,-106.875,35.4329,290.465
2012-06-17 00:00:00,2012-06-17 00:00:00,TMP,surface,-105.938,35.4329,290.795
2012-06-17 00:00:00,2012-06-17 00:00:00,TMP,surface,-105,35.4329,291.523
2012-06-17 00:00:00,2012-06-17 00:00:00,TMP,surface,-104.063,35.4329,293.741
2012-06-17 00:00:00,2012-06-17 00:00:00,TMP,surface,-103.125,35.4329,295.182
2012-06-17 00:00:00,2012-06-17 00:00:00,TMP,surface,-102.188,35.4329,295.896
2012-06-17 00:00:00,2012-06-17 00:00:00,TMP,surface,-101.25,35.4329,296.667
2012-06-17 00:00:00,2012-06-17 00:00:00,TMP,surface,-100.313,35.4329,297.409
2012-06-17 00:00:00,2012-06-17 00:00:00,TMP,surface,-99.3754,35.4329,298.28
2012-06-17 00:00:00,2012-06-17 00:00:00,TMP,surface,-98.4379,35.4329,298.843
2012-06-17 00:00:00,2012-06-17 00:00:00,TMP,surface,-97.5004,35.4329,298.979
2012-06-17 00:00:00,2012-06-17 00:00:00,TMP,surface,-96.5629,35.4329,298.995
2012-06-17 00:00:00,2012-06-17 00:00:00,TMP,surface,-95.6254,35.4329,298.638
2012-06-17 00:00:00,2012-06-17 00:00:00,TMP,surface,-94.6879,35.4329,297.656
2012-06-17 00:00:00,2012-06-17 00:00:00,TMP,surface,-93.7504,35.4329,296.705
2012-06-17 00:00:00,2012-06-17 00:00:00,TMP,surface,-92.8129,35.4329,296.165
2012-06-17 00:00:00,2012-06-17 00:00:00,TMP,surface,-107.813,36.3778,289.232
2012-06-17 00:00:00,2012-06-17 00:00:00,TMP,surface,-106.875,36.3778,286.961
2012-06-17 00:00:00,2012-06-17 00:00:00,TMP,surface,-105.938,36.3778,287.673
2012-06-17 00:00:00,2012-06-17 00:00:00,TMP,surface,-105,36.3778,288.721
2012-06-17 00:00:00,2012-06-17 00:00:00,TMP,surface,-104.063,36.3778,291.438
2012-06-17 00:00:00,2012-06-17 00:00:00,TMP,surface,-103.125,36.3778,293.803
2012-06-17 00:00:00,2012-06-17 00:00:00,TMP,surface,-102.188,36.3778,295.421
2012-06-17 00:00:00,2012-06-17 00:00:00,TMP,surface,-101.25,36.3778,296.253
2012-06-17 00:00:00,2012-06-17 00:00:00,TMP,surface,-100.313,36.3778,296.826
2012-06-17 00:00:00,2012-06-17 00:00:00,TMP,surface,-99.3754,36.3778,297.315
2012-06-17 00:00:00,2012-06-17 00:00:00,TMP,surface,-98.4379,36.3778,297.83
2012-06-17 00:00:00,2012-06-17 00:00:00,TMP,surface,-97.5004,36.3778,298.261
2012-06-17 00:00:00,2012-06-17 00:00:00,TMP,surface,-96.5629,36.3778,298.52
2012-06-17 00:00:00,2012-06-17 00:00:00,TMP,surface,-95.6254,36.3778,298.23
2012-06-17 00:00:00,2012-06-17 00:00:00,TMP,surface,-94.6879,36.3778,297.123
2012-06-17 00:00:00,2012-06-17 00:00:00,TMP,surface,-93.7504,36.3778,295.896
2012-06-17 00:00:00,2012-06-17 00:00:00,TMP,surface,-92.8129,36.3778,295.086
2012-06-17 00:00:00,2012-06-17 00:00:00,PRATE,surface,-107.813,25.0393,1.77e-05
2012-06-17 00:00:00,2012-06-17 00:00:00,PRATE,surface,-106.875,25.0393,9.46e-05
2012-06-17 00:00:00,2012-06-17 00:00:00,PRATE,surface,-105.938,25.0393,0.0001179
2012-06-17 00:00:00,2012-06-17 00:00:00,PRATE,surface,-105,25.0393,5.44e-05
2012-06-17 00:00:00,2012-06-17 00:00:00,PRATE,surface,-104.063,25.0393,7.7e-06
2012-06-17 00:00:00,2012-06-17 00:00:00,PRATE,surface,-103.125,25.0393,1.2e-06
2012-06-17 00:00:00,2012-06-17 00:00:00,PRATE,surface,-102.188,25.0393,2.6e-06
2012-06-17 00:00:00,2012-06-17 00:00:00,PRATE,surface,-101.25,25.0393,9.4e-06
2012-06-17 00:00:00,2012-06-17 00:00:00,PRATE,surface,-100.313,25.0393,3.47e-05
2012-06-17 00:00:00,2012-06-17 00:00:00,PRATE,surface,-99.3754,25.0393,2.9e-05
2012-06-17 00:00:00,2012-06-17 00:00:00,PRATE,surface,-98.4379,25.0393,1.53e-05
2012-06-17 00:00:00,2012-06-17 00:00:00,PRATE,surface,-97.5004,25.0393,5.6e-05
2012-06-17 00:00:00,2012-06-17 00:00:00,PRATE,surface,-96.5629,25.0393,0.0001198
2012-06-17 00:00:00,2012-06-17 00:00:00,PRATE,surface,-95.6254,25.0393,0.000108
2012-06-17 00:00:00,2012-06-17 00:00:00,PRATE,surface,-94.6879,25.0393,5.2e-05
2012-06-17 00:00:00,2012-06-17 00:00:00,PRATE,surface,-93.7504,25.0393,8.6e-05
2012-06-17 00:00:00,2012-06-17 00:00:00,PRATE,surface,-92.8129,25.0393,9.21e-05
2012-06-17 00:00:00,2012-06-17 00:00:00,PRATE,surface,-107.813,25.9842,5.39e-05
2012-06-17 00:00:00,2012-06-17 00:00:00,PRATE,surface,-106.875,25.9842,0.0001071
2012-06-17 00:00:00,2012-06-17 00:00:00,PRATE,surface,-105.938,25.9842,8.13e-05
2012-06-17 00:00:00,2012-06-17 00:00:00,PRATE,surface,-105,25.9842,3.86e-05
2012-06-17 00:00:00,2012-06-17 00:00:00,PRATE,surface,-104.063,25.9842,1.4e-06
2012-06-17 00:00:00,2012-06-17 00:00:00,PRATE,surface,-103.125,25.9842,7e-07
2012-06-17 00:00:00,2012-06-17 00:00:00,PRATE,surface,-102.188,25.9842,2.2e-06
2012-06-17 00:00:00,2012-06-17 00:00:00,PRATE,surface,-101.25,25.9842,8e-06
2012-06-17 00:00:00,2012-06-17 00:00:00,PRATE,surface,-100.313,25.9842,2.21e-05
2012-06-17 00:00:00,2012-06-17 00:00:00,PRATE,surface,-99.3754,25.9842,1.85e-05
2012-06-17 00:00:00,2012-06-17 00:00:00,PRATE,surface,-98.4379,25.9842,2.18e-05
2012-06-17 00:00:00,2012-06-17 00:00:00,PRATE,surface,-97.5004,25.9842,5.62e-05
2012-06-17 00:00:00,2012-06-17 00:00:00,PRATE,surface,-96.5629,25.9842,0.0001459
2012-06-17 00:00:00,2012-06-17 00:00:00,PRATE,surface,-95.6254,25.9842,0.0001154
2012-06-17 00:00:00,2012-06-17 00:00:00,PRATE,surface,-94.6879,25.9842,7.41e-05
2012-06-17 00:00:00,2012-06-17 00:00:00,PRATE,surface,-93.7504,25.9842,7.32e-05
2012-06-17 00:00:00,2012-06-17 00:00:00,PRATE,surface,-92.8129,25.9842,7.26e-05
2012-06-17 00:00:00,2012-06-17 00:00:00,PRATE,surface,-107.813,26.929,8.14e-05
2012-06-17 00:00:00,2012-06-17 00:00:00,PRATE,surface,-106.875,26.929,8.92e-05
2012-06-17 00:00:00,2012-06-17 00:00:00,PRATE,surface,-105.938,26.929,7.35e-05
2012-06-17 00:00:00,2012-06-17 00:00:00,PRATE,surface,-105,26.929,1.88e-05
2012-06-17 00:00:00,2012-06-17 00:00:00,PRATE,surface,-104.063,26.929,5.4e-06
2012-06-17 00:00:00,2012-06-17 00:00:00,PRATE,surface,-103.125,26.929,3e-06
2012-06-17 00:00:00,2012-06-17 00:00:00,PRATE,surface,-102.188,26.929,4.2e-06
2012-06-17 00:00:00,2012-06-17 00:00:00,PRATE,surface,-101.25,26.929,7.3e-06
2012-06-17 00:00:00,2012-06-17 00:00:00,PRATE,surface,-100.313,26.929,7.6e-06
2012-06-17 00:00:00,2012-06-17 00:00:00,PRATE,surface,-99.3754,26.929,1.17e-05
2012-06-17 00:00:00,2012-06-17 00:00:00,PRATE,surface,-98.4379,26.929,2.34e-05
2012-06-17 00:00:00,2012-06-17 00:00:00,PRATE,surface,-97.5004,26.929,0.0001053
2012-06-17 00:00:00,2012-06-17 00:00:00,PRATE,surface,-96.5629,26.929,0.0001626
2012-06-17 00:00:00,2012-06-17 00:00:00,PRATE,surface,-95.6254,26.929,0.0001128
2012-06-17 00:00:00,2012-06-17 00:00:00,PRATE,surface,-94.6879,26.929,4.38e-05
2012-06-17 00:00:00,2012-06-17 00:00:00,PRATE,surface,-93.7504,26.929,4.93e-05
2012-06-17 00:00:00,2012-06-17 00:00:00,PRATE,surface,-92.8129,26.929,7.32e-05
2012-06-17 00:00:00,2012-06-17 00:00:00,PRATE,surface,-107.813,27.8739,8.39e-05
2012-06-17 00:00:00,2012-06-17 00:00:00,PRATE,surface,-106.875,27.8739,6.62e-05
2012-06-17 00:00:00,2012-06-17 00:00:00,PRATE,surface,-105.938,27.8739,4.49e-05
2012-06-17 00:00:00,2012-06-17 00:00:00,PRATE,surface,-105,27.8739,1.33e-05
2012-06-17 00:00:00,2012-06-17 00:00:00,PRATE,surface,-104.063,27.8739,1.35e-05
2012-06-17 00:00:00,2012-06-17 00:00:00,PRATE,surface,-103.125,27.8739,1.11e-05
2012-06-17 00:00:00,2012-06-17 00:00:00,PRATE,surface,-102.188,27.8739,8.9e-06
2012-06-17 00:00:00,2012-06-17 00:00:00,PRATE,surface,-101.25,27.8739,7.4e-06
2012-06-17 00:00:00,2012-06-17 00:00:00,PRATE,surface,-100.313,27.8739,4.8e-06
2012-06-17 00:00:00,2012-06-17 00:00:00,PRATE,surface,-99.3754,27.8739,6.9e-06
2012-06-17 00:00:00,2012-06-17 00:00:00,PRATE,surface,-98.4379,27.8739,4.32e-05
2012-06-17 00:00:00,2012-06-17 00:00:00,PRATE,surface,-97.5004,27.8739,8.71e-05
2012-06-17 00:00:00,2012-06-17 00:00:00,PRATE,surface,-96.5629,27.8739,9.75e-05
2012-06-17 00:00:00,2012-06-17 00:00:00,PRATE,surface,-95.6254,27.8739,7.87e-05
2012-06-17 00:00:00,2012-06-17 00:00:00,PRATE,surface,-94.6879,27.8739,6.37e-05
2012-06-17 00:00:00,2012-06-17 00:00:00,PRATE,surface,-93.7504,27.8739,6.45e-05
2012-06-17 00:00:00,2012-06-17 00:00:00,PRATE,surface,-92.8129,27.8739,5.19e-05
2012-06-17 00:00:00,2012-06-17 00:00:00,PRATE,surface,-107.813,28.8188,4.55e-05
2012-06-17 00:00:00,2012-06-17 00:00:00,PRATE,surface,-106.875,28.8188,4.09e-05
2012-06-17 00:00:00,2012-06-17 00:00:00,PRATE,surface,-105.938,28.8188,2.72e-05
2012-06-17 00:00:00,2012-06-17 00:00:00,PRATE,surface,-105,28.8188,1.18e-05
2012-06-17 00:00:00,2012-06-17 00:00:00,PRATE,surface,-104.063,28.8188,1.53e-05
2012-06-17 00:00:00,2012-06-17 00:00:00,PRATE,surface,-103.125,28.8188,1e-05
2012-06-17 00:00:00,2012-06-17 00:00:00,PRATE,surface,-102.188,28.8188,5.9e-06
2012-06-17 00:00:00,2012-06-17 00:00:00,PRATE,surface,-101.25,28.8188,2.7e-06
2012-06-17 00:00:00,2012-06-17 00:00:00,PRATE,surface,-100.313,28.8188,8e-07
2012-06-17 00:00:00,2012-06-17 00:00:00,PRATE,surface,-99.3754,28.8188,4.9e-06
2012-06-17 00:00:00,2012-06-17 00:00:00,PRATE,surface,-98.4379,28.8188,3.33e-05
2012-06-17 00:00:00,2012-06-17 00:00:00,PRATE,surface,-97.5004,28.8188,6.53e-05
2012-06-17 00:00:00,2012-06-17 00:00:00,PRATE,surface,-96.5629,28.8188,7.69e-05
2012-06-17 00:00:00,2012-06-17 00:00:00,PRATE,surface,-95.6254,28.8188,7.71e-05
2012-06-17 00:00:00,2012-06-17 00:00:00,PRATE,surface,-94.6879,28.8188,7.34e-05
2012-06-17 00:00:00,2012-06-17 00:00:00,PRATE,surface,-93.7504,28.8188,5.81e-05
2012-06-17 00:00:00,2012-06-17 00:00:00,PRATE,surface,-92.8129,28.8188,4.02e-05
2012-06-17 00:00:00,2012-06-17 00:00:00,PRATE,surface,-107.813,29.7637,1.01e-05
2012-06-17 00:00:00,2012-06-17 00:00:00,PRATE,surface,-106.875,29.7637,1.5e-05
2012-06-17 00:00:00,2012-06-17 00:00:00,PRATE,surface,-105.938,29.7637,5e-06
2012-06-17 00:00:00,2012-06-17 00:00:00,PRATE,surface,-105,29.7637,8.7e-06
2012-06-17 00:00:00,2012-06-17 00:00:00,PRATE,surface,-104.063,29.7637,6.9e-06
2012-06-17 00:00:00,2012-06-17 00:00:00,PRATE,surface,-103.125,29.7637,2.4e-06
2012-06-17 00:00:00,2012-06-17 00:00:00,PRATE,surface,-102.188,29.7637,2.1e-06
2012-06-17 00:00:00,2012-06-17 00:00:00,PRATE,surface,-101.25,29.7637,1.3e-06
2012-06-17 00:00:00,2012-06-17 00:00:00,PRATE,surface,-100.313,29.7637,4.6e-06
2012-06-17 00:00:00,2012-06-17 00:00:00,PRATE,surface,-99.3754,29.7637,7.6e-06
2012-06-17 00:00:00,2012-06-17 00:00:00,PRATE,surface,-98.4379,29.7637,1.76e-05
2012-06-17 00:00:00,2012-06-17 00:00:00,PRATE,surface,-97.5004,29.7637,3.87e-05
2012-06-17 00:00:00,2012-06-17 00:00:00,PRATE,surface,-96.5629,29.7637,5.94e-05
2012-06-17 00:00:00,2012-06-17 00:00:00,PRATE,surface,-95.6254,29.7637,6.07e-05
2012-06-17 00:00:00,2012-06-17 00:00:00,PRATE,surface,-94.6879,29.7637,4.32e-05
2012-06-17 00:00:00,2012-06-17 00:00:00,PRATE,surface,-93.7504,29.7637,3.15e-05
2012-06-17 00:00:00,2012-06-17 00:00:00,PRATE,surface,-92.8129,29.7637,2.94e-05
2012-06-17 00:00:00,2012-06-17 00:00:00,PRATE,surface,-107.813,30.7085,2e-07
2012-06-17 00:00:00,2012-06-17 00:00:00,PRATE,surface,-106.875,30.7085,7e-07
2012-06-17 00:00:00,2012-06-17 00:00:00,PRATE,surface,-105.938,30.7085,4.1e-06
2012-06-17 00:00:00,2012-06-17 00:00:00,PRATE,surface,-105,30.7085,9.8e-06
2012-06-17 00:00:00,2012-06-17 00:00:00,PRATE,surface,-104.063,30.7085,3.4e-06
2012-06-17 00:00:00,2012-06-17 00:00:00,PRATE,surface,-103.125,30.7085,1e-06
2012-06-17 00:00:00,2012-06-17 00:00:00,PRATE,surface,-102.188,30.7085,2.1e-06
2012-06-17 00:00:00,2012-06-17 00:00:00,PRATE,surface,-101.25,30.7085,3.1e-06
2012-06-17 00:00:00,2012-06-17 00:00:00,PRATE,surface,-100.313,30.7085,5.6e-06
2012-06-17 00:00:00,2012-06-17 00:00:00,PRATE,surface,-99.3754,30.7085,6.8e-06
2012-06-17 00:00:00,2012-06-17 00:00:00,PRATE,surface,-98.4379,30.7085,8.1e-06
2012-06-17 00:00:00,2012-06-17 00:00:00,PRATE,surface,-97.5004,30.7085,1.9e-05
2012-06-17 00:00:00,2012-06-17 00:00:00,PRATE,surface,-96.5629,30.7085,3.77e-05
2012-06-17 00:00:00,2012-06-17 00:00:00,PRATE,surface,-95.6254,30.7085,4.44e-05
2012-06-17 00:00:00,2012-06-17 00:00:00,PRATE,surface,-94.6879,30.7085,3.32e-05
2012-06-17 00:00:00,2012-06-17 00:00:00,PRATE,surface,-93.7504,30.7085,2.38e-05
2012-06-17 00:00:00,2012-06-17 00:00:00,PRATE,surface,-92.8129,30.7085,1.95e-05
2012-06-17 00:00:00,2012-06-17 00:00:00,PRATE,surface,-107.813,31.6534,1e-07
2012-06-17 00:00:00,2012-06-17 00:00:00,PRATE,surface,-106.875,31.6534,5e-07
2012-06-17 00:00:00,2012-06-17 00:00:00,PRATE,surface,-105.938,31.6534,3.7e-06
2012-06-17 00:00:00,2012-06-17 00:00:00,PRATE,surface,-105,31.6534,1.14e-05
2012-06-17 00:00:00,2012-06-17 00:00:00,PRATE,surface,-104.063,31.6534,4.7e-06
2012-06-17 00:00:00,2012-06-17 00:00:00,PRATE,surface,-103.125,31.6534,3.2e-06
2012-06-17 00:00:00,2012-06-17 00:00:00,PRATE,surface,-102.188,31.6534,2e-06
2012-06-17 00:00:00,2012-06-17 00:00:00,PRATE,surface,-101.25,31.6534,4.6e-06
2012-06-17 00:00:00,2012-06-17 00:00:00,PRATE,surface,-100.313,31.6534,7.3e-06
2012-06-17 00:00:00,2012-06-17 00:00:00,PRATE,surface,-99.3754,31.6534,5.8e-06
2012-06-17 00:00:00,2012-06-17 00:00:00,PRATE,surface,-98.4379,31.6534,4.7e-06
2012-06-17 00:00:00,2012-06-17 00:00:00,PRATE,surface,-97.5004,31.6534,8.5e-06
2012-06-17 00:00:00,2012-06-17 00:00:00,PRATE,surface,-96.5629,31.6534,1.83e-05
2012-06-17 00:00:00,2012-06-17 00:00:00,PRATE,surface,-95.6254,31.6534,3e-05
2012-06-17 00:00:00,2012-06-17 00:00:00,PRATE,surface,-94.6879,31.6534,3.45e-05
2012-06-17 00:00:00,2012-06-17 00:00:00,PRATE,surface,-93.7504,31.6534,2.88e-05
2012-06-17 00:00:00,2012-06-17 00:00:00,PRATE,surface,-92.8129,31.6534,2.31e-05
2012-06-17 00:00:00,2012-06-17 00:00:00,PRATE,surface,-107.813,32.5983,2.7e-06
2012-06-17 00:00:00,2012-06-17 00:00:00,PRATE,surface,-106.875,32.5983,6e-07
2012-06-17 00:00:00,2012-06-17 00:00:00,PRATE,surface,-105.938,32.5983,2.2e-06
2012-06-17 00:00:00,2012-06-17 00:00:00,PRATE,surface,-105,32.5983,9.8e-06
2012-06-17 00:00:00,2012-06-17 00:00:00,PRATE,surface,-104.063,32.5983,5.6e-06
2012-06-17 00:00:00,2012-06-17 00:00:00,PRATE,surface,-103.125,32.5983,5.3e-06
2012-06-17 00:00:00,2012-06-17 00:00:00,PRATE,surface,-102.188,32.5983,3.8e-06
2012-06-17 00:00:00,2012-06-17 00:00:00,PRATE,surface,-101.25,32.5983,5.1e-06
2012-06-17 00:00:00,2012-06-17 00:00:00,PRATE,surface,-100.313,32.5983,6.2e-06
2012-06-17 00:00:00,2012-06-17 00:00:00,PRATE,surface,-99.3754,32.5983,8.2e-06
2012-06-17 00:00:00,2012-06-17 00:00:00,PRATE,surface,-98.4379,32.5983,1.38e-05
2012-06-17 00:00:00,2012-06-17 00:00:00,PRATE,surface,-97.5004,32.5983,1.92e-05
2012-06-17 00:00:00,2012-06-17 00:00:00,PRATE,surface,-96.5629,32.5983,2.2e-05
2012-06-17 00:00:00,2012-06-17 00:00:00,PRATE,surface,-95.6254,32.5983,2.61e-05
2012-06-17 00:00:00,2012-06-17 00:00:00,PRATE,surface,-94.6879,32.5983,3.55e-05
2012-06-17 00:00:00,2012-06-17 00:00:00,PRATE,surface,-93.7504,32.5983,4.33e-05
2012-06-17 00:00:00,2012-06-17 00:00:00,PRATE,surface,-92.8129,32.5983,3.47e-05
2012-06-17 00:00:00,2012-06-17 00:00:00,PRATE,surface,-107.813,33.5432,8.8e-06
2012-06-17 00:00:00,2012-06-17 00:00:00,PRATE,surface,-106.875,33.5432,6.3e-06
2012-06-17 00:00:00,2012-06-17 00:00:00,PRATE,surface,-105.938,33.5432,5.8e-06
2012-06-17 00:00:00,2012-06-17 00:00:00,PRATE,surface,-105,33.5432,7.4e-06
2012-06-17 00:00:00,2012-06-17 00:00:00,PRATE,surface,-104.063,33.5432,5.5e-06
2012-06-17 00:00:00,2012-06-17 00:00:00,PRATE,surface,-103.125,33.5432,5.8e-06
2012-06-17 00:00:00,2012-06-17 00:00:00,PRATE,surface,-102.188,33.5432,6.7e-06
2012-06-17 00:00:00,2012-06-17 00:00:00,PRATE,surface,-101.25,33.5432,6e-06
2012-06-17 00:00:00,2012-06-17 00:00:00,PRATE,surface,-100.313,33.5432,8e-06
2012-06-17 00:00:00,2012-06-17 00:00:00,PRATE,surface,-99.3754,33.5432,1.08e-05
2012-06-17 00:00:00,2012-06-17 00:00:00,PRATE,surface,-98.4379,33.5432,1.68e-05
2012-06-17 00:00:00,2012-06-17 00:00:00,PRATE,surface,-97.5004,33.5432,2.49e-05
2012-06-17 00:00:00,2012-06-17 00:00:00,PRATE,surface,-96.5629,33.5432,2.6e-05
2012-06-17 00:00:00,2012-06-17 00:00:00,PRATE,surface,-95.6254,33.5432,2.1e-05
2012-06-17 00:00:00,2012-06-17 00:00:00,PRATE,surface,-94.6879,33.5432,2.09e-05
2012-06-17 00:00:00,2012-06-17 00:00:00,PRATE,surface,-93.7504,33.5432,2.47e-05
2012-06-17 00:00:00,2012-06-17 00:00:00,PRATE,surface,-92.8129,33.5432,2.76e-05
2012-06-17 00:00:00,2012-06-17 00:00:00,PRATE,surface,-107.813,34.4881,1.5e-05
2012-06-17 00:00:00,2012-06-17 00:00:00,PRATE,surface,-106.875,34.4881,5.3e-06
2012-06-17 00:00:00,2012-06-17 00:00:00,PRATE,surface,-105.938,34.4881,5.6e-06
2012-06-17 00:00:00,2012-06-17 00:00:00,PRATE,surface,-105,34.4881,1.01e-05
2012-06-17 00:00:00,2012-06-17 00:00:00,PRATE,surface,-104.063,34.4881,8.7e-06
2012-06-17 00:00:00,2012-06-17 00:00:00,PRATE,surface,-103.125,34.4881,6.2e-06
2012-06-17 00:00:00,2012-06-17 00:00:00,PRATE,surface,-102.188,34.4881,5e-06
2012-06-17 00:00:00,2012-06-17 00:00:00,PRATE,surface,-101.25,34.4881,5.4e-06
2012-06-17 00:00:00,2012-06-17 00:00:00,PRATE,surface,-100.313,34.4881,7.9e-06
2012-06-17 00:00:00,2012-06-17 00:00:00,PRATE,surface,-99.3754,34.4881,1.05e-05
2012-06-17 00:00:00,2012-06-17 00:00:00,PRATE,surface,-98.4379,34.4881,1.34e-05
2012-06-17 00:00:00,2012-06-17 00:00:00,PRATE,surface,-97.5004,34.4881,1.69e-05
2012-06-17 00:00:00,2012-06-17 00:00:00,PRATE,surface,-96.5629,34.4881,1.94e-05
2012-06-17 00:00:00,2012-06-17 00:00:00,PRATE,surface,-95.6254,34.4881,1.92e-05
2012-06-17 00:00:00,2012-06-17 00:00:00,PRATE,surface,-94.6879,34.4881,1.69e-05
2012-06-17 00:00:00,2012-06-17 00:00:00,PRATE,surface,-93.7504,34.4881,1.84e-05
2012-06-17 00:00:00,2012-06-17 00:00:00,PRATE,surface,-92.8129,34.4881,2.62e-05
2012-06-17 00:00:00,2012-06-17 00:00:00,PRATE,surface,-107.813,35.4329,7.1e-06
2012-06-17 00:00:00,2012-06-17 00:00:00,PRATE,surface,-106.875,35.4329,4.2e-06
2012-06-17 00:00:00,2012-06-17 00:00:00,PRATE,surface,-105.938,35.4329,4e-06
2012-06-17 00:00:00,2012-06-17 00:00:00,PRATE,surface,-105,35.4329,4.8e-06
2012-06-17 00:00:00,2012-06-17 00:00:00,PRATE,surface,-104.063,35.4329,7.7e-06
2012-06-17 00:00:00,2012-06-17 00:00:00,PRATE,surface,-103.125,35.4329,4.8e-06
2012-06-17 00:00:00,2012-06-17 00:00:00,PRATE,surface,-102.188,35.4329,5.4e-06
2012-06-17 00:00:00,2012-06-17 00:00:00,PRATE,surface,-101.25,35.4329,6e-06
2012-06-17 00:00:00,2012-06-17 00:00:00,PRATE,surface,-100.313,35.4329,9.1e-06
2012-06-17 00:00:00,2012-06-17 00:00:00,PRATE,surface,-99.3754,35.4329,1.1e-05
2012-06-17 00:00:00,2012-06-17 00:00:00,PRATE,surface,-98.4379,35.4329,1.31e-05
2012-06-17 00:00:00,2012-06-17 00:00:00,PRATE,surface,-97.5004,35.4329,1.35e-05
2012-06-17 00:00:00,2012-06-17 00:00:00,PRATE,surface,-96.5629,35.4329,1.28e-05
2012-06-17 00:00:00,2012-06-17 00:00:00,PRATE,surface,-95.6254,35.4329,1.45e-05
2012-06-17 00:00:00,2012-06-17 00:00:00,PRATE,surface,-94.6879,35.4329,1.81e-05
2012-06-17 00:00:00,2012-06-17 00:00:00,PRATE,surface,-93.7504,35.4329,2.2e-05
2012-06-17 00:00:00,2012-06-17 00:00:00,PRATE,surface,-92.8129,35.4329,2.62e-05
2012-06-17 00:00:00,2012-06-17 00:00:00,PRATE,surface,-107.813,36.3778,1.64e-05
2012-06-17 00:00:00,2012-06-17 00:00:00,PRATE,surface,-106.875,36.3778,9.7e-06
2012-06-17 00:00:00,2012-06-17 00:00:00,PRATE,surface,-105.938,36.3778,4.3e-06
2012-06-17 00:00:00,2012-06-17 00:00:00,PRATE,surface,-105,36.3778,7.3e-06
2012-06-17 00:00:00,2012-06-17 00:00:00,PRATE,surface,-104.063,36.3778,9.9e-06
2012-06-17 00:00:00,2012-06-17 00:00:00,PRATE,surface,-103.125,36.3778,8.6e-06
2012-06-17 00:00:00,2012-06-17 00:00:00,PRATE,surface,-102.188,36.3778,6.4e-06
2012-06-17 00:00:00,2012-06-17 00:00:00,PRATE,surface,-101.25,36.3778,7.3e-06
2012-06-17 00:00:00,2012-06-17 00:00:00,PRATE,surface,-100.313,36.3778,1.02e-05
2012-06-17 00:00:00,2012-06-17 00:00:00,PRATE,surface,-99.3754,36.3778,9.9e-06
2012-06-17 00:00:00,2012-06-17 00:00:00,PRATE,surface,-98.4379,36.3778,1.03e-05
2012-06-17 00:00:00,2012-06-17 00:00:00,PRATE,surface,-97.5004,36.3778,1.38e-05
2012-06-17 00:00:00,2012-06-17 00:00:00,PRATE,surface,-96.5629,36.3778,1.56e-05
2012-06-17 00:00:00,2012-06-17 00:00:00,PRATE,surface,-95.6254,36.3778,1.61e-05
2012-06-17 00:00:00,2012-06-17 00:00:00,PRATE,surface,-94.6879,36.3778,2.1e-05
2012-06-17 00:00:00,2012-06-17 00:00:00,PRATE,surface,-93.7504,36.3778,2.73e-05
2012-06-17 00:00:00,2012-06-17 00:00:00,PRATE,surface,-92.8129,36.3778,3.24e-05
