2012-02-23 00:00:00,2012-02-23 00:00:00,TMP,surface,-107.813,25.0393,302.739
2012-02-23 00:00:00,2012-02-23 00:00:00,TMP,surface,-106.875,25.0393,297.747
2012-02-23 00:00:00,2012-02-23 00:00:00,TMP,surface,-105.938,25.0393,293.832
2012-02-23 00:00:00,2012-02-23 00:00:00,TMP,surface,-105,25.0393,292.992
2012-02-23 00:00:00,2012-02-23 00:00:00,TMP,surface,-104.063,25.0393,297.358
2012-02-23 00:00:00,2012-02-23 00:00:00,TMP,surface,-103.125,25.0393,299.859
2012-02-23 00:00:00,2012-02-23 00:00:00,TMP,surface,-102.188,25.0393,298.534
2012-02-23 00:00:00,2012-02-23 00:00:00,TMP,surface,-101.25,25.0393,295.541
2012-02-23 00:00:00,2012-02-23 00:00:00,TMP,surface,-100.313,25.0393,295.515
2012-02-23 00:00:00,2012-02-23 00:00:00,TMP,surface,-99.3754,25.0393,299.222
2012-02-23 00:00:00,2012-02-23 00:00:00,TMP,surface,-98.4379,25.0393,302.326
2012-02-23 00:00:00,2012-02-23 00:00:00,TMP,surface,-97.5004,25.0393,301.938
2012-02-23 00:00:00,2012-02-23 00:00:00,TMP,surface,-96.5629,25.0393,301.6
2012-02-23 00:00:00,2012-02-23 00:00:00,TMP,surface,-95.6254,25.0393,301.666
2012-02-23 00:00:00,2012-02-23 00:00:00,TMP,surface,-94.6879,25.0393,301.651
2012-02-23 00:00:00,2012-02-23 00:00:00,TMP,surface,-93.7504,25.0393,301.352
2012-02-23 00:00:00,2012-02-23 00:00:00,TMP,surface,-92.8129,25.0393,301.21
2012-02-23 00:00:00,2012-02-23 00:00:00,TMP,surface,-107.813,25.9842,300.13
2012-02-23 00:00:00,2012-02-23 00:00:00,TMP,surface,-106.875,25.9842,294.494
2012-02-23 00:00:00,2012-02-23 00:00:00,TMP,surface,-105.938,25.9842,293.251
2012-02-23 00:00:00,2012-02-23 00:00:00,TMP,surface,-105,25.9842,295.79
2012-02-23 00:00:00,2012-02-23 00:00:00,TMP,surface,-104.063,25.9842,300.867
2012-02-23 00:00:00,2012-02-23 00:00:00,TMP,surface,-103.125,25.9842,302.235
2012-02-23 00:00:00,2012-02-23 00:00:00,TMP,surface,-102.188,25.9842,300.717
2012-02-23 00:00:00,2012-02-23 00:00:00,TMP,surface,-101.25,25.9842,299.178
2012-02-23 00:00:00,2012-02-23 00:00:00,TMP,surface,-100.313,25.9842,299.789
2012-02-23 00:00:00,2012-02-23 00:00:00,TMP,surface,-99.3754,25.9842,302.709
2012-02-23 00:00:00,2012-02-23 00:00:00,TMP,surface,-98.4379,25.9842,303.312
2012-02-23 00:00:00,2012-02-23 00:00:00,TMP,surface,-97.5004,25.9842,301.715
2012-02-23 00:00:00,2012-02-23 00:00:00,TMP,surface,-96.5629,25.9842,300.858
2012-02-23 00:00:00,2012-02-23 00:00:00,TMP,surface,-95.6254,25.9842,301.402
2012-02-23 00:00:00,2012-02-23 00:00:00,TMP,surface,-94.6879,25.9842,301.55
2012-02-23 00:00:00,2012-02-23 00:00:00,TMP,surface,-93.7504,25.9842,301.482
2012-02-23 00:00:00,2012-02-23 00:00:00,TMP,surface,-92.8129,25.9842,301.395
2012-02-23 00:00:00,2012-02-23 00:00:00,TMP,surface,-107.813,26.929,296.296
2012-02-23 00:00:00,2012-02-23 00:00:00,TMP,surface,-106.875,26.929,293.947
2012-02-23 00:00:00,2012-02-23 00:00:00,TMP,surface,-105.938,26.929,295.307
2012-02-23 00:00:00,2012-02-23 00:00:00,TMP,surface,-105,26.929,299.784
2012-02-23 00:00:00,2012-02-23 00:00:00,TMP,surface,-104.063,26.929,302.365
2012-02-23 00:00:00,2012-02-23 00:00:00,TMP,surface,-103.125,26.929,301.811
2012-02-23 00:00:00,2012-02-23 00:00:00,TMP,surface,-102.188,26.929,300.154
2012-02-23 00:00:00,2012-02-23 00:00:00,TMP,surface,-101.25,26.929,300.632
2012-02-23 00:00:00,2012-02-23 00:00:00,TMP,surface,-100.313,26.929,302.701
2012-02-23 00:00:00,2012-02-23 00:00:00,TMP,surface,-99.3754,26.929,304.202
2012-02-23 00:00:00,2012-02-23 00:00:00,TMP,surface,-98.4379,26.929,302.72
2012-02-23 00:00:00,2012-02-23 00:00:00,TMP,surface,-97.5004,26.929,298.704
2012-02-23 00:00:00,2012-02-23 00:00:00,TMP,surface,-96.5629,26.929,299.406
2012-02-23 00:00:00,2012-02-23 00:00:00,TMP,surface,-95.6254,26.929,300.566
2012-02-23 00:00:00,2012-02-23 00:00:00,TMP,surface,-94.6879,26.929,301.302
2012-02-23 00:00:00,2012-02-23 00:00:00,TMP,surface,-93.7504,26.929,301.429
2012-02-23 00:00:00,2012-02-23 00:00:00,TMP,surface,-92.8129,26.929,301.411
2012-02-23 00:00:00,2012-02-23 00:00:00,TMP,surface,-107.813,27.8739,294.277
2012-02-23 00:00:00,2012-02-23 00:00:00,TMP,surface,-106.875,27.8739,294.522
2012-02-23 00:00:00,2012-02-23 00:00:00,TMP,surface,-105.938,27.8739,298.04
2012-02-23 00:00:00,2012-02-23 00:00:00,TMP,surface,-105,27.8739,301.646
2012-02-23 00:00:00,2012-02-23 00:00:00,TMP,surface,-104.063,27.8739,301.896
2012-02-23 00:00:00,2012-02-23 00:00:00,TMP,surface,-103.125,27.8739,300.122
2012-02-23 00:00:00,2012-02-23 00:00:00,TMP,surface,-102.188,27.8739,298.845
2012-02-23 00:00:00,2012-02-23 00:00:00,TMP,surface,-101.25,27.8739,300.754
2012-02-23 00:00:00,2012-02-23 00:00:00,TMP,surface,-100.313,27.8739,302.87
2012-02-23 00:00:00,2012-02-23 00:00:00,TMP,surface,-99.3754,27.8739,302.89
2012-02-23 00:00:00,2012-02-23 00:00:00,TMP,surface,-98.4379,27.8739,301.451
2012-02-23 00:00:00,2012-02-23 00:00:00,TMP,surface,-97.5004,27.8739,300.168
2012-02-23 00:00:00,2012-02-23 00:00:00,TMP,surface,-96.5629,27.8739,299.893
2012-02-23 00:00:00,2012-02-23 00:00:00,TMP,surface,-95.6254,27.8739,300.421
2012-02-23 00:00:00,2012-02-23 00:00:00,TMP,surface,-94.6879,27.8739,301.013
2012-02-23 00:00:00,2012-02-23 00:00:00,TMP,surface,-93.7504,27.8739,301.2
2012-02-23 00:00:00,2012-02-23 00:00:00,TMP,surface,-92.8129,27.8739,301.163
2012-02-23 00:00:00,2012-02-23 00:00:00,TMP,surface,-107.813,28.8188,293.667
2012-02-23 00:00:00,2012-02-23 00:00:00,TMP,surface,-106.875,28.8188,295.419
2012-02-23 00:00:00,2012-02-23 00:00:00,TMP,surface,-105.938,28.8188,299.781
2012-02-23 00:00:00,2012-02-23 00:00:00,TMP,surface,-105,28.8188,302.568
2012-02-23 00:00:00,2012-02-23 00:00:00,TMP,surface,-104.063,28.8188,301.323
2012-02-23 00:00:00,2012-02-23 00:00:00,TMP,surface,-103.125,28.8188,299.445
2012-02-23 00:00:00,2012-02-23 00:00:00,TMP,surface,-102.188,28.8188,298.296
2012-02-23 00:00:00,2012-02-23 00:00:00,TMP,surface,-101.25,28.8188,300.315
2012-02-23 00:00:00,2012-02-23 00:00:00,TMP,surface,-100.313,28.8188,301.173
2012-02-23 00:00:00,2012-02-23 00:00:00,TMP,surface,-99.3754,28.8188,300.474
2012-02-23 00:00:00,2012-02-23 00:00:00,TMP,surface,-98.4379,28.8188,299.768
2012-02-23 00:00:00,2012-02-23 00:00:00,TMP,surface,-97.5004,28.8188,299.806
2012-02-23 00:00:00,2012-02-23 00:00:00,TMP,surface,-96.5629,28.8188,300.315
2012-02-23 00:00:00,2012-02-23 00:00:00,TMP,surface,-95.6254,28.8188,300.117
2012-02-23 00:00:00,2012-02-23 00:00:00,TMP,surface,-94.6879,28.8188,299.315
2012-02-23 00:00:00,2012-02-23 00:00:00,TMP,surface,-93.7504,28.8188,299.557
2012-02-23 00:00:00,2012-02-23 00:00:00,TMP,surface,-92.8129,28.8188,299.44
2012-02-23 00:00:00,2012-02-23 00:00:00,TMP,surface,-107.813,29.7637,295.736
2012-02-23 00:00:00,2012-02-23 00:00:00,TMP,surface,-106.875,29.7637,298.035
2012-02-23 00:00:00,2012-02-23 00:00:00,TMP,surface,-105.938,29.7637,300.872
2012-02-23 00:00:00,2012-02-23 00:00:00,TMP,surface,-105,29.7637,301.838
2012-02-23 00:00:00,2012-02-23 00:00:00,TMP,surface,-104.063,29.7637,301.048
2012-02-23 00:00:00,2012-02-23 00:00:00,TMP,surface,-103.125,29.7637,300.17
2012-02-23 00:00:00,2012-02-23 00:00:00,TMP,surface,-102.188,29.7637,300.328
2012-02-23 00:00:00,2012-02-23 00:00:00,TMP,surface,-101.25,29.7637,300.554
2012-02-23 00:00:00,2012-02-23 00:00:00,TMP,surface,-100.313,29.7637,299.558
2012-02-23 00:00:00,2012-02-23 00:00:00,TMP,surface,-99.3754,29.7637,298.429
2012-02-23 00:00:00,2012-02-23 00:00:00,TMP,surface,-98.4379,29.7637,298.093
2012-02-23 00:00:00,2012-02-23 00:00:00,TMP,surface,-97.5004,29.7637,298.509
2012-02-23 00:00:00,2012-02-23 00:00:00,TMP,surface,-96.5629,29.7637,299.067
2012-02-23 00:00:00,2012-02-23 00:00:00,TMP,surface,-95.6254,29.7637,299.496
2012-02-23 00:00:00,2012-02-23 00:00:00,TMP,surface,-94.6879,29.7637,299.085
2012-02-23 00:00:00,2012-02-23 00:00:00,TMP,surface,-93.7504,29.7637,298.198
2012-02-23 00:00:00,2012-02-23 00:00:00,TMP,surface,-92.8129,29.7637,300.309
2012-02-23 00:00:00,2012-02-23 00:00:00,TMP,surface,-107.813,30.7085,299.395
2012-02-23 00:00:00,2012-02-23 00:00:00,TMP,surface,-106.875,30.7085,300.797
2012-02-23 00:00:00,2012-02-23 00:00:00,TMP,surface,-105.938,30.7085,301.136
2012-02-23 00:00:00,2012-02-23 00:00:00,TMP,surface,-105,30.7085,301.173
2012-02-23 00:00:00,2012-02-23 00:00:00,TMP,surface,-104.063,30.7085,300.085
2012-02-23 00:00:00,2012-02-23 00:00:00,TMP,surface,-103.125,30.7085,300.691
2012-02-23 00:00:00,2012-02-23 00:00:00,TMP,surface,-102.188,30.7085,300.941
2012-02-23 00:00:00,2012-02-23 00:00:00,TMP,surface,-101.25,30.7085,300.325
2012-02-23 00:00:00,2012-02-23 00:00:00,TMP,surface,-100.313,30.7085,299.117
2012-02-23 00:00:00,2012-02-23 00:00:00,TMP,surface,-99.3754,30.7085,298.134
2012-02-23 00:00:00,2012-02-23 00:00:00,TMP,surface,-98.4379,30.7085,298.122
2012-02-23 00:00:00,2012-02-23 00:00:00,TMP,surface,-97.5004,30.7085,298.619
2012-02-23 00:00:00,2012-02-23 00:00:00,TMP,surface,-96.5629,30.7085,299.442
2012-02-23 00:00:00,2012-02-23 00:00:00,TMP,surface,-95.6254,30.7085,300.075
2012-02-23 00:00:00,2012-02-23 00:00:00,TMP,surface,-94.6879,30.7085,299.899
2012-02-23 00:00:00,2012-02-23 00:00:00,TMP,surface,-93.7504,30.7085,299.859
2012-02-23 00:00:00,2012-02-23 00:00:00,TMP,surface,-92.8129,30.7085,299.678
2012-02-23 00:00:00,2012-02-23 00:00:00,TMP,surface,-107.813,31.6534,299.862
2012-02-23 00:00:00,2012-02-23 00:00:00,TMP,surface,-106.875,31.6534,300.427
2012-02-23 00:00:00,2012-02-23 00:00:00,TMP,surface,-105.938,31.6534,300.773
2012-02-23 00:00:00,2012-02-23 00:00:00,TMP,surface,-105,31.6534,300.694
2012-02-23 00:00:00,2012-02-23 00:00:00,TMP,surface,-104.063,31.6534,300.816
2012-02-23 00:00:00,2012-02-23 00:00:00,TMP,surface,-103.125,31.6534,301.179
2012-02-23 00:00:00,2012-02-23 00:00:00,TMP,surface,-102.188,31.6534,300.952
2012-02-23 00:00:00,2012-02-23 00:00:00,TMP,surface,-101.25,31.6534,300.118
2012-02-23 00:00:00,2012-02-23 00:00:00,TMP,surface,-100.313,31.6534,299.558
2012-02-23 00:00:00,2012-02-23 00:00:00,TMP,surface,-99.3754,31.6534,299.117
2012-02-23 00:00:00,2012-02-23 00:00:00,TMP,surface,-98.4379,31.6534,298.997
2012-02-23 00:00:00,2012-02-23 00:00:00,TMP,surface,-97.5004,31.6534,299.2
2012-02-23 00:00:00,2012-02-23 00:00:00,TMP,surface,-96.5629,31.6534,299.837
2012-02-23 00:00:00,2012-02-23 00:00:00,TMP,surface,-95.6254,31.6534,300.346
2012-02-23 00:00:00,2012-02-23 00:00:00,TMP,surface,-94.6879,31.6534,300.021
2012-02-23 00:00:00,2012-02-23 00:00:00,TMP,surface,-93.7504,31.6534,299.675
2012-02-23 00:00:00,2012-02-23 00:00:00,TMP,surface,-92.8129,31.6534,299.581
2012-02-23 00:00:00,2012-02-23 00:00:00,TMP,surface,-107.813,32.5983,297.115
2012-02-23 00:00:00,2012-02-23 00:00:00,TMP,surface,-106.875,32.5983,298.005
2012-02-23 00:00:00,2012-02-23 00:00:00,TMP,surface,-105.938,32.5983,298.92
2012-02-23 00:00:00,2012-02-23 00:00:00,TMP,surface,-105,32.5983,299.646
2012-02-23 00:00:00,2012-02-23 00:00:00,TMP,surface,-104.063,32.5983,300.314
2012-02-23 00:00:00,2012-02-23 00:00:00,TMP,surface,-103.125,32.5983,300.93
2012-02-23 00:00:00,2012-02-23 00:00:00,TMP,surface,-102.188,32.5983,300.565
2012-02-23 00:00:00,2012-02-23 00:00:00,TMP,surface,-101.25,32.5983,300.226
2012-02-23 00:00:00,2012-02-23 00:00:00,TMP,surface,-100.313,32.5983,300.422
2012-02-23 00:00:00,2012-02-23 00:00:00,TMP,surface,-99.3754,32.5983,300.282
2012-02-23 00:00:00,2012-02-23 00:00:00,TMP,surface,-98.4379,32.5983,299.768
2012-02-23 00:00:00,2012-02-23 00:00:00,TMP,surface,-97.5004,32.5983,299.41
2012-02-23 00:00:00,2012-02-23 00:00:00,TMP,surface,-96.5629,32.5983,299.677
2012-02-23 00:00:00,2012-02-23 00:00:00,TMP,surface,-95.6254,32.5983,300.195
2012-02-23 00:00:00,2012-02-23 00:00:00,TMP,surface,-94.6879,32.5983,300.142
2012-02-23 00:00:00,2012-02-23 00:00:00,TMP,surface,-93.7504,32.5983,299.795
2012-02-23 00:00:00,2012-02-23 00:00:00,TMP,surface,-92.8129,32.5983,299.885
2012-02-23 00:00:00,2012-02-23 00:00:00,TMP,surface,-107.813,33.5432,293.461
2012-02-23 00:00:00,2012-02-23 00:00:00,TMP,surface,-106.875,33.5432,295.282
2012-02-23 00:00:00,2012-02-23 00:00:00,TMP,surface,-105.938,33.5432,296.531
2012-02-23 00:00:00,2012-02-23 00:00:00,TMP,surface,-105,33.5432,298.387
2012-02-23 00:00:00,2012-02-23 00:00:00,TMP,surface,-104.063,33.5432,300.019
2012-02-23 00:00:00,2012-02-23 00:00:00,TMP,surface,-103.125,33.5432,300.357
2012-02-23 00:00:00,2012-02-23 00:00:00,TMP,surface,-102.188,33.5432,299.963
2012-02-23 00:00:00,2012-02-23 00:00:00,TMP,surface,-101.25,33.5432,299.661
2012-02-23 00:00:00,2012-02-23 00:00:00,TMP,surface,-100.313,33.5432,300.424
2012-02-23 00:00:00,2012-02-23 00:00:00,TMP,surface,-99.3754,33.5432,300.63
2012-02-23 00:00:00,2012-02-23 00:00:00,TMP,surface,-98.4379,33.5432,299.805
2012-02-23 00:00:00,2012-02-23 00:00:00,TMP,surface,-97.5004,33.5432,298.933
2012-02-23 00:00:00,2012-02-23 00:00:00,TMP,surface,-96.5629,33.5432,298.635
2012-02-23 00:00:00,2012-02-23 00:00:00,TMP,surface,-95.6254,33.5432,298.986
2012-02-23 00:00:00,2012-02-23 00:00:00,TMP,surface,-94.6879,33.5432,299.461
2012-02-23 00:00:00,2012-02-23 00:00:00,TMP,surface,-93.7504,33.5432,299.277
2012-02-23 00:00:00,2012-02-23 00:00:00,TMP,surface,-92.8129,33.5432,299.346
2012-02-23 00:00:00,2012-02-23 00:00:00,TMP,surface,-107.813,34.4881,291.357
2012-02-23 00:00:00,2012-02-23 00:00:00,TMP,surface,-106.875,34.4881,293.515
2012-02-23 00:00:00,2012-02-23 00:00:00,TMP,surface,-105.938,34.4881,295.066
2012-02-23 00:00:00,2012-02-23 00:00:00,TMP,surface,-105,34.4881,297.466
2012-02-23 00:00:00,2012-02-23 00:00:00,TMP,surface,-104.063,34.4881,299.101
2012-02-23 00:00:00,2012-02-23 00:00:00,TMP,surface,-103.125,34.4881,299.515
2012-02-23 00:00:00,2012-02-23 00:00:00,TMP,surface,-102.188,34.4881,299.227
2012-02-23 00:00:00,2012-02-23 00:00:00,TMP,surface,-101.25,34.4881,298.994
2012-02-23 00:00:00,2012-02-23 00:00:00,TMP,surface,-100.313,34.4881,299.443
2012-02-23 00:00:00,2012-02-23 00:00:00,TMP,surface,-99.3754,34.4881,299.696
2012-02-23 00:00:00,2012-02-23 00:00:00,TMP,surface,-98.4379,34.4881,299.061
2012-02-23 00:00:00,2012-02-23 00:00:00,TMP,surface,-97.5004,34.4881,298.147
2012-02-23 00:00:00,2012-02-23 00:00:00,TMP,surface,-96.5629,34.4881,298.187
2012-02-23 00:00:00,2012-02-23 00:00:00,TMP,surface,-95.6254,34.4881,298.768
2012-02-23 00:00:00,2012-02-23 00:00:00,TMP,surface,-94.6879,34.4881,298.597
2012-02-23 00:00:00,2012-02-23 00:00:00,TMP,surface,-93.7504,34.4881,298.216
2012-02-23 00:00:00,2012-02-23 00:00:00,TMP,surface,-92.8129,34.4881,298.373
2012-02-23 00:00:00,2012-02-23 00:00:00,TMP,surface,-107.813,35.4329,291.04
2012-02-23 00:00:00,2012-02-23 00:00:00,TMP,surface,-106.875,35.4329,291.795
2012-02-23 00:00:00,2012-02-23 00:00:00,TMP,surface,-105.938,35.4329,292.701
2012-02-23 00:00:00,2012-02-23 00:00:00,TMP,surface,-105,35.4329,294.33
2012-02-23 00:00:00,2012-02-23 00:00:00,TMP,surface,-104.063,35.4329,297.011
2012-02-23 00:00:00,2012-02-23 00:00:00,TMP,surface,-103.125,35.4329,298.467
2012-02-23 00:00:00,2012-02-23 00:00:00,TMP,surface,-102.188,35.4329,298.715
2012-02-23 00:00:00,2012-02-23 00:00:00,TMP,surface,-101.25,35.4329,298.472
2012-02-23 00:00:00,2012-02-23 00:00:00,TMP,surface,-100.313,35.4329,298.075
2012-02-23 00:00:00,2012-02-23 00:00:00,TMP,surface,-99.3754,35.4329,298.123
2012-02-23 00:00:00,2012-02-23 00:00:00,TMP,surface,-98.4379,35.4329,298.067
2012-02-23 00:00:00,2012-02-23 00:00:00,TMP,surface,-97.5004,35.4329,297.717
2012-02-23 00:00:00,2012-02-23 00:00:00,TMP,surface,-96.5629,35.4329,297.475
2012-02-23 00:00:00,2012-02-23 00:00:00,TMP,surface,-95.6254,35.4329,297.715
2012-02-23 00:00:00,2012-02-23 00:00:00,TMP,surface,-94.6879,35.4329,298.011
2012-02-23 00:00:00,2012-02-23 00:00:00,TMP,surface,-93.7504,35.4329,297.581
2012-02-23 00:00:00,2012-02-23 00:00:00,TMP,surface,-92.8129,35.4329,297.378
2012-02-23 00:00:00,2012-02-23 00:00:00,TMP,surface,-107.813,36.3778,289.934
2012-02-23 00:00:00,2012-02-23 00:00:00,TMP,surface,-106.875,36.3778,287.773
2012-02-23 00:00:00,2012-02-23 00:00:00,TMP,surface,-105.938,36.3778,289.186
2012-02-23 00:00:00,2012-02-23 00:00:00,TMP,surface,-105,36.3778,291.258
2012-02-23 00:00:00,2012-02-23 00:00:00,TMP,surface,-104.063,36.3778,294.493
2012-02-23 00:00:00,2012-02-23 00:00:00,TMP,surface,-103.125,36.3778,296.754
2012-02-23 00:00:00,2012-02-23 00:00:00,TMP,surface,-102.188,36.3778,297.762
2012-02-23 00:00:00,2012-02-23 00:00:00,TMP,surface,-101.25,36.3778,297.746
2012-02-23 00:00:00,2012-02-23 00:00:00,TMP,surface,-100.313,36.3778,297.472
2012-02-23 00:00:00,2012-02-23 00:00:00,TMP,surface,-99.3754,36.3778,297.362
2012-02-23 00:00:00,2012-02-23 00:00:00,TMP,surface,-98.4379,36.3778,297.346
2012-02-23 00:00:00,2012-02-23 00:00:00,TMP,surface,-97.5004,36.3778,297.254
2012-02-23 00:00:00,2012-02-23 00:00:00,TMP,surface,-96.5629,36.3778,297.138
2012-02-23 00:00:00,2012-02-23 00:00:00,TMP,surface,-95.6254,36.3778,297.33
2012-02-23 00:00:00,2012-02-23 00:00:00,TMP,surface,-94.6879,36.3778,297.526
2012-02-23 00:00:00,2012-02-23 00:00:00,TMP,surface,-93.7504,36.3778,297.046
2012-02-23 00:00:00,2012-02-23 00:00:00,TMP,surface,-92.8129,36.3778,296.843
2012-02-23 00:00:00,2012-02-23 00:00:00,PRATE,surface,-107.813,25.0393,0
2012-02-23 00:00:00,2012-02-23 00:00:00,PRATE,surface,-106.875,25.0393,3.7e-06
2012-02-23 00:00:00,2012-02-23 00:00:00,PRATE,surface,-105.938,25.0393,2.92e-05
2012-02-23 00:00:00,2012-02-23 00:00:00,PRATE,surface,-105,25.0393,2.61e-05
2012-02-23 00:00:00,2012-02-23 00:00:00,PRATE,surface,-104.063,25.0393,1.2e-06
2012-02-23 00:00:00,2012-02-23 00:00:00,PRATE,surface,-103.125,25.0393,8e-07
2012-02-23 00:00:00,2012-02-23 00:00:00,PRATE,surface,-102.188,25.0393,5.3e-06
2012-02-23 00:00:00,2012-02-23 00:00:00,PRATE,surface,-101.25,25.0393,3.16e-05
2012-02-23 00:00:00,2012-02-23 00:00:00,PRATE,surface,-100.313,25.0393,3.67e-05
2012-02-23 00:00:00,2012-02-23 00:00:00,PRATE,surface,-99.3754,25.0393,8.6e-06
2012-02-23 00:00:00,2012-02-23 00:00:00,PRATE,surface,-98.4379,25.0393,3.1e-06
2012-02-23 00:00:00,2012-02-23 00:00:00,PRATE,surface,-97.5004,25.0393,1.68e-05
2012-02-23 00:00:00,2012-02-23 00:00:00,PRATE,surface,-96.5629,25.0393,2.15e-05
2012-02-23 00:00:00,2012-02-23 00:00:00,PRATE,surface,-95.6254,25.0393,1.33e-05
2012-02-23 00:00:00,2012-02-23 00:00:00,PRATE,surface,-94.6879,25.0393,1.53e-05
2012-02-23 00:00:00,2012-02-23 00:00:00,PRATE,surface,-93.7504,25.0393,2.3e-05
2012-02-23 00:00:00,2012-02-23 00:00:00,PRATE,surface,-92.8129,25.0393,2.58e-05
2012-02-23 00:00:00,2012-02-23 00:00:00,PRATE,surface,-107.813,25.9842,2.8e-06
2012-02-23 00:00:00,2012-02-23 00:00:00,PRATE,surface,-106.875,25.9842,1.47e-05
2012-02-23 00:00:00,2012-02-23 00:00:00,PRATE,surface,-105.938,25.9842,2.57e-05
2012-02-23 00:00:00,2012-02-23 00:00:00,PRATE,surface,-105,25.9842,6.9e-06
2012-02-23 00:00:00,2012-02-23 00:00:00,PRATE,surface,-104.063,25.9842,2e-07
2012-02-23 00:00:00,2012-02-23 00:00:00,PRATE,surface,-103.125,25.9842,1.9e-06
2012-02-23 00:00:00,2012-02-23 00:00:00,PRATE,surface,-102.188,25.9842,4.5e-06
2012-02-23 00:00:00,2012-02-23 00:00:00,PRATE,surface,-101.25,25.9842,1.36e-05
2012-02-23 00:00:00,2012-02-23 00:00:00,PRATE,surface,-100.313,25.9842,9e-06
2012-02-23 00:00:00,2012-02-23 00:00:00,PRATE,surface,-99.3754,25.9842,7e-07
2012-02-23 00:00:00,2012-02-23 00:00:00,PRATE,surface,-98.4379,25.9842,2e-06
2012-02-23 00:00:00,2012-02-23 00:00:00,PRATE,surface,-97.5004,25.9842,1.79e-05
2012-02-23 00:00:00,2012-02-23 00:00:00,PRATE,surface,-96.5629,25.9842,2.87e-05
2012-02-23 00:00:00,2012-02-23 00:00:00,PRATE,surface,-95.6254,25.9842,2.68e-05
2012-02-23 00:00:00,2012-02-23 00:00:00,PRATE,surface,-94.6879,25.9842,1.48e-05
2012-02-23 00:00:00,2012-02-23 00:00:00,PRATE,surface,-93.7504,25.9842,2.33e-05
2012-02-23 00:00:00,2012-02-23 00:00:00,PRATE,surface,-92.8129,25.9842,1.89e-05
2012-02-23 00:00:00,2012-02-23 00:00:00,PRATE,surface,-107.813,26.929,3.9e-06
2012-02-23 00:00:00,2012-02-23 00:00:00,PRATE,surface,-106.875,26.929,1.29e-05
2012-02-23 00:00:00,2012-02-23 00:00:00,PRATE,surface,-105.938,26.929,1e-05
2012-02-23 00:00:00,2012-02-23 00:00:00,PRATE,surface,-105,26.929,1.2e-06
2012-02-23 00:00:00,2012-02-23 00:00:00,PRATE,surface,-104.063,26.929,1.6e-06
2012-02-23 00:00:00,2012-02-23 00:00:00,PRATE,surface,-103.125,26.929,3.3e-06
2012-02-23 00:00:00,2012-02-23 00:00:00,PRATE,surface,-102.188,26.929,1.86e-05
2012-02-23 00:00:00,2012-02-23 00:00:00,PRATE,surface,-101.25,26.929,2.34e-05
2012-02-23 00:00:00,2012-02-23 00:00:00,PRATE,surface,-100.313,26.929,1.81e-05
2012-02-23 00:00:00,2012-02-23 00:00:00,PRATE,surface,-99.3754,26.929,6.5e-06
2012-02-23 00:00:00,2012-02-23 00:00:00,PRATE,surface,-98.4379,26.929,1.22e-05
2012-02-23 00:00:00,2012-02-23 00:00:00,PRATE,surface,-97.5004,26.929,1.04e-05
2012-02-23 00:00:00,2012-02-23 00:00:00,PRATE,surface,-96.5629,26.929,9.8e-06
2012-02-23 00:00:00,2012-02-23 00:00:00,PRATE,surface,-95.6254,26.929,5.7e-06
2012-02-23 00:00:00,2012-02-23 00:00:00,PRATE,surface,-94.6879,26.929,6.7e-06
2012-02-23 00:00:00,2012-02-23 00:00:00,PRATE,surface,-93.7504,26.929,5.6e-06
2012-02-23 00:00:00,2012-02-23 00:00:00,PRATE,surface,-92.8129,26.929,1.18e-05
2012-02-23 00:00:00,2012-02-23 00:00:00,PRATE,surface,-107.813,27.8739,5.5e-06
2012-02-23 00:00:00,2012-02-23 00:00:00,PRATE,surface,-106.875,27.8739,9.5e-06
2012-02-23 00:00:00,2012-02-23 00:00:00,PRATE,surface,-105.938,27.8739,2.7e-06
2012-02-23 00:00:00,2012-02-23 00:00:00,PRATE,surface,-105,27.8739,6e-07
2012-02-23 00:00:00,2012-02-23 00:00:00,PRATE,surface,-104.063,27.8739,1e-06
2012-02-23 00:00:00,2012-02-23 00:00:00,PRATE,surface,-103.125,27.8739,5.7e-06
2012-02-23 00:00:00,2012-02-23 00:00:00,PRATE,surface,-102.188,27.8739,1.52e-05
2012-02-23 00:00:00,2012-02-23 00:00:00,PRATE,surface,-101.25,27.8739,2.03e-05
2012-02-23 00:00:00,2012-02-23 00:00:00,PRATE,surface,-100.313,27.8739,3e-05
2012-02-23 00:00:00,2012-02-23 00:00:00,PRATE,surface,-99.3754,27.8739,3.3e-05
2012-02-23 00:00:00,2012-02-23 00:00:00,PRATE,surface,-98.4379,27.8739,2.9e-05
2012-02-23 00:00:00,2012-02-23 00:00:00,PRATE,surface,-97.5004,27.8739,1.58e-05
2012-02-23 00:00:00,2012-02-23 00:00:00,PRATE,surface,-96.5629,27.8739,4.1e-06
2012-02-23 00:00:00,2012-02-23 00:00:00,PRATE,surface,-95.6254,27.8739,6e-06
2012-02-23 00:00:00,2012-02-23 00:00:00,PRATE,surface,-94.6879,27.8739,1.04e-05
2012-02-23 00:00:00,2012-02-23 00:00:00,PRATE,surface,-93.7504,27.8739,7e-06
2012-02-23 00:00:00,2012-02-23 00:00:00,PRATE,surface,-92.8129,27.8739,5.3e-06
2012-02-23 00:00:00,2012-02-23 00:00:00,PRATE,surface,-107.813,28.8188,9e-06
2012-02-23 00:00:00,2012-02-23 00:00:00,PRATE,surface,-106.875,28.8188,1.23e-05
2012-02-23 00:00:00,2012-02-23 00:00:00,PRATE,surface,-105.938,28.8188,2e-07
2012-02-23 00:00:00,2012-02-23 00:00:00,PRATE,surface,-105,28.8188,4e-07
2012-02-23 00:00:00,2012-02-23 00:00:00,PRATE,surface,-104.063,28.8188,5e-07
2012-02-23 00:00:00,2012-02-23 00:00:00,PRATE,surface,-103.125,28.8188,2.7e-06
2012-02-23 00:00:00,2012-02-23 00:00:00,PRATE,surface,-102.188,28.8188,1.2e-05
2012-02-23 00:00:00,2012-02-23 00:00:00,PRATE,surface,-101.25,28.8188,1.37e-05
2012-02-23 00:00:00,2012-02-23 00:00:00,PRATE,surface,-100.313,28.8188,2.84e-05
2012-02-23 00:00:00,2012-02-23 00:00:00,PRATE,surface,-99.3754,28.8188,5.11e-05
2012-02-23 00:00:00,2012-02-23 00:00:00,PRATE,surface,-98.4379,28.8188,5.59e-05
2012-02-23 00:00:00,2012-02-23 00:00:00,PRATE,surface,-97.5004,28.8188,4.26e-05
2012-02-23 00:00:00,2012-02-23 00:00:00,PRATE,surface,-96.5629,28.8188,2.85e-05
2012-02-23 00:00:00,2012-02-23 00:00:00,PRATE,surface,-95.6254,28.8188,1.89e-05
2012-02-23 00:00:00,2012-02-23 00:00:00,PRATE,surface,-94.6879,28.8188,1.19e-05
2012-02-23 00:00:00,2012-02-23 00:00:00,PRATE,surface,-93.7504,28.8188,9.7e-06
2012-02-23 00:00:00,2012-02-23 00:00:00,PRATE,surface,-92.8129,28.8188,6.7e-06
2012-02-23 00:00:00,2012-02-23 00:00:00,PRATE,surface,-107.813,29.7637,3.9e-06
2012-02-23 00:00:00,2012-02-23 00:00:00,PRATE,surface,-106.875,29.7637,3.4e-06
2012-02-23 00:00:00,2012-02-23 00:00:00,PRATE,surface,-105.938,29.7637,5e-07
2012-02-23 00:00:00,2012-02-23 00:00:00,PRATE,surface,-105,29.7637,1.8e-06
2012-02-23 00:00:00,2012-02-23 00:00:00,PRATE,surface,-104.063,29.7637,7e-07
2012-02-23 00:00:00,2012-02-23 00:00:00,PRATE,surface,-103.125,29.7637,5.6e-06
2012-02-23 00:00:00,2012-02-23 00:00:00,PRATE,surface,-102.188,29.7637,1.18e-05
2012-02-23 00:00:00,2012-02-23 00:00:00,PRATE,surface,-101.25,29.7637,1.23e-05
2012-02-23 00:00:00,2012-02-23 00:00:00,PRATE,surface,-100.313,29.7637,1.81e-05
2012-02-23 00:00:00,2012-02-23 00:00:00,PRATE,surface,-99.3754,29.7637,4.38e-05
2012-02-23 00:00:00,2012-02-23 00:00:00,PRATE,surface,-98.4379,29.7637,6.15e-05
2012-02-23 00:00:00,2012-02-23 00:00:00,PRATE,surface,-97.5004,29.7637,5.57e-05
2012-02-23 00:00:00,2012-02-23 00:00:00,PRATE,surface,-96.5629,29.7637,4.74e-05
2012-02-23 00:00:00,2012-02-23 00:00:00,PRATE,surface,-95.6254,29.7637,4.76e-05
2012-02-23 00:00:00,2012-02-23 00:00:00,PRATE,surface,-94.6879,29.7637,3.79e-05
2012-02-23 00:00:00,2012-02-23 00:00:00,PRATE,surface,-93.7504,29.7637,2.57e-05
2012-02-23 00:00:00,2012-02-23 00:00:00,PRATE,surface,-92.8129,29.7637,4.78e-05
2012-02-23 00:00:00,2012-02-23 00:00:00,PRATE,surface,-107.813,30.7085,1e-06
2012-02-23 00:00:00,2012-02-23 00:00:00,PRATE,surface,-106.875,30.7085,7e-07
2012-02-23 00:00:00,2012-02-23 00:00:00,PRATE,surface,-105.938,30.7085,1.8e-06
2012-02-23 00:00:00,2012-02-23 00:00:00,PRATE,surface,-105,30.7085,3e-06
2012-02-23 00:00:00,2012-02-23 00:00:00,PRATE,surface,-104.063,30.7085,4.1e-06
2012-02-23 00:00:00,2012-02-23 00:00:00,PRATE,surface,-103.125,30.7085,4.6e-06
2012-02-23 00:00:00,2012-02-23 00:00:00,PRATE,surface,-102.188,30.7085,1.39e-05
2012-02-23 00:00:00,2012-02-23 00:00:00,PRATE,surface,-101.25,30.7085,2.4e-05
2012-02-23 00:00:00,2012-02-23 00:00:00,PRATE,surface,-100.313,30.7085,2.3e-05
2012-02-23 00:00:00,2012-02-23 00:00:00,PRATE,surface,-99.3754,30.7085,2.17e-05
2012-02-23 00:00:00,2012-02-23 00:00:00,PRATE,surface,-98.4379,30.7085,2.7e-05
2012-02-23 00:00:00,2012-02-23 00:00:00,PRATE,surface,-97.5004,30.7085,3.13e-05
2012-02-23 00:00:00,2012-02-23 00:00:00,PRATE,surface,-96.5629,30.7085,3.76e-05
2012-02-23 00:00:00,2012-02-23 00:00:00,PRATE,surface,-95.6254,30.7085,4.84e-05
2012-02-23 00:00:00,2012-02-23 00:00:00,PRATE,surface,-94.6879,30.7085,5.38e-05
2012-02-23 00:00:00,2012-02-23 00:00:00,PRATE,surface,-93.7504,30.7085,5.36e-05
2012-02-23 00:00:00,2012-02-23 00:00:00,PRATE,surface,-92.8129,30.7085,5.05e-05
2012-02-23 00:00:00,2012-02-23 00:00:00,PRATE,surface,-107.813,31.6534,6e-07
2012-02-23 00:00:00,2012-02-23 00:00:00,PRATE,surface,-106.875,31.6534,4e-07
2012-02-23 00:00:00,2012-02-23 00:00:00,PRATE,surface,-105.938,31.6534,1.2e-06
2012-02-23 00:00:00,2012-02-23 00:00:00,PRATE,surface,-105,31.6534,1.7e-06
2012-02-23 00:00:00,2012-02-23 00:00:00,PRATE,surface,-104.063,31.6534,2.1e-06
2012-02-23 00:00:00,2012-02-23 00:00:00,PRATE,surface,-103.125,31.6534,2.3e-06
2012-02-23 00:00:00,2012-02-23 00:00:00,PRATE,surface,-102.188,31.6534,1.31e-05
2012-02-23 00:00:00,2012-02-23 00:00:00,PRATE,surface,-101.25,31.6534,2.89e-05
2012-02-23 00:00:00,2012-02-23 00:00:00,PRATE,surface,-100.313,31.6534,2.97e-05
2012-02-23 00:00:00,2012-02-23 00:00:00,PRATE,surface,-99.3754,31.6534,1.56e-05
2012-02-23 00:00:00,2012-02-23 00:00:00,PRATE,surface,-98.4379,31.6534,9.8e-06
2012-02-23 00:00:00,2012-02-23 00:00:00,PRATE,surface,-97.5004,31.6534,1.71e-05
2012-02-23 00:00:00,2012-02-23 00:00:00,PRATE,surface,-96.5629,31.6534,3.38e-05
2012-02-23 00:00:00,2012-02-23 00:00:00,PRATE,surface,-95.6254,31.6534,5.02e-05
2012-02-23 00:00:00,2012-02-23 00:00:00,PRATE,surface,-94.6879,31.6534,5.65e-05
2012-02-23 00:00:00,2012-02-23 00:00:00,PRATE,surface,-93.7504,31.6534,6.1e-05
2012-02-23 00:00:00,2012-02-23 00:00:00,PRATE,surface,-92.8129,31.6534,6.08e-05
2012-02-23 00:00:00,2012-02-23 00:00:00,PRATE,surface,-107.813,32.5983,2e-06
2012-02-23 00:00:00,2012-02-23 00:00:00,PRATE,surface,-106.875,32.5983,8e-07
2012-02-23 00:00:00,2012-02-23 00:00:00,PRATE,surface,-105.938,32.5983,1.1e-06
2012-02-23 00:00:00,2012-02-23 00:00:00,PRATE,surface,-105,32.5983,2.3e-06
2012-02-23 00:00:00,2012-02-23 00:00:00,PRATE,surface,-104.063,32.5983,2.5e-06
2012-02-23 00:00:00,2012-02-23 00:00:00,PRATE,surface,-103.125,32.5983,4e-06
2012-02-23 00:00:00,2012-02-23 00:00:00,PRATE,surface,-102.188,32.5983,1.04e-05
2012-02-23 00:00:00,2012-02-23 00:00:00,PRATE,surface,-101.25,32.5983,3.22e-05
2012-02-23 00:00:00,2012-02-23 00:00:00,PRATE,surface,-100.313,32.5983,4.11e-05
2012-02-23 00:00:00,2012-02-23 00:00:00,PRATE,surface,-99.3754,32.5983,2.17e-05
2012-02-23 00:00:00,2012-02-23 00:00:00,PRATE,surface,-98.4379,32.5983,7.6e-06
2012-02-23 00:00:00,2012-02-23 00:00:00,PRATE,surface,-97.5004,32.5983,1.29e-05
2012-02-23 00:00:00,2012-02-23 00:00:00,PRATE,surface,-96.5629,32.5983,2.87e-05
2012-02-23 00:00:00,2012-02-23 00:00:00,PRATE,surface,-95.6254,32.5983,4.57e-05
2012-02-23 00:00:00,2012-02-23 00:00:00,PRATE,surface,-94.6879,32.5983,5.62e-05
2012-02-23 00:00:00,2012-02-23 00:00:00,PRATE,surface,-93.7504,32.5983,5.93e-05
2012-02-23 00:00:00,2012-02-23 00:00:00,PRATE,surface,-92.8129,32.5983,5.37e-05
2012-02-23 00:00:00,2012-02-23 00:00:00,PRATE,surface,-107.813,33.5432,7.3e-06
2012-02-23 00:00:00,2012-02-23 00:00:00,PRATE,surface,-106.875,33.5432,3.4e-06
2012-02-23 00:00:00,2012-02-23 00:00:00,PRATE,surface,-105.938,33.5432,2e-06
2012-02-23 00:00:00,2012-02-23 00:00:00,PRATE,surface,-105,33.5432,1.6e-06
2012-02-23 00:00:00,2012-02-23 00:00:00,PRATE,surface,-104.063,33.5432,2.2e-06
2012-02-23 00:00:00,2012-02-23 00:00:00,PRATE,surface,-103.125,33.5432,1.2e-06
2012-02-23 00:00:00,2012-02-23 00:00:00,PRATE,surface,-102.188,33.5432,1.02e-05
2012-02-23 00:00:00,2012-02-23 00:00:00,PRATE,surface,-101.25,33.5432,3.18e-05
2012-02-23 00:00:00,2012-02-23 00:00:00,PRATE,surface,-100.313,33.5432,4.94e-05
2012-02-23 00:00:00,2012-02-23 00:00:00,PRATE,surface,-99.3754,33.5432,3.57e-05
2012-02-23 00:00:00,2012-02-23 00:00:00,PRATE,surface,-98.4379,33.5432,1.53e-05
2012-02-23 00:00:00,2012-02-23 00:00:00,PRATE,surface,-97.5004,33.5432,1.49e-05
2012-02-23 00:00:00,2012-02-23 00:00:00,PRATE,surface,-96.5629,33.5432,2.85e-05
2012-02-23 00:00:00,2012-02-23 00:00:00,PRATE,surface,-95.6254,33.5432,4.54e-05
2012-02-23 00:00:00,2012-02-23 00:00:00,PRATE,surface,-94.6879,33.5432,6.21e-05
2012-02-23 00:00:00,2012-02-23 00:00:00,PRATE,surface,-93.7504,33.5432,6.77e-05
2012-02-23 00:00:00,2012-02-23 00:00:00,PRATE,surface,-92.8129,33.5432,6.01e-05
2012-02-23 00:00:00,2012-02-23 00:00:00,PRATE,surface,-107.813,34.4881,1.36e-05
2012-02-23 00:00:00,2012-02-23 00:00:00,PRATE,surface,-106.875,34.4881,8.1e-06
2012-02-23 00:00:00,2012-02-23 00:00:00,PRATE,surface,-105.938,34.4881,4.5e-06
2012-02-23 00:00:00,2012-02-23 00:00:00,PRATE,surface,-105,34.4881,1.9e-06
2012-02-23 00:00:00,2012-02-23 00:00:00,PRATE,surface,-104.063,34.4881,2.9e-06
2012-02-23 00:00:00,2012-02-23 00:00:00,PRATE,surface,-103.125,34.4881,4.7e-06
2012-02-23 00:00:00,2012-02-23 00:00:00,PRATE,surface,-102.188,34.4881,1.44e-05
2012-02-23 00:00:00,2012-02-23 00:00:00,PRATE,surface,-101.25,34.4881,3.6e-05
2012-02-23 00:00:00,2012-02-23 00:00:00,PRATE,surface,-100.313,34.4881,4.98e-05
2012-02-23 00:00:00,2012-02-23 00:00:00,PRATE,surface,-99.3754,34.4881,4.6e-05
2012-02-23 00:00:00,2012-02-23 00:00:00,PRATE,surface,-98.4379,34.4881,3.07e-05
2012-02-23 00:00:00,2012-02-23 00:00:00,PRATE,surface,-97.5004,34.4881,2.75e-05
2012-02-23 00:00:00,2012-02-23 00:00:00,PRATE,surface,-96.5629,34.4881,3.2e-05
2012-02-23 00:00:00,2012-02-23 00:00:00,PRATE,surface,-95.6254,34.4881,3.34e-05
2012-02-23 00:00:00,2012-02-23 00:00:00,PRATE,surface,-94.6879,34.4881,4.5e-05
2012-02-23 00:00:00,2012-02-23 00:00:00,PRATE,surface,-93.7504,34.4881,6.62e-05
2012-02-23 00:00:00,2012-02-23 00:00:00,PRATE,surface,-92.8129,34.4881,7.87e-05
2012-02-23 00:00:00,2012-02-23 00:00:00,PRATE,surface,-107.813,35.4329,1.07e-05
2012-02-23 00:00:00,2012-02-23 00:00:00,PRATE,surface,-106.875,35.4329,7.8e-06
2012-02-23 00:00:00,2012-02-23 00:00:00,PRATE,surface,-105.938,35.4329,8.6e-06
2012-02-23 00:00:00,2012-02-23 00:00:00,PRATE,surface,-105,35.4329,8.5e-06
2012-02-23 00:00:00,2012-02-23 00:00:00,PRATE,surface,-104.063,35.4329,1.44e-05
2012-02-23 00:00:00,2012-02-23 00:00:00,PRATE,surface,-103.125,35.4329,1.44e-05
2012-02-23 00:00:00,2012-02-23 00:00:00,PRATE,surface,-102.188,35.4329,1.65e-05
2012-02-23 00:00:00,2012-02-23 00:00:00,PRATE,surface,-101.25,35.4329,2.62e-05
2012-02-23 00:00:00,2012-02-23 00:00:00,PRATE,surface,-100.313,35.4329,4.26e-05
2012-02-23 00:00:00,2012-02-23 00:00:00,PRATE,surface,-99.3754,35.4329,5.8e-05
2012-02-23 00:00:00,2012-02-23 00:00:00,PRATE,surface,-98.4379,35.4329,5.31e-05
2012-02-23 00:00:00,2012-02-23 00:00:00,PRATE,surface,-97.5004,35.4329,4.2e-05
2012-02-23 00:00:00,2012-02-23 00:00:00,PRATE,surface,-96.5629,35.4329,3.75e-05
2012-02-23 00:00:00,2012-02-23 00:00:00,PRATE,surface,-95.6254,35.4329,4.14e-05
2012-02-23 00:00:00,2012-02-23 00:00:00,PRATE,surface,-94.6879,35.4329,5.44e-05
2012-02-23 00:00:00,2012-02-23 00:00:00,PRATE,surface,-93.7504,35.4329,6.45e-05
2012-02-23 00:00:00,2012-02-23 00:00:00,PRATE,surface,-92.8129,35.4329,7.24e-05
2012-02-23 00:00:00,2012-02-23 00:00:00,PRATE,surface,-107.813,36.3778,1.52e-05
2012-02-23 00:00:00,2012-02-23 00:00:00,PRATE,surface,-106.875,36.3778,1.41e-05
2012-02-23 00:00:00,2012-02-23 00:00:00,PRATE,surface,-105.938,36.3778,1.44e-05
2012-02-23 00:00:00,2012-02-23 00:00:00,PRATE,surface,-105,36.3778,1.48e-05
2012-02-23 00:00:00,2012-02-23 00:00:00,PRATE,surface,-104.063,36.3778,1.4e-05
2012-02-23 00:00:00,2012-02-23 00:00:00,PRATE,surface,-103.125,36.3778,1.37e-05
2012-02-23 00:00:00,2012-02-23 00:00:00,PRATE,surface,-102.188,36.3778,1.51e-05
2012-02-23 00:00:00,2012-02-23 00:00:00,PRATE,surface,-101.25,36.3778,3.01e-05
2012-02-23 00:00:00,2012-02-23 00:00:00,PRATE,surface,-100.313,36.3778,5.11e-05
2012-02-23 00:00:00,2012-02-23 00:00:00,PRATE,surface,-99.3754,36.3778,8.13e-05
2012-02-23 00:00:00,2012-02-23 00:00:00,PRATE,surface,-98.4379,36.3778,9.19e-05
2012-02-23 00:00:00,2012-02-23 00:00:00,PRATE,surface,-97.5004,36.3778,8.9e-05
2012-02-23 00:00:00,2012-02-23 00:00:00,PRATE,surface,-96.5629,36.3778,8.28e-05
2012-02-23 00:00:00,2012-02-23 00:00:00,PRATE,surface,-95.6254,36.3778,7.61e-05
2012-02-23 00:00:00,2012-02-23 00:00:00,PRATE,surface,-94.6879,36.3778,7.58e-05
2012-02-23 00:00:00,2012-02-23 00:00:00,PRATE,surface,-93.7504,36.3778,7.33e-05
2012-02-23 00:00:00,2012-02-23 00:00:00,PRATE,surface,-92.8129,36.3778,7.31e-05
