2018-01-14 00:00:00,2018-01-14 00:00:00,TMP,surface,-107.813,25.0393,298.414
2018-01-14 00:00:00,2018-01-14 00:00:00,TMP,surface,-106.875,25.0393,293.49
2018-01-14 00:00:00,2018-01-14 00:00:00,TMP,surface,-105.938,25.0393,287.527
2018-01-14 00:00:00,2018-01-14 00:00:00,TMP,surface,-105,25.0393,290.342
2018-01-14 00:00:00,2018-01-14 00:00:00,TMP,surface,-104.063,25.0393,295.343
2018-01-14 00:00:00,2018-01-14 00:00:00,TMP,surface,-103.125,25.0393,296.999
2018-01-14 00:00:00,2018-01-14 00:00:00,TMP,surface,-102.188,25.0393,296.079
2018-01-14 00:00:00,2018-01-14 00:00:00,TMP,surface,-101.25,25.0393,294.396
2018-01-14 00:00:00,2018-01-14 00:00:00,TMP,surface,-100.313,25.0393,294.73
2018-01-14 00:00:00,2018-01-14 00:00:00,TMP,surface,-99.3754,25.0393,297.057
2018-01-14 00:00:00,2018-01-14 00:00:00,TMP,surface,-98.4379,25.0393,299.447
2018-01-14 00:00:00,2018-01-14 00:00:00,TMP,surface,-97.5004,25.0393,297.426
2018-01-14 00:00:00,2018-01-14 00:00:00,TMP,surface,-96.5629,25.0393,297.969
2018-01-14 00:00:00,2018-01-14 00:00:00,TMP,surface,-95.6254,25.0393,298.911
2018-01-14 00:00:00,2018-01-14 00:00:00,TMP,surface,-94.6879,25.0393,298.942
2018-01-14 00:00:00,2018-01-14 00:00:00,TMP,surface,-93.7504,25.0393,298.655
2018-01-14 00:00:00,2018-01-14 00:00:00,TMP,surface,-92.8129,25.0393,298.558
2018-01-14 00:00:00,2018-01-14 00:00:00,TMP,surface,-107.813,25.9842,295.1
2018-01-14 00:00:00,2018-01-14 00:00:00,TMP,surface,-106.875,25.9842,289.122
2018-01-14 00:00:00,2018-01-14 00:00:00,TMP,surface,-105.938,25.9842,288.206
2018-01-14 00:00:00,2018-01-14 00:00:00,TMP,surface,-105,25.9842,293.554
2018-01-14 00:00:00,2018-01-14 00:00:00,TMP,surface,-104.063,25.9842,297.991
2018-01-14 00:00:00,2018-01-14 00:00:00,TMP,surface,-103.125,25.9842,298.922
2018-01-14 00:00:00,2018-01-14 00:00:00,TMP,surface,-102.188,25.9842,297.718
2018-01-14 00:00:00,2018-01-14 00:00:00,TMP,surface,-101.25,25.9842,296.38
2018-01-14 00:00:00,2018-01-14 00:00:00,TMP,surface,-100.313,25.9842,296.423
2018-01-14 00:00:00,2018-01-14 00:00:00,TMP,surface,-99.3754,25.9842,298.868
2018-01-14 00:00:00,2018-01-14 00:00:00,TMP,surface,-98.4379,25.9842,299.793
2018-01-14 00:00:00,2018-01-14 00:00:00,TMP,surface,-97.5004,25.9842,298.722
2018-01-14 00:00:00,2018-01-14 00:00:00,TMP,surface,-96.5629,25.9842,294.922
2018-01-14 00:00:00,2018-01-14 00:00:00,TMP,surface,-95.6254,25.9842,297.406
2018-01-14 00:00:00,2018-01-14 00:00:00,TMP,surface,-94.6879,25.9842,298.298
2018-01-14 00:00:00,2018-01-14 00:00:00,TMP,surface,-93.7504,25.9842,298.262
2018-01-14 00:00:00,2018-01-14 00:00:00,TMP,surface,-92.8129,25.9842,298.174
2018-01-14 00:00:00,2018-01-14 00:00:00,TMP,surface,-107.813,26.929,289.902
2018-01-14 00:00:00,2018-01-14 00:00:00,TMP,surface,-106.875,26.929,287.45
2018-01-14 00:00:00,2018-01-14 00:00:00,TMP,surface,-105.938,26.929,291.116
2018-01-14 00:00:00,2018-01-14 00:00:00,TMP,surface,-105,26.929,296.098
2018-01-14 00:00:00,2018-01-14 00:00:00,TMP,surface,-104.063,26.929,298.132
2018-01-14 00:00:00,2018-01-14 00:00:00,TMP,surface,-103.125,26.929,297.662
2018-01-14 00:00:00,2018-01-14 00:00:00,TMP,surface,-102.188,26.929,296.78
2018-01-14 00:00:00,2018-01-14 00:00:00,TMP,surface,-101.25,26.929,296.174
2018-01-14 00:00:00,2018-01-14 00:00:00,TMP,surface,-100.313,26.929,297.182
2018-01-14 00:00:00,2018-01-14 00:00:00,TMP,surface,-99.3754,26.929,298.77
2018-01-14 00:00:00,2018-01-14 00:00:00,TMP,surface,-98.4379,26.929,298.255
2018-01-14 00:00:00,2018-01-14 00:00:00,TMP,surface,-97.5004,26.929,294.081
2018-01-14 00:00:00,2018-01-14 00:00:00,TMP,surface,-96.5629,26.929,294.302
2018-01-14 00:00:00,2018-01-14 00:00:00,TMP,surface,-95.6254,26.929,296.322
2018-01-14 00:00:00,2018-01-14 00:00:00,TMP,surface,-94.6879,26.929,297.314
2018-01-14 00:00:00,2018-01-14 00:00:00,TMP,surface,-93.7504,26.929,297.343
2018-01-14 00:00:00,2018-01-14 00:00:00,TMP,surface,-92.8129,26.929,297.311
2018-01-14 00:00:00,2018-01-14 00:00:00,TMP,surface,-107.813,27.8739,287.068
2018-01-14 00:00:00,2018-01-14 00:00:00,TMP,surface,-106.875,27.8739,288.039
2018-01-14 00:00:00,2018-01-14 00:00:00,TMP,surface,-105.938,27.8739,293.02
2018-01-14 00:00:00,2018-01-14 00:00:00,TMP,surface,-105,27.8739,296.529
2018-01-14 00:00:00,2018-01-14 00:00:00,TMP,surface,-104.063,27.8739,296.62
2018-01-14 00:00:00,2018-01-14 00:00:00,TMP,surface,-103.125,27.8739,295.686
2018-01-14 00:00:00,2018-01-14 00:00:00,TMP,surface,-102.188,27.8739,294.538
2018-01-14 00:00:00,2018-01-14 00:00:00,TMP,surface,-101.25,27.8739,294.746
2018-01-14 00:00:00,2018-01-14 00:00:00,TMP,surface,-100.313,27.8739,295.681
2018-01-14 00:00:00,2018-01-14 00:00:00,TMP,surface,-99.3754,27.8739,296.127
2018-01-14 00:00:00,2018-01-14 00:00:00,TMP,surface,-98.4379,27.8739,295.858
2018-01-14 00:00:00,2018-01-14 00:00:00,TMP,surface,-97.5004,27.8739,295.103
2018-01-14 00:00:00,2018-01-14 00:00:00,TMP,surface,-96.5629,27.8739,294.737
2018-01-14 00:00:00,2018-01-14 00:00:00,TMP,surface,-95.6254,27.8739,295.159
2018-01-14 00:00:00,2018-01-14 00:00:00,TMP,surface,-94.6879,27.8739,295.633
2018-01-14 00:00:00,2018-01-14 00:00:00,TMP,surface,-93.7504,27.8739,295.802
2018-01-14 00:00:00,2018-01-14 00:00:00,TMP,surface,-92.8129,27.8739,295.884
2018-01-14 00:00:00,2018-01-14 00:00:00,TMP,surface,-107.813,28.8188,286.554
2018-01-14 00:00:00,2018-01-14 00:00:00,TMP,surface,-106.875,28.8188,288.828
2018-01-14 00:00:00,2018-01-14 00:00:00,TMP,surface,-105.938,28.8188,293.308
2018-01-14 00:00:00,2018-01-14 00:00:00,TMP,surface,-105,28.8188,295.91
2018-01-14 00:00:00,2018-01-14 00:00:00,TMP,surface,-104.063,28.8188,295.348
2018-01-14 00:00:00,2018-01-14 00:00:00,TMP,surface,-103.125,28.8188,294.311
2018-01-14 00:00:00,2018-01-14 00:00:00,TMP,surface,-102.188,28.8188,293.266
2018-01-14 00:00:00,2018-01-14 00:00:00,TMP,surface,-101.25,28.8188,293.476
2018-01-14 00:00:00,2018-01-14 00:00:00,TMP,surface,-100.313,28.8188,293.367
2018-01-14 00:00:00,2018-01-14 00:00:00,TMP,surface,-99.3754,28.8188,293.082
2018-01-14 00:00:00,2018-01-14 00:00:00,TMP,surface,-98.4379,28.8188,293.228
2018-01-14 00:00:00,2018-01-14 00:00:00,TMP,surface,-97.5004,28.8188,293.761
2018-01-14 00:00:00,2018-01-14 00:00:00,TMP,surface,-96.5629,28.8188,294.26
2018-01-14 00:00:00,2018-01-14 00:00:00,TMP,surface,-95.6254,28.8188,293.682
2018-01-14 00:00:00,2018-01-14 00:00:00,TMP,surface,-94.6879,28.8188,292.607
2018-01-14 00:00:00,2018-01-14 00:00:00,TMP,surface,-93.7504,28.8188,293.247
2018-01-14 00:00:00,2018-01-14 00:00:00,TMP,surface,-92.8129,28.8188,293.687
2018-01-14 00:00:00,2018-01-14 00:00:00,TMP,surface,-107.813,29.7637,288.004
2018-01-14 00:00:00,2018-01-14 00:00:00,TMP,surface,-106.875,29.7637,290.231
2018-01-14 00:00:00,2018-01-14 00:00:00,TMP,surface,-105.938,29.7637,292.751
2018-01-14 00:00:00,2018-01-14 00:00:00,TMP,surface,-105,29.7637,294.105
2018-01-14 00:00:00,2018-01-14 00:00:00,TMP,surface,-104.063,29.7637,294.127
2018-01-14 00:00:00,2018-01-14 00:00:00,TMP,surface,-103.125,29.7637,293.911
2018-01-14 00:00:00,2018-01-14 00:00:00,TMP,surface,-102.188,29.7637,293.511
2018-01-14 00:00:00,2018-01-14 00:00:00,TMP,surface,-101.25,29.7637,292.775
2018-01-14 00:00:00,2018-01-14 00:00:00,TMP,surface,-100.313,29.7637,291.516
2018-01-14 00:00:00,2018-01-14 00:00:00,TMP,surface,-99.3754,29.7637,290.753
2018-01-14 00:00:00,2018-01-14 00:00:00,TMP,surface,-98.4379,29.7637,290.876
2018-01-14 00:00:00,2018-01-14 00:00:00,TMP,surface,-97.5004,29.7637,291.462
2018-01-14 00:00:00,2018-01-14 00:00:00,TMP,surface,-96.5629,29.7637,292.025
2018-01-14 00:00:00,2018-01-14 00:00:00,TMP,surface,-95.6254,29.7637,292.418
2018-01-14 00:00:00,2018-01-14 00:00:00,TMP,surface,-94.6879,29.7637,292.199
2018-01-14 00:00:00,2018-01-14 00:00:00,TMP,surface,-93.7504,29.7637,291.756
2018-01-14 00:00:00,2018-01-14 00:00:00,TMP,surface,-92.8129,29.7637,293.217
2018-01-14 00:00:00,2018-01-14 00:00:00,TMP,surface,-107.813,30.7085,290.191
2018-01-14 00:00:00,2018-01-14 00:00:00,TMP,surface,-106.875,30.7085,291.105
2018-01-14 00:00:00,2018-01-14 00:00:00,TMP,surface,-105.938,30.7085,291.926
2018-01-14 00:00:00,2018-01-14 00:00:00,TMP,surface,-105,30.7085,292.628
2018-01-14 00:00:00,2018-01-14 00:00:00,TMP,surface,-104.063,30.7085,292.626
2018-01-14 00:00:00,2018-01-14 00:00:00,TMP,surface,-103.125,30.7085,293.143
2018-01-14 00:00:00,2018-01-14 00:00:00,TMP,surface,-102.188,30.7085,292.926
2018-01-14 00:00:00,2018-01-14 00:00:00,TMP,surface,-101.25,30.7085,291.751
2018-01-14 00:00:00,2018-01-14 00:00:00,TMP,surface,-100.313,30.7085,290.394
2018-01-14 00:00:00,2018-01-14 00:00:00,TMP,surface,-99.3754,30.7085,289.518
2018-01-14 00:00:00,2018-01-14 00:00:00,TMP,surface,-98.4379,30.7085,289.465
2018-01-14 00:00:00,2018-01-14 00:00:00,TMP,surface,-97.5004,30.7085,289.887
2018-01-14 00:00:00,2018-01-14 00:00:00,TMP,surface,-96.5629,30.7085,290.601
2018-01-14 00:00:00,2018-01-14 00:00:00,TMP,surface,-95.6254,30.7085,291.295
2018-01-14 00:00:00,2018-01-14 00:00:00,TMP,surface,-94.6879,30.7085,291.481
2018-01-14 00:00:00,2018-01-14 00:00:00,TMP,surface,-93.7504,30.7085,291.439
2018-01-14 00:00:00,2018-01-14 00:00:00,TMP,surface,-92.8129,30.7085,291.214
2018-01-14 00:00:00,2018-01-14 00:00:00,TMP,surface,-107.813,31.6534,290.262
2018-01-14 00:00:00,2018-01-14 00:00:00,TMP,surface,-106.875,31.6534,290.742
2018-01-14 00:00:00,2018-01-14 00:00:00,TMP,surface,-105.938,31.6534,291.316
2018-01-14 00:00:00,2018-01-14 00:00:00,TMP,surface,-105,31.6534,291.433
2018-01-14 00:00:00,2018-01-14 00:00:00,TMP,surface,-104.063,31.6534,291.876
2018-01-14 00:00:00,2018-01-14 00:00:00,TMP,surface,-103.125,31.6534,292.122
2018-01-14 00:00:00,2018-01-14 00:00:00,TMP,surface,-102.188,31.6534,291.842
2018-01-14 00:00:00,2018-01-14 00:00:00,TMP,surface,-101.25,31.6534,290.847
2018-01-14 00:00:00,2018-01-14 00:00:00,TMP,surface,-100.313,31.6534,289.794
2018-01-14 00:00:00,2018-01-14 00:00:00,TMP,surface,-99.3754,31.6534,289.114
2018-01-14 00:00:00,2018-01-14 00:00:00,TMP,surface,-98.4379,31.6534,288.818
2018-01-14 00:00:00,2018-01-14 00:00:00,TMP,surface,-97.5004,31.6534,288.908
2018-01-14 00:00:00,2018-01-14 00:00:00,TMP,surface,-96.5629,31.6534,289.479
2018-01-14 00:00:00,2018-01-14 00:00:00,TMP,surface,-95.6254,31.6534,290.081
2018-01-14 00:00:00,2018-01-14 00:00:00,TMP,surface,-94.6879,31.6534,290.114
2018-01-14 00:00:00,2018-01-14 00:00:00,TMP,surface,-93.7504,31.6534,289.862
2018-01-14 00:00:00,2018-01-14 00:00:00,TMP,surface,-92.8129,31.6534,289.676
2018-01-14 00:00:00,2018-01-14 00:00:00,TMP,surface,-107.813,32.5983,287.388
2018-01-14 00:00:00,2018-01-14 00:00:00,TMP,surface,-106.875,32.5983,288.434
2018-01-14 00:00:00,2018-01-14 00:00:00,TMP,surface,-105.938,32.5983,289.3
2018-01-14 00:00:00,2018-01-14 00:00:00,TMP,surface,-105,32.5983,289.911
2018-01-14 00:00:00,2018-01-14 00:00:00,TMP,surface,-104.063,32.5983,290.492
2018-01-14 00:00:00,2018-01-14 00:00:00,TMP,surface,-103.125,32.5983,290.817
2018-01-14 00:00:00,2018-01-14 00:00:00,TMP,surface,-102.188,32.5983,290.494
2018-01-14 00:00:00,2018-01-14 00:00:00,TMP,surface,-101.25,32.5983,289.961
2018-01-14 00:00:00,2018-01-14 00:00:00,TMP,surface,-100.313,32.5983,289.473
2018-01-14 00:00:00,2018-01-14 00:00:00,TMP,surface,-99.3754,32.5983,288.921
2018-01-14 00:00:00,2018-01-14 00:00:00,TMP,surface,-98.4379,32.5983,288.414
2018-01-14 00:00:00,2018-01-14 00:00:00,TMP,surface,-97.5004,32.5983,288.138
2018-01-14 00:00:00,2018-01-14 00:00:00,TMP,surface,-96.5629,32.5983,288.263
2018-01-14 00:00:00,2018-01-14 00:00:00,TMP,surface,-95.6254,32.5983,288.548
2018-01-14 00:00:00,2018-01-14 00:00:00,TMP,surface,-94.6879,32.5983,288.511
2018-01-14 00:00:00,2018-01-14 00:00:00,TMP,surface,-93.7504,32.5983,288.279
2018-01-14 00:00:00,2018-01-14 00:00:00,TMP,surface,-92.8129,32.5983,288.271
2018-01-14 00:00:00,2018-01-14 00:00:00,TMP,surface,-107.813,33.5432,283.591
2018-01-14 00:00:00,2018-01-14 00:00:00,TMP,surface,-106.875,33.5432,285.458
2018-01-14 00:00:00,2018-01-14 00:00:00,TMP,surface,-105.938,33.5432,286.958
2018-01-14 00:00:00,2018-01-14 00:00:00,TMP,surface,-105,33.5432,288.074
2018-01-14 00:00:00,2018-01-14 00:00:00,TMP,surface,-104.063,33.5432,289.202
2018-01-14 00:00:00,2018-01-14 00:00:00,TMP,surface,-103.125,33.5432,289.156
2018-01-14 00:00:00,2018-01-14 00:00:00,TMP,surface,-102.188,33.5432,288.862
2018-01-14 00:00:00,2018-01-14 00:00:00,TMP,surface,-101.25,33.5432,288.415
2018-01-14 00:00:00,2018-01-14 00:00:00,TMP,surface,-100.313,33.5432,288.292
2018-01-14 00:00:00,2018-01-14 00:00:00,TMP,surface,-99.3754,33.5432,288.004
2018-01-14 00:00:00,2018-01-14 00:00:00,TMP,surface,-98.4379,33.5432,287.465
2018-01-14 00:00:00,2018-01-14 00:00:00,TMP,surface,-97.5004,33.5432,286.978
2018-01-14 00:00:00,2018-01-14 00:00:00,TMP,surface,-96.5629,33.5432,286.724
2018-01-14 00:00:00,2018-01-14 00:00:00,TMP,surface,-95.6254,33.5432,286.742
2018-01-14 00:00:00,2018-01-14 00:00:00,TMP,surface,-94.6879,33.5432,286.774
2018-01-14 00:00:00,2018-01-14 00:00:00,TMP,surface,-93.7504,33.5432,286.567
2018-01-14 00:00:00,2018-01-14 00:00:00,TMP,surface,-92.8129,33.5432,286.642
2018-01-14 00:00:00,2018-01-14 00:00:00,TMP,surface,-107.813,34.4881,281.663
2018-01-14 00:00:00,2018-01-14 00:00:00,TMP,surface,-106.875,34.4881,283.607
2018-01-14 00:00:00,2018-01-14 00:00:00,TMP,surface,-105.938,34.4881,285.214
2018-01-14 00:00:00,2018-01-14 00:00:00,TMP,surface,-105,34.4881,286.951
2018-01-14 00:00:00,2018-01-14 00:00:00,TMP,surface,-104.063,34.4881,287.662
2018-01-14 00:00:00,2018-01-14 00:00:00,TMP,surface,-103.125,34.4881,287.402
2018-01-14 00:00:00,2018-01-14 00:00:00,TMP,surface,-102.188,34.4881,287.079
2018-01-14 00:00:00,2018-01-14 00:00:00,TMP,surface,-101.25,34.4881,286.807
2018-01-14 00:00:00,2018-01-14 00:00:00,TMP,surface,-100.313,34.4881,286.649
2018-01-14 00:00:00,2018-01-14 00:00:00,TMP,surface,-99.3754,34.4881,286.481
2018-01-14 00:00:00,2018-01-14 00:00:00,TMP,surface,-98.4379,34.4881,286.084
2018-01-14 00:00:00,2018-01-14 00:00:00,TMP,surface,-97.5004,34.4881,285.649
2018-01-14 00:00:00,2018-01-14 00:00:00,TMP,surface,-96.5629,34.4881,285.529
2018-01-14 00:00:00,2018-01-14 00:00:00,TMP,surface,-95.6254,34.4881,285.545
2018-01-14 00:00:00,2018-01-14 00:00:00,TMP,surface,-94.6879,34.4881,285.289
2018-01-14 00:00:00,2018-01-14 00:00:00,TMP,surface,-93.7504,34.4881,284.994
2018-01-14 00:00:00,2018-01-14 00:00:00,TMP,surface,-92.8129,34.4881,285.092
2018-01-14 00:00:00,2018-01-14 00:00:00,TMP,surface,-107.813,35.4329,281.191
2018-01-14 00:00:00,2018-01-14 00:00:00,TMP,surface,-106.875,35.4329,281.858
2018-01-14 00:00:00,2018-01-14 00:00:00,TMP,surface,-105.938,35.4329,282.735
2018-01-14 00:00:00,2018-01-14 00:00:00,TMP,surface,-105,35.4329,284.265
2018-01-14 00:00:00,2018-01-14 00:00:00,TMP,surface,-104.063,35.4329,285.809
2018-01-14 00:00:00,2018-01-14 00:00:00,TMP,surface,-103.125,35.4329,286.258
2018-01-14 00:00:00,2018-01-14 00:00:00,TMP,surface,-102.188,35.4329,285.93
2018-01-14 00:00:00,2018-01-14 00:00:00,TMP,surface,-101.25,35.4329,285.473
2018-01-14 00:00:00,2018-01-14 00:00:00,TMP,surface,-100.313,35.4329,285.1
2018-01-14 00:00:00,2018-01-14 00:00:00,TMP,surface,-99.3754,35.4329,284.711
2018-01-14 00:00:00,2018-01-14 00:00:00,TMP,surface,-98.4379,35.4329,284.494
2018-01-14 00:00:00,2018-01-14 00:00:00,TMP,surface,-97.5004,35.4329,284.47
2018-01-14 00:00:00,2018-01-14 00:00:00,TMP,surface,-96.5629,35.4329,284.414
2018-01-14 00:00:00,2018-01-14 00:00:00,TMP,surface,-95.6254,35.4329,284.3
2018-01-14 00:00:00,2018-01-14 00:00:00,TMP,surface,-94.6879,35.4329,284.087
2018-01-14 00:00:00,2018-01-14 00:00:00,TMP,surface,-93.7504,35.4329,283.638
2018-01-14 00:00:00,2018-01-14 00:00:00,TMP,surface,-92.8129,35.4329,283.53
2018-01-14 00:00:00,2018-01-14 00:00:00,TMP,surface,-107.813,36.3778,279.895
2018-01-14 00:00:00,2018-01-14 00:00:00,TMP,surface,-106.875,36.3778,278.442
2018-01-14 00:00:00,2018-01-14 00:00:00,TMP,surface,-105.938,36.3778,279.466
2018-01-14 00:00:00,2018-01-14 00:00:00,TMP,surface,-105,36.3778,281.713
2018-01-14 00:00:00,2018-01-14 00:00:00,TMP,surface,-104.063,36.3778,284.198
2018-01-14 00:00:00,2018-01-14 00:00:00,TMP,surface,-103.125,36.3778,284.29
2018-01-14 00:00:00,2018-01-14 00:00:00,TMP,surface,-102.188,36.3778,284.031
2018-01-14 00:00:00,2018-01-14 00:00:00,TMP,surface,-101.25,36.3778,283.868
2018-01-14 00:00:00,2018-01-14 00:00:00,TMP,surface,-100.313,36.3778,283.772
2018-01-14 00:00:00,2018-01-14 00:00:00,TMP,surface,-99.3754,36.3778,283.556
2018-01-14 00:00:00,2018-01-14 00:00:00,TMP,surface,-98.4379,36.3778,283.258
2018-01-14 00:00:00,2018-01-14 00:00:00,TMP,surface,-97.5004,36.3778,283.278
2018-01-14 00:00:00,2018-01-14 00:00:00,TMP,surface,-96.5629,36.3778,283.452
2018-01-14 00:00:00,2018-01-14 00:00:00,TMP,surface,-95.6254,36.3778,283.444
2018-01-14 00:00:00,2018-01-14 00:00:00,TMP,surface,-94.6879,36.3778,283.193
2018-01-14 00:00:00,2018-01-14 00:00:00,TMP,surface,-93.7504,36.3778,282.575
2018-01-14 00:00:00,2018-01-14 00:00:00,TMP,surface,-92.8129,36.3778,282.14
2018-01-14 00:00:00,2018-01-14 00:00:00,PRATE,surface,-107.813,25.0393,0
2018-01-14 00:00:00,2018-01-14 00:00:00,PRATE,surface,-106.875,25.0393,0
2018-01-14 00:00:00,2018-01-14 00:00:00,PRATE,surface,-105.938,25.0393,2.6e-06
2018-01-14 00:00:00,2018-01-14 00:00:00,PRATE,surface,-105,25.0393,8.1e-06
2018-01-14 00:00:00,2018-01-14 00:00:00,PRATE,surface,-104.063,25.0393,2.7e-06
2018-01-14 00:00:00,2018-01-14 00:00:00,PRATE,surface,-103.125,25.0393,0
2018-01-14 00:00:00,2018-01-14 00:00:00,PRATE,surface,-102.188,25.0393,1.4e-06
2018-01-14 00:00:00,2018-01-14 00:00:00,PRATE,surface,-101.25,25.0393,1.24e-05
2018-01-14 00:00:00,2018-01-14 00:00:00,PRATE,surface,-100.313,25.0393,5.34e-05
2018-01-14 00:00:00,2018-01-14 00:00:00,PRATE,surface,-99.3754,25.0393,3.41e-05
2018-01-14 00:00:00,2018-01-14 00:00:00,PRATE,surface,-98.4379,25.0393,1.77e-05
2018-01-14 00:00:00,2018-01-14 00:00:00,PRATE,surface,-97.5004,25.0393,1.37e-05
2018-01-14 00:00:00,2018-01-14 00:00:00,PRATE,surface,-96.5629,25.0393,1.46e-05
2018-01-14 00:00:00,2018-01-14 00:00:00,PRATE,surface,-95.6254,25.0393,7.5e-06
2018-01-14 00:00:00,2018-01-14 00:00:00,PRATE,surface,-94.6879,25.0393,3.7e-06
2018-01-14 00:00:00,2018-01-14 00:00:00,PRATE,surface,-93.7504,25.0393,3.2e-06
2018-01-14 00:00:00,2018-01-14 00:00:00,PRATE,surface,-92.8129,25.0393,2.5e-06
2018-01-14 00:00:00,2018-01-14 00:00:00,PRATE,surface,-107.813,25.9842,0
2018-01-14 00:00:00,2018-01-14 00:00:00,PRATE,surface,-106.875,25.9842,0
2018-01-14 00:00:00,2018-01-14 00:00:00,PRATE,surface,-105.938,25.9842,0
2018-01-14 00:00:00,2018-01-14 00:00:00,PRATE,surface,-105,25.9842,2e-06
2018-01-14 00:00:00,2018-01-14 00:00:00,PRATE,surface,-104.063,25.9842,1.4e-06
2018-01-14 00:00:00,2018-01-14 00:00:00,PRATE,surface,-103.125,25.9842,3e-07
2018-01-14 00:00:00,2018-01-14 00:00:00,PRATE,surface,-102.188,25.9842,9e-07
2018-01-14 00:00:00,2018-01-14 00:00:00,PRATE,surface,-101.25,25.9842,1.23e-05
2018-01-14 00:00:00,2018-01-14 00:00:00,PRATE,surface,-100.313,25.9842,4.62e-05
2018-01-14 00:00:00,2018-01-14 00:00:00,PRATE,surface,-99.3754,25.9842,2.62e-05
2018-01-14 00:00:00,2018-01-14 00:00:00,PRATE,surface,-98.4379,25.9842,6.4e-06
2018-01-14 00:00:00,2018-01-14 00:00:00,PRATE,surface,-97.5004,25.9842,5.6e-06
2018-01-14 00:00:00,2018-01-14 00:00:00,PRATE,surface,-96.5629,25.9842,8.6e-06
2018-01-14 00:00:00,2018-01-14 00:00:00,PRATE,surface,-95.6254,25.9842,4.3e-06
2018-01-14 00:00:00,2018-01-14 00:00:00,PRATE,surface,-94.6879,25.9842,3e-06
2018-01-14 00:00:00,2018-01-14 00:00:00,PRATE,surface,-93.7504,25.9842,3.7e-06
2018-01-14 00:00:00,2018-01-14 00:00:00,PRATE,surface,-92.8129,25.9842,3.2e-06
2018-01-14 00:00:00,2018-01-14 00:00:00,PRATE,surface,-107.813,26.929,0
2018-01-14 00:00:00,2018-01-14 00:00:00,PRATE,surface,-106.875,26.929,0
2018-01-14 00:00:00,2018-01-14 00:00:00,PRATE,surface,-105.938,26.929,3e-07
2018-01-14 00:00:00,2018-01-14 00:00:00,PRATE,surface,-105,26.929,2.1e-06
2018-01-14 00:00:00,2018-01-14 00:00:00,PRATE,surface,-104.063,26.929,1.6e-06
2018-01-14 00:00:00,2018-01-14 00:00:00,PRATE,surface,-103.125,26.929,1.9e-06
2018-01-14 00:00:00,2018-01-14 00:00:00,PRATE,surface,-102.188,26.929,3.9e-06
2018-01-14 00:00:00,2018-01-14 00:00:00,PRATE,surface,-101.25,26.929,2.52e-05
2018-01-14 00:00:00,2018-01-14 00:00:00,PRATE,surface,-100.313,26.929,2.83e-05
2018-01-14 00:00:00,2018-01-14 00:00:00,PRATE,surface,-99.3754,26.929,1.41e-05
2018-01-14 00:00:00,2018-01-14 00:00:00,PRATE,surface,-98.4379,26.929,9.7e-06
2018-01-14 00:00:00,2018-01-14 00:00:00,PRATE,surface,-97.5004,26.929,6.6e-06
2018-01-14 00:00:00,2018-01-14 00:00:00,PRATE,surface,-96.5629,26.929,7.2e-06
2018-01-14 00:00:00,2018-01-14 00:00:00,PRATE,surface,-95.6254,26.929,3.8e-06
2018-01-14 00:00:00,2018-01-14 00:00:00,PRATE,surface,-94.6879,26.929,3.4e-06
2018-01-14 00:00:00,2018-01-14 00:00:00,PRATE,surface,-93.7504,26.929,3.9e-06
2018-01-14 00:00:00,2018-01-14 00:00:00,PRATE,surface,-92.8129,26.929,3.8e-06
2018-01-14 00:00:00,2018-01-14 00:00:00,PRATE,surface,-107.813,27.8739,2e-07
2018-01-14 00:00:00,2018-01-14 00:00:00,PRATE,surface,-106.875,27.8739,6e-07
2018-01-14 00:00:00,2018-01-14 00:00:00,PRATE,surface,-105.938,27.8739,2e-07
2018-01-14 00:00:00,2018-01-14 00:00:00,PRATE,surface,-105,27.8739,1.1e-06
2018-01-14 00:00:00,2018-01-14 00:00:00,PRATE,surface,-104.063,27.8739,1.2e-06
2018-01-14 00:00:00,2018-01-14 00:00:00,PRATE,surface,-103.125,27.8739,3.1e-06
2018-01-14 00:00:00,2018-01-14 00:00:00,PRATE,surface,-102.188,27.8739,2.77e-05
2018-01-14 00:00:00,2018-01-14 00:00:00,PRATE,surface,-101.25,27.8739,4.76e-05
2018-01-14 00:00:00,2018-01-14 00:00:00,PRATE,surface,-100.313,27.8739,3.54e-05
2018-01-14 00:00:00,2018-01-14 00:00:00,PRATE,surface,-99.3754,27.8739,2.86e-05
2018-01-14 00:00:00,2018-01-14 00:00:00,PRATE,surface,-98.4379,27.8739,2.62e-05
2018-01-14 00:00:00,2018-01-14 00:00:00,PRATE,surface,-97.5004,27.8739,1.64e-05
2018-01-14 00:00:00,2018-01-14 00:00:00,PRATE,surface,-96.5629,27.8739,7.9e-06
2018-01-14 00:00:00,2018-01-14 00:00:00,PRATE,surface,-95.6254,27.8739,6.1e-06
2018-01-14 00:00:00,2018-01-14 00:00:00,PRATE,surface,-94.6879,27.8739,5.4e-06
2018-01-14 00:00:00,2018-01-14 00:00:00,PRATE,surface,-93.7504,27.8739,6.7e-06
2018-01-14 00:00:00,2018-01-14 00:00:00,PRATE,surface,-92.8129,27.8739,1e-05
2018-01-14 00:00:00,2018-01-14 00:00:00,PRATE,surface,-107.813,28.8188,4e-07
2018-01-14 00:00:00,2018-01-14 00:00:00,PRATE,surface,-106.875,28.8188,1.2e-06
2018-01-14 00:00:00,2018-01-14 00:00:00,PRATE,surface,-105.938,28.8188,1.1e-06
2018-01-14 00:00:00,2018-01-14 00:00:00,PRATE,surface,-105,28.8188,9e-07
2018-01-14 00:00:00,2018-01-14 00:00:00,PRATE,surface,-104.063,28.8188,4.1e-06
2018-01-14 00:00:00,2018-01-14 00:00:00,PRATE,surface,-103.125,28.8188,8.5e-06
2018-01-14 00:00:00,2018-01-14 00:00:00,PRATE,surface,-102.188,28.8188,2.81e-05
2018-01-14 00:00:00,2018-01-14 00:00:00,PRATE,surface,-101.25,28.8188,4.1e-05
2018-01-14 00:00:00,2018-01-14 00:00:00,PRATE,surface,-100.313,28.8188,3.81e-05
2018-01-14 00:00:00,2018-01-14 00:00:00,PRATE,surface,-99.3754,28.8188,3.42e-05
2018-01-14 00:00:00,2018-01-14 00:00:00,PRATE,surface,-98.4379,28.8188,3.44e-05
2018-01-14 00:00:00,2018-01-14 00:00:00,PRATE,surface,-97.5004,28.8188,2.83e-05
2018-01-14 00:00:00,2018-01-14 00:00:00,PRATE,surface,-96.5629,28.8188,1.99e-05
2018-01-14 00:00:00,2018-01-14 00:00:00,PRATE,surface,-95.6254,28.8188,1.94e-05
2018-01-14 00:00:00,2018-01-14 00:00:00,PRATE,surface,-94.6879,28.8188,2.24e-05
2018-01-14 00:00:00,2018-01-14 00:00:00,PRATE,surface,-93.7504,28.8188,2.22e-05
2018-01-14 00:00:00,2018-01-14 00:00:00,PRATE,surface,-92.8129,28.8188,2.07e-05
2018-01-14 00:00:00,2018-01-14 00:00:00,PRATE,surface,-107.813,29.7637,1e-07
2018-01-14 00:00:00,2018-01-14 00:00:00,PRATE,surface,-106.875,29.7637,4e-07
2018-01-14 00:00:00,2018-01-14 00:00:00,PRATE,surface,-105.938,29.7637,9e-07
2018-01-14 00:00:00,2018-01-14 00:00:00,PRATE,surface,-105,29.7637,1.7e-06
2018-01-14 00:00:00,2018-01-14 00:00:00,PRATE,surface,-104.063,29.7637,3.1e-06
2018-01-14 00:00:00,2018-01-14 00:00:00,PRATE,surface,-103.125,29.7637,7.3e-06
2018-01-14 00:00:00,2018-01-14 00:00:00,PRATE,surface,-102.188,29.7637,2.06e-05
2018-01-14 00:00:00,2018-01-14 00:00:00,PRATE,surface,-101.25,29.7637,3.24e-05
2018-01-14 00:00:00,2018-01-14 00:00:00,PRATE,surface,-100.313,29.7637,4.7e-05
2018-01-14 00:00:00,2018-01-14 00:00:00,PRATE,surface,-99.3754,29.7637,5.74e-05
2018-01-14 00:00:00,2018-01-14 00:00:00,PRATE,surface,-98.4379,29.7637,5.3e-05
2018-01-14 00:00:00,2018-01-14 00:00:00,PRATE,surface,-97.5004,29.7637,4.64e-05
2018-01-14 00:00:00,2018-01-14 00:00:00,PRATE,surface,-96.5629,29.7637,4.21e-05
2018-01-14 00:00:00,2018-01-14 00:00:00,PRATE,surface,-95.6254,29.7637,3.87e-05
2018-01-14 00:00:00,2018-01-14 00:00:00,PRATE,surface,-94.6879,29.7637,4.01e-05
2018-01-14 00:00:00,2018-01-14 00:00:00,PRATE,surface,-93.7504,29.7637,4.01e-05
2018-01-14 00:00:00,2018-01-14 00:00:00,PRATE,surface,-92.8129,29.7637,4.19e-05
2018-01-14 00:00:00,2018-01-14 00:00:00,PRATE,surface,-107.813,30.7085,0
2018-01-14 00:00:00,2018-01-14 00:00:00,PRATE,surface,-106.875,30.7085,0
2018-01-14 00:00:00,2018-01-14 00:00:00,PRATE,surface,-105.938,30.7085,3e-07
2018-01-14 00:00:00,2018-01-14 00:00:00,PRATE,surface,-105,30.7085,8e-07
2018-01-14 00:00:00,2018-01-14 00:00:00,PRATE,surface,-104.063,30.7085,2.7e-06
2018-01-14 00:00:00,2018-01-14 00:00:00,PRATE,surface,-103.125,30.7085,7.5e-06
2018-01-14 00:00:00,2018-01-14 00:00:00,PRATE,surface,-102.188,30.7085,1.37e-05
2018-01-14 00:00:00,2018-01-14 00:00:00,PRATE,surface,-101.25,30.7085,2.97e-05
2018-01-14 00:00:00,2018-01-14 00:00:00,PRATE,surface,-100.313,30.7085,5.24e-05
2018-01-14 00:00:00,2018-01-14 00:00:00,PRATE,surface,-99.3754,30.7085,6.82e-05
2018-01-14 00:00:00,2018-01-14 00:00:00,PRATE,surface,-98.4379,30.7085,6.6e-05
2018-01-14 00:00:00,2018-01-14 00:00:00,PRATE,surface,-97.5004,30.7085,6.13e-05
2018-01-14 00:00:00,2018-01-14 00:00:00,PRATE,surface,-96.5629,30.7085,6.2e-05
2018-01-14 00:00:00,2018-01-14 00:00:00,PRATE,surface,-95.6254,30.7085,6.16e-05
2018-01-14 00:00:00,2018-01-14 00:00:00,PRATE,surface,-94.6879,30.7085,5.88e-05
2018-01-14 00:00:00,2018-01-14 00:00:00,PRATE,surface,-93.7504,30.7085,5.77e-05
2018-01-14 00:00:00,2018-01-14 00:00:00,PRATE,surface,-92.8129,30.7085,6.76e-05
2018-01-14 00:00:00,2018-01-14 00:00:00,PRATE,surface,-107.813,31.6534,0
2018-01-14 00:00:00,2018-01-14 00:00:00,PRATE,surface,-106.875,31.6534,0
2018-01-14 00:00:00,2018-01-14 00:00:00,PRATE,surface,-105.938,31.6534,0
2018-01-14 00:00:00,2018-01-14 00:00:00,PRATE,surface,-105,31.6534,2e-07
2018-01-14 00:00:00,2018-01-14 00:00:00,PRATE,surface,-104.063,31.6534,2e-06
2018-01-14 00:00:00,2018-01-14 00:00:00,PRATE,surface,-103.125,31.6534,7.3e-06
2018-01-14 00:00:00,2018-01-14 00:00:00,PRATE,surface,-102.188,31.6534,1.23e-05
2018-01-14 00:00:00,2018-01-14 00:00:00,PRATE,surface,-101.25,31.6534,2.36e-05
2018-01-14 00:00:00,2018-01-14 00:00:00,PRATE,surface,-100.313,31.6534,3.91e-05
2018-01-14 00:00:00,2018-01-14 00:00:00,PRATE,surface,-99.3754,31.6534,5.1e-05
2018-01-14 00:00:00,2018-01-14 00:00:00,PRATE,surface,-98.4379,31.6534,6.78e-05
2018-01-14 00:00:00,2018-01-14 00:00:00,PRATE,surface,-97.5004,31.6534,7.79e-05
2018-01-14 00:00:00,2018-01-14 00:00:00,PRATE,surface,-96.5629,31.6534,8.08e-05
2018-01-14 00:00:00,2018-01-14 00:00:00,PRATE,surface,-95.6254,31.6534,8.81e-05
2018-01-14 00:00:00,2018-01-14 00:00:00,PRATE,surface,-94.6879,31.6534,9.46e-05
2018-01-14 00:00:00,2018-01-14 00:00:00,PRATE,surface,-93.7504,31.6534,9.59e-05
2018-01-14 00:00:00,2018-01-14 00:00:00,PRATE,surface,-92.8129,31.6534,9.45e-05
2018-01-14 00:00:00,2018-01-14 00:00:00,PRATE,surface,-107.813,32.5983,3e-07
2018-01-14 00:00:00,2018-01-14 00:00:00,PRATE,surface,-106.875,32.5983,0
2018-01-14 00:00:00,2018-01-14 00:00:00,PRATE,surface,-105.938,32.5983,0
2018-01-14 00:00:00,2018-01-14 00:00:00,PRATE,surface,-105,32.5983,2e-07
2018-01-14 00:00:00,2018-01-14 00:00:00,PRATE,surface,-104.063,32.5983,2.5e-06
2018-01-14 00:00:00,2018-01-14 00:00:00,PRATE,surface,-103.125,32.5983,3.9e-06
2018-01-14 00:00:00,2018-01-14 00:00:00,PRATE,surface,-102.188,32.5983,8.5e-06
2018-01-14 00:00:00,2018-01-14 00:00:00,PRATE,surface,-101.25,32.5983,1.44e-05
2018-01-14 00:00:00,2018-01-14 00:00:00,PRATE,surface,-100.313,32.5983,2.38e-05
2018-01-14 00:00:00,2018-01-14 00:00:00,PRATE,surface,-99.3754,32.5983,3.22e-05
2018-01-14 00:00:00,2018-01-14 00:00:00,PRATE,surface,-98.4379,32.5983,4.58e-05
2018-01-14 00:00:00,2018-01-14 00:00:00,PRATE,surface,-97.5004,32.5983,6.32e-05
2018-01-14 00:00:00,2018-01-14 00:00:00,PRATE,surface,-96.5629,32.5983,7.83e-05
2018-01-14 00:00:00,2018-01-14 00:00:00,PRATE,surface,-95.6254,32.5983,8.95e-05
2018-01-14 00:00:00,2018-01-14 00:00:00,PRATE,surface,-94.6879,32.5983,9.71e-05
2018-01-14 00:00:00,2018-01-14 00:00:00,PRATE,surface,-93.7504,32.5983,9.97e-05
2018-01-14 00:00:00,2018-01-14 00:00:00,PRATE,surface,-92.8129,32.5983,9.62e-05
2018-01-14 00:00:00,2018-01-14 00:00:00,PRATE,surface,-107.813,33.5432,2.7e-06
2018-01-14 00:00:00,2018-01-14 00:00:00,PRATE,surface,-106.875,33.5432,1e-06
2018-01-14 00:00:00,2018-01-14 00:00:00,PRATE,surface,-105.938,33.5432,5e-07
2018-01-14 00:00:00,2018-01-14 00:00:00,PRATE,surface,-105,33.5432,4e-07
2018-01-14 00:00:00,2018-01-14 00:00:00,PRATE,surface,-104.063,33.5432,2.1e-06
2018-01-14 00:00:00,2018-01-14 00:00:00,PRATE,surface,-103.125,33.5432,3.3e-06
2018-01-14 00:00:00,2018-01-14 00:00:00,PRATE,surface,-102.188,33.5432,5.5e-06
2018-01-14 00:00:00,2018-01-14 00:00:00,PRATE,surface,-101.25,33.5432,8.3e-06
2018-01-14 00:00:00,2018-01-14 00:00:00,PRATE,surface,-100.313,33.5432,1.41e-05
2018-01-14 00:00:00,2018-01-14 00:00:00,PRATE,surface,-99.3754,33.5432,2.05e-05
2018-01-14 00:00:00,2018-01-14 00:00:00,PRATE,surface,-98.4379,33.5432,3.1e-05
2018-01-14 00:00:00,2018-01-14 00:00:00,PRATE,surface,-97.5004,33.5432,4.66e-05
2018-01-14 00:00:00,2018-01-14 00:00:00,PRATE,surface,-96.5629,33.5432,6.05e-05
2018-01-14 00:00:00,2018-01-14 00:00:00,PRATE,surface,-95.6254,33.5432,6.72e-05
2018-01-14 00:00:00,2018-01-14 00:00:00,PRATE,surface,-94.6879,33.5432,7.05e-05
2018-01-14 00:00:00,2018-01-14 00:00:00,PRATE,surface,-93.7504,33.5432,7.81e-05
2018-01-14 00:00:00,2018-01-14 00:00:00,PRATE,surface,-92.8129,33.5432,8.98e-05
2018-01-14 00:00:00,2018-01-14 00:00:00,PRATE,surface,-107.813,34.4881,6.3e-06
2018-01-14 00:00:00,2018-01-14 00:00:00,PRATE,surface,-106.875,34.4881,4.2e-06
2018-01-14 00:00:00,2018-01-14 00:00:00,PRATE,surface,-105.938,34.4881,2.2e-06
2018-01-14 00:00:00,2018-01-14 00:00:00,PRATE,surface,-105,34.4881,1.6e-06
2018-01-14 00:00:00,2018-01-14 00:00:00,PRATE,surface,-104.063,34.4881,2.2e-06
2018-01-14 00:00:00,2018-01-14 00:00:00,PRATE,surface,-103.125,34.4881,3.8e-06
2018-01-14 00:00:00,2018-01-14 00:00:00,PRATE,surface,-102.188,34.4881,5.1e-06
2018-01-14 00:00:00,2018-01-14 00:00:00,PRATE,surface,-101.25,34.4881,6.9e-06
2018-01-14 00:00:00,2018-01-14 00:00:00,PRATE,surface,-100.313,34.4881,1.04e-05
2018-01-14 00:00:00,2018-01-14 00:00:00,PRATE,surface,-99.3754,34.4881,1.7e-05
2018-01-14 00:00:00,2018-01-14 00:00:00,PRATE,surface,-98.4379,34.4881,2.56e-05
2018-01-14 00:00:00,2018-01-14 00:00:00,PRATE,surface,-97.5004,34.4881,3.37e-05
2018-01-14 00:00:00,2018-01-14 00:00:00,PRATE,surface,-96.5629,34.4881,4.1e-05
2018-01-14 00:00:00,2018-01-14 00:00:00,PRATE,surface,-95.6254,34.4881,5.27e-05
2018-01-14 00:00:00,2018-01-14 00:00:00,PRATE,surface,-94.6879,34.4881,6.88e-05
2018-01-14 00:00:00,2018-01-14 00:00:00,PRATE,surface,-93.7504,34.4881,7.71e-05
2018-01-14 00:00:00,2018-01-14 00:00:00,PRATE,surface,-92.8129,34.4881,7.64e-05
2018-01-14 00:00:00,2018-01-14 00:00:00,PRATE,surface,-107.813,35.4329,1.11e-05
2018-01-14 00:00:00,2018-01-14 00:00:00,PRATE,surface,-106.875,35.4329,7.7e-06
2018-01-14 00:00:00,2018-01-14 00:00:00,PRATE,surface,-105.938,35.4329,4.5e-06
2018-01-14 00:00:00,2018-01-14 00:00:00,PRATE,surface,-105,35.4329,4.3e-06
2018-01-14 00:00:00,2018-01-14 00:00:00,PRATE,surface,-104.063,35.4329,3.1e-06
2018-01-14 00:00:00,2018-01-14 00:00:00,PRATE,surface,-103.125,35.4329,5.1e-06
2018-01-14 00:00:00,2018-01-14 00:00:00,PRATE,surface,-102.188,35.4329,6.5e-06
2018-01-14 00:00:00,2018-01-14 00:00:00,PRATE,surface,-101.25,35.4329,9e-06
2018-01-14 00:00:00,2018-01-14 00:00:00,PRATE,surface,-100.313,35.4329,1.34e-05
2018-01-14 00:00:00,2018-01-14 00:00:00,PRATE,surface,-99.3754,35.4329,2.09e-05
2018-01-14 00:00:00,2018-01-14 00:00:00,PRATE,surface,-98.4379,35.4329,2.67e-05
2018-01-14 00:00:00,2018-01-14 00:00:00,PRATE,surface,-97.5004,35.4329,3.24e-05
2018-01-14 00:00:00,2018-01-14 00:00:00,PRATE,surface,-96.5629,35.4329,3.99e-05
2018-01-14 00:00:00,2018-01-14 00:00:00,PRATE,surface,-95.6254,35.4329,5e-05
2018-01-14 00:00:00,2018-01-14 00:00:00,PRATE,surface,-94.6879,35.4329,6.65e-05
2018-01-14 00:00:00,2018-01-14 00:00:00,PRATE,surface,-93.7504,35.4329,8.36e-05
2018-01-14 00:00:00,2018-01-14 00:00:00,PRATE,surface,-92.8129,35.4329,8.42e-05
2018-01-14 00:00:00,2018-01-14 00:00:00,PRATE,surface,-107.813,36.3778,2.03e-05
2018-01-14 00:00:00,2018-01-14 00:00:00,PRATE,surface,-106.875,36.3778,1.23e-05
2018-01-14 00:00:00,2018-01-14 00:00:00,PRATE,surface,-105.938,36.3778,7.5e-06
2018-01-14 00:00:00,2018-01-14 00:00:00,PRATE,surface,-105,36.3778,5.2e-06
2018-01-14 00:00:00,2018-01-14 00:00:00,PRATE,surface,-104.063,36.3778,3.8e-06
2018-01-14 00:00:00,2018-01-14 00:00:00,PRATE,surface,-103.125,36.3778,6.9e-06
2018-01-14 00:00:00,2018-01-14 00:00:00,PRATE,surface,-102.188,36.3778,9.7e-06
2018-01-14 00:00:00,2018-01-14 00:00:00,PRATE,surface,-101.25,36.3778,1.37e-05
2018-01-14 00:00:00,2018-01-14 00:00:00,PRATE,surface,-100.313,36.3778,1.93e-05
2018-01-14 00:00:00,2018-01-14 00:00:00,PRATE,surface,-99.3754,36.3778,2.56e-05
2018-01-14 00:00:00,2018-01-14 00:00:00,PRATE,surface,-98.4379,36.3778,3.09e-05
2018-01-14 00:00:00,2018-01-14 00:00:00,PRATE,surface,-97.5004,36.3778,3.82e-05
2018-01-14 00:00:00,2018-01-14 00:00:00,PRATE,surface,-96.5629,36.3778,4.53e-05
2018-01-14 00:00:00,2018-01-14 00:00:00,PRATE,surface,-95.6254,36.3778,4.98e-05
2018-01-14 00:00:00,2018-01-14 00:00:00,PRATE,surface,-94.6879,36.3778,5.9e-05
2018-01-14 00:00:00,2018-01-14 00:00:00,PRATE,surface,-93.7504,36.3778,7.21e-05
2018-01-14 00:00:00,2018-01-14 00:00:00,PRATE,surface,-92.8129,36.3778,7.46e-05
