2016-06-21 00:00:00,2016-06-21 00:00:00,TMP,surface,-107.813,25.0393,293.431
2016-06-21 00:00:00,2016-06-21 00:00:00,TMP,surface,-106.875,25.0393,287.357
2016-06-21 00:00:00,2016-06-21 00:00:00,TMP,surface,-105.938,25.0393,282.268
2016-06-21 00:00:00,2016-06-21 00:00:00,TMP,surface,-105,25.0393,281.007
2016-06-21 00:00:00,2016-06-21 00:00:00,TMP,surface,-104.063,25.0393,284.871
2016-06-21 00:00:00,2016-06-21 00:00:00,TMP,surface,-103.125,25.0393,287.215
2016-06-21 00:00:00,2016-06-21 00:00:00,TMP,surface,-102.188,25.0393,286.928
2016-06-21 00:00:00,2016-06-21 00:00:00,TMP,surface,-101.25,25.0393,285.423
2016-06-21 00:00:00,2016-06-21 00:00:00,TMP,surface,-100.313,25.0393,285.692
2016-06-21 00:00:00,2016-06-21 00:00:00,TMP,surface,-99.3754,25.0393,288.308
2016-06-21 00:00:00,2016-06-21 00:00:00,TMP,surface,-98.4379,25.0393,291.637
2016-06-21 00:00:00,2016-06-21 00:00:00,TMP,surface,-97.5004,25.0393,297.189
2016-06-21 00:00:00,2016-06-21 00:00:00,TMP,surface,-96.5629,25.0393,297.388
2016-06-21 00:00:00,2016-06-21 00:00:00,TMP,surface,-95.6254,25.0393,297.189
2016-06-21 00:00:00,2016-06-21 00:00:00,TMP,surface,-94.6879,25.0393,297.556
2016-06-21 00:00:00,2016-06-21 00:00:00,TMP,surface,-93.7504,25.0393,298.116
2016-06-21 00:00:00,2016-06-21 00:00:00,TMP,surface,-92.8129,25.0393,298.322
2016-06-21 00:00:00,2016-06-21 00:00:00,TMP,surface,-107.813,25.9842,288.032
2016-06-21 00:00:00,2016-06-21 00:00:00,TMP,surface,-106.875,25.9842,282.786
2016-06-21 00:00:00,2016-06-21 00:00:00,TMP,surface,-105.938,25.9842,280.461
2016-06-21 00:00:00,2016-06-21 00:00:00,TMP,surface,-105,25.9842,282.812
2016-06-21 00:00:00,2016-06-21 00:00:00,TMP,surface,-104.063,25.9842,286.317
2016-06-21 00:00:00,2016-06-21 00:00:00,TMP,surface,-103.125,25.9842,287.271
2016-06-21 00:00:00,2016-06-21 00:00:00,TMP,surface,-102.188,25.9842,286.704
2016-06-21 00:00:00,2016-06-21 00:00:00,TMP,surface,-101.25,25.9842,286.271
2016-06-21 00:00:00,2016-06-21 00:00:00,TMP,surface,-100.313,25.9842,286.522
2016-06-21 00:00:00,2016-06-21 00:00:00,TMP,surface,-99.3754,25.9842,288.824
2016-06-21 00:00:00,2016-06-21 00:00:00,TMP,surface,-98.4379,25.9842,291.095
2016-06-21 00:00:00,2016-06-21 00:00:00,TMP,surface,-97.5004,25.9842,292.773
2016-06-21 00:00:00,2016-06-21 00:00:00,TMP,surface,-96.5629,25.9842,296.882
2016-06-21 00:00:00,2016-06-21 00:00:00,TMP,surface,-95.6254,25.9842,296.78
2016-06-21 00:00:00,2016-06-21 00:00:00,TMP,surface,-94.6879,25.9842,296.764
2016-06-21 00:00:00,2016-06-21 00:00:00,TMP,surface,-93.7504,25.9842,297.112
2016-06-21 00:00:00,2016-06-21 00:00:00,TMP,surface,-92.8129,25.9842,297.594
2016-06-21 00:00:00,2016-06-21 00:00:00,TMP,surface,-107.813,26.929,283.181
2016-06-21 00:00:00,2016-06-21 00:00:00,TMP,surface,-106.875,26.929,279.564
2016-06-21 00:00:00,2016-06-21 00:00:00,TMP,surface,-105.938,26.929,281.567
2016-06-21 00:00:00,2016-06-21 00:00:00,TMP,surface,-105,26.929,284.525
2016-06-21 00:00:00,2016-06-21 00:00:00,TMP,surface,-104.063,26.929,285.69
2016-06-21 00:00:00,2016-06-21 00:00:00,TMP,surface,-103.125,26.929,284.962
2016-06-21 00:00:00,2016-06-21 00:00:00,TMP,surface,-102.188,26.929,285.087
2016-06-21 00:00:00,2016-06-21 00:00:00,TMP,surface,-101.25,26.929,285.893
2016-06-21 00:00:00,2016-06-21 00:00:00,TMP,surface,-100.313,26.929,286.975
2016-06-21 00:00:00,2016-06-21 00:00:00,TMP,surface,-99.3754,26.929,288.256
2016-06-21 00:00:00,2016-06-21 00:00:00,TMP,surface,-98.4379,26.929,289.242
2016-06-21 00:00:00,2016-06-21 00:00:00,TMP,surface,-97.5004,26.929,295.08
2016-06-21 00:00:00,2016-06-21 00:00:00,TMP,surface,-96.5629,26.929,295.964
2016-06-21 00:00:00,2016-06-21 00:00:00,TMP,surface,-95.6254,26.929,296.296
2016-06-21 00:00:00,2016-06-21 00:00:00,TMP,surface,-94.6879,26.929,296.21
2016-06-21 00:00:00,2016-06-21 00:00:00,TMP,surface,-93.7504,26.929,296.224
2016-06-21 00:00:00,2016-06-21 00:00:00,TMP,surface,-92.8129,26.929,296.524
2016-06-21 00:00:00,2016-06-21 00:00:00,TMP,surface,-107.813,27.8739,280
2016-06-21 00:00:00,2016-06-21 00:00:00,TMP,surface,-106.875,27.8739,279.071
2016-06-21 00:00:00,2016-06-21 00:00:00,TMP,surface,-105.938,27.8739,282.325
2016-06-21 00:00:00,2016-06-21 00:00:00,TMP,surface,-105,27.8739,284.799
2016-06-21 00:00:00,2016-06-21 00:00:00,TMP,surface,-104.063,27.8739,284.72
2016-06-21 00:00:00,2016-06-21 00:00:00,TMP,surface,-103.125,27.8739,283.388
2016-06-21 00:00:00,2016-06-21 00:00:00,TMP,surface,-102.188,27.8739,283.596
2016-06-21 00:00:00,2016-06-21 00:00:00,TMP,surface,-101.25,27.8739,284.989
2016-06-21 00:00:00,2016-06-21 00:00:00,TMP,surface,-100.313,27.8739,286.204
2016-06-21 00:00:00,2016-06-21 00:00:00,TMP,surface,-99.3754,27.8739,286.613
2016-06-21 00:00:00,2016-06-21 00:00:00,TMP,surface,-98.4379,27.8739,287.148
2016-06-21 00:00:00,2016-06-21 00:00:00,TMP,surface,-97.5004,27.8739,291.664
2016-06-21 00:00:00,2016-06-21 00:00:00,TMP,surface,-96.5629,27.8739,296.06
2016-06-21 00:00:00,2016-06-21 00:00:00,TMP,surface,-95.6254,27.8739,296.218
2016-06-21 00:00:00,2016-06-21 00:00:00,TMP,surface,-94.6879,27.8739,295.789
2016-06-21 00:00:00,2016-06-21 00:00:00,TMP,surface,-93.7504,27.8739,295.572
2016-06-21 00:00:00,2016-06-21 00:00:00,TMP,surface,-92.8129,27.8739,295.711
2016-06-21 00:00:00,2016-06-21 00:00:00,TMP,surface,-107.813,28.8188,278.676
2016-06-21 00:00:00,2016-06-21 00:00:00,TMP,surface,-106.875,28.8188,279.445
2016-06-21 00:00:00,2016-06-21 00:00:00,TMP,surface,-105.938,28.8188,282.487
2016-06-21 00:00:00,2016-06-21 00:00:00,TMP,surface,-105,28.8188,283.869
2016-06-21 00:00:00,2016-06-21 00:00:00,TMP,surface,-104.063,28.8188,283.039
2016-06-21 00:00:00,2016-06-21 00:00:00,TMP,surface,-103.125,28.8188,282.335
2016-06-21 00:00:00,2016-06-21 00:00:00,TMP,surface,-102.188,28.8188,283.02
2016-06-21 00:00:00,2016-06-21 00:00:00,TMP,surface,-101.25,28.8188,284.224
2016-06-21 00:00:00,2016-06-21 00:00:00,TMP,surface,-100.313,28.8188,284.527
2016-06-21 00:00:00,2016-06-21 00:00:00,TMP,surface,-99.3754,28.8188,284.21
2016-06-21 00:00:00,2016-06-21 00:00:00,TMP,surface,-98.4379,28.8188,284.292
2016-06-21 00:00:00,2016-06-21 00:00:00,TMP,surface,-97.5004,28.8188,285.12
2016-06-21 00:00:00,2016-06-21 00:00:00,TMP,surface,-96.5629,28.8188,286.309
2016-06-21 00:00:00,2016-06-21 00:00:00,TMP,surface,-95.6254,28.8188,290.293
2016-06-21 00:00:00,2016-06-21 00:00:00,TMP,surface,-94.6879,28.8188,295.621
2016-06-21 00:00:00,2016-06-21 00:00:00,TMP,surface,-93.7504,28.8188,295.474
2016-06-21 00:00:00,2016-06-21 00:00:00,TMP,surface,-92.8129,28.8188,295.716
2016-06-21 00:00:00,2016-06-21 00:00:00,TMP,surface,-107.813,29.7637,279.498
2016-06-21 00:00:00,2016-06-21 00:00:00,TMP,surface,-106.875,29.7637,280.357
2016-06-21 00:00:00,2016-06-21 00:00:00,TMP,surface,-105.938,29.7637,282.22
2016-06-21 00:00:00,2016-06-21 00:00:00,TMP,surface,-105,29.7637,282.242
2016-06-21 00:00:00,2016-06-21 00:00:00,TMP,surface,-104.063,29.7637,282.274
2016-06-21 00:00:00,2016-06-21 00:00:00,TMP,surface,-103.125,29.7637,282.524
2016-06-21 00:00:00,2016-06-21 00:00:00,TMP,surface,-102.188,29.7637,283.234
2016-06-21 00:00:00,2016-06-21 00:00:00,TMP,surface,-101.25,29.7637,283.301
2016-06-21 00:00:00,2016-06-21 00:00:00,TMP,surface,-100.313,29.7637,282.642
2016-06-21 00:00:00,2016-06-21 00:00:00,TMP,surface,-99.3754,29.7637,281.997
2016-06-21 00:00:00,2016-06-21 00:00:00,TMP,surface,-98.4379,29.7637,281.895
2016-06-21 00:00:00,2016-06-21 00:00:00,TMP,surface,-97.5004,29.7637,282.229
2016-06-21 00:00:00,2016-06-21 00:00:00,TMP,surface,-96.5629,29.7637,282.946
2016-06-21 00:00:00,2016-06-21 00:00:00,TMP,surface,-95.6254,29.7637,284.021
2016-06-21 00:00:00,2016-06-21 00:00:00,TMP,surface,-94.6879,29.7637,288.042
2016-06-21 00:00:00,2016-06-21 00:00:00,TMP,surface,-93.7504,29.7637,292.604
2016-06-21 00:00:00,2016-06-21 00:00:00,TMP,surface,-92.8129,29.7637,284.823
2016-06-21 00:00:00,2016-06-21 00:00:00,TMP,surface,-107.813,30.7085,281.08
2016-06-21 00:00:00,2016-06-21 00:00:00,TMP,surface,-106.875,30.7085,281.615
2016-06-21 00:00:00,2016-06-21 00:00:00,TMP,surface,-105.938,30.7085,281.431
2016-06-21 00:00:00,2016-06-21 00:00:00,TMP,surface,-105,30.7085,281.292
2016-06-21 00:00:00,2016-06-21 00:00:00,TMP,surface,-104.063,30.7085,281.565
2016-06-21 00:00:00,2016-06-21 00:00:00,TMP,surface,-103.125,30.7085,282.311
2016-06-21 00:00:00,2016-06-21 00:00:00,TMP,surface,-102.188,30.7085,282.655
2016-06-21 00:00:00,2016-06-21 00:00:00,TMP,surface,-101.25,30.7085,282.143
2016-06-21 00:00:00,2016-06-21 00:00:00,TMP,surface,-100.313,30.7085,281.322
2016-06-21 00:00:00,2016-06-21 00:00:00,TMP,surface,-99.3754,30.7085,280.8
2016-06-21 00:00:00,2016-06-21 00:00:00,TMP,surface,-98.4379,30.7085,280.685
2016-06-21 00:00:00,2016-06-21 00:00:00,TMP,surface,-97.5004,30.7085,280.797
2016-06-21 00:00:00,2016-06-21 00:00:00,TMP,surface,-96.5629,30.7085,281.063
2016-06-21 00:00:00,2016-06-21 00:00:00,TMP,surface,-95.6254,30.7085,281.461
2016-06-21 00:00:00,2016-06-21 00:00:00,TMP,surface,-94.6879,30.7085,281.783
2016-06-21 00:00:00,2016-06-21 00:00:00,TMP,surface,-93.7504,30.7085,281.722
2016-06-21 00:00:00,2016-06-21 00:00:00,TMP,surface,-92.8129,30.7085,281.263
2016-06-21 00:00:00,2016-06-21 00:00:00,TMP,surface,-107.813,31.6534,280.501
2016-06-21 00:00:00,2016-06-21 00:00:00,TMP,surface,-106.875,31.6534,280.732
2016-06-21 00:00:00,2016-06-21 00:00:00,TMP,surface,-105.938,31.6534,280.085
2016-06-21 00:00:00,2016-06-21 00:00:00,TMP,surface,-105,31.6534,280.138
2016-06-21 00:00:00,2016-06-21 00:00:00,TMP,surface,-104.063,31.6534,280.82
2016-06-21 00:00:00,2016-06-21 00:00:00,TMP,surface,-103.125,31.6534,281.549
2016-06-21 00:00:00,2016-06-21 00:00:00,TMP,surface,-102.188,31.6534,281.69
2016-06-21 00:00:00,2016-06-21 00:00:00,TMP,surface,-101.25,31.6534,281.114
2016-06-21 00:00:00,2016-06-21 00:00:00,TMP,surface,-100.313,31.6534,280.679
2016-06-21 00:00:00,2016-06-21 00:00:00,TMP,surface,-99.3754,31.6534,280.444
2016-06-21 00:00:00,2016-06-21 00:00:00,TMP,surface,-98.4379,31.6534,280.223
2016-06-21 00:00:00,2016-06-21 00:00:00,TMP,surface,-97.5004,31.6534,280.042
2016-06-21 00:00:00,2016-06-21 00:00:00,TMP,surface,-96.5629,31.6534,280.037
2016-06-21 00:00:00,2016-06-21 00:00:00,TMP,surface,-95.6254,31.6534,280.052
2016-06-21 00:00:00,2016-06-21 00:00:00,TMP,surface,-94.6879,31.6534,279.845
2016-06-21 00:00:00,2016-06-21 00:00:00,TMP,surface,-93.7504,31.6534,279.596
2016-06-21 00:00:00,2016-06-21 00:00:00,TMP,surface,-92.8129,31.6534,279.514
2016-06-21 00:00:00,2016-06-21 00:00:00,TMP,surface,-107.813,32.5983,277.472
2016-06-21 00:00:00,2016-06-21 00:00:00,TMP,surface,-106.875,32.5983,277.823
2016-06-21 00:00:00,2016-06-21 00:00:00,TMP,surface,-105.938,32.5983,277.885
2016-06-21 00:00:00,2016-06-21 00:00:00,TMP,surface,-105,32.5983,278.516
2016-06-21 00:00:00,2016-06-21 00:00:00,TMP,surface,-104.063,32.5983,279.663
2016-06-21 00:00:00,2016-06-21 00:00:00,TMP,surface,-103.125,32.5983,280.356
2016-06-21 00:00:00,2016-06-21 00:00:00,TMP,surface,-102.188,32.5983,280.357
2016-06-21 00:00:00,2016-06-21 00:00:00,TMP,surface,-101.25,32.5983,280.205
2016-06-21 00:00:00,2016-06-21 00:00:00,TMP,surface,-100.313,32.5983,280.21
2016-06-21 00:00:00,2016-06-21 00:00:00,TMP,surface,-99.3754,32.5983,280.208
2016-06-21 00:00:00,2016-06-21 00:00:00,TMP,surface,-98.4379,32.5983,279.972
2016-06-21 00:00:00,2016-06-21 00:00:00,TMP,surface,-97.5004,32.5983,279.629
2016-06-21 00:00:00,2016-06-21 00:00:00,TMP,surface,-96.5629,32.5983,279.33
2016-06-21 00:00:00,2016-06-21 00:00:00,TMP,surface,-95.6254,32.5983,278.996
2016-06-21 00:00:00,2016-06-21 00:00:00,TMP,surface,-94.6879,32.5983,278.592
2016-06-21 00:00:00,2016-06-21 00:00:00,TMP,surface,-93.7504,32.5983,278.354
2016-06-21 00:00:00,2016-06-21 00:00:00,TMP,surface,-92.8129,32.5983,278.506
2016-06-21 00:00:00,2016-06-21 00:00:00,TMP,surface,-107.813,33.5432,273.984
2016-06-21 00:00:00,2016-06-21 00:00:00,TMP,surface,-106.875,33.5432,275.093
2016-06-21 00:00:00,2016-06-21 00:00:00,TMP,surface,-105.938,33.5432,276.068
2016-06-21 00:00:00,2016-06-21 00:00:00,TMP,surface,-105,33.5432,277.125
2016-06-21 00:00:00,2016-06-21 00:00:00,TMP,surface,-104.063,33.5432,278.245
2016-06-21 00:00:00,2016-06-21 00:00:00,TMP,surface,-103.125,33.5432,278.938
2016-06-21 00:00:00,2016-06-21 00:00:00,TMP,surface,-102.188,33.5432,278.952
2016-06-21 00:00:00,2016-06-21 00:00:00,TMP,surface,-101.25,33.5432,278.936
2016-06-21 00:00:00,2016-06-21 00:00:00,TMP,surface,-100.313,33.5432,279.175
2016-06-21 00:00:00,2016-06-21 00:00:00,TMP,surface,-99.3754,33.5432,279.303
2016-06-21 00:00:00,2016-06-21 00:00:00,TMP,surface,-98.4379,33.5432,279.1
2016-06-21 00:00:00,2016-06-21 00:00:00,TMP,surface,-97.5004,33.5432,278.648
2016-06-21 00:00:00,2016-06-21 00:00:00,TMP,surface,-96.5629,33.5432,278.181
2016-06-21 00:00:00,2016-06-21 00:00:00,TMP,surface,-95.6254,33.5432,277.743
2016-06-21 00:00:00,2016-06-21 00:00:00,TMP,surface,-94.6879,33.5432,277.224
2016-06-21 00:00:00,2016-06-21 00:00:00,TMP,surface,-93.7504,33.5432,276.828
2016-06-21 00:00:00,2016-06-21 00:00:00,TMP,surface,-92.8129,33.5432,276.876
2016-06-21 00:00:00,2016-06-21 00:00:00,TMP,surface,-107.813,34.4881,272.074
2016-06-21 00:00:00,2016-06-21 00:00:00,TMP,surface,-106.875,34.4881,273.29
2016-06-21 00:00:00,2016-06-21 00:00:00,TMP,surface,-105.938,34.4881,274.288
2016-06-21 00:00:00,2016-06-21 00:00:00,TMP,surface,-105,34.4881,275.164
2016-06-21 00:00:00,2016-06-21 00:00:00,TMP,surface,-104.063,34.4881,276.367
2016-06-21 00:00:00,2016-06-21 00:00:00,TMP,surface,-103.125,34.4881,277.106
2016-06-21 00:00:00,2016-06-21 00:00:00,TMP,surface,-102.188,34.4881,277.303
2016-06-21 00:00:00,2016-06-21 00:00:00,TMP,surface,-101.25,34.4881,277.399
2016-06-21 00:00:00,2016-06-21 00:00:00,TMP,surface,-100.313,34.4881,277.637
2016-06-21 00:00:00,2016-06-21 00:00:00,TMP,surface,-99.3754,34.4881,277.869
2016-06-21 00:00:00,2016-06-21 00:00:00,TMP,surface,-98.4379,34.4881,277.786
2016-06-21 00:00:00,2016-06-21 00:00:00,TMP,surface,-97.5004,34.4881,277.4
2016-06-21 00:00:00,2016-06-21 00:00:00,TMP,surface,-96.5629,34.4881,276.912
2016-06-21 00:00:00,2016-06-21 00:00:00,TMP,surface,-95.6254,34.4881,276.303
2016-06-21 00:00:00,2016-06-21 00:00:00,TMP,surface,-94.6879,34.4881,275.543
2016-06-21 00:00:00,2016-06-21 00:00:00,TMP,surface,-93.7504,34.4881,274.973
2016-06-21 00:00:00,2016-06-21 00:00:00,TMP,surface,-92.8129,34.4881,274.868
2016-06-21 00:00:00,2016-06-21 00:00:00,TMP,surface,-107.813,35.4329,271.196
2016-06-21 00:00:00,2016-06-21 00:00:00,TMP,surface,-106.875,35.4329,271.704
2016-06-21 00:00:00,2016-06-21 00:00:00,TMP,surface,-105.938,35.4329,272.304
2016-06-21 00:00:00,2016-06-21 00:00:00,TMP,surface,-105,35.4329,273.221
2016-06-21 00:00:00,2016-06-21 00:00:00,TMP,surface,-104.063,35.4329,274.693
2016-06-21 00:00:00,2016-06-21 00:00:00,TMP,surface,-103.125,35.4329,275.656
2016-06-21 00:00:00,2016-06-21 00:00:00,TMP,surface,-102.188,35.4329,275.607
2016-06-21 00:00:00,2016-06-21 00:00:00,TMP,surface,-101.25,35.4329,275.572
2016-06-21 00:00:00,2016-06-21 00:00:00,TMP,surface,-100.313,35.4329,275.77
2016-06-21 00:00:00,2016-06-21 00:00:00,TMP,surface,-99.3754,35.4329,275.968
2016-06-21 00:00:00,2016-06-21 00:00:00,TMP,surface,-98.4379,35.4329,276.168
2016-06-21 00:00:00,2016-06-21 00:00:00,TMP,surface,-97.5004,35.4329,276.277
2016-06-21 00:00:00,2016-06-21 00:00:00,TMP,surface,-96.5629,35.4329,276.09
2016-06-21 00:00:00,2016-06-21 00:00:00,TMP,surface,-95.6254,35.4329,275.56
2016-06-21 00:00:00,2016-06-21 00:00:00,TMP,surface,-94.6879,35.4329,274.794
2016-06-21 00:00:00,2016-06-21 00:00:00,TMP,surface,-93.7504,35.4329,274.004
2016-06-21 00:00:00,2016-06-21 00:00:00,TMP,surface,-92.8129,35.4329,273.631
2016-06-21 00:00:00,2016-06-21 00:00:00,TMP,surface,-107.813,36.3778,269.762
2016-06-21 00:00:00,2016-06-21 00:00:00,TMP,surface,-106.875,36.3778,268.492
2016-06-21 00:00:00,2016-06-21 00:00:00,TMP,surface,-105.938,36.3778,269.061
2016-06-21 00:00:00,2016-06-21 00:00:00,TMP,surface,-105,36.3778,270.605
2016-06-21 00:00:00,2016-06-21 00:00:00,TMP,surface,-104.063,36.3778,272.199
2016-06-21 00:00:00,2016-06-21 00:00:00,TMP,surface,-103.125,36.3778,273.175
2016-06-21 00:00:00,2016-06-21 00:00:00,TMP,surface,-102.188,36.3778,273.536
2016-06-21 00:00:00,2016-06-21 00:00:00,TMP,surface,-101.25,36.3778,273.924
2016-06-21 00:00:00,2016-06-21 00:00:00,TMP,surface,-100.313,36.3778,274.56
2016-06-21 00:00:00,2016-06-21 00:00:00,TMP,surface,-99.3754,36.3778,275.092
2016-06-21 00:00:00,2016-06-21 00:00:00,TMP,surface,-98.4379,36.3778,275.167
2016-06-21 00:00:00,2016-06-21 00:00:00,TMP,surface,-97.5004,36.3778,275.252
2016-06-21 00:00:00,2016-06-21 00:00:00,TMP,surface,-96.5629,36.3778,275.316
2016-06-21 00:00:00,2016-06-21 00:00:00,TMP,surface,-95.6254,36.3778,274.893
2016-06-21 00:00:00,2016-06-21 00:00:00,TMP,surface,-94.6879,36.3778,274.088
2016-06-21 00:00:00,2016-06-21 00:00:00,TMP,surface,-93.7504,36.3778,273.228
2016-06-21 00:00:00,2016-06-21 00:00:00,TMP,surface,-92.8129,36.3778,272.696
2016-06-21 00:00:00,2016-06-21 00:00:00,PRATE,surface,-107.813,25.0393,4.96e-05
2016-06-21 00:00:00,2016-06-21 00:00:00,PRATE,surface,-106.875,25.0393,5.09e-05
2016-06-21 00:00:00,2016-06-21 00:00:00,PRATE,surface,-105.938,25.0393,5.4e-05
2016-06-21 00:00:00,2016-06-21 00:00:00,PRATE,surface,-105,25.0393,3.29e-05
2016-06-21 00:00:00,2016-06-21 00:00:00,PRATE,surface,-104.063,25.0393,1.05e-05
2016-06-21 00:00:00,2016-06-21 00:00:00,PRATE,surface,-103.125,25.0393,5e-06
2016-06-21 00:00:00,2016-06-21 00:00:00,PRATE,surface,-102.188,25.0393,6.9e-06
2016-06-21 00:00:00,2016-06-21 00:00:00,PRATE,surface,-101.25,25.0393,1.52e-05
2016-06-21 00:00:00,2016-06-21 00:00:00,PRATE,surface,-100.313,25.0393,2.29e-05
2016-06-21 00:00:00,2016-06-21 00:00:00,PRATE,surface,-99.3754,25.0393,1.83e-05
2016-06-21 00:00:00,2016-06-21 00:00:00,PRATE,surface,-98.4379,25.0393,1.24e-05
2016-06-21 00:00:00,2016-06-21 00:00:00,PRATE,surface,-97.5004,25.0393,1.61e-05
2016-06-21 00:00:00,2016-06-21 00:00:00,PRATE,surface,-96.5629,25.0393,2.37e-05
2016-06-21 00:00:00,2016-06-21 00:00:00,PRATE,surface,-95.6254,25.0393,3.73e-05
2016-06-21 00:00:00,2016-06-21 00:00:00,PRATE,surface,-94.6879,25.0393,2.46e-05
2016-06-21 00:00:00,2016-06-21 00:00:00,PRATE,surface,-93.7504,25.0393,2.82e-05
2016-06-21 00:00:00,2016-06-21 00:00:00,PRATE,surface,-92.8129,25.0393,3.59e-05
2016-06-21 00:00:00,2016-06-21 00:00:00,PRATE,surface,-107.813,25.9842,6.55e-05
2016-06-21 00:00:00,2016-06-21 00:00:00,PRATE,surface,-106.875,25.9842,6.69e-05
2016-06-21 00:00:00,2016-06-21 00:00:00,PRATE,surface,-105.938,25.9842,4.2e-05
2016-06-21 00:00:00,2016-06-21 00:00:00,PRATE,surface,-105,25.9842,1.99e-05
2016-06-21 00:00:00,2016-06-21 00:00:00,PRATE,surface,-104.063,25.9842,1.02e-05
2016-06-21 00:00:00,2016-06-21 00:00:00,PRATE,surface,-103.125,25.9842,8e-06
2016-06-21 00:00:00,2016-06-21 00:00:00,PRATE,surface,-102.188,25.9842,1.34e-05
2016-06-21 00:00:00,2016-06-21 00:00:00,PRATE,surface,-101.25,25.9842,2.22e-05
2016-06-21 00:00:00,2016-06-21 00:00:00,PRATE,surface,-100.313,25.9842,2.34e-05
2016-06-21 00:00:00,2016-06-21 00:00:00,PRATE,surface,-99.3754,25.9842,1.49e-05
2016-06-21 00:00:00,2016-06-21 00:00:00,PRATE,surface,-98.4379,25.9842,1.47e-05
2016-06-21 00:00:00,2016-06-21 00:00:00,PRATE,surface,-97.5004,25.9842,2.41e-05
2016-06-21 00:00:00,2016-06-21 00:00:00,PRATE,surface,-96.5629,25.9842,3.7e-05
2016-06-21 00:00:00,2016-06-21 00:00:00,PRATE,surface,-95.6254,25.9842,3.48e-05
2016-06-21 00:00:00,2016-06-21 00:00:00,PRATE,surface,-94.6879,25.9842,3.89e-05
2016-06-21 00:00:00,2016-06-21 00:00:00,PRATE,surface,-93.7504,25.9842,3.67e-05
2016-06-21 00:00:00,2016-06-21 00:00:00,PRATE,surface,-92.8129,25.9842,2.88e-05
2016-06-21 00:00:00,2016-06-21 00:00:00,PRATE,surface,-107.813,26.929,5.34e-05
2016-06-21 00:00:00,2016-06-21 00:00:00,PRATE,surface,-106.875,26.929,4.62e-05
2016-06-21 00:00:00,2016-06-21 00:00:00,PRATE,surface,-105.938,26.929,2.46e-05
2016-06-21 00:00:00,2016-06-21 00:00:00,PRATE,surface,-105,26.929,1.77e-05
2016-06-21 00:00:00,2016-06-21 00:00:00,PRATE,surface,-104.063,26.929,1.52e-05
2016-06-21 00:00:00,2016-06-21 00:00:00,PRATE,surface,-103.125,26.929,2.01e-05
2016-06-21 00:00:00,2016-06-21 00:00:00,PRATE,surface,-102.188,26.929,2.71e-05
2016-06-21 00:00:00,2016-06-21 00:00:00,PRATE,surface,-101.25,26.929,2.34e-05
2016-06-21 00:00:00,2016-06-21 00:00:00,PRATE,surface,-100.313,26.929,1.68e-05
2016-06-21 00:00:00,2016-06-21 00:00:00,PRATE,surface,-99.3754,26.929,1.46e-05
2016-06-21 00:00:00,2016-06-21 00:00:00,PRATE,surface,-98.4379,26.929,1.85e-05
2016-06-21 00:00:00,2016-06-21 00:00:00,PRATE,surface,-97.5004,26.929,3.13e-05
2016-06-21 00:00:00,2016-06-21 00:00:00,PRATE,surface,-96.5629,26.929,3.75e-05
2016-06-21 00:00:00,2016-06-21 00:00:00,PRATE,surface,-95.6254,26.929,5.37e-05
2016-06-21 00:00:00,2016-06-21 00:00:00,PRATE,surface,-94.6879,26.929,5.16e-05
2016-06-21 00:00:00,2016-06-21 00:00:00,PRATE,surface,-93.7504,26.929,5.58e-05
2016-06-21 00:00:00,2016-06-21 00:00:00,PRATE,surface,-92.8129,26.929,5.09e-05
2016-06-21 00:00:00,2016-06-21 00:00:00,PRATE,surface,-107.813,27.8739,3.23e-05
2016-06-21 00:00:00,2016-06-21 00:00:00,PRATE,surface,-106.875,27.8739,2.21e-05
2016-06-21 00:00:00,2016-06-21 00:00:00,PRATE,surface,-105.938,27.8739,1.15e-05
2016-06-21 00:00:00,2016-06-21 00:00:00,PRATE,surface,-105,27.8739,9e-06
2016-06-21 00:00:00,2016-06-21 00:00:00,PRATE,surface,-104.063,27.8739,1.21e-05
2016-06-21 00:00:00,2016-06-21 00:00:00,PRATE,surface,-103.125,27.8739,2.05e-05
2016-06-21 00:00:00,2016-06-21 00:00:00,PRATE,surface,-102.188,27.8739,2.26e-05
2016-06-21 00:00:00,2016-06-21 00:00:00,PRATE,surface,-101.25,27.8739,1.76e-05
2016-06-21 00:00:00,2016-06-21 00:00:00,PRATE,surface,-100.313,27.8739,1.67e-05
2016-06-21 00:00:00,2016-06-21 00:00:00,PRATE,surface,-99.3754,27.8739,2.28e-05
2016-06-21 00:00:00,2016-06-21 00:00:00,PRATE,surface,-98.4379,27.8739,2.79e-05
2016-06-21 00:00:00,2016-06-21 00:00:00,PRATE,surface,-97.5004,27.8739,3.36e-05
2016-06-21 00:00:00,2016-06-21 00:00:00,PRATE,surface,-96.5629,27.8739,4.06e-05
2016-06-21 00:00:00,2016-06-21 00:00:00,PRATE,surface,-95.6254,27.8739,4.68e-05
2016-06-21 00:00:00,2016-06-21 00:00:00,PRATE,surface,-94.6879,27.8739,5.41e-05
2016-06-21 00:00:00,2016-06-21 00:00:00,PRATE,surface,-93.7504,27.8739,6.21e-05
2016-06-21 00:00:00,2016-06-21 00:00:00,PRATE,surface,-92.8129,27.8739,7.07e-05
2016-06-21 00:00:00,2016-06-21 00:00:00,PRATE,surface,-107.813,28.8188,2.12e-05
2016-06-21 00:00:00,2016-06-21 00:00:00,PRATE,surface,-106.875,28.8188,1.04e-05
2016-06-21 00:00:00,2016-06-21 00:00:00,PRATE,surface,-105.938,28.8188,5.3e-06
2016-06-21 00:00:00,2016-06-21 00:00:00,PRATE,surface,-105,28.8188,4.6e-06
2016-06-21 00:00:00,2016-06-21 00:00:00,PRATE,surface,-104.063,28.8188,6.8e-06
2016-06-21 00:00:00,2016-06-21 00:00:00,PRATE,surface,-103.125,28.8188,9.3e-06
2016-06-21 00:00:00,2016-06-21 00:00:00,PRATE,surface,-102.188,28.8188,1.13e-05
2016-06-21 00:00:00,2016-06-21 00:00:00,PRATE,surface,-101.25,28.8188,1.24e-05
2016-06-21 00:00:00,2016-06-21 00:00:00,PRATE,surface,-100.313,28.8188,1.63e-05
2016-06-21 00:00:00,2016-06-21 00:00:00,PRATE,surface,-99.3754,28.8188,2.05e-05
2016-06-21 00:00:00,2016-06-21 00:00:00,PRATE,surface,-98.4379,28.8188,2.44e-05
2016-06-21 00:00:00,2016-06-21 00:00:00,PRATE,surface,-97.5004,28.8188,3.13e-05
2016-06-21 00:00:00,2016-06-21 00:00:00,PRATE,surface,-96.5629,28.8188,4.39e-05
2016-06-21 00:00:00,2016-06-21 00:00:00,PRATE,surface,-95.6254,28.8188,5.53e-05
2016-06-21 00:00:00,2016-06-21 00:00:00,PRATE,surface,-94.6879,28.8188,5.96e-05
2016-06-21 00:00:00,2016-06-21 00:00:00,PRATE,surface,-93.7504,28.8188,6.51e-05
2016-06-21 00:00:00,2016-06-21 00:00:00,PRATE,surface,-92.8129,28.8188,7.35e-05
2016-06-21 00:00:00,2016-06-21 00:00:00,PRATE,surface,-107.813,29.7637,8e-06
2016-06-21 00:00:00,2016-06-21 00:00:00,PRATE,surface,-106.875,29.7637,4.7e-06
2016-06-21 00:00:00,2016-06-21 00:00:00,PRATE,surface,-105.938,29.7637,3.6e-06
2016-06-21 00:00:00,2016-06-21 00:00:00,PRATE,surface,-105,29.7637,3.9e-06
2016-06-21 00:00:00,2016-06-21 00:00:00,PRATE,surface,-104.063,29.7637,4.7e-06
2016-06-21 00:00:00,2016-06-21 00:00:00,PRATE,surface,-103.125,29.7637,4.9e-06
2016-06-21 00:00:00,2016-06-21 00:00:00,PRATE,surface,-102.188,29.7637,5.6e-06
2016-06-21 00:00:00,2016-06-21 00:00:00,PRATE,surface,-101.25,29.7637,1.03e-05
2016-06-21 00:00:00,2016-06-21 00:00:00,PRATE,surface,-100.313,29.7637,1.59e-05
2016-06-21 00:00:00,2016-06-21 00:00:00,PRATE,surface,-99.3754,29.7637,1.75e-05
2016-06-21 00:00:00,2016-06-21 00:00:00,PRATE,surface,-98.4379,29.7637,1.88e-05
2016-06-21 00:00:00,2016-06-21 00:00:00,PRATE,surface,-97.5004,29.7637,2.33e-05
2016-06-21 00:00:00,2016-06-21 00:00:00,PRATE,surface,-96.5629,29.7637,3.54e-05
2016-06-21 00:00:00,2016-06-21 00:00:00,PRATE,surface,-95.6254,29.7637,5.15e-05
2016-06-21 00:00:00,2016-06-21 00:00:00,PRATE,surface,-94.6879,29.7637,6.4e-05
2016-06-21 00:00:00,2016-06-21 00:00:00,PRATE,surface,-93.7504,29.7637,7.11e-05
2016-06-21 00:00:00,2016-06-21 00:00:00,PRATE,surface,-92.8129,29.7637,6.41e-05
2016-06-21 00:00:00,2016-06-21 00:00:00,PRATE,surface,-107.813,30.7085,1.2e-06
2016-06-21 00:00:00,2016-06-21 00:00:00,PRATE,surface,-106.875,30.7085,1.2e-06
2016-06-21 00:00:00,2016-06-21 00:00:00,PRATE,surface,-105.938,30.7085,1.9e-06
2016-06-21 00:00:00,2016-06-21 00:00:00,PRATE,surface,-105,30.7085,2.5e-06
2016-06-21 00:00:00,2016-06-21 00:00:00,PRATE,surface,-104.063,30.7085,2.5e-06
2016-06-21 00:00:00,2016-06-21 00:00:00,PRATE,surface,-103.125,30.7085,3e-06
2016-06-21 00:00:00,2016-06-21 00:00:00,PRATE,surface,-102.188,30.7085,4.9e-06
2016-06-21 00:00:00,2016-06-21 00:00:00,PRATE,surface,-101.25,30.7085,9.7e-06
2016-06-21 00:00:00,2016-06-21 00:00:00,PRATE,surface,-100.313,30.7085,1.85e-05
2016-06-21 00:00:00,2016-06-21 00:00:00,PRATE,surface,-99.3754,30.7085,2.33e-05
2016-06-21 00:00:00,2016-06-21 00:00:00,PRATE,surface,-98.4379,30.7085,2.38e-05
2016-06-21 00:00:00,2016-06-21 00:00:00,PRATE,surface,-97.5004,30.7085,2.53e-05
2016-06-21 00:00:00,2016-06-21 00:00:00,PRATE,surface,-96.5629,30.7085,3.06e-05
2016-06-21 00:00:00,2016-06-21 00:00:00,PRATE,surface,-95.6254,30.7085,3.9e-05
2016-06-21 00:00:00,2016-06-21 00:00:00,PRATE,surface,-94.6879,30.7085,4.99e-05
2016-06-21 00:00:00,2016-06-21 00:00:00,PRATE,surface,-93.7504,30.7085,6.05e-05
2016-06-21 00:00:00,2016-06-21 00:00:00,PRATE,surface,-92.8129,30.7085,6.3e-05
2016-06-21 00:00:00,2016-06-21 00:00:00,PRATE,surface,-107.813,31.6534,1.1e-06
2016-06-21 00:00:00,2016-06-21 00:00:00,PRATE,surface,-106.875,31.6534,1.2e-06
2016-06-21 00:00:00,2016-06-21 00:00:00,PRATE,surface,-105.938,31.6534,1.6e-06
2016-06-21 00:00:00,2016-06-21 00:00:00,PRATE,surface,-105,31.6534,1.3e-06
2016-06-21 00:00:00,2016-06-21 00:00:00,PRATE,surface,-104.063,31.6534,1.2e-06
2016-06-21 00:00:00,2016-06-21 00:00:00,PRATE,surface,-103.125,31.6534,1.1e-06
2016-06-21 00:00:00,2016-06-21 00:00:00,PRATE,surface,-102.188,31.6534,1.8e-06
2016-06-21 00:00:00,2016-06-21 00:00:00,PRATE,surface,-101.25,31.6534,4.9e-06
2016-06-21 00:00:00,2016-06-21 00:00:00,PRATE,surface,-100.313,31.6534,1.14e-05
2016-06-21 00:00:00,2016-06-21 00:00:00,PRATE,surface,-99.3754,31.6534,1.86e-05
2016-06-21 00:00:00,2016-06-21 00:00:00,PRATE,surface,-98.4379,31.6534,2.73e-05
2016-06-21 00:00:00,2016-06-21 00:00:00,PRATE,surface,-97.5004,31.6534,3.57e-05
2016-06-21 00:00:00,2016-06-21 00:00:00,PRATE,surface,-96.5629,31.6534,4.11e-05
2016-06-21 00:00:00,2016-06-21 00:00:00,PRATE,surface,-95.6254,31.6534,4.51e-05
2016-06-21 00:00:00,2016-06-21 00:00:00,PRATE,surface,-94.6879,31.6534,5.27e-05
2016-06-21 00:00:00,2016-06-21 00:00:00,PRATE,surface,-93.7504,31.6534,6.34e-05
2016-06-21 00:00:00,2016-06-21 00:00:00,PRATE,surface,-92.8129,31.6534,6.79e-05
2016-06-21 00:00:00,2016-06-21 00:00:00,PRATE,surface,-107.813,32.5983,3.9e-06
2016-06-21 00:00:00,2016-06-21 00:00:00,PRATE,surface,-106.875,32.5983,2.8e-06
2016-06-21 00:00:00,2016-06-21 00:00:00,PRATE,surface,-105.938,32.5983,1.7e-06
2016-06-21 00:00:00,2016-06-21 00:00:00,PRATE,surface,-105,32.5983,1.2e-06
2016-06-21 00:00:00,2016-06-21 00:00:00,PRATE,surface,-104.063,32.5983,1.4e-06
2016-06-21 00:00:00,2016-06-21 00:00:00,PRATE,surface,-103.125,32.5983,1.9e-06
2016-06-21 00:00:00,2016-06-21 00:00:00,PRATE,surface,-102.188,32.5983,2.7e-06
2016-06-21 00:00:00,2016-06-21 00:00:00,PRATE,surface,-101.25,32.5983,5.7e-06
2016-06-21 00:00:00,2016-06-21 00:00:00,PRATE,surface,-100.313,32.5983,7.5e-06
2016-06-21 00:00:00,2016-06-21 00:00:00,PRATE,surface,-99.3754,32.5983,1.1e-05
2016-06-21 00:00:00,2016-06-21 00:00:00,PRATE,surface,-98.4379,32.5983,2.05e-05
2016-06-21 00:00:00,2016-06-21 00:00:00,PRATE,surface,-97.5004,32.5983,3.36e-05
2016-06-21 00:00:00,2016-06-21 00:00:00,PRATE,surface,-96.5629,32.5983,4.45e-05
2016-06-21 00:00:00,2016-06-21 00:00:00,PRATE,surface,-95.6254,32.5983,5.36e-05
2016-06-21 00:00:00,2016-06-21 00:00:00,PRATE,surface,-94.6879,32.5983,6.38e-05
2016-06-21 00:00:00,2016-06-21 00:00:00,PRATE,surface,-93.7504,32.5983,7.24e-05
2016-06-21 00:00:00,2016-06-21 00:00:00,PRATE,surface,-92.8129,32.5983,7.85e-05
2016-06-21 00:00:00,2016-06-21 00:00:00,PRATE,surface,-107.813,33.5432,6.6e-06
2016-06-21 00:00:00,2016-06-21 00:00:00,PRATE,surface,-106.875,33.5432,4.8e-06
2016-06-21 00:00:00,2016-06-21 00:00:00,PRATE,surface,-105.938,33.5432,3.3e-06
2016-06-21 00:00:00,2016-06-21 00:00:00,PRATE,surface,-105,33.5432,1.8e-06
2016-06-21 00:00:00,2016-06-21 00:00:00,PRATE,surface,-104.063,33.5432,1.6e-06
2016-06-21 00:00:00,2016-06-21 00:00:00,PRATE,surface,-103.125,33.5432,2.4e-06
2016-06-21 00:00:00,2016-06-21 00:00:00,PRATE,surface,-102.188,33.5432,4e-06
2016-06-21 00:00:00,2016-06-21 00:00:00,PRATE,surface,-101.25,33.5432,6.4e-06
2016-06-21 00:00:00,2016-06-21 00:00:00,PRATE,surface,-100.313,33.5432,8.1e-06
2016-06-21 00:00:00,2016-06-21 00:00:00,PRATE,surface,-99.3754,33.5432,9.2e-06
2016-06-21 00:00:00,2016-06-21 00:00:00,PRATE,surface,-98.4379,33.5432,1.53e-05
2016-06-21 00:00:00,2016-06-21 00:00:00,PRATE,surface,-97.5004,33.5432,2.59e-05
2016-06-21 00:00:00,2016-06-21 00:00:00,PRATE,surface,-96.5629,33.5432,3.5e-05
2016-06-21 00:00:00,2016-06-21 00:00:00,PRATE,surface,-95.6254,33.5432,4.19e-05
2016-06-21 00:00:00,2016-06-21 00:00:00,PRATE,surface,-94.6879,33.5432,5.16e-05
2016-06-21 00:00:00,2016-06-21 00:00:00,PRATE,surface,-93.7504,33.5432,6.35e-05
2016-06-21 00:00:00,2016-06-21 00:00:00,PRATE,surface,-92.8129,33.5432,7.15e-05
2016-06-21 00:00:00,2016-06-21 00:00:00,PRATE,surface,-107.813,34.4881,8.1e-06
2016-06-21 00:00:00,2016-06-21 00:00:00,PRATE,surface,-106.875,34.4881,5.6e-06
2016-06-21 00:00:00,2016-06-21 00:00:00,PRATE,surface,-105.938,34.4881,3.8e-06
2016-06-21 00:00:00,2016-06-21 00:00:00,PRATE,surface,-105,34.4881,4.6e-06
2016-06-21 00:00:00,2016-06-21 00:00:00,PRATE,surface,-104.063,34.4881,3.8e-06
2016-06-21 00:00:00,2016-06-21 00:00:00,PRATE,surface,-103.125,34.4881,3.7e-06
2016-06-21 00:00:00,2016-06-21 00:00:00,PRATE,surface,-102.188,34.4881,5.2e-06
2016-06-21 00:00:00,2016-06-21 00:00:00,PRATE,surface,-101.25,34.4881,7.1e-06
2016-06-21 00:00:00,2016-06-21 00:00:00,PRATE,surface,-100.313,34.4881,9.2e-06
2016-06-21 00:00:00,2016-06-21 00:00:00,PRATE,surface,-99.3754,34.4881,1.17e-05
2016-06-21 00:00:00,2016-06-21 00:00:00,PRATE,surface,-98.4379,34.4881,1.5e-05
2016-06-21 00:00:00,2016-06-21 00:00:00,PRATE,surface,-97.5004,34.4881,2.08e-05
2016-06-21 00:00:00,2016-06-21 00:00:00,PRATE,surface,-96.5629,34.4881,2.79e-05
2016-06-21 00:00:00,2016-06-21 00:00:00,PRATE,surface,-95.6254,34.4881,3.42e-05
2016-06-21 00:00:00,2016-06-21 00:00:00,PRATE,surface,-94.6879,34.4881,4.13e-05
2016-06-21 00:00:00,2016-06-21 00:00:00,PRATE,surface,-93.7504,34.4881,5.21e-05
2016-06-21 00:00:00,2016-06-21 00:00:00,PRATE,surface,-92.8129,34.4881,6.24e-05
2016-06-21 00:00:00,2016-06-21 00:00:00,PRATE,surface,-107.813,35.4329,1.18e-05
2016-06-21 00:00:00,2016-06-21 00:00:00,PRATE,surface,-106.875,35.4329,7.1e-06
2016-06-21 00:00:00,2016-06-21 00:00:00,PRATE,surface,-105.938,35.4329,4.5e-06
2016-06-21 00:00:00,2016-06-21 00:00:00,PRATE,surface,-105,35.4329,5.7e-06
2016-06-21 00:00:00,2016-06-21 00:00:00,PRATE,surface,-104.063,35.4329,6.3e-06
2016-06-21 00:00:00,2016-06-21 00:00:00,PRATE,surface,-103.125,35.4329,8.2e-06
2016-06-21 00:00:00,2016-06-21 00:00:00,PRATE,surface,-102.188,35.4329,1.06e-05
2016-06-21 00:00:00,2016-06-21 00:00:00,PRATE,surface,-101.25,35.4329,1.4e-05
2016-06-21 00:00:00,2016-06-21 00:00:00,PRATE,surface,-100.313,35.4329,1.69e-05
2016-06-21 00:00:00,2016-06-21 00:00:00,PRATE,surface,-99.3754,35.4329,1.92e-05
2016-06-21 00:00:00,2016-06-21 00:00:00,PRATE,surface,-98.4379,35.4329,2.15e-05
2016-06-21 00:00:00,2016-06-21 00:00:00,PRATE,surface,-97.5004,35.4329,2.48e-05
2016-06-21 00:00:00,2016-06-21 00:00:00,PRATE,surface,-96.5629,35.4329,2.94e-05
2016-06-21 00:00:00,2016-06-21 00:00:00,PRATE,surface,-95.6254,35.4329,3.39e-05
2016-06-21 00:00:00,2016-06-21 00:00:00,PRATE,surface,-94.6879,35.4329,3.72e-05
2016-06-21 00:00:00,2016-06-21 00:00:00,PRATE,surface,-93.7504,35.4329,4.04e-05
2016-06-21 00:00:00,2016-06-21 00:00:00,PRATE,surface,-92.8129,35.4329,4.42e-05
2016-06-21 00:00:00,2016-06-21 00:00:00,PRATE,surface,-107.813,36.3778,2.6e-05
2016-06-21 00:00:00,2016-06-21 00:00:00,PRATE,surface,-106.875,36.3778,2.13e-05
2016-06-21 00:00:00,2016-06-21 00:00:00,PRATE,surface,-105.938,36.3778,1.32e-05
2016-06-21 00:00:00,2016-06-21 00:00:00,PRATE,surface,-105,36.3778,1.34e-05
2016-06-21 00:00:00,2016-06-21 00:00:00,PRATE,surface,-104.063,36.3778,1.42e-05
2016-06-21 00:00:00,2016-06-21 00:00:00,PRATE,surface,-103.125,36.3778,1.69e-05
2016-06-21 00:00:00,2016-06-21 00:00:00,PRATE,surface,-102.188,36.3778,2.15e-05
2016-06-21 00:00:00,2016-06-21 00:00:00,PRATE,surface,-101.25,36.3778,2.43e-05
2016-06-21 00:00:00,2016-06-21 00:00:00,PRATE,surface,-100.313,36.3778,2.39e-05
2016-06-21 00:00:00,2016-06-21 00:00:00,PRATE,surface,-99.3754,36.3778,2.31e-05
2016-06-21 00:00:00,2016-06-21 00:00:00,PRATE,surface,-98.4379,36.3778,2.41e-05
2016-06-21 00:00:00,2016-06-21 00:00:00,PRATE,surface,-97.5004,36.3778,2.58e-05
2016-06-21 00:00:00,2016-06-21 00:00:00,PRATE,surface,-96.5629,36.3778,2.82e-05
2016-06-21 00:00:00,2016-06-21 00:00:00,PRATE,surface,-95.6254,36.3778,3.08e-05
2016-06-21 00:00:00,2016-06-21 00:00:00,PRATE,surface,-94.6879,36.3778,3.22e-05
2016-06-21 00:00:00,2016-06-21 00:00:00,PRATE,surface,-93.7504,36.3778,3.3e-05
2016-06-21 00:00:00,2016-06-21 00:00:00,PRATE,surface,-92.8129,36.3778,3.27e-05
