2014-06-01 00:00:00,2014-06-01 00:00:00,TMP,surface,-107.813,25.0393,295.628
2014-06-01 00:00:00,2014-06-01 00:00:00,TMP,surface,-106.875,25.0393,289.149
2014-06-01 00:00:00,2014-06-01 00:00:00,TMP,surface,-105.938,25.0393,283.908
2014-06-01 00:00:00,2014-06-01 00:00:00,TMP,surface,-105,25.0393,282.153
2014-06-01 00:00:00,2014-06-01 00:00:00,TMP,surface,-104.063,25.0393,285.357
2014-06-01 00:00:00,2014-06-01 00:00:00,TMP,surface,-103.125,25.0393,288.036
2014-06-01 00:00:00,2014-06-01 00:00:00,TMP,surface,-102.188,25.0393,287.781
2014-06-01 00:00:00,2014-06-01 00:00:00,TMP,surface,-101.25,25.0393,285.991
2014-06-01 00:00:00,2014-06-01 00:00:00,TMP,surface,-100.313,25.0393,285.783
2014-06-01 00:00:00,2014-06-01 00:00:00,TMP,surface,-99.3754,25.0393,288.359
2014-06-01 00:00:00,2014-06-01 00:00:00,TMP,surface,-98.4379,25.0393,291.594
2014-06-01 00:00:00,2014-06-01 00:00:00,TMP,surface,-97.5004,25.0393,298.226
2014-06-01 00:00:00,2014-06-01 00:00:00,TMP,surface,-96.5629,25.0393,298.245
2014-06-01 00:00:00,2014-06-01 00:00:00,TMP,surface,-95.6254,25.0393,298.281
2014-06-01 00:00:00,2014-06-01 00:00:00,TMP,surface,-94.6879,25.0393,298.61
2014-06-01 00:00:00,2014-06-01 00:00:00,TMP,surface,-93.7504,25.0393,298.813
2014-06-01 00:00:00,2014-06-01 00:00:00,TMP,surface,-92.8129,25.0393,298.85
2014-06-01 00:00:00,2014-06-01 00:00:00,TMP,surface,-107.813,25.9842,290.148
2014-06-01 00:00:00,2014-06-01 00:00:00,TMP,surface,-106.875,25.9842,284.583
2014-06-01 00:00:00,2014-06-01 00:00:00,TMP,surface,-105.938,25.9842,281.887
2014-06-01 00:00:00,2014-06-01 00:00:00,TMP,surface,-105,25.9842,283.098
2014-06-01 00:00:00,2014-06-01 00:00:00,TMP,surface,-104.063,25.9842,286.137
2014-06-01 00:00:00,2014-06-01 00:00:00,TMP,surface,-103.125,25.9842,287.501
2014-06-01 00:00:00,2014-06-01 00:00:00,TMP,surface,-102.188,25.9842,287.394
2014-06-01 00:00:00,2014-06-01 00:00:00,TMP,surface,-101.25,25.9842,286.885
2014-06-01 00:00:00,2014-06-01 00:00:00,TMP,surface,-100.313,25.9842,287.002
2014-06-01 00:00:00,2014-06-01 00:00:00,TMP,surface,-99.3754,25.9842,289.801
2014-06-01 00:00:00,2014-06-01 00:00:00,TMP,surface,-98.4379,25.9842,291.991
2014-06-01 00:00:00,2014-06-01 00:00:00,TMP,surface,-97.5004,25.9842,293.722
2014-06-01 00:00:00,2014-06-01 00:00:00,TMP,surface,-96.5629,25.9842,297.778
2014-06-01 00:00:00,2014-06-01 00:00:00,TMP,surface,-95.6254,25.9842,298.063
2014-06-01 00:00:00,2014-06-01 00:00:00,TMP,surface,-94.6879,25.9842,298.377
2014-06-01 00:00:00,2014-06-01 00:00:00,TMP,surface,-93.7504,25.9842,298.559
2014-06-01 00:00:00,2014-06-01 00:00:00,TMP,surface,-92.8129,25.9842,298.655
2014-06-01 00:00:00,2014-06-01 00:00:00,TMP,surface,-107.813,26.929,285.018
2014-06-01 00:00:00,2014-06-01 00:00:00,TMP,surface,-106.875,26.929,281.495
2014-06-01 00:00:00,2014-06-01 00:00:00,TMP,surface,-105.938,26.929,282.429
2014-06-01 00:00:00,2014-06-01 00:00:00,TMP,surface,-105,26.929,284.884
2014-06-01 00:00:00,2014-06-01 00:00:00,TMP,surface,-104.063,26.929,286.049
2014-06-01 00:00:00,2014-06-01 00:00:00,TMP,surface,-103.125,26.929,285.577
2014-06-01 00:00:00,2014-06-01 00:00:00,TMP,surface,-102.188,26.929,285.634
2014-06-01 00:00:00,2014-06-01 00:00:00,TMP,surface,-101.25,26.929,286.495
2014-06-01 00:00:00,2014-06-01 00:00:00,TMP,surface,-100.313,26.929,287.837
2014-06-01 00:00:00,2014-06-01 00:00:00,TMP,surface,-99.3754,26.929,289.836
2014-06-01 00:00:00,2014-06-01 00:00:00,TMP,surface,-98.4379,26.929,290.825
2014-06-01 00:00:00,2014-06-01 00:00:00,TMP,surface,-97.5004,26.929,296.994
2014-06-01 00:00:00,2014-06-01 00:00:00,TMP,surface,-96.5629,26.929,297.493
2014-06-01 00:00:00,2014-06-01 00:00:00,TMP,surface,-95.6254,26.929,297.909
2014-06-01 00:00:00,2014-06-01 00:00:00,TMP,surface,-94.6879,26.929,298.3
2014-06-01 00:00:00,2014-06-01 00:00:00,TMP,surface,-93.7504,26.929,298.332
2014-06-01 00:00:00,2014-06-01 00:00:00,TMP,surface,-92.8129,26.929,298.313
2014-06-01 00:00:00,2014-06-01 00:00:00,TMP,surface,-107.813,27.8739,281.837
2014-06-01 00:00:00,2014-06-01 00:00:00,TMP,surface,-106.875,27.8739,280.469
2014-06-01 00:00:00,2014-06-01 00:00:00,TMP,surface,-105.938,27.8739,283.308
2014-06-01 00:00:00,2014-06-01 00:00:00,TMP,surface,-105,27.8739,285.613
2014-06-01 00:00:00,2014-06-01 00:00:00,TMP,surface,-104.063,27.8739,285.386
2014-06-01 00:00:00,2014-06-01 00:00:00,TMP,surface,-103.125,27.8739,284.241
2014-06-01 00:00:00,2014-06-01 00:00:00,TMP,surface,-102.188,27.8739,284.225
2014-06-01 00:00:00,2014-06-01 00:00:00,TMP,surface,-101.25,27.8739,285.49
2014-06-01 00:00:00,2014-06-01 00:00:00,TMP,surface,-100.313,27.8739,287.105
2014-06-01 00:00:00,2014-06-01 00:00:00,TMP,surface,-99.3754,27.8739,288.095
2014-06-01 00:00:00,2014-06-01 00:00:00,TMP,surface,-98.4379,27.8739,289.085
2014-06-01 00:00:00,2014-06-01 00:00:00,TMP,surface,-97.5004,27.8739,293.818
2014-06-01 00:00:00,2014-06-01 00:00:00,TMP,surface,-96.5629,27.8739,298.095
2014-06-01 00:00:00,2014-06-01 00:00:00,TMP,surface,-95.6254,27.8739,298.081
2014-06-01 00:00:00,2014-06-01 00:00:00,TMP,surface,-94.6879,27.8739,297.777
2014-06-01 00:00:00,2014-06-01 00:00:00,TMP,surface,-93.7504,27.8739,297.647
2014-06-01 00:00:00,2014-06-01 00:00:00,TMP,surface,-92.8129,27.8739,297.649
2014-06-01 00:00:00,2014-06-01 00:00:00,TMP,surface,-107.813,28.8188,280.233
2014-06-01 00:00:00,2014-06-01 00:00:00,TMP,surface,-106.875,28.8188,280.625
2014-06-01 00:00:00,2014-06-01 00:00:00,TMP,surface,-105.938,28.8188,283.527
2014-06-01 00:00:00,2014-06-01 00:00:00,TMP,surface,-105,28.8188,285.183
2014-06-01 00:00:00,2014-06-01 00:00:00,TMP,surface,-104.063,28.8188,284.037
2014-06-01 00:00:00,2014-06-01 00:00:00,TMP,surface,-103.125,28.8188,283.228
2014-06-01 00:00:00,2014-06-01 00:00:00,TMP,surface,-102.188,28.8188,283.497
2014-06-01 00:00:00,2014-06-01 00:00:00,TMP,surface,-101.25,28.8188,284.685
2014-06-01 00:00:00,2014-06-01 00:00:00,TMP,surface,-100.313,28.8188,285.423
2014-06-01 00:00:00,2014-06-01 00:00:00,TMP,surface,-99.3754,28.8188,285.847
2014-06-01 00:00:00,2014-06-01 00:00:00,TMP,surface,-98.4379,28.8188,286.735
2014-06-01 00:00:00,2014-06-01 00:00:00,TMP,surface,-97.5004,28.8188,288.159
2014-06-01 00:00:00,2014-06-01 00:00:00,TMP,surface,-96.5629,28.8188,289.703
2014-06-01 00:00:00,2014-06-01 00:00:00,TMP,surface,-95.6254,28.8188,293.34
2014-06-01 00:00:00,2014-06-01 00:00:00,TMP,surface,-94.6879,28.8188,297.852
2014-06-01 00:00:00,2014-06-01 00:00:00,TMP,surface,-93.7504,28.8188,297.716
2014-06-01 00:00:00,2014-06-01 00:00:00,TMP,surface,-92.8129,28.8188,297.78
2014-06-01 00:00:00,2014-06-01 00:00:00,TMP,surface,-107.813,29.7637,280.791
2014-06-01 00:00:00,2014-06-01 00:00:00,TMP,surface,-106.875,29.7637,281.567
2014-06-01 00:00:00,2014-06-01 00:00:00,TMP,surface,-105.938,29.7637,283.401
2014-06-01 00:00:00,2014-06-01 00:00:00,TMP,surface,-105,29.7637,283.541
2014-06-01 00:00:00,2014-06-01 00:00:00,TMP,surface,-104.063,29.7637,283.215
2014-06-01 00:00:00,2014-06-01 00:00:00,TMP,surface,-103.125,29.7637,283.313
2014-06-01 00:00:00,2014-06-01 00:00:00,TMP,surface,-102.188,29.7637,283.836
2014-06-01 00:00:00,2014-06-01 00:00:00,TMP,surface,-101.25,29.7637,284.125
2014-06-01 00:00:00,2014-06-01 00:00:00,TMP,surface,-100.313,29.7637,283.994
2014-06-01 00:00:00,2014-06-01 00:00:00,TMP,surface,-99.3754,29.7637,284.162
2014-06-01 00:00:00,2014-06-01 00:00:00,TMP,surface,-98.4379,29.7637,284.981
2014-06-01 00:00:00,2014-06-01 00:00:00,TMP,surface,-97.5004,29.7637,286.09
2014-06-01 00:00:00,2014-06-01 00:00:00,TMP,surface,-96.5629,29.7637,287.181
2014-06-01 00:00:00,2014-06-01 00:00:00,TMP,surface,-95.6254,29.7637,288.255
2014-06-01 00:00:00,2014-06-01 00:00:00,TMP,surface,-94.6879,29.7637,291.809
2014-06-01 00:00:00,2014-06-01 00:00:00,TMP,surface,-93.7504,29.7637,295.869
2014-06-01 00:00:00,2014-06-01 00:00:00,TMP,surface,-92.8129,29.7637,289.21
2014-06-01 00:00:00,2014-06-01 00:00:00,TMP,surface,-107.813,30.7085,282.039
2014-06-01 00:00:00,2014-06-01 00:00:00,TMP,surface,-106.875,30.7085,282.951
2014-06-01 00:00:00,2014-06-01 00:00:00,TMP,surface,-105.938,30.7085,282.772
2014-06-01 00:00:00,2014-06-01 00:00:00,TMP,surface,-105,30.7085,282.113
2014-06-01 00:00:00,2014-06-01 00:00:00,TMP,surface,-104.063,30.7085,282.237
2014-06-01 00:00:00,2014-06-01 00:00:00,TMP,surface,-103.125,30.7085,283.151
2014-06-01 00:00:00,2014-06-01 00:00:00,TMP,surface,-102.188,30.7085,283.825
2014-06-01 00:00:00,2014-06-01 00:00:00,TMP,surface,-101.25,30.7085,283.724
2014-06-01 00:00:00,2014-06-01 00:00:00,TMP,surface,-100.313,30.7085,283.391
2014-06-01 00:00:00,2014-06-01 00:00:00,TMP,surface,-99.3754,30.7085,283.493
2014-06-01 00:00:00,2014-06-01 00:00:00,TMP,surface,-98.4379,30.7085,284.149
2014-06-01 00:00:00,2014-06-01 00:00:00,TMP,surface,-97.5004,30.7085,284.961
2014-06-01 00:00:00,2014-06-01 00:00:00,TMP,surface,-96.5629,30.7085,285.676
2014-06-01 00:00:00,2014-06-01 00:00:00,TMP,surface,-95.6254,30.7085,286.295
2014-06-01 00:00:00,2014-06-01 00:00:00,TMP,surface,-94.6879,30.7085,286.753
2014-06-01 00:00:00,2014-06-01 00:00:00,TMP,surface,-93.7504,30.7085,286.893
2014-06-01 00:00:00,2014-06-01 00:00:00,TMP,surface,-92.8129,30.7085,286.591
2014-06-01 00:00:00,2014-06-01 00:00:00,TMP,surface,-107.813,31.6534,281.545
2014-06-01 00:00:00,2014-06-01 00:00:00,TMP,surface,-106.875,31.6534,282.089
2014-06-01 00:00:00,2014-06-01 00:00:00,TMP,surface,-105.938,31.6534,280.997
2014-06-01 00:00:00,2014-06-01 00:00:00,TMP,surface,-105,31.6534,280.666
2014-06-01 00:00:00,2014-06-01 00:00:00,TMP,surface,-104.063,31.6534,281.516
2014-06-01 00:00:00,2014-06-01 00:00:00,TMP,surface,-103.125,31.6534,282.697
2014-06-01 00:00:00,2014-06-01 00:00:00,TMP,surface,-102.188,31.6534,283.273
2014-06-01 00:00:00,2014-06-01 00:00:00,TMP,surface,-101.25,31.6534,283.313
2014-06-01 00:00:00,2014-06-01 00:00:00,TMP,surface,-100.313,31.6534,283.353
2014-06-01 00:00:00,2014-06-01 00:00:00,TMP,surface,-99.3754,31.6534,283.529
2014-06-01 00:00:00,2014-06-01 00:00:00,TMP,surface,-98.4379,31.6534,283.924
2014-06-01 00:00:00,2014-06-01 00:00:00,TMP,surface,-97.5004,31.6534,284.37
2014-06-01 00:00:00,2014-06-01 00:00:00,TMP,surface,-96.5629,31.6534,284.801
2014-06-01 00:00:00,2014-06-01 00:00:00,TMP,surface,-95.6254,31.6534,285.178
2014-06-01 00:00:00,2014-06-01 00:00:00,TMP,surface,-94.6879,31.6534,285.349
2014-06-01 00:00:00,2014-06-01 00:00:00,TMP,surface,-93.7504,31.6534,285.425
2014-06-01 00:00:00,2014-06-01 00:00:00,TMP,surface,-92.8129,31.6534,285.589
2014-06-01 00:00:00,2014-06-01 00:00:00,TMP,surface,-107.813,32.5983,278.885
2014-06-01 00:00:00,2014-06-01 00:00:00,TMP,surface,-106.875,32.5983,278.98
2014-06-01 00:00:00,2014-06-01 00:00:00,TMP,surface,-105.938,32.5983,278.964
2014-06-01 00:00:00,2014-06-01 00:00:00,TMP,surface,-105,32.5983,279.332
2014-06-01 00:00:00,2014-06-01 00:00:00,TMP,surface,-104.063,32.5983,280.631
2014-06-01 00:00:00,2014-06-01 00:00:00,TMP,surface,-103.125,32.5983,281.77
2014-06-01 00:00:00,2014-06-01 00:00:00,TMP,surface,-102.188,32.5983,282.209
2014-06-01 00:00:00,2014-06-01 00:00:00,TMP,surface,-101.25,32.5983,282.709
2014-06-01 00:00:00,2014-06-01 00:00:00,TMP,surface,-100.313,32.5983,283.311
2014-06-01 00:00:00,2014-06-01 00:00:00,TMP,surface,-99.3754,32.5983,283.74
2014-06-01 00:00:00,2014-06-01 00:00:00,TMP,surface,-98.4379,32.5983,283.893
2014-06-01 00:00:00,2014-06-01 00:00:00,TMP,surface,-97.5004,32.5983,283.985
2014-06-01 00:00:00,2014-06-01 00:00:00,TMP,surface,-96.5629,32.5983,284.154
2014-06-01 00:00:00,2014-06-01 00:00:00,TMP,surface,-95.6254,32.5983,284.343
2014-06-01 00:00:00,2014-06-01 00:00:00,TMP,surface,-94.6879,32.5983,284.485
2014-06-01 00:00:00,2014-06-01 00:00:00,TMP,surface,-93.7504,32.5983,284.653
2014-06-01 00:00:00,2014-06-01 00:00:00,TMP,surface,-92.8129,32.5983,285.1
2014-06-01 00:00:00,2014-06-01 00:00:00,TMP,surface,-107.813,33.5432,275.818
2014-06-01 00:00:00,2014-06-01 00:00:00,TMP,surface,-106.875,33.5432,276.661
2014-06-01 00:00:00,2014-06-01 00:00:00,TMP,surface,-105.938,33.5432,277.338
2014-06-01 00:00:00,2014-06-01 00:00:00,TMP,surface,-105,33.5432,278.17
2014-06-01 00:00:00,2014-06-01 00:00:00,TMP,surface,-104.063,33.5432,279.575
2014-06-01 00:00:00,2014-06-01 00:00:00,TMP,surface,-103.125,33.5432,280.415
2014-06-01 00:00:00,2014-06-01 00:00:00,TMP,surface,-102.188,33.5432,280.817
2014-06-01 00:00:00,2014-06-01 00:00:00,TMP,surface,-101.25,33.5432,281.511
2014-06-01 00:00:00,2014-06-01 00:00:00,TMP,surface,-100.313,33.5432,282.511
2014-06-01 00:00:00,2014-06-01 00:00:00,TMP,surface,-99.3754,33.5432,283.228
2014-06-01 00:00:00,2014-06-01 00:00:00,TMP,surface,-98.4379,33.5432,283.309
2014-06-01 00:00:00,2014-06-01 00:00:00,TMP,surface,-97.5004,33.5432,283.13
2014-06-01 00:00:00,2014-06-01 00:00:00,TMP,surface,-96.5629,33.5432,283.143
2014-06-01 00:00:00,2014-06-01 00:00:00,TMP,surface,-95.6254,33.5432,283.29
2014-06-01 00:00:00,2014-06-01 00:00:00,TMP,surface,-94.6879,33.5432,283.385
2014-06-01 00:00:00,2014-06-01 00:00:00,TMP,surface,-93.7504,33.5432,283.557
2014-06-01 00:00:00,2014-06-01 00:00:00,TMP,surface,-92.8129,33.5432,283.967
2014-06-01 00:00:00,2014-06-01 00:00:00,TMP,surface,-107.813,34.4881,274.548
2014-06-01 00:00:00,2014-06-01 00:00:00,TMP,surface,-106.875,34.4881,275.78
2014-06-01 00:00:00,2014-06-01 00:00:00,TMP,surface,-105.938,34.4881,276.585
2014-06-01 00:00:00,2014-06-01 00:00:00,TMP,surface,-105,34.4881,277.325
2014-06-01 00:00:00,2014-06-01 00:00:00,TMP,surface,-104.063,34.4881,277.921
2014-06-01 00:00:00,2014-06-01 00:00:00,TMP,surface,-103.125,34.4881,278.545
2014-06-01 00:00:00,2014-06-01 00:00:00,TMP,surface,-102.188,34.4881,279.188
2014-06-01 00:00:00,2014-06-01 00:00:00,TMP,surface,-101.25,34.4881,280.18
2014-06-01 00:00:00,2014-06-01 00:00:00,TMP,surface,-100.313,34.4881,281.265
2014-06-01 00:00:00,2014-06-01 00:00:00,TMP,surface,-99.3754,34.4881,281.868
2014-06-01 00:00:00,2014-06-01 00:00:00,TMP,surface,-98.4379,34.4881,281.916
2014-06-01 00:00:00,2014-06-01 00:00:00,TMP,surface,-97.5004,34.4881,281.801
2014-06-01 00:00:00,2014-06-01 00:00:00,TMP,surface,-96.5629,34.4881,281.893
2014-06-01 00:00:00,2014-06-01 00:00:00,TMP,surface,-95.6254,34.4881,282.028
2014-06-01 00:00:00,2014-06-01 00:00:00,TMP,surface,-94.6879,34.4881,281.916
2014-06-01 00:00:00,2014-06-01 00:00:00,TMP,surface,-93.7504,34.4881,281.895
2014-06-01 00:00:00,2014-06-01 00:00:00,TMP,surface,-92.8129,34.4881,282.317
2014-06-01 00:00:00,2014-06-01 00:00:00,TMP,surface,-107.813,35.4329,274.636
2014-06-01 00:00:00,2014-06-01 00:00:00,TMP,surface,-106.875,35.4329,275.031
2014-06-01 00:00:00,2014-06-01 00:00:00,TMP,surface,-105.938,35.4329,275.353
2014-06-01 00:00:00,2014-06-01 00:00:00,TMP,surface,-105,35.4329,275.708
2014-06-01 00:00:00,2014-06-01 00:00:00,TMP,surface,-104.063,35.4329,276.94
2014-06-01 00:00:00,2014-06-01 00:00:00,TMP,surface,-103.125,35.4329,277.839
2014-06-01 00:00:00,2014-06-01 00:00:00,TMP,surface,-102.188,35.4329,278.189
2014-06-01 00:00:00,2014-06-01 00:00:00,TMP,surface,-101.25,35.4329,278.833
2014-06-01 00:00:00,2014-06-01 00:00:00,TMP,surface,-100.313,35.4329,279.673
2014-06-01 00:00:00,2014-06-01 00:00:00,TMP,surface,-99.3754,35.4329,280.167
2014-06-01 00:00:00,2014-06-01 00:00:00,TMP,surface,-98.4379,35.4329,280.474
2014-06-01 00:00:00,2014-06-01 00:00:00,TMP,surface,-97.5004,35.4329,280.778
2014-06-01 00:00:00,2014-06-01 00:00:00,TMP,surface,-96.5629,35.4329,281.026
2014-06-01 00:00:00,2014-06-01 00:00:00,TMP,surface,-95.6254,35.4329,281.061
2014-06-01 00:00:00,2014-06-01 00:00:00,TMP,surface,-94.6879,35.4329,280.818
2014-06-01 00:00:00,2014-06-01 00:00:00,TMP,surface,-93.7504,35.4329,280.577
2014-06-01 00:00:00,2014-06-01 00:00:00,TMP,surface,-92.8129,35.4329,280.735
2014-06-01 00:00:00,2014-06-01 00:00:00,TMP,surface,-107.813,36.3778,274.125
2014-06-01 00:00:00,2014-06-01 00:00:00,TMP,surface,-106.875,36.3778,272.741
2014-06-01 00:00:00,2014-06-01 00:00:00,TMP,surface,-105.938,36.3778,273.018
2014-06-01 00:00:00,2014-06-01 00:00:00,TMP,surface,-105,36.3778,274.023
2014-06-01 00:00:00,2014-06-01 00:00:00,TMP,surface,-104.063,36.3778,275.373
2014-06-01 00:00:00,2014-06-01 00:00:00,TMP,surface,-103.125,36.3778,276.279
2014-06-01 00:00:00,2014-06-01 00:00:00,TMP,surface,-102.188,36.3778,276.949
2014-06-01 00:00:00,2014-06-01 00:00:00,TMP,surface,-101.25,36.3778,277.604
2014-06-01 00:00:00,2014-06-01 00:00:00,TMP,surface,-100.313,36.3778,278.546
2014-06-01 00:00:00,2014-06-01 00:00:00,TMP,surface,-99.3754,36.3778,279.229
2014-06-01 00:00:00,2014-06-01 00:00:00,TMP,surface,-98.4379,36.3778,279.405
2014-06-01 00:00:00,2014-06-01 00:00:00,TMP,surface,-97.5004,36.3778,279.756
2014-06-01 00:00:00,2014-06-01 00:00:00,TMP,surface,-96.5629,36.3778,280.239
2014-06-01 00:00:00,2014-06-01 00:00:00,TMP,surface,-95.6254,36.3778,280.253
2014-06-01 00:00:00,2014-06-01 00:00:00,TMP,surface,-94.6879,36.3778,279.858
2014-06-01 00:00:00,2014-06-01 00:00:00,TMP,surface,-93.7504,36.3778,279.463
2014-06-01 00:00:00,2014-06-01 00:00:00,TMP,surface,-92.8129,36.3778,279.562
2014-06-01 00:00:00,2014-06-01 00:00:00,PRATE,surface,-107.813,25.0393,7.69e-05
2014-06-01 00:00:00,2014-06-01 00:00:00,PRATE,surface,-106.875,25.0393,0.000117
2014-06-01 00:00:00,2014-06-01 00:00:00,PRATE,surface,-105.938,25.0393,0.0001
2014-06-01 00:00:00,2014-06-01 00:00:00,PRATE,surface,-105,25.0393,4.42e-05
2014-06-01 00:00:00,2014-06-01 00:00:00,PRATE,surface,-104.063,25.0393,1.74e-05
2014-06-01 00:00:00,2014-06-01 00:00:00,PRATE,surface,-103.125,25.0393,9e-06
2014-06-01 00:00:00,2014-06-01 00:00:00,PRATE,surface,-102.188,25.0393,9.7e-06
2014-06-01 00:00:00,2014-06-01 00:00:00,PRATE,surface,-101.25,25.0393,1.38e-05
2014-06-01 00:00:00,2014-06-01 00:00:00,PRATE,surface,-100.313,25.0393,3.4e-05
2014-06-01 00:00:00,2014-06-01 00:00:00,PRATE,surface,-99.3754,25.0393,3.95e-05
2014-06-01 00:00:00,2014-06-01 00:00:00,PRATE,surface,-98.4379,25.0393,3.22e-05
2014-06-01 00:00:00,2014-06-01 00:00:00,PRATE,surface,-97.5004,25.0393,3.81e-05
2014-06-01 00:00:00,2014-06-01 00:00:00,PRATE,surface,-96.5629,25.0393,6.73e-05
2014-06-01 00:00:00,2014-06-01 00:00:00,PRATE,surface,-95.6254,25.0393,7.95e-05
2014-06-01 00:00:00,2014-06-01 00:00:00,PRATE,surface,-94.6879,25.0393,6.06e-05
2014-06-01 00:00:00,2014-06-01 00:00:00,PRATE,surface,-93.7504,25.0393,4.32e-05
2014-06-01 00:00:00,2014-06-01 00:00:00,PRATE,surface,-92.8129,25.0393,4.67e-05
2014-06-01 00:00:00,2014-06-01 00:00:00,PRATE,surface,-107.813,25.9842,7.47e-05
2014-06-01 00:00:00,2014-06-01 00:00:00,PRATE,surface,-106.875,25.9842,0.000103
2014-06-01 00:00:00,2014-06-01 00:00:00,PRATE,surface,-105.938,25.9842,7.12e-05
2014-06-01 00:00:00,2014-06-01 00:00:00,PRATE,surface,-105,25.9842,3.24e-05
2014-06-01 00:00:00,2014-06-01 00:00:00,PRATE,surface,-104.063,25.9842,1.58e-05
2014-06-01 00:00:00,2014-06-01 00:00:00,PRATE,surface,-103.125,25.9842,1.24e-05
2014-06-01 00:00:00,2014-06-01 00:00:00,PRATE,surface,-102.188,25.9842,1.38e-05
2014-06-01 00:00:00,2014-06-01 00:00:00,PRATE,surface,-101.25,25.9842,1.83e-05
2014-06-01 00:00:00,2014-06-01 00:00:00,PRATE,surface,-100.313,25.9842,2.54e-05
2014-06-01 00:00:00,2014-06-01 00:00:00,PRATE,surface,-99.3754,25.9842,2.22e-05
2014-06-01 00:00:00,2014-06-01 00:00:00,PRATE,surface,-98.4379,25.9842,2.4e-05
2014-06-01 00:00:00,2014-06-01 00:00:00,PRATE,surface,-97.5004,25.9842,4.48e-05
2014-06-01 00:00:00,2014-06-01 00:00:00,PRATE,surface,-96.5629,25.9842,7.89e-05
2014-06-01 00:00:00,2014-06-01 00:00:00,PRATE,surface,-95.6254,25.9842,9.96e-05
2014-06-01 00:00:00,2014-06-01 00:00:00,PRATE,surface,-94.6879,25.9842,7.7e-05
2014-06-01 00:00:00,2014-06-01 00:00:00,PRATE,surface,-93.7504,25.9842,5.38e-05
2014-06-01 00:00:00,2014-06-01 00:00:00,PRATE,surface,-92.8129,25.9842,4.96e-05
2014-06-01 00:00:00,2014-06-01 00:00:00,PRATE,surface,-107.813,26.929,6.83e-05
2014-06-01 00:00:00,2014-06-01 00:00:00,PRATE,surface,-106.875,26.929,5.96e-05
2014-06-01 00:00:00,2014-06-01 00:00:00,PRATE,surface,-105.938,26.929,3.97e-05
2014-06-01 00:00:00,2014-06-01 00:00:00,PRATE,surface,-105,26.929,2.37e-05
2014-06-01 00:00:00,2014-06-01 00:00:00,PRATE,surface,-104.063,26.929,1.9e-05
2014-06-01 00:00:00,2014-06-01 00:00:00,PRATE,surface,-103.125,26.929,3.09e-05
2014-06-01 00:00:00,2014-06-01 00:00:00,PRATE,surface,-102.188,26.929,3.94e-05
2014-06-01 00:00:00,2014-06-01 00:00:00,PRATE,surface,-101.25,26.929,3.69e-05
2014-06-01 00:00:00,2014-06-01 00:00:00,PRATE,surface,-100.313,26.929,3.03e-05
2014-06-01 00:00:00,2014-06-01 00:00:00,PRATE,surface,-99.3754,26.929,2.82e-05
2014-06-01 00:00:00,2014-06-01 00:00:00,PRATE,surface,-98.4379,26.929,3.57e-05
2014-06-01 00:00:00,2014-06-01 00:00:00,PRATE,surface,-97.5004,26.929,5.22e-05
2014-06-01 00:00:00,2014-06-01 00:00:00,PRATE,surface,-96.5629,26.929,7.92e-05
2014-06-01 00:00:00,2014-06-01 00:00:00,PRATE,surface,-95.6254,26.929,9.66e-05
2014-06-01 00:00:00,2014-06-01 00:00:00,PRATE,surface,-94.6879,26.929,7.28e-05
2014-06-01 00:00:00,2014-06-01 00:00:00,PRATE,surface,-93.7504,26.929,6.53e-05
2014-06-01 00:00:00,2014-06-01 00:00:00,PRATE,surface,-92.8129,26.929,5.64e-05
2014-06-01 00:00:00,2014-06-01 00:00:00,PRATE,surface,-107.813,27.8739,4.12e-05
2014-06-01 00:00:00,2014-06-01 00:00:00,PRATE,surface,-106.875,27.8739,3.09e-05
2014-06-01 00:00:00,2014-06-01 00:00:00,PRATE,surface,-105.938,27.8739,2.23e-05
2014-06-01 00:00:00,2014-06-01 00:00:00,PRATE,surface,-105,27.8739,2.08e-05
2014-06-01 00:00:00,2014-06-01 00:00:00,PRATE,surface,-104.063,27.8739,2.68e-05
2014-06-01 00:00:00,2014-06-01 00:00:00,PRATE,surface,-103.125,27.8739,4.48e-05
2014-06-01 00:00:00,2014-06-01 00:00:00,PRATE,surface,-102.188,27.8739,5.31e-05
2014-06-01 00:00:00,2014-06-01 00:00:00,PRATE,surface,-101.25,27.8739,4.7e-05
2014-06-01 00:00:00,2014-06-01 00:00:00,PRATE,surface,-100.313,27.8739,4.86e-05
2014-06-01 00:00:00,2014-06-01 00:00:00,PRATE,surface,-99.3754,27.8739,5.63e-05
2014-06-01 00:00:00,2014-06-01 00:00:00,PRATE,surface,-98.4379,27.8739,6.03e-05
2014-06-01 00:00:00,2014-06-01 00:00:00,PRATE,surface,-97.5004,27.8739,5.92e-05
2014-06-01 00:00:00,2014-06-01 00:00:00,PRATE,surface,-96.5629,27.8739,6.53e-05
2014-06-01 00:00:00,2014-06-01 00:00:00,PRATE,surface,-95.6254,27.8739,7.14e-05
2014-06-01 00:00:00,2014-06-01 00:00:00,PRATE,surface,-94.6879,27.8739,5.92e-05
2014-06-01 00:00:00,2014-06-01 00:00:00,PRATE,surface,-93.7504,27.8739,4.61e-05
2014-06-01 00:00:00,2014-06-01 00:00:00,PRATE,surface,-92.8129,27.8739,4.59e-05
2014-06-01 00:00:00,2014-06-01 00:00:00,PRATE,surface,-107.813,28.8188,2.24e-05
2014-06-01 00:00:00,2014-06-01 00:00:00,PRATE,surface,-106.875,28.8188,2.04e-05
2014-06-01 00:00:00,2014-06-01 00:00:00,PRATE,surface,-105.938,28.8188,1.99e-05
2014-06-01 00:00:00,2014-06-01 00:00:00,PRATE,surface,-105,28.8188,1.82e-05
2014-06-01 00:00:00,2014-06-01 00:00:00,PRATE,surface,-104.063,28.8188,2.98e-05
2014-06-01 00:00:00,2014-06-01 00:00:00,PRATE,surface,-103.125,28.8188,4.14e-05
2014-06-01 00:00:00,2014-06-01 00:00:00,PRATE,surface,-102.188,28.8188,4.9e-05
2014-06-01 00:00:00,2014-06-01 00:00:00,PRATE,surface,-101.25,28.8188,5.18e-05
2014-06-01 00:00:00,2014-06-01 00:00:00,PRATE,surface,-100.313,28.8188,6.31e-05
2014-06-01 00:00:00,2014-06-01 00:00:00,PRATE,surface,-99.3754,28.8188,7.76e-05
2014-06-01 00:00:00,2014-06-01 00:00:00,PRATE,surface,-98.4379,28.8188,8.23e-05
2014-06-01 00:00:00,2014-06-01 00:00:00,PRATE,surface,-97.5004,28.8188,7.32e-05
2014-06-01 00:00:00,2014-06-01 00:00:00,PRATE,surface,-96.5629,28.8188,6.24e-05
2014-06-01 00:00:00,2014-06-01 00:00:00,PRATE,surface,-95.6254,28.8188,6.12e-05
2014-06-01 00:00:00,2014-06-01 00:00:00,PRATE,surface,-94.6879,28.8188,6.21e-05
2014-06-01 00:00:00,2014-06-01 00:00:00,PRATE,surface,-93.7504,28.8188,5.3e-05
2014-06-01 00:00:00,2014-06-01 00:00:00,PRATE,surface,-92.8129,28.8188,4.15e-05
2014-06-01 00:00:00,2014-06-01 00:00:00,PRATE,surface,-107.813,29.7637,1.71e-05
2014-06-01 00:00:00,2014-06-01 00:00:00,PRATE,surface,-106.875,29.7637,1.58e-05
2014-06-01 00:00:00,2014-06-01 00:00:00,PRATE,surface,-105.938,29.7637,1.65e-05
2014-06-01 00:00:00,2014-06-01 00:00:00,PRATE,surface,-105,29.7637,1.6e-05
2014-06-01 00:00:00,2014-06-01 00:00:00,PRATE,surface,-104.063,29.7637,1.88e-05
2014-06-01 00:00:00,2014-06-01 00:00:00,PRATE,surface,-103.125,29.7637,2.49e-05
2014-06-01 00:00:00,2014-06-01 00:00:00,PRATE,surface,-102.188,29.7637,3.03e-05
2014-06-01 00:00:00,2014-06-01 00:00:00,PRATE,surface,-101.25,29.7637,3.97e-05
2014-06-01 00:00:00,2014-06-01 00:00:00,PRATE,surface,-100.313,29.7637,5.71e-05
2014-06-01 00:00:00,2014-06-01 00:00:00,PRATE,surface,-99.3754,29.7637,7.62e-05
2014-06-01 00:00:00,2014-06-01 00:00:00,PRATE,surface,-98.4379,29.7637,8.58e-05
2014-06-01 00:00:00,2014-06-01 00:00:00,PRATE,surface,-97.5004,29.7637,7.94e-05
2014-06-01 00:00:00,2014-06-01 00:00:00,PRATE,surface,-96.5629,29.7637,7.22e-05
2014-06-01 00:00:00,2014-06-01 00:00:00,PRATE,surface,-95.6254,29.7637,7.37e-05
2014-06-01 00:00:00,2014-06-01 00:00:00,PRATE,surface,-94.6879,29.7637,7.84e-05
2014-06-01 00:00:00,2014-06-01 00:00:00,PRATE,surface,-93.7504,29.7637,7.91e-05
2014-06-01 00:00:00,2014-06-01 00:00:00,PRATE,surface,-92.8129,29.7637,5.24e-05
2014-06-01 00:00:00,2014-06-01 00:00:00,PRATE,surface,-107.813,30.7085,1.66e-05
2014-06-01 00:00:00,2014-06-01 00:00:00,PRATE,surface,-106.875,30.7085,1.8e-05
2014-06-01 00:00:00,2014-06-01 00:00:00,PRATE,surface,-105.938,30.7085,2.28e-05
2014-06-01 00:00:00,2014-06-01 00:00:00,PRATE,surface,-105,30.7085,2.38e-05
2014-06-01 00:00:00,2014-06-01 00:00:00,PRATE,surface,-104.063,30.7085,1.97e-05
2014-06-01 00:00:00,2014-06-01 00:00:00,PRATE,surface,-103.125,30.7085,1.98e-05
2014-06-01 00:00:00,2014-06-01 00:00:00,PRATE,surface,-102.188,30.7085,2.03e-05
2014-06-01 00:00:00,2014-06-01 00:00:00,PRATE,surface,-101.25,30.7085,2.54e-05
2014-06-01 00:00:00,2014-06-01 00:00:00,PRATE,surface,-100.313,30.7085,3.63e-05
2014-06-01 00:00:00,2014-06-01 00:00:00,PRATE,surface,-99.3754,30.7085,5.19e-05
2014-06-01 00:00:00,2014-06-01 00:00:00,PRATE,surface,-98.4379,30.7085,6.94e-05
2014-06-01 00:00:00,2014-06-01 00:00:00,PRATE,surface,-97.5004,30.7085,8.15e-05
2014-06-01 00:00:00,2014-06-01 00:00:00,PRATE,surface,-96.5629,30.7085,7.98e-05
2014-06-01 00:00:00,2014-06-01 00:00:00,PRATE,surface,-95.6254,30.7085,7.87e-05
2014-06-01 00:00:00,2014-06-01 00:00:00,PRATE,surface,-94.6879,30.7085,8.74e-05
2014-06-01 00:00:00,2014-06-01 00:00:00,PRATE,surface,-93.7504,30.7085,8.15e-05
2014-06-01 00:00:00,2014-06-01 00:00:00,PRATE,surface,-92.8129,30.7085,6.8e-05
2014-06-01 00:00:00,2014-06-01 00:00:00,PRATE,surface,-107.813,31.6534,1.71e-05
2014-06-01 00:00:00,2014-06-01 00:00:00,PRATE,surface,-106.875,31.6534,2.03e-05
2014-06-01 00:00:00,2014-06-01 00:00:00,PRATE,surface,-105.938,31.6534,2.69e-05
2014-06-01 00:00:00,2014-06-01 00:00:00,PRATE,surface,-105,31.6534,3.25e-05
2014-06-01 00:00:00,2014-06-01 00:00:00,PRATE,surface,-104.063,31.6534,3.04e-05
2014-06-01 00:00:00,2014-06-01 00:00:00,PRATE,surface,-103.125,31.6534,2.28e-05
2014-06-01 00:00:00,2014-06-01 00:00:00,PRATE,surface,-102.188,31.6534,1.89e-05
2014-06-01 00:00:00,2014-06-01 00:00:00,PRATE,surface,-101.25,31.6534,2.23e-05
2014-06-01 00:00:00,2014-06-01 00:00:00,PRATE,surface,-100.313,31.6534,2.57e-05
2014-06-01 00:00:00,2014-06-01 00:00:00,PRATE,surface,-99.3754,31.6534,3.17e-05
2014-06-01 00:00:00,2014-06-01 00:00:00,PRATE,surface,-98.4379,31.6534,4.25e-05
2014-06-01 00:00:00,2014-06-01 00:00:00,PRATE,surface,-97.5004,31.6534,5.59e-05
2014-06-01 00:00:00,2014-06-01 00:00:00,PRATE,surface,-96.5629,31.6534,6.49e-05
2014-06-01 00:00:00,2014-06-01 00:00:00,PRATE,surface,-95.6254,31.6534,7.04e-05
2014-06-01 00:00:00,2014-06-01 00:00:00,PRATE,surface,-94.6879,31.6534,8.29e-05
2014-06-01 00:00:00,2014-06-01 00:00:00,PRATE,surface,-93.7504,31.6534,9.63e-05
2014-06-01 00:00:00,2014-06-01 00:00:00,PRATE,surface,-92.8129,31.6534,8.54e-05
2014-06-01 00:00:00,2014-06-01 00:00:00,PRATE,surface,-107.813,32.5983,2.23e-05
2014-06-01 00:00:00,2014-06-01 00:00:00,PRATE,surface,-106.875,32.5983,2.41e-05
2014-06-01 00:00:00,2014-06-01 00:00:00,PRATE,surface,-105.938,32.5983,2.78e-05
2014-06-01 00:00:00,2014-06-01 00:00:00,PRATE,surface,-105,32.5983,3.22e-05
2014-06-01 00:00:00,2014-06-01 00:00:00,PRATE,surface,-104.063,32.5983,3.11e-05
2014-06-01 00:00:00,2014-06-01 00:00:00,PRATE,surface,-103.125,32.5983,2.84e-05
2014-06-01 00:00:00,2014-06-01 00:00:00,PRATE,surface,-102.188,32.5983,2.63e-05
2014-06-01 00:00:00,2014-06-01 00:00:00,PRATE,surface,-101.25,32.5983,2.69e-05
2014-06-01 00:00:00,2014-06-01 00:00:00,PRATE,surface,-100.313,32.5983,2.7e-05
2014-06-01 00:00:00,2014-06-01 00:00:00,PRATE,surface,-99.3754,32.5983,2.89e-05
2014-06-01 00:00:00,2014-06-01 00:00:00,PRATE,surface,-98.4379,32.5983,3.67e-05
2014-06-01 00:00:00,2014-06-01 00:00:00,PRATE,surface,-97.5004,32.5983,4.84e-05
2014-06-01 00:00:00,2014-06-01 00:00:00,PRATE,surface,-96.5629,32.5983,5.68e-05
2014-06-01 00:00:00,2014-06-01 00:00:00,PRATE,surface,-95.6254,32.5983,6.07e-05
2014-06-01 00:00:00,2014-06-01 00:00:00,PRATE,surface,-94.6879,32.5983,7.01e-05
2014-06-01 00:00:00,2014-06-01 00:00:00,PRATE,surface,-93.7504,32.5983,8.9e-05
2014-06-01 00:00:00,2014-06-01 00:00:00,PRATE,surface,-92.8129,32.5983,9.32e-05
2014-06-01 00:00:00,2014-06-01 00:00:00,PRATE,surface,-107.813,33.5432,3.18e-05
2014-06-01 00:00:00,2014-06-01 00:00:00,PRATE,surface,-106.875,33.5432,2.84e-05
2014-06-01 00:00:00,2014-06-01 00:00:00,PRATE,surface,-105.938,33.5432,2.34e-05
2014-06-01 00:00:00,2014-06-01 00:00:00,PRATE,surface,-105,33.5432,2.78e-05
2014-06-01 00:00:00,2014-06-01 00:00:00,PRATE,surface,-104.063,33.5432,2.81e-05
2014-06-01 00:00:00,2014-06-01 00:00:00,PRATE,surface,-103.125,33.5432,2.87e-05
2014-06-01 00:00:00,2014-06-01 00:00:00,PRATE,surface,-102.188,33.5432,3.08e-05
2014-06-01 00:00:00,2014-06-01 00:00:00,PRATE,surface,-101.25,33.5432,3.15e-05
2014-06-01 00:00:00,2014-06-01 00:00:00,PRATE,surface,-100.313,33.5432,2.88e-05
2014-06-01 00:00:00,2014-06-01 00:00:00,PRATE,surface,-99.3754,33.5432,2.9e-05
2014-06-01 00:00:00,2014-06-01 00:00:00,PRATE,surface,-98.4379,33.5432,3.42e-05
2014-06-01 00:00:00,2014-06-01 00:00:00,PRATE,surface,-97.5004,33.5432,4.28e-05
2014-06-01 00:00:00,2014-06-01 00:00:00,PRATE,surface,-96.5629,33.5432,5.31e-05
2014-06-01 00:00:00,2014-06-01 00:00:00,PRATE,surface,-95.6254,33.5432,6.16e-05
2014-06-01 00:00:00,2014-06-01 00:00:00,PRATE,surface,-94.6879,33.5432,6.98e-05
2014-06-01 00:00:00,2014-06-01 00:00:00,PRATE,surface,-93.7504,33.5432,8.47e-05
2014-06-01 00:00:00,2014-06-01 00:00:00,PRATE,surface,-92.8129,33.5432,9.55e-05
2014-06-01 00:00:00,2014-06-01 00:00:00,PRATE,surface,-107.813,34.4881,2.85e-05
2014-06-01 00:00:00,2014-06-01 00:00:00,PRATE,surface,-106.875,34.4881,2.48e-05
2014-06-01 00:00:00,2014-06-01 00:00:00,PRATE,surface,-105.938,34.4881,1.92e-05
2014-06-01 00:00:00,2014-06-01 00:00:00,PRATE,surface,-105,34.4881,2.24e-05
2014-06-01 00:00:00,2014-06-01 00:00:00,PRATE,surface,-104.063,34.4881,2.73e-05
2014-06-01 00:00:00,2014-06-01 00:00:00,PRATE,surface,-103.125,34.4881,2.85e-05
2014-06-01 00:00:00,2014-06-01 00:00:00,PRATE,surface,-102.188,34.4881,3.38e-05
2014-06-01 00:00:00,2014-06-01 00:00:00,PRATE,surface,-101.25,34.4881,3.62e-05
2014-06-01 00:00:00,2014-06-01 00:00:00,PRATE,surface,-100.313,34.4881,3.14e-05
2014-06-01 00:00:00,2014-06-01 00:00:00,PRATE,surface,-99.3754,34.4881,3.09e-05
2014-06-01 00:00:00,2014-06-01 00:00:00,PRATE,surface,-98.4379,34.4881,3.67e-05
2014-06-01 00:00:00,2014-06-01 00:00:00,PRATE,surface,-97.5004,34.4881,4.44e-05
2014-06-01 00:00:00,2014-06-01 00:00:00,PRATE,surface,-96.5629,34.4881,5.39e-05
2014-06-01 00:00:00,2014-06-01 00:00:00,PRATE,surface,-95.6254,34.4881,6.49e-05
2014-06-01 00:00:00,2014-06-01 00:00:00,PRATE,surface,-94.6879,34.4881,7.33e-05
2014-06-01 00:00:00,2014-06-01 00:00:00,PRATE,surface,-93.7504,34.4881,8.13e-05
2014-06-01 00:00:00,2014-06-01 00:00:00,PRATE,surface,-92.8129,34.4881,9.53e-05
2014-06-01 00:00:00,2014-06-01 00:00:00,PRATE,surface,-107.813,35.4329,2.11e-05
2014-06-01 00:00:00,2014-06-01 00:00:00,PRATE,surface,-106.875,35.4329,2.44e-05
2014-06-01 00:00:00,2014-06-01 00:00:00,PRATE,surface,-105.938,35.4329,2.1e-05
2014-06-01 00:00:00,2014-06-01 00:00:00,PRATE,surface,-105,35.4329,2.59e-05
2014-06-01 00:00:00,2014-06-01 00:00:00,PRATE,surface,-104.063,35.4329,3.37e-05
2014-06-01 00:00:00,2014-06-01 00:00:00,PRATE,surface,-103.125,35.4329,3.84e-05
2014-06-01 00:00:00,2014-06-01 00:00:00,PRATE,surface,-102.188,35.4329,4.22e-05
2014-06-01 00:00:00,2014-06-01 00:00:00,PRATE,surface,-101.25,35.4329,4.34e-05
2014-06-01 00:00:00,2014-06-01 00:00:00,PRATE,surface,-100.313,35.4329,4.02e-05
2014-06-01 00:00:00,2014-06-01 00:00:00,PRATE,surface,-99.3754,35.4329,3.98e-05
2014-06-01 00:00:00,2014-06-01 00:00:00,PRATE,surface,-98.4379,35.4329,4.06e-05
2014-06-01 00:00:00,2014-06-01 00:00:00,PRATE,surface,-97.5004,35.4329,4.12e-05
2014-06-01 00:00:00,2014-06-01 00:00:00,PRATE,surface,-96.5629,35.4329,4.35e-05
2014-06-01 00:00:00,2014-06-01 00:00:00,PRATE,surface,-95.6254,35.4329,5.26e-05
2014-06-01 00:00:00,2014-06-01 00:00:00,PRATE,surface,-94.6879,35.4329,6.84e-05
2014-06-01 00:00:00,2014-06-01 00:00:00,PRATE,surface,-93.7504,35.4329,7.71e-05
2014-06-01 00:00:00,2014-06-01 00:00:00,PRATE,surface,-92.8129,35.4329,7.56e-05
2014-06-01 00:00:00,2014-06-01 00:00:00,PRATE,surface,-107.813,36.3778,2.1e-05
2014-06-01 00:00:00,2014-06-01 00:00:00,PRATE,surface,-106.875,36.3778,2.4e-05
2014-06-01 00:00:00,2014-06-01 00:00:00,PRATE,surface,-105.938,36.3778,2.11e-05
2014-06-01 00:00:00,2014-06-01 00:00:00,PRATE,surface,-105,36.3778,2.16e-05
2014-06-01 00:00:00,2014-06-01 00:00:00,PRATE,surface,-104.063,36.3778,2.96e-05
2014-06-01 00:00:00,2014-06-01 00:00:00,PRATE,surface,-103.125,36.3778,3.76e-05
2014-06-01 00:00:00,2014-06-01 00:00:00,PRATE,surface,-102.188,36.3778,3.86e-05
2014-06-01 00:00:00,2014-06-01 00:00:00,PRATE,surface,-101.25,36.3778,3.93e-05
2014-06-01 00:00:00,2014-06-01 00:00:00,PRATE,surface,-100.313,36.3778,4.1e-05
2014-06-01 00:00:00,2014-06-01 00:00:00,PRATE,surface,-99.3754,36.3778,4.45e-05
2014-06-01 00:00:00,2014-06-01 00:00:00,PRATE,surface,-98.4379,36.3778,4.96e-05
2014-06-01 00:00:00,2014-06-01 00:00:00,PRATE,surface,-97.5004,36.3778,5.17e-05
2014-06-01 00:00:00,2014-06-01 00:00:00,PRATE,surface,-96.5629,36.3778,4.78e-05
2014-06-01 00:00:00,2014-06-01 00:00:00,PRATE,surface,-95.6254,36.3778,4.48e-05
2014-06-01 00:00:00,2014-06-01 00:00:00,PRATE,surface,-94.6879,36.3778,5.3e-05
2014-06-01 00:00:00,2014-06-01 00:00:00,PRATE,surface,-93.7504,36.3778,6.51e-05
2014-06-01 00:00:00,2014-06-01 00:00:00,PRATE,surface,-92.8129,36.3778,6.46e-05
