2015-06-26 00:00:00,2015-06-26 00:00:00,TMP,surface,-107.813,25.0393,303.052
2015-06-26 00:00:00,2015-06-26 00:00:00,TMP,surface,-106.875,25.0393,295.74
2015-06-26 00:00:00,2015-06-26 00:00:00,TMP,surface,-105.938,25.0393,291.681
2015-06-26 00:00:00,2015-06-26 00:00:00,TMP,surface,-105,25.0393,289.313
2015-06-26 00:00:00,2015-06-26 00:00:00,TMP,surface,-104.063,25.0393,293.545
2015-06-26 00:00:00,2015-06-26 00:00:00,TMP,surface,-103.125,25.0393,297.086
2015-06-26 00:00:00,2015-06-26 00:00:00,TMP,surface,-102.188,25.0393,295.641
2015-06-26 00:00:00,2015-06-26 00:00:00,TMP,surface,-101.25,25.0393,293.206
2015-06-26 00:00:00,2015-06-26 00:00:00,TMP,surface,-100.313,25.0393,293.673
2015-06-26 00:00:00,2015-06-26 00:00:00,TMP,surface,-99.3754,25.0393,297.634
2015-06-26 00:00:00,2015-06-26 00:00:00,TMP,surface,-98.4379,25.0393,301.582
2015-06-26 00:00:00,2015-06-26 00:00:00,TMP,surface,-97.5004,25.0393,303.689
2015-06-26 00:00:00,2015-06-26 00:00:00,TMP,surface,-96.5629,25.0393,303.878
2015-06-26 00:00:00,2015-06-26 00:00:00,TMP,surface,-95.6254,25.0393,303.926
2015-06-26 00:00:00,2015-06-26 00:00:00,TMP,surface,-94.6879,25.0393,303.978
2015-06-26 00:00:00,2015-06-26 00:00:00,TMP,surface,-93.7504,25.0393,303.751
2015-06-26 00:00:00,2015-06-26 00:00:00,TMP,surface,-92.8129,25.0393,303.428
2015-06-26 00:00:00,2015-06-26 00:00:00,TMP,surface,-107.813,25.9842,297.487
2015-06-26 00:00:00,2015-06-26 00:00:00,TMP,surface,-106.875,25.9842,292.511
2015-06-26 00:00:00,2015-06-26 00:00:00,TMP,surface,-105.938,25.9842,289.935
2015-06-26 00:00:00,2015-06-26 00:00:00,TMP,surface,-105,25.9842,291.425
2015-06-26 00:00:00,2015-06-26 00:00:00,TMP,surface,-104.063,25.9842,296.914
2015-06-26 00:00:00,2015-06-26 00:00:00,TMP,surface,-103.125,25.9842,299.267
2015-06-26 00:00:00,2015-06-26 00:00:00,TMP,surface,-102.188,25.9842,297.369
2015-06-26 00:00:00,2015-06-26 00:00:00,TMP,surface,-101.25,25.9842,296.375
2015-06-26 00:00:00,2015-06-26 00:00:00,TMP,surface,-100.313,25.9842,296.999
2015-06-26 00:00:00,2015-06-26 00:00:00,TMP,surface,-99.3754,25.9842,300.647
2015-06-26 00:00:00,2015-06-26 00:00:00,TMP,surface,-98.4379,25.9842,302.652
2015-06-26 00:00:00,2015-06-26 00:00:00,TMP,surface,-97.5004,25.9842,302.255
2015-06-26 00:00:00,2015-06-26 00:00:00,TMP,surface,-96.5629,25.9842,303.137
2015-06-26 00:00:00,2015-06-26 00:00:00,TMP,surface,-95.6254,25.9842,303.548
2015-06-26 00:00:00,2015-06-26 00:00:00,TMP,surface,-94.6879,25.9842,303.673
2015-06-26 00:00:00,2015-06-26 00:00:00,TMP,surface,-93.7504,25.9842,303.707
2015-06-26 00:00:00,2015-06-26 00:00:00,TMP,surface,-92.8129,25.9842,303.689
2015-06-26 00:00:00,2015-06-26 00:00:00,TMP,surface,-107.813,26.929,293.323
2015-06-26 00:00:00,2015-06-26 00:00:00,TMP,surface,-106.875,26.929,290.31
2015-06-26 00:00:00,2015-06-26 00:00:00,TMP,surface,-105.938,26.929,291.041
2015-06-26 00:00:00,2015-06-26 00:00:00,TMP,surface,-105,26.929,295.31
2015-06-26 00:00:00,2015-06-26 00:00:00,TMP,surface,-104.063,26.929,299.166
2015-06-26 00:00:00,2015-06-26 00:00:00,TMP,surface,-103.125,26.929,298.556
2015-06-26 00:00:00,2015-06-26 00:00:00,TMP,surface,-102.188,26.929,297.233
2015-06-26 00:00:00,2015-06-26 00:00:00,TMP,surface,-101.25,26.929,298.031
2015-06-26 00:00:00,2015-06-26 00:00:00,TMP,surface,-100.313,26.929,300.074
2015-06-26 00:00:00,2015-06-26 00:00:00,TMP,surface,-99.3754,26.929,301.905
2015-06-26 00:00:00,2015-06-26 00:00:00,TMP,surface,-98.4379,26.929,301.087
2015-06-26 00:00:00,2015-06-26 00:00:00,TMP,surface,-97.5004,26.929,302.126
2015-06-26 00:00:00,2015-06-26 00:00:00,TMP,surface,-96.5629,26.929,302.41
2015-06-26 00:00:00,2015-06-26 00:00:00,TMP,surface,-95.6254,26.929,303.108
2015-06-26 00:00:00,2015-06-26 00:00:00,TMP,surface,-94.6879,26.929,303.514
2015-06-26 00:00:00,2015-06-26 00:00:00,TMP,surface,-93.7504,26.929,303.555
2015-06-26 00:00:00,2015-06-26 00:00:00,TMP,surface,-92.8129,26.929,303.638
2015-06-26 00:00:00,2015-06-26 00:00:00,TMP,surface,-107.813,27.8739,291.103
2015-06-26 00:00:00,2015-06-26 00:00:00,TMP,surface,-106.875,27.8739,289.572
2015-06-26 00:00:00,2015-06-26 00:00:00,TMP,surface,-105.938,27.8739,292.884
2015-06-26 00:00:00,2015-06-26 00:00:00,TMP,surface,-105,27.8739,297.558
2015-06-26 00:00:00,2015-06-26 00:00:00,TMP,surface,-104.063,27.8739,298.638
2015-06-26 00:00:00,2015-06-26 00:00:00,TMP,surface,-103.125,27.8739,296.849
2015-06-26 00:00:00,2015-06-26 00:00:00,TMP,surface,-102.188,27.8739,296.491
2015-06-26 00:00:00,2015-06-26 00:00:00,TMP,surface,-101.25,27.8739,298.844
2015-06-26 00:00:00,2015-06-26 00:00:00,TMP,surface,-100.313,27.8739,300.969
2015-06-26 00:00:00,2015-06-26 00:00:00,TMP,surface,-99.3754,27.8739,301.009
2015-06-26 00:00:00,2015-06-26 00:00:00,TMP,surface,-98.4379,27.8739,300.193
2015-06-26 00:00:00,2015-06-26 00:00:00,TMP,surface,-97.5004,27.8739,301.327
2015-06-26 00:00:00,2015-06-26 00:00:00,TMP,surface,-96.5629,27.8739,303.051
2015-06-26 00:00:00,2015-06-26 00:00:00,TMP,surface,-95.6254,27.8739,303.379
2015-06-26 00:00:00,2015-06-26 00:00:00,TMP,surface,-94.6879,27.8739,303.425
2015-06-26 00:00:00,2015-06-26 00:00:00,TMP,surface,-93.7504,27.8739,303.324
2015-06-26 00:00:00,2015-06-26 00:00:00,TMP,surface,-92.8129,27.8739,303.284
2015-06-26 00:00:00,2015-06-26 00:00:00,TMP,surface,-107.813,28.8188,289.751
2015-06-26 00:00:00,2015-06-26 00:00:00,TMP,surface,-106.875,28.8188,290.15
2015-06-26 00:00:00,2015-06-26 00:00:00,TMP,surface,-105.938,28.8188,294.846
2015-06-26 00:00:00,2015-06-26 00:00:00,TMP,surface,-105,28.8188,298.681
2015-06-26 00:00:00,2015-06-26 00:00:00,TMP,surface,-104.063,28.8188,298.166
2015-06-26 00:00:00,2015-06-26 00:00:00,TMP,surface,-103.125,28.8188,296.964
2015-06-26 00:00:00,2015-06-26 00:00:00,TMP,surface,-102.188,28.8188,297.103
2015-06-26 00:00:00,2015-06-26 00:00:00,TMP,surface,-101.25,28.8188,299.012
2015-06-26 00:00:00,2015-06-26 00:00:00,TMP,surface,-100.313,28.8188,299.937
2015-06-26 00:00:00,2015-06-26 00:00:00,TMP,surface,-99.3754,28.8188,299.254
2015-06-26 00:00:00,2015-06-26 00:00:00,TMP,surface,-98.4379,28.8188,298.686
2015-06-26 00:00:00,2015-06-26 00:00:00,TMP,surface,-97.5004,28.8188,298.883
2015-06-26 00:00:00,2015-06-26 00:00:00,TMP,surface,-96.5629,28.8188,299.524
2015-06-26 00:00:00,2015-06-26 00:00:00,TMP,surface,-95.6254,28.8188,301.115
2015-06-26 00:00:00,2015-06-26 00:00:00,TMP,surface,-94.6879,28.8188,302.967
2015-06-26 00:00:00,2015-06-26 00:00:00,TMP,surface,-93.7504,28.8188,303.012
2015-06-26 00:00:00,2015-06-26 00:00:00,TMP,surface,-92.8129,28.8188,302.921
2015-06-26 00:00:00,2015-06-26 00:00:00,TMP,surface,-107.813,29.7637,291.339
2015-06-26 00:00:00,2015-06-26 00:00:00,TMP,surface,-106.875,29.7637,292.898
2015-06-26 00:00:00,2015-06-26 00:00:00,TMP,surface,-105.938,29.7637,296.875
2015-06-26 00:00:00,2015-06-26 00:00:00,TMP,surface,-105,29.7637,298.454
2015-06-26 00:00:00,2015-06-26 00:00:00,TMP,surface,-104.063,29.7637,298.318
2015-06-26 00:00:00,2015-06-26 00:00:00,TMP,surface,-103.125,29.7637,298.118
2015-06-26 00:00:00,2015-06-26 00:00:00,TMP,surface,-102.188,29.7637,298.906
2015-06-26 00:00:00,2015-06-26 00:00:00,TMP,surface,-101.25,29.7637,299.332
2015-06-26 00:00:00,2015-06-26 00:00:00,TMP,surface,-100.313,29.7637,298.483
2015-06-26 00:00:00,2015-06-26 00:00:00,TMP,surface,-99.3754,29.7637,297.455
2015-06-26 00:00:00,2015-06-26 00:00:00,TMP,surface,-98.4379,29.7637,297.406
2015-06-26 00:00:00,2015-06-26 00:00:00,TMP,surface,-97.5004,29.7637,298.071
2015-06-26 00:00:00,2015-06-26 00:00:00,TMP,surface,-96.5629,29.7637,298.682
2015-06-26 00:00:00,2015-06-26 00:00:00,TMP,surface,-95.6254,29.7637,299.097
2015-06-26 00:00:00,2015-06-26 00:00:00,TMP,surface,-94.6879,29.7637,300.42
2015-06-26 00:00:00,2015-06-26 00:00:00,TMP,surface,-93.7504,29.7637,302.169
2015-06-26 00:00:00,2015-06-26 00:00:00,TMP,surface,-92.8129,29.7637,300.444
2015-06-26 00:00:00,2015-06-26 00:00:00,TMP,surface,-107.813,30.7085,295.406
2015-06-26 00:00:00,2015-06-26 00:00:00,TMP,surface,-106.875,30.7085,297.721
2015-06-26 00:00:00,2015-06-26 00:00:00,TMP,surface,-105.938,30.7085,298.145
2015-06-26 00:00:00,2015-06-26 00:00:00,TMP,surface,-105,30.7085,298.351
2015-06-26 00:00:00,2015-06-26 00:00:00,TMP,surface,-104.063,30.7085,297.719
2015-06-26 00:00:00,2015-06-26 00:00:00,TMP,surface,-103.125,30.7085,298.794
2015-06-26 00:00:00,2015-06-26 00:00:00,TMP,surface,-102.188,30.7085,299.545
2015-06-26 00:00:00,2015-06-26 00:00:00,TMP,surface,-101.25,30.7085,299.193
2015-06-26 00:00:00,2015-06-26 00:00:00,TMP,surface,-100.313,30.7085,298.407
2015-06-26 00:00:00,2015-06-26 00:00:00,TMP,surface,-99.3754,30.7085,297.782
2015-06-26 00:00:00,2015-06-26 00:00:00,TMP,surface,-98.4379,30.7085,297.94
2015-06-26 00:00:00,2015-06-26 00:00:00,TMP,surface,-97.5004,30.7085,298.633
2015-06-26 00:00:00,2015-06-26 00:00:00,TMP,surface,-96.5629,30.7085,299.329
2015-06-26 00:00:00,2015-06-26 00:00:00,TMP,surface,-95.6254,30.7085,299.66
2015-06-26 00:00:00,2015-06-26 00:00:00,TMP,surface,-94.6879,30.7085,299.689
2015-06-26 00:00:00,2015-06-26 00:00:00,TMP,surface,-93.7504,30.7085,299.921
2015-06-26 00:00:00,2015-06-26 00:00:00,TMP,surface,-92.8129,30.7085,299.854
2015-06-26 00:00:00,2015-06-26 00:00:00,TMP,surface,-107.813,31.6534,297.452
2015-06-26 00:00:00,2015-06-26 00:00:00,TMP,surface,-106.875,31.6534,298.604
2015-06-26 00:00:00,2015-06-26 00:00:00,TMP,surface,-105.938,31.6534,297.409
2015-06-26 00:00:00,2015-06-26 00:00:00,TMP,surface,-105,31.6534,297.398
2015-06-26 00:00:00,2015-06-26 00:00:00,TMP,surface,-104.063,31.6534,298.158
2015-06-26 00:00:00,2015-06-26 00:00:00,TMP,surface,-103.125,31.6534,298.991
2015-06-26 00:00:00,2015-06-26 00:00:00,TMP,surface,-102.188,31.6534,299.346
2015-06-26 00:00:00,2015-06-26 00:00:00,TMP,surface,-101.25,31.6534,298.956
2015-06-26 00:00:00,2015-06-26 00:00:00,TMP,surface,-100.313,31.6534,298.703
2015-06-26 00:00:00,2015-06-26 00:00:00,TMP,surface,-99.3754,31.6534,299.017
2015-06-26 00:00:00,2015-06-26 00:00:00,TMP,surface,-98.4379,31.6534,299.382
2015-06-26 00:00:00,2015-06-26 00:00:00,TMP,surface,-97.5004,31.6534,299.674
2015-06-26 00:00:00,2015-06-26 00:00:00,TMP,surface,-96.5629,31.6534,299.967
2015-06-26 00:00:00,2015-06-26 00:00:00,TMP,surface,-95.6254,31.6534,300.103
2015-06-26 00:00:00,2015-06-26 00:00:00,TMP,surface,-94.6879,31.6534,300.004
2015-06-26 00:00:00,2015-06-26 00:00:00,TMP,surface,-93.7504,31.6534,299.865
2015-06-26 00:00:00,2015-06-26 00:00:00,TMP,surface,-92.8129,31.6534,299.964
2015-06-26 00:00:00,2015-06-26 00:00:00,TMP,surface,-107.813,32.5983,293.254
2015-06-26 00:00:00,2015-06-26 00:00:00,TMP,surface,-106.875,32.5983,294.466
2015-06-26 00:00:00,2015-06-26 00:00:00,TMP,surface,-105.938,32.5983,295.171
2015-06-26 00:00:00,2015-06-26 00:00:00,TMP,surface,-105,32.5983,295.628
2015-06-26 00:00:00,2015-06-26 00:00:00,TMP,surface,-104.063,32.5983,297.255
2015-06-26 00:00:00,2015-06-26 00:00:00,TMP,surface,-103.125,32.5983,298.126
2015-06-26 00:00:00,2015-06-26 00:00:00,TMP,surface,-102.188,32.5983,298.159
2015-06-26 00:00:00,2015-06-26 00:00:00,TMP,surface,-101.25,32.5983,298.348
2015-06-26 00:00:00,2015-06-26 00:00:00,TMP,surface,-100.313,32.5983,299.222
2015-06-26 00:00:00,2015-06-26 00:00:00,TMP,surface,-99.3754,32.5983,300.246
2015-06-26 00:00:00,2015-06-26 00:00:00,TMP,surface,-98.4379,32.5983,300.695
2015-06-26 00:00:00,2015-06-26 00:00:00,TMP,surface,-97.5004,32.5983,300.491
2015-06-26 00:00:00,2015-06-26 00:00:00,TMP,surface,-96.5629,32.5983,300.379
2015-06-26 00:00:00,2015-06-26 00:00:00,TMP,surface,-95.6254,32.5983,300.503
2015-06-26 00:00:00,2015-06-26 00:00:00,TMP,surface,-94.6879,32.5983,300.276
2015-06-26 00:00:00,2015-06-26 00:00:00,TMP,surface,-93.7504,32.5983,299.926
2015-06-26 00:00:00,2015-06-26 00:00:00,TMP,surface,-92.8129,32.5983,299.887
2015-06-26 00:00:00,2015-06-26 00:00:00,TMP,surface,-107.813,33.5432,288.898
2015-06-26 00:00:00,2015-06-26 00:00:00,TMP,surface,-106.875,33.5432,290.607
2015-06-26 00:00:00,2015-06-26 00:00:00,TMP,surface,-105.938,33.5432,292.073
2015-06-26 00:00:00,2015-06-26 00:00:00,TMP,surface,-105,33.5432,293.953
2015-06-26 00:00:00,2015-06-26 00:00:00,TMP,surface,-104.063,33.5432,296.115
2015-06-26 00:00:00,2015-06-26 00:00:00,TMP,surface,-103.125,33.5432,296.601
2015-06-26 00:00:00,2015-06-26 00:00:00,TMP,surface,-102.188,33.5432,296.313
2015-06-26 00:00:00,2015-06-26 00:00:00,TMP,surface,-101.25,33.5432,296.969
2015-06-26 00:00:00,2015-06-26 00:00:00,TMP,surface,-100.313,33.5432,298.78
2015-06-26 00:00:00,2015-06-26 00:00:00,TMP,surface,-99.3754,33.5432,300.259
2015-06-26 00:00:00,2015-06-26 00:00:00,TMP,surface,-98.4379,33.5432,300.622
2015-06-26 00:00:00,2015-06-26 00:00:00,TMP,surface,-97.5004,33.5432,300.26
2015-06-26 00:00:00,2015-06-26 00:00:00,TMP,surface,-96.5629,33.5432,299.9
2015-06-26 00:00:00,2015-06-26 00:00:00,TMP,surface,-95.6254,33.5432,299.83
2015-06-26 00:00:00,2015-06-26 00:00:00,TMP,surface,-94.6879,33.5432,299.758
2015-06-26 00:00:00,2015-06-26 00:00:00,TMP,surface,-93.7504,33.5432,299.41
2015-06-26 00:00:00,2015-06-26 00:00:00,TMP,surface,-92.8129,33.5432,299.186
2015-06-26 00:00:00,2015-06-26 00:00:00,TMP,surface,-107.813,34.4881,287.959
2015-06-26 00:00:00,2015-06-26 00:00:00,TMP,surface,-106.875,34.4881,289.794
2015-06-26 00:00:00,2015-06-26 00:00:00,TMP,surface,-105.938,34.4881,291.227
2015-06-26 00:00:00,2015-06-26 00:00:00,TMP,surface,-105,34.4881,292.876
2015-06-26 00:00:00,2015-06-26 00:00:00,TMP,surface,-104.063,34.4881,294.362
2015-06-26 00:00:00,2015-06-26 00:00:00,TMP,surface,-103.125,34.4881,295.286
2015-06-26 00:00:00,2015-06-26 00:00:00,TMP,surface,-102.188,34.4881,295.806
2015-06-26 00:00:00,2015-06-26 00:00:00,TMP,surface,-101.25,34.4881,296.417
2015-06-26 00:00:00,2015-06-26 00:00:00,TMP,surface,-100.313,34.4881,297.74
2015-06-26 00:00:00,2015-06-26 00:00:00,TMP,surface,-99.3754,34.4881,298.927
2015-06-26 00:00:00,2015-06-26 00:00:00,TMP,surface,-98.4379,34.4881,299.31
2015-06-26 00:00:00,2015-06-26 00:00:00,TMP,surface,-97.5004,34.4881,299.031
2015-06-26 00:00:00,2015-06-26 00:00:00,TMP,surface,-96.5629,34.4881,298.929
2015-06-26 00:00:00,2015-06-26 00:00:00,TMP,surface,-95.6254,34.4881,298.956
2015-06-26 00:00:00,2015-06-26 00:00:00,TMP,surface,-94.6879,34.4881,298.47
2015-06-26 00:00:00,2015-06-26 00:00:00,TMP,surface,-93.7504,34.4881,298.049
2015-06-26 00:00:00,2015-06-26 00:00:00,TMP,surface,-92.8129,34.4881,298.014
2015-06-26 00:00:00,2015-06-26 00:00:00,TMP,surface,-107.813,35.4329,289.097
2015-06-26 00:00:00,2015-06-26 00:00:00,TMP,surface,-106.875,35.4329,289.404
2015-06-26 00:00:00,2015-06-26 00:00:00,TMP,surface,-105.938,35.4329,289.553
2015-06-26 00:00:00,2015-06-26 00:00:00,TMP,surface,-105,35.4329,290.191
2015-06-26 00:00:00,2015-06-26 00:00:00,TMP,surface,-104.063,35.4329,293.343
2015-06-26 00:00:00,2015-06-26 00:00:00,TMP,surface,-103.125,35.4329,295.062
2015-06-26 00:00:00,2015-06-26 00:00:00,TMP,surface,-102.188,35.4329,295.729
2015-06-26 00:00:00,2015-06-26 00:00:00,TMP,surface,-101.25,35.4329,296.281
2015-06-26 00:00:00,2015-06-26 00:00:00,TMP,surface,-100.313,35.4329,296.87
2015-06-26 00:00:00,2015-06-26 00:00:00,TMP,surface,-99.3754,35.4329,297.668
2015-06-26 00:00:00,2015-06-26 00:00:00,TMP,surface,-98.4379,35.4329,298.124
2015-06-26 00:00:00,2015-06-26 00:00:00,TMP,surface,-97.5004,35.4329,298.097
2015-06-26 00:00:00,2015-06-26 00:00:00,TMP,surface,-96.5629,35.4329,298.066
2015-06-26 00:00:00,2015-06-26 00:00:00,TMP,surface,-95.6254,35.4329,298.041
2015-06-26 00:00:00,2015-06-26 00:00:00,TMP,surface,-94.6879,35.4329,297.588
2015-06-26 00:00:00,2015-06-26 00:00:00,TMP,surface,-93.7504,35.4329,296.857
2015-06-26 00:00:00,2015-06-26 00:00:00,TMP,surface,-92.8129,35.4329,296.42
2015-06-26 00:00:00,2015-06-26 00:00:00,TMP,surface,-107.813,36.3778,288.674
2015-06-26 00:00:00,2015-06-26 00:00:00,TMP,surface,-106.875,36.3778,286.522
2015-06-26 00:00:00,2015-06-26 00:00:00,TMP,surface,-105.938,36.3778,286.883
2015-06-26 00:00:00,2015-06-26 00:00:00,TMP,surface,-105,36.3778,287.743
2015-06-26 00:00:00,2015-06-26 00:00:00,TMP,surface,-104.063,36.3778,290.59
2015-06-26 00:00:00,2015-06-26 00:00:00,TMP,surface,-103.125,36.3778,293.257
2015-06-26 00:00:00,2015-06-26 00:00:00,TMP,surface,-102.188,36.3778,295.02
2015-06-26 00:00:00,2015-06-26 00:00:00,TMP,surface,-101.25,36.3778,295.961
2015-06-26 00:00:00,2015-06-26 00:00:00,TMP,surface,-100.313,36.3778,296.662
2015-06-26 00:00:00,2015-06-26 00:00:00,TMP,surface,-99.3754,36.3778,297.206
2015-06-26 00:00:00,2015-06-26 00:00:00,TMP,surface,-98.4379,36.3778,297.495
2015-06-26 00:00:00,2015-06-26 00:00:00,TMP,surface,-97.5004,36.3778,297.641
2015-06-26 00:00:00,2015-06-26 00:00:00,TMP,surface,-96.5629,36.3778,297.748
2015-06-26 00:00:00,2015-06-26 00:00:00,TMP,surface,-95.6254,36.3778,297.585
2015-06-26 00:00:00,2015-06-26 00:00:00,TMP,surface,-94.6879,36.3778,296.868
2015-06-26 00:00:00,2015-06-26 00:00:00,TMP,surface,-93.7504,36.3778,295.913
2015-06-26 00:00:00,2015-06-26 00:00:00,TMP,surface,-92.8129,36.3778,295.395
2015-06-26 00:00:00,2015-06-26 00:00:00,PRATE,surface,-107.813,25.0393,1.5e-05
2015-06-26 00:00:00,2015-06-26 00:00:00,PRATE,surface,-106.875,25.0393,8.87e-05
2015-06-26 00:00:00,2015-06-26 00:00:00,PRATE,surface,-105.938,25.0393,0.0001075
2015-06-26 00:00:00,2015-06-26 00:00:00,PRATE,surface,-105,25.0393,4.44e-05
2015-06-26 00:00:00,2015-06-26 00:00:00,PRATE,surface,-104.063,25.0393,1e-06
2015-06-26 00:00:00,2015-06-26 00:00:00,PRATE,surface,-103.125,25.0393,2e-07
2015-06-26 00:00:00,2015-06-26 00:00:00,PRATE,surface,-102.188,25.0393,5e-07
2015-06-26 00:00:00,2015-06-26 00:00:00,PRATE,surface,-101.25,25.0393,1.29e-05
2015-06-26 00:00:00,2015-06-26 00:00:00,PRATE,surface,-100.313,25.0393,4.58e-05
2015-06-26 00:00:00,2015-06-26 00:00:00,PRATE,surface,-99.3754,25.0393,3.34e-05
2015-06-26 00:00:00,2015-06-26 00:00:00,PRATE,surface,-98.4379,25.0393,1.45e-05
2015-06-26 00:00:00,2015-06-26 00:00:00,PRATE,surface,-97.5004,25.0393,2.75e-05
2015-06-26 00:00:00,2015-06-26 00:00:00,PRATE,surface,-96.5629,25.0393,4.8e-05
2015-06-26 00:00:00,2015-06-26 00:00:00,PRATE,surface,-95.6254,25.0393,4.17e-05
2015-06-26 00:00:00,2015-06-26 00:00:00,PRATE,surface,-94.6879,25.0393,2.8e-05
2015-06-26 00:00:00,2015-06-26 00:00:00,PRATE,surface,-93.7504,25.0393,5.41e-05
2015-06-26 00:00:00,2015-06-26 00:00:00,PRATE,surface,-92.8129,25.0393,4.32e-05
2015-06-26 00:00:00,2015-06-26 00:00:00,PRATE,surface,-107.813,25.9842,4.67e-05
2015-06-26 00:00:00,2015-06-26 00:00:00,PRATE,surface,-106.875,25.9842,0.0001161
2015-06-26 00:00:00,2015-06-26 00:00:00,PRATE,surface,-105.938,25.9842,6.74e-05
2015-06-26 00:00:00,2015-06-26 00:00:00,PRATE,surface,-105,25.9842,1.4e-05
2015-06-26 00:00:00,2015-06-26 00:00:00,PRATE,surface,-104.063,25.9842,1e-07
2015-06-26 00:00:00,2015-06-26 00:00:00,PRATE,surface,-103.125,25.9842,2e-07
2015-06-26 00:00:00,2015-06-26 00:00:00,PRATE,surface,-102.188,25.9842,4e-07
2015-06-26 00:00:00,2015-06-26 00:00:00,PRATE,surface,-101.25,25.9842,9.7e-06
2015-06-26 00:00:00,2015-06-26 00:00:00,PRATE,surface,-100.313,25.9842,2.82e-05
2015-06-26 00:00:00,2015-06-26 00:00:00,PRATE,surface,-99.3754,25.9842,1.61e-05
2015-06-26 00:00:00,2015-06-26 00:00:00,PRATE,surface,-98.4379,25.9842,2.04e-05
2015-06-26 00:00:00,2015-06-26 00:00:00,PRATE,surface,-97.5004,25.9842,4.84e-05
2015-06-26 00:00:00,2015-06-26 00:00:00,PRATE,surface,-96.5629,25.9842,7.15e-05
2015-06-26 00:00:00,2015-06-26 00:00:00,PRATE,surface,-95.6254,25.9842,6.56e-05
2015-06-26 00:00:00,2015-06-26 00:00:00,PRATE,surface,-94.6879,25.9842,4.51e-05
2015-06-26 00:00:00,2015-06-26 00:00:00,PRATE,surface,-93.7504,25.9842,5.26e-05
2015-06-26 00:00:00,2015-06-26 00:00:00,PRATE,surface,-92.8129,25.9842,3.45e-05
2015-06-26 00:00:00,2015-06-26 00:00:00,PRATE,surface,-107.813,26.929,9.13e-05
2015-06-26 00:00:00,2015-06-26 00:00:00,PRATE,surface,-106.875,26.929,8.33e-05
2015-06-26 00:00:00,2015-06-26 00:00:00,PRATE,surface,-105.938,26.929,4.85e-05
2015-06-26 00:00:00,2015-06-26 00:00:00,PRATE,surface,-105,26.929,7e-06
2015-06-26 00:00:00,2015-06-26 00:00:00,PRATE,surface,-104.063,26.929,1.1e-06
2015-06-26 00:00:00,2015-06-26 00:00:00,PRATE,surface,-103.125,26.929,2.7e-06
2015-06-26 00:00:00,2015-06-26 00:00:00,PRATE,surface,-102.188,26.929,1.5e-06
2015-06-26 00:00:00,2015-06-26 00:00:00,PRATE,surface,-101.25,26.929,1.45e-05
2015-06-26 00:00:00,2015-06-26 00:00:00,PRATE,surface,-100.313,26.929,1.45e-05
2015-06-26 00:00:00,2015-06-26 00:00:00,PRATE,surface,-99.3754,26.929,2.59e-05
2015-06-26 00:00:00,2015-06-26 00:00:00,PRATE,surface,-98.4379,26.929,6.61e-05
2015-06-26 00:00:00,2015-06-26 00:00:00,PRATE,surface,-97.5004,26.929,8.54e-05
2015-06-26 00:00:00,2015-06-26 00:00:00,PRATE,surface,-96.5629,26.929,0.0001122
2015-06-26 00:00:00,2015-06-26 00:00:00,PRATE,surface,-95.6254,26.929,7.67e-05
2015-06-26 00:00:00,2015-06-26 00:00:00,PRATE,surface,-94.6879,26.929,4.44e-05
2015-06-26 00:00:00,2015-06-26 00:00:00,PRATE,surface,-93.7504,26.929,4.13e-05
2015-06-26 00:00:00,2015-06-26 00:00:00,PRATE,surface,-92.8129,26.929,4.44e-05
2015-06-26 00:00:00,2015-06-26 00:00:00,PRATE,surface,-107.813,27.8739,0.0001061
2015-06-26 00:00:00,2015-06-26 00:00:00,PRATE,surface,-106.875,27.8739,5.64e-05
2015-06-26 00:00:00,2015-06-26 00:00:00,PRATE,surface,-105.938,27.8739,2.06e-05
2015-06-26 00:00:00,2015-06-26 00:00:00,PRATE,surface,-105,27.8739,5.1e-06
2015-06-26 00:00:00,2015-06-26 00:00:00,PRATE,surface,-104.063,27.8739,6.2e-06
2015-06-26 00:00:00,2015-06-26 00:00:00,PRATE,surface,-103.125,27.8739,8.2e-06
2015-06-26 00:00:00,2015-06-26 00:00:00,PRATE,surface,-102.188,27.8739,1.03e-05
2015-06-26 00:00:00,2015-06-26 00:00:00,PRATE,surface,-101.25,27.8739,5.4e-06
2015-06-26 00:00:00,2015-06-26 00:00:00,PRATE,surface,-100.313,27.8739,1.07e-05
2015-06-26 00:00:00,2015-06-26 00:00:00,PRATE,surface,-99.3754,27.8739,3.88e-05
2015-06-26 00:00:00,2015-06-26 00:00:00,PRATE,surface,-98.4379,27.8739,6.71e-05
2015-06-26 00:00:00,2015-06-26 00:00:00,PRATE,surface,-97.5004,27.8739,7e-05
2015-06-26 00:00:00,2015-06-26 00:00:00,PRATE,surface,-96.5629,27.8739,4.87e-05
2015-06-26 00:00:00,2015-06-26 00:00:00,PRATE,surface,-95.6254,27.8739,3.9e-05
2015-06-26 00:00:00,2015-06-26 00:00:00,PRATE,surface,-94.6879,27.8739,5.41e-05
2015-06-26 00:00:00,2015-06-26 00:00:00,PRATE,surface,-93.7504,27.8739,5.4e-05
2015-06-26 00:00:00,2015-06-26 00:00:00,PRATE,surface,-92.8129,27.8739,4.32e-05
2015-06-26 00:00:00,2015-06-26 00:00:00,PRATE,surface,-107.813,28.8188,9.83e-05
2015-06-26 00:00:00,2015-06-26 00:00:00,PRATE,surface,-106.875,28.8188,5.25e-05
2015-06-26 00:00:00,2015-06-26 00:00:00,PRATE,surface,-105.938,28.8188,1.06e-05
2015-06-26 00:00:00,2015-06-26 00:00:00,PRATE,surface,-105,28.8188,6.8e-06
2015-06-26 00:00:00,2015-06-26 00:00:00,PRATE,surface,-104.063,28.8188,7.6e-06
2015-06-26 00:00:00,2015-06-26 00:00:00,PRATE,surface,-103.125,28.8188,7.4e-06
2015-06-26 00:00:00,2015-06-26 00:00:00,PRATE,surface,-102.188,28.8188,3.6e-06
2015-06-26 00:00:00,2015-06-26 00:00:00,PRATE,surface,-101.25,28.8188,1.5e-06
2015-06-26 00:00:00,2015-06-26 00:00:00,PRATE,surface,-100.313,28.8188,6.5e-06
2015-06-26 00:00:00,2015-06-26 00:00:00,PRATE,surface,-99.3754,28.8188,2.87e-05
2015-06-26 00:00:00,2015-06-26 00:00:00,PRATE,surface,-98.4379,28.8188,4.93e-05
2015-06-26 00:00:00,2015-06-26 00:00:00,PRATE,surface,-97.5004,28.8188,4.6e-05
2015-06-26 00:00:00,2015-06-26 00:00:00,PRATE,surface,-96.5629,28.8188,3.69e-05
2015-06-26 00:00:00,2015-06-26 00:00:00,PRATE,surface,-95.6254,28.8188,3.58e-05
2015-06-26 00:00:00,2015-06-26 00:00:00,PRATE,surface,-94.6879,28.8188,3.56e-05
2015-06-26 00:00:00,2015-06-26 00:00:00,PRATE,surface,-93.7504,28.8188,3.67e-05
2015-06-26 00:00:00,2015-06-26 00:00:00,PRATE,surface,-92.8129,28.8188,1.53e-05
2015-06-26 00:00:00,2015-06-26 00:00:00,PRATE,surface,-107.813,29.7637,6.92e-05
2015-06-26 00:00:00,2015-06-26 00:00:00,PRATE,surface,-106.875,29.7637,4.81e-05
2015-06-26 00:00:00,2015-06-26 00:00:00,PRATE,surface,-105.938,29.7637,1.53e-05
2015-06-26 00:00:00,2015-06-26 00:00:00,PRATE,surface,-105,29.7637,1.73e-05
2015-06-26 00:00:00,2015-06-26 00:00:00,PRATE,surface,-104.063,29.7637,8.7e-06
2015-06-26 00:00:00,2015-06-26 00:00:00,PRATE,surface,-103.125,29.7637,6.8e-06
2015-06-26 00:00:00,2015-06-26 00:00:00,PRATE,surface,-102.188,29.7637,2.3e-06
2015-06-26 00:00:00,2015-06-26 00:00:00,PRATE,surface,-101.25,29.7637,1.5e-06
2015-06-26 00:00:00,2015-06-26 00:00:00,PRATE,surface,-100.313,29.7637,1.22e-05
2015-06-26 00:00:00,2015-06-26 00:00:00,PRATE,surface,-99.3754,29.7637,2.76e-05
2015-06-26 00:00:00,2015-06-26 00:00:00,PRATE,surface,-98.4379,29.7637,2.95e-05
2015-06-26 00:00:00,2015-06-26 00:00:00,PRATE,surface,-97.5004,29.7637,2.41e-05
2015-06-26 00:00:00,2015-06-26 00:00:00,PRATE,surface,-96.5629,29.7637,2.64e-05
2015-06-26 00:00:00,2015-06-26 00:00:00,PRATE,surface,-95.6254,29.7637,3.01e-05
2015-06-26 00:00:00,2015-06-26 00:00:00,PRATE,surface,-94.6879,29.7637,2.41e-05
2015-06-26 00:00:00,2015-06-26 00:00:00,PRATE,surface,-93.7504,29.7637,1.48e-05
2015-06-26 00:00:00,2015-06-26 00:00:00,PRATE,surface,-92.8129,29.7637,9.1e-06
2015-06-26 00:00:00,2015-06-26 00:00:00,PRATE,surface,-107.813,30.7085,1.63e-05
2015-06-26 00:00:00,2015-06-26 00:00:00,PRATE,surface,-106.875,30.7085,1.19e-05
2015-06-26 00:00:00,2015-06-26 00:00:00,PRATE,surface,-105.938,30.7085,2.29e-05
2015-06-26 00:00:00,2015-06-26 00:00:00,PRATE,surface,-105,30.7085,1.93e-05
2015-06-26 00:00:00,2015-06-26 00:00:00,PRATE,surface,-104.063,30.7085,1.07e-05
2015-06-26 00:00:00,2015-06-26 00:00:00,PRATE,surface,-103.125,30.7085,5.7e-06
2015-06-26 00:00:00,2015-06-26 00:00:00,PRATE,surface,-102.188,30.7085,5e-06
2015-06-26 00:00:00,2015-06-26 00:00:00,PRATE,surface,-101.25,30.7085,5.2e-06
2015-06-26 00:00:00,2015-06-26 00:00:00,PRATE,surface,-100.313,30.7085,1.08e-05
2015-06-26 00:00:00,2015-06-26 00:00:00,PRATE,surface,-99.3754,30.7085,1.69e-05
2015-06-26 00:00:00,2015-06-26 00:00:00,PRATE,surface,-98.4379,30.7085,1.28e-05
2015-06-26 00:00:00,2015-06-26 00:00:00,PRATE,surface,-97.5004,30.7085,9.2e-06
2015-06-26 00:00:00,2015-06-26 00:00:00,PRATE,surface,-96.5629,30.7085,1.35e-05
2015-06-26 00:00:00,2015-06-26 00:00:00,PRATE,surface,-95.6254,30.7085,1.86e-05
2015-06-26 00:00:00,2015-06-26 00:00:00,PRATE,surface,-94.6879,30.7085,1.86e-05
2015-06-26 00:00:00,2015-06-26 00:00:00,PRATE,surface,-93.7504,30.7085,1.28e-05
2015-06-26 00:00:00,2015-06-26 00:00:00,PRATE,surface,-92.8129,30.7085,7.3e-06
2015-06-26 00:00:00,2015-06-26 00:00:00,PRATE,surface,-107.813,31.6534,8.9e-06
2015-06-26 00:00:00,2015-06-26 00:00:00,PRATE,surface,-106.875,31.6534,1.72e-05
2015-06-26 00:00:00,2015-06-26 00:00:00,PRATE,surface,-105.938,31.6534,2.88e-05
2015-06-26 00:00:00,2015-06-26 00:00:00,PRATE,surface,-105,31.6534,2.33e-05
2015-06-26 00:00:00,2015-06-26 00:00:00,PRATE,surface,-104.063,31.6534,1.45e-05
2015-06-26 00:00:00,2015-06-26 00:00:00,PRATE,surface,-103.125,31.6534,8.1e-06
2015-06-26 00:00:00,2015-06-26 00:00:00,PRATE,surface,-102.188,31.6534,4.7e-06
2015-06-26 00:00:00,2015-06-26 00:00:00,PRATE,surface,-101.25,31.6534,8.3e-06
2015-06-26 00:00:00,2015-06-26 00:00:00,PRATE,surface,-100.313,31.6534,1.58e-05
2015-06-26 00:00:00,2015-06-26 00:00:00,PRATE,surface,-99.3754,31.6534,1.26e-05
2015-06-26 00:00:00,2015-06-26 00:00:00,PRATE,surface,-98.4379,31.6534,5.6e-06
2015-06-26 00:00:00,2015-06-26 00:00:00,PRATE,surface,-97.5004,31.6534,3e-06
2015-06-26 00:00:00,2015-06-26 00:00:00,PRATE,surface,-96.5629,31.6534,4.5e-06
2015-06-26 00:00:00,2015-06-26 00:00:00,PRATE,surface,-95.6254,31.6534,8e-06
2015-06-26 00:00:00,2015-06-26 00:00:00,PRATE,surface,-94.6879,31.6534,1.14e-05
2015-06-26 00:00:00,2015-06-26 00:00:00,PRATE,surface,-93.7504,31.6534,1.19e-05
2015-06-26 00:00:00,2015-06-26 00:00:00,PRATE,surface,-92.8129,31.6534,8.1e-06
2015-06-26 00:00:00,2015-06-26 00:00:00,PRATE,surface,-107.813,32.5983,4.56e-05
2015-06-26 00:00:00,2015-06-26 00:00:00,PRATE,surface,-106.875,32.5983,3.88e-05
2015-06-26 00:00:00,2015-06-26 00:00:00,PRATE,surface,-105.938,32.5983,3.23e-05
2015-06-26 00:00:00,2015-06-26 00:00:00,PRATE,surface,-105,32.5983,2.77e-05
2015-06-26 00:00:00,2015-06-26 00:00:00,PRATE,surface,-104.063,32.5983,1.59e-05
2015-06-26 00:00:00,2015-06-26 00:00:00,PRATE,surface,-103.125,32.5983,1.1e-05
2015-06-26 00:00:00,2015-06-26 00:00:00,PRATE,surface,-102.188,32.5983,1.18e-05
2015-06-26 00:00:00,2015-06-26 00:00:00,PRATE,surface,-101.25,32.5983,1.5e-05
2015-06-26 00:00:00,2015-06-26 00:00:00,PRATE,surface,-100.313,32.5983,1.75e-05
2015-06-26 00:00:00,2015-06-26 00:00:00,PRATE,surface,-99.3754,32.5983,1.25e-05
2015-06-26 00:00:00,2015-06-26 00:00:00,PRATE,surface,-98.4379,32.5983,6.8e-06
2015-06-26 00:00:00,2015-06-26 00:00:00,PRATE,surface,-97.5004,32.5983,6.4e-06
2015-06-26 00:00:00,2015-06-26 00:00:00,PRATE,surface,-96.5629,32.5983,6.7e-06
2015-06-26 00:00:00,2015-06-26 00:00:00,PRATE,surface,-95.6254,32.5983,4.7e-06
2015-06-26 00:00:00,2015-06-26 00:00:00,PRATE,surface,-94.6879,32.5983,5.6e-06
2015-06-26 00:00:00,2015-06-26 00:00:00,PRATE,surface,-93.7504,32.5983,1.03e-05
2015-06-26 00:00:00,2015-06-26 00:00:00,PRATE,surface,-92.8129,32.5983,1.11e-05
2015-06-26 00:00:00,2015-06-26 00:00:00,PRATE,surface,-107.813,33.5432,9.37e-05
2015-06-26 00:00:00,2015-06-26 00:00:00,PRATE,surface,-106.875,33.5432,8.27e-05
2015-06-26 00:00:00,2015-06-26 00:00:00,PRATE,surface,-105.938,33.5432,6.01e-05
2015-06-26 00:00:00,2015-06-26 00:00:00,PRATE,surface,-105,33.5432,3.72e-05
2015-06-26 00:00:00,2015-06-26 00:00:00,PRATE,surface,-104.063,33.5432,2.46e-05
2015-06-26 00:00:00,2015-06-26 00:00:00,PRATE,surface,-103.125,33.5432,1.87e-05
2015-06-26 00:00:00,2015-06-26 00:00:00,PRATE,surface,-102.188,33.5432,2.12e-05
2015-06-26 00:00:00,2015-06-26 00:00:00,PRATE,surface,-101.25,33.5432,2.71e-05
2015-06-26 00:00:00,2015-06-26 00:00:00,PRATE,surface,-100.313,33.5432,1.95e-05
2015-06-26 00:00:00,2015-06-26 00:00:00,PRATE,surface,-99.3754,33.5432,9.8e-06
2015-06-26 00:00:00,2015-06-26 00:00:00,PRATE,surface,-98.4379,33.5432,5.1e-06
2015-06-26 00:00:00,2015-06-26 00:00:00,PRATE,surface,-97.5004,33.5432,5.5e-06
2015-06-26 00:00:00,2015-06-26 00:00:00,PRATE,surface,-96.5629,33.5432,6.7e-06
2015-06-26 00:00:00,2015-06-26 00:00:00,PRATE,surface,-95.6254,33.5432,6.3e-06
2015-06-26 00:00:00,2015-06-26 00:00:00,PRATE,surface,-94.6879,33.5432,7.5e-06
2015-06-26 00:00:00,2015-06-26 00:00:00,PRATE,surface,-93.7504,33.5432,1.08e-05
2015-06-26 00:00:00,2015-06-26 00:00:00,PRATE,surface,-92.8129,33.5432,1.28e-05
2015-06-26 00:00:00,2015-06-26 00:00:00,PRATE,surface,-107.813,34.4881,7.32e-05
2015-06-26 00:00:00,2015-06-26 00:00:00,PRATE,surface,-106.875,34.4881,5.19e-05
2015-06-26 00:00:00,2015-06-26 00:00:00,PRATE,surface,-105.938,34.4881,4.64e-05
2015-06-26 00:00:00,2015-06-26 00:00:00,PRATE,surface,-105,34.4881,5.65e-05
2015-06-26 00:00:00,2015-06-26 00:00:00,PRATE,surface,-104.063,34.4881,4.19e-05
2015-06-26 00:00:00,2015-06-26 00:00:00,PRATE,surface,-103.125,34.4881,3.06e-05
2015-06-26 00:00:00,2015-06-26 00:00:00,PRATE,surface,-102.188,34.4881,3.37e-05
2015-06-26 00:00:00,2015-06-26 00:00:00,PRATE,surface,-101.25,34.4881,4.49e-05
2015-06-26 00:00:00,2015-06-26 00:00:00,PRATE,surface,-100.313,34.4881,3.29e-05
2015-06-26 00:00:00,2015-06-26 00:00:00,PRATE,surface,-99.3754,34.4881,1.79e-05
2015-06-26 00:00:00,2015-06-26 00:00:00,PRATE,surface,-98.4379,34.4881,1.27e-05
2015-06-26 00:00:00,2015-06-26 00:00:00,PRATE,surface,-97.5004,34.4881,1.23e-05
2015-06-26 00:00:00,2015-06-26 00:00:00,PRATE,surface,-96.5629,34.4881,1.13e-05
2015-06-26 00:00:00,2015-06-26 00:00:00,PRATE,surface,-95.6254,34.4881,1.19e-05
2015-06-26 00:00:00,2015-06-26 00:00:00,PRATE,surface,-94.6879,34.4881,1.69e-05
2015-06-26 00:00:00,2015-06-26 00:00:00,PRATE,surface,-93.7504,34.4881,2.54e-05
2015-06-26 00:00:00,2015-06-26 00:00:00,PRATE,surface,-92.8129,34.4881,3.63e-05
2015-06-26 00:00:00,2015-06-26 00:00:00,PRATE,surface,-107.813,35.4329,3.95e-05
2015-06-26 00:00:00,2015-06-26 00:00:00,PRATE,surface,-106.875,35.4329,3.53e-05
2015-06-26 00:00:00,2015-06-26 00:00:00,PRATE,surface,-105.938,35.4329,4.86e-05
2015-06-26 00:00:00,2015-06-26 00:00:00,PRATE,surface,-105,35.4329,7.84e-05
2015-06-26 00:00:00,2015-06-26 00:00:00,PRATE,surface,-104.063,35.4329,5.82e-05
2015-06-26 00:00:00,2015-06-26 00:00:00,PRATE,surface,-103.125,35.4329,3.12e-05
2015-06-26 00:00:00,2015-06-26 00:00:00,PRATE,surface,-102.188,35.4329,3.37e-05
2015-06-26 00:00:00,2015-06-26 00:00:00,PRATE,surface,-101.25,35.4329,4.76e-05
2015-06-26 00:00:00,2015-06-26 00:00:00,PRATE,surface,-100.313,35.4329,5.14e-05
2015-06-26 00:00:00,2015-06-26 00:00:00,PRATE,surface,-99.3754,35.4329,3.63e-05
2015-06-26 00:00:00,2015-06-26 00:00:00,PRATE,surface,-98.4379,35.4329,3.04e-05
2015-06-26 00:00:00,2015-06-26 00:00:00,PRATE,surface,-97.5004,35.4329,2.92e-05
2015-06-26 00:00:00,2015-06-26 00:00:00,PRATE,surface,-96.5629,35.4329,2.39e-05
2015-06-26 00:00:00,2015-06-26 00:00:00,PRATE,surface,-95.6254,35.4329,2.45e-05
2015-06-26 00:00:00,2015-06-26 00:00:00,PRATE,surface,-94.6879,35.4329,3.07e-05
2015-06-26 00:00:00,2015-06-26 00:00:00,PRATE,surface,-93.7504,35.4329,3.4e-05
2015-06-26 00:00:00,2015-06-26 00:00:00,PRATE,surface,-92.8129,35.4329,3.4e-05
2015-06-26 00:00:00,2015-06-26 00:00:00,PRATE,surface,-107.813,36.3778,4.35e-05
2015-06-26 00:00:00,2015-06-26 00:00:00,PRATE,surface,-106.875,36.3778,5.27e-05
2015-06-26 00:00:00,2015-06-26 00:00:00,PRATE,surface,-105.938,36.3778,7.36e-05
2015-06-26 00:00:00,2015-06-26 00:00:00,PRATE,surface,-105,36.3778,8.45e-05
2015-06-26 00:00:00,2015-06-26 00:00:00,PRATE,surface,-104.063,36.3778,6.56e-05
2015-06-26 00:00:00,2015-06-26 00:00:00,PRATE,surface,-103.125,36.3778,3.97e-05
2015-06-26 00:00:00,2015-06-26 00:00:00,PRATE,surface,-102.188,36.3778,4.84e-05
2015-06-26 00:00:00,2015-06-26 00:00:00,PRATE,surface,-101.25,36.3778,6e-05
2015-06-26 00:00:00,2015-06-26 00:00:00,PRATE,surface,-100.313,36.3778,5.84e-05
2015-06-26 00:00:00,2015-06-26 00:00:00,PRATE,surface,-99.3754,36.3778,4.51e-05
2015-06-26 00:00:00,2015-06-26 00:00:00,PRATE,surface,-98.4379,36.3778,3.44e-05
2015-06-26 00:00:00,2015-06-26 00:00:00,PRATE,surface,-97.5004,36.3778,2.73e-05
2015-06-26 00:00:00,2015-06-26 00:00:00,PRATE,surface,-96.5629,36.3778,2.06e-05
2015-06-26 00:00:00,2015-06-26 00:00:00,PRATE,surface,-95.6254,36.3778,1.86e-05
2015-06-26 00:00:00,2015-06-26 00:00:00,PRATE,surface,-94.6879,36.3778,2.2e-05
2015-06-26 00:00:00,2015-06-26 00:00:00,PRATE,surface,-93.7504,36.3778,2.47e-05
2015-06-26 00:00:00,2015-06-26 00:00:00,PRATE,surface,-92.8129,36.3778,2.68e-05
