2014-05-01 00:00:00,2014-05-01 00:00:00,TMP,surface,-107.813,25.0393,303.047
2014-05-01 00:00:00,2014-05-01 00:00:00,TMP,surface,-106.875,25.0393,296.336
2014-05-01 00:00:00,2014-05-01 00:00:00,TMP,surface,-105.938,25.0393,292.34
2014-05-01 00:00:00,2014-05-01 00:00:00,TMP,surface,-105,25.0393,290.928
2014-05-01 00:00:00,2014-05-01 00:00:00,TMP,surface,-104.063,25.0393,295.056
2014-05-01 00:00:00,2014-05-01 00:00:00,TMP,surface,-103.125,25.0393,297.933
2014-05-01 00:00:00,2014-05-01 00:00:00,TMP,surface,-102.188,25.0393,296.544
2014-05-01 00:00:00,2014-05-01 00:00:00,TMP,surface,-101.25,25.0393,293.523
2014-05-01 00:00:00,2014-05-01 00:00:00,TMP,surface,-100.313,25.0393,293.936
2014-05-01 00:00:00,2014-05-01 00:00:00,TMP,surface,-99.3754,25.0393,297.655
2014-05-01 00:00:00,2014-05-01 00:00:00,TMP,surface,-98.4379,25.0393,301.047
2014-05-01 00:00:00,2014-05-01 00:00:00,TMP,surface,-97.5004,25.0393,301.482
2014-05-01 00:00:00,2014-05-01 00:00:00,TMP,surface,-96.5629,25.0393,301.811
2014-05-01 00:00:00,2014-05-01 00:00:00,TMP,surface,-95.6254,25.0393,302.307
2014-05-01 00:00:00,2014-05-01 00:00:00,TMP,surface,-94.6879,25.0393,302.701
2014-05-01 00:00:00,2014-05-01 00:00:00,TMP,surface,-93.7504,25.0393,302.791
2014-05-01 00:00:00,2014-05-01 00:00:00,TMP,surface,-92.8129,25.0393,302.698
2014-05-01 00:00:00,2014-05-01 00:00:00,TMP,surface,-107.813,25.9842,298.845
2014-05-01 00:00:00,2014-05-01 00:00:00,TMP,surface,-106.875,25.9842,293.751
2014-05-01 00:00:00,2014-05-01 00:00:00,TMP,surface,-105.938,25.9842,291.45
2014-05-01 00:00:00,2014-05-01 00:00:00,TMP,surface,-105,25.9842,293.859
2014-05-01 00:00:00,2014-05-01 00:00:00,TMP,surface,-104.063,25.9842,298.874
2014-05-01 00:00:00,2014-05-01 00:00:00,TMP,surface,-103.125,25.9842,300.023
2014-05-01 00:00:00,2014-05-01 00:00:00,TMP,surface,-102.188,25.9842,298.656
2014-05-01 00:00:00,2014-05-01 00:00:00,TMP,surface,-101.25,25.9842,297.21
2014-05-01 00:00:00,2014-05-01 00:00:00,TMP,surface,-100.313,25.9842,298.304
2014-05-01 00:00:00,2014-05-01 00:00:00,TMP,surface,-99.3754,25.9842,301.46
2014-05-01 00:00:00,2014-05-01 00:00:00,TMP,surface,-98.4379,25.9842,302.711
2014-05-01 00:00:00,2014-05-01 00:00:00,TMP,surface,-97.5004,25.9842,301.6
2014-05-01 00:00:00,2014-05-01 00:00:00,TMP,surface,-96.5629,25.9842,300.343
2014-05-01 00:00:00,2014-05-01 00:00:00,TMP,surface,-95.6254,25.9842,301.76
2014-05-01 00:00:00,2014-05-01 00:00:00,TMP,surface,-94.6879,25.9842,302.34
2014-05-01 00:00:00,2014-05-01 00:00:00,TMP,surface,-93.7504,25.9842,302.672
2014-05-01 00:00:00,2014-05-01 00:00:00,TMP,surface,-92.8129,25.9842,302.826
2014-05-01 00:00:00,2014-05-01 00:00:00,TMP,surface,-107.813,26.929,295.261
2014-05-01 00:00:00,2014-05-01 00:00:00,TMP,surface,-106.875,26.929,292.061
2014-05-01 00:00:00,2014-05-01 00:00:00,TMP,surface,-105.938,26.929,293.719
2014-05-01 00:00:00,2014-05-01 00:00:00,TMP,surface,-105,26.929,298.125
2014-05-01 00:00:00,2014-05-01 00:00:00,TMP,surface,-104.063,26.929,300.579
2014-05-01 00:00:00,2014-05-01 00:00:00,TMP,surface,-103.125,26.929,299.472
2014-05-01 00:00:00,2014-05-01 00:00:00,TMP,surface,-102.188,26.929,298.551
2014-05-01 00:00:00,2014-05-01 00:00:00,TMP,surface,-101.25,26.929,299.597
2014-05-01 00:00:00,2014-05-01 00:00:00,TMP,surface,-100.313,26.929,302.144
2014-05-01 00:00:00,2014-05-01 00:00:00,TMP,surface,-99.3754,26.929,303.498
2014-05-01 00:00:00,2014-05-01 00:00:00,TMP,surface,-98.4379,26.929,302.199
2014-05-01 00:00:00,2014-05-01 00:00:00,TMP,surface,-97.5004,26.929,299.485
2014-05-01 00:00:00,2014-05-01 00:00:00,TMP,surface,-96.5629,26.929,300.621
2014-05-01 00:00:00,2014-05-01 00:00:00,TMP,surface,-95.6254,26.929,302.263
2014-05-01 00:00:00,2014-05-01 00:00:00,TMP,surface,-94.6879,26.929,302.519
2014-05-01 00:00:00,2014-05-01 00:00:00,TMP,surface,-93.7504,26.929,302.74
2014-05-01 00:00:00,2014-05-01 00:00:00,TMP,surface,-92.8129,26.929,302.938
2014-05-01 00:00:00,2014-05-01 00:00:00,TMP,surface,-107.813,27.8739,293.821
2014-05-01 00:00:00,2014-05-01 00:00:00,TMP,surface,-106.875,27.8739,292.477
2014-05-01 00:00:00,2014-05-01 00:00:00,TMP,surface,-105.938,27.8739,296.621
2014-05-01 00:00:00,2014-05-01 00:00:00,TMP,surface,-105,27.8739,300.397
2014-05-01 00:00:00,2014-05-01 00:00:00,TMP,surface,-104.063,27.8739,300.397
2014-05-01 00:00:00,2014-05-01 00:00:00,TMP,surface,-103.125,27.8739,298.343
2014-05-01 00:00:00,2014-05-01 00:00:00,TMP,surface,-102.188,27.8739,297.994
2014-05-01 00:00:00,2014-05-01 00:00:00,TMP,surface,-101.25,27.8739,300.759
2014-05-01 00:00:00,2014-05-01 00:00:00,TMP,surface,-100.313,27.8739,303.069
2014-05-01 00:00:00,2014-05-01 00:00:00,TMP,surface,-99.3754,27.8739,302.727
2014-05-01 00:00:00,2014-05-01 00:00:00,TMP,surface,-98.4379,27.8739,301.175
2014-05-01 00:00:00,2014-05-01 00:00:00,TMP,surface,-97.5004,27.8739,301.056
2014-05-01 00:00:00,2014-05-01 00:00:00,TMP,surface,-96.5629,27.8739,301.975
2014-05-01 00:00:00,2014-05-01 00:00:00,TMP,surface,-95.6254,27.8739,302.512
2014-05-01 00:00:00,2014-05-01 00:00:00,TMP,surface,-94.6879,27.8739,302.877
2014-05-01 00:00:00,2014-05-01 00:00:00,TMP,surface,-93.7504,27.8739,303.053
2014-05-01 00:00:00,2014-05-01 00:00:00,TMP,surface,-92.8129,27.8739,303.172
2014-05-01 00:00:00,2014-05-01 00:00:00,TMP,surface,-107.813,28.8188,293.799
2014-05-01 00:00:00,2014-05-01 00:00:00,TMP,surface,-106.875,28.8188,294.688
2014-05-01 00:00:00,2014-05-01 00:00:00,TMP,surface,-105.938,28.8188,298.839
2014-05-01 00:00:00,2014-05-01 00:00:00,TMP,surface,-105,28.8188,301.645
2014-05-01 00:00:00,2014-05-01 00:00:00,TMP,surface,-104.063,28.8188,300.394
2014-05-01 00:00:00,2014-05-01 00:00:00,TMP,surface,-103.125,28.8188,298.912
2014-05-01 00:00:00,2014-05-01 00:00:00,TMP,surface,-102.188,28.8188,298.74
2014-05-01 00:00:00,2014-05-01 00:00:00,TMP,surface,-101.25,28.8188,300.983
2014-05-01 00:00:00,2014-05-01 00:00:00,TMP,surface,-100.313,28.8188,302.106
2014-05-01 00:00:00,2014-05-01 00:00:00,TMP,surface,-99.3754,28.8188,301.133
2014-05-01 00:00:00,2014-05-01 00:00:00,TMP,surface,-98.4379,28.8188,299.869
2014-05-01 00:00:00,2014-05-01 00:00:00,TMP,surface,-97.5004,28.8188,299.687
2014-05-01 00:00:00,2014-05-01 00:00:00,TMP,surface,-96.5629,28.8188,300.413
2014-05-01 00:00:00,2014-05-01 00:00:00,TMP,surface,-95.6254,28.8188,301.005
2014-05-01 00:00:00,2014-05-01 00:00:00,TMP,surface,-94.6879,28.8188,301.251
2014-05-01 00:00:00,2014-05-01 00:00:00,TMP,surface,-93.7504,28.8188,301.971
2014-05-01 00:00:00,2014-05-01 00:00:00,TMP,surface,-92.8129,28.8188,302.435
2014-05-01 00:00:00,2014-05-01 00:00:00,TMP,surface,-107.813,29.7637,296.884
2014-05-01 00:00:00,2014-05-01 00:00:00,TMP,surface,-106.875,29.7637,298.16
2014-05-01 00:00:00,2014-05-01 00:00:00,TMP,surface,-105.938,29.7637,300.493
2014-05-01 00:00:00,2014-05-01 00:00:00,TMP,surface,-105,29.7637,301.597
2014-05-01 00:00:00,2014-05-01 00:00:00,TMP,surface,-104.063,29.7637,300.762
2014-05-01 00:00:00,2014-05-01 00:00:00,TMP,surface,-103.125,29.7637,300.298
2014-05-01 00:00:00,2014-05-01 00:00:00,TMP,surface,-102.188,29.7637,300.944
2014-05-01 00:00:00,2014-05-01 00:00:00,TMP,surface,-101.25,29.7637,301.392
2014-05-01 00:00:00,2014-05-01 00:00:00,TMP,surface,-100.313,29.7637,300.669
2014-05-01 00:00:00,2014-05-01 00:00:00,TMP,surface,-99.3754,29.7637,299.245
2014-05-01 00:00:00,2014-05-01 00:00:00,TMP,surface,-98.4379,29.7637,298.624
2014-05-01 00:00:00,2014-05-01 00:00:00,TMP,surface,-97.5004,29.7637,299.373
2014-05-01 00:00:00,2014-05-01 00:00:00,TMP,surface,-96.5629,29.7637,300.519
2014-05-01 00:00:00,2014-05-01 00:00:00,TMP,surface,-95.6254,29.7637,301.36
2014-05-01 00:00:00,2014-05-01 00:00:00,TMP,surface,-94.6879,29.7637,301.511
2014-05-01 00:00:00,2014-05-01 00:00:00,TMP,surface,-93.7504,29.7637,301.21
2014-05-01 00:00:00,2014-05-01 00:00:00,TMP,surface,-92.8129,29.7637,302.816
2014-05-01 00:00:00,2014-05-01 00:00:00,TMP,surface,-107.813,30.7085,301.29
2014-05-01 00:00:00,2014-05-01 00:00:00,TMP,surface,-106.875,30.7085,301.908
2014-05-01 00:00:00,2014-05-01 00:00:00,TMP,surface,-105.938,30.7085,301.872
2014-05-01 00:00:00,2014-05-01 00:00:00,TMP,surface,-105,30.7085,301.536
2014-05-01 00:00:00,2014-05-01 00:00:00,TMP,surface,-104.063,30.7085,300.471
2014-05-01 00:00:00,2014-05-01 00:00:00,TMP,surface,-103.125,30.7085,301.13
2014-05-01 00:00:00,2014-05-01 00:00:00,TMP,surface,-102.188,30.7085,301.69
2014-05-01 00:00:00,2014-05-01 00:00:00,TMP,surface,-101.25,30.7085,301.136
2014-05-01 00:00:00,2014-05-01 00:00:00,TMP,surface,-100.313,30.7085,300.205
2014-05-01 00:00:00,2014-05-01 00:00:00,TMP,surface,-99.3754,30.7085,299.431
2014-05-01 00:00:00,2014-05-01 00:00:00,TMP,surface,-98.4379,30.7085,299.447
2014-05-01 00:00:00,2014-05-01 00:00:00,TMP,surface,-97.5004,30.7085,300.298
2014-05-01 00:00:00,2014-05-01 00:00:00,TMP,surface,-96.5629,30.7085,301.312
2014-05-01 00:00:00,2014-05-01 00:00:00,TMP,surface,-95.6254,30.7085,301.917
2014-05-01 00:00:00,2014-05-01 00:00:00,TMP,surface,-94.6879,30.7085,302.288
2014-05-01 00:00:00,2014-05-01 00:00:00,TMP,surface,-93.7504,30.7085,302.823
2014-05-01 00:00:00,2014-05-01 00:00:00,TMP,surface,-92.8129,30.7085,302.992
2014-05-01 00:00:00,2014-05-01 00:00:00,TMP,surface,-107.813,31.6534,303.248
2014-05-01 00:00:00,2014-05-01 00:00:00,TMP,surface,-106.875,31.6534,303.136
2014-05-01 00:00:00,2014-05-01 00:00:00,TMP,surface,-105.938,31.6534,302.34
2014-05-01 00:00:00,2014-05-01 00:00:00,TMP,surface,-105,31.6534,301.328
2014-05-01 00:00:00,2014-05-01 00:00:00,TMP,surface,-104.063,31.6534,301.06
2014-05-01 00:00:00,2014-05-01 00:00:00,TMP,surface,-103.125,31.6534,301.319
2014-05-01 00:00:00,2014-05-01 00:00:00,TMP,surface,-102.188,31.6534,301.469
2014-05-01 00:00:00,2014-05-01 00:00:00,TMP,surface,-101.25,31.6534,301.031
2014-05-01 00:00:00,2014-05-01 00:00:00,TMP,surface,-100.313,31.6534,300.72
2014-05-01 00:00:00,2014-05-01 00:00:00,TMP,surface,-99.3754,31.6534,300.9
2014-05-01 00:00:00,2014-05-01 00:00:00,TMP,surface,-98.4379,31.6534,301.319
2014-05-01 00:00:00,2014-05-01 00:00:00,TMP,surface,-97.5004,31.6534,301.872
2014-05-01 00:00:00,2014-05-01 00:00:00,TMP,surface,-96.5629,31.6534,302.429
2014-05-01 00:00:00,2014-05-01 00:00:00,TMP,surface,-95.6254,31.6534,302.695
2014-05-01 00:00:00,2014-05-01 00:00:00,TMP,surface,-94.6879,31.6534,302.685
2014-05-01 00:00:00,2014-05-01 00:00:00,TMP,surface,-93.7504,31.6534,302.685
2014-05-01 00:00:00,2014-05-01 00:00:00,TMP,surface,-92.8129,31.6534,302.704
2014-05-01 00:00:00,2014-05-01 00:00:00,TMP,surface,-107.813,32.5983,300.346
2014-05-01 00:00:00,2014-05-01 00:00:00,TMP,surface,-106.875,32.5983,300.707
2014-05-01 00:00:00,2014-05-01 00:00:00,TMP,surface,-105.938,32.5983,300.724
2014-05-01 00:00:00,2014-05-01 00:00:00,TMP,surface,-105,32.5983,300.439
2014-05-01 00:00:00,2014-05-01 00:00:00,TMP,surface,-104.063,32.5983,300.432
2014-05-01 00:00:00,2014-05-01 00:00:00,TMP,surface,-103.125,32.5983,300.794
2014-05-01 00:00:00,2014-05-01 00:00:00,TMP,surface,-102.188,32.5983,300.813
2014-05-01 00:00:00,2014-05-01 00:00:00,TMP,surface,-101.25,32.5983,301.191
2014-05-01 00:00:00,2014-05-01 00:00:00,TMP,surface,-100.313,32.5983,302.147
2014-05-01 00:00:00,2014-05-01 00:00:00,TMP,surface,-99.3754,32.5983,303.05
2014-05-01 00:00:00,2014-05-01 00:00:00,TMP,surface,-98.4379,32.5983,303.335
2014-05-01 00:00:00,2014-05-01 00:00:00,TMP,surface,-97.5004,32.5983,303.226
2014-05-01 00:00:00,2014-05-01 00:00:00,TMP,surface,-96.5629,32.5983,303.197
2014-05-01 00:00:00,2014-05-01 00:00:00,TMP,surface,-95.6254,32.5983,303.306
2014-05-01 00:00:00,2014-05-01 00:00:00,TMP,surface,-94.6879,32.5983,303.21
2014-05-01 00:00:00,2014-05-01 00:00:00,TMP,surface,-93.7504,32.5983,302.957
2014-05-01 00:00:00,2014-05-01 00:00:00,TMP,surface,-92.8129,32.5983,303.36
2014-05-01 00:00:00,2014-05-01 00:00:00,TMP,surface,-107.813,33.5432,296.349
2014-05-01 00:00:00,2014-05-01 00:00:00,TMP,surface,-106.875,33.5432,297.709
2014-05-01 00:00:00,2014-05-01 00:00:00,TMP,surface,-105.938,33.5432,298.442
2014-05-01 00:00:00,2014-05-01 00:00:00,TMP,surface,-105,33.5432,299.616
2014-05-01 00:00:00,2014-05-01 00:00:00,TMP,surface,-104.063,33.5432,300.643
2014-05-01 00:00:00,2014-05-01 00:00:00,TMP,surface,-103.125,33.5432,300.477
2014-05-01 00:00:00,2014-05-01 00:00:00,TMP,surface,-102.188,33.5432,300.49
2014-05-01 00:00:00,2014-05-01 00:00:00,TMP,surface,-101.25,33.5432,301.418
2014-05-01 00:00:00,2014-05-01 00:00:00,TMP,surface,-100.313,33.5432,303.076
2014-05-01 00:00:00,2014-05-01 00:00:00,TMP,surface,-99.3754,33.5432,304.301
2014-05-01 00:00:00,2014-05-01 00:00:00,TMP,surface,-98.4379,33.5432,304.458
2014-05-01 00:00:00,2014-05-01 00:00:00,TMP,surface,-97.5004,33.5432,304.007
2014-05-01 00:00:00,2014-05-01 00:00:00,TMP,surface,-96.5629,33.5432,303.728
2014-05-01 00:00:00,2014-05-01 00:00:00,TMP,surface,-95.6254,33.5432,303.613
2014-05-01 00:00:00,2014-05-01 00:00:00,TMP,surface,-94.6879,33.5432,303.392
2014-05-01 00:00:00,2014-05-01 00:00:00,TMP,surface,-93.7504,33.5432,303.482
2014-05-01 00:00:00,2014-05-01 00:00:00,TMP,surface,-92.8129,33.5432,303.786
2014-05-01 00:00:00,2014-05-01 00:00:00,TMP,surface,-107.813,34.4881,295.52
2014-05-01 00:00:00,2014-05-01 00:00:00,TMP,surface,-106.875,34.4881,297.172
2014-05-01 00:00:00,2014-05-01 00:00:00,TMP,surface,-105.938,34.4881,298.128
2014-05-01 00:00:00,2014-05-01 00:00:00,TMP,surface,-105,34.4881,299.872
2014-05-01 00:00:00,2014-05-01 00:00:00,TMP,surface,-104.063,34.4881,300.986
2014-05-01 00:00:00,2014-05-01 00:00:00,TMP,surface,-103.125,34.4881,300.925
2014-05-01 00:00:00,2014-05-01 00:00:00,TMP,surface,-102.188,34.4881,301.229
2014-05-01 00:00:00,2014-05-01 00:00:00,TMP,surface,-101.25,34.4881,302.02
2014-05-01 00:00:00,2014-05-01 00:00:00,TMP,surface,-100.313,34.4881,303.299
2014-05-01 00:00:00,2014-05-01 00:00:00,TMP,surface,-99.3754,34.4881,304.314
2014-05-01 00:00:00,2014-05-01 00:00:00,TMP,surface,-98.4379,34.4881,304.656
2014-05-01 00:00:00,2014-05-01 00:00:00,TMP,surface,-97.5004,34.4881,304.362
2014-05-01 00:00:00,2014-05-01 00:00:00,TMP,surface,-96.5629,34.4881,303.856
2014-05-01 00:00:00,2014-05-01 00:00:00,TMP,surface,-95.6254,34.4881,303.418
2014-05-01 00:00:00,2014-05-01 00:00:00,TMP,surface,-94.6879,34.4881,302.864
2014-05-01 00:00:00,2014-05-01 00:00:00,TMP,surface,-93.7504,34.4881,302.464
2014-05-01 00:00:00,2014-05-01 00:00:00,TMP,surface,-92.8129,34.4881,303.018
2014-05-01 00:00:00,2014-05-01 00:00:00,TMP,surface,-107.813,35.4329,296.592
2014-05-01 00:00:00,2014-05-01 00:00:00,TMP,surface,-106.875,35.4329,296.755
2014-05-01 00:00:00,2014-05-01 00:00:00,TMP,surface,-105.938,35.4329,296.57
2014-05-01 00:00:00,2014-05-01 00:00:00,TMP,surface,-105,35.4329,297.693
2014-05-01 00:00:00,2014-05-01 00:00:00,TMP,surface,-104.063,35.4329,300.064
2014-05-01 00:00:00,2014-05-01 00:00:00,TMP,surface,-103.125,35.4329,301.578
2014-05-01 00:00:00,2014-05-01 00:00:00,TMP,surface,-102.188,35.4329,302.343
2014-05-01 00:00:00,2014-05-01 00:00:00,TMP,surface,-101.25,35.4329,302.634
2014-05-01 00:00:00,2014-05-01 00:00:00,TMP,surface,-100.313,35.4329,302.797
2014-05-01 00:00:00,2014-05-01 00:00:00,TMP,surface,-99.3754,35.4329,303.399
2014-05-01 00:00:00,2014-05-01 00:00:00,TMP,surface,-98.4379,35.4329,303.943
2014-05-01 00:00:00,2014-05-01 00:00:00,TMP,surface,-97.5004,35.4329,304.231
2014-05-01 00:00:00,2014-05-01 00:00:00,TMP,surface,-96.5629,35.4329,304.314
2014-05-01 00:00:00,2014-05-01 00:00:00,TMP,surface,-95.6254,35.4329,303.815
2014-05-01 00:00:00,2014-05-01 00:00:00,TMP,surface,-94.6879,35.4329,302.794
2014-05-01 00:00:00,2014-05-01 00:00:00,TMP,surface,-93.7504,35.4329,302.09
2014-05-01 00:00:00,2014-05-01 00:00:00,TMP,surface,-92.8129,35.4329,301.815
2014-05-01 00:00:00,2014-05-01 00:00:00,TMP,surface,-107.813,36.3778,296.09
2014-05-01 00:00:00,2014-05-01 00:00:00,TMP,surface,-106.875,36.3778,293.197
2014-05-01 00:00:00,2014-05-01 00:00:00,TMP,surface,-105.938,36.3778,293.568
2014-05-01 00:00:00,2014-05-01 00:00:00,TMP,surface,-105,36.3778,295.133
2014-05-01 00:00:00,2014-05-01 00:00:00,TMP,surface,-104.063,36.3778,298.25
2014-05-01 00:00:00,2014-05-01 00:00:00,TMP,surface,-103.125,36.3778,300.615
2014-05-01 00:00:00,2014-05-01 00:00:00,TMP,surface,-102.188,36.3778,301.828
2014-05-01 00:00:00,2014-05-01 00:00:00,TMP,surface,-101.25,36.3778,302.24
2014-05-01 00:00:00,2014-05-01 00:00:00,TMP,surface,-100.313,36.3778,302.407
2014-05-01 00:00:00,2014-05-01 00:00:00,TMP,surface,-99.3754,36.3778,302.711
2014-05-01 00:00:00,2014-05-01 00:00:00,TMP,surface,-98.4379,36.3778,303.332
2014-05-01 00:00:00,2014-05-01 00:00:00,TMP,surface,-97.5004,36.3778,304.029
2014-05-01 00:00:00,2014-05-01 00:00:00,TMP,surface,-96.5629,36.3778,304.477
2014-05-01 00:00:00,2014-05-01 00:00:00,TMP,surface,-95.6254,36.3778,304.132
2014-05-01 00:00:00,2014-05-01 00:00:00,TMP,surface,-94.6879,36.3778,302.915
2014-05-01 00:00:00,2014-05-01 00:00:00,TMP,surface,-93.7504,36.3778,301.856
2014-05-01 00:00:00,2014-05-01 00:00:00,TMP,surface,-92.8129,36.3778,301.424
2014-05-01 00:00:00,2014-05-01 00:00:00,PRATE,surface,-107.813,25.0393,2.01e-05
2014-05-01 00:00:00,2014-05-01 00:00:00,PRATE,surface,-106.875,25.0393,0.0001451
2014-05-01 00:00:00,2014-05-01 00:00:00,PRATE,surface,-105.938,25.0393,0.0001127
2014-05-01 00:00:00,2014-05-01 00:00:00,PRATE,surface,-105,25.0393,7.05e-05
2014-05-01 00:00:00,2014-05-01 00:00:00,PRATE,surface,-104.063,25.0393,2.16e-05
2014-05-01 00:00:00,2014-05-01 00:00:00,PRATE,surface,-103.125,25.0393,6.5e-06
2014-05-01 00:00:00,2014-05-01 00:00:00,PRATE,surface,-102.188,25.0393,1.51e-05
2014-05-01 00:00:00,2014-05-01 00:00:00,PRATE,surface,-101.25,25.0393,4.18e-05
2014-05-01 00:00:00,2014-05-01 00:00:00,PRATE,surface,-100.313,25.0393,5.84e-05
2014-05-01 00:00:00,2014-05-01 00:00:00,PRATE,surface,-99.3754,25.0393,2.94e-05
2014-05-01 00:00:00,2014-05-01 00:00:00,PRATE,surface,-98.4379,25.0393,1.26e-05
2014-05-01 00:00:00,2014-05-01 00:00:00,PRATE,surface,-97.5004,25.0393,2.49e-05
2014-05-01 00:00:00,2014-05-01 00:00:00,PRATE,surface,-96.5629,25.0393,5.3e-05
2014-05-01 00:00:00,2014-05-01 00:00:00,PRATE,surface,-95.6254,25.0393,2.07e-05
2014-05-01 00:00:00,2014-05-01 00:00:00,PRATE,surface,-94.6879,25.0393,2.07e-05
2014-05-01 00:00:00,2014-05-01 00:00:00,PRATE,surface,-93.7504,25.0393,3.21e-05
2014-05-01 00:00:00,2014-05-01 00:00:00,PRATE,surface,-92.8129,25.0393,3.92e-05
2014-05-01 00:00:00,2014-05-01 00:00:00,PRATE,surface,-107.813,25.9842,7.8e-05
2014-05-01 00:00:00,2014-05-01 00:00:00,PRATE,surface,-106.875,25.9842,0.0001043
2014-05-01 00:00:00,2014-05-01 00:00:00,PRATE,surface,-105.938,25.9842,7.86e-05
2014-05-01 00:00:00,2014-05-01 00:00:00,PRATE,surface,-105,25.9842,2.08e-05
2014-05-01 00:00:00,2014-05-01 00:00:00,PRATE,surface,-104.063,25.9842,5.3e-06
2014-05-01 00:00:00,2014-05-01 00:00:00,PRATE,surface,-103.125,25.9842,3.7e-06
2014-05-01 00:00:00,2014-05-01 00:00:00,PRATE,surface,-102.188,25.9842,7.3e-06
2014-05-01 00:00:00,2014-05-01 00:00:00,PRATE,surface,-101.25,25.9842,2.59e-05
2014-05-01 00:00:00,2014-05-01 00:00:00,PRATE,surface,-100.313,25.9842,2.1e-05
2014-05-01 00:00:00,2014-05-01 00:00:00,PRATE,surface,-99.3754,25.9842,7.4e-06
2014-05-01 00:00:00,2014-05-01 00:00:00,PRATE,surface,-98.4379,25.9842,8.7e-06
2014-05-01 00:00:00,2014-05-01 00:00:00,PRATE,surface,-97.5004,25.9842,4.85e-05
2014-05-01 00:00:00,2014-05-01 00:00:00,PRATE,surface,-96.5629,25.9842,5.68e-05
2014-05-01 00:00:00,2014-05-01 00:00:00,PRATE,surface,-95.6254,25.9842,3.63e-05
2014-05-01 00:00:00,2014-05-01 00:00:00,PRATE,surface,-94.6879,25.9842,2.56e-05
2014-05-01 00:00:00,2014-05-01 00:00:00,PRATE,surface,-93.7504,25.9842,4.37e-05
2014-05-01 00:00:00,2014-05-01 00:00:00,PRATE,surface,-92.8129,25.9842,4.21e-05
2014-05-01 00:00:00,2014-05-01 00:00:00,PRATE,surface,-107.813,26.929,9.3e-05
2014-05-01 00:00:00,2014-05-01 00:00:00,PRATE,surface,-106.875,26.929,6.3e-05
2014-05-01 00:00:00,2014-05-01 00:00:00,PRATE,surface,-105.938,26.929,2e-05
2014-05-01 00:00:00,2014-05-01 00:00:00,PRATE,surface,-105,26.929,5.7e-06
2014-05-01 00:00:00,2014-05-01 00:00:00,PRATE,surface,-104.063,26.929,6.9e-06
2014-05-01 00:00:00,2014-05-01 00:00:00,PRATE,surface,-103.125,26.929,1.07e-05
2014-05-01 00:00:00,2014-05-01 00:00:00,PRATE,surface,-102.188,26.929,9.6e-06
2014-05-01 00:00:00,2014-05-01 00:00:00,PRATE,surface,-101.25,26.929,9.1e-06
2014-05-01 00:00:00,2014-05-01 00:00:00,PRATE,surface,-100.313,26.929,5.5e-06
2014-05-01 00:00:00,2014-05-01 00:00:00,PRATE,surface,-99.3754,26.929,9.6e-06
2014-05-01 00:00:00,2014-05-01 00:00:00,PRATE,surface,-98.4379,26.929,2.8e-05
2014-05-01 00:00:00,2014-05-01 00:00:00,PRATE,surface,-97.5004,26.929,4.79e-05
2014-05-01 00:00:00,2014-05-01 00:00:00,PRATE,surface,-96.5629,26.929,5.47e-05
2014-05-01 00:00:00,2014-05-01 00:00:00,PRATE,surface,-95.6254,26.929,2.41e-05
2014-05-01 00:00:00,2014-05-01 00:00:00,PRATE,surface,-94.6879,26.929,2.47e-05
2014-05-01 00:00:00,2014-05-01 00:00:00,PRATE,surface,-93.7504,26.929,1.89e-05
2014-05-01 00:00:00,2014-05-01 00:00:00,PRATE,surface,-92.8129,26.929,1.1e-05
2014-05-01 00:00:00,2014-05-01 00:00:00,PRATE,surface,-107.813,27.8739,9.38e-05
2014-05-01 00:00:00,2014-05-01 00:00:00,PRATE,surface,-106.875,27.8739,3.57e-05
2014-05-01 00:00:00,2014-05-01 00:00:00,PRATE,surface,-105.938,27.8739,1.5e-06
2014-05-01 00:00:00,2014-05-01 00:00:00,PRATE,surface,-105,27.8739,1.2e-06
2014-05-01 00:00:00,2014-05-01 00:00:00,PRATE,surface,-104.063,27.8739,9.8e-06
2014-05-01 00:00:00,2014-05-01 00:00:00,PRATE,surface,-103.125,27.8739,1.58e-05
2014-05-01 00:00:00,2014-05-01 00:00:00,PRATE,surface,-102.188,27.8739,1.23e-05
2014-05-01 00:00:00,2014-05-01 00:00:00,PRATE,surface,-101.25,27.8739,3.3e-06
2014-05-01 00:00:00,2014-05-01 00:00:00,PRATE,surface,-100.313,27.8739,2.3e-06
2014-05-01 00:00:00,2014-05-01 00:00:00,PRATE,surface,-99.3754,27.8739,2.93e-05
2014-05-01 00:00:00,2014-05-01 00:00:00,PRATE,surface,-98.4379,27.8739,6.14e-05
2014-05-01 00:00:00,2014-05-01 00:00:00,PRATE,surface,-97.5004,27.8739,6.66e-05
2014-05-01 00:00:00,2014-05-01 00:00:00,PRATE,surface,-96.5629,27.8739,4.36e-05
2014-05-01 00:00:00,2014-05-01 00:00:00,PRATE,surface,-95.6254,27.8739,2e-05
2014-05-01 00:00:00,2014-05-01 00:00:00,PRATE,surface,-94.6879,27.8739,1.79e-05
2014-05-01 00:00:00,2014-05-01 00:00:00,PRATE,surface,-93.7504,27.8739,2.68e-05
2014-05-01 00:00:00,2014-05-01 00:00:00,PRATE,surface,-92.8129,27.8739,2.67e-05
2014-05-01 00:00:00,2014-05-01 00:00:00,PRATE,surface,-107.813,28.8188,5.48e-05
2014-05-01 00:00:00,2014-05-01 00:00:00,PRATE,surface,-106.875,28.8188,1.3e-05
2014-05-01 00:00:00,2014-05-01 00:00:00,PRATE,surface,-105.938,28.8188,1.9e-06
2014-05-01 00:00:00,2014-05-01 00:00:00,PRATE,surface,-105,28.8188,1.9e-06
2014-05-01 00:00:00,2014-05-01 00:00:00,PRATE,surface,-104.063,28.8188,4.7e-06
2014-05-01 00:00:00,2014-05-01 00:00:00,PRATE,surface,-103.125,28.8188,2.1e-06
2014-05-01 00:00:00,2014-05-01 00:00:00,PRATE,surface,-102.188,28.8188,6e-07
2014-05-01 00:00:00,2014-05-01 00:00:00,PRATE,surface,-101.25,28.8188,4e-07
2014-05-01 00:00:00,2014-05-01 00:00:00,PRATE,surface,-100.313,28.8188,6.3e-06
2014-05-01 00:00:00,2014-05-01 00:00:00,PRATE,surface,-99.3754,28.8188,3.87e-05
2014-05-01 00:00:00,2014-05-01 00:00:00,PRATE,surface,-98.4379,28.8188,8.47e-05
2014-05-01 00:00:00,2014-05-01 00:00:00,PRATE,surface,-97.5004,28.8188,8.66e-05
2014-05-01 00:00:00,2014-05-01 00:00:00,PRATE,surface,-96.5629,28.8188,5.64e-05
2014-05-01 00:00:00,2014-05-01 00:00:00,PRATE,surface,-95.6254,28.8188,3.52e-05
2014-05-01 00:00:00,2014-05-01 00:00:00,PRATE,surface,-94.6879,28.8188,1.83e-05
2014-05-01 00:00:00,2014-05-01 00:00:00,PRATE,surface,-93.7504,28.8188,9.6e-06
2014-05-01 00:00:00,2014-05-01 00:00:00,PRATE,surface,-92.8129,28.8188,8.5e-06
2014-05-01 00:00:00,2014-05-01 00:00:00,PRATE,surface,-107.813,29.7637,1.3e-05
2014-05-01 00:00:00,2014-05-01 00:00:00,PRATE,surface,-106.875,29.7637,2.2e-06
2014-05-01 00:00:00,2014-05-01 00:00:00,PRATE,surface,-105.938,29.7637,1.5e-06
2014-05-01 00:00:00,2014-05-01 00:00:00,PRATE,surface,-105,29.7637,2.2e-06
2014-05-01 00:00:00,2014-05-01 00:00:00,PRATE,surface,-104.063,29.7637,2.1e-06
2014-05-01 00:00:00,2014-05-01 00:00:00,PRATE,surface,-103.125,29.7637,4e-07
2014-05-01 00:00:00,2014-05-01 00:00:00,PRATE,surface,-102.188,29.7637,3e-07
2014-05-01 00:00:00,2014-05-01 00:00:00,PRATE,surface,-101.25,29.7637,1.4e-06
2014-05-01 00:00:00,2014-05-01 00:00:00,PRATE,surface,-100.313,29.7637,1.41e-05
2014-05-01 00:00:00,2014-05-01 00:00:00,PRATE,surface,-99.3754,29.7637,5.4e-05
2014-05-01 00:00:00,2014-05-01 00:00:00,PRATE,surface,-98.4379,29.7637,8.12e-05
2014-05-01 00:00:00,2014-05-01 00:00:00,PRATE,surface,-97.5004,29.7637,6.58e-05
2014-05-01 00:00:00,2014-05-01 00:00:00,PRATE,surface,-96.5629,29.7637,4.16e-05
2014-05-01 00:00:00,2014-05-01 00:00:00,PRATE,surface,-95.6254,29.7637,3.34e-05
2014-05-01 00:00:00,2014-05-01 00:00:00,PRATE,surface,-94.6879,29.7637,2.28e-05
2014-05-01 00:00:00,2014-05-01 00:00:00,PRATE,surface,-93.7504,29.7637,1.37e-05
2014-05-01 00:00:00,2014-05-01 00:00:00,PRATE,surface,-92.8129,29.7637,1.79e-05
2014-05-01 00:00:00,2014-05-01 00:00:00,PRATE,surface,-107.813,30.7085,1.5e-06
2014-05-01 00:00:00,2014-05-01 00:00:00,PRATE,surface,-106.875,30.7085,1.4e-06
2014-05-01 00:00:00,2014-05-01 00:00:00,PRATE,surface,-105.938,30.7085,1.2e-06
2014-05-01 00:00:00,2014-05-01 00:00:00,PRATE,surface,-105,30.7085,1.9e-06
2014-05-01 00:00:00,2014-05-01 00:00:00,PRATE,surface,-104.063,30.7085,7e-07
2014-05-01 00:00:00,2014-05-01 00:00:00,PRATE,surface,-103.125,30.7085,3e-07
2014-05-01 00:00:00,2014-05-01 00:00:00,PRATE,surface,-102.188,30.7085,1e-06
2014-05-01 00:00:00,2014-05-01 00:00:00,PRATE,surface,-101.25,30.7085,7.8e-06
2014-05-01 00:00:00,2014-05-01 00:00:00,PRATE,surface,-100.313,30.7085,2.05e-05
2014-05-01 00:00:00,2014-05-01 00:00:00,PRATE,surface,-99.3754,30.7085,3.47e-05
2014-05-01 00:00:00,2014-05-01 00:00:00,PRATE,surface,-98.4379,30.7085,4.25e-05
2014-05-01 00:00:00,2014-05-01 00:00:00,PRATE,surface,-97.5004,30.7085,3.67e-05
2014-05-01 00:00:00,2014-05-01 00:00:00,PRATE,surface,-96.5629,30.7085,2.66e-05
2014-05-01 00:00:00,2014-05-01 00:00:00,PRATE,surface,-95.6254,30.7085,2.14e-05
2014-05-01 00:00:00,2014-05-01 00:00:00,PRATE,surface,-94.6879,30.7085,1.54e-05
2014-05-01 00:00:00,2014-05-01 00:00:00,PRATE,surface,-93.7504,30.7085,7.2e-06
2014-05-01 00:00:00,2014-05-01 00:00:00,PRATE,surface,-92.8129,30.7085,7.1e-06
2014-05-01 00:00:00,2014-05-01 00:00:00,PRATE,surface,-107.813,31.6534,6e-07
2014-05-01 00:00:00,2014-05-01 00:00:00,PRATE,surface,-106.875,31.6534,1.2e-06
2014-05-01 00:00:00,2014-05-01 00:00:00,PRATE,surface,-105.938,31.6534,1.9e-06
2014-05-01 00:00:00,2014-05-01 00:00:00,PRATE,surface,-105,31.6534,1e-06
2014-05-01 00:00:00,2014-05-01 00:00:00,PRATE,surface,-104.063,31.6534,1.8e-06
2014-05-01 00:00:00,2014-05-01 00:00:00,PRATE,surface,-103.125,31.6534,7e-07
2014-05-01 00:00:00,2014-05-01 00:00:00,PRATE,surface,-102.188,31.6534,2.8e-06
2014-05-01 00:00:00,2014-05-01 00:00:00,PRATE,surface,-101.25,31.6534,1.03e-05
2014-05-01 00:00:00,2014-05-01 00:00:00,PRATE,surface,-100.313,31.6534,1.72e-05
2014-05-01 00:00:00,2014-05-01 00:00:00,PRATE,surface,-99.3754,31.6534,1.65e-05
2014-05-01 00:00:00,2014-05-01 00:00:00,PRATE,surface,-98.4379,31.6534,1.92e-05
2014-05-01 00:00:00,2014-05-01 00:00:00,PRATE,surface,-97.5004,31.6534,2.35e-05
2014-05-01 00:00:00,2014-05-01 00:00:00,PRATE,surface,-96.5629,31.6534,2.03e-05
2014-05-01 00:00:00,2014-05-01 00:00:00,PRATE,surface,-95.6254,31.6534,1.25e-05
2014-05-01 00:00:00,2014-05-01 00:00:00,PRATE,surface,-94.6879,31.6534,9.4e-06
2014-05-01 00:00:00,2014-05-01 00:00:00,PRATE,surface,-93.7504,31.6534,1.12e-05
2014-05-01 00:00:00,2014-05-01 00:00:00,PRATE,surface,-92.8129,31.6534,1.24e-05
2014-05-01 00:00:00,2014-05-01 00:00:00,PRATE,surface,-107.813,32.5983,7e-06
2014-05-01 00:00:00,2014-05-01 00:00:00,PRATE,surface,-106.875,32.5983,6.6e-06
2014-05-01 00:00:00,2014-05-01 00:00:00,PRATE,surface,-105.938,32.5983,5.9e-06
2014-05-01 00:00:00,2014-05-01 00:00:00,PRATE,surface,-105,32.5983,4e-07
2014-05-01 00:00:00,2014-05-01 00:00:00,PRATE,surface,-104.063,32.5983,2e-07
2014-05-01 00:00:00,2014-05-01 00:00:00,PRATE,surface,-103.125,32.5983,1.1e-06
2014-05-01 00:00:00,2014-05-01 00:00:00,PRATE,surface,-102.188,32.5983,4e-06
2014-05-01 00:00:00,2014-05-01 00:00:00,PRATE,surface,-101.25,32.5983,8.5e-06
2014-05-01 00:00:00,2014-05-01 00:00:00,PRATE,surface,-100.313,32.5983,6.5e-06
2014-05-01 00:00:00,2014-05-01 00:00:00,PRATE,surface,-99.3754,32.5983,6.4e-06
2014-05-01 00:00:00,2014-05-01 00:00:00,PRATE,surface,-98.4379,32.5983,1.1e-05
2014-05-01 00:00:00,2014-05-01 00:00:00,PRATE,surface,-97.5004,32.5983,1.58e-05
2014-05-01 00:00:00,2014-05-01 00:00:00,PRATE,surface,-96.5629,32.5983,1.63e-05
2014-05-01 00:00:00,2014-05-01 00:00:00,PRATE,surface,-95.6254,32.5983,1.27e-05
2014-05-01 00:00:00,2014-05-01 00:00:00,PRATE,surface,-94.6879,32.5983,1.44e-05
2014-05-01 00:00:00,2014-05-01 00:00:00,PRATE,surface,-93.7504,32.5983,2.39e-05
2014-05-01 00:00:00,2014-05-01 00:00:00,PRATE,surface,-92.8129,32.5983,2.21e-05
2014-05-01 00:00:00,2014-05-01 00:00:00,PRATE,surface,-107.813,33.5432,2.42e-05
2014-05-01 00:00:00,2014-05-01 00:00:00,PRATE,surface,-106.875,33.5432,1.65e-05
2014-05-01 00:00:00,2014-05-01 00:00:00,PRATE,surface,-105.938,33.5432,1.16e-05
2014-05-01 00:00:00,2014-05-01 00:00:00,PRATE,surface,-105,33.5432,1.8e-06
2014-05-01 00:00:00,2014-05-01 00:00:00,PRATE,surface,-104.063,33.5432,2e-07
2014-05-01 00:00:00,2014-05-01 00:00:00,PRATE,surface,-103.125,33.5432,2e-07
2014-05-01 00:00:00,2014-05-01 00:00:00,PRATE,surface,-102.188,33.5432,1.5e-06
2014-05-01 00:00:00,2014-05-01 00:00:00,PRATE,surface,-101.25,33.5432,4.3e-06
2014-05-01 00:00:00,2014-05-01 00:00:00,PRATE,surface,-100.313,33.5432,2.8e-06
2014-05-01 00:00:00,2014-05-01 00:00:00,PRATE,surface,-99.3754,33.5432,3e-06
2014-05-01 00:00:00,2014-05-01 00:00:00,PRATE,surface,-98.4379,33.5432,8.4e-06
2014-05-01 00:00:00,2014-05-01 00:00:00,PRATE,surface,-97.5004,33.5432,1.48e-05
2014-05-01 00:00:00,2014-05-01 00:00:00,PRATE,surface,-96.5629,33.5432,1.59e-05
2014-05-01 00:00:00,2014-05-01 00:00:00,PRATE,surface,-95.6254,33.5432,1.34e-05
2014-05-01 00:00:00,2014-05-01 00:00:00,PRATE,surface,-94.6879,33.5432,1.81e-05
2014-05-01 00:00:00,2014-05-01 00:00:00,PRATE,surface,-93.7504,33.5432,2.94e-05
2014-05-01 00:00:00,2014-05-01 00:00:00,PRATE,surface,-92.8129,33.5432,2.96e-05
2014-05-01 00:00:00,2014-05-01 00:00:00,PRATE,surface,-107.813,34.4881,2.29e-05
2014-05-01 00:00:00,2014-05-01 00:00:00,PRATE,surface,-106.875,34.4881,1.09e-05
2014-05-01 00:00:00,2014-05-01 00:00:00,PRATE,surface,-105.938,34.4881,6.4e-06
2014-05-01 00:00:00,2014-05-01 00:00:00,PRATE,surface,-105,34.4881,8.9e-06
2014-05-01 00:00:00,2014-05-01 00:00:00,PRATE,surface,-104.063,34.4881,3.3e-06
2014-05-01 00:00:00,2014-05-01 00:00:00,PRATE,surface,-103.125,34.4881,1.4e-06
2014-05-01 00:00:00,2014-05-01 00:00:00,PRATE,surface,-102.188,34.4881,8e-07
2014-05-01 00:00:00,2014-05-01 00:00:00,PRATE,surface,-101.25,34.4881,7e-07
2014-05-01 00:00:00,2014-05-01 00:00:00,PRATE,surface,-100.313,34.4881,8e-07
2014-05-01 00:00:00,2014-05-01 00:00:00,PRATE,surface,-99.3754,34.4881,1.3e-06
2014-05-01 00:00:00,2014-05-01 00:00:00,PRATE,surface,-98.4379,34.4881,3.7e-06
2014-05-01 00:00:00,2014-05-01 00:00:00,PRATE,surface,-97.5004,34.4881,8.6e-06
2014-05-01 00:00:00,2014-05-01 00:00:00,PRATE,surface,-96.5629,34.4881,1.15e-05
2014-05-01 00:00:00,2014-05-01 00:00:00,PRATE,surface,-95.6254,34.4881,1.24e-05
2014-05-01 00:00:00,2014-05-01 00:00:00,PRATE,surface,-94.6879,34.4881,1.91e-05
2014-05-01 00:00:00,2014-05-01 00:00:00,PRATE,surface,-93.7504,34.4881,2.93e-05
2014-05-01 00:00:00,2014-05-01 00:00:00,PRATE,surface,-92.8129,34.4881,2.92e-05
2014-05-01 00:00:00,2014-05-01 00:00:00,PRATE,surface,-107.813,35.4329,1.03e-05
2014-05-01 00:00:00,2014-05-01 00:00:00,PRATE,surface,-106.875,35.4329,3.6e-06
2014-05-01 00:00:00,2014-05-01 00:00:00,PRATE,surface,-105.938,35.4329,4.3e-06
2014-05-01 00:00:00,2014-05-01 00:00:00,PRATE,surface,-105,35.4329,1.19e-05
2014-05-01 00:00:00,2014-05-01 00:00:00,PRATE,surface,-104.063,35.4329,1.4e-05
2014-05-01 00:00:00,2014-05-01 00:00:00,PRATE,surface,-103.125,35.4329,5.3e-06
2014-05-01 00:00:00,2014-05-01 00:00:00,PRATE,surface,-102.188,35.4329,1.3e-06
2014-05-01 00:00:00,2014-05-01 00:00:00,PRATE,surface,-101.25,35.4329,9e-07
2014-05-01 00:00:00,2014-05-01 00:00:00,PRATE,surface,-100.313,35.4329,1.8e-06
2014-05-01 00:00:00,2014-05-01 00:00:00,PRATE,surface,-99.3754,35.4329,1.6e-06
2014-05-01 00:00:00,2014-05-01 00:00:00,PRATE,surface,-98.4379,35.4329,3.5e-06
2014-05-01 00:00:00,2014-05-01 00:00:00,PRATE,surface,-97.5004,35.4329,6.4e-06
2014-05-01 00:00:00,2014-05-01 00:00:00,PRATE,surface,-96.5629,35.4329,9.1e-06
2014-05-01 00:00:00,2014-05-01 00:00:00,PRATE,surface,-95.6254,35.4329,1.35e-05
2014-05-01 00:00:00,2014-05-01 00:00:00,PRATE,surface,-94.6879,35.4329,1.9e-05
2014-05-01 00:00:00,2014-05-01 00:00:00,PRATE,surface,-93.7504,35.4329,2.02e-05
2014-05-01 00:00:00,2014-05-01 00:00:00,PRATE,surface,-92.8129,35.4329,1.45e-05
2014-05-01 00:00:00,2014-05-01 00:00:00,PRATE,surface,-107.813,36.3778,1.31e-05
2014-05-01 00:00:00,2014-05-01 00:00:00,PRATE,surface,-106.875,36.3778,2.14e-05
2014-05-01 00:00:00,2014-05-01 00:00:00,PRATE,surface,-105.938,36.3778,1.76e-05
2014-05-01 00:00:00,2014-05-01 00:00:00,PRATE,surface,-105,36.3778,2.18e-05
2014-05-01 00:00:00,2014-05-01 00:00:00,PRATE,surface,-104.063,36.3778,2.44e-05
2014-05-01 00:00:00,2014-05-01 00:00:00,PRATE,surface,-103.125,36.3778,1.72e-05
2014-05-01 00:00:00,2014-05-01 00:00:00,PRATE,surface,-102.188,36.3778,1.3e-05
2014-05-01 00:00:00,2014-05-01 00:00:00,PRATE,surface,-101.25,36.3778,1.1e-05
2014-05-01 00:00:00,2014-05-01 00:00:00,PRATE,surface,-100.313,36.3778,1.26e-05
2014-05-01 00:00:00,2014-05-01 00:00:00,PRATE,surface,-99.3754,36.3778,1.28e-05
2014-05-01 00:00:00,2014-05-01 00:00:00,PRATE,surface,-98.4379,36.3778,1.02e-05
2014-05-01 00:00:00,2014-05-01 00:00:00,PRATE,surface,-97.5004,36.3778,1.03e-05
2014-05-01 00:00:00,2014-05-01 00:00:00,PRATE,surface,-96.5629,36.3778,1.31e-05
2014-05-01 00:00:00,2014-05-01 00:00:00,PRATE,surface,-95.6254,36.3778,1.37e-05
2014-05-01 00:00:00,2014-05-01 00:00:00,PRATE,surface,-94.6879,36.3778,1.07e-05
2014-05-01 00:00:00,2014-05-01 00:00:00,PRATE,surface,-93.7504,36.3778,6.5e-06
2014-05-01 00:00:00,2014-05-01 00:00:00,PRATE,surface,-92.8129,36.3778,6.8e-06
