2012-11-06 00:00:00,2012-11-06 00:00:00,TMP,surface,-107.813,25.0393,303.137
2012-11-06 00:00:00,2012-11-06 00:00:00,TMP,surface,-106.875,25.0393,296.02
2012-11-06 00:00:00,2012-11-06 00:00:00,TMP,surface,-105.938,25.0393,291.393
2012-11-06 00:00:00,2012-11-06 00:00:00,TMP,surface,-105,25.0393,289.476
2012-11-06 00:00:00,2012-11-06 00:00:00,TMP,surface,-104.063,25.0393,293.642
2012-11-06 00:00:00,2012-11-06 00:00:00,TMP,surface,-103.125,25.0393,297.245
2012-11-06 00:00:00,2012-11-06 00:00:00,TMP,surface,-102.188,25.0393,296.225
2012-11-06 00:00:00,2012-11-06 00:00:00,TMP,surface,-101.25,25.0393,293.277
2012-11-06 00:00:00,2012-11-06 00:00:00,TMP,surface,-100.313,25.0393,293.844
2012-11-06 00:00:00,2012-11-06 00:00:00,TMP,surface,-99.3754,25.0393,298.125
2012-11-06 00:00:00,2012-11-06 00:00:00,TMP,surface,-98.4379,25.0393,302.183
2012-11-06 00:00:00,2012-11-06 00:00:00,TMP,surface,-97.5004,25.0393,302.801
2012-11-06 00:00:00,2012-11-06 00:00:00,TMP,surface,-96.5629,25.0393,302.98
2012-11-06 00:00:00,2012-11-06 00:00:00,TMP,surface,-95.6254,25.0393,303.236
2012-11-06 00:00:00,2012-11-06 00:00:00,TMP,surface,-94.6879,25.0393,303.521
2012-11-06 00:00:00,2012-11-06 00:00:00,TMP,surface,-93.7504,25.0393,303.543
2012-11-06 00:00:00,2012-11-06 00:00:00,TMP,surface,-92.8129,25.0393,303.527
2012-11-06 00:00:00,2012-11-06 00:00:00,TMP,surface,-107.813,25.9842,298.077
2012-11-06 00:00:00,2012-11-06 00:00:00,TMP,surface,-106.875,25.9842,292.337
2012-11-06 00:00:00,2012-11-06 00:00:00,TMP,surface,-105.938,25.9842,290.023
2012-11-06 00:00:00,2012-11-06 00:00:00,TMP,surface,-105,25.9842,291.517
2012-11-06 00:00:00,2012-11-06 00:00:00,TMP,surface,-104.063,25.9842,297.437
2012-11-06 00:00:00,2012-11-06 00:00:00,TMP,surface,-103.125,25.9842,299.658
2012-11-06 00:00:00,2012-11-06 00:00:00,TMP,surface,-102.188,25.9842,298.273
2012-11-06 00:00:00,2012-11-06 00:00:00,TMP,surface,-101.25,25.9842,296.634
2012-11-06 00:00:00,2012-11-06 00:00:00,TMP,surface,-100.313,25.9842,297.412
2012-11-06 00:00:00,2012-11-06 00:00:00,TMP,surface,-99.3754,25.9842,301.226
2012-11-06 00:00:00,2012-11-06 00:00:00,TMP,surface,-98.4379,25.9842,303.137
2012-11-06 00:00:00,2012-11-06 00:00:00,TMP,surface,-97.5004,25.9842,302.305
2012-11-06 00:00:00,2012-11-06 00:00:00,TMP,surface,-96.5629,25.9842,302.279
2012-11-06 00:00:00,2012-11-06 00:00:00,TMP,surface,-95.6254,25.9842,302.996
2012-11-06 00:00:00,2012-11-06 00:00:00,TMP,surface,-94.6879,25.9842,303.229
2012-11-06 00:00:00,2012-11-06 00:00:00,TMP,surface,-93.7504,25.9842,303.322
2012-11-06 00:00:00,2012-11-06 00:00:00,TMP,surface,-92.8129,25.9842,303.428
2012-11-06 00:00:00,2012-11-06 00:00:00,TMP,surface,-107.813,26.929,292.935
2012-11-06 00:00:00,2012-11-06 00:00:00,TMP,surface,-106.875,26.929,290.103
2012-11-06 00:00:00,2012-11-06 00:00:00,TMP,surface,-105.938,26.929,291.057
2012-11-06 00:00:00,2012-11-06 00:00:00,TMP,surface,-105,26.929,295.204
2012-11-06 00:00:00,2012-11-06 00:00:00,TMP,surface,-104.063,26.929,298.925
2012-11-06 00:00:00,2012-11-06 00:00:00,TMP,surface,-103.125,26.929,298.644
2012-11-06 00:00:00,2012-11-06 00:00:00,TMP,surface,-102.188,26.929,297.501
2012-11-06 00:00:00,2012-11-06 00:00:00,TMP,surface,-101.25,26.929,298.138
2012-11-06 00:00:00,2012-11-06 00:00:00,TMP,surface,-100.313,26.929,300.516
2012-11-06 00:00:00,2012-11-06 00:00:00,TMP,surface,-99.3754,26.929,302.461
2012-11-06 00:00:00,2012-11-06 00:00:00,TMP,surface,-98.4379,26.929,301.815
2012-11-06 00:00:00,2012-11-06 00:00:00,TMP,surface,-97.5004,26.929,300.394
2012-11-06 00:00:00,2012-11-06 00:00:00,TMP,surface,-96.5629,26.929,301.636
2012-11-06 00:00:00,2012-11-06 00:00:00,TMP,surface,-95.6254,26.929,302.874
2012-11-06 00:00:00,2012-11-06 00:00:00,TMP,surface,-94.6879,26.929,303.124
2012-11-06 00:00:00,2012-11-06 00:00:00,TMP,surface,-93.7504,26.929,303.124
2012-11-06 00:00:00,2012-11-06 00:00:00,TMP,surface,-92.8129,26.929,303.197
2012-11-06 00:00:00,2012-11-06 00:00:00,TMP,surface,-107.813,27.8739,291.271
2012-11-06 00:00:00,2012-11-06 00:00:00,TMP,surface,-106.875,27.8739,289.933
2012-11-06 00:00:00,2012-11-06 00:00:00,TMP,surface,-105.938,27.8739,293.223
2012-11-06 00:00:00,2012-11-06 00:00:00,TMP,surface,-105,27.8739,297.578
2012-11-06 00:00:00,2012-11-06 00:00:00,TMP,surface,-104.063,27.8739,298.292
2012-11-06 00:00:00,2012-11-06 00:00:00,TMP,surface,-103.125,27.8739,296.599
2012-11-06 00:00:00,2012-11-06 00:00:00,TMP,surface,-102.188,27.8739,296.167
2012-11-06 00:00:00,2012-11-06 00:00:00,TMP,surface,-101.25,27.8739,298.788
2012-11-06 00:00:00,2012-11-06 00:00:00,TMP,surface,-100.313,27.8739,301.341
2012-11-06 00:00:00,2012-11-06 00:00:00,TMP,surface,-99.3754,27.8739,301.62
2012-11-06 00:00:00,2012-11-06 00:00:00,TMP,surface,-98.4379,27.8739,300.865
2012-11-06 00:00:00,2012-11-06 00:00:00,TMP,surface,-97.5004,27.8739,300.922
2012-11-06 00:00:00,2012-11-06 00:00:00,TMP,surface,-96.5629,27.8739,301.588
2012-11-06 00:00:00,2012-11-06 00:00:00,TMP,surface,-95.6254,27.8739,302.116
2012-11-06 00:00:00,2012-11-06 00:00:00,TMP,surface,-94.6879,27.8739,302.589
2012-11-06 00:00:00,2012-11-06 00:00:00,TMP,surface,-93.7504,27.8739,302.909
2012-11-06 00:00:00,2012-11-06 00:00:00,TMP,surface,-92.8129,27.8739,303.089
2012-11-06 00:00:00,2012-11-06 00:00:00,TMP,surface,-107.813,28.8188,290.557
2012-11-06 00:00:00,2012-11-06 00:00:00,TMP,surface,-106.875,28.8188,291.322
2012-11-06 00:00:00,2012-11-06 00:00:00,TMP,surface,-105.938,28.8188,295.722
2012-11-06 00:00:00,2012-11-06 00:00:00,TMP,surface,-105,28.8188,298.791
2012-11-06 00:00:00,2012-11-06 00:00:00,TMP,surface,-104.063,28.8188,297.562
2012-11-06 00:00:00,2012-11-06 00:00:00,TMP,surface,-103.125,28.8188,296.151
2012-11-06 00:00:00,2012-11-06 00:00:00,TMP,surface,-102.188,28.8188,296.394
2012-11-06 00:00:00,2012-11-06 00:00:00,TMP,surface,-101.25,28.8188,298.986
2012-11-06 00:00:00,2012-11-06 00:00:00,TMP,surface,-100.313,28.8188,300.557
2012-11-06 00:00:00,2012-11-06 00:00:00,TMP,surface,-99.3754,28.8188,300.333
2012-11-06 00:00:00,2012-11-06 00:00:00,TMP,surface,-98.4379,28.8188,299.917
2012-11-06 00:00:00,2012-11-06 00:00:00,TMP,surface,-97.5004,28.8188,300.189
2012-11-06 00:00:00,2012-11-06 00:00:00,TMP,surface,-96.5629,28.8188,300.778
2012-11-06 00:00:00,2012-11-06 00:00:00,TMP,surface,-95.6254,28.8188,301.025
2012-11-06 00:00:00,2012-11-06 00:00:00,TMP,surface,-94.6879,28.8188,301.14
2012-11-06 00:00:00,2012-11-06 00:00:00,TMP,surface,-93.7504,28.8188,301.789
2012-11-06 00:00:00,2012-11-06 00:00:00,TMP,surface,-92.8129,28.8188,302.001
2012-11-06 00:00:00,2012-11-06 00:00:00,TMP,surface,-107.813,29.7637,293.994
2012-11-06 00:00:00,2012-11-06 00:00:00,TMP,surface,-106.875,29.7637,294.769
2012-11-06 00:00:00,2012-11-06 00:00:00,TMP,surface,-105.938,29.7637,297.287
2012-11-06 00:00:00,2012-11-06 00:00:00,TMP,surface,-105,29.7637,298.269
2012-11-06 00:00:00,2012-11-06 00:00:00,TMP,surface,-104.063,29.7637,297.61
2012-11-06 00:00:00,2012-11-06 00:00:00,TMP,surface,-103.125,29.7637,297.421
2012-11-06 00:00:00,2012-11-06 00:00:00,TMP,surface,-102.188,29.7637,298.455
2012-11-06 00:00:00,2012-11-06 00:00:00,TMP,surface,-101.25,29.7637,299.322
2012-11-06 00:00:00,2012-11-06 00:00:00,TMP,surface,-100.313,29.7637,299.012
2012-11-06 00:00:00,2012-11-06 00:00:00,TMP,surface,-99.3754,29.7637,298.413
2012-11-06 00:00:00,2012-11-06 00:00:00,TMP,surface,-98.4379,29.7637,298.756
2012-11-06 00:00:00,2012-11-06 00:00:00,TMP,surface,-97.5004,29.7637,299.857
2012-11-06 00:00:00,2012-11-06 00:00:00,TMP,surface,-96.5629,29.7637,300.813
2012-11-06 00:00:00,2012-11-06 00:00:00,TMP,surface,-95.6254,29.7637,301.351
2012-11-06 00:00:00,2012-11-06 00:00:00,TMP,surface,-94.6879,29.7637,301.309
2012-11-06 00:00:00,2012-11-06 00:00:00,TMP,surface,-93.7504,29.7637,300.871
2012-11-06 00:00:00,2012-11-06 00:00:00,TMP,surface,-92.8129,29.7637,301.533
2012-11-06 00:00:00,2012-11-06 00:00:00,TMP,surface,-107.813,30.7085,297.834
2012-11-06 00:00:00,2012-11-06 00:00:00,TMP,surface,-106.875,30.7085,298.823
2012-11-06 00:00:00,2012-11-06 00:00:00,TMP,surface,-105.938,30.7085,298.516
2012-11-06 00:00:00,2012-11-06 00:00:00,TMP,surface,-105,30.7085,297.796
2012-11-06 00:00:00,2012-11-06 00:00:00,TMP,surface,-104.063,30.7085,297.14
2012-11-06 00:00:00,2012-11-06 00:00:00,TMP,surface,-103.125,30.7085,298.173
2012-11-06 00:00:00,2012-11-06 00:00:00,TMP,surface,-102.188,30.7085,298.9
2012-11-06 00:00:00,2012-11-06 00:00:00,TMP,surface,-101.25,30.7085,298.513
2012-11-06 00:00:00,2012-11-06 00:00:00,TMP,surface,-100.313,30.7085,297.722
2012-11-06 00:00:00,2012-11-06 00:00:00,TMP,surface,-99.3754,30.7085,297.581
2012-11-06 00:00:00,2012-11-06 00:00:00,TMP,surface,-98.4379,30.7085,298.465
2012-11-06 00:00:00,2012-11-06 00:00:00,TMP,surface,-97.5004,30.7085,299.949
2012-11-06 00:00:00,2012-11-06 00:00:00,TMP,surface,-96.5629,30.7085,300.858
2012-11-06 00:00:00,2012-11-06 00:00:00,TMP,surface,-95.6254,30.7085,300.865
2012-11-06 00:00:00,2012-11-06 00:00:00,TMP,surface,-94.6879,30.7085,300.865
2012-11-06 00:00:00,2012-11-06 00:00:00,TMP,surface,-93.7504,30.7085,301.082
2012-11-06 00:00:00,2012-11-06 00:00:00,TMP,surface,-92.8129,30.7085,300.929
2012-11-06 00:00:00,2012-11-06 00:00:00,TMP,surface,-107.813,31.6534,299.373
2012-11-06 00:00:00,2012-11-06 00:00:00,TMP,surface,-106.875,31.6534,299.521
2012-11-06 00:00:00,2012-11-06 00:00:00,TMP,surface,-105.938,31.6534,298.365
2012-11-06 00:00:00,2012-11-06 00:00:00,TMP,surface,-105,31.6534,297.469
2012-11-06 00:00:00,2012-11-06 00:00:00,TMP,surface,-104.063,31.6534,297.649
2012-11-06 00:00:00,2012-11-06 00:00:00,TMP,surface,-103.125,31.6534,298.429
2012-11-06 00:00:00,2012-11-06 00:00:00,TMP,surface,-102.188,31.6534,298.471
2012-11-06 00:00:00,2012-11-06 00:00:00,TMP,surface,-101.25,31.6534,297.773
2012-11-06 00:00:00,2012-11-06 00:00:00,TMP,surface,-100.313,31.6534,297.322
2012-11-06 00:00:00,2012-11-06 00:00:00,TMP,surface,-99.3754,31.6534,297.799
2012-11-06 00:00:00,2012-11-06 00:00:00,TMP,surface,-98.4379,31.6534,299.005
2012-11-06 00:00:00,2012-11-06 00:00:00,TMP,surface,-97.5004,31.6534,300.305
2012-11-06 00:00:00,2012-11-06 00:00:00,TMP,surface,-96.5629,31.6534,300.913
2012-11-06 00:00:00,2012-11-06 00:00:00,TMP,surface,-95.6254,31.6534,300.785
2012-11-06 00:00:00,2012-11-06 00:00:00,TMP,surface,-94.6879,31.6534,300.513
2012-11-06 00:00:00,2012-11-06 00:00:00,TMP,surface,-93.7504,31.6534,300.397
2012-11-06 00:00:00,2012-11-06 00:00:00,TMP,surface,-92.8129,31.6534,300.647
2012-11-06 00:00:00,2012-11-06 00:00:00,TMP,surface,-107.813,32.5983,295.943
2012-11-06 00:00:00,2012-11-06 00:00:00,TMP,surface,-106.875,32.5983,296.276
2012-11-06 00:00:00,2012-11-06 00:00:00,TMP,surface,-105.938,32.5983,296.391
2012-11-06 00:00:00,2012-11-06 00:00:00,TMP,surface,-105,32.5983,296.362
2012-11-06 00:00:00,2012-11-06 00:00:00,TMP,surface,-104.063,32.5983,297.252
2012-11-06 00:00:00,2012-11-06 00:00:00,TMP,surface,-103.125,32.5983,297.921
2012-11-06 00:00:00,2012-11-06 00:00:00,TMP,surface,-102.188,32.5983,297.527
2012-11-06 00:00:00,2012-11-06 00:00:00,TMP,surface,-101.25,32.5983,297.146
2012-11-06 00:00:00,2012-11-06 00:00:00,TMP,surface,-100.313,32.5983,297.773
2012-11-06 00:00:00,2012-11-06 00:00:00,TMP,surface,-99.3754,32.5983,299.002
2012-11-06 00:00:00,2012-11-06 00:00:00,TMP,surface,-98.4379,32.5983,299.873
2012-11-06 00:00:00,2012-11-06 00:00:00,TMP,surface,-97.5004,32.5983,300.285
2012-11-06 00:00:00,2012-11-06 00:00:00,TMP,surface,-96.5629,32.5983,300.525
2012-11-06 00:00:00,2012-11-06 00:00:00,TMP,surface,-95.6254,32.5983,300.621
2012-11-06 00:00:00,2012-11-06 00:00:00,TMP,surface,-94.6879,32.5983,300.532
2012-11-06 00:00:00,2012-11-06 00:00:00,TMP,surface,-93.7504,32.5983,300.429
2012-11-06 00:00:00,2012-11-06 00:00:00,TMP,surface,-92.8129,32.5983,300.727
2012-11-06 00:00:00,2012-11-06 00:00:00,TMP,surface,-107.813,33.5432,291.633
2012-11-06 00:00:00,2012-11-06 00:00:00,TMP,surface,-106.875,33.5432,292.932
2012-11-06 00:00:00,2012-11-06 00:00:00,TMP,surface,-105.938,33.5432,293.962
2012-11-06 00:00:00,2012-11-06 00:00:00,TMP,surface,-105,33.5432,295.178
2012-11-06 00:00:00,2012-11-06 00:00:00,TMP,surface,-104.063,33.5432,296.932
2012-11-06 00:00:00,2012-11-06 00:00:00,TMP,surface,-103.125,33.5432,297.028
2012-11-06 00:00:00,2012-11-06 00:00:00,TMP,surface,-102.188,33.5432,296.497
2012-11-06 00:00:00,2012-11-06 00:00:00,TMP,surface,-101.25,33.5432,296.823
2012-11-06 00:00:00,2012-11-06 00:00:00,TMP,surface,-100.313,33.5432,298.109
2012-11-06 00:00:00,2012-11-06 00:00:00,TMP,surface,-99.3754,33.5432,299.521
2012-11-06 00:00:00,2012-11-06 00:00:00,TMP,surface,-98.4379,33.5432,299.876
2012-11-06 00:00:00,2012-11-06 00:00:00,TMP,surface,-97.5004,33.5432,299.735
2012-11-06 00:00:00,2012-11-06 00:00:00,TMP,surface,-96.5629,33.5432,299.796
2012-11-06 00:00:00,2012-11-06 00:00:00,TMP,surface,-95.6254,33.5432,299.901
2012-11-06 00:00:00,2012-11-06 00:00:00,TMP,surface,-94.6879,33.5432,299.969
2012-11-06 00:00:00,2012-11-06 00:00:00,TMP,surface,-93.7504,33.5432,300.023
2012-11-06 00:00:00,2012-11-06 00:00:00,TMP,surface,-92.8129,33.5432,300.221
2012-11-06 00:00:00,2012-11-06 00:00:00,TMP,surface,-107.813,34.4881,290.737
2012-11-06 00:00:00,2012-11-06 00:00:00,TMP,surface,-106.875,34.4881,292.154
2012-11-06 00:00:00,2012-11-06 00:00:00,TMP,surface,-105.938,34.4881,293.159
2012-11-06 00:00:00,2012-11-06 00:00:00,TMP,surface,-105,34.4881,294.673
2012-11-06 00:00:00,2012-11-06 00:00:00,TMP,surface,-104.063,34.4881,295.991
2012-11-06 00:00:00,2012-11-06 00:00:00,TMP,surface,-103.125,34.4881,296.186
2012-11-06 00:00:00,2012-11-06 00:00:00,TMP,surface,-102.188,34.4881,296.305
2012-11-06 00:00:00,2012-11-06 00:00:00,TMP,surface,-101.25,34.4881,296.615
2012-11-06 00:00:00,2012-11-06 00:00:00,TMP,surface,-100.313,34.4881,297.636
2012-11-06 00:00:00,2012-11-06 00:00:00,TMP,surface,-99.3754,34.4881,298.647
2012-11-06 00:00:00,2012-11-06 00:00:00,TMP,surface,-98.4379,34.4881,299.162
2012-11-06 00:00:00,2012-11-06 00:00:00,TMP,surface,-97.5004,34.4881,299.101
2012-11-06 00:00:00,2012-11-06 00:00:00,TMP,surface,-96.5629,34.4881,299.207
2012-11-06 00:00:00,2012-11-06 00:00:00,TMP,surface,-95.6254,34.4881,299.588
2012-11-06 00:00:00,2012-11-06 00:00:00,TMP,surface,-94.6879,34.4881,299.37
2012-11-06 00:00:00,2012-11-06 00:00:00,TMP,surface,-93.7504,34.4881,298.954
2012-11-06 00:00:00,2012-11-06 00:00:00,TMP,surface,-92.8129,34.4881,299.313
2012-11-06 00:00:00,2012-11-06 00:00:00,TMP,surface,-107.813,35.4329,292.18
2012-11-06 00:00:00,2012-11-06 00:00:00,TMP,surface,-106.875,35.4329,291.917
2012-11-06 00:00:00,2012-11-06 00:00:00,TMP,surface,-105.938,35.4329,291.684
2012-11-06 00:00:00,2012-11-06 00:00:00,TMP,surface,-105,35.4329,292.301
2012-11-06 00:00:00,2012-11-06 00:00:00,TMP,surface,-104.063,35.4329,294.711
2012-11-06 00:00:00,2012-11-06 00:00:00,TMP,surface,-103.125,35.4329,296.221
2012-11-06 00:00:00,2012-11-06 00:00:00,TMP,surface,-102.188,35.4329,296.797
2012-11-06 00:00:00,2012-11-06 00:00:00,TMP,surface,-101.25,35.4329,297.143
2012-11-06 00:00:00,2012-11-06 00:00:00,TMP,surface,-100.313,35.4329,297.335
2012-11-06 00:00:00,2012-11-06 00:00:00,TMP,surface,-99.3754,35.4329,297.841
2012-11-06 00:00:00,2012-11-06 00:00:00,TMP,surface,-98.4379,35.4329,298.234
2012-11-06 00:00:00,2012-11-06 00:00:00,TMP,surface,-97.5004,35.4329,298.445
2012-11-06 00:00:00,2012-11-06 00:00:00,TMP,surface,-96.5629,35.4329,298.89
2012-11-06 00:00:00,2012-11-06 00:00:00,TMP,surface,-95.6254,35.4329,299.309
2012-11-06 00:00:00,2012-11-06 00:00:00,TMP,surface,-94.6879,35.4329,298.989
2012-11-06 00:00:00,2012-11-06 00:00:00,TMP,surface,-93.7504,35.4329,298.17
2012-11-06 00:00:00,2012-11-06 00:00:00,TMP,surface,-92.8129,35.4329,297.818
2012-11-06 00:00:00,2012-11-06 00:00:00,TMP,surface,-107.813,36.3778,292.001
2012-11-06 00:00:00,2012-11-06 00:00:00,TMP,surface,-106.875,36.3778,289.258
2012-11-06 00:00:00,2012-11-06 00:00:00,TMP,surface,-105.938,36.3778,289.044
2012-11-06 00:00:00,2012-11-06 00:00:00,TMP,surface,-105,36.3778,289.668
2012-11-06 00:00:00,2012-11-06 00:00:00,TMP,surface,-104.063,36.3778,292.618
2012-11-06 00:00:00,2012-11-06 00:00:00,TMP,surface,-103.125,36.3778,294.929
2012-11-06 00:00:00,2012-11-06 00:00:00,TMP,surface,-102.188,36.3778,296.257
2012-11-06 00:00:00,2012-11-06 00:00:00,TMP,surface,-101.25,36.3778,296.778
2012-11-06 00:00:00,2012-11-06 00:00:00,TMP,surface,-100.313,36.3778,296.945
2012-11-06 00:00:00,2012-11-06 00:00:00,TMP,surface,-99.3754,36.3778,297.044
2012-11-06 00:00:00,2012-11-06 00:00:00,TMP,surface,-98.4379,36.3778,297.29
2012-11-06 00:00:00,2012-11-06 00:00:00,TMP,surface,-97.5004,36.3778,297.421
2012-11-06 00:00:00,2012-11-06 00:00:00,TMP,surface,-96.5629,36.3778,297.457
2012-11-06 00:00:00,2012-11-06 00:00:00,TMP,surface,-95.6254,36.3778,297.661
2012-11-06 00:00:00,2012-11-06 00:00:00,TMP,surface,-94.6879,36.3778,297.661
2012-11-06 00:00:00,2012-11-06 00:00:00,TMP,surface,-93.7504,36.3778,297.066
2012-11-06 00:00:00,2012-11-06 00:00:00,TMP,surface,-92.8129,36.3778,296.714
2012-11-06 00:00:00,2012-11-06 00:00:00,PRATE,surface,-107.813,25.0393,3.6e-06
2012-11-06 00:00:00,2012-11-06 00:00:00,PRATE,surface,-106.875,25.0393,6.61e-05
2012-11-06 00:00:00,2012-11-06 00:00:00,PRATE,surface,-105.938,25.0393,0.000133
2012-11-06 00:00:00,2012-11-06 00:00:00,PRATE,surface,-105,25.0393,9.96e-05
2012-11-06 00:00:00,2012-11-06 00:00:00,PRATE,surface,-104.063,25.0393,4.85e-05
2012-11-06 00:00:00,2012-11-06 00:00:00,PRATE,surface,-103.125,25.0393,4.8e-06
2012-11-06 00:00:00,2012-11-06 00:00:00,PRATE,surface,-102.188,25.0393,1.22e-05
2012-11-06 00:00:00,2012-11-06 00:00:00,PRATE,surface,-101.25,25.0393,4.31e-05
2012-11-06 00:00:00,2012-11-06 00:00:00,PRATE,surface,-100.313,25.0393,9.11e-05
2012-11-06 00:00:00,2012-11-06 00:00:00,PRATE,surface,-99.3754,25.0393,5.92e-05
2012-11-06 00:00:00,2012-11-06 00:00:00,PRATE,surface,-98.4379,25.0393,3.06e-05
2012-11-06 00:00:00,2012-11-06 00:00:00,PRATE,surface,-97.5004,25.0393,7.12e-05
2012-11-06 00:00:00,2012-11-06 00:00:00,PRATE,surface,-96.5629,25.0393,6.04e-05
2012-11-06 00:00:00,2012-11-06 00:00:00,PRATE,surface,-95.6254,25.0393,5.18e-05
2012-11-06 00:00:00,2012-11-06 00:00:00,PRATE,surface,-94.6879,25.0393,3.85e-05
2012-11-06 00:00:00,2012-11-06 00:00:00,PRATE,surface,-93.7504,25.0393,7.78e-05
2012-11-06 00:00:00,2012-11-06 00:00:00,PRATE,surface,-92.8129,25.0393,0.0001103
2012-11-06 00:00:00,2012-11-06 00:00:00,PRATE,surface,-107.813,25.9842,3.22e-05
2012-11-06 00:00:00,2012-11-06 00:00:00,PRATE,surface,-106.875,25.9842,0.000102
2012-11-06 00:00:00,2012-11-06 00:00:00,PRATE,surface,-105.938,25.9842,9.86e-05
2012-11-06 00:00:00,2012-11-06 00:00:00,PRATE,surface,-105,25.9842,7.92e-05
2012-11-06 00:00:00,2012-11-06 00:00:00,PRATE,surface,-104.063,25.9842,1.47e-05
2012-11-06 00:00:00,2012-11-06 00:00:00,PRATE,surface,-103.125,25.9842,5.8e-06
2012-11-06 00:00:00,2012-11-06 00:00:00,PRATE,surface,-102.188,25.9842,6.9e-06
2012-11-06 00:00:00,2012-11-06 00:00:00,PRATE,surface,-101.25,25.9842,3.33e-05
2012-11-06 00:00:00,2012-11-06 00:00:00,PRATE,surface,-100.313,25.9842,7.68e-05
2012-11-06 00:00:00,2012-11-06 00:00:00,PRATE,surface,-99.3754,25.9842,3.47e-05
2012-11-06 00:00:00,2012-11-06 00:00:00,PRATE,surface,-98.4379,25.9842,4.17e-05
2012-11-06 00:00:00,2012-11-06 00:00:00,PRATE,surface,-97.5004,25.9842,6.88e-05
2012-11-06 00:00:00,2012-11-06 00:00:00,PRATE,surface,-96.5629,25.9842,7.95e-05
2012-11-06 00:00:00,2012-11-06 00:00:00,PRATE,surface,-95.6254,25.9842,0.0001139
2012-11-06 00:00:00,2012-11-06 00:00:00,PRATE,surface,-94.6879,25.9842,7.18e-05
2012-11-06 00:00:00,2012-11-06 00:00:00,PRATE,surface,-93.7504,25.9842,8.71e-05
2012-11-06 00:00:00,2012-11-06 00:00:00,PRATE,surface,-92.8129,25.9842,8.24e-05
2012-11-06 00:00:00,2012-11-06 00:00:00,PRATE,surface,-107.813,26.929,8.98e-05
2012-11-06 00:00:00,2012-11-06 00:00:00,PRATE,surface,-106.875,26.929,8.18e-05
2012-11-06 00:00:00,2012-11-06 00:00:00,PRATE,surface,-105.938,26.929,8.66e-05
2012-11-06 00:00:00,2012-11-06 00:00:00,PRATE,surface,-105,26.929,5.82e-05
2012-11-06 00:00:00,2012-11-06 00:00:00,PRATE,surface,-104.063,26.929,2.06e-05
2012-11-06 00:00:00,2012-11-06 00:00:00,PRATE,surface,-103.125,26.929,1.76e-05
2012-11-06 00:00:00,2012-11-06 00:00:00,PRATE,surface,-102.188,26.929,1.73e-05
2012-11-06 00:00:00,2012-11-06 00:00:00,PRATE,surface,-101.25,26.929,6.38e-05
2012-11-06 00:00:00,2012-11-06 00:00:00,PRATE,surface,-100.313,26.929,7.07e-05
2012-11-06 00:00:00,2012-11-06 00:00:00,PRATE,surface,-99.3754,26.929,6.51e-05
2012-11-06 00:00:00,2012-11-06 00:00:00,PRATE,surface,-98.4379,26.929,0.0001004
2012-11-06 00:00:00,2012-11-06 00:00:00,PRATE,surface,-97.5004,26.929,0.0001033
2012-11-06 00:00:00,2012-11-06 00:00:00,PRATE,surface,-96.5629,26.929,0.0001233
2012-11-06 00:00:00,2012-11-06 00:00:00,PRATE,surface,-95.6254,26.929,0.0001107
2012-11-06 00:00:00,2012-11-06 00:00:00,PRATE,surface,-94.6879,26.929,6.39e-05
2012-11-06 00:00:00,2012-11-06 00:00:00,PRATE,surface,-93.7504,26.929,6.54e-05
2012-11-06 00:00:00,2012-11-06 00:00:00,PRATE,surface,-92.8129,26.929,7.28e-05
2012-11-06 00:00:00,2012-11-06 00:00:00,PRATE,surface,-107.813,27.8739,9.46e-05
2012-11-06 00:00:00,2012-11-06 00:00:00,PRATE,surface,-106.875,27.8739,5.43e-05
2012-11-06 00:00:00,2012-11-06 00:00:00,PRATE,surface,-105.938,27.8739,3.25e-05
2012-11-06 00:00:00,2012-11-06 00:00:00,PRATE,surface,-105,27.8739,1.6e-05
2012-11-06 00:00:00,2012-11-06 00:00:00,PRATE,surface,-104.063,27.8739,3.6e-05
2012-11-06 00:00:00,2012-11-06 00:00:00,PRATE,surface,-103.125,27.8739,5.13e-05
2012-11-06 00:00:00,2012-11-06 00:00:00,PRATE,surface,-102.188,27.8739,8e-05
2012-11-06 00:00:00,2012-11-06 00:00:00,PRATE,surface,-101.25,27.8739,7.95e-05
2012-11-06 00:00:00,2012-11-06 00:00:00,PRATE,surface,-100.313,27.8739,6.01e-05
2012-11-06 00:00:00,2012-11-06 00:00:00,PRATE,surface,-99.3754,27.8739,8e-05
2012-11-06 00:00:00,2012-11-06 00:00:00,PRATE,surface,-98.4379,27.8739,9.35e-05
2012-11-06 00:00:00,2012-11-06 00:00:00,PRATE,surface,-97.5004,27.8739,9.38e-05
2012-11-06 00:00:00,2012-11-06 00:00:00,PRATE,surface,-96.5629,27.8739,8.15e-05
2012-11-06 00:00:00,2012-11-06 00:00:00,PRATE,surface,-95.6254,27.8739,5.75e-05
2012-11-06 00:00:00,2012-11-06 00:00:00,PRATE,surface,-94.6879,27.8739,5.18e-05
2012-11-06 00:00:00,2012-11-06 00:00:00,PRATE,surface,-93.7504,27.8739,5.38e-05
2012-11-06 00:00:00,2012-11-06 00:00:00,PRATE,surface,-92.8129,27.8739,4.3e-05
2012-11-06 00:00:00,2012-11-06 00:00:00,PRATE,surface,-107.813,28.8188,7.59e-05
2012-11-06 00:00:00,2012-11-06 00:00:00,PRATE,surface,-106.875,28.8188,4.14e-05
2012-11-06 00:00:00,2012-11-06 00:00:00,PRATE,surface,-105.938,28.8188,1.53e-05
2012-11-06 00:00:00,2012-11-06 00:00:00,PRATE,surface,-105,28.8188,1.38e-05
2012-11-06 00:00:00,2012-11-06 00:00:00,PRATE,surface,-104.063,28.8188,3.16e-05
2012-11-06 00:00:00,2012-11-06 00:00:00,PRATE,surface,-103.125,28.8188,4.26e-05
2012-11-06 00:00:00,2012-11-06 00:00:00,PRATE,surface,-102.188,28.8188,5.39e-05
2012-11-06 00:00:00,2012-11-06 00:00:00,PRATE,surface,-101.25,28.8188,5.23e-05
2012-11-06 00:00:00,2012-11-06 00:00:00,PRATE,surface,-100.313,28.8188,5.26e-05
2012-11-06 00:00:00,2012-11-06 00:00:00,PRATE,surface,-99.3754,28.8188,7.42e-05
2012-11-06 00:00:00,2012-11-06 00:00:00,PRATE,surface,-98.4379,28.8188,8.7e-05
2012-11-06 00:00:00,2012-11-06 00:00:00,PRATE,surface,-97.5004,28.8188,6.85e-05
2012-11-06 00:00:00,2012-11-06 00:00:00,PRATE,surface,-96.5629,28.8188,4.51e-05
2012-11-06 00:00:00,2012-11-06 00:00:00,PRATE,surface,-95.6254,28.8188,3.3e-05
2012-11-06 00:00:00,2012-11-06 00:00:00,PRATE,surface,-94.6879,28.8188,2.08e-05
2012-11-06 00:00:00,2012-11-06 00:00:00,PRATE,surface,-93.7504,28.8188,1.58e-05
2012-11-06 00:00:00,2012-11-06 00:00:00,PRATE,surface,-92.8129,28.8188,1.49e-05
2012-11-06 00:00:00,2012-11-06 00:00:00,PRATE,surface,-107.813,29.7637,2.12e-05
2012-11-06 00:00:00,2012-11-06 00:00:00,PRATE,surface,-106.875,29.7637,2.39e-05
2012-11-06 00:00:00,2012-11-06 00:00:00,PRATE,surface,-105.938,29.7637,2.34e-05
2012-11-06 00:00:00,2012-11-06 00:00:00,PRATE,surface,-105,29.7637,2.79e-05
2012-11-06 00:00:00,2012-11-06 00:00:00,PRATE,surface,-104.063,29.7637,2.78e-05
2012-11-06 00:00:00,2012-11-06 00:00:00,PRATE,surface,-103.125,29.7637,2.29e-05
2012-11-06 00:00:00,2012-11-06 00:00:00,PRATE,surface,-102.188,29.7637,2.77e-05
2012-11-06 00:00:00,2012-11-06 00:00:00,PRATE,surface,-101.25,29.7637,3.23e-05
2012-11-06 00:00:00,2012-11-06 00:00:00,PRATE,surface,-100.313,29.7637,5.2e-05
2012-11-06 00:00:00,2012-11-06 00:00:00,PRATE,surface,-99.3754,29.7637,7.25e-05
2012-11-06 00:00:00,2012-11-06 00:00:00,PRATE,surface,-98.4379,29.7637,6.84e-05
2012-11-06 00:00:00,2012-11-06 00:00:00,PRATE,surface,-97.5004,29.7637,4.72e-05
2012-11-06 00:00:00,2012-11-06 00:00:00,PRATE,surface,-96.5629,29.7637,3.15e-05
2012-11-06 00:00:00,2012-11-06 00:00:00,PRATE,surface,-95.6254,29.7637,2.44e-05
2012-11-06 00:00:00,2012-11-06 00:00:00,PRATE,surface,-94.6879,29.7637,2.07e-05
2012-11-06 00:00:00,2012-11-06 00:00:00,PRATE,surface,-93.7504,29.7637,2.1e-05
2012-11-06 00:00:00,2012-11-06 00:00:00,PRATE,surface,-92.8129,29.7637,1.53e-05
2012-11-06 00:00:00,2012-11-06 00:00:00,PRATE,surface,-107.813,30.7085,4.5e-06
2012-11-06 00:00:00,2012-11-06 00:00:00,PRATE,surface,-106.875,30.7085,9.5e-06
2012-11-06 00:00:00,2012-11-06 00:00:00,PRATE,surface,-105.938,30.7085,1.85e-05
2012-11-06 00:00:00,2012-11-06 00:00:00,PRATE,surface,-105,30.7085,3.31e-05
2012-11-06 00:00:00,2012-11-06 00:00:00,PRATE,surface,-104.063,30.7085,3.09e-05
2012-11-06 00:00:00,2012-11-06 00:00:00,PRATE,surface,-103.125,30.7085,1.83e-05
2012-11-06 00:00:00,2012-11-06 00:00:00,PRATE,surface,-102.188,30.7085,2.64e-05
2012-11-06 00:00:00,2012-11-06 00:00:00,PRATE,surface,-101.25,30.7085,4.38e-05
2012-11-06 00:00:00,2012-11-06 00:00:00,PRATE,surface,-100.313,30.7085,6.68e-05
2012-11-06 00:00:00,2012-11-06 00:00:00,PRATE,surface,-99.3754,30.7085,7.23e-05
2012-11-06 00:00:00,2012-11-06 00:00:00,PRATE,surface,-98.4379,30.7085,6.22e-05
2012-11-06 00:00:00,2012-11-06 00:00:00,PRATE,surface,-97.5004,30.7085,4.2e-05
2012-11-06 00:00:00,2012-11-06 00:00:00,PRATE,surface,-96.5629,30.7085,2.65e-05
2012-11-06 00:00:00,2012-11-06 00:00:00,PRATE,surface,-95.6254,30.7085,2.11e-05
2012-11-06 00:00:00,2012-11-06 00:00:00,PRATE,surface,-94.6879,30.7085,1.34e-05
2012-11-06 00:00:00,2012-11-06 00:00:00,PRATE,surface,-93.7504,30.7085,7.2e-06
2012-11-06 00:00:00,2012-11-06 00:00:00,PRATE,surface,-92.8129,30.7085,6.8e-06
2012-11-06 00:00:00,2012-11-06 00:00:00,PRATE,surface,-107.813,31.6534,5.1e-06
2012-11-06 00:00:00,2012-11-06 00:00:00,PRATE,surface,-106.875,31.6534,1e-05
2012-11-06 00:00:00,2012-11-06 00:00:00,PRATE,surface,-105.938,31.6534,1.93e-05
2012-11-06 00:00:00,2012-11-06 00:00:00,PRATE,surface,-105,31.6534,2.79e-05
2012-11-06 00:00:00,2012-11-06 00:00:00,PRATE,surface,-104.063,31.6534,2.8e-05
2012-11-06 00:00:00,2012-11-06 00:00:00,PRATE,surface,-103.125,31.6534,1.61e-05
2012-11-06 00:00:00,2012-11-06 00:00:00,PRATE,surface,-102.188,31.6534,2.65e-05
2012-11-06 00:00:00,2012-11-06 00:00:00,PRATE,surface,-101.25,31.6534,4.54e-05
2012-11-06 00:00:00,2012-11-06 00:00:00,PRATE,surface,-100.313,31.6534,6.51e-05
2012-11-06 00:00:00,2012-11-06 00:00:00,PRATE,surface,-99.3754,31.6534,6.01e-05
2012-11-06 00:00:00,2012-11-06 00:00:00,PRATE,surface,-98.4379,31.6534,4.81e-05
2012-11-06 00:00:00,2012-11-06 00:00:00,PRATE,surface,-97.5004,31.6534,3.52e-05
2012-11-06 00:00:00,2012-11-06 00:00:00,PRATE,surface,-96.5629,31.6534,1.97e-05
2012-11-06 00:00:00,2012-11-06 00:00:00,PRATE,surface,-95.6254,31.6534,1.32e-05
2012-11-06 00:00:00,2012-11-06 00:00:00,PRATE,surface,-94.6879,31.6534,1.75e-05
2012-11-06 00:00:00,2012-11-06 00:00:00,PRATE,surface,-93.7504,31.6534,1.81e-05
2012-11-06 00:00:00,2012-11-06 00:00:00,PRATE,surface,-92.8129,31.6534,1.3e-05
2012-11-06 00:00:00,2012-11-06 00:00:00,PRATE,surface,-107.813,32.5983,1.47e-05
2012-11-06 00:00:00,2012-11-06 00:00:00,PRATE,surface,-106.875,32.5983,2.36e-05
2012-11-06 00:00:00,2012-11-06 00:00:00,PRATE,surface,-105.938,32.5983,3.45e-05
2012-11-06 00:00:00,2012-11-06 00:00:00,PRATE,surface,-105,32.5983,3.39e-05
2012-11-06 00:00:00,2012-11-06 00:00:00,PRATE,surface,-104.063,32.5983,2.97e-05
2012-11-06 00:00:00,2012-11-06 00:00:00,PRATE,surface,-103.125,32.5983,1.99e-05
2012-11-06 00:00:00,2012-11-06 00:00:00,PRATE,surface,-102.188,32.5983,2.64e-05
2012-11-06 00:00:00,2012-11-06 00:00:00,PRATE,surface,-101.25,32.5983,5.36e-05
2012-11-06 00:00:00,2012-11-06 00:00:00,PRATE,surface,-100.313,32.5983,5.71e-05
2012-11-06 00:00:00,2012-11-06 00:00:00,PRATE,surface,-99.3754,32.5983,4.45e-05
2012-11-06 00:00:00,2012-11-06 00:00:00,PRATE,surface,-98.4379,32.5983,4.26e-05
2012-11-06 00:00:00,2012-11-06 00:00:00,PRATE,surface,-97.5004,32.5983,4.49e-05
2012-11-06 00:00:00,2012-11-06 00:00:00,PRATE,surface,-96.5629,32.5983,3.66e-05
2012-11-06 00:00:00,2012-11-06 00:00:00,PRATE,surface,-95.6254,32.5983,2.42e-05
2012-11-06 00:00:00,2012-11-06 00:00:00,PRATE,surface,-94.6879,32.5983,1.84e-05
2012-11-06 00:00:00,2012-11-06 00:00:00,PRATE,surface,-93.7504,32.5983,1.49e-05
2012-11-06 00:00:00,2012-11-06 00:00:00,PRATE,surface,-92.8129,32.5983,8.1e-06
2012-11-06 00:00:00,2012-11-06 00:00:00,PRATE,surface,-107.813,33.5432,5.51e-05
2012-11-06 00:00:00,2012-11-06 00:00:00,PRATE,surface,-106.875,33.5432,5.74e-05
2012-11-06 00:00:00,2012-11-06 00:00:00,PRATE,surface,-105.938,33.5432,4.72e-05
2012-11-06 00:00:00,2012-11-06 00:00:00,PRATE,surface,-105,33.5432,3.92e-05
2012-11-06 00:00:00,2012-11-06 00:00:00,PRATE,surface,-104.063,33.5432,3.21e-05
2012-11-06 00:00:00,2012-11-06 00:00:00,PRATE,surface,-103.125,33.5432,2.54e-05
2012-11-06 00:00:00,2012-11-06 00:00:00,PRATE,surface,-102.188,33.5432,2.53e-05
2012-11-06 00:00:00,2012-11-06 00:00:00,PRATE,surface,-101.25,33.5432,3.76e-05
2012-11-06 00:00:00,2012-11-06 00:00:00,PRATE,surface,-100.313,33.5432,3.9e-05
2012-11-06 00:00:00,2012-11-06 00:00:00,PRATE,surface,-99.3754,33.5432,3.2e-05
2012-11-06 00:00:00,2012-11-06 00:00:00,PRATE,surface,-98.4379,33.5432,3.58e-05
2012-11-06 00:00:00,2012-11-06 00:00:00,PRATE,surface,-97.5004,33.5432,4.16e-05
2012-11-06 00:00:00,2012-11-06 00:00:00,PRATE,surface,-96.5629,33.5432,3.91e-05
2012-11-06 00:00:00,2012-11-06 00:00:00,PRATE,surface,-95.6254,33.5432,3.25e-05
2012-11-06 00:00:00,2012-11-06 00:00:00,PRATE,surface,-94.6879,33.5432,2.45e-05
2012-11-06 00:00:00,2012-11-06 00:00:00,PRATE,surface,-93.7504,33.5432,1.63e-05
2012-11-06 00:00:00,2012-11-06 00:00:00,PRATE,surface,-92.8129,33.5432,8.9e-06
2012-11-06 00:00:00,2012-11-06 00:00:00,PRATE,surface,-107.813,34.4881,6.36e-05
2012-11-06 00:00:00,2012-11-06 00:00:00,PRATE,surface,-106.875,34.4881,4.91e-05
2012-11-06 00:00:00,2012-11-06 00:00:00,PRATE,surface,-105.938,34.4881,4.18e-05
2012-11-06 00:00:00,2012-11-06 00:00:00,PRATE,surface,-105,34.4881,4.55e-05
2012-11-06 00:00:00,2012-11-06 00:00:00,PRATE,surface,-104.063,34.4881,3.84e-05
2012-11-06 00:00:00,2012-11-06 00:00:00,PRATE,surface,-103.125,34.4881,3.52e-05
2012-11-06 00:00:00,2012-11-06 00:00:00,PRATE,surface,-102.188,34.4881,3.77e-05
2012-11-06 00:00:00,2012-11-06 00:00:00,PRATE,surface,-101.25,34.4881,4.23e-05
2012-11-06 00:00:00,2012-11-06 00:00:00,PRATE,surface,-100.313,34.4881,3.71e-05
2012-11-06 00:00:00,2012-11-06 00:00:00,PRATE,surface,-99.3754,34.4881,3.06e-05
2012-11-06 00:00:00,2012-11-06 00:00:00,PRATE,surface,-98.4379,34.4881,3.38e-05
2012-11-06 00:00:00,2012-11-06 00:00:00,PRATE,surface,-97.5004,34.4881,3.79e-05
2012-11-06 00:00:00,2012-11-06 00:00:00,PRATE,surface,-96.5629,34.4881,3.36e-05
2012-11-06 00:00:00,2012-11-06 00:00:00,PRATE,surface,-95.6254,34.4881,2.48e-05
2012-11-06 00:00:00,2012-11-06 00:00:00,PRATE,surface,-94.6879,34.4881,1.93e-05
2012-11-06 00:00:00,2012-11-06 00:00:00,PRATE,surface,-93.7504,34.4881,1.62e-05
2012-11-06 00:00:00,2012-11-06 00:00:00,PRATE,surface,-92.8129,34.4881,8.6e-06
2012-11-06 00:00:00,2012-11-06 00:00:00,PRATE,surface,-107.813,35.4329,3.73e-05
2012-11-06 00:00:00,2012-11-06 00:00:00,PRATE,surface,-106.875,35.4329,3.51e-05
2012-11-06 00:00:00,2012-11-06 00:00:00,PRATE,surface,-105.938,35.4329,4.23e-05
2012-11-06 00:00:00,2012-11-06 00:00:00,PRATE,surface,-105,35.4329,5.82e-05
2012-11-06 00:00:00,2012-11-06 00:00:00,PRATE,surface,-104.063,35.4329,5.64e-05
2012-11-06 00:00:00,2012-11-06 00:00:00,PRATE,surface,-103.125,35.4329,4.39e-05
2012-11-06 00:00:00,2012-11-06 00:00:00,PRATE,surface,-102.188,35.4329,3.91e-05
2012-11-06 00:00:00,2012-11-06 00:00:00,PRATE,surface,-101.25,35.4329,3.38e-05
2012-11-06 00:00:00,2012-11-06 00:00:00,PRATE,surface,-100.313,35.4329,3.34e-05
2012-11-06 00:00:00,2012-11-06 00:00:00,PRATE,surface,-99.3754,35.4329,3.47e-05
2012-11-06 00:00:00,2012-11-06 00:00:00,PRATE,surface,-98.4379,35.4329,3.4e-05
2012-11-06 00:00:00,2012-11-06 00:00:00,PRATE,surface,-97.5004,35.4329,2.77e-05
2012-11-06 00:00:00,2012-11-06 00:00:00,PRATE,surface,-96.5629,35.4329,1.99e-05
2012-11-06 00:00:00,2012-11-06 00:00:00,PRATE,surface,-95.6254,35.4329,1.41e-05
2012-11-06 00:00:00,2012-11-06 00:00:00,PRATE,surface,-94.6879,35.4329,1.14e-05
2012-11-06 00:00:00,2012-11-06 00:00:00,PRATE,surface,-93.7504,35.4329,1.5e-05
2012-11-06 00:00:00,2012-11-06 00:00:00,PRATE,surface,-92.8129,35.4329,1.46e-05
2012-11-06 00:00:00,2012-11-06 00:00:00,PRATE,surface,-107.813,36.3778,3.47e-05
2012-11-06 00:00:00,2012-11-06 00:00:00,PRATE,surface,-106.875,36.3778,5.19e-05
2012-11-06 00:00:00,2012-11-06 00:00:00,PRATE,surface,-105.938,36.3778,6.29e-05
2012-11-06 00:00:00,2012-11-06 00:00:00,PRATE,surface,-105,36.3778,7.8e-05
2012-11-06 00:00:00,2012-11-06 00:00:00,PRATE,surface,-104.063,36.3778,6.67e-05
2012-11-06 00:00:00,2012-11-06 00:00:00,PRATE,surface,-103.125,36.3778,4.16e-05
2012-11-06 00:00:00,2012-11-06 00:00:00,PRATE,surface,-102.188,36.3778,3.47e-05
2012-11-06 00:00:00,2012-11-06 00:00:00,PRATE,surface,-101.25,36.3778,3.41e-05
2012-11-06 00:00:00,2012-11-06 00:00:00,PRATE,surface,-100.313,36.3778,2.68e-05
2012-11-06 00:00:00,2012-11-06 00:00:00,PRATE,surface,-99.3754,36.3778,2.59e-05
2012-11-06 00:00:00,2012-11-06 00:00:00,PRATE,surface,-98.4379,36.3778,3.02e-05
2012-11-06 00:00:00,2012-11-06 00:00:00,PRATE,surface,-97.5004,36.3778,3.35e-05
2012-11-06 00:00:00,2012-11-06 00:00:00,PRATE,surface,-96.5629,36.3778,3.62e-05
2012-11-06 00:00:00,2012-11-06 00:00:00,PRATE,surface,-95.6254,36.3778,3.42e-05
2012-11-06 00:00:00,2012-11-06 00:00:00,PRATE,surface,-94.6879,36.3778,2.91e-05
2012-11-06 00:00:00,2012-11-06 00:00:00,PRATE,surface,-93.7504,36.3778,3.3e-05
2012-11-06 00:00:00,2012-11-06 00:00:00,PRATE,surface,-92.8129,36.3778,3.32e-05
