2018-01-14 00:00:00,2018-01-14 00:00:00,TMP,surface,-107.813,25.0393,300.491
2018-01-14 00:00:00,2018-01-14 00:00:00,TMP,surface,-106.875,25.0393,293.365
2018-01-14 00:00:00,2018-01-14 00:00:00,TMP,surface,-105.938,25.0393,287.587
2018-01-14 00:00:00,2018-01-14 00:00:00,TMP,surface,-105,25.0393,284.595
2018-01-14 00:00:00,2018-01-14 00:00:00,TMP,surface,-104.063,25.0393,287.414
2018-01-14 00:00:00,2018-01-14 00:00:00,TMP,surface,-103.125,25.0393,290.125
2018-01-14 00:00:00,2018-01-14 00:00:00,TMP,surface,-102.188,25.0393,289.817
2018-01-14 00:00:00,2018-01-14 00:00:00,TMP,surface,-101.25,25.0393,287.742
2018-01-14 00:00:00,2018-01-14 00:00:00,TMP,surface,-100.313,25.0393,287.88
2018-01-14 00:00:00,2018-01-14 00:00:00,TMP,surface,-99.3754,25.0393,290.59
2018-01-14 00:00:00,2018-01-14 00:00:00,TMP,surface,-98.4379,25.0393,294.387
2018-01-14 00:00:00,2018-01-14 00:00:00,TMP,surface,-97.5004,25.0393,300.065
2018-01-14 00:00:00,2018-01-14 00:00:00,TMP,surface,-96.5629,25.0393,300.809
2018-01-14 00:00:00,2018-01-14 00:00:00,TMP,surface,-95.6254,25.0393,301.083
2018-01-14 00:00:00,2018-01-14 00:00:00,TMP,surface,-94.6879,25.0393,301.171
2018-01-14 00:00:00,2018-01-14 00:00:00,TMP,surface,-93.7504,25.0393,300.995
2018-01-14 00:00:00,2018-01-14 00:00:00,TMP,surface,-92.8129,25.0393,300.971
2018-01-14 00:00:00,2018-01-14 00:00:00,TMP,surface,-107.813,25.9842,294.435
2018-01-14 00:00:00,2018-01-14 00:00:00,TMP,surface,-106.875,25.9842,288.965
2018-01-14 00:00:00,2018-01-14 00:00:00,TMP,surface,-105.938,25.9842,285.545
2018-01-14 00:00:00,2018-01-14 00:00:00,TMP,surface,-105,25.9842,285.763
2018-01-14 00:00:00,2018-01-14 00:00:00,TMP,surface,-104.063,25.9842,289.571
2018-01-14 00:00:00,2018-01-14 00:00:00,TMP,surface,-103.125,25.9842,291.31
2018-01-14 00:00:00,2018-01-14 00:00:00,TMP,surface,-102.188,25.9842,290.726
2018-01-14 00:00:00,2018-01-14 00:00:00,TMP,surface,-101.25,25.9842,289.753
2018-01-14 00:00:00,2018-01-14 00:00:00,TMP,surface,-100.313,25.9842,289.502
2018-01-14 00:00:00,2018-01-14 00:00:00,TMP,surface,-99.3754,25.9842,292.904
2018-01-14 00:00:00,2018-01-14 00:00:00,TMP,surface,-98.4379,25.9842,294.993
2018-01-14 00:00:00,2018-01-14 00:00:00,TMP,surface,-97.5004,25.9842,296.184
2018-01-14 00:00:00,2018-01-14 00:00:00,TMP,surface,-96.5629,25.9842,300.224
2018-01-14 00:00:00,2018-01-14 00:00:00,TMP,surface,-95.6254,25.9842,300.785
2018-01-14 00:00:00,2018-01-14 00:00:00,TMP,surface,-94.6879,25.9842,300.873
2018-01-14 00:00:00,2018-01-14 00:00:00,TMP,surface,-93.7504,25.9842,300.795
2018-01-14 00:00:00,2018-01-14 00:00:00,TMP,surface,-92.8129,25.9842,300.795
2018-01-14 00:00:00,2018-01-14 00:00:00,TMP,surface,-107.813,26.929,290.248
2018-01-14 00:00:00,2018-01-14 00:00:00,TMP,surface,-106.875,26.929,285.91
2018-01-14 00:00:00,2018-01-14 00:00:00,TMP,surface,-105.938,26.929,286.051
2018-01-14 00:00:00,2018-01-14 00:00:00,TMP,surface,-105,26.929,288.536
2018-01-14 00:00:00,2018-01-14 00:00:00,TMP,surface,-104.063,26.929,290.617
2018-01-14 00:00:00,2018-01-14 00:00:00,TMP,surface,-103.125,26.929,290.285
2018-01-14 00:00:00,2018-01-14 00:00:00,TMP,surface,-102.188,26.929,289.774
2018-01-14 00:00:00,2018-01-14 00:00:00,TMP,surface,-101.25,26.929,290.443
2018-01-14 00:00:00,2018-01-14 00:00:00,TMP,surface,-100.313,26.929,291.829
2018-01-14 00:00:00,2018-01-14 00:00:00,TMP,surface,-99.3754,26.929,293.897
2018-01-14 00:00:00,2018-01-14 00:00:00,TMP,surface,-98.4379,26.929,294.126
2018-01-14 00:00:00,2018-01-14 00:00:00,TMP,surface,-97.5004,26.929,298.737
2018-01-14 00:00:00,2018-01-14 00:00:00,TMP,surface,-96.5629,26.929,299.606
2018-01-14 00:00:00,2018-01-14 00:00:00,TMP,surface,-95.6254,26.929,300.465
2018-01-14 00:00:00,2018-01-14 00:00:00,TMP,surface,-94.6879,26.929,300.595
2018-01-14 00:00:00,2018-01-14 00:00:00,TMP,surface,-93.7504,26.929,300.4
2018-01-14 00:00:00,2018-01-14 00:00:00,TMP,surface,-92.8129,26.929,300.32
2018-01-14 00:00:00,2018-01-14 00:00:00,TMP,surface,-107.813,27.8739,287.529
2018-01-14 00:00:00,2018-01-14 00:00:00,TMP,surface,-106.875,27.8739,285.141
2018-01-14 00:00:00,2018-01-14 00:00:00,TMP,surface,-105.938,27.8739,287.304
2018-01-14 00:00:00,2018-01-14 00:00:00,TMP,surface,-105,27.8739,289.878
2018-01-14 00:00:00,2018-01-14 00:00:00,TMP,surface,-104.063,27.8739,290.389
2018-01-14 00:00:00,2018-01-14 00:00:00,TMP,surface,-103.125,27.8739,289.133
2018-01-14 00:00:00,2018-01-14 00:00:00,TMP,surface,-102.188,27.8739,288.697
2018-01-14 00:00:00,2018-01-14 00:00:00,TMP,surface,-101.25,27.8739,290.381
2018-01-14 00:00:00,2018-01-14 00:00:00,TMP,surface,-100.313,27.8739,292.422
2018-01-14 00:00:00,2018-01-14 00:00:00,TMP,surface,-99.3754,27.8739,293.205
2018-01-14 00:00:00,2018-01-14 00:00:00,TMP,surface,-98.4379,27.8739,293.526
2018-01-14 00:00:00,2018-01-14 00:00:00,TMP,surface,-97.5004,27.8739,296.701
2018-01-14 00:00:00,2018-01-14 00:00:00,TMP,surface,-96.5629,27.8739,299.877
2018-01-14 00:00:00,2018-01-14 00:00:00,TMP,surface,-95.6254,27.8739,300.091
2018-01-14 00:00:00,2018-01-14 00:00:00,TMP,surface,-94.6879,27.8739,299.944
2018-01-14 00:00:00,2018-01-14 00:00:00,TMP,surface,-93.7504,27.8739,299.731
2018-01-14 00:00:00,2018-01-14 00:00:00,TMP,surface,-92.8129,27.8739,299.68
2018-01-14 00:00:00,2018-01-14 00:00:00,TMP,surface,-107.813,28.8188,285.949
2018-01-14 00:00:00,2018-01-14 00:00:00,TMP,surface,-106.875,28.8188,285.625
2018-01-14 00:00:00,2018-01-14 00:00:00,TMP,surface,-105.938,28.8188,288.457
2018-01-14 00:00:00,2018-01-14 00:00:00,TMP,surface,-105,28.8188,290.093
2018-01-14 00:00:00,2018-01-14 00:00:00,TMP,surface,-104.063,28.8188,289.355
2018-01-14 00:00:00,2018-01-14 00:00:00,TMP,surface,-103.125,28.8188,288.518
2018-01-14 00:00:00,2018-01-14 00:00:00,TMP,surface,-102.188,28.8188,288.846
2018-01-14 00:00:00,2018-01-14 00:00:00,TMP,surface,-101.25,28.8188,290.533
2018-01-14 00:00:00,2018-01-14 00:00:00,TMP,surface,-100.313,28.8188,291.681
2018-01-14 00:00:00,2018-01-14 00:00:00,TMP,surface,-99.3754,28.8188,291.67
2018-01-14 00:00:00,2018-01-14 00:00:00,TMP,surface,-98.4379,28.8188,291.765
2018-01-14 00:00:00,2018-01-14 00:00:00,TMP,surface,-97.5004,28.8188,292.648
2018-01-14 00:00:00,2018-01-14 00:00:00,TMP,surface,-96.5629,28.8188,293.947
2018-01-14 00:00:00,2018-01-14 00:00:00,TMP,surface,-95.6254,28.8188,296.501
2018-01-14 00:00:00,2018-01-14 00:00:00,TMP,surface,-94.6879,28.8188,299.371
2018-01-14 00:00:00,2018-01-14 00:00:00,TMP,surface,-93.7504,28.8188,299.307
2018-01-14 00:00:00,2018-01-14 00:00:00,TMP,surface,-92.8129,28.8188,299.381
2018-01-14 00:00:00,2018-01-14 00:00:00,TMP,surface,-107.813,29.7637,287.635
2018-01-14 00:00:00,2018-01-14 00:00:00,TMP,surface,-106.875,29.7637,287.955
2018-01-14 00:00:00,2018-01-14 00:00:00,TMP,surface,-105.938,29.7637,289.23
2018-01-14 00:00:00,2018-01-14 00:00:00,TMP,surface,-105,29.7637,289.349
2018-01-14 00:00:00,2018-01-14 00:00:00,TMP,surface,-104.063,29.7637,288.968
2018-01-14 00:00:00,2018-01-14 00:00:00,TMP,surface,-103.125,29.7637,289.237
2018-01-14 00:00:00,2018-01-14 00:00:00,TMP,surface,-102.188,29.7637,290.315
2018-01-14 00:00:00,2018-01-14 00:00:00,TMP,surface,-101.25,29.7637,291.013
2018-01-14 00:00:00,2018-01-14 00:00:00,TMP,surface,-100.313,29.7637,290.598
2018-01-14 00:00:00,2018-01-14 00:00:00,TMP,surface,-99.3754,29.7637,290.067
2018-01-14 00:00:00,2018-01-14 00:00:00,TMP,surface,-98.4379,29.7637,290.419
2018-01-14 00:00:00,2018-01-14 00:00:00,TMP,surface,-97.5004,29.7637,291.405
2018-01-14 00:00:00,2018-01-14 00:00:00,TMP,surface,-96.5629,29.7637,292.437
2018-01-14 00:00:00,2018-01-14 00:00:00,TMP,surface,-95.6254,29.7637,293.352
2018-01-14 00:00:00,2018-01-14 00:00:00,TMP,surface,-94.6879,29.7637,295.518
2018-01-14 00:00:00,2018-01-14 00:00:00,TMP,surface,-93.7504,29.7637,297.872
2018-01-14 00:00:00,2018-01-14 00:00:00,TMP,surface,-92.8129,29.7637,294.211
2018-01-14 00:00:00,2018-01-14 00:00:00,TMP,surface,-107.813,30.7085,289.824
2018-01-14 00:00:00,2018-01-14 00:00:00,TMP,surface,-106.875,30.7085,290.145
2018-01-14 00:00:00,2018-01-14 00:00:00,TMP,surface,-105.938,30.7085,289.693
2018-01-14 00:00:00,2018-01-14 00:00:00,TMP,surface,-105,30.7085,288.993
2018-01-14 00:00:00,2018-01-14 00:00:00,TMP,surface,-104.063,30.7085,288.198
2018-01-14 00:00:00,2018-01-14 00:00:00,TMP,surface,-103.125,30.7085,289.205
2018-01-14 00:00:00,2018-01-14 00:00:00,TMP,surface,-102.188,30.7085,290.4
2018-01-14 00:00:00,2018-01-14 00:00:00,TMP,surface,-101.25,30.7085,290.427
2018-01-14 00:00:00,2018-01-14 00:00:00,TMP,surface,-100.313,30.7085,290.001
2018-01-14 00:00:00,2018-01-14 00:00:00,TMP,surface,-99.3754,30.7085,289.813
2018-01-14 00:00:00,2018-01-14 00:00:00,TMP,surface,-98.4379,30.7085,290.205
2018-01-14 00:00:00,2018-01-14 00:00:00,TMP,surface,-97.5004,30.7085,291.017
2018-01-14 00:00:00,2018-01-14 00:00:00,TMP,surface,-96.5629,30.7085,291.777
2018-01-14 00:00:00,2018-01-14 00:00:00,TMP,surface,-95.6254,30.7085,292.224
2018-01-14 00:00:00,2018-01-14 00:00:00,TMP,surface,-94.6879,30.7085,292.435
2018-01-14 00:00:00,2018-01-14 00:00:00,TMP,surface,-93.7504,30.7085,292.459
2018-01-14 00:00:00,2018-01-14 00:00:00,TMP,surface,-92.8129,30.7085,292.299
2018-01-14 00:00:00,2018-01-14 00:00:00,TMP,surface,-107.813,31.6534,290.067
2018-01-14 00:00:00,2018-01-14 00:00:00,TMP,surface,-106.875,31.6534,290.062
2018-01-14 00:00:00,2018-01-14 00:00:00,TMP,surface,-105.938,31.6534,289.371
2018-01-14 00:00:00,2018-01-14 00:00:00,TMP,surface,-105,31.6534,288.726
2018-01-14 00:00:00,2018-01-14 00:00:00,TMP,surface,-104.063,31.6534,288.816
2018-01-14 00:00:00,2018-01-14 00:00:00,TMP,surface,-103.125,31.6534,289.467
2018-01-14 00:00:00,2018-01-14 00:00:00,TMP,surface,-102.188,31.6534,289.867
2018-01-14 00:00:00,2018-01-14 00:00:00,TMP,surface,-101.25,31.6534,289.856
2018-01-14 00:00:00,2018-01-14 00:00:00,TMP,surface,-100.313,31.6534,289.976
2018-01-14 00:00:00,2018-01-14 00:00:00,TMP,surface,-99.3754,31.6534,290.309
2018-01-14 00:00:00,2018-01-14 00:00:00,TMP,surface,-98.4379,31.6534,290.705
2018-01-14 00:00:00,2018-01-14 00:00:00,TMP,surface,-97.5004,31.6534,291.091
2018-01-14 00:00:00,2018-01-14 00:00:00,TMP,surface,-96.5629,31.6534,291.405
2018-01-14 00:00:00,2018-01-14 00:00:00,TMP,surface,-95.6254,31.6534,291.544
2018-01-14 00:00:00,2018-01-14 00:00:00,TMP,surface,-94.6879,31.6534,291.526
2018-01-14 00:00:00,2018-01-14 00:00:00,TMP,surface,-93.7504,31.6534,291.536
2018-01-14 00:00:00,2018-01-14 00:00:00,TMP,surface,-92.8129,31.6534,291.645
2018-01-14 00:00:00,2018-01-14 00:00:00,TMP,surface,-107.813,32.5983,287.638
2018-01-14 00:00:00,2018-01-14 00:00:00,TMP,surface,-106.875,32.5983,287.707
2018-01-14 00:00:00,2018-01-14 00:00:00,TMP,surface,-105.938,32.5983,287.685
2018-01-14 00:00:00,2018-01-14 00:00:00,TMP,surface,-105,32.5983,287.817
2018-01-14 00:00:00,2018-01-14 00:00:00,TMP,surface,-104.063,32.5983,288.595
2018-01-14 00:00:00,2018-01-14 00:00:00,TMP,surface,-103.125,32.5983,289.169
2018-01-14 00:00:00,2018-01-14 00:00:00,TMP,surface,-102.188,32.5983,289.278
2018-01-14 00:00:00,2018-01-14 00:00:00,TMP,surface,-101.25,32.5983,289.653
2018-01-14 00:00:00,2018-01-14 00:00:00,TMP,surface,-100.313,32.5983,290.411
2018-01-14 00:00:00,2018-01-14 00:00:00,TMP,surface,-99.3754,32.5983,291.046
2018-01-14 00:00:00,2018-01-14 00:00:00,TMP,surface,-98.4379,32.5983,291.179
2018-01-14 00:00:00,2018-01-14 00:00:00,TMP,surface,-97.5004,32.5983,290.997
2018-01-14 00:00:00,2018-01-14 00:00:00,TMP,surface,-96.5629,32.5983,290.929
2018-01-14 00:00:00,2018-01-14 00:00:00,TMP,surface,-95.6254,32.5983,290.971
2018-01-14 00:00:00,2018-01-14 00:00:00,TMP,surface,-94.6879,32.5983,290.744
2018-01-14 00:00:00,2018-01-14 00:00:00,TMP,surface,-93.7504,32.5983,290.448
2018-01-14 00:00:00,2018-01-14 00:00:00,TMP,surface,-92.8129,32.5983,290.853
2018-01-14 00:00:00,2018-01-14 00:00:00,TMP,surface,-107.813,33.5432,284.443
2018-01-14 00:00:00,2018-01-14 00:00:00,TMP,surface,-106.875,33.5432,285.513
2018-01-14 00:00:00,2018-01-14 00:00:00,TMP,surface,-105.938,33.5432,286.065
2018-01-14 00:00:00,2018-01-14 00:00:00,TMP,surface,-105,33.5432,286.936
2018-01-14 00:00:00,2018-01-14 00:00:00,TMP,surface,-104.063,33.5432,288.059
2018-01-14 00:00:00,2018-01-14 00:00:00,TMP,surface,-103.125,33.5432,288.408
2018-01-14 00:00:00,2018-01-14 00:00:00,TMP,surface,-102.188,33.5432,288.429
2018-01-14 00:00:00,2018-01-14 00:00:00,TMP,surface,-101.25,33.5432,288.864
2018-01-14 00:00:00,2018-01-14 00:00:00,TMP,surface,-100.313,33.5432,289.928
2018-01-14 00:00:00,2018-01-14 00:00:00,TMP,surface,-99.3754,33.5432,290.982
2018-01-14 00:00:00,2018-01-14 00:00:00,TMP,surface,-98.4379,33.5432,290.99
2018-01-14 00:00:00,2018-01-14 00:00:00,TMP,surface,-97.5004,33.5432,290.397
2018-01-14 00:00:00,2018-01-14 00:00:00,TMP,surface,-96.5629,33.5432,290.008
2018-01-14 00:00:00,2018-01-14 00:00:00,TMP,surface,-95.6254,33.5432,289.862
2018-01-14 00:00:00,2018-01-14 00:00:00,TMP,surface,-94.6879,33.5432,289.747
2018-01-14 00:00:00,2018-01-14 00:00:00,TMP,surface,-93.7504,33.5432,289.609
2018-01-14 00:00:00,2018-01-14 00:00:00,TMP,surface,-92.8129,33.5432,289.629
2018-01-14 00:00:00,2018-01-14 00:00:00,TMP,surface,-107.813,34.4881,283.134
2018-01-14 00:00:00,2018-01-14 00:00:00,TMP,surface,-106.875,34.4881,284.358
2018-01-14 00:00:00,2018-01-14 00:00:00,TMP,surface,-105.938,34.4881,284.941
2018-01-14 00:00:00,2018-01-14 00:00:00,TMP,surface,-105,34.4881,285.921
2018-01-14 00:00:00,2018-01-14 00:00:00,TMP,surface,-104.063,34.4881,286.651
2018-01-14 00:00:00,2018-01-14 00:00:00,TMP,surface,-103.125,34.4881,287.168
2018-01-14 00:00:00,2018-01-14 00:00:00,TMP,surface,-102.188,34.4881,287.523
2018-01-14 00:00:00,2018-01-14 00:00:00,TMP,surface,-101.25,34.4881,288.035
2018-01-14 00:00:00,2018-01-14 00:00:00,TMP,surface,-100.313,34.4881,289.048
2018-01-14 00:00:00,2018-01-14 00:00:00,TMP,surface,-99.3754,34.4881,289.789
2018-01-14 00:00:00,2018-01-14 00:00:00,TMP,surface,-98.4379,34.4881,289.79
2018-01-14 00:00:00,2018-01-14 00:00:00,TMP,surface,-97.5004,34.4881,289.358
2018-01-14 00:00:00,2018-01-14 00:00:00,TMP,surface,-96.5629,34.4881,288.987
2018-01-14 00:00:00,2018-01-14 00:00:00,TMP,surface,-95.6254,34.4881,288.545
2018-01-14 00:00:00,2018-01-14 00:00:00,TMP,surface,-94.6879,34.4881,287.861
2018-01-14 00:00:00,2018-01-14 00:00:00,TMP,surface,-93.7504,34.4881,287.609
2018-01-14 00:00:00,2018-01-14 00:00:00,TMP,surface,-92.8129,34.4881,288.097
2018-01-14 00:00:00,2018-01-14 00:00:00,TMP,surface,-107.813,35.4329,283.237
2018-01-14 00:00:00,2018-01-14 00:00:00,TMP,surface,-106.875,35.4329,283.309
2018-01-14 00:00:00,2018-01-14 00:00:00,TMP,surface,-105.938,35.4329,283.344
2018-01-14 00:00:00,2018-01-14 00:00:00,TMP,surface,-105,35.4329,283.862
2018-01-14 00:00:00,2018-01-14 00:00:00,TMP,surface,-104.063,35.4329,285.432
2018-01-14 00:00:00,2018-01-14 00:00:00,TMP,surface,-103.125,35.4329,286.525
2018-01-14 00:00:00,2018-01-14 00:00:00,TMP,surface,-102.188,35.4329,286.833
2018-01-14 00:00:00,2018-01-14 00:00:00,TMP,surface,-101.25,35.4329,287.379
2018-01-14 00:00:00,2018-01-14 00:00:00,TMP,surface,-100.313,35.4329,288.056
2018-01-14 00:00:00,2018-01-14 00:00:00,TMP,surface,-99.3754,35.4329,288.557
2018-01-14 00:00:00,2018-01-14 00:00:00,TMP,surface,-98.4379,35.4329,288.665
2018-01-14 00:00:00,2018-01-14 00:00:00,TMP,surface,-97.5004,35.4329,288.654
2018-01-14 00:00:00,2018-01-14 00:00:00,TMP,surface,-96.5629,35.4329,288.576
2018-01-14 00:00:00,2018-01-14 00:00:00,TMP,surface,-95.6254,35.4329,288.123
2018-01-14 00:00:00,2018-01-14 00:00:00,TMP,surface,-94.6879,35.4329,287.281
2018-01-14 00:00:00,2018-01-14 00:00:00,TMP,surface,-93.7504,35.4329,286.459
2018-01-14 00:00:00,2018-01-14 00:00:00,TMP,surface,-92.8129,35.4329,286.248
2018-01-14 00:00:00,2018-01-14 00:00:00,TMP,surface,-107.813,36.3778,282.803
2018-01-14 00:00:00,2018-01-14 00:00:00,TMP,surface,-106.875,36.3778,280.768
2018-01-14 00:00:00,2018-01-14 00:00:00,TMP,surface,-105.938,36.3778,280.705
2018-01-14 00:00:00,2018-01-14 00:00:00,TMP,surface,-105,36.3778,281.51
2018-01-14 00:00:00,2018-01-14 00:00:00,TMP,surface,-104.063,36.3778,283.451
2018-01-14 00:00:00,2018-01-14 00:00:00,TMP,surface,-103.125,36.3778,284.854
2018-01-14 00:00:00,2018-01-14 00:00:00,TMP,surface,-102.188,36.3778,285.941
2018-01-14 00:00:00,2018-01-14 00:00:00,TMP,surface,-101.25,36.3778,286.803
2018-01-14 00:00:00,2018-01-14 00:00:00,TMP,surface,-100.313,36.3778,287.649
2018-01-14 00:00:00,2018-01-14 00:00:00,TMP,surface,-99.3754,36.3778,288.157
2018-01-14 00:00:00,2018-01-14 00:00:00,TMP,surface,-98.4379,36.3778,288.286
2018-01-14 00:00:00,2018-01-14 00:00:00,TMP,surface,-97.5004,36.3778,288.325
2018-01-14 00:00:00,2018-01-14 00:00:00,TMP,surface,-96.5629,36.3778,288.275
2018-01-14 00:00:00,2018-01-14 00:00:00,TMP,surface,-95.6254,36.3778,287.745
2018-01-14 00:00:00,2018-01-14 00:00:00,TMP,surface,-94.6879,36.3778,286.617
2018-01-14 00:00:00,2018-01-14 00:00:00,TMP,surface,-93.7504,36.3778,285.536
2018-01-14 00:00:00,2018-01-14 00:00:00,TMP,surface,-92.8129,36.3778,285.288
2018-01-14 00:00:00,2018-01-14 00:00:00,PRATE,surface,-107.813,25.0393,3.3e-06
2018-01-14 00:00:00,2018-01-14 00:00:00,PRATE,surface,-106.875,25.0393,1.21e-05
2018-01-14 00:00:00,2018-01-14 00:00:00,PRATE,surface,-105.938,25.0393,4.01e-05
2018-01-14 00:00:00,2018-01-14 00:00:00,PRATE,surface,-105,25.0393,5.25e-05
2018-01-14 00:00:00,2018-01-14 00:00:00,PRATE,surface,-104.063,25.0393,3.5e-05
2018-01-14 00:00:00,2018-01-14 00:00:00,PRATE,surface,-103.125,25.0393,1.66e-05
2018-01-14 00:00:00,2018-01-14 00:00:00,PRATE,surface,-102.188,25.0393,1.34e-05
2018-01-14 00:00:00,2018-01-14 00:00:00,PRATE,surface,-101.25,25.0393,2.31e-05
2018-01-14 00:00:00,2018-01-14 00:00:00,PRATE,surface,-100.313,25.0393,3.79e-05
2018-01-14 00:00:00,2018-01-14 00:00:00,PRATE,surface,-99.3754,25.0393,3.54e-05
2018-01-14 00:00:00,2018-01-14 00:00:00,PRATE,surface,-98.4379,25.0393,1.71e-05
2018-01-14 00:00:00,2018-01-14 00:00:00,PRATE,surface,-97.5004,25.0393,1.73e-05
2018-01-14 00:00:00,2018-01-14 00:00:00,PRATE,surface,-96.5629,25.0393,2.99e-05
2018-01-14 00:00:00,2018-01-14 00:00:00,PRATE,surface,-95.6254,25.0393,7.1e-05
2018-01-14 00:00:00,2018-01-14 00:00:00,PRATE,surface,-94.6879,25.0393,3.83e-05
2018-01-14 00:00:00,2018-01-14 00:00:00,PRATE,surface,-93.7504,25.0393,1.81e-05
2018-01-14 00:00:00,2018-01-14 00:00:00,PRATE,surface,-92.8129,25.0393,1.52e-05
2018-01-14 00:00:00,2018-01-14 00:00:00,PRATE,surface,-107.813,25.9842,8.3e-06
2018-01-14 00:00:00,2018-01-14 00:00:00,PRATE,surface,-106.875,25.9842,1.89e-05
2018-01-14 00:00:00,2018-01-14 00:00:00,PRATE,surface,-105.938,25.9842,1.9e-05
2018-01-14 00:00:00,2018-01-14 00:00:00,PRATE,surface,-105,25.9842,3.01e-05
2018-01-14 00:00:00,2018-01-14 00:00:00,PRATE,surface,-104.063,25.9842,2.3e-05
2018-01-14 00:00:00,2018-01-14 00:00:00,PRATE,surface,-103.125,25.9842,1.93e-05
2018-01-14 00:00:00,2018-01-14 00:00:00,PRATE,surface,-102.188,25.9842,2.16e-05
2018-01-14 00:00:00,2018-01-14 00:00:00,PRATE,surface,-101.25,25.9842,2.62e-05
2018-01-14 00:00:00,2018-01-14 00:00:00,PRATE,surface,-100.313,25.9842,3e-05
2018-01-14 00:00:00,2018-01-14 00:00:00,PRATE,surface,-99.3754,25.9842,2.66e-05
2018-01-14 00:00:00,2018-01-14 00:00:00,PRATE,surface,-98.4379,25.9842,2.19e-05
2018-01-14 00:00:00,2018-01-14 00:00:00,PRATE,surface,-97.5004,25.9842,2.46e-05
2018-01-14 00:00:00,2018-01-14 00:00:00,PRATE,surface,-96.5629,25.9842,3.93e-05
2018-01-14 00:00:00,2018-01-14 00:00:00,PRATE,surface,-95.6254,25.9842,4.13e-05
2018-01-14 00:00:00,2018-01-14 00:00:00,PRATE,surface,-94.6879,25.9842,1.65e-05
2018-01-14 00:00:00,2018-01-14 00:00:00,PRATE,surface,-93.7504,25.9842,1.07e-05
2018-01-14 00:00:00,2018-01-14 00:00:00,PRATE,surface,-92.8129,25.9842,1.79e-05
2018-01-14 00:00:00,2018-01-14 00:00:00,PRATE,surface,-107.813,26.929,1.38e-05
2018-01-14 00:00:00,2018-01-14 00:00:00,PRATE,surface,-106.875,26.929,1.48e-05
2018-01-14 00:00:00,2018-01-14 00:00:00,PRATE,surface,-105.938,26.929,1.26e-05
2018-01-14 00:00:00,2018-01-14 00:00:00,PRATE,surface,-105,26.929,1.42e-05
2018-01-14 00:00:00,2018-01-14 00:00:00,PRATE,surface,-104.063,26.929,1.73e-05
2018-01-14 00:00:00,2018-01-14 00:00:00,PRATE,surface,-103.125,26.929,2.61e-05
2018-01-14 00:00:00,2018-01-14 00:00:00,PRATE,surface,-102.188,26.929,2.9e-05
2018-01-14 00:00:00,2018-01-14 00:00:00,PRATE,surface,-101.25,26.929,3.19e-05
2018-01-14 00:00:00,2018-01-14 00:00:00,PRATE,surface,-100.313,26.929,2.45e-05
2018-01-14 00:00:00,2018-01-14 00:00:00,PRATE,surface,-99.3754,26.929,1.95e-05
2018-01-14 00:00:00,2018-01-14 00:00:00,PRATE,surface,-98.4379,26.929,2.36e-05
2018-01-14 00:00:00,2018-01-14 00:00:00,PRATE,surface,-97.5004,26.929,2.61e-05
2018-01-14 00:00:00,2018-01-14 00:00:00,PRATE,surface,-96.5629,26.929,2.3e-05
2018-01-14 00:00:00,2018-01-14 00:00:00,PRATE,surface,-95.6254,26.929,2.12e-05
2018-01-14 00:00:00,2018-01-14 00:00:00,PRATE,surface,-94.6879,26.929,8.4e-06
2018-01-14 00:00:00,2018-01-14 00:00:00,PRATE,surface,-93.7504,26.929,5e-06
2018-01-14 00:00:00,2018-01-14 00:00:00,PRATE,surface,-92.8129,26.929,8.9e-06
2018-01-14 00:00:00,2018-01-14 00:00:00,PRATE,surface,-107.813,27.8739,1.37e-05
2018-01-14 00:00:00,2018-01-14 00:00:00,PRATE,surface,-106.875,27.8739,1.54e-05
2018-01-14 00:00:00,2018-01-14 00:00:00,PRATE,surface,-105.938,27.8739,7.7e-06
2018-01-14 00:00:00,2018-01-14 00:00:00,PRATE,surface,-105,27.8739,6.1e-06
2018-01-14 00:00:00,2018-01-14 00:00:00,PRATE,surface,-104.063,27.8739,1.33e-05
2018-01-14 00:00:00,2018-01-14 00:00:00,PRATE,surface,-103.125,27.8739,2.57e-05
2018-01-14 00:00:00,2018-01-14 00:00:00,PRATE,surface,-102.188,27.8739,3.1e-05
2018-01-14 00:00:00,2018-01-14 00:00:00,PRATE,surface,-101.25,27.8739,2.96e-05
2018-01-14 00:00:00,2018-01-14 00:00:00,PRATE,surface,-100.313,27.8739,2.55e-05
2018-01-14 00:00:00,2018-01-14 00:00:00,PRATE,surface,-99.3754,27.8739,2.24e-05
2018-01-14 00:00:00,2018-01-14 00:00:00,PRATE,surface,-98.4379,27.8739,2.1e-05
2018-01-14 00:00:00,2018-01-14 00:00:00,PRATE,surface,-97.5004,27.8739,1.78e-05
2018-01-14 00:00:00,2018-01-14 00:00:00,PRATE,surface,-96.5629,27.8739,1.28e-05
2018-01-14 00:00:00,2018-01-14 00:00:00,PRATE,surface,-95.6254,27.8739,9.4e-06
2018-01-14 00:00:00,2018-01-14 00:00:00,PRATE,surface,-94.6879,27.8739,7.6e-06
2018-01-14 00:00:00,2018-01-14 00:00:00,PRATE,surface,-93.7504,27.8739,6e-06
2018-01-14 00:00:00,2018-01-14 00:00:00,PRATE,surface,-92.8129,27.8739,5.1e-06
2018-01-14 00:00:00,2018-01-14 00:00:00,PRATE,surface,-107.813,28.8188,1.21e-05
2018-01-14 00:00:00,2018-01-14 00:00:00,PRATE,surface,-106.875,28.8188,1.4e-05
2018-01-14 00:00:00,2018-01-14 00:00:00,PRATE,surface,-105.938,28.8188,5.4e-06
2018-01-14 00:00:00,2018-01-14 00:00:00,PRATE,surface,-105,28.8188,3.8e-06
2018-01-14 00:00:00,2018-01-14 00:00:00,PRATE,surface,-104.063,28.8188,5.6e-06
2018-01-14 00:00:00,2018-01-14 00:00:00,PRATE,surface,-103.125,28.8188,1.05e-05
2018-01-14 00:00:00,2018-01-14 00:00:00,PRATE,surface,-102.188,28.8188,1.58e-05
2018-01-14 00:00:00,2018-01-14 00:00:00,PRATE,surface,-101.25,28.8188,1.8e-05
2018-01-14 00:00:00,2018-01-14 00:00:00,PRATE,surface,-100.313,28.8188,2.01e-05
2018-01-14 00:00:00,2018-01-14 00:00:00,PRATE,surface,-99.3754,28.8188,2.57e-05
2018-01-14 00:00:00,2018-01-14 00:00:00,PRATE,surface,-98.4379,28.8188,2.54e-05
2018-01-14 00:00:00,2018-01-14 00:00:00,PRATE,surface,-97.5004,28.8188,1.9e-05
2018-01-14 00:00:00,2018-01-14 00:00:00,PRATE,surface,-96.5629,28.8188,1.36e-05
2018-01-14 00:00:00,2018-01-14 00:00:00,PRATE,surface,-95.6254,28.8188,1.03e-05
2018-01-14 00:00:00,2018-01-14 00:00:00,PRATE,surface,-94.6879,28.8188,7.4e-06
2018-01-14 00:00:00,2018-01-14 00:00:00,PRATE,surface,-93.7504,28.8188,4.3e-06
2018-01-14 00:00:00,2018-01-14 00:00:00,PRATE,surface,-92.8129,28.8188,2.4e-06
2018-01-14 00:00:00,2018-01-14 00:00:00,PRATE,surface,-107.813,29.7637,4.3e-06
2018-01-14 00:00:00,2018-01-14 00:00:00,PRATE,surface,-106.875,29.7637,5.4e-06
2018-01-14 00:00:00,2018-01-14 00:00:00,PRATE,surface,-105.938,29.7637,5.6e-06
2018-01-14 00:00:00,2018-01-14 00:00:00,PRATE,surface,-105,29.7637,5.5e-06
2018-01-14 00:00:00,2018-01-14 00:00:00,PRATE,surface,-104.063,29.7637,4.9e-06
2018-01-14 00:00:00,2018-01-14 00:00:00,PRATE,surface,-103.125,29.7637,5.4e-06
2018-01-14 00:00:00,2018-01-14 00:00:00,PRATE,surface,-102.188,29.7637,7.1e-06
2018-01-14 00:00:00,2018-01-14 00:00:00,PRATE,surface,-101.25,29.7637,9.7e-06
2018-01-14 00:00:00,2018-01-14 00:00:00,PRATE,surface,-100.313,29.7637,1.52e-05
2018-01-14 00:00:00,2018-01-14 00:00:00,PRATE,surface,-99.3754,29.7637,2.05e-05
2018-01-14 00:00:00,2018-01-14 00:00:00,PRATE,surface,-98.4379,29.7637,2.43e-05
2018-01-14 00:00:00,2018-01-14 00:00:00,PRATE,surface,-97.5004,29.7637,2.26e-05
2018-01-14 00:00:00,2018-01-14 00:00:00,PRATE,surface,-96.5629,29.7637,1.66e-05
2018-01-14 00:00:00,2018-01-14 00:00:00,PRATE,surface,-95.6254,29.7637,1.05e-05
2018-01-14 00:00:00,2018-01-14 00:00:00,PRATE,surface,-94.6879,29.7637,6.3e-06
2018-01-14 00:00:00,2018-01-14 00:00:00,PRATE,surface,-93.7504,29.7637,5.4e-06
2018-01-14 00:00:00,2018-01-14 00:00:00,PRATE,surface,-92.8129,29.7637,2.6e-06
2018-01-14 00:00:00,2018-01-14 00:00:00,PRATE,surface,-107.813,30.7085,2.2e-06
2018-01-14 00:00:00,2018-01-14 00:00:00,PRATE,surface,-106.875,30.7085,3.1e-06
2018-01-14 00:00:00,2018-01-14 00:00:00,PRATE,surface,-105.938,30.7085,4.7e-06
2018-01-14 00:00:00,2018-01-14 00:00:00,PRATE,surface,-105,30.7085,5.4e-06
2018-01-14 00:00:00,2018-01-14 00:00:00,PRATE,surface,-104.063,30.7085,4.4e-06
2018-01-14 00:00:00,2018-01-14 00:00:00,PRATE,surface,-103.125,30.7085,4.4e-06
2018-01-14 00:00:00,2018-01-14 00:00:00,PRATE,surface,-102.188,30.7085,4.8e-06
2018-01-14 00:00:00,2018-01-14 00:00:00,PRATE,surface,-101.25,30.7085,7.8e-06
2018-01-14 00:00:00,2018-01-14 00:00:00,PRATE,surface,-100.313,30.7085,1.24e-05
2018-01-14 00:00:00,2018-01-14 00:00:00,PRATE,surface,-99.3754,30.7085,1.42e-05
2018-01-14 00:00:00,2018-01-14 00:00:00,PRATE,surface,-98.4379,30.7085,1.32e-05
2018-01-14 00:00:00,2018-01-14 00:00:00,PRATE,surface,-97.5004,30.7085,1.09e-05
2018-01-14 00:00:00,2018-01-14 00:00:00,PRATE,surface,-96.5629,30.7085,8.5e-06
2018-01-14 00:00:00,2018-01-14 00:00:00,PRATE,surface,-95.6254,30.7085,6.4e-06
2018-01-14 00:00:00,2018-01-14 00:00:00,PRATE,surface,-94.6879,30.7085,4.8e-06
2018-01-14 00:00:00,2018-01-14 00:00:00,PRATE,surface,-93.7504,30.7085,4.3e-06
2018-01-14 00:00:00,2018-01-14 00:00:00,PRATE,surface,-92.8129,30.7085,3.8e-06
2018-01-14 00:00:00,2018-01-14 00:00:00,PRATE,surface,-107.813,31.6534,2.5e-06
2018-01-14 00:00:00,2018-01-14 00:00:00,PRATE,surface,-106.875,31.6534,2.6e-06
2018-01-14 00:00:00,2018-01-14 00:00:00,PRATE,surface,-105.938,31.6534,4e-06
2018-01-14 00:00:00,2018-01-14 00:00:00,PRATE,surface,-105,31.6534,4.1e-06
2018-01-14 00:00:00,2018-01-14 00:00:00,PRATE,surface,-104.063,31.6534,5.2e-06
2018-01-14 00:00:00,2018-01-14 00:00:00,PRATE,surface,-103.125,31.6534,5.4e-06
2018-01-14 00:00:00,2018-01-14 00:00:00,PRATE,surface,-102.188,31.6534,5.5e-06
2018-01-14 00:00:00,2018-01-14 00:00:00,PRATE,surface,-101.25,31.6534,8.4e-06
2018-01-14 00:00:00,2018-01-14 00:00:00,PRATE,surface,-100.313,31.6534,1e-05
2018-01-14 00:00:00,2018-01-14 00:00:00,PRATE,surface,-99.3754,31.6534,9.2e-06
2018-01-14 00:00:00,2018-01-14 00:00:00,PRATE,surface,-98.4379,31.6534,7.2e-06
2018-01-14 00:00:00,2018-01-14 00:00:00,PRATE,surface,-97.5004,31.6534,4.9e-06
2018-01-14 00:00:00,2018-01-14 00:00:00,PRATE,surface,-96.5629,31.6534,4.7e-06
2018-01-14 00:00:00,2018-01-14 00:00:00,PRATE,surface,-95.6254,31.6534,7.7e-06
2018-01-14 00:00:00,2018-01-14 00:00:00,PRATE,surface,-94.6879,31.6534,9.5e-06
2018-01-14 00:00:00,2018-01-14 00:00:00,PRATE,surface,-93.7504,31.6534,6.6e-06
2018-01-14 00:00:00,2018-01-14 00:00:00,PRATE,surface,-92.8129,31.6534,4.2e-06
2018-01-14 00:00:00,2018-01-14 00:00:00,PRATE,surface,-107.813,32.5983,3.8e-06
2018-01-14 00:00:00,2018-01-14 00:00:00,PRATE,surface,-106.875,32.5983,4e-06
2018-01-14 00:00:00,2018-01-14 00:00:00,PRATE,surface,-105.938,32.5983,4.4e-06
2018-01-14 00:00:00,2018-01-14 00:00:00,PRATE,surface,-105,32.5983,5.6e-06
2018-01-14 00:00:00,2018-01-14 00:00:00,PRATE,surface,-104.063,32.5983,6.7e-06
2018-01-14 00:00:00,2018-01-14 00:00:00,PRATE,surface,-103.125,32.5983,7.7e-06
2018-01-14 00:00:00,2018-01-14 00:00:00,PRATE,surface,-102.188,32.5983,6.8e-06
2018-01-14 00:00:00,2018-01-14 00:00:00,PRATE,surface,-101.25,32.5983,8.1e-06
2018-01-14 00:00:00,2018-01-14 00:00:00,PRATE,surface,-100.313,32.5983,6.4e-06
2018-01-14 00:00:00,2018-01-14 00:00:00,PRATE,surface,-99.3754,32.5983,5.2e-06
2018-01-14 00:00:00,2018-01-14 00:00:00,PRATE,surface,-98.4379,32.5983,4.4e-06
2018-01-14 00:00:00,2018-01-14 00:00:00,PRATE,surface,-97.5004,32.5983,3.1e-06
2018-01-14 00:00:00,2018-01-14 00:00:00,PRATE,surface,-96.5629,32.5983,3.6e-06
2018-01-14 00:00:00,2018-01-14 00:00:00,PRATE,surface,-95.6254,32.5983,7.1e-06
2018-01-14 00:00:00,2018-01-14 00:00:00,PRATE,surface,-94.6879,32.5983,1.12e-05
2018-01-14 00:00:00,2018-01-14 00:00:00,PRATE,surface,-93.7504,32.5983,1.3e-05
2018-01-14 00:00:00,2018-01-14 00:00:00,PRATE,surface,-92.8129,32.5983,1.03e-05
2018-01-14 00:00:00,2018-01-14 00:00:00,PRATE,surface,-107.813,33.5432,8.2e-06
2018-01-14 00:00:00,2018-01-14 00:00:00,PRATE,surface,-106.875,33.5432,8.4e-06
2018-01-14 00:00:00,2018-01-14 00:00:00,PRATE,surface,-105.938,33.5432,8.2e-06
2018-01-14 00:00:00,2018-01-14 00:00:00,PRATE,surface,-105,33.5432,7e-06
2018-01-14 00:00:00,2018-01-14 00:00:00,PRATE,surface,-104.063,33.5432,7.5e-06
2018-01-14 00:00:00,2018-01-14 00:00:00,PRATE,surface,-103.125,33.5432,6.8e-06
2018-01-14 00:00:00,2018-01-14 00:00:00,PRATE,surface,-102.188,33.5432,6.1e-06
2018-01-14 00:00:00,2018-01-14 00:00:00,PRATE,surface,-101.25,33.5432,6.1e-06
2018-01-14 00:00:00,2018-01-14 00:00:00,PRATE,surface,-100.313,33.5432,5.3e-06
2018-01-14 00:00:00,2018-01-14 00:00:00,PRATE,surface,-99.3754,33.5432,4.4e-06
2018-01-14 00:00:00,2018-01-14 00:00:00,PRATE,surface,-98.4379,33.5432,3.8e-06
2018-01-14 00:00:00,2018-01-14 00:00:00,PRATE,surface,-97.5004,33.5432,3.1e-06
2018-01-14 00:00:00,2018-01-14 00:00:00,PRATE,surface,-96.5629,33.5432,3.7e-06
2018-01-14 00:00:00,2018-01-14 00:00:00,PRATE,surface,-95.6254,33.5432,6.3e-06
2018-01-14 00:00:00,2018-01-14 00:00:00,PRATE,surface,-94.6879,33.5432,1.09e-05
2018-01-14 00:00:00,2018-01-14 00:00:00,PRATE,surface,-93.7504,33.5432,1.77e-05
2018-01-14 00:00:00,2018-01-14 00:00:00,PRATE,surface,-92.8129,33.5432,2.12e-05
2018-01-14 00:00:00,2018-01-14 00:00:00,PRATE,surface,-107.813,34.4881,8.5e-06
2018-01-14 00:00:00,2018-01-14 00:00:00,PRATE,surface,-106.875,34.4881,6.4e-06
2018-01-14 00:00:00,2018-01-14 00:00:00,PRATE,surface,-105.938,34.4881,7.8e-06
2018-01-14 00:00:00,2018-01-14 00:00:00,PRATE,surface,-105,34.4881,7.1e-06
2018-01-14 00:00:00,2018-01-14 00:00:00,PRATE,surface,-104.063,34.4881,6.7e-06
2018-01-14 00:00:00,2018-01-14 00:00:00,PRATE,surface,-103.125,34.4881,6.2e-06
2018-01-14 00:00:00,2018-01-14 00:00:00,PRATE,surface,-102.188,34.4881,5.2e-06
2018-01-14 00:00:00,2018-01-14 00:00:00,PRATE,surface,-101.25,34.4881,5e-06
2018-01-14 00:00:00,2018-01-14 00:00:00,PRATE,surface,-100.313,34.4881,3.8e-06
2018-01-14 00:00:00,2018-01-14 00:00:00,PRATE,surface,-99.3754,34.4881,4e-06
2018-01-14 00:00:00,2018-01-14 00:00:00,PRATE,surface,-98.4379,34.4881,4.2e-06
2018-01-14 00:00:00,2018-01-14 00:00:00,PRATE,surface,-97.5004,34.4881,3.4e-06
2018-01-14 00:00:00,2018-01-14 00:00:00,PRATE,surface,-96.5629,34.4881,3.1e-06
2018-01-14 00:00:00,2018-01-14 00:00:00,PRATE,surface,-95.6254,34.4881,4.1e-06
2018-01-14 00:00:00,2018-01-14 00:00:00,PRATE,surface,-94.6879,34.4881,6.9e-06
2018-01-14 00:00:00,2018-01-14 00:00:00,PRATE,surface,-93.7504,34.4881,1.24e-05
2018-01-14 00:00:00,2018-01-14 00:00:00,PRATE,surface,-92.8129,34.4881,1.52e-05
2018-01-14 00:00:00,2018-01-14 00:00:00,PRATE,surface,-107.813,35.4329,6.1e-06
2018-01-14 00:00:00,2018-01-14 00:00:00,PRATE,surface,-106.875,35.4329,5.9e-06
2018-01-14 00:00:00,2018-01-14 00:00:00,PRATE,surface,-105.938,35.4329,9e-06
2018-01-14 00:00:00,2018-01-14 00:00:00,PRATE,surface,-105,35.4329,1.02e-05
2018-01-14 00:00:00,2018-01-14 00:00:00,PRATE,surface,-104.063,35.4329,9.3e-06
2018-01-14 00:00:00,2018-01-14 00:00:00,PRATE,surface,-103.125,35.4329,8.7e-06
2018-01-14 00:00:00,2018-01-14 00:00:00,PRATE,surface,-102.188,35.4329,7.3e-06
2018-01-14 00:00:00,2018-01-14 00:00:00,PRATE,surface,-101.25,35.4329,6.6e-06
2018-01-14 00:00:00,2018-01-14 00:00:00,PRATE,surface,-100.313,35.4329,6.2e-06
2018-01-14 00:00:00,2018-01-14 00:00:00,PRATE,surface,-99.3754,35.4329,5.9e-06
2018-01-14 00:00:00,2018-01-14 00:00:00,PRATE,surface,-98.4379,35.4329,5e-06
2018-01-14 00:00:00,2018-01-14 00:00:00,PRATE,surface,-97.5004,35.4329,2.7e-06
2018-01-14 00:00:00,2018-01-14 00:00:00,PRATE,surface,-96.5629,35.4329,1e-06
2018-01-14 00:00:00,2018-01-14 00:00:00,PRATE,surface,-95.6254,35.4329,1.4e-06
2018-01-14 00:00:00,2018-01-14 00:00:00,PRATE,surface,-94.6879,35.4329,3.4e-06
2018-01-14 00:00:00,2018-01-14 00:00:00,PRATE,surface,-93.7504,35.4329,7.1e-06
2018-01-14 00:00:00,2018-01-14 00:00:00,PRATE,surface,-92.8129,35.4329,9.9e-06
2018-01-14 00:00:00,2018-01-14 00:00:00,PRATE,surface,-107.813,36.3778,5.3e-06
2018-01-14 00:00:00,2018-01-14 00:00:00,PRATE,surface,-106.875,36.3778,8.5e-06
2018-01-14 00:00:00,2018-01-14 00:00:00,PRATE,surface,-105.938,36.3778,1.37e-05
2018-01-14 00:00:00,2018-01-14 00:00:00,PRATE,surface,-105,36.3778,1.51e-05
2018-01-14 00:00:00,2018-01-14 00:00:00,PRATE,surface,-104.063,36.3778,1.38e-05
2018-01-14 00:00:00,2018-01-14 00:00:00,PRATE,surface,-103.125,36.3778,1.03e-05
2018-01-14 00:00:00,2018-01-14 00:00:00,PRATE,surface,-102.188,36.3778,8.4e-06
2018-01-14 00:00:00,2018-01-14 00:00:00,PRATE,surface,-101.25,36.3778,7.1e-06
2018-01-14 00:00:00,2018-01-14 00:00:00,PRATE,surface,-100.313,36.3778,5.9e-06
2018-01-14 00:00:00,2018-01-14 00:00:00,PRATE,surface,-99.3754,36.3778,4.6e-06
2018-01-14 00:00:00,2018-01-14 00:00:00,PRATE,surface,-98.4379,36.3778,3.7e-06
2018-01-14 00:00:00,2018-01-14 00:00:00,PRATE,surface,-97.5004,36.3778,2.6e-06
2018-01-14 00:00:00,2018-01-14 00:00:00,PRATE,surface,-96.5629,36.3778,1.8e-06
2018-01-14 00:00:00,2018-01-14 00:00:00,PRATE,surface,-95.6254,36.3778,2.2e-06
2018-01-14 00:00:00,2018-01-14 00:00:00,PRATE,surface,-94.6879,36.3778,3.8e-06
2018-01-14 00:00:00,2018-01-14 00:00:00,PRATE,surface,-93.7504,36.3778,7.2e-06
2018-01-14 00:00:00,2018-01-14 00:00:00,PRATE,surface,-92.8129,36.3778,9.8e-06
