2015-09-20 00:00:00,2015-09-20 00:00:00,TMP,surface,-107.813,25.0393,290.657
2015-09-20 00:00:00,2015-09-20 00:00:00,TMP,surface,-106.875,25.0393,284.889
2015-09-20 00:00:00,2015-09-20 00:00:00,TMP,surface,-105.938,25.0393,280.089
2015-09-20 00:00:00,2015-09-20 00:00:00,TMP,surface,-105,25.0393,279.806
2015-09-20 00:00:00,2015-09-20 00:00:00,TMP,surface,-104.063,25.0393,284.32
2015-09-20 00:00:00,2015-09-20 00:00:00,TMP,surface,-103.125,25.0393,286.851
2015-09-20 00:00:00,2015-09-20 00:00:00,TMP,surface,-102.188,25.0393,286.061
2015-09-20 00:00:00,2015-09-20 00:00:00,TMP,surface,-101.25,25.0393,284.734
2015-09-20 00:00:00,2015-09-20 00:00:00,TMP,surface,-100.313,25.0393,286.44
2015-09-20 00:00:00,2015-09-20 00:00:00,TMP,surface,-99.3754,25.0393,289.737
2015-09-20 00:00:00,2015-09-20 00:00:00,TMP,surface,-98.4379,25.0393,292.605
2015-09-20 00:00:00,2015-09-20 00:00:00,TMP,surface,-97.5004,25.0393,294.475
2015-09-20 00:00:00,2015-09-20 00:00:00,TMP,surface,-96.5629,25.0393,294.672
2015-09-20 00:00:00,2015-09-20 00:00:00,TMP,surface,-95.6254,25.0393,294.923
2015-09-20 00:00:00,2015-09-20 00:00:00,TMP,surface,-94.6879,25.0393,295.136
2015-09-20 00:00:00,2015-09-20 00:00:00,TMP,surface,-93.7504,25.0393,294.963
2015-09-20 00:00:00,2015-09-20 00:00:00,TMP,surface,-92.8129,25.0393,294.838
2015-09-20 00:00:00,2015-09-20 00:00:00,TMP,surface,-107.813,25.9842,286.197
2015-09-20 00:00:00,2015-09-20 00:00:00,TMP,surface,-106.875,25.9842,280.224
2015-09-20 00:00:00,2015-09-20 00:00:00,TMP,surface,-105.938,25.9842,278.801
2015-09-20 00:00:00,2015-09-20 00:00:00,TMP,surface,-105,25.9842,282.129
2015-09-20 00:00:00,2015-09-20 00:00:00,TMP,surface,-104.063,25.9842,287.009
2015-09-20 00:00:00,2015-09-20 00:00:00,TMP,surface,-103.125,25.9842,288.075
2015-09-20 00:00:00,2015-09-20 00:00:00,TMP,surface,-102.188,25.9842,287.413
2015-09-20 00:00:00,2015-09-20 00:00:00,TMP,surface,-101.25,25.9842,287.161
2015-09-20 00:00:00,2015-09-20 00:00:00,TMP,surface,-100.313,25.9842,288.329
2015-09-20 00:00:00,2015-09-20 00:00:00,TMP,surface,-99.3754,25.9842,291.009
2015-09-20 00:00:00,2015-09-20 00:00:00,TMP,surface,-98.4379,25.9842,292.395
2015-09-20 00:00:00,2015-09-20 00:00:00,TMP,surface,-97.5004,25.9842,292.531
2015-09-20 00:00:00,2015-09-20 00:00:00,TMP,surface,-96.5629,25.9842,293.819
2015-09-20 00:00:00,2015-09-20 00:00:00,TMP,surface,-95.6254,25.9842,294.457
2015-09-20 00:00:00,2015-09-20 00:00:00,TMP,surface,-94.6879,25.9842,294.701
2015-09-20 00:00:00,2015-09-20 00:00:00,TMP,surface,-93.7504,25.9842,294.584
2015-09-20 00:00:00,2015-09-20 00:00:00,TMP,surface,-92.8129,25.9842,294.499
2015-09-20 00:00:00,2015-09-20 00:00:00,TMP,surface,-107.813,26.929,280.883
2015-09-20 00:00:00,2015-09-20 00:00:00,TMP,surface,-106.875,26.929,277.769
2015-09-20 00:00:00,2015-09-20 00:00:00,TMP,surface,-105.938,26.929,280.257
2015-09-20 00:00:00,2015-09-20 00:00:00,TMP,surface,-105,26.929,284.797
2015-09-20 00:00:00,2015-09-20 00:00:00,TMP,surface,-104.063,26.929,287.027
2015-09-20 00:00:00,2015-09-20 00:00:00,TMP,surface,-103.125,26.929,286.445
2015-09-20 00:00:00,2015-09-20 00:00:00,TMP,surface,-102.188,26.929,286.777
2015-09-20 00:00:00,2015-09-20 00:00:00,TMP,surface,-101.25,26.929,288.317
2015-09-20 00:00:00,2015-09-20 00:00:00,TMP,surface,-100.313,26.929,289.941
2015-09-20 00:00:00,2015-09-20 00:00:00,TMP,surface,-99.3754,26.929,291.032
2015-09-20 00:00:00,2015-09-20 00:00:00,TMP,surface,-98.4379,26.929,290.614
2015-09-20 00:00:00,2015-09-20 00:00:00,TMP,surface,-97.5004,26.929,292.491
2015-09-20 00:00:00,2015-09-20 00:00:00,TMP,surface,-96.5629,26.929,292.817
2015-09-20 00:00:00,2015-09-20 00:00:00,TMP,surface,-95.6254,26.929,293.625
2015-09-20 00:00:00,2015-09-20 00:00:00,TMP,surface,-94.6879,26.929,293.947
2015-09-20 00:00:00,2015-09-20 00:00:00,TMP,surface,-93.7504,26.929,293.741
2015-09-20 00:00:00,2015-09-20 00:00:00,TMP,surface,-92.8129,26.929,293.685
2015-09-20 00:00:00,2015-09-20 00:00:00,TMP,surface,-107.813,27.8739,278.256
2015-09-20 00:00:00,2015-09-20 00:00:00,TMP,surface,-106.875,27.8739,277.777
2015-09-20 00:00:00,2015-09-20 00:00:00,TMP,surface,-105.938,27.8739,282.021
2015-09-20 00:00:00,2015-09-20 00:00:00,TMP,surface,-105,27.8739,285.733
2015-09-20 00:00:00,2015-09-20 00:00:00,TMP,surface,-104.063,27.8739,285.92
2015-09-20 00:00:00,2015-09-20 00:00:00,TMP,surface,-103.125,27.8739,285.064
2015-09-20 00:00:00,2015-09-20 00:00:00,TMP,surface,-102.188,27.8739,285.857
2015-09-20 00:00:00,2015-09-20 00:00:00,TMP,surface,-101.25,27.8739,287.947
2015-09-20 00:00:00,2015-09-20 00:00:00,TMP,surface,-100.313,27.8739,289.456
2015-09-20 00:00:00,2015-09-20 00:00:00,TMP,surface,-99.3754,27.8739,289.478
2015-09-20 00:00:00,2015-09-20 00:00:00,TMP,surface,-98.4379,27.8739,288.947
2015-09-20 00:00:00,2015-09-20 00:00:00,TMP,surface,-97.5004,27.8739,290.589
2015-09-20 00:00:00,2015-09-20 00:00:00,TMP,surface,-96.5629,27.8739,292.649
2015-09-20 00:00:00,2015-09-20 00:00:00,TMP,surface,-95.6254,27.8739,292.851
2015-09-20 00:00:00,2015-09-20 00:00:00,TMP,surface,-94.6879,27.8739,292.704
2015-09-20 00:00:00,2015-09-20 00:00:00,TMP,surface,-93.7504,27.8739,292.515
2015-09-20 00:00:00,2015-09-20 00:00:00,TMP,surface,-92.8129,27.8739,292.517
2015-09-20 00:00:00,2015-09-20 00:00:00,TMP,surface,-107.813,28.8188,277.528
2015-09-20 00:00:00,2015-09-20 00:00:00,TMP,surface,-106.875,28.8188,278.95
2015-09-20 00:00:00,2015-09-20 00:00:00,TMP,surface,-105.938,28.8188,282.854
2015-09-20 00:00:00,2015-09-20 00:00:00,TMP,surface,-105,28.8188,285.296
2015-09-20 00:00:00,2015-09-20 00:00:00,TMP,surface,-104.063,28.8188,284.557
2015-09-20 00:00:00,2015-09-20 00:00:00,TMP,surface,-103.125,28.8188,284.07
2015-09-20 00:00:00,2015-09-20 00:00:00,TMP,surface,-102.188,28.8188,285.033
2015-09-20 00:00:00,2015-09-20 00:00:00,TMP,surface,-101.25,28.8188,287.013
2015-09-20 00:00:00,2015-09-20 00:00:00,TMP,surface,-100.313,28.8188,287.601
2015-09-20 00:00:00,2015-09-20 00:00:00,TMP,surface,-99.3754,28.8188,287.189
2015-09-20 00:00:00,2015-09-20 00:00:00,TMP,surface,-98.4379,28.8188,286.958
2015-09-20 00:00:00,2015-09-20 00:00:00,TMP,surface,-97.5004,28.8188,287.294
2015-09-20 00:00:00,2015-09-20 00:00:00,TMP,surface,-96.5629,28.8188,287.822
2015-09-20 00:00:00,2015-09-20 00:00:00,TMP,surface,-95.6254,28.8188,289.664
2015-09-20 00:00:00,2015-09-20 00:00:00,TMP,surface,-94.6879,28.8188,292.261
2015-09-20 00:00:00,2015-09-20 00:00:00,TMP,surface,-93.7504,28.8188,292.193
2015-09-20 00:00:00,2015-09-20 00:00:00,TMP,surface,-92.8129,28.8188,292.206
2015-09-20 00:00:00,2015-09-20 00:00:00,TMP,surface,-107.813,29.7637,278.96
2015-09-20 00:00:00,2015-09-20 00:00:00,TMP,surface,-106.875,29.7637,280.675
2015-09-20 00:00:00,2015-09-20 00:00:00,TMP,surface,-105.938,29.7637,283.264
2015-09-20 00:00:00,2015-09-20 00:00:00,TMP,surface,-105,29.7637,283.811
2015-09-20 00:00:00,2015-09-20 00:00:00,TMP,surface,-104.063,29.7637,283.864
2015-09-20 00:00:00,2015-09-20 00:00:00,TMP,surface,-103.125,29.7637,284.433
2015-09-20 00:00:00,2015-09-20 00:00:00,TMP,surface,-102.188,29.7637,285.568
2015-09-20 00:00:00,2015-09-20 00:00:00,TMP,surface,-101.25,29.7637,286.347
2015-09-20 00:00:00,2015-09-20 00:00:00,TMP,surface,-100.313,29.7637,285.861
2015-09-20 00:00:00,2015-09-20 00:00:00,TMP,surface,-99.3754,29.7637,285.358
2015-09-20 00:00:00,2015-09-20 00:00:00,TMP,surface,-98.4379,29.7637,285.36
2015-09-20 00:00:00,2015-09-20 00:00:00,TMP,surface,-97.5004,29.7637,285.697
2015-09-20 00:00:00,2015-09-20 00:00:00,TMP,surface,-96.5629,29.7637,286.179
2015-09-20 00:00:00,2015-09-20 00:00:00,TMP,surface,-95.6254,29.7637,286.805
2015-09-20 00:00:00,2015-09-20 00:00:00,TMP,surface,-94.6879,29.7637,288.875
2015-09-20 00:00:00,2015-09-20 00:00:00,TMP,surface,-93.7504,29.7637,291.382
2015-09-20 00:00:00,2015-09-20 00:00:00,TMP,surface,-92.8129,29.7637,288.707
2015-09-20 00:00:00,2015-09-20 00:00:00,TMP,surface,-107.813,30.7085,281.529
2015-09-20 00:00:00,2015-09-20 00:00:00,TMP,surface,-106.875,30.7085,282.861
2015-09-20 00:00:00,2015-09-20 00:00:00,TMP,surface,-105.938,30.7085,283.141
2015-09-20 00:00:00,2015-09-20 00:00:00,TMP,surface,-105,30.7085,282.873
2015-09-20 00:00:00,2015-09-20 00:00:00,TMP,surface,-104.063,30.7085,283.249
2015-09-20 00:00:00,2015-09-20 00:00:00,TMP,surface,-103.125,30.7085,284.693
2015-09-20 00:00:00,2015-09-20 00:00:00,TMP,surface,-102.188,30.7085,285.481
2015-09-20 00:00:00,2015-09-20 00:00:00,TMP,surface,-101.25,30.7085,285.405
2015-09-20 00:00:00,2015-09-20 00:00:00,TMP,surface,-100.313,30.7085,284.733
2015-09-20 00:00:00,2015-09-20 00:00:00,TMP,surface,-99.3754,30.7085,284.32
2015-09-20 00:00:00,2015-09-20 00:00:00,TMP,surface,-98.4379,30.7085,284.523
2015-09-20 00:00:00,2015-09-20 00:00:00,TMP,surface,-97.5004,30.7085,284.888
2015-09-20 00:00:00,2015-09-20 00:00:00,TMP,surface,-96.5629,30.7085,285.357
2015-09-20 00:00:00,2015-09-20 00:00:00,TMP,surface,-95.6254,30.7085,285.934
2015-09-20 00:00:00,2015-09-20 00:00:00,TMP,surface,-94.6879,30.7085,286.336
2015-09-20 00:00:00,2015-09-20 00:00:00,TMP,surface,-93.7504,30.7085,286.686
2015-09-20 00:00:00,2015-09-20 00:00:00,TMP,surface,-92.8129,30.7085,286.765
2015-09-20 00:00:00,2015-09-20 00:00:00,TMP,surface,-107.813,31.6534,282.169
2015-09-20 00:00:00,2015-09-20 00:00:00,TMP,surface,-106.875,31.6534,283.033
2015-09-20 00:00:00,2015-09-20 00:00:00,TMP,surface,-105.938,31.6534,282.32
2015-09-20 00:00:00,2015-09-20 00:00:00,TMP,surface,-105,31.6534,282.04
2015-09-20 00:00:00,2015-09-20 00:00:00,TMP,surface,-104.063,31.6534,282.963
2015-09-20 00:00:00,2015-09-20 00:00:00,TMP,surface,-103.125,31.6534,284.305
2015-09-20 00:00:00,2015-09-20 00:00:00,TMP,surface,-102.188,31.6534,284.897
2015-09-20 00:00:00,2015-09-20 00:00:00,TMP,surface,-101.25,31.6534,284.597
2015-09-20 00:00:00,2015-09-20 00:00:00,TMP,surface,-100.313,31.6534,284.171
2015-09-20 00:00:00,2015-09-20 00:00:00,TMP,surface,-99.3754,31.6534,283.977
2015-09-20 00:00:00,2015-09-20 00:00:00,TMP,surface,-98.4379,31.6534,284.051
2015-09-20 00:00:00,2015-09-20 00:00:00,TMP,surface,-97.5004,31.6534,284.262
2015-09-20 00:00:00,2015-09-20 00:00:00,TMP,surface,-96.5629,31.6534,284.737
2015-09-20 00:00:00,2015-09-20 00:00:00,TMP,surface,-95.6254,31.6534,285.233
2015-09-20 00:00:00,2015-09-20 00:00:00,TMP,surface,-94.6879,31.6534,285.358
2015-09-20 00:00:00,2015-09-20 00:00:00,TMP,surface,-93.7504,31.6534,285.529
2015-09-20 00:00:00,2015-09-20 00:00:00,TMP,surface,-92.8129,31.6534,285.84
2015-09-20 00:00:00,2015-09-20 00:00:00,TMP,surface,-107.813,32.5983,279.721
2015-09-20 00:00:00,2015-09-20 00:00:00,TMP,surface,-106.875,32.5983,280.357
2015-09-20 00:00:00,2015-09-20 00:00:00,TMP,surface,-105.938,32.5983,280.737
2015-09-20 00:00:00,2015-09-20 00:00:00,TMP,surface,-105,32.5983,281.169
2015-09-20 00:00:00,2015-09-20 00:00:00,TMP,surface,-104.063,32.5983,282.659
2015-09-20 00:00:00,2015-09-20 00:00:00,TMP,surface,-103.125,32.5983,283.721
2015-09-20 00:00:00,2015-09-20 00:00:00,TMP,surface,-102.188,32.5983,283.769
2015-09-20 00:00:00,2015-09-20 00:00:00,TMP,surface,-101.25,32.5983,283.707
2015-09-20 00:00:00,2015-09-20 00:00:00,TMP,surface,-100.313,32.5983,283.891
2015-09-20 00:00:00,2015-09-20 00:00:00,TMP,surface,-99.3754,32.5983,283.966
2015-09-20 00:00:00,2015-09-20 00:00:00,TMP,surface,-98.4379,32.5983,283.897
2015-09-20 00:00:00,2015-09-20 00:00:00,TMP,surface,-97.5004,32.5983,283.853
2015-09-20 00:00:00,2015-09-20 00:00:00,TMP,surface,-96.5629,32.5983,284.115
2015-09-20 00:00:00,2015-09-20 00:00:00,TMP,surface,-95.6254,32.5983,284.541
2015-09-20 00:00:00,2015-09-20 00:00:00,TMP,surface,-94.6879,32.5983,284.691
2015-09-20 00:00:00,2015-09-20 00:00:00,TMP,surface,-93.7504,32.5983,284.801
2015-09-20 00:00:00,2015-09-20 00:00:00,TMP,surface,-92.8129,32.5983,285.297
2015-09-20 00:00:00,2015-09-20 00:00:00,TMP,surface,-107.813,33.5432,276.313
2015-09-20 00:00:00,2015-09-20 00:00:00,TMP,surface,-106.875,33.5432,277.704
2015-09-20 00:00:00,2015-09-20 00:00:00,TMP,surface,-105.938,33.5432,278.998
2015-09-20 00:00:00,2015-09-20 00:00:00,TMP,surface,-105,33.5432,280.182
2015-09-20 00:00:00,2015-09-20 00:00:00,TMP,surface,-104.063,33.5432,281.947
2015-09-20 00:00:00,2015-09-20 00:00:00,TMP,surface,-103.125,33.5432,282.624
2015-09-20 00:00:00,2015-09-20 00:00:00,TMP,surface,-102.188,33.5432,282.489
2015-09-20 00:00:00,2015-09-20 00:00:00,TMP,surface,-101.25,33.5432,282.437
2015-09-20 00:00:00,2015-09-20 00:00:00,TMP,surface,-100.313,33.5432,282.923
2015-09-20 00:00:00,2015-09-20 00:00:00,TMP,surface,-99.3754,33.5432,283.273
2015-09-20 00:00:00,2015-09-20 00:00:00,TMP,surface,-98.4379,33.5432,283.237
2015-09-20 00:00:00,2015-09-20 00:00:00,TMP,surface,-97.5004,33.5432,283.046
2015-09-20 00:00:00,2015-09-20 00:00:00,TMP,surface,-96.5629,33.5432,283.121
2015-09-20 00:00:00,2015-09-20 00:00:00,TMP,surface,-95.6254,33.5432,283.547
2015-09-20 00:00:00,2015-09-20 00:00:00,TMP,surface,-94.6879,33.5432,283.893
2015-09-20 00:00:00,2015-09-20 00:00:00,TMP,surface,-93.7504,33.5432,284.019
2015-09-20 00:00:00,2015-09-20 00:00:00,TMP,surface,-92.8129,33.5432,284.453
2015-09-20 00:00:00,2015-09-20 00:00:00,TMP,surface,-107.813,34.4881,275.208
2015-09-20 00:00:00,2015-09-20 00:00:00,TMP,surface,-106.875,34.4881,276.784
2015-09-20 00:00:00,2015-09-20 00:00:00,TMP,surface,-105.938,34.4881,278.101
2015-09-20 00:00:00,2015-09-20 00:00:00,TMP,surface,-105,34.4881,279.536
2015-09-20 00:00:00,2015-09-20 00:00:00,TMP,surface,-104.063,34.4881,280.651
2015-09-20 00:00:00,2015-09-20 00:00:00,TMP,surface,-103.125,34.4881,281.381
2015-09-20 00:00:00,2015-09-20 00:00:00,TMP,surface,-102.188,34.4881,281.32
2015-09-20 00:00:00,2015-09-20 00:00:00,TMP,surface,-101.25,34.4881,281.414
2015-09-20 00:00:00,2015-09-20 00:00:00,TMP,surface,-100.313,34.4881,281.728
2015-09-20 00:00:00,2015-09-20 00:00:00,TMP,surface,-99.3754,34.4881,281.963
2015-09-20 00:00:00,2015-09-20 00:00:00,TMP,surface,-98.4379,34.4881,282.046
2015-09-20 00:00:00,2015-09-20 00:00:00,TMP,surface,-97.5004,34.4881,282.03
2015-09-20 00:00:00,2015-09-20 00:00:00,TMP,surface,-96.5629,34.4881,282.265
2015-09-20 00:00:00,2015-09-20 00:00:00,TMP,surface,-95.6254,34.4881,282.702
2015-09-20 00:00:00,2015-09-20 00:00:00,TMP,surface,-94.6879,34.4881,282.808
2015-09-20 00:00:00,2015-09-20 00:00:00,TMP,surface,-93.7504,34.4881,282.76
2015-09-20 00:00:00,2015-09-20 00:00:00,TMP,surface,-92.8129,34.4881,283.123
2015-09-20 00:00:00,2015-09-20 00:00:00,TMP,surface,-107.813,35.4329,275.598
2015-09-20 00:00:00,2015-09-20 00:00:00,TMP,surface,-106.875,35.4329,275.915
2015-09-20 00:00:00,2015-09-20 00:00:00,TMP,surface,-105.938,35.4329,276.389
2015-09-20 00:00:00,2015-09-20 00:00:00,TMP,surface,-105,35.4329,277.521
2015-09-20 00:00:00,2015-09-20 00:00:00,TMP,surface,-104.063,35.4329,279.683
2015-09-20 00:00:00,2015-09-20 00:00:00,TMP,surface,-103.125,35.4329,280.664
2015-09-20 00:00:00,2015-09-20 00:00:00,TMP,surface,-102.188,35.4329,280.665
2015-09-20 00:00:00,2015-09-20 00:00:00,TMP,surface,-101.25,35.4329,280.673
2015-09-20 00:00:00,2015-09-20 00:00:00,TMP,surface,-100.313,35.4329,280.71
2015-09-20 00:00:00,2015-09-20 00:00:00,TMP,surface,-99.3754,35.4329,280.699
2015-09-20 00:00:00,2015-09-20 00:00:00,TMP,surface,-98.4379,35.4329,280.819
2015-09-20 00:00:00,2015-09-20 00:00:00,TMP,surface,-97.5004,35.4329,281.091
2015-09-20 00:00:00,2015-09-20 00:00:00,TMP,surface,-96.5629,35.4329,281.366
2015-09-20 00:00:00,2015-09-20 00:00:00,TMP,surface,-95.6254,35.4329,281.574
2015-09-20 00:00:00,2015-09-20 00:00:00,TMP,surface,-94.6879,35.4329,281.577
2015-09-20 00:00:00,2015-09-20 00:00:00,TMP,surface,-93.7504,35.4329,281.344
2015-09-20 00:00:00,2015-09-20 00:00:00,TMP,surface,-92.8129,35.4329,281.533
2015-09-20 00:00:00,2015-09-20 00:00:00,TMP,surface,-107.813,36.3778,274.701
2015-09-20 00:00:00,2015-09-20 00:00:00,TMP,surface,-106.875,36.3778,273.091
2015-09-20 00:00:00,2015-09-20 00:00:00,TMP,surface,-105.938,36.3778,273.403
2015-09-20 00:00:00,2015-09-20 00:00:00,TMP,surface,-105,36.3778,275.416
2015-09-20 00:00:00,2015-09-20 00:00:00,TMP,surface,-104.063,36.3778,277.875
2015-09-20 00:00:00,2015-09-20 00:00:00,TMP,surface,-103.125,36.3778,278.917
2015-09-20 00:00:00,2015-09-20 00:00:00,TMP,surface,-102.188,36.3778,279.563
2015-09-20 00:00:00,2015-09-20 00:00:00,TMP,surface,-101.25,36.3778,279.787
2015-09-20 00:00:00,2015-09-20 00:00:00,TMP,surface,-100.313,36.3778,279.939
2015-09-20 00:00:00,2015-09-20 00:00:00,TMP,surface,-99.3754,36.3778,279.985
2015-09-20 00:00:00,2015-09-20 00:00:00,TMP,surface,-98.4379,36.3778,279.814
2015-09-20 00:00:00,2015-09-20 00:00:00,TMP,surface,-97.5004,36.3778,279.992
2015-09-20 00:00:00,2015-09-20 00:00:00,TMP,surface,-96.5629,36.3778,280.453
2015-09-20 00:00:00,2015-09-20 00:00:00,TMP,surface,-95.6254,36.3778,280.667
2015-09-20 00:00:00,2015-09-20 00:00:00,TMP,surface,-94.6879,36.3778,280.542
2015-09-20 00:00:00,2015-09-20 00:00:00,TMP,surface,-93.7504,36.3778,280.165
2015-09-20 00:00:00,2015-09-20 00:00:00,TMP,surface,-92.8129,36.3778,280.158
2015-09-20 00:00:00,2015-09-20 00:00:00,PRATE,surface,-107.813,25.0393,4.3e-05
2015-09-20 00:00:00,2015-09-20 00:00:00,PRATE,surface,-106.875,25.0393,6.28e-05
2015-09-20 00:00:00,2015-09-20 00:00:00,PRATE,surface,-105.938,25.0393,3.82e-05
2015-09-20 00:00:00,2015-09-20 00:00:00,PRATE,surface,-105,25.0393,7.5e-06
2015-09-20 00:00:00,2015-09-20 00:00:00,PRATE,surface,-104.063,25.0393,3.1e-06
2015-09-20 00:00:00,2015-09-20 00:00:00,PRATE,surface,-103.125,25.0393,1.3e-06
2015-09-20 00:00:00,2015-09-20 00:00:00,PRATE,surface,-102.188,25.0393,2.8e-06
2015-09-20 00:00:00,2015-09-20 00:00:00,PRATE,surface,-101.25,25.0393,1.4e-05
2015-09-20 00:00:00,2015-09-20 00:00:00,PRATE,surface,-100.313,25.0393,3.26e-05
2015-09-20 00:00:00,2015-09-20 00:00:00,PRATE,surface,-99.3754,25.0393,4.23e-05
2015-09-20 00:00:00,2015-09-20 00:00:00,PRATE,surface,-98.4379,25.0393,3.62e-05
2015-09-20 00:00:00,2015-09-20 00:00:00,PRATE,surface,-97.5004,25.0393,3.09e-05
2015-09-20 00:00:00,2015-09-20 00:00:00,PRATE,surface,-96.5629,25.0393,2.57e-05
2015-09-20 00:00:00,2015-09-20 00:00:00,PRATE,surface,-95.6254,25.0393,2.3e-05
2015-09-20 00:00:00,2015-09-20 00:00:00,PRATE,surface,-94.6879,25.0393,2.75e-05
2015-09-20 00:00:00,2015-09-20 00:00:00,PRATE,surface,-93.7504,25.0393,4.08e-05
2015-09-20 00:00:00,2015-09-20 00:00:00,PRATE,surface,-92.8129,25.0393,4.09e-05
2015-09-20 00:00:00,2015-09-20 00:00:00,PRATE,surface,-107.813,25.9842,6.98e-05
2015-09-20 00:00:00,2015-09-20 00:00:00,PRATE,surface,-106.875,25.9842,6.75e-05
2015-09-20 00:00:00,2015-09-20 00:00:00,PRATE,surface,-105.938,25.9842,2.4e-05
2015-09-20 00:00:00,2015-09-20 00:00:00,PRATE,surface,-105,25.9842,8.8e-06
2015-09-20 00:00:00,2015-09-20 00:00:00,PRATE,surface,-104.063,25.9842,6.8e-06
2015-09-20 00:00:00,2015-09-20 00:00:00,PRATE,surface,-103.125,25.9842,1.11e-05
2015-09-20 00:00:00,2015-09-20 00:00:00,PRATE,surface,-102.188,25.9842,1.59e-05
2015-09-20 00:00:00,2015-09-20 00:00:00,PRATE,surface,-101.25,25.9842,2.24e-05
2015-09-20 00:00:00,2015-09-20 00:00:00,PRATE,surface,-100.313,25.9842,4.05e-05
2015-09-20 00:00:00,2015-09-20 00:00:00,PRATE,surface,-99.3754,25.9842,3.93e-05
2015-09-20 00:00:00,2015-09-20 00:00:00,PRATE,surface,-98.4379,25.9842,3.49e-05
2015-09-20 00:00:00,2015-09-20 00:00:00,PRATE,surface,-97.5004,25.9842,4.59e-05
2015-09-20 00:00:00,2015-09-20 00:00:00,PRATE,surface,-96.5629,25.9842,5.68e-05
2015-09-20 00:00:00,2015-09-20 00:00:00,PRATE,surface,-95.6254,25.9842,5.02e-05
2015-09-20 00:00:00,2015-09-20 00:00:00,PRATE,surface,-94.6879,25.9842,4.29e-05
2015-09-20 00:00:00,2015-09-20 00:00:00,PRATE,surface,-93.7504,25.9842,4.78e-05
2015-09-20 00:00:00,2015-09-20 00:00:00,PRATE,surface,-92.8129,25.9842,5.16e-05
2015-09-20 00:00:00,2015-09-20 00:00:00,PRATE,surface,-107.813,26.929,8.7e-05
2015-09-20 00:00:00,2015-09-20 00:00:00,PRATE,surface,-106.875,26.929,4.75e-05
2015-09-20 00:00:00,2015-09-20 00:00:00,PRATE,surface,-105.938,26.929,1.68e-05
2015-09-20 00:00:00,2015-09-20 00:00:00,PRATE,surface,-105,26.929,1.24e-05
2015-09-20 00:00:00,2015-09-20 00:00:00,PRATE,surface,-104.063,26.929,1.4e-05
2015-09-20 00:00:00,2015-09-20 00:00:00,PRATE,surface,-103.125,26.929,2.49e-05
2015-09-20 00:00:00,2015-09-20 00:00:00,PRATE,surface,-102.188,26.929,3.35e-05
2015-09-20 00:00:00,2015-09-20 00:00:00,PRATE,surface,-101.25,26.929,3.45e-05
2015-09-20 00:00:00,2015-09-20 00:00:00,PRATE,surface,-100.313,26.929,3.03e-05
2015-09-20 00:00:00,2015-09-20 00:00:00,PRATE,surface,-99.3754,26.929,2.97e-05
2015-09-20 00:00:00,2015-09-20 00:00:00,PRATE,surface,-98.4379,26.929,3.77e-05
2015-09-20 00:00:00,2015-09-20 00:00:00,PRATE,surface,-97.5004,26.929,5.18e-05
2015-09-20 00:00:00,2015-09-20 00:00:00,PRATE,surface,-96.5629,26.929,6.03e-05
2015-09-20 00:00:00,2015-09-20 00:00:00,PRATE,surface,-95.6254,26.929,6.19e-05
2015-09-20 00:00:00,2015-09-20 00:00:00,PRATE,surface,-94.6879,26.929,5.2e-05
2015-09-20 00:00:00,2015-09-20 00:00:00,PRATE,surface,-93.7504,26.929,5.5e-05
2015-09-20 00:00:00,2015-09-20 00:00:00,PRATE,surface,-92.8129,26.929,5.57e-05
2015-09-20 00:00:00,2015-09-20 00:00:00,PRATE,surface,-107.813,27.8739,7.51e-05
2015-09-20 00:00:00,2015-09-20 00:00:00,PRATE,surface,-106.875,27.8739,3.41e-05
2015-09-20 00:00:00,2015-09-20 00:00:00,PRATE,surface,-105.938,27.8739,1.48e-05
2015-09-20 00:00:00,2015-09-20 00:00:00,PRATE,surface,-105,27.8739,7.8e-06
2015-09-20 00:00:00,2015-09-20 00:00:00,PRATE,surface,-104.063,27.8739,1.33e-05
2015-09-20 00:00:00,2015-09-20 00:00:00,PRATE,surface,-103.125,27.8739,2.61e-05
2015-09-20 00:00:00,2015-09-20 00:00:00,PRATE,surface,-102.188,27.8739,3.12e-05
2015-09-20 00:00:00,2015-09-20 00:00:00,PRATE,surface,-101.25,27.8739,2.25e-05
2015-09-20 00:00:00,2015-09-20 00:00:00,PRATE,surface,-100.313,27.8739,2.58e-05
2015-09-20 00:00:00,2015-09-20 00:00:00,PRATE,surface,-99.3754,27.8739,3.86e-05
2015-09-20 00:00:00,2015-09-20 00:00:00,PRATE,surface,-98.4379,27.8739,4.8e-05
2015-09-20 00:00:00,2015-09-20 00:00:00,PRATE,surface,-97.5004,27.8739,4.94e-05
2015-09-20 00:00:00,2015-09-20 00:00:00,PRATE,surface,-96.5629,27.8739,5.05e-05
2015-09-20 00:00:00,2015-09-20 00:00:00,PRATE,surface,-95.6254,27.8739,5.56e-05
2015-09-20 00:00:00,2015-09-20 00:00:00,PRATE,surface,-94.6879,27.8739,6e-05
2015-09-20 00:00:00,2015-09-20 00:00:00,PRATE,surface,-93.7504,27.8739,6.09e-05
2015-09-20 00:00:00,2015-09-20 00:00:00,PRATE,surface,-92.8129,27.8739,6e-05
2015-09-20 00:00:00,2015-09-20 00:00:00,PRATE,surface,-107.813,28.8188,5.51e-05
2015-09-20 00:00:00,2015-09-20 00:00:00,PRATE,surface,-106.875,28.8188,2.76e-05
2015-09-20 00:00:00,2015-09-20 00:00:00,PRATE,surface,-105.938,28.8188,1.64e-05
2015-09-20 00:00:00,2015-09-20 00:00:00,PRATE,surface,-105,28.8188,9.4e-06
2015-09-20 00:00:00,2015-09-20 00:00:00,PRATE,surface,-104.063,28.8188,1.61e-05
2015-09-20 00:00:00,2015-09-20 00:00:00,PRATE,surface,-103.125,28.8188,2.14e-05
2015-09-20 00:00:00,2015-09-20 00:00:00,PRATE,surface,-102.188,28.8188,2.09e-05
2015-09-20 00:00:00,2015-09-20 00:00:00,PRATE,surface,-101.25,28.8188,2.44e-05
2015-09-20 00:00:00,2015-09-20 00:00:00,PRATE,surface,-100.313,28.8188,3.35e-05
2015-09-20 00:00:00,2015-09-20 00:00:00,PRATE,surface,-99.3754,28.8188,4.79e-05
2015-09-20 00:00:00,2015-09-20 00:00:00,PRATE,surface,-98.4379,28.8188,5.48e-05
2015-09-20 00:00:00,2015-09-20 00:00:00,PRATE,surface,-97.5004,28.8188,5.07e-05
2015-09-20 00:00:00,2015-09-20 00:00:00,PRATE,surface,-96.5629,28.8188,4.95e-05
2015-09-20 00:00:00,2015-09-20 00:00:00,PRATE,surface,-95.6254,28.8188,5.87e-05
2015-09-20 00:00:00,2015-09-20 00:00:00,PRATE,surface,-94.6879,28.8188,7.06e-05
2015-09-20 00:00:00,2015-09-20 00:00:00,PRATE,surface,-93.7504,28.8188,8.17e-05
2015-09-20 00:00:00,2015-09-20 00:00:00,PRATE,surface,-92.8129,28.8188,8.91e-05
2015-09-20 00:00:00,2015-09-20 00:00:00,PRATE,surface,-107.813,29.7637,3.59e-05
2015-09-20 00:00:00,2015-09-20 00:00:00,PRATE,surface,-106.875,29.7637,2.35e-05
2015-09-20 00:00:00,2015-09-20 00:00:00,PRATE,surface,-105.938,29.7637,1.6e-05
2015-09-20 00:00:00,2015-09-20 00:00:00,PRATE,surface,-105,29.7637,1.2e-05
2015-09-20 00:00:00,2015-09-20 00:00:00,PRATE,surface,-104.063,29.7637,1.28e-05
2015-09-20 00:00:00,2015-09-20 00:00:00,PRATE,surface,-103.125,29.7637,1.15e-05
2015-09-20 00:00:00,2015-09-20 00:00:00,PRATE,surface,-102.188,29.7637,1.3e-05
2015-09-20 00:00:00,2015-09-20 00:00:00,PRATE,surface,-101.25,29.7637,1.46e-05
2015-09-20 00:00:00,2015-09-20 00:00:00,PRATE,surface,-100.313,29.7637,3.05e-05
2015-09-20 00:00:00,2015-09-20 00:00:00,PRATE,surface,-99.3754,29.7637,4.69e-05
2015-09-20 00:00:00,2015-09-20 00:00:00,PRATE,surface,-98.4379,29.7637,5.62e-05
2015-09-20 00:00:00,2015-09-20 00:00:00,PRATE,surface,-97.5004,29.7637,5.57e-05
2015-09-20 00:00:00,2015-09-20 00:00:00,PRATE,surface,-96.5629,29.7637,5.76e-05
2015-09-20 00:00:00,2015-09-20 00:00:00,PRATE,surface,-95.6254,29.7637,7e-05
2015-09-20 00:00:00,2015-09-20 00:00:00,PRATE,surface,-94.6879,29.7637,8.59e-05
2015-09-20 00:00:00,2015-09-20 00:00:00,PRATE,surface,-93.7504,29.7637,0.0001004
2015-09-20 00:00:00,2015-09-20 00:00:00,PRATE,surface,-92.8129,29.7637,0.0001005
2015-09-20 00:00:00,2015-09-20 00:00:00,PRATE,surface,-107.813,30.7085,2.34e-05
2015-09-20 00:00:00,2015-09-20 00:00:00,PRATE,surface,-106.875,30.7085,1.76e-05
2015-09-20 00:00:00,2015-09-20 00:00:00,PRATE,surface,-105.938,30.7085,1.56e-05
2015-09-20 00:00:00,2015-09-20 00:00:00,PRATE,surface,-105,30.7085,1.47e-05
2015-09-20 00:00:00,2015-09-20 00:00:00,PRATE,surface,-104.063,30.7085,1.44e-05
2015-09-20 00:00:00,2015-09-20 00:00:00,PRATE,surface,-103.125,30.7085,9.7e-06
2015-09-20 00:00:00,2015-09-20 00:00:00,PRATE,surface,-102.188,30.7085,9.3e-06
2015-09-20 00:00:00,2015-09-20 00:00:00,PRATE,surface,-101.25,30.7085,1.43e-05
2015-09-20 00:00:00,2015-09-20 00:00:00,PRATE,surface,-100.313,30.7085,2.89e-05
2015-09-20 00:00:00,2015-09-20 00:00:00,PRATE,surface,-99.3754,30.7085,4.55e-05
2015-09-20 00:00:00,2015-09-20 00:00:00,PRATE,surface,-98.4379,30.7085,5.66e-05
2015-09-20 00:00:00,2015-09-20 00:00:00,PRATE,surface,-97.5004,30.7085,5.97e-05
2015-09-20 00:00:00,2015-09-20 00:00:00,PRATE,surface,-96.5629,30.7085,6.23e-05
2015-09-20 00:00:00,2015-09-20 00:00:00,PRATE,surface,-95.6254,30.7085,7.38e-05
2015-09-20 00:00:00,2015-09-20 00:00:00,PRATE,surface,-94.6879,30.7085,9.55e-05
2015-09-20 00:00:00,2015-09-20 00:00:00,PRATE,surface,-93.7504,30.7085,0.0001178
2015-09-20 00:00:00,2015-09-20 00:00:00,PRATE,surface,-92.8129,30.7085,0.0001182
2015-09-20 00:00:00,2015-09-20 00:00:00,PRATE,surface,-107.813,31.6534,1.65e-05
2015-09-20 00:00:00,2015-09-20 00:00:00,PRATE,surface,-106.875,31.6534,1.23e-05
2015-09-20 00:00:00,2015-09-20 00:00:00,PRATE,surface,-105.938,31.6534,1.42e-05
2015-09-20 00:00:00,2015-09-20 00:00:00,PRATE,surface,-105,31.6534,1.74e-05
2015-09-20 00:00:00,2015-09-20 00:00:00,PRATE,surface,-104.063,31.6534,1.52e-05
2015-09-20 00:00:00,2015-09-20 00:00:00,PRATE,surface,-103.125,31.6534,1.29e-05
2015-09-20 00:00:00,2015-09-20 00:00:00,PRATE,surface,-102.188,31.6534,1.25e-05
2015-09-20 00:00:00,2015-09-20 00:00:00,PRATE,surface,-101.25,31.6534,1.65e-05
2015-09-20 00:00:00,2015-09-20 00:00:00,PRATE,surface,-100.313,31.6534,2.41e-05
2015-09-20 00:00:00,2015-09-20 00:00:00,PRATE,surface,-99.3754,31.6534,3.14e-05
2015-09-20 00:00:00,2015-09-20 00:00:00,PRATE,surface,-98.4379,31.6534,3.98e-05
2015-09-20 00:00:00,2015-09-20 00:00:00,PRATE,surface,-97.5004,31.6534,5.25e-05
2015-09-20 00:00:00,2015-09-20 00:00:00,PRATE,surface,-96.5629,31.6534,6.43e-05
2015-09-20 00:00:00,2015-09-20 00:00:00,PRATE,surface,-95.6254,31.6534,7.77e-05
2015-09-20 00:00:00,2015-09-20 00:00:00,PRATE,surface,-94.6879,31.6534,9.87e-05
2015-09-20 00:00:00,2015-09-20 00:00:00,PRATE,surface,-93.7504,31.6534,0.0001167
2015-09-20 00:00:00,2015-09-20 00:00:00,PRATE,surface,-92.8129,31.6534,0.0001269
2015-09-20 00:00:00,2015-09-20 00:00:00,PRATE,surface,-107.813,32.5983,2.85e-05
2015-09-20 00:00:00,2015-09-20 00:00:00,PRATE,surface,-106.875,32.5983,2.34e-05
2015-09-20 00:00:00,2015-09-20 00:00:00,PRATE,surface,-105.938,32.5983,2.11e-05
2015-09-20 00:00:00,2015-09-20 00:00:00,PRATE,surface,-105,32.5983,1.95e-05
2015-09-20 00:00:00,2015-09-20 00:00:00,PRATE,surface,-104.063,32.5983,2.07e-05
2015-09-20 00:00:00,2015-09-20 00:00:00,PRATE,surface,-103.125,32.5983,1.97e-05
2015-09-20 00:00:00,2015-09-20 00:00:00,PRATE,surface,-102.188,32.5983,2.07e-05
2015-09-20 00:00:00,2015-09-20 00:00:00,PRATE,surface,-101.25,32.5983,2.43e-05
2015-09-20 00:00:00,2015-09-20 00:00:00,PRATE,surface,-100.313,32.5983,2.58e-05
2015-09-20 00:00:00,2015-09-20 00:00:00,PRATE,surface,-99.3754,32.5983,2.94e-05
2015-09-20 00:00:00,2015-09-20 00:00:00,PRATE,surface,-98.4379,32.5983,3.72e-05
2015-09-20 00:00:00,2015-09-20 00:00:00,PRATE,surface,-97.5004,32.5983,4.91e-05
2015-09-20 00:00:00,2015-09-20 00:00:00,PRATE,surface,-96.5629,32.5983,5.83e-05
2015-09-20 00:00:00,2015-09-20 00:00:00,PRATE,surface,-95.6254,32.5983,6.54e-05
2015-09-20 00:00:00,2015-09-20 00:00:00,PRATE,surface,-94.6879,32.5983,7.68e-05
2015-09-20 00:00:00,2015-09-20 00:00:00,PRATE,surface,-93.7504,32.5983,8.64e-05
2015-09-20 00:00:00,2015-09-20 00:00:00,PRATE,surface,-92.8129,32.5983,9.36e-05
2015-09-20 00:00:00,2015-09-20 00:00:00,PRATE,surface,-107.813,33.5432,4.89e-05
2015-09-20 00:00:00,2015-09-20 00:00:00,PRATE,surface,-106.875,33.5432,3.71e-05
2015-09-20 00:00:00,2015-09-20 00:00:00,PRATE,surface,-105.938,33.5432,2.91e-05
2015-09-20 00:00:00,2015-09-20 00:00:00,PRATE,surface,-105,33.5432,2.21e-05
2015-09-20 00:00:00,2015-09-20 00:00:00,PRATE,surface,-104.063,33.5432,2.1e-05
2015-09-20 00:00:00,2015-09-20 00:00:00,PRATE,surface,-103.125,33.5432,2.2e-05
2015-09-20 00:00:00,2015-09-20 00:00:00,PRATE,surface,-102.188,33.5432,2.8e-05
2015-09-20 00:00:00,2015-09-20 00:00:00,PRATE,surface,-101.25,33.5432,3.31e-05
2015-09-20 00:00:00,2015-09-20 00:00:00,PRATE,surface,-100.313,33.5432,3.14e-05
2015-09-20 00:00:00,2015-09-20 00:00:00,PRATE,surface,-99.3754,33.5432,2.8e-05
2015-09-20 00:00:00,2015-09-20 00:00:00,PRATE,surface,-98.4379,33.5432,3.43e-05
2015-09-20 00:00:00,2015-09-20 00:00:00,PRATE,surface,-97.5004,33.5432,4.6e-05
2015-09-20 00:00:00,2015-09-20 00:00:00,PRATE,surface,-96.5629,33.5432,5.31e-05
2015-09-20 00:00:00,2015-09-20 00:00:00,PRATE,surface,-95.6254,33.5432,5.87e-05
2015-09-20 00:00:00,2015-09-20 00:00:00,PRATE,surface,-94.6879,33.5432,6.78e-05
2015-09-20 00:00:00,2015-09-20 00:00:00,PRATE,surface,-93.7504,33.5432,7.3e-05
2015-09-20 00:00:00,2015-09-20 00:00:00,PRATE,surface,-92.8129,33.5432,6.9e-05
2015-09-20 00:00:00,2015-09-20 00:00:00,PRATE,surface,-107.813,34.4881,3.93e-05
2015-09-20 00:00:00,2015-09-20 00:00:00,PRATE,surface,-106.875,34.4881,3.18e-05
2015-09-20 00:00:00,2015-09-20 00:00:00,PRATE,surface,-105.938,34.4881,2.67e-05
2015-09-20 00:00:00,2015-09-20 00:00:00,PRATE,surface,-105,34.4881,2.2e-05
2015-09-20 00:00:00,2015-09-20 00:00:00,PRATE,surface,-104.063,34.4881,1.94e-05
2015-09-20 00:00:00,2015-09-20 00:00:00,PRATE,surface,-103.125,34.4881,2.02e-05
2015-09-20 00:00:00,2015-09-20 00:00:00,PRATE,surface,-102.188,34.4881,2.15e-05
2015-09-20 00:00:00,2015-09-20 00:00:00,PRATE,surface,-101.25,34.4881,2.53e-05
2015-09-20 00:00:00,2015-09-20 00:00:00,PRATE,surface,-100.313,34.4881,2.98e-05
2015-09-20 00:00:00,2015-09-20 00:00:00,PRATE,surface,-99.3754,34.4881,3.41e-05
2015-09-20 00:00:00,2015-09-20 00:00:00,PRATE,surface,-98.4379,34.4881,3.75e-05
2015-09-20 00:00:00,2015-09-20 00:00:00,PRATE,surface,-97.5004,34.4881,4.28e-05
2015-09-20 00:00:00,2015-09-20 00:00:00,PRATE,surface,-96.5629,34.4881,4.68e-05
2015-09-20 00:00:00,2015-09-20 00:00:00,PRATE,surface,-95.6254,34.4881,4.91e-05
2015-09-20 00:00:00,2015-09-20 00:00:00,PRATE,surface,-94.6879,34.4881,5.71e-05
2015-09-20 00:00:00,2015-09-20 00:00:00,PRATE,surface,-93.7504,34.4881,6.87e-05
2015-09-20 00:00:00,2015-09-20 00:00:00,PRATE,surface,-92.8129,34.4881,7.22e-05
2015-09-20 00:00:00,2015-09-20 00:00:00,PRATE,surface,-107.813,35.4329,2.96e-05
2015-09-20 00:00:00,2015-09-20 00:00:00,PRATE,surface,-106.875,35.4329,2.69e-05
2015-09-20 00:00:00,2015-09-20 00:00:00,PRATE,surface,-105.938,35.4329,2.65e-05
2015-09-20 00:00:00,2015-09-20 00:00:00,PRATE,surface,-105,35.4329,2.39e-05
2015-09-20 00:00:00,2015-09-20 00:00:00,PRATE,surface,-104.063,35.4329,2.15e-05
2015-09-20 00:00:00,2015-09-20 00:00:00,PRATE,surface,-103.125,35.4329,2.07e-05
2015-09-20 00:00:00,2015-09-20 00:00:00,PRATE,surface,-102.188,35.4329,2.38e-05
2015-09-20 00:00:00,2015-09-20 00:00:00,PRATE,surface,-101.25,35.4329,2.73e-05
2015-09-20 00:00:00,2015-09-20 00:00:00,PRATE,surface,-100.313,35.4329,3.17e-05
2015-09-20 00:00:00,2015-09-20 00:00:00,PRATE,surface,-99.3754,35.4329,3.51e-05
2015-09-20 00:00:00,2015-09-20 00:00:00,PRATE,surface,-98.4379,35.4329,3.36e-05
2015-09-20 00:00:00,2015-09-20 00:00:00,PRATE,surface,-97.5004,35.4329,3.08e-05
2015-09-20 00:00:00,2015-09-20 00:00:00,PRATE,surface,-96.5629,35.4329,3.11e-05
2015-09-20 00:00:00,2015-09-20 00:00:00,PRATE,surface,-95.6254,35.4329,3.45e-05
2015-09-20 00:00:00,2015-09-20 00:00:00,PRATE,surface,-94.6879,35.4329,4.02e-05
2015-09-20 00:00:00,2015-09-20 00:00:00,PRATE,surface,-93.7504,35.4329,4.86e-05
2015-09-20 00:00:00,2015-09-20 00:00:00,PRATE,surface,-92.8129,35.4329,5.75e-05
2015-09-20 00:00:00,2015-09-20 00:00:00,PRATE,surface,-107.813,36.3778,4.41e-05
2015-09-20 00:00:00,2015-09-20 00:00:00,PRATE,surface,-106.875,36.3778,4.58e-05
2015-09-20 00:00:00,2015-09-20 00:00:00,PRATE,surface,-105.938,36.3778,4.25e-05
2015-09-20 00:00:00,2015-09-20 00:00:00,PRATE,surface,-105,36.3778,3.58e-05
2015-09-20 00:00:00,2015-09-20 00:00:00,PRATE,surface,-104.063,36.3778,3.49e-05
2015-09-20 00:00:00,2015-09-20 00:00:00,PRATE,surface,-103.125,36.3778,3.61e-05
2015-09-20 00:00:00,2015-09-20 00:00:00,PRATE,surface,-102.188,36.3778,3.63e-05
2015-09-20 00:00:00,2015-09-20 00:00:00,PRATE,surface,-101.25,36.3778,3.23e-05
2015-09-20 00:00:00,2015-09-20 00:00:00,PRATE,surface,-100.313,36.3778,2.59e-05
2015-09-20 00:00:00,2015-09-20 00:00:00,PRATE,surface,-99.3754,36.3778,2.28e-05
2015-09-20 00:00:00,2015-09-20 00:00:00,PRATE,surface,-98.4379,36.3778,2.31e-05
2015-09-20 00:00:00,2015-09-20 00:00:00,PRATE,surface,-97.5004,36.3778,2.19e-05
2015-09-20 00:00:00,2015-09-20 00:00:00,PRATE,surface,-96.5629,36.3778,2.17e-05
2015-09-20 00:00:00,2015-09-20 00:00:00,PRATE,surface,-95.6254,36.3778,2.5e-05
2015-09-20 00:00:00,2015-09-20 00:00:00,PRATE,surface,-94.6879,36.3778,2.84e-05
2015-09-20 00:00:00,2015-09-20 00:00:00,PRATE,surface,-93.7504,36.3778,3.64e-05
2015-09-20 00:00:00,2015-09-20 00:00:00,PRATE,surface,-92.8129,36.3778,4.79e-05
