2013-04-16 00:00:00,2013-04-16 00:00:00,TMP,surface,-107.813,25.0393,296.947
2013-04-16 00:00:00,2013-04-16 00:00:00,TMP,surface,-106.875,25.0393,289.724
2013-04-16 00:00:00,2013-04-16 00:00:00,TMP,surface,-105.938,25.0393,283.774
2013-04-16 00:00:00,2013-04-16 00:00:00,TMP,surface,-105,25.0393,283.113
2013-04-16 00:00:00,2013-04-16 00:00:00,TMP,surface,-104.063,25.0393,286.74
2013-04-16 00:00:00,2013-04-16 00:00:00,TMP,surface,-103.125,25.0393,289.03
2013-04-16 00:00:00,2013-04-16 00:00:00,TMP,surface,-102.188,25.0393,288.355
2013-04-16 00:00:00,2013-04-16 00:00:00,TMP,surface,-101.25,25.0393,287.299
2013-04-16 00:00:00,2013-04-16 00:00:00,TMP,surface,-100.313,25.0393,287.952
2013-04-16 00:00:00,2013-04-16 00:00:00,TMP,surface,-99.3754,25.0393,291.38
2013-04-16 00:00:00,2013-04-16 00:00:00,TMP,surface,-98.4379,25.0393,295.124
2013-04-16 00:00:00,2013-04-16 00:00:00,TMP,surface,-97.5004,25.0393,299.499
2013-04-16 00:00:00,2013-04-16 00:00:00,TMP,surface,-96.5629,25.0393,299.784
2013-04-16 00:00:00,2013-04-16 00:00:00,TMP,surface,-95.6254,25.0393,299.591
2013-04-16 00:00:00,2013-04-16 00:00:00,TMP,surface,-94.6879,25.0393,299.526
2013-04-16 00:00:00,2013-04-16 00:00:00,TMP,surface,-93.7504,25.0393,299.315
2013-04-16 00:00:00,2013-04-16 00:00:00,TMP,surface,-92.8129,25.0393,299.159
2013-04-16 00:00:00,2013-04-16 00:00:00,TMP,surface,-107.813,25.9842,291.403
2013-04-16 00:00:00,2013-04-16 00:00:00,TMP,surface,-106.875,25.9842,285.12
2013-04-16 00:00:00,2013-04-16 00:00:00,TMP,surface,-105.938,25.9842,282.249
2013-04-16 00:00:00,2013-04-16 00:00:00,TMP,surface,-105,25.9842,285.608
2013-04-16 00:00:00,2013-04-16 00:00:00,TMP,surface,-104.063,25.9842,289.332
2013-04-16 00:00:00,2013-04-16 00:00:00,TMP,surface,-103.125,25.9842,289.996
2013-04-16 00:00:00,2013-04-16 00:00:00,TMP,surface,-102.188,25.9842,289.206
2013-04-16 00:00:00,2013-04-16 00:00:00,TMP,surface,-101.25,25.9842,289.284
2013-04-16 00:00:00,2013-04-16 00:00:00,TMP,surface,-100.313,25.9842,289.889
2013-04-16 00:00:00,2013-04-16 00:00:00,TMP,surface,-99.3754,25.9842,293.284
2013-04-16 00:00:00,2013-04-16 00:00:00,TMP,surface,-98.4379,25.9842,295.526
2013-04-16 00:00:00,2013-04-16 00:00:00,TMP,surface,-97.5004,25.9842,296.166
2013-04-16 00:00:00,2013-04-16 00:00:00,TMP,surface,-96.5629,25.9842,299.329
2013-04-16 00:00:00,2013-04-16 00:00:00,TMP,surface,-95.6254,25.9842,299.337
2013-04-16 00:00:00,2013-04-16 00:00:00,TMP,surface,-94.6879,25.9842,299.377
2013-04-16 00:00:00,2013-04-16 00:00:00,TMP,surface,-93.7504,25.9842,299.3
2013-04-16 00:00:00,2013-04-16 00:00:00,TMP,surface,-92.8129,25.9842,299.263
2013-04-16 00:00:00,2013-04-16 00:00:00,TMP,surface,-107.813,26.929,286.108
2013-04-16 00:00:00,2013-04-16 00:00:00,TMP,surface,-106.875,26.929,282.24
2013-04-16 00:00:00,2013-04-16 00:00:00,TMP,surface,-105.938,26.929,284.39
2013-04-16 00:00:00,2013-04-16 00:00:00,TMP,surface,-105,26.929,288.177
2013-04-16 00:00:00,2013-04-16 00:00:00,TMP,surface,-104.063,26.929,289.326
2013-04-16 00:00:00,2013-04-16 00:00:00,TMP,surface,-103.125,26.929,288.83
2013-04-16 00:00:00,2013-04-16 00:00:00,TMP,surface,-102.188,26.929,288.787
2013-04-16 00:00:00,2013-04-16 00:00:00,TMP,surface,-101.25,26.929,289.739
2013-04-16 00:00:00,2013-04-16 00:00:00,TMP,surface,-100.313,26.929,291.15
2013-04-16 00:00:00,2013-04-16 00:00:00,TMP,surface,-99.3754,26.929,293.363
2013-04-16 00:00:00,2013-04-16 00:00:00,TMP,surface,-98.4379,26.929,294.052
2013-04-16 00:00:00,2013-04-16 00:00:00,TMP,surface,-97.5004,26.929,298.067
2013-04-16 00:00:00,2013-04-16 00:00:00,TMP,surface,-96.5629,26.929,298.708
2013-04-16 00:00:00,2013-04-16 00:00:00,TMP,surface,-95.6254,26.929,299.12
2013-04-16 00:00:00,2013-04-16 00:00:00,TMP,surface,-94.6879,26.929,299.216
2013-04-16 00:00:00,2013-04-16 00:00:00,TMP,surface,-93.7504,26.929,299.041
2013-04-16 00:00:00,2013-04-16 00:00:00,TMP,surface,-92.8129,26.929,298.939
2013-04-16 00:00:00,2013-04-16 00:00:00,TMP,surface,-107.813,27.8739,283.084
2013-04-16 00:00:00,2013-04-16 00:00:00,TMP,surface,-106.875,27.8739,282.606
2013-04-16 00:00:00,2013-04-16 00:00:00,TMP,surface,-105.938,27.8739,285.983
2013-04-16 00:00:00,2013-04-16 00:00:00,TMP,surface,-105,27.8739,288.404
2013-04-16 00:00:00,2013-04-16 00:00:00,TMP,surface,-104.063,27.8739,287.993
2013-04-16 00:00:00,2013-04-16 00:00:00,TMP,surface,-103.125,27.8739,287.583
2013-04-16 00:00:00,2013-04-16 00:00:00,TMP,surface,-102.188,27.8739,287.724
2013-04-16 00:00:00,2013-04-16 00:00:00,TMP,surface,-101.25,27.8739,289.006
2013-04-16 00:00:00,2013-04-16 00:00:00,TMP,surface,-100.313,27.8739,290.827
2013-04-16 00:00:00,2013-04-16 00:00:00,TMP,surface,-99.3754,27.8739,291.759
2013-04-16 00:00:00,2013-04-16 00:00:00,TMP,surface,-98.4379,27.8739,292.196
2013-04-16 00:00:00,2013-04-16 00:00:00,TMP,surface,-97.5004,27.8739,295.249
2013-04-16 00:00:00,2013-04-16 00:00:00,TMP,surface,-96.5629,27.8739,298.318
2013-04-16 00:00:00,2013-04-16 00:00:00,TMP,surface,-95.6254,27.8739,298.576
2013-04-16 00:00:00,2013-04-16 00:00:00,TMP,surface,-94.6879,27.8739,298.431
2013-04-16 00:00:00,2013-04-16 00:00:00,TMP,surface,-93.7504,27.8739,298.179
2013-04-16 00:00:00,2013-04-16 00:00:00,TMP,surface,-92.8129,27.8739,298.046
2013-04-16 00:00:00,2013-04-16 00:00:00,TMP,surface,-107.813,28.8188,281.974
2013-04-16 00:00:00,2013-04-16 00:00:00,TMP,surface,-106.875,28.8188,283.107
2013-04-16 00:00:00,2013-04-16 00:00:00,TMP,surface,-105.938,28.8188,286.199
2013-04-16 00:00:00,2013-04-16 00:00:00,TMP,surface,-105,28.8188,287.513
2013-04-16 00:00:00,2013-04-16 00:00:00,TMP,surface,-104.063,28.8188,287.118
2013-04-16 00:00:00,2013-04-16 00:00:00,TMP,surface,-103.125,28.8188,286.96
2013-04-16 00:00:00,2013-04-16 00:00:00,TMP,surface,-102.188,28.8188,287.201
2013-04-16 00:00:00,2013-04-16 00:00:00,TMP,surface,-101.25,28.8188,288.318
2013-04-16 00:00:00,2013-04-16 00:00:00,TMP,surface,-100.313,28.8188,289.211
2013-04-16 00:00:00,2013-04-16 00:00:00,TMP,surface,-99.3754,28.8188,289.179
2013-04-16 00:00:00,2013-04-16 00:00:00,TMP,surface,-98.4379,28.8188,289.436
2013-04-16 00:00:00,2013-04-16 00:00:00,TMP,surface,-97.5004,28.8188,290.319
2013-04-16 00:00:00,2013-04-16 00:00:00,TMP,surface,-96.5629,28.8188,291.307
2013-04-16 00:00:00,2013-04-16 00:00:00,TMP,surface,-95.6254,28.8188,294.049
2013-04-16 00:00:00,2013-04-16 00:00:00,TMP,surface,-94.6879,28.8188,297.56
2013-04-16 00:00:00,2013-04-16 00:00:00,TMP,surface,-93.7504,28.8188,297.249
2013-04-16 00:00:00,2013-04-16 00:00:00,TMP,surface,-92.8129,28.8188,297.207
2013-04-16 00:00:00,2013-04-16 00:00:00,TMP,surface,-107.813,29.7637,283.54
2013-04-16 00:00:00,2013-04-16 00:00:00,TMP,surface,-106.875,29.7637,284.467
2013-04-16 00:00:00,2013-04-16 00:00:00,TMP,surface,-105.938,29.7637,285.78
2013-04-16 00:00:00,2013-04-16 00:00:00,TMP,surface,-105,29.7637,286.123
2013-04-16 00:00:00,2013-04-16 00:00:00,TMP,surface,-104.063,29.7637,286.42
2013-04-16 00:00:00,2013-04-16 00:00:00,TMP,surface,-103.125,29.7637,287.012
2013-04-16 00:00:00,2013-04-16 00:00:00,TMP,surface,-102.188,29.7637,287.635
2013-04-16 00:00:00,2013-04-16 00:00:00,TMP,surface,-101.25,29.7637,287.782
2013-04-16 00:00:00,2013-04-16 00:00:00,TMP,surface,-100.313,29.7637,287.308
2013-04-16 00:00:00,2013-04-16 00:00:00,TMP,surface,-99.3754,29.7637,286.963
2013-04-16 00:00:00,2013-04-16 00:00:00,TMP,surface,-98.4379,29.7637,287.39
2013-04-16 00:00:00,2013-04-16 00:00:00,TMP,surface,-97.5004,29.7637,288.23
2013-04-16 00:00:00,2013-04-16 00:00:00,TMP,surface,-96.5629,29.7637,288.868
2013-04-16 00:00:00,2013-04-16 00:00:00,TMP,surface,-95.6254,29.7637,289.372
2013-04-16 00:00:00,2013-04-16 00:00:00,TMP,surface,-94.6879,29.7637,291.892
2013-04-16 00:00:00,2013-04-16 00:00:00,TMP,surface,-93.7504,29.7637,294.807
2013-04-16 00:00:00,2013-04-16 00:00:00,TMP,surface,-92.8129,29.7637,289.643
2013-04-16 00:00:00,2013-04-16 00:00:00,TMP,surface,-107.813,30.7085,285.363
2013-04-16 00:00:00,2013-04-16 00:00:00,TMP,surface,-106.875,30.7085,285.683
2013-04-16 00:00:00,2013-04-16 00:00:00,TMP,surface,-105.938,30.7085,285.47
2013-04-16 00:00:00,2013-04-16 00:00:00,TMP,surface,-105,30.7085,285.451
2013-04-16 00:00:00,2013-04-16 00:00:00,TMP,surface,-104.063,30.7085,285.568
2013-04-16 00:00:00,2013-04-16 00:00:00,TMP,surface,-103.125,30.7085,286.593
2013-04-16 00:00:00,2013-04-16 00:00:00,TMP,surface,-102.188,30.7085,287.193
2013-04-16 00:00:00,2013-04-16 00:00:00,TMP,surface,-101.25,30.7085,286.841
2013-04-16 00:00:00,2013-04-16 00:00:00,TMP,surface,-100.313,30.7085,286.151
2013-04-16 00:00:00,2013-04-16 00:00:00,TMP,surface,-99.3754,30.7085,285.905
2013-04-16 00:00:00,2013-04-16 00:00:00,TMP,surface,-98.4379,30.7085,286.384
2013-04-16 00:00:00,2013-04-16 00:00:00,TMP,surface,-97.5004,30.7085,286.995
2013-04-16 00:00:00,2013-04-16 00:00:00,TMP,surface,-96.5629,30.7085,287.224
2013-04-16 00:00:00,2013-04-16 00:00:00,TMP,surface,-95.6254,30.7085,287.244
2013-04-16 00:00:00,2013-04-16 00:00:00,TMP,surface,-94.6879,30.7085,287.294
2013-04-16 00:00:00,2013-04-16 00:00:00,TMP,surface,-93.7504,30.7085,287.169
2013-04-16 00:00:00,2013-04-16 00:00:00,TMP,surface,-92.8129,30.7085,286.731
2013-04-16 00:00:00,2013-04-16 00:00:00,TMP,surface,-107.813,31.6534,285.198
2013-04-16 00:00:00,2013-04-16 00:00:00,TMP,surface,-106.875,31.6534,285.116
2013-04-16 00:00:00,2013-04-16 00:00:00,TMP,surface,-105.938,31.6534,284.975
2013-04-16 00:00:00,2013-04-16 00:00:00,TMP,surface,-105,31.6534,284.742
2013-04-16 00:00:00,2013-04-16 00:00:00,TMP,surface,-104.063,31.6534,285.214
2013-04-16 00:00:00,2013-04-16 00:00:00,TMP,surface,-103.125,31.6534,286.056
2013-04-16 00:00:00,2013-04-16 00:00:00,TMP,surface,-102.188,31.6534,286.217
2013-04-16 00:00:00,2013-04-16 00:00:00,TMP,surface,-101.25,31.6534,285.767
2013-04-16 00:00:00,2013-04-16 00:00:00,TMP,surface,-100.313,31.6534,285.339
2013-04-16 00:00:00,2013-04-16 00:00:00,TMP,surface,-99.3754,31.6534,285.352
2013-04-16 00:00:00,2013-04-16 00:00:00,TMP,surface,-98.4379,31.6534,285.716
2013-04-16 00:00:00,2013-04-16 00:00:00,TMP,surface,-97.5004,31.6534,286.035
2013-04-16 00:00:00,2013-04-16 00:00:00,TMP,surface,-96.5629,31.6534,286.115
2013-04-16 00:00:00,2013-04-16 00:00:00,TMP,surface,-95.6254,31.6534,285.958
2013-04-16 00:00:00,2013-04-16 00:00:00,TMP,surface,-94.6879,31.6534,285.608
2013-04-16 00:00:00,2013-04-16 00:00:00,TMP,surface,-93.7504,31.6534,285.292
2013-04-16 00:00:00,2013-04-16 00:00:00,TMP,surface,-92.8129,31.6534,285.196
2013-04-16 00:00:00,2013-04-16 00:00:00,TMP,surface,-107.813,32.5983,282.716
2013-04-16 00:00:00,2013-04-16 00:00:00,TMP,surface,-106.875,32.5983,283.188
2013-04-16 00:00:00,2013-04-16 00:00:00,TMP,surface,-105.938,32.5983,283.281
2013-04-16 00:00:00,2013-04-16 00:00:00,TMP,surface,-105,32.5983,283.556
2013-04-16 00:00:00,2013-04-16 00:00:00,TMP,surface,-104.063,32.5983,284.297
2013-04-16 00:00:00,2013-04-16 00:00:00,TMP,surface,-103.125,32.5983,284.743
2013-04-16 00:00:00,2013-04-16 00:00:00,TMP,surface,-102.188,32.5983,284.588
2013-04-16 00:00:00,2013-04-16 00:00:00,TMP,surface,-101.25,32.5983,284.467
2013-04-16 00:00:00,2013-04-16 00:00:00,TMP,surface,-100.313,32.5983,284.617
2013-04-16 00:00:00,2013-04-16 00:00:00,TMP,surface,-99.3754,32.5983,284.823
2013-04-16 00:00:00,2013-04-16 00:00:00,TMP,surface,-98.4379,32.5983,284.86
2013-04-16 00:00:00,2013-04-16 00:00:00,TMP,surface,-97.5004,32.5983,284.819
2013-04-16 00:00:00,2013-04-16 00:00:00,TMP,surface,-96.5629,32.5983,284.793
2013-04-16 00:00:00,2013-04-16 00:00:00,TMP,surface,-95.6254,32.5983,284.652
2013-04-16 00:00:00,2013-04-16 00:00:00,TMP,surface,-94.6879,32.5983,284.291
2013-04-16 00:00:00,2013-04-16 00:00:00,TMP,surface,-93.7504,32.5983,283.952
2013-04-16 00:00:00,2013-04-16 00:00:00,TMP,surface,-92.8129,32.5983,284.031
2013-04-16 00:00:00,2013-04-16 00:00:00,TMP,surface,-107.813,33.5432,279.468
2013-04-16 00:00:00,2013-04-16 00:00:00,TMP,surface,-106.875,33.5432,280.729
2013-04-16 00:00:00,2013-04-16 00:00:00,TMP,surface,-105.938,33.5432,281.56
2013-04-16 00:00:00,2013-04-16 00:00:00,TMP,surface,-105,33.5432,282.267
2013-04-16 00:00:00,2013-04-16 00:00:00,TMP,surface,-104.063,33.5432,283.014
2013-04-16 00:00:00,2013-04-16 00:00:00,TMP,surface,-103.125,33.5432,283.24
2013-04-16 00:00:00,2013-04-16 00:00:00,TMP,surface,-102.188,33.5432,282.972
2013-04-16 00:00:00,2013-04-16 00:00:00,TMP,surface,-101.25,33.5432,282.84
2013-04-16 00:00:00,2013-04-16 00:00:00,TMP,surface,-100.313,33.5432,283.057
2013-04-16 00:00:00,2013-04-16 00:00:00,TMP,surface,-99.3754,33.5432,283.392
2013-04-16 00:00:00,2013-04-16 00:00:00,TMP,surface,-98.4379,33.5432,283.395
2013-04-16 00:00:00,2013-04-16 00:00:00,TMP,surface,-97.5004,33.5432,283.174
2013-04-16 00:00:00,2013-04-16 00:00:00,TMP,surface,-96.5629,33.5432,283.07
2013-04-16 00:00:00,2013-04-16 00:00:00,TMP,surface,-95.6254,33.5432,283.006
2013-04-16 00:00:00,2013-04-16 00:00:00,TMP,surface,-94.6879,33.5432,282.755
2013-04-16 00:00:00,2013-04-16 00:00:00,TMP,surface,-93.7504,33.5432,282.475
2013-04-16 00:00:00,2013-04-16 00:00:00,TMP,surface,-92.8129,33.5432,282.516
2013-04-16 00:00:00,2013-04-16 00:00:00,TMP,surface,-107.813,34.4881,277.408
2013-04-16 00:00:00,2013-04-16 00:00:00,TMP,surface,-106.875,34.4881,278.812
2013-04-16 00:00:00,2013-04-16 00:00:00,TMP,surface,-105.938,34.4881,279.899
2013-04-16 00:00:00,2013-04-16 00:00:00,TMP,surface,-105,34.4881,280.801
2013-04-16 00:00:00,2013-04-16 00:00:00,TMP,surface,-104.063,34.4881,281.38
2013-04-16 00:00:00,2013-04-16 00:00:00,TMP,surface,-103.125,34.4881,281.451
2013-04-16 00:00:00,2013-04-16 00:00:00,TMP,surface,-102.188,34.4881,281.212
2013-04-16 00:00:00,2013-04-16 00:00:00,TMP,surface,-101.25,34.4881,281.023
2013-04-16 00:00:00,2013-04-16 00:00:00,TMP,surface,-100.313,34.4881,281.155
2013-04-16 00:00:00,2013-04-16 00:00:00,TMP,surface,-99.3754,34.4881,281.324
2013-04-16 00:00:00,2013-04-16 00:00:00,TMP,surface,-98.4379,34.4881,281.326
2013-04-16 00:00:00,2013-04-16 00:00:00,TMP,surface,-97.5004,34.4881,281.278
2013-04-16 00:00:00,2013-04-16 00:00:00,TMP,surface,-96.5629,34.4881,281.281
2013-04-16 00:00:00,2013-04-16 00:00:00,TMP,surface,-95.6254,34.4881,281.176
2013-04-16 00:00:00,2013-04-16 00:00:00,TMP,surface,-94.6879,34.4881,280.817
2013-04-16 00:00:00,2013-04-16 00:00:00,TMP,surface,-93.7504,34.4881,280.486
2013-04-16 00:00:00,2013-04-16 00:00:00,TMP,surface,-92.8129,34.4881,280.686
2013-04-16 00:00:00,2013-04-16 00:00:00,TMP,surface,-107.813,35.4329,276.596
2013-04-16 00:00:00,2013-04-16 00:00:00,TMP,surface,-106.875,35.4329,277.035
2013-04-16 00:00:00,2013-04-16 00:00:00,TMP,surface,-105.938,35.4329,277.905
2013-04-16 00:00:00,2013-04-16 00:00:00,TMP,surface,-105,35.4329,278.863
2013-04-16 00:00:00,2013-04-16 00:00:00,TMP,surface,-104.063,35.4329,279.908
2013-04-16 00:00:00,2013-04-16 00:00:00,TMP,surface,-103.125,35.4329,280.268
2013-04-16 00:00:00,2013-04-16 00:00:00,TMP,surface,-102.188,35.4329,279.723
2013-04-16 00:00:00,2013-04-16 00:00:00,TMP,surface,-101.25,35.4329,279.216
2013-04-16 00:00:00,2013-04-16 00:00:00,TMP,surface,-100.313,35.4329,279.132
2013-04-16 00:00:00,2013-04-16 00:00:00,TMP,surface,-99.3754,35.4329,279.094
2013-04-16 00:00:00,2013-04-16 00:00:00,TMP,surface,-98.4379,35.4329,279.184
2013-04-16 00:00:00,2013-04-16 00:00:00,TMP,surface,-97.5004,35.4329,279.553
2013-04-16 00:00:00,2013-04-16 00:00:00,TMP,surface,-96.5629,35.4329,279.931
2013-04-16 00:00:00,2013-04-16 00:00:00,TMP,surface,-95.6254,35.4329,279.94
2013-04-16 00:00:00,2013-04-16 00:00:00,TMP,surface,-94.6879,35.4329,279.534
2013-04-16 00:00:00,2013-04-16 00:00:00,TMP,surface,-93.7504,35.4329,279.033
2013-04-16 00:00:00,2013-04-16 00:00:00,TMP,surface,-92.8129,35.4329,278.926
2013-04-16 00:00:00,2013-04-16 00:00:00,TMP,surface,-107.813,36.3778,275.073
2013-04-16 00:00:00,2013-04-16 00:00:00,TMP,surface,-106.875,36.3778,273.672
2013-04-16 00:00:00,2013-04-16 00:00:00,TMP,surface,-105.938,36.3778,274.588
2013-04-16 00:00:00,2013-04-16 00:00:00,TMP,surface,-105,36.3778,276.059
2013-04-16 00:00:00,2013-04-16 00:00:00,TMP,surface,-104.063,36.3778,277.388
2013-04-16 00:00:00,2013-04-16 00:00:00,TMP,surface,-103.125,36.3778,277.523
2013-04-16 00:00:00,2013-04-16 00:00:00,TMP,surface,-102.188,36.3778,277.34
2013-04-16 00:00:00,2013-04-16 00:00:00,TMP,surface,-101.25,36.3778,277.198
2013-04-16 00:00:00,2013-04-16 00:00:00,TMP,surface,-100.313,36.3778,277.315
2013-04-16 00:00:00,2013-04-16 00:00:00,TMP,surface,-99.3754,36.3778,277.438
2013-04-16 00:00:00,2013-04-16 00:00:00,TMP,surface,-98.4379,36.3778,277.475
2013-04-16 00:00:00,2013-04-16 00:00:00,TMP,surface,-97.5004,36.3778,277.873
2013-04-16 00:00:00,2013-04-16 00:00:00,TMP,surface,-96.5629,36.3778,278.476
2013-04-16 00:00:00,2013-04-16 00:00:00,TMP,surface,-95.6254,36.3778,278.681
2013-04-16 00:00:00,2013-04-16 00:00:00,TMP,surface,-94.6879,36.3778,278.382
2013-04-16 00:00:00,2013-04-16 00:00:00,TMP,surface,-93.7504,36.3778,277.865
2013-04-16 00:00:00,2013-04-16 00:00:00,TMP,surface,-92.8129,36.3778,277.635
2013-04-16 00:00:00,2013-04-16 00:00:00,PRATE,surface,-107.813,25.0393,2e-07
2013-04-16 00:00:00,2013-04-16 00:00:00,PRATE,surface,-106.875,25.0393,2e-07
2013-04-16 00:00:00,2013-04-16 00:00:00,PRATE,surface,-105.938,25.0393,8e-07
2013-04-16 00:00:00,2013-04-16 00:00:00,PRATE,surface,-105,25.0393,3e-07
2013-04-16 00:00:00,2013-04-16 00:00:00,PRATE,surface,-104.063,25.0393,0
2013-04-16 00:00:00,2013-04-16 00:00:00,PRATE,surface,-103.125,25.0393,0
2013-04-16 00:00:00,2013-04-16 00:00:00,PRATE,surface,-102.188,25.0393,3e-07
2013-04-16 00:00:00,2013-04-16 00:00:00,PRATE,surface,-101.25,25.0393,5e-06
2013-04-16 00:00:00,2013-04-16 00:00:00,PRATE,surface,-100.313,25.0393,1.26e-05
2013-04-16 00:00:00,2013-04-16 00:00:00,PRATE,surface,-99.3754,25.0393,1.21e-05
2013-04-16 00:00:00,2013-04-16 00:00:00,PRATE,surface,-98.4379,25.0393,1.03e-05
2013-04-16 00:00:00,2013-04-16 00:00:00,PRATE,surface,-97.5004,25.0393,1.34e-05
2013-04-16 00:00:00,2013-04-16 00:00:00,PRATE,surface,-96.5629,25.0393,1.96e-05
2013-04-16 00:00:00,2013-04-16 00:00:00,PRATE,surface,-95.6254,25.0393,1.86e-05
2013-04-16 00:00:00,2013-04-16 00:00:00,PRATE,surface,-94.6879,25.0393,1.01e-05
2013-04-16 00:00:00,2013-04-16 00:00:00,PRATE,surface,-93.7504,25.0393,6.2e-06
2013-04-16 00:00:00,2013-04-16 00:00:00,PRATE,surface,-92.8129,25.0393,8.2e-06
2013-04-16 00:00:00,2013-04-16 00:00:00,PRATE,surface,-107.813,25.9842,5e-07
2013-04-16 00:00:00,2013-04-16 00:00:00,PRATE,surface,-106.875,25.9842,4e-07
2013-04-16 00:00:00,2013-04-16 00:00:00,PRATE,surface,-105.938,25.9842,4e-07
2013-04-16 00:00:00,2013-04-16 00:00:00,PRATE,surface,-105,25.9842,3e-07
2013-04-16 00:00:00,2013-04-16 00:00:00,PRATE,surface,-104.063,25.9842,4e-07
2013-04-16 00:00:00,2013-04-16 00:00:00,PRATE,surface,-103.125,25.9842,2e-07
2013-04-16 00:00:00,2013-04-16 00:00:00,PRATE,surface,-102.188,25.9842,7e-07
2013-04-16 00:00:00,2013-04-16 00:00:00,PRATE,surface,-101.25,25.9842,5.9e-06
2013-04-16 00:00:00,2013-04-16 00:00:00,PRATE,surface,-100.313,25.9842,1.04e-05
2013-04-16 00:00:00,2013-04-16 00:00:00,PRATE,surface,-99.3754,25.9842,6.5e-06
2013-04-16 00:00:00,2013-04-16 00:00:00,PRATE,surface,-98.4379,25.9842,6.2e-06
2013-04-16 00:00:00,2013-04-16 00:00:00,PRATE,surface,-97.5004,25.9842,1.7e-05
2013-04-16 00:00:00,2013-04-16 00:00:00,PRATE,surface,-96.5629,25.9842,2.64e-05
2013-04-16 00:00:00,2013-04-16 00:00:00,PRATE,surface,-95.6254,25.9842,2.36e-05
2013-04-16 00:00:00,2013-04-16 00:00:00,PRATE,surface,-94.6879,25.9842,1.82e-05
2013-04-16 00:00:00,2013-04-16 00:00:00,PRATE,surface,-93.7504,25.9842,1.03e-05
2013-04-16 00:00:00,2013-04-16 00:00:00,PRATE,surface,-92.8129,25.9842,8.8e-06
2013-04-16 00:00:00,2013-04-16 00:00:00,PRATE,surface,-107.813,26.929,1.4e-06
2013-04-16 00:00:00,2013-04-16 00:00:00,PRATE,surface,-106.875,26.929,1e-06
2013-04-16 00:00:00,2013-04-16 00:00:00,PRATE,surface,-105.938,26.929,2e-07
2013-04-16 00:00:00,2013-04-16 00:00:00,PRATE,surface,-105,26.929,2e-07
2013-04-16 00:00:00,2013-04-16 00:00:00,PRATE,surface,-104.063,26.929,3e-07
2013-04-16 00:00:00,2013-04-16 00:00:00,PRATE,surface,-103.125,26.929,1e-06
2013-04-16 00:00:00,2013-04-16 00:00:00,PRATE,surface,-102.188,26.929,3.7e-06
2013-04-16 00:00:00,2013-04-16 00:00:00,PRATE,surface,-101.25,26.929,8.4e-06
2013-04-16 00:00:00,2013-04-16 00:00:00,PRATE,surface,-100.313,26.929,8.1e-06
2013-04-16 00:00:00,2013-04-16 00:00:00,PRATE,surface,-99.3754,26.929,5.1e-06
2013-04-16 00:00:00,2013-04-16 00:00:00,PRATE,surface,-98.4379,26.929,7.3e-06
2013-04-16 00:00:00,2013-04-16 00:00:00,PRATE,surface,-97.5004,26.929,1.66e-05
2013-04-16 00:00:00,2013-04-16 00:00:00,PRATE,surface,-96.5629,26.929,2.9e-05
2013-04-16 00:00:00,2013-04-16 00:00:00,PRATE,surface,-95.6254,26.929,2.37e-05
2013-04-16 00:00:00,2013-04-16 00:00:00,PRATE,surface,-94.6879,26.929,2.47e-05
2013-04-16 00:00:00,2013-04-16 00:00:00,PRATE,surface,-93.7504,26.929,1.66e-05
2013-04-16 00:00:00,2013-04-16 00:00:00,PRATE,surface,-92.8129,26.929,1.33e-05
2013-04-16 00:00:00,2013-04-16 00:00:00,PRATE,surface,-107.813,27.8739,5.3e-06
2013-04-16 00:00:00,2013-04-16 00:00:00,PRATE,surface,-106.875,27.8739,1.2e-06
2013-04-16 00:00:00,2013-04-16 00:00:00,PRATE,surface,-105.938,27.8739,2e-07
2013-04-16 00:00:00,2013-04-16 00:00:00,PRATE,surface,-105,27.8739,2e-07
2013-04-16 00:00:00,2013-04-16 00:00:00,PRATE,surface,-104.063,27.8739,5e-07
2013-04-16 00:00:00,2013-04-16 00:00:00,PRATE,surface,-103.125,27.8739,2.3e-06
2013-04-16 00:00:00,2013-04-16 00:00:00,PRATE,surface,-102.188,27.8739,5.5e-06
2013-04-16 00:00:00,2013-04-16 00:00:00,PRATE,surface,-101.25,27.8739,5.8e-06
2013-04-16 00:00:00,2013-04-16 00:00:00,PRATE,surface,-100.313,27.8739,5.4e-06
2013-04-16 00:00:00,2013-04-16 00:00:00,PRATE,surface,-99.3754,27.8739,4e-06
2013-04-16 00:00:00,2013-04-16 00:00:00,PRATE,surface,-98.4379,27.8739,4.8e-06
2013-04-16 00:00:00,2013-04-16 00:00:00,PRATE,surface,-97.5004,27.8739,8.2e-06
2013-04-16 00:00:00,2013-04-16 00:00:00,PRATE,surface,-96.5629,27.8739,1.8e-05
2013-04-16 00:00:00,2013-04-16 00:00:00,PRATE,surface,-95.6254,27.8739,3.08e-05
2013-04-16 00:00:00,2013-04-16 00:00:00,PRATE,surface,-94.6879,27.8739,3.55e-05
2013-04-16 00:00:00,2013-04-16 00:00:00,PRATE,surface,-93.7504,27.8739,3.43e-05
2013-04-16 00:00:00,2013-04-16 00:00:00,PRATE,surface,-92.8129,27.8739,2.69e-05
2013-04-16 00:00:00,2013-04-16 00:00:00,PRATE,surface,-107.813,28.8188,6.6e-06
2013-04-16 00:00:00,2013-04-16 00:00:00,PRATE,surface,-106.875,28.8188,9e-07
2013-04-16 00:00:00,2013-04-16 00:00:00,PRATE,surface,-105.938,28.8188,3e-07
2013-04-16 00:00:00,2013-04-16 00:00:00,PRATE,surface,-105,28.8188,4e-07
2013-04-16 00:00:00,2013-04-16 00:00:00,PRATE,surface,-104.063,28.8188,7e-07
2013-04-16 00:00:00,2013-04-16 00:00:00,PRATE,surface,-103.125,28.8188,1.9e-06
2013-04-16 00:00:00,2013-04-16 00:00:00,PRATE,surface,-102.188,28.8188,3.6e-06
2013-04-16 00:00:00,2013-04-16 00:00:00,PRATE,surface,-101.25,28.8188,3.8e-06
2013-04-16 00:00:00,2013-04-16 00:00:00,PRATE,surface,-100.313,28.8188,4.1e-06
2013-04-16 00:00:00,2013-04-16 00:00:00,PRATE,surface,-99.3754,28.8188,4e-06
2013-04-16 00:00:00,2013-04-16 00:00:00,PRATE,surface,-98.4379,28.8188,3.1e-06
2013-04-16 00:00:00,2013-04-16 00:00:00,PRATE,surface,-97.5004,28.8188,8e-06
2013-04-16 00:00:00,2013-04-16 00:00:00,PRATE,surface,-96.5629,28.8188,1.64e-05
2013-04-16 00:00:00,2013-04-16 00:00:00,PRATE,surface,-95.6254,28.8188,2.28e-05
2013-04-16 00:00:00,2013-04-16 00:00:00,PRATE,surface,-94.6879,28.8188,2.64e-05
2013-04-16 00:00:00,2013-04-16 00:00:00,PRATE,surface,-93.7504,28.8188,2.67e-05
2013-04-16 00:00:00,2013-04-16 00:00:00,PRATE,surface,-92.8129,28.8188,2.99e-05
2013-04-16 00:00:00,2013-04-16 00:00:00,PRATE,surface,-107.813,29.7637,4.5e-06
2013-04-16 00:00:00,2013-04-16 00:00:00,PRATE,surface,-106.875,29.7637,1.3e-06
2013-04-16 00:00:00,2013-04-16 00:00:00,PRATE,surface,-105.938,29.7637,6e-07
2013-04-16 00:00:00,2013-04-16 00:00:00,PRATE,surface,-105,29.7637,8e-07
2013-04-16 00:00:00,2013-04-16 00:00:00,PRATE,surface,-104.063,29.7637,1.2e-06
2013-04-16 00:00:00,2013-04-16 00:00:00,PRATE,surface,-103.125,29.7637,1.3e-06
2013-04-16 00:00:00,2013-04-16 00:00:00,PRATE,surface,-102.188,29.7637,1.5e-06
2013-04-16 00:00:00,2013-04-16 00:00:00,PRATE,surface,-101.25,29.7637,1.9e-06
2013-04-16 00:00:00,2013-04-16 00:00:00,PRATE,surface,-100.313,29.7637,3.1e-06
2013-04-16 00:00:00,2013-04-16 00:00:00,PRATE,surface,-99.3754,29.7637,4e-06
2013-04-16 00:00:00,2013-04-16 00:00:00,PRATE,surface,-98.4379,29.7637,4e-06
2013-04-16 00:00:00,2013-04-16 00:00:00,PRATE,surface,-97.5004,29.7637,5.5e-06
2013-04-16 00:00:00,2013-04-16 00:00:00,PRATE,surface,-96.5629,29.7637,1.36e-05
2013-04-16 00:00:00,2013-04-16 00:00:00,PRATE,surface,-95.6254,29.7637,2.46e-05
2013-04-16 00:00:00,2013-04-16 00:00:00,PRATE,surface,-94.6879,29.7637,2.9e-05
2013-04-16 00:00:00,2013-04-16 00:00:00,PRATE,surface,-93.7504,29.7637,2.92e-05
2013-04-16 00:00:00,2013-04-16 00:00:00,PRATE,surface,-92.8129,29.7637,3.02e-05
2013-04-16 00:00:00,2013-04-16 00:00:00,PRATE,surface,-107.813,30.7085,5e-06
2013-04-16 00:00:00,2013-04-16 00:00:00,PRATE,surface,-106.875,30.7085,3.5e-06
2013-04-16 00:00:00,2013-04-16 00:00:00,PRATE,surface,-105.938,30.7085,2.9e-06
2013-04-16 00:00:00,2013-04-16 00:00:00,PRATE,surface,-105,30.7085,2.1e-06
2013-04-16 00:00:00,2013-04-16 00:00:00,PRATE,surface,-104.063,30.7085,1.6e-06
2013-04-16 00:00:00,2013-04-16 00:00:00,PRATE,surface,-103.125,30.7085,1.5e-06
2013-04-16 00:00:00,2013-04-16 00:00:00,PRATE,surface,-102.188,30.7085,1.1e-06
2013-04-16 00:00:00,2013-04-16 00:00:00,PRATE,surface,-101.25,30.7085,1.2e-06
2013-04-16 00:00:00,2013-04-16 00:00:00,PRATE,surface,-100.313,30.7085,2.8e-06
2013-04-16 00:00:00,2013-04-16 00:00:00,PRATE,surface,-99.3754,30.7085,4.1e-06
2013-04-16 00:00:00,2013-04-16 00:00:00,PRATE,surface,-98.4379,30.7085,4.2e-06
2013-04-16 00:00:00,2013-04-16 00:00:00,PRATE,surface,-97.5004,30.7085,5.9e-06
2013-04-16 00:00:00,2013-04-16 00:00:00,PRATE,surface,-96.5629,30.7085,1.05e-05
2013-04-16 00:00:00,2013-04-16 00:00:00,PRATE,surface,-95.6254,30.7085,1.83e-05
2013-04-16 00:00:00,2013-04-16 00:00:00,PRATE,surface,-94.6879,30.7085,2.74e-05
2013-04-16 00:00:00,2013-04-16 00:00:00,PRATE,surface,-93.7504,30.7085,3.22e-05
2013-04-16 00:00:00,2013-04-16 00:00:00,PRATE,surface,-92.8129,30.7085,3.27e-05
2013-04-16 00:00:00,2013-04-16 00:00:00,PRATE,surface,-107.813,31.6534,6.2e-06
2013-04-16 00:00:00,2013-04-16 00:00:00,PRATE,surface,-106.875,31.6534,4.3e-06
2013-04-16 00:00:00,2013-04-16 00:00:00,PRATE,surface,-105.938,31.6534,2.5e-06
2013-04-16 00:00:00,2013-04-16 00:00:00,PRATE,surface,-105,31.6534,1.5e-06
2013-04-16 00:00:00,2013-04-16 00:00:00,PRATE,surface,-104.063,31.6534,1.7e-06
2013-04-16 00:00:00,2013-04-16 00:00:00,PRATE,surface,-103.125,31.6534,1.6e-06
2013-04-16 00:00:00,2013-04-16 00:00:00,PRATE,surface,-102.188,31.6534,1.4e-06
2013-04-16 00:00:00,2013-04-16 00:00:00,PRATE,surface,-101.25,31.6534,1.9e-06
2013-04-16 00:00:00,2013-04-16 00:00:00,PRATE,surface,-100.313,31.6534,2.9e-06
2013-04-16 00:00:00,2013-04-16 00:00:00,PRATE,surface,-99.3754,31.6534,3.8e-06
2013-04-16 00:00:00,2013-04-16 00:00:00,PRATE,surface,-98.4379,31.6534,4.5e-06
2013-04-16 00:00:00,2013-04-16 00:00:00,PRATE,surface,-97.5004,31.6534,5.9e-06
2013-04-16 00:00:00,2013-04-16 00:00:00,PRATE,surface,-96.5629,31.6534,9.7e-06
2013-04-16 00:00:00,2013-04-16 00:00:00,PRATE,surface,-95.6254,31.6534,1.65e-05
2013-04-16 00:00:00,2013-04-16 00:00:00,PRATE,surface,-94.6879,31.6534,2.45e-05
2013-04-16 00:00:00,2013-04-16 00:00:00,PRATE,surface,-93.7504,31.6534,3.12e-05
2013-04-16 00:00:00,2013-04-16 00:00:00,PRATE,surface,-92.8129,31.6534,3.54e-05
2013-04-16 00:00:00,2013-04-16 00:00:00,PRATE,surface,-107.813,32.5983,9.5e-06
2013-04-16 00:00:00,2013-04-16 00:00:00,PRATE,surface,-106.875,32.5983,6.7e-06
2013-04-16 00:00:00,2013-04-16 00:00:00,PRATE,surface,-105.938,32.5983,3.4e-06
2013-04-16 00:00:00,2013-04-16 00:00:00,PRATE,surface,-105,32.5983,1.8e-06
2013-04-16 00:00:00,2013-04-16 00:00:00,PRATE,surface,-104.063,32.5983,2.3e-06
2013-04-16 00:00:00,2013-04-16 00:00:00,PRATE,surface,-103.125,32.5983,2.4e-06
2013-04-16 00:00:00,2013-04-16 00:00:00,PRATE,surface,-102.188,32.5983,2.3e-06
2013-04-16 00:00:00,2013-04-16 00:00:00,PRATE,surface,-101.25,32.5983,3.1e-06
2013-04-16 00:00:00,2013-04-16 00:00:00,PRATE,surface,-100.313,32.5983,3.1e-06
2013-04-16 00:00:00,2013-04-16 00:00:00,PRATE,surface,-99.3754,32.5983,3.6e-06
2013-04-16 00:00:00,2013-04-16 00:00:00,PRATE,surface,-98.4379,32.5983,4.8e-06
2013-04-16 00:00:00,2013-04-16 00:00:00,PRATE,surface,-97.5004,32.5983,8.7e-06
2013-04-16 00:00:00,2013-04-16 00:00:00,PRATE,surface,-96.5629,32.5983,1.28e-05
2013-04-16 00:00:00,2013-04-16 00:00:00,PRATE,surface,-95.6254,32.5983,1.63e-05
2013-04-16 00:00:00,2013-04-16 00:00:00,PRATE,surface,-94.6879,32.5983,2.18e-05
2013-04-16 00:00:00,2013-04-16 00:00:00,PRATE,surface,-93.7504,32.5983,2.73e-05
2013-04-16 00:00:00,2013-04-16 00:00:00,PRATE,surface,-92.8129,32.5983,3.31e-05
2013-04-16 00:00:00,2013-04-16 00:00:00,PRATE,surface,-107.813,33.5432,1.42e-05
2013-04-16 00:00:00,2013-04-16 00:00:00,PRATE,surface,-106.875,33.5432,8e-06
2013-04-16 00:00:00,2013-04-16 00:00:00,PRATE,surface,-105.938,33.5432,4.1e-06
2013-04-16 00:00:00,2013-04-16 00:00:00,PRATE,surface,-105,33.5432,3.5e-06
2013-04-16 00:00:00,2013-04-16 00:00:00,PRATE,surface,-104.063,33.5432,4e-06
2013-04-16 00:00:00,2013-04-16 00:00:00,PRATE,surface,-103.125,33.5432,3.7e-06
2013-04-16 00:00:00,2013-04-16 00:00:00,PRATE,surface,-102.188,33.5432,3.7e-06
2013-04-16 00:00:00,2013-04-16 00:00:00,PRATE,surface,-101.25,33.5432,3.8e-06
2013-04-16 00:00:00,2013-04-16 00:00:00,PRATE,surface,-100.313,33.5432,4.2e-06
2013-04-16 00:00:00,2013-04-16 00:00:00,PRATE,surface,-99.3754,33.5432,4.6e-06
2013-04-16 00:00:00,2013-04-16 00:00:00,PRATE,surface,-98.4379,33.5432,5.4e-06
2013-04-16 00:00:00,2013-04-16 00:00:00,PRATE,surface,-97.5004,33.5432,7.5e-06
2013-04-16 00:00:00,2013-04-16 00:00:00,PRATE,surface,-96.5629,33.5432,1.24e-05
2013-04-16 00:00:00,2013-04-16 00:00:00,PRATE,surface,-95.6254,33.5432,1.82e-05
2013-04-16 00:00:00,2013-04-16 00:00:00,PRATE,surface,-94.6879,33.5432,2.2e-05
2013-04-16 00:00:00,2013-04-16 00:00:00,PRATE,surface,-93.7504,33.5432,2.52e-05
2013-04-16 00:00:00,2013-04-16 00:00:00,PRATE,surface,-92.8129,33.5432,2.95e-05
2013-04-16 00:00:00,2013-04-16 00:00:00,PRATE,surface,-107.813,34.4881,1.58e-05
2013-04-16 00:00:00,2013-04-16 00:00:00,PRATE,surface,-106.875,34.4881,9.5e-06
2013-04-16 00:00:00,2013-04-16 00:00:00,PRATE,surface,-105.938,34.4881,4.8e-06
2013-04-16 00:00:00,2013-04-16 00:00:00,PRATE,surface,-105,34.4881,4.4e-06
2013-04-16 00:00:00,2013-04-16 00:00:00,PRATE,surface,-104.063,34.4881,4.5e-06
2013-04-16 00:00:00,2013-04-16 00:00:00,PRATE,surface,-103.125,34.4881,3.9e-06
2013-04-16 00:00:00,2013-04-16 00:00:00,PRATE,surface,-102.188,34.4881,4.4e-06
2013-04-16 00:00:00,2013-04-16 00:00:00,PRATE,surface,-101.25,34.4881,6.1e-06
2013-04-16 00:00:00,2013-04-16 00:00:00,PRATE,surface,-100.313,34.4881,6.7e-06
2013-04-16 00:00:00,2013-04-16 00:00:00,PRATE,surface,-99.3754,34.4881,7.2e-06
2013-04-16 00:00:00,2013-04-16 00:00:00,PRATE,surface,-98.4379,34.4881,7.6e-06
2013-04-16 00:00:00,2013-04-16 00:00:00,PRATE,surface,-97.5004,34.4881,9.6e-06
2013-04-16 00:00:00,2013-04-16 00:00:00,PRATE,surface,-96.5629,34.4881,1.51e-05
2013-04-16 00:00:00,2013-04-16 00:00:00,PRATE,surface,-95.6254,34.4881,2.23e-05
2013-04-16 00:00:00,2013-04-16 00:00:00,PRATE,surface,-94.6879,34.4881,2.9e-05
2013-04-16 00:00:00,2013-04-16 00:00:00,PRATE,surface,-93.7504,34.4881,3.46e-05
2013-04-16 00:00:00,2013-04-16 00:00:00,PRATE,surface,-92.8129,34.4881,3.46e-05
2013-04-16 00:00:00,2013-04-16 00:00:00,PRATE,surface,-107.813,35.4329,2.01e-05
2013-04-16 00:00:00,2013-04-16 00:00:00,PRATE,surface,-106.875,35.4329,1.42e-05
2013-04-16 00:00:00,2013-04-16 00:00:00,PRATE,surface,-105.938,35.4329,8.4e-06
2013-04-16 00:00:00,2013-04-16 00:00:00,PRATE,surface,-105,35.4329,8e-06
2013-04-16 00:00:00,2013-04-16 00:00:00,PRATE,surface,-104.063,35.4329,8e-06
2013-04-16 00:00:00,2013-04-16 00:00:00,PRATE,surface,-103.125,35.4329,7.1e-06
2013-04-16 00:00:00,2013-04-16 00:00:00,PRATE,surface,-102.188,35.4329,7.5e-06
2013-04-16 00:00:00,2013-04-16 00:00:00,PRATE,surface,-101.25,35.4329,1e-05
2013-04-16 00:00:00,2013-04-16 00:00:00,PRATE,surface,-100.313,35.4329,1.27e-05
2013-04-16 00:00:00,2013-04-16 00:00:00,PRATE,surface,-99.3754,35.4329,1.5e-05
2013-04-16 00:00:00,2013-04-16 00:00:00,PRATE,surface,-98.4379,35.4329,1.76e-05
2013-04-16 00:00:00,2013-04-16 00:00:00,PRATE,surface,-97.5004,35.4329,2.04e-05
2013-04-16 00:00:00,2013-04-16 00:00:00,PRATE,surface,-96.5629,35.4329,2.4e-05
2013-04-16 00:00:00,2013-04-16 00:00:00,PRATE,surface,-95.6254,35.4329,2.91e-05
2013-04-16 00:00:00,2013-04-16 00:00:00,PRATE,surface,-94.6879,35.4329,3.48e-05
2013-04-16 00:00:00,2013-04-16 00:00:00,PRATE,surface,-93.7504,35.4329,3.95e-05
2013-04-16 00:00:00,2013-04-16 00:00:00,PRATE,surface,-92.8129,35.4329,3.92e-05
2013-04-16 00:00:00,2013-04-16 00:00:00,PRATE,surface,-107.813,36.3778,3.84e-05
2013-04-16 00:00:00,2013-04-16 00:00:00,PRATE,surface,-106.875,36.3778,3.1e-05
2013-04-16 00:00:00,2013-04-16 00:00:00,PRATE,surface,-105.938,36.3778,1.81e-05
2013-04-16 00:00:00,2013-04-16 00:00:00,PRATE,surface,-105,36.3778,1.72e-05
2013-04-16 00:00:00,2013-04-16 00:00:00,PRATE,surface,-104.063,36.3778,1.78e-05
2013-04-16 00:00:00,2013-04-16 00:00:00,PRATE,surface,-103.125,36.3778,1.89e-05
2013-04-16 00:00:00,2013-04-16 00:00:00,PRATE,surface,-102.188,36.3778,1.86e-05
2013-04-16 00:00:00,2013-04-16 00:00:00,PRATE,surface,-101.25,36.3778,1.87e-05
2013-04-16 00:00:00,2013-04-16 00:00:00,PRATE,surface,-100.313,36.3778,2.06e-05
2013-04-16 00:00:00,2013-04-16 00:00:00,PRATE,surface,-99.3754,36.3778,2.21e-05
2013-04-16 00:00:00,2013-04-16 00:00:00,PRATE,surface,-98.4379,36.3778,2.5e-05
2013-04-16 00:00:00,2013-04-16 00:00:00,PRATE,surface,-97.5004,36.3778,2.66e-05
2013-04-16 00:00:00,2013-04-16 00:00:00,PRATE,surface,-96.5629,36.3778,2.73e-05
2013-04-16 00:00:00,2013-04-16 00:00:00,PRATE,surface,-95.6254,36.3778,3.07e-05
2013-04-16 00:00:00,2013-04-16 00:00:00,PRATE,surface,-94.6879,36.3778,3.55e-05
2013-04-16 00:00:00,2013-04-16 00:00:00,PRATE,surface,-93.7504,36.3778,3.78e-05
2013-04-16 00:00:00,2013-04-16 00:00:00,PRATE,surface,-92.8129,36.3778,3.69e-05
