2018-06-18 00:00:00,2018-06-18 00:00:00,TMP,surface,-107.813,25.0393,301.085
2018-06-18 00:00:00,2018-06-18 00:00:00,TMP,surface,-106.875,25.0393,294.303
2018-06-18 00:00:00,2018-06-18 00:00:00,TMP,surface,-105.938,25.0393,289.908
2018-06-18 00:00:00,2018-06-18 00:00:00,TMP,surface,-105,25.0393,287.866
2018-06-18 00:00:00,2018-06-18 00:00:00,TMP,surface,-104.063,25.0393,291.106
2018-06-18 00:00:00,2018-06-18 00:00:00,TMP,surface,-103.125,25.0393,294.12
2018-06-18 00:00:00,2018-06-18 00:00:00,TMP,surface,-102.188,25.0393,293.541
2018-06-18 00:00:00,2018-06-18 00:00:00,TMP,surface,-101.25,25.0393,291.093
2018-06-18 00:00:00,2018-06-18 00:00:00,TMP,surface,-100.313,25.0393,291.735
2018-06-18 00:00:00,2018-06-18 00:00:00,TMP,surface,-99.3754,25.0393,295.554
2018-06-18 00:00:00,2018-06-18 00:00:00,TMP,surface,-98.4379,25.0393,299.92
2018-06-18 00:00:00,2018-06-18 00:00:00,TMP,surface,-97.5004,25.0393,302.643
2018-06-18 00:00:00,2018-06-18 00:00:00,TMP,surface,-96.5629,25.0393,302.844
2018-06-18 00:00:00,2018-06-18 00:00:00,TMP,surface,-95.6254,25.0393,303.083
2018-06-18 00:00:00,2018-06-18 00:00:00,TMP,surface,-94.6879,25.0393,303.479
2018-06-18 00:00:00,2018-06-18 00:00:00,TMP,surface,-93.7504,25.0393,303.608
2018-06-18 00:00:00,2018-06-18 00:00:00,TMP,surface,-92.8129,25.0393,303.668
2018-06-18 00:00:00,2018-06-18 00:00:00,TMP,surface,-107.813,25.9842,296.096
2018-06-18 00:00:00,2018-06-18 00:00:00,TMP,surface,-106.875,25.9842,291.186
2018-06-18 00:00:00,2018-06-18 00:00:00,TMP,surface,-105.938,25.9842,288.404
2018-06-18 00:00:00,2018-06-18 00:00:00,TMP,surface,-105,25.9842,289.362
2018-06-18 00:00:00,2018-06-18 00:00:00,TMP,surface,-104.063,25.9842,294.091
2018-06-18 00:00:00,2018-06-18 00:00:00,TMP,surface,-103.125,25.9842,296.159
2018-06-18 00:00:00,2018-06-18 00:00:00,TMP,surface,-102.188,25.9842,295.076
2018-06-18 00:00:00,2018-06-18 00:00:00,TMP,surface,-101.25,25.9842,293.839
2018-06-18 00:00:00,2018-06-18 00:00:00,TMP,surface,-100.313,25.9842,294.392
2018-06-18 00:00:00,2018-06-18 00:00:00,TMP,surface,-99.3754,25.9842,298.332
2018-06-18 00:00:00,2018-06-18 00:00:00,TMP,surface,-98.4379,25.9842,300.815
2018-06-18 00:00:00,2018-06-18 00:00:00,TMP,surface,-97.5004,25.9842,301.109
2018-06-18 00:00:00,2018-06-18 00:00:00,TMP,surface,-96.5629,25.9842,302.439
2018-06-18 00:00:00,2018-06-18 00:00:00,TMP,surface,-95.6254,25.9842,302.839
2018-06-18 00:00:00,2018-06-18 00:00:00,TMP,surface,-94.6879,25.9842,303.18
2018-06-18 00:00:00,2018-06-18 00:00:00,TMP,surface,-93.7504,25.9842,303.419
2018-06-18 00:00:00,2018-06-18 00:00:00,TMP,surface,-92.8129,25.9842,303.643
2018-06-18 00:00:00,2018-06-18 00:00:00,TMP,surface,-107.813,26.929,292.144
2018-06-18 00:00:00,2018-06-18 00:00:00,TMP,surface,-106.875,26.929,288.842
2018-06-18 00:00:00,2018-06-18 00:00:00,TMP,surface,-105.938,26.929,289.335
2018-06-18 00:00:00,2018-06-18 00:00:00,TMP,surface,-105,26.929,292.699
2018-06-18 00:00:00,2018-06-18 00:00:00,TMP,surface,-104.063,26.929,295.786
2018-06-18 00:00:00,2018-06-18 00:00:00,TMP,surface,-103.125,26.929,295.402
2018-06-18 00:00:00,2018-06-18 00:00:00,TMP,surface,-102.188,26.929,294.818
2018-06-18 00:00:00,2018-06-18 00:00:00,TMP,surface,-101.25,26.929,295.698
2018-06-18 00:00:00,2018-06-18 00:00:00,TMP,surface,-100.313,26.929,297.816
2018-06-18 00:00:00,2018-06-18 00:00:00,TMP,surface,-99.3754,26.929,299.906
2018-06-18 00:00:00,2018-06-18 00:00:00,TMP,surface,-98.4379,26.929,299.864
2018-06-18 00:00:00,2018-06-18 00:00:00,TMP,surface,-97.5004,26.929,301.397
2018-06-18 00:00:00,2018-06-18 00:00:00,TMP,surface,-96.5629,26.929,301.783
2018-06-18 00:00:00,2018-06-18 00:00:00,TMP,surface,-95.6254,26.929,302.533
2018-06-18 00:00:00,2018-06-18 00:00:00,TMP,surface,-94.6879,26.929,303.071
2018-06-18 00:00:00,2018-06-18 00:00:00,TMP,surface,-93.7504,26.929,303.37
2018-06-18 00:00:00,2018-06-18 00:00:00,TMP,surface,-92.8129,26.929,303.674
2018-06-18 00:00:00,2018-06-18 00:00:00,TMP,surface,-107.813,27.8739,289.996
2018-06-18 00:00:00,2018-06-18 00:00:00,TMP,surface,-106.875,27.8739,288.293
2018-06-18 00:00:00,2018-06-18 00:00:00,TMP,surface,-105.938,27.8739,290.927
2018-06-18 00:00:00,2018-06-18 00:00:00,TMP,surface,-105,27.8739,294.826
2018-06-18 00:00:00,2018-06-18 00:00:00,TMP,surface,-104.063,27.8739,295.724
2018-06-18 00:00:00,2018-06-18 00:00:00,TMP,surface,-103.125,27.8739,294.512
2018-06-18 00:00:00,2018-06-18 00:00:00,TMP,surface,-102.188,27.8739,294.455
2018-06-18 00:00:00,2018-06-18 00:00:00,TMP,surface,-101.25,27.8739,296.888
2018-06-18 00:00:00,2018-06-18 00:00:00,TMP,surface,-100.313,27.8739,299.271
2018-06-18 00:00:00,2018-06-18 00:00:00,TMP,surface,-99.3754,27.8739,299.677
2018-06-18 00:00:00,2018-06-18 00:00:00,TMP,surface,-98.4379,27.8739,299.061
2018-06-18 00:00:00,2018-06-18 00:00:00,TMP,surface,-97.5004,27.8739,300.357
2018-06-18 00:00:00,2018-06-18 00:00:00,TMP,surface,-96.5629,27.8739,302.218
2018-06-18 00:00:00,2018-06-18 00:00:00,TMP,surface,-95.6254,27.8739,302.684
2018-06-18 00:00:00,2018-06-18 00:00:00,TMP,surface,-94.6879,27.8739,303.058
2018-06-18 00:00:00,2018-06-18 00:00:00,TMP,surface,-93.7504,27.8739,303.349
2018-06-18 00:00:00,2018-06-18 00:00:00,TMP,surface,-92.8129,27.8739,303.62
2018-06-18 00:00:00,2018-06-18 00:00:00,TMP,surface,-107.813,28.8188,288.844
2018-06-18 00:00:00,2018-06-18 00:00:00,TMP,surface,-106.875,28.8188,288.951
2018-06-18 00:00:00,2018-06-18 00:00:00,TMP,surface,-105.938,28.8188,292.367
2018-06-18 00:00:00,2018-06-18 00:00:00,TMP,surface,-105,28.8188,295.709
2018-06-18 00:00:00,2018-06-18 00:00:00,TMP,surface,-104.063,28.8188,295.234
2018-06-18 00:00:00,2018-06-18 00:00:00,TMP,surface,-103.125,28.8188,294.727
2018-06-18 00:00:00,2018-06-18 00:00:00,TMP,surface,-102.188,28.8188,295.477
2018-06-18 00:00:00,2018-06-18 00:00:00,TMP,surface,-101.25,28.8188,297.744
2018-06-18 00:00:00,2018-06-18 00:00:00,TMP,surface,-100.313,28.8188,299.058
2018-06-18 00:00:00,2018-06-18 00:00:00,TMP,surface,-99.3754,28.8188,298.523
2018-06-18 00:00:00,2018-06-18 00:00:00,TMP,surface,-98.4379,28.8188,297.84
2018-06-18 00:00:00,2018-06-18 00:00:00,TMP,surface,-97.5004,28.8188,297.792
2018-06-18 00:00:00,2018-06-18 00:00:00,TMP,surface,-96.5629,28.8188,298.251
2018-06-18 00:00:00,2018-06-18 00:00:00,TMP,surface,-95.6254,28.8188,299.984
2018-06-18 00:00:00,2018-06-18 00:00:00,TMP,surface,-94.6879,28.8188,302.245
2018-06-18 00:00:00,2018-06-18 00:00:00,TMP,surface,-93.7504,28.8188,302.647
2018-06-18 00:00:00,2018-06-18 00:00:00,TMP,surface,-92.8129,28.8188,302.979
2018-06-18 00:00:00,2018-06-18 00:00:00,TMP,surface,-107.813,29.7637,290.922
2018-06-18 00:00:00,2018-06-18 00:00:00,TMP,surface,-106.875,29.7637,291.533
2018-06-18 00:00:00,2018-06-18 00:00:00,TMP,surface,-105.938,29.7637,294.183
2018-06-18 00:00:00,2018-06-18 00:00:00,TMP,surface,-105,29.7637,295.063
2018-06-18 00:00:00,2018-06-18 00:00:00,TMP,surface,-104.063,29.7637,295.284
2018-06-18 00:00:00,2018-06-18 00:00:00,TMP,surface,-103.125,29.7637,295.863
2018-06-18 00:00:00,2018-06-18 00:00:00,TMP,surface,-102.188,29.7637,297.258
2018-06-18 00:00:00,2018-06-18 00:00:00,TMP,surface,-101.25,29.7637,298.274
2018-06-18 00:00:00,2018-06-18 00:00:00,TMP,surface,-100.313,29.7637,298.267
2018-06-18 00:00:00,2018-06-18 00:00:00,TMP,surface,-99.3754,29.7637,297.477
2018-06-18 00:00:00,2018-06-18 00:00:00,TMP,surface,-98.4379,29.7637,297.183
2018-06-18 00:00:00,2018-06-18 00:00:00,TMP,surface,-97.5004,29.7637,297.535
2018-06-18 00:00:00,2018-06-18 00:00:00,TMP,surface,-96.5629,29.7637,297.807
2018-06-18 00:00:00,2018-06-18 00:00:00,TMP,surface,-95.6254,29.7637,297.869
2018-06-18 00:00:00,2018-06-18 00:00:00,TMP,surface,-94.6879,29.7637,299.146
2018-06-18 00:00:00,2018-06-18 00:00:00,TMP,surface,-93.7504,29.7637,300.983
2018-06-18 00:00:00,2018-06-18 00:00:00,TMP,surface,-92.8129,29.7637,298.501
2018-06-18 00:00:00,2018-06-18 00:00:00,TMP,surface,-107.813,30.7085,294.778
2018-06-18 00:00:00,2018-06-18 00:00:00,TMP,surface,-106.875,30.7085,295.784
2018-06-18 00:00:00,2018-06-18 00:00:00,TMP,surface,-105.938,30.7085,295.535
2018-06-18 00:00:00,2018-06-18 00:00:00,TMP,surface,-105,30.7085,294.828
2018-06-18 00:00:00,2018-06-18 00:00:00,TMP,surface,-104.063,30.7085,294.442
2018-06-18 00:00:00,2018-06-18 00:00:00,TMP,surface,-103.125,30.7085,296.151
2018-06-18 00:00:00,2018-06-18 00:00:00,TMP,surface,-102.188,30.7085,297.616
2018-06-18 00:00:00,2018-06-18 00:00:00,TMP,surface,-101.25,30.7085,297.892
2018-06-18 00:00:00,2018-06-18 00:00:00,TMP,surface,-100.313,30.7085,297.775
2018-06-18 00:00:00,2018-06-18 00:00:00,TMP,surface,-99.3754,30.7085,297.615
2018-06-18 00:00:00,2018-06-18 00:00:00,TMP,surface,-98.4379,30.7085,297.898
2018-06-18 00:00:00,2018-06-18 00:00:00,TMP,surface,-97.5004,30.7085,298.472
2018-06-18 00:00:00,2018-06-18 00:00:00,TMP,surface,-96.5629,30.7085,298.554
2018-06-18 00:00:00,2018-06-18 00:00:00,TMP,surface,-95.6254,30.7085,298.108
2018-06-18 00:00:00,2018-06-18 00:00:00,TMP,surface,-94.6879,30.7085,297.823
2018-06-18 00:00:00,2018-06-18 00:00:00,TMP,surface,-93.7504,30.7085,297.741
2018-06-18 00:00:00,2018-06-18 00:00:00,TMP,surface,-92.8129,30.7085,297.388
2018-06-18 00:00:00,2018-06-18 00:00:00,TMP,surface,-107.813,31.6534,296.519
2018-06-18 00:00:00,2018-06-18 00:00:00,TMP,surface,-106.875,31.6534,296.874
2018-06-18 00:00:00,2018-06-18 00:00:00,TMP,surface,-105.938,31.6534,295.344
2018-06-18 00:00:00,2018-06-18 00:00:00,TMP,surface,-105,31.6534,294.435
2018-06-18 00:00:00,2018-06-18 00:00:00,TMP,surface,-104.063,31.6534,294.933
2018-06-18 00:00:00,2018-06-18 00:00:00,TMP,surface,-103.125,31.6534,296.146
2018-06-18 00:00:00,2018-06-18 00:00:00,TMP,surface,-102.188,31.6534,297.208
2018-06-18 00:00:00,2018-06-18 00:00:00,TMP,surface,-101.25,31.6534,297.541
2018-06-18 00:00:00,2018-06-18 00:00:00,TMP,surface,-100.313,31.6534,297.725
2018-06-18 00:00:00,2018-06-18 00:00:00,TMP,surface,-99.3754,31.6534,298.408
2018-06-18 00:00:00,2018-06-18 00:00:00,TMP,surface,-98.4379,31.6534,299.192
2018-06-18 00:00:00,2018-06-18 00:00:00,TMP,surface,-97.5004,31.6534,299.575
2018-06-18 00:00:00,2018-06-18 00:00:00,TMP,surface,-96.5629,31.6534,299.285
2018-06-18 00:00:00,2018-06-18 00:00:00,TMP,surface,-95.6254,31.6534,298.612
2018-06-18 00:00:00,2018-06-18 00:00:00,TMP,surface,-94.6879,31.6534,298.155
2018-06-18 00:00:00,2018-06-18 00:00:00,TMP,surface,-93.7504,31.6534,297.973
2018-06-18 00:00:00,2018-06-18 00:00:00,TMP,surface,-92.8129,31.6534,297.923
2018-06-18 00:00:00,2018-06-18 00:00:00,TMP,surface,-107.813,32.5983,293.808
2018-06-18 00:00:00,2018-06-18 00:00:00,TMP,surface,-106.875,32.5983,294.066
2018-06-18 00:00:00,2018-06-18 00:00:00,TMP,surface,-105.938,32.5983,294.103
2018-06-18 00:00:00,2018-06-18 00:00:00,TMP,surface,-105,32.5983,293.928
2018-06-18 00:00:00,2018-06-18 00:00:00,TMP,surface,-104.063,32.5983,295.245
2018-06-18 00:00:00,2018-06-18 00:00:00,TMP,surface,-103.125,32.5983,296.189
2018-06-18 00:00:00,2018-06-18 00:00:00,TMP,surface,-102.188,32.5983,296.634
2018-06-18 00:00:00,2018-06-18 00:00:00,TMP,surface,-101.25,32.5983,297.351
2018-06-18 00:00:00,2018-06-18 00:00:00,TMP,surface,-100.313,32.5983,298.359
2018-06-18 00:00:00,2018-06-18 00:00:00,TMP,surface,-99.3754,32.5983,299.396
2018-06-18 00:00:00,2018-06-18 00:00:00,TMP,surface,-98.4379,32.5983,299.996
2018-06-18 00:00:00,2018-06-18 00:00:00,TMP,surface,-97.5004,32.5983,300.01
2018-06-18 00:00:00,2018-06-18 00:00:00,TMP,surface,-96.5629,32.5983,299.608
2018-06-18 00:00:00,2018-06-18 00:00:00,TMP,surface,-95.6254,32.5983,299.077
2018-06-18 00:00:00,2018-06-18 00:00:00,TMP,surface,-94.6879,32.5983,298.594
2018-06-18 00:00:00,2018-06-18 00:00:00,TMP,surface,-93.7504,32.5983,298.292
2018-06-18 00:00:00,2018-06-18 00:00:00,TMP,surface,-92.8129,32.5983,298.504
2018-06-18 00:00:00,2018-06-18 00:00:00,TMP,surface,-107.813,33.5432,290.504
2018-06-18 00:00:00,2018-06-18 00:00:00,TMP,surface,-106.875,33.5432,291.727
2018-06-18 00:00:00,2018-06-18 00:00:00,TMP,surface,-105.938,33.5432,292.586
2018-06-18 00:00:00,2018-06-18 00:00:00,TMP,surface,-105,33.5432,293.554
2018-06-18 00:00:00,2018-06-18 00:00:00,TMP,surface,-104.063,33.5432,295.421
2018-06-18 00:00:00,2018-06-18 00:00:00,TMP,surface,-103.125,33.5432,295.802
2018-06-18 00:00:00,2018-06-18 00:00:00,TMP,surface,-102.188,33.5432,296.157
2018-06-18 00:00:00,2018-06-18 00:00:00,TMP,surface,-101.25,33.5432,297.16
2018-06-18 00:00:00,2018-06-18 00:00:00,TMP,surface,-100.313,33.5432,298.556
2018-06-18 00:00:00,2018-06-18 00:00:00,TMP,surface,-99.3754,33.5432,299.794
2018-06-18 00:00:00,2018-06-18 00:00:00,TMP,surface,-98.4379,33.5432,300.191
2018-06-18 00:00:00,2018-06-18 00:00:00,TMP,surface,-97.5004,33.5432,300.045
2018-06-18 00:00:00,2018-06-18 00:00:00,TMP,surface,-96.5629,33.5432,299.707
2018-06-18 00:00:00,2018-06-18 00:00:00,TMP,surface,-95.6254,33.5432,299.087
2018-06-18 00:00:00,2018-06-18 00:00:00,TMP,surface,-94.6879,33.5432,298.379
2018-06-18 00:00:00,2018-06-18 00:00:00,TMP,surface,-93.7504,33.5432,297.986
2018-06-18 00:00:00,2018-06-18 00:00:00,TMP,surface,-92.8129,33.5432,298.037
2018-06-18 00:00:00,2018-06-18 00:00:00,TMP,surface,-107.813,34.4881,290.021
2018-06-18 00:00:00,2018-06-18 00:00:00,TMP,surface,-106.875,34.4881,291.595
2018-06-18 00:00:00,2018-06-18 00:00:00,TMP,surface,-105.938,34.4881,292.36
2018-06-18 00:00:00,2018-06-18 00:00:00,TMP,surface,-105,34.4881,293.88
2018-06-18 00:00:00,2018-06-18 00:00:00,TMP,surface,-104.063,34.4881,294.773
2018-06-18 00:00:00,2018-06-18 00:00:00,TMP,surface,-103.125,34.4881,295.586
2018-06-18 00:00:00,2018-06-18 00:00:00,TMP,surface,-102.188,34.4881,296.341
2018-06-18 00:00:00,2018-06-18 00:00:00,TMP,surface,-101.25,34.4881,297.211
2018-06-18 00:00:00,2018-06-18 00:00:00,TMP,surface,-100.313,34.4881,298.44
2018-06-18 00:00:00,2018-06-18 00:00:00,TMP,surface,-99.3754,34.4881,299.41
2018-06-18 00:00:00,2018-06-18 00:00:00,TMP,surface,-98.4379,34.4881,299.744
2018-06-18 00:00:00,2018-06-18 00:00:00,TMP,surface,-97.5004,34.4881,299.628
2018-06-18 00:00:00,2018-06-18 00:00:00,TMP,surface,-96.5629,34.4881,299.127
2018-06-18 00:00:00,2018-06-18 00:00:00,TMP,surface,-95.6254,34.4881,298.132
2018-06-18 00:00:00,2018-06-18 00:00:00,TMP,surface,-94.6879,34.4881,296.911
2018-06-18 00:00:00,2018-06-18 00:00:00,TMP,surface,-93.7504,34.4881,296.215
2018-06-18 00:00:00,2018-06-18 00:00:00,TMP,surface,-92.8129,34.4881,296.586
2018-06-18 00:00:00,2018-06-18 00:00:00,TMP,surface,-107.813,35.4329,291.615
2018-06-18 00:00:00,2018-06-18 00:00:00,TMP,surface,-106.875,35.4329,291.516
2018-06-18 00:00:00,2018-06-18 00:00:00,TMP,surface,-105.938,35.4329,291.178
2018-06-18 00:00:00,2018-06-18 00:00:00,TMP,surface,-105,35.4329,291.736
2018-06-18 00:00:00,2018-06-18 00:00:00,TMP,surface,-104.063,35.4329,294.076
2018-06-18 00:00:00,2018-06-18 00:00:00,TMP,surface,-103.125,35.4329,295.685
2018-06-18 00:00:00,2018-06-18 00:00:00,TMP,surface,-102.188,35.4329,296.61
2018-06-18 00:00:00,2018-06-18 00:00:00,TMP,surface,-101.25,35.4329,297.341
2018-06-18 00:00:00,2018-06-18 00:00:00,TMP,surface,-100.313,35.4329,297.975
2018-06-18 00:00:00,2018-06-18 00:00:00,TMP,surface,-99.3754,35.4329,298.642
2018-06-18 00:00:00,2018-06-18 00:00:00,TMP,surface,-98.4379,35.4329,299.064
2018-06-18 00:00:00,2018-06-18 00:00:00,TMP,surface,-97.5004,35.4329,299.208
2018-06-18 00:00:00,2018-06-18 00:00:00,TMP,surface,-96.5629,35.4329,299.023
2018-06-18 00:00:00,2018-06-18 00:00:00,TMP,surface,-95.6254,35.4329,298.104
2018-06-18 00:00:00,2018-06-18 00:00:00,TMP,surface,-94.6879,35.4329,296.581
2018-06-18 00:00:00,2018-06-18 00:00:00,TMP,surface,-93.7504,35.4329,295.343
2018-06-18 00:00:00,2018-06-18 00:00:00,TMP,surface,-92.8129,35.4329,294.815
2018-06-18 00:00:00,2018-06-18 00:00:00,TMP,surface,-107.813,36.3778,291.536
2018-06-18 00:00:00,2018-06-18 00:00:00,TMP,surface,-106.875,36.3778,288.858
2018-06-18 00:00:00,2018-06-18 00:00:00,TMP,surface,-105.938,36.3778,288.676
2018-06-18 00:00:00,2018-06-18 00:00:00,TMP,surface,-105,36.3778,289.677
2018-06-18 00:00:00,2018-06-18 00:00:00,TMP,surface,-104.063,36.3778,292.272
2018-06-18 00:00:00,2018-06-18 00:00:00,TMP,surface,-103.125,36.3778,294.788
2018-06-18 00:00:00,2018-06-18 00:00:00,TMP,surface,-102.188,36.3778,296.533
2018-06-18 00:00:00,2018-06-18 00:00:00,TMP,surface,-101.25,36.3778,297.375
2018-06-18 00:00:00,2018-06-18 00:00:00,TMP,surface,-100.313,36.3778,297.605
2018-06-18 00:00:00,2018-06-18 00:00:00,TMP,surface,-99.3754,36.3778,297.88
2018-06-18 00:00:00,2018-06-18 00:00:00,TMP,surface,-98.4379,36.3778,298.315
2018-06-18 00:00:00,2018-06-18 00:00:00,TMP,surface,-97.5004,36.3778,298.674
2018-06-18 00:00:00,2018-06-18 00:00:00,TMP,surface,-96.5629,36.3778,298.701
2018-06-18 00:00:00,2018-06-18 00:00:00,TMP,surface,-95.6254,36.3778,297.904
2018-06-18 00:00:00,2018-06-18 00:00:00,TMP,surface,-94.6879,36.3778,296.274
2018-06-18 00:00:00,2018-06-18 00:00:00,TMP,surface,-93.7504,36.3778,294.813
2018-06-18 00:00:00,2018-06-18 00:00:00,TMP,surface,-92.8129,36.3778,294.005
2018-06-18 00:00:00,2018-06-18 00:00:00,PRATE,surface,-107.813,25.0393,4.09e-05
2018-06-18 00:00:00,2018-06-18 00:00:00,PRATE,surface,-106.875,25.0393,0.000147
2018-06-18 00:00:00,2018-06-18 00:00:00,PRATE,surface,-105.938,25.0393,0.0001658
2018-06-18 00:00:00,2018-06-18 00:00:00,PRATE,surface,-105,25.0393,0.0001313
2018-06-18 00:00:00,2018-06-18 00:00:00,PRATE,surface,-104.063,25.0393,7.45e-05
2018-06-18 00:00:00,2018-06-18 00:00:00,PRATE,surface,-103.125,25.0393,2.57e-05
2018-06-18 00:00:00,2018-06-18 00:00:00,PRATE,surface,-102.188,25.0393,3.6e-05
2018-06-18 00:00:00,2018-06-18 00:00:00,PRATE,surface,-101.25,25.0393,9.69e-05
2018-06-18 00:00:00,2018-06-18 00:00:00,PRATE,surface,-100.313,25.0393,0.0001719
2018-06-18 00:00:00,2018-06-18 00:00:00,PRATE,surface,-99.3754,25.0393,8.97e-05
2018-06-18 00:00:00,2018-06-18 00:00:00,PRATE,surface,-98.4379,25.0393,3.64e-05
2018-06-18 00:00:00,2018-06-18 00:00:00,PRATE,surface,-97.5004,25.0393,6.62e-05
2018-06-18 00:00:00,2018-06-18 00:00:00,PRATE,surface,-96.5629,25.0393,6.13e-05
2018-06-18 00:00:00,2018-06-18 00:00:00,PRATE,surface,-95.6254,25.0393,5.93e-05
2018-06-18 00:00:00,2018-06-18 00:00:00,PRATE,surface,-94.6879,25.0393,4.33e-05
2018-06-18 00:00:00,2018-06-18 00:00:00,PRATE,surface,-93.7504,25.0393,6.7e-05
2018-06-18 00:00:00,2018-06-18 00:00:00,PRATE,surface,-92.8129,25.0393,7.55e-05
2018-06-18 00:00:00,2018-06-18 00:00:00,PRATE,surface,-107.813,25.9842,8.76e-05
2018-06-18 00:00:00,2018-06-18 00:00:00,PRATE,surface,-106.875,25.9842,0.00012
2018-06-18 00:00:00,2018-06-18 00:00:00,PRATE,surface,-105.938,25.9842,0.0001171
2018-06-18 00:00:00,2018-06-18 00:00:00,PRATE,surface,-105,25.9842,8.68e-05
2018-06-18 00:00:00,2018-06-18 00:00:00,PRATE,surface,-104.063,25.9842,4.01e-05
2018-06-18 00:00:00,2018-06-18 00:00:00,PRATE,surface,-103.125,25.9842,1.83e-05
2018-06-18 00:00:00,2018-06-18 00:00:00,PRATE,surface,-102.188,25.9842,2.19e-05
2018-06-18 00:00:00,2018-06-18 00:00:00,PRATE,surface,-101.25,25.9842,8.15e-05
2018-06-18 00:00:00,2018-06-18 00:00:00,PRATE,surface,-100.313,25.9842,0.0001364
2018-06-18 00:00:00,2018-06-18 00:00:00,PRATE,surface,-99.3754,25.9842,6.85e-05
2018-06-18 00:00:00,2018-06-18 00:00:00,PRATE,surface,-98.4379,25.9842,4.68e-05
2018-06-18 00:00:00,2018-06-18 00:00:00,PRATE,surface,-97.5004,25.9842,6.58e-05
2018-06-18 00:00:00,2018-06-18 00:00:00,PRATE,surface,-96.5629,25.9842,0.0001001
2018-06-18 00:00:00,2018-06-18 00:00:00,PRATE,surface,-95.6254,25.9842,0.0001154
2018-06-18 00:00:00,2018-06-18 00:00:00,PRATE,surface,-94.6879,25.9842,7.39e-05
2018-06-18 00:00:00,2018-06-18 00:00:00,PRATE,surface,-93.7504,25.9842,6.72e-05
2018-06-18 00:00:00,2018-06-18 00:00:00,PRATE,surface,-92.8129,25.9842,8.02e-05
2018-06-18 00:00:00,2018-06-18 00:00:00,PRATE,surface,-107.813,26.929,8.62e-05
2018-06-18 00:00:00,2018-06-18 00:00:00,PRATE,surface,-106.875,26.929,8.05e-05
2018-06-18 00:00:00,2018-06-18 00:00:00,PRATE,surface,-105.938,26.929,7.5e-05
2018-06-18 00:00:00,2018-06-18 00:00:00,PRATE,surface,-105,26.929,5.36e-05
2018-06-18 00:00:00,2018-06-18 00:00:00,PRATE,surface,-104.063,26.929,2.56e-05
2018-06-18 00:00:00,2018-06-18 00:00:00,PRATE,surface,-103.125,26.929,2.37e-05
2018-06-18 00:00:00,2018-06-18 00:00:00,PRATE,surface,-102.188,26.929,3e-05
2018-06-18 00:00:00,2018-06-18 00:00:00,PRATE,surface,-101.25,26.929,5.91e-05
2018-06-18 00:00:00,2018-06-18 00:00:00,PRATE,surface,-100.313,26.929,6.63e-05
2018-06-18 00:00:00,2018-06-18 00:00:00,PRATE,surface,-99.3754,26.929,5.83e-05
2018-06-18 00:00:00,2018-06-18 00:00:00,PRATE,surface,-98.4379,26.929,7.72e-05
2018-06-18 00:00:00,2018-06-18 00:00:00,PRATE,surface,-97.5004,26.929,9.82e-05
2018-06-18 00:00:00,2018-06-18 00:00:00,PRATE,surface,-96.5629,26.929,9.04e-05
2018-06-18 00:00:00,2018-06-18 00:00:00,PRATE,surface,-95.6254,26.929,8.02e-05
2018-06-18 00:00:00,2018-06-18 00:00:00,PRATE,surface,-94.6879,26.929,7.01e-05
2018-06-18 00:00:00,2018-06-18 00:00:00,PRATE,surface,-93.7504,26.929,9.08e-05
2018-06-18 00:00:00,2018-06-18 00:00:00,PRATE,surface,-92.8129,26.929,0.0001028
2018-06-18 00:00:00,2018-06-18 00:00:00,PRATE,surface,-107.813,27.8739,8.3e-05
2018-06-18 00:00:00,2018-06-18 00:00:00,PRATE,surface,-106.875,27.8739,6.8e-05
2018-06-18 00:00:00,2018-06-18 00:00:00,PRATE,surface,-105.938,27.8739,4.98e-05
2018-06-18 00:00:00,2018-06-18 00:00:00,PRATE,surface,-105,27.8739,2.65e-05
2018-06-18 00:00:00,2018-06-18 00:00:00,PRATE,surface,-104.063,27.8739,3.45e-05
2018-06-18 00:00:00,2018-06-18 00:00:00,PRATE,surface,-103.125,27.8739,3.29e-05
2018-06-18 00:00:00,2018-06-18 00:00:00,PRATE,surface,-102.188,27.8739,3.94e-05
2018-06-18 00:00:00,2018-06-18 00:00:00,PRATE,surface,-101.25,27.8739,2.85e-05
2018-06-18 00:00:00,2018-06-18 00:00:00,PRATE,surface,-100.313,27.8739,2.38e-05
2018-06-18 00:00:00,2018-06-18 00:00:00,PRATE,surface,-99.3754,27.8739,4.56e-05
2018-06-18 00:00:00,2018-06-18 00:00:00,PRATE,surface,-98.4379,27.8739,8.27e-05
2018-06-18 00:00:00,2018-06-18 00:00:00,PRATE,surface,-97.5004,27.8739,9.03e-05
2018-06-18 00:00:00,2018-06-18 00:00:00,PRATE,surface,-96.5629,27.8739,6.72e-05
2018-06-18 00:00:00,2018-06-18 00:00:00,PRATE,surface,-95.6254,27.8739,5.45e-05
2018-06-18 00:00:00,2018-06-18 00:00:00,PRATE,surface,-94.6879,27.8739,6.15e-05
2018-06-18 00:00:00,2018-06-18 00:00:00,PRATE,surface,-93.7504,27.8739,6.62e-05
2018-06-18 00:00:00,2018-06-18 00:00:00,PRATE,surface,-92.8129,27.8739,6.17e-05
2018-06-18 00:00:00,2018-06-18 00:00:00,PRATE,surface,-107.813,28.8188,8.48e-05
2018-06-18 00:00:00,2018-06-18 00:00:00,PRATE,surface,-106.875,28.8188,7.21e-05
2018-06-18 00:00:00,2018-06-18 00:00:00,PRATE,surface,-105.938,28.8188,4.56e-05
2018-06-18 00:00:00,2018-06-18 00:00:00,PRATE,surface,-105,28.8188,2.86e-05
2018-06-18 00:00:00,2018-06-18 00:00:00,PRATE,surface,-104.063,28.8188,3.11e-05
2018-06-18 00:00:00,2018-06-18 00:00:00,PRATE,surface,-103.125,28.8188,2.46e-05
2018-06-18 00:00:00,2018-06-18 00:00:00,PRATE,surface,-102.188,28.8188,1.55e-05
2018-06-18 00:00:00,2018-06-18 00:00:00,PRATE,surface,-101.25,28.8188,1.02e-05
2018-06-18 00:00:00,2018-06-18 00:00:00,PRATE,surface,-100.313,28.8188,1.13e-05
2018-06-18 00:00:00,2018-06-18 00:00:00,PRATE,surface,-99.3754,28.8188,3.53e-05
2018-06-18 00:00:00,2018-06-18 00:00:00,PRATE,surface,-98.4379,28.8188,6.51e-05
2018-06-18 00:00:00,2018-06-18 00:00:00,PRATE,surface,-97.5004,28.8188,7.76e-05
2018-06-18 00:00:00,2018-06-18 00:00:00,PRATE,surface,-96.5629,28.8188,6.8e-05
2018-06-18 00:00:00,2018-06-18 00:00:00,PRATE,surface,-95.6254,28.8188,5.94e-05
2018-06-18 00:00:00,2018-06-18 00:00:00,PRATE,surface,-94.6879,28.8188,6.15e-05
2018-06-18 00:00:00,2018-06-18 00:00:00,PRATE,surface,-93.7504,28.8188,5e-05
2018-06-18 00:00:00,2018-06-18 00:00:00,PRATE,surface,-92.8129,28.8188,4.11e-05
2018-06-18 00:00:00,2018-06-18 00:00:00,PRATE,surface,-107.813,29.7637,6.47e-05
2018-06-18 00:00:00,2018-06-18 00:00:00,PRATE,surface,-106.875,29.7637,6.86e-05
2018-06-18 00:00:00,2018-06-18 00:00:00,PRATE,surface,-105.938,29.7637,5.38e-05
2018-06-18 00:00:00,2018-06-18 00:00:00,PRATE,surface,-105,29.7637,3.59e-05
2018-06-18 00:00:00,2018-06-18 00:00:00,PRATE,surface,-104.063,29.7637,3.36e-05
2018-06-18 00:00:00,2018-06-18 00:00:00,PRATE,surface,-103.125,29.7637,1.78e-05
2018-06-18 00:00:00,2018-06-18 00:00:00,PRATE,surface,-102.188,29.7637,8.1e-06
2018-06-18 00:00:00,2018-06-18 00:00:00,PRATE,surface,-101.25,29.7637,5.1e-06
2018-06-18 00:00:00,2018-06-18 00:00:00,PRATE,surface,-100.313,29.7637,6.3e-06
2018-06-18 00:00:00,2018-06-18 00:00:00,PRATE,surface,-99.3754,29.7637,1.88e-05
2018-06-18 00:00:00,2018-06-18 00:00:00,PRATE,surface,-98.4379,29.7637,2.77e-05
2018-06-18 00:00:00,2018-06-18 00:00:00,PRATE,surface,-97.5004,29.7637,3.02e-05
2018-06-18 00:00:00,2018-06-18 00:00:00,PRATE,surface,-96.5629,29.7637,3.97e-05
2018-06-18 00:00:00,2018-06-18 00:00:00,PRATE,surface,-95.6254,29.7637,5.52e-05
2018-06-18 00:00:00,2018-06-18 00:00:00,PRATE,surface,-94.6879,29.7637,5.63e-05
2018-06-18 00:00:00,2018-06-18 00:00:00,PRATE,surface,-93.7504,29.7637,3.91e-05
2018-06-18 00:00:00,2018-06-18 00:00:00,PRATE,surface,-92.8129,29.7637,2.94e-05
2018-06-18 00:00:00,2018-06-18 00:00:00,PRATE,surface,-107.813,30.7085,3.75e-05
2018-06-18 00:00:00,2018-06-18 00:00:00,PRATE,surface,-106.875,30.7085,3.9e-05
2018-06-18 00:00:00,2018-06-18 00:00:00,PRATE,surface,-105.938,30.7085,3.72e-05
2018-06-18 00:00:00,2018-06-18 00:00:00,PRATE,surface,-105,30.7085,3.33e-05
2018-06-18 00:00:00,2018-06-18 00:00:00,PRATE,surface,-104.063,30.7085,2.79e-05
2018-06-18 00:00:00,2018-06-18 00:00:00,PRATE,surface,-103.125,30.7085,1.69e-05
2018-06-18 00:00:00,2018-06-18 00:00:00,PRATE,surface,-102.188,30.7085,8.9e-06
2018-06-18 00:00:00,2018-06-18 00:00:00,PRATE,surface,-101.25,30.7085,1.08e-05
2018-06-18 00:00:00,2018-06-18 00:00:00,PRATE,surface,-100.313,30.7085,1.37e-05
2018-06-18 00:00:00,2018-06-18 00:00:00,PRATE,surface,-99.3754,30.7085,1.36e-05
2018-06-18 00:00:00,2018-06-18 00:00:00,PRATE,surface,-98.4379,30.7085,1.25e-05
2018-06-18 00:00:00,2018-06-18 00:00:00,PRATE,surface,-97.5004,30.7085,1.27e-05
2018-06-18 00:00:00,2018-06-18 00:00:00,PRATE,surface,-96.5629,30.7085,1.86e-05
2018-06-18 00:00:00,2018-06-18 00:00:00,PRATE,surface,-95.6254,30.7085,2.8e-05
2018-06-18 00:00:00,2018-06-18 00:00:00,PRATE,surface,-94.6879,30.7085,2.86e-05
2018-06-18 00:00:00,2018-06-18 00:00:00,PRATE,surface,-93.7504,30.7085,1.98e-05
2018-06-18 00:00:00,2018-06-18 00:00:00,PRATE,surface,-92.8129,30.7085,1.9e-05
2018-06-18 00:00:00,2018-06-18 00:00:00,PRATE,surface,-107.813,31.6534,2.12e-05
2018-06-18 00:00:00,2018-06-18 00:00:00,PRATE,surface,-106.875,31.6534,2.27e-05
2018-06-18 00:00:00,2018-06-18 00:00:00,PRATE,surface,-105.938,31.6534,2.78e-05
2018-06-18 00:00:00,2018-06-18 00:00:00,PRATE,surface,-105,31.6534,3.78e-05
2018-06-18 00:00:00,2018-06-18 00:00:00,PRATE,surface,-104.063,31.6534,3.05e-05
2018-06-18 00:00:00,2018-06-18 00:00:00,PRATE,surface,-103.125,31.6534,1.94e-05
2018-06-18 00:00:00,2018-06-18 00:00:00,PRATE,surface,-102.188,31.6534,1.33e-05
2018-06-18 00:00:00,2018-06-18 00:00:00,PRATE,surface,-101.25,31.6534,1.25e-05
2018-06-18 00:00:00,2018-06-18 00:00:00,PRATE,surface,-100.313,31.6534,1.44e-05
2018-06-18 00:00:00,2018-06-18 00:00:00,PRATE,surface,-99.3754,31.6534,1.19e-05
2018-06-18 00:00:00,2018-06-18 00:00:00,PRATE,surface,-98.4379,31.6534,8.1e-06
2018-06-18 00:00:00,2018-06-18 00:00:00,PRATE,surface,-97.5004,31.6534,8e-06
2018-06-18 00:00:00,2018-06-18 00:00:00,PRATE,surface,-96.5629,31.6534,1.13e-05
2018-06-18 00:00:00,2018-06-18 00:00:00,PRATE,surface,-95.6254,31.6534,1.56e-05
2018-06-18 00:00:00,2018-06-18 00:00:00,PRATE,surface,-94.6879,31.6534,1.69e-05
2018-06-18 00:00:00,2018-06-18 00:00:00,PRATE,surface,-93.7504,31.6534,1.27e-05
2018-06-18 00:00:00,2018-06-18 00:00:00,PRATE,surface,-92.8129,31.6534,8.3e-06
2018-06-18 00:00:00,2018-06-18 00:00:00,PRATE,surface,-107.813,32.5983,2.72e-05
2018-06-18 00:00:00,2018-06-18 00:00:00,PRATE,surface,-106.875,32.5983,2.59e-05
2018-06-18 00:00:00,2018-06-18 00:00:00,PRATE,surface,-105.938,32.5983,3.25e-05
2018-06-18 00:00:00,2018-06-18 00:00:00,PRATE,surface,-105,32.5983,3.18e-05
2018-06-18 00:00:00,2018-06-18 00:00:00,PRATE,surface,-104.063,32.5983,2.54e-05
2018-06-18 00:00:00,2018-06-18 00:00:00,PRATE,surface,-103.125,32.5983,1.67e-05
2018-06-18 00:00:00,2018-06-18 00:00:00,PRATE,surface,-102.188,32.5983,1.28e-05
2018-06-18 00:00:00,2018-06-18 00:00:00,PRATE,surface,-101.25,32.5983,8.9e-06
2018-06-18 00:00:00,2018-06-18 00:00:00,PRATE,surface,-100.313,32.5983,7.4e-06
2018-06-18 00:00:00,2018-06-18 00:00:00,PRATE,surface,-99.3754,32.5983,7e-06
2018-06-18 00:00:00,2018-06-18 00:00:00,PRATE,surface,-98.4379,32.5983,6.4e-06
2018-06-18 00:00:00,2018-06-18 00:00:00,PRATE,surface,-97.5004,32.5983,6e-06
2018-06-18 00:00:00,2018-06-18 00:00:00,PRATE,surface,-96.5629,32.5983,7.2e-06
2018-06-18 00:00:00,2018-06-18 00:00:00,PRATE,surface,-95.6254,32.5983,1.04e-05
2018-06-18 00:00:00,2018-06-18 00:00:00,PRATE,surface,-94.6879,32.5983,1.19e-05
2018-06-18 00:00:00,2018-06-18 00:00:00,PRATE,surface,-93.7504,32.5983,8e-06
2018-06-18 00:00:00,2018-06-18 00:00:00,PRATE,surface,-92.8129,32.5983,3.2e-06
2018-06-18 00:00:00,2018-06-18 00:00:00,PRATE,surface,-107.813,33.5432,4.44e-05
2018-06-18 00:00:00,2018-06-18 00:00:00,PRATE,surface,-106.875,33.5432,3.59e-05
2018-06-18 00:00:00,2018-06-18 00:00:00,PRATE,surface,-105.938,33.5432,2.94e-05
2018-06-18 00:00:00,2018-06-18 00:00:00,PRATE,surface,-105,33.5432,3.04e-05
2018-06-18 00:00:00,2018-06-18 00:00:00,PRATE,surface,-104.063,33.5432,2.05e-05
2018-06-18 00:00:00,2018-06-18 00:00:00,PRATE,surface,-103.125,33.5432,1.6e-05
2018-06-18 00:00:00,2018-06-18 00:00:00,PRATE,surface,-102.188,33.5432,1.39e-05
2018-06-18 00:00:00,2018-06-18 00:00:00,PRATE,surface,-101.25,33.5432,1.12e-05
2018-06-18 00:00:00,2018-06-18 00:00:00,PRATE,surface,-100.313,33.5432,8e-06
2018-06-18 00:00:00,2018-06-18 00:00:00,PRATE,surface,-99.3754,33.5432,5.3e-06
2018-06-18 00:00:00,2018-06-18 00:00:00,PRATE,surface,-98.4379,33.5432,4.4e-06
2018-06-18 00:00:00,2018-06-18 00:00:00,PRATE,surface,-97.5004,33.5432,4.3e-06
2018-06-18 00:00:00,2018-06-18 00:00:00,PRATE,surface,-96.5629,33.5432,7.4e-06
2018-06-18 00:00:00,2018-06-18 00:00:00,PRATE,surface,-95.6254,33.5432,1.08e-05
2018-06-18 00:00:00,2018-06-18 00:00:00,PRATE,surface,-94.6879,33.5432,9.8e-06
2018-06-18 00:00:00,2018-06-18 00:00:00,PRATE,surface,-93.7504,33.5432,9.8e-06
2018-06-18 00:00:00,2018-06-18 00:00:00,PRATE,surface,-92.8129,33.5432,6.5e-06
2018-06-18 00:00:00,2018-06-18 00:00:00,PRATE,surface,-107.813,34.4881,3.34e-05
2018-06-18 00:00:00,2018-06-18 00:00:00,PRATE,surface,-106.875,34.4881,2.15e-05
2018-06-18 00:00:00,2018-06-18 00:00:00,PRATE,surface,-105.938,34.4881,1.77e-05
2018-06-18 00:00:00,2018-06-18 00:00:00,PRATE,surface,-105,34.4881,1.48e-05
2018-06-18 00:00:00,2018-06-18 00:00:00,PRATE,surface,-104.063,34.4881,1.9e-05
2018-06-18 00:00:00,2018-06-18 00:00:00,PRATE,surface,-103.125,34.4881,1.17e-05
2018-06-18 00:00:00,2018-06-18 00:00:00,PRATE,surface,-102.188,34.4881,9.9e-06
2018-06-18 00:00:00,2018-06-18 00:00:00,PRATE,surface,-101.25,34.4881,1.06e-05
2018-06-18 00:00:00,2018-06-18 00:00:00,PRATE,surface,-100.313,34.4881,8.8e-06
2018-06-18 00:00:00,2018-06-18 00:00:00,PRATE,surface,-99.3754,34.4881,6.2e-06
2018-06-18 00:00:00,2018-06-18 00:00:00,PRATE,surface,-98.4379,34.4881,5.1e-06
2018-06-18 00:00:00,2018-06-18 00:00:00,PRATE,surface,-97.5004,34.4881,4.6e-06
2018-06-18 00:00:00,2018-06-18 00:00:00,PRATE,surface,-96.5629,34.4881,4.2e-06
2018-06-18 00:00:00,2018-06-18 00:00:00,PRATE,surface,-95.6254,34.4881,5.2e-06
2018-06-18 00:00:00,2018-06-18 00:00:00,PRATE,surface,-94.6879,34.4881,7.3e-06
2018-06-18 00:00:00,2018-06-18 00:00:00,PRATE,surface,-93.7504,34.4881,9e-06
2018-06-18 00:00:00,2018-06-18 00:00:00,PRATE,surface,-92.8129,34.4881,9.3e-06
2018-06-18 00:00:00,2018-06-18 00:00:00,PRATE,surface,-107.813,35.4329,1.2e-05
2018-06-18 00:00:00,2018-06-18 00:00:00,PRATE,surface,-106.875,35.4329,1.19e-05
2018-06-18 00:00:00,2018-06-18 00:00:00,PRATE,surface,-105.938,35.4329,1.53e-05
2018-06-18 00:00:00,2018-06-18 00:00:00,PRATE,surface,-105,35.4329,2.17e-05
2018-06-18 00:00:00,2018-06-18 00:00:00,PRATE,surface,-104.063,35.4329,1.5e-05
2018-06-18 00:00:00,2018-06-18 00:00:00,PRATE,surface,-103.125,35.4329,7.9e-06
2018-06-18 00:00:00,2018-06-18 00:00:00,PRATE,surface,-102.188,35.4329,4.2e-06
2018-06-18 00:00:00,2018-06-18 00:00:00,PRATE,surface,-101.25,35.4329,5.1e-06
2018-06-18 00:00:00,2018-06-18 00:00:00,PRATE,surface,-100.313,35.4329,8e-06
2018-06-18 00:00:00,2018-06-18 00:00:00,PRATE,surface,-99.3754,35.4329,1e-05
2018-06-18 00:00:00,2018-06-18 00:00:00,PRATE,surface,-98.4379,35.4329,9.3e-06
2018-06-18 00:00:00,2018-06-18 00:00:00,PRATE,surface,-97.5004,35.4329,5.5e-06
2018-06-18 00:00:00,2018-06-18 00:00:00,PRATE,surface,-96.5629,35.4329,2.7e-06
2018-06-18 00:00:00,2018-06-18 00:00:00,PRATE,surface,-95.6254,35.4329,3.4e-06
2018-06-18 00:00:00,2018-06-18 00:00:00,PRATE,surface,-94.6879,35.4329,6.9e-06
2018-06-18 00:00:00,2018-06-18 00:00:00,PRATE,surface,-93.7504,35.4329,1.33e-05
2018-06-18 00:00:00,2018-06-18 00:00:00,PRATE,surface,-92.8129,35.4329,1.44e-05
2018-06-18 00:00:00,2018-06-18 00:00:00,PRATE,surface,-107.813,36.3778,1.21e-05
2018-06-18 00:00:00,2018-06-18 00:00:00,PRATE,surface,-106.875,36.3778,1.69e-05
2018-06-18 00:00:00,2018-06-18 00:00:00,PRATE,surface,-105.938,36.3778,3.77e-05
2018-06-18 00:00:00,2018-06-18 00:00:00,PRATE,surface,-105,36.3778,3.26e-05
2018-06-18 00:00:00,2018-06-18 00:00:00,PRATE,surface,-104.063,36.3778,2.71e-05
2018-06-18 00:00:00,2018-06-18 00:00:00,PRATE,surface,-103.125,36.3778,1.38e-05
2018-06-18 00:00:00,2018-06-18 00:00:00,PRATE,surface,-102.188,36.3778,4.5e-06
2018-06-18 00:00:00,2018-06-18 00:00:00,PRATE,surface,-101.25,36.3778,5.1e-06
2018-06-18 00:00:00,2018-06-18 00:00:00,PRATE,surface,-100.313,36.3778,8.2e-06
2018-06-18 00:00:00,2018-06-18 00:00:00,PRATE,surface,-99.3754,36.3778,9.5e-06
2018-06-18 00:00:00,2018-06-18 00:00:00,PRATE,surface,-98.4379,36.3778,1.02e-05
2018-06-18 00:00:00,2018-06-18 00:00:00,PRATE,surface,-97.5004,36.3778,8e-06
2018-06-18 00:00:00,2018-06-18 00:00:00,PRATE,surface,-96.5629,36.3778,5.4e-06
2018-06-18 00:00:00,2018-06-18 00:00:00,PRATE,surface,-95.6254,36.3778,7.1e-06
2018-06-18 00:00:00,2018-06-18 00:00:00,PRATE,surface,-94.6879,36.3778,1.08e-05
2018-06-18 00:00:00,2018-06-18 00:00:00,PRATE,surface,-93.7504,36.3778,1.4e-05
2018-06-18 00:00:00,2018-06-18 00:00:00,PRATE,surface,-92.8129,36.3778,1.81e-05
