2012-05-05 00:00:00,2012-05-05 00:00:00,TMP,surface,-107.813,25.0393,302.586
2012-05-05 00:00:00,2012-05-05 00:00:00,TMP,surface,-106.875,25.0393,296.21
2012-05-05 00:00:00,2012-05-05 00:00:00,TMP,surface,-105.938,25.0393,292.53
2012-05-05 00:00:00,2012-05-05 00:00:00,TMP,surface,-105,25.0393,290.786
2012-05-05 00:00:00,2012-05-05 00:00:00,TMP,surface,-104.063,25.0393,295.506
2012-05-05 00:00:00,2012-05-05 00:00:00,TMP,surface,-103.125,25.0393,298.919
2012-05-05 00:00:00,2012-05-05 00:00:00,TMP,surface,-102.188,25.0393,297.713
2012-05-05 00:00:00,2012-05-05 00:00:00,TMP,surface,-101.25,25.0393,294.943
2012-05-05 00:00:00,2012-05-05 00:00:00,TMP,surface,-100.313,25.0393,295.54
2012-05-05 00:00:00,2012-05-05 00:00:00,TMP,surface,-99.3754,25.0393,299.884
2012-05-05 00:00:00,2012-05-05 00:00:00,TMP,surface,-98.4379,25.0393,303.258
2012-05-05 00:00:00,2012-05-05 00:00:00,TMP,surface,-97.5004,25.0393,303.398
2012-05-05 00:00:00,2012-05-05 00:00:00,TMP,surface,-96.5629,25.0393,303.474
2012-05-05 00:00:00,2012-05-05 00:00:00,TMP,surface,-95.6254,25.0393,303.884
2012-05-05 00:00:00,2012-05-05 00:00:00,TMP,surface,-94.6879,25.0393,304.17
2012-05-05 00:00:00,2012-05-05 00:00:00,TMP,surface,-93.7504,25.0393,304.202
2012-05-05 00:00:00,2012-05-05 00:00:00,TMP,surface,-92.8129,25.0393,304.169
2012-05-05 00:00:00,2012-05-05 00:00:00,TMP,surface,-107.813,25.9842,298.319
2012-05-05 00:00:00,2012-05-05 00:00:00,TMP,surface,-106.875,25.9842,293.198
2012-05-05 00:00:00,2012-05-05 00:00:00,TMP,surface,-105.938,25.9842,291.476
2012-05-05 00:00:00,2012-05-05 00:00:00,TMP,surface,-105,25.9842,293.711
2012-05-05 00:00:00,2012-05-05 00:00:00,TMP,surface,-104.063,25.9842,299.159
2012-05-05 00:00:00,2012-05-05 00:00:00,TMP,surface,-103.125,25.9842,301.172
2012-05-05 00:00:00,2012-05-05 00:00:00,TMP,surface,-102.188,25.9842,299.316
2012-05-05 00:00:00,2012-05-05 00:00:00,TMP,surface,-101.25,25.9842,298.439
2012-05-05 00:00:00,2012-05-05 00:00:00,TMP,surface,-100.313,25.9842,300.084
2012-05-05 00:00:00,2012-05-05 00:00:00,TMP,surface,-99.3754,25.9842,303.486
2012-05-05 00:00:00,2012-05-05 00:00:00,TMP,surface,-98.4379,25.9842,304.796
2012-05-05 00:00:00,2012-05-05 00:00:00,TMP,surface,-97.5004,25.9842,303.578
2012-05-05 00:00:00,2012-05-05 00:00:00,TMP,surface,-96.5629,25.9842,302.871
2012-05-05 00:00:00,2012-05-05 00:00:00,TMP,surface,-95.6254,25.9842,303.721
2012-05-05 00:00:00,2012-05-05 00:00:00,TMP,surface,-94.6879,25.9842,304.06
2012-05-05 00:00:00,2012-05-05 00:00:00,TMP,surface,-93.7504,25.9842,304.217
2012-05-05 00:00:00,2012-05-05 00:00:00,TMP,surface,-92.8129,25.9842,304.276
2012-05-05 00:00:00,2012-05-05 00:00:00,TMP,surface,-107.813,26.929,294.367
2012-05-05 00:00:00,2012-05-05 00:00:00,TMP,surface,-106.875,26.929,291.994
2012-05-05 00:00:00,2012-05-05 00:00:00,TMP,surface,-105.938,26.929,293.214
2012-05-05 00:00:00,2012-05-05 00:00:00,TMP,surface,-105,26.929,297.927
2012-05-05 00:00:00,2012-05-05 00:00:00,TMP,surface,-104.063,26.929,301.209
2012-05-05 00:00:00,2012-05-05 00:00:00,TMP,surface,-103.125,26.929,300.772
2012-05-05 00:00:00,2012-05-05 00:00:00,TMP,surface,-102.188,26.929,299.178
2012-05-05 00:00:00,2012-05-05 00:00:00,TMP,surface,-101.25,26.929,300.298
2012-05-05 00:00:00,2012-05-05 00:00:00,TMP,surface,-100.313,26.929,303.871
2012-05-05 00:00:00,2012-05-05 00:00:00,TMP,surface,-99.3754,26.929,305.676
2012-05-05 00:00:00,2012-05-05 00:00:00,TMP,surface,-98.4379,26.929,304.447
2012-05-05 00:00:00,2012-05-05 00:00:00,TMP,surface,-97.5004,26.929,300.586
2012-05-05 00:00:00,2012-05-05 00:00:00,TMP,surface,-96.5629,26.929,301.66
2012-05-05 00:00:00,2012-05-05 00:00:00,TMP,surface,-95.6254,26.929,303.111
2012-05-05 00:00:00,2012-05-05 00:00:00,TMP,surface,-94.6879,26.929,303.75
2012-05-05 00:00:00,2012-05-05 00:00:00,TMP,surface,-93.7504,26.929,303.959
2012-05-05 00:00:00,2012-05-05 00:00:00,TMP,surface,-92.8129,26.929,304.138
2012-05-05 00:00:00,2012-05-05 00:00:00,TMP,surface,-107.813,27.8739,292.983
2012-05-05 00:00:00,2012-05-05 00:00:00,TMP,surface,-106.875,27.8739,292.526
2012-05-05 00:00:00,2012-05-05 00:00:00,TMP,surface,-105.938,27.8739,296.071
2012-05-05 00:00:00,2012-05-05 00:00:00,TMP,surface,-105,27.8739,300.262
2012-05-05 00:00:00,2012-05-05 00:00:00,TMP,surface,-104.063,27.8739,301.151
2012-05-05 00:00:00,2012-05-05 00:00:00,TMP,surface,-103.125,27.8739,299.385
2012-05-05 00:00:00,2012-05-05 00:00:00,TMP,surface,-102.188,27.8739,298.865
2012-05-05 00:00:00,2012-05-05 00:00:00,TMP,surface,-101.25,27.8739,302.217
2012-05-05 00:00:00,2012-05-05 00:00:00,TMP,surface,-100.313,27.8739,305.095
2012-05-05 00:00:00,2012-05-05 00:00:00,TMP,surface,-99.3754,27.8739,305.382
2012-05-05 00:00:00,2012-05-05 00:00:00,TMP,surface,-98.4379,27.8739,303.9
2012-05-05 00:00:00,2012-05-05 00:00:00,TMP,surface,-97.5004,27.8739,302.425
2012-05-05 00:00:00,2012-05-05 00:00:00,TMP,surface,-96.5629,27.8739,301.999
2012-05-05 00:00:00,2012-05-05 00:00:00,TMP,surface,-95.6254,27.8739,302.462
2012-05-05 00:00:00,2012-05-05 00:00:00,TMP,surface,-94.6879,27.8739,303.183
2012-05-05 00:00:00,2012-05-05 00:00:00,TMP,surface,-93.7504,27.8739,303.775
2012-05-05 00:00:00,2012-05-05 00:00:00,TMP,surface,-92.8129,27.8739,304.054
2012-05-05 00:00:00,2012-05-05 00:00:00,TMP,surface,-107.813,28.8188,292.681
2012-05-05 00:00:00,2012-05-05 00:00:00,TMP,surface,-106.875,28.8188,293.684
2012-05-05 00:00:00,2012-05-05 00:00:00,TMP,surface,-105.938,28.8188,298.249
2012-05-05 00:00:00,2012-05-05 00:00:00,TMP,surface,-105,28.8188,301.711
2012-05-05 00:00:00,2012-05-05 00:00:00,TMP,surface,-104.063,28.8188,301.119
2012-05-05 00:00:00,2012-05-05 00:00:00,TMP,surface,-103.125,28.8188,299.895
2012-05-05 00:00:00,2012-05-05 00:00:00,TMP,surface,-102.188,28.8188,300.31
2012-05-05 00:00:00,2012-05-05 00:00:00,TMP,surface,-101.25,28.8188,302.886
2012-05-05 00:00:00,2012-05-05 00:00:00,TMP,surface,-100.313,28.8188,304.524
2012-05-05 00:00:00,2012-05-05 00:00:00,TMP,surface,-99.3754,28.8188,304.004
2012-05-05 00:00:00,2012-05-05 00:00:00,TMP,surface,-98.4379,28.8188,302.822
2012-05-05 00:00:00,2012-05-05 00:00:00,TMP,surface,-97.5004,28.8188,302.247
2012-05-05 00:00:00,2012-05-05 00:00:00,TMP,surface,-96.5629,28.8188,302.159
2012-05-05 00:00:00,2012-05-05 00:00:00,TMP,surface,-95.6254,28.8188,302.063
2012-05-05 00:00:00,2012-05-05 00:00:00,TMP,surface,-94.6879,28.8188,302.178
2012-05-05 00:00:00,2012-05-05 00:00:00,TMP,surface,-93.7504,28.8188,302.852
2012-05-05 00:00:00,2012-05-05 00:00:00,TMP,surface,-92.8129,28.8188,303.263
2012-05-05 00:00:00,2012-05-05 00:00:00,TMP,surface,-107.813,29.7637,295.577
2012-05-05 00:00:00,2012-05-05 00:00:00,TMP,surface,-106.875,29.7637,296.974
2012-05-05 00:00:00,2012-05-05 00:00:00,TMP,surface,-105.938,29.7637,300.202
2012-05-05 00:00:00,2012-05-05 00:00:00,TMP,surface,-105,29.7637,301.863
2012-05-05 00:00:00,2012-05-05 00:00:00,TMP,surface,-104.063,29.7637,301.356
2012-05-05 00:00:00,2012-05-05 00:00:00,TMP,surface,-103.125,29.7637,301.25
2012-05-05 00:00:00,2012-05-05 00:00:00,TMP,surface,-102.188,29.7637,302.409
2012-05-05 00:00:00,2012-05-05 00:00:00,TMP,surface,-101.25,29.7637,303.404
2012-05-05 00:00:00,2012-05-05 00:00:00,TMP,surface,-100.313,29.7637,303.262
2012-05-05 00:00:00,2012-05-05 00:00:00,TMP,surface,-99.3754,29.7637,302.214
2012-05-05 00:00:00,2012-05-05 00:00:00,TMP,surface,-98.4379,29.7637,301.674
2012-05-05 00:00:00,2012-05-05 00:00:00,TMP,surface,-97.5004,29.7637,301.876
2012-05-05 00:00:00,2012-05-05 00:00:00,TMP,surface,-96.5629,29.7637,301.855
2012-05-05 00:00:00,2012-05-05 00:00:00,TMP,surface,-95.6254,29.7637,301.396
2012-05-05 00:00:00,2012-05-05 00:00:00,TMP,surface,-94.6879,29.7637,301.343
2012-05-05 00:00:00,2012-05-05 00:00:00,TMP,surface,-93.7504,29.7637,301.785
2012-05-05 00:00:00,2012-05-05 00:00:00,TMP,surface,-92.8129,29.7637,301.574
2012-05-05 00:00:00,2012-05-05 00:00:00,TMP,surface,-107.813,30.7085,299.489
2012-05-05 00:00:00,2012-05-05 00:00:00,TMP,surface,-106.875,30.7085,301.01
2012-05-05 00:00:00,2012-05-05 00:00:00,TMP,surface,-105.938,30.7085,301.662
2012-05-05 00:00:00,2012-05-05 00:00:00,TMP,surface,-105,30.7085,301.708
2012-05-05 00:00:00,2012-05-05 00:00:00,TMP,surface,-104.063,30.7085,301.15
2012-05-05 00:00:00,2012-05-05 00:00:00,TMP,surface,-103.125,30.7085,302.329
2012-05-05 00:00:00,2012-05-05 00:00:00,TMP,surface,-102.188,30.7085,303.407
2012-05-05 00:00:00,2012-05-05 00:00:00,TMP,surface,-101.25,30.7085,303.444
2012-05-05 00:00:00,2012-05-05 00:00:00,TMP,surface,-100.313,30.7085,302.906
2012-05-05 00:00:00,2012-05-05 00:00:00,TMP,surface,-99.3754,30.7085,302.244
2012-05-05 00:00:00,2012-05-05 00:00:00,TMP,surface,-98.4379,30.7085,302.302
2012-05-05 00:00:00,2012-05-05 00:00:00,TMP,surface,-97.5004,30.7085,302.732
2012-05-05 00:00:00,2012-05-05 00:00:00,TMP,surface,-96.5629,30.7085,302.831
2012-05-05 00:00:00,2012-05-05 00:00:00,TMP,surface,-95.6254,30.7085,302.382
2012-05-05 00:00:00,2012-05-05 00:00:00,TMP,surface,-94.6879,30.7085,301.705
2012-05-05 00:00:00,2012-05-05 00:00:00,TMP,surface,-93.7504,30.7085,301.454
2012-05-05 00:00:00,2012-05-05 00:00:00,TMP,surface,-92.8129,30.7085,301.022
2012-05-05 00:00:00,2012-05-05 00:00:00,TMP,surface,-107.813,31.6534,301.598
2012-05-05 00:00:00,2012-05-05 00:00:00,TMP,surface,-106.875,31.6534,302.033
2012-05-05 00:00:00,2012-05-05 00:00:00,TMP,surface,-105.938,31.6534,301.482
2012-05-05 00:00:00,2012-05-05 00:00:00,TMP,surface,-105,31.6534,301.15
2012-05-05 00:00:00,2012-05-05 00:00:00,TMP,surface,-104.063,31.6534,301.753
2012-05-05 00:00:00,2012-05-05 00:00:00,TMP,surface,-103.125,31.6534,302.833
2012-05-05 00:00:00,2012-05-05 00:00:00,TMP,surface,-102.188,31.6534,303.438
2012-05-05 00:00:00,2012-05-05 00:00:00,TMP,surface,-101.25,31.6534,303.234
2012-05-05 00:00:00,2012-05-05 00:00:00,TMP,surface,-100.313,31.6534,302.959
2012-05-05 00:00:00,2012-05-05 00:00:00,TMP,surface,-99.3754,31.6534,303.084
2012-05-05 00:00:00,2012-05-05 00:00:00,TMP,surface,-98.4379,31.6534,303.418
2012-05-05 00:00:00,2012-05-05 00:00:00,TMP,surface,-97.5004,31.6534,303.604
2012-05-05 00:00:00,2012-05-05 00:00:00,TMP,surface,-96.5629,31.6534,303.449
2012-05-05 00:00:00,2012-05-05 00:00:00,TMP,surface,-95.6254,31.6534,302.945
2012-05-05 00:00:00,2012-05-05 00:00:00,TMP,surface,-94.6879,31.6534,302.276
2012-05-05 00:00:00,2012-05-05 00:00:00,TMP,surface,-93.7504,31.6534,301.788
2012-05-05 00:00:00,2012-05-05 00:00:00,TMP,surface,-92.8129,31.6534,301.58
2012-05-05 00:00:00,2012-05-05 00:00:00,TMP,surface,-107.813,32.5983,298.143
2012-05-05 00:00:00,2012-05-05 00:00:00,TMP,surface,-106.875,32.5983,298.924
2012-05-05 00:00:00,2012-05-05 00:00:00,TMP,surface,-105.938,32.5983,299.478
2012-05-05 00:00:00,2012-05-05 00:00:00,TMP,surface,-105,32.5983,299.868
2012-05-05 00:00:00,2012-05-05 00:00:00,TMP,surface,-104.063,32.5983,301.046
2012-05-05 00:00:00,2012-05-05 00:00:00,TMP,surface,-103.125,32.5983,302.073
2012-05-05 00:00:00,2012-05-05 00:00:00,TMP,surface,-102.188,32.5983,302.567
2012-05-05 00:00:00,2012-05-05 00:00:00,TMP,surface,-101.25,32.5983,302.911
2012-05-05 00:00:00,2012-05-05 00:00:00,TMP,surface,-100.313,32.5983,303.718
2012-05-05 00:00:00,2012-05-05 00:00:00,TMP,surface,-99.3754,32.5983,304.457
2012-05-05 00:00:00,2012-05-05 00:00:00,TMP,surface,-98.4379,32.5983,304.46
2012-05-05 00:00:00,2012-05-05 00:00:00,TMP,surface,-97.5004,32.5983,303.924
2012-05-05 00:00:00,2012-05-05 00:00:00,TMP,surface,-96.5629,32.5983,303.474
2012-05-05 00:00:00,2012-05-05 00:00:00,TMP,surface,-95.6254,32.5983,303.118
2012-05-05 00:00:00,2012-05-05 00:00:00,TMP,surface,-94.6879,32.5983,302.518
2012-05-05 00:00:00,2012-05-05 00:00:00,TMP,surface,-93.7504,32.5983,302.015
2012-05-05 00:00:00,2012-05-05 00:00:00,TMP,surface,-92.8129,32.5983,302.057
2012-05-05 00:00:00,2012-05-05 00:00:00,TMP,surface,-107.813,33.5432,293.834
2012-05-05 00:00:00,2012-05-05 00:00:00,TMP,surface,-106.875,33.5432,295.426
2012-05-05 00:00:00,2012-05-05 00:00:00,TMP,surface,-105.938,33.5432,296.67
2012-05-05 00:00:00,2012-05-05 00:00:00,TMP,surface,-105,33.5432,298.428
2012-05-05 00:00:00,2012-05-05 00:00:00,TMP,surface,-104.063,33.5432,300.53
2012-05-05 00:00:00,2012-05-05 00:00:00,TMP,surface,-103.125,33.5432,301.047
2012-05-05 00:00:00,2012-05-05 00:00:00,TMP,surface,-102.188,33.5432,301.338
2012-05-05 00:00:00,2012-05-05 00:00:00,TMP,surface,-101.25,33.5432,302.47
2012-05-05 00:00:00,2012-05-05 00:00:00,TMP,surface,-100.313,33.5432,304.066
2012-05-05 00:00:00,2012-05-05 00:00:00,TMP,surface,-99.3754,33.5432,305.087
2012-05-05 00:00:00,2012-05-05 00:00:00,TMP,surface,-98.4379,33.5432,304.839
2012-05-05 00:00:00,2012-05-05 00:00:00,TMP,surface,-97.5004,33.5432,303.882
2012-05-05 00:00:00,2012-05-05 00:00:00,TMP,surface,-96.5629,33.5432,303.073
2012-05-05 00:00:00,2012-05-05 00:00:00,TMP,surface,-95.6254,33.5432,302.574
2012-05-05 00:00:00,2012-05-05 00:00:00,TMP,surface,-94.6879,33.5432,302.143
2012-05-05 00:00:00,2012-05-05 00:00:00,TMP,surface,-93.7504,33.5432,301.75
2012-05-05 00:00:00,2012-05-05 00:00:00,TMP,surface,-92.8129,33.5432,301.698
2012-05-05 00:00:00,2012-05-05 00:00:00,TMP,surface,-107.813,34.4881,292.561
2012-05-05 00:00:00,2012-05-05 00:00:00,TMP,surface,-106.875,34.4881,294.281
2012-05-05 00:00:00,2012-05-05 00:00:00,TMP,surface,-105.938,34.4881,295.681
2012-05-05 00:00:00,2012-05-05 00:00:00,TMP,surface,-105,34.4881,297.774
2012-05-05 00:00:00,2012-05-05 00:00:00,TMP,surface,-104.063,34.4881,299.364
2012-05-05 00:00:00,2012-05-05 00:00:00,TMP,surface,-103.125,34.4881,299.972
2012-05-05 00:00:00,2012-05-05 00:00:00,TMP,surface,-102.188,34.4881,300.834
2012-05-05 00:00:00,2012-05-05 00:00:00,TMP,surface,-101.25,34.4881,302.015
2012-05-05 00:00:00,2012-05-05 00:00:00,TMP,surface,-100.313,34.4881,303.74
2012-05-05 00:00:00,2012-05-05 00:00:00,TMP,surface,-99.3754,34.4881,304.578
2012-05-05 00:00:00,2012-05-05 00:00:00,TMP,surface,-98.4379,34.4881,304.343
2012-05-05 00:00:00,2012-05-05 00:00:00,TMP,surface,-97.5004,34.4881,303.738
2012-05-05 00:00:00,2012-05-05 00:00:00,TMP,surface,-96.5629,34.4881,303.217
2012-05-05 00:00:00,2012-05-05 00:00:00,TMP,surface,-95.6254,34.4881,302.665
2012-05-05 00:00:00,2012-05-05 00:00:00,TMP,surface,-94.6879,34.4881,301.842
2012-05-05 00:00:00,2012-05-05 00:00:00,TMP,surface,-93.7504,34.4881,301.265
2012-05-05 00:00:00,2012-05-05 00:00:00,TMP,surface,-92.8129,34.4881,301.745
2012-05-05 00:00:00,2012-05-05 00:00:00,TMP,surface,-107.813,35.4329,293.764
2012-05-05 00:00:00,2012-05-05 00:00:00,TMP,surface,-106.875,35.4329,293.894
2012-05-05 00:00:00,2012-05-05 00:00:00,TMP,surface,-105.938,35.4329,294.002
2012-05-05 00:00:00,2012-05-05 00:00:00,TMP,surface,-105,35.4329,295.393
2012-05-05 00:00:00,2012-05-05 00:00:00,TMP,surface,-104.063,35.4329,297.977
2012-05-05 00:00:00,2012-05-05 00:00:00,TMP,surface,-103.125,35.4329,299.692
2012-05-05 00:00:00,2012-05-05 00:00:00,TMP,surface,-102.188,35.4329,300.841
2012-05-05 00:00:00,2012-05-05 00:00:00,TMP,surface,-101.25,35.4329,301.951
2012-05-05 00:00:00,2012-05-05 00:00:00,TMP,surface,-100.313,35.4329,303.143
2012-05-05 00:00:00,2012-05-05 00:00:00,TMP,surface,-99.3754,35.4329,304.116
2012-05-05 00:00:00,2012-05-05 00:00:00,TMP,surface,-98.4379,35.4329,304.545
2012-05-05 00:00:00,2012-05-05 00:00:00,TMP,surface,-97.5004,35.4329,304.474
2012-05-05 00:00:00,2012-05-05 00:00:00,TMP,surface,-96.5629,35.4329,304.135
2012-05-05 00:00:00,2012-05-05 00:00:00,TMP,surface,-95.6254,35.4329,303.351
2012-05-05 00:00:00,2012-05-05 00:00:00,TMP,surface,-94.6879,35.4329,302.114
2012-05-05 00:00:00,2012-05-05 00:00:00,TMP,surface,-93.7504,35.4329,301.286
2012-05-05 00:00:00,2012-05-05 00:00:00,TMP,surface,-92.8129,35.4329,301.223
2012-05-05 00:00:00,2012-05-05 00:00:00,TMP,surface,-107.813,36.3778,293.438
2012-05-05 00:00:00,2012-05-05 00:00:00,TMP,surface,-106.875,36.3778,290.978
2012-05-05 00:00:00,2012-05-05 00:00:00,TMP,surface,-105.938,36.3778,291.265
2012-05-05 00:00:00,2012-05-05 00:00:00,TMP,surface,-105,36.3778,292.554
2012-05-05 00:00:00,2012-05-05 00:00:00,TMP,surface,-104.063,36.3778,296.025
2012-05-05 00:00:00,2012-05-05 00:00:00,TMP,surface,-103.125,36.3778,298.63
2012-05-05 00:00:00,2012-05-05 00:00:00,TMP,surface,-102.188,36.3778,300.606
2012-05-05 00:00:00,2012-05-05 00:00:00,TMP,surface,-101.25,36.3778,302.065
2012-05-05 00:00:00,2012-05-05 00:00:00,TMP,surface,-100.313,36.3778,303.055
2012-05-05 00:00:00,2012-05-05 00:00:00,TMP,surface,-99.3754,36.3778,303.87
2012-05-05 00:00:00,2012-05-05 00:00:00,TMP,surface,-98.4379,36.3778,304.393
2012-05-05 00:00:00,2012-05-05 00:00:00,TMP,surface,-97.5004,36.3778,304.625
2012-05-05 00:00:00,2012-05-05 00:00:00,TMP,surface,-96.5629,36.3778,304.51
2012-05-05 00:00:00,2012-05-05 00:00:00,TMP,surface,-95.6254,36.3778,303.604
2012-05-05 00:00:00,2012-05-05 00:00:00,TMP,surface,-94.6879,36.3778,302.046
2012-05-05 00:00:00,2012-05-05 00:00:00,TMP,surface,-93.7504,36.3778,300.866
2012-05-05 00:00:00,2012-05-05 00:00:00,TMP,surface,-92.8129,36.3778,300.372
2012-05-05 00:00:00,2012-05-05 00:00:00,PRATE,surface,-107.813,25.0393,2.61e-05
2012-05-05 00:00:00,2012-05-05 00:00:00,PRATE,surface,-106.875,25.0393,0.0001063
2012-05-05 00:00:00,2012-05-05 00:00:00,PRATE,surface,-105.938,25.0393,0.0001181
2012-05-05 00:00:00,2012-05-05 00:00:00,PRATE,surface,-105,25.0393,6.2e-05
2012-05-05 00:00:00,2012-05-05 00:00:00,PRATE,surface,-104.063,25.0393,3e-06
2012-05-05 00:00:00,2012-05-05 00:00:00,PRATE,surface,-103.125,25.0393,9e-07
2012-05-05 00:00:00,2012-05-05 00:00:00,PRATE,surface,-102.188,25.0393,3e-06
2012-05-05 00:00:00,2012-05-05 00:00:00,PRATE,surface,-101.25,25.0393,1.94e-05
2012-05-05 00:00:00,2012-05-05 00:00:00,PRATE,surface,-100.313,25.0393,2.34e-05
2012-05-05 00:00:00,2012-05-05 00:00:00,PRATE,surface,-99.3754,25.0393,9e-06
2012-05-05 00:00:00,2012-05-05 00:00:00,PRATE,surface,-98.4379,25.0393,6.6e-06
2012-05-05 00:00:00,2012-05-05 00:00:00,PRATE,surface,-97.5004,25.0393,2.05e-05
2012-05-05 00:00:00,2012-05-05 00:00:00,PRATE,surface,-96.5629,25.0393,3.27e-05
2012-05-05 00:00:00,2012-05-05 00:00:00,PRATE,surface,-95.6254,25.0393,2.57e-05
2012-05-05 00:00:00,2012-05-05 00:00:00,PRATE,surface,-94.6879,25.0393,2.98e-05
2012-05-05 00:00:00,2012-05-05 00:00:00,PRATE,surface,-93.7504,25.0393,6.05e-05
2012-05-05 00:00:00,2012-05-05 00:00:00,PRATE,surface,-92.8129,25.0393,8.05e-05
2012-05-05 00:00:00,2012-05-05 00:00:00,PRATE,surface,-107.813,25.9842,6.1e-05
2012-05-05 00:00:00,2012-05-05 00:00:00,PRATE,surface,-106.875,25.9842,0.0001118
2012-05-05 00:00:00,2012-05-05 00:00:00,PRATE,surface,-105.938,25.9842,8.62e-05
2012-05-05 00:00:00,2012-05-05 00:00:00,PRATE,surface,-105,25.9842,8.7e-06
2012-05-05 00:00:00,2012-05-05 00:00:00,PRATE,surface,-104.063,25.9842,5e-07
2012-05-05 00:00:00,2012-05-05 00:00:00,PRATE,surface,-103.125,25.9842,1.6e-06
2012-05-05 00:00:00,2012-05-05 00:00:00,PRATE,surface,-102.188,25.9842,8e-07
2012-05-05 00:00:00,2012-05-05 00:00:00,PRATE,surface,-101.25,25.9842,2.5e-06
2012-05-05 00:00:00,2012-05-05 00:00:00,PRATE,surface,-100.313,25.9842,5.9e-06
2012-05-05 00:00:00,2012-05-05 00:00:00,PRATE,surface,-99.3754,25.9842,4.1e-06
2012-05-05 00:00:00,2012-05-05 00:00:00,PRATE,surface,-98.4379,25.9842,4.7e-06
2012-05-05 00:00:00,2012-05-05 00:00:00,PRATE,surface,-97.5004,25.9842,2.26e-05
2012-05-05 00:00:00,2012-05-05 00:00:00,PRATE,surface,-96.5629,25.9842,4.92e-05
2012-05-05 00:00:00,2012-05-05 00:00:00,PRATE,surface,-95.6254,25.9842,5.25e-05
2012-05-05 00:00:00,2012-05-05 00:00:00,PRATE,surface,-94.6879,25.9842,5.87e-05
2012-05-05 00:00:00,2012-05-05 00:00:00,PRATE,surface,-93.7504,25.9842,7.97e-05
2012-05-05 00:00:00,2012-05-05 00:00:00,PRATE,surface,-92.8129,25.9842,7.73e-05
2012-05-05 00:00:00,2012-05-05 00:00:00,PRATE,surface,-107.813,26.929,9.66e-05
2012-05-05 00:00:00,2012-05-05 00:00:00,PRATE,surface,-106.875,26.929,7.59e-05
2012-05-05 00:00:00,2012-05-05 00:00:00,PRATE,surface,-105.938,26.929,3.48e-05
2012-05-05 00:00:00,2012-05-05 00:00:00,PRATE,surface,-105,26.929,3.4e-06
2012-05-05 00:00:00,2012-05-05 00:00:00,PRATE,surface,-104.063,26.929,2.1e-06
2012-05-05 00:00:00,2012-05-05 00:00:00,PRATE,surface,-103.125,26.929,2.1e-06
2012-05-05 00:00:00,2012-05-05 00:00:00,PRATE,surface,-102.188,26.929,3e-07
2012-05-05 00:00:00,2012-05-05 00:00:00,PRATE,surface,-101.25,26.929,2e-07
2012-05-05 00:00:00,2012-05-05 00:00:00,PRATE,surface,-100.313,26.929,1e-07
2012-05-05 00:00:00,2012-05-05 00:00:00,PRATE,surface,-99.3754,26.929,4e-07
2012-05-05 00:00:00,2012-05-05 00:00:00,PRATE,surface,-98.4379,26.929,6.3e-06
2012-05-05 00:00:00,2012-05-05 00:00:00,PRATE,surface,-97.5004,26.929,2.73e-05
2012-05-05 00:00:00,2012-05-05 00:00:00,PRATE,surface,-96.5629,26.929,2.41e-05
2012-05-05 00:00:00,2012-05-05 00:00:00,PRATE,surface,-95.6254,26.929,3.96e-05
2012-05-05 00:00:00,2012-05-05 00:00:00,PRATE,surface,-94.6879,26.929,4.8e-05
2012-05-05 00:00:00,2012-05-05 00:00:00,PRATE,surface,-93.7504,26.929,7.38e-05
2012-05-05 00:00:00,2012-05-05 00:00:00,PRATE,surface,-92.8129,26.929,7.14e-05
2012-05-05 00:00:00,2012-05-05 00:00:00,PRATE,surface,-107.813,27.8739,9.78e-05
2012-05-05 00:00:00,2012-05-05 00:00:00,PRATE,surface,-106.875,27.8739,4.45e-05
2012-05-05 00:00:00,2012-05-05 00:00:00,PRATE,surface,-105.938,27.8739,6.6e-06
2012-05-05 00:00:00,2012-05-05 00:00:00,PRATE,surface,-105,27.8739,2.1e-06
2012-05-05 00:00:00,2012-05-05 00:00:00,PRATE,surface,-104.063,27.8739,2.2e-06
2012-05-05 00:00:00,2012-05-05 00:00:00,PRATE,surface,-103.125,27.8739,3.6e-06
2012-05-05 00:00:00,2012-05-05 00:00:00,PRATE,surface,-102.188,27.8739,2.5e-06
2012-05-05 00:00:00,2012-05-05 00:00:00,PRATE,surface,-101.25,27.8739,8e-07
2012-05-05 00:00:00,2012-05-05 00:00:00,PRATE,surface,-100.313,27.8739,3e-07
2012-05-05 00:00:00,2012-05-05 00:00:00,PRATE,surface,-99.3754,27.8739,2.9e-06
2012-05-05 00:00:00,2012-05-05 00:00:00,PRATE,surface,-98.4379,27.8739,1.16e-05
2012-05-05 00:00:00,2012-05-05 00:00:00,PRATE,surface,-97.5004,27.8739,1.45e-05
2012-05-05 00:00:00,2012-05-05 00:00:00,PRATE,surface,-96.5629,27.8739,8.9e-06
2012-05-05 00:00:00,2012-05-05 00:00:00,PRATE,surface,-95.6254,27.8739,1.09e-05
2012-05-05 00:00:00,2012-05-05 00:00:00,PRATE,surface,-94.6879,27.8739,3.1e-05
2012-05-05 00:00:00,2012-05-05 00:00:00,PRATE,surface,-93.7504,27.8739,5.63e-05
2012-05-05 00:00:00,2012-05-05 00:00:00,PRATE,surface,-92.8129,27.8739,6.71e-05
2012-05-05 00:00:00,2012-05-05 00:00:00,PRATE,surface,-107.813,28.8188,5.48e-05
2012-05-05 00:00:00,2012-05-05 00:00:00,PRATE,surface,-106.875,28.8188,2.55e-05
2012-05-05 00:00:00,2012-05-05 00:00:00,PRATE,surface,-105.938,28.8188,2.6e-06
2012-05-05 00:00:00,2012-05-05 00:00:00,PRATE,surface,-105,28.8188,2.6e-06
2012-05-05 00:00:00,2012-05-05 00:00:00,PRATE,surface,-104.063,28.8188,3.2e-06
2012-05-05 00:00:00,2012-05-05 00:00:00,PRATE,surface,-103.125,28.8188,3.2e-06
2012-05-05 00:00:00,2012-05-05 00:00:00,PRATE,surface,-102.188,28.8188,7e-07
2012-05-05 00:00:00,2012-05-05 00:00:00,PRATE,surface,-101.25,28.8188,9e-07
2012-05-05 00:00:00,2012-05-05 00:00:00,PRATE,surface,-100.313,28.8188,2.3e-06
2012-05-05 00:00:00,2012-05-05 00:00:00,PRATE,surface,-99.3754,28.8188,6.5e-06
2012-05-05 00:00:00,2012-05-05 00:00:00,PRATE,surface,-98.4379,28.8188,1.36e-05
2012-05-05 00:00:00,2012-05-05 00:00:00,PRATE,surface,-97.5004,28.8188,1.71e-05
2012-05-05 00:00:00,2012-05-05 00:00:00,PRATE,surface,-96.5629,28.8188,1.92e-05
2012-05-05 00:00:00,2012-05-05 00:00:00,PRATE,surface,-95.6254,28.8188,2.24e-05
2012-05-05 00:00:00,2012-05-05 00:00:00,PRATE,surface,-94.6879,28.8188,3.18e-05
2012-05-05 00:00:00,2012-05-05 00:00:00,PRATE,surface,-93.7504,28.8188,5.5e-05
2012-05-05 00:00:00,2012-05-05 00:00:00,PRATE,surface,-92.8129,28.8188,6.25e-05
2012-05-05 00:00:00,2012-05-05 00:00:00,PRATE,surface,-107.813,29.7637,1.58e-05
2012-05-05 00:00:00,2012-05-05 00:00:00,PRATE,surface,-106.875,29.7637,5.8e-06
2012-05-05 00:00:00,2012-05-05 00:00:00,PRATE,surface,-105.938,29.7637,3.4e-06
2012-05-05 00:00:00,2012-05-05 00:00:00,PRATE,surface,-105,29.7637,2e-06
2012-05-05 00:00:00,2012-05-05 00:00:00,PRATE,surface,-104.063,29.7637,4.6e-06
2012-05-05 00:00:00,2012-05-05 00:00:00,PRATE,surface,-103.125,29.7637,4.5e-06
2012-05-05 00:00:00,2012-05-05 00:00:00,PRATE,surface,-102.188,29.7637,1.1e-06
2012-05-05 00:00:00,2012-05-05 00:00:00,PRATE,surface,-101.25,29.7637,1e-07
2012-05-05 00:00:00,2012-05-05 00:00:00,PRATE,surface,-100.313,29.7637,2.7e-06
2012-05-05 00:00:00,2012-05-05 00:00:00,PRATE,surface,-99.3754,29.7637,9.1e-06
2012-05-05 00:00:00,2012-05-05 00:00:00,PRATE,surface,-98.4379,29.7637,8.2e-06
2012-05-05 00:00:00,2012-05-05 00:00:00,PRATE,surface,-97.5004,29.7637,6.9e-06
2012-05-05 00:00:00,2012-05-05 00:00:00,PRATE,surface,-96.5629,29.7637,1.31e-05
2012-05-05 00:00:00,2012-05-05 00:00:00,PRATE,surface,-95.6254,29.7637,2.56e-05
2012-05-05 00:00:00,2012-05-05 00:00:00,PRATE,surface,-94.6879,29.7637,3.53e-05
2012-05-05 00:00:00,2012-05-05 00:00:00,PRATE,surface,-93.7504,29.7637,3.37e-05
2012-05-05 00:00:00,2012-05-05 00:00:00,PRATE,surface,-92.8129,29.7637,4.22e-05
2012-05-05 00:00:00,2012-05-05 00:00:00,PRATE,surface,-107.813,30.7085,2.8e-06
2012-05-05 00:00:00,2012-05-05 00:00:00,PRATE,surface,-106.875,30.7085,4.5e-06
2012-05-05 00:00:00,2012-05-05 00:00:00,PRATE,surface,-105.938,30.7085,4.4e-06
2012-05-05 00:00:00,2012-05-05 00:00:00,PRATE,surface,-105,30.7085,4e-06
2012-05-05 00:00:00,2012-05-05 00:00:00,PRATE,surface,-104.063,30.7085,3.3e-06
2012-05-05 00:00:00,2012-05-05 00:00:00,PRATE,surface,-103.125,30.7085,4.2e-06
2012-05-05 00:00:00,2012-05-05 00:00:00,PRATE,surface,-102.188,30.7085,1.4e-06
2012-05-05 00:00:00,2012-05-05 00:00:00,PRATE,surface,-101.25,30.7085,1.2e-06
2012-05-05 00:00:00,2012-05-05 00:00:00,PRATE,surface,-100.313,30.7085,4.4e-06
2012-05-05 00:00:00,2012-05-05 00:00:00,PRATE,surface,-99.3754,30.7085,6.2e-06
2012-05-05 00:00:00,2012-05-05 00:00:00,PRATE,surface,-98.4379,30.7085,3e-06
2012-05-05 00:00:00,2012-05-05 00:00:00,PRATE,surface,-97.5004,30.7085,3e-07
2012-05-05 00:00:00,2012-05-05 00:00:00,PRATE,surface,-96.5629,30.7085,1.6e-06
2012-05-05 00:00:00,2012-05-05 00:00:00,PRATE,surface,-95.6254,30.7085,8.2e-06
2012-05-05 00:00:00,2012-05-05 00:00:00,PRATE,surface,-94.6879,30.7085,1.97e-05
2012-05-05 00:00:00,2012-05-05 00:00:00,PRATE,surface,-93.7504,30.7085,2.88e-05
2012-05-05 00:00:00,2012-05-05 00:00:00,PRATE,surface,-92.8129,30.7085,3.61e-05
2012-05-05 00:00:00,2012-05-05 00:00:00,PRATE,surface,-107.813,31.6534,2.2e-06
2012-05-05 00:00:00,2012-05-05 00:00:00,PRATE,surface,-106.875,31.6534,3.4e-06
2012-05-05 00:00:00,2012-05-05 00:00:00,PRATE,surface,-105.938,31.6534,5.2e-06
2012-05-05 00:00:00,2012-05-05 00:00:00,PRATE,surface,-105,31.6534,6.7e-06
2012-05-05 00:00:00,2012-05-05 00:00:00,PRATE,surface,-104.063,31.6534,5.4e-06
2012-05-05 00:00:00,2012-05-05 00:00:00,PRATE,surface,-103.125,31.6534,4e-06
2012-05-05 00:00:00,2012-05-05 00:00:00,PRATE,surface,-102.188,31.6534,2.4e-06
2012-05-05 00:00:00,2012-05-05 00:00:00,PRATE,surface,-101.25,31.6534,3e-06
2012-05-05 00:00:00,2012-05-05 00:00:00,PRATE,surface,-100.313,31.6534,4.6e-06
2012-05-05 00:00:00,2012-05-05 00:00:00,PRATE,surface,-99.3754,31.6534,3.8e-06
2012-05-05 00:00:00,2012-05-05 00:00:00,PRATE,surface,-98.4379,31.6534,2.8e-06
2012-05-05 00:00:00,2012-05-05 00:00:00,PRATE,surface,-97.5004,31.6534,1.9e-06
2012-05-05 00:00:00,2012-05-05 00:00:00,PRATE,surface,-96.5629,31.6534,2e-06
2012-05-05 00:00:00,2012-05-05 00:00:00,PRATE,surface,-95.6254,31.6534,4.3e-06
2012-05-05 00:00:00,2012-05-05 00:00:00,PRATE,surface,-94.6879,31.6534,8.4e-06
2012-05-05 00:00:00,2012-05-05 00:00:00,PRATE,surface,-93.7504,31.6534,1.23e-05
2012-05-05 00:00:00,2012-05-05 00:00:00,PRATE,surface,-92.8129,31.6534,1.18e-05
2012-05-05 00:00:00,2012-05-05 00:00:00,PRATE,surface,-107.813,32.5983,1.97e-05
2012-05-05 00:00:00,2012-05-05 00:00:00,PRATE,surface,-106.875,32.5983,1.37e-05
2012-05-05 00:00:00,2012-05-05 00:00:00,PRATE,surface,-105.938,32.5983,1.04e-05
2012-05-05 00:00:00,2012-05-05 00:00:00,PRATE,surface,-105,32.5983,8.2e-06
2012-05-05 00:00:00,2012-05-05 00:00:00,PRATE,surface,-104.063,32.5983,9.8e-06
2012-05-05 00:00:00,2012-05-05 00:00:00,PRATE,surface,-103.125,32.5983,7.9e-06
2012-05-05 00:00:00,2012-05-05 00:00:00,PRATE,surface,-102.188,32.5983,6.1e-06
2012-05-05 00:00:00,2012-05-05 00:00:00,PRATE,surface,-101.25,32.5983,8e-06
2012-05-05 00:00:00,2012-05-05 00:00:00,PRATE,surface,-100.313,32.5983,5e-06
2012-05-05 00:00:00,2012-05-05 00:00:00,PRATE,surface,-99.3754,32.5983,3.3e-06
2012-05-05 00:00:00,2012-05-05 00:00:00,PRATE,surface,-98.4379,32.5983,3e-06
2012-05-05 00:00:00,2012-05-05 00:00:00,PRATE,surface,-97.5004,32.5983,2.8e-06
2012-05-05 00:00:00,2012-05-05 00:00:00,PRATE,surface,-96.5629,32.5983,3.1e-06
2012-05-05 00:00:00,2012-05-05 00:00:00,PRATE,surface,-95.6254,32.5983,4.5e-06
2012-05-05 00:00:00,2012-05-05 00:00:00,PRATE,surface,-94.6879,32.5983,7.3e-06
2012-05-05 00:00:00,2012-05-05 00:00:00,PRATE,surface,-93.7504,32.5983,8.1e-06
2012-05-05 00:00:00,2012-05-05 00:00:00,PRATE,surface,-92.8129,32.5983,6.5e-06
2012-05-05 00:00:00,2012-05-05 00:00:00,PRATE,surface,-107.813,33.5432,6.76e-05
2012-05-05 00:00:00,2012-05-05 00:00:00,PRATE,surface,-106.875,33.5432,4.25e-05
2012-05-05 00:00:00,2012-05-05 00:00:00,PRATE,surface,-105.938,33.5432,2.56e-05
2012-05-05 00:00:00,2012-05-05 00:00:00,PRATE,surface,-105,33.5432,1.68e-05
2012-05-05 00:00:00,2012-05-05 00:00:00,PRATE,surface,-104.063,33.5432,8.5e-06
2012-05-05 00:00:00,2012-05-05 00:00:00,PRATE,surface,-103.125,33.5432,8.8e-06
2012-05-05 00:00:00,2012-05-05 00:00:00,PRATE,surface,-102.188,33.5432,1.5e-05
2012-05-05 00:00:00,2012-05-05 00:00:00,PRATE,surface,-101.25,33.5432,2.01e-05
2012-05-05 00:00:00,2012-05-05 00:00:00,PRATE,surface,-100.313,33.5432,1e-05
2012-05-05 00:00:00,2012-05-05 00:00:00,PRATE,surface,-99.3754,33.5432,4.8e-06
2012-05-05 00:00:00,2012-05-05 00:00:00,PRATE,surface,-98.4379,33.5432,3.9e-06
2012-05-05 00:00:00,2012-05-05 00:00:00,PRATE,surface,-97.5004,33.5432,2.3e-06
2012-05-05 00:00:00,2012-05-05 00:00:00,PRATE,surface,-96.5629,33.5432,1.6e-06
2012-05-05 00:00:00,2012-05-05 00:00:00,PRATE,surface,-95.6254,33.5432,3.9e-06
2012-05-05 00:00:00,2012-05-05 00:00:00,PRATE,surface,-94.6879,33.5432,6.8e-06
2012-05-05 00:00:00,2012-05-05 00:00:00,PRATE,surface,-93.7504,33.5432,6.8e-06
2012-05-05 00:00:00,2012-05-05 00:00:00,PRATE,surface,-92.8129,33.5432,8.4e-06
2012-05-05 00:00:00,2012-05-05 00:00:00,PRATE,surface,-107.813,34.4881,6.35e-05
2012-05-05 00:00:00,2012-05-05 00:00:00,PRATE,surface,-106.875,34.4881,2.83e-05
2012-05-05 00:00:00,2012-05-05 00:00:00,PRATE,surface,-105.938,34.4881,1.69e-05
2012-05-05 00:00:00,2012-05-05 00:00:00,PRATE,surface,-105,34.4881,2.04e-05
2012-05-05 00:00:00,2012-05-05 00:00:00,PRATE,surface,-104.063,34.4881,1.38e-05
2012-05-05 00:00:00,2012-05-05 00:00:00,PRATE,surface,-103.125,34.4881,1.59e-05
2012-05-05 00:00:00,2012-05-05 00:00:00,PRATE,surface,-102.188,34.4881,1.74e-05
2012-05-05 00:00:00,2012-05-05 00:00:00,PRATE,surface,-101.25,34.4881,2.39e-05
2012-05-05 00:00:00,2012-05-05 00:00:00,PRATE,surface,-100.313,34.4881,1.35e-05
2012-05-05 00:00:00,2012-05-05 00:00:00,PRATE,surface,-99.3754,34.4881,8.1e-06
2012-05-05 00:00:00,2012-05-05 00:00:00,PRATE,surface,-98.4379,34.4881,7.9e-06
2012-05-05 00:00:00,2012-05-05 00:00:00,PRATE,surface,-97.5004,34.4881,5.9e-06
2012-05-05 00:00:00,2012-05-05 00:00:00,PRATE,surface,-96.5629,34.4881,3.4e-06
2012-05-05 00:00:00,2012-05-05 00:00:00,PRATE,surface,-95.6254,34.4881,3e-06
2012-05-05 00:00:00,2012-05-05 00:00:00,PRATE,surface,-94.6879,34.4881,4.8e-06
2012-05-05 00:00:00,2012-05-05 00:00:00,PRATE,surface,-93.7504,34.4881,7.4e-06
2012-05-05 00:00:00,2012-05-05 00:00:00,PRATE,surface,-92.8129,34.4881,1.11e-05
2012-05-05 00:00:00,2012-05-05 00:00:00,PRATE,surface,-107.813,35.4329,2.9e-05
2012-05-05 00:00:00,2012-05-05 00:00:00,PRATE,surface,-106.875,35.4329,1.97e-05
2012-05-05 00:00:00,2012-05-05 00:00:00,PRATE,surface,-105.938,35.4329,1.72e-05
2012-05-05 00:00:00,2012-05-05 00:00:00,PRATE,surface,-105,35.4329,2.17e-05
2012-05-05 00:00:00,2012-05-05 00:00:00,PRATE,surface,-104.063,35.4329,2.77e-05
2012-05-05 00:00:00,2012-05-05 00:00:00,PRATE,surface,-103.125,35.4329,2.02e-05
2012-05-05 00:00:00,2012-05-05 00:00:00,PRATE,surface,-102.188,35.4329,1.68e-05
2012-05-05 00:00:00,2012-05-05 00:00:00,PRATE,surface,-101.25,35.4329,1.46e-05
2012-05-05 00:00:00,2012-05-05 00:00:00,PRATE,surface,-100.313,35.4329,1.05e-05
2012-05-05 00:00:00,2012-05-05 00:00:00,PRATE,surface,-99.3754,35.4329,6.2e-06
2012-05-05 00:00:00,2012-05-05 00:00:00,PRATE,surface,-98.4379,35.4329,4.2e-06
2012-05-05 00:00:00,2012-05-05 00:00:00,PRATE,surface,-97.5004,35.4329,4.2e-06
2012-05-05 00:00:00,2012-05-05 00:00:00,PRATE,surface,-96.5629,35.4329,4.8e-06
2012-05-05 00:00:00,2012-05-05 00:00:00,PRATE,surface,-95.6254,35.4329,5e-06
2012-05-05 00:00:00,2012-05-05 00:00:00,PRATE,surface,-94.6879,35.4329,5.3e-06
2012-05-05 00:00:00,2012-05-05 00:00:00,PRATE,surface,-93.7504,35.4329,8.5e-06
2012-05-05 00:00:00,2012-05-05 00:00:00,PRATE,surface,-92.8129,35.4329,1.42e-05
2012-05-05 00:00:00,2012-05-05 00:00:00,PRATE,surface,-107.813,36.3778,2.85e-05
2012-05-05 00:00:00,2012-05-05 00:00:00,PRATE,surface,-106.875,36.3778,3.16e-05
2012-05-05 00:00:00,2012-05-05 00:00:00,PRATE,surface,-105.938,36.3778,3.63e-05
2012-05-05 00:00:00,2012-05-05 00:00:00,PRATE,surface,-105,36.3778,3.7e-05
2012-05-05 00:00:00,2012-05-05 00:00:00,PRATE,surface,-104.063,36.3778,3e-05
2012-05-05 00:00:00,2012-05-05 00:00:00,PRATE,surface,-103.125,36.3778,2.64e-05
2012-05-05 00:00:00,2012-05-05 00:00:00,PRATE,surface,-102.188,36.3778,1.6e-05
2012-05-05 00:00:00,2012-05-05 00:00:00,PRATE,surface,-101.25,36.3778,6.4e-06
2012-05-05 00:00:00,2012-05-05 00:00:00,PRATE,surface,-100.313,36.3778,4.7e-06
2012-05-05 00:00:00,2012-05-05 00:00:00,PRATE,surface,-99.3754,36.3778,4.5e-06
2012-05-05 00:00:00,2012-05-05 00:00:00,PRATE,surface,-98.4379,36.3778,3.3e-06
2012-05-05 00:00:00,2012-05-05 00:00:00,PRATE,surface,-97.5004,36.3778,2.9e-06
2012-05-05 00:00:00,2012-05-05 00:00:00,PRATE,surface,-96.5629,36.3778,5.4e-06
2012-05-05 00:00:00,2012-05-05 00:00:00,PRATE,surface,-95.6254,36.3778,8e-06
2012-05-05 00:00:00,2012-05-05 00:00:00,PRATE,surface,-94.6879,36.3778,9.1e-06
2012-05-05 00:00:00,2012-05-05 00:00:00,PRATE,surface,-93.7504,36.3778,1.33e-05
2012-05-05 00:00:00,2012-05-05 00:00:00,PRATE,surface,-92.8129,36.3778,1.6e-05
