2018-09-16 00:00:00,2018-09-16 00:00:00,TMP,surface,-107.813,25.0393,292.387
2018-09-16 00:00:00,2018-09-16 00:00:00,TMP,surface,-106.875,25.0393,287.333
2018-09-16 00:00:00,2018-09-16 00:00:00,TMP,surface,-105.938,25.0393,282.637
2018-09-16 00:00:00,2018-09-16 00:00:00,TMP,surface,-105,25.0393,282.392
2018-09-16 00:00:00,2018-09-16 00:00:00,TMP,surface,-104.063,25.0393,286.217
2018-09-16 00:00:00,2018-09-16 00:00:00,TMP,surface,-103.125,25.0393,288.032
2018-09-16 00:00:00,2018-09-16 00:00:00,TMP,surface,-102.188,25.0393,287.198
2018-09-16 00:00:00,2018-09-16 00:00:00,TMP,surface,-101.25,25.0393,285.63
2018-09-16 00:00:00,2018-09-16 00:00:00,TMP,surface,-100.313,25.0393,285.654
2018-09-16 00:00:00,2018-09-16 00:00:00,TMP,surface,-99.3754,25.0393,287.741
2018-09-16 00:00:00,2018-09-16 00:00:00,TMP,surface,-98.4379,25.0393,290.125
2018-09-16 00:00:00,2018-09-16 00:00:00,TMP,surface,-97.5004,25.0393,295.102
2018-09-16 00:00:00,2018-09-16 00:00:00,TMP,surface,-96.5629,25.0393,295.344
2018-09-16 00:00:00,2018-09-16 00:00:00,TMP,surface,-95.6254,25.0393,296.278
2018-09-16 00:00:00,2018-09-16 00:00:00,TMP,surface,-94.6879,25.0393,296.96
2018-09-16 00:00:00,2018-09-16 00:00:00,TMP,surface,-93.7504,25.0393,296.806
2018-09-16 00:00:00,2018-09-16 00:00:00,TMP,surface,-92.8129,25.0393,296.67
2018-09-16 00:00:00,2018-09-16 00:00:00,TMP,surface,-107.813,25.9842,288.064
2018-09-16 00:00:00,2018-09-16 00:00:00,TMP,surface,-106.875,25.9842,282.67
2018-09-16 00:00:00,2018-09-16 00:00:00,TMP,surface,-105.938,25.9842,280.99
2018-09-16 00:00:00,2018-09-16 00:00:00,TMP,surface,-105,25.9842,283.894
2018-09-16 00:00:00,2018-09-16 00:00:00,TMP,surface,-104.063,25.9842,287.358
2018-09-16 00:00:00,2018-09-16 00:00:00,TMP,surface,-103.125,25.9842,288.395
2018-09-16 00:00:00,2018-09-16 00:00:00,TMP,surface,-102.188,25.9842,287.568
2018-09-16 00:00:00,2018-09-16 00:00:00,TMP,surface,-101.25,25.9842,286.288
2018-09-16 00:00:00,2018-09-16 00:00:00,TMP,surface,-100.313,25.9842,286.365
2018-09-16 00:00:00,2018-09-16 00:00:00,TMP,surface,-99.3754,25.9842,288.32
2018-09-16 00:00:00,2018-09-16 00:00:00,TMP,surface,-98.4379,25.9842,289.968
2018-09-16 00:00:00,2018-09-16 00:00:00,TMP,surface,-97.5004,25.9842,291.507
2018-09-16 00:00:00,2018-09-16 00:00:00,TMP,surface,-96.5629,25.9842,294.544
2018-09-16 00:00:00,2018-09-16 00:00:00,TMP,surface,-95.6254,25.9842,295.261
2018-09-16 00:00:00,2018-09-16 00:00:00,TMP,surface,-94.6879,25.9842,296.198
2018-09-16 00:00:00,2018-09-16 00:00:00,TMP,surface,-93.7504,25.9842,296.384
2018-09-16 00:00:00,2018-09-16 00:00:00,TMP,surface,-92.8129,25.9842,296.448
2018-09-16 00:00:00,2018-09-16 00:00:00,TMP,surface,-107.813,26.929,283.029
2018-09-16 00:00:00,2018-09-16 00:00:00,TMP,surface,-106.875,26.929,279.765
2018-09-16 00:00:00,2018-09-16 00:00:00,TMP,surface,-105.938,26.929,281.923
2018-09-16 00:00:00,2018-09-16 00:00:00,TMP,surface,-105,26.929,285.574
2018-09-16 00:00:00,2018-09-16 00:00:00,TMP,surface,-104.063,26.929,286.851
2018-09-16 00:00:00,2018-09-16 00:00:00,TMP,surface,-103.125,26.929,286.174
2018-09-16 00:00:00,2018-09-16 00:00:00,TMP,surface,-102.188,26.929,285.51
2018-09-16 00:00:00,2018-09-16 00:00:00,TMP,surface,-101.25,26.929,285.947
2018-09-16 00:00:00,2018-09-16 00:00:00,TMP,surface,-100.313,26.929,287.011
2018-09-16 00:00:00,2018-09-16 00:00:00,TMP,surface,-99.3754,26.929,288.152
2018-09-16 00:00:00,2018-09-16 00:00:00,TMP,surface,-98.4379,26.929,288.739
2018-09-16 00:00:00,2018-09-16 00:00:00,TMP,surface,-97.5004,26.929,293.345
2018-09-16 00:00:00,2018-09-16 00:00:00,TMP,surface,-96.5629,26.929,293.993
2018-09-16 00:00:00,2018-09-16 00:00:00,TMP,surface,-95.6254,26.929,294.522
2018-09-16 00:00:00,2018-09-16 00:00:00,TMP,surface,-94.6879,26.929,295.309
2018-09-16 00:00:00,2018-09-16 00:00:00,TMP,surface,-93.7504,26.929,295.645
2018-09-16 00:00:00,2018-09-16 00:00:00,TMP,surface,-92.8129,26.929,295.87
2018-09-16 00:00:00,2018-09-16 00:00:00,TMP,surface,-107.813,27.8739,280.008
2018-09-16 00:00:00,2018-09-16 00:00:00,TMP,surface,-106.875,27.8739,279.368
2018-09-16 00:00:00,2018-09-16 00:00:00,TMP,surface,-105.938,27.8739,282.97
2018-09-16 00:00:00,2018-09-16 00:00:00,TMP,surface,-105,27.8739,285.646
2018-09-16 00:00:00,2018-09-16 00:00:00,TMP,surface,-104.063,27.8739,285.449
2018-09-16 00:00:00,2018-09-16 00:00:00,TMP,surface,-103.125,27.8739,284.059
2018-09-16 00:00:00,2018-09-16 00:00:00,TMP,surface,-102.188,27.8739,284.026
2018-09-16 00:00:00,2018-09-16 00:00:00,TMP,surface,-101.25,27.8739,285.272
2018-09-16 00:00:00,2018-09-16 00:00:00,TMP,surface,-100.313,27.8739,286.504
2018-09-16 00:00:00,2018-09-16 00:00:00,TMP,surface,-99.3754,27.8739,286.92
2018-09-16 00:00:00,2018-09-16 00:00:00,TMP,surface,-98.4379,27.8739,287.229
2018-09-16 00:00:00,2018-09-16 00:00:00,TMP,surface,-97.5004,27.8739,290.749
2018-09-16 00:00:00,2018-09-16 00:00:00,TMP,surface,-96.5629,27.8739,294.258
2018-09-16 00:00:00,2018-09-16 00:00:00,TMP,surface,-95.6254,27.8739,294.454
2018-09-16 00:00:00,2018-09-16 00:00:00,TMP,surface,-94.6879,27.8739,294.323
2018-09-16 00:00:00,2018-09-16 00:00:00,TMP,surface,-93.7504,27.8739,294.378
2018-09-16 00:00:00,2018-09-16 00:00:00,TMP,surface,-92.8129,27.8739,294.637
2018-09-16 00:00:00,2018-09-16 00:00:00,TMP,surface,-107.813,28.8188,278.67
2018-09-16 00:00:00,2018-09-16 00:00:00,TMP,surface,-106.875,28.8188,279.555
2018-09-16 00:00:00,2018-09-16 00:00:00,TMP,surface,-105.938,28.8188,282.701
2018-09-16 00:00:00,2018-09-16 00:00:00,TMP,surface,-105,28.8188,284.457
2018-09-16 00:00:00,2018-09-16 00:00:00,TMP,surface,-104.063,28.8188,283.421
2018-09-16 00:00:00,2018-09-16 00:00:00,TMP,surface,-103.125,28.8188,282.413
2018-09-16 00:00:00,2018-09-16 00:00:00,TMP,surface,-102.188,28.8188,282.872
2018-09-16 00:00:00,2018-09-16 00:00:00,TMP,surface,-101.25,28.8188,284.341
2018-09-16 00:00:00,2018-09-16 00:00:00,TMP,surface,-100.313,28.8188,284.888
2018-09-16 00:00:00,2018-09-16 00:00:00,TMP,surface,-99.3754,28.8188,284.858
2018-09-16 00:00:00,2018-09-16 00:00:00,TMP,surface,-98.4379,28.8188,285.158
2018-09-16 00:00:00,2018-09-16 00:00:00,TMP,surface,-97.5004,28.8188,285.907
2018-09-16 00:00:00,2018-09-16 00:00:00,TMP,surface,-96.5629,28.8188,286.947
2018-09-16 00:00:00,2018-09-16 00:00:00,TMP,surface,-95.6254,28.8188,290.048
2018-09-16 00:00:00,2018-09-16 00:00:00,TMP,surface,-94.6879,28.8188,293.971
2018-09-16 00:00:00,2018-09-16 00:00:00,TMP,surface,-93.7504,28.8188,293.91
2018-09-16 00:00:00,2018-09-16 00:00:00,TMP,surface,-92.8129,28.8188,294.019
2018-09-16 00:00:00,2018-09-16 00:00:00,TMP,surface,-107.813,29.7637,279.094
2018-09-16 00:00:00,2018-09-16 00:00:00,TMP,surface,-106.875,29.7637,280.197
2018-09-16 00:00:00,2018-09-16 00:00:00,TMP,surface,-105.938,29.7637,282.31
2018-09-16 00:00:00,2018-09-16 00:00:00,TMP,surface,-105,29.7637,282.179
2018-09-16 00:00:00,2018-09-16 00:00:00,TMP,surface,-104.063,29.7637,281.667
2018-09-16 00:00:00,2018-09-16 00:00:00,TMP,surface,-103.125,29.7637,281.72
2018-09-16 00:00:00,2018-09-16 00:00:00,TMP,surface,-102.188,29.7637,282.586
2018-09-16 00:00:00,2018-09-16 00:00:00,TMP,surface,-101.25,29.7637,283.147
2018-09-16 00:00:00,2018-09-16 00:00:00,TMP,surface,-100.313,29.7637,282.91
2018-09-16 00:00:00,2018-09-16 00:00:00,TMP,surface,-99.3754,29.7637,282.701
2018-09-16 00:00:00,2018-09-16 00:00:00,TMP,surface,-98.4379,29.7637,282.875
2018-09-16 00:00:00,2018-09-16 00:00:00,TMP,surface,-97.5004,29.7637,283.337
2018-09-16 00:00:00,2018-09-16 00:00:00,TMP,surface,-96.5629,29.7637,284.146
2018-09-16 00:00:00,2018-09-16 00:00:00,TMP,surface,-95.6254,29.7637,285.384
2018-09-16 00:00:00,2018-09-16 00:00:00,TMP,surface,-94.6879,29.7637,288.654
2018-09-16 00:00:00,2018-09-16 00:00:00,TMP,surface,-93.7504,29.7637,292.161
2018-09-16 00:00:00,2018-09-16 00:00:00,TMP,surface,-92.8129,29.7637,287.509
2018-09-16 00:00:00,2018-09-16 00:00:00,TMP,surface,-107.813,30.7085,280.456
2018-09-16 00:00:00,2018-09-16 00:00:00,TMP,surface,-106.875,30.7085,281.461
2018-09-16 00:00:00,2018-09-16 00:00:00,TMP,surface,-105.938,30.7085,281.374
2018-09-16 00:00:00,2018-09-16 00:00:00,TMP,surface,-105,30.7085,280.229
2018-09-16 00:00:00,2018-09-16 00:00:00,TMP,surface,-104.063,30.7085,279.907
2018-09-16 00:00:00,2018-09-16 00:00:00,TMP,surface,-103.125,30.7085,280.789
2018-09-16 00:00:00,2018-09-16 00:00:00,TMP,surface,-102.188,30.7085,281.629
2018-09-16 00:00:00,2018-09-16 00:00:00,TMP,surface,-101.25,30.7085,281.739
2018-09-16 00:00:00,2018-09-16 00:00:00,TMP,surface,-100.313,30.7085,281.376
2018-09-16 00:00:00,2018-09-16 00:00:00,TMP,surface,-99.3754,30.7085,281.283
2018-09-16 00:00:00,2018-09-16 00:00:00,TMP,surface,-98.4379,30.7085,281.557
2018-09-16 00:00:00,2018-09-16 00:00:00,TMP,surface,-97.5004,30.7085,281.901
2018-09-16 00:00:00,2018-09-16 00:00:00,TMP,surface,-96.5629,30.7085,282.457
2018-09-16 00:00:00,2018-09-16 00:00:00,TMP,surface,-95.6254,30.7085,283.342
2018-09-16 00:00:00,2018-09-16 00:00:00,TMP,surface,-94.6879,30.7085,284.16
2018-09-16 00:00:00,2018-09-16 00:00:00,TMP,surface,-93.7504,30.7085,284.573
2018-09-16 00:00:00,2018-09-16 00:00:00,TMP,surface,-92.8129,30.7085,284.491
2018-09-16 00:00:00,2018-09-16 00:00:00,TMP,surface,-107.813,31.6534,280.251
2018-09-16 00:00:00,2018-09-16 00:00:00,TMP,surface,-106.875,31.6534,280.818
2018-09-16 00:00:00,2018-09-16 00:00:00,TMP,surface,-105.938,31.6534,279.553
2018-09-16 00:00:00,2018-09-16 00:00:00,TMP,surface,-105,31.6534,278.662
2018-09-16 00:00:00,2018-09-16 00:00:00,TMP,surface,-104.063,31.6534,278.754
2018-09-16 00:00:00,2018-09-16 00:00:00,TMP,surface,-103.125,31.6534,279.56
2018-09-16 00:00:00,2018-09-16 00:00:00,TMP,surface,-102.188,31.6534,280.206
2018-09-16 00:00:00,2018-09-16 00:00:00,TMP,surface,-101.25,31.6534,280.317
2018-09-16 00:00:00,2018-09-16 00:00:00,TMP,surface,-100.313,31.6534,280.297
2018-09-16 00:00:00,2018-09-16 00:00:00,TMP,surface,-99.3754,31.6534,280.482
2018-09-16 00:00:00,2018-09-16 00:00:00,TMP,surface,-98.4379,31.6534,280.805
2018-09-16 00:00:00,2018-09-16 00:00:00,TMP,surface,-97.5004,31.6534,281.179
2018-09-16 00:00:00,2018-09-16 00:00:00,TMP,surface,-96.5629,31.6534,281.65
2018-09-16 00:00:00,2018-09-16 00:00:00,TMP,surface,-95.6254,31.6534,282.184
2018-09-16 00:00:00,2018-09-16 00:00:00,TMP,surface,-94.6879,31.6534,282.584
2018-09-16 00:00:00,2018-09-16 00:00:00,TMP,surface,-93.7504,31.6534,282.79
2018-09-16 00:00:00,2018-09-16 00:00:00,TMP,surface,-92.8129,31.6534,283.062
2018-09-16 00:00:00,2018-09-16 00:00:00,TMP,surface,-107.813,32.5983,277.694
2018-09-16 00:00:00,2018-09-16 00:00:00,TMP,surface,-106.875,32.5983,277.875
2018-09-16 00:00:00,2018-09-16 00:00:00,TMP,surface,-105.938,32.5983,277.544
2018-09-16 00:00:00,2018-09-16 00:00:00,TMP,surface,-105,32.5983,277.11
2018-09-16 00:00:00,2018-09-16 00:00:00,TMP,surface,-104.063,32.5983,277.752
2018-09-16 00:00:00,2018-09-16 00:00:00,TMP,surface,-103.125,32.5983,278.512
2018-09-16 00:00:00,2018-09-16 00:00:00,TMP,surface,-102.188,32.5983,278.627
2018-09-16 00:00:00,2018-09-16 00:00:00,TMP,surface,-101.25,32.5983,278.918
2018-09-16 00:00:00,2018-09-16 00:00:00,TMP,surface,-100.313,32.5983,279.466
2018-09-16 00:00:00,2018-09-16 00:00:00,TMP,surface,-99.3754,32.5983,280.061
2018-09-16 00:00:00,2018-09-16 00:00:00,TMP,surface,-98.4379,32.5983,280.342
2018-09-16 00:00:00,2018-09-16 00:00:00,TMP,surface,-97.5004,32.5983,280.553
2018-09-16 00:00:00,2018-09-16 00:00:00,TMP,surface,-96.5629,32.5983,280.934
2018-09-16 00:00:00,2018-09-16 00:00:00,TMP,surface,-95.6254,32.5983,281.314
2018-09-16 00:00:00,2018-09-16 00:00:00,TMP,surface,-94.6879,32.5983,281.547
2018-09-16 00:00:00,2018-09-16 00:00:00,TMP,surface,-93.7504,32.5983,281.755
2018-09-16 00:00:00,2018-09-16 00:00:00,TMP,surface,-92.8129,32.5983,282.182
2018-09-16 00:00:00,2018-09-16 00:00:00,TMP,surface,-107.813,33.5432,274.322
2018-09-16 00:00:00,2018-09-16 00:00:00,TMP,surface,-106.875,33.5432,275.107
2018-09-16 00:00:00,2018-09-16 00:00:00,TMP,surface,-105.938,33.5432,275.555
2018-09-16 00:00:00,2018-09-16 00:00:00,TMP,surface,-105,33.5432,275.846
2018-09-16 00:00:00,2018-09-16 00:00:00,TMP,surface,-104.063,33.5432,276.574
2018-09-16 00:00:00,2018-09-16 00:00:00,TMP,surface,-103.125,33.5432,276.848
2018-09-16 00:00:00,2018-09-16 00:00:00,TMP,surface,-102.188,33.5432,276.771
2018-09-16 00:00:00,2018-09-16 00:00:00,TMP,surface,-101.25,33.5432,277.31
2018-09-16 00:00:00,2018-09-16 00:00:00,TMP,surface,-100.313,33.5432,278.318
2018-09-16 00:00:00,2018-09-16 00:00:00,TMP,surface,-99.3754,33.5432,279.021
2018-09-16 00:00:00,2018-09-16 00:00:00,TMP,surface,-98.4379,33.5432,279.288
2018-09-16 00:00:00,2018-09-16 00:00:00,TMP,surface,-97.5004,33.5432,279.381
2018-09-16 00:00:00,2018-09-16 00:00:00,TMP,surface,-96.5629,33.5432,279.665
2018-09-16 00:00:00,2018-09-16 00:00:00,TMP,surface,-95.6254,33.5432,280.181
2018-09-16 00:00:00,2018-09-16 00:00:00,TMP,surface,-94.6879,33.5432,280.547
2018-09-16 00:00:00,2018-09-16 00:00:00,TMP,surface,-93.7504,33.5432,280.669
2018-09-16 00:00:00,2018-09-16 00:00:00,TMP,surface,-92.8129,33.5432,280.926
2018-09-16 00:00:00,2018-09-16 00:00:00,TMP,surface,-107.813,34.4881,272.096
2018-09-16 00:00:00,2018-09-16 00:00:00,TMP,surface,-106.875,34.4881,273.189
2018-09-16 00:00:00,2018-09-16 00:00:00,TMP,surface,-105.938,34.4881,273.978
2018-09-16 00:00:00,2018-09-16 00:00:00,TMP,surface,-105,34.4881,274.665
2018-09-16 00:00:00,2018-09-16 00:00:00,TMP,surface,-104.063,34.4881,275.101
2018-09-16 00:00:00,2018-09-16 00:00:00,TMP,surface,-103.125,34.4881,275.2
2018-09-16 00:00:00,2018-09-16 00:00:00,TMP,surface,-102.188,34.4881,275.219
2018-09-16 00:00:00,2018-09-16 00:00:00,TMP,surface,-101.25,34.4881,275.829
2018-09-16 00:00:00,2018-09-16 00:00:00,TMP,surface,-100.313,34.4881,276.814
2018-09-16 00:00:00,2018-09-16 00:00:00,TMP,surface,-99.3754,34.4881,277.613
2018-09-16 00:00:00,2018-09-16 00:00:00,TMP,surface,-98.4379,34.4881,277.891
2018-09-16 00:00:00,2018-09-16 00:00:00,TMP,surface,-97.5004,34.4881,277.968
2018-09-16 00:00:00,2018-09-16 00:00:00,TMP,surface,-96.5629,34.4881,278.256
2018-09-16 00:00:00,2018-09-16 00:00:00,TMP,surface,-95.6254,34.4881,278.733
2018-09-16 00:00:00,2018-09-16 00:00:00,TMP,surface,-94.6879,34.4881,279.098
2018-09-16 00:00:00,2018-09-16 00:00:00,TMP,surface,-93.7504,34.4881,279.248
2018-09-16 00:00:00,2018-09-16 00:00:00,TMP,surface,-92.8129,34.4881,279.469
2018-09-16 00:00:00,2018-09-16 00:00:00,TMP,surface,-107.813,35.4329,271.302
2018-09-16 00:00:00,2018-09-16 00:00:00,TMP,surface,-106.875,35.4329,271.19
2018-09-16 00:00:00,2018-09-16 00:00:00,TMP,surface,-105.938,35.4329,271.742
2018-09-16 00:00:00,2018-09-16 00:00:00,TMP,surface,-105,35.4329,272.502
2018-09-16 00:00:00,2018-09-16 00:00:00,TMP,surface,-104.063,35.4329,273.446
2018-09-16 00:00:00,2018-09-16 00:00:00,TMP,surface,-103.125,35.4329,274.322
2018-09-16 00:00:00,2018-09-16 00:00:00,TMP,surface,-102.188,35.4329,274.307
2018-09-16 00:00:00,2018-09-16 00:00:00,TMP,surface,-101.25,35.4329,274.518
2018-09-16 00:00:00,2018-09-16 00:00:00,TMP,surface,-100.313,35.4329,275.21
2018-09-16 00:00:00,2018-09-16 00:00:00,TMP,surface,-99.3754,35.4329,275.947
2018-09-16 00:00:00,2018-09-16 00:00:00,TMP,surface,-98.4379,35.4329,276.456
2018-09-16 00:00:00,2018-09-16 00:00:00,TMP,surface,-97.5004,35.4329,276.795
2018-09-16 00:00:00,2018-09-16 00:00:00,TMP,surface,-96.5629,35.4329,277.174
2018-09-16 00:00:00,2018-09-16 00:00:00,TMP,surface,-95.6254,35.4329,277.517
2018-09-16 00:00:00,2018-09-16 00:00:00,TMP,surface,-94.6879,35.4329,277.634
2018-09-16 00:00:00,2018-09-16 00:00:00,TMP,surface,-93.7504,35.4329,277.653
2018-09-16 00:00:00,2018-09-16 00:00:00,TMP,surface,-92.8129,35.4329,277.654
2018-09-16 00:00:00,2018-09-16 00:00:00,TMP,surface,-107.813,36.3778,269.91
2018-09-16 00:00:00,2018-09-16 00:00:00,TMP,surface,-106.875,36.3778,268.48
2018-09-16 00:00:00,2018-09-16 00:00:00,TMP,surface,-105.938,36.3778,268.883
2018-09-16 00:00:00,2018-09-16 00:00:00,TMP,surface,-105,36.3778,270.198
2018-09-16 00:00:00,2018-09-16 00:00:00,TMP,surface,-104.063,36.3778,271.55
2018-09-16 00:00:00,2018-09-16 00:00:00,TMP,surface,-103.125,36.3778,272.534
2018-09-16 00:00:00,2018-09-16 00:00:00,TMP,surface,-102.188,36.3778,272.854
2018-09-16 00:00:00,2018-09-16 00:00:00,TMP,surface,-101.25,36.3778,273.185
2018-09-16 00:00:00,2018-09-16 00:00:00,TMP,surface,-100.313,36.3778,274.046
2018-09-16 00:00:00,2018-09-16 00:00:00,TMP,surface,-99.3754,36.3778,274.893
2018-09-16 00:00:00,2018-09-16 00:00:00,TMP,surface,-98.4379,36.3778,275.371
2018-09-16 00:00:00,2018-09-16 00:00:00,TMP,surface,-97.5004,36.3778,275.75
2018-09-16 00:00:00,2018-09-16 00:00:00,TMP,surface,-96.5629,36.3778,276.158
2018-09-16 00:00:00,2018-09-16 00:00:00,TMP,surface,-95.6254,36.3778,276.353
2018-09-16 00:00:00,2018-09-16 00:00:00,TMP,surface,-94.6879,36.3778,276.258
2018-09-16 00:00:00,2018-09-16 00:00:00,TMP,surface,-93.7504,36.3778,276.112
2018-09-16 00:00:00,2018-09-16 00:00:00,TMP,surface,-92.8129,36.3778,276.083
2018-09-16 00:00:00,2018-09-16 00:00:00,PRATE,surface,-107.813,25.0393,3.44e-05
2018-09-16 00:00:00,2018-09-16 00:00:00,PRATE,surface,-106.875,25.0393,1.32e-05
2018-09-16 00:00:00,2018-09-16 00:00:00,PRATE,surface,-105.938,25.0393,5.1e-06
2018-09-16 00:00:00,2018-09-16 00:00:00,PRATE,surface,-105,25.0393,2e-06
2018-09-16 00:00:00,2018-09-16 00:00:00,PRATE,surface,-104.063,25.0393,5e-07
2018-09-16 00:00:00,2018-09-16 00:00:00,PRATE,surface,-103.125,25.0393,1.5e-06
2018-09-16 00:00:00,2018-09-16 00:00:00,PRATE,surface,-102.188,25.0393,4.8e-06
2018-09-16 00:00:00,2018-09-16 00:00:00,PRATE,surface,-101.25,25.0393,1.53e-05
2018-09-16 00:00:00,2018-09-16 00:00:00,PRATE,surface,-100.313,25.0393,2.79e-05
2018-09-16 00:00:00,2018-09-16 00:00:00,PRATE,surface,-99.3754,25.0393,4.36e-05
2018-09-16 00:00:00,2018-09-16 00:00:00,PRATE,surface,-98.4379,25.0393,4.32e-05
2018-09-16 00:00:00,2018-09-16 00:00:00,PRATE,surface,-97.5004,25.0393,4.53e-05
2018-09-16 00:00:00,2018-09-16 00:00:00,PRATE,surface,-96.5629,25.0393,5.4e-05
2018-09-16 00:00:00,2018-09-16 00:00:00,PRATE,surface,-95.6254,25.0393,6.38e-05
2018-09-16 00:00:00,2018-09-16 00:00:00,PRATE,surface,-94.6879,25.0393,5.34e-05
2018-09-16 00:00:00,2018-09-16 00:00:00,PRATE,surface,-93.7504,25.0393,3.69e-05
2018-09-16 00:00:00,2018-09-16 00:00:00,PRATE,surface,-92.8129,25.0393,2.68e-05
2018-09-16 00:00:00,2018-09-16 00:00:00,PRATE,surface,-107.813,25.9842,4.74e-05
2018-09-16 00:00:00,2018-09-16 00:00:00,PRATE,surface,-106.875,25.9842,2.74e-05
2018-09-16 00:00:00,2018-09-16 00:00:00,PRATE,surface,-105.938,25.9842,6.9e-06
2018-09-16 00:00:00,2018-09-16 00:00:00,PRATE,surface,-105,25.9842,2.1e-06
2018-09-16 00:00:00,2018-09-16 00:00:00,PRATE,surface,-104.063,25.9842,1e-06
2018-09-16 00:00:00,2018-09-16 00:00:00,PRATE,surface,-103.125,25.9842,9e-07
2018-09-16 00:00:00,2018-09-16 00:00:00,PRATE,surface,-102.188,25.9842,3.7e-06
2018-09-16 00:00:00,2018-09-16 00:00:00,PRATE,surface,-101.25,25.9842,1.36e-05
2018-09-16 00:00:00,2018-09-16 00:00:00,PRATE,surface,-100.313,25.9842,2.49e-05
2018-09-16 00:00:00,2018-09-16 00:00:00,PRATE,surface,-99.3754,25.9842,2.94e-05
2018-09-16 00:00:00,2018-09-16 00:00:00,PRATE,surface,-98.4379,25.9842,2.89e-05
2018-09-16 00:00:00,2018-09-16 00:00:00,PRATE,surface,-97.5004,25.9842,4.4e-05
2018-09-16 00:00:00,2018-09-16 00:00:00,PRATE,surface,-96.5629,25.9842,6.3e-05
2018-09-16 00:00:00,2018-09-16 00:00:00,PRATE,surface,-95.6254,25.9842,7.41e-05
2018-09-16 00:00:00,2018-09-16 00:00:00,PRATE,surface,-94.6879,25.9842,7.47e-05
2018-09-16 00:00:00,2018-09-16 00:00:00,PRATE,surface,-93.7504,25.9842,6.03e-05
2018-09-16 00:00:00,2018-09-16 00:00:00,PRATE,surface,-92.8129,25.9842,3.96e-05
2018-09-16 00:00:00,2018-09-16 00:00:00,PRATE,surface,-107.813,26.929,4.96e-05
2018-09-16 00:00:00,2018-09-16 00:00:00,PRATE,surface,-106.875,26.929,1.98e-05
2018-09-16 00:00:00,2018-09-16 00:00:00,PRATE,surface,-105.938,26.929,2.4e-06
2018-09-16 00:00:00,2018-09-16 00:00:00,PRATE,surface,-105,26.929,2e-06
2018-09-16 00:00:00,2018-09-16 00:00:00,PRATE,surface,-104.063,26.929,2.9e-06
2018-09-16 00:00:00,2018-09-16 00:00:00,PRATE,surface,-103.125,26.929,4.7e-06
2018-09-16 00:00:00,2018-09-16 00:00:00,PRATE,surface,-102.188,26.929,1.14e-05
2018-09-16 00:00:00,2018-09-16 00:00:00,PRATE,surface,-101.25,26.929,2.47e-05
2018-09-16 00:00:00,2018-09-16 00:00:00,PRATE,surface,-100.313,26.929,3.08e-05
2018-09-16 00:00:00,2018-09-16 00:00:00,PRATE,surface,-99.3754,26.929,3.49e-05
2018-09-16 00:00:00,2018-09-16 00:00:00,PRATE,surface,-98.4379,26.929,3.88e-05
2018-09-16 00:00:00,2018-09-16 00:00:00,PRATE,surface,-97.5004,26.929,5e-05
2018-09-16 00:00:00,2018-09-16 00:00:00,PRATE,surface,-96.5629,26.929,6.36e-05
2018-09-16 00:00:00,2018-09-16 00:00:00,PRATE,surface,-95.6254,26.929,6.27e-05
2018-09-16 00:00:00,2018-09-16 00:00:00,PRATE,surface,-94.6879,26.929,7.67e-05
2018-09-16 00:00:00,2018-09-16 00:00:00,PRATE,surface,-93.7504,26.929,8.06e-05
2018-09-16 00:00:00,2018-09-16 00:00:00,PRATE,surface,-92.8129,26.929,6.38e-05
2018-09-16 00:00:00,2018-09-16 00:00:00,PRATE,surface,-107.813,27.8739,3.69e-05
2018-09-16 00:00:00,2018-09-16 00:00:00,PRATE,surface,-106.875,27.8739,1.31e-05
2018-09-16 00:00:00,2018-09-16 00:00:00,PRATE,surface,-105.938,27.8739,5.5e-06
2018-09-16 00:00:00,2018-09-16 00:00:00,PRATE,surface,-105,27.8739,2.3e-06
2018-09-16 00:00:00,2018-09-16 00:00:00,PRATE,surface,-104.063,27.8739,4e-06
2018-09-16 00:00:00,2018-09-16 00:00:00,PRATE,surface,-103.125,27.8739,1.03e-05
2018-09-16 00:00:00,2018-09-16 00:00:00,PRATE,surface,-102.188,27.8739,2.18e-05
2018-09-16 00:00:00,2018-09-16 00:00:00,PRATE,surface,-101.25,27.8739,2.77e-05
2018-09-16 00:00:00,2018-09-16 00:00:00,PRATE,surface,-100.313,27.8739,2.99e-05
2018-09-16 00:00:00,2018-09-16 00:00:00,PRATE,surface,-99.3754,27.8739,3.72e-05
2018-09-16 00:00:00,2018-09-16 00:00:00,PRATE,surface,-98.4379,27.8739,5e-05
2018-09-16 00:00:00,2018-09-16 00:00:00,PRATE,surface,-97.5004,27.8739,6.66e-05
2018-09-16 00:00:00,2018-09-16 00:00:00,PRATE,surface,-96.5629,27.8739,7.38e-05
2018-09-16 00:00:00,2018-09-16 00:00:00,PRATE,surface,-95.6254,27.8739,7.22e-05
2018-09-16 00:00:00,2018-09-16 00:00:00,PRATE,surface,-94.6879,27.8739,8.07e-05
2018-09-16 00:00:00,2018-09-16 00:00:00,PRATE,surface,-93.7504,27.8739,0.0001011
2018-09-16 00:00:00,2018-09-16 00:00:00,PRATE,surface,-92.8129,27.8739,0.0001215
2018-09-16 00:00:00,2018-09-16 00:00:00,PRATE,surface,-107.813,28.8188,2.69e-05
2018-09-16 00:00:00,2018-09-16 00:00:00,PRATE,surface,-106.875,28.8188,1.52e-05
2018-09-16 00:00:00,2018-09-16 00:00:00,PRATE,surface,-105.938,28.8188,9.1e-06
2018-09-16 00:00:00,2018-09-16 00:00:00,PRATE,surface,-105,28.8188,4.3e-06
2018-09-16 00:00:00,2018-09-16 00:00:00,PRATE,surface,-104.063,28.8188,5.4e-06
2018-09-16 00:00:00,2018-09-16 00:00:00,PRATE,surface,-103.125,28.8188,1.09e-05
2018-09-16 00:00:00,2018-09-16 00:00:00,PRATE,surface,-102.188,28.8188,1.4e-05
2018-09-16 00:00:00,2018-09-16 00:00:00,PRATE,surface,-101.25,28.8188,2.18e-05
2018-09-16 00:00:00,2018-09-16 00:00:00,PRATE,surface,-100.313,28.8188,3.74e-05
2018-09-16 00:00:00,2018-09-16 00:00:00,PRATE,surface,-99.3754,28.8188,5.67e-05
2018-09-16 00:00:00,2018-09-16 00:00:00,PRATE,surface,-98.4379,28.8188,7.11e-05
2018-09-16 00:00:00,2018-09-16 00:00:00,PRATE,surface,-97.5004,28.8188,8.09e-05
2018-09-16 00:00:00,2018-09-16 00:00:00,PRATE,surface,-96.5629,28.8188,8.68e-05
2018-09-16 00:00:00,2018-09-16 00:00:00,PRATE,surface,-95.6254,28.8188,9.16e-05
2018-09-16 00:00:00,2018-09-16 00:00:00,PRATE,surface,-94.6879,28.8188,0.0001019
2018-09-16 00:00:00,2018-09-16 00:00:00,PRATE,surface,-93.7504,28.8188,0.0001195
2018-09-16 00:00:00,2018-09-16 00:00:00,PRATE,surface,-92.8129,28.8188,0.0001479
2018-09-16 00:00:00,2018-09-16 00:00:00,PRATE,surface,-107.813,29.7637,1.99e-05
2018-09-16 00:00:00,2018-09-16 00:00:00,PRATE,surface,-106.875,29.7637,1.77e-05
2018-09-16 00:00:00,2018-09-16 00:00:00,PRATE,surface,-105.938,29.7637,1.17e-05
2018-09-16 00:00:00,2018-09-16 00:00:00,PRATE,surface,-105,29.7637,1.04e-05
2018-09-16 00:00:00,2018-09-16 00:00:00,PRATE,surface,-104.063,29.7637,1.07e-05
2018-09-16 00:00:00,2018-09-16 00:00:00,PRATE,surface,-103.125,29.7637,1.49e-05
2018-09-16 00:00:00,2018-09-16 00:00:00,PRATE,surface,-102.188,29.7637,1.4e-05
2018-09-16 00:00:00,2018-09-16 00:00:00,PRATE,surface,-101.25,29.7637,2.31e-05
2018-09-16 00:00:00,2018-09-16 00:00:00,PRATE,surface,-100.313,29.7637,4.42e-05
2018-09-16 00:00:00,2018-09-16 00:00:00,PRATE,surface,-99.3754,29.7637,6.7e-05
2018-09-16 00:00:00,2018-09-16 00:00:00,PRATE,surface,-98.4379,29.7637,7.72e-05
2018-09-16 00:00:00,2018-09-16 00:00:00,PRATE,surface,-97.5004,29.7637,7.84e-05
2018-09-16 00:00:00,2018-09-16 00:00:00,PRATE,surface,-96.5629,29.7637,8e-05
2018-09-16 00:00:00,2018-09-16 00:00:00,PRATE,surface,-95.6254,29.7637,8.47e-05
2018-09-16 00:00:00,2018-09-16 00:00:00,PRATE,surface,-94.6879,29.7637,9.82e-05
2018-09-16 00:00:00,2018-09-16 00:00:00,PRATE,surface,-93.7504,29.7637,0.000117
2018-09-16 00:00:00,2018-09-16 00:00:00,PRATE,surface,-92.8129,29.7637,0.0001218
2018-09-16 00:00:00,2018-09-16 00:00:00,PRATE,surface,-107.813,30.7085,1.91e-05
2018-09-16 00:00:00,2018-09-16 00:00:00,PRATE,surface,-106.875,30.7085,1.86e-05
2018-09-16 00:00:00,2018-09-16 00:00:00,PRATE,surface,-105.938,30.7085,1.96e-05
2018-09-16 00:00:00,2018-09-16 00:00:00,PRATE,surface,-105,30.7085,2.53e-05
2018-09-16 00:00:00,2018-09-16 00:00:00,PRATE,surface,-104.063,30.7085,2.57e-05
2018-09-16 00:00:00,2018-09-16 00:00:00,PRATE,surface,-103.125,30.7085,2.41e-05
2018-09-16 00:00:00,2018-09-16 00:00:00,PRATE,surface,-102.188,30.7085,2.61e-05
2018-09-16 00:00:00,2018-09-16 00:00:00,PRATE,surface,-101.25,30.7085,3.22e-05
2018-09-16 00:00:00,2018-09-16 00:00:00,PRATE,surface,-100.313,30.7085,4.46e-05
2018-09-16 00:00:00,2018-09-16 00:00:00,PRATE,surface,-99.3754,30.7085,5.87e-05
2018-09-16 00:00:00,2018-09-16 00:00:00,PRATE,surface,-98.4379,30.7085,6.41e-05
2018-09-16 00:00:00,2018-09-16 00:00:00,PRATE,surface,-97.5004,30.7085,6.23e-05
2018-09-16 00:00:00,2018-09-16 00:00:00,PRATE,surface,-96.5629,30.7085,6.01e-05
2018-09-16 00:00:00,2018-09-16 00:00:00,PRATE,surface,-95.6254,30.7085,6.55e-05
2018-09-16 00:00:00,2018-09-16 00:00:00,PRATE,surface,-94.6879,30.7085,8.27e-05
2018-09-16 00:00:00,2018-09-16 00:00:00,PRATE,surface,-93.7504,30.7085,0.0001002
2018-09-16 00:00:00,2018-09-16 00:00:00,PRATE,surface,-92.8129,30.7085,0.0001054
2018-09-16 00:00:00,2018-09-16 00:00:00,PRATE,surface,-107.813,31.6534,1.18e-05
2018-09-16 00:00:00,2018-09-16 00:00:00,PRATE,surface,-106.875,31.6534,1.68e-05
2018-09-16 00:00:00,2018-09-16 00:00:00,PRATE,surface,-105.938,31.6534,2.71e-05
2018-09-16 00:00:00,2018-09-16 00:00:00,PRATE,surface,-105,31.6534,3.97e-05
2018-09-16 00:00:00,2018-09-16 00:00:00,PRATE,surface,-104.063,31.6534,4.24e-05
2018-09-16 00:00:00,2018-09-16 00:00:00,PRATE,surface,-103.125,31.6534,3.44e-05
2018-09-16 00:00:00,2018-09-16 00:00:00,PRATE,surface,-102.188,31.6534,3.03e-05
2018-09-16 00:00:00,2018-09-16 00:00:00,PRATE,surface,-101.25,31.6534,2.68e-05
2018-09-16 00:00:00,2018-09-16 00:00:00,PRATE,surface,-100.313,31.6534,2.94e-05
2018-09-16 00:00:00,2018-09-16 00:00:00,PRATE,surface,-99.3754,31.6534,3.86e-05
2018-09-16 00:00:00,2018-09-16 00:00:00,PRATE,surface,-98.4379,31.6534,4.71e-05
2018-09-16 00:00:00,2018-09-16 00:00:00,PRATE,surface,-97.5004,31.6534,5.04e-05
2018-09-16 00:00:00,2018-09-16 00:00:00,PRATE,surface,-96.5629,31.6534,5.19e-05
2018-09-16 00:00:00,2018-09-16 00:00:00,PRATE,surface,-95.6254,31.6534,5.53e-05
2018-09-16 00:00:00,2018-09-16 00:00:00,PRATE,surface,-94.6879,31.6534,6.78e-05
2018-09-16 00:00:00,2018-09-16 00:00:00,PRATE,surface,-93.7504,31.6534,9.16e-05
2018-09-16 00:00:00,2018-09-16 00:00:00,PRATE,surface,-92.8129,31.6534,0.0001025
2018-09-16 00:00:00,2018-09-16 00:00:00,PRATE,surface,-107.813,32.5983,1.03e-05
2018-09-16 00:00:00,2018-09-16 00:00:00,PRATE,surface,-106.875,32.5983,1.49e-05
2018-09-16 00:00:00,2018-09-16 00:00:00,PRATE,surface,-105.938,32.5983,2.38e-05
2018-09-16 00:00:00,2018-09-16 00:00:00,PRATE,surface,-105,32.5983,4.02e-05
2018-09-16 00:00:00,2018-09-16 00:00:00,PRATE,surface,-104.063,32.5983,4.47e-05
2018-09-16 00:00:00,2018-09-16 00:00:00,PRATE,surface,-103.125,32.5983,4e-05
2018-09-16 00:00:00,2018-09-16 00:00:00,PRATE,surface,-102.188,32.5983,3.89e-05
2018-09-16 00:00:00,2018-09-16 00:00:00,PRATE,surface,-101.25,32.5983,3.58e-05
2018-09-16 00:00:00,2018-09-16 00:00:00,PRATE,surface,-100.313,32.5983,3.01e-05
2018-09-16 00:00:00,2018-09-16 00:00:00,PRATE,surface,-99.3754,32.5983,3e-05
2018-09-16 00:00:00,2018-09-16 00:00:00,PRATE,surface,-98.4379,32.5983,3.82e-05
2018-09-16 00:00:00,2018-09-16 00:00:00,PRATE,surface,-97.5004,32.5983,4.62e-05
2018-09-16 00:00:00,2018-09-16 00:00:00,PRATE,surface,-96.5629,32.5983,4.84e-05
2018-09-16 00:00:00,2018-09-16 00:00:00,PRATE,surface,-95.6254,32.5983,5.17e-05
2018-09-16 00:00:00,2018-09-16 00:00:00,PRATE,surface,-94.6879,32.5983,6.42e-05
2018-09-16 00:00:00,2018-09-16 00:00:00,PRATE,surface,-93.7504,32.5983,8.29e-05
2018-09-16 00:00:00,2018-09-16 00:00:00,PRATE,surface,-92.8129,32.5983,9.95e-05
2018-09-16 00:00:00,2018-09-16 00:00:00,PRATE,surface,-107.813,33.5432,1.77e-05
2018-09-16 00:00:00,2018-09-16 00:00:00,PRATE,surface,-106.875,33.5432,1.53e-05
2018-09-16 00:00:00,2018-09-16 00:00:00,PRATE,surface,-105.938,33.5432,1.95e-05
2018-09-16 00:00:00,2018-09-16 00:00:00,PRATE,surface,-105,33.5432,2.88e-05
2018-09-16 00:00:00,2018-09-16 00:00:00,PRATE,surface,-104.063,33.5432,3.48e-05
2018-09-16 00:00:00,2018-09-16 00:00:00,PRATE,surface,-103.125,33.5432,3.87e-05
2018-09-16 00:00:00,2018-09-16 00:00:00,PRATE,surface,-102.188,33.5432,4.39e-05
2018-09-16 00:00:00,2018-09-16 00:00:00,PRATE,surface,-101.25,33.5432,4.17e-05
2018-09-16 00:00:00,2018-09-16 00:00:00,PRATE,surface,-100.313,33.5432,3.24e-05
2018-09-16 00:00:00,2018-09-16 00:00:00,PRATE,surface,-99.3754,33.5432,2.69e-05
2018-09-16 00:00:00,2018-09-16 00:00:00,PRATE,surface,-98.4379,33.5432,3.22e-05
2018-09-16 00:00:00,2018-09-16 00:00:00,PRATE,surface,-97.5004,33.5432,4.31e-05
2018-09-16 00:00:00,2018-09-16 00:00:00,PRATE,surface,-96.5629,33.5432,5.04e-05
2018-09-16 00:00:00,2018-09-16 00:00:00,PRATE,surface,-95.6254,33.5432,5.42e-05
2018-09-16 00:00:00,2018-09-16 00:00:00,PRATE,surface,-94.6879,33.5432,6.16e-05
2018-09-16 00:00:00,2018-09-16 00:00:00,PRATE,surface,-93.7504,33.5432,7.61e-05
2018-09-16 00:00:00,2018-09-16 00:00:00,PRATE,surface,-92.8129,33.5432,9.61e-05
2018-09-16 00:00:00,2018-09-16 00:00:00,PRATE,surface,-107.813,34.4881,1.72e-05
2018-09-16 00:00:00,2018-09-16 00:00:00,PRATE,surface,-106.875,34.4881,1.45e-05
2018-09-16 00:00:00,2018-09-16 00:00:00,PRATE,surface,-105.938,34.4881,1.35e-05
2018-09-16 00:00:00,2018-09-16 00:00:00,PRATE,surface,-105,34.4881,2e-05
2018-09-16 00:00:00,2018-09-16 00:00:00,PRATE,surface,-104.063,34.4881,2.46e-05
2018-09-16 00:00:00,2018-09-16 00:00:00,PRATE,surface,-103.125,34.4881,2.69e-05
2018-09-16 00:00:00,2018-09-16 00:00:00,PRATE,surface,-102.188,34.4881,3.01e-05
2018-09-16 00:00:00,2018-09-16 00:00:00,PRATE,surface,-101.25,34.4881,3.15e-05
2018-09-16 00:00:00,2018-09-16 00:00:00,PRATE,surface,-100.313,34.4881,2.72e-05
2018-09-16 00:00:00,2018-09-16 00:00:00,PRATE,surface,-99.3754,34.4881,2.33e-05
2018-09-16 00:00:00,2018-09-16 00:00:00,PRATE,surface,-98.4379,34.4881,2.61e-05
2018-09-16 00:00:00,2018-09-16 00:00:00,PRATE,surface,-97.5004,34.4881,3.64e-05
2018-09-16 00:00:00,2018-09-16 00:00:00,PRATE,surface,-96.5629,34.4881,4.63e-05
2018-09-16 00:00:00,2018-09-16 00:00:00,PRATE,surface,-95.6254,34.4881,5.24e-05
2018-09-16 00:00:00,2018-09-16 00:00:00,PRATE,surface,-94.6879,34.4881,6.08e-05
2018-09-16 00:00:00,2018-09-16 00:00:00,PRATE,surface,-93.7504,34.4881,7.65e-05
2018-09-16 00:00:00,2018-09-16 00:00:00,PRATE,surface,-92.8129,34.4881,0.000101
2018-09-16 00:00:00,2018-09-16 00:00:00,PRATE,surface,-107.813,35.4329,1.27e-05
2018-09-16 00:00:00,2018-09-16 00:00:00,PRATE,surface,-106.875,35.4329,1.34e-05
2018-09-16 00:00:00,2018-09-16 00:00:00,PRATE,surface,-105.938,35.4329,1.36e-05
2018-09-16 00:00:00,2018-09-16 00:00:00,PRATE,surface,-105,35.4329,1.64e-05
2018-09-16 00:00:00,2018-09-16 00:00:00,PRATE,surface,-104.063,35.4329,1.89e-05
2018-09-16 00:00:00,2018-09-16 00:00:00,PRATE,surface,-103.125,35.4329,1.7e-05
2018-09-16 00:00:00,2018-09-16 00:00:00,PRATE,surface,-102.188,35.4329,1.91e-05
2018-09-16 00:00:00,2018-09-16 00:00:00,PRATE,surface,-101.25,35.4329,2.64e-05
2018-09-16 00:00:00,2018-09-16 00:00:00,PRATE,surface,-100.313,35.4329,3.03e-05
2018-09-16 00:00:00,2018-09-16 00:00:00,PRATE,surface,-99.3754,35.4329,3.15e-05
2018-09-16 00:00:00,2018-09-16 00:00:00,PRATE,surface,-98.4379,35.4329,3.23e-05
2018-09-16 00:00:00,2018-09-16 00:00:00,PRATE,surface,-97.5004,35.4329,3.66e-05
2018-09-16 00:00:00,2018-09-16 00:00:00,PRATE,surface,-96.5629,35.4329,4.37e-05
2018-09-16 00:00:00,2018-09-16 00:00:00,PRATE,surface,-95.6254,35.4329,4.94e-05
2018-09-16 00:00:00,2018-09-16 00:00:00,PRATE,surface,-94.6879,35.4329,5.58e-05
2018-09-16 00:00:00,2018-09-16 00:00:00,PRATE,surface,-93.7504,35.4329,7.11e-05
2018-09-16 00:00:00,2018-09-16 00:00:00,PRATE,surface,-92.8129,35.4329,9.88e-05
2018-09-16 00:00:00,2018-09-16 00:00:00,PRATE,surface,-107.813,36.3778,2.01e-05
2018-09-16 00:00:00,2018-09-16 00:00:00,PRATE,surface,-106.875,36.3778,1.93e-05
2018-09-16 00:00:00,2018-09-16 00:00:00,PRATE,surface,-105.938,36.3778,1.63e-05
2018-09-16 00:00:00,2018-09-16 00:00:00,PRATE,surface,-105,36.3778,1.76e-05
2018-09-16 00:00:00,2018-09-16 00:00:00,PRATE,surface,-104.063,36.3778,1.83e-05
2018-09-16 00:00:00,2018-09-16 00:00:00,PRATE,surface,-103.125,36.3778,1.51e-05
2018-09-16 00:00:00,2018-09-16 00:00:00,PRATE,surface,-102.188,36.3778,1.51e-05
2018-09-16 00:00:00,2018-09-16 00:00:00,PRATE,surface,-101.25,36.3778,2e-05
2018-09-16 00:00:00,2018-09-16 00:00:00,PRATE,surface,-100.313,36.3778,2.62e-05
2018-09-16 00:00:00,2018-09-16 00:00:00,PRATE,surface,-99.3754,36.3778,3.15e-05
2018-09-16 00:00:00,2018-09-16 00:00:00,PRATE,surface,-98.4379,36.3778,3.48e-05
2018-09-16 00:00:00,2018-09-16 00:00:00,PRATE,surface,-97.5004,36.3778,3.61e-05
2018-09-16 00:00:00,2018-09-16 00:00:00,PRATE,surface,-96.5629,36.3778,3.86e-05
2018-09-16 00:00:00,2018-09-16 00:00:00,PRATE,surface,-95.6254,36.3778,4.46e-05
2018-09-16 00:00:00,2018-09-16 00:00:00,PRATE,surface,-94.6879,36.3778,5.3e-05
2018-09-16 00:00:00,2018-09-16 00:00:00,PRATE,surface,-93.7504,36.3778,6.39e-05
2018-09-16 00:00:00,2018-09-16 00:00:00,PRATE,surface,-92.8129,36.3778,8.07e-05
