2015-01-26 00:00:00,2015-01-26 00:00:00,TMP,surface,-107.813,25.0393,301.87
2015-01-26 00:00:00,2015-01-26 00:00:00,TMP,surface,-106.875,25.0393,295.074
2015-01-26 00:00:00,2015-01-26 00:00:00,TMP,surface,-105.938,25.0393,290.538
2015-01-26 00:00:00,2015-01-26 00:00:00,TMP,surface,-105,25.0393,288.272
2015-01-26 00:00:00,2015-01-26 00:00:00,TMP,surface,-104.063,25.0393,291.696
2015-01-26 00:00:00,2015-01-26 00:00:00,TMP,surface,-103.125,25.0393,295.323
2015-01-26 00:00:00,2015-01-26 00:00:00,TMP,surface,-102.188,25.0393,294.662
2015-01-26 00:00:00,2015-01-26 00:00:00,TMP,surface,-101.25,25.0393,292.106
2015-01-26 00:00:00,2015-01-26 00:00:00,TMP,surface,-100.313,25.0393,292.424
2015-01-26 00:00:00,2015-01-26 00:00:00,TMP,surface,-99.3754,25.0393,296.152
2015-01-26 00:00:00,2015-01-26 00:00:00,TMP,surface,-98.4379,25.0393,300.013
2015-01-26 00:00:00,2015-01-26 00:00:00,TMP,surface,-97.5004,25.0393,302.749
2015-01-26 00:00:00,2015-01-26 00:00:00,TMP,surface,-96.5629,25.0393,302.957
2015-01-26 00:00:00,2015-01-26 00:00:00,TMP,surface,-95.6254,25.0393,303.13
2015-01-26 00:00:00,2015-01-26 00:00:00,TMP,surface,-94.6879,25.0393,303.266
2015-01-26 00:00:00,2015-01-26 00:00:00,TMP,surface,-93.7504,25.0393,303.072
2015-01-26 00:00:00,2015-01-26 00:00:00,TMP,surface,-92.8129,25.0393,302.789
2015-01-26 00:00:00,2015-01-26 00:00:00,TMP,surface,-107.813,25.9842,296.76
2015-01-26 00:00:00,2015-01-26 00:00:00,TMP,surface,-106.875,25.9842,291.739
2015-01-26 00:00:00,2015-01-26 00:00:00,TMP,surface,-105.938,25.9842,289.022
2015-01-26 00:00:00,2015-01-26 00:00:00,TMP,surface,-105,25.9842,290.466
2015-01-26 00:00:00,2015-01-26 00:00:00,TMP,surface,-104.063,25.9842,295.81
2015-01-26 00:00:00,2015-01-26 00:00:00,TMP,surface,-103.125,25.9842,298.006
2015-01-26 00:00:00,2015-01-26 00:00:00,TMP,surface,-102.188,25.9842,296.778
2015-01-26 00:00:00,2015-01-26 00:00:00,TMP,surface,-101.25,25.9842,295.453
2015-01-26 00:00:00,2015-01-26 00:00:00,TMP,surface,-100.313,25.9842,295.85
2015-01-26 00:00:00,2015-01-26 00:00:00,TMP,surface,-99.3754,25.9842,299.674
2015-01-26 00:00:00,2015-01-26 00:00:00,TMP,surface,-98.4379,25.9842,301.565
2015-01-26 00:00:00,2015-01-26 00:00:00,TMP,surface,-97.5004,25.9842,301.301
2015-01-26 00:00:00,2015-01-26 00:00:00,TMP,surface,-96.5629,25.9842,302.242
2015-01-26 00:00:00,2015-01-26 00:00:00,TMP,surface,-95.6254,25.9842,302.459
2015-01-26 00:00:00,2015-01-26 00:00:00,TMP,surface,-94.6879,25.9842,302.878
2015-01-26 00:00:00,2015-01-26 00:00:00,TMP,surface,-93.7504,25.9842,303.045
2015-01-26 00:00:00,2015-01-26 00:00:00,TMP,surface,-92.8129,25.9842,303.022
2015-01-26 00:00:00,2015-01-26 00:00:00,TMP,surface,-107.813,26.929,292.622
2015-01-26 00:00:00,2015-01-26 00:00:00,TMP,surface,-106.875,26.929,289.602
2015-01-26 00:00:00,2015-01-26 00:00:00,TMP,surface,-105.938,26.929,289.954
2015-01-26 00:00:00,2015-01-26 00:00:00,TMP,surface,-105,26.929,294.162
2015-01-26 00:00:00,2015-01-26 00:00:00,TMP,surface,-104.063,26.929,297.798
2015-01-26 00:00:00,2015-01-26 00:00:00,TMP,surface,-103.125,26.929,297.357
2015-01-26 00:00:00,2015-01-26 00:00:00,TMP,surface,-102.188,26.929,296.496
2015-01-26 00:00:00,2015-01-26 00:00:00,TMP,surface,-101.25,26.929,297.189
2015-01-26 00:00:00,2015-01-26 00:00:00,TMP,surface,-100.313,26.929,299.368
2015-01-26 00:00:00,2015-01-26 00:00:00,TMP,surface,-99.3754,26.929,301.315
2015-01-26 00:00:00,2015-01-26 00:00:00,TMP,surface,-98.4379,26.929,300.843
2015-01-26 00:00:00,2015-01-26 00:00:00,TMP,surface,-97.5004,26.929,301.317
2015-01-26 00:00:00,2015-01-26 00:00:00,TMP,surface,-96.5629,26.929,301.499
2015-01-26 00:00:00,2015-01-26 00:00:00,TMP,surface,-95.6254,26.929,302.202
2015-01-26 00:00:00,2015-01-26 00:00:00,TMP,surface,-94.6879,26.929,302.699
2015-01-26 00:00:00,2015-01-26 00:00:00,TMP,surface,-93.7504,26.929,302.859
2015-01-26 00:00:00,2015-01-26 00:00:00,TMP,surface,-92.8129,26.929,302.957
2015-01-26 00:00:00,2015-01-26 00:00:00,TMP,surface,-107.813,27.8739,290.675
2015-01-26 00:00:00,2015-01-26 00:00:00,TMP,surface,-106.875,27.8739,289.067
2015-01-26 00:00:00,2015-01-26 00:00:00,TMP,surface,-105.938,27.8739,291.918
2015-01-26 00:00:00,2015-01-26 00:00:00,TMP,surface,-105,27.8739,296.323
2015-01-26 00:00:00,2015-01-26 00:00:00,TMP,surface,-104.063,27.8739,297.288
2015-01-26 00:00:00,2015-01-26 00:00:00,TMP,surface,-103.125,27.8739,295.918
2015-01-26 00:00:00,2015-01-26 00:00:00,TMP,surface,-102.188,27.8739,295.531
2015-01-26 00:00:00,2015-01-26 00:00:00,TMP,surface,-101.25,27.8739,297.962
2015-01-26 00:00:00,2015-01-26 00:00:00,TMP,surface,-100.313,27.8739,300.408
2015-01-26 00:00:00,2015-01-26 00:00:00,TMP,surface,-99.3754,27.8739,300.882
2015-01-26 00:00:00,2015-01-26 00:00:00,TMP,surface,-98.4379,27.8739,300.16
2015-01-26 00:00:00,2015-01-26 00:00:00,TMP,surface,-97.5004,27.8739,300.813
2015-01-26 00:00:00,2015-01-26 00:00:00,TMP,surface,-96.5629,27.8739,302.126
2015-01-26 00:00:00,2015-01-26 00:00:00,TMP,surface,-95.6254,27.8739,302.608
2015-01-26 00:00:00,2015-01-26 00:00:00,TMP,surface,-94.6879,27.8739,302.966
2015-01-26 00:00:00,2015-01-26 00:00:00,TMP,surface,-93.7504,27.8739,303.021
2015-01-26 00:00:00,2015-01-26 00:00:00,TMP,surface,-92.8129,27.8739,302.97
2015-01-26 00:00:00,2015-01-26 00:00:00,TMP,surface,-107.813,28.8188,289.645
2015-01-26 00:00:00,2015-01-26 00:00:00,TMP,surface,-106.875,28.8188,289.853
2015-01-26 00:00:00,2015-01-26 00:00:00,TMP,surface,-105.938,28.8188,294.082
2015-01-26 00:00:00,2015-01-26 00:00:00,TMP,surface,-105,28.8188,297.162
2015-01-26 00:00:00,2015-01-26 00:00:00,TMP,surface,-104.063,28.8188,296.245
2015-01-26 00:00:00,2015-01-26 00:00:00,TMP,surface,-103.125,28.8188,295.59
2015-01-26 00:00:00,2015-01-26 00:00:00,TMP,surface,-102.188,28.8188,296.024
2015-01-26 00:00:00,2015-01-26 00:00:00,TMP,surface,-101.25,28.8188,298.24
2015-01-26 00:00:00,2015-01-26 00:00:00,TMP,surface,-100.313,28.8188,299.381
2015-01-26 00:00:00,2015-01-26 00:00:00,TMP,surface,-99.3754,28.8188,298.946
2015-01-26 00:00:00,2015-01-26 00:00:00,TMP,surface,-98.4379,28.8188,298.578
2015-01-26 00:00:00,2015-01-26 00:00:00,TMP,surface,-97.5004,28.8188,298.906
2015-01-26 00:00:00,2015-01-26 00:00:00,TMP,surface,-96.5629,28.8188,299.731
2015-01-26 00:00:00,2015-01-26 00:00:00,TMP,surface,-95.6254,28.8188,301.029
2015-01-26 00:00:00,2015-01-26 00:00:00,TMP,surface,-94.6879,28.8188,302.181
2015-01-26 00:00:00,2015-01-26 00:00:00,TMP,surface,-93.7504,28.8188,302.339
2015-01-26 00:00:00,2015-01-26 00:00:00,TMP,surface,-92.8129,28.8188,302.262
2015-01-26 00:00:00,2015-01-26 00:00:00,TMP,surface,-107.813,29.7637,291.662
2015-01-26 00:00:00,2015-01-26 00:00:00,TMP,surface,-106.875,29.7637,292.778
2015-01-26 00:00:00,2015-01-26 00:00:00,TMP,surface,-105.938,29.7637,296.086
2015-01-26 00:00:00,2015-01-26 00:00:00,TMP,surface,-105,29.7637,297.034
2015-01-26 00:00:00,2015-01-26 00:00:00,TMP,surface,-104.063,29.7637,296.573
2015-01-26 00:00:00,2015-01-26 00:00:00,TMP,surface,-103.125,29.7637,296.891
2015-01-26 00:00:00,2015-01-26 00:00:00,TMP,surface,-102.188,29.7637,297.946
2015-01-26 00:00:00,2015-01-26 00:00:00,TMP,surface,-101.25,29.7637,298.427
2015-01-26 00:00:00,2015-01-26 00:00:00,TMP,surface,-100.313,29.7637,297.76
2015-01-26 00:00:00,2015-01-26 00:00:00,TMP,surface,-99.3754,29.7637,296.893
2015-01-26 00:00:00,2015-01-26 00:00:00,TMP,surface,-98.4379,29.7637,297.402
2015-01-26 00:00:00,2015-01-26 00:00:00,TMP,surface,-97.5004,29.7637,298.835
2015-01-26 00:00:00,2015-01-26 00:00:00,TMP,surface,-96.5629,29.7637,299.859
2015-01-26 00:00:00,2015-01-26 00:00:00,TMP,surface,-95.6254,29.7637,300.426
2015-01-26 00:00:00,2015-01-26 00:00:00,TMP,surface,-94.6879,29.7637,301.01
2015-01-26 00:00:00,2015-01-26 00:00:00,TMP,surface,-93.7504,29.7637,301.376
2015-01-26 00:00:00,2015-01-26 00:00:00,TMP,surface,-92.8129,29.7637,301.389
2015-01-26 00:00:00,2015-01-26 00:00:00,TMP,surface,-107.813,30.7085,295.741
2015-01-26 00:00:00,2015-01-26 00:00:00,TMP,surface,-106.875,30.7085,297.104
2015-01-26 00:00:00,2015-01-26 00:00:00,TMP,surface,-105.938,30.7085,297.341
2015-01-26 00:00:00,2015-01-26 00:00:00,TMP,surface,-105,30.7085,297.206
2015-01-26 00:00:00,2015-01-26 00:00:00,TMP,surface,-104.063,30.7085,296.846
2015-01-26 00:00:00,2015-01-26 00:00:00,TMP,surface,-103.125,30.7085,297.914
2015-01-26 00:00:00,2015-01-26 00:00:00,TMP,surface,-102.188,30.7085,298.579
2015-01-26 00:00:00,2015-01-26 00:00:00,TMP,surface,-101.25,30.7085,297.893
2015-01-26 00:00:00,2015-01-26 00:00:00,TMP,surface,-100.313,30.7085,296.878
2015-01-26 00:00:00,2015-01-26 00:00:00,TMP,surface,-99.3754,30.7085,296.467
2015-01-26 00:00:00,2015-01-26 00:00:00,TMP,surface,-98.4379,30.7085,297.496
2015-01-26 00:00:00,2015-01-26 00:00:00,TMP,surface,-97.5004,30.7085,299.197
2015-01-26 00:00:00,2015-01-26 00:00:00,TMP,surface,-96.5629,30.7085,300.189
2015-01-26 00:00:00,2015-01-26 00:00:00,TMP,surface,-95.6254,30.7085,300.317
2015-01-26 00:00:00,2015-01-26 00:00:00,TMP,surface,-94.6879,30.7085,300.203
2015-01-26 00:00:00,2015-01-26 00:00:00,TMP,surface,-93.7504,30.7085,300.053
2015-01-26 00:00:00,2015-01-26 00:00:00,TMP,surface,-92.8129,30.7085,299.915
2015-01-26 00:00:00,2015-01-26 00:00:00,TMP,surface,-107.813,31.6534,297.539
2015-01-26 00:00:00,2015-01-26 00:00:00,TMP,surface,-106.875,31.6534,298.005
2015-01-26 00:00:00,2015-01-26 00:00:00,TMP,surface,-105.938,31.6534,297.403
2015-01-26 00:00:00,2015-01-26 00:00:00,TMP,surface,-105,31.6534,297.146
2015-01-26 00:00:00,2015-01-26 00:00:00,TMP,surface,-104.063,31.6534,297.68
2015-01-26 00:00:00,2015-01-26 00:00:00,TMP,surface,-103.125,31.6534,298.274
2015-01-26 00:00:00,2015-01-26 00:00:00,TMP,surface,-102.188,31.6534,298.384
2015-01-26 00:00:00,2015-01-26 00:00:00,TMP,surface,-101.25,31.6534,297.766
2015-01-26 00:00:00,2015-01-26 00:00:00,TMP,surface,-100.313,31.6534,297.344
2015-01-26 00:00:00,2015-01-26 00:00:00,TMP,surface,-99.3754,31.6534,297.483
2015-01-26 00:00:00,2015-01-26 00:00:00,TMP,surface,-98.4379,31.6534,298.398
2015-01-26 00:00:00,2015-01-26 00:00:00,TMP,surface,-97.5004,31.6534,299.704
2015-01-26 00:00:00,2015-01-26 00:00:00,TMP,surface,-96.5629,31.6534,300.502
2015-01-26 00:00:00,2015-01-26 00:00:00,TMP,surface,-95.6254,31.6534,300.539
2015-01-26 00:00:00,2015-01-26 00:00:00,TMP,surface,-94.6879,31.6534,300.195
2015-01-26 00:00:00,2015-01-26 00:00:00,TMP,surface,-93.7504,31.6534,299.694
2015-01-26 00:00:00,2015-01-26 00:00:00,TMP,surface,-92.8129,31.6534,299.475
2015-01-26 00:00:00,2015-01-26 00:00:00,TMP,surface,-107.813,32.5983,294.872
2015-01-26 00:00:00,2015-01-26 00:00:00,TMP,surface,-106.875,32.5983,295.646
2015-01-26 00:00:00,2015-01-26 00:00:00,TMP,surface,-105.938,32.5983,295.971
2015-01-26 00:00:00,2015-01-26 00:00:00,TMP,surface,-105,32.5983,296.104
2015-01-26 00:00:00,2015-01-26 00:00:00,TMP,surface,-104.063,32.5983,297.05
2015-01-26 00:00:00,2015-01-26 00:00:00,TMP,surface,-103.125,32.5983,297.518
2015-01-26 00:00:00,2015-01-26 00:00:00,TMP,surface,-102.188,32.5983,297.536
2015-01-26 00:00:00,2015-01-26 00:00:00,TMP,surface,-101.25,32.5983,297.517
2015-01-26 00:00:00,2015-01-26 00:00:00,TMP,surface,-100.313,32.5983,298.029
2015-01-26 00:00:00,2015-01-26 00:00:00,TMP,surface,-99.3754,32.5983,298.765
2015-01-26 00:00:00,2015-01-26 00:00:00,TMP,surface,-98.4379,32.5983,299.296
2015-01-26 00:00:00,2015-01-26 00:00:00,TMP,surface,-97.5004,32.5983,299.781
2015-01-26 00:00:00,2015-01-26 00:00:00,TMP,surface,-96.5629,32.5983,300.235
2015-01-26 00:00:00,2015-01-26 00:00:00,TMP,surface,-95.6254,32.5983,300.342
2015-01-26 00:00:00,2015-01-26 00:00:00,TMP,surface,-94.6879,32.5983,299.92
2015-01-26 00:00:00,2015-01-26 00:00:00,TMP,surface,-93.7504,32.5983,299.195
2015-01-26 00:00:00,2015-01-26 00:00:00,TMP,surface,-92.8129,32.5983,298.869
2015-01-26 00:00:00,2015-01-26 00:00:00,TMP,surface,-107.813,33.5432,291.258
2015-01-26 00:00:00,2015-01-26 00:00:00,TMP,surface,-106.875,33.5432,292.928
2015-01-26 00:00:00,2015-01-26 00:00:00,TMP,surface,-105.938,33.5432,293.867
2015-01-26 00:00:00,2015-01-26 00:00:00,TMP,surface,-105,33.5432,295.074
2015-01-26 00:00:00,2015-01-26 00:00:00,TMP,surface,-104.063,33.5432,296.49
2015-01-26 00:00:00,2015-01-26 00:00:00,TMP,surface,-103.125,33.5432,296.574
2015-01-26 00:00:00,2015-01-26 00:00:00,TMP,surface,-102.188,33.5432,296.182
2015-01-26 00:00:00,2015-01-26 00:00:00,TMP,surface,-101.25,33.5432,296.531
2015-01-26 00:00:00,2015-01-26 00:00:00,TMP,surface,-100.313,33.5432,297.899
2015-01-26 00:00:00,2015-01-26 00:00:00,TMP,surface,-99.3754,33.5432,298.902
2015-01-26 00:00:00,2015-01-26 00:00:00,TMP,surface,-98.4379,33.5432,298.992
2015-01-26 00:00:00,2015-01-26 00:00:00,TMP,surface,-97.5004,33.5432,298.838
2015-01-26 00:00:00,2015-01-26 00:00:00,TMP,surface,-96.5629,33.5432,299.014
2015-01-26 00:00:00,2015-01-26 00:00:00,TMP,surface,-95.6254,33.5432,299.149
2015-01-26 00:00:00,2015-01-26 00:00:00,TMP,surface,-94.6879,33.5432,298.632
2015-01-26 00:00:00,2015-01-26 00:00:00,TMP,surface,-93.7504,33.5432,297.774
2015-01-26 00:00:00,2015-01-26 00:00:00,TMP,surface,-92.8129,33.5432,297.381
2015-01-26 00:00:00,2015-01-26 00:00:00,TMP,surface,-107.813,34.4881,290.05
2015-01-26 00:00:00,2015-01-26 00:00:00,TMP,surface,-106.875,34.4881,292.022
2015-01-26 00:00:00,2015-01-26 00:00:00,TMP,surface,-105.938,34.4881,292.954
2015-01-26 00:00:00,2015-01-26 00:00:00,TMP,surface,-105,34.4881,294.386
2015-01-26 00:00:00,2015-01-26 00:00:00,TMP,surface,-104.063,34.4881,295.558
2015-01-26 00:00:00,2015-01-26 00:00:00,TMP,surface,-103.125,34.4881,295.896
2015-01-26 00:00:00,2015-01-26 00:00:00,TMP,surface,-102.188,34.4881,296.117
2015-01-26 00:00:00,2015-01-26 00:00:00,TMP,surface,-101.25,34.4881,296.373
2015-01-26 00:00:00,2015-01-26 00:00:00,TMP,surface,-100.313,34.4881,297.184
2015-01-26 00:00:00,2015-01-26 00:00:00,TMP,surface,-99.3754,34.4881,297.734
2015-01-26 00:00:00,2015-01-26 00:00:00,TMP,surface,-98.4379,34.4881,297.722
2015-01-26 00:00:00,2015-01-26 00:00:00,TMP,surface,-97.5004,34.4881,297.486
2015-01-26 00:00:00,2015-01-26 00:00:00,TMP,surface,-96.5629,34.4881,297.541
2015-01-26 00:00:00,2015-01-26 00:00:00,TMP,surface,-95.6254,34.4881,297.517
2015-01-26 00:00:00,2015-01-26 00:00:00,TMP,surface,-94.6879,34.4881,296.726
2015-01-26 00:00:00,2015-01-26 00:00:00,TMP,surface,-93.7504,34.4881,295.786
2015-01-26 00:00:00,2015-01-26 00:00:00,TMP,surface,-92.8129,34.4881,295.39
2015-01-26 00:00:00,2015-01-26 00:00:00,TMP,surface,-107.813,35.4329,290.854
2015-01-26 00:00:00,2015-01-26 00:00:00,TMP,surface,-106.875,35.4329,291.278
2015-01-26 00:00:00,2015-01-26 00:00:00,TMP,surface,-105.938,35.4329,291.555
2015-01-26 00:00:00,2015-01-26 00:00:00,TMP,surface,-105,35.4329,292.294
2015-01-26 00:00:00,2015-01-26 00:00:00,TMP,surface,-104.063,35.4329,294.155
2015-01-26 00:00:00,2015-01-26 00:00:00,TMP,surface,-103.125,35.4329,295.605
2015-01-26 00:00:00,2015-01-26 00:00:00,TMP,surface,-102.188,35.4329,296.35
2015-01-26 00:00:00,2015-01-26 00:00:00,TMP,surface,-101.25,35.4329,296.659
2015-01-26 00:00:00,2015-01-26 00:00:00,TMP,surface,-100.313,35.4329,296.514
2015-01-26 00:00:00,2015-01-26 00:00:00,TMP,surface,-99.3754,35.4329,296.544
2015-01-26 00:00:00,2015-01-26 00:00:00,TMP,surface,-98.4379,35.4329,296.515
2015-01-26 00:00:00,2015-01-26 00:00:00,TMP,surface,-97.5004,35.4329,296.474
2015-01-26 00:00:00,2015-01-26 00:00:00,TMP,surface,-96.5629,35.4329,296.717
2015-01-26 00:00:00,2015-01-26 00:00:00,TMP,surface,-95.6254,35.4329,296.709
2015-01-26 00:00:00,2015-01-26 00:00:00,TMP,surface,-94.6879,35.4329,295.856
2015-01-26 00:00:00,2015-01-26 00:00:00,TMP,surface,-93.7504,35.4329,294.677
2015-01-26 00:00:00,2015-01-26 00:00:00,TMP,surface,-92.8129,35.4329,293.766
2015-01-26 00:00:00,2015-01-26 00:00:00,TMP,surface,-107.813,36.3778,290.12
2015-01-26 00:00:00,2015-01-26 00:00:00,TMP,surface,-106.875,36.3778,288
2015-01-26 00:00:00,2015-01-26 00:00:00,TMP,surface,-105.938,36.3778,288.763
2015-01-26 00:00:00,2015-01-26 00:00:00,TMP,surface,-105,36.3778,290.112
2015-01-26 00:00:00,2015-01-26 00:00:00,TMP,surface,-104.063,36.3778,292.558
2015-01-26 00:00:00,2015-01-26 00:00:00,TMP,surface,-103.125,36.3778,294.838
2015-01-26 00:00:00,2015-01-26 00:00:00,TMP,surface,-102.188,36.3778,296.027
2015-01-26 00:00:00,2015-01-26 00:00:00,TMP,surface,-101.25,36.3778,296.184
2015-01-26 00:00:00,2015-01-26 00:00:00,TMP,surface,-100.313,36.3778,296.093
2015-01-26 00:00:00,2015-01-26 00:00:00,TMP,surface,-99.3754,36.3778,295.907
2015-01-26 00:00:00,2015-01-26 00:00:00,TMP,surface,-98.4379,36.3778,295.789
2015-01-26 00:00:00,2015-01-26 00:00:00,TMP,surface,-97.5004,36.3778,295.79
2015-01-26 00:00:00,2015-01-26 00:00:00,TMP,surface,-96.5629,36.3778,295.962
2015-01-26 00:00:00,2015-01-26 00:00:00,TMP,surface,-95.6254,36.3778,295.816
2015-01-26 00:00:00,2015-01-26 00:00:00,TMP,surface,-94.6879,36.3778,294.797
2015-01-26 00:00:00,2015-01-26 00:00:00,TMP,surface,-93.7504,36.3778,293.558
2015-01-26 00:00:00,2015-01-26 00:00:00,TMP,surface,-92.8129,36.3778,292.851
2015-01-26 00:00:00,2015-01-26 00:00:00,PRATE,surface,-107.813,25.0393,3.15e-05
2015-01-26 00:00:00,2015-01-26 00:00:00,PRATE,surface,-106.875,25.0393,0.0001306
2015-01-26 00:00:00,2015-01-26 00:00:00,PRATE,surface,-105.938,25.0393,0.0001365
2015-01-26 00:00:00,2015-01-26 00:00:00,PRATE,surface,-105,25.0393,7.03e-05
2015-01-26 00:00:00,2015-01-26 00:00:00,PRATE,surface,-104.063,25.0393,2.79e-05
2015-01-26 00:00:00,2015-01-26 00:00:00,PRATE,surface,-103.125,25.0393,6.7e-06
2015-01-26 00:00:00,2015-01-26 00:00:00,PRATE,surface,-102.188,25.0393,8.6e-06
2015-01-26 00:00:00,2015-01-26 00:00:00,PRATE,surface,-101.25,25.0393,1.81e-05
2015-01-26 00:00:00,2015-01-26 00:00:00,PRATE,surface,-100.313,25.0393,4.24e-05
2015-01-26 00:00:00,2015-01-26 00:00:00,PRATE,surface,-99.3754,25.0393,2.54e-05
2015-01-26 00:00:00,2015-01-26 00:00:00,PRATE,surface,-98.4379,25.0393,1.63e-05
2015-01-26 00:00:00,2015-01-26 00:00:00,PRATE,surface,-97.5004,25.0393,2.87e-05
2015-01-26 00:00:00,2015-01-26 00:00:00,PRATE,surface,-96.5629,25.0393,5.29e-05
2015-01-26 00:00:00,2015-01-26 00:00:00,PRATE,surface,-95.6254,25.0393,4.36e-05
2015-01-26 00:00:00,2015-01-26 00:00:00,PRATE,surface,-94.6879,25.0393,3.6e-05
2015-01-26 00:00:00,2015-01-26 00:00:00,PRATE,surface,-93.7504,25.0393,5.74e-05
2015-01-26 00:00:00,2015-01-26 00:00:00,PRATE,surface,-92.8129,25.0393,5.24e-05
2015-01-26 00:00:00,2015-01-26 00:00:00,PRATE,surface,-107.813,25.9842,7.26e-05
2015-01-26 00:00:00,2015-01-26 00:00:00,PRATE,surface,-106.875,25.9842,0.0001152
2015-01-26 00:00:00,2015-01-26 00:00:00,PRATE,surface,-105.938,25.9842,8.16e-05
2015-01-26 00:00:00,2015-01-26 00:00:00,PRATE,surface,-105,25.9842,4.06e-05
2015-01-26 00:00:00,2015-01-26 00:00:00,PRATE,surface,-104.063,25.9842,6.9e-06
2015-01-26 00:00:00,2015-01-26 00:00:00,PRATE,surface,-103.125,25.9842,5.3e-06
2015-01-26 00:00:00,2015-01-26 00:00:00,PRATE,surface,-102.188,25.9842,2.1e-06
2015-01-26 00:00:00,2015-01-26 00:00:00,PRATE,surface,-101.25,25.9842,7.3e-06
2015-01-26 00:00:00,2015-01-26 00:00:00,PRATE,surface,-100.313,25.9842,2.41e-05
2015-01-26 00:00:00,2015-01-26 00:00:00,PRATE,surface,-99.3754,25.9842,1.36e-05
2015-01-26 00:00:00,2015-01-26 00:00:00,PRATE,surface,-98.4379,25.9842,1.88e-05
2015-01-26 00:00:00,2015-01-26 00:00:00,PRATE,surface,-97.5004,25.9842,3.95e-05
2015-01-26 00:00:00,2015-01-26 00:00:00,PRATE,surface,-96.5629,25.9842,6.05e-05
2015-01-26 00:00:00,2015-01-26 00:00:00,PRATE,surface,-95.6254,25.9842,4.79e-05
2015-01-26 00:00:00,2015-01-26 00:00:00,PRATE,surface,-94.6879,25.9842,2.79e-05
2015-01-26 00:00:00,2015-01-26 00:00:00,PRATE,surface,-93.7504,25.9842,3.45e-05
2015-01-26 00:00:00,2015-01-26 00:00:00,PRATE,surface,-92.8129,25.9842,2.82e-05
2015-01-26 00:00:00,2015-01-26 00:00:00,PRATE,surface,-107.813,26.929,0.0001224
2015-01-26 00:00:00,2015-01-26 00:00:00,PRATE,surface,-106.875,26.929,8.36e-05
2015-01-26 00:00:00,2015-01-26 00:00:00,PRATE,surface,-105.938,26.929,6.5e-05
2015-01-26 00:00:00,2015-01-26 00:00:00,PRATE,surface,-105,26.929,2.57e-05
2015-01-26 00:00:00,2015-01-26 00:00:00,PRATE,surface,-104.063,26.929,7e-06
2015-01-26 00:00:00,2015-01-26 00:00:00,PRATE,surface,-103.125,26.929,7.7e-06
2015-01-26 00:00:00,2015-01-26 00:00:00,PRATE,surface,-102.188,26.929,4.4e-06
2015-01-26 00:00:00,2015-01-26 00:00:00,PRATE,surface,-101.25,26.929,1.2e-05
2015-01-26 00:00:00,2015-01-26 00:00:00,PRATE,surface,-100.313,26.929,1.82e-05
2015-01-26 00:00:00,2015-01-26 00:00:00,PRATE,surface,-99.3754,26.929,1.93e-05
2015-01-26 00:00:00,2015-01-26 00:00:00,PRATE,surface,-98.4379,26.929,3.12e-05
2015-01-26 00:00:00,2015-01-26 00:00:00,PRATE,surface,-97.5004,26.929,3.77e-05
2015-01-26 00:00:00,2015-01-26 00:00:00,PRATE,surface,-96.5629,26.929,4.21e-05
2015-01-26 00:00:00,2015-01-26 00:00:00,PRATE,surface,-95.6254,26.929,2.45e-05
2015-01-26 00:00:00,2015-01-26 00:00:00,PRATE,surface,-94.6879,26.929,2.01e-05
2015-01-26 00:00:00,2015-01-26 00:00:00,PRATE,surface,-93.7504,26.929,2.38e-05
2015-01-26 00:00:00,2015-01-26 00:00:00,PRATE,surface,-92.8129,26.929,1.61e-05
2015-01-26 00:00:00,2015-01-26 00:00:00,PRATE,surface,-107.813,27.8739,0.0001015
2015-01-26 00:00:00,2015-01-26 00:00:00,PRATE,surface,-106.875,27.8739,6.12e-05
2015-01-26 00:00:00,2015-01-26 00:00:00,PRATE,surface,-105.938,27.8739,2.93e-05
2015-01-26 00:00:00,2015-01-26 00:00:00,PRATE,surface,-105,27.8739,7.2e-06
2015-01-26 00:00:00,2015-01-26 00:00:00,PRATE,surface,-104.063,27.8739,1.08e-05
2015-01-26 00:00:00,2015-01-26 00:00:00,PRATE,surface,-103.125,27.8739,1.19e-05
2015-01-26 00:00:00,2015-01-26 00:00:00,PRATE,surface,-102.188,27.8739,1.44e-05
2015-01-26 00:00:00,2015-01-26 00:00:00,PRATE,surface,-101.25,27.8739,1.55e-05
2015-01-26 00:00:00,2015-01-26 00:00:00,PRATE,surface,-100.313,27.8739,1.59e-05
2015-01-26 00:00:00,2015-01-26 00:00:00,PRATE,surface,-99.3754,27.8739,1.84e-05
2015-01-26 00:00:00,2015-01-26 00:00:00,PRATE,surface,-98.4379,27.8739,2.62e-05
2015-01-26 00:00:00,2015-01-26 00:00:00,PRATE,surface,-97.5004,27.8739,2.47e-05
2015-01-26 00:00:00,2015-01-26 00:00:00,PRATE,surface,-96.5629,27.8739,1.33e-05
2015-01-26 00:00:00,2015-01-26 00:00:00,PRATE,surface,-95.6254,27.8739,1.12e-05
2015-01-26 00:00:00,2015-01-26 00:00:00,PRATE,surface,-94.6879,27.8739,1.76e-05
2015-01-26 00:00:00,2015-01-26 00:00:00,PRATE,surface,-93.7504,27.8739,1.74e-05
2015-01-26 00:00:00,2015-01-26 00:00:00,PRATE,surface,-92.8129,27.8739,1.81e-05
2015-01-26 00:00:00,2015-01-26 00:00:00,PRATE,surface,-107.813,28.8188,8.75e-05
2015-01-26 00:00:00,2015-01-26 00:00:00,PRATE,surface,-106.875,28.8188,5.91e-05
2015-01-26 00:00:00,2015-01-26 00:00:00,PRATE,surface,-105.938,28.8188,1.33e-05
2015-01-26 00:00:00,2015-01-26 00:00:00,PRATE,surface,-105,28.8188,9.4e-06
2015-01-26 00:00:00,2015-01-26 00:00:00,PRATE,surface,-104.063,28.8188,1.64e-05
2015-01-26 00:00:00,2015-01-26 00:00:00,PRATE,surface,-103.125,28.8188,1.22e-05
2015-01-26 00:00:00,2015-01-26 00:00:00,PRATE,surface,-102.188,28.8188,9.9e-06
2015-01-26 00:00:00,2015-01-26 00:00:00,PRATE,surface,-101.25,28.8188,7.3e-06
2015-01-26 00:00:00,2015-01-26 00:00:00,PRATE,surface,-100.313,28.8188,1.06e-05
2015-01-26 00:00:00,2015-01-26 00:00:00,PRATE,surface,-99.3754,28.8188,1.99e-05
2015-01-26 00:00:00,2015-01-26 00:00:00,PRATE,surface,-98.4379,28.8188,2.12e-05
2015-01-26 00:00:00,2015-01-26 00:00:00,PRATE,surface,-97.5004,28.8188,1.73e-05
2015-01-26 00:00:00,2015-01-26 00:00:00,PRATE,surface,-96.5629,28.8188,1.41e-05
2015-01-26 00:00:00,2015-01-26 00:00:00,PRATE,surface,-95.6254,28.8188,1.11e-05
2015-01-26 00:00:00,2015-01-26 00:00:00,PRATE,surface,-94.6879,28.8188,8.8e-06
2015-01-26 00:00:00,2015-01-26 00:00:00,PRATE,surface,-93.7504,28.8188,6e-06
2015-01-26 00:00:00,2015-01-26 00:00:00,PRATE,surface,-92.8129,28.8188,3.1e-06
2015-01-26 00:00:00,2015-01-26 00:00:00,PRATE,surface,-107.813,29.7637,5.59e-05
2015-01-26 00:00:00,2015-01-26 00:00:00,PRATE,surface,-106.875,29.7637,4.32e-05
2015-01-26 00:00:00,2015-01-26 00:00:00,PRATE,surface,-105.938,29.7637,1.38e-05
2015-01-26 00:00:00,2015-01-26 00:00:00,PRATE,surface,-105,29.7637,1.61e-05
2015-01-26 00:00:00,2015-01-26 00:00:00,PRATE,surface,-104.063,29.7637,1.86e-05
2015-01-26 00:00:00,2015-01-26 00:00:00,PRATE,surface,-103.125,29.7637,1.03e-05
2015-01-26 00:00:00,2015-01-26 00:00:00,PRATE,surface,-102.188,29.7637,5.5e-06
2015-01-26 00:00:00,2015-01-26 00:00:00,PRATE,surface,-101.25,29.7637,5.5e-06
2015-01-26 00:00:00,2015-01-26 00:00:00,PRATE,surface,-100.313,29.7637,1.33e-05
2015-01-26 00:00:00,2015-01-26 00:00:00,PRATE,surface,-99.3754,29.7637,1.88e-05
2015-01-26 00:00:00,2015-01-26 00:00:00,PRATE,surface,-98.4379,29.7637,1.35e-05
2015-01-26 00:00:00,2015-01-26 00:00:00,PRATE,surface,-97.5004,29.7637,5.3e-06
2015-01-26 00:00:00,2015-01-26 00:00:00,PRATE,surface,-96.5629,29.7637,3.8e-06
2015-01-26 00:00:00,2015-01-26 00:00:00,PRATE,surface,-95.6254,29.7637,6.2e-06
2015-01-26 00:00:00,2015-01-26 00:00:00,PRATE,surface,-94.6879,29.7637,6.2e-06
2015-01-26 00:00:00,2015-01-26 00:00:00,PRATE,surface,-93.7504,29.7637,3.7e-06
2015-01-26 00:00:00,2015-01-26 00:00:00,PRATE,surface,-92.8129,29.7637,9e-07
2015-01-26 00:00:00,2015-01-26 00:00:00,PRATE,surface,-107.813,30.7085,9.5e-06
2015-01-26 00:00:00,2015-01-26 00:00:00,PRATE,surface,-106.875,30.7085,1.11e-05
2015-01-26 00:00:00,2015-01-26 00:00:00,PRATE,surface,-105.938,30.7085,1.22e-05
2015-01-26 00:00:00,2015-01-26 00:00:00,PRATE,surface,-105,30.7085,6.2e-06
2015-01-26 00:00:00,2015-01-26 00:00:00,PRATE,surface,-104.063,30.7085,6.4e-06
2015-01-26 00:00:00,2015-01-26 00:00:00,PRATE,surface,-103.125,30.7085,4.2e-06
2015-01-26 00:00:00,2015-01-26 00:00:00,PRATE,surface,-102.188,30.7085,5.7e-06
2015-01-26 00:00:00,2015-01-26 00:00:00,PRATE,surface,-101.25,30.7085,1.35e-05
2015-01-26 00:00:00,2015-01-26 00:00:00,PRATE,surface,-100.313,30.7085,2.51e-05
2015-01-26 00:00:00,2015-01-26 00:00:00,PRATE,surface,-99.3754,30.7085,2.1e-05
2015-01-26 00:00:00,2015-01-26 00:00:00,PRATE,surface,-98.4379,30.7085,9.3e-06
2015-01-26 00:00:00,2015-01-26 00:00:00,PRATE,surface,-97.5004,30.7085,2.8e-06
2015-01-26 00:00:00,2015-01-26 00:00:00,PRATE,surface,-96.5629,30.7085,1.9e-06
2015-01-26 00:00:00,2015-01-26 00:00:00,PRATE,surface,-95.6254,30.7085,3e-06
2015-01-26 00:00:00,2015-01-26 00:00:00,PRATE,surface,-94.6879,30.7085,3.1e-06
2015-01-26 00:00:00,2015-01-26 00:00:00,PRATE,surface,-93.7504,30.7085,2e-06
2015-01-26 00:00:00,2015-01-26 00:00:00,PRATE,surface,-92.8129,30.7085,2.5e-06
2015-01-26 00:00:00,2015-01-26 00:00:00,PRATE,surface,-107.813,31.6534,3.9e-06
2015-01-26 00:00:00,2015-01-26 00:00:00,PRATE,surface,-106.875,31.6534,5e-06
2015-01-26 00:00:00,2015-01-26 00:00:00,PRATE,surface,-105.938,31.6534,5e-06
2015-01-26 00:00:00,2015-01-26 00:00:00,PRATE,surface,-105,31.6534,3.2e-06
2015-01-26 00:00:00,2015-01-26 00:00:00,PRATE,surface,-104.063,31.6534,3.5e-06
2015-01-26 00:00:00,2015-01-26 00:00:00,PRATE,surface,-103.125,31.6534,3.7e-06
2015-01-26 00:00:00,2015-01-26 00:00:00,PRATE,surface,-102.188,31.6534,5.4e-06
2015-01-26 00:00:00,2015-01-26 00:00:00,PRATE,surface,-101.25,31.6534,8.2e-06
2015-01-26 00:00:00,2015-01-26 00:00:00,PRATE,surface,-100.313,31.6534,1.33e-05
2015-01-26 00:00:00,2015-01-26 00:00:00,PRATE,surface,-99.3754,31.6534,1.47e-05
2015-01-26 00:00:00,2015-01-26 00:00:00,PRATE,surface,-98.4379,31.6534,9.2e-06
2015-01-26 00:00:00,2015-01-26 00:00:00,PRATE,surface,-97.5004,31.6534,4e-06
2015-01-26 00:00:00,2015-01-26 00:00:00,PRATE,surface,-96.5629,31.6534,2.2e-06
2015-01-26 00:00:00,2015-01-26 00:00:00,PRATE,surface,-95.6254,31.6534,1.5e-06
2015-01-26 00:00:00,2015-01-26 00:00:00,PRATE,surface,-94.6879,31.6534,1.7e-06
2015-01-26 00:00:00,2015-01-26 00:00:00,PRATE,surface,-93.7504,31.6534,2.3e-06
2015-01-26 00:00:00,2015-01-26 00:00:00,PRATE,surface,-92.8129,31.6534,2.8e-06
2015-01-26 00:00:00,2015-01-26 00:00:00,PRATE,surface,-107.813,32.5983,9.4e-06
2015-01-26 00:00:00,2015-01-26 00:00:00,PRATE,surface,-106.875,32.5983,6.4e-06
2015-01-26 00:00:00,2015-01-26 00:00:00,PRATE,surface,-105.938,32.5983,4.2e-06
2015-01-26 00:00:00,2015-01-26 00:00:00,PRATE,surface,-105,32.5983,2.1e-06
2015-01-26 00:00:00,2015-01-26 00:00:00,PRATE,surface,-104.063,32.5983,2.1e-06
2015-01-26 00:00:00,2015-01-26 00:00:00,PRATE,surface,-103.125,32.5983,2.1e-06
2015-01-26 00:00:00,2015-01-26 00:00:00,PRATE,surface,-102.188,32.5983,2.6e-06
2015-01-26 00:00:00,2015-01-26 00:00:00,PRATE,surface,-101.25,32.5983,4.6e-06
2015-01-26 00:00:00,2015-01-26 00:00:00,PRATE,surface,-100.313,32.5983,6.7e-06
2015-01-26 00:00:00,2015-01-26 00:00:00,PRATE,surface,-99.3754,32.5983,7.4e-06
2015-01-26 00:00:00,2015-01-26 00:00:00,PRATE,surface,-98.4379,32.5983,7.6e-06
2015-01-26 00:00:00,2015-01-26 00:00:00,PRATE,surface,-97.5004,32.5983,6.3e-06
2015-01-26 00:00:00,2015-01-26 00:00:00,PRATE,surface,-96.5629,32.5983,3.4e-06
2015-01-26 00:00:00,2015-01-26 00:00:00,PRATE,surface,-95.6254,32.5983,1.5e-06
2015-01-26 00:00:00,2015-01-26 00:00:00,PRATE,surface,-94.6879,32.5983,1.1e-06
2015-01-26 00:00:00,2015-01-26 00:00:00,PRATE,surface,-93.7504,32.5983,1.1e-06
2015-01-26 00:00:00,2015-01-26 00:00:00,PRATE,surface,-92.8129,32.5983,1.5e-06
2015-01-26 00:00:00,2015-01-26 00:00:00,PRATE,surface,-107.813,33.5432,1.54e-05
2015-01-26 00:00:00,2015-01-26 00:00:00,PRATE,surface,-106.875,33.5432,1.06e-05
2015-01-26 00:00:00,2015-01-26 00:00:00,PRATE,surface,-105.938,33.5432,1.08e-05
2015-01-26 00:00:00,2015-01-26 00:00:00,PRATE,surface,-105,33.5432,1.8e-06
2015-01-26 00:00:00,2015-01-26 00:00:00,PRATE,surface,-104.063,33.5432,1.1e-06
2015-01-26 00:00:00,2015-01-26 00:00:00,PRATE,surface,-103.125,33.5432,5e-07
2015-01-26 00:00:00,2015-01-26 00:00:00,PRATE,surface,-102.188,33.5432,2.4e-06
2015-01-26 00:00:00,2015-01-26 00:00:00,PRATE,surface,-101.25,33.5432,5.4e-06
2015-01-26 00:00:00,2015-01-26 00:00:00,PRATE,surface,-100.313,33.5432,5.6e-06
2015-01-26 00:00:00,2015-01-26 00:00:00,PRATE,surface,-99.3754,33.5432,5e-06
2015-01-26 00:00:00,2015-01-26 00:00:00,PRATE,surface,-98.4379,33.5432,4.7e-06
2015-01-26 00:00:00,2015-01-26 00:00:00,PRATE,surface,-97.5004,33.5432,5.3e-06
2015-01-26 00:00:00,2015-01-26 00:00:00,PRATE,surface,-96.5629,33.5432,4.3e-06
2015-01-26 00:00:00,2015-01-26 00:00:00,PRATE,surface,-95.6254,33.5432,2.7e-06
2015-01-26 00:00:00,2015-01-26 00:00:00,PRATE,surface,-94.6879,33.5432,5.8e-06
2015-01-26 00:00:00,2015-01-26 00:00:00,PRATE,surface,-93.7504,33.5432,8.9e-06
2015-01-26 00:00:00,2015-01-26 00:00:00,PRATE,surface,-92.8129,33.5432,3.5e-06
2015-01-26 00:00:00,2015-01-26 00:00:00,PRATE,surface,-107.813,34.4881,1.36e-05
2015-01-26 00:00:00,2015-01-26 00:00:00,PRATE,surface,-106.875,34.4881,5.8e-06
2015-01-26 00:00:00,2015-01-26 00:00:00,PRATE,surface,-105.938,34.4881,4.3e-06
2015-01-26 00:00:00,2015-01-26 00:00:00,PRATE,surface,-105,34.4881,4.6e-06
2015-01-26 00:00:00,2015-01-26 00:00:00,PRATE,surface,-104.063,34.4881,1.2e-06
2015-01-26 00:00:00,2015-01-26 00:00:00,PRATE,surface,-103.125,34.4881,1.2e-06
2015-01-26 00:00:00,2015-01-26 00:00:00,PRATE,surface,-102.188,34.4881,3.2e-06
2015-01-26 00:00:00,2015-01-26 00:00:00,PRATE,surface,-101.25,34.4881,4.3e-06
2015-01-26 00:00:00,2015-01-26 00:00:00,PRATE,surface,-100.313,34.4881,6.5e-06
2015-01-26 00:00:00,2015-01-26 00:00:00,PRATE,surface,-99.3754,34.4881,8.7e-06
2015-01-26 00:00:00,2015-01-26 00:00:00,PRATE,surface,-98.4379,34.4881,1.18e-05
2015-01-26 00:00:00,2015-01-26 00:00:00,PRATE,surface,-97.5004,34.4881,1.17e-05
2015-01-26 00:00:00,2015-01-26 00:00:00,PRATE,surface,-96.5629,34.4881,8.1e-06
2015-01-26 00:00:00,2015-01-26 00:00:00,PRATE,surface,-95.6254,34.4881,4.8e-06
2015-01-26 00:00:00,2015-01-26 00:00:00,PRATE,surface,-94.6879,34.4881,3.5e-06
2015-01-26 00:00:00,2015-01-26 00:00:00,PRATE,surface,-93.7504,34.4881,5.5e-06
2015-01-26 00:00:00,2015-01-26 00:00:00,PRATE,surface,-92.8129,34.4881,8.6e-06
2015-01-26 00:00:00,2015-01-26 00:00:00,PRATE,surface,-107.813,35.4329,6.1e-06
2015-01-26 00:00:00,2015-01-26 00:00:00,PRATE,surface,-106.875,35.4329,2e-06
2015-01-26 00:00:00,2015-01-26 00:00:00,PRATE,surface,-105.938,35.4329,2.9e-06
2015-01-26 00:00:00,2015-01-26 00:00:00,PRATE,surface,-105,35.4329,9.3e-06
2015-01-26 00:00:00,2015-01-26 00:00:00,PRATE,surface,-104.063,35.4329,2.6e-06
2015-01-26 00:00:00,2015-01-26 00:00:00,PRATE,surface,-103.125,35.4329,1.1e-06
2015-01-26 00:00:00,2015-01-26 00:00:00,PRATE,surface,-102.188,35.4329,1.9e-06
2015-01-26 00:00:00,2015-01-26 00:00:00,PRATE,surface,-101.25,35.4329,5e-06
2015-01-26 00:00:00,2015-01-26 00:00:00,PRATE,surface,-100.313,35.4329,8.1e-06
2015-01-26 00:00:00,2015-01-26 00:00:00,PRATE,surface,-99.3754,35.4329,9e-06
2015-01-26 00:00:00,2015-01-26 00:00:00,PRATE,surface,-98.4379,35.4329,8.5e-06
2015-01-26 00:00:00,2015-01-26 00:00:00,PRATE,surface,-97.5004,35.4329,8.5e-06
2015-01-26 00:00:00,2015-01-26 00:00:00,PRATE,surface,-96.5629,35.4329,8.2e-06
2015-01-26 00:00:00,2015-01-26 00:00:00,PRATE,surface,-95.6254,35.4329,7.6e-06
2015-01-26 00:00:00,2015-01-26 00:00:00,PRATE,surface,-94.6879,35.4329,8.3e-06
2015-01-26 00:00:00,2015-01-26 00:00:00,PRATE,surface,-93.7504,35.4329,9e-06
2015-01-26 00:00:00,2015-01-26 00:00:00,PRATE,surface,-92.8129,35.4329,8.6e-06
2015-01-26 00:00:00,2015-01-26 00:00:00,PRATE,surface,-107.813,36.3778,1.37e-05
2015-01-26 00:00:00,2015-01-26 00:00:00,PRATE,surface,-106.875,36.3778,1.04e-05
2015-01-26 00:00:00,2015-01-26 00:00:00,PRATE,surface,-105.938,36.3778,1.26e-05
2015-01-26 00:00:00,2015-01-26 00:00:00,PRATE,surface,-105,36.3778,1.46e-05
2015-01-26 00:00:00,2015-01-26 00:00:00,PRATE,surface,-104.063,36.3778,5.9e-06
2015-01-26 00:00:00,2015-01-26 00:00:00,PRATE,surface,-103.125,36.3778,2.2e-06
2015-01-26 00:00:00,2015-01-26 00:00:00,PRATE,surface,-102.188,36.3778,3.2e-06
2015-01-26 00:00:00,2015-01-26 00:00:00,PRATE,surface,-101.25,36.3778,8e-06
2015-01-26 00:00:00,2015-01-26 00:00:00,PRATE,surface,-100.313,36.3778,9.7e-06
2015-01-26 00:00:00,2015-01-26 00:00:00,PRATE,surface,-99.3754,36.3778,8.4e-06
2015-01-26 00:00:00,2015-01-26 00:00:00,PRATE,surface,-98.4379,36.3778,7.4e-06
2015-01-26 00:00:00,2015-01-26 00:00:00,PRATE,surface,-97.5004,36.3778,8.9e-06
2015-01-26 00:00:00,2015-01-26 00:00:00,PRATE,surface,-96.5629,36.3778,1.21e-05
2015-01-26 00:00:00,2015-01-26 00:00:00,PRATE,surface,-95.6254,36.3778,1.48e-05
2015-01-26 00:00:00,2015-01-26 00:00:00,PRATE,surface,-94.6879,36.3778,1.77e-05
2015-01-26 00:00:00,2015-01-26 00:00:00,PRATE,surface,-93.7504,36.3778,2.21e-05
2015-01-26 00:00:00,2015-01-26 00:00:00,PRATE,surface,-92.8129,36.3778,2.07e-05
