2014-03-07 00:00:00,2014-03-07 00:00:00,TMP,surface,-107.813,25.0393,302.427
2014-03-07 00:00:00,2014-03-07 00:00:00,TMP,surface,-106.875,25.0393,296.114
2014-03-07 00:00:00,2014-03-07 00:00:00,TMP,surface,-105.938,25.0393,292.623
2014-03-07 00:00:00,2014-03-07 00:00:00,TMP,surface,-105,25.0393,290.607
2014-03-07 00:00:00,2014-03-07 00:00:00,TMP,surface,-104.063,25.0393,295.16
2014-03-07 00:00:00,2014-03-07 00:00:00,TMP,surface,-103.125,25.0393,298.763
2014-03-07 00:00:00,2014-03-07 00:00:00,TMP,surface,-102.188,25.0393,297.679
2014-03-07 00:00:00,2014-03-07 00:00:00,TMP,surface,-101.25,25.0393,294.859
2014-03-07 00:00:00,2014-03-07 00:00:00,TMP,surface,-100.313,25.0393,295.183
2014-03-07 00:00:00,2014-03-07 00:00:00,TMP,surface,-99.3754,25.0393,299.061
2014-03-07 00:00:00,2014-03-07 00:00:00,TMP,surface,-98.4379,25.0393,302.533
2014-03-07 00:00:00,2014-03-07 00:00:00,TMP,surface,-97.5004,25.0393,302.645
2014-03-07 00:00:00,2014-03-07 00:00:00,TMP,surface,-96.5629,25.0393,303.061
2014-03-07 00:00:00,2014-03-07 00:00:00,TMP,surface,-95.6254,25.0393,303.691
2014-03-07 00:00:00,2014-03-07 00:00:00,TMP,surface,-94.6879,25.0393,303.887
2014-03-07 00:00:00,2014-03-07 00:00:00,TMP,surface,-93.7504,25.0393,303.781
2014-03-07 00:00:00,2014-03-07 00:00:00,TMP,surface,-92.8129,25.0393,303.746
2014-03-07 00:00:00,2014-03-07 00:00:00,TMP,surface,-107.813,25.9842,297.893
2014-03-07 00:00:00,2014-03-07 00:00:00,TMP,surface,-106.875,25.9842,293.301
2014-03-07 00:00:00,2014-03-07 00:00:00,TMP,surface,-105.938,25.9842,291.496
2014-03-07 00:00:00,2014-03-07 00:00:00,TMP,surface,-105,25.9842,293.122
2014-03-07 00:00:00,2014-03-07 00:00:00,TMP,surface,-104.063,25.9842,299.003
2014-03-07 00:00:00,2014-03-07 00:00:00,TMP,surface,-103.125,25.9842,300.949
2014-03-07 00:00:00,2014-03-07 00:00:00,TMP,surface,-102.188,25.9842,299.333
2014-03-07 00:00:00,2014-03-07 00:00:00,TMP,surface,-101.25,25.9842,298.117
2014-03-07 00:00:00,2014-03-07 00:00:00,TMP,surface,-100.313,25.9842,299.355
2014-03-07 00:00:00,2014-03-07 00:00:00,TMP,surface,-99.3754,25.9842,302.824
2014-03-07 00:00:00,2014-03-07 00:00:00,TMP,surface,-98.4379,25.9842,304.219
2014-03-07 00:00:00,2014-03-07 00:00:00,TMP,surface,-97.5004,25.9842,303.003
2014-03-07 00:00:00,2014-03-07 00:00:00,TMP,surface,-96.5629,25.9842,302.367
2014-03-07 00:00:00,2014-03-07 00:00:00,TMP,surface,-95.6254,25.9842,303.237
2014-03-07 00:00:00,2014-03-07 00:00:00,TMP,surface,-94.6879,25.9842,303.707
2014-03-07 00:00:00,2014-03-07 00:00:00,TMP,surface,-93.7504,25.9842,303.823
2014-03-07 00:00:00,2014-03-07 00:00:00,TMP,surface,-92.8129,25.9842,303.931
2014-03-07 00:00:00,2014-03-07 00:00:00,TMP,surface,-107.813,26.929,294.034
2014-03-07 00:00:00,2014-03-07 00:00:00,TMP,surface,-106.875,26.929,291.823
2014-03-07 00:00:00,2014-03-07 00:00:00,TMP,surface,-105.938,26.929,292.917
2014-03-07 00:00:00,2014-03-07 00:00:00,TMP,surface,-105,26.929,297.243
2014-03-07 00:00:00,2014-03-07 00:00:00,TMP,surface,-104.063,26.929,300.901
2014-03-07 00:00:00,2014-03-07 00:00:00,TMP,surface,-103.125,26.929,300.296
2014-03-07 00:00:00,2014-03-07 00:00:00,TMP,surface,-102.188,26.929,298.93
2014-03-07 00:00:00,2014-03-07 00:00:00,TMP,surface,-101.25,26.929,299.919
2014-03-07 00:00:00,2014-03-07 00:00:00,TMP,surface,-100.313,26.929,303.083
2014-03-07 00:00:00,2014-03-07 00:00:00,TMP,surface,-99.3754,26.929,304.987
2014-03-07 00:00:00,2014-03-07 00:00:00,TMP,surface,-98.4379,26.929,303.992
2014-03-07 00:00:00,2014-03-07 00:00:00,TMP,surface,-97.5004,26.929,301.192
2014-03-07 00:00:00,2014-03-07 00:00:00,TMP,surface,-96.5629,26.929,301.298
2014-03-07 00:00:00,2014-03-07 00:00:00,TMP,surface,-95.6254,26.929,302.754
2014-03-07 00:00:00,2014-03-07 00:00:00,TMP,surface,-94.6879,26.929,303.695
2014-03-07 00:00:00,2014-03-07 00:00:00,TMP,surface,-93.7504,26.929,303.922
2014-03-07 00:00:00,2014-03-07 00:00:00,TMP,surface,-92.8129,26.929,304.037
2014-03-07 00:00:00,2014-03-07 00:00:00,TMP,surface,-107.813,27.8739,292.703
2014-03-07 00:00:00,2014-03-07 00:00:00,TMP,surface,-106.875,27.8739,291.666
2014-03-07 00:00:00,2014-03-07 00:00:00,TMP,surface,-105.938,27.8739,295.08
2014-03-07 00:00:00,2014-03-07 00:00:00,TMP,surface,-105,27.8739,299.506
2014-03-07 00:00:00,2014-03-07 00:00:00,TMP,surface,-104.063,27.8739,300.296
2014-03-07 00:00:00,2014-03-07 00:00:00,TMP,surface,-103.125,27.8739,298.642
2014-03-07 00:00:00,2014-03-07 00:00:00,TMP,surface,-102.188,27.8739,298.037
2014-03-07 00:00:00,2014-03-07 00:00:00,TMP,surface,-101.25,27.8739,301.307
2014-03-07 00:00:00,2014-03-07 00:00:00,TMP,surface,-100.313,27.8739,304.267
2014-03-07 00:00:00,2014-03-07 00:00:00,TMP,surface,-99.3754,27.8739,304.645
2014-03-07 00:00:00,2014-03-07 00:00:00,TMP,surface,-98.4379,27.8739,303.307
2014-03-07 00:00:00,2014-03-07 00:00:00,TMP,surface,-97.5004,27.8739,302.408
2014-03-07 00:00:00,2014-03-07 00:00:00,TMP,surface,-96.5629,27.8739,302.674
2014-03-07 00:00:00,2014-03-07 00:00:00,TMP,surface,-95.6254,27.8739,303.391
2014-03-07 00:00:00,2014-03-07 00:00:00,TMP,surface,-94.6879,27.8739,303.887
2014-03-07 00:00:00,2014-03-07 00:00:00,TMP,surface,-93.7504,27.8739,303.954
2014-03-07 00:00:00,2014-03-07 00:00:00,TMP,surface,-92.8129,27.8739,303.967
2014-03-07 00:00:00,2014-03-07 00:00:00,TMP,surface,-107.813,28.8188,292.005
2014-03-07 00:00:00,2014-03-07 00:00:00,TMP,surface,-106.875,28.8188,292.779
2014-03-07 00:00:00,2014-03-07 00:00:00,TMP,surface,-105.938,28.8188,297.25
2014-03-07 00:00:00,2014-03-07 00:00:00,TMP,surface,-105,28.8188,300.927
2014-03-07 00:00:00,2014-03-07 00:00:00,TMP,surface,-104.063,28.8188,299.861
2014-03-07 00:00:00,2014-03-07 00:00:00,TMP,surface,-103.125,28.8188,298.52
2014-03-07 00:00:00,2014-03-07 00:00:00,TMP,surface,-102.188,28.8188,298.885
2014-03-07 00:00:00,2014-03-07 00:00:00,TMP,surface,-101.25,28.8188,301.717
2014-03-07 00:00:00,2014-03-07 00:00:00,TMP,surface,-100.313,28.8188,303.368
2014-03-07 00:00:00,2014-03-07 00:00:00,TMP,surface,-99.3754,28.8188,302.856
2014-03-07 00:00:00,2014-03-07 00:00:00,TMP,surface,-98.4379,28.8188,301.807
2014-03-07 00:00:00,2014-03-07 00:00:00,TMP,surface,-97.5004,28.8188,301.362
2014-03-07 00:00:00,2014-03-07 00:00:00,TMP,surface,-96.5629,28.8188,301.711
2014-03-07 00:00:00,2014-03-07 00:00:00,TMP,surface,-95.6254,28.8188,302.2
2014-03-07 00:00:00,2014-03-07 00:00:00,TMP,surface,-94.6879,28.8188,302.258
2014-03-07 00:00:00,2014-03-07 00:00:00,TMP,surface,-93.7504,28.8188,302.463
2014-03-07 00:00:00,2014-03-07 00:00:00,TMP,surface,-92.8129,28.8188,302.677
2014-03-07 00:00:00,2014-03-07 00:00:00,TMP,surface,-107.813,29.7637,294.434
2014-03-07 00:00:00,2014-03-07 00:00:00,TMP,surface,-106.875,29.7637,296.546
2014-03-07 00:00:00,2014-03-07 00:00:00,TMP,surface,-105.938,29.7637,299.759
2014-03-07 00:00:00,2014-03-07 00:00:00,TMP,surface,-105,29.7637,300.987
2014-03-07 00:00:00,2014-03-07 00:00:00,TMP,surface,-104.063,29.7637,300.203
2014-03-07 00:00:00,2014-03-07 00:00:00,TMP,surface,-103.125,29.7637,300.168
2014-03-07 00:00:00,2014-03-07 00:00:00,TMP,surface,-102.188,29.7637,301.349
2014-03-07 00:00:00,2014-03-07 00:00:00,TMP,surface,-101.25,29.7637,302.312
2014-03-07 00:00:00,2014-03-07 00:00:00,TMP,surface,-100.313,29.7637,301.935
2014-03-07 00:00:00,2014-03-07 00:00:00,TMP,surface,-99.3754,29.7637,300.805
2014-03-07 00:00:00,2014-03-07 00:00:00,TMP,surface,-98.4379,29.7637,300.389
2014-03-07 00:00:00,2014-03-07 00:00:00,TMP,surface,-97.5004,29.7637,300.847
2014-03-07 00:00:00,2014-03-07 00:00:00,TMP,surface,-96.5629,29.7637,301.483
2014-03-07 00:00:00,2014-03-07 00:00:00,TMP,surface,-95.6254,29.7637,302.12
2014-03-07 00:00:00,2014-03-07 00:00:00,TMP,surface,-94.6879,29.7637,302.05
2014-03-07 00:00:00,2014-03-07 00:00:00,TMP,surface,-93.7504,29.7637,301.279
2014-03-07 00:00:00,2014-03-07 00:00:00,TMP,surface,-92.8129,29.7637,302.818
2014-03-07 00:00:00,2014-03-07 00:00:00,TMP,surface,-107.813,30.7085,299.496
2014-03-07 00:00:00,2014-03-07 00:00:00,TMP,surface,-106.875,30.7085,301.368
2014-03-07 00:00:00,2014-03-07 00:00:00,TMP,surface,-105.938,30.7085,301.477
2014-03-07 00:00:00,2014-03-07 00:00:00,TMP,surface,-105,30.7085,300.744
2014-03-07 00:00:00,2014-03-07 00:00:00,TMP,surface,-104.063,30.7085,299.855
2014-03-07 00:00:00,2014-03-07 00:00:00,TMP,surface,-103.125,30.7085,301.183
2014-03-07 00:00:00,2014-03-07 00:00:00,TMP,surface,-102.188,30.7085,302.319
2014-03-07 00:00:00,2014-03-07 00:00:00,TMP,surface,-101.25,30.7085,302.274
2014-03-07 00:00:00,2014-03-07 00:00:00,TMP,surface,-100.313,30.7085,301.675
2014-03-07 00:00:00,2014-03-07 00:00:00,TMP,surface,-99.3754,30.7085,301.067
2014-03-07 00:00:00,2014-03-07 00:00:00,TMP,surface,-98.4379,30.7085,301.186
2014-03-07 00:00:00,2014-03-07 00:00:00,TMP,surface,-97.5004,30.7085,301.963
2014-03-07 00:00:00,2014-03-07 00:00:00,TMP,surface,-96.5629,30.7085,302.888
2014-03-07 00:00:00,2014-03-07 00:00:00,TMP,surface,-95.6254,30.7085,303.359
2014-03-07 00:00:00,2014-03-07 00:00:00,TMP,surface,-94.6879,30.7085,303.199
2014-03-07 00:00:00,2014-03-07 00:00:00,TMP,surface,-93.7504,30.7085,303.048
2014-03-07 00:00:00,2014-03-07 00:00:00,TMP,surface,-92.8129,30.7085,302.824
2014-03-07 00:00:00,2014-03-07 00:00:00,TMP,surface,-107.813,31.6534,301.173
2014-03-07 00:00:00,2014-03-07 00:00:00,TMP,surface,-106.875,31.6534,302.299
2014-03-07 00:00:00,2014-03-07 00:00:00,TMP,surface,-105.938,31.6534,301.247
2014-03-07 00:00:00,2014-03-07 00:00:00,TMP,surface,-105,31.6534,300.44
2014-03-07 00:00:00,2014-03-07 00:00:00,TMP,surface,-104.063,31.6534,300.808
2014-03-07 00:00:00,2014-03-07 00:00:00,TMP,surface,-103.125,31.6534,301.752
2014-03-07 00:00:00,2014-03-07 00:00:00,TMP,surface,-102.188,31.6534,302.434
2014-03-07 00:00:00,2014-03-07 00:00:00,TMP,surface,-101.25,31.6534,302.411
2014-03-07 00:00:00,2014-03-07 00:00:00,TMP,surface,-100.313,31.6534,302.405
2014-03-07 00:00:00,2014-03-07 00:00:00,TMP,surface,-99.3754,31.6534,302.587
2014-03-07 00:00:00,2014-03-07 00:00:00,TMP,surface,-98.4379,31.6534,303.099
2014-03-07 00:00:00,2014-03-07 00:00:00,TMP,surface,-97.5004,31.6534,303.89
2014-03-07 00:00:00,2014-03-07 00:00:00,TMP,surface,-96.5629,31.6534,304.482
2014-03-07 00:00:00,2014-03-07 00:00:00,TMP,surface,-95.6254,31.6534,304.491
2014-03-07 00:00:00,2014-03-07 00:00:00,TMP,surface,-94.6879,31.6534,304.075
2014-03-07 00:00:00,2014-03-07 00:00:00,TMP,surface,-93.7504,31.6534,303.659
2014-03-07 00:00:00,2014-03-07 00:00:00,TMP,surface,-92.8129,31.6534,303.503
2014-03-07 00:00:00,2014-03-07 00:00:00,TMP,surface,-107.813,32.5983,298.002
2014-03-07 00:00:00,2014-03-07 00:00:00,TMP,surface,-106.875,32.5983,298.981
2014-03-07 00:00:00,2014-03-07 00:00:00,TMP,surface,-105.938,32.5983,299.442
2014-03-07 00:00:00,2014-03-07 00:00:00,TMP,surface,-105,32.5983,299.541
2014-03-07 00:00:00,2014-03-07 00:00:00,TMP,surface,-104.063,32.5983,300.562
2014-03-07 00:00:00,2014-03-07 00:00:00,TMP,surface,-103.125,32.5983,301.467
2014-03-07 00:00:00,2014-03-07 00:00:00,TMP,surface,-102.188,32.5983,301.871
2014-03-07 00:00:00,2014-03-07 00:00:00,TMP,surface,-101.25,32.5983,302.386
2014-03-07 00:00:00,2014-03-07 00:00:00,TMP,surface,-100.313,32.5983,303.496
2014-03-07 00:00:00,2014-03-07 00:00:00,TMP,surface,-99.3754,32.5983,304.703
2014-03-07 00:00:00,2014-03-07 00:00:00,TMP,surface,-98.4379,32.5983,305.282
2014-03-07 00:00:00,2014-03-07 00:00:00,TMP,surface,-97.5004,32.5983,305.432
2014-03-07 00:00:00,2014-03-07 00:00:00,TMP,surface,-96.5629,32.5983,305.483
2014-03-07 00:00:00,2014-03-07 00:00:00,TMP,surface,-95.6254,32.5983,305.346
2014-03-07 00:00:00,2014-03-07 00:00:00,TMP,surface,-94.6879,32.5983,304.968
2014-03-07 00:00:00,2014-03-07 00:00:00,TMP,surface,-93.7504,32.5983,304.536
2014-03-07 00:00:00,2014-03-07 00:00:00,TMP,surface,-92.8129,32.5983,304.405
2014-03-07 00:00:00,2014-03-07 00:00:00,TMP,surface,-107.813,33.5432,294.271
2014-03-07 00:00:00,2014-03-07 00:00:00,TMP,surface,-106.875,33.5432,295.928
2014-03-07 00:00:00,2014-03-07 00:00:00,TMP,surface,-105.938,33.5432,297.195
2014-03-07 00:00:00,2014-03-07 00:00:00,TMP,surface,-105,33.5432,298.77
2014-03-07 00:00:00,2014-03-07 00:00:00,TMP,surface,-104.063,33.5432,300.719
2014-03-07 00:00:00,2014-03-07 00:00:00,TMP,surface,-103.125,33.5432,301.272
2014-03-07 00:00:00,2014-03-07 00:00:00,TMP,surface,-102.188,33.5432,301.579
2014-03-07 00:00:00,2014-03-07 00:00:00,TMP,surface,-101.25,33.5432,302.642
2014-03-07 00:00:00,2014-03-07 00:00:00,TMP,surface,-100.313,33.5432,304.181
2014-03-07 00:00:00,2014-03-07 00:00:00,TMP,surface,-99.3754,33.5432,305.666
2014-03-07 00:00:00,2014-03-07 00:00:00,TMP,surface,-98.4379,33.5432,306.245
2014-03-07 00:00:00,2014-03-07 00:00:00,TMP,surface,-97.5004,33.5432,306.117
2014-03-07 00:00:00,2014-03-07 00:00:00,TMP,surface,-96.5629,33.5432,306.005
2014-03-07 00:00:00,2014-03-07 00:00:00,TMP,surface,-95.6254,33.5432,305.791
2014-03-07 00:00:00,2014-03-07 00:00:00,TMP,surface,-94.6879,33.5432,305.218
2014-03-07 00:00:00,2014-03-07 00:00:00,TMP,surface,-93.7504,33.5432,304.805
2014-03-07 00:00:00,2014-03-07 00:00:00,TMP,surface,-92.8129,33.5432,304.626
2014-03-07 00:00:00,2014-03-07 00:00:00,TMP,surface,-107.813,34.4881,292.949
2014-03-07 00:00:00,2014-03-07 00:00:00,TMP,surface,-106.875,34.4881,295.304
2014-03-07 00:00:00,2014-03-07 00:00:00,TMP,surface,-105.938,34.4881,296.559
2014-03-07 00:00:00,2014-03-07 00:00:00,TMP,surface,-105,34.4881,298.661
2014-03-07 00:00:00,2014-03-07 00:00:00,TMP,surface,-104.063,34.4881,300.335
2014-03-07 00:00:00,2014-03-07 00:00:00,TMP,surface,-103.125,34.4881,301.192
2014-03-07 00:00:00,2014-03-07 00:00:00,TMP,surface,-102.188,34.4881,302.015
2014-03-07 00:00:00,2014-03-07 00:00:00,TMP,surface,-101.25,34.4881,302.866
2014-03-07 00:00:00,2014-03-07 00:00:00,TMP,surface,-100.313,34.4881,304.283
2014-03-07 00:00:00,2014-03-07 00:00:00,TMP,surface,-99.3754,34.4881,305.49
2014-03-07 00:00:00,2014-03-07 00:00:00,TMP,surface,-98.4379,34.4881,306.04
2014-03-07 00:00:00,2014-03-07 00:00:00,TMP,surface,-97.5004,34.4881,306.059
2014-03-07 00:00:00,2014-03-07 00:00:00,TMP,surface,-96.5629,34.4881,305.778
2014-03-07 00:00:00,2014-03-07 00:00:00,TMP,surface,-95.6254,34.4881,305.291
2014-03-07 00:00:00,2014-03-07 00:00:00,TMP,surface,-94.6879,34.4881,304.469
2014-03-07 00:00:00,2014-03-07 00:00:00,TMP,surface,-93.7504,34.4881,303.541
2014-03-07 00:00:00,2014-03-07 00:00:00,TMP,surface,-92.8129,34.4881,303.4
2014-03-07 00:00:00,2014-03-07 00:00:00,TMP,surface,-107.813,35.4329,294.203
2014-03-07 00:00:00,2014-03-07 00:00:00,TMP,surface,-106.875,35.4329,294.738
2014-03-07 00:00:00,2014-03-07 00:00:00,TMP,surface,-105.938,35.4329,294.773
2014-03-07 00:00:00,2014-03-07 00:00:00,TMP,surface,-105,35.4329,295.986
2014-03-07 00:00:00,2014-03-07 00:00:00,TMP,surface,-104.063,35.4329,298.859
2014-03-07 00:00:00,2014-03-07 00:00:00,TMP,surface,-103.125,35.4329,301.045
2014-03-07 00:00:00,2014-03-07 00:00:00,TMP,surface,-102.188,35.4329,302.155
2014-03-07 00:00:00,2014-03-07 00:00:00,TMP,surface,-101.25,35.4329,302.802
2014-03-07 00:00:00,2014-03-07 00:00:00,TMP,surface,-100.313,35.4329,303.794
2014-03-07 00:00:00,2014-03-07 00:00:00,TMP,surface,-99.3754,35.4329,304.962
2014-03-07 00:00:00,2014-03-07 00:00:00,TMP,surface,-98.4379,35.4329,305.752
2014-03-07 00:00:00,2014-03-07 00:00:00,TMP,surface,-97.5004,35.4329,306.107
2014-03-07 00:00:00,2014-03-07 00:00:00,TMP,surface,-96.5629,35.4329,306.159
2014-03-07 00:00:00,2014-03-07 00:00:00,TMP,surface,-95.6254,35.4329,305.528
2014-03-07 00:00:00,2014-03-07 00:00:00,TMP,surface,-94.6879,35.4329,304.149
2014-03-07 00:00:00,2014-03-07 00:00:00,TMP,surface,-93.7504,35.4329,302.914
2014-03-07 00:00:00,2014-03-07 00:00:00,TMP,surface,-92.8129,35.4329,302.235
2014-03-07 00:00:00,2014-03-07 00:00:00,TMP,surface,-107.813,36.3778,293.368
2014-03-07 00:00:00,2014-03-07 00:00:00,TMP,surface,-106.875,36.3778,291.058
2014-03-07 00:00:00,2014-03-07 00:00:00,TMP,surface,-105.938,36.3778,291.567
2014-03-07 00:00:00,2014-03-07 00:00:00,TMP,surface,-105,36.3778,292.555
2014-03-07 00:00:00,2014-03-07 00:00:00,TMP,surface,-104.063,36.3778,295.631
2014-03-07 00:00:00,2014-03-07 00:00:00,TMP,surface,-103.125,36.3778,298.821
2014-03-07 00:00:00,2014-03-07 00:00:00,TMP,surface,-102.188,36.3778,301.074
2014-03-07 00:00:00,2014-03-07 00:00:00,TMP,surface,-101.25,36.3778,302.264
2014-03-07 00:00:00,2014-03-07 00:00:00,TMP,surface,-100.313,36.3778,303.042
2014-03-07 00:00:00,2014-03-07 00:00:00,TMP,surface,-99.3754,36.3778,303.861
2014-03-07 00:00:00,2014-03-07 00:00:00,TMP,surface,-98.4379,36.3778,304.712
2014-03-07 00:00:00,2014-03-07 00:00:00,TMP,surface,-97.5004,36.3778,305.448
2014-03-07 00:00:00,2014-03-07 00:00:00,TMP,surface,-96.5629,36.3778,305.762
2014-03-07 00:00:00,2014-03-07 00:00:00,TMP,surface,-95.6254,36.3778,305.071
2014-03-07 00:00:00,2014-03-07 00:00:00,TMP,surface,-94.6879,36.3778,303.496
2014-03-07 00:00:00,2014-03-07 00:00:00,TMP,surface,-93.7504,36.3778,302.178
2014-03-07 00:00:00,2014-03-07 00:00:00,TMP,surface,-92.8129,36.3778,301.48
2014-03-07 00:00:00,2014-03-07 00:00:00,PRATE,surface,-107.813,25.0393,4.05e-05
2014-03-07 00:00:00,2014-03-07 00:00:00,PRATE,surface,-106.875,25.0393,0.0001137
2014-03-07 00:00:00,2014-03-07 00:00:00,PRATE,surface,-105.938,25.0393,0.0001121
2014-03-07 00:00:00,2014-03-07 00:00:00,PRATE,surface,-105,25.0393,5.42e-05
2014-03-07 00:00:00,2014-03-07 00:00:00,PRATE,surface,-104.063,25.0393,6.9e-06
2014-03-07 00:00:00,2014-03-07 00:00:00,PRATE,surface,-103.125,25.0393,1.6e-06
2014-03-07 00:00:00,2014-03-07 00:00:00,PRATE,surface,-102.188,25.0393,3.6e-06
2014-03-07 00:00:00,2014-03-07 00:00:00,PRATE,surface,-101.25,25.0393,8.4e-06
2014-03-07 00:00:00,2014-03-07 00:00:00,PRATE,surface,-100.313,25.0393,1.5e-05
2014-03-07 00:00:00,2014-03-07 00:00:00,PRATE,surface,-99.3754,25.0393,9.6e-06
2014-03-07 00:00:00,2014-03-07 00:00:00,PRATE,surface,-98.4379,25.0393,5.8e-06
2014-03-07 00:00:00,2014-03-07 00:00:00,PRATE,surface,-97.5004,25.0393,1.44e-05
2014-03-07 00:00:00,2014-03-07 00:00:00,PRATE,surface,-96.5629,25.0393,4.4e-05
2014-03-07 00:00:00,2014-03-07 00:00:00,PRATE,surface,-95.6254,25.0393,3.99e-05
2014-03-07 00:00:00,2014-03-07 00:00:00,PRATE,surface,-94.6879,25.0393,3.57e-05
2014-03-07 00:00:00,2014-03-07 00:00:00,PRATE,surface,-93.7504,25.0393,8.08e-05
2014-03-07 00:00:00,2014-03-07 00:00:00,PRATE,surface,-92.8129,25.0393,9.15e-05
2014-03-07 00:00:00,2014-03-07 00:00:00,PRATE,surface,-107.813,25.9842,7.56e-05
2014-03-07 00:00:00,2014-03-07 00:00:00,PRATE,surface,-106.875,25.9842,0.0001155
2014-03-07 00:00:00,2014-03-07 00:00:00,PRATE,surface,-105.938,25.9842,8.44e-05
2014-03-07 00:00:00,2014-03-07 00:00:00,PRATE,surface,-105,25.9842,2.55e-05
2014-03-07 00:00:00,2014-03-07 00:00:00,PRATE,surface,-104.063,25.9842,5e-07
2014-03-07 00:00:00,2014-03-07 00:00:00,PRATE,surface,-103.125,25.9842,1.7e-06
2014-03-07 00:00:00,2014-03-07 00:00:00,PRATE,surface,-102.188,25.9842,1.2e-06
2014-03-07 00:00:00,2014-03-07 00:00:00,PRATE,surface,-101.25,25.9842,6.1e-06
2014-03-07 00:00:00,2014-03-07 00:00:00,PRATE,surface,-100.313,25.9842,9.4e-06
2014-03-07 00:00:00,2014-03-07 00:00:00,PRATE,surface,-99.3754,25.9842,9e-07
2014-03-07 00:00:00,2014-03-07 00:00:00,PRATE,surface,-98.4379,25.9842,4.2e-06
2014-03-07 00:00:00,2014-03-07 00:00:00,PRATE,surface,-97.5004,25.9842,2.44e-05
2014-03-07 00:00:00,2014-03-07 00:00:00,PRATE,surface,-96.5629,25.9842,2.5e-05
2014-03-07 00:00:00,2014-03-07 00:00:00,PRATE,surface,-95.6254,25.9842,6.68e-05
2014-03-07 00:00:00,2014-03-07 00:00:00,PRATE,surface,-94.6879,25.9842,5.99e-05
2014-03-07 00:00:00,2014-03-07 00:00:00,PRATE,surface,-93.7504,25.9842,8.18e-05
2014-03-07 00:00:00,2014-03-07 00:00:00,PRATE,surface,-92.8129,25.9842,7.69e-05
2014-03-07 00:00:00,2014-03-07 00:00:00,PRATE,surface,-107.813,26.929,0.0001073
2014-03-07 00:00:00,2014-03-07 00:00:00,PRATE,surface,-106.875,26.929,8.87e-05
2014-03-07 00:00:00,2014-03-07 00:00:00,PRATE,surface,-105.938,26.929,4.58e-05
2014-03-07 00:00:00,2014-03-07 00:00:00,PRATE,surface,-105,26.929,1.75e-05
2014-03-07 00:00:00,2014-03-07 00:00:00,PRATE,surface,-104.063,26.929,2.7e-06
2014-03-07 00:00:00,2014-03-07 00:00:00,PRATE,surface,-103.125,26.929,3.4e-06
2014-03-07 00:00:00,2014-03-07 00:00:00,PRATE,surface,-102.188,26.929,3.1e-06
2014-03-07 00:00:00,2014-03-07 00:00:00,PRATE,surface,-101.25,26.929,2.9e-06
2014-03-07 00:00:00,2014-03-07 00:00:00,PRATE,surface,-100.313,26.929,5e-07
2014-03-07 00:00:00,2014-03-07 00:00:00,PRATE,surface,-99.3754,26.929,1.7e-06
2014-03-07 00:00:00,2014-03-07 00:00:00,PRATE,surface,-98.4379,26.929,2.6e-06
2014-03-07 00:00:00,2014-03-07 00:00:00,PRATE,surface,-97.5004,26.929,2.69e-05
2014-03-07 00:00:00,2014-03-07 00:00:00,PRATE,surface,-96.5629,26.929,1.65e-05
2014-03-07 00:00:00,2014-03-07 00:00:00,PRATE,surface,-95.6254,26.929,1.84e-05
2014-03-07 00:00:00,2014-03-07 00:00:00,PRATE,surface,-94.6879,26.929,2.36e-05
2014-03-07 00:00:00,2014-03-07 00:00:00,PRATE,surface,-93.7504,26.929,3.44e-05
2014-03-07 00:00:00,2014-03-07 00:00:00,PRATE,surface,-92.8129,26.929,3.61e-05
2014-03-07 00:00:00,2014-03-07 00:00:00,PRATE,surface,-107.813,27.8739,0.0001066
2014-03-07 00:00:00,2014-03-07 00:00:00,PRATE,surface,-106.875,27.8739,5.33e-05
2014-03-07 00:00:00,2014-03-07 00:00:00,PRATE,surface,-105.938,27.8739,1.52e-05
2014-03-07 00:00:00,2014-03-07 00:00:00,PRATE,surface,-105,27.8739,1.5e-06
2014-03-07 00:00:00,2014-03-07 00:00:00,PRATE,surface,-104.063,27.8739,9.6e-06
2014-03-07 00:00:00,2014-03-07 00:00:00,PRATE,surface,-103.125,27.8739,7.7e-06
2014-03-07 00:00:00,2014-03-07 00:00:00,PRATE,surface,-102.188,27.8739,2.4e-06
2014-03-07 00:00:00,2014-03-07 00:00:00,PRATE,surface,-101.25,27.8739,5e-07
2014-03-07 00:00:00,2014-03-07 00:00:00,PRATE,surface,-100.313,27.8739,8e-07
2014-03-07 00:00:00,2014-03-07 00:00:00,PRATE,surface,-99.3754,27.8739,3.2e-06
2014-03-07 00:00:00,2014-03-07 00:00:00,PRATE,surface,-98.4379,27.8739,1.1e-05
2014-03-07 00:00:00,2014-03-07 00:00:00,PRATE,surface,-97.5004,27.8739,1.17e-05
2014-03-07 00:00:00,2014-03-07 00:00:00,PRATE,surface,-96.5629,27.8739,6.1e-06
2014-03-07 00:00:00,2014-03-07 00:00:00,PRATE,surface,-95.6254,27.8739,8.8e-06
2014-03-07 00:00:00,2014-03-07 00:00:00,PRATE,surface,-94.6879,27.8739,2.56e-05
2014-03-07 00:00:00,2014-03-07 00:00:00,PRATE,surface,-93.7504,27.8739,4.66e-05
2014-03-07 00:00:00,2014-03-07 00:00:00,PRATE,surface,-92.8129,27.8739,4.6e-05
2014-03-07 00:00:00,2014-03-07 00:00:00,PRATE,surface,-107.813,28.8188,8.91e-05
2014-03-07 00:00:00,2014-03-07 00:00:00,PRATE,surface,-106.875,28.8188,4.37e-05
2014-03-07 00:00:00,2014-03-07 00:00:00,PRATE,surface,-105.938,28.8188,7e-06
2014-03-07 00:00:00,2014-03-07 00:00:00,PRATE,surface,-105,28.8188,1e-07
2014-03-07 00:00:00,2014-03-07 00:00:00,PRATE,surface,-104.063,28.8188,8.2e-06
2014-03-07 00:00:00,2014-03-07 00:00:00,PRATE,surface,-103.125,28.8188,1.34e-05
2014-03-07 00:00:00,2014-03-07 00:00:00,PRATE,surface,-102.188,28.8188,3.2e-06
2014-03-07 00:00:00,2014-03-07 00:00:00,PRATE,surface,-101.25,28.8188,2e-07
2014-03-07 00:00:00,2014-03-07 00:00:00,PRATE,surface,-100.313,28.8188,0
2014-03-07 00:00:00,2014-03-07 00:00:00,PRATE,surface,-99.3754,28.8188,1.3e-06
2014-03-07 00:00:00,2014-03-07 00:00:00,PRATE,surface,-98.4379,28.8188,7.3e-06
2014-03-07 00:00:00,2014-03-07 00:00:00,PRATE,surface,-97.5004,28.8188,1.59e-05
2014-03-07 00:00:00,2014-03-07 00:00:00,PRATE,surface,-96.5629,28.8188,2.24e-05
2014-03-07 00:00:00,2014-03-07 00:00:00,PRATE,surface,-95.6254,28.8188,2.11e-05
2014-03-07 00:00:00,2014-03-07 00:00:00,PRATE,surface,-94.6879,28.8188,1.69e-05
2014-03-07 00:00:00,2014-03-07 00:00:00,PRATE,surface,-93.7504,28.8188,2.14e-05
2014-03-07 00:00:00,2014-03-07 00:00:00,PRATE,surface,-92.8129,28.8188,2.28e-05
2014-03-07 00:00:00,2014-03-07 00:00:00,PRATE,surface,-107.813,29.7637,5.71e-05
2014-03-07 00:00:00,2014-03-07 00:00:00,PRATE,surface,-106.875,29.7637,2.59e-05
2014-03-07 00:00:00,2014-03-07 00:00:00,PRATE,surface,-105.938,29.7637,1.1e-06
2014-03-07 00:00:00,2014-03-07 00:00:00,PRATE,surface,-105,29.7637,4.5e-06
2014-03-07 00:00:00,2014-03-07 00:00:00,PRATE,surface,-104.063,29.7637,6.5e-06
2014-03-07 00:00:00,2014-03-07 00:00:00,PRATE,surface,-103.125,29.7637,3.2e-06
2014-03-07 00:00:00,2014-03-07 00:00:00,PRATE,surface,-102.188,29.7637,1e-06
2014-03-07 00:00:00,2014-03-07 00:00:00,PRATE,surface,-101.25,29.7637,3e-07
2014-03-07 00:00:00,2014-03-07 00:00:00,PRATE,surface,-100.313,29.7637,0
2014-03-07 00:00:00,2014-03-07 00:00:00,PRATE,surface,-99.3754,29.7637,2e-06
2014-03-07 00:00:00,2014-03-07 00:00:00,PRATE,surface,-98.4379,29.7637,5.1e-06
2014-03-07 00:00:00,2014-03-07 00:00:00,PRATE,surface,-97.5004,29.7637,8.3e-06
2014-03-07 00:00:00,2014-03-07 00:00:00,PRATE,surface,-96.5629,29.7637,1.37e-05
2014-03-07 00:00:00,2014-03-07 00:00:00,PRATE,surface,-95.6254,29.7637,1.97e-05
2014-03-07 00:00:00,2014-03-07 00:00:00,PRATE,surface,-94.6879,29.7637,1.76e-05
2014-03-07 00:00:00,2014-03-07 00:00:00,PRATE,surface,-93.7504,29.7637,1.14e-05
2014-03-07 00:00:00,2014-03-07 00:00:00,PRATE,surface,-92.8129,29.7637,2e-05
2014-03-07 00:00:00,2014-03-07 00:00:00,PRATE,surface,-107.813,30.7085,1.03e-05
2014-03-07 00:00:00,2014-03-07 00:00:00,PRATE,surface,-106.875,30.7085,3.7e-06
2014-03-07 00:00:00,2014-03-07 00:00:00,PRATE,surface,-105.938,30.7085,4.7e-06
2014-03-07 00:00:00,2014-03-07 00:00:00,PRATE,surface,-105,30.7085,1.36e-05
2014-03-07 00:00:00,2014-03-07 00:00:00,PRATE,surface,-104.063,30.7085,5.3e-06
2014-03-07 00:00:00,2014-03-07 00:00:00,PRATE,surface,-103.125,30.7085,9e-07
2014-03-07 00:00:00,2014-03-07 00:00:00,PRATE,surface,-102.188,30.7085,2e-07
2014-03-07 00:00:00,2014-03-07 00:00:00,PRATE,surface,-101.25,30.7085,4e-07
2014-03-07 00:00:00,2014-03-07 00:00:00,PRATE,surface,-100.313,30.7085,3e-07
2014-03-07 00:00:00,2014-03-07 00:00:00,PRATE,surface,-99.3754,30.7085,2e-07
2014-03-07 00:00:00,2014-03-07 00:00:00,PRATE,surface,-98.4379,30.7085,5e-07
2014-03-07 00:00:00,2014-03-07 00:00:00,PRATE,surface,-97.5004,30.7085,7e-07
2014-03-07 00:00:00,2014-03-07 00:00:00,PRATE,surface,-96.5629,30.7085,1.6e-06
2014-03-07 00:00:00,2014-03-07 00:00:00,PRATE,surface,-95.6254,30.7085,4e-06
2014-03-07 00:00:00,2014-03-07 00:00:00,PRATE,surface,-94.6879,30.7085,7.9e-06
2014-03-07 00:00:00,2014-03-07 00:00:00,PRATE,surface,-93.7504,30.7085,1.21e-05
2014-03-07 00:00:00,2014-03-07 00:00:00,PRATE,surface,-92.8129,30.7085,1.17e-05
2014-03-07 00:00:00,2014-03-07 00:00:00,PRATE,surface,-107.813,31.6534,8.1e-06
2014-03-07 00:00:00,2014-03-07 00:00:00,PRATE,surface,-106.875,31.6534,3.1e-06
2014-03-07 00:00:00,2014-03-07 00:00:00,PRATE,surface,-105.938,31.6534,3.8e-06
2014-03-07 00:00:00,2014-03-07 00:00:00,PRATE,surface,-105,31.6534,1.05e-05
2014-03-07 00:00:00,2014-03-07 00:00:00,PRATE,surface,-104.063,31.6534,5.5e-06
2014-03-07 00:00:00,2014-03-07 00:00:00,PRATE,surface,-103.125,31.6534,7e-07
2014-03-07 00:00:00,2014-03-07 00:00:00,PRATE,surface,-102.188,31.6534,4e-07
2014-03-07 00:00:00,2014-03-07 00:00:00,PRATE,surface,-101.25,31.6534,4e-07
2014-03-07 00:00:00,2014-03-07 00:00:00,PRATE,surface,-100.313,31.6534,2e-07
2014-03-07 00:00:00,2014-03-07 00:00:00,PRATE,surface,-99.3754,31.6534,1e-07
2014-03-07 00:00:00,2014-03-07 00:00:00,PRATE,surface,-98.4379,31.6534,2e-07
2014-03-07 00:00:00,2014-03-07 00:00:00,PRATE,surface,-97.5004,31.6534,2e-07
2014-03-07 00:00:00,2014-03-07 00:00:00,PRATE,surface,-96.5629,31.6534,1.3e-06
2014-03-07 00:00:00,2014-03-07 00:00:00,PRATE,surface,-95.6254,31.6534,2.8e-06
2014-03-07 00:00:00,2014-03-07 00:00:00,PRATE,surface,-94.6879,31.6534,3.1e-06
2014-03-07 00:00:00,2014-03-07 00:00:00,PRATE,surface,-93.7504,31.6534,4.3e-06
2014-03-07 00:00:00,2014-03-07 00:00:00,PRATE,surface,-92.8129,31.6534,5.1e-06
2014-03-07 00:00:00,2014-03-07 00:00:00,PRATE,surface,-107.813,32.5983,8.6e-06
2014-03-07 00:00:00,2014-03-07 00:00:00,PRATE,surface,-106.875,32.5983,5.4e-06
2014-03-07 00:00:00,2014-03-07 00:00:00,PRATE,surface,-105.938,32.5983,6.6e-06
2014-03-07 00:00:00,2014-03-07 00:00:00,PRATE,surface,-105,32.5983,5.3e-06
2014-03-07 00:00:00,2014-03-07 00:00:00,PRATE,surface,-104.063,32.5983,7.9e-06
2014-03-07 00:00:00,2014-03-07 00:00:00,PRATE,surface,-103.125,32.5983,3.5e-06
2014-03-07 00:00:00,2014-03-07 00:00:00,PRATE,surface,-102.188,32.5983,2e-06
2014-03-07 00:00:00,2014-03-07 00:00:00,PRATE,surface,-101.25,32.5983,3.3e-06
2014-03-07 00:00:00,2014-03-07 00:00:00,PRATE,surface,-100.313,32.5983,2.2e-06
2014-03-07 00:00:00,2014-03-07 00:00:00,PRATE,surface,-99.3754,32.5983,1.4e-06
2014-03-07 00:00:00,2014-03-07 00:00:00,PRATE,surface,-98.4379,32.5983,1.3e-06
2014-03-07 00:00:00,2014-03-07 00:00:00,PRATE,surface,-97.5004,32.5983,1.3e-06
2014-03-07 00:00:00,2014-03-07 00:00:00,PRATE,surface,-96.5629,32.5983,9e-07
2014-03-07 00:00:00,2014-03-07 00:00:00,PRATE,surface,-95.6254,32.5983,2e-07
2014-03-07 00:00:00,2014-03-07 00:00:00,PRATE,surface,-94.6879,32.5983,1.1e-06
2014-03-07 00:00:00,2014-03-07 00:00:00,PRATE,surface,-93.7504,32.5983,3.1e-06
2014-03-07 00:00:00,2014-03-07 00:00:00,PRATE,surface,-92.8129,32.5983,2e-06
2014-03-07 00:00:00,2014-03-07 00:00:00,PRATE,surface,-107.813,33.5432,2.32e-05
2014-03-07 00:00:00,2014-03-07 00:00:00,PRATE,surface,-106.875,33.5432,1.93e-05
2014-03-07 00:00:00,2014-03-07 00:00:00,PRATE,surface,-105.938,33.5432,1.52e-05
2014-03-07 00:00:00,2014-03-07 00:00:00,PRATE,surface,-105,33.5432,8.4e-06
2014-03-07 00:00:00,2014-03-07 00:00:00,PRATE,surface,-104.063,33.5432,6.8e-06
2014-03-07 00:00:00,2014-03-07 00:00:00,PRATE,surface,-103.125,33.5432,3e-06
2014-03-07 00:00:00,2014-03-07 00:00:00,PRATE,surface,-102.188,33.5432,5.1e-06
2014-03-07 00:00:00,2014-03-07 00:00:00,PRATE,surface,-101.25,33.5432,8e-06
2014-03-07 00:00:00,2014-03-07 00:00:00,PRATE,surface,-100.313,33.5432,5.9e-06
2014-03-07 00:00:00,2014-03-07 00:00:00,PRATE,surface,-99.3754,33.5432,2.6e-06
2014-03-07 00:00:00,2014-03-07 00:00:00,PRATE,surface,-98.4379,33.5432,2e-06
2014-03-07 00:00:00,2014-03-07 00:00:00,PRATE,surface,-97.5004,33.5432,2.1e-06
2014-03-07 00:00:00,2014-03-07 00:00:00,PRATE,surface,-96.5629,33.5432,1e-06
2014-03-07 00:00:00,2014-03-07 00:00:00,PRATE,surface,-95.6254,33.5432,3e-07
2014-03-07 00:00:00,2014-03-07 00:00:00,PRATE,surface,-94.6879,33.5432,5e-07
2014-03-07 00:00:00,2014-03-07 00:00:00,PRATE,surface,-93.7504,33.5432,4e-07
2014-03-07 00:00:00,2014-03-07 00:00:00,PRATE,surface,-92.8129,33.5432,4e-07
2014-03-07 00:00:00,2014-03-07 00:00:00,PRATE,surface,-107.813,34.4881,2.03e-05
2014-03-07 00:00:00,2014-03-07 00:00:00,PRATE,surface,-106.875,34.4881,1.32e-05
2014-03-07 00:00:00,2014-03-07 00:00:00,PRATE,surface,-105.938,34.4881,1.1e-05
2014-03-07 00:00:00,2014-03-07 00:00:00,PRATE,surface,-105,34.4881,8.6e-06
2014-03-07 00:00:00,2014-03-07 00:00:00,PRATE,surface,-104.063,34.4881,6.1e-06
2014-03-07 00:00:00,2014-03-07 00:00:00,PRATE,surface,-103.125,34.4881,3.6e-06
2014-03-07 00:00:00,2014-03-07 00:00:00,PRATE,surface,-102.188,34.4881,5.9e-06
2014-03-07 00:00:00,2014-03-07 00:00:00,PRATE,surface,-101.25,34.4881,9.2e-06
2014-03-07 00:00:00,2014-03-07 00:00:00,PRATE,surface,-100.313,34.4881,6.4e-06
2014-03-07 00:00:00,2014-03-07 00:00:00,PRATE,surface,-99.3754,34.4881,4.4e-06
2014-03-07 00:00:00,2014-03-07 00:00:00,PRATE,surface,-98.4379,34.4881,4.1e-06
2014-03-07 00:00:00,2014-03-07 00:00:00,PRATE,surface,-97.5004,34.4881,3e-06
2014-03-07 00:00:00,2014-03-07 00:00:00,PRATE,surface,-96.5629,34.4881,1.2e-06
2014-03-07 00:00:00,2014-03-07 00:00:00,PRATE,surface,-95.6254,34.4881,3e-07
2014-03-07 00:00:00,2014-03-07 00:00:00,PRATE,surface,-94.6879,34.4881,2e-07
2014-03-07 00:00:00,2014-03-07 00:00:00,PRATE,surface,-93.7504,34.4881,3e-07
2014-03-07 00:00:00,2014-03-07 00:00:00,PRATE,surface,-92.8129,34.4881,1.1e-06
2014-03-07 00:00:00,2014-03-07 00:00:00,PRATE,surface,-107.813,35.4329,1.17e-05
2014-03-07 00:00:00,2014-03-07 00:00:00,PRATE,surface,-106.875,35.4329,7.9e-06
2014-03-07 00:00:00,2014-03-07 00:00:00,PRATE,surface,-105.938,35.4329,1.13e-05
2014-03-07 00:00:00,2014-03-07 00:00:00,PRATE,surface,-105,35.4329,1.56e-05
2014-03-07 00:00:00,2014-03-07 00:00:00,PRATE,surface,-104.063,35.4329,1.3e-05
2014-03-07 00:00:00,2014-03-07 00:00:00,PRATE,surface,-103.125,35.4329,9.1e-06
2014-03-07 00:00:00,2014-03-07 00:00:00,PRATE,surface,-102.188,35.4329,5.8e-06
2014-03-07 00:00:00,2014-03-07 00:00:00,PRATE,surface,-101.25,35.4329,7.7e-06
2014-03-07 00:00:00,2014-03-07 00:00:00,PRATE,surface,-100.313,35.4329,6.7e-06
2014-03-07 00:00:00,2014-03-07 00:00:00,PRATE,surface,-99.3754,35.4329,4.6e-06
2014-03-07 00:00:00,2014-03-07 00:00:00,PRATE,surface,-98.4379,35.4329,3.1e-06
2014-03-07 00:00:00,2014-03-07 00:00:00,PRATE,surface,-97.5004,35.4329,2.1e-06
2014-03-07 00:00:00,2014-03-07 00:00:00,PRATE,surface,-96.5629,35.4329,1e-06
2014-03-07 00:00:00,2014-03-07 00:00:00,PRATE,surface,-95.6254,35.4329,1e-07
2014-03-07 00:00:00,2014-03-07 00:00:00,PRATE,surface,-94.6879,35.4329,2e-07
2014-03-07 00:00:00,2014-03-07 00:00:00,PRATE,surface,-93.7504,35.4329,1e-06
2014-03-07 00:00:00,2014-03-07 00:00:00,PRATE,surface,-92.8129,35.4329,2.5e-06
2014-03-07 00:00:00,2014-03-07 00:00:00,PRATE,surface,-107.813,36.3778,1.61e-05
2014-03-07 00:00:00,2014-03-07 00:00:00,PRATE,surface,-106.875,36.3778,1.1e-05
2014-03-07 00:00:00,2014-03-07 00:00:00,PRATE,surface,-105.938,36.3778,2.31e-05
2014-03-07 00:00:00,2014-03-07 00:00:00,PRATE,surface,-105,36.3778,3.66e-05
2014-03-07 00:00:00,2014-03-07 00:00:00,PRATE,surface,-104.063,36.3778,3.37e-05
2014-03-07 00:00:00,2014-03-07 00:00:00,PRATE,surface,-103.125,36.3778,2.58e-05
2014-03-07 00:00:00,2014-03-07 00:00:00,PRATE,surface,-102.188,36.3778,2.13e-05
2014-03-07 00:00:00,2014-03-07 00:00:00,PRATE,surface,-101.25,36.3778,1.74e-05
2014-03-07 00:00:00,2014-03-07 00:00:00,PRATE,surface,-100.313,36.3778,1.75e-05
2014-03-07 00:00:00,2014-03-07 00:00:00,PRATE,surface,-99.3754,36.3778,8.3e-06
2014-03-07 00:00:00,2014-03-07 00:00:00,PRATE,surface,-98.4379,36.3778,1.9e-06
2014-03-07 00:00:00,2014-03-07 00:00:00,PRATE,surface,-97.5004,36.3778,1.5e-06
2014-03-07 00:00:00,2014-03-07 00:00:00,PRATE,surface,-96.5629,36.3778,1.2e-06
2014-03-07 00:00:00,2014-03-07 00:00:00,PRATE,surface,-95.6254,36.3778,8e-07
2014-03-07 00:00:00,2014-03-07 00:00:00,PRATE,surface,-94.6879,36.3778,6e-07
2014-03-07 00:00:00,2014-03-07 00:00:00,PRATE,surface,-93.7504,36.3778,1.9e-06
2014-03-07 00:00:00,2014-03-07 00:00:00,PRATE,surface,-92.8129,36.3778,4.2e-06
