2018-04-28 00:00:00,2018-04-28 00:00:00,TMP,surface,-107.813,25.0393,297.362
2018-04-28 00:00:00,2018-04-28 00:00:00,TMP,surface,-106.875,25.0393,290.065
2018-04-28 00:00:00,2018-04-28 00:00:00,TMP,surface,-105.938,25.0393,284.772
2018-04-28 00:00:00,2018-04-28 00:00:00,TMP,surface,-105,25.0393,283.791
2018-04-28 00:00:00,2018-04-28 00:00:00,TMP,surface,-104.063,25.0393,287.868
2018-04-28 00:00:00,2018-04-28 00:00:00,TMP,surface,-103.125,25.0393,290.429
2018-04-28 00:00:00,2018-04-28 00:00:00,TMP,surface,-102.188,25.0393,289.802
2018-04-28 00:00:00,2018-04-28 00:00:00,TMP,surface,-101.25,25.0393,288.444
2018-04-28 00:00:00,2018-04-28 00:00:00,TMP,surface,-100.313,25.0393,289.268
2018-04-28 00:00:00,2018-04-28 00:00:00,TMP,surface,-99.3754,25.0393,292.777
2018-04-28 00:00:00,2018-04-28 00:00:00,TMP,surface,-98.4379,25.0393,296.178
2018-04-28 00:00:00,2018-04-28 00:00:00,TMP,surface,-97.5004,25.0393,299.7
2018-04-28 00:00:00,2018-04-28 00:00:00,TMP,surface,-96.5629,25.0393,300.029
2018-04-28 00:00:00,2018-04-28 00:00:00,TMP,surface,-95.6254,25.0393,300.135
2018-04-28 00:00:00,2018-04-28 00:00:00,TMP,surface,-94.6879,25.0393,300.167
2018-04-28 00:00:00,2018-04-28 00:00:00,TMP,surface,-93.7504,25.0393,300.041
2018-04-28 00:00:00,2018-04-28 00:00:00,TMP,surface,-92.8129,25.0393,299.81
2018-04-28 00:00:00,2018-04-28 00:00:00,TMP,surface,-107.813,25.9842,291.293
2018-04-28 00:00:00,2018-04-28 00:00:00,TMP,surface,-106.875,25.9842,285.418
2018-04-28 00:00:00,2018-04-28 00:00:00,TMP,surface,-105.938,25.9842,283.301
2018-04-28 00:00:00,2018-04-28 00:00:00,TMP,surface,-105,25.9842,286.154
2018-04-28 00:00:00,2018-04-28 00:00:00,TMP,surface,-104.063,25.9842,290.141
2018-04-28 00:00:00,2018-04-28 00:00:00,TMP,surface,-103.125,25.9842,291.361
2018-04-28 00:00:00,2018-04-28 00:00:00,TMP,surface,-102.188,25.9842,290.519
2018-04-28 00:00:00,2018-04-28 00:00:00,TMP,surface,-101.25,25.9842,290.327
2018-04-28 00:00:00,2018-04-28 00:00:00,TMP,surface,-100.313,25.9842,291.389
2018-04-28 00:00:00,2018-04-28 00:00:00,TMP,surface,-99.3754,25.9842,294.177
2018-04-28 00:00:00,2018-04-28 00:00:00,TMP,surface,-98.4379,25.9842,296.22
2018-04-28 00:00:00,2018-04-28 00:00:00,TMP,surface,-97.5004,25.9842,297.069
2018-04-28 00:00:00,2018-04-28 00:00:00,TMP,surface,-96.5629,25.9842,299.525
2018-04-28 00:00:00,2018-04-28 00:00:00,TMP,surface,-95.6254,25.9842,299.685
2018-04-28 00:00:00,2018-04-28 00:00:00,TMP,surface,-94.6879,25.9842,299.682
2018-04-28 00:00:00,2018-04-28 00:00:00,TMP,surface,-93.7504,25.9842,299.628
2018-04-28 00:00:00,2018-04-28 00:00:00,TMP,surface,-92.8129,25.9842,299.797
2018-04-28 00:00:00,2018-04-28 00:00:00,TMP,surface,-107.813,26.929,286.345
2018-04-28 00:00:00,2018-04-28 00:00:00,TMP,surface,-106.875,26.929,282.884
2018-04-28 00:00:00,2018-04-28 00:00:00,TMP,surface,-105.938,26.929,285.023
2018-04-28 00:00:00,2018-04-28 00:00:00,TMP,surface,-105,26.929,288.86
2018-04-28 00:00:00,2018-04-28 00:00:00,TMP,surface,-104.063,26.929,290.461
2018-04-28 00:00:00,2018-04-28 00:00:00,TMP,surface,-103.125,26.929,290.295
2018-04-28 00:00:00,2018-04-28 00:00:00,TMP,surface,-102.188,26.929,289.594
2018-04-28 00:00:00,2018-04-28 00:00:00,TMP,surface,-101.25,26.929,290.409
2018-04-28 00:00:00,2018-04-28 00:00:00,TMP,surface,-100.313,26.929,291.985
2018-04-28 00:00:00,2018-04-28 00:00:00,TMP,surface,-99.3754,26.929,293.703
2018-04-28 00:00:00,2018-04-28 00:00:00,TMP,surface,-98.4379,26.929,294.325
2018-04-28 00:00:00,2018-04-28 00:00:00,TMP,surface,-97.5004,26.929,298.26
2018-04-28 00:00:00,2018-04-28 00:00:00,TMP,surface,-96.5629,26.929,298.821
2018-04-28 00:00:00,2018-04-28 00:00:00,TMP,surface,-95.6254,26.929,299.189
2018-04-28 00:00:00,2018-04-28 00:00:00,TMP,surface,-94.6879,26.929,299.268
2018-04-28 00:00:00,2018-04-28 00:00:00,TMP,surface,-93.7504,26.929,299.082
2018-04-28 00:00:00,2018-04-28 00:00:00,TMP,surface,-92.8129,26.929,299.189
2018-04-28 00:00:00,2018-04-28 00:00:00,TMP,surface,-107.813,27.8739,283.585
2018-04-28 00:00:00,2018-04-28 00:00:00,TMP,surface,-106.875,27.8739,282.929
2018-04-28 00:00:00,2018-04-28 00:00:00,TMP,surface,-105.938,27.8739,286.604
2018-04-28 00:00:00,2018-04-28 00:00:00,TMP,surface,-105,27.8739,289.577
2018-04-28 00:00:00,2018-04-28 00:00:00,TMP,surface,-104.063,27.8739,289.285
2018-04-28 00:00:00,2018-04-28 00:00:00,TMP,surface,-103.125,27.8739,288.733
2018-04-28 00:00:00,2018-04-28 00:00:00,TMP,surface,-102.188,27.8739,288.433
2018-04-28 00:00:00,2018-04-28 00:00:00,TMP,surface,-101.25,27.8739,289.441
2018-04-28 00:00:00,2018-04-28 00:00:00,TMP,surface,-100.313,27.8739,290.517
2018-04-28 00:00:00,2018-04-28 00:00:00,TMP,surface,-99.3754,27.8739,291.135
2018-04-28 00:00:00,2018-04-28 00:00:00,TMP,surface,-98.4379,27.8739,291.887
2018-04-28 00:00:00,2018-04-28 00:00:00,TMP,surface,-97.5004,27.8739,295.225
2018-04-28 00:00:00,2018-04-28 00:00:00,TMP,surface,-96.5629,27.8739,298.354
2018-04-28 00:00:00,2018-04-28 00:00:00,TMP,surface,-95.6254,27.8739,298.609
2018-04-28 00:00:00,2018-04-28 00:00:00,TMP,surface,-94.6879,27.8739,298.431
2018-04-28 00:00:00,2018-04-28 00:00:00,TMP,surface,-93.7504,27.8739,298.245
2018-04-28 00:00:00,2018-04-28 00:00:00,TMP,surface,-92.8129,27.8739,298.309
2018-04-28 00:00:00,2018-04-28 00:00:00,TMP,surface,-107.813,28.8188,282.634
2018-04-28 00:00:00,2018-04-28 00:00:00,TMP,surface,-106.875,28.8188,283.415
2018-04-28 00:00:00,2018-04-28 00:00:00,TMP,surface,-105.938,28.8188,287.036
2018-04-28 00:00:00,2018-04-28 00:00:00,TMP,surface,-105,28.8188,288.716
2018-04-28 00:00:00,2018-04-28 00:00:00,TMP,surface,-104.063,28.8188,288.305
2018-04-28 00:00:00,2018-04-28 00:00:00,TMP,surface,-103.125,28.8188,287.855
2018-04-28 00:00:00,2018-04-28 00:00:00,TMP,surface,-102.188,28.8188,287.617
2018-04-28 00:00:00,2018-04-28 00:00:00,TMP,surface,-101.25,28.8188,288.175
2018-04-28 00:00:00,2018-04-28 00:00:00,TMP,surface,-100.313,28.8188,288.38
2018-04-28 00:00:00,2018-04-28 00:00:00,TMP,surface,-99.3754,28.8188,288.33
2018-04-28 00:00:00,2018-04-28 00:00:00,TMP,surface,-98.4379,28.8188,288.849
2018-04-28 00:00:00,2018-04-28 00:00:00,TMP,surface,-97.5004,28.8188,290.007
2018-04-28 00:00:00,2018-04-28 00:00:00,TMP,surface,-96.5629,28.8188,291.233
2018-04-28 00:00:00,2018-04-28 00:00:00,TMP,surface,-95.6254,28.8188,294.202
2018-04-28 00:00:00,2018-04-28 00:00:00,TMP,surface,-94.6879,28.8188,297.954
2018-04-28 00:00:00,2018-04-28 00:00:00,TMP,surface,-93.7504,28.8188,297.641
2018-04-28 00:00:00,2018-04-28 00:00:00,TMP,surface,-92.8129,28.8188,297.666
2018-04-28 00:00:00,2018-04-28 00:00:00,TMP,surface,-107.813,29.7637,283.98
2018-04-28 00:00:00,2018-04-28 00:00:00,TMP,surface,-106.875,29.7637,284.905
2018-04-28 00:00:00,2018-04-28 00:00:00,TMP,surface,-105.938,29.7637,286.663
2018-04-28 00:00:00,2018-04-28 00:00:00,TMP,surface,-105,29.7637,287.133
2018-04-28 00:00:00,2018-04-28 00:00:00,TMP,surface,-104.063,29.7637,287.423
2018-04-28 00:00:00,2018-04-28 00:00:00,TMP,surface,-103.125,29.7637,287.609
2018-04-28 00:00:00,2018-04-28 00:00:00,TMP,surface,-102.188,29.7637,287.66
2018-04-28 00:00:00,2018-04-28 00:00:00,TMP,surface,-101.25,29.7637,287.204
2018-04-28 00:00:00,2018-04-28 00:00:00,TMP,surface,-100.313,29.7637,286.372
2018-04-28 00:00:00,2018-04-28 00:00:00,TMP,surface,-99.3754,29.7637,285.927
2018-04-28 00:00:00,2018-04-28 00:00:00,TMP,surface,-98.4379,29.7637,286.226
2018-04-28 00:00:00,2018-04-28 00:00:00,TMP,surface,-97.5004,29.7637,286.996
2018-04-28 00:00:00,2018-04-28 00:00:00,TMP,surface,-96.5629,29.7637,287.868
2018-04-28 00:00:00,2018-04-28 00:00:00,TMP,surface,-95.6254,29.7637,288.745
2018-04-28 00:00:00,2018-04-28 00:00:00,TMP,surface,-94.6879,29.7637,291.751
2018-04-28 00:00:00,2018-04-28 00:00:00,TMP,surface,-93.7504,29.7637,295.266
2018-04-28 00:00:00,2018-04-28 00:00:00,TMP,surface,-92.8129,29.7637,289.841
2018-04-28 00:00:00,2018-04-28 00:00:00,TMP,surface,-107.813,30.7085,285.748
2018-04-28 00:00:00,2018-04-28 00:00:00,TMP,surface,-106.875,30.7085,286.141
2018-04-28 00:00:00,2018-04-28 00:00:00,TMP,surface,-105.938,30.7085,286.129
2018-04-28 00:00:00,2018-04-28 00:00:00,TMP,surface,-105,30.7085,286.295
2018-04-28 00:00:00,2018-04-28 00:00:00,TMP,surface,-104.063,30.7085,286.351
2018-04-28 00:00:00,2018-04-28 00:00:00,TMP,surface,-103.125,30.7085,286.837
2018-04-28 00:00:00,2018-04-28 00:00:00,TMP,surface,-102.188,30.7085,286.813
2018-04-28 00:00:00,2018-04-28 00:00:00,TMP,surface,-101.25,30.7085,285.961
2018-04-28 00:00:00,2018-04-28 00:00:00,TMP,surface,-100.313,30.7085,285.087
2018-04-28 00:00:00,2018-04-28 00:00:00,TMP,surface,-99.3754,30.7085,284.69
2018-04-28 00:00:00,2018-04-28 00:00:00,TMP,surface,-98.4379,30.7085,284.751
2018-04-28 00:00:00,2018-04-28 00:00:00,TMP,surface,-97.5004,30.7085,285.06
2018-04-28 00:00:00,2018-04-28 00:00:00,TMP,surface,-96.5629,30.7085,285.468
2018-04-28 00:00:00,2018-04-28 00:00:00,TMP,surface,-95.6254,30.7085,285.965
2018-04-28 00:00:00,2018-04-28 00:00:00,TMP,surface,-94.6879,30.7085,286.447
2018-04-28 00:00:00,2018-04-28 00:00:00,TMP,surface,-93.7504,30.7085,286.617
2018-04-28 00:00:00,2018-04-28 00:00:00,TMP,surface,-92.8129,30.7085,286.452
2018-04-28 00:00:00,2018-04-28 00:00:00,TMP,surface,-107.813,31.6534,285.383
2018-04-28 00:00:00,2018-04-28 00:00:00,TMP,surface,-106.875,31.6534,285.436
2018-04-28 00:00:00,2018-04-28 00:00:00,TMP,surface,-105.938,31.6534,285.468
2018-04-28 00:00:00,2018-04-28 00:00:00,TMP,surface,-105,31.6534,285.197
2018-04-28 00:00:00,2018-04-28 00:00:00,TMP,surface,-104.063,31.6534,285.538
2018-04-28 00:00:00,2018-04-28 00:00:00,TMP,surface,-103.125,31.6534,285.732
2018-04-28 00:00:00,2018-04-28 00:00:00,TMP,surface,-102.188,31.6534,285.487
2018-04-28 00:00:00,2018-04-28 00:00:00,TMP,surface,-101.25,31.6534,284.777
2018-04-28 00:00:00,2018-04-28 00:00:00,TMP,surface,-100.313,31.6534,284.194
2018-04-28 00:00:00,2018-04-28 00:00:00,TMP,surface,-99.3754,31.6534,283.985
2018-04-28 00:00:00,2018-04-28 00:00:00,TMP,surface,-98.4379,31.6534,284.002
2018-04-28 00:00:00,2018-04-28 00:00:00,TMP,surface,-97.5004,31.6534,284.012
2018-04-28 00:00:00,2018-04-28 00:00:00,TMP,surface,-96.5629,31.6534,284.004
2018-04-28 00:00:00,2018-04-28 00:00:00,TMP,surface,-95.6254,31.6534,284.084
2018-04-28 00:00:00,2018-04-28 00:00:00,TMP,surface,-94.6879,31.6534,284.202
2018-04-28 00:00:00,2018-04-28 00:00:00,TMP,surface,-93.7504,31.6534,284.285
2018-04-28 00:00:00,2018-04-28 00:00:00,TMP,surface,-92.8129,31.6534,284.428
2018-04-28 00:00:00,2018-04-28 00:00:00,TMP,surface,-107.813,32.5983,282.745
2018-04-28 00:00:00,2018-04-28 00:00:00,TMP,surface,-106.875,32.5983,283.276
2018-04-28 00:00:00,2018-04-28 00:00:00,TMP,surface,-105.938,32.5983,283.26
2018-04-28 00:00:00,2018-04-28 00:00:00,TMP,surface,-105,32.5983,283.596
2018-04-28 00:00:00,2018-04-28 00:00:00,TMP,surface,-104.063,32.5983,283.962
2018-04-28 00:00:00,2018-04-28 00:00:00,TMP,surface,-103.125,32.5983,284.065
2018-04-28 00:00:00,2018-04-28 00:00:00,TMP,surface,-102.188,32.5983,283.801
2018-04-28 00:00:00,2018-04-28 00:00:00,TMP,surface,-101.25,32.5983,283.362
2018-04-28 00:00:00,2018-04-28 00:00:00,TMP,surface,-100.313,32.5983,283.247
2018-04-28 00:00:00,2018-04-28 00:00:00,TMP,surface,-99.3754,32.5983,283.324
2018-04-28 00:00:00,2018-04-28 00:00:00,TMP,surface,-98.4379,32.5983,283.226
2018-04-28 00:00:00,2018-04-28 00:00:00,TMP,surface,-97.5004,32.5983,282.986
2018-04-28 00:00:00,2018-04-28 00:00:00,TMP,surface,-96.5629,32.5983,282.802
2018-04-28 00:00:00,2018-04-28 00:00:00,TMP,surface,-95.6254,32.5983,282.671
2018-04-28 00:00:00,2018-04-28 00:00:00,TMP,surface,-94.6879,32.5983,282.575
2018-04-28 00:00:00,2018-04-28 00:00:00,TMP,surface,-93.7504,32.5983,282.703
2018-04-28 00:00:00,2018-04-28 00:00:00,TMP,surface,-92.8129,32.5983,283.14
2018-04-28 00:00:00,2018-04-28 00:00:00,TMP,surface,-107.813,33.5432,279.226
2018-04-28 00:00:00,2018-04-28 00:00:00,TMP,surface,-106.875,33.5432,280.693
2018-04-28 00:00:00,2018-04-28 00:00:00,TMP,surface,-105.938,33.5432,281.324
2018-04-28 00:00:00,2018-04-28 00:00:00,TMP,surface,-105,33.5432,281.978
2018-04-28 00:00:00,2018-04-28 00:00:00,TMP,surface,-104.063,33.5432,282.641
2018-04-28 00:00:00,2018-04-28 00:00:00,TMP,surface,-103.125,33.5432,282.468
2018-04-28 00:00:00,2018-04-28 00:00:00,TMP,surface,-102.188,33.5432,282.002
2018-04-28 00:00:00,2018-04-28 00:00:00,TMP,surface,-101.25,33.5432,281.642
2018-04-28 00:00:00,2018-04-28 00:00:00,TMP,surface,-100.313,33.5432,281.725
2018-04-28 00:00:00,2018-04-28 00:00:00,TMP,surface,-99.3754,33.5432,281.932
2018-04-28 00:00:00,2018-04-28 00:00:00,TMP,surface,-98.4379,33.5432,281.793
2018-04-28 00:00:00,2018-04-28 00:00:00,TMP,surface,-97.5004,33.5432,281.444
2018-04-28 00:00:00,2018-04-28 00:00:00,TMP,surface,-96.5629,33.5432,281.252
2018-04-28 00:00:00,2018-04-28 00:00:00,TMP,surface,-95.6254,33.5432,281.197
2018-04-28 00:00:00,2018-04-28 00:00:00,TMP,surface,-94.6879,33.5432,281.116
2018-04-28 00:00:00,2018-04-28 00:00:00,TMP,surface,-93.7504,33.5432,281.149
2018-04-28 00:00:00,2018-04-28 00:00:00,TMP,surface,-92.8129,33.5432,281.49
2018-04-28 00:00:00,2018-04-28 00:00:00,TMP,surface,-107.813,34.4881,276.937
2018-04-28 00:00:00,2018-04-28 00:00:00,TMP,surface,-106.875,34.4881,278.697
2018-04-28 00:00:00,2018-04-28 00:00:00,TMP,surface,-105.938,34.4881,279.703
2018-04-28 00:00:00,2018-04-28 00:00:00,TMP,surface,-105,34.4881,280.42
2018-04-28 00:00:00,2018-04-28 00:00:00,TMP,surface,-104.063,34.4881,281.004
2018-04-28 00:00:00,2018-04-28 00:00:00,TMP,surface,-103.125,34.4881,280.764
2018-04-28 00:00:00,2018-04-28 00:00:00,TMP,surface,-102.188,34.4881,280.266
2018-04-28 00:00:00,2018-04-28 00:00:00,TMP,surface,-101.25,34.4881,279.873
2018-04-28 00:00:00,2018-04-28 00:00:00,TMP,surface,-100.313,34.4881,279.837
2018-04-28 00:00:00,2018-04-28 00:00:00,TMP,surface,-99.3754,34.4881,279.925
2018-04-28 00:00:00,2018-04-28 00:00:00,TMP,surface,-98.4379,34.4881,279.788
2018-04-28 00:00:00,2018-04-28 00:00:00,TMP,surface,-97.5004,34.4881,279.545
2018-04-28 00:00:00,2018-04-28 00:00:00,TMP,surface,-96.5629,34.4881,279.5
2018-04-28 00:00:00,2018-04-28 00:00:00,TMP,surface,-95.6254,34.4881,279.569
2018-04-28 00:00:00,2018-04-28 00:00:00,TMP,surface,-94.6879,34.4881,279.463
2018-04-28 00:00:00,2018-04-28 00:00:00,TMP,surface,-93.7504,34.4881,279.305
2018-04-28 00:00:00,2018-04-28 00:00:00,TMP,surface,-92.8129,34.4881,279.525
2018-04-28 00:00:00,2018-04-28 00:00:00,TMP,surface,-107.813,35.4329,275.828
2018-04-28 00:00:00,2018-04-28 00:00:00,TMP,surface,-106.875,35.4329,276.735
2018-04-28 00:00:00,2018-04-28 00:00:00,TMP,surface,-105.938,35.4329,277.695
2018-04-28 00:00:00,2018-04-28 00:00:00,TMP,surface,-105,35.4329,278.162
2018-04-28 00:00:00,2018-04-28 00:00:00,TMP,surface,-104.063,35.4329,279.132
2018-04-28 00:00:00,2018-04-28 00:00:00,TMP,surface,-103.125,35.4329,279.327
2018-04-28 00:00:00,2018-04-28 00:00:00,TMP,surface,-102.188,35.4329,278.693
2018-04-28 00:00:00,2018-04-28 00:00:00,TMP,surface,-101.25,35.4329,278.058
2018-04-28 00:00:00,2018-04-28 00:00:00,TMP,surface,-100.313,35.4329,277.756
2018-04-28 00:00:00,2018-04-28 00:00:00,TMP,surface,-99.3754,35.4329,277.705
2018-04-28 00:00:00,2018-04-28 00:00:00,TMP,surface,-98.4379,35.4329,277.705
2018-04-28 00:00:00,2018-04-28 00:00:00,TMP,surface,-97.5004,35.4329,277.873
2018-04-28 00:00:00,2018-04-28 00:00:00,TMP,surface,-96.5629,35.4329,278.149
2018-04-28 00:00:00,2018-04-28 00:00:00,TMP,surface,-95.6254,35.4329,278.226
2018-04-28 00:00:00,2018-04-28 00:00:00,TMP,surface,-94.6879,35.4329,278.007
2018-04-28 00:00:00,2018-04-28 00:00:00,TMP,surface,-93.7504,35.4329,277.681
2018-04-28 00:00:00,2018-04-28 00:00:00,TMP,surface,-92.8129,35.4329,277.658
2018-04-28 00:00:00,2018-04-28 00:00:00,TMP,surface,-107.813,36.3778,274.137
2018-04-28 00:00:00,2018-04-28 00:00:00,TMP,surface,-106.875,36.3778,272.938
2018-04-28 00:00:00,2018-04-28 00:00:00,TMP,surface,-105.938,36.3778,274.14
2018-04-28 00:00:00,2018-04-28 00:00:00,TMP,surface,-105,36.3778,275.065
2018-04-28 00:00:00,2018-04-28 00:00:00,TMP,surface,-104.063,36.3778,276.237
2018-04-28 00:00:00,2018-04-28 00:00:00,TMP,surface,-103.125,36.3778,276.674
2018-04-28 00:00:00,2018-04-28 00:00:00,TMP,surface,-102.188,36.3778,276.533
2018-04-28 00:00:00,2018-04-28 00:00:00,TMP,surface,-101.25,36.3778,276.274
2018-04-28 00:00:00,2018-04-28 00:00:00,TMP,surface,-100.313,36.3778,276.241
2018-04-28 00:00:00,2018-04-28 00:00:00,TMP,surface,-99.3754,36.3778,276.322
2018-04-28 00:00:00,2018-04-28 00:00:00,TMP,surface,-98.4379,36.3778,276.229
2018-04-28 00:00:00,2018-04-28 00:00:00,TMP,surface,-97.5004,36.3778,276.404
2018-04-28 00:00:00,2018-04-28 00:00:00,TMP,surface,-96.5629,36.3778,276.831
2018-04-28 00:00:00,2018-04-28 00:00:00,TMP,surface,-95.6254,36.3778,276.959
2018-04-28 00:00:00,2018-04-28 00:00:00,TMP,surface,-94.6879,36.3778,276.698
2018-04-28 00:00:00,2018-04-28 00:00:00,TMP,surface,-93.7504,36.3778,276.321
2018-04-28 00:00:00,2018-04-28 00:00:00,TMP,surface,-92.8129,36.3778,276.239
2018-04-28 00:00:00,2018-04-28 00:00:00,PRATE,surface,-107.813,25.0393,6.8e-06
2018-04-28 00:00:00,2018-04-28 00:00:00,PRATE,surface,-106.875,25.0393,4.7e-06
2018-04-28 00:00:00,2018-04-28 00:00:00,PRATE,surface,-105.938,25.0393,5.1e-06
2018-04-28 00:00:00,2018-04-28 00:00:00,PRATE,surface,-105,25.0393,2.2e-06
2018-04-28 00:00:00,2018-04-28 00:00:00,PRATE,surface,-104.063,25.0393,1.4e-06
2018-04-28 00:00:00,2018-04-28 00:00:00,PRATE,surface,-103.125,25.0393,9e-07
2018-04-28 00:00:00,2018-04-28 00:00:00,PRATE,surface,-102.188,25.0393,1.2e-06
2018-04-28 00:00:00,2018-04-28 00:00:00,PRATE,surface,-101.25,25.0393,4.5e-06
2018-04-28 00:00:00,2018-04-28 00:00:00,PRATE,surface,-100.313,25.0393,4.3e-06
2018-04-28 00:00:00,2018-04-28 00:00:00,PRATE,surface,-99.3754,25.0393,1.52e-05
2018-04-28 00:00:00,2018-04-28 00:00:00,PRATE,surface,-98.4379,25.0393,1.56e-05
2018-04-28 00:00:00,2018-04-28 00:00:00,PRATE,surface,-97.5004,25.0393,2.54e-05
2018-04-28 00:00:00,2018-04-28 00:00:00,PRATE,surface,-96.5629,25.0393,4.06e-05
2018-04-28 00:00:00,2018-04-28 00:00:00,PRATE,surface,-95.6254,25.0393,5.56e-05
2018-04-28 00:00:00,2018-04-28 00:00:00,PRATE,surface,-94.6879,25.0393,3.93e-05
2018-04-28 00:00:00,2018-04-28 00:00:00,PRATE,surface,-93.7504,25.0393,1.98e-05
2018-04-28 00:00:00,2018-04-28 00:00:00,PRATE,surface,-92.8129,25.0393,2.33e-05
2018-04-28 00:00:00,2018-04-28 00:00:00,PRATE,surface,-107.813,25.9842,1.5e-05
2018-04-28 00:00:00,2018-04-28 00:00:00,PRATE,surface,-106.875,25.9842,1.06e-05
2018-04-28 00:00:00,2018-04-28 00:00:00,PRATE,surface,-105.938,25.9842,5e-06
2018-04-28 00:00:00,2018-04-28 00:00:00,PRATE,surface,-105,25.9842,2.3e-06
2018-04-28 00:00:00,2018-04-28 00:00:00,PRATE,surface,-104.063,25.9842,9e-07
2018-04-28 00:00:00,2018-04-28 00:00:00,PRATE,surface,-103.125,25.9842,8e-07
2018-04-28 00:00:00,2018-04-28 00:00:00,PRATE,surface,-102.188,25.9842,8e-07
2018-04-28 00:00:00,2018-04-28 00:00:00,PRATE,surface,-101.25,25.9842,1.4e-06
2018-04-28 00:00:00,2018-04-28 00:00:00,PRATE,surface,-100.313,25.9842,3.7e-06
2018-04-28 00:00:00,2018-04-28 00:00:00,PRATE,surface,-99.3754,25.9842,1.35e-05
2018-04-28 00:00:00,2018-04-28 00:00:00,PRATE,surface,-98.4379,25.9842,1.21e-05
2018-04-28 00:00:00,2018-04-28 00:00:00,PRATE,surface,-97.5004,25.9842,1.93e-05
2018-04-28 00:00:00,2018-04-28 00:00:00,PRATE,surface,-96.5629,25.9842,8.39e-05
2018-04-28 00:00:00,2018-04-28 00:00:00,PRATE,surface,-95.6254,25.9842,9.32e-05
2018-04-28 00:00:00,2018-04-28 00:00:00,PRATE,surface,-94.6879,25.9842,4.94e-05
2018-04-28 00:00:00,2018-04-28 00:00:00,PRATE,surface,-93.7504,25.9842,3.2e-05
2018-04-28 00:00:00,2018-04-28 00:00:00,PRATE,surface,-92.8129,25.9842,2.17e-05
2018-04-28 00:00:00,2018-04-28 00:00:00,PRATE,surface,-107.813,26.929,2.22e-05
2018-04-28 00:00:00,2018-04-28 00:00:00,PRATE,surface,-106.875,26.929,1.24e-05
2018-04-28 00:00:00,2018-04-28 00:00:00,PRATE,surface,-105.938,26.929,4.1e-06
2018-04-28 00:00:00,2018-04-28 00:00:00,PRATE,surface,-105,26.929,2e-06
2018-04-28 00:00:00,2018-04-28 00:00:00,PRATE,surface,-104.063,26.929,1.5e-06
2018-04-28 00:00:00,2018-04-28 00:00:00,PRATE,surface,-103.125,26.929,9e-07
2018-04-28 00:00:00,2018-04-28 00:00:00,PRATE,surface,-102.188,26.929,2.1e-06
2018-04-28 00:00:00,2018-04-28 00:00:00,PRATE,surface,-101.25,26.929,2.7e-06
2018-04-28 00:00:00,2018-04-28 00:00:00,PRATE,surface,-100.313,26.929,6.6e-06
2018-04-28 00:00:00,2018-04-28 00:00:00,PRATE,surface,-99.3754,26.929,1.07e-05
2018-04-28 00:00:00,2018-04-28 00:00:00,PRATE,surface,-98.4379,26.929,1.24e-05
2018-04-28 00:00:00,2018-04-28 00:00:00,PRATE,surface,-97.5004,26.929,2.75e-05
2018-04-28 00:00:00,2018-04-28 00:00:00,PRATE,surface,-96.5629,26.929,6.22e-05
2018-04-28 00:00:00,2018-04-28 00:00:00,PRATE,surface,-95.6254,26.929,4.98e-05
2018-04-28 00:00:00,2018-04-28 00:00:00,PRATE,surface,-94.6879,26.929,6.08e-05
2018-04-28 00:00:00,2018-04-28 00:00:00,PRATE,surface,-93.7504,26.929,4.45e-05
2018-04-28 00:00:00,2018-04-28 00:00:00,PRATE,surface,-92.8129,26.929,2.98e-05
2018-04-28 00:00:00,2018-04-28 00:00:00,PRATE,surface,-107.813,27.8739,2.76e-05
2018-04-28 00:00:00,2018-04-28 00:00:00,PRATE,surface,-106.875,27.8739,1.32e-05
2018-04-28 00:00:00,2018-04-28 00:00:00,PRATE,surface,-105.938,27.8739,4.8e-06
2018-04-28 00:00:00,2018-04-28 00:00:00,PRATE,surface,-105,27.8739,1.4e-06
2018-04-28 00:00:00,2018-04-28 00:00:00,PRATE,surface,-104.063,27.8739,3e-06
2018-04-28 00:00:00,2018-04-28 00:00:00,PRATE,surface,-103.125,27.8739,6.3e-06
2018-04-28 00:00:00,2018-04-28 00:00:00,PRATE,surface,-102.188,27.8739,8.6e-06
2018-04-28 00:00:00,2018-04-28 00:00:00,PRATE,surface,-101.25,27.8739,1.32e-05
2018-04-28 00:00:00,2018-04-28 00:00:00,PRATE,surface,-100.313,27.8739,1.77e-05
2018-04-28 00:00:00,2018-04-28 00:00:00,PRATE,surface,-99.3754,27.8739,2.11e-05
2018-04-28 00:00:00,2018-04-28 00:00:00,PRATE,surface,-98.4379,27.8739,2.43e-05
2018-04-28 00:00:00,2018-04-28 00:00:00,PRATE,surface,-97.5004,27.8739,3.22e-05
2018-04-28 00:00:00,2018-04-28 00:00:00,PRATE,surface,-96.5629,27.8739,3.77e-05
2018-04-28 00:00:00,2018-04-28 00:00:00,PRATE,surface,-95.6254,27.8739,4.05e-05
2018-04-28 00:00:00,2018-04-28 00:00:00,PRATE,surface,-94.6879,27.8739,5.1e-05
2018-04-28 00:00:00,2018-04-28 00:00:00,PRATE,surface,-93.7504,27.8739,6.07e-05
2018-04-28 00:00:00,2018-04-28 00:00:00,PRATE,surface,-92.8129,27.8739,6.14e-05
2018-04-28 00:00:00,2018-04-28 00:00:00,PRATE,surface,-107.813,28.8188,1.66e-05
2018-04-28 00:00:00,2018-04-28 00:00:00,PRATE,surface,-106.875,28.8188,1.12e-05
2018-04-28 00:00:00,2018-04-28 00:00:00,PRATE,surface,-105.938,28.8188,6.4e-06
2018-04-28 00:00:00,2018-04-28 00:00:00,PRATE,surface,-105,28.8188,4.8e-06
2018-04-28 00:00:00,2018-04-28 00:00:00,PRATE,surface,-104.063,28.8188,7.5e-06
2018-04-28 00:00:00,2018-04-28 00:00:00,PRATE,surface,-103.125,28.8188,8.8e-06
2018-04-28 00:00:00,2018-04-28 00:00:00,PRATE,surface,-102.188,28.8188,1.34e-05
2018-04-28 00:00:00,2018-04-28 00:00:00,PRATE,surface,-101.25,28.8188,2.03e-05
2018-04-28 00:00:00,2018-04-28 00:00:00,PRATE,surface,-100.313,28.8188,2.56e-05
2018-04-28 00:00:00,2018-04-28 00:00:00,PRATE,surface,-99.3754,28.8188,2.67e-05
2018-04-28 00:00:00,2018-04-28 00:00:00,PRATE,surface,-98.4379,28.8188,2.11e-05
2018-04-28 00:00:00,2018-04-28 00:00:00,PRATE,surface,-97.5004,28.8188,2.77e-05
2018-04-28 00:00:00,2018-04-28 00:00:00,PRATE,surface,-96.5629,28.8188,4.16e-05
2018-04-28 00:00:00,2018-04-28 00:00:00,PRATE,surface,-95.6254,28.8188,5.23e-05
2018-04-28 00:00:00,2018-04-28 00:00:00,PRATE,surface,-94.6879,28.8188,6.51e-05
2018-04-28 00:00:00,2018-04-28 00:00:00,PRATE,surface,-93.7504,28.8188,6.76e-05
2018-04-28 00:00:00,2018-04-28 00:00:00,PRATE,surface,-92.8129,28.8188,6.83e-05
2018-04-28 00:00:00,2018-04-28 00:00:00,PRATE,surface,-107.813,29.7637,4.7e-06
2018-04-28 00:00:00,2018-04-28 00:00:00,PRATE,surface,-106.875,29.7637,3.8e-06
2018-04-28 00:00:00,2018-04-28 00:00:00,PRATE,surface,-105.938,29.7637,3.6e-06
2018-04-28 00:00:00,2018-04-28 00:00:00,PRATE,surface,-105,29.7637,4.5e-06
2018-04-28 00:00:00,2018-04-28 00:00:00,PRATE,surface,-104.063,29.7637,5.9e-06
2018-04-28 00:00:00,2018-04-28 00:00:00,PRATE,surface,-103.125,29.7637,7.2e-06
2018-04-28 00:00:00,2018-04-28 00:00:00,PRATE,surface,-102.188,29.7637,7.8e-06
2018-04-28 00:00:00,2018-04-28 00:00:00,PRATE,surface,-101.25,29.7637,1.25e-05
2018-04-28 00:00:00,2018-04-28 00:00:00,PRATE,surface,-100.313,29.7637,2.06e-05
2018-04-28 00:00:00,2018-04-28 00:00:00,PRATE,surface,-99.3754,29.7637,2.16e-05
2018-04-28 00:00:00,2018-04-28 00:00:00,PRATE,surface,-98.4379,29.7637,1.85e-05
2018-04-28 00:00:00,2018-04-28 00:00:00,PRATE,surface,-97.5004,29.7637,2.02e-05
2018-04-28 00:00:00,2018-04-28 00:00:00,PRATE,surface,-96.5629,29.7637,3.4e-05
2018-04-28 00:00:00,2018-04-28 00:00:00,PRATE,surface,-95.6254,29.7637,5.46e-05
2018-04-28 00:00:00,2018-04-28 00:00:00,PRATE,surface,-94.6879,29.7637,6.97e-05
2018-04-28 00:00:00,2018-04-28 00:00:00,PRATE,surface,-93.7504,29.7637,7.36e-05
2018-04-28 00:00:00,2018-04-28 00:00:00,PRATE,surface,-92.8129,29.7637,5.92e-05
2018-04-28 00:00:00,2018-04-28 00:00:00,PRATE,surface,-107.813,30.7085,1.3e-06
2018-04-28 00:00:00,2018-04-28 00:00:00,PRATE,surface,-106.875,30.7085,9e-07
2018-04-28 00:00:00,2018-04-28 00:00:00,PRATE,surface,-105.938,30.7085,9e-07
2018-04-28 00:00:00,2018-04-28 00:00:00,PRATE,surface,-105,30.7085,9e-07
2018-04-28 00:00:00,2018-04-28 00:00:00,PRATE,surface,-104.063,30.7085,1.1e-06
2018-04-28 00:00:00,2018-04-28 00:00:00,PRATE,surface,-103.125,30.7085,2.2e-06
2018-04-28 00:00:00,2018-04-28 00:00:00,PRATE,surface,-102.188,30.7085,4.7e-06
2018-04-28 00:00:00,2018-04-28 00:00:00,PRATE,surface,-101.25,30.7085,1.07e-05
2018-04-28 00:00:00,2018-04-28 00:00:00,PRATE,surface,-100.313,30.7085,1.86e-05
2018-04-28 00:00:00,2018-04-28 00:00:00,PRATE,surface,-99.3754,30.7085,2.59e-05
2018-04-28 00:00:00,2018-04-28 00:00:00,PRATE,surface,-98.4379,30.7085,2.81e-05
2018-04-28 00:00:00,2018-04-28 00:00:00,PRATE,surface,-97.5004,30.7085,2.67e-05
2018-04-28 00:00:00,2018-04-28 00:00:00,PRATE,surface,-96.5629,30.7085,3e-05
2018-04-28 00:00:00,2018-04-28 00:00:00,PRATE,surface,-95.6254,30.7085,4.29e-05
2018-04-28 00:00:00,2018-04-28 00:00:00,PRATE,surface,-94.6879,30.7085,5.8e-05
2018-04-28 00:00:00,2018-04-28 00:00:00,PRATE,surface,-93.7504,30.7085,6.68e-05
2018-04-28 00:00:00,2018-04-28 00:00:00,PRATE,surface,-92.8129,30.7085,6.93e-05
2018-04-28 00:00:00,2018-04-28 00:00:00,PRATE,surface,-107.813,31.6534,1.5e-06
2018-04-28 00:00:00,2018-04-28 00:00:00,PRATE,surface,-106.875,31.6534,9e-07
2018-04-28 00:00:00,2018-04-28 00:00:00,PRATE,surface,-105.938,31.6534,6e-07
2018-04-28 00:00:00,2018-04-28 00:00:00,PRATE,surface,-105,31.6534,3e-07
2018-04-28 00:00:00,2018-04-28 00:00:00,PRATE,surface,-104.063,31.6534,3e-07
2018-04-28 00:00:00,2018-04-28 00:00:00,PRATE,surface,-103.125,31.6534,4e-07
2018-04-28 00:00:00,2018-04-28 00:00:00,PRATE,surface,-102.188,31.6534,1.7e-06
2018-04-28 00:00:00,2018-04-28 00:00:00,PRATE,surface,-101.25,31.6534,6e-06
2018-04-28 00:00:00,2018-04-28 00:00:00,PRATE,surface,-100.313,31.6534,1.27e-05
2018-04-28 00:00:00,2018-04-28 00:00:00,PRATE,surface,-99.3754,31.6534,2.04e-05
2018-04-28 00:00:00,2018-04-28 00:00:00,PRATE,surface,-98.4379,31.6534,3.08e-05
2018-04-28 00:00:00,2018-04-28 00:00:00,PRATE,surface,-97.5004,31.6534,3.75e-05
2018-04-28 00:00:00,2018-04-28 00:00:00,PRATE,surface,-96.5629,31.6534,3.84e-05
2018-04-28 00:00:00,2018-04-28 00:00:00,PRATE,surface,-95.6254,31.6534,4.2e-05
2018-04-28 00:00:00,2018-04-28 00:00:00,PRATE,surface,-94.6879,31.6534,5.15e-05
2018-04-28 00:00:00,2018-04-28 00:00:00,PRATE,surface,-93.7504,31.6534,6.22e-05
2018-04-28 00:00:00,2018-04-28 00:00:00,PRATE,surface,-92.8129,31.6534,6.98e-05
2018-04-28 00:00:00,2018-04-28 00:00:00,PRATE,surface,-107.813,32.5983,2.8e-06
2018-04-28 00:00:00,2018-04-28 00:00:00,PRATE,surface,-106.875,32.5983,1.9e-06
2018-04-28 00:00:00,2018-04-28 00:00:00,PRATE,surface,-105.938,32.5983,1.1e-06
2018-04-28 00:00:00,2018-04-28 00:00:00,PRATE,surface,-105,32.5983,6e-07
2018-04-28 00:00:00,2018-04-28 00:00:00,PRATE,surface,-104.063,32.5983,4e-07
2018-04-28 00:00:00,2018-04-28 00:00:00,PRATE,surface,-103.125,32.5983,5e-07
2018-04-28 00:00:00,2018-04-28 00:00:00,PRATE,surface,-102.188,32.5983,8e-07
2018-04-28 00:00:00,2018-04-28 00:00:00,PRATE,surface,-101.25,32.5983,2.5e-06
2018-04-28 00:00:00,2018-04-28 00:00:00,PRATE,surface,-100.313,32.5983,5.3e-06
2018-04-28 00:00:00,2018-04-28 00:00:00,PRATE,surface,-99.3754,32.5983,9.4e-06
2018-04-28 00:00:00,2018-04-28 00:00:00,PRATE,surface,-98.4379,32.5983,1.8e-05
2018-04-28 00:00:00,2018-04-28 00:00:00,PRATE,surface,-97.5004,32.5983,3.09e-05
2018-04-28 00:00:00,2018-04-28 00:00:00,PRATE,surface,-96.5629,32.5983,4.43e-05
2018-04-28 00:00:00,2018-04-28 00:00:00,PRATE,surface,-95.6254,32.5983,5.46e-05
2018-04-28 00:00:00,2018-04-28 00:00:00,PRATE,surface,-94.6879,32.5983,6.07e-05
2018-04-28 00:00:00,2018-04-28 00:00:00,PRATE,surface,-93.7504,32.5983,6.18e-05
2018-04-28 00:00:00,2018-04-28 00:00:00,PRATE,surface,-92.8129,32.5983,6.05e-05
2018-04-28 00:00:00,2018-04-28 00:00:00,PRATE,surface,-107.813,33.5432,4.5e-06
2018-04-28 00:00:00,2018-04-28 00:00:00,PRATE,surface,-106.875,33.5432,2.8e-06
2018-04-28 00:00:00,2018-04-28 00:00:00,PRATE,surface,-105.938,33.5432,1.8e-06
2018-04-28 00:00:00,2018-04-28 00:00:00,PRATE,surface,-105,33.5432,1.3e-06
2018-04-28 00:00:00,2018-04-28 00:00:00,PRATE,surface,-104.063,33.5432,1e-06
2018-04-28 00:00:00,2018-04-28 00:00:00,PRATE,surface,-103.125,33.5432,8e-07
2018-04-28 00:00:00,2018-04-28 00:00:00,PRATE,surface,-102.188,33.5432,1.1e-06
2018-04-28 00:00:00,2018-04-28 00:00:00,PRATE,surface,-101.25,33.5432,2e-06
2018-04-28 00:00:00,2018-04-28 00:00:00,PRATE,surface,-100.313,33.5432,2.9e-06
2018-04-28 00:00:00,2018-04-28 00:00:00,PRATE,surface,-99.3754,33.5432,4.7e-06
2018-04-28 00:00:00,2018-04-28 00:00:00,PRATE,surface,-98.4379,33.5432,9.5e-06
2018-04-28 00:00:00,2018-04-28 00:00:00,PRATE,surface,-97.5004,33.5432,1.76e-05
2018-04-28 00:00:00,2018-04-28 00:00:00,PRATE,surface,-96.5629,33.5432,2.82e-05
2018-04-28 00:00:00,2018-04-28 00:00:00,PRATE,surface,-95.6254,33.5432,4.26e-05
2018-04-28 00:00:00,2018-04-28 00:00:00,PRATE,surface,-94.6879,33.5432,5.99e-05
2018-04-28 00:00:00,2018-04-28 00:00:00,PRATE,surface,-93.7504,33.5432,7.11e-05
2018-04-28 00:00:00,2018-04-28 00:00:00,PRATE,surface,-92.8129,33.5432,6.93e-05
2018-04-28 00:00:00,2018-04-28 00:00:00,PRATE,surface,-107.813,34.4881,6.1e-06
2018-04-28 00:00:00,2018-04-28 00:00:00,PRATE,surface,-106.875,34.4881,3.8e-06
2018-04-28 00:00:00,2018-04-28 00:00:00,PRATE,surface,-105.938,34.4881,2.2e-06
2018-04-28 00:00:00,2018-04-28 00:00:00,PRATE,surface,-105,34.4881,1.8e-06
2018-04-28 00:00:00,2018-04-28 00:00:00,PRATE,surface,-104.063,34.4881,1.1e-06
2018-04-28 00:00:00,2018-04-28 00:00:00,PRATE,surface,-103.125,34.4881,1.4e-06
2018-04-28 00:00:00,2018-04-28 00:00:00,PRATE,surface,-102.188,34.4881,2.9e-06
2018-04-28 00:00:00,2018-04-28 00:00:00,PRATE,surface,-101.25,34.4881,4.2e-06
2018-04-28 00:00:00,2018-04-28 00:00:00,PRATE,surface,-100.313,34.4881,4.3e-06
2018-04-28 00:00:00,2018-04-28 00:00:00,PRATE,surface,-99.3754,34.4881,5e-06
2018-04-28 00:00:00,2018-04-28 00:00:00,PRATE,surface,-98.4379,34.4881,7.4e-06
2018-04-28 00:00:00,2018-04-28 00:00:00,PRATE,surface,-97.5004,34.4881,1.37e-05
2018-04-28 00:00:00,2018-04-28 00:00:00,PRATE,surface,-96.5629,34.4881,2.26e-05
2018-04-28 00:00:00,2018-04-28 00:00:00,PRATE,surface,-95.6254,34.4881,3.41e-05
2018-04-28 00:00:00,2018-04-28 00:00:00,PRATE,surface,-94.6879,34.4881,5.02e-05
2018-04-28 00:00:00,2018-04-28 00:00:00,PRATE,surface,-93.7504,34.4881,6.58e-05
2018-04-28 00:00:00,2018-04-28 00:00:00,PRATE,surface,-92.8129,34.4881,7.56e-05
2018-04-28 00:00:00,2018-04-28 00:00:00,PRATE,surface,-107.813,35.4329,1.1e-05
2018-04-28 00:00:00,2018-04-28 00:00:00,PRATE,surface,-106.875,35.4329,7.5e-06
2018-04-28 00:00:00,2018-04-28 00:00:00,PRATE,surface,-105.938,35.4329,4.6e-06
2018-04-28 00:00:00,2018-04-28 00:00:00,PRATE,surface,-105,35.4329,2.2e-06
2018-04-28 00:00:00,2018-04-28 00:00:00,PRATE,surface,-104.063,35.4329,2.5e-06
2018-04-28 00:00:00,2018-04-28 00:00:00,PRATE,surface,-103.125,35.4329,4.1e-06
2018-04-28 00:00:00,2018-04-28 00:00:00,PRATE,surface,-102.188,35.4329,6.2e-06
2018-04-28 00:00:00,2018-04-28 00:00:00,PRATE,surface,-101.25,35.4329,6.8e-06
2018-04-28 00:00:00,2018-04-28 00:00:00,PRATE,surface,-100.313,35.4329,6.9e-06
2018-04-28 00:00:00,2018-04-28 00:00:00,PRATE,surface,-99.3754,35.4329,8.4e-06
2018-04-28 00:00:00,2018-04-28 00:00:00,PRATE,surface,-98.4379,35.4329,1.25e-05
2018-04-28 00:00:00,2018-04-28 00:00:00,PRATE,surface,-97.5004,35.4329,1.74e-05
2018-04-28 00:00:00,2018-04-28 00:00:00,PRATE,surface,-96.5629,35.4329,2.18e-05
2018-04-28 00:00:00,2018-04-28 00:00:00,PRATE,surface,-95.6254,35.4329,2.89e-05
2018-04-28 00:00:00,2018-04-28 00:00:00,PRATE,surface,-94.6879,35.4329,4.16e-05
2018-04-28 00:00:00,2018-04-28 00:00:00,PRATE,surface,-93.7504,35.4329,5.68e-05
2018-04-28 00:00:00,2018-04-28 00:00:00,PRATE,surface,-92.8129,35.4329,6.95e-05
2018-04-28 00:00:00,2018-04-28 00:00:00,PRATE,surface,-107.813,36.3778,2.1e-05
2018-04-28 00:00:00,2018-04-28 00:00:00,PRATE,surface,-106.875,36.3778,1.96e-05
2018-04-28 00:00:00,2018-04-28 00:00:00,PRATE,surface,-105.938,36.3778,1.11e-05
2018-04-28 00:00:00,2018-04-28 00:00:00,PRATE,surface,-105,36.3778,7.3e-06
2018-04-28 00:00:00,2018-04-28 00:00:00,PRATE,surface,-104.063,36.3778,8.5e-06
2018-04-28 00:00:00,2018-04-28 00:00:00,PRATE,surface,-103.125,36.3778,1.02e-05
2018-04-28 00:00:00,2018-04-28 00:00:00,PRATE,surface,-102.188,36.3778,1.01e-05
2018-04-28 00:00:00,2018-04-28 00:00:00,PRATE,surface,-101.25,36.3778,1.05e-05
2018-04-28 00:00:00,2018-04-28 00:00:00,PRATE,surface,-100.313,36.3778,1.22e-05
2018-04-28 00:00:00,2018-04-28 00:00:00,PRATE,surface,-99.3754,36.3778,1.46e-05
2018-04-28 00:00:00,2018-04-28 00:00:00,PRATE,surface,-98.4379,36.3778,1.97e-05
2018-04-28 00:00:00,2018-04-28 00:00:00,PRATE,surface,-97.5004,36.3778,2.42e-05
2018-04-28 00:00:00,2018-04-28 00:00:00,PRATE,surface,-96.5629,36.3778,2.58e-05
2018-04-28 00:00:00,2018-04-28 00:00:00,PRATE,surface,-95.6254,36.3778,2.72e-05
2018-04-28 00:00:00,2018-04-28 00:00:00,PRATE,surface,-94.6879,36.3778,3.33e-05
2018-04-28 00:00:00,2018-04-28 00:00:00,PRATE,surface,-93.7504,36.3778,4.67e-05
2018-04-28 00:00:00,2018-04-28 00:00:00,PRATE,surface,-92.8129,36.3778,6.26e-05
