2013-07-01 00:00:00,2013-07-01 00:00:00,TMP,surface,-107.813,25.0393,302.491
2013-07-01 00:00:00,2013-07-01 00:00:00,TMP,surface,-106.875,25.0393,295.857
2013-07-01 00:00:00,2013-07-01 00:00:00,TMP,surface,-105.938,25.0393,292.558
2013-07-01 00:00:00,2013-07-01 00:00:00,TMP,surface,-105,25.0393,291.627
2013-07-01 00:00:00,2013-07-01 00:00:00,TMP,surface,-104.063,25.0393,296.088
2013-07-01 00:00:00,2013-07-01 00:00:00,TMP,surface,-103.125,25.0393,298.798
2013-07-01 00:00:00,2013-07-01 00:00:00,TMP,surface,-102.188,25.0393,297.409
2013-07-01 00:00:00,2013-07-01 00:00:00,TMP,surface,-101.25,25.0393,294.427
2013-07-01 00:00:00,2013-07-01 00:00:00,TMP,surface,-100.313,25.0393,294.769
2013-07-01 00:00:00,2013-07-01 00:00:00,TMP,surface,-99.3754,25.0393,299.313
2013-07-01 00:00:00,2013-07-01 00:00:00,TMP,surface,-98.4379,25.0393,302.753
2013-07-01 00:00:00,2013-07-01 00:00:00,TMP,surface,-97.5004,25.0393,302.427
2013-07-01 00:00:00,2013-07-01 00:00:00,TMP,surface,-96.5629,25.0393,302.712
2013-07-01 00:00:00,2013-07-01 00:00:00,TMP,surface,-95.6254,25.0393,303.096
2013-07-01 00:00:00,2013-07-01 00:00:00,TMP,surface,-94.6879,25.0393,303.326
2013-07-01 00:00:00,2013-07-01 00:00:00,TMP,surface,-93.7504,25.0393,303.323
2013-07-01 00:00:00,2013-07-01 00:00:00,TMP,surface,-92.8129,25.0393,303.32
2013-07-01 00:00:00,2013-07-01 00:00:00,TMP,surface,-107.813,25.9842,298.5
2013-07-01 00:00:00,2013-07-01 00:00:00,TMP,surface,-106.875,25.9842,292.987
2013-07-01 00:00:00,2013-07-01 00:00:00,TMP,surface,-105.938,25.9842,292.35
2013-07-01 00:00:00,2013-07-01 00:00:00,TMP,surface,-105,25.9842,294.92
2013-07-01 00:00:00,2013-07-01 00:00:00,TMP,surface,-104.063,25.9842,300.158
2013-07-01 00:00:00,2013-07-01 00:00:00,TMP,surface,-103.125,25.9842,301.361
2013-07-01 00:00:00,2013-07-01 00:00:00,TMP,surface,-102.188,25.9842,299.537
2013-07-01 00:00:00,2013-07-01 00:00:00,TMP,surface,-101.25,25.9842,298.062
2013-07-01 00:00:00,2013-07-01 00:00:00,TMP,surface,-100.313,25.9842,299.39
2013-07-01 00:00:00,2013-07-01 00:00:00,TMP,surface,-99.3754,25.9842,303.028
2013-07-01 00:00:00,2013-07-01 00:00:00,TMP,surface,-98.4379,25.9842,304.273
2013-07-01 00:00:00,2013-07-01 00:00:00,TMP,surface,-97.5004,25.9842,302.907
2013-07-01 00:00:00,2013-07-01 00:00:00,TMP,surface,-96.5629,25.9842,302.011
2013-07-01 00:00:00,2013-07-01 00:00:00,TMP,surface,-95.6254,25.9842,302.913
2013-07-01 00:00:00,2013-07-01 00:00:00,TMP,surface,-94.6879,25.9842,303.246
2013-07-01 00:00:00,2013-07-01 00:00:00,TMP,surface,-93.7504,25.9842,303.416
2013-07-01 00:00:00,2013-07-01 00:00:00,TMP,surface,-92.8129,25.9842,303.492
2013-07-01 00:00:00,2013-07-01 00:00:00,TMP,surface,-107.813,26.929,294.478
2013-07-01 00:00:00,2013-07-01 00:00:00,TMP,surface,-106.875,26.929,292.289
2013-07-01 00:00:00,2013-07-01 00:00:00,TMP,surface,-105.938,26.929,294.299
2013-07-01 00:00:00,2013-07-01 00:00:00,TMP,surface,-105,26.929,299.352
2013-07-01 00:00:00,2013-07-01 00:00:00,TMP,surface,-104.063,26.929,301.838
2013-07-01 00:00:00,2013-07-01 00:00:00,TMP,surface,-103.125,26.929,300.878
2013-07-01 00:00:00,2013-07-01 00:00:00,TMP,surface,-102.188,26.929,299.457
2013-07-01 00:00:00,2013-07-01 00:00:00,TMP,surface,-101.25,26.929,300.475
2013-07-01 00:00:00,2013-07-01 00:00:00,TMP,surface,-100.313,26.929,303.422
2013-07-01 00:00:00,2013-07-01 00:00:00,TMP,surface,-99.3754,26.929,305.262
2013-07-01 00:00:00,2013-07-01 00:00:00,TMP,surface,-98.4379,26.929,303.848
2013-07-01 00:00:00,2013-07-01 00:00:00,TMP,surface,-97.5004,26.929,300.126
2013-07-01 00:00:00,2013-07-01 00:00:00,TMP,surface,-96.5629,26.929,301.032
2013-07-01 00:00:00,2013-07-01 00:00:00,TMP,surface,-95.6254,26.929,302.539
2013-07-01 00:00:00,2013-07-01 00:00:00,TMP,surface,-94.6879,26.929,303.259
2013-07-01 00:00:00,2013-07-01 00:00:00,TMP,surface,-93.7504,26.929,303.464
2013-07-01 00:00:00,2013-07-01 00:00:00,TMP,surface,-92.8129,26.929,303.499
2013-07-01 00:00:00,2013-07-01 00:00:00,TMP,surface,-107.813,27.8739,292.987
2013-07-01 00:00:00,2013-07-01 00:00:00,TMP,surface,-106.875,27.8739,292.718
2013-07-01 00:00:00,2013-07-01 00:00:00,TMP,surface,-105.938,27.8739,297.115
2013-07-01 00:00:00,2013-07-01 00:00:00,TMP,surface,-105,27.8739,301.47
2013-07-01 00:00:00,2013-07-01 00:00:00,TMP,surface,-104.063,27.8739,301.595
2013-07-01 00:00:00,2013-07-01 00:00:00,TMP,surface,-103.125,27.8739,299.441
2013-07-01 00:00:00,2013-07-01 00:00:00,TMP,surface,-102.188,27.8739,298.772
2013-07-01 00:00:00,2013-07-01 00:00:00,TMP,surface,-101.25,27.8739,301.576
2013-07-01 00:00:00,2013-07-01 00:00:00,TMP,surface,-100.313,27.8739,304.299
2013-07-01 00:00:00,2013-07-01 00:00:00,TMP,surface,-99.3754,27.8739,304.529
2013-07-01 00:00:00,2013-07-01 00:00:00,TMP,surface,-98.4379,27.8739,302.952
2013-07-01 00:00:00,2013-07-01 00:00:00,TMP,surface,-97.5004,27.8739,301.736
2013-07-01 00:00:00,2013-07-01 00:00:00,TMP,surface,-96.5629,27.8739,301.745
2013-07-01 00:00:00,2013-07-01 00:00:00,TMP,surface,-95.6254,27.8739,302.392
2013-07-01 00:00:00,2013-07-01 00:00:00,TMP,surface,-94.6879,27.8739,303.054
2013-07-01 00:00:00,2013-07-01 00:00:00,TMP,surface,-93.7504,27.8739,303.422
2013-07-01 00:00:00,2013-07-01 00:00:00,TMP,surface,-92.8129,27.8739,303.544
2013-07-01 00:00:00,2013-07-01 00:00:00,TMP,surface,-107.813,28.8188,292.875
2013-07-01 00:00:00,2013-07-01 00:00:00,TMP,surface,-106.875,28.8188,294.328
2013-07-01 00:00:00,2013-07-01 00:00:00,TMP,surface,-105.938,28.8188,299.224
2013-07-01 00:00:00,2013-07-01 00:00:00,TMP,surface,-105,28.8188,302.401
2013-07-01 00:00:00,2013-07-01 00:00:00,TMP,surface,-104.063,28.8188,301.249
2013-07-01 00:00:00,2013-07-01 00:00:00,TMP,surface,-103.125,28.8188,299.585
2013-07-01 00:00:00,2013-07-01 00:00:00,TMP,surface,-102.188,28.8188,299.041
2013-07-01 00:00:00,2013-07-01 00:00:00,TMP,surface,-101.25,28.8188,301.537
2013-07-01 00:00:00,2013-07-01 00:00:00,TMP,surface,-100.313,28.8188,302.926
2013-07-01 00:00:00,2013-07-01 00:00:00,TMP,surface,-99.3754,28.8188,302.459
2013-07-01 00:00:00,2013-07-01 00:00:00,TMP,surface,-98.4379,28.8188,301.563
2013-07-01 00:00:00,2013-07-01 00:00:00,TMP,surface,-97.5004,28.8188,301.089
2013-07-01 00:00:00,2013-07-01 00:00:00,TMP,surface,-96.5629,28.8188,301.23
2013-07-01 00:00:00,2013-07-01 00:00:00,TMP,surface,-95.6254,28.8188,301.713
2013-07-01 00:00:00,2013-07-01 00:00:00,TMP,surface,-94.6879,28.8188,302.206
2013-07-01 00:00:00,2013-07-01 00:00:00,TMP,surface,-93.7504,28.8188,302.795
2013-07-01 00:00:00,2013-07-01 00:00:00,TMP,surface,-92.8129,28.8188,303.179
2013-07-01 00:00:00,2013-07-01 00:00:00,TMP,surface,-107.813,29.7637,295.332
2013-07-01 00:00:00,2013-07-01 00:00:00,TMP,surface,-106.875,29.7637,298.132
2013-07-01 00:00:00,2013-07-01 00:00:00,TMP,surface,-105.938,29.7637,301.291
2013-07-01 00:00:00,2013-07-01 00:00:00,TMP,surface,-105,29.7637,302.145
2013-07-01 00:00:00,2013-07-01 00:00:00,TMP,surface,-104.063,29.7637,301.422
2013-07-01 00:00:00,2013-07-01 00:00:00,TMP,surface,-103.125,29.7637,300.683
2013-07-01 00:00:00,2013-07-01 00:00:00,TMP,surface,-102.188,29.7637,301.326
2013-07-01 00:00:00,2013-07-01 00:00:00,TMP,surface,-101.25,29.7637,301.969
2013-07-01 00:00:00,2013-07-01 00:00:00,TMP,surface,-100.313,29.7637,301.47
2013-07-01 00:00:00,2013-07-01 00:00:00,TMP,surface,-99.3754,29.7637,300.67
2013-07-01 00:00:00,2013-07-01 00:00:00,TMP,surface,-98.4379,29.7637,300.305
2013-07-01 00:00:00,2013-07-01 00:00:00,TMP,surface,-97.5004,29.7637,300.558
2013-07-01 00:00:00,2013-07-01 00:00:00,TMP,surface,-96.5629,29.7637,301.035
2013-07-01 00:00:00,2013-07-01 00:00:00,TMP,surface,-95.6254,29.7637,301.313
2013-07-01 00:00:00,2013-07-01 00:00:00,TMP,surface,-94.6879,29.7637,301.662
2013-07-01 00:00:00,2013-07-01 00:00:00,TMP,surface,-93.7504,29.7637,302.062
2013-07-01 00:00:00,2013-07-01 00:00:00,TMP,surface,-92.8129,29.7637,301.416
2013-07-01 00:00:00,2013-07-01 00:00:00,TMP,surface,-107.813,30.7085,301.211
2013-07-01 00:00:00,2013-07-01 00:00:00,TMP,surface,-106.875,30.7085,302.369
2013-07-01 00:00:00,2013-07-01 00:00:00,TMP,surface,-105.938,30.7085,302.536
2013-07-01 00:00:00,2013-07-01 00:00:00,TMP,surface,-105,30.7085,301.963
2013-07-01 00:00:00,2013-07-01 00:00:00,TMP,surface,-104.063,30.7085,300.884
2013-07-01 00:00:00,2013-07-01 00:00:00,TMP,surface,-103.125,30.7085,301.38
2013-07-01 00:00:00,2013-07-01 00:00:00,TMP,surface,-102.188,30.7085,301.931
2013-07-01 00:00:00,2013-07-01 00:00:00,TMP,surface,-101.25,30.7085,301.758
2013-07-01 00:00:00,2013-07-01 00:00:00,TMP,surface,-100.313,30.7085,301.172
2013-07-01 00:00:00,2013-07-01 00:00:00,TMP,surface,-99.3754,30.7085,300.622
2013-07-01 00:00:00,2013-07-01 00:00:00,TMP,surface,-98.4379,30.7085,300.616
2013-07-01 00:00:00,2013-07-01 00:00:00,TMP,surface,-97.5004,30.7085,300.92
2013-07-01 00:00:00,2013-07-01 00:00:00,TMP,surface,-96.5629,30.7085,301.646
2013-07-01 00:00:00,2013-07-01 00:00:00,TMP,surface,-95.6254,30.7085,302.216
2013-07-01 00:00:00,2013-07-01 00:00:00,TMP,surface,-94.6879,30.7085,301.886
2013-07-01 00:00:00,2013-07-01 00:00:00,TMP,surface,-93.7504,30.7085,301.748
2013-07-01 00:00:00,2013-07-01 00:00:00,TMP,surface,-92.8129,30.7085,301.39
2013-07-01 00:00:00,2013-07-01 00:00:00,TMP,surface,-107.813,31.6534,303.291
2013-07-01 00:00:00,2013-07-01 00:00:00,TMP,surface,-106.875,31.6534,303.39
2013-07-01 00:00:00,2013-07-01 00:00:00,TMP,surface,-105.938,31.6534,302.174
2013-07-01 00:00:00,2013-07-01 00:00:00,TMP,surface,-105,31.6534,301.556
2013-07-01 00:00:00,2013-07-01 00:00:00,TMP,surface,-104.063,31.6534,301.515
2013-07-01 00:00:00,2013-07-01 00:00:00,TMP,surface,-103.125,31.6534,301.787
2013-07-01 00:00:00,2013-07-01 00:00:00,TMP,surface,-102.188,31.6534,301.985
2013-07-01 00:00:00,2013-07-01 00:00:00,TMP,surface,-101.25,31.6534,301.755
2013-07-01 00:00:00,2013-07-01 00:00:00,TMP,surface,-100.313,31.6534,301.636
2013-07-01 00:00:00,2013-07-01 00:00:00,TMP,surface,-99.3754,31.6534,301.55
2013-07-01 00:00:00,2013-07-01 00:00:00,TMP,surface,-98.4379,31.6534,301.572
2013-07-01 00:00:00,2013-07-01 00:00:00,TMP,surface,-97.5004,31.6534,301.748
2013-07-01 00:00:00,2013-07-01 00:00:00,TMP,surface,-96.5629,31.6534,302.321
2013-07-01 00:00:00,2013-07-01 00:00:00,TMP,surface,-95.6254,31.6534,302.699
2013-07-01 00:00:00,2013-07-01 00:00:00,TMP,surface,-94.6879,31.6534,302.228
2013-07-01 00:00:00,2013-07-01 00:00:00,TMP,surface,-93.7504,31.6534,301.924
2013-07-01 00:00:00,2013-07-01 00:00:00,TMP,surface,-92.8129,31.6534,301.768
2013-07-01 00:00:00,2013-07-01 00:00:00,TMP,surface,-107.813,32.5983,299.614
2013-07-01 00:00:00,2013-07-01 00:00:00,TMP,surface,-106.875,32.5983,299.707
2013-07-01 00:00:00,2013-07-01 00:00:00,TMP,surface,-105.938,32.5983,299.94
2013-07-01 00:00:00,2013-07-01 00:00:00,TMP,surface,-105,32.5983,300.084
2013-07-01 00:00:00,2013-07-01 00:00:00,TMP,surface,-104.063,32.5983,301.256
2013-07-01 00:00:00,2013-07-01 00:00:00,TMP,surface,-103.125,32.5983,301.854
2013-07-01 00:00:00,2013-07-01 00:00:00,TMP,surface,-102.188,32.5983,301.78
2013-07-01 00:00:00,2013-07-01 00:00:00,TMP,surface,-101.25,32.5983,301.896
2013-07-01 00:00:00,2013-07-01 00:00:00,TMP,surface,-100.313,32.5983,302.616
2013-07-01 00:00:00,2013-07-01 00:00:00,TMP,surface,-99.3754,32.5983,302.84
2013-07-01 00:00:00,2013-07-01 00:00:00,TMP,surface,-98.4379,32.5983,302.478
2013-07-01 00:00:00,2013-07-01 00:00:00,TMP,surface,-97.5004,32.5983,302.155
2013-07-01 00:00:00,2013-07-01 00:00:00,TMP,surface,-96.5629,32.5983,302.449
2013-07-01 00:00:00,2013-07-01 00:00:00,TMP,surface,-95.6254,32.5983,302.939
2013-07-01 00:00:00,2013-07-01 00:00:00,TMP,surface,-94.6879,32.5983,302.721
2013-07-01 00:00:00,2013-07-01 00:00:00,TMP,surface,-93.7504,32.5983,302.197
2013-07-01 00:00:00,2013-07-01 00:00:00,TMP,surface,-92.8129,32.5983,302.19
2013-07-01 00:00:00,2013-07-01 00:00:00,TMP,surface,-107.813,33.5432,295.102
2013-07-01 00:00:00,2013-07-01 00:00:00,TMP,surface,-106.875,33.5432,296.12
2013-07-01 00:00:00,2013-07-01 00:00:00,TMP,surface,-105.938,33.5432,297.009
2013-07-01 00:00:00,2013-07-01 00:00:00,TMP,surface,-105,33.5432,299.041
2013-07-01 00:00:00,2013-07-01 00:00:00,TMP,surface,-104.063,33.5432,301.208
2013-07-01 00:00:00,2013-07-01 00:00:00,TMP,surface,-103.125,33.5432,301.614
2013-07-01 00:00:00,2013-07-01 00:00:00,TMP,surface,-102.188,33.5432,301.406
2013-07-01 00:00:00,2013-07-01 00:00:00,TMP,surface,-101.25,33.5432,301.723
2013-07-01 00:00:00,2013-07-01 00:00:00,TMP,surface,-100.313,33.5432,303.073
2013-07-01 00:00:00,2013-07-01 00:00:00,TMP,surface,-99.3754,33.5432,303.531
2013-07-01 00:00:00,2013-07-01 00:00:00,TMP,surface,-98.4379,33.5432,302.971
2013-07-01 00:00:00,2013-07-01 00:00:00,TMP,surface,-97.5004,33.5432,302.273
2013-07-01 00:00:00,2013-07-01 00:00:00,TMP,surface,-96.5629,33.5432,301.796
2013-07-01 00:00:00,2013-07-01 00:00:00,TMP,surface,-95.6254,33.5432,301.851
2013-07-01 00:00:00,2013-07-01 00:00:00,TMP,surface,-94.6879,33.5432,302.235
2013-07-01 00:00:00,2013-07-01 00:00:00,TMP,surface,-93.7504,33.5432,302.145
2013-07-01 00:00:00,2013-07-01 00:00:00,TMP,surface,-92.8129,33.5432,302.356
2013-07-01 00:00:00,2013-07-01 00:00:00,TMP,surface,-107.813,34.4881,294.616
2013-07-01 00:00:00,2013-07-01 00:00:00,TMP,surface,-106.875,34.4881,295.873
2013-07-01 00:00:00,2013-07-01 00:00:00,TMP,surface,-105.938,34.4881,296.804
2013-07-01 00:00:00,2013-07-01 00:00:00,TMP,surface,-105,34.4881,298.392
2013-07-01 00:00:00,2013-07-01 00:00:00,TMP,surface,-104.063,34.4881,300.628
2013-07-01 00:00:00,2013-07-01 00:00:00,TMP,surface,-103.125,34.4881,301.128
2013-07-01 00:00:00,2013-07-01 00:00:00,TMP,surface,-102.188,34.4881,301.329
2013-07-01 00:00:00,2013-07-01 00:00:00,TMP,surface,-101.25,34.4881,301.966
2013-07-01 00:00:00,2013-07-01 00:00:00,TMP,surface,-100.313,34.4881,302.836
2013-07-01 00:00:00,2013-07-01 00:00:00,TMP,surface,-99.3754,34.4881,303.14
2013-07-01 00:00:00,2013-07-01 00:00:00,TMP,surface,-98.4379,34.4881,302.577
2013-07-01 00:00:00,2013-07-01 00:00:00,TMP,surface,-97.5004,34.4881,301.576
2013-07-01 00:00:00,2013-07-01 00:00:00,TMP,surface,-96.5629,34.4881,301.38
2013-07-01 00:00:00,2013-07-01 00:00:00,TMP,surface,-95.6254,34.4881,301.726
2013-07-01 00:00:00,2013-07-01 00:00:00,TMP,surface,-94.6879,34.4881,301.326
2013-07-01 00:00:00,2013-07-01 00:00:00,TMP,surface,-93.7504,34.4881,300.971
2013-07-01 00:00:00,2013-07-01 00:00:00,TMP,surface,-92.8129,34.4881,301.32
2013-07-01 00:00:00,2013-07-01 00:00:00,TMP,surface,-107.813,35.4329,296.34
2013-07-01 00:00:00,2013-07-01 00:00:00,TMP,surface,-106.875,35.4329,295.998
2013-07-01 00:00:00,2013-07-01 00:00:00,TMP,surface,-105.938,35.4329,295.211
2013-07-01 00:00:00,2013-07-01 00:00:00,TMP,surface,-105,35.4329,296.017
2013-07-01 00:00:00,2013-07-01 00:00:00,TMP,surface,-104.063,35.4329,299.067
2013-07-01 00:00:00,2013-07-01 00:00:00,TMP,surface,-103.125,35.4329,301.112
2013-07-01 00:00:00,2013-07-01 00:00:00,TMP,surface,-102.188,35.4329,302.072
2013-07-01 00:00:00,2013-07-01 00:00:00,TMP,surface,-101.25,35.4329,302.494
2013-07-01 00:00:00,2013-07-01 00:00:00,TMP,surface,-100.313,35.4329,302.414
2013-07-01 00:00:00,2013-07-01 00:00:00,TMP,surface,-99.3754,35.4329,302.404
2013-07-01 00:00:00,2013-07-01 00:00:00,TMP,surface,-98.4379,35.4329,301.969
2013-07-01 00:00:00,2013-07-01 00:00:00,TMP,surface,-97.5004,35.4329,301.192
2013-07-01 00:00:00,2013-07-01 00:00:00,TMP,surface,-96.5629,35.4329,300.785
2013-07-01 00:00:00,2013-07-01 00:00:00,TMP,surface,-95.6254,35.4329,300.99
2013-07-01 00:00:00,2013-07-01 00:00:00,TMP,surface,-94.6879,35.4329,301.204
2013-07-01 00:00:00,2013-07-01 00:00:00,TMP,surface,-93.7504,35.4329,300.734
2013-07-01 00:00:00,2013-07-01 00:00:00,TMP,surface,-92.8129,35.4329,300.264
2013-07-01 00:00:00,2013-07-01 00:00:00,TMP,surface,-107.813,36.3778,296.116
2013-07-01 00:00:00,2013-07-01 00:00:00,TMP,surface,-106.875,36.3778,292.757
2013-07-01 00:00:00,2013-07-01 00:00:00,TMP,surface,-105.938,36.3778,292.385
2013-07-01 00:00:00,2013-07-01 00:00:00,TMP,surface,-105,36.3778,293.054
2013-07-01 00:00:00,2013-07-01 00:00:00,TMP,surface,-104.063,36.3778,297.169
2013-07-01 00:00:00,2013-07-01 00:00:00,TMP,surface,-103.125,36.3778,299.822
2013-07-01 00:00:00,2013-07-01 00:00:00,TMP,surface,-102.188,36.3778,301.544
2013-07-01 00:00:00,2013-07-01 00:00:00,TMP,surface,-101.25,36.3778,302.363
2013-07-01 00:00:00,2013-07-01 00:00:00,TMP,surface,-100.313,36.3778,302.421
2013-07-01 00:00:00,2013-07-01 00:00:00,TMP,surface,-99.3754,36.3778,301.873
2013-07-01 00:00:00,2013-07-01 00:00:00,TMP,surface,-98.4379,36.3778,301.512
2013-07-01 00:00:00,2013-07-01 00:00:00,TMP,surface,-97.5004,36.3778,301
2013-07-01 00:00:00,2013-07-01 00:00:00,TMP,surface,-96.5629,36.3778,300.526
2013-07-01 00:00:00,2013-07-01 00:00:00,TMP,surface,-95.6254,36.3778,300.616
2013-07-01 00:00:00,2013-07-01 00:00:00,TMP,surface,-94.6879,36.3778,300.6
2013-07-01 00:00:00,2013-07-01 00:00:00,TMP,surface,-93.7504,36.3778,300.04
2013-07-01 00:00:00,2013-07-01 00:00:00,TMP,surface,-92.8129,36.3778,299.678
2013-07-01 00:00:00,2013-07-01 00:00:00,PRATE,surface,-107.813,25.0393,4e-07
2013-07-01 00:00:00,2013-07-01 00:00:00,PRATE,surface,-106.875,25.0393,0.000115
2013-07-01 00:00:00,2013-07-01 00:00:00,PRATE,surface,-105.938,25.0393,0.0001776
2013-07-01 00:00:00,2013-07-01 00:00:00,PRATE,surface,-105,25.0393,0.000109
2013-07-01 00:00:00,2013-07-01 00:00:00,PRATE,surface,-104.063,25.0393,1.61e-05
2013-07-01 00:00:00,2013-07-01 00:00:00,PRATE,surface,-103.125,25.0393,9e-06
2013-07-01 00:00:00,2013-07-01 00:00:00,PRATE,surface,-102.188,25.0393,2.05e-05
2013-07-01 00:00:00,2013-07-01 00:00:00,PRATE,surface,-101.25,25.0393,4.16e-05
2013-07-01 00:00:00,2013-07-01 00:00:00,PRATE,surface,-100.313,25.0393,4.47e-05
2013-07-01 00:00:00,2013-07-01 00:00:00,PRATE,surface,-99.3754,25.0393,1.39e-05
2013-07-01 00:00:00,2013-07-01 00:00:00,PRATE,surface,-98.4379,25.0393,4.3e-06
2013-07-01 00:00:00,2013-07-01 00:00:00,PRATE,surface,-97.5004,25.0393,1.01e-05
2013-07-01 00:00:00,2013-07-01 00:00:00,PRATE,surface,-96.5629,25.0393,2.35e-05
2013-07-01 00:00:00,2013-07-01 00:00:00,PRATE,surface,-95.6254,25.0393,1.62e-05
2013-07-01 00:00:00,2013-07-01 00:00:00,PRATE,surface,-94.6879,25.0393,2.48e-05
2013-07-01 00:00:00,2013-07-01 00:00:00,PRATE,surface,-93.7504,25.0393,4.37e-05
2013-07-01 00:00:00,2013-07-01 00:00:00,PRATE,surface,-92.8129,25.0393,4.13e-05
2013-07-01 00:00:00,2013-07-01 00:00:00,PRATE,surface,-107.813,25.9842,5.13e-05
2013-07-01 00:00:00,2013-07-01 00:00:00,PRATE,surface,-106.875,25.9842,0.0001846
2013-07-01 00:00:00,2013-07-01 00:00:00,PRATE,surface,-105.938,25.9842,0.0001132
2013-07-01 00:00:00,2013-07-01 00:00:00,PRATE,surface,-105,25.9842,2.07e-05
2013-07-01 00:00:00,2013-07-01 00:00:00,PRATE,surface,-104.063,25.9842,2.1e-06
2013-07-01 00:00:00,2013-07-01 00:00:00,PRATE,surface,-103.125,25.9842,1e-06
2013-07-01 00:00:00,2013-07-01 00:00:00,PRATE,surface,-102.188,25.9842,6.7e-06
2013-07-01 00:00:00,2013-07-01 00:00:00,PRATE,surface,-101.25,25.9842,2.75e-05
2013-07-01 00:00:00,2013-07-01 00:00:00,PRATE,surface,-100.313,25.9842,1.97e-05
2013-07-01 00:00:00,2013-07-01 00:00:00,PRATE,surface,-99.3754,25.9842,2e-06
2013-07-01 00:00:00,2013-07-01 00:00:00,PRATE,surface,-98.4379,25.9842,4.4e-06
2013-07-01 00:00:00,2013-07-01 00:00:00,PRATE,surface,-97.5004,25.9842,1.66e-05
2013-07-01 00:00:00,2013-07-01 00:00:00,PRATE,surface,-96.5629,25.9842,1.91e-05
2013-07-01 00:00:00,2013-07-01 00:00:00,PRATE,surface,-95.6254,25.9842,2.13e-05
2013-07-01 00:00:00,2013-07-01 00:00:00,PRATE,surface,-94.6879,25.9842,2.37e-05
2013-07-01 00:00:00,2013-07-01 00:00:00,PRATE,surface,-93.7504,25.9842,3.74e-05
2013-07-01 00:00:00,2013-07-01 00:00:00,PRATE,surface,-92.8129,25.9842,3.9e-05
2013-07-01 00:00:00,2013-07-01 00:00:00,PRATE,surface,-107.813,26.929,0.0001745
2013-07-01 00:00:00,2013-07-01 00:00:00,PRATE,surface,-106.875,26.929,0.0001331
2013-07-01 00:00:00,2013-07-01 00:00:00,PRATE,surface,-105.938,26.929,4.95e-05
2013-07-01 00:00:00,2013-07-01 00:00:00,PRATE,surface,-105,26.929,1.6e-06
2013-07-01 00:00:00,2013-07-01 00:00:00,PRATE,surface,-104.063,26.929,4.5e-06
2013-07-01 00:00:00,2013-07-01 00:00:00,PRATE,surface,-103.125,26.929,3.7e-06
2013-07-01 00:00:00,2013-07-01 00:00:00,PRATE,surface,-102.188,26.929,1.19e-05
2013-07-01 00:00:00,2013-07-01 00:00:00,PRATE,surface,-101.25,26.929,1.2e-05
2013-07-01 00:00:00,2013-07-01 00:00:00,PRATE,surface,-100.313,26.929,1e-06
2013-07-01 00:00:00,2013-07-01 00:00:00,PRATE,surface,-99.3754,26.929,1.2e-06
2013-07-01 00:00:00,2013-07-01 00:00:00,PRATE,surface,-98.4379,26.929,8.1e-06
2013-07-01 00:00:00,2013-07-01 00:00:00,PRATE,surface,-97.5004,26.929,1.44e-05
2013-07-01 00:00:00,2013-07-01 00:00:00,PRATE,surface,-96.5629,26.929,4.1e-06
2013-07-01 00:00:00,2013-07-01 00:00:00,PRATE,surface,-95.6254,26.929,5.5e-06
2013-07-01 00:00:00,2013-07-01 00:00:00,PRATE,surface,-94.6879,26.929,1.44e-05
2013-07-01 00:00:00,2013-07-01 00:00:00,PRATE,surface,-93.7504,26.929,3.35e-05
2013-07-01 00:00:00,2013-07-01 00:00:00,PRATE,surface,-92.8129,26.929,4.12e-05
2013-07-01 00:00:00,2013-07-01 00:00:00,PRATE,surface,-107.813,27.8739,0.0001763
2013-07-01 00:00:00,2013-07-01 00:00:00,PRATE,surface,-106.875,27.8739,8.88e-05
2013-07-01 00:00:00,2013-07-01 00:00:00,PRATE,surface,-105.938,27.8739,9.5e-06
2013-07-01 00:00:00,2013-07-01 00:00:00,PRATE,surface,-105,27.8739,3.7e-06
2013-07-01 00:00:00,2013-07-01 00:00:00,PRATE,surface,-104.063,27.8739,5.6e-06
2013-07-01 00:00:00,2013-07-01 00:00:00,PRATE,surface,-103.125,27.8739,5.6e-06
2013-07-01 00:00:00,2013-07-01 00:00:00,PRATE,surface,-102.188,27.8739,1.08e-05
2013-07-01 00:00:00,2013-07-01 00:00:00,PRATE,surface,-101.25,27.8739,3.6e-06
2013-07-01 00:00:00,2013-07-01 00:00:00,PRATE,surface,-100.313,27.8739,4e-07
2013-07-01 00:00:00,2013-07-01 00:00:00,PRATE,surface,-99.3754,27.8739,3.5e-06
2013-07-01 00:00:00,2013-07-01 00:00:00,PRATE,surface,-98.4379,27.8739,7.8e-06
2013-07-01 00:00:00,2013-07-01 00:00:00,PRATE,surface,-97.5004,27.8739,9.2e-06
2013-07-01 00:00:00,2013-07-01 00:00:00,PRATE,surface,-96.5629,27.8739,7e-06
2013-07-01 00:00:00,2013-07-01 00:00:00,PRATE,surface,-95.6254,27.8739,7.2e-06
2013-07-01 00:00:00,2013-07-01 00:00:00,PRATE,surface,-94.6879,27.8739,1.6e-05
2013-07-01 00:00:00,2013-07-01 00:00:00,PRATE,surface,-93.7504,27.8739,3.1e-05
2013-07-01 00:00:00,2013-07-01 00:00:00,PRATE,surface,-92.8129,27.8739,4.81e-05
2013-07-01 00:00:00,2013-07-01 00:00:00,PRATE,surface,-107.813,28.8188,0.0001589
2013-07-01 00:00:00,2013-07-01 00:00:00,PRATE,surface,-106.875,28.8188,6.28e-05
2013-07-01 00:00:00,2013-07-01 00:00:00,PRATE,surface,-105.938,28.8188,8e-06
2013-07-01 00:00:00,2013-07-01 00:00:00,PRATE,surface,-105,28.8188,8.4e-06
2013-07-01 00:00:00,2013-07-01 00:00:00,PRATE,surface,-104.063,28.8188,5.1e-06
2013-07-01 00:00:00,2013-07-01 00:00:00,PRATE,surface,-103.125,28.8188,4.6e-06
2013-07-01 00:00:00,2013-07-01 00:00:00,PRATE,surface,-102.188,28.8188,3.8e-06
2013-07-01 00:00:00,2013-07-01 00:00:00,PRATE,surface,-101.25,28.8188,1.1e-06
2013-07-01 00:00:00,2013-07-01 00:00:00,PRATE,surface,-100.313,28.8188,1.4e-06
2013-07-01 00:00:00,2013-07-01 00:00:00,PRATE,surface,-99.3754,28.8188,1.07e-05
2013-07-01 00:00:00,2013-07-01 00:00:00,PRATE,surface,-98.4379,28.8188,1.64e-05
2013-07-01 00:00:00,2013-07-01 00:00:00,PRATE,surface,-97.5004,28.8188,1.53e-05
2013-07-01 00:00:00,2013-07-01 00:00:00,PRATE,surface,-96.5629,28.8188,1.41e-05
2013-07-01 00:00:00,2013-07-01 00:00:00,PRATE,surface,-95.6254,28.8188,1.64e-05
2013-07-01 00:00:00,2013-07-01 00:00:00,PRATE,surface,-94.6879,28.8188,2.16e-05
2013-07-01 00:00:00,2013-07-01 00:00:00,PRATE,surface,-93.7504,28.8188,2.73e-05
2013-07-01 00:00:00,2013-07-01 00:00:00,PRATE,surface,-92.8129,28.8188,3.2e-05
2013-07-01 00:00:00,2013-07-01 00:00:00,PRATE,surface,-107.813,29.7637,9.87e-05
2013-07-01 00:00:00,2013-07-01 00:00:00,PRATE,surface,-106.875,29.7637,1.91e-05
2013-07-01 00:00:00,2013-07-01 00:00:00,PRATE,surface,-105.938,29.7637,5.8e-06
2013-07-01 00:00:00,2013-07-01 00:00:00,PRATE,surface,-105,29.7637,6.9e-06
2013-07-01 00:00:00,2013-07-01 00:00:00,PRATE,surface,-104.063,29.7637,2.2e-06
2013-07-01 00:00:00,2013-07-01 00:00:00,PRATE,surface,-103.125,29.7637,1.4e-06
2013-07-01 00:00:00,2013-07-01 00:00:00,PRATE,surface,-102.188,29.7637,1e-06
2013-07-01 00:00:00,2013-07-01 00:00:00,PRATE,surface,-101.25,29.7637,5e-07
2013-07-01 00:00:00,2013-07-01 00:00:00,PRATE,surface,-100.313,29.7637,1.3e-06
2013-07-01 00:00:00,2013-07-01 00:00:00,PRATE,surface,-99.3754,29.7637,5.5e-06
2013-07-01 00:00:00,2013-07-01 00:00:00,PRATE,surface,-98.4379,29.7637,1.22e-05
2013-07-01 00:00:00,2013-07-01 00:00:00,PRATE,surface,-97.5004,29.7637,1.38e-05
2013-07-01 00:00:00,2013-07-01 00:00:00,PRATE,surface,-96.5629,29.7637,1.26e-05
2013-07-01 00:00:00,2013-07-01 00:00:00,PRATE,surface,-95.6254,29.7637,1.96e-05
2013-07-01 00:00:00,2013-07-01 00:00:00,PRATE,surface,-94.6879,29.7637,2.97e-05
2013-07-01 00:00:00,2013-07-01 00:00:00,PRATE,surface,-93.7504,29.7637,3.83e-05
2013-07-01 00:00:00,2013-07-01 00:00:00,PRATE,surface,-92.8129,29.7637,6.68e-05
2013-07-01 00:00:00,2013-07-01 00:00:00,PRATE,surface,-107.813,30.7085,1.23e-05
2013-07-01 00:00:00,2013-07-01 00:00:00,PRATE,surface,-106.875,30.7085,1.17e-05
2013-07-01 00:00:00,2013-07-01 00:00:00,PRATE,surface,-105.938,30.7085,1.15e-05
2013-07-01 00:00:00,2013-07-01 00:00:00,PRATE,surface,-105,30.7085,5.5e-06
2013-07-01 00:00:00,2013-07-01 00:00:00,PRATE,surface,-104.063,30.7085,2.9e-06
2013-07-01 00:00:00,2013-07-01 00:00:00,PRATE,surface,-103.125,30.7085,1.8e-06
2013-07-01 00:00:00,2013-07-01 00:00:00,PRATE,surface,-102.188,30.7085,1.2e-06
2013-07-01 00:00:00,2013-07-01 00:00:00,PRATE,surface,-101.25,30.7085,1.5e-06
2013-07-01 00:00:00,2013-07-01 00:00:00,PRATE,surface,-100.313,30.7085,3.5e-06
2013-07-01 00:00:00,2013-07-01 00:00:00,PRATE,surface,-99.3754,30.7085,4.4e-06
2013-07-01 00:00:00,2013-07-01 00:00:00,PRATE,surface,-98.4379,30.7085,4.4e-06
2013-07-01 00:00:00,2013-07-01 00:00:00,PRATE,surface,-97.5004,30.7085,5.7e-06
2013-07-01 00:00:00,2013-07-01 00:00:00,PRATE,surface,-96.5629,30.7085,7.4e-06
2013-07-01 00:00:00,2013-07-01 00:00:00,PRATE,surface,-95.6254,30.7085,1.21e-05
2013-07-01 00:00:00,2013-07-01 00:00:00,PRATE,surface,-94.6879,30.7085,1.88e-05
2013-07-01 00:00:00,2013-07-01 00:00:00,PRATE,surface,-93.7504,30.7085,2.12e-05
2013-07-01 00:00:00,2013-07-01 00:00:00,PRATE,surface,-92.8129,30.7085,3.58e-05
2013-07-01 00:00:00,2013-07-01 00:00:00,PRATE,surface,-107.813,31.6534,9.1e-06
2013-07-01 00:00:00,2013-07-01 00:00:00,PRATE,surface,-106.875,31.6534,1.38e-05
2013-07-01 00:00:00,2013-07-01 00:00:00,PRATE,surface,-105.938,31.6534,1.8e-05
2013-07-01 00:00:00,2013-07-01 00:00:00,PRATE,surface,-105,31.6534,7.9e-06
2013-07-01 00:00:00,2013-07-01 00:00:00,PRATE,surface,-104.063,31.6534,5e-06
2013-07-01 00:00:00,2013-07-01 00:00:00,PRATE,surface,-103.125,31.6534,4.6e-06
2013-07-01 00:00:00,2013-07-01 00:00:00,PRATE,surface,-102.188,31.6534,3.8e-06
2013-07-01 00:00:00,2013-07-01 00:00:00,PRATE,surface,-101.25,31.6534,2.5e-06
2013-07-01 00:00:00,2013-07-01 00:00:00,PRATE,surface,-100.313,31.6534,4e-06
2013-07-01 00:00:00,2013-07-01 00:00:00,PRATE,surface,-99.3754,31.6534,1.9e-06
2013-07-01 00:00:00,2013-07-01 00:00:00,PRATE,surface,-98.4379,31.6534,1e-07
2013-07-01 00:00:00,2013-07-01 00:00:00,PRATE,surface,-97.5004,31.6534,8e-07
2013-07-01 00:00:00,2013-07-01 00:00:00,PRATE,surface,-96.5629,31.6534,2.5e-06
2013-07-01 00:00:00,2013-07-01 00:00:00,PRATE,surface,-95.6254,31.6534,7.3e-06
2013-07-01 00:00:00,2013-07-01 00:00:00,PRATE,surface,-94.6879,31.6534,1.57e-05
2013-07-01 00:00:00,2013-07-01 00:00:00,PRATE,surface,-93.7504,31.6534,2.04e-05
2013-07-01 00:00:00,2013-07-01 00:00:00,PRATE,surface,-92.8129,31.6534,2.23e-05
2013-07-01 00:00:00,2013-07-01 00:00:00,PRATE,surface,-107.813,32.5983,2.93e-05
2013-07-01 00:00:00,2013-07-01 00:00:00,PRATE,surface,-106.875,32.5983,3.41e-05
2013-07-01 00:00:00,2013-07-01 00:00:00,PRATE,surface,-105.938,32.5983,2.64e-05
2013-07-01 00:00:00,2013-07-01 00:00:00,PRATE,surface,-105,32.5983,1.78e-05
2013-07-01 00:00:00,2013-07-01 00:00:00,PRATE,surface,-104.063,32.5983,7.2e-06
2013-07-01 00:00:00,2013-07-01 00:00:00,PRATE,surface,-103.125,32.5983,3.7e-06
2013-07-01 00:00:00,2013-07-01 00:00:00,PRATE,surface,-102.188,32.5983,3.3e-06
2013-07-01 00:00:00,2013-07-01 00:00:00,PRATE,surface,-101.25,32.5983,3.4e-06
2013-07-01 00:00:00,2013-07-01 00:00:00,PRATE,surface,-100.313,32.5983,1.2e-06
2013-07-01 00:00:00,2013-07-01 00:00:00,PRATE,surface,-99.3754,32.5983,1e-07
2013-07-01 00:00:00,2013-07-01 00:00:00,PRATE,surface,-98.4379,32.5983,0
2013-07-01 00:00:00,2013-07-01 00:00:00,PRATE,surface,-97.5004,32.5983,1e-07
2013-07-01 00:00:00,2013-07-01 00:00:00,PRATE,surface,-96.5629,32.5983,1.1e-06
2013-07-01 00:00:00,2013-07-01 00:00:00,PRATE,surface,-95.6254,32.5983,2.3e-06
2013-07-01 00:00:00,2013-07-01 00:00:00,PRATE,surface,-94.6879,32.5983,5.5e-06
2013-07-01 00:00:00,2013-07-01 00:00:00,PRATE,surface,-93.7504,32.5983,1.27e-05
2013-07-01 00:00:00,2013-07-01 00:00:00,PRATE,surface,-92.8129,32.5983,1.41e-05
2013-07-01 00:00:00,2013-07-01 00:00:00,PRATE,surface,-107.813,33.5432,7.07e-05
2013-07-01 00:00:00,2013-07-01 00:00:00,PRATE,surface,-106.875,33.5432,6.4e-05
2013-07-01 00:00:00,2013-07-01 00:00:00,PRATE,surface,-105.938,33.5432,4.3e-05
2013-07-01 00:00:00,2013-07-01 00:00:00,PRATE,surface,-105,33.5432,2.09e-05
2013-07-01 00:00:00,2013-07-01 00:00:00,PRATE,surface,-104.063,33.5432,8.4e-06
2013-07-01 00:00:00,2013-07-01 00:00:00,PRATE,surface,-103.125,33.5432,2.1e-06
2013-07-01 00:00:00,2013-07-01 00:00:00,PRATE,surface,-102.188,33.5432,1.6e-06
2013-07-01 00:00:00,2013-07-01 00:00:00,PRATE,surface,-101.25,33.5432,1.6e-06
2013-07-01 00:00:00,2013-07-01 00:00:00,PRATE,surface,-100.313,33.5432,5e-07
2013-07-01 00:00:00,2013-07-01 00:00:00,PRATE,surface,-99.3754,33.5432,0
2013-07-01 00:00:00,2013-07-01 00:00:00,PRATE,surface,-98.4379,33.5432,0
2013-07-01 00:00:00,2013-07-01 00:00:00,PRATE,surface,-97.5004,33.5432,0
2013-07-01 00:00:00,2013-07-01 00:00:00,PRATE,surface,-96.5629,33.5432,5e-07
2013-07-01 00:00:00,2013-07-01 00:00:00,PRATE,surface,-95.6254,33.5432,2.1e-06
2013-07-01 00:00:00,2013-07-01 00:00:00,PRATE,surface,-94.6879,33.5432,5e-06
2013-07-01 00:00:00,2013-07-01 00:00:00,PRATE,surface,-93.7504,33.5432,8.4e-06
2013-07-01 00:00:00,2013-07-01 00:00:00,PRATE,surface,-92.8129,33.5432,1.04e-05
2013-07-01 00:00:00,2013-07-01 00:00:00,PRATE,surface,-107.813,34.4881,3.84e-05
2013-07-01 00:00:00,2013-07-01 00:00:00,PRATE,surface,-106.875,34.4881,3.21e-05
2013-07-01 00:00:00,2013-07-01 00:00:00,PRATE,surface,-105.938,34.4881,3.34e-05
2013-07-01 00:00:00,2013-07-01 00:00:00,PRATE,surface,-105,34.4881,4.37e-05
2013-07-01 00:00:00,2013-07-01 00:00:00,PRATE,surface,-104.063,34.4881,1.34e-05
2013-07-01 00:00:00,2013-07-01 00:00:00,PRATE,surface,-103.125,34.4881,4.7e-06
2013-07-01 00:00:00,2013-07-01 00:00:00,PRATE,surface,-102.188,34.4881,2.3e-06
2013-07-01 00:00:00,2013-07-01 00:00:00,PRATE,surface,-101.25,34.4881,2.3e-06
2013-07-01 00:00:00,2013-07-01 00:00:00,PRATE,surface,-100.313,34.4881,2.4e-06
2013-07-01 00:00:00,2013-07-01 00:00:00,PRATE,surface,-99.3754,34.4881,2e-06
2013-07-01 00:00:00,2013-07-01 00:00:00,PRATE,surface,-98.4379,34.4881,1.2e-06
2013-07-01 00:00:00,2013-07-01 00:00:00,PRATE,surface,-97.5004,34.4881,1e-06
2013-07-01 00:00:00,2013-07-01 00:00:00,PRATE,surface,-96.5629,34.4881,8e-07
2013-07-01 00:00:00,2013-07-01 00:00:00,PRATE,surface,-95.6254,34.4881,2.2e-06
2013-07-01 00:00:00,2013-07-01 00:00:00,PRATE,surface,-94.6879,34.4881,5.9e-06
2013-07-01 00:00:00,2013-07-01 00:00:00,PRATE,surface,-93.7504,34.4881,8.2e-06
2013-07-01 00:00:00,2013-07-01 00:00:00,PRATE,surface,-92.8129,34.4881,9.8e-06
2013-07-01 00:00:00,2013-07-01 00:00:00,PRATE,surface,-107.813,35.4329,1e-05
2013-07-01 00:00:00,2013-07-01 00:00:00,PRATE,surface,-106.875,35.4329,1.12e-05
2013-07-01 00:00:00,2013-07-01 00:00:00,PRATE,surface,-105.938,35.4329,3.28e-05
2013-07-01 00:00:00,2013-07-01 00:00:00,PRATE,surface,-105,35.4329,4.45e-05
2013-07-01 00:00:00,2013-07-01 00:00:00,PRATE,surface,-104.063,35.4329,2.5e-05
2013-07-01 00:00:00,2013-07-01 00:00:00,PRATE,surface,-103.125,35.4329,1.04e-05
2013-07-01 00:00:00,2013-07-01 00:00:00,PRATE,surface,-102.188,35.4329,8.1e-06
2013-07-01 00:00:00,2013-07-01 00:00:00,PRATE,surface,-101.25,35.4329,6.5e-06
2013-07-01 00:00:00,2013-07-01 00:00:00,PRATE,surface,-100.313,35.4329,6.9e-06
2013-07-01 00:00:00,2013-07-01 00:00:00,PRATE,surface,-99.3754,35.4329,9.8e-06
2013-07-01 00:00:00,2013-07-01 00:00:00,PRATE,surface,-98.4379,35.4329,1.3e-05
2013-07-01 00:00:00,2013-07-01 00:00:00,PRATE,surface,-97.5004,35.4329,9.9e-06
2013-07-01 00:00:00,2013-07-01 00:00:00,PRATE,surface,-96.5629,35.4329,5.3e-06
2013-07-01 00:00:00,2013-07-01 00:00:00,PRATE,surface,-95.6254,35.4329,5e-06
2013-07-01 00:00:00,2013-07-01 00:00:00,PRATE,surface,-94.6879,35.4329,6.2e-06
2013-07-01 00:00:00,2013-07-01 00:00:00,PRATE,surface,-93.7504,35.4329,1.16e-05
2013-07-01 00:00:00,2013-07-01 00:00:00,PRATE,surface,-92.8129,35.4329,1.96e-05
2013-07-01 00:00:00,2013-07-01 00:00:00,PRATE,surface,-107.813,36.3778,8.1e-06
2013-07-01 00:00:00,2013-07-01 00:00:00,PRATE,surface,-106.875,36.3778,2.56e-05
2013-07-01 00:00:00,2013-07-01 00:00:00,PRATE,surface,-105.938,36.3778,5.28e-05
2013-07-01 00:00:00,2013-07-01 00:00:00,PRATE,surface,-105,36.3778,6.56e-05
2013-07-01 00:00:00,2013-07-01 00:00:00,PRATE,surface,-104.063,36.3778,3.2e-05
2013-07-01 00:00:00,2013-07-01 00:00:00,PRATE,surface,-103.125,36.3778,1.3e-05
2013-07-01 00:00:00,2013-07-01 00:00:00,PRATE,surface,-102.188,36.3778,7.3e-06
2013-07-01 00:00:00,2013-07-01 00:00:00,PRATE,surface,-101.25,36.3778,5e-06
2013-07-01 00:00:00,2013-07-01 00:00:00,PRATE,surface,-100.313,36.3778,1.17e-05
2013-07-01 00:00:00,2013-07-01 00:00:00,PRATE,surface,-99.3754,36.3778,2.29e-05
2013-07-01 00:00:00,2013-07-01 00:00:00,PRATE,surface,-98.4379,36.3778,3.11e-05
2013-07-01 00:00:00,2013-07-01 00:00:00,PRATE,surface,-97.5004,36.3778,2.57e-05
2013-07-01 00:00:00,2013-07-01 00:00:00,PRATE,surface,-96.5629,36.3778,1.38e-05
2013-07-01 00:00:00,2013-07-01 00:00:00,PRATE,surface,-95.6254,36.3778,8.4e-06
2013-07-01 00:00:00,2013-07-01 00:00:00,PRATE,surface,-94.6879,36.3778,7.6e-06
2013-07-01 00:00:00,2013-07-01 00:00:00,PRATE,surface,-93.7504,36.3778,1.17e-05
2013-07-01 00:00:00,2013-07-01 00:00:00,PRATE,surface,-92.8129,36.3778,2.09e-05
