2017-05-12 00:00:00,2017-05-12 00:00:00,TMP,surface,-107.813,25.0393,303.837
2017-05-12 00:00:00,2017-05-12 00:00:00,TMP,surface,-106.875,25.0393,297.658
2017-05-12 00:00:00,2017-05-12 00:00:00,TMP,surface,-105.938,25.0393,293.383
2017-05-12 00:00:00,2017-05-12 00:00:00,TMP,surface,-105,25.0393,292.253
2017-05-12 00:00:00,2017-05-12 00:00:00,TMP,surface,-104.063,25.0393,295.965
2017-05-12 00:00:00,2017-05-12 00:00:00,TMP,surface,-103.125,25.0393,299.191
2017-05-12 00:00:00,2017-05-12 00:00:00,TMP,surface,-102.188,25.0393,297.633
2017-05-12 00:00:00,2017-05-12 00:00:00,TMP,surface,-101.25,25.0393,294.692
2017-05-12 00:00:00,2017-05-12 00:00:00,TMP,surface,-100.313,25.0393,295.175
2017-05-12 00:00:00,2017-05-12 00:00:00,TMP,surface,-99.3754,25.0393,299.354
2017-05-12 00:00:00,2017-05-12 00:00:00,TMP,surface,-98.4379,25.0393,302.855
2017-05-12 00:00:00,2017-05-12 00:00:00,TMP,surface,-97.5004,25.0393,303.348
2017-05-12 00:00:00,2017-05-12 00:00:00,TMP,surface,-96.5629,25.0393,303.277
2017-05-12 00:00:00,2017-05-12 00:00:00,TMP,surface,-95.6254,25.0393,303.185
2017-05-12 00:00:00,2017-05-12 00:00:00,TMP,surface,-94.6879,25.0393,303.236
2017-05-12 00:00:00,2017-05-12 00:00:00,TMP,surface,-93.7504,25.0393,303.124
2017-05-12 00:00:00,2017-05-12 00:00:00,TMP,surface,-92.8129,25.0393,303.063
2017-05-12 00:00:00,2017-05-12 00:00:00,TMP,surface,-107.813,25.9842,300.445
2017-05-12 00:00:00,2017-05-12 00:00:00,TMP,surface,-106.875,25.9842,294.282
2017-05-12 00:00:00,2017-05-12 00:00:00,TMP,surface,-105.938,25.9842,292.791
2017-05-12 00:00:00,2017-05-12 00:00:00,TMP,surface,-105,25.9842,294.439
2017-05-12 00:00:00,2017-05-12 00:00:00,TMP,surface,-104.063,25.9842,299.776
2017-05-12 00:00:00,2017-05-12 00:00:00,TMP,surface,-103.125,25.9842,301.04
2017-05-12 00:00:00,2017-05-12 00:00:00,TMP,surface,-102.188,25.9842,299.162
2017-05-12 00:00:00,2017-05-12 00:00:00,TMP,surface,-101.25,25.9842,298.148
2017-05-12 00:00:00,2017-05-12 00:00:00,TMP,surface,-100.313,25.9842,299.319
2017-05-12 00:00:00,2017-05-12 00:00:00,TMP,surface,-99.3754,25.9842,302.884
2017-05-12 00:00:00,2017-05-12 00:00:00,TMP,surface,-98.4379,25.9842,304.215
2017-05-12 00:00:00,2017-05-12 00:00:00,TMP,surface,-97.5004,25.9842,302.82
2017-05-12 00:00:00,2017-05-12 00:00:00,TMP,surface,-96.5629,25.9842,302.311
2017-05-12 00:00:00,2017-05-12 00:00:00,TMP,surface,-95.6254,25.9842,302.784
2017-05-12 00:00:00,2017-05-12 00:00:00,TMP,surface,-94.6879,25.9842,303.085
2017-05-12 00:00:00,2017-05-12 00:00:00,TMP,surface,-93.7504,25.9842,303.204
2017-05-12 00:00:00,2017-05-12 00:00:00,TMP,surface,-92.8129,25.9842,303.264
2017-05-12 00:00:00,2017-05-12 00:00:00,TMP,surface,-107.813,26.929,296.525
2017-05-12 00:00:00,2017-05-12 00:00:00,TMP,surface,-106.875,26.929,293.671
2017-05-12 00:00:00,2017-05-12 00:00:00,TMP,surface,-105.938,26.929,293.575
2017-05-12 00:00:00,2017-05-12 00:00:00,TMP,surface,-105,26.929,298.317
2017-05-12 00:00:00,2017-05-12 00:00:00,TMP,surface,-104.063,26.929,301.328
2017-05-12 00:00:00,2017-05-12 00:00:00,TMP,surface,-103.125,26.929,300.26
2017-05-12 00:00:00,2017-05-12 00:00:00,TMP,surface,-102.188,26.929,298.9
2017-05-12 00:00:00,2017-05-12 00:00:00,TMP,surface,-101.25,26.929,300.036
2017-05-12 00:00:00,2017-05-12 00:00:00,TMP,surface,-100.313,26.929,302.768
2017-05-12 00:00:00,2017-05-12 00:00:00,TMP,surface,-99.3754,26.929,304.637
2017-05-12 00:00:00,2017-05-12 00:00:00,TMP,surface,-98.4379,26.929,303.453
2017-05-12 00:00:00,2017-05-12 00:00:00,TMP,surface,-97.5004,26.929,300.797
2017-05-12 00:00:00,2017-05-12 00:00:00,TMP,surface,-96.5629,26.929,301.345
2017-05-12 00:00:00,2017-05-12 00:00:00,TMP,surface,-95.6254,26.929,302.417
2017-05-12 00:00:00,2017-05-12 00:00:00,TMP,surface,-94.6879,26.929,303.044
2017-05-12 00:00:00,2017-05-12 00:00:00,TMP,surface,-93.7504,26.929,303.239
2017-05-12 00:00:00,2017-05-12 00:00:00,TMP,surface,-92.8129,26.929,303.325
2017-05-12 00:00:00,2017-05-12 00:00:00,TMP,surface,-107.813,27.8739,294.586
2017-05-12 00:00:00,2017-05-12 00:00:00,TMP,surface,-106.875,27.8739,293.674
2017-05-12 00:00:00,2017-05-12 00:00:00,TMP,surface,-105.938,27.8739,296.701
2017-05-12 00:00:00,2017-05-12 00:00:00,TMP,surface,-105,27.8739,300.768
2017-05-12 00:00:00,2017-05-12 00:00:00,TMP,surface,-104.063,27.8739,301.185
2017-05-12 00:00:00,2017-05-12 00:00:00,TMP,surface,-103.125,27.8739,298.669
2017-05-12 00:00:00,2017-05-12 00:00:00,TMP,surface,-102.188,27.8739,298.077
2017-05-12 00:00:00,2017-05-12 00:00:00,TMP,surface,-101.25,27.8739,300.804
2017-05-12 00:00:00,2017-05-12 00:00:00,TMP,surface,-100.313,27.8739,303.396
2017-05-12 00:00:00,2017-05-12 00:00:00,TMP,surface,-99.3754,27.8739,303.488
2017-05-12 00:00:00,2017-05-12 00:00:00,TMP,surface,-98.4379,27.8739,302.09
2017-05-12 00:00:00,2017-05-12 00:00:00,TMP,surface,-97.5004,27.8739,301.648
2017-05-12 00:00:00,2017-05-12 00:00:00,TMP,surface,-96.5629,27.8739,302.208
2017-05-12 00:00:00,2017-05-12 00:00:00,TMP,surface,-95.6254,27.8739,302.717
2017-05-12 00:00:00,2017-05-12 00:00:00,TMP,surface,-94.6879,27.8739,303.175
2017-05-12 00:00:00,2017-05-12 00:00:00,TMP,surface,-93.7504,27.8739,303.364
2017-05-12 00:00:00,2017-05-12 00:00:00,TMP,surface,-92.8129,27.8739,303.434
2017-05-12 00:00:00,2017-05-12 00:00:00,TMP,surface,-107.813,28.8188,294.599
2017-05-12 00:00:00,2017-05-12 00:00:00,TMP,surface,-106.875,28.8188,295.204
2017-05-12 00:00:00,2017-05-12 00:00:00,TMP,surface,-105.938,28.8188,298.836
2017-05-12 00:00:00,2017-05-12 00:00:00,TMP,surface,-105,28.8188,302.257
2017-05-12 00:00:00,2017-05-12 00:00:00,TMP,surface,-104.063,28.8188,300.913
2017-05-12 00:00:00,2017-05-12 00:00:00,TMP,surface,-103.125,28.8188,299.034
2017-05-12 00:00:00,2017-05-12 00:00:00,TMP,surface,-102.188,28.8188,298.685
2017-05-12 00:00:00,2017-05-12 00:00:00,TMP,surface,-101.25,28.8188,301.082
2017-05-12 00:00:00,2017-05-12 00:00:00,TMP,surface,-100.313,28.8188,302.228
2017-05-12 00:00:00,2017-05-12 00:00:00,TMP,surface,-99.3754,28.8188,301.469
2017-05-12 00:00:00,2017-05-12 00:00:00,TMP,surface,-98.4379,28.8188,300.513
2017-05-12 00:00:00,2017-05-12 00:00:00,TMP,surface,-97.5004,28.8188,300.231
2017-05-12 00:00:00,2017-05-12 00:00:00,TMP,surface,-96.5629,28.8188,300.672
2017-05-12 00:00:00,2017-05-12 00:00:00,TMP,surface,-95.6254,28.8188,301.533
2017-05-12 00:00:00,2017-05-12 00:00:00,TMP,surface,-94.6879,28.8188,302.247
2017-05-12 00:00:00,2017-05-12 00:00:00,TMP,surface,-93.7504,28.8188,302.57
2017-05-12 00:00:00,2017-05-12 00:00:00,TMP,surface,-92.8129,28.8188,302.625
2017-05-12 00:00:00,2017-05-12 00:00:00,TMP,surface,-107.813,29.7637,297.066
2017-05-12 00:00:00,2017-05-12 00:00:00,TMP,surface,-106.875,29.7637,298.228
2017-05-12 00:00:00,2017-05-12 00:00:00,TMP,surface,-105.938,29.7637,300.727
2017-05-12 00:00:00,2017-05-12 00:00:00,TMP,surface,-105,29.7637,301.936
2017-05-12 00:00:00,2017-05-12 00:00:00,TMP,surface,-104.063,29.7637,301.079
2017-05-12 00:00:00,2017-05-12 00:00:00,TMP,surface,-103.125,29.7637,300.557
2017-05-12 00:00:00,2017-05-12 00:00:00,TMP,surface,-102.188,29.7637,301.216
2017-05-12 00:00:00,2017-05-12 00:00:00,TMP,surface,-101.25,29.7637,301.54
2017-05-12 00:00:00,2017-05-12 00:00:00,TMP,surface,-100.313,29.7637,300.647
2017-05-12 00:00:00,2017-05-12 00:00:00,TMP,surface,-99.3754,29.7637,299.453
2017-05-12 00:00:00,2017-05-12 00:00:00,TMP,surface,-98.4379,29.7637,299.133
2017-05-12 00:00:00,2017-05-12 00:00:00,TMP,surface,-97.5004,29.7637,299.741
2017-05-12 00:00:00,2017-05-12 00:00:00,TMP,surface,-96.5629,29.7637,300.448
2017-05-12 00:00:00,2017-05-12 00:00:00,TMP,surface,-95.6254,29.7637,300.871
2017-05-12 00:00:00,2017-05-12 00:00:00,TMP,surface,-94.6879,29.7637,301.194
2017-05-12 00:00:00,2017-05-12 00:00:00,TMP,surface,-93.7504,29.7637,301.693
2017-05-12 00:00:00,2017-05-12 00:00:00,TMP,surface,-92.8129,29.7637,302.676
2017-05-12 00:00:00,2017-05-12 00:00:00,TMP,surface,-107.813,30.7085,301.309
2017-05-12 00:00:00,2017-05-12 00:00:00,TMP,surface,-106.875,30.7085,301.93
2017-05-12 00:00:00,2017-05-12 00:00:00,TMP,surface,-105.938,30.7085,301.953
2017-05-12 00:00:00,2017-05-12 00:00:00,TMP,surface,-105,30.7085,301.655
2017-05-12 00:00:00,2017-05-12 00:00:00,TMP,surface,-104.063,30.7085,300.73
2017-05-12 00:00:00,2017-05-12 00:00:00,TMP,surface,-103.125,30.7085,301.562
2017-05-12 00:00:00,2017-05-12 00:00:00,TMP,surface,-102.188,30.7085,302.071
2017-05-12 00:00:00,2017-05-12 00:00:00,TMP,surface,-101.25,30.7085,301.239
2017-05-12 00:00:00,2017-05-12 00:00:00,TMP,surface,-100.313,30.7085,300.132
2017-05-12 00:00:00,2017-05-12 00:00:00,TMP,surface,-99.3754,30.7085,299.45
2017-05-12 00:00:00,2017-05-12 00:00:00,TMP,surface,-98.4379,30.7085,299.585
2017-05-12 00:00:00,2017-05-12 00:00:00,TMP,surface,-97.5004,30.7085,300.237
2017-05-12 00:00:00,2017-05-12 00:00:00,TMP,surface,-96.5629,30.7085,300.897
2017-05-12 00:00:00,2017-05-12 00:00:00,TMP,surface,-95.6254,30.7085,301.226
2017-05-12 00:00:00,2017-05-12 00:00:00,TMP,surface,-94.6879,30.7085,301.354
2017-05-12 00:00:00,2017-05-12 00:00:00,TMP,surface,-93.7504,30.7085,301.834
2017-05-12 00:00:00,2017-05-12 00:00:00,TMP,surface,-92.8129,30.7085,302.119
2017-05-12 00:00:00,2017-05-12 00:00:00,TMP,surface,-107.813,31.6534,302.791
2017-05-12 00:00:00,2017-05-12 00:00:00,TMP,surface,-106.875,31.6534,303.018
2017-05-12 00:00:00,2017-05-12 00:00:00,TMP,surface,-105.938,31.6534,302.16
2017-05-12 00:00:00,2017-05-12 00:00:00,TMP,surface,-105,31.6534,301.514
2017-05-12 00:00:00,2017-05-12 00:00:00,TMP,surface,-104.063,31.6534,301.565
2017-05-12 00:00:00,2017-05-12 00:00:00,TMP,surface,-103.125,31.6534,301.927
2017-05-12 00:00:00,2017-05-12 00:00:00,TMP,surface,-102.188,31.6534,301.965
2017-05-12 00:00:00,2017-05-12 00:00:00,TMP,surface,-101.25,31.6534,301.069
2017-05-12 00:00:00,2017-05-12 00:00:00,TMP,surface,-100.313,31.6534,300.384
2017-05-12 00:00:00,2017-05-12 00:00:00,TMP,surface,-99.3754,31.6534,300.353
2017-05-12 00:00:00,2017-05-12 00:00:00,TMP,surface,-98.4379,31.6534,300.615
2017-05-12 00:00:00,2017-05-12 00:00:00,TMP,surface,-97.5004,31.6534,300.845
2017-05-12 00:00:00,2017-05-12 00:00:00,TMP,surface,-96.5629,31.6534,301.127
2017-05-12 00:00:00,2017-05-12 00:00:00,TMP,surface,-95.6254,31.6534,301.354
2017-05-12 00:00:00,2017-05-12 00:00:00,TMP,surface,-94.6879,31.6534,301.412
2017-05-12 00:00:00,2017-05-12 00:00:00,TMP,surface,-93.7504,31.6534,301.671
2017-05-12 00:00:00,2017-05-12 00:00:00,TMP,surface,-92.8129,31.6534,301.908
2017-05-12 00:00:00,2017-05-12 00:00:00,TMP,surface,-107.813,32.5983,299.77
2017-05-12 00:00:00,2017-05-12 00:00:00,TMP,surface,-106.875,32.5983,300.276
2017-05-12 00:00:00,2017-05-12 00:00:00,TMP,surface,-105.938,32.5983,300.72
2017-05-12 00:00:00,2017-05-12 00:00:00,TMP,surface,-105,32.5983,300.621
2017-05-12 00:00:00,2017-05-12 00:00:00,TMP,surface,-104.063,32.5983,301.121
2017-05-12 00:00:00,2017-05-12 00:00:00,TMP,surface,-103.125,32.5983,301.533
2017-05-12 00:00:00,2017-05-12 00:00:00,TMP,surface,-102.188,32.5983,301.284
2017-05-12 00:00:00,2017-05-12 00:00:00,TMP,surface,-101.25,32.5983,300.954
2017-05-12 00:00:00,2017-05-12 00:00:00,TMP,surface,-100.313,32.5983,301.322
2017-05-12 00:00:00,2017-05-12 00:00:00,TMP,surface,-99.3754,32.5983,301.802
2017-05-12 00:00:00,2017-05-12 00:00:00,TMP,surface,-98.4379,32.5983,301.773
2017-05-12 00:00:00,2017-05-12 00:00:00,TMP,surface,-97.5004,32.5983,301.361
2017-05-12 00:00:00,2017-05-12 00:00:00,TMP,surface,-96.5629,32.5983,301.197
2017-05-12 00:00:00,2017-05-12 00:00:00,TMP,surface,-95.6254,32.5983,301.421
2017-05-12 00:00:00,2017-05-12 00:00:00,TMP,surface,-94.6879,32.5983,301.658
2017-05-12 00:00:00,2017-05-12 00:00:00,TMP,surface,-93.7504,32.5983,301.946
2017-05-12 00:00:00,2017-05-12 00:00:00,TMP,surface,-92.8129,32.5983,302.368
2017-05-12 00:00:00,2017-05-12 00:00:00,TMP,surface,-107.813,33.5432,295.687
2017-05-12 00:00:00,2017-05-12 00:00:00,TMP,surface,-106.875,33.5432,297.159
2017-05-12 00:00:00,2017-05-12 00:00:00,TMP,surface,-105.938,33.5432,298.17
2017-05-12 00:00:00,2017-05-12 00:00:00,TMP,surface,-105,33.5432,299.444
2017-05-12 00:00:00,2017-05-12 00:00:00,TMP,surface,-104.063,33.5432,300.871
2017-05-12 00:00:00,2017-05-12 00:00:00,TMP,surface,-103.125,33.5432,300.727
2017-05-12 00:00:00,2017-05-12 00:00:00,TMP,surface,-102.188,33.5432,300.384
2017-05-12 00:00:00,2017-05-12 00:00:00,TMP,surface,-101.25,33.5432,300.692
2017-05-12 00:00:00,2017-05-12 00:00:00,TMP,surface,-100.313,33.5432,301.905
2017-05-12 00:00:00,2017-05-12 00:00:00,TMP,surface,-99.3754,33.5432,302.704
2017-05-12 00:00:00,2017-05-12 00:00:00,TMP,surface,-98.4379,33.5432,302.327
2017-05-12 00:00:00,2017-05-12 00:00:00,TMP,surface,-97.5004,33.5432,301.303
2017-05-12 00:00:00,2017-05-12 00:00:00,TMP,surface,-96.5629,33.5432,300.768
2017-05-12 00:00:00,2017-05-12 00:00:00,TMP,surface,-95.6254,33.5432,300.992
2017-05-12 00:00:00,2017-05-12 00:00:00,TMP,surface,-94.6879,33.5432,301.277
2017-05-12 00:00:00,2017-05-12 00:00:00,TMP,surface,-93.7504,33.5432,301.409
2017-05-12 00:00:00,2017-05-12 00:00:00,TMP,surface,-92.8129,33.5432,301.725
2017-05-12 00:00:00,2017-05-12 00:00:00,TMP,surface,-107.813,34.4881,294.983
2017-05-12 00:00:00,2017-05-12 00:00:00,TMP,surface,-106.875,34.4881,296.269
2017-05-12 00:00:00,2017-05-12 00:00:00,TMP,surface,-105.938,34.4881,297.191
2017-05-12 00:00:00,2017-05-12 00:00:00,TMP,surface,-105,34.4881,299.181
2017-05-12 00:00:00,2017-05-12 00:00:00,TMP,surface,-104.063,34.4881,300.173
2017-05-12 00:00:00,2017-05-12 00:00:00,TMP,surface,-103.125,34.4881,300.119
2017-05-12 00:00:00,2017-05-12 00:00:00,TMP,surface,-102.188,34.4881,300.129
2017-05-12 00:00:00,2017-05-12 00:00:00,TMP,surface,-101.25,34.4881,300.599
2017-05-12 00:00:00,2017-05-12 00:00:00,TMP,surface,-100.313,34.4881,301.681
2017-05-12 00:00:00,2017-05-12 00:00:00,TMP,surface,-99.3754,34.4881,302.177
2017-05-12 00:00:00,2017-05-12 00:00:00,TMP,surface,-98.4379,34.4881,301.648
2017-05-12 00:00:00,2017-05-12 00:00:00,TMP,surface,-97.5004,34.4881,300.618
2017-05-12 00:00:00,2017-05-12 00:00:00,TMP,surface,-96.5629,34.4881,300.32
2017-05-12 00:00:00,2017-05-12 00:00:00,TMP,surface,-95.6254,34.4881,300.628
2017-05-12 00:00:00,2017-05-12 00:00:00,TMP,surface,-94.6879,34.4881,300.394
2017-05-12 00:00:00,2017-05-12 00:00:00,TMP,surface,-93.7504,34.4881,300.221
2017-05-12 00:00:00,2017-05-12 00:00:00,TMP,surface,-92.8129,34.4881,300.733
2017-05-12 00:00:00,2017-05-12 00:00:00,TMP,surface,-107.813,35.4329,296.285
2017-05-12 00:00:00,2017-05-12 00:00:00,TMP,surface,-106.875,35.4329,296.007
2017-05-12 00:00:00,2017-05-12 00:00:00,TMP,surface,-105.938,35.4329,295.581
2017-05-12 00:00:00,2017-05-12 00:00:00,TMP,surface,-105,35.4329,296.384
2017-05-12 00:00:00,2017-05-12 00:00:00,TMP,surface,-104.063,35.4329,298.762
2017-05-12 00:00:00,2017-05-12 00:00:00,TMP,surface,-103.125,35.4329,300.266
2017-05-12 00:00:00,2017-05-12 00:00:00,TMP,surface,-102.188,35.4329,300.768
2017-05-12 00:00:00,2017-05-12 00:00:00,TMP,surface,-101.25,35.4329,301.146
2017-05-12 00:00:00,2017-05-12 00:00:00,TMP,surface,-100.313,35.4329,301.226
2017-05-12 00:00:00,2017-05-12 00:00:00,TMP,surface,-99.3754,35.4329,301.392
2017-05-12 00:00:00,2017-05-12 00:00:00,TMP,surface,-98.4379,35.4329,301.044
2017-05-12 00:00:00,2017-05-12 00:00:00,TMP,surface,-97.5004,35.4329,300.272
2017-05-12 00:00:00,2017-05-12 00:00:00,TMP,surface,-96.5629,35.4329,299.857
2017-05-12 00:00:00,2017-05-12 00:00:00,TMP,surface,-95.6254,35.4329,300.039
2017-05-12 00:00:00,2017-05-12 00:00:00,TMP,surface,-94.6879,35.4329,300.112
2017-05-12 00:00:00,2017-05-12 00:00:00,TMP,surface,-93.7504,35.4329,299.6
2017-05-12 00:00:00,2017-05-12 00:00:00,TMP,surface,-92.8129,35.4329,299.629
2017-05-12 00:00:00,2017-05-12 00:00:00,TMP,surface,-107.813,36.3778,296.096
2017-05-12 00:00:00,2017-05-12 00:00:00,TMP,surface,-106.875,36.3778,293.095
2017-05-12 00:00:00,2017-05-12 00:00:00,TMP,surface,-105.938,36.3778,292.756
2017-05-12 00:00:00,2017-05-12 00:00:00,TMP,surface,-105,36.3778,293.351
2017-05-12 00:00:00,2017-05-12 00:00:00,TMP,surface,-104.063,36.3778,296.618
2017-05-12 00:00:00,2017-05-12 00:00:00,TMP,surface,-103.125,36.3778,299.009
2017-05-12 00:00:00,2017-05-12 00:00:00,TMP,surface,-102.188,36.3778,300.615
2017-05-12 00:00:00,2017-05-12 00:00:00,TMP,surface,-101.25,36.3778,301.44
2017-05-12 00:00:00,2017-05-12 00:00:00,TMP,surface,-100.313,36.3778,301.633
2017-05-12 00:00:00,2017-05-12 00:00:00,TMP,surface,-99.3754,36.3778,301.424
2017-05-12 00:00:00,2017-05-12 00:00:00,TMP,surface,-98.4379,36.3778,301.146
2017-05-12 00:00:00,2017-05-12 00:00:00,TMP,surface,-97.5004,36.3778,300.605
2017-05-12 00:00:00,2017-05-12 00:00:00,TMP,surface,-96.5629,36.3778,300.087
2017-05-12 00:00:00,2017-05-12 00:00:00,TMP,surface,-95.6254,36.3778,300.048
2017-05-12 00:00:00,2017-05-12 00:00:00,TMP,surface,-94.6879,36.3778,299.943
2017-05-12 00:00:00,2017-05-12 00:00:00,TMP,surface,-93.7504,36.3778,299.345
2017-05-12 00:00:00,2017-05-12 00:00:00,TMP,surface,-92.8129,36.3778,299.261
2017-05-12 00:00:00,2017-05-12 00:00:00,PRATE,surface,-107.813,25.0393,2e-07
2017-05-12 00:00:00,2017-05-12 00:00:00,PRATE,surface,-106.875,25.0393,5.85e-05
2017-05-12 00:00:00,2017-05-12 00:00:00,PRATE,surface,-105.938,25.0393,0.0001643
2017-05-12 00:00:00,2017-05-12 00:00:00,PRATE,surface,-105,25.0393,7.25e-05
2017-05-12 00:00:00,2017-05-12 00:00:00,PRATE,surface,-104.063,25.0393,1.77e-05
2017-05-12 00:00:00,2017-05-12 00:00:00,PRATE,surface,-103.125,25.0393,1.2e-06
2017-05-12 00:00:00,2017-05-12 00:00:00,PRATE,surface,-102.188,25.0393,7.8e-06
2017-05-12 00:00:00,2017-05-12 00:00:00,PRATE,surface,-101.25,25.0393,4.96e-05
2017-05-12 00:00:00,2017-05-12 00:00:00,PRATE,surface,-100.313,25.0393,3.67e-05
2017-05-12 00:00:00,2017-05-12 00:00:00,PRATE,surface,-99.3754,25.0393,9.2e-06
2017-05-12 00:00:00,2017-05-12 00:00:00,PRATE,surface,-98.4379,25.0393,4.1e-06
2017-05-12 00:00:00,2017-05-12 00:00:00,PRATE,surface,-97.5004,25.0393,1.63e-05
2017-05-12 00:00:00,2017-05-12 00:00:00,PRATE,surface,-96.5629,25.0393,3.12e-05
2017-05-12 00:00:00,2017-05-12 00:00:00,PRATE,surface,-95.6254,25.0393,1.54e-05
2017-05-12 00:00:00,2017-05-12 00:00:00,PRATE,surface,-94.6879,25.0393,1.97e-05
2017-05-12 00:00:00,2017-05-12 00:00:00,PRATE,surface,-93.7504,25.0393,3.29e-05
2017-05-12 00:00:00,2017-05-12 00:00:00,PRATE,surface,-92.8129,25.0393,2.37e-05
2017-05-12 00:00:00,2017-05-12 00:00:00,PRATE,surface,-107.813,25.9842,1.14e-05
2017-05-12 00:00:00,2017-05-12 00:00:00,PRATE,surface,-106.875,25.9842,0.0001493
2017-05-12 00:00:00,2017-05-12 00:00:00,PRATE,surface,-105.938,25.9842,0.00011
2017-05-12 00:00:00,2017-05-12 00:00:00,PRATE,surface,-105,25.9842,5.4e-05
2017-05-12 00:00:00,2017-05-12 00:00:00,PRATE,surface,-104.063,25.9842,7.3e-06
2017-05-12 00:00:00,2017-05-12 00:00:00,PRATE,surface,-103.125,25.9842,1.7e-06
2017-05-12 00:00:00,2017-05-12 00:00:00,PRATE,surface,-102.188,25.9842,1.04e-05
2017-05-12 00:00:00,2017-05-12 00:00:00,PRATE,surface,-101.25,25.9842,2.8e-05
2017-05-12 00:00:00,2017-05-12 00:00:00,PRATE,surface,-100.313,25.9842,2.01e-05
2017-05-12 00:00:00,2017-05-12 00:00:00,PRATE,surface,-99.3754,25.9842,2.4e-06
2017-05-12 00:00:00,2017-05-12 00:00:00,PRATE,surface,-98.4379,25.9842,3e-06
2017-05-12 00:00:00,2017-05-12 00:00:00,PRATE,surface,-97.5004,25.9842,3.12e-05
2017-05-12 00:00:00,2017-05-12 00:00:00,PRATE,surface,-96.5629,25.9842,2.56e-05
2017-05-12 00:00:00,2017-05-12 00:00:00,PRATE,surface,-95.6254,25.9842,3.25e-05
2017-05-12 00:00:00,2017-05-12 00:00:00,PRATE,surface,-94.6879,25.9842,2.23e-05
2017-05-12 00:00:00,2017-05-12 00:00:00,PRATE,surface,-93.7504,25.9842,3.16e-05
2017-05-12 00:00:00,2017-05-12 00:00:00,PRATE,surface,-92.8129,25.9842,2.74e-05
2017-05-12 00:00:00,2017-05-12 00:00:00,PRATE,surface,-107.813,26.929,7.15e-05
2017-05-12 00:00:00,2017-05-12 00:00:00,PRATE,surface,-106.875,26.929,0.0001039
2017-05-12 00:00:00,2017-05-12 00:00:00,PRATE,surface,-105.938,26.929,5.39e-05
2017-05-12 00:00:00,2017-05-12 00:00:00,PRATE,surface,-105,26.929,3.68e-05
2017-05-12 00:00:00,2017-05-12 00:00:00,PRATE,surface,-104.063,26.929,1.36e-05
2017-05-12 00:00:00,2017-05-12 00:00:00,PRATE,surface,-103.125,26.929,2.36e-05
2017-05-12 00:00:00,2017-05-12 00:00:00,PRATE,surface,-102.188,26.929,2.9e-05
2017-05-12 00:00:00,2017-05-12 00:00:00,PRATE,surface,-101.25,26.929,3.35e-05
2017-05-12 00:00:00,2017-05-12 00:00:00,PRATE,surface,-100.313,26.929,1.18e-05
2017-05-12 00:00:00,2017-05-12 00:00:00,PRATE,surface,-99.3754,26.929,5.3e-06
2017-05-12 00:00:00,2017-05-12 00:00:00,PRATE,surface,-98.4379,26.929,7.4e-06
2017-05-12 00:00:00,2017-05-12 00:00:00,PRATE,surface,-97.5004,26.929,2.4e-05
2017-05-12 00:00:00,2017-05-12 00:00:00,PRATE,surface,-96.5629,26.929,1.01e-05
2017-05-12 00:00:00,2017-05-12 00:00:00,PRATE,surface,-95.6254,26.929,5.3e-06
2017-05-12 00:00:00,2017-05-12 00:00:00,PRATE,surface,-94.6879,26.929,8.7e-06
2017-05-12 00:00:00,2017-05-12 00:00:00,PRATE,surface,-93.7504,26.929,1.66e-05
2017-05-12 00:00:00,2017-05-12 00:00:00,PRATE,surface,-92.8129,26.929,2.42e-05
2017-05-12 00:00:00,2017-05-12 00:00:00,PRATE,surface,-107.813,27.8739,0.000101
2017-05-12 00:00:00,2017-05-12 00:00:00,PRATE,surface,-106.875,27.8739,6.08e-05
2017-05-12 00:00:00,2017-05-12 00:00:00,PRATE,surface,-105.938,27.8739,3.67e-05
2017-05-12 00:00:00,2017-05-12 00:00:00,PRATE,surface,-105,27.8739,1.22e-05
2017-05-12 00:00:00,2017-05-12 00:00:00,PRATE,surface,-104.063,27.8739,2.13e-05
2017-05-12 00:00:00,2017-05-12 00:00:00,PRATE,surface,-103.125,27.8739,4.84e-05
2017-05-12 00:00:00,2017-05-12 00:00:00,PRATE,surface,-102.188,27.8739,4.91e-05
2017-05-12 00:00:00,2017-05-12 00:00:00,PRATE,surface,-101.25,27.8739,3.13e-05
2017-05-12 00:00:00,2017-05-12 00:00:00,PRATE,surface,-100.313,27.8739,1.83e-05
2017-05-12 00:00:00,2017-05-12 00:00:00,PRATE,surface,-99.3754,27.8739,2.17e-05
2017-05-12 00:00:00,2017-05-12 00:00:00,PRATE,surface,-98.4379,27.8739,3.54e-05
2017-05-12 00:00:00,2017-05-12 00:00:00,PRATE,surface,-97.5004,27.8739,3.38e-05
2017-05-12 00:00:00,2017-05-12 00:00:00,PRATE,surface,-96.5629,27.8739,1.57e-05
2017-05-12 00:00:00,2017-05-12 00:00:00,PRATE,surface,-95.6254,27.8739,6.6e-06
2017-05-12 00:00:00,2017-05-12 00:00:00,PRATE,surface,-94.6879,27.8739,1.77e-05
2017-05-12 00:00:00,2017-05-12 00:00:00,PRATE,surface,-93.7504,27.8739,2.99e-05
2017-05-12 00:00:00,2017-05-12 00:00:00,PRATE,surface,-92.8129,27.8739,1.85e-05
2017-05-12 00:00:00,2017-05-12 00:00:00,PRATE,surface,-107.813,28.8188,6.26e-05
2017-05-12 00:00:00,2017-05-12 00:00:00,PRATE,surface,-106.875,28.8188,4.18e-05
2017-05-12 00:00:00,2017-05-12 00:00:00,PRATE,surface,-105.938,28.8188,2.15e-05
2017-05-12 00:00:00,2017-05-12 00:00:00,PRATE,surface,-105,28.8188,4.1e-06
2017-05-12 00:00:00,2017-05-12 00:00:00,PRATE,surface,-104.063,28.8188,1.9e-05
2017-05-12 00:00:00,2017-05-12 00:00:00,PRATE,surface,-103.125,28.8188,2.67e-05
2017-05-12 00:00:00,2017-05-12 00:00:00,PRATE,surface,-102.188,28.8188,2.75e-05
2017-05-12 00:00:00,2017-05-12 00:00:00,PRATE,surface,-101.25,28.8188,1.52e-05
2017-05-12 00:00:00,2017-05-12 00:00:00,PRATE,surface,-100.313,28.8188,2.15e-05
2017-05-12 00:00:00,2017-05-12 00:00:00,PRATE,surface,-99.3754,28.8188,4.68e-05
2017-05-12 00:00:00,2017-05-12 00:00:00,PRATE,surface,-98.4379,28.8188,6.85e-05
2017-05-12 00:00:00,2017-05-12 00:00:00,PRATE,surface,-97.5004,28.8188,6.15e-05
2017-05-12 00:00:00,2017-05-12 00:00:00,PRATE,surface,-96.5629,28.8188,4.02e-05
2017-05-12 00:00:00,2017-05-12 00:00:00,PRATE,surface,-95.6254,28.8188,3.05e-05
2017-05-12 00:00:00,2017-05-12 00:00:00,PRATE,surface,-94.6879,28.8188,3.03e-05
2017-05-12 00:00:00,2017-05-12 00:00:00,PRATE,surface,-93.7504,28.8188,2.97e-05
2017-05-12 00:00:00,2017-05-12 00:00:00,PRATE,surface,-92.8129,28.8188,1.95e-05
2017-05-12 00:00:00,2017-05-12 00:00:00,PRATE,surface,-107.813,29.7637,2.91e-05
2017-05-12 00:00:00,2017-05-12 00:00:00,PRATE,surface,-106.875,29.7637,2.75e-05
2017-05-12 00:00:00,2017-05-12 00:00:00,PRATE,surface,-105.938,29.7637,6e-06
2017-05-12 00:00:00,2017-05-12 00:00:00,PRATE,surface,-105,29.7637,7.4e-06
2017-05-12 00:00:00,2017-05-12 00:00:00,PRATE,surface,-104.063,29.7637,7.9e-06
2017-05-12 00:00:00,2017-05-12 00:00:00,PRATE,surface,-103.125,29.7637,1.1e-05
2017-05-12 00:00:00,2017-05-12 00:00:00,PRATE,surface,-102.188,29.7637,9.7e-06
2017-05-12 00:00:00,2017-05-12 00:00:00,PRATE,surface,-101.25,29.7637,1.48e-05
2017-05-12 00:00:00,2017-05-12 00:00:00,PRATE,surface,-100.313,29.7637,3.26e-05
2017-05-12 00:00:00,2017-05-12 00:00:00,PRATE,surface,-99.3754,29.7637,5.92e-05
2017-05-12 00:00:00,2017-05-12 00:00:00,PRATE,surface,-98.4379,29.7637,6.62e-05
2017-05-12 00:00:00,2017-05-12 00:00:00,PRATE,surface,-97.5004,29.7637,5.37e-05
2017-05-12 00:00:00,2017-05-12 00:00:00,PRATE,surface,-96.5629,29.7637,4.46e-05
2017-05-12 00:00:00,2017-05-12 00:00:00,PRATE,surface,-95.6254,29.7637,5.07e-05
2017-05-12 00:00:00,2017-05-12 00:00:00,PRATE,surface,-94.6879,29.7637,5.29e-05
2017-05-12 00:00:00,2017-05-12 00:00:00,PRATE,surface,-93.7504,29.7637,3.41e-05
2017-05-12 00:00:00,2017-05-12 00:00:00,PRATE,surface,-92.8129,29.7637,3.68e-05
2017-05-12 00:00:00,2017-05-12 00:00:00,PRATE,surface,-107.813,30.7085,3.6e-06
2017-05-12 00:00:00,2017-05-12 00:00:00,PRATE,surface,-106.875,30.7085,7.7e-06
2017-05-12 00:00:00,2017-05-12 00:00:00,PRATE,surface,-105.938,30.7085,9.2e-06
2017-05-12 00:00:00,2017-05-12 00:00:00,PRATE,surface,-105,30.7085,9.8e-06
2017-05-12 00:00:00,2017-05-12 00:00:00,PRATE,surface,-104.063,30.7085,9.5e-06
2017-05-12 00:00:00,2017-05-12 00:00:00,PRATE,surface,-103.125,30.7085,4.8e-06
2017-05-12 00:00:00,2017-05-12 00:00:00,PRATE,surface,-102.188,30.7085,5.8e-06
2017-05-12 00:00:00,2017-05-12 00:00:00,PRATE,surface,-101.25,30.7085,2.21e-05
2017-05-12 00:00:00,2017-05-12 00:00:00,PRATE,surface,-100.313,30.7085,3.64e-05
2017-05-12 00:00:00,2017-05-12 00:00:00,PRATE,surface,-99.3754,30.7085,4.49e-05
2017-05-12 00:00:00,2017-05-12 00:00:00,PRATE,surface,-98.4379,30.7085,3.87e-05
2017-05-12 00:00:00,2017-05-12 00:00:00,PRATE,surface,-97.5004,30.7085,2.9e-05
2017-05-12 00:00:00,2017-05-12 00:00:00,PRATE,surface,-96.5629,30.7085,3.42e-05
2017-05-12 00:00:00,2017-05-12 00:00:00,PRATE,surface,-95.6254,30.7085,4.93e-05
2017-05-12 00:00:00,2017-05-12 00:00:00,PRATE,surface,-94.6879,30.7085,5.18e-05
2017-05-12 00:00:00,2017-05-12 00:00:00,PRATE,surface,-93.7504,30.7085,3.96e-05
2017-05-12 00:00:00,2017-05-12 00:00:00,PRATE,surface,-92.8129,30.7085,4.43e-05
2017-05-12 00:00:00,2017-05-12 00:00:00,PRATE,surface,-107.813,31.6534,4e-06
2017-05-12 00:00:00,2017-05-12 00:00:00,PRATE,surface,-106.875,31.6534,4.8e-06
2017-05-12 00:00:00,2017-05-12 00:00:00,PRATE,surface,-105.938,31.6534,7e-06
2017-05-12 00:00:00,2017-05-12 00:00:00,PRATE,surface,-105,31.6534,8.1e-06
2017-05-12 00:00:00,2017-05-12 00:00:00,PRATE,surface,-104.063,31.6534,7.6e-06
2017-05-12 00:00:00,2017-05-12 00:00:00,PRATE,surface,-103.125,31.6534,4.8e-06
2017-05-12 00:00:00,2017-05-12 00:00:00,PRATE,surface,-102.188,31.6534,8e-06
2017-05-12 00:00:00,2017-05-12 00:00:00,PRATE,surface,-101.25,31.6534,2.06e-05
2017-05-12 00:00:00,2017-05-12 00:00:00,PRATE,surface,-100.313,31.6534,3.02e-05
2017-05-12 00:00:00,2017-05-12 00:00:00,PRATE,surface,-99.3754,31.6534,3.36e-05
2017-05-12 00:00:00,2017-05-12 00:00:00,PRATE,surface,-98.4379,31.6534,2.82e-05
2017-05-12 00:00:00,2017-05-12 00:00:00,PRATE,surface,-97.5004,31.6534,2.64e-05
2017-05-12 00:00:00,2017-05-12 00:00:00,PRATE,surface,-96.5629,31.6534,3.2e-05
2017-05-12 00:00:00,2017-05-12 00:00:00,PRATE,surface,-95.6254,31.6534,4.18e-05
2017-05-12 00:00:00,2017-05-12 00:00:00,PRATE,surface,-94.6879,31.6534,5.02e-05
2017-05-12 00:00:00,2017-05-12 00:00:00,PRATE,surface,-93.7504,31.6534,4.57e-05
2017-05-12 00:00:00,2017-05-12 00:00:00,PRATE,surface,-92.8129,31.6534,4.49e-05
2017-05-12 00:00:00,2017-05-12 00:00:00,PRATE,surface,-107.813,32.5983,9.6e-06
2017-05-12 00:00:00,2017-05-12 00:00:00,PRATE,surface,-106.875,32.5983,7.6e-06
2017-05-12 00:00:00,2017-05-12 00:00:00,PRATE,surface,-105.938,32.5983,6.3e-06
2017-05-12 00:00:00,2017-05-12 00:00:00,PRATE,surface,-105,32.5983,3.7e-06
2017-05-12 00:00:00,2017-05-12 00:00:00,PRATE,surface,-104.063,32.5983,4.5e-06
2017-05-12 00:00:00,2017-05-12 00:00:00,PRATE,surface,-103.125,32.5983,6.9e-06
2017-05-12 00:00:00,2017-05-12 00:00:00,PRATE,surface,-102.188,32.5983,9.8e-06
2017-05-12 00:00:00,2017-05-12 00:00:00,PRATE,surface,-101.25,32.5983,2.48e-05
2017-05-12 00:00:00,2017-05-12 00:00:00,PRATE,surface,-100.313,32.5983,2.85e-05
2017-05-12 00:00:00,2017-05-12 00:00:00,PRATE,surface,-99.3754,32.5983,2.87e-05
2017-05-12 00:00:00,2017-05-12 00:00:00,PRATE,surface,-98.4379,32.5983,3.25e-05
2017-05-12 00:00:00,2017-05-12 00:00:00,PRATE,surface,-97.5004,32.5983,4.1e-05
2017-05-12 00:00:00,2017-05-12 00:00:00,PRATE,surface,-96.5629,32.5983,4.95e-05
2017-05-12 00:00:00,2017-05-12 00:00:00,PRATE,surface,-95.6254,32.5983,5.26e-05
2017-05-12 00:00:00,2017-05-12 00:00:00,PRATE,surface,-94.6879,32.5983,4.63e-05
2017-05-12 00:00:00,2017-05-12 00:00:00,PRATE,surface,-93.7504,32.5983,3.21e-05
2017-05-12 00:00:00,2017-05-12 00:00:00,PRATE,surface,-92.8129,32.5983,2.69e-05
2017-05-12 00:00:00,2017-05-12 00:00:00,PRATE,surface,-107.813,33.5432,1.95e-05
2017-05-12 00:00:00,2017-05-12 00:00:00,PRATE,surface,-106.875,33.5432,1.8e-05
2017-05-12 00:00:00,2017-05-12 00:00:00,PRATE,surface,-105.938,33.5432,9.4e-06
2017-05-12 00:00:00,2017-05-12 00:00:00,PRATE,surface,-105,33.5432,4.6e-06
2017-05-12 00:00:00,2017-05-12 00:00:00,PRATE,surface,-104.063,33.5432,8e-06
2017-05-12 00:00:00,2017-05-12 00:00:00,PRATE,surface,-103.125,33.5432,1.32e-05
2017-05-12 00:00:00,2017-05-12 00:00:00,PRATE,surface,-102.188,33.5432,2.52e-05
2017-05-12 00:00:00,2017-05-12 00:00:00,PRATE,surface,-101.25,33.5432,3.83e-05
2017-05-12 00:00:00,2017-05-12 00:00:00,PRATE,surface,-100.313,33.5432,2.95e-05
2017-05-12 00:00:00,2017-05-12 00:00:00,PRATE,surface,-99.3754,33.5432,1.93e-05
2017-05-12 00:00:00,2017-05-12 00:00:00,PRATE,surface,-98.4379,33.5432,2.23e-05
2017-05-12 00:00:00,2017-05-12 00:00:00,PRATE,surface,-97.5004,33.5432,4.13e-05
2017-05-12 00:00:00,2017-05-12 00:00:00,PRATE,surface,-96.5629,33.5432,5.48e-05
2017-05-12 00:00:00,2017-05-12 00:00:00,PRATE,surface,-95.6254,33.5432,5.24e-05
2017-05-12 00:00:00,2017-05-12 00:00:00,PRATE,surface,-94.6879,33.5432,5.08e-05
2017-05-12 00:00:00,2017-05-12 00:00:00,PRATE,surface,-93.7504,33.5432,5.13e-05
2017-05-12 00:00:00,2017-05-12 00:00:00,PRATE,surface,-92.8129,33.5432,4.87e-05
2017-05-12 00:00:00,2017-05-12 00:00:00,PRATE,surface,-107.813,34.4881,1.82e-05
2017-05-12 00:00:00,2017-05-12 00:00:00,PRATE,surface,-106.875,34.4881,1.65e-05
2017-05-12 00:00:00,2017-05-12 00:00:00,PRATE,surface,-105.938,34.4881,1.56e-05
2017-05-12 00:00:00,2017-05-12 00:00:00,PRATE,surface,-105,34.4881,1.28e-05
2017-05-12 00:00:00,2017-05-12 00:00:00,PRATE,surface,-104.063,34.4881,1.06e-05
2017-05-12 00:00:00,2017-05-12 00:00:00,PRATE,surface,-103.125,34.4881,1.6e-05
2017-05-12 00:00:00,2017-05-12 00:00:00,PRATE,surface,-102.188,34.4881,3.37e-05
2017-05-12 00:00:00,2017-05-12 00:00:00,PRATE,surface,-101.25,34.4881,4.21e-05
2017-05-12 00:00:00,2017-05-12 00:00:00,PRATE,surface,-100.313,34.4881,2.89e-05
2017-05-12 00:00:00,2017-05-12 00:00:00,PRATE,surface,-99.3754,34.4881,2.2e-05
2017-05-12 00:00:00,2017-05-12 00:00:00,PRATE,surface,-98.4379,34.4881,2.53e-05
2017-05-12 00:00:00,2017-05-12 00:00:00,PRATE,surface,-97.5004,34.4881,3.44e-05
2017-05-12 00:00:00,2017-05-12 00:00:00,PRATE,surface,-96.5629,34.4881,4.09e-05
2017-05-12 00:00:00,2017-05-12 00:00:00,PRATE,surface,-95.6254,34.4881,5.08e-05
2017-05-12 00:00:00,2017-05-12 00:00:00,PRATE,surface,-94.6879,34.4881,6.93e-05
2017-05-12 00:00:00,2017-05-12 00:00:00,PRATE,surface,-93.7504,34.4881,7.31e-05
2017-05-12 00:00:00,2017-05-12 00:00:00,PRATE,surface,-92.8129,34.4881,6.61e-05
2017-05-12 00:00:00,2017-05-12 00:00:00,PRATE,surface,-107.813,35.4329,6.5e-06
2017-05-12 00:00:00,2017-05-12 00:00:00,PRATE,surface,-106.875,35.4329,9.9e-06
2017-05-12 00:00:00,2017-05-12 00:00:00,PRATE,surface,-105.938,35.4329,1.6e-05
2017-05-12 00:00:00,2017-05-12 00:00:00,PRATE,surface,-105,35.4329,1.95e-05
2017-05-12 00:00:00,2017-05-12 00:00:00,PRATE,surface,-104.063,35.4329,1.98e-05
2017-05-12 00:00:00,2017-05-12 00:00:00,PRATE,surface,-103.125,35.4329,2e-05
2017-05-12 00:00:00,2017-05-12 00:00:00,PRATE,surface,-102.188,35.4329,2.66e-05
2017-05-12 00:00:00,2017-05-12 00:00:00,PRATE,surface,-101.25,35.4329,2.18e-05
2017-05-12 00:00:00,2017-05-12 00:00:00,PRATE,surface,-100.313,35.4329,2.1e-05
2017-05-12 00:00:00,2017-05-12 00:00:00,PRATE,surface,-99.3754,35.4329,2.16e-05
2017-05-12 00:00:00,2017-05-12 00:00:00,PRATE,surface,-98.4379,35.4329,2.39e-05
2017-05-12 00:00:00,2017-05-12 00:00:00,PRATE,surface,-97.5004,35.4329,2.87e-05
2017-05-12 00:00:00,2017-05-12 00:00:00,PRATE,surface,-96.5629,35.4329,3.07e-05
2017-05-12 00:00:00,2017-05-12 00:00:00,PRATE,surface,-95.6254,35.4329,3.14e-05
2017-05-12 00:00:00,2017-05-12 00:00:00,PRATE,surface,-94.6879,35.4329,3.97e-05
2017-05-12 00:00:00,2017-05-12 00:00:00,PRATE,surface,-93.7504,35.4329,5.3e-05
2017-05-12 00:00:00,2017-05-12 00:00:00,PRATE,surface,-92.8129,35.4329,5.34e-05
2017-05-12 00:00:00,2017-05-12 00:00:00,PRATE,surface,-107.813,36.3778,3.7e-06
2017-05-12 00:00:00,2017-05-12 00:00:00,PRATE,surface,-106.875,36.3778,1.34e-05
2017-05-12 00:00:00,2017-05-12 00:00:00,PRATE,surface,-105.938,36.3778,3.4e-05
2017-05-12 00:00:00,2017-05-12 00:00:00,PRATE,surface,-105,36.3778,3.97e-05
2017-05-12 00:00:00,2017-05-12 00:00:00,PRATE,surface,-104.063,36.3778,2.03e-05
2017-05-12 00:00:00,2017-05-12 00:00:00,PRATE,surface,-103.125,36.3778,1.46e-05
2017-05-12 00:00:00,2017-05-12 00:00:00,PRATE,surface,-102.188,36.3778,9.8e-06
2017-05-12 00:00:00,2017-05-12 00:00:00,PRATE,surface,-101.25,36.3778,9.2e-06
2017-05-12 00:00:00,2017-05-12 00:00:00,PRATE,surface,-100.313,36.3778,9e-06
2017-05-12 00:00:00,2017-05-12 00:00:00,PRATE,surface,-99.3754,36.3778,1.06e-05
2017-05-12 00:00:00,2017-05-12 00:00:00,PRATE,surface,-98.4379,36.3778,1.39e-05
2017-05-12 00:00:00,2017-05-12 00:00:00,PRATE,surface,-97.5004,36.3778,1.62e-05
2017-05-12 00:00:00,2017-05-12 00:00:00,PRATE,surface,-96.5629,36.3778,1.35e-05
2017-05-12 00:00:00,2017-05-12 00:00:00,PRATE,surface,-95.6254,36.3778,1.26e-05
2017-05-12 00:00:00,2017-05-12 00:00:00,PRATE,surface,-94.6879,36.3778,2.19e-05
2017-05-12 00:00:00,2017-05-12 00:00:00,PRATE,surface,-93.7504,36.3778,3.2e-05
2017-05-12 00:00:00,2017-05-12 00:00:00,PRATE,surface,-92.8129,36.3778,3.63e-05
