2013-10-05 00:00:00,2013-10-05 00:00:00,TMP,surface,-107.813,25.0393,302.91
2013-10-05 00:00:00,2013-10-05 00:00:00,TMP,surface,-106.875,25.0393,297.145
2013-10-05 00:00:00,2013-10-05 00:00:00,TMP,surface,-105.938,25.0393,292.191
2013-10-05 00:00:00,2013-10-05 00:00:00,TMP,surface,-105,25.0393,291.02
2013-10-05 00:00:00,2013-10-05 00:00:00,TMP,surface,-104.063,25.0393,295.275
2013-10-05 00:00:00,2013-10-05 00:00:00,TMP,surface,-103.125,25.0393,298.823
2013-10-05 00:00:00,2013-10-05 00:00:00,TMP,surface,-102.188,25.0393,297.329
2013-10-05 00:00:00,2013-10-05 00:00:00,TMP,surface,-101.25,25.0393,294.222
2013-10-05 00:00:00,2013-10-05 00:00:00,TMP,surface,-100.313,25.0393,294.046
2013-10-05 00:00:00,2013-10-05 00:00:00,TMP,surface,-99.3754,25.0393,297.505
2013-10-05 00:00:00,2013-10-05 00:00:00,TMP,surface,-98.4379,25.0393,300.964
2013-10-05 00:00:00,2013-10-05 00:00:00,TMP,surface,-97.5004,25.0393,301.53
2013-10-05 00:00:00,2013-10-05 00:00:00,TMP,surface,-96.5629,25.0393,301.53
2013-10-05 00:00:00,2013-10-05 00:00:00,TMP,surface,-95.6254,25.0393,301.495
2013-10-05 00:00:00,2013-10-05 00:00:00,TMP,surface,-94.6879,25.0393,301.481
2013-10-05 00:00:00,2013-10-05 00:00:00,TMP,surface,-93.7504,25.0393,301.318
2013-10-05 00:00:00,2013-10-05 00:00:00,TMP,surface,-92.8129,25.0393,301.207
2013-10-05 00:00:00,2013-10-05 00:00:00,TMP,surface,-107.813,25.9842,299.705
2013-10-05 00:00:00,2013-10-05 00:00:00,TMP,surface,-106.875,25.9842,292.958
2013-10-05 00:00:00,2013-10-05 00:00:00,TMP,surface,-105.938,25.9842,291.017
2013-10-05 00:00:00,2013-10-05 00:00:00,TMP,surface,-105,25.9842,293.163
2013-10-05 00:00:00,2013-10-05 00:00:00,TMP,surface,-104.063,25.9842,299.186
2013-10-05 00:00:00,2013-10-05 00:00:00,TMP,surface,-103.125,25.9842,301.151
2013-10-05 00:00:00,2013-10-05 00:00:00,TMP,surface,-102.188,25.9842,299.427
2013-10-05 00:00:00,2013-10-05 00:00:00,TMP,surface,-101.25,25.9842,297.47
2013-10-05 00:00:00,2013-10-05 00:00:00,TMP,surface,-100.313,25.9842,297.67
2013-10-05 00:00:00,2013-10-05 00:00:00,TMP,surface,-99.3754,25.9842,300.822
2013-10-05 00:00:00,2013-10-05 00:00:00,TMP,surface,-98.4379,25.9842,301.659
2013-10-05 00:00:00,2013-10-05 00:00:00,TMP,surface,-97.5004,25.9842,300.697
2013-10-05 00:00:00,2013-10-05 00:00:00,TMP,surface,-96.5629,25.9842,300.082
2013-10-05 00:00:00,2013-10-05 00:00:00,TMP,surface,-95.6254,25.9842,300.654
2013-10-05 00:00:00,2013-10-05 00:00:00,TMP,surface,-94.6879,25.9842,301.062
2013-10-05 00:00:00,2013-10-05 00:00:00,TMP,surface,-93.7504,25.9842,301.044
2013-10-05 00:00:00,2013-10-05 00:00:00,TMP,surface,-92.8129,25.9842,300.995
2013-10-05 00:00:00,2013-10-05 00:00:00,TMP,surface,-107.813,26.929,294.748
2013-10-05 00:00:00,2013-10-05 00:00:00,TMP,surface,-106.875,26.929,290.558
2013-10-05 00:00:00,2013-10-05 00:00:00,TMP,surface,-105.938,26.929,292.527
2013-10-05 00:00:00,2013-10-05 00:00:00,TMP,surface,-105,26.929,297.033
2013-10-05 00:00:00,2013-10-05 00:00:00,TMP,surface,-104.063,26.929,300.446
2013-10-05 00:00:00,2013-10-05 00:00:00,TMP,surface,-103.125,26.929,299.772
2013-10-05 00:00:00,2013-10-05 00:00:00,TMP,surface,-102.188,26.929,298.29
2013-10-05 00:00:00,2013-10-05 00:00:00,TMP,surface,-101.25,26.929,298.654
2013-10-05 00:00:00,2013-10-05 00:00:00,TMP,surface,-100.313,26.929,300.316
2013-10-05 00:00:00,2013-10-05 00:00:00,TMP,surface,-99.3754,26.929,301.996
2013-10-05 00:00:00,2013-10-05 00:00:00,TMP,surface,-98.4379,26.929,300.945
2013-10-05 00:00:00,2013-10-05 00:00:00,TMP,surface,-97.5004,26.929,298.807
2013-10-05 00:00:00,2013-10-05 00:00:00,TMP,surface,-96.5629,26.929,299.078
2013-10-05 00:00:00,2013-10-05 00:00:00,TMP,surface,-95.6254,26.929,300.193
2013-10-05 00:00:00,2013-10-05 00:00:00,TMP,surface,-94.6879,26.929,300.766
2013-10-05 00:00:00,2013-10-05 00:00:00,TMP,surface,-93.7504,26.929,300.838
2013-10-05 00:00:00,2013-10-05 00:00:00,TMP,surface,-92.8129,26.929,300.767
2013-10-05 00:00:00,2013-10-05 00:00:00,TMP,surface,-107.813,27.8739,291.836
2013-10-05 00:00:00,2013-10-05 00:00:00,TMP,surface,-106.875,27.8739,290.3
2013-10-05 00:00:00,2013-10-05 00:00:00,TMP,surface,-105.938,27.8739,294.15
2013-10-05 00:00:00,2013-10-05 00:00:00,TMP,surface,-105,27.8739,298.866
2013-10-05 00:00:00,2013-10-05 00:00:00,TMP,surface,-104.063,27.8739,299.489
2013-10-05 00:00:00,2013-10-05 00:00:00,TMP,surface,-103.125,27.8739,297.492
2013-10-05 00:00:00,2013-10-05 00:00:00,TMP,surface,-102.188,27.8739,296.505
2013-10-05 00:00:00,2013-10-05 00:00:00,TMP,surface,-101.25,27.8739,298.295
2013-10-05 00:00:00,2013-10-05 00:00:00,TMP,surface,-100.313,27.8739,300.494
2013-10-05 00:00:00,2013-10-05 00:00:00,TMP,surface,-99.3754,27.8739,300.743
2013-10-05 00:00:00,2013-10-05 00:00:00,TMP,surface,-98.4379,27.8739,299.406
2013-10-05 00:00:00,2013-10-05 00:00:00,TMP,surface,-97.5004,27.8739,299.092
2013-10-05 00:00:00,2013-10-05 00:00:00,TMP,surface,-96.5629,27.8739,299.764
2013-10-05 00:00:00,2013-10-05 00:00:00,TMP,surface,-95.6254,27.8739,300.175
2013-10-05 00:00:00,2013-10-05 00:00:00,TMP,surface,-94.6879,27.8739,300.593
2013-10-05 00:00:00,2013-10-05 00:00:00,TMP,surface,-93.7504,27.8739,300.726
2013-10-05 00:00:00,2013-10-05 00:00:00,TMP,surface,-92.8129,27.8739,300.654
2013-10-05 00:00:00,2013-10-05 00:00:00,TMP,surface,-107.813,28.8188,290.94
2013-10-05 00:00:00,2013-10-05 00:00:00,TMP,surface,-106.875,28.8188,291.345
2013-10-05 00:00:00,2013-10-05 00:00:00,TMP,surface,-105.938,28.8188,295.505
2013-10-05 00:00:00,2013-10-05 00:00:00,TMP,surface,-105,28.8188,298.814
2013-10-05 00:00:00,2013-10-05 00:00:00,TMP,surface,-104.063,28.8188,297.438
2013-10-05 00:00:00,2013-10-05 00:00:00,TMP,surface,-103.125,28.8188,295.763
2013-10-05 00:00:00,2013-10-05 00:00:00,TMP,surface,-102.188,28.8188,295.444
2013-10-05 00:00:00,2013-10-05 00:00:00,TMP,surface,-101.25,28.8188,297.604
2013-10-05 00:00:00,2013-10-05 00:00:00,TMP,surface,-100.313,28.8188,298.721
2013-10-05 00:00:00,2013-10-05 00:00:00,TMP,surface,-99.3754,28.8188,298.398
2013-10-05 00:00:00,2013-10-05 00:00:00,TMP,surface,-98.4379,28.8188,297.806
2013-10-05 00:00:00,2013-10-05 00:00:00,TMP,surface,-97.5004,28.8188,297.737
2013-10-05 00:00:00,2013-10-05 00:00:00,TMP,surface,-96.5629,28.8188,298.318
2013-10-05 00:00:00,2013-10-05 00:00:00,TMP,surface,-95.6254,28.8188,298.684
2013-10-05 00:00:00,2013-10-05 00:00:00,TMP,surface,-94.6879,28.8188,298.694
2013-10-05 00:00:00,2013-10-05 00:00:00,TMP,surface,-93.7504,28.8188,299.46
2013-10-05 00:00:00,2013-10-05 00:00:00,TMP,surface,-92.8129,28.8188,299.721
2013-10-05 00:00:00,2013-10-05 00:00:00,TMP,surface,-107.813,29.7637,293.118
2013-10-05 00:00:00,2013-10-05 00:00:00,TMP,surface,-106.875,29.7637,294.244
2013-10-05 00:00:00,2013-10-05 00:00:00,TMP,surface,-105.938,29.7637,297.099
2013-10-05 00:00:00,2013-10-05 00:00:00,TMP,surface,-105,29.7637,297.396
2013-10-05 00:00:00,2013-10-05 00:00:00,TMP,surface,-104.063,29.7637,296.62
2013-10-05 00:00:00,2013-10-05 00:00:00,TMP,surface,-103.125,29.7637,296.273
2013-10-05 00:00:00,2013-10-05 00:00:00,TMP,surface,-102.188,29.7637,297.166
2013-10-05 00:00:00,2013-10-05 00:00:00,TMP,surface,-101.25,29.7637,297.977
2013-10-05 00:00:00,2013-10-05 00:00:00,TMP,surface,-100.313,29.7637,297.395
2013-10-05 00:00:00,2013-10-05 00:00:00,TMP,surface,-99.3754,29.7637,296.526
2013-10-05 00:00:00,2013-10-05 00:00:00,TMP,surface,-98.4379,29.7637,296.313
2013-10-05 00:00:00,2013-10-05 00:00:00,TMP,surface,-97.5004,29.7637,296.85
2013-10-05 00:00:00,2013-10-05 00:00:00,TMP,surface,-96.5629,29.7637,297.54
2013-10-05 00:00:00,2013-10-05 00:00:00,TMP,surface,-95.6254,29.7637,298.006
2013-10-05 00:00:00,2013-10-05 00:00:00,TMP,surface,-94.6879,29.7637,298.194
2013-10-05 00:00:00,2013-10-05 00:00:00,TMP,surface,-93.7504,29.7637,298.279
2013-10-05 00:00:00,2013-10-05 00:00:00,TMP,surface,-92.8129,29.7637,299.163
2013-10-05 00:00:00,2013-10-05 00:00:00,TMP,surface,-107.813,30.7085,297.849
2013-10-05 00:00:00,2013-10-05 00:00:00,TMP,surface,-106.875,30.7085,298.265
2013-10-05 00:00:00,2013-10-05 00:00:00,TMP,surface,-105.938,30.7085,297.738
2013-10-05 00:00:00,2013-10-05 00:00:00,TMP,surface,-105,30.7085,296.433
2013-10-05 00:00:00,2013-10-05 00:00:00,TMP,surface,-104.063,30.7085,295.807
2013-10-05 00:00:00,2013-10-05 00:00:00,TMP,surface,-103.125,30.7085,297.092
2013-10-05 00:00:00,2013-10-05 00:00:00,TMP,surface,-102.188,30.7085,298.079
2013-10-05 00:00:00,2013-10-05 00:00:00,TMP,surface,-101.25,30.7085,297.809
2013-10-05 00:00:00,2013-10-05 00:00:00,TMP,surface,-100.313,30.7085,296.835
2013-10-05 00:00:00,2013-10-05 00:00:00,TMP,surface,-99.3754,30.7085,296.092
2013-10-05 00:00:00,2013-10-05 00:00:00,TMP,surface,-98.4379,30.7085,296.244
2013-10-05 00:00:00,2013-10-05 00:00:00,TMP,surface,-97.5004,30.7085,296.842
2013-10-05 00:00:00,2013-10-05 00:00:00,TMP,surface,-96.5629,30.7085,297.884
2013-10-05 00:00:00,2013-10-05 00:00:00,TMP,surface,-95.6254,30.7085,298.822
2013-10-05 00:00:00,2013-10-05 00:00:00,TMP,surface,-94.6879,30.7085,298.838
2013-10-05 00:00:00,2013-10-05 00:00:00,TMP,surface,-93.7504,30.7085,298.927
2013-10-05 00:00:00,2013-10-05 00:00:00,TMP,surface,-92.8129,30.7085,298.759
2013-10-05 00:00:00,2013-10-05 00:00:00,TMP,surface,-107.813,31.6534,298.865
2013-10-05 00:00:00,2013-10-05 00:00:00,TMP,surface,-106.875,31.6534,298.723
2013-10-05 00:00:00,2013-10-05 00:00:00,TMP,surface,-105.938,31.6534,297.321
2013-10-05 00:00:00,2013-10-05 00:00:00,TMP,surface,-105,31.6534,296.315
2013-10-05 00:00:00,2013-10-05 00:00:00,TMP,surface,-104.063,31.6534,296.738
2013-10-05 00:00:00,2013-10-05 00:00:00,TMP,surface,-103.125,31.6534,297.561
2013-10-05 00:00:00,2013-10-05 00:00:00,TMP,surface,-102.188,31.6534,298.054
2013-10-05 00:00:00,2013-10-05 00:00:00,TMP,surface,-101.25,31.6534,297.609
2013-10-05 00:00:00,2013-10-05 00:00:00,TMP,surface,-100.313,31.6534,297.051
2013-10-05 00:00:00,2013-10-05 00:00:00,TMP,surface,-99.3754,31.6534,296.43
2013-10-05 00:00:00,2013-10-05 00:00:00,TMP,surface,-98.4379,31.6534,296.388
2013-10-05 00:00:00,2013-10-05 00:00:00,TMP,surface,-97.5004,31.6534,296.919
2013-10-05 00:00:00,2013-10-05 00:00:00,TMP,surface,-96.5629,31.6534,297.948
2013-10-05 00:00:00,2013-10-05 00:00:00,TMP,surface,-95.6254,31.6534,298.919
2013-10-05 00:00:00,2013-10-05 00:00:00,TMP,surface,-94.6879,31.6534,299.028
2013-10-05 00:00:00,2013-10-05 00:00:00,TMP,surface,-93.7504,31.6534,298.825
2013-10-05 00:00:00,2013-10-05 00:00:00,TMP,surface,-92.8129,31.6534,298.676
2013-10-05 00:00:00,2013-10-05 00:00:00,TMP,surface,-107.813,32.5983,295.25
2013-10-05 00:00:00,2013-10-05 00:00:00,TMP,surface,-106.875,32.5983,295.331
2013-10-05 00:00:00,2013-10-05 00:00:00,TMP,surface,-105.938,32.5983,295.335
2013-10-05 00:00:00,2013-10-05 00:00:00,TMP,surface,-105,32.5983,295.311
2013-10-05 00:00:00,2013-10-05 00:00:00,TMP,surface,-104.063,32.5983,296.53
2013-10-05 00:00:00,2013-10-05 00:00:00,TMP,surface,-103.125,32.5983,297.327
2013-10-05 00:00:00,2013-10-05 00:00:00,TMP,surface,-102.188,32.5983,297.193
2013-10-05 00:00:00,2013-10-05 00:00:00,TMP,surface,-101.25,32.5983,297.051
2013-10-05 00:00:00,2013-10-05 00:00:00,TMP,surface,-100.313,32.5983,297.331
2013-10-05 00:00:00,2013-10-05 00:00:00,TMP,surface,-99.3754,32.5983,297.018
2013-10-05 00:00:00,2013-10-05 00:00:00,TMP,surface,-98.4379,32.5983,296.578
2013-10-05 00:00:00,2013-10-05 00:00:00,TMP,surface,-97.5004,32.5983,296.698
2013-10-05 00:00:00,2013-10-05 00:00:00,TMP,surface,-96.5629,32.5983,297.543
2013-10-05 00:00:00,2013-10-05 00:00:00,TMP,surface,-95.6254,32.5983,298.575
2013-10-05 00:00:00,2013-10-05 00:00:00,TMP,surface,-94.6879,32.5983,298.908
2013-10-05 00:00:00,2013-10-05 00:00:00,TMP,surface,-93.7504,32.5983,298.633
2013-10-05 00:00:00,2013-10-05 00:00:00,TMP,surface,-92.8129,32.5983,298.66
2013-10-05 00:00:00,2013-10-05 00:00:00,TMP,surface,-107.813,33.5432,290.809
2013-10-05 00:00:00,2013-10-05 00:00:00,TMP,surface,-106.875,33.5432,292.163
2013-10-05 00:00:00,2013-10-05 00:00:00,TMP,surface,-105.938,33.5432,293.062
2013-10-05 00:00:00,2013-10-05 00:00:00,TMP,surface,-105,33.5432,294.383
2013-10-05 00:00:00,2013-10-05 00:00:00,TMP,surface,-104.063,33.5432,296.055
2013-10-05 00:00:00,2013-10-05 00:00:00,TMP,surface,-103.125,33.5432,296.051
2013-10-05 00:00:00,2013-10-05 00:00:00,TMP,surface,-102.188,33.5432,295.447
2013-10-05 00:00:00,2013-10-05 00:00:00,TMP,surface,-101.25,33.5432,295.534
2013-10-05 00:00:00,2013-10-05 00:00:00,TMP,surface,-100.313,33.5432,296.799
2013-10-05 00:00:00,2013-10-05 00:00:00,TMP,surface,-99.3754,33.5432,297.11
2013-10-05 00:00:00,2013-10-05 00:00:00,TMP,surface,-98.4379,33.5432,296.606
2013-10-05 00:00:00,2013-10-05 00:00:00,TMP,surface,-97.5004,33.5432,296.303
2013-10-05 00:00:00,2013-10-05 00:00:00,TMP,surface,-96.5629,33.5432,296.478
2013-10-05 00:00:00,2013-10-05 00:00:00,TMP,surface,-95.6254,33.5432,297.27
2013-10-05 00:00:00,2013-10-05 00:00:00,TMP,surface,-94.6879,33.5432,298.119
2013-10-05 00:00:00,2013-10-05 00:00:00,TMP,surface,-93.7504,33.5432,297.967
2013-10-05 00:00:00,2013-10-05 00:00:00,TMP,surface,-92.8129,33.5432,297.959
2013-10-05 00:00:00,2013-10-05 00:00:00,TMP,surface,-107.813,34.4881,289.47
2013-10-05 00:00:00,2013-10-05 00:00:00,TMP,surface,-106.875,34.4881,291.26
2013-10-05 00:00:00,2013-10-05 00:00:00,TMP,surface,-105.938,34.4881,292.196
2013-10-05 00:00:00,2013-10-05 00:00:00,TMP,surface,-105,34.4881,293.615
2013-10-05 00:00:00,2013-10-05 00:00:00,TMP,surface,-104.063,34.4881,294.607
2013-10-05 00:00:00,2013-10-05 00:00:00,TMP,surface,-103.125,34.4881,294.719
2013-10-05 00:00:00,2013-10-05 00:00:00,TMP,surface,-102.188,34.4881,294.412
2013-10-05 00:00:00,2013-10-05 00:00:00,TMP,surface,-101.25,34.4881,294.754
2013-10-05 00:00:00,2013-10-05 00:00:00,TMP,surface,-100.313,34.4881,295.814
2013-10-05 00:00:00,2013-10-05 00:00:00,TMP,surface,-99.3754,34.4881,296.547
2013-10-05 00:00:00,2013-10-05 00:00:00,TMP,surface,-98.4379,34.4881,296.254
2013-10-05 00:00:00,2013-10-05 00:00:00,TMP,surface,-97.5004,34.4881,295.734
2013-10-05 00:00:00,2013-10-05 00:00:00,TMP,surface,-96.5629,34.4881,296.097
2013-10-05 00:00:00,2013-10-05 00:00:00,TMP,surface,-95.6254,34.4881,296.892
2013-10-05 00:00:00,2013-10-05 00:00:00,TMP,surface,-94.6879,34.4881,297.043
2013-10-05 00:00:00,2013-10-05 00:00:00,TMP,surface,-93.7504,34.4881,296.91
2013-10-05 00:00:00,2013-10-05 00:00:00,TMP,surface,-92.8129,34.4881,297.193
2013-10-05 00:00:00,2013-10-05 00:00:00,TMP,surface,-107.813,35.4329,290.671
2013-10-05 00:00:00,2013-10-05 00:00:00,TMP,surface,-106.875,35.4329,290.769
2013-10-05 00:00:00,2013-10-05 00:00:00,TMP,surface,-105.938,35.4329,290.547
2013-10-05 00:00:00,2013-10-05 00:00:00,TMP,surface,-105,35.4329,290.783
2013-10-05 00:00:00,2013-10-05 00:00:00,TMP,surface,-104.063,35.4329,293.729
2013-10-05 00:00:00,2013-10-05 00:00:00,TMP,surface,-103.125,35.4329,294.918
2013-10-05 00:00:00,2013-10-05 00:00:00,TMP,surface,-102.188,35.4329,294.702
2013-10-05 00:00:00,2013-10-05 00:00:00,TMP,surface,-101.25,35.4329,294.82
2013-10-05 00:00:00,2013-10-05 00:00:00,TMP,surface,-100.313,35.4329,295.076
2013-10-05 00:00:00,2013-10-05 00:00:00,TMP,surface,-99.3754,35.4329,295.539
2013-10-05 00:00:00,2013-10-05 00:00:00,TMP,surface,-98.4379,35.4329,295.606
2013-10-05 00:00:00,2013-10-05 00:00:00,TMP,surface,-97.5004,35.4329,295.351
2013-10-05 00:00:00,2013-10-05 00:00:00,TMP,surface,-96.5629,35.4329,295.25
2013-10-05 00:00:00,2013-10-05 00:00:00,TMP,surface,-95.6254,35.4329,295.698
2013-10-05 00:00:00,2013-10-05 00:00:00,TMP,surface,-94.6879,35.4329,296.268
2013-10-05 00:00:00,2013-10-05 00:00:00,TMP,surface,-93.7504,35.4329,295.972
2013-10-05 00:00:00,2013-10-05 00:00:00,TMP,surface,-92.8129,35.4329,295.91
2013-10-05 00:00:00,2013-10-05 00:00:00,TMP,surface,-107.813,36.3778,290.53
2013-10-05 00:00:00,2013-10-05 00:00:00,TMP,surface,-106.875,36.3778,287.711
2013-10-05 00:00:00,2013-10-05 00:00:00,TMP,surface,-105.938,36.3778,287.427
2013-10-05 00:00:00,2013-10-05 00:00:00,TMP,surface,-105,36.3778,287.889
2013-10-05 00:00:00,2013-10-05 00:00:00,TMP,surface,-104.063,36.3778,291.031
2013-10-05 00:00:00,2013-10-05 00:00:00,TMP,surface,-103.125,36.3778,292.729
2013-10-05 00:00:00,2013-10-05 00:00:00,TMP,surface,-102.188,36.3778,293.715
2013-10-05 00:00:00,2013-10-05 00:00:00,TMP,surface,-101.25,36.3778,294.18
2013-10-05 00:00:00,2013-10-05 00:00:00,TMP,surface,-100.313,36.3778,294.692
2013-10-05 00:00:00,2013-10-05 00:00:00,TMP,surface,-99.3754,36.3778,295.082
2013-10-05 00:00:00,2013-10-05 00:00:00,TMP,surface,-98.4379,36.3778,295.238
2013-10-05 00:00:00,2013-10-05 00:00:00,TMP,surface,-97.5004,36.3778,295.091
2013-10-05 00:00:00,2013-10-05 00:00:00,TMP,surface,-96.5629,36.3778,294.932
2013-10-05 00:00:00,2013-10-05 00:00:00,TMP,surface,-95.6254,36.3778,295.278
2013-10-05 00:00:00,2013-10-05 00:00:00,TMP,surface,-94.6879,36.3778,295.609
2013-10-05 00:00:00,2013-10-05 00:00:00,TMP,surface,-93.7504,36.3778,295.099
2013-10-05 00:00:00,2013-10-05 00:00:00,TMP,surface,-92.8129,36.3778,294.964
2013-10-05 00:00:00,2013-10-05 00:00:00,PRATE,surface,-107.813,25.0393,4e-07
2013-10-05 00:00:00,2013-10-05 00:00:00,PRATE,surface,-106.875,25.0393,3e-05
2013-10-05 00:00:00,2013-10-05 00:00:00,PRATE,surface,-105.938,25.0393,9.32e-05
2013-10-05 00:00:00,2013-10-05 00:00:00,PRATE,surface,-105,25.0393,8.7e-05
2013-10-05 00:00:00,2013-10-05 00:00:00,PRATE,surface,-104.063,25.0393,2.65e-05
2013-10-05 00:00:00,2013-10-05 00:00:00,PRATE,surface,-103.125,25.0393,2e-06
2013-10-05 00:00:00,2013-10-05 00:00:00,PRATE,surface,-102.188,25.0393,8.6e-06
2013-10-05 00:00:00,2013-10-05 00:00:00,PRATE,surface,-101.25,25.0393,1.99e-05
2013-10-05 00:00:00,2013-10-05 00:00:00,PRATE,surface,-100.313,25.0393,3.33e-05
2013-10-05 00:00:00,2013-10-05 00:00:00,PRATE,surface,-99.3754,25.0393,1.27e-05
2013-10-05 00:00:00,2013-10-05 00:00:00,PRATE,surface,-98.4379,25.0393,3.1e-06
2013-10-05 00:00:00,2013-10-05 00:00:00,PRATE,surface,-97.5004,25.0393,4.5e-06
2013-10-05 00:00:00,2013-10-05 00:00:00,PRATE,surface,-96.5629,25.0393,2.7e-06
2013-10-05 00:00:00,2013-10-05 00:00:00,PRATE,surface,-95.6254,25.0393,2.8e-06
2013-10-05 00:00:00,2013-10-05 00:00:00,PRATE,surface,-94.6879,25.0393,2.5e-06
2013-10-05 00:00:00,2013-10-05 00:00:00,PRATE,surface,-93.7504,25.0393,5e-06
2013-10-05 00:00:00,2013-10-05 00:00:00,PRATE,surface,-92.8129,25.0393,8.1e-06
2013-10-05 00:00:00,2013-10-05 00:00:00,PRATE,surface,-107.813,25.9842,1.79e-05
2013-10-05 00:00:00,2013-10-05 00:00:00,PRATE,surface,-106.875,25.9842,9.06e-05
2013-10-05 00:00:00,2013-10-05 00:00:00,PRATE,surface,-105.938,25.9842,0.0001023
2013-10-05 00:00:00,2013-10-05 00:00:00,PRATE,surface,-105,25.9842,7.5e-05
2013-10-05 00:00:00,2013-10-05 00:00:00,PRATE,surface,-104.063,25.9842,7.8e-06
2013-10-05 00:00:00,2013-10-05 00:00:00,PRATE,surface,-103.125,25.9842,3.6e-06
2013-10-05 00:00:00,2013-10-05 00:00:00,PRATE,surface,-102.188,25.9842,5.8e-06
2013-10-05 00:00:00,2013-10-05 00:00:00,PRATE,surface,-101.25,25.9842,8.4e-06
2013-10-05 00:00:00,2013-10-05 00:00:00,PRATE,surface,-100.313,25.9842,1.87e-05
2013-10-05 00:00:00,2013-10-05 00:00:00,PRATE,surface,-99.3754,25.9842,5.9e-06
2013-10-05 00:00:00,2013-10-05 00:00:00,PRATE,surface,-98.4379,25.9842,6.3e-06
2013-10-05 00:00:00,2013-10-05 00:00:00,PRATE,surface,-97.5004,25.9842,5.9e-06
2013-10-05 00:00:00,2013-10-05 00:00:00,PRATE,surface,-96.5629,25.9842,2.1e-06
2013-10-05 00:00:00,2013-10-05 00:00:00,PRATE,surface,-95.6254,25.9842,3.1e-06
2013-10-05 00:00:00,2013-10-05 00:00:00,PRATE,surface,-94.6879,25.9842,4.4e-06
2013-10-05 00:00:00,2013-10-05 00:00:00,PRATE,surface,-93.7504,25.9842,4.5e-06
2013-10-05 00:00:00,2013-10-05 00:00:00,PRATE,surface,-92.8129,25.9842,8.8e-06
2013-10-05 00:00:00,2013-10-05 00:00:00,PRATE,surface,-107.813,26.929,6.16e-05
2013-10-05 00:00:00,2013-10-05 00:00:00,PRATE,surface,-106.875,26.929,0.0001094
2013-10-05 00:00:00,2013-10-05 00:00:00,PRATE,surface,-105.938,26.929,9.91e-05
2013-10-05 00:00:00,2013-10-05 00:00:00,PRATE,surface,-105,26.929,5.38e-05
2013-10-05 00:00:00,2013-10-05 00:00:00,PRATE,surface,-104.063,26.929,1.1e-05
2013-10-05 00:00:00,2013-10-05 00:00:00,PRATE,surface,-103.125,26.929,9.2e-06
2013-10-05 00:00:00,2013-10-05 00:00:00,PRATE,surface,-102.188,26.929,1.09e-05
2013-10-05 00:00:00,2013-10-05 00:00:00,PRATE,surface,-101.25,26.929,1.37e-05
2013-10-05 00:00:00,2013-10-05 00:00:00,PRATE,surface,-100.313,26.929,1.48e-05
2013-10-05 00:00:00,2013-10-05 00:00:00,PRATE,surface,-99.3754,26.929,1.32e-05
2013-10-05 00:00:00,2013-10-05 00:00:00,PRATE,surface,-98.4379,26.929,1.15e-05
2013-10-05 00:00:00,2013-10-05 00:00:00,PRATE,surface,-97.5004,26.929,8e-06
2013-10-05 00:00:00,2013-10-05 00:00:00,PRATE,surface,-96.5629,26.929,1.8e-06
2013-10-05 00:00:00,2013-10-05 00:00:00,PRATE,surface,-95.6254,26.929,7.1e-06
2013-10-05 00:00:00,2013-10-05 00:00:00,PRATE,surface,-94.6879,26.929,5e-06
2013-10-05 00:00:00,2013-10-05 00:00:00,PRATE,surface,-93.7504,26.929,5.6e-06
2013-10-05 00:00:00,2013-10-05 00:00:00,PRATE,surface,-92.8129,26.929,5.4e-06
2013-10-05 00:00:00,2013-10-05 00:00:00,PRATE,surface,-107.813,27.8739,8.55e-05
2013-10-05 00:00:00,2013-10-05 00:00:00,PRATE,surface,-106.875,27.8739,9.86e-05
2013-10-05 00:00:00,2013-10-05 00:00:00,PRATE,surface,-105.938,27.8739,6.57e-05
2013-10-05 00:00:00,2013-10-05 00:00:00,PRATE,surface,-105,27.8739,2.35e-05
2013-10-05 00:00:00,2013-10-05 00:00:00,PRATE,surface,-104.063,27.8739,2.01e-05
2013-10-05 00:00:00,2013-10-05 00:00:00,PRATE,surface,-103.125,27.8739,3.22e-05
2013-10-05 00:00:00,2013-10-05 00:00:00,PRATE,surface,-102.188,27.8739,3.09e-05
2013-10-05 00:00:00,2013-10-05 00:00:00,PRATE,surface,-101.25,27.8739,2.01e-05
2013-10-05 00:00:00,2013-10-05 00:00:00,PRATE,surface,-100.313,27.8739,1.46e-05
2013-10-05 00:00:00,2013-10-05 00:00:00,PRATE,surface,-99.3754,27.8739,1.54e-05
2013-10-05 00:00:00,2013-10-05 00:00:00,PRATE,surface,-98.4379,27.8739,1.64e-05
2013-10-05 00:00:00,2013-10-05 00:00:00,PRATE,surface,-97.5004,27.8739,1.13e-05
2013-10-05 00:00:00,2013-10-05 00:00:00,PRATE,surface,-96.5629,27.8739,5e-06
2013-10-05 00:00:00,2013-10-05 00:00:00,PRATE,surface,-95.6254,27.8739,4.2e-06
2013-10-05 00:00:00,2013-10-05 00:00:00,PRATE,surface,-94.6879,27.8739,8.1e-06
2013-10-05 00:00:00,2013-10-05 00:00:00,PRATE,surface,-93.7504,27.8739,1.32e-05
2013-10-05 00:00:00,2013-10-05 00:00:00,PRATE,surface,-92.8129,27.8739,1.04e-05
2013-10-05 00:00:00,2013-10-05 00:00:00,PRATE,surface,-107.813,28.8188,8.65e-05
2013-10-05 00:00:00,2013-10-05 00:00:00,PRATE,surface,-106.875,28.8188,8.16e-05
2013-10-05 00:00:00,2013-10-05 00:00:00,PRATE,surface,-105.938,28.8188,4.2e-05
2013-10-05 00:00:00,2013-10-05 00:00:00,PRATE,surface,-105,28.8188,1.95e-05
2013-10-05 00:00:00,2013-10-05 00:00:00,PRATE,surface,-104.063,28.8188,2.97e-05
2013-10-05 00:00:00,2013-10-05 00:00:00,PRATE,surface,-103.125,28.8188,3.63e-05
2013-10-05 00:00:00,2013-10-05 00:00:00,PRATE,surface,-102.188,28.8188,2.98e-05
2013-10-05 00:00:00,2013-10-05 00:00:00,PRATE,surface,-101.25,28.8188,2.18e-05
2013-10-05 00:00:00,2013-10-05 00:00:00,PRATE,surface,-100.313,28.8188,1.05e-05
2013-10-05 00:00:00,2013-10-05 00:00:00,PRATE,surface,-99.3754,28.8188,1.19e-05
2013-10-05 00:00:00,2013-10-05 00:00:00,PRATE,surface,-98.4379,28.8188,1.72e-05
2013-10-05 00:00:00,2013-10-05 00:00:00,PRATE,surface,-97.5004,28.8188,1.29e-05
2013-10-05 00:00:00,2013-10-05 00:00:00,PRATE,surface,-96.5629,28.8188,6.8e-06
2013-10-05 00:00:00,2013-10-05 00:00:00,PRATE,surface,-95.6254,28.8188,8.2e-06
2013-10-05 00:00:00,2013-10-05 00:00:00,PRATE,surface,-94.6879,28.8188,9.5e-06
2013-10-05 00:00:00,2013-10-05 00:00:00,PRATE,surface,-93.7504,28.8188,6.5e-06
2013-10-05 00:00:00,2013-10-05 00:00:00,PRATE,surface,-92.8129,28.8188,6.4e-06
2013-10-05 00:00:00,2013-10-05 00:00:00,PRATE,surface,-107.813,29.7637,4.08e-05
2013-10-05 00:00:00,2013-10-05 00:00:00,PRATE,surface,-106.875,29.7637,4.7e-05
2013-10-05 00:00:00,2013-10-05 00:00:00,PRATE,surface,-105.938,29.7637,2.57e-05
2013-10-05 00:00:00,2013-10-05 00:00:00,PRATE,surface,-105,29.7637,1.79e-05
2013-10-05 00:00:00,2013-10-05 00:00:00,PRATE,surface,-104.063,29.7637,2.43e-05
2013-10-05 00:00:00,2013-10-05 00:00:00,PRATE,surface,-103.125,29.7637,3.27e-05
2013-10-05 00:00:00,2013-10-05 00:00:00,PRATE,surface,-102.188,29.7637,1.89e-05
2013-10-05 00:00:00,2013-10-05 00:00:00,PRATE,surface,-101.25,29.7637,9.8e-06
2013-10-05 00:00:00,2013-10-05 00:00:00,PRATE,surface,-100.313,29.7637,9.2e-06
2013-10-05 00:00:00,2013-10-05 00:00:00,PRATE,surface,-99.3754,29.7637,1.35e-05
2013-10-05 00:00:00,2013-10-05 00:00:00,PRATE,surface,-98.4379,29.7637,1.63e-05
2013-10-05 00:00:00,2013-10-05 00:00:00,PRATE,surface,-97.5004,29.7637,1.7e-05
2013-10-05 00:00:00,2013-10-05 00:00:00,PRATE,surface,-96.5629,29.7637,1.61e-05
2013-10-05 00:00:00,2013-10-05 00:00:00,PRATE,surface,-95.6254,29.7637,1.58e-05
2013-10-05 00:00:00,2013-10-05 00:00:00,PRATE,surface,-94.6879,29.7637,1.9e-05
2013-10-05 00:00:00,2013-10-05 00:00:00,PRATE,surface,-93.7504,29.7637,1.96e-05
2013-10-05 00:00:00,2013-10-05 00:00:00,PRATE,surface,-92.8129,29.7637,1.5e-05
2013-10-05 00:00:00,2013-10-05 00:00:00,PRATE,surface,-107.813,30.7085,7.4e-06
2013-10-05 00:00:00,2013-10-05 00:00:00,PRATE,surface,-106.875,30.7085,9.9e-06
2013-10-05 00:00:00,2013-10-05 00:00:00,PRATE,surface,-105.938,30.7085,1.76e-05
2013-10-05 00:00:00,2013-10-05 00:00:00,PRATE,surface,-105,30.7085,3.26e-05
2013-10-05 00:00:00,2013-10-05 00:00:00,PRATE,surface,-104.063,30.7085,3.31e-05
2013-10-05 00:00:00,2013-10-05 00:00:00,PRATE,surface,-103.125,30.7085,2.22e-05
2013-10-05 00:00:00,2013-10-05 00:00:00,PRATE,surface,-102.188,30.7085,1.17e-05
2013-10-05 00:00:00,2013-10-05 00:00:00,PRATE,surface,-101.25,30.7085,6.9e-06
2013-10-05 00:00:00,2013-10-05 00:00:00,PRATE,surface,-100.313,30.7085,7.8e-06
2013-10-05 00:00:00,2013-10-05 00:00:00,PRATE,surface,-99.3754,30.7085,8.7e-06
2013-10-05 00:00:00,2013-10-05 00:00:00,PRATE,surface,-98.4379,30.7085,9.8e-06
2013-10-05 00:00:00,2013-10-05 00:00:00,PRATE,surface,-97.5004,30.7085,1.03e-05
2013-10-05 00:00:00,2013-10-05 00:00:00,PRATE,surface,-96.5629,30.7085,1.51e-05
2013-10-05 00:00:00,2013-10-05 00:00:00,PRATE,surface,-95.6254,30.7085,2.25e-05
2013-10-05 00:00:00,2013-10-05 00:00:00,PRATE,surface,-94.6879,30.7085,2.1e-05
2013-10-05 00:00:00,2013-10-05 00:00:00,PRATE,surface,-93.7504,30.7085,1.5e-05
2013-10-05 00:00:00,2013-10-05 00:00:00,PRATE,surface,-92.8129,30.7085,1.78e-05
2013-10-05 00:00:00,2013-10-05 00:00:00,PRATE,surface,-107.813,31.6534,5.5e-06
2013-10-05 00:00:00,2013-10-05 00:00:00,PRATE,surface,-106.875,31.6534,7.3e-06
2013-10-05 00:00:00,2013-10-05 00:00:00,PRATE,surface,-105.938,31.6534,1.38e-05
2013-10-05 00:00:00,2013-10-05 00:00:00,PRATE,surface,-105,31.6534,3.05e-05
2013-10-05 00:00:00,2013-10-05 00:00:00,PRATE,surface,-104.063,31.6534,2.71e-05
2013-10-05 00:00:00,2013-10-05 00:00:00,PRATE,surface,-103.125,31.6534,1.27e-05
2013-10-05 00:00:00,2013-10-05 00:00:00,PRATE,surface,-102.188,31.6534,7.1e-06
2013-10-05 00:00:00,2013-10-05 00:00:00,PRATE,surface,-101.25,31.6534,6.6e-06
2013-10-05 00:00:00,2013-10-05 00:00:00,PRATE,surface,-100.313,31.6534,7.8e-06
2013-10-05 00:00:00,2013-10-05 00:00:00,PRATE,surface,-99.3754,31.6534,1e-05
2013-10-05 00:00:00,2013-10-05 00:00:00,PRATE,surface,-98.4379,31.6534,1.18e-05
2013-10-05 00:00:00,2013-10-05 00:00:00,PRATE,surface,-97.5004,31.6534,1.07e-05
2013-10-05 00:00:00,2013-10-05 00:00:00,PRATE,surface,-96.5629,31.6534,1.48e-05
2013-10-05 00:00:00,2013-10-05 00:00:00,PRATE,surface,-95.6254,31.6534,2.45e-05
2013-10-05 00:00:00,2013-10-05 00:00:00,PRATE,surface,-94.6879,31.6534,2.5e-05
2013-10-05 00:00:00,2013-10-05 00:00:00,PRATE,surface,-93.7504,31.6534,1.8e-05
2013-10-05 00:00:00,2013-10-05 00:00:00,PRATE,surface,-92.8129,31.6534,1.66e-05
2013-10-05 00:00:00,2013-10-05 00:00:00,PRATE,surface,-107.813,32.5983,1.82e-05
2013-10-05 00:00:00,2013-10-05 00:00:00,PRATE,surface,-106.875,32.5983,2.22e-05
2013-10-05 00:00:00,2013-10-05 00:00:00,PRATE,surface,-105.938,32.5983,2.82e-05
2013-10-05 00:00:00,2013-10-05 00:00:00,PRATE,surface,-105,32.5983,3.47e-05
2013-10-05 00:00:00,2013-10-05 00:00:00,PRATE,surface,-104.063,32.5983,1.84e-05
2013-10-05 00:00:00,2013-10-05 00:00:00,PRATE,surface,-103.125,32.5983,8.7e-06
2013-10-05 00:00:00,2013-10-05 00:00:00,PRATE,surface,-102.188,32.5983,1e-05
2013-10-05 00:00:00,2013-10-05 00:00:00,PRATE,surface,-101.25,32.5983,1.11e-05
2013-10-05 00:00:00,2013-10-05 00:00:00,PRATE,surface,-100.313,32.5983,7.7e-06
2013-10-05 00:00:00,2013-10-05 00:00:00,PRATE,surface,-99.3754,32.5983,7.3e-06
2013-10-05 00:00:00,2013-10-05 00:00:00,PRATE,surface,-98.4379,32.5983,1.32e-05
2013-10-05 00:00:00,2013-10-05 00:00:00,PRATE,surface,-97.5004,32.5983,1.66e-05
2013-10-05 00:00:00,2013-10-05 00:00:00,PRATE,surface,-96.5629,32.5983,2.03e-05
2013-10-05 00:00:00,2013-10-05 00:00:00,PRATE,surface,-95.6254,32.5983,2.47e-05
2013-10-05 00:00:00,2013-10-05 00:00:00,PRATE,surface,-94.6879,32.5983,2.19e-05
2013-10-05 00:00:00,2013-10-05 00:00:00,PRATE,surface,-93.7504,32.5983,2.07e-05
2013-10-05 00:00:00,2013-10-05 00:00:00,PRATE,surface,-92.8129,32.5983,2.17e-05
2013-10-05 00:00:00,2013-10-05 00:00:00,PRATE,surface,-107.813,33.5432,4.62e-05
2013-10-05 00:00:00,2013-10-05 00:00:00,PRATE,surface,-106.875,33.5432,4.34e-05
2013-10-05 00:00:00,2013-10-05 00:00:00,PRATE,surface,-105.938,33.5432,4.13e-05
2013-10-05 00:00:00,2013-10-05 00:00:00,PRATE,surface,-105,33.5432,2.63e-05
2013-10-05 00:00:00,2013-10-05 00:00:00,PRATE,surface,-104.063,33.5432,1.9e-05
2013-10-05 00:00:00,2013-10-05 00:00:00,PRATE,surface,-103.125,33.5432,1.72e-05
2013-10-05 00:00:00,2013-10-05 00:00:00,PRATE,surface,-102.188,33.5432,2.93e-05
2013-10-05 00:00:00,2013-10-05 00:00:00,PRATE,surface,-101.25,33.5432,2.75e-05
2013-10-05 00:00:00,2013-10-05 00:00:00,PRATE,surface,-100.313,33.5432,1.78e-05
2013-10-05 00:00:00,2013-10-05 00:00:00,PRATE,surface,-99.3754,33.5432,1.23e-05
2013-10-05 00:00:00,2013-10-05 00:00:00,PRATE,surface,-98.4379,33.5432,1.21e-05
2013-10-05 00:00:00,2013-10-05 00:00:00,PRATE,surface,-97.5004,33.5432,2.3e-05
2013-10-05 00:00:00,2013-10-05 00:00:00,PRATE,surface,-96.5629,33.5432,3.39e-05
2013-10-05 00:00:00,2013-10-05 00:00:00,PRATE,surface,-95.6254,33.5432,2.63e-05
2013-10-05 00:00:00,2013-10-05 00:00:00,PRATE,surface,-94.6879,33.5432,1.34e-05
2013-10-05 00:00:00,2013-10-05 00:00:00,PRATE,surface,-93.7504,33.5432,1.62e-05
2013-10-05 00:00:00,2013-10-05 00:00:00,PRATE,surface,-92.8129,33.5432,1.91e-05
2013-10-05 00:00:00,2013-10-05 00:00:00,PRATE,surface,-107.813,34.4881,4.37e-05
2013-10-05 00:00:00,2013-10-05 00:00:00,PRATE,surface,-106.875,34.4881,3.29e-05
2013-10-05 00:00:00,2013-10-05 00:00:00,PRATE,surface,-105.938,34.4881,3.1e-05
2013-10-05 00:00:00,2013-10-05 00:00:00,PRATE,surface,-105,34.4881,2.46e-05
2013-10-05 00:00:00,2013-10-05 00:00:00,PRATE,surface,-104.063,34.4881,2.03e-05
2013-10-05 00:00:00,2013-10-05 00:00:00,PRATE,surface,-103.125,34.4881,2.2e-05
2013-10-05 00:00:00,2013-10-05 00:00:00,PRATE,surface,-102.188,34.4881,3.36e-05
2013-10-05 00:00:00,2013-10-05 00:00:00,PRATE,surface,-101.25,34.4881,3.81e-05
2013-10-05 00:00:00,2013-10-05 00:00:00,PRATE,surface,-100.313,34.4881,2.28e-05
2013-10-05 00:00:00,2013-10-05 00:00:00,PRATE,surface,-99.3754,34.4881,1.42e-05
2013-10-05 00:00:00,2013-10-05 00:00:00,PRATE,surface,-98.4379,34.4881,1.86e-05
2013-10-05 00:00:00,2013-10-05 00:00:00,PRATE,surface,-97.5004,34.4881,3.11e-05
2013-10-05 00:00:00,2013-10-05 00:00:00,PRATE,surface,-96.5629,34.4881,3.89e-05
2013-10-05 00:00:00,2013-10-05 00:00:00,PRATE,surface,-95.6254,34.4881,3.25e-05
2013-10-05 00:00:00,2013-10-05 00:00:00,PRATE,surface,-94.6879,34.4881,2.18e-05
2013-10-05 00:00:00,2013-10-05 00:00:00,PRATE,surface,-93.7504,34.4881,1.7e-05
2013-10-05 00:00:00,2013-10-05 00:00:00,PRATE,surface,-92.8129,34.4881,1.32e-05
2013-10-05 00:00:00,2013-10-05 00:00:00,PRATE,surface,-107.813,35.4329,2.47e-05
2013-10-05 00:00:00,2013-10-05 00:00:00,PRATE,surface,-106.875,35.4329,2.23e-05
2013-10-05 00:00:00,2013-10-05 00:00:00,PRATE,surface,-105.938,35.4329,2.38e-05
2013-10-05 00:00:00,2013-10-05 00:00:00,PRATE,surface,-105,35.4329,4.06e-05
2013-10-05 00:00:00,2013-10-05 00:00:00,PRATE,surface,-104.063,35.4329,3.29e-05
2013-10-05 00:00:00,2013-10-05 00:00:00,PRATE,surface,-103.125,35.4329,3.01e-05
2013-10-05 00:00:00,2013-10-05 00:00:00,PRATE,surface,-102.188,35.4329,3.51e-05
2013-10-05 00:00:00,2013-10-05 00:00:00,PRATE,surface,-101.25,35.4329,3.95e-05
2013-10-05 00:00:00,2013-10-05 00:00:00,PRATE,surface,-100.313,35.4329,2.68e-05
2013-10-05 00:00:00,2013-10-05 00:00:00,PRATE,surface,-99.3754,35.4329,2.33e-05
2013-10-05 00:00:00,2013-10-05 00:00:00,PRATE,surface,-98.4379,35.4329,3.49e-05
2013-10-05 00:00:00,2013-10-05 00:00:00,PRATE,surface,-97.5004,35.4329,4.83e-05
2013-10-05 00:00:00,2013-10-05 00:00:00,PRATE,surface,-96.5629,35.4329,5.14e-05
2013-10-05 00:00:00,2013-10-05 00:00:00,PRATE,surface,-95.6254,35.4329,4.3e-05
2013-10-05 00:00:00,2013-10-05 00:00:00,PRATE,surface,-94.6879,35.4329,3.46e-05
2013-10-05 00:00:00,2013-10-05 00:00:00,PRATE,surface,-93.7504,35.4329,3.16e-05
2013-10-05 00:00:00,2013-10-05 00:00:00,PRATE,surface,-92.8129,35.4329,2.33e-05
2013-10-05 00:00:00,2013-10-05 00:00:00,PRATE,surface,-107.813,36.3778,2.98e-05
2013-10-05 00:00:00,2013-10-05 00:00:00,PRATE,surface,-106.875,36.3778,4.39e-05
2013-10-05 00:00:00,2013-10-05 00:00:00,PRATE,surface,-105.938,36.3778,6.35e-05
2013-10-05 00:00:00,2013-10-05 00:00:00,PRATE,surface,-105,36.3778,7.8e-05
2013-10-05 00:00:00,2013-10-05 00:00:00,PRATE,surface,-104.063,36.3778,6.22e-05
2013-10-05 00:00:00,2013-10-05 00:00:00,PRATE,surface,-103.125,36.3778,3.59e-05
2013-10-05 00:00:00,2013-10-05 00:00:00,PRATE,surface,-102.188,36.3778,3.78e-05
2013-10-05 00:00:00,2013-10-05 00:00:00,PRATE,surface,-101.25,36.3778,3.89e-05
2013-10-05 00:00:00,2013-10-05 00:00:00,PRATE,surface,-100.313,36.3778,3.4e-05
2013-10-05 00:00:00,2013-10-05 00:00:00,PRATE,surface,-99.3754,36.3778,3.67e-05
2013-10-05 00:00:00,2013-10-05 00:00:00,PRATE,surface,-98.4379,36.3778,4.6e-05
2013-10-05 00:00:00,2013-10-05 00:00:00,PRATE,surface,-97.5004,36.3778,5.25e-05
2013-10-05 00:00:00,2013-10-05 00:00:00,PRATE,surface,-96.5629,36.3778,5.34e-05
2013-10-05 00:00:00,2013-10-05 00:00:00,PRATE,surface,-95.6254,36.3778,4.86e-05
2013-10-05 00:00:00,2013-10-05 00:00:00,PRATE,surface,-94.6879,36.3778,4.45e-05
2013-10-05 00:00:00,2013-10-05 00:00:00,PRATE,surface,-93.7504,36.3778,4.87e-05
2013-10-05 00:00:00,2013-10-05 00:00:00,PRATE,surface,-92.8129,36.3778,4.46e-05
