2012-05-21 00:00:00,2012-05-21 00:00:00,TMP,surface,-107.813,25.0393,302.069
2012-05-21 00:00:00,2012-05-21 00:00:00,TMP,surface,-106.875,25.0393,297.753
2012-05-21 00:00:00,2012-05-21 00:00:00,TMP,surface,-105.938,25.0393,294.204
2012-05-21 00:00:00,2012-05-21 00:00:00,TMP,surface,-105,25.0393,293.164
2012-05-21 00:00:00,2012-05-21 00:00:00,TMP,surface,-104.063,25.0393,296.978
2012-05-21 00:00:00,2012-05-21 00:00:00,TMP,surface,-103.125,25.0393,299.73
2012-05-21 00:00:00,2012-05-21 00:00:00,TMP,surface,-102.188,25.0393,298.079
2012-05-21 00:00:00,2012-05-21 00:00:00,TMP,surface,-101.25,25.0393,295.692
2012-05-21 00:00:00,2012-05-21 00:00:00,TMP,surface,-100.313,25.0393,295.855
2012-05-21 00:00:00,2012-05-21 00:00:00,TMP,surface,-99.3754,25.0393,299.625
2012-05-21 00:00:00,2012-05-21 00:00:00,TMP,surface,-98.4379,25.0393,302.469
2012-05-21 00:00:00,2012-05-21 00:00:00,TMP,surface,-97.5004,25.0393,302.402
2012-05-21 00:00:00,2012-05-21 00:00:00,TMP,surface,-96.5629,25.0393,302.153
2012-05-21 00:00:00,2012-05-21 00:00:00,TMP,surface,-95.6254,25.0393,302.13
2012-05-21 00:00:00,2012-05-21 00:00:00,TMP,surface,-94.6879,25.0393,302.165
2012-05-21 00:00:00,2012-05-21 00:00:00,TMP,surface,-93.7504,25.0393,301.989
2012-05-21 00:00:00,2012-05-21 00:00:00,TMP,surface,-92.8129,25.0393,301.887
2012-05-21 00:00:00,2012-05-21 00:00:00,TMP,surface,-107.813,25.9842,299.977
2012-05-21 00:00:00,2012-05-21 00:00:00,TMP,surface,-106.875,25.9842,295.199
2012-05-21 00:00:00,2012-05-21 00:00:00,TMP,surface,-105.938,25.9842,293.919
2012-05-21 00:00:00,2012-05-21 00:00:00,TMP,surface,-105,25.9842,295.9
2012-05-21 00:00:00,2012-05-21 00:00:00,TMP,surface,-104.063,25.9842,300.783
2012-05-21 00:00:00,2012-05-21 00:00:00,TMP,surface,-103.125,25.9842,302.341
2012-05-21 00:00:00,2012-05-21 00:00:00,TMP,surface,-102.188,25.9842,300.303
2012-05-21 00:00:00,2012-05-21 00:00:00,TMP,surface,-101.25,25.9842,298.869
2012-05-21 00:00:00,2012-05-21 00:00:00,TMP,surface,-100.313,25.9842,300.041
2012-05-21 00:00:00,2012-05-21 00:00:00,TMP,surface,-99.3754,25.9842,302.825
2012-05-21 00:00:00,2012-05-21 00:00:00,TMP,surface,-98.4379,25.9842,303.324
2012-05-21 00:00:00,2012-05-21 00:00:00,TMP,surface,-97.5004,25.9842,302.13
2012-05-21 00:00:00,2012-05-21 00:00:00,TMP,surface,-96.5629,25.9842,301.388
2012-05-21 00:00:00,2012-05-21 00:00:00,TMP,surface,-95.6254,25.9842,301.845
2012-05-21 00:00:00,2012-05-21 00:00:00,TMP,surface,-94.6879,25.9842,302.06
2012-05-21 00:00:00,2012-05-21 00:00:00,TMP,surface,-93.7504,25.9842,301.993
2012-05-21 00:00:00,2012-05-21 00:00:00,TMP,surface,-92.8129,25.9842,301.919
2012-05-21 00:00:00,2012-05-21 00:00:00,TMP,surface,-107.813,26.929,296.748
2012-05-21 00:00:00,2012-05-21 00:00:00,TMP,surface,-106.875,26.929,294.921
2012-05-21 00:00:00,2012-05-21 00:00:00,TMP,surface,-105.938,26.929,295.74
2012-05-21 00:00:00,2012-05-21 00:00:00,TMP,surface,-105,26.929,299.948
2012-05-21 00:00:00,2012-05-21 00:00:00,TMP,surface,-104.063,26.929,302.889
2012-05-21 00:00:00,2012-05-21 00:00:00,TMP,surface,-103.125,26.929,302.22
2012-05-21 00:00:00,2012-05-21 00:00:00,TMP,surface,-102.188,26.929,300.069
2012-05-21 00:00:00,2012-05-21 00:00:00,TMP,surface,-101.25,26.929,300.741
2012-05-21 00:00:00,2012-05-21 00:00:00,TMP,surface,-100.313,26.929,303.093
2012-05-21 00:00:00,2012-05-21 00:00:00,TMP,surface,-99.3754,26.929,304.297
2012-05-21 00:00:00,2012-05-21 00:00:00,TMP,surface,-98.4379,26.929,302.575
2012-05-21 00:00:00,2012-05-21 00:00:00,TMP,surface,-97.5004,26.929,299.631
2012-05-21 00:00:00,2012-05-21 00:00:00,TMP,surface,-96.5629,26.929,300.277
2012-05-21 00:00:00,2012-05-21 00:00:00,TMP,surface,-95.6254,26.929,301.365
2012-05-21 00:00:00,2012-05-21 00:00:00,TMP,surface,-94.6879,26.929,302.021
2012-05-21 00:00:00,2012-05-21 00:00:00,TMP,surface,-93.7504,26.929,302.037
2012-05-21 00:00:00,2012-05-21 00:00:00,TMP,surface,-92.8129,26.929,301.9
2012-05-21 00:00:00,2012-05-21 00:00:00,TMP,surface,-107.813,27.8739,295.279
2012-05-21 00:00:00,2012-05-21 00:00:00,TMP,surface,-106.875,27.8739,295.449
2012-05-21 00:00:00,2012-05-21 00:00:00,TMP,surface,-105.938,27.8739,298.162
2012-05-21 00:00:00,2012-05-21 00:00:00,TMP,surface,-105,27.8739,302.082
2012-05-21 00:00:00,2012-05-21 00:00:00,TMP,surface,-104.063,27.8739,302.581
2012-05-21 00:00:00,2012-05-21 00:00:00,TMP,surface,-103.125,27.8739,300.607
2012-05-21 00:00:00,2012-05-21 00:00:00,TMP,surface,-102.188,27.8739,299.474
2012-05-21 00:00:00,2012-05-21 00:00:00,TMP,surface,-101.25,27.8739,301.551
2012-05-21 00:00:00,2012-05-21 00:00:00,TMP,surface,-100.313,27.8739,303.577
2012-05-21 00:00:00,2012-05-21 00:00:00,TMP,surface,-99.3754,27.8739,303.362
2012-05-21 00:00:00,2012-05-21 00:00:00,TMP,surface,-98.4379,27.8739,301.698
2012-05-21 00:00:00,2012-05-21 00:00:00,TMP,surface,-97.5004,27.8739,300.847
2012-05-21 00:00:00,2012-05-21 00:00:00,TMP,surface,-96.5629,27.8739,301.1
2012-05-21 00:00:00,2012-05-21 00:00:00,TMP,surface,-95.6254,27.8739,301.522
2012-05-21 00:00:00,2012-05-21 00:00:00,TMP,surface,-94.6879,27.8739,301.874
2012-05-21 00:00:00,2012-05-21 00:00:00,TMP,surface,-93.7504,27.8739,301.922
2012-05-21 00:00:00,2012-05-21 00:00:00,TMP,surface,-92.8129,27.8739,301.852
2012-05-21 00:00:00,2012-05-21 00:00:00,TMP,surface,-107.813,28.8188,294.863
2012-05-21 00:00:00,2012-05-21 00:00:00,TMP,surface,-106.875,28.8188,296.517
2012-05-21 00:00:00,2012-05-21 00:00:00,TMP,surface,-105.938,28.8188,300.021
2012-05-21 00:00:00,2012-05-21 00:00:00,TMP,surface,-105,28.8188,303.074
2012-05-21 00:00:00,2012-05-21 00:00:00,TMP,surface,-104.063,28.8188,302.213
2012-05-21 00:00:00,2012-05-21 00:00:00,TMP,surface,-103.125,28.8188,300.684
2012-05-21 00:00:00,2012-05-21 00:00:00,TMP,surface,-102.188,28.8188,300.06
2012-05-21 00:00:00,2012-05-21 00:00:00,TMP,surface,-101.25,28.8188,301.605
2012-05-21 00:00:00,2012-05-21 00:00:00,TMP,surface,-100.313,28.8188,302.105
2012-05-21 00:00:00,2012-05-21 00:00:00,TMP,surface,-99.3754,28.8188,301.429
2012-05-21 00:00:00,2012-05-21 00:00:00,TMP,surface,-98.4379,28.8188,300.585
2012-05-21 00:00:00,2012-05-21 00:00:00,TMP,surface,-97.5004,28.8188,300.29
2012-05-21 00:00:00,2012-05-21 00:00:00,TMP,surface,-96.5629,28.8188,300.473
2012-05-21 00:00:00,2012-05-21 00:00:00,TMP,surface,-95.6254,28.8188,300.722
2012-05-21 00:00:00,2012-05-21 00:00:00,TMP,surface,-94.6879,28.8188,301.01
2012-05-21 00:00:00,2012-05-21 00:00:00,TMP,surface,-93.7504,28.8188,301.349
2012-05-21 00:00:00,2012-05-21 00:00:00,TMP,surface,-92.8129,28.8188,301.442
2012-05-21 00:00:00,2012-05-21 00:00:00,TMP,surface,-107.813,29.7637,296.965
2012-05-21 00:00:00,2012-05-21 00:00:00,TMP,surface,-106.875,29.7637,299.202
2012-05-21 00:00:00,2012-05-21 00:00:00,TMP,surface,-105.938,29.7637,301.935
2012-05-21 00:00:00,2012-05-21 00:00:00,TMP,surface,-105,29.7637,302.613
2012-05-21 00:00:00,2012-05-21 00:00:00,TMP,surface,-104.063,29.7637,302.101
2012-05-21 00:00:00,2012-05-21 00:00:00,TMP,surface,-103.125,29.7637,301.644
2012-05-21 00:00:00,2012-05-21 00:00:00,TMP,surface,-102.188,29.7637,302.009
2012-05-21 00:00:00,2012-05-21 00:00:00,TMP,surface,-101.25,29.7637,302.005
2012-05-21 00:00:00,2012-05-21 00:00:00,TMP,surface,-100.313,29.7637,300.831
2012-05-21 00:00:00,2012-05-21 00:00:00,TMP,surface,-99.3754,29.7637,299.593
2012-05-21 00:00:00,2012-05-21 00:00:00,TMP,surface,-98.4379,29.7637,299.1
2012-05-21 00:00:00,2012-05-21 00:00:00,TMP,surface,-97.5004,29.7637,299.266
2012-05-21 00:00:00,2012-05-21 00:00:00,TMP,surface,-96.5629,29.7637,299.522
2012-05-21 00:00:00,2012-05-21 00:00:00,TMP,surface,-95.6254,29.7637,299.753
2012-05-21 00:00:00,2012-05-21 00:00:00,TMP,surface,-94.6879,29.7637,300.188
2012-05-21 00:00:00,2012-05-21 00:00:00,TMP,surface,-93.7504,29.7637,300.665
2012-05-21 00:00:00,2012-05-21 00:00:00,TMP,surface,-92.8129,29.7637,301.122
2012-05-21 00:00:00,2012-05-21 00:00:00,TMP,surface,-107.813,30.7085,301.129
2012-05-21 00:00:00,2012-05-21 00:00:00,TMP,surface,-106.875,30.7085,302.399
2012-05-21 00:00:00,2012-05-21 00:00:00,TMP,surface,-105.938,30.7085,302.821
2012-05-21 00:00:00,2012-05-21 00:00:00,TMP,surface,-105,30.7085,302.591
2012-05-21 00:00:00,2012-05-21 00:00:00,TMP,surface,-104.063,30.7085,301.858
2012-05-21 00:00:00,2012-05-21 00:00:00,TMP,surface,-103.125,30.7085,302.425
2012-05-21 00:00:00,2012-05-21 00:00:00,TMP,surface,-102.188,30.7085,302.761
2012-05-21 00:00:00,2012-05-21 00:00:00,TMP,surface,-101.25,30.7085,302.034
2012-05-21 00:00:00,2012-05-21 00:00:00,TMP,surface,-100.313,30.7085,300.633
2012-05-21 00:00:00,2012-05-21 00:00:00,TMP,surface,-99.3754,30.7085,299.458
2012-05-21 00:00:00,2012-05-21 00:00:00,TMP,surface,-98.4379,30.7085,299.225
2012-05-21 00:00:00,2012-05-21 00:00:00,TMP,surface,-97.5004,30.7085,299.455
2012-05-21 00:00:00,2012-05-21 00:00:00,TMP,surface,-96.5629,30.7085,300.089
2012-05-21 00:00:00,2012-05-21 00:00:00,TMP,surface,-95.6254,30.7085,300.767
2012-05-21 00:00:00,2012-05-21 00:00:00,TMP,surface,-94.6879,30.7085,300.818
2012-05-21 00:00:00,2012-05-21 00:00:00,TMP,surface,-93.7504,30.7085,300.981
2012-05-21 00:00:00,2012-05-21 00:00:00,TMP,surface,-92.8129,30.7085,300.997
2012-05-21 00:00:00,2012-05-21 00:00:00,TMP,surface,-107.813,31.6534,302.217
2012-05-21 00:00:00,2012-05-21 00:00:00,TMP,surface,-106.875,31.6534,302.418
2012-05-21 00:00:00,2012-05-21 00:00:00,TMP,surface,-105.938,31.6534,302.335
2012-05-21 00:00:00,2012-05-21 00:00:00,TMP,surface,-105,31.6534,302.261
2012-05-21 00:00:00,2012-05-21 00:00:00,TMP,surface,-104.063,31.6534,302.572
2012-05-21 00:00:00,2012-05-21 00:00:00,TMP,surface,-103.125,31.6534,302.748
2012-05-21 00:00:00,2012-05-21 00:00:00,TMP,surface,-102.188,31.6534,302.735
2012-05-21 00:00:00,2012-05-21 00:00:00,TMP,surface,-101.25,31.6534,301.925
2012-05-21 00:00:00,2012-05-21 00:00:00,TMP,surface,-100.313,31.6534,301.138
2012-05-21 00:00:00,2012-05-21 00:00:00,TMP,surface,-99.3754,31.6534,300.399
2012-05-21 00:00:00,2012-05-21 00:00:00,TMP,surface,-98.4379,31.6534,300.06
2012-05-21 00:00:00,2012-05-21 00:00:00,TMP,surface,-97.5004,31.6534,300.149
2012-05-21 00:00:00,2012-05-21 00:00:00,TMP,surface,-96.5629,31.6534,300.745
2012-05-21 00:00:00,2012-05-21 00:00:00,TMP,surface,-95.6254,31.6534,301.346
2012-05-21 00:00:00,2012-05-21 00:00:00,TMP,surface,-94.6879,31.6534,301.228
2012-05-21 00:00:00,2012-05-21 00:00:00,TMP,surface,-93.7504,31.6534,301.001
2012-05-21 00:00:00,2012-05-21 00:00:00,TMP,surface,-92.8129,31.6534,300.965
2012-05-21 00:00:00,2012-05-21 00:00:00,TMP,surface,-107.813,32.5983,299.724
2012-05-21 00:00:00,2012-05-21 00:00:00,TMP,surface,-106.875,32.5983,300.274
2012-05-21 00:00:00,2012-05-21 00:00:00,TMP,surface,-105.938,32.5983,300.437
2012-05-21 00:00:00,2012-05-21 00:00:00,TMP,surface,-105,32.5983,301.298
2012-05-21 00:00:00,2012-05-21 00:00:00,TMP,surface,-104.063,32.5983,302.005
2012-05-21 00:00:00,2012-05-21 00:00:00,TMP,surface,-103.125,32.5983,302.466
2012-05-21 00:00:00,2012-05-21 00:00:00,TMP,surface,-102.188,32.5983,302.377
2012-05-21 00:00:00,2012-05-21 00:00:00,TMP,surface,-101.25,32.5983,302.201
2012-05-21 00:00:00,2012-05-21 00:00:00,TMP,surface,-100.313,32.5983,302.277
2012-05-21 00:00:00,2012-05-21 00:00:00,TMP,surface,-99.3754,32.5983,301.871
2012-05-21 00:00:00,2012-05-21 00:00:00,TMP,surface,-98.4379,32.5983,301.013
2012-05-21 00:00:00,2012-05-21 00:00:00,TMP,surface,-97.5004,32.5983,300.46
2012-05-21 00:00:00,2012-05-21 00:00:00,TMP,surface,-96.5629,32.5983,300.799
2012-05-21 00:00:00,2012-05-21 00:00:00,TMP,surface,-95.6254,32.5983,301.397
2012-05-21 00:00:00,2012-05-21 00:00:00,TMP,surface,-94.6879,32.5983,301.314
2012-05-21 00:00:00,2012-05-21 00:00:00,TMP,surface,-93.7504,32.5983,300.985
2012-05-21 00:00:00,2012-05-21 00:00:00,TMP,surface,-92.8129,32.5983,301.02
2012-05-21 00:00:00,2012-05-21 00:00:00,TMP,surface,-107.813,33.5432,296.53
2012-05-21 00:00:00,2012-05-21 00:00:00,TMP,surface,-106.875,33.5432,297.906
2012-05-21 00:00:00,2012-05-21 00:00:00,TMP,surface,-105.938,33.5432,298.389
2012-05-21 00:00:00,2012-05-21 00:00:00,TMP,surface,-105,33.5432,300.127
2012-05-21 00:00:00,2012-05-21 00:00:00,TMP,surface,-104.063,33.5432,301.634
2012-05-21 00:00:00,2012-05-21 00:00:00,TMP,surface,-103.125,33.5432,301.781
2012-05-21 00:00:00,2012-05-21 00:00:00,TMP,surface,-102.188,33.5432,301.743
2012-05-21 00:00:00,2012-05-21 00:00:00,TMP,surface,-101.25,33.5432,301.871
2012-05-21 00:00:00,2012-05-21 00:00:00,TMP,surface,-100.313,33.5432,302.716
2012-05-21 00:00:00,2012-05-21 00:00:00,TMP,surface,-99.3754,33.5432,302.661
2012-05-21 00:00:00,2012-05-21 00:00:00,TMP,surface,-98.4379,33.5432,301.522
2012-05-21 00:00:00,2012-05-21 00:00:00,TMP,surface,-97.5004,33.5432,300.357
2012-05-21 00:00:00,2012-05-21 00:00:00,TMP,surface,-96.5629,33.5432,299.839
2012-05-21 00:00:00,2012-05-21 00:00:00,TMP,surface,-95.6254,33.5432,300.156
2012-05-21 00:00:00,2012-05-21 00:00:00,TMP,surface,-94.6879,33.5432,300.713
2012-05-21 00:00:00,2012-05-21 00:00:00,TMP,surface,-93.7504,33.5432,300.556
2012-05-21 00:00:00,2012-05-21 00:00:00,TMP,surface,-92.8129,33.5432,300.575
2012-05-21 00:00:00,2012-05-21 00:00:00,TMP,surface,-107.813,34.4881,295.317
2012-05-21 00:00:00,2012-05-21 00:00:00,TMP,surface,-106.875,34.4881,296.716
2012-05-21 00:00:00,2012-05-21 00:00:00,TMP,surface,-105.938,34.4881,297.509
2012-05-21 00:00:00,2012-05-21 00:00:00,TMP,surface,-105,34.4881,299.516
2012-05-21 00:00:00,2012-05-21 00:00:00,TMP,surface,-104.063,34.4881,300.879
2012-05-21 00:00:00,2012-05-21 00:00:00,TMP,surface,-103.125,34.4881,301.404
2012-05-21 00:00:00,2012-05-21 00:00:00,TMP,surface,-102.188,34.4881,301.346
2012-05-21 00:00:00,2012-05-21 00:00:00,TMP,surface,-101.25,34.4881,301.717
2012-05-21 00:00:00,2012-05-21 00:00:00,TMP,surface,-100.313,34.4881,302.479
2012-05-21 00:00:00,2012-05-21 00:00:00,TMP,surface,-99.3754,34.4881,302.585
2012-05-21 00:00:00,2012-05-21 00:00:00,TMP,surface,-98.4379,34.4881,301.657
2012-05-21 00:00:00,2012-05-21 00:00:00,TMP,surface,-97.5004,34.4881,300.351
2012-05-21 00:00:00,2012-05-21 00:00:00,TMP,surface,-96.5629,34.4881,299.97
2012-05-21 00:00:00,2012-05-21 00:00:00,TMP,surface,-95.6254,34.4881,300.332
2012-05-21 00:00:00,2012-05-21 00:00:00,TMP,surface,-94.6879,34.4881,300.063
2012-05-21 00:00:00,2012-05-21 00:00:00,TMP,surface,-93.7504,34.4881,299.602
2012-05-21 00:00:00,2012-05-21 00:00:00,TMP,surface,-92.8129,34.4881,300.057
2012-05-21 00:00:00,2012-05-21 00:00:00,TMP,surface,-107.813,35.4329,295.068
2012-05-21 00:00:00,2012-05-21 00:00:00,TMP,surface,-106.875,35.4329,295.426
2012-05-21 00:00:00,2012-05-21 00:00:00,TMP,surface,-105.938,35.4329,295.535
2012-05-21 00:00:00,2012-05-21 00:00:00,TMP,surface,-105,35.4329,296.78
2012-05-21 00:00:00,2012-05-21 00:00:00,TMP,surface,-104.063,35.4329,299.42
2012-05-21 00:00:00,2012-05-21 00:00:00,TMP,surface,-103.125,35.4329,301.052
2012-05-21 00:00:00,2012-05-21 00:00:00,TMP,surface,-102.188,35.4329,301.772
2012-05-21 00:00:00,2012-05-21 00:00:00,TMP,surface,-101.25,35.4329,302.021
2012-05-21 00:00:00,2012-05-21 00:00:00,TMP,surface,-100.313,35.4329,302.053
2012-05-21 00:00:00,2012-05-21 00:00:00,TMP,surface,-99.3754,35.4329,302.121
2012-05-21 00:00:00,2012-05-21 00:00:00,TMP,surface,-98.4379,35.4329,301.711
2012-05-21 00:00:00,2012-05-21 00:00:00,TMP,surface,-97.5004,35.4329,300.86
2012-05-21 00:00:00,2012-05-21 00:00:00,TMP,surface,-96.5629,35.4329,300.101
2012-05-21 00:00:00,2012-05-21 00:00:00,TMP,surface,-95.6254,35.4329,299.916
2012-05-21 00:00:00,2012-05-21 00:00:00,TMP,surface,-94.6879,35.4329,299.89
2012-05-21 00:00:00,2012-05-21 00:00:00,TMP,surface,-93.7504,35.4329,299.183
2012-05-21 00:00:00,2012-05-21 00:00:00,TMP,surface,-92.8129,35.4329,298.898
2012-05-21 00:00:00,2012-05-21 00:00:00,TMP,surface,-107.813,36.3778,294.012
2012-05-21 00:00:00,2012-05-21 00:00:00,TMP,surface,-106.875,36.3778,291.849
2012-05-21 00:00:00,2012-05-21 00:00:00,TMP,surface,-105.938,36.3778,292.658
2012-05-21 00:00:00,2012-05-21 00:00:00,TMP,surface,-105,36.3778,294.383
2012-05-21 00:00:00,2012-05-21 00:00:00,TMP,surface,-104.063,36.3778,297.673
2012-05-21 00:00:00,2012-05-21 00:00:00,TMP,surface,-103.125,36.3778,300.229
2012-05-21 00:00:00,2012-05-21 00:00:00,TMP,surface,-102.188,36.3778,301.551
2012-05-21 00:00:00,2012-05-21 00:00:00,TMP,surface,-101.25,36.3778,302.05
2012-05-21 00:00:00,2012-05-21 00:00:00,TMP,surface,-100.313,36.3778,302.22
2012-05-21 00:00:00,2012-05-21 00:00:00,TMP,surface,-99.3754,36.3778,301.935
2012-05-21 00:00:00,2012-05-21 00:00:00,TMP,surface,-98.4379,36.3778,301.657
2012-05-21 00:00:00,2012-05-21 00:00:00,TMP,surface,-97.5004,36.3778,301.065
2012-05-21 00:00:00,2012-05-21 00:00:00,TMP,surface,-96.5629,36.3778,300.287
2012-05-21 00:00:00,2012-05-21 00:00:00,TMP,surface,-95.6254,36.3778,300.025
2012-05-21 00:00:00,2012-05-21 00:00:00,TMP,surface,-94.6879,36.3778,299.801
2012-05-21 00:00:00,2012-05-21 00:00:00,TMP,surface,-93.7504,36.3778,298.933
2012-05-21 00:00:00,2012-05-21 00:00:00,TMP,surface,-92.8129,36.3778,298.533
2012-05-21 00:00:00,2012-05-21 00:00:00,PRATE,surface,-107.813,25.0393,1e-07
2012-05-21 00:00:00,2012-05-21 00:00:00,PRATE,surface,-106.875,25.0393,1.73e-05
2012-05-21 00:00:00,2012-05-21 00:00:00,PRATE,surface,-105.938,25.0393,7.98e-05
2012-05-21 00:00:00,2012-05-21 00:00:00,PRATE,surface,-105,25.0393,6.21e-05
2012-05-21 00:00:00,2012-05-21 00:00:00,PRATE,surface,-104.063,25.0393,1.21e-05
2012-05-21 00:00:00,2012-05-21 00:00:00,PRATE,surface,-103.125,25.0393,2.3e-06
2012-05-21 00:00:00,2012-05-21 00:00:00,PRATE,surface,-102.188,25.0393,3.7e-06
2012-05-21 00:00:00,2012-05-21 00:00:00,PRATE,surface,-101.25,25.0393,1.97e-05
2012-05-21 00:00:00,2012-05-21 00:00:00,PRATE,surface,-100.313,25.0393,4.89e-05
2012-05-21 00:00:00,2012-05-21 00:00:00,PRATE,surface,-99.3754,25.0393,2.49e-05
2012-05-21 00:00:00,2012-05-21 00:00:00,PRATE,surface,-98.4379,25.0393,1.87e-05
2012-05-21 00:00:00,2012-05-21 00:00:00,PRATE,surface,-97.5004,25.0393,2.58e-05
2012-05-21 00:00:00,2012-05-21 00:00:00,PRATE,surface,-96.5629,25.0393,3.36e-05
2012-05-21 00:00:00,2012-05-21 00:00:00,PRATE,surface,-95.6254,25.0393,1.56e-05
2012-05-21 00:00:00,2012-05-21 00:00:00,PRATE,surface,-94.6879,25.0393,1.44e-05
2012-05-21 00:00:00,2012-05-21 00:00:00,PRATE,surface,-93.7504,25.0393,2.81e-05
2012-05-21 00:00:00,2012-05-21 00:00:00,PRATE,surface,-92.8129,25.0393,3e-05
2012-05-21 00:00:00,2012-05-21 00:00:00,PRATE,surface,-107.813,25.9842,9.6e-06
2012-05-21 00:00:00,2012-05-21 00:00:00,PRATE,surface,-106.875,25.9842,5.33e-05
2012-05-21 00:00:00,2012-05-21 00:00:00,PRATE,surface,-105.938,25.9842,5.15e-05
2012-05-21 00:00:00,2012-05-21 00:00:00,PRATE,surface,-105,25.9842,2.93e-05
2012-05-21 00:00:00,2012-05-21 00:00:00,PRATE,surface,-104.063,25.9842,4e-07
2012-05-21 00:00:00,2012-05-21 00:00:00,PRATE,surface,-103.125,25.9842,1.7e-06
2012-05-21 00:00:00,2012-05-21 00:00:00,PRATE,surface,-102.188,25.9842,1.5e-06
2012-05-21 00:00:00,2012-05-21 00:00:00,PRATE,surface,-101.25,25.9842,1.96e-05
2012-05-21 00:00:00,2012-05-21 00:00:00,PRATE,surface,-100.313,25.9842,2.34e-05
2012-05-21 00:00:00,2012-05-21 00:00:00,PRATE,surface,-99.3754,25.9842,5.3e-06
2012-05-21 00:00:00,2012-05-21 00:00:00,PRATE,surface,-98.4379,25.9842,1.51e-05
2012-05-21 00:00:00,2012-05-21 00:00:00,PRATE,surface,-97.5004,25.9842,3.4e-05
2012-05-21 00:00:00,2012-05-21 00:00:00,PRATE,surface,-96.5629,25.9842,3.32e-05
2012-05-21 00:00:00,2012-05-21 00:00:00,PRATE,surface,-95.6254,25.9842,3.07e-05
2012-05-21 00:00:00,2012-05-21 00:00:00,PRATE,surface,-94.6879,25.9842,1.54e-05
2012-05-21 00:00:00,2012-05-21 00:00:00,PRATE,surface,-93.7504,25.9842,1.69e-05
2012-05-21 00:00:00,2012-05-21 00:00:00,PRATE,surface,-92.8129,25.9842,1.89e-05
2012-05-21 00:00:00,2012-05-21 00:00:00,PRATE,surface,-107.813,26.929,1.56e-05
2012-05-21 00:00:00,2012-05-21 00:00:00,PRATE,surface,-106.875,26.929,4.17e-05
2012-05-21 00:00:00,2012-05-21 00:00:00,PRATE,surface,-105.938,26.929,3.02e-05
2012-05-21 00:00:00,2012-05-21 00:00:00,PRATE,surface,-105,26.929,7.9e-06
2012-05-21 00:00:00,2012-05-21 00:00:00,PRATE,surface,-104.063,26.929,4e-06
2012-05-21 00:00:00,2012-05-21 00:00:00,PRATE,surface,-103.125,26.929,4.5e-06
2012-05-21 00:00:00,2012-05-21 00:00:00,PRATE,surface,-102.188,26.929,7.2e-06
2012-05-21 00:00:00,2012-05-21 00:00:00,PRATE,surface,-101.25,26.929,3.47e-05
2012-05-21 00:00:00,2012-05-21 00:00:00,PRATE,surface,-100.313,26.929,1.14e-05
2012-05-21 00:00:00,2012-05-21 00:00:00,PRATE,surface,-99.3754,26.929,1e-05
2012-05-21 00:00:00,2012-05-21 00:00:00,PRATE,surface,-98.4379,26.929,3.39e-05
2012-05-21 00:00:00,2012-05-21 00:00:00,PRATE,surface,-97.5004,26.929,2.05e-05
2012-05-21 00:00:00,2012-05-21 00:00:00,PRATE,surface,-96.5629,26.929,1.47e-05
2012-05-21 00:00:00,2012-05-21 00:00:00,PRATE,surface,-95.6254,26.929,9.9e-06
2012-05-21 00:00:00,2012-05-21 00:00:00,PRATE,surface,-94.6879,26.929,1.19e-05
2012-05-21 00:00:00,2012-05-21 00:00:00,PRATE,surface,-93.7504,26.929,2.07e-05
2012-05-21 00:00:00,2012-05-21 00:00:00,PRATE,surface,-92.8129,26.929,1.38e-05
2012-05-21 00:00:00,2012-05-21 00:00:00,PRATE,surface,-107.813,27.8739,2.01e-05
2012-05-21 00:00:00,2012-05-21 00:00:00,PRATE,surface,-106.875,27.8739,2.66e-05
2012-05-21 00:00:00,2012-05-21 00:00:00,PRATE,surface,-105.938,27.8739,1.37e-05
2012-05-21 00:00:00,2012-05-21 00:00:00,PRATE,surface,-105,27.8739,5e-07
2012-05-21 00:00:00,2012-05-21 00:00:00,PRATE,surface,-104.063,27.8739,4e-06
2012-05-21 00:00:00,2012-05-21 00:00:00,PRATE,surface,-103.125,27.8739,1.36e-05
2012-05-21 00:00:00,2012-05-21 00:00:00,PRATE,surface,-102.188,27.8739,2.81e-05
2012-05-21 00:00:00,2012-05-21 00:00:00,PRATE,surface,-101.25,27.8739,1.47e-05
2012-05-21 00:00:00,2012-05-21 00:00:00,PRATE,surface,-100.313,27.8739,1.05e-05
2012-05-21 00:00:00,2012-05-21 00:00:00,PRATE,surface,-99.3754,27.8739,2.41e-05
2012-05-21 00:00:00,2012-05-21 00:00:00,PRATE,surface,-98.4379,27.8739,3.61e-05
2012-05-21 00:00:00,2012-05-21 00:00:00,PRATE,surface,-97.5004,27.8739,2.24e-05
2012-05-21 00:00:00,2012-05-21 00:00:00,PRATE,surface,-96.5629,27.8739,5.4e-06
2012-05-21 00:00:00,2012-05-21 00:00:00,PRATE,surface,-95.6254,27.8739,8.9e-06
2012-05-21 00:00:00,2012-05-21 00:00:00,PRATE,surface,-94.6879,27.8739,1.77e-05
2012-05-21 00:00:00,2012-05-21 00:00:00,PRATE,surface,-93.7504,27.8739,2.46e-05
2012-05-21 00:00:00,2012-05-21 00:00:00,PRATE,surface,-92.8129,27.8739,2.36e-05
2012-05-21 00:00:00,2012-05-21 00:00:00,PRATE,surface,-107.813,28.8188,1.76e-05
2012-05-21 00:00:00,2012-05-21 00:00:00,PRATE,surface,-106.875,28.8188,2.02e-05
2012-05-21 00:00:00,2012-05-21 00:00:00,PRATE,surface,-105.938,28.8188,1.9e-06
2012-05-21 00:00:00,2012-05-21 00:00:00,PRATE,surface,-105,28.8188,1.4e-06
2012-05-21 00:00:00,2012-05-21 00:00:00,PRATE,surface,-104.063,28.8188,4.3e-06
2012-05-21 00:00:00,2012-05-21 00:00:00,PRATE,surface,-103.125,28.8188,7.5e-06
2012-05-21 00:00:00,2012-05-21 00:00:00,PRATE,surface,-102.188,28.8188,3.4e-06
2012-05-21 00:00:00,2012-05-21 00:00:00,PRATE,surface,-101.25,28.8188,3.6e-06
2012-05-21 00:00:00,2012-05-21 00:00:00,PRATE,surface,-100.313,28.8188,1.73e-05
2012-05-21 00:00:00,2012-05-21 00:00:00,PRATE,surface,-99.3754,28.8188,3.05e-05
2012-05-21 00:00:00,2012-05-21 00:00:00,PRATE,surface,-98.4379,28.8188,4.32e-05
2012-05-21 00:00:00,2012-05-21 00:00:00,PRATE,surface,-97.5004,28.8188,3.96e-05
2012-05-21 00:00:00,2012-05-21 00:00:00,PRATE,surface,-96.5629,28.8188,3.37e-05
2012-05-21 00:00:00,2012-05-21 00:00:00,PRATE,surface,-95.6254,28.8188,3.15e-05
2012-05-21 00:00:00,2012-05-21 00:00:00,PRATE,surface,-94.6879,28.8188,1.83e-05
2012-05-21 00:00:00,2012-05-21 00:00:00,PRATE,surface,-93.7504,28.8188,1.64e-05
2012-05-21 00:00:00,2012-05-21 00:00:00,PRATE,surface,-92.8129,28.8188,1.6e-05
2012-05-21 00:00:00,2012-05-21 00:00:00,PRATE,surface,-107.813,29.7637,5.2e-06
2012-05-21 00:00:00,2012-05-21 00:00:00,PRATE,surface,-106.875,29.7637,1.35e-05
2012-05-21 00:00:00,2012-05-21 00:00:00,PRATE,surface,-105.938,29.7637,3e-06
2012-05-21 00:00:00,2012-05-21 00:00:00,PRATE,surface,-105,29.7637,3.9e-06
2012-05-21 00:00:00,2012-05-21 00:00:00,PRATE,surface,-104.063,29.7637,1.9e-06
2012-05-21 00:00:00,2012-05-21 00:00:00,PRATE,surface,-103.125,29.7637,1.4e-06
2012-05-21 00:00:00,2012-05-21 00:00:00,PRATE,surface,-102.188,29.7637,3e-07
2012-05-21 00:00:00,2012-05-21 00:00:00,PRATE,surface,-101.25,29.7637,2.1e-06
2012-05-21 00:00:00,2012-05-21 00:00:00,PRATE,surface,-100.313,29.7637,2.25e-05
2012-05-21 00:00:00,2012-05-21 00:00:00,PRATE,surface,-99.3754,29.7637,3.96e-05
2012-05-21 00:00:00,2012-05-21 00:00:00,PRATE,surface,-98.4379,29.7637,3.69e-05
2012-05-21 00:00:00,2012-05-21 00:00:00,PRATE,surface,-97.5004,29.7637,2.74e-05
2012-05-21 00:00:00,2012-05-21 00:00:00,PRATE,surface,-96.5629,29.7637,3.07e-05
2012-05-21 00:00:00,2012-05-21 00:00:00,PRATE,surface,-95.6254,29.7637,4.32e-05
2012-05-21 00:00:00,2012-05-21 00:00:00,PRATE,surface,-94.6879,29.7637,3.79e-05
2012-05-21 00:00:00,2012-05-21 00:00:00,PRATE,surface,-93.7504,29.7637,2.25e-05
2012-05-21 00:00:00,2012-05-21 00:00:00,PRATE,surface,-92.8129,29.7637,4.89e-05
2012-05-21 00:00:00,2012-05-21 00:00:00,PRATE,surface,-107.813,30.7085,5e-07
2012-05-21 00:00:00,2012-05-21 00:00:00,PRATE,surface,-106.875,30.7085,1.9e-06
2012-05-21 00:00:00,2012-05-21 00:00:00,PRATE,surface,-105.938,30.7085,1.5e-06
2012-05-21 00:00:00,2012-05-21 00:00:00,PRATE,surface,-105,30.7085,2.6e-06
2012-05-21 00:00:00,2012-05-21 00:00:00,PRATE,surface,-104.063,30.7085,1.3e-06
2012-05-21 00:00:00,2012-05-21 00:00:00,PRATE,surface,-103.125,30.7085,5e-07
2012-05-21 00:00:00,2012-05-21 00:00:00,PRATE,surface,-102.188,30.7085,5e-07
2012-05-21 00:00:00,2012-05-21 00:00:00,PRATE,surface,-101.25,30.7085,2e-06
2012-05-21 00:00:00,2012-05-21 00:00:00,PRATE,surface,-100.313,30.7085,1.1e-05
2012-05-21 00:00:00,2012-05-21 00:00:00,PRATE,surface,-99.3754,30.7085,2.39e-05
2012-05-21 00:00:00,2012-05-21 00:00:00,PRATE,surface,-98.4379,30.7085,2.56e-05
2012-05-21 00:00:00,2012-05-21 00:00:00,PRATE,surface,-97.5004,30.7085,2.35e-05
2012-05-21 00:00:00,2012-05-21 00:00:00,PRATE,surface,-96.5629,30.7085,3.06e-05
2012-05-21 00:00:00,2012-05-21 00:00:00,PRATE,surface,-95.6254,30.7085,3.79e-05
2012-05-21 00:00:00,2012-05-21 00:00:00,PRATE,surface,-94.6879,30.7085,3.68e-05
2012-05-21 00:00:00,2012-05-21 00:00:00,PRATE,surface,-93.7504,30.7085,3.4e-05
2012-05-21 00:00:00,2012-05-21 00:00:00,PRATE,surface,-92.8129,30.7085,2.58e-05
2012-05-21 00:00:00,2012-05-21 00:00:00,PRATE,surface,-107.813,31.6534,2.3e-06
2012-05-21 00:00:00,2012-05-21 00:00:00,PRATE,surface,-106.875,31.6534,1.8e-06
2012-05-21 00:00:00,2012-05-21 00:00:00,PRATE,surface,-105.938,31.6534,1.8e-06
2012-05-21 00:00:00,2012-05-21 00:00:00,PRATE,surface,-105,31.6534,1.7e-06
2012-05-21 00:00:00,2012-05-21 00:00:00,PRATE,surface,-104.063,31.6534,1e-06
2012-05-21 00:00:00,2012-05-21 00:00:00,PRATE,surface,-103.125,31.6534,9e-07
2012-05-21 00:00:00,2012-05-21 00:00:00,PRATE,surface,-102.188,31.6534,3e-07
2012-05-21 00:00:00,2012-05-21 00:00:00,PRATE,surface,-101.25,31.6534,4.5e-06
2012-05-21 00:00:00,2012-05-21 00:00:00,PRATE,surface,-100.313,31.6534,7.2e-06
2012-05-21 00:00:00,2012-05-21 00:00:00,PRATE,surface,-99.3754,31.6534,9.8e-06
2012-05-21 00:00:00,2012-05-21 00:00:00,PRATE,surface,-98.4379,31.6534,1.62e-05
2012-05-21 00:00:00,2012-05-21 00:00:00,PRATE,surface,-97.5004,31.6534,2.32e-05
2012-05-21 00:00:00,2012-05-21 00:00:00,PRATE,surface,-96.5629,31.6534,2.9e-05
2012-05-21 00:00:00,2012-05-21 00:00:00,PRATE,surface,-95.6254,31.6534,3.27e-05
2012-05-21 00:00:00,2012-05-21 00:00:00,PRATE,surface,-94.6879,31.6534,3.31e-05
2012-05-21 00:00:00,2012-05-21 00:00:00,PRATE,surface,-93.7504,31.6534,3.34e-05
2012-05-21 00:00:00,2012-05-21 00:00:00,PRATE,surface,-92.8129,31.6534,3.07e-05
2012-05-21 00:00:00,2012-05-21 00:00:00,PRATE,surface,-107.813,32.5983,2.5e-06
2012-05-21 00:00:00,2012-05-21 00:00:00,PRATE,surface,-106.875,32.5983,3.3e-06
2012-05-21 00:00:00,2012-05-21 00:00:00,PRATE,surface,-105.938,32.5983,3.1e-06
2012-05-21 00:00:00,2012-05-21 00:00:00,PRATE,surface,-105,32.5983,4.5e-06
2012-05-21 00:00:00,2012-05-21 00:00:00,PRATE,surface,-104.063,32.5983,1.9e-06
2012-05-21 00:00:00,2012-05-21 00:00:00,PRATE,surface,-103.125,32.5983,5e-07
2012-05-21 00:00:00,2012-05-21 00:00:00,PRATE,surface,-102.188,32.5983,1e-07
2012-05-21 00:00:00,2012-05-21 00:00:00,PRATE,surface,-101.25,32.5983,2.3e-06
2012-05-21 00:00:00,2012-05-21 00:00:00,PRATE,surface,-100.313,32.5983,3e-06
2012-05-21 00:00:00,2012-05-21 00:00:00,PRATE,surface,-99.3754,32.5983,3.4e-06
2012-05-21 00:00:00,2012-05-21 00:00:00,PRATE,surface,-98.4379,32.5983,7.1e-06
2012-05-21 00:00:00,2012-05-21 00:00:00,PRATE,surface,-97.5004,32.5983,1.56e-05
2012-05-21 00:00:00,2012-05-21 00:00:00,PRATE,surface,-96.5629,32.5983,2.34e-05
2012-05-21 00:00:00,2012-05-21 00:00:00,PRATE,surface,-95.6254,32.5983,2.83e-05
2012-05-21 00:00:00,2012-05-21 00:00:00,PRATE,surface,-94.6879,32.5983,3.18e-05
2012-05-21 00:00:00,2012-05-21 00:00:00,PRATE,surface,-93.7504,32.5983,2.97e-05
2012-05-21 00:00:00,2012-05-21 00:00:00,PRATE,surface,-92.8129,32.5983,2.77e-05
2012-05-21 00:00:00,2012-05-21 00:00:00,PRATE,surface,-107.813,33.5432,5e-06
2012-05-21 00:00:00,2012-05-21 00:00:00,PRATE,surface,-106.875,33.5432,5e-06
2012-05-21 00:00:00,2012-05-21 00:00:00,PRATE,surface,-105.938,33.5432,5.7e-06
2012-05-21 00:00:00,2012-05-21 00:00:00,PRATE,surface,-105,33.5432,5.1e-06
2012-05-21 00:00:00,2012-05-21 00:00:00,PRATE,surface,-104.063,33.5432,4e-06
2012-05-21 00:00:00,2012-05-21 00:00:00,PRATE,surface,-103.125,33.5432,1.7e-06
2012-05-21 00:00:00,2012-05-21 00:00:00,PRATE,surface,-102.188,33.5432,1.2e-06
2012-05-21 00:00:00,2012-05-21 00:00:00,PRATE,surface,-101.25,33.5432,1.9e-06
2012-05-21 00:00:00,2012-05-21 00:00:00,PRATE,surface,-100.313,33.5432,1.4e-06
2012-05-21 00:00:00,2012-05-21 00:00:00,PRATE,surface,-99.3754,33.5432,9e-07
2012-05-21 00:00:00,2012-05-21 00:00:00,PRATE,surface,-98.4379,33.5432,6.4e-06
2012-05-21 00:00:00,2012-05-21 00:00:00,PRATE,surface,-97.5004,33.5432,1.71e-05
2012-05-21 00:00:00,2012-05-21 00:00:00,PRATE,surface,-96.5629,33.5432,2.43e-05
2012-05-21 00:00:00,2012-05-21 00:00:00,PRATE,surface,-95.6254,33.5432,2.43e-05
2012-05-21 00:00:00,2012-05-21 00:00:00,PRATE,surface,-94.6879,33.5432,2.41e-05
2012-05-21 00:00:00,2012-05-21 00:00:00,PRATE,surface,-93.7504,33.5432,2.8e-05
2012-05-21 00:00:00,2012-05-21 00:00:00,PRATE,surface,-92.8129,33.5432,2.92e-05
2012-05-21 00:00:00,2012-05-21 00:00:00,PRATE,surface,-107.813,34.4881,3.1e-06
2012-05-21 00:00:00,2012-05-21 00:00:00,PRATE,surface,-106.875,34.4881,2.3e-06
2012-05-21 00:00:00,2012-05-21 00:00:00,PRATE,surface,-105.938,34.4881,2e-06
2012-05-21 00:00:00,2012-05-21 00:00:00,PRATE,surface,-105,34.4881,7.1e-06
2012-05-21 00:00:00,2012-05-21 00:00:00,PRATE,surface,-104.063,34.4881,1.08e-05
2012-05-21 00:00:00,2012-05-21 00:00:00,PRATE,surface,-103.125,34.4881,2.8e-06
2012-05-21 00:00:00,2012-05-21 00:00:00,PRATE,surface,-102.188,34.4881,3.2e-06
2012-05-21 00:00:00,2012-05-21 00:00:00,PRATE,surface,-101.25,34.4881,3e-06
2012-05-21 00:00:00,2012-05-21 00:00:00,PRATE,surface,-100.313,34.4881,1e-06
2012-05-21 00:00:00,2012-05-21 00:00:00,PRATE,surface,-99.3754,34.4881,8e-07
2012-05-21 00:00:00,2012-05-21 00:00:00,PRATE,surface,-98.4379,34.4881,4.8e-06
2012-05-21 00:00:00,2012-05-21 00:00:00,PRATE,surface,-97.5004,34.4881,1.03e-05
2012-05-21 00:00:00,2012-05-21 00:00:00,PRATE,surface,-96.5629,34.4881,1.16e-05
2012-05-21 00:00:00,2012-05-21 00:00:00,PRATE,surface,-95.6254,34.4881,9.4e-06
2012-05-21 00:00:00,2012-05-21 00:00:00,PRATE,surface,-94.6879,34.4881,1.38e-05
2012-05-21 00:00:00,2012-05-21 00:00:00,PRATE,surface,-93.7504,34.4881,2.72e-05
2012-05-21 00:00:00,2012-05-21 00:00:00,PRATE,surface,-92.8129,34.4881,3.49e-05
2012-05-21 00:00:00,2012-05-21 00:00:00,PRATE,surface,-107.813,35.4329,2.8e-06
2012-05-21 00:00:00,2012-05-21 00:00:00,PRATE,surface,-106.875,35.4329,3.1e-06
2012-05-21 00:00:00,2012-05-21 00:00:00,PRATE,surface,-105.938,35.4329,6.1e-06
2012-05-21 00:00:00,2012-05-21 00:00:00,PRATE,surface,-105,35.4329,1.68e-05
2012-05-21 00:00:00,2012-05-21 00:00:00,PRATE,surface,-104.063,35.4329,2.08e-05
2012-05-21 00:00:00,2012-05-21 00:00:00,PRATE,surface,-103.125,35.4329,1.08e-05
2012-05-21 00:00:00,2012-05-21 00:00:00,PRATE,surface,-102.188,35.4329,5.3e-06
2012-05-21 00:00:00,2012-05-21 00:00:00,PRATE,surface,-101.25,35.4329,4.8e-06
2012-05-21 00:00:00,2012-05-21 00:00:00,PRATE,surface,-100.313,35.4329,2.5e-06
2012-05-21 00:00:00,2012-05-21 00:00:00,PRATE,surface,-99.3754,35.4329,1.6e-06
2012-05-21 00:00:00,2012-05-21 00:00:00,PRATE,surface,-98.4379,35.4329,2.9e-06
2012-05-21 00:00:00,2012-05-21 00:00:00,PRATE,surface,-97.5004,35.4329,5.8e-06
2012-05-21 00:00:00,2012-05-21 00:00:00,PRATE,surface,-96.5629,35.4329,6.6e-06
2012-05-21 00:00:00,2012-05-21 00:00:00,PRATE,surface,-95.6254,35.4329,6.3e-06
2012-05-21 00:00:00,2012-05-21 00:00:00,PRATE,surface,-94.6879,35.4329,1.55e-05
2012-05-21 00:00:00,2012-05-21 00:00:00,PRATE,surface,-93.7504,35.4329,3.66e-05
2012-05-21 00:00:00,2012-05-21 00:00:00,PRATE,surface,-92.8129,35.4329,5.09e-05
2012-05-21 00:00:00,2012-05-21 00:00:00,PRATE,surface,-107.813,36.3778,7e-06
2012-05-21 00:00:00,2012-05-21 00:00:00,PRATE,surface,-106.875,36.3778,1.09e-05
2012-05-21 00:00:00,2012-05-21 00:00:00,PRATE,surface,-105.938,36.3778,2.3e-05
2012-05-21 00:00:00,2012-05-21 00:00:00,PRATE,surface,-105,36.3778,3.23e-05
2012-05-21 00:00:00,2012-05-21 00:00:00,PRATE,surface,-104.063,36.3778,2.93e-05
2012-05-21 00:00:00,2012-05-21 00:00:00,PRATE,surface,-103.125,36.3778,1.18e-05
2012-05-21 00:00:00,2012-05-21 00:00:00,PRATE,surface,-102.188,36.3778,5.5e-06
2012-05-21 00:00:00,2012-05-21 00:00:00,PRATE,surface,-101.25,36.3778,3.3e-06
2012-05-21 00:00:00,2012-05-21 00:00:00,PRATE,surface,-100.313,36.3778,2.3e-06
2012-05-21 00:00:00,2012-05-21 00:00:00,PRATE,surface,-99.3754,36.3778,1.3e-06
2012-05-21 00:00:00,2012-05-21 00:00:00,PRATE,surface,-98.4379,36.3778,2.8e-06
2012-05-21 00:00:00,2012-05-21 00:00:00,PRATE,surface,-97.5004,36.3778,6.4e-06
2012-05-21 00:00:00,2012-05-21 00:00:00,PRATE,surface,-96.5629,36.3778,7.7e-06
2012-05-21 00:00:00,2012-05-21 00:00:00,PRATE,surface,-95.6254,36.3778,7.5e-06
2012-05-21 00:00:00,2012-05-21 00:00:00,PRATE,surface,-94.6879,36.3778,1.68e-05
2012-05-21 00:00:00,2012-05-21 00:00:00,PRATE,surface,-93.7504,36.3778,3.39e-05
2012-05-21 00:00:00,2012-05-21 00:00:00,PRATE,surface,-92.8129,36.3778,3.29e-05
