2018-11-05 00:00:00,2018-11-05 00:00:00,TMP,surface,-107.813,25.0393,292.506
2018-11-05 00:00:00,2018-11-05 00:00:00,TMP,surface,-106.875,25.0393,286.442
2018-11-05 00:00:00,2018-11-05 00:00:00,TMP,surface,-105.938,25.0393,281.324
2018-11-05 00:00:00,2018-11-05 00:00:00,TMP,surface,-105,25.0393,280.378
2018-11-05 00:00:00,2018-11-05 00:00:00,TMP,surface,-104.063,25.0393,283.781
2018-11-05 00:00:00,2018-11-05 00:00:00,TMP,surface,-103.125,25.0393,285.524
2018-11-05 00:00:00,2018-11-05 00:00:00,TMP,surface,-102.188,25.0393,285.255
2018-11-05 00:00:00,2018-11-05 00:00:00,TMP,surface,-101.25,25.0393,284.105
2018-11-05 00:00:00,2018-11-05 00:00:00,TMP,surface,-100.313,25.0393,285.209
2018-11-05 00:00:00,2018-11-05 00:00:00,TMP,surface,-99.3754,25.0393,288.161
2018-11-05 00:00:00,2018-11-05 00:00:00,TMP,surface,-98.4379,25.0393,290.807
2018-11-05 00:00:00,2018-11-05 00:00:00,TMP,surface,-97.5004,25.0393,294.165
2018-11-05 00:00:00,2018-11-05 00:00:00,TMP,surface,-96.5629,25.0393,294.185
2018-11-05 00:00:00,2018-11-05 00:00:00,TMP,surface,-95.6254,25.0393,294.822
2018-11-05 00:00:00,2018-11-05 00:00:00,TMP,surface,-94.6879,25.0393,295.801
2018-11-05 00:00:00,2018-11-05 00:00:00,TMP,surface,-93.7504,25.0393,295.793
2018-11-05 00:00:00,2018-11-05 00:00:00,TMP,surface,-92.8129,25.0393,295.689
2018-11-05 00:00:00,2018-11-05 00:00:00,TMP,surface,-107.813,25.9842,288.022
2018-11-05 00:00:00,2018-11-05 00:00:00,TMP,surface,-106.875,25.9842,282.153
2018-11-05 00:00:00,2018-11-05 00:00:00,TMP,surface,-105.938,25.9842,280.19
2018-11-05 00:00:00,2018-11-05 00:00:00,TMP,surface,-105,25.9842,282.367
2018-11-05 00:00:00,2018-11-05 00:00:00,TMP,surface,-104.063,25.9842,286.087
2018-11-05 00:00:00,2018-11-05 00:00:00,TMP,surface,-103.125,25.9842,287.046
2018-11-05 00:00:00,2018-11-05 00:00:00,TMP,surface,-102.188,25.9842,286.45
2018-11-05 00:00:00,2018-11-05 00:00:00,TMP,surface,-101.25,25.9842,285.766
2018-11-05 00:00:00,2018-11-05 00:00:00,TMP,surface,-100.313,25.9842,286.532
2018-11-05 00:00:00,2018-11-05 00:00:00,TMP,surface,-99.3754,25.9842,288.909
2018-11-05 00:00:00,2018-11-05 00:00:00,TMP,surface,-98.4379,25.9842,290.777
2018-11-05 00:00:00,2018-11-05 00:00:00,TMP,surface,-97.5004,25.9842,291.98
2018-11-05 00:00:00,2018-11-05 00:00:00,TMP,surface,-96.5629,25.9842,293.573
2018-11-05 00:00:00,2018-11-05 00:00:00,TMP,surface,-95.6254,25.9842,293.922
2018-11-05 00:00:00,2018-11-05 00:00:00,TMP,surface,-94.6879,25.9842,294.625
2018-11-05 00:00:00,2018-11-05 00:00:00,TMP,surface,-93.7504,25.9842,294.831
2018-11-05 00:00:00,2018-11-05 00:00:00,TMP,surface,-92.8129,25.9842,294.967
2018-11-05 00:00:00,2018-11-05 00:00:00,TMP,surface,-107.813,26.929,282.887
2018-11-05 00:00:00,2018-11-05 00:00:00,TMP,surface,-106.875,26.929,279.588
2018-11-05 00:00:00,2018-11-05 00:00:00,TMP,surface,-105.938,26.929,281.401
2018-11-05 00:00:00,2018-11-05 00:00:00,TMP,surface,-105,26.929,284.601
2018-11-05 00:00:00,2018-11-05 00:00:00,TMP,surface,-104.063,26.929,286.173
2018-11-05 00:00:00,2018-11-05 00:00:00,TMP,surface,-103.125,26.929,285.484
2018-11-05 00:00:00,2018-11-05 00:00:00,TMP,surface,-102.188,26.929,285.586
2018-11-05 00:00:00,2018-11-05 00:00:00,TMP,surface,-101.25,26.929,286.668
2018-11-05 00:00:00,2018-11-05 00:00:00,TMP,surface,-100.313,26.929,287.844
2018-11-05 00:00:00,2018-11-05 00:00:00,TMP,surface,-99.3754,26.929,289.129
2018-11-05 00:00:00,2018-11-05 00:00:00,TMP,surface,-98.4379,26.929,289.639
2018-11-05 00:00:00,2018-11-05 00:00:00,TMP,surface,-97.5004,26.929,292.665
2018-11-05 00:00:00,2018-11-05 00:00:00,TMP,surface,-96.5629,26.929,293.186
2018-11-05 00:00:00,2018-11-05 00:00:00,TMP,surface,-95.6254,26.929,293.697
2018-11-05 00:00:00,2018-11-05 00:00:00,TMP,surface,-94.6879,26.929,294.209
2018-11-05 00:00:00,2018-11-05 00:00:00,TMP,surface,-93.7504,26.929,294.316
2018-11-05 00:00:00,2018-11-05 00:00:00,TMP,surface,-92.8129,26.929,294.377
2018-11-05 00:00:00,2018-11-05 00:00:00,TMP,surface,-107.813,27.8739,279.815
2018-11-05 00:00:00,2018-11-05 00:00:00,TMP,surface,-106.875,27.8739,279.158
2018-11-05 00:00:00,2018-11-05 00:00:00,TMP,surface,-105.938,27.8739,282.447
2018-11-05 00:00:00,2018-11-05 00:00:00,TMP,surface,-105,27.8739,285.279
2018-11-05 00:00:00,2018-11-05 00:00:00,TMP,surface,-104.063,27.8739,285.554
2018-11-05 00:00:00,2018-11-05 00:00:00,TMP,surface,-103.125,27.8739,284.489
2018-11-05 00:00:00,2018-11-05 00:00:00,TMP,surface,-102.188,27.8739,284.975
2018-11-05 00:00:00,2018-11-05 00:00:00,TMP,surface,-101.25,27.8739,286.554
2018-11-05 00:00:00,2018-11-05 00:00:00,TMP,surface,-100.313,27.8739,287.855
2018-11-05 00:00:00,2018-11-05 00:00:00,TMP,surface,-99.3754,27.8739,288.265
2018-11-05 00:00:00,2018-11-05 00:00:00,TMP,surface,-98.4379,27.8739,288.389
2018-11-05 00:00:00,2018-11-05 00:00:00,TMP,surface,-97.5004,27.8739,290.845
2018-11-05 00:00:00,2018-11-05 00:00:00,TMP,surface,-96.5629,27.8739,293.422
2018-11-05 00:00:00,2018-11-05 00:00:00,TMP,surface,-95.6254,27.8739,293.698
2018-11-05 00:00:00,2018-11-05 00:00:00,TMP,surface,-94.6879,27.8739,293.711
2018-11-05 00:00:00,2018-11-05 00:00:00,TMP,surface,-93.7504,27.8739,293.646
2018-11-05 00:00:00,2018-11-05 00:00:00,TMP,surface,-92.8129,27.8739,293.61
2018-11-05 00:00:00,2018-11-05 00:00:00,TMP,surface,-107.813,28.8188,278.802
2018-11-05 00:00:00,2018-11-05 00:00:00,TMP,surface,-106.875,28.8188,279.78
2018-11-05 00:00:00,2018-11-05 00:00:00,TMP,surface,-105.938,28.8188,282.914
2018-11-05 00:00:00,2018-11-05 00:00:00,TMP,surface,-105,28.8188,284.855
2018-11-05 00:00:00,2018-11-05 00:00:00,TMP,surface,-104.063,28.8188,284.095
2018-11-05 00:00:00,2018-11-05 00:00:00,TMP,surface,-103.125,28.8188,283.521
2018-11-05 00:00:00,2018-11-05 00:00:00,TMP,surface,-102.188,28.8188,284.369
2018-11-05 00:00:00,2018-11-05 00:00:00,TMP,surface,-101.25,28.8188,286.001
2018-11-05 00:00:00,2018-11-05 00:00:00,TMP,surface,-100.313,28.8188,286.711
2018-11-05 00:00:00,2018-11-05 00:00:00,TMP,surface,-99.3754,28.8188,286.623
2018-11-05 00:00:00,2018-11-05 00:00:00,TMP,surface,-98.4379,28.8188,286.658
2018-11-05 00:00:00,2018-11-05 00:00:00,TMP,surface,-97.5004,28.8188,287.114
2018-11-05 00:00:00,2018-11-05 00:00:00,TMP,surface,-96.5629,28.8188,287.729
2018-11-05 00:00:00,2018-11-05 00:00:00,TMP,surface,-95.6254,28.8188,289.969
2018-11-05 00:00:00,2018-11-05 00:00:00,TMP,surface,-94.6879,28.8188,293.073
2018-11-05 00:00:00,2018-11-05 00:00:00,TMP,surface,-93.7504,28.8188,293.044
2018-11-05 00:00:00,2018-11-05 00:00:00,TMP,surface,-92.8129,28.8188,293.165
2018-11-05 00:00:00,2018-11-05 00:00:00,TMP,surface,-107.813,29.7637,280.057
2018-11-05 00:00:00,2018-11-05 00:00:00,TMP,surface,-106.875,29.7637,281.173
2018-11-05 00:00:00,2018-11-05 00:00:00,TMP,surface,-105.938,29.7637,283.529
2018-11-05 00:00:00,2018-11-05 00:00:00,TMP,surface,-105,29.7637,283.609
2018-11-05 00:00:00,2018-11-05 00:00:00,TMP,surface,-104.063,29.7637,283.343
2018-11-05 00:00:00,2018-11-05 00:00:00,TMP,surface,-103.125,29.7637,283.569
2018-11-05 00:00:00,2018-11-05 00:00:00,TMP,surface,-102.188,29.7637,284.578
2018-11-05 00:00:00,2018-11-05 00:00:00,TMP,surface,-101.25,29.7637,285.201
2018-11-05 00:00:00,2018-11-05 00:00:00,TMP,surface,-100.313,29.7637,285.065
2018-11-05 00:00:00,2018-11-05 00:00:00,TMP,surface,-99.3754,29.7637,284.849
2018-11-05 00:00:00,2018-11-05 00:00:00,TMP,surface,-98.4379,29.7637,284.885
2018-11-05 00:00:00,2018-11-05 00:00:00,TMP,surface,-97.5004,29.7637,285.177
2018-11-05 00:00:00,2018-11-05 00:00:00,TMP,surface,-96.5629,29.7637,285.623
2018-11-05 00:00:00,2018-11-05 00:00:00,TMP,surface,-95.6254,29.7637,286.198
2018-11-05 00:00:00,2018-11-05 00:00:00,TMP,surface,-94.6879,29.7637,288.5
2018-11-05 00:00:00,2018-11-05 00:00:00,TMP,surface,-93.7504,29.7637,291.117
2018-11-05 00:00:00,2018-11-05 00:00:00,TMP,surface,-92.8129,29.7637,286.743
2018-11-05 00:00:00,2018-11-05 00:00:00,TMP,surface,-107.813,30.7085,282.449
2018-11-05 00:00:00,2018-11-05 00:00:00,TMP,surface,-106.875,30.7085,283.356
2018-11-05 00:00:00,2018-11-05 00:00:00,TMP,surface,-105.938,30.7085,283.452
2018-11-05 00:00:00,2018-11-05 00:00:00,TMP,surface,-105,30.7085,282.806
2018-11-05 00:00:00,2018-11-05 00:00:00,TMP,surface,-104.063,30.7085,282.748
2018-11-05 00:00:00,2018-11-05 00:00:00,TMP,surface,-103.125,30.7085,283.486
2018-11-05 00:00:00,2018-11-05 00:00:00,TMP,surface,-102.188,30.7085,284.148
2018-11-05 00:00:00,2018-11-05 00:00:00,TMP,surface,-101.25,30.7085,284.191
2018-11-05 00:00:00,2018-11-05 00:00:00,TMP,surface,-100.313,30.7085,283.849
2018-11-05 00:00:00,2018-11-05 00:00:00,TMP,surface,-99.3754,30.7085,283.74
2018-11-05 00:00:00,2018-11-05 00:00:00,TMP,surface,-98.4379,30.7085,283.948
2018-11-05 00:00:00,2018-11-05 00:00:00,TMP,surface,-97.5004,30.7085,284.193
2018-11-05 00:00:00,2018-11-05 00:00:00,TMP,surface,-96.5629,30.7085,284.501
2018-11-05 00:00:00,2018-11-05 00:00:00,TMP,surface,-95.6254,30.7085,284.807
2018-11-05 00:00:00,2018-11-05 00:00:00,TMP,surface,-94.6879,30.7085,284.796
2018-11-05 00:00:00,2018-11-05 00:00:00,TMP,surface,-93.7504,30.7085,284.534
2018-11-05 00:00:00,2018-11-05 00:00:00,TMP,surface,-92.8129,30.7085,284.097
2018-11-05 00:00:00,2018-11-05 00:00:00,TMP,surface,-107.813,31.6534,282.37
2018-11-05 00:00:00,2018-11-05 00:00:00,TMP,surface,-106.875,31.6534,282.935
2018-11-05 00:00:00,2018-11-05 00:00:00,TMP,surface,-105.938,31.6534,282.207
2018-11-05 00:00:00,2018-11-05 00:00:00,TMP,surface,-105,31.6534,282.012
2018-11-05 00:00:00,2018-11-05 00:00:00,TMP,surface,-104.063,31.6534,282.478
2018-11-05 00:00:00,2018-11-05 00:00:00,TMP,surface,-103.125,31.6534,283.117
2018-11-05 00:00:00,2018-11-05 00:00:00,TMP,surface,-102.188,31.6534,283.442
2018-11-05 00:00:00,2018-11-05 00:00:00,TMP,surface,-101.25,31.6534,283.358
2018-11-05 00:00:00,2018-11-05 00:00:00,TMP,surface,-100.313,31.6534,283.277
2018-11-05 00:00:00,2018-11-05 00:00:00,TMP,surface,-99.3754,31.6534,283.391
2018-11-05 00:00:00,2018-11-05 00:00:00,TMP,surface,-98.4379,31.6534,283.615
2018-11-05 00:00:00,2018-11-05 00:00:00,TMP,surface,-97.5004,31.6534,283.815
2018-11-05 00:00:00,2018-11-05 00:00:00,TMP,surface,-96.5629,31.6534,283.956
2018-11-05 00:00:00,2018-11-05 00:00:00,TMP,surface,-95.6254,31.6534,283.918
2018-11-05 00:00:00,2018-11-05 00:00:00,TMP,surface,-94.6879,31.6534,283.585
2018-11-05 00:00:00,2018-11-05 00:00:00,TMP,surface,-93.7504,31.6534,283.177
2018-11-05 00:00:00,2018-11-05 00:00:00,TMP,surface,-92.8129,31.6534,282.916
2018-11-05 00:00:00,2018-11-05 00:00:00,TMP,surface,-107.813,32.5983,279.538
2018-11-05 00:00:00,2018-11-05 00:00:00,TMP,surface,-106.875,32.5983,279.893
2018-11-05 00:00:00,2018-11-05 00:00:00,TMP,surface,-105.938,32.5983,280.255
2018-11-05 00:00:00,2018-11-05 00:00:00,TMP,surface,-105,32.5983,280.825
2018-11-05 00:00:00,2018-11-05 00:00:00,TMP,surface,-104.063,32.5983,282.065
2018-11-05 00:00:00,2018-11-05 00:00:00,TMP,surface,-103.125,32.5983,282.781
2018-11-05 00:00:00,2018-11-05 00:00:00,TMP,surface,-102.188,32.5983,282.617
2018-11-05 00:00:00,2018-11-05 00:00:00,TMP,surface,-101.25,32.5983,282.631
2018-11-05 00:00:00,2018-11-05 00:00:00,TMP,surface,-100.313,32.5983,282.911
2018-11-05 00:00:00,2018-11-05 00:00:00,TMP,surface,-99.3754,32.5983,283.217
2018-11-05 00:00:00,2018-11-05 00:00:00,TMP,surface,-98.4379,32.5983,283.329
2018-11-05 00:00:00,2018-11-05 00:00:00,TMP,surface,-97.5004,32.5983,283.298
2018-11-05 00:00:00,2018-11-05 00:00:00,TMP,surface,-96.5629,32.5983,283.218
2018-11-05 00:00:00,2018-11-05 00:00:00,TMP,surface,-95.6254,32.5983,283.025
2018-11-05 00:00:00,2018-11-05 00:00:00,TMP,surface,-94.6879,32.5983,282.666
2018-11-05 00:00:00,2018-11-05 00:00:00,TMP,surface,-93.7504,32.5983,282.314
2018-11-05 00:00:00,2018-11-05 00:00:00,TMP,surface,-92.8129,32.5983,282.266
2018-11-05 00:00:00,2018-11-05 00:00:00,TMP,surface,-107.813,33.5432,276.382
2018-11-05 00:00:00,2018-11-05 00:00:00,TMP,surface,-106.875,33.5432,277.53
2018-11-05 00:00:00,2018-11-05 00:00:00,TMP,surface,-105.938,33.5432,278.594
2018-11-05 00:00:00,2018-11-05 00:00:00,TMP,surface,-105,33.5432,279.773
2018-11-05 00:00:00,2018-11-05 00:00:00,TMP,surface,-104.063,33.5432,281.26
2018-11-05 00:00:00,2018-11-05 00:00:00,TMP,surface,-103.125,33.5432,281.81
2018-11-05 00:00:00,2018-11-05 00:00:00,TMP,surface,-102.188,33.5432,281.702
2018-11-05 00:00:00,2018-11-05 00:00:00,TMP,surface,-101.25,33.5432,281.77
2018-11-05 00:00:00,2018-11-05 00:00:00,TMP,surface,-100.313,33.5432,282.277
2018-11-05 00:00:00,2018-11-05 00:00:00,TMP,surface,-99.3754,33.5432,282.722
2018-11-05 00:00:00,2018-11-05 00:00:00,TMP,surface,-98.4379,33.5432,282.689
2018-11-05 00:00:00,2018-11-05 00:00:00,TMP,surface,-97.5004,33.5432,282.282
2018-11-05 00:00:00,2018-11-05 00:00:00,TMP,surface,-96.5629,33.5432,281.935
2018-11-05 00:00:00,2018-11-05 00:00:00,TMP,surface,-95.6254,33.5432,281.764
2018-11-05 00:00:00,2018-11-05 00:00:00,TMP,surface,-94.6879,33.5432,281.493
2018-11-05 00:00:00,2018-11-05 00:00:00,TMP,surface,-93.7504,33.5432,281.185
2018-11-05 00:00:00,2018-11-05 00:00:00,TMP,surface,-92.8129,33.5432,281.217
2018-11-05 00:00:00,2018-11-05 00:00:00,TMP,surface,-107.813,34.4881,275.119
2018-11-05 00:00:00,2018-11-05 00:00:00,TMP,surface,-106.875,34.4881,276.537
2018-11-05 00:00:00,2018-11-05 00:00:00,TMP,surface,-105.938,34.4881,277.646
2018-11-05 00:00:00,2018-11-05 00:00:00,TMP,surface,-105,34.4881,279.094
2018-11-05 00:00:00,2018-11-05 00:00:00,TMP,surface,-104.063,34.4881,279.919
2018-11-05 00:00:00,2018-11-05 00:00:00,TMP,surface,-103.125,34.4881,280.441
2018-11-05 00:00:00,2018-11-05 00:00:00,TMP,surface,-102.188,34.4881,280.668
2018-11-05 00:00:00,2018-11-05 00:00:00,TMP,surface,-101.25,34.4881,280.93
2018-11-05 00:00:00,2018-11-05 00:00:00,TMP,surface,-100.313,34.4881,281.351
2018-11-05 00:00:00,2018-11-05 00:00:00,TMP,surface,-99.3754,34.4881,281.669
2018-11-05 00:00:00,2018-11-05 00:00:00,TMP,surface,-98.4379,34.4881,281.602
2018-11-05 00:00:00,2018-11-05 00:00:00,TMP,surface,-97.5004,34.4881,281.214
2018-11-05 00:00:00,2018-11-05 00:00:00,TMP,surface,-96.5629,34.4881,280.897
2018-11-05 00:00:00,2018-11-05 00:00:00,TMP,surface,-95.6254,34.4881,280.609
2018-11-05 00:00:00,2018-11-05 00:00:00,TMP,surface,-94.6879,34.4881,280.074
2018-11-05 00:00:00,2018-11-05 00:00:00,TMP,surface,-93.7504,34.4881,279.684
2018-11-05 00:00:00,2018-11-05 00:00:00,TMP,surface,-92.8129,34.4881,279.796
2018-11-05 00:00:00,2018-11-05 00:00:00,TMP,surface,-107.813,35.4329,275.263
2018-11-05 00:00:00,2018-11-05 00:00:00,TMP,surface,-106.875,35.4329,275.513
2018-11-05 00:00:00,2018-11-05 00:00:00,TMP,surface,-105.938,35.4329,276.069
2018-11-05 00:00:00,2018-11-05 00:00:00,TMP,surface,-105,35.4329,277.154
2018-11-05 00:00:00,2018-11-05 00:00:00,TMP,surface,-104.063,35.4329,278.773
2018-11-05 00:00:00,2018-11-05 00:00:00,TMP,surface,-103.125,35.4329,279.719
2018-11-05 00:00:00,2018-11-05 00:00:00,TMP,surface,-102.188,35.4329,279.882
2018-11-05 00:00:00,2018-11-05 00:00:00,TMP,surface,-101.25,35.4329,280.009
2018-11-05 00:00:00,2018-11-05 00:00:00,TMP,surface,-100.313,35.4329,280.258
2018-11-05 00:00:00,2018-11-05 00:00:00,TMP,surface,-99.3754,35.4329,280.431
2018-11-05 00:00:00,2018-11-05 00:00:00,TMP,surface,-98.4379,35.4329,280.479
2018-11-05 00:00:00,2018-11-05 00:00:00,TMP,surface,-97.5004,35.4329,280.433
2018-11-05 00:00:00,2018-11-05 00:00:00,TMP,surface,-96.5629,35.4329,280.252
2018-11-05 00:00:00,2018-11-05 00:00:00,TMP,surface,-95.6254,35.4329,279.881
2018-11-05 00:00:00,2018-11-05 00:00:00,TMP,surface,-94.6879,35.4329,279.281
2018-11-05 00:00:00,2018-11-05 00:00:00,TMP,surface,-93.7504,35.4329,278.58
2018-11-05 00:00:00,2018-11-05 00:00:00,TMP,surface,-92.8129,35.4329,278.356
2018-11-05 00:00:00,2018-11-05 00:00:00,TMP,surface,-107.813,36.3778,274.663
2018-11-05 00:00:00,2018-11-05 00:00:00,TMP,surface,-106.875,36.3778,273.089
2018-11-05 00:00:00,2018-11-05 00:00:00,TMP,surface,-105.938,36.3778,273.175
2018-11-05 00:00:00,2018-11-05 00:00:00,TMP,surface,-105,36.3778,274.724
2018-11-05 00:00:00,2018-11-05 00:00:00,TMP,surface,-104.063,36.3778,276.785
2018-11-05 00:00:00,2018-11-05 00:00:00,TMP,surface,-103.125,36.3778,278.196
2018-11-05 00:00:00,2018-11-05 00:00:00,TMP,surface,-102.188,36.3778,278.951
2018-11-05 00:00:00,2018-11-05 00:00:00,TMP,surface,-101.25,36.3778,279.29
2018-11-05 00:00:00,2018-11-05 00:00:00,TMP,surface,-100.313,36.3778,279.687
2018-11-05 00:00:00,2018-11-05 00:00:00,TMP,surface,-99.3754,36.3778,279.951
2018-11-05 00:00:00,2018-11-05 00:00:00,TMP,surface,-98.4379,36.3778,279.826
2018-11-05 00:00:00,2018-11-05 00:00:00,TMP,surface,-97.5004,36.3778,279.695
2018-11-05 00:00:00,2018-11-05 00:00:00,TMP,surface,-96.5629,36.3778,279.602
2018-11-05 00:00:00,2018-11-05 00:00:00,TMP,surface,-95.6254,36.3778,279.19
2018-11-05 00:00:00,2018-11-05 00:00:00,TMP,surface,-94.6879,36.3778,278.447
2018-11-05 00:00:00,2018-11-05 00:00:00,TMP,surface,-93.7504,36.3778,277.69
2018-11-05 00:00:00,2018-11-05 00:00:00,TMP,surface,-92.8129,36.3778,277.412
2018-11-05 00:00:00,2018-11-05 00:00:00,PRATE,surface,-107.813,25.0393,1.74e-05
2018-11-05 00:00:00,2018-11-05 00:00:00,PRATE,surface,-106.875,25.0393,3.2e-05
2018-11-05 00:00:00,2018-11-05 00:00:00,PRATE,surface,-105.938,25.0393,3.37e-05
2018-11-05 00:00:00,2018-11-05 00:00:00,PRATE,surface,-105,25.0393,3.06e-05
2018-11-05 00:00:00,2018-11-05 00:00:00,PRATE,surface,-104.063,25.0393,2.48e-05
2018-11-05 00:00:00,2018-11-05 00:00:00,PRATE,surface,-103.125,25.0393,1.79e-05
2018-11-05 00:00:00,2018-11-05 00:00:00,PRATE,surface,-102.188,25.0393,2.4e-05
2018-11-05 00:00:00,2018-11-05 00:00:00,PRATE,surface,-101.25,25.0393,5.03e-05
2018-11-05 00:00:00,2018-11-05 00:00:00,PRATE,surface,-100.313,25.0393,9.35e-05
2018-11-05 00:00:00,2018-11-05 00:00:00,PRATE,surface,-99.3754,25.0393,0.0001169
2018-11-05 00:00:00,2018-11-05 00:00:00,PRATE,surface,-98.4379,25.0393,0.0001003
2018-11-05 00:00:00,2018-11-05 00:00:00,PRATE,surface,-97.5004,25.0393,0.0001059
2018-11-05 00:00:00,2018-11-05 00:00:00,PRATE,surface,-96.5629,25.0393,0.0001255
2018-11-05 00:00:00,2018-11-05 00:00:00,PRATE,surface,-95.6254,25.0393,0.0001154
2018-11-05 00:00:00,2018-11-05 00:00:00,PRATE,surface,-94.6879,25.0393,0.0001239
2018-11-05 00:00:00,2018-11-05 00:00:00,PRATE,surface,-93.7504,25.0393,0.0001355
2018-11-05 00:00:00,2018-11-05 00:00:00,PRATE,surface,-92.8129,25.0393,0.0001387
2018-11-05 00:00:00,2018-11-05 00:00:00,PRATE,surface,-107.813,25.9842,2.54e-05
2018-11-05 00:00:00,2018-11-05 00:00:00,PRATE,surface,-106.875,25.9842,3.23e-05
2018-11-05 00:00:00,2018-11-05 00:00:00,PRATE,surface,-105.938,25.9842,2.92e-05
2018-11-05 00:00:00,2018-11-05 00:00:00,PRATE,surface,-105,25.9842,2.14e-05
2018-11-05 00:00:00,2018-11-05 00:00:00,PRATE,surface,-104.063,25.9842,1.2e-05
2018-11-05 00:00:00,2018-11-05 00:00:00,PRATE,surface,-103.125,25.9842,9.9e-06
2018-11-05 00:00:00,2018-11-05 00:00:00,PRATE,surface,-102.188,25.9842,1.92e-05
2018-11-05 00:00:00,2018-11-05 00:00:00,PRATE,surface,-101.25,25.9842,5.35e-05
2018-11-05 00:00:00,2018-11-05 00:00:00,PRATE,surface,-100.313,25.9842,7.78e-05
2018-11-05 00:00:00,2018-11-05 00:00:00,PRATE,surface,-99.3754,25.9842,8.01e-05
2018-11-05 00:00:00,2018-11-05 00:00:00,PRATE,surface,-98.4379,25.9842,8.82e-05
2018-11-05 00:00:00,2018-11-05 00:00:00,PRATE,surface,-97.5004,25.9842,0.0001049
2018-11-05 00:00:00,2018-11-05 00:00:00,PRATE,surface,-96.5629,25.9842,0.0001187
2018-11-05 00:00:00,2018-11-05 00:00:00,PRATE,surface,-95.6254,25.9842,0.0001229
2018-11-05 00:00:00,2018-11-05 00:00:00,PRATE,surface,-94.6879,25.9842,0.0001186
2018-11-05 00:00:00,2018-11-05 00:00:00,PRATE,surface,-93.7504,25.9842,0.0001095
2018-11-05 00:00:00,2018-11-05 00:00:00,PRATE,surface,-92.8129,25.9842,0.0001265
2018-11-05 00:00:00,2018-11-05 00:00:00,PRATE,surface,-107.813,26.929,3e-05
2018-11-05 00:00:00,2018-11-05 00:00:00,PRATE,surface,-106.875,26.929,2.16e-05
2018-11-05 00:00:00,2018-11-05 00:00:00,PRATE,surface,-105.938,26.929,1.72e-05
2018-11-05 00:00:00,2018-11-05 00:00:00,PRATE,surface,-105,26.929,1.39e-05
2018-11-05 00:00:00,2018-11-05 00:00:00,PRATE,surface,-104.063,26.929,9.1e-06
2018-11-05 00:00:00,2018-11-05 00:00:00,PRATE,surface,-103.125,26.929,1.5e-05
2018-11-05 00:00:00,2018-11-05 00:00:00,PRATE,surface,-102.188,26.929,3.73e-05
2018-11-05 00:00:00,2018-11-05 00:00:00,PRATE,surface,-101.25,26.929,4.98e-05
2018-11-05 00:00:00,2018-11-05 00:00:00,PRATE,surface,-100.313,26.929,5.51e-05
2018-11-05 00:00:00,2018-11-05 00:00:00,PRATE,surface,-99.3754,26.929,6.8e-05
2018-11-05 00:00:00,2018-11-05 00:00:00,PRATE,surface,-98.4379,26.929,9.22e-05
2018-11-05 00:00:00,2018-11-05 00:00:00,PRATE,surface,-97.5004,26.929,0.0001223
2018-11-05 00:00:00,2018-11-05 00:00:00,PRATE,surface,-96.5629,26.929,0.0001326
2018-11-05 00:00:00,2018-11-05 00:00:00,PRATE,surface,-95.6254,26.929,0.0001133
2018-11-05 00:00:00,2018-11-05 00:00:00,PRATE,surface,-94.6879,26.929,0.0001021
2018-11-05 00:00:00,2018-11-05 00:00:00,PRATE,surface,-93.7504,26.929,8.97e-05
2018-11-05 00:00:00,2018-11-05 00:00:00,PRATE,surface,-92.8129,26.929,9.2e-05
2018-11-05 00:00:00,2018-11-05 00:00:00,PRATE,surface,-107.813,27.8739,3.24e-05
2018-11-05 00:00:00,2018-11-05 00:00:00,PRATE,surface,-106.875,27.8739,1.31e-05
2018-11-05 00:00:00,2018-11-05 00:00:00,PRATE,surface,-105.938,27.8739,7.6e-06
2018-11-05 00:00:00,2018-11-05 00:00:00,PRATE,surface,-105,27.8739,6e-06
2018-11-05 00:00:00,2018-11-05 00:00:00,PRATE,surface,-104.063,27.8739,1.01e-05
2018-11-05 00:00:00,2018-11-05 00:00:00,PRATE,surface,-103.125,27.8739,3.25e-05
2018-11-05 00:00:00,2018-11-05 00:00:00,PRATE,surface,-102.188,27.8739,5.2e-05
2018-11-05 00:00:00,2018-11-05 00:00:00,PRATE,surface,-101.25,27.8739,5.44e-05
2018-11-05 00:00:00,2018-11-05 00:00:00,PRATE,surface,-100.313,27.8739,5.03e-05
2018-11-05 00:00:00,2018-11-05 00:00:00,PRATE,surface,-99.3754,27.8739,6.36e-05
2018-11-05 00:00:00,2018-11-05 00:00:00,PRATE,surface,-98.4379,27.8739,8.48e-05
2018-11-05 00:00:00,2018-11-05 00:00:00,PRATE,surface,-97.5004,27.8739,9.94e-05
2018-11-05 00:00:00,2018-11-05 00:00:00,PRATE,surface,-96.5629,27.8739,0.0001002
2018-11-05 00:00:00,2018-11-05 00:00:00,PRATE,surface,-95.6254,27.8739,0.0001001
2018-11-05 00:00:00,2018-11-05 00:00:00,PRATE,surface,-94.6879,27.8739,0.0001034
2018-11-05 00:00:00,2018-11-05 00:00:00,PRATE,surface,-93.7504,27.8739,8.53e-05
2018-11-05 00:00:00,2018-11-05 00:00:00,PRATE,surface,-92.8129,27.8739,7.3e-05
2018-11-05 00:00:00,2018-11-05 00:00:00,PRATE,surface,-107.813,28.8188,2.66e-05
2018-11-05 00:00:00,2018-11-05 00:00:00,PRATE,surface,-106.875,28.8188,1.1e-05
2018-11-05 00:00:00,2018-11-05 00:00:00,PRATE,surface,-105.938,28.8188,5.4e-06
2018-11-05 00:00:00,2018-11-05 00:00:00,PRATE,surface,-105,28.8188,3.6e-06
2018-11-05 00:00:00,2018-11-05 00:00:00,PRATE,surface,-104.063,28.8188,1.11e-05
2018-11-05 00:00:00,2018-11-05 00:00:00,PRATE,surface,-103.125,28.8188,2.82e-05
2018-11-05 00:00:00,2018-11-05 00:00:00,PRATE,surface,-102.188,28.8188,4.17e-05
2018-11-05 00:00:00,2018-11-05 00:00:00,PRATE,surface,-101.25,28.8188,5.04e-05
2018-11-05 00:00:00,2018-11-05 00:00:00,PRATE,surface,-100.313,28.8188,5.2e-05
2018-11-05 00:00:00,2018-11-05 00:00:00,PRATE,surface,-99.3754,28.8188,5.7e-05
2018-11-05 00:00:00,2018-11-05 00:00:00,PRATE,surface,-98.4379,28.8188,6.63e-05
2018-11-05 00:00:00,2018-11-05 00:00:00,PRATE,surface,-97.5004,28.8188,6.72e-05
2018-11-05 00:00:00,2018-11-05 00:00:00,PRATE,surface,-96.5629,28.8188,6.17e-05
2018-11-05 00:00:00,2018-11-05 00:00:00,PRATE,surface,-95.6254,28.8188,6.69e-05
2018-11-05 00:00:00,2018-11-05 00:00:00,PRATE,surface,-94.6879,28.8188,8.39e-05
2018-11-05 00:00:00,2018-11-05 00:00:00,PRATE,surface,-93.7504,28.8188,9.63e-05
2018-11-05 00:00:00,2018-11-05 00:00:00,PRATE,surface,-92.8129,28.8188,9.58e-05
2018-11-05 00:00:00,2018-11-05 00:00:00,PRATE,surface,-107.813,29.7637,1.7e-05
2018-11-05 00:00:00,2018-11-05 00:00:00,PRATE,surface,-106.875,29.7637,1.01e-05
2018-11-05 00:00:00,2018-11-05 00:00:00,PRATE,surface,-105.938,29.7637,7.1e-06
2018-11-05 00:00:00,2018-11-05 00:00:00,PRATE,surface,-105,29.7637,1.04e-05
2018-11-05 00:00:00,2018-11-05 00:00:00,PRATE,surface,-104.063,29.7637,1.3e-05
2018-11-05 00:00:00,2018-11-05 00:00:00,PRATE,surface,-103.125,29.7637,1.9e-05
2018-11-05 00:00:00,2018-11-05 00:00:00,PRATE,surface,-102.188,29.7637,3.1e-05
2018-11-05 00:00:00,2018-11-05 00:00:00,PRATE,surface,-101.25,29.7637,4.54e-05
2018-11-05 00:00:00,2018-11-05 00:00:00,PRATE,surface,-100.313,29.7637,5.03e-05
2018-11-05 00:00:00,2018-11-05 00:00:00,PRATE,surface,-99.3754,29.7637,5.26e-05
2018-11-05 00:00:00,2018-11-05 00:00:00,PRATE,surface,-98.4379,29.7637,5.42e-05
2018-11-05 00:00:00,2018-11-05 00:00:00,PRATE,surface,-97.5004,29.7637,4.85e-05
2018-11-05 00:00:00,2018-11-05 00:00:00,PRATE,surface,-96.5629,29.7637,4.28e-05
2018-11-05 00:00:00,2018-11-05 00:00:00,PRATE,surface,-95.6254,29.7637,4.75e-05
2018-11-05 00:00:00,2018-11-05 00:00:00,PRATE,surface,-94.6879,29.7637,6.12e-05
2018-11-05 00:00:00,2018-11-05 00:00:00,PRATE,surface,-93.7504,29.7637,7.8e-05
2018-11-05 00:00:00,2018-11-05 00:00:00,PRATE,surface,-92.8129,29.7637,8.71e-05
2018-11-05 00:00:00,2018-11-05 00:00:00,PRATE,surface,-107.813,30.7085,1.11e-05
2018-11-05 00:00:00,2018-11-05 00:00:00,PRATE,surface,-106.875,30.7085,9.1e-06
2018-11-05 00:00:00,2018-11-05 00:00:00,PRATE,surface,-105.938,30.7085,1.26e-05
2018-11-05 00:00:00,2018-11-05 00:00:00,PRATE,surface,-105,30.7085,1.64e-05
2018-11-05 00:00:00,2018-11-05 00:00:00,PRATE,surface,-104.063,30.7085,1.62e-05
2018-11-05 00:00:00,2018-11-05 00:00:00,PRATE,surface,-103.125,30.7085,2.58e-05
2018-11-05 00:00:00,2018-11-05 00:00:00,PRATE,surface,-102.188,30.7085,2.98e-05
2018-11-05 00:00:00,2018-11-05 00:00:00,PRATE,surface,-101.25,30.7085,3.88e-05
2018-11-05 00:00:00,2018-11-05 00:00:00,PRATE,surface,-100.313,30.7085,4.27e-05
2018-11-05 00:00:00,2018-11-05 00:00:00,PRATE,surface,-99.3754,30.7085,4.84e-05
2018-11-05 00:00:00,2018-11-05 00:00:00,PRATE,surface,-98.4379,30.7085,4.91e-05
2018-11-05 00:00:00,2018-11-05 00:00:00,PRATE,surface,-97.5004,30.7085,4.28e-05
2018-11-05 00:00:00,2018-11-05 00:00:00,PRATE,surface,-96.5629,30.7085,3.48e-05
2018-11-05 00:00:00,2018-11-05 00:00:00,PRATE,surface,-95.6254,30.7085,3.08e-05
2018-11-05 00:00:00,2018-11-05 00:00:00,PRATE,surface,-94.6879,30.7085,3.44e-05
2018-11-05 00:00:00,2018-11-05 00:00:00,PRATE,surface,-93.7504,30.7085,4.45e-05
2018-11-05 00:00:00,2018-11-05 00:00:00,PRATE,surface,-92.8129,30.7085,5.82e-05
2018-11-05 00:00:00,2018-11-05 00:00:00,PRATE,surface,-107.813,31.6534,8.7e-06
2018-11-05 00:00:00,2018-11-05 00:00:00,PRATE,surface,-106.875,31.6534,8.9e-06
2018-11-05 00:00:00,2018-11-05 00:00:00,PRATE,surface,-105.938,31.6534,1.52e-05
2018-11-05 00:00:00,2018-11-05 00:00:00,PRATE,surface,-105,31.6534,1.35e-05
2018-11-05 00:00:00,2018-11-05 00:00:00,PRATE,surface,-104.063,31.6534,1.62e-05
2018-11-05 00:00:00,2018-11-05 00:00:00,PRATE,surface,-103.125,31.6534,2.48e-05
2018-11-05 00:00:00,2018-11-05 00:00:00,PRATE,surface,-102.188,31.6534,3.26e-05
2018-11-05 00:00:00,2018-11-05 00:00:00,PRATE,surface,-101.25,31.6534,3.58e-05
2018-11-05 00:00:00,2018-11-05 00:00:00,PRATE,surface,-100.313,31.6534,3.59e-05
2018-11-05 00:00:00,2018-11-05 00:00:00,PRATE,surface,-99.3754,31.6534,4.12e-05
2018-11-05 00:00:00,2018-11-05 00:00:00,PRATE,surface,-98.4379,31.6534,4.64e-05
2018-11-05 00:00:00,2018-11-05 00:00:00,PRATE,surface,-97.5004,31.6534,4.43e-05
2018-11-05 00:00:00,2018-11-05 00:00:00,PRATE,surface,-96.5629,31.6534,3.62e-05
2018-11-05 00:00:00,2018-11-05 00:00:00,PRATE,surface,-95.6254,31.6534,2.82e-05
2018-11-05 00:00:00,2018-11-05 00:00:00,PRATE,surface,-94.6879,31.6534,2.55e-05
2018-11-05 00:00:00,2018-11-05 00:00:00,PRATE,surface,-93.7504,31.6534,2.88e-05
2018-11-05 00:00:00,2018-11-05 00:00:00,PRATE,surface,-92.8129,31.6534,3.42e-05
2018-11-05 00:00:00,2018-11-05 00:00:00,PRATE,surface,-107.813,32.5983,1.42e-05
2018-11-05 00:00:00,2018-11-05 00:00:00,PRATE,surface,-106.875,32.5983,1.22e-05
2018-11-05 00:00:00,2018-11-05 00:00:00,PRATE,surface,-105.938,32.5983,1.33e-05
2018-11-05 00:00:00,2018-11-05 00:00:00,PRATE,surface,-105,32.5983,1.31e-05
2018-11-05 00:00:00,2018-11-05 00:00:00,PRATE,surface,-104.063,32.5983,1.75e-05
2018-11-05 00:00:00,2018-11-05 00:00:00,PRATE,surface,-103.125,32.5983,2.35e-05
2018-11-05 00:00:00,2018-11-05 00:00:00,PRATE,surface,-102.188,32.5983,2.93e-05
2018-11-05 00:00:00,2018-11-05 00:00:00,PRATE,surface,-101.25,32.5983,3.45e-05
2018-11-05 00:00:00,2018-11-05 00:00:00,PRATE,surface,-100.313,32.5983,3.67e-05
2018-11-05 00:00:00,2018-11-05 00:00:00,PRATE,surface,-99.3754,32.5983,4.04e-05
2018-11-05 00:00:00,2018-11-05 00:00:00,PRATE,surface,-98.4379,32.5983,5.22e-05
2018-11-05 00:00:00,2018-11-05 00:00:00,PRATE,surface,-97.5004,32.5983,6.09e-05
2018-11-05 00:00:00,2018-11-05 00:00:00,PRATE,surface,-96.5629,32.5983,5.38e-05
2018-11-05 00:00:00,2018-11-05 00:00:00,PRATE,surface,-95.6254,32.5983,3.75e-05
2018-11-05 00:00:00,2018-11-05 00:00:00,PRATE,surface,-94.6879,32.5983,2.66e-05
2018-11-05 00:00:00,2018-11-05 00:00:00,PRATE,surface,-93.7504,32.5983,2.42e-05
2018-11-05 00:00:00,2018-11-05 00:00:00,PRATE,surface,-92.8129,32.5983,2.43e-05
2018-11-05 00:00:00,2018-11-05 00:00:00,PRATE,surface,-107.813,33.5432,2.62e-05
2018-11-05 00:00:00,2018-11-05 00:00:00,PRATE,surface,-106.875,33.5432,1.89e-05
2018-11-05 00:00:00,2018-11-05 00:00:00,PRATE,surface,-105.938,33.5432,1.46e-05
2018-11-05 00:00:00,2018-11-05 00:00:00,PRATE,surface,-105,33.5432,1.44e-05
2018-11-05 00:00:00,2018-11-05 00:00:00,PRATE,surface,-104.063,33.5432,1.47e-05
2018-11-05 00:00:00,2018-11-05 00:00:00,PRATE,surface,-103.125,33.5432,2.11e-05
2018-11-05 00:00:00,2018-11-05 00:00:00,PRATE,surface,-102.188,33.5432,3.17e-05
2018-11-05 00:00:00,2018-11-05 00:00:00,PRATE,surface,-101.25,33.5432,4.07e-05
2018-11-05 00:00:00,2018-11-05 00:00:00,PRATE,surface,-100.313,33.5432,3.96e-05
2018-11-05 00:00:00,2018-11-05 00:00:00,PRATE,surface,-99.3754,33.5432,3.73e-05
2018-11-05 00:00:00,2018-11-05 00:00:00,PRATE,surface,-98.4379,33.5432,4.06e-05
2018-11-05 00:00:00,2018-11-05 00:00:00,PRATE,surface,-97.5004,33.5432,4.84e-05
2018-11-05 00:00:00,2018-11-05 00:00:00,PRATE,surface,-96.5629,33.5432,4.99e-05
2018-11-05 00:00:00,2018-11-05 00:00:00,PRATE,surface,-95.6254,33.5432,4.07e-05
2018-11-05 00:00:00,2018-11-05 00:00:00,PRATE,surface,-94.6879,33.5432,3.05e-05
2018-11-05 00:00:00,2018-11-05 00:00:00,PRATE,surface,-93.7504,33.5432,2.5e-05
2018-11-05 00:00:00,2018-11-05 00:00:00,PRATE,surface,-92.8129,33.5432,2.28e-05
2018-11-05 00:00:00,2018-11-05 00:00:00,PRATE,surface,-107.813,34.4881,2.56e-05
2018-11-05 00:00:00,2018-11-05 00:00:00,PRATE,surface,-106.875,34.4881,1.72e-05
2018-11-05 00:00:00,2018-11-05 00:00:00,PRATE,surface,-105.938,34.4881,1.52e-05
2018-11-05 00:00:00,2018-11-05 00:00:00,PRATE,surface,-105,34.4881,1.58e-05
2018-11-05 00:00:00,2018-11-05 00:00:00,PRATE,surface,-104.063,34.4881,2.27e-05
2018-11-05 00:00:00,2018-11-05 00:00:00,PRATE,surface,-103.125,34.4881,2.57e-05
2018-11-05 00:00:00,2018-11-05 00:00:00,PRATE,surface,-102.188,34.4881,3e-05
2018-11-05 00:00:00,2018-11-05 00:00:00,PRATE,surface,-101.25,34.4881,3.89e-05
2018-11-05 00:00:00,2018-11-05 00:00:00,PRATE,surface,-100.313,34.4881,4.21e-05
2018-11-05 00:00:00,2018-11-05 00:00:00,PRATE,surface,-99.3754,34.4881,4.1e-05
2018-11-05 00:00:00,2018-11-05 00:00:00,PRATE,surface,-98.4379,34.4881,3.94e-05
2018-11-05 00:00:00,2018-11-05 00:00:00,PRATE,surface,-97.5004,34.4881,3.78e-05
2018-11-05 00:00:00,2018-11-05 00:00:00,PRATE,surface,-96.5629,34.4881,3.61e-05
2018-11-05 00:00:00,2018-11-05 00:00:00,PRATE,surface,-95.6254,34.4881,3.45e-05
2018-11-05 00:00:00,2018-11-05 00:00:00,PRATE,surface,-94.6879,34.4881,3.22e-05
2018-11-05 00:00:00,2018-11-05 00:00:00,PRATE,surface,-93.7504,34.4881,3e-05
2018-11-05 00:00:00,2018-11-05 00:00:00,PRATE,surface,-92.8129,34.4881,2.76e-05
2018-11-05 00:00:00,2018-11-05 00:00:00,PRATE,surface,-107.813,35.4329,2.54e-05
2018-11-05 00:00:00,2018-11-05 00:00:00,PRATE,surface,-106.875,35.4329,1.67e-05
2018-11-05 00:00:00,2018-11-05 00:00:00,PRATE,surface,-105.938,35.4329,1.65e-05
2018-11-05 00:00:00,2018-11-05 00:00:00,PRATE,surface,-105,35.4329,1.96e-05
2018-11-05 00:00:00,2018-11-05 00:00:00,PRATE,surface,-104.063,35.4329,2.85e-05
2018-11-05 00:00:00,2018-11-05 00:00:00,PRATE,surface,-103.125,35.4329,3.24e-05
2018-11-05 00:00:00,2018-11-05 00:00:00,PRATE,surface,-102.188,35.4329,3.53e-05
2018-11-05 00:00:00,2018-11-05 00:00:00,PRATE,surface,-101.25,35.4329,4.02e-05
2018-11-05 00:00:00,2018-11-05 00:00:00,PRATE,surface,-100.313,35.4329,4.32e-05
2018-11-05 00:00:00,2018-11-05 00:00:00,PRATE,surface,-99.3754,35.4329,4.4e-05
2018-11-05 00:00:00,2018-11-05 00:00:00,PRATE,surface,-98.4379,35.4329,4.16e-05
2018-11-05 00:00:00,2018-11-05 00:00:00,PRATE,surface,-97.5004,35.4329,3.49e-05
2018-11-05 00:00:00,2018-11-05 00:00:00,PRATE,surface,-96.5629,35.4329,2.86e-05
2018-11-05 00:00:00,2018-11-05 00:00:00,PRATE,surface,-95.6254,35.4329,2.66e-05
2018-11-05 00:00:00,2018-11-05 00:00:00,PRATE,surface,-94.6879,35.4329,2.79e-05
2018-11-05 00:00:00,2018-11-05 00:00:00,PRATE,surface,-93.7504,35.4329,3.03e-05
2018-11-05 00:00:00,2018-11-05 00:00:00,PRATE,surface,-92.8129,35.4329,3.1e-05
2018-11-05 00:00:00,2018-11-05 00:00:00,PRATE,surface,-107.813,36.3778,2.8e-05
2018-11-05 00:00:00,2018-11-05 00:00:00,PRATE,surface,-106.875,36.3778,3.78e-05
2018-11-05 00:00:00,2018-11-05 00:00:00,PRATE,surface,-105.938,36.3778,3.37e-05
2018-11-05 00:00:00,2018-11-05 00:00:00,PRATE,surface,-105,36.3778,2.77e-05
2018-11-05 00:00:00,2018-11-05 00:00:00,PRATE,surface,-104.063,36.3778,3.33e-05
2018-11-05 00:00:00,2018-11-05 00:00:00,PRATE,surface,-103.125,36.3778,3.13e-05
2018-11-05 00:00:00,2018-11-05 00:00:00,PRATE,surface,-102.188,36.3778,3.04e-05
2018-11-05 00:00:00,2018-11-05 00:00:00,PRATE,surface,-101.25,36.3778,3.32e-05
2018-11-05 00:00:00,2018-11-05 00:00:00,PRATE,surface,-100.313,36.3778,3.74e-05
2018-11-05 00:00:00,2018-11-05 00:00:00,PRATE,surface,-99.3754,36.3778,3.92e-05
2018-11-05 00:00:00,2018-11-05 00:00:00,PRATE,surface,-98.4379,36.3778,3.82e-05
2018-11-05 00:00:00,2018-11-05 00:00:00,PRATE,surface,-97.5004,36.3778,3.28e-05
2018-11-05 00:00:00,2018-11-05 00:00:00,PRATE,surface,-96.5629,36.3778,2.71e-05
2018-11-05 00:00:00,2018-11-05 00:00:00,PRATE,surface,-95.6254,36.3778,2.55e-05
2018-11-05 00:00:00,2018-11-05 00:00:00,PRATE,surface,-94.6879,36.3778,2.59e-05
2018-11-05 00:00:00,2018-11-05 00:00:00,PRATE,surface,-93.7504,36.3778,2.78e-05
2018-11-05 00:00:00,2018-11-05 00:00:00,PRATE,surface,-92.8129,36.3778,2.96e-05
