2014-06-07 00:00:00,2014-06-07 00:00:00,TMP,surface,-107.813,25.0393,291.373
2014-06-07 00:00:00,2014-06-07 00:00:00,TMP,surface,-106.875,25.0393,285.288
2014-06-07 00:00:00,2014-06-07 00:00:00,TMP,surface,-105.938,25.0393,280.554
2014-06-07 00:00:00,2014-06-07 00:00:00,TMP,surface,-105,25.0393,280.149
2014-06-07 00:00:00,2014-06-07 00:00:00,TMP,surface,-104.063,25.0393,284.282
2014-06-07 00:00:00,2014-06-07 00:00:00,TMP,surface,-103.125,25.0393,286.613
2014-06-07 00:00:00,2014-06-07 00:00:00,TMP,surface,-102.188,25.0393,286.096
2014-06-07 00:00:00,2014-06-07 00:00:00,TMP,surface,-101.25,25.0393,285.159
2014-06-07 00:00:00,2014-06-07 00:00:00,TMP,surface,-100.313,25.0393,285.877
2014-06-07 00:00:00,2014-06-07 00:00:00,TMP,surface,-99.3754,25.0393,288.426
2014-06-07 00:00:00,2014-06-07 00:00:00,TMP,surface,-98.4379,25.0393,290.876
2014-06-07 00:00:00,2014-06-07 00:00:00,TMP,surface,-97.5004,25.0393,292.232
2014-06-07 00:00:00,2014-06-07 00:00:00,TMP,surface,-96.5629,25.0393,291.784
2014-06-07 00:00:00,2014-06-07 00:00:00,TMP,surface,-95.6254,25.0393,291.773
2014-06-07 00:00:00,2014-06-07 00:00:00,TMP,surface,-94.6879,25.0393,292.132
2014-06-07 00:00:00,2014-06-07 00:00:00,TMP,surface,-93.7504,25.0393,292.664
2014-06-07 00:00:00,2014-06-07 00:00:00,TMP,surface,-92.8129,25.0393,293.37
2014-06-07 00:00:00,2014-06-07 00:00:00,TMP,surface,-107.813,25.9842,286.765
2014-06-07 00:00:00,2014-06-07 00:00:00,TMP,surface,-106.875,25.9842,280.78
2014-06-07 00:00:00,2014-06-07 00:00:00,TMP,surface,-105.938,25.9842,279.588
2014-06-07 00:00:00,2014-06-07 00:00:00,TMP,surface,-105,25.9842,282.72
2014-06-07 00:00:00,2014-06-07 00:00:00,TMP,surface,-104.063,25.9842,287.218
2014-06-07 00:00:00,2014-06-07 00:00:00,TMP,surface,-103.125,25.9842,288.736
2014-06-07 00:00:00,2014-06-07 00:00:00,TMP,surface,-102.188,25.9842,287.976
2014-06-07 00:00:00,2014-06-07 00:00:00,TMP,surface,-101.25,25.9842,287.133
2014-06-07 00:00:00,2014-06-07 00:00:00,TMP,surface,-100.313,25.9842,287.335
2014-06-07 00:00:00,2014-06-07 00:00:00,TMP,surface,-99.3754,25.9842,289.397
2014-06-07 00:00:00,2014-06-07 00:00:00,TMP,surface,-98.4379,25.9842,290.605
2014-06-07 00:00:00,2014-06-07 00:00:00,TMP,surface,-97.5004,25.9842,290.954
2014-06-07 00:00:00,2014-06-07 00:00:00,TMP,surface,-96.5629,25.9842,291.304
2014-06-07 00:00:00,2014-06-07 00:00:00,TMP,surface,-95.6254,25.9842,291.292
2014-06-07 00:00:00,2014-06-07 00:00:00,TMP,surface,-94.6879,25.9842,291.576
2014-06-07 00:00:00,2014-06-07 00:00:00,TMP,surface,-93.7504,25.9842,291.964
2014-06-07 00:00:00,2014-06-07 00:00:00,TMP,surface,-92.8129,25.9842,292.386
2014-06-07 00:00:00,2014-06-07 00:00:00,TMP,surface,-107.813,26.929,281.735
2014-06-07 00:00:00,2014-06-07 00:00:00,TMP,surface,-106.875,26.929,278.684
2014-06-07 00:00:00,2014-06-07 00:00:00,TMP,surface,-105.938,26.929,281.319
2014-06-07 00:00:00,2014-06-07 00:00:00,TMP,surface,-105,26.929,285.479
2014-06-07 00:00:00,2014-06-07 00:00:00,TMP,surface,-104.063,26.929,287.359
2014-06-07 00:00:00,2014-06-07 00:00:00,TMP,surface,-103.125,26.929,286.98
2014-06-07 00:00:00,2014-06-07 00:00:00,TMP,surface,-102.188,26.929,286.844
2014-06-07 00:00:00,2014-06-07 00:00:00,TMP,surface,-101.25,26.929,287.634
2014-06-07 00:00:00,2014-06-07 00:00:00,TMP,surface,-100.313,26.929,288.344
2014-06-07 00:00:00,2014-06-07 00:00:00,TMP,surface,-99.3754,26.929,289.108
2014-06-07 00:00:00,2014-06-07 00:00:00,TMP,surface,-98.4379,26.929,289.074
2014-06-07 00:00:00,2014-06-07 00:00:00,TMP,surface,-97.5004,26.929,291.077
2014-06-07 00:00:00,2014-06-07 00:00:00,TMP,surface,-96.5629,26.929,291.095
2014-06-07 00:00:00,2014-06-07 00:00:00,TMP,surface,-95.6254,26.929,291.378
2014-06-07 00:00:00,2014-06-07 00:00:00,TMP,surface,-94.6879,26.929,291.658
2014-06-07 00:00:00,2014-06-07 00:00:00,TMP,surface,-93.7504,26.929,291.816
2014-06-07 00:00:00,2014-06-07 00:00:00,TMP,surface,-92.8129,26.929,291.962
2014-06-07 00:00:00,2014-06-07 00:00:00,TMP,surface,-107.813,27.8739,279.045
2014-06-07 00:00:00,2014-06-07 00:00:00,TMP,surface,-106.875,27.8739,278.709
2014-06-07 00:00:00,2014-06-07 00:00:00,TMP,surface,-105.938,27.8739,282.948
2014-06-07 00:00:00,2014-06-07 00:00:00,TMP,surface,-105,27.8739,286.279
2014-06-07 00:00:00,2014-06-07 00:00:00,TMP,surface,-104.063,27.8739,286.559
2014-06-07 00:00:00,2014-06-07 00:00:00,TMP,surface,-103.125,27.8739,285.37
2014-06-07 00:00:00,2014-06-07 00:00:00,TMP,surface,-102.188,27.8739,285.554
2014-06-07 00:00:00,2014-06-07 00:00:00,TMP,surface,-101.25,27.8739,286.728
2014-06-07 00:00:00,2014-06-07 00:00:00,TMP,surface,-100.313,27.8739,287.62
2014-06-07 00:00:00,2014-06-07 00:00:00,TMP,surface,-99.3754,27.8739,287.696
2014-06-07 00:00:00,2014-06-07 00:00:00,TMP,surface,-98.4379,27.8739,287.46
2014-06-07 00:00:00,2014-06-07 00:00:00,TMP,surface,-97.5004,27.8739,289.367
2014-06-07 00:00:00,2014-06-07 00:00:00,TMP,surface,-96.5629,27.8739,291.493
2014-06-07 00:00:00,2014-06-07 00:00:00,TMP,surface,-95.6254,27.8739,291.632
2014-06-07 00:00:00,2014-06-07 00:00:00,TMP,surface,-94.6879,27.8739,291.64
2014-06-07 00:00:00,2014-06-07 00:00:00,TMP,surface,-93.7504,27.8739,291.679
2014-06-07 00:00:00,2014-06-07 00:00:00,TMP,surface,-92.8129,27.8739,291.76
2014-06-07 00:00:00,2014-06-07 00:00:00,TMP,surface,-107.813,28.8188,278.192
2014-06-07 00:00:00,2014-06-07 00:00:00,TMP,surface,-106.875,28.8188,279.717
2014-06-07 00:00:00,2014-06-07 00:00:00,TMP,surface,-105.938,28.8188,283.568
2014-06-07 00:00:00,2014-06-07 00:00:00,TMP,surface,-105,28.8188,285.855
2014-06-07 00:00:00,2014-06-07 00:00:00,TMP,surface,-104.063,28.8188,284.876
2014-06-07 00:00:00,2014-06-07 00:00:00,TMP,surface,-103.125,28.8188,283.808
2014-06-07 00:00:00,2014-06-07 00:00:00,TMP,surface,-102.188,28.8188,284.346
2014-06-07 00:00:00,2014-06-07 00:00:00,TMP,surface,-101.25,28.8188,285.708
2014-06-07 00:00:00,2014-06-07 00:00:00,TMP,surface,-100.313,28.8188,286.037
2014-06-07 00:00:00,2014-06-07 00:00:00,TMP,surface,-99.3754,28.8188,285.756
2014-06-07 00:00:00,2014-06-07 00:00:00,TMP,surface,-98.4379,28.8188,285.652
2014-06-07 00:00:00,2014-06-07 00:00:00,TMP,surface,-97.5004,28.8188,286.008
2014-06-07 00:00:00,2014-06-07 00:00:00,TMP,surface,-96.5629,28.8188,286.544
2014-06-07 00:00:00,2014-06-07 00:00:00,TMP,surface,-95.6254,28.8188,288.495
2014-06-07 00:00:00,2014-06-07 00:00:00,TMP,surface,-94.6879,28.8188,291.271
2014-06-07 00:00:00,2014-06-07 00:00:00,TMP,surface,-93.7504,28.8188,291.25
2014-06-07 00:00:00,2014-06-07 00:00:00,TMP,surface,-92.8129,28.8188,291.319
2014-06-07 00:00:00,2014-06-07 00:00:00,TMP,surface,-107.813,29.7637,279.716
2014-06-07 00:00:00,2014-06-07 00:00:00,TMP,surface,-106.875,29.7637,281.384
2014-06-07 00:00:00,2014-06-07 00:00:00,TMP,surface,-105.938,29.7637,283.943
2014-06-07 00:00:00,2014-06-07 00:00:00,TMP,surface,-105,29.7637,284.068
2014-06-07 00:00:00,2014-06-07 00:00:00,TMP,surface,-104.063,29.7637,283.631
2014-06-07 00:00:00,2014-06-07 00:00:00,TMP,surface,-103.125,29.7637,283.506
2014-06-07 00:00:00,2014-06-07 00:00:00,TMP,surface,-102.188,29.7637,284.178
2014-06-07 00:00:00,2014-06-07 00:00:00,TMP,surface,-101.25,29.7637,284.575
2014-06-07 00:00:00,2014-06-07 00:00:00,TMP,surface,-100.313,29.7637,284.168
2014-06-07 00:00:00,2014-06-07 00:00:00,TMP,surface,-99.3754,29.7637,283.847
2014-06-07 00:00:00,2014-06-07 00:00:00,TMP,surface,-98.4379,29.7637,283.936
2014-06-07 00:00:00,2014-06-07 00:00:00,TMP,surface,-97.5004,29.7637,284.263
2014-06-07 00:00:00,2014-06-07 00:00:00,TMP,surface,-96.5629,29.7637,284.671
2014-06-07 00:00:00,2014-06-07 00:00:00,TMP,surface,-95.6254,29.7637,285.183
2014-06-07 00:00:00,2014-06-07 00:00:00,TMP,surface,-94.6879,29.7637,287.314
2014-06-07 00:00:00,2014-06-07 00:00:00,TMP,surface,-93.7504,29.7637,289.954
2014-06-07 00:00:00,2014-06-07 00:00:00,TMP,surface,-92.8129,29.7637,286.546
2014-06-07 00:00:00,2014-06-07 00:00:00,TMP,surface,-107.813,30.7085,282.652
2014-06-07 00:00:00,2014-06-07 00:00:00,TMP,surface,-106.875,30.7085,283.78
2014-06-07 00:00:00,2014-06-07 00:00:00,TMP,surface,-105.938,30.7085,283.861
2014-06-07 00:00:00,2014-06-07 00:00:00,TMP,surface,-105,30.7085,282.8
2014-06-07 00:00:00,2014-06-07 00:00:00,TMP,surface,-104.063,30.7085,282.549
2014-06-07 00:00:00,2014-06-07 00:00:00,TMP,surface,-103.125,30.7085,282.988
2014-06-07 00:00:00,2014-06-07 00:00:00,TMP,surface,-102.188,30.7085,283.392
2014-06-07 00:00:00,2014-06-07 00:00:00,TMP,surface,-101.25,30.7085,283.144
2014-06-07 00:00:00,2014-06-07 00:00:00,TMP,surface,-100.313,30.7085,282.551
2014-06-07 00:00:00,2014-06-07 00:00:00,TMP,surface,-99.3754,30.7085,282.412
2014-06-07 00:00:00,2014-06-07 00:00:00,TMP,surface,-98.4379,30.7085,282.717
2014-06-07 00:00:00,2014-06-07 00:00:00,TMP,surface,-97.5004,30.7085,283.101
2014-06-07 00:00:00,2014-06-07 00:00:00,TMP,surface,-96.5629,30.7085,283.525
2014-06-07 00:00:00,2014-06-07 00:00:00,TMP,surface,-95.6254,30.7085,283.991
2014-06-07 00:00:00,2014-06-07 00:00:00,TMP,surface,-94.6879,30.7085,284.327
2014-06-07 00:00:00,2014-06-07 00:00:00,TMP,surface,-93.7504,30.7085,284.52
2014-06-07 00:00:00,2014-06-07 00:00:00,TMP,surface,-92.8129,30.7085,284.512
2014-06-07 00:00:00,2014-06-07 00:00:00,TMP,surface,-107.813,31.6534,283.226
2014-06-07 00:00:00,2014-06-07 00:00:00,TMP,surface,-106.875,31.6534,283.792
2014-06-07 00:00:00,2014-06-07 00:00:00,TMP,surface,-105.938,31.6534,282.607
2014-06-07 00:00:00,2014-06-07 00:00:00,TMP,surface,-105,31.6534,281.823
2014-06-07 00:00:00,2014-06-07 00:00:00,TMP,surface,-104.063,31.6534,281.719
2014-06-07 00:00:00,2014-06-07 00:00:00,TMP,surface,-103.125,31.6534,282.039
2014-06-07 00:00:00,2014-06-07 00:00:00,TMP,surface,-102.188,31.6534,282.021
2014-06-07 00:00:00,2014-06-07 00:00:00,TMP,surface,-101.25,31.6534,281.621
2014-06-07 00:00:00,2014-06-07 00:00:00,TMP,surface,-100.313,31.6534,281.338
2014-06-07 00:00:00,2014-06-07 00:00:00,TMP,surface,-99.3754,31.6534,281.487
2014-06-07 00:00:00,2014-06-07 00:00:00,TMP,surface,-98.4379,31.6534,281.909
2014-06-07 00:00:00,2014-06-07 00:00:00,TMP,surface,-97.5004,31.6534,282.319
2014-06-07 00:00:00,2014-06-07 00:00:00,TMP,surface,-96.5629,31.6534,282.709
2014-06-07 00:00:00,2014-06-07 00:00:00,TMP,surface,-95.6254,31.6534,283.032
2014-06-07 00:00:00,2014-06-07 00:00:00,TMP,surface,-94.6879,31.6534,283.167
2014-06-07 00:00:00,2014-06-07 00:00:00,TMP,surface,-93.7504,31.6534,283.298
2014-06-07 00:00:00,2014-06-07 00:00:00,TMP,surface,-92.8129,31.6534,283.524
2014-06-07 00:00:00,2014-06-07 00:00:00,TMP,surface,-107.813,32.5983,280.49
2014-06-07 00:00:00,2014-06-07 00:00:00,TMP,surface,-106.875,32.5983,280.879
2014-06-07 00:00:00,2014-06-07 00:00:00,TMP,surface,-105.938,32.5983,280.831
2014-06-07 00:00:00,2014-06-07 00:00:00,TMP,surface,-105,32.5983,280.538
2014-06-07 00:00:00,2014-06-07 00:00:00,TMP,surface,-104.063,32.5983,280.989
2014-06-07 00:00:00,2014-06-07 00:00:00,TMP,surface,-103.125,32.5983,281.157
2014-06-07 00:00:00,2014-06-07 00:00:00,TMP,surface,-102.188,32.5983,280.509
2014-06-07 00:00:00,2014-06-07 00:00:00,TMP,surface,-101.25,32.5983,280.295
2014-06-07 00:00:00,2014-06-07 00:00:00,TMP,surface,-100.313,32.5983,280.583
2014-06-07 00:00:00,2014-06-07 00:00:00,TMP,surface,-99.3754,32.5983,281.119
2014-06-07 00:00:00,2014-06-07 00:00:00,TMP,surface,-98.4379,32.5983,281.463
2014-06-07 00:00:00,2014-06-07 00:00:00,TMP,surface,-97.5004,32.5983,281.636
2014-06-07 00:00:00,2014-06-07 00:00:00,TMP,surface,-96.5629,32.5983,281.914
2014-06-07 00:00:00,2014-06-07 00:00:00,TMP,surface,-95.6254,32.5983,282.247
2014-06-07 00:00:00,2014-06-07 00:00:00,TMP,surface,-94.6879,32.5983,282.404
2014-06-07 00:00:00,2014-06-07 00:00:00,TMP,surface,-93.7504,32.5983,282.527
2014-06-07 00:00:00,2014-06-07 00:00:00,TMP,surface,-92.8129,32.5983,282.943
2014-06-07 00:00:00,2014-06-07 00:00:00,TMP,surface,-107.813,33.5432,277.116
2014-06-07 00:00:00,2014-06-07 00:00:00,TMP,surface,-106.875,33.5432,278.261
2014-06-07 00:00:00,2014-06-07 00:00:00,TMP,surface,-105.938,33.5432,279.012
2014-06-07 00:00:00,2014-06-07 00:00:00,TMP,surface,-105,33.5432,279.272
2014-06-07 00:00:00,2014-06-07 00:00:00,TMP,surface,-104.063,33.5432,280.093
2014-06-07 00:00:00,2014-06-07 00:00:00,TMP,surface,-103.125,33.5432,279.797
2014-06-07 00:00:00,2014-06-07 00:00:00,TMP,surface,-102.188,33.5432,278.925
2014-06-07 00:00:00,2014-06-07 00:00:00,TMP,surface,-101.25,33.5432,278.842
2014-06-07 00:00:00,2014-06-07 00:00:00,TMP,surface,-100.313,33.5432,279.631
2014-06-07 00:00:00,2014-06-07 00:00:00,TMP,surface,-99.3754,33.5432,280.429
2014-06-07 00:00:00,2014-06-07 00:00:00,TMP,surface,-98.4379,33.5432,280.692
2014-06-07 00:00:00,2014-06-07 00:00:00,TMP,surface,-97.5004,33.5432,280.676
2014-06-07 00:00:00,2014-06-07 00:00:00,TMP,surface,-96.5629,33.5432,280.848
2014-06-07 00:00:00,2014-06-07 00:00:00,TMP,surface,-95.6254,33.5432,281.248
2014-06-07 00:00:00,2014-06-07 00:00:00,TMP,surface,-94.6879,33.5432,281.556
2014-06-07 00:00:00,2014-06-07 00:00:00,TMP,surface,-93.7504,33.5432,281.663
2014-06-07 00:00:00,2014-06-07 00:00:00,TMP,surface,-92.8129,33.5432,281.903
2014-06-07 00:00:00,2014-06-07 00:00:00,TMP,surface,-107.813,34.4881,276.048
2014-06-07 00:00:00,2014-06-07 00:00:00,TMP,surface,-106.875,34.4881,277.48
2014-06-07 00:00:00,2014-06-07 00:00:00,TMP,surface,-105.938,34.4881,278.453
2014-06-07 00:00:00,2014-06-07 00:00:00,TMP,surface,-105,34.4881,279.05
2014-06-07 00:00:00,2014-06-07 00:00:00,TMP,surface,-104.063,34.4881,278.784
2014-06-07 00:00:00,2014-06-07 00:00:00,TMP,surface,-103.125,34.4881,278.373
2014-06-07 00:00:00,2014-06-07 00:00:00,TMP,surface,-102.188,34.4881,278.013
2014-06-07 00:00:00,2014-06-07 00:00:00,TMP,surface,-101.25,34.4881,278.172
2014-06-07 00:00:00,2014-06-07 00:00:00,TMP,surface,-100.313,34.4881,278.623
2014-06-07 00:00:00,2014-06-07 00:00:00,TMP,surface,-99.3754,34.4881,279.349
2014-06-07 00:00:00,2014-06-07 00:00:00,TMP,surface,-98.4379,34.4881,279.652
2014-06-07 00:00:00,2014-06-07 00:00:00,TMP,surface,-97.5004,34.4881,279.687
2014-06-07 00:00:00,2014-06-07 00:00:00,TMP,surface,-96.5629,34.4881,279.967
2014-06-07 00:00:00,2014-06-07 00:00:00,TMP,surface,-95.6254,34.4881,280.312
2014-06-07 00:00:00,2014-06-07 00:00:00,TMP,surface,-94.6879,34.4881,280.336
2014-06-07 00:00:00,2014-06-07 00:00:00,TMP,surface,-93.7504,34.4881,280.184
2014-06-07 00:00:00,2014-06-07 00:00:00,TMP,surface,-92.8129,34.4881,280.32
2014-06-07 00:00:00,2014-06-07 00:00:00,TMP,surface,-107.813,35.4329,276.621
2014-06-07 00:00:00,2014-06-07 00:00:00,TMP,surface,-106.875,35.4329,276.968
2014-06-07 00:00:00,2014-06-07 00:00:00,TMP,surface,-105.938,35.4329,277.096
2014-06-07 00:00:00,2014-06-07 00:00:00,TMP,surface,-105,35.4329,277.276
2014-06-07 00:00:00,2014-06-07 00:00:00,TMP,surface,-104.063,35.4329,277.932
2014-06-07 00:00:00,2014-06-07 00:00:00,TMP,surface,-103.125,35.4329,278.008
2014-06-07 00:00:00,2014-06-07 00:00:00,TMP,surface,-102.188,35.4329,277.652
2014-06-07 00:00:00,2014-06-07 00:00:00,TMP,surface,-101.25,35.4329,277.583
2014-06-07 00:00:00,2014-06-07 00:00:00,TMP,surface,-100.313,35.4329,277.858
2014-06-07 00:00:00,2014-06-07 00:00:00,TMP,surface,-99.3754,35.4329,278.255
2014-06-07 00:00:00,2014-06-07 00:00:00,TMP,surface,-98.4379,35.4329,278.621
2014-06-07 00:00:00,2014-06-07 00:00:00,TMP,surface,-97.5004,35.4329,278.922
2014-06-07 00:00:00,2014-06-07 00:00:00,TMP,surface,-96.5629,35.4329,279.173
2014-06-07 00:00:00,2014-06-07 00:00:00,TMP,surface,-95.6254,35.4329,279.242
2014-06-07 00:00:00,2014-06-07 00:00:00,TMP,surface,-94.6879,35.4329,278.916
2014-06-07 00:00:00,2014-06-07 00:00:00,TMP,surface,-93.7504,35.4329,278.37
2014-06-07 00:00:00,2014-06-07 00:00:00,TMP,surface,-92.8129,35.4329,278.191
2014-06-07 00:00:00,2014-06-07 00:00:00,TMP,surface,-107.813,36.3778,275.967
2014-06-07 00:00:00,2014-06-07 00:00:00,TMP,surface,-106.875,36.3778,274.532
2014-06-07 00:00:00,2014-06-07 00:00:00,TMP,surface,-105.938,36.3778,274.495
2014-06-07 00:00:00,2014-06-07 00:00:00,TMP,surface,-105,36.3778,275.247
2014-06-07 00:00:00,2014-06-07 00:00:00,TMP,surface,-104.063,36.3778,276.637
2014-06-07 00:00:00,2014-06-07 00:00:00,TMP,surface,-103.125,36.3778,276.951
2014-06-07 00:00:00,2014-06-07 00:00:00,TMP,surface,-102.188,36.3778,276.96
2014-06-07 00:00:00,2014-06-07 00:00:00,TMP,surface,-101.25,36.3778,276.98
2014-06-07 00:00:00,2014-06-07 00:00:00,TMP,surface,-100.313,36.3778,277.309
2014-06-07 00:00:00,2014-06-07 00:00:00,TMP,surface,-99.3754,36.3778,277.668
2014-06-07 00:00:00,2014-06-07 00:00:00,TMP,surface,-98.4379,36.3778,277.932
2014-06-07 00:00:00,2014-06-07 00:00:00,TMP,surface,-97.5004,36.3778,278.212
2014-06-07 00:00:00,2014-06-07 00:00:00,TMP,surface,-96.5629,36.3778,278.424
2014-06-07 00:00:00,2014-06-07 00:00:00,TMP,surface,-95.6254,36.3778,278.229
2014-06-07 00:00:00,2014-06-07 00:00:00,TMP,surface,-94.6879,36.3778,277.512
2014-06-07 00:00:00,2014-06-07 00:00:00,TMP,surface,-93.7504,36.3778,276.741
2014-06-07 00:00:00,2014-06-07 00:00:00,TMP,surface,-92.8129,36.3778,276.52
2014-06-07 00:00:00,2014-06-07 00:00:00,PRATE,surface,-107.813,25.0393,2.08e-05
2014-06-07 00:00:00,2014-06-07 00:00:00,PRATE,surface,-106.875,25.0393,3.63e-05
2014-06-07 00:00:00,2014-06-07 00:00:00,PRATE,surface,-105.938,25.0393,2.69e-05
2014-06-07 00:00:00,2014-06-07 00:00:00,PRATE,surface,-105,25.0393,8.3e-06
2014-06-07 00:00:00,2014-06-07 00:00:00,PRATE,surface,-104.063,25.0393,5.5e-06
2014-06-07 00:00:00,2014-06-07 00:00:00,PRATE,surface,-103.125,25.0393,3.2e-06
2014-06-07 00:00:00,2014-06-07 00:00:00,PRATE,surface,-102.188,25.0393,5.5e-06
2014-06-07 00:00:00,2014-06-07 00:00:00,PRATE,surface,-101.25,25.0393,1.07e-05
2014-06-07 00:00:00,2014-06-07 00:00:00,PRATE,surface,-100.313,25.0393,2.2e-05
2014-06-07 00:00:00,2014-06-07 00:00:00,PRATE,surface,-99.3754,25.0393,2.63e-05
2014-06-07 00:00:00,2014-06-07 00:00:00,PRATE,surface,-98.4379,25.0393,3.19e-05
2014-06-07 00:00:00,2014-06-07 00:00:00,PRATE,surface,-97.5004,25.0393,5.78e-05
2014-06-07 00:00:00,2014-06-07 00:00:00,PRATE,surface,-96.5629,25.0393,7.72e-05
2014-06-07 00:00:00,2014-06-07 00:00:00,PRATE,surface,-95.6254,25.0393,7.44e-05
2014-06-07 00:00:00,2014-06-07 00:00:00,PRATE,surface,-94.6879,25.0393,6.97e-05
2014-06-07 00:00:00,2014-06-07 00:00:00,PRATE,surface,-93.7504,25.0393,7.73e-05
2014-06-07 00:00:00,2014-06-07 00:00:00,PRATE,surface,-92.8129,25.0393,5.74e-05
2014-06-07 00:00:00,2014-06-07 00:00:00,PRATE,surface,-107.813,25.9842,4.61e-05
2014-06-07 00:00:00,2014-06-07 00:00:00,PRATE,surface,-106.875,25.9842,4.43e-05
2014-06-07 00:00:00,2014-06-07 00:00:00,PRATE,surface,-105.938,25.9842,1.48e-05
2014-06-07 00:00:00,2014-06-07 00:00:00,PRATE,surface,-105,25.9842,4e-06
2014-06-07 00:00:00,2014-06-07 00:00:00,PRATE,surface,-104.063,25.9842,3.4e-06
2014-06-07 00:00:00,2014-06-07 00:00:00,PRATE,surface,-103.125,25.9842,2.9e-06
2014-06-07 00:00:00,2014-06-07 00:00:00,PRATE,surface,-102.188,25.9842,7.7e-06
2014-06-07 00:00:00,2014-06-07 00:00:00,PRATE,surface,-101.25,25.9842,1.24e-05
2014-06-07 00:00:00,2014-06-07 00:00:00,PRATE,surface,-100.313,25.9842,2.26e-05
2014-06-07 00:00:00,2014-06-07 00:00:00,PRATE,surface,-99.3754,25.9842,3e-05
2014-06-07 00:00:00,2014-06-07 00:00:00,PRATE,surface,-98.4379,25.9842,4.57e-05
2014-06-07 00:00:00,2014-06-07 00:00:00,PRATE,surface,-97.5004,25.9842,7.69e-05
2014-06-07 00:00:00,2014-06-07 00:00:00,PRATE,surface,-96.5629,25.9842,9e-05
2014-06-07 00:00:00,2014-06-07 00:00:00,PRATE,surface,-95.6254,25.9842,7.44e-05
2014-06-07 00:00:00,2014-06-07 00:00:00,PRATE,surface,-94.6879,25.9842,7.3e-05
2014-06-07 00:00:00,2014-06-07 00:00:00,PRATE,surface,-93.7504,25.9842,8.52e-05
2014-06-07 00:00:00,2014-06-07 00:00:00,PRATE,surface,-92.8129,25.9842,7.6e-05
2014-06-07 00:00:00,2014-06-07 00:00:00,PRATE,surface,-107.813,26.929,6.68e-05
2014-06-07 00:00:00,2014-06-07 00:00:00,PRATE,surface,-106.875,26.929,3.19e-05
2014-06-07 00:00:00,2014-06-07 00:00:00,PRATE,surface,-105.938,26.929,5.8e-06
2014-06-07 00:00:00,2014-06-07 00:00:00,PRATE,surface,-105,26.929,2.5e-06
2014-06-07 00:00:00,2014-06-07 00:00:00,PRATE,surface,-104.063,26.929,4.4e-06
2014-06-07 00:00:00,2014-06-07 00:00:00,PRATE,surface,-103.125,26.929,7.2e-06
2014-06-07 00:00:00,2014-06-07 00:00:00,PRATE,surface,-102.188,26.929,1.42e-05
2014-06-07 00:00:00,2014-06-07 00:00:00,PRATE,surface,-101.25,26.929,2.28e-05
2014-06-07 00:00:00,2014-06-07 00:00:00,PRATE,surface,-100.313,26.929,3e-05
2014-06-07 00:00:00,2014-06-07 00:00:00,PRATE,surface,-99.3754,26.929,4.7e-05
2014-06-07 00:00:00,2014-06-07 00:00:00,PRATE,surface,-98.4379,26.929,8.19e-05
2014-06-07 00:00:00,2014-06-07 00:00:00,PRATE,surface,-97.5004,26.929,0.0001215
2014-06-07 00:00:00,2014-06-07 00:00:00,PRATE,surface,-96.5629,26.929,0.0001154
2014-06-07 00:00:00,2014-06-07 00:00:00,PRATE,surface,-95.6254,26.929,8.85e-05
2014-06-07 00:00:00,2014-06-07 00:00:00,PRATE,surface,-94.6879,26.929,8.19e-05
2014-06-07 00:00:00,2014-06-07 00:00:00,PRATE,surface,-93.7504,26.929,8.6e-05
2014-06-07 00:00:00,2014-06-07 00:00:00,PRATE,surface,-92.8129,26.929,7.66e-05
2014-06-07 00:00:00,2014-06-07 00:00:00,PRATE,surface,-107.813,27.8739,6.53e-05
2014-06-07 00:00:00,2014-06-07 00:00:00,PRATE,surface,-106.875,27.8739,2.07e-05
2014-06-07 00:00:00,2014-06-07 00:00:00,PRATE,surface,-105.938,27.8739,4.8e-06
2014-06-07 00:00:00,2014-06-07 00:00:00,PRATE,surface,-105,27.8739,3.9e-06
2014-06-07 00:00:00,2014-06-07 00:00:00,PRATE,surface,-104.063,27.8739,8.8e-06
2014-06-07 00:00:00,2014-06-07 00:00:00,PRATE,surface,-103.125,27.8739,2.09e-05
2014-06-07 00:00:00,2014-06-07 00:00:00,PRATE,surface,-102.188,27.8739,3.04e-05
2014-06-07 00:00:00,2014-06-07 00:00:00,PRATE,surface,-101.25,27.8739,3.19e-05
2014-06-07 00:00:00,2014-06-07 00:00:00,PRATE,surface,-100.313,27.8739,3.99e-05
2014-06-07 00:00:00,2014-06-07 00:00:00,PRATE,surface,-99.3754,27.8739,6.23e-05
2014-06-07 00:00:00,2014-06-07 00:00:00,PRATE,surface,-98.4379,27.8739,9.61e-05
2014-06-07 00:00:00,2014-06-07 00:00:00,PRATE,surface,-97.5004,27.8739,0.00012
2014-06-07 00:00:00,2014-06-07 00:00:00,PRATE,surface,-96.5629,27.8739,0.000118
2014-06-07 00:00:00,2014-06-07 00:00:00,PRATE,surface,-95.6254,27.8739,9.95e-05
2014-06-07 00:00:00,2014-06-07 00:00:00,PRATE,surface,-94.6879,27.8739,8.61e-05
2014-06-07 00:00:00,2014-06-07 00:00:00,PRATE,surface,-93.7504,27.8739,8.61e-05
2014-06-07 00:00:00,2014-06-07 00:00:00,PRATE,surface,-92.8129,27.8739,8.66e-05
2014-06-07 00:00:00,2014-06-07 00:00:00,PRATE,surface,-107.813,28.8188,5.64e-05
2014-06-07 00:00:00,2014-06-07 00:00:00,PRATE,surface,-106.875,28.8188,1.8e-05
2014-06-07 00:00:00,2014-06-07 00:00:00,PRATE,surface,-105.938,28.8188,7.9e-06
2014-06-07 00:00:00,2014-06-07 00:00:00,PRATE,surface,-105,28.8188,7.2e-06
2014-06-07 00:00:00,2014-06-07 00:00:00,PRATE,surface,-104.063,28.8188,1.54e-05
2014-06-07 00:00:00,2014-06-07 00:00:00,PRATE,surface,-103.125,28.8188,2.99e-05
2014-06-07 00:00:00,2014-06-07 00:00:00,PRATE,surface,-102.188,28.8188,4.09e-05
2014-06-07 00:00:00,2014-06-07 00:00:00,PRATE,surface,-101.25,28.8188,4.15e-05
2014-06-07 00:00:00,2014-06-07 00:00:00,PRATE,surface,-100.313,28.8188,5.65e-05
2014-06-07 00:00:00,2014-06-07 00:00:00,PRATE,surface,-99.3754,28.8188,8.17e-05
2014-06-07 00:00:00,2014-06-07 00:00:00,PRATE,surface,-98.4379,28.8188,0.0001043
2014-06-07 00:00:00,2014-06-07 00:00:00,PRATE,surface,-97.5004,28.8188,0.0001094
2014-06-07 00:00:00,2014-06-07 00:00:00,PRATE,surface,-96.5629,28.8188,9.92e-05
2014-06-07 00:00:00,2014-06-07 00:00:00,PRATE,surface,-95.6254,28.8188,8.16e-05
2014-06-07 00:00:00,2014-06-07 00:00:00,PRATE,surface,-94.6879,28.8188,6.59e-05
2014-06-07 00:00:00,2014-06-07 00:00:00,PRATE,surface,-93.7504,28.8188,6.8e-05
2014-06-07 00:00:00,2014-06-07 00:00:00,PRATE,surface,-92.8129,28.8188,7.11e-05
2014-06-07 00:00:00,2014-06-07 00:00:00,PRATE,surface,-107.813,29.7637,3.2e-05
2014-06-07 00:00:00,2014-06-07 00:00:00,PRATE,surface,-106.875,29.7637,2.11e-05
2014-06-07 00:00:00,2014-06-07 00:00:00,PRATE,surface,-105.938,29.7637,1.86e-05
2014-06-07 00:00:00,2014-06-07 00:00:00,PRATE,surface,-105,29.7637,2.07e-05
2014-06-07 00:00:00,2014-06-07 00:00:00,PRATE,surface,-104.063,29.7637,2.86e-05
2014-06-07 00:00:00,2014-06-07 00:00:00,PRATE,surface,-103.125,29.7637,3.91e-05
2014-06-07 00:00:00,2014-06-07 00:00:00,PRATE,surface,-102.188,29.7637,5.04e-05
2014-06-07 00:00:00,2014-06-07 00:00:00,PRATE,surface,-101.25,29.7637,6.31e-05
2014-06-07 00:00:00,2014-06-07 00:00:00,PRATE,surface,-100.313,29.7637,8.87e-05
2014-06-07 00:00:00,2014-06-07 00:00:00,PRATE,surface,-99.3754,29.7637,0.000109
2014-06-07 00:00:00,2014-06-07 00:00:00,PRATE,surface,-98.4379,29.7637,0.0001132
2014-06-07 00:00:00,2014-06-07 00:00:00,PRATE,surface,-97.5004,29.7637,0.000104
2014-06-07 00:00:00,2014-06-07 00:00:00,PRATE,surface,-96.5629,29.7637,8.86e-05
2014-06-07 00:00:00,2014-06-07 00:00:00,PRATE,surface,-95.6254,29.7637,6.93e-05
2014-06-07 00:00:00,2014-06-07 00:00:00,PRATE,surface,-94.6879,29.7637,5.29e-05
2014-06-07 00:00:00,2014-06-07 00:00:00,PRATE,surface,-93.7504,29.7637,5.12e-05
2014-06-07 00:00:00,2014-06-07 00:00:00,PRATE,surface,-92.8129,29.7637,5.21e-05
2014-06-07 00:00:00,2014-06-07 00:00:00,PRATE,surface,-107.813,30.7085,1.98e-05
2014-06-07 00:00:00,2014-06-07 00:00:00,PRATE,surface,-106.875,30.7085,2.08e-05
2014-06-07 00:00:00,2014-06-07 00:00:00,PRATE,surface,-105.938,30.7085,2.99e-05
2014-06-07 00:00:00,2014-06-07 00:00:00,PRATE,surface,-105,30.7085,3.51e-05
2014-06-07 00:00:00,2014-06-07 00:00:00,PRATE,surface,-104.063,30.7085,4.06e-05
2014-06-07 00:00:00,2014-06-07 00:00:00,PRATE,surface,-103.125,30.7085,4.65e-05
2014-06-07 00:00:00,2014-06-07 00:00:00,PRATE,surface,-102.188,30.7085,5.87e-05
2014-06-07 00:00:00,2014-06-07 00:00:00,PRATE,surface,-101.25,30.7085,8.42e-05
2014-06-07 00:00:00,2014-06-07 00:00:00,PRATE,surface,-100.313,30.7085,0.0001113
2014-06-07 00:00:00,2014-06-07 00:00:00,PRATE,surface,-99.3754,30.7085,0.0001235
2014-06-07 00:00:00,2014-06-07 00:00:00,PRATE,surface,-98.4379,30.7085,0.0001168
2014-06-07 00:00:00,2014-06-07 00:00:00,PRATE,surface,-97.5004,30.7085,0.0001026
2014-06-07 00:00:00,2014-06-07 00:00:00,PRATE,surface,-96.5629,30.7085,8.8e-05
2014-06-07 00:00:00,2014-06-07 00:00:00,PRATE,surface,-95.6254,30.7085,7.11e-05
2014-06-07 00:00:00,2014-06-07 00:00:00,PRATE,surface,-94.6879,30.7085,5.66e-05
2014-06-07 00:00:00,2014-06-07 00:00:00,PRATE,surface,-93.7504,30.7085,5.14e-05
2014-06-07 00:00:00,2014-06-07 00:00:00,PRATE,surface,-92.8129,30.7085,4.79e-05
2014-06-07 00:00:00,2014-06-07 00:00:00,PRATE,surface,-107.813,31.6534,1.79e-05
2014-06-07 00:00:00,2014-06-07 00:00:00,PRATE,surface,-106.875,31.6534,2.03e-05
2014-06-07 00:00:00,2014-06-07 00:00:00,PRATE,surface,-105.938,31.6534,2.69e-05
2014-06-07 00:00:00,2014-06-07 00:00:00,PRATE,surface,-105,31.6534,3.13e-05
2014-06-07 00:00:00,2014-06-07 00:00:00,PRATE,surface,-104.063,31.6534,3.64e-05
2014-06-07 00:00:00,2014-06-07 00:00:00,PRATE,surface,-103.125,31.6534,4.31e-05
2014-06-07 00:00:00,2014-06-07 00:00:00,PRATE,surface,-102.188,31.6534,5.84e-05
2014-06-07 00:00:00,2014-06-07 00:00:00,PRATE,surface,-101.25,31.6534,9.17e-05
2014-06-07 00:00:00,2014-06-07 00:00:00,PRATE,surface,-100.313,31.6534,0.0001151
2014-06-07 00:00:00,2014-06-07 00:00:00,PRATE,surface,-99.3754,31.6534,0.0001142
2014-06-07 00:00:00,2014-06-07 00:00:00,PRATE,surface,-98.4379,31.6534,9.89e-05
2014-06-07 00:00:00,2014-06-07 00:00:00,PRATE,surface,-97.5004,31.6534,8.94e-05
2014-06-07 00:00:00,2014-06-07 00:00:00,PRATE,surface,-96.5629,31.6534,8.27e-05
2014-06-07 00:00:00,2014-06-07 00:00:00,PRATE,surface,-95.6254,31.6534,6.83e-05
2014-06-07 00:00:00,2014-06-07 00:00:00,PRATE,surface,-94.6879,31.6534,5.52e-05
2014-06-07 00:00:00,2014-06-07 00:00:00,PRATE,surface,-93.7504,31.6534,4.99e-05
2014-06-07 00:00:00,2014-06-07 00:00:00,PRATE,surface,-92.8129,31.6534,4.49e-05
2014-06-07 00:00:00,2014-06-07 00:00:00,PRATE,surface,-107.813,32.5983,3.3e-05
2014-06-07 00:00:00,2014-06-07 00:00:00,PRATE,surface,-106.875,32.5983,2.77e-05
2014-06-07 00:00:00,2014-06-07 00:00:00,PRATE,surface,-105.938,32.5983,2.87e-05
2014-06-07 00:00:00,2014-06-07 00:00:00,PRATE,surface,-105,32.5983,3.71e-05
2014-06-07 00:00:00,2014-06-07 00:00:00,PRATE,surface,-104.063,32.5983,4.08e-05
2014-06-07 00:00:00,2014-06-07 00:00:00,PRATE,surface,-103.125,32.5983,4.38e-05
2014-06-07 00:00:00,2014-06-07 00:00:00,PRATE,surface,-102.188,32.5983,6.52e-05
2014-06-07 00:00:00,2014-06-07 00:00:00,PRATE,surface,-101.25,32.5983,9.32e-05
2014-06-07 00:00:00,2014-06-07 00:00:00,PRATE,surface,-100.313,32.5983,9.49e-05
2014-06-07 00:00:00,2014-06-07 00:00:00,PRATE,surface,-99.3754,32.5983,8.68e-05
2014-06-07 00:00:00,2014-06-07 00:00:00,PRATE,surface,-98.4379,32.5983,8.54e-05
2014-06-07 00:00:00,2014-06-07 00:00:00,PRATE,surface,-97.5004,32.5983,7.98e-05
2014-06-07 00:00:00,2014-06-07 00:00:00,PRATE,surface,-96.5629,32.5983,6.64e-05
2014-06-07 00:00:00,2014-06-07 00:00:00,PRATE,surface,-95.6254,32.5983,5.34e-05
2014-06-07 00:00:00,2014-06-07 00:00:00,PRATE,surface,-94.6879,32.5983,4.28e-05
2014-06-07 00:00:00,2014-06-07 00:00:00,PRATE,surface,-93.7504,32.5983,3.54e-05
2014-06-07 00:00:00,2014-06-07 00:00:00,PRATE,surface,-92.8129,32.5983,2.98e-05
2014-06-07 00:00:00,2014-06-07 00:00:00,PRATE,surface,-107.813,33.5432,4.82e-05
2014-06-07 00:00:00,2014-06-07 00:00:00,PRATE,surface,-106.875,33.5432,4.44e-05
2014-06-07 00:00:00,2014-06-07 00:00:00,PRATE,surface,-105.938,33.5432,4.3e-05
2014-06-07 00:00:00,2014-06-07 00:00:00,PRATE,surface,-105,33.5432,4.46e-05
2014-06-07 00:00:00,2014-06-07 00:00:00,PRATE,surface,-104.063,33.5432,4.84e-05
2014-06-07 00:00:00,2014-06-07 00:00:00,PRATE,surface,-103.125,33.5432,5.3e-05
2014-06-07 00:00:00,2014-06-07 00:00:00,PRATE,surface,-102.188,33.5432,7.66e-05
2014-06-07 00:00:00,2014-06-07 00:00:00,PRATE,surface,-101.25,33.5432,9.01e-05
2014-06-07 00:00:00,2014-06-07 00:00:00,PRATE,surface,-100.313,33.5432,8.03e-05
2014-06-07 00:00:00,2014-06-07 00:00:00,PRATE,surface,-99.3754,33.5432,6.87e-05
2014-06-07 00:00:00,2014-06-07 00:00:00,PRATE,surface,-98.4379,33.5432,6.9e-05
2014-06-07 00:00:00,2014-06-07 00:00:00,PRATE,surface,-97.5004,33.5432,6.68e-05
2014-06-07 00:00:00,2014-06-07 00:00:00,PRATE,surface,-96.5629,33.5432,5.56e-05
2014-06-07 00:00:00,2014-06-07 00:00:00,PRATE,surface,-95.6254,33.5432,4.35e-05
2014-06-07 00:00:00,2014-06-07 00:00:00,PRATE,surface,-94.6879,33.5432,3.44e-05
2014-06-07 00:00:00,2014-06-07 00:00:00,PRATE,surface,-93.7504,33.5432,3e-05
2014-06-07 00:00:00,2014-06-07 00:00:00,PRATE,surface,-92.8129,33.5432,2.62e-05
2014-06-07 00:00:00,2014-06-07 00:00:00,PRATE,surface,-107.813,34.4881,5.26e-05
2014-06-07 00:00:00,2014-06-07 00:00:00,PRATE,surface,-106.875,34.4881,4.67e-05
2014-06-07 00:00:00,2014-06-07 00:00:00,PRATE,surface,-105.938,34.4881,3.94e-05
2014-06-07 00:00:00,2014-06-07 00:00:00,PRATE,surface,-105,34.4881,4.19e-05
2014-06-07 00:00:00,2014-06-07 00:00:00,PRATE,surface,-104.063,34.4881,4.78e-05
2014-06-07 00:00:00,2014-06-07 00:00:00,PRATE,surface,-103.125,34.4881,5.11e-05
2014-06-07 00:00:00,2014-06-07 00:00:00,PRATE,surface,-102.188,34.4881,6.56e-05
2014-06-07 00:00:00,2014-06-07 00:00:00,PRATE,surface,-101.25,34.4881,7.02e-05
2014-06-07 00:00:00,2014-06-07 00:00:00,PRATE,surface,-100.313,34.4881,6.3e-05
2014-06-07 00:00:00,2014-06-07 00:00:00,PRATE,surface,-99.3754,34.4881,5.74e-05
2014-06-07 00:00:00,2014-06-07 00:00:00,PRATE,surface,-98.4379,34.4881,5.68e-05
2014-06-07 00:00:00,2014-06-07 00:00:00,PRATE,surface,-97.5004,34.4881,5.43e-05
2014-06-07 00:00:00,2014-06-07 00:00:00,PRATE,surface,-96.5629,34.4881,4.83e-05
2014-06-07 00:00:00,2014-06-07 00:00:00,PRATE,surface,-95.6254,34.4881,4.07e-05
2014-06-07 00:00:00,2014-06-07 00:00:00,PRATE,surface,-94.6879,34.4881,3.25e-05
2014-06-07 00:00:00,2014-06-07 00:00:00,PRATE,surface,-93.7504,34.4881,2.82e-05
2014-06-07 00:00:00,2014-06-07 00:00:00,PRATE,surface,-92.8129,34.4881,2.47e-05
2014-06-07 00:00:00,2014-06-07 00:00:00,PRATE,surface,-107.813,35.4329,3.85e-05
2014-06-07 00:00:00,2014-06-07 00:00:00,PRATE,surface,-106.875,35.4329,3.35e-05
2014-06-07 00:00:00,2014-06-07 00:00:00,PRATE,surface,-105.938,35.4329,3.03e-05
2014-06-07 00:00:00,2014-06-07 00:00:00,PRATE,surface,-105,35.4329,3.69e-05
2014-06-07 00:00:00,2014-06-07 00:00:00,PRATE,surface,-104.063,35.4329,4.56e-05
2014-06-07 00:00:00,2014-06-07 00:00:00,PRATE,surface,-103.125,35.4329,4.42e-05
2014-06-07 00:00:00,2014-06-07 00:00:00,PRATE,surface,-102.188,35.4329,4.75e-05
2014-06-07 00:00:00,2014-06-07 00:00:00,PRATE,surface,-101.25,35.4329,5.23e-05
2014-06-07 00:00:00,2014-06-07 00:00:00,PRATE,surface,-100.313,35.4329,5.73e-05
2014-06-07 00:00:00,2014-06-07 00:00:00,PRATE,surface,-99.3754,35.4329,5.87e-05
2014-06-07 00:00:00,2014-06-07 00:00:00,PRATE,surface,-98.4379,35.4329,5.29e-05
2014-06-07 00:00:00,2014-06-07 00:00:00,PRATE,surface,-97.5004,35.4329,4.8e-05
2014-06-07 00:00:00,2014-06-07 00:00:00,PRATE,surface,-96.5629,35.4329,4.42e-05
2014-06-07 00:00:00,2014-06-07 00:00:00,PRATE,surface,-95.6254,35.4329,3.9e-05
2014-06-07 00:00:00,2014-06-07 00:00:00,PRATE,surface,-94.6879,35.4329,3.56e-05
2014-06-07 00:00:00,2014-06-07 00:00:00,PRATE,surface,-93.7504,35.4329,3.23e-05
2014-06-07 00:00:00,2014-06-07 00:00:00,PRATE,surface,-92.8129,35.4329,2.9e-05
2014-06-07 00:00:00,2014-06-07 00:00:00,PRATE,surface,-107.813,36.3778,4.27e-05
2014-06-07 00:00:00,2014-06-07 00:00:00,PRATE,surface,-106.875,36.3778,4.61e-05
2014-06-07 00:00:00,2014-06-07 00:00:00,PRATE,surface,-105.938,36.3778,3.9e-05
2014-06-07 00:00:00,2014-06-07 00:00:00,PRATE,surface,-105,36.3778,4.06e-05
2014-06-07 00:00:00,2014-06-07 00:00:00,PRATE,surface,-104.063,36.3778,4.17e-05
2014-06-07 00:00:00,2014-06-07 00:00:00,PRATE,surface,-103.125,36.3778,4.1e-05
2014-06-07 00:00:00,2014-06-07 00:00:00,PRATE,surface,-102.188,36.3778,4.07e-05
2014-06-07 00:00:00,2014-06-07 00:00:00,PRATE,surface,-101.25,36.3778,4.32e-05
2014-06-07 00:00:00,2014-06-07 00:00:00,PRATE,surface,-100.313,36.3778,5.22e-05
2014-06-07 00:00:00,2014-06-07 00:00:00,PRATE,surface,-99.3754,36.3778,5.25e-05
2014-06-07 00:00:00,2014-06-07 00:00:00,PRATE,surface,-98.4379,36.3778,4.57e-05
2014-06-07 00:00:00,2014-06-07 00:00:00,PRATE,surface,-97.5004,36.3778,4e-05
2014-06-07 00:00:00,2014-06-07 00:00:00,PRATE,surface,-96.5629,36.3778,3.79e-05
2014-06-07 00:00:00,2014-06-07 00:00:00,PRATE,surface,-95.6254,36.3778,3.84e-05
2014-06-07 00:00:00,2014-06-07 00:00:00,PRATE,surface,-94.6879,36.3778,3.89e-05
2014-06-07 00:00:00,2014-06-07 00:00:00,PRATE,surface,-93.7504,36.3778,3.82e-05
2014-06-07 00:00:00,2014-06-07 00:00:00,PRATE,surface,-92.8129,36.3778,3.7e-05
