2014-11-03 00:00:00,2014-11-03 00:00:00,TMP,surface,-107.813,25.0393,290.753
2014-11-03 00:00:00,2014-11-03 00:00:00,TMP,surface,-106.875,25.0393,285.073
2014-11-03 00:00:00,2014-11-03 00:00:00,TMP,surface,-105.938,25.0393,279.982
2014-11-03 00:00:00,2014-11-03 00:00:00,TMP,surface,-105,25.0393,279.111
2014-11-03 00:00:00,2014-11-03 00:00:00,TMP,surface,-104.063,25.0393,282.636
2014-11-03 00:00:00,2014-11-03 00:00:00,TMP,surface,-103.125,25.0393,284.42
2014-11-03 00:00:00,2014-11-03 00:00:00,TMP,surface,-102.188,25.0393,284.487
2014-11-03 00:00:00,2014-11-03 00:00:00,TMP,surface,-101.25,25.0393,283.246
2014-11-03 00:00:00,2014-11-03 00:00:00,TMP,surface,-100.313,25.0393,283.74
2014-11-03 00:00:00,2014-11-03 00:00:00,TMP,surface,-99.3754,25.0393,286.519
2014-11-03 00:00:00,2014-11-03 00:00:00,TMP,surface,-98.4379,25.0393,289.412
2014-11-03 00:00:00,2014-11-03 00:00:00,TMP,surface,-97.5004,25.0393,293.748
2014-11-03 00:00:00,2014-11-03 00:00:00,TMP,surface,-96.5629,25.0393,293.451
2014-11-03 00:00:00,2014-11-03 00:00:00,TMP,surface,-95.6254,25.0393,293.223
2014-11-03 00:00:00,2014-11-03 00:00:00,TMP,surface,-94.6879,25.0393,293.402
2014-11-03 00:00:00,2014-11-03 00:00:00,TMP,surface,-93.7504,25.0393,293.55
2014-11-03 00:00:00,2014-11-03 00:00:00,TMP,surface,-92.8129,25.0393,293.875
2014-11-03 00:00:00,2014-11-03 00:00:00,TMP,surface,-107.813,25.9842,285.954
2014-11-03 00:00:00,2014-11-03 00:00:00,TMP,surface,-106.875,25.9842,280.566
2014-11-03 00:00:00,2014-11-03 00:00:00,TMP,surface,-105.938,25.9842,278.707
2014-11-03 00:00:00,2014-11-03 00:00:00,TMP,surface,-105,25.9842,280.724
2014-11-03 00:00:00,2014-11-03 00:00:00,TMP,surface,-104.063,25.9842,283.748
2014-11-03 00:00:00,2014-11-03 00:00:00,TMP,surface,-103.125,25.9842,284.996
2014-11-03 00:00:00,2014-11-03 00:00:00,TMP,surface,-102.188,25.9842,284.716
2014-11-03 00:00:00,2014-11-03 00:00:00,TMP,surface,-101.25,25.9842,284.111
2014-11-03 00:00:00,2014-11-03 00:00:00,TMP,surface,-100.313,25.9842,284.67
2014-11-03 00:00:00,2014-11-03 00:00:00,TMP,surface,-99.3754,25.9842,287.249
2014-11-03 00:00:00,2014-11-03 00:00:00,TMP,surface,-98.4379,25.9842,289.203
2014-11-03 00:00:00,2014-11-03 00:00:00,TMP,surface,-97.5004,25.9842,290.425
2014-11-03 00:00:00,2014-11-03 00:00:00,TMP,surface,-96.5629,25.9842,292.996
2014-11-03 00:00:00,2014-11-03 00:00:00,TMP,surface,-95.6254,25.9842,292.782
2014-11-03 00:00:00,2014-11-03 00:00:00,TMP,surface,-94.6879,25.9842,293.006
2014-11-03 00:00:00,2014-11-03 00:00:00,TMP,surface,-93.7504,25.9842,293.044
2014-11-03 00:00:00,2014-11-03 00:00:00,TMP,surface,-92.8129,25.9842,293.121
2014-11-03 00:00:00,2014-11-03 00:00:00,TMP,surface,-107.813,26.929,280.908
2014-11-03 00:00:00,2014-11-03 00:00:00,TMP,surface,-106.875,26.929,277.83
2014-11-03 00:00:00,2014-11-03 00:00:00,TMP,surface,-105.938,26.929,279.687
2014-11-03 00:00:00,2014-11-03 00:00:00,TMP,surface,-105,26.929,282.3
2014-11-03 00:00:00,2014-11-03 00:00:00,TMP,surface,-104.063,26.929,283.29
2014-11-03 00:00:00,2014-11-03 00:00:00,TMP,surface,-103.125,26.929,282.734
2014-11-03 00:00:00,2014-11-03 00:00:00,TMP,surface,-102.188,26.929,282.828
2014-11-03 00:00:00,2014-11-03 00:00:00,TMP,surface,-101.25,26.929,283.828
2014-11-03 00:00:00,2014-11-03 00:00:00,TMP,surface,-100.313,26.929,285.183
2014-11-03 00:00:00,2014-11-03 00:00:00,TMP,surface,-99.3754,26.929,286.783
2014-11-03 00:00:00,2014-11-03 00:00:00,TMP,surface,-98.4379,26.929,287.719
2014-11-03 00:00:00,2014-11-03 00:00:00,TMP,surface,-97.5004,26.929,292.337
2014-11-03 00:00:00,2014-11-03 00:00:00,TMP,surface,-96.5629,26.929,292.729
2014-11-03 00:00:00,2014-11-03 00:00:00,TMP,surface,-95.6254,26.929,292.694
2014-11-03 00:00:00,2014-11-03 00:00:00,TMP,surface,-94.6879,26.929,292.943
2014-11-03 00:00:00,2014-11-03 00:00:00,TMP,surface,-93.7504,26.929,292.895
2014-11-03 00:00:00,2014-11-03 00:00:00,TMP,surface,-92.8129,26.929,292.802
2014-11-03 00:00:00,2014-11-03 00:00:00,TMP,surface,-107.813,27.8739,278.068
2014-11-03 00:00:00,2014-11-03 00:00:00,TMP,surface,-106.875,27.8739,277.393
2014-11-03 00:00:00,2014-11-03 00:00:00,TMP,surface,-105.938,27.8739,280.346
2014-11-03 00:00:00,2014-11-03 00:00:00,TMP,surface,-105,27.8739,282.407
2014-11-03 00:00:00,2014-11-03 00:00:00,TMP,surface,-104.063,27.8739,282.391
2014-11-03 00:00:00,2014-11-03 00:00:00,TMP,surface,-103.125,27.8739,281.111
2014-11-03 00:00:00,2014-11-03 00:00:00,TMP,surface,-102.188,27.8739,281.25
2014-11-03 00:00:00,2014-11-03 00:00:00,TMP,surface,-101.25,27.8739,282.846
2014-11-03 00:00:00,2014-11-03 00:00:00,TMP,surface,-100.313,27.8739,284.433
2014-11-03 00:00:00,2014-11-03 00:00:00,TMP,surface,-99.3754,27.8739,285.318
2014-11-03 00:00:00,2014-11-03 00:00:00,TMP,surface,-98.4379,27.8739,286.071
2014-11-03 00:00:00,2014-11-03 00:00:00,TMP,surface,-97.5004,27.8739,289.804
2014-11-03 00:00:00,2014-11-03 00:00:00,TMP,surface,-96.5629,27.8739,293.265
2014-11-03 00:00:00,2014-11-03 00:00:00,TMP,surface,-95.6254,27.8739,293.279
2014-11-03 00:00:00,2014-11-03 00:00:00,TMP,surface,-94.6879,27.8739,292.956
2014-11-03 00:00:00,2014-11-03 00:00:00,TMP,surface,-93.7504,27.8739,292.814
2014-11-03 00:00:00,2014-11-03 00:00:00,TMP,surface,-92.8129,27.8739,292.887
2014-11-03 00:00:00,2014-11-03 00:00:00,TMP,surface,-107.813,28.8188,277.055
2014-11-03 00:00:00,2014-11-03 00:00:00,TMP,surface,-106.875,28.8188,277.81
2014-11-03 00:00:00,2014-11-03 00:00:00,TMP,surface,-105.938,28.8188,280.353
2014-11-03 00:00:00,2014-11-03 00:00:00,TMP,surface,-105,28.8188,281.674
2014-11-03 00:00:00,2014-11-03 00:00:00,TMP,surface,-104.063,28.8188,280.796
2014-11-03 00:00:00,2014-11-03 00:00:00,TMP,surface,-103.125,28.8188,279.962
2014-11-03 00:00:00,2014-11-03 00:00:00,TMP,surface,-102.188,28.8188,280.5
2014-11-03 00:00:00,2014-11-03 00:00:00,TMP,surface,-101.25,28.8188,282.076
2014-11-03 00:00:00,2014-11-03 00:00:00,TMP,surface,-100.313,28.8188,283.034
2014-11-03 00:00:00,2014-11-03 00:00:00,TMP,surface,-99.3754,28.8188,283.364
2014-11-03 00:00:00,2014-11-03 00:00:00,TMP,surface,-98.4379,28.8188,283.807
2014-11-03 00:00:00,2014-11-03 00:00:00,TMP,surface,-97.5004,28.8188,284.657
2014-11-03 00:00:00,2014-11-03 00:00:00,TMP,surface,-96.5629,28.8188,285.618
2014-11-03 00:00:00,2014-11-03 00:00:00,TMP,surface,-95.6254,28.8188,288.809
2014-11-03 00:00:00,2014-11-03 00:00:00,TMP,surface,-94.6879,28.8188,293.207
2014-11-03 00:00:00,2014-11-03 00:00:00,TMP,surface,-93.7504,28.8188,293.156
2014-11-03 00:00:00,2014-11-03 00:00:00,TMP,surface,-92.8129,28.8188,293.302
2014-11-03 00:00:00,2014-11-03 00:00:00,TMP,surface,-107.813,29.7637,277.863
2014-11-03 00:00:00,2014-11-03 00:00:00,TMP,surface,-106.875,29.7637,278.59
2014-11-03 00:00:00,2014-11-03 00:00:00,TMP,surface,-105.938,29.7637,280.169
2014-11-03 00:00:00,2014-11-03 00:00:00,TMP,surface,-105,29.7637,280.02
2014-11-03 00:00:00,2014-11-03 00:00:00,TMP,surface,-104.063,29.7637,279.522
2014-11-03 00:00:00,2014-11-03 00:00:00,TMP,surface,-103.125,29.7637,279.799
2014-11-03 00:00:00,2014-11-03 00:00:00,TMP,surface,-102.188,29.7637,280.788
2014-11-03 00:00:00,2014-11-03 00:00:00,TMP,surface,-101.25,29.7637,281.466
2014-11-03 00:00:00,2014-11-03 00:00:00,TMP,surface,-100.313,29.7637,281.527
2014-11-03 00:00:00,2014-11-03 00:00:00,TMP,surface,-99.3754,29.7637,281.513
2014-11-03 00:00:00,2014-11-03 00:00:00,TMP,surface,-98.4379,29.7637,281.823
2014-11-03 00:00:00,2014-11-03 00:00:00,TMP,surface,-97.5004,29.7637,282.335
2014-11-03 00:00:00,2014-11-03 00:00:00,TMP,surface,-96.5629,29.7637,282.945
2014-11-03 00:00:00,2014-11-03 00:00:00,TMP,surface,-95.6254,29.7637,283.727
2014-11-03 00:00:00,2014-11-03 00:00:00,TMP,surface,-94.6879,29.7637,287.054
2014-11-03 00:00:00,2014-11-03 00:00:00,TMP,surface,-93.7504,29.7637,290.978
2014-11-03 00:00:00,2014-11-03 00:00:00,TMP,surface,-92.8129,29.7637,284.681
2014-11-03 00:00:00,2014-11-03 00:00:00,TMP,surface,-107.813,30.7085,279.194
2014-11-03 00:00:00,2014-11-03 00:00:00,TMP,surface,-106.875,30.7085,279.777
2014-11-03 00:00:00,2014-11-03 00:00:00,TMP,surface,-105.938,30.7085,279.479
2014-11-03 00:00:00,2014-11-03 00:00:00,TMP,surface,-105,30.7085,278.446
2014-11-03 00:00:00,2014-11-03 00:00:00,TMP,surface,-104.063,30.7085,278.29
2014-11-03 00:00:00,2014-11-03 00:00:00,TMP,surface,-103.125,30.7085,279.382
2014-11-03 00:00:00,2014-11-03 00:00:00,TMP,surface,-102.188,30.7085,280.287
2014-11-03 00:00:00,2014-11-03 00:00:00,TMP,surface,-101.25,30.7085,280.526
2014-11-03 00:00:00,2014-11-03 00:00:00,TMP,surface,-100.313,30.7085,280.334
2014-11-03 00:00:00,2014-11-03 00:00:00,TMP,surface,-99.3754,30.7085,280.367
2014-11-03 00:00:00,2014-11-03 00:00:00,TMP,surface,-98.4379,30.7085,280.692
2014-11-03 00:00:00,2014-11-03 00:00:00,TMP,surface,-97.5004,30.7085,281.052
2014-11-03 00:00:00,2014-11-03 00:00:00,TMP,surface,-96.5629,30.7085,281.348
2014-11-03 00:00:00,2014-11-03 00:00:00,TMP,surface,-95.6254,30.7085,281.644
2014-11-03 00:00:00,2014-11-03 00:00:00,TMP,surface,-94.6879,30.7085,281.916
2014-11-03 00:00:00,2014-11-03 00:00:00,TMP,surface,-93.7504,30.7085,281.916
2014-11-03 00:00:00,2014-11-03 00:00:00,TMP,surface,-92.8129,30.7085,281.524
2014-11-03 00:00:00,2014-11-03 00:00:00,TMP,surface,-107.813,31.6534,278.663
2014-11-03 00:00:00,2014-11-03 00:00:00,TMP,surface,-106.875,31.6534,279.082
2014-11-03 00:00:00,2014-11-03 00:00:00,TMP,surface,-105.938,31.6534,278.057
2014-11-03 00:00:00,2014-11-03 00:00:00,TMP,surface,-105,31.6534,277.484
2014-11-03 00:00:00,2014-11-03 00:00:00,TMP,surface,-104.063,31.6534,277.753
2014-11-03 00:00:00,2014-11-03 00:00:00,TMP,surface,-103.125,31.6534,278.674
2014-11-03 00:00:00,2014-11-03 00:00:00,TMP,surface,-102.188,31.6534,279.455
2014-11-03 00:00:00,2014-11-03 00:00:00,TMP,surface,-101.25,31.6534,279.545
2014-11-03 00:00:00,2014-11-03 00:00:00,TMP,surface,-100.313,31.6534,279.499
2014-11-03 00:00:00,2014-11-03 00:00:00,TMP,surface,-99.3754,31.6534,279.577
2014-11-03 00:00:00,2014-11-03 00:00:00,TMP,surface,-98.4379,31.6534,279.996
2014-11-03 00:00:00,2014-11-03 00:00:00,TMP,surface,-97.5004,31.6534,280.395
2014-11-03 00:00:00,2014-11-03 00:00:00,TMP,surface,-96.5629,31.6534,280.58
2014-11-03 00:00:00,2014-11-03 00:00:00,TMP,surface,-95.6254,31.6534,280.634
2014-11-03 00:00:00,2014-11-03 00:00:00,TMP,surface,-94.6879,31.6534,280.518
2014-11-03 00:00:00,2014-11-03 00:00:00,TMP,surface,-93.7504,31.6534,280.38
2014-11-03 00:00:00,2014-11-03 00:00:00,TMP,surface,-92.8129,31.6534,280.361
2014-11-03 00:00:00,2014-11-03 00:00:00,TMP,surface,-107.813,32.5983,276.089
2014-11-03 00:00:00,2014-11-03 00:00:00,TMP,surface,-106.875,32.5983,276.319
2014-11-03 00:00:00,2014-11-03 00:00:00,TMP,surface,-105.938,32.5983,276.387
2014-11-03 00:00:00,2014-11-03 00:00:00,TMP,surface,-105,32.5983,276.362
2014-11-03 00:00:00,2014-11-03 00:00:00,TMP,surface,-104.063,32.5983,277.1
2014-11-03 00:00:00,2014-11-03 00:00:00,TMP,surface,-103.125,32.5983,277.835
2014-11-03 00:00:00,2014-11-03 00:00:00,TMP,surface,-102.188,32.5983,278.132
2014-11-03 00:00:00,2014-11-03 00:00:00,TMP,surface,-101.25,32.5983,278.454
2014-11-03 00:00:00,2014-11-03 00:00:00,TMP,surface,-100.313,32.5983,278.954
2014-11-03 00:00:00,2014-11-03 00:00:00,TMP,surface,-99.3754,32.5983,279.331
2014-11-03 00:00:00,2014-11-03 00:00:00,TMP,surface,-98.4379,32.5983,279.639
2014-11-03 00:00:00,2014-11-03 00:00:00,TMP,surface,-97.5004,32.5983,279.866
2014-11-03 00:00:00,2014-11-03 00:00:00,TMP,surface,-96.5629,32.5983,279.959
2014-11-03 00:00:00,2014-11-03 00:00:00,TMP,surface,-95.6254,32.5983,279.9
2014-11-03 00:00:00,2014-11-03 00:00:00,TMP,surface,-94.6879,32.5983,279.707
2014-11-03 00:00:00,2014-11-03 00:00:00,TMP,surface,-93.7504,32.5983,279.679
2014-11-03 00:00:00,2014-11-03 00:00:00,TMP,surface,-92.8129,32.5983,280.039
2014-11-03 00:00:00,2014-11-03 00:00:00,TMP,surface,-107.813,33.5432,273.041
2014-11-03 00:00:00,2014-11-03 00:00:00,TMP,surface,-106.875,33.5432,273.836
2014-11-03 00:00:00,2014-11-03 00:00:00,TMP,surface,-105.938,33.5432,274.729
2014-11-03 00:00:00,2014-11-03 00:00:00,TMP,surface,-105,33.5432,275.495
2014-11-03 00:00:00,2014-11-03 00:00:00,TMP,surface,-104.063,33.5432,276.335
2014-11-03 00:00:00,2014-11-03 00:00:00,TMP,surface,-103.125,33.5432,276.95
2014-11-03 00:00:00,2014-11-03 00:00:00,TMP,surface,-102.188,33.5432,277.129
2014-11-03 00:00:00,2014-11-03 00:00:00,TMP,surface,-101.25,33.5432,277.399
2014-11-03 00:00:00,2014-11-03 00:00:00,TMP,surface,-100.313,33.5432,278.025
2014-11-03 00:00:00,2014-11-03 00:00:00,TMP,surface,-99.3754,33.5432,278.756
2014-11-03 00:00:00,2014-11-03 00:00:00,TMP,surface,-98.4379,33.5432,278.996
2014-11-03 00:00:00,2014-11-03 00:00:00,TMP,surface,-97.5004,33.5432,278.841
2014-11-03 00:00:00,2014-11-03 00:00:00,TMP,surface,-96.5629,33.5432,278.707
2014-11-03 00:00:00,2014-11-03 00:00:00,TMP,surface,-95.6254,33.5432,278.663
2014-11-03 00:00:00,2014-11-03 00:00:00,TMP,surface,-94.6879,33.5432,278.601
2014-11-03 00:00:00,2014-11-03 00:00:00,TMP,surface,-93.7504,33.5432,278.638
2014-11-03 00:00:00,2014-11-03 00:00:00,TMP,surface,-92.8129,33.5432,279.07
2014-11-03 00:00:00,2014-11-03 00:00:00,TMP,surface,-107.813,34.4881,271.667
2014-11-03 00:00:00,2014-11-03 00:00:00,TMP,surface,-106.875,34.4881,272.638
2014-11-03 00:00:00,2014-11-03 00:00:00,TMP,surface,-105.938,34.4881,273.542
2014-11-03 00:00:00,2014-11-03 00:00:00,TMP,surface,-105,34.4881,274.478
2014-11-03 00:00:00,2014-11-03 00:00:00,TMP,surface,-104.063,34.4881,275.382
2014-11-03 00:00:00,2014-11-03 00:00:00,TMP,surface,-103.125,34.4881,275.961
2014-11-03 00:00:00,2014-11-03 00:00:00,TMP,surface,-102.188,34.4881,276.172
2014-11-03 00:00:00,2014-11-03 00:00:00,TMP,surface,-101.25,34.4881,276.516
2014-11-03 00:00:00,2014-11-03 00:00:00,TMP,surface,-100.313,34.4881,277.082
2014-11-03 00:00:00,2014-11-03 00:00:00,TMP,surface,-99.3754,34.4881,277.652
2014-11-03 00:00:00,2014-11-03 00:00:00,TMP,surface,-98.4379,34.4881,277.83
2014-11-03 00:00:00,2014-11-03 00:00:00,TMP,surface,-97.5004,34.4881,277.615
2014-11-03 00:00:00,2014-11-03 00:00:00,TMP,surface,-96.5629,34.4881,277.348
2014-11-03 00:00:00,2014-11-03 00:00:00,TMP,surface,-95.6254,34.4881,277.115
2014-11-03 00:00:00,2014-11-03 00:00:00,TMP,surface,-94.6879,34.4881,276.918
2014-11-03 00:00:00,2014-11-03 00:00:00,TMP,surface,-93.7504,34.4881,277.052
2014-11-03 00:00:00,2014-11-03 00:00:00,TMP,surface,-92.8129,34.4881,277.537
2014-11-03 00:00:00,2014-11-03 00:00:00,TMP,surface,-107.813,35.4329,271.906
2014-11-03 00:00:00,2014-11-03 00:00:00,TMP,surface,-106.875,35.4329,271.782
2014-11-03 00:00:00,2014-11-03 00:00:00,TMP,surface,-105.938,35.4329,272.071
2014-11-03 00:00:00,2014-11-03 00:00:00,TMP,surface,-105,35.4329,272.788
2014-11-03 00:00:00,2014-11-03 00:00:00,TMP,surface,-104.063,35.4329,274.233
2014-11-03 00:00:00,2014-11-03 00:00:00,TMP,surface,-103.125,35.4329,275.298
2014-11-03 00:00:00,2014-11-03 00:00:00,TMP,surface,-102.188,35.4329,275.583
2014-11-03 00:00:00,2014-11-03 00:00:00,TMP,surface,-101.25,35.4329,275.779
2014-11-03 00:00:00,2014-11-03 00:00:00,TMP,surface,-100.313,35.4329,276.026
2014-11-03 00:00:00,2014-11-03 00:00:00,TMP,surface,-99.3754,35.4329,276.257
2014-11-03 00:00:00,2014-11-03 00:00:00,TMP,surface,-98.4379,35.4329,276.471
2014-11-03 00:00:00,2014-11-03 00:00:00,TMP,surface,-97.5004,35.4329,276.591
2014-11-03 00:00:00,2014-11-03 00:00:00,TMP,surface,-96.5629,35.4329,276.577
2014-11-03 00:00:00,2014-11-03 00:00:00,TMP,surface,-95.6254,35.4329,276.364
2014-11-03 00:00:00,2014-11-03 00:00:00,TMP,surface,-94.6879,35.4329,276.022
2014-11-03 00:00:00,2014-11-03 00:00:00,TMP,surface,-93.7504,35.4329,275.921
2014-11-03 00:00:00,2014-11-03 00:00:00,TMP,surface,-92.8129,35.4329,276.161
2014-11-03 00:00:00,2014-11-03 00:00:00,TMP,surface,-107.813,36.3778,271.267
2014-11-03 00:00:00,2014-11-03 00:00:00,TMP,surface,-106.875,36.3778,269.564
2014-11-03 00:00:00,2014-11-03 00:00:00,TMP,surface,-105.938,36.3778,269.651
2014-11-03 00:00:00,2014-11-03 00:00:00,TMP,surface,-105,36.3778,271.02
2014-11-03 00:00:00,2014-11-03 00:00:00,TMP,surface,-104.063,36.3778,272.99
2014-11-03 00:00:00,2014-11-03 00:00:00,TMP,surface,-103.125,36.3778,274.375
2014-11-03 00:00:00,2014-11-03 00:00:00,TMP,surface,-102.188,36.3778,274.959
2014-11-03 00:00:00,2014-11-03 00:00:00,TMP,surface,-101.25,36.3778,275.07
2014-11-03 00:00:00,2014-11-03 00:00:00,TMP,surface,-100.313,36.3778,275.196
2014-11-03 00:00:00,2014-11-03 00:00:00,TMP,surface,-99.3754,36.3778,275.369
2014-11-03 00:00:00,2014-11-03 00:00:00,TMP,surface,-98.4379,36.3778,275.466
2014-11-03 00:00:00,2014-11-03 00:00:00,TMP,surface,-97.5004,36.3778,275.679
2014-11-03 00:00:00,2014-11-03 00:00:00,TMP,surface,-96.5629,36.3778,275.9
2014-11-03 00:00:00,2014-11-03 00:00:00,TMP,surface,-95.6254,36.3778,275.743
2014-11-03 00:00:00,2014-11-03 00:00:00,TMP,surface,-94.6879,36.3778,275.252
2014-11-03 00:00:00,2014-11-03 00:00:00,TMP,surface,-93.7504,36.3778,274.881
2014-11-03 00:00:00,2014-11-03 00:00:00,TMP,surface,-92.8129,36.3778,274.995
2014-11-03 00:00:00,2014-11-03 00:00:00,PRATE,surface,-107.813,25.0393,5.16e-05
2014-11-03 00:00:00,2014-11-03 00:00:00,PRATE,surface,-106.875,25.0393,7.36e-05
2014-11-03 00:00:00,2014-11-03 00:00:00,PRATE,surface,-105.938,25.0393,5.64e-05
2014-11-03 00:00:00,2014-11-03 00:00:00,PRATE,surface,-105,25.0393,2.35e-05
2014-11-03 00:00:00,2014-11-03 00:00:00,PRATE,surface,-104.063,25.0393,1.37e-05
2014-11-03 00:00:00,2014-11-03 00:00:00,PRATE,surface,-103.125,25.0393,9.7e-06
2014-11-03 00:00:00,2014-11-03 00:00:00,PRATE,surface,-102.188,25.0393,1.37e-05
2014-11-03 00:00:00,2014-11-03 00:00:00,PRATE,surface,-101.25,25.0393,2.03e-05
2014-11-03 00:00:00,2014-11-03 00:00:00,PRATE,surface,-100.313,25.0393,2.79e-05
2014-11-03 00:00:00,2014-11-03 00:00:00,PRATE,surface,-99.3754,25.0393,2.71e-05
2014-11-03 00:00:00,2014-11-03 00:00:00,PRATE,surface,-98.4379,25.0393,2.22e-05
2014-11-03 00:00:00,2014-11-03 00:00:00,PRATE,surface,-97.5004,25.0393,2.08e-05
2014-11-03 00:00:00,2014-11-03 00:00:00,PRATE,surface,-96.5629,25.0393,2.91e-05
2014-11-03 00:00:00,2014-11-03 00:00:00,PRATE,surface,-95.6254,25.0393,1.91e-05
2014-11-03 00:00:00,2014-11-03 00:00:00,PRATE,surface,-94.6879,25.0393,1.66e-05
2014-11-03 00:00:00,2014-11-03 00:00:00,PRATE,surface,-93.7504,25.0393,2.78e-05
2014-11-03 00:00:00,2014-11-03 00:00:00,PRATE,surface,-92.8129,25.0393,3.68e-05
2014-11-03 00:00:00,2014-11-03 00:00:00,PRATE,surface,-107.813,25.9842,6.59e-05
2014-11-03 00:00:00,2014-11-03 00:00:00,PRATE,surface,-106.875,25.9842,5.79e-05
2014-11-03 00:00:00,2014-11-03 00:00:00,PRATE,surface,-105.938,25.9842,2.99e-05
2014-11-03 00:00:00,2014-11-03 00:00:00,PRATE,surface,-105,25.9842,1.99e-05
2014-11-03 00:00:00,2014-11-03 00:00:00,PRATE,surface,-104.063,25.9842,1.49e-05
2014-11-03 00:00:00,2014-11-03 00:00:00,PRATE,surface,-103.125,25.9842,1.23e-05
2014-11-03 00:00:00,2014-11-03 00:00:00,PRATE,surface,-102.188,25.9842,1.68e-05
2014-11-03 00:00:00,2014-11-03 00:00:00,PRATE,surface,-101.25,25.9842,2.19e-05
2014-11-03 00:00:00,2014-11-03 00:00:00,PRATE,surface,-100.313,25.9842,2.89e-05
2014-11-03 00:00:00,2014-11-03 00:00:00,PRATE,surface,-99.3754,25.9842,2.17e-05
2014-11-03 00:00:00,2014-11-03 00:00:00,PRATE,surface,-98.4379,25.9842,2.24e-05
2014-11-03 00:00:00,2014-11-03 00:00:00,PRATE,surface,-97.5004,25.9842,2.95e-05
2014-11-03 00:00:00,2014-11-03 00:00:00,PRATE,surface,-96.5629,25.9842,3.06e-05
2014-11-03 00:00:00,2014-11-03 00:00:00,PRATE,surface,-95.6254,25.9842,1.83e-05
2014-11-03 00:00:00,2014-11-03 00:00:00,PRATE,surface,-94.6879,25.9842,2.63e-05
2014-11-03 00:00:00,2014-11-03 00:00:00,PRATE,surface,-93.7504,25.9842,3.6e-05
2014-11-03 00:00:00,2014-11-03 00:00:00,PRATE,surface,-92.8129,25.9842,4.01e-05
2014-11-03 00:00:00,2014-11-03 00:00:00,PRATE,surface,-107.813,26.929,6.73e-05
2014-11-03 00:00:00,2014-11-03 00:00:00,PRATE,surface,-106.875,26.929,3.52e-05
2014-11-03 00:00:00,2014-11-03 00:00:00,PRATE,surface,-105.938,26.929,2.23e-05
2014-11-03 00:00:00,2014-11-03 00:00:00,PRATE,surface,-105,26.929,1.92e-05
2014-11-03 00:00:00,2014-11-03 00:00:00,PRATE,surface,-104.063,26.929,1.82e-05
2014-11-03 00:00:00,2014-11-03 00:00:00,PRATE,surface,-103.125,26.929,2.27e-05
2014-11-03 00:00:00,2014-11-03 00:00:00,PRATE,surface,-102.188,26.929,2.64e-05
2014-11-03 00:00:00,2014-11-03 00:00:00,PRATE,surface,-101.25,26.929,2.93e-05
2014-11-03 00:00:00,2014-11-03 00:00:00,PRATE,surface,-100.313,26.929,3.01e-05
2014-11-03 00:00:00,2014-11-03 00:00:00,PRATE,surface,-99.3754,26.929,2.92e-05
2014-11-03 00:00:00,2014-11-03 00:00:00,PRATE,surface,-98.4379,26.929,3.69e-05
2014-11-03 00:00:00,2014-11-03 00:00:00,PRATE,surface,-97.5004,26.929,5.19e-05
2014-11-03 00:00:00,2014-11-03 00:00:00,PRATE,surface,-96.5629,26.929,4.89e-05
2014-11-03 00:00:00,2014-11-03 00:00:00,PRATE,surface,-95.6254,26.929,2.39e-05
2014-11-03 00:00:00,2014-11-03 00:00:00,PRATE,surface,-94.6879,26.929,3.08e-05
2014-11-03 00:00:00,2014-11-03 00:00:00,PRATE,surface,-93.7504,26.929,3.66e-05
2014-11-03 00:00:00,2014-11-03 00:00:00,PRATE,surface,-92.8129,26.929,3.5e-05
2014-11-03 00:00:00,2014-11-03 00:00:00,PRATE,surface,-107.813,27.8739,5.48e-05
2014-11-03 00:00:00,2014-11-03 00:00:00,PRATE,surface,-106.875,27.8739,2.44e-05
2014-11-03 00:00:00,2014-11-03 00:00:00,PRATE,surface,-105.938,27.8739,1.98e-05
2014-11-03 00:00:00,2014-11-03 00:00:00,PRATE,surface,-105,27.8739,1.89e-05
2014-11-03 00:00:00,2014-11-03 00:00:00,PRATE,surface,-104.063,27.8739,2.13e-05
2014-11-03 00:00:00,2014-11-03 00:00:00,PRATE,surface,-103.125,27.8739,3.5e-05
2014-11-03 00:00:00,2014-11-03 00:00:00,PRATE,surface,-102.188,27.8739,4.35e-05
2014-11-03 00:00:00,2014-11-03 00:00:00,PRATE,surface,-101.25,27.8739,4.08e-05
2014-11-03 00:00:00,2014-11-03 00:00:00,PRATE,surface,-100.313,27.8739,4.02e-05
2014-11-03 00:00:00,2014-11-03 00:00:00,PRATE,surface,-99.3754,27.8739,4.89e-05
2014-11-03 00:00:00,2014-11-03 00:00:00,PRATE,surface,-98.4379,27.8739,6.23e-05
2014-11-03 00:00:00,2014-11-03 00:00:00,PRATE,surface,-97.5004,27.8739,7.54e-05
2014-11-03 00:00:00,2014-11-03 00:00:00,PRATE,surface,-96.5629,27.8739,7.36e-05
2014-11-03 00:00:00,2014-11-03 00:00:00,PRATE,surface,-95.6254,27.8739,5.89e-05
2014-11-03 00:00:00,2014-11-03 00:00:00,PRATE,surface,-94.6879,27.8739,5.18e-05
2014-11-03 00:00:00,2014-11-03 00:00:00,PRATE,surface,-93.7504,27.8739,4.95e-05
2014-11-03 00:00:00,2014-11-03 00:00:00,PRATE,surface,-92.8129,27.8739,4.38e-05
2014-11-03 00:00:00,2014-11-03 00:00:00,PRATE,surface,-107.813,28.8188,3.98e-05
2014-11-03 00:00:00,2014-11-03 00:00:00,PRATE,surface,-106.875,28.8188,2.03e-05
2014-11-03 00:00:00,2014-11-03 00:00:00,PRATE,surface,-105.938,28.8188,1.63e-05
2014-11-03 00:00:00,2014-11-03 00:00:00,PRATE,surface,-105,28.8188,1.45e-05
2014-11-03 00:00:00,2014-11-03 00:00:00,PRATE,surface,-104.063,28.8188,2.16e-05
2014-11-03 00:00:00,2014-11-03 00:00:00,PRATE,surface,-103.125,28.8188,3.23e-05
2014-11-03 00:00:00,2014-11-03 00:00:00,PRATE,surface,-102.188,28.8188,3.69e-05
2014-11-03 00:00:00,2014-11-03 00:00:00,PRATE,surface,-101.25,28.8188,3.89e-05
2014-11-03 00:00:00,2014-11-03 00:00:00,PRATE,surface,-100.313,28.8188,4.97e-05
2014-11-03 00:00:00,2014-11-03 00:00:00,PRATE,surface,-99.3754,28.8188,6.1e-05
2014-11-03 00:00:00,2014-11-03 00:00:00,PRATE,surface,-98.4379,28.8188,7.27e-05
2014-11-03 00:00:00,2014-11-03 00:00:00,PRATE,surface,-97.5004,28.8188,8.2e-05
2014-11-03 00:00:00,2014-11-03 00:00:00,PRATE,surface,-96.5629,28.8188,8.2e-05
2014-11-03 00:00:00,2014-11-03 00:00:00,PRATE,surface,-95.6254,28.8188,7.39e-05
2014-11-03 00:00:00,2014-11-03 00:00:00,PRATE,surface,-94.6879,28.8188,6.45e-05
2014-11-03 00:00:00,2014-11-03 00:00:00,PRATE,surface,-93.7504,28.8188,5.6e-05
2014-11-03 00:00:00,2014-11-03 00:00:00,PRATE,surface,-92.8129,28.8188,5.01e-05
2014-11-03 00:00:00,2014-11-03 00:00:00,PRATE,surface,-107.813,29.7637,2.13e-05
2014-11-03 00:00:00,2014-11-03 00:00:00,PRATE,surface,-106.875,29.7637,1.55e-05
2014-11-03 00:00:00,2014-11-03 00:00:00,PRATE,surface,-105.938,29.7637,1.57e-05
2014-11-03 00:00:00,2014-11-03 00:00:00,PRATE,surface,-105,29.7637,1.88e-05
2014-11-03 00:00:00,2014-11-03 00:00:00,PRATE,surface,-104.063,29.7637,2.63e-05
2014-11-03 00:00:00,2014-11-03 00:00:00,PRATE,surface,-103.125,29.7637,2.98e-05
2014-11-03 00:00:00,2014-11-03 00:00:00,PRATE,surface,-102.188,29.7637,3.3e-05
2014-11-03 00:00:00,2014-11-03 00:00:00,PRATE,surface,-101.25,29.7637,4.02e-05
2014-11-03 00:00:00,2014-11-03 00:00:00,PRATE,surface,-100.313,29.7637,5.01e-05
2014-11-03 00:00:00,2014-11-03 00:00:00,PRATE,surface,-99.3754,29.7637,6.06e-05
2014-11-03 00:00:00,2014-11-03 00:00:00,PRATE,surface,-98.4379,29.7637,7.12e-05
2014-11-03 00:00:00,2014-11-03 00:00:00,PRATE,surface,-97.5004,29.7637,7.58e-05
2014-11-03 00:00:00,2014-11-03 00:00:00,PRATE,surface,-96.5629,29.7637,7.09e-05
2014-11-03 00:00:00,2014-11-03 00:00:00,PRATE,surface,-95.6254,29.7637,6.18e-05
2014-11-03 00:00:00,2014-11-03 00:00:00,PRATE,surface,-94.6879,29.7637,5.46e-05
2014-11-03 00:00:00,2014-11-03 00:00:00,PRATE,surface,-93.7504,29.7637,4.99e-05
2014-11-03 00:00:00,2014-11-03 00:00:00,PRATE,surface,-92.8129,29.7637,4.69e-05
2014-11-03 00:00:00,2014-11-03 00:00:00,PRATE,surface,-107.813,30.7085,1.81e-05
2014-11-03 00:00:00,2014-11-03 00:00:00,PRATE,surface,-106.875,30.7085,1.46e-05
2014-11-03 00:00:00,2014-11-03 00:00:00,PRATE,surface,-105.938,30.7085,2.06e-05
2014-11-03 00:00:00,2014-11-03 00:00:00,PRATE,surface,-105,30.7085,3e-05
2014-11-03 00:00:00,2014-11-03 00:00:00,PRATE,surface,-104.063,30.7085,3.24e-05
2014-11-03 00:00:00,2014-11-03 00:00:00,PRATE,surface,-103.125,30.7085,3.22e-05
2014-11-03 00:00:00,2014-11-03 00:00:00,PRATE,surface,-102.188,30.7085,3.36e-05
2014-11-03 00:00:00,2014-11-03 00:00:00,PRATE,surface,-101.25,30.7085,4.35e-05
2014-11-03 00:00:00,2014-11-03 00:00:00,PRATE,surface,-100.313,30.7085,5.52e-05
2014-11-03 00:00:00,2014-11-03 00:00:00,PRATE,surface,-99.3754,30.7085,6.59e-05
2014-11-03 00:00:00,2014-11-03 00:00:00,PRATE,surface,-98.4379,30.7085,7.37e-05
2014-11-03 00:00:00,2014-11-03 00:00:00,PRATE,surface,-97.5004,30.7085,7.13e-05
2014-11-03 00:00:00,2014-11-03 00:00:00,PRATE,surface,-96.5629,30.7085,5.98e-05
2014-11-03 00:00:00,2014-11-03 00:00:00,PRATE,surface,-95.6254,30.7085,4.88e-05
2014-11-03 00:00:00,2014-11-03 00:00:00,PRATE,surface,-94.6879,30.7085,4.22e-05
2014-11-03 00:00:00,2014-11-03 00:00:00,PRATE,surface,-93.7504,30.7085,3.89e-05
2014-11-03 00:00:00,2014-11-03 00:00:00,PRATE,surface,-92.8129,30.7085,3.92e-05
2014-11-03 00:00:00,2014-11-03 00:00:00,PRATE,surface,-107.813,31.6534,2.28e-05
2014-11-03 00:00:00,2014-11-03 00:00:00,PRATE,surface,-106.875,31.6534,1.96e-05
2014-11-03 00:00:00,2014-11-03 00:00:00,PRATE,surface,-105.938,31.6534,2.78e-05
2014-11-03 00:00:00,2014-11-03 00:00:00,PRATE,surface,-105,31.6534,3.34e-05
2014-11-03 00:00:00,2014-11-03 00:00:00,PRATE,surface,-104.063,31.6534,3.1e-05
2014-11-03 00:00:00,2014-11-03 00:00:00,PRATE,surface,-103.125,31.6534,2.91e-05
2014-11-03 00:00:00,2014-11-03 00:00:00,PRATE,surface,-102.188,31.6534,3.11e-05
2014-11-03 00:00:00,2014-11-03 00:00:00,PRATE,surface,-101.25,31.6534,4.08e-05
2014-11-03 00:00:00,2014-11-03 00:00:00,PRATE,surface,-100.313,31.6534,5.6e-05
2014-11-03 00:00:00,2014-11-03 00:00:00,PRATE,surface,-99.3754,31.6534,7.54e-05
2014-11-03 00:00:00,2014-11-03 00:00:00,PRATE,surface,-98.4379,31.6534,9.03e-05
2014-11-03 00:00:00,2014-11-03 00:00:00,PRATE,surface,-97.5004,31.6534,8.61e-05
2014-11-03 00:00:00,2014-11-03 00:00:00,PRATE,surface,-96.5629,31.6534,6.7e-05
2014-11-03 00:00:00,2014-11-03 00:00:00,PRATE,surface,-95.6254,31.6534,5.16e-05
2014-11-03 00:00:00,2014-11-03 00:00:00,PRATE,surface,-94.6879,31.6534,4.55e-05
2014-11-03 00:00:00,2014-11-03 00:00:00,PRATE,surface,-93.7504,31.6534,4.11e-05
2014-11-03 00:00:00,2014-11-03 00:00:00,PRATE,surface,-92.8129,31.6534,3.9e-05
2014-11-03 00:00:00,2014-11-03 00:00:00,PRATE,surface,-107.813,32.5983,3.78e-05
2014-11-03 00:00:00,2014-11-03 00:00:00,PRATE,surface,-106.875,32.5983,2.97e-05
2014-11-03 00:00:00,2014-11-03 00:00:00,PRATE,surface,-105.938,32.5983,2.95e-05
2014-11-03 00:00:00,2014-11-03 00:00:00,PRATE,surface,-105,32.5983,3.05e-05
2014-11-03 00:00:00,2014-11-03 00:00:00,PRATE,surface,-104.063,32.5983,2.77e-05
2014-11-03 00:00:00,2014-11-03 00:00:00,PRATE,surface,-103.125,32.5983,2.59e-05
2014-11-03 00:00:00,2014-11-03 00:00:00,PRATE,surface,-102.188,32.5983,3.23e-05
2014-11-03 00:00:00,2014-11-03 00:00:00,PRATE,surface,-101.25,32.5983,4.34e-05
2014-11-03 00:00:00,2014-11-03 00:00:00,PRATE,surface,-100.313,32.5983,5.9e-05
2014-11-03 00:00:00,2014-11-03 00:00:00,PRATE,surface,-99.3754,32.5983,7.65e-05
2014-11-03 00:00:00,2014-11-03 00:00:00,PRATE,surface,-98.4379,32.5983,8.89e-05
2014-11-03 00:00:00,2014-11-03 00:00:00,PRATE,surface,-97.5004,32.5983,8.58e-05
2014-11-03 00:00:00,2014-11-03 00:00:00,PRATE,surface,-96.5629,32.5983,6.84e-05
2014-11-03 00:00:00,2014-11-03 00:00:00,PRATE,surface,-95.6254,32.5983,5.23e-05
2014-11-03 00:00:00,2014-11-03 00:00:00,PRATE,surface,-94.6879,32.5983,4.61e-05
2014-11-03 00:00:00,2014-11-03 00:00:00,PRATE,surface,-93.7504,32.5983,4.28e-05
2014-11-03 00:00:00,2014-11-03 00:00:00,PRATE,surface,-92.8129,32.5983,3.97e-05
2014-11-03 00:00:00,2014-11-03 00:00:00,PRATE,surface,-107.813,33.5432,5.11e-05
2014-11-03 00:00:00,2014-11-03 00:00:00,PRATE,surface,-106.875,33.5432,4.22e-05
2014-11-03 00:00:00,2014-11-03 00:00:00,PRATE,surface,-105.938,33.5432,3.25e-05
2014-11-03 00:00:00,2014-11-03 00:00:00,PRATE,surface,-105,33.5432,2.72e-05
2014-11-03 00:00:00,2014-11-03 00:00:00,PRATE,surface,-104.063,33.5432,2.5e-05
2014-11-03 00:00:00,2014-11-03 00:00:00,PRATE,surface,-103.125,33.5432,2.39e-05
2014-11-03 00:00:00,2014-11-03 00:00:00,PRATE,surface,-102.188,33.5432,3.04e-05
2014-11-03 00:00:00,2014-11-03 00:00:00,PRATE,surface,-101.25,33.5432,4.13e-05
2014-11-03 00:00:00,2014-11-03 00:00:00,PRATE,surface,-100.313,33.5432,5.01e-05
2014-11-03 00:00:00,2014-11-03 00:00:00,PRATE,surface,-99.3754,33.5432,5.91e-05
2014-11-03 00:00:00,2014-11-03 00:00:00,PRATE,surface,-98.4379,33.5432,7e-05
2014-11-03 00:00:00,2014-11-03 00:00:00,PRATE,surface,-97.5004,33.5432,7.26e-05
2014-11-03 00:00:00,2014-11-03 00:00:00,PRATE,surface,-96.5629,33.5432,6.43e-05
2014-11-03 00:00:00,2014-11-03 00:00:00,PRATE,surface,-95.6254,33.5432,5.3e-05
2014-11-03 00:00:00,2014-11-03 00:00:00,PRATE,surface,-94.6879,33.5432,4.45e-05
2014-11-03 00:00:00,2014-11-03 00:00:00,PRATE,surface,-93.7504,33.5432,4.13e-05
2014-11-03 00:00:00,2014-11-03 00:00:00,PRATE,surface,-92.8129,33.5432,4.07e-05
2014-11-03 00:00:00,2014-11-03 00:00:00,PRATE,surface,-107.813,34.4881,3.86e-05
2014-11-03 00:00:00,2014-11-03 00:00:00,PRATE,surface,-106.875,34.4881,3.26e-05
2014-11-03 00:00:00,2014-11-03 00:00:00,PRATE,surface,-105.938,34.4881,2.95e-05
2014-11-03 00:00:00,2014-11-03 00:00:00,PRATE,surface,-105,34.4881,2.76e-05
2014-11-03 00:00:00,2014-11-03 00:00:00,PRATE,surface,-104.063,34.4881,2.2e-05
2014-11-03 00:00:00,2014-11-03 00:00:00,PRATE,surface,-103.125,34.4881,2.18e-05
2014-11-03 00:00:00,2014-11-03 00:00:00,PRATE,surface,-102.188,34.4881,2.94e-05
2014-11-03 00:00:00,2014-11-03 00:00:00,PRATE,surface,-101.25,34.4881,3.92e-05
2014-11-03 00:00:00,2014-11-03 00:00:00,PRATE,surface,-100.313,34.4881,4.37e-05
2014-11-03 00:00:00,2014-11-03 00:00:00,PRATE,surface,-99.3754,34.4881,4.48e-05
2014-11-03 00:00:00,2014-11-03 00:00:00,PRATE,surface,-98.4379,34.4881,5.23e-05
2014-11-03 00:00:00,2014-11-03 00:00:00,PRATE,surface,-97.5004,34.4881,6.1e-05
2014-11-03 00:00:00,2014-11-03 00:00:00,PRATE,surface,-96.5629,34.4881,6.3e-05
2014-11-03 00:00:00,2014-11-03 00:00:00,PRATE,surface,-95.6254,34.4881,5.88e-05
2014-11-03 00:00:00,2014-11-03 00:00:00,PRATE,surface,-94.6879,34.4881,5.24e-05
2014-11-03 00:00:00,2014-11-03 00:00:00,PRATE,surface,-93.7504,34.4881,4.86e-05
2014-11-03 00:00:00,2014-11-03 00:00:00,PRATE,surface,-92.8129,34.4881,4.71e-05
2014-11-03 00:00:00,2014-11-03 00:00:00,PRATE,surface,-107.813,35.4329,2.76e-05
2014-11-03 00:00:00,2014-11-03 00:00:00,PRATE,surface,-106.875,35.4329,2.58e-05
2014-11-03 00:00:00,2014-11-03 00:00:00,PRATE,surface,-105.938,35.4329,2.45e-05
2014-11-03 00:00:00,2014-11-03 00:00:00,PRATE,surface,-105,35.4329,2.61e-05
2014-11-03 00:00:00,2014-11-03 00:00:00,PRATE,surface,-104.063,35.4329,2.29e-05
2014-11-03 00:00:00,2014-11-03 00:00:00,PRATE,surface,-103.125,35.4329,2.21e-05
2014-11-03 00:00:00,2014-11-03 00:00:00,PRATE,surface,-102.188,35.4329,2.63e-05
2014-11-03 00:00:00,2014-11-03 00:00:00,PRATE,surface,-101.25,35.4329,3.25e-05
2014-11-03 00:00:00,2014-11-03 00:00:00,PRATE,surface,-100.313,35.4329,3.55e-05
2014-11-03 00:00:00,2014-11-03 00:00:00,PRATE,surface,-99.3754,35.4329,3.69e-05
2014-11-03 00:00:00,2014-11-03 00:00:00,PRATE,surface,-98.4379,35.4329,4.22e-05
2014-11-03 00:00:00,2014-11-03 00:00:00,PRATE,surface,-97.5004,35.4329,4.87e-05
2014-11-03 00:00:00,2014-11-03 00:00:00,PRATE,surface,-96.5629,35.4329,5.42e-05
2014-11-03 00:00:00,2014-11-03 00:00:00,PRATE,surface,-95.6254,35.4329,5.71e-05
2014-11-03 00:00:00,2014-11-03 00:00:00,PRATE,surface,-94.6879,35.4329,5.51e-05
2014-11-03 00:00:00,2014-11-03 00:00:00,PRATE,surface,-93.7504,35.4329,5.22e-05
2014-11-03 00:00:00,2014-11-03 00:00:00,PRATE,surface,-92.8129,35.4329,5.03e-05
2014-11-03 00:00:00,2014-11-03 00:00:00,PRATE,surface,-107.813,36.3778,3.13e-05
2014-11-03 00:00:00,2014-11-03 00:00:00,PRATE,surface,-106.875,36.3778,3.44e-05
2014-11-03 00:00:00,2014-11-03 00:00:00,PRATE,surface,-105.938,36.3778,2.69e-05
2014-11-03 00:00:00,2014-11-03 00:00:00,PRATE,surface,-105,36.3778,1.99e-05
2014-11-03 00:00:00,2014-11-03 00:00:00,PRATE,surface,-104.063,36.3778,1.69e-05
2014-11-03 00:00:00,2014-11-03 00:00:00,PRATE,surface,-103.125,36.3778,1.72e-05
2014-11-03 00:00:00,2014-11-03 00:00:00,PRATE,surface,-102.188,36.3778,1.98e-05
2014-11-03 00:00:00,2014-11-03 00:00:00,PRATE,surface,-101.25,36.3778,2.41e-05
2014-11-03 00:00:00,2014-11-03 00:00:00,PRATE,surface,-100.313,36.3778,2.76e-05
2014-11-03 00:00:00,2014-11-03 00:00:00,PRATE,surface,-99.3754,36.3778,3.21e-05
2014-11-03 00:00:00,2014-11-03 00:00:00,PRATE,surface,-98.4379,36.3778,3.76e-05
2014-11-03 00:00:00,2014-11-03 00:00:00,PRATE,surface,-97.5004,36.3778,4.24e-05
2014-11-03 00:00:00,2014-11-03 00:00:00,PRATE,surface,-96.5629,36.3778,4.58e-05
2014-11-03 00:00:00,2014-11-03 00:00:00,PRATE,surface,-95.6254,36.3778,4.74e-05
2014-11-03 00:00:00,2014-11-03 00:00:00,PRATE,surface,-94.6879,36.3778,4.72e-05
2014-11-03 00:00:00,2014-11-03 00:00:00,PRATE,surface,-93.7504,36.3778,4.57e-05
2014-11-03 00:00:00,2014-11-03 00:00:00,PRATE,surface,-92.8129,36.3778,4.45e-05
