2017-09-25 00:00:00,2017-09-25 00:00:00,TMP,surface,-107.813,25.0393,296.327
2017-09-25 00:00:00,2017-09-25 00:00:00,TMP,surface,-106.875,25.0393,290.663
2017-09-25 00:00:00,2017-09-25 00:00:00,TMP,surface,-105.938,25.0393,285.719
2017-09-25 00:00:00,2017-09-25 00:00:00,TMP,surface,-105,25.0393,285.468
2017-09-25 00:00:00,2017-09-25 00:00:00,TMP,surface,-104.063,25.0393,289.332
2017-09-25 00:00:00,2017-09-25 00:00:00,TMP,surface,-103.125,25.0393,291.39
2017-09-25 00:00:00,2017-09-25 00:00:00,TMP,surface,-102.188,25.0393,290.42
2017-09-25 00:00:00,2017-09-25 00:00:00,TMP,surface,-101.25,25.0393,288.37
2017-09-25 00:00:00,2017-09-25 00:00:00,TMP,surface,-100.313,25.0393,288.665
2017-09-25 00:00:00,2017-09-25 00:00:00,TMP,surface,-99.3754,25.0393,290.783
2017-09-25 00:00:00,2017-09-25 00:00:00,TMP,surface,-98.4379,25.0393,293.132
2017-09-25 00:00:00,2017-09-25 00:00:00,TMP,surface,-97.5004,25.0393,295.086
2017-09-25 00:00:00,2017-09-25 00:00:00,TMP,surface,-96.5629,25.0393,295.166
2017-09-25 00:00:00,2017-09-25 00:00:00,TMP,surface,-95.6254,25.0393,296.102
2017-09-25 00:00:00,2017-09-25 00:00:00,TMP,surface,-94.6879,25.0393,296.954
2017-09-25 00:00:00,2017-09-25 00:00:00,TMP,surface,-93.7504,25.0393,297.143
2017-09-25 00:00:00,2017-09-25 00:00:00,TMP,surface,-92.8129,25.0393,297.239
2017-09-25 00:00:00,2017-09-25 00:00:00,TMP,surface,-107.813,25.9842,292.718
2017-09-25 00:00:00,2017-09-25 00:00:00,TMP,surface,-106.875,25.9842,286.399
2017-09-25 00:00:00,2017-09-25 00:00:00,TMP,surface,-105.938,25.9842,284.852
2017-09-25 00:00:00,2017-09-25 00:00:00,TMP,surface,-105,25.9842,287.61
2017-09-25 00:00:00,2017-09-25 00:00:00,TMP,surface,-104.063,25.9842,292.074
2017-09-25 00:00:00,2017-09-25 00:00:00,TMP,surface,-103.125,25.9842,293.038
2017-09-25 00:00:00,2017-09-25 00:00:00,TMP,surface,-102.188,25.9842,291.742
2017-09-25 00:00:00,2017-09-25 00:00:00,TMP,surface,-101.25,25.9842,290.41
2017-09-25 00:00:00,2017-09-25 00:00:00,TMP,surface,-100.313,25.9842,290.19
2017-09-25 00:00:00,2017-09-25 00:00:00,TMP,surface,-99.3754,25.9842,291.878
2017-09-25 00:00:00,2017-09-25 00:00:00,TMP,surface,-98.4379,25.9842,292.826
2017-09-25 00:00:00,2017-09-25 00:00:00,TMP,surface,-97.5004,25.9842,293.338
2017-09-25 00:00:00,2017-09-25 00:00:00,TMP,surface,-96.5629,25.9842,294.218
2017-09-25 00:00:00,2017-09-25 00:00:00,TMP,surface,-95.6254,25.9842,295.052
2017-09-25 00:00:00,2017-09-25 00:00:00,TMP,surface,-94.6879,25.9842,296.047
2017-09-25 00:00:00,2017-09-25 00:00:00,TMP,surface,-93.7504,25.9842,296.34
2017-09-25 00:00:00,2017-09-25 00:00:00,TMP,surface,-92.8129,25.9842,296.514
2017-09-25 00:00:00,2017-09-25 00:00:00,TMP,surface,-107.813,26.929,287.436
2017-09-25 00:00:00,2017-09-25 00:00:00,TMP,surface,-106.875,26.929,284.143
2017-09-25 00:00:00,2017-09-25 00:00:00,TMP,surface,-105.938,26.929,286.327
2017-09-25 00:00:00,2017-09-25 00:00:00,TMP,surface,-105,26.929,290.239
2017-09-25 00:00:00,2017-09-25 00:00:00,TMP,surface,-104.063,26.929,292.108
2017-09-25 00:00:00,2017-09-25 00:00:00,TMP,surface,-103.125,26.929,291.356
2017-09-25 00:00:00,2017-09-25 00:00:00,TMP,surface,-102.188,26.929,290.826
2017-09-25 00:00:00,2017-09-25 00:00:00,TMP,surface,-101.25,26.929,291.012
2017-09-25 00:00:00,2017-09-25 00:00:00,TMP,surface,-100.313,26.929,291.718
2017-09-25 00:00:00,2017-09-25 00:00:00,TMP,surface,-99.3754,26.929,292.231
2017-09-25 00:00:00,2017-09-25 00:00:00,TMP,surface,-98.4379,26.929,291.815
2017-09-25 00:00:00,2017-09-25 00:00:00,TMP,surface,-97.5004,26.929,293.519
2017-09-25 00:00:00,2017-09-25 00:00:00,TMP,surface,-96.5629,26.929,293.759
2017-09-25 00:00:00,2017-09-25 00:00:00,TMP,surface,-95.6254,26.929,294.503
2017-09-25 00:00:00,2017-09-25 00:00:00,TMP,surface,-94.6879,26.929,295.212
2017-09-25 00:00:00,2017-09-25 00:00:00,TMP,surface,-93.7504,26.929,295.39
2017-09-25 00:00:00,2017-09-25 00:00:00,TMP,surface,-92.8129,26.929,295.543
2017-09-25 00:00:00,2017-09-25 00:00:00,TMP,surface,-107.813,27.8739,284.698
2017-09-25 00:00:00,2017-09-25 00:00:00,TMP,surface,-106.875,27.8739,284.106
2017-09-25 00:00:00,2017-09-25 00:00:00,TMP,surface,-105.938,27.8739,288.095
2017-09-25 00:00:00,2017-09-25 00:00:00,TMP,surface,-105,27.8739,291.364
2017-09-25 00:00:00,2017-09-25 00:00:00,TMP,surface,-104.063,27.8739,291.359
2017-09-25 00:00:00,2017-09-25 00:00:00,TMP,surface,-103.125,27.8739,289.903
2017-09-25 00:00:00,2017-09-25 00:00:00,TMP,surface,-102.188,27.8739,289.545
2017-09-25 00:00:00,2017-09-25 00:00:00,TMP,surface,-101.25,27.8739,290.591
2017-09-25 00:00:00,2017-09-25 00:00:00,TMP,surface,-100.313,27.8739,291.471
2017-09-25 00:00:00,2017-09-25 00:00:00,TMP,surface,-99.3754,27.8739,291.266
2017-09-25 00:00:00,2017-09-25 00:00:00,TMP,surface,-98.4379,27.8739,290.588
2017-09-25 00:00:00,2017-09-25 00:00:00,TMP,surface,-97.5004,27.8739,292.02
2017-09-25 00:00:00,2017-09-25 00:00:00,TMP,surface,-96.5629,27.8739,293.934
2017-09-25 00:00:00,2017-09-25 00:00:00,TMP,surface,-95.6254,27.8739,294.198
2017-09-25 00:00:00,2017-09-25 00:00:00,TMP,surface,-94.6879,27.8739,294.343
2017-09-25 00:00:00,2017-09-25 00:00:00,TMP,surface,-93.7504,27.8739,294.478
2017-09-25 00:00:00,2017-09-25 00:00:00,TMP,surface,-92.8129,27.8739,294.647
2017-09-25 00:00:00,2017-09-25 00:00:00,TMP,surface,-107.813,28.8188,284.022
2017-09-25 00:00:00,2017-09-25 00:00:00,TMP,surface,-106.875,28.8188,285.538
2017-09-25 00:00:00,2017-09-25 00:00:00,TMP,surface,-105.938,28.8188,289.382
2017-09-25 00:00:00,2017-09-25 00:00:00,TMP,surface,-105,28.8188,291.623
2017-09-25 00:00:00,2017-09-25 00:00:00,TMP,surface,-104.063,28.8188,290.372
2017-09-25 00:00:00,2017-09-25 00:00:00,TMP,surface,-103.125,28.8188,289.042
2017-09-25 00:00:00,2017-09-25 00:00:00,TMP,surface,-102.188,28.8188,288.802
2017-09-25 00:00:00,2017-09-25 00:00:00,TMP,surface,-101.25,28.8188,289.716
2017-09-25 00:00:00,2017-09-25 00:00:00,TMP,surface,-100.313,28.8188,289.882
2017-09-25 00:00:00,2017-09-25 00:00:00,TMP,surface,-99.3754,28.8188,289.366
2017-09-25 00:00:00,2017-09-25 00:00:00,TMP,surface,-98.4379,28.8188,289.022
2017-09-25 00:00:00,2017-09-25 00:00:00,TMP,surface,-97.5004,28.8188,289.143
2017-09-25 00:00:00,2017-09-25 00:00:00,TMP,surface,-96.5629,28.8188,289.639
2017-09-25 00:00:00,2017-09-25 00:00:00,TMP,surface,-95.6254,28.8188,291.45
2017-09-25 00:00:00,2017-09-25 00:00:00,TMP,surface,-94.6879,28.8188,293.834
2017-09-25 00:00:00,2017-09-25 00:00:00,TMP,surface,-93.7504,28.8188,293.97
2017-09-25 00:00:00,2017-09-25 00:00:00,TMP,surface,-92.8129,28.8188,294.097
2017-09-25 00:00:00,2017-09-25 00:00:00,TMP,surface,-107.813,29.7637,285.842
2017-09-25 00:00:00,2017-09-25 00:00:00,TMP,surface,-106.875,29.7637,287.604
2017-09-25 00:00:00,2017-09-25 00:00:00,TMP,surface,-105.938,29.7637,290.278
2017-09-25 00:00:00,2017-09-25 00:00:00,TMP,surface,-105,29.7637,290.586
2017-09-25 00:00:00,2017-09-25 00:00:00,TMP,surface,-104.063,29.7637,289.788
2017-09-25 00:00:00,2017-09-25 00:00:00,TMP,surface,-103.125,29.7637,289.332
2017-09-25 00:00:00,2017-09-25 00:00:00,TMP,surface,-102.188,29.7637,289.436
2017-09-25 00:00:00,2017-09-25 00:00:00,TMP,surface,-101.25,29.7637,289.183
2017-09-25 00:00:00,2017-09-25 00:00:00,TMP,surface,-100.313,29.7637,288.172
2017-09-25 00:00:00,2017-09-25 00:00:00,TMP,surface,-99.3754,29.7637,287.484
2017-09-25 00:00:00,2017-09-25 00:00:00,TMP,surface,-98.4379,29.7637,287.412
2017-09-25 00:00:00,2017-09-25 00:00:00,TMP,surface,-97.5004,29.7637,287.703
2017-09-25 00:00:00,2017-09-25 00:00:00,TMP,surface,-96.5629,29.7637,288.196
2017-09-25 00:00:00,2017-09-25 00:00:00,TMP,surface,-95.6254,29.7637,288.83
2017-09-25 00:00:00,2017-09-25 00:00:00,TMP,surface,-94.6879,29.7637,290.67
2017-09-25 00:00:00,2017-09-25 00:00:00,TMP,surface,-93.7504,29.7637,292.953
2017-09-25 00:00:00,2017-09-25 00:00:00,TMP,surface,-92.8129,29.7637,290.721
2017-09-25 00:00:00,2017-09-25 00:00:00,TMP,surface,-107.813,30.7085,288.74
2017-09-25 00:00:00,2017-09-25 00:00:00,TMP,surface,-106.875,30.7085,290.05
2017-09-25 00:00:00,2017-09-25 00:00:00,TMP,surface,-105.938,30.7085,290.407
2017-09-25 00:00:00,2017-09-25 00:00:00,TMP,surface,-105,30.7085,289.729
2017-09-25 00:00:00,2017-09-25 00:00:00,TMP,surface,-104.063,30.7085,288.799
2017-09-25 00:00:00,2017-09-25 00:00:00,TMP,surface,-103.125,30.7085,289.103
2017-09-25 00:00:00,2017-09-25 00:00:00,TMP,surface,-102.188,30.7085,289.214
2017-09-25 00:00:00,2017-09-25 00:00:00,TMP,surface,-101.25,30.7085,288.407
2017-09-25 00:00:00,2017-09-25 00:00:00,TMP,surface,-100.313,30.7085,287.169
2017-09-25 00:00:00,2017-09-25 00:00:00,TMP,surface,-99.3754,30.7085,286.511
2017-09-25 00:00:00,2017-09-25 00:00:00,TMP,surface,-98.4379,30.7085,286.591
2017-09-25 00:00:00,2017-09-25 00:00:00,TMP,surface,-97.5004,30.7085,286.999
2017-09-25 00:00:00,2017-09-25 00:00:00,TMP,surface,-96.5629,30.7085,287.762
2017-09-25 00:00:00,2017-09-25 00:00:00,TMP,surface,-95.6254,30.7085,288.57
2017-09-25 00:00:00,2017-09-25 00:00:00,TMP,surface,-94.6879,30.7085,288.918
2017-09-25 00:00:00,2017-09-25 00:00:00,TMP,surface,-93.7504,30.7085,289.175
2017-09-25 00:00:00,2017-09-25 00:00:00,TMP,surface,-92.8129,30.7085,289.089
2017-09-25 00:00:00,2017-09-25 00:00:00,TMP,surface,-107.813,31.6534,289.396
2017-09-25 00:00:00,2017-09-25 00:00:00,TMP,surface,-106.875,31.6534,290.198
2017-09-25 00:00:00,2017-09-25 00:00:00,TMP,surface,-105.938,31.6534,289.956
2017-09-25 00:00:00,2017-09-25 00:00:00,TMP,surface,-105,31.6534,288.817
2017-09-25 00:00:00,2017-09-25 00:00:00,TMP,surface,-104.063,31.6534,288.578
2017-09-25 00:00:00,2017-09-25 00:00:00,TMP,surface,-103.125,31.6534,288.724
2017-09-25 00:00:00,2017-09-25 00:00:00,TMP,surface,-102.188,31.6534,288.662
2017-09-25 00:00:00,2017-09-25 00:00:00,TMP,surface,-101.25,31.6534,287.826
2017-09-25 00:00:00,2017-09-25 00:00:00,TMP,surface,-100.313,31.6534,286.91
2017-09-25 00:00:00,2017-09-25 00:00:00,TMP,surface,-99.3754,31.6534,286.308
2017-09-25 00:00:00,2017-09-25 00:00:00,TMP,surface,-98.4379,31.6534,286.345
2017-09-25 00:00:00,2017-09-25 00:00:00,TMP,surface,-97.5004,31.6534,286.743
2017-09-25 00:00:00,2017-09-25 00:00:00,TMP,surface,-96.5629,31.6534,287.518
2017-09-25 00:00:00,2017-09-25 00:00:00,TMP,surface,-95.6254,31.6534,288.314
2017-09-25 00:00:00,2017-09-25 00:00:00,TMP,surface,-94.6879,31.6534,288.484
2017-09-25 00:00:00,2017-09-25 00:00:00,TMP,surface,-93.7504,31.6534,288.508
2017-09-25 00:00:00,2017-09-25 00:00:00,TMP,surface,-92.8129,31.6534,288.486
2017-09-25 00:00:00,2017-09-25 00:00:00,TMP,surface,-107.813,32.5983,286.71
2017-09-25 00:00:00,2017-09-25 00:00:00,TMP,surface,-106.875,32.5983,287.538
2017-09-25 00:00:00,2017-09-25 00:00:00,TMP,surface,-105.938,32.5983,287.836
2017-09-25 00:00:00,2017-09-25 00:00:00,TMP,surface,-105,32.5983,287.753
2017-09-25 00:00:00,2017-09-25 00:00:00,TMP,surface,-104.063,32.5983,288.17
2017-09-25 00:00:00,2017-09-25 00:00:00,TMP,surface,-103.125,32.5983,288.281
2017-09-25 00:00:00,2017-09-25 00:00:00,TMP,surface,-102.188,32.5983,287.633
2017-09-25 00:00:00,2017-09-25 00:00:00,TMP,surface,-101.25,32.5983,287.047
2017-09-25 00:00:00,2017-09-25 00:00:00,TMP,surface,-100.313,32.5983,286.721
2017-09-25 00:00:00,2017-09-25 00:00:00,TMP,surface,-99.3754,32.5983,286.37
2017-09-25 00:00:00,2017-09-25 00:00:00,TMP,surface,-98.4379,32.5983,286.26
2017-09-25 00:00:00,2017-09-25 00:00:00,TMP,surface,-97.5004,32.5983,286.494
2017-09-25 00:00:00,2017-09-25 00:00:00,TMP,surface,-96.5629,32.5983,287.118
2017-09-25 00:00:00,2017-09-25 00:00:00,TMP,surface,-95.6254,32.5983,287.806
2017-09-25 00:00:00,2017-09-25 00:00:00,TMP,surface,-94.6879,32.5983,288.004
2017-09-25 00:00:00,2017-09-25 00:00:00,TMP,surface,-93.7504,32.5983,287.951
2017-09-25 00:00:00,2017-09-25 00:00:00,TMP,surface,-92.8129,32.5983,288.031
2017-09-25 00:00:00,2017-09-25 00:00:00,TMP,surface,-107.813,33.5432,283.246
2017-09-25 00:00:00,2017-09-25 00:00:00,TMP,surface,-106.875,33.5432,284.796
2017-09-25 00:00:00,2017-09-25 00:00:00,TMP,surface,-105.938,33.5432,285.794
2017-09-25 00:00:00,2017-09-25 00:00:00,TMP,surface,-105,33.5432,286.606
2017-09-25 00:00:00,2017-09-25 00:00:00,TMP,surface,-104.063,33.5432,287.484
2017-09-25 00:00:00,2017-09-25 00:00:00,TMP,surface,-103.125,33.5432,286.942
2017-09-25 00:00:00,2017-09-25 00:00:00,TMP,surface,-102.188,33.5432,286.036
2017-09-25 00:00:00,2017-09-25 00:00:00,TMP,surface,-101.25,33.5432,285.546
2017-09-25 00:00:00,2017-09-25 00:00:00,TMP,surface,-100.313,33.5432,285.802
2017-09-25 00:00:00,2017-09-25 00:00:00,TMP,surface,-99.3754,33.5432,285.751
2017-09-25 00:00:00,2017-09-25 00:00:00,TMP,surface,-98.4379,33.5432,285.556
2017-09-25 00:00:00,2017-09-25 00:00:00,TMP,surface,-97.5004,33.5432,285.582
2017-09-25 00:00:00,2017-09-25 00:00:00,TMP,surface,-96.5629,33.5432,285.91
2017-09-25 00:00:00,2017-09-25 00:00:00,TMP,surface,-95.6254,33.5432,286.558
2017-09-25 00:00:00,2017-09-25 00:00:00,TMP,surface,-94.6879,33.5432,287.068
2017-09-25 00:00:00,2017-09-25 00:00:00,TMP,surface,-93.7504,33.5432,286.996
2017-09-25 00:00:00,2017-09-25 00:00:00,TMP,surface,-92.8129,33.5432,287.054
2017-09-25 00:00:00,2017-09-25 00:00:00,TMP,surface,-107.813,34.4881,281.596
2017-09-25 00:00:00,2017-09-25 00:00:00,TMP,surface,-106.875,34.4881,283.41
2017-09-25 00:00:00,2017-09-25 00:00:00,TMP,surface,-105.938,34.4881,284.623
2017-09-25 00:00:00,2017-09-25 00:00:00,TMP,surface,-105,34.4881,285.935
2017-09-25 00:00:00,2017-09-25 00:00:00,TMP,surface,-104.063,34.4881,286.057
2017-09-25 00:00:00,2017-09-25 00:00:00,TMP,surface,-103.125,34.4881,285.226
2017-09-25 00:00:00,2017-09-25 00:00:00,TMP,surface,-102.188,34.4881,284.406
2017-09-25 00:00:00,2017-09-25 00:00:00,TMP,surface,-101.25,34.4881,284.156
2017-09-25 00:00:00,2017-09-25 00:00:00,TMP,surface,-100.313,34.4881,284.247
2017-09-25 00:00:00,2017-09-25 00:00:00,TMP,surface,-99.3754,34.4881,284.447
2017-09-25 00:00:00,2017-09-25 00:00:00,TMP,surface,-98.4379,34.4881,284.513
2017-09-25 00:00:00,2017-09-25 00:00:00,TMP,surface,-97.5004,34.4881,284.612
2017-09-25 00:00:00,2017-09-25 00:00:00,TMP,surface,-96.5629,34.4881,285.148
2017-09-25 00:00:00,2017-09-25 00:00:00,TMP,surface,-95.6254,34.4881,285.806
2017-09-25 00:00:00,2017-09-25 00:00:00,TMP,surface,-94.6879,34.4881,285.876
2017-09-25 00:00:00,2017-09-25 00:00:00,TMP,surface,-93.7504,34.4881,285.631
2017-09-25 00:00:00,2017-09-25 00:00:00,TMP,surface,-92.8129,34.4881,285.85
2017-09-25 00:00:00,2017-09-25 00:00:00,TMP,surface,-107.813,35.4329,281.439
2017-09-25 00:00:00,2017-09-25 00:00:00,TMP,surface,-106.875,35.4329,282.094
2017-09-25 00:00:00,2017-09-25 00:00:00,TMP,surface,-105.938,35.4329,282.567
2017-09-25 00:00:00,2017-09-25 00:00:00,TMP,surface,-105,35.4329,283.3
2017-09-25 00:00:00,2017-09-25 00:00:00,TMP,surface,-104.063,35.4329,284.228
2017-09-25 00:00:00,2017-09-25 00:00:00,TMP,surface,-103.125,35.4329,284.094
2017-09-25 00:00:00,2017-09-25 00:00:00,TMP,surface,-102.188,35.4329,283.318
2017-09-25 00:00:00,2017-09-25 00:00:00,TMP,surface,-101.25,35.4329,282.926
2017-09-25 00:00:00,2017-09-25 00:00:00,TMP,surface,-100.313,35.4329,282.89
2017-09-25 00:00:00,2017-09-25 00:00:00,TMP,surface,-99.3754,35.4329,282.962
2017-09-25 00:00:00,2017-09-25 00:00:00,TMP,surface,-98.4379,35.4329,283.204
2017-09-25 00:00:00,2017-09-25 00:00:00,TMP,surface,-97.5004,35.4329,283.607
2017-09-25 00:00:00,2017-09-25 00:00:00,TMP,surface,-96.5629,35.4329,284.012
2017-09-25 00:00:00,2017-09-25 00:00:00,TMP,surface,-95.6254,35.4329,284.398
2017-09-25 00:00:00,2017-09-25 00:00:00,TMP,surface,-94.6879,35.4329,284.582
2017-09-25 00:00:00,2017-09-25 00:00:00,TMP,surface,-93.7504,35.4329,284.351
2017-09-25 00:00:00,2017-09-25 00:00:00,TMP,surface,-92.8129,35.4329,284.476
2017-09-25 00:00:00,2017-09-25 00:00:00,TMP,surface,-107.813,36.3778,280.471
2017-09-25 00:00:00,2017-09-25 00:00:00,TMP,surface,-106.875,36.3778,279.05
2017-09-25 00:00:00,2017-09-25 00:00:00,TMP,surface,-105.938,36.3778,279.458
2017-09-25 00:00:00,2017-09-25 00:00:00,TMP,surface,-105,36.3778,280.564
2017-09-25 00:00:00,2017-09-25 00:00:00,TMP,surface,-104.063,36.3778,281.486
2017-09-25 00:00:00,2017-09-25 00:00:00,TMP,surface,-103.125,36.3778,281.511
2017-09-25 00:00:00,2017-09-25 00:00:00,TMP,surface,-102.188,36.3778,281.263
2017-09-25 00:00:00,2017-09-25 00:00:00,TMP,surface,-101.25,36.3778,281.356
2017-09-25 00:00:00,2017-09-25 00:00:00,TMP,surface,-100.313,36.3778,281.836
2017-09-25 00:00:00,2017-09-25 00:00:00,TMP,surface,-99.3754,36.3778,282.217
2017-09-25 00:00:00,2017-09-25 00:00:00,TMP,surface,-98.4379,36.3778,282.369
2017-09-25 00:00:00,2017-09-25 00:00:00,TMP,surface,-97.5004,36.3778,282.713
2017-09-25 00:00:00,2017-09-25 00:00:00,TMP,surface,-96.5629,36.3778,283.167
2017-09-25 00:00:00,2017-09-25 00:00:00,TMP,surface,-95.6254,36.3778,283.474
2017-09-25 00:00:00,2017-09-25 00:00:00,TMP,surface,-94.6879,36.3778,283.554
2017-09-25 00:00:00,2017-09-25 00:00:00,TMP,surface,-93.7504,36.3778,283.266
2017-09-25 00:00:00,2017-09-25 00:00:00,TMP,surface,-92.8129,36.3778,283.297
2017-09-25 00:00:00,2017-09-25 00:00:00,PRATE,surface,-107.813,25.0393,9.3e-06
2017-09-25 00:00:00,2017-09-25 00:00:00,PRATE,surface,-106.875,25.0393,1.33e-05
2017-09-25 00:00:00,2017-09-25 00:00:00,PRATE,surface,-105.938,25.0393,2.7e-05
2017-09-25 00:00:00,2017-09-25 00:00:00,PRATE,surface,-105,25.0393,2.99e-05
2017-09-25 00:00:00,2017-09-25 00:00:00,PRATE,surface,-104.063,25.0393,1.37e-05
2017-09-25 00:00:00,2017-09-25 00:00:00,PRATE,surface,-103.125,25.0393,7.5e-06
2017-09-25 00:00:00,2017-09-25 00:00:00,PRATE,surface,-102.188,25.0393,1.75e-05
2017-09-25 00:00:00,2017-09-25 00:00:00,PRATE,surface,-101.25,25.0393,4.94e-05
2017-09-25 00:00:00,2017-09-25 00:00:00,PRATE,surface,-100.313,25.0393,9.14e-05
2017-09-25 00:00:00,2017-09-25 00:00:00,PRATE,surface,-99.3754,25.0393,8.37e-05
2017-09-25 00:00:00,2017-09-25 00:00:00,PRATE,surface,-98.4379,25.0393,4.69e-05
2017-09-25 00:00:00,2017-09-25 00:00:00,PRATE,surface,-97.5004,25.0393,3.91e-05
2017-09-25 00:00:00,2017-09-25 00:00:00,PRATE,surface,-96.5629,25.0393,5.37e-05
2017-09-25 00:00:00,2017-09-25 00:00:00,PRATE,surface,-95.6254,25.0393,7.28e-05
2017-09-25 00:00:00,2017-09-25 00:00:00,PRATE,surface,-94.6879,25.0393,6.87e-05
2017-09-25 00:00:00,2017-09-25 00:00:00,PRATE,surface,-93.7504,25.0393,7.2e-05
2017-09-25 00:00:00,2017-09-25 00:00:00,PRATE,surface,-92.8129,25.0393,8.99e-05
2017-09-25 00:00:00,2017-09-25 00:00:00,PRATE,surface,-107.813,25.9842,1.2e-05
2017-09-25 00:00:00,2017-09-25 00:00:00,PRATE,surface,-106.875,25.9842,2.02e-05
2017-09-25 00:00:00,2017-09-25 00:00:00,PRATE,surface,-105.938,25.9842,3.61e-05
2017-09-25 00:00:00,2017-09-25 00:00:00,PRATE,surface,-105,25.9842,2.99e-05
2017-09-25 00:00:00,2017-09-25 00:00:00,PRATE,surface,-104.063,25.9842,7e-06
2017-09-25 00:00:00,2017-09-25 00:00:00,PRATE,surface,-103.125,25.9842,6e-06
2017-09-25 00:00:00,2017-09-25 00:00:00,PRATE,surface,-102.188,25.9842,1.32e-05
2017-09-25 00:00:00,2017-09-25 00:00:00,PRATE,surface,-101.25,25.9842,3.73e-05
2017-09-25 00:00:00,2017-09-25 00:00:00,PRATE,surface,-100.313,25.9842,8.03e-05
2017-09-25 00:00:00,2017-09-25 00:00:00,PRATE,surface,-99.3754,25.9842,7.98e-05
2017-09-25 00:00:00,2017-09-25 00:00:00,PRATE,surface,-98.4379,25.9842,6.53e-05
2017-09-25 00:00:00,2017-09-25 00:00:00,PRATE,surface,-97.5004,25.9842,5.62e-05
2017-09-25 00:00:00,2017-09-25 00:00:00,PRATE,surface,-96.5629,25.9842,6.04e-05
2017-09-25 00:00:00,2017-09-25 00:00:00,PRATE,surface,-95.6254,25.9842,6.69e-05
2017-09-25 00:00:00,2017-09-25 00:00:00,PRATE,surface,-94.6879,25.9842,8.08e-05
2017-09-25 00:00:00,2017-09-25 00:00:00,PRATE,surface,-93.7504,25.9842,9.05e-05
2017-09-25 00:00:00,2017-09-25 00:00:00,PRATE,surface,-92.8129,25.9842,0.000104
2017-09-25 00:00:00,2017-09-25 00:00:00,PRATE,surface,-107.813,26.929,1.55e-05
2017-09-25 00:00:00,2017-09-25 00:00:00,PRATE,surface,-106.875,26.929,3.16e-05
2017-09-25 00:00:00,2017-09-25 00:00:00,PRATE,surface,-105.938,26.929,4.11e-05
2017-09-25 00:00:00,2017-09-25 00:00:00,PRATE,surface,-105,26.929,2.26e-05
2017-09-25 00:00:00,2017-09-25 00:00:00,PRATE,surface,-104.063,26.929,8e-06
2017-09-25 00:00:00,2017-09-25 00:00:00,PRATE,surface,-103.125,26.929,1.34e-05
2017-09-25 00:00:00,2017-09-25 00:00:00,PRATE,surface,-102.188,26.929,1.95e-05
2017-09-25 00:00:00,2017-09-25 00:00:00,PRATE,surface,-101.25,26.929,3.13e-05
2017-09-25 00:00:00,2017-09-25 00:00:00,PRATE,surface,-100.313,26.929,4.5e-05
2017-09-25 00:00:00,2017-09-25 00:00:00,PRATE,surface,-99.3754,26.929,6.01e-05
2017-09-25 00:00:00,2017-09-25 00:00:00,PRATE,surface,-98.4379,26.929,7.2e-05
2017-09-25 00:00:00,2017-09-25 00:00:00,PRATE,surface,-97.5004,26.929,7.97e-05
2017-09-25 00:00:00,2017-09-25 00:00:00,PRATE,surface,-96.5629,26.929,7.26e-05
2017-09-25 00:00:00,2017-09-25 00:00:00,PRATE,surface,-95.6254,26.929,5.88e-05
2017-09-25 00:00:00,2017-09-25 00:00:00,PRATE,surface,-94.6879,26.929,5.8e-05
2017-09-25 00:00:00,2017-09-25 00:00:00,PRATE,surface,-93.7504,26.929,6.63e-05
2017-09-25 00:00:00,2017-09-25 00:00:00,PRATE,surface,-92.8129,26.929,8.24e-05
2017-09-25 00:00:00,2017-09-25 00:00:00,PRATE,surface,-107.813,27.8739,1.66e-05
2017-09-25 00:00:00,2017-09-25 00:00:00,PRATE,surface,-106.875,27.8739,2.66e-05
2017-09-25 00:00:00,2017-09-25 00:00:00,PRATE,surface,-105.938,27.8739,1.75e-05
2017-09-25 00:00:00,2017-09-25 00:00:00,PRATE,surface,-105,27.8739,1.07e-05
2017-09-25 00:00:00,2017-09-25 00:00:00,PRATE,surface,-104.063,27.8739,9.7e-06
2017-09-25 00:00:00,2017-09-25 00:00:00,PRATE,surface,-103.125,27.8739,2.12e-05
2017-09-25 00:00:00,2017-09-25 00:00:00,PRATE,surface,-102.188,27.8739,2.96e-05
2017-09-25 00:00:00,2017-09-25 00:00:00,PRATE,surface,-101.25,27.8739,2.58e-05
2017-09-25 00:00:00,2017-09-25 00:00:00,PRATE,surface,-100.313,27.8739,2.35e-05
2017-09-25 00:00:00,2017-09-25 00:00:00,PRATE,surface,-99.3754,27.8739,3.42e-05
2017-09-25 00:00:00,2017-09-25 00:00:00,PRATE,surface,-98.4379,27.8739,5.38e-05
2017-09-25 00:00:00,2017-09-25 00:00:00,PRATE,surface,-97.5004,27.8739,7.31e-05
2017-09-25 00:00:00,2017-09-25 00:00:00,PRATE,surface,-96.5629,27.8739,8.13e-05
2017-09-25 00:00:00,2017-09-25 00:00:00,PRATE,surface,-95.6254,27.8739,7.41e-05
2017-09-25 00:00:00,2017-09-25 00:00:00,PRATE,surface,-94.6879,27.8739,6.24e-05
2017-09-25 00:00:00,2017-09-25 00:00:00,PRATE,surface,-93.7504,27.8739,5.72e-05
2017-09-25 00:00:00,2017-09-25 00:00:00,PRATE,surface,-92.8129,27.8739,5.55e-05
2017-09-25 00:00:00,2017-09-25 00:00:00,PRATE,surface,-107.813,28.8188,9.2e-06
2017-09-25 00:00:00,2017-09-25 00:00:00,PRATE,surface,-106.875,28.8188,7.5e-06
2017-09-25 00:00:00,2017-09-25 00:00:00,PRATE,surface,-105.938,28.8188,6e-06
2017-09-25 00:00:00,2017-09-25 00:00:00,PRATE,surface,-105,28.8188,7.1e-06
2017-09-25 00:00:00,2017-09-25 00:00:00,PRATE,surface,-104.063,28.8188,9.2e-06
2017-09-25 00:00:00,2017-09-25 00:00:00,PRATE,surface,-103.125,28.8188,1.84e-05
2017-09-25 00:00:00,2017-09-25 00:00:00,PRATE,surface,-102.188,28.8188,2.58e-05
2017-09-25 00:00:00,2017-09-25 00:00:00,PRATE,surface,-101.25,28.8188,2.13e-05
2017-09-25 00:00:00,2017-09-25 00:00:00,PRATE,surface,-100.313,28.8188,1.87e-05
2017-09-25 00:00:00,2017-09-25 00:00:00,PRATE,surface,-99.3754,28.8188,2.47e-05
2017-09-25 00:00:00,2017-09-25 00:00:00,PRATE,surface,-98.4379,28.8188,3.85e-05
2017-09-25 00:00:00,2017-09-25 00:00:00,PRATE,surface,-97.5004,28.8188,5.42e-05
2017-09-25 00:00:00,2017-09-25 00:00:00,PRATE,surface,-96.5629,28.8188,6.59e-05
2017-09-25 00:00:00,2017-09-25 00:00:00,PRATE,surface,-95.6254,28.8188,7.35e-05
2017-09-25 00:00:00,2017-09-25 00:00:00,PRATE,surface,-94.6879,28.8188,7.67e-05
2017-09-25 00:00:00,2017-09-25 00:00:00,PRATE,surface,-93.7504,28.8188,6.99e-05
2017-09-25 00:00:00,2017-09-25 00:00:00,PRATE,surface,-92.8129,28.8188,6.05e-05
2017-09-25 00:00:00,2017-09-25 00:00:00,PRATE,surface,-107.813,29.7637,3.5e-06
2017-09-25 00:00:00,2017-09-25 00:00:00,PRATE,surface,-106.875,29.7637,4.4e-06
2017-09-25 00:00:00,2017-09-25 00:00:00,PRATE,surface,-105.938,29.7637,5.3e-06
2017-09-25 00:00:00,2017-09-25 00:00:00,PRATE,surface,-105,29.7637,1.06e-05
2017-09-25 00:00:00,2017-09-25 00:00:00,PRATE,surface,-104.063,29.7637,1.22e-05
2017-09-25 00:00:00,2017-09-25 00:00:00,PRATE,surface,-103.125,29.7637,1.44e-05
2017-09-25 00:00:00,2017-09-25 00:00:00,PRATE,surface,-102.188,29.7637,1.49e-05
2017-09-25 00:00:00,2017-09-25 00:00:00,PRATE,surface,-101.25,29.7637,1.63e-05
2017-09-25 00:00:00,2017-09-25 00:00:00,PRATE,surface,-100.313,29.7637,1.89e-05
2017-09-25 00:00:00,2017-09-25 00:00:00,PRATE,surface,-99.3754,29.7637,2.02e-05
2017-09-25 00:00:00,2017-09-25 00:00:00,PRATE,surface,-98.4379,29.7637,2.54e-05
2017-09-25 00:00:00,2017-09-25 00:00:00,PRATE,surface,-97.5004,29.7637,3.86e-05
2017-09-25 00:00:00,2017-09-25 00:00:00,PRATE,surface,-96.5629,29.7637,5.61e-05
2017-09-25 00:00:00,2017-09-25 00:00:00,PRATE,surface,-95.6254,29.7637,7e-05
2017-09-25 00:00:00,2017-09-25 00:00:00,PRATE,surface,-94.6879,29.7637,7.7e-05
2017-09-25 00:00:00,2017-09-25 00:00:00,PRATE,surface,-93.7504,29.7637,7.99e-05
2017-09-25 00:00:00,2017-09-25 00:00:00,PRATE,surface,-92.8129,29.7637,8.08e-05
2017-09-25 00:00:00,2017-09-25 00:00:00,PRATE,surface,-107.813,30.7085,1.3e-06
2017-09-25 00:00:00,2017-09-25 00:00:00,PRATE,surface,-106.875,30.7085,1.8e-06
2017-09-25 00:00:00,2017-09-25 00:00:00,PRATE,surface,-105.938,30.7085,5e-06
2017-09-25 00:00:00,2017-09-25 00:00:00,PRATE,surface,-105,30.7085,1.6e-05
2017-09-25 00:00:00,2017-09-25 00:00:00,PRATE,surface,-104.063,30.7085,1.72e-05
2017-09-25 00:00:00,2017-09-25 00:00:00,PRATE,surface,-103.125,30.7085,1.78e-05
2017-09-25 00:00:00,2017-09-25 00:00:00,PRATE,surface,-102.188,30.7085,1.65e-05
2017-09-25 00:00:00,2017-09-25 00:00:00,PRATE,surface,-101.25,30.7085,1.98e-05
2017-09-25 00:00:00,2017-09-25 00:00:00,PRATE,surface,-100.313,30.7085,2.33e-05
2017-09-25 00:00:00,2017-09-25 00:00:00,PRATE,surface,-99.3754,30.7085,2.42e-05
2017-09-25 00:00:00,2017-09-25 00:00:00,PRATE,surface,-98.4379,30.7085,2.43e-05
2017-09-25 00:00:00,2017-09-25 00:00:00,PRATE,surface,-97.5004,30.7085,2.97e-05
2017-09-25 00:00:00,2017-09-25 00:00:00,PRATE,surface,-96.5629,30.7085,4.17e-05
2017-09-25 00:00:00,2017-09-25 00:00:00,PRATE,surface,-95.6254,30.7085,5.46e-05
2017-09-25 00:00:00,2017-09-25 00:00:00,PRATE,surface,-94.6879,30.7085,6.36e-05
2017-09-25 00:00:00,2017-09-25 00:00:00,PRATE,surface,-93.7504,30.7085,7.02e-05
2017-09-25 00:00:00,2017-09-25 00:00:00,PRATE,surface,-92.8129,30.7085,8.05e-05
2017-09-25 00:00:00,2017-09-25 00:00:00,PRATE,surface,-107.813,31.6534,5e-07
2017-09-25 00:00:00,2017-09-25 00:00:00,PRATE,surface,-106.875,31.6534,5e-07
2017-09-25 00:00:00,2017-09-25 00:00:00,PRATE,surface,-105.938,31.6534,3.2e-06
2017-09-25 00:00:00,2017-09-25 00:00:00,PRATE,surface,-105,31.6534,1.44e-05
2017-09-25 00:00:00,2017-09-25 00:00:00,PRATE,surface,-104.063,31.6534,1.96e-05
2017-09-25 00:00:00,2017-09-25 00:00:00,PRATE,surface,-103.125,31.6534,2.14e-05
2017-09-25 00:00:00,2017-09-25 00:00:00,PRATE,surface,-102.188,31.6534,1.89e-05
2017-09-25 00:00:00,2017-09-25 00:00:00,PRATE,surface,-101.25,31.6534,1.79e-05
2017-09-25 00:00:00,2017-09-25 00:00:00,PRATE,surface,-100.313,31.6534,1.91e-05
2017-09-25 00:00:00,2017-09-25 00:00:00,PRATE,surface,-99.3754,31.6534,1.81e-05
2017-09-25 00:00:00,2017-09-25 00:00:00,PRATE,surface,-98.4379,31.6534,1.94e-05
2017-09-25 00:00:00,2017-09-25 00:00:00,PRATE,surface,-97.5004,31.6534,2.39e-05
2017-09-25 00:00:00,2017-09-25 00:00:00,PRATE,surface,-96.5629,31.6534,3.37e-05
2017-09-25 00:00:00,2017-09-25 00:00:00,PRATE,surface,-95.6254,31.6534,4.83e-05
2017-09-25 00:00:00,2017-09-25 00:00:00,PRATE,surface,-94.6879,31.6534,5.74e-05
2017-09-25 00:00:00,2017-09-25 00:00:00,PRATE,surface,-93.7504,31.6534,5.72e-05
2017-09-25 00:00:00,2017-09-25 00:00:00,PRATE,surface,-92.8129,31.6534,6.06e-05
2017-09-25 00:00:00,2017-09-25 00:00:00,PRATE,surface,-107.813,32.5983,1.4e-06
2017-09-25 00:00:00,2017-09-25 00:00:00,PRATE,surface,-106.875,32.5983,1.7e-06
2017-09-25 00:00:00,2017-09-25 00:00:00,PRATE,surface,-105.938,32.5983,3.2e-06
2017-09-25 00:00:00,2017-09-25 00:00:00,PRATE,surface,-105,32.5983,1.02e-05
2017-09-25 00:00:00,2017-09-25 00:00:00,PRATE,surface,-104.063,32.5983,1.17e-05
2017-09-25 00:00:00,2017-09-25 00:00:00,PRATE,surface,-103.125,32.5983,1.63e-05
2017-09-25 00:00:00,2017-09-25 00:00:00,PRATE,surface,-102.188,32.5983,1.64e-05
2017-09-25 00:00:00,2017-09-25 00:00:00,PRATE,surface,-101.25,32.5983,1.68e-05
2017-09-25 00:00:00,2017-09-25 00:00:00,PRATE,surface,-100.313,32.5983,1.67e-05
2017-09-25 00:00:00,2017-09-25 00:00:00,PRATE,surface,-99.3754,32.5983,1.59e-05
2017-09-25 00:00:00,2017-09-25 00:00:00,PRATE,surface,-98.4379,32.5983,1.67e-05
2017-09-25 00:00:00,2017-09-25 00:00:00,PRATE,surface,-97.5004,32.5983,2.33e-05
2017-09-25 00:00:00,2017-09-25 00:00:00,PRATE,surface,-96.5629,32.5983,3.31e-05
2017-09-25 00:00:00,2017-09-25 00:00:00,PRATE,surface,-95.6254,32.5983,4.55e-05
2017-09-25 00:00:00,2017-09-25 00:00:00,PRATE,surface,-94.6879,32.5983,5.72e-05
2017-09-25 00:00:00,2017-09-25 00:00:00,PRATE,surface,-93.7504,32.5983,5.4e-05
2017-09-25 00:00:00,2017-09-25 00:00:00,PRATE,surface,-92.8129,32.5983,4.49e-05
2017-09-25 00:00:00,2017-09-25 00:00:00,PRATE,surface,-107.813,33.5432,6.1e-06
2017-09-25 00:00:00,2017-09-25 00:00:00,PRATE,surface,-106.875,33.5432,5.8e-06
2017-09-25 00:00:00,2017-09-25 00:00:00,PRATE,surface,-105.938,33.5432,7.1e-06
2017-09-25 00:00:00,2017-09-25 00:00:00,PRATE,surface,-105,33.5432,6.6e-06
2017-09-25 00:00:00,2017-09-25 00:00:00,PRATE,surface,-104.063,33.5432,7.8e-06
2017-09-25 00:00:00,2017-09-25 00:00:00,PRATE,surface,-103.125,33.5432,9.7e-06
2017-09-25 00:00:00,2017-09-25 00:00:00,PRATE,surface,-102.188,33.5432,1.31e-05
2017-09-25 00:00:00,2017-09-25 00:00:00,PRATE,surface,-101.25,33.5432,1.56e-05
2017-09-25 00:00:00,2017-09-25 00:00:00,PRATE,surface,-100.313,33.5432,1.51e-05
2017-09-25 00:00:00,2017-09-25 00:00:00,PRATE,surface,-99.3754,33.5432,1.45e-05
2017-09-25 00:00:00,2017-09-25 00:00:00,PRATE,surface,-98.4379,33.5432,1.46e-05
2017-09-25 00:00:00,2017-09-25 00:00:00,PRATE,surface,-97.5004,33.5432,1.97e-05
2017-09-25 00:00:00,2017-09-25 00:00:00,PRATE,surface,-96.5629,33.5432,2.86e-05
2017-09-25 00:00:00,2017-09-25 00:00:00,PRATE,surface,-95.6254,33.5432,3.73e-05
2017-09-25 00:00:00,2017-09-25 00:00:00,PRATE,surface,-94.6879,33.5432,4.64e-05
2017-09-25 00:00:00,2017-09-25 00:00:00,PRATE,surface,-93.7504,33.5432,4.97e-05
2017-09-25 00:00:00,2017-09-25 00:00:00,PRATE,surface,-92.8129,33.5432,4.35e-05
2017-09-25 00:00:00,2017-09-25 00:00:00,PRATE,surface,-107.813,34.4881,1.06e-05
2017-09-25 00:00:00,2017-09-25 00:00:00,PRATE,surface,-106.875,34.4881,1.07e-05
2017-09-25 00:00:00,2017-09-25 00:00:00,PRATE,surface,-105.938,34.4881,1.31e-05
2017-09-25 00:00:00,2017-09-25 00:00:00,PRATE,surface,-105,34.4881,1.04e-05
2017-09-25 00:00:00,2017-09-25 00:00:00,PRATE,surface,-104.063,34.4881,9.2e-06
2017-09-25 00:00:00,2017-09-25 00:00:00,PRATE,surface,-103.125,34.4881,1.03e-05
2017-09-25 00:00:00,2017-09-25 00:00:00,PRATE,surface,-102.188,34.4881,1.2e-05
2017-09-25 00:00:00,2017-09-25 00:00:00,PRATE,surface,-101.25,34.4881,1.45e-05
2017-09-25 00:00:00,2017-09-25 00:00:00,PRATE,surface,-100.313,34.4881,1.8e-05
2017-09-25 00:00:00,2017-09-25 00:00:00,PRATE,surface,-99.3754,34.4881,2.14e-05
2017-09-25 00:00:00,2017-09-25 00:00:00,PRATE,surface,-98.4379,34.4881,2.3e-05
2017-09-25 00:00:00,2017-09-25 00:00:00,PRATE,surface,-97.5004,34.4881,2.31e-05
2017-09-25 00:00:00,2017-09-25 00:00:00,PRATE,surface,-96.5629,34.4881,2.21e-05
2017-09-25 00:00:00,2017-09-25 00:00:00,PRATE,surface,-95.6254,34.4881,2.42e-05
2017-09-25 00:00:00,2017-09-25 00:00:00,PRATE,surface,-94.6879,34.4881,3.25e-05
2017-09-25 00:00:00,2017-09-25 00:00:00,PRATE,surface,-93.7504,34.4881,3.86e-05
2017-09-25 00:00:00,2017-09-25 00:00:00,PRATE,surface,-92.8129,34.4881,4.09e-05
2017-09-25 00:00:00,2017-09-25 00:00:00,PRATE,surface,-107.813,35.4329,1.53e-05
2017-09-25 00:00:00,2017-09-25 00:00:00,PRATE,surface,-106.875,35.4329,1.5e-05
2017-09-25 00:00:00,2017-09-25 00:00:00,PRATE,surface,-105.938,35.4329,1.96e-05
2017-09-25 00:00:00,2017-09-25 00:00:00,PRATE,surface,-105,35.4329,2.1e-05
2017-09-25 00:00:00,2017-09-25 00:00:00,PRATE,surface,-104.063,35.4329,2.2e-05
2017-09-25 00:00:00,2017-09-25 00:00:00,PRATE,surface,-103.125,35.4329,1.94e-05
2017-09-25 00:00:00,2017-09-25 00:00:00,PRATE,surface,-102.188,35.4329,1.62e-05
2017-09-25 00:00:00,2017-09-25 00:00:00,PRATE,surface,-101.25,35.4329,1.98e-05
2017-09-25 00:00:00,2017-09-25 00:00:00,PRATE,surface,-100.313,35.4329,2.7e-05
2017-09-25 00:00:00,2017-09-25 00:00:00,PRATE,surface,-99.3754,35.4329,3.92e-05
2017-09-25 00:00:00,2017-09-25 00:00:00,PRATE,surface,-98.4379,35.4329,4.96e-05
2017-09-25 00:00:00,2017-09-25 00:00:00,PRATE,surface,-97.5004,35.4329,4.69e-05
2017-09-25 00:00:00,2017-09-25 00:00:00,PRATE,surface,-96.5629,35.4329,3.78e-05
2017-09-25 00:00:00,2017-09-25 00:00:00,PRATE,surface,-95.6254,35.4329,3.16e-05
2017-09-25 00:00:00,2017-09-25 00:00:00,PRATE,surface,-94.6879,35.4329,3.01e-05
2017-09-25 00:00:00,2017-09-25 00:00:00,PRATE,surface,-93.7504,35.4329,3.63e-05
2017-09-25 00:00:00,2017-09-25 00:00:00,PRATE,surface,-92.8129,35.4329,3.86e-05
2017-09-25 00:00:00,2017-09-25 00:00:00,PRATE,surface,-107.813,36.3778,2.82e-05
2017-09-25 00:00:00,2017-09-25 00:00:00,PRATE,surface,-106.875,36.3778,2.89e-05
2017-09-25 00:00:00,2017-09-25 00:00:00,PRATE,surface,-105.938,36.3778,3.63e-05
2017-09-25 00:00:00,2017-09-25 00:00:00,PRATE,surface,-105,36.3778,3.74e-05
2017-09-25 00:00:00,2017-09-25 00:00:00,PRATE,surface,-104.063,36.3778,4.22e-05
2017-09-25 00:00:00,2017-09-25 00:00:00,PRATE,surface,-103.125,36.3778,3.45e-05
2017-09-25 00:00:00,2017-09-25 00:00:00,PRATE,surface,-102.188,36.3778,3.09e-05
2017-09-25 00:00:00,2017-09-25 00:00:00,PRATE,surface,-101.25,36.3778,3.31e-05
2017-09-25 00:00:00,2017-09-25 00:00:00,PRATE,surface,-100.313,36.3778,3.88e-05
2017-09-25 00:00:00,2017-09-25 00:00:00,PRATE,surface,-99.3754,36.3778,5.3e-05
2017-09-25 00:00:00,2017-09-25 00:00:00,PRATE,surface,-98.4379,36.3778,6.61e-05
2017-09-25 00:00:00,2017-09-25 00:00:00,PRATE,surface,-97.5004,36.3778,6.9e-05
2017-09-25 00:00:00,2017-09-25 00:00:00,PRATE,surface,-96.5629,36.3778,6.36e-05
2017-09-25 00:00:00,2017-09-25 00:00:00,PRATE,surface,-95.6254,36.3778,5.39e-05
2017-09-25 00:00:00,2017-09-25 00:00:00,PRATE,surface,-94.6879,36.3778,4.63e-05
2017-09-25 00:00:00,2017-09-25 00:00:00,PRATE,surface,-93.7504,36.3778,4.66e-05
2017-09-25 00:00:00,2017-09-25 00:00:00,PRATE,surface,-92.8129,36.3778,4.73e-05
