2013-01-08 00:00:00,2013-01-08 00:00:00,TMP,surface,-107.813,25.0393,301.139
2013-01-08 00:00:00,2013-01-08 00:00:00,TMP,surface,-106.875,25.0393,294.288
2013-01-08 00:00:00,2013-01-08 00:00:00,TMP,surface,-105.938,25.0393,289.952
2013-01-08 00:00:00,2013-01-08 00:00:00,TMP,surface,-105,25.0393,288.094
2013-01-08 00:00:00,2013-01-08 00:00:00,TMP,surface,-104.063,25.0393,291.961
2013-01-08 00:00:00,2013-01-08 00:00:00,TMP,surface,-103.125,25.0393,295.068
2013-01-08 00:00:00,2013-01-08 00:00:00,TMP,surface,-102.188,25.0393,294.409
2013-01-08 00:00:00,2013-01-08 00:00:00,TMP,surface,-101.25,25.0393,292.1
2013-01-08 00:00:00,2013-01-08 00:00:00,TMP,surface,-100.313,25.0393,292.822
2013-01-08 00:00:00,2013-01-08 00:00:00,TMP,surface,-99.3754,25.0393,297.049
2013-01-08 00:00:00,2013-01-08 00:00:00,TMP,surface,-98.4379,25.0393,300.776
2013-01-08 00:00:00,2013-01-08 00:00:00,TMP,surface,-97.5004,25.0393,302.622
2013-01-08 00:00:00,2013-01-08 00:00:00,TMP,surface,-96.5629,25.0393,302.79
2013-01-08 00:00:00,2013-01-08 00:00:00,TMP,surface,-95.6254,25.0393,302.907
2013-01-08 00:00:00,2013-01-08 00:00:00,TMP,surface,-94.6879,25.0393,302.945
2013-01-08 00:00:00,2013-01-08 00:00:00,TMP,surface,-93.7504,25.0393,302.788
2013-01-08 00:00:00,2013-01-08 00:00:00,TMP,surface,-92.8129,25.0393,302.672
2013-01-08 00:00:00,2013-01-08 00:00:00,TMP,surface,-107.813,25.9842,295.993
2013-01-08 00:00:00,2013-01-08 00:00:00,TMP,surface,-106.875,25.9842,290.929
2013-01-08 00:00:00,2013-01-08 00:00:00,TMP,surface,-105.938,25.9842,288.614
2013-01-08 00:00:00,2013-01-08 00:00:00,TMP,surface,-105,25.9842,289.632
2013-01-08 00:00:00,2013-01-08 00:00:00,TMP,surface,-104.063,25.9842,295.02
2013-01-08 00:00:00,2013-01-08 00:00:00,TMP,surface,-103.125,25.9842,297.297
2013-01-08 00:00:00,2013-01-08 00:00:00,TMP,surface,-102.188,25.9842,296.449
2013-01-08 00:00:00,2013-01-08 00:00:00,TMP,surface,-101.25,25.9842,295.52
2013-01-08 00:00:00,2013-01-08 00:00:00,TMP,surface,-100.313,25.9842,296.819
2013-01-08 00:00:00,2013-01-08 00:00:00,TMP,surface,-99.3754,25.9842,300.536
2013-01-08 00:00:00,2013-01-08 00:00:00,TMP,surface,-98.4379,25.9842,302.123
2013-01-08 00:00:00,2013-01-08 00:00:00,TMP,surface,-97.5004,25.9842,301.436
2013-01-08 00:00:00,2013-01-08 00:00:00,TMP,surface,-96.5629,25.9842,302.112
2013-01-08 00:00:00,2013-01-08 00:00:00,TMP,surface,-95.6254,25.9842,302.587
2013-01-08 00:00:00,2013-01-08 00:00:00,TMP,surface,-94.6879,25.9842,302.6
2013-01-08 00:00:00,2013-01-08 00:00:00,TMP,surface,-93.7504,25.9842,302.54
2013-01-08 00:00:00,2013-01-08 00:00:00,TMP,surface,-92.8129,25.9842,302.571
2013-01-08 00:00:00,2013-01-08 00:00:00,TMP,surface,-107.813,26.929,291.564
2013-01-08 00:00:00,2013-01-08 00:00:00,TMP,surface,-106.875,26.929,288.972
2013-01-08 00:00:00,2013-01-08 00:00:00,TMP,surface,-105.938,26.929,289.676
2013-01-08 00:00:00,2013-01-08 00:00:00,TMP,surface,-105,26.929,293.137
2013-01-08 00:00:00,2013-01-08 00:00:00,TMP,surface,-104.063,26.929,296.129
2013-01-08 00:00:00,2013-01-08 00:00:00,TMP,surface,-103.125,26.929,296.166
2013-01-08 00:00:00,2013-01-08 00:00:00,TMP,surface,-102.188,26.929,295.857
2013-01-08 00:00:00,2013-01-08 00:00:00,TMP,surface,-101.25,26.929,297.32
2013-01-08 00:00:00,2013-01-08 00:00:00,TMP,surface,-100.313,26.929,300.313
2013-01-08 00:00:00,2013-01-08 00:00:00,TMP,surface,-99.3754,26.929,302.34
2013-01-08 00:00:00,2013-01-08 00:00:00,TMP,surface,-98.4379,26.929,301.59
2013-01-08 00:00:00,2013-01-08 00:00:00,TMP,surface,-97.5004,26.929,300.585
2013-01-08 00:00:00,2013-01-08 00:00:00,TMP,surface,-96.5629,26.929,301.452
2013-01-08 00:00:00,2013-01-08 00:00:00,TMP,surface,-95.6254,26.929,302.422
2013-01-08 00:00:00,2013-01-08 00:00:00,TMP,surface,-94.6879,26.929,302.596
2013-01-08 00:00:00,2013-01-08 00:00:00,TMP,surface,-93.7504,26.929,302.496
2013-01-08 00:00:00,2013-01-08 00:00:00,TMP,surface,-92.8129,26.929,302.392
2013-01-08 00:00:00,2013-01-08 00:00:00,TMP,surface,-107.813,27.8739,289.616
2013-01-08 00:00:00,2013-01-08 00:00:00,TMP,surface,-106.875,27.8739,288.422
2013-01-08 00:00:00,2013-01-08 00:00:00,TMP,surface,-105.938,27.8739,291.36
2013-01-08 00:00:00,2013-01-08 00:00:00,TMP,surface,-105,27.8739,295.104
2013-01-08 00:00:00,2013-01-08 00:00:00,TMP,surface,-104.063,27.8739,295.755
2013-01-08 00:00:00,2013-01-08 00:00:00,TMP,surface,-103.125,27.8739,294.732
2013-01-08 00:00:00,2013-01-08 00:00:00,TMP,surface,-102.188,27.8739,294.8
2013-01-08 00:00:00,2013-01-08 00:00:00,TMP,surface,-101.25,27.8739,298.032
2013-01-08 00:00:00,2013-01-08 00:00:00,TMP,surface,-100.313,27.8739,301.025
2013-01-08 00:00:00,2013-01-08 00:00:00,TMP,surface,-99.3754,27.8739,301.795
2013-01-08 00:00:00,2013-01-08 00:00:00,TMP,surface,-98.4379,27.8739,300.873
2013-01-08 00:00:00,2013-01-08 00:00:00,TMP,surface,-97.5004,27.8739,300.852
2013-01-08 00:00:00,2013-01-08 00:00:00,TMP,surface,-96.5629,27.8739,301.697
2013-01-08 00:00:00,2013-01-08 00:00:00,TMP,surface,-95.6254,27.8739,302.078
2013-01-08 00:00:00,2013-01-08 00:00:00,TMP,surface,-94.6879,27.8739,302.316
2013-01-08 00:00:00,2013-01-08 00:00:00,TMP,surface,-93.7504,27.8739,302.344
2013-01-08 00:00:00,2013-01-08 00:00:00,TMP,surface,-92.8129,27.8739,302.216
2013-01-08 00:00:00,2013-01-08 00:00:00,TMP,surface,-107.813,28.8188,288.211
2013-01-08 00:00:00,2013-01-08 00:00:00,TMP,surface,-106.875,28.8188,288.838
2013-01-08 00:00:00,2013-01-08 00:00:00,TMP,surface,-105.938,28.8188,293.198
2013-01-08 00:00:00,2013-01-08 00:00:00,TMP,surface,-105,28.8188,295.92
2013-01-08 00:00:00,2013-01-08 00:00:00,TMP,surface,-104.063,28.8188,294.849
2013-01-08 00:00:00,2013-01-08 00:00:00,TMP,surface,-103.125,28.8188,294.142
2013-01-08 00:00:00,2013-01-08 00:00:00,TMP,surface,-102.188,28.8188,295.059
2013-01-08 00:00:00,2013-01-08 00:00:00,TMP,surface,-101.25,28.8188,297.977
2013-01-08 00:00:00,2013-01-08 00:00:00,TMP,surface,-100.313,28.8188,300.174
2013-01-08 00:00:00,2013-01-08 00:00:00,TMP,surface,-99.3754,28.8188,300.451
2013-01-08 00:00:00,2013-01-08 00:00:00,TMP,surface,-98.4379,28.8188,299.731
2013-01-08 00:00:00,2013-01-08 00:00:00,TMP,surface,-97.5004,28.8188,299.238
2013-01-08 00:00:00,2013-01-08 00:00:00,TMP,surface,-96.5629,28.8188,299.302
2013-01-08 00:00:00,2013-01-08 00:00:00,TMP,surface,-95.6254,28.8188,300.08
2013-01-08 00:00:00,2013-01-08 00:00:00,TMP,surface,-94.6879,28.8188,301.206
2013-01-08 00:00:00,2013-01-08 00:00:00,TMP,surface,-93.7504,28.8188,301.531
2013-01-08 00:00:00,2013-01-08 00:00:00,TMP,surface,-92.8129,28.8188,301.488
2013-01-08 00:00:00,2013-01-08 00:00:00,TMP,surface,-107.813,29.7637,289.948
2013-01-08 00:00:00,2013-01-08 00:00:00,TMP,surface,-106.875,29.7637,291.187
2013-01-08 00:00:00,2013-01-08 00:00:00,TMP,surface,-105.938,29.7637,294.505
2013-01-08 00:00:00,2013-01-08 00:00:00,TMP,surface,-105,29.7637,295.368
2013-01-08 00:00:00,2013-01-08 00:00:00,TMP,surface,-104.063,29.7637,295.075
2013-01-08 00:00:00,2013-01-08 00:00:00,TMP,surface,-103.125,29.7637,295.278
2013-01-08 00:00:00,2013-01-08 00:00:00,TMP,surface,-102.188,29.7637,296.558
2013-01-08 00:00:00,2013-01-08 00:00:00,TMP,surface,-101.25,29.7637,297.772
2013-01-08 00:00:00,2013-01-08 00:00:00,TMP,surface,-100.313,29.7637,298.238
2013-01-08 00:00:00,2013-01-08 00:00:00,TMP,surface,-99.3754,29.7637,298.02
2013-01-08 00:00:00,2013-01-08 00:00:00,TMP,surface,-98.4379,29.7637,298.19
2013-01-08 00:00:00,2013-01-08 00:00:00,TMP,surface,-97.5004,29.7637,298.785
2013-01-08 00:00:00,2013-01-08 00:00:00,TMP,surface,-96.5629,29.7637,299.072
2013-01-08 00:00:00,2013-01-08 00:00:00,TMP,surface,-95.6254,29.7637,299.004
2013-01-08 00:00:00,2013-01-08 00:00:00,TMP,surface,-94.6879,29.7637,299.464
2013-01-08 00:00:00,2013-01-08 00:00:00,TMP,surface,-93.7504,29.7637,300.256
2013-01-08 00:00:00,2013-01-08 00:00:00,TMP,surface,-92.8129,29.7637,299.26
2013-01-08 00:00:00,2013-01-08 00:00:00,TMP,surface,-107.813,30.7085,294.283
2013-01-08 00:00:00,2013-01-08 00:00:00,TMP,surface,-106.875,30.7085,295.147
2013-01-08 00:00:00,2013-01-08 00:00:00,TMP,surface,-105.938,30.7085,295.238
2013-01-08 00:00:00,2013-01-08 00:00:00,TMP,surface,-105,30.7085,294.793
2013-01-08 00:00:00,2013-01-08 00:00:00,TMP,surface,-104.063,30.7085,294.521
2013-01-08 00:00:00,2013-01-08 00:00:00,TMP,surface,-103.125,30.7085,295.808
2013-01-08 00:00:00,2013-01-08 00:00:00,TMP,surface,-102.188,30.7085,296.828
2013-01-08 00:00:00,2013-01-08 00:00:00,TMP,surface,-101.25,30.7085,296.899
2013-01-08 00:00:00,2013-01-08 00:00:00,TMP,surface,-100.313,30.7085,296.611
2013-01-08 00:00:00,2013-01-08 00:00:00,TMP,surface,-99.3754,30.7085,296.88
2013-01-08 00:00:00,2013-01-08 00:00:00,TMP,surface,-98.4379,30.7085,297.808
2013-01-08 00:00:00,2013-01-08 00:00:00,TMP,surface,-97.5004,30.7085,298.801
2013-01-08 00:00:00,2013-01-08 00:00:00,TMP,surface,-96.5629,30.7085,299.028
2013-01-08 00:00:00,2013-01-08 00:00:00,TMP,surface,-95.6254,30.7085,298.472
2013-01-08 00:00:00,2013-01-08 00:00:00,TMP,surface,-94.6879,30.7085,297.969
2013-01-08 00:00:00,2013-01-08 00:00:00,TMP,surface,-93.7504,30.7085,297.854
2013-01-08 00:00:00,2013-01-08 00:00:00,TMP,surface,-92.8129,30.7085,297.75
2013-01-08 00:00:00,2013-01-08 00:00:00,TMP,surface,-107.813,31.6534,295.723
2013-01-08 00:00:00,2013-01-08 00:00:00,TMP,surface,-106.875,31.6534,295.998
2013-01-08 00:00:00,2013-01-08 00:00:00,TMP,surface,-105.938,31.6534,294.876
2013-01-08 00:00:00,2013-01-08 00:00:00,TMP,surface,-105,31.6534,294.696
2013-01-08 00:00:00,2013-01-08 00:00:00,TMP,surface,-104.063,31.6534,295.19
2013-01-08 00:00:00,2013-01-08 00:00:00,TMP,surface,-103.125,31.6534,296.096
2013-01-08 00:00:00,2013-01-08 00:00:00,TMP,surface,-102.188,31.6534,296.366
2013-01-08 00:00:00,2013-01-08 00:00:00,TMP,surface,-101.25,31.6534,296.076
2013-01-08 00:00:00,2013-01-08 00:00:00,TMP,surface,-100.313,31.6534,296.057
2013-01-08 00:00:00,2013-01-08 00:00:00,TMP,surface,-99.3754,31.6534,297.017
2013-01-08 00:00:00,2013-01-08 00:00:00,TMP,surface,-98.4379,31.6534,298.358
2013-01-08 00:00:00,2013-01-08 00:00:00,TMP,surface,-97.5004,31.6534,299.307
2013-01-08 00:00:00,2013-01-08 00:00:00,TMP,surface,-96.5629,31.6534,299.408
2013-01-08 00:00:00,2013-01-08 00:00:00,TMP,surface,-95.6254,31.6534,298.756
2013-01-08 00:00:00,2013-01-08 00:00:00,TMP,surface,-94.6879,31.6534,298.052
2013-01-08 00:00:00,2013-01-08 00:00:00,TMP,surface,-93.7504,31.6534,297.755
2013-01-08 00:00:00,2013-01-08 00:00:00,TMP,surface,-92.8129,31.6534,297.624
2013-01-08 00:00:00,2013-01-08 00:00:00,TMP,surface,-107.813,32.5983,292.608
2013-01-08 00:00:00,2013-01-08 00:00:00,TMP,surface,-106.875,32.5983,292.928
2013-01-08 00:00:00,2013-01-08 00:00:00,TMP,surface,-105.938,32.5983,293.387
2013-01-08 00:00:00,2013-01-08 00:00:00,TMP,surface,-105,32.5983,293.856
2013-01-08 00:00:00,2013-01-08 00:00:00,TMP,surface,-104.063,32.5983,295.212
2013-01-08 00:00:00,2013-01-08 00:00:00,TMP,surface,-103.125,32.5983,295.784
2013-01-08 00:00:00,2013-01-08 00:00:00,TMP,surface,-102.188,32.5983,295.416
2013-01-08 00:00:00,2013-01-08 00:00:00,TMP,surface,-101.25,32.5983,295.44
2013-01-08 00:00:00,2013-01-08 00:00:00,TMP,surface,-100.313,32.5983,296.492
2013-01-08 00:00:00,2013-01-08 00:00:00,TMP,surface,-99.3754,32.5983,298.044
2013-01-08 00:00:00,2013-01-08 00:00:00,TMP,surface,-98.4379,32.5983,299.12
2013-01-08 00:00:00,2013-01-08 00:00:00,TMP,surface,-97.5004,32.5983,299.584
2013-01-08 00:00:00,2013-01-08 00:00:00,TMP,surface,-96.5629,32.5983,299.608
2013-01-08 00:00:00,2013-01-08 00:00:00,TMP,surface,-95.6254,32.5983,299.198
2013-01-08 00:00:00,2013-01-08 00:00:00,TMP,surface,-94.6879,32.5983,298.473
2013-01-08 00:00:00,2013-01-08 00:00:00,TMP,surface,-93.7504,32.5983,297.752
2013-01-08 00:00:00,2013-01-08 00:00:00,TMP,surface,-92.8129,32.5983,297.492
2013-01-08 00:00:00,2013-01-08 00:00:00,TMP,surface,-107.813,33.5432,288.916
2013-01-08 00:00:00,2013-01-08 00:00:00,TMP,surface,-106.875,33.5432,290.355
2013-01-08 00:00:00,2013-01-08 00:00:00,TMP,surface,-105.938,33.5432,291.609
2013-01-08 00:00:00,2013-01-08 00:00:00,TMP,surface,-105,33.5432,293.137
2013-01-08 00:00:00,2013-01-08 00:00:00,TMP,surface,-104.063,33.5432,294.82
2013-01-08 00:00:00,2013-01-08 00:00:00,TMP,surface,-103.125,33.5432,294.944
2013-01-08 00:00:00,2013-01-08 00:00:00,TMP,surface,-102.188,33.5432,294.416
2013-01-08 00:00:00,2013-01-08 00:00:00,TMP,surface,-101.25,33.5432,294.993
2013-01-08 00:00:00,2013-01-08 00:00:00,TMP,surface,-100.313,33.5432,296.521
2013-01-08 00:00:00,2013-01-08 00:00:00,TMP,surface,-99.3754,33.5432,298.083
2013-01-08 00:00:00,2013-01-08 00:00:00,TMP,surface,-98.4379,33.5432,298.707
2013-01-08 00:00:00,2013-01-08 00:00:00,TMP,surface,-97.5004,33.5432,298.676
2013-01-08 00:00:00,2013-01-08 00:00:00,TMP,surface,-96.5629,33.5432,298.704
2013-01-08 00:00:00,2013-01-08 00:00:00,TMP,surface,-95.6254,33.5432,298.672
2013-01-08 00:00:00,2013-01-08 00:00:00,TMP,surface,-94.6879,33.5432,298.208
2013-01-08 00:00:00,2013-01-08 00:00:00,TMP,surface,-93.7504,33.5432,297.585
2013-01-08 00:00:00,2013-01-08 00:00:00,TMP,surface,-92.8129,33.5432,297.134
2013-01-08 00:00:00,2013-01-08 00:00:00,TMP,surface,-107.813,34.4881,288.23
2013-01-08 00:00:00,2013-01-08 00:00:00,TMP,surface,-106.875,34.4881,290.065
2013-01-08 00:00:00,2013-01-08 00:00:00,TMP,surface,-105.938,34.4881,291.076
2013-01-08 00:00:00,2013-01-08 00:00:00,TMP,surface,-105,34.4881,292.524
2013-01-08 00:00:00,2013-01-08 00:00:00,TMP,surface,-104.063,34.4881,293.667
2013-01-08 00:00:00,2013-01-08 00:00:00,TMP,surface,-103.125,34.4881,294.001
2013-01-08 00:00:00,2013-01-08 00:00:00,TMP,surface,-102.188,34.4881,293.958
2013-01-08 00:00:00,2013-01-08 00:00:00,TMP,surface,-101.25,34.4881,294.516
2013-01-08 00:00:00,2013-01-08 00:00:00,TMP,surface,-100.313,34.4881,295.852
2013-01-08 00:00:00,2013-01-08 00:00:00,TMP,surface,-99.3754,34.4881,296.924
2013-01-08 00:00:00,2013-01-08 00:00:00,TMP,surface,-98.4379,34.4881,297.361
2013-01-08 00:00:00,2013-01-08 00:00:00,TMP,surface,-97.5004,34.4881,297.358
2013-01-08 00:00:00,2013-01-08 00:00:00,TMP,surface,-96.5629,34.4881,297.409
2013-01-08 00:00:00,2013-01-08 00:00:00,TMP,surface,-95.6254,34.4881,297.384
2013-01-08 00:00:00,2013-01-08 00:00:00,TMP,surface,-94.6879,34.4881,296.816
2013-01-08 00:00:00,2013-01-08 00:00:00,TMP,surface,-93.7504,34.4881,296.249
2013-01-08 00:00:00,2013-01-08 00:00:00,TMP,surface,-92.8129,34.4881,296.116
2013-01-08 00:00:00,2013-01-08 00:00:00,TMP,surface,-107.813,35.4329,289.129
2013-01-08 00:00:00,2013-01-08 00:00:00,TMP,surface,-106.875,35.4329,289.433
2013-01-08 00:00:00,2013-01-08 00:00:00,TMP,surface,-105.938,35.4329,289.849
2013-01-08 00:00:00,2013-01-08 00:00:00,TMP,surface,-105,35.4329,290.729
2013-01-08 00:00:00,2013-01-08 00:00:00,TMP,surface,-104.063,35.4329,292.63
2013-01-08 00:00:00,2013-01-08 00:00:00,TMP,surface,-103.125,35.4329,293.8
2013-01-08 00:00:00,2013-01-08 00:00:00,TMP,surface,-102.188,35.4329,294.176
2013-01-08 00:00:00,2013-01-08 00:00:00,TMP,surface,-101.25,35.4329,294.657
2013-01-08 00:00:00,2013-01-08 00:00:00,TMP,surface,-100.313,35.4329,295.003
2013-01-08 00:00:00,2013-01-08 00:00:00,TMP,surface,-99.3754,35.4329,295.329
2013-01-08 00:00:00,2013-01-08 00:00:00,TMP,surface,-98.4379,35.4329,295.456
2013-01-08 00:00:00,2013-01-08 00:00:00,TMP,surface,-97.5004,35.4329,295.516
2013-01-08 00:00:00,2013-01-08 00:00:00,TMP,surface,-96.5629,35.4329,295.907
2013-01-08 00:00:00,2013-01-08 00:00:00,TMP,surface,-95.6254,35.4329,296.142
2013-01-08 00:00:00,2013-01-08 00:00:00,TMP,surface,-94.6879,35.4329,295.536
2013-01-08 00:00:00,2013-01-08 00:00:00,TMP,surface,-93.7504,35.4329,294.708
2013-01-08 00:00:00,2013-01-08 00:00:00,TMP,surface,-92.8129,35.4329,294.334
2013-01-08 00:00:00,2013-01-08 00:00:00,TMP,surface,-107.813,36.3778,288.585
2013-01-08 00:00:00,2013-01-08 00:00:00,TMP,surface,-106.875,36.3778,286.46
2013-01-08 00:00:00,2013-01-08 00:00:00,TMP,surface,-105.938,36.3778,287.256
2013-01-08 00:00:00,2013-01-08 00:00:00,TMP,surface,-105,36.3778,288.414
2013-01-08 00:00:00,2013-01-08 00:00:00,TMP,surface,-104.063,36.3778,290.582
2013-01-08 00:00:00,2013-01-08 00:00:00,TMP,surface,-103.125,36.3778,292.496
2013-01-08 00:00:00,2013-01-08 00:00:00,TMP,surface,-102.188,36.3778,294
2013-01-08 00:00:00,2013-01-08 00:00:00,TMP,surface,-101.25,36.3778,294.908
2013-01-08 00:00:00,2013-01-08 00:00:00,TMP,surface,-100.313,36.3778,295.179
2013-01-08 00:00:00,2013-01-08 00:00:00,TMP,surface,-99.3754,36.3778,294.953
2013-01-08 00:00:00,2013-01-08 00:00:00,TMP,surface,-98.4379,36.3778,294.62
2013-01-08 00:00:00,2013-01-08 00:00:00,TMP,surface,-97.5004,36.3778,294.382
2013-01-08 00:00:00,2013-01-08 00:00:00,TMP,surface,-96.5629,36.3778,294.36
2013-01-08 00:00:00,2013-01-08 00:00:00,TMP,surface,-95.6254,36.3778,294.31
2013-01-08 00:00:00,2013-01-08 00:00:00,TMP,surface,-94.6879,36.3778,293.742
2013-01-08 00:00:00,2013-01-08 00:00:00,TMP,surface,-93.7504,36.3778,292.985
2013-01-08 00:00:00,2013-01-08 00:00:00,TMP,surface,-92.8129,36.3778,292.926
2013-01-08 00:00:00,2013-01-08 00:00:00,PRATE,surface,-107.813,25.0393,1.12e-05
2013-01-08 00:00:00,2013-01-08 00:00:00,PRATE,surface,-106.875,25.0393,8.02e-05
2013-01-08 00:00:00,2013-01-08 00:00:00,PRATE,surface,-105.938,25.0393,8.54e-05
2013-01-08 00:00:00,2013-01-08 00:00:00,PRATE,surface,-105,25.0393,6.47e-05
2013-01-08 00:00:00,2013-01-08 00:00:00,PRATE,surface,-104.063,25.0393,4.49e-05
2013-01-08 00:00:00,2013-01-08 00:00:00,PRATE,surface,-103.125,25.0393,2.39e-05
2013-01-08 00:00:00,2013-01-08 00:00:00,PRATE,surface,-102.188,25.0393,3.53e-05
2013-01-08 00:00:00,2013-01-08 00:00:00,PRATE,surface,-101.25,25.0393,5.92e-05
2013-01-08 00:00:00,2013-01-08 00:00:00,PRATE,surface,-100.313,25.0393,5.16e-05
2013-01-08 00:00:00,2013-01-08 00:00:00,PRATE,surface,-99.3754,25.0393,1.35e-05
2013-01-08 00:00:00,2013-01-08 00:00:00,PRATE,surface,-98.4379,25.0393,7e-06
2013-01-08 00:00:00,2013-01-08 00:00:00,PRATE,surface,-97.5004,25.0393,1.12e-05
2013-01-08 00:00:00,2013-01-08 00:00:00,PRATE,surface,-96.5629,25.0393,2.74e-05
2013-01-08 00:00:00,2013-01-08 00:00:00,PRATE,surface,-95.6254,25.0393,3.81e-05
2013-01-08 00:00:00,2013-01-08 00:00:00,PRATE,surface,-94.6879,25.0393,3.67e-05
2013-01-08 00:00:00,2013-01-08 00:00:00,PRATE,surface,-93.7504,25.0393,4.75e-05
2013-01-08 00:00:00,2013-01-08 00:00:00,PRATE,surface,-92.8129,25.0393,5.83e-05
2013-01-08 00:00:00,2013-01-08 00:00:00,PRATE,surface,-107.813,25.9842,3.95e-05
2013-01-08 00:00:00,2013-01-08 00:00:00,PRATE,surface,-106.875,25.9842,6.36e-05
2013-01-08 00:00:00,2013-01-08 00:00:00,PRATE,surface,-105.938,25.9842,5.15e-05
2013-01-08 00:00:00,2013-01-08 00:00:00,PRATE,surface,-105,25.9842,5.86e-05
2013-01-08 00:00:00,2013-01-08 00:00:00,PRATE,surface,-104.063,25.9842,2.14e-05
2013-01-08 00:00:00,2013-01-08 00:00:00,PRATE,surface,-103.125,25.9842,1.75e-05
2013-01-08 00:00:00,2013-01-08 00:00:00,PRATE,surface,-102.188,25.9842,1.83e-05
2013-01-08 00:00:00,2013-01-08 00:00:00,PRATE,surface,-101.25,25.9842,4.3e-05
2013-01-08 00:00:00,2013-01-08 00:00:00,PRATE,surface,-100.313,25.9842,1.4e-05
2013-01-08 00:00:00,2013-01-08 00:00:00,PRATE,surface,-99.3754,25.9842,4.4e-06
2013-01-08 00:00:00,2013-01-08 00:00:00,PRATE,surface,-98.4379,25.9842,4.2e-06
2013-01-08 00:00:00,2013-01-08 00:00:00,PRATE,surface,-97.5004,25.9842,1.11e-05
2013-01-08 00:00:00,2013-01-08 00:00:00,PRATE,surface,-96.5629,25.9842,3.18e-05
2013-01-08 00:00:00,2013-01-08 00:00:00,PRATE,surface,-95.6254,25.9842,5.23e-05
2013-01-08 00:00:00,2013-01-08 00:00:00,PRATE,surface,-94.6879,25.9842,3.56e-05
2013-01-08 00:00:00,2013-01-08 00:00:00,PRATE,surface,-93.7504,25.9842,3.22e-05
2013-01-08 00:00:00,2013-01-08 00:00:00,PRATE,surface,-92.8129,25.9842,3.5e-05
2013-01-08 00:00:00,2013-01-08 00:00:00,PRATE,surface,-107.813,26.929,8.28e-05
2013-01-08 00:00:00,2013-01-08 00:00:00,PRATE,surface,-106.875,26.929,4.91e-05
2013-01-08 00:00:00,2013-01-08 00:00:00,PRATE,surface,-105.938,26.929,4.72e-05
2013-01-08 00:00:00,2013-01-08 00:00:00,PRATE,surface,-105,26.929,3.91e-05
2013-01-08 00:00:00,2013-01-08 00:00:00,PRATE,surface,-104.063,26.929,2.66e-05
2013-01-08 00:00:00,2013-01-08 00:00:00,PRATE,surface,-103.125,26.929,4.01e-05
2013-01-08 00:00:00,2013-01-08 00:00:00,PRATE,surface,-102.188,26.929,5.23e-05
2013-01-08 00:00:00,2013-01-08 00:00:00,PRATE,surface,-101.25,26.929,2.91e-05
2013-01-08 00:00:00,2013-01-08 00:00:00,PRATE,surface,-100.313,26.929,5e-06
2013-01-08 00:00:00,2013-01-08 00:00:00,PRATE,surface,-99.3754,26.929,1.6e-06
2013-01-08 00:00:00,2013-01-08 00:00:00,PRATE,surface,-98.4379,26.929,4.5e-06
2013-01-08 00:00:00,2013-01-08 00:00:00,PRATE,surface,-97.5004,26.929,2.8e-05
2013-01-08 00:00:00,2013-01-08 00:00:00,PRATE,surface,-96.5629,26.929,3.49e-05
2013-01-08 00:00:00,2013-01-08 00:00:00,PRATE,surface,-95.6254,26.929,2.76e-05
2013-01-08 00:00:00,2013-01-08 00:00:00,PRATE,surface,-94.6879,26.929,1.83e-05
2013-01-08 00:00:00,2013-01-08 00:00:00,PRATE,surface,-93.7504,26.929,1.96e-05
2013-01-08 00:00:00,2013-01-08 00:00:00,PRATE,surface,-92.8129,26.929,2.37e-05
2013-01-08 00:00:00,2013-01-08 00:00:00,PRATE,surface,-107.813,27.8739,8.38e-05
2013-01-08 00:00:00,2013-01-08 00:00:00,PRATE,surface,-106.875,27.8739,5e-05
2013-01-08 00:00:00,2013-01-08 00:00:00,PRATE,surface,-105.938,27.8739,2.73e-05
2013-01-08 00:00:00,2013-01-08 00:00:00,PRATE,surface,-105,27.8739,1.81e-05
2013-01-08 00:00:00,2013-01-08 00:00:00,PRATE,surface,-104.063,27.8739,3.93e-05
2013-01-08 00:00:00,2013-01-08 00:00:00,PRATE,surface,-103.125,27.8739,7.51e-05
2013-01-08 00:00:00,2013-01-08 00:00:00,PRATE,surface,-102.188,27.8739,8.8e-05
2013-01-08 00:00:00,2013-01-08 00:00:00,PRATE,surface,-101.25,27.8739,3.13e-05
2013-01-08 00:00:00,2013-01-08 00:00:00,PRATE,surface,-100.313,27.8739,9.4e-06
2013-01-08 00:00:00,2013-01-08 00:00:00,PRATE,surface,-99.3754,27.8739,6.3e-06
2013-01-08 00:00:00,2013-01-08 00:00:00,PRATE,surface,-98.4379,27.8739,1.12e-05
2013-01-08 00:00:00,2013-01-08 00:00:00,PRATE,surface,-97.5004,27.8739,1.87e-05
2013-01-08 00:00:00,2013-01-08 00:00:00,PRATE,surface,-96.5629,27.8739,1.77e-05
2013-01-08 00:00:00,2013-01-08 00:00:00,PRATE,surface,-95.6254,27.8739,1.32e-05
2013-01-08 00:00:00,2013-01-08 00:00:00,PRATE,surface,-94.6879,27.8739,2.07e-05
2013-01-08 00:00:00,2013-01-08 00:00:00,PRATE,surface,-93.7504,27.8739,3.3e-05
2013-01-08 00:00:00,2013-01-08 00:00:00,PRATE,surface,-92.8129,27.8739,2.21e-05
2013-01-08 00:00:00,2013-01-08 00:00:00,PRATE,surface,-107.813,28.8188,7.95e-05
2013-01-08 00:00:00,2013-01-08 00:00:00,PRATE,surface,-106.875,28.8188,5.07e-05
2013-01-08 00:00:00,2013-01-08 00:00:00,PRATE,surface,-105.938,28.8188,1.76e-05
2013-01-08 00:00:00,2013-01-08 00:00:00,PRATE,surface,-105,28.8188,1.37e-05
2013-01-08 00:00:00,2013-01-08 00:00:00,PRATE,surface,-104.063,28.8188,4.03e-05
2013-01-08 00:00:00,2013-01-08 00:00:00,PRATE,surface,-103.125,28.8188,6.46e-05
2013-01-08 00:00:00,2013-01-08 00:00:00,PRATE,surface,-102.188,28.8188,6.05e-05
2013-01-08 00:00:00,2013-01-08 00:00:00,PRATE,surface,-101.25,28.8188,3.15e-05
2013-01-08 00:00:00,2013-01-08 00:00:00,PRATE,surface,-100.313,28.8188,1.49e-05
2013-01-08 00:00:00,2013-01-08 00:00:00,PRATE,surface,-99.3754,28.8188,1.11e-05
2013-01-08 00:00:00,2013-01-08 00:00:00,PRATE,surface,-98.4379,28.8188,1.88e-05
2013-01-08 00:00:00,2013-01-08 00:00:00,PRATE,surface,-97.5004,28.8188,2.74e-05
2013-01-08 00:00:00,2013-01-08 00:00:00,PRATE,surface,-96.5629,28.8188,3e-05
2013-01-08 00:00:00,2013-01-08 00:00:00,PRATE,surface,-95.6254,28.8188,2.71e-05
2013-01-08 00:00:00,2013-01-08 00:00:00,PRATE,surface,-94.6879,28.8188,2.2e-05
2013-01-08 00:00:00,2013-01-08 00:00:00,PRATE,surface,-93.7504,28.8188,1.96e-05
2013-01-08 00:00:00,2013-01-08 00:00:00,PRATE,surface,-92.8129,28.8188,1.1e-05
2013-01-08 00:00:00,2013-01-08 00:00:00,PRATE,surface,-107.813,29.7637,6.18e-05
2013-01-08 00:00:00,2013-01-08 00:00:00,PRATE,surface,-106.875,29.7637,4.82e-05
2013-01-08 00:00:00,2013-01-08 00:00:00,PRATE,surface,-105.938,29.7637,2.11e-05
2013-01-08 00:00:00,2013-01-08 00:00:00,PRATE,surface,-105,29.7637,1.94e-05
2013-01-08 00:00:00,2013-01-08 00:00:00,PRATE,surface,-104.063,29.7637,3.12e-05
2013-01-08 00:00:00,2013-01-08 00:00:00,PRATE,surface,-103.125,29.7637,4.3e-05
2013-01-08 00:00:00,2013-01-08 00:00:00,PRATE,surface,-102.188,29.7637,3.84e-05
2013-01-08 00:00:00,2013-01-08 00:00:00,PRATE,surface,-101.25,29.7637,3.04e-05
2013-01-08 00:00:00,2013-01-08 00:00:00,PRATE,surface,-100.313,29.7637,2.66e-05
2013-01-08 00:00:00,2013-01-08 00:00:00,PRATE,surface,-99.3754,29.7637,3.56e-05
2013-01-08 00:00:00,2013-01-08 00:00:00,PRATE,surface,-98.4379,29.7637,3.73e-05
2013-01-08 00:00:00,2013-01-08 00:00:00,PRATE,surface,-97.5004,29.7637,3e-05
2013-01-08 00:00:00,2013-01-08 00:00:00,PRATE,surface,-96.5629,29.7637,2.88e-05
2013-01-08 00:00:00,2013-01-08 00:00:00,PRATE,surface,-95.6254,29.7637,3.5e-05
2013-01-08 00:00:00,2013-01-08 00:00:00,PRATE,surface,-94.6879,29.7637,3.56e-05
2013-01-08 00:00:00,2013-01-08 00:00:00,PRATE,surface,-93.7504,29.7637,2.77e-05
2013-01-08 00:00:00,2013-01-08 00:00:00,PRATE,surface,-92.8129,29.7637,2.98e-05
2013-01-08 00:00:00,2013-01-08 00:00:00,PRATE,surface,-107.813,30.7085,1.65e-05
2013-01-08 00:00:00,2013-01-08 00:00:00,PRATE,surface,-106.875,30.7085,1.77e-05
2013-01-08 00:00:00,2013-01-08 00:00:00,PRATE,surface,-105.938,30.7085,2.36e-05
2013-01-08 00:00:00,2013-01-08 00:00:00,PRATE,surface,-105,30.7085,3.09e-05
2013-01-08 00:00:00,2013-01-08 00:00:00,PRATE,surface,-104.063,30.7085,3.58e-05
2013-01-08 00:00:00,2013-01-08 00:00:00,PRATE,surface,-103.125,30.7085,4.18e-05
2013-01-08 00:00:00,2013-01-08 00:00:00,PRATE,surface,-102.188,30.7085,3.99e-05
2013-01-08 00:00:00,2013-01-08 00:00:00,PRATE,surface,-101.25,30.7085,3.86e-05
2013-01-08 00:00:00,2013-01-08 00:00:00,PRATE,surface,-100.313,30.7085,4.24e-05
2013-01-08 00:00:00,2013-01-08 00:00:00,PRATE,surface,-99.3754,30.7085,3.87e-05
2013-01-08 00:00:00,2013-01-08 00:00:00,PRATE,surface,-98.4379,30.7085,3.58e-05
2013-01-08 00:00:00,2013-01-08 00:00:00,PRATE,surface,-97.5004,30.7085,3.74e-05
2013-01-08 00:00:00,2013-01-08 00:00:00,PRATE,surface,-96.5629,30.7085,3.82e-05
2013-01-08 00:00:00,2013-01-08 00:00:00,PRATE,surface,-95.6254,30.7085,3.59e-05
2013-01-08 00:00:00,2013-01-08 00:00:00,PRATE,surface,-94.6879,30.7085,3.03e-05
2013-01-08 00:00:00,2013-01-08 00:00:00,PRATE,surface,-93.7504,30.7085,2.38e-05
2013-01-08 00:00:00,2013-01-08 00:00:00,PRATE,surface,-92.8129,30.7085,2.45e-05
2013-01-08 00:00:00,2013-01-08 00:00:00,PRATE,surface,-107.813,31.6534,6.2e-06
2013-01-08 00:00:00,2013-01-08 00:00:00,PRATE,surface,-106.875,31.6534,9e-06
2013-01-08 00:00:00,2013-01-08 00:00:00,PRATE,surface,-105.938,31.6534,2.53e-05
2013-01-08 00:00:00,2013-01-08 00:00:00,PRATE,surface,-105,31.6534,2.48e-05
2013-01-08 00:00:00,2013-01-08 00:00:00,PRATE,surface,-104.063,31.6534,3.7e-05
2013-01-08 00:00:00,2013-01-08 00:00:00,PRATE,surface,-103.125,31.6534,3.65e-05
2013-01-08 00:00:00,2013-01-08 00:00:00,PRATE,surface,-102.188,31.6534,3.91e-05
2013-01-08 00:00:00,2013-01-08 00:00:00,PRATE,surface,-101.25,31.6534,4.1e-05
2013-01-08 00:00:00,2013-01-08 00:00:00,PRATE,surface,-100.313,31.6534,4.28e-05
2013-01-08 00:00:00,2013-01-08 00:00:00,PRATE,surface,-99.3754,31.6534,3.37e-05
2013-01-08 00:00:00,2013-01-08 00:00:00,PRATE,surface,-98.4379,31.6534,2.51e-05
2013-01-08 00:00:00,2013-01-08 00:00:00,PRATE,surface,-97.5004,31.6534,2.72e-05
2013-01-08 00:00:00,2013-01-08 00:00:00,PRATE,surface,-96.5629,31.6534,3.49e-05
2013-01-08 00:00:00,2013-01-08 00:00:00,PRATE,surface,-95.6254,31.6534,4.17e-05
2013-01-08 00:00:00,2013-01-08 00:00:00,PRATE,surface,-94.6879,31.6534,4.42e-05
2013-01-08 00:00:00,2013-01-08 00:00:00,PRATE,surface,-93.7504,31.6534,3.81e-05
2013-01-08 00:00:00,2013-01-08 00:00:00,PRATE,surface,-92.8129,31.6534,2.8e-05
2013-01-08 00:00:00,2013-01-08 00:00:00,PRATE,surface,-107.813,32.5983,1.76e-05
2013-01-08 00:00:00,2013-01-08 00:00:00,PRATE,surface,-106.875,32.5983,1.85e-05
2013-01-08 00:00:00,2013-01-08 00:00:00,PRATE,surface,-105.938,32.5983,2.21e-05
2013-01-08 00:00:00,2013-01-08 00:00:00,PRATE,surface,-105,32.5983,2.27e-05
2013-01-08 00:00:00,2013-01-08 00:00:00,PRATE,surface,-104.063,32.5983,3.05e-05
2013-01-08 00:00:00,2013-01-08 00:00:00,PRATE,surface,-103.125,32.5983,3.73e-05
2013-01-08 00:00:00,2013-01-08 00:00:00,PRATE,surface,-102.188,32.5983,4e-05
2013-01-08 00:00:00,2013-01-08 00:00:00,PRATE,surface,-101.25,32.5983,3.78e-05
2013-01-08 00:00:00,2013-01-08 00:00:00,PRATE,surface,-100.313,32.5983,2.51e-05
2013-01-08 00:00:00,2013-01-08 00:00:00,PRATE,surface,-99.3754,32.5983,1.68e-05
2013-01-08 00:00:00,2013-01-08 00:00:00,PRATE,surface,-98.4379,32.5983,1.41e-05
2013-01-08 00:00:00,2013-01-08 00:00:00,PRATE,surface,-97.5004,32.5983,1.44e-05
2013-01-08 00:00:00,2013-01-08 00:00:00,PRATE,surface,-96.5629,32.5983,1.76e-05
2013-01-08 00:00:00,2013-01-08 00:00:00,PRATE,surface,-95.6254,32.5983,2.56e-05
2013-01-08 00:00:00,2013-01-08 00:00:00,PRATE,surface,-94.6879,32.5983,3.73e-05
2013-01-08 00:00:00,2013-01-08 00:00:00,PRATE,surface,-93.7504,32.5983,4.38e-05
2013-01-08 00:00:00,2013-01-08 00:00:00,PRATE,surface,-92.8129,32.5983,3.95e-05
2013-01-08 00:00:00,2013-01-08 00:00:00,PRATE,surface,-107.813,33.5432,3.48e-05
2013-01-08 00:00:00,2013-01-08 00:00:00,PRATE,surface,-106.875,33.5432,3.11e-05
2013-01-08 00:00:00,2013-01-08 00:00:00,PRATE,surface,-105.938,33.5432,2.38e-05
2013-01-08 00:00:00,2013-01-08 00:00:00,PRATE,surface,-105,33.5432,1.93e-05
2013-01-08 00:00:00,2013-01-08 00:00:00,PRATE,surface,-104.063,33.5432,2.77e-05
2013-01-08 00:00:00,2013-01-08 00:00:00,PRATE,surface,-103.125,33.5432,3.53e-05
2013-01-08 00:00:00,2013-01-08 00:00:00,PRATE,surface,-102.188,33.5432,4.55e-05
2013-01-08 00:00:00,2013-01-08 00:00:00,PRATE,surface,-101.25,33.5432,4.33e-05
2013-01-08 00:00:00,2013-01-08 00:00:00,PRATE,surface,-100.313,33.5432,2.61e-05
2013-01-08 00:00:00,2013-01-08 00:00:00,PRATE,surface,-99.3754,33.5432,1.69e-05
2013-01-08 00:00:00,2013-01-08 00:00:00,PRATE,surface,-98.4379,33.5432,1.81e-05
2013-01-08 00:00:00,2013-01-08 00:00:00,PRATE,surface,-97.5004,33.5432,1.99e-05
2013-01-08 00:00:00,2013-01-08 00:00:00,PRATE,surface,-96.5629,33.5432,2.01e-05
2013-01-08 00:00:00,2013-01-08 00:00:00,PRATE,surface,-95.6254,33.5432,1.98e-05
2013-01-08 00:00:00,2013-01-08 00:00:00,PRATE,surface,-94.6879,33.5432,2.3e-05
2013-01-08 00:00:00,2013-01-08 00:00:00,PRATE,surface,-93.7504,33.5432,3.3e-05
2013-01-08 00:00:00,2013-01-08 00:00:00,PRATE,surface,-92.8129,33.5432,3.68e-05
2013-01-08 00:00:00,2013-01-08 00:00:00,PRATE,surface,-107.813,34.4881,1.81e-05
2013-01-08 00:00:00,2013-01-08 00:00:00,PRATE,surface,-106.875,34.4881,1.6e-05
2013-01-08 00:00:00,2013-01-08 00:00:00,PRATE,surface,-105.938,34.4881,1.96e-05
2013-01-08 00:00:00,2013-01-08 00:00:00,PRATE,surface,-105,34.4881,2.48e-05
2013-01-08 00:00:00,2013-01-08 00:00:00,PRATE,surface,-104.063,34.4881,3.3e-05
2013-01-08 00:00:00,2013-01-08 00:00:00,PRATE,surface,-103.125,34.4881,3.67e-05
2013-01-08 00:00:00,2013-01-08 00:00:00,PRATE,surface,-102.188,34.4881,4.28e-05
2013-01-08 00:00:00,2013-01-08 00:00:00,PRATE,surface,-101.25,34.4881,4.18e-05
2013-01-08 00:00:00,2013-01-08 00:00:00,PRATE,surface,-100.313,34.4881,2.95e-05
2013-01-08 00:00:00,2013-01-08 00:00:00,PRATE,surface,-99.3754,34.4881,2.11e-05
2013-01-08 00:00:00,2013-01-08 00:00:00,PRATE,surface,-98.4379,34.4881,1.76e-05
2013-01-08 00:00:00,2013-01-08 00:00:00,PRATE,surface,-97.5004,34.4881,1.79e-05
2013-01-08 00:00:00,2013-01-08 00:00:00,PRATE,surface,-96.5629,34.4881,2.04e-05
2013-01-08 00:00:00,2013-01-08 00:00:00,PRATE,surface,-95.6254,34.4881,2.18e-05
2013-01-08 00:00:00,2013-01-08 00:00:00,PRATE,surface,-94.6879,34.4881,2.39e-05
2013-01-08 00:00:00,2013-01-08 00:00:00,PRATE,surface,-93.7504,34.4881,2.97e-05
2013-01-08 00:00:00,2013-01-08 00:00:00,PRATE,surface,-92.8129,34.4881,3.72e-05
2013-01-08 00:00:00,2013-01-08 00:00:00,PRATE,surface,-107.813,35.4329,7e-06
2013-01-08 00:00:00,2013-01-08 00:00:00,PRATE,surface,-106.875,35.4329,7.1e-06
2013-01-08 00:00:00,2013-01-08 00:00:00,PRATE,surface,-105.938,35.4329,1.17e-05
2013-01-08 00:00:00,2013-01-08 00:00:00,PRATE,surface,-105,35.4329,1.91e-05
2013-01-08 00:00:00,2013-01-08 00:00:00,PRATE,surface,-104.063,35.4329,3.71e-05
2013-01-08 00:00:00,2013-01-08 00:00:00,PRATE,surface,-103.125,35.4329,4.25e-05
2013-01-08 00:00:00,2013-01-08 00:00:00,PRATE,surface,-102.188,35.4329,3.64e-05
2013-01-08 00:00:00,2013-01-08 00:00:00,PRATE,surface,-101.25,35.4329,2.54e-05
2013-01-08 00:00:00,2013-01-08 00:00:00,PRATE,surface,-100.313,35.4329,2.24e-05
2013-01-08 00:00:00,2013-01-08 00:00:00,PRATE,surface,-99.3754,35.4329,2.16e-05
2013-01-08 00:00:00,2013-01-08 00:00:00,PRATE,surface,-98.4379,35.4329,2.05e-05
2013-01-08 00:00:00,2013-01-08 00:00:00,PRATE,surface,-97.5004,35.4329,1.95e-05
2013-01-08 00:00:00,2013-01-08 00:00:00,PRATE,surface,-96.5629,35.4329,1.78e-05
2013-01-08 00:00:00,2013-01-08 00:00:00,PRATE,surface,-95.6254,35.4329,1.8e-05
2013-01-08 00:00:00,2013-01-08 00:00:00,PRATE,surface,-94.6879,35.4329,2.48e-05
2013-01-08 00:00:00,2013-01-08 00:00:00,PRATE,surface,-93.7504,35.4329,3.51e-05
2013-01-08 00:00:00,2013-01-08 00:00:00,PRATE,surface,-92.8129,35.4329,3.72e-05
2013-01-08 00:00:00,2013-01-08 00:00:00,PRATE,surface,-107.813,36.3778,7.7e-06
2013-01-08 00:00:00,2013-01-08 00:00:00,PRATE,surface,-106.875,36.3778,7.8e-06
2013-01-08 00:00:00,2013-01-08 00:00:00,PRATE,surface,-105.938,36.3778,1.13e-05
2013-01-08 00:00:00,2013-01-08 00:00:00,PRATE,surface,-105,36.3778,1.48e-05
2013-01-08 00:00:00,2013-01-08 00:00:00,PRATE,surface,-104.063,36.3778,3.01e-05
2013-01-08 00:00:00,2013-01-08 00:00:00,PRATE,surface,-103.125,36.3778,3.09e-05
2013-01-08 00:00:00,2013-01-08 00:00:00,PRATE,surface,-102.188,36.3778,2.37e-05
2013-01-08 00:00:00,2013-01-08 00:00:00,PRATE,surface,-101.25,36.3778,1.59e-05
2013-01-08 00:00:00,2013-01-08 00:00:00,PRATE,surface,-100.313,36.3778,1.5e-05
2013-01-08 00:00:00,2013-01-08 00:00:00,PRATE,surface,-99.3754,36.3778,1.91e-05
2013-01-08 00:00:00,2013-01-08 00:00:00,PRATE,surface,-98.4379,36.3778,2.43e-05
2013-01-08 00:00:00,2013-01-08 00:00:00,PRATE,surface,-97.5004,36.3778,2.45e-05
2013-01-08 00:00:00,2013-01-08 00:00:00,PRATE,surface,-96.5629,36.3778,2.06e-05
2013-01-08 00:00:00,2013-01-08 00:00:00,PRATE,surface,-95.6254,36.3778,2e-05
2013-01-08 00:00:00,2013-01-08 00:00:00,PRATE,surface,-94.6879,36.3778,2.54e-05
2013-01-08 00:00:00,2013-01-08 00:00:00,PRATE,surface,-93.7504,36.3778,3.11e-05
2013-01-08 00:00:00,2013-01-08 00:00:00,PRATE,surface,-92.8129,36.3778,3.1e-05
