2018-11-15 00:00:00,2018-11-15 00:00:00,TMP,surface,-107.813,25.0393,292.44
2018-11-15 00:00:00,2018-11-15 00:00:00,TMP,surface,-106.875,25.0393,287.051
2018-11-15 00:00:00,2018-11-15 00:00:00,TMP,surface,-105.938,25.0393,281.162
2018-11-15 00:00:00,2018-11-15 00:00:00,TMP,surface,-105,25.0393,279.803
2018-11-15 00:00:00,2018-11-15 00:00:00,TMP,surface,-104.063,25.0393,283.008
2018-11-15 00:00:00,2018-11-15 00:00:00,TMP,surface,-103.125,25.0393,284.731
2018-11-15 00:00:00,2018-11-15 00:00:00,TMP,surface,-102.188,25.0393,284.541
2018-11-15 00:00:00,2018-11-15 00:00:00,TMP,surface,-101.25,25.0393,283.224
2018-11-15 00:00:00,2018-11-15 00:00:00,TMP,surface,-100.313,25.0393,283.962
2018-11-15 00:00:00,2018-11-15 00:00:00,TMP,surface,-99.3754,25.0393,286.363
2018-11-15 00:00:00,2018-11-15 00:00:00,TMP,surface,-98.4379,25.0393,289.079
2018-11-15 00:00:00,2018-11-15 00:00:00,TMP,surface,-97.5004,25.0393,294.117
2018-11-15 00:00:00,2018-11-15 00:00:00,TMP,surface,-96.5629,25.0393,294.859
2018-11-15 00:00:00,2018-11-15 00:00:00,TMP,surface,-95.6254,25.0393,296.186
2018-11-15 00:00:00,2018-11-15 00:00:00,TMP,surface,-94.6879,25.0393,297.111
2018-11-15 00:00:00,2018-11-15 00:00:00,TMP,surface,-93.7504,25.0393,297.01
2018-11-15 00:00:00,2018-11-15 00:00:00,TMP,surface,-92.8129,25.0393,296.829
2018-11-15 00:00:00,2018-11-15 00:00:00,TMP,surface,-107.813,25.9842,287.619
2018-11-15 00:00:00,2018-11-15 00:00:00,TMP,surface,-106.875,25.9842,281.991
2018-11-15 00:00:00,2018-11-15 00:00:00,TMP,surface,-105.938,25.9842,279.355
2018-11-15 00:00:00,2018-11-15 00:00:00,TMP,surface,-105,25.9842,281.589
2018-11-15 00:00:00,2018-11-15 00:00:00,TMP,surface,-104.063,25.9842,284.456
2018-11-15 00:00:00,2018-11-15 00:00:00,TMP,surface,-103.125,25.9842,285.114
2018-11-15 00:00:00,2018-11-15 00:00:00,TMP,surface,-102.188,25.9842,284.754
2018-11-15 00:00:00,2018-11-15 00:00:00,TMP,surface,-101.25,25.9842,284.298
2018-11-15 00:00:00,2018-11-15 00:00:00,TMP,surface,-100.313,25.9842,284.717
2018-11-15 00:00:00,2018-11-15 00:00:00,TMP,surface,-99.3754,25.9842,287.117
2018-11-15 00:00:00,2018-11-15 00:00:00,TMP,surface,-98.4379,25.9842,288.952
2018-11-15 00:00:00,2018-11-15 00:00:00,TMP,surface,-97.5004,25.9842,290.637
2018-11-15 00:00:00,2018-11-15 00:00:00,TMP,surface,-96.5629,25.9842,294.066
2018-11-15 00:00:00,2018-11-15 00:00:00,TMP,surface,-95.6254,25.9842,294.877
2018-11-15 00:00:00,2018-11-15 00:00:00,TMP,surface,-94.6879,25.9842,295.698
2018-11-15 00:00:00,2018-11-15 00:00:00,TMP,surface,-93.7504,25.9842,295.863
2018-11-15 00:00:00,2018-11-15 00:00:00,TMP,surface,-92.8129,25.9842,295.959
2018-11-15 00:00:00,2018-11-15 00:00:00,TMP,surface,-107.813,26.929,282.805
2018-11-15 00:00:00,2018-11-15 00:00:00,TMP,surface,-106.875,26.929,278.776
2018-11-15 00:00:00,2018-11-15 00:00:00,TMP,surface,-105.938,26.929,280.675
2018-11-15 00:00:00,2018-11-15 00:00:00,TMP,surface,-105,26.929,283.603
2018-11-15 00:00:00,2018-11-15 00:00:00,TMP,surface,-104.063,26.929,284.187
2018-11-15 00:00:00,2018-11-15 00:00:00,TMP,surface,-103.125,26.929,283.351
2018-11-15 00:00:00,2018-11-15 00:00:00,TMP,surface,-102.188,26.929,283.533
2018-11-15 00:00:00,2018-11-15 00:00:00,TMP,surface,-101.25,26.929,284.523
2018-11-15 00:00:00,2018-11-15 00:00:00,TMP,surface,-100.313,26.929,285.491
2018-11-15 00:00:00,2018-11-15 00:00:00,TMP,surface,-99.3754,26.929,286.959
2018-11-15 00:00:00,2018-11-15 00:00:00,TMP,surface,-98.4379,26.929,287.629
2018-11-15 00:00:00,2018-11-15 00:00:00,TMP,surface,-97.5004,26.929,292.603
2018-11-15 00:00:00,2018-11-15 00:00:00,TMP,surface,-96.5629,26.929,293.477
2018-11-15 00:00:00,2018-11-15 00:00:00,TMP,surface,-95.6254,26.929,294.133
2018-11-15 00:00:00,2018-11-15 00:00:00,TMP,surface,-94.6879,26.929,294.719
2018-11-15 00:00:00,2018-11-15 00:00:00,TMP,surface,-93.7504,26.929,295.003
2018-11-15 00:00:00,2018-11-15 00:00:00,TMP,surface,-92.8129,26.929,295.272
2018-11-15 00:00:00,2018-11-15 00:00:00,TMP,surface,-107.813,27.8739,279.536
2018-11-15 00:00:00,2018-11-15 00:00:00,TMP,surface,-106.875,27.8739,278.551
2018-11-15 00:00:00,2018-11-15 00:00:00,TMP,surface,-105.938,27.8739,281.877
2018-11-15 00:00:00,2018-11-15 00:00:00,TMP,surface,-105,27.8739,283.936
2018-11-15 00:00:00,2018-11-15 00:00:00,TMP,surface,-104.063,27.8739,283.586
2018-11-15 00:00:00,2018-11-15 00:00:00,TMP,surface,-103.125,27.8739,282.578
2018-11-15 00:00:00,2018-11-15 00:00:00,TMP,surface,-102.188,27.8739,282.895
2018-11-15 00:00:00,2018-11-15 00:00:00,TMP,surface,-101.25,27.8739,284.048
2018-11-15 00:00:00,2018-11-15 00:00:00,TMP,surface,-100.313,27.8739,285.266
2018-11-15 00:00:00,2018-11-15 00:00:00,TMP,surface,-99.3754,27.8739,285.667
2018-11-15 00:00:00,2018-11-15 00:00:00,TMP,surface,-98.4379,27.8739,285.986
2018-11-15 00:00:00,2018-11-15 00:00:00,TMP,surface,-97.5004,27.8739,289.802
2018-11-15 00:00:00,2018-11-15 00:00:00,TMP,surface,-96.5629,27.8739,293.651
2018-11-15 00:00:00,2018-11-15 00:00:00,TMP,surface,-95.6254,27.8739,294.051
2018-11-15 00:00:00,2018-11-15 00:00:00,TMP,surface,-94.6879,27.8739,294.143
2018-11-15 00:00:00,2018-11-15 00:00:00,TMP,surface,-93.7504,27.8739,294.25
2018-11-15 00:00:00,2018-11-15 00:00:00,TMP,surface,-92.8129,27.8739,294.445
2018-11-15 00:00:00,2018-11-15 00:00:00,TMP,surface,-107.813,28.8188,278.058
2018-11-15 00:00:00,2018-11-15 00:00:00,TMP,surface,-106.875,28.8188,278.981
2018-11-15 00:00:00,2018-11-15 00:00:00,TMP,surface,-105.938,28.8188,282.088
2018-11-15 00:00:00,2018-11-15 00:00:00,TMP,surface,-105,28.8188,283.12
2018-11-15 00:00:00,2018-11-15 00:00:00,TMP,surface,-104.063,28.8188,282.187
2018-11-15 00:00:00,2018-11-15 00:00:00,TMP,surface,-103.125,28.8188,281.818
2018-11-15 00:00:00,2018-11-15 00:00:00,TMP,surface,-102.188,28.8188,282.293
2018-11-15 00:00:00,2018-11-15 00:00:00,TMP,surface,-101.25,28.8188,283.575
2018-11-15 00:00:00,2018-11-15 00:00:00,TMP,surface,-100.313,28.8188,284.056
2018-11-15 00:00:00,2018-11-15 00:00:00,TMP,surface,-99.3754,28.8188,283.899
2018-11-15 00:00:00,2018-11-15 00:00:00,TMP,surface,-98.4379,28.8188,283.999
2018-11-15 00:00:00,2018-11-15 00:00:00,TMP,surface,-97.5004,28.8188,284.685
2018-11-15 00:00:00,2018-11-15 00:00:00,TMP,surface,-96.5629,28.8188,285.722
2018-11-15 00:00:00,2018-11-15 00:00:00,TMP,surface,-95.6254,28.8188,289.087
2018-11-15 00:00:00,2018-11-15 00:00:00,TMP,surface,-94.6879,28.8188,293.571
2018-11-15 00:00:00,2018-11-15 00:00:00,TMP,surface,-93.7504,28.8188,293.605
2018-11-15 00:00:00,2018-11-15 00:00:00,TMP,surface,-92.8129,28.8188,293.795
2018-11-15 00:00:00,2018-11-15 00:00:00,TMP,surface,-107.813,29.7637,278.842
2018-11-15 00:00:00,2018-11-15 00:00:00,TMP,surface,-106.875,29.7637,279.815
2018-11-15 00:00:00,2018-11-15 00:00:00,TMP,surface,-105.938,29.7637,281.661
2018-11-15 00:00:00,2018-11-15 00:00:00,TMP,surface,-105,29.7637,281.431
2018-11-15 00:00:00,2018-11-15 00:00:00,TMP,surface,-104.063,29.7637,281.307
2018-11-15 00:00:00,2018-11-15 00:00:00,TMP,surface,-103.125,29.7637,281.715
2018-11-15 00:00:00,2018-11-15 00:00:00,TMP,surface,-102.188,29.7637,282.672
2018-11-15 00:00:00,2018-11-15 00:00:00,TMP,surface,-101.25,29.7637,282.957
2018-11-15 00:00:00,2018-11-15 00:00:00,TMP,surface,-100.313,29.7637,282.575
2018-11-15 00:00:00,2018-11-15 00:00:00,TMP,surface,-99.3754,29.7637,282.269
2018-11-15 00:00:00,2018-11-15 00:00:00,TMP,surface,-98.4379,29.7637,282.389
2018-11-15 00:00:00,2018-11-15 00:00:00,TMP,surface,-97.5004,29.7637,282.747
2018-11-15 00:00:00,2018-11-15 00:00:00,TMP,surface,-96.5629,29.7637,283.285
2018-11-15 00:00:00,2018-11-15 00:00:00,TMP,surface,-95.6254,29.7637,284.186
2018-11-15 00:00:00,2018-11-15 00:00:00,TMP,surface,-94.6879,29.7637,287.44
2018-11-15 00:00:00,2018-11-15 00:00:00,TMP,surface,-93.7504,29.7637,291.059
2018-11-15 00:00:00,2018-11-15 00:00:00,TMP,surface,-92.8129,29.7637,285.575
2018-11-15 00:00:00,2018-11-15 00:00:00,TMP,surface,-107.813,30.7085,280.155
2018-11-15 00:00:00,2018-11-15 00:00:00,TMP,surface,-106.875,30.7085,281.016
2018-11-15 00:00:00,2018-11-15 00:00:00,TMP,surface,-105.938,30.7085,280.949
2018-11-15 00:00:00,2018-11-15 00:00:00,TMP,surface,-105,30.7085,280.448
2018-11-15 00:00:00,2018-11-15 00:00:00,TMP,surface,-104.063,30.7085,280.312
2018-11-15 00:00:00,2018-11-15 00:00:00,TMP,surface,-103.125,30.7085,281.218
2018-11-15 00:00:00,2018-11-15 00:00:00,TMP,surface,-102.188,30.7085,281.861
2018-11-15 00:00:00,2018-11-15 00:00:00,TMP,surface,-101.25,30.7085,281.773
2018-11-15 00:00:00,2018-11-15 00:00:00,TMP,surface,-100.313,30.7085,281.411
2018-11-15 00:00:00,2018-11-15 00:00:00,TMP,surface,-99.3754,30.7085,281.394
2018-11-15 00:00:00,2018-11-15 00:00:00,TMP,surface,-98.4379,30.7085,281.573
2018-11-15 00:00:00,2018-11-15 00:00:00,TMP,surface,-97.5004,30.7085,281.743
2018-11-15 00:00:00,2018-11-15 00:00:00,TMP,surface,-96.5629,30.7085,281.991
2018-11-15 00:00:00,2018-11-15 00:00:00,TMP,surface,-95.6254,30.7085,282.41
2018-11-15 00:00:00,2018-11-15 00:00:00,TMP,surface,-94.6879,30.7085,282.847
2018-11-15 00:00:00,2018-11-15 00:00:00,TMP,surface,-93.7504,30.7085,282.963
2018-11-15 00:00:00,2018-11-15 00:00:00,TMP,surface,-92.8129,30.7085,282.664
2018-11-15 00:00:00,2018-11-15 00:00:00,TMP,surface,-107.813,31.6534,279.899
2018-11-15 00:00:00,2018-11-15 00:00:00,TMP,surface,-106.875,31.6534,280.511
2018-11-15 00:00:00,2018-11-15 00:00:00,TMP,surface,-105.938,31.6534,279.797
2018-11-15 00:00:00,2018-11-15 00:00:00,TMP,surface,-105,31.6534,279.547
2018-11-15 00:00:00,2018-11-15 00:00:00,TMP,surface,-104.063,31.6534,279.843
2018-11-15 00:00:00,2018-11-15 00:00:00,TMP,surface,-103.125,31.6534,280.437
2018-11-15 00:00:00,2018-11-15 00:00:00,TMP,surface,-102.188,31.6534,280.848
2018-11-15 00:00:00,2018-11-15 00:00:00,TMP,surface,-101.25,31.6534,280.647
2018-11-15 00:00:00,2018-11-15 00:00:00,TMP,surface,-100.313,31.6534,280.675
2018-11-15 00:00:00,2018-11-15 00:00:00,TMP,surface,-99.3754,31.6534,280.891
2018-11-15 00:00:00,2018-11-15 00:00:00,TMP,surface,-98.4379,31.6534,281.122
2018-11-15 00:00:00,2018-11-15 00:00:00,TMP,surface,-97.5004,31.6534,281.224
2018-11-15 00:00:00,2018-11-15 00:00:00,TMP,surface,-96.5629,31.6534,281.314
2018-11-15 00:00:00,2018-11-15 00:00:00,TMP,surface,-95.6254,31.6534,281.445
2018-11-15 00:00:00,2018-11-15 00:00:00,TMP,surface,-94.6879,31.6534,281.442
2018-11-15 00:00:00,2018-11-15 00:00:00,TMP,surface,-93.7504,31.6534,281.373
2018-11-15 00:00:00,2018-11-15 00:00:00,TMP,surface,-92.8129,31.6534,281.344
2018-11-15 00:00:00,2018-11-15 00:00:00,TMP,surface,-107.813,32.5983,277.802
2018-11-15 00:00:00,2018-11-15 00:00:00,TMP,surface,-106.875,32.5983,278.095
2018-11-15 00:00:00,2018-11-15 00:00:00,TMP,surface,-105.938,32.5983,278.16
2018-11-15 00:00:00,2018-11-15 00:00:00,TMP,surface,-105,32.5983,278.299
2018-11-15 00:00:00,2018-11-15 00:00:00,TMP,surface,-104.063,32.5983,279.072
2018-11-15 00:00:00,2018-11-15 00:00:00,TMP,surface,-103.125,32.5983,279.672
2018-11-15 00:00:00,2018-11-15 00:00:00,TMP,surface,-102.188,32.5983,279.474
2018-11-15 00:00:00,2018-11-15 00:00:00,TMP,surface,-101.25,32.5983,279.611
2018-11-15 00:00:00,2018-11-15 00:00:00,TMP,surface,-100.313,32.5983,279.904
2018-11-15 00:00:00,2018-11-15 00:00:00,TMP,surface,-99.3754,32.5983,280.218
2018-11-15 00:00:00,2018-11-15 00:00:00,TMP,surface,-98.4379,32.5983,280.407
2018-11-15 00:00:00,2018-11-15 00:00:00,TMP,surface,-97.5004,32.5983,280.469
2018-11-15 00:00:00,2018-11-15 00:00:00,TMP,surface,-96.5629,32.5983,280.514
2018-11-15 00:00:00,2018-11-15 00:00:00,TMP,surface,-95.6254,32.5983,280.483
2018-11-15 00:00:00,2018-11-15 00:00:00,TMP,surface,-94.6879,32.5983,280.264
2018-11-15 00:00:00,2018-11-15 00:00:00,TMP,surface,-93.7504,32.5983,280.034
2018-11-15 00:00:00,2018-11-15 00:00:00,TMP,surface,-92.8129,32.5983,280.071
2018-11-15 00:00:00,2018-11-15 00:00:00,TMP,surface,-107.813,33.5432,275.117
2018-11-15 00:00:00,2018-11-15 00:00:00,TMP,surface,-106.875,33.5432,276.079
2018-11-15 00:00:00,2018-11-15 00:00:00,TMP,surface,-105.938,33.5432,276.651
2018-11-15 00:00:00,2018-11-15 00:00:00,TMP,surface,-105,33.5432,277.133
2018-11-15 00:00:00,2018-11-15 00:00:00,TMP,surface,-104.063,33.5432,278.08
2018-11-15 00:00:00,2018-11-15 00:00:00,TMP,surface,-103.125,33.5432,278.659
2018-11-15 00:00:00,2018-11-15 00:00:00,TMP,surface,-102.188,33.5432,278.509
2018-11-15 00:00:00,2018-11-15 00:00:00,TMP,surface,-101.25,33.5432,278.519
2018-11-15 00:00:00,2018-11-15 00:00:00,TMP,surface,-100.313,33.5432,278.696
2018-11-15 00:00:00,2018-11-15 00:00:00,TMP,surface,-99.3754,33.5432,278.842
2018-11-15 00:00:00,2018-11-15 00:00:00,TMP,surface,-98.4379,33.5432,278.875
2018-11-15 00:00:00,2018-11-15 00:00:00,TMP,surface,-97.5004,33.5432,278.84
2018-11-15 00:00:00,2018-11-15 00:00:00,TMP,surface,-96.5629,33.5432,278.888
2018-11-15 00:00:00,2018-11-15 00:00:00,TMP,surface,-95.6254,33.5432,278.96
2018-11-15 00:00:00,2018-11-15 00:00:00,TMP,surface,-94.6879,33.5432,278.776
2018-11-15 00:00:00,2018-11-15 00:00:00,TMP,surface,-93.7504,33.5432,278.416
2018-11-15 00:00:00,2018-11-15 00:00:00,TMP,surface,-92.8129,33.5432,278.328
2018-11-15 00:00:00,2018-11-15 00:00:00,TMP,surface,-107.813,34.4881,273.719
2018-11-15 00:00:00,2018-11-15 00:00:00,TMP,surface,-106.875,34.4881,274.946
2018-11-15 00:00:00,2018-11-15 00:00:00,TMP,surface,-105.938,34.4881,275.467
2018-11-15 00:00:00,2018-11-15 00:00:00,TMP,surface,-105,34.4881,276.048
2018-11-15 00:00:00,2018-11-15 00:00:00,TMP,surface,-104.063,34.4881,276.728
2018-11-15 00:00:00,2018-11-15 00:00:00,TMP,surface,-103.125,34.4881,277.296
2018-11-15 00:00:00,2018-11-15 00:00:00,TMP,surface,-102.188,34.4881,277.296
2018-11-15 00:00:00,2018-11-15 00:00:00,TMP,surface,-101.25,34.4881,277.304
2018-11-15 00:00:00,2018-11-15 00:00:00,TMP,surface,-100.313,34.4881,277.338
2018-11-15 00:00:00,2018-11-15 00:00:00,TMP,surface,-99.3754,34.4881,277.381
2018-11-15 00:00:00,2018-11-15 00:00:00,TMP,surface,-98.4379,34.4881,277.295
2018-11-15 00:00:00,2018-11-15 00:00:00,TMP,surface,-97.5004,34.4881,277.147
2018-11-15 00:00:00,2018-11-15 00:00:00,TMP,surface,-96.5629,34.4881,277.16
2018-11-15 00:00:00,2018-11-15 00:00:00,TMP,surface,-95.6254,34.4881,277.183
2018-11-15 00:00:00,2018-11-15 00:00:00,TMP,surface,-94.6879,34.4881,276.915
2018-11-15 00:00:00,2018-11-15 00:00:00,TMP,surface,-93.7504,34.4881,276.568
2018-11-15 00:00:00,2018-11-15 00:00:00,TMP,surface,-92.8129,34.4881,276.48
2018-11-15 00:00:00,2018-11-15 00:00:00,TMP,surface,-107.813,35.4329,273.351
2018-11-15 00:00:00,2018-11-15 00:00:00,TMP,surface,-106.875,35.4329,273.655
2018-11-15 00:00:00,2018-11-15 00:00:00,TMP,surface,-105.938,35.4329,274.032
2018-11-15 00:00:00,2018-11-15 00:00:00,TMP,surface,-105,35.4329,274.504
2018-11-15 00:00:00,2018-11-15 00:00:00,TMP,surface,-104.063,35.4329,275.672
2018-11-15 00:00:00,2018-11-15 00:00:00,TMP,surface,-103.125,35.4329,276.463
2018-11-15 00:00:00,2018-11-15 00:00:00,TMP,surface,-102.188,35.4329,276.434
2018-11-15 00:00:00,2018-11-15 00:00:00,TMP,surface,-101.25,35.4329,276.077
2018-11-15 00:00:00,2018-11-15 00:00:00,TMP,surface,-100.313,35.4329,275.978
2018-11-15 00:00:00,2018-11-15 00:00:00,TMP,surface,-99.3754,35.4329,275.855
2018-11-15 00:00:00,2018-11-15 00:00:00,TMP,surface,-98.4379,35.4329,275.767
2018-11-15 00:00:00,2018-11-15 00:00:00,TMP,surface,-97.5004,35.4329,275.813
2018-11-15 00:00:00,2018-11-15 00:00:00,TMP,surface,-96.5629,35.4329,275.955
2018-11-15 00:00:00,2018-11-15 00:00:00,TMP,surface,-95.6254,35.4329,275.992
2018-11-15 00:00:00,2018-11-15 00:00:00,TMP,surface,-94.6879,35.4329,275.698
2018-11-15 00:00:00,2018-11-15 00:00:00,TMP,surface,-93.7504,35.4329,275.216
2018-11-15 00:00:00,2018-11-15 00:00:00,TMP,surface,-92.8129,35.4329,274.963
2018-11-15 00:00:00,2018-11-15 00:00:00,TMP,surface,-107.813,36.3778,272.13
2018-11-15 00:00:00,2018-11-15 00:00:00,TMP,surface,-106.875,36.3778,271.064
2018-11-15 00:00:00,2018-11-15 00:00:00,TMP,surface,-105.938,36.3778,271.25
2018-11-15 00:00:00,2018-11-15 00:00:00,TMP,surface,-105,36.3778,272.544
2018-11-15 00:00:00,2018-11-15 00:00:00,TMP,surface,-104.063,36.3778,273.931
2018-11-15 00:00:00,2018-11-15 00:00:00,TMP,surface,-103.125,36.3778,274.872
2018-11-15 00:00:00,2018-11-15 00:00:00,TMP,surface,-102.188,36.3778,275.143
2018-11-15 00:00:00,2018-11-15 00:00:00,TMP,surface,-101.25,36.3778,274.927
2018-11-15 00:00:00,2018-11-15 00:00:00,TMP,surface,-100.313,36.3778,274.93
2018-11-15 00:00:00,2018-11-15 00:00:00,TMP,surface,-99.3754,36.3778,274.928
2018-11-15 00:00:00,2018-11-15 00:00:00,TMP,surface,-98.4379,36.3778,274.687
2018-11-15 00:00:00,2018-11-15 00:00:00,TMP,surface,-97.5004,36.3778,274.608
2018-11-15 00:00:00,2018-11-15 00:00:00,TMP,surface,-96.5629,36.3778,274.771
2018-11-15 00:00:00,2018-11-15 00:00:00,TMP,surface,-95.6254,36.3778,274.752
2018-11-15 00:00:00,2018-11-15 00:00:00,TMP,surface,-94.6879,36.3778,274.373
2018-11-15 00:00:00,2018-11-15 00:00:00,TMP,surface,-93.7504,36.3778,273.88
2018-11-15 00:00:00,2018-11-15 00:00:00,TMP,surface,-92.8129,36.3778,273.661
2018-11-15 00:00:00,2018-11-15 00:00:00,PRATE,surface,-107.813,25.0393,1.18e-05
2018-11-15 00:00:00,2018-11-15 00:00:00,PRATE,surface,-106.875,25.0393,1.45e-05
2018-11-15 00:00:00,2018-11-15 00:00:00,PRATE,surface,-105.938,25.0393,1.04e-05
2018-11-15 00:00:00,2018-11-15 00:00:00,PRATE,surface,-105,25.0393,4.9e-06
2018-11-15 00:00:00,2018-11-15 00:00:00,PRATE,surface,-104.063,25.0393,3.9e-06
2018-11-15 00:00:00,2018-11-15 00:00:00,PRATE,surface,-103.125,25.0393,3.1e-06
2018-11-15 00:00:00,2018-11-15 00:00:00,PRATE,surface,-102.188,25.0393,3.5e-06
2018-11-15 00:00:00,2018-11-15 00:00:00,PRATE,surface,-101.25,25.0393,6.7e-06
2018-11-15 00:00:00,2018-11-15 00:00:00,PRATE,surface,-100.313,25.0393,9.4e-06
2018-11-15 00:00:00,2018-11-15 00:00:00,PRATE,surface,-99.3754,25.0393,1.06e-05
2018-11-15 00:00:00,2018-11-15 00:00:00,PRATE,surface,-98.4379,25.0393,1.42e-05
2018-11-15 00:00:00,2018-11-15 00:00:00,PRATE,surface,-97.5004,25.0393,2.04e-05
2018-11-15 00:00:00,2018-11-15 00:00:00,PRATE,surface,-96.5629,25.0393,3.36e-05
2018-11-15 00:00:00,2018-11-15 00:00:00,PRATE,surface,-95.6254,25.0393,4.18e-05
2018-11-15 00:00:00,2018-11-15 00:00:00,PRATE,surface,-94.6879,25.0393,5.12e-05
2018-11-15 00:00:00,2018-11-15 00:00:00,PRATE,surface,-93.7504,25.0393,5.67e-05
2018-11-15 00:00:00,2018-11-15 00:00:00,PRATE,surface,-92.8129,25.0393,7.17e-05
2018-11-15 00:00:00,2018-11-15 00:00:00,PRATE,surface,-107.813,25.9842,1.79e-05
2018-11-15 00:00:00,2018-11-15 00:00:00,PRATE,surface,-106.875,25.9842,1.41e-05
2018-11-15 00:00:00,2018-11-15 00:00:00,PRATE,surface,-105.938,25.9842,4.6e-06
2018-11-15 00:00:00,2018-11-15 00:00:00,PRATE,surface,-105,25.9842,3.3e-06
2018-11-15 00:00:00,2018-11-15 00:00:00,PRATE,surface,-104.063,25.9842,2.7e-06
2018-11-15 00:00:00,2018-11-15 00:00:00,PRATE,surface,-103.125,25.9842,1.5e-06
2018-11-15 00:00:00,2018-11-15 00:00:00,PRATE,surface,-102.188,25.9842,2.7e-06
2018-11-15 00:00:00,2018-11-15 00:00:00,PRATE,surface,-101.25,25.9842,5e-06
2018-11-15 00:00:00,2018-11-15 00:00:00,PRATE,surface,-100.313,25.9842,8.8e-06
2018-11-15 00:00:00,2018-11-15 00:00:00,PRATE,surface,-99.3754,25.9842,1e-05
2018-11-15 00:00:00,2018-11-15 00:00:00,PRATE,surface,-98.4379,25.9842,1.57e-05
2018-11-15 00:00:00,2018-11-15 00:00:00,PRATE,surface,-97.5004,25.9842,1.91e-05
2018-11-15 00:00:00,2018-11-15 00:00:00,PRATE,surface,-96.5629,25.9842,2.65e-05
2018-11-15 00:00:00,2018-11-15 00:00:00,PRATE,surface,-95.6254,25.9842,3.21e-05
2018-11-15 00:00:00,2018-11-15 00:00:00,PRATE,surface,-94.6879,25.9842,3.79e-05
2018-11-15 00:00:00,2018-11-15 00:00:00,PRATE,surface,-93.7504,25.9842,4.35e-05
2018-11-15 00:00:00,2018-11-15 00:00:00,PRATE,surface,-92.8129,25.9842,5.54e-05
2018-11-15 00:00:00,2018-11-15 00:00:00,PRATE,surface,-107.813,26.929,2.21e-05
2018-11-15 00:00:00,2018-11-15 00:00:00,PRATE,surface,-106.875,26.929,7e-06
2018-11-15 00:00:00,2018-11-15 00:00:00,PRATE,surface,-105.938,26.929,2.2e-06
2018-11-15 00:00:00,2018-11-15 00:00:00,PRATE,surface,-105,26.929,2.1e-06
2018-11-15 00:00:00,2018-11-15 00:00:00,PRATE,surface,-104.063,26.929,1.8e-06
2018-11-15 00:00:00,2018-11-15 00:00:00,PRATE,surface,-103.125,26.929,2.9e-06
2018-11-15 00:00:00,2018-11-15 00:00:00,PRATE,surface,-102.188,26.929,5.1e-06
2018-11-15 00:00:00,2018-11-15 00:00:00,PRATE,surface,-101.25,26.929,6.2e-06
2018-11-15 00:00:00,2018-11-15 00:00:00,PRATE,surface,-100.313,26.929,9.7e-06
2018-11-15 00:00:00,2018-11-15 00:00:00,PRATE,surface,-99.3754,26.929,1.27e-05
2018-11-15 00:00:00,2018-11-15 00:00:00,PRATE,surface,-98.4379,26.929,1.55e-05
2018-11-15 00:00:00,2018-11-15 00:00:00,PRATE,surface,-97.5004,26.929,1.87e-05
2018-11-15 00:00:00,2018-11-15 00:00:00,PRATE,surface,-96.5629,26.929,2.69e-05
2018-11-15 00:00:00,2018-11-15 00:00:00,PRATE,surface,-95.6254,26.929,2.8e-05
2018-11-15 00:00:00,2018-11-15 00:00:00,PRATE,surface,-94.6879,26.929,2.93e-05
2018-11-15 00:00:00,2018-11-15 00:00:00,PRATE,surface,-93.7504,26.929,3.02e-05
2018-11-15 00:00:00,2018-11-15 00:00:00,PRATE,surface,-92.8129,26.929,3.56e-05
2018-11-15 00:00:00,2018-11-15 00:00:00,PRATE,surface,-107.813,27.8739,1.96e-05
2018-11-15 00:00:00,2018-11-15 00:00:00,PRATE,surface,-106.875,27.8739,3.1e-06
2018-11-15 00:00:00,2018-11-15 00:00:00,PRATE,surface,-105.938,27.8739,1.2e-06
2018-11-15 00:00:00,2018-11-15 00:00:00,PRATE,surface,-105,27.8739,1.1e-06
2018-11-15 00:00:00,2018-11-15 00:00:00,PRATE,surface,-104.063,27.8739,2.3e-06
2018-11-15 00:00:00,2018-11-15 00:00:00,PRATE,surface,-103.125,27.8739,4.2e-06
2018-11-15 00:00:00,2018-11-15 00:00:00,PRATE,surface,-102.188,27.8739,5e-06
2018-11-15 00:00:00,2018-11-15 00:00:00,PRATE,surface,-101.25,27.8739,6.6e-06
2018-11-15 00:00:00,2018-11-15 00:00:00,PRATE,surface,-100.313,27.8739,9.1e-06
2018-11-15 00:00:00,2018-11-15 00:00:00,PRATE,surface,-99.3754,27.8739,1.19e-05
2018-11-15 00:00:00,2018-11-15 00:00:00,PRATE,surface,-98.4379,27.8739,1.32e-05
2018-11-15 00:00:00,2018-11-15 00:00:00,PRATE,surface,-97.5004,27.8739,1.53e-05
2018-11-15 00:00:00,2018-11-15 00:00:00,PRATE,surface,-96.5629,27.8739,2.05e-05
2018-11-15 00:00:00,2018-11-15 00:00:00,PRATE,surface,-95.6254,27.8739,2.41e-05
2018-11-15 00:00:00,2018-11-15 00:00:00,PRATE,surface,-94.6879,27.8739,2.38e-05
2018-11-15 00:00:00,2018-11-15 00:00:00,PRATE,surface,-93.7504,27.8739,2.6e-05
2018-11-15 00:00:00,2018-11-15 00:00:00,PRATE,surface,-92.8129,27.8739,2.65e-05
2018-11-15 00:00:00,2018-11-15 00:00:00,PRATE,surface,-107.813,28.8188,1.22e-05
2018-11-15 00:00:00,2018-11-15 00:00:00,PRATE,surface,-106.875,28.8188,2.2e-06
2018-11-15 00:00:00,2018-11-15 00:00:00,PRATE,surface,-105.938,28.8188,8e-07
2018-11-15 00:00:00,2018-11-15 00:00:00,PRATE,surface,-105,28.8188,9e-07
2018-11-15 00:00:00,2018-11-15 00:00:00,PRATE,surface,-104.063,28.8188,2.1e-06
2018-11-15 00:00:00,2018-11-15 00:00:00,PRATE,surface,-103.125,28.8188,2.5e-06
2018-11-15 00:00:00,2018-11-15 00:00:00,PRATE,surface,-102.188,28.8188,4.1e-06
2018-11-15 00:00:00,2018-11-15 00:00:00,PRATE,surface,-101.25,28.8188,6.1e-06
2018-11-15 00:00:00,2018-11-15 00:00:00,PRATE,surface,-100.313,28.8188,7.9e-06
2018-11-15 00:00:00,2018-11-15 00:00:00,PRATE,surface,-99.3754,28.8188,1.05e-05
2018-11-15 00:00:00,2018-11-15 00:00:00,PRATE,surface,-98.4379,28.8188,1.36e-05
2018-11-15 00:00:00,2018-11-15 00:00:00,PRATE,surface,-97.5004,28.8188,1.46e-05
2018-11-15 00:00:00,2018-11-15 00:00:00,PRATE,surface,-96.5629,28.8188,1.75e-05
2018-11-15 00:00:00,2018-11-15 00:00:00,PRATE,surface,-95.6254,28.8188,2.31e-05
2018-11-15 00:00:00,2018-11-15 00:00:00,PRATE,surface,-94.6879,28.8188,2.83e-05
2018-11-15 00:00:00,2018-11-15 00:00:00,PRATE,surface,-93.7504,28.8188,3.42e-05
2018-11-15 00:00:00,2018-11-15 00:00:00,PRATE,surface,-92.8129,28.8188,3.47e-05
2018-11-15 00:00:00,2018-11-15 00:00:00,PRATE,surface,-107.813,29.7637,5.2e-06
2018-11-15 00:00:00,2018-11-15 00:00:00,PRATE,surface,-106.875,29.7637,2e-06
2018-11-15 00:00:00,2018-11-15 00:00:00,PRATE,surface,-105.938,29.7637,1.5e-06
2018-11-15 00:00:00,2018-11-15 00:00:00,PRATE,surface,-105,29.7637,2.1e-06
2018-11-15 00:00:00,2018-11-15 00:00:00,PRATE,surface,-104.063,29.7637,3.6e-06
2018-11-15 00:00:00,2018-11-15 00:00:00,PRATE,surface,-103.125,29.7637,3.7e-06
2018-11-15 00:00:00,2018-11-15 00:00:00,PRATE,surface,-102.188,29.7637,4.2e-06
2018-11-15 00:00:00,2018-11-15 00:00:00,PRATE,surface,-101.25,29.7637,6.5e-06
2018-11-15 00:00:00,2018-11-15 00:00:00,PRATE,surface,-100.313,29.7637,8.7e-06
2018-11-15 00:00:00,2018-11-15 00:00:00,PRATE,surface,-99.3754,29.7637,1.29e-05
2018-11-15 00:00:00,2018-11-15 00:00:00,PRATE,surface,-98.4379,29.7637,1.37e-05
2018-11-15 00:00:00,2018-11-15 00:00:00,PRATE,surface,-97.5004,29.7637,1.78e-05
2018-11-15 00:00:00,2018-11-15 00:00:00,PRATE,surface,-96.5629,29.7637,2.92e-05
2018-11-15 00:00:00,2018-11-15 00:00:00,PRATE,surface,-95.6254,29.7637,3.84e-05
2018-11-15 00:00:00,2018-11-15 00:00:00,PRATE,surface,-94.6879,29.7637,4.25e-05
2018-11-15 00:00:00,2018-11-15 00:00:00,PRATE,surface,-93.7504,29.7637,4.54e-05
2018-11-15 00:00:00,2018-11-15 00:00:00,PRATE,surface,-92.8129,29.7637,4.01e-05
2018-11-15 00:00:00,2018-11-15 00:00:00,PRATE,surface,-107.813,30.7085,3.6e-06
2018-11-15 00:00:00,2018-11-15 00:00:00,PRATE,surface,-106.875,30.7085,2e-06
2018-11-15 00:00:00,2018-11-15 00:00:00,PRATE,surface,-105.938,30.7085,2.8e-06
2018-11-15 00:00:00,2018-11-15 00:00:00,PRATE,surface,-105,30.7085,4.9e-06
2018-11-15 00:00:00,2018-11-15 00:00:00,PRATE,surface,-104.063,30.7085,5.8e-06
2018-11-15 00:00:00,2018-11-15 00:00:00,PRATE,surface,-103.125,30.7085,5.4e-06
2018-11-15 00:00:00,2018-11-15 00:00:00,PRATE,surface,-102.188,30.7085,5.6e-06
2018-11-15 00:00:00,2018-11-15 00:00:00,PRATE,surface,-101.25,30.7085,8.5e-06
2018-11-15 00:00:00,2018-11-15 00:00:00,PRATE,surface,-100.313,30.7085,9.7e-06
2018-11-15 00:00:00,2018-11-15 00:00:00,PRATE,surface,-99.3754,30.7085,1.1e-05
2018-11-15 00:00:00,2018-11-15 00:00:00,PRATE,surface,-98.4379,30.7085,1.08e-05
2018-11-15 00:00:00,2018-11-15 00:00:00,PRATE,surface,-97.5004,30.7085,1.6e-05
2018-11-15 00:00:00,2018-11-15 00:00:00,PRATE,surface,-96.5629,30.7085,2.93e-05
2018-11-15 00:00:00,2018-11-15 00:00:00,PRATE,surface,-95.6254,30.7085,4.32e-05
2018-11-15 00:00:00,2018-11-15 00:00:00,PRATE,surface,-94.6879,30.7085,5.24e-05
2018-11-15 00:00:00,2018-11-15 00:00:00,PRATE,surface,-93.7504,30.7085,5.57e-05
2018-11-15 00:00:00,2018-11-15 00:00:00,PRATE,surface,-92.8129,30.7085,4.92e-05
2018-11-15 00:00:00,2018-11-15 00:00:00,PRATE,surface,-107.813,31.6534,7.6e-06
2018-11-15 00:00:00,2018-11-15 00:00:00,PRATE,surface,-106.875,31.6534,4.7e-06
2018-11-15 00:00:00,2018-11-15 00:00:00,PRATE,surface,-105.938,31.6534,5.5e-06
2018-11-15 00:00:00,2018-11-15 00:00:00,PRATE,surface,-105,31.6534,7.9e-06
2018-11-15 00:00:00,2018-11-15 00:00:00,PRATE,surface,-104.063,31.6534,9.4e-06
2018-11-15 00:00:00,2018-11-15 00:00:00,PRATE,surface,-103.125,31.6534,8.9e-06
2018-11-15 00:00:00,2018-11-15 00:00:00,PRATE,surface,-102.188,31.6534,1.07e-05
2018-11-15 00:00:00,2018-11-15 00:00:00,PRATE,surface,-101.25,31.6534,1.16e-05
2018-11-15 00:00:00,2018-11-15 00:00:00,PRATE,surface,-100.313,31.6534,1.07e-05
2018-11-15 00:00:00,2018-11-15 00:00:00,PRATE,surface,-99.3754,31.6534,8.3e-06
2018-11-15 00:00:00,2018-11-15 00:00:00,PRATE,surface,-98.4379,31.6534,8.5e-06
2018-11-15 00:00:00,2018-11-15 00:00:00,PRATE,surface,-97.5004,31.6534,1.46e-05
2018-11-15 00:00:00,2018-11-15 00:00:00,PRATE,surface,-96.5629,31.6534,2.86e-05
2018-11-15 00:00:00,2018-11-15 00:00:00,PRATE,surface,-95.6254,31.6534,4.59e-05
2018-11-15 00:00:00,2018-11-15 00:00:00,PRATE,surface,-94.6879,31.6534,6.22e-05
2018-11-15 00:00:00,2018-11-15 00:00:00,PRATE,surface,-93.7504,31.6534,7.57e-05
2018-11-15 00:00:00,2018-11-15 00:00:00,PRATE,surface,-92.8129,31.6534,7.01e-05
2018-11-15 00:00:00,2018-11-15 00:00:00,PRATE,surface,-107.813,32.5983,1.74e-05
2018-11-15 00:00:00,2018-11-15 00:00:00,PRATE,surface,-106.875,32.5983,1.51e-05
2018-11-15 00:00:00,2018-11-15 00:00:00,PRATE,surface,-105.938,32.5983,1.23e-05
2018-11-15 00:00:00,2018-11-15 00:00:00,PRATE,surface,-105,32.5983,8.8e-06
2018-11-15 00:00:00,2018-11-15 00:00:00,PRATE,surface,-104.063,32.5983,1.03e-05
2018-11-15 00:00:00,2018-11-15 00:00:00,PRATE,surface,-103.125,32.5983,1.19e-05
2018-11-15 00:00:00,2018-11-15 00:00:00,PRATE,surface,-102.188,32.5983,1.52e-05
2018-11-15 00:00:00,2018-11-15 00:00:00,PRATE,surface,-101.25,32.5983,1.56e-05
2018-11-15 00:00:00,2018-11-15 00:00:00,PRATE,surface,-100.313,32.5983,1.2e-05
2018-11-15 00:00:00,2018-11-15 00:00:00,PRATE,surface,-99.3754,32.5983,8.6e-06
2018-11-15 00:00:00,2018-11-15 00:00:00,PRATE,surface,-98.4379,32.5983,7.6e-06
2018-11-15 00:00:00,2018-11-15 00:00:00,PRATE,surface,-97.5004,32.5983,1.02e-05
2018-11-15 00:00:00,2018-11-15 00:00:00,PRATE,surface,-96.5629,32.5983,1.8e-05
2018-11-15 00:00:00,2018-11-15 00:00:00,PRATE,surface,-95.6254,32.5983,3.44e-05
2018-11-15 00:00:00,2018-11-15 00:00:00,PRATE,surface,-94.6879,32.5983,5.91e-05
2018-11-15 00:00:00,2018-11-15 00:00:00,PRATE,surface,-93.7504,32.5983,7.95e-05
2018-11-15 00:00:00,2018-11-15 00:00:00,PRATE,surface,-92.8129,32.5983,8.29e-05
2018-11-15 00:00:00,2018-11-15 00:00:00,PRATE,surface,-107.813,33.5432,2.74e-05
2018-11-15 00:00:00,2018-11-15 00:00:00,PRATE,surface,-106.875,33.5432,2.95e-05
2018-11-15 00:00:00,2018-11-15 00:00:00,PRATE,surface,-105.938,33.5432,2.27e-05
2018-11-15 00:00:00,2018-11-15 00:00:00,PRATE,surface,-105,33.5432,1.55e-05
2018-11-15 00:00:00,2018-11-15 00:00:00,PRATE,surface,-104.063,33.5432,1.3e-05
2018-11-15 00:00:00,2018-11-15 00:00:00,PRATE,surface,-103.125,33.5432,1.5e-05
2018-11-15 00:00:00,2018-11-15 00:00:00,PRATE,surface,-102.188,33.5432,1.68e-05
2018-11-15 00:00:00,2018-11-15 00:00:00,PRATE,surface,-101.25,33.5432,1.58e-05
2018-11-15 00:00:00,2018-11-15 00:00:00,PRATE,surface,-100.313,33.5432,1.19e-05
2018-11-15 00:00:00,2018-11-15 00:00:00,PRATE,surface,-99.3754,33.5432,9.2e-06
2018-11-15 00:00:00,2018-11-15 00:00:00,PRATE,surface,-98.4379,33.5432,9.6e-06
2018-11-15 00:00:00,2018-11-15 00:00:00,PRATE,surface,-97.5004,33.5432,1.22e-05
2018-11-15 00:00:00,2018-11-15 00:00:00,PRATE,surface,-96.5629,33.5432,1.56e-05
2018-11-15 00:00:00,2018-11-15 00:00:00,PRATE,surface,-95.6254,33.5432,2.19e-05
2018-11-15 00:00:00,2018-11-15 00:00:00,PRATE,surface,-94.6879,33.5432,3.72e-05
2018-11-15 00:00:00,2018-11-15 00:00:00,PRATE,surface,-93.7504,33.5432,5.95e-05
2018-11-15 00:00:00,2018-11-15 00:00:00,PRATE,surface,-92.8129,33.5432,7.25e-05
2018-11-15 00:00:00,2018-11-15 00:00:00,PRATE,surface,-107.813,34.4881,2.03e-05
2018-11-15 00:00:00,2018-11-15 00:00:00,PRATE,surface,-106.875,34.4881,2.02e-05
2018-11-15 00:00:00,2018-11-15 00:00:00,PRATE,surface,-105.938,34.4881,1.79e-05
2018-11-15 00:00:00,2018-11-15 00:00:00,PRATE,surface,-105,34.4881,1.77e-05
2018-11-15 00:00:00,2018-11-15 00:00:00,PRATE,surface,-104.063,34.4881,1.59e-05
2018-11-15 00:00:00,2018-11-15 00:00:00,PRATE,surface,-103.125,34.4881,1.39e-05
2018-11-15 00:00:00,2018-11-15 00:00:00,PRATE,surface,-102.188,34.4881,1.32e-05
2018-11-15 00:00:00,2018-11-15 00:00:00,PRATE,surface,-101.25,34.4881,1.24e-05
2018-11-15 00:00:00,2018-11-15 00:00:00,PRATE,surface,-100.313,34.4881,1.11e-05
2018-11-15 00:00:00,2018-11-15 00:00:00,PRATE,surface,-99.3754,34.4881,9.9e-06
2018-11-15 00:00:00,2018-11-15 00:00:00,PRATE,surface,-98.4379,34.4881,1.1e-05
2018-11-15 00:00:00,2018-11-15 00:00:00,PRATE,surface,-97.5004,34.4881,1.4e-05
2018-11-15 00:00:00,2018-11-15 00:00:00,PRATE,surface,-96.5629,34.4881,1.69e-05
2018-11-15 00:00:00,2018-11-15 00:00:00,PRATE,surface,-95.6254,34.4881,1.92e-05
2018-11-15 00:00:00,2018-11-15 00:00:00,PRATE,surface,-94.6879,34.4881,2.44e-05
2018-11-15 00:00:00,2018-11-15 00:00:00,PRATE,surface,-93.7504,34.4881,3.65e-05
2018-11-15 00:00:00,2018-11-15 00:00:00,PRATE,surface,-92.8129,34.4881,5e-05
2018-11-15 00:00:00,2018-11-15 00:00:00,PRATE,surface,-107.813,35.4329,1.39e-05
2018-11-15 00:00:00,2018-11-15 00:00:00,PRATE,surface,-106.875,35.4329,1.15e-05
2018-11-15 00:00:00,2018-11-15 00:00:00,PRATE,surface,-105.938,35.4329,1.08e-05
2018-11-15 00:00:00,2018-11-15 00:00:00,PRATE,surface,-105,35.4329,1.54e-05
2018-11-15 00:00:00,2018-11-15 00:00:00,PRATE,surface,-104.063,35.4329,1.67e-05
2018-11-15 00:00:00,2018-11-15 00:00:00,PRATE,surface,-103.125,35.4329,1.32e-05
2018-11-15 00:00:00,2018-11-15 00:00:00,PRATE,surface,-102.188,35.4329,9.8e-06
2018-11-15 00:00:00,2018-11-15 00:00:00,PRATE,surface,-101.25,35.4329,1.02e-05
2018-11-15 00:00:00,2018-11-15 00:00:00,PRATE,surface,-100.313,35.4329,1.08e-05
2018-11-15 00:00:00,2018-11-15 00:00:00,PRATE,surface,-99.3754,35.4329,1.09e-05
2018-11-15 00:00:00,2018-11-15 00:00:00,PRATE,surface,-98.4379,35.4329,1.23e-05
2018-11-15 00:00:00,2018-11-15 00:00:00,PRATE,surface,-97.5004,35.4329,1.51e-05
2018-11-15 00:00:00,2018-11-15 00:00:00,PRATE,surface,-96.5629,35.4329,1.79e-05
2018-11-15 00:00:00,2018-11-15 00:00:00,PRATE,surface,-95.6254,35.4329,1.96e-05
2018-11-15 00:00:00,2018-11-15 00:00:00,PRATE,surface,-94.6879,35.4329,2.14e-05
2018-11-15 00:00:00,2018-11-15 00:00:00,PRATE,surface,-93.7504,35.4329,2.67e-05
2018-11-15 00:00:00,2018-11-15 00:00:00,PRATE,surface,-92.8129,35.4329,3.61e-05
2018-11-15 00:00:00,2018-11-15 00:00:00,PRATE,surface,-107.813,36.3778,2.56e-05
2018-11-15 00:00:00,2018-11-15 00:00:00,PRATE,surface,-106.875,36.3778,2.15e-05
2018-11-15 00:00:00,2018-11-15 00:00:00,PRATE,surface,-105.938,36.3778,1.54e-05
2018-11-15 00:00:00,2018-11-15 00:00:00,PRATE,surface,-105,36.3778,1.8e-05
2018-11-15 00:00:00,2018-11-15 00:00:00,PRATE,surface,-104.063,36.3778,1.69e-05
2018-11-15 00:00:00,2018-11-15 00:00:00,PRATE,surface,-103.125,36.3778,1.35e-05
2018-11-15 00:00:00,2018-11-15 00:00:00,PRATE,surface,-102.188,36.3778,9.8e-06
2018-11-15 00:00:00,2018-11-15 00:00:00,PRATE,surface,-101.25,36.3778,9.1e-06
2018-11-15 00:00:00,2018-11-15 00:00:00,PRATE,surface,-100.313,36.3778,1e-05
2018-11-15 00:00:00,2018-11-15 00:00:00,PRATE,surface,-99.3754,36.3778,1.06e-05
2018-11-15 00:00:00,2018-11-15 00:00:00,PRATE,surface,-98.4379,36.3778,1.16e-05
2018-11-15 00:00:00,2018-11-15 00:00:00,PRATE,surface,-97.5004,36.3778,1.32e-05
2018-11-15 00:00:00,2018-11-15 00:00:00,PRATE,surface,-96.5629,36.3778,1.51e-05
2018-11-15 00:00:00,2018-11-15 00:00:00,PRATE,surface,-95.6254,36.3778,1.73e-05
2018-11-15 00:00:00,2018-11-15 00:00:00,PRATE,surface,-94.6879,36.3778,2e-05
2018-11-15 00:00:00,2018-11-15 00:00:00,PRATE,surface,-93.7504,36.3778,2.53e-05
2018-11-15 00:00:00,2018-11-15 00:00:00,PRATE,surface,-92.8129,36.3778,3.38e-05
