2014-03-27 00:00:00,2014-03-27 00:00:00,TMP,surface,-107.813,25.0393,296.462
2014-03-27 00:00:00,2014-03-27 00:00:00,TMP,surface,-106.875,25.0393,291.494
2014-03-27 00:00:00,2014-03-27 00:00:00,TMP,surface,-105.938,25.0393,286.456
2014-03-27 00:00:00,2014-03-27 00:00:00,TMP,surface,-105,25.0393,287.944
2014-03-27 00:00:00,2014-03-27 00:00:00,TMP,surface,-104.063,25.0393,293.091
2014-03-27 00:00:00,2014-03-27 00:00:00,TMP,surface,-103.125,25.0393,294.912
2014-03-27 00:00:00,2014-03-27 00:00:00,TMP,surface,-102.188,25.0393,293.808
2014-03-27 00:00:00,2014-03-27 00:00:00,TMP,surface,-101.25,25.0393,291.653
2014-03-27 00:00:00,2014-03-27 00:00:00,TMP,surface,-100.313,25.0393,291.733
2014-03-27 00:00:00,2014-03-27 00:00:00,TMP,surface,-99.3754,25.0393,293.942
2014-03-27 00:00:00,2014-03-27 00:00:00,TMP,surface,-98.4379,25.0393,295.946
2014-03-27 00:00:00,2014-03-27 00:00:00,TMP,surface,-97.5004,25.0393,293.992
2014-03-27 00:00:00,2014-03-27 00:00:00,TMP,surface,-96.5629,25.0393,294.843
2014-03-27 00:00:00,2014-03-27 00:00:00,TMP,surface,-95.6254,25.0393,296.73
2014-03-27 00:00:00,2014-03-27 00:00:00,TMP,surface,-94.6879,25.0393,297.045
2014-03-27 00:00:00,2014-03-27 00:00:00,TMP,surface,-93.7504,25.0393,296.483
2014-03-27 00:00:00,2014-03-27 00:00:00,TMP,surface,-92.8129,25.0393,296.411
2014-03-27 00:00:00,2014-03-27 00:00:00,TMP,surface,-107.813,25.9842,293.357
2014-03-27 00:00:00,2014-03-27 00:00:00,TMP,surface,-106.875,25.9842,287.523
2014-03-27 00:00:00,2014-03-27 00:00:00,TMP,surface,-105.938,25.9842,286.611
2014-03-27 00:00:00,2014-03-27 00:00:00,TMP,surface,-105,25.9842,290.57
2014-03-27 00:00:00,2014-03-27 00:00:00,TMP,surface,-104.063,25.9842,294.886
2014-03-27 00:00:00,2014-03-27 00:00:00,TMP,surface,-103.125,25.9842,296.358
2014-03-27 00:00:00,2014-03-27 00:00:00,TMP,surface,-102.188,25.9842,294.803
2014-03-27 00:00:00,2014-03-27 00:00:00,TMP,surface,-101.25,25.9842,293.178
2014-03-27 00:00:00,2014-03-27 00:00:00,TMP,surface,-100.313,25.9842,293.085
2014-03-27 00:00:00,2014-03-27 00:00:00,TMP,surface,-99.3754,25.9842,295.042
2014-03-27 00:00:00,2014-03-27 00:00:00,TMP,surface,-98.4379,25.9842,295.805
2014-03-27 00:00:00,2014-03-27 00:00:00,TMP,surface,-97.5004,25.9842,295.387
2014-03-27 00:00:00,2014-03-27 00:00:00,TMP,surface,-96.5629,25.9842,293.438
2014-03-27 00:00:00,2014-03-27 00:00:00,TMP,surface,-95.6254,25.9842,295.674
2014-03-27 00:00:00,2014-03-27 00:00:00,TMP,surface,-94.6879,25.9842,296.386
2014-03-27 00:00:00,2014-03-27 00:00:00,TMP,surface,-93.7504,25.9842,296.091
2014-03-27 00:00:00,2014-03-27 00:00:00,TMP,surface,-92.8129,25.9842,295.77
2014-03-27 00:00:00,2014-03-27 00:00:00,TMP,surface,-107.813,26.929,288.424
2014-03-27 00:00:00,2014-03-27 00:00:00,TMP,surface,-106.875,26.929,285.8
2014-03-27 00:00:00,2014-03-27 00:00:00,TMP,surface,-105.938,26.929,289.13
2014-03-27 00:00:00,2014-03-27 00:00:00,TMP,surface,-105,26.929,292.883
2014-03-27 00:00:00,2014-03-27 00:00:00,TMP,surface,-104.063,26.929,294.982
2014-03-27 00:00:00,2014-03-27 00:00:00,TMP,surface,-103.125,26.929,294.23
2014-03-27 00:00:00,2014-03-27 00:00:00,TMP,surface,-102.188,26.929,293.018
2014-03-27 00:00:00,2014-03-27 00:00:00,TMP,surface,-101.25,26.929,293.357
2014-03-27 00:00:00,2014-03-27 00:00:00,TMP,surface,-100.313,26.929,294.08
2014-03-27 00:00:00,2014-03-27 00:00:00,TMP,surface,-99.3754,26.929,295.069
2014-03-27 00:00:00,2014-03-27 00:00:00,TMP,surface,-98.4379,26.929,294.358
2014-03-27 00:00:00,2014-03-27 00:00:00,TMP,surface,-97.5004,26.929,292.554
2014-03-27 00:00:00,2014-03-27 00:00:00,TMP,surface,-96.5629,26.929,293.502
2014-03-27 00:00:00,2014-03-27 00:00:00,TMP,surface,-95.6254,26.929,295.176
2014-03-27 00:00:00,2014-03-27 00:00:00,TMP,surface,-94.6879,26.929,295.752
2014-03-27 00:00:00,2014-03-27 00:00:00,TMP,surface,-93.7504,26.929,295.562
2014-03-27 00:00:00,2014-03-27 00:00:00,TMP,surface,-92.8129,26.929,295.354
2014-03-27 00:00:00,2014-03-27 00:00:00,TMP,surface,-107.813,27.8739,286.149
2014-03-27 00:00:00,2014-03-27 00:00:00,TMP,surface,-106.875,27.8739,286.558
2014-03-27 00:00:00,2014-03-27 00:00:00,TMP,surface,-105.938,27.8739,290.64
2014-03-27 00:00:00,2014-03-27 00:00:00,TMP,surface,-105,27.8739,293.453
2014-03-27 00:00:00,2014-03-27 00:00:00,TMP,surface,-104.063,27.8739,293.662
2014-03-27 00:00:00,2014-03-27 00:00:00,TMP,surface,-103.125,27.8739,292.064
2014-03-27 00:00:00,2014-03-27 00:00:00,TMP,surface,-102.188,27.8739,291.667
2014-03-27 00:00:00,2014-03-27 00:00:00,TMP,surface,-101.25,27.8739,292.682
2014-03-27 00:00:00,2014-03-27 00:00:00,TMP,surface,-100.313,27.8739,293.773
2014-03-27 00:00:00,2014-03-27 00:00:00,TMP,surface,-99.3754,27.8739,293.699
2014-03-27 00:00:00,2014-03-27 00:00:00,TMP,surface,-98.4379,27.8739,293.061
2014-03-27 00:00:00,2014-03-27 00:00:00,TMP,surface,-97.5004,27.8739,292.866
2014-03-27 00:00:00,2014-03-27 00:00:00,TMP,surface,-96.5629,27.8739,293.259
2014-03-27 00:00:00,2014-03-27 00:00:00,TMP,surface,-95.6254,27.8739,293.869
2014-03-27 00:00:00,2014-03-27 00:00:00,TMP,surface,-94.6879,27.8739,294.331
2014-03-27 00:00:00,2014-03-27 00:00:00,TMP,surface,-93.7504,27.8739,294.454
2014-03-27 00:00:00,2014-03-27 00:00:00,TMP,surface,-92.8129,27.8739,294.568
2014-03-27 00:00:00,2014-03-27 00:00:00,TMP,surface,-107.813,28.8188,285.822
2014-03-27 00:00:00,2014-03-27 00:00:00,TMP,surface,-106.875,28.8188,287.656
2014-03-27 00:00:00,2014-03-27 00:00:00,TMP,surface,-105.938,28.8188,291.189
2014-03-27 00:00:00,2014-03-27 00:00:00,TMP,surface,-105,28.8188,293.398
2014-03-27 00:00:00,2014-03-27 00:00:00,TMP,surface,-104.063,28.8188,292.522
2014-03-27 00:00:00,2014-03-27 00:00:00,TMP,surface,-103.125,28.8188,291.24
2014-03-27 00:00:00,2014-03-27 00:00:00,TMP,surface,-102.188,28.8188,291.251
2014-03-27 00:00:00,2014-03-27 00:00:00,TMP,surface,-101.25,28.8188,292.282
2014-03-27 00:00:00,2014-03-27 00:00:00,TMP,surface,-100.313,28.8188,292.448
2014-03-27 00:00:00,2014-03-27 00:00:00,TMP,surface,-99.3754,28.8188,291.869
2014-03-27 00:00:00,2014-03-27 00:00:00,TMP,surface,-98.4379,28.8188,291.57
2014-03-27 00:00:00,2014-03-27 00:00:00,TMP,surface,-97.5004,28.8188,291.842
2014-03-27 00:00:00,2014-03-27 00:00:00,TMP,surface,-96.5629,28.8188,292.341
2014-03-27 00:00:00,2014-03-27 00:00:00,TMP,surface,-95.6254,28.8188,292.243
2014-03-27 00:00:00,2014-03-27 00:00:00,TMP,surface,-94.6879,28.8188,291.79
2014-03-27 00:00:00,2014-03-27 00:00:00,TMP,surface,-93.7504,28.8188,292.378
2014-03-27 00:00:00,2014-03-27 00:00:00,TMP,surface,-92.8129,28.8188,292.934
2014-03-27 00:00:00,2014-03-27 00:00:00,TMP,surface,-107.813,29.7637,288.061
2014-03-27 00:00:00,2014-03-27 00:00:00,TMP,surface,-106.875,29.7637,289.63
2014-03-27 00:00:00,2014-03-27 00:00:00,TMP,surface,-105.938,29.7637,291.806
2014-03-27 00:00:00,2014-03-27 00:00:00,TMP,surface,-105,29.7637,292.394
2014-03-27 00:00:00,2014-03-27 00:00:00,TMP,surface,-104.063,29.7637,292.128
2014-03-27 00:00:00,2014-03-27 00:00:00,TMP,surface,-103.125,29.7637,291.878
2014-03-27 00:00:00,2014-03-27 00:00:00,TMP,surface,-102.188,29.7637,292.32
2014-03-27 00:00:00,2014-03-27 00:00:00,TMP,surface,-101.25,29.7637,292.274
2014-03-27 00:00:00,2014-03-27 00:00:00,TMP,surface,-100.313,29.7637,291.299
2014-03-27 00:00:00,2014-03-27 00:00:00,TMP,surface,-99.3754,29.7637,290.448
2014-03-27 00:00:00,2014-03-27 00:00:00,TMP,surface,-98.4379,29.7637,290.286
2014-03-27 00:00:00,2014-03-27 00:00:00,TMP,surface,-97.5004,29.7637,290.674
2014-03-27 00:00:00,2014-03-27 00:00:00,TMP,surface,-96.5629,29.7637,291.186
2014-03-27 00:00:00,2014-03-27 00:00:00,TMP,surface,-95.6254,29.7637,291.566
2014-03-27 00:00:00,2014-03-27 00:00:00,TMP,surface,-94.6879,29.7637,291.469
2014-03-27 00:00:00,2014-03-27 00:00:00,TMP,surface,-93.7504,29.7637,291.269
2014-03-27 00:00:00,2014-03-27 00:00:00,TMP,surface,-92.8129,29.7637,292.616
2014-03-27 00:00:00,2014-03-27 00:00:00,TMP,surface,-107.813,30.7085,291.181
2014-03-27 00:00:00,2014-03-27 00:00:00,TMP,surface,-106.875,30.7085,291.92
2014-03-27 00:00:00,2014-03-27 00:00:00,TMP,surface,-105.938,30.7085,291.92
2014-03-27 00:00:00,2014-03-27 00:00:00,TMP,surface,-105,30.7085,291.552
2014-03-27 00:00:00,2014-03-27 00:00:00,TMP,surface,-104.063,30.7085,291.208
2014-03-27 00:00:00,2014-03-27 00:00:00,TMP,surface,-103.125,30.7085,291.826
2014-03-27 00:00:00,2014-03-27 00:00:00,TMP,surface,-102.188,30.7085,292.176
2014-03-27 00:00:00,2014-03-27 00:00:00,TMP,surface,-101.25,30.7085,291.616
2014-03-27 00:00:00,2014-03-27 00:00:00,TMP,surface,-100.313,30.7085,290.574
2014-03-27 00:00:00,2014-03-27 00:00:00,TMP,surface,-99.3754,30.7085,289.858
2014-03-27 00:00:00,2014-03-27 00:00:00,TMP,surface,-98.4379,30.7085,289.803
2014-03-27 00:00:00,2014-03-27 00:00:00,TMP,surface,-97.5004,30.7085,290.11
2014-03-27 00:00:00,2014-03-27 00:00:00,TMP,surface,-96.5629,30.7085,290.738
2014-03-27 00:00:00,2014-03-27 00:00:00,TMP,surface,-95.6254,30.7085,291.363
2014-03-27 00:00:00,2014-03-27 00:00:00,TMP,surface,-94.6879,30.7085,291.526
2014-03-27 00:00:00,2014-03-27 00:00:00,TMP,surface,-93.7504,30.7085,291.635
2014-03-27 00:00:00,2014-03-27 00:00:00,TMP,surface,-92.8129,30.7085,291.45
2014-03-27 00:00:00,2014-03-27 00:00:00,TMP,surface,-107.813,31.6534,291.747
2014-03-27 00:00:00,2014-03-27 00:00:00,TMP,surface,-106.875,31.6534,292.082
2014-03-27 00:00:00,2014-03-27 00:00:00,TMP,surface,-105.938,31.6534,291.574
2014-03-27 00:00:00,2014-03-27 00:00:00,TMP,surface,-105,31.6534,290.483
2014-03-27 00:00:00,2014-03-27 00:00:00,TMP,surface,-104.063,31.6534,290.475
2014-03-27 00:00:00,2014-03-27 00:00:00,TMP,surface,-103.125,31.6534,290.955
2014-03-27 00:00:00,2014-03-27 00:00:00,TMP,surface,-102.188,31.6534,291.125
2014-03-27 00:00:00,2014-03-27 00:00:00,TMP,surface,-101.25,31.6534,290.87
2014-03-27 00:00:00,2014-03-27 00:00:00,TMP,surface,-100.313,31.6534,290.395
2014-03-27 00:00:00,2014-03-27 00:00:00,TMP,surface,-99.3754,31.6534,289.918
2014-03-27 00:00:00,2014-03-27 00:00:00,TMP,surface,-98.4379,31.6534,289.797
2014-03-27 00:00:00,2014-03-27 00:00:00,TMP,surface,-97.5004,31.6534,289.989
2014-03-27 00:00:00,2014-03-27 00:00:00,TMP,surface,-96.5629,31.6534,290.512
2014-03-27 00:00:00,2014-03-27 00:00:00,TMP,surface,-95.6254,31.6534,290.984
2014-03-27 00:00:00,2014-03-27 00:00:00,TMP,surface,-94.6879,31.6534,290.883
2014-03-27 00:00:00,2014-03-27 00:00:00,TMP,surface,-93.7504,31.6534,290.669
2014-03-27 00:00:00,2014-03-27 00:00:00,TMP,surface,-92.8129,31.6534,290.579
2014-03-27 00:00:00,2014-03-27 00:00:00,TMP,surface,-107.813,32.5983,289.101
2014-03-27 00:00:00,2014-03-27 00:00:00,TMP,surface,-106.875,32.5983,289.738
2014-03-27 00:00:00,2014-03-27 00:00:00,TMP,surface,-105.938,32.5983,289.824
2014-03-27 00:00:00,2014-03-27 00:00:00,TMP,surface,-105,32.5983,289.451
2014-03-27 00:00:00,2014-03-27 00:00:00,TMP,surface,-104.063,32.5983,289.797
2014-03-27 00:00:00,2014-03-27 00:00:00,TMP,surface,-103.125,32.5983,290.418
2014-03-27 00:00:00,2014-03-27 00:00:00,TMP,surface,-102.188,32.5983,290.44
2014-03-27 00:00:00,2014-03-27 00:00:00,TMP,surface,-101.25,32.5983,290.507
2014-03-27 00:00:00,2014-03-27 00:00:00,TMP,surface,-100.313,32.5983,290.682
2014-03-27 00:00:00,2014-03-27 00:00:00,TMP,surface,-99.3754,32.5983,290.483
2014-03-27 00:00:00,2014-03-27 00:00:00,TMP,surface,-98.4379,32.5983,290.102
2014-03-27 00:00:00,2014-03-27 00:00:00,TMP,surface,-97.5004,32.5983,289.834
2014-03-27 00:00:00,2014-03-27 00:00:00,TMP,surface,-96.5629,32.5983,289.96
2014-03-27 00:00:00,2014-03-27 00:00:00,TMP,surface,-95.6254,32.5983,290.197
2014-03-27 00:00:00,2014-03-27 00:00:00,TMP,surface,-94.6879,32.5983,289.965
2014-03-27 00:00:00,2014-03-27 00:00:00,TMP,surface,-93.7504,32.5983,289.618
2014-03-27 00:00:00,2014-03-27 00:00:00,TMP,surface,-92.8129,32.5983,289.608
2014-03-27 00:00:00,2014-03-27 00:00:00,TMP,surface,-107.813,33.5432,285.55
2014-03-27 00:00:00,2014-03-27 00:00:00,TMP,surface,-106.875,33.5432,286.968
2014-03-27 00:00:00,2014-03-27 00:00:00,TMP,surface,-105.938,33.5432,287.747
2014-03-27 00:00:00,2014-03-27 00:00:00,TMP,surface,-105,33.5432,288.39
2014-03-27 00:00:00,2014-03-27 00:00:00,TMP,surface,-104.063,33.5432,289.442
2014-03-27 00:00:00,2014-03-27 00:00:00,TMP,surface,-103.125,33.5432,289.691
2014-03-27 00:00:00,2014-03-27 00:00:00,TMP,surface,-102.188,33.5432,289.648
2014-03-27 00:00:00,2014-03-27 00:00:00,TMP,surface,-101.25,33.5432,289.837
2014-03-27 00:00:00,2014-03-27 00:00:00,TMP,surface,-100.313,33.5432,290.37
2014-03-27 00:00:00,2014-03-27 00:00:00,TMP,surface,-99.3754,33.5432,290.194
2014-03-27 00:00:00,2014-03-27 00:00:00,TMP,surface,-98.4379,33.5432,289.568
2014-03-27 00:00:00,2014-03-27 00:00:00,TMP,surface,-97.5004,33.5432,288.949
2014-03-27 00:00:00,2014-03-27 00:00:00,TMP,surface,-96.5629,33.5432,288.616
2014-03-27 00:00:00,2014-03-27 00:00:00,TMP,surface,-95.6254,33.5432,288.693
2014-03-27 00:00:00,2014-03-27 00:00:00,TMP,surface,-94.6879,33.5432,288.71
2014-03-27 00:00:00,2014-03-27 00:00:00,TMP,surface,-93.7504,33.5432,288.346
2014-03-27 00:00:00,2014-03-27 00:00:00,TMP,surface,-92.8129,33.5432,288.248
2014-03-27 00:00:00,2014-03-27 00:00:00,TMP,surface,-107.813,34.4881,284.093
2014-03-27 00:00:00,2014-03-27 00:00:00,TMP,surface,-106.875,34.4881,285.752
2014-03-27 00:00:00,2014-03-27 00:00:00,TMP,surface,-105.938,34.4881,286.698
2014-03-27 00:00:00,2014-03-27 00:00:00,TMP,surface,-105,34.4881,287.858
2014-03-27 00:00:00,2014-03-27 00:00:00,TMP,surface,-104.063,34.4881,288.461
2014-03-27 00:00:00,2014-03-27 00:00:00,TMP,surface,-103.125,34.4881,288.755
2014-03-27 00:00:00,2014-03-27 00:00:00,TMP,surface,-102.188,34.4881,288.813
2014-03-27 00:00:00,2014-03-27 00:00:00,TMP,surface,-101.25,34.4881,289.178
2014-03-27 00:00:00,2014-03-27 00:00:00,TMP,surface,-100.313,34.4881,289.379
2014-03-27 00:00:00,2014-03-27 00:00:00,TMP,surface,-99.3754,34.4881,289.299
2014-03-27 00:00:00,2014-03-27 00:00:00,TMP,surface,-98.4379,34.4881,288.787
2014-03-27 00:00:00,2014-03-27 00:00:00,TMP,surface,-97.5004,34.4881,288.21
2014-03-27 00:00:00,2014-03-27 00:00:00,TMP,surface,-96.5629,34.4881,288.13
2014-03-27 00:00:00,2014-03-27 00:00:00,TMP,surface,-95.6254,34.4881,288.158
2014-03-27 00:00:00,2014-03-27 00:00:00,TMP,surface,-94.6879,34.4881,287.656
2014-03-27 00:00:00,2014-03-27 00:00:00,TMP,surface,-93.7504,34.4881,287.107
2014-03-27 00:00:00,2014-03-27 00:00:00,TMP,surface,-92.8129,34.4881,286.995
2014-03-27 00:00:00,2014-03-27 00:00:00,TMP,surface,-107.813,35.4329,284.546
2014-03-27 00:00:00,2014-03-27 00:00:00,TMP,surface,-106.875,35.4329,284.874
2014-03-27 00:00:00,2014-03-27 00:00:00,TMP,surface,-105.938,35.4329,285.01
2014-03-27 00:00:00,2014-03-27 00:00:00,TMP,surface,-105,35.4329,285.533
2014-03-27 00:00:00,2014-03-27 00:00:00,TMP,surface,-104.063,35.4329,287.208
2014-03-27 00:00:00,2014-03-27 00:00:00,TMP,surface,-103.125,35.4329,288.253
2014-03-27 00:00:00,2014-03-27 00:00:00,TMP,surface,-102.188,35.4329,288.39
2014-03-27 00:00:00,2014-03-27 00:00:00,TMP,surface,-101.25,35.4329,288.251
2014-03-27 00:00:00,2014-03-27 00:00:00,TMP,surface,-100.313,35.4329,288.21
2014-03-27 00:00:00,2014-03-27 00:00:00,TMP,surface,-99.3754,35.4329,287.958
2014-03-27 00:00:00,2014-03-27 00:00:00,TMP,surface,-98.4379,35.4329,287.606
2014-03-27 00:00:00,2014-03-27 00:00:00,TMP,surface,-97.5004,35.4329,287.47
2014-03-27 00:00:00,2014-03-27 00:00:00,TMP,surface,-96.5629,35.4329,287.386
2014-03-27 00:00:00,2014-03-27 00:00:00,TMP,surface,-95.6254,35.4329,287.235
2014-03-27 00:00:00,2014-03-27 00:00:00,TMP,surface,-94.6879,35.4329,286.949
2014-03-27 00:00:00,2014-03-27 00:00:00,TMP,surface,-93.7504,35.4329,286.237
2014-03-27 00:00:00,2014-03-27 00:00:00,TMP,surface,-92.8129,35.4329,285.821
2014-03-27 00:00:00,2014-03-27 00:00:00,TMP,surface,-107.813,36.3778,284.04
2014-03-27 00:00:00,2014-03-27 00:00:00,TMP,surface,-106.875,36.3778,281.802
2014-03-27 00:00:00,2014-03-27 00:00:00,TMP,surface,-105.938,36.3778,281.949
2014-03-27 00:00:00,2014-03-27 00:00:00,TMP,surface,-105,36.3778,283.091
2014-03-27 00:00:00,2014-03-27 00:00:00,TMP,surface,-104.063,36.3778,285.822
2014-03-27 00:00:00,2014-03-27 00:00:00,TMP,surface,-103.125,36.3778,286.821
2014-03-27 00:00:00,2014-03-27 00:00:00,TMP,surface,-102.188,36.3778,287.069
2014-03-27 00:00:00,2014-03-27 00:00:00,TMP,surface,-101.25,36.3778,287.152
2014-03-27 00:00:00,2014-03-27 00:00:00,TMP,surface,-100.313,36.3778,287.31
2014-03-27 00:00:00,2014-03-27 00:00:00,TMP,surface,-99.3754,36.3778,287.21
2014-03-27 00:00:00,2014-03-27 00:00:00,TMP,surface,-98.4379,36.3778,286.813
2014-03-27 00:00:00,2014-03-27 00:00:00,TMP,surface,-97.5004,36.3778,286.781
2014-03-27 00:00:00,2014-03-27 00:00:00,TMP,surface,-96.5629,36.3778,286.93
2014-03-27 00:00:00,2014-03-27 00:00:00,TMP,surface,-95.6254,36.3778,286.744
2014-03-27 00:00:00,2014-03-27 00:00:00,TMP,surface,-94.6879,36.3778,286.235
2014-03-27 00:00:00,2014-03-27 00:00:00,TMP,surface,-93.7504,36.3778,285.384
2014-03-27 00:00:00,2014-03-27 00:00:00,TMP,surface,-92.8129,36.3778,284.848
2014-03-27 00:00:00,2014-03-27 00:00:00,PRATE,surface,-107.813,25.0393,2e-07
2014-03-27 00:00:00,2014-03-27 00:00:00,PRATE,surface,-106.875,25.0393,1.03e-05
2014-03-27 00:00:00,2014-03-27 00:00:00,PRATE,surface,-105.938,25.0393,1.92e-05
2014-03-27 00:00:00,2014-03-27 00:00:00,PRATE,surface,-105,25.0393,2.7e-05
2014-03-27 00:00:00,2014-03-27 00:00:00,PRATE,surface,-104.063,25.0393,7.3e-06
2014-03-27 00:00:00,2014-03-27 00:00:00,PRATE,surface,-103.125,25.0393,3e-06
2014-03-27 00:00:00,2014-03-27 00:00:00,PRATE,surface,-102.188,25.0393,1.33e-05
2014-03-27 00:00:00,2014-03-27 00:00:00,PRATE,surface,-101.25,25.0393,3.42e-05
2014-03-27 00:00:00,2014-03-27 00:00:00,PRATE,surface,-100.313,25.0393,6.67e-05
2014-03-27 00:00:00,2014-03-27 00:00:00,PRATE,surface,-99.3754,25.0393,5.45e-05
2014-03-27 00:00:00,2014-03-27 00:00:00,PRATE,surface,-98.4379,25.0393,4.85e-05
2014-03-27 00:00:00,2014-03-27 00:00:00,PRATE,surface,-97.5004,25.0393,6.92e-05
2014-03-27 00:00:00,2014-03-27 00:00:00,PRATE,surface,-96.5629,25.0393,6.91e-05
2014-03-27 00:00:00,2014-03-27 00:00:00,PRATE,surface,-95.6254,25.0393,4.17e-05
2014-03-27 00:00:00,2014-03-27 00:00:00,PRATE,surface,-94.6879,25.0393,3.37e-05
2014-03-27 00:00:00,2014-03-27 00:00:00,PRATE,surface,-93.7504,25.0393,3.85e-05
2014-03-27 00:00:00,2014-03-27 00:00:00,PRATE,surface,-92.8129,25.0393,4.26e-05
2014-03-27 00:00:00,2014-03-27 00:00:00,PRATE,surface,-107.813,25.9842,5.7e-06
2014-03-27 00:00:00,2014-03-27 00:00:00,PRATE,surface,-106.875,25.9842,1.29e-05
2014-03-27 00:00:00,2014-03-27 00:00:00,PRATE,surface,-105.938,25.9842,2.98e-05
2014-03-27 00:00:00,2014-03-27 00:00:00,PRATE,surface,-105,25.9842,2.24e-05
2014-03-27 00:00:00,2014-03-27 00:00:00,PRATE,surface,-104.063,25.9842,5.7e-06
2014-03-27 00:00:00,2014-03-27 00:00:00,PRATE,surface,-103.125,25.9842,6.6e-06
2014-03-27 00:00:00,2014-03-27 00:00:00,PRATE,surface,-102.188,25.9842,1.35e-05
2014-03-27 00:00:00,2014-03-27 00:00:00,PRATE,surface,-101.25,25.9842,2.94e-05
2014-03-27 00:00:00,2014-03-27 00:00:00,PRATE,surface,-100.313,25.9842,6.28e-05
2014-03-27 00:00:00,2014-03-27 00:00:00,PRATE,surface,-99.3754,25.9842,5.09e-05
2014-03-27 00:00:00,2014-03-27 00:00:00,PRATE,surface,-98.4379,25.9842,6.18e-05
2014-03-27 00:00:00,2014-03-27 00:00:00,PRATE,surface,-97.5004,25.9842,8.99e-05
2014-03-27 00:00:00,2014-03-27 00:00:00,PRATE,surface,-96.5629,25.9842,0.0001035
2014-03-27 00:00:00,2014-03-27 00:00:00,PRATE,surface,-95.6254,25.9842,8.8e-05
2014-03-27 00:00:00,2014-03-27 00:00:00,PRATE,surface,-94.6879,25.9842,6.36e-05
2014-03-27 00:00:00,2014-03-27 00:00:00,PRATE,surface,-93.7504,25.9842,5.31e-05
2014-03-27 00:00:00,2014-03-27 00:00:00,PRATE,surface,-92.8129,25.9842,5.21e-05
2014-03-27 00:00:00,2014-03-27 00:00:00,PRATE,surface,-107.813,26.929,7.6e-06
2014-03-27 00:00:00,2014-03-27 00:00:00,PRATE,surface,-106.875,26.929,1.92e-05
2014-03-27 00:00:00,2014-03-27 00:00:00,PRATE,surface,-105.938,26.929,2.15e-05
2014-03-27 00:00:00,2014-03-27 00:00:00,PRATE,surface,-105,26.929,1.83e-05
2014-03-27 00:00:00,2014-03-27 00:00:00,PRATE,surface,-104.063,26.929,1.27e-05
2014-03-27 00:00:00,2014-03-27 00:00:00,PRATE,surface,-103.125,26.929,2.08e-05
2014-03-27 00:00:00,2014-03-27 00:00:00,PRATE,surface,-102.188,26.929,3.57e-05
2014-03-27 00:00:00,2014-03-27 00:00:00,PRATE,surface,-101.25,26.929,4.35e-05
2014-03-27 00:00:00,2014-03-27 00:00:00,PRATE,surface,-100.313,26.929,4.75e-05
2014-03-27 00:00:00,2014-03-27 00:00:00,PRATE,surface,-99.3754,26.929,4.89e-05
2014-03-27 00:00:00,2014-03-27 00:00:00,PRATE,surface,-98.4379,26.929,9.03e-05
2014-03-27 00:00:00,2014-03-27 00:00:00,PRATE,surface,-97.5004,26.929,0.0001334
2014-03-27 00:00:00,2014-03-27 00:00:00,PRATE,surface,-96.5629,26.929,0.0001272
2014-03-27 00:00:00,2014-03-27 00:00:00,PRATE,surface,-95.6254,26.929,0.0001068
2014-03-27 00:00:00,2014-03-27 00:00:00,PRATE,surface,-94.6879,26.929,8.49e-05
2014-03-27 00:00:00,2014-03-27 00:00:00,PRATE,surface,-93.7504,26.929,6.15e-05
2014-03-27 00:00:00,2014-03-27 00:00:00,PRATE,surface,-92.8129,26.929,4.92e-05
2014-03-27 00:00:00,2014-03-27 00:00:00,PRATE,surface,-107.813,27.8739,1.17e-05
2014-03-27 00:00:00,2014-03-27 00:00:00,PRATE,surface,-106.875,27.8739,1.88e-05
2014-03-27 00:00:00,2014-03-27 00:00:00,PRATE,surface,-105.938,27.8739,1.29e-05
2014-03-27 00:00:00,2014-03-27 00:00:00,PRATE,surface,-105,27.8739,1.28e-05
2014-03-27 00:00:00,2014-03-27 00:00:00,PRATE,surface,-104.063,27.8739,1.89e-05
2014-03-27 00:00:00,2014-03-27 00:00:00,PRATE,surface,-103.125,27.8739,3.62e-05
2014-03-27 00:00:00,2014-03-27 00:00:00,PRATE,surface,-102.188,27.8739,5.27e-05
2014-03-27 00:00:00,2014-03-27 00:00:00,PRATE,surface,-101.25,27.8739,4.54e-05
2014-03-27 00:00:00,2014-03-27 00:00:00,PRATE,surface,-100.313,27.8739,4.43e-05
2014-03-27 00:00:00,2014-03-27 00:00:00,PRATE,surface,-99.3754,27.8739,6.5e-05
2014-03-27 00:00:00,2014-03-27 00:00:00,PRATE,surface,-98.4379,27.8739,9.39e-05
2014-03-27 00:00:00,2014-03-27 00:00:00,PRATE,surface,-97.5004,27.8739,0.000112
2014-03-27 00:00:00,2014-03-27 00:00:00,PRATE,surface,-96.5629,27.8739,0.0001057
2014-03-27 00:00:00,2014-03-27 00:00:00,PRATE,surface,-95.6254,27.8739,8.52e-05
2014-03-27 00:00:00,2014-03-27 00:00:00,PRATE,surface,-94.6879,27.8739,6.3e-05
2014-03-27 00:00:00,2014-03-27 00:00:00,PRATE,surface,-93.7504,27.8739,3.5e-05
2014-03-27 00:00:00,2014-03-27 00:00:00,PRATE,surface,-92.8129,27.8739,2.89e-05
2014-03-27 00:00:00,2014-03-27 00:00:00,PRATE,surface,-107.813,28.8188,1.6e-05
2014-03-27 00:00:00,2014-03-27 00:00:00,PRATE,surface,-106.875,28.8188,1.93e-05
2014-03-27 00:00:00,2014-03-27 00:00:00,PRATE,surface,-105.938,28.8188,1.25e-05
2014-03-27 00:00:00,2014-03-27 00:00:00,PRATE,surface,-105,28.8188,1.14e-05
2014-03-27 00:00:00,2014-03-27 00:00:00,PRATE,surface,-104.063,28.8188,2.27e-05
2014-03-27 00:00:00,2014-03-27 00:00:00,PRATE,surface,-103.125,28.8188,3.85e-05
2014-03-27 00:00:00,2014-03-27 00:00:00,PRATE,surface,-102.188,28.8188,4.68e-05
2014-03-27 00:00:00,2014-03-27 00:00:00,PRATE,surface,-101.25,28.8188,3.69e-05
2014-03-27 00:00:00,2014-03-27 00:00:00,PRATE,surface,-100.313,28.8188,3.65e-05
2014-03-27 00:00:00,2014-03-27 00:00:00,PRATE,surface,-99.3754,28.8188,5.16e-05
2014-03-27 00:00:00,2014-03-27 00:00:00,PRATE,surface,-98.4379,28.8188,6.81e-05
2014-03-27 00:00:00,2014-03-27 00:00:00,PRATE,surface,-97.5004,28.8188,6.99e-05
2014-03-27 00:00:00,2014-03-27 00:00:00,PRATE,surface,-96.5629,28.8188,6.37e-05
2014-03-27 00:00:00,2014-03-27 00:00:00,PRATE,surface,-95.6254,28.8188,5.8e-05
2014-03-27 00:00:00,2014-03-27 00:00:00,PRATE,surface,-94.6879,28.8188,4.29e-05
2014-03-27 00:00:00,2014-03-27 00:00:00,PRATE,surface,-93.7504,28.8188,2.24e-05
2014-03-27 00:00:00,2014-03-27 00:00:00,PRATE,surface,-92.8129,28.8188,1.9e-05
2014-03-27 00:00:00,2014-03-27 00:00:00,PRATE,surface,-107.813,29.7637,1.51e-05
2014-03-27 00:00:00,2014-03-27 00:00:00,PRATE,surface,-106.875,29.7637,1.57e-05
2014-03-27 00:00:00,2014-03-27 00:00:00,PRATE,surface,-105.938,29.7637,1.22e-05
2014-03-27 00:00:00,2014-03-27 00:00:00,PRATE,surface,-105,29.7637,1.41e-05
2014-03-27 00:00:00,2014-03-27 00:00:00,PRATE,surface,-104.063,29.7637,2.1e-05
2014-03-27 00:00:00,2014-03-27 00:00:00,PRATE,surface,-103.125,29.7637,3.38e-05
2014-03-27 00:00:00,2014-03-27 00:00:00,PRATE,surface,-102.188,29.7637,3.75e-05
2014-03-27 00:00:00,2014-03-27 00:00:00,PRATE,surface,-101.25,29.7637,3.93e-05
2014-03-27 00:00:00,2014-03-27 00:00:00,PRATE,surface,-100.313,29.7637,4.42e-05
2014-03-27 00:00:00,2014-03-27 00:00:00,PRATE,surface,-99.3754,29.7637,5.71e-05
2014-03-27 00:00:00,2014-03-27 00:00:00,PRATE,surface,-98.4379,29.7637,6.6e-05
2014-03-27 00:00:00,2014-03-27 00:00:00,PRATE,surface,-97.5004,29.7637,6.22e-05
2014-03-27 00:00:00,2014-03-27 00:00:00,PRATE,surface,-96.5629,29.7637,5.19e-05
2014-03-27 00:00:00,2014-03-27 00:00:00,PRATE,surface,-95.6254,29.7637,4.18e-05
2014-03-27 00:00:00,2014-03-27 00:00:00,PRATE,surface,-94.6879,29.7637,2.93e-05
2014-03-27 00:00:00,2014-03-27 00:00:00,PRATE,surface,-93.7504,29.7637,1.56e-05
2014-03-27 00:00:00,2014-03-27 00:00:00,PRATE,surface,-92.8129,29.7637,1.35e-05
2014-03-27 00:00:00,2014-03-27 00:00:00,PRATE,surface,-107.813,30.7085,1.1e-05
2014-03-27 00:00:00,2014-03-27 00:00:00,PRATE,surface,-106.875,30.7085,1.41e-05
2014-03-27 00:00:00,2014-03-27 00:00:00,PRATE,surface,-105.938,30.7085,1.3e-05
2014-03-27 00:00:00,2014-03-27 00:00:00,PRATE,surface,-105,30.7085,1.97e-05
2014-03-27 00:00:00,2014-03-27 00:00:00,PRATE,surface,-104.063,30.7085,2.87e-05
2014-03-27 00:00:00,2014-03-27 00:00:00,PRATE,surface,-103.125,30.7085,3.74e-05
2014-03-27 00:00:00,2014-03-27 00:00:00,PRATE,surface,-102.188,30.7085,4.11e-05
2014-03-27 00:00:00,2014-03-27 00:00:00,PRATE,surface,-101.25,30.7085,5.28e-05
2014-03-27 00:00:00,2014-03-27 00:00:00,PRATE,surface,-100.313,30.7085,6.76e-05
2014-03-27 00:00:00,2014-03-27 00:00:00,PRATE,surface,-99.3754,30.7085,8.28e-05
2014-03-27 00:00:00,2014-03-27 00:00:00,PRATE,surface,-98.4379,30.7085,8.51e-05
2014-03-27 00:00:00,2014-03-27 00:00:00,PRATE,surface,-97.5004,30.7085,6.66e-05
2014-03-27 00:00:00,2014-03-27 00:00:00,PRATE,surface,-96.5629,30.7085,4.19e-05
2014-03-27 00:00:00,2014-03-27 00:00:00,PRATE,surface,-95.6254,30.7085,2.88e-05
2014-03-27 00:00:00,2014-03-27 00:00:00,PRATE,surface,-94.6879,30.7085,2.59e-05
2014-03-27 00:00:00,2014-03-27 00:00:00,PRATE,surface,-93.7504,30.7085,2.27e-05
2014-03-27 00:00:00,2014-03-27 00:00:00,PRATE,surface,-92.8129,30.7085,2.17e-05
2014-03-27 00:00:00,2014-03-27 00:00:00,PRATE,surface,-107.813,31.6534,8.9e-06
2014-03-27 00:00:00,2014-03-27 00:00:00,PRATE,surface,-106.875,31.6534,1.33e-05
2014-03-27 00:00:00,2014-03-27 00:00:00,PRATE,surface,-105.938,31.6534,2.34e-05
2014-03-27 00:00:00,2014-03-27 00:00:00,PRATE,surface,-105,31.6534,3.85e-05
2014-03-27 00:00:00,2014-03-27 00:00:00,PRATE,surface,-104.063,31.6534,4.94e-05
2014-03-27 00:00:00,2014-03-27 00:00:00,PRATE,surface,-103.125,31.6534,5.05e-05
2014-03-27 00:00:00,2014-03-27 00:00:00,PRATE,surface,-102.188,31.6534,6.04e-05
2014-03-27 00:00:00,2014-03-27 00:00:00,PRATE,surface,-101.25,31.6534,6.51e-05
2014-03-27 00:00:00,2014-03-27 00:00:00,PRATE,surface,-100.313,31.6534,6.95e-05
2014-03-27 00:00:00,2014-03-27 00:00:00,PRATE,surface,-99.3754,31.6534,8.51e-05
2014-03-27 00:00:00,2014-03-27 00:00:00,PRATE,surface,-98.4379,31.6534,8.7e-05
2014-03-27 00:00:00,2014-03-27 00:00:00,PRATE,surface,-97.5004,31.6534,6.78e-05
2014-03-27 00:00:00,2014-03-27 00:00:00,PRATE,surface,-96.5629,31.6534,4.38e-05
2014-03-27 00:00:00,2014-03-27 00:00:00,PRATE,surface,-95.6254,31.6534,3.03e-05
2014-03-27 00:00:00,2014-03-27 00:00:00,PRATE,surface,-94.6879,31.6534,2.69e-05
2014-03-27 00:00:00,2014-03-27 00:00:00,PRATE,surface,-93.7504,31.6534,2.38e-05
2014-03-27 00:00:00,2014-03-27 00:00:00,PRATE,surface,-92.8129,31.6534,2.64e-05
2014-03-27 00:00:00,2014-03-27 00:00:00,PRATE,surface,-107.813,32.5983,1.24e-05
2014-03-27 00:00:00,2014-03-27 00:00:00,PRATE,surface,-106.875,32.5983,1.11e-05
2014-03-27 00:00:00,2014-03-27 00:00:00,PRATE,surface,-105.938,32.5983,2.07e-05
2014-03-27 00:00:00,2014-03-27 00:00:00,PRATE,surface,-105,32.5983,3.44e-05
2014-03-27 00:00:00,2014-03-27 00:00:00,PRATE,surface,-104.063,32.5983,5.08e-05
2014-03-27 00:00:00,2014-03-27 00:00:00,PRATE,surface,-103.125,32.5983,4.94e-05
2014-03-27 00:00:00,2014-03-27 00:00:00,PRATE,surface,-102.188,32.5983,5e-05
2014-03-27 00:00:00,2014-03-27 00:00:00,PRATE,surface,-101.25,32.5983,4.82e-05
2014-03-27 00:00:00,2014-03-27 00:00:00,PRATE,surface,-100.313,32.5983,4.81e-05
2014-03-27 00:00:00,2014-03-27 00:00:00,PRATE,surface,-99.3754,32.5983,5.68e-05
2014-03-27 00:00:00,2014-03-27 00:00:00,PRATE,surface,-98.4379,32.5983,6.31e-05
2014-03-27 00:00:00,2014-03-27 00:00:00,PRATE,surface,-97.5004,32.5983,5.4e-05
2014-03-27 00:00:00,2014-03-27 00:00:00,PRATE,surface,-96.5629,32.5983,3.72e-05
2014-03-27 00:00:00,2014-03-27 00:00:00,PRATE,surface,-95.6254,32.5983,2.64e-05
2014-03-27 00:00:00,2014-03-27 00:00:00,PRATE,surface,-94.6879,32.5983,2.33e-05
2014-03-27 00:00:00,2014-03-27 00:00:00,PRATE,surface,-93.7504,32.5983,2.34e-05
2014-03-27 00:00:00,2014-03-27 00:00:00,PRATE,surface,-92.8129,32.5983,2.66e-05
2014-03-27 00:00:00,2014-03-27 00:00:00,PRATE,surface,-107.813,33.5432,2.08e-05
2014-03-27 00:00:00,2014-03-27 00:00:00,PRATE,surface,-106.875,33.5432,1.2e-05
2014-03-27 00:00:00,2014-03-27 00:00:00,PRATE,surface,-105.938,33.5432,1.37e-05
2014-03-27 00:00:00,2014-03-27 00:00:00,PRATE,surface,-105,33.5432,2.22e-05
2014-03-27 00:00:00,2014-03-27 00:00:00,PRATE,surface,-104.063,33.5432,3.24e-05
2014-03-27 00:00:00,2014-03-27 00:00:00,PRATE,surface,-103.125,33.5432,2.95e-05
2014-03-27 00:00:00,2014-03-27 00:00:00,PRATE,surface,-102.188,33.5432,3.3e-05
2014-03-27 00:00:00,2014-03-27 00:00:00,PRATE,surface,-101.25,33.5432,3.27e-05
2014-03-27 00:00:00,2014-03-27 00:00:00,PRATE,surface,-100.313,33.5432,3.54e-05
2014-03-27 00:00:00,2014-03-27 00:00:00,PRATE,surface,-99.3754,33.5432,3.6e-05
2014-03-27 00:00:00,2014-03-27 00:00:00,PRATE,surface,-98.4379,33.5432,3.17e-05
2014-03-27 00:00:00,2014-03-27 00:00:00,PRATE,surface,-97.5004,33.5432,3.02e-05
2014-03-27 00:00:00,2014-03-27 00:00:00,PRATE,surface,-96.5629,33.5432,3.16e-05
2014-03-27 00:00:00,2014-03-27 00:00:00,PRATE,surface,-95.6254,33.5432,3.13e-05
2014-03-27 00:00:00,2014-03-27 00:00:00,PRATE,surface,-94.6879,33.5432,2.96e-05
2014-03-27 00:00:00,2014-03-27 00:00:00,PRATE,surface,-93.7504,33.5432,2.55e-05
2014-03-27 00:00:00,2014-03-27 00:00:00,PRATE,surface,-92.8129,33.5432,2.75e-05
2014-03-27 00:00:00,2014-03-27 00:00:00,PRATE,surface,-107.813,34.4881,1.8e-05
2014-03-27 00:00:00,2014-03-27 00:00:00,PRATE,surface,-106.875,34.4881,7.1e-06
2014-03-27 00:00:00,2014-03-27 00:00:00,PRATE,surface,-105.938,34.4881,8.9e-06
2014-03-27 00:00:00,2014-03-27 00:00:00,PRATE,surface,-105,34.4881,2.4e-05
2014-03-27 00:00:00,2014-03-27 00:00:00,PRATE,surface,-104.063,34.4881,2.56e-05
2014-03-27 00:00:00,2014-03-27 00:00:00,PRATE,surface,-103.125,34.4881,2.02e-05
2014-03-27 00:00:00,2014-03-27 00:00:00,PRATE,surface,-102.188,34.4881,2.05e-05
2014-03-27 00:00:00,2014-03-27 00:00:00,PRATE,surface,-101.25,34.4881,2.07e-05
2014-03-27 00:00:00,2014-03-27 00:00:00,PRATE,surface,-100.313,34.4881,1.99e-05
2014-03-27 00:00:00,2014-03-27 00:00:00,PRATE,surface,-99.3754,34.4881,1.76e-05
2014-03-27 00:00:00,2014-03-27 00:00:00,PRATE,surface,-98.4379,34.4881,1.82e-05
2014-03-27 00:00:00,2014-03-27 00:00:00,PRATE,surface,-97.5004,34.4881,2.31e-05
2014-03-27 00:00:00,2014-03-27 00:00:00,PRATE,surface,-96.5629,34.4881,3.15e-05
2014-03-27 00:00:00,2014-03-27 00:00:00,PRATE,surface,-95.6254,34.4881,4.01e-05
2014-03-27 00:00:00,2014-03-27 00:00:00,PRATE,surface,-94.6879,34.4881,4.39e-05
2014-03-27 00:00:00,2014-03-27 00:00:00,PRATE,surface,-93.7504,34.4881,4.19e-05
2014-03-27 00:00:00,2014-03-27 00:00:00,PRATE,surface,-92.8129,34.4881,3.44e-05
2014-03-27 00:00:00,2014-03-27 00:00:00,PRATE,surface,-107.813,35.4329,7.9e-06
2014-03-27 00:00:00,2014-03-27 00:00:00,PRATE,surface,-106.875,35.4329,2.4e-06
2014-03-27 00:00:00,2014-03-27 00:00:00,PRATE,surface,-105.938,35.4329,8e-06
2014-03-27 00:00:00,2014-03-27 00:00:00,PRATE,surface,-105,35.4329,2.42e-05
2014-03-27 00:00:00,2014-03-27 00:00:00,PRATE,surface,-104.063,35.4329,3.18e-05
2014-03-27 00:00:00,2014-03-27 00:00:00,PRATE,surface,-103.125,35.4329,2.61e-05
2014-03-27 00:00:00,2014-03-27 00:00:00,PRATE,surface,-102.188,35.4329,2.07e-05
2014-03-27 00:00:00,2014-03-27 00:00:00,PRATE,surface,-101.25,35.4329,2.03e-05
2014-03-27 00:00:00,2014-03-27 00:00:00,PRATE,surface,-100.313,35.4329,1.92e-05
2014-03-27 00:00:00,2014-03-27 00:00:00,PRATE,surface,-99.3754,35.4329,2.09e-05
2014-03-27 00:00:00,2014-03-27 00:00:00,PRATE,surface,-98.4379,35.4329,2.63e-05
2014-03-27 00:00:00,2014-03-27 00:00:00,PRATE,surface,-97.5004,35.4329,3.31e-05
2014-03-27 00:00:00,2014-03-27 00:00:00,PRATE,surface,-96.5629,35.4329,3.7e-05
2014-03-27 00:00:00,2014-03-27 00:00:00,PRATE,surface,-95.6254,35.4329,3.99e-05
2014-03-27 00:00:00,2014-03-27 00:00:00,PRATE,surface,-94.6879,35.4329,4.8e-05
2014-03-27 00:00:00,2014-03-27 00:00:00,PRATE,surface,-93.7504,35.4329,5.54e-05
2014-03-27 00:00:00,2014-03-27 00:00:00,PRATE,surface,-92.8129,35.4329,5.25e-05
2014-03-27 00:00:00,2014-03-27 00:00:00,PRATE,surface,-107.813,36.3778,5.8e-06
2014-03-27 00:00:00,2014-03-27 00:00:00,PRATE,surface,-106.875,36.3778,1.16e-05
2014-03-27 00:00:00,2014-03-27 00:00:00,PRATE,surface,-105.938,36.3778,2.93e-05
2014-03-27 00:00:00,2014-03-27 00:00:00,PRATE,surface,-105,36.3778,4.01e-05
2014-03-27 00:00:00,2014-03-27 00:00:00,PRATE,surface,-104.063,36.3778,3.25e-05
2014-03-27 00:00:00,2014-03-27 00:00:00,PRATE,surface,-103.125,36.3778,2.83e-05
2014-03-27 00:00:00,2014-03-27 00:00:00,PRATE,surface,-102.188,36.3778,2.69e-05
2014-03-27 00:00:00,2014-03-27 00:00:00,PRATE,surface,-101.25,36.3778,2.21e-05
2014-03-27 00:00:00,2014-03-27 00:00:00,PRATE,surface,-100.313,36.3778,2.21e-05
2014-03-27 00:00:00,2014-03-27 00:00:00,PRATE,surface,-99.3754,36.3778,2.38e-05
2014-03-27 00:00:00,2014-03-27 00:00:00,PRATE,surface,-98.4379,36.3778,2.4e-05
2014-03-27 00:00:00,2014-03-27 00:00:00,PRATE,surface,-97.5004,36.3778,2.45e-05
2014-03-27 00:00:00,2014-03-27 00:00:00,PRATE,surface,-96.5629,36.3778,2.68e-05
2014-03-27 00:00:00,2014-03-27 00:00:00,PRATE,surface,-95.6254,36.3778,3.25e-05
2014-03-27 00:00:00,2014-03-27 00:00:00,PRATE,surface,-94.6879,36.3778,4.38e-05
2014-03-27 00:00:00,2014-03-27 00:00:00,PRATE,surface,-93.7504,36.3778,5.73e-05
2014-03-27 00:00:00,2014-03-27 00:00:00,PRATE,surface,-92.8129,36.3778,6.41e-05
