2014-12-15 00:00:00,2014-12-15 00:00:00,TMP,surface,-107.813,25.0393,296.464
2014-12-15 00:00:00,2014-12-15 00:00:00,TMP,surface,-106.875,25.0393,291.014
2014-12-15 00:00:00,2014-12-15 00:00:00,TMP,surface,-105.938,25.0393,286.174
2014-12-15 00:00:00,2014-12-15 00:00:00,TMP,surface,-105,25.0393,286.853
2014-12-15 00:00:00,2014-12-15 00:00:00,TMP,surface,-104.063,25.0393,291.681
2014-12-15 00:00:00,2014-12-15 00:00:00,TMP,surface,-103.125,25.0393,293.92
2014-12-15 00:00:00,2014-12-15 00:00:00,TMP,surface,-102.188,25.0393,292.822
2014-12-15 00:00:00,2014-12-15 00:00:00,TMP,surface,-101.25,25.0393,291.054
2014-12-15 00:00:00,2014-12-15 00:00:00,TMP,surface,-100.313,25.0393,290.56
2014-12-15 00:00:00,2014-12-15 00:00:00,TMP,surface,-99.3754,25.0393,292.625
2014-12-15 00:00:00,2014-12-15 00:00:00,TMP,surface,-98.4379,25.0393,294.832
2014-12-15 00:00:00,2014-12-15 00:00:00,TMP,surface,-97.5004,25.0393,293.558
2014-12-15 00:00:00,2014-12-15 00:00:00,TMP,surface,-96.5629,25.0393,293.681
2014-12-15 00:00:00,2014-12-15 00:00:00,TMP,surface,-95.6254,25.0393,295.092
2014-12-15 00:00:00,2014-12-15 00:00:00,TMP,surface,-94.6879,25.0393,295.454
2014-12-15 00:00:00,2014-12-15 00:00:00,TMP,surface,-93.7504,25.0393,295.278
2014-12-15 00:00:00,2014-12-15 00:00:00,TMP,surface,-92.8129,25.0393,295.192
2014-12-15 00:00:00,2014-12-15 00:00:00,TMP,surface,-107.813,25.9842,292.883
2014-12-15 00:00:00,2014-12-15 00:00:00,TMP,surface,-106.875,25.9842,286.977
2014-12-15 00:00:00,2014-12-15 00:00:00,TMP,surface,-105.938,25.9842,285.646
2014-12-15 00:00:00,2014-12-15 00:00:00,TMP,surface,-105,25.9842,289.864
2014-12-15 00:00:00,2014-12-15 00:00:00,TMP,surface,-104.063,25.9842,294.469
2014-12-15 00:00:00,2014-12-15 00:00:00,TMP,surface,-103.125,25.9842,295.779
2014-12-15 00:00:00,2014-12-15 00:00:00,TMP,surface,-102.188,25.9842,294.448
2014-12-15 00:00:00,2014-12-15 00:00:00,TMP,surface,-101.25,25.9842,292.488
2014-12-15 00:00:00,2014-12-15 00:00:00,TMP,surface,-100.313,25.9842,292.033
2014-12-15 00:00:00,2014-12-15 00:00:00,TMP,surface,-99.3754,25.9842,293.965
2014-12-15 00:00:00,2014-12-15 00:00:00,TMP,surface,-98.4379,25.9842,295.008
2014-12-15 00:00:00,2014-12-15 00:00:00,TMP,surface,-97.5004,25.9842,294.649
2014-12-15 00:00:00,2014-12-15 00:00:00,TMP,surface,-96.5629,25.9842,292.457
2014-12-15 00:00:00,2014-12-15 00:00:00,TMP,surface,-95.6254,25.9842,293.51
2014-12-15 00:00:00,2014-12-15 00:00:00,TMP,surface,-94.6879,25.9842,294.085
2014-12-15 00:00:00,2014-12-15 00:00:00,TMP,surface,-93.7504,25.9842,294.03
2014-12-15 00:00:00,2014-12-15 00:00:00,TMP,surface,-92.8129,25.9842,293.884
2014-12-15 00:00:00,2014-12-15 00:00:00,TMP,surface,-107.813,26.929,287.483
2014-12-15 00:00:00,2014-12-15 00:00:00,TMP,surface,-106.875,26.929,285.011
2014-12-15 00:00:00,2014-12-15 00:00:00,TMP,surface,-105.938,26.929,287.726
2014-12-15 00:00:00,2014-12-15 00:00:00,TMP,surface,-105,26.929,292.544
2014-12-15 00:00:00,2014-12-15 00:00:00,TMP,surface,-104.063,26.929,294.728
2014-12-15 00:00:00,2014-12-15 00:00:00,TMP,surface,-103.125,26.929,294.166
2014-12-15 00:00:00,2014-12-15 00:00:00,TMP,surface,-102.188,26.929,292.54
2014-12-15 00:00:00,2014-12-15 00:00:00,TMP,surface,-101.25,26.929,292.24
2014-12-15 00:00:00,2014-12-15 00:00:00,TMP,surface,-100.313,26.929,292.891
2014-12-15 00:00:00,2014-12-15 00:00:00,TMP,surface,-99.3754,26.929,294.024
2014-12-15 00:00:00,2014-12-15 00:00:00,TMP,surface,-98.4379,26.929,293.797
2014-12-15 00:00:00,2014-12-15 00:00:00,TMP,surface,-97.5004,26.929,292.309
2014-12-15 00:00:00,2014-12-15 00:00:00,TMP,surface,-96.5629,26.929,292.384
2014-12-15 00:00:00,2014-12-15 00:00:00,TMP,surface,-95.6254,26.929,293.041
2014-12-15 00:00:00,2014-12-15 00:00:00,TMP,surface,-94.6879,26.929,293.365
2014-12-15 00:00:00,2014-12-15 00:00:00,TMP,surface,-93.7504,26.929,293.446
2014-12-15 00:00:00,2014-12-15 00:00:00,TMP,surface,-92.8129,26.929,293.523
2014-12-15 00:00:00,2014-12-15 00:00:00,TMP,surface,-107.813,27.8739,284.693
2014-12-15 00:00:00,2014-12-15 00:00:00,TMP,surface,-106.875,27.8739,285.38
2014-12-15 00:00:00,2014-12-15 00:00:00,TMP,surface,-105.938,27.8739,290.072
2014-12-15 00:00:00,2014-12-15 00:00:00,TMP,surface,-105,27.8739,293.181
2014-12-15 00:00:00,2014-12-15 00:00:00,TMP,surface,-104.063,27.8739,293.305
2014-12-15 00:00:00,2014-12-15 00:00:00,TMP,surface,-103.125,27.8739,291.507
2014-12-15 00:00:00,2014-12-15 00:00:00,TMP,surface,-102.188,27.8739,290.52
2014-12-15 00:00:00,2014-12-15 00:00:00,TMP,surface,-101.25,27.8739,291.168
2014-12-15 00:00:00,2014-12-15 00:00:00,TMP,surface,-100.313,27.8739,292.253
2014-12-15 00:00:00,2014-12-15 00:00:00,TMP,surface,-99.3754,27.8739,292.593
2014-12-15 00:00:00,2014-12-15 00:00:00,TMP,surface,-98.4379,27.8739,292.23
2014-12-15 00:00:00,2014-12-15 00:00:00,TMP,surface,-97.5004,27.8739,292.107
2014-12-15 00:00:00,2014-12-15 00:00:00,TMP,surface,-96.5629,27.8739,292.433
2014-12-15 00:00:00,2014-12-15 00:00:00,TMP,surface,-95.6254,27.8739,292.822
2014-12-15 00:00:00,2014-12-15 00:00:00,TMP,surface,-94.6879,27.8739,293.144
2014-12-15 00:00:00,2014-12-15 00:00:00,TMP,surface,-93.7504,27.8739,293.312
2014-12-15 00:00:00,2014-12-15 00:00:00,TMP,surface,-92.8129,27.8739,293.449
2014-12-15 00:00:00,2014-12-15 00:00:00,TMP,surface,-107.813,28.8188,284.12
2014-12-15 00:00:00,2014-12-15 00:00:00,TMP,surface,-106.875,28.8188,286.548
2014-12-15 00:00:00,2014-12-15 00:00:00,TMP,surface,-105.938,28.8188,290.659
2014-12-15 00:00:00,2014-12-15 00:00:00,TMP,surface,-105,28.8188,292.953
2014-12-15 00:00:00,2014-12-15 00:00:00,TMP,surface,-104.063,28.8188,291.79
2014-12-15 00:00:00,2014-12-15 00:00:00,TMP,surface,-103.125,28.8188,290.08
2014-12-15 00:00:00,2014-12-15 00:00:00,TMP,surface,-102.188,28.8188,289.326
2014-12-15 00:00:00,2014-12-15 00:00:00,TMP,surface,-101.25,28.8188,290.156
2014-12-15 00:00:00,2014-12-15 00:00:00,TMP,surface,-100.313,28.8188,290.592
2014-12-15 00:00:00,2014-12-15 00:00:00,TMP,surface,-99.3754,28.8188,290.496
2014-12-15 00:00:00,2014-12-15 00:00:00,TMP,surface,-98.4379,28.8188,290.513
2014-12-15 00:00:00,2014-12-15 00:00:00,TMP,surface,-97.5004,28.8188,290.8
2014-12-15 00:00:00,2014-12-15 00:00:00,TMP,surface,-96.5629,28.8188,291.102
2014-12-15 00:00:00,2014-12-15 00:00:00,TMP,surface,-95.6254,28.8188,291.534
2014-12-15 00:00:00,2014-12-15 00:00:00,TMP,surface,-94.6879,28.8188,292.155
2014-12-15 00:00:00,2014-12-15 00:00:00,TMP,surface,-93.7504,28.8188,292.48
2014-12-15 00:00:00,2014-12-15 00:00:00,TMP,surface,-92.8129,28.8188,292.733
2014-12-15 00:00:00,2014-12-15 00:00:00,TMP,surface,-107.813,29.7637,285.723
2014-12-15 00:00:00,2014-12-15 00:00:00,TMP,surface,-106.875,29.7637,287.896
2014-12-15 00:00:00,2014-12-15 00:00:00,TMP,surface,-105.938,29.7637,290.517
2014-12-15 00:00:00,2014-12-15 00:00:00,TMP,surface,-105,29.7637,291.187
2014-12-15 00:00:00,2014-12-15 00:00:00,TMP,surface,-104.063,29.7637,290.515
2014-12-15 00:00:00,2014-12-15 00:00:00,TMP,surface,-103.125,29.7637,289.857
2014-12-15 00:00:00,2014-12-15 00:00:00,TMP,surface,-102.188,29.7637,289.78
2014-12-15 00:00:00,2014-12-15 00:00:00,TMP,surface,-101.25,29.7637,289.462
2014-12-15 00:00:00,2014-12-15 00:00:00,TMP,surface,-100.313,29.7637,288.892
2014-12-15 00:00:00,2014-12-15 00:00:00,TMP,surface,-99.3754,29.7637,288.595
2014-12-15 00:00:00,2014-12-15 00:00:00,TMP,surface,-98.4379,29.7637,288.808
2014-12-15 00:00:00,2014-12-15 00:00:00,TMP,surface,-97.5004,29.7637,289.337
2014-12-15 00:00:00,2014-12-15 00:00:00,TMP,surface,-96.5629,29.7637,289.811
2014-12-15 00:00:00,2014-12-15 00:00:00,TMP,surface,-95.6254,29.7637,290.089
2014-12-15 00:00:00,2014-12-15 00:00:00,TMP,surface,-94.6879,29.7637,290.678
2014-12-15 00:00:00,2014-12-15 00:00:00,TMP,surface,-93.7504,29.7637,291.384
2014-12-15 00:00:00,2014-12-15 00:00:00,TMP,surface,-92.8129,29.7637,290.481
2014-12-15 00:00:00,2014-12-15 00:00:00,TMP,surface,-107.813,30.7085,288.304
2014-12-15 00:00:00,2014-12-15 00:00:00,TMP,surface,-106.875,30.7085,289.545
2014-12-15 00:00:00,2014-12-15 00:00:00,TMP,surface,-105.938,30.7085,289.761
2014-12-15 00:00:00,2014-12-15 00:00:00,TMP,surface,-105,30.7085,289.411
2014-12-15 00:00:00,2014-12-15 00:00:00,TMP,surface,-104.063,30.7085,288.757
2014-12-15 00:00:00,2014-12-15 00:00:00,TMP,surface,-103.125,30.7085,289.164
2014-12-15 00:00:00,2014-12-15 00:00:00,TMP,surface,-102.188,30.7085,289.158
2014-12-15 00:00:00,2014-12-15 00:00:00,TMP,surface,-101.25,30.7085,288.416
2014-12-15 00:00:00,2014-12-15 00:00:00,TMP,surface,-100.313,30.7085,287.688
2014-12-15 00:00:00,2014-12-15 00:00:00,TMP,surface,-99.3754,30.7085,287.467
2014-12-15 00:00:00,2014-12-15 00:00:00,TMP,surface,-98.4379,30.7085,287.784
2014-12-15 00:00:00,2014-12-15 00:00:00,TMP,surface,-97.5004,30.7085,288.307
2014-12-15 00:00:00,2014-12-15 00:00:00,TMP,surface,-96.5629,30.7085,288.94
2014-12-15 00:00:00,2014-12-15 00:00:00,TMP,surface,-95.6254,30.7085,289.398
2014-12-15 00:00:00,2014-12-15 00:00:00,TMP,surface,-94.6879,30.7085,289.331
2014-12-15 00:00:00,2014-12-15 00:00:00,TMP,surface,-93.7504,30.7085,289.11
2014-12-15 00:00:00,2014-12-15 00:00:00,TMP,surface,-92.8129,30.7085,288.747
2014-12-15 00:00:00,2014-12-15 00:00:00,TMP,surface,-107.813,31.6534,288.409
2014-12-15 00:00:00,2014-12-15 00:00:00,TMP,surface,-106.875,31.6534,288.979
2014-12-15 00:00:00,2014-12-15 00:00:00,TMP,surface,-105.938,31.6534,288.245
2014-12-15 00:00:00,2014-12-15 00:00:00,TMP,surface,-105,31.6534,287.651
2014-12-15 00:00:00,2014-12-15 00:00:00,TMP,surface,-104.063,31.6534,287.688
2014-12-15 00:00:00,2014-12-15 00:00:00,TMP,surface,-103.125,31.6534,287.974
2014-12-15 00:00:00,2014-12-15 00:00:00,TMP,surface,-102.188,31.6534,287.841
2014-12-15 00:00:00,2014-12-15 00:00:00,TMP,surface,-101.25,31.6534,287.232
2014-12-15 00:00:00,2014-12-15 00:00:00,TMP,surface,-100.313,31.6534,286.923
2014-12-15 00:00:00,2014-12-15 00:00:00,TMP,surface,-99.3754,31.6534,286.899
2014-12-15 00:00:00,2014-12-15 00:00:00,TMP,surface,-98.4379,31.6534,287.081
2014-12-15 00:00:00,2014-12-15 00:00:00,TMP,surface,-97.5004,31.6534,287.384
2014-12-15 00:00:00,2014-12-15 00:00:00,TMP,surface,-96.5629,31.6534,287.902
2014-12-15 00:00:00,2014-12-15 00:00:00,TMP,surface,-95.6254,31.6534,288.324
2014-12-15 00:00:00,2014-12-15 00:00:00,TMP,surface,-94.6879,31.6534,288.155
2014-12-15 00:00:00,2014-12-15 00:00:00,TMP,surface,-93.7504,31.6534,287.787
2014-12-15 00:00:00,2014-12-15 00:00:00,TMP,surface,-92.8129,31.6534,287.601
2014-12-15 00:00:00,2014-12-15 00:00:00,TMP,surface,-107.813,32.5983,285.382
2014-12-15 00:00:00,2014-12-15 00:00:00,TMP,surface,-106.875,32.5983,285.936
2014-12-15 00:00:00,2014-12-15 00:00:00,TMP,surface,-105.938,32.5983,286.179
2014-12-15 00:00:00,2014-12-15 00:00:00,TMP,surface,-105,32.5983,286.088
2014-12-15 00:00:00,2014-12-15 00:00:00,TMP,surface,-104.063,32.5983,286.745
2014-12-15 00:00:00,2014-12-15 00:00:00,TMP,surface,-103.125,32.5983,286.904
2014-12-15 00:00:00,2014-12-15 00:00:00,TMP,surface,-102.188,32.5983,286.105
2014-12-15 00:00:00,2014-12-15 00:00:00,TMP,surface,-101.25,32.5983,285.741
2014-12-15 00:00:00,2014-12-15 00:00:00,TMP,surface,-100.313,32.5983,285.998
2014-12-15 00:00:00,2014-12-15 00:00:00,TMP,surface,-99.3754,32.5983,286.222
2014-12-15 00:00:00,2014-12-15 00:00:00,TMP,surface,-98.4379,32.5983,286.32
2014-12-15 00:00:00,2014-12-15 00:00:00,TMP,surface,-97.5004,32.5983,286.421
2014-12-15 00:00:00,2014-12-15 00:00:00,TMP,surface,-96.5629,32.5983,286.741
2014-12-15 00:00:00,2014-12-15 00:00:00,TMP,surface,-95.6254,32.5983,287.125
2014-12-15 00:00:00,2014-12-15 00:00:00,TMP,surface,-94.6879,32.5983,287.118
2014-12-15 00:00:00,2014-12-15 00:00:00,TMP,surface,-93.7504,32.5983,286.91
2014-12-15 00:00:00,2014-12-15 00:00:00,TMP,surface,-92.8129,32.5983,286.931
2014-12-15 00:00:00,2014-12-15 00:00:00,TMP,surface,-107.813,33.5432,281.545
2014-12-15 00:00:00,2014-12-15 00:00:00,TMP,surface,-106.875,33.5432,283.022
2014-12-15 00:00:00,2014-12-15 00:00:00,TMP,surface,-105.938,33.5432,284.036
2014-12-15 00:00:00,2014-12-15 00:00:00,TMP,surface,-105,33.5432,284.752
2014-12-15 00:00:00,2014-12-15 00:00:00,TMP,surface,-104.063,33.5432,285.668
2014-12-15 00:00:00,2014-12-15 00:00:00,TMP,surface,-103.125,33.5432,285.302
2014-12-15 00:00:00,2014-12-15 00:00:00,TMP,surface,-102.188,33.5432,284.316
2014-12-15 00:00:00,2014-12-15 00:00:00,TMP,surface,-101.25,33.5432,284.003
2014-12-15 00:00:00,2014-12-15 00:00:00,TMP,surface,-100.313,33.5432,284.625
2014-12-15 00:00:00,2014-12-15 00:00:00,TMP,surface,-99.3754,33.5432,285.083
2014-12-15 00:00:00,2014-12-15 00:00:00,TMP,surface,-98.4379,33.5432,285.116
2014-12-15 00:00:00,2014-12-15 00:00:00,TMP,surface,-97.5004,33.5432,285.004
2014-12-15 00:00:00,2014-12-15 00:00:00,TMP,surface,-96.5629,33.5432,285.067
2014-12-15 00:00:00,2014-12-15 00:00:00,TMP,surface,-95.6254,33.5432,285.473
2014-12-15 00:00:00,2014-12-15 00:00:00,TMP,surface,-94.6879,33.5432,285.819
2014-12-15 00:00:00,2014-12-15 00:00:00,TMP,surface,-93.7504,33.5432,285.702
2014-12-15 00:00:00,2014-12-15 00:00:00,TMP,surface,-92.8129,33.5432,285.835
2014-12-15 00:00:00,2014-12-15 00:00:00,TMP,surface,-107.813,34.4881,279.757
2014-12-15 00:00:00,2014-12-15 00:00:00,TMP,surface,-106.875,34.4881,281.372
2014-12-15 00:00:00,2014-12-15 00:00:00,TMP,surface,-105.938,34.4881,282.629
2014-12-15 00:00:00,2014-12-15 00:00:00,TMP,surface,-105,34.4881,283.961
2014-12-15 00:00:00,2014-12-15 00:00:00,TMP,surface,-104.063,34.4881,284.092
2014-12-15 00:00:00,2014-12-15 00:00:00,TMP,surface,-103.125,34.4881,283.681
2014-12-15 00:00:00,2014-12-15 00:00:00,TMP,surface,-102.188,34.4881,282.896
2014-12-15 00:00:00,2014-12-15 00:00:00,TMP,surface,-101.25,34.4881,282.705
2014-12-15 00:00:00,2014-12-15 00:00:00,TMP,surface,-100.313,34.4881,283.024
2014-12-15 00:00:00,2014-12-15 00:00:00,TMP,surface,-99.3754,34.4881,283.411
2014-12-15 00:00:00,2014-12-15 00:00:00,TMP,surface,-98.4379,34.4881,283.558
2014-12-15 00:00:00,2014-12-15 00:00:00,TMP,surface,-97.5004,34.4881,283.576
2014-12-15 00:00:00,2014-12-15 00:00:00,TMP,surface,-96.5629,34.4881,283.865
2014-12-15 00:00:00,2014-12-15 00:00:00,TMP,surface,-95.6254,34.4881,284.315
2014-12-15 00:00:00,2014-12-15 00:00:00,TMP,surface,-94.6879,34.4881,284.382
2014-12-15 00:00:00,2014-12-15 00:00:00,TMP,surface,-93.7504,34.4881,284.2
2014-12-15 00:00:00,2014-12-15 00:00:00,TMP,surface,-92.8129,34.4881,284.339
2014-12-15 00:00:00,2014-12-15 00:00:00,TMP,surface,-107.813,35.4329,279.747
2014-12-15 00:00:00,2014-12-15 00:00:00,TMP,surface,-106.875,35.4329,279.984
2014-12-15 00:00:00,2014-12-15 00:00:00,TMP,surface,-105.938,35.4329,280.579
2014-12-15 00:00:00,2014-12-15 00:00:00,TMP,surface,-105,35.4329,281.395
2014-12-15 00:00:00,2014-12-15 00:00:00,TMP,surface,-104.063,35.4329,282.71
2014-12-15 00:00:00,2014-12-15 00:00:00,TMP,surface,-103.125,35.4329,282.808
2014-12-15 00:00:00,2014-12-15 00:00:00,TMP,surface,-102.188,35.4329,282.131
2014-12-15 00:00:00,2014-12-15 00:00:00,TMP,surface,-101.25,35.4329,281.612
2014-12-15 00:00:00,2014-12-15 00:00:00,TMP,surface,-100.313,35.4329,281.579
2014-12-15 00:00:00,2014-12-15 00:00:00,TMP,surface,-99.3754,35.4329,281.845
2014-12-15 00:00:00,2014-12-15 00:00:00,TMP,surface,-98.4379,35.4329,282.129
2014-12-15 00:00:00,2014-12-15 00:00:00,TMP,surface,-97.5004,35.4329,282.392
2014-12-15 00:00:00,2014-12-15 00:00:00,TMP,surface,-96.5629,35.4329,282.693
2014-12-15 00:00:00,2014-12-15 00:00:00,TMP,surface,-95.6254,35.4329,282.94
2014-12-15 00:00:00,2014-12-15 00:00:00,TMP,surface,-94.6879,35.4329,282.888
2014-12-15 00:00:00,2014-12-15 00:00:00,TMP,surface,-93.7504,35.4329,282.525
2014-12-15 00:00:00,2014-12-15 00:00:00,TMP,surface,-92.8129,35.4329,282.433
2014-12-15 00:00:00,2014-12-15 00:00:00,TMP,surface,-107.813,36.3778,278.784
2014-12-15 00:00:00,2014-12-15 00:00:00,TMP,surface,-106.875,36.3778,276.892
2014-12-15 00:00:00,2014-12-15 00:00:00,TMP,surface,-105.938,36.3778,277.441
2014-12-15 00:00:00,2014-12-15 00:00:00,TMP,surface,-105,36.3778,278.742
2014-12-15 00:00:00,2014-12-15 00:00:00,TMP,surface,-104.063,36.3778,280.467
2014-12-15 00:00:00,2014-12-15 00:00:00,TMP,surface,-103.125,36.3778,280.734
2014-12-15 00:00:00,2014-12-15 00:00:00,TMP,surface,-102.188,36.3778,280.587
2014-12-15 00:00:00,2014-12-15 00:00:00,TMP,surface,-101.25,36.3778,280.443
2014-12-15 00:00:00,2014-12-15 00:00:00,TMP,surface,-100.313,36.3778,280.604
2014-12-15 00:00:00,2014-12-15 00:00:00,TMP,surface,-99.3754,36.3778,280.899
2014-12-15 00:00:00,2014-12-15 00:00:00,TMP,surface,-98.4379,36.3778,281.16
2014-12-15 00:00:00,2014-12-15 00:00:00,TMP,surface,-97.5004,36.3778,281.459
2014-12-15 00:00:00,2014-12-15 00:00:00,TMP,surface,-96.5629,36.3778,281.715
2014-12-15 00:00:00,2014-12-15 00:00:00,TMP,surface,-95.6254,36.3778,281.697
2014-12-15 00:00:00,2014-12-15 00:00:00,TMP,surface,-94.6879,36.3778,281.313
2014-12-15 00:00:00,2014-12-15 00:00:00,TMP,surface,-93.7504,36.3778,280.745
2014-12-15 00:00:00,2014-12-15 00:00:00,TMP,surface,-92.8129,36.3778,280.544
2014-12-15 00:00:00,2014-12-15 00:00:00,PRATE,surface,-107.813,25.0393,3.2e-06
2014-12-15 00:00:00,2014-12-15 00:00:00,PRATE,surface,-106.875,25.0393,5.6e-06
2014-12-15 00:00:00,2014-12-15 00:00:00,PRATE,surface,-105.938,25.0393,1.15e-05
2014-12-15 00:00:00,2014-12-15 00:00:00,PRATE,surface,-105,25.0393,8.4e-06
2014-12-15 00:00:00,2014-12-15 00:00:00,PRATE,surface,-104.063,25.0393,2.7e-06
2014-12-15 00:00:00,2014-12-15 00:00:00,PRATE,surface,-103.125,25.0393,1.6e-06
2014-12-15 00:00:00,2014-12-15 00:00:00,PRATE,surface,-102.188,25.0393,5e-06
2014-12-15 00:00:00,2014-12-15 00:00:00,PRATE,surface,-101.25,25.0393,2.41e-05
2014-12-15 00:00:00,2014-12-15 00:00:00,PRATE,surface,-100.313,25.0393,7.74e-05
2014-12-15 00:00:00,2014-12-15 00:00:00,PRATE,surface,-99.3754,25.0393,7.23e-05
2014-12-15 00:00:00,2014-12-15 00:00:00,PRATE,surface,-98.4379,25.0393,2.53e-05
2014-12-15 00:00:00,2014-12-15 00:00:00,PRATE,surface,-97.5004,25.0393,1.89e-05
2014-12-15 00:00:00,2014-12-15 00:00:00,PRATE,surface,-96.5629,25.0393,2.56e-05
2014-12-15 00:00:00,2014-12-15 00:00:00,PRATE,surface,-95.6254,25.0393,2.3e-05
2014-12-15 00:00:00,2014-12-15 00:00:00,PRATE,surface,-94.6879,25.0393,2.23e-05
2014-12-15 00:00:00,2014-12-15 00:00:00,PRATE,surface,-93.7504,25.0393,2.16e-05
2014-12-15 00:00:00,2014-12-15 00:00:00,PRATE,surface,-92.8129,25.0393,2.32e-05
2014-12-15 00:00:00,2014-12-15 00:00:00,PRATE,surface,-107.813,25.9842,4.3e-06
2014-12-15 00:00:00,2014-12-15 00:00:00,PRATE,surface,-106.875,25.9842,4.2e-06
2014-12-15 00:00:00,2014-12-15 00:00:00,PRATE,surface,-105.938,25.9842,4.4e-06
2014-12-15 00:00:00,2014-12-15 00:00:00,PRATE,surface,-105,25.9842,2.1e-06
2014-12-15 00:00:00,2014-12-15 00:00:00,PRATE,surface,-104.063,25.9842,1.2e-06
2014-12-15 00:00:00,2014-12-15 00:00:00,PRATE,surface,-103.125,25.9842,2.1e-06
2014-12-15 00:00:00,2014-12-15 00:00:00,PRATE,surface,-102.188,25.9842,9.3e-06
2014-12-15 00:00:00,2014-12-15 00:00:00,PRATE,surface,-101.25,25.9842,3.32e-05
2014-12-15 00:00:00,2014-12-15 00:00:00,PRATE,surface,-100.313,25.9842,6.8e-05
2014-12-15 00:00:00,2014-12-15 00:00:00,PRATE,surface,-99.3754,25.9842,5.39e-05
2014-12-15 00:00:00,2014-12-15 00:00:00,PRATE,surface,-98.4379,25.9842,3.39e-05
2014-12-15 00:00:00,2014-12-15 00:00:00,PRATE,surface,-97.5004,25.9842,2.84e-05
2014-12-15 00:00:00,2014-12-15 00:00:00,PRATE,surface,-96.5629,25.9842,3.47e-05
2014-12-15 00:00:00,2014-12-15 00:00:00,PRATE,surface,-95.6254,25.9842,3.44e-05
2014-12-15 00:00:00,2014-12-15 00:00:00,PRATE,surface,-94.6879,25.9842,3.07e-05
2014-12-15 00:00:00,2014-12-15 00:00:00,PRATE,surface,-93.7504,25.9842,2.81e-05
2014-12-15 00:00:00,2014-12-15 00:00:00,PRATE,surface,-92.8129,25.9842,2.75e-05
2014-12-15 00:00:00,2014-12-15 00:00:00,PRATE,surface,-107.813,26.929,6.5e-06
2014-12-15 00:00:00,2014-12-15 00:00:00,PRATE,surface,-106.875,26.929,3e-06
2014-12-15 00:00:00,2014-12-15 00:00:00,PRATE,surface,-105.938,26.929,1.3e-06
2014-12-15 00:00:00,2014-12-15 00:00:00,PRATE,surface,-105,26.929,4e-07
2014-12-15 00:00:00,2014-12-15 00:00:00,PRATE,surface,-104.063,26.929,8e-07
2014-12-15 00:00:00,2014-12-15 00:00:00,PRATE,surface,-103.125,26.929,5.9e-06
2014-12-15 00:00:00,2014-12-15 00:00:00,PRATE,surface,-102.188,26.929,2.51e-05
2014-12-15 00:00:00,2014-12-15 00:00:00,PRATE,surface,-101.25,26.929,5.16e-05
2014-12-15 00:00:00,2014-12-15 00:00:00,PRATE,surface,-100.313,26.929,5.63e-05
2014-12-15 00:00:00,2014-12-15 00:00:00,PRATE,surface,-99.3754,26.929,4.34e-05
2014-12-15 00:00:00,2014-12-15 00:00:00,PRATE,surface,-98.4379,26.929,4.27e-05
2014-12-15 00:00:00,2014-12-15 00:00:00,PRATE,surface,-97.5004,26.929,5.06e-05
2014-12-15 00:00:00,2014-12-15 00:00:00,PRATE,surface,-96.5629,26.929,5.42e-05
2014-12-15 00:00:00,2014-12-15 00:00:00,PRATE,surface,-95.6254,26.929,4.66e-05
2014-12-15 00:00:00,2014-12-15 00:00:00,PRATE,surface,-94.6879,26.929,4.01e-05
2014-12-15 00:00:00,2014-12-15 00:00:00,PRATE,surface,-93.7504,26.929,3.74e-05
2014-12-15 00:00:00,2014-12-15 00:00:00,PRATE,surface,-92.8129,26.929,3.74e-05
2014-12-15 00:00:00,2014-12-15 00:00:00,PRATE,surface,-107.813,27.8739,1.1e-05
2014-12-15 00:00:00,2014-12-15 00:00:00,PRATE,surface,-106.875,27.8739,3.2e-06
2014-12-15 00:00:00,2014-12-15 00:00:00,PRATE,surface,-105.938,27.8739,8e-07
2014-12-15 00:00:00,2014-12-15 00:00:00,PRATE,surface,-105,27.8739,7e-07
2014-12-15 00:00:00,2014-12-15 00:00:00,PRATE,surface,-104.063,27.8739,3.5e-06
2014-12-15 00:00:00,2014-12-15 00:00:00,PRATE,surface,-103.125,27.8739,1.88e-05
2014-12-15 00:00:00,2014-12-15 00:00:00,PRATE,surface,-102.188,27.8739,5.29e-05
2014-12-15 00:00:00,2014-12-15 00:00:00,PRATE,surface,-101.25,27.8739,5.5e-05
2014-12-15 00:00:00,2014-12-15 00:00:00,PRATE,surface,-100.313,27.8739,4.68e-05
2014-12-15 00:00:00,2014-12-15 00:00:00,PRATE,surface,-99.3754,27.8739,4.35e-05
2014-12-15 00:00:00,2014-12-15 00:00:00,PRATE,surface,-98.4379,27.8739,4.64e-05
2014-12-15 00:00:00,2014-12-15 00:00:00,PRATE,surface,-97.5004,27.8739,5.07e-05
2014-12-15 00:00:00,2014-12-15 00:00:00,PRATE,surface,-96.5629,27.8739,5.26e-05
2014-12-15 00:00:00,2014-12-15 00:00:00,PRATE,surface,-95.6254,27.8739,5.23e-05
2014-12-15 00:00:00,2014-12-15 00:00:00,PRATE,surface,-94.6879,27.8739,5.05e-05
2014-12-15 00:00:00,2014-12-15 00:00:00,PRATE,surface,-93.7504,27.8739,4.6e-05
2014-12-15 00:00:00,2014-12-15 00:00:00,PRATE,surface,-92.8129,27.8739,3.88e-05
2014-12-15 00:00:00,2014-12-15 00:00:00,PRATE,surface,-107.813,28.8188,1.03e-05
2014-12-15 00:00:00,2014-12-15 00:00:00,PRATE,surface,-106.875,28.8188,2.5e-06
2014-12-15 00:00:00,2014-12-15 00:00:00,PRATE,surface,-105.938,28.8188,1e-06
2014-12-15 00:00:00,2014-12-15 00:00:00,PRATE,surface,-105,28.8188,1e-06
2014-12-15 00:00:00,2014-12-15 00:00:00,PRATE,surface,-104.063,28.8188,5.2e-06
2014-12-15 00:00:00,2014-12-15 00:00:00,PRATE,surface,-103.125,28.8188,2.03e-05
2014-12-15 00:00:00,2014-12-15 00:00:00,PRATE,surface,-102.188,28.8188,3.99e-05
2014-12-15 00:00:00,2014-12-15 00:00:00,PRATE,surface,-101.25,28.8188,4.42e-05
2014-12-15 00:00:00,2014-12-15 00:00:00,PRATE,surface,-100.313,28.8188,4.89e-05
2014-12-15 00:00:00,2014-12-15 00:00:00,PRATE,surface,-99.3754,28.8188,5.83e-05
2014-12-15 00:00:00,2014-12-15 00:00:00,PRATE,surface,-98.4379,28.8188,5.95e-05
2014-12-15 00:00:00,2014-12-15 00:00:00,PRATE,surface,-97.5004,28.8188,5.52e-05
2014-12-15 00:00:00,2014-12-15 00:00:00,PRATE,surface,-96.5629,28.8188,5.58e-05
2014-12-15 00:00:00,2014-12-15 00:00:00,PRATE,surface,-95.6254,28.8188,6.43e-05
2014-12-15 00:00:00,2014-12-15 00:00:00,PRATE,surface,-94.6879,28.8188,7.4e-05
2014-12-15 00:00:00,2014-12-15 00:00:00,PRATE,surface,-93.7504,28.8188,7.53e-05
2014-12-15 00:00:00,2014-12-15 00:00:00,PRATE,surface,-92.8129,28.8188,7.09e-05
2014-12-15 00:00:00,2014-12-15 00:00:00,PRATE,surface,-107.813,29.7637,6.8e-06
2014-12-15 00:00:00,2014-12-15 00:00:00,PRATE,surface,-106.875,29.7637,3.9e-06
2014-12-15 00:00:00,2014-12-15 00:00:00,PRATE,surface,-105.938,29.7637,3.5e-06
2014-12-15 00:00:00,2014-12-15 00:00:00,PRATE,surface,-105,29.7637,5.3e-06
2014-12-15 00:00:00,2014-12-15 00:00:00,PRATE,surface,-104.063,29.7637,7.8e-06
2014-12-15 00:00:00,2014-12-15 00:00:00,PRATE,surface,-103.125,29.7637,1.58e-05
2014-12-15 00:00:00,2014-12-15 00:00:00,PRATE,surface,-102.188,29.7637,2.54e-05
2014-12-15 00:00:00,2014-12-15 00:00:00,PRATE,surface,-101.25,29.7637,3.52e-05
2014-12-15 00:00:00,2014-12-15 00:00:00,PRATE,surface,-100.313,29.7637,4.94e-05
2014-12-15 00:00:00,2014-12-15 00:00:00,PRATE,surface,-99.3754,29.7637,6.6e-05
2014-12-15 00:00:00,2014-12-15 00:00:00,PRATE,surface,-98.4379,29.7637,7.38e-05
2014-12-15 00:00:00,2014-12-15 00:00:00,PRATE,surface,-97.5004,29.7637,6.82e-05
2014-12-15 00:00:00,2014-12-15 00:00:00,PRATE,surface,-96.5629,29.7637,5.97e-05
2014-12-15 00:00:00,2014-12-15 00:00:00,PRATE,surface,-95.6254,29.7637,5.67e-05
2014-12-15 00:00:00,2014-12-15 00:00:00,PRATE,surface,-94.6879,29.7637,6e-05
2014-12-15 00:00:00,2014-12-15 00:00:00,PRATE,surface,-93.7504,29.7637,7.13e-05
2014-12-15 00:00:00,2014-12-15 00:00:00,PRATE,surface,-92.8129,29.7637,8.41e-05
2014-12-15 00:00:00,2014-12-15 00:00:00,PRATE,surface,-107.813,30.7085,5.7e-06
2014-12-15 00:00:00,2014-12-15 00:00:00,PRATE,surface,-106.875,30.7085,7.7e-06
2014-12-15 00:00:00,2014-12-15 00:00:00,PRATE,surface,-105.938,30.7085,9e-06
2014-12-15 00:00:00,2014-12-15 00:00:00,PRATE,surface,-105,30.7085,1.23e-05
2014-12-15 00:00:00,2014-12-15 00:00:00,PRATE,surface,-104.063,30.7085,1.37e-05
2014-12-15 00:00:00,2014-12-15 00:00:00,PRATE,surface,-103.125,30.7085,1.78e-05
2014-12-15 00:00:00,2014-12-15 00:00:00,PRATE,surface,-102.188,30.7085,2.29e-05
2014-12-15 00:00:00,2014-12-15 00:00:00,PRATE,surface,-101.25,30.7085,3.78e-05
2014-12-15 00:00:00,2014-12-15 00:00:00,PRATE,surface,-100.313,30.7085,5.41e-05
2014-12-15 00:00:00,2014-12-15 00:00:00,PRATE,surface,-99.3754,30.7085,6.49e-05
2014-12-15 00:00:00,2014-12-15 00:00:00,PRATE,surface,-98.4379,30.7085,6.6e-05
2014-12-15 00:00:00,2014-12-15 00:00:00,PRATE,surface,-97.5004,30.7085,6.12e-05
2014-12-15 00:00:00,2014-12-15 00:00:00,PRATE,surface,-96.5629,30.7085,5.87e-05
2014-12-15 00:00:00,2014-12-15 00:00:00,PRATE,surface,-95.6254,30.7085,6e-05
2014-12-15 00:00:00,2014-12-15 00:00:00,PRATE,surface,-94.6879,30.7085,5.87e-05
2014-12-15 00:00:00,2014-12-15 00:00:00,PRATE,surface,-93.7504,30.7085,5.42e-05
2014-12-15 00:00:00,2014-12-15 00:00:00,PRATE,surface,-92.8129,30.7085,6.1e-05
2014-12-15 00:00:00,2014-12-15 00:00:00,PRATE,surface,-107.813,31.6534,6.3e-06
2014-12-15 00:00:00,2014-12-15 00:00:00,PRATE,surface,-106.875,31.6534,9.1e-06
2014-12-15 00:00:00,2014-12-15 00:00:00,PRATE,surface,-105.938,31.6534,1.34e-05
2014-12-15 00:00:00,2014-12-15 00:00:00,PRATE,surface,-105,31.6534,1.75e-05
2014-12-15 00:00:00,2014-12-15 00:00:00,PRATE,surface,-104.063,31.6534,2.13e-05
2014-12-15 00:00:00,2014-12-15 00:00:00,PRATE,surface,-103.125,31.6534,2.57e-05
2014-12-15 00:00:00,2014-12-15 00:00:00,PRATE,surface,-102.188,31.6534,3.04e-05
2014-12-15 00:00:00,2014-12-15 00:00:00,PRATE,surface,-101.25,31.6534,4.17e-05
2014-12-15 00:00:00,2014-12-15 00:00:00,PRATE,surface,-100.313,31.6534,5.33e-05
2014-12-15 00:00:00,2014-12-15 00:00:00,PRATE,surface,-99.3754,31.6534,5.99e-05
2014-12-15 00:00:00,2014-12-15 00:00:00,PRATE,surface,-98.4379,31.6534,6.59e-05
2014-12-15 00:00:00,2014-12-15 00:00:00,PRATE,surface,-97.5004,31.6534,6.72e-05
2014-12-15 00:00:00,2014-12-15 00:00:00,PRATE,surface,-96.5629,31.6534,6.37e-05
2014-12-15 00:00:00,2014-12-15 00:00:00,PRATE,surface,-95.6254,31.6534,6.27e-05
2014-12-15 00:00:00,2014-12-15 00:00:00,PRATE,surface,-94.6879,31.6534,6.61e-05
2014-12-15 00:00:00,2014-12-15 00:00:00,PRATE,surface,-93.7504,31.6534,6.71e-05
2014-12-15 00:00:00,2014-12-15 00:00:00,PRATE,surface,-92.8129,31.6534,6.09e-05
2014-12-15 00:00:00,2014-12-15 00:00:00,PRATE,surface,-107.813,32.5983,1.07e-05
2014-12-15 00:00:00,2014-12-15 00:00:00,PRATE,surface,-106.875,32.5983,1.15e-05
2014-12-15 00:00:00,2014-12-15 00:00:00,PRATE,surface,-105.938,32.5983,1.38e-05
2014-12-15 00:00:00,2014-12-15 00:00:00,PRATE,surface,-105,32.5983,1.7e-05
2014-12-15 00:00:00,2014-12-15 00:00:00,PRATE,surface,-104.063,32.5983,2.25e-05
2014-12-15 00:00:00,2014-12-15 00:00:00,PRATE,surface,-103.125,32.5983,3.07e-05
2014-12-15 00:00:00,2014-12-15 00:00:00,PRATE,surface,-102.188,32.5983,4.25e-05
2014-12-15 00:00:00,2014-12-15 00:00:00,PRATE,surface,-101.25,32.5983,5.09e-05
2014-12-15 00:00:00,2014-12-15 00:00:00,PRATE,surface,-100.313,32.5983,5.59e-05
2014-12-15 00:00:00,2014-12-15 00:00:00,PRATE,surface,-99.3754,32.5983,6.12e-05
2014-12-15 00:00:00,2014-12-15 00:00:00,PRATE,surface,-98.4379,32.5983,6.94e-05
2014-12-15 00:00:00,2014-12-15 00:00:00,PRATE,surface,-97.5004,32.5983,7.59e-05
2014-12-15 00:00:00,2014-12-15 00:00:00,PRATE,surface,-96.5629,32.5983,7.61e-05
2014-12-15 00:00:00,2014-12-15 00:00:00,PRATE,surface,-95.6254,32.5983,7.25e-05
2014-12-15 00:00:00,2014-12-15 00:00:00,PRATE,surface,-94.6879,32.5983,6.88e-05
2014-12-15 00:00:00,2014-12-15 00:00:00,PRATE,surface,-93.7504,32.5983,6.33e-05
2014-12-15 00:00:00,2014-12-15 00:00:00,PRATE,surface,-92.8129,32.5983,5.85e-05
2014-12-15 00:00:00,2014-12-15 00:00:00,PRATE,surface,-107.813,33.5432,2.34e-05
2014-12-15 00:00:00,2014-12-15 00:00:00,PRATE,surface,-106.875,33.5432,1.82e-05
2014-12-15 00:00:00,2014-12-15 00:00:00,PRATE,surface,-105.938,33.5432,1.6e-05
2014-12-15 00:00:00,2014-12-15 00:00:00,PRATE,surface,-105,33.5432,1.58e-05
2014-12-15 00:00:00,2014-12-15 00:00:00,PRATE,surface,-104.063,33.5432,2.4e-05
2014-12-15 00:00:00,2014-12-15 00:00:00,PRATE,surface,-103.125,33.5432,3.27e-05
2014-12-15 00:00:00,2014-12-15 00:00:00,PRATE,surface,-102.188,33.5432,4.81e-05
2014-12-15 00:00:00,2014-12-15 00:00:00,PRATE,surface,-101.25,33.5432,5.41e-05
2014-12-15 00:00:00,2014-12-15 00:00:00,PRATE,surface,-100.313,33.5432,5.68e-05
2014-12-15 00:00:00,2014-12-15 00:00:00,PRATE,surface,-99.3754,33.5432,6.67e-05
2014-12-15 00:00:00,2014-12-15 00:00:00,PRATE,surface,-98.4379,33.5432,7.77e-05
2014-12-15 00:00:00,2014-12-15 00:00:00,PRATE,surface,-97.5004,33.5432,8.1e-05
2014-12-15 00:00:00,2014-12-15 00:00:00,PRATE,surface,-96.5629,33.5432,7.65e-05
2014-12-15 00:00:00,2014-12-15 00:00:00,PRATE,surface,-95.6254,33.5432,7.11e-05
2014-12-15 00:00:00,2014-12-15 00:00:00,PRATE,surface,-94.6879,33.5432,7.03e-05
2014-12-15 00:00:00,2014-12-15 00:00:00,PRATE,surface,-93.7504,33.5432,6.95e-05
2014-12-15 00:00:00,2014-12-15 00:00:00,PRATE,surface,-92.8129,33.5432,6.03e-05
2014-12-15 00:00:00,2014-12-15 00:00:00,PRATE,surface,-107.813,34.4881,3.29e-05
2014-12-15 00:00:00,2014-12-15 00:00:00,PRATE,surface,-106.875,34.4881,2.53e-05
2014-12-15 00:00:00,2014-12-15 00:00:00,PRATE,surface,-105.938,34.4881,1.59e-05
2014-12-15 00:00:00,2014-12-15 00:00:00,PRATE,surface,-105,34.4881,1.54e-05
2014-12-15 00:00:00,2014-12-15 00:00:00,PRATE,surface,-104.063,34.4881,2.44e-05
2014-12-15 00:00:00,2014-12-15 00:00:00,PRATE,surface,-103.125,34.4881,3.47e-05
2014-12-15 00:00:00,2014-12-15 00:00:00,PRATE,surface,-102.188,34.4881,4.7e-05
2014-12-15 00:00:00,2014-12-15 00:00:00,PRATE,surface,-101.25,34.4881,5.43e-05
2014-12-15 00:00:00,2014-12-15 00:00:00,PRATE,surface,-100.313,34.4881,5.66e-05
2014-12-15 00:00:00,2014-12-15 00:00:00,PRATE,surface,-99.3754,34.4881,7.05e-05
2014-12-15 00:00:00,2014-12-15 00:00:00,PRATE,surface,-98.4379,34.4881,8.5e-05
2014-12-15 00:00:00,2014-12-15 00:00:00,PRATE,surface,-97.5004,34.4881,8.57e-05
2014-12-15 00:00:00,2014-12-15 00:00:00,PRATE,surface,-96.5629,34.4881,7.34e-05
2014-12-15 00:00:00,2014-12-15 00:00:00,PRATE,surface,-95.6254,34.4881,6.29e-05
2014-12-15 00:00:00,2014-12-15 00:00:00,PRATE,surface,-94.6879,34.4881,6.68e-05
2014-12-15 00:00:00,2014-12-15 00:00:00,PRATE,surface,-93.7504,34.4881,7.49e-05
2014-12-15 00:00:00,2014-12-15 00:00:00,PRATE,surface,-92.8129,34.4881,6.98e-05
2014-12-15 00:00:00,2014-12-15 00:00:00,PRATE,surface,-107.813,35.4329,3.27e-05
2014-12-15 00:00:00,2014-12-15 00:00:00,PRATE,surface,-106.875,35.4329,3.04e-05
2014-12-15 00:00:00,2014-12-15 00:00:00,PRATE,surface,-105.938,35.4329,2.55e-05
2014-12-15 00:00:00,2014-12-15 00:00:00,PRATE,surface,-105,35.4329,2.58e-05
2014-12-15 00:00:00,2014-12-15 00:00:00,PRATE,surface,-104.063,35.4329,2.79e-05
2014-12-15 00:00:00,2014-12-15 00:00:00,PRATE,surface,-103.125,35.4329,3.74e-05
2014-12-15 00:00:00,2014-12-15 00:00:00,PRATE,surface,-102.188,35.4329,4.61e-05
2014-12-15 00:00:00,2014-12-15 00:00:00,PRATE,surface,-101.25,35.4329,5.63e-05
2014-12-15 00:00:00,2014-12-15 00:00:00,PRATE,surface,-100.313,35.4329,6.02e-05
2014-12-15 00:00:00,2014-12-15 00:00:00,PRATE,surface,-99.3754,35.4329,6.31e-05
2014-12-15 00:00:00,2014-12-15 00:00:00,PRATE,surface,-98.4379,35.4329,6.97e-05
2014-12-15 00:00:00,2014-12-15 00:00:00,PRATE,surface,-97.5004,35.4329,7.46e-05
2014-12-15 00:00:00,2014-12-15 00:00:00,PRATE,surface,-96.5629,35.4329,7.01e-05
2014-12-15 00:00:00,2014-12-15 00:00:00,PRATE,surface,-95.6254,35.4329,6.37e-05
2014-12-15 00:00:00,2014-12-15 00:00:00,PRATE,surface,-94.6879,35.4329,6.69e-05
2014-12-15 00:00:00,2014-12-15 00:00:00,PRATE,surface,-93.7504,35.4329,7.53e-05
2014-12-15 00:00:00,2014-12-15 00:00:00,PRATE,surface,-92.8129,35.4329,8.13e-05
2014-12-15 00:00:00,2014-12-15 00:00:00,PRATE,surface,-107.813,36.3778,3.87e-05
2014-12-15 00:00:00,2014-12-15 00:00:00,PRATE,surface,-106.875,36.3778,4.72e-05
2014-12-15 00:00:00,2014-12-15 00:00:00,PRATE,surface,-105.938,36.3778,4e-05
2014-12-15 00:00:00,2014-12-15 00:00:00,PRATE,surface,-105,36.3778,3.87e-05
2014-12-15 00:00:00,2014-12-15 00:00:00,PRATE,surface,-104.063,36.3778,3.64e-05
2014-12-15 00:00:00,2014-12-15 00:00:00,PRATE,surface,-103.125,36.3778,3.99e-05
2014-12-15 00:00:00,2014-12-15 00:00:00,PRATE,surface,-102.188,36.3778,4.91e-05
2014-12-15 00:00:00,2014-12-15 00:00:00,PRATE,surface,-101.25,36.3778,5.8e-05
2014-12-15 00:00:00,2014-12-15 00:00:00,PRATE,surface,-100.313,36.3778,5.68e-05
2014-12-15 00:00:00,2014-12-15 00:00:00,PRATE,surface,-99.3754,36.3778,5.48e-05
2014-12-15 00:00:00,2014-12-15 00:00:00,PRATE,surface,-98.4379,36.3778,5.47e-05
2014-12-15 00:00:00,2014-12-15 00:00:00,PRATE,surface,-97.5004,36.3778,5.91e-05
2014-12-15 00:00:00,2014-12-15 00:00:00,PRATE,surface,-96.5629,36.3778,6.39e-05
2014-12-15 00:00:00,2014-12-15 00:00:00,PRATE,surface,-95.6254,36.3778,6.56e-05
2014-12-15 00:00:00,2014-12-15 00:00:00,PRATE,surface,-94.6879,36.3778,6.96e-05
2014-12-15 00:00:00,2014-12-15 00:00:00,PRATE,surface,-93.7504,36.3778,7.7e-05
2014-12-15 00:00:00,2014-12-15 00:00:00,PRATE,surface,-92.8129,36.3778,8.42e-05
