2012-01-18 00:00:00,2012-01-18 00:00:00,TMP,surface,-107.813,25.0393,299.735
2012-01-18 00:00:00,2012-01-18 00:00:00,TMP,surface,-106.875,25.0393,292.317
2012-01-18 00:00:00,2012-01-18 00:00:00,TMP,surface,-105.938,25.0393,287.018
2012-01-18 00:00:00,2012-01-18 00:00:00,TMP,surface,-105,25.0393,284.844
2012-01-18 00:00:00,2012-01-18 00:00:00,TMP,surface,-104.063,25.0393,288.261
2012-01-18 00:00:00,2012-01-18 00:00:00,TMP,surface,-103.125,25.0393,291.108
2012-01-18 00:00:00,2012-01-18 00:00:00,TMP,surface,-102.188,25.0393,290.663
2012-01-18 00:00:00,2012-01-18 00:00:00,TMP,surface,-101.25,25.0393,288.911
2012-01-18 00:00:00,2012-01-18 00:00:00,TMP,surface,-100.313,25.0393,289.413
2012-01-18 00:00:00,2012-01-18 00:00:00,TMP,surface,-99.3754,25.0393,292.871
2012-01-18 00:00:00,2012-01-18 00:00:00,TMP,surface,-98.4379,25.0393,296.573
2012-01-18 00:00:00,2012-01-18 00:00:00,TMP,surface,-97.5004,25.0393,300.643
2012-01-18 00:00:00,2012-01-18 00:00:00,TMP,surface,-96.5629,25.0393,300.986
2012-01-18 00:00:00,2012-01-18 00:00:00,TMP,surface,-95.6254,25.0393,301.079
2012-01-18 00:00:00,2012-01-18 00:00:00,TMP,surface,-94.6879,25.0393,301.314
2012-01-18 00:00:00,2012-01-18 00:00:00,TMP,surface,-93.7504,25.0393,301.264
2012-01-18 00:00:00,2012-01-18 00:00:00,TMP,surface,-92.8129,25.0393,301.202
2012-01-18 00:00:00,2012-01-18 00:00:00,TMP,surface,-107.813,25.9842,293.205
2012-01-18 00:00:00,2012-01-18 00:00:00,TMP,surface,-106.875,25.9842,287.858
2012-01-18 00:00:00,2012-01-18 00:00:00,TMP,surface,-105.938,25.9842,285.232
2012-01-18 00:00:00,2012-01-18 00:00:00,TMP,surface,-105,25.9842,287.007
2012-01-18 00:00:00,2012-01-18 00:00:00,TMP,surface,-104.063,25.9842,291.695
2012-01-18 00:00:00,2012-01-18 00:00:00,TMP,surface,-103.125,25.9842,293.44
2012-01-18 00:00:00,2012-01-18 00:00:00,TMP,surface,-102.188,25.9842,292.722
2012-01-18 00:00:00,2012-01-18 00:00:00,TMP,surface,-101.25,25.9842,291.647
2012-01-18 00:00:00,2012-01-18 00:00:00,TMP,surface,-100.313,25.9842,291.842
2012-01-18 00:00:00,2012-01-18 00:00:00,TMP,surface,-99.3754,25.9842,295.226
2012-01-18 00:00:00,2012-01-18 00:00:00,TMP,surface,-98.4379,25.9842,297.111
2012-01-18 00:00:00,2012-01-18 00:00:00,TMP,surface,-97.5004,25.9842,297.711
2012-01-18 00:00:00,2012-01-18 00:00:00,TMP,surface,-96.5629,25.9842,300.45
2012-01-18 00:00:00,2012-01-18 00:00:00,TMP,surface,-95.6254,25.9842,300.797
2012-01-18 00:00:00,2012-01-18 00:00:00,TMP,surface,-94.6879,25.9842,300.981
2012-01-18 00:00:00,2012-01-18 00:00:00,TMP,surface,-93.7504,25.9842,301
2012-01-18 00:00:00,2012-01-18 00:00:00,TMP,surface,-92.8129,25.9842,301.069
2012-01-18 00:00:00,2012-01-18 00:00:00,TMP,surface,-107.813,26.929,288.056
2012-01-18 00:00:00,2012-01-18 00:00:00,TMP,surface,-106.875,26.929,284.888
2012-01-18 00:00:00,2012-01-18 00:00:00,TMP,surface,-105.938,26.929,286.565
2012-01-18 00:00:00,2012-01-18 00:00:00,TMP,surface,-105,26.929,290.085
2012-01-18 00:00:00,2012-01-18 00:00:00,TMP,surface,-104.063,26.929,292.373
2012-01-18 00:00:00,2012-01-18 00:00:00,TMP,surface,-103.125,26.929,292.224
2012-01-18 00:00:00,2012-01-18 00:00:00,TMP,surface,-102.188,26.929,291.904
2012-01-18 00:00:00,2012-01-18 00:00:00,TMP,surface,-101.25,26.929,292.685
2012-01-18 00:00:00,2012-01-18 00:00:00,TMP,surface,-100.313,26.929,294.383
2012-01-18 00:00:00,2012-01-18 00:00:00,TMP,surface,-99.3754,26.929,296.155
2012-01-18 00:00:00,2012-01-18 00:00:00,TMP,surface,-98.4379,26.929,295.923
2012-01-18 00:00:00,2012-01-18 00:00:00,TMP,surface,-97.5004,26.929,299.168
2012-01-18 00:00:00,2012-01-18 00:00:00,TMP,surface,-96.5629,26.929,299.962
2012-01-18 00:00:00,2012-01-18 00:00:00,TMP,surface,-95.6254,26.929,300.647
2012-01-18 00:00:00,2012-01-18 00:00:00,TMP,surface,-94.6879,26.929,300.78
2012-01-18 00:00:00,2012-01-18 00:00:00,TMP,surface,-93.7504,26.929,300.676
2012-01-18 00:00:00,2012-01-18 00:00:00,TMP,surface,-92.8129,26.929,300.676
2012-01-18 00:00:00,2012-01-18 00:00:00,TMP,surface,-107.813,27.8739,285.383
2012-01-18 00:00:00,2012-01-18 00:00:00,TMP,surface,-106.875,27.8739,284.232
2012-01-18 00:00:00,2012-01-18 00:00:00,TMP,surface,-105.938,27.8739,287.693
2012-01-18 00:00:00,2012-01-18 00:00:00,TMP,surface,-105,27.8739,291.307
2012-01-18 00:00:00,2012-01-18 00:00:00,TMP,surface,-104.063,27.8739,291.637
2012-01-18 00:00:00,2012-01-18 00:00:00,TMP,surface,-103.125,27.8739,290.511
2012-01-18 00:00:00,2012-01-18 00:00:00,TMP,surface,-102.188,27.8739,290.396
2012-01-18 00:00:00,2012-01-18 00:00:00,TMP,surface,-101.25,27.8739,292.448
2012-01-18 00:00:00,2012-01-18 00:00:00,TMP,surface,-100.313,27.8739,294.645
2012-01-18 00:00:00,2012-01-18 00:00:00,TMP,surface,-99.3754,27.8739,295.143
2012-01-18 00:00:00,2012-01-18 00:00:00,TMP,surface,-98.4379,27.8739,294.78
2012-01-18 00:00:00,2012-01-18 00:00:00,TMP,surface,-97.5004,27.8739,297.039
2012-01-18 00:00:00,2012-01-18 00:00:00,TMP,surface,-96.5629,27.8739,299.741
2012-01-18 00:00:00,2012-01-18 00:00:00,TMP,surface,-95.6254,27.8739,300.082
2012-01-18 00:00:00,2012-01-18 00:00:00,TMP,surface,-94.6879,27.8739,300.096
2012-01-18 00:00:00,2012-01-18 00:00:00,TMP,surface,-93.7504,27.8739,300.064
2012-01-18 00:00:00,2012-01-18 00:00:00,TMP,surface,-92.8129,27.8739,300.042
2012-01-18 00:00:00,2012-01-18 00:00:00,TMP,surface,-107.813,28.8188,284.149
2012-01-18 00:00:00,2012-01-18 00:00:00,TMP,surface,-106.875,28.8188,284.844
2012-01-18 00:00:00,2012-01-18 00:00:00,TMP,surface,-105.938,28.8188,288.677
2012-01-18 00:00:00,2012-01-18 00:00:00,TMP,surface,-105,28.8188,291.285
2012-01-18 00:00:00,2012-01-18 00:00:00,TMP,surface,-104.063,28.8188,290.176
2012-01-18 00:00:00,2012-01-18 00:00:00,TMP,surface,-103.125,28.8188,289.365
2012-01-18 00:00:00,2012-01-18 00:00:00,TMP,surface,-102.188,28.8188,290.114
2012-01-18 00:00:00,2012-01-18 00:00:00,TMP,surface,-101.25,28.8188,292.167
2012-01-18 00:00:00,2012-01-18 00:00:00,TMP,surface,-100.313,28.8188,293.231
2012-01-18 00:00:00,2012-01-18 00:00:00,TMP,surface,-99.3754,28.8188,292.68
2012-01-18 00:00:00,2012-01-18 00:00:00,TMP,surface,-98.4379,28.8188,292.221
2012-01-18 00:00:00,2012-01-18 00:00:00,TMP,surface,-97.5004,28.8188,292.549
2012-01-18 00:00:00,2012-01-18 00:00:00,TMP,surface,-96.5629,28.8188,293.647
2012-01-18 00:00:00,2012-01-18 00:00:00,TMP,surface,-95.6254,28.8188,296.407
2012-01-18 00:00:00,2012-01-18 00:00:00,TMP,surface,-94.6879,28.8188,299.384
2012-01-18 00:00:00,2012-01-18 00:00:00,TMP,surface,-93.7504,28.8188,299.423
2012-01-18 00:00:00,2012-01-18 00:00:00,TMP,surface,-92.8129,28.8188,299.472
2012-01-18 00:00:00,2012-01-18 00:00:00,TMP,surface,-107.813,29.7637,285.6
2012-01-18 00:00:00,2012-01-18 00:00:00,TMP,surface,-106.875,29.7637,286.759
2012-01-18 00:00:00,2012-01-18 00:00:00,TMP,surface,-105.938,29.7637,289.488
2012-01-18 00:00:00,2012-01-18 00:00:00,TMP,surface,-105,29.7637,289.984
2012-01-18 00:00:00,2012-01-18 00:00:00,TMP,surface,-104.063,29.7637,289.645
2012-01-18 00:00:00,2012-01-18 00:00:00,TMP,surface,-103.125,29.7637,290.258
2012-01-18 00:00:00,2012-01-18 00:00:00,TMP,surface,-102.188,29.7637,291.491
2012-01-18 00:00:00,2012-01-18 00:00:00,TMP,surface,-101.25,29.7637,292.165
2012-01-18 00:00:00,2012-01-18 00:00:00,TMP,surface,-100.313,29.7637,291.261
2012-01-18 00:00:00,2012-01-18 00:00:00,TMP,surface,-99.3754,29.7637,290.25
2012-01-18 00:00:00,2012-01-18 00:00:00,TMP,surface,-98.4379,29.7637,290.136
2012-01-18 00:00:00,2012-01-18 00:00:00,TMP,surface,-97.5004,29.7637,290.727
2012-01-18 00:00:00,2012-01-18 00:00:00,TMP,surface,-96.5629,29.7637,291.626
2012-01-18 00:00:00,2012-01-18 00:00:00,TMP,surface,-95.6254,29.7637,292.784
2012-01-18 00:00:00,2012-01-18 00:00:00,TMP,surface,-94.6879,29.7637,295.312
2012-01-18 00:00:00,2012-01-18 00:00:00,TMP,surface,-93.7504,29.7637,297.794
2012-01-18 00:00:00,2012-01-18 00:00:00,TMP,surface,-92.8129,29.7637,294.519
2012-01-18 00:00:00,2012-01-18 00:00:00,TMP,surface,-107.813,30.7085,288.832
2012-01-18 00:00:00,2012-01-18 00:00:00,TMP,surface,-106.875,30.7085,289.885
2012-01-18 00:00:00,2012-01-18 00:00:00,TMP,surface,-105.938,30.7085,289.799
2012-01-18 00:00:00,2012-01-18 00:00:00,TMP,surface,-105,30.7085,289.004
2012-01-18 00:00:00,2012-01-18 00:00:00,TMP,surface,-104.063,30.7085,288.952
2012-01-18 00:00:00,2012-01-18 00:00:00,TMP,surface,-103.125,30.7085,290.432
2012-01-18 00:00:00,2012-01-18 00:00:00,TMP,surface,-102.188,30.7085,291.592
2012-01-18 00:00:00,2012-01-18 00:00:00,TMP,surface,-101.25,30.7085,291.245
2012-01-18 00:00:00,2012-01-18 00:00:00,TMP,surface,-100.313,30.7085,290.173
2012-01-18 00:00:00,2012-01-18 00:00:00,TMP,surface,-99.3754,30.7085,289.423
2012-01-18 00:00:00,2012-01-18 00:00:00,TMP,surface,-98.4379,30.7085,289.591
2012-01-18 00:00:00,2012-01-18 00:00:00,TMP,surface,-97.5004,30.7085,290.287
2012-01-18 00:00:00,2012-01-18 00:00:00,TMP,surface,-96.5629,30.7085,290.979
2012-01-18 00:00:00,2012-01-18 00:00:00,TMP,surface,-95.6254,30.7085,291.556
2012-01-18 00:00:00,2012-01-18 00:00:00,TMP,surface,-94.6879,30.7085,292.095
2012-01-18 00:00:00,2012-01-18 00:00:00,TMP,surface,-93.7504,30.7085,292.483
2012-01-18 00:00:00,2012-01-18 00:00:00,TMP,surface,-92.8129,30.7085,292.33
2012-01-18 00:00:00,2012-01-18 00:00:00,TMP,surface,-107.813,31.6534,289.637
2012-01-18 00:00:00,2012-01-18 00:00:00,TMP,surface,-106.875,31.6534,290.192
2012-01-18 00:00:00,2012-01-18 00:00:00,TMP,surface,-105.938,31.6534,289.111
2012-01-18 00:00:00,2012-01-18 00:00:00,TMP,surface,-105,31.6534,288.519
2012-01-18 00:00:00,2012-01-18 00:00:00,TMP,surface,-104.063,31.6534,289.21
2012-01-18 00:00:00,2012-01-18 00:00:00,TMP,surface,-103.125,31.6534,290.475
2012-01-18 00:00:00,2012-01-18 00:00:00,TMP,surface,-102.188,31.6534,290.871
2012-01-18 00:00:00,2012-01-18 00:00:00,TMP,surface,-101.25,31.6534,290.341
2012-01-18 00:00:00,2012-01-18 00:00:00,TMP,surface,-100.313,31.6534,289.848
2012-01-18 00:00:00,2012-01-18 00:00:00,TMP,surface,-99.3754,31.6534,289.587
2012-01-18 00:00:00,2012-01-18 00:00:00,TMP,surface,-98.4379,31.6534,289.819
2012-01-18 00:00:00,2012-01-18 00:00:00,TMP,surface,-97.5004,31.6534,290.352
2012-01-18 00:00:00,2012-01-18 00:00:00,TMP,surface,-96.5629,31.6534,290.77
2012-01-18 00:00:00,2012-01-18 00:00:00,TMP,surface,-95.6254,31.6534,291
2012-01-18 00:00:00,2012-01-18 00:00:00,TMP,surface,-94.6879,31.6534,291.108
2012-01-18 00:00:00,2012-01-18 00:00:00,TMP,surface,-93.7504,31.6534,291.149
2012-01-18 00:00:00,2012-01-18 00:00:00,TMP,surface,-92.8129,31.6534,291.379
2012-01-18 00:00:00,2012-01-18 00:00:00,TMP,surface,-107.813,32.5983,286.738
2012-01-18 00:00:00,2012-01-18 00:00:00,TMP,surface,-106.875,32.5983,287.266
2012-01-18 00:00:00,2012-01-18 00:00:00,TMP,surface,-105.938,32.5983,287.578
2012-01-18 00:00:00,2012-01-18 00:00:00,TMP,surface,-105,32.5983,287.717
2012-01-18 00:00:00,2012-01-18 00:00:00,TMP,surface,-104.063,32.5983,288.948
2012-01-18 00:00:00,2012-01-18 00:00:00,TMP,surface,-103.125,32.5983,289.626
2012-01-18 00:00:00,2012-01-18 00:00:00,TMP,surface,-102.188,32.5983,289.57
2012-01-18 00:00:00,2012-01-18 00:00:00,TMP,surface,-101.25,32.5983,289.471
2012-01-18 00:00:00,2012-01-18 00:00:00,TMP,surface,-100.313,32.5983,289.696
2012-01-18 00:00:00,2012-01-18 00:00:00,TMP,surface,-99.3754,32.5983,290.01
2012-01-18 00:00:00,2012-01-18 00:00:00,TMP,surface,-98.4379,32.5983,290.055
2012-01-18 00:00:00,2012-01-18 00:00:00,TMP,surface,-97.5004,32.5983,290.172
2012-01-18 00:00:00,2012-01-18 00:00:00,TMP,surface,-96.5629,32.5983,290.487
2012-01-18 00:00:00,2012-01-18 00:00:00,TMP,surface,-95.6254,32.5983,290.557
2012-01-18 00:00:00,2012-01-18 00:00:00,TMP,surface,-94.6879,32.5983,290.194
2012-01-18 00:00:00,2012-01-18 00:00:00,TMP,surface,-93.7504,32.5983,289.935
2012-01-18 00:00:00,2012-01-18 00:00:00,TMP,surface,-92.8129,32.5983,290.432
2012-01-18 00:00:00,2012-01-18 00:00:00,TMP,surface,-107.813,33.5432,283.133
2012-01-18 00:00:00,2012-01-18 00:00:00,TMP,surface,-106.875,33.5432,284.546
2012-01-18 00:00:00,2012-01-18 00:00:00,TMP,surface,-105.938,33.5432,285.725
2012-01-18 00:00:00,2012-01-18 00:00:00,TMP,surface,-105,33.5432,286.938
2012-01-18 00:00:00,2012-01-18 00:00:00,TMP,surface,-104.063,33.5432,288.104
2012-01-18 00:00:00,2012-01-18 00:00:00,TMP,surface,-103.125,33.5432,288.295
2012-01-18 00:00:00,2012-01-18 00:00:00,TMP,surface,-102.188,33.5432,287.904
2012-01-18 00:00:00,2012-01-18 00:00:00,TMP,surface,-101.25,33.5432,288.208
2012-01-18 00:00:00,2012-01-18 00:00:00,TMP,surface,-100.313,33.5432,289.058
2012-01-18 00:00:00,2012-01-18 00:00:00,TMP,surface,-99.3754,33.5432,289.562
2012-01-18 00:00:00,2012-01-18 00:00:00,TMP,surface,-98.4379,33.5432,289.373
2012-01-18 00:00:00,2012-01-18 00:00:00,TMP,surface,-97.5004,33.5432,289.098
2012-01-18 00:00:00,2012-01-18 00:00:00,TMP,surface,-96.5629,33.5432,289.21
2012-01-18 00:00:00,2012-01-18 00:00:00,TMP,surface,-95.6254,33.5432,289.404
2012-01-18 00:00:00,2012-01-18 00:00:00,TMP,surface,-94.6879,33.5432,289.271
2012-01-18 00:00:00,2012-01-18 00:00:00,TMP,surface,-93.7504,33.5432,289.037
2012-01-18 00:00:00,2012-01-18 00:00:00,TMP,surface,-92.8129,33.5432,289.216
2012-01-18 00:00:00,2012-01-18 00:00:00,TMP,surface,-107.813,34.4881,282.043
2012-01-18 00:00:00,2012-01-18 00:00:00,TMP,surface,-106.875,34.4881,283.592
2012-01-18 00:00:00,2012-01-18 00:00:00,TMP,surface,-105.938,34.4881,284.707
2012-01-18 00:00:00,2012-01-18 00:00:00,TMP,surface,-105,34.4881,285.984
2012-01-18 00:00:00,2012-01-18 00:00:00,TMP,surface,-104.063,34.4881,286.407
2012-01-18 00:00:00,2012-01-18 00:00:00,TMP,surface,-103.125,34.4881,286.391
2012-01-18 00:00:00,2012-01-18 00:00:00,TMP,surface,-102.188,34.4881,286.467
2012-01-18 00:00:00,2012-01-18 00:00:00,TMP,surface,-101.25,34.4881,286.941
2012-01-18 00:00:00,2012-01-18 00:00:00,TMP,surface,-100.313,34.4881,287.783
2012-01-18 00:00:00,2012-01-18 00:00:00,TMP,surface,-99.3754,34.4881,288.202
2012-01-18 00:00:00,2012-01-18 00:00:00,TMP,surface,-98.4379,34.4881,287.999
2012-01-18 00:00:00,2012-01-18 00:00:00,TMP,surface,-97.5004,34.4881,287.684
2012-01-18 00:00:00,2012-01-18 00:00:00,TMP,surface,-96.5629,34.4881,287.744
2012-01-18 00:00:00,2012-01-18 00:00:00,TMP,surface,-95.6254,34.4881,287.858
2012-01-18 00:00:00,2012-01-18 00:00:00,TMP,surface,-94.6879,34.4881,287.547
2012-01-18 00:00:00,2012-01-18 00:00:00,TMP,surface,-93.7504,34.4881,287.253
2012-01-18 00:00:00,2012-01-18 00:00:00,TMP,surface,-92.8129,34.4881,287.421
2012-01-18 00:00:00,2012-01-18 00:00:00,TMP,surface,-107.813,35.4329,282.911
2012-01-18 00:00:00,2012-01-18 00:00:00,TMP,surface,-106.875,35.4329,283.188
2012-01-18 00:00:00,2012-01-18 00:00:00,TMP,surface,-105.938,35.4329,283.315
2012-01-18 00:00:00,2012-01-18 00:00:00,TMP,surface,-105,35.4329,283.867
2012-01-18 00:00:00,2012-01-18 00:00:00,TMP,surface,-104.063,35.4329,285.178
2012-01-18 00:00:00,2012-01-18 00:00:00,TMP,surface,-103.125,35.4329,285.813
2012-01-18 00:00:00,2012-01-18 00:00:00,TMP,surface,-102.188,35.4329,285.615
2012-01-18 00:00:00,2012-01-18 00:00:00,TMP,surface,-101.25,35.4329,285.76
2012-01-18 00:00:00,2012-01-18 00:00:00,TMP,surface,-100.313,35.4329,286.397
2012-01-18 00:00:00,2012-01-18 00:00:00,TMP,surface,-99.3754,35.4329,286.898
2012-01-18 00:00:00,2012-01-18 00:00:00,TMP,surface,-98.4379,35.4329,287.026
2012-01-18 00:00:00,2012-01-18 00:00:00,TMP,surface,-97.5004,35.4329,287.111
2012-01-18 00:00:00,2012-01-18 00:00:00,TMP,surface,-96.5629,35.4329,287.237
2012-01-18 00:00:00,2012-01-18 00:00:00,TMP,surface,-95.6254,35.4329,287.103
2012-01-18 00:00:00,2012-01-18 00:00:00,TMP,surface,-94.6879,35.4329,286.599
2012-01-18 00:00:00,2012-01-18 00:00:00,TMP,surface,-93.7504,35.4329,286
2012-01-18 00:00:00,2012-01-18 00:00:00,TMP,surface,-92.8129,35.4329,285.741
2012-01-18 00:00:00,2012-01-18 00:00:00,TMP,surface,-107.813,36.3778,282.547
2012-01-18 00:00:00,2012-01-18 00:00:00,TMP,surface,-106.875,36.3778,280.895
2012-01-18 00:00:00,2012-01-18 00:00:00,TMP,surface,-105.938,36.3778,281.079
2012-01-18 00:00:00,2012-01-18 00:00:00,TMP,surface,-105,36.3778,281.853
2012-01-18 00:00:00,2012-01-18 00:00:00,TMP,surface,-104.063,36.3778,283.487
2012-01-18 00:00:00,2012-01-18 00:00:00,TMP,surface,-103.125,36.3778,284.37
2012-01-18 00:00:00,2012-01-18 00:00:00,TMP,surface,-102.188,36.3778,284.81
2012-01-18 00:00:00,2012-01-18 00:00:00,TMP,surface,-101.25,36.3778,285.285
2012-01-18 00:00:00,2012-01-18 00:00:00,TMP,surface,-100.313,36.3778,285.893
2012-01-18 00:00:00,2012-01-18 00:00:00,TMP,surface,-99.3754,36.3778,286.367
2012-01-18 00:00:00,2012-01-18 00:00:00,TMP,surface,-98.4379,36.3778,286.501
2012-01-18 00:00:00,2012-01-18 00:00:00,TMP,surface,-97.5004,36.3778,286.684
2012-01-18 00:00:00,2012-01-18 00:00:00,TMP,surface,-96.5629,36.3778,286.875
2012-01-18 00:00:00,2012-01-18 00:00:00,TMP,surface,-95.6254,36.3778,286.618
2012-01-18 00:00:00,2012-01-18 00:00:00,TMP,surface,-94.6879,36.3778,285.904
2012-01-18 00:00:00,2012-01-18 00:00:00,TMP,surface,-93.7504,36.3778,285.138
2012-01-18 00:00:00,2012-01-18 00:00:00,TMP,surface,-92.8129,36.3778,284.81
2012-01-18 00:00:00,2012-01-18 00:00:00,PRATE,surface,-107.813,25.0393,1.72e-05
2012-01-18 00:00:00,2012-01-18 00:00:00,PRATE,surface,-106.875,25.0393,3.34e-05
2012-01-18 00:00:00,2012-01-18 00:00:00,PRATE,surface,-105.938,25.0393,1.52e-05
2012-01-18 00:00:00,2012-01-18 00:00:00,PRATE,surface,-105,25.0393,2.25e-05
2012-01-18 00:00:00,2012-01-18 00:00:00,PRATE,surface,-104.063,25.0393,1.84e-05
2012-01-18 00:00:00,2012-01-18 00:00:00,PRATE,surface,-103.125,25.0393,9.8e-06
2012-01-18 00:00:00,2012-01-18 00:00:00,PRATE,surface,-102.188,25.0393,2.09e-05
2012-01-18 00:00:00,2012-01-18 00:00:00,PRATE,surface,-101.25,25.0393,4.24e-05
2012-01-18 00:00:00,2012-01-18 00:00:00,PRATE,surface,-100.313,25.0393,5.32e-05
2012-01-18 00:00:00,2012-01-18 00:00:00,PRATE,surface,-99.3754,25.0393,2.2e-05
2012-01-18 00:00:00,2012-01-18 00:00:00,PRATE,surface,-98.4379,25.0393,8.2e-06
2012-01-18 00:00:00,2012-01-18 00:00:00,PRATE,surface,-97.5004,25.0393,1.57e-05
2012-01-18 00:00:00,2012-01-18 00:00:00,PRATE,surface,-96.5629,25.0393,2.13e-05
2012-01-18 00:00:00,2012-01-18 00:00:00,PRATE,surface,-95.6254,25.0393,3.32e-05
2012-01-18 00:00:00,2012-01-18 00:00:00,PRATE,surface,-94.6879,25.0393,2.95e-05
2012-01-18 00:00:00,2012-01-18 00:00:00,PRATE,surface,-93.7504,25.0393,2.16e-05
2012-01-18 00:00:00,2012-01-18 00:00:00,PRATE,surface,-92.8129,25.0393,2.53e-05
2012-01-18 00:00:00,2012-01-18 00:00:00,PRATE,surface,-107.813,25.9842,3.93e-05
2012-01-18 00:00:00,2012-01-18 00:00:00,PRATE,surface,-106.875,25.9842,3.1e-05
2012-01-18 00:00:00,2012-01-18 00:00:00,PRATE,surface,-105.938,25.9842,1.26e-05
2012-01-18 00:00:00,2012-01-18 00:00:00,PRATE,surface,-105,25.9842,2.75e-05
2012-01-18 00:00:00,2012-01-18 00:00:00,PRATE,surface,-104.063,25.9842,1e-05
2012-01-18 00:00:00,2012-01-18 00:00:00,PRATE,surface,-103.125,25.9842,1.7e-06
2012-01-18 00:00:00,2012-01-18 00:00:00,PRATE,surface,-102.188,25.9842,5.5e-06
2012-01-18 00:00:00,2012-01-18 00:00:00,PRATE,surface,-101.25,25.9842,1.61e-05
2012-01-18 00:00:00,2012-01-18 00:00:00,PRATE,surface,-100.313,25.9842,2.61e-05
2012-01-18 00:00:00,2012-01-18 00:00:00,PRATE,surface,-99.3754,25.9842,1.88e-05
2012-01-18 00:00:00,2012-01-18 00:00:00,PRATE,surface,-98.4379,25.9842,1.53e-05
2012-01-18 00:00:00,2012-01-18 00:00:00,PRATE,surface,-97.5004,25.9842,2.13e-05
2012-01-18 00:00:00,2012-01-18 00:00:00,PRATE,surface,-96.5629,25.9842,3.37e-05
2012-01-18 00:00:00,2012-01-18 00:00:00,PRATE,surface,-95.6254,25.9842,3.7e-05
2012-01-18 00:00:00,2012-01-18 00:00:00,PRATE,surface,-94.6879,25.9842,3.03e-05
2012-01-18 00:00:00,2012-01-18 00:00:00,PRATE,surface,-93.7504,25.9842,2.2e-05
2012-01-18 00:00:00,2012-01-18 00:00:00,PRATE,surface,-92.8129,25.9842,1.95e-05
2012-01-18 00:00:00,2012-01-18 00:00:00,PRATE,surface,-107.813,26.929,5.92e-05
2012-01-18 00:00:00,2012-01-18 00:00:00,PRATE,surface,-106.875,26.929,3.11e-05
2012-01-18 00:00:00,2012-01-18 00:00:00,PRATE,surface,-105.938,26.929,2.03e-05
2012-01-18 00:00:00,2012-01-18 00:00:00,PRATE,surface,-105,26.929,2.77e-05
2012-01-18 00:00:00,2012-01-18 00:00:00,PRATE,surface,-104.063,26.929,9.4e-06
2012-01-18 00:00:00,2012-01-18 00:00:00,PRATE,surface,-103.125,26.929,7.4e-06
2012-01-18 00:00:00,2012-01-18 00:00:00,PRATE,surface,-102.188,26.929,1.05e-05
2012-01-18 00:00:00,2012-01-18 00:00:00,PRATE,surface,-101.25,26.929,9e-06
2012-01-18 00:00:00,2012-01-18 00:00:00,PRATE,surface,-100.313,26.929,7.2e-06
2012-01-18 00:00:00,2012-01-18 00:00:00,PRATE,surface,-99.3754,26.929,1.01e-05
2012-01-18 00:00:00,2012-01-18 00:00:00,PRATE,surface,-98.4379,26.929,2.66e-05
2012-01-18 00:00:00,2012-01-18 00:00:00,PRATE,surface,-97.5004,26.929,3.34e-05
2012-01-18 00:00:00,2012-01-18 00:00:00,PRATE,surface,-96.5629,26.929,3.69e-05
2012-01-18 00:00:00,2012-01-18 00:00:00,PRATE,surface,-95.6254,26.929,2.82e-05
2012-01-18 00:00:00,2012-01-18 00:00:00,PRATE,surface,-94.6879,26.929,2.46e-05
2012-01-18 00:00:00,2012-01-18 00:00:00,PRATE,surface,-93.7504,26.929,2.21e-05
2012-01-18 00:00:00,2012-01-18 00:00:00,PRATE,surface,-92.8129,26.929,2.37e-05
2012-01-18 00:00:00,2012-01-18 00:00:00,PRATE,surface,-107.813,27.8739,5.25e-05
2012-01-18 00:00:00,2012-01-18 00:00:00,PRATE,surface,-106.875,27.8739,3.69e-05
2012-01-18 00:00:00,2012-01-18 00:00:00,PRATE,surface,-105.938,27.8739,2.88e-05
2012-01-18 00:00:00,2012-01-18 00:00:00,PRATE,surface,-105,27.8739,8.8e-06
2012-01-18 00:00:00,2012-01-18 00:00:00,PRATE,surface,-104.063,27.8739,1.59e-05
2012-01-18 00:00:00,2012-01-18 00:00:00,PRATE,surface,-103.125,27.8739,2.34e-05
2012-01-18 00:00:00,2012-01-18 00:00:00,PRATE,surface,-102.188,27.8739,1.63e-05
2012-01-18 00:00:00,2012-01-18 00:00:00,PRATE,surface,-101.25,27.8739,7.2e-06
2012-01-18 00:00:00,2012-01-18 00:00:00,PRATE,surface,-100.313,27.8739,5.2e-06
2012-01-18 00:00:00,2012-01-18 00:00:00,PRATE,surface,-99.3754,27.8739,1.02e-05
2012-01-18 00:00:00,2012-01-18 00:00:00,PRATE,surface,-98.4379,27.8739,2.35e-05
2012-01-18 00:00:00,2012-01-18 00:00:00,PRATE,surface,-97.5004,27.8739,3.06e-05
2012-01-18 00:00:00,2012-01-18 00:00:00,PRATE,surface,-96.5629,27.8739,2.23e-05
2012-01-18 00:00:00,2012-01-18 00:00:00,PRATE,surface,-95.6254,27.8739,1.32e-05
2012-01-18 00:00:00,2012-01-18 00:00:00,PRATE,surface,-94.6879,27.8739,1.67e-05
2012-01-18 00:00:00,2012-01-18 00:00:00,PRATE,surface,-93.7504,27.8739,2.36e-05
2012-01-18 00:00:00,2012-01-18 00:00:00,PRATE,surface,-92.8129,27.8739,2.33e-05
2012-01-18 00:00:00,2012-01-18 00:00:00,PRATE,surface,-107.813,28.8188,3.91e-05
2012-01-18 00:00:00,2012-01-18 00:00:00,PRATE,surface,-106.875,28.8188,3.73e-05
2012-01-18 00:00:00,2012-01-18 00:00:00,PRATE,surface,-105.938,28.8188,2.91e-05
2012-01-18 00:00:00,2012-01-18 00:00:00,PRATE,surface,-105,28.8188,7.2e-06
2012-01-18 00:00:00,2012-01-18 00:00:00,PRATE,surface,-104.063,28.8188,2.07e-05
2012-01-18 00:00:00,2012-01-18 00:00:00,PRATE,surface,-103.125,28.8188,2.68e-05
2012-01-18 00:00:00,2012-01-18 00:00:00,PRATE,surface,-102.188,28.8188,1.13e-05
2012-01-18 00:00:00,2012-01-18 00:00:00,PRATE,surface,-101.25,28.8188,5.5e-06
2012-01-18 00:00:00,2012-01-18 00:00:00,PRATE,surface,-100.313,28.8188,7.9e-06
2012-01-18 00:00:00,2012-01-18 00:00:00,PRATE,surface,-99.3754,28.8188,1.75e-05
2012-01-18 00:00:00,2012-01-18 00:00:00,PRATE,surface,-98.4379,28.8188,2.59e-05
2012-01-18 00:00:00,2012-01-18 00:00:00,PRATE,surface,-97.5004,28.8188,2.78e-05
2012-01-18 00:00:00,2012-01-18 00:00:00,PRATE,surface,-96.5629,28.8188,2.49e-05
2012-01-18 00:00:00,2012-01-18 00:00:00,PRATE,surface,-95.6254,28.8188,2.27e-05
2012-01-18 00:00:00,2012-01-18 00:00:00,PRATE,surface,-94.6879,28.8188,2.27e-05
2012-01-18 00:00:00,2012-01-18 00:00:00,PRATE,surface,-93.7504,28.8188,2.03e-05
2012-01-18 00:00:00,2012-01-18 00:00:00,PRATE,surface,-92.8129,28.8188,1.81e-05
2012-01-18 00:00:00,2012-01-18 00:00:00,PRATE,surface,-107.813,29.7637,3e-05
2012-01-18 00:00:00,2012-01-18 00:00:00,PRATE,surface,-106.875,29.7637,3.44e-05
2012-01-18 00:00:00,2012-01-18 00:00:00,PRATE,surface,-105.938,29.7637,3.27e-05
2012-01-18 00:00:00,2012-01-18 00:00:00,PRATE,surface,-105,29.7637,1.92e-05
2012-01-18 00:00:00,2012-01-18 00:00:00,PRATE,surface,-104.063,29.7637,2.31e-05
2012-01-18 00:00:00,2012-01-18 00:00:00,PRATE,surface,-103.125,29.7637,1.38e-05
2012-01-18 00:00:00,2012-01-18 00:00:00,PRATE,surface,-102.188,29.7637,9.7e-06
2012-01-18 00:00:00,2012-01-18 00:00:00,PRATE,surface,-101.25,29.7637,5.6e-06
2012-01-18 00:00:00,2012-01-18 00:00:00,PRATE,surface,-100.313,29.7637,1.02e-05
2012-01-18 00:00:00,2012-01-18 00:00:00,PRATE,surface,-99.3754,29.7637,1.61e-05
2012-01-18 00:00:00,2012-01-18 00:00:00,PRATE,surface,-98.4379,29.7637,2.07e-05
2012-01-18 00:00:00,2012-01-18 00:00:00,PRATE,surface,-97.5004,29.7637,2.43e-05
2012-01-18 00:00:00,2012-01-18 00:00:00,PRATE,surface,-96.5629,29.7637,2.7e-05
2012-01-18 00:00:00,2012-01-18 00:00:00,PRATE,surface,-95.6254,29.7637,2.72e-05
2012-01-18 00:00:00,2012-01-18 00:00:00,PRATE,surface,-94.6879,29.7637,2.44e-05
2012-01-18 00:00:00,2012-01-18 00:00:00,PRATE,surface,-93.7504,29.7637,2.07e-05
2012-01-18 00:00:00,2012-01-18 00:00:00,PRATE,surface,-92.8129,29.7637,1.44e-05
2012-01-18 00:00:00,2012-01-18 00:00:00,PRATE,surface,-107.813,30.7085,2.11e-05
2012-01-18 00:00:00,2012-01-18 00:00:00,PRATE,surface,-106.875,30.7085,2.5e-05
2012-01-18 00:00:00,2012-01-18 00:00:00,PRATE,surface,-105.938,30.7085,2.99e-05
2012-01-18 00:00:00,2012-01-18 00:00:00,PRATE,surface,-105,30.7085,3.04e-05
2012-01-18 00:00:00,2012-01-18 00:00:00,PRATE,surface,-104.063,30.7085,2.07e-05
2012-01-18 00:00:00,2012-01-18 00:00:00,PRATE,surface,-103.125,30.7085,1.52e-05
2012-01-18 00:00:00,2012-01-18 00:00:00,PRATE,surface,-102.188,30.7085,1.26e-05
2012-01-18 00:00:00,2012-01-18 00:00:00,PRATE,surface,-101.25,30.7085,1.48e-05
2012-01-18 00:00:00,2012-01-18 00:00:00,PRATE,surface,-100.313,30.7085,1.74e-05
2012-01-18 00:00:00,2012-01-18 00:00:00,PRATE,surface,-99.3754,30.7085,1.98e-05
2012-01-18 00:00:00,2012-01-18 00:00:00,PRATE,surface,-98.4379,30.7085,1.77e-05
2012-01-18 00:00:00,2012-01-18 00:00:00,PRATE,surface,-97.5004,30.7085,1.49e-05
2012-01-18 00:00:00,2012-01-18 00:00:00,PRATE,surface,-96.5629,30.7085,1.88e-05
2012-01-18 00:00:00,2012-01-18 00:00:00,PRATE,surface,-95.6254,30.7085,2.58e-05
2012-01-18 00:00:00,2012-01-18 00:00:00,PRATE,surface,-94.6879,30.7085,2.79e-05
2012-01-18 00:00:00,2012-01-18 00:00:00,PRATE,surface,-93.7504,30.7085,2.54e-05
2012-01-18 00:00:00,2012-01-18 00:00:00,PRATE,surface,-92.8129,30.7085,2.1e-05
2012-01-18 00:00:00,2012-01-18 00:00:00,PRATE,surface,-107.813,31.6534,2.06e-05
2012-01-18 00:00:00,2012-01-18 00:00:00,PRATE,surface,-106.875,31.6534,2.1e-05
2012-01-18 00:00:00,2012-01-18 00:00:00,PRATE,surface,-105.938,31.6534,2.12e-05
2012-01-18 00:00:00,2012-01-18 00:00:00,PRATE,surface,-105,31.6534,2.31e-05
2012-01-18 00:00:00,2012-01-18 00:00:00,PRATE,surface,-104.063,31.6534,1.73e-05
2012-01-18 00:00:00,2012-01-18 00:00:00,PRATE,surface,-103.125,31.6534,1.38e-05
2012-01-18 00:00:00,2012-01-18 00:00:00,PRATE,surface,-102.188,31.6534,1.4e-05
2012-01-18 00:00:00,2012-01-18 00:00:00,PRATE,surface,-101.25,31.6534,1.61e-05
2012-01-18 00:00:00,2012-01-18 00:00:00,PRATE,surface,-100.313,31.6534,1.78e-05
2012-01-18 00:00:00,2012-01-18 00:00:00,PRATE,surface,-99.3754,31.6534,1.98e-05
2012-01-18 00:00:00,2012-01-18 00:00:00,PRATE,surface,-98.4379,31.6534,1.91e-05
2012-01-18 00:00:00,2012-01-18 00:00:00,PRATE,surface,-97.5004,31.6534,1.78e-05
2012-01-18 00:00:00,2012-01-18 00:00:00,PRATE,surface,-96.5629,31.6534,2.12e-05
2012-01-18 00:00:00,2012-01-18 00:00:00,PRATE,surface,-95.6254,31.6534,2.52e-05
2012-01-18 00:00:00,2012-01-18 00:00:00,PRATE,surface,-94.6879,31.6534,2.53e-05
2012-01-18 00:00:00,2012-01-18 00:00:00,PRATE,surface,-93.7504,31.6534,2.7e-05
2012-01-18 00:00:00,2012-01-18 00:00:00,PRATE,surface,-92.8129,31.6534,2.48e-05
2012-01-18 00:00:00,2012-01-18 00:00:00,PRATE,surface,-107.813,32.5983,3.02e-05
2012-01-18 00:00:00,2012-01-18 00:00:00,PRATE,surface,-106.875,32.5983,2.9e-05
2012-01-18 00:00:00,2012-01-18 00:00:00,PRATE,surface,-105.938,32.5983,2.15e-05
2012-01-18 00:00:00,2012-01-18 00:00:00,PRATE,surface,-105,32.5983,1.9e-05
2012-01-18 00:00:00,2012-01-18 00:00:00,PRATE,surface,-104.063,32.5983,1.76e-05
2012-01-18 00:00:00,2012-01-18 00:00:00,PRATE,surface,-103.125,32.5983,2.13e-05
2012-01-18 00:00:00,2012-01-18 00:00:00,PRATE,surface,-102.188,32.5983,2.21e-05
2012-01-18 00:00:00,2012-01-18 00:00:00,PRATE,surface,-101.25,32.5983,1.83e-05
2012-01-18 00:00:00,2012-01-18 00:00:00,PRATE,surface,-100.313,32.5983,1.51e-05
2012-01-18 00:00:00,2012-01-18 00:00:00,PRATE,surface,-99.3754,32.5983,1.33e-05
2012-01-18 00:00:00,2012-01-18 00:00:00,PRATE,surface,-98.4379,32.5983,1.47e-05
2012-01-18 00:00:00,2012-01-18 00:00:00,PRATE,surface,-97.5004,32.5983,1.77e-05
2012-01-18 00:00:00,2012-01-18 00:00:00,PRATE,surface,-96.5629,32.5983,2.04e-05
2012-01-18 00:00:00,2012-01-18 00:00:00,PRATE,surface,-95.6254,32.5983,2.55e-05
2012-01-18 00:00:00,2012-01-18 00:00:00,PRATE,surface,-94.6879,32.5983,3.04e-05
2012-01-18 00:00:00,2012-01-18 00:00:00,PRATE,surface,-93.7504,32.5983,2.9e-05
2012-01-18 00:00:00,2012-01-18 00:00:00,PRATE,surface,-92.8129,32.5983,3.02e-05
2012-01-18 00:00:00,2012-01-18 00:00:00,PRATE,surface,-107.813,33.5432,4.38e-05
2012-01-18 00:00:00,2012-01-18 00:00:00,PRATE,surface,-106.875,33.5432,3.46e-05
2012-01-18 00:00:00,2012-01-18 00:00:00,PRATE,surface,-105.938,33.5432,2.41e-05
2012-01-18 00:00:00,2012-01-18 00:00:00,PRATE,surface,-105,33.5432,1.69e-05
2012-01-18 00:00:00,2012-01-18 00:00:00,PRATE,surface,-104.063,33.5432,1.6e-05
2012-01-18 00:00:00,2012-01-18 00:00:00,PRATE,surface,-103.125,33.5432,1.96e-05
2012-01-18 00:00:00,2012-01-18 00:00:00,PRATE,surface,-102.188,33.5432,2.44e-05
2012-01-18 00:00:00,2012-01-18 00:00:00,PRATE,surface,-101.25,33.5432,2.29e-05
2012-01-18 00:00:00,2012-01-18 00:00:00,PRATE,surface,-100.313,33.5432,1.8e-05
2012-01-18 00:00:00,2012-01-18 00:00:00,PRATE,surface,-99.3754,33.5432,1.49e-05
2012-01-18 00:00:00,2012-01-18 00:00:00,PRATE,surface,-98.4379,33.5432,1.51e-05
2012-01-18 00:00:00,2012-01-18 00:00:00,PRATE,surface,-97.5004,33.5432,1.64e-05
2012-01-18 00:00:00,2012-01-18 00:00:00,PRATE,surface,-96.5629,33.5432,1.68e-05
2012-01-18 00:00:00,2012-01-18 00:00:00,PRATE,surface,-95.6254,33.5432,1.85e-05
2012-01-18 00:00:00,2012-01-18 00:00:00,PRATE,surface,-94.6879,33.5432,2.47e-05
2012-01-18 00:00:00,2012-01-18 00:00:00,PRATE,surface,-93.7504,33.5432,3.1e-05
2012-01-18 00:00:00,2012-01-18 00:00:00,PRATE,surface,-92.8129,33.5432,2.76e-05
2012-01-18 00:00:00,2012-01-18 00:00:00,PRATE,surface,-107.813,34.4881,4e-05
2012-01-18 00:00:00,2012-01-18 00:00:00,PRATE,surface,-106.875,34.4881,2.8e-05
2012-01-18 00:00:00,2012-01-18 00:00:00,PRATE,surface,-105.938,34.4881,2.06e-05
2012-01-18 00:00:00,2012-01-18 00:00:00,PRATE,surface,-105,34.4881,1.88e-05
2012-01-18 00:00:00,2012-01-18 00:00:00,PRATE,surface,-104.063,34.4881,2.18e-05
2012-01-18 00:00:00,2012-01-18 00:00:00,PRATE,surface,-103.125,34.4881,2.5e-05
2012-01-18 00:00:00,2012-01-18 00:00:00,PRATE,surface,-102.188,34.4881,2.46e-05
2012-01-18 00:00:00,2012-01-18 00:00:00,PRATE,surface,-101.25,34.4881,2.9e-05
2012-01-18 00:00:00,2012-01-18 00:00:00,PRATE,surface,-100.313,34.4881,2.61e-05
2012-01-18 00:00:00,2012-01-18 00:00:00,PRATE,surface,-99.3754,34.4881,2.33e-05
2012-01-18 00:00:00,2012-01-18 00:00:00,PRATE,surface,-98.4379,34.4881,2.35e-05
2012-01-18 00:00:00,2012-01-18 00:00:00,PRATE,surface,-97.5004,34.4881,2.47e-05
2012-01-18 00:00:00,2012-01-18 00:00:00,PRATE,surface,-96.5629,34.4881,2.38e-05
2012-01-18 00:00:00,2012-01-18 00:00:00,PRATE,surface,-95.6254,34.4881,2.21e-05
2012-01-18 00:00:00,2012-01-18 00:00:00,PRATE,surface,-94.6879,34.4881,2.46e-05
2012-01-18 00:00:00,2012-01-18 00:00:00,PRATE,surface,-93.7504,34.4881,2.93e-05
2012-01-18 00:00:00,2012-01-18 00:00:00,PRATE,surface,-92.8129,34.4881,3.07e-05
2012-01-18 00:00:00,2012-01-18 00:00:00,PRATE,surface,-107.813,35.4329,1.87e-05
2012-01-18 00:00:00,2012-01-18 00:00:00,PRATE,surface,-106.875,35.4329,1.9e-05
2012-01-18 00:00:00,2012-01-18 00:00:00,PRATE,surface,-105.938,35.4329,1.77e-05
2012-01-18 00:00:00,2012-01-18 00:00:00,PRATE,surface,-105,35.4329,2.4e-05
2012-01-18 00:00:00,2012-01-18 00:00:00,PRATE,surface,-104.063,35.4329,3.28e-05
2012-01-18 00:00:00,2012-01-18 00:00:00,PRATE,surface,-103.125,35.4329,3.47e-05
2012-01-18 00:00:00,2012-01-18 00:00:00,PRATE,surface,-102.188,35.4329,2.72e-05
2012-01-18 00:00:00,2012-01-18 00:00:00,PRATE,surface,-101.25,35.4329,2.61e-05
2012-01-18 00:00:00,2012-01-18 00:00:00,PRATE,surface,-100.313,35.4329,2.94e-05
2012-01-18 00:00:00,2012-01-18 00:00:00,PRATE,surface,-99.3754,35.4329,3e-05
2012-01-18 00:00:00,2012-01-18 00:00:00,PRATE,surface,-98.4379,35.4329,2.77e-05
2012-01-18 00:00:00,2012-01-18 00:00:00,PRATE,surface,-97.5004,35.4329,2.75e-05
2012-01-18 00:00:00,2012-01-18 00:00:00,PRATE,surface,-96.5629,35.4329,2.81e-05
2012-01-18 00:00:00,2012-01-18 00:00:00,PRATE,surface,-95.6254,35.4329,2.75e-05
2012-01-18 00:00:00,2012-01-18 00:00:00,PRATE,surface,-94.6879,35.4329,2.67e-05
2012-01-18 00:00:00,2012-01-18 00:00:00,PRATE,surface,-93.7504,35.4329,2.56e-05
2012-01-18 00:00:00,2012-01-18 00:00:00,PRATE,surface,-92.8129,35.4329,2.82e-05
2012-01-18 00:00:00,2012-01-18 00:00:00,PRATE,surface,-107.813,36.3778,2.08e-05
2012-01-18 00:00:00,2012-01-18 00:00:00,PRATE,surface,-106.875,36.3778,1.88e-05
2012-01-18 00:00:00,2012-01-18 00:00:00,PRATE,surface,-105.938,36.3778,1.99e-05
2012-01-18 00:00:00,2012-01-18 00:00:00,PRATE,surface,-105,36.3778,2.32e-05
2012-01-18 00:00:00,2012-01-18 00:00:00,PRATE,surface,-104.063,36.3778,3.03e-05
2012-01-18 00:00:00,2012-01-18 00:00:00,PRATE,surface,-103.125,36.3778,3.03e-05
2012-01-18 00:00:00,2012-01-18 00:00:00,PRATE,surface,-102.188,36.3778,2.47e-05
2012-01-18 00:00:00,2012-01-18 00:00:00,PRATE,surface,-101.25,36.3778,2.07e-05
2012-01-18 00:00:00,2012-01-18 00:00:00,PRATE,surface,-100.313,36.3778,2.4e-05
2012-01-18 00:00:00,2012-01-18 00:00:00,PRATE,surface,-99.3754,36.3778,2.77e-05
2012-01-18 00:00:00,2012-01-18 00:00:00,PRATE,surface,-98.4379,36.3778,3e-05
2012-01-18 00:00:00,2012-01-18 00:00:00,PRATE,surface,-97.5004,36.3778,3.09e-05
2012-01-18 00:00:00,2012-01-18 00:00:00,PRATE,surface,-96.5629,36.3778,3.16e-05
2012-01-18 00:00:00,2012-01-18 00:00:00,PRATE,surface,-95.6254,36.3778,3.26e-05
2012-01-18 00:00:00,2012-01-18 00:00:00,PRATE,surface,-94.6879,36.3778,3.15e-05
2012-01-18 00:00:00,2012-01-18 00:00:00,PRATE,surface,-93.7504,36.3778,2.89e-05
2012-01-18 00:00:00,2012-01-18 00:00:00,PRATE,surface,-92.8129,36.3778,2.71e-05
