2013-12-28 00:00:00,2013-12-28 00:00:00,TMP,surface,-107.813,25.0393,291.93
2013-12-28 00:00:00,2013-12-28 00:00:00,TMP,surface,-106.875,25.0393,287.183
2013-12-28 00:00:00,2013-12-28 00:00:00,TMP,surface,-105.938,25.0393,282.063
2013-12-28 00:00:00,2013-12-28 00:00:00,TMP,surface,-105,25.0393,280.84
2013-12-28 00:00:00,2013-12-28 00:00:00,TMP,surface,-104.063,25.0393,284.188
2013-12-28 00:00:00,2013-12-28 00:00:00,TMP,surface,-103.125,25.0393,285.547
2013-12-28 00:00:00,2013-12-28 00:00:00,TMP,surface,-102.188,25.0393,285.688
2013-12-28 00:00:00,2013-12-28 00:00:00,TMP,surface,-101.25,25.0393,284.271
2013-12-28 00:00:00,2013-12-28 00:00:00,TMP,surface,-100.313,25.0393,284.684
2013-12-28 00:00:00,2013-12-28 00:00:00,TMP,surface,-99.3754,25.0393,286.074
2013-12-28 00:00:00,2013-12-28 00:00:00,TMP,surface,-98.4379,25.0393,288.471
2013-12-28 00:00:00,2013-12-28 00:00:00,TMP,surface,-97.5004,25.0393,292.064
2013-12-28 00:00:00,2013-12-28 00:00:00,TMP,surface,-96.5629,25.0393,294.461
2013-12-28 00:00:00,2013-12-28 00:00:00,TMP,surface,-95.6254,25.0393,295.679
2013-12-28 00:00:00,2013-12-28 00:00:00,TMP,surface,-94.6879,25.0393,295.799
2013-12-28 00:00:00,2013-12-28 00:00:00,TMP,surface,-93.7504,25.0393,295.736
2013-12-28 00:00:00,2013-12-28 00:00:00,TMP,surface,-92.8129,25.0393,295.631
2013-12-28 00:00:00,2013-12-28 00:00:00,TMP,surface,-107.813,25.9842,287.45
2013-12-28 00:00:00,2013-12-28 00:00:00,TMP,surface,-106.875,25.9842,282.456
2013-12-28 00:00:00,2013-12-28 00:00:00,TMP,surface,-105.938,25.9842,280.162
2013-12-28 00:00:00,2013-12-28 00:00:00,TMP,surface,-105,25.9842,281.893
2013-12-28 00:00:00,2013-12-28 00:00:00,TMP,surface,-104.063,25.9842,285.18
2013-12-28 00:00:00,2013-12-28 00:00:00,TMP,surface,-103.125,25.9842,286.25
2013-12-28 00:00:00,2013-12-28 00:00:00,TMP,surface,-102.188,25.9842,285.772
2013-12-28 00:00:00,2013-12-28 00:00:00,TMP,surface,-101.25,25.9842,285.032
2013-12-28 00:00:00,2013-12-28 00:00:00,TMP,surface,-100.313,25.9842,284.839
2013-12-28 00:00:00,2013-12-28 00:00:00,TMP,surface,-99.3754,25.9842,286.463
2013-12-28 00:00:00,2013-12-28 00:00:00,TMP,surface,-98.4379,25.9842,288.143
2013-12-28 00:00:00,2013-12-28 00:00:00,TMP,surface,-97.5004,25.9842,289.949
2013-12-28 00:00:00,2013-12-28 00:00:00,TMP,surface,-96.5629,25.9842,293.546
2013-12-28 00:00:00,2013-12-28 00:00:00,TMP,surface,-95.6254,25.9842,295.043
2013-12-28 00:00:00,2013-12-28 00:00:00,TMP,surface,-94.6879,25.9842,295.424
2013-12-28 00:00:00,2013-12-28 00:00:00,TMP,surface,-93.7504,25.9842,295.469
2013-12-28 00:00:00,2013-12-28 00:00:00,TMP,surface,-92.8129,25.9842,295.469
2013-12-28 00:00:00,2013-12-28 00:00:00,TMP,surface,-107.813,26.929,282.949
2013-12-28 00:00:00,2013-12-28 00:00:00,TMP,surface,-106.875,26.929,279.519
2013-12-28 00:00:00,2013-12-28 00:00:00,TMP,surface,-105.938,26.929,281.058
2013-12-28 00:00:00,2013-12-28 00:00:00,TMP,surface,-105,26.929,283.69
2013-12-28 00:00:00,2013-12-28 00:00:00,TMP,surface,-104.063,26.929,284.744
2013-12-28 00:00:00,2013-12-28 00:00:00,TMP,surface,-103.125,26.929,284.304
2013-12-28 00:00:00,2013-12-28 00:00:00,TMP,surface,-102.188,26.929,284.322
2013-12-28 00:00:00,2013-12-28 00:00:00,TMP,surface,-101.25,26.929,284.783
2013-12-28 00:00:00,2013-12-28 00:00:00,TMP,surface,-100.313,26.929,285.132
2013-12-28 00:00:00,2013-12-28 00:00:00,TMP,surface,-99.3754,26.929,286.228
2013-12-28 00:00:00,2013-12-28 00:00:00,TMP,surface,-98.4379,26.929,286.746
2013-12-28 00:00:00,2013-12-28 00:00:00,TMP,surface,-97.5004,26.929,290.796
2013-12-28 00:00:00,2013-12-28 00:00:00,TMP,surface,-96.5629,26.929,292.624
2013-12-28 00:00:00,2013-12-28 00:00:00,TMP,surface,-95.6254,26.929,294.4
2013-12-28 00:00:00,2013-12-28 00:00:00,TMP,surface,-94.6879,26.929,294.999
2013-12-28 00:00:00,2013-12-28 00:00:00,TMP,surface,-93.7504,26.929,294.949
2013-12-28 00:00:00,2013-12-28 00:00:00,TMP,surface,-92.8129,26.929,294.946
2013-12-28 00:00:00,2013-12-28 00:00:00,TMP,surface,-107.813,27.8739,279.895
2013-12-28 00:00:00,2013-12-28 00:00:00,TMP,surface,-106.875,27.8739,278.901
2013-12-28 00:00:00,2013-12-28 00:00:00,TMP,surface,-105.938,27.8739,281.496
2013-12-28 00:00:00,2013-12-28 00:00:00,TMP,surface,-105,27.8739,283.796
2013-12-28 00:00:00,2013-12-28 00:00:00,TMP,surface,-104.063,27.8739,283.925
2013-12-28 00:00:00,2013-12-28 00:00:00,TMP,surface,-103.125,27.8739,282.981
2013-12-28 00:00:00,2013-12-28 00:00:00,TMP,surface,-102.188,27.8739,283.093
2013-12-28 00:00:00,2013-12-28 00:00:00,TMP,surface,-101.25,27.8739,283.65
2013-12-28 00:00:00,2013-12-28 00:00:00,TMP,surface,-100.313,27.8739,284.587
2013-12-28 00:00:00,2013-12-28 00:00:00,TMP,surface,-99.3754,27.8739,284.946
2013-12-28 00:00:00,2013-12-28 00:00:00,TMP,surface,-98.4379,27.8739,285.346
2013-12-28 00:00:00,2013-12-28 00:00:00,TMP,surface,-97.5004,27.8739,288.396
2013-12-28 00:00:00,2013-12-28 00:00:00,TMP,surface,-96.5629,27.8739,291.685
2013-12-28 00:00:00,2013-12-28 00:00:00,TMP,surface,-95.6254,27.8739,292.811
2013-12-28 00:00:00,2013-12-28 00:00:00,TMP,surface,-94.6879,27.8739,293.597
2013-12-28 00:00:00,2013-12-28 00:00:00,TMP,surface,-93.7504,27.8739,293.78
2013-12-28 00:00:00,2013-12-28 00:00:00,TMP,surface,-92.8129,27.8739,293.832
2013-12-28 00:00:00,2013-12-28 00:00:00,TMP,surface,-107.813,28.8188,278.535
2013-12-28 00:00:00,2013-12-28 00:00:00,TMP,surface,-106.875,28.8188,278.946
2013-12-28 00:00:00,2013-12-28 00:00:00,TMP,surface,-105.938,28.8188,281.477
2013-12-28 00:00:00,2013-12-28 00:00:00,TMP,surface,-105,28.8188,282.744
2013-12-28 00:00:00,2013-12-28 00:00:00,TMP,surface,-104.063,28.8188,282.33
2013-12-28 00:00:00,2013-12-28 00:00:00,TMP,surface,-103.125,28.8188,281.967
2013-12-28 00:00:00,2013-12-28 00:00:00,TMP,surface,-102.188,28.8188,282.125
2013-12-28 00:00:00,2013-12-28 00:00:00,TMP,surface,-101.25,28.8188,282.821
2013-12-28 00:00:00,2013-12-28 00:00:00,TMP,surface,-100.313,28.8188,283.112
2013-12-28 00:00:00,2013-12-28 00:00:00,TMP,surface,-99.3754,28.8188,282.936
2013-12-28 00:00:00,2013-12-28 00:00:00,TMP,surface,-98.4379,28.8188,283.088
2013-12-28 00:00:00,2013-12-28 00:00:00,TMP,surface,-97.5004,28.8188,283.856
2013-12-28 00:00:00,2013-12-28 00:00:00,TMP,surface,-96.5629,28.8188,284.845
2013-12-28 00:00:00,2013-12-28 00:00:00,TMP,surface,-95.6254,28.8188,287.389
2013-12-28 00:00:00,2013-12-28 00:00:00,TMP,surface,-94.6879,28.8188,290.805
2013-12-28 00:00:00,2013-12-28 00:00:00,TMP,surface,-93.7504,28.8188,291.066
2013-12-28 00:00:00,2013-12-28 00:00:00,TMP,surface,-92.8129,28.8188,291.109
2013-12-28 00:00:00,2013-12-28 00:00:00,TMP,surface,-107.813,29.7637,278.92
2013-12-28 00:00:00,2013-12-28 00:00:00,TMP,surface,-106.875,29.7637,279.651
2013-12-28 00:00:00,2013-12-28 00:00:00,TMP,surface,-105.938,29.7637,281.208
2013-12-28 00:00:00,2013-12-28 00:00:00,TMP,surface,-105,29.7637,280.997
2013-12-28 00:00:00,2013-12-28 00:00:00,TMP,surface,-104.063,29.7637,281.256
2013-12-28 00:00:00,2013-12-28 00:00:00,TMP,surface,-103.125,29.7637,281.557
2013-12-28 00:00:00,2013-12-28 00:00:00,TMP,surface,-102.188,29.7637,282.13
2013-12-28 00:00:00,2013-12-28 00:00:00,TMP,surface,-101.25,29.7637,282.04
2013-12-28 00:00:00,2013-12-28 00:00:00,TMP,surface,-100.313,29.7637,281.447
2013-12-28 00:00:00,2013-12-28 00:00:00,TMP,surface,-99.3754,29.7637,281.149
2013-12-28 00:00:00,2013-12-28 00:00:00,TMP,surface,-98.4379,29.7637,281.303
2013-12-28 00:00:00,2013-12-28 00:00:00,TMP,surface,-97.5004,29.7637,281.736
2013-12-28 00:00:00,2013-12-28 00:00:00,TMP,surface,-96.5629,29.7637,282.381
2013-12-28 00:00:00,2013-12-28 00:00:00,TMP,surface,-95.6254,29.7637,283.083
2013-12-28 00:00:00,2013-12-28 00:00:00,TMP,surface,-94.6879,29.7637,284.978
2013-12-28 00:00:00,2013-12-28 00:00:00,TMP,surface,-93.7504,29.7637,287.08
2013-12-28 00:00:00,2013-12-28 00:00:00,TMP,surface,-92.8129,29.7637,283.487
2013-12-28 00:00:00,2013-12-28 00:00:00,TMP,surface,-107.813,30.7085,279.895
2013-12-28 00:00:00,2013-12-28 00:00:00,TMP,surface,-106.875,30.7085,280.535
2013-12-28 00:00:00,2013-12-28 00:00:00,TMP,surface,-105.938,30.7085,280.312
2013-12-28 00:00:00,2013-12-28 00:00:00,TMP,surface,-105,30.7085,279.839
2013-12-28 00:00:00,2013-12-28 00:00:00,TMP,surface,-104.063,30.7085,280.042
2013-12-28 00:00:00,2013-12-28 00:00:00,TMP,surface,-103.125,30.7085,281.045
2013-12-28 00:00:00,2013-12-28 00:00:00,TMP,surface,-102.188,30.7085,281.48
2013-12-28 00:00:00,2013-12-28 00:00:00,TMP,surface,-101.25,30.7085,281.144
2013-12-28 00:00:00,2013-12-28 00:00:00,TMP,surface,-100.313,30.7085,280.584
2013-12-28 00:00:00,2013-12-28 00:00:00,TMP,surface,-99.3754,30.7085,280.48
2013-12-28 00:00:00,2013-12-28 00:00:00,TMP,surface,-98.4379,30.7085,280.591
2013-12-28 00:00:00,2013-12-28 00:00:00,TMP,surface,-97.5004,30.7085,280.73
2013-12-28 00:00:00,2013-12-28 00:00:00,TMP,surface,-96.5629,30.7085,280.919
2013-12-28 00:00:00,2013-12-28 00:00:00,TMP,surface,-95.6254,30.7085,281.055
2013-12-28 00:00:00,2013-12-28 00:00:00,TMP,surface,-94.6879,30.7085,281.027
2013-12-28 00:00:00,2013-12-28 00:00:00,TMP,surface,-93.7504,30.7085,280.783
2013-12-28 00:00:00,2013-12-28 00:00:00,TMP,surface,-92.8129,30.7085,280.348
2013-12-28 00:00:00,2013-12-28 00:00:00,TMP,surface,-107.813,31.6534,279.151
2013-12-28 00:00:00,2013-12-28 00:00:00,TMP,surface,-106.875,31.6534,279.621
2013-12-28 00:00:00,2013-12-28 00:00:00,TMP,surface,-105.938,31.6534,278.818
2013-12-28 00:00:00,2013-12-28 00:00:00,TMP,surface,-105,31.6534,278.765
2013-12-28 00:00:00,2013-12-28 00:00:00,TMP,surface,-104.063,31.6534,279.444
2013-12-28 00:00:00,2013-12-28 00:00:00,TMP,surface,-103.125,31.6534,280.24
2013-12-28 00:00:00,2013-12-28 00:00:00,TMP,surface,-102.188,31.6534,280.661
2013-12-28 00:00:00,2013-12-28 00:00:00,TMP,surface,-101.25,31.6534,280.589
2013-12-28 00:00:00,2013-12-28 00:00:00,TMP,surface,-100.313,31.6534,280.48
2013-12-28 00:00:00,2013-12-28 00:00:00,TMP,surface,-99.3754,31.6534,280.404
2013-12-28 00:00:00,2013-12-28 00:00:00,TMP,surface,-98.4379,31.6534,280.349
2013-12-28 00:00:00,2013-12-28 00:00:00,TMP,surface,-97.5004,31.6534,280.245
2013-12-28 00:00:00,2013-12-28 00:00:00,TMP,surface,-96.5629,31.6534,280.144
2013-12-28 00:00:00,2013-12-28 00:00:00,TMP,surface,-95.6254,31.6534,279.999
2013-12-28 00:00:00,2013-12-28 00:00:00,TMP,surface,-94.6879,31.6534,279.645
2013-12-28 00:00:00,2013-12-28 00:00:00,TMP,surface,-93.7504,31.6534,279.271
2013-12-28 00:00:00,2013-12-28 00:00:00,TMP,surface,-92.8129,31.6534,279.069
2013-12-28 00:00:00,2013-12-28 00:00:00,TMP,surface,-107.813,32.5983,276.967
2013-12-28 00:00:00,2013-12-28 00:00:00,TMP,surface,-106.875,32.5983,277.191
2013-12-28 00:00:00,2013-12-28 00:00:00,TMP,surface,-105.938,32.5983,277.543
2013-12-28 00:00:00,2013-12-28 00:00:00,TMP,surface,-105,32.5983,278.021
2013-12-28 00:00:00,2013-12-28 00:00:00,TMP,surface,-104.063,32.5983,278.815
2013-12-28 00:00:00,2013-12-28 00:00:00,TMP,surface,-103.125,32.5983,279.434
2013-12-28 00:00:00,2013-12-28 00:00:00,TMP,surface,-102.188,32.5983,279.671
2013-12-28 00:00:00,2013-12-28 00:00:00,TMP,surface,-101.25,32.5983,280.071
2013-12-28 00:00:00,2013-12-28 00:00:00,TMP,surface,-100.313,32.5983,280.485
2013-12-28 00:00:00,2013-12-28 00:00:00,TMP,surface,-99.3754,32.5983,280.568
2013-12-28 00:00:00,2013-12-28 00:00:00,TMP,surface,-98.4379,32.5983,280.16
2013-12-28 00:00:00,2013-12-28 00:00:00,TMP,surface,-97.5004,32.5983,279.578
2013-12-28 00:00:00,2013-12-28 00:00:00,TMP,surface,-96.5629,32.5983,279.188
2013-12-28 00:00:00,2013-12-28 00:00:00,TMP,surface,-95.6254,32.5983,278.898
2013-12-28 00:00:00,2013-12-28 00:00:00,TMP,surface,-94.6879,32.5983,278.488
2013-12-28 00:00:00,2013-12-28 00:00:00,TMP,surface,-93.7504,32.5983,278.183
2013-12-28 00:00:00,2013-12-28 00:00:00,TMP,surface,-92.8129,32.5983,278.226
2013-12-28 00:00:00,2013-12-28 00:00:00,TMP,surface,-107.813,33.5432,274.437
2013-12-28 00:00:00,2013-12-28 00:00:00,TMP,surface,-106.875,33.5432,275.605
2013-12-28 00:00:00,2013-12-28 00:00:00,TMP,surface,-105.938,33.5432,276.564
2013-12-28 00:00:00,2013-12-28 00:00:00,TMP,surface,-105,33.5432,277.343
2013-12-28 00:00:00,2013-12-28 00:00:00,TMP,surface,-104.063,33.5432,278.098
2013-12-28 00:00:00,2013-12-28 00:00:00,TMP,surface,-103.125,33.5432,278.632
2013-12-28 00:00:00,2013-12-28 00:00:00,TMP,surface,-102.188,33.5432,278.727
2013-12-28 00:00:00,2013-12-28 00:00:00,TMP,surface,-101.25,33.5432,279.146
2013-12-28 00:00:00,2013-12-28 00:00:00,TMP,surface,-100.313,33.5432,279.719
2013-12-28 00:00:00,2013-12-28 00:00:00,TMP,surface,-99.3754,33.5432,279.944
2013-12-28 00:00:00,2013-12-28 00:00:00,TMP,surface,-98.4379,33.5432,279.544
2013-12-28 00:00:00,2013-12-28 00:00:00,TMP,surface,-97.5004,33.5432,278.677
2013-12-28 00:00:00,2013-12-28 00:00:00,TMP,surface,-96.5629,33.5432,277.941
2013-12-28 00:00:00,2013-12-28 00:00:00,TMP,surface,-95.6254,33.5432,277.594
2013-12-28 00:00:00,2013-12-28 00:00:00,TMP,surface,-94.6879,33.5432,277.299
2013-12-28 00:00:00,2013-12-28 00:00:00,TMP,surface,-93.7504,33.5432,276.994
2013-12-28 00:00:00,2013-12-28 00:00:00,TMP,surface,-92.8129,33.5432,276.941
2013-12-28 00:00:00,2013-12-28 00:00:00,TMP,surface,-107.813,34.4881,273.101
2013-12-28 00:00:00,2013-12-28 00:00:00,TMP,surface,-106.875,34.4881,274.41
2013-12-28 00:00:00,2013-12-28 00:00:00,TMP,surface,-105.938,34.4881,275.315
2013-12-28 00:00:00,2013-12-28 00:00:00,TMP,surface,-105,34.4881,276.189
2013-12-28 00:00:00,2013-12-28 00:00:00,TMP,surface,-104.063,34.4881,277.023
2013-12-28 00:00:00,2013-12-28 00:00:00,TMP,surface,-103.125,34.4881,277.477
2013-12-28 00:00:00,2013-12-28 00:00:00,TMP,surface,-102.188,34.4881,277.634
2013-12-28 00:00:00,2013-12-28 00:00:00,TMP,surface,-101.25,34.4881,277.887
2013-12-28 00:00:00,2013-12-28 00:00:00,TMP,surface,-100.313,34.4881,278.239
2013-12-28 00:00:00,2013-12-28 00:00:00,TMP,surface,-99.3754,34.4881,278.333
2013-12-28 00:00:00,2013-12-28 00:00:00,TMP,surface,-98.4379,34.4881,278.108
2013-12-28 00:00:00,2013-12-28 00:00:00,TMP,surface,-97.5004,34.4881,277.6
2013-12-28 00:00:00,2013-12-28 00:00:00,TMP,surface,-96.5629,34.4881,276.986
2013-12-28 00:00:00,2013-12-28 00:00:00,TMP,surface,-95.6254,34.4881,276.314
2013-12-28 00:00:00,2013-12-28 00:00:00,TMP,surface,-94.6879,34.4881,275.639
2013-12-28 00:00:00,2013-12-28 00:00:00,TMP,surface,-93.7504,34.4881,275.388
2013-12-28 00:00:00,2013-12-28 00:00:00,TMP,surface,-92.8129,34.4881,275.57
2013-12-28 00:00:00,2013-12-28 00:00:00,TMP,surface,-107.813,35.4329,272.506
2013-12-28 00:00:00,2013-12-28 00:00:00,TMP,surface,-106.875,35.4329,273.06
2013-12-28 00:00:00,2013-12-28 00:00:00,TMP,surface,-105.938,35.4329,273.608
2013-12-28 00:00:00,2013-12-28 00:00:00,TMP,surface,-105,35.4329,274.578
2013-12-28 00:00:00,2013-12-28 00:00:00,TMP,surface,-104.063,35.4329,275.948
2013-12-28 00:00:00,2013-12-28 00:00:00,TMP,surface,-103.125,35.4329,276.794
2013-12-28 00:00:00,2013-12-28 00:00:00,TMP,surface,-102.188,35.4329,276.962
2013-12-28 00:00:00,2013-12-28 00:00:00,TMP,surface,-101.25,35.4329,276.992
2013-12-28 00:00:00,2013-12-28 00:00:00,TMP,surface,-100.313,35.4329,277.024
2013-12-28 00:00:00,2013-12-28 00:00:00,TMP,surface,-99.3754,35.4329,276.925
2013-12-28 00:00:00,2013-12-28 00:00:00,TMP,surface,-98.4379,35.4329,276.751
2013-12-28 00:00:00,2013-12-28 00:00:00,TMP,surface,-97.5004,35.4329,276.607
2013-12-28 00:00:00,2013-12-28 00:00:00,TMP,surface,-96.5629,35.4329,276.341
2013-12-28 00:00:00,2013-12-28 00:00:00,TMP,surface,-95.6254,35.4329,275.704
2013-12-28 00:00:00,2013-12-28 00:00:00,TMP,surface,-94.6879,35.4329,274.848
2013-12-28 00:00:00,2013-12-28 00:00:00,TMP,surface,-93.7504,35.4329,274.243
2013-12-28 00:00:00,2013-12-28 00:00:00,TMP,surface,-92.8129,35.4329,274.043
2013-12-28 00:00:00,2013-12-28 00:00:00,TMP,surface,-107.813,36.3778,271.311
2013-12-28 00:00:00,2013-12-28 00:00:00,TMP,surface,-106.875,36.3778,270.543
2013-12-28 00:00:00,2013-12-28 00:00:00,TMP,surface,-105.938,36.3778,270.93
2013-12-28 00:00:00,2013-12-28 00:00:00,TMP,surface,-105,36.3778,272.567
2013-12-28 00:00:00,2013-12-28 00:00:00,TMP,surface,-104.063,36.3778,274.517
2013-12-28 00:00:00,2013-12-28 00:00:00,TMP,surface,-103.125,36.3778,275.626
2013-12-28 00:00:00,2013-12-28 00:00:00,TMP,surface,-102.188,36.3778,276.093
2013-12-28 00:00:00,2013-12-28 00:00:00,TMP,surface,-101.25,36.3778,276.363
2013-12-28 00:00:00,2013-12-28 00:00:00,TMP,surface,-100.313,36.3778,276.488
2013-12-28 00:00:00,2013-12-28 00:00:00,TMP,surface,-99.3754,36.3778,276.407
2013-12-28 00:00:00,2013-12-28 00:00:00,TMP,surface,-98.4379,36.3778,275.965
2013-12-28 00:00:00,2013-12-28 00:00:00,TMP,surface,-97.5004,36.3778,275.685
2013-12-28 00:00:00,2013-12-28 00:00:00,TMP,surface,-96.5629,36.3778,275.539
2013-12-28 00:00:00,2013-12-28 00:00:00,TMP,surface,-95.6254,36.3778,275
2013-12-28 00:00:00,2013-12-28 00:00:00,TMP,surface,-94.6879,36.3778,274.095
2013-12-28 00:00:00,2013-12-28 00:00:00,TMP,surface,-93.7504,36.3778,273.247
2013-12-28 00:00:00,2013-12-28 00:00:00,TMP,surface,-92.8129,36.3778,272.97
2013-12-28 00:00:00,2013-12-28 00:00:00,PRATE,surface,-107.813,25.0393,1.2e-05
2013-12-28 00:00:00,2013-12-28 00:00:00,PRATE,surface,-106.875,25.0393,1.72e-05
2013-12-28 00:00:00,2013-12-28 00:00:00,PRATE,surface,-105.938,25.0393,1.6e-05
2013-12-28 00:00:00,2013-12-28 00:00:00,PRATE,surface,-105,25.0393,1.2e-05
2013-12-28 00:00:00,2013-12-28 00:00:00,PRATE,surface,-104.063,25.0393,6.1e-06
2013-12-28 00:00:00,2013-12-28 00:00:00,PRATE,surface,-103.125,25.0393,5e-06
2013-12-28 00:00:00,2013-12-28 00:00:00,PRATE,surface,-102.188,25.0393,6.6e-06
2013-12-28 00:00:00,2013-12-28 00:00:00,PRATE,surface,-101.25,25.0393,1.3e-05
2013-12-28 00:00:00,2013-12-28 00:00:00,PRATE,surface,-100.313,25.0393,1.95e-05
2013-12-28 00:00:00,2013-12-28 00:00:00,PRATE,surface,-99.3754,25.0393,1.39e-05
2013-12-28 00:00:00,2013-12-28 00:00:00,PRATE,surface,-98.4379,25.0393,1.26e-05
2013-12-28 00:00:00,2013-12-28 00:00:00,PRATE,surface,-97.5004,25.0393,2.51e-05
2013-12-28 00:00:00,2013-12-28 00:00:00,PRATE,surface,-96.5629,25.0393,3.63e-05
2013-12-28 00:00:00,2013-12-28 00:00:00,PRATE,surface,-95.6254,25.0393,3.44e-05
2013-12-28 00:00:00,2013-12-28 00:00:00,PRATE,surface,-94.6879,25.0393,3.05e-05
2013-12-28 00:00:00,2013-12-28 00:00:00,PRATE,surface,-93.7504,25.0393,3.36e-05
2013-12-28 00:00:00,2013-12-28 00:00:00,PRATE,surface,-92.8129,25.0393,4.17e-05
2013-12-28 00:00:00,2013-12-28 00:00:00,PRATE,surface,-107.813,25.9842,2e-05
2013-12-28 00:00:00,2013-12-28 00:00:00,PRATE,surface,-106.875,25.9842,2.05e-05
2013-12-28 00:00:00,2013-12-28 00:00:00,PRATE,surface,-105.938,25.9842,1.97e-05
2013-12-28 00:00:00,2013-12-28 00:00:00,PRATE,surface,-105,25.9842,1.53e-05
2013-12-28 00:00:00,2013-12-28 00:00:00,PRATE,surface,-104.063,25.9842,8.7e-06
2013-12-28 00:00:00,2013-12-28 00:00:00,PRATE,surface,-103.125,25.9842,5e-06
2013-12-28 00:00:00,2013-12-28 00:00:00,PRATE,surface,-102.188,25.9842,6.5e-06
2013-12-28 00:00:00,2013-12-28 00:00:00,PRATE,surface,-101.25,25.9842,1.24e-05
2013-12-28 00:00:00,2013-12-28 00:00:00,PRATE,surface,-100.313,25.9842,1.65e-05
2013-12-28 00:00:00,2013-12-28 00:00:00,PRATE,surface,-99.3754,25.9842,1.43e-05
2013-12-28 00:00:00,2013-12-28 00:00:00,PRATE,surface,-98.4379,25.9842,1.73e-05
2013-12-28 00:00:00,2013-12-28 00:00:00,PRATE,surface,-97.5004,25.9842,2.55e-05
2013-12-28 00:00:00,2013-12-28 00:00:00,PRATE,surface,-96.5629,25.9842,4.51e-05
2013-12-28 00:00:00,2013-12-28 00:00:00,PRATE,surface,-95.6254,25.9842,6.1e-05
2013-12-28 00:00:00,2013-12-28 00:00:00,PRATE,surface,-94.6879,25.9842,4.39e-05
2013-12-28 00:00:00,2013-12-28 00:00:00,PRATE,surface,-93.7504,25.9842,3.41e-05
2013-12-28 00:00:00,2013-12-28 00:00:00,PRATE,surface,-92.8129,25.9842,4.05e-05
2013-12-28 00:00:00,2013-12-28 00:00:00,PRATE,surface,-107.813,26.929,3.12e-05
2013-12-28 00:00:00,2013-12-28 00:00:00,PRATE,surface,-106.875,26.929,2.43e-05
2013-12-28 00:00:00,2013-12-28 00:00:00,PRATE,surface,-105.938,26.929,1.94e-05
2013-12-28 00:00:00,2013-12-28 00:00:00,PRATE,surface,-105,26.929,1.46e-05
2013-12-28 00:00:00,2013-12-28 00:00:00,PRATE,surface,-104.063,26.929,1.23e-05
2013-12-28 00:00:00,2013-12-28 00:00:00,PRATE,surface,-103.125,26.929,1.42e-05
2013-12-28 00:00:00,2013-12-28 00:00:00,PRATE,surface,-102.188,26.929,1.59e-05
2013-12-28 00:00:00,2013-12-28 00:00:00,PRATE,surface,-101.25,26.929,1.53e-05
2013-12-28 00:00:00,2013-12-28 00:00:00,PRATE,surface,-100.313,26.929,1.31e-05
2013-12-28 00:00:00,2013-12-28 00:00:00,PRATE,surface,-99.3754,26.929,1.35e-05
2013-12-28 00:00:00,2013-12-28 00:00:00,PRATE,surface,-98.4379,26.929,2.06e-05
2013-12-28 00:00:00,2013-12-28 00:00:00,PRATE,surface,-97.5004,26.929,3.01e-05
2013-12-28 00:00:00,2013-12-28 00:00:00,PRATE,surface,-96.5629,26.929,5.28e-05
2013-12-28 00:00:00,2013-12-28 00:00:00,PRATE,surface,-95.6254,26.929,7.43e-05
2013-12-28 00:00:00,2013-12-28 00:00:00,PRATE,surface,-94.6879,26.929,7.01e-05
2013-12-28 00:00:00,2013-12-28 00:00:00,PRATE,surface,-93.7504,26.929,5.32e-05
2013-12-28 00:00:00,2013-12-28 00:00:00,PRATE,surface,-92.8129,26.929,5.2e-05
2013-12-28 00:00:00,2013-12-28 00:00:00,PRATE,surface,-107.813,27.8739,3.08e-05
2013-12-28 00:00:00,2013-12-28 00:00:00,PRATE,surface,-106.875,27.8739,2.55e-05
2013-12-28 00:00:00,2013-12-28 00:00:00,PRATE,surface,-105.938,27.8739,1.73e-05
2013-12-28 00:00:00,2013-12-28 00:00:00,PRATE,surface,-105,27.8739,1.09e-05
2013-12-28 00:00:00,2013-12-28 00:00:00,PRATE,surface,-104.063,27.8739,1.53e-05
2013-12-28 00:00:00,2013-12-28 00:00:00,PRATE,surface,-103.125,27.8739,2.13e-05
2013-12-28 00:00:00,2013-12-28 00:00:00,PRATE,surface,-102.188,27.8739,2.1e-05
2013-12-28 00:00:00,2013-12-28 00:00:00,PRATE,surface,-101.25,27.8739,1.72e-05
2013-12-28 00:00:00,2013-12-28 00:00:00,PRATE,surface,-100.313,27.8739,1.48e-05
2013-12-28 00:00:00,2013-12-28 00:00:00,PRATE,surface,-99.3754,27.8739,1.55e-05
2013-12-28 00:00:00,2013-12-28 00:00:00,PRATE,surface,-98.4379,27.8739,1.76e-05
2013-12-28 00:00:00,2013-12-28 00:00:00,PRATE,surface,-97.5004,27.8739,2.37e-05
2013-12-28 00:00:00,2013-12-28 00:00:00,PRATE,surface,-96.5629,27.8739,3.83e-05
2013-12-28 00:00:00,2013-12-28 00:00:00,PRATE,surface,-95.6254,27.8739,5.64e-05
2013-12-28 00:00:00,2013-12-28 00:00:00,PRATE,surface,-94.6879,27.8739,6.78e-05
2013-12-28 00:00:00,2013-12-28 00:00:00,PRATE,surface,-93.7504,27.8739,7.04e-05
2013-12-28 00:00:00,2013-12-28 00:00:00,PRATE,surface,-92.8129,27.8739,6.66e-05
2013-12-28 00:00:00,2013-12-28 00:00:00,PRATE,surface,-107.813,28.8188,2.87e-05
2013-12-28 00:00:00,2013-12-28 00:00:00,PRATE,surface,-106.875,28.8188,2.66e-05
2013-12-28 00:00:00,2013-12-28 00:00:00,PRATE,surface,-105.938,28.8188,1.71e-05
2013-12-28 00:00:00,2013-12-28 00:00:00,PRATE,surface,-105,28.8188,1e-05
2013-12-28 00:00:00,2013-12-28 00:00:00,PRATE,surface,-104.063,28.8188,1.35e-05
2013-12-28 00:00:00,2013-12-28 00:00:00,PRATE,surface,-103.125,28.8188,1.7e-05
2013-12-28 00:00:00,2013-12-28 00:00:00,PRATE,surface,-102.188,28.8188,1.78e-05
2013-12-28 00:00:00,2013-12-28 00:00:00,PRATE,surface,-101.25,28.8188,1.72e-05
2013-12-28 00:00:00,2013-12-28 00:00:00,PRATE,surface,-100.313,28.8188,1.85e-05
2013-12-28 00:00:00,2013-12-28 00:00:00,PRATE,surface,-99.3754,28.8188,2.01e-05
2013-12-28 00:00:00,2013-12-28 00:00:00,PRATE,surface,-98.4379,28.8188,1.97e-05
2013-12-28 00:00:00,2013-12-28 00:00:00,PRATE,surface,-97.5004,28.8188,2.1e-05
2013-12-28 00:00:00,2013-12-28 00:00:00,PRATE,surface,-96.5629,28.8188,2.8e-05
2013-12-28 00:00:00,2013-12-28 00:00:00,PRATE,surface,-95.6254,28.8188,4.11e-05
2013-12-28 00:00:00,2013-12-28 00:00:00,PRATE,surface,-94.6879,28.8188,5.76e-05
2013-12-28 00:00:00,2013-12-28 00:00:00,PRATE,surface,-93.7504,28.8188,7.19e-05
2013-12-28 00:00:00,2013-12-28 00:00:00,PRATE,surface,-92.8129,28.8188,7.87e-05
2013-12-28 00:00:00,2013-12-28 00:00:00,PRATE,surface,-107.813,29.7637,2.11e-05
2013-12-28 00:00:00,2013-12-28 00:00:00,PRATE,surface,-106.875,29.7637,2.2e-05
2013-12-28 00:00:00,2013-12-28 00:00:00,PRATE,surface,-105.938,29.7637,1.58e-05
2013-12-28 00:00:00,2013-12-28 00:00:00,PRATE,surface,-105,29.7637,1.17e-05
2013-12-28 00:00:00,2013-12-28 00:00:00,PRATE,surface,-104.063,29.7637,1.38e-05
2013-12-28 00:00:00,2013-12-28 00:00:00,PRATE,surface,-103.125,29.7637,1.55e-05
2013-12-28 00:00:00,2013-12-28 00:00:00,PRATE,surface,-102.188,29.7637,1.6e-05
2013-12-28 00:00:00,2013-12-28 00:00:00,PRATE,surface,-101.25,29.7637,1.59e-05
2013-12-28 00:00:00,2013-12-28 00:00:00,PRATE,surface,-100.313,29.7637,2.04e-05
2013-12-28 00:00:00,2013-12-28 00:00:00,PRATE,surface,-99.3754,29.7637,2.29e-05
2013-12-28 00:00:00,2013-12-28 00:00:00,PRATE,surface,-98.4379,29.7637,2.28e-05
2013-12-28 00:00:00,2013-12-28 00:00:00,PRATE,surface,-97.5004,29.7637,2.42e-05
2013-12-28 00:00:00,2013-12-28 00:00:00,PRATE,surface,-96.5629,29.7637,2.75e-05
2013-12-28 00:00:00,2013-12-28 00:00:00,PRATE,surface,-95.6254,29.7637,3.25e-05
2013-12-28 00:00:00,2013-12-28 00:00:00,PRATE,surface,-94.6879,29.7637,4.21e-05
2013-12-28 00:00:00,2013-12-28 00:00:00,PRATE,surface,-93.7504,29.7637,5.48e-05
2013-12-28 00:00:00,2013-12-28 00:00:00,PRATE,surface,-92.8129,29.7637,6.24e-05
2013-12-28 00:00:00,2013-12-28 00:00:00,PRATE,surface,-107.813,30.7085,1.32e-05
2013-12-28 00:00:00,2013-12-28 00:00:00,PRATE,surface,-106.875,30.7085,1.24e-05
2013-12-28 00:00:00,2013-12-28 00:00:00,PRATE,surface,-105.938,30.7085,1.15e-05
2013-12-28 00:00:00,2013-12-28 00:00:00,PRATE,surface,-105,30.7085,1.22e-05
2013-12-28 00:00:00,2013-12-28 00:00:00,PRATE,surface,-104.063,30.7085,1.39e-05
2013-12-28 00:00:00,2013-12-28 00:00:00,PRATE,surface,-103.125,30.7085,1.41e-05
2013-12-28 00:00:00,2013-12-28 00:00:00,PRATE,surface,-102.188,30.7085,1.35e-05
2013-12-28 00:00:00,2013-12-28 00:00:00,PRATE,surface,-101.25,30.7085,1.57e-05
2013-12-28 00:00:00,2013-12-28 00:00:00,PRATE,surface,-100.313,30.7085,2.08e-05
2013-12-28 00:00:00,2013-12-28 00:00:00,PRATE,surface,-99.3754,30.7085,2.5e-05
2013-12-28 00:00:00,2013-12-28 00:00:00,PRATE,surface,-98.4379,30.7085,2.75e-05
2013-12-28 00:00:00,2013-12-28 00:00:00,PRATE,surface,-97.5004,30.7085,3.01e-05
2013-12-28 00:00:00,2013-12-28 00:00:00,PRATE,surface,-96.5629,30.7085,3.09e-05
2013-12-28 00:00:00,2013-12-28 00:00:00,PRATE,surface,-95.6254,30.7085,3.14e-05
2013-12-28 00:00:00,2013-12-28 00:00:00,PRATE,surface,-94.6879,30.7085,3.67e-05
2013-12-28 00:00:00,2013-12-28 00:00:00,PRATE,surface,-93.7504,30.7085,4.62e-05
2013-12-28 00:00:00,2013-12-28 00:00:00,PRATE,surface,-92.8129,30.7085,5.74e-05
2013-12-28 00:00:00,2013-12-28 00:00:00,PRATE,surface,-107.813,31.6534,1.33e-05
2013-12-28 00:00:00,2013-12-28 00:00:00,PRATE,surface,-106.875,31.6534,1.1e-05
2013-12-28 00:00:00,2013-12-28 00:00:00,PRATE,surface,-105.938,31.6534,1.12e-05
2013-12-28 00:00:00,2013-12-28 00:00:00,PRATE,surface,-105,31.6534,1.26e-05
2013-12-28 00:00:00,2013-12-28 00:00:00,PRATE,surface,-104.063,31.6534,1.27e-05
2013-12-28 00:00:00,2013-12-28 00:00:00,PRATE,surface,-103.125,31.6534,1.09e-05
2013-12-28 00:00:00,2013-12-28 00:00:00,PRATE,surface,-102.188,31.6534,1.01e-05
2013-12-28 00:00:00,2013-12-28 00:00:00,PRATE,surface,-101.25,31.6534,1.2e-05
2013-12-28 00:00:00,2013-12-28 00:00:00,PRATE,surface,-100.313,31.6534,1.6e-05
2013-12-28 00:00:00,2013-12-28 00:00:00,PRATE,surface,-99.3754,31.6534,2.05e-05
2013-12-28 00:00:00,2013-12-28 00:00:00,PRATE,surface,-98.4379,31.6534,2.34e-05
2013-12-28 00:00:00,2013-12-28 00:00:00,PRATE,surface,-97.5004,31.6534,2.66e-05
2013-12-28 00:00:00,2013-12-28 00:00:00,PRATE,surface,-96.5629,31.6534,2.93e-05
2013-12-28 00:00:00,2013-12-28 00:00:00,PRATE,surface,-95.6254,31.6534,3.19e-05
2013-12-28 00:00:00,2013-12-28 00:00:00,PRATE,surface,-94.6879,31.6534,3.69e-05
2013-12-28 00:00:00,2013-12-28 00:00:00,PRATE,surface,-93.7504,31.6534,4.2e-05
2013-12-28 00:00:00,2013-12-28 00:00:00,PRATE,surface,-92.8129,31.6534,4.99e-05
2013-12-28 00:00:00,2013-12-28 00:00:00,PRATE,surface,-107.813,32.5983,1.76e-05
2013-12-28 00:00:00,2013-12-28 00:00:00,PRATE,surface,-106.875,32.5983,1.49e-05
2013-12-28 00:00:00,2013-12-28 00:00:00,PRATE,surface,-105.938,32.5983,1.36e-05
2013-12-28 00:00:00,2013-12-28 00:00:00,PRATE,surface,-105,32.5983,1.34e-05
2013-12-28 00:00:00,2013-12-28 00:00:00,PRATE,surface,-104.063,32.5983,1.23e-05
2013-12-28 00:00:00,2013-12-28 00:00:00,PRATE,surface,-103.125,32.5983,9.7e-06
2013-12-28 00:00:00,2013-12-28 00:00:00,PRATE,surface,-102.188,32.5983,8.3e-06
2013-12-28 00:00:00,2013-12-28 00:00:00,PRATE,surface,-101.25,32.5983,9.3e-06
2013-12-28 00:00:00,2013-12-28 00:00:00,PRATE,surface,-100.313,32.5983,9.8e-06
2013-12-28 00:00:00,2013-12-28 00:00:00,PRATE,surface,-99.3754,32.5983,1.13e-05
2013-12-28 00:00:00,2013-12-28 00:00:00,PRATE,surface,-98.4379,32.5983,1.4e-05
2013-12-28 00:00:00,2013-12-28 00:00:00,PRATE,surface,-97.5004,32.5983,1.7e-05
2013-12-28 00:00:00,2013-12-28 00:00:00,PRATE,surface,-96.5629,32.5983,2.04e-05
2013-12-28 00:00:00,2013-12-28 00:00:00,PRATE,surface,-95.6254,32.5983,2.54e-05
2013-12-28 00:00:00,2013-12-28 00:00:00,PRATE,surface,-94.6879,32.5983,3.07e-05
2013-12-28 00:00:00,2013-12-28 00:00:00,PRATE,surface,-93.7504,32.5983,3.31e-05
2013-12-28 00:00:00,2013-12-28 00:00:00,PRATE,surface,-92.8129,32.5983,3.53e-05
2013-12-28 00:00:00,2013-12-28 00:00:00,PRATE,surface,-107.813,33.5432,1.91e-05
2013-12-28 00:00:00,2013-12-28 00:00:00,PRATE,surface,-106.875,33.5432,1.5e-05
2013-12-28 00:00:00,2013-12-28 00:00:00,PRATE,surface,-105.938,33.5432,1.29e-05
2013-12-28 00:00:00,2013-12-28 00:00:00,PRATE,surface,-105,33.5432,1.34e-05
2013-12-28 00:00:00,2013-12-28 00:00:00,PRATE,surface,-104.063,33.5432,1.11e-05
2013-12-28 00:00:00,2013-12-28 00:00:00,PRATE,surface,-103.125,33.5432,8.9e-06
2013-12-28 00:00:00,2013-12-28 00:00:00,PRATE,surface,-102.188,33.5432,9.5e-06
2013-12-28 00:00:00,2013-12-28 00:00:00,PRATE,surface,-101.25,33.5432,1.02e-05
2013-12-28 00:00:00,2013-12-28 00:00:00,PRATE,surface,-100.313,33.5432,8.3e-06
2013-12-28 00:00:00,2013-12-28 00:00:00,PRATE,surface,-99.3754,33.5432,7.3e-06
2013-12-28 00:00:00,2013-12-28 00:00:00,PRATE,surface,-98.4379,33.5432,9.6e-06
2013-12-28 00:00:00,2013-12-28 00:00:00,PRATE,surface,-97.5004,33.5432,1.25e-05
2013-12-28 00:00:00,2013-12-28 00:00:00,PRATE,surface,-96.5629,33.5432,1.39e-05
2013-12-28 00:00:00,2013-12-28 00:00:00,PRATE,surface,-95.6254,33.5432,1.58e-05
2013-12-28 00:00:00,2013-12-28 00:00:00,PRATE,surface,-94.6879,33.5432,1.93e-05
2013-12-28 00:00:00,2013-12-28 00:00:00,PRATE,surface,-93.7504,33.5432,2.18e-05
2013-12-28 00:00:00,2013-12-28 00:00:00,PRATE,surface,-92.8129,33.5432,2.26e-05
2013-12-28 00:00:00,2013-12-28 00:00:00,PRATE,surface,-107.813,34.4881,1.27e-05
2013-12-28 00:00:00,2013-12-28 00:00:00,PRATE,surface,-106.875,34.4881,8.4e-06
2013-12-28 00:00:00,2013-12-28 00:00:00,PRATE,surface,-105.938,34.4881,8.3e-06
2013-12-28 00:00:00,2013-12-28 00:00:00,PRATE,surface,-105,34.4881,1.16e-05
2013-12-28 00:00:00,2013-12-28 00:00:00,PRATE,surface,-104.063,34.4881,1.03e-05
2013-12-28 00:00:00,2013-12-28 00:00:00,PRATE,surface,-103.125,34.4881,9.8e-06
2013-12-28 00:00:00,2013-12-28 00:00:00,PRATE,surface,-102.188,34.4881,9.8e-06
2013-12-28 00:00:00,2013-12-28 00:00:00,PRATE,surface,-101.25,34.4881,8e-06
2013-12-28 00:00:00,2013-12-28 00:00:00,PRATE,surface,-100.313,34.4881,6.4e-06
2013-12-28 00:00:00,2013-12-28 00:00:00,PRATE,surface,-99.3754,34.4881,5.7e-06
2013-12-28 00:00:00,2013-12-28 00:00:00,PRATE,surface,-98.4379,34.4881,7.5e-06
2013-12-28 00:00:00,2013-12-28 00:00:00,PRATE,surface,-97.5004,34.4881,9.5e-06
2013-12-28 00:00:00,2013-12-28 00:00:00,PRATE,surface,-96.5629,34.4881,1e-05
2013-12-28 00:00:00,2013-12-28 00:00:00,PRATE,surface,-95.6254,34.4881,1.24e-05
2013-12-28 00:00:00,2013-12-28 00:00:00,PRATE,surface,-94.6879,34.4881,1.69e-05
2013-12-28 00:00:00,2013-12-28 00:00:00,PRATE,surface,-93.7504,34.4881,1.89e-05
2013-12-28 00:00:00,2013-12-28 00:00:00,PRATE,surface,-92.8129,34.4881,2.03e-05
2013-12-28 00:00:00,2013-12-28 00:00:00,PRATE,surface,-107.813,35.4329,7.6e-06
2013-12-28 00:00:00,2013-12-28 00:00:00,PRATE,surface,-106.875,35.4329,5.8e-06
2013-12-28 00:00:00,2013-12-28 00:00:00,PRATE,surface,-105.938,35.4329,7.4e-06
2013-12-28 00:00:00,2013-12-28 00:00:00,PRATE,surface,-105,35.4329,1.06e-05
2013-12-28 00:00:00,2013-12-28 00:00:00,PRATE,surface,-104.063,35.4329,1.07e-05
2013-12-28 00:00:00,2013-12-28 00:00:00,PRATE,surface,-103.125,35.4329,1e-05
2013-12-28 00:00:00,2013-12-28 00:00:00,PRATE,surface,-102.188,35.4329,7.8e-06
2013-12-28 00:00:00,2013-12-28 00:00:00,PRATE,surface,-101.25,35.4329,5.8e-06
2013-12-28 00:00:00,2013-12-28 00:00:00,PRATE,surface,-100.313,35.4329,4.9e-06
2013-12-28 00:00:00,2013-12-28 00:00:00,PRATE,surface,-99.3754,35.4329,5.1e-06
2013-12-28 00:00:00,2013-12-28 00:00:00,PRATE,surface,-98.4379,35.4329,6.8e-06
2013-12-28 00:00:00,2013-12-28 00:00:00,PRATE,surface,-97.5004,35.4329,7.9e-06
2013-12-28 00:00:00,2013-12-28 00:00:00,PRATE,surface,-96.5629,35.4329,8.1e-06
2013-12-28 00:00:00,2013-12-28 00:00:00,PRATE,surface,-95.6254,35.4329,1.04e-05
2013-12-28 00:00:00,2013-12-28 00:00:00,PRATE,surface,-94.6879,35.4329,1.49e-05
2013-12-28 00:00:00,2013-12-28 00:00:00,PRATE,surface,-93.7504,35.4329,1.7e-05
2013-12-28 00:00:00,2013-12-28 00:00:00,PRATE,surface,-92.8129,35.4329,1.82e-05
2013-12-28 00:00:00,2013-12-28 00:00:00,PRATE,surface,-107.813,36.3778,5.7e-06
2013-12-28 00:00:00,2013-12-28 00:00:00,PRATE,surface,-106.875,36.3778,6.2e-06
2013-12-28 00:00:00,2013-12-28 00:00:00,PRATE,surface,-105.938,36.3778,7.4e-06
2013-12-28 00:00:00,2013-12-28 00:00:00,PRATE,surface,-105,36.3778,7.9e-06
2013-12-28 00:00:00,2013-12-28 00:00:00,PRATE,surface,-104.063,36.3778,8e-06
2013-12-28 00:00:00,2013-12-28 00:00:00,PRATE,surface,-103.125,36.3778,7.7e-06
2013-12-28 00:00:00,2013-12-28 00:00:00,PRATE,surface,-102.188,36.3778,6.1e-06
2013-12-28 00:00:00,2013-12-28 00:00:00,PRATE,surface,-101.25,36.3778,4.3e-06
2013-12-28 00:00:00,2013-12-28 00:00:00,PRATE,surface,-100.313,36.3778,3.5e-06
2013-12-28 00:00:00,2013-12-28 00:00:00,PRATE,surface,-99.3754,36.3778,3.9e-06
2013-12-28 00:00:00,2013-12-28 00:00:00,PRATE,surface,-98.4379,36.3778,5.3e-06
2013-12-28 00:00:00,2013-12-28 00:00:00,PRATE,surface,-97.5004,36.3778,6.1e-06
2013-12-28 00:00:00,2013-12-28 00:00:00,PRATE,surface,-96.5629,36.3778,5.9e-06
2013-12-28 00:00:00,2013-12-28 00:00:00,PRATE,surface,-95.6254,36.3778,7e-06
2013-12-28 00:00:00,2013-12-28 00:00:00,PRATE,surface,-94.6879,36.3778,1.09e-05
2013-12-28 00:00:00,2013-12-28 00:00:00,PRATE,surface,-93.7504,36.3778,1.56e-05
2013-12-28 00:00:00,2013-12-28 00:00:00,PRATE,surface,-92.8129,36.3778,1.68e-05
