2017-01-20 00:00:00,2017-01-20 00:00:00,TMP,surface,-107.813,25.0393,302.021
2017-01-20 00:00:00,2017-01-20 00:00:00,TMP,surface,-106.875,25.0393,295.166
2017-01-20 00:00:00,2017-01-20 00:00:00,TMP,surface,-105.938,25.0393,290.522
2017-01-20 00:00:00,2017-01-20 00:00:00,TMP,surface,-105,25.0393,287.725
2017-01-20 00:00:00,2017-01-20 00:00:00,TMP,surface,-104.063,25.0393,291.56
2017-01-20 00:00:00,2017-01-20 00:00:00,TMP,surface,-103.125,25.0393,294.61
2017-01-20 00:00:00,2017-01-20 00:00:00,TMP,surface,-102.188,25.0393,293.786
2017-01-20 00:00:00,2017-01-20 00:00:00,TMP,surface,-101.25,25.0393,290.893
2017-01-20 00:00:00,2017-01-20 00:00:00,TMP,surface,-100.313,25.0393,291.478
2017-01-20 00:00:00,2017-01-20 00:00:00,TMP,surface,-99.3754,25.0393,295.43
2017-01-20 00:00:00,2017-01-20 00:00:00,TMP,surface,-98.4379,25.0393,299.552
2017-01-20 00:00:00,2017-01-20 00:00:00,TMP,surface,-97.5004,25.0393,302.051
2017-01-20 00:00:00,2017-01-20 00:00:00,TMP,surface,-96.5629,25.0393,302.354
2017-01-20 00:00:00,2017-01-20 00:00:00,TMP,surface,-95.6254,25.0393,302.622
2017-01-20 00:00:00,2017-01-20 00:00:00,TMP,surface,-94.6879,25.0393,302.762
2017-01-20 00:00:00,2017-01-20 00:00:00,TMP,surface,-93.7504,25.0393,302.741
2017-01-20 00:00:00,2017-01-20 00:00:00,TMP,surface,-92.8129,25.0393,302.778
2017-01-20 00:00:00,2017-01-20 00:00:00,TMP,surface,-107.813,25.9842,297.723
2017-01-20 00:00:00,2017-01-20 00:00:00,TMP,surface,-106.875,25.9842,291.261
2017-01-20 00:00:00,2017-01-20 00:00:00,TMP,surface,-105.938,25.9842,288.83
2017-01-20 00:00:00,2017-01-20 00:00:00,TMP,surface,-105,25.9842,290.424
2017-01-20 00:00:00,2017-01-20 00:00:00,TMP,surface,-104.063,25.9842,295.022
2017-01-20 00:00:00,2017-01-20 00:00:00,TMP,surface,-103.125,25.9842,296.898
2017-01-20 00:00:00,2017-01-20 00:00:00,TMP,surface,-102.188,25.9842,295.445
2017-01-20 00:00:00,2017-01-20 00:00:00,TMP,surface,-101.25,25.9842,294.136
2017-01-20 00:00:00,2017-01-20 00:00:00,TMP,surface,-100.313,25.9842,295.01
2017-01-20 00:00:00,2017-01-20 00:00:00,TMP,surface,-99.3754,25.9842,298.776
2017-01-20 00:00:00,2017-01-20 00:00:00,TMP,surface,-98.4379,25.9842,300.608
2017-01-20 00:00:00,2017-01-20 00:00:00,TMP,surface,-97.5004,25.9842,300.154
2017-01-20 00:00:00,2017-01-20 00:00:00,TMP,surface,-96.5629,25.9842,301.61
2017-01-20 00:00:00,2017-01-20 00:00:00,TMP,surface,-95.6254,25.9842,302.267
2017-01-20 00:00:00,2017-01-20 00:00:00,TMP,surface,-94.6879,25.9842,302.274
2017-01-20 00:00:00,2017-01-20 00:00:00,TMP,surface,-93.7504,25.9842,302.197
2017-01-20 00:00:00,2017-01-20 00:00:00,TMP,surface,-92.8129,25.9842,302.366
2017-01-20 00:00:00,2017-01-20 00:00:00,TMP,surface,-107.813,26.929,292.923
2017-01-20 00:00:00,2017-01-20 00:00:00,TMP,surface,-106.875,26.929,289.03
2017-01-20 00:00:00,2017-01-20 00:00:00,TMP,surface,-105.938,26.929,290.024
2017-01-20 00:00:00,2017-01-20 00:00:00,TMP,surface,-105,26.929,293.477
2017-01-20 00:00:00,2017-01-20 00:00:00,TMP,surface,-104.063,26.929,296.419
2017-01-20 00:00:00,2017-01-20 00:00:00,TMP,surface,-103.125,26.929,295.923
2017-01-20 00:00:00,2017-01-20 00:00:00,TMP,surface,-102.188,26.929,294.8
2017-01-20 00:00:00,2017-01-20 00:00:00,TMP,surface,-101.25,26.929,295.672
2017-01-20 00:00:00,2017-01-20 00:00:00,TMP,surface,-100.313,26.929,298.13
2017-01-20 00:00:00,2017-01-20 00:00:00,TMP,surface,-99.3754,26.929,300.37
2017-01-20 00:00:00,2017-01-20 00:00:00,TMP,surface,-98.4379,26.929,299.861
2017-01-20 00:00:00,2017-01-20 00:00:00,TMP,surface,-97.5004,26.929,300.17
2017-01-20 00:00:00,2017-01-20 00:00:00,TMP,surface,-96.5629,26.929,300.837
2017-01-20 00:00:00,2017-01-20 00:00:00,TMP,surface,-95.6254,26.929,301.485
2017-01-20 00:00:00,2017-01-20 00:00:00,TMP,surface,-94.6879,26.929,301.605
2017-01-20 00:00:00,2017-01-20 00:00:00,TMP,surface,-93.7504,26.929,301.618
2017-01-20 00:00:00,2017-01-20 00:00:00,TMP,surface,-92.8129,26.929,301.816
2017-01-20 00:00:00,2017-01-20 00:00:00,TMP,surface,-107.813,27.8739,289.979
2017-01-20 00:00:00,2017-01-20 00:00:00,TMP,surface,-106.875,27.8739,288.379
2017-01-20 00:00:00,2017-01-20 00:00:00,TMP,surface,-105.938,27.8739,291.341
2017-01-20 00:00:00,2017-01-20 00:00:00,TMP,surface,-105,27.8739,294.994
2017-01-20 00:00:00,2017-01-20 00:00:00,TMP,surface,-104.063,27.8739,295.755
2017-01-20 00:00:00,2017-01-20 00:00:00,TMP,surface,-103.125,27.8739,294.024
2017-01-20 00:00:00,2017-01-20 00:00:00,TMP,surface,-102.188,27.8739,293.667
2017-01-20 00:00:00,2017-01-20 00:00:00,TMP,surface,-101.25,27.8739,296.142
2017-01-20 00:00:00,2017-01-20 00:00:00,TMP,surface,-100.313,27.8739,298.909
2017-01-20 00:00:00,2017-01-20 00:00:00,TMP,surface,-99.3754,27.8739,299.56
2017-01-20 00:00:00,2017-01-20 00:00:00,TMP,surface,-98.4379,27.8739,298.75
2017-01-20 00:00:00,2017-01-20 00:00:00,TMP,surface,-97.5004,27.8739,299.394
2017-01-20 00:00:00,2017-01-20 00:00:00,TMP,surface,-96.5629,27.8739,300.693
2017-01-20 00:00:00,2017-01-20 00:00:00,TMP,surface,-95.6254,27.8739,300.95
2017-01-20 00:00:00,2017-01-20 00:00:00,TMP,surface,-94.6879,27.8739,301.187
2017-01-20 00:00:00,2017-01-20 00:00:00,TMP,surface,-93.7504,27.8739,301.418
2017-01-20 00:00:00,2017-01-20 00:00:00,TMP,surface,-92.8129,27.8739,301.566
2017-01-20 00:00:00,2017-01-20 00:00:00,TMP,surface,-107.813,28.8188,288.802
2017-01-20 00:00:00,2017-01-20 00:00:00,TMP,surface,-106.875,28.8188,288.952
2017-01-20 00:00:00,2017-01-20 00:00:00,TMP,surface,-105.938,28.8188,292.85
2017-01-20 00:00:00,2017-01-20 00:00:00,TMP,surface,-105,28.8188,295.483
2017-01-20 00:00:00,2017-01-20 00:00:00,TMP,surface,-104.063,28.8188,294.677
2017-01-20 00:00:00,2017-01-20 00:00:00,TMP,surface,-103.125,28.8188,293.448
2017-01-20 00:00:00,2017-01-20 00:00:00,TMP,surface,-102.188,28.8188,293.565
2017-01-20 00:00:00,2017-01-20 00:00:00,TMP,surface,-101.25,28.8188,295.806
2017-01-20 00:00:00,2017-01-20 00:00:00,TMP,surface,-100.313,28.8188,297.315
2017-01-20 00:00:00,2017-01-20 00:00:00,TMP,surface,-99.3754,28.8188,297.066
2017-01-20 00:00:00,2017-01-20 00:00:00,TMP,surface,-98.4379,28.8188,296.454
2017-01-20 00:00:00,2017-01-20 00:00:00,TMP,surface,-97.5004,28.8188,296.39
2017-01-20 00:00:00,2017-01-20 00:00:00,TMP,surface,-96.5629,28.8188,296.803
2017-01-20 00:00:00,2017-01-20 00:00:00,TMP,surface,-95.6254,28.8188,298.498
2017-01-20 00:00:00,2017-01-20 00:00:00,TMP,surface,-94.6879,28.8188,300.752
2017-01-20 00:00:00,2017-01-20 00:00:00,TMP,surface,-93.7504,28.8188,300.872
2017-01-20 00:00:00,2017-01-20 00:00:00,TMP,surface,-92.8129,28.8188,300.947
2017-01-20 00:00:00,2017-01-20 00:00:00,TMP,surface,-107.813,29.7637,291.198
2017-01-20 00:00:00,2017-01-20 00:00:00,TMP,surface,-106.875,29.7637,292.026
2017-01-20 00:00:00,2017-01-20 00:00:00,TMP,surface,-105.938,29.7637,294.291
2017-01-20 00:00:00,2017-01-20 00:00:00,TMP,surface,-105,29.7637,295.034
2017-01-20 00:00:00,2017-01-20 00:00:00,TMP,surface,-104.063,29.7637,294.344
2017-01-20 00:00:00,2017-01-20 00:00:00,TMP,surface,-103.125,29.7637,294.146
2017-01-20 00:00:00,2017-01-20 00:00:00,TMP,surface,-102.188,29.7637,294.875
2017-01-20 00:00:00,2017-01-20 00:00:00,TMP,surface,-101.25,29.7637,295.403
2017-01-20 00:00:00,2017-01-20 00:00:00,TMP,surface,-100.313,29.7637,294.925
2017-01-20 00:00:00,2017-01-20 00:00:00,TMP,surface,-99.3754,29.7637,294.24
2017-01-20 00:00:00,2017-01-20 00:00:00,TMP,surface,-98.4379,29.7637,294.243
2017-01-20 00:00:00,2017-01-20 00:00:00,TMP,surface,-97.5004,29.7637,294.894
2017-01-20 00:00:00,2017-01-20 00:00:00,TMP,surface,-96.5629,29.7637,295.358
2017-01-20 00:00:00,2017-01-20 00:00:00,TMP,surface,-95.6254,29.7637,295.486
2017-01-20 00:00:00,2017-01-20 00:00:00,TMP,surface,-94.6879,29.7637,297.058
2017-01-20 00:00:00,2017-01-20 00:00:00,TMP,surface,-93.7504,29.7637,298.944
2017-01-20 00:00:00,2017-01-20 00:00:00,TMP,surface,-92.8129,29.7637,295.418
2017-01-20 00:00:00,2017-01-20 00:00:00,TMP,surface,-107.813,30.7085,294.91
2017-01-20 00:00:00,2017-01-20 00:00:00,TMP,surface,-106.875,30.7085,295.579
2017-01-20 00:00:00,2017-01-20 00:00:00,TMP,surface,-105.938,30.7085,295.213
2017-01-20 00:00:00,2017-01-20 00:00:00,TMP,surface,-105,30.7085,294.47
2017-01-20 00:00:00,2017-01-20 00:00:00,TMP,surface,-104.063,30.7085,293.574
2017-01-20 00:00:00,2017-01-20 00:00:00,TMP,surface,-103.125,30.7085,294.374
2017-01-20 00:00:00,2017-01-20 00:00:00,TMP,surface,-102.188,30.7085,294.883
2017-01-20 00:00:00,2017-01-20 00:00:00,TMP,surface,-101.25,30.7085,294.309
2017-01-20 00:00:00,2017-01-20 00:00:00,TMP,surface,-100.313,30.7085,293.475
2017-01-20 00:00:00,2017-01-20 00:00:00,TMP,surface,-99.3754,30.7085,293.016
2017-01-20 00:00:00,2017-01-20 00:00:00,TMP,surface,-98.4379,30.7085,293.478
2017-01-20 00:00:00,2017-01-20 00:00:00,TMP,surface,-97.5004,30.7085,294.389
2017-01-20 00:00:00,2017-01-20 00:00:00,TMP,surface,-96.5629,30.7085,294.955
2017-01-20 00:00:00,2017-01-20 00:00:00,TMP,surface,-95.6254,30.7085,294.946
2017-01-20 00:00:00,2017-01-20 00:00:00,TMP,surface,-94.6879,30.7085,294.576
2017-01-20 00:00:00,2017-01-20 00:00:00,TMP,surface,-93.7504,30.7085,294.182
2017-01-20 00:00:00,2017-01-20 00:00:00,TMP,surface,-92.8129,30.7085,293.688
2017-01-20 00:00:00,2017-01-20 00:00:00,TMP,surface,-107.813,31.6534,295.946
2017-01-20 00:00:00,2017-01-20 00:00:00,TMP,surface,-106.875,31.6534,296.165
2017-01-20 00:00:00,2017-01-20 00:00:00,TMP,surface,-105.938,31.6534,294.979
2017-01-20 00:00:00,2017-01-20 00:00:00,TMP,surface,-105,31.6534,293.917
2017-01-20 00:00:00,2017-01-20 00:00:00,TMP,surface,-104.063,31.6534,293.771
2017-01-20 00:00:00,2017-01-20 00:00:00,TMP,surface,-103.125,31.6534,294.115
2017-01-20 00:00:00,2017-01-20 00:00:00,TMP,surface,-102.188,31.6534,294.106
2017-01-20 00:00:00,2017-01-20 00:00:00,TMP,surface,-101.25,31.6534,293.544
2017-01-20 00:00:00,2017-01-20 00:00:00,TMP,surface,-100.313,31.6534,293.142
2017-01-20 00:00:00,2017-01-20 00:00:00,TMP,surface,-99.3754,31.6534,293.205
2017-01-20 00:00:00,2017-01-20 00:00:00,TMP,surface,-98.4379,31.6534,293.63
2017-01-20 00:00:00,2017-01-20 00:00:00,TMP,surface,-97.5004,31.6534,294.282
2017-01-20 00:00:00,2017-01-20 00:00:00,TMP,surface,-96.5629,31.6534,294.76
2017-01-20 00:00:00,2017-01-20 00:00:00,TMP,surface,-95.6254,31.6534,294.722
2017-01-20 00:00:00,2017-01-20 00:00:00,TMP,surface,-94.6879,31.6534,294.286
2017-01-20 00:00:00,2017-01-20 00:00:00,TMP,surface,-93.7504,31.6534,293.803
2017-01-20 00:00:00,2017-01-20 00:00:00,TMP,surface,-92.8129,31.6534,293.594
2017-01-20 00:00:00,2017-01-20 00:00:00,TMP,surface,-107.813,32.5983,293.115
2017-01-20 00:00:00,2017-01-20 00:00:00,TMP,surface,-106.875,32.5983,293.402
2017-01-20 00:00:00,2017-01-20 00:00:00,TMP,surface,-105.938,32.5983,293.371
2017-01-20 00:00:00,2017-01-20 00:00:00,TMP,surface,-105,32.5983,292.938
2017-01-20 00:00:00,2017-01-20 00:00:00,TMP,surface,-104.063,32.5983,293.389
2017-01-20 00:00:00,2017-01-20 00:00:00,TMP,surface,-103.125,32.5983,293.541
2017-01-20 00:00:00,2017-01-20 00:00:00,TMP,surface,-102.188,32.5983,293.106
2017-01-20 00:00:00,2017-01-20 00:00:00,TMP,surface,-101.25,32.5983,293.046
2017-01-20 00:00:00,2017-01-20 00:00:00,TMP,surface,-100.313,32.5983,293.507
2017-01-20 00:00:00,2017-01-20 00:00:00,TMP,surface,-99.3754,32.5983,293.998
2017-01-20 00:00:00,2017-01-20 00:00:00,TMP,surface,-98.4379,32.5983,294.136
2017-01-20 00:00:00,2017-01-20 00:00:00,TMP,surface,-97.5004,32.5983,294.274
2017-01-20 00:00:00,2017-01-20 00:00:00,TMP,surface,-96.5629,32.5983,294.626
2017-01-20 00:00:00,2017-01-20 00:00:00,TMP,surface,-95.6254,32.5983,294.744
2017-01-20 00:00:00,2017-01-20 00:00:00,TMP,surface,-94.6879,32.5983,294.33
2017-01-20 00:00:00,2017-01-20 00:00:00,TMP,surface,-93.7504,32.5983,293.848
2017-01-20 00:00:00,2017-01-20 00:00:00,TMP,surface,-92.8129,32.5983,293.819
2017-01-20 00:00:00,2017-01-20 00:00:00,TMP,surface,-107.813,33.5432,289.445
2017-01-20 00:00:00,2017-01-20 00:00:00,TMP,surface,-106.875,33.5432,290.611
2017-01-20 00:00:00,2017-01-20 00:00:00,TMP,surface,-105.938,33.5432,291.158
2017-01-20 00:00:00,2017-01-20 00:00:00,TMP,surface,-105,33.5432,291.662
2017-01-20 00:00:00,2017-01-20 00:00:00,TMP,surface,-104.063,33.5432,292.87
2017-01-20 00:00:00,2017-01-20 00:00:00,TMP,surface,-103.125,33.5432,292.616
2017-01-20 00:00:00,2017-01-20 00:00:00,TMP,surface,-102.188,33.5432,291.867
2017-01-20 00:00:00,2017-01-20 00:00:00,TMP,surface,-101.25,33.5432,292.141
2017-01-20 00:00:00,2017-01-20 00:00:00,TMP,surface,-100.313,33.5432,293.315
2017-01-20 00:00:00,2017-01-20 00:00:00,TMP,surface,-99.3754,33.5432,294.379
2017-01-20 00:00:00,2017-01-20 00:00:00,TMP,surface,-98.4379,33.5432,294.41
2017-01-20 00:00:00,2017-01-20 00:00:00,TMP,surface,-97.5004,33.5432,293.992
2017-01-20 00:00:00,2017-01-20 00:00:00,TMP,surface,-96.5629,33.5432,293.962
2017-01-20 00:00:00,2017-01-20 00:00:00,TMP,surface,-95.6254,33.5432,294.134
2017-01-20 00:00:00,2017-01-20 00:00:00,TMP,surface,-94.6879,33.5432,293.955
2017-01-20 00:00:00,2017-01-20 00:00:00,TMP,surface,-93.7504,33.5432,293.363
2017-01-20 00:00:00,2017-01-20 00:00:00,TMP,surface,-92.8129,33.5432,292.832
2017-01-20 00:00:00,2017-01-20 00:00:00,TMP,surface,-107.813,34.4881,287.325
2017-01-20 00:00:00,2017-01-20 00:00:00,TMP,surface,-106.875,34.4881,288.658
2017-01-20 00:00:00,2017-01-20 00:00:00,TMP,surface,-105.938,34.4881,289.459
2017-01-20 00:00:00,2017-01-20 00:00:00,TMP,surface,-105,34.4881,290.44
2017-01-20 00:00:00,2017-01-20 00:00:00,TMP,surface,-104.063,34.4881,291.365
2017-01-20 00:00:00,2017-01-20 00:00:00,TMP,surface,-103.125,34.4881,291.587
2017-01-20 00:00:00,2017-01-20 00:00:00,TMP,surface,-102.188,34.4881,291.302
2017-01-20 00:00:00,2017-01-20 00:00:00,TMP,surface,-101.25,34.4881,291.384
2017-01-20 00:00:00,2017-01-20 00:00:00,TMP,surface,-100.313,34.4881,292.32
2017-01-20 00:00:00,2017-01-20 00:00:00,TMP,surface,-99.3754,34.4881,293.224
2017-01-20 00:00:00,2017-01-20 00:00:00,TMP,surface,-98.4379,34.4881,293.301
2017-01-20 00:00:00,2017-01-20 00:00:00,TMP,surface,-97.5004,34.4881,292.984
2017-01-20 00:00:00,2017-01-20 00:00:00,TMP,surface,-96.5629,34.4881,293.002
2017-01-20 00:00:00,2017-01-20 00:00:00,TMP,surface,-95.6254,34.4881,293.032
2017-01-20 00:00:00,2017-01-20 00:00:00,TMP,surface,-94.6879,34.4881,292.426
2017-01-20 00:00:00,2017-01-20 00:00:00,TMP,surface,-93.7504,34.4881,291.69
2017-01-20 00:00:00,2017-01-20 00:00:00,TMP,surface,-92.8129,34.4881,291.571
2017-01-20 00:00:00,2017-01-20 00:00:00,TMP,surface,-107.813,35.4329,287.538
2017-01-20 00:00:00,2017-01-20 00:00:00,TMP,surface,-106.875,35.4329,287.68
2017-01-20 00:00:00,2017-01-20 00:00:00,TMP,surface,-105.938,35.4329,287.53
2017-01-20 00:00:00,2017-01-20 00:00:00,TMP,surface,-105,35.4329,287.81
2017-01-20 00:00:00,2017-01-20 00:00:00,TMP,surface,-104.063,35.4329,289.821
2017-01-20 00:00:00,2017-01-20 00:00:00,TMP,surface,-103.125,35.4329,290.69
2017-01-20 00:00:00,2017-01-20 00:00:00,TMP,surface,-102.188,35.4329,290.438
2017-01-20 00:00:00,2017-01-20 00:00:00,TMP,surface,-101.25,35.4329,290.507
2017-01-20 00:00:00,2017-01-20 00:00:00,TMP,surface,-100.313,35.4329,290.878
2017-01-20 00:00:00,2017-01-20 00:00:00,TMP,surface,-99.3754,35.4329,291.587
2017-01-20 00:00:00,2017-01-20 00:00:00,TMP,surface,-98.4379,35.4329,291.942
2017-01-20 00:00:00,2017-01-20 00:00:00,TMP,surface,-97.5004,35.4329,291.923
2017-01-20 00:00:00,2017-01-20 00:00:00,TMP,surface,-96.5629,35.4329,292.019
2017-01-20 00:00:00,2017-01-20 00:00:00,TMP,surface,-95.6254,35.4329,292.15
2017-01-20 00:00:00,2017-01-20 00:00:00,TMP,surface,-94.6879,35.4329,291.848
2017-01-20 00:00:00,2017-01-20 00:00:00,TMP,surface,-93.7504,35.4329,291.104
2017-01-20 00:00:00,2017-01-20 00:00:00,TMP,surface,-92.8129,35.4329,290.499
2017-01-20 00:00:00,2017-01-20 00:00:00,TMP,surface,-107.813,36.3778,287.186
2017-01-20 00:00:00,2017-01-20 00:00:00,TMP,surface,-106.875,36.3778,284.976
2017-01-20 00:00:00,2017-01-20 00:00:00,TMP,surface,-105.938,36.3778,284.808
2017-01-20 00:00:00,2017-01-20 00:00:00,TMP,surface,-105,36.3778,285.269
2017-01-20 00:00:00,2017-01-20 00:00:00,TMP,surface,-104.063,36.3778,287.366
2017-01-20 00:00:00,2017-01-20 00:00:00,TMP,surface,-103.125,36.3778,288.549
2017-01-20 00:00:00,2017-01-20 00:00:00,TMP,surface,-102.188,36.3778,289.269
2017-01-20 00:00:00,2017-01-20 00:00:00,TMP,surface,-101.25,36.3778,289.53
2017-01-20 00:00:00,2017-01-20 00:00:00,TMP,surface,-100.313,36.3778,290.162
2017-01-20 00:00:00,2017-01-20 00:00:00,TMP,surface,-99.3754,36.3778,290.802
2017-01-20 00:00:00,2017-01-20 00:00:00,TMP,surface,-98.4379,36.3778,291.147
2017-01-20 00:00:00,2017-01-20 00:00:00,TMP,surface,-97.5004,36.3778,291.31
2017-01-20 00:00:00,2017-01-20 00:00:00,TMP,surface,-96.5629,36.3778,291.486
2017-01-20 00:00:00,2017-01-20 00:00:00,TMP,surface,-95.6254,36.3778,291.566
2017-01-20 00:00:00,2017-01-20 00:00:00,TMP,surface,-94.6879,36.3778,291.147
2017-01-20 00:00:00,2017-01-20 00:00:00,TMP,surface,-93.7504,36.3778,290.291
2017-01-20 00:00:00,2017-01-20 00:00:00,TMP,surface,-92.8129,36.3778,289.869
2017-01-20 00:00:00,2017-01-20 00:00:00,PRATE,surface,-107.813,25.0393,4.9e-06
2017-01-20 00:00:00,2017-01-20 00:00:00,PRATE,surface,-106.875,25.0393,3.14e-05
2017-01-20 00:00:00,2017-01-20 00:00:00,PRATE,surface,-105.938,25.0393,4.09e-05
2017-01-20 00:00:00,2017-01-20 00:00:00,PRATE,surface,-105,25.0393,3.09e-05
2017-01-20 00:00:00,2017-01-20 00:00:00,PRATE,surface,-104.063,25.0393,1.69e-05
2017-01-20 00:00:00,2017-01-20 00:00:00,PRATE,surface,-103.125,25.0393,4.2e-06
2017-01-20 00:00:00,2017-01-20 00:00:00,PRATE,surface,-102.188,25.0393,9.5e-06
2017-01-20 00:00:00,2017-01-20 00:00:00,PRATE,surface,-101.25,25.0393,2.69e-05
2017-01-20 00:00:00,2017-01-20 00:00:00,PRATE,surface,-100.313,25.0393,4.74e-05
2017-01-20 00:00:00,2017-01-20 00:00:00,PRATE,surface,-99.3754,25.0393,3.46e-05
2017-01-20 00:00:00,2017-01-20 00:00:00,PRATE,surface,-98.4379,25.0393,1.19e-05
2017-01-20 00:00:00,2017-01-20 00:00:00,PRATE,surface,-97.5004,25.0393,2.05e-05
2017-01-20 00:00:00,2017-01-20 00:00:00,PRATE,surface,-96.5629,25.0393,1.29e-05
2017-01-20 00:00:00,2017-01-20 00:00:00,PRATE,surface,-95.6254,25.0393,2.69e-05
2017-01-20 00:00:00,2017-01-20 00:00:00,PRATE,surface,-94.6879,25.0393,2.28e-05
2017-01-20 00:00:00,2017-01-20 00:00:00,PRATE,surface,-93.7504,25.0393,3.13e-05
2017-01-20 00:00:00,2017-01-20 00:00:00,PRATE,surface,-92.8129,25.0393,4.55e-05
2017-01-20 00:00:00,2017-01-20 00:00:00,PRATE,surface,-107.813,25.9842,1.68e-05
2017-01-20 00:00:00,2017-01-20 00:00:00,PRATE,surface,-106.875,25.9842,4.3e-05
2017-01-20 00:00:00,2017-01-20 00:00:00,PRATE,surface,-105.938,25.9842,2.4e-05
2017-01-20 00:00:00,2017-01-20 00:00:00,PRATE,surface,-105,25.9842,1.76e-05
2017-01-20 00:00:00,2017-01-20 00:00:00,PRATE,surface,-104.063,25.9842,4.4e-06
2017-01-20 00:00:00,2017-01-20 00:00:00,PRATE,surface,-103.125,25.9842,8e-07
2017-01-20 00:00:00,2017-01-20 00:00:00,PRATE,surface,-102.188,25.9842,1.3e-06
2017-01-20 00:00:00,2017-01-20 00:00:00,PRATE,surface,-101.25,25.9842,1.24e-05
2017-01-20 00:00:00,2017-01-20 00:00:00,PRATE,surface,-100.313,25.9842,1.8e-05
2017-01-20 00:00:00,2017-01-20 00:00:00,PRATE,surface,-99.3754,25.9842,9.5e-06
2017-01-20 00:00:00,2017-01-20 00:00:00,PRATE,surface,-98.4379,25.9842,1.01e-05
2017-01-20 00:00:00,2017-01-20 00:00:00,PRATE,surface,-97.5004,25.9842,2.47e-05
2017-01-20 00:00:00,2017-01-20 00:00:00,PRATE,surface,-96.5629,25.9842,4.08e-05
2017-01-20 00:00:00,2017-01-20 00:00:00,PRATE,surface,-95.6254,25.9842,3.87e-05
2017-01-20 00:00:00,2017-01-20 00:00:00,PRATE,surface,-94.6879,25.9842,3.25e-05
2017-01-20 00:00:00,2017-01-20 00:00:00,PRATE,surface,-93.7504,25.9842,2.57e-05
2017-01-20 00:00:00,2017-01-20 00:00:00,PRATE,surface,-92.8129,25.9842,1.91e-05
2017-01-20 00:00:00,2017-01-20 00:00:00,PRATE,surface,-107.813,26.929,2.87e-05
2017-01-20 00:00:00,2017-01-20 00:00:00,PRATE,surface,-106.875,26.929,2.9e-05
2017-01-20 00:00:00,2017-01-20 00:00:00,PRATE,surface,-105.938,26.929,2.18e-05
2017-01-20 00:00:00,2017-01-20 00:00:00,PRATE,surface,-105,26.929,1.34e-05
2017-01-20 00:00:00,2017-01-20 00:00:00,PRATE,surface,-104.063,26.929,1.13e-05
2017-01-20 00:00:00,2017-01-20 00:00:00,PRATE,surface,-103.125,26.929,5.7e-06
2017-01-20 00:00:00,2017-01-20 00:00:00,PRATE,surface,-102.188,26.929,8.4e-06
2017-01-20 00:00:00,2017-01-20 00:00:00,PRATE,surface,-101.25,26.929,8.3e-06
2017-01-20 00:00:00,2017-01-20 00:00:00,PRATE,surface,-100.313,26.929,8.7e-06
2017-01-20 00:00:00,2017-01-20 00:00:00,PRATE,surface,-99.3754,26.929,1.16e-05
2017-01-20 00:00:00,2017-01-20 00:00:00,PRATE,surface,-98.4379,26.929,1.59e-05
2017-01-20 00:00:00,2017-01-20 00:00:00,PRATE,surface,-97.5004,26.929,3.24e-05
2017-01-20 00:00:00,2017-01-20 00:00:00,PRATE,surface,-96.5629,26.929,4.96e-05
2017-01-20 00:00:00,2017-01-20 00:00:00,PRATE,surface,-95.6254,26.929,4.87e-05
2017-01-20 00:00:00,2017-01-20 00:00:00,PRATE,surface,-94.6879,26.929,4.14e-05
2017-01-20 00:00:00,2017-01-20 00:00:00,PRATE,surface,-93.7504,26.929,3.6e-05
2017-01-20 00:00:00,2017-01-20 00:00:00,PRATE,surface,-92.8129,26.929,3.29e-05
2017-01-20 00:00:00,2017-01-20 00:00:00,PRATE,surface,-107.813,27.8739,3.26e-05
2017-01-20 00:00:00,2017-01-20 00:00:00,PRATE,surface,-106.875,27.8739,2.35e-05
2017-01-20 00:00:00,2017-01-20 00:00:00,PRATE,surface,-105.938,27.8739,1.54e-05
2017-01-20 00:00:00,2017-01-20 00:00:00,PRATE,surface,-105,27.8739,2.8e-06
2017-01-20 00:00:00,2017-01-20 00:00:00,PRATE,surface,-104.063,27.8739,7.8e-06
2017-01-20 00:00:00,2017-01-20 00:00:00,PRATE,surface,-103.125,27.8739,1.74e-05
2017-01-20 00:00:00,2017-01-20 00:00:00,PRATE,surface,-102.188,27.8739,1.92e-05
2017-01-20 00:00:00,2017-01-20 00:00:00,PRATE,surface,-101.25,27.8739,1.25e-05
2017-01-20 00:00:00,2017-01-20 00:00:00,PRATE,surface,-100.313,27.8739,8.1e-06
2017-01-20 00:00:00,2017-01-20 00:00:00,PRATE,surface,-99.3754,27.8739,8.9e-06
2017-01-20 00:00:00,2017-01-20 00:00:00,PRATE,surface,-98.4379,27.8739,1.97e-05
2017-01-20 00:00:00,2017-01-20 00:00:00,PRATE,surface,-97.5004,27.8739,2.68e-05
2017-01-20 00:00:00,2017-01-20 00:00:00,PRATE,surface,-96.5629,27.8739,2.54e-05
2017-01-20 00:00:00,2017-01-20 00:00:00,PRATE,surface,-95.6254,27.8739,3.06e-05
2017-01-20 00:00:00,2017-01-20 00:00:00,PRATE,surface,-94.6879,27.8739,4.39e-05
2017-01-20 00:00:00,2017-01-20 00:00:00,PRATE,surface,-93.7504,27.8739,5.05e-05
2017-01-20 00:00:00,2017-01-20 00:00:00,PRATE,surface,-92.8129,27.8739,4.98e-05
2017-01-20 00:00:00,2017-01-20 00:00:00,PRATE,surface,-107.813,28.8188,3.21e-05
2017-01-20 00:00:00,2017-01-20 00:00:00,PRATE,surface,-106.875,28.8188,2.25e-05
2017-01-20 00:00:00,2017-01-20 00:00:00,PRATE,surface,-105.938,28.8188,9.8e-06
2017-01-20 00:00:00,2017-01-20 00:00:00,PRATE,surface,-105,28.8188,2.3e-06
2017-01-20 00:00:00,2017-01-20 00:00:00,PRATE,surface,-104.063,28.8188,9.2e-06
2017-01-20 00:00:00,2017-01-20 00:00:00,PRATE,surface,-103.125,28.8188,1.75e-05
2017-01-20 00:00:00,2017-01-20 00:00:00,PRATE,surface,-102.188,28.8188,1.83e-05
2017-01-20 00:00:00,2017-01-20 00:00:00,PRATE,surface,-101.25,28.8188,1.34e-05
2017-01-20 00:00:00,2017-01-20 00:00:00,PRATE,surface,-100.313,28.8188,6.7e-06
2017-01-20 00:00:00,2017-01-20 00:00:00,PRATE,surface,-99.3754,28.8188,5.1e-06
2017-01-20 00:00:00,2017-01-20 00:00:00,PRATE,surface,-98.4379,28.8188,8.6e-06
2017-01-20 00:00:00,2017-01-20 00:00:00,PRATE,surface,-97.5004,28.8188,1.55e-05
2017-01-20 00:00:00,2017-01-20 00:00:00,PRATE,surface,-96.5629,28.8188,2.76e-05
2017-01-20 00:00:00,2017-01-20 00:00:00,PRATE,surface,-95.6254,28.8188,4.16e-05
2017-01-20 00:00:00,2017-01-20 00:00:00,PRATE,surface,-94.6879,28.8188,5.26e-05
2017-01-20 00:00:00,2017-01-20 00:00:00,PRATE,surface,-93.7504,28.8188,5.72e-05
2017-01-20 00:00:00,2017-01-20 00:00:00,PRATE,surface,-92.8129,28.8188,4.07e-05
2017-01-20 00:00:00,2017-01-20 00:00:00,PRATE,surface,-107.813,29.7637,2.39e-05
2017-01-20 00:00:00,2017-01-20 00:00:00,PRATE,surface,-106.875,29.7637,1.98e-05
2017-01-20 00:00:00,2017-01-20 00:00:00,PRATE,surface,-105.938,29.7637,1.12e-05
2017-01-20 00:00:00,2017-01-20 00:00:00,PRATE,surface,-105,29.7637,6.1e-06
2017-01-20 00:00:00,2017-01-20 00:00:00,PRATE,surface,-104.063,29.7637,1e-05
2017-01-20 00:00:00,2017-01-20 00:00:00,PRATE,surface,-103.125,29.7637,1.72e-05
2017-01-20 00:00:00,2017-01-20 00:00:00,PRATE,surface,-102.188,29.7637,2.42e-05
2017-01-20 00:00:00,2017-01-20 00:00:00,PRATE,surface,-101.25,29.7637,2.45e-05
2017-01-20 00:00:00,2017-01-20 00:00:00,PRATE,surface,-100.313,29.7637,2.27e-05
2017-01-20 00:00:00,2017-01-20 00:00:00,PRATE,surface,-99.3754,29.7637,1.81e-05
2017-01-20 00:00:00,2017-01-20 00:00:00,PRATE,surface,-98.4379,29.7637,1.21e-05
2017-01-20 00:00:00,2017-01-20 00:00:00,PRATE,surface,-97.5004,29.7637,7.5e-06
2017-01-20 00:00:00,2017-01-20 00:00:00,PRATE,surface,-96.5629,29.7637,1.4e-05
2017-01-20 00:00:00,2017-01-20 00:00:00,PRATE,surface,-95.6254,29.7637,3.38e-05
2017-01-20 00:00:00,2017-01-20 00:00:00,PRATE,surface,-94.6879,29.7637,4.89e-05
2017-01-20 00:00:00,2017-01-20 00:00:00,PRATE,surface,-93.7504,29.7637,4.69e-05
2017-01-20 00:00:00,2017-01-20 00:00:00,PRATE,surface,-92.8129,29.7637,3.9e-05
2017-01-20 00:00:00,2017-01-20 00:00:00,PRATE,surface,-107.813,30.7085,4e-06
2017-01-20 00:00:00,2017-01-20 00:00:00,PRATE,surface,-106.875,30.7085,1.27e-05
2017-01-20 00:00:00,2017-01-20 00:00:00,PRATE,surface,-105.938,30.7085,1.7e-05
2017-01-20 00:00:00,2017-01-20 00:00:00,PRATE,surface,-105,30.7085,1.14e-05
2017-01-20 00:00:00,2017-01-20 00:00:00,PRATE,surface,-104.063,30.7085,1.04e-05
2017-01-20 00:00:00,2017-01-20 00:00:00,PRATE,surface,-103.125,30.7085,1.58e-05
2017-01-20 00:00:00,2017-01-20 00:00:00,PRATE,surface,-102.188,30.7085,2.77e-05
2017-01-20 00:00:00,2017-01-20 00:00:00,PRATE,surface,-101.25,30.7085,4.69e-05
2017-01-20 00:00:00,2017-01-20 00:00:00,PRATE,surface,-100.313,30.7085,5.38e-05
2017-01-20 00:00:00,2017-01-20 00:00:00,PRATE,surface,-99.3754,30.7085,4.08e-05
2017-01-20 00:00:00,2017-01-20 00:00:00,PRATE,surface,-98.4379,30.7085,2.47e-05
2017-01-20 00:00:00,2017-01-20 00:00:00,PRATE,surface,-97.5004,30.7085,1.5e-05
2017-01-20 00:00:00,2017-01-20 00:00:00,PRATE,surface,-96.5629,30.7085,1.42e-05
2017-01-20 00:00:00,2017-01-20 00:00:00,PRATE,surface,-95.6254,30.7085,2.14e-05
2017-01-20 00:00:00,2017-01-20 00:00:00,PRATE,surface,-94.6879,30.7085,3.24e-05
2017-01-20 00:00:00,2017-01-20 00:00:00,PRATE,surface,-93.7504,30.7085,4.18e-05
2017-01-20 00:00:00,2017-01-20 00:00:00,PRATE,surface,-92.8129,30.7085,3.69e-05
2017-01-20 00:00:00,2017-01-20 00:00:00,PRATE,surface,-107.813,31.6534,3.5e-06
2017-01-20 00:00:00,2017-01-20 00:00:00,PRATE,surface,-106.875,31.6534,7.3e-06
2017-01-20 00:00:00,2017-01-20 00:00:00,PRATE,surface,-105.938,31.6534,1.22e-05
2017-01-20 00:00:00,2017-01-20 00:00:00,PRATE,surface,-105,31.6534,1.17e-05
2017-01-20 00:00:00,2017-01-20 00:00:00,PRATE,surface,-104.063,31.6534,1.42e-05
2017-01-20 00:00:00,2017-01-20 00:00:00,PRATE,surface,-103.125,31.6534,2.43e-05
2017-01-20 00:00:00,2017-01-20 00:00:00,PRATE,surface,-102.188,31.6534,3.49e-05
2017-01-20 00:00:00,2017-01-20 00:00:00,PRATE,surface,-101.25,31.6534,4.79e-05
2017-01-20 00:00:00,2017-01-20 00:00:00,PRATE,surface,-100.313,31.6534,5.47e-05
2017-01-20 00:00:00,2017-01-20 00:00:00,PRATE,surface,-99.3754,31.6534,4.4e-05
2017-01-20 00:00:00,2017-01-20 00:00:00,PRATE,surface,-98.4379,31.6534,3.36e-05
2017-01-20 00:00:00,2017-01-20 00:00:00,PRATE,surface,-97.5004,31.6534,3.12e-05
2017-01-20 00:00:00,2017-01-20 00:00:00,PRATE,surface,-96.5629,31.6534,3.18e-05
2017-01-20 00:00:00,2017-01-20 00:00:00,PRATE,surface,-95.6254,31.6534,3.37e-05
2017-01-20 00:00:00,2017-01-20 00:00:00,PRATE,surface,-94.6879,31.6534,3.7e-05
2017-01-20 00:00:00,2017-01-20 00:00:00,PRATE,surface,-93.7504,31.6534,3.76e-05
2017-01-20 00:00:00,2017-01-20 00:00:00,PRATE,surface,-92.8129,31.6534,2.77e-05
2017-01-20 00:00:00,2017-01-20 00:00:00,PRATE,surface,-107.813,32.5983,1.07e-05
2017-01-20 00:00:00,2017-01-20 00:00:00,PRATE,surface,-106.875,32.5983,1.63e-05
2017-01-20 00:00:00,2017-01-20 00:00:00,PRATE,surface,-105.938,32.5983,1.85e-05
2017-01-20 00:00:00,2017-01-20 00:00:00,PRATE,surface,-105,32.5983,1.23e-05
2017-01-20 00:00:00,2017-01-20 00:00:00,PRATE,surface,-104.063,32.5983,2.23e-05
2017-01-20 00:00:00,2017-01-20 00:00:00,PRATE,surface,-103.125,32.5983,3.16e-05
2017-01-20 00:00:00,2017-01-20 00:00:00,PRATE,surface,-102.188,32.5983,3.64e-05
2017-01-20 00:00:00,2017-01-20 00:00:00,PRATE,surface,-101.25,32.5983,3.97e-05
2017-01-20 00:00:00,2017-01-20 00:00:00,PRATE,surface,-100.313,32.5983,3.62e-05
2017-01-20 00:00:00,2017-01-20 00:00:00,PRATE,surface,-99.3754,32.5983,3.16e-05
2017-01-20 00:00:00,2017-01-20 00:00:00,PRATE,surface,-98.4379,32.5983,3.1e-05
2017-01-20 00:00:00,2017-01-20 00:00:00,PRATE,surface,-97.5004,32.5983,3.35e-05
2017-01-20 00:00:00,2017-01-20 00:00:00,PRATE,surface,-96.5629,32.5983,3.67e-05
2017-01-20 00:00:00,2017-01-20 00:00:00,PRATE,surface,-95.6254,32.5983,3.6e-05
2017-01-20 00:00:00,2017-01-20 00:00:00,PRATE,surface,-94.6879,32.5983,3e-05
2017-01-20 00:00:00,2017-01-20 00:00:00,PRATE,surface,-93.7504,32.5983,2.5e-05
2017-01-20 00:00:00,2017-01-20 00:00:00,PRATE,surface,-92.8129,32.5983,1.99e-05
2017-01-20 00:00:00,2017-01-20 00:00:00,PRATE,surface,-107.813,33.5432,1.97e-05
2017-01-20 00:00:00,2017-01-20 00:00:00,PRATE,surface,-106.875,33.5432,2.99e-05
2017-01-20 00:00:00,2017-01-20 00:00:00,PRATE,surface,-105.938,33.5432,2.95e-05
2017-01-20 00:00:00,2017-01-20 00:00:00,PRATE,surface,-105,33.5432,2.43e-05
2017-01-20 00:00:00,2017-01-20 00:00:00,PRATE,surface,-104.063,33.5432,3.04e-05
2017-01-20 00:00:00,2017-01-20 00:00:00,PRATE,surface,-103.125,33.5432,3.23e-05
2017-01-20 00:00:00,2017-01-20 00:00:00,PRATE,surface,-102.188,33.5432,3.58e-05
2017-01-20 00:00:00,2017-01-20 00:00:00,PRATE,surface,-101.25,33.5432,4.08e-05
2017-01-20 00:00:00,2017-01-20 00:00:00,PRATE,surface,-100.313,33.5432,3.36e-05
2017-01-20 00:00:00,2017-01-20 00:00:00,PRATE,surface,-99.3754,33.5432,2.49e-05
2017-01-20 00:00:00,2017-01-20 00:00:00,PRATE,surface,-98.4379,33.5432,2.71e-05
2017-01-20 00:00:00,2017-01-20 00:00:00,PRATE,surface,-97.5004,33.5432,2.99e-05
2017-01-20 00:00:00,2017-01-20 00:00:00,PRATE,surface,-96.5629,33.5432,2.39e-05
2017-01-20 00:00:00,2017-01-20 00:00:00,PRATE,surface,-95.6254,33.5432,1.7e-05
2017-01-20 00:00:00,2017-01-20 00:00:00,PRATE,surface,-94.6879,33.5432,1.77e-05
2017-01-20 00:00:00,2017-01-20 00:00:00,PRATE,surface,-93.7504,33.5432,2.12e-05
2017-01-20 00:00:00,2017-01-20 00:00:00,PRATE,surface,-92.8129,33.5432,2.02e-05
2017-01-20 00:00:00,2017-01-20 00:00:00,PRATE,surface,-107.813,34.4881,2.37e-05
2017-01-20 00:00:00,2017-01-20 00:00:00,PRATE,surface,-106.875,34.4881,3.03e-05
2017-01-20 00:00:00,2017-01-20 00:00:00,PRATE,surface,-105.938,34.4881,3.41e-05
2017-01-20 00:00:00,2017-01-20 00:00:00,PRATE,surface,-105,34.4881,3.89e-05
2017-01-20 00:00:00,2017-01-20 00:00:00,PRATE,surface,-104.063,34.4881,3.17e-05
2017-01-20 00:00:00,2017-01-20 00:00:00,PRATE,surface,-103.125,34.4881,2.91e-05
2017-01-20 00:00:00,2017-01-20 00:00:00,PRATE,surface,-102.188,34.4881,3.18e-05
2017-01-20 00:00:00,2017-01-20 00:00:00,PRATE,surface,-101.25,34.4881,4.12e-05
2017-01-20 00:00:00,2017-01-20 00:00:00,PRATE,surface,-100.313,34.4881,3.76e-05
2017-01-20 00:00:00,2017-01-20 00:00:00,PRATE,surface,-99.3754,34.4881,2.92e-05
2017-01-20 00:00:00,2017-01-20 00:00:00,PRATE,surface,-98.4379,34.4881,2.59e-05
2017-01-20 00:00:00,2017-01-20 00:00:00,PRATE,surface,-97.5004,34.4881,2.37e-05
2017-01-20 00:00:00,2017-01-20 00:00:00,PRATE,surface,-96.5629,34.4881,2.06e-05
2017-01-20 00:00:00,2017-01-20 00:00:00,PRATE,surface,-95.6254,34.4881,1.66e-05
2017-01-20 00:00:00,2017-01-20 00:00:00,PRATE,surface,-94.6879,34.4881,1.41e-05
2017-01-20 00:00:00,2017-01-20 00:00:00,PRATE,surface,-93.7504,34.4881,2.11e-05
2017-01-20 00:00:00,2017-01-20 00:00:00,PRATE,surface,-92.8129,34.4881,2.73e-05
2017-01-20 00:00:00,2017-01-20 00:00:00,PRATE,surface,-107.813,35.4329,1.01e-05
2017-01-20 00:00:00,2017-01-20 00:00:00,PRATE,surface,-106.875,35.4329,1.3e-05
2017-01-20 00:00:00,2017-01-20 00:00:00,PRATE,surface,-105.938,35.4329,1.79e-05
2017-01-20 00:00:00,2017-01-20 00:00:00,PRATE,surface,-105,35.4329,3.96e-05
2017-01-20 00:00:00,2017-01-20 00:00:00,PRATE,surface,-104.063,35.4329,5.38e-05
2017-01-20 00:00:00,2017-01-20 00:00:00,PRATE,surface,-103.125,35.4329,5.05e-05
2017-01-20 00:00:00,2017-01-20 00:00:00,PRATE,surface,-102.188,35.4329,5.49e-05
2017-01-20 00:00:00,2017-01-20 00:00:00,PRATE,surface,-101.25,35.4329,6.24e-05
2017-01-20 00:00:00,2017-01-20 00:00:00,PRATE,surface,-100.313,35.4329,5.98e-05
2017-01-20 00:00:00,2017-01-20 00:00:00,PRATE,surface,-99.3754,35.4329,4.8e-05
2017-01-20 00:00:00,2017-01-20 00:00:00,PRATE,surface,-98.4379,35.4329,3.56e-05
2017-01-20 00:00:00,2017-01-20 00:00:00,PRATE,surface,-97.5004,35.4329,2.69e-05
2017-01-20 00:00:00,2017-01-20 00:00:00,PRATE,surface,-96.5629,35.4329,2.05e-05
2017-01-20 00:00:00,2017-01-20 00:00:00,PRATE,surface,-95.6254,35.4329,1.47e-05
2017-01-20 00:00:00,2017-01-20 00:00:00,PRATE,surface,-94.6879,35.4329,1.1e-05
2017-01-20 00:00:00,2017-01-20 00:00:00,PRATE,surface,-93.7504,35.4329,1.39e-05
2017-01-20 00:00:00,2017-01-20 00:00:00,PRATE,surface,-92.8129,35.4329,2.42e-05
2017-01-20 00:00:00,2017-01-20 00:00:00,PRATE,surface,-107.813,36.3778,8.9e-06
2017-01-20 00:00:00,2017-01-20 00:00:00,PRATE,surface,-106.875,36.3778,1.44e-05
2017-01-20 00:00:00,2017-01-20 00:00:00,PRATE,surface,-105.938,36.3778,2.77e-05
2017-01-20 00:00:00,2017-01-20 00:00:00,PRATE,surface,-105,36.3778,5.04e-05
2017-01-20 00:00:00,2017-01-20 00:00:00,PRATE,surface,-104.063,36.3778,5.99e-05
2017-01-20 00:00:00,2017-01-20 00:00:00,PRATE,surface,-103.125,36.3778,6.27e-05
2017-01-20 00:00:00,2017-01-20 00:00:00,PRATE,surface,-102.188,36.3778,6.86e-05
2017-01-20 00:00:00,2017-01-20 00:00:00,PRATE,surface,-101.25,36.3778,7.16e-05
2017-01-20 00:00:00,2017-01-20 00:00:00,PRATE,surface,-100.313,36.3778,6.47e-05
2017-01-20 00:00:00,2017-01-20 00:00:00,PRATE,surface,-99.3754,36.3778,5.11e-05
2017-01-20 00:00:00,2017-01-20 00:00:00,PRATE,surface,-98.4379,36.3778,3.65e-05
2017-01-20 00:00:00,2017-01-20 00:00:00,PRATE,surface,-97.5004,36.3778,2.3e-05
2017-01-20 00:00:00,2017-01-20 00:00:00,PRATE,surface,-96.5629,36.3778,1.43e-05
2017-01-20 00:00:00,2017-01-20 00:00:00,PRATE,surface,-95.6254,36.3778,1.12e-05
2017-01-20 00:00:00,2017-01-20 00:00:00,PRATE,surface,-94.6879,36.3778,9.8e-06
2017-01-20 00:00:00,2017-01-20 00:00:00,PRATE,surface,-93.7504,36.3778,1.17e-05
2017-01-20 00:00:00,2017-01-20 00:00:00,PRATE,surface,-92.8129,36.3778,1.74e-05
