2014-03-03 00:00:00,2014-03-03 00:00:00,TMP,surface,-107.813,25.0393,301.711
2014-03-03 00:00:00,2014-03-03 00:00:00,TMP,surface,-106.875,25.0393,294.355
2014-03-03 00:00:00,2014-03-03 00:00:00,TMP,surface,-105.938,25.0393,290.182
2014-03-03 00:00:00,2014-03-03 00:00:00,TMP,surface,-105,25.0393,288.392
2014-03-03 00:00:00,2014-03-03 00:00:00,TMP,surface,-104.063,25.0393,291.619
2014-03-03 00:00:00,2014-03-03 00:00:00,TMP,surface,-103.125,25.0393,295.645
2014-03-03 00:00:00,2014-03-03 00:00:00,TMP,surface,-102.188,25.0393,295.186
2014-03-03 00:00:00,2014-03-03 00:00:00,TMP,surface,-101.25,25.0393,292.275
2014-03-03 00:00:00,2014-03-03 00:00:00,TMP,surface,-100.313,25.0393,292.139
2014-03-03 00:00:00,2014-03-03 00:00:00,TMP,surface,-99.3754,25.0393,295.341
2014-03-03 00:00:00,2014-03-03 00:00:00,TMP,surface,-98.4379,25.0393,299.319
2014-03-03 00:00:00,2014-03-03 00:00:00,TMP,surface,-97.5004,25.0393,302.077
2014-03-03 00:00:00,2014-03-03 00:00:00,TMP,surface,-96.5629,25.0393,302.667
2014-03-03 00:00:00,2014-03-03 00:00:00,TMP,surface,-95.6254,25.0393,303.005
2014-03-03 00:00:00,2014-03-03 00:00:00,TMP,surface,-94.6879,25.0393,303.163
2014-03-03 00:00:00,2014-03-03 00:00:00,TMP,surface,-93.7504,25.0393,303.093
2014-03-03 00:00:00,2014-03-03 00:00:00,TMP,surface,-92.8129,25.0393,303.176
2014-03-03 00:00:00,2014-03-03 00:00:00,TMP,surface,-107.813,25.9842,295.955
2014-03-03 00:00:00,2014-03-03 00:00:00,TMP,surface,-106.875,25.9842,291.238
2014-03-03 00:00:00,2014-03-03 00:00:00,TMP,surface,-105.938,25.9842,288.8
2014-03-03 00:00:00,2014-03-03 00:00:00,TMP,surface,-105,25.9842,289.882
2014-03-03 00:00:00,2014-03-03 00:00:00,TMP,surface,-104.063,25.9842,295.149
2014-03-03 00:00:00,2014-03-03 00:00:00,TMP,surface,-103.125,25.9842,297.744
2014-03-03 00:00:00,2014-03-03 00:00:00,TMP,surface,-102.188,25.9842,296.495
2014-03-03 00:00:00,2014-03-03 00:00:00,TMP,surface,-101.25,25.9842,295.018
2014-03-03 00:00:00,2014-03-03 00:00:00,TMP,surface,-100.313,25.9842,295.131
2014-03-03 00:00:00,2014-03-03 00:00:00,TMP,surface,-99.3754,25.9842,298.474
2014-03-03 00:00:00,2014-03-03 00:00:00,TMP,surface,-98.4379,25.9842,300.515
2014-03-03 00:00:00,2014-03-03 00:00:00,TMP,surface,-97.5004,25.9842,300.775
2014-03-03 00:00:00,2014-03-03 00:00:00,TMP,surface,-96.5629,25.9842,301.704
2014-03-03 00:00:00,2014-03-03 00:00:00,TMP,surface,-95.6254,25.9842,302.48
2014-03-03 00:00:00,2014-03-03 00:00:00,TMP,surface,-94.6879,25.9842,302.806
2014-03-03 00:00:00,2014-03-03 00:00:00,TMP,surface,-93.7504,25.9842,302.707
2014-03-03 00:00:00,2014-03-03 00:00:00,TMP,surface,-92.8129,25.9842,302.677
2014-03-03 00:00:00,2014-03-03 00:00:00,TMP,surface,-107.813,26.929,292.067
2014-03-03 00:00:00,2014-03-03 00:00:00,TMP,surface,-106.875,26.929,289.095
2014-03-03 00:00:00,2014-03-03 00:00:00,TMP,surface,-105.938,26.929,289.943
2014-03-03 00:00:00,2014-03-03 00:00:00,TMP,surface,-105,26.929,293.055
2014-03-03 00:00:00,2014-03-03 00:00:00,TMP,surface,-104.063,26.929,296.111
2014-03-03 00:00:00,2014-03-03 00:00:00,TMP,surface,-103.125,26.929,295.619
2014-03-03 00:00:00,2014-03-03 00:00:00,TMP,surface,-102.188,26.929,295.293
2014-03-03 00:00:00,2014-03-03 00:00:00,TMP,surface,-101.25,26.929,296.192
2014-03-03 00:00:00,2014-03-03 00:00:00,TMP,surface,-100.313,26.929,298.194
2014-03-03 00:00:00,2014-03-03 00:00:00,TMP,surface,-99.3754,26.929,299.92
2014-03-03 00:00:00,2014-03-03 00:00:00,TMP,surface,-98.4379,26.929,299.656
2014-03-03 00:00:00,2014-03-03 00:00:00,TMP,surface,-97.5004,26.929,300.495
2014-03-03 00:00:00,2014-03-03 00:00:00,TMP,surface,-96.5629,26.929,301.112
2014-03-03 00:00:00,2014-03-03 00:00:00,TMP,surface,-95.6254,26.929,302.003
2014-03-03 00:00:00,2014-03-03 00:00:00,TMP,surface,-94.6879,26.929,302.478
2014-03-03 00:00:00,2014-03-03 00:00:00,TMP,surface,-93.7504,26.929,302.506
2014-03-03 00:00:00,2014-03-03 00:00:00,TMP,surface,-92.8129,26.929,302.522
2014-03-03 00:00:00,2014-03-03 00:00:00,TMP,surface,-107.813,27.8739,290.03
2014-03-03 00:00:00,2014-03-03 00:00:00,TMP,surface,-106.875,27.8739,288.667
2014-03-03 00:00:00,2014-03-03 00:00:00,TMP,surface,-105.938,27.8739,291.469
2014-03-03 00:00:00,2014-03-03 00:00:00,TMP,surface,-105,27.8739,295.176
2014-03-03 00:00:00,2014-03-03 00:00:00,TMP,surface,-104.063,27.8739,295.472
2014-03-03 00:00:00,2014-03-03 00:00:00,TMP,surface,-103.125,27.8739,294.072
2014-03-03 00:00:00,2014-03-03 00:00:00,TMP,surface,-102.188,27.8739,294.032
2014-03-03 00:00:00,2014-03-03 00:00:00,TMP,surface,-101.25,27.8739,296.445
2014-03-03 00:00:00,2014-03-03 00:00:00,TMP,surface,-100.313,27.8739,298.835
2014-03-03 00:00:00,2014-03-03 00:00:00,TMP,surface,-99.3754,27.8739,299.301
2014-03-03 00:00:00,2014-03-03 00:00:00,TMP,surface,-98.4379,27.8739,298.794
2014-03-03 00:00:00,2014-03-03 00:00:00,TMP,surface,-97.5004,27.8739,300.08
2014-03-03 00:00:00,2014-03-03 00:00:00,TMP,surface,-96.5629,27.8739,301.829
2014-03-03 00:00:00,2014-03-03 00:00:00,TMP,surface,-95.6254,27.8739,302.219
2014-03-03 00:00:00,2014-03-03 00:00:00,TMP,surface,-94.6879,27.8739,302.482
2014-03-03 00:00:00,2014-03-03 00:00:00,TMP,surface,-93.7504,27.8739,302.526
2014-03-03 00:00:00,2014-03-03 00:00:00,TMP,surface,-92.8129,27.8739,302.523
2014-03-03 00:00:00,2014-03-03 00:00:00,TMP,surface,-107.813,28.8188,289.014
2014-03-03 00:00:00,2014-03-03 00:00:00,TMP,surface,-106.875,28.8188,289.37
2014-03-03 00:00:00,2014-03-03 00:00:00,TMP,surface,-105.938,28.8188,292.851
2014-03-03 00:00:00,2014-03-03 00:00:00,TMP,surface,-105,28.8188,295.568
2014-03-03 00:00:00,2014-03-03 00:00:00,TMP,surface,-104.063,28.8188,294.286
2014-03-03 00:00:00,2014-03-03 00:00:00,TMP,surface,-103.125,28.8188,293.173
2014-03-03 00:00:00,2014-03-03 00:00:00,TMP,surface,-102.188,28.8188,294.047
2014-03-03 00:00:00,2014-03-03 00:00:00,TMP,surface,-101.25,28.8188,296.472
2014-03-03 00:00:00,2014-03-03 00:00:00,TMP,surface,-100.313,28.8188,297.794
2014-03-03 00:00:00,2014-03-03 00:00:00,TMP,surface,-99.3754,28.8188,297.283
2014-03-03 00:00:00,2014-03-03 00:00:00,TMP,surface,-98.4379,28.8188,296.818
2014-03-03 00:00:00,2014-03-03 00:00:00,TMP,surface,-97.5004,28.8188,297.266
2014-03-03 00:00:00,2014-03-03 00:00:00,TMP,surface,-96.5629,28.8188,298.283
2014-03-03 00:00:00,2014-03-03 00:00:00,TMP,surface,-95.6254,28.8188,299.974
2014-03-03 00:00:00,2014-03-03 00:00:00,TMP,surface,-94.6879,28.8188,301.742
2014-03-03 00:00:00,2014-03-03 00:00:00,TMP,surface,-93.7504,28.8188,302.155
2014-03-03 00:00:00,2014-03-03 00:00:00,TMP,surface,-92.8129,28.8188,302.269
2014-03-03 00:00:00,2014-03-03 00:00:00,TMP,surface,-107.813,29.7637,291.037
2014-03-03 00:00:00,2014-03-03 00:00:00,TMP,surface,-106.875,29.7637,292.034
2014-03-03 00:00:00,2014-03-03 00:00:00,TMP,surface,-105.938,29.7637,294.562
2014-03-03 00:00:00,2014-03-03 00:00:00,TMP,surface,-105,29.7637,294.834
2014-03-03 00:00:00,2014-03-03 00:00:00,TMP,surface,-104.063,29.7637,294.149
2014-03-03 00:00:00,2014-03-03 00:00:00,TMP,surface,-103.125,29.7637,294.358
2014-03-03 00:00:00,2014-03-03 00:00:00,TMP,surface,-102.188,29.7637,295.936
2014-03-03 00:00:00,2014-03-03 00:00:00,TMP,surface,-101.25,29.7637,296.862
2014-03-03 00:00:00,2014-03-03 00:00:00,TMP,surface,-100.313,29.7637,296.395
2014-03-03 00:00:00,2014-03-03 00:00:00,TMP,surface,-99.3754,29.7637,295.503
2014-03-03 00:00:00,2014-03-03 00:00:00,TMP,surface,-98.4379,29.7637,295.443
2014-03-03 00:00:00,2014-03-03 00:00:00,TMP,surface,-97.5004,29.7637,296.238
2014-03-03 00:00:00,2014-03-03 00:00:00,TMP,surface,-96.5629,29.7637,297.008
2014-03-03 00:00:00,2014-03-03 00:00:00,TMP,surface,-95.6254,29.7637,297.528
2014-03-03 00:00:00,2014-03-03 00:00:00,TMP,surface,-94.6879,29.7637,299.055
2014-03-03 00:00:00,2014-03-03 00:00:00,TMP,surface,-93.7504,29.7637,300.823
2014-03-03 00:00:00,2014-03-03 00:00:00,TMP,surface,-92.8129,29.7637,298.706
2014-03-03 00:00:00,2014-03-03 00:00:00,TMP,surface,-107.813,30.7085,294.997
2014-03-03 00:00:00,2014-03-03 00:00:00,TMP,surface,-106.875,30.7085,296.29
2014-03-03 00:00:00,2014-03-03 00:00:00,TMP,surface,-105.938,30.7085,295.882
2014-03-03 00:00:00,2014-03-03 00:00:00,TMP,surface,-105,30.7085,294.632
2014-03-03 00:00:00,2014-03-03 00:00:00,TMP,surface,-104.063,30.7085,293.899
2014-03-03 00:00:00,2014-03-03 00:00:00,TMP,surface,-103.125,30.7085,295.174
2014-03-03 00:00:00,2014-03-03 00:00:00,TMP,surface,-102.188,30.7085,296.503
2014-03-03 00:00:00,2014-03-03 00:00:00,TMP,surface,-101.25,30.7085,296.482
2014-03-03 00:00:00,2014-03-03 00:00:00,TMP,surface,-100.313,30.7085,295.667
2014-03-03 00:00:00,2014-03-03 00:00:00,TMP,surface,-99.3754,30.7085,295.293
2014-03-03 00:00:00,2014-03-03 00:00:00,TMP,surface,-98.4379,30.7085,295.853
2014-03-03 00:00:00,2014-03-03 00:00:00,TMP,surface,-97.5004,30.7085,296.763
2014-03-03 00:00:00,2014-03-03 00:00:00,TMP,surface,-96.5629,30.7085,297.198
2014-03-03 00:00:00,2014-03-03 00:00:00,TMP,surface,-95.6254,30.7085,297.189
2014-03-03 00:00:00,2014-03-03 00:00:00,TMP,surface,-94.6879,30.7085,297.31
2014-03-03 00:00:00,2014-03-03 00:00:00,TMP,surface,-93.7504,30.7085,297.543
2014-03-03 00:00:00,2014-03-03 00:00:00,TMP,surface,-92.8129,30.7085,297.403
2014-03-03 00:00:00,2014-03-03 00:00:00,TMP,surface,-107.813,31.6534,296.28
2014-03-03 00:00:00,2014-03-03 00:00:00,TMP,surface,-106.875,31.6534,296.831
2014-03-03 00:00:00,2014-03-03 00:00:00,TMP,surface,-105.938,31.6534,295.498
2014-03-03 00:00:00,2014-03-03 00:00:00,TMP,surface,-105,31.6534,294.411
2014-03-03 00:00:00,2014-03-03 00:00:00,TMP,surface,-104.063,31.6534,294.647
2014-03-03 00:00:00,2014-03-03 00:00:00,TMP,surface,-103.125,31.6534,295.472
2014-03-03 00:00:00,2014-03-03 00:00:00,TMP,surface,-102.188,31.6534,295.861
2014-03-03 00:00:00,2014-03-03 00:00:00,TMP,surface,-101.25,31.6534,295.594
2014-03-03 00:00:00,2014-03-03 00:00:00,TMP,surface,-100.313,31.6534,295.416
2014-03-03 00:00:00,2014-03-03 00:00:00,TMP,surface,-99.3754,31.6534,295.854
2014-03-03 00:00:00,2014-03-03 00:00:00,TMP,surface,-98.4379,31.6534,296.63
2014-03-03 00:00:00,2014-03-03 00:00:00,TMP,surface,-97.5004,31.6534,297.197
2014-03-03 00:00:00,2014-03-03 00:00:00,TMP,surface,-96.5629,31.6534,297.16
2014-03-03 00:00:00,2014-03-03 00:00:00,TMP,surface,-95.6254,31.6534,296.859
2014-03-03 00:00:00,2014-03-03 00:00:00,TMP,surface,-94.6879,31.6534,296.839
2014-03-03 00:00:00,2014-03-03 00:00:00,TMP,surface,-93.7504,31.6534,296.922
2014-03-03 00:00:00,2014-03-03 00:00:00,TMP,surface,-92.8129,31.6534,297.151
2014-03-03 00:00:00,2014-03-03 00:00:00,TMP,surface,-107.813,32.5983,292.629
2014-03-03 00:00:00,2014-03-03 00:00:00,TMP,surface,-106.875,32.5983,293.229
2014-03-03 00:00:00,2014-03-03 00:00:00,TMP,surface,-105.938,32.5983,293.445
2014-03-03 00:00:00,2014-03-03 00:00:00,TMP,surface,-105,32.5983,293.373
2014-03-03 00:00:00,2014-03-03 00:00:00,TMP,surface,-104.063,32.5983,294.526
2014-03-03 00:00:00,2014-03-03 00:00:00,TMP,surface,-103.125,32.5983,295.051
2014-03-03 00:00:00,2014-03-03 00:00:00,TMP,surface,-102.188,32.5983,294.571
2014-03-03 00:00:00,2014-03-03 00:00:00,TMP,surface,-101.25,32.5983,294.534
2014-03-03 00:00:00,2014-03-03 00:00:00,TMP,surface,-100.313,32.5983,295.315
2014-03-03 00:00:00,2014-03-03 00:00:00,TMP,surface,-99.3754,32.5983,296.235
2014-03-03 00:00:00,2014-03-03 00:00:00,TMP,surface,-98.4379,32.5983,296.671
2014-03-03 00:00:00,2014-03-03 00:00:00,TMP,surface,-97.5004,32.5983,296.707
2014-03-03 00:00:00,2014-03-03 00:00:00,TMP,surface,-96.5629,32.5983,296.582
2014-03-03 00:00:00,2014-03-03 00:00:00,TMP,surface,-95.6254,32.5983,296.406
2014-03-03 00:00:00,2014-03-03 00:00:00,TMP,surface,-94.6879,32.5983,296.237
2014-03-03 00:00:00,2014-03-03 00:00:00,TMP,surface,-93.7504,32.5983,296.182
2014-03-03 00:00:00,2014-03-03 00:00:00,TMP,surface,-92.8129,32.5983,296.696
2014-03-03 00:00:00,2014-03-03 00:00:00,TMP,surface,-107.813,33.5432,288.651
2014-03-03 00:00:00,2014-03-03 00:00:00,TMP,surface,-106.875,33.5432,290.027
2014-03-03 00:00:00,2014-03-03 00:00:00,TMP,surface,-105.938,33.5432,290.957
2014-03-03 00:00:00,2014-03-03 00:00:00,TMP,surface,-105,33.5432,292.197
2014-03-03 00:00:00,2014-03-03 00:00:00,TMP,surface,-104.063,33.5432,293.906
2014-03-03 00:00:00,2014-03-03 00:00:00,TMP,surface,-103.125,33.5432,293.966
2014-03-03 00:00:00,2014-03-03 00:00:00,TMP,surface,-102.188,33.5432,293.411
2014-03-03 00:00:00,2014-03-03 00:00:00,TMP,surface,-101.25,33.5432,293.688
2014-03-03 00:00:00,2014-03-03 00:00:00,TMP,surface,-100.313,33.5432,295.019
2014-03-03 00:00:00,2014-03-03 00:00:00,TMP,surface,-99.3754,33.5432,296.234
2014-03-03 00:00:00,2014-03-03 00:00:00,TMP,surface,-98.4379,33.5432,296.501
2014-03-03 00:00:00,2014-03-03 00:00:00,TMP,surface,-97.5004,33.5432,296.138
2014-03-03 00:00:00,2014-03-03 00:00:00,TMP,surface,-96.5629,33.5432,295.771
2014-03-03 00:00:00,2014-03-03 00:00:00,TMP,surface,-95.6254,33.5432,295.544
2014-03-03 00:00:00,2014-03-03 00:00:00,TMP,surface,-94.6879,33.5432,295.301
2014-03-03 00:00:00,2014-03-03 00:00:00,TMP,surface,-93.7504,33.5432,295.182
2014-03-03 00:00:00,2014-03-03 00:00:00,TMP,surface,-92.8129,33.5432,295.555
2014-03-03 00:00:00,2014-03-03 00:00:00,TMP,surface,-107.813,34.4881,287.89
2014-03-03 00:00:00,2014-03-03 00:00:00,TMP,surface,-106.875,34.4881,289.447
2014-03-03 00:00:00,2014-03-03 00:00:00,TMP,surface,-105.938,34.4881,290.378
2014-03-03 00:00:00,2014-03-03 00:00:00,TMP,surface,-105,34.4881,291.566
2014-03-03 00:00:00,2014-03-03 00:00:00,TMP,surface,-104.063,34.4881,292.616
2014-03-03 00:00:00,2014-03-03 00:00:00,TMP,surface,-103.125,34.4881,293.019
2014-03-03 00:00:00,2014-03-03 00:00:00,TMP,surface,-102.188,34.4881,292.955
2014-03-03 00:00:00,2014-03-03 00:00:00,TMP,surface,-101.25,34.4881,293.216
2014-03-03 00:00:00,2014-03-03 00:00:00,TMP,surface,-100.313,34.4881,294.296
2014-03-03 00:00:00,2014-03-03 00:00:00,TMP,surface,-99.3754,34.4881,295.283
2014-03-03 00:00:00,2014-03-03 00:00:00,TMP,surface,-98.4379,34.4881,295.578
2014-03-03 00:00:00,2014-03-03 00:00:00,TMP,surface,-97.5004,34.4881,295.352
2014-03-03 00:00:00,2014-03-03 00:00:00,TMP,surface,-96.5629,34.4881,295.165
2014-03-03 00:00:00,2014-03-03 00:00:00,TMP,surface,-95.6254,34.4881,294.995
2014-03-03 00:00:00,2014-03-03 00:00:00,TMP,surface,-94.6879,34.4881,294.384
2014-03-03 00:00:00,2014-03-03 00:00:00,TMP,surface,-93.7504,34.4881,293.75
2014-03-03 00:00:00,2014-03-03 00:00:00,TMP,surface,-92.8129,34.4881,293.927
2014-03-03 00:00:00,2014-03-03 00:00:00,TMP,surface,-107.813,35.4329,288.829
2014-03-03 00:00:00,2014-03-03 00:00:00,TMP,surface,-106.875,35.4329,288.784
2014-03-03 00:00:00,2014-03-03 00:00:00,TMP,surface,-105.938,35.4329,288.57
2014-03-03 00:00:00,2014-03-03 00:00:00,TMP,surface,-105,35.4329,289.33
2014-03-03 00:00:00,2014-03-03 00:00:00,TMP,surface,-104.063,35.4329,291.554
2014-03-03 00:00:00,2014-03-03 00:00:00,TMP,surface,-103.125,35.4329,292.792
2014-03-03 00:00:00,2014-03-03 00:00:00,TMP,surface,-102.188,35.4329,293.005
2014-03-03 00:00:00,2014-03-03 00:00:00,TMP,surface,-101.25,35.4329,293.216
2014-03-03 00:00:00,2014-03-03 00:00:00,TMP,surface,-100.313,35.4329,293.661
2014-03-03 00:00:00,2014-03-03 00:00:00,TMP,surface,-99.3754,35.4329,294.272
2014-03-03 00:00:00,2014-03-03 00:00:00,TMP,surface,-98.4379,35.4329,294.719
2014-03-03 00:00:00,2014-03-03 00:00:00,TMP,surface,-97.5004,35.4329,294.965
2014-03-03 00:00:00,2014-03-03 00:00:00,TMP,surface,-96.5629,35.4329,295.151
2014-03-03 00:00:00,2014-03-03 00:00:00,TMP,surface,-95.6254,35.4329,294.991
2014-03-03 00:00:00,2014-03-03 00:00:00,TMP,surface,-94.6879,35.4329,294.23
2014-03-03 00:00:00,2014-03-03 00:00:00,TMP,surface,-93.7504,35.4329,293.315
2014-03-03 00:00:00,2014-03-03 00:00:00,TMP,surface,-92.8129,35.4329,292.75
2014-03-03 00:00:00,2014-03-03 00:00:00,TMP,surface,-107.813,36.3778,288.216
2014-03-03 00:00:00,2014-03-03 00:00:00,TMP,surface,-106.875,36.3778,285.73
2014-03-03 00:00:00,2014-03-03 00:00:00,TMP,surface,-105.938,36.3778,285.917
2014-03-03 00:00:00,2014-03-03 00:00:00,TMP,surface,-105,36.3778,286.851
2014-03-03 00:00:00,2014-03-03 00:00:00,TMP,surface,-104.063,36.3778,289.296
2014-03-03 00:00:00,2014-03-03 00:00:00,TMP,surface,-103.125,36.3778,291.235
2014-03-03 00:00:00,2014-03-03 00:00:00,TMP,surface,-102.188,36.3778,292.518
2014-03-03 00:00:00,2014-03-03 00:00:00,TMP,surface,-101.25,36.3778,293.048
2014-03-03 00:00:00,2014-03-03 00:00:00,TMP,surface,-100.313,36.3778,293.543
2014-03-03 00:00:00,2014-03-03 00:00:00,TMP,surface,-99.3754,36.3778,294.048
2014-03-03 00:00:00,2014-03-03 00:00:00,TMP,surface,-98.4379,36.3778,294.342
2014-03-03 00:00:00,2014-03-03 00:00:00,TMP,surface,-97.5004,36.3778,294.555
2014-03-03 00:00:00,2014-03-03 00:00:00,TMP,surface,-96.5629,36.3778,294.693
2014-03-03 00:00:00,2014-03-03 00:00:00,TMP,surface,-95.6254,36.3778,294.472
2014-03-03 00:00:00,2014-03-03 00:00:00,TMP,surface,-94.6879,36.3778,293.76
2014-03-03 00:00:00,2014-03-03 00:00:00,TMP,surface,-93.7504,36.3778,292.861
2014-03-03 00:00:00,2014-03-03 00:00:00,TMP,surface,-92.8129,36.3778,292.391
2014-03-03 00:00:00,2014-03-03 00:00:00,PRATE,surface,-107.813,25.0393,2.1e-05
2014-03-03 00:00:00,2014-03-03 00:00:00,PRATE,surface,-106.875,25.0393,9.23e-05
2014-03-03 00:00:00,2014-03-03 00:00:00,PRATE,surface,-105.938,25.0393,0.0001142
2014-03-03 00:00:00,2014-03-03 00:00:00,PRATE,surface,-105,25.0393,5.74e-05
2014-03-03 00:00:00,2014-03-03 00:00:00,PRATE,surface,-104.063,25.0393,3.37e-05
2014-03-03 00:00:00,2014-03-03 00:00:00,PRATE,surface,-103.125,25.0393,7.5e-06
2014-03-03 00:00:00,2014-03-03 00:00:00,PRATE,surface,-102.188,25.0393,1.15e-05
2014-03-03 00:00:00,2014-03-03 00:00:00,PRATE,surface,-101.25,25.0393,1.92e-05
2014-03-03 00:00:00,2014-03-03 00:00:00,PRATE,surface,-100.313,25.0393,3.04e-05
2014-03-03 00:00:00,2014-03-03 00:00:00,PRATE,surface,-99.3754,25.0393,3.73e-05
2014-03-03 00:00:00,2014-03-03 00:00:00,PRATE,surface,-98.4379,25.0393,3.08e-05
2014-03-03 00:00:00,2014-03-03 00:00:00,PRATE,surface,-97.5004,25.0393,4.29e-05
2014-03-03 00:00:00,2014-03-03 00:00:00,PRATE,surface,-96.5629,25.0393,7.69e-05
2014-03-03 00:00:00,2014-03-03 00:00:00,PRATE,surface,-95.6254,25.0393,6.16e-05
2014-03-03 00:00:00,2014-03-03 00:00:00,PRATE,surface,-94.6879,25.0393,3.93e-05
2014-03-03 00:00:00,2014-03-03 00:00:00,PRATE,surface,-93.7504,25.0393,6.05e-05
2014-03-03 00:00:00,2014-03-03 00:00:00,PRATE,surface,-92.8129,25.0393,9.93e-05
2014-03-03 00:00:00,2014-03-03 00:00:00,PRATE,surface,-107.813,25.9842,7.44e-05
2014-03-03 00:00:00,2014-03-03 00:00:00,PRATE,surface,-106.875,25.9842,0.0001122
2014-03-03 00:00:00,2014-03-03 00:00:00,PRATE,surface,-105.938,25.9842,7.7e-05
2014-03-03 00:00:00,2014-03-03 00:00:00,PRATE,surface,-105,25.9842,6.71e-05
2014-03-03 00:00:00,2014-03-03 00:00:00,PRATE,surface,-104.063,25.9842,1.79e-05
2014-03-03 00:00:00,2014-03-03 00:00:00,PRATE,surface,-103.125,25.9842,2.3e-06
2014-03-03 00:00:00,2014-03-03 00:00:00,PRATE,surface,-102.188,25.9842,1.4e-06
2014-03-03 00:00:00,2014-03-03 00:00:00,PRATE,surface,-101.25,25.9842,4.8e-06
2014-03-03 00:00:00,2014-03-03 00:00:00,PRATE,surface,-100.313,25.9842,1.28e-05
2014-03-03 00:00:00,2014-03-03 00:00:00,PRATE,surface,-99.3754,25.9842,2.04e-05
2014-03-03 00:00:00,2014-03-03 00:00:00,PRATE,surface,-98.4379,25.9842,2.96e-05
2014-03-03 00:00:00,2014-03-03 00:00:00,PRATE,surface,-97.5004,25.9842,3.69e-05
2014-03-03 00:00:00,2014-03-03 00:00:00,PRATE,surface,-96.5629,25.9842,8.63e-05
2014-03-03 00:00:00,2014-03-03 00:00:00,PRATE,surface,-95.6254,25.9842,0.0001015
2014-03-03 00:00:00,2014-03-03 00:00:00,PRATE,surface,-94.6879,25.9842,6.3e-05
2014-03-03 00:00:00,2014-03-03 00:00:00,PRATE,surface,-93.7504,25.9842,6.79e-05
2014-03-03 00:00:00,2014-03-03 00:00:00,PRATE,surface,-92.8129,25.9842,8.16e-05
2014-03-03 00:00:00,2014-03-03 00:00:00,PRATE,surface,-107.813,26.929,0.0001143
2014-03-03 00:00:00,2014-03-03 00:00:00,PRATE,surface,-106.875,26.929,9.12e-05
2014-03-03 00:00:00,2014-03-03 00:00:00,PRATE,surface,-105.938,26.929,7.05e-05
2014-03-03 00:00:00,2014-03-03 00:00:00,PRATE,surface,-105,26.929,4.86e-05
2014-03-03 00:00:00,2014-03-03 00:00:00,PRATE,surface,-104.063,26.929,2.34e-05
2014-03-03 00:00:00,2014-03-03 00:00:00,PRATE,surface,-103.125,26.929,2.28e-05
2014-03-03 00:00:00,2014-03-03 00:00:00,PRATE,surface,-102.188,26.929,1.33e-05
2014-03-03 00:00:00,2014-03-03 00:00:00,PRATE,surface,-101.25,26.929,4.2e-06
2014-03-03 00:00:00,2014-03-03 00:00:00,PRATE,surface,-100.313,26.929,6.2e-06
2014-03-03 00:00:00,2014-03-03 00:00:00,PRATE,surface,-99.3754,26.929,2.4e-05
2014-03-03 00:00:00,2014-03-03 00:00:00,PRATE,surface,-98.4379,26.929,4.14e-05
2014-03-03 00:00:00,2014-03-03 00:00:00,PRATE,surface,-97.5004,26.929,3.65e-05
2014-03-03 00:00:00,2014-03-03 00:00:00,PRATE,surface,-96.5629,26.929,3.35e-05
2014-03-03 00:00:00,2014-03-03 00:00:00,PRATE,surface,-95.6254,26.929,3.79e-05
2014-03-03 00:00:00,2014-03-03 00:00:00,PRATE,surface,-94.6879,26.929,4.14e-05
2014-03-03 00:00:00,2014-03-03 00:00:00,PRATE,surface,-93.7504,26.929,5.37e-05
2014-03-03 00:00:00,2014-03-03 00:00:00,PRATE,surface,-92.8129,26.929,7.61e-05
2014-03-03 00:00:00,2014-03-03 00:00:00,PRATE,surface,-107.813,27.8739,0.0001001
2014-03-03 00:00:00,2014-03-03 00:00:00,PRATE,surface,-106.875,27.8739,6.74e-05
2014-03-03 00:00:00,2014-03-03 00:00:00,PRATE,surface,-105.938,27.8739,4.11e-05
2014-03-03 00:00:00,2014-03-03 00:00:00,PRATE,surface,-105,27.8739,1.77e-05
2014-03-03 00:00:00,2014-03-03 00:00:00,PRATE,surface,-104.063,27.8739,3.78e-05
2014-03-03 00:00:00,2014-03-03 00:00:00,PRATE,surface,-103.125,27.8739,5.03e-05
2014-03-03 00:00:00,2014-03-03 00:00:00,PRATE,surface,-102.188,27.8739,2.7e-05
2014-03-03 00:00:00,2014-03-03 00:00:00,PRATE,surface,-101.25,27.8739,9.6e-06
2014-03-03 00:00:00,2014-03-03 00:00:00,PRATE,surface,-100.313,27.8739,9.5e-06
2014-03-03 00:00:00,2014-03-03 00:00:00,PRATE,surface,-99.3754,27.8739,1.88e-05
2014-03-03 00:00:00,2014-03-03 00:00:00,PRATE,surface,-98.4379,27.8739,3.05e-05
2014-03-03 00:00:00,2014-03-03 00:00:00,PRATE,surface,-97.5004,27.8739,2.79e-05
2014-03-03 00:00:00,2014-03-03 00:00:00,PRATE,surface,-96.5629,27.8739,1.74e-05
2014-03-03 00:00:00,2014-03-03 00:00:00,PRATE,surface,-95.6254,27.8739,1.7e-05
2014-03-03 00:00:00,2014-03-03 00:00:00,PRATE,surface,-94.6879,27.8739,3.13e-05
2014-03-03 00:00:00,2014-03-03 00:00:00,PRATE,surface,-93.7504,27.8739,5.34e-05
2014-03-03 00:00:00,2014-03-03 00:00:00,PRATE,surface,-92.8129,27.8739,5.12e-05
2014-03-03 00:00:00,2014-03-03 00:00:00,PRATE,surface,-107.813,28.8188,7.08e-05
2014-03-03 00:00:00,2014-03-03 00:00:00,PRATE,surface,-106.875,28.8188,5.15e-05
2014-03-03 00:00:00,2014-03-03 00:00:00,PRATE,surface,-105.938,28.8188,3.32e-05
2014-03-03 00:00:00,2014-03-03 00:00:00,PRATE,surface,-105,28.8188,1.63e-05
2014-03-03 00:00:00,2014-03-03 00:00:00,PRATE,surface,-104.063,28.8188,3.88e-05
2014-03-03 00:00:00,2014-03-03 00:00:00,PRATE,surface,-103.125,28.8188,4.47e-05
2014-03-03 00:00:00,2014-03-03 00:00:00,PRATE,surface,-102.188,28.8188,1.93e-05
2014-03-03 00:00:00,2014-03-03 00:00:00,PRATE,surface,-101.25,28.8188,1.07e-05
2014-03-03 00:00:00,2014-03-03 00:00:00,PRATE,surface,-100.313,28.8188,1.41e-05
2014-03-03 00:00:00,2014-03-03 00:00:00,PRATE,surface,-99.3754,28.8188,2.1e-05
2014-03-03 00:00:00,2014-03-03 00:00:00,PRATE,surface,-98.4379,28.8188,2.43e-05
2014-03-03 00:00:00,2014-03-03 00:00:00,PRATE,surface,-97.5004,28.8188,2.22e-05
2014-03-03 00:00:00,2014-03-03 00:00:00,PRATE,surface,-96.5629,28.8188,1.96e-05
2014-03-03 00:00:00,2014-03-03 00:00:00,PRATE,surface,-95.6254,28.8188,2.21e-05
2014-03-03 00:00:00,2014-03-03 00:00:00,PRATE,surface,-94.6879,28.8188,2.91e-05
2014-03-03 00:00:00,2014-03-03 00:00:00,PRATE,surface,-93.7504,28.8188,3.32e-05
2014-03-03 00:00:00,2014-03-03 00:00:00,PRATE,surface,-92.8129,28.8188,2.84e-05
2014-03-03 00:00:00,2014-03-03 00:00:00,PRATE,surface,-107.813,29.7637,3.95e-05
2014-03-03 00:00:00,2014-03-03 00:00:00,PRATE,surface,-106.875,29.7637,3.51e-05
2014-03-03 00:00:00,2014-03-03 00:00:00,PRATE,surface,-105.938,29.7637,2.62e-05
2014-03-03 00:00:00,2014-03-03 00:00:00,PRATE,surface,-105,29.7637,2.63e-05
2014-03-03 00:00:00,2014-03-03 00:00:00,PRATE,surface,-104.063,29.7637,4.16e-05
2014-03-03 00:00:00,2014-03-03 00:00:00,PRATE,surface,-103.125,29.7637,3.31e-05
2014-03-03 00:00:00,2014-03-03 00:00:00,PRATE,surface,-102.188,29.7637,1.16e-05
2014-03-03 00:00:00,2014-03-03 00:00:00,PRATE,surface,-101.25,29.7637,8.8e-06
2014-03-03 00:00:00,2014-03-03 00:00:00,PRATE,surface,-100.313,29.7637,1.35e-05
2014-03-03 00:00:00,2014-03-03 00:00:00,PRATE,surface,-99.3754,29.7637,2e-05
2014-03-03 00:00:00,2014-03-03 00:00:00,PRATE,surface,-98.4379,29.7637,2.06e-05
2014-03-03 00:00:00,2014-03-03 00:00:00,PRATE,surface,-97.5004,29.7637,1.48e-05
2014-03-03 00:00:00,2014-03-03 00:00:00,PRATE,surface,-96.5629,29.7637,1.5e-05
2014-03-03 00:00:00,2014-03-03 00:00:00,PRATE,surface,-95.6254,29.7637,2.6e-05
2014-03-03 00:00:00,2014-03-03 00:00:00,PRATE,surface,-94.6879,29.7637,3.29e-05
2014-03-03 00:00:00,2014-03-03 00:00:00,PRATE,surface,-93.7504,29.7637,2.76e-05
2014-03-03 00:00:00,2014-03-03 00:00:00,PRATE,surface,-92.8129,29.7637,2.55e-05
2014-03-03 00:00:00,2014-03-03 00:00:00,PRATE,surface,-107.813,30.7085,8.5e-06
2014-03-03 00:00:00,2014-03-03 00:00:00,PRATE,surface,-106.875,30.7085,1.02e-05
2014-03-03 00:00:00,2014-03-03 00:00:00,PRATE,surface,-105.938,30.7085,1.82e-05
2014-03-03 00:00:00,2014-03-03 00:00:00,PRATE,surface,-105,30.7085,3.12e-05
2014-03-03 00:00:00,2014-03-03 00:00:00,PRATE,surface,-104.063,30.7085,3.91e-05
2014-03-03 00:00:00,2014-03-03 00:00:00,PRATE,surface,-103.125,30.7085,3.19e-05
2014-03-03 00:00:00,2014-03-03 00:00:00,PRATE,surface,-102.188,30.7085,1.52e-05
2014-03-03 00:00:00,2014-03-03 00:00:00,PRATE,surface,-101.25,30.7085,1.12e-05
2014-03-03 00:00:00,2014-03-03 00:00:00,PRATE,surface,-100.313,30.7085,2.77e-05
2014-03-03 00:00:00,2014-03-03 00:00:00,PRATE,surface,-99.3754,30.7085,2.8e-05
2014-03-03 00:00:00,2014-03-03 00:00:00,PRATE,surface,-98.4379,30.7085,1.76e-05
2014-03-03 00:00:00,2014-03-03 00:00:00,PRATE,surface,-97.5004,30.7085,1.2e-05
2014-03-03 00:00:00,2014-03-03 00:00:00,PRATE,surface,-96.5629,30.7085,1.45e-05
2014-03-03 00:00:00,2014-03-03 00:00:00,PRATE,surface,-95.6254,30.7085,1.94e-05
2014-03-03 00:00:00,2014-03-03 00:00:00,PRATE,surface,-94.6879,30.7085,1.88e-05
2014-03-03 00:00:00,2014-03-03 00:00:00,PRATE,surface,-93.7504,30.7085,1.35e-05
2014-03-03 00:00:00,2014-03-03 00:00:00,PRATE,surface,-92.8129,30.7085,9e-06
2014-03-03 00:00:00,2014-03-03 00:00:00,PRATE,surface,-107.813,31.6534,1.97e-05
2014-03-03 00:00:00,2014-03-03 00:00:00,PRATE,surface,-106.875,31.6534,1.89e-05
2014-03-03 00:00:00,2014-03-03 00:00:00,PRATE,surface,-105.938,31.6534,2.39e-05
2014-03-03 00:00:00,2014-03-03 00:00:00,PRATE,surface,-105,31.6534,3.07e-05
2014-03-03 00:00:00,2014-03-03 00:00:00,PRATE,surface,-104.063,31.6534,2.91e-05
2014-03-03 00:00:00,2014-03-03 00:00:00,PRATE,surface,-103.125,31.6534,2.75e-05
2014-03-03 00:00:00,2014-03-03 00:00:00,PRATE,surface,-102.188,31.6534,2.4e-05
2014-03-03 00:00:00,2014-03-03 00:00:00,PRATE,surface,-101.25,31.6534,2.87e-05
2014-03-03 00:00:00,2014-03-03 00:00:00,PRATE,surface,-100.313,31.6534,3.5e-05
2014-03-03 00:00:00,2014-03-03 00:00:00,PRATE,surface,-99.3754,31.6534,3.29e-05
2014-03-03 00:00:00,2014-03-03 00:00:00,PRATE,surface,-98.4379,31.6534,2.54e-05
2014-03-03 00:00:00,2014-03-03 00:00:00,PRATE,surface,-97.5004,31.6534,2.04e-05
2014-03-03 00:00:00,2014-03-03 00:00:00,PRATE,surface,-96.5629,31.6534,1.84e-05
2014-03-03 00:00:00,2014-03-03 00:00:00,PRATE,surface,-95.6254,31.6534,1.75e-05
2014-03-03 00:00:00,2014-03-03 00:00:00,PRATE,surface,-94.6879,31.6534,1.6e-05
2014-03-03 00:00:00,2014-03-03 00:00:00,PRATE,surface,-93.7504,31.6534,1.07e-05
2014-03-03 00:00:00,2014-03-03 00:00:00,PRATE,surface,-92.8129,31.6534,7.2e-06
2014-03-03 00:00:00,2014-03-03 00:00:00,PRATE,surface,-107.813,32.5983,3.75e-05
2014-03-03 00:00:00,2014-03-03 00:00:00,PRATE,surface,-106.875,32.5983,2.76e-05
2014-03-03 00:00:00,2014-03-03 00:00:00,PRATE,surface,-105.938,32.5983,2.36e-05
2014-03-03 00:00:00,2014-03-03 00:00:00,PRATE,surface,-105,32.5983,2.62e-05
2014-03-03 00:00:00,2014-03-03 00:00:00,PRATE,surface,-104.063,32.5983,1.89e-05
2014-03-03 00:00:00,2014-03-03 00:00:00,PRATE,surface,-103.125,32.5983,2.06e-05
2014-03-03 00:00:00,2014-03-03 00:00:00,PRATE,surface,-102.188,32.5983,3.64e-05
2014-03-03 00:00:00,2014-03-03 00:00:00,PRATE,surface,-101.25,32.5983,4.53e-05
2014-03-03 00:00:00,2014-03-03 00:00:00,PRATE,surface,-100.313,32.5983,4.57e-05
2014-03-03 00:00:00,2014-03-03 00:00:00,PRATE,surface,-99.3754,32.5983,4.65e-05
2014-03-03 00:00:00,2014-03-03 00:00:00,PRATE,surface,-98.4379,32.5983,4.8e-05
2014-03-03 00:00:00,2014-03-03 00:00:00,PRATE,surface,-97.5004,32.5983,4.6e-05
2014-03-03 00:00:00,2014-03-03 00:00:00,PRATE,surface,-96.5629,32.5983,3.86e-05
2014-03-03 00:00:00,2014-03-03 00:00:00,PRATE,surface,-95.6254,32.5983,3.34e-05
2014-03-03 00:00:00,2014-03-03 00:00:00,PRATE,surface,-94.6879,32.5983,3.44e-05
2014-03-03 00:00:00,2014-03-03 00:00:00,PRATE,surface,-93.7504,32.5983,2.82e-05
2014-03-03 00:00:00,2014-03-03 00:00:00,PRATE,surface,-92.8129,32.5983,1.38e-05
2014-03-03 00:00:00,2014-03-03 00:00:00,PRATE,surface,-107.813,33.5432,5.35e-05
2014-03-03 00:00:00,2014-03-03 00:00:00,PRATE,surface,-106.875,33.5432,3.85e-05
2014-03-03 00:00:00,2014-03-03 00:00:00,PRATE,surface,-105.938,33.5432,2.83e-05
2014-03-03 00:00:00,2014-03-03 00:00:00,PRATE,surface,-105,33.5432,2.59e-05
2014-03-03 00:00:00,2014-03-03 00:00:00,PRATE,surface,-104.063,33.5432,2.62e-05
2014-03-03 00:00:00,2014-03-03 00:00:00,PRATE,surface,-103.125,33.5432,3.56e-05
2014-03-03 00:00:00,2014-03-03 00:00:00,PRATE,surface,-102.188,33.5432,5.16e-05
2014-03-03 00:00:00,2014-03-03 00:00:00,PRATE,surface,-101.25,33.5432,6.91e-05
2014-03-03 00:00:00,2014-03-03 00:00:00,PRATE,surface,-100.313,33.5432,5.53e-05
2014-03-03 00:00:00,2014-03-03 00:00:00,PRATE,surface,-99.3754,33.5432,4.6e-05
2014-03-03 00:00:00,2014-03-03 00:00:00,PRATE,surface,-98.4379,33.5432,4.9e-05
2014-03-03 00:00:00,2014-03-03 00:00:00,PRATE,surface,-97.5004,33.5432,5.7e-05
2014-03-03 00:00:00,2014-03-03 00:00:00,PRATE,surface,-96.5629,33.5432,5.76e-05
2014-03-03 00:00:00,2014-03-03 00:00:00,PRATE,surface,-95.6254,33.5432,5.05e-05
2014-03-03 00:00:00,2014-03-03 00:00:00,PRATE,surface,-94.6879,33.5432,4.81e-05
2014-03-03 00:00:00,2014-03-03 00:00:00,PRATE,surface,-93.7504,33.5432,4.26e-05
2014-03-03 00:00:00,2014-03-03 00:00:00,PRATE,surface,-92.8129,33.5432,3.08e-05
2014-03-03 00:00:00,2014-03-03 00:00:00,PRATE,surface,-107.813,34.4881,3.31e-05
2014-03-03 00:00:00,2014-03-03 00:00:00,PRATE,surface,-106.875,34.4881,2.62e-05
2014-03-03 00:00:00,2014-03-03 00:00:00,PRATE,surface,-105.938,34.4881,2.2e-05
2014-03-03 00:00:00,2014-03-03 00:00:00,PRATE,surface,-105,34.4881,3.39e-05
2014-03-03 00:00:00,2014-03-03 00:00:00,PRATE,surface,-104.063,34.4881,3.3e-05
2014-03-03 00:00:00,2014-03-03 00:00:00,PRATE,surface,-103.125,34.4881,4.07e-05
2014-03-03 00:00:00,2014-03-03 00:00:00,PRATE,surface,-102.188,34.4881,5.52e-05
2014-03-03 00:00:00,2014-03-03 00:00:00,PRATE,surface,-101.25,34.4881,6.53e-05
2014-03-03 00:00:00,2014-03-03 00:00:00,PRATE,surface,-100.313,34.4881,5.4e-05
2014-03-03 00:00:00,2014-03-03 00:00:00,PRATE,surface,-99.3754,34.4881,5.04e-05
2014-03-03 00:00:00,2014-03-03 00:00:00,PRATE,surface,-98.4379,34.4881,5.32e-05
2014-03-03 00:00:00,2014-03-03 00:00:00,PRATE,surface,-97.5004,34.4881,5.68e-05
2014-03-03 00:00:00,2014-03-03 00:00:00,PRATE,surface,-96.5629,34.4881,5.34e-05
2014-03-03 00:00:00,2014-03-03 00:00:00,PRATE,surface,-95.6254,34.4881,4.35e-05
2014-03-03 00:00:00,2014-03-03 00:00:00,PRATE,surface,-94.6879,34.4881,4.04e-05
2014-03-03 00:00:00,2014-03-03 00:00:00,PRATE,surface,-93.7504,34.4881,3.88e-05
2014-03-03 00:00:00,2014-03-03 00:00:00,PRATE,surface,-92.8129,34.4881,2.86e-05
2014-03-03 00:00:00,2014-03-03 00:00:00,PRATE,surface,-107.813,35.4329,2.9e-05
2014-03-03 00:00:00,2014-03-03 00:00:00,PRATE,surface,-106.875,35.4329,2.9e-05
2014-03-03 00:00:00,2014-03-03 00:00:00,PRATE,surface,-105.938,35.4329,3.53e-05
2014-03-03 00:00:00,2014-03-03 00:00:00,PRATE,surface,-105,35.4329,3.56e-05
2014-03-03 00:00:00,2014-03-03 00:00:00,PRATE,surface,-104.063,35.4329,4.38e-05
2014-03-03 00:00:00,2014-03-03 00:00:00,PRATE,surface,-103.125,35.4329,4.25e-05
2014-03-03 00:00:00,2014-03-03 00:00:00,PRATE,surface,-102.188,35.4329,4.29e-05
2014-03-03 00:00:00,2014-03-03 00:00:00,PRATE,surface,-101.25,35.4329,4.8e-05
2014-03-03 00:00:00,2014-03-03 00:00:00,PRATE,surface,-100.313,35.4329,5.05e-05
2014-03-03 00:00:00,2014-03-03 00:00:00,PRATE,surface,-99.3754,35.4329,5.13e-05
2014-03-03 00:00:00,2014-03-03 00:00:00,PRATE,surface,-98.4379,35.4329,4.78e-05
2014-03-03 00:00:00,2014-03-03 00:00:00,PRATE,surface,-97.5004,35.4329,3.82e-05
2014-03-03 00:00:00,2014-03-03 00:00:00,PRATE,surface,-96.5629,35.4329,2.81e-05
2014-03-03 00:00:00,2014-03-03 00:00:00,PRATE,surface,-95.6254,35.4329,2.56e-05
2014-03-03 00:00:00,2014-03-03 00:00:00,PRATE,surface,-94.6879,35.4329,2.71e-05
2014-03-03 00:00:00,2014-03-03 00:00:00,PRATE,surface,-93.7504,35.4329,2.28e-05
2014-03-03 00:00:00,2014-03-03 00:00:00,PRATE,surface,-92.8129,35.4329,1.63e-05
2014-03-03 00:00:00,2014-03-03 00:00:00,PRATE,surface,-107.813,36.3778,2.05e-05
2014-03-03 00:00:00,2014-03-03 00:00:00,PRATE,surface,-106.875,36.3778,2.15e-05
2014-03-03 00:00:00,2014-03-03 00:00:00,PRATE,surface,-105.938,36.3778,3.17e-05
2014-03-03 00:00:00,2014-03-03 00:00:00,PRATE,surface,-105,36.3778,3.13e-05
2014-03-03 00:00:00,2014-03-03 00:00:00,PRATE,surface,-104.063,36.3778,3.4e-05
2014-03-03 00:00:00,2014-03-03 00:00:00,PRATE,surface,-103.125,36.3778,3.83e-05
2014-03-03 00:00:00,2014-03-03 00:00:00,PRATE,surface,-102.188,36.3778,3.91e-05
2014-03-03 00:00:00,2014-03-03 00:00:00,PRATE,surface,-101.25,36.3778,4.66e-05
2014-03-03 00:00:00,2014-03-03 00:00:00,PRATE,surface,-100.313,36.3778,5.14e-05
2014-03-03 00:00:00,2014-03-03 00:00:00,PRATE,surface,-99.3754,36.3778,4.86e-05
2014-03-03 00:00:00,2014-03-03 00:00:00,PRATE,surface,-98.4379,36.3778,4.5e-05
2014-03-03 00:00:00,2014-03-03 00:00:00,PRATE,surface,-97.5004,36.3778,3.93e-05
2014-03-03 00:00:00,2014-03-03 00:00:00,PRATE,surface,-96.5629,36.3778,3.58e-05
2014-03-03 00:00:00,2014-03-03 00:00:00,PRATE,surface,-95.6254,36.3778,3.76e-05
2014-03-03 00:00:00,2014-03-03 00:00:00,PRATE,surface,-94.6879,36.3778,3.79e-05
2014-03-03 00:00:00,2014-03-03 00:00:00,PRATE,surface,-93.7504,36.3778,3.57e-05
2014-03-03 00:00:00,2014-03-03 00:00:00,PRATE,surface,-92.8129,36.3778,2.75e-05
