2017-04-02 00:00:00,2017-04-02 00:00:00,TMP,surface,-107.813,25.0393,304.008
2017-04-02 00:00:00,2017-04-02 00:00:00,TMP,surface,-106.875,25.0393,296.892
2017-04-02 00:00:00,2017-04-02 00:00:00,TMP,surface,-105.938,25.0393,292.671
2017-04-02 00:00:00,2017-04-02 00:00:00,TMP,surface,-105,25.0393,291.133
2017-04-02 00:00:00,2017-04-02 00:00:00,TMP,surface,-104.063,25.0393,296.018
2017-04-02 00:00:00,2017-04-02 00:00:00,TMP,surface,-103.125,25.0393,299.292
2017-04-02 00:00:00,2017-04-02 00:00:00,TMP,surface,-102.188,25.0393,297.608
2017-04-02 00:00:00,2017-04-02 00:00:00,TMP,surface,-101.25,25.0393,294.424
2017-04-02 00:00:00,2017-04-02 00:00:00,TMP,surface,-100.313,25.0393,294.543
2017-04-02 00:00:00,2017-04-02 00:00:00,TMP,surface,-99.3754,25.0393,298.468
2017-04-02 00:00:00,2017-04-02 00:00:00,TMP,surface,-98.4379,25.0393,302.128
2017-04-02 00:00:00,2017-04-02 00:00:00,TMP,surface,-97.5004,25.0393,303.623
2017-04-02 00:00:00,2017-04-02 00:00:00,TMP,surface,-96.5629,25.0393,303.7
2017-04-02 00:00:00,2017-04-02 00:00:00,TMP,surface,-95.6254,25.0393,303.704
2017-04-02 00:00:00,2017-04-02 00:00:00,TMP,surface,-94.6879,25.0393,303.762
2017-04-02 00:00:00,2017-04-02 00:00:00,TMP,surface,-93.7504,25.0393,303.68
2017-04-02 00:00:00,2017-04-02 00:00:00,TMP,surface,-92.8129,25.0393,303.612
2017-04-02 00:00:00,2017-04-02 00:00:00,TMP,surface,-107.813,25.9842,299.749
2017-04-02 00:00:00,2017-04-02 00:00:00,TMP,surface,-106.875,25.9842,293.397
2017-04-02 00:00:00,2017-04-02 00:00:00,TMP,surface,-105.938,25.9842,291.448
2017-04-02 00:00:00,2017-04-02 00:00:00,TMP,surface,-105,25.9842,293.714
2017-04-02 00:00:00,2017-04-02 00:00:00,TMP,surface,-104.063,25.9842,299.9
2017-04-02 00:00:00,2017-04-02 00:00:00,TMP,surface,-103.125,25.9842,301.204
2017-04-02 00:00:00,2017-04-02 00:00:00,TMP,surface,-102.188,25.9842,299.424
2017-04-02 00:00:00,2017-04-02 00:00:00,TMP,surface,-101.25,25.9842,297.786
2017-04-02 00:00:00,2017-04-02 00:00:00,TMP,surface,-100.313,25.9842,298.626
2017-04-02 00:00:00,2017-04-02 00:00:00,TMP,surface,-99.3754,25.9842,302.18
2017-04-02 00:00:00,2017-04-02 00:00:00,TMP,surface,-98.4379,25.9842,303.652
2017-04-02 00:00:00,2017-04-02 00:00:00,TMP,surface,-97.5004,25.9842,302.586
2017-04-02 00:00:00,2017-04-02 00:00:00,TMP,surface,-96.5629,25.9842,302.879
2017-04-02 00:00:00,2017-04-02 00:00:00,TMP,surface,-95.6254,25.9842,303.224
2017-04-02 00:00:00,2017-04-02 00:00:00,TMP,surface,-94.6879,25.9842,303.447
2017-04-02 00:00:00,2017-04-02 00:00:00,TMP,surface,-93.7504,25.9842,303.533
2017-04-02 00:00:00,2017-04-02 00:00:00,TMP,surface,-92.8129,25.9842,303.541
2017-04-02 00:00:00,2017-04-02 00:00:00,TMP,surface,-107.813,26.929,295.669
2017-04-02 00:00:00,2017-04-02 00:00:00,TMP,surface,-106.875,26.929,291.701
2017-04-02 00:00:00,2017-04-02 00:00:00,TMP,surface,-105.938,26.929,293.432
2017-04-02 00:00:00,2017-04-02 00:00:00,TMP,surface,-105,26.929,298.303
2017-04-02 00:00:00,2017-04-02 00:00:00,TMP,surface,-104.063,26.929,301.722
2017-04-02 00:00:00,2017-04-02 00:00:00,TMP,surface,-103.125,26.929,300.72
2017-04-02 00:00:00,2017-04-02 00:00:00,TMP,surface,-102.188,26.929,299.212
2017-04-02 00:00:00,2017-04-02 00:00:00,TMP,surface,-101.25,26.929,299.967
2017-04-02 00:00:00,2017-04-02 00:00:00,TMP,surface,-100.313,26.929,302.559
2017-04-02 00:00:00,2017-04-02 00:00:00,TMP,surface,-99.3754,26.929,304.319
2017-04-02 00:00:00,2017-04-02 00:00:00,TMP,surface,-98.4379,26.929,302.951
2017-04-02 00:00:00,2017-04-02 00:00:00,TMP,surface,-97.5004,26.929,301.434
2017-04-02 00:00:00,2017-04-02 00:00:00,TMP,surface,-96.5629,26.929,301.943
2017-04-02 00:00:00,2017-04-02 00:00:00,TMP,surface,-95.6254,26.929,302.853
2017-04-02 00:00:00,2017-04-02 00:00:00,TMP,surface,-94.6879,26.929,303.461
2017-04-02 00:00:00,2017-04-02 00:00:00,TMP,surface,-93.7504,26.929,303.536
2017-04-02 00:00:00,2017-04-02 00:00:00,TMP,surface,-92.8129,26.929,303.456
2017-04-02 00:00:00,2017-04-02 00:00:00,TMP,surface,-107.813,27.8739,293.477
2017-04-02 00:00:00,2017-04-02 00:00:00,TMP,surface,-106.875,27.8739,291.983
2017-04-02 00:00:00,2017-04-02 00:00:00,TMP,surface,-105.938,27.8739,296.416
2017-04-02 00:00:00,2017-04-02 00:00:00,TMP,surface,-105,27.8739,301.012
2017-04-02 00:00:00,2017-04-02 00:00:00,TMP,surface,-104.063,27.8739,301.338
2017-04-02 00:00:00,2017-04-02 00:00:00,TMP,surface,-103.125,27.8739,299.136
2017-04-02 00:00:00,2017-04-02 00:00:00,TMP,surface,-102.188,27.8739,298.564
2017-04-02 00:00:00,2017-04-02 00:00:00,TMP,surface,-101.25,27.8739,301.184
2017-04-02 00:00:00,2017-04-02 00:00:00,TMP,surface,-100.313,27.8739,303.568
2017-04-02 00:00:00,2017-04-02 00:00:00,TMP,surface,-99.3754,27.8739,303.284
2017-04-02 00:00:00,2017-04-02 00:00:00,TMP,surface,-98.4379,27.8739,301.863
2017-04-02 00:00:00,2017-04-02 00:00:00,TMP,surface,-97.5004,27.8739,301.711
2017-04-02 00:00:00,2017-04-02 00:00:00,TMP,surface,-96.5629,27.8739,302.448
2017-04-02 00:00:00,2017-04-02 00:00:00,TMP,surface,-95.6254,27.8739,303.004
2017-04-02 00:00:00,2017-04-02 00:00:00,TMP,surface,-94.6879,27.8739,303.501
2017-04-02 00:00:00,2017-04-02 00:00:00,TMP,surface,-93.7504,27.8739,303.676
2017-04-02 00:00:00,2017-04-02 00:00:00,TMP,surface,-92.8129,27.8739,303.719
2017-04-02 00:00:00,2017-04-02 00:00:00,TMP,surface,-107.813,28.8188,293.013
2017-04-02 00:00:00,2017-04-02 00:00:00,TMP,surface,-106.875,28.8188,293.823
2017-04-02 00:00:00,2017-04-02 00:00:00,TMP,surface,-105.938,28.8188,298.752
2017-04-02 00:00:00,2017-04-02 00:00:00,TMP,surface,-105,28.8188,302.192
2017-04-02 00:00:00,2017-04-02 00:00:00,TMP,surface,-104.063,28.8188,301.133
2017-04-02 00:00:00,2017-04-02 00:00:00,TMP,surface,-103.125,28.8188,299.493
2017-04-02 00:00:00,2017-04-02 00:00:00,TMP,surface,-102.188,28.8188,299.336
2017-04-02 00:00:00,2017-04-02 00:00:00,TMP,surface,-101.25,28.8188,301.52
2017-04-02 00:00:00,2017-04-02 00:00:00,TMP,surface,-100.313,28.8188,302.381
2017-04-02 00:00:00,2017-04-02 00:00:00,TMP,surface,-99.3754,28.8188,301.418
2017-04-02 00:00:00,2017-04-02 00:00:00,TMP,surface,-98.4379,28.8188,300.559
2017-04-02 00:00:00,2017-04-02 00:00:00,TMP,surface,-97.5004,28.8188,300.701
2017-04-02 00:00:00,2017-04-02 00:00:00,TMP,surface,-96.5629,28.8188,301.418
2017-04-02 00:00:00,2017-04-02 00:00:00,TMP,surface,-95.6254,28.8188,301.874
2017-04-02 00:00:00,2017-04-02 00:00:00,TMP,surface,-94.6879,28.8188,301.973
2017-04-02 00:00:00,2017-04-02 00:00:00,TMP,surface,-93.7504,28.8188,302.471
2017-04-02 00:00:00,2017-04-02 00:00:00,TMP,surface,-92.8129,28.8188,302.863
2017-04-02 00:00:00,2017-04-02 00:00:00,TMP,surface,-107.813,29.7637,295.445
2017-04-02 00:00:00,2017-04-02 00:00:00,TMP,surface,-106.875,29.7637,297.396
2017-04-02 00:00:00,2017-04-02 00:00:00,TMP,surface,-105.938,29.7637,300.858
2017-04-02 00:00:00,2017-04-02 00:00:00,TMP,surface,-105,29.7637,301.999
2017-04-02 00:00:00,2017-04-02 00:00:00,TMP,surface,-104.063,29.7637,301.4
2017-04-02 00:00:00,2017-04-02 00:00:00,TMP,surface,-103.125,29.7637,300.916
2017-04-02 00:00:00,2017-04-02 00:00:00,TMP,surface,-102.188,29.7637,301.639
2017-04-02 00:00:00,2017-04-02 00:00:00,TMP,surface,-101.25,29.7637,302.088
2017-04-02 00:00:00,2017-04-02 00:00:00,TMP,surface,-100.313,29.7637,301.018
2017-04-02 00:00:00,2017-04-02 00:00:00,TMP,surface,-99.3754,29.7637,299.628
2017-04-02 00:00:00,2017-04-02 00:00:00,TMP,surface,-98.4379,29.7637,299.5
2017-04-02 00:00:00,2017-04-02 00:00:00,TMP,surface,-97.5004,29.7637,300.639
2017-04-02 00:00:00,2017-04-02 00:00:00,TMP,surface,-96.5629,29.7637,301.716
2017-04-02 00:00:00,2017-04-02 00:00:00,TMP,surface,-95.6254,29.7637,302.082
2017-04-02 00:00:00,2017-04-02 00:00:00,TMP,surface,-94.6879,29.7637,301.792
2017-04-02 00:00:00,2017-04-02 00:00:00,TMP,surface,-93.7504,29.7637,301.311
2017-04-02 00:00:00,2017-04-02 00:00:00,TMP,surface,-92.8129,29.7637,302.256
2017-04-02 00:00:00,2017-04-02 00:00:00,TMP,surface,-107.813,30.7085,300.703
2017-04-02 00:00:00,2017-04-02 00:00:00,TMP,surface,-106.875,30.7085,302.416
2017-04-02 00:00:00,2017-04-02 00:00:00,TMP,surface,-105.938,30.7085,302.508
2017-04-02 00:00:00,2017-04-02 00:00:00,TMP,surface,-105,30.7085,301.935
2017-04-02 00:00:00,2017-04-02 00:00:00,TMP,surface,-104.063,30.7085,301.108
2017-04-02 00:00:00,2017-04-02 00:00:00,TMP,surface,-103.125,30.7085,301.895
2017-04-02 00:00:00,2017-04-02 00:00:00,TMP,surface,-102.188,30.7085,302.524
2017-04-02 00:00:00,2017-04-02 00:00:00,TMP,surface,-101.25,30.7085,302.084
2017-04-02 00:00:00,2017-04-02 00:00:00,TMP,surface,-100.313,30.7085,301.036
2017-04-02 00:00:00,2017-04-02 00:00:00,TMP,surface,-99.3754,30.7085,300.144
2017-04-02 00:00:00,2017-04-02 00:00:00,TMP,surface,-98.4379,30.7085,300.44
2017-04-02 00:00:00,2017-04-02 00:00:00,TMP,surface,-97.5004,30.7085,301.586
2017-04-02 00:00:00,2017-04-02 00:00:00,TMP,surface,-96.5629,30.7085,302.66
2017-04-02 00:00:00,2017-04-02 00:00:00,TMP,surface,-95.6254,30.7085,303.008
2017-04-02 00:00:00,2017-04-02 00:00:00,TMP,surface,-94.6879,30.7085,302.759
2017-04-02 00:00:00,2017-04-02 00:00:00,TMP,surface,-93.7504,30.7085,302.722
2017-04-02 00:00:00,2017-04-02 00:00:00,TMP,surface,-92.8129,30.7085,302.252
2017-04-02 00:00:00,2017-04-02 00:00:00,TMP,surface,-107.813,31.6534,303.018
2017-04-02 00:00:00,2017-04-02 00:00:00,TMP,surface,-106.875,31.6534,303.884
2017-04-02 00:00:00,2017-04-02 00:00:00,TMP,surface,-105.938,31.6534,302.959
2017-04-02 00:00:00,2017-04-02 00:00:00,TMP,surface,-105,31.6534,301.852
2017-04-02 00:00:00,2017-04-02 00:00:00,TMP,surface,-104.063,31.6534,301.756
2017-04-02 00:00:00,2017-04-02 00:00:00,TMP,surface,-103.125,31.6534,302.232
2017-04-02 00:00:00,2017-04-02 00:00:00,TMP,surface,-102.188,31.6534,302.604
2017-04-02 00:00:00,2017-04-02 00:00:00,TMP,surface,-101.25,31.6534,302.146
2017-04-02 00:00:00,2017-04-02 00:00:00,TMP,surface,-100.313,31.6534,301.637
2017-04-02 00:00:00,2017-04-02 00:00:00,TMP,surface,-99.3754,31.6534,301.41
2017-04-02 00:00:00,2017-04-02 00:00:00,TMP,surface,-98.4379,31.6534,301.754
2017-04-02 00:00:00,2017-04-02 00:00:00,TMP,surface,-97.5004,31.6534,302.426
2017-04-02 00:00:00,2017-04-02 00:00:00,TMP,surface,-96.5629,31.6534,302.975
2017-04-02 00:00:00,2017-04-02 00:00:00,TMP,surface,-95.6254,31.6534,303.151
2017-04-02 00:00:00,2017-04-02 00:00:00,TMP,surface,-94.6879,31.6534,303.01
2017-04-02 00:00:00,2017-04-02 00:00:00,TMP,surface,-93.7504,31.6534,303.01
2017-04-02 00:00:00,2017-04-02 00:00:00,TMP,surface,-92.8129,31.6534,303.271
2017-04-02 00:00:00,2017-04-02 00:00:00,TMP,surface,-107.813,32.5983,299.949
2017-04-02 00:00:00,2017-04-02 00:00:00,TMP,surface,-106.875,32.5983,300.864
2017-04-02 00:00:00,2017-04-02 00:00:00,TMP,surface,-105.938,32.5983,301.236
2017-04-02 00:00:00,2017-04-02 00:00:00,TMP,surface,-105,32.5983,300.933
2017-04-02 00:00:00,2017-04-02 00:00:00,TMP,surface,-104.063,32.5983,301.116
2017-04-02 00:00:00,2017-04-02 00:00:00,TMP,surface,-103.125,32.5983,301.756
2017-04-02 00:00:00,2017-04-02 00:00:00,TMP,surface,-102.188,32.5983,302.124
2017-04-02 00:00:00,2017-04-02 00:00:00,TMP,surface,-101.25,32.5983,302.317
2017-04-02 00:00:00,2017-04-02 00:00:00,TMP,surface,-100.313,32.5983,302.727
2017-04-02 00:00:00,2017-04-02 00:00:00,TMP,surface,-99.3754,32.5983,302.957
2017-04-02 00:00:00,2017-04-02 00:00:00,TMP,surface,-98.4379,32.5983,302.93
2017-04-02 00:00:00,2017-04-02 00:00:00,TMP,surface,-97.5004,32.5983,302.941
2017-04-02 00:00:00,2017-04-02 00:00:00,TMP,surface,-96.5629,32.5983,303.151
2017-04-02 00:00:00,2017-04-02 00:00:00,TMP,surface,-95.6254,32.5983,303.298
2017-04-02 00:00:00,2017-04-02 00:00:00,TMP,surface,-94.6879,32.5983,303.159
2017-04-02 00:00:00,2017-04-02 00:00:00,TMP,surface,-93.7504,32.5983,303.149
2017-04-02 00:00:00,2017-04-02 00:00:00,TMP,surface,-92.8129,32.5983,303.632
2017-04-02 00:00:00,2017-04-02 00:00:00,TMP,surface,-107.813,33.5432,295.557
2017-04-02 00:00:00,2017-04-02 00:00:00,TMP,surface,-106.875,33.5432,297.607
2017-04-02 00:00:00,2017-04-02 00:00:00,TMP,surface,-105.938,33.5432,298.773
2017-04-02 00:00:00,2017-04-02 00:00:00,TMP,surface,-105,33.5432,300.071
2017-04-02 00:00:00,2017-04-02 00:00:00,TMP,surface,-104.063,33.5432,301.253
2017-04-02 00:00:00,2017-04-02 00:00:00,TMP,surface,-103.125,33.5432,301.292
2017-04-02 00:00:00,2017-04-02 00:00:00,TMP,surface,-102.188,33.5432,301.423
2017-04-02 00:00:00,2017-04-02 00:00:00,TMP,surface,-101.25,33.5432,302.164
2017-04-02 00:00:00,2017-04-02 00:00:00,TMP,surface,-100.313,33.5432,303.466
2017-04-02 00:00:00,2017-04-02 00:00:00,TMP,surface,-99.3754,33.5432,304.146
2017-04-02 00:00:00,2017-04-02 00:00:00,TMP,surface,-98.4379,33.5432,303.879
2017-04-02 00:00:00,2017-04-02 00:00:00,TMP,surface,-97.5004,33.5432,303.386
2017-04-02 00:00:00,2017-04-02 00:00:00,TMP,surface,-96.5629,33.5432,303.444
2017-04-02 00:00:00,2017-04-02 00:00:00,TMP,surface,-95.6254,33.5432,303.613
2017-04-02 00:00:00,2017-04-02 00:00:00,TMP,surface,-94.6879,33.5432,303.296
2017-04-02 00:00:00,2017-04-02 00:00:00,TMP,surface,-93.7504,33.5432,303.124
2017-04-02 00:00:00,2017-04-02 00:00:00,TMP,surface,-92.8129,33.5432,302.954
2017-04-02 00:00:00,2017-04-02 00:00:00,TMP,surface,-107.813,34.4881,295.079
2017-04-02 00:00:00,2017-04-02 00:00:00,TMP,surface,-106.875,34.4881,296.866
2017-04-02 00:00:00,2017-04-02 00:00:00,TMP,surface,-105.938,34.4881,298.047
2017-04-02 00:00:00,2017-04-02 00:00:00,TMP,surface,-105,34.4881,300.096
2017-04-02 00:00:00,2017-04-02 00:00:00,TMP,surface,-104.063,34.4881,301.116
2017-04-02 00:00:00,2017-04-02 00:00:00,TMP,surface,-103.125,34.4881,300.94
2017-04-02 00:00:00,2017-04-02 00:00:00,TMP,surface,-102.188,34.4881,301.093
2017-04-02 00:00:00,2017-04-02 00:00:00,TMP,surface,-101.25,34.4881,301.981
2017-04-02 00:00:00,2017-04-02 00:00:00,TMP,surface,-100.313,34.4881,303.373
2017-04-02 00:00:00,2017-04-02 00:00:00,TMP,surface,-99.3754,34.4881,304.197
2017-04-02 00:00:00,2017-04-02 00:00:00,TMP,surface,-98.4379,34.4881,304.016
2017-04-02 00:00:00,2017-04-02 00:00:00,TMP,surface,-97.5004,34.4881,303.469
2017-04-02 00:00:00,2017-04-02 00:00:00,TMP,surface,-96.5629,34.4881,303.308
2017-04-02 00:00:00,2017-04-02 00:00:00,TMP,surface,-95.6254,34.4881,303.232
2017-04-02 00:00:00,2017-04-02 00:00:00,TMP,surface,-94.6879,34.4881,302.573
2017-04-02 00:00:00,2017-04-02 00:00:00,TMP,surface,-93.7504,34.4881,301.807
2017-04-02 00:00:00,2017-04-02 00:00:00,TMP,surface,-92.8129,34.4881,301.711
2017-04-02 00:00:00,2017-04-02 00:00:00,TMP,surface,-107.813,35.4329,296.716
2017-04-02 00:00:00,2017-04-02 00:00:00,TMP,surface,-106.875,35.4329,296.503
2017-04-02 00:00:00,2017-04-02 00:00:00,TMP,surface,-105.938,35.4329,296.228
2017-04-02 00:00:00,2017-04-02 00:00:00,TMP,surface,-105,35.4329,297.607
2017-04-02 00:00:00,2017-04-02 00:00:00,TMP,surface,-104.063,35.4329,299.773
2017-04-02 00:00:00,2017-04-02 00:00:00,TMP,surface,-103.125,35.4329,301.021
2017-04-02 00:00:00,2017-04-02 00:00:00,TMP,surface,-102.188,35.4329,301.664
2017-04-02 00:00:00,2017-04-02 00:00:00,TMP,surface,-101.25,35.4329,302.37
2017-04-02 00:00:00,2017-04-02 00:00:00,TMP,surface,-100.313,35.4329,303.119
2017-04-02 00:00:00,2017-04-02 00:00:00,TMP,surface,-99.3754,35.4329,303.919
2017-04-02 00:00:00,2017-04-02 00:00:00,TMP,surface,-98.4379,35.4329,304.082
2017-04-02 00:00:00,2017-04-02 00:00:00,TMP,surface,-97.5004,35.4329,303.743
2017-04-02 00:00:00,2017-04-02 00:00:00,TMP,surface,-96.5629,35.4329,303.668
2017-04-02 00:00:00,2017-04-02 00:00:00,TMP,surface,-95.6254,35.4329,303.488
2017-04-02 00:00:00,2017-04-02 00:00:00,TMP,surface,-94.6879,35.4329,302.461
2017-04-02 00:00:00,2017-04-02 00:00:00,TMP,surface,-93.7504,35.4329,301.218
2017-04-02 00:00:00,2017-04-02 00:00:00,TMP,surface,-92.8129,35.4329,300.41
2017-04-02 00:00:00,2017-04-02 00:00:00,TMP,surface,-107.813,36.3778,296.344
2017-04-02 00:00:00,2017-04-02 00:00:00,TMP,surface,-106.875,36.3778,293.098
2017-04-02 00:00:00,2017-04-02 00:00:00,TMP,surface,-105.938,36.3778,293.188
2017-04-02 00:00:00,2017-04-02 00:00:00,TMP,surface,-105,36.3778,294.794
2017-04-02 00:00:00,2017-04-02 00:00:00,TMP,surface,-104.063,36.3778,297.839
2017-04-02 00:00:00,2017-04-02 00:00:00,TMP,surface,-103.125,36.3778,300.309
2017-04-02 00:00:00,2017-04-02 00:00:00,TMP,surface,-102.188,36.3778,301.781
2017-04-02 00:00:00,2017-04-02 00:00:00,TMP,surface,-101.25,36.3778,302.746
2017-04-02 00:00:00,2017-04-02 00:00:00,TMP,surface,-100.313,36.3778,303.13
2017-04-02 00:00:00,2017-04-02 00:00:00,TMP,surface,-99.3754,36.3778,303.261
2017-04-02 00:00:00,2017-04-02 00:00:00,TMP,surface,-98.4379,36.3778,303.32
2017-04-02 00:00:00,2017-04-02 00:00:00,TMP,surface,-97.5004,36.3778,303.031
2017-04-02 00:00:00,2017-04-02 00:00:00,TMP,surface,-96.5629,36.3778,302.688
2017-04-02 00:00:00,2017-04-02 00:00:00,TMP,surface,-95.6254,36.3778,302.503
2017-04-02 00:00:00,2017-04-02 00:00:00,TMP,surface,-94.6879,36.3778,301.898
2017-04-02 00:00:00,2017-04-02 00:00:00,TMP,surface,-93.7504,36.3778,300.756
2017-04-02 00:00:00,2017-04-02 00:00:00,TMP,surface,-92.8129,36.3778,299.783
2017-04-02 00:00:00,2017-04-02 00:00:00,PRATE,surface,-107.813,25.0393,7.6e-06
2017-04-02 00:00:00,2017-04-02 00:00:00,PRATE,surface,-106.875,25.0393,0.0001525
2017-04-02 00:00:00,2017-04-02 00:00:00,PRATE,surface,-105.938,25.0393,0.0001783
2017-04-02 00:00:00,2017-04-02 00:00:00,PRATE,surface,-105,25.0393,0.0001083
2017-04-02 00:00:00,2017-04-02 00:00:00,PRATE,surface,-104.063,25.0393,1.21e-05
2017-04-02 00:00:00,2017-04-02 00:00:00,PRATE,surface,-103.125,25.0393,2.3e-06
2017-04-02 00:00:00,2017-04-02 00:00:00,PRATE,surface,-102.188,25.0393,3.9e-06
2017-04-02 00:00:00,2017-04-02 00:00:00,PRATE,surface,-101.25,25.0393,2.02e-05
2017-04-02 00:00:00,2017-04-02 00:00:00,PRATE,surface,-100.313,25.0393,5.99e-05
2017-04-02 00:00:00,2017-04-02 00:00:00,PRATE,surface,-99.3754,25.0393,3.79e-05
2017-04-02 00:00:00,2017-04-02 00:00:00,PRATE,surface,-98.4379,25.0393,2.56e-05
2017-04-02 00:00:00,2017-04-02 00:00:00,PRATE,surface,-97.5004,25.0393,3.46e-05
2017-04-02 00:00:00,2017-04-02 00:00:00,PRATE,surface,-96.5629,25.0393,4e-05
2017-04-02 00:00:00,2017-04-02 00:00:00,PRATE,surface,-95.6254,25.0393,2.88e-05
2017-04-02 00:00:00,2017-04-02 00:00:00,PRATE,surface,-94.6879,25.0393,2.57e-05
2017-04-02 00:00:00,2017-04-02 00:00:00,PRATE,surface,-93.7504,25.0393,6.12e-05
2017-04-02 00:00:00,2017-04-02 00:00:00,PRATE,surface,-92.8129,25.0393,5.89e-05
2017-04-02 00:00:00,2017-04-02 00:00:00,PRATE,surface,-107.813,25.9842,9.65e-05
2017-04-02 00:00:00,2017-04-02 00:00:00,PRATE,surface,-106.875,25.9842,0.0001801
2017-04-02 00:00:00,2017-04-02 00:00:00,PRATE,surface,-105.938,25.9842,0.0001123
2017-04-02 00:00:00,2017-04-02 00:00:00,PRATE,surface,-105,25.9842,5.27e-05
2017-04-02 00:00:00,2017-04-02 00:00:00,PRATE,surface,-104.063,25.9842,6e-07
2017-04-02 00:00:00,2017-04-02 00:00:00,PRATE,surface,-103.125,25.9842,1.8e-06
2017-04-02 00:00:00,2017-04-02 00:00:00,PRATE,surface,-102.188,25.9842,1.5e-06
2017-04-02 00:00:00,2017-04-02 00:00:00,PRATE,surface,-101.25,25.9842,2.14e-05
2017-04-02 00:00:00,2017-04-02 00:00:00,PRATE,surface,-100.313,25.9842,3.16e-05
2017-04-02 00:00:00,2017-04-02 00:00:00,PRATE,surface,-99.3754,25.9842,1.62e-05
2017-04-02 00:00:00,2017-04-02 00:00:00,PRATE,surface,-98.4379,25.9842,2.23e-05
2017-04-02 00:00:00,2017-04-02 00:00:00,PRATE,surface,-97.5004,25.9842,6.25e-05
2017-04-02 00:00:00,2017-04-02 00:00:00,PRATE,surface,-96.5629,25.9842,3.69e-05
2017-04-02 00:00:00,2017-04-02 00:00:00,PRATE,surface,-95.6254,25.9842,2.79e-05
2017-04-02 00:00:00,2017-04-02 00:00:00,PRATE,surface,-94.6879,25.9842,3.38e-05
2017-04-02 00:00:00,2017-04-02 00:00:00,PRATE,surface,-93.7504,25.9842,6.71e-05
2017-04-02 00:00:00,2017-04-02 00:00:00,PRATE,surface,-92.8129,25.9842,4.73e-05
2017-04-02 00:00:00,2017-04-02 00:00:00,PRATE,surface,-107.813,26.929,0.0001668
2017-04-02 00:00:00,2017-04-02 00:00:00,PRATE,surface,-106.875,26.929,0.0001231
2017-04-02 00:00:00,2017-04-02 00:00:00,PRATE,surface,-105.938,26.929,6.92e-05
2017-04-02 00:00:00,2017-04-02 00:00:00,PRATE,surface,-105,26.929,1.28e-05
2017-04-02 00:00:00,2017-04-02 00:00:00,PRATE,surface,-104.063,26.929,5.5e-06
2017-04-02 00:00:00,2017-04-02 00:00:00,PRATE,surface,-103.125,26.929,5.1e-06
2017-04-02 00:00:00,2017-04-02 00:00:00,PRATE,surface,-102.188,26.929,8.7e-06
2017-04-02 00:00:00,2017-04-02 00:00:00,PRATE,surface,-101.25,26.929,1.93e-05
2017-04-02 00:00:00,2017-04-02 00:00:00,PRATE,surface,-100.313,26.929,8.4e-06
2017-04-02 00:00:00,2017-04-02 00:00:00,PRATE,surface,-99.3754,26.929,8.5e-06
2017-04-02 00:00:00,2017-04-02 00:00:00,PRATE,surface,-98.4379,26.929,3.03e-05
2017-04-02 00:00:00,2017-04-02 00:00:00,PRATE,surface,-97.5004,26.929,3.05e-05
2017-04-02 00:00:00,2017-04-02 00:00:00,PRATE,surface,-96.5629,26.929,2.7e-05
2017-04-02 00:00:00,2017-04-02 00:00:00,PRATE,surface,-95.6254,26.929,1.86e-05
2017-04-02 00:00:00,2017-04-02 00:00:00,PRATE,surface,-94.6879,26.929,2.73e-05
2017-04-02 00:00:00,2017-04-02 00:00:00,PRATE,surface,-93.7504,26.929,3.64e-05
2017-04-02 00:00:00,2017-04-02 00:00:00,PRATE,surface,-92.8129,26.929,2.91e-05
2017-04-02 00:00:00,2017-04-02 00:00:00,PRATE,surface,-107.813,27.8739,0.0001528
2017-04-02 00:00:00,2017-04-02 00:00:00,PRATE,surface,-106.875,27.8739,8.55e-05
2017-04-02 00:00:00,2017-04-02 00:00:00,PRATE,surface,-105.938,27.8739,1.85e-05
2017-04-02 00:00:00,2017-04-02 00:00:00,PRATE,surface,-105,27.8739,3.2e-06
2017-04-02 00:00:00,2017-04-02 00:00:00,PRATE,surface,-104.063,27.8739,1.23e-05
2017-04-02 00:00:00,2017-04-02 00:00:00,PRATE,surface,-103.125,27.8739,1.72e-05
2017-04-02 00:00:00,2017-04-02 00:00:00,PRATE,surface,-102.188,27.8739,1.26e-05
2017-04-02 00:00:00,2017-04-02 00:00:00,PRATE,surface,-101.25,27.8739,5e-06
2017-04-02 00:00:00,2017-04-02 00:00:00,PRATE,surface,-100.313,27.8739,2.3e-06
2017-04-02 00:00:00,2017-04-02 00:00:00,PRATE,surface,-99.3754,27.8739,2.11e-05
2017-04-02 00:00:00,2017-04-02 00:00:00,PRATE,surface,-98.4379,27.8739,4.82e-05
2017-04-02 00:00:00,2017-04-02 00:00:00,PRATE,surface,-97.5004,27.8739,3.83e-05
2017-04-02 00:00:00,2017-04-02 00:00:00,PRATE,surface,-96.5629,27.8739,1.28e-05
2017-04-02 00:00:00,2017-04-02 00:00:00,PRATE,surface,-95.6254,27.8739,7.9e-06
2017-04-02 00:00:00,2017-04-02 00:00:00,PRATE,surface,-94.6879,27.8739,1.07e-05
2017-04-02 00:00:00,2017-04-02 00:00:00,PRATE,surface,-93.7504,27.8739,2.15e-05
2017-04-02 00:00:00,2017-04-02 00:00:00,PRATE,surface,-92.8129,27.8739,2.96e-05
2017-04-02 00:00:00,2017-04-02 00:00:00,PRATE,surface,-107.813,28.8188,0.0001193
2017-04-02 00:00:00,2017-04-02 00:00:00,PRATE,surface,-106.875,28.8188,6.6e-05
2017-04-02 00:00:00,2017-04-02 00:00:00,PRATE,surface,-105.938,28.8188,5.9e-06
2017-04-02 00:00:00,2017-04-02 00:00:00,PRATE,surface,-105,28.8188,4.1e-06
2017-04-02 00:00:00,2017-04-02 00:00:00,PRATE,surface,-104.063,28.8188,5.4e-06
2017-04-02 00:00:00,2017-04-02 00:00:00,PRATE,surface,-103.125,28.8188,4.8e-06
2017-04-02 00:00:00,2017-04-02 00:00:00,PRATE,surface,-102.188,28.8188,1.5e-06
2017-04-02 00:00:00,2017-04-02 00:00:00,PRATE,surface,-101.25,28.8188,5e-07
2017-04-02 00:00:00,2017-04-02 00:00:00,PRATE,surface,-100.313,28.8188,2.3e-06
2017-04-02 00:00:00,2017-04-02 00:00:00,PRATE,surface,-99.3754,28.8188,1.98e-05
2017-04-02 00:00:00,2017-04-02 00:00:00,PRATE,surface,-98.4379,28.8188,4.13e-05
2017-04-02 00:00:00,2017-04-02 00:00:00,PRATE,surface,-97.5004,28.8188,4.02e-05
2017-04-02 00:00:00,2017-04-02 00:00:00,PRATE,surface,-96.5629,28.8188,2.96e-05
2017-04-02 00:00:00,2017-04-02 00:00:00,PRATE,surface,-95.6254,28.8188,2.87e-05
2017-04-02 00:00:00,2017-04-02 00:00:00,PRATE,surface,-94.6879,28.8188,2.27e-05
2017-04-02 00:00:00,2017-04-02 00:00:00,PRATE,surface,-93.7504,28.8188,1.09e-05
2017-04-02 00:00:00,2017-04-02 00:00:00,PRATE,surface,-92.8129,28.8188,1.59e-05
2017-04-02 00:00:00,2017-04-02 00:00:00,PRATE,surface,-107.813,29.7637,6.49e-05
2017-04-02 00:00:00,2017-04-02 00:00:00,PRATE,surface,-106.875,29.7637,3.43e-05
2017-04-02 00:00:00,2017-04-02 00:00:00,PRATE,surface,-105.938,29.7637,3.8e-06
2017-04-02 00:00:00,2017-04-02 00:00:00,PRATE,surface,-105,29.7637,2.7e-06
2017-04-02 00:00:00,2017-04-02 00:00:00,PRATE,surface,-104.063,29.7637,9e-07
2017-04-02 00:00:00,2017-04-02 00:00:00,PRATE,surface,-103.125,29.7637,6e-07
2017-04-02 00:00:00,2017-04-02 00:00:00,PRATE,surface,-102.188,29.7637,2e-07
2017-04-02 00:00:00,2017-04-02 00:00:00,PRATE,surface,-101.25,29.7637,1e-07
2017-04-02 00:00:00,2017-04-02 00:00:00,PRATE,surface,-100.313,29.7637,3.1e-06
2017-04-02 00:00:00,2017-04-02 00:00:00,PRATE,surface,-99.3754,29.7637,1.82e-05
2017-04-02 00:00:00,2017-04-02 00:00:00,PRATE,surface,-98.4379,29.7637,2.09e-05
2017-04-02 00:00:00,2017-04-02 00:00:00,PRATE,surface,-97.5004,29.7637,1.16e-05
2017-04-02 00:00:00,2017-04-02 00:00:00,PRATE,surface,-96.5629,29.7637,7.3e-06
2017-04-02 00:00:00,2017-04-02 00:00:00,PRATE,surface,-95.6254,29.7637,1.09e-05
2017-04-02 00:00:00,2017-04-02 00:00:00,PRATE,surface,-94.6879,29.7637,1.44e-05
2017-04-02 00:00:00,2017-04-02 00:00:00,PRATE,surface,-93.7504,29.7637,1.54e-05
2017-04-02 00:00:00,2017-04-02 00:00:00,PRATE,surface,-92.8129,29.7637,2.58e-05
2017-04-02 00:00:00,2017-04-02 00:00:00,PRATE,surface,-107.813,30.7085,9.8e-06
2017-04-02 00:00:00,2017-04-02 00:00:00,PRATE,surface,-106.875,30.7085,3e-06
2017-04-02 00:00:00,2017-04-02 00:00:00,PRATE,surface,-105.938,30.7085,4.2e-06
2017-04-02 00:00:00,2017-04-02 00:00:00,PRATE,surface,-105,30.7085,2.9e-06
2017-04-02 00:00:00,2017-04-02 00:00:00,PRATE,surface,-104.063,30.7085,5e-07
2017-04-02 00:00:00,2017-04-02 00:00:00,PRATE,surface,-103.125,30.7085,0
2017-04-02 00:00:00,2017-04-02 00:00:00,PRATE,surface,-102.188,30.7085,0
2017-04-02 00:00:00,2017-04-02 00:00:00,PRATE,surface,-101.25,30.7085,5e-07
2017-04-02 00:00:00,2017-04-02 00:00:00,PRATE,surface,-100.313,30.7085,1.7e-06
2017-04-02 00:00:00,2017-04-02 00:00:00,PRATE,surface,-99.3754,30.7085,6.3e-06
2017-04-02 00:00:00,2017-04-02 00:00:00,PRATE,surface,-98.4379,30.7085,4.8e-06
2017-04-02 00:00:00,2017-04-02 00:00:00,PRATE,surface,-97.5004,30.7085,9e-07
2017-04-02 00:00:00,2017-04-02 00:00:00,PRATE,surface,-96.5629,30.7085,8e-07
2017-04-02 00:00:00,2017-04-02 00:00:00,PRATE,surface,-95.6254,30.7085,4e-06
2017-04-02 00:00:00,2017-04-02 00:00:00,PRATE,surface,-94.6879,30.7085,8.6e-06
2017-04-02 00:00:00,2017-04-02 00:00:00,PRATE,surface,-93.7504,30.7085,1.19e-05
2017-04-02 00:00:00,2017-04-02 00:00:00,PRATE,surface,-92.8129,30.7085,2.08e-05
2017-04-02 00:00:00,2017-04-02 00:00:00,PRATE,surface,-107.813,31.6534,2.5e-06
2017-04-02 00:00:00,2017-04-02 00:00:00,PRATE,surface,-106.875,31.6534,2.9e-06
2017-04-02 00:00:00,2017-04-02 00:00:00,PRATE,surface,-105.938,31.6534,1.6e-06
2017-04-02 00:00:00,2017-04-02 00:00:00,PRATE,surface,-105,31.6534,1.2e-06
2017-04-02 00:00:00,2017-04-02 00:00:00,PRATE,surface,-104.063,31.6534,3e-07
2017-04-02 00:00:00,2017-04-02 00:00:00,PRATE,surface,-103.125,31.6534,0
2017-04-02 00:00:00,2017-04-02 00:00:00,PRATE,surface,-102.188,31.6534,0
2017-04-02 00:00:00,2017-04-02 00:00:00,PRATE,surface,-101.25,31.6534,3e-07
2017-04-02 00:00:00,2017-04-02 00:00:00,PRATE,surface,-100.313,31.6534,1.3e-06
2017-04-02 00:00:00,2017-04-02 00:00:00,PRATE,surface,-99.3754,31.6534,1.3e-06
2017-04-02 00:00:00,2017-04-02 00:00:00,PRATE,surface,-98.4379,31.6534,1e-06
2017-04-02 00:00:00,2017-04-02 00:00:00,PRATE,surface,-97.5004,31.6534,1.1e-06
2017-04-02 00:00:00,2017-04-02 00:00:00,PRATE,surface,-96.5629,31.6534,2.8e-06
2017-04-02 00:00:00,2017-04-02 00:00:00,PRATE,surface,-95.6254,31.6534,6e-06
2017-04-02 00:00:00,2017-04-02 00:00:00,PRATE,surface,-94.6879,31.6534,8.2e-06
2017-04-02 00:00:00,2017-04-02 00:00:00,PRATE,surface,-93.7504,31.6534,6.7e-06
2017-04-02 00:00:00,2017-04-02 00:00:00,PRATE,surface,-92.8129,31.6534,4.6e-06
2017-04-02 00:00:00,2017-04-02 00:00:00,PRATE,surface,-107.813,32.5983,1.38e-05
2017-04-02 00:00:00,2017-04-02 00:00:00,PRATE,surface,-106.875,32.5983,5.3e-06
2017-04-02 00:00:00,2017-04-02 00:00:00,PRATE,surface,-105.938,32.5983,1.2e-06
2017-04-02 00:00:00,2017-04-02 00:00:00,PRATE,surface,-105,32.5983,2e-07
2017-04-02 00:00:00,2017-04-02 00:00:00,PRATE,surface,-104.063,32.5983,0
2017-04-02 00:00:00,2017-04-02 00:00:00,PRATE,surface,-103.125,32.5983,0
2017-04-02 00:00:00,2017-04-02 00:00:00,PRATE,surface,-102.188,32.5983,0
2017-04-02 00:00:00,2017-04-02 00:00:00,PRATE,surface,-101.25,32.5983,4e-07
2017-04-02 00:00:00,2017-04-02 00:00:00,PRATE,surface,-100.313,32.5983,1e-06
2017-04-02 00:00:00,2017-04-02 00:00:00,PRATE,surface,-99.3754,32.5983,1e-06
2017-04-02 00:00:00,2017-04-02 00:00:00,PRATE,surface,-98.4379,32.5983,1.5e-06
2017-04-02 00:00:00,2017-04-02 00:00:00,PRATE,surface,-97.5004,32.5983,2.6e-06
2017-04-02 00:00:00,2017-04-02 00:00:00,PRATE,surface,-96.5629,32.5983,3.9e-06
2017-04-02 00:00:00,2017-04-02 00:00:00,PRATE,surface,-95.6254,32.5983,5.7e-06
2017-04-02 00:00:00,2017-04-02 00:00:00,PRATE,surface,-94.6879,32.5983,8e-06
2017-04-02 00:00:00,2017-04-02 00:00:00,PRATE,surface,-93.7504,32.5983,9.8e-06
2017-04-02 00:00:00,2017-04-02 00:00:00,PRATE,surface,-92.8129,32.5983,1.07e-05
2017-04-02 00:00:00,2017-04-02 00:00:00,PRATE,surface,-107.813,33.5432,3.47e-05
2017-04-02 00:00:00,2017-04-02 00:00:00,PRATE,surface,-106.875,33.5432,1.33e-05
2017-04-02 00:00:00,2017-04-02 00:00:00,PRATE,surface,-105.938,33.5432,1.8e-06
2017-04-02 00:00:00,2017-04-02 00:00:00,PRATE,surface,-105,33.5432,2e-07
2017-04-02 00:00:00,2017-04-02 00:00:00,PRATE,surface,-104.063,33.5432,0
2017-04-02 00:00:00,2017-04-02 00:00:00,PRATE,surface,-103.125,33.5432,2e-07
2017-04-02 00:00:00,2017-04-02 00:00:00,PRATE,surface,-102.188,33.5432,2e-07
2017-04-02 00:00:00,2017-04-02 00:00:00,PRATE,surface,-101.25,33.5432,2.8e-06
2017-04-02 00:00:00,2017-04-02 00:00:00,PRATE,surface,-100.313,33.5432,2.1e-06
2017-04-02 00:00:00,2017-04-02 00:00:00,PRATE,surface,-99.3754,33.5432,3.4e-06
2017-04-02 00:00:00,2017-04-02 00:00:00,PRATE,surface,-98.4379,33.5432,6.2e-06
2017-04-02 00:00:00,2017-04-02 00:00:00,PRATE,surface,-97.5004,33.5432,8.7e-06
2017-04-02 00:00:00,2017-04-02 00:00:00,PRATE,surface,-96.5629,33.5432,1.01e-05
2017-04-02 00:00:00,2017-04-02 00:00:00,PRATE,surface,-95.6254,33.5432,1.01e-05
2017-04-02 00:00:00,2017-04-02 00:00:00,PRATE,surface,-94.6879,33.5432,1.04e-05
2017-04-02 00:00:00,2017-04-02 00:00:00,PRATE,surface,-93.7504,33.5432,1.35e-05
2017-04-02 00:00:00,2017-04-02 00:00:00,PRATE,surface,-92.8129,33.5432,1.66e-05
2017-04-02 00:00:00,2017-04-02 00:00:00,PRATE,surface,-107.813,34.4881,2.68e-05
2017-04-02 00:00:00,2017-04-02 00:00:00,PRATE,surface,-106.875,34.4881,1.12e-05
2017-04-02 00:00:00,2017-04-02 00:00:00,PRATE,surface,-105.938,34.4881,1.8e-06
2017-04-02 00:00:00,2017-04-02 00:00:00,PRATE,surface,-105,34.4881,6e-07
2017-04-02 00:00:00,2017-04-02 00:00:00,PRATE,surface,-104.063,34.4881,5e-07
2017-04-02 00:00:00,2017-04-02 00:00:00,PRATE,surface,-103.125,34.4881,2e-06
2017-04-02 00:00:00,2017-04-02 00:00:00,PRATE,surface,-102.188,34.4881,4.7e-06
2017-04-02 00:00:00,2017-04-02 00:00:00,PRATE,surface,-101.25,34.4881,4.6e-06
2017-04-02 00:00:00,2017-04-02 00:00:00,PRATE,surface,-100.313,34.4881,1.8e-06
2017-04-02 00:00:00,2017-04-02 00:00:00,PRATE,surface,-99.3754,34.4881,1.3e-06
2017-04-02 00:00:00,2017-04-02 00:00:00,PRATE,surface,-98.4379,34.4881,2e-06
2017-04-02 00:00:00,2017-04-02 00:00:00,PRATE,surface,-97.5004,34.4881,2.5e-06
2017-04-02 00:00:00,2017-04-02 00:00:00,PRATE,surface,-96.5629,34.4881,2.8e-06
2017-04-02 00:00:00,2017-04-02 00:00:00,PRATE,surface,-95.6254,34.4881,5.4e-06
2017-04-02 00:00:00,2017-04-02 00:00:00,PRATE,surface,-94.6879,34.4881,1.27e-05
2017-04-02 00:00:00,2017-04-02 00:00:00,PRATE,surface,-93.7504,34.4881,2.11e-05
2017-04-02 00:00:00,2017-04-02 00:00:00,PRATE,surface,-92.8129,34.4881,2.56e-05
2017-04-02 00:00:00,2017-04-02 00:00:00,PRATE,surface,-107.813,35.4329,8.2e-06
2017-04-02 00:00:00,2017-04-02 00:00:00,PRATE,surface,-106.875,35.4329,6.7e-06
2017-04-02 00:00:00,2017-04-02 00:00:00,PRATE,surface,-105.938,35.4329,2.5e-06
2017-04-02 00:00:00,2017-04-02 00:00:00,PRATE,surface,-105,35.4329,6.8e-06
2017-04-02 00:00:00,2017-04-02 00:00:00,PRATE,surface,-104.063,35.4329,6.6e-06
2017-04-02 00:00:00,2017-04-02 00:00:00,PRATE,surface,-103.125,35.4329,9e-06
2017-04-02 00:00:00,2017-04-02 00:00:00,PRATE,surface,-102.188,35.4329,7.6e-06
2017-04-02 00:00:00,2017-04-02 00:00:00,PRATE,surface,-101.25,35.4329,5.4e-06
2017-04-02 00:00:00,2017-04-02 00:00:00,PRATE,surface,-100.313,35.4329,3.7e-06
2017-04-02 00:00:00,2017-04-02 00:00:00,PRATE,surface,-99.3754,35.4329,3.2e-06
2017-04-02 00:00:00,2017-04-02 00:00:00,PRATE,surface,-98.4379,35.4329,3.2e-06
2017-04-02 00:00:00,2017-04-02 00:00:00,PRATE,surface,-97.5004,35.4329,3.1e-06
2017-04-02 00:00:00,2017-04-02 00:00:00,PRATE,surface,-96.5629,35.4329,2.4e-06
2017-04-02 00:00:00,2017-04-02 00:00:00,PRATE,surface,-95.6254,35.4329,2.7e-06
2017-04-02 00:00:00,2017-04-02 00:00:00,PRATE,surface,-94.6879,35.4329,5.8e-06
2017-04-02 00:00:00,2017-04-02 00:00:00,PRATE,surface,-93.7504,35.4329,1.58e-05
2017-04-02 00:00:00,2017-04-02 00:00:00,PRATE,surface,-92.8129,35.4329,3.52e-05
2017-04-02 00:00:00,2017-04-02 00:00:00,PRATE,surface,-107.813,36.3778,6.7e-06
2017-04-02 00:00:00,2017-04-02 00:00:00,PRATE,surface,-106.875,36.3778,1.54e-05
2017-04-02 00:00:00,2017-04-02 00:00:00,PRATE,surface,-105.938,36.3778,3.05e-05
2017-04-02 00:00:00,2017-04-02 00:00:00,PRATE,surface,-105,36.3778,2.15e-05
2017-04-02 00:00:00,2017-04-02 00:00:00,PRATE,surface,-104.063,36.3778,1.15e-05
2017-04-02 00:00:00,2017-04-02 00:00:00,PRATE,surface,-103.125,36.3778,1.05e-05
2017-04-02 00:00:00,2017-04-02 00:00:00,PRATE,surface,-102.188,36.3778,8.4e-06
2017-04-02 00:00:00,2017-04-02 00:00:00,PRATE,surface,-101.25,36.3778,5.8e-06
2017-04-02 00:00:00,2017-04-02 00:00:00,PRATE,surface,-100.313,36.3778,2.8e-06
2017-04-02 00:00:00,2017-04-02 00:00:00,PRATE,surface,-99.3754,36.3778,1.7e-06
2017-04-02 00:00:00,2017-04-02 00:00:00,PRATE,surface,-98.4379,36.3778,1.5e-06
2017-04-02 00:00:00,2017-04-02 00:00:00,PRATE,surface,-97.5004,36.3778,1.8e-06
2017-04-02 00:00:00,2017-04-02 00:00:00,PRATE,surface,-96.5629,36.3778,2.5e-06
2017-04-02 00:00:00,2017-04-02 00:00:00,PRATE,surface,-95.6254,36.3778,3.2e-06
2017-04-02 00:00:00,2017-04-02 00:00:00,PRATE,surface,-94.6879,36.3778,4.9e-06
2017-04-02 00:00:00,2017-04-02 00:00:00,PRATE,surface,-93.7504,36.3778,1.11e-05
2017-04-02 00:00:00,2017-04-02 00:00:00,PRATE,surface,-92.8129,36.3778,2.42e-05
