2011-08-19 00:00:00,2011-08-19 00:00:00,TMP,surface,-107.813,25.0393,301.956
2011-08-19 00:00:00,2011-08-19 00:00:00,TMP,surface,-106.875,25.0393,296.823
2011-08-19 00:00:00,2011-08-19 00:00:00,TMP,surface,-105.938,25.0393,291.465
2011-08-19 00:00:00,2011-08-19 00:00:00,TMP,surface,-105,25.0393,288.548
2011-08-19 00:00:00,2011-08-19 00:00:00,TMP,surface,-104.063,25.0393,291.621
2011-08-19 00:00:00,2011-08-19 00:00:00,TMP,surface,-103.125,25.0393,294.434
2011-08-19 00:00:00,2011-08-19 00:00:00,TMP,surface,-102.188,25.0393,293.761
2011-08-19 00:00:00,2011-08-19 00:00:00,TMP,surface,-101.25,25.0393,291.543
2011-08-19 00:00:00,2011-08-19 00:00:00,TMP,surface,-100.313,25.0393,291.909
2011-08-19 00:00:00,2011-08-19 00:00:00,TMP,surface,-99.3754,25.0393,295.697
2011-08-19 00:00:00,2011-08-19 00:00:00,TMP,surface,-98.4379,25.0393,299.658
2011-08-19 00:00:00,2011-08-19 00:00:00,TMP,surface,-97.5004,25.0393,302.575
2011-08-19 00:00:00,2011-08-19 00:00:00,TMP,surface,-96.5629,25.0393,303.036
2011-08-19 00:00:00,2011-08-19 00:00:00,TMP,surface,-95.6254,25.0393,303.45
2011-08-19 00:00:00,2011-08-19 00:00:00,TMP,surface,-94.6879,25.0393,303.554
2011-08-19 00:00:00,2011-08-19 00:00:00,TMP,surface,-93.7504,25.0393,303.394
2011-08-19 00:00:00,2011-08-19 00:00:00,TMP,surface,-92.8129,25.0393,303.191
2011-08-19 00:00:00,2011-08-19 00:00:00,TMP,surface,-107.813,25.9842,297.705
2011-08-19 00:00:00,2011-08-19 00:00:00,TMP,surface,-106.875,25.9842,292.593
2011-08-19 00:00:00,2011-08-19 00:00:00,TMP,surface,-105.938,25.9842,289.517
2011-08-19 00:00:00,2011-08-19 00:00:00,TMP,surface,-105,25.9842,290.055
2011-08-19 00:00:00,2011-08-19 00:00:00,TMP,surface,-104.063,25.9842,294.793
2011-08-19 00:00:00,2011-08-19 00:00:00,TMP,surface,-103.125,25.9842,296.738
2011-08-19 00:00:00,2011-08-19 00:00:00,TMP,surface,-102.188,25.9842,295.354
2011-08-19 00:00:00,2011-08-19 00:00:00,TMP,surface,-101.25,25.9842,294.457
2011-08-19 00:00:00,2011-08-19 00:00:00,TMP,surface,-100.313,25.9842,295.162
2011-08-19 00:00:00,2011-08-19 00:00:00,TMP,surface,-99.3754,25.9842,298.962
2011-08-19 00:00:00,2011-08-19 00:00:00,TMP,surface,-98.4379,25.9842,301.007
2011-08-19 00:00:00,2011-08-19 00:00:00,TMP,surface,-97.5004,25.9842,300.9
2011-08-19 00:00:00,2011-08-19 00:00:00,TMP,surface,-96.5629,25.9842,302.453
2011-08-19 00:00:00,2011-08-19 00:00:00,TMP,surface,-95.6254,25.9842,303.071
2011-08-19 00:00:00,2011-08-19 00:00:00,TMP,surface,-94.6879,25.9842,303.185
2011-08-19 00:00:00,2011-08-19 00:00:00,TMP,surface,-93.7504,25.9842,303.142
2011-08-19 00:00:00,2011-08-19 00:00:00,TMP,surface,-92.8129,25.9842,303.17
2011-08-19 00:00:00,2011-08-19 00:00:00,TMP,surface,-107.813,26.929,293.439
2011-08-19 00:00:00,2011-08-19 00:00:00,TMP,surface,-106.875,26.929,289.617
2011-08-19 00:00:00,2011-08-19 00:00:00,TMP,surface,-105.938,26.929,289.903
2011-08-19 00:00:00,2011-08-19 00:00:00,TMP,surface,-105,26.929,293.548
2011-08-19 00:00:00,2011-08-19 00:00:00,TMP,surface,-104.063,26.929,296.737
2011-08-19 00:00:00,2011-08-19 00:00:00,TMP,surface,-103.125,26.929,296.468
2011-08-19 00:00:00,2011-08-19 00:00:00,TMP,surface,-102.188,26.929,295.303
2011-08-19 00:00:00,2011-08-19 00:00:00,TMP,surface,-101.25,26.929,296.225
2011-08-19 00:00:00,2011-08-19 00:00:00,TMP,surface,-100.313,26.929,298.452
2011-08-19 00:00:00,2011-08-19 00:00:00,TMP,surface,-99.3754,26.929,300.837
2011-08-19 00:00:00,2011-08-19 00:00:00,TMP,surface,-98.4379,26.929,300.281
2011-08-19 00:00:00,2011-08-19 00:00:00,TMP,surface,-97.5004,26.929,301.302
2011-08-19 00:00:00,2011-08-19 00:00:00,TMP,surface,-96.5629,26.929,301.721
2011-08-19 00:00:00,2011-08-19 00:00:00,TMP,surface,-95.6254,26.929,302.601
2011-08-19 00:00:00,2011-08-19 00:00:00,TMP,surface,-94.6879,26.929,302.99
2011-08-19 00:00:00,2011-08-19 00:00:00,TMP,surface,-93.7504,26.929,303.005
2011-08-19 00:00:00,2011-08-19 00:00:00,TMP,surface,-92.8129,26.929,303.05
2011-08-19 00:00:00,2011-08-19 00:00:00,TMP,surface,-107.813,27.8739,290.703
2011-08-19 00:00:00,2011-08-19 00:00:00,TMP,surface,-106.875,27.8739,288.791
2011-08-19 00:00:00,2011-08-19 00:00:00,TMP,surface,-105.938,27.8739,291.162
2011-08-19 00:00:00,2011-08-19 00:00:00,TMP,surface,-105,27.8739,295.42
2011-08-19 00:00:00,2011-08-19 00:00:00,TMP,surface,-104.063,27.8739,296.367
2011-08-19 00:00:00,2011-08-19 00:00:00,TMP,surface,-103.125,27.8739,294.929
2011-08-19 00:00:00,2011-08-19 00:00:00,TMP,surface,-102.188,27.8739,294.593
2011-08-19 00:00:00,2011-08-19 00:00:00,TMP,surface,-101.25,27.8739,297.106
2011-08-19 00:00:00,2011-08-19 00:00:00,TMP,surface,-100.313,27.8739,299.815
2011-08-19 00:00:00,2011-08-19 00:00:00,TMP,surface,-99.3754,27.8739,300.349
2011-08-19 00:00:00,2011-08-19 00:00:00,TMP,surface,-98.4379,27.8739,299.489
2011-08-19 00:00:00,2011-08-19 00:00:00,TMP,surface,-97.5004,27.8739,300.453
2011-08-19 00:00:00,2011-08-19 00:00:00,TMP,surface,-96.5629,27.8739,302.206
2011-08-19 00:00:00,2011-08-19 00:00:00,TMP,surface,-95.6254,27.8739,302.666
2011-08-19 00:00:00,2011-08-19 00:00:00,TMP,surface,-94.6879,27.8739,302.873
2011-08-19 00:00:00,2011-08-19 00:00:00,TMP,surface,-93.7504,27.8739,302.868
2011-08-19 00:00:00,2011-08-19 00:00:00,TMP,surface,-92.8129,27.8739,302.87
2011-08-19 00:00:00,2011-08-19 00:00:00,TMP,surface,-107.813,28.8188,289.066
2011-08-19 00:00:00,2011-08-19 00:00:00,TMP,surface,-106.875,28.8188,288.99
2011-08-19 00:00:00,2011-08-19 00:00:00,TMP,surface,-105.938,28.8188,292.922
2011-08-19 00:00:00,2011-08-19 00:00:00,TMP,surface,-105,28.8188,296.17
2011-08-19 00:00:00,2011-08-19 00:00:00,TMP,surface,-104.063,28.8188,295.487
2011-08-19 00:00:00,2011-08-19 00:00:00,TMP,surface,-103.125,28.8188,294.804
2011-08-19 00:00:00,2011-08-19 00:00:00,TMP,surface,-102.188,28.8188,294.964
2011-08-19 00:00:00,2011-08-19 00:00:00,TMP,surface,-101.25,28.8188,297.138
2011-08-19 00:00:00,2011-08-19 00:00:00,TMP,surface,-100.313,28.8188,298.629
2011-08-19 00:00:00,2011-08-19 00:00:00,TMP,surface,-99.3754,28.8188,298.397
2011-08-19 00:00:00,2011-08-19 00:00:00,TMP,surface,-98.4379,28.8188,297.753
2011-08-19 00:00:00,2011-08-19 00:00:00,TMP,surface,-97.5004,28.8188,297.542
2011-08-19 00:00:00,2011-08-19 00:00:00,TMP,surface,-96.5629,28.8188,298.042
2011-08-19 00:00:00,2011-08-19 00:00:00,TMP,surface,-95.6254,28.8188,300.007
2011-08-19 00:00:00,2011-08-19 00:00:00,TMP,surface,-94.6879,28.8188,302.29
2011-08-19 00:00:00,2011-08-19 00:00:00,TMP,surface,-93.7504,28.8188,302.425
2011-08-19 00:00:00,2011-08-19 00:00:00,TMP,surface,-92.8129,28.8188,302.519
2011-08-19 00:00:00,2011-08-19 00:00:00,TMP,surface,-107.813,29.7637,290.445
2011-08-19 00:00:00,2011-08-19 00:00:00,TMP,surface,-106.875,29.7637,291.194
2011-08-19 00:00:00,2011-08-19 00:00:00,TMP,surface,-105.938,29.7637,294.303
2011-08-19 00:00:00,2011-08-19 00:00:00,TMP,surface,-105,29.7637,295.265
2011-08-19 00:00:00,2011-08-19 00:00:00,TMP,surface,-104.063,29.7637,295.191
2011-08-19 00:00:00,2011-08-19 00:00:00,TMP,surface,-103.125,29.7637,295.426
2011-08-19 00:00:00,2011-08-19 00:00:00,TMP,surface,-102.188,29.7637,296.582
2011-08-19 00:00:00,2011-08-19 00:00:00,TMP,surface,-101.25,29.7637,297.322
2011-08-19 00:00:00,2011-08-19 00:00:00,TMP,surface,-100.313,29.7637,296.75
2011-08-19 00:00:00,2011-08-19 00:00:00,TMP,surface,-99.3754,29.7637,295.974
2011-08-19 00:00:00,2011-08-19 00:00:00,TMP,surface,-98.4379,29.7637,295.943
2011-08-19 00:00:00,2011-08-19 00:00:00,TMP,surface,-97.5004,29.7637,296.553
2011-08-19 00:00:00,2011-08-19 00:00:00,TMP,surface,-96.5629,29.7637,297.273
2011-08-19 00:00:00,2011-08-19 00:00:00,TMP,surface,-95.6254,29.7637,297.892
2011-08-19 00:00:00,2011-08-19 00:00:00,TMP,surface,-94.6879,29.7637,299.463
2011-08-19 00:00:00,2011-08-19 00:00:00,TMP,surface,-93.7504,29.7637,301.121
2011-08-19 00:00:00,2011-08-19 00:00:00,TMP,surface,-92.8129,29.7637,298.295
2011-08-19 00:00:00,2011-08-19 00:00:00,TMP,surface,-107.813,30.7085,294.298
2011-08-19 00:00:00,2011-08-19 00:00:00,TMP,surface,-106.875,30.7085,295.402
2011-08-19 00:00:00,2011-08-19 00:00:00,TMP,surface,-105.938,30.7085,294.99
2011-08-19 00:00:00,2011-08-19 00:00:00,TMP,surface,-105,30.7085,294.775
2011-08-19 00:00:00,2011-08-19 00:00:00,TMP,surface,-104.063,30.7085,294.161
2011-08-19 00:00:00,2011-08-19 00:00:00,TMP,surface,-103.125,30.7085,295.781
2011-08-19 00:00:00,2011-08-19 00:00:00,TMP,surface,-102.188,30.7085,296.901
2011-08-19 00:00:00,2011-08-19 00:00:00,TMP,surface,-101.25,30.7085,296.657
2011-08-19 00:00:00,2011-08-19 00:00:00,TMP,surface,-100.313,30.7085,295.866
2011-08-19 00:00:00,2011-08-19 00:00:00,TMP,surface,-99.3754,30.7085,294.994
2011-08-19 00:00:00,2011-08-19 00:00:00,TMP,surface,-98.4379,30.7085,295.198
2011-08-19 00:00:00,2011-08-19 00:00:00,TMP,surface,-97.5004,30.7085,296.114
2011-08-19 00:00:00,2011-08-19 00:00:00,TMP,surface,-96.5629,30.7085,297.074
2011-08-19 00:00:00,2011-08-19 00:00:00,TMP,surface,-95.6254,30.7085,297.801
2011-08-19 00:00:00,2011-08-19 00:00:00,TMP,surface,-94.6879,30.7085,297.949
2011-08-19 00:00:00,2011-08-19 00:00:00,TMP,surface,-93.7504,30.7085,297.769
2011-08-19 00:00:00,2011-08-19 00:00:00,TMP,surface,-92.8129,30.7085,297.289
2011-08-19 00:00:00,2011-08-19 00:00:00,TMP,surface,-107.813,31.6534,295.996
2011-08-19 00:00:00,2011-08-19 00:00:00,TMP,surface,-106.875,31.6534,295.986
2011-08-19 00:00:00,2011-08-19 00:00:00,TMP,surface,-105.938,31.6534,294.146
2011-08-19 00:00:00,2011-08-19 00:00:00,TMP,surface,-105,31.6534,293.865
2011-08-19 00:00:00,2011-08-19 00:00:00,TMP,surface,-104.063,31.6534,294.717
2011-08-19 00:00:00,2011-08-19 00:00:00,TMP,surface,-103.125,31.6534,295.997
2011-08-19 00:00:00,2011-08-19 00:00:00,TMP,surface,-102.188,31.6534,296.356
2011-08-19 00:00:00,2011-08-19 00:00:00,TMP,surface,-101.25,31.6534,295.943
2011-08-19 00:00:00,2011-08-19 00:00:00,TMP,surface,-100.313,31.6534,295.426
2011-08-19 00:00:00,2011-08-19 00:00:00,TMP,surface,-99.3754,31.6534,294.889
2011-08-19 00:00:00,2011-08-19 00:00:00,TMP,surface,-98.4379,31.6534,295.044
2011-08-19 00:00:00,2011-08-19 00:00:00,TMP,surface,-97.5004,31.6534,295.982
2011-08-19 00:00:00,2011-08-19 00:00:00,TMP,surface,-96.5629,31.6534,297.057
2011-08-19 00:00:00,2011-08-19 00:00:00,TMP,surface,-95.6254,31.6534,297.708
2011-08-19 00:00:00,2011-08-19 00:00:00,TMP,surface,-94.6879,31.6534,297.772
2011-08-19 00:00:00,2011-08-19 00:00:00,TMP,surface,-93.7504,31.6534,297.517
2011-08-19 00:00:00,2011-08-19 00:00:00,TMP,surface,-92.8129,31.6534,297.361
2011-08-19 00:00:00,2011-08-19 00:00:00,TMP,surface,-107.813,32.5983,292.399
2011-08-19 00:00:00,2011-08-19 00:00:00,TMP,surface,-106.875,32.5983,292.367
2011-08-19 00:00:00,2011-08-19 00:00:00,TMP,surface,-105.938,32.5983,292.386
2011-08-19 00:00:00,2011-08-19 00:00:00,TMP,surface,-105,32.5983,292.457
2011-08-19 00:00:00,2011-08-19 00:00:00,TMP,surface,-104.063,32.5983,294.162
2011-08-19 00:00:00,2011-08-19 00:00:00,TMP,surface,-103.125,32.5983,294.804
2011-08-19 00:00:00,2011-08-19 00:00:00,TMP,surface,-102.188,32.5983,295.095
2011-08-19 00:00:00,2011-08-19 00:00:00,TMP,surface,-101.25,32.5983,295.114
2011-08-19 00:00:00,2011-08-19 00:00:00,TMP,surface,-100.313,32.5983,295.233
2011-08-19 00:00:00,2011-08-19 00:00:00,TMP,surface,-99.3754,32.5983,294.941
2011-08-19 00:00:00,2011-08-19 00:00:00,TMP,surface,-98.4379,32.5983,294.81
2011-08-19 00:00:00,2011-08-19 00:00:00,TMP,surface,-97.5004,32.5983,295.513
2011-08-19 00:00:00,2011-08-19 00:00:00,TMP,surface,-96.5629,32.5983,296.788
2011-08-19 00:00:00,2011-08-19 00:00:00,TMP,surface,-95.6254,32.5983,297.599
2011-08-19 00:00:00,2011-08-19 00:00:00,TMP,surface,-94.6879,32.5983,297.397
2011-08-19 00:00:00,2011-08-19 00:00:00,TMP,surface,-93.7504,32.5983,296.964
2011-08-19 00:00:00,2011-08-19 00:00:00,TMP,surface,-92.8129,32.5983,296.988
2011-08-19 00:00:00,2011-08-19 00:00:00,TMP,surface,-107.813,33.5432,288.486
2011-08-19 00:00:00,2011-08-19 00:00:00,TMP,surface,-106.875,33.5432,289.495
2011-08-19 00:00:00,2011-08-19 00:00:00,TMP,surface,-105.938,33.5432,290.156
2011-08-19 00:00:00,2011-08-19 00:00:00,TMP,surface,-105,33.5432,291.812
2011-08-19 00:00:00,2011-08-19 00:00:00,TMP,surface,-104.063,33.5432,293.889
2011-08-19 00:00:00,2011-08-19 00:00:00,TMP,surface,-103.125,33.5432,294.257
2011-08-19 00:00:00,2011-08-19 00:00:00,TMP,surface,-102.188,33.5432,294.02
2011-08-19 00:00:00,2011-08-19 00:00:00,TMP,surface,-101.25,33.5432,294.161
2011-08-19 00:00:00,2011-08-19 00:00:00,TMP,surface,-100.313,33.5432,294.948
2011-08-19 00:00:00,2011-08-19 00:00:00,TMP,surface,-99.3754,33.5432,295.125
2011-08-19 00:00:00,2011-08-19 00:00:00,TMP,surface,-98.4379,33.5432,294.7
2011-08-19 00:00:00,2011-08-19 00:00:00,TMP,surface,-97.5004,33.5432,294.702
2011-08-19 00:00:00,2011-08-19 00:00:00,TMP,surface,-96.5629,33.5432,295.237
2011-08-19 00:00:00,2011-08-19 00:00:00,TMP,surface,-95.6254,33.5432,295.957
2011-08-19 00:00:00,2011-08-19 00:00:00,TMP,surface,-94.6879,33.5432,296.428
2011-08-19 00:00:00,2011-08-19 00:00:00,TMP,surface,-93.7504,33.5432,296.034
2011-08-19 00:00:00,2011-08-19 00:00:00,TMP,surface,-92.8129,33.5432,295.834
2011-08-19 00:00:00,2011-08-19 00:00:00,TMP,surface,-107.813,34.4881,287.415
2011-08-19 00:00:00,2011-08-19 00:00:00,TMP,surface,-106.875,34.4881,288.919
2011-08-19 00:00:00,2011-08-19 00:00:00,TMP,surface,-105.938,34.4881,289.87
2011-08-19 00:00:00,2011-08-19 00:00:00,TMP,surface,-105,34.4881,291.665
2011-08-19 00:00:00,2011-08-19 00:00:00,TMP,surface,-104.063,34.4881,293.215
2011-08-19 00:00:00,2011-08-19 00:00:00,TMP,surface,-103.125,34.4881,293.814
2011-08-19 00:00:00,2011-08-19 00:00:00,TMP,surface,-102.188,34.4881,293.829
2011-08-19 00:00:00,2011-08-19 00:00:00,TMP,surface,-101.25,34.4881,294.015
2011-08-19 00:00:00,2011-08-19 00:00:00,TMP,surface,-100.313,34.4881,294.554
2011-08-19 00:00:00,2011-08-19 00:00:00,TMP,surface,-99.3754,34.4881,294.609
2011-08-19 00:00:00,2011-08-19 00:00:00,TMP,surface,-98.4379,34.4881,294.21
2011-08-19 00:00:00,2011-08-19 00:00:00,TMP,surface,-97.5004,34.4881,293.916
2011-08-19 00:00:00,2011-08-19 00:00:00,TMP,surface,-96.5629,34.4881,294.433
2011-08-19 00:00:00,2011-08-19 00:00:00,TMP,surface,-95.6254,34.4881,295.046
2011-08-19 00:00:00,2011-08-19 00:00:00,TMP,surface,-94.6879,34.4881,294.652
2011-08-19 00:00:00,2011-08-19 00:00:00,TMP,surface,-93.7504,34.4881,294.247
2011-08-19 00:00:00,2011-08-19 00:00:00,TMP,surface,-92.8129,34.4881,294.289
2011-08-19 00:00:00,2011-08-19 00:00:00,TMP,surface,-107.813,35.4329,288.652
2011-08-19 00:00:00,2011-08-19 00:00:00,TMP,surface,-106.875,35.4329,288.711
2011-08-19 00:00:00,2011-08-19 00:00:00,TMP,surface,-105.938,35.4329,288.548
2011-08-19 00:00:00,2011-08-19 00:00:00,TMP,surface,-105,35.4329,289.274
2011-08-19 00:00:00,2011-08-19 00:00:00,TMP,surface,-104.063,35.4329,291.879
2011-08-19 00:00:00,2011-08-19 00:00:00,TMP,surface,-103.125,35.4329,293.478
2011-08-19 00:00:00,2011-08-19 00:00:00,TMP,surface,-102.188,35.4329,294.236
2011-08-19 00:00:00,2011-08-19 00:00:00,TMP,surface,-101.25,35.4329,294.375
2011-08-19 00:00:00,2011-08-19 00:00:00,TMP,surface,-100.313,35.4329,294.164
2011-08-19 00:00:00,2011-08-19 00:00:00,TMP,surface,-99.3754,35.4329,294.047
2011-08-19 00:00:00,2011-08-19 00:00:00,TMP,surface,-98.4379,35.4329,293.786
2011-08-19 00:00:00,2011-08-19 00:00:00,TMP,surface,-97.5004,35.4329,293.476
2011-08-19 00:00:00,2011-08-19 00:00:00,TMP,surface,-96.5629,35.4329,293.513
2011-08-19 00:00:00,2011-08-19 00:00:00,TMP,surface,-95.6254,35.4329,293.943
2011-08-19 00:00:00,2011-08-19 00:00:00,TMP,surface,-94.6879,35.4329,294.113
2011-08-19 00:00:00,2011-08-19 00:00:00,TMP,surface,-93.7504,35.4329,293.414
2011-08-19 00:00:00,2011-08-19 00:00:00,TMP,surface,-92.8129,35.4329,292.729
2011-08-19 00:00:00,2011-08-19 00:00:00,TMP,surface,-107.813,36.3778,288.565
2011-08-19 00:00:00,2011-08-19 00:00:00,TMP,surface,-106.875,36.3778,286.02
2011-08-19 00:00:00,2011-08-19 00:00:00,TMP,surface,-105.938,36.3778,285.934
2011-08-19 00:00:00,2011-08-19 00:00:00,TMP,surface,-105,36.3778,286.961
2011-08-19 00:00:00,2011-08-19 00:00:00,TMP,surface,-104.063,36.3778,289.727
2011-08-19 00:00:00,2011-08-19 00:00:00,TMP,surface,-103.125,36.3778,291.903
2011-08-19 00:00:00,2011-08-19 00:00:00,TMP,surface,-102.188,36.3778,293.391
2011-08-19 00:00:00,2011-08-19 00:00:00,TMP,surface,-101.25,36.3778,293.997
2011-08-19 00:00:00,2011-08-19 00:00:00,TMP,surface,-100.313,36.3778,294.028
2011-08-19 00:00:00,2011-08-19 00:00:00,TMP,surface,-99.3754,36.3778,293.833
2011-08-19 00:00:00,2011-08-19 00:00:00,TMP,surface,-98.4379,36.3778,293.647
2011-08-19 00:00:00,2011-08-19 00:00:00,TMP,surface,-97.5004,36.3778,293.322
2011-08-19 00:00:00,2011-08-19 00:00:00,TMP,surface,-96.5629,36.3778,293.127
2011-08-19 00:00:00,2011-08-19 00:00:00,TMP,surface,-95.6254,36.3778,293.221
2011-08-19 00:00:00,2011-08-19 00:00:00,TMP,surface,-94.6879,36.3778,292.905
2011-08-19 00:00:00,2011-08-19 00:00:00,TMP,surface,-93.7504,36.3778,292.012
2011-08-19 00:00:00,2011-08-19 00:00:00,TMP,surface,-92.8129,36.3778,291.629
2011-08-19 00:00:00,2011-08-19 00:00:00,PRATE,surface,-107.813,25.0393,0
2011-08-19 00:00:00,2011-08-19 00:00:00,PRATE,surface,-106.875,25.0393,1.73e-05
2011-08-19 00:00:00,2011-08-19 00:00:00,PRATE,surface,-105.938,25.0393,3.7e-05
2011-08-19 00:00:00,2011-08-19 00:00:00,PRATE,surface,-105,25.0393,1.49e-05
2011-08-19 00:00:00,2011-08-19 00:00:00,PRATE,surface,-104.063,25.0393,2e-06
2011-08-19 00:00:00,2011-08-19 00:00:00,PRATE,surface,-103.125,25.0393,2e-07
2011-08-19 00:00:00,2011-08-19 00:00:00,PRATE,surface,-102.188,25.0393,1.5e-06
2011-08-19 00:00:00,2011-08-19 00:00:00,PRATE,surface,-101.25,25.0393,5.3e-06
2011-08-19 00:00:00,2011-08-19 00:00:00,PRATE,surface,-100.313,25.0393,2.39e-05
2011-08-19 00:00:00,2011-08-19 00:00:00,PRATE,surface,-99.3754,25.0393,1.84e-05
2011-08-19 00:00:00,2011-08-19 00:00:00,PRATE,surface,-98.4379,25.0393,1.47e-05
2011-08-19 00:00:00,2011-08-19 00:00:00,PRATE,surface,-97.5004,25.0393,2.47e-05
2011-08-19 00:00:00,2011-08-19 00:00:00,PRATE,surface,-96.5629,25.0393,5.06e-05
2011-08-19 00:00:00,2011-08-19 00:00:00,PRATE,surface,-95.6254,25.0393,7e-05
2011-08-19 00:00:00,2011-08-19 00:00:00,PRATE,surface,-94.6879,25.0393,5.83e-05
2011-08-19 00:00:00,2011-08-19 00:00:00,PRATE,surface,-93.7504,25.0393,7.31e-05
2011-08-19 00:00:00,2011-08-19 00:00:00,PRATE,surface,-92.8129,25.0393,0.0001018
2011-08-19 00:00:00,2011-08-19 00:00:00,PRATE,surface,-107.813,25.9842,2.1e-06
2011-08-19 00:00:00,2011-08-19 00:00:00,PRATE,surface,-106.875,25.9842,2.44e-05
2011-08-19 00:00:00,2011-08-19 00:00:00,PRATE,surface,-105.938,25.9842,2.45e-05
2011-08-19 00:00:00,2011-08-19 00:00:00,PRATE,surface,-105,25.9842,8.2e-06
2011-08-19 00:00:00,2011-08-19 00:00:00,PRATE,surface,-104.063,25.9842,4e-07
2011-08-19 00:00:00,2011-08-19 00:00:00,PRATE,surface,-103.125,25.9842,2e-07
2011-08-19 00:00:00,2011-08-19 00:00:00,PRATE,surface,-102.188,25.9842,5e-07
2011-08-19 00:00:00,2011-08-19 00:00:00,PRATE,surface,-101.25,25.9842,6.2e-06
2011-08-19 00:00:00,2011-08-19 00:00:00,PRATE,surface,-100.313,25.9842,7.8e-06
2011-08-19 00:00:00,2011-08-19 00:00:00,PRATE,surface,-99.3754,25.9842,6.8e-06
2011-08-19 00:00:00,2011-08-19 00:00:00,PRATE,surface,-98.4379,25.9842,7.9e-06
2011-08-19 00:00:00,2011-08-19 00:00:00,PRATE,surface,-97.5004,25.9842,1.82e-05
2011-08-19 00:00:00,2011-08-19 00:00:00,PRATE,surface,-96.5629,25.9842,8.02e-05
2011-08-19 00:00:00,2011-08-19 00:00:00,PRATE,surface,-95.6254,25.9842,9.76e-05
2011-08-19 00:00:00,2011-08-19 00:00:00,PRATE,surface,-94.6879,25.9842,5.43e-05
2011-08-19 00:00:00,2011-08-19 00:00:00,PRATE,surface,-93.7504,25.9842,4.23e-05
2011-08-19 00:00:00,2011-08-19 00:00:00,PRATE,surface,-92.8129,25.9842,6.88e-05
2011-08-19 00:00:00,2011-08-19 00:00:00,PRATE,surface,-107.813,26.929,2.54e-05
2011-08-19 00:00:00,2011-08-19 00:00:00,PRATE,surface,-106.875,26.929,3.71e-05
2011-08-19 00:00:00,2011-08-19 00:00:00,PRATE,surface,-105.938,26.929,2.38e-05
2011-08-19 00:00:00,2011-08-19 00:00:00,PRATE,surface,-105,26.929,6e-06
2011-08-19 00:00:00,2011-08-19 00:00:00,PRATE,surface,-104.063,26.929,2.1e-06
2011-08-19 00:00:00,2011-08-19 00:00:00,PRATE,surface,-103.125,26.929,1.8e-06
2011-08-19 00:00:00,2011-08-19 00:00:00,PRATE,surface,-102.188,26.929,5.7e-06
2011-08-19 00:00:00,2011-08-19 00:00:00,PRATE,surface,-101.25,26.929,5.6e-06
2011-08-19 00:00:00,2011-08-19 00:00:00,PRATE,surface,-100.313,26.929,3.8e-06
2011-08-19 00:00:00,2011-08-19 00:00:00,PRATE,surface,-99.3754,26.929,2.9e-06
2011-08-19 00:00:00,2011-08-19 00:00:00,PRATE,surface,-98.4379,26.929,1.74e-05
2011-08-19 00:00:00,2011-08-19 00:00:00,PRATE,surface,-97.5004,26.929,3.66e-05
2011-08-19 00:00:00,2011-08-19 00:00:00,PRATE,surface,-96.5629,26.929,8.35e-05
2011-08-19 00:00:00,2011-08-19 00:00:00,PRATE,surface,-95.6254,26.929,9.54e-05
2011-08-19 00:00:00,2011-08-19 00:00:00,PRATE,surface,-94.6879,26.929,6.4e-05
2011-08-19 00:00:00,2011-08-19 00:00:00,PRATE,surface,-93.7504,26.929,5.37e-05
2011-08-19 00:00:00,2011-08-19 00:00:00,PRATE,surface,-92.8129,26.929,7.27e-05
2011-08-19 00:00:00,2011-08-19 00:00:00,PRATE,surface,-107.813,27.8739,5.09e-05
2011-08-19 00:00:00,2011-08-19 00:00:00,PRATE,surface,-106.875,27.8739,4.65e-05
2011-08-19 00:00:00,2011-08-19 00:00:00,PRATE,surface,-105.938,27.8739,1.79e-05
2011-08-19 00:00:00,2011-08-19 00:00:00,PRATE,surface,-105,27.8739,3.7e-06
2011-08-19 00:00:00,2011-08-19 00:00:00,PRATE,surface,-104.063,27.8739,5.7e-06
2011-08-19 00:00:00,2011-08-19 00:00:00,PRATE,surface,-103.125,27.8739,9.1e-06
2011-08-19 00:00:00,2011-08-19 00:00:00,PRATE,surface,-102.188,27.8739,7e-06
2011-08-19 00:00:00,2011-08-19 00:00:00,PRATE,surface,-101.25,27.8739,2.6e-06
2011-08-19 00:00:00,2011-08-19 00:00:00,PRATE,surface,-100.313,27.8739,1e-06
2011-08-19 00:00:00,2011-08-19 00:00:00,PRATE,surface,-99.3754,27.8739,7e-06
2011-08-19 00:00:00,2011-08-19 00:00:00,PRATE,surface,-98.4379,27.8739,2.31e-05
2011-08-19 00:00:00,2011-08-19 00:00:00,PRATE,surface,-97.5004,27.8739,3.42e-05
2011-08-19 00:00:00,2011-08-19 00:00:00,PRATE,surface,-96.5629,27.8739,3.69e-05
2011-08-19 00:00:00,2011-08-19 00:00:00,PRATE,surface,-95.6254,27.8739,4.6e-05
2011-08-19 00:00:00,2011-08-19 00:00:00,PRATE,surface,-94.6879,27.8739,6.86e-05
2011-08-19 00:00:00,2011-08-19 00:00:00,PRATE,surface,-93.7504,27.8739,9.1e-05
2011-08-19 00:00:00,2011-08-19 00:00:00,PRATE,surface,-92.8129,27.8739,9.49e-05
2011-08-19 00:00:00,2011-08-19 00:00:00,PRATE,surface,-107.813,28.8188,6.09e-05
2011-08-19 00:00:00,2011-08-19 00:00:00,PRATE,surface,-106.875,28.8188,4.68e-05
2011-08-19 00:00:00,2011-08-19 00:00:00,PRATE,surface,-105.938,28.8188,1.1e-05
2011-08-19 00:00:00,2011-08-19 00:00:00,PRATE,surface,-105,28.8188,3.3e-06
2011-08-19 00:00:00,2011-08-19 00:00:00,PRATE,surface,-104.063,28.8188,6.9e-06
2011-08-19 00:00:00,2011-08-19 00:00:00,PRATE,surface,-103.125,28.8188,5e-06
2011-08-19 00:00:00,2011-08-19 00:00:00,PRATE,surface,-102.188,28.8188,2.4e-06
2011-08-19 00:00:00,2011-08-19 00:00:00,PRATE,surface,-101.25,28.8188,1.3e-06
2011-08-19 00:00:00,2011-08-19 00:00:00,PRATE,surface,-100.313,28.8188,3e-06
2011-08-19 00:00:00,2011-08-19 00:00:00,PRATE,surface,-99.3754,28.8188,9.6e-06
2011-08-19 00:00:00,2011-08-19 00:00:00,PRATE,surface,-98.4379,28.8188,2.07e-05
2011-08-19 00:00:00,2011-08-19 00:00:00,PRATE,surface,-97.5004,28.8188,3.11e-05
2011-08-19 00:00:00,2011-08-19 00:00:00,PRATE,surface,-96.5629,28.8188,3.3e-05
2011-08-19 00:00:00,2011-08-19 00:00:00,PRATE,surface,-95.6254,28.8188,3.54e-05
2011-08-19 00:00:00,2011-08-19 00:00:00,PRATE,surface,-94.6879,28.8188,4.22e-05
2011-08-19 00:00:00,2011-08-19 00:00:00,PRATE,surface,-93.7504,28.8188,3.19e-05
2011-08-19 00:00:00,2011-08-19 00:00:00,PRATE,surface,-92.8129,28.8188,1.6e-05
2011-08-19 00:00:00,2011-08-19 00:00:00,PRATE,surface,-107.813,29.7637,3.61e-05
2011-08-19 00:00:00,2011-08-19 00:00:00,PRATE,surface,-106.875,29.7637,3.09e-05
2011-08-19 00:00:00,2011-08-19 00:00:00,PRATE,surface,-105.938,29.7637,1.14e-05
2011-08-19 00:00:00,2011-08-19 00:00:00,PRATE,surface,-105,29.7637,1.2e-05
2011-08-19 00:00:00,2011-08-19 00:00:00,PRATE,surface,-104.063,29.7637,1e-05
2011-08-19 00:00:00,2011-08-19 00:00:00,PRATE,surface,-103.125,29.7637,5.6e-06
2011-08-19 00:00:00,2011-08-19 00:00:00,PRATE,surface,-102.188,29.7637,1.5e-06
2011-08-19 00:00:00,2011-08-19 00:00:00,PRATE,surface,-101.25,29.7637,1.4e-06
2011-08-19 00:00:00,2011-08-19 00:00:00,PRATE,surface,-100.313,29.7637,7e-06
2011-08-19 00:00:00,2011-08-19 00:00:00,PRATE,surface,-99.3754,29.7637,1.42e-05
2011-08-19 00:00:00,2011-08-19 00:00:00,PRATE,surface,-98.4379,29.7637,1.63e-05
2011-08-19 00:00:00,2011-08-19 00:00:00,PRATE,surface,-97.5004,29.7637,1.4e-05
2011-08-19 00:00:00,2011-08-19 00:00:00,PRATE,surface,-96.5629,29.7637,1.32e-05
2011-08-19 00:00:00,2011-08-19 00:00:00,PRATE,surface,-95.6254,29.7637,1.75e-05
2011-08-19 00:00:00,2011-08-19 00:00:00,PRATE,surface,-94.6879,29.7637,1.91e-05
2011-08-19 00:00:00,2011-08-19 00:00:00,PRATE,surface,-93.7504,29.7637,1.06e-05
2011-08-19 00:00:00,2011-08-19 00:00:00,PRATE,surface,-92.8129,29.7637,9.6e-06
2011-08-19 00:00:00,2011-08-19 00:00:00,PRATE,surface,-107.813,30.7085,8.5e-06
2011-08-19 00:00:00,2011-08-19 00:00:00,PRATE,surface,-106.875,30.7085,9.5e-06
2011-08-19 00:00:00,2011-08-19 00:00:00,PRATE,surface,-105.938,30.7085,1.71e-05
2011-08-19 00:00:00,2011-08-19 00:00:00,PRATE,surface,-105,30.7085,1.73e-05
2011-08-19 00:00:00,2011-08-19 00:00:00,PRATE,surface,-104.063,30.7085,1.15e-05
2011-08-19 00:00:00,2011-08-19 00:00:00,PRATE,surface,-103.125,30.7085,3.7e-06
2011-08-19 00:00:00,2011-08-19 00:00:00,PRATE,surface,-102.188,30.7085,2.3e-06
2011-08-19 00:00:00,2011-08-19 00:00:00,PRATE,surface,-101.25,30.7085,6.2e-06
2011-08-19 00:00:00,2011-08-19 00:00:00,PRATE,surface,-100.313,30.7085,1.37e-05
2011-08-19 00:00:00,2011-08-19 00:00:00,PRATE,surface,-99.3754,30.7085,2.09e-05
2011-08-19 00:00:00,2011-08-19 00:00:00,PRATE,surface,-98.4379,30.7085,1.74e-05
2011-08-19 00:00:00,2011-08-19 00:00:00,PRATE,surface,-97.5004,30.7085,1.05e-05
2011-08-19 00:00:00,2011-08-19 00:00:00,PRATE,surface,-96.5629,30.7085,7.9e-06
2011-08-19 00:00:00,2011-08-19 00:00:00,PRATE,surface,-95.6254,30.7085,7.7e-06
2011-08-19 00:00:00,2011-08-19 00:00:00,PRATE,surface,-94.6879,30.7085,8.5e-06
2011-08-19 00:00:00,2011-08-19 00:00:00,PRATE,surface,-93.7504,30.7085,8.3e-06
2011-08-19 00:00:00,2011-08-19 00:00:00,PRATE,surface,-92.8129,30.7085,8.6e-06
2011-08-19 00:00:00,2011-08-19 00:00:00,PRATE,surface,-107.813,31.6534,2.2e-06
2011-08-19 00:00:00,2011-08-19 00:00:00,PRATE,surface,-106.875,31.6534,1.01e-05
2011-08-19 00:00:00,2011-08-19 00:00:00,PRATE,surface,-105.938,31.6534,2.63e-05
2011-08-19 00:00:00,2011-08-19 00:00:00,PRATE,surface,-105,31.6534,2.23e-05
2011-08-19 00:00:00,2011-08-19 00:00:00,PRATE,surface,-104.063,31.6534,1.18e-05
2011-08-19 00:00:00,2011-08-19 00:00:00,PRATE,surface,-103.125,31.6534,2.9e-06
2011-08-19 00:00:00,2011-08-19 00:00:00,PRATE,surface,-102.188,31.6534,2.7e-06
2011-08-19 00:00:00,2011-08-19 00:00:00,PRATE,surface,-101.25,31.6534,9.1e-06
2011-08-19 00:00:00,2011-08-19 00:00:00,PRATE,surface,-100.313,31.6534,2.43e-05
2011-08-19 00:00:00,2011-08-19 00:00:00,PRATE,surface,-99.3754,31.6534,2.95e-05
2011-08-19 00:00:00,2011-08-19 00:00:00,PRATE,surface,-98.4379,31.6534,2.32e-05
2011-08-19 00:00:00,2011-08-19 00:00:00,PRATE,surface,-97.5004,31.6534,1.36e-05
2011-08-19 00:00:00,2011-08-19 00:00:00,PRATE,surface,-96.5629,31.6534,8.6e-06
2011-08-19 00:00:00,2011-08-19 00:00:00,PRATE,surface,-95.6254,31.6534,8.6e-06
2011-08-19 00:00:00,2011-08-19 00:00:00,PRATE,surface,-94.6879,31.6534,8.4e-06
2011-08-19 00:00:00,2011-08-19 00:00:00,PRATE,surface,-93.7504,31.6534,8.5e-06
2011-08-19 00:00:00,2011-08-19 00:00:00,PRATE,surface,-92.8129,31.6534,9.2e-06
2011-08-19 00:00:00,2011-08-19 00:00:00,PRATE,surface,-107.813,32.5983,1.77e-05
2011-08-19 00:00:00,2011-08-19 00:00:00,PRATE,surface,-106.875,32.5983,2.43e-05
2011-08-19 00:00:00,2011-08-19 00:00:00,PRATE,surface,-105.938,32.5983,3.65e-05
2011-08-19 00:00:00,2011-08-19 00:00:00,PRATE,surface,-105,32.5983,3.07e-05
2011-08-19 00:00:00,2011-08-19 00:00:00,PRATE,surface,-104.063,32.5983,1e-05
2011-08-19 00:00:00,2011-08-19 00:00:00,PRATE,surface,-103.125,32.5983,3e-06
2011-08-19 00:00:00,2011-08-19 00:00:00,PRATE,surface,-102.188,32.5983,4.7e-06
2011-08-19 00:00:00,2011-08-19 00:00:00,PRATE,surface,-101.25,32.5983,1.07e-05
2011-08-19 00:00:00,2011-08-19 00:00:00,PRATE,surface,-100.313,32.5983,2.16e-05
2011-08-19 00:00:00,2011-08-19 00:00:00,PRATE,surface,-99.3754,32.5983,2.48e-05
2011-08-19 00:00:00,2011-08-19 00:00:00,PRATE,surface,-98.4379,32.5983,2.02e-05
2011-08-19 00:00:00,2011-08-19 00:00:00,PRATE,surface,-97.5004,32.5983,1.35e-05
2011-08-19 00:00:00,2011-08-19 00:00:00,PRATE,surface,-96.5629,32.5983,7.8e-06
2011-08-19 00:00:00,2011-08-19 00:00:00,PRATE,surface,-95.6254,32.5983,6e-06
2011-08-19 00:00:00,2011-08-19 00:00:00,PRATE,surface,-94.6879,32.5983,7.3e-06
2011-08-19 00:00:00,2011-08-19 00:00:00,PRATE,surface,-93.7504,32.5983,6.6e-06
2011-08-19 00:00:00,2011-08-19 00:00:00,PRATE,surface,-92.8129,32.5983,5e-06
2011-08-19 00:00:00,2011-08-19 00:00:00,PRATE,surface,-107.813,33.5432,4.06e-05
2011-08-19 00:00:00,2011-08-19 00:00:00,PRATE,surface,-106.875,33.5432,4.41e-05
2011-08-19 00:00:00,2011-08-19 00:00:00,PRATE,surface,-105.938,33.5432,4.53e-05
2011-08-19 00:00:00,2011-08-19 00:00:00,PRATE,surface,-105,33.5432,2.48e-05
2011-08-19 00:00:00,2011-08-19 00:00:00,PRATE,surface,-104.063,33.5432,7.4e-06
2011-08-19 00:00:00,2011-08-19 00:00:00,PRATE,surface,-103.125,33.5432,3.2e-06
2011-08-19 00:00:00,2011-08-19 00:00:00,PRATE,surface,-102.188,33.5432,3.1e-06
2011-08-19 00:00:00,2011-08-19 00:00:00,PRATE,surface,-101.25,33.5432,4.5e-06
2011-08-19 00:00:00,2011-08-19 00:00:00,PRATE,surface,-100.313,33.5432,6.5e-06
2011-08-19 00:00:00,2011-08-19 00:00:00,PRATE,surface,-99.3754,33.5432,7.8e-06
2011-08-19 00:00:00,2011-08-19 00:00:00,PRATE,surface,-98.4379,33.5432,8e-06
2011-08-19 00:00:00,2011-08-19 00:00:00,PRATE,surface,-97.5004,33.5432,8.6e-06
2011-08-19 00:00:00,2011-08-19 00:00:00,PRATE,surface,-96.5629,33.5432,8.7e-06
2011-08-19 00:00:00,2011-08-19 00:00:00,PRATE,surface,-95.6254,33.5432,6.5e-06
2011-08-19 00:00:00,2011-08-19 00:00:00,PRATE,surface,-94.6879,33.5432,3.9e-06
2011-08-19 00:00:00,2011-08-19 00:00:00,PRATE,surface,-93.7504,33.5432,3.6e-06
2011-08-19 00:00:00,2011-08-19 00:00:00,PRATE,surface,-92.8129,33.5432,3.9e-06
2011-08-19 00:00:00,2011-08-19 00:00:00,PRATE,surface,-107.813,34.4881,3.86e-05
2011-08-19 00:00:00,2011-08-19 00:00:00,PRATE,surface,-106.875,34.4881,2.52e-05
2011-08-19 00:00:00,2011-08-19 00:00:00,PRATE,surface,-105.938,34.4881,2.28e-05
2011-08-19 00:00:00,2011-08-19 00:00:00,PRATE,surface,-105,34.4881,2.51e-05
2011-08-19 00:00:00,2011-08-19 00:00:00,PRATE,surface,-104.063,34.4881,9.5e-06
2011-08-19 00:00:00,2011-08-19 00:00:00,PRATE,surface,-103.125,34.4881,4.2e-06
2011-08-19 00:00:00,2011-08-19 00:00:00,PRATE,surface,-102.188,34.4881,2.3e-06
2011-08-19 00:00:00,2011-08-19 00:00:00,PRATE,surface,-101.25,34.4881,3.4e-06
2011-08-19 00:00:00,2011-08-19 00:00:00,PRATE,surface,-100.313,34.4881,3.4e-06
2011-08-19 00:00:00,2011-08-19 00:00:00,PRATE,surface,-99.3754,34.4881,4e-06
2011-08-19 00:00:00,2011-08-19 00:00:00,PRATE,surface,-98.4379,34.4881,5e-06
2011-08-19 00:00:00,2011-08-19 00:00:00,PRATE,surface,-97.5004,34.4881,6.8e-06
2011-08-19 00:00:00,2011-08-19 00:00:00,PRATE,surface,-96.5629,34.4881,7.9e-06
2011-08-19 00:00:00,2011-08-19 00:00:00,PRATE,surface,-95.6254,34.4881,7.3e-06
2011-08-19 00:00:00,2011-08-19 00:00:00,PRATE,surface,-94.6879,34.4881,5.7e-06
2011-08-19 00:00:00,2011-08-19 00:00:00,PRATE,surface,-93.7504,34.4881,2.6e-06
2011-08-19 00:00:00,2011-08-19 00:00:00,PRATE,surface,-92.8129,34.4881,1.6e-06
2011-08-19 00:00:00,2011-08-19 00:00:00,PRATE,surface,-107.813,35.4329,1.72e-05
2011-08-19 00:00:00,2011-08-19 00:00:00,PRATE,surface,-106.875,35.4329,1.71e-05
2011-08-19 00:00:00,2011-08-19 00:00:00,PRATE,surface,-105.938,35.4329,2.99e-05
2011-08-19 00:00:00,2011-08-19 00:00:00,PRATE,surface,-105,35.4329,4.23e-05
2011-08-19 00:00:00,2011-08-19 00:00:00,PRATE,surface,-104.063,35.4329,2.64e-05
2011-08-19 00:00:00,2011-08-19 00:00:00,PRATE,surface,-103.125,35.4329,8.8e-06
2011-08-19 00:00:00,2011-08-19 00:00:00,PRATE,surface,-102.188,35.4329,2.7e-06
2011-08-19 00:00:00,2011-08-19 00:00:00,PRATE,surface,-101.25,35.4329,4.2e-06
2011-08-19 00:00:00,2011-08-19 00:00:00,PRATE,surface,-100.313,35.4329,4.3e-06
2011-08-19 00:00:00,2011-08-19 00:00:00,PRATE,surface,-99.3754,35.4329,4.1e-06
2011-08-19 00:00:00,2011-08-19 00:00:00,PRATE,surface,-98.4379,35.4329,5.2e-06
2011-08-19 00:00:00,2011-08-19 00:00:00,PRATE,surface,-97.5004,35.4329,7.3e-06
2011-08-19 00:00:00,2011-08-19 00:00:00,PRATE,surface,-96.5629,35.4329,8.2e-06
2011-08-19 00:00:00,2011-08-19 00:00:00,PRATE,surface,-95.6254,35.4329,7.2e-06
2011-08-19 00:00:00,2011-08-19 00:00:00,PRATE,surface,-94.6879,35.4329,7.3e-06
2011-08-19 00:00:00,2011-08-19 00:00:00,PRATE,surface,-93.7504,35.4329,7.5e-06
2011-08-19 00:00:00,2011-08-19 00:00:00,PRATE,surface,-92.8129,35.4329,3.1e-06
2011-08-19 00:00:00,2011-08-19 00:00:00,PRATE,surface,-107.813,36.3778,1.67e-05
2011-08-19 00:00:00,2011-08-19 00:00:00,PRATE,surface,-106.875,36.3778,2.9e-05
2011-08-19 00:00:00,2011-08-19 00:00:00,PRATE,surface,-105.938,36.3778,5.37e-05
2011-08-19 00:00:00,2011-08-19 00:00:00,PRATE,surface,-105,36.3778,5.82e-05
2011-08-19 00:00:00,2011-08-19 00:00:00,PRATE,surface,-104.063,36.3778,4.48e-05
2011-08-19 00:00:00,2011-08-19 00:00:00,PRATE,surface,-103.125,36.3778,1.77e-05
2011-08-19 00:00:00,2011-08-19 00:00:00,PRATE,surface,-102.188,36.3778,7.3e-06
2011-08-19 00:00:00,2011-08-19 00:00:00,PRATE,surface,-101.25,36.3778,6.8e-06
2011-08-19 00:00:00,2011-08-19 00:00:00,PRATE,surface,-100.313,36.3778,8.8e-06
2011-08-19 00:00:00,2011-08-19 00:00:00,PRATE,surface,-99.3754,36.3778,9.3e-06
2011-08-19 00:00:00,2011-08-19 00:00:00,PRATE,surface,-98.4379,36.3778,9.7e-06
2011-08-19 00:00:00,2011-08-19 00:00:00,PRATE,surface,-97.5004,36.3778,8.7e-06
2011-08-19 00:00:00,2011-08-19 00:00:00,PRATE,surface,-96.5629,36.3778,7.7e-06
2011-08-19 00:00:00,2011-08-19 00:00:00,PRATE,surface,-95.6254,36.3778,7.8e-06
2011-08-19 00:00:00,2011-08-19 00:00:00,PRATE,surface,-94.6879,36.3778,8.1e-06
2011-08-19 00:00:00,2011-08-19 00:00:00,PRATE,surface,-93.7504,36.3778,9.5e-06
2011-08-19 00:00:00,2011-08-19 00:00:00,PRATE,surface,-92.8129,36.3778,9.3e-06
