2016-08-07 00:00:00,2016-08-07 00:00:00,TMP,surface,-107.813,25.0393,298.841
2016-08-07 00:00:00,2016-08-07 00:00:00,TMP,surface,-106.875,25.0393,294.052
2016-08-07 00:00:00,2016-08-07 00:00:00,TMP,surface,-105.938,25.0393,288.507
2016-08-07 00:00:00,2016-08-07 00:00:00,TMP,surface,-105,25.0393,291.358
2016-08-07 00:00:00,2016-08-07 00:00:00,TMP,surface,-104.063,25.0393,296.571
2016-08-07 00:00:00,2016-08-07 00:00:00,TMP,surface,-103.125,25.0393,298.846
2016-08-07 00:00:00,2016-08-07 00:00:00,TMP,surface,-102.188,25.0393,297.353
2016-08-07 00:00:00,2016-08-07 00:00:00,TMP,surface,-101.25,25.0393,295.787
2016-08-07 00:00:00,2016-08-07 00:00:00,TMP,surface,-100.313,25.0393,295.326
2016-08-07 00:00:00,2016-08-07 00:00:00,TMP,surface,-99.3754,25.0393,298.494
2016-08-07 00:00:00,2016-08-07 00:00:00,TMP,surface,-98.4379,25.0393,301.681
2016-08-07 00:00:00,2016-08-07 00:00:00,TMP,surface,-97.5004,25.0393,300.656
2016-08-07 00:00:00,2016-08-07 00:00:00,TMP,surface,-96.5629,25.0393,300.081
2016-08-07 00:00:00,2016-08-07 00:00:00,TMP,surface,-95.6254,25.0393,299.928
2016-08-07 00:00:00,2016-08-07 00:00:00,TMP,surface,-94.6879,25.0393,299.836
2016-08-07 00:00:00,2016-08-07 00:00:00,TMP,surface,-93.7504,25.0393,299.587
2016-08-07 00:00:00,2016-08-07 00:00:00,TMP,surface,-92.8129,25.0393,299.454
2016-08-07 00:00:00,2016-08-07 00:00:00,TMP,surface,-107.813,25.9842,296.036
2016-08-07 00:00:00,2016-08-07 00:00:00,TMP,surface,-106.875,25.9842,289.91
2016-08-07 00:00:00,2016-08-07 00:00:00,TMP,surface,-105.938,25.9842,289.257
2016-08-07 00:00:00,2016-08-07 00:00:00,TMP,surface,-105,25.9842,294.345
2016-08-07 00:00:00,2016-08-07 00:00:00,TMP,surface,-104.063,25.9842,299.566
2016-08-07 00:00:00,2016-08-07 00:00:00,TMP,surface,-103.125,25.9842,300.496
2016-08-07 00:00:00,2016-08-07 00:00:00,TMP,surface,-102.188,25.9842,299.505
2016-08-07 00:00:00,2016-08-07 00:00:00,TMP,surface,-101.25,25.9842,298.34
2016-08-07 00:00:00,2016-08-07 00:00:00,TMP,surface,-100.313,25.9842,297.833
2016-08-07 00:00:00,2016-08-07 00:00:00,TMP,surface,-99.3754,25.9842,300.704
2016-08-07 00:00:00,2016-08-07 00:00:00,TMP,surface,-98.4379,25.9842,301.777
2016-08-07 00:00:00,2016-08-07 00:00:00,TMP,surface,-97.5004,25.9842,300.644
2016-08-07 00:00:00,2016-08-07 00:00:00,TMP,surface,-96.5629,25.9842,298.612
2016-08-07 00:00:00,2016-08-07 00:00:00,TMP,surface,-95.6254,25.9842,299.059
2016-08-07 00:00:00,2016-08-07 00:00:00,TMP,surface,-94.6879,25.9842,299.384
2016-08-07 00:00:00,2016-08-07 00:00:00,TMP,surface,-93.7504,25.9842,299.433
2016-08-07 00:00:00,2016-08-07 00:00:00,TMP,surface,-92.8129,25.9842,299.459
2016-08-07 00:00:00,2016-08-07 00:00:00,TMP,surface,-107.813,26.929,290.88
2016-08-07 00:00:00,2016-08-07 00:00:00,TMP,surface,-106.875,26.929,288.745
2016-08-07 00:00:00,2016-08-07 00:00:00,TMP,surface,-105.938,26.929,291.867
2016-08-07 00:00:00,2016-08-07 00:00:00,TMP,surface,-105,26.929,297.196
2016-08-07 00:00:00,2016-08-07 00:00:00,TMP,surface,-104.063,26.929,299.675
2016-08-07 00:00:00,2016-08-07 00:00:00,TMP,surface,-103.125,26.929,299.408
2016-08-07 00:00:00,2016-08-07 00:00:00,TMP,surface,-102.188,26.929,299.012
2016-08-07 00:00:00,2016-08-07 00:00:00,TMP,surface,-101.25,26.929,298.667
2016-08-07 00:00:00,2016-08-07 00:00:00,TMP,surface,-100.313,26.929,299.729
2016-08-07 00:00:00,2016-08-07 00:00:00,TMP,surface,-99.3754,26.929,301.155
2016-08-07 00:00:00,2016-08-07 00:00:00,TMP,surface,-98.4379,26.929,300.432
2016-08-07 00:00:00,2016-08-07 00:00:00,TMP,surface,-97.5004,26.929,297.492
2016-08-07 00:00:00,2016-08-07 00:00:00,TMP,surface,-96.5629,26.929,297.396
2016-08-07 00:00:00,2016-08-07 00:00:00,TMP,surface,-95.6254,26.929,298.214
2016-08-07 00:00:00,2016-08-07 00:00:00,TMP,surface,-94.6879,26.929,298.788
2016-08-07 00:00:00,2016-08-07 00:00:00,TMP,surface,-93.7504,26.929,298.937
2016-08-07 00:00:00,2016-08-07 00:00:00,TMP,surface,-92.8129,26.929,299.044
2016-08-07 00:00:00,2016-08-07 00:00:00,TMP,surface,-107.813,27.8739,288.688
2016-08-07 00:00:00,2016-08-07 00:00:00,TMP,surface,-106.875,27.8739,289.446
2016-08-07 00:00:00,2016-08-07 00:00:00,TMP,surface,-105.938,27.8739,294.441
2016-08-07 00:00:00,2016-08-07 00:00:00,TMP,surface,-105,27.8739,298.016
2016-08-07 00:00:00,2016-08-07 00:00:00,TMP,surface,-104.063,27.8739,298.051
2016-08-07 00:00:00,2016-08-07 00:00:00,TMP,surface,-103.125,27.8739,297.508
2016-08-07 00:00:00,2016-08-07 00:00:00,TMP,surface,-102.188,27.8739,297.084
2016-08-07 00:00:00,2016-08-07 00:00:00,TMP,surface,-101.25,27.8739,297.923
2016-08-07 00:00:00,2016-08-07 00:00:00,TMP,surface,-100.313,27.8739,299.369
2016-08-07 00:00:00,2016-08-07 00:00:00,TMP,surface,-99.3754,27.8739,299.523
2016-08-07 00:00:00,2016-08-07 00:00:00,TMP,surface,-98.4379,27.8739,298.504
2016-08-07 00:00:00,2016-08-07 00:00:00,TMP,surface,-97.5004,27.8739,297.744
2016-08-07 00:00:00,2016-08-07 00:00:00,TMP,surface,-96.5629,27.8739,297.627
2016-08-07 00:00:00,2016-08-07 00:00:00,TMP,surface,-95.6254,27.8739,297.737
2016-08-07 00:00:00,2016-08-07 00:00:00,TMP,surface,-94.6879,27.8739,297.92
2016-08-07 00:00:00,2016-08-07 00:00:00,TMP,surface,-93.7504,27.8739,298.078
2016-08-07 00:00:00,2016-08-07 00:00:00,TMP,surface,-92.8129,27.8739,298.291
2016-08-07 00:00:00,2016-08-07 00:00:00,TMP,surface,-107.813,28.8188,288.366
2016-08-07 00:00:00,2016-08-07 00:00:00,TMP,surface,-106.875,28.8188,290.787
2016-08-07 00:00:00,2016-08-07 00:00:00,TMP,surface,-105.938,28.8188,295.348
2016-08-07 00:00:00,2016-08-07 00:00:00,TMP,surface,-105,28.8188,297.99
2016-08-07 00:00:00,2016-08-07 00:00:00,TMP,surface,-104.063,28.8188,297.395
2016-08-07 00:00:00,2016-08-07 00:00:00,TMP,surface,-103.125,28.8188,296.817
2016-08-07 00:00:00,2016-08-07 00:00:00,TMP,surface,-102.188,28.8188,296.305
2016-08-07 00:00:00,2016-08-07 00:00:00,TMP,surface,-101.25,28.8188,297.179
2016-08-07 00:00:00,2016-08-07 00:00:00,TMP,surface,-100.313,28.8188,297.576
2016-08-07 00:00:00,2016-08-07 00:00:00,TMP,surface,-99.3754,28.8188,297.318
2016-08-07 00:00:00,2016-08-07 00:00:00,TMP,surface,-98.4379,28.8188,297.134
2016-08-07 00:00:00,2016-08-07 00:00:00,TMP,surface,-97.5004,28.8188,297.288
2016-08-07 00:00:00,2016-08-07 00:00:00,TMP,surface,-96.5629,28.8188,297.588
2016-08-07 00:00:00,2016-08-07 00:00:00,TMP,surface,-95.6254,28.8188,297.035
2016-08-07 00:00:00,2016-08-07 00:00:00,TMP,surface,-94.6879,28.8188,296.038
2016-08-07 00:00:00,2016-08-07 00:00:00,TMP,surface,-93.7504,28.8188,296.7
2016-08-07 00:00:00,2016-08-07 00:00:00,TMP,surface,-92.8129,28.8188,297.174
2016-08-07 00:00:00,2016-08-07 00:00:00,TMP,surface,-107.813,29.7637,290.345
2016-08-07 00:00:00,2016-08-07 00:00:00,TMP,surface,-106.875,29.7637,292.664
2016-08-07 00:00:00,2016-08-07 00:00:00,TMP,surface,-105.938,29.7637,295.336
2016-08-07 00:00:00,2016-08-07 00:00:00,TMP,surface,-105,29.7637,296.596
2016-08-07 00:00:00,2016-08-07 00:00:00,TMP,surface,-104.063,29.7637,296.74
2016-08-07 00:00:00,2016-08-07 00:00:00,TMP,surface,-103.125,29.7637,296.838
2016-08-07 00:00:00,2016-08-07 00:00:00,TMP,surface,-102.188,29.7637,297.113
2016-08-07 00:00:00,2016-08-07 00:00:00,TMP,surface,-101.25,29.7637,296.632
2016-08-07 00:00:00,2016-08-07 00:00:00,TMP,surface,-100.313,29.7637,295.793
2016-08-07 00:00:00,2016-08-07 00:00:00,TMP,surface,-99.3754,29.7637,295.352
2016-08-07 00:00:00,2016-08-07 00:00:00,TMP,surface,-98.4379,29.7637,295.675
2016-08-07 00:00:00,2016-08-07 00:00:00,TMP,surface,-97.5004,29.7637,296.28
2016-08-07 00:00:00,2016-08-07 00:00:00,TMP,surface,-96.5629,29.7637,296.633
2016-08-07 00:00:00,2016-08-07 00:00:00,TMP,surface,-95.6254,29.7637,296.74
2016-08-07 00:00:00,2016-08-07 00:00:00,TMP,surface,-94.6879,29.7637,296.475
2016-08-07 00:00:00,2016-08-07 00:00:00,TMP,surface,-93.7504,29.7637,296.249
2016-08-07 00:00:00,2016-08-07 00:00:00,TMP,surface,-92.8129,29.7637,297.489
2016-08-07 00:00:00,2016-08-07 00:00:00,TMP,surface,-107.813,30.7085,293.248
2016-08-07 00:00:00,2016-08-07 00:00:00,TMP,surface,-106.875,30.7085,294.116
2016-08-07 00:00:00,2016-08-07 00:00:00,TMP,surface,-105.938,30.7085,294.889
2016-08-07 00:00:00,2016-08-07 00:00:00,TMP,surface,-105,30.7085,295.499
2016-08-07 00:00:00,2016-08-07 00:00:00,TMP,surface,-104.063,30.7085,295.468
2016-08-07 00:00:00,2016-08-07 00:00:00,TMP,surface,-103.125,30.7085,296.446
2016-08-07 00:00:00,2016-08-07 00:00:00,TMP,surface,-102.188,30.7085,296.859
2016-08-07 00:00:00,2016-08-07 00:00:00,TMP,surface,-101.25,30.7085,295.953
2016-08-07 00:00:00,2016-08-07 00:00:00,TMP,surface,-100.313,30.7085,295.059
2016-08-07 00:00:00,2016-08-07 00:00:00,TMP,surface,-99.3754,30.7085,294.744
2016-08-07 00:00:00,2016-08-07 00:00:00,TMP,surface,-98.4379,30.7085,295.18
2016-08-07 00:00:00,2016-08-07 00:00:00,TMP,surface,-97.5004,30.7085,295.859
2016-08-07 00:00:00,2016-08-07 00:00:00,TMP,surface,-96.5629,30.7085,296.595
2016-08-07 00:00:00,2016-08-07 00:00:00,TMP,surface,-95.6254,30.7085,297.124
2016-08-07 00:00:00,2016-08-07 00:00:00,TMP,surface,-94.6879,30.7085,296.998
2016-08-07 00:00:00,2016-08-07 00:00:00,TMP,surface,-93.7504,30.7085,296.724
2016-08-07 00:00:00,2016-08-07 00:00:00,TMP,surface,-92.8129,30.7085,296.372
2016-08-07 00:00:00,2016-08-07 00:00:00,TMP,surface,-107.813,31.6534,293.606
2016-08-07 00:00:00,2016-08-07 00:00:00,TMP,surface,-106.875,31.6534,293.512
2016-08-07 00:00:00,2016-08-07 00:00:00,TMP,surface,-105.938,31.6534,294.552
2016-08-07 00:00:00,2016-08-07 00:00:00,TMP,surface,-105,31.6534,294.347
2016-08-07 00:00:00,2016-08-07 00:00:00,TMP,surface,-104.063,31.6534,295.276
2016-08-07 00:00:00,2016-08-07 00:00:00,TMP,surface,-103.125,31.6534,295.846
2016-08-07 00:00:00,2016-08-07 00:00:00,TMP,surface,-102.188,31.6534,296.148
2016-08-07 00:00:00,2016-08-07 00:00:00,TMP,surface,-101.25,31.6534,295.58
2016-08-07 00:00:00,2016-08-07 00:00:00,TMP,surface,-100.313,31.6534,295.001
2016-08-07 00:00:00,2016-08-07 00:00:00,TMP,surface,-99.3754,31.6534,294.832
2016-08-07 00:00:00,2016-08-07 00:00:00,TMP,surface,-98.4379,31.6534,295
2016-08-07 00:00:00,2016-08-07 00:00:00,TMP,surface,-97.5004,31.6534,295.356
2016-08-07 00:00:00,2016-08-07 00:00:00,TMP,surface,-96.5629,31.6534,296.044
2016-08-07 00:00:00,2016-08-07 00:00:00,TMP,surface,-95.6254,31.6534,296.673
2016-08-07 00:00:00,2016-08-07 00:00:00,TMP,surface,-94.6879,31.6534,296.574
2016-08-07 00:00:00,2016-08-07 00:00:00,TMP,surface,-93.7504,31.6534,296.147
2016-08-07 00:00:00,2016-08-07 00:00:00,TMP,surface,-92.8129,31.6534,295.88
2016-08-07 00:00:00,2016-08-07 00:00:00,TMP,surface,-107.813,32.5983,291.067
2016-08-07 00:00:00,2016-08-07 00:00:00,TMP,surface,-106.875,32.5983,291.825
2016-08-07 00:00:00,2016-08-07 00:00:00,TMP,surface,-105.938,32.5983,292.296
2016-08-07 00:00:00,2016-08-07 00:00:00,TMP,surface,-105,32.5983,293.006
2016-08-07 00:00:00,2016-08-07 00:00:00,TMP,surface,-104.063,32.5983,293.684
2016-08-07 00:00:00,2016-08-07 00:00:00,TMP,surface,-103.125,32.5983,294.995
2016-08-07 00:00:00,2016-08-07 00:00:00,TMP,surface,-102.188,32.5983,295.288
2016-08-07 00:00:00,2016-08-07 00:00:00,TMP,surface,-101.25,32.5983,295.23
2016-08-07 00:00:00,2016-08-07 00:00:00,TMP,surface,-100.313,32.5983,295.313
2016-08-07 00:00:00,2016-08-07 00:00:00,TMP,surface,-99.3754,32.5983,295.267
2016-08-07 00:00:00,2016-08-07 00:00:00,TMP,surface,-98.4379,32.5983,294.988
2016-08-07 00:00:00,2016-08-07 00:00:00,TMP,surface,-97.5004,32.5983,294.82
2016-08-07 00:00:00,2016-08-07 00:00:00,TMP,surface,-96.5629,32.5983,295.241
2016-08-07 00:00:00,2016-08-07 00:00:00,TMP,surface,-95.6254,32.5983,295.852
2016-08-07 00:00:00,2016-08-07 00:00:00,TMP,surface,-94.6879,32.5983,295.846
2016-08-07 00:00:00,2016-08-07 00:00:00,TMP,surface,-93.7504,32.5983,295.529
2016-08-07 00:00:00,2016-08-07 00:00:00,TMP,surface,-92.8129,32.5983,295.452
2016-08-07 00:00:00,2016-08-07 00:00:00,TMP,surface,-107.813,33.5432,287.337
2016-08-07 00:00:00,2016-08-07 00:00:00,TMP,surface,-106.875,33.5432,289.017
2016-08-07 00:00:00,2016-08-07 00:00:00,TMP,surface,-105.938,33.5432,290.305
2016-08-07 00:00:00,2016-08-07 00:00:00,TMP,surface,-105,33.5432,291.747
2016-08-07 00:00:00,2016-08-07 00:00:00,TMP,surface,-104.063,33.5432,292.998
2016-08-07 00:00:00,2016-08-07 00:00:00,TMP,surface,-103.125,33.5432,293.958
2016-08-07 00:00:00,2016-08-07 00:00:00,TMP,surface,-102.188,33.5432,294.43
2016-08-07 00:00:00,2016-08-07 00:00:00,TMP,surface,-101.25,33.5432,294.411
2016-08-07 00:00:00,2016-08-07 00:00:00,TMP,surface,-100.313,33.5432,294.883
2016-08-07 00:00:00,2016-08-07 00:00:00,TMP,surface,-99.3754,33.5432,295.017
2016-08-07 00:00:00,2016-08-07 00:00:00,TMP,surface,-98.4379,33.5432,294.568
2016-08-07 00:00:00,2016-08-07 00:00:00,TMP,surface,-97.5004,33.5432,294.059
2016-08-07 00:00:00,2016-08-07 00:00:00,TMP,surface,-96.5629,33.5432,293.912
2016-08-07 00:00:00,2016-08-07 00:00:00,TMP,surface,-95.6254,33.5432,294.289
2016-08-07 00:00:00,2016-08-07 00:00:00,TMP,surface,-94.6879,33.5432,294.724
2016-08-07 00:00:00,2016-08-07 00:00:00,TMP,surface,-93.7504,33.5432,294.536
2016-08-07 00:00:00,2016-08-07 00:00:00,TMP,surface,-92.8129,33.5432,294.492
2016-08-07 00:00:00,2016-08-07 00:00:00,TMP,surface,-107.813,34.4881,285.713
2016-08-07 00:00:00,2016-08-07 00:00:00,TMP,surface,-106.875,34.4881,287.552
2016-08-07 00:00:00,2016-08-07 00:00:00,TMP,surface,-105.938,34.4881,289.006
2016-08-07 00:00:00,2016-08-07 00:00:00,TMP,surface,-105,34.4881,291.18
2016-08-07 00:00:00,2016-08-07 00:00:00,TMP,surface,-104.063,34.4881,292.51
2016-08-07 00:00:00,2016-08-07 00:00:00,TMP,surface,-103.125,34.4881,293.374
2016-08-07 00:00:00,2016-08-07 00:00:00,TMP,surface,-102.188,34.4881,293.684
2016-08-07 00:00:00,2016-08-07 00:00:00,TMP,surface,-101.25,34.4881,293.732
2016-08-07 00:00:00,2016-08-07 00:00:00,TMP,surface,-100.313,34.4881,293.795
2016-08-07 00:00:00,2016-08-07 00:00:00,TMP,surface,-99.3754,34.4881,293.892
2016-08-07 00:00:00,2016-08-07 00:00:00,TMP,surface,-98.4379,34.4881,293.556
2016-08-07 00:00:00,2016-08-07 00:00:00,TMP,surface,-97.5004,34.4881,293.048
2016-08-07 00:00:00,2016-08-07 00:00:00,TMP,surface,-96.5629,34.4881,293.192
2016-08-07 00:00:00,2016-08-07 00:00:00,TMP,surface,-95.6254,34.4881,293.708
2016-08-07 00:00:00,2016-08-07 00:00:00,TMP,surface,-94.6879,34.4881,293.689
2016-08-07 00:00:00,2016-08-07 00:00:00,TMP,surface,-93.7504,34.4881,293.44
2016-08-07 00:00:00,2016-08-07 00:00:00,TMP,surface,-92.8129,34.4881,293.433
2016-08-07 00:00:00,2016-08-07 00:00:00,TMP,surface,-107.813,35.4329,285.852
2016-08-07 00:00:00,2016-08-07 00:00:00,TMP,surface,-106.875,35.4329,286.345
2016-08-07 00:00:00,2016-08-07 00:00:00,TMP,surface,-105.938,35.4329,286.998
2016-08-07 00:00:00,2016-08-07 00:00:00,TMP,surface,-105,35.4329,288.504
2016-08-07 00:00:00,2016-08-07 00:00:00,TMP,surface,-104.063,35.4329,290.595
2016-08-07 00:00:00,2016-08-07 00:00:00,TMP,surface,-103.125,35.4329,292.075
2016-08-07 00:00:00,2016-08-07 00:00:00,TMP,surface,-102.188,35.4329,292.889
2016-08-07 00:00:00,2016-08-07 00:00:00,TMP,surface,-101.25,35.4329,292.784
2016-08-07 00:00:00,2016-08-07 00:00:00,TMP,surface,-100.313,35.4329,292.428
2016-08-07 00:00:00,2016-08-07 00:00:00,TMP,surface,-99.3754,35.4329,292.299
2016-08-07 00:00:00,2016-08-07 00:00:00,TMP,surface,-98.4379,35.4329,292.24
2016-08-07 00:00:00,2016-08-07 00:00:00,TMP,surface,-97.5004,35.4329,292.155
2016-08-07 00:00:00,2016-08-07 00:00:00,TMP,surface,-96.5629,35.4329,292.121
2016-08-07 00:00:00,2016-08-07 00:00:00,TMP,surface,-95.6254,35.4329,292.387
2016-08-07 00:00:00,2016-08-07 00:00:00,TMP,surface,-94.6879,35.4329,292.67
2016-08-07 00:00:00,2016-08-07 00:00:00,TMP,surface,-93.7504,35.4329,292.278
2016-08-07 00:00:00,2016-08-07 00:00:00,TMP,surface,-92.8129,35.4329,292.091
2016-08-07 00:00:00,2016-08-07 00:00:00,TMP,surface,-107.813,36.3778,284.896
2016-08-07 00:00:00,2016-08-07 00:00:00,TMP,surface,-106.875,36.3778,282.884
2016-08-07 00:00:00,2016-08-07 00:00:00,TMP,surface,-105.938,36.3778,283.82
2016-08-07 00:00:00,2016-08-07 00:00:00,TMP,surface,-105,36.3778,285.761
2016-08-07 00:00:00,2016-08-07 00:00:00,TMP,surface,-104.063,36.3778,288.731
2016-08-07 00:00:00,2016-08-07 00:00:00,TMP,surface,-103.125,36.3778,290.524
2016-08-07 00:00:00,2016-08-07 00:00:00,TMP,surface,-102.188,36.3778,291.438
2016-08-07 00:00:00,2016-08-07 00:00:00,TMP,surface,-101.25,36.3778,291.51
2016-08-07 00:00:00,2016-08-07 00:00:00,TMP,surface,-100.313,36.3778,291.176
2016-08-07 00:00:00,2016-08-07 00:00:00,TMP,surface,-99.3754,36.3778,290.936
2016-08-07 00:00:00,2016-08-07 00:00:00,TMP,surface,-98.4379,36.3778,290.889
2016-08-07 00:00:00,2016-08-07 00:00:00,TMP,surface,-97.5004,36.3778,291.083
2016-08-07 00:00:00,2016-08-07 00:00:00,TMP,surface,-96.5629,36.3778,291.348
2016-08-07 00:00:00,2016-08-07 00:00:00,TMP,surface,-95.6254,36.3778,291.667
2016-08-07 00:00:00,2016-08-07 00:00:00,TMP,surface,-94.6879,36.3778,291.838
2016-08-07 00:00:00,2016-08-07 00:00:00,TMP,surface,-93.7504,36.3778,291.32
2016-08-07 00:00:00,2016-08-07 00:00:00,TMP,surface,-92.8129,36.3778,290.982
2016-08-07 00:00:00,2016-08-07 00:00:00,PRATE,surface,-107.813,25.0393,0
2016-08-07 00:00:00,2016-08-07 00:00:00,PRATE,surface,-106.875,25.0393,0
2016-08-07 00:00:00,2016-08-07 00:00:00,PRATE,surface,-105.938,25.0393,6e-06
2016-08-07 00:00:00,2016-08-07 00:00:00,PRATE,surface,-105,25.0393,1.53e-05
2016-08-07 00:00:00,2016-08-07 00:00:00,PRATE,surface,-104.063,25.0393,1.8e-06
2016-08-07 00:00:00,2016-08-07 00:00:00,PRATE,surface,-103.125,25.0393,1.2e-06
2016-08-07 00:00:00,2016-08-07 00:00:00,PRATE,surface,-102.188,25.0393,1.3e-06
2016-08-07 00:00:00,2016-08-07 00:00:00,PRATE,surface,-101.25,25.0393,3.05e-05
2016-08-07 00:00:00,2016-08-07 00:00:00,PRATE,surface,-100.313,25.0393,8.04e-05
2016-08-07 00:00:00,2016-08-07 00:00:00,PRATE,surface,-99.3754,25.0393,6.42e-05
2016-08-07 00:00:00,2016-08-07 00:00:00,PRATE,surface,-98.4379,25.0393,1.85e-05
2016-08-07 00:00:00,2016-08-07 00:00:00,PRATE,surface,-97.5004,25.0393,1.4e-05
2016-08-07 00:00:00,2016-08-07 00:00:00,PRATE,surface,-96.5629,25.0393,4.5e-06
2016-08-07 00:00:00,2016-08-07 00:00:00,PRATE,surface,-95.6254,25.0393,2.4e-06
2016-08-07 00:00:00,2016-08-07 00:00:00,PRATE,surface,-94.6879,25.0393,8e-07
2016-08-07 00:00:00,2016-08-07 00:00:00,PRATE,surface,-93.7504,25.0393,9e-07
2016-08-07 00:00:00,2016-08-07 00:00:00,PRATE,surface,-92.8129,25.0393,1.6e-06
2016-08-07 00:00:00,2016-08-07 00:00:00,PRATE,surface,-107.813,25.9842,0
2016-08-07 00:00:00,2016-08-07 00:00:00,PRATE,surface,-106.875,25.9842,0
2016-08-07 00:00:00,2016-08-07 00:00:00,PRATE,surface,-105.938,25.9842,1.21e-05
2016-08-07 00:00:00,2016-08-07 00:00:00,PRATE,surface,-105,25.9842,7.8e-06
2016-08-07 00:00:00,2016-08-07 00:00:00,PRATE,surface,-104.063,25.9842,4.4e-06
2016-08-07 00:00:00,2016-08-07 00:00:00,PRATE,surface,-103.125,25.9842,1.6e-06
2016-08-07 00:00:00,2016-08-07 00:00:00,PRATE,surface,-102.188,25.9842,4.3e-06
2016-08-07 00:00:00,2016-08-07 00:00:00,PRATE,surface,-101.25,25.9842,2.69e-05
2016-08-07 00:00:00,2016-08-07 00:00:00,PRATE,surface,-100.313,25.9842,8.72e-05
2016-08-07 00:00:00,2016-08-07 00:00:00,PRATE,surface,-99.3754,25.9842,5.2e-05
2016-08-07 00:00:00,2016-08-07 00:00:00,PRATE,surface,-98.4379,25.9842,2.3e-05
2016-08-07 00:00:00,2016-08-07 00:00:00,PRATE,surface,-97.5004,25.9842,2.29e-05
2016-08-07 00:00:00,2016-08-07 00:00:00,PRATE,surface,-96.5629,25.9842,2.76e-05
2016-08-07 00:00:00,2016-08-07 00:00:00,PRATE,surface,-95.6254,25.9842,1.17e-05
2016-08-07 00:00:00,2016-08-07 00:00:00,PRATE,surface,-94.6879,25.9842,4.9e-06
2016-08-07 00:00:00,2016-08-07 00:00:00,PRATE,surface,-93.7504,25.9842,3e-07
2016-08-07 00:00:00,2016-08-07 00:00:00,PRATE,surface,-92.8129,25.9842,3.5e-06
2016-08-07 00:00:00,2016-08-07 00:00:00,PRATE,surface,-107.813,26.929,0
2016-08-07 00:00:00,2016-08-07 00:00:00,PRATE,surface,-106.875,26.929,6.6e-06
2016-08-07 00:00:00,2016-08-07 00:00:00,PRATE,surface,-105.938,26.929,8.8e-06
2016-08-07 00:00:00,2016-08-07 00:00:00,PRATE,surface,-105,26.929,4.5e-06
2016-08-07 00:00:00,2016-08-07 00:00:00,PRATE,surface,-104.063,26.929,6.7e-06
2016-08-07 00:00:00,2016-08-07 00:00:00,PRATE,surface,-103.125,26.929,7.8e-06
2016-08-07 00:00:00,2016-08-07 00:00:00,PRATE,surface,-102.188,26.929,1.91e-05
2016-08-07 00:00:00,2016-08-07 00:00:00,PRATE,surface,-101.25,26.929,5.58e-05
2016-08-07 00:00:00,2016-08-07 00:00:00,PRATE,surface,-100.313,26.929,5.31e-05
2016-08-07 00:00:00,2016-08-07 00:00:00,PRATE,surface,-99.3754,26.929,3.9e-05
2016-08-07 00:00:00,2016-08-07 00:00:00,PRATE,surface,-98.4379,26.929,3.43e-05
2016-08-07 00:00:00,2016-08-07 00:00:00,PRATE,surface,-97.5004,26.929,5.16e-05
2016-08-07 00:00:00,2016-08-07 00:00:00,PRATE,surface,-96.5629,26.929,5.45e-05
2016-08-07 00:00:00,2016-08-07 00:00:00,PRATE,surface,-95.6254,26.929,4.38e-05
2016-08-07 00:00:00,2016-08-07 00:00:00,PRATE,surface,-94.6879,26.929,3.35e-05
2016-08-07 00:00:00,2016-08-07 00:00:00,PRATE,surface,-93.7504,26.929,1.78e-05
2016-08-07 00:00:00,2016-08-07 00:00:00,PRATE,surface,-92.8129,26.929,5.3e-06
2016-08-07 00:00:00,2016-08-07 00:00:00,PRATE,surface,-107.813,27.8739,8e-07
2016-08-07 00:00:00,2016-08-07 00:00:00,PRATE,surface,-106.875,27.8739,3.8e-06
2016-08-07 00:00:00,2016-08-07 00:00:00,PRATE,surface,-105.938,27.8739,2.5e-06
2016-08-07 00:00:00,2016-08-07 00:00:00,PRATE,surface,-105,27.8739,3.4e-06
2016-08-07 00:00:00,2016-08-07 00:00:00,PRATE,surface,-104.063,27.8739,1.7e-06
2016-08-07 00:00:00,2016-08-07 00:00:00,PRATE,surface,-103.125,27.8739,2.16e-05
2016-08-07 00:00:00,2016-08-07 00:00:00,PRATE,surface,-102.188,27.8739,5.22e-05
2016-08-07 00:00:00,2016-08-07 00:00:00,PRATE,surface,-101.25,27.8739,6.6e-05
2016-08-07 00:00:00,2016-08-07 00:00:00,PRATE,surface,-100.313,27.8739,6.02e-05
2016-08-07 00:00:00,2016-08-07 00:00:00,PRATE,surface,-99.3754,27.8739,6.13e-05
2016-08-07 00:00:00,2016-08-07 00:00:00,PRATE,surface,-98.4379,27.8739,5.97e-05
2016-08-07 00:00:00,2016-08-07 00:00:00,PRATE,surface,-97.5004,27.8739,5.54e-05
2016-08-07 00:00:00,2016-08-07 00:00:00,PRATE,surface,-96.5629,27.8739,5.2e-05
2016-08-07 00:00:00,2016-08-07 00:00:00,PRATE,surface,-95.6254,27.8739,4.77e-05
2016-08-07 00:00:00,2016-08-07 00:00:00,PRATE,surface,-94.6879,27.8739,4.42e-05
2016-08-07 00:00:00,2016-08-07 00:00:00,PRATE,surface,-93.7504,27.8739,3.51e-05
2016-08-07 00:00:00,2016-08-07 00:00:00,PRATE,surface,-92.8129,27.8739,1.91e-05
2016-08-07 00:00:00,2016-08-07 00:00:00,PRATE,surface,-107.813,28.8188,4e-07
2016-08-07 00:00:00,2016-08-07 00:00:00,PRATE,surface,-106.875,28.8188,1.6e-06
2016-08-07 00:00:00,2016-08-07 00:00:00,PRATE,surface,-105.938,28.8188,2.6e-06
2016-08-07 00:00:00,2016-08-07 00:00:00,PRATE,surface,-105,28.8188,1e-07
2016-08-07 00:00:00,2016-08-07 00:00:00,PRATE,surface,-104.063,28.8188,4.1e-06
2016-08-07 00:00:00,2016-08-07 00:00:00,PRATE,surface,-103.125,28.8188,1.56e-05
2016-08-07 00:00:00,2016-08-07 00:00:00,PRATE,surface,-102.188,28.8188,4.66e-05
2016-08-07 00:00:00,2016-08-07 00:00:00,PRATE,surface,-101.25,28.8188,7.01e-05
2016-08-07 00:00:00,2016-08-07 00:00:00,PRATE,surface,-100.313,28.8188,7.68e-05
2016-08-07 00:00:00,2016-08-07 00:00:00,PRATE,surface,-99.3754,28.8188,7.35e-05
2016-08-07 00:00:00,2016-08-07 00:00:00,PRATE,surface,-98.4379,28.8188,5.67e-05
2016-08-07 00:00:00,2016-08-07 00:00:00,PRATE,surface,-97.5004,28.8188,3.38e-05
2016-08-07 00:00:00,2016-08-07 00:00:00,PRATE,surface,-96.5629,28.8188,2.49e-05
2016-08-07 00:00:00,2016-08-07 00:00:00,PRATE,surface,-95.6254,28.8188,3.46e-05
2016-08-07 00:00:00,2016-08-07 00:00:00,PRATE,surface,-94.6879,28.8188,4.61e-05
2016-08-07 00:00:00,2016-08-07 00:00:00,PRATE,surface,-93.7504,28.8188,4.65e-05
2016-08-07 00:00:00,2016-08-07 00:00:00,PRATE,surface,-92.8129,28.8188,3.65e-05
2016-08-07 00:00:00,2016-08-07 00:00:00,PRATE,surface,-107.813,29.7637,3e-07
2016-08-07 00:00:00,2016-08-07 00:00:00,PRATE,surface,-106.875,29.7637,1.6e-06
2016-08-07 00:00:00,2016-08-07 00:00:00,PRATE,surface,-105.938,29.7637,3.3e-06
2016-08-07 00:00:00,2016-08-07 00:00:00,PRATE,surface,-105,29.7637,1.6e-06
2016-08-07 00:00:00,2016-08-07 00:00:00,PRATE,surface,-104.063,29.7637,5.1e-06
2016-08-07 00:00:00,2016-08-07 00:00:00,PRATE,surface,-103.125,29.7637,1.89e-05
2016-08-07 00:00:00,2016-08-07 00:00:00,PRATE,surface,-102.188,29.7637,3.56e-05
2016-08-07 00:00:00,2016-08-07 00:00:00,PRATE,surface,-101.25,29.7637,6.94e-05
2016-08-07 00:00:00,2016-08-07 00:00:00,PRATE,surface,-100.313,29.7637,8.29e-05
2016-08-07 00:00:00,2016-08-07 00:00:00,PRATE,surface,-99.3754,29.7637,7.85e-05
2016-08-07 00:00:00,2016-08-07 00:00:00,PRATE,surface,-98.4379,29.7637,6.08e-05
2016-08-07 00:00:00,2016-08-07 00:00:00,PRATE,surface,-97.5004,29.7637,4.53e-05
2016-08-07 00:00:00,2016-08-07 00:00:00,PRATE,surface,-96.5629,29.7637,3.68e-05
2016-08-07 00:00:00,2016-08-07 00:00:00,PRATE,surface,-95.6254,29.7637,3.63e-05
2016-08-07 00:00:00,2016-08-07 00:00:00,PRATE,surface,-94.6879,29.7637,4.9e-05
2016-08-07 00:00:00,2016-08-07 00:00:00,PRATE,surface,-93.7504,29.7637,6.2e-05
2016-08-07 00:00:00,2016-08-07 00:00:00,PRATE,surface,-92.8129,29.7637,6.94e-05
2016-08-07 00:00:00,2016-08-07 00:00:00,PRATE,surface,-107.813,30.7085,1e-07
2016-08-07 00:00:00,2016-08-07 00:00:00,PRATE,surface,-106.875,30.7085,4e-07
2016-08-07 00:00:00,2016-08-07 00:00:00,PRATE,surface,-105.938,30.7085,1.3e-06
2016-08-07 00:00:00,2016-08-07 00:00:00,PRATE,surface,-105,30.7085,4.5e-06
2016-08-07 00:00:00,2016-08-07 00:00:00,PRATE,surface,-104.063,30.7085,8.9e-06
2016-08-07 00:00:00,2016-08-07 00:00:00,PRATE,surface,-103.125,30.7085,2.17e-05
2016-08-07 00:00:00,2016-08-07 00:00:00,PRATE,surface,-102.188,30.7085,2.82e-05
2016-08-07 00:00:00,2016-08-07 00:00:00,PRATE,surface,-101.25,30.7085,6.17e-05
2016-08-07 00:00:00,2016-08-07 00:00:00,PRATE,surface,-100.313,30.7085,7.93e-05
2016-08-07 00:00:00,2016-08-07 00:00:00,PRATE,surface,-99.3754,30.7085,7.62e-05
2016-08-07 00:00:00,2016-08-07 00:00:00,PRATE,surface,-98.4379,30.7085,5.85e-05
2016-08-07 00:00:00,2016-08-07 00:00:00,PRATE,surface,-97.5004,30.7085,4.43e-05
2016-08-07 00:00:00,2016-08-07 00:00:00,PRATE,surface,-96.5629,30.7085,4.02e-05
2016-08-07 00:00:00,2016-08-07 00:00:00,PRATE,surface,-95.6254,30.7085,3.75e-05
2016-08-07 00:00:00,2016-08-07 00:00:00,PRATE,surface,-94.6879,30.7085,3.72e-05
2016-08-07 00:00:00,2016-08-07 00:00:00,PRATE,surface,-93.7504,30.7085,4.87e-05
2016-08-07 00:00:00,2016-08-07 00:00:00,PRATE,surface,-92.8129,30.7085,7.41e-05
2016-08-07 00:00:00,2016-08-07 00:00:00,PRATE,surface,-107.813,31.6534,4e-07
2016-08-07 00:00:00,2016-08-07 00:00:00,PRATE,surface,-106.875,31.6534,3e-07
2016-08-07 00:00:00,2016-08-07 00:00:00,PRATE,surface,-105.938,31.6534,2.6e-06
2016-08-07 00:00:00,2016-08-07 00:00:00,PRATE,surface,-105,31.6534,5.1e-06
2016-08-07 00:00:00,2016-08-07 00:00:00,PRATE,surface,-104.063,31.6534,5e-06
2016-08-07 00:00:00,2016-08-07 00:00:00,PRATE,surface,-103.125,31.6534,1.79e-05
2016-08-07 00:00:00,2016-08-07 00:00:00,PRATE,surface,-102.188,31.6534,2.25e-05
2016-08-07 00:00:00,2016-08-07 00:00:00,PRATE,surface,-101.25,31.6534,4.05e-05
2016-08-07 00:00:00,2016-08-07 00:00:00,PRATE,surface,-100.313,31.6534,5.62e-05
2016-08-07 00:00:00,2016-08-07 00:00:00,PRATE,surface,-99.3754,31.6534,5.79e-05
2016-08-07 00:00:00,2016-08-07 00:00:00,PRATE,surface,-98.4379,31.6534,5.04e-05
2016-08-07 00:00:00,2016-08-07 00:00:00,PRATE,surface,-97.5004,31.6534,4.29e-05
2016-08-07 00:00:00,2016-08-07 00:00:00,PRATE,surface,-96.5629,31.6534,4.06e-05
2016-08-07 00:00:00,2016-08-07 00:00:00,PRATE,surface,-95.6254,31.6534,3.94e-05
2016-08-07 00:00:00,2016-08-07 00:00:00,PRATE,surface,-94.6879,31.6534,3.61e-05
2016-08-07 00:00:00,2016-08-07 00:00:00,PRATE,surface,-93.7504,31.6534,3.85e-05
2016-08-07 00:00:00,2016-08-07 00:00:00,PRATE,surface,-92.8129,31.6534,5.29e-05
2016-08-07 00:00:00,2016-08-07 00:00:00,PRATE,surface,-107.813,32.5983,6e-07
2016-08-07 00:00:00,2016-08-07 00:00:00,PRATE,surface,-106.875,32.5983,1.6e-06
2016-08-07 00:00:00,2016-08-07 00:00:00,PRATE,surface,-105.938,32.5983,4.9e-06
2016-08-07 00:00:00,2016-08-07 00:00:00,PRATE,surface,-105,32.5983,1.4e-06
2016-08-07 00:00:00,2016-08-07 00:00:00,PRATE,surface,-104.063,32.5983,3e-06
2016-08-07 00:00:00,2016-08-07 00:00:00,PRATE,surface,-103.125,32.5983,1.59e-05
2016-08-07 00:00:00,2016-08-07 00:00:00,PRATE,surface,-102.188,32.5983,2.93e-05
2016-08-07 00:00:00,2016-08-07 00:00:00,PRATE,surface,-101.25,32.5983,3.15e-05
2016-08-07 00:00:00,2016-08-07 00:00:00,PRATE,surface,-100.313,32.5983,3.86e-05
2016-08-07 00:00:00,2016-08-07 00:00:00,PRATE,surface,-99.3754,32.5983,4.18e-05
2016-08-07 00:00:00,2016-08-07 00:00:00,PRATE,surface,-98.4379,32.5983,4.8e-05
2016-08-07 00:00:00,2016-08-07 00:00:00,PRATE,surface,-97.5004,32.5983,4.96e-05
2016-08-07 00:00:00,2016-08-07 00:00:00,PRATE,surface,-96.5629,32.5983,4.45e-05
2016-08-07 00:00:00,2016-08-07 00:00:00,PRATE,surface,-95.6254,32.5983,4.49e-05
2016-08-07 00:00:00,2016-08-07 00:00:00,PRATE,surface,-94.6879,32.5983,5.04e-05
2016-08-07 00:00:00,2016-08-07 00:00:00,PRATE,surface,-93.7504,32.5983,5.14e-05
2016-08-07 00:00:00,2016-08-07 00:00:00,PRATE,surface,-92.8129,32.5983,4.79e-05
2016-08-07 00:00:00,2016-08-07 00:00:00,PRATE,surface,-107.813,33.5432,5.9e-06
2016-08-07 00:00:00,2016-08-07 00:00:00,PRATE,surface,-106.875,33.5432,5.9e-06
2016-08-07 00:00:00,2016-08-07 00:00:00,PRATE,surface,-105.938,33.5432,3.2e-06
2016-08-07 00:00:00,2016-08-07 00:00:00,PRATE,surface,-105,33.5432,1.9e-06
2016-08-07 00:00:00,2016-08-07 00:00:00,PRATE,surface,-104.063,33.5432,2.4e-06
2016-08-07 00:00:00,2016-08-07 00:00:00,PRATE,surface,-103.125,33.5432,1.17e-05
2016-08-07 00:00:00,2016-08-07 00:00:00,PRATE,surface,-102.188,33.5432,2.78e-05
2016-08-07 00:00:00,2016-08-07 00:00:00,PRATE,surface,-101.25,33.5432,3.49e-05
2016-08-07 00:00:00,2016-08-07 00:00:00,PRATE,surface,-100.313,33.5432,3.56e-05
2016-08-07 00:00:00,2016-08-07 00:00:00,PRATE,surface,-99.3754,33.5432,3.4e-05
2016-08-07 00:00:00,2016-08-07 00:00:00,PRATE,surface,-98.4379,33.5432,3.8e-05
2016-08-07 00:00:00,2016-08-07 00:00:00,PRATE,surface,-97.5004,33.5432,4.92e-05
2016-08-07 00:00:00,2016-08-07 00:00:00,PRATE,surface,-96.5629,33.5432,5.48e-05
2016-08-07 00:00:00,2016-08-07 00:00:00,PRATE,surface,-95.6254,33.5432,5.49e-05
2016-08-07 00:00:00,2016-08-07 00:00:00,PRATE,surface,-94.6879,33.5432,6.11e-05
2016-08-07 00:00:00,2016-08-07 00:00:00,PRATE,surface,-93.7504,33.5432,6.38e-05
2016-08-07 00:00:00,2016-08-07 00:00:00,PRATE,surface,-92.8129,33.5432,5.86e-05
2016-08-07 00:00:00,2016-08-07 00:00:00,PRATE,surface,-107.813,34.4881,6.7e-06
2016-08-07 00:00:00,2016-08-07 00:00:00,PRATE,surface,-106.875,34.4881,4.3e-06
2016-08-07 00:00:00,2016-08-07 00:00:00,PRATE,surface,-105.938,34.4881,4e-07
2016-08-07 00:00:00,2016-08-07 00:00:00,PRATE,surface,-105,34.4881,8e-07
2016-08-07 00:00:00,2016-08-07 00:00:00,PRATE,surface,-104.063,34.4881,3.9e-06
2016-08-07 00:00:00,2016-08-07 00:00:00,PRATE,surface,-103.125,34.4881,6.9e-06
2016-08-07 00:00:00,2016-08-07 00:00:00,PRATE,surface,-102.188,34.4881,1.46e-05
2016-08-07 00:00:00,2016-08-07 00:00:00,PRATE,surface,-101.25,34.4881,2.31e-05
2016-08-07 00:00:00,2016-08-07 00:00:00,PRATE,surface,-100.313,34.4881,3.6e-05
2016-08-07 00:00:00,2016-08-07 00:00:00,PRATE,surface,-99.3754,34.4881,3.54e-05
2016-08-07 00:00:00,2016-08-07 00:00:00,PRATE,surface,-98.4379,34.4881,3.7e-05
2016-08-07 00:00:00,2016-08-07 00:00:00,PRATE,surface,-97.5004,34.4881,5.49e-05
2016-08-07 00:00:00,2016-08-07 00:00:00,PRATE,surface,-96.5629,34.4881,7.07e-05
2016-08-07 00:00:00,2016-08-07 00:00:00,PRATE,surface,-95.6254,34.4881,7.28e-05
2016-08-07 00:00:00,2016-08-07 00:00:00,PRATE,surface,-94.6879,34.4881,7.52e-05
2016-08-07 00:00:00,2016-08-07 00:00:00,PRATE,surface,-93.7504,34.4881,8.1e-05
2016-08-07 00:00:00,2016-08-07 00:00:00,PRATE,surface,-92.8129,34.4881,8.28e-05
2016-08-07 00:00:00,2016-08-07 00:00:00,PRATE,surface,-107.813,35.4329,6.3e-06
2016-08-07 00:00:00,2016-08-07 00:00:00,PRATE,surface,-106.875,35.4329,3.2e-06
2016-08-07 00:00:00,2016-08-07 00:00:00,PRATE,surface,-105.938,35.4329,1.6e-06
2016-08-07 00:00:00,2016-08-07 00:00:00,PRATE,surface,-105,35.4329,2.7e-06
2016-08-07 00:00:00,2016-08-07 00:00:00,PRATE,surface,-104.063,35.4329,4e-06
2016-08-07 00:00:00,2016-08-07 00:00:00,PRATE,surface,-103.125,35.4329,6.9e-06
2016-08-07 00:00:00,2016-08-07 00:00:00,PRATE,surface,-102.188,35.4329,1.09e-05
2016-08-07 00:00:00,2016-08-07 00:00:00,PRATE,surface,-101.25,35.4329,2.75e-05
2016-08-07 00:00:00,2016-08-07 00:00:00,PRATE,surface,-100.313,35.4329,4.48e-05
2016-08-07 00:00:00,2016-08-07 00:00:00,PRATE,surface,-99.3754,35.4329,4.3e-05
2016-08-07 00:00:00,2016-08-07 00:00:00,PRATE,surface,-98.4379,35.4329,4.28e-05
2016-08-07 00:00:00,2016-08-07 00:00:00,PRATE,surface,-97.5004,35.4329,6.07e-05
2016-08-07 00:00:00,2016-08-07 00:00:00,PRATE,surface,-96.5629,35.4329,7.89e-05
2016-08-07 00:00:00,2016-08-07 00:00:00,PRATE,surface,-95.6254,35.4329,8.73e-05
2016-08-07 00:00:00,2016-08-07 00:00:00,PRATE,surface,-94.6879,35.4329,9.59e-05
2016-08-07 00:00:00,2016-08-07 00:00:00,PRATE,surface,-93.7504,35.4329,9.96e-05
2016-08-07 00:00:00,2016-08-07 00:00:00,PRATE,surface,-92.8129,35.4329,9.51e-05
2016-08-07 00:00:00,2016-08-07 00:00:00,PRATE,surface,-107.813,36.3778,8.3e-06
2016-08-07 00:00:00,2016-08-07 00:00:00,PRATE,surface,-106.875,36.3778,9e-06
2016-08-07 00:00:00,2016-08-07 00:00:00,PRATE,surface,-105.938,36.3778,6.4e-06
2016-08-07 00:00:00,2016-08-07 00:00:00,PRATE,surface,-105,36.3778,7.2e-06
2016-08-07 00:00:00,2016-08-07 00:00:00,PRATE,surface,-104.063,36.3778,6.3e-06
2016-08-07 00:00:00,2016-08-07 00:00:00,PRATE,surface,-103.125,36.3778,6.8e-06
2016-08-07 00:00:00,2016-08-07 00:00:00,PRATE,surface,-102.188,36.3778,9.7e-06
2016-08-07 00:00:00,2016-08-07 00:00:00,PRATE,surface,-101.25,36.3778,2.08e-05
2016-08-07 00:00:00,2016-08-07 00:00:00,PRATE,surface,-100.313,36.3778,4.11e-05
2016-08-07 00:00:00,2016-08-07 00:00:00,PRATE,surface,-99.3754,36.3778,6.4e-05
2016-08-07 00:00:00,2016-08-07 00:00:00,PRATE,surface,-98.4379,36.3778,7.39e-05
2016-08-07 00:00:00,2016-08-07 00:00:00,PRATE,surface,-97.5004,36.3778,7.5e-05
2016-08-07 00:00:00,2016-08-07 00:00:00,PRATE,surface,-96.5629,36.3778,8.09e-05
2016-08-07 00:00:00,2016-08-07 00:00:00,PRATE,surface,-95.6254,36.3778,9.16e-05
2016-08-07 00:00:00,2016-08-07 00:00:00,PRATE,surface,-94.6879,36.3778,9.98e-05
2016-08-07 00:00:00,2016-08-07 00:00:00,PRATE,surface,-93.7504,36.3778,0.0001061
2016-08-07 00:00:00,2016-08-07 00:00:00,PRATE,surface,-92.8129,36.3778,0.0001085
