2018-09-15 00:00:00,2018-09-15 00:00:00,TMP,surface,-107.813,25.0393,295.548
2018-09-15 00:00:00,2018-09-15 00:00:00,TMP,surface,-106.875,25.0393,289.036
2018-09-15 00:00:00,2018-09-15 00:00:00,TMP,surface,-105.938,25.0393,283.918
2018-09-15 00:00:00,2018-09-15 00:00:00,TMP,surface,-105,25.0393,282.224
2018-09-15 00:00:00,2018-09-15 00:00:00,TMP,surface,-104.063,25.0393,286.083
2018-09-15 00:00:00,2018-09-15 00:00:00,TMP,surface,-103.125,25.0393,288.253
2018-09-15 00:00:00,2018-09-15 00:00:00,TMP,surface,-102.188,25.0393,288.395
2018-09-15 00:00:00,2018-09-15 00:00:00,TMP,surface,-101.25,25.0393,287.056
2018-09-15 00:00:00,2018-09-15 00:00:00,TMP,surface,-100.313,25.0393,287.966
2018-09-15 00:00:00,2018-09-15 00:00:00,TMP,surface,-99.3754,25.0393,291.443
2018-09-15 00:00:00,2018-09-15 00:00:00,TMP,surface,-98.4379,25.0393,295.267
2018-09-15 00:00:00,2018-09-15 00:00:00,TMP,surface,-97.5004,25.0393,299.744
2018-09-15 00:00:00,2018-09-15 00:00:00,TMP,surface,-96.5629,25.0393,299.94
2018-09-15 00:00:00,2018-09-15 00:00:00,TMP,surface,-95.6254,25.0393,299.889
2018-09-15 00:00:00,2018-09-15 00:00:00,TMP,surface,-94.6879,25.0393,299.827
2018-09-15 00:00:00,2018-09-15 00:00:00,TMP,surface,-93.7504,25.0393,299.54
2018-09-15 00:00:00,2018-09-15 00:00:00,TMP,surface,-92.8129,25.0393,299.499
2018-09-15 00:00:00,2018-09-15 00:00:00,TMP,surface,-107.813,25.9842,290.024
2018-09-15 00:00:00,2018-09-15 00:00:00,TMP,surface,-106.875,25.9842,284.649
2018-09-15 00:00:00,2018-09-15 00:00:00,TMP,surface,-105.938,25.9842,282.029
2018-09-15 00:00:00,2018-09-15 00:00:00,TMP,surface,-105,25.9842,284.224
2018-09-15 00:00:00,2018-09-15 00:00:00,TMP,surface,-104.063,25.9842,288.077
2018-09-15 00:00:00,2018-09-15 00:00:00,TMP,surface,-103.125,25.9842,289.24
2018-09-15 00:00:00,2018-09-15 00:00:00,TMP,surface,-102.188,25.9842,289.316
2018-09-15 00:00:00,2018-09-15 00:00:00,TMP,surface,-101.25,25.9842,289.067
2018-09-15 00:00:00,2018-09-15 00:00:00,TMP,surface,-100.313,25.9842,289.646
2018-09-15 00:00:00,2018-09-15 00:00:00,TMP,surface,-99.3754,25.9842,293.08
2018-09-15 00:00:00,2018-09-15 00:00:00,TMP,surface,-98.4379,25.9842,295.291
2018-09-15 00:00:00,2018-09-15 00:00:00,TMP,surface,-97.5004,25.9842,296.409
2018-09-15 00:00:00,2018-09-15 00:00:00,TMP,surface,-96.5629,25.9842,299.278
2018-09-15 00:00:00,2018-09-15 00:00:00,TMP,surface,-95.6254,25.9842,299.31
2018-09-15 00:00:00,2018-09-15 00:00:00,TMP,surface,-94.6879,25.9842,299.393
2018-09-15 00:00:00,2018-09-15 00:00:00,TMP,surface,-93.7504,25.9842,299.235
2018-09-15 00:00:00,2018-09-15 00:00:00,TMP,surface,-92.8129,25.9842,299.288
2018-09-15 00:00:00,2018-09-15 00:00:00,TMP,surface,-107.813,26.929,285.451
2018-09-15 00:00:00,2018-09-15 00:00:00,TMP,surface,-106.875,26.929,281.645
2018-09-15 00:00:00,2018-09-15 00:00:00,TMP,surface,-105.938,26.929,283.497
2018-09-15 00:00:00,2018-09-15 00:00:00,TMP,surface,-105,26.929,286.494
2018-09-15 00:00:00,2018-09-15 00:00:00,TMP,surface,-104.063,26.929,288.102
2018-09-15 00:00:00,2018-09-15 00:00:00,TMP,surface,-103.125,26.929,287.649
2018-09-15 00:00:00,2018-09-15 00:00:00,TMP,surface,-102.188,26.929,288.443
2018-09-15 00:00:00,2018-09-15 00:00:00,TMP,surface,-101.25,26.929,289.872
2018-09-15 00:00:00,2018-09-15 00:00:00,TMP,surface,-100.313,26.929,291.177
2018-09-15 00:00:00,2018-09-15 00:00:00,TMP,surface,-99.3754,26.929,293.245
2018-09-15 00:00:00,2018-09-15 00:00:00,TMP,surface,-98.4379,26.929,293.808
2018-09-15 00:00:00,2018-09-15 00:00:00,TMP,surface,-97.5004,26.929,298.118
2018-09-15 00:00:00,2018-09-15 00:00:00,TMP,surface,-96.5629,26.929,298.571
2018-09-15 00:00:00,2018-09-15 00:00:00,TMP,surface,-95.6254,26.929,298.772
2018-09-15 00:00:00,2018-09-15 00:00:00,TMP,surface,-94.6879,26.929,298.886
2018-09-15 00:00:00,2018-09-15 00:00:00,TMP,surface,-93.7504,26.929,298.901
2018-09-15 00:00:00,2018-09-15 00:00:00,TMP,surface,-92.8129,26.929,299.017
2018-09-15 00:00:00,2018-09-15 00:00:00,TMP,surface,-107.813,27.8739,282.731
2018-09-15 00:00:00,2018-09-15 00:00:00,TMP,surface,-106.875,27.8739,281.448
2018-09-15 00:00:00,2018-09-15 00:00:00,TMP,surface,-105.938,27.8739,284.528
2018-09-15 00:00:00,2018-09-15 00:00:00,TMP,surface,-105,27.8739,287.19
2018-09-15 00:00:00,2018-09-15 00:00:00,TMP,surface,-104.063,27.8739,287.542
2018-09-15 00:00:00,2018-09-15 00:00:00,TMP,surface,-103.125,27.8739,286.923
2018-09-15 00:00:00,2018-09-15 00:00:00,TMP,surface,-102.188,27.8739,287.66
2018-09-15 00:00:00,2018-09-15 00:00:00,TMP,surface,-101.25,27.8739,289.421
2018-09-15 00:00:00,2018-09-15 00:00:00,TMP,surface,-100.313,27.8739,291.248
2018-09-15 00:00:00,2018-09-15 00:00:00,TMP,surface,-99.3754,27.8739,292.049
2018-09-15 00:00:00,2018-09-15 00:00:00,TMP,surface,-98.4379,27.8739,292.372
2018-09-15 00:00:00,2018-09-15 00:00:00,TMP,surface,-97.5004,27.8739,295.544
2018-09-15 00:00:00,2018-09-15 00:00:00,TMP,surface,-96.5629,27.8739,298.716
2018-09-15 00:00:00,2018-09-15 00:00:00,TMP,surface,-95.6254,27.8739,298.757
2018-09-15 00:00:00,2018-09-15 00:00:00,TMP,surface,-94.6879,27.8739,298.398
2018-09-15 00:00:00,2018-09-15 00:00:00,TMP,surface,-93.7504,27.8739,298.216
2018-09-15 00:00:00,2018-09-15 00:00:00,TMP,surface,-92.8129,27.8739,298.246
2018-09-15 00:00:00,2018-09-15 00:00:00,TMP,surface,-107.813,28.8188,281.539
2018-09-15 00:00:00,2018-09-15 00:00:00,TMP,surface,-106.875,28.8188,282.056
2018-09-15 00:00:00,2018-09-15 00:00:00,TMP,surface,-105.938,28.8188,285.16
2018-09-15 00:00:00,2018-09-15 00:00:00,TMP,surface,-105,28.8188,286.772
2018-09-15 00:00:00,2018-09-15 00:00:00,TMP,surface,-104.063,28.8188,286.04
2018-09-15 00:00:00,2018-09-15 00:00:00,TMP,surface,-103.125,28.8188,286.104
2018-09-15 00:00:00,2018-09-15 00:00:00,TMP,surface,-102.188,28.8188,287.069
2018-09-15 00:00:00,2018-09-15 00:00:00,TMP,surface,-101.25,28.8188,288.812
2018-09-15 00:00:00,2018-09-15 00:00:00,TMP,surface,-100.313,28.8188,289.792
2018-09-15 00:00:00,2018-09-15 00:00:00,TMP,surface,-99.3754,28.8188,289.812
2018-09-15 00:00:00,2018-09-15 00:00:00,TMP,surface,-98.4379,28.8188,289.958
2018-09-15 00:00:00,2018-09-15 00:00:00,TMP,surface,-97.5004,28.8188,290.548
2018-09-15 00:00:00,2018-09-15 00:00:00,TMP,surface,-96.5629,28.8188,291.435
2018-09-15 00:00:00,2018-09-15 00:00:00,TMP,surface,-95.6254,28.8188,294.411
2018-09-15 00:00:00,2018-09-15 00:00:00,TMP,surface,-94.6879,28.8188,298.197
2018-09-15 00:00:00,2018-09-15 00:00:00,TMP,surface,-93.7504,28.8188,297.98
2018-09-15 00:00:00,2018-09-15 00:00:00,TMP,surface,-92.8129,28.8188,298.035
2018-09-15 00:00:00,2018-09-15 00:00:00,TMP,surface,-107.813,29.7637,282.31
2018-09-15 00:00:00,2018-09-15 00:00:00,TMP,surface,-106.875,29.7637,283.238
2018-09-15 00:00:00,2018-09-15 00:00:00,TMP,surface,-105.938,29.7637,285.509
2018-09-15 00:00:00,2018-09-15 00:00:00,TMP,surface,-105,29.7637,285.288
2018-09-15 00:00:00,2018-09-15 00:00:00,TMP,surface,-104.063,29.7637,285.556
2018-09-15 00:00:00,2018-09-15 00:00:00,TMP,surface,-103.125,29.7637,286.281
2018-09-15 00:00:00,2018-09-15 00:00:00,TMP,surface,-102.188,29.7637,287.589
2018-09-15 00:00:00,2018-09-15 00:00:00,TMP,surface,-101.25,29.7637,288.256
2018-09-15 00:00:00,2018-09-15 00:00:00,TMP,surface,-100.313,29.7637,288.069
2018-09-15 00:00:00,2018-09-15 00:00:00,TMP,surface,-99.3754,29.7637,287.939
2018-09-15 00:00:00,2018-09-15 00:00:00,TMP,surface,-98.4379,29.7637,288.185
2018-09-15 00:00:00,2018-09-15 00:00:00,TMP,surface,-97.5004,29.7637,288.598
2018-09-15 00:00:00,2018-09-15 00:00:00,TMP,surface,-96.5629,29.7637,289.152
2018-09-15 00:00:00,2018-09-15 00:00:00,TMP,surface,-95.6254,29.7637,289.966
2018-09-15 00:00:00,2018-09-15 00:00:00,TMP,surface,-94.6879,29.7637,292.881
2018-09-15 00:00:00,2018-09-15 00:00:00,TMP,surface,-93.7504,29.7637,296.224
2018-09-15 00:00:00,2018-09-15 00:00:00,TMP,surface,-92.8129,29.7637,291.209
2018-09-15 00:00:00,2018-09-15 00:00:00,TMP,surface,-107.813,30.7085,284.089
2018-09-15 00:00:00,2018-09-15 00:00:00,TMP,surface,-106.875,30.7085,285.208
2018-09-15 00:00:00,2018-09-15 00:00:00,TMP,surface,-105.938,30.7085,284.979
2018-09-15 00:00:00,2018-09-15 00:00:00,TMP,surface,-105,30.7085,284.411
2018-09-15 00:00:00,2018-09-15 00:00:00,TMP,surface,-104.063,30.7085,284.646
2018-09-15 00:00:00,2018-09-15 00:00:00,TMP,surface,-103.125,30.7085,285.924
2018-09-15 00:00:00,2018-09-15 00:00:00,TMP,surface,-102.188,30.7085,286.936
2018-09-15 00:00:00,2018-09-15 00:00:00,TMP,surface,-101.25,30.7085,287.163
2018-09-15 00:00:00,2018-09-15 00:00:00,TMP,surface,-100.313,30.7085,287.021
2018-09-15 00:00:00,2018-09-15 00:00:00,TMP,surface,-99.3754,30.7085,287.126
2018-09-15 00:00:00,2018-09-15 00:00:00,TMP,surface,-98.4379,30.7085,287.473
2018-09-15 00:00:00,2018-09-15 00:00:00,TMP,surface,-97.5004,30.7085,287.817
2018-09-15 00:00:00,2018-09-15 00:00:00,TMP,surface,-96.5629,30.7085,288.107
2018-09-15 00:00:00,2018-09-15 00:00:00,TMP,surface,-95.6254,30.7085,288.403
2018-09-15 00:00:00,2018-09-15 00:00:00,TMP,surface,-94.6879,30.7085,288.696
2018-09-15 00:00:00,2018-09-15 00:00:00,TMP,surface,-93.7504,30.7085,288.812
2018-09-15 00:00:00,2018-09-15 00:00:00,TMP,surface,-92.8129,30.7085,288.52
2018-09-15 00:00:00,2018-09-15 00:00:00,TMP,surface,-107.813,31.6534,283.928
2018-09-15 00:00:00,2018-09-15 00:00:00,TMP,surface,-106.875,31.6534,284.59
2018-09-15 00:00:00,2018-09-15 00:00:00,TMP,surface,-105.938,31.6534,283.456
2018-09-15 00:00:00,2018-09-15 00:00:00,TMP,surface,-105,31.6534,283.54
2018-09-15 00:00:00,2018-09-15 00:00:00,TMP,surface,-104.063,31.6534,284.262
2018-09-15 00:00:00,2018-09-15 00:00:00,TMP,surface,-103.125,31.6534,285.339
2018-09-15 00:00:00,2018-09-15 00:00:00,TMP,surface,-102.188,31.6534,286.1
2018-09-15 00:00:00,2018-09-15 00:00:00,TMP,surface,-101.25,31.6534,286.272
2018-09-15 00:00:00,2018-09-15 00:00:00,TMP,surface,-100.313,31.6534,286.499
2018-09-15 00:00:00,2018-09-15 00:00:00,TMP,surface,-99.3754,31.6534,286.853
2018-09-15 00:00:00,2018-09-15 00:00:00,TMP,surface,-98.4379,31.6534,287.268
2018-09-15 00:00:00,2018-09-15 00:00:00,TMP,surface,-97.5004,31.6534,287.484
2018-09-15 00:00:00,2018-09-15 00:00:00,TMP,surface,-96.5629,31.6534,287.523
2018-09-15 00:00:00,2018-09-15 00:00:00,TMP,surface,-95.6254,31.6534,287.51
2018-09-15 00:00:00,2018-09-15 00:00:00,TMP,surface,-94.6879,31.6534,287.387
2018-09-15 00:00:00,2018-09-15 00:00:00,TMP,surface,-93.7504,31.6534,287.307
2018-09-15 00:00:00,2018-09-15 00:00:00,TMP,surface,-92.8129,31.6534,287.369
2018-09-15 00:00:00,2018-09-15 00:00:00,TMP,surface,-107.813,32.5983,281.238
2018-09-15 00:00:00,2018-09-15 00:00:00,TMP,surface,-106.875,32.5983,281.499
2018-09-15 00:00:00,2018-09-15 00:00:00,TMP,surface,-105.938,32.5983,281.752
2018-09-15 00:00:00,2018-09-15 00:00:00,TMP,surface,-105,32.5983,282.336
2018-09-15 00:00:00,2018-09-15 00:00:00,TMP,surface,-104.063,32.5983,283.917
2018-09-15 00:00:00,2018-09-15 00:00:00,TMP,surface,-103.125,32.5983,284.923
2018-09-15 00:00:00,2018-09-15 00:00:00,TMP,surface,-102.188,32.5983,285.237
2018-09-15 00:00:00,2018-09-15 00:00:00,TMP,surface,-101.25,32.5983,285.63
2018-09-15 00:00:00,2018-09-15 00:00:00,TMP,surface,-100.313,32.5983,286.155
2018-09-15 00:00:00,2018-09-15 00:00:00,TMP,surface,-99.3754,32.5983,286.757
2018-09-15 00:00:00,2018-09-15 00:00:00,TMP,surface,-98.4379,32.5983,287.126
2018-09-15 00:00:00,2018-09-15 00:00:00,TMP,surface,-97.5004,32.5983,287.189
2018-09-15 00:00:00,2018-09-15 00:00:00,TMP,surface,-96.5629,32.5983,287.072
2018-09-15 00:00:00,2018-09-15 00:00:00,TMP,surface,-95.6254,32.5983,286.848
2018-09-15 00:00:00,2018-09-15 00:00:00,TMP,surface,-94.6879,32.5983,286.568
2018-09-15 00:00:00,2018-09-15 00:00:00,TMP,surface,-93.7504,32.5983,286.427
2018-09-15 00:00:00,2018-09-15 00:00:00,TMP,surface,-92.8129,32.5983,286.683
2018-09-15 00:00:00,2018-09-15 00:00:00,TMP,surface,-107.813,33.5432,278.28
2018-09-15 00:00:00,2018-09-15 00:00:00,TMP,surface,-106.875,33.5432,279.276
2018-09-15 00:00:00,2018-09-15 00:00:00,TMP,surface,-105.938,33.5432,280.23
2018-09-15 00:00:00,2018-09-15 00:00:00,TMP,surface,-105,33.5432,281.409
2018-09-15 00:00:00,2018-09-15 00:00:00,TMP,surface,-104.063,33.5432,283.144
2018-09-15 00:00:00,2018-09-15 00:00:00,TMP,surface,-103.125,33.5432,283.953
2018-09-15 00:00:00,2018-09-15 00:00:00,TMP,surface,-102.188,33.5432,284.029
2018-09-15 00:00:00,2018-09-15 00:00:00,TMP,surface,-101.25,33.5432,284.414
2018-09-15 00:00:00,2018-09-15 00:00:00,TMP,surface,-100.313,33.5432,285.219
2018-09-15 00:00:00,2018-09-15 00:00:00,TMP,surface,-99.3754,33.5432,285.865
2018-09-15 00:00:00,2018-09-15 00:00:00,TMP,surface,-98.4379,33.5432,286.029
2018-09-15 00:00:00,2018-09-15 00:00:00,TMP,surface,-97.5004,33.5432,285.963
2018-09-15 00:00:00,2018-09-15 00:00:00,TMP,surface,-96.5629,33.5432,285.926
2018-09-15 00:00:00,2018-09-15 00:00:00,TMP,surface,-95.6254,33.5432,285.868
2018-09-15 00:00:00,2018-09-15 00:00:00,TMP,surface,-94.6879,33.5432,285.681
2018-09-15 00:00:00,2018-09-15 00:00:00,TMP,surface,-93.7504,33.5432,285.481
2018-09-15 00:00:00,2018-09-15 00:00:00,TMP,surface,-92.8129,33.5432,285.579
2018-09-15 00:00:00,2018-09-15 00:00:00,TMP,surface,-107.813,34.4881,276.704
2018-09-15 00:00:00,2018-09-15 00:00:00,TMP,surface,-106.875,34.4881,278.097
2018-09-15 00:00:00,2018-09-15 00:00:00,TMP,surface,-105.938,34.4881,279.019
2018-09-15 00:00:00,2018-09-15 00:00:00,TMP,surface,-105,34.4881,280.395
2018-09-15 00:00:00,2018-09-15 00:00:00,TMP,surface,-104.063,34.4881,281.678
2018-09-15 00:00:00,2018-09-15 00:00:00,TMP,surface,-103.125,34.4881,282.464
2018-09-15 00:00:00,2018-09-15 00:00:00,TMP,surface,-102.188,34.4881,282.761
2018-09-15 00:00:00,2018-09-15 00:00:00,TMP,surface,-101.25,34.4881,283.125
2018-09-15 00:00:00,2018-09-15 00:00:00,TMP,surface,-100.313,34.4881,283.721
2018-09-15 00:00:00,2018-09-15 00:00:00,TMP,surface,-99.3754,34.4881,284.299
2018-09-15 00:00:00,2018-09-15 00:00:00,TMP,surface,-98.4379,34.4881,284.494
2018-09-15 00:00:00,2018-09-15 00:00:00,TMP,surface,-97.5004,34.4881,284.518
2018-09-15 00:00:00,2018-09-15 00:00:00,TMP,surface,-96.5629,34.4881,284.701
2018-09-15 00:00:00,2018-09-15 00:00:00,TMP,surface,-95.6254,34.4881,284.749
2018-09-15 00:00:00,2018-09-15 00:00:00,TMP,surface,-94.6879,34.4881,284.382
2018-09-15 00:00:00,2018-09-15 00:00:00,TMP,surface,-93.7504,34.4881,284.069
2018-09-15 00:00:00,2018-09-15 00:00:00,TMP,surface,-92.8129,34.4881,284.123
2018-09-15 00:00:00,2018-09-15 00:00:00,TMP,surface,-107.813,35.4329,276.462
2018-09-15 00:00:00,2018-09-15 00:00:00,TMP,surface,-106.875,35.4329,277.177
2018-09-15 00:00:00,2018-09-15 00:00:00,TMP,surface,-105.938,35.4329,277.678
2018-09-15 00:00:00,2018-09-15 00:00:00,TMP,surface,-105,35.4329,278.715
2018-09-15 00:00:00,2018-09-15 00:00:00,TMP,surface,-104.063,35.4329,280.699
2018-09-15 00:00:00,2018-09-15 00:00:00,TMP,surface,-103.125,35.4329,281.828
2018-09-15 00:00:00,2018-09-15 00:00:00,TMP,surface,-102.188,35.4329,281.918
2018-09-15 00:00:00,2018-09-15 00:00:00,TMP,surface,-101.25,35.4329,282.033
2018-09-15 00:00:00,2018-09-15 00:00:00,TMP,surface,-100.313,35.4329,282.427
2018-09-15 00:00:00,2018-09-15 00:00:00,TMP,surface,-99.3754,35.4329,282.654
2018-09-15 00:00:00,2018-09-15 00:00:00,TMP,surface,-98.4379,35.4329,282.905
2018-09-15 00:00:00,2018-09-15 00:00:00,TMP,surface,-97.5004,35.4329,283.39
2018-09-15 00:00:00,2018-09-15 00:00:00,TMP,surface,-96.5629,35.4329,283.828
2018-09-15 00:00:00,2018-09-15 00:00:00,TMP,surface,-95.6254,35.4329,283.896
2018-09-15 00:00:00,2018-09-15 00:00:00,TMP,surface,-94.6879,35.4329,283.51
2018-09-15 00:00:00,2018-09-15 00:00:00,TMP,surface,-93.7504,35.4329,282.909
2018-09-15 00:00:00,2018-09-15 00:00:00,TMP,surface,-92.8129,35.4329,282.768
2018-09-15 00:00:00,2018-09-15 00:00:00,TMP,surface,-107.813,36.3778,275.789
2018-09-15 00:00:00,2018-09-15 00:00:00,TMP,surface,-106.875,36.3778,274.833
2018-09-15 00:00:00,2018-09-15 00:00:00,TMP,surface,-105.938,36.3778,275.38
2018-09-15 00:00:00,2018-09-15 00:00:00,TMP,surface,-105,36.3778,276.704
2018-09-15 00:00:00,2018-09-15 00:00:00,TMP,surface,-104.063,36.3778,278.718
2018-09-15 00:00:00,2018-09-15 00:00:00,TMP,surface,-103.125,36.3778,279.772
2018-09-15 00:00:00,2018-09-15 00:00:00,TMP,surface,-102.188,36.3778,280.388
2018-09-15 00:00:00,2018-09-15 00:00:00,TMP,surface,-101.25,36.3778,281.025
2018-09-15 00:00:00,2018-09-15 00:00:00,TMP,surface,-100.313,36.3778,281.685
2018-09-15 00:00:00,2018-09-15 00:00:00,TMP,surface,-99.3754,36.3778,282.096
2018-09-15 00:00:00,2018-09-15 00:00:00,TMP,surface,-98.4379,36.3778,282.052
2018-09-15 00:00:00,2018-09-15 00:00:00,TMP,surface,-97.5004,36.3778,282.32
2018-09-15 00:00:00,2018-09-15 00:00:00,TMP,surface,-96.5629,36.3778,282.848
2018-09-15 00:00:00,2018-09-15 00:00:00,TMP,surface,-95.6254,36.3778,282.902
2018-09-15 00:00:00,2018-09-15 00:00:00,TMP,surface,-94.6879,36.3778,282.444
2018-09-15 00:00:00,2018-09-15 00:00:00,TMP,surface,-93.7504,36.3778,281.805
2018-09-15 00:00:00,2018-09-15 00:00:00,TMP,surface,-92.8129,36.3778,281.579
2018-09-15 00:00:00,2018-09-15 00:00:00,PRATE,surface,-107.813,25.0393,2.18e-05
2018-09-15 00:00:00,2018-09-15 00:00:00,PRATE,surface,-106.875,25.0393,2.3e-05
2018-09-15 00:00:00,2018-09-15 00:00:00,PRATE,surface,-105.938,25.0393,2e-05
2018-09-15 00:00:00,2018-09-15 00:00:00,PRATE,surface,-105,25.0393,1.26e-05
2018-09-15 00:00:00,2018-09-15 00:00:00,PRATE,surface,-104.063,25.0393,7e-06
2018-09-15 00:00:00,2018-09-15 00:00:00,PRATE,surface,-103.125,25.0393,5.1e-06
2018-09-15 00:00:00,2018-09-15 00:00:00,PRATE,surface,-102.188,25.0393,1.21e-05
2018-09-15 00:00:00,2018-09-15 00:00:00,PRATE,surface,-101.25,25.0393,2.96e-05
2018-09-15 00:00:00,2018-09-15 00:00:00,PRATE,surface,-100.313,25.0393,3.4e-05
2018-09-15 00:00:00,2018-09-15 00:00:00,PRATE,surface,-99.3754,25.0393,1.69e-05
2018-09-15 00:00:00,2018-09-15 00:00:00,PRATE,surface,-98.4379,25.0393,7.3e-06
2018-09-15 00:00:00,2018-09-15 00:00:00,PRATE,surface,-97.5004,25.0393,2.57e-05
2018-09-15 00:00:00,2018-09-15 00:00:00,PRATE,surface,-96.5629,25.0393,4.41e-05
2018-09-15 00:00:00,2018-09-15 00:00:00,PRATE,surface,-95.6254,25.0393,8.04e-05
2018-09-15 00:00:00,2018-09-15 00:00:00,PRATE,surface,-94.6879,25.0393,7.37e-05
2018-09-15 00:00:00,2018-09-15 00:00:00,PRATE,surface,-93.7504,25.0393,7.23e-05
2018-09-15 00:00:00,2018-09-15 00:00:00,PRATE,surface,-92.8129,25.0393,3.57e-05
2018-09-15 00:00:00,2018-09-15 00:00:00,PRATE,surface,-107.813,25.9842,1.53e-05
2018-09-15 00:00:00,2018-09-15 00:00:00,PRATE,surface,-106.875,25.9842,1.99e-05
2018-09-15 00:00:00,2018-09-15 00:00:00,PRATE,surface,-105.938,25.9842,1.48e-05
2018-09-15 00:00:00,2018-09-15 00:00:00,PRATE,surface,-105,25.9842,8.1e-06
2018-09-15 00:00:00,2018-09-15 00:00:00,PRATE,surface,-104.063,25.9842,3.1e-06
2018-09-15 00:00:00,2018-09-15 00:00:00,PRATE,surface,-103.125,25.9842,2.2e-06
2018-09-15 00:00:00,2018-09-15 00:00:00,PRATE,surface,-102.188,25.9842,6.5e-06
2018-09-15 00:00:00,2018-09-15 00:00:00,PRATE,surface,-101.25,25.9842,2.84e-05
2018-09-15 00:00:00,2018-09-15 00:00:00,PRATE,surface,-100.313,25.9842,3.54e-05
2018-09-15 00:00:00,2018-09-15 00:00:00,PRATE,surface,-99.3754,25.9842,1.33e-05
2018-09-15 00:00:00,2018-09-15 00:00:00,PRATE,surface,-98.4379,25.9842,1.18e-05
2018-09-15 00:00:00,2018-09-15 00:00:00,PRATE,surface,-97.5004,25.9842,2.11e-05
2018-09-15 00:00:00,2018-09-15 00:00:00,PRATE,surface,-96.5629,25.9842,8.61e-05
2018-09-15 00:00:00,2018-09-15 00:00:00,PRATE,surface,-95.6254,25.9842,0.0001175
2018-09-15 00:00:00,2018-09-15 00:00:00,PRATE,surface,-94.6879,25.9842,9.76e-05
2018-09-15 00:00:00,2018-09-15 00:00:00,PRATE,surface,-93.7504,25.9842,6.6e-05
2018-09-15 00:00:00,2018-09-15 00:00:00,PRATE,surface,-92.8129,25.9842,4.03e-05
2018-09-15 00:00:00,2018-09-15 00:00:00,PRATE,surface,-107.813,26.929,1.4e-05
2018-09-15 00:00:00,2018-09-15 00:00:00,PRATE,surface,-106.875,26.929,1.43e-05
2018-09-15 00:00:00,2018-09-15 00:00:00,PRATE,surface,-105.938,26.929,6.8e-06
2018-09-15 00:00:00,2018-09-15 00:00:00,PRATE,surface,-105,26.929,3.2e-06
2018-09-15 00:00:00,2018-09-15 00:00:00,PRATE,surface,-104.063,26.929,3.5e-06
2018-09-15 00:00:00,2018-09-15 00:00:00,PRATE,surface,-103.125,26.929,6.7e-06
2018-09-15 00:00:00,2018-09-15 00:00:00,PRATE,surface,-102.188,26.929,8.1e-06
2018-09-15 00:00:00,2018-09-15 00:00:00,PRATE,surface,-101.25,26.929,1.79e-05
2018-09-15 00:00:00,2018-09-15 00:00:00,PRATE,surface,-100.313,26.929,2.38e-05
2018-09-15 00:00:00,2018-09-15 00:00:00,PRATE,surface,-99.3754,26.929,1.51e-05
2018-09-15 00:00:00,2018-09-15 00:00:00,PRATE,surface,-98.4379,26.929,2.75e-05
2018-09-15 00:00:00,2018-09-15 00:00:00,PRATE,surface,-97.5004,26.929,3.18e-05
2018-09-15 00:00:00,2018-09-15 00:00:00,PRATE,surface,-96.5629,26.929,6.92e-05
2018-09-15 00:00:00,2018-09-15 00:00:00,PRATE,surface,-95.6254,26.929,8.98e-05
2018-09-15 00:00:00,2018-09-15 00:00:00,PRATE,surface,-94.6879,26.929,5.68e-05
2018-09-15 00:00:00,2018-09-15 00:00:00,PRATE,surface,-93.7504,26.929,5.05e-05
2018-09-15 00:00:00,2018-09-15 00:00:00,PRATE,surface,-92.8129,26.929,4.6e-05
2018-09-15 00:00:00,2018-09-15 00:00:00,PRATE,surface,-107.813,27.8739,1.67e-05
2018-09-15 00:00:00,2018-09-15 00:00:00,PRATE,surface,-106.875,27.8739,7.8e-06
2018-09-15 00:00:00,2018-09-15 00:00:00,PRATE,surface,-105.938,27.8739,2.9e-06
2018-09-15 00:00:00,2018-09-15 00:00:00,PRATE,surface,-105,27.8739,1.2e-06
2018-09-15 00:00:00,2018-09-15 00:00:00,PRATE,surface,-104.063,27.8739,4.7e-06
2018-09-15 00:00:00,2018-09-15 00:00:00,PRATE,surface,-103.125,27.8739,1.01e-05
2018-09-15 00:00:00,2018-09-15 00:00:00,PRATE,surface,-102.188,27.8739,1.41e-05
2018-09-15 00:00:00,2018-09-15 00:00:00,PRATE,surface,-101.25,27.8739,1.37e-05
2018-09-15 00:00:00,2018-09-15 00:00:00,PRATE,surface,-100.313,27.8739,1.21e-05
2018-09-15 00:00:00,2018-09-15 00:00:00,PRATE,surface,-99.3754,27.8739,2.13e-05
2018-09-15 00:00:00,2018-09-15 00:00:00,PRATE,surface,-98.4379,27.8739,3.12e-05
2018-09-15 00:00:00,2018-09-15 00:00:00,PRATE,surface,-97.5004,27.8739,4.29e-05
2018-09-15 00:00:00,2018-09-15 00:00:00,PRATE,surface,-96.5629,27.8739,4.96e-05
2018-09-15 00:00:00,2018-09-15 00:00:00,PRATE,surface,-95.6254,27.8739,4.95e-05
2018-09-15 00:00:00,2018-09-15 00:00:00,PRATE,surface,-94.6879,27.8739,5.15e-05
2018-09-15 00:00:00,2018-09-15 00:00:00,PRATE,surface,-93.7504,27.8739,4.73e-05
2018-09-15 00:00:00,2018-09-15 00:00:00,PRATE,surface,-92.8129,27.8739,4.59e-05
2018-09-15 00:00:00,2018-09-15 00:00:00,PRATE,surface,-107.813,28.8188,1.51e-05
2018-09-15 00:00:00,2018-09-15 00:00:00,PRATE,surface,-106.875,28.8188,8.6e-06
2018-09-15 00:00:00,2018-09-15 00:00:00,PRATE,surface,-105.938,28.8188,2.1e-06
2018-09-15 00:00:00,2018-09-15 00:00:00,PRATE,surface,-105,28.8188,1.3e-06
2018-09-15 00:00:00,2018-09-15 00:00:00,PRATE,surface,-104.063,28.8188,5e-06
2018-09-15 00:00:00,2018-09-15 00:00:00,PRATE,surface,-103.125,28.8188,7.6e-06
2018-09-15 00:00:00,2018-09-15 00:00:00,PRATE,surface,-102.188,28.8188,8e-06
2018-09-15 00:00:00,2018-09-15 00:00:00,PRATE,surface,-101.25,28.8188,6.4e-06
2018-09-15 00:00:00,2018-09-15 00:00:00,PRATE,surface,-100.313,28.8188,1.24e-05
2018-09-15 00:00:00,2018-09-15 00:00:00,PRATE,surface,-99.3754,28.8188,3.07e-05
2018-09-15 00:00:00,2018-09-15 00:00:00,PRATE,surface,-98.4379,28.8188,5.28e-05
2018-09-15 00:00:00,2018-09-15 00:00:00,PRATE,surface,-97.5004,28.8188,6.41e-05
2018-09-15 00:00:00,2018-09-15 00:00:00,PRATE,surface,-96.5629,28.8188,6.7e-05
2018-09-15 00:00:00,2018-09-15 00:00:00,PRATE,surface,-95.6254,28.8188,7.58e-05
2018-09-15 00:00:00,2018-09-15 00:00:00,PRATE,surface,-94.6879,28.8188,8.06e-05
2018-09-15 00:00:00,2018-09-15 00:00:00,PRATE,surface,-93.7504,28.8188,5.82e-05
2018-09-15 00:00:00,2018-09-15 00:00:00,PRATE,surface,-92.8129,28.8188,3.38e-05
2018-09-15 00:00:00,2018-09-15 00:00:00,PRATE,surface,-107.813,29.7637,1.32e-05
2018-09-15 00:00:00,2018-09-15 00:00:00,PRATE,surface,-106.875,29.7637,1.01e-05
2018-09-15 00:00:00,2018-09-15 00:00:00,PRATE,surface,-105.938,29.7637,6.4e-06
2018-09-15 00:00:00,2018-09-15 00:00:00,PRATE,surface,-105,29.7637,5.9e-06
2018-09-15 00:00:00,2018-09-15 00:00:00,PRATE,surface,-104.063,29.7637,5.6e-06
2018-09-15 00:00:00,2018-09-15 00:00:00,PRATE,surface,-103.125,29.7637,6.9e-06
2018-09-15 00:00:00,2018-09-15 00:00:00,PRATE,surface,-102.188,29.7637,4.8e-06
2018-09-15 00:00:00,2018-09-15 00:00:00,PRATE,surface,-101.25,29.7637,7e-06
2018-09-15 00:00:00,2018-09-15 00:00:00,PRATE,surface,-100.313,29.7637,2.08e-05
2018-09-15 00:00:00,2018-09-15 00:00:00,PRATE,surface,-99.3754,29.7637,4.3e-05
2018-09-15 00:00:00,2018-09-15 00:00:00,PRATE,surface,-98.4379,29.7637,5.8e-05
2018-09-15 00:00:00,2018-09-15 00:00:00,PRATE,surface,-97.5004,29.7637,6.25e-05
2018-09-15 00:00:00,2018-09-15 00:00:00,PRATE,surface,-96.5629,29.7637,7.34e-05
2018-09-15 00:00:00,2018-09-15 00:00:00,PRATE,surface,-95.6254,29.7637,8.71e-05
2018-09-15 00:00:00,2018-09-15 00:00:00,PRATE,surface,-94.6879,29.7637,8.35e-05
2018-09-15 00:00:00,2018-09-15 00:00:00,PRATE,surface,-93.7504,29.7637,6.69e-05
2018-09-15 00:00:00,2018-09-15 00:00:00,PRATE,surface,-92.8129,29.7637,4.18e-05
2018-09-15 00:00:00,2018-09-15 00:00:00,PRATE,surface,-107.813,30.7085,1.37e-05
2018-09-15 00:00:00,2018-09-15 00:00:00,PRATE,surface,-106.875,30.7085,1.28e-05
2018-09-15 00:00:00,2018-09-15 00:00:00,PRATE,surface,-105.938,30.7085,1.57e-05
2018-09-15 00:00:00,2018-09-15 00:00:00,PRATE,surface,-105,30.7085,1.72e-05
2018-09-15 00:00:00,2018-09-15 00:00:00,PRATE,surface,-104.063,30.7085,1.26e-05
2018-09-15 00:00:00,2018-09-15 00:00:00,PRATE,surface,-103.125,30.7085,7.1e-06
2018-09-15 00:00:00,2018-09-15 00:00:00,PRATE,surface,-102.188,30.7085,5.8e-06
2018-09-15 00:00:00,2018-09-15 00:00:00,PRATE,surface,-101.25,30.7085,1.07e-05
2018-09-15 00:00:00,2018-09-15 00:00:00,PRATE,surface,-100.313,30.7085,2.33e-05
2018-09-15 00:00:00,2018-09-15 00:00:00,PRATE,surface,-99.3754,30.7085,3.63e-05
2018-09-15 00:00:00,2018-09-15 00:00:00,PRATE,surface,-98.4379,30.7085,4.63e-05
2018-09-15 00:00:00,2018-09-15 00:00:00,PRATE,surface,-97.5004,30.7085,5.58e-05
2018-09-15 00:00:00,2018-09-15 00:00:00,PRATE,surface,-96.5629,30.7085,6.93e-05
2018-09-15 00:00:00,2018-09-15 00:00:00,PRATE,surface,-95.6254,30.7085,8.36e-05
2018-09-15 00:00:00,2018-09-15 00:00:00,PRATE,surface,-94.6879,30.7085,8.18e-05
2018-09-15 00:00:00,2018-09-15 00:00:00,PRATE,surface,-93.7504,30.7085,6.06e-05
2018-09-15 00:00:00,2018-09-15 00:00:00,PRATE,surface,-92.8129,30.7085,5.04e-05
2018-09-15 00:00:00,2018-09-15 00:00:00,PRATE,surface,-107.813,31.6534,1.61e-05
2018-09-15 00:00:00,2018-09-15 00:00:00,PRATE,surface,-106.875,31.6534,1.39e-05
2018-09-15 00:00:00,2018-09-15 00:00:00,PRATE,surface,-105.938,31.6534,1.86e-05
2018-09-15 00:00:00,2018-09-15 00:00:00,PRATE,surface,-105,31.6534,2.27e-05
2018-09-15 00:00:00,2018-09-15 00:00:00,PRATE,surface,-104.063,31.6534,1.46e-05
2018-09-15 00:00:00,2018-09-15 00:00:00,PRATE,surface,-103.125,31.6534,7.9e-06
2018-09-15 00:00:00,2018-09-15 00:00:00,PRATE,surface,-102.188,31.6534,6.3e-06
2018-09-15 00:00:00,2018-09-15 00:00:00,PRATE,surface,-101.25,31.6534,1.08e-05
2018-09-15 00:00:00,2018-09-15 00:00:00,PRATE,surface,-100.313,31.6534,2.05e-05
2018-09-15 00:00:00,2018-09-15 00:00:00,PRATE,surface,-99.3754,31.6534,2.95e-05
2018-09-15 00:00:00,2018-09-15 00:00:00,PRATE,surface,-98.4379,31.6534,3.73e-05
2018-09-15 00:00:00,2018-09-15 00:00:00,PRATE,surface,-97.5004,31.6534,5.17e-05
2018-09-15 00:00:00,2018-09-15 00:00:00,PRATE,surface,-96.5629,31.6534,7.07e-05
2018-09-15 00:00:00,2018-09-15 00:00:00,PRATE,surface,-95.6254,31.6534,8.68e-05
2018-09-15 00:00:00,2018-09-15 00:00:00,PRATE,surface,-94.6879,31.6534,9.02e-05
2018-09-15 00:00:00,2018-09-15 00:00:00,PRATE,surface,-93.7504,31.6534,7.26e-05
2018-09-15 00:00:00,2018-09-15 00:00:00,PRATE,surface,-92.8129,31.6534,5.7e-05
2018-09-15 00:00:00,2018-09-15 00:00:00,PRATE,surface,-107.813,32.5983,2.29e-05
2018-09-15 00:00:00,2018-09-15 00:00:00,PRATE,surface,-106.875,32.5983,1.63e-05
2018-09-15 00:00:00,2018-09-15 00:00:00,PRATE,surface,-105.938,32.5983,1.52e-05
2018-09-15 00:00:00,2018-09-15 00:00:00,PRATE,surface,-105,32.5983,1.7e-05
2018-09-15 00:00:00,2018-09-15 00:00:00,PRATE,surface,-104.063,32.5983,1.24e-05
2018-09-15 00:00:00,2018-09-15 00:00:00,PRATE,surface,-103.125,32.5983,1.17e-05
2018-09-15 00:00:00,2018-09-15 00:00:00,PRATE,surface,-102.188,32.5983,1.13e-05
2018-09-15 00:00:00,2018-09-15 00:00:00,PRATE,surface,-101.25,32.5983,1.26e-05
2018-09-15 00:00:00,2018-09-15 00:00:00,PRATE,surface,-100.313,32.5983,1.53e-05
2018-09-15 00:00:00,2018-09-15 00:00:00,PRATE,surface,-99.3754,32.5983,1.7e-05
2018-09-15 00:00:00,2018-09-15 00:00:00,PRATE,surface,-98.4379,32.5983,1.9e-05
2018-09-15 00:00:00,2018-09-15 00:00:00,PRATE,surface,-97.5004,32.5983,3.16e-05
2018-09-15 00:00:00,2018-09-15 00:00:00,PRATE,surface,-96.5629,32.5983,5.77e-05
2018-09-15 00:00:00,2018-09-15 00:00:00,PRATE,surface,-95.6254,32.5983,8.7e-05
2018-09-15 00:00:00,2018-09-15 00:00:00,PRATE,surface,-94.6879,32.5983,0.000102
2018-09-15 00:00:00,2018-09-15 00:00:00,PRATE,surface,-93.7504,32.5983,8.93e-05
2018-09-15 00:00:00,2018-09-15 00:00:00,PRATE,surface,-92.8129,32.5983,6.54e-05
2018-09-15 00:00:00,2018-09-15 00:00:00,PRATE,surface,-107.813,33.5432,3.12e-05
2018-09-15 00:00:00,2018-09-15 00:00:00,PRATE,surface,-106.875,33.5432,2.21e-05
2018-09-15 00:00:00,2018-09-15 00:00:00,PRATE,surface,-105.938,33.5432,1.19e-05
2018-09-15 00:00:00,2018-09-15 00:00:00,PRATE,surface,-105,33.5432,9.7e-06
2018-09-15 00:00:00,2018-09-15 00:00:00,PRATE,surface,-104.063,33.5432,9.4e-06
2018-09-15 00:00:00,2018-09-15 00:00:00,PRATE,surface,-103.125,33.5432,1.47e-05
2018-09-15 00:00:00,2018-09-15 00:00:00,PRATE,surface,-102.188,33.5432,1.95e-05
2018-09-15 00:00:00,2018-09-15 00:00:00,PRATE,surface,-101.25,33.5432,1.83e-05
2018-09-15 00:00:00,2018-09-15 00:00:00,PRATE,surface,-100.313,33.5432,1.52e-05
2018-09-15 00:00:00,2018-09-15 00:00:00,PRATE,surface,-99.3754,33.5432,1.23e-05
2018-09-15 00:00:00,2018-09-15 00:00:00,PRATE,surface,-98.4379,33.5432,1.38e-05
2018-09-15 00:00:00,2018-09-15 00:00:00,PRATE,surface,-97.5004,33.5432,2.57e-05
2018-09-15 00:00:00,2018-09-15 00:00:00,PRATE,surface,-96.5629,33.5432,4.3e-05
2018-09-15 00:00:00,2018-09-15 00:00:00,PRATE,surface,-95.6254,33.5432,6.72e-05
2018-09-15 00:00:00,2018-09-15 00:00:00,PRATE,surface,-94.6879,33.5432,9.53e-05
2018-09-15 00:00:00,2018-09-15 00:00:00,PRATE,surface,-93.7504,33.5432,9.87e-05
2018-09-15 00:00:00,2018-09-15 00:00:00,PRATE,surface,-92.8129,33.5432,8.17e-05
2018-09-15 00:00:00,2018-09-15 00:00:00,PRATE,surface,-107.813,34.4881,2.67e-05
2018-09-15 00:00:00,2018-09-15 00:00:00,PRATE,surface,-106.875,34.4881,2.08e-05
2018-09-15 00:00:00,2018-09-15 00:00:00,PRATE,surface,-105.938,34.4881,1.39e-05
2018-09-15 00:00:00,2018-09-15 00:00:00,PRATE,surface,-105,34.4881,1.01e-05
2018-09-15 00:00:00,2018-09-15 00:00:00,PRATE,surface,-104.063,34.4881,1.18e-05
2018-09-15 00:00:00,2018-09-15 00:00:00,PRATE,surface,-103.125,34.4881,1.46e-05
2018-09-15 00:00:00,2018-09-15 00:00:00,PRATE,surface,-102.188,34.4881,1.87e-05
2018-09-15 00:00:00,2018-09-15 00:00:00,PRATE,surface,-101.25,34.4881,2.1e-05
2018-09-15 00:00:00,2018-09-15 00:00:00,PRATE,surface,-100.313,34.4881,2.26e-05
2018-09-15 00:00:00,2018-09-15 00:00:00,PRATE,surface,-99.3754,34.4881,2.08e-05
2018-09-15 00:00:00,2018-09-15 00:00:00,PRATE,surface,-98.4379,34.4881,2.06e-05
2018-09-15 00:00:00,2018-09-15 00:00:00,PRATE,surface,-97.5004,34.4881,2.47e-05
2018-09-15 00:00:00,2018-09-15 00:00:00,PRATE,surface,-96.5629,34.4881,3.41e-05
2018-09-15 00:00:00,2018-09-15 00:00:00,PRATE,surface,-95.6254,34.4881,5.42e-05
2018-09-15 00:00:00,2018-09-15 00:00:00,PRATE,surface,-94.6879,34.4881,8.37e-05
2018-09-15 00:00:00,2018-09-15 00:00:00,PRATE,surface,-93.7504,34.4881,0.0001019
2018-09-15 00:00:00,2018-09-15 00:00:00,PRATE,surface,-92.8129,34.4881,8.98e-05
2018-09-15 00:00:00,2018-09-15 00:00:00,PRATE,surface,-107.813,35.4329,2.24e-05
2018-09-15 00:00:00,2018-09-15 00:00:00,PRATE,surface,-106.875,35.4329,1.77e-05
2018-09-15 00:00:00,2018-09-15 00:00:00,PRATE,surface,-105.938,35.4329,1.56e-05
2018-09-15 00:00:00,2018-09-15 00:00:00,PRATE,surface,-105,35.4329,1.36e-05
2018-09-15 00:00:00,2018-09-15 00:00:00,PRATE,surface,-104.063,35.4329,1.1e-05
2018-09-15 00:00:00,2018-09-15 00:00:00,PRATE,surface,-103.125,35.4329,1.45e-05
2018-09-15 00:00:00,2018-09-15 00:00:00,PRATE,surface,-102.188,35.4329,1.79e-05
2018-09-15 00:00:00,2018-09-15 00:00:00,PRATE,surface,-101.25,35.4329,2.16e-05
2018-09-15 00:00:00,2018-09-15 00:00:00,PRATE,surface,-100.313,35.4329,2.72e-05
2018-09-15 00:00:00,2018-09-15 00:00:00,PRATE,surface,-99.3754,35.4329,3.47e-05
2018-09-15 00:00:00,2018-09-15 00:00:00,PRATE,surface,-98.4379,35.4329,3.49e-05
2018-09-15 00:00:00,2018-09-15 00:00:00,PRATE,surface,-97.5004,35.4329,3.26e-05
2018-09-15 00:00:00,2018-09-15 00:00:00,PRATE,surface,-96.5629,35.4329,3.31e-05
2018-09-15 00:00:00,2018-09-15 00:00:00,PRATE,surface,-95.6254,35.4329,4.01e-05
2018-09-15 00:00:00,2018-09-15 00:00:00,PRATE,surface,-94.6879,35.4329,6.01e-05
2018-09-15 00:00:00,2018-09-15 00:00:00,PRATE,surface,-93.7504,35.4329,8.41e-05
2018-09-15 00:00:00,2018-09-15 00:00:00,PRATE,surface,-92.8129,35.4329,8.98e-05
2018-09-15 00:00:00,2018-09-15 00:00:00,PRATE,surface,-107.813,36.3778,2.36e-05
2018-09-15 00:00:00,2018-09-15 00:00:00,PRATE,surface,-106.875,36.3778,1.89e-05
2018-09-15 00:00:00,2018-09-15 00:00:00,PRATE,surface,-105.938,36.3778,1.58e-05
2018-09-15 00:00:00,2018-09-15 00:00:00,PRATE,surface,-105,36.3778,1.6e-05
2018-09-15 00:00:00,2018-09-15 00:00:00,PRATE,surface,-104.063,36.3778,1.72e-05
2018-09-15 00:00:00,2018-09-15 00:00:00,PRATE,surface,-103.125,36.3778,1.73e-05
2018-09-15 00:00:00,2018-09-15 00:00:00,PRATE,surface,-102.188,36.3778,1.95e-05
2018-09-15 00:00:00,2018-09-15 00:00:00,PRATE,surface,-101.25,36.3778,2.19e-05
2018-09-15 00:00:00,2018-09-15 00:00:00,PRATE,surface,-100.313,36.3778,2.71e-05
2018-09-15 00:00:00,2018-09-15 00:00:00,PRATE,surface,-99.3754,36.3778,3.76e-05
2018-09-15 00:00:00,2018-09-15 00:00:00,PRATE,surface,-98.4379,36.3778,4.67e-05
2018-09-15 00:00:00,2018-09-15 00:00:00,PRATE,surface,-97.5004,36.3778,4.88e-05
2018-09-15 00:00:00,2018-09-15 00:00:00,PRATE,surface,-96.5629,36.3778,4.55e-05
2018-09-15 00:00:00,2018-09-15 00:00:00,PRATE,surface,-95.6254,36.3778,4.47e-05
2018-09-15 00:00:00,2018-09-15 00:00:00,PRATE,surface,-94.6879,36.3778,5.48e-05
2018-09-15 00:00:00,2018-09-15 00:00:00,PRATE,surface,-93.7504,36.3778,7.23e-05
2018-09-15 00:00:00,2018-09-15 00:00:00,PRATE,surface,-92.8129,36.3778,8.23e-05
