2014-07-13 00:00:00,2014-07-13 00:00:00,TMP,surface,-107.813,25.0393,291.943
2014-07-13 00:00:00,2014-07-13 00:00:00,TMP,surface,-106.875,25.0393,285.381
2014-07-13 00:00:00,2014-07-13 00:00:00,TMP,surface,-105.938,25.0393,280.437
2014-07-13 00:00:00,2014-07-13 00:00:00,TMP,surface,-105,25.0393,279.18
2014-07-13 00:00:00,2014-07-13 00:00:00,TMP,surface,-104.063,25.0393,282.114
2014-07-13 00:00:00,2014-07-13 00:00:00,TMP,surface,-103.125,25.0393,283.855
2014-07-13 00:00:00,2014-07-13 00:00:00,TMP,surface,-102.188,25.0393,283.232
2014-07-13 00:00:00,2014-07-13 00:00:00,TMP,surface,-101.25,25.0393,281.18
2014-07-13 00:00:00,2014-07-13 00:00:00,TMP,surface,-100.313,25.0393,281.068
2014-07-13 00:00:00,2014-07-13 00:00:00,TMP,surface,-99.3754,25.0393,283.435
2014-07-13 00:00:00,2014-07-13 00:00:00,TMP,surface,-98.4379,25.0393,286.672
2014-07-13 00:00:00,2014-07-13 00:00:00,TMP,surface,-97.5004,25.0393,294.919
2014-07-13 00:00:00,2014-07-13 00:00:00,TMP,surface,-96.5629,25.0393,295.205
2014-07-13 00:00:00,2014-07-13 00:00:00,TMP,surface,-95.6254,25.0393,294.928
2014-07-13 00:00:00,2014-07-13 00:00:00,TMP,surface,-94.6879,25.0393,295.053
2014-07-13 00:00:00,2014-07-13 00:00:00,TMP,surface,-93.7504,25.0393,295.138
2014-07-13 00:00:00,2014-07-13 00:00:00,TMP,surface,-92.8129,25.0393,295.203
2014-07-13 00:00:00,2014-07-13 00:00:00,TMP,surface,-107.813,25.9842,286.099
2014-07-13 00:00:00,2014-07-13 00:00:00,TMP,surface,-106.875,25.9842,280.89
2014-07-13 00:00:00,2014-07-13 00:00:00,TMP,surface,-105.938,25.9842,278.658
2014-07-13 00:00:00,2014-07-13 00:00:00,TMP,surface,-105,25.9842,280.21
2014-07-13 00:00:00,2014-07-13 00:00:00,TMP,surface,-104.063,25.9842,282.826
2014-07-13 00:00:00,2014-07-13 00:00:00,TMP,surface,-103.125,25.9842,283.639
2014-07-13 00:00:00,2014-07-13 00:00:00,TMP,surface,-102.188,25.9842,282.483
2014-07-13 00:00:00,2014-07-13 00:00:00,TMP,surface,-101.25,25.9842,281.319
2014-07-13 00:00:00,2014-07-13 00:00:00,TMP,surface,-100.313,25.9842,281.511
2014-07-13 00:00:00,2014-07-13 00:00:00,TMP,surface,-99.3754,25.9842,283.828
2014-07-13 00:00:00,2014-07-13 00:00:00,TMP,surface,-98.4379,25.9842,286.047
2014-07-13 00:00:00,2014-07-13 00:00:00,TMP,surface,-97.5004,25.9842,287.973
2014-07-13 00:00:00,2014-07-13 00:00:00,TMP,surface,-96.5629,25.9842,294.608
2014-07-13 00:00:00,2014-07-13 00:00:00,TMP,surface,-95.6254,25.9842,294.516
2014-07-13 00:00:00,2014-07-13 00:00:00,TMP,surface,-94.6879,25.9842,294.527
2014-07-13 00:00:00,2014-07-13 00:00:00,TMP,surface,-93.7504,25.9842,294.684
2014-07-13 00:00:00,2014-07-13 00:00:00,TMP,surface,-92.8129,25.9842,294.863
2014-07-13 00:00:00,2014-07-13 00:00:00,TMP,surface,-107.813,26.929,281.304
2014-07-13 00:00:00,2014-07-13 00:00:00,TMP,surface,-106.875,26.929,277.946
2014-07-13 00:00:00,2014-07-13 00:00:00,TMP,surface,-105.938,26.929,279.099
2014-07-13 00:00:00,2014-07-13 00:00:00,TMP,surface,-105,26.929,281.517
2014-07-13 00:00:00,2014-07-13 00:00:00,TMP,surface,-104.063,26.929,282.135
2014-07-13 00:00:00,2014-07-13 00:00:00,TMP,surface,-103.125,26.929,281.085
2014-07-13 00:00:00,2014-07-13 00:00:00,TMP,surface,-102.188,26.929,280.508
2014-07-13 00:00:00,2014-07-13 00:00:00,TMP,surface,-101.25,26.929,281.096
2014-07-13 00:00:00,2014-07-13 00:00:00,TMP,surface,-100.313,26.929,282.191
2014-07-13 00:00:00,2014-07-13 00:00:00,TMP,surface,-99.3754,26.929,283.615
2014-07-13 00:00:00,2014-07-13 00:00:00,TMP,surface,-98.4379,26.929,284.693
2014-07-13 00:00:00,2014-07-13 00:00:00,TMP,surface,-97.5004,26.929,293.015
2014-07-13 00:00:00,2014-07-13 00:00:00,TMP,surface,-96.5629,26.929,293.989
2014-07-13 00:00:00,2014-07-13 00:00:00,TMP,surface,-95.6254,26.929,294.136
2014-07-13 00:00:00,2014-07-13 00:00:00,TMP,surface,-94.6879,26.929,294.165
2014-07-13 00:00:00,2014-07-13 00:00:00,TMP,surface,-93.7504,26.929,294.197
2014-07-13 00:00:00,2014-07-13 00:00:00,TMP,surface,-92.8129,26.929,294.276
2014-07-13 00:00:00,2014-07-13 00:00:00,TMP,surface,-107.813,27.8739,278.348
2014-07-13 00:00:00,2014-07-13 00:00:00,TMP,surface,-106.875,27.8739,277.168
2014-07-13 00:00:00,2014-07-13 00:00:00,TMP,surface,-105.938,27.8739,279.587
2014-07-13 00:00:00,2014-07-13 00:00:00,TMP,surface,-105,27.8739,281.52
2014-07-13 00:00:00,2014-07-13 00:00:00,TMP,surface,-104.063,27.8739,280.84
2014-07-13 00:00:00,2014-07-13 00:00:00,TMP,surface,-103.125,27.8739,279.381
2014-07-13 00:00:00,2014-07-13 00:00:00,TMP,surface,-102.188,27.8739,279.431
2014-07-13 00:00:00,2014-07-13 00:00:00,TMP,surface,-101.25,27.8739,280.819
2014-07-13 00:00:00,2014-07-13 00:00:00,TMP,surface,-100.313,27.8739,282.098
2014-07-13 00:00:00,2014-07-13 00:00:00,TMP,surface,-99.3754,27.8739,282.661
2014-07-13 00:00:00,2014-07-13 00:00:00,TMP,surface,-98.4379,27.8739,283.245
2014-07-13 00:00:00,2014-07-13 00:00:00,TMP,surface,-97.5004,27.8739,289.004
2014-07-13 00:00:00,2014-07-13 00:00:00,TMP,surface,-96.5629,27.8739,294.583
2014-07-13 00:00:00,2014-07-13 00:00:00,TMP,surface,-95.6254,27.8739,294.572
2014-07-13 00:00:00,2014-07-13 00:00:00,TMP,surface,-94.6879,27.8739,294.018
2014-07-13 00:00:00,2014-07-13 00:00:00,TMP,surface,-93.7504,27.8739,293.733
2014-07-13 00:00:00,2014-07-13 00:00:00,TMP,surface,-92.8129,27.8739,293.74
2014-07-13 00:00:00,2014-07-13 00:00:00,TMP,surface,-107.813,28.8188,276.973
2014-07-13 00:00:00,2014-07-13 00:00:00,TMP,surface,-106.875,28.8188,277.098
2014-07-13 00:00:00,2014-07-13 00:00:00,TMP,surface,-105.938,28.8188,279.357
2014-07-13 00:00:00,2014-07-13 00:00:00,TMP,surface,-105,28.8188,280.272
2014-07-13 00:00:00,2014-07-13 00:00:00,TMP,surface,-104.063,28.8188,279.053
2014-07-13 00:00:00,2014-07-13 00:00:00,TMP,surface,-103.125,28.8188,278.186
2014-07-13 00:00:00,2014-07-13 00:00:00,TMP,surface,-102.188,28.8188,278.69
2014-07-13 00:00:00,2014-07-13 00:00:00,TMP,surface,-101.25,28.8188,280.155
2014-07-13 00:00:00,2014-07-13 00:00:00,TMP,surface,-100.313,28.8188,280.847
2014-07-13 00:00:00,2014-07-13 00:00:00,TMP,surface,-99.3754,28.8188,280.848
2014-07-13 00:00:00,2014-07-13 00:00:00,TMP,surface,-98.4379,28.8188,281.085
2014-07-13 00:00:00,2014-07-13 00:00:00,TMP,surface,-97.5004,28.8188,281.923
2014-07-13 00:00:00,2014-07-13 00:00:00,TMP,surface,-96.5629,28.8188,283.053
2014-07-13 00:00:00,2014-07-13 00:00:00,TMP,surface,-95.6254,28.8188,287.832
2014-07-13 00:00:00,2014-07-13 00:00:00,TMP,surface,-94.6879,28.8188,294.547
2014-07-13 00:00:00,2014-07-13 00:00:00,TMP,surface,-93.7504,28.8188,294.28
2014-07-13 00:00:00,2014-07-13 00:00:00,TMP,surface,-92.8129,28.8188,294.264
2014-07-13 00:00:00,2014-07-13 00:00:00,TMP,surface,-107.813,29.7637,277.343
2014-07-13 00:00:00,2014-07-13 00:00:00,TMP,surface,-106.875,29.7637,277.533
2014-07-13 00:00:00,2014-07-13 00:00:00,TMP,surface,-105.938,29.7637,278.512
2014-07-13 00:00:00,2014-07-13 00:00:00,TMP,surface,-105,29.7637,277.948
2014-07-13 00:00:00,2014-07-13 00:00:00,TMP,surface,-104.063,29.7637,277.52
2014-07-13 00:00:00,2014-07-13 00:00:00,TMP,surface,-103.125,29.7637,277.703
2014-07-13 00:00:00,2014-07-13 00:00:00,TMP,surface,-102.188,29.7637,278.57
2014-07-13 00:00:00,2014-07-13 00:00:00,TMP,surface,-101.25,29.7637,279.184
2014-07-13 00:00:00,2014-07-13 00:00:00,TMP,surface,-100.313,29.7637,279.043
2014-07-13 00:00:00,2014-07-13 00:00:00,TMP,surface,-99.3754,29.7637,278.884
2014-07-13 00:00:00,2014-07-13 00:00:00,TMP,surface,-98.4379,29.7637,279.213
2014-07-13 00:00:00,2014-07-13 00:00:00,TMP,surface,-97.5004,29.7637,279.792
2014-07-13 00:00:00,2014-07-13 00:00:00,TMP,surface,-96.5629,29.7637,280.531
2014-07-13 00:00:00,2014-07-13 00:00:00,TMP,surface,-95.6254,29.7637,281.579
2014-07-13 00:00:00,2014-07-13 00:00:00,TMP,surface,-94.6879,29.7637,286.315
2014-07-13 00:00:00,2014-07-13 00:00:00,TMP,surface,-93.7504,29.7637,291.976
2014-07-13 00:00:00,2014-07-13 00:00:00,TMP,surface,-92.8129,29.7637,282.994
2014-07-13 00:00:00,2014-07-13 00:00:00,TMP,surface,-107.813,30.7085,278.229
2014-07-13 00:00:00,2014-07-13 00:00:00,TMP,surface,-106.875,30.7085,278.234
2014-07-13 00:00:00,2014-07-13 00:00:00,TMP,surface,-105.938,30.7085,277.573
2014-07-13 00:00:00,2014-07-13 00:00:00,TMP,surface,-105,30.7085,276.621
2014-07-13 00:00:00,2014-07-13 00:00:00,TMP,surface,-104.063,30.7085,276.365
2014-07-13 00:00:00,2014-07-13 00:00:00,TMP,surface,-103.125,30.7085,277.155
2014-07-13 00:00:00,2014-07-13 00:00:00,TMP,surface,-102.188,30.7085,277.957
2014-07-13 00:00:00,2014-07-13 00:00:00,TMP,surface,-101.25,30.7085,278.079
2014-07-13 00:00:00,2014-07-13 00:00:00,TMP,surface,-100.313,30.7085,277.875
2014-07-13 00:00:00,2014-07-13 00:00:00,TMP,surface,-99.3754,30.7085,277.871
2014-07-13 00:00:00,2014-07-13 00:00:00,TMP,surface,-98.4379,30.7085,278.258
2014-07-13 00:00:00,2014-07-13 00:00:00,TMP,surface,-97.5004,30.7085,278.762
2014-07-13 00:00:00,2014-07-13 00:00:00,TMP,surface,-96.5629,30.7085,279.162
2014-07-13 00:00:00,2014-07-13 00:00:00,TMP,surface,-95.6254,30.7085,279.587
2014-07-13 00:00:00,2014-07-13 00:00:00,TMP,surface,-94.6879,30.7085,280.045
2014-07-13 00:00:00,2014-07-13 00:00:00,TMP,surface,-93.7504,30.7085,280.139
2014-07-13 00:00:00,2014-07-13 00:00:00,TMP,surface,-92.8129,30.7085,279.762
2014-07-13 00:00:00,2014-07-13 00:00:00,TMP,surface,-107.813,31.6534,277.722
2014-07-13 00:00:00,2014-07-13 00:00:00,TMP,surface,-106.875,31.6534,277.676
2014-07-13 00:00:00,2014-07-13 00:00:00,TMP,surface,-105.938,31.6534,276.531
2014-07-13 00:00:00,2014-07-13 00:00:00,TMP,surface,-105,31.6534,276.13
2014-07-13 00:00:00,2014-07-13 00:00:00,TMP,surface,-104.063,31.6534,276.279
2014-07-13 00:00:00,2014-07-13 00:00:00,TMP,surface,-103.125,31.6534,276.914
2014-07-13 00:00:00,2014-07-13 00:00:00,TMP,surface,-102.188,31.6534,277.29
2014-07-13 00:00:00,2014-07-13 00:00:00,TMP,surface,-101.25,31.6534,277.298
2014-07-13 00:00:00,2014-07-13 00:00:00,TMP,surface,-100.313,31.6534,277.307
2014-07-13 00:00:00,2014-07-13 00:00:00,TMP,surface,-99.3754,31.6534,277.405
2014-07-13 00:00:00,2014-07-13 00:00:00,TMP,surface,-98.4379,31.6534,277.691
2014-07-13 00:00:00,2014-07-13 00:00:00,TMP,surface,-97.5004,31.6534,278.077
2014-07-13 00:00:00,2014-07-13 00:00:00,TMP,surface,-96.5629,31.6534,278.424
2014-07-13 00:00:00,2014-07-13 00:00:00,TMP,surface,-95.6254,31.6534,278.618
2014-07-13 00:00:00,2014-07-13 00:00:00,TMP,surface,-94.6879,31.6534,278.564
2014-07-13 00:00:00,2014-07-13 00:00:00,TMP,surface,-93.7504,31.6534,278.402
2014-07-13 00:00:00,2014-07-13 00:00:00,TMP,surface,-92.8129,31.6534,278.335
2014-07-13 00:00:00,2014-07-13 00:00:00,TMP,surface,-107.813,32.5983,275.448
2014-07-13 00:00:00,2014-07-13 00:00:00,TMP,surface,-106.875,32.5983,275.276
2014-07-13 00:00:00,2014-07-13 00:00:00,TMP,surface,-105.938,32.5983,275.055
2014-07-13 00:00:00,2014-07-13 00:00:00,TMP,surface,-105,32.5983,275.128
2014-07-13 00:00:00,2014-07-13 00:00:00,TMP,surface,-104.063,32.5983,275.928
2014-07-13 00:00:00,2014-07-13 00:00:00,TMP,surface,-103.125,32.5983,276.442
2014-07-13 00:00:00,2014-07-13 00:00:00,TMP,surface,-102.188,32.5983,276.498
2014-07-13 00:00:00,2014-07-13 00:00:00,TMP,surface,-101.25,32.5983,276.68
2014-07-13 00:00:00,2014-07-13 00:00:00,TMP,surface,-100.313,32.5983,277.012
2014-07-13 00:00:00,2014-07-13 00:00:00,TMP,surface,-99.3754,32.5983,277.236
2014-07-13 00:00:00,2014-07-13 00:00:00,TMP,surface,-98.4379,32.5983,277.288
2014-07-13 00:00:00,2014-07-13 00:00:00,TMP,surface,-97.5004,32.5983,277.363
2014-07-13 00:00:00,2014-07-13 00:00:00,TMP,surface,-96.5629,32.5983,277.549
2014-07-13 00:00:00,2014-07-13 00:00:00,TMP,surface,-95.6254,32.5983,277.693
2014-07-13 00:00:00,2014-07-13 00:00:00,TMP,surface,-94.6879,32.5983,277.685
2014-07-13 00:00:00,2014-07-13 00:00:00,TMP,surface,-93.7504,32.5983,277.655
2014-07-13 00:00:00,2014-07-13 00:00:00,TMP,surface,-92.8129,32.5983,277.807
2014-07-13 00:00:00,2014-07-13 00:00:00,TMP,surface,-107.813,33.5432,272.698
2014-07-13 00:00:00,2014-07-13 00:00:00,TMP,surface,-106.875,33.5432,273.184
2014-07-13 00:00:00,2014-07-13 00:00:00,TMP,surface,-105.938,33.5432,273.551
2014-07-13 00:00:00,2014-07-13 00:00:00,TMP,surface,-105,33.5432,274.195
2014-07-13 00:00:00,2014-07-13 00:00:00,TMP,surface,-104.063,33.5432,275.155
2014-07-13 00:00:00,2014-07-13 00:00:00,TMP,surface,-103.125,33.5432,275.531
2014-07-13 00:00:00,2014-07-13 00:00:00,TMP,surface,-102.188,33.5432,275.392
2014-07-13 00:00:00,2014-07-13 00:00:00,TMP,surface,-101.25,33.5432,275.642
2014-07-13 00:00:00,2014-07-13 00:00:00,TMP,surface,-100.313,33.5432,276.128
2014-07-13 00:00:00,2014-07-13 00:00:00,TMP,surface,-99.3754,33.5432,276.435
2014-07-13 00:00:00,2014-07-13 00:00:00,TMP,surface,-98.4379,33.5432,276.41
2014-07-13 00:00:00,2014-07-13 00:00:00,TMP,surface,-97.5004,33.5432,276.264
2014-07-13 00:00:00,2014-07-13 00:00:00,TMP,surface,-96.5629,33.5432,276.378
2014-07-13 00:00:00,2014-07-13 00:00:00,TMP,surface,-95.6254,33.5432,276.658
2014-07-13 00:00:00,2014-07-13 00:00:00,TMP,surface,-94.6879,33.5432,276.716
2014-07-13 00:00:00,2014-07-13 00:00:00,TMP,surface,-93.7504,33.5432,276.73
2014-07-13 00:00:00,2014-07-13 00:00:00,TMP,surface,-92.8129,33.5432,276.951
2014-07-13 00:00:00,2014-07-13 00:00:00,TMP,surface,-107.813,34.4881,271.679
2014-07-13 00:00:00,2014-07-13 00:00:00,TMP,surface,-106.875,34.4881,272.348
2014-07-13 00:00:00,2014-07-13 00:00:00,TMP,surface,-105.938,34.4881,272.789
2014-07-13 00:00:00,2014-07-13 00:00:00,TMP,surface,-105,34.4881,273.447
2014-07-13 00:00:00,2014-07-13 00:00:00,TMP,surface,-104.063,34.4881,273.866
2014-07-13 00:00:00,2014-07-13 00:00:00,TMP,surface,-103.125,34.4881,273.839
2014-07-13 00:00:00,2014-07-13 00:00:00,TMP,surface,-102.188,34.4881,273.908
2014-07-13 00:00:00,2014-07-13 00:00:00,TMP,surface,-101.25,34.4881,274.191
2014-07-13 00:00:00,2014-07-13 00:00:00,TMP,surface,-100.313,34.4881,274.695
2014-07-13 00:00:00,2014-07-13 00:00:00,TMP,surface,-99.3754,34.4881,275.055
2014-07-13 00:00:00,2014-07-13 00:00:00,TMP,surface,-98.4379,34.4881,275.106
2014-07-13 00:00:00,2014-07-13 00:00:00,TMP,surface,-97.5004,34.4881,275.093
2014-07-13 00:00:00,2014-07-13 00:00:00,TMP,surface,-96.5629,34.4881,275.258
2014-07-13 00:00:00,2014-07-13 00:00:00,TMP,surface,-95.6254,34.4881,275.415
2014-07-13 00:00:00,2014-07-13 00:00:00,TMP,surface,-94.6879,34.4881,275.363
2014-07-13 00:00:00,2014-07-13 00:00:00,TMP,surface,-93.7504,34.4881,275.384
2014-07-13 00:00:00,2014-07-13 00:00:00,TMP,surface,-92.8129,34.4881,275.687
2014-07-13 00:00:00,2014-07-13 00:00:00,TMP,surface,-107.813,35.4329,271.648
2014-07-13 00:00:00,2014-07-13 00:00:00,TMP,surface,-106.875,35.4329,271.591
2014-07-13 00:00:00,2014-07-13 00:00:00,TMP,surface,-105.938,35.4329,271.498
2014-07-13 00:00:00,2014-07-13 00:00:00,TMP,surface,-105,35.4329,271.74
2014-07-13 00:00:00,2014-07-13 00:00:00,TMP,surface,-104.063,35.4329,272.901
2014-07-13 00:00:00,2014-07-13 00:00:00,TMP,surface,-103.125,35.4329,273.247
2014-07-13 00:00:00,2014-07-13 00:00:00,TMP,surface,-102.188,35.4329,272.671
2014-07-13 00:00:00,2014-07-13 00:00:00,TMP,surface,-101.25,35.4329,272.362
2014-07-13 00:00:00,2014-07-13 00:00:00,TMP,surface,-100.313,35.4329,272.853
2014-07-13 00:00:00,2014-07-13 00:00:00,TMP,surface,-99.3754,35.4329,273.37
2014-07-13 00:00:00,2014-07-13 00:00:00,TMP,surface,-98.4379,35.4329,273.623
2014-07-13 00:00:00,2014-07-13 00:00:00,TMP,surface,-97.5004,35.4329,273.927
2014-07-13 00:00:00,2014-07-13 00:00:00,TMP,surface,-96.5629,35.4329,274.296
2014-07-13 00:00:00,2014-07-13 00:00:00,TMP,surface,-95.6254,35.4329,274.456
2014-07-13 00:00:00,2014-07-13 00:00:00,TMP,surface,-94.6879,35.4329,274.323
2014-07-13 00:00:00,2014-07-13 00:00:00,TMP,surface,-93.7504,35.4329,274.088
2014-07-13 00:00:00,2014-07-13 00:00:00,TMP,surface,-92.8129,35.4329,274.165
2014-07-13 00:00:00,2014-07-13 00:00:00,TMP,surface,-107.813,36.3778,271.053
2014-07-13 00:00:00,2014-07-13 00:00:00,TMP,surface,-106.875,36.3778,269.365
2014-07-13 00:00:00,2014-07-13 00:00:00,TMP,surface,-105.938,36.3778,269.117
2014-07-13 00:00:00,2014-07-13 00:00:00,TMP,surface,-105,36.3778,269.799
2014-07-13 00:00:00,2014-07-13 00:00:00,TMP,surface,-104.063,36.3778,270.936
2014-07-13 00:00:00,2014-07-13 00:00:00,TMP,surface,-103.125,36.3778,271.272
2014-07-13 00:00:00,2014-07-13 00:00:00,TMP,surface,-102.188,36.3778,270.987
2014-07-13 00:00:00,2014-07-13 00:00:00,TMP,surface,-101.25,36.3778,270.965
2014-07-13 00:00:00,2014-07-13 00:00:00,TMP,surface,-100.313,36.3778,271.584
2014-07-13 00:00:00,2014-07-13 00:00:00,TMP,surface,-99.3754,36.3778,272.146
2014-07-13 00:00:00,2014-07-13 00:00:00,TMP,surface,-98.4379,36.3778,272.135
2014-07-13 00:00:00,2014-07-13 00:00:00,TMP,surface,-97.5004,36.3778,272.276
2014-07-13 00:00:00,2014-07-13 00:00:00,TMP,surface,-96.5629,36.3778,272.759
2014-07-13 00:00:00,2014-07-13 00:00:00,TMP,surface,-95.6254,36.3778,272.978
2014-07-13 00:00:00,2014-07-13 00:00:00,TMP,surface,-94.6879,36.3778,272.799
2014-07-13 00:00:00,2014-07-13 00:00:00,TMP,surface,-93.7504,36.3778,272.516
2014-07-13 00:00:00,2014-07-13 00:00:00,TMP,surface,-92.8129,36.3778,272.498
2014-07-13 00:00:00,2014-07-13 00:00:00,PRATE,surface,-107.813,25.0393,3.34e-05
2014-07-13 00:00:00,2014-07-13 00:00:00,PRATE,surface,-106.875,25.0393,5.97e-05
2014-07-13 00:00:00,2014-07-13 00:00:00,PRATE,surface,-105.938,25.0393,5.34e-05
2014-07-13 00:00:00,2014-07-13 00:00:00,PRATE,surface,-105,25.0393,4.11e-05
2014-07-13 00:00:00,2014-07-13 00:00:00,PRATE,surface,-104.063,25.0393,1.6e-05
2014-07-13 00:00:00,2014-07-13 00:00:00,PRATE,surface,-103.125,25.0393,7.9e-06
2014-07-13 00:00:00,2014-07-13 00:00:00,PRATE,surface,-102.188,25.0393,1.44e-05
2014-07-13 00:00:00,2014-07-13 00:00:00,PRATE,surface,-101.25,25.0393,3.79e-05
2014-07-13 00:00:00,2014-07-13 00:00:00,PRATE,surface,-100.313,25.0393,5.66e-05
2014-07-13 00:00:00,2014-07-13 00:00:00,PRATE,surface,-99.3754,25.0393,3.93e-05
2014-07-13 00:00:00,2014-07-13 00:00:00,PRATE,surface,-98.4379,25.0393,2.63e-05
2014-07-13 00:00:00,2014-07-13 00:00:00,PRATE,surface,-97.5004,25.0393,4.25e-05
2014-07-13 00:00:00,2014-07-13 00:00:00,PRATE,surface,-96.5629,25.0393,6.49e-05
2014-07-13 00:00:00,2014-07-13 00:00:00,PRATE,surface,-95.6254,25.0393,6.81e-05
2014-07-13 00:00:00,2014-07-13 00:00:00,PRATE,surface,-94.6879,25.0393,7.73e-05
2014-07-13 00:00:00,2014-07-13 00:00:00,PRATE,surface,-93.7504,25.0393,5.86e-05
2014-07-13 00:00:00,2014-07-13 00:00:00,PRATE,surface,-92.8129,25.0393,3.94e-05
2014-07-13 00:00:00,2014-07-13 00:00:00,PRATE,surface,-107.813,25.9842,3.88e-05
2014-07-13 00:00:00,2014-07-13 00:00:00,PRATE,surface,-106.875,25.9842,5.02e-05
2014-07-13 00:00:00,2014-07-13 00:00:00,PRATE,surface,-105.938,25.9842,3.95e-05
2014-07-13 00:00:00,2014-07-13 00:00:00,PRATE,surface,-105,25.9842,2.43e-05
2014-07-13 00:00:00,2014-07-13 00:00:00,PRATE,surface,-104.063,25.9842,1.11e-05
2014-07-13 00:00:00,2014-07-13 00:00:00,PRATE,surface,-103.125,25.9842,6.7e-06
2014-07-13 00:00:00,2014-07-13 00:00:00,PRATE,surface,-102.188,25.9842,1.55e-05
2014-07-13 00:00:00,2014-07-13 00:00:00,PRATE,surface,-101.25,25.9842,3.37e-05
2014-07-13 00:00:00,2014-07-13 00:00:00,PRATE,surface,-100.313,25.9842,4.55e-05
2014-07-13 00:00:00,2014-07-13 00:00:00,PRATE,surface,-99.3754,25.9842,3.74e-05
2014-07-13 00:00:00,2014-07-13 00:00:00,PRATE,surface,-98.4379,25.9842,3.35e-05
2014-07-13 00:00:00,2014-07-13 00:00:00,PRATE,surface,-97.5004,25.9842,4.66e-05
2014-07-13 00:00:00,2014-07-13 00:00:00,PRATE,surface,-96.5629,25.9842,6.94e-05
2014-07-13 00:00:00,2014-07-13 00:00:00,PRATE,surface,-95.6254,25.9842,7.27e-05
2014-07-13 00:00:00,2014-07-13 00:00:00,PRATE,surface,-94.6879,25.9842,8.96e-05
2014-07-13 00:00:00,2014-07-13 00:00:00,PRATE,surface,-93.7504,25.9842,8.7e-05
2014-07-13 00:00:00,2014-07-13 00:00:00,PRATE,surface,-92.8129,25.9842,6.83e-05
2014-07-13 00:00:00,2014-07-13 00:00:00,PRATE,surface,-107.813,26.929,4.03e-05
2014-07-13 00:00:00,2014-07-13 00:00:00,PRATE,surface,-106.875,26.929,3.67e-05
2014-07-13 00:00:00,2014-07-13 00:00:00,PRATE,surface,-105.938,26.929,2.53e-05
2014-07-13 00:00:00,2014-07-13 00:00:00,PRATE,surface,-105,26.929,1.33e-05
2014-07-13 00:00:00,2014-07-13 00:00:00,PRATE,surface,-104.063,26.929,1.22e-05
2014-07-13 00:00:00,2014-07-13 00:00:00,PRATE,surface,-103.125,26.929,1.66e-05
2014-07-13 00:00:00,2014-07-13 00:00:00,PRATE,surface,-102.188,26.929,2.48e-05
2014-07-13 00:00:00,2014-07-13 00:00:00,PRATE,surface,-101.25,26.929,3.47e-05
2014-07-13 00:00:00,2014-07-13 00:00:00,PRATE,surface,-100.313,26.929,3.55e-05
2014-07-13 00:00:00,2014-07-13 00:00:00,PRATE,surface,-99.3754,26.929,3.16e-05
2014-07-13 00:00:00,2014-07-13 00:00:00,PRATE,surface,-98.4379,26.929,4.16e-05
2014-07-13 00:00:00,2014-07-13 00:00:00,PRATE,surface,-97.5004,26.929,6.81e-05
2014-07-13 00:00:00,2014-07-13 00:00:00,PRATE,surface,-96.5629,26.929,8.35e-05
2014-07-13 00:00:00,2014-07-13 00:00:00,PRATE,surface,-95.6254,26.929,6.84e-05
2014-07-13 00:00:00,2014-07-13 00:00:00,PRATE,surface,-94.6879,26.929,8.18e-05
2014-07-13 00:00:00,2014-07-13 00:00:00,PRATE,surface,-93.7504,26.929,9.49e-05
2014-07-13 00:00:00,2014-07-13 00:00:00,PRATE,surface,-92.8129,26.929,8.74e-05
2014-07-13 00:00:00,2014-07-13 00:00:00,PRATE,surface,-107.813,27.8739,3.5e-05
2014-07-13 00:00:00,2014-07-13 00:00:00,PRATE,surface,-106.875,27.8739,2.76e-05
2014-07-13 00:00:00,2014-07-13 00:00:00,PRATE,surface,-105.938,27.8739,1.69e-05
2014-07-13 00:00:00,2014-07-13 00:00:00,PRATE,surface,-105,27.8739,7.8e-06
2014-07-13 00:00:00,2014-07-13 00:00:00,PRATE,surface,-104.063,27.8739,1.42e-05
2014-07-13 00:00:00,2014-07-13 00:00:00,PRATE,surface,-103.125,27.8739,2.54e-05
2014-07-13 00:00:00,2014-07-13 00:00:00,PRATE,surface,-102.188,27.8739,2.95e-05
2014-07-13 00:00:00,2014-07-13 00:00:00,PRATE,surface,-101.25,27.8739,2.74e-05
2014-07-13 00:00:00,2014-07-13 00:00:00,PRATE,surface,-100.313,27.8739,2.59e-05
2014-07-13 00:00:00,2014-07-13 00:00:00,PRATE,surface,-99.3754,27.8739,3.01e-05
2014-07-13 00:00:00,2014-07-13 00:00:00,PRATE,surface,-98.4379,27.8739,4.29e-05
2014-07-13 00:00:00,2014-07-13 00:00:00,PRATE,surface,-97.5004,27.8739,5.87e-05
2014-07-13 00:00:00,2014-07-13 00:00:00,PRATE,surface,-96.5629,27.8739,6.68e-05
2014-07-13 00:00:00,2014-07-13 00:00:00,PRATE,surface,-95.6254,27.8739,6.6e-05
2014-07-13 00:00:00,2014-07-13 00:00:00,PRATE,surface,-94.6879,27.8739,7.13e-05
2014-07-13 00:00:00,2014-07-13 00:00:00,PRATE,surface,-93.7504,27.8739,8.64e-05
2014-07-13 00:00:00,2014-07-13 00:00:00,PRATE,surface,-92.8129,27.8739,8.54e-05
2014-07-13 00:00:00,2014-07-13 00:00:00,PRATE,surface,-107.813,28.8188,2.82e-05
2014-07-13 00:00:00,2014-07-13 00:00:00,PRATE,surface,-106.875,28.8188,2.32e-05
2014-07-13 00:00:00,2014-07-13 00:00:00,PRATE,surface,-105.938,28.8188,1.21e-05
2014-07-13 00:00:00,2014-07-13 00:00:00,PRATE,surface,-105,28.8188,9.1e-06
2014-07-13 00:00:00,2014-07-13 00:00:00,PRATE,surface,-104.063,28.8188,1.38e-05
2014-07-13 00:00:00,2014-07-13 00:00:00,PRATE,surface,-103.125,28.8188,2.26e-05
2014-07-13 00:00:00,2014-07-13 00:00:00,PRATE,surface,-102.188,28.8188,2.62e-05
2014-07-13 00:00:00,2014-07-13 00:00:00,PRATE,surface,-101.25,28.8188,2.64e-05
2014-07-13 00:00:00,2014-07-13 00:00:00,PRATE,surface,-100.313,28.8188,2.96e-05
2014-07-13 00:00:00,2014-07-13 00:00:00,PRATE,surface,-99.3754,28.8188,4.05e-05
2014-07-13 00:00:00,2014-07-13 00:00:00,PRATE,surface,-98.4379,28.8188,4.72e-05
2014-07-13 00:00:00,2014-07-13 00:00:00,PRATE,surface,-97.5004,28.8188,5e-05
2014-07-13 00:00:00,2014-07-13 00:00:00,PRATE,surface,-96.5629,28.8188,5.95e-05
2014-07-13 00:00:00,2014-07-13 00:00:00,PRATE,surface,-95.6254,28.8188,7.84e-05
2014-07-13 00:00:00,2014-07-13 00:00:00,PRATE,surface,-94.6879,28.8188,9.4e-05
2014-07-13 00:00:00,2014-07-13 00:00:00,PRATE,surface,-93.7504,28.8188,9.3e-05
2014-07-13 00:00:00,2014-07-13 00:00:00,PRATE,surface,-92.8129,28.8188,8.32e-05
2014-07-13 00:00:00,2014-07-13 00:00:00,PRATE,surface,-107.813,29.7637,2.43e-05
2014-07-13 00:00:00,2014-07-13 00:00:00,PRATE,surface,-106.875,29.7637,2.13e-05
2014-07-13 00:00:00,2014-07-13 00:00:00,PRATE,surface,-105.938,29.7637,1.72e-05
2014-07-13 00:00:00,2014-07-13 00:00:00,PRATE,surface,-105,29.7637,1.65e-05
2014-07-13 00:00:00,2014-07-13 00:00:00,PRATE,surface,-104.063,29.7637,1.82e-05
2014-07-13 00:00:00,2014-07-13 00:00:00,PRATE,surface,-103.125,29.7637,2.15e-05
2014-07-13 00:00:00,2014-07-13 00:00:00,PRATE,surface,-102.188,29.7637,2.48e-05
2014-07-13 00:00:00,2014-07-13 00:00:00,PRATE,surface,-101.25,29.7637,3e-05
2014-07-13 00:00:00,2014-07-13 00:00:00,PRATE,surface,-100.313,29.7637,4e-05
2014-07-13 00:00:00,2014-07-13 00:00:00,PRATE,surface,-99.3754,29.7637,5.43e-05
2014-07-13 00:00:00,2014-07-13 00:00:00,PRATE,surface,-98.4379,29.7637,5.6e-05
2014-07-13 00:00:00,2014-07-13 00:00:00,PRATE,surface,-97.5004,29.7637,4.71e-05
2014-07-13 00:00:00,2014-07-13 00:00:00,PRATE,surface,-96.5629,29.7637,4.88e-05
2014-07-13 00:00:00,2014-07-13 00:00:00,PRATE,surface,-95.6254,29.7637,6.4e-05
2014-07-13 00:00:00,2014-07-13 00:00:00,PRATE,surface,-94.6879,29.7637,7.4e-05
2014-07-13 00:00:00,2014-07-13 00:00:00,PRATE,surface,-93.7504,29.7637,6.94e-05
2014-07-13 00:00:00,2014-07-13 00:00:00,PRATE,surface,-92.8129,29.7637,5.5e-05
2014-07-13 00:00:00,2014-07-13 00:00:00,PRATE,surface,-107.813,30.7085,1.82e-05
2014-07-13 00:00:00,2014-07-13 00:00:00,PRATE,surface,-106.875,30.7085,1.72e-05
2014-07-13 00:00:00,2014-07-13 00:00:00,PRATE,surface,-105.938,30.7085,1.8e-05
2014-07-13 00:00:00,2014-07-13 00:00:00,PRATE,surface,-105,30.7085,2.07e-05
2014-07-13 00:00:00,2014-07-13 00:00:00,PRATE,surface,-104.063,30.7085,2.16e-05
2014-07-13 00:00:00,2014-07-13 00:00:00,PRATE,surface,-103.125,30.7085,2.15e-05
2014-07-13 00:00:00,2014-07-13 00:00:00,PRATE,surface,-102.188,30.7085,1.92e-05
2014-07-13 00:00:00,2014-07-13 00:00:00,PRATE,surface,-101.25,30.7085,2.44e-05
2014-07-13 00:00:00,2014-07-13 00:00:00,PRATE,surface,-100.313,30.7085,3.73e-05
2014-07-13 00:00:00,2014-07-13 00:00:00,PRATE,surface,-99.3754,30.7085,5.43e-05
2014-07-13 00:00:00,2014-07-13 00:00:00,PRATE,surface,-98.4379,30.7085,6.41e-05
2014-07-13 00:00:00,2014-07-13 00:00:00,PRATE,surface,-97.5004,30.7085,6.08e-05
2014-07-13 00:00:00,2014-07-13 00:00:00,PRATE,surface,-96.5629,30.7085,5.33e-05
2014-07-13 00:00:00,2014-07-13 00:00:00,PRATE,surface,-95.6254,30.7085,5.35e-05
2014-07-13 00:00:00,2014-07-13 00:00:00,PRATE,surface,-94.6879,30.7085,5.65e-05
2014-07-13 00:00:00,2014-07-13 00:00:00,PRATE,surface,-93.7504,30.7085,5.13e-05
2014-07-13 00:00:00,2014-07-13 00:00:00,PRATE,surface,-92.8129,30.7085,4.85e-05
2014-07-13 00:00:00,2014-07-13 00:00:00,PRATE,surface,-107.813,31.6534,1.23e-05
2014-07-13 00:00:00,2014-07-13 00:00:00,PRATE,surface,-106.875,31.6534,1e-05
2014-07-13 00:00:00,2014-07-13 00:00:00,PRATE,surface,-105.938,31.6534,1.01e-05
2014-07-13 00:00:00,2014-07-13 00:00:00,PRATE,surface,-105,31.6534,1.33e-05
2014-07-13 00:00:00,2014-07-13 00:00:00,PRATE,surface,-104.063,31.6534,1.69e-05
2014-07-13 00:00:00,2014-07-13 00:00:00,PRATE,surface,-103.125,31.6534,1.57e-05
2014-07-13 00:00:00,2014-07-13 00:00:00,PRATE,surface,-102.188,31.6534,1.47e-05
2014-07-13 00:00:00,2014-07-13 00:00:00,PRATE,surface,-101.25,31.6534,1.44e-05
2014-07-13 00:00:00,2014-07-13 00:00:00,PRATE,surface,-100.313,31.6534,2.11e-05
2014-07-13 00:00:00,2014-07-13 00:00:00,PRATE,surface,-99.3754,31.6534,3.96e-05
2014-07-13 00:00:00,2014-07-13 00:00:00,PRATE,surface,-98.4379,31.6534,5.8e-05
2014-07-13 00:00:00,2014-07-13 00:00:00,PRATE,surface,-97.5004,31.6534,6.66e-05
2014-07-13 00:00:00,2014-07-13 00:00:00,PRATE,surface,-96.5629,31.6534,6.32e-05
2014-07-13 00:00:00,2014-07-13 00:00:00,PRATE,surface,-95.6254,31.6534,5.54e-05
2014-07-13 00:00:00,2014-07-13 00:00:00,PRATE,surface,-94.6879,31.6534,5.06e-05
2014-07-13 00:00:00,2014-07-13 00:00:00,PRATE,surface,-93.7504,31.6534,4.47e-05
2014-07-13 00:00:00,2014-07-13 00:00:00,PRATE,surface,-92.8129,31.6534,4.39e-05
2014-07-13 00:00:00,2014-07-13 00:00:00,PRATE,surface,-107.813,32.5983,1.51e-05
2014-07-13 00:00:00,2014-07-13 00:00:00,PRATE,surface,-106.875,32.5983,1.02e-05
2014-07-13 00:00:00,2014-07-13 00:00:00,PRATE,surface,-105.938,32.5983,9.5e-06
2014-07-13 00:00:00,2014-07-13 00:00:00,PRATE,surface,-105,32.5983,1.34e-05
2014-07-13 00:00:00,2014-07-13 00:00:00,PRATE,surface,-104.063,32.5983,1.42e-05
2014-07-13 00:00:00,2014-07-13 00:00:00,PRATE,surface,-103.125,32.5983,1.27e-05
2014-07-13 00:00:00,2014-07-13 00:00:00,PRATE,surface,-102.188,32.5983,1.21e-05
2014-07-13 00:00:00,2014-07-13 00:00:00,PRATE,surface,-101.25,32.5983,1.13e-05
2014-07-13 00:00:00,2014-07-13 00:00:00,PRATE,surface,-100.313,32.5983,1.25e-05
2014-07-13 00:00:00,2014-07-13 00:00:00,PRATE,surface,-99.3754,32.5983,2.31e-05
2014-07-13 00:00:00,2014-07-13 00:00:00,PRATE,surface,-98.4379,32.5983,4.06e-05
2014-07-13 00:00:00,2014-07-13 00:00:00,PRATE,surface,-97.5004,32.5983,5.68e-05
2014-07-13 00:00:00,2014-07-13 00:00:00,PRATE,surface,-96.5629,32.5983,6.4e-05
2014-07-13 00:00:00,2014-07-13 00:00:00,PRATE,surface,-95.6254,32.5983,6.21e-05
2014-07-13 00:00:00,2014-07-13 00:00:00,PRATE,surface,-94.6879,32.5983,5.7e-05
2014-07-13 00:00:00,2014-07-13 00:00:00,PRATE,surface,-93.7504,32.5983,5.05e-05
2014-07-13 00:00:00,2014-07-13 00:00:00,PRATE,surface,-92.8129,32.5983,4.44e-05
2014-07-13 00:00:00,2014-07-13 00:00:00,PRATE,surface,-107.813,33.5432,2.57e-05
2014-07-13 00:00:00,2014-07-13 00:00:00,PRATE,surface,-106.875,33.5432,1.85e-05
2014-07-13 00:00:00,2014-07-13 00:00:00,PRATE,surface,-105.938,33.5432,1.72e-05
2014-07-13 00:00:00,2014-07-13 00:00:00,PRATE,surface,-105,33.5432,1.77e-05
2014-07-13 00:00:00,2014-07-13 00:00:00,PRATE,surface,-104.063,33.5432,1.44e-05
2014-07-13 00:00:00,2014-07-13 00:00:00,PRATE,surface,-103.125,33.5432,9e-06
2014-07-13 00:00:00,2014-07-13 00:00:00,PRATE,surface,-102.188,33.5432,9.8e-06
2014-07-13 00:00:00,2014-07-13 00:00:00,PRATE,surface,-101.25,33.5432,1.08e-05
2014-07-13 00:00:00,2014-07-13 00:00:00,PRATE,surface,-100.313,33.5432,1.12e-05
2014-07-13 00:00:00,2014-07-13 00:00:00,PRATE,surface,-99.3754,33.5432,1.34e-05
2014-07-13 00:00:00,2014-07-13 00:00:00,PRATE,surface,-98.4379,33.5432,2.39e-05
2014-07-13 00:00:00,2014-07-13 00:00:00,PRATE,surface,-97.5004,33.5432,3.96e-05
2014-07-13 00:00:00,2014-07-13 00:00:00,PRATE,surface,-96.5629,33.5432,5.05e-05
2014-07-13 00:00:00,2014-07-13 00:00:00,PRATE,surface,-95.6254,33.5432,5.48e-05
2014-07-13 00:00:00,2014-07-13 00:00:00,PRATE,surface,-94.6879,33.5432,5.64e-05
2014-07-13 00:00:00,2014-07-13 00:00:00,PRATE,surface,-93.7504,33.5432,5.32e-05
2014-07-13 00:00:00,2014-07-13 00:00:00,PRATE,surface,-92.8129,33.5432,4.82e-05
2014-07-13 00:00:00,2014-07-13 00:00:00,PRATE,surface,-107.813,34.4881,2.01e-05
2014-07-13 00:00:00,2014-07-13 00:00:00,PRATE,surface,-106.875,34.4881,1.59e-05
2014-07-13 00:00:00,2014-07-13 00:00:00,PRATE,surface,-105.938,34.4881,1.53e-05
2014-07-13 00:00:00,2014-07-13 00:00:00,PRATE,surface,-105,34.4881,1.33e-05
2014-07-13 00:00:00,2014-07-13 00:00:00,PRATE,surface,-104.063,34.4881,1.16e-05
2014-07-13 00:00:00,2014-07-13 00:00:00,PRATE,surface,-103.125,34.4881,1.04e-05
2014-07-13 00:00:00,2014-07-13 00:00:00,PRATE,surface,-102.188,34.4881,1.1e-05
2014-07-13 00:00:00,2014-07-13 00:00:00,PRATE,surface,-101.25,34.4881,1.26e-05
2014-07-13 00:00:00,2014-07-13 00:00:00,PRATE,surface,-100.313,34.4881,1.29e-05
2014-07-13 00:00:00,2014-07-13 00:00:00,PRATE,surface,-99.3754,34.4881,1.31e-05
2014-07-13 00:00:00,2014-07-13 00:00:00,PRATE,surface,-98.4379,34.4881,1.72e-05
2014-07-13 00:00:00,2014-07-13 00:00:00,PRATE,surface,-97.5004,34.4881,2.8e-05
2014-07-13 00:00:00,2014-07-13 00:00:00,PRATE,surface,-96.5629,34.4881,3.97e-05
2014-07-13 00:00:00,2014-07-13 00:00:00,PRATE,surface,-95.6254,34.4881,4.55e-05
2014-07-13 00:00:00,2014-07-13 00:00:00,PRATE,surface,-94.6879,34.4881,4.65e-05
2014-07-13 00:00:00,2014-07-13 00:00:00,PRATE,surface,-93.7504,34.4881,4.62e-05
2014-07-13 00:00:00,2014-07-13 00:00:00,PRATE,surface,-92.8129,34.4881,4.53e-05
2014-07-13 00:00:00,2014-07-13 00:00:00,PRATE,surface,-107.813,35.4329,1.49e-05
2014-07-13 00:00:00,2014-07-13 00:00:00,PRATE,surface,-106.875,35.4329,1.19e-05
2014-07-13 00:00:00,2014-07-13 00:00:00,PRATE,surface,-105.938,35.4329,9.6e-06
2014-07-13 00:00:00,2014-07-13 00:00:00,PRATE,surface,-105,35.4329,1.25e-05
2014-07-13 00:00:00,2014-07-13 00:00:00,PRATE,surface,-104.063,35.4329,1.65e-05
2014-07-13 00:00:00,2014-07-13 00:00:00,PRATE,surface,-103.125,35.4329,1.62e-05
2014-07-13 00:00:00,2014-07-13 00:00:00,PRATE,surface,-102.188,35.4329,1.71e-05
2014-07-13 00:00:00,2014-07-13 00:00:00,PRATE,surface,-101.25,35.4329,1.81e-05
2014-07-13 00:00:00,2014-07-13 00:00:00,PRATE,surface,-100.313,35.4329,1.66e-05
2014-07-13 00:00:00,2014-07-13 00:00:00,PRATE,surface,-99.3754,35.4329,1.44e-05
2014-07-13 00:00:00,2014-07-13 00:00:00,PRATE,surface,-98.4379,35.4329,1.52e-05
2014-07-13 00:00:00,2014-07-13 00:00:00,PRATE,surface,-97.5004,35.4329,2.09e-05
2014-07-13 00:00:00,2014-07-13 00:00:00,PRATE,surface,-96.5629,35.4329,2.97e-05
2014-07-13 00:00:00,2014-07-13 00:00:00,PRATE,surface,-95.6254,35.4329,3.84e-05
2014-07-13 00:00:00,2014-07-13 00:00:00,PRATE,surface,-94.6879,35.4329,4.37e-05
2014-07-13 00:00:00,2014-07-13 00:00:00,PRATE,surface,-93.7504,35.4329,4.41e-05
2014-07-13 00:00:00,2014-07-13 00:00:00,PRATE,surface,-92.8129,35.4329,4.23e-05
2014-07-13 00:00:00,2014-07-13 00:00:00,PRATE,surface,-107.813,36.3778,1.45e-05
2014-07-13 00:00:00,2014-07-13 00:00:00,PRATE,surface,-106.875,36.3778,1.27e-05
2014-07-13 00:00:00,2014-07-13 00:00:00,PRATE,surface,-105.938,36.3778,1.09e-05
2014-07-13 00:00:00,2014-07-13 00:00:00,PRATE,surface,-105,36.3778,1.61e-05
2014-07-13 00:00:00,2014-07-13 00:00:00,PRATE,surface,-104.063,36.3778,1.96e-05
2014-07-13 00:00:00,2014-07-13 00:00:00,PRATE,surface,-103.125,36.3778,2.04e-05
2014-07-13 00:00:00,2014-07-13 00:00:00,PRATE,surface,-102.188,36.3778,2.07e-05
2014-07-13 00:00:00,2014-07-13 00:00:00,PRATE,surface,-101.25,36.3778,2.01e-05
2014-07-13 00:00:00,2014-07-13 00:00:00,PRATE,surface,-100.313,36.3778,1.76e-05
2014-07-13 00:00:00,2014-07-13 00:00:00,PRATE,surface,-99.3754,36.3778,1.61e-05
2014-07-13 00:00:00,2014-07-13 00:00:00,PRATE,surface,-98.4379,36.3778,1.67e-05
2014-07-13 00:00:00,2014-07-13 00:00:00,PRATE,surface,-97.5004,36.3778,1.98e-05
2014-07-13 00:00:00,2014-07-13 00:00:00,PRATE,surface,-96.5629,36.3778,2.51e-05
2014-07-13 00:00:00,2014-07-13 00:00:00,PRATE,surface,-95.6254,36.3778,3.15e-05
2014-07-13 00:00:00,2014-07-13 00:00:00,PRATE,surface,-94.6879,36.3778,3.7e-05
2014-07-13 00:00:00,2014-07-13 00:00:00,PRATE,surface,-93.7504,36.3778,3.93e-05
2014-07-13 00:00:00,2014-07-13 00:00:00,PRATE,surface,-92.8129,36.3778,4.03e-05
