2015-06-04 00:00:00,2015-06-04 00:00:00,TMP,surface,-107.813,25.0393,303.02
2015-06-04 00:00:00,2015-06-04 00:00:00,TMP,surface,-106.875,25.0393,297.423
2015-06-04 00:00:00,2015-06-04 00:00:00,TMP,surface,-105.938,25.0393,293.368
2015-06-04 00:00:00,2015-06-04 00:00:00,TMP,surface,-105,25.0393,292.732
2015-06-04 00:00:00,2015-06-04 00:00:00,TMP,surface,-104.063,25.0393,296.527
2015-06-04 00:00:00,2015-06-04 00:00:00,TMP,surface,-103.125,25.0393,299.228
2015-06-04 00:00:00,2015-06-04 00:00:00,TMP,surface,-102.188,25.0393,297.845
2015-06-04 00:00:00,2015-06-04 00:00:00,TMP,surface,-101.25,25.0393,294.869
2015-06-04 00:00:00,2015-06-04 00:00:00,TMP,surface,-100.313,25.0393,295.023
2015-06-04 00:00:00,2015-06-04 00:00:00,TMP,surface,-99.3754,25.0393,298.744
2015-06-04 00:00:00,2015-06-04 00:00:00,TMP,surface,-98.4379,25.0393,301.887
2015-06-04 00:00:00,2015-06-04 00:00:00,TMP,surface,-97.5004,25.0393,301.983
2015-06-04 00:00:00,2015-06-04 00:00:00,TMP,surface,-96.5629,25.0393,301.999
2015-06-04 00:00:00,2015-06-04 00:00:00,TMP,surface,-95.6254,25.0393,302.104
2015-06-04 00:00:00,2015-06-04 00:00:00,TMP,surface,-94.6879,25.0393,302.104
2015-06-04 00:00:00,2015-06-04 00:00:00,TMP,surface,-93.7504,25.0393,301.928
2015-06-04 00:00:00,2015-06-04 00:00:00,TMP,surface,-92.8129,25.0393,301.788
2015-06-04 00:00:00,2015-06-04 00:00:00,TMP,surface,-107.813,25.9842,299.688
2015-06-04 00:00:00,2015-06-04 00:00:00,TMP,surface,-106.875,25.9842,293.634
2015-06-04 00:00:00,2015-06-04 00:00:00,TMP,surface,-105.938,25.9842,292.952
2015-06-04 00:00:00,2015-06-04 00:00:00,TMP,surface,-105,25.9842,295.087
2015-06-04 00:00:00,2015-06-04 00:00:00,TMP,surface,-104.063,25.9842,300.072
2015-06-04 00:00:00,2015-06-04 00:00:00,TMP,surface,-103.125,25.9842,301.269
2015-06-04 00:00:00,2015-06-04 00:00:00,TMP,surface,-102.188,25.9842,299.852
2015-06-04 00:00:00,2015-06-04 00:00:00,TMP,surface,-101.25,25.9842,298.261
2015-06-04 00:00:00,2015-06-04 00:00:00,TMP,surface,-100.313,25.9842,298.738
2015-06-04 00:00:00,2015-06-04 00:00:00,TMP,surface,-99.3754,25.9842,301.733
2015-06-04 00:00:00,2015-06-04 00:00:00,TMP,surface,-98.4379,25.9842,302.463
2015-06-04 00:00:00,2015-06-04 00:00:00,TMP,surface,-97.5004,25.9842,301.496
2015-06-04 00:00:00,2015-06-04 00:00:00,TMP,surface,-96.5629,25.9842,301.263
2015-06-04 00:00:00,2015-06-04 00:00:00,TMP,surface,-95.6254,25.9842,301.778
2015-06-04 00:00:00,2015-06-04 00:00:00,TMP,surface,-94.6879,25.9842,302.005
2015-06-04 00:00:00,2015-06-04 00:00:00,TMP,surface,-93.7504,25.9842,301.931
2015-06-04 00:00:00,2015-06-04 00:00:00,TMP,surface,-92.8129,25.9842,301.877
2015-06-04 00:00:00,2015-06-04 00:00:00,TMP,surface,-107.813,26.929,295.234
2015-06-04 00:00:00,2015-06-04 00:00:00,TMP,surface,-106.875,26.929,292.818
2015-06-04 00:00:00,2015-06-04 00:00:00,TMP,surface,-105.938,26.929,294.959
2015-06-04 00:00:00,2015-06-04 00:00:00,TMP,surface,-105,26.929,298.517
2015-06-04 00:00:00,2015-06-04 00:00:00,TMP,surface,-104.063,26.929,301.253
2015-06-04 00:00:00,2015-06-04 00:00:00,TMP,surface,-103.125,26.929,300.511
2015-06-04 00:00:00,2015-06-04 00:00:00,TMP,surface,-102.188,26.929,299.304
2015-06-04 00:00:00,2015-06-04 00:00:00,TMP,surface,-101.25,26.929,299.896
2015-06-04 00:00:00,2015-06-04 00:00:00,TMP,surface,-100.313,26.929,301.608
2015-06-04 00:00:00,2015-06-04 00:00:00,TMP,surface,-99.3754,26.929,303.256
2015-06-04 00:00:00,2015-06-04 00:00:00,TMP,surface,-98.4379,26.929,301.346
2015-06-04 00:00:00,2015-06-04 00:00:00,TMP,surface,-97.5004,26.929,299.832
2015-06-04 00:00:00,2015-06-04 00:00:00,TMP,surface,-96.5629,26.929,300.475
2015-06-04 00:00:00,2015-06-04 00:00:00,TMP,surface,-95.6254,26.929,301.672
2015-06-04 00:00:00,2015-06-04 00:00:00,TMP,surface,-94.6879,26.929,302.108
2015-06-04 00:00:00,2015-06-04 00:00:00,TMP,surface,-93.7504,26.929,302.012
2015-06-04 00:00:00,2015-06-04 00:00:00,TMP,surface,-92.8129,26.929,301.858
2015-06-04 00:00:00,2015-06-04 00:00:00,TMP,surface,-107.813,27.8739,292.994
2015-06-04 00:00:00,2015-06-04 00:00:00,TMP,surface,-106.875,27.8739,293.064
2015-06-04 00:00:00,2015-06-04 00:00:00,TMP,surface,-105.938,27.8739,297.317
2015-06-04 00:00:00,2015-06-04 00:00:00,TMP,surface,-105,27.8739,301.016
2015-06-04 00:00:00,2015-06-04 00:00:00,TMP,surface,-104.063,27.8739,300.975
2015-06-04 00:00:00,2015-06-04 00:00:00,TMP,surface,-103.125,27.8739,298.866
2015-06-04 00:00:00,2015-06-04 00:00:00,TMP,surface,-102.188,27.8739,298.088
2015-06-04 00:00:00,2015-06-04 00:00:00,TMP,surface,-101.25,27.8739,299.931
2015-06-04 00:00:00,2015-06-04 00:00:00,TMP,surface,-100.313,27.8739,301.976
2015-06-04 00:00:00,2015-06-04 00:00:00,TMP,surface,-99.3754,27.8739,301.714
2015-06-04 00:00:00,2015-06-04 00:00:00,TMP,surface,-98.4379,27.8739,300.213
2015-06-04 00:00:00,2015-06-04 00:00:00,TMP,surface,-97.5004,27.8739,300.434
2015-06-04 00:00:00,2015-06-04 00:00:00,TMP,surface,-96.5629,27.8739,301.599
2015-06-04 00:00:00,2015-06-04 00:00:00,TMP,surface,-95.6254,27.8739,301.964
2015-06-04 00:00:00,2015-06-04 00:00:00,TMP,surface,-94.6879,27.8739,302.12
2015-06-04 00:00:00,2015-06-04 00:00:00,TMP,surface,-93.7504,27.8739,301.992
2015-06-04 00:00:00,2015-06-04 00:00:00,TMP,surface,-92.8129,27.8739,301.772
2015-06-04 00:00:00,2015-06-04 00:00:00,TMP,surface,-107.813,28.8188,292.591
2015-06-04 00:00:00,2015-06-04 00:00:00,TMP,surface,-106.875,28.8188,294.325
2015-06-04 00:00:00,2015-06-04 00:00:00,TMP,surface,-105.938,28.8188,298.885
2015-06-04 00:00:00,2015-06-04 00:00:00,TMP,surface,-105,28.8188,301.89
2015-06-04 00:00:00,2015-06-04 00:00:00,TMP,surface,-104.063,28.8188,300.293
2015-06-04 00:00:00,2015-06-04 00:00:00,TMP,surface,-103.125,28.8188,298.882
2015-06-04 00:00:00,2015-06-04 00:00:00,TMP,surface,-102.188,28.8188,298.226
2015-06-04 00:00:00,2015-06-04 00:00:00,TMP,surface,-101.25,28.8188,299.579
2015-06-04 00:00:00,2015-06-04 00:00:00,TMP,surface,-100.313,28.8188,300.111
2015-06-04 00:00:00,2015-06-04 00:00:00,TMP,surface,-99.3754,28.8188,299.304
2015-06-04 00:00:00,2015-06-04 00:00:00,TMP,surface,-98.4379,28.8188,298.591
2015-06-04 00:00:00,2015-06-04 00:00:00,TMP,surface,-97.5004,28.8188,298.77
2015-06-04 00:00:00,2015-06-04 00:00:00,TMP,surface,-96.5629,28.8188,299.637
2015-06-04 00:00:00,2015-06-04 00:00:00,TMP,surface,-95.6254,28.8188,300.754
2015-06-04 00:00:00,2015-06-04 00:00:00,TMP,surface,-94.6879,28.8188,301.602
2015-06-04 00:00:00,2015-06-04 00:00:00,TMP,surface,-93.7504,28.8188,301.784
2015-06-04 00:00:00,2015-06-04 00:00:00,TMP,surface,-92.8129,28.8188,301.698
2015-06-04 00:00:00,2015-06-04 00:00:00,TMP,surface,-107.813,29.7637,294.556
2015-06-04 00:00:00,2015-06-04 00:00:00,TMP,surface,-106.875,29.7637,296.911
2015-06-04 00:00:00,2015-06-04 00:00:00,TMP,surface,-105.938,29.7637,300.299
2015-06-04 00:00:00,2015-06-04 00:00:00,TMP,surface,-105,29.7637,300.709
2015-06-04 00:00:00,2015-06-04 00:00:00,TMP,surface,-104.063,29.7637,300.469
2015-06-04 00:00:00,2015-06-04 00:00:00,TMP,surface,-103.125,29.7637,300.245
2015-06-04 00:00:00,2015-06-04 00:00:00,TMP,surface,-102.188,29.7637,300.536
2015-06-04 00:00:00,2015-06-04 00:00:00,TMP,surface,-101.25,29.7637,300.076
2015-06-04 00:00:00,2015-06-04 00:00:00,TMP,surface,-100.313,29.7637,298.844
2015-06-04 00:00:00,2015-06-04 00:00:00,TMP,surface,-99.3754,29.7637,297.592
2015-06-04 00:00:00,2015-06-04 00:00:00,TMP,surface,-98.4379,29.7637,297.147
2015-06-04 00:00:00,2015-06-04 00:00:00,TMP,surface,-97.5004,29.7637,297.618
2015-06-04 00:00:00,2015-06-04 00:00:00,TMP,surface,-96.5629,29.7637,298.389
2015-06-04 00:00:00,2015-06-04 00:00:00,TMP,surface,-95.6254,29.7637,299.061
2015-06-04 00:00:00,2015-06-04 00:00:00,TMP,surface,-94.6879,29.7637,300.197
2015-06-04 00:00:00,2015-06-04 00:00:00,TMP,surface,-93.7504,29.7637,301.435
2015-06-04 00:00:00,2015-06-04 00:00:00,TMP,surface,-92.8129,29.7637,300.488
2015-06-04 00:00:00,2015-06-04 00:00:00,TMP,surface,-107.813,30.7085,299.746
2015-06-04 00:00:00,2015-06-04 00:00:00,TMP,surface,-106.875,30.7085,301.016
2015-06-04 00:00:00,2015-06-04 00:00:00,TMP,surface,-105.938,30.7085,301.33
2015-06-04 00:00:00,2015-06-04 00:00:00,TMP,surface,-105,30.7085,300.93
2015-06-04 00:00:00,2015-06-04 00:00:00,TMP,surface,-104.063,30.7085,300.226
2015-06-04 00:00:00,2015-06-04 00:00:00,TMP,surface,-103.125,30.7085,301.34
2015-06-04 00:00:00,2015-06-04 00:00:00,TMP,surface,-102.188,30.7085,301.391
2015-06-04 00:00:00,2015-06-04 00:00:00,TMP,surface,-101.25,30.7085,300.191
2015-06-04 00:00:00,2015-06-04 00:00:00,TMP,surface,-100.313,30.7085,298.828
2015-06-04 00:00:00,2015-06-04 00:00:00,TMP,surface,-99.3754,30.7085,297.647
2015-06-04 00:00:00,2015-06-04 00:00:00,TMP,surface,-98.4379,30.7085,297.34
2015-06-04 00:00:00,2015-06-04 00:00:00,TMP,surface,-97.5004,30.7085,297.759
2015-06-04 00:00:00,2015-06-04 00:00:00,TMP,surface,-96.5629,30.7085,298.684
2015-06-04 00:00:00,2015-06-04 00:00:00,TMP,surface,-95.6254,30.7085,299.522
2015-06-04 00:00:00,2015-06-04 00:00:00,TMP,surface,-94.6879,30.7085,299.676
2015-06-04 00:00:00,2015-06-04 00:00:00,TMP,surface,-93.7504,30.7085,299.8
2015-06-04 00:00:00,2015-06-04 00:00:00,TMP,surface,-92.8129,30.7085,299.567
2015-06-04 00:00:00,2015-06-04 00:00:00,TMP,surface,-107.813,31.6534,301.618
2015-06-04 00:00:00,2015-06-04 00:00:00,TMP,surface,-106.875,31.6534,302.027
2015-06-04 00:00:00,2015-06-04 00:00:00,TMP,surface,-105.938,31.6534,301.211
2015-06-04 00:00:00,2015-06-04 00:00:00,TMP,surface,-105,31.6534,300.923
2015-06-04 00:00:00,2015-06-04 00:00:00,TMP,surface,-104.063,31.6534,301.282
2015-06-04 00:00:00,2015-06-04 00:00:00,TMP,surface,-103.125,31.6534,301.839
2015-06-04 00:00:00,2015-06-04 00:00:00,TMP,surface,-102.188,31.6534,301.669
2015-06-04 00:00:00,2015-06-04 00:00:00,TMP,surface,-101.25,31.6534,300.584
2015-06-04 00:00:00,2015-06-04 00:00:00,TMP,surface,-100.313,31.6534,299.516
2015-06-04 00:00:00,2015-06-04 00:00:00,TMP,surface,-99.3754,31.6534,298.699
2015-06-04 00:00:00,2015-06-04 00:00:00,TMP,surface,-98.4379,31.6534,298.277
2015-06-04 00:00:00,2015-06-04 00:00:00,TMP,surface,-97.5004,31.6534,298.367
2015-06-04 00:00:00,2015-06-04 00:00:00,TMP,surface,-96.5629,31.6534,299.151
2015-06-04 00:00:00,2015-06-04 00:00:00,TMP,surface,-95.6254,31.6534,299.858
2015-06-04 00:00:00,2015-06-04 00:00:00,TMP,surface,-94.6879,31.6534,299.717
2015-06-04 00:00:00,2015-06-04 00:00:00,TMP,surface,-93.7504,31.6534,299.564
2015-06-04 00:00:00,2015-06-04 00:00:00,TMP,surface,-92.8129,31.6534,299.432
2015-06-04 00:00:00,2015-06-04 00:00:00,TMP,surface,-107.813,32.5983,298.869
2015-06-04 00:00:00,2015-06-04 00:00:00,TMP,surface,-106.875,32.5983,299.531
2015-06-04 00:00:00,2015-06-04 00:00:00,TMP,surface,-105.938,32.5983,299.691
2015-06-04 00:00:00,2015-06-04 00:00:00,TMP,surface,-105,32.5983,299.772
2015-06-04 00:00:00,2015-06-04 00:00:00,TMP,surface,-104.063,32.5983,300.757
2015-06-04 00:00:00,2015-06-04 00:00:00,TMP,surface,-103.125,32.5983,301.285
2015-06-04 00:00:00,2015-06-04 00:00:00,TMP,surface,-102.188,32.5983,301.029
2015-06-04 00:00:00,2015-06-04 00:00:00,TMP,surface,-101.25,32.5983,300.44
2015-06-04 00:00:00,2015-06-04 00:00:00,TMP,surface,-100.313,32.5983,300.341
2015-06-04 00:00:00,2015-06-04 00:00:00,TMP,surface,-99.3754,32.5983,299.688
2015-06-04 00:00:00,2015-06-04 00:00:00,TMP,surface,-98.4379,32.5983,299
2015-06-04 00:00:00,2015-06-04 00:00:00,TMP,surface,-97.5004,32.5983,298.805
2015-06-04 00:00:00,2015-06-04 00:00:00,TMP,surface,-96.5629,32.5983,299.263
2015-06-04 00:00:00,2015-06-04 00:00:00,TMP,surface,-95.6254,32.5983,299.964
2015-06-04 00:00:00,2015-06-04 00:00:00,TMP,surface,-94.6879,32.5983,300.037
2015-06-04 00:00:00,2015-06-04 00:00:00,TMP,surface,-93.7504,32.5983,299.733
2015-06-04 00:00:00,2015-06-04 00:00:00,TMP,surface,-92.8129,32.5983,299.791
2015-06-04 00:00:00,2015-06-04 00:00:00,TMP,surface,-107.813,33.5432,295.074
2015-06-04 00:00:00,2015-06-04 00:00:00,TMP,surface,-106.875,33.5432,296.517
2015-06-04 00:00:00,2015-06-04 00:00:00,TMP,surface,-105.938,33.5432,297.493
2015-06-04 00:00:00,2015-06-04 00:00:00,TMP,surface,-105,33.5432,298.517
2015-06-04 00:00:00,2015-06-04 00:00:00,TMP,surface,-104.063,33.5432,300.079
2015-06-04 00:00:00,2015-06-04 00:00:00,TMP,surface,-103.125,33.5432,300.255
2015-06-04 00:00:00,2015-06-04 00:00:00,TMP,surface,-102.188,33.5432,299.964
2015-06-04 00:00:00,2015-06-04 00:00:00,TMP,surface,-101.25,33.5432,299.352
2015-06-04 00:00:00,2015-06-04 00:00:00,TMP,surface,-100.313,33.5432,299.915
2015-06-04 00:00:00,2015-06-04 00:00:00,TMP,surface,-99.3754,33.5432,299.707
2015-06-04 00:00:00,2015-06-04 00:00:00,TMP,surface,-98.4379,33.5432,298.927
2015-06-04 00:00:00,2015-06-04 00:00:00,TMP,surface,-97.5004,33.5432,298.434
2015-06-04 00:00:00,2015-06-04 00:00:00,TMP,surface,-96.5629,33.5432,298.389
2015-06-04 00:00:00,2015-06-04 00:00:00,TMP,surface,-95.6254,33.5432,298.885
2015-06-04 00:00:00,2015-06-04 00:00:00,TMP,surface,-94.6879,33.5432,299.464
2015-06-04 00:00:00,2015-06-04 00:00:00,TMP,surface,-93.7504,33.5432,299.371
2015-06-04 00:00:00,2015-06-04 00:00:00,TMP,surface,-92.8129,33.5432,299.452
2015-06-04 00:00:00,2015-06-04 00:00:00,TMP,surface,-107.813,34.4881,294.101
2015-06-04 00:00:00,2015-06-04 00:00:00,TMP,surface,-106.875,34.4881,295.676
2015-06-04 00:00:00,2015-06-04 00:00:00,TMP,surface,-105.938,34.4881,296.405
2015-06-04 00:00:00,2015-06-04 00:00:00,TMP,surface,-105,34.4881,298.056
2015-06-04 00:00:00,2015-06-04 00:00:00,TMP,surface,-104.063,34.4881,299.218
2015-06-04 00:00:00,2015-06-04 00:00:00,TMP,surface,-103.125,34.4881,299.493
2015-06-04 00:00:00,2015-06-04 00:00:00,TMP,surface,-102.188,34.4881,299.218
2015-06-04 00:00:00,2015-06-04 00:00:00,TMP,surface,-101.25,34.4881,298.866
2015-06-04 00:00:00,2015-06-04 00:00:00,TMP,surface,-100.313,34.4881,298.978
2015-06-04 00:00:00,2015-06-04 00:00:00,TMP,surface,-99.3754,34.4881,299.007
2015-06-04 00:00:00,2015-06-04 00:00:00,TMP,surface,-98.4379,34.4881,298.475
2015-06-04 00:00:00,2015-06-04 00:00:00,TMP,surface,-97.5004,34.4881,297.887
2015-06-04 00:00:00,2015-06-04 00:00:00,TMP,surface,-96.5629,34.4881,298.088
2015-06-04 00:00:00,2015-06-04 00:00:00,TMP,surface,-95.6254,34.4881,298.677
2015-06-04 00:00:00,2015-06-04 00:00:00,TMP,surface,-94.6879,34.4881,298.668
2015-06-04 00:00:00,2015-06-04 00:00:00,TMP,surface,-93.7504,34.4881,298.504
2015-06-04 00:00:00,2015-06-04 00:00:00,TMP,surface,-92.8129,34.4881,298.978
2015-06-04 00:00:00,2015-06-04 00:00:00,TMP,surface,-107.813,35.4329,294.274
2015-06-04 00:00:00,2015-06-04 00:00:00,TMP,surface,-106.875,35.4329,294.76
2015-06-04 00:00:00,2015-06-04 00:00:00,TMP,surface,-105.938,35.4329,294.613
2015-06-04 00:00:00,2015-06-04 00:00:00,TMP,surface,-105,35.4329,295.307
2015-06-04 00:00:00,2015-06-04 00:00:00,TMP,surface,-104.063,35.4329,297.679
2015-06-04 00:00:00,2015-06-04 00:00:00,TMP,surface,-103.125,35.4329,298.898
2015-06-04 00:00:00,2015-06-04 00:00:00,TMP,surface,-102.188,35.4329,299.362
2015-06-04 00:00:00,2015-06-04 00:00:00,TMP,surface,-101.25,35.4329,298.834
2015-06-04 00:00:00,2015-06-04 00:00:00,TMP,surface,-100.313,35.4329,298.264
2015-06-04 00:00:00,2015-06-04 00:00:00,TMP,surface,-99.3754,35.4329,298.284
2015-06-04 00:00:00,2015-06-04 00:00:00,TMP,surface,-98.4379,35.4329,298.242
2015-06-04 00:00:00,2015-06-04 00:00:00,TMP,surface,-97.5004,35.4329,297.9
2015-06-04 00:00:00,2015-06-04 00:00:00,TMP,surface,-96.5629,35.4329,297.595
2015-06-04 00:00:00,2015-06-04 00:00:00,TMP,surface,-95.6254,35.4329,297.727
2015-06-04 00:00:00,2015-06-04 00:00:00,TMP,surface,-94.6879,35.4329,298.056
2015-06-04 00:00:00,2015-06-04 00:00:00,TMP,surface,-93.7504,35.4329,297.948
2015-06-04 00:00:00,2015-06-04 00:00:00,TMP,surface,-92.8129,35.4329,298.194
2015-06-04 00:00:00,2015-06-04 00:00:00,TMP,surface,-107.813,36.3778,293.74
2015-06-04 00:00:00,2015-06-04 00:00:00,TMP,surface,-106.875,36.3778,291.151
2015-06-04 00:00:00,2015-06-04 00:00:00,TMP,surface,-105.938,36.3778,291.676
2015-06-04 00:00:00,2015-06-04 00:00:00,TMP,surface,-105,36.3778,292.284
2015-06-04 00:00:00,2015-06-04 00:00:00,TMP,surface,-104.063,36.3778,295.093
2015-06-04 00:00:00,2015-06-04 00:00:00,TMP,surface,-103.125,36.3778,297.157
2015-06-04 00:00:00,2015-06-04 00:00:00,TMP,surface,-102.188,36.3778,298.299
2015-06-04 00:00:00,2015-06-04 00:00:00,TMP,surface,-101.25,36.3778,298.447
2015-06-04 00:00:00,2015-06-04 00:00:00,TMP,surface,-100.313,36.3778,298.22
2015-06-04 00:00:00,2015-06-04 00:00:00,TMP,surface,-99.3754,36.3778,298.133
2015-06-04 00:00:00,2015-06-04 00:00:00,TMP,surface,-98.4379,36.3778,298.111
2015-06-04 00:00:00,2015-06-04 00:00:00,TMP,surface,-97.5004,36.3778,297.871
2015-06-04 00:00:00,2015-06-04 00:00:00,TMP,surface,-96.5629,36.3778,297.592
2015-06-04 00:00:00,2015-06-04 00:00:00,TMP,surface,-95.6254,36.3778,297.701
2015-06-04 00:00:00,2015-06-04 00:00:00,TMP,surface,-94.6879,36.3778,297.912
2015-06-04 00:00:00,2015-06-04 00:00:00,TMP,surface,-93.7504,36.3778,297.682
2015-06-04 00:00:00,2015-06-04 00:00:00,TMP,surface,-92.8129,36.3778,297.772
2015-06-04 00:00:00,2015-06-04 00:00:00,PRATE,surface,-107.813,25.0393,3.7e-06
2015-06-04 00:00:00,2015-06-04 00:00:00,PRATE,surface,-106.875,25.0393,4.38e-05
2015-06-04 00:00:00,2015-06-04 00:00:00,PRATE,surface,-105.938,25.0393,0.0001403
2015-06-04 00:00:00,2015-06-04 00:00:00,PRATE,surface,-105,25.0393,9.02e-05
2015-06-04 00:00:00,2015-06-04 00:00:00,PRATE,surface,-104.063,25.0393,5.4e-05
2015-06-04 00:00:00,2015-06-04 00:00:00,PRATE,surface,-103.125,25.0393,2.3e-05
2015-06-04 00:00:00,2015-06-04 00:00:00,PRATE,surface,-102.188,25.0393,3.21e-05
2015-06-04 00:00:00,2015-06-04 00:00:00,PRATE,surface,-101.25,25.0393,6.14e-05
2015-06-04 00:00:00,2015-06-04 00:00:00,PRATE,surface,-100.313,25.0393,4.18e-05
2015-06-04 00:00:00,2015-06-04 00:00:00,PRATE,surface,-99.3754,25.0393,1.21e-05
2015-06-04 00:00:00,2015-06-04 00:00:00,PRATE,surface,-98.4379,25.0393,6.6e-06
2015-06-04 00:00:00,2015-06-04 00:00:00,PRATE,surface,-97.5004,25.0393,1.79e-05
2015-06-04 00:00:00,2015-06-04 00:00:00,PRATE,surface,-96.5629,25.0393,1.88e-05
2015-06-04 00:00:00,2015-06-04 00:00:00,PRATE,surface,-95.6254,25.0393,1.52e-05
2015-06-04 00:00:00,2015-06-04 00:00:00,PRATE,surface,-94.6879,25.0393,6.5e-06
2015-06-04 00:00:00,2015-06-04 00:00:00,PRATE,surface,-93.7504,25.0393,4.8e-05
2015-06-04 00:00:00,2015-06-04 00:00:00,PRATE,surface,-92.8129,25.0393,6.14e-05
2015-06-04 00:00:00,2015-06-04 00:00:00,PRATE,surface,-107.813,25.9842,3.82e-05
2015-06-04 00:00:00,2015-06-04 00:00:00,PRATE,surface,-106.875,25.9842,9.63e-05
2015-06-04 00:00:00,2015-06-04 00:00:00,PRATE,surface,-105.938,25.9842,8.87e-05
2015-06-04 00:00:00,2015-06-04 00:00:00,PRATE,surface,-105,25.9842,7.33e-05
2015-06-04 00:00:00,2015-06-04 00:00:00,PRATE,surface,-104.063,25.9842,2.66e-05
2015-06-04 00:00:00,2015-06-04 00:00:00,PRATE,surface,-103.125,25.9842,2.23e-05
2015-06-04 00:00:00,2015-06-04 00:00:00,PRATE,surface,-102.188,25.9842,1.89e-05
2015-06-04 00:00:00,2015-06-04 00:00:00,PRATE,surface,-101.25,25.9842,4.28e-05
2015-06-04 00:00:00,2015-06-04 00:00:00,PRATE,surface,-100.313,25.9842,2.27e-05
2015-06-04 00:00:00,2015-06-04 00:00:00,PRATE,surface,-99.3754,25.9842,9e-07
2015-06-04 00:00:00,2015-06-04 00:00:00,PRATE,surface,-98.4379,25.9842,5.4e-06
2015-06-04 00:00:00,2015-06-04 00:00:00,PRATE,surface,-97.5004,25.9842,3.22e-05
2015-06-04 00:00:00,2015-06-04 00:00:00,PRATE,surface,-96.5629,25.9842,2.88e-05
2015-06-04 00:00:00,2015-06-04 00:00:00,PRATE,surface,-95.6254,25.9842,2.7e-05
2015-06-04 00:00:00,2015-06-04 00:00:00,PRATE,surface,-94.6879,25.9842,1.09e-05
2015-06-04 00:00:00,2015-06-04 00:00:00,PRATE,surface,-93.7504,25.9842,2.56e-05
2015-06-04 00:00:00,2015-06-04 00:00:00,PRATE,surface,-92.8129,25.9842,4.35e-05
2015-06-04 00:00:00,2015-06-04 00:00:00,PRATE,surface,-107.813,26.929,7.34e-05
2015-06-04 00:00:00,2015-06-04 00:00:00,PRATE,surface,-106.875,26.929,8.35e-05
2015-06-04 00:00:00,2015-06-04 00:00:00,PRATE,surface,-105.938,26.929,5.02e-05
2015-06-04 00:00:00,2015-06-04 00:00:00,PRATE,surface,-105,26.929,5.57e-05
2015-06-04 00:00:00,2015-06-04 00:00:00,PRATE,surface,-104.063,26.929,3.32e-05
2015-06-04 00:00:00,2015-06-04 00:00:00,PRATE,surface,-103.125,26.929,3.47e-05
2015-06-04 00:00:00,2015-06-04 00:00:00,PRATE,surface,-102.188,26.929,3.36e-05
2015-06-04 00:00:00,2015-06-04 00:00:00,PRATE,surface,-101.25,26.929,3.92e-05
2015-06-04 00:00:00,2015-06-04 00:00:00,PRATE,surface,-100.313,26.929,1.13e-05
2015-06-04 00:00:00,2015-06-04 00:00:00,PRATE,surface,-99.3754,26.929,1.8e-06
2015-06-04 00:00:00,2015-06-04 00:00:00,PRATE,surface,-98.4379,26.929,2.67e-05
2015-06-04 00:00:00,2015-06-04 00:00:00,PRATE,surface,-97.5004,26.929,8.7e-06
2015-06-04 00:00:00,2015-06-04 00:00:00,PRATE,surface,-96.5629,26.929,1.73e-05
2015-06-04 00:00:00,2015-06-04 00:00:00,PRATE,surface,-95.6254,26.929,1.8e-05
2015-06-04 00:00:00,2015-06-04 00:00:00,PRATE,surface,-94.6879,26.929,6.9e-06
2015-06-04 00:00:00,2015-06-04 00:00:00,PRATE,surface,-93.7504,26.929,7.5e-06
2015-06-04 00:00:00,2015-06-04 00:00:00,PRATE,surface,-92.8129,26.929,3.01e-05
2015-06-04 00:00:00,2015-06-04 00:00:00,PRATE,surface,-107.813,27.8739,0.0001088
2015-06-04 00:00:00,2015-06-04 00:00:00,PRATE,surface,-106.875,27.8739,6.65e-05
2015-06-04 00:00:00,2015-06-04 00:00:00,PRATE,surface,-105.938,27.8739,2.82e-05
2015-06-04 00:00:00,2015-06-04 00:00:00,PRATE,surface,-105,27.8739,1.65e-05
2015-06-04 00:00:00,2015-06-04 00:00:00,PRATE,surface,-104.063,27.8739,4.5e-05
2015-06-04 00:00:00,2015-06-04 00:00:00,PRATE,surface,-103.125,27.8739,6.53e-05
2015-06-04 00:00:00,2015-06-04 00:00:00,PRATE,surface,-102.188,27.8739,4.89e-05
2015-06-04 00:00:00,2015-06-04 00:00:00,PRATE,surface,-101.25,27.8739,2.38e-05
2015-06-04 00:00:00,2015-06-04 00:00:00,PRATE,surface,-100.313,27.8739,1.47e-05
2015-06-04 00:00:00,2015-06-04 00:00:00,PRATE,surface,-99.3754,27.8739,3.4e-05
2015-06-04 00:00:00,2015-06-04 00:00:00,PRATE,surface,-98.4379,27.8739,4.34e-05
2015-06-04 00:00:00,2015-06-04 00:00:00,PRATE,surface,-97.5004,27.8739,2.55e-05
2015-06-04 00:00:00,2015-06-04 00:00:00,PRATE,surface,-96.5629,27.8739,8.2e-06
2015-06-04 00:00:00,2015-06-04 00:00:00,PRATE,surface,-95.6254,27.8739,1.24e-05
2015-06-04 00:00:00,2015-06-04 00:00:00,PRATE,surface,-94.6879,27.8739,2.12e-05
2015-06-04 00:00:00,2015-06-04 00:00:00,PRATE,surface,-93.7504,27.8739,2.1e-05
2015-06-04 00:00:00,2015-06-04 00:00:00,PRATE,surface,-92.8129,27.8739,3.27e-05
2015-06-04 00:00:00,2015-06-04 00:00:00,PRATE,surface,-107.813,28.8188,0.0001095
2015-06-04 00:00:00,2015-06-04 00:00:00,PRATE,surface,-106.875,28.8188,5.86e-05
2015-06-04 00:00:00,2015-06-04 00:00:00,PRATE,surface,-105.938,28.8188,2.4e-05
2015-06-04 00:00:00,2015-06-04 00:00:00,PRATE,surface,-105,28.8188,1.46e-05
2015-06-04 00:00:00,2015-06-04 00:00:00,PRATE,surface,-104.063,28.8188,4.58e-05
2015-06-04 00:00:00,2015-06-04 00:00:00,PRATE,surface,-103.125,28.8188,3.76e-05
2015-06-04 00:00:00,2015-06-04 00:00:00,PRATE,surface,-102.188,28.8188,1.81e-05
2015-06-04 00:00:00,2015-06-04 00:00:00,PRATE,surface,-101.25,28.8188,1.32e-05
2015-06-04 00:00:00,2015-06-04 00:00:00,PRATE,surface,-100.313,28.8188,1.98e-05
2015-06-04 00:00:00,2015-06-04 00:00:00,PRATE,surface,-99.3754,28.8188,4.41e-05
2015-06-04 00:00:00,2015-06-04 00:00:00,PRATE,surface,-98.4379,28.8188,7.64e-05
2015-06-04 00:00:00,2015-06-04 00:00:00,PRATE,surface,-97.5004,28.8188,6.9e-05
2015-06-04 00:00:00,2015-06-04 00:00:00,PRATE,surface,-96.5629,28.8188,4.25e-05
2015-06-04 00:00:00,2015-06-04 00:00:00,PRATE,surface,-95.6254,28.8188,3.48e-05
2015-06-04 00:00:00,2015-06-04 00:00:00,PRATE,surface,-94.6879,28.8188,3.39e-05
2015-06-04 00:00:00,2015-06-04 00:00:00,PRATE,surface,-93.7504,28.8188,3.75e-05
2015-06-04 00:00:00,2015-06-04 00:00:00,PRATE,surface,-92.8129,28.8188,2.77e-05
2015-06-04 00:00:00,2015-06-04 00:00:00,PRATE,surface,-107.813,29.7637,6.81e-05
2015-06-04 00:00:00,2015-06-04 00:00:00,PRATE,surface,-106.875,29.7637,5.21e-05
2015-06-04 00:00:00,2015-06-04 00:00:00,PRATE,surface,-105.938,29.7637,1.69e-05
2015-06-04 00:00:00,2015-06-04 00:00:00,PRATE,surface,-105,29.7637,4.03e-05
2015-06-04 00:00:00,2015-06-04 00:00:00,PRATE,surface,-104.063,29.7637,4.12e-05
2015-06-04 00:00:00,2015-06-04 00:00:00,PRATE,surface,-103.125,29.7637,1.56e-05
2015-06-04 00:00:00,2015-06-04 00:00:00,PRATE,surface,-102.188,29.7637,5.2e-06
2015-06-04 00:00:00,2015-06-04 00:00:00,PRATE,surface,-101.25,29.7637,3.3e-06
2015-06-04 00:00:00,2015-06-04 00:00:00,PRATE,surface,-100.313,29.7637,1.55e-05
2015-06-04 00:00:00,2015-06-04 00:00:00,PRATE,surface,-99.3754,29.7637,5.59e-05
2015-06-04 00:00:00,2015-06-04 00:00:00,PRATE,surface,-98.4379,29.7637,9.33e-05
2015-06-04 00:00:00,2015-06-04 00:00:00,PRATE,surface,-97.5004,29.7637,7.87e-05
2015-06-04 00:00:00,2015-06-04 00:00:00,PRATE,surface,-96.5629,29.7637,5.72e-05
2015-06-04 00:00:00,2015-06-04 00:00:00,PRATE,surface,-95.6254,29.7637,7.23e-05
2015-06-04 00:00:00,2015-06-04 00:00:00,PRATE,surface,-94.6879,29.7637,6.86e-05
2015-06-04 00:00:00,2015-06-04 00:00:00,PRATE,surface,-93.7504,29.7637,4.2e-05
2015-06-04 00:00:00,2015-06-04 00:00:00,PRATE,surface,-92.8129,29.7637,7.27e-05
2015-06-04 00:00:00,2015-06-04 00:00:00,PRATE,surface,-107.813,30.7085,2.54e-05
2015-06-04 00:00:00,2015-06-04 00:00:00,PRATE,surface,-106.875,30.7085,2.06e-05
2015-06-04 00:00:00,2015-06-04 00:00:00,PRATE,surface,-105.938,30.7085,1.9e-05
2015-06-04 00:00:00,2015-06-04 00:00:00,PRATE,surface,-105,30.7085,3.18e-05
2015-06-04 00:00:00,2015-06-04 00:00:00,PRATE,surface,-104.063,30.7085,3.6e-05
2015-06-04 00:00:00,2015-06-04 00:00:00,PRATE,surface,-103.125,30.7085,1.08e-05
2015-06-04 00:00:00,2015-06-04 00:00:00,PRATE,surface,-102.188,30.7085,4e-06
2015-06-04 00:00:00,2015-06-04 00:00:00,PRATE,surface,-101.25,30.7085,5.5e-06
2015-06-04 00:00:00,2015-06-04 00:00:00,PRATE,surface,-100.313,30.7085,1.1e-05
2015-06-04 00:00:00,2015-06-04 00:00:00,PRATE,surface,-99.3754,30.7085,2.92e-05
2015-06-04 00:00:00,2015-06-04 00:00:00,PRATE,surface,-98.4379,30.7085,4.18e-05
2015-06-04 00:00:00,2015-06-04 00:00:00,PRATE,surface,-97.5004,30.7085,3.48e-05
2015-06-04 00:00:00,2015-06-04 00:00:00,PRATE,surface,-96.5629,30.7085,3.42e-05
2015-06-04 00:00:00,2015-06-04 00:00:00,PRATE,surface,-95.6254,30.7085,4.91e-05
2015-06-04 00:00:00,2015-06-04 00:00:00,PRATE,surface,-94.6879,30.7085,5.32e-05
2015-06-04 00:00:00,2015-06-04 00:00:00,PRATE,surface,-93.7504,30.7085,5.1e-05
2015-06-04 00:00:00,2015-06-04 00:00:00,PRATE,surface,-92.8129,30.7085,6.17e-05
2015-06-04 00:00:00,2015-06-04 00:00:00,PRATE,surface,-107.813,31.6534,8.1e-06
2015-06-04 00:00:00,2015-06-04 00:00:00,PRATE,surface,-106.875,31.6534,1.23e-05
2015-06-04 00:00:00,2015-06-04 00:00:00,PRATE,surface,-105.938,31.6534,1.81e-05
2015-06-04 00:00:00,2015-06-04 00:00:00,PRATE,surface,-105,31.6534,1.62e-05
2015-06-04 00:00:00,2015-06-04 00:00:00,PRATE,surface,-104.063,31.6534,1.47e-05
2015-06-04 00:00:00,2015-06-04 00:00:00,PRATE,surface,-103.125,31.6534,6.8e-06
2015-06-04 00:00:00,2015-06-04 00:00:00,PRATE,surface,-102.188,31.6534,3e-06
2015-06-04 00:00:00,2015-06-04 00:00:00,PRATE,surface,-101.25,31.6534,3.7e-06
2015-06-04 00:00:00,2015-06-04 00:00:00,PRATE,surface,-100.313,31.6534,1.42e-05
2015-06-04 00:00:00,2015-06-04 00:00:00,PRATE,surface,-99.3754,31.6534,1.83e-05
2015-06-04 00:00:00,2015-06-04 00:00:00,PRATE,surface,-98.4379,31.6534,2.55e-05
2015-06-04 00:00:00,2015-06-04 00:00:00,PRATE,surface,-97.5004,31.6534,3.01e-05
2015-06-04 00:00:00,2015-06-04 00:00:00,PRATE,surface,-96.5629,31.6534,3.06e-05
2015-06-04 00:00:00,2015-06-04 00:00:00,PRATE,surface,-95.6254,31.6534,3.68e-05
2015-06-04 00:00:00,2015-06-04 00:00:00,PRATE,surface,-94.6879,31.6534,4.28e-05
2015-06-04 00:00:00,2015-06-04 00:00:00,PRATE,surface,-93.7504,31.6534,4.41e-05
2015-06-04 00:00:00,2015-06-04 00:00:00,PRATE,surface,-92.8129,31.6534,5.54e-05
2015-06-04 00:00:00,2015-06-04 00:00:00,PRATE,surface,-107.813,32.5983,1.09e-05
2015-06-04 00:00:00,2015-06-04 00:00:00,PRATE,surface,-106.875,32.5983,8.8e-06
2015-06-04 00:00:00,2015-06-04 00:00:00,PRATE,surface,-105.938,32.5983,1.4e-05
2015-06-04 00:00:00,2015-06-04 00:00:00,PRATE,surface,-105,32.5983,1.89e-05
2015-06-04 00:00:00,2015-06-04 00:00:00,PRATE,surface,-104.063,32.5983,8.9e-06
2015-06-04 00:00:00,2015-06-04 00:00:00,PRATE,surface,-103.125,32.5983,9.9e-06
2015-06-04 00:00:00,2015-06-04 00:00:00,PRATE,surface,-102.188,32.5983,9.3e-06
2015-06-04 00:00:00,2015-06-04 00:00:00,PRATE,surface,-101.25,32.5983,1.37e-05
2015-06-04 00:00:00,2015-06-04 00:00:00,PRATE,surface,-100.313,32.5983,1.23e-05
2015-06-04 00:00:00,2015-06-04 00:00:00,PRATE,surface,-99.3754,32.5983,1.64e-05
2015-06-04 00:00:00,2015-06-04 00:00:00,PRATE,surface,-98.4379,32.5983,2.16e-05
2015-06-04 00:00:00,2015-06-04 00:00:00,PRATE,surface,-97.5004,32.5983,2.76e-05
2015-06-04 00:00:00,2015-06-04 00:00:00,PRATE,surface,-96.5629,32.5983,2.92e-05
2015-06-04 00:00:00,2015-06-04 00:00:00,PRATE,surface,-95.6254,32.5983,2.53e-05
2015-06-04 00:00:00,2015-06-04 00:00:00,PRATE,surface,-94.6879,32.5983,2.93e-05
2015-06-04 00:00:00,2015-06-04 00:00:00,PRATE,surface,-93.7504,32.5983,3.91e-05
2015-06-04 00:00:00,2015-06-04 00:00:00,PRATE,surface,-92.8129,32.5983,3.99e-05
2015-06-04 00:00:00,2015-06-04 00:00:00,PRATE,surface,-107.813,33.5432,2.42e-05
2015-06-04 00:00:00,2015-06-04 00:00:00,PRATE,surface,-106.875,33.5432,2.43e-05
2015-06-04 00:00:00,2015-06-04 00:00:00,PRATE,surface,-105.938,33.5432,2.11e-05
2015-06-04 00:00:00,2015-06-04 00:00:00,PRATE,surface,-105,33.5432,3.54e-05
2015-06-04 00:00:00,2015-06-04 00:00:00,PRATE,surface,-104.063,33.5432,3.2e-05
2015-06-04 00:00:00,2015-06-04 00:00:00,PRATE,surface,-103.125,33.5432,1.87e-05
2015-06-04 00:00:00,2015-06-04 00:00:00,PRATE,surface,-102.188,33.5432,1.92e-05
2015-06-04 00:00:00,2015-06-04 00:00:00,PRATE,surface,-101.25,33.5432,2.76e-05
2015-06-04 00:00:00,2015-06-04 00:00:00,PRATE,surface,-100.313,33.5432,2.12e-05
2015-06-04 00:00:00,2015-06-04 00:00:00,PRATE,surface,-99.3754,33.5432,2.2e-05
2015-06-04 00:00:00,2015-06-04 00:00:00,PRATE,surface,-98.4379,33.5432,2.66e-05
2015-06-04 00:00:00,2015-06-04 00:00:00,PRATE,surface,-97.5004,33.5432,3.43e-05
2015-06-04 00:00:00,2015-06-04 00:00:00,PRATE,surface,-96.5629,33.5432,3.37e-05
2015-06-04 00:00:00,2015-06-04 00:00:00,PRATE,surface,-95.6254,33.5432,2.31e-05
2015-06-04 00:00:00,2015-06-04 00:00:00,PRATE,surface,-94.6879,33.5432,2.43e-05
2015-06-04 00:00:00,2015-06-04 00:00:00,PRATE,surface,-93.7504,33.5432,3.32e-05
2015-06-04 00:00:00,2015-06-04 00:00:00,PRATE,surface,-92.8129,33.5432,3.33e-05
2015-06-04 00:00:00,2015-06-04 00:00:00,PRATE,surface,-107.813,34.4881,1.62e-05
2015-06-04 00:00:00,2015-06-04 00:00:00,PRATE,surface,-106.875,34.4881,1.54e-05
2015-06-04 00:00:00,2015-06-04 00:00:00,PRATE,surface,-105.938,34.4881,2.1e-05
2015-06-04 00:00:00,2015-06-04 00:00:00,PRATE,surface,-105,34.4881,3.36e-05
2015-06-04 00:00:00,2015-06-04 00:00:00,PRATE,surface,-104.063,34.4881,2.65e-05
2015-06-04 00:00:00,2015-06-04 00:00:00,PRATE,surface,-103.125,34.4881,1.64e-05
2015-06-04 00:00:00,2015-06-04 00:00:00,PRATE,surface,-102.188,34.4881,1.55e-05
2015-06-04 00:00:00,2015-06-04 00:00:00,PRATE,surface,-101.25,34.4881,2.91e-05
2015-06-04 00:00:00,2015-06-04 00:00:00,PRATE,surface,-100.313,34.4881,3.95e-05
2015-06-04 00:00:00,2015-06-04 00:00:00,PRATE,surface,-99.3754,34.4881,4.44e-05
2015-06-04 00:00:00,2015-06-04 00:00:00,PRATE,surface,-98.4379,34.4881,4.68e-05
2015-06-04 00:00:00,2015-06-04 00:00:00,PRATE,surface,-97.5004,34.4881,5.2e-05
2015-06-04 00:00:00,2015-06-04 00:00:00,PRATE,surface,-96.5629,34.4881,4.87e-05
2015-06-04 00:00:00,2015-06-04 00:00:00,PRATE,surface,-95.6254,34.4881,3.88e-05
2015-06-04 00:00:00,2015-06-04 00:00:00,PRATE,surface,-94.6879,34.4881,3.87e-05
2015-06-04 00:00:00,2015-06-04 00:00:00,PRATE,surface,-93.7504,34.4881,3.8e-05
2015-06-04 00:00:00,2015-06-04 00:00:00,PRATE,surface,-92.8129,34.4881,3.58e-05
2015-06-04 00:00:00,2015-06-04 00:00:00,PRATE,surface,-107.813,35.4329,6.6e-06
2015-06-04 00:00:00,2015-06-04 00:00:00,PRATE,surface,-106.875,35.4329,8.7e-06
2015-06-04 00:00:00,2015-06-04 00:00:00,PRATE,surface,-105.938,35.4329,1.94e-05
2015-06-04 00:00:00,2015-06-04 00:00:00,PRATE,surface,-105,35.4329,2.94e-05
2015-06-04 00:00:00,2015-06-04 00:00:00,PRATE,surface,-104.063,35.4329,3.56e-05
2015-06-04 00:00:00,2015-06-04 00:00:00,PRATE,surface,-103.125,35.4329,2.87e-05
2015-06-04 00:00:00,2015-06-04 00:00:00,PRATE,surface,-102.188,35.4329,2.63e-05
2015-06-04 00:00:00,2015-06-04 00:00:00,PRATE,surface,-101.25,35.4329,6.08e-05
2015-06-04 00:00:00,2015-06-04 00:00:00,PRATE,surface,-100.313,35.4329,7.8e-05
2015-06-04 00:00:00,2015-06-04 00:00:00,PRATE,surface,-99.3754,35.4329,7.58e-05
2015-06-04 00:00:00,2015-06-04 00:00:00,PRATE,surface,-98.4379,35.4329,6.98e-05
2015-06-04 00:00:00,2015-06-04 00:00:00,PRATE,surface,-97.5004,35.4329,6.72e-05
2015-06-04 00:00:00,2015-06-04 00:00:00,PRATE,surface,-96.5629,35.4329,5.95e-05
2015-06-04 00:00:00,2015-06-04 00:00:00,PRATE,surface,-95.6254,35.4329,4.91e-05
2015-06-04 00:00:00,2015-06-04 00:00:00,PRATE,surface,-94.6879,35.4329,4.77e-05
2015-06-04 00:00:00,2015-06-04 00:00:00,PRATE,surface,-93.7504,35.4329,4.56e-05
2015-06-04 00:00:00,2015-06-04 00:00:00,PRATE,surface,-92.8129,35.4329,3.81e-05
2015-06-04 00:00:00,2015-06-04 00:00:00,PRATE,surface,-107.813,36.3778,7.9e-06
2015-06-04 00:00:00,2015-06-04 00:00:00,PRATE,surface,-106.875,36.3778,1.7e-05
2015-06-04 00:00:00,2015-06-04 00:00:00,PRATE,surface,-105.938,36.3778,3.31e-05
2015-06-04 00:00:00,2015-06-04 00:00:00,PRATE,surface,-105,36.3778,4.35e-05
2015-06-04 00:00:00,2015-06-04 00:00:00,PRATE,surface,-104.063,36.3778,4.9e-05
2015-06-04 00:00:00,2015-06-04 00:00:00,PRATE,surface,-103.125,36.3778,4.37e-05
2015-06-04 00:00:00,2015-06-04 00:00:00,PRATE,surface,-102.188,36.3778,5.09e-05
2015-06-04 00:00:00,2015-06-04 00:00:00,PRATE,surface,-101.25,36.3778,7.22e-05
2015-06-04 00:00:00,2015-06-04 00:00:00,PRATE,surface,-100.313,36.3778,9.98e-05
2015-06-04 00:00:00,2015-06-04 00:00:00,PRATE,surface,-99.3754,36.3778,9.45e-05
2015-06-04 00:00:00,2015-06-04 00:00:00,PRATE,surface,-98.4379,36.3778,7.56e-05
2015-06-04 00:00:00,2015-06-04 00:00:00,PRATE,surface,-97.5004,36.3778,6.33e-05
2015-06-04 00:00:00,2015-06-04 00:00:00,PRATE,surface,-96.5629,36.3778,4.74e-05
2015-06-04 00:00:00,2015-06-04 00:00:00,PRATE,surface,-95.6254,36.3778,3.56e-05
2015-06-04 00:00:00,2015-06-04 00:00:00,PRATE,surface,-94.6879,36.3778,3.86e-05
2015-06-04 00:00:00,2015-06-04 00:00:00,PRATE,surface,-93.7504,36.3778,3.64e-05
2015-06-04 00:00:00,2015-06-04 00:00:00,PRATE,surface,-92.8129,36.3778,3.64e-05
