2014-11-20 00:00:00,2014-11-20 00:00:00,TMP,surface,-107.813,25.0393,294.236
2014-11-20 00:00:00,2014-11-20 00:00:00,TMP,surface,-106.875,25.0393,288.296
2014-11-20 00:00:00,2014-11-20 00:00:00,TMP,surface,-105.938,25.0393,283.105
2014-11-20 00:00:00,2014-11-20 00:00:00,TMP,surface,-105,25.0393,280.492
2014-11-20 00:00:00,2014-11-20 00:00:00,TMP,surface,-104.063,25.0393,284.156
2014-11-20 00:00:00,2014-11-20 00:00:00,TMP,surface,-103.125,25.0393,285.1
2014-11-20 00:00:00,2014-11-20 00:00:00,TMP,surface,-102.188,25.0393,285.935
2014-11-20 00:00:00,2014-11-20 00:00:00,TMP,surface,-101.25,25.0393,285.169
2014-11-20 00:00:00,2014-11-20 00:00:00,TMP,surface,-100.313,25.0393,286.151
2014-11-20 00:00:00,2014-11-20 00:00:00,TMP,surface,-99.3754,25.0393,288.217
2014-11-20 00:00:00,2014-11-20 00:00:00,TMP,surface,-98.4379,25.0393,291.537
2014-11-20 00:00:00,2014-11-20 00:00:00,TMP,surface,-97.5004,25.0393,296.896
2014-11-20 00:00:00,2014-11-20 00:00:00,TMP,surface,-96.5629,25.0393,297.385
2014-11-20 00:00:00,2014-11-20 00:00:00,TMP,surface,-95.6254,25.0393,297.268
2014-11-20 00:00:00,2014-11-20 00:00:00,TMP,surface,-94.6879,25.0393,297.142
2014-11-20 00:00:00,2014-11-20 00:00:00,TMP,surface,-93.7504,25.0393,297.737
2014-11-20 00:00:00,2014-11-20 00:00:00,TMP,surface,-92.8129,25.0393,297.991
2014-11-20 00:00:00,2014-11-20 00:00:00,TMP,surface,-107.813,25.9842,288.7
2014-11-20 00:00:00,2014-11-20 00:00:00,TMP,surface,-106.875,25.9842,283.703
2014-11-20 00:00:00,2014-11-20 00:00:00,TMP,surface,-105.938,25.9842,280.635
2014-11-20 00:00:00,2014-11-20 00:00:00,TMP,surface,-105,25.9842,282.067
2014-11-20 00:00:00,2014-11-20 00:00:00,TMP,surface,-104.063,25.9842,285.209
2014-11-20 00:00:00,2014-11-20 00:00:00,TMP,surface,-103.125,25.9842,285.347
2014-11-20 00:00:00,2014-11-20 00:00:00,TMP,surface,-102.188,25.9842,286.004
2014-11-20 00:00:00,2014-11-20 00:00:00,TMP,surface,-101.25,25.9842,286.28
2014-11-20 00:00:00,2014-11-20 00:00:00,TMP,surface,-100.313,25.9842,286.788
2014-11-20 00:00:00,2014-11-20 00:00:00,TMP,surface,-99.3754,25.9842,289.008
2014-11-20 00:00:00,2014-11-20 00:00:00,TMP,surface,-98.4379,25.9842,291.014
2014-11-20 00:00:00,2014-11-20 00:00:00,TMP,surface,-97.5004,25.9842,292.921
2014-11-20 00:00:00,2014-11-20 00:00:00,TMP,surface,-96.5629,25.9842,296.643
2014-11-20 00:00:00,2014-11-20 00:00:00,TMP,surface,-95.6254,25.9842,296.832
2014-11-20 00:00:00,2014-11-20 00:00:00,TMP,surface,-94.6879,25.9842,296.931
2014-11-20 00:00:00,2014-11-20 00:00:00,TMP,surface,-93.7504,25.9842,297.435
2014-11-20 00:00:00,2014-11-20 00:00:00,TMP,surface,-92.8129,25.9842,297.654
2014-11-20 00:00:00,2014-11-20 00:00:00,TMP,surface,-107.813,26.929,284.761
2014-11-20 00:00:00,2014-11-20 00:00:00,TMP,surface,-106.875,26.929,280.086
2014-11-20 00:00:00,2014-11-20 00:00:00,TMP,surface,-105.938,26.929,281.804
2014-11-20 00:00:00,2014-11-20 00:00:00,TMP,surface,-105,26.929,284.142
2014-11-20 00:00:00,2014-11-20 00:00:00,TMP,surface,-104.063,26.929,284.449
2014-11-20 00:00:00,2014-11-20 00:00:00,TMP,surface,-103.125,26.929,283.736
2014-11-20 00:00:00,2014-11-20 00:00:00,TMP,surface,-102.188,26.929,285.014
2014-11-20 00:00:00,2014-11-20 00:00:00,TMP,surface,-101.25,26.929,286.655
2014-11-20 00:00:00,2014-11-20 00:00:00,TMP,surface,-100.313,26.929,287.473
2014-11-20 00:00:00,2014-11-20 00:00:00,TMP,surface,-99.3754,26.929,288.94
2014-11-20 00:00:00,2014-11-20 00:00:00,TMP,surface,-98.4379,26.929,289.684
2014-11-20 00:00:00,2014-11-20 00:00:00,TMP,surface,-97.5004,26.929,295.092
2014-11-20 00:00:00,2014-11-20 00:00:00,TMP,surface,-96.5629,26.929,295.855
2014-11-20 00:00:00,2014-11-20 00:00:00,TMP,surface,-95.6254,26.929,296.692
2014-11-20 00:00:00,2014-11-20 00:00:00,TMP,surface,-94.6879,26.929,296.879
2014-11-20 00:00:00,2014-11-20 00:00:00,TMP,surface,-93.7504,26.929,296.835
2014-11-20 00:00:00,2014-11-20 00:00:00,TMP,surface,-92.8129,26.929,296.843
2014-11-20 00:00:00,2014-11-20 00:00:00,TMP,surface,-107.813,27.8739,281.12
2014-11-20 00:00:00,2014-11-20 00:00:00,TMP,surface,-106.875,27.8739,279.337
2014-11-20 00:00:00,2014-11-20 00:00:00,TMP,surface,-105.938,27.8739,282.118
2014-11-20 00:00:00,2014-11-20 00:00:00,TMP,surface,-105,27.8739,283.937
2014-11-20 00:00:00,2014-11-20 00:00:00,TMP,surface,-104.063,27.8739,283.892
2014-11-20 00:00:00,2014-11-20 00:00:00,TMP,surface,-103.125,27.8739,283.491
2014-11-20 00:00:00,2014-11-20 00:00:00,TMP,surface,-102.188,27.8739,284.207
2014-11-20 00:00:00,2014-11-20 00:00:00,TMP,surface,-101.25,27.8739,285.363
2014-11-20 00:00:00,2014-11-20 00:00:00,TMP,surface,-100.313,27.8739,287.004
2014-11-20 00:00:00,2014-11-20 00:00:00,TMP,surface,-99.3754,27.8739,287.905
2014-11-20 00:00:00,2014-11-20 00:00:00,TMP,surface,-98.4379,27.8739,288.67
2014-11-20 00:00:00,2014-11-20 00:00:00,TMP,surface,-97.5004,27.8739,292.041
2014-11-20 00:00:00,2014-11-20 00:00:00,TMP,surface,-96.5629,27.8739,295.134
2014-11-20 00:00:00,2014-11-20 00:00:00,TMP,surface,-95.6254,27.8739,295.542
2014-11-20 00:00:00,2014-11-20 00:00:00,TMP,surface,-94.6879,27.8739,295.983
2014-11-20 00:00:00,2014-11-20 00:00:00,TMP,surface,-93.7504,27.8739,296.392
2014-11-20 00:00:00,2014-11-20 00:00:00,TMP,surface,-92.8129,27.8739,296.753
2014-11-20 00:00:00,2014-11-20 00:00:00,TMP,surface,-107.813,28.8188,279.332
2014-11-20 00:00:00,2014-11-20 00:00:00,TMP,surface,-106.875,28.8188,279.998
2014-11-20 00:00:00,2014-11-20 00:00:00,TMP,surface,-105.938,28.8188,282.508
2014-11-20 00:00:00,2014-11-20 00:00:00,TMP,surface,-105,28.8188,282.83
2014-11-20 00:00:00,2014-11-20 00:00:00,TMP,surface,-104.063,28.8188,282.148
2014-11-20 00:00:00,2014-11-20 00:00:00,TMP,surface,-103.125,28.8188,283.008
2014-11-20 00:00:00,2014-11-20 00:00:00,TMP,surface,-102.188,28.8188,283.323
2014-11-20 00:00:00,2014-11-20 00:00:00,TMP,surface,-101.25,28.8188,284.324
2014-11-20 00:00:00,2014-11-20 00:00:00,TMP,surface,-100.313,28.8188,285.473
2014-11-20 00:00:00,2014-11-20 00:00:00,TMP,surface,-99.3754,28.8188,286.182
2014-11-20 00:00:00,2014-11-20 00:00:00,TMP,surface,-98.4379,28.8188,286.817
2014-11-20 00:00:00,2014-11-20 00:00:00,TMP,surface,-97.5004,28.8188,287.63
2014-11-20 00:00:00,2014-11-20 00:00:00,TMP,surface,-96.5629,28.8188,288.468
2014-11-20 00:00:00,2014-11-20 00:00:00,TMP,surface,-95.6254,28.8188,290.636
2014-11-20 00:00:00,2014-11-20 00:00:00,TMP,surface,-94.6879,28.8188,293.767
2014-11-20 00:00:00,2014-11-20 00:00:00,TMP,surface,-93.7504,28.8188,294.644
2014-11-20 00:00:00,2014-11-20 00:00:00,TMP,surface,-92.8129,28.8188,295.339
2014-11-20 00:00:00,2014-11-20 00:00:00,TMP,surface,-107.813,29.7637,280.073
2014-11-20 00:00:00,2014-11-20 00:00:00,TMP,surface,-106.875,29.7637,281.359
2014-11-20 00:00:00,2014-11-20 00:00:00,TMP,surface,-105.938,29.7637,282.769
2014-11-20 00:00:00,2014-11-20 00:00:00,TMP,surface,-105,29.7637,281.835
2014-11-20 00:00:00,2014-11-20 00:00:00,TMP,surface,-104.063,29.7637,282.311
2014-11-20 00:00:00,2014-11-20 00:00:00,TMP,surface,-103.125,29.7637,283.329
2014-11-20 00:00:00,2014-11-20 00:00:00,TMP,surface,-102.188,29.7637,283.681
2014-11-20 00:00:00,2014-11-20 00:00:00,TMP,surface,-101.25,29.7637,283.713
2014-11-20 00:00:00,2014-11-20 00:00:00,TMP,surface,-100.313,29.7637,283.854
2014-11-20 00:00:00,2014-11-20 00:00:00,TMP,surface,-99.3754,29.7637,284.324
2014-11-20 00:00:00,2014-11-20 00:00:00,TMP,surface,-98.4379,29.7637,285.139
2014-11-20 00:00:00,2014-11-20 00:00:00,TMP,surface,-97.5004,29.7637,285.803
2014-11-20 00:00:00,2014-11-20 00:00:00,TMP,surface,-96.5629,29.7637,286.24
2014-11-20 00:00:00,2014-11-20 00:00:00,TMP,surface,-95.6254,29.7637,286.82
2014-11-20 00:00:00,2014-11-20 00:00:00,TMP,surface,-94.6879,29.7637,288.82
2014-11-20 00:00:00,2014-11-20 00:00:00,TMP,surface,-93.7504,29.7637,291.123
2014-11-20 00:00:00,2014-11-20 00:00:00,TMP,surface,-92.8129,29.7637,288.006
2014-11-20 00:00:00,2014-11-20 00:00:00,TMP,surface,-107.813,30.7085,281.603
2014-11-20 00:00:00,2014-11-20 00:00:00,TMP,surface,-106.875,30.7085,282.587
2014-11-20 00:00:00,2014-11-20 00:00:00,TMP,surface,-105.938,30.7085,282.209
2014-11-20 00:00:00,2014-11-20 00:00:00,TMP,surface,-105,30.7085,281.83
2014-11-20 00:00:00,2014-11-20 00:00:00,TMP,surface,-104.063,30.7085,281.862
2014-11-20 00:00:00,2014-11-20 00:00:00,TMP,surface,-103.125,30.7085,283.207
2014-11-20 00:00:00,2014-11-20 00:00:00,TMP,surface,-102.188,30.7085,283.262
2014-11-20 00:00:00,2014-11-20 00:00:00,TMP,surface,-101.25,30.7085,282.908
2014-11-20 00:00:00,2014-11-20 00:00:00,TMP,surface,-100.313,30.7085,282.939
2014-11-20 00:00:00,2014-11-20 00:00:00,TMP,surface,-99.3754,30.7085,283.404
2014-11-20 00:00:00,2014-11-20 00:00:00,TMP,surface,-98.4379,30.7085,284.179
2014-11-20 00:00:00,2014-11-20 00:00:00,TMP,surface,-97.5004,30.7085,284.849
2014-11-20 00:00:00,2014-11-20 00:00:00,TMP,surface,-96.5629,30.7085,285.337
2014-11-20 00:00:00,2014-11-20 00:00:00,TMP,surface,-95.6254,30.7085,285.715
2014-11-20 00:00:00,2014-11-20 00:00:00,TMP,surface,-94.6879,30.7085,285.849
2014-11-20 00:00:00,2014-11-20 00:00:00,TMP,surface,-93.7504,30.7085,285.798
2014-11-20 00:00:00,2014-11-20 00:00:00,TMP,surface,-92.8129,30.7085,285.534
2014-11-20 00:00:00,2014-11-20 00:00:00,TMP,surface,-107.813,31.6534,281.079
2014-11-20 00:00:00,2014-11-20 00:00:00,TMP,surface,-106.875,31.6534,281.603
2014-11-20 00:00:00,2014-11-20 00:00:00,TMP,surface,-105.938,31.6534,280.508
2014-11-20 00:00:00,2014-11-20 00:00:00,TMP,surface,-105,31.6534,280.894
2014-11-20 00:00:00,2014-11-20 00:00:00,TMP,surface,-104.063,31.6534,281.913
2014-11-20 00:00:00,2014-11-20 00:00:00,TMP,surface,-103.125,31.6534,282.608
2014-11-20 00:00:00,2014-11-20 00:00:00,TMP,surface,-102.188,31.6534,282.527
2014-11-20 00:00:00,2014-11-20 00:00:00,TMP,surface,-101.25,31.6534,282.315
2014-11-20 00:00:00,2014-11-20 00:00:00,TMP,surface,-100.313,31.6534,282.552
2014-11-20 00:00:00,2014-11-20 00:00:00,TMP,surface,-99.3754,31.6534,283.044
2014-11-20 00:00:00,2014-11-20 00:00:00,TMP,surface,-98.4379,31.6534,283.652
2014-11-20 00:00:00,2014-11-20 00:00:00,TMP,surface,-97.5004,31.6534,284.227
2014-11-20 00:00:00,2014-11-20 00:00:00,TMP,surface,-96.5629,31.6534,284.745
2014-11-20 00:00:00,2014-11-20 00:00:00,TMP,surface,-95.6254,31.6534,285.064
2014-11-20 00:00:00,2014-11-20 00:00:00,TMP,surface,-94.6879,31.6534,284.958
2014-11-20 00:00:00,2014-11-20 00:00:00,TMP,surface,-93.7504,31.6534,284.606
2014-11-20 00:00:00,2014-11-20 00:00:00,TMP,surface,-92.8129,31.6534,284.236
2014-11-20 00:00:00,2014-11-20 00:00:00,TMP,surface,-107.813,32.5983,278.807
2014-11-20 00:00:00,2014-11-20 00:00:00,TMP,surface,-106.875,32.5983,278.801
2014-11-20 00:00:00,2014-11-20 00:00:00,TMP,surface,-105.938,32.5983,279.382
2014-11-20 00:00:00,2014-11-20 00:00:00,TMP,surface,-105,32.5983,280.044
2014-11-20 00:00:00,2014-11-20 00:00:00,TMP,surface,-104.063,32.5983,280.827
2014-11-20 00:00:00,2014-11-20 00:00:00,TMP,surface,-103.125,32.5983,281.478
2014-11-20 00:00:00,2014-11-20 00:00:00,TMP,surface,-102.188,32.5983,281.66
2014-11-20 00:00:00,2014-11-20 00:00:00,TMP,surface,-101.25,32.5983,281.854
2014-11-20 00:00:00,2014-11-20 00:00:00,TMP,surface,-100.313,32.5983,282.374
2014-11-20 00:00:00,2014-11-20 00:00:00,TMP,surface,-99.3754,32.5983,282.745
2014-11-20 00:00:00,2014-11-20 00:00:00,TMP,surface,-98.4379,32.5983,283.075
2014-11-20 00:00:00,2014-11-20 00:00:00,TMP,surface,-97.5004,32.5983,283.497
2014-11-20 00:00:00,2014-11-20 00:00:00,TMP,surface,-96.5629,32.5983,283.947
2014-11-20 00:00:00,2014-11-20 00:00:00,TMP,surface,-95.6254,32.5983,284.182
2014-11-20 00:00:00,2014-11-20 00:00:00,TMP,surface,-94.6879,32.5983,283.974
2014-11-20 00:00:00,2014-11-20 00:00:00,TMP,surface,-93.7504,32.5983,283.619
2014-11-20 00:00:00,2014-11-20 00:00:00,TMP,surface,-92.8129,32.5983,283.518
2014-11-20 00:00:00,2014-11-20 00:00:00,TMP,surface,-107.813,33.5432,276.767
2014-11-20 00:00:00,2014-11-20 00:00:00,TMP,surface,-106.875,33.5432,277.639
2014-11-20 00:00:00,2014-11-20 00:00:00,TMP,surface,-105.938,33.5432,278.556
2014-11-20 00:00:00,2014-11-20 00:00:00,TMP,surface,-105,33.5432,279.276
2014-11-20 00:00:00,2014-11-20 00:00:00,TMP,surface,-104.063,33.5432,279.78
2014-11-20 00:00:00,2014-11-20 00:00:00,TMP,surface,-103.125,33.5432,280.255
2014-11-20 00:00:00,2014-11-20 00:00:00,TMP,surface,-102.188,33.5432,280.337
2014-11-20 00:00:00,2014-11-20 00:00:00,TMP,surface,-101.25,33.5432,280.766
2014-11-20 00:00:00,2014-11-20 00:00:00,TMP,surface,-100.313,33.5432,281.404
2014-11-20 00:00:00,2014-11-20 00:00:00,TMP,surface,-99.3754,33.5432,281.927
2014-11-20 00:00:00,2014-11-20 00:00:00,TMP,surface,-98.4379,33.5432,282.307
2014-11-20 00:00:00,2014-11-20 00:00:00,TMP,surface,-97.5004,33.5432,282.505
2014-11-20 00:00:00,2014-11-20 00:00:00,TMP,surface,-96.5629,33.5432,282.624
2014-11-20 00:00:00,2014-11-20 00:00:00,TMP,surface,-95.6254,33.5432,282.694
2014-11-20 00:00:00,2014-11-20 00:00:00,TMP,surface,-94.6879,33.5432,282.5
2014-11-20 00:00:00,2014-11-20 00:00:00,TMP,surface,-93.7504,33.5432,282.139
2014-11-20 00:00:00,2014-11-20 00:00:00,TMP,surface,-92.8129,33.5432,282.049
2014-11-20 00:00:00,2014-11-20 00:00:00,TMP,surface,-107.813,34.4881,275.112
2014-11-20 00:00:00,2014-11-20 00:00:00,TMP,surface,-106.875,34.4881,276.217
2014-11-20 00:00:00,2014-11-20 00:00:00,TMP,surface,-105.938,34.4881,277.091
2014-11-20 00:00:00,2014-11-20 00:00:00,TMP,surface,-105,34.4881,277.705
2014-11-20 00:00:00,2014-11-20 00:00:00,TMP,surface,-104.063,34.4881,278.384
2014-11-20 00:00:00,2014-11-20 00:00:00,TMP,surface,-103.125,34.4881,278.655
2014-11-20 00:00:00,2014-11-20 00:00:00,TMP,surface,-102.188,34.4881,279.012
2014-11-20 00:00:00,2014-11-20 00:00:00,TMP,surface,-101.25,34.4881,279.966
2014-11-20 00:00:00,2014-11-20 00:00:00,TMP,surface,-100.313,34.4881,280.753
2014-11-20 00:00:00,2014-11-20 00:00:00,TMP,surface,-99.3754,34.4881,281.308
2014-11-20 00:00:00,2014-11-20 00:00:00,TMP,surface,-98.4379,34.4881,281.468
2014-11-20 00:00:00,2014-11-20 00:00:00,TMP,surface,-97.5004,34.4881,281.484
2014-11-20 00:00:00,2014-11-20 00:00:00,TMP,surface,-96.5629,34.4881,281.545
2014-11-20 00:00:00,2014-11-20 00:00:00,TMP,surface,-95.6254,34.4881,281.235
2014-11-20 00:00:00,2014-11-20 00:00:00,TMP,surface,-94.6879,34.4881,280.489
2014-11-20 00:00:00,2014-11-20 00:00:00,TMP,surface,-93.7504,34.4881,280.038
2014-11-20 00:00:00,2014-11-20 00:00:00,TMP,surface,-92.8129,34.4881,280.134
2014-11-20 00:00:00,2014-11-20 00:00:00,TMP,surface,-107.813,35.4329,273.879
2014-11-20 00:00:00,2014-11-20 00:00:00,TMP,surface,-106.875,35.4329,274.438
2014-11-20 00:00:00,2014-11-20 00:00:00,TMP,surface,-105.938,35.4329,274.905
2014-11-20 00:00:00,2014-11-20 00:00:00,TMP,surface,-105,35.4329,275.639
2014-11-20 00:00:00,2014-11-20 00:00:00,TMP,surface,-104.063,35.4329,276.228
2014-11-20 00:00:00,2014-11-20 00:00:00,TMP,surface,-103.125,35.4329,277.382
2014-11-20 00:00:00,2014-11-20 00:00:00,TMP,surface,-102.188,35.4329,278.508
2014-11-20 00:00:00,2014-11-20 00:00:00,TMP,surface,-101.25,35.4329,279.359
2014-11-20 00:00:00,2014-11-20 00:00:00,TMP,surface,-100.313,35.4329,280.112
2014-11-20 00:00:00,2014-11-20 00:00:00,TMP,surface,-99.3754,35.4329,280.42
2014-11-20 00:00:00,2014-11-20 00:00:00,TMP,surface,-98.4379,35.4329,280.364
2014-11-20 00:00:00,2014-11-20 00:00:00,TMP,surface,-97.5004,35.4329,280.487
2014-11-20 00:00:00,2014-11-20 00:00:00,TMP,surface,-96.5629,35.4329,280.633
2014-11-20 00:00:00,2014-11-20 00:00:00,TMP,surface,-95.6254,35.4329,280.283
2014-11-20 00:00:00,2014-11-20 00:00:00,TMP,surface,-94.6879,35.4329,279.52
2014-11-20 00:00:00,2014-11-20 00:00:00,TMP,surface,-93.7504,35.4329,278.801
2014-11-20 00:00:00,2014-11-20 00:00:00,TMP,surface,-92.8129,35.4329,278.548
2014-11-20 00:00:00,2014-11-20 00:00:00,TMP,surface,-107.813,36.3778,271.535
2014-11-20 00:00:00,2014-11-20 00:00:00,TMP,surface,-106.875,36.3778,270.784
2014-11-20 00:00:00,2014-11-20 00:00:00,TMP,surface,-105.938,36.3778,271.574
2014-11-20 00:00:00,2014-11-20 00:00:00,TMP,surface,-105,36.3778,273.139
2014-11-20 00:00:00,2014-11-20 00:00:00,TMP,surface,-104.063,36.3778,274.441
2014-11-20 00:00:00,2014-11-20 00:00:00,TMP,surface,-103.125,36.3778,275.958
2014-11-20 00:00:00,2014-11-20 00:00:00,TMP,surface,-102.188,36.3778,277.412
2014-11-20 00:00:00,2014-11-20 00:00:00,TMP,surface,-101.25,36.3778,278.686
2014-11-20 00:00:00,2014-11-20 00:00:00,TMP,surface,-100.313,36.3778,279.54
2014-11-20 00:00:00,2014-11-20 00:00:00,TMP,surface,-99.3754,36.3778,279.873
2014-11-20 00:00:00,2014-11-20 00:00:00,TMP,surface,-98.4379,36.3778,279.71
2014-11-20 00:00:00,2014-11-20 00:00:00,TMP,surface,-97.5004,36.3778,279.599
2014-11-20 00:00:00,2014-11-20 00:00:00,TMP,surface,-96.5629,36.3778,279.608
2014-11-20 00:00:00,2014-11-20 00:00:00,TMP,surface,-95.6254,36.3778,279.294
2014-11-20 00:00:00,2014-11-20 00:00:00,TMP,surface,-94.6879,36.3778,278.583
2014-11-20 00:00:00,2014-11-20 00:00:00,TMP,surface,-93.7504,36.3778,277.804
2014-11-20 00:00:00,2014-11-20 00:00:00,TMP,surface,-92.8129,36.3778,277.465
2014-11-20 00:00:00,2014-11-20 00:00:00,PRATE,surface,-107.813,25.0393,0
2014-11-20 00:00:00,2014-11-20 00:00:00,PRATE,surface,-106.875,25.0393,0
2014-11-20 00:00:00,2014-11-20 00:00:00,PRATE,surface,-105.938,25.0393,0
2014-11-20 00:00:00,2014-11-20 00:00:00,PRATE,surface,-105,25.0393,0
2014-11-20 00:00:00,2014-11-20 00:00:00,PRATE,surface,-104.063,25.0393,0
2014-11-20 00:00:00,2014-11-20 00:00:00,PRATE,surface,-103.125,25.0393,0
2014-11-20 00:00:00,2014-11-20 00:00:00,PRATE,surface,-102.188,25.0393,0
2014-11-20 00:00:00,2014-11-20 00:00:00,PRATE,surface,-101.25,25.0393,2e-06
2014-11-20 00:00:00,2014-11-20 00:00:00,PRATE,surface,-100.313,25.0393,8e-06
2014-11-20 00:00:00,2014-11-20 00:00:00,PRATE,surface,-99.3754,25.0393,2.2e-06
2014-11-20 00:00:00,2014-11-20 00:00:00,PRATE,surface,-98.4379,25.0393,2.4e-06
2014-11-20 00:00:00,2014-11-20 00:00:00,PRATE,surface,-97.5004,25.0393,1.1e-05
2014-11-20 00:00:00,2014-11-20 00:00:00,PRATE,surface,-96.5629,25.0393,2.46e-05
2014-11-20 00:00:00,2014-11-20 00:00:00,PRATE,surface,-95.6254,25.0393,1.85e-05
2014-11-20 00:00:00,2014-11-20 00:00:00,PRATE,surface,-94.6879,25.0393,1.11e-05
2014-11-20 00:00:00,2014-11-20 00:00:00,PRATE,surface,-93.7504,25.0393,7.6e-06
2014-11-20 00:00:00,2014-11-20 00:00:00,PRATE,surface,-92.8129,25.0393,1.12e-05
2014-11-20 00:00:00,2014-11-20 00:00:00,PRATE,surface,-107.813,25.9842,0
2014-11-20 00:00:00,2014-11-20 00:00:00,PRATE,surface,-106.875,25.9842,0
2014-11-20 00:00:00,2014-11-20 00:00:00,PRATE,surface,-105.938,25.9842,0
2014-11-20 00:00:00,2014-11-20 00:00:00,PRATE,surface,-105,25.9842,0
2014-11-20 00:00:00,2014-11-20 00:00:00,PRATE,surface,-104.063,25.9842,2e-07
2014-11-20 00:00:00,2014-11-20 00:00:00,PRATE,surface,-103.125,25.9842,2e-07
2014-11-20 00:00:00,2014-11-20 00:00:00,PRATE,surface,-102.188,25.9842,7e-07
2014-11-20 00:00:00,2014-11-20 00:00:00,PRATE,surface,-101.25,25.9842,2.2e-06
2014-11-20 00:00:00,2014-11-20 00:00:00,PRATE,surface,-100.313,25.9842,6.9e-06
2014-11-20 00:00:00,2014-11-20 00:00:00,PRATE,surface,-99.3754,25.9842,3.7e-06
2014-11-20 00:00:00,2014-11-20 00:00:00,PRATE,surface,-98.4379,25.9842,6e-06
2014-11-20 00:00:00,2014-11-20 00:00:00,PRATE,surface,-97.5004,25.9842,1.63e-05
2014-11-20 00:00:00,2014-11-20 00:00:00,PRATE,surface,-96.5629,25.9842,2.38e-05
2014-11-20 00:00:00,2014-11-20 00:00:00,PRATE,surface,-95.6254,25.9842,2.02e-05
2014-11-20 00:00:00,2014-11-20 00:00:00,PRATE,surface,-94.6879,25.9842,1.76e-05
2014-11-20 00:00:00,2014-11-20 00:00:00,PRATE,surface,-93.7504,25.9842,2.11e-05
2014-11-20 00:00:00,2014-11-20 00:00:00,PRATE,surface,-92.8129,25.9842,1.59e-05
2014-11-20 00:00:00,2014-11-20 00:00:00,PRATE,surface,-107.813,26.929,1e-07
2014-11-20 00:00:00,2014-11-20 00:00:00,PRATE,surface,-106.875,26.929,1e-07
2014-11-20 00:00:00,2014-11-20 00:00:00,PRATE,surface,-105.938,26.929,0
2014-11-20 00:00:00,2014-11-20 00:00:00,PRATE,surface,-105,26.929,1e-07
2014-11-20 00:00:00,2014-11-20 00:00:00,PRATE,surface,-104.063,26.929,3e-07
2014-11-20 00:00:00,2014-11-20 00:00:00,PRATE,surface,-103.125,26.929,9e-07
2014-11-20 00:00:00,2014-11-20 00:00:00,PRATE,surface,-102.188,26.929,2.1e-06
2014-11-20 00:00:00,2014-11-20 00:00:00,PRATE,surface,-101.25,26.929,6.5e-06
2014-11-20 00:00:00,2014-11-20 00:00:00,PRATE,surface,-100.313,26.929,9.3e-06
2014-11-20 00:00:00,2014-11-20 00:00:00,PRATE,surface,-99.3754,26.929,1.2e-05
2014-11-20 00:00:00,2014-11-20 00:00:00,PRATE,surface,-98.4379,26.929,1.67e-05
2014-11-20 00:00:00,2014-11-20 00:00:00,PRATE,surface,-97.5004,26.929,2.12e-05
2014-11-20 00:00:00,2014-11-20 00:00:00,PRATE,surface,-96.5629,26.929,2.55e-05
2014-11-20 00:00:00,2014-11-20 00:00:00,PRATE,surface,-95.6254,26.929,2.67e-05
2014-11-20 00:00:00,2014-11-20 00:00:00,PRATE,surface,-94.6879,26.929,2.23e-05
2014-11-20 00:00:00,2014-11-20 00:00:00,PRATE,surface,-93.7504,26.929,2.38e-05
2014-11-20 00:00:00,2014-11-20 00:00:00,PRATE,surface,-92.8129,26.929,2.65e-05
2014-11-20 00:00:00,2014-11-20 00:00:00,PRATE,surface,-107.813,27.8739,2.1e-06
2014-11-20 00:00:00,2014-11-20 00:00:00,PRATE,surface,-106.875,27.8739,4e-07
2014-11-20 00:00:00,2014-11-20 00:00:00,PRATE,surface,-105.938,27.8739,0
2014-11-20 00:00:00,2014-11-20 00:00:00,PRATE,surface,-105,27.8739,3e-07
2014-11-20 00:00:00,2014-11-20 00:00:00,PRATE,surface,-104.063,27.8739,8e-07
2014-11-20 00:00:00,2014-11-20 00:00:00,PRATE,surface,-103.125,27.8739,1.4e-06
2014-11-20 00:00:00,2014-11-20 00:00:00,PRATE,surface,-102.188,27.8739,4.3e-06
2014-11-20 00:00:00,2014-11-20 00:00:00,PRATE,surface,-101.25,27.8739,7e-06
2014-11-20 00:00:00,2014-11-20 00:00:00,PRATE,surface,-100.313,27.8739,7.5e-06
2014-11-20 00:00:00,2014-11-20 00:00:00,PRATE,surface,-99.3754,27.8739,1.34e-05
2014-11-20 00:00:00,2014-11-20 00:00:00,PRATE,surface,-98.4379,27.8739,2.36e-05
2014-11-20 00:00:00,2014-11-20 00:00:00,PRATE,surface,-97.5004,27.8739,2.98e-05
2014-11-20 00:00:00,2014-11-20 00:00:00,PRATE,surface,-96.5629,27.8739,2.99e-05
2014-11-20 00:00:00,2014-11-20 00:00:00,PRATE,surface,-95.6254,27.8739,2.9e-05
2014-11-20 00:00:00,2014-11-20 00:00:00,PRATE,surface,-94.6879,27.8739,3.01e-05
2014-11-20 00:00:00,2014-11-20 00:00:00,PRATE,surface,-93.7504,27.8739,3.1e-05
2014-11-20 00:00:00,2014-11-20 00:00:00,PRATE,surface,-92.8129,27.8739,3.71e-05
2014-11-20 00:00:00,2014-11-20 00:00:00,PRATE,surface,-107.813,28.8188,2.9e-06
2014-11-20 00:00:00,2014-11-20 00:00:00,PRATE,surface,-106.875,28.8188,3e-07
2014-11-20 00:00:00,2014-11-20 00:00:00,PRATE,surface,-105.938,28.8188,0
2014-11-20 00:00:00,2014-11-20 00:00:00,PRATE,surface,-105,28.8188,6e-07
2014-11-20 00:00:00,2014-11-20 00:00:00,PRATE,surface,-104.063,28.8188,1.2e-06
2014-11-20 00:00:00,2014-11-20 00:00:00,PRATE,surface,-103.125,28.8188,1.2e-06
2014-11-20 00:00:00,2014-11-20 00:00:00,PRATE,surface,-102.188,28.8188,3.8e-06
2014-11-20 00:00:00,2014-11-20 00:00:00,PRATE,surface,-101.25,28.8188,5.5e-06
2014-11-20 00:00:00,2014-11-20 00:00:00,PRATE,surface,-100.313,28.8188,1.08e-05
2014-11-20 00:00:00,2014-11-20 00:00:00,PRATE,surface,-99.3754,28.8188,1.25e-05
2014-11-20 00:00:00,2014-11-20 00:00:00,PRATE,surface,-98.4379,28.8188,2.1e-05
2014-11-20 00:00:00,2014-11-20 00:00:00,PRATE,surface,-97.5004,28.8188,3.88e-05
2014-11-20 00:00:00,2014-11-20 00:00:00,PRATE,surface,-96.5629,28.8188,4.89e-05
2014-11-20 00:00:00,2014-11-20 00:00:00,PRATE,surface,-95.6254,28.8188,4.42e-05
2014-11-20 00:00:00,2014-11-20 00:00:00,PRATE,surface,-94.6879,28.8188,4.09e-05
2014-11-20 00:00:00,2014-11-20 00:00:00,PRATE,surface,-93.7504,28.8188,4.84e-05
2014-11-20 00:00:00,2014-11-20 00:00:00,PRATE,surface,-92.8129,28.8188,4.98e-05
2014-11-20 00:00:00,2014-11-20 00:00:00,PRATE,surface,-107.813,29.7637,2.4e-06
2014-11-20 00:00:00,2014-11-20 00:00:00,PRATE,surface,-106.875,29.7637,1e-06
2014-11-20 00:00:00,2014-11-20 00:00:00,PRATE,surface,-105.938,29.7637,6e-07
2014-11-20 00:00:00,2014-11-20 00:00:00,PRATE,surface,-105,29.7637,8e-07
2014-11-20 00:00:00,2014-11-20 00:00:00,PRATE,surface,-104.063,29.7637,1e-06
2014-11-20 00:00:00,2014-11-20 00:00:00,PRATE,surface,-103.125,29.7637,8e-07
2014-11-20 00:00:00,2014-11-20 00:00:00,PRATE,surface,-102.188,29.7637,3.9e-06
2014-11-20 00:00:00,2014-11-20 00:00:00,PRATE,surface,-101.25,29.7637,6.6e-06
2014-11-20 00:00:00,2014-11-20 00:00:00,PRATE,surface,-100.313,29.7637,1.62e-05
2014-11-20 00:00:00,2014-11-20 00:00:00,PRATE,surface,-99.3754,29.7637,1.62e-05
2014-11-20 00:00:00,2014-11-20 00:00:00,PRATE,surface,-98.4379,29.7637,1.59e-05
2014-11-20 00:00:00,2014-11-20 00:00:00,PRATE,surface,-97.5004,29.7637,2.61e-05
2014-11-20 00:00:00,2014-11-20 00:00:00,PRATE,surface,-96.5629,29.7637,4.32e-05
2014-11-20 00:00:00,2014-11-20 00:00:00,PRATE,surface,-95.6254,29.7637,5.64e-05
2014-11-20 00:00:00,2014-11-20 00:00:00,PRATE,surface,-94.6879,29.7637,5.93e-05
2014-11-20 00:00:00,2014-11-20 00:00:00,PRATE,surface,-93.7504,29.7637,5.88e-05
2014-11-20 00:00:00,2014-11-20 00:00:00,PRATE,surface,-92.8129,29.7637,6.08e-05
2014-11-20 00:00:00,2014-11-20 00:00:00,PRATE,surface,-107.813,30.7085,2e-06
2014-11-20 00:00:00,2014-11-20 00:00:00,PRATE,surface,-106.875,30.7085,1e-06
2014-11-20 00:00:00,2014-11-20 00:00:00,PRATE,surface,-105.938,30.7085,3e-07
2014-11-20 00:00:00,2014-11-20 00:00:00,PRATE,surface,-105,30.7085,4e-07
2014-11-20 00:00:00,2014-11-20 00:00:00,PRATE,surface,-104.063,30.7085,5e-07
2014-11-20 00:00:00,2014-11-20 00:00:00,PRATE,surface,-103.125,30.7085,5e-07
2014-11-20 00:00:00,2014-11-20 00:00:00,PRATE,surface,-102.188,30.7085,4.2e-06
2014-11-20 00:00:00,2014-11-20 00:00:00,PRATE,surface,-101.25,30.7085,1.09e-05
2014-11-20 00:00:00,2014-11-20 00:00:00,PRATE,surface,-100.313,30.7085,2e-05
2014-11-20 00:00:00,2014-11-20 00:00:00,PRATE,surface,-99.3754,30.7085,2.24e-05
2014-11-20 00:00:00,2014-11-20 00:00:00,PRATE,surface,-98.4379,30.7085,2.22e-05
2014-11-20 00:00:00,2014-11-20 00:00:00,PRATE,surface,-97.5004,30.7085,2.93e-05
2014-11-20 00:00:00,2014-11-20 00:00:00,PRATE,surface,-96.5629,30.7085,4.08e-05
2014-11-20 00:00:00,2014-11-20 00:00:00,PRATE,surface,-95.6254,30.7085,4.95e-05
2014-11-20 00:00:00,2014-11-20 00:00:00,PRATE,surface,-94.6879,30.7085,5.84e-05
2014-11-20 00:00:00,2014-11-20 00:00:00,PRATE,surface,-93.7504,30.7085,6.89e-05
2014-11-20 00:00:00,2014-11-20 00:00:00,PRATE,surface,-92.8129,30.7085,6.84e-05
2014-11-20 00:00:00,2014-11-20 00:00:00,PRATE,surface,-107.813,31.6534,1.5e-06
2014-11-20 00:00:00,2014-11-20 00:00:00,PRATE,surface,-106.875,31.6534,1e-06
2014-11-20 00:00:00,2014-11-20 00:00:00,PRATE,surface,-105.938,31.6534,3e-07
2014-11-20 00:00:00,2014-11-20 00:00:00,PRATE,surface,-105,31.6534,5e-07
2014-11-20 00:00:00,2014-11-20 00:00:00,PRATE,surface,-104.063,31.6534,3e-07
2014-11-20 00:00:00,2014-11-20 00:00:00,PRATE,surface,-103.125,31.6534,1.5e-06
2014-11-20 00:00:00,2014-11-20 00:00:00,PRATE,surface,-102.188,31.6534,1.01e-05
2014-11-20 00:00:00,2014-11-20 00:00:00,PRATE,surface,-101.25,31.6534,1.62e-05
2014-11-20 00:00:00,2014-11-20 00:00:00,PRATE,surface,-100.313,31.6534,2.02e-05
2014-11-20 00:00:00,2014-11-20 00:00:00,PRATE,surface,-99.3754,31.6534,2.37e-05
2014-11-20 00:00:00,2014-11-20 00:00:00,PRATE,surface,-98.4379,31.6534,2.81e-05
2014-11-20 00:00:00,2014-11-20 00:00:00,PRATE,surface,-97.5004,31.6534,3.48e-05
2014-11-20 00:00:00,2014-11-20 00:00:00,PRATE,surface,-96.5629,31.6534,4.05e-05
2014-11-20 00:00:00,2014-11-20 00:00:00,PRATE,surface,-95.6254,31.6534,4.41e-05
2014-11-20 00:00:00,2014-11-20 00:00:00,PRATE,surface,-94.6879,31.6534,5.15e-05
2014-11-20 00:00:00,2014-11-20 00:00:00,PRATE,surface,-93.7504,31.6534,6.25e-05
2014-11-20 00:00:00,2014-11-20 00:00:00,PRATE,surface,-92.8129,31.6534,6.84e-05
2014-11-20 00:00:00,2014-11-20 00:00:00,PRATE,surface,-107.813,32.5983,2.2e-06
2014-11-20 00:00:00,2014-11-20 00:00:00,PRATE,surface,-106.875,32.5983,2.4e-06
2014-11-20 00:00:00,2014-11-20 00:00:00,PRATE,surface,-105.938,32.5983,5e-07
2014-11-20 00:00:00,2014-11-20 00:00:00,PRATE,surface,-105,32.5983,4e-07
2014-11-20 00:00:00,2014-11-20 00:00:00,PRATE,surface,-104.063,32.5983,1.5e-06
2014-11-20 00:00:00,2014-11-20 00:00:00,PRATE,surface,-103.125,32.5983,4.9e-06
2014-11-20 00:00:00,2014-11-20 00:00:00,PRATE,surface,-102.188,32.5983,7.9e-06
2014-11-20 00:00:00,2014-11-20 00:00:00,PRATE,surface,-101.25,32.5983,1.85e-05
2014-11-20 00:00:00,2014-11-20 00:00:00,PRATE,surface,-100.313,32.5983,2.08e-05
2014-11-20 00:00:00,2014-11-20 00:00:00,PRATE,surface,-99.3754,32.5983,2.56e-05
2014-11-20 00:00:00,2014-11-20 00:00:00,PRATE,surface,-98.4379,32.5983,3.39e-05
2014-11-20 00:00:00,2014-11-20 00:00:00,PRATE,surface,-97.5004,32.5983,4.21e-05
2014-11-20 00:00:00,2014-11-20 00:00:00,PRATE,surface,-96.5629,32.5983,4.32e-05
2014-11-20 00:00:00,2014-11-20 00:00:00,PRATE,surface,-95.6254,32.5983,4.05e-05
2014-11-20 00:00:00,2014-11-20 00:00:00,PRATE,surface,-94.6879,32.5983,4.6e-05
2014-11-20 00:00:00,2014-11-20 00:00:00,PRATE,surface,-93.7504,32.5983,5.52e-05
2014-11-20 00:00:00,2014-11-20 00:00:00,PRATE,surface,-92.8129,32.5983,5.98e-05
2014-11-20 00:00:00,2014-11-20 00:00:00,PRATE,surface,-107.813,33.5432,4.7e-06
2014-11-20 00:00:00,2014-11-20 00:00:00,PRATE,surface,-106.875,33.5432,2.6e-06
2014-11-20 00:00:00,2014-11-20 00:00:00,PRATE,surface,-105.938,33.5432,3e-07
2014-11-20 00:00:00,2014-11-20 00:00:00,PRATE,surface,-105,33.5432,5e-07
2014-11-20 00:00:00,2014-11-20 00:00:00,PRATE,surface,-104.063,33.5432,3.9e-06
2014-11-20 00:00:00,2014-11-20 00:00:00,PRATE,surface,-103.125,33.5432,9.1e-06
2014-11-20 00:00:00,2014-11-20 00:00:00,PRATE,surface,-102.188,33.5432,9.4e-06
2014-11-20 00:00:00,2014-11-20 00:00:00,PRATE,surface,-101.25,33.5432,7.5e-06
2014-11-20 00:00:00,2014-11-20 00:00:00,PRATE,surface,-100.313,33.5432,1.62e-05
2014-11-20 00:00:00,2014-11-20 00:00:00,PRATE,surface,-99.3754,33.5432,2.64e-05
2014-11-20 00:00:00,2014-11-20 00:00:00,PRATE,surface,-98.4379,33.5432,3.92e-05
2014-11-20 00:00:00,2014-11-20 00:00:00,PRATE,surface,-97.5004,33.5432,4.87e-05
2014-11-20 00:00:00,2014-11-20 00:00:00,PRATE,surface,-96.5629,33.5432,4.84e-05
2014-11-20 00:00:00,2014-11-20 00:00:00,PRATE,surface,-95.6254,33.5432,4.44e-05
2014-11-20 00:00:00,2014-11-20 00:00:00,PRATE,surface,-94.6879,33.5432,4.55e-05
2014-11-20 00:00:00,2014-11-20 00:00:00,PRATE,surface,-93.7504,33.5432,5.31e-05
2014-11-20 00:00:00,2014-11-20 00:00:00,PRATE,surface,-92.8129,33.5432,6.26e-05
2014-11-20 00:00:00,2014-11-20 00:00:00,PRATE,surface,-107.813,34.4881,5e-06
2014-11-20 00:00:00,2014-11-20 00:00:00,PRATE,surface,-106.875,34.4881,1.5e-06
2014-11-20 00:00:00,2014-11-20 00:00:00,PRATE,surface,-105.938,34.4881,0
2014-11-20 00:00:00,2014-11-20 00:00:00,PRATE,surface,-105,34.4881,4e-07
2014-11-20 00:00:00,2014-11-20 00:00:00,PRATE,surface,-104.063,34.4881,7.5e-06
2014-11-20 00:00:00,2014-11-20 00:00:00,PRATE,surface,-103.125,34.4881,1.35e-05
2014-11-20 00:00:00,2014-11-20 00:00:00,PRATE,surface,-102.188,34.4881,1.09e-05
2014-11-20 00:00:00,2014-11-20 00:00:00,PRATE,surface,-101.25,34.4881,5.4e-06
2014-11-20 00:00:00,2014-11-20 00:00:00,PRATE,surface,-100.313,34.4881,3.8e-06
2014-11-20 00:00:00,2014-11-20 00:00:00,PRATE,surface,-99.3754,34.4881,6.6e-06
2014-11-20 00:00:00,2014-11-20 00:00:00,PRATE,surface,-98.4379,34.4881,2.1e-05
2014-11-20 00:00:00,2014-11-20 00:00:00,PRATE,surface,-97.5004,34.4881,3.72e-05
2014-11-20 00:00:00,2014-11-20 00:00:00,PRATE,surface,-96.5629,34.4881,4.36e-05
2014-11-20 00:00:00,2014-11-20 00:00:00,PRATE,surface,-95.6254,34.4881,4.27e-05
2014-11-20 00:00:00,2014-11-20 00:00:00,PRATE,surface,-94.6879,34.4881,4.29e-05
2014-11-20 00:00:00,2014-11-20 00:00:00,PRATE,surface,-93.7504,34.4881,4.93e-05
2014-11-20 00:00:00,2014-11-20 00:00:00,PRATE,surface,-92.8129,34.4881,5.79e-05
2014-11-20 00:00:00,2014-11-20 00:00:00,PRATE,surface,-107.813,35.4329,4.3e-06
2014-11-20 00:00:00,2014-11-20 00:00:00,PRATE,surface,-106.875,35.4329,7e-07
2014-11-20 00:00:00,2014-11-20 00:00:00,PRATE,surface,-105.938,35.4329,1e-07
2014-11-20 00:00:00,2014-11-20 00:00:00,PRATE,surface,-105,35.4329,1e-06
2014-11-20 00:00:00,2014-11-20 00:00:00,PRATE,surface,-104.063,35.4329,1.34e-05
2014-11-20 00:00:00,2014-11-20 00:00:00,PRATE,surface,-103.125,35.4329,1.98e-05
2014-11-20 00:00:00,2014-11-20 00:00:00,PRATE,surface,-102.188,35.4329,1.2e-05
2014-11-20 00:00:00,2014-11-20 00:00:00,PRATE,surface,-101.25,35.4329,4.2e-06
2014-11-20 00:00:00,2014-11-20 00:00:00,PRATE,surface,-100.313,35.4329,2e-06
2014-11-20 00:00:00,2014-11-20 00:00:00,PRATE,surface,-99.3754,35.4329,3.4e-06
2014-11-20 00:00:00,2014-11-20 00:00:00,PRATE,surface,-98.4379,35.4329,1.35e-05
2014-11-20 00:00:00,2014-11-20 00:00:00,PRATE,surface,-97.5004,35.4329,2.57e-05
2014-11-20 00:00:00,2014-11-20 00:00:00,PRATE,surface,-96.5629,35.4329,3.24e-05
2014-11-20 00:00:00,2014-11-20 00:00:00,PRATE,surface,-95.6254,35.4329,3.38e-05
2014-11-20 00:00:00,2014-11-20 00:00:00,PRATE,surface,-94.6879,35.4329,3.36e-05
2014-11-20 00:00:00,2014-11-20 00:00:00,PRATE,surface,-93.7504,35.4329,3.68e-05
2014-11-20 00:00:00,2014-11-20 00:00:00,PRATE,surface,-92.8129,35.4329,4.15e-05
2014-11-20 00:00:00,2014-11-20 00:00:00,PRATE,surface,-107.813,36.3778,4.1e-06
2014-11-20 00:00:00,2014-11-20 00:00:00,PRATE,surface,-106.875,36.3778,1.8e-06
2014-11-20 00:00:00,2014-11-20 00:00:00,PRATE,surface,-105.938,36.3778,1e-06
2014-11-20 00:00:00,2014-11-20 00:00:00,PRATE,surface,-105,36.3778,5.1e-06
2014-11-20 00:00:00,2014-11-20 00:00:00,PRATE,surface,-104.063,36.3778,2.05e-05
2014-11-20 00:00:00,2014-11-20 00:00:00,PRATE,surface,-103.125,36.3778,2.23e-05
2014-11-20 00:00:00,2014-11-20 00:00:00,PRATE,surface,-102.188,36.3778,1.1e-05
2014-11-20 00:00:00,2014-11-20 00:00:00,PRATE,surface,-101.25,36.3778,3.5e-06
2014-11-20 00:00:00,2014-11-20 00:00:00,PRATE,surface,-100.313,36.3778,1.6e-06
2014-11-20 00:00:00,2014-11-20 00:00:00,PRATE,surface,-99.3754,36.3778,1.7e-06
2014-11-20 00:00:00,2014-11-20 00:00:00,PRATE,surface,-98.4379,36.3778,7.5e-06
2014-11-20 00:00:00,2014-11-20 00:00:00,PRATE,surface,-97.5004,36.3778,1.75e-05
2014-11-20 00:00:00,2014-11-20 00:00:00,PRATE,surface,-96.5629,36.3778,2.32e-05
2014-11-20 00:00:00,2014-11-20 00:00:00,PRATE,surface,-95.6254,36.3778,2.55e-05
2014-11-20 00:00:00,2014-11-20 00:00:00,PRATE,surface,-94.6879,36.3778,2.89e-05
2014-11-20 00:00:00,2014-11-20 00:00:00,PRATE,surface,-93.7504,36.3778,3.04e-05
2014-11-20 00:00:00,2014-11-20 00:00:00,PRATE,surface,-92.8129,36.3778,3.57e-05
