2013-03-29 00:00:00,2013-03-29 00:00:00,TMP,surface,-107.813,25.0393,297.055
2013-03-29 00:00:00,2013-03-29 00:00:00,TMP,surface,-106.875,25.0393,289.842
2013-03-29 00:00:00,2013-03-29 00:00:00,TMP,surface,-105.938,25.0393,283.793
2013-03-29 00:00:00,2013-03-29 00:00:00,TMP,surface,-105,25.0393,281.349
2013-03-29 00:00:00,2013-03-29 00:00:00,TMP,surface,-104.063,25.0393,284.74
2013-03-29 00:00:00,2013-03-29 00:00:00,TMP,surface,-103.125,25.0393,287.268
2013-03-29 00:00:00,2013-03-29 00:00:00,TMP,surface,-102.188,25.0393,287.503
2013-03-29 00:00:00,2013-03-29 00:00:00,TMP,surface,-101.25,25.0393,285.719
2013-03-29 00:00:00,2013-03-29 00:00:00,TMP,surface,-100.313,25.0393,286.162
2013-03-29 00:00:00,2013-03-29 00:00:00,TMP,surface,-99.3754,25.0393,289.548
2013-03-29 00:00:00,2013-03-29 00:00:00,TMP,surface,-98.4379,25.0393,293.623
2013-03-29 00:00:00,2013-03-29 00:00:00,TMP,surface,-97.5004,25.0393,299.004
2013-03-29 00:00:00,2013-03-29 00:00:00,TMP,surface,-96.5629,25.0393,299.544
2013-03-29 00:00:00,2013-03-29 00:00:00,TMP,surface,-95.6254,25.0393,299.628
2013-03-29 00:00:00,2013-03-29 00:00:00,TMP,surface,-94.6879,25.0393,299.663
2013-03-29 00:00:00,2013-03-29 00:00:00,TMP,surface,-93.7504,25.0393,299.429
2013-03-29 00:00:00,2013-03-29 00:00:00,TMP,surface,-92.8129,25.0393,299.191
2013-03-29 00:00:00,2013-03-29 00:00:00,TMP,surface,-107.813,25.9842,290.858
2013-03-29 00:00:00,2013-03-29 00:00:00,TMP,surface,-106.875,25.9842,284.877
2013-03-29 00:00:00,2013-03-29 00:00:00,TMP,surface,-105.938,25.9842,281.746
2013-03-29 00:00:00,2013-03-29 00:00:00,TMP,surface,-105,25.9842,283.5
2013-03-29 00:00:00,2013-03-29 00:00:00,TMP,surface,-104.063,25.9842,287.09
2013-03-29 00:00:00,2013-03-29 00:00:00,TMP,surface,-103.125,25.9842,288.74
2013-03-29 00:00:00,2013-03-29 00:00:00,TMP,surface,-102.188,25.9842,288.485
2013-03-29 00:00:00,2013-03-29 00:00:00,TMP,surface,-101.25,25.9842,287.432
2013-03-29 00:00:00,2013-03-29 00:00:00,TMP,surface,-100.313,25.9842,287.809
2013-03-29 00:00:00,2013-03-29 00:00:00,TMP,surface,-99.3754,25.9842,291.125
2013-03-29 00:00:00,2013-03-29 00:00:00,TMP,surface,-98.4379,25.9842,293.816
2013-03-29 00:00:00,2013-03-29 00:00:00,TMP,surface,-97.5004,25.9842,295.154
2013-03-29 00:00:00,2013-03-29 00:00:00,TMP,surface,-96.5629,25.9842,299.111
2013-03-29 00:00:00,2013-03-29 00:00:00,TMP,surface,-95.6254,25.9842,299.399
2013-03-29 00:00:00,2013-03-29 00:00:00,TMP,surface,-94.6879,25.9842,299.538
2013-03-29 00:00:00,2013-03-29 00:00:00,TMP,surface,-93.7504,25.9842,299.469
2013-03-29 00:00:00,2013-03-29 00:00:00,TMP,surface,-92.8129,25.9842,299.409
2013-03-29 00:00:00,2013-03-29 00:00:00,TMP,surface,-107.813,26.929,285.847
2013-03-29 00:00:00,2013-03-29 00:00:00,TMP,surface,-106.875,26.929,281.703
2013-03-29 00:00:00,2013-03-29 00:00:00,TMP,surface,-105.938,26.929,283.152
2013-03-29 00:00:00,2013-03-29 00:00:00,TMP,surface,-105,26.929,286.362
2013-03-29 00:00:00,2013-03-29 00:00:00,TMP,surface,-104.063,26.929,287.592
2013-03-29 00:00:00,2013-03-29 00:00:00,TMP,surface,-103.125,26.929,287.229
2013-03-29 00:00:00,2013-03-29 00:00:00,TMP,surface,-102.188,26.929,287.108
2013-03-29 00:00:00,2013-03-29 00:00:00,TMP,surface,-101.25,26.929,287.973
2013-03-29 00:00:00,2013-03-29 00:00:00,TMP,surface,-100.313,26.929,289.311
2013-03-29 00:00:00,2013-03-29 00:00:00,TMP,surface,-99.3754,26.929,291.368
2013-03-29 00:00:00,2013-03-29 00:00:00,TMP,surface,-98.4379,26.929,292.418
2013-03-29 00:00:00,2013-03-29 00:00:00,TMP,surface,-97.5004,26.929,297.263
2013-03-29 00:00:00,2013-03-29 00:00:00,TMP,surface,-96.5629,26.929,298.33
2013-03-29 00:00:00,2013-03-29 00:00:00,TMP,surface,-95.6254,26.929,299.157
2013-03-29 00:00:00,2013-03-29 00:00:00,TMP,surface,-94.6879,26.929,299.359
2013-03-29 00:00:00,2013-03-29 00:00:00,TMP,surface,-93.7504,26.929,299.221
2013-03-29 00:00:00,2013-03-29 00:00:00,TMP,surface,-92.8129,26.929,299.104
2013-03-29 00:00:00,2013-03-29 00:00:00,TMP,surface,-107.813,27.8739,282.557
2013-03-29 00:00:00,2013-03-29 00:00:00,TMP,surface,-106.875,27.8739,281.149
2013-03-29 00:00:00,2013-03-29 00:00:00,TMP,surface,-105.938,27.8739,284.543
2013-03-29 00:00:00,2013-03-29 00:00:00,TMP,surface,-105,27.8739,287.071
2013-03-29 00:00:00,2013-03-29 00:00:00,TMP,surface,-104.063,27.8739,287.02
2013-03-29 00:00:00,2013-03-29 00:00:00,TMP,surface,-103.125,27.8739,285.885
2013-03-29 00:00:00,2013-03-29 00:00:00,TMP,surface,-102.188,27.8739,285.956
2013-03-29 00:00:00,2013-03-29 00:00:00,TMP,surface,-101.25,27.8739,287.409
2013-03-29 00:00:00,2013-03-29 00:00:00,TMP,surface,-100.313,27.8739,289.231
2013-03-29 00:00:00,2013-03-29 00:00:00,TMP,surface,-99.3754,27.8739,290.081
2013-03-29 00:00:00,2013-03-29 00:00:00,TMP,surface,-98.4379,27.8739,290.53
2013-03-29 00:00:00,2013-03-29 00:00:00,TMP,surface,-97.5004,27.8739,294.289
2013-03-29 00:00:00,2013-03-29 00:00:00,TMP,surface,-96.5629,27.8739,298.191
2013-03-29 00:00:00,2013-03-29 00:00:00,TMP,surface,-95.6254,27.8739,298.69
2013-03-29 00:00:00,2013-03-29 00:00:00,TMP,surface,-94.6879,27.8739,298.57
2013-03-29 00:00:00,2013-03-29 00:00:00,TMP,surface,-93.7504,27.8739,298.239
2013-03-29 00:00:00,2013-03-29 00:00:00,TMP,surface,-92.8129,27.8739,298.044
2013-03-29 00:00:00,2013-03-29 00:00:00,TMP,surface,-107.813,28.8188,281.124
2013-03-29 00:00:00,2013-03-29 00:00:00,TMP,surface,-106.875,28.8188,281.698
2013-03-29 00:00:00,2013-03-29 00:00:00,TMP,surface,-105.938,28.8188,284.829
2013-03-29 00:00:00,2013-03-29 00:00:00,TMP,surface,-105,28.8188,286.417
2013-03-29 00:00:00,2013-03-29 00:00:00,TMP,surface,-104.063,28.8188,285.709
2013-03-29 00:00:00,2013-03-29 00:00:00,TMP,surface,-103.125,28.8188,284.967
2013-03-29 00:00:00,2013-03-29 00:00:00,TMP,surface,-102.188,28.8188,285.429
2013-03-29 00:00:00,2013-03-29 00:00:00,TMP,surface,-101.25,28.8188,286.994
2013-03-29 00:00:00,2013-03-29 00:00:00,TMP,surface,-100.313,28.8188,287.962
2013-03-29 00:00:00,2013-03-29 00:00:00,TMP,surface,-99.3754,28.8188,288.047
2013-03-29 00:00:00,2013-03-29 00:00:00,TMP,surface,-98.4379,28.8188,288.193
2013-03-29 00:00:00,2013-03-29 00:00:00,TMP,surface,-97.5004,28.8188,289.079
2013-03-29 00:00:00,2013-03-29 00:00:00,TMP,surface,-96.5629,28.8188,290.359
2013-03-29 00:00:00,2013-03-29 00:00:00,TMP,surface,-95.6254,28.8188,293.684
2013-03-29 00:00:00,2013-03-29 00:00:00,TMP,surface,-94.6879,28.8188,297.852
2013-03-29 00:00:00,2013-03-29 00:00:00,TMP,surface,-93.7504,28.8188,297.484
2013-03-29 00:00:00,2013-03-29 00:00:00,TMP,surface,-92.8129,28.8188,297.338
2013-03-29 00:00:00,2013-03-29 00:00:00,TMP,surface,-107.813,29.7637,282.026
2013-03-29 00:00:00,2013-03-29 00:00:00,TMP,surface,-106.875,29.7637,283.066
2013-03-29 00:00:00,2013-03-29 00:00:00,TMP,surface,-105.938,29.7637,285.074
2013-03-29 00:00:00,2013-03-29 00:00:00,TMP,surface,-105,29.7637,285.226
2013-03-29 00:00:00,2013-03-29 00:00:00,TMP,surface,-104.063,29.7637,285.1
2013-03-29 00:00:00,2013-03-29 00:00:00,TMP,surface,-103.125,29.7637,285.3
2013-03-29 00:00:00,2013-03-29 00:00:00,TMP,surface,-102.188,29.7637,286.055
2013-03-29 00:00:00,2013-03-29 00:00:00,TMP,surface,-101.25,29.7637,286.725
2013-03-29 00:00:00,2013-03-29 00:00:00,TMP,surface,-100.313,29.7637,286.604
2013-03-29 00:00:00,2013-03-29 00:00:00,TMP,surface,-99.3754,29.7637,286.266
2013-03-29 00:00:00,2013-03-29 00:00:00,TMP,surface,-98.4379,29.7637,286.42
2013-03-29 00:00:00,2013-03-29 00:00:00,TMP,surface,-97.5004,29.7637,287.009
2013-03-29 00:00:00,2013-03-29 00:00:00,TMP,surface,-96.5629,29.7637,287.857
2013-03-29 00:00:00,2013-03-29 00:00:00,TMP,surface,-95.6254,29.7637,288.839
2013-03-29 00:00:00,2013-03-29 00:00:00,TMP,surface,-94.6879,29.7637,291.812
2013-03-29 00:00:00,2013-03-29 00:00:00,TMP,surface,-93.7504,29.7637,295.096
2013-03-29 00:00:00,2013-03-29 00:00:00,TMP,surface,-92.8129,29.7637,289.29
2013-03-29 00:00:00,2013-03-29 00:00:00,TMP,surface,-107.813,30.7085,283.978
2013-03-29 00:00:00,2013-03-29 00:00:00,TMP,surface,-106.875,30.7085,284.916
2013-03-29 00:00:00,2013-03-29 00:00:00,TMP,surface,-105.938,30.7085,284.868
2013-03-29 00:00:00,2013-03-29 00:00:00,TMP,surface,-105,30.7085,284.424
2013-03-29 00:00:00,2013-03-29 00:00:00,TMP,surface,-104.063,30.7085,284.253
2013-03-29 00:00:00,2013-03-29 00:00:00,TMP,surface,-103.125,30.7085,285.191
2013-03-29 00:00:00,2013-03-29 00:00:00,TMP,surface,-102.188,30.7085,285.906
2013-03-29 00:00:00,2013-03-29 00:00:00,TMP,surface,-101.25,30.7085,285.872
2013-03-29 00:00:00,2013-03-29 00:00:00,TMP,surface,-100.313,30.7085,285.62
2013-03-29 00:00:00,2013-03-29 00:00:00,TMP,surface,-99.3754,30.7085,285.672
2013-03-29 00:00:00,2013-03-29 00:00:00,TMP,surface,-98.4379,30.7085,286.033
2013-03-29 00:00:00,2013-03-29 00:00:00,TMP,surface,-97.5004,30.7085,286.405
2013-03-29 00:00:00,2013-03-29 00:00:00,TMP,surface,-96.5629,30.7085,286.641
2013-03-29 00:00:00,2013-03-29 00:00:00,TMP,surface,-95.6254,30.7085,286.861
2013-03-29 00:00:00,2013-03-29 00:00:00,TMP,surface,-94.6879,30.7085,287.069
2013-03-29 00:00:00,2013-03-29 00:00:00,TMP,surface,-93.7504,30.7085,286.908
2013-03-29 00:00:00,2013-03-29 00:00:00,TMP,surface,-92.8129,30.7085,286.365
2013-03-29 00:00:00,2013-03-29 00:00:00,TMP,surface,-107.813,31.6534,284.053
2013-03-29 00:00:00,2013-03-29 00:00:00,TMP,surface,-106.875,31.6534,284.684
2013-03-29 00:00:00,2013-03-29 00:00:00,TMP,surface,-105.938,31.6534,283.924
2013-03-29 00:00:00,2013-03-29 00:00:00,TMP,surface,-105,31.6534,283.684
2013-03-29 00:00:00,2013-03-29 00:00:00,TMP,surface,-104.063,31.6534,284.081
2013-03-29 00:00:00,2013-03-29 00:00:00,TMP,surface,-103.125,31.6534,284.9
2013-03-29 00:00:00,2013-03-29 00:00:00,TMP,surface,-102.188,31.6534,285.124
2013-03-29 00:00:00,2013-03-29 00:00:00,TMP,surface,-101.25,31.6534,284.989
2013-03-29 00:00:00,2013-03-29 00:00:00,TMP,surface,-100.313,31.6534,285.089
2013-03-29 00:00:00,2013-03-29 00:00:00,TMP,surface,-99.3754,31.6534,285.57
2013-03-29 00:00:00,2013-03-29 00:00:00,TMP,surface,-98.4379,31.6534,286.13
2013-03-29 00:00:00,2013-03-29 00:00:00,TMP,surface,-97.5004,31.6534,286.437
2013-03-29 00:00:00,2013-03-29 00:00:00,TMP,surface,-96.5629,31.6534,286.487
2013-03-29 00:00:00,2013-03-29 00:00:00,TMP,surface,-95.6254,31.6534,286.319
2013-03-29 00:00:00,2013-03-29 00:00:00,TMP,surface,-94.6879,31.6534,285.932
2013-03-29 00:00:00,2013-03-29 00:00:00,TMP,surface,-93.7504,31.6534,285.578
2013-03-29 00:00:00,2013-03-29 00:00:00,TMP,surface,-92.8129,31.6534,285.452
2013-03-29 00:00:00,2013-03-29 00:00:00,TMP,surface,-107.813,32.5983,281.874
2013-03-29 00:00:00,2013-03-29 00:00:00,TMP,surface,-106.875,32.5983,282.271
2013-03-29 00:00:00,2013-03-29 00:00:00,TMP,surface,-105.938,32.5983,282.401
2013-03-29 00:00:00,2013-03-29 00:00:00,TMP,surface,-105,32.5983,282.88
2013-03-29 00:00:00,2013-03-29 00:00:00,TMP,surface,-104.063,32.5983,284.068
2013-03-29 00:00:00,2013-03-29 00:00:00,TMP,surface,-103.125,32.5983,284.778
2013-03-29 00:00:00,2013-03-29 00:00:00,TMP,surface,-102.188,32.5983,284.605
2013-03-29 00:00:00,2013-03-29 00:00:00,TMP,surface,-101.25,32.5983,284.621
2013-03-29 00:00:00,2013-03-29 00:00:00,TMP,surface,-100.313,32.5983,285.066
2013-03-29 00:00:00,2013-03-29 00:00:00,TMP,surface,-99.3754,32.5983,285.697
2013-03-29 00:00:00,2013-03-29 00:00:00,TMP,surface,-98.4379,32.5983,286.056
2013-03-29 00:00:00,2013-03-29 00:00:00,TMP,surface,-97.5004,32.5983,286.221
2013-03-29 00:00:00,2013-03-29 00:00:00,TMP,surface,-96.5629,32.5983,286.269
2013-03-29 00:00:00,2013-03-29 00:00:00,TMP,surface,-95.6254,32.5983,286.021
2013-03-29 00:00:00,2013-03-29 00:00:00,TMP,surface,-94.6879,32.5983,285.522
2013-03-29 00:00:00,2013-03-29 00:00:00,TMP,surface,-93.7504,32.5983,285.137
2013-03-29 00:00:00,2013-03-29 00:00:00,TMP,surface,-92.8129,32.5983,285.252
2013-03-29 00:00:00,2013-03-29 00:00:00,TMP,surface,-107.813,33.5432,279.042
2013-03-29 00:00:00,2013-03-29 00:00:00,TMP,surface,-106.875,33.5432,280.378
2013-03-29 00:00:00,2013-03-29 00:00:00,TMP,surface,-105.938,33.5432,281.191
2013-03-29 00:00:00,2013-03-29 00:00:00,TMP,surface,-105,33.5432,282.117
2013-03-29 00:00:00,2013-03-29 00:00:00,TMP,surface,-104.063,33.5432,283.517
2013-03-29 00:00:00,2013-03-29 00:00:00,TMP,surface,-103.125,33.5432,284.165
2013-03-29 00:00:00,2013-03-29 00:00:00,TMP,surface,-102.188,33.5432,284.114
2013-03-29 00:00:00,2013-03-29 00:00:00,TMP,surface,-101.25,33.5432,284.229
2013-03-29 00:00:00,2013-03-29 00:00:00,TMP,surface,-100.313,33.5432,284.754
2013-03-29 00:00:00,2013-03-29 00:00:00,TMP,surface,-99.3754,33.5432,285.316
2013-03-29 00:00:00,2013-03-29 00:00:00,TMP,surface,-98.4379,33.5432,285.45
2013-03-29 00:00:00,2013-03-29 00:00:00,TMP,surface,-97.5004,33.5432,285.322
2013-03-29 00:00:00,2013-03-29 00:00:00,TMP,surface,-96.5629,33.5432,285.28
2013-03-29 00:00:00,2013-03-29 00:00:00,TMP,surface,-95.6254,33.5432,285.223
2013-03-29 00:00:00,2013-03-29 00:00:00,TMP,surface,-94.6879,33.5432,284.868
2013-03-29 00:00:00,2013-03-29 00:00:00,TMP,surface,-93.7504,33.5432,284.384
2013-03-29 00:00:00,2013-03-29 00:00:00,TMP,surface,-92.8129,33.5432,284.277
2013-03-29 00:00:00,2013-03-29 00:00:00,TMP,surface,-107.813,34.4881,277.682
2013-03-29 00:00:00,2013-03-29 00:00:00,TMP,surface,-106.875,34.4881,279.111
2013-03-29 00:00:00,2013-03-29 00:00:00,TMP,surface,-105.938,34.4881,279.977
2013-03-29 00:00:00,2013-03-29 00:00:00,TMP,surface,-105,34.4881,281.093
2013-03-29 00:00:00,2013-03-29 00:00:00,TMP,surface,-104.063,34.4881,282.17
2013-03-29 00:00:00,2013-03-29 00:00:00,TMP,surface,-103.125,34.4881,282.935
2013-03-29 00:00:00,2013-03-29 00:00:00,TMP,surface,-102.188,34.4881,283.424
2013-03-29 00:00:00,2013-03-29 00:00:00,TMP,surface,-101.25,34.4881,283.727
2013-03-29 00:00:00,2013-03-29 00:00:00,TMP,surface,-100.313,34.4881,284.084
2013-03-29 00:00:00,2013-03-29 00:00:00,TMP,surface,-99.3754,34.4881,284.373
2013-03-29 00:00:00,2013-03-29 00:00:00,TMP,surface,-98.4379,34.4881,284.418
2013-03-29 00:00:00,2013-03-29 00:00:00,TMP,surface,-97.5004,34.4881,284.317
2013-03-29 00:00:00,2013-03-29 00:00:00,TMP,surface,-96.5629,34.4881,284.298
2013-03-29 00:00:00,2013-03-29 00:00:00,TMP,surface,-95.6254,34.4881,284.074
2013-03-29 00:00:00,2013-03-29 00:00:00,TMP,surface,-94.6879,34.4881,283.357
2013-03-29 00:00:00,2013-03-29 00:00:00,TMP,surface,-93.7504,34.4881,282.816
2013-03-29 00:00:00,2013-03-29 00:00:00,TMP,surface,-92.8129,34.4881,283.015
2013-03-29 00:00:00,2013-03-29 00:00:00,TMP,surface,-107.813,35.4329,277.423
2013-03-29 00:00:00,2013-03-29 00:00:00,TMP,surface,-106.875,35.4329,277.941
2013-03-29 00:00:00,2013-03-29 00:00:00,TMP,surface,-105.938,35.4329,278.559
2013-03-29 00:00:00,2013-03-29 00:00:00,TMP,surface,-105,35.4329,279.65
2013-03-29 00:00:00,2013-03-29 00:00:00,TMP,surface,-104.063,35.4329,281.415
2013-03-29 00:00:00,2013-03-29 00:00:00,TMP,surface,-103.125,35.4329,282.746
2013-03-29 00:00:00,2013-03-29 00:00:00,TMP,surface,-102.188,35.4329,283.1
2013-03-29 00:00:00,2013-03-29 00:00:00,TMP,surface,-101.25,35.4329,283.199
2013-03-29 00:00:00,2013-03-29 00:00:00,TMP,surface,-100.313,35.4329,283.384
2013-03-29 00:00:00,2013-03-29 00:00:00,TMP,surface,-99.3754,35.4329,283.439
2013-03-29 00:00:00,2013-03-29 00:00:00,TMP,surface,-98.4379,35.4329,283.465
2013-03-29 00:00:00,2013-03-29 00:00:00,TMP,surface,-97.5004,35.4329,283.677
2013-03-29 00:00:00,2013-03-29 00:00:00,TMP,surface,-96.5629,35.4329,283.888
2013-03-29 00:00:00,2013-03-29 00:00:00,TMP,surface,-95.6254,35.4329,283.692
2013-03-29 00:00:00,2013-03-29 00:00:00,TMP,surface,-94.6879,35.4329,282.992
2013-03-29 00:00:00,2013-03-29 00:00:00,TMP,surface,-93.7504,35.4329,282.157
2013-03-29 00:00:00,2013-03-29 00:00:00,TMP,surface,-92.8129,35.4329,281.775
2013-03-29 00:00:00,2013-03-29 00:00:00,TMP,surface,-107.813,36.3778,276.775
2013-03-29 00:00:00,2013-03-29 00:00:00,TMP,surface,-106.875,36.3778,275.396
2013-03-29 00:00:00,2013-03-29 00:00:00,TMP,surface,-105.938,36.3778,276.274
2013-03-29 00:00:00,2013-03-29 00:00:00,TMP,surface,-105,36.3778,277.897
2013-03-29 00:00:00,2013-03-29 00:00:00,TMP,surface,-104.063,36.3778,280.055
2013-03-29 00:00:00,2013-03-29 00:00:00,TMP,surface,-103.125,36.3778,281.469
2013-03-29 00:00:00,2013-03-29 00:00:00,TMP,surface,-102.188,36.3778,282.22
2013-03-29 00:00:00,2013-03-29 00:00:00,TMP,surface,-101.25,36.3778,282.727
2013-03-29 00:00:00,2013-03-29 00:00:00,TMP,surface,-100.313,36.3778,283.325
2013-03-29 00:00:00,2013-03-29 00:00:00,TMP,surface,-99.3754,36.3778,283.495
2013-03-29 00:00:00,2013-03-29 00:00:00,TMP,surface,-98.4379,36.3778,283.073
2013-03-29 00:00:00,2013-03-29 00:00:00,TMP,surface,-97.5004,36.3778,282.962
2013-03-29 00:00:00,2013-03-29 00:00:00,TMP,surface,-96.5629,36.3778,283.193
2013-03-29 00:00:00,2013-03-29 00:00:00,TMP,surface,-95.6254,36.3778,282.992
2013-03-29 00:00:00,2013-03-29 00:00:00,TMP,surface,-94.6879,36.3778,282.233
2013-03-29 00:00:00,2013-03-29 00:00:00,TMP,surface,-93.7504,36.3778,281.357
2013-03-29 00:00:00,2013-03-29 00:00:00,TMP,surface,-92.8129,36.3778,281.116
2013-03-29 00:00:00,2013-03-29 00:00:00,PRATE,surface,-107.813,25.0393,4.7e-06
2013-03-29 00:00:00,2013-03-29 00:00:00,PRATE,surface,-106.875,25.0393,1.11e-05
2013-03-29 00:00:00,2013-03-29 00:00:00,PRATE,surface,-105.938,25.0393,2.09e-05
2013-03-29 00:00:00,2013-03-29 00:00:00,PRATE,surface,-105,25.0393,1.23e-05
2013-03-29 00:00:00,2013-03-29 00:00:00,PRATE,surface,-104.063,25.0393,3.3e-06
2013-03-29 00:00:00,2013-03-29 00:00:00,PRATE,surface,-103.125,25.0393,2.3e-06
2013-03-29 00:00:00,2013-03-29 00:00:00,PRATE,surface,-102.188,25.0393,4.7e-06
2013-03-29 00:00:00,2013-03-29 00:00:00,PRATE,surface,-101.25,25.0393,2.96e-05
2013-03-29 00:00:00,2013-03-29 00:00:00,PRATE,surface,-100.313,25.0393,5.73e-05
2013-03-29 00:00:00,2013-03-29 00:00:00,PRATE,surface,-99.3754,25.0393,4.7e-05
2013-03-29 00:00:00,2013-03-29 00:00:00,PRATE,surface,-98.4379,25.0393,3.44e-05
2013-03-29 00:00:00,2013-03-29 00:00:00,PRATE,surface,-97.5004,25.0393,4.49e-05
2013-03-29 00:00:00,2013-03-29 00:00:00,PRATE,surface,-96.5629,25.0393,6.7e-05
2013-03-29 00:00:00,2013-03-29 00:00:00,PRATE,surface,-95.6254,25.0393,0.0001026
2013-03-29 00:00:00,2013-03-29 00:00:00,PRATE,surface,-94.6879,25.0393,0.0001047
2013-03-29 00:00:00,2013-03-29 00:00:00,PRATE,surface,-93.7504,25.0393,9.11e-05
2013-03-29 00:00:00,2013-03-29 00:00:00,PRATE,surface,-92.8129,25.0393,8.64e-05
2013-03-29 00:00:00,2013-03-29 00:00:00,PRATE,surface,-107.813,25.9842,9.6e-06
2013-03-29 00:00:00,2013-03-29 00:00:00,PRATE,surface,-106.875,25.9842,1.54e-05
2013-03-29 00:00:00,2013-03-29 00:00:00,PRATE,surface,-105.938,25.9842,1.34e-05
2013-03-29 00:00:00,2013-03-29 00:00:00,PRATE,surface,-105,25.9842,7.9e-06
2013-03-29 00:00:00,2013-03-29 00:00:00,PRATE,surface,-104.063,25.9842,3.3e-06
2013-03-29 00:00:00,2013-03-29 00:00:00,PRATE,surface,-103.125,25.9842,3.8e-06
2013-03-29 00:00:00,2013-03-29 00:00:00,PRATE,surface,-102.188,25.9842,8.5e-06
2013-03-29 00:00:00,2013-03-29 00:00:00,PRATE,surface,-101.25,25.9842,2.71e-05
2013-03-29 00:00:00,2013-03-29 00:00:00,PRATE,surface,-100.313,25.9842,4.88e-05
2013-03-29 00:00:00,2013-03-29 00:00:00,PRATE,surface,-99.3754,25.9842,4.01e-05
2013-03-29 00:00:00,2013-03-29 00:00:00,PRATE,surface,-98.4379,25.9842,3.24e-05
2013-03-29 00:00:00,2013-03-29 00:00:00,PRATE,surface,-97.5004,25.9842,4.77e-05
2013-03-29 00:00:00,2013-03-29 00:00:00,PRATE,surface,-96.5629,25.9842,8.4e-05
2013-03-29 00:00:00,2013-03-29 00:00:00,PRATE,surface,-95.6254,25.9842,0.0001319
2013-03-29 00:00:00,2013-03-29 00:00:00,PRATE,surface,-94.6879,25.9842,0.0001234
2013-03-29 00:00:00,2013-03-29 00:00:00,PRATE,surface,-93.7504,25.9842,0.0001155
2013-03-29 00:00:00,2013-03-29 00:00:00,PRATE,surface,-92.8129,25.9842,7.92e-05
2013-03-29 00:00:00,2013-03-29 00:00:00,PRATE,surface,-107.813,26.929,2.12e-05
2013-03-29 00:00:00,2013-03-29 00:00:00,PRATE,surface,-106.875,26.929,1.76e-05
2013-03-29 00:00:00,2013-03-29 00:00:00,PRATE,surface,-105.938,26.929,7.8e-06
2013-03-29 00:00:00,2013-03-29 00:00:00,PRATE,surface,-105,26.929,3.8e-06
2013-03-29 00:00:00,2013-03-29 00:00:00,PRATE,surface,-104.063,26.929,5.5e-06
2013-03-29 00:00:00,2013-03-29 00:00:00,PRATE,surface,-103.125,26.929,1.51e-05
2013-03-29 00:00:00,2013-03-29 00:00:00,PRATE,surface,-102.188,26.929,2.66e-05
2013-03-29 00:00:00,2013-03-29 00:00:00,PRATE,surface,-101.25,26.929,3.5e-05
2013-03-29 00:00:00,2013-03-29 00:00:00,PRATE,surface,-100.313,26.929,4.29e-05
2013-03-29 00:00:00,2013-03-29 00:00:00,PRATE,surface,-99.3754,26.929,3.52e-05
2013-03-29 00:00:00,2013-03-29 00:00:00,PRATE,surface,-98.4379,26.929,3.67e-05
2013-03-29 00:00:00,2013-03-29 00:00:00,PRATE,surface,-97.5004,26.929,6.28e-05
2013-03-29 00:00:00,2013-03-29 00:00:00,PRATE,surface,-96.5629,26.929,9.67e-05
2013-03-29 00:00:00,2013-03-29 00:00:00,PRATE,surface,-95.6254,26.929,0.0001466
2013-03-29 00:00:00,2013-03-29 00:00:00,PRATE,surface,-94.6879,26.929,0.0001488
2013-03-29 00:00:00,2013-03-29 00:00:00,PRATE,surface,-93.7504,26.929,0.0001218
2013-03-29 00:00:00,2013-03-29 00:00:00,PRATE,surface,-92.8129,26.929,6.79e-05
2013-03-29 00:00:00,2013-03-29 00:00:00,PRATE,surface,-107.813,27.8739,2.28e-05
2013-03-29 00:00:00,2013-03-29 00:00:00,PRATE,surface,-106.875,27.8739,1.19e-05
2013-03-29 00:00:00,2013-03-29 00:00:00,PRATE,surface,-105.938,27.8739,5.2e-06
2013-03-29 00:00:00,2013-03-29 00:00:00,PRATE,surface,-105,27.8739,2.7e-06
2013-03-29 00:00:00,2013-03-29 00:00:00,PRATE,surface,-104.063,27.8739,1.35e-05
2013-03-29 00:00:00,2013-03-29 00:00:00,PRATE,surface,-103.125,27.8739,3.24e-05
2013-03-29 00:00:00,2013-03-29 00:00:00,PRATE,surface,-102.188,27.8739,5.28e-05
2013-03-29 00:00:00,2013-03-29 00:00:00,PRATE,surface,-101.25,27.8739,5.12e-05
2013-03-29 00:00:00,2013-03-29 00:00:00,PRATE,surface,-100.313,27.8739,3.76e-05
2013-03-29 00:00:00,2013-03-29 00:00:00,PRATE,surface,-99.3754,27.8739,3.63e-05
2013-03-29 00:00:00,2013-03-29 00:00:00,PRATE,surface,-98.4379,27.8739,4.71e-05
2013-03-29 00:00:00,2013-03-29 00:00:00,PRATE,surface,-97.5004,27.8739,5.73e-05
2013-03-29 00:00:00,2013-03-29 00:00:00,PRATE,surface,-96.5629,27.8739,7.06e-05
2013-03-29 00:00:00,2013-03-29 00:00:00,PRATE,surface,-95.6254,27.8739,9.47e-05
2013-03-29 00:00:00,2013-03-29 00:00:00,PRATE,surface,-94.6879,27.8739,0.0001082
2013-03-29 00:00:00,2013-03-29 00:00:00,PRATE,surface,-93.7504,27.8739,8.2e-05
2013-03-29 00:00:00,2013-03-29 00:00:00,PRATE,surface,-92.8129,27.8739,4.07e-05
2013-03-29 00:00:00,2013-03-29 00:00:00,PRATE,surface,-107.813,28.8188,1.45e-05
2013-03-29 00:00:00,2013-03-29 00:00:00,PRATE,surface,-106.875,28.8188,1.06e-05
2013-03-29 00:00:00,2013-03-29 00:00:00,PRATE,surface,-105.938,28.8188,8.5e-06
2013-03-29 00:00:00,2013-03-29 00:00:00,PRATE,surface,-105,28.8188,1.12e-05
2013-03-29 00:00:00,2013-03-29 00:00:00,PRATE,surface,-104.063,28.8188,1.65e-05
2013-03-29 00:00:00,2013-03-29 00:00:00,PRATE,surface,-103.125,28.8188,3.19e-05
2013-03-29 00:00:00,2013-03-29 00:00:00,PRATE,surface,-102.188,28.8188,7.11e-05
2013-03-29 00:00:00,2013-03-29 00:00:00,PRATE,surface,-101.25,28.8188,6.25e-05
2013-03-29 00:00:00,2013-03-29 00:00:00,PRATE,surface,-100.313,28.8188,4.08e-05
2013-03-29 00:00:00,2013-03-29 00:00:00,PRATE,surface,-99.3754,28.8188,3.64e-05
2013-03-29 00:00:00,2013-03-29 00:00:00,PRATE,surface,-98.4379,28.8188,4.9e-05
2013-03-29 00:00:00,2013-03-29 00:00:00,PRATE,surface,-97.5004,28.8188,5.5e-05
2013-03-29 00:00:00,2013-03-29 00:00:00,PRATE,surface,-96.5629,28.8188,5.34e-05
2013-03-29 00:00:00,2013-03-29 00:00:00,PRATE,surface,-95.6254,28.8188,6.12e-05
2013-03-29 00:00:00,2013-03-29 00:00:00,PRATE,surface,-94.6879,28.8188,6.75e-05
2013-03-29 00:00:00,2013-03-29 00:00:00,PRATE,surface,-93.7504,28.8188,4.98e-05
2013-03-29 00:00:00,2013-03-29 00:00:00,PRATE,surface,-92.8129,28.8188,2.85e-05
2013-03-29 00:00:00,2013-03-29 00:00:00,PRATE,surface,-107.813,29.7637,1.53e-05
2013-03-29 00:00:00,2013-03-29 00:00:00,PRATE,surface,-106.875,29.7637,1.32e-05
2013-03-29 00:00:00,2013-03-29 00:00:00,PRATE,surface,-105.938,29.7637,1.6e-05
2013-03-29 00:00:00,2013-03-29 00:00:00,PRATE,surface,-105,29.7637,1.67e-05
2013-03-29 00:00:00,2013-03-29 00:00:00,PRATE,surface,-104.063,29.7637,1.92e-05
2013-03-29 00:00:00,2013-03-29 00:00:00,PRATE,surface,-103.125,29.7637,3.64e-05
2013-03-29 00:00:00,2013-03-29 00:00:00,PRATE,surface,-102.188,29.7637,5.97e-05
2013-03-29 00:00:00,2013-03-29 00:00:00,PRATE,surface,-101.25,29.7637,6.01e-05
2013-03-29 00:00:00,2013-03-29 00:00:00,PRATE,surface,-100.313,29.7637,4.9e-05
2013-03-29 00:00:00,2013-03-29 00:00:00,PRATE,surface,-99.3754,29.7637,4.18e-05
2013-03-29 00:00:00,2013-03-29 00:00:00,PRATE,surface,-98.4379,29.7637,3.83e-05
2013-03-29 00:00:00,2013-03-29 00:00:00,PRATE,surface,-97.5004,29.7637,4.24e-05
2013-03-29 00:00:00,2013-03-29 00:00:00,PRATE,surface,-96.5629,29.7637,4.97e-05
2013-03-29 00:00:00,2013-03-29 00:00:00,PRATE,surface,-95.6254,29.7637,5.25e-05
2013-03-29 00:00:00,2013-03-29 00:00:00,PRATE,surface,-94.6879,29.7637,4.89e-05
2013-03-29 00:00:00,2013-03-29 00:00:00,PRATE,surface,-93.7504,29.7637,3.83e-05
2013-03-29 00:00:00,2013-03-29 00:00:00,PRATE,surface,-92.8129,29.7637,3.48e-05
2013-03-29 00:00:00,2013-03-29 00:00:00,PRATE,surface,-107.813,30.7085,1.97e-05
2013-03-29 00:00:00,2013-03-29 00:00:00,PRATE,surface,-106.875,30.7085,1.91e-05
2013-03-29 00:00:00,2013-03-29 00:00:00,PRATE,surface,-105.938,30.7085,1.96e-05
2013-03-29 00:00:00,2013-03-29 00:00:00,PRATE,surface,-105,30.7085,2.58e-05
2013-03-29 00:00:00,2013-03-29 00:00:00,PRATE,surface,-104.063,30.7085,3.02e-05
2013-03-29 00:00:00,2013-03-29 00:00:00,PRATE,surface,-103.125,30.7085,3.09e-05
2013-03-29 00:00:00,2013-03-29 00:00:00,PRATE,surface,-102.188,30.7085,4.18e-05
2013-03-29 00:00:00,2013-03-29 00:00:00,PRATE,surface,-101.25,30.7085,4.9e-05
2013-03-29 00:00:00,2013-03-29 00:00:00,PRATE,surface,-100.313,30.7085,5.49e-05
2013-03-29 00:00:00,2013-03-29 00:00:00,PRATE,surface,-99.3754,30.7085,4.65e-05
2013-03-29 00:00:00,2013-03-29 00:00:00,PRATE,surface,-98.4379,30.7085,3.64e-05
2013-03-29 00:00:00,2013-03-29 00:00:00,PRATE,surface,-97.5004,30.7085,3.22e-05
2013-03-29 00:00:00,2013-03-29 00:00:00,PRATE,surface,-96.5629,30.7085,3.27e-05
2013-03-29 00:00:00,2013-03-29 00:00:00,PRATE,surface,-95.6254,30.7085,3.74e-05
2013-03-29 00:00:00,2013-03-29 00:00:00,PRATE,surface,-94.6879,30.7085,3.88e-05
2013-03-29 00:00:00,2013-03-29 00:00:00,PRATE,surface,-93.7504,30.7085,3.32e-05
2013-03-29 00:00:00,2013-03-29 00:00:00,PRATE,surface,-92.8129,30.7085,3.35e-05
2013-03-29 00:00:00,2013-03-29 00:00:00,PRATE,surface,-107.813,31.6534,2.27e-05
2013-03-29 00:00:00,2013-03-29 00:00:00,PRATE,surface,-106.875,31.6534,2.32e-05
2013-03-29 00:00:00,2013-03-29 00:00:00,PRATE,surface,-105.938,31.6534,2.81e-05
2013-03-29 00:00:00,2013-03-29 00:00:00,PRATE,surface,-105,31.6534,4.03e-05
2013-03-29 00:00:00,2013-03-29 00:00:00,PRATE,surface,-104.063,31.6534,4.66e-05
2013-03-29 00:00:00,2013-03-29 00:00:00,PRATE,surface,-103.125,31.6534,4.77e-05
2013-03-29 00:00:00,2013-03-29 00:00:00,PRATE,surface,-102.188,31.6534,5e-05
2013-03-29 00:00:00,2013-03-29 00:00:00,PRATE,surface,-101.25,31.6534,4.74e-05
2013-03-29 00:00:00,2013-03-29 00:00:00,PRATE,surface,-100.313,31.6534,4.28e-05
2013-03-29 00:00:00,2013-03-29 00:00:00,PRATE,surface,-99.3754,31.6534,3.86e-05
2013-03-29 00:00:00,2013-03-29 00:00:00,PRATE,surface,-98.4379,31.6534,3.57e-05
2013-03-29 00:00:00,2013-03-29 00:00:00,PRATE,surface,-97.5004,31.6534,3.11e-05
2013-03-29 00:00:00,2013-03-29 00:00:00,PRATE,surface,-96.5629,31.6534,2.68e-05
2013-03-29 00:00:00,2013-03-29 00:00:00,PRATE,surface,-95.6254,31.6534,2.72e-05
2013-03-29 00:00:00,2013-03-29 00:00:00,PRATE,surface,-94.6879,31.6534,2.92e-05
2013-03-29 00:00:00,2013-03-29 00:00:00,PRATE,surface,-93.7504,31.6534,2.78e-05
2013-03-29 00:00:00,2013-03-29 00:00:00,PRATE,surface,-92.8129,31.6534,2.52e-05
2013-03-29 00:00:00,2013-03-29 00:00:00,PRATE,surface,-107.813,32.5983,1.99e-05
2013-03-29 00:00:00,2013-03-29 00:00:00,PRATE,surface,-106.875,32.5983,2.34e-05
2013-03-29 00:00:00,2013-03-29 00:00:00,PRATE,surface,-105.938,32.5983,2.94e-05
2013-03-29 00:00:00,2013-03-29 00:00:00,PRATE,surface,-105,32.5983,3.7e-05
2013-03-29 00:00:00,2013-03-29 00:00:00,PRATE,surface,-104.063,32.5983,5.32e-05
2013-03-29 00:00:00,2013-03-29 00:00:00,PRATE,surface,-103.125,32.5983,5.72e-05
2013-03-29 00:00:00,2013-03-29 00:00:00,PRATE,surface,-102.188,32.5983,5.16e-05
2013-03-29 00:00:00,2013-03-29 00:00:00,PRATE,surface,-101.25,32.5983,4.2e-05
2013-03-29 00:00:00,2013-03-29 00:00:00,PRATE,surface,-100.313,32.5983,3.39e-05
2013-03-29 00:00:00,2013-03-29 00:00:00,PRATE,surface,-99.3754,32.5983,3.32e-05
2013-03-29 00:00:00,2013-03-29 00:00:00,PRATE,surface,-98.4379,32.5983,3.59e-05
2013-03-29 00:00:00,2013-03-29 00:00:00,PRATE,surface,-97.5004,32.5983,3.29e-05
2013-03-29 00:00:00,2013-03-29 00:00:00,PRATE,surface,-96.5629,32.5983,2.42e-05
2013-03-29 00:00:00,2013-03-29 00:00:00,PRATE,surface,-95.6254,32.5983,1.67e-05
2013-03-29 00:00:00,2013-03-29 00:00:00,PRATE,surface,-94.6879,32.5983,1.45e-05
2013-03-29 00:00:00,2013-03-29 00:00:00,PRATE,surface,-93.7504,32.5983,1.68e-05
2013-03-29 00:00:00,2013-03-29 00:00:00,PRATE,surface,-92.8129,32.5983,2.27e-05
2013-03-29 00:00:00,2013-03-29 00:00:00,PRATE,surface,-107.813,33.5432,1.22e-05
2013-03-29 00:00:00,2013-03-29 00:00:00,PRATE,surface,-106.875,33.5432,1e-05
2013-03-29 00:00:00,2013-03-29 00:00:00,PRATE,surface,-105.938,33.5432,1.5e-05
2013-03-29 00:00:00,2013-03-29 00:00:00,PRATE,surface,-105,33.5432,3.39e-05
2013-03-29 00:00:00,2013-03-29 00:00:00,PRATE,surface,-104.063,33.5432,4.32e-05
2013-03-29 00:00:00,2013-03-29 00:00:00,PRATE,surface,-103.125,33.5432,4.24e-05
2013-03-29 00:00:00,2013-03-29 00:00:00,PRATE,surface,-102.188,33.5432,2.94e-05
2013-03-29 00:00:00,2013-03-29 00:00:00,PRATE,surface,-101.25,33.5432,3.25e-05
2013-03-29 00:00:00,2013-03-29 00:00:00,PRATE,surface,-100.313,33.5432,3.63e-05
2013-03-29 00:00:00,2013-03-29 00:00:00,PRATE,surface,-99.3754,33.5432,4.16e-05
2013-03-29 00:00:00,2013-03-29 00:00:00,PRATE,surface,-98.4379,33.5432,4.35e-05
2013-03-29 00:00:00,2013-03-29 00:00:00,PRATE,surface,-97.5004,33.5432,3.67e-05
2013-03-29 00:00:00,2013-03-29 00:00:00,PRATE,surface,-96.5629,33.5432,2.31e-05
2013-03-29 00:00:00,2013-03-29 00:00:00,PRATE,surface,-95.6254,33.5432,1.14e-05
2013-03-29 00:00:00,2013-03-29 00:00:00,PRATE,surface,-94.6879,33.5432,8.4e-06
2013-03-29 00:00:00,2013-03-29 00:00:00,PRATE,surface,-93.7504,33.5432,1.15e-05
2013-03-29 00:00:00,2013-03-29 00:00:00,PRATE,surface,-92.8129,33.5432,1.92e-05
2013-03-29 00:00:00,2013-03-29 00:00:00,PRATE,surface,-107.813,34.4881,1e-05
2013-03-29 00:00:00,2013-03-29 00:00:00,PRATE,surface,-106.875,34.4881,7e-06
2013-03-29 00:00:00,2013-03-29 00:00:00,PRATE,surface,-105.938,34.4881,1.04e-05
2013-03-29 00:00:00,2013-03-29 00:00:00,PRATE,surface,-105,34.4881,2.34e-05
2013-03-29 00:00:00,2013-03-29 00:00:00,PRATE,surface,-104.063,34.4881,2.66e-05
2013-03-29 00:00:00,2013-03-29 00:00:00,PRATE,surface,-103.125,34.4881,1.54e-05
2013-03-29 00:00:00,2013-03-29 00:00:00,PRATE,surface,-102.188,34.4881,1.16e-05
2013-03-29 00:00:00,2013-03-29 00:00:00,PRATE,surface,-101.25,34.4881,1.57e-05
2013-03-29 00:00:00,2013-03-29 00:00:00,PRATE,surface,-100.313,34.4881,2.65e-05
2013-03-29 00:00:00,2013-03-29 00:00:00,PRATE,surface,-99.3754,34.4881,4.1e-05
2013-03-29 00:00:00,2013-03-29 00:00:00,PRATE,surface,-98.4379,34.4881,5.12e-05
2013-03-29 00:00:00,2013-03-29 00:00:00,PRATE,surface,-97.5004,34.4881,4.54e-05
2013-03-29 00:00:00,2013-03-29 00:00:00,PRATE,surface,-96.5629,34.4881,2.63e-05
2013-03-29 00:00:00,2013-03-29 00:00:00,PRATE,surface,-95.6254,34.4881,1.15e-05
2013-03-29 00:00:00,2013-03-29 00:00:00,PRATE,surface,-94.6879,34.4881,9.2e-06
2013-03-29 00:00:00,2013-03-29 00:00:00,PRATE,surface,-93.7504,34.4881,1.14e-05
2013-03-29 00:00:00,2013-03-29 00:00:00,PRATE,surface,-92.8129,34.4881,1.48e-05
2013-03-29 00:00:00,2013-03-29 00:00:00,PRATE,surface,-107.813,35.4329,8.7e-06
2013-03-29 00:00:00,2013-03-29 00:00:00,PRATE,surface,-106.875,35.4329,5.5e-06
2013-03-29 00:00:00,2013-03-29 00:00:00,PRATE,surface,-105.938,35.4329,6.8e-06
2013-03-29 00:00:00,2013-03-29 00:00:00,PRATE,surface,-105,35.4329,1.2e-05
2013-03-29 00:00:00,2013-03-29 00:00:00,PRATE,surface,-104.063,35.4329,1.52e-05
2013-03-29 00:00:00,2013-03-29 00:00:00,PRATE,surface,-103.125,35.4329,6.9e-06
2013-03-29 00:00:00,2013-03-29 00:00:00,PRATE,surface,-102.188,35.4329,5.9e-06
2013-03-29 00:00:00,2013-03-29 00:00:00,PRATE,surface,-101.25,35.4329,8.6e-06
2013-03-29 00:00:00,2013-03-29 00:00:00,PRATE,surface,-100.313,35.4329,1.62e-05
2013-03-29 00:00:00,2013-03-29 00:00:00,PRATE,surface,-99.3754,35.4329,3e-05
2013-03-29 00:00:00,2013-03-29 00:00:00,PRATE,surface,-98.4379,35.4329,4.68e-05
2013-03-29 00:00:00,2013-03-29 00:00:00,PRATE,surface,-97.5004,35.4329,5.1e-05
2013-03-29 00:00:00,2013-03-29 00:00:00,PRATE,surface,-96.5629,35.4329,3.51e-05
2013-03-29 00:00:00,2013-03-29 00:00:00,PRATE,surface,-95.6254,35.4329,1.84e-05
2013-03-29 00:00:00,2013-03-29 00:00:00,PRATE,surface,-94.6879,35.4329,1.58e-05
2013-03-29 00:00:00,2013-03-29 00:00:00,PRATE,surface,-93.7504,35.4329,1.67e-05
2013-03-29 00:00:00,2013-03-29 00:00:00,PRATE,surface,-92.8129,35.4329,1.91e-05
2013-03-29 00:00:00,2013-03-29 00:00:00,PRATE,surface,-107.813,36.3778,1.5e-05
2013-03-29 00:00:00,2013-03-29 00:00:00,PRATE,surface,-106.875,36.3778,1.5e-05
2013-03-29 00:00:00,2013-03-29 00:00:00,PRATE,surface,-105.938,36.3778,9.5e-06
2013-03-29 00:00:00,2013-03-29 00:00:00,PRATE,surface,-105,36.3778,1.11e-05
2013-03-29 00:00:00,2013-03-29 00:00:00,PRATE,surface,-104.063,36.3778,8e-06
2013-03-29 00:00:00,2013-03-29 00:00:00,PRATE,surface,-103.125,36.3778,4.5e-06
2013-03-29 00:00:00,2013-03-29 00:00:00,PRATE,surface,-102.188,36.3778,5.7e-06
2013-03-29 00:00:00,2013-03-29 00:00:00,PRATE,surface,-101.25,36.3778,7.9e-06
2013-03-29 00:00:00,2013-03-29 00:00:00,PRATE,surface,-100.313,36.3778,1.05e-05
2013-03-29 00:00:00,2013-03-29 00:00:00,PRATE,surface,-99.3754,36.3778,1.91e-05
2013-03-29 00:00:00,2013-03-29 00:00:00,PRATE,surface,-98.4379,36.3778,4.07e-05
2013-03-29 00:00:00,2013-03-29 00:00:00,PRATE,surface,-97.5004,36.3778,5.7e-05
2013-03-29 00:00:00,2013-03-29 00:00:00,PRATE,surface,-96.5629,36.3778,5.1e-05
2013-03-29 00:00:00,2013-03-29 00:00:00,PRATE,surface,-95.6254,36.3778,3.41e-05
2013-03-29 00:00:00,2013-03-29 00:00:00,PRATE,surface,-94.6879,36.3778,2.39e-05
2013-03-29 00:00:00,2013-03-29 00:00:00,PRATE,surface,-93.7504,36.3778,1.99e-05
2013-03-29 00:00:00,2013-03-29 00:00:00,PRATE,surface,-92.8129,36.3778,2e-05
