2015-01-18 00:00:00,2015-01-18 00:00:00,TMP,surface,-107.813,25.0393,293.224
2015-01-18 00:00:00,2015-01-18 00:00:00,TMP,surface,-106.875,25.0393,288.266
2015-01-18 00:00:00,2015-01-18 00:00:00,TMP,surface,-105.938,25.0393,283.054
2015-01-18 00:00:00,2015-01-18 00:00:00,TMP,surface,-105,25.0393,281.874
2015-01-18 00:00:00,2015-01-18 00:00:00,TMP,surface,-104.063,25.0393,286.011
2015-01-18 00:00:00,2015-01-18 00:00:00,TMP,surface,-103.125,25.0393,287.688
2015-01-18 00:00:00,2015-01-18 00:00:00,TMP,surface,-102.188,25.0393,287.386
2015-01-18 00:00:00,2015-01-18 00:00:00,TMP,surface,-101.25,25.0393,285.682
2015-01-18 00:00:00,2015-01-18 00:00:00,TMP,surface,-100.313,25.0393,286.23
2015-01-18 00:00:00,2015-01-18 00:00:00,TMP,surface,-99.3754,25.0393,288.331
2015-01-18 00:00:00,2015-01-18 00:00:00,TMP,surface,-98.4379,25.0393,291.176
2015-01-18 00:00:00,2015-01-18 00:00:00,TMP,surface,-97.5004,25.0393,293.818
2015-01-18 00:00:00,2015-01-18 00:00:00,TMP,surface,-96.5629,25.0393,294.507
2015-01-18 00:00:00,2015-01-18 00:00:00,TMP,surface,-95.6254,25.0393,295.333
2015-01-18 00:00:00,2015-01-18 00:00:00,TMP,surface,-94.6879,25.0393,295.656
2015-01-18 00:00:00,2015-01-18 00:00:00,TMP,surface,-93.7504,25.0393,295.578
2015-01-18 00:00:00,2015-01-18 00:00:00,TMP,surface,-92.8129,25.0393,295.722
2015-01-18 00:00:00,2015-01-18 00:00:00,TMP,surface,-107.813,25.9842,289.128
2015-01-18 00:00:00,2015-01-18 00:00:00,TMP,surface,-106.875,25.9842,283.547
2015-01-18 00:00:00,2015-01-18 00:00:00,TMP,surface,-105.938,25.9842,281.462
2015-01-18 00:00:00,2015-01-18 00:00:00,TMP,surface,-105,25.9842,283.349
2015-01-18 00:00:00,2015-01-18 00:00:00,TMP,surface,-104.063,25.9842,286.773
2015-01-18 00:00:00,2015-01-18 00:00:00,TMP,surface,-103.125,25.9842,288.046
2015-01-18 00:00:00,2015-01-18 00:00:00,TMP,surface,-102.188,25.9842,287.733
2015-01-18 00:00:00,2015-01-18 00:00:00,TMP,surface,-101.25,25.9842,286.885
2015-01-18 00:00:00,2015-01-18 00:00:00,TMP,surface,-100.313,25.9842,287.029
2015-01-18 00:00:00,2015-01-18 00:00:00,TMP,surface,-99.3754,25.9842,288.995
2015-01-18 00:00:00,2015-01-18 00:00:00,TMP,surface,-98.4379,25.9842,290.645
2015-01-18 00:00:00,2015-01-18 00:00:00,TMP,surface,-97.5004,25.9842,291.938
2015-01-18 00:00:00,2015-01-18 00:00:00,TMP,surface,-96.5629,25.9842,293.835
2015-01-18 00:00:00,2015-01-18 00:00:00,TMP,surface,-95.6254,25.9842,294.706
2015-01-18 00:00:00,2015-01-18 00:00:00,TMP,surface,-94.6879,25.9842,294.99
2015-01-18 00:00:00,2015-01-18 00:00:00,TMP,surface,-93.7504,25.9842,295.165
2015-01-18 00:00:00,2015-01-18 00:00:00,TMP,surface,-92.8129,25.9842,295.515
2015-01-18 00:00:00,2015-01-18 00:00:00,TMP,surface,-107.813,26.929,284.541
2015-01-18 00:00:00,2015-01-18 00:00:00,TMP,surface,-106.875,26.929,280.658
2015-01-18 00:00:00,2015-01-18 00:00:00,TMP,surface,-105.938,26.929,282.984
2015-01-18 00:00:00,2015-01-18 00:00:00,TMP,surface,-105,26.929,285.582
2015-01-18 00:00:00,2015-01-18 00:00:00,TMP,surface,-104.063,26.929,286.776
2015-01-18 00:00:00,2015-01-18 00:00:00,TMP,surface,-103.125,26.929,286.138
2015-01-18 00:00:00,2015-01-18 00:00:00,TMP,surface,-102.188,26.929,286.338
2015-01-18 00:00:00,2015-01-18 00:00:00,TMP,surface,-101.25,26.929,287.058
2015-01-18 00:00:00,2015-01-18 00:00:00,TMP,surface,-100.313,26.929,287.875
2015-01-18 00:00:00,2015-01-18 00:00:00,TMP,surface,-99.3754,26.929,288.947
2015-01-18 00:00:00,2015-01-18 00:00:00,TMP,surface,-98.4379,26.929,289.25
2015-01-18 00:00:00,2015-01-18 00:00:00,TMP,surface,-97.5004,26.929,291.774
2015-01-18 00:00:00,2015-01-18 00:00:00,TMP,surface,-96.5629,26.929,293.054
2015-01-18 00:00:00,2015-01-18 00:00:00,TMP,surface,-95.6254,26.929,294.306
2015-01-18 00:00:00,2015-01-18 00:00:00,TMP,surface,-94.6879,26.929,294.63
2015-01-18 00:00:00,2015-01-18 00:00:00,TMP,surface,-93.7504,26.929,294.845
2015-01-18 00:00:00,2015-01-18 00:00:00,TMP,surface,-92.8129,26.929,295.12
2015-01-18 00:00:00,2015-01-18 00:00:00,TMP,surface,-107.813,27.8739,281.702
2015-01-18 00:00:00,2015-01-18 00:00:00,TMP,surface,-106.875,27.8739,280.608
2015-01-18 00:00:00,2015-01-18 00:00:00,TMP,surface,-105.938,27.8739,283.821
2015-01-18 00:00:00,2015-01-18 00:00:00,TMP,surface,-105,27.8739,286.026
2015-01-18 00:00:00,2015-01-18 00:00:00,TMP,surface,-104.063,27.8739,286.296
2015-01-18 00:00:00,2015-01-18 00:00:00,TMP,surface,-103.125,27.8739,284.986
2015-01-18 00:00:00,2015-01-18 00:00:00,TMP,surface,-102.188,27.8739,285.099
2015-01-18 00:00:00,2015-01-18 00:00:00,TMP,surface,-101.25,27.8739,286.109
2015-01-18 00:00:00,2015-01-18 00:00:00,TMP,surface,-100.313,27.8739,287.314
2015-01-18 00:00:00,2015-01-18 00:00:00,TMP,surface,-99.3754,27.8739,287.736
2015-01-18 00:00:00,2015-01-18 00:00:00,TMP,surface,-98.4379,27.8739,287.944
2015-01-18 00:00:00,2015-01-18 00:00:00,TMP,surface,-97.5004,27.8739,289.813
2015-01-18 00:00:00,2015-01-18 00:00:00,TMP,surface,-96.5629,27.8739,291.85
2015-01-18 00:00:00,2015-01-18 00:00:00,TMP,surface,-95.6254,27.8739,292.546
2015-01-18 00:00:00,2015-01-18 00:00:00,TMP,surface,-94.6879,27.8739,293.222
2015-01-18 00:00:00,2015-01-18 00:00:00,TMP,surface,-93.7504,27.8739,293.757
2015-01-18 00:00:00,2015-01-18 00:00:00,TMP,surface,-92.8129,27.8739,294.045
2015-01-18 00:00:00,2015-01-18 00:00:00,TMP,surface,-107.813,28.8188,280.301
2015-01-18 00:00:00,2015-01-18 00:00:00,TMP,surface,-106.875,28.8188,281.173
2015-01-18 00:00:00,2015-01-18 00:00:00,TMP,surface,-105.938,28.8188,284.038
2015-01-18 00:00:00,2015-01-18 00:00:00,TMP,surface,-105,28.8188,285.381
2015-01-18 00:00:00,2015-01-18 00:00:00,TMP,surface,-104.063,28.8188,284.453
2015-01-18 00:00:00,2015-01-18 00:00:00,TMP,surface,-103.125,28.8188,283.728
2015-01-18 00:00:00,2015-01-18 00:00:00,TMP,surface,-102.188,28.8188,283.971
2015-01-18 00:00:00,2015-01-18 00:00:00,TMP,surface,-101.25,28.8188,285.198
2015-01-18 00:00:00,2015-01-18 00:00:00,TMP,surface,-100.313,28.8188,285.774
2015-01-18 00:00:00,2015-01-18 00:00:00,TMP,surface,-99.3754,28.8188,285.784
2015-01-18 00:00:00,2015-01-18 00:00:00,TMP,surface,-98.4379,28.8188,286.008
2015-01-18 00:00:00,2015-01-18 00:00:00,TMP,surface,-97.5004,28.8188,286.662
2015-01-18 00:00:00,2015-01-18 00:00:00,TMP,surface,-96.5629,28.8188,287.475
2015-01-18 00:00:00,2015-01-18 00:00:00,TMP,surface,-95.6254,28.8188,288.774
2015-01-18 00:00:00,2015-01-18 00:00:00,TMP,surface,-94.6879,28.8188,290.379
2015-01-18 00:00:00,2015-01-18 00:00:00,TMP,surface,-93.7504,28.8188,291.003
2015-01-18 00:00:00,2015-01-18 00:00:00,TMP,surface,-92.8129,28.8188,291.414
2015-01-18 00:00:00,2015-01-18 00:00:00,TMP,surface,-107.813,29.7637,281.405
2015-01-18 00:00:00,2015-01-18 00:00:00,TMP,surface,-106.875,29.7637,282.597
2015-01-18 00:00:00,2015-01-18 00:00:00,TMP,surface,-105.938,29.7637,284.432
2015-01-18 00:00:00,2015-01-18 00:00:00,TMP,surface,-105,29.7637,283.872
2015-01-18 00:00:00,2015-01-18 00:00:00,TMP,surface,-104.063,29.7637,283.523
2015-01-18 00:00:00,2015-01-18 00:00:00,TMP,surface,-103.125,29.7637,283.475
2015-01-18 00:00:00,2015-01-18 00:00:00,TMP,surface,-102.188,29.7637,283.958
2015-01-18 00:00:00,2015-01-18 00:00:00,TMP,surface,-101.25,29.7637,284.33
2015-01-18 00:00:00,2015-01-18 00:00:00,TMP,surface,-100.313,29.7637,284.198
2015-01-18 00:00:00,2015-01-18 00:00:00,TMP,surface,-99.3754,29.7637,284.086
2015-01-18 00:00:00,2015-01-18 00:00:00,TMP,surface,-98.4379,29.7637,284.352
2015-01-18 00:00:00,2015-01-18 00:00:00,TMP,surface,-97.5004,29.7637,284.877
2015-01-18 00:00:00,2015-01-18 00:00:00,TMP,surface,-96.5629,29.7637,285.458
2015-01-18 00:00:00,2015-01-18 00:00:00,TMP,surface,-95.6254,29.7637,286.115
2015-01-18 00:00:00,2015-01-18 00:00:00,TMP,surface,-94.6879,29.7637,287.267
2015-01-18 00:00:00,2015-01-18 00:00:00,TMP,surface,-93.7504,29.7637,288.437
2015-01-18 00:00:00,2015-01-18 00:00:00,TMP,surface,-92.8129,29.7637,287.715
2015-01-18 00:00:00,2015-01-18 00:00:00,TMP,surface,-107.813,30.7085,283.557
2015-01-18 00:00:00,2015-01-18 00:00:00,TMP,surface,-106.875,30.7085,284.342
2015-01-18 00:00:00,2015-01-18 00:00:00,TMP,surface,-105.938,30.7085,283.914
2015-01-18 00:00:00,2015-01-18 00:00:00,TMP,surface,-105,30.7085,282.938
2015-01-18 00:00:00,2015-01-18 00:00:00,TMP,surface,-104.063,30.7085,282.467
2015-01-18 00:00:00,2015-01-18 00:00:00,TMP,surface,-103.125,30.7085,283.054
2015-01-18 00:00:00,2015-01-18 00:00:00,TMP,surface,-102.188,30.7085,283.405
2015-01-18 00:00:00,2015-01-18 00:00:00,TMP,surface,-101.25,30.7085,283.285
2015-01-18 00:00:00,2015-01-18 00:00:00,TMP,surface,-100.313,30.7085,283.069
2015-01-18 00:00:00,2015-01-18 00:00:00,TMP,surface,-99.3754,30.7085,283.032
2015-01-18 00:00:00,2015-01-18 00:00:00,TMP,surface,-98.4379,30.7085,283.326
2015-01-18 00:00:00,2015-01-18 00:00:00,TMP,surface,-97.5004,30.7085,283.762
2015-01-18 00:00:00,2015-01-18 00:00:00,TMP,surface,-96.5629,30.7085,284.224
2015-01-18 00:00:00,2015-01-18 00:00:00,TMP,surface,-95.6254,30.7085,284.64
2015-01-18 00:00:00,2015-01-18 00:00:00,TMP,surface,-94.6879,30.7085,284.912
2015-01-18 00:00:00,2015-01-18 00:00:00,TMP,surface,-93.7504,30.7085,285.17
2015-01-18 00:00:00,2015-01-18 00:00:00,TMP,surface,-92.8129,30.7085,285.274
2015-01-18 00:00:00,2015-01-18 00:00:00,TMP,surface,-107.813,31.6534,283.566
2015-01-18 00:00:00,2015-01-18 00:00:00,TMP,surface,-106.875,31.6534,283.933
2015-01-18 00:00:00,2015-01-18 00:00:00,TMP,surface,-105.938,31.6534,282.688
2015-01-18 00:00:00,2015-01-18 00:00:00,TMP,surface,-105,31.6534,281.923
2015-01-18 00:00:00,2015-01-18 00:00:00,TMP,surface,-104.063,31.6534,282.136
2015-01-18 00:00:00,2015-01-18 00:00:00,TMP,surface,-103.125,31.6534,282.715
2015-01-18 00:00:00,2015-01-18 00:00:00,TMP,surface,-102.188,31.6534,282.931
2015-01-18 00:00:00,2015-01-18 00:00:00,TMP,surface,-101.25,31.6534,282.581
2015-01-18 00:00:00,2015-01-18 00:00:00,TMP,surface,-100.313,31.6534,282.379
2015-01-18 00:00:00,2015-01-18 00:00:00,TMP,surface,-99.3754,31.6534,282.515
2015-01-18 00:00:00,2015-01-18 00:00:00,TMP,surface,-98.4379,31.6534,282.792
2015-01-18 00:00:00,2015-01-18 00:00:00,TMP,surface,-97.5004,31.6534,283.056
2015-01-18 00:00:00,2015-01-18 00:00:00,TMP,surface,-96.5629,31.6534,283.346
2015-01-18 00:00:00,2015-01-18 00:00:00,TMP,surface,-95.6254,31.6534,283.502
2015-01-18 00:00:00,2015-01-18 00:00:00,TMP,surface,-94.6879,31.6534,283.418
2015-01-18 00:00:00,2015-01-18 00:00:00,TMP,surface,-93.7504,31.6534,283.454
2015-01-18 00:00:00,2015-01-18 00:00:00,TMP,surface,-92.8129,31.6534,283.653
2015-01-18 00:00:00,2015-01-18 00:00:00,TMP,surface,-107.813,32.5983,281.36
2015-01-18 00:00:00,2015-01-18 00:00:00,TMP,surface,-106.875,32.5983,281.413
2015-01-18 00:00:00,2015-01-18 00:00:00,TMP,surface,-105.938,32.5983,281.28
2015-01-18 00:00:00,2015-01-18 00:00:00,TMP,surface,-105,32.5983,280.934
2015-01-18 00:00:00,2015-01-18 00:00:00,TMP,surface,-104.063,32.5983,281.546
2015-01-18 00:00:00,2015-01-18 00:00:00,TMP,surface,-103.125,32.5983,282.074
2015-01-18 00:00:00,2015-01-18 00:00:00,TMP,surface,-102.188,32.5983,282.016
2015-01-18 00:00:00,2015-01-18 00:00:00,TMP,surface,-101.25,32.5983,281.944
2015-01-18 00:00:00,2015-01-18 00:00:00,TMP,surface,-100.313,32.5983,282.046
2015-01-18 00:00:00,2015-01-18 00:00:00,TMP,surface,-99.3754,32.5983,282.298
2015-01-18 00:00:00,2015-01-18 00:00:00,TMP,surface,-98.4379,32.5983,282.482
2015-01-18 00:00:00,2015-01-18 00:00:00,TMP,surface,-97.5004,32.5983,282.534
2015-01-18 00:00:00,2015-01-18 00:00:00,TMP,surface,-96.5629,32.5983,282.566
2015-01-18 00:00:00,2015-01-18 00:00:00,TMP,surface,-95.6254,32.5983,282.493
2015-01-18 00:00:00,2015-01-18 00:00:00,TMP,surface,-94.6879,32.5983,282.23
2015-01-18 00:00:00,2015-01-18 00:00:00,TMP,surface,-93.7504,32.5983,282.102
2015-01-18 00:00:00,2015-01-18 00:00:00,TMP,surface,-92.8129,32.5983,282.342
2015-01-18 00:00:00,2015-01-18 00:00:00,TMP,surface,-107.813,33.5432,278.76
2015-01-18 00:00:00,2015-01-18 00:00:00,TMP,surface,-106.875,33.5432,279.611
2015-01-18 00:00:00,2015-01-18 00:00:00,TMP,surface,-105.938,33.5432,279.958
2015-01-18 00:00:00,2015-01-18 00:00:00,TMP,surface,-105,33.5432,279.995
2015-01-18 00:00:00,2015-01-18 00:00:00,TMP,surface,-104.063,33.5432,280.435
2015-01-18 00:00:00,2015-01-18 00:00:00,TMP,surface,-103.125,33.5432,280.803
2015-01-18 00:00:00,2015-01-18 00:00:00,TMP,surface,-102.188,33.5432,280.67
2015-01-18 00:00:00,2015-01-18 00:00:00,TMP,surface,-101.25,33.5432,280.733
2015-01-18 00:00:00,2015-01-18 00:00:00,TMP,surface,-100.313,33.5432,281.131
2015-01-18 00:00:00,2015-01-18 00:00:00,TMP,surface,-99.3754,33.5432,281.562
2015-01-18 00:00:00,2015-01-18 00:00:00,TMP,surface,-98.4379,33.5432,281.752
2015-01-18 00:00:00,2015-01-18 00:00:00,TMP,surface,-97.5004,33.5432,281.616
2015-01-18 00:00:00,2015-01-18 00:00:00,TMP,surface,-96.5629,33.5432,281.43
2015-01-18 00:00:00,2015-01-18 00:00:00,TMP,surface,-95.6254,33.5432,281.306
2015-01-18 00:00:00,2015-01-18 00:00:00,TMP,surface,-94.6879,33.5432,281.029
2015-01-18 00:00:00,2015-01-18 00:00:00,TMP,surface,-93.7504,33.5432,280.757
2015-01-18 00:00:00,2015-01-18 00:00:00,TMP,surface,-92.8129,33.5432,280.842
2015-01-18 00:00:00,2015-01-18 00:00:00,TMP,surface,-107.813,34.4881,277.314
2015-01-18 00:00:00,2015-01-18 00:00:00,TMP,surface,-106.875,34.4881,278.533
2015-01-18 00:00:00,2015-01-18 00:00:00,TMP,surface,-105.938,34.4881,278.954
2015-01-18 00:00:00,2015-01-18 00:00:00,TMP,surface,-105,34.4881,279.17
2015-01-18 00:00:00,2015-01-18 00:00:00,TMP,surface,-104.063,34.4881,279.029
2015-01-18 00:00:00,2015-01-18 00:00:00,TMP,surface,-103.125,34.4881,279.099
2015-01-18 00:00:00,2015-01-18 00:00:00,TMP,surface,-102.188,34.4881,279.25
2015-01-18 00:00:00,2015-01-18 00:00:00,TMP,surface,-101.25,34.4881,279.437
2015-01-18 00:00:00,2015-01-18 00:00:00,TMP,surface,-100.313,34.4881,279.95
2015-01-18 00:00:00,2015-01-18 00:00:00,TMP,surface,-99.3754,34.4881,280.346
2015-01-18 00:00:00,2015-01-18 00:00:00,TMP,surface,-98.4379,34.4881,280.475
2015-01-18 00:00:00,2015-01-18 00:00:00,TMP,surface,-97.5004,34.4881,280.442
2015-01-18 00:00:00,2015-01-18 00:00:00,TMP,surface,-96.5629,34.4881,280.381
2015-01-18 00:00:00,2015-01-18 00:00:00,TMP,surface,-95.6254,34.4881,280.194
2015-01-18 00:00:00,2015-01-18 00:00:00,TMP,surface,-94.6879,34.4881,279.718
2015-01-18 00:00:00,2015-01-18 00:00:00,TMP,surface,-93.7504,34.4881,279.243
2015-01-18 00:00:00,2015-01-18 00:00:00,TMP,surface,-92.8129,34.4881,279.141
2015-01-18 00:00:00,2015-01-18 00:00:00,TMP,surface,-107.813,35.4329,277.15
2015-01-18 00:00:00,2015-01-18 00:00:00,TMP,surface,-106.875,35.4329,277.814
2015-01-18 00:00:00,2015-01-18 00:00:00,TMP,surface,-105.938,35.4329,277.786
2015-01-18 00:00:00,2015-01-18 00:00:00,TMP,surface,-105,35.4329,277.749
2015-01-18 00:00:00,2015-01-18 00:00:00,TMP,surface,-104.063,35.4329,278.149
2015-01-18 00:00:00,2015-01-18 00:00:00,TMP,surface,-103.125,35.4329,278.413
2015-01-18 00:00:00,2015-01-18 00:00:00,TMP,surface,-102.188,35.4329,278.59
2015-01-18 00:00:00,2015-01-18 00:00:00,TMP,surface,-101.25,35.4329,278.77
2015-01-18 00:00:00,2015-01-18 00:00:00,TMP,surface,-100.313,35.4329,279.048
2015-01-18 00:00:00,2015-01-18 00:00:00,TMP,surface,-99.3754,35.4329,279.222
2015-01-18 00:00:00,2015-01-18 00:00:00,TMP,surface,-98.4379,35.4329,279.299
2015-01-18 00:00:00,2015-01-18 00:00:00,TMP,surface,-97.5004,35.4329,279.424
2015-01-18 00:00:00,2015-01-18 00:00:00,TMP,surface,-96.5629,35.4329,279.458
2015-01-18 00:00:00,2015-01-18 00:00:00,TMP,surface,-95.6254,35.4329,279.144
2015-01-18 00:00:00,2015-01-18 00:00:00,TMP,surface,-94.6879,35.4329,278.491
2015-01-18 00:00:00,2015-01-18 00:00:00,TMP,surface,-93.7504,35.4329,277.762
2015-01-18 00:00:00,2015-01-18 00:00:00,TMP,surface,-92.8129,35.4329,277.371
2015-01-18 00:00:00,2015-01-18 00:00:00,TMP,surface,-107.813,36.3778,276.294
2015-01-18 00:00:00,2015-01-18 00:00:00,TMP,surface,-106.875,36.3778,275.397
2015-01-18 00:00:00,2015-01-18 00:00:00,TMP,surface,-105.938,36.3778,275.6
2015-01-18 00:00:00,2015-01-18 00:00:00,TMP,surface,-105,36.3778,276.338
2015-01-18 00:00:00,2015-01-18 00:00:00,TMP,surface,-104.063,36.3778,277.131
2015-01-18 00:00:00,2015-01-18 00:00:00,TMP,surface,-103.125,36.3778,277.586
2015-01-18 00:00:00,2015-01-18 00:00:00,TMP,surface,-102.188,36.3778,277.931
2015-01-18 00:00:00,2015-01-18 00:00:00,TMP,surface,-101.25,36.3778,278.373
2015-01-18 00:00:00,2015-01-18 00:00:00,TMP,surface,-100.313,36.3778,278.752
2015-01-18 00:00:00,2015-01-18 00:00:00,TMP,surface,-99.3754,36.3778,278.866
2015-01-18 00:00:00,2015-01-18 00:00:00,TMP,surface,-98.4379,36.3778,278.614
2015-01-18 00:00:00,2015-01-18 00:00:00,TMP,surface,-97.5004,36.3778,278.45
2015-01-18 00:00:00,2015-01-18 00:00:00,TMP,surface,-96.5629,36.3778,278.442
2015-01-18 00:00:00,2015-01-18 00:00:00,TMP,surface,-95.6254,36.3778,278.104
2015-01-18 00:00:00,2015-01-18 00:00:00,TMP,surface,-94.6879,36.3778,277.298
2015-01-18 00:00:00,2015-01-18 00:00:00,TMP,surface,-93.7504,36.3778,276.435
2015-01-18 00:00:00,2015-01-18 00:00:00,TMP,surface,-92.8129,36.3778,275.93
2015-01-18 00:00:00,2015-01-18 00:00:00,PRATE,surface,-107.813,25.0393,8e-06
2015-01-18 00:00:00,2015-01-18 00:00:00,PRATE,surface,-106.875,25.0393,1.34e-05
2015-01-18 00:00:00,2015-01-18 00:00:00,PRATE,surface,-105.938,25.0393,1.59e-05
2015-01-18 00:00:00,2015-01-18 00:00:00,PRATE,surface,-105,25.0393,1.89e-05
2015-01-18 00:00:00,2015-01-18 00:00:00,PRATE,surface,-104.063,25.0393,1.2e-05
2015-01-18 00:00:00,2015-01-18 00:00:00,PRATE,surface,-103.125,25.0393,6.3e-06
2015-01-18 00:00:00,2015-01-18 00:00:00,PRATE,surface,-102.188,25.0393,7.8e-06
2015-01-18 00:00:00,2015-01-18 00:00:00,PRATE,surface,-101.25,25.0393,3.12e-05
2015-01-18 00:00:00,2015-01-18 00:00:00,PRATE,surface,-100.313,25.0393,5.61e-05
2015-01-18 00:00:00,2015-01-18 00:00:00,PRATE,surface,-99.3754,25.0393,5.24e-05
2015-01-18 00:00:00,2015-01-18 00:00:00,PRATE,surface,-98.4379,25.0393,3.82e-05
2015-01-18 00:00:00,2015-01-18 00:00:00,PRATE,surface,-97.5004,25.0393,4.83e-05
2015-01-18 00:00:00,2015-01-18 00:00:00,PRATE,surface,-96.5629,25.0393,5.39e-05
2015-01-18 00:00:00,2015-01-18 00:00:00,PRATE,surface,-95.6254,25.0393,4.83e-05
2015-01-18 00:00:00,2015-01-18 00:00:00,PRATE,surface,-94.6879,25.0393,4.98e-05
2015-01-18 00:00:00,2015-01-18 00:00:00,PRATE,surface,-93.7504,25.0393,4.68e-05
2015-01-18 00:00:00,2015-01-18 00:00:00,PRATE,surface,-92.8129,25.0393,3.92e-05
2015-01-18 00:00:00,2015-01-18 00:00:00,PRATE,surface,-107.813,25.9842,1.42e-05
2015-01-18 00:00:00,2015-01-18 00:00:00,PRATE,surface,-106.875,25.9842,1.75e-05
2015-01-18 00:00:00,2015-01-18 00:00:00,PRATE,surface,-105.938,25.9842,1.45e-05
2015-01-18 00:00:00,2015-01-18 00:00:00,PRATE,surface,-105,25.9842,1.74e-05
2015-01-18 00:00:00,2015-01-18 00:00:00,PRATE,surface,-104.063,25.9842,1.59e-05
2015-01-18 00:00:00,2015-01-18 00:00:00,PRATE,surface,-103.125,25.9842,9.8e-06
2015-01-18 00:00:00,2015-01-18 00:00:00,PRATE,surface,-102.188,25.9842,1.1e-05
2015-01-18 00:00:00,2015-01-18 00:00:00,PRATE,surface,-101.25,25.9842,2e-05
2015-01-18 00:00:00,2015-01-18 00:00:00,PRATE,surface,-100.313,25.9842,4.03e-05
2015-01-18 00:00:00,2015-01-18 00:00:00,PRATE,surface,-99.3754,25.9842,3.94e-05
2015-01-18 00:00:00,2015-01-18 00:00:00,PRATE,surface,-98.4379,25.9842,4.29e-05
2015-01-18 00:00:00,2015-01-18 00:00:00,PRATE,surface,-97.5004,25.9842,5.83e-05
2015-01-18 00:00:00,2015-01-18 00:00:00,PRATE,surface,-96.5629,25.9842,5.97e-05
2015-01-18 00:00:00,2015-01-18 00:00:00,PRATE,surface,-95.6254,25.9842,5.39e-05
2015-01-18 00:00:00,2015-01-18 00:00:00,PRATE,surface,-94.6879,25.9842,5.52e-05
2015-01-18 00:00:00,2015-01-18 00:00:00,PRATE,surface,-93.7504,25.9842,5.52e-05
2015-01-18 00:00:00,2015-01-18 00:00:00,PRATE,surface,-92.8129,25.9842,5.57e-05
2015-01-18 00:00:00,2015-01-18 00:00:00,PRATE,surface,-107.813,26.929,2.1e-05
2015-01-18 00:00:00,2015-01-18 00:00:00,PRATE,surface,-106.875,26.929,1.41e-05
2015-01-18 00:00:00,2015-01-18 00:00:00,PRATE,surface,-105.938,26.929,7.6e-06
2015-01-18 00:00:00,2015-01-18 00:00:00,PRATE,surface,-105,26.929,1.08e-05
2015-01-18 00:00:00,2015-01-18 00:00:00,PRATE,surface,-104.063,26.929,1.07e-05
2015-01-18 00:00:00,2015-01-18 00:00:00,PRATE,surface,-103.125,26.929,1.71e-05
2015-01-18 00:00:00,2015-01-18 00:00:00,PRATE,surface,-102.188,26.929,2.58e-05
2015-01-18 00:00:00,2015-01-18 00:00:00,PRATE,surface,-101.25,26.929,3.69e-05
2015-01-18 00:00:00,2015-01-18 00:00:00,PRATE,surface,-100.313,26.929,3.82e-05
2015-01-18 00:00:00,2015-01-18 00:00:00,PRATE,surface,-99.3754,26.929,3.96e-05
2015-01-18 00:00:00,2015-01-18 00:00:00,PRATE,surface,-98.4379,26.929,6.81e-05
2015-01-18 00:00:00,2015-01-18 00:00:00,PRATE,surface,-97.5004,26.929,8.07e-05
2015-01-18 00:00:00,2015-01-18 00:00:00,PRATE,surface,-96.5629,26.929,7.67e-05
2015-01-18 00:00:00,2015-01-18 00:00:00,PRATE,surface,-95.6254,26.929,7.05e-05
2015-01-18 00:00:00,2015-01-18 00:00:00,PRATE,surface,-94.6879,26.929,6.44e-05
2015-01-18 00:00:00,2015-01-18 00:00:00,PRATE,surface,-93.7504,26.929,5.95e-05
2015-01-18 00:00:00,2015-01-18 00:00:00,PRATE,surface,-92.8129,26.929,5.96e-05
2015-01-18 00:00:00,2015-01-18 00:00:00,PRATE,surface,-107.813,27.8739,2.03e-05
2015-01-18 00:00:00,2015-01-18 00:00:00,PRATE,surface,-106.875,27.8739,1.14e-05
2015-01-18 00:00:00,2015-01-18 00:00:00,PRATE,surface,-105.938,27.8739,4.6e-06
2015-01-18 00:00:00,2015-01-18 00:00:00,PRATE,surface,-105,27.8739,4.1e-06
2015-01-18 00:00:00,2015-01-18 00:00:00,PRATE,surface,-104.063,27.8739,1.09e-05
2015-01-18 00:00:00,2015-01-18 00:00:00,PRATE,surface,-103.125,27.8739,1.84e-05
2015-01-18 00:00:00,2015-01-18 00:00:00,PRATE,surface,-102.188,27.8739,3.83e-05
2015-01-18 00:00:00,2015-01-18 00:00:00,PRATE,surface,-101.25,27.8739,4.79e-05
2015-01-18 00:00:00,2015-01-18 00:00:00,PRATE,surface,-100.313,27.8739,4.69e-05
2015-01-18 00:00:00,2015-01-18 00:00:00,PRATE,surface,-99.3754,27.8739,4.89e-05
2015-01-18 00:00:00,2015-01-18 00:00:00,PRATE,surface,-98.4379,27.8739,5.78e-05
2015-01-18 00:00:00,2015-01-18 00:00:00,PRATE,surface,-97.5004,27.8739,6.65e-05
2015-01-18 00:00:00,2015-01-18 00:00:00,PRATE,surface,-96.5629,27.8739,7.08e-05
2015-01-18 00:00:00,2015-01-18 00:00:00,PRATE,surface,-95.6254,27.8739,7.69e-05
2015-01-18 00:00:00,2015-01-18 00:00:00,PRATE,surface,-94.6879,27.8739,8.44e-05
2015-01-18 00:00:00,2015-01-18 00:00:00,PRATE,surface,-93.7504,27.8739,8.18e-05
2015-01-18 00:00:00,2015-01-18 00:00:00,PRATE,surface,-92.8129,27.8739,7.8e-05
2015-01-18 00:00:00,2015-01-18 00:00:00,PRATE,surface,-107.813,28.8188,1.52e-05
2015-01-18 00:00:00,2015-01-18 00:00:00,PRATE,surface,-106.875,28.8188,1.22e-05
2015-01-18 00:00:00,2015-01-18 00:00:00,PRATE,surface,-105.938,28.8188,4.7e-06
2015-01-18 00:00:00,2015-01-18 00:00:00,PRATE,surface,-105,28.8188,5e-06
2015-01-18 00:00:00,2015-01-18 00:00:00,PRATE,surface,-104.063,28.8188,1.44e-05
2015-01-18 00:00:00,2015-01-18 00:00:00,PRATE,surface,-103.125,28.8188,2.23e-05
2015-01-18 00:00:00,2015-01-18 00:00:00,PRATE,surface,-102.188,28.8188,3.51e-05
2015-01-18 00:00:00,2015-01-18 00:00:00,PRATE,surface,-101.25,28.8188,4.19e-05
2015-01-18 00:00:00,2015-01-18 00:00:00,PRATE,surface,-100.313,28.8188,4.72e-05
2015-01-18 00:00:00,2015-01-18 00:00:00,PRATE,surface,-99.3754,28.8188,5.67e-05
2015-01-18 00:00:00,2015-01-18 00:00:00,PRATE,surface,-98.4379,28.8188,6.06e-05
2015-01-18 00:00:00,2015-01-18 00:00:00,PRATE,surface,-97.5004,28.8188,5.75e-05
2015-01-18 00:00:00,2015-01-18 00:00:00,PRATE,surface,-96.5629,28.8188,5.9e-05
2015-01-18 00:00:00,2015-01-18 00:00:00,PRATE,surface,-95.6254,28.8188,6.66e-05
2015-01-18 00:00:00,2015-01-18 00:00:00,PRATE,surface,-94.6879,28.8188,7.56e-05
2015-01-18 00:00:00,2015-01-18 00:00:00,PRATE,surface,-93.7504,28.8188,8.6e-05
2015-01-18 00:00:00,2015-01-18 00:00:00,PRATE,surface,-92.8129,28.8188,8.64e-05
2015-01-18 00:00:00,2015-01-18 00:00:00,PRATE,surface,-107.813,29.7637,9.2e-06
2015-01-18 00:00:00,2015-01-18 00:00:00,PRATE,surface,-106.875,29.7637,1.03e-05
2015-01-18 00:00:00,2015-01-18 00:00:00,PRATE,surface,-105.938,29.7637,9e-06
2015-01-18 00:00:00,2015-01-18 00:00:00,PRATE,surface,-105,29.7637,1.15e-05
2015-01-18 00:00:00,2015-01-18 00:00:00,PRATE,surface,-104.063,29.7637,2.04e-05
2015-01-18 00:00:00,2015-01-18 00:00:00,PRATE,surface,-103.125,29.7637,3.06e-05
2015-01-18 00:00:00,2015-01-18 00:00:00,PRATE,surface,-102.188,29.7637,3.87e-05
2015-01-18 00:00:00,2015-01-18 00:00:00,PRATE,surface,-101.25,29.7637,4.66e-05
2015-01-18 00:00:00,2015-01-18 00:00:00,PRATE,surface,-100.313,29.7637,5.38e-05
2015-01-18 00:00:00,2015-01-18 00:00:00,PRATE,surface,-99.3754,29.7637,6.05e-05
2015-01-18 00:00:00,2015-01-18 00:00:00,PRATE,surface,-98.4379,29.7637,6.11e-05
2015-01-18 00:00:00,2015-01-18 00:00:00,PRATE,surface,-97.5004,29.7637,5.86e-05
2015-01-18 00:00:00,2015-01-18 00:00:00,PRATE,surface,-96.5629,29.7637,5.97e-05
2015-01-18 00:00:00,2015-01-18 00:00:00,PRATE,surface,-95.6254,29.7637,6.5e-05
2015-01-18 00:00:00,2015-01-18 00:00:00,PRATE,surface,-94.6879,29.7637,7.2e-05
2015-01-18 00:00:00,2015-01-18 00:00:00,PRATE,surface,-93.7504,29.7637,7.62e-05
2015-01-18 00:00:00,2015-01-18 00:00:00,PRATE,surface,-92.8129,29.7637,7.28e-05
2015-01-18 00:00:00,2015-01-18 00:00:00,PRATE,surface,-107.813,30.7085,7e-06
2015-01-18 00:00:00,2015-01-18 00:00:00,PRATE,surface,-106.875,30.7085,9.4e-06
2015-01-18 00:00:00,2015-01-18 00:00:00,PRATE,surface,-105.938,30.7085,1.25e-05
2015-01-18 00:00:00,2015-01-18 00:00:00,PRATE,surface,-105,30.7085,2.22e-05
2015-01-18 00:00:00,2015-01-18 00:00:00,PRATE,surface,-104.063,30.7085,2.88e-05
2015-01-18 00:00:00,2015-01-18 00:00:00,PRATE,surface,-103.125,30.7085,3.34e-05
2015-01-18 00:00:00,2015-01-18 00:00:00,PRATE,surface,-102.188,30.7085,3.48e-05
2015-01-18 00:00:00,2015-01-18 00:00:00,PRATE,surface,-101.25,30.7085,4.45e-05
2015-01-18 00:00:00,2015-01-18 00:00:00,PRATE,surface,-100.313,30.7085,5.61e-05
2015-01-18 00:00:00,2015-01-18 00:00:00,PRATE,surface,-99.3754,30.7085,6.51e-05
2015-01-18 00:00:00,2015-01-18 00:00:00,PRATE,surface,-98.4379,30.7085,6.13e-05
2015-01-18 00:00:00,2015-01-18 00:00:00,PRATE,surface,-97.5004,30.7085,5.2e-05
2015-01-18 00:00:00,2015-01-18 00:00:00,PRATE,surface,-96.5629,30.7085,5.17e-05
2015-01-18 00:00:00,2015-01-18 00:00:00,PRATE,surface,-95.6254,30.7085,6.24e-05
2015-01-18 00:00:00,2015-01-18 00:00:00,PRATE,surface,-94.6879,30.7085,7.14e-05
2015-01-18 00:00:00,2015-01-18 00:00:00,PRATE,surface,-93.7504,30.7085,6.5e-05
2015-01-18 00:00:00,2015-01-18 00:00:00,PRATE,surface,-92.8129,30.7085,5.35e-05
2015-01-18 00:00:00,2015-01-18 00:00:00,PRATE,surface,-107.813,31.6534,5.3e-06
2015-01-18 00:00:00,2015-01-18 00:00:00,PRATE,surface,-106.875,31.6534,7.3e-06
2015-01-18 00:00:00,2015-01-18 00:00:00,PRATE,surface,-105.938,31.6534,1.29e-05
2015-01-18 00:00:00,2015-01-18 00:00:00,PRATE,surface,-105,31.6534,2.39e-05
2015-01-18 00:00:00,2015-01-18 00:00:00,PRATE,surface,-104.063,31.6534,3.09e-05
2015-01-18 00:00:00,2015-01-18 00:00:00,PRATE,surface,-103.125,31.6534,2.45e-05
2015-01-18 00:00:00,2015-01-18 00:00:00,PRATE,surface,-102.188,31.6534,2.17e-05
2015-01-18 00:00:00,2015-01-18 00:00:00,PRATE,surface,-101.25,31.6534,3.22e-05
2015-01-18 00:00:00,2015-01-18 00:00:00,PRATE,surface,-100.313,31.6534,4.87e-05
2015-01-18 00:00:00,2015-01-18 00:00:00,PRATE,surface,-99.3754,31.6534,6.34e-05
2015-01-18 00:00:00,2015-01-18 00:00:00,PRATE,surface,-98.4379,31.6534,6.47e-05
2015-01-18 00:00:00,2015-01-18 00:00:00,PRATE,surface,-97.5004,31.6534,5.7e-05
2015-01-18 00:00:00,2015-01-18 00:00:00,PRATE,surface,-96.5629,31.6534,5.25e-05
2015-01-18 00:00:00,2015-01-18 00:00:00,PRATE,surface,-95.6254,31.6534,5.8e-05
2015-01-18 00:00:00,2015-01-18 00:00:00,PRATE,surface,-94.6879,31.6534,6.75e-05
2015-01-18 00:00:00,2015-01-18 00:00:00,PRATE,surface,-93.7504,31.6534,6.61e-05
2015-01-18 00:00:00,2015-01-18 00:00:00,PRATE,surface,-92.8129,31.6534,5.97e-05
2015-01-18 00:00:00,2015-01-18 00:00:00,PRATE,surface,-107.813,32.5983,9.7e-06
2015-01-18 00:00:00,2015-01-18 00:00:00,PRATE,surface,-106.875,32.5983,8.5e-06
2015-01-18 00:00:00,2015-01-18 00:00:00,PRATE,surface,-105.938,32.5983,1.2e-05
2015-01-18 00:00:00,2015-01-18 00:00:00,PRATE,surface,-105,32.5983,2.18e-05
2015-01-18 00:00:00,2015-01-18 00:00:00,PRATE,surface,-104.063,32.5983,2.62e-05
2015-01-18 00:00:00,2015-01-18 00:00:00,PRATE,surface,-103.125,32.5983,2.22e-05
2015-01-18 00:00:00,2015-01-18 00:00:00,PRATE,surface,-102.188,32.5983,1.91e-05
2015-01-18 00:00:00,2015-01-18 00:00:00,PRATE,surface,-101.25,32.5983,2.42e-05
2015-01-18 00:00:00,2015-01-18 00:00:00,PRATE,surface,-100.313,32.5983,3.75e-05
2015-01-18 00:00:00,2015-01-18 00:00:00,PRATE,surface,-99.3754,32.5983,5.15e-05
2015-01-18 00:00:00,2015-01-18 00:00:00,PRATE,surface,-98.4379,32.5983,6.44e-05
2015-01-18 00:00:00,2015-01-18 00:00:00,PRATE,surface,-97.5004,32.5983,6.87e-05
2015-01-18 00:00:00,2015-01-18 00:00:00,PRATE,surface,-96.5629,32.5983,6.51e-05
2015-01-18 00:00:00,2015-01-18 00:00:00,PRATE,surface,-95.6254,32.5983,6.29e-05
2015-01-18 00:00:00,2015-01-18 00:00:00,PRATE,surface,-94.6879,32.5983,6.57e-05
2015-01-18 00:00:00,2015-01-18 00:00:00,PRATE,surface,-93.7504,32.5983,6.83e-05
2015-01-18 00:00:00,2015-01-18 00:00:00,PRATE,surface,-92.8129,32.5983,6.35e-05
2015-01-18 00:00:00,2015-01-18 00:00:00,PRATE,surface,-107.813,33.5432,1.73e-05
2015-01-18 00:00:00,2015-01-18 00:00:00,PRATE,surface,-106.875,33.5432,1.04e-05
2015-01-18 00:00:00,2015-01-18 00:00:00,PRATE,surface,-105.938,33.5432,1.13e-05
2015-01-18 00:00:00,2015-01-18 00:00:00,PRATE,surface,-105,33.5432,1.92e-05
2015-01-18 00:00:00,2015-01-18 00:00:00,PRATE,surface,-104.063,33.5432,2.32e-05
2015-01-18 00:00:00,2015-01-18 00:00:00,PRATE,surface,-103.125,33.5432,2.07e-05
2015-01-18 00:00:00,2015-01-18 00:00:00,PRATE,surface,-102.188,33.5432,1.96e-05
2015-01-18 00:00:00,2015-01-18 00:00:00,PRATE,surface,-101.25,33.5432,2.65e-05
2015-01-18 00:00:00,2015-01-18 00:00:00,PRATE,surface,-100.313,33.5432,3.2e-05
2015-01-18 00:00:00,2015-01-18 00:00:00,PRATE,surface,-99.3754,33.5432,3.95e-05
2015-01-18 00:00:00,2015-01-18 00:00:00,PRATE,surface,-98.4379,33.5432,5.5e-05
2015-01-18 00:00:00,2015-01-18 00:00:00,PRATE,surface,-97.5004,33.5432,7.24e-05
2015-01-18 00:00:00,2015-01-18 00:00:00,PRATE,surface,-96.5629,33.5432,7.86e-05
2015-01-18 00:00:00,2015-01-18 00:00:00,PRATE,surface,-95.6254,33.5432,7.27e-05
2015-01-18 00:00:00,2015-01-18 00:00:00,PRATE,surface,-94.6879,33.5432,6.72e-05
2015-01-18 00:00:00,2015-01-18 00:00:00,PRATE,surface,-93.7504,33.5432,6.88e-05
2015-01-18 00:00:00,2015-01-18 00:00:00,PRATE,surface,-92.8129,33.5432,7.18e-05
2015-01-18 00:00:00,2015-01-18 00:00:00,PRATE,surface,-107.813,34.4881,2.57e-05
2015-01-18 00:00:00,2015-01-18 00:00:00,PRATE,surface,-106.875,34.4881,1.4e-05
2015-01-18 00:00:00,2015-01-18 00:00:00,PRATE,surface,-105.938,34.4881,1.09e-05
2015-01-18 00:00:00,2015-01-18 00:00:00,PRATE,surface,-105,34.4881,1.52e-05
2015-01-18 00:00:00,2015-01-18 00:00:00,PRATE,surface,-104.063,34.4881,2e-05
2015-01-18 00:00:00,2015-01-18 00:00:00,PRATE,surface,-103.125,34.4881,1.97e-05
2015-01-18 00:00:00,2015-01-18 00:00:00,PRATE,surface,-102.188,34.4881,2.27e-05
2015-01-18 00:00:00,2015-01-18 00:00:00,PRATE,surface,-101.25,34.4881,3.1e-05
2015-01-18 00:00:00,2015-01-18 00:00:00,PRATE,surface,-100.313,34.4881,3.07e-05
2015-01-18 00:00:00,2015-01-18 00:00:00,PRATE,surface,-99.3754,34.4881,3.25e-05
2015-01-18 00:00:00,2015-01-18 00:00:00,PRATE,surface,-98.4379,34.4881,4.4e-05
2015-01-18 00:00:00,2015-01-18 00:00:00,PRATE,surface,-97.5004,34.4881,6.45e-05
2015-01-18 00:00:00,2015-01-18 00:00:00,PRATE,surface,-96.5629,34.4881,8.04e-05
2015-01-18 00:00:00,2015-01-18 00:00:00,PRATE,surface,-95.6254,34.4881,7.87e-05
2015-01-18 00:00:00,2015-01-18 00:00:00,PRATE,surface,-94.6879,34.4881,6.95e-05
2015-01-18 00:00:00,2015-01-18 00:00:00,PRATE,surface,-93.7504,34.4881,7.07e-05
2015-01-18 00:00:00,2015-01-18 00:00:00,PRATE,surface,-92.8129,34.4881,7.49e-05
2015-01-18 00:00:00,2015-01-18 00:00:00,PRATE,surface,-107.813,35.4329,2.37e-05
2015-01-18 00:00:00,2015-01-18 00:00:00,PRATE,surface,-106.875,35.4329,1.6e-05
2015-01-18 00:00:00,2015-01-18 00:00:00,PRATE,surface,-105.938,35.4329,1.46e-05
2015-01-18 00:00:00,2015-01-18 00:00:00,PRATE,surface,-105,35.4329,2.03e-05
2015-01-18 00:00:00,2015-01-18 00:00:00,PRATE,surface,-104.063,35.4329,2.14e-05
2015-01-18 00:00:00,2015-01-18 00:00:00,PRATE,surface,-103.125,35.4329,2.28e-05
2015-01-18 00:00:00,2015-01-18 00:00:00,PRATE,surface,-102.188,35.4329,2.56e-05
2015-01-18 00:00:00,2015-01-18 00:00:00,PRATE,surface,-101.25,35.4329,2.56e-05
2015-01-18 00:00:00,2015-01-18 00:00:00,PRATE,surface,-100.313,35.4329,2.51e-05
2015-01-18 00:00:00,2015-01-18 00:00:00,PRATE,surface,-99.3754,35.4329,2.64e-05
2015-01-18 00:00:00,2015-01-18 00:00:00,PRATE,surface,-98.4379,35.4329,3.35e-05
2015-01-18 00:00:00,2015-01-18 00:00:00,PRATE,surface,-97.5004,35.4329,4.63e-05
2015-01-18 00:00:00,2015-01-18 00:00:00,PRATE,surface,-96.5629,35.4329,5.91e-05
2015-01-18 00:00:00,2015-01-18 00:00:00,PRATE,surface,-95.6254,35.4329,6.65e-05
2015-01-18 00:00:00,2015-01-18 00:00:00,PRATE,surface,-94.6879,35.4329,6.89e-05
2015-01-18 00:00:00,2015-01-18 00:00:00,PRATE,surface,-93.7504,35.4329,7.14e-05
2015-01-18 00:00:00,2015-01-18 00:00:00,PRATE,surface,-92.8129,35.4329,7.26e-05
2015-01-18 00:00:00,2015-01-18 00:00:00,PRATE,surface,-107.813,36.3778,2.51e-05
2015-01-18 00:00:00,2015-01-18 00:00:00,PRATE,surface,-106.875,36.3778,2.72e-05
2015-01-18 00:00:00,2015-01-18 00:00:00,PRATE,surface,-105.938,36.3778,2.49e-05
2015-01-18 00:00:00,2015-01-18 00:00:00,PRATE,surface,-105,36.3778,2.37e-05
2015-01-18 00:00:00,2015-01-18 00:00:00,PRATE,surface,-104.063,36.3778,2.7e-05
2015-01-18 00:00:00,2015-01-18 00:00:00,PRATE,surface,-103.125,36.3778,2.89e-05
2015-01-18 00:00:00,2015-01-18 00:00:00,PRATE,surface,-102.188,36.3778,2.6e-05
2015-01-18 00:00:00,2015-01-18 00:00:00,PRATE,surface,-101.25,36.3778,2.37e-05
2015-01-18 00:00:00,2015-01-18 00:00:00,PRATE,surface,-100.313,36.3778,2.44e-05
2015-01-18 00:00:00,2015-01-18 00:00:00,PRATE,surface,-99.3754,36.3778,2.66e-05
2015-01-18 00:00:00,2015-01-18 00:00:00,PRATE,surface,-98.4379,36.3778,2.82e-05
2015-01-18 00:00:00,2015-01-18 00:00:00,PRATE,surface,-97.5004,36.3778,3.1e-05
2015-01-18 00:00:00,2015-01-18 00:00:00,PRATE,surface,-96.5629,36.3778,3.75e-05
2015-01-18 00:00:00,2015-01-18 00:00:00,PRATE,surface,-95.6254,36.3778,4.76e-05
2015-01-18 00:00:00,2015-01-18 00:00:00,PRATE,surface,-94.6879,36.3778,5.78e-05
2015-01-18 00:00:00,2015-01-18 00:00:00,PRATE,surface,-93.7504,36.3778,6.23e-05
2015-01-18 00:00:00,2015-01-18 00:00:00,PRATE,surface,-92.8129,36.3778,5.87e-05
