2014-01-12 00:00:00,2014-01-12 00:00:00,TMP,surface,-107.813,25.0393,302.805
2014-01-12 00:00:00,2014-01-12 00:00:00,TMP,surface,-106.875,25.0393,297.458
2014-01-12 00:00:00,2014-01-12 00:00:00,TMP,surface,-105.938,25.0393,293.282
2014-01-12 00:00:00,2014-01-12 00:00:00,TMP,surface,-105,25.0393,292.834
2014-01-12 00:00:00,2014-01-12 00:00:00,TMP,surface,-104.063,25.0393,296.229
2014-01-12 00:00:00,2014-01-12 00:00:00,TMP,surface,-103.125,25.0393,298.633
2014-01-12 00:00:00,2014-01-12 00:00:00,TMP,surface,-102.188,25.0393,297.135
2014-01-12 00:00:00,2014-01-12 00:00:00,TMP,surface,-101.25,25.0393,293.989
2014-01-12 00:00:00,2014-01-12 00:00:00,TMP,surface,-100.313,25.0393,293.897
2014-01-12 00:00:00,2014-01-12 00:00:00,TMP,surface,-99.3754,25.0393,297.561
2014-01-12 00:00:00,2014-01-12 00:00:00,TMP,surface,-98.4379,25.0393,300.818
2014-01-12 00:00:00,2014-01-12 00:00:00,TMP,surface,-97.5004,25.0393,300.857
2014-01-12 00:00:00,2014-01-12 00:00:00,TMP,surface,-96.5629,25.0393,300.965
2014-01-12 00:00:00,2014-01-12 00:00:00,TMP,surface,-95.6254,25.0393,301.205
2014-01-12 00:00:00,2014-01-12 00:00:00,TMP,surface,-94.6879,25.0393,301.337
2014-01-12 00:00:00,2014-01-12 00:00:00,TMP,surface,-93.7504,25.0393,301.199
2014-01-12 00:00:00,2014-01-12 00:00:00,TMP,surface,-92.8129,25.0393,301.109
2014-01-12 00:00:00,2014-01-12 00:00:00,TMP,surface,-107.813,25.9842,300.156
2014-01-12 00:00:00,2014-01-12 00:00:00,TMP,surface,-106.875,25.9842,294.377
2014-01-12 00:00:00,2014-01-12 00:00:00,TMP,surface,-105.938,25.9842,292.639
2014-01-12 00:00:00,2014-01-12 00:00:00,TMP,surface,-105,25.9842,295.25
2014-01-12 00:00:00,2014-01-12 00:00:00,TMP,surface,-104.063,25.9842,299.586
2014-01-12 00:00:00,2014-01-12 00:00:00,TMP,surface,-103.125,25.9842,300.789
2014-01-12 00:00:00,2014-01-12 00:00:00,TMP,surface,-102.188,25.9842,298.933
2014-01-12 00:00:00,2014-01-12 00:00:00,TMP,surface,-101.25,25.9842,297.122
2014-01-12 00:00:00,2014-01-12 00:00:00,TMP,surface,-100.313,25.9842,297.733
2014-01-12 00:00:00,2014-01-12 00:00:00,TMP,surface,-99.3754,25.9842,301.097
2014-01-12 00:00:00,2014-01-12 00:00:00,TMP,surface,-98.4379,25.9842,301.845
2014-01-12 00:00:00,2014-01-12 00:00:00,TMP,surface,-97.5004,25.9842,300.783
2014-01-12 00:00:00,2014-01-12 00:00:00,TMP,surface,-96.5629,25.9842,299.785
2014-01-12 00:00:00,2014-01-12 00:00:00,TMP,surface,-95.6254,25.9842,300.588
2014-01-12 00:00:00,2014-01-12 00:00:00,TMP,surface,-94.6879,25.9842,301.1
2014-01-12 00:00:00,2014-01-12 00:00:00,TMP,surface,-93.7504,25.9842,301.09
2014-01-12 00:00:00,2014-01-12 00:00:00,TMP,surface,-92.8129,25.9842,301.1
2014-01-12 00:00:00,2014-01-12 00:00:00,TMP,surface,-107.813,26.929,296.383
2014-01-12 00:00:00,2014-01-12 00:00:00,TMP,surface,-106.875,26.929,293.599
2014-01-12 00:00:00,2014-01-12 00:00:00,TMP,surface,-105.938,26.929,294.508
2014-01-12 00:00:00,2014-01-12 00:00:00,TMP,surface,-105,26.929,298.783
2014-01-12 00:00:00,2014-01-12 00:00:00,TMP,surface,-104.063,26.929,301.289
2014-01-12 00:00:00,2014-01-12 00:00:00,TMP,surface,-103.125,26.929,300.316
2014-01-12 00:00:00,2014-01-12 00:00:00,TMP,surface,-102.188,26.929,298.415
2014-01-12 00:00:00,2014-01-12 00:00:00,TMP,surface,-101.25,26.929,298.866
2014-01-12 00:00:00,2014-01-12 00:00:00,TMP,surface,-100.313,26.929,301.237
2014-01-12 00:00:00,2014-01-12 00:00:00,TMP,surface,-99.3754,26.929,302.857
2014-01-12 00:00:00,2014-01-12 00:00:00,TMP,surface,-98.4379,26.929,301.353
2014-01-12 00:00:00,2014-01-12 00:00:00,TMP,surface,-97.5004,26.929,298.639
2014-01-12 00:00:00,2014-01-12 00:00:00,TMP,surface,-96.5629,26.929,298.725
2014-01-12 00:00:00,2014-01-12 00:00:00,TMP,surface,-95.6254,26.929,299.967
2014-01-12 00:00:00,2014-01-12 00:00:00,TMP,surface,-94.6879,26.929,300.735
2014-01-12 00:00:00,2014-01-12 00:00:00,TMP,surface,-93.7504,26.929,300.93
2014-01-12 00:00:00,2014-01-12 00:00:00,TMP,surface,-92.8129,26.929,301.001
2014-01-12 00:00:00,2014-01-12 00:00:00,TMP,surface,-107.813,27.8739,294.613
2014-01-12 00:00:00,2014-01-12 00:00:00,TMP,surface,-106.875,27.8739,294.207
2014-01-12 00:00:00,2014-01-12 00:00:00,TMP,surface,-105.938,27.8739,297.449
2014-01-12 00:00:00,2014-01-12 00:00:00,TMP,surface,-105,27.8739,300.78
2014-01-12 00:00:00,2014-01-12 00:00:00,TMP,surface,-104.063,27.8739,300.949
2014-01-12 00:00:00,2014-01-12 00:00:00,TMP,surface,-103.125,27.8739,298.482
2014-01-12 00:00:00,2014-01-12 00:00:00,TMP,surface,-102.188,27.8739,297.285
2014-01-12 00:00:00,2014-01-12 00:00:00,TMP,surface,-101.25,27.8739,299.433
2014-01-12 00:00:00,2014-01-12 00:00:00,TMP,surface,-100.313,27.8739,301.657
2014-01-12 00:00:00,2014-01-12 00:00:00,TMP,surface,-99.3754,27.8739,301.596
2014-01-12 00:00:00,2014-01-12 00:00:00,TMP,surface,-98.4379,27.8739,300.079
2014-01-12 00:00:00,2014-01-12 00:00:00,TMP,surface,-97.5004,27.8739,299.244
2014-01-12 00:00:00,2014-01-12 00:00:00,TMP,surface,-96.5629,27.8739,299.548
2014-01-12 00:00:00,2014-01-12 00:00:00,TMP,surface,-95.6254,27.8739,300.194
2014-01-12 00:00:00,2014-01-12 00:00:00,TMP,surface,-94.6879,27.8739,300.693
2014-01-12 00:00:00,2014-01-12 00:00:00,TMP,surface,-93.7504,27.8739,300.892
2014-01-12 00:00:00,2014-01-12 00:00:00,TMP,surface,-92.8129,27.8739,301.09
2014-01-12 00:00:00,2014-01-12 00:00:00,TMP,surface,-107.813,28.8188,294.441
2014-01-12 00:00:00,2014-01-12 00:00:00,TMP,surface,-106.875,28.8188,295.497
2014-01-12 00:00:00,2014-01-12 00:00:00,TMP,surface,-105.938,28.8188,299.247
2014-01-12 00:00:00,2014-01-12 00:00:00,TMP,surface,-105,28.8188,301.989
2014-01-12 00:00:00,2014-01-12 00:00:00,TMP,surface,-104.063,28.8188,300.885
2014-01-12 00:00:00,2014-01-12 00:00:00,TMP,surface,-103.125,28.8188,298.514
2014-01-12 00:00:00,2014-01-12 00:00:00,TMP,surface,-102.188,28.8188,297.49
2014-01-12 00:00:00,2014-01-12 00:00:00,TMP,surface,-101.25,28.8188,299.295
2014-01-12 00:00:00,2014-01-12 00:00:00,TMP,surface,-100.313,28.8188,299.945
2014-01-12 00:00:00,2014-01-12 00:00:00,TMP,surface,-99.3754,28.8188,299.154
2014-01-12 00:00:00,2014-01-12 00:00:00,TMP,surface,-98.4379,28.8188,298.469
2014-01-12 00:00:00,2014-01-12 00:00:00,TMP,surface,-97.5004,28.8188,298.514
2014-01-12 00:00:00,2014-01-12 00:00:00,TMP,surface,-96.5629,28.8188,299.135
2014-01-12 00:00:00,2014-01-12 00:00:00,TMP,surface,-95.6254,28.8188,299.141
2014-01-12 00:00:00,2014-01-12 00:00:00,TMP,surface,-94.6879,28.8188,298.405
2014-01-12 00:00:00,2014-01-12 00:00:00,TMP,surface,-93.7504,28.8188,298.921
2014-01-12 00:00:00,2014-01-12 00:00:00,TMP,surface,-92.8129,28.8188,299.577
2014-01-12 00:00:00,2014-01-12 00:00:00,TMP,surface,-107.813,29.7637,296.949
2014-01-12 00:00:00,2014-01-12 00:00:00,TMP,surface,-106.875,29.7637,298.316
2014-01-12 00:00:00,2014-01-12 00:00:00,TMP,surface,-105.938,29.7637,300.802
2014-01-12 00:00:00,2014-01-12 00:00:00,TMP,surface,-105,29.7637,301.525
2014-01-12 00:00:00,2014-01-12 00:00:00,TMP,surface,-104.063,29.7637,300.959
2014-01-12 00:00:00,2014-01-12 00:00:00,TMP,surface,-103.125,29.7637,299.941
2014-01-12 00:00:00,2014-01-12 00:00:00,TMP,surface,-102.188,29.7637,299.829
2014-01-12 00:00:00,2014-01-12 00:00:00,TMP,surface,-101.25,29.7637,299.641
2014-01-12 00:00:00,2014-01-12 00:00:00,TMP,surface,-100.313,29.7637,298.309
2014-01-12 00:00:00,2014-01-12 00:00:00,TMP,surface,-99.3754,29.7637,297.01
2014-01-12 00:00:00,2014-01-12 00:00:00,TMP,surface,-98.4379,29.7637,296.793
2014-01-12 00:00:00,2014-01-12 00:00:00,TMP,surface,-97.5004,29.7637,297.477
2014-01-12 00:00:00,2014-01-12 00:00:00,TMP,surface,-96.5629,29.7637,298.29
2014-01-12 00:00:00,2014-01-12 00:00:00,TMP,surface,-95.6254,29.7637,298.949
2014-01-12 00:00:00,2014-01-12 00:00:00,TMP,surface,-94.6879,29.7637,298.53
2014-01-12 00:00:00,2014-01-12 00:00:00,TMP,surface,-93.7504,29.7637,297.57
2014-01-12 00:00:00,2014-01-12 00:00:00,TMP,surface,-92.8129,29.7637,300.549
2014-01-12 00:00:00,2014-01-12 00:00:00,TMP,surface,-107.813,30.7085,300.722
2014-01-12 00:00:00,2014-01-12 00:00:00,TMP,surface,-106.875,30.7085,301.49
2014-01-12 00:00:00,2014-01-12 00:00:00,TMP,surface,-105.938,30.7085,301.929
2014-01-12 00:00:00,2014-01-12 00:00:00,TMP,surface,-105,30.7085,301.205
2014-01-12 00:00:00,2014-01-12 00:00:00,TMP,surface,-104.063,30.7085,300.3
2014-01-12 00:00:00,2014-01-12 00:00:00,TMP,surface,-103.125,30.7085,300.773
2014-01-12 00:00:00,2014-01-12 00:00:00,TMP,surface,-102.188,30.7085,300.773
2014-01-12 00:00:00,2014-01-12 00:00:00,TMP,surface,-101.25,30.7085,299.621
2014-01-12 00:00:00,2014-01-12 00:00:00,TMP,surface,-100.313,30.7085,297.909
2014-01-12 00:00:00,2014-01-12 00:00:00,TMP,surface,-99.3754,30.7085,296.825
2014-01-12 00:00:00,2014-01-12 00:00:00,TMP,surface,-98.4379,30.7085,296.914
2014-01-12 00:00:00,2014-01-12 00:00:00,TMP,surface,-97.5004,30.7085,297.529
2014-01-12 00:00:00,2014-01-12 00:00:00,TMP,surface,-96.5629,30.7085,298.751
2014-01-12 00:00:00,2014-01-12 00:00:00,TMP,surface,-95.6254,30.7085,300.021
2014-01-12 00:00:00,2014-01-12 00:00:00,TMP,surface,-94.6879,30.7085,300.303
2014-01-12 00:00:00,2014-01-12 00:00:00,TMP,surface,-93.7504,30.7085,300.655
2014-01-12 00:00:00,2014-01-12 00:00:00,TMP,surface,-92.8129,30.7085,300.745
2014-01-12 00:00:00,2014-01-12 00:00:00,TMP,surface,-107.813,31.6534,301.177
2014-01-12 00:00:00,2014-01-12 00:00:00,TMP,surface,-106.875,31.6534,301.081
2014-01-12 00:00:00,2014-01-12 00:00:00,TMP,surface,-105.938,31.6534,301.775
2014-01-12 00:00:00,2014-01-12 00:00:00,TMP,surface,-105,31.6534,300.821
2014-01-12 00:00:00,2014-01-12 00:00:00,TMP,surface,-104.063,31.6534,300.722
2014-01-12 00:00:00,2014-01-12 00:00:00,TMP,surface,-103.125,31.6534,301.077
2014-01-12 00:00:00,2014-01-12 00:00:00,TMP,surface,-102.188,31.6534,300.914
2014-01-12 00:00:00,2014-01-12 00:00:00,TMP,surface,-101.25,31.6534,299.839
2014-01-12 00:00:00,2014-01-12 00:00:00,TMP,surface,-100.313,31.6534,298.882
2014-01-12 00:00:00,2014-01-12 00:00:00,TMP,surface,-99.3754,31.6534,298.095
2014-01-12 00:00:00,2014-01-12 00:00:00,TMP,surface,-98.4379,31.6534,297.775
2014-01-12 00:00:00,2014-01-12 00:00:00,TMP,surface,-97.5004,31.6534,298.005
2014-01-12 00:00:00,2014-01-12 00:00:00,TMP,surface,-96.5629,31.6534,299.061
2014-01-12 00:00:00,2014-01-12 00:00:00,TMP,surface,-95.6254,31.6534,300.233
2014-01-12 00:00:00,2014-01-12 00:00:00,TMP,surface,-94.6879,31.6534,300.489
2014-01-12 00:00:00,2014-01-12 00:00:00,TMP,surface,-93.7504,31.6534,300.697
2014-01-12 00:00:00,2014-01-12 00:00:00,TMP,surface,-92.8129,31.6534,301.033
2014-01-12 00:00:00,2014-01-12 00:00:00,TMP,surface,-107.813,32.5983,298.213
2014-01-12 00:00:00,2014-01-12 00:00:00,TMP,surface,-106.875,32.5983,299.244
2014-01-12 00:00:00,2014-01-12 00:00:00,TMP,surface,-105.938,32.5983,299.842
2014-01-12 00:00:00,2014-01-12 00:00:00,TMP,surface,-105,32.5983,299.861
2014-01-12 00:00:00,2014-01-12 00:00:00,TMP,surface,-104.063,32.5983,299.932
2014-01-12 00:00:00,2014-01-12 00:00:00,TMP,surface,-103.125,32.5983,300.607
2014-01-12 00:00:00,2014-01-12 00:00:00,TMP,surface,-102.188,32.5983,300.492
2014-01-12 00:00:00,2014-01-12 00:00:00,TMP,surface,-101.25,32.5983,300.108
2014-01-12 00:00:00,2014-01-12 00:00:00,TMP,surface,-100.313,32.5983,300.053
2014-01-12 00:00:00,2014-01-12 00:00:00,TMP,surface,-99.3754,32.5983,299.653
2014-01-12 00:00:00,2014-01-12 00:00:00,TMP,surface,-98.4379,32.5983,298.834
2014-01-12 00:00:00,2014-01-12 00:00:00,TMP,surface,-97.5004,32.5983,298.434
2014-01-12 00:00:00,2014-01-12 00:00:00,TMP,surface,-96.5629,32.5983,299.113
2014-01-12 00:00:00,2014-01-12 00:00:00,TMP,surface,-95.6254,32.5983,300.143
2014-01-12 00:00:00,2014-01-12 00:00:00,TMP,surface,-94.6879,32.5983,300.476
2014-01-12 00:00:00,2014-01-12 00:00:00,TMP,surface,-93.7504,32.5983,300.54
2014-01-12 00:00:00,2014-01-12 00:00:00,TMP,surface,-92.8129,32.5983,300.924
2014-01-12 00:00:00,2014-01-12 00:00:00,TMP,surface,-107.813,33.5432,294.354
2014-01-12 00:00:00,2014-01-12 00:00:00,TMP,surface,-106.875,33.5432,296.537
2014-01-12 00:00:00,2014-01-12 00:00:00,TMP,surface,-105.938,33.5432,297.676
2014-01-12 00:00:00,2014-01-12 00:00:00,TMP,surface,-105,33.5432,298.767
2014-01-12 00:00:00,2014-01-12 00:00:00,TMP,surface,-104.063,33.5432,299.545
2014-01-12 00:00:00,2014-01-12 00:00:00,TMP,surface,-103.125,33.5432,299.919
2014-01-12 00:00:00,2014-01-12 00:00:00,TMP,surface,-102.188,33.5432,299.913
2014-01-12 00:00:00,2014-01-12 00:00:00,TMP,surface,-101.25,33.5432,299.839
2014-01-12 00:00:00,2014-01-12 00:00:00,TMP,surface,-100.313,33.5432,300.636
2014-01-12 00:00:00,2014-01-12 00:00:00,TMP,surface,-99.3754,33.5432,300.681
2014-01-12 00:00:00,2014-01-12 00:00:00,TMP,surface,-98.4379,33.5432,299.551
2014-01-12 00:00:00,2014-01-12 00:00:00,TMP,surface,-97.5004,33.5432,298.418
2014-01-12 00:00:00,2014-01-12 00:00:00,TMP,surface,-96.5629,33.5432,298.143
2014-01-12 00:00:00,2014-01-12 00:00:00,TMP,surface,-95.6254,33.5432,298.789
2014-01-12 00:00:00,2014-01-12 00:00:00,TMP,surface,-94.6879,33.5432,299.679
2014-01-12 00:00:00,2014-01-12 00:00:00,TMP,surface,-93.7504,33.5432,299.938
2014-01-12 00:00:00,2014-01-12 00:00:00,TMP,surface,-92.8129,33.5432,300.185
2014-01-12 00:00:00,2014-01-12 00:00:00,TMP,surface,-107.813,34.4881,292.969
2014-01-12 00:00:00,2014-01-12 00:00:00,TMP,surface,-106.875,34.4881,295.167
2014-01-12 00:00:00,2014-01-12 00:00:00,TMP,surface,-105.938,34.4881,296.418
2014-01-12 00:00:00,2014-01-12 00:00:00,TMP,surface,-105,34.4881,298.402
2014-01-12 00:00:00,2014-01-12 00:00:00,TMP,surface,-104.063,34.4881,299.474
2014-01-12 00:00:00,2014-01-12 00:00:00,TMP,surface,-103.125,34.4881,299.701
2014-01-12 00:00:00,2014-01-12 00:00:00,TMP,surface,-102.188,34.4881,299.714
2014-01-12 00:00:00,2014-01-12 00:00:00,TMP,surface,-101.25,34.4881,299.73
2014-01-12 00:00:00,2014-01-12 00:00:00,TMP,surface,-100.313,34.4881,300.236
2014-01-12 00:00:00,2014-01-12 00:00:00,TMP,surface,-99.3754,34.4881,300.501
2014-01-12 00:00:00,2014-01-12 00:00:00,TMP,surface,-98.4379,34.4881,299.698
2014-01-12 00:00:00,2014-01-12 00:00:00,TMP,surface,-97.5004,34.4881,298.338
2014-01-12 00:00:00,2014-01-12 00:00:00,TMP,surface,-96.5629,34.4881,298.021
2014-01-12 00:00:00,2014-01-12 00:00:00,TMP,surface,-95.6254,34.4881,298.62
2014-01-12 00:00:00,2014-01-12 00:00:00,TMP,surface,-94.6879,34.4881,298.713
2014-01-12 00:00:00,2014-01-12 00:00:00,TMP,surface,-93.7504,34.4881,298.735
2014-01-12 00:00:00,2014-01-12 00:00:00,TMP,surface,-92.8129,34.4881,299.34
2014-01-12 00:00:00,2014-01-12 00:00:00,TMP,surface,-107.813,35.4329,293.017
2014-01-12 00:00:00,2014-01-12 00:00:00,TMP,surface,-106.875,35.4329,293.893
2014-01-12 00:00:00,2014-01-12 00:00:00,TMP,surface,-105.938,35.4329,294.258
2014-01-12 00:00:00,2014-01-12 00:00:00,TMP,surface,-105,35.4329,295.836
2014-01-12 00:00:00,2014-01-12 00:00:00,TMP,surface,-104.063,35.4329,297.977
2014-01-12 00:00:00,2014-01-12 00:00:00,TMP,surface,-103.125,35.4329,299.298
2014-01-12 00:00:00,2014-01-12 00:00:00,TMP,surface,-102.188,35.4329,299.823
2014-01-12 00:00:00,2014-01-12 00:00:00,TMP,surface,-101.25,35.4329,299.781
2014-01-12 00:00:00,2014-01-12 00:00:00,TMP,surface,-100.313,35.4329,299.57
2014-01-12 00:00:00,2014-01-12 00:00:00,TMP,surface,-99.3754,35.4329,299.791
2014-01-12 00:00:00,2014-01-12 00:00:00,TMP,surface,-98.4379,35.4329,299.455
2014-01-12 00:00:00,2014-01-12 00:00:00,TMP,surface,-97.5004,35.4329,298.412
2014-01-12 00:00:00,2014-01-12 00:00:00,TMP,surface,-96.5629,35.4329,297.538
2014-01-12 00:00:00,2014-01-12 00:00:00,TMP,surface,-95.6254,35.4329,297.682
2014-01-12 00:00:00,2014-01-12 00:00:00,TMP,surface,-94.6879,35.4329,298.405
2014-01-12 00:00:00,2014-01-12 00:00:00,TMP,surface,-93.7504,35.4329,298.329
2014-01-12 00:00:00,2014-01-12 00:00:00,TMP,surface,-92.8129,35.4329,298.309
2014-01-12 00:00:00,2014-01-12 00:00:00,TMP,surface,-107.813,36.3778,291.849
2014-01-12 00:00:00,2014-01-12 00:00:00,TMP,surface,-106.875,36.3778,289.9
2014-01-12 00:00:00,2014-01-12 00:00:00,TMP,surface,-105.938,36.3778,291.026
2014-01-12 00:00:00,2014-01-12 00:00:00,TMP,surface,-105,36.3778,292.847
2014-01-12 00:00:00,2014-01-12 00:00:00,TMP,surface,-104.063,36.3778,295.839
2014-01-12 00:00:00,2014-01-12 00:00:00,TMP,surface,-103.125,36.3778,298.258
2014-01-12 00:00:00,2014-01-12 00:00:00,TMP,surface,-102.188,36.3778,299.292
2014-01-12 00:00:00,2014-01-12 00:00:00,TMP,surface,-101.25,36.3778,299.433
2014-01-12 00:00:00,2014-01-12 00:00:00,TMP,surface,-100.313,36.3778,299.353
2014-01-12 00:00:00,2014-01-12 00:00:00,TMP,surface,-99.3754,36.3778,299.269
2014-01-12 00:00:00,2014-01-12 00:00:00,TMP,surface,-98.4379,36.3778,299.138
2014-01-12 00:00:00,2014-01-12 00:00:00,TMP,surface,-97.5004,36.3778,298.521
2014-01-12 00:00:00,2014-01-12 00:00:00,TMP,surface,-96.5629,36.3778,297.727
2014-01-12 00:00:00,2014-01-12 00:00:00,TMP,surface,-95.6254,36.3778,297.714
2014-01-12 00:00:00,2014-01-12 00:00:00,TMP,surface,-94.6879,36.3778,298.111
2014-01-12 00:00:00,2014-01-12 00:00:00,TMP,surface,-93.7504,36.3778,297.849
2014-01-12 00:00:00,2014-01-12 00:00:00,TMP,surface,-92.8129,36.3778,297.842
2014-01-12 00:00:00,2014-01-12 00:00:00,PRATE,surface,-107.813,25.0393,3e-07
2014-01-12 00:00:00,2014-01-12 00:00:00,PRATE,surface,-106.875,25.0393,1.16e-05
2014-01-12 00:00:00,2014-01-12 00:00:00,PRATE,surface,-105.938,25.0393,4.76e-05
2014-01-12 00:00:00,2014-01-12 00:00:00,PRATE,surface,-105,25.0393,2.68e-05
2014-01-12 00:00:00,2014-01-12 00:00:00,PRATE,surface,-104.063,25.0393,3e-06
2014-01-12 00:00:00,2014-01-12 00:00:00,PRATE,surface,-103.125,25.0393,5e-07
2014-01-12 00:00:00,2014-01-12 00:00:00,PRATE,surface,-102.188,25.0393,4.7e-06
2014-01-12 00:00:00,2014-01-12 00:00:00,PRATE,surface,-101.25,25.0393,3.48e-05
2014-01-12 00:00:00,2014-01-12 00:00:00,PRATE,surface,-100.313,25.0393,4.52e-05
2014-01-12 00:00:00,2014-01-12 00:00:00,PRATE,surface,-99.3754,25.0393,1.74e-05
2014-01-12 00:00:00,2014-01-12 00:00:00,PRATE,surface,-98.4379,25.0393,9.7e-06
2014-01-12 00:00:00,2014-01-12 00:00:00,PRATE,surface,-97.5004,25.0393,9.6e-06
2014-01-12 00:00:00,2014-01-12 00:00:00,PRATE,surface,-96.5629,25.0393,6.2e-06
2014-01-12 00:00:00,2014-01-12 00:00:00,PRATE,surface,-95.6254,25.0393,9.5e-06
2014-01-12 00:00:00,2014-01-12 00:00:00,PRATE,surface,-94.6879,25.0393,1.61e-05
2014-01-12 00:00:00,2014-01-12 00:00:00,PRATE,surface,-93.7504,25.0393,3.56e-05
2014-01-12 00:00:00,2014-01-12 00:00:00,PRATE,surface,-92.8129,25.0393,2.99e-05
2014-01-12 00:00:00,2014-01-12 00:00:00,PRATE,surface,-107.813,25.9842,2.4e-06
2014-01-12 00:00:00,2014-01-12 00:00:00,PRATE,surface,-106.875,25.9842,3.37e-05
2014-01-12 00:00:00,2014-01-12 00:00:00,PRATE,surface,-105.938,25.9842,3.67e-05
2014-01-12 00:00:00,2014-01-12 00:00:00,PRATE,surface,-105,25.9842,6.8e-06
2014-01-12 00:00:00,2014-01-12 00:00:00,PRATE,surface,-104.063,25.9842,2e-07
2014-01-12 00:00:00,2014-01-12 00:00:00,PRATE,surface,-103.125,25.9842,4e-07
2014-01-12 00:00:00,2014-01-12 00:00:00,PRATE,surface,-102.188,25.9842,9e-07
2014-01-12 00:00:00,2014-01-12 00:00:00,PRATE,surface,-101.25,25.9842,3.32e-05
2014-01-12 00:00:00,2014-01-12 00:00:00,PRATE,surface,-100.313,25.9842,2.44e-05
2014-01-12 00:00:00,2014-01-12 00:00:00,PRATE,surface,-99.3754,25.9842,3e-06
2014-01-12 00:00:00,2014-01-12 00:00:00,PRATE,surface,-98.4379,25.9842,5.3e-06
2014-01-12 00:00:00,2014-01-12 00:00:00,PRATE,surface,-97.5004,25.9842,1.74e-05
2014-01-12 00:00:00,2014-01-12 00:00:00,PRATE,surface,-96.5629,25.9842,8.6e-06
2014-01-12 00:00:00,2014-01-12 00:00:00,PRATE,surface,-95.6254,25.9842,2.61e-05
2014-01-12 00:00:00,2014-01-12 00:00:00,PRATE,surface,-94.6879,25.9842,3.03e-05
2014-01-12 00:00:00,2014-01-12 00:00:00,PRATE,surface,-93.7504,25.9842,2.58e-05
2014-01-12 00:00:00,2014-01-12 00:00:00,PRATE,surface,-92.8129,25.9842,9.8e-06
2014-01-12 00:00:00,2014-01-12 00:00:00,PRATE,surface,-107.813,26.929,7.2e-06
2014-01-12 00:00:00,2014-01-12 00:00:00,PRATE,surface,-106.875,26.929,2.98e-05
2014-01-12 00:00:00,2014-01-12 00:00:00,PRATE,surface,-105.938,26.929,1.13e-05
2014-01-12 00:00:00,2014-01-12 00:00:00,PRATE,surface,-105,26.929,2e-06
2014-01-12 00:00:00,2014-01-12 00:00:00,PRATE,surface,-104.063,26.929,9e-07
2014-01-12 00:00:00,2014-01-12 00:00:00,PRATE,surface,-103.125,26.929,1.1e-06
2014-01-12 00:00:00,2014-01-12 00:00:00,PRATE,surface,-102.188,26.929,5.1e-06
2014-01-12 00:00:00,2014-01-12 00:00:00,PRATE,surface,-101.25,26.929,2.04e-05
2014-01-12 00:00:00,2014-01-12 00:00:00,PRATE,surface,-100.313,26.929,4.4e-06
2014-01-12 00:00:00,2014-01-12 00:00:00,PRATE,surface,-99.3754,26.929,3.9e-06
2014-01-12 00:00:00,2014-01-12 00:00:00,PRATE,surface,-98.4379,26.929,1.57e-05
2014-01-12 00:00:00,2014-01-12 00:00:00,PRATE,surface,-97.5004,26.929,2.27e-05
2014-01-12 00:00:00,2014-01-12 00:00:00,PRATE,surface,-96.5629,26.929,1.97e-05
2014-01-12 00:00:00,2014-01-12 00:00:00,PRATE,surface,-95.6254,26.929,8.6e-06
2014-01-12 00:00:00,2014-01-12 00:00:00,PRATE,surface,-94.6879,26.929,1.06e-05
2014-01-12 00:00:00,2014-01-12 00:00:00,PRATE,surface,-93.7504,26.929,7e-06
2014-01-12 00:00:00,2014-01-12 00:00:00,PRATE,surface,-92.8129,26.929,8.7e-06
2014-01-12 00:00:00,2014-01-12 00:00:00,PRATE,surface,-107.813,27.8739,9.6e-06
2014-01-12 00:00:00,2014-01-12 00:00:00,PRATE,surface,-106.875,27.8739,1.53e-05
2014-01-12 00:00:00,2014-01-12 00:00:00,PRATE,surface,-105.938,27.8739,9e-07
2014-01-12 00:00:00,2014-01-12 00:00:00,PRATE,surface,-105,27.8739,3e-07
2014-01-12 00:00:00,2014-01-12 00:00:00,PRATE,surface,-104.063,27.8739,2.2e-06
2014-01-12 00:00:00,2014-01-12 00:00:00,PRATE,surface,-103.125,27.8739,1.04e-05
2014-01-12 00:00:00,2014-01-12 00:00:00,PRATE,surface,-102.188,27.8739,1.92e-05
2014-01-12 00:00:00,2014-01-12 00:00:00,PRATE,surface,-101.25,27.8739,8.8e-06
2014-01-12 00:00:00,2014-01-12 00:00:00,PRATE,surface,-100.313,27.8739,9.8e-06
2014-01-12 00:00:00,2014-01-12 00:00:00,PRATE,surface,-99.3754,27.8739,2.63e-05
2014-01-12 00:00:00,2014-01-12 00:00:00,PRATE,surface,-98.4379,27.8739,3.56e-05
2014-01-12 00:00:00,2014-01-12 00:00:00,PRATE,surface,-97.5004,27.8739,2.92e-05
2014-01-12 00:00:00,2014-01-12 00:00:00,PRATE,surface,-96.5629,27.8739,1.54e-05
2014-01-12 00:00:00,2014-01-12 00:00:00,PRATE,surface,-95.6254,27.8739,4.7e-06
2014-01-12 00:00:00,2014-01-12 00:00:00,PRATE,surface,-94.6879,27.8739,1.4e-06
2014-01-12 00:00:00,2014-01-12 00:00:00,PRATE,surface,-93.7504,27.8739,2.6e-06
2014-01-12 00:00:00,2014-01-12 00:00:00,PRATE,surface,-92.8129,27.8739,6.8e-06
2014-01-12 00:00:00,2014-01-12 00:00:00,PRATE,surface,-107.813,28.8188,7.6e-06
2014-01-12 00:00:00,2014-01-12 00:00:00,PRATE,surface,-106.875,28.8188,1.29e-05
2014-01-12 00:00:00,2014-01-12 00:00:00,PRATE,surface,-105.938,28.8188,1.2e-06
2014-01-12 00:00:00,2014-01-12 00:00:00,PRATE,surface,-105,28.8188,2e-07
2014-01-12 00:00:00,2014-01-12 00:00:00,PRATE,surface,-104.063,28.8188,2.5e-06
2014-01-12 00:00:00,2014-01-12 00:00:00,PRATE,surface,-103.125,28.8188,6.2e-06
2014-01-12 00:00:00,2014-01-12 00:00:00,PRATE,surface,-102.188,28.8188,7.6e-06
2014-01-12 00:00:00,2014-01-12 00:00:00,PRATE,surface,-101.25,28.8188,4.1e-06
2014-01-12 00:00:00,2014-01-12 00:00:00,PRATE,surface,-100.313,28.8188,1.4e-05
2014-01-12 00:00:00,2014-01-12 00:00:00,PRATE,surface,-99.3754,28.8188,3.47e-05
2014-01-12 00:00:00,2014-01-12 00:00:00,PRATE,surface,-98.4379,28.8188,4.24e-05
2014-01-12 00:00:00,2014-01-12 00:00:00,PRATE,surface,-97.5004,28.8188,3e-05
2014-01-12 00:00:00,2014-01-12 00:00:00,PRATE,surface,-96.5629,28.8188,1.32e-05
2014-01-12 00:00:00,2014-01-12 00:00:00,PRATE,surface,-95.6254,28.8188,4.5e-06
2014-01-12 00:00:00,2014-01-12 00:00:00,PRATE,surface,-94.6879,28.8188,2e-06
2014-01-12 00:00:00,2014-01-12 00:00:00,PRATE,surface,-93.7504,28.8188,1.7e-06
2014-01-12 00:00:00,2014-01-12 00:00:00,PRATE,surface,-92.8129,28.8188,4.5e-06
2014-01-12 00:00:00,2014-01-12 00:00:00,PRATE,surface,-107.813,29.7637,4.2e-06
2014-01-12 00:00:00,2014-01-12 00:00:00,PRATE,surface,-106.875,29.7637,8.9e-06
2014-01-12 00:00:00,2014-01-12 00:00:00,PRATE,surface,-105.938,29.7637,4.8e-06
2014-01-12 00:00:00,2014-01-12 00:00:00,PRATE,surface,-105,29.7637,5e-07
2014-01-12 00:00:00,2014-01-12 00:00:00,PRATE,surface,-104.063,29.7637,1.2e-06
2014-01-12 00:00:00,2014-01-12 00:00:00,PRATE,surface,-103.125,29.7637,1.8e-06
2014-01-12 00:00:00,2014-01-12 00:00:00,PRATE,surface,-102.188,29.7637,6e-07
2014-01-12 00:00:00,2014-01-12 00:00:00,PRATE,surface,-101.25,29.7637,8e-07
2014-01-12 00:00:00,2014-01-12 00:00:00,PRATE,surface,-100.313,29.7637,9.2e-06
2014-01-12 00:00:00,2014-01-12 00:00:00,PRATE,surface,-99.3754,29.7637,3.72e-05
2014-01-12 00:00:00,2014-01-12 00:00:00,PRATE,surface,-98.4379,29.7637,3.7e-05
2014-01-12 00:00:00,2014-01-12 00:00:00,PRATE,surface,-97.5004,29.7637,1.8e-05
2014-01-12 00:00:00,2014-01-12 00:00:00,PRATE,surface,-96.5629,29.7637,1.15e-05
2014-01-12 00:00:00,2014-01-12 00:00:00,PRATE,surface,-95.6254,29.7637,1.01e-05
2014-01-12 00:00:00,2014-01-12 00:00:00,PRATE,surface,-94.6879,29.7637,5.6e-06
2014-01-12 00:00:00,2014-01-12 00:00:00,PRATE,surface,-93.7504,29.7637,5.8e-06
2014-01-12 00:00:00,2014-01-12 00:00:00,PRATE,surface,-92.8129,29.7637,7.4e-06
2014-01-12 00:00:00,2014-01-12 00:00:00,PRATE,surface,-107.813,30.7085,4e-07
2014-01-12 00:00:00,2014-01-12 00:00:00,PRATE,surface,-106.875,30.7085,2e-06
2014-01-12 00:00:00,2014-01-12 00:00:00,PRATE,surface,-105.938,30.7085,4.5e-06
2014-01-12 00:00:00,2014-01-12 00:00:00,PRATE,surface,-105,30.7085,1.4e-06
2014-01-12 00:00:00,2014-01-12 00:00:00,PRATE,surface,-104.063,30.7085,2.1e-06
2014-01-12 00:00:00,2014-01-12 00:00:00,PRATE,surface,-103.125,30.7085,4e-07
2014-01-12 00:00:00,2014-01-12 00:00:00,PRATE,surface,-102.188,30.7085,1e-07
2014-01-12 00:00:00,2014-01-12 00:00:00,PRATE,surface,-101.25,30.7085,6e-07
2014-01-12 00:00:00,2014-01-12 00:00:00,PRATE,surface,-100.313,30.7085,8.1e-06
2014-01-12 00:00:00,2014-01-12 00:00:00,PRATE,surface,-99.3754,30.7085,1.71e-05
2014-01-12 00:00:00,2014-01-12 00:00:00,PRATE,surface,-98.4379,30.7085,1.64e-05
2014-01-12 00:00:00,2014-01-12 00:00:00,PRATE,surface,-97.5004,30.7085,9.8e-06
2014-01-12 00:00:00,2014-01-12 00:00:00,PRATE,surface,-96.5629,30.7085,6.8e-06
2014-01-12 00:00:00,2014-01-12 00:00:00,PRATE,surface,-95.6254,30.7085,7.9e-06
2014-01-12 00:00:00,2014-01-12 00:00:00,PRATE,surface,-94.6879,30.7085,8.4e-06
2014-01-12 00:00:00,2014-01-12 00:00:00,PRATE,surface,-93.7504,30.7085,8e-06
2014-01-12 00:00:00,2014-01-12 00:00:00,PRATE,surface,-92.8129,30.7085,1e-05
2014-01-12 00:00:00,2014-01-12 00:00:00,PRATE,surface,-107.813,31.6534,0
2014-01-12 00:00:00,2014-01-12 00:00:00,PRATE,surface,-106.875,31.6534,2e-07
2014-01-12 00:00:00,2014-01-12 00:00:00,PRATE,surface,-105.938,31.6534,1.1e-06
2014-01-12 00:00:00,2014-01-12 00:00:00,PRATE,surface,-105,31.6534,1e-06
2014-01-12 00:00:00,2014-01-12 00:00:00,PRATE,surface,-104.063,31.6534,9e-07
2014-01-12 00:00:00,2014-01-12 00:00:00,PRATE,surface,-103.125,31.6534,8e-07
2014-01-12 00:00:00,2014-01-12 00:00:00,PRATE,surface,-102.188,31.6534,2e-07
2014-01-12 00:00:00,2014-01-12 00:00:00,PRATE,surface,-101.25,31.6534,7e-07
2014-01-12 00:00:00,2014-01-12 00:00:00,PRATE,surface,-100.313,31.6534,2.1e-06
2014-01-12 00:00:00,2014-01-12 00:00:00,PRATE,surface,-99.3754,31.6534,5.1e-06
2014-01-12 00:00:00,2014-01-12 00:00:00,PRATE,surface,-98.4379,31.6534,6.7e-06
2014-01-12 00:00:00,2014-01-12 00:00:00,PRATE,surface,-97.5004,31.6534,7.2e-06
2014-01-12 00:00:00,2014-01-12 00:00:00,PRATE,surface,-96.5629,31.6534,6.3e-06
2014-01-12 00:00:00,2014-01-12 00:00:00,PRATE,surface,-95.6254,31.6534,5.3e-06
2014-01-12 00:00:00,2014-01-12 00:00:00,PRATE,surface,-94.6879,31.6534,7.5e-06
2014-01-12 00:00:00,2014-01-12 00:00:00,PRATE,surface,-93.7504,31.6534,9.3e-06
2014-01-12 00:00:00,2014-01-12 00:00:00,PRATE,surface,-92.8129,31.6534,9.3e-06
2014-01-12 00:00:00,2014-01-12 00:00:00,PRATE,surface,-107.813,32.5983,1e-07
2014-01-12 00:00:00,2014-01-12 00:00:00,PRATE,surface,-106.875,32.5983,3e-07
2014-01-12 00:00:00,2014-01-12 00:00:00,PRATE,surface,-105.938,32.5983,9e-07
2014-01-12 00:00:00,2014-01-12 00:00:00,PRATE,surface,-105,32.5983,5e-07
2014-01-12 00:00:00,2014-01-12 00:00:00,PRATE,surface,-104.063,32.5983,1e-07
2014-01-12 00:00:00,2014-01-12 00:00:00,PRATE,surface,-103.125,32.5983,7e-07
2014-01-12 00:00:00,2014-01-12 00:00:00,PRATE,surface,-102.188,32.5983,1.1e-06
2014-01-12 00:00:00,2014-01-12 00:00:00,PRATE,surface,-101.25,32.5983,1.2e-06
2014-01-12 00:00:00,2014-01-12 00:00:00,PRATE,surface,-100.313,32.5983,1e-06
2014-01-12 00:00:00,2014-01-12 00:00:00,PRATE,surface,-99.3754,32.5983,4e-07
2014-01-12 00:00:00,2014-01-12 00:00:00,PRATE,surface,-98.4379,32.5983,2.2e-06
2014-01-12 00:00:00,2014-01-12 00:00:00,PRATE,surface,-97.5004,32.5983,6.6e-06
2014-01-12 00:00:00,2014-01-12 00:00:00,PRATE,surface,-96.5629,32.5983,8.5e-06
2014-01-12 00:00:00,2014-01-12 00:00:00,PRATE,surface,-95.6254,32.5983,7.5e-06
2014-01-12 00:00:00,2014-01-12 00:00:00,PRATE,surface,-94.6879,32.5983,7.6e-06
2014-01-12 00:00:00,2014-01-12 00:00:00,PRATE,surface,-93.7504,32.5983,8.6e-06
2014-01-12 00:00:00,2014-01-12 00:00:00,PRATE,surface,-92.8129,32.5983,1.06e-05
2014-01-12 00:00:00,2014-01-12 00:00:00,PRATE,surface,-107.813,33.5432,1.2e-06
2014-01-12 00:00:00,2014-01-12 00:00:00,PRATE,surface,-106.875,33.5432,1.3e-06
2014-01-12 00:00:00,2014-01-12 00:00:00,PRATE,surface,-105.938,33.5432,2.2e-06
2014-01-12 00:00:00,2014-01-12 00:00:00,PRATE,surface,-105,33.5432,1e-06
2014-01-12 00:00:00,2014-01-12 00:00:00,PRATE,surface,-104.063,33.5432,1e-07
2014-01-12 00:00:00,2014-01-12 00:00:00,PRATE,surface,-103.125,33.5432,4e-07
2014-01-12 00:00:00,2014-01-12 00:00:00,PRATE,surface,-102.188,33.5432,9e-07
2014-01-12 00:00:00,2014-01-12 00:00:00,PRATE,surface,-101.25,33.5432,2.2e-06
2014-01-12 00:00:00,2014-01-12 00:00:00,PRATE,surface,-100.313,33.5432,1.9e-06
2014-01-12 00:00:00,2014-01-12 00:00:00,PRATE,surface,-99.3754,33.5432,1e-06
2014-01-12 00:00:00,2014-01-12 00:00:00,PRATE,surface,-98.4379,33.5432,2.2e-06
2014-01-12 00:00:00,2014-01-12 00:00:00,PRATE,surface,-97.5004,33.5432,8.7e-06
2014-01-12 00:00:00,2014-01-12 00:00:00,PRATE,surface,-96.5629,33.5432,1.17e-05
2014-01-12 00:00:00,2014-01-12 00:00:00,PRATE,surface,-95.6254,33.5432,9.1e-06
2014-01-12 00:00:00,2014-01-12 00:00:00,PRATE,surface,-94.6879,33.5432,1.04e-05
2014-01-12 00:00:00,2014-01-12 00:00:00,PRATE,surface,-93.7504,33.5432,1.31e-05
2014-01-12 00:00:00,2014-01-12 00:00:00,PRATE,surface,-92.8129,33.5432,1.4e-05
2014-01-12 00:00:00,2014-01-12 00:00:00,PRATE,surface,-107.813,34.4881,1.9e-06
2014-01-12 00:00:00,2014-01-12 00:00:00,PRATE,surface,-106.875,34.4881,1.7e-06
2014-01-12 00:00:00,2014-01-12 00:00:00,PRATE,surface,-105.938,34.4881,2.3e-06
2014-01-12 00:00:00,2014-01-12 00:00:00,PRATE,surface,-105,34.4881,2.1e-06
2014-01-12 00:00:00,2014-01-12 00:00:00,PRATE,surface,-104.063,34.4881,6e-07
2014-01-12 00:00:00,2014-01-12 00:00:00,PRATE,surface,-103.125,34.4881,6e-07
2014-01-12 00:00:00,2014-01-12 00:00:00,PRATE,surface,-102.188,34.4881,1.2e-06
2014-01-12 00:00:00,2014-01-12 00:00:00,PRATE,surface,-101.25,34.4881,5.3e-06
2014-01-12 00:00:00,2014-01-12 00:00:00,PRATE,surface,-100.313,34.4881,7.6e-06
2014-01-12 00:00:00,2014-01-12 00:00:00,PRATE,surface,-99.3754,34.4881,5.3e-06
2014-01-12 00:00:00,2014-01-12 00:00:00,PRATE,surface,-98.4379,34.4881,6.8e-06
2014-01-12 00:00:00,2014-01-12 00:00:00,PRATE,surface,-97.5004,34.4881,1.06e-05
2014-01-12 00:00:00,2014-01-12 00:00:00,PRATE,surface,-96.5629,34.4881,1.23e-05
2014-01-12 00:00:00,2014-01-12 00:00:00,PRATE,surface,-95.6254,34.4881,1.22e-05
2014-01-12 00:00:00,2014-01-12 00:00:00,PRATE,surface,-94.6879,34.4881,1.14e-05
2014-01-12 00:00:00,2014-01-12 00:00:00,PRATE,surface,-93.7504,34.4881,1.26e-05
2014-01-12 00:00:00,2014-01-12 00:00:00,PRATE,surface,-92.8129,34.4881,1.75e-05
2014-01-12 00:00:00,2014-01-12 00:00:00,PRATE,surface,-107.813,35.4329,1.3e-06
2014-01-12 00:00:00,2014-01-12 00:00:00,PRATE,surface,-106.875,35.4329,1.5e-06
2014-01-12 00:00:00,2014-01-12 00:00:00,PRATE,surface,-105.938,35.4329,1e-06
2014-01-12 00:00:00,2014-01-12 00:00:00,PRATE,surface,-105,35.4329,3e-06
2014-01-12 00:00:00,2014-01-12 00:00:00,PRATE,surface,-104.063,35.4329,2.1e-06
2014-01-12 00:00:00,2014-01-12 00:00:00,PRATE,surface,-103.125,35.4329,1.3e-06
2014-01-12 00:00:00,2014-01-12 00:00:00,PRATE,surface,-102.188,35.4329,3.4e-06
2014-01-12 00:00:00,2014-01-12 00:00:00,PRATE,surface,-101.25,35.4329,1.42e-05
2014-01-12 00:00:00,2014-01-12 00:00:00,PRATE,surface,-100.313,35.4329,1.44e-05
2014-01-12 00:00:00,2014-01-12 00:00:00,PRATE,surface,-99.3754,35.4329,1.19e-05
2014-01-12 00:00:00,2014-01-12 00:00:00,PRATE,surface,-98.4379,35.4329,1.12e-05
2014-01-12 00:00:00,2014-01-12 00:00:00,PRATE,surface,-97.5004,35.4329,1.64e-05
2014-01-12 00:00:00,2014-01-12 00:00:00,PRATE,surface,-96.5629,35.4329,2.27e-05
2014-01-12 00:00:00,2014-01-12 00:00:00,PRATE,surface,-95.6254,35.4329,2.32e-05
2014-01-12 00:00:00,2014-01-12 00:00:00,PRATE,surface,-94.6879,35.4329,2.24e-05
2014-01-12 00:00:00,2014-01-12 00:00:00,PRATE,surface,-93.7504,35.4329,2.47e-05
2014-01-12 00:00:00,2014-01-12 00:00:00,PRATE,surface,-92.8129,35.4329,2.9e-05
2014-01-12 00:00:00,2014-01-12 00:00:00,PRATE,surface,-107.813,36.3778,9e-07
2014-01-12 00:00:00,2014-01-12 00:00:00,PRATE,surface,-106.875,36.3778,2.8e-06
2014-01-12 00:00:00,2014-01-12 00:00:00,PRATE,surface,-105.938,36.3778,5e-06
2014-01-12 00:00:00,2014-01-12 00:00:00,PRATE,surface,-105,36.3778,5e-06
2014-01-12 00:00:00,2014-01-12 00:00:00,PRATE,surface,-104.063,36.3778,1.24e-05
2014-01-12 00:00:00,2014-01-12 00:00:00,PRATE,surface,-103.125,36.3778,1.22e-05
2014-01-12 00:00:00,2014-01-12 00:00:00,PRATE,surface,-102.188,36.3778,1.19e-05
2014-01-12 00:00:00,2014-01-12 00:00:00,PRATE,surface,-101.25,36.3778,1.55e-05
2014-01-12 00:00:00,2014-01-12 00:00:00,PRATE,surface,-100.313,36.3778,1.91e-05
2014-01-12 00:00:00,2014-01-12 00:00:00,PRATE,surface,-99.3754,36.3778,2.06e-05
2014-01-12 00:00:00,2014-01-12 00:00:00,PRATE,surface,-98.4379,36.3778,2.27e-05
2014-01-12 00:00:00,2014-01-12 00:00:00,PRATE,surface,-97.5004,36.3778,2.68e-05
2014-01-12 00:00:00,2014-01-12 00:00:00,PRATE,surface,-96.5629,36.3778,2.93e-05
2014-01-12 00:00:00,2014-01-12 00:00:00,PRATE,surface,-95.6254,36.3778,2.76e-05
2014-01-12 00:00:00,2014-01-12 00:00:00,PRATE,surface,-94.6879,36.3778,2.56e-05
2014-01-12 00:00:00,2014-01-12 00:00:00,PRATE,surface,-93.7504,36.3778,2.68e-05
2014-01-12 00:00:00,2014-01-12 00:00:00,PRATE,surface,-92.8129,36.3778,2.71e-05
