2011-04-16 00:00:00,2011-04-16 00:00:00,TMP,surface,-107.813,25.0393,303.873
2011-04-16 00:00:00,2011-04-16 00:00:00,TMP,surface,-106.875,25.0393,298.651
2011-04-16 00:00:00,2011-04-16 00:00:00,TMP,surface,-105.938,25.0393,294.165
2011-04-16 00:00:00,2011-04-16 00:00:00,TMP,surface,-105,25.0393,292.792
2011-04-16 00:00:00,2011-04-16 00:00:00,TMP,surface,-104.063,25.0393,296.328
2011-04-16 00:00:00,2011-04-16 00:00:00,TMP,surface,-103.125,25.0393,299.425
2011-04-16 00:00:00,2011-04-16 00:00:00,TMP,surface,-102.188,25.0393,298.03
2011-04-16 00:00:00,2011-04-16 00:00:00,TMP,surface,-101.25,25.0393,295.221
2011-04-16 00:00:00,2011-04-16 00:00:00,TMP,surface,-100.313,25.0393,295.608
2011-04-16 00:00:00,2011-04-16 00:00:00,TMP,surface,-99.3754,25.0393,299.797
2011-04-16 00:00:00,2011-04-16 00:00:00,TMP,surface,-98.4379,25.0393,303.141
2011-04-16 00:00:00,2011-04-16 00:00:00,TMP,surface,-97.5004,25.0393,302.965
2011-04-16 00:00:00,2011-04-16 00:00:00,TMP,surface,-96.5629,25.0393,303.041
2011-04-16 00:00:00,2011-04-16 00:00:00,TMP,surface,-95.6254,25.0393,303.345
2011-04-16 00:00:00,2011-04-16 00:00:00,TMP,surface,-94.6879,25.0393,303.531
2011-04-16 00:00:00,2011-04-16 00:00:00,TMP,surface,-93.7504,25.0393,303.361
2011-04-16 00:00:00,2011-04-16 00:00:00,TMP,surface,-92.8129,25.0393,303.096
2011-04-16 00:00:00,2011-04-16 00:00:00,TMP,surface,-107.813,25.9842,301.08
2011-04-16 00:00:00,2011-04-16 00:00:00,TMP,surface,-106.875,25.9842,295.745
2011-04-16 00:00:00,2011-04-16 00:00:00,TMP,surface,-105.938,25.9842,293.838
2011-04-16 00:00:00,2011-04-16 00:00:00,TMP,surface,-105,25.9842,295.176
2011-04-16 00:00:00,2011-04-16 00:00:00,TMP,surface,-104.063,25.9842,300.193
2011-04-16 00:00:00,2011-04-16 00:00:00,TMP,surface,-103.125,25.9842,301.71
2011-04-16 00:00:00,2011-04-16 00:00:00,TMP,surface,-102.188,25.9842,299.989
2011-04-16 00:00:00,2011-04-16 00:00:00,TMP,surface,-101.25,25.9842,298.693
2011-04-16 00:00:00,2011-04-16 00:00:00,TMP,surface,-100.313,25.9842,299.928
2011-04-16 00:00:00,2011-04-16 00:00:00,TMP,surface,-99.3754,25.9842,303.326
2011-04-16 00:00:00,2011-04-16 00:00:00,TMP,surface,-98.4379,25.9842,304.632
2011-04-16 00:00:00,2011-04-16 00:00:00,TMP,surface,-97.5004,25.9842,303.288
2011-04-16 00:00:00,2011-04-16 00:00:00,TMP,surface,-96.5629,25.9842,301.537
2011-04-16 00:00:00,2011-04-16 00:00:00,TMP,surface,-95.6254,25.9842,302.529
2011-04-16 00:00:00,2011-04-16 00:00:00,TMP,surface,-94.6879,25.9842,303.093
2011-04-16 00:00:00,2011-04-16 00:00:00,TMP,surface,-93.7504,25.9842,303.201
2011-04-16 00:00:00,2011-04-16 00:00:00,TMP,surface,-92.8129,25.9842,303.189
2011-04-16 00:00:00,2011-04-16 00:00:00,TMP,surface,-107.813,26.929,297.669
2011-04-16 00:00:00,2011-04-16 00:00:00,TMP,surface,-106.875,26.929,294.824
2011-04-16 00:00:00,2011-04-16 00:00:00,TMP,surface,-105.938,26.929,295.509
2011-04-16 00:00:00,2011-04-16 00:00:00,TMP,surface,-105,26.929,299.422
2011-04-16 00:00:00,2011-04-16 00:00:00,TMP,surface,-104.063,26.929,302.094
2011-04-16 00:00:00,2011-04-16 00:00:00,TMP,surface,-103.125,26.929,301.208
2011-04-16 00:00:00,2011-04-16 00:00:00,TMP,surface,-102.188,26.929,299.585
2011-04-16 00:00:00,2011-04-16 00:00:00,TMP,surface,-101.25,26.929,300.513
2011-04-16 00:00:00,2011-04-16 00:00:00,TMP,surface,-100.313,26.929,303.278
2011-04-16 00:00:00,2011-04-16 00:00:00,TMP,surface,-99.3754,26.929,304.987
2011-04-16 00:00:00,2011-04-16 00:00:00,TMP,surface,-98.4379,26.929,303.851
2011-04-16 00:00:00,2011-04-16 00:00:00,TMP,surface,-97.5004,26.929,300.517
2011-04-16 00:00:00,2011-04-16 00:00:00,TMP,surface,-96.5629,26.929,300.923
2011-04-16 00:00:00,2011-04-16 00:00:00,TMP,surface,-95.6254,26.929,302.469
2011-04-16 00:00:00,2011-04-16 00:00:00,TMP,surface,-94.6879,26.929,303.045
2011-04-16 00:00:00,2011-04-16 00:00:00,TMP,surface,-93.7504,26.929,303.08
2011-04-16 00:00:00,2011-04-16 00:00:00,TMP,surface,-92.8129,26.929,303.061
2011-04-16 00:00:00,2011-04-16 00:00:00,TMP,surface,-107.813,27.8739,295.345
2011-04-16 00:00:00,2011-04-16 00:00:00,TMP,surface,-106.875,27.8739,294.885
2011-04-16 00:00:00,2011-04-16 00:00:00,TMP,surface,-105.938,27.8739,298.017
2011-04-16 00:00:00,2011-04-16 00:00:00,TMP,surface,-105,27.8739,301.541
2011-04-16 00:00:00,2011-04-16 00:00:00,TMP,surface,-104.063,27.8739,301.902
2011-04-16 00:00:00,2011-04-16 00:00:00,TMP,surface,-103.125,27.8739,299.525
2011-04-16 00:00:00,2011-04-16 00:00:00,TMP,surface,-102.188,27.8739,298.6
2011-04-16 00:00:00,2011-04-16 00:00:00,TMP,surface,-101.25,27.8739,301.211
2011-04-16 00:00:00,2011-04-16 00:00:00,TMP,surface,-100.313,27.8739,303.726
2011-04-16 00:00:00,2011-04-16 00:00:00,TMP,surface,-99.3754,27.8739,303.905
2011-04-16 00:00:00,2011-04-16 00:00:00,TMP,surface,-98.4379,27.8739,302.667
2011-04-16 00:00:00,2011-04-16 00:00:00,TMP,surface,-97.5004,27.8739,301.979
2011-04-16 00:00:00,2011-04-16 00:00:00,TMP,surface,-96.5629,27.8739,302.181
2011-04-16 00:00:00,2011-04-16 00:00:00,TMP,surface,-95.6254,27.8739,302.597
2011-04-16 00:00:00,2011-04-16 00:00:00,TMP,surface,-94.6879,27.8739,302.936
2011-04-16 00:00:00,2011-04-16 00:00:00,TMP,surface,-93.7504,27.8739,303.032
2011-04-16 00:00:00,2011-04-16 00:00:00,TMP,surface,-92.8129,27.8739,303.067
2011-04-16 00:00:00,2011-04-16 00:00:00,TMP,surface,-107.813,28.8188,294.651
2011-04-16 00:00:00,2011-04-16 00:00:00,TMP,surface,-106.875,28.8188,296.168
2011-04-16 00:00:00,2011-04-16 00:00:00,TMP,surface,-105.938,28.8188,299.966
2011-04-16 00:00:00,2011-04-16 00:00:00,TMP,surface,-105,28.8188,302.725
2011-04-16 00:00:00,2011-04-16 00:00:00,TMP,surface,-104.063,28.8188,301.515
2011-04-16 00:00:00,2011-04-16 00:00:00,TMP,surface,-103.125,28.8188,299.333
2011-04-16 00:00:00,2011-04-16 00:00:00,TMP,surface,-102.188,28.8188,298.725
2011-04-16 00:00:00,2011-04-16 00:00:00,TMP,surface,-101.25,28.8188,301.211
2011-04-16 00:00:00,2011-04-16 00:00:00,TMP,surface,-100.313,28.8188,302.52
2011-04-16 00:00:00,2011-04-16 00:00:00,TMP,surface,-99.3754,28.8188,302.024
2011-04-16 00:00:00,2011-04-16 00:00:00,TMP,surface,-98.4379,28.8188,301.233
2011-04-16 00:00:00,2011-04-16 00:00:00,TMP,surface,-97.5004,28.8188,301.102
2011-04-16 00:00:00,2011-04-16 00:00:00,TMP,surface,-96.5629,28.8188,301.441
2011-04-16 00:00:00,2011-04-16 00:00:00,TMP,surface,-95.6254,28.8188,301.23
2011-04-16 00:00:00,2011-04-16 00:00:00,TMP,surface,-94.6879,28.8188,300.792
2011-04-16 00:00:00,2011-04-16 00:00:00,TMP,surface,-93.7504,28.8188,301.669
2011-04-16 00:00:00,2011-04-16 00:00:00,TMP,surface,-92.8129,28.8188,302.235
2011-04-16 00:00:00,2011-04-16 00:00:00,TMP,surface,-107.813,29.7637,297.425
2011-04-16 00:00:00,2011-04-16 00:00:00,TMP,surface,-106.875,29.7637,298.974
2011-04-16 00:00:00,2011-04-16 00:00:00,TMP,surface,-105.938,29.7637,301.573
2011-04-16 00:00:00,2011-04-16 00:00:00,TMP,surface,-105,29.7637,302.337
2011-04-16 00:00:00,2011-04-16 00:00:00,TMP,surface,-104.063,29.7637,301.057
2011-04-16 00:00:00,2011-04-16 00:00:00,TMP,surface,-103.125,29.7637,300.203
2011-04-16 00:00:00,2011-04-16 00:00:00,TMP,surface,-102.188,29.7637,301.022
2011-04-16 00:00:00,2011-04-16 00:00:00,TMP,surface,-101.25,29.7637,301.669
2011-04-16 00:00:00,2011-04-16 00:00:00,TMP,surface,-100.313,29.7637,301.096
2011-04-16 00:00:00,2011-04-16 00:00:00,TMP,surface,-99.3754,29.7637,300.081
2011-04-16 00:00:00,2011-04-16 00:00:00,TMP,surface,-98.4379,29.7637,299.989
2011-04-16 00:00:00,2011-04-16 00:00:00,TMP,surface,-97.5004,29.7637,300.664
2011-04-16 00:00:00,2011-04-16 00:00:00,TMP,surface,-96.5629,29.7637,301.144
2011-04-16 00:00:00,2011-04-16 00:00:00,TMP,surface,-95.6254,29.7637,301.121
2011-04-16 00:00:00,2011-04-16 00:00:00,TMP,surface,-94.6879,29.7637,300.725
2011-04-16 00:00:00,2011-04-16 00:00:00,TMP,surface,-93.7504,29.7637,300.507
2011-04-16 00:00:00,2011-04-16 00:00:00,TMP,surface,-92.8129,29.7637,301.288
2011-04-16 00:00:00,2011-04-16 00:00:00,TMP,surface,-107.813,30.7085,302.181
2011-04-16 00:00:00,2011-04-16 00:00:00,TMP,surface,-106.875,30.7085,302.853
2011-04-16 00:00:00,2011-04-16 00:00:00,TMP,surface,-105.938,30.7085,302.923
2011-04-16 00:00:00,2011-04-16 00:00:00,TMP,surface,-105,30.7085,301.72
2011-04-16 00:00:00,2011-04-16 00:00:00,TMP,surface,-104.063,30.7085,300.142
2011-04-16 00:00:00,2011-04-16 00:00:00,TMP,surface,-103.125,30.7085,300.789
2011-04-16 00:00:00,2011-04-16 00:00:00,TMP,surface,-102.188,30.7085,301.637
2011-04-16 00:00:00,2011-04-16 00:00:00,TMP,surface,-101.25,30.7085,301.32
2011-04-16 00:00:00,2011-04-16 00:00:00,TMP,surface,-100.313,30.7085,300.283
2011-04-16 00:00:00,2011-04-16 00:00:00,TMP,surface,-99.3754,30.7085,299.672
2011-04-16 00:00:00,2011-04-16 00:00:00,TMP,surface,-98.4379,30.7085,300.001
2011-04-16 00:00:00,2011-04-16 00:00:00,TMP,surface,-97.5004,30.7085,300.792
2011-04-16 00:00:00,2011-04-16 00:00:00,TMP,surface,-96.5629,30.7085,301.291
2011-04-16 00:00:00,2011-04-16 00:00:00,TMP,surface,-95.6254,30.7085,301.249
2011-04-16 00:00:00,2011-04-16 00:00:00,TMP,surface,-94.6879,30.7085,301.009
2011-04-16 00:00:00,2011-04-16 00:00:00,TMP,surface,-93.7504,30.7085,300.949
2011-04-16 00:00:00,2011-04-16 00:00:00,TMP,surface,-92.8129,30.7085,300.789
2011-04-16 00:00:00,2011-04-16 00:00:00,TMP,surface,-107.813,31.6534,303.694
2011-04-16 00:00:00,2011-04-16 00:00:00,TMP,surface,-106.875,31.6534,303.941
2011-04-16 00:00:00,2011-04-16 00:00:00,TMP,surface,-105.938,31.6534,302.987
2011-04-16 00:00:00,2011-04-16 00:00:00,TMP,surface,-105,31.6534,301.227
2011-04-16 00:00:00,2011-04-16 00:00:00,TMP,surface,-104.063,31.6534,300.587
2011-04-16 00:00:00,2011-04-16 00:00:00,TMP,surface,-103.125,31.6534,300.885
2011-04-16 00:00:00,2011-04-16 00:00:00,TMP,surface,-102.188,31.6534,301.144
2011-04-16 00:00:00,2011-04-16 00:00:00,TMP,surface,-101.25,31.6534,300.782
2011-04-16 00:00:00,2011-04-16 00:00:00,TMP,surface,-100.313,31.6534,300.389
2011-04-16 00:00:00,2011-04-16 00:00:00,TMP,surface,-99.3754,31.6534,300.293
2011-04-16 00:00:00,2011-04-16 00:00:00,TMP,surface,-98.4379,31.6534,300.491
2011-04-16 00:00:00,2011-04-16 00:00:00,TMP,surface,-97.5004,31.6534,300.888
2011-04-16 00:00:00,2011-04-16 00:00:00,TMP,surface,-96.5629,31.6534,301.291
2011-04-16 00:00:00,2011-04-16 00:00:00,TMP,surface,-95.6254,31.6534,301.358
2011-04-16 00:00:00,2011-04-16 00:00:00,TMP,surface,-94.6879,31.6534,301.077
2011-04-16 00:00:00,2011-04-16 00:00:00,TMP,surface,-93.7504,31.6534,300.897
2011-04-16 00:00:00,2011-04-16 00:00:00,TMP,surface,-92.8129,31.6534,300.808
2011-04-16 00:00:00,2011-04-16 00:00:00,TMP,surface,-107.813,32.5983,300.859
2011-04-16 00:00:00,2011-04-16 00:00:00,TMP,surface,-106.875,32.5983,301.077
2011-04-16 00:00:00,2011-04-16 00:00:00,TMP,surface,-105.938,32.5983,301.137
2011-04-16 00:00:00,2011-04-16 00:00:00,TMP,surface,-105,32.5983,300.401
2011-04-16 00:00:00,2011-04-16 00:00:00,TMP,surface,-104.063,32.5983,300.331
2011-04-16 00:00:00,2011-04-16 00:00:00,TMP,surface,-103.125,32.5983,300.353
2011-04-16 00:00:00,2011-04-16 00:00:00,TMP,surface,-102.188,32.5983,300.133
2011-04-16 00:00:00,2011-04-16 00:00:00,TMP,surface,-101.25,32.5983,300.241
2011-04-16 00:00:00,2011-04-16 00:00:00,TMP,surface,-100.313,32.5983,300.99
2011-04-16 00:00:00,2011-04-16 00:00:00,TMP,surface,-99.3754,32.5983,301.294
2011-04-16 00:00:00,2011-04-16 00:00:00,TMP,surface,-98.4379,32.5983,301.035
2011-04-16 00:00:00,2011-04-16 00:00:00,TMP,surface,-97.5004,32.5983,300.833
2011-04-16 00:00:00,2011-04-16 00:00:00,TMP,surface,-96.5629,32.5983,301.144
2011-04-16 00:00:00,2011-04-16 00:00:00,TMP,surface,-95.6254,32.5983,301.573
2011-04-16 00:00:00,2011-04-16 00:00:00,TMP,surface,-94.6879,32.5983,301.489
2011-04-16 00:00:00,2011-04-16 00:00:00,TMP,surface,-93.7504,32.5983,301.185
2011-04-16 00:00:00,2011-04-16 00:00:00,TMP,surface,-92.8129,32.5983,301.147
2011-04-16 00:00:00,2011-04-16 00:00:00,TMP,surface,-107.813,33.5432,297.281
2011-04-16 00:00:00,2011-04-16 00:00:00,TMP,surface,-106.875,33.5432,298.558
2011-04-16 00:00:00,2011-04-16 00:00:00,TMP,surface,-105.938,33.5432,298.981
2011-04-16 00:00:00,2011-04-16 00:00:00,TMP,surface,-105,33.5432,299.653
2011-04-16 00:00:00,2011-04-16 00:00:00,TMP,surface,-104.063,33.5432,300.302
2011-04-16 00:00:00,2011-04-16 00:00:00,TMP,surface,-103.125,33.5432,299.701
2011-04-16 00:00:00,2011-04-16 00:00:00,TMP,surface,-102.188,33.5432,299.057
2011-04-16 00:00:00,2011-04-16 00:00:00,TMP,surface,-101.25,33.5432,299.406
2011-04-16 00:00:00,2011-04-16 00:00:00,TMP,surface,-100.313,33.5432,300.942
2011-04-16 00:00:00,2011-04-16 00:00:00,TMP,surface,-99.3754,33.5432,301.675
2011-04-16 00:00:00,2011-04-16 00:00:00,TMP,surface,-98.4379,33.5432,301.157
2011-04-16 00:00:00,2011-04-16 00:00:00,TMP,surface,-97.5004,33.5432,300.417
2011-04-16 00:00:00,2011-04-16 00:00:00,TMP,surface,-96.5629,33.5432,300.277
2011-04-16 00:00:00,2011-04-16 00:00:00,TMP,surface,-95.6254,33.5432,300.721
2011-04-16 00:00:00,2011-04-16 00:00:00,TMP,surface,-94.6879,33.5432,301.032
2011-04-16 00:00:00,2011-04-16 00:00:00,TMP,surface,-93.7504,33.5432,300.757
2011-04-16 00:00:00,2011-04-16 00:00:00,TMP,surface,-92.8129,33.5432,300.712
2011-04-16 00:00:00,2011-04-16 00:00:00,TMP,surface,-107.813,34.4881,295.896
2011-04-16 00:00:00,2011-04-16 00:00:00,TMP,surface,-106.875,34.4881,297.435
2011-04-16 00:00:00,2011-04-16 00:00:00,TMP,surface,-105.938,34.4881,298.145
2011-04-16 00:00:00,2011-04-16 00:00:00,TMP,surface,-105,34.4881,299.361
2011-04-16 00:00:00,2011-04-16 00:00:00,TMP,surface,-104.063,34.4881,299.969
2011-04-16 00:00:00,2011-04-16 00:00:00,TMP,surface,-103.125,34.4881,299.201
2011-04-16 00:00:00,2011-04-16 00:00:00,TMP,surface,-102.188,34.4881,298.52
2011-04-16 00:00:00,2011-04-16 00:00:00,TMP,surface,-101.25,34.4881,299.134
2011-04-16 00:00:00,2011-04-16 00:00:00,TMP,surface,-100.313,34.4881,300.427
2011-04-16 00:00:00,2011-04-16 00:00:00,TMP,surface,-99.3754,34.4881,301.099
2011-04-16 00:00:00,2011-04-16 00:00:00,TMP,surface,-98.4379,34.4881,300.699
2011-04-16 00:00:00,2011-04-16 00:00:00,TMP,surface,-97.5004,34.4881,299.813
2011-04-16 00:00:00,2011-04-16 00:00:00,TMP,surface,-96.5629,34.4881,299.672
2011-04-16 00:00:00,2011-04-16 00:00:00,TMP,surface,-95.6254,34.4881,300.187
2011-04-16 00:00:00,2011-04-16 00:00:00,TMP,surface,-94.6879,34.4881,300.091
2011-04-16 00:00:00,2011-04-16 00:00:00,TMP,surface,-93.7504,34.4881,299.611
2011-04-16 00:00:00,2011-04-16 00:00:00,TMP,surface,-92.8129,34.4881,299.704
2011-04-16 00:00:00,2011-04-16 00:00:00,TMP,surface,-107.813,35.4329,296.347
2011-04-16 00:00:00,2011-04-16 00:00:00,TMP,surface,-106.875,35.4329,296.533
2011-04-16 00:00:00,2011-04-16 00:00:00,TMP,surface,-105.938,35.4329,296.184
2011-04-16 00:00:00,2011-04-16 00:00:00,TMP,surface,-105,35.4329,296.571
2011-04-16 00:00:00,2011-04-16 00:00:00,TMP,surface,-104.063,35.4329,298.533
2011-04-16 00:00:00,2011-04-16 00:00:00,TMP,surface,-103.125,35.4329,299.432
2011-04-16 00:00:00,2011-04-16 00:00:00,TMP,surface,-102.188,35.4329,299.448
2011-04-16 00:00:00,2011-04-16 00:00:00,TMP,surface,-101.25,35.4329,299.537
2011-04-16 00:00:00,2011-04-16 00:00:00,TMP,surface,-100.313,35.4329,299.797
2011-04-16 00:00:00,2011-04-16 00:00:00,TMP,surface,-99.3754,35.4329,300.302
2011-04-16 00:00:00,2011-04-16 00:00:00,TMP,surface,-98.4379,35.4329,300.2
2011-04-16 00:00:00,2011-04-16 00:00:00,TMP,surface,-97.5004,35.4329,299.611
2011-04-16 00:00:00,2011-04-16 00:00:00,TMP,surface,-96.5629,35.4329,299.265
2011-04-16 00:00:00,2011-04-16 00:00:00,TMP,surface,-95.6254,35.4329,299.435
2011-04-16 00:00:00,2011-04-16 00:00:00,TMP,surface,-94.6879,35.4329,299.557
2011-04-16 00:00:00,2011-04-16 00:00:00,TMP,surface,-93.7504,35.4329,298.955
2011-04-16 00:00:00,2011-04-16 00:00:00,TMP,surface,-92.8129,35.4329,298.638
2011-04-16 00:00:00,2011-04-16 00:00:00,TMP,surface,-107.813,36.3778,295.425
2011-04-16 00:00:00,2011-04-16 00:00:00,TMP,surface,-106.875,36.3778,292.552
2011-04-16 00:00:00,2011-04-16 00:00:00,TMP,surface,-105.938,36.3778,292.481
2011-04-16 00:00:00,2011-04-16 00:00:00,TMP,surface,-105,36.3778,293.269
2011-04-16 00:00:00,2011-04-16 00:00:00,TMP,surface,-104.063,36.3778,296.193
2011-04-16 00:00:00,2011-04-16 00:00:00,TMP,surface,-103.125,36.3778,298.341
2011-04-16 00:00:00,2011-04-16 00:00:00,TMP,surface,-102.188,36.3778,299.47
2011-04-16 00:00:00,2011-04-16 00:00:00,TMP,surface,-101.25,36.3778,299.79
2011-04-16 00:00:00,2011-04-16 00:00:00,TMP,surface,-100.313,36.3778,299.934
2011-04-16 00:00:00,2011-04-16 00:00:00,TMP,surface,-99.3754,36.3778,300.053
2011-04-16 00:00:00,2011-04-16 00:00:00,TMP,surface,-98.4379,36.3778,299.944
2011-04-16 00:00:00,2011-04-16 00:00:00,TMP,surface,-97.5004,36.3778,299.48
2011-04-16 00:00:00,2011-04-16 00:00:00,TMP,surface,-96.5629,36.3778,299.07
2011-04-16 00:00:00,2011-04-16 00:00:00,TMP,surface,-95.6254,36.3778,299.077
2011-04-16 00:00:00,2011-04-16 00:00:00,TMP,surface,-94.6879,36.3778,299.041
2011-04-16 00:00:00,2011-04-16 00:00:00,TMP,surface,-93.7504,36.3778,298.577
2011-04-16 00:00:00,2011-04-16 00:00:00,TMP,surface,-92.8129,36.3778,298.366
2011-04-16 00:00:00,2011-04-16 00:00:00,PRATE,surface,-107.813,25.0393,7e-07
2011-04-16 00:00:00,2011-04-16 00:00:00,PRATE,surface,-106.875,25.0393,4.8e-06
2011-04-16 00:00:00,2011-04-16 00:00:00,PRATE,surface,-105.938,25.0393,7.97e-05
2011-04-16 00:00:00,2011-04-16 00:00:00,PRATE,surface,-105,25.0393,3.7e-05
2011-04-16 00:00:00,2011-04-16 00:00:00,PRATE,surface,-104.063,25.0393,4.4e-06
2011-04-16 00:00:00,2011-04-16 00:00:00,PRATE,surface,-103.125,25.0393,5e-07
2011-04-16 00:00:00,2011-04-16 00:00:00,PRATE,surface,-102.188,25.0393,2e-06
2011-04-16 00:00:00,2011-04-16 00:00:00,PRATE,surface,-101.25,25.0393,1.62e-05
2011-04-16 00:00:00,2011-04-16 00:00:00,PRATE,surface,-100.313,25.0393,4.09e-05
2011-04-16 00:00:00,2011-04-16 00:00:00,PRATE,surface,-99.3754,25.0393,2.36e-05
2011-04-16 00:00:00,2011-04-16 00:00:00,PRATE,surface,-98.4379,25.0393,2.44e-05
2011-04-16 00:00:00,2011-04-16 00:00:00,PRATE,surface,-97.5004,25.0393,2.34e-05
2011-04-16 00:00:00,2011-04-16 00:00:00,PRATE,surface,-96.5629,25.0393,3.57e-05
2011-04-16 00:00:00,2011-04-16 00:00:00,PRATE,surface,-95.6254,25.0393,3.03e-05
2011-04-16 00:00:00,2011-04-16 00:00:00,PRATE,surface,-94.6879,25.0393,2.54e-05
2011-04-16 00:00:00,2011-04-16 00:00:00,PRATE,surface,-93.7504,25.0393,4.05e-05
2011-04-16 00:00:00,2011-04-16 00:00:00,PRATE,surface,-92.8129,25.0393,3.53e-05
2011-04-16 00:00:00,2011-04-16 00:00:00,PRATE,surface,-107.813,25.9842,4.1e-06
2011-04-16 00:00:00,2011-04-16 00:00:00,PRATE,surface,-106.875,25.9842,3e-05
2011-04-16 00:00:00,2011-04-16 00:00:00,PRATE,surface,-105.938,25.9842,2.73e-05
2011-04-16 00:00:00,2011-04-16 00:00:00,PRATE,surface,-105,25.9842,1.42e-05
2011-04-16 00:00:00,2011-04-16 00:00:00,PRATE,surface,-104.063,25.9842,1.6e-06
2011-04-16 00:00:00,2011-04-16 00:00:00,PRATE,surface,-103.125,25.9842,1.8e-06
2011-04-16 00:00:00,2011-04-16 00:00:00,PRATE,surface,-102.188,25.9842,1.9e-06
2011-04-16 00:00:00,2011-04-16 00:00:00,PRATE,surface,-101.25,25.9842,1.04e-05
2011-04-16 00:00:00,2011-04-16 00:00:00,PRATE,surface,-100.313,25.9842,1.7e-05
2011-04-16 00:00:00,2011-04-16 00:00:00,PRATE,surface,-99.3754,25.9842,7.2e-06
2011-04-16 00:00:00,2011-04-16 00:00:00,PRATE,surface,-98.4379,25.9842,1.36e-05
2011-04-16 00:00:00,2011-04-16 00:00:00,PRATE,surface,-97.5004,25.9842,3.1e-05
2011-04-16 00:00:00,2011-04-16 00:00:00,PRATE,surface,-96.5629,25.9842,4.74e-05
2011-04-16 00:00:00,2011-04-16 00:00:00,PRATE,surface,-95.6254,25.9842,3.96e-05
2011-04-16 00:00:00,2011-04-16 00:00:00,PRATE,surface,-94.6879,25.9842,4.62e-05
2011-04-16 00:00:00,2011-04-16 00:00:00,PRATE,surface,-93.7504,25.9842,4.43e-05
2011-04-16 00:00:00,2011-04-16 00:00:00,PRATE,surface,-92.8129,25.9842,4.23e-05
2011-04-16 00:00:00,2011-04-16 00:00:00,PRATE,surface,-107.813,26.929,2.21e-05
2011-04-16 00:00:00,2011-04-16 00:00:00,PRATE,surface,-106.875,26.929,2.23e-05
2011-04-16 00:00:00,2011-04-16 00:00:00,PRATE,surface,-105.938,26.929,5.6e-06
2011-04-16 00:00:00,2011-04-16 00:00:00,PRATE,surface,-105,26.929,3.6e-06
2011-04-16 00:00:00,2011-04-16 00:00:00,PRATE,surface,-104.063,26.929,4.8e-06
2011-04-16 00:00:00,2011-04-16 00:00:00,PRATE,surface,-103.125,26.929,1.09e-05
2011-04-16 00:00:00,2011-04-16 00:00:00,PRATE,surface,-102.188,26.929,1.05e-05
2011-04-16 00:00:00,2011-04-16 00:00:00,PRATE,surface,-101.25,26.929,1.82e-05
2011-04-16 00:00:00,2011-04-16 00:00:00,PRATE,surface,-100.313,26.929,7.5e-06
2011-04-16 00:00:00,2011-04-16 00:00:00,PRATE,surface,-99.3754,26.929,1.12e-05
2011-04-16 00:00:00,2011-04-16 00:00:00,PRATE,surface,-98.4379,26.929,2.14e-05
2011-04-16 00:00:00,2011-04-16 00:00:00,PRATE,surface,-97.5004,26.929,3.87e-05
2011-04-16 00:00:00,2011-04-16 00:00:00,PRATE,surface,-96.5629,26.929,4.06e-05
2011-04-16 00:00:00,2011-04-16 00:00:00,PRATE,surface,-95.6254,26.929,3.82e-05
2011-04-16 00:00:00,2011-04-16 00:00:00,PRATE,surface,-94.6879,26.929,4.46e-05
2011-04-16 00:00:00,2011-04-16 00:00:00,PRATE,surface,-93.7504,26.929,6.19e-05
2011-04-16 00:00:00,2011-04-16 00:00:00,PRATE,surface,-92.8129,26.929,5.2e-05
2011-04-16 00:00:00,2011-04-16 00:00:00,PRATE,surface,-107.813,27.8739,2.84e-05
2011-04-16 00:00:00,2011-04-16 00:00:00,PRATE,surface,-106.875,27.8739,1.22e-05
2011-04-16 00:00:00,2011-04-16 00:00:00,PRATE,surface,-105.938,27.8739,1.5e-06
2011-04-16 00:00:00,2011-04-16 00:00:00,PRATE,surface,-105,27.8739,3e-07
2011-04-16 00:00:00,2011-04-16 00:00:00,PRATE,surface,-104.063,27.8739,7.8e-06
2011-04-16 00:00:00,2011-04-16 00:00:00,PRATE,surface,-103.125,27.8739,1.81e-05
2011-04-16 00:00:00,2011-04-16 00:00:00,PRATE,surface,-102.188,27.8739,2.21e-05
2011-04-16 00:00:00,2011-04-16 00:00:00,PRATE,surface,-101.25,27.8739,1.42e-05
2011-04-16 00:00:00,2011-04-16 00:00:00,PRATE,surface,-100.313,27.8739,1.48e-05
2011-04-16 00:00:00,2011-04-16 00:00:00,PRATE,surface,-99.3754,27.8739,2.39e-05
2011-04-16 00:00:00,2011-04-16 00:00:00,PRATE,surface,-98.4379,27.8739,3.5e-05
2011-04-16 00:00:00,2011-04-16 00:00:00,PRATE,surface,-97.5004,27.8739,4.1e-05
2011-04-16 00:00:00,2011-04-16 00:00:00,PRATE,surface,-96.5629,27.8739,3.89e-05
2011-04-16 00:00:00,2011-04-16 00:00:00,PRATE,surface,-95.6254,27.8739,3.75e-05
2011-04-16 00:00:00,2011-04-16 00:00:00,PRATE,surface,-94.6879,27.8739,5.42e-05
2011-04-16 00:00:00,2011-04-16 00:00:00,PRATE,surface,-93.7504,27.8739,8.66e-05
2011-04-16 00:00:00,2011-04-16 00:00:00,PRATE,surface,-92.8129,27.8739,0.0001015
2011-04-16 00:00:00,2011-04-16 00:00:00,PRATE,surface,-107.813,28.8188,2.7e-05
2011-04-16 00:00:00,2011-04-16 00:00:00,PRATE,surface,-106.875,28.8188,5.2e-06
2011-04-16 00:00:00,2011-04-16 00:00:00,PRATE,surface,-105.938,28.8188,5e-07
2011-04-16 00:00:00,2011-04-16 00:00:00,PRATE,surface,-105,28.8188,2e-07
2011-04-16 00:00:00,2011-04-16 00:00:00,PRATE,surface,-104.063,28.8188,6.6e-06
2011-04-16 00:00:00,2011-04-16 00:00:00,PRATE,surface,-103.125,28.8188,1.7e-05
2011-04-16 00:00:00,2011-04-16 00:00:00,PRATE,surface,-102.188,28.8188,1.71e-05
2011-04-16 00:00:00,2011-04-16 00:00:00,PRATE,surface,-101.25,28.8188,1.2e-05
2011-04-16 00:00:00,2011-04-16 00:00:00,PRATE,surface,-100.313,28.8188,1.27e-05
2011-04-16 00:00:00,2011-04-16 00:00:00,PRATE,surface,-99.3754,28.8188,3.48e-05
2011-04-16 00:00:00,2011-04-16 00:00:00,PRATE,surface,-98.4379,28.8188,7.02e-05
2011-04-16 00:00:00,2011-04-16 00:00:00,PRATE,surface,-97.5004,28.8188,7.89e-05
2011-04-16 00:00:00,2011-04-16 00:00:00,PRATE,surface,-96.5629,28.8188,6.23e-05
2011-04-16 00:00:00,2011-04-16 00:00:00,PRATE,surface,-95.6254,28.8188,5.41e-05
2011-04-16 00:00:00,2011-04-16 00:00:00,PRATE,surface,-94.6879,28.8188,6.08e-05
2011-04-16 00:00:00,2011-04-16 00:00:00,PRATE,surface,-93.7504,28.8188,6.99e-05
2011-04-16 00:00:00,2011-04-16 00:00:00,PRATE,surface,-92.8129,28.8188,7.43e-05
2011-04-16 00:00:00,2011-04-16 00:00:00,PRATE,surface,-107.813,29.7637,1.35e-05
2011-04-16 00:00:00,2011-04-16 00:00:00,PRATE,surface,-106.875,29.7637,5.7e-06
2011-04-16 00:00:00,2011-04-16 00:00:00,PRATE,surface,-105.938,29.7637,9e-07
2011-04-16 00:00:00,2011-04-16 00:00:00,PRATE,surface,-105,29.7637,2.4e-06
2011-04-16 00:00:00,2011-04-16 00:00:00,PRATE,surface,-104.063,29.7637,1.61e-05
2011-04-16 00:00:00,2011-04-16 00:00:00,PRATE,surface,-103.125,29.7637,2.45e-05
2011-04-16 00:00:00,2011-04-16 00:00:00,PRATE,surface,-102.188,29.7637,1.79e-05
2011-04-16 00:00:00,2011-04-16 00:00:00,PRATE,surface,-101.25,29.7637,1.14e-05
2011-04-16 00:00:00,2011-04-16 00:00:00,PRATE,surface,-100.313,29.7637,1.59e-05
2011-04-16 00:00:00,2011-04-16 00:00:00,PRATE,surface,-99.3754,29.7637,3.73e-05
2011-04-16 00:00:00,2011-04-16 00:00:00,PRATE,surface,-98.4379,29.7637,6.06e-05
2011-04-16 00:00:00,2011-04-16 00:00:00,PRATE,surface,-97.5004,29.7637,7.88e-05
2011-04-16 00:00:00,2011-04-16 00:00:00,PRATE,surface,-96.5629,29.7637,8.6e-05
2011-04-16 00:00:00,2011-04-16 00:00:00,PRATE,surface,-95.6254,29.7637,8.02e-05
2011-04-16 00:00:00,2011-04-16 00:00:00,PRATE,surface,-94.6879,29.7637,6.86e-05
2011-04-16 00:00:00,2011-04-16 00:00:00,PRATE,surface,-93.7504,29.7637,6e-05
2011-04-16 00:00:00,2011-04-16 00:00:00,PRATE,surface,-92.8129,29.7637,7.14e-05
2011-04-16 00:00:00,2011-04-16 00:00:00,PRATE,surface,-107.813,30.7085,3.4e-06
2011-04-16 00:00:00,2011-04-16 00:00:00,PRATE,surface,-106.875,30.7085,3.2e-06
2011-04-16 00:00:00,2011-04-16 00:00:00,PRATE,surface,-105.938,30.7085,2.2e-06
2011-04-16 00:00:00,2011-04-16 00:00:00,PRATE,surface,-105,30.7085,7.7e-06
2011-04-16 00:00:00,2011-04-16 00:00:00,PRATE,surface,-104.063,30.7085,3.25e-05
2011-04-16 00:00:00,2011-04-16 00:00:00,PRATE,surface,-103.125,30.7085,3.74e-05
2011-04-16 00:00:00,2011-04-16 00:00:00,PRATE,surface,-102.188,30.7085,2.65e-05
2011-04-16 00:00:00,2011-04-16 00:00:00,PRATE,surface,-101.25,30.7085,2.12e-05
2011-04-16 00:00:00,2011-04-16 00:00:00,PRATE,surface,-100.313,30.7085,2.86e-05
2011-04-16 00:00:00,2011-04-16 00:00:00,PRATE,surface,-99.3754,30.7085,3.27e-05
2011-04-16 00:00:00,2011-04-16 00:00:00,PRATE,surface,-98.4379,30.7085,3.15e-05
2011-04-16 00:00:00,2011-04-16 00:00:00,PRATE,surface,-97.5004,30.7085,4.37e-05
2011-04-16 00:00:00,2011-04-16 00:00:00,PRATE,surface,-96.5629,30.7085,5.82e-05
2011-04-16 00:00:00,2011-04-16 00:00:00,PRATE,surface,-95.6254,30.7085,5.29e-05
2011-04-16 00:00:00,2011-04-16 00:00:00,PRATE,surface,-94.6879,30.7085,4.31e-05
2011-04-16 00:00:00,2011-04-16 00:00:00,PRATE,surface,-93.7504,30.7085,4.57e-05
2011-04-16 00:00:00,2011-04-16 00:00:00,PRATE,surface,-92.8129,30.7085,4.51e-05
2011-04-16 00:00:00,2011-04-16 00:00:00,PRATE,surface,-107.813,31.6534,1.1e-06
2011-04-16 00:00:00,2011-04-16 00:00:00,PRATE,surface,-106.875,31.6534,2.5e-06
2011-04-16 00:00:00,2011-04-16 00:00:00,PRATE,surface,-105.938,31.6534,2.9e-06
2011-04-16 00:00:00,2011-04-16 00:00:00,PRATE,surface,-105,31.6534,1.27e-05
2011-04-16 00:00:00,2011-04-16 00:00:00,PRATE,surface,-104.063,31.6534,4.47e-05
2011-04-16 00:00:00,2011-04-16 00:00:00,PRATE,surface,-103.125,31.6534,4.8e-05
2011-04-16 00:00:00,2011-04-16 00:00:00,PRATE,surface,-102.188,31.6534,3.32e-05
2011-04-16 00:00:00,2011-04-16 00:00:00,PRATE,surface,-101.25,31.6534,1.99e-05
2011-04-16 00:00:00,2011-04-16 00:00:00,PRATE,surface,-100.313,31.6534,2.15e-05
2011-04-16 00:00:00,2011-04-16 00:00:00,PRATE,surface,-99.3754,31.6534,2.07e-05
2011-04-16 00:00:00,2011-04-16 00:00:00,PRATE,surface,-98.4379,31.6534,2.23e-05
2011-04-16 00:00:00,2011-04-16 00:00:00,PRATE,surface,-97.5004,31.6534,2.98e-05
2011-04-16 00:00:00,2011-04-16 00:00:00,PRATE,surface,-96.5629,31.6534,3.23e-05
2011-04-16 00:00:00,2011-04-16 00:00:00,PRATE,surface,-95.6254,31.6534,3e-05
2011-04-16 00:00:00,2011-04-16 00:00:00,PRATE,surface,-94.6879,31.6534,3.19e-05
2011-04-16 00:00:00,2011-04-16 00:00:00,PRATE,surface,-93.7504,31.6534,3.53e-05
2011-04-16 00:00:00,2011-04-16 00:00:00,PRATE,surface,-92.8129,31.6534,3.87e-05
2011-04-16 00:00:00,2011-04-16 00:00:00,PRATE,surface,-107.813,32.5983,1.2e-06
2011-04-16 00:00:00,2011-04-16 00:00:00,PRATE,surface,-106.875,32.5983,2.4e-06
2011-04-16 00:00:00,2011-04-16 00:00:00,PRATE,surface,-105.938,32.5983,4e-06
2011-04-16 00:00:00,2011-04-16 00:00:00,PRATE,surface,-105,32.5983,1.16e-05
2011-04-16 00:00:00,2011-04-16 00:00:00,PRATE,surface,-104.063,32.5983,2.3e-05
2011-04-16 00:00:00,2011-04-16 00:00:00,PRATE,surface,-103.125,32.5983,2.17e-05
2011-04-16 00:00:00,2011-04-16 00:00:00,PRATE,surface,-102.188,32.5983,1.58e-05
2011-04-16 00:00:00,2011-04-16 00:00:00,PRATE,surface,-101.25,32.5983,1.42e-05
2011-04-16 00:00:00,2011-04-16 00:00:00,PRATE,surface,-100.313,32.5983,1.24e-05
2011-04-16 00:00:00,2011-04-16 00:00:00,PRATE,surface,-99.3754,32.5983,2.1e-05
2011-04-16 00:00:00,2011-04-16 00:00:00,PRATE,surface,-98.4379,32.5983,2.62e-05
2011-04-16 00:00:00,2011-04-16 00:00:00,PRATE,surface,-97.5004,32.5983,2.35e-05
2011-04-16 00:00:00,2011-04-16 00:00:00,PRATE,surface,-96.5629,32.5983,1.9e-05
2011-04-16 00:00:00,2011-04-16 00:00:00,PRATE,surface,-95.6254,32.5983,1.52e-05
2011-04-16 00:00:00,2011-04-16 00:00:00,PRATE,surface,-94.6879,32.5983,1.77e-05
2011-04-16 00:00:00,2011-04-16 00:00:00,PRATE,surface,-93.7504,32.5983,2.88e-05
2011-04-16 00:00:00,2011-04-16 00:00:00,PRATE,surface,-92.8129,32.5983,3.04e-05
2011-04-16 00:00:00,2011-04-16 00:00:00,PRATE,surface,-107.813,33.5432,4.8e-06
2011-04-16 00:00:00,2011-04-16 00:00:00,PRATE,surface,-106.875,33.5432,4.5e-06
2011-04-16 00:00:00,2011-04-16 00:00:00,PRATE,surface,-105.938,33.5432,6.2e-06
2011-04-16 00:00:00,2011-04-16 00:00:00,PRATE,surface,-105,33.5432,1.17e-05
2011-04-16 00:00:00,2011-04-16 00:00:00,PRATE,surface,-104.063,33.5432,1e-05
2011-04-16 00:00:00,2011-04-16 00:00:00,PRATE,surface,-103.125,33.5432,8.7e-06
2011-04-16 00:00:00,2011-04-16 00:00:00,PRATE,surface,-102.188,33.5432,6.9e-06
2011-04-16 00:00:00,2011-04-16 00:00:00,PRATE,surface,-101.25,33.5432,8.3e-06
2011-04-16 00:00:00,2011-04-16 00:00:00,PRATE,surface,-100.313,33.5432,8e-06
2011-04-16 00:00:00,2011-04-16 00:00:00,PRATE,surface,-99.3754,33.5432,1.41e-05
2011-04-16 00:00:00,2011-04-16 00:00:00,PRATE,surface,-98.4379,33.5432,2.17e-05
2011-04-16 00:00:00,2011-04-16 00:00:00,PRATE,surface,-97.5004,33.5432,2.08e-05
2011-04-16 00:00:00,2011-04-16 00:00:00,PRATE,surface,-96.5629,33.5432,1.48e-05
2011-04-16 00:00:00,2011-04-16 00:00:00,PRATE,surface,-95.6254,33.5432,1.26e-05
2011-04-16 00:00:00,2011-04-16 00:00:00,PRATE,surface,-94.6879,33.5432,1.69e-05
2011-04-16 00:00:00,2011-04-16 00:00:00,PRATE,surface,-93.7504,33.5432,2.37e-05
2011-04-16 00:00:00,2011-04-16 00:00:00,PRATE,surface,-92.8129,33.5432,2.2e-05
2011-04-16 00:00:00,2011-04-16 00:00:00,PRATE,surface,-107.813,34.4881,1.11e-05
2011-04-16 00:00:00,2011-04-16 00:00:00,PRATE,surface,-106.875,34.4881,1.02e-05
2011-04-16 00:00:00,2011-04-16 00:00:00,PRATE,surface,-105.938,34.4881,9.6e-06
2011-04-16 00:00:00,2011-04-16 00:00:00,PRATE,surface,-105,34.4881,2.38e-05
2011-04-16 00:00:00,2011-04-16 00:00:00,PRATE,surface,-104.063,34.4881,2.44e-05
2011-04-16 00:00:00,2011-04-16 00:00:00,PRATE,surface,-103.125,34.4881,2.58e-05
2011-04-16 00:00:00,2011-04-16 00:00:00,PRATE,surface,-102.188,34.4881,1.72e-05
2011-04-16 00:00:00,2011-04-16 00:00:00,PRATE,surface,-101.25,34.4881,8.8e-06
2011-04-16 00:00:00,2011-04-16 00:00:00,PRATE,surface,-100.313,34.4881,4.1e-06
2011-04-16 00:00:00,2011-04-16 00:00:00,PRATE,surface,-99.3754,34.4881,8.1e-06
2011-04-16 00:00:00,2011-04-16 00:00:00,PRATE,surface,-98.4379,34.4881,1.88e-05
2011-04-16 00:00:00,2011-04-16 00:00:00,PRATE,surface,-97.5004,34.4881,2.13e-05
2011-04-16 00:00:00,2011-04-16 00:00:00,PRATE,surface,-96.5629,34.4881,1.67e-05
2011-04-16 00:00:00,2011-04-16 00:00:00,PRATE,surface,-95.6254,34.4881,1.45e-05
2011-04-16 00:00:00,2011-04-16 00:00:00,PRATE,surface,-94.6879,34.4881,1.5e-05
2011-04-16 00:00:00,2011-04-16 00:00:00,PRATE,surface,-93.7504,34.4881,2.01e-05
2011-04-16 00:00:00,2011-04-16 00:00:00,PRATE,surface,-92.8129,34.4881,2.62e-05
2011-04-16 00:00:00,2011-04-16 00:00:00,PRATE,surface,-107.813,35.4329,7.7e-06
2011-04-16 00:00:00,2011-04-16 00:00:00,PRATE,surface,-106.875,35.4329,8.5e-06
2011-04-16 00:00:00,2011-04-16 00:00:00,PRATE,surface,-105.938,35.4329,7.5e-06
2011-04-16 00:00:00,2011-04-16 00:00:00,PRATE,surface,-105,35.4329,2.9e-05
2011-04-16 00:00:00,2011-04-16 00:00:00,PRATE,surface,-104.063,35.4329,5.52e-05
2011-04-16 00:00:00,2011-04-16 00:00:00,PRATE,surface,-103.125,35.4329,4.88e-05
2011-04-16 00:00:00,2011-04-16 00:00:00,PRATE,surface,-102.188,35.4329,2.91e-05
2011-04-16 00:00:00,2011-04-16 00:00:00,PRATE,surface,-101.25,35.4329,1.71e-05
2011-04-16 00:00:00,2011-04-16 00:00:00,PRATE,surface,-100.313,35.4329,1.3e-05
2011-04-16 00:00:00,2011-04-16 00:00:00,PRATE,surface,-99.3754,35.4329,1.35e-05
2011-04-16 00:00:00,2011-04-16 00:00:00,PRATE,surface,-98.4379,35.4329,2.25e-05
2011-04-16 00:00:00,2011-04-16 00:00:00,PRATE,surface,-97.5004,35.4329,3e-05
2011-04-16 00:00:00,2011-04-16 00:00:00,PRATE,surface,-96.5629,35.4329,2.61e-05
2011-04-16 00:00:00,2011-04-16 00:00:00,PRATE,surface,-95.6254,35.4329,1.73e-05
2011-04-16 00:00:00,2011-04-16 00:00:00,PRATE,surface,-94.6879,35.4329,1.61e-05
2011-04-16 00:00:00,2011-04-16 00:00:00,PRATE,surface,-93.7504,35.4329,2.32e-05
2011-04-16 00:00:00,2011-04-16 00:00:00,PRATE,surface,-92.8129,35.4329,2.3e-05
2011-04-16 00:00:00,2011-04-16 00:00:00,PRATE,surface,-107.813,36.3778,5.1e-06
2011-04-16 00:00:00,2011-04-16 00:00:00,PRATE,surface,-106.875,36.3778,8.7e-06
2011-04-16 00:00:00,2011-04-16 00:00:00,PRATE,surface,-105.938,36.3778,2.08e-05
2011-04-16 00:00:00,2011-04-16 00:00:00,PRATE,surface,-105,36.3778,4.54e-05
2011-04-16 00:00:00,2011-04-16 00:00:00,PRATE,surface,-104.063,36.3778,5.8e-05
2011-04-16 00:00:00,2011-04-16 00:00:00,PRATE,surface,-103.125,36.3778,3.95e-05
2011-04-16 00:00:00,2011-04-16 00:00:00,PRATE,surface,-102.188,36.3778,2.72e-05
2011-04-16 00:00:00,2011-04-16 00:00:00,PRATE,surface,-101.25,36.3778,2.87e-05
2011-04-16 00:00:00,2011-04-16 00:00:00,PRATE,surface,-100.313,36.3778,3.63e-05
2011-04-16 00:00:00,2011-04-16 00:00:00,PRATE,surface,-99.3754,36.3778,4.05e-05
2011-04-16 00:00:00,2011-04-16 00:00:00,PRATE,surface,-98.4379,36.3778,4.41e-05
2011-04-16 00:00:00,2011-04-16 00:00:00,PRATE,surface,-97.5004,36.3778,4.35e-05
2011-04-16 00:00:00,2011-04-16 00:00:00,PRATE,surface,-96.5629,36.3778,3.92e-05
2011-04-16 00:00:00,2011-04-16 00:00:00,PRATE,surface,-95.6254,36.3778,3.67e-05
2011-04-16 00:00:00,2011-04-16 00:00:00,PRATE,surface,-94.6879,36.3778,3.01e-05
2011-04-16 00:00:00,2011-04-16 00:00:00,PRATE,surface,-93.7504,36.3778,1.89e-05
2011-04-16 00:00:00,2011-04-16 00:00:00,PRATE,surface,-92.8129,36.3778,1.93e-05
