2015-08-14 00:00:00,2015-08-14 00:00:00,TMP,surface,-107.813,25.0393,292.698
2015-08-14 00:00:00,2015-08-14 00:00:00,TMP,surface,-106.875,25.0393,287.374
2015-08-14 00:00:00,2015-08-14 00:00:00,TMP,surface,-105.938,25.0393,282.808
2015-08-14 00:00:00,2015-08-14 00:00:00,TMP,surface,-105,25.0393,282.198
2015-08-14 00:00:00,2015-08-14 00:00:00,TMP,surface,-104.063,25.0393,286.146
2015-08-14 00:00:00,2015-08-14 00:00:00,TMP,surface,-103.125,25.0393,288.211
2015-08-14 00:00:00,2015-08-14 00:00:00,TMP,surface,-102.188,25.0393,287.768
2015-08-14 00:00:00,2015-08-14 00:00:00,TMP,surface,-101.25,25.0393,286.656
2015-08-14 00:00:00,2015-08-14 00:00:00,TMP,surface,-100.313,25.0393,287.683
2015-08-14 00:00:00,2015-08-14 00:00:00,TMP,surface,-99.3754,25.0393,289.944
2015-08-14 00:00:00,2015-08-14 00:00:00,TMP,surface,-98.4379,25.0393,292.381
2015-08-14 00:00:00,2015-08-14 00:00:00,TMP,surface,-97.5004,25.0393,293.818
2015-08-14 00:00:00,2015-08-14 00:00:00,TMP,surface,-96.5629,25.0393,294.344
2015-08-14 00:00:00,2015-08-14 00:00:00,TMP,surface,-95.6254,25.0393,295.086
2015-08-14 00:00:00,2015-08-14 00:00:00,TMP,surface,-94.6879,25.0393,295.128
2015-08-14 00:00:00,2015-08-14 00:00:00,TMP,surface,-93.7504,25.0393,294.734
2015-08-14 00:00:00,2015-08-14 00:00:00,TMP,surface,-92.8129,25.0393,294.578
2015-08-14 00:00:00,2015-08-14 00:00:00,TMP,surface,-107.813,25.9842,288.774
2015-08-14 00:00:00,2015-08-14 00:00:00,TMP,surface,-106.875,25.9842,283.266
2015-08-14 00:00:00,2015-08-14 00:00:00,TMP,surface,-105.938,25.9842,281.85
2015-08-14 00:00:00,2015-08-14 00:00:00,TMP,surface,-105,25.9842,284.56
2015-08-14 00:00:00,2015-08-14 00:00:00,TMP,surface,-104.063,25.9842,288.781
2015-08-14 00:00:00,2015-08-14 00:00:00,TMP,surface,-103.125,25.9842,289.973
2015-08-14 00:00:00,2015-08-14 00:00:00,TMP,surface,-102.188,25.9842,289.438
2015-08-14 00:00:00,2015-08-14 00:00:00,TMP,surface,-101.25,25.9842,288.773
2015-08-14 00:00:00,2015-08-14 00:00:00,TMP,surface,-100.313,25.9842,288.853
2015-08-14 00:00:00,2015-08-14 00:00:00,TMP,surface,-99.3754,25.9842,290.973
2015-08-14 00:00:00,2015-08-14 00:00:00,TMP,surface,-98.4379,25.9842,292.003
2015-08-14 00:00:00,2015-08-14 00:00:00,TMP,surface,-97.5004,25.9842,292.52
2015-08-14 00:00:00,2015-08-14 00:00:00,TMP,surface,-96.5629,25.9842,292.91
2015-08-14 00:00:00,2015-08-14 00:00:00,TMP,surface,-95.6254,25.9842,294.166
2015-08-14 00:00:00,2015-08-14 00:00:00,TMP,surface,-94.6879,25.9842,294.499
2015-08-14 00:00:00,2015-08-14 00:00:00,TMP,surface,-93.7504,25.9842,294.278
2015-08-14 00:00:00,2015-08-14 00:00:00,TMP,surface,-92.8129,25.9842,294.101
2015-08-14 00:00:00,2015-08-14 00:00:00,TMP,surface,-107.813,26.929,284.01
2015-08-14 00:00:00,2015-08-14 00:00:00,TMP,surface,-106.875,26.929,281.219
2015-08-14 00:00:00,2015-08-14 00:00:00,TMP,surface,-105.938,26.929,283.323
2015-08-14 00:00:00,2015-08-14 00:00:00,TMP,surface,-105,26.929,287.064
2015-08-14 00:00:00,2015-08-14 00:00:00,TMP,surface,-104.063,26.929,288.91
2015-08-14 00:00:00,2015-08-14 00:00:00,TMP,surface,-103.125,26.929,288.405
2015-08-14 00:00:00,2015-08-14 00:00:00,TMP,surface,-102.188,26.929,288.691
2015-08-14 00:00:00,2015-08-14 00:00:00,TMP,surface,-101.25,26.929,289.624
2015-08-14 00:00:00,2015-08-14 00:00:00,TMP,surface,-100.313,26.929,290.093
2015-08-14 00:00:00,2015-08-14 00:00:00,TMP,surface,-99.3754,26.929,290.88
2015-08-14 00:00:00,2015-08-14 00:00:00,TMP,surface,-98.4379,26.929,290.702
2015-08-14 00:00:00,2015-08-14 00:00:00,TMP,surface,-97.5004,26.929,291.754
2015-08-14 00:00:00,2015-08-14 00:00:00,TMP,surface,-96.5629,26.929,292.005
2015-08-14 00:00:00,2015-08-14 00:00:00,TMP,surface,-95.6254,26.929,293.088
2015-08-14 00:00:00,2015-08-14 00:00:00,TMP,surface,-94.6879,26.929,293.693
2015-08-14 00:00:00,2015-08-14 00:00:00,TMP,surface,-93.7504,26.929,293.587
2015-08-14 00:00:00,2015-08-14 00:00:00,TMP,surface,-92.8129,26.929,293.416
2015-08-14 00:00:00,2015-08-14 00:00:00,TMP,surface,-107.813,27.8739,281.501
2015-08-14 00:00:00,2015-08-14 00:00:00,TMP,surface,-106.875,27.8739,281.077
2015-08-14 00:00:00,2015-08-14 00:00:00,TMP,surface,-105.938,27.8739,284.613
2015-08-14 00:00:00,2015-08-14 00:00:00,TMP,surface,-105,27.8739,287.582
2015-08-14 00:00:00,2015-08-14 00:00:00,TMP,surface,-104.063,27.8739,287.877
2015-08-14 00:00:00,2015-08-14 00:00:00,TMP,surface,-103.125,27.8739,287.067
2015-08-14 00:00:00,2015-08-14 00:00:00,TMP,surface,-102.188,27.8739,287.624
2015-08-14 00:00:00,2015-08-14 00:00:00,TMP,surface,-101.25,27.8739,288.789
2015-08-14 00:00:00,2015-08-14 00:00:00,TMP,surface,-100.313,27.8739,289.666
2015-08-14 00:00:00,2015-08-14 00:00:00,TMP,surface,-99.3754,27.8739,289.653
2015-08-14 00:00:00,2015-08-14 00:00:00,TMP,surface,-98.4379,27.8739,289.224
2015-08-14 00:00:00,2015-08-14 00:00:00,TMP,surface,-97.5004,27.8739,290.493
2015-08-14 00:00:00,2015-08-14 00:00:00,TMP,surface,-96.5629,27.8739,292.134
2015-08-14 00:00:00,2015-08-14 00:00:00,TMP,surface,-95.6254,27.8739,292.346
2015-08-14 00:00:00,2015-08-14 00:00:00,TMP,surface,-94.6879,27.8739,292.323
2015-08-14 00:00:00,2015-08-14 00:00:00,TMP,surface,-93.7504,27.8739,292.242
2015-08-14 00:00:00,2015-08-14 00:00:00,TMP,surface,-92.8129,27.8739,292.216
2015-08-14 00:00:00,2015-08-14 00:00:00,TMP,surface,-107.813,28.8188,280.562
2015-08-14 00:00:00,2015-08-14 00:00:00,TMP,surface,-106.875,28.8188,281.794
2015-08-14 00:00:00,2015-08-14 00:00:00,TMP,surface,-105.938,28.8188,285.149
2015-08-14 00:00:00,2015-08-14 00:00:00,TMP,surface,-105,28.8188,287.074
2015-08-14 00:00:00,2015-08-14 00:00:00,TMP,surface,-104.063,28.8188,286.152
2015-08-14 00:00:00,2015-08-14 00:00:00,TMP,surface,-103.125,28.8188,285.517
2015-08-14 00:00:00,2015-08-14 00:00:00,TMP,surface,-102.188,28.8188,286.478
2015-08-14 00:00:00,2015-08-14 00:00:00,TMP,surface,-101.25,28.8188,287.971
2015-08-14 00:00:00,2015-08-14 00:00:00,TMP,surface,-100.313,28.8188,288.226
2015-08-14 00:00:00,2015-08-14 00:00:00,TMP,surface,-99.3754,28.8188,287.749
2015-08-14 00:00:00,2015-08-14 00:00:00,TMP,surface,-98.4379,28.8188,287.475
2015-08-14 00:00:00,2015-08-14 00:00:00,TMP,surface,-97.5004,28.8188,287.682
2015-08-14 00:00:00,2015-08-14 00:00:00,TMP,surface,-96.5629,28.8188,288.107
2015-08-14 00:00:00,2015-08-14 00:00:00,TMP,surface,-95.6254,28.8188,289.579
2015-08-14 00:00:00,2015-08-14 00:00:00,TMP,surface,-94.6879,28.8188,291.595
2015-08-14 00:00:00,2015-08-14 00:00:00,TMP,surface,-93.7504,28.8188,291.643
2015-08-14 00:00:00,2015-08-14 00:00:00,TMP,surface,-92.8129,28.8188,291.92
2015-08-14 00:00:00,2015-08-14 00:00:00,TMP,surface,-107.813,29.7637,282
2015-08-14 00:00:00,2015-08-14 00:00:00,TMP,surface,-106.875,29.7637,283.462
2015-08-14 00:00:00,2015-08-14 00:00:00,TMP,surface,-105.938,29.7637,285.643
2015-08-14 00:00:00,2015-08-14 00:00:00,TMP,surface,-105,29.7637,285.546
2015-08-14 00:00:00,2015-08-14 00:00:00,TMP,surface,-104.063,29.7637,285.429
2015-08-14 00:00:00,2015-08-14 00:00:00,TMP,surface,-103.125,29.7637,285.643
2015-08-14 00:00:00,2015-08-14 00:00:00,TMP,surface,-102.188,29.7637,286.798
2015-08-14 00:00:00,2015-08-14 00:00:00,TMP,surface,-101.25,29.7637,287.389
2015-08-14 00:00:00,2015-08-14 00:00:00,TMP,surface,-100.313,29.7637,286.798
2015-08-14 00:00:00,2015-08-14 00:00:00,TMP,surface,-99.3754,29.7637,286.291
2015-08-14 00:00:00,2015-08-14 00:00:00,TMP,surface,-98.4379,29.7637,286.19
2015-08-14 00:00:00,2015-08-14 00:00:00,TMP,surface,-97.5004,29.7637,286.325
2015-08-14 00:00:00,2015-08-14 00:00:00,TMP,surface,-96.5629,29.7637,286.618
2015-08-14 00:00:00,2015-08-14 00:00:00,TMP,surface,-95.6254,29.7637,287.082
2015-08-14 00:00:00,2015-08-14 00:00:00,TMP,surface,-94.6879,29.7637,288.702
2015-08-14 00:00:00,2015-08-14 00:00:00,TMP,surface,-93.7504,29.7637,290.651
2015-08-14 00:00:00,2015-08-14 00:00:00,TMP,surface,-92.8129,29.7637,288.421
2015-08-14 00:00:00,2015-08-14 00:00:00,TMP,surface,-107.813,30.7085,285.04
2015-08-14 00:00:00,2015-08-14 00:00:00,TMP,surface,-106.875,30.7085,286.006
2015-08-14 00:00:00,2015-08-14 00:00:00,TMP,surface,-105.938,30.7085,285.691
2015-08-14 00:00:00,2015-08-14 00:00:00,TMP,surface,-105,30.7085,284.706
2015-08-14 00:00:00,2015-08-14 00:00:00,TMP,surface,-104.063,30.7085,284.832
2015-08-14 00:00:00,2015-08-14 00:00:00,TMP,surface,-103.125,30.7085,285.73
2015-08-14 00:00:00,2015-08-14 00:00:00,TMP,surface,-102.188,30.7085,286.534
2015-08-14 00:00:00,2015-08-14 00:00:00,TMP,surface,-101.25,30.7085,286.52
2015-08-14 00:00:00,2015-08-14 00:00:00,TMP,surface,-100.313,30.7085,285.869
2015-08-14 00:00:00,2015-08-14 00:00:00,TMP,surface,-99.3754,30.7085,285.498
2015-08-14 00:00:00,2015-08-14 00:00:00,TMP,surface,-98.4379,30.7085,285.542
2015-08-14 00:00:00,2015-08-14 00:00:00,TMP,surface,-97.5004,30.7085,285.69
2015-08-14 00:00:00,2015-08-14 00:00:00,TMP,surface,-96.5629,30.7085,285.997
2015-08-14 00:00:00,2015-08-14 00:00:00,TMP,surface,-95.6254,30.7085,286.366
2015-08-14 00:00:00,2015-08-14 00:00:00,TMP,surface,-94.6879,30.7085,286.53
2015-08-14 00:00:00,2015-08-14 00:00:00,TMP,surface,-93.7504,30.7085,286.685
2015-08-14 00:00:00,2015-08-14 00:00:00,TMP,surface,-92.8129,30.7085,286.57
2015-08-14 00:00:00,2015-08-14 00:00:00,TMP,surface,-107.813,31.6534,285.454
2015-08-14 00:00:00,2015-08-14 00:00:00,TMP,surface,-106.875,31.6534,285.946
2015-08-14 00:00:00,2015-08-14 00:00:00,TMP,surface,-105.938,31.6534,284.699
2015-08-14 00:00:00,2015-08-14 00:00:00,TMP,surface,-105,31.6534,284.142
2015-08-14 00:00:00,2015-08-14 00:00:00,TMP,surface,-104.063,31.6534,284.662
2015-08-14 00:00:00,2015-08-14 00:00:00,TMP,surface,-103.125,31.6534,285.538
2015-08-14 00:00:00,2015-08-14 00:00:00,TMP,surface,-102.188,31.6534,285.888
2015-08-14 00:00:00,2015-08-14 00:00:00,TMP,surface,-101.25,31.6534,285.698
2015-08-14 00:00:00,2015-08-14 00:00:00,TMP,surface,-100.313,31.6534,285.354
2015-08-14 00:00:00,2015-08-14 00:00:00,TMP,surface,-99.3754,31.6534,285.179
2015-08-14 00:00:00,2015-08-14 00:00:00,TMP,surface,-98.4379,31.6534,285.235
2015-08-14 00:00:00,2015-08-14 00:00:00,TMP,surface,-97.5004,31.6534,285.315
2015-08-14 00:00:00,2015-08-14 00:00:00,TMP,surface,-96.5629,31.6534,285.514
2015-08-14 00:00:00,2015-08-14 00:00:00,TMP,surface,-95.6254,31.6534,285.71
2015-08-14 00:00:00,2015-08-14 00:00:00,TMP,surface,-94.6879,31.6534,285.57
2015-08-14 00:00:00,2015-08-14 00:00:00,TMP,surface,-93.7504,31.6534,285.44
2015-08-14 00:00:00,2015-08-14 00:00:00,TMP,surface,-92.8129,31.6534,285.509
2015-08-14 00:00:00,2015-08-14 00:00:00,TMP,surface,-107.813,32.5983,282.346
2015-08-14 00:00:00,2015-08-14 00:00:00,TMP,surface,-106.875,32.5983,282.782
2015-08-14 00:00:00,2015-08-14 00:00:00,TMP,surface,-105.938,32.5983,282.96
2015-08-14 00:00:00,2015-08-14 00:00:00,TMP,surface,-105,32.5983,283.202
2015-08-14 00:00:00,2015-08-14 00:00:00,TMP,surface,-104.063,32.5983,284.802
2015-08-14 00:00:00,2015-08-14 00:00:00,TMP,surface,-103.125,32.5983,285.643
2015-08-14 00:00:00,2015-08-14 00:00:00,TMP,surface,-102.188,32.5983,285.096
2015-08-14 00:00:00,2015-08-14 00:00:00,TMP,surface,-101.25,32.5983,284.88
2015-08-14 00:00:00,2015-08-14 00:00:00,TMP,surface,-100.313,32.5983,285.064
2015-08-14 00:00:00,2015-08-14 00:00:00,TMP,surface,-99.3754,32.5983,285.277
2015-08-14 00:00:00,2015-08-14 00:00:00,TMP,surface,-98.4379,32.5983,285.283
2015-08-14 00:00:00,2015-08-14 00:00:00,TMP,surface,-97.5004,32.5983,285.141
2015-08-14 00:00:00,2015-08-14 00:00:00,TMP,surface,-96.5629,32.5983,285.13
2015-08-14 00:00:00,2015-08-14 00:00:00,TMP,surface,-95.6254,32.5983,285.152
2015-08-14 00:00:00,2015-08-14 00:00:00,TMP,surface,-94.6879,32.5983,284.882
2015-08-14 00:00:00,2015-08-14 00:00:00,TMP,surface,-93.7504,32.5983,284.608
2015-08-14 00:00:00,2015-08-14 00:00:00,TMP,surface,-92.8129,32.5983,284.741
2015-08-14 00:00:00,2015-08-14 00:00:00,TMP,surface,-107.813,33.5432,278.624
2015-08-14 00:00:00,2015-08-14 00:00:00,TMP,surface,-106.875,33.5432,279.91
2015-08-14 00:00:00,2015-08-14 00:00:00,TMP,surface,-105.938,33.5432,281.125
2015-08-14 00:00:00,2015-08-14 00:00:00,TMP,surface,-105,33.5432,282.333
2015-08-14 00:00:00,2015-08-14 00:00:00,TMP,surface,-104.063,33.5432,284.254
2015-08-14 00:00:00,2015-08-14 00:00:00,TMP,surface,-103.125,33.5432,284.69
2015-08-14 00:00:00,2015-08-14 00:00:00,TMP,surface,-102.188,33.5432,283.907
2015-08-14 00:00:00,2015-08-14 00:00:00,TMP,surface,-101.25,33.5432,283.749
2015-08-14 00:00:00,2015-08-14 00:00:00,TMP,surface,-100.313,33.5432,284.25
2015-08-14 00:00:00,2015-08-14 00:00:00,TMP,surface,-99.3754,33.5432,284.582
2015-08-14 00:00:00,2015-08-14 00:00:00,TMP,surface,-98.4379,33.5432,284.57
2015-08-14 00:00:00,2015-08-14 00:00:00,TMP,surface,-97.5004,33.5432,284.326
2015-08-14 00:00:00,2015-08-14 00:00:00,TMP,surface,-96.5629,33.5432,284.173
2015-08-14 00:00:00,2015-08-14 00:00:00,TMP,surface,-95.6254,33.5432,284.253
2015-08-14 00:00:00,2015-08-14 00:00:00,TMP,surface,-94.6879,33.5432,284.197
2015-08-14 00:00:00,2015-08-14 00:00:00,TMP,surface,-93.7504,33.5432,283.904
2015-08-14 00:00:00,2015-08-14 00:00:00,TMP,surface,-92.8129,33.5432,283.894
2015-08-14 00:00:00,2015-08-14 00:00:00,TMP,surface,-107.813,34.4881,277.555
2015-08-14 00:00:00,2015-08-14 00:00:00,TMP,surface,-106.875,34.4881,278.994
2015-08-14 00:00:00,2015-08-14 00:00:00,TMP,surface,-105.938,34.4881,280.352
2015-08-14 00:00:00,2015-08-14 00:00:00,TMP,surface,-105,34.4881,281.79
2015-08-14 00:00:00,2015-08-14 00:00:00,TMP,surface,-104.063,34.4881,282.741
2015-08-14 00:00:00,2015-08-14 00:00:00,TMP,surface,-103.125,34.4881,283.074
2015-08-14 00:00:00,2015-08-14 00:00:00,TMP,surface,-102.188,34.4881,282.794
2015-08-14 00:00:00,2015-08-14 00:00:00,TMP,surface,-101.25,34.4881,282.709
2015-08-14 00:00:00,2015-08-14 00:00:00,TMP,surface,-100.313,34.4881,283.019
2015-08-14 00:00:00,2015-08-14 00:00:00,TMP,surface,-99.3754,34.4881,283.301
2015-08-14 00:00:00,2015-08-14 00:00:00,TMP,surface,-98.4379,34.4881,283.283
2015-08-14 00:00:00,2015-08-14 00:00:00,TMP,surface,-97.5004,34.4881,283.163
2015-08-14 00:00:00,2015-08-14 00:00:00,TMP,surface,-96.5629,34.4881,283.339
2015-08-14 00:00:00,2015-08-14 00:00:00,TMP,surface,-95.6254,34.4881,283.61
2015-08-14 00:00:00,2015-08-14 00:00:00,TMP,surface,-94.6879,34.4881,283.429
2015-08-14 00:00:00,2015-08-14 00:00:00,TMP,surface,-93.7504,34.4881,283.032
2015-08-14 00:00:00,2015-08-14 00:00:00,TMP,surface,-92.8129,34.4881,282.998
2015-08-14 00:00:00,2015-08-14 00:00:00,TMP,surface,-107.813,35.4329,277.824
2015-08-14 00:00:00,2015-08-14 00:00:00,TMP,surface,-106.875,35.4329,278.192
2015-08-14 00:00:00,2015-08-14 00:00:00,TMP,surface,-105.938,35.4329,278.866
2015-08-14 00:00:00,2015-08-14 00:00:00,TMP,surface,-105,35.4329,279.746
2015-08-14 00:00:00,2015-08-14 00:00:00,TMP,surface,-104.063,35.4329,281.773
2015-08-14 00:00:00,2015-08-14 00:00:00,TMP,surface,-103.125,35.4329,282.474
2015-08-14 00:00:00,2015-08-14 00:00:00,TMP,surface,-102.188,35.4329,282.178
2015-08-14 00:00:00,2015-08-14 00:00:00,TMP,surface,-101.25,35.4329,281.918
2015-08-14 00:00:00,2015-08-14 00:00:00,TMP,surface,-100.313,35.4329,281.925
2015-08-14 00:00:00,2015-08-14 00:00:00,TMP,surface,-99.3754,35.4329,281.958
2015-08-14 00:00:00,2015-08-14 00:00:00,TMP,surface,-98.4379,35.4329,282.003
2015-08-14 00:00:00,2015-08-14 00:00:00,TMP,surface,-97.5004,35.4329,282.186
2015-08-14 00:00:00,2015-08-14 00:00:00,TMP,surface,-96.5629,35.4329,282.462
2015-08-14 00:00:00,2015-08-14 00:00:00,TMP,surface,-95.6254,35.4329,282.638
2015-08-14 00:00:00,2015-08-14 00:00:00,TMP,surface,-94.6879,35.4329,282.504
2015-08-14 00:00:00,2015-08-14 00:00:00,TMP,surface,-93.7504,35.4329,282.102
2015-08-14 00:00:00,2015-08-14 00:00:00,TMP,surface,-92.8129,35.4329,281.971
2015-08-14 00:00:00,2015-08-14 00:00:00,TMP,surface,-107.813,36.3778,277.128
2015-08-14 00:00:00,2015-08-14 00:00:00,TMP,surface,-106.875,36.3778,275.718
2015-08-14 00:00:00,2015-08-14 00:00:00,TMP,surface,-105.938,36.3778,276.048
2015-08-14 00:00:00,2015-08-14 00:00:00,TMP,surface,-105,36.3778,277.589
2015-08-14 00:00:00,2015-08-14 00:00:00,TMP,surface,-104.063,36.3778,279.893
2015-08-14 00:00:00,2015-08-14 00:00:00,TMP,surface,-103.125,36.3778,280.706
2015-08-14 00:00:00,2015-08-14 00:00:00,TMP,surface,-102.188,36.3778,280.914
2015-08-14 00:00:00,2015-08-14 00:00:00,TMP,surface,-101.25,36.3778,280.811
2015-08-14 00:00:00,2015-08-14 00:00:00,TMP,surface,-100.313,36.3778,281.12
2015-08-14 00:00:00,2015-08-14 00:00:00,TMP,surface,-99.3754,36.3778,281.299
2015-08-14 00:00:00,2015-08-14 00:00:00,TMP,surface,-98.4379,36.3778,281.16
2015-08-14 00:00:00,2015-08-14 00:00:00,TMP,surface,-97.5004,36.3778,281.259
2015-08-14 00:00:00,2015-08-14 00:00:00,TMP,surface,-96.5629,36.3778,281.595
2015-08-14 00:00:00,2015-08-14 00:00:00,TMP,surface,-95.6254,36.3778,281.734
2015-08-14 00:00:00,2015-08-14 00:00:00,TMP,surface,-94.6879,36.3778,281.555
2015-08-14 00:00:00,2015-08-14 00:00:00,TMP,surface,-93.7504,36.3778,281.155
2015-08-14 00:00:00,2015-08-14 00:00:00,TMP,surface,-92.8129,36.3778,280.942
2015-08-14 00:00:00,2015-08-14 00:00:00,PRATE,surface,-107.813,25.0393,2.42e-05
2015-08-14 00:00:00,2015-08-14 00:00:00,PRATE,surface,-106.875,25.0393,3.53e-05
2015-08-14 00:00:00,2015-08-14 00:00:00,PRATE,surface,-105.938,25.0393,2.43e-05
2015-08-14 00:00:00,2015-08-14 00:00:00,PRATE,surface,-105,25.0393,9.5e-06
2015-08-14 00:00:00,2015-08-14 00:00:00,PRATE,surface,-104.063,25.0393,5.3e-06
2015-08-14 00:00:00,2015-08-14 00:00:00,PRATE,surface,-103.125,25.0393,3.8e-06
2015-08-14 00:00:00,2015-08-14 00:00:00,PRATE,surface,-102.188,25.0393,7.1e-06
2015-08-14 00:00:00,2015-08-14 00:00:00,PRATE,surface,-101.25,25.0393,1.51e-05
2015-08-14 00:00:00,2015-08-14 00:00:00,PRATE,surface,-100.313,25.0393,2.78e-05
2015-08-14 00:00:00,2015-08-14 00:00:00,PRATE,surface,-99.3754,25.0393,3.47e-05
2015-08-14 00:00:00,2015-08-14 00:00:00,PRATE,surface,-98.4379,25.0393,2.63e-05
2015-08-14 00:00:00,2015-08-14 00:00:00,PRATE,surface,-97.5004,25.0393,2.75e-05
2015-08-14 00:00:00,2015-08-14 00:00:00,PRATE,surface,-96.5629,25.0393,2.44e-05
2015-08-14 00:00:00,2015-08-14 00:00:00,PRATE,surface,-95.6254,25.0393,2.7e-05
2015-08-14 00:00:00,2015-08-14 00:00:00,PRATE,surface,-94.6879,25.0393,2.75e-05
2015-08-14 00:00:00,2015-08-14 00:00:00,PRATE,surface,-93.7504,25.0393,2.76e-05
2015-08-14 00:00:00,2015-08-14 00:00:00,PRATE,surface,-92.8129,25.0393,3.15e-05
2015-08-14 00:00:00,2015-08-14 00:00:00,PRATE,surface,-107.813,25.9842,3.28e-05
2015-08-14 00:00:00,2015-08-14 00:00:00,PRATE,surface,-106.875,25.9842,3.06e-05
2015-08-14 00:00:00,2015-08-14 00:00:00,PRATE,surface,-105.938,25.9842,1.29e-05
2015-08-14 00:00:00,2015-08-14 00:00:00,PRATE,surface,-105,25.9842,6.4e-06
2015-08-14 00:00:00,2015-08-14 00:00:00,PRATE,surface,-104.063,25.9842,4e-06
2015-08-14 00:00:00,2015-08-14 00:00:00,PRATE,surface,-103.125,25.9842,4.9e-06
2015-08-14 00:00:00,2015-08-14 00:00:00,PRATE,surface,-102.188,25.9842,1.23e-05
2015-08-14 00:00:00,2015-08-14 00:00:00,PRATE,surface,-101.25,25.9842,1.51e-05
2015-08-14 00:00:00,2015-08-14 00:00:00,PRATE,surface,-100.313,25.9842,3.18e-05
2015-08-14 00:00:00,2015-08-14 00:00:00,PRATE,surface,-99.3754,25.9842,2.76e-05
2015-08-14 00:00:00,2015-08-14 00:00:00,PRATE,surface,-98.4379,25.9842,3.77e-05
2015-08-14 00:00:00,2015-08-14 00:00:00,PRATE,surface,-97.5004,25.9842,4.13e-05
2015-08-14 00:00:00,2015-08-14 00:00:00,PRATE,surface,-96.5629,25.9842,4.54e-05
2015-08-14 00:00:00,2015-08-14 00:00:00,PRATE,surface,-95.6254,25.9842,4.94e-05
2015-08-14 00:00:00,2015-08-14 00:00:00,PRATE,surface,-94.6879,25.9842,4.03e-05
2015-08-14 00:00:00,2015-08-14 00:00:00,PRATE,surface,-93.7504,25.9842,3.39e-05
2015-08-14 00:00:00,2015-08-14 00:00:00,PRATE,surface,-92.8129,25.9842,2.96e-05
2015-08-14 00:00:00,2015-08-14 00:00:00,PRATE,surface,-107.813,26.929,4.02e-05
2015-08-14 00:00:00,2015-08-14 00:00:00,PRATE,surface,-106.875,26.929,1.94e-05
2015-08-14 00:00:00,2015-08-14 00:00:00,PRATE,surface,-105.938,26.929,9.7e-06
2015-08-14 00:00:00,2015-08-14 00:00:00,PRATE,surface,-105,26.929,5.3e-06
2015-08-14 00:00:00,2015-08-14 00:00:00,PRATE,surface,-104.063,26.929,1.16e-05
2015-08-14 00:00:00,2015-08-14 00:00:00,PRATE,surface,-103.125,26.929,1.76e-05
2015-08-14 00:00:00,2015-08-14 00:00:00,PRATE,surface,-102.188,26.929,2.68e-05
2015-08-14 00:00:00,2015-08-14 00:00:00,PRATE,surface,-101.25,26.929,3.71e-05
2015-08-14 00:00:00,2015-08-14 00:00:00,PRATE,surface,-100.313,26.929,3.71e-05
2015-08-14 00:00:00,2015-08-14 00:00:00,PRATE,surface,-99.3754,26.929,3.91e-05
2015-08-14 00:00:00,2015-08-14 00:00:00,PRATE,surface,-98.4379,26.929,5.17e-05
2015-08-14 00:00:00,2015-08-14 00:00:00,PRATE,surface,-97.5004,26.929,6.16e-05
2015-08-14 00:00:00,2015-08-14 00:00:00,PRATE,surface,-96.5629,26.929,5.66e-05
2015-08-14 00:00:00,2015-08-14 00:00:00,PRATE,surface,-95.6254,26.929,5.45e-05
2015-08-14 00:00:00,2015-08-14 00:00:00,PRATE,surface,-94.6879,26.929,4.69e-05
2015-08-14 00:00:00,2015-08-14 00:00:00,PRATE,surface,-93.7504,26.929,4.23e-05
2015-08-14 00:00:00,2015-08-14 00:00:00,PRATE,surface,-92.8129,26.929,3.66e-05
2015-08-14 00:00:00,2015-08-14 00:00:00,PRATE,surface,-107.813,27.8739,4.1e-05
2015-08-14 00:00:00,2015-08-14 00:00:00,PRATE,surface,-106.875,27.8739,1.42e-05
2015-08-14 00:00:00,2015-08-14 00:00:00,PRATE,surface,-105.938,27.8739,9.2e-06
2015-08-14 00:00:00,2015-08-14 00:00:00,PRATE,surface,-105,27.8739,8.1e-06
2015-08-14 00:00:00,2015-08-14 00:00:00,PRATE,surface,-104.063,27.8739,1.81e-05
2015-08-14 00:00:00,2015-08-14 00:00:00,PRATE,surface,-103.125,27.8739,4.01e-05
2015-08-14 00:00:00,2015-08-14 00:00:00,PRATE,surface,-102.188,27.8739,5.05e-05
2015-08-14 00:00:00,2015-08-14 00:00:00,PRATE,surface,-101.25,27.8739,4.19e-05
2015-08-14 00:00:00,2015-08-14 00:00:00,PRATE,surface,-100.313,27.8739,3.62e-05
2015-08-14 00:00:00,2015-08-14 00:00:00,PRATE,surface,-99.3754,27.8739,4.04e-05
2015-08-14 00:00:00,2015-08-14 00:00:00,PRATE,surface,-98.4379,27.8739,5.91e-05
2015-08-14 00:00:00,2015-08-14 00:00:00,PRATE,surface,-97.5004,27.8739,6.84e-05
2015-08-14 00:00:00,2015-08-14 00:00:00,PRATE,surface,-96.5629,27.8739,6.54e-05
2015-08-14 00:00:00,2015-08-14 00:00:00,PRATE,surface,-95.6254,27.8739,6.08e-05
2015-08-14 00:00:00,2015-08-14 00:00:00,PRATE,surface,-94.6879,27.8739,5.28e-05
2015-08-14 00:00:00,2015-08-14 00:00:00,PRATE,surface,-93.7504,27.8739,5.09e-05
2015-08-14 00:00:00,2015-08-14 00:00:00,PRATE,surface,-92.8129,27.8739,4.66e-05
2015-08-14 00:00:00,2015-08-14 00:00:00,PRATE,surface,-107.813,28.8188,3.8e-05
2015-08-14 00:00:00,2015-08-14 00:00:00,PRATE,surface,-106.875,28.8188,1.97e-05
2015-08-14 00:00:00,2015-08-14 00:00:00,PRATE,surface,-105.938,28.8188,1.41e-05
2015-08-14 00:00:00,2015-08-14 00:00:00,PRATE,surface,-105,28.8188,1.29e-05
2015-08-14 00:00:00,2015-08-14 00:00:00,PRATE,surface,-104.063,28.8188,2.49e-05
2015-08-14 00:00:00,2015-08-14 00:00:00,PRATE,surface,-103.125,28.8188,4.16e-05
2015-08-14 00:00:00,2015-08-14 00:00:00,PRATE,surface,-102.188,28.8188,3.54e-05
2015-08-14 00:00:00,2015-08-14 00:00:00,PRATE,surface,-101.25,28.8188,2.64e-05
2015-08-14 00:00:00,2015-08-14 00:00:00,PRATE,surface,-100.313,28.8188,2.75e-05
2015-08-14 00:00:00,2015-08-14 00:00:00,PRATE,surface,-99.3754,28.8188,3.84e-05
2015-08-14 00:00:00,2015-08-14 00:00:00,PRATE,surface,-98.4379,28.8188,5.62e-05
2015-08-14 00:00:00,2015-08-14 00:00:00,PRATE,surface,-97.5004,28.8188,6.98e-05
2015-08-14 00:00:00,2015-08-14 00:00:00,PRATE,surface,-96.5629,28.8188,7.64e-05
2015-08-14 00:00:00,2015-08-14 00:00:00,PRATE,surface,-95.6254,28.8188,7.82e-05
2015-08-14 00:00:00,2015-08-14 00:00:00,PRATE,surface,-94.6879,28.8188,7.5e-05
2015-08-14 00:00:00,2015-08-14 00:00:00,PRATE,surface,-93.7504,28.8188,7.07e-05
2015-08-14 00:00:00,2015-08-14 00:00:00,PRATE,surface,-92.8129,28.8188,6.17e-05
2015-08-14 00:00:00,2015-08-14 00:00:00,PRATE,surface,-107.813,29.7637,2.09e-05
2015-08-14 00:00:00,2015-08-14 00:00:00,PRATE,surface,-106.875,29.7637,2.13e-05
2015-08-14 00:00:00,2015-08-14 00:00:00,PRATE,surface,-105.938,29.7637,2.84e-05
2015-08-14 00:00:00,2015-08-14 00:00:00,PRATE,surface,-105,29.7637,3.43e-05
2015-08-14 00:00:00,2015-08-14 00:00:00,PRATE,surface,-104.063,29.7637,3.86e-05
2015-08-14 00:00:00,2015-08-14 00:00:00,PRATE,surface,-103.125,29.7637,3.45e-05
2015-08-14 00:00:00,2015-08-14 00:00:00,PRATE,surface,-102.188,29.7637,2.36e-05
2015-08-14 00:00:00,2015-08-14 00:00:00,PRATE,surface,-101.25,29.7637,1.85e-05
2015-08-14 00:00:00,2015-08-14 00:00:00,PRATE,surface,-100.313,29.7637,3.02e-05
2015-08-14 00:00:00,2015-08-14 00:00:00,PRATE,surface,-99.3754,29.7637,4.63e-05
2015-08-14 00:00:00,2015-08-14 00:00:00,PRATE,surface,-98.4379,29.7637,5.7e-05
2015-08-14 00:00:00,2015-08-14 00:00:00,PRATE,surface,-97.5004,29.7637,6.62e-05
2015-08-14 00:00:00,2015-08-14 00:00:00,PRATE,surface,-96.5629,29.7637,8.18e-05
2015-08-14 00:00:00,2015-08-14 00:00:00,PRATE,surface,-95.6254,29.7637,9.57e-05
2015-08-14 00:00:00,2015-08-14 00:00:00,PRATE,surface,-94.6879,29.7637,9.58e-05
2015-08-14 00:00:00,2015-08-14 00:00:00,PRATE,surface,-93.7504,29.7637,8.69e-05
2015-08-14 00:00:00,2015-08-14 00:00:00,PRATE,surface,-92.8129,29.7637,6.8e-05
2015-08-14 00:00:00,2015-08-14 00:00:00,PRATE,surface,-107.813,30.7085,7.4e-06
2015-08-14 00:00:00,2015-08-14 00:00:00,PRATE,surface,-106.875,30.7085,1.15e-05
2015-08-14 00:00:00,2015-08-14 00:00:00,PRATE,surface,-105.938,30.7085,2.47e-05
2015-08-14 00:00:00,2015-08-14 00:00:00,PRATE,surface,-105,30.7085,3.81e-05
2015-08-14 00:00:00,2015-08-14 00:00:00,PRATE,surface,-104.063,30.7085,3.37e-05
2015-08-14 00:00:00,2015-08-14 00:00:00,PRATE,surface,-103.125,30.7085,2.61e-05
2015-08-14 00:00:00,2015-08-14 00:00:00,PRATE,surface,-102.188,30.7085,2.28e-05
2015-08-14 00:00:00,2015-08-14 00:00:00,PRATE,surface,-101.25,30.7085,2.39e-05
2015-08-14 00:00:00,2015-08-14 00:00:00,PRATE,surface,-100.313,30.7085,3.46e-05
2015-08-14 00:00:00,2015-08-14 00:00:00,PRATE,surface,-99.3754,30.7085,4.62e-05
2015-08-14 00:00:00,2015-08-14 00:00:00,PRATE,surface,-98.4379,30.7085,5.37e-05
2015-08-14 00:00:00,2015-08-14 00:00:00,PRATE,surface,-97.5004,30.7085,6.25e-05
2015-08-14 00:00:00,2015-08-14 00:00:00,PRATE,surface,-96.5629,30.7085,7.66e-05
2015-08-14 00:00:00,2015-08-14 00:00:00,PRATE,surface,-95.6254,30.7085,9.14e-05
2015-08-14 00:00:00,2015-08-14 00:00:00,PRATE,surface,-94.6879,30.7085,9.81e-05
2015-08-14 00:00:00,2015-08-14 00:00:00,PRATE,surface,-93.7504,30.7085,8.97e-05
2015-08-14 00:00:00,2015-08-14 00:00:00,PRATE,surface,-92.8129,30.7085,7.12e-05
2015-08-14 00:00:00,2015-08-14 00:00:00,PRATE,surface,-107.813,31.6534,3.3e-06
2015-08-14 00:00:00,2015-08-14 00:00:00,PRATE,surface,-106.875,31.6534,5.3e-06
2015-08-14 00:00:00,2015-08-14 00:00:00,PRATE,surface,-105.938,31.6534,1.55e-05
2015-08-14 00:00:00,2015-08-14 00:00:00,PRATE,surface,-105,31.6534,2.58e-05
2015-08-14 00:00:00,2015-08-14 00:00:00,PRATE,surface,-104.063,31.6534,2.4e-05
2015-08-14 00:00:00,2015-08-14 00:00:00,PRATE,surface,-103.125,31.6534,2.56e-05
2015-08-14 00:00:00,2015-08-14 00:00:00,PRATE,surface,-102.188,31.6534,3.05e-05
2015-08-14 00:00:00,2015-08-14 00:00:00,PRATE,surface,-101.25,31.6534,3.58e-05
2015-08-14 00:00:00,2015-08-14 00:00:00,PRATE,surface,-100.313,31.6534,4.04e-05
2015-08-14 00:00:00,2015-08-14 00:00:00,PRATE,surface,-99.3754,31.6534,4.47e-05
2015-08-14 00:00:00,2015-08-14 00:00:00,PRATE,surface,-98.4379,31.6534,4.93e-05
2015-08-14 00:00:00,2015-08-14 00:00:00,PRATE,surface,-97.5004,31.6534,5.84e-05
2015-08-14 00:00:00,2015-08-14 00:00:00,PRATE,surface,-96.5629,31.6534,6.92e-05
2015-08-14 00:00:00,2015-08-14 00:00:00,PRATE,surface,-95.6254,31.6534,7.58e-05
2015-08-14 00:00:00,2015-08-14 00:00:00,PRATE,surface,-94.6879,31.6534,7.79e-05
2015-08-14 00:00:00,2015-08-14 00:00:00,PRATE,surface,-93.7504,31.6534,7.25e-05
2015-08-14 00:00:00,2015-08-14 00:00:00,PRATE,surface,-92.8129,31.6534,5.79e-05
2015-08-14 00:00:00,2015-08-14 00:00:00,PRATE,surface,-107.813,32.5983,1e-05
2015-08-14 00:00:00,2015-08-14 00:00:00,PRATE,surface,-106.875,32.5983,9.2e-06
2015-08-14 00:00:00,2015-08-14 00:00:00,PRATE,surface,-105.938,32.5983,1.48e-05
2015-08-14 00:00:00,2015-08-14 00:00:00,PRATE,surface,-105,32.5983,2.39e-05
2015-08-14 00:00:00,2015-08-14 00:00:00,PRATE,surface,-104.063,32.5983,2.12e-05
2015-08-14 00:00:00,2015-08-14 00:00:00,PRATE,surface,-103.125,32.5983,2.29e-05
2015-08-14 00:00:00,2015-08-14 00:00:00,PRATE,surface,-102.188,32.5983,3e-05
2015-08-14 00:00:00,2015-08-14 00:00:00,PRATE,surface,-101.25,32.5983,3.9e-05
2015-08-14 00:00:00,2015-08-14 00:00:00,PRATE,surface,-100.313,32.5983,3.82e-05
2015-08-14 00:00:00,2015-08-14 00:00:00,PRATE,surface,-99.3754,32.5983,3.19e-05
2015-08-14 00:00:00,2015-08-14 00:00:00,PRATE,surface,-98.4379,32.5983,3.53e-05
2015-08-14 00:00:00,2015-08-14 00:00:00,PRATE,surface,-97.5004,32.5983,4.72e-05
2015-08-14 00:00:00,2015-08-14 00:00:00,PRATE,surface,-96.5629,32.5983,5.51e-05
2015-08-14 00:00:00,2015-08-14 00:00:00,PRATE,surface,-95.6254,32.5983,5.69e-05
2015-08-14 00:00:00,2015-08-14 00:00:00,PRATE,surface,-94.6879,32.5983,5.97e-05
2015-08-14 00:00:00,2015-08-14 00:00:00,PRATE,surface,-93.7504,32.5983,6.03e-05
2015-08-14 00:00:00,2015-08-14 00:00:00,PRATE,surface,-92.8129,32.5983,4.82e-05
2015-08-14 00:00:00,2015-08-14 00:00:00,PRATE,surface,-107.813,33.5432,3.23e-05
2015-08-14 00:00:00,2015-08-14 00:00:00,PRATE,surface,-106.875,33.5432,2.55e-05
2015-08-14 00:00:00,2015-08-14 00:00:00,PRATE,surface,-105.938,33.5432,2.35e-05
2015-08-14 00:00:00,2015-08-14 00:00:00,PRATE,surface,-105,33.5432,3.22e-05
2015-08-14 00:00:00,2015-08-14 00:00:00,PRATE,surface,-104.063,33.5432,2.49e-05
2015-08-14 00:00:00,2015-08-14 00:00:00,PRATE,surface,-103.125,33.5432,2.11e-05
2015-08-14 00:00:00,2015-08-14 00:00:00,PRATE,surface,-102.188,33.5432,2.98e-05
2015-08-14 00:00:00,2015-08-14 00:00:00,PRATE,surface,-101.25,33.5432,4.41e-05
2015-08-14 00:00:00,2015-08-14 00:00:00,PRATE,surface,-100.313,33.5432,3.89e-05
2015-08-14 00:00:00,2015-08-14 00:00:00,PRATE,surface,-99.3754,33.5432,2.96e-05
2015-08-14 00:00:00,2015-08-14 00:00:00,PRATE,surface,-98.4379,33.5432,3.02e-05
2015-08-14 00:00:00,2015-08-14 00:00:00,PRATE,surface,-97.5004,33.5432,3.82e-05
2015-08-14 00:00:00,2015-08-14 00:00:00,PRATE,surface,-96.5629,33.5432,4.31e-05
2015-08-14 00:00:00,2015-08-14 00:00:00,PRATE,surface,-95.6254,33.5432,4.27e-05
2015-08-14 00:00:00,2015-08-14 00:00:00,PRATE,surface,-94.6879,33.5432,4.33e-05
2015-08-14 00:00:00,2015-08-14 00:00:00,PRATE,surface,-93.7504,33.5432,4.35e-05
2015-08-14 00:00:00,2015-08-14 00:00:00,PRATE,surface,-92.8129,33.5432,3.96e-05
2015-08-14 00:00:00,2015-08-14 00:00:00,PRATE,surface,-107.813,34.4881,3.37e-05
2015-08-14 00:00:00,2015-08-14 00:00:00,PRATE,surface,-106.875,34.4881,2.73e-05
2015-08-14 00:00:00,2015-08-14 00:00:00,PRATE,surface,-105.938,34.4881,2.49e-05
2015-08-14 00:00:00,2015-08-14 00:00:00,PRATE,surface,-105,34.4881,3.59e-05
2015-08-14 00:00:00,2015-08-14 00:00:00,PRATE,surface,-104.063,34.4881,3.05e-05
2015-08-14 00:00:00,2015-08-14 00:00:00,PRATE,surface,-103.125,34.4881,2.47e-05
2015-08-14 00:00:00,2015-08-14 00:00:00,PRATE,surface,-102.188,34.4881,3.3e-05
2015-08-14 00:00:00,2015-08-14 00:00:00,PRATE,surface,-101.25,34.4881,4.42e-05
2015-08-14 00:00:00,2015-08-14 00:00:00,PRATE,surface,-100.313,34.4881,4.04e-05
2015-08-14 00:00:00,2015-08-14 00:00:00,PRATE,surface,-99.3754,34.4881,3.47e-05
2015-08-14 00:00:00,2015-08-14 00:00:00,PRATE,surface,-98.4379,34.4881,3.66e-05
2015-08-14 00:00:00,2015-08-14 00:00:00,PRATE,surface,-97.5004,34.4881,4.11e-05
2015-08-14 00:00:00,2015-08-14 00:00:00,PRATE,surface,-96.5629,34.4881,4.15e-05
2015-08-14 00:00:00,2015-08-14 00:00:00,PRATE,surface,-95.6254,34.4881,3.73e-05
2015-08-14 00:00:00,2015-08-14 00:00:00,PRATE,surface,-94.6879,34.4881,3.29e-05
2015-08-14 00:00:00,2015-08-14 00:00:00,PRATE,surface,-93.7504,34.4881,3.15e-05
2015-08-14 00:00:00,2015-08-14 00:00:00,PRATE,surface,-92.8129,34.4881,2.86e-05
2015-08-14 00:00:00,2015-08-14 00:00:00,PRATE,surface,-107.813,35.4329,3.13e-05
2015-08-14 00:00:00,2015-08-14 00:00:00,PRATE,surface,-106.875,35.4329,2.63e-05
2015-08-14 00:00:00,2015-08-14 00:00:00,PRATE,surface,-105.938,35.4329,2.74e-05
2015-08-14 00:00:00,2015-08-14 00:00:00,PRATE,surface,-105,35.4329,3.45e-05
2015-08-14 00:00:00,2015-08-14 00:00:00,PRATE,surface,-104.063,35.4329,3.94e-05
2015-08-14 00:00:00,2015-08-14 00:00:00,PRATE,surface,-103.125,35.4329,3.86e-05
2015-08-14 00:00:00,2015-08-14 00:00:00,PRATE,surface,-102.188,35.4329,4.24e-05
2015-08-14 00:00:00,2015-08-14 00:00:00,PRATE,surface,-101.25,35.4329,4.3e-05
2015-08-14 00:00:00,2015-08-14 00:00:00,PRATE,surface,-100.313,35.4329,4.42e-05
2015-08-14 00:00:00,2015-08-14 00:00:00,PRATE,surface,-99.3754,35.4329,4.76e-05
2015-08-14 00:00:00,2015-08-14 00:00:00,PRATE,surface,-98.4379,35.4329,4.68e-05
2015-08-14 00:00:00,2015-08-14 00:00:00,PRATE,surface,-97.5004,35.4329,4.08e-05
2015-08-14 00:00:00,2015-08-14 00:00:00,PRATE,surface,-96.5629,35.4329,3.48e-05
2015-08-14 00:00:00,2015-08-14 00:00:00,PRATE,surface,-95.6254,35.4329,3.11e-05
2015-08-14 00:00:00,2015-08-14 00:00:00,PRATE,surface,-94.6879,35.4329,3e-05
2015-08-14 00:00:00,2015-08-14 00:00:00,PRATE,surface,-93.7504,35.4329,3.02e-05
2015-08-14 00:00:00,2015-08-14 00:00:00,PRATE,surface,-92.8129,35.4329,2.3e-05
2015-08-14 00:00:00,2015-08-14 00:00:00,PRATE,surface,-107.813,36.3778,3.43e-05
2015-08-14 00:00:00,2015-08-14 00:00:00,PRATE,surface,-106.875,36.3778,3.69e-05
2015-08-14 00:00:00,2015-08-14 00:00:00,PRATE,surface,-105.938,36.3778,3.83e-05
2015-08-14 00:00:00,2015-08-14 00:00:00,PRATE,surface,-105,36.3778,4.24e-05
2015-08-14 00:00:00,2015-08-14 00:00:00,PRATE,surface,-104.063,36.3778,4.53e-05
2015-08-14 00:00:00,2015-08-14 00:00:00,PRATE,surface,-103.125,36.3778,4.32e-05
2015-08-14 00:00:00,2015-08-14 00:00:00,PRATE,surface,-102.188,36.3778,4.2e-05
2015-08-14 00:00:00,2015-08-14 00:00:00,PRATE,surface,-101.25,36.3778,4.43e-05
2015-08-14 00:00:00,2015-08-14 00:00:00,PRATE,surface,-100.313,36.3778,4.71e-05
2015-08-14 00:00:00,2015-08-14 00:00:00,PRATE,surface,-99.3754,36.3778,5.21e-05
2015-08-14 00:00:00,2015-08-14 00:00:00,PRATE,surface,-98.4379,36.3778,5.08e-05
2015-08-14 00:00:00,2015-08-14 00:00:00,PRATE,surface,-97.5004,36.3778,4.16e-05
2015-08-14 00:00:00,2015-08-14 00:00:00,PRATE,surface,-96.5629,36.3778,3.13e-05
2015-08-14 00:00:00,2015-08-14 00:00:00,PRATE,surface,-95.6254,36.3778,2.42e-05
2015-08-14 00:00:00,2015-08-14 00:00:00,PRATE,surface,-94.6879,36.3778,2.05e-05
2015-08-14 00:00:00,2015-08-14 00:00:00,PRATE,surface,-93.7504,36.3778,2.01e-05
2015-08-14 00:00:00,2015-08-14 00:00:00,PRATE,surface,-92.8129,36.3778,1.91e-05
