2011-09-06 00:00:00,2011-09-06 00:00:00,TMP,surface,-107.813,25.0393,295.757
2011-09-06 00:00:00,2011-09-06 00:00:00,TMP,surface,-106.875,25.0393,289.39
2011-09-06 00:00:00,2011-09-06 00:00:00,TMP,surface,-105.938,25.0393,283.211
2011-09-06 00:00:00,2011-09-06 00:00:00,TMP,surface,-105,25.0393,281.616
2011-09-06 00:00:00,2011-09-06 00:00:00,TMP,surface,-104.063,25.0393,285.048
2011-09-06 00:00:00,2011-09-06 00:00:00,TMP,surface,-103.125,25.0393,287.192
2011-09-06 00:00:00,2011-09-06 00:00:00,TMP,surface,-102.188,25.0393,286.622
2011-09-06 00:00:00,2011-09-06 00:00:00,TMP,surface,-101.25,25.0393,285.394
2011-09-06 00:00:00,2011-09-06 00:00:00,TMP,surface,-100.313,25.0393,285.931
2011-09-06 00:00:00,2011-09-06 00:00:00,TMP,surface,-99.3754,25.0393,288.97
2011-09-06 00:00:00,2011-09-06 00:00:00,TMP,surface,-98.4379,25.0393,292.48
2011-09-06 00:00:00,2011-09-06 00:00:00,TMP,surface,-97.5004,25.0393,298.571
2011-09-06 00:00:00,2011-09-06 00:00:00,TMP,surface,-96.5629,25.0393,298.778
2011-09-06 00:00:00,2011-09-06 00:00:00,TMP,surface,-95.6254,25.0393,298.576
2011-09-06 00:00:00,2011-09-06 00:00:00,TMP,surface,-94.6879,25.0393,298.43
2011-09-06 00:00:00,2011-09-06 00:00:00,TMP,surface,-93.7504,25.0393,298.099
2011-09-06 00:00:00,2011-09-06 00:00:00,TMP,surface,-92.8129,25.0393,297.797
2011-09-06 00:00:00,2011-09-06 00:00:00,TMP,surface,-107.813,25.9842,290.27
2011-09-06 00:00:00,2011-09-06 00:00:00,TMP,surface,-106.875,25.9842,284.747
2011-09-06 00:00:00,2011-09-06 00:00:00,TMP,surface,-105.938,25.9842,281.163
2011-09-06 00:00:00,2011-09-06 00:00:00,TMP,surface,-105,25.9842,283.747
2011-09-06 00:00:00,2011-09-06 00:00:00,TMP,surface,-104.063,25.9842,286.907
2011-09-06 00:00:00,2011-09-06 00:00:00,TMP,surface,-103.125,25.9842,287.746
2011-09-06 00:00:00,2011-09-06 00:00:00,TMP,surface,-102.188,25.9842,287.552
2011-09-06 00:00:00,2011-09-06 00:00:00,TMP,surface,-101.25,25.9842,287.11
2011-09-06 00:00:00,2011-09-06 00:00:00,TMP,surface,-100.313,25.9842,287.68
2011-09-06 00:00:00,2011-09-06 00:00:00,TMP,surface,-99.3754,25.9842,290.336
2011-09-06 00:00:00,2011-09-06 00:00:00,TMP,surface,-98.4379,25.9842,292.536
2011-09-06 00:00:00,2011-09-06 00:00:00,TMP,surface,-97.5004,25.9842,294.09
2011-09-06 00:00:00,2011-09-06 00:00:00,TMP,surface,-96.5629,25.9842,298.283
2011-09-06 00:00:00,2011-09-06 00:00:00,TMP,surface,-95.6254,25.9842,298.334
2011-09-06 00:00:00,2011-09-06 00:00:00,TMP,surface,-94.6879,25.9842,298.381
2011-09-06 00:00:00,2011-09-06 00:00:00,TMP,surface,-93.7504,25.9842,298.221
2011-09-06 00:00:00,2011-09-06 00:00:00,TMP,surface,-92.8129,25.9842,298.04
2011-09-06 00:00:00,2011-09-06 00:00:00,TMP,surface,-107.813,26.929,285.774
2011-09-06 00:00:00,2011-09-06 00:00:00,TMP,surface,-106.875,26.929,281.278
2011-09-06 00:00:00,2011-09-06 00:00:00,TMP,surface,-105.938,26.929,282.638
2011-09-06 00:00:00,2011-09-06 00:00:00,TMP,surface,-105,26.929,286.026
2011-09-06 00:00:00,2011-09-06 00:00:00,TMP,surface,-104.063,26.929,286.757
2011-09-06 00:00:00,2011-09-06 00:00:00,TMP,surface,-103.125,26.929,286.347
2011-09-06 00:00:00,2011-09-06 00:00:00,TMP,surface,-102.188,26.929,286.51
2011-09-06 00:00:00,2011-09-06 00:00:00,TMP,surface,-101.25,26.929,287.92
2011-09-06 00:00:00,2011-09-06 00:00:00,TMP,surface,-100.313,26.929,289.454
2011-09-06 00:00:00,2011-09-06 00:00:00,TMP,surface,-99.3754,26.929,291.219
2011-09-06 00:00:00,2011-09-06 00:00:00,TMP,surface,-98.4379,26.929,291.71
2011-09-06 00:00:00,2011-09-06 00:00:00,TMP,surface,-97.5004,26.929,296.678
2011-09-06 00:00:00,2011-09-06 00:00:00,TMP,surface,-96.5629,26.929,297.237
2011-09-06 00:00:00,2011-09-06 00:00:00,TMP,surface,-95.6254,26.929,297.92
2011-09-06 00:00:00,2011-09-06 00:00:00,TMP,surface,-94.6879,26.929,298.075
2011-09-06 00:00:00,2011-09-06 00:00:00,TMP,surface,-93.7504,26.929,297.744
2011-09-06 00:00:00,2011-09-06 00:00:00,TMP,surface,-92.8129,26.929,297.565
2011-09-06 00:00:00,2011-09-06 00:00:00,TMP,surface,-107.813,27.8739,282.274
2011-09-06 00:00:00,2011-09-06 00:00:00,TMP,surface,-106.875,27.8739,280.782
2011-09-06 00:00:00,2011-09-06 00:00:00,TMP,surface,-105.938,27.8739,284.053
2011-09-06 00:00:00,2011-09-06 00:00:00,TMP,surface,-105,27.8739,286.366
2011-09-06 00:00:00,2011-09-06 00:00:00,TMP,surface,-104.063,27.8739,285.946
2011-09-06 00:00:00,2011-09-06 00:00:00,TMP,surface,-103.125,27.8739,285.302
2011-09-06 00:00:00,2011-09-06 00:00:00,TMP,surface,-102.188,27.8739,285.826
2011-09-06 00:00:00,2011-09-06 00:00:00,TMP,surface,-101.25,27.8739,287.869
2011-09-06 00:00:00,2011-09-06 00:00:00,TMP,surface,-100.313,27.8739,289.814
2011-09-06 00:00:00,2011-09-06 00:00:00,TMP,surface,-99.3754,27.8739,290.493
2011-09-06 00:00:00,2011-09-06 00:00:00,TMP,surface,-98.4379,27.8739,290.675
2011-09-06 00:00:00,2011-09-06 00:00:00,TMP,surface,-97.5004,27.8739,293.909
2011-09-06 00:00:00,2011-09-06 00:00:00,TMP,surface,-96.5629,27.8739,297.275
2011-09-06 00:00:00,2011-09-06 00:00:00,TMP,surface,-95.6254,27.8739,297.4
2011-09-06 00:00:00,2011-09-06 00:00:00,TMP,surface,-94.6879,27.8739,296.933
2011-09-06 00:00:00,2011-09-06 00:00:00,TMP,surface,-93.7504,27.8739,296.563
2011-09-06 00:00:00,2011-09-06 00:00:00,TMP,surface,-92.8129,27.8739,296.546
2011-09-06 00:00:00,2011-09-06 00:00:00,TMP,surface,-107.813,28.8188,280.635
2011-09-06 00:00:00,2011-09-06 00:00:00,TMP,surface,-106.875,28.8188,280.939
2011-09-06 00:00:00,2011-09-06 00:00:00,TMP,surface,-105.938,28.8188,284.106
2011-09-06 00:00:00,2011-09-06 00:00:00,TMP,surface,-105,28.8188,285.434
2011-09-06 00:00:00,2011-09-06 00:00:00,TMP,surface,-104.063,28.8188,284.72
2011-09-06 00:00:00,2011-09-06 00:00:00,TMP,surface,-103.125,28.8188,284.531
2011-09-06 00:00:00,2011-09-06 00:00:00,TMP,surface,-102.188,28.8188,285.491
2011-09-06 00:00:00,2011-09-06 00:00:00,TMP,surface,-101.25,28.8188,287.36
2011-09-06 00:00:00,2011-09-06 00:00:00,TMP,surface,-100.313,28.8188,288.424
2011-09-06 00:00:00,2011-09-06 00:00:00,TMP,surface,-99.3754,28.8188,288.41
2011-09-06 00:00:00,2011-09-06 00:00:00,TMP,surface,-98.4379,28.8188,288.533
2011-09-06 00:00:00,2011-09-06 00:00:00,TMP,surface,-97.5004,28.8188,289.424
2011-09-06 00:00:00,2011-09-06 00:00:00,TMP,surface,-96.5629,28.8188,290.598
2011-09-06 00:00:00,2011-09-06 00:00:00,TMP,surface,-95.6254,28.8188,293.272
2011-09-06 00:00:00,2011-09-06 00:00:00,TMP,surface,-94.6879,28.8188,296.502
2011-09-06 00:00:00,2011-09-06 00:00:00,TMP,surface,-93.7504,28.8188,296.166
2011-09-06 00:00:00,2011-09-06 00:00:00,TMP,surface,-92.8129,28.8188,296.184
2011-09-06 00:00:00,2011-09-06 00:00:00,TMP,surface,-107.813,29.7637,281.587
2011-09-06 00:00:00,2011-09-06 00:00:00,TMP,surface,-106.875,29.7637,282.128
2011-09-06 00:00:00,2011-09-06 00:00:00,TMP,surface,-105.938,29.7637,283.758
2011-09-06 00:00:00,2011-09-06 00:00:00,TMP,surface,-105,29.7637,283.818
2011-09-06 00:00:00,2011-09-06 00:00:00,TMP,surface,-104.063,29.7637,284.003
2011-09-06 00:00:00,2011-09-06 00:00:00,TMP,surface,-103.125,29.7637,284.874
2011-09-06 00:00:00,2011-09-06 00:00:00,TMP,surface,-102.188,29.7637,286.214
2011-09-06 00:00:00,2011-09-06 00:00:00,TMP,surface,-101.25,29.7637,286.96
2011-09-06 00:00:00,2011-09-06 00:00:00,TMP,surface,-100.313,29.7637,286.736
2011-09-06 00:00:00,2011-09-06 00:00:00,TMP,surface,-99.3754,29.7637,286.334
2011-09-06 00:00:00,2011-09-06 00:00:00,TMP,surface,-98.4379,29.7637,286.504
2011-09-06 00:00:00,2011-09-06 00:00:00,TMP,surface,-97.5004,29.7637,287.117
2011-09-06 00:00:00,2011-09-06 00:00:00,TMP,surface,-96.5629,29.7637,287.942
2011-09-06 00:00:00,2011-09-06 00:00:00,TMP,surface,-95.6254,29.7637,288.957
2011-09-06 00:00:00,2011-09-06 00:00:00,TMP,surface,-94.6879,29.7637,291.728
2011-09-06 00:00:00,2011-09-06 00:00:00,TMP,surface,-93.7504,29.7637,294.67
2011-09-06 00:00:00,2011-09-06 00:00:00,TMP,surface,-92.8129,29.7637,289.821
2011-09-06 00:00:00,2011-09-06 00:00:00,TMP,surface,-107.813,30.7085,283.218
2011-09-06 00:00:00,2011-09-06 00:00:00,TMP,surface,-106.875,30.7085,283.707
2011-09-06 00:00:00,2011-09-06 00:00:00,TMP,surface,-105.938,30.7085,283.448
2011-09-06 00:00:00,2011-09-06 00:00:00,TMP,surface,-105,30.7085,282.95
2011-09-06 00:00:00,2011-09-06 00:00:00,TMP,surface,-104.063,30.7085,283.032
2011-09-06 00:00:00,2011-09-06 00:00:00,TMP,surface,-103.125,30.7085,284.597
2011-09-06 00:00:00,2011-09-06 00:00:00,TMP,surface,-102.188,30.7085,285.91
2011-09-06 00:00:00,2011-09-06 00:00:00,TMP,surface,-101.25,30.7085,286.163
2011-09-06 00:00:00,2011-09-06 00:00:00,TMP,surface,-100.313,30.7085,285.88
2011-09-06 00:00:00,2011-09-06 00:00:00,TMP,surface,-99.3754,30.7085,285.696
2011-09-06 00:00:00,2011-09-06 00:00:00,TMP,surface,-98.4379,30.7085,285.979
2011-09-06 00:00:00,2011-09-06 00:00:00,TMP,surface,-97.5004,30.7085,286.523
2011-09-06 00:00:00,2011-09-06 00:00:00,TMP,surface,-96.5629,30.7085,287.099
2011-09-06 00:00:00,2011-09-06 00:00:00,TMP,surface,-95.6254,30.7085,287.606
2011-09-06 00:00:00,2011-09-06 00:00:00,TMP,surface,-94.6879,30.7085,287.891
2011-09-06 00:00:00,2011-09-06 00:00:00,TMP,surface,-93.7504,30.7085,287.822
2011-09-06 00:00:00,2011-09-06 00:00:00,TMP,surface,-92.8129,30.7085,287.293
2011-09-06 00:00:00,2011-09-06 00:00:00,TMP,surface,-107.813,31.6534,283.115
2011-09-06 00:00:00,2011-09-06 00:00:00,TMP,surface,-106.875,31.6534,283.197
2011-09-06 00:00:00,2011-09-06 00:00:00,TMP,surface,-105.938,31.6534,282.392
2011-09-06 00:00:00,2011-09-06 00:00:00,TMP,surface,-105,31.6534,282.181
2011-09-06 00:00:00,2011-09-06 00:00:00,TMP,surface,-104.063,31.6534,282.981
2011-09-06 00:00:00,2011-09-06 00:00:00,TMP,surface,-103.125,31.6534,284.246
2011-09-06 00:00:00,2011-09-06 00:00:00,TMP,surface,-102.188,31.6534,284.938
2011-09-06 00:00:00,2011-09-06 00:00:00,TMP,surface,-101.25,31.6534,285.253
2011-09-06 00:00:00,2011-09-06 00:00:00,TMP,surface,-100.313,31.6534,285.531
2011-09-06 00:00:00,2011-09-06 00:00:00,TMP,surface,-99.3754,31.6534,285.755
2011-09-06 00:00:00,2011-09-06 00:00:00,TMP,surface,-98.4379,31.6534,286.056
2011-09-06 00:00:00,2011-09-06 00:00:00,TMP,surface,-97.5004,31.6534,286.363
2011-09-06 00:00:00,2011-09-06 00:00:00,TMP,surface,-96.5629,31.6534,286.744
2011-09-06 00:00:00,2011-09-06 00:00:00,TMP,surface,-95.6254,31.6534,287
2011-09-06 00:00:00,2011-09-06 00:00:00,TMP,surface,-94.6879,31.6534,286.83
2011-09-06 00:00:00,2011-09-06 00:00:00,TMP,surface,-93.7504,31.6534,286.637
2011-09-06 00:00:00,2011-09-06 00:00:00,TMP,surface,-92.8129,31.6534,286.498
2011-09-06 00:00:00,2011-09-06 00:00:00,TMP,surface,-107.813,32.5983,280.461
2011-09-06 00:00:00,2011-09-06 00:00:00,TMP,surface,-106.875,32.5983,280.49
2011-09-06 00:00:00,2011-09-06 00:00:00,TMP,surface,-105.938,32.5983,280.334
2011-09-06 00:00:00,2011-09-06 00:00:00,TMP,surface,-105,32.5983,280.926
2011-09-06 00:00:00,2011-09-06 00:00:00,TMP,surface,-104.063,32.5983,282.306
2011-09-06 00:00:00,2011-09-06 00:00:00,TMP,surface,-103.125,32.5983,283.346
2011-09-06 00:00:00,2011-09-06 00:00:00,TMP,surface,-102.188,32.5983,283.899
2011-09-06 00:00:00,2011-09-06 00:00:00,TMP,surface,-101.25,32.5983,284.619
2011-09-06 00:00:00,2011-09-06 00:00:00,TMP,surface,-100.313,32.5983,285.416
2011-09-06 00:00:00,2011-09-06 00:00:00,TMP,surface,-99.3754,32.5983,285.914
2011-09-06 00:00:00,2011-09-06 00:00:00,TMP,surface,-98.4379,32.5983,286.072
2011-09-06 00:00:00,2011-09-06 00:00:00,TMP,surface,-97.5004,32.5983,286.202
2011-09-06 00:00:00,2011-09-06 00:00:00,TMP,surface,-96.5629,32.5983,286.382
2011-09-06 00:00:00,2011-09-06 00:00:00,TMP,surface,-95.6254,32.5983,286.35
2011-09-06 00:00:00,2011-09-06 00:00:00,TMP,surface,-94.6879,32.5983,286.016
2011-09-06 00:00:00,2011-09-06 00:00:00,TMP,surface,-93.7504,32.5983,285.766
2011-09-06 00:00:00,2011-09-06 00:00:00,TMP,surface,-92.8129,32.5983,285.958
2011-09-06 00:00:00,2011-09-06 00:00:00,TMP,surface,-107.813,33.5432,277.04
2011-09-06 00:00:00,2011-09-06 00:00:00,TMP,surface,-106.875,33.5432,277.978
2011-09-06 00:00:00,2011-09-06 00:00:00,TMP,surface,-105.938,33.5432,278.555
2011-09-06 00:00:00,2011-09-06 00:00:00,TMP,surface,-105,33.5432,279.752
2011-09-06 00:00:00,2011-09-06 00:00:00,TMP,surface,-104.063,33.5432,281.29
2011-09-06 00:00:00,2011-09-06 00:00:00,TMP,surface,-103.125,33.5432,282.302
2011-09-06 00:00:00,2011-09-06 00:00:00,TMP,surface,-102.188,33.5432,282.842
2011-09-06 00:00:00,2011-09-06 00:00:00,TMP,surface,-101.25,33.5432,283.768
2011-09-06 00:00:00,2011-09-06 00:00:00,TMP,surface,-100.313,33.5432,284.781
2011-09-06 00:00:00,2011-09-06 00:00:00,TMP,surface,-99.3754,33.5432,285.344
2011-09-06 00:00:00,2011-09-06 00:00:00,TMP,surface,-98.4379,33.5432,285.358
2011-09-06 00:00:00,2011-09-06 00:00:00,TMP,surface,-97.5004,33.5432,285.216
2011-09-06 00:00:00,2011-09-06 00:00:00,TMP,surface,-96.5629,33.5432,285.155
2011-09-06 00:00:00,2011-09-06 00:00:00,TMP,surface,-95.6254,33.5432,285.101
2011-09-06 00:00:00,2011-09-06 00:00:00,TMP,surface,-94.6879,33.5432,284.922
2011-09-06 00:00:00,2011-09-06 00:00:00,TMP,surface,-93.7504,33.5432,284.723
2011-09-06 00:00:00,2011-09-06 00:00:00,TMP,surface,-92.8129,33.5432,284.974
2011-09-06 00:00:00,2011-09-06 00:00:00,TMP,surface,-107.813,34.4881,275.182
2011-09-06 00:00:00,2011-09-06 00:00:00,TMP,surface,-106.875,34.4881,276.381
2011-09-06 00:00:00,2011-09-06 00:00:00,TMP,surface,-105.938,34.4881,277.099
2011-09-06 00:00:00,2011-09-06 00:00:00,TMP,surface,-105,34.4881,278.144
2011-09-06 00:00:00,2011-09-06 00:00:00,TMP,surface,-104.063,34.4881,279.64
2011-09-06 00:00:00,2011-09-06 00:00:00,TMP,surface,-103.125,34.4881,280.418
2011-09-06 00:00:00,2011-09-06 00:00:00,TMP,surface,-102.188,34.4881,281.315
2011-09-06 00:00:00,2011-09-06 00:00:00,TMP,surface,-101.25,34.4881,282.515
2011-09-06 00:00:00,2011-09-06 00:00:00,TMP,surface,-100.313,34.4881,283.552
2011-09-06 00:00:00,2011-09-06 00:00:00,TMP,surface,-99.3754,34.4881,284.061
2011-09-06 00:00:00,2011-09-06 00:00:00,TMP,surface,-98.4379,34.4881,284.09
2011-09-06 00:00:00,2011-09-06 00:00:00,TMP,surface,-97.5004,34.4881,284.037
2011-09-06 00:00:00,2011-09-06 00:00:00,TMP,surface,-96.5629,34.4881,284.059
2011-09-06 00:00:00,2011-09-06 00:00:00,TMP,surface,-95.6254,34.4881,283.858
2011-09-06 00:00:00,2011-09-06 00:00:00,TMP,surface,-94.6879,34.4881,283.379
2011-09-06 00:00:00,2011-09-06 00:00:00,TMP,surface,-93.7504,34.4881,283.157
2011-09-06 00:00:00,2011-09-06 00:00:00,TMP,surface,-92.8129,34.4881,283.491
2011-09-06 00:00:00,2011-09-06 00:00:00,TMP,surface,-107.813,35.4329,274.59
2011-09-06 00:00:00,2011-09-06 00:00:00,TMP,surface,-106.875,35.4329,274.867
2011-09-06 00:00:00,2011-09-06 00:00:00,TMP,surface,-105.938,35.4329,275.286
2011-09-06 00:00:00,2011-09-06 00:00:00,TMP,surface,-105,35.4329,276.269
2011-09-06 00:00:00,2011-09-06 00:00:00,TMP,surface,-104.063,35.4329,278.219
2011-09-06 00:00:00,2011-09-06 00:00:00,TMP,surface,-103.125,35.4329,280
2011-09-06 00:00:00,2011-09-06 00:00:00,TMP,surface,-102.188,35.4329,280.595
2011-09-06 00:00:00,2011-09-06 00:00:00,TMP,surface,-101.25,35.4329,281.36
2011-09-06 00:00:00,2011-09-06 00:00:00,TMP,surface,-100.313,35.4329,282.25
2011-09-06 00:00:00,2011-09-06 00:00:00,TMP,surface,-99.3754,35.4329,282.65
2011-09-06 00:00:00,2011-09-06 00:00:00,TMP,surface,-98.4379,35.4329,282.816
2011-09-06 00:00:00,2011-09-06 00:00:00,TMP,surface,-97.5004,35.4329,283.126
2011-09-06 00:00:00,2011-09-06 00:00:00,TMP,surface,-96.5629,35.4329,283.315
2011-09-06 00:00:00,2011-09-06 00:00:00,TMP,surface,-95.6254,35.4329,283.042
2011-09-06 00:00:00,2011-09-06 00:00:00,TMP,surface,-94.6879,35.4329,282.474
2011-09-06 00:00:00,2011-09-06 00:00:00,TMP,surface,-93.7504,35.4329,282.024
2011-09-06 00:00:00,2011-09-06 00:00:00,TMP,surface,-92.8129,35.4329,282.091
2011-09-06 00:00:00,2011-09-06 00:00:00,TMP,surface,-107.813,36.3778,273.859
2011-09-06 00:00:00,2011-09-06 00:00:00,TMP,surface,-106.875,36.3778,271.87
2011-09-06 00:00:00,2011-09-06 00:00:00,TMP,surface,-105.938,36.3778,272.192
2011-09-06 00:00:00,2011-09-06 00:00:00,TMP,surface,-105,36.3778,273.886
2011-09-06 00:00:00,2011-09-06 00:00:00,TMP,surface,-104.063,36.3778,276.566
2011-09-06 00:00:00,2011-09-06 00:00:00,TMP,surface,-103.125,36.3778,278.594
2011-09-06 00:00:00,2011-09-06 00:00:00,TMP,surface,-102.188,36.3778,279.846
2011-09-06 00:00:00,2011-09-06 00:00:00,TMP,surface,-101.25,36.3778,280.797
2011-09-06 00:00:00,2011-09-06 00:00:00,TMP,surface,-100.313,36.3778,281.605
2011-09-06 00:00:00,2011-09-06 00:00:00,TMP,surface,-99.3754,36.3778,282.098
2011-09-06 00:00:00,2011-09-06 00:00:00,TMP,surface,-98.4379,36.3778,282.15
2011-09-06 00:00:00,2011-09-06 00:00:00,TMP,surface,-97.5004,36.3778,282.357
2011-09-06 00:00:00,2011-09-06 00:00:00,TMP,surface,-96.5629,36.3778,282.608
2011-09-06 00:00:00,2011-09-06 00:00:00,TMP,surface,-95.6254,36.3778,282.325
2011-09-06 00:00:00,2011-09-06 00:00:00,TMP,surface,-94.6879,36.3778,281.658
2011-09-06 00:00:00,2011-09-06 00:00:00,TMP,surface,-93.7504,36.3778,281.091
2011-09-06 00:00:00,2011-09-06 00:00:00,TMP,surface,-92.8129,36.3778,281.093
2011-09-06 00:00:00,2011-09-06 00:00:00,PRATE,surface,-107.813,25.0393,0
2011-09-06 00:00:00,2011-09-06 00:00:00,PRATE,surface,-106.875,25.0393,0
2011-09-06 00:00:00,2011-09-06 00:00:00,PRATE,surface,-105.938,25.0393,1e-07
2011-09-06 00:00:00,2011-09-06 00:00:00,PRATE,surface,-105,25.0393,1.2e-06
2011-09-06 00:00:00,2011-09-06 00:00:00,PRATE,surface,-104.063,25.0393,3e-07
2011-09-06 00:00:00,2011-09-06 00:00:00,PRATE,surface,-103.125,25.0393,0
2011-09-06 00:00:00,2011-09-06 00:00:00,PRATE,surface,-102.188,25.0393,1.5e-06
2011-09-06 00:00:00,2011-09-06 00:00:00,PRATE,surface,-101.25,25.0393,7.8e-06
2011-09-06 00:00:00,2011-09-06 00:00:00,PRATE,surface,-100.313,25.0393,2.62e-05
2011-09-06 00:00:00,2011-09-06 00:00:00,PRATE,surface,-99.3754,25.0393,3.82e-05
2011-09-06 00:00:00,2011-09-06 00:00:00,PRATE,surface,-98.4379,25.0393,4.11e-05
2011-09-06 00:00:00,2011-09-06 00:00:00,PRATE,surface,-97.5004,25.0393,7.63e-05
2011-09-06 00:00:00,2011-09-06 00:00:00,PRATE,surface,-96.5629,25.0393,8.21e-05
2011-09-06 00:00:00,2011-09-06 00:00:00,PRATE,surface,-95.6254,25.0393,3.54e-05
2011-09-06 00:00:00,2011-09-06 00:00:00,PRATE,surface,-94.6879,25.0393,3.19e-05
2011-09-06 00:00:00,2011-09-06 00:00:00,PRATE,surface,-93.7504,25.0393,1.24e-05
2011-09-06 00:00:00,2011-09-06 00:00:00,PRATE,surface,-92.8129,25.0393,1.41e-05
2011-09-06 00:00:00,2011-09-06 00:00:00,PRATE,surface,-107.813,25.9842,0
2011-09-06 00:00:00,2011-09-06 00:00:00,PRATE,surface,-106.875,25.9842,3e-07
2011-09-06 00:00:00,2011-09-06 00:00:00,PRATE,surface,-105.938,25.9842,8e-07
2011-09-06 00:00:00,2011-09-06 00:00:00,PRATE,surface,-105,25.9842,1.3e-06
2011-09-06 00:00:00,2011-09-06 00:00:00,PRATE,surface,-104.063,25.9842,1.2e-06
2011-09-06 00:00:00,2011-09-06 00:00:00,PRATE,surface,-103.125,25.9842,3e-07
2011-09-06 00:00:00,2011-09-06 00:00:00,PRATE,surface,-102.188,25.9842,9e-07
2011-09-06 00:00:00,2011-09-06 00:00:00,PRATE,surface,-101.25,25.9842,5.2e-06
2011-09-06 00:00:00,2011-09-06 00:00:00,PRATE,surface,-100.313,25.9842,1.9e-05
2011-09-06 00:00:00,2011-09-06 00:00:00,PRATE,surface,-99.3754,25.9842,3.05e-05
2011-09-06 00:00:00,2011-09-06 00:00:00,PRATE,surface,-98.4379,25.9842,4.95e-05
2011-09-06 00:00:00,2011-09-06 00:00:00,PRATE,surface,-97.5004,25.9842,9.71e-05
2011-09-06 00:00:00,2011-09-06 00:00:00,PRATE,surface,-96.5629,25.9842,0.0001109
2011-09-06 00:00:00,2011-09-06 00:00:00,PRATE,surface,-95.6254,25.9842,7.02e-05
2011-09-06 00:00:00,2011-09-06 00:00:00,PRATE,surface,-94.6879,25.9842,2.86e-05
2011-09-06 00:00:00,2011-09-06 00:00:00,PRATE,surface,-93.7504,25.9842,2.2e-05
2011-09-06 00:00:00,2011-09-06 00:00:00,PRATE,surface,-92.8129,25.9842,2.07e-05
2011-09-06 00:00:00,2011-09-06 00:00:00,PRATE,surface,-107.813,26.929,8e-07
2011-09-06 00:00:00,2011-09-06 00:00:00,PRATE,surface,-106.875,26.929,1.4e-06
2011-09-06 00:00:00,2011-09-06 00:00:00,PRATE,surface,-105.938,26.929,6e-07
2011-09-06 00:00:00,2011-09-06 00:00:00,PRATE,surface,-105,26.929,1e-07
2011-09-06 00:00:00,2011-09-06 00:00:00,PRATE,surface,-104.063,26.929,6e-07
2011-09-06 00:00:00,2011-09-06 00:00:00,PRATE,surface,-103.125,26.929,1.4e-06
2011-09-06 00:00:00,2011-09-06 00:00:00,PRATE,surface,-102.188,26.929,2.2e-06
2011-09-06 00:00:00,2011-09-06 00:00:00,PRATE,surface,-101.25,26.929,9.7e-06
2011-09-06 00:00:00,2011-09-06 00:00:00,PRATE,surface,-100.313,26.929,6.1e-06
2011-09-06 00:00:00,2011-09-06 00:00:00,PRATE,surface,-99.3754,26.929,1.34e-05
2011-09-06 00:00:00,2011-09-06 00:00:00,PRATE,surface,-98.4379,26.929,4.56e-05
2011-09-06 00:00:00,2011-09-06 00:00:00,PRATE,surface,-97.5004,26.929,9.66e-05
2011-09-06 00:00:00,2011-09-06 00:00:00,PRATE,surface,-96.5629,26.929,0.0001012
2011-09-06 00:00:00,2011-09-06 00:00:00,PRATE,surface,-95.6254,26.929,5.64e-05
2011-09-06 00:00:00,2011-09-06 00:00:00,PRATE,surface,-94.6879,26.929,2.23e-05
2011-09-06 00:00:00,2011-09-06 00:00:00,PRATE,surface,-93.7504,26.929,1.52e-05
2011-09-06 00:00:00,2011-09-06 00:00:00,PRATE,surface,-92.8129,26.929,1.96e-05
2011-09-06 00:00:00,2011-09-06 00:00:00,PRATE,surface,-107.813,27.8739,2e-06
2011-09-06 00:00:00,2011-09-06 00:00:00,PRATE,surface,-106.875,27.8739,9e-07
2011-09-06 00:00:00,2011-09-06 00:00:00,PRATE,surface,-105.938,27.8739,1e-07
2011-09-06 00:00:00,2011-09-06 00:00:00,PRATE,surface,-105,27.8739,2e-07
2011-09-06 00:00:00,2011-09-06 00:00:00,PRATE,surface,-104.063,27.8739,7e-07
2011-09-06 00:00:00,2011-09-06 00:00:00,PRATE,surface,-103.125,27.8739,1.8e-06
2011-09-06 00:00:00,2011-09-06 00:00:00,PRATE,surface,-102.188,27.8739,3.1e-06
2011-09-06 00:00:00,2011-09-06 00:00:00,PRATE,surface,-101.25,27.8739,5.9e-06
2011-09-06 00:00:00,2011-09-06 00:00:00,PRATE,surface,-100.313,27.8739,4.2e-06
2011-09-06 00:00:00,2011-09-06 00:00:00,PRATE,surface,-99.3754,27.8739,1.13e-05
2011-09-06 00:00:00,2011-09-06 00:00:00,PRATE,surface,-98.4379,27.8739,2.99e-05
2011-09-06 00:00:00,2011-09-06 00:00:00,PRATE,surface,-97.5004,27.8739,4.13e-05
2011-09-06 00:00:00,2011-09-06 00:00:00,PRATE,surface,-96.5629,27.8739,3.81e-05
2011-09-06 00:00:00,2011-09-06 00:00:00,PRATE,surface,-95.6254,27.8739,2.95e-05
2011-09-06 00:00:00,2011-09-06 00:00:00,PRATE,surface,-94.6879,27.8739,2.2e-05
2011-09-06 00:00:00,2011-09-06 00:00:00,PRATE,surface,-93.7504,27.8739,1.74e-05
2011-09-06 00:00:00,2011-09-06 00:00:00,PRATE,surface,-92.8129,27.8739,1.59e-05
2011-09-06 00:00:00,2011-09-06 00:00:00,PRATE,surface,-107.813,28.8188,1.9e-06
2011-09-06 00:00:00,2011-09-06 00:00:00,PRATE,surface,-106.875,28.8188,6e-07
2011-09-06 00:00:00,2011-09-06 00:00:00,PRATE,surface,-105.938,28.8188,1e-07
2011-09-06 00:00:00,2011-09-06 00:00:00,PRATE,surface,-105,28.8188,3e-07
2011-09-06 00:00:00,2011-09-06 00:00:00,PRATE,surface,-104.063,28.8188,1.8e-06
2011-09-06 00:00:00,2011-09-06 00:00:00,PRATE,surface,-103.125,28.8188,1.4e-06
2011-09-06 00:00:00,2011-09-06 00:00:00,PRATE,surface,-102.188,28.8188,1.4e-06
2011-09-06 00:00:00,2011-09-06 00:00:00,PRATE,surface,-101.25,28.8188,2e-06
2011-09-06 00:00:00,2011-09-06 00:00:00,PRATE,surface,-100.313,28.8188,8.1e-06
2011-09-06 00:00:00,2011-09-06 00:00:00,PRATE,surface,-99.3754,28.8188,1.63e-05
2011-09-06 00:00:00,2011-09-06 00:00:00,PRATE,surface,-98.4379,28.8188,2.39e-05
2011-09-06 00:00:00,2011-09-06 00:00:00,PRATE,surface,-97.5004,28.8188,2.46e-05
2011-09-06 00:00:00,2011-09-06 00:00:00,PRATE,surface,-96.5629,28.8188,2.89e-05
2011-09-06 00:00:00,2011-09-06 00:00:00,PRATE,surface,-95.6254,28.8188,3.79e-05
2011-09-06 00:00:00,2011-09-06 00:00:00,PRATE,surface,-94.6879,28.8188,3.49e-05
2011-09-06 00:00:00,2011-09-06 00:00:00,PRATE,surface,-93.7504,28.8188,2.61e-05
2011-09-06 00:00:00,2011-09-06 00:00:00,PRATE,surface,-92.8129,28.8188,1.63e-05
2011-09-06 00:00:00,2011-09-06 00:00:00,PRATE,surface,-107.813,29.7637,1.6e-06
2011-09-06 00:00:00,2011-09-06 00:00:00,PRATE,surface,-106.875,29.7637,1.5e-06
2011-09-06 00:00:00,2011-09-06 00:00:00,PRATE,surface,-105.938,29.7637,1.4e-06
2011-09-06 00:00:00,2011-09-06 00:00:00,PRATE,surface,-105,29.7637,1.4e-06
2011-09-06 00:00:00,2011-09-06 00:00:00,PRATE,surface,-104.063,29.7637,1.7e-06
2011-09-06 00:00:00,2011-09-06 00:00:00,PRATE,surface,-103.125,29.7637,1.4e-06
2011-09-06 00:00:00,2011-09-06 00:00:00,PRATE,surface,-102.188,29.7637,1.8e-06
2011-09-06 00:00:00,2011-09-06 00:00:00,PRATE,surface,-101.25,29.7637,6.5e-06
2011-09-06 00:00:00,2011-09-06 00:00:00,PRATE,surface,-100.313,29.7637,1.27e-05
2011-09-06 00:00:00,2011-09-06 00:00:00,PRATE,surface,-99.3754,29.7637,1.72e-05
2011-09-06 00:00:00,2011-09-06 00:00:00,PRATE,surface,-98.4379,29.7637,2.1e-05
2011-09-06 00:00:00,2011-09-06 00:00:00,PRATE,surface,-97.5004,29.7637,2.58e-05
2011-09-06 00:00:00,2011-09-06 00:00:00,PRATE,surface,-96.5629,29.7637,3.57e-05
2011-09-06 00:00:00,2011-09-06 00:00:00,PRATE,surface,-95.6254,29.7637,4.77e-05
2011-09-06 00:00:00,2011-09-06 00:00:00,PRATE,surface,-94.6879,29.7637,4.9e-05
2011-09-06 00:00:00,2011-09-06 00:00:00,PRATE,surface,-93.7504,29.7637,3.87e-05
2011-09-06 00:00:00,2011-09-06 00:00:00,PRATE,surface,-92.8129,29.7637,2.81e-05
2011-09-06 00:00:00,2011-09-06 00:00:00,PRATE,surface,-107.813,30.7085,1.9e-06
2011-09-06 00:00:00,2011-09-06 00:00:00,PRATE,surface,-106.875,30.7085,1.9e-06
2011-09-06 00:00:00,2011-09-06 00:00:00,PRATE,surface,-105.938,30.7085,2.3e-06
2011-09-06 00:00:00,2011-09-06 00:00:00,PRATE,surface,-105,30.7085,1.9e-06
2011-09-06 00:00:00,2011-09-06 00:00:00,PRATE,surface,-104.063,30.7085,1.6e-06
2011-09-06 00:00:00,2011-09-06 00:00:00,PRATE,surface,-103.125,30.7085,1.6e-06
2011-09-06 00:00:00,2011-09-06 00:00:00,PRATE,surface,-102.188,30.7085,3.1e-06
2011-09-06 00:00:00,2011-09-06 00:00:00,PRATE,surface,-101.25,30.7085,8.2e-06
2011-09-06 00:00:00,2011-09-06 00:00:00,PRATE,surface,-100.313,30.7085,1.66e-05
2011-09-06 00:00:00,2011-09-06 00:00:00,PRATE,surface,-99.3754,30.7085,1.98e-05
2011-09-06 00:00:00,2011-09-06 00:00:00,PRATE,surface,-98.4379,30.7085,1.7e-05
2011-09-06 00:00:00,2011-09-06 00:00:00,PRATE,surface,-97.5004,30.7085,1.6e-05
2011-09-06 00:00:00,2011-09-06 00:00:00,PRATE,surface,-96.5629,30.7085,2.47e-05
2011-09-06 00:00:00,2011-09-06 00:00:00,PRATE,surface,-95.6254,30.7085,3.75e-05
2011-09-06 00:00:00,2011-09-06 00:00:00,PRATE,surface,-94.6879,30.7085,4.47e-05
2011-09-06 00:00:00,2011-09-06 00:00:00,PRATE,surface,-93.7504,30.7085,4.78e-05
2011-09-06 00:00:00,2011-09-06 00:00:00,PRATE,surface,-92.8129,30.7085,4.26e-05
2011-09-06 00:00:00,2011-09-06 00:00:00,PRATE,surface,-107.813,31.6534,3e-06
2011-09-06 00:00:00,2011-09-06 00:00:00,PRATE,surface,-106.875,31.6534,2.5e-06
2011-09-06 00:00:00,2011-09-06 00:00:00,PRATE,surface,-105.938,31.6534,1.5e-06
2011-09-06 00:00:00,2011-09-06 00:00:00,PRATE,surface,-105,31.6534,1.3e-06
2011-09-06 00:00:00,2011-09-06 00:00:00,PRATE,surface,-104.063,31.6534,1.5e-06
2011-09-06 00:00:00,2011-09-06 00:00:00,PRATE,surface,-103.125,31.6534,1.6e-06
2011-09-06 00:00:00,2011-09-06 00:00:00,PRATE,surface,-102.188,31.6534,3.5e-06
2011-09-06 00:00:00,2011-09-06 00:00:00,PRATE,surface,-101.25,31.6534,1.03e-05
2011-09-06 00:00:00,2011-09-06 00:00:00,PRATE,surface,-100.313,31.6534,1.84e-05
2011-09-06 00:00:00,2011-09-06 00:00:00,PRATE,surface,-99.3754,31.6534,2.28e-05
2011-09-06 00:00:00,2011-09-06 00:00:00,PRATE,surface,-98.4379,31.6534,2.13e-05
2011-09-06 00:00:00,2011-09-06 00:00:00,PRATE,surface,-97.5004,31.6534,2.03e-05
2011-09-06 00:00:00,2011-09-06 00:00:00,PRATE,surface,-96.5629,31.6534,2.13e-05
2011-09-06 00:00:00,2011-09-06 00:00:00,PRATE,surface,-95.6254,31.6534,2.75e-05
2011-09-06 00:00:00,2011-09-06 00:00:00,PRATE,surface,-94.6879,31.6534,4.16e-05
2011-09-06 00:00:00,2011-09-06 00:00:00,PRATE,surface,-93.7504,31.6534,4.86e-05
2011-09-06 00:00:00,2011-09-06 00:00:00,PRATE,surface,-92.8129,31.6534,4.27e-05
2011-09-06 00:00:00,2011-09-06 00:00:00,PRATE,surface,-107.813,32.5983,7.6e-06
2011-09-06 00:00:00,2011-09-06 00:00:00,PRATE,surface,-106.875,32.5983,7.2e-06
2011-09-06 00:00:00,2011-09-06 00:00:00,PRATE,surface,-105.938,32.5983,5.6e-06
2011-09-06 00:00:00,2011-09-06 00:00:00,PRATE,surface,-105,32.5983,3.3e-06
2011-09-06 00:00:00,2011-09-06 00:00:00,PRATE,surface,-104.063,32.5983,1.5e-06
2011-09-06 00:00:00,2011-09-06 00:00:00,PRATE,surface,-103.125,32.5983,1.4e-06
2011-09-06 00:00:00,2011-09-06 00:00:00,PRATE,surface,-102.188,32.5983,4.8e-06
2011-09-06 00:00:00,2011-09-06 00:00:00,PRATE,surface,-101.25,32.5983,1.56e-05
2011-09-06 00:00:00,2011-09-06 00:00:00,PRATE,surface,-100.313,32.5983,2.15e-05
2011-09-06 00:00:00,2011-09-06 00:00:00,PRATE,surface,-99.3754,32.5983,2.13e-05
2011-09-06 00:00:00,2011-09-06 00:00:00,PRATE,surface,-98.4379,32.5983,2.12e-05
2011-09-06 00:00:00,2011-09-06 00:00:00,PRATE,surface,-97.5004,32.5983,2.33e-05
2011-09-06 00:00:00,2011-09-06 00:00:00,PRATE,surface,-96.5629,32.5983,2.46e-05
2011-09-06 00:00:00,2011-09-06 00:00:00,PRATE,surface,-95.6254,32.5983,2.88e-05
2011-09-06 00:00:00,2011-09-06 00:00:00,PRATE,surface,-94.6879,32.5983,4.13e-05
2011-09-06 00:00:00,2011-09-06 00:00:00,PRATE,surface,-93.7504,32.5983,5.23e-05
2011-09-06 00:00:00,2011-09-06 00:00:00,PRATE,surface,-92.8129,32.5983,4.96e-05
2011-09-06 00:00:00,2011-09-06 00:00:00,PRATE,surface,-107.813,33.5432,1.07e-05
2011-09-06 00:00:00,2011-09-06 00:00:00,PRATE,surface,-106.875,33.5432,1.14e-05
2011-09-06 00:00:00,2011-09-06 00:00:00,PRATE,surface,-105.938,33.5432,1.31e-05
2011-09-06 00:00:00,2011-09-06 00:00:00,PRATE,surface,-105,33.5432,9.6e-06
2011-09-06 00:00:00,2011-09-06 00:00:00,PRATE,surface,-104.063,33.5432,3.2e-06
2011-09-06 00:00:00,2011-09-06 00:00:00,PRATE,surface,-103.125,33.5432,2.6e-06
2011-09-06 00:00:00,2011-09-06 00:00:00,PRATE,surface,-102.188,33.5432,4.8e-06
2011-09-06 00:00:00,2011-09-06 00:00:00,PRATE,surface,-101.25,33.5432,1.44e-05
2011-09-06 00:00:00,2011-09-06 00:00:00,PRATE,surface,-100.313,33.5432,2.37e-05
2011-09-06 00:00:00,2011-09-06 00:00:00,PRATE,surface,-99.3754,33.5432,2.43e-05
2011-09-06 00:00:00,2011-09-06 00:00:00,PRATE,surface,-98.4379,33.5432,2.37e-05
2011-09-06 00:00:00,2011-09-06 00:00:00,PRATE,surface,-97.5004,33.5432,2.63e-05
2011-09-06 00:00:00,2011-09-06 00:00:00,PRATE,surface,-96.5629,33.5432,2.87e-05
2011-09-06 00:00:00,2011-09-06 00:00:00,PRATE,surface,-95.6254,33.5432,3.18e-05
2011-09-06 00:00:00,2011-09-06 00:00:00,PRATE,surface,-94.6879,33.5432,4.13e-05
2011-09-06 00:00:00,2011-09-06 00:00:00,PRATE,surface,-93.7504,33.5432,5.22e-05
2011-09-06 00:00:00,2011-09-06 00:00:00,PRATE,surface,-92.8129,33.5432,5.12e-05
2011-09-06 00:00:00,2011-09-06 00:00:00,PRATE,surface,-107.813,34.4881,1.08e-05
2011-09-06 00:00:00,2011-09-06 00:00:00,PRATE,surface,-106.875,34.4881,1.13e-05
2011-09-06 00:00:00,2011-09-06 00:00:00,PRATE,surface,-105.938,34.4881,1.14e-05
2011-09-06 00:00:00,2011-09-06 00:00:00,PRATE,surface,-105,34.4881,1.33e-05
2011-09-06 00:00:00,2011-09-06 00:00:00,PRATE,surface,-104.063,34.4881,7.6e-06
2011-09-06 00:00:00,2011-09-06 00:00:00,PRATE,surface,-103.125,34.4881,4.7e-06
2011-09-06 00:00:00,2011-09-06 00:00:00,PRATE,surface,-102.188,34.4881,6.9e-06
2011-09-06 00:00:00,2011-09-06 00:00:00,PRATE,surface,-101.25,34.4881,1.8e-05
2011-09-06 00:00:00,2011-09-06 00:00:00,PRATE,surface,-100.313,34.4881,3.04e-05
2011-09-06 00:00:00,2011-09-06 00:00:00,PRATE,surface,-99.3754,34.4881,3.19e-05
2011-09-06 00:00:00,2011-09-06 00:00:00,PRATE,surface,-98.4379,34.4881,2.78e-05
2011-09-06 00:00:00,2011-09-06 00:00:00,PRATE,surface,-97.5004,34.4881,2.55e-05
2011-09-06 00:00:00,2011-09-06 00:00:00,PRATE,surface,-96.5629,34.4881,2.79e-05
2011-09-06 00:00:00,2011-09-06 00:00:00,PRATE,surface,-95.6254,34.4881,3.46e-05
2011-09-06 00:00:00,2011-09-06 00:00:00,PRATE,surface,-94.6879,34.4881,4.49e-05
2011-09-06 00:00:00,2011-09-06 00:00:00,PRATE,surface,-93.7504,34.4881,5.49e-05
2011-09-06 00:00:00,2011-09-06 00:00:00,PRATE,surface,-92.8129,34.4881,5.23e-05
2011-09-06 00:00:00,2011-09-06 00:00:00,PRATE,surface,-107.813,35.4329,8.2e-06
2011-09-06 00:00:00,2011-09-06 00:00:00,PRATE,surface,-106.875,35.4329,7.7e-06
2011-09-06 00:00:00,2011-09-06 00:00:00,PRATE,surface,-105.938,35.4329,8.4e-06
2011-09-06 00:00:00,2011-09-06 00:00:00,PRATE,surface,-105,35.4329,1.64e-05
2011-09-06 00:00:00,2011-09-06 00:00:00,PRATE,surface,-104.063,35.4329,1.27e-05
2011-09-06 00:00:00,2011-09-06 00:00:00,PRATE,surface,-103.125,35.4329,8.3e-06
2011-09-06 00:00:00,2011-09-06 00:00:00,PRATE,surface,-102.188,35.4329,1.32e-05
2011-09-06 00:00:00,2011-09-06 00:00:00,PRATE,surface,-101.25,35.4329,2.31e-05
2011-09-06 00:00:00,2011-09-06 00:00:00,PRATE,surface,-100.313,35.4329,3.41e-05
2011-09-06 00:00:00,2011-09-06 00:00:00,PRATE,surface,-99.3754,35.4329,3.49e-05
2011-09-06 00:00:00,2011-09-06 00:00:00,PRATE,surface,-98.4379,35.4329,2.97e-05
2011-09-06 00:00:00,2011-09-06 00:00:00,PRATE,surface,-97.5004,35.4329,2.44e-05
2011-09-06 00:00:00,2011-09-06 00:00:00,PRATE,surface,-96.5629,35.4329,2.38e-05
2011-09-06 00:00:00,2011-09-06 00:00:00,PRATE,surface,-95.6254,35.4329,3.1e-05
2011-09-06 00:00:00,2011-09-06 00:00:00,PRATE,surface,-94.6879,35.4329,4.28e-05
2011-09-06 00:00:00,2011-09-06 00:00:00,PRATE,surface,-93.7504,35.4329,5.14e-05
2011-09-06 00:00:00,2011-09-06 00:00:00,PRATE,surface,-92.8129,35.4329,5.01e-05
2011-09-06 00:00:00,2011-09-06 00:00:00,PRATE,surface,-107.813,36.3778,8.3e-06
2011-09-06 00:00:00,2011-09-06 00:00:00,PRATE,surface,-106.875,36.3778,1.14e-05
2011-09-06 00:00:00,2011-09-06 00:00:00,PRATE,surface,-105.938,36.3778,1.45e-05
2011-09-06 00:00:00,2011-09-06 00:00:00,PRATE,surface,-105,36.3778,1.89e-05
2011-09-06 00:00:00,2011-09-06 00:00:00,PRATE,surface,-104.063,36.3778,1.32e-05
2011-09-06 00:00:00,2011-09-06 00:00:00,PRATE,surface,-103.125,36.3778,9.9e-06
2011-09-06 00:00:00,2011-09-06 00:00:00,PRATE,surface,-102.188,36.3778,1.76e-05
2011-09-06 00:00:00,2011-09-06 00:00:00,PRATE,surface,-101.25,36.3778,2.71e-05
2011-09-06 00:00:00,2011-09-06 00:00:00,PRATE,surface,-100.313,36.3778,3.48e-05
2011-09-06 00:00:00,2011-09-06 00:00:00,PRATE,surface,-99.3754,36.3778,3.54e-05
2011-09-06 00:00:00,2011-09-06 00:00:00,PRATE,surface,-98.4379,36.3778,2.73e-05
2011-09-06 00:00:00,2011-09-06 00:00:00,PRATE,surface,-97.5004,36.3778,1.83e-05
2011-09-06 00:00:00,2011-09-06 00:00:00,PRATE,surface,-96.5629,36.3778,1.63e-05
2011-09-06 00:00:00,2011-09-06 00:00:00,PRATE,surface,-95.6254,36.3778,2.26e-05
2011-09-06 00:00:00,2011-09-06 00:00:00,PRATE,surface,-94.6879,36.3778,3.3e-05
2011-09-06 00:00:00,2011-09-06 00:00:00,PRATE,surface,-93.7504,36.3778,4.05e-05
2011-09-06 00:00:00,2011-09-06 00:00:00,PRATE,surface,-92.8129,36.3778,4.36e-05
