2016-06-01 00:00:00,2016-06-01 00:00:00,TMP,surface,-107.813,25.0393,293.367
2016-06-01 00:00:00,2016-06-01 00:00:00,TMP,surface,-106.875,25.0393,286.906
2016-06-01 00:00:00,2016-06-01 00:00:00,TMP,surface,-105.938,25.0393,282.031
2016-06-01 00:00:00,2016-06-01 00:00:00,TMP,surface,-105,25.0393,282.538
2016-06-01 00:00:00,2016-06-01 00:00:00,TMP,surface,-104.063,25.0393,287.57
2016-06-01 00:00:00,2016-06-01 00:00:00,TMP,surface,-103.125,25.0393,290.348
2016-06-01 00:00:00,2016-06-01 00:00:00,TMP,surface,-102.188,25.0393,289.412
2016-06-01 00:00:00,2016-06-01 00:00:00,TMP,surface,-101.25,25.0393,288.037
2016-06-01 00:00:00,2016-06-01 00:00:00,TMP,surface,-100.313,25.0393,288.56
2016-06-01 00:00:00,2016-06-01 00:00:00,TMP,surface,-99.3754,25.0393,290.807
2016-06-01 00:00:00,2016-06-01 00:00:00,TMP,surface,-98.4379,25.0393,293.432
2016-06-01 00:00:00,2016-06-01 00:00:00,TMP,surface,-97.5004,25.0393,295.013
2016-06-01 00:00:00,2016-06-01 00:00:00,TMP,surface,-96.5629,25.0393,295.399
2016-06-01 00:00:00,2016-06-01 00:00:00,TMP,surface,-95.6254,25.0393,296.093
2016-06-01 00:00:00,2016-06-01 00:00:00,TMP,surface,-94.6879,25.0393,296.359
2016-06-01 00:00:00,2016-06-01 00:00:00,TMP,surface,-93.7504,25.0393,296.367
2016-06-01 00:00:00,2016-06-01 00:00:00,TMP,surface,-92.8129,25.0393,296.514
2016-06-01 00:00:00,2016-06-01 00:00:00,TMP,surface,-107.813,25.9842,288.249
2016-06-01 00:00:00,2016-06-01 00:00:00,TMP,surface,-106.875,25.9842,282.258
2016-06-01 00:00:00,2016-06-01 00:00:00,TMP,surface,-105.938,25.9842,281.381
2016-06-01 00:00:00,2016-06-01 00:00:00,TMP,surface,-105,25.9842,285.349
2016-06-01 00:00:00,2016-06-01 00:00:00,TMP,surface,-104.063,25.9842,290.044
2016-06-01 00:00:00,2016-06-01 00:00:00,TMP,surface,-103.125,25.9842,290.991
2016-06-01 00:00:00,2016-06-01 00:00:00,TMP,surface,-102.188,25.9842,290.245
2016-06-01 00:00:00,2016-06-01 00:00:00,TMP,surface,-101.25,25.9842,289.244
2016-06-01 00:00:00,2016-06-01 00:00:00,TMP,surface,-100.313,25.9842,289.317
2016-06-01 00:00:00,2016-06-01 00:00:00,TMP,surface,-99.3754,25.9842,291.188
2016-06-01 00:00:00,2016-06-01 00:00:00,TMP,surface,-98.4379,25.9842,292.839
2016-06-01 00:00:00,2016-06-01 00:00:00,TMP,surface,-97.5004,25.9842,293.503
2016-06-01 00:00:00,2016-06-01 00:00:00,TMP,surface,-96.5629,25.9842,294.258
2016-06-01 00:00:00,2016-06-01 00:00:00,TMP,surface,-95.6254,25.9842,295.276
2016-06-01 00:00:00,2016-06-01 00:00:00,TMP,surface,-94.6879,25.9842,295.703
2016-06-01 00:00:00,2016-06-01 00:00:00,TMP,surface,-93.7504,25.9842,295.861
2016-06-01 00:00:00,2016-06-01 00:00:00,TMP,surface,-92.8129,25.9842,296.077
2016-06-01 00:00:00,2016-06-01 00:00:00,TMP,surface,-107.813,26.929,283.132
2016-06-01 00:00:00,2016-06-01 00:00:00,TMP,surface,-106.875,26.929,280.388
2016-06-01 00:00:00,2016-06-01 00:00:00,TMP,surface,-105.938,26.929,283.34
2016-06-01 00:00:00,2016-06-01 00:00:00,TMP,surface,-105,26.929,288.188
2016-06-01 00:00:00,2016-06-01 00:00:00,TMP,surface,-104.063,26.929,289.876
2016-06-01 00:00:00,2016-06-01 00:00:00,TMP,surface,-103.125,26.929,289.21
2016-06-01 00:00:00,2016-06-01 00:00:00,TMP,surface,-102.188,26.929,288.821
2016-06-01 00:00:00,2016-06-01 00:00:00,TMP,surface,-101.25,26.929,289.055
2016-06-01 00:00:00,2016-06-01 00:00:00,TMP,surface,-100.313,26.929,289.725
2016-06-01 00:00:00,2016-06-01 00:00:00,TMP,surface,-99.3754,26.929,290.56
2016-06-01 00:00:00,2016-06-01 00:00:00,TMP,surface,-98.4379,26.929,290.743
2016-06-01 00:00:00,2016-06-01 00:00:00,TMP,surface,-97.5004,26.929,292.879
2016-06-01 00:00:00,2016-06-01 00:00:00,TMP,surface,-96.5629,26.929,293.196
2016-06-01 00:00:00,2016-06-01 00:00:00,TMP,surface,-95.6254,26.929,294.007
2016-06-01 00:00:00,2016-06-01 00:00:00,TMP,surface,-94.6879,26.929,294.488
2016-06-01 00:00:00,2016-06-01 00:00:00,TMP,surface,-93.7504,26.929,294.586
2016-06-01 00:00:00,2016-06-01 00:00:00,TMP,surface,-92.8129,26.929,294.832
2016-06-01 00:00:00,2016-06-01 00:00:00,TMP,surface,-107.813,27.8739,280.77
2016-06-01 00:00:00,2016-06-01 00:00:00,TMP,surface,-106.875,27.8739,280.892
2016-06-01 00:00:00,2016-06-01 00:00:00,TMP,surface,-105.938,27.8739,285.672
2016-06-01 00:00:00,2016-06-01 00:00:00,TMP,surface,-105,27.8739,289.015
2016-06-01 00:00:00,2016-06-01 00:00:00,TMP,surface,-104.063,27.8739,288.794
2016-06-01 00:00:00,2016-06-01 00:00:00,TMP,surface,-103.125,27.8739,287.394
2016-06-01 00:00:00,2016-06-01 00:00:00,TMP,surface,-102.188,27.8739,287.455
2016-06-01 00:00:00,2016-06-01 00:00:00,TMP,surface,-101.25,27.8739,288.376
2016-06-01 00:00:00,2016-06-01 00:00:00,TMP,surface,-100.313,27.8739,289.05
2016-06-01 00:00:00,2016-06-01 00:00:00,TMP,surface,-99.3754,27.8739,288.996
2016-06-01 00:00:00,2016-06-01 00:00:00,TMP,surface,-98.4379,27.8739,288.916
2016-06-01 00:00:00,2016-06-01 00:00:00,TMP,surface,-97.5004,27.8739,290.969
2016-06-01 00:00:00,2016-06-01 00:00:00,TMP,surface,-96.5629,27.8739,293.141
2016-06-01 00:00:00,2016-06-01 00:00:00,TMP,surface,-95.6254,27.8739,293.311
2016-06-01 00:00:00,2016-06-01 00:00:00,TMP,surface,-94.6879,27.8739,293.233
2016-06-01 00:00:00,2016-06-01 00:00:00,TMP,surface,-93.7504,27.8739,293.277
2016-06-01 00:00:00,2016-06-01 00:00:00,TMP,surface,-92.8129,27.8739,293.517
2016-06-01 00:00:00,2016-06-01 00:00:00,TMP,surface,-107.813,28.8188,280.132
2016-06-01 00:00:00,2016-06-01 00:00:00,TMP,surface,-106.875,28.8188,282.065
2016-06-01 00:00:00,2016-06-01 00:00:00,TMP,surface,-105.938,28.8188,286.473
2016-06-01 00:00:00,2016-06-01 00:00:00,TMP,surface,-105,28.8188,288.517
2016-06-01 00:00:00,2016-06-01 00:00:00,TMP,surface,-104.063,28.8188,287.812
2016-06-01 00:00:00,2016-06-01 00:00:00,TMP,surface,-103.125,28.8188,286.401
2016-06-01 00:00:00,2016-06-01 00:00:00,TMP,surface,-102.188,28.8188,286.812
2016-06-01 00:00:00,2016-06-01 00:00:00,TMP,surface,-101.25,28.8188,287.735
2016-06-01 00:00:00,2016-06-01 00:00:00,TMP,surface,-100.313,28.8188,287.668
2016-06-01 00:00:00,2016-06-01 00:00:00,TMP,surface,-99.3754,28.8188,286.994
2016-06-01 00:00:00,2016-06-01 00:00:00,TMP,surface,-98.4379,28.8188,286.821
2016-06-01 00:00:00,2016-06-01 00:00:00,TMP,surface,-97.5004,28.8188,287.42
2016-06-01 00:00:00,2016-06-01 00:00:00,TMP,surface,-96.5629,28.8188,288.364
2016-06-01 00:00:00,2016-06-01 00:00:00,TMP,surface,-95.6254,28.8188,290.354
2016-06-01 00:00:00,2016-06-01 00:00:00,TMP,surface,-94.6879,28.8188,292.693
2016-06-01 00:00:00,2016-06-01 00:00:00,TMP,surface,-93.7504,28.8188,292.74
2016-06-01 00:00:00,2016-06-01 00:00:00,TMP,surface,-92.8129,28.8188,292.893
2016-06-01 00:00:00,2016-06-01 00:00:00,TMP,surface,-107.813,29.7637,281.289
2016-06-01 00:00:00,2016-06-01 00:00:00,TMP,surface,-106.875,29.7637,283.514
2016-06-01 00:00:00,2016-06-01 00:00:00,TMP,surface,-105.938,29.7637,286.244
2016-06-01 00:00:00,2016-06-01 00:00:00,TMP,surface,-105,29.7637,286.781
2016-06-01 00:00:00,2016-06-01 00:00:00,TMP,surface,-104.063,29.7637,286.391
2016-06-01 00:00:00,2016-06-01 00:00:00,TMP,surface,-103.125,29.7637,286.224
2016-06-01 00:00:00,2016-06-01 00:00:00,TMP,surface,-102.188,29.7637,286.719
2016-06-01 00:00:00,2016-06-01 00:00:00,TMP,surface,-101.25,29.7637,286.66
2016-06-01 00:00:00,2016-06-01 00:00:00,TMP,surface,-100.313,29.7637,285.801
2016-06-01 00:00:00,2016-06-01 00:00:00,TMP,surface,-99.3754,29.7637,285.073
2016-06-01 00:00:00,2016-06-01 00:00:00,TMP,surface,-98.4379,29.7637,284.984
2016-06-01 00:00:00,2016-06-01 00:00:00,TMP,surface,-97.5004,29.7637,285.437
2016-06-01 00:00:00,2016-06-01 00:00:00,TMP,surface,-96.5629,29.7637,286.173
2016-06-01 00:00:00,2016-06-01 00:00:00,TMP,surface,-95.6254,29.7637,287.039
2016-06-01 00:00:00,2016-06-01 00:00:00,TMP,surface,-94.6879,29.7637,289.154
2016-06-01 00:00:00,2016-06-01 00:00:00,TMP,surface,-93.7504,29.7637,291.554
2016-06-01 00:00:00,2016-06-01 00:00:00,TMP,surface,-92.8129,29.7637,288.815
2016-06-01 00:00:00,2016-06-01 00:00:00,TMP,surface,-107.813,30.7085,283.81
2016-06-01 00:00:00,2016-06-01 00:00:00,TMP,surface,-106.875,30.7085,285.096
2016-06-01 00:00:00,2016-06-01 00:00:00,TMP,surface,-105.938,30.7085,285.381
2016-06-01 00:00:00,2016-06-01 00:00:00,TMP,surface,-105,30.7085,284.908
2016-06-01 00:00:00,2016-06-01 00:00:00,TMP,surface,-104.063,30.7085,284.853
2016-06-01 00:00:00,2016-06-01 00:00:00,TMP,surface,-103.125,30.7085,285.301
2016-06-01 00:00:00,2016-06-01 00:00:00,TMP,surface,-102.188,30.7085,285.516
2016-06-01 00:00:00,2016-06-01 00:00:00,TMP,surface,-101.25,30.7085,284.973
2016-06-01 00:00:00,2016-06-01 00:00:00,TMP,surface,-100.313,30.7085,284.172
2016-06-01 00:00:00,2016-06-01 00:00:00,TMP,surface,-99.3754,30.7085,283.812
2016-06-01 00:00:00,2016-06-01 00:00:00,TMP,surface,-98.4379,30.7085,283.962
2016-06-01 00:00:00,2016-06-01 00:00:00,TMP,surface,-97.5004,30.7085,284.341
2016-06-01 00:00:00,2016-06-01 00:00:00,TMP,surface,-96.5629,30.7085,284.897
2016-06-01 00:00:00,2016-06-01 00:00:00,TMP,surface,-95.6254,30.7085,285.536
2016-06-01 00:00:00,2016-06-01 00:00:00,TMP,surface,-94.6879,30.7085,285.992
2016-06-01 00:00:00,2016-06-01 00:00:00,TMP,surface,-93.7504,30.7085,286.247
2016-06-01 00:00:00,2016-06-01 00:00:00,TMP,surface,-92.8129,30.7085,286.325
2016-06-01 00:00:00,2016-06-01 00:00:00,TMP,surface,-107.813,31.6534,283.927
2016-06-01 00:00:00,2016-06-01 00:00:00,TMP,surface,-106.875,31.6534,284.669
2016-06-01 00:00:00,2016-06-01 00:00:00,TMP,surface,-105.938,31.6534,283.959
2016-06-01 00:00:00,2016-06-01 00:00:00,TMP,surface,-105,31.6534,283.448
2016-06-01 00:00:00,2016-06-01 00:00:00,TMP,surface,-104.063,31.6534,283.625
2016-06-01 00:00:00,2016-06-01 00:00:00,TMP,surface,-103.125,31.6534,284.14
2016-06-01 00:00:00,2016-06-01 00:00:00,TMP,surface,-102.188,31.6534,284.125
2016-06-01 00:00:00,2016-06-01 00:00:00,TMP,surface,-101.25,31.6534,283.597
2016-06-01 00:00:00,2016-06-01 00:00:00,TMP,surface,-100.313,31.6534,283.253
2016-06-01 00:00:00,2016-06-01 00:00:00,TMP,surface,-99.3754,31.6534,283.332
2016-06-01 00:00:00,2016-06-01 00:00:00,TMP,surface,-98.4379,31.6534,283.577
2016-06-01 00:00:00,2016-06-01 00:00:00,TMP,surface,-97.5004,31.6534,283.78
2016-06-01 00:00:00,2016-06-01 00:00:00,TMP,surface,-96.5629,31.6534,284.098
2016-06-01 00:00:00,2016-06-01 00:00:00,TMP,surface,-95.6254,31.6534,284.42
2016-06-01 00:00:00,2016-06-01 00:00:00,TMP,surface,-94.6879,31.6534,284.44
2016-06-01 00:00:00,2016-06-01 00:00:00,TMP,surface,-93.7504,31.6534,284.452
2016-06-01 00:00:00,2016-06-01 00:00:00,TMP,surface,-92.8129,31.6534,284.698
2016-06-01 00:00:00,2016-06-01 00:00:00,TMP,surface,-107.813,32.5983,280.876
2016-06-01 00:00:00,2016-06-01 00:00:00,TMP,surface,-106.875,32.5983,281.479
2016-06-01 00:00:00,2016-06-01 00:00:00,TMP,surface,-105.938,32.5983,281.727
2016-06-01 00:00:00,2016-06-01 00:00:00,TMP,surface,-105,32.5983,281.877
2016-06-01 00:00:00,2016-06-01 00:00:00,TMP,surface,-104.063,32.5983,282.829
2016-06-01 00:00:00,2016-06-01 00:00:00,TMP,surface,-103.125,32.5983,283.177
2016-06-01 00:00:00,2016-06-01 00:00:00,TMP,surface,-102.188,32.5983,282.778
2016-06-01 00:00:00,2016-06-01 00:00:00,TMP,surface,-101.25,32.5983,282.49
2016-06-01 00:00:00,2016-06-01 00:00:00,TMP,surface,-100.313,32.5983,282.634
2016-06-01 00:00:00,2016-06-01 00:00:00,TMP,surface,-99.3754,32.5983,282.97
2016-06-01 00:00:00,2016-06-01 00:00:00,TMP,surface,-98.4379,32.5983,283.13
2016-06-01 00:00:00,2016-06-01 00:00:00,TMP,surface,-97.5004,32.5983,283.133
2016-06-01 00:00:00,2016-06-01 00:00:00,TMP,surface,-96.5629,32.5983,283.257
2016-06-01 00:00:00,2016-06-01 00:00:00,TMP,surface,-95.6254,32.5983,283.394
2016-06-01 00:00:00,2016-06-01 00:00:00,TMP,surface,-94.6879,32.5983,283.309
2016-06-01 00:00:00,2016-06-01 00:00:00,TMP,surface,-93.7504,32.5983,283.301
2016-06-01 00:00:00,2016-06-01 00:00:00,TMP,surface,-92.8129,32.5983,283.652
2016-06-01 00:00:00,2016-06-01 00:00:00,TMP,surface,-107.813,33.5432,277.117
2016-06-01 00:00:00,2016-06-01 00:00:00,TMP,surface,-106.875,33.5432,278.365
2016-06-01 00:00:00,2016-06-01 00:00:00,TMP,surface,-105.938,33.5432,279.445
2016-06-01 00:00:00,2016-06-01 00:00:00,TMP,surface,-105,33.5432,280.372
2016-06-01 00:00:00,2016-06-01 00:00:00,TMP,surface,-104.063,33.5432,281.828
2016-06-01 00:00:00,2016-06-01 00:00:00,TMP,surface,-103.125,33.5432,281.823
2016-06-01 00:00:00,2016-06-01 00:00:00,TMP,surface,-102.188,33.5432,281.162
2016-06-01 00:00:00,2016-06-01 00:00:00,TMP,surface,-101.25,33.5432,280.89
2016-06-01 00:00:00,2016-06-01 00:00:00,TMP,surface,-100.313,33.5432,281.338
2016-06-01 00:00:00,2016-06-01 00:00:00,TMP,surface,-99.3754,33.5432,281.762
2016-06-01 00:00:00,2016-06-01 00:00:00,TMP,surface,-98.4379,33.5432,281.893
2016-06-01 00:00:00,2016-06-01 00:00:00,TMP,surface,-97.5004,33.5432,281.845
2016-06-01 00:00:00,2016-06-01 00:00:00,TMP,surface,-96.5629,33.5432,281.905
2016-06-01 00:00:00,2016-06-01 00:00:00,TMP,surface,-95.6254,33.5432,282.111
2016-06-01 00:00:00,2016-06-01 00:00:00,TMP,surface,-94.6879,33.5432,282.162
2016-06-01 00:00:00,2016-06-01 00:00:00,TMP,surface,-93.7504,33.5432,282.104
2016-06-01 00:00:00,2016-06-01 00:00:00,TMP,surface,-92.8129,33.5432,282.365
2016-06-01 00:00:00,2016-06-01 00:00:00,TMP,surface,-107.813,34.4881,275.764
2016-06-01 00:00:00,2016-06-01 00:00:00,TMP,surface,-106.875,34.4881,277.186
2016-06-01 00:00:00,2016-06-01 00:00:00,TMP,surface,-105.938,34.4881,278.423
2016-06-01 00:00:00,2016-06-01 00:00:00,TMP,surface,-105,34.4881,279.653
2016-06-01 00:00:00,2016-06-01 00:00:00,TMP,surface,-104.063,34.4881,280.316
2016-06-01 00:00:00,2016-06-01 00:00:00,TMP,surface,-103.125,34.4881,280.061
2016-06-01 00:00:00,2016-06-01 00:00:00,TMP,surface,-102.188,34.4881,279.421
2016-06-01 00:00:00,2016-06-01 00:00:00,TMP,surface,-101.25,34.4881,279.236
2016-06-01 00:00:00,2016-06-01 00:00:00,TMP,surface,-100.313,34.4881,279.604
2016-06-01 00:00:00,2016-06-01 00:00:00,TMP,surface,-99.3754,34.4881,280.055
2016-06-01 00:00:00,2016-06-01 00:00:00,TMP,surface,-98.4379,34.4881,280.279
2016-06-01 00:00:00,2016-06-01 00:00:00,TMP,surface,-97.5004,34.4881,280.399
2016-06-01 00:00:00,2016-06-01 00:00:00,TMP,surface,-96.5629,34.4881,280.677
2016-06-01 00:00:00,2016-06-01 00:00:00,TMP,surface,-95.6254,34.4881,280.949
2016-06-01 00:00:00,2016-06-01 00:00:00,TMP,surface,-94.6879,34.4881,280.85
2016-06-01 00:00:00,2016-06-01 00:00:00,TMP,surface,-93.7504,34.4881,280.636
2016-06-01 00:00:00,2016-06-01 00:00:00,TMP,surface,-92.8129,34.4881,280.884
2016-06-01 00:00:00,2016-06-01 00:00:00,TMP,surface,-107.813,35.4329,276.055
2016-06-01 00:00:00,2016-06-01 00:00:00,TMP,surface,-106.875,35.4329,276.373
2016-06-01 00:00:00,2016-06-01 00:00:00,TMP,surface,-105.938,35.4329,276.887
2016-06-01 00:00:00,2016-06-01 00:00:00,TMP,surface,-105,35.4329,277.567
2016-06-01 00:00:00,2016-06-01 00:00:00,TMP,surface,-104.063,35.4329,278.847
2016-06-01 00:00:00,2016-06-01 00:00:00,TMP,surface,-103.125,35.4329,278.893
2016-06-01 00:00:00,2016-06-01 00:00:00,TMP,surface,-102.188,35.4329,278.234
2016-06-01 00:00:00,2016-06-01 00:00:00,TMP,surface,-101.25,35.4329,278.06
2016-06-01 00:00:00,2016-06-01 00:00:00,TMP,surface,-100.313,35.4329,278.445
2016-06-01 00:00:00,2016-06-01 00:00:00,TMP,surface,-99.3754,35.4329,278.786
2016-06-01 00:00:00,2016-06-01 00:00:00,TMP,surface,-98.4379,35.4329,279.066
2016-06-01 00:00:00,2016-06-01 00:00:00,TMP,surface,-97.5004,35.4329,279.474
2016-06-01 00:00:00,2016-06-01 00:00:00,TMP,surface,-96.5629,35.4329,279.903
2016-06-01 00:00:00,2016-06-01 00:00:00,TMP,surface,-95.6254,35.4329,280.081
2016-06-01 00:00:00,2016-06-01 00:00:00,TMP,surface,-94.6879,35.4329,279.877
2016-06-01 00:00:00,2016-06-01 00:00:00,TMP,surface,-93.7504,35.4329,279.504
2016-06-01 00:00:00,2016-06-01 00:00:00,TMP,surface,-92.8129,35.4329,279.453
2016-06-01 00:00:00,2016-06-01 00:00:00,TMP,surface,-107.813,36.3778,275.154
2016-06-01 00:00:00,2016-06-01 00:00:00,TMP,surface,-106.875,36.3778,273.727
2016-06-01 00:00:00,2016-06-01 00:00:00,TMP,surface,-105.938,36.3778,274.004
2016-06-01 00:00:00,2016-06-01 00:00:00,TMP,surface,-105,36.3778,275.444
2016-06-01 00:00:00,2016-06-01 00:00:00,TMP,surface,-104.063,36.3778,276.959
2016-06-01 00:00:00,2016-06-01 00:00:00,TMP,surface,-103.125,36.3778,277.223
2016-06-01 00:00:00,2016-06-01 00:00:00,TMP,surface,-102.188,36.3778,277.208
2016-06-01 00:00:00,2016-06-01 00:00:00,TMP,surface,-101.25,36.3778,277.394
2016-06-01 00:00:00,2016-06-01 00:00:00,TMP,surface,-100.313,36.3778,277.858
2016-06-01 00:00:00,2016-06-01 00:00:00,TMP,surface,-99.3754,36.3778,278.266
2016-06-01 00:00:00,2016-06-01 00:00:00,TMP,surface,-98.4379,36.3778,278.429
2016-06-01 00:00:00,2016-06-01 00:00:00,TMP,surface,-97.5004,36.3778,278.805
2016-06-01 00:00:00,2016-06-01 00:00:00,TMP,surface,-96.5629,36.3778,279.349
2016-06-01 00:00:00,2016-06-01 00:00:00,TMP,surface,-95.6254,36.3778,279.53
2016-06-01 00:00:00,2016-06-01 00:00:00,TMP,surface,-94.6879,36.3778,279.247
2016-06-01 00:00:00,2016-06-01 00:00:00,TMP,surface,-93.7504,36.3778,278.77
2016-06-01 00:00:00,2016-06-01 00:00:00,TMP,surface,-92.8129,36.3778,278.554
2016-06-01 00:00:00,2016-06-01 00:00:00,PRATE,surface,-107.813,25.0393,8.8e-06
2016-06-01 00:00:00,2016-06-01 00:00:00,PRATE,surface,-106.875,25.0393,2.44e-05
2016-06-01 00:00:00,2016-06-01 00:00:00,PRATE,surface,-105.938,25.0393,3.03e-05
2016-06-01 00:00:00,2016-06-01 00:00:00,PRATE,surface,-105,25.0393,1.94e-05
2016-06-01 00:00:00,2016-06-01 00:00:00,PRATE,surface,-104.063,25.0393,7.1e-06
2016-06-01 00:00:00,2016-06-01 00:00:00,PRATE,surface,-103.125,25.0393,3.9e-06
2016-06-01 00:00:00,2016-06-01 00:00:00,PRATE,surface,-102.188,25.0393,9e-06
2016-06-01 00:00:00,2016-06-01 00:00:00,PRATE,surface,-101.25,25.0393,1.97e-05
2016-06-01 00:00:00,2016-06-01 00:00:00,PRATE,surface,-100.313,25.0393,3.87e-05
2016-06-01 00:00:00,2016-06-01 00:00:00,PRATE,surface,-99.3754,25.0393,5.18e-05
2016-06-01 00:00:00,2016-06-01 00:00:00,PRATE,surface,-98.4379,25.0393,3.81e-05
2016-06-01 00:00:00,2016-06-01 00:00:00,PRATE,surface,-97.5004,25.0393,2.64e-05
2016-06-01 00:00:00,2016-06-01 00:00:00,PRATE,surface,-96.5629,25.0393,3.75e-05
2016-06-01 00:00:00,2016-06-01 00:00:00,PRATE,surface,-95.6254,25.0393,3.73e-05
2016-06-01 00:00:00,2016-06-01 00:00:00,PRATE,surface,-94.6879,25.0393,3.74e-05
2016-06-01 00:00:00,2016-06-01 00:00:00,PRATE,surface,-93.7504,25.0393,3.86e-05
2016-06-01 00:00:00,2016-06-01 00:00:00,PRATE,surface,-92.8129,25.0393,3.86e-05
2016-06-01 00:00:00,2016-06-01 00:00:00,PRATE,surface,-107.813,25.9842,3.34e-05
2016-06-01 00:00:00,2016-06-01 00:00:00,PRATE,surface,-106.875,25.9842,4.43e-05
2016-06-01 00:00:00,2016-06-01 00:00:00,PRATE,surface,-105.938,25.9842,4.04e-05
2016-06-01 00:00:00,2016-06-01 00:00:00,PRATE,surface,-105,25.9842,2.38e-05
2016-06-01 00:00:00,2016-06-01 00:00:00,PRATE,surface,-104.063,25.9842,7.7e-06
2016-06-01 00:00:00,2016-06-01 00:00:00,PRATE,surface,-103.125,25.9842,2.2e-06
2016-06-01 00:00:00,2016-06-01 00:00:00,PRATE,surface,-102.188,25.9842,3.9e-06
2016-06-01 00:00:00,2016-06-01 00:00:00,PRATE,surface,-101.25,25.9842,1.34e-05
2016-06-01 00:00:00,2016-06-01 00:00:00,PRATE,surface,-100.313,25.9842,3.57e-05
2016-06-01 00:00:00,2016-06-01 00:00:00,PRATE,surface,-99.3754,25.9842,4.96e-05
2016-06-01 00:00:00,2016-06-01 00:00:00,PRATE,surface,-98.4379,25.9842,2.96e-05
2016-06-01 00:00:00,2016-06-01 00:00:00,PRATE,surface,-97.5004,25.9842,2.57e-05
2016-06-01 00:00:00,2016-06-01 00:00:00,PRATE,surface,-96.5629,25.9842,3.5e-05
2016-06-01 00:00:00,2016-06-01 00:00:00,PRATE,surface,-95.6254,25.9842,3.97e-05
2016-06-01 00:00:00,2016-06-01 00:00:00,PRATE,surface,-94.6879,25.9842,4.39e-05
2016-06-01 00:00:00,2016-06-01 00:00:00,PRATE,surface,-93.7504,25.9842,4.76e-05
2016-06-01 00:00:00,2016-06-01 00:00:00,PRATE,surface,-92.8129,25.9842,5.82e-05
2016-06-01 00:00:00,2016-06-01 00:00:00,PRATE,surface,-107.813,26.929,6.25e-05
2016-06-01 00:00:00,2016-06-01 00:00:00,PRATE,surface,-106.875,26.929,3.83e-05
2016-06-01 00:00:00,2016-06-01 00:00:00,PRATE,surface,-105.938,26.929,2.01e-05
2016-06-01 00:00:00,2016-06-01 00:00:00,PRATE,surface,-105,26.929,1.36e-05
2016-06-01 00:00:00,2016-06-01 00:00:00,PRATE,surface,-104.063,26.929,4.9e-06
2016-06-01 00:00:00,2016-06-01 00:00:00,PRATE,surface,-103.125,26.929,4.5e-06
2016-06-01 00:00:00,2016-06-01 00:00:00,PRATE,surface,-102.188,26.929,1.07e-05
2016-06-01 00:00:00,2016-06-01 00:00:00,PRATE,surface,-101.25,26.929,2.44e-05
2016-06-01 00:00:00,2016-06-01 00:00:00,PRATE,surface,-100.313,26.929,4.58e-05
2016-06-01 00:00:00,2016-06-01 00:00:00,PRATE,surface,-99.3754,26.929,5e-05
2016-06-01 00:00:00,2016-06-01 00:00:00,PRATE,surface,-98.4379,26.929,4.92e-05
2016-06-01 00:00:00,2016-06-01 00:00:00,PRATE,surface,-97.5004,26.929,4.35e-05
2016-06-01 00:00:00,2016-06-01 00:00:00,PRATE,surface,-96.5629,26.929,4.46e-05
2016-06-01 00:00:00,2016-06-01 00:00:00,PRATE,surface,-95.6254,26.929,4.05e-05
2016-06-01 00:00:00,2016-06-01 00:00:00,PRATE,surface,-94.6879,26.929,4.28e-05
2016-06-01 00:00:00,2016-06-01 00:00:00,PRATE,surface,-93.7504,26.929,5.6e-05
2016-06-01 00:00:00,2016-06-01 00:00:00,PRATE,surface,-92.8129,26.929,6.74e-05
2016-06-01 00:00:00,2016-06-01 00:00:00,PRATE,surface,-107.813,27.8739,6.38e-05
2016-06-01 00:00:00,2016-06-01 00:00:00,PRATE,surface,-106.875,27.8739,2.24e-05
2016-06-01 00:00:00,2016-06-01 00:00:00,PRATE,surface,-105.938,27.8739,5.5e-06
2016-06-01 00:00:00,2016-06-01 00:00:00,PRATE,surface,-105,27.8739,1.6e-06
2016-06-01 00:00:00,2016-06-01 00:00:00,PRATE,surface,-104.063,27.8739,3.7e-06
2016-06-01 00:00:00,2016-06-01 00:00:00,PRATE,surface,-103.125,27.8739,1.74e-05
2016-06-01 00:00:00,2016-06-01 00:00:00,PRATE,surface,-102.188,27.8739,2.53e-05
2016-06-01 00:00:00,2016-06-01 00:00:00,PRATE,surface,-101.25,27.8739,2.61e-05
2016-06-01 00:00:00,2016-06-01 00:00:00,PRATE,surface,-100.313,27.8739,2.85e-05
2016-06-01 00:00:00,2016-06-01 00:00:00,PRATE,surface,-99.3754,27.8739,3.95e-05
2016-06-01 00:00:00,2016-06-01 00:00:00,PRATE,surface,-98.4379,27.8739,5.06e-05
2016-06-01 00:00:00,2016-06-01 00:00:00,PRATE,surface,-97.5004,27.8739,5.51e-05
2016-06-01 00:00:00,2016-06-01 00:00:00,PRATE,surface,-96.5629,27.8739,5.35e-05
2016-06-01 00:00:00,2016-06-01 00:00:00,PRATE,surface,-95.6254,27.8739,5.1e-05
2016-06-01 00:00:00,2016-06-01 00:00:00,PRATE,surface,-94.6879,27.8739,5.22e-05
2016-06-01 00:00:00,2016-06-01 00:00:00,PRATE,surface,-93.7504,27.8739,5.65e-05
2016-06-01 00:00:00,2016-06-01 00:00:00,PRATE,surface,-92.8129,27.8739,6.46e-05
2016-06-01 00:00:00,2016-06-01 00:00:00,PRATE,surface,-107.813,28.8188,4.07e-05
2016-06-01 00:00:00,2016-06-01 00:00:00,PRATE,surface,-106.875,28.8188,9.9e-06
2016-06-01 00:00:00,2016-06-01 00:00:00,PRATE,surface,-105.938,28.8188,1e-06
2016-06-01 00:00:00,2016-06-01 00:00:00,PRATE,surface,-105,28.8188,1.1e-06
2016-06-01 00:00:00,2016-06-01 00:00:00,PRATE,surface,-104.063,28.8188,3.3e-06
2016-06-01 00:00:00,2016-06-01 00:00:00,PRATE,surface,-103.125,28.8188,1.47e-05
2016-06-01 00:00:00,2016-06-01 00:00:00,PRATE,surface,-102.188,28.8188,1.73e-05
2016-06-01 00:00:00,2016-06-01 00:00:00,PRATE,surface,-101.25,28.8188,1.92e-05
2016-06-01 00:00:00,2016-06-01 00:00:00,PRATE,surface,-100.313,28.8188,2.7e-05
2016-06-01 00:00:00,2016-06-01 00:00:00,PRATE,surface,-99.3754,28.8188,3.97e-05
2016-06-01 00:00:00,2016-06-01 00:00:00,PRATE,surface,-98.4379,28.8188,4.55e-05
2016-06-01 00:00:00,2016-06-01 00:00:00,PRATE,surface,-97.5004,28.8188,4.81e-05
2016-06-01 00:00:00,2016-06-01 00:00:00,PRATE,surface,-96.5629,28.8188,5.35e-05
2016-06-01 00:00:00,2016-06-01 00:00:00,PRATE,surface,-95.6254,28.8188,6.04e-05
2016-06-01 00:00:00,2016-06-01 00:00:00,PRATE,surface,-94.6879,28.8188,6.89e-05
2016-06-01 00:00:00,2016-06-01 00:00:00,PRATE,surface,-93.7504,28.8188,7.49e-05
2016-06-01 00:00:00,2016-06-01 00:00:00,PRATE,surface,-92.8129,28.8188,7.15e-05
2016-06-01 00:00:00,2016-06-01 00:00:00,PRATE,surface,-107.813,29.7637,2e-05
2016-06-01 00:00:00,2016-06-01 00:00:00,PRATE,surface,-106.875,29.7637,9.6e-06
2016-06-01 00:00:00,2016-06-01 00:00:00,PRATE,surface,-105.938,29.7637,5.1e-06
2016-06-01 00:00:00,2016-06-01 00:00:00,PRATE,surface,-105,29.7637,7.1e-06
2016-06-01 00:00:00,2016-06-01 00:00:00,PRATE,surface,-104.063,29.7637,1.02e-05
2016-06-01 00:00:00,2016-06-01 00:00:00,PRATE,surface,-103.125,29.7637,1.14e-05
2016-06-01 00:00:00,2016-06-01 00:00:00,PRATE,surface,-102.188,29.7637,1.39e-05
2016-06-01 00:00:00,2016-06-01 00:00:00,PRATE,surface,-101.25,29.7637,2.1e-05
2016-06-01 00:00:00,2016-06-01 00:00:00,PRATE,surface,-100.313,29.7637,3.06e-05
2016-06-01 00:00:00,2016-06-01 00:00:00,PRATE,surface,-99.3754,29.7637,3.81e-05
2016-06-01 00:00:00,2016-06-01 00:00:00,PRATE,surface,-98.4379,29.7637,4.2e-05
2016-06-01 00:00:00,2016-06-01 00:00:00,PRATE,surface,-97.5004,29.7637,4.82e-05
2016-06-01 00:00:00,2016-06-01 00:00:00,PRATE,surface,-96.5629,29.7637,5.54e-05
2016-06-01 00:00:00,2016-06-01 00:00:00,PRATE,surface,-95.6254,29.7637,5.89e-05
2016-06-01 00:00:00,2016-06-01 00:00:00,PRATE,surface,-94.6879,29.7637,6.42e-05
2016-06-01 00:00:00,2016-06-01 00:00:00,PRATE,surface,-93.7504,29.7637,7.49e-05
2016-06-01 00:00:00,2016-06-01 00:00:00,PRATE,surface,-92.8129,29.7637,8.33e-05
2016-06-01 00:00:00,2016-06-01 00:00:00,PRATE,surface,-107.813,30.7085,1.41e-05
2016-06-01 00:00:00,2016-06-01 00:00:00,PRATE,surface,-106.875,30.7085,1.06e-05
2016-06-01 00:00:00,2016-06-01 00:00:00,PRATE,surface,-105.938,30.7085,1.21e-05
2016-06-01 00:00:00,2016-06-01 00:00:00,PRATE,surface,-105,30.7085,1.73e-05
2016-06-01 00:00:00,2016-06-01 00:00:00,PRATE,surface,-104.063,30.7085,1.67e-05
2016-06-01 00:00:00,2016-06-01 00:00:00,PRATE,surface,-103.125,30.7085,1.83e-05
2016-06-01 00:00:00,2016-06-01 00:00:00,PRATE,surface,-102.188,30.7085,2.1e-05
2016-06-01 00:00:00,2016-06-01 00:00:00,PRATE,surface,-101.25,30.7085,3e-05
2016-06-01 00:00:00,2016-06-01 00:00:00,PRATE,surface,-100.313,30.7085,3.52e-05
2016-06-01 00:00:00,2016-06-01 00:00:00,PRATE,surface,-99.3754,30.7085,3.49e-05
2016-06-01 00:00:00,2016-06-01 00:00:00,PRATE,surface,-98.4379,30.7085,3.43e-05
2016-06-01 00:00:00,2016-06-01 00:00:00,PRATE,surface,-97.5004,30.7085,3.82e-05
2016-06-01 00:00:00,2016-06-01 00:00:00,PRATE,surface,-96.5629,30.7085,4.48e-05
2016-06-01 00:00:00,2016-06-01 00:00:00,PRATE,surface,-95.6254,30.7085,5.09e-05
2016-06-01 00:00:00,2016-06-01 00:00:00,PRATE,surface,-94.6879,30.7085,5.84e-05
2016-06-01 00:00:00,2016-06-01 00:00:00,PRATE,surface,-93.7504,30.7085,7.17e-05
2016-06-01 00:00:00,2016-06-01 00:00:00,PRATE,surface,-92.8129,30.7085,9.21e-05
2016-06-01 00:00:00,2016-06-01 00:00:00,PRATE,surface,-107.813,31.6534,1.58e-05
2016-06-01 00:00:00,2016-06-01 00:00:00,PRATE,surface,-106.875,31.6534,1.45e-05
2016-06-01 00:00:00,2016-06-01 00:00:00,PRATE,surface,-105.938,31.6534,1.75e-05
2016-06-01 00:00:00,2016-06-01 00:00:00,PRATE,surface,-105,31.6534,1.92e-05
2016-06-01 00:00:00,2016-06-01 00:00:00,PRATE,surface,-104.063,31.6534,2.07e-05
2016-06-01 00:00:00,2016-06-01 00:00:00,PRATE,surface,-103.125,31.6534,2.22e-05
2016-06-01 00:00:00,2016-06-01 00:00:00,PRATE,surface,-102.188,31.6534,3e-05
2016-06-01 00:00:00,2016-06-01 00:00:00,PRATE,surface,-101.25,31.6534,3.86e-05
2016-06-01 00:00:00,2016-06-01 00:00:00,PRATE,surface,-100.313,31.6534,3.72e-05
2016-06-01 00:00:00,2016-06-01 00:00:00,PRATE,surface,-99.3754,31.6534,3.39e-05
2016-06-01 00:00:00,2016-06-01 00:00:00,PRATE,surface,-98.4379,31.6534,3.36e-05
2016-06-01 00:00:00,2016-06-01 00:00:00,PRATE,surface,-97.5004,31.6534,3.74e-05
2016-06-01 00:00:00,2016-06-01 00:00:00,PRATE,surface,-96.5629,31.6534,4.26e-05
2016-06-01 00:00:00,2016-06-01 00:00:00,PRATE,surface,-95.6254,31.6534,4.71e-05
2016-06-01 00:00:00,2016-06-01 00:00:00,PRATE,surface,-94.6879,31.6534,5.25e-05
2016-06-01 00:00:00,2016-06-01 00:00:00,PRATE,surface,-93.7504,31.6534,5.95e-05
2016-06-01 00:00:00,2016-06-01 00:00:00,PRATE,surface,-92.8129,31.6534,6.92e-05
2016-06-01 00:00:00,2016-06-01 00:00:00,PRATE,surface,-107.813,32.5983,2.67e-05
2016-06-01 00:00:00,2016-06-01 00:00:00,PRATE,surface,-106.875,32.5983,2.34e-05
2016-06-01 00:00:00,2016-06-01 00:00:00,PRATE,surface,-105.938,32.5983,1.97e-05
2016-06-01 00:00:00,2016-06-01 00:00:00,PRATE,surface,-105,32.5983,1.96e-05
2016-06-01 00:00:00,2016-06-01 00:00:00,PRATE,surface,-104.063,32.5983,2.01e-05
2016-06-01 00:00:00,2016-06-01 00:00:00,PRATE,surface,-103.125,32.5983,2.32e-05
2016-06-01 00:00:00,2016-06-01 00:00:00,PRATE,surface,-102.188,32.5983,3.14e-05
2016-06-01 00:00:00,2016-06-01 00:00:00,PRATE,surface,-101.25,32.5983,3.92e-05
2016-06-01 00:00:00,2016-06-01 00:00:00,PRATE,surface,-100.313,32.5983,4.07e-05
2016-06-01 00:00:00,2016-06-01 00:00:00,PRATE,surface,-99.3754,32.5983,3.95e-05
2016-06-01 00:00:00,2016-06-01 00:00:00,PRATE,surface,-98.4379,32.5983,3.93e-05
2016-06-01 00:00:00,2016-06-01 00:00:00,PRATE,surface,-97.5004,32.5983,3.9e-05
2016-06-01 00:00:00,2016-06-01 00:00:00,PRATE,surface,-96.5629,32.5983,3.84e-05
2016-06-01 00:00:00,2016-06-01 00:00:00,PRATE,surface,-95.6254,32.5983,4.05e-05
2016-06-01 00:00:00,2016-06-01 00:00:00,PRATE,surface,-94.6879,32.5983,4.46e-05
2016-06-01 00:00:00,2016-06-01 00:00:00,PRATE,surface,-93.7504,32.5983,4.65e-05
2016-06-01 00:00:00,2016-06-01 00:00:00,PRATE,surface,-92.8129,32.5983,4.68e-05
2016-06-01 00:00:00,2016-06-01 00:00:00,PRATE,surface,-107.813,33.5432,3.92e-05
2016-06-01 00:00:00,2016-06-01 00:00:00,PRATE,surface,-106.875,33.5432,2.94e-05
2016-06-01 00:00:00,2016-06-01 00:00:00,PRATE,surface,-105.938,33.5432,2.36e-05
2016-06-01 00:00:00,2016-06-01 00:00:00,PRATE,surface,-105,33.5432,2.19e-05
2016-06-01 00:00:00,2016-06-01 00:00:00,PRATE,surface,-104.063,33.5432,1.97e-05
2016-06-01 00:00:00,2016-06-01 00:00:00,PRATE,surface,-103.125,33.5432,2.35e-05
2016-06-01 00:00:00,2016-06-01 00:00:00,PRATE,surface,-102.188,33.5432,3.51e-05
2016-06-01 00:00:00,2016-06-01 00:00:00,PRATE,surface,-101.25,33.5432,4.72e-05
2016-06-01 00:00:00,2016-06-01 00:00:00,PRATE,surface,-100.313,33.5432,4.91e-05
2016-06-01 00:00:00,2016-06-01 00:00:00,PRATE,surface,-99.3754,33.5432,4.92e-05
2016-06-01 00:00:00,2016-06-01 00:00:00,PRATE,surface,-98.4379,33.5432,5.05e-05
2016-06-01 00:00:00,2016-06-01 00:00:00,PRATE,surface,-97.5004,33.5432,5e-05
2016-06-01 00:00:00,2016-06-01 00:00:00,PRATE,surface,-96.5629,33.5432,4.8e-05
2016-06-01 00:00:00,2016-06-01 00:00:00,PRATE,surface,-95.6254,33.5432,4.63e-05
2016-06-01 00:00:00,2016-06-01 00:00:00,PRATE,surface,-94.6879,33.5432,4.65e-05
2016-06-01 00:00:00,2016-06-01 00:00:00,PRATE,surface,-93.7504,33.5432,5e-05
2016-06-01 00:00:00,2016-06-01 00:00:00,PRATE,surface,-92.8129,33.5432,5.3e-05
2016-06-01 00:00:00,2016-06-01 00:00:00,PRATE,surface,-107.813,34.4881,3.29e-05
2016-06-01 00:00:00,2016-06-01 00:00:00,PRATE,surface,-106.875,34.4881,2.78e-05
2016-06-01 00:00:00,2016-06-01 00:00:00,PRATE,surface,-105.938,34.4881,2.64e-05
2016-06-01 00:00:00,2016-06-01 00:00:00,PRATE,surface,-105,34.4881,2.85e-05
2016-06-01 00:00:00,2016-06-01 00:00:00,PRATE,surface,-104.063,34.4881,2.71e-05
2016-06-01 00:00:00,2016-06-01 00:00:00,PRATE,surface,-103.125,34.4881,3.17e-05
2016-06-01 00:00:00,2016-06-01 00:00:00,PRATE,surface,-102.188,34.4881,3.8e-05
2016-06-01 00:00:00,2016-06-01 00:00:00,PRATE,surface,-101.25,34.4881,4.94e-05
2016-06-01 00:00:00,2016-06-01 00:00:00,PRATE,surface,-100.313,34.4881,5.62e-05
2016-06-01 00:00:00,2016-06-01 00:00:00,PRATE,surface,-99.3754,34.4881,5.64e-05
2016-06-01 00:00:00,2016-06-01 00:00:00,PRATE,surface,-98.4379,34.4881,5.41e-05
2016-06-01 00:00:00,2016-06-01 00:00:00,PRATE,surface,-97.5004,34.4881,5.08e-05
2016-06-01 00:00:00,2016-06-01 00:00:00,PRATE,surface,-96.5629,34.4881,4.84e-05
2016-06-01 00:00:00,2016-06-01 00:00:00,PRATE,surface,-95.6254,34.4881,4.93e-05
2016-06-01 00:00:00,2016-06-01 00:00:00,PRATE,surface,-94.6879,34.4881,5.44e-05
2016-06-01 00:00:00,2016-06-01 00:00:00,PRATE,surface,-93.7504,34.4881,6.02e-05
2016-06-01 00:00:00,2016-06-01 00:00:00,PRATE,surface,-92.8129,34.4881,6e-05
2016-06-01 00:00:00,2016-06-01 00:00:00,PRATE,surface,-107.813,35.4329,1.81e-05
2016-06-01 00:00:00,2016-06-01 00:00:00,PRATE,surface,-106.875,35.4329,1.74e-05
2016-06-01 00:00:00,2016-06-01 00:00:00,PRATE,surface,-105.938,35.4329,2.23e-05
2016-06-01 00:00:00,2016-06-01 00:00:00,PRATE,surface,-105,35.4329,3.29e-05
2016-06-01 00:00:00,2016-06-01 00:00:00,PRATE,surface,-104.063,35.4329,3.65e-05
2016-06-01 00:00:00,2016-06-01 00:00:00,PRATE,surface,-103.125,35.4329,3.68e-05
2016-06-01 00:00:00,2016-06-01 00:00:00,PRATE,surface,-102.188,35.4329,3.69e-05
2016-06-01 00:00:00,2016-06-01 00:00:00,PRATE,surface,-101.25,35.4329,4.21e-05
2016-06-01 00:00:00,2016-06-01 00:00:00,PRATE,surface,-100.313,35.4329,4.8e-05
2016-06-01 00:00:00,2016-06-01 00:00:00,PRATE,surface,-99.3754,35.4329,5.19e-05
2016-06-01 00:00:00,2016-06-01 00:00:00,PRATE,surface,-98.4379,35.4329,4.93e-05
2016-06-01 00:00:00,2016-06-01 00:00:00,PRATE,surface,-97.5004,35.4329,4.24e-05
2016-06-01 00:00:00,2016-06-01 00:00:00,PRATE,surface,-96.5629,35.4329,3.64e-05
2016-06-01 00:00:00,2016-06-01 00:00:00,PRATE,surface,-95.6254,35.4329,3.45e-05
2016-06-01 00:00:00,2016-06-01 00:00:00,PRATE,surface,-94.6879,35.4329,3.91e-05
2016-06-01 00:00:00,2016-06-01 00:00:00,PRATE,surface,-93.7504,35.4329,4.66e-05
2016-06-01 00:00:00,2016-06-01 00:00:00,PRATE,surface,-92.8129,35.4329,4.94e-05
2016-06-01 00:00:00,2016-06-01 00:00:00,PRATE,surface,-107.813,36.3778,1.26e-05
2016-06-01 00:00:00,2016-06-01 00:00:00,PRATE,surface,-106.875,36.3778,1.65e-05
2016-06-01 00:00:00,2016-06-01 00:00:00,PRATE,surface,-105.938,36.3778,2.42e-05
2016-06-01 00:00:00,2016-06-01 00:00:00,PRATE,surface,-105,36.3778,3.42e-05
2016-06-01 00:00:00,2016-06-01 00:00:00,PRATE,surface,-104.063,36.3778,4.39e-05
2016-06-01 00:00:00,2016-06-01 00:00:00,PRATE,surface,-103.125,36.3778,4.43e-05
2016-06-01 00:00:00,2016-06-01 00:00:00,PRATE,surface,-102.188,36.3778,3.88e-05
2016-06-01 00:00:00,2016-06-01 00:00:00,PRATE,surface,-101.25,36.3778,4.05e-05
2016-06-01 00:00:00,2016-06-01 00:00:00,PRATE,surface,-100.313,36.3778,5e-05
2016-06-01 00:00:00,2016-06-01 00:00:00,PRATE,surface,-99.3754,36.3778,5.68e-05
2016-06-01 00:00:00,2016-06-01 00:00:00,PRATE,surface,-98.4379,36.3778,5.44e-05
2016-06-01 00:00:00,2016-06-01 00:00:00,PRATE,surface,-97.5004,36.3778,4.32e-05
2016-06-01 00:00:00,2016-06-01 00:00:00,PRATE,surface,-96.5629,36.3778,3.09e-05
2016-06-01 00:00:00,2016-06-01 00:00:00,PRATE,surface,-95.6254,36.3778,2.31e-05
2016-06-01 00:00:00,2016-06-01 00:00:00,PRATE,surface,-94.6879,36.3778,1.96e-05
2016-06-01 00:00:00,2016-06-01 00:00:00,PRATE,surface,-93.7504,36.3778,1.94e-05
2016-06-01 00:00:00,2016-06-01 00:00:00,PRATE,surface,-92.8129,36.3778,1.97e-05
