2014-11-26 00:00:00,2014-11-26 00:00:00,TMP,surface,-107.813,25.0393,303.259
2014-11-26 00:00:00,2014-11-26 00:00:00,TMP,surface,-106.875,25.0393,295.88
2014-11-26 00:00:00,2014-11-26 00:00:00,TMP,surface,-105.938,25.0393,292.286
2014-11-26 00:00:00,2014-11-26 00:00:00,TMP,surface,-105,25.0393,290.571
2014-11-26 00:00:00,2014-11-26 00:00:00,TMP,surface,-104.063,25.0393,295.298
2014-11-26 00:00:00,2014-11-26 00:00:00,TMP,surface,-103.125,25.0393,298.661
2014-11-26 00:00:00,2014-11-26 00:00:00,TMP,surface,-102.188,25.0393,297.406
2014-11-26 00:00:00,2014-11-26 00:00:00,TMP,surface,-101.25,25.0393,294.581
2014-11-26 00:00:00,2014-11-26 00:00:00,TMP,surface,-100.313,25.0393,294.712
2014-11-26 00:00:00,2014-11-26 00:00:00,TMP,surface,-99.3754,25.0393,298.328
2014-11-26 00:00:00,2014-11-26 00:00:00,TMP,surface,-98.4379,25.0393,301.595
2014-11-26 00:00:00,2014-11-26 00:00:00,TMP,surface,-97.5004,25.0393,301.797
2014-11-26 00:00:00,2014-11-26 00:00:00,TMP,surface,-96.5629,25.0393,302.142
2014-11-26 00:00:00,2014-11-26 00:00:00,TMP,surface,-95.6254,25.0393,302.722
2014-11-26 00:00:00,2014-11-26 00:00:00,TMP,surface,-94.6879,25.0393,302.981
2014-11-26 00:00:00,2014-11-26 00:00:00,TMP,surface,-93.7504,25.0393,302.866
2014-11-26 00:00:00,2014-11-26 00:00:00,TMP,surface,-92.8129,25.0393,302.853
2014-11-26 00:00:00,2014-11-26 00:00:00,TMP,surface,-107.813,25.9842,298.846
2014-11-26 00:00:00,2014-11-26 00:00:00,TMP,surface,-106.875,25.9842,292.827
2014-11-26 00:00:00,2014-11-26 00:00:00,TMP,surface,-105.938,25.9842,291.007
2014-11-26 00:00:00,2014-11-26 00:00:00,TMP,surface,-105,25.9842,292.942
2014-11-26 00:00:00,2014-11-26 00:00:00,TMP,surface,-104.063,25.9842,299.112
2014-11-26 00:00:00,2014-11-26 00:00:00,TMP,surface,-103.125,25.9842,300.613
2014-11-26 00:00:00,2014-11-26 00:00:00,TMP,surface,-102.188,25.9842,299.211
2014-11-26 00:00:00,2014-11-26 00:00:00,TMP,surface,-101.25,25.9842,297.925
2014-11-26 00:00:00,2014-11-26 00:00:00,TMP,surface,-100.313,25.9842,298.846
2014-11-26 00:00:00,2014-11-26 00:00:00,TMP,surface,-99.3754,25.9842,301.982
2014-11-26 00:00:00,2014-11-26 00:00:00,TMP,surface,-98.4379,25.9842,303.115
2014-11-26 00:00:00,2014-11-26 00:00:00,TMP,surface,-97.5004,25.9842,302.011
2014-11-26 00:00:00,2014-11-26 00:00:00,TMP,surface,-96.5629,25.9842,301.291
2014-11-26 00:00:00,2014-11-26 00:00:00,TMP,surface,-95.6254,25.9842,302.043
2014-11-26 00:00:00,2014-11-26 00:00:00,TMP,surface,-94.6879,25.9842,302.613
2014-11-26 00:00:00,2014-11-26 00:00:00,TMP,surface,-93.7504,25.9842,302.76
2014-11-26 00:00:00,2014-11-26 00:00:00,TMP,surface,-92.8129,25.9842,302.907
2014-11-26 00:00:00,2014-11-26 00:00:00,TMP,surface,-107.813,26.929,294.254
2014-11-26 00:00:00,2014-11-26 00:00:00,TMP,surface,-106.875,26.929,291.304
2014-11-26 00:00:00,2014-11-26 00:00:00,TMP,surface,-105.938,26.929,292.562
2014-11-26 00:00:00,2014-11-26 00:00:00,TMP,surface,-105,26.929,297.528
2014-11-26 00:00:00,2014-11-26 00:00:00,TMP,surface,-104.063,26.929,300.917
2014-11-26 00:00:00,2014-11-26 00:00:00,TMP,surface,-103.125,26.929,300.293
2014-11-26 00:00:00,2014-11-26 00:00:00,TMP,surface,-102.188,26.929,298.981
2014-11-26 00:00:00,2014-11-26 00:00:00,TMP,surface,-101.25,26.929,299.733
2014-11-26 00:00:00,2014-11-26 00:00:00,TMP,surface,-100.313,26.929,302.28
2014-11-26 00:00:00,2014-11-26 00:00:00,TMP,surface,-99.3754,26.929,303.96
2014-11-26 00:00:00,2014-11-26 00:00:00,TMP,surface,-98.4379,26.929,302.651
2014-11-26 00:00:00,2014-11-26 00:00:00,TMP,surface,-97.5004,26.929,299.954
2014-11-26 00:00:00,2014-11-26 00:00:00,TMP,surface,-96.5629,26.929,300.178
2014-11-26 00:00:00,2014-11-26 00:00:00,TMP,surface,-95.6254,26.929,301.874
2014-11-26 00:00:00,2014-11-26 00:00:00,TMP,surface,-94.6879,26.929,302.741
2014-11-26 00:00:00,2014-11-26 00:00:00,TMP,surface,-93.7504,26.929,302.917
2014-11-26 00:00:00,2014-11-26 00:00:00,TMP,surface,-92.8129,26.929,303.01
2014-11-26 00:00:00,2014-11-26 00:00:00,TMP,surface,-107.813,27.8739,292.437
2014-11-26 00:00:00,2014-11-26 00:00:00,TMP,surface,-106.875,27.8739,291.038
2014-11-26 00:00:00,2014-11-26 00:00:00,TMP,surface,-105.938,27.8739,295.01
2014-11-26 00:00:00,2014-11-26 00:00:00,TMP,surface,-105,27.8739,300.21
2014-11-26 00:00:00,2014-11-26 00:00:00,TMP,surface,-104.063,27.8739,300.728
2014-11-26 00:00:00,2014-11-26 00:00:00,TMP,surface,-103.125,27.8739,298.773
2014-11-26 00:00:00,2014-11-26 00:00:00,TMP,surface,-102.188,27.8739,297.874
2014-11-26 00:00:00,2014-11-26 00:00:00,TMP,surface,-101.25,27.8739,300.437
2014-11-26 00:00:00,2014-11-26 00:00:00,TMP,surface,-100.313,27.8739,302.994
2014-11-26 00:00:00,2014-11-26 00:00:00,TMP,surface,-99.3754,27.8739,303.15
2014-11-26 00:00:00,2014-11-26 00:00:00,TMP,surface,-98.4379,27.8739,301.742
2014-11-26 00:00:00,2014-11-26 00:00:00,TMP,surface,-97.5004,27.8739,300.885
2014-11-26 00:00:00,2014-11-26 00:00:00,TMP,surface,-96.5629,27.8739,301.246
2014-11-26 00:00:00,2014-11-26 00:00:00,TMP,surface,-95.6254,27.8739,302.139
2014-11-26 00:00:00,2014-11-26 00:00:00,TMP,surface,-94.6879,27.8739,302.821
2014-11-26 00:00:00,2014-11-26 00:00:00,TMP,surface,-93.7504,27.8739,302.942
2014-11-26 00:00:00,2014-11-26 00:00:00,TMP,surface,-92.8129,27.8739,302.978
2014-11-26 00:00:00,2014-11-26 00:00:00,TMP,surface,-107.813,28.8188,291.746
2014-11-26 00:00:00,2014-11-26 00:00:00,TMP,surface,-106.875,28.8188,292.414
2014-11-26 00:00:00,2014-11-26 00:00:00,TMP,surface,-105.938,28.8188,297.163
2014-11-26 00:00:00,2014-11-26 00:00:00,TMP,surface,-105,28.8188,301.227
2014-11-26 00:00:00,2014-11-26 00:00:00,TMP,surface,-104.063,28.8188,300.373
2014-11-26 00:00:00,2014-11-26 00:00:00,TMP,surface,-103.125,28.8188,298.747
2014-11-26 00:00:00,2014-11-26 00:00:00,TMP,surface,-102.188,28.8188,298.018
2014-11-26 00:00:00,2014-11-26 00:00:00,TMP,surface,-101.25,28.8188,300.405
2014-11-26 00:00:00,2014-11-26 00:00:00,TMP,surface,-100.313,28.8188,301.688
2014-11-26 00:00:00,2014-11-26 00:00:00,TMP,surface,-99.3754,28.8188,301.022
2014-11-26 00:00:00,2014-11-26 00:00:00,TMP,surface,-98.4379,28.8188,300.056
2014-11-26 00:00:00,2014-11-26 00:00:00,TMP,surface,-97.5004,28.8188,299.727
2014-11-26 00:00:00,2014-11-26 00:00:00,TMP,surface,-96.5629,28.8188,300.002
2014-11-26 00:00:00,2014-11-26 00:00:00,TMP,surface,-95.6254,28.8188,300.555
2014-11-26 00:00:00,2014-11-26 00:00:00,TMP,surface,-94.6879,28.8188,300.978
2014-11-26 00:00:00,2014-11-26 00:00:00,TMP,surface,-93.7504,28.8188,301.131
2014-11-26 00:00:00,2014-11-26 00:00:00,TMP,surface,-92.8129,28.8188,301.195
2014-11-26 00:00:00,2014-11-26 00:00:00,TMP,surface,-107.813,29.7637,293.922
2014-11-26 00:00:00,2014-11-26 00:00:00,TMP,surface,-106.875,29.7637,295.541
2014-11-26 00:00:00,2014-11-26 00:00:00,TMP,surface,-105.938,29.7637,299.368
2014-11-26 00:00:00,2014-11-26 00:00:00,TMP,surface,-105,29.7637,300.821
2014-11-26 00:00:00,2014-11-26 00:00:00,TMP,surface,-104.063,29.7637,300.523
2014-11-26 00:00:00,2014-11-26 00:00:00,TMP,surface,-103.125,29.7637,300.072
2014-11-26 00:00:00,2014-11-26 00:00:00,TMP,surface,-102.188,29.7637,300.594
2014-11-26 00:00:00,2014-11-26 00:00:00,TMP,surface,-101.25,29.7637,300.946
2014-11-26 00:00:00,2014-11-26 00:00:00,TMP,surface,-100.313,29.7637,299.928
2014-11-26 00:00:00,2014-11-26 00:00:00,TMP,surface,-99.3754,29.7637,298.808
2014-11-26 00:00:00,2014-11-26 00:00:00,TMP,surface,-98.4379,29.7637,298.6
2014-11-26 00:00:00,2014-11-26 00:00:00,TMP,surface,-97.5004,29.7637,299.093
2014-11-26 00:00:00,2014-11-26 00:00:00,TMP,surface,-96.5629,29.7637,299.682
2014-11-26 00:00:00,2014-11-26 00:00:00,TMP,surface,-95.6254,29.7637,300.222
2014-11-26 00:00:00,2014-11-26 00:00:00,TMP,surface,-94.6879,29.7637,300.117
2014-11-26 00:00:00,2014-11-26 00:00:00,TMP,surface,-93.7504,29.7637,299.426
2014-11-26 00:00:00,2014-11-26 00:00:00,TMP,surface,-92.8129,29.7637,300.667
2014-11-26 00:00:00,2014-11-26 00:00:00,TMP,surface,-107.813,30.7085,299.221
2014-11-26 00:00:00,2014-11-26 00:00:00,TMP,surface,-106.875,30.7085,300.453
2014-11-26 00:00:00,2014-11-26 00:00:00,TMP,surface,-105.938,30.7085,300.658
2014-11-26 00:00:00,2014-11-26 00:00:00,TMP,surface,-105,30.7085,300.51
2014-11-26 00:00:00,2014-11-26 00:00:00,TMP,surface,-104.063,30.7085,299.998
2014-11-26 00:00:00,2014-11-26 00:00:00,TMP,surface,-103.125,30.7085,300.872
2014-11-26 00:00:00,2014-11-26 00:00:00,TMP,surface,-102.188,30.7085,301.454
2014-11-26 00:00:00,2014-11-26 00:00:00,TMP,surface,-101.25,30.7085,300.789
2014-11-26 00:00:00,2014-11-26 00:00:00,TMP,surface,-100.313,30.7085,299.493
2014-11-26 00:00:00,2014-11-26 00:00:00,TMP,surface,-99.3754,30.7085,298.664
2014-11-26 00:00:00,2014-11-26 00:00:00,TMP,surface,-98.4379,30.7085,298.846
2014-11-26 00:00:00,2014-11-26 00:00:00,TMP,surface,-97.5004,30.7085,299.573
2014-11-26 00:00:00,2014-11-26 00:00:00,TMP,surface,-96.5629,30.7085,300.523
2014-11-26 00:00:00,2014-11-26 00:00:00,TMP,surface,-95.6254,30.7085,301.202
2014-11-26 00:00:00,2014-11-26 00:00:00,TMP,surface,-94.6879,30.7085,301.237
2014-11-26 00:00:00,2014-11-26 00:00:00,TMP,surface,-93.7504,30.7085,301.323
2014-11-26 00:00:00,2014-11-26 00:00:00,TMP,surface,-92.8129,30.7085,300.901
2014-11-26 00:00:00,2014-11-26 00:00:00,TMP,surface,-107.813,31.6534,301.365
2014-11-26 00:00:00,2014-11-26 00:00:00,TMP,surface,-106.875,31.6534,301.762
2014-11-26 00:00:00,2014-11-26 00:00:00,TMP,surface,-105.938,31.6534,300.414
2014-11-26 00:00:00,2014-11-26 00:00:00,TMP,surface,-105,31.6534,300.037
2014-11-26 00:00:00,2014-11-26 00:00:00,TMP,surface,-104.063,31.6534,300.504
2014-11-26 00:00:00,2014-11-26 00:00:00,TMP,surface,-103.125,31.6534,301.007
2014-11-26 00:00:00,2014-11-26 00:00:00,TMP,surface,-102.188,31.6534,301.259
2014-11-26 00:00:00,2014-11-26 00:00:00,TMP,surface,-101.25,31.6534,300.622
2014-11-26 00:00:00,2014-11-26 00:00:00,TMP,surface,-100.313,31.6534,299.963
2014-11-26 00:00:00,2014-11-26 00:00:00,TMP,surface,-99.3754,31.6534,299.429
2014-11-26 00:00:00,2014-11-26 00:00:00,TMP,surface,-98.4379,31.6534,299.506
2014-11-26 00:00:00,2014-11-26 00:00:00,TMP,surface,-97.5004,31.6534,300.066
2014-11-26 00:00:00,2014-11-26 00:00:00,TMP,surface,-96.5629,31.6534,300.875
2014-11-26 00:00:00,2014-11-26 00:00:00,TMP,surface,-95.6254,31.6534,301.442
2014-11-26 00:00:00,2014-11-26 00:00:00,TMP,surface,-94.6879,31.6534,301.406
2014-11-26 00:00:00,2014-11-26 00:00:00,TMP,surface,-93.7504,31.6534,301.448
2014-11-26 00:00:00,2014-11-26 00:00:00,TMP,surface,-92.8129,31.6534,301.416
2014-11-26 00:00:00,2014-11-26 00:00:00,TMP,surface,-107.813,32.5983,298.485
2014-11-26 00:00:00,2014-11-26 00:00:00,TMP,surface,-106.875,32.5983,298.866
2014-11-26 00:00:00,2014-11-26 00:00:00,TMP,surface,-105.938,32.5983,298.725
2014-11-26 00:00:00,2014-11-26 00:00:00,TMP,surface,-105,32.5983,298.526
2014-11-26 00:00:00,2014-11-26 00:00:00,TMP,surface,-104.063,32.5983,299.464
2014-11-26 00:00:00,2014-11-26 00:00:00,TMP,surface,-103.125,32.5983,300.133
2014-11-26 00:00:00,2014-11-26 00:00:00,TMP,surface,-102.188,32.5983,300.344
2014-11-26 00:00:00,2014-11-26 00:00:00,TMP,surface,-101.25,32.5983,300.447
2014-11-26 00:00:00,2014-11-26 00:00:00,TMP,surface,-100.313,32.5983,300.798
2014-11-26 00:00:00,2014-11-26 00:00:00,TMP,surface,-99.3754,32.5983,300.75
2014-11-26 00:00:00,2014-11-26 00:00:00,TMP,surface,-98.4379,32.5983,300.283
2014-11-26 00:00:00,2014-11-26 00:00:00,TMP,surface,-97.5004,32.5983,300.094
2014-11-26 00:00:00,2014-11-26 00:00:00,TMP,surface,-96.5629,32.5983,300.603
2014-11-26 00:00:00,2014-11-26 00:00:00,TMP,surface,-95.6254,32.5983,301.266
2014-11-26 00:00:00,2014-11-26 00:00:00,TMP,surface,-94.6879,32.5983,301.429
2014-11-26 00:00:00,2014-11-26 00:00:00,TMP,surface,-93.7504,32.5983,301.435
2014-11-26 00:00:00,2014-11-26 00:00:00,TMP,surface,-92.8129,32.5983,301.602
2014-11-26 00:00:00,2014-11-26 00:00:00,TMP,surface,-107.813,33.5432,293.547
2014-11-26 00:00:00,2014-11-26 00:00:00,TMP,surface,-106.875,33.5432,295.099
2014-11-26 00:00:00,2014-11-26 00:00:00,TMP,surface,-105.938,33.5432,295.947
2014-11-26 00:00:00,2014-11-26 00:00:00,TMP,surface,-105,33.5432,297.061
2014-11-26 00:00:00,2014-11-26 00:00:00,TMP,surface,-104.063,33.5432,298.808
2014-11-26 00:00:00,2014-11-26 00:00:00,TMP,surface,-103.125,33.5432,299.128
2014-11-26 00:00:00,2014-11-26 00:00:00,TMP,surface,-102.188,33.5432,299.115
2014-11-26 00:00:00,2014-11-26 00:00:00,TMP,surface,-101.25,33.5432,299.72
2014-11-26 00:00:00,2014-11-26 00:00:00,TMP,surface,-100.313,33.5432,301.013
2014-11-26 00:00:00,2014-11-26 00:00:00,TMP,surface,-99.3754,33.5432,301.637
2014-11-26 00:00:00,2014-11-26 00:00:00,TMP,surface,-98.4379,33.5432,301
2014-11-26 00:00:00,2014-11-26 00:00:00,TMP,surface,-97.5004,33.5432,300.123
2014-11-26 00:00:00,2014-11-26 00:00:00,TMP,surface,-96.5629,33.5432,299.938
2014-11-26 00:00:00,2014-11-26 00:00:00,TMP,surface,-95.6254,33.5432,300.402
2014-11-26 00:00:00,2014-11-26 00:00:00,TMP,surface,-94.6879,33.5432,300.92
2014-11-26 00:00:00,2014-11-26 00:00:00,TMP,surface,-93.7504,33.5432,301.007
2014-11-26 00:00:00,2014-11-26 00:00:00,TMP,surface,-92.8129,33.5432,301.035
2014-11-26 00:00:00,2014-11-26 00:00:00,TMP,surface,-107.813,34.4881,292.162
2014-11-26 00:00:00,2014-11-26 00:00:00,TMP,surface,-106.875,34.4881,293.915
2014-11-26 00:00:00,2014-11-26 00:00:00,TMP,surface,-105.938,34.4881,294.888
2014-11-26 00:00:00,2014-11-26 00:00:00,TMP,surface,-105,34.4881,296.44
2014-11-26 00:00:00,2014-11-26 00:00:00,TMP,surface,-104.063,34.4881,297.739
2014-11-26 00:00:00,2014-11-26 00:00:00,TMP,surface,-103.125,34.4881,298.203
2014-11-26 00:00:00,2014-11-26 00:00:00,TMP,surface,-102.188,34.4881,298.654
2014-11-26 00:00:00,2014-11-26 00:00:00,TMP,surface,-101.25,34.4881,299.41
2014-11-26 00:00:00,2014-11-26 00:00:00,TMP,surface,-100.313,34.4881,300.722
2014-11-26 00:00:00,2014-11-26 00:00:00,TMP,surface,-99.3754,34.4881,301.49
2014-11-26 00:00:00,2014-11-26 00:00:00,TMP,surface,-98.4379,34.4881,301.208
2014-11-26 00:00:00,2014-11-26 00:00:00,TMP,surface,-97.5004,34.4881,300.392
2014-11-26 00:00:00,2014-11-26 00:00:00,TMP,surface,-96.5629,34.4881,300.216
2014-11-26 00:00:00,2014-11-26 00:00:00,TMP,surface,-95.6254,34.4881,300.642
2014-11-26 00:00:00,2014-11-26 00:00:00,TMP,surface,-94.6879,34.4881,300.536
2014-11-26 00:00:00,2014-11-26 00:00:00,TMP,surface,-93.7504,34.4881,300.149
2014-11-26 00:00:00,2014-11-26 00:00:00,TMP,surface,-92.8129,34.4881,300.347
2014-11-26 00:00:00,2014-11-26 00:00:00,TMP,surface,-107.813,35.4329,293.736
2014-11-26 00:00:00,2014-11-26 00:00:00,TMP,surface,-106.875,35.4329,293.49
2014-11-26 00:00:00,2014-11-26 00:00:00,TMP,surface,-105.938,35.4329,292.987
2014-11-26 00:00:00,2014-11-26 00:00:00,TMP,surface,-105,35.4329,293.467
2014-11-26 00:00:00,2014-11-26 00:00:00,TMP,surface,-104.063,35.4329,296.107
2014-11-26 00:00:00,2014-11-26 00:00:00,TMP,surface,-103.125,35.4329,297.781
2014-11-26 00:00:00,2014-11-26 00:00:00,TMP,surface,-102.188,35.4329,298.645
2014-11-26 00:00:00,2014-11-26 00:00:00,TMP,surface,-101.25,35.4329,299.323
2014-11-26 00:00:00,2014-11-26 00:00:00,TMP,surface,-100.313,35.4329,300.136
2014-11-26 00:00:00,2014-11-26 00:00:00,TMP,surface,-99.3754,35.4329,300.965
2014-11-26 00:00:00,2014-11-26 00:00:00,TMP,surface,-98.4379,35.4329,301.141
2014-11-26 00:00:00,2014-11-26 00:00:00,TMP,surface,-97.5004,35.4329,300.734
2014-11-26 00:00:00,2014-11-26 00:00:00,TMP,surface,-96.5629,35.4329,300.331
2014-11-26 00:00:00,2014-11-26 00:00:00,TMP,surface,-95.6254,35.4329,300.139
2014-11-26 00:00:00,2014-11-26 00:00:00,TMP,surface,-94.6879,35.4329,299.877
2014-11-26 00:00:00,2014-11-26 00:00:00,TMP,surface,-93.7504,35.4329,299.349
2014-11-26 00:00:00,2014-11-26 00:00:00,TMP,surface,-92.8129,35.4329,298.99
2014-11-26 00:00:00,2014-11-26 00:00:00,TMP,surface,-107.813,36.3778,293.784
2014-11-26 00:00:00,2014-11-26 00:00:00,TMP,surface,-106.875,36.3778,290.245
2014-11-26 00:00:00,2014-11-26 00:00:00,TMP,surface,-105.938,36.3778,289.883
2014-11-26 00:00:00,2014-11-26 00:00:00,TMP,surface,-105,36.3778,290.6
2014-11-26 00:00:00,2014-11-26 00:00:00,TMP,surface,-104.063,36.3778,293.829
2014-11-26 00:00:00,2014-11-26 00:00:00,TMP,surface,-103.125,36.3778,296.357
2014-11-26 00:00:00,2014-11-26 00:00:00,TMP,surface,-102.188,36.3778,298.162
2014-11-26 00:00:00,2014-11-26 00:00:00,TMP,surface,-101.25,36.3778,299.291
2014-11-26 00:00:00,2014-11-26 00:00:00,TMP,surface,-100.313,36.3778,300.021
2014-11-26 00:00:00,2014-11-26 00:00:00,TMP,surface,-99.3754,36.3778,300.357
2014-11-26 00:00:00,2014-11-26 00:00:00,TMP,surface,-98.4379,36.3778,300.462
2014-11-26 00:00:00,2014-11-26 00:00:00,TMP,surface,-97.5004,36.3778,300.126
2014-11-26 00:00:00,2014-11-26 00:00:00,TMP,surface,-96.5629,36.3778,299.595
2014-11-26 00:00:00,2014-11-26 00:00:00,TMP,surface,-95.6254,36.3778,299.09
2014-11-26 00:00:00,2014-11-26 00:00:00,TMP,surface,-94.6879,36.3778,298.322
2014-11-26 00:00:00,2014-11-26 00:00:00,TMP,surface,-93.7504,36.3778,297.566
2014-11-26 00:00:00,2014-11-26 00:00:00,TMP,surface,-92.8129,36.3778,297.24
2014-11-26 00:00:00,2014-11-26 00:00:00,PRATE,surface,-107.813,25.0393,9.4e-06
2014-11-26 00:00:00,2014-11-26 00:00:00,PRATE,surface,-106.875,25.0393,0.0001002
2014-11-26 00:00:00,2014-11-26 00:00:00,PRATE,surface,-105.938,25.0393,0.0001415
2014-11-26 00:00:00,2014-11-26 00:00:00,PRATE,surface,-105,25.0393,6.54e-05
2014-11-26 00:00:00,2014-11-26 00:00:00,PRATE,surface,-104.063,25.0393,5.5e-06
2014-11-26 00:00:00,2014-11-26 00:00:00,PRATE,surface,-103.125,25.0393,4.6e-06
2014-11-26 00:00:00,2014-11-26 00:00:00,PRATE,surface,-102.188,25.0393,3.7e-06
2014-11-26 00:00:00,2014-11-26 00:00:00,PRATE,surface,-101.25,25.0393,3.4e-06
2014-11-26 00:00:00,2014-11-26 00:00:00,PRATE,surface,-100.313,25.0393,5.3e-06
2014-11-26 00:00:00,2014-11-26 00:00:00,PRATE,surface,-99.3754,25.0393,4.8e-06
2014-11-26 00:00:00,2014-11-26 00:00:00,PRATE,surface,-98.4379,25.0393,8.8e-06
2014-11-26 00:00:00,2014-11-26 00:00:00,PRATE,surface,-97.5004,25.0393,1.23e-05
2014-11-26 00:00:00,2014-11-26 00:00:00,PRATE,surface,-96.5629,25.0393,1.94e-05
2014-11-26 00:00:00,2014-11-26 00:00:00,PRATE,surface,-95.6254,25.0393,1.55e-05
2014-11-26 00:00:00,2014-11-26 00:00:00,PRATE,surface,-94.6879,25.0393,1.52e-05
2014-11-26 00:00:00,2014-11-26 00:00:00,PRATE,surface,-93.7504,25.0393,2.45e-05
2014-11-26 00:00:00,2014-11-26 00:00:00,PRATE,surface,-92.8129,25.0393,2.45e-05
2014-11-26 00:00:00,2014-11-26 00:00:00,PRATE,surface,-107.813,25.9842,4.56e-05
2014-11-26 00:00:00,2014-11-26 00:00:00,PRATE,surface,-106.875,25.9842,0.0001494
2014-11-26 00:00:00,2014-11-26 00:00:00,PRATE,surface,-105.938,25.9842,9.88e-05
2014-11-26 00:00:00,2014-11-26 00:00:00,PRATE,surface,-105,25.9842,4.57e-05
2014-11-26 00:00:00,2014-11-26 00:00:00,PRATE,surface,-104.063,25.9842,1.2e-06
2014-11-26 00:00:00,2014-11-26 00:00:00,PRATE,surface,-103.125,25.9842,1.5e-06
2014-11-26 00:00:00,2014-11-26 00:00:00,PRATE,surface,-102.188,25.9842,4e-07
2014-11-26 00:00:00,2014-11-26 00:00:00,PRATE,surface,-101.25,25.9842,4e-07
2014-11-26 00:00:00,2014-11-26 00:00:00,PRATE,surface,-100.313,25.9842,2.3e-06
2014-11-26 00:00:00,2014-11-26 00:00:00,PRATE,surface,-99.3754,25.9842,1.4e-06
2014-11-26 00:00:00,2014-11-26 00:00:00,PRATE,surface,-98.4379,25.9842,4.2e-06
2014-11-26 00:00:00,2014-11-26 00:00:00,PRATE,surface,-97.5004,25.9842,1.82e-05
2014-11-26 00:00:00,2014-11-26 00:00:00,PRATE,surface,-96.5629,25.9842,1.41e-05
2014-11-26 00:00:00,2014-11-26 00:00:00,PRATE,surface,-95.6254,25.9842,1.5e-05
2014-11-26 00:00:00,2014-11-26 00:00:00,PRATE,surface,-94.6879,25.9842,1.29e-05
2014-11-26 00:00:00,2014-11-26 00:00:00,PRATE,surface,-93.7504,25.9842,2.49e-05
2014-11-26 00:00:00,2014-11-26 00:00:00,PRATE,surface,-92.8129,25.9842,2.54e-05
2014-11-26 00:00:00,2014-11-26 00:00:00,PRATE,surface,-107.813,26.929,0.0001072
2014-11-26 00:00:00,2014-11-26 00:00:00,PRATE,surface,-106.875,26.929,0.000103
2014-11-26 00:00:00,2014-11-26 00:00:00,PRATE,surface,-105.938,26.929,6.1e-05
2014-11-26 00:00:00,2014-11-26 00:00:00,PRATE,surface,-105,26.929,9.6e-06
2014-11-26 00:00:00,2014-11-26 00:00:00,PRATE,surface,-104.063,26.929,3.2e-06
2014-11-26 00:00:00,2014-11-26 00:00:00,PRATE,surface,-103.125,26.929,1.9e-06
2014-11-26 00:00:00,2014-11-26 00:00:00,PRATE,surface,-102.188,26.929,7e-07
2014-11-26 00:00:00,2014-11-26 00:00:00,PRATE,surface,-101.25,26.929,0
2014-11-26 00:00:00,2014-11-26 00:00:00,PRATE,surface,-100.313,26.929,4e-07
2014-11-26 00:00:00,2014-11-26 00:00:00,PRATE,surface,-99.3754,26.929,2.9e-06
2014-11-26 00:00:00,2014-11-26 00:00:00,PRATE,surface,-98.4379,26.929,1.11e-05
2014-11-26 00:00:00,2014-11-26 00:00:00,PRATE,surface,-97.5004,26.929,9.9e-06
2014-11-26 00:00:00,2014-11-26 00:00:00,PRATE,surface,-96.5629,26.929,8e-06
2014-11-26 00:00:00,2014-11-26 00:00:00,PRATE,surface,-95.6254,26.929,1.12e-05
2014-11-26 00:00:00,2014-11-26 00:00:00,PRATE,surface,-94.6879,26.929,1.65e-05
2014-11-26 00:00:00,2014-11-26 00:00:00,PRATE,surface,-93.7504,26.929,2.23e-05
2014-11-26 00:00:00,2014-11-26 00:00:00,PRATE,surface,-92.8129,26.929,1.13e-05
2014-11-26 00:00:00,2014-11-26 00:00:00,PRATE,surface,-107.813,27.8739,0.0001121
2014-11-26 00:00:00,2014-11-26 00:00:00,PRATE,surface,-106.875,27.8739,7.78e-05
2014-11-26 00:00:00,2014-11-26 00:00:00,PRATE,surface,-105.938,27.8739,2.77e-05
2014-11-26 00:00:00,2014-11-26 00:00:00,PRATE,surface,-105,27.8739,9e-07
2014-11-26 00:00:00,2014-11-26 00:00:00,PRATE,surface,-104.063,27.8739,6e-06
2014-11-26 00:00:00,2014-11-26 00:00:00,PRATE,surface,-103.125,27.8739,3.4e-06
2014-11-26 00:00:00,2014-11-26 00:00:00,PRATE,surface,-102.188,27.8739,3e-06
2014-11-26 00:00:00,2014-11-26 00:00:00,PRATE,surface,-101.25,27.8739,1.3e-06
2014-11-26 00:00:00,2014-11-26 00:00:00,PRATE,surface,-100.313,27.8739,2.6e-06
2014-11-26 00:00:00,2014-11-26 00:00:00,PRATE,surface,-99.3754,27.8739,7.2e-06
2014-11-26 00:00:00,2014-11-26 00:00:00,PRATE,surface,-98.4379,27.8739,1.42e-05
2014-11-26 00:00:00,2014-11-26 00:00:00,PRATE,surface,-97.5004,27.8739,1.27e-05
2014-11-26 00:00:00,2014-11-26 00:00:00,PRATE,surface,-96.5629,27.8739,5.4e-06
2014-11-26 00:00:00,2014-11-26 00:00:00,PRATE,surface,-95.6254,27.8739,4.6e-06
2014-11-26 00:00:00,2014-11-26 00:00:00,PRATE,surface,-94.6879,27.8739,1.02e-05
2014-11-26 00:00:00,2014-11-26 00:00:00,PRATE,surface,-93.7504,27.8739,1.61e-05
2014-11-26 00:00:00,2014-11-26 00:00:00,PRATE,surface,-92.8129,27.8739,1.67e-05
2014-11-26 00:00:00,2014-11-26 00:00:00,PRATE,surface,-107.813,28.8188,8.42e-05
2014-11-26 00:00:00,2014-11-26 00:00:00,PRATE,surface,-106.875,28.8188,4.91e-05
2014-11-26 00:00:00,2014-11-26 00:00:00,PRATE,surface,-105.938,28.8188,1.4e-05
2014-11-26 00:00:00,2014-11-26 00:00:00,PRATE,surface,-105,28.8188,3.7e-06
2014-11-26 00:00:00,2014-11-26 00:00:00,PRATE,surface,-104.063,28.8188,3.3e-06
2014-11-26 00:00:00,2014-11-26 00:00:00,PRATE,surface,-103.125,28.8188,3.7e-06
2014-11-26 00:00:00,2014-11-26 00:00:00,PRATE,surface,-102.188,28.8188,4.4e-06
2014-11-26 00:00:00,2014-11-26 00:00:00,PRATE,surface,-101.25,28.8188,3.8e-06
2014-11-26 00:00:00,2014-11-26 00:00:00,PRATE,surface,-100.313,28.8188,5.4e-06
2014-11-26 00:00:00,2014-11-26 00:00:00,PRATE,surface,-99.3754,28.8188,9.8e-06
2014-11-26 00:00:00,2014-11-26 00:00:00,PRATE,surface,-98.4379,28.8188,1.82e-05
2014-11-26 00:00:00,2014-11-26 00:00:00,PRATE,surface,-97.5004,28.8188,2.04e-05
2014-11-26 00:00:00,2014-11-26 00:00:00,PRATE,surface,-96.5629,28.8188,1.68e-05
2014-11-26 00:00:00,2014-11-26 00:00:00,PRATE,surface,-95.6254,28.8188,1.24e-05
2014-11-26 00:00:00,2014-11-26 00:00:00,PRATE,surface,-94.6879,28.8188,6.6e-06
2014-11-26 00:00:00,2014-11-26 00:00:00,PRATE,surface,-93.7504,28.8188,7.3e-06
2014-11-26 00:00:00,2014-11-26 00:00:00,PRATE,surface,-92.8129,28.8188,8.8e-06
2014-11-26 00:00:00,2014-11-26 00:00:00,PRATE,surface,-107.813,29.7637,4.1e-05
2014-11-26 00:00:00,2014-11-26 00:00:00,PRATE,surface,-106.875,29.7637,3.05e-05
2014-11-26 00:00:00,2014-11-26 00:00:00,PRATE,surface,-105.938,29.7637,1.22e-05
2014-11-26 00:00:00,2014-11-26 00:00:00,PRATE,surface,-105,29.7637,7.8e-06
2014-11-26 00:00:00,2014-11-26 00:00:00,PRATE,surface,-104.063,29.7637,2e-06
2014-11-26 00:00:00,2014-11-26 00:00:00,PRATE,surface,-103.125,29.7637,2e-06
2014-11-26 00:00:00,2014-11-26 00:00:00,PRATE,surface,-102.188,29.7637,2.1e-06
2014-11-26 00:00:00,2014-11-26 00:00:00,PRATE,surface,-101.25,29.7637,3e-06
2014-11-26 00:00:00,2014-11-26 00:00:00,PRATE,surface,-100.313,29.7637,6.1e-06
2014-11-26 00:00:00,2014-11-26 00:00:00,PRATE,surface,-99.3754,29.7637,1.25e-05
2014-11-26 00:00:00,2014-11-26 00:00:00,PRATE,surface,-98.4379,29.7637,1.59e-05
2014-11-26 00:00:00,2014-11-26 00:00:00,PRATE,surface,-97.5004,29.7637,1.52e-05
2014-11-26 00:00:00,2014-11-26 00:00:00,PRATE,surface,-96.5629,29.7637,1.26e-05
2014-11-26 00:00:00,2014-11-26 00:00:00,PRATE,surface,-95.6254,29.7637,1.12e-05
2014-11-26 00:00:00,2014-11-26 00:00:00,PRATE,surface,-94.6879,29.7637,1.08e-05
2014-11-26 00:00:00,2014-11-26 00:00:00,PRATE,surface,-93.7504,29.7637,8.9e-06
2014-11-26 00:00:00,2014-11-26 00:00:00,PRATE,surface,-92.8129,29.7637,1.67e-05
2014-11-26 00:00:00,2014-11-26 00:00:00,PRATE,surface,-107.813,30.7085,1.41e-05
2014-11-26 00:00:00,2014-11-26 00:00:00,PRATE,surface,-106.875,30.7085,1.83e-05
2014-11-26 00:00:00,2014-11-26 00:00:00,PRATE,surface,-105.938,30.7085,1.48e-05
2014-11-26 00:00:00,2014-11-26 00:00:00,PRATE,surface,-105,30.7085,1.19e-05
2014-11-26 00:00:00,2014-11-26 00:00:00,PRATE,surface,-104.063,30.7085,3.1e-06
2014-11-26 00:00:00,2014-11-26 00:00:00,PRATE,surface,-103.125,30.7085,1.5e-06
2014-11-26 00:00:00,2014-11-26 00:00:00,PRATE,surface,-102.188,30.7085,1.4e-06
2014-11-26 00:00:00,2014-11-26 00:00:00,PRATE,surface,-101.25,30.7085,2.3e-06
2014-11-26 00:00:00,2014-11-26 00:00:00,PRATE,surface,-100.313,30.7085,4.3e-06
2014-11-26 00:00:00,2014-11-26 00:00:00,PRATE,surface,-99.3754,30.7085,4.4e-06
2014-11-26 00:00:00,2014-11-26 00:00:00,PRATE,surface,-98.4379,30.7085,5.1e-06
2014-11-26 00:00:00,2014-11-26 00:00:00,PRATE,surface,-97.5004,30.7085,5.2e-06
2014-11-26 00:00:00,2014-11-26 00:00:00,PRATE,surface,-96.5629,30.7085,4.9e-06
2014-11-26 00:00:00,2014-11-26 00:00:00,PRATE,surface,-95.6254,30.7085,6.5e-06
2014-11-26 00:00:00,2014-11-26 00:00:00,PRATE,surface,-94.6879,30.7085,7.7e-06
2014-11-26 00:00:00,2014-11-26 00:00:00,PRATE,surface,-93.7504,30.7085,7.4e-06
2014-11-26 00:00:00,2014-11-26 00:00:00,PRATE,surface,-92.8129,30.7085,1.01e-05
2014-11-26 00:00:00,2014-11-26 00:00:00,PRATE,surface,-107.813,31.6534,9.5e-06
2014-11-26 00:00:00,2014-11-26 00:00:00,PRATE,surface,-106.875,31.6534,1.66e-05
2014-11-26 00:00:00,2014-11-26 00:00:00,PRATE,surface,-105.938,31.6534,1.91e-05
2014-11-26 00:00:00,2014-11-26 00:00:00,PRATE,surface,-105,31.6534,1.05e-05
2014-11-26 00:00:00,2014-11-26 00:00:00,PRATE,surface,-104.063,31.6534,3.9e-06
2014-11-26 00:00:00,2014-11-26 00:00:00,PRATE,surface,-103.125,31.6534,2.6e-06
2014-11-26 00:00:00,2014-11-26 00:00:00,PRATE,surface,-102.188,31.6534,1.4e-06
2014-11-26 00:00:00,2014-11-26 00:00:00,PRATE,surface,-101.25,31.6534,2.8e-06
2014-11-26 00:00:00,2014-11-26 00:00:00,PRATE,surface,-100.313,31.6534,3.9e-06
2014-11-26 00:00:00,2014-11-26 00:00:00,PRATE,surface,-99.3754,31.6534,6.5e-06
2014-11-26 00:00:00,2014-11-26 00:00:00,PRATE,surface,-98.4379,31.6534,6.4e-06
2014-11-26 00:00:00,2014-11-26 00:00:00,PRATE,surface,-97.5004,31.6534,5.3e-06
2014-11-26 00:00:00,2014-11-26 00:00:00,PRATE,surface,-96.5629,31.6534,5.6e-06
2014-11-26 00:00:00,2014-11-26 00:00:00,PRATE,surface,-95.6254,31.6534,7.1e-06
2014-11-26 00:00:00,2014-11-26 00:00:00,PRATE,surface,-94.6879,31.6534,8.5e-06
2014-11-26 00:00:00,2014-11-26 00:00:00,PRATE,surface,-93.7504,31.6534,7e-06
2014-11-26 00:00:00,2014-11-26 00:00:00,PRATE,surface,-92.8129,31.6534,6.3e-06
2014-11-26 00:00:00,2014-11-26 00:00:00,PRATE,surface,-107.813,32.5983,1.85e-05
2014-11-26 00:00:00,2014-11-26 00:00:00,PRATE,surface,-106.875,32.5983,1.98e-05
2014-11-26 00:00:00,2014-11-26 00:00:00,PRATE,surface,-105.938,32.5983,2.59e-05
2014-11-26 00:00:00,2014-11-26 00:00:00,PRATE,surface,-105,32.5983,1.81e-05
2014-11-26 00:00:00,2014-11-26 00:00:00,PRATE,surface,-104.063,32.5983,8.2e-06
2014-11-26 00:00:00,2014-11-26 00:00:00,PRATE,surface,-103.125,32.5983,4.3e-06
2014-11-26 00:00:00,2014-11-26 00:00:00,PRATE,surface,-102.188,32.5983,4.1e-06
2014-11-26 00:00:00,2014-11-26 00:00:00,PRATE,surface,-101.25,32.5983,6.4e-06
2014-11-26 00:00:00,2014-11-26 00:00:00,PRATE,surface,-100.313,32.5983,7.8e-06
2014-11-26 00:00:00,2014-11-26 00:00:00,PRATE,surface,-99.3754,32.5983,1.12e-05
2014-11-26 00:00:00,2014-11-26 00:00:00,PRATE,surface,-98.4379,32.5983,1.43e-05
2014-11-26 00:00:00,2014-11-26 00:00:00,PRATE,surface,-97.5004,32.5983,1.41e-05
2014-11-26 00:00:00,2014-11-26 00:00:00,PRATE,surface,-96.5629,32.5983,1.18e-05
2014-11-26 00:00:00,2014-11-26 00:00:00,PRATE,surface,-95.6254,32.5983,9.7e-06
2014-11-26 00:00:00,2014-11-26 00:00:00,PRATE,surface,-94.6879,32.5983,7.9e-06
2014-11-26 00:00:00,2014-11-26 00:00:00,PRATE,surface,-93.7504,32.5983,6.5e-06
2014-11-26 00:00:00,2014-11-26 00:00:00,PRATE,surface,-92.8129,32.5983,7.7e-06
2014-11-26 00:00:00,2014-11-26 00:00:00,PRATE,surface,-107.813,33.5432,5.78e-05
2014-11-26 00:00:00,2014-11-26 00:00:00,PRATE,surface,-106.875,33.5432,4.27e-05
2014-11-26 00:00:00,2014-11-26 00:00:00,PRATE,surface,-105.938,33.5432,2.73e-05
2014-11-26 00:00:00,2014-11-26 00:00:00,PRATE,surface,-105,33.5432,2.46e-05
2014-11-26 00:00:00,2014-11-26 00:00:00,PRATE,surface,-104.063,33.5432,1.44e-05
2014-11-26 00:00:00,2014-11-26 00:00:00,PRATE,surface,-103.125,33.5432,1.3e-05
2014-11-26 00:00:00,2014-11-26 00:00:00,PRATE,surface,-102.188,33.5432,1.52e-05
2014-11-26 00:00:00,2014-11-26 00:00:00,PRATE,surface,-101.25,33.5432,1.73e-05
2014-11-26 00:00:00,2014-11-26 00:00:00,PRATE,surface,-100.313,33.5432,1.32e-05
2014-11-26 00:00:00,2014-11-26 00:00:00,PRATE,surface,-99.3754,33.5432,1.04e-05
2014-11-26 00:00:00,2014-11-26 00:00:00,PRATE,surface,-98.4379,33.5432,1.35e-05
2014-11-26 00:00:00,2014-11-26 00:00:00,PRATE,surface,-97.5004,33.5432,1.61e-05
2014-11-26 00:00:00,2014-11-26 00:00:00,PRATE,surface,-96.5629,33.5432,1.26e-05
2014-11-26 00:00:00,2014-11-26 00:00:00,PRATE,surface,-95.6254,33.5432,7.6e-06
2014-11-26 00:00:00,2014-11-26 00:00:00,PRATE,surface,-94.6879,33.5432,6.9e-06
2014-11-26 00:00:00,2014-11-26 00:00:00,PRATE,surface,-93.7504,33.5432,8.7e-06
2014-11-26 00:00:00,2014-11-26 00:00:00,PRATE,surface,-92.8129,33.5432,1.05e-05
2014-11-26 00:00:00,2014-11-26 00:00:00,PRATE,surface,-107.813,34.4881,8.76e-05
2014-11-26 00:00:00,2014-11-26 00:00:00,PRATE,surface,-106.875,34.4881,4.77e-05
2014-11-26 00:00:00,2014-11-26 00:00:00,PRATE,surface,-105.938,34.4881,3.39e-05
2014-11-26 00:00:00,2014-11-26 00:00:00,PRATE,surface,-105,34.4881,2.86e-05
2014-11-26 00:00:00,2014-11-26 00:00:00,PRATE,surface,-104.063,34.4881,2.7e-05
2014-11-26 00:00:00,2014-11-26 00:00:00,PRATE,surface,-103.125,34.4881,2.03e-05
2014-11-26 00:00:00,2014-11-26 00:00:00,PRATE,surface,-102.188,34.4881,2.26e-05
2014-11-26 00:00:00,2014-11-26 00:00:00,PRATE,surface,-101.25,34.4881,2.51e-05
2014-11-26 00:00:00,2014-11-26 00:00:00,PRATE,surface,-100.313,34.4881,2.06e-05
2014-11-26 00:00:00,2014-11-26 00:00:00,PRATE,surface,-99.3754,34.4881,1.58e-05
2014-11-26 00:00:00,2014-11-26 00:00:00,PRATE,surface,-98.4379,34.4881,1.62e-05
2014-11-26 00:00:00,2014-11-26 00:00:00,PRATE,surface,-97.5004,34.4881,1.5e-05
2014-11-26 00:00:00,2014-11-26 00:00:00,PRATE,surface,-96.5629,34.4881,8.8e-06
2014-11-26 00:00:00,2014-11-26 00:00:00,PRATE,surface,-95.6254,34.4881,4.3e-06
2014-11-26 00:00:00,2014-11-26 00:00:00,PRATE,surface,-94.6879,34.4881,5.2e-06
2014-11-26 00:00:00,2014-11-26 00:00:00,PRATE,surface,-93.7504,34.4881,7.4e-06
2014-11-26 00:00:00,2014-11-26 00:00:00,PRATE,surface,-92.8129,34.4881,7.9e-06
2014-11-26 00:00:00,2014-11-26 00:00:00,PRATE,surface,-107.813,35.4329,4.09e-05
2014-11-26 00:00:00,2014-11-26 00:00:00,PRATE,surface,-106.875,35.4329,4.65e-05
2014-11-26 00:00:00,2014-11-26 00:00:00,PRATE,surface,-105.938,35.4329,5.19e-05
2014-11-26 00:00:00,2014-11-26 00:00:00,PRATE,surface,-105,35.4329,6.16e-05
2014-11-26 00:00:00,2014-11-26 00:00:00,PRATE,surface,-104.063,35.4329,4.33e-05
2014-11-26 00:00:00,2014-11-26 00:00:00,PRATE,surface,-103.125,35.4329,3e-05
2014-11-26 00:00:00,2014-11-26 00:00:00,PRATE,surface,-102.188,35.4329,2.93e-05
2014-11-26 00:00:00,2014-11-26 00:00:00,PRATE,surface,-101.25,35.4329,2.84e-05
2014-11-26 00:00:00,2014-11-26 00:00:00,PRATE,surface,-100.313,35.4329,2.27e-05
2014-11-26 00:00:00,2014-11-26 00:00:00,PRATE,surface,-99.3754,35.4329,1.93e-05
2014-11-26 00:00:00,2014-11-26 00:00:00,PRATE,surface,-98.4379,35.4329,2.17e-05
2014-11-26 00:00:00,2014-11-26 00:00:00,PRATE,surface,-97.5004,35.4329,1.93e-05
2014-11-26 00:00:00,2014-11-26 00:00:00,PRATE,surface,-96.5629,35.4329,1.1e-05
2014-11-26 00:00:00,2014-11-26 00:00:00,PRATE,surface,-95.6254,35.4329,5.1e-06
2014-11-26 00:00:00,2014-11-26 00:00:00,PRATE,surface,-94.6879,35.4329,4.4e-06
2014-11-26 00:00:00,2014-11-26 00:00:00,PRATE,surface,-93.7504,35.4329,1.05e-05
2014-11-26 00:00:00,2014-11-26 00:00:00,PRATE,surface,-92.8129,35.4329,2.15e-05
2014-11-26 00:00:00,2014-11-26 00:00:00,PRATE,surface,-107.813,36.3778,4.45e-05
2014-11-26 00:00:00,2014-11-26 00:00:00,PRATE,surface,-106.875,36.3778,9.22e-05
2014-11-26 00:00:00,2014-11-26 00:00:00,PRATE,surface,-105.938,36.3778,0.0001168
2014-11-26 00:00:00,2014-11-26 00:00:00,PRATE,surface,-105,36.3778,0.0001008
2014-11-26 00:00:00,2014-11-26 00:00:00,PRATE,surface,-104.063,36.3778,6.21e-05
2014-11-26 00:00:00,2014-11-26 00:00:00,PRATE,surface,-103.125,36.3778,3.5e-05
2014-11-26 00:00:00,2014-11-26 00:00:00,PRATE,surface,-102.188,36.3778,2.37e-05
2014-11-26 00:00:00,2014-11-26 00:00:00,PRATE,surface,-101.25,36.3778,1.67e-05
2014-11-26 00:00:00,2014-11-26 00:00:00,PRATE,surface,-100.313,36.3778,1.44e-05
2014-11-26 00:00:00,2014-11-26 00:00:00,PRATE,surface,-99.3754,36.3778,1.25e-05
2014-11-26 00:00:00,2014-11-26 00:00:00,PRATE,surface,-98.4379,36.3778,1.79e-05
2014-11-26 00:00:00,2014-11-26 00:00:00,PRATE,surface,-97.5004,36.3778,2.08e-05
2014-11-26 00:00:00,2014-11-26 00:00:00,PRATE,surface,-96.5629,36.3778,1.71e-05
2014-11-26 00:00:00,2014-11-26 00:00:00,PRATE,surface,-95.6254,36.3778,1.52e-05
2014-11-26 00:00:00,2014-11-26 00:00:00,PRATE,surface,-94.6879,36.3778,2.03e-05
2014-11-26 00:00:00,2014-11-26 00:00:00,PRATE,surface,-93.7504,36.3778,3.58e-05
2014-11-26 00:00:00,2014-11-26 00:00:00,PRATE,surface,-92.8129,36.3778,4.96e-05
