2017-12-12 00:00:00,2017-12-12 00:00:00,TMP,surface,-107.813,25.0393,293.236
2017-12-12 00:00:00,2017-12-12 00:00:00,TMP,surface,-106.875,25.0393,287.732
2017-12-12 00:00:00,2017-12-12 00:00:00,TMP,surface,-105.938,25.0393,283.064
2017-12-12 00:00:00,2017-12-12 00:00:00,TMP,surface,-105,25.0393,281.627
2017-12-12 00:00:00,2017-12-12 00:00:00,TMP,surface,-104.063,25.0393,284.604
2017-12-12 00:00:00,2017-12-12 00:00:00,TMP,surface,-103.125,25.0393,285.996
2017-12-12 00:00:00,2017-12-12 00:00:00,TMP,surface,-102.188,25.0393,286.372
2017-12-12 00:00:00,2017-12-12 00:00:00,TMP,surface,-101.25,25.0393,285.678
2017-12-12 00:00:00,2017-12-12 00:00:00,TMP,surface,-100.313,25.0393,286.321
2017-12-12 00:00:00,2017-12-12 00:00:00,TMP,surface,-99.3754,25.0393,288.822
2017-12-12 00:00:00,2017-12-12 00:00:00,TMP,surface,-98.4379,25.0393,291.953
2017-12-12 00:00:00,2017-12-12 00:00:00,TMP,surface,-97.5004,25.0393,296.668
2017-12-12 00:00:00,2017-12-12 00:00:00,TMP,surface,-96.5629,25.0393,297.776
2017-12-12 00:00:00,2017-12-12 00:00:00,TMP,surface,-95.6254,25.0393,298.268
2017-12-12 00:00:00,2017-12-12 00:00:00,TMP,surface,-94.6879,25.0393,298.401
2017-12-12 00:00:00,2017-12-12 00:00:00,TMP,surface,-93.7504,25.0393,298.232
2017-12-12 00:00:00,2017-12-12 00:00:00,TMP,surface,-92.8129,25.0393,298.006
2017-12-12 00:00:00,2017-12-12 00:00:00,TMP,surface,-107.813,25.9842,288.337
2017-12-12 00:00:00,2017-12-12 00:00:00,TMP,surface,-106.875,25.9842,283.387
2017-12-12 00:00:00,2017-12-12 00:00:00,TMP,surface,-105.938,25.9842,281.172
2017-12-12 00:00:00,2017-12-12 00:00:00,TMP,surface,-105,25.9842,282.851
2017-12-12 00:00:00,2017-12-12 00:00:00,TMP,surface,-104.063,25.9842,285.697
2017-12-12 00:00:00,2017-12-12 00:00:00,TMP,surface,-103.125,25.9842,286.883
2017-12-12 00:00:00,2017-12-12 00:00:00,TMP,surface,-102.188,25.9842,286.87
2017-12-12 00:00:00,2017-12-12 00:00:00,TMP,surface,-101.25,25.9842,286.486
2017-12-12 00:00:00,2017-12-12 00:00:00,TMP,surface,-100.313,25.9842,286.792
2017-12-12 00:00:00,2017-12-12 00:00:00,TMP,surface,-99.3754,25.9842,289.091
2017-12-12 00:00:00,2017-12-12 00:00:00,TMP,surface,-98.4379,25.9842,291.5
2017-12-12 00:00:00,2017-12-12 00:00:00,TMP,surface,-97.5004,25.9842,293.046
2017-12-12 00:00:00,2017-12-12 00:00:00,TMP,surface,-96.5629,25.9842,296.857
2017-12-12 00:00:00,2017-12-12 00:00:00,TMP,surface,-95.6254,25.9842,297.695
2017-12-12 00:00:00,2017-12-12 00:00:00,TMP,surface,-94.6879,25.9842,297.838
2017-12-12 00:00:00,2017-12-12 00:00:00,TMP,surface,-93.7504,25.9842,297.787
2017-12-12 00:00:00,2017-12-12 00:00:00,TMP,surface,-92.8129,25.9842,297.655
2017-12-12 00:00:00,2017-12-12 00:00:00,TMP,surface,-107.813,26.929,284.207
2017-12-12 00:00:00,2017-12-12 00:00:00,TMP,surface,-106.875,26.929,280.315
2017-12-12 00:00:00,2017-12-12 00:00:00,TMP,surface,-105.938,26.929,282.041
2017-12-12 00:00:00,2017-12-12 00:00:00,TMP,surface,-105,26.929,284.46
2017-12-12 00:00:00,2017-12-12 00:00:00,TMP,surface,-104.063,26.929,285.319
2017-12-12 00:00:00,2017-12-12 00:00:00,TMP,surface,-103.125,26.929,284.881
2017-12-12 00:00:00,2017-12-12 00:00:00,TMP,surface,-102.188,26.929,285.58
2017-12-12 00:00:00,2017-12-12 00:00:00,TMP,surface,-101.25,26.929,286.422
2017-12-12 00:00:00,2017-12-12 00:00:00,TMP,surface,-100.313,26.929,287.244
2017-12-12 00:00:00,2017-12-12 00:00:00,TMP,surface,-99.3754,26.929,288.888
2017-12-12 00:00:00,2017-12-12 00:00:00,TMP,surface,-98.4379,26.929,289.703
2017-12-12 00:00:00,2017-12-12 00:00:00,TMP,surface,-97.5004,26.929,294.052
2017-12-12 00:00:00,2017-12-12 00:00:00,TMP,surface,-96.5629,26.929,295.996
2017-12-12 00:00:00,2017-12-12 00:00:00,TMP,surface,-95.6254,26.929,297.259
2017-12-12 00:00:00,2017-12-12 00:00:00,TMP,surface,-94.6879,26.929,297.483
2017-12-12 00:00:00,2017-12-12 00:00:00,TMP,surface,-93.7504,26.929,297.369
2017-12-12 00:00:00,2017-12-12 00:00:00,TMP,surface,-92.8129,26.929,297.126
2017-12-12 00:00:00,2017-12-12 00:00:00,TMP,surface,-107.813,27.8739,280.654
2017-12-12 00:00:00,2017-12-12 00:00:00,TMP,surface,-106.875,27.8739,279.465
2017-12-12 00:00:00,2017-12-12 00:00:00,TMP,surface,-105.938,27.8739,282.222
2017-12-12 00:00:00,2017-12-12 00:00:00,TMP,surface,-105,27.8739,284.553
2017-12-12 00:00:00,2017-12-12 00:00:00,TMP,surface,-104.063,27.8739,284.945
2017-12-12 00:00:00,2017-12-12 00:00:00,TMP,surface,-103.125,27.8739,284.123
2017-12-12 00:00:00,2017-12-12 00:00:00,TMP,surface,-102.188,27.8739,284.451
2017-12-12 00:00:00,2017-12-12 00:00:00,TMP,surface,-101.25,27.8739,285.3
2017-12-12 00:00:00,2017-12-12 00:00:00,TMP,surface,-100.313,27.8739,286.483
2017-12-12 00:00:00,2017-12-12 00:00:00,TMP,surface,-99.3754,27.8739,287.263
2017-12-12 00:00:00,2017-12-12 00:00:00,TMP,surface,-98.4379,27.8739,288.022
2017-12-12 00:00:00,2017-12-12 00:00:00,TMP,surface,-97.5004,27.8739,291.131
2017-12-12 00:00:00,2017-12-12 00:00:00,TMP,surface,-96.5629,27.8739,294.318
2017-12-12 00:00:00,2017-12-12 00:00:00,TMP,surface,-95.6254,27.8739,295.31
2017-12-12 00:00:00,2017-12-12 00:00:00,TMP,surface,-94.6879,27.8739,296.046
2017-12-12 00:00:00,2017-12-12 00:00:00,TMP,surface,-93.7504,27.8739,296.393
2017-12-12 00:00:00,2017-12-12 00:00:00,TMP,surface,-92.8129,27.8739,296.363
2017-12-12 00:00:00,2017-12-12 00:00:00,TMP,surface,-107.813,28.8188,279.092
2017-12-12 00:00:00,2017-12-12 00:00:00,TMP,surface,-106.875,28.8188,279.723
2017-12-12 00:00:00,2017-12-12 00:00:00,TMP,surface,-105.938,28.8188,282.275
2017-12-12 00:00:00,2017-12-12 00:00:00,TMP,surface,-105,28.8188,283.449
2017-12-12 00:00:00,2017-12-12 00:00:00,TMP,surface,-104.063,28.8188,283.198
2017-12-12 00:00:00,2017-12-12 00:00:00,TMP,surface,-103.125,28.8188,283.028
2017-12-12 00:00:00,2017-12-12 00:00:00,TMP,surface,-102.188,28.8188,283.374
2017-12-12 00:00:00,2017-12-12 00:00:00,TMP,surface,-101.25,28.8188,284.323
2017-12-12 00:00:00,2017-12-12 00:00:00,TMP,surface,-100.313,28.8188,285.028
2017-12-12 00:00:00,2017-12-12 00:00:00,TMP,surface,-99.3754,28.8188,285.353
2017-12-12 00:00:00,2017-12-12 00:00:00,TMP,surface,-98.4379,28.8188,285.929
2017-12-12 00:00:00,2017-12-12 00:00:00,TMP,surface,-97.5004,28.8188,286.787
2017-12-12 00:00:00,2017-12-12 00:00:00,TMP,surface,-96.5629,28.8188,287.683
2017-12-12 00:00:00,2017-12-12 00:00:00,TMP,surface,-95.6254,28.8188,290.132
2017-12-12 00:00:00,2017-12-12 00:00:00,TMP,surface,-94.6879,28.8188,293.452
2017-12-12 00:00:00,2017-12-12 00:00:00,TMP,surface,-93.7504,28.8188,293.87
2017-12-12 00:00:00,2017-12-12 00:00:00,TMP,surface,-92.8129,28.8188,294.028
2017-12-12 00:00:00,2017-12-12 00:00:00,TMP,surface,-107.813,29.7637,279.844
2017-12-12 00:00:00,2017-12-12 00:00:00,TMP,surface,-106.875,29.7637,280.494
2017-12-12 00:00:00,2017-12-12 00:00:00,TMP,surface,-105.938,29.7637,282.207
2017-12-12 00:00:00,2017-12-12 00:00:00,TMP,surface,-105,29.7637,281.734
2017-12-12 00:00:00,2017-12-12 00:00:00,TMP,surface,-104.063,29.7637,282.219
2017-12-12 00:00:00,2017-12-12 00:00:00,TMP,surface,-103.125,29.7637,282.622
2017-12-12 00:00:00,2017-12-12 00:00:00,TMP,surface,-102.188,29.7637,283.084
2017-12-12 00:00:00,2017-12-12 00:00:00,TMP,surface,-101.25,29.7637,283.336
2017-12-12 00:00:00,2017-12-12 00:00:00,TMP,surface,-100.313,29.7637,283.4
2017-12-12 00:00:00,2017-12-12 00:00:00,TMP,surface,-99.3754,29.7637,283.63
2017-12-12 00:00:00,2017-12-12 00:00:00,TMP,surface,-98.4379,29.7637,284.116
2017-12-12 00:00:00,2017-12-12 00:00:00,TMP,surface,-97.5004,29.7637,284.616
2017-12-12 00:00:00,2017-12-12 00:00:00,TMP,surface,-96.5629,29.7637,285.161
2017-12-12 00:00:00,2017-12-12 00:00:00,TMP,surface,-95.6254,29.7637,285.953
2017-12-12 00:00:00,2017-12-12 00:00:00,TMP,surface,-94.6879,29.7637,287.969
2017-12-12 00:00:00,2017-12-12 00:00:00,TMP,surface,-93.7504,29.7637,290.047
2017-12-12 00:00:00,2017-12-12 00:00:00,TMP,surface,-92.8129,29.7637,287.047
2017-12-12 00:00:00,2017-12-12 00:00:00,TMP,surface,-107.813,30.7085,280.908
2017-12-12 00:00:00,2017-12-12 00:00:00,TMP,surface,-106.875,30.7085,281.577
2017-12-12 00:00:00,2017-12-12 00:00:00,TMP,surface,-105.938,30.7085,281.427
2017-12-12 00:00:00,2017-12-12 00:00:00,TMP,surface,-105,30.7085,280.955
2017-12-12 00:00:00,2017-12-12 00:00:00,TMP,surface,-104.063,30.7085,281.049
2017-12-12 00:00:00,2017-12-12 00:00:00,TMP,surface,-103.125,30.7085,281.944
2017-12-12 00:00:00,2017-12-12 00:00:00,TMP,surface,-102.188,30.7085,282.128
2017-12-12 00:00:00,2017-12-12 00:00:00,TMP,surface,-101.25,30.7085,282.18
2017-12-12 00:00:00,2017-12-12 00:00:00,TMP,surface,-100.313,30.7085,282.415
2017-12-12 00:00:00,2017-12-12 00:00:00,TMP,surface,-99.3754,30.7085,282.787
2017-12-12 00:00:00,2017-12-12 00:00:00,TMP,surface,-98.4379,30.7085,283.198
2017-12-12 00:00:00,2017-12-12 00:00:00,TMP,surface,-97.5004,30.7085,283.524
2017-12-12 00:00:00,2017-12-12 00:00:00,TMP,surface,-96.5629,30.7085,283.843
2017-12-12 00:00:00,2017-12-12 00:00:00,TMP,surface,-95.6254,30.7085,284.265
2017-12-12 00:00:00,2017-12-12 00:00:00,TMP,surface,-94.6879,30.7085,284.632
2017-12-12 00:00:00,2017-12-12 00:00:00,TMP,surface,-93.7504,30.7085,284.702
2017-12-12 00:00:00,2017-12-12 00:00:00,TMP,surface,-92.8129,30.7085,284.46
2017-12-12 00:00:00,2017-12-12 00:00:00,TMP,surface,-107.813,31.6534,280.182
2017-12-12 00:00:00,2017-12-12 00:00:00,TMP,surface,-106.875,31.6534,280.63
2017-12-12 00:00:00,2017-12-12 00:00:00,TMP,surface,-105.938,31.6534,279.888
2017-12-12 00:00:00,2017-12-12 00:00:00,TMP,surface,-105,31.6534,280.023
2017-12-12 00:00:00,2017-12-12 00:00:00,TMP,surface,-104.063,31.6534,280.479
2017-12-12 00:00:00,2017-12-12 00:00:00,TMP,surface,-103.125,31.6534,280.894
2017-12-12 00:00:00,2017-12-12 00:00:00,TMP,surface,-102.188,31.6534,281.348
2017-12-12 00:00:00,2017-12-12 00:00:00,TMP,surface,-101.25,31.6534,281.42
2017-12-12 00:00:00,2017-12-12 00:00:00,TMP,surface,-100.313,31.6534,281.807
2017-12-12 00:00:00,2017-12-12 00:00:00,TMP,surface,-99.3754,31.6534,282.209
2017-12-12 00:00:00,2017-12-12 00:00:00,TMP,surface,-98.4379,31.6534,282.563
2017-12-12 00:00:00,2017-12-12 00:00:00,TMP,surface,-97.5004,31.6534,282.84
2017-12-12 00:00:00,2017-12-12 00:00:00,TMP,surface,-96.5629,31.6534,283.1
2017-12-12 00:00:00,2017-12-12 00:00:00,TMP,surface,-95.6254,31.6534,283.311
2017-12-12 00:00:00,2017-12-12 00:00:00,TMP,surface,-94.6879,31.6534,283.321
2017-12-12 00:00:00,2017-12-12 00:00:00,TMP,surface,-93.7504,31.6534,283.297
2017-12-12 00:00:00,2017-12-12 00:00:00,TMP,surface,-92.8129,31.6534,283.334
2017-12-12 00:00:00,2017-12-12 00:00:00,TMP,surface,-107.813,32.5983,277.988
2017-12-12 00:00:00,2017-12-12 00:00:00,TMP,surface,-106.875,32.5983,277.905
2017-12-12 00:00:00,2017-12-12 00:00:00,TMP,surface,-105.938,32.5983,278.483
2017-12-12 00:00:00,2017-12-12 00:00:00,TMP,surface,-105,32.5983,279.171
2017-12-12 00:00:00,2017-12-12 00:00:00,TMP,surface,-104.063,32.5983,279.529
2017-12-12 00:00:00,2017-12-12 00:00:00,TMP,surface,-103.125,32.5983,280.019
2017-12-12 00:00:00,2017-12-12 00:00:00,TMP,surface,-102.188,32.5983,280.55
2017-12-12 00:00:00,2017-12-12 00:00:00,TMP,surface,-101.25,32.5983,281.067
2017-12-12 00:00:00,2017-12-12 00:00:00,TMP,surface,-100.313,32.5983,281.487
2017-12-12 00:00:00,2017-12-12 00:00:00,TMP,surface,-99.3754,32.5983,281.767
2017-12-12 00:00:00,2017-12-12 00:00:00,TMP,surface,-98.4379,32.5983,281.947
2017-12-12 00:00:00,2017-12-12 00:00:00,TMP,surface,-97.5004,32.5983,282.193
2017-12-12 00:00:00,2017-12-12 00:00:00,TMP,surface,-96.5629,32.5983,282.388
2017-12-12 00:00:00,2017-12-12 00:00:00,TMP,surface,-95.6254,32.5983,282.352
2017-12-12 00:00:00,2017-12-12 00:00:00,TMP,surface,-94.6879,32.5983,282.187
2017-12-12 00:00:00,2017-12-12 00:00:00,TMP,surface,-93.7504,32.5983,282.12
2017-12-12 00:00:00,2017-12-12 00:00:00,TMP,surface,-92.8129,32.5983,282.377
2017-12-12 00:00:00,2017-12-12 00:00:00,TMP,surface,-107.813,33.5432,275.262
2017-12-12 00:00:00,2017-12-12 00:00:00,TMP,surface,-106.875,33.5432,276.568
2017-12-12 00:00:00,2017-12-12 00:00:00,TMP,surface,-105.938,33.5432,277.099
2017-12-12 00:00:00,2017-12-12 00:00:00,TMP,surface,-105,33.5432,277.649
2017-12-12 00:00:00,2017-12-12 00:00:00,TMP,surface,-104.063,33.5432,278.073
2017-12-12 00:00:00,2017-12-12 00:00:00,TMP,surface,-103.125,33.5432,278.494
2017-12-12 00:00:00,2017-12-12 00:00:00,TMP,surface,-102.188,33.5432,279.038
2017-12-12 00:00:00,2017-12-12 00:00:00,TMP,surface,-101.25,33.5432,279.606
2017-12-12 00:00:00,2017-12-12 00:00:00,TMP,surface,-100.313,33.5432,280.054
2017-12-12 00:00:00,2017-12-12 00:00:00,TMP,surface,-99.3754,33.5432,280.315
2017-12-12 00:00:00,2017-12-12 00:00:00,TMP,surface,-98.4379,33.5432,280.561
2017-12-12 00:00:00,2017-12-12 00:00:00,TMP,surface,-97.5004,33.5432,280.782
2017-12-12 00:00:00,2017-12-12 00:00:00,TMP,surface,-96.5629,33.5432,280.996
2017-12-12 00:00:00,2017-12-12 00:00:00,TMP,surface,-95.6254,33.5432,281.076
2017-12-12 00:00:00,2017-12-12 00:00:00,TMP,surface,-94.6879,33.5432,280.823
2017-12-12 00:00:00,2017-12-12 00:00:00,TMP,surface,-93.7504,33.5432,280.619
2017-12-12 00:00:00,2017-12-12 00:00:00,TMP,surface,-92.8129,33.5432,280.814
2017-12-12 00:00:00,2017-12-12 00:00:00,TMP,surface,-107.813,34.4881,273.342
2017-12-12 00:00:00,2017-12-12 00:00:00,TMP,surface,-106.875,34.4881,274.987
2017-12-12 00:00:00,2017-12-12 00:00:00,TMP,surface,-105.938,34.4881,275.468
2017-12-12 00:00:00,2017-12-12 00:00:00,TMP,surface,-105,34.4881,275.462
2017-12-12 00:00:00,2017-12-12 00:00:00,TMP,surface,-104.063,34.4881,276.091
2017-12-12 00:00:00,2017-12-12 00:00:00,TMP,surface,-103.125,34.4881,276.622
2017-12-12 00:00:00,2017-12-12 00:00:00,TMP,surface,-102.188,34.4881,277.123
2017-12-12 00:00:00,2017-12-12 00:00:00,TMP,surface,-101.25,34.4881,277.547
2017-12-12 00:00:00,2017-12-12 00:00:00,TMP,surface,-100.313,34.4881,277.963
2017-12-12 00:00:00,2017-12-12 00:00:00,TMP,surface,-99.3754,34.4881,278.257
2017-12-12 00:00:00,2017-12-12 00:00:00,TMP,surface,-98.4379,34.4881,278.527
2017-12-12 00:00:00,2017-12-12 00:00:00,TMP,surface,-97.5004,34.4881,278.843
2017-12-12 00:00:00,2017-12-12 00:00:00,TMP,surface,-96.5629,34.4881,279.193
2017-12-12 00:00:00,2017-12-12 00:00:00,TMP,surface,-95.6254,34.4881,279.303
2017-12-12 00:00:00,2017-12-12 00:00:00,TMP,surface,-94.6879,34.4881,279.027
2017-12-12 00:00:00,2017-12-12 00:00:00,TMP,surface,-93.7504,34.4881,278.857
2017-12-12 00:00:00,2017-12-12 00:00:00,TMP,surface,-92.8129,34.4881,279.017
2017-12-12 00:00:00,2017-12-12 00:00:00,TMP,surface,-107.813,35.4329,272.497
2017-12-12 00:00:00,2017-12-12 00:00:00,TMP,surface,-106.875,35.4329,273.286
2017-12-12 00:00:00,2017-12-12 00:00:00,TMP,surface,-105.938,35.4329,273.723
2017-12-12 00:00:00,2017-12-12 00:00:00,TMP,surface,-105,35.4329,274.116
2017-12-12 00:00:00,2017-12-12 00:00:00,TMP,surface,-104.063,35.4329,274.244
2017-12-12 00:00:00,2017-12-12 00:00:00,TMP,surface,-103.125,35.4329,275.12
2017-12-12 00:00:00,2017-12-12 00:00:00,TMP,surface,-102.188,35.4329,275.433
2017-12-12 00:00:00,2017-12-12 00:00:00,TMP,surface,-101.25,35.4329,275.655
2017-12-12 00:00:00,2017-12-12 00:00:00,TMP,surface,-100.313,35.4329,276.068
2017-12-12 00:00:00,2017-12-12 00:00:00,TMP,surface,-99.3754,35.4329,276.291
2017-12-12 00:00:00,2017-12-12 00:00:00,TMP,surface,-98.4379,35.4329,276.454
2017-12-12 00:00:00,2017-12-12 00:00:00,TMP,surface,-97.5004,35.4329,276.971
2017-12-12 00:00:00,2017-12-12 00:00:00,TMP,surface,-96.5629,35.4329,277.542
2017-12-12 00:00:00,2017-12-12 00:00:00,TMP,surface,-95.6254,35.4329,277.702
2017-12-12 00:00:00,2017-12-12 00:00:00,TMP,surface,-94.6879,35.4329,277.494
2017-12-12 00:00:00,2017-12-12 00:00:00,TMP,surface,-93.7504,35.4329,277.148
2017-12-12 00:00:00,2017-12-12 00:00:00,TMP,surface,-92.8129,35.4329,277.174
2017-12-12 00:00:00,2017-12-12 00:00:00,TMP,surface,-107.813,36.3778,271.19
2017-12-12 00:00:00,2017-12-12 00:00:00,TMP,surface,-106.875,36.3778,270.489
2017-12-12 00:00:00,2017-12-12 00:00:00,TMP,surface,-105.938,36.3778,271.115
2017-12-12 00:00:00,2017-12-12 00:00:00,TMP,surface,-105,36.3778,271.94
2017-12-12 00:00:00,2017-12-12 00:00:00,TMP,surface,-104.063,36.3778,272.124
2017-12-12 00:00:00,2017-12-12 00:00:00,TMP,surface,-103.125,36.3778,272.871
2017-12-12 00:00:00,2017-12-12 00:00:00,TMP,surface,-102.188,36.3778,273.452
2017-12-12 00:00:00,2017-12-12 00:00:00,TMP,surface,-101.25,36.3778,274.057
2017-12-12 00:00:00,2017-12-12 00:00:00,TMP,surface,-100.313,36.3778,274.572
2017-12-12 00:00:00,2017-12-12 00:00:00,TMP,surface,-99.3754,36.3778,274.899
2017-12-12 00:00:00,2017-12-12 00:00:00,TMP,surface,-98.4379,36.3778,274.964
2017-12-12 00:00:00,2017-12-12 00:00:00,TMP,surface,-97.5004,36.3778,275.176
2017-12-12 00:00:00,2017-12-12 00:00:00,TMP,surface,-96.5629,36.3778,275.467
2017-12-12 00:00:00,2017-12-12 00:00:00,TMP,surface,-95.6254,36.3778,275.582
2017-12-12 00:00:00,2017-12-12 00:00:00,TMP,surface,-94.6879,36.3778,275.524
2017-12-12 00:00:00,2017-12-12 00:00:00,TMP,surface,-93.7504,36.3778,275.243
2017-12-12 00:00:00,2017-12-12 00:00:00,TMP,surface,-92.8129,36.3778,275.348
2017-12-12 00:00:00,2017-12-12 00:00:00,PRATE,surface,-107.813,25.0393,8.4e-06
2017-12-12 00:00:00,2017-12-12 00:00:00,PRATE,surface,-106.875,25.0393,2e-05
2017-12-12 00:00:00,2017-12-12 00:00:00,PRATE,surface,-105.938,25.0393,2.62e-05
2017-12-12 00:00:00,2017-12-12 00:00:00,PRATE,surface,-105,25.0393,1.64e-05
2017-12-12 00:00:00,2017-12-12 00:00:00,PRATE,surface,-104.063,25.0393,7.2e-06
2017-12-12 00:00:00,2017-12-12 00:00:00,PRATE,surface,-103.125,25.0393,3.7e-06
2017-12-12 00:00:00,2017-12-12 00:00:00,PRATE,surface,-102.188,25.0393,5.9e-06
2017-12-12 00:00:00,2017-12-12 00:00:00,PRATE,surface,-101.25,25.0393,9.2e-06
2017-12-12 00:00:00,2017-12-12 00:00:00,PRATE,surface,-100.313,25.0393,9.6e-06
2017-12-12 00:00:00,2017-12-12 00:00:00,PRATE,surface,-99.3754,25.0393,4.7e-06
2017-12-12 00:00:00,2017-12-12 00:00:00,PRATE,surface,-98.4379,25.0393,6.8e-06
2017-12-12 00:00:00,2017-12-12 00:00:00,PRATE,surface,-97.5004,25.0393,1.72e-05
2017-12-12 00:00:00,2017-12-12 00:00:00,PRATE,surface,-96.5629,25.0393,2.26e-05
2017-12-12 00:00:00,2017-12-12 00:00:00,PRATE,surface,-95.6254,25.0393,3.11e-05
2017-12-12 00:00:00,2017-12-12 00:00:00,PRATE,surface,-94.6879,25.0393,2.04e-05
2017-12-12 00:00:00,2017-12-12 00:00:00,PRATE,surface,-93.7504,25.0393,1.62e-05
2017-12-12 00:00:00,2017-12-12 00:00:00,PRATE,surface,-92.8129,25.0393,1.73e-05
2017-12-12 00:00:00,2017-12-12 00:00:00,PRATE,surface,-107.813,25.9842,8.8e-06
2017-12-12 00:00:00,2017-12-12 00:00:00,PRATE,surface,-106.875,25.9842,1.98e-05
2017-12-12 00:00:00,2017-12-12 00:00:00,PRATE,surface,-105.938,25.9842,2.01e-05
2017-12-12 00:00:00,2017-12-12 00:00:00,PRATE,surface,-105,25.9842,9.8e-06
2017-12-12 00:00:00,2017-12-12 00:00:00,PRATE,surface,-104.063,25.9842,2.7e-06
2017-12-12 00:00:00,2017-12-12 00:00:00,PRATE,surface,-103.125,25.9842,1.3e-06
2017-12-12 00:00:00,2017-12-12 00:00:00,PRATE,surface,-102.188,25.9842,3.1e-06
2017-12-12 00:00:00,2017-12-12 00:00:00,PRATE,surface,-101.25,25.9842,6.1e-06
2017-12-12 00:00:00,2017-12-12 00:00:00,PRATE,surface,-100.313,25.9842,4.7e-06
2017-12-12 00:00:00,2017-12-12 00:00:00,PRATE,surface,-99.3754,25.9842,2.8e-06
2017-12-12 00:00:00,2017-12-12 00:00:00,PRATE,surface,-98.4379,25.9842,5.2e-06
2017-12-12 00:00:00,2017-12-12 00:00:00,PRATE,surface,-97.5004,25.9842,1.77e-05
2017-12-12 00:00:00,2017-12-12 00:00:00,PRATE,surface,-96.5629,25.9842,2.63e-05
2017-12-12 00:00:00,2017-12-12 00:00:00,PRATE,surface,-95.6254,25.9842,3.09e-05
2017-12-12 00:00:00,2017-12-12 00:00:00,PRATE,surface,-94.6879,25.9842,2.61e-05
2017-12-12 00:00:00,2017-12-12 00:00:00,PRATE,surface,-93.7504,25.9842,2.05e-05
2017-12-12 00:00:00,2017-12-12 00:00:00,PRATE,surface,-92.8129,25.9842,2.52e-05
2017-12-12 00:00:00,2017-12-12 00:00:00,PRATE,surface,-107.813,26.929,9.5e-06
2017-12-12 00:00:00,2017-12-12 00:00:00,PRATE,surface,-106.875,26.929,1.13e-05
2017-12-12 00:00:00,2017-12-12 00:00:00,PRATE,surface,-105.938,26.929,7.1e-06
2017-12-12 00:00:00,2017-12-12 00:00:00,PRATE,surface,-105,26.929,2.9e-06
2017-12-12 00:00:00,2017-12-12 00:00:00,PRATE,surface,-104.063,26.929,1.4e-06
2017-12-12 00:00:00,2017-12-12 00:00:00,PRATE,surface,-103.125,26.929,1.1e-06
2017-12-12 00:00:00,2017-12-12 00:00:00,PRATE,surface,-102.188,26.929,2e-06
2017-12-12 00:00:00,2017-12-12 00:00:00,PRATE,surface,-101.25,26.929,2.8e-06
2017-12-12 00:00:00,2017-12-12 00:00:00,PRATE,surface,-100.313,26.929,4.3e-06
2017-12-12 00:00:00,2017-12-12 00:00:00,PRATE,surface,-99.3754,26.929,4e-06
2017-12-12 00:00:00,2017-12-12 00:00:00,PRATE,surface,-98.4379,26.929,6.3e-06
2017-12-12 00:00:00,2017-12-12 00:00:00,PRATE,surface,-97.5004,26.929,8.7e-06
2017-12-12 00:00:00,2017-12-12 00:00:00,PRATE,surface,-96.5629,26.929,2.1e-05
2017-12-12 00:00:00,2017-12-12 00:00:00,PRATE,surface,-95.6254,26.929,2.74e-05
2017-12-12 00:00:00,2017-12-12 00:00:00,PRATE,surface,-94.6879,26.929,2.01e-05
2017-12-12 00:00:00,2017-12-12 00:00:00,PRATE,surface,-93.7504,26.929,1.54e-05
2017-12-12 00:00:00,2017-12-12 00:00:00,PRATE,surface,-92.8129,26.929,1.73e-05
2017-12-12 00:00:00,2017-12-12 00:00:00,PRATE,surface,-107.813,27.8739,7.7e-06
2017-12-12 00:00:00,2017-12-12 00:00:00,PRATE,surface,-106.875,27.8739,4.5e-06
2017-12-12 00:00:00,2017-12-12 00:00:00,PRATE,surface,-105.938,27.8739,1.2e-06
2017-12-12 00:00:00,2017-12-12 00:00:00,PRATE,surface,-105,27.8739,4e-07
2017-12-12 00:00:00,2017-12-12 00:00:00,PRATE,surface,-104.063,27.8739,1e-06
2017-12-12 00:00:00,2017-12-12 00:00:00,PRATE,surface,-103.125,27.8739,2.2e-06
2017-12-12 00:00:00,2017-12-12 00:00:00,PRATE,surface,-102.188,27.8739,1.8e-06
2017-12-12 00:00:00,2017-12-12 00:00:00,PRATE,surface,-101.25,27.8739,2.2e-06
2017-12-12 00:00:00,2017-12-12 00:00:00,PRATE,surface,-100.313,27.8739,4.8e-06
2017-12-12 00:00:00,2017-12-12 00:00:00,PRATE,surface,-99.3754,27.8739,6.8e-06
2017-12-12 00:00:00,2017-12-12 00:00:00,PRATE,surface,-98.4379,27.8739,6.5e-06
2017-12-12 00:00:00,2017-12-12 00:00:00,PRATE,surface,-97.5004,27.8739,5.7e-06
2017-12-12 00:00:00,2017-12-12 00:00:00,PRATE,surface,-96.5629,27.8739,1.19e-05
2017-12-12 00:00:00,2017-12-12 00:00:00,PRATE,surface,-95.6254,27.8739,2.25e-05
2017-12-12 00:00:00,2017-12-12 00:00:00,PRATE,surface,-94.6879,27.8739,2.36e-05
2017-12-12 00:00:00,2017-12-12 00:00:00,PRATE,surface,-93.7504,27.8739,1.56e-05
2017-12-12 00:00:00,2017-12-12 00:00:00,PRATE,surface,-92.8129,27.8739,1.41e-05
2017-12-12 00:00:00,2017-12-12 00:00:00,PRATE,surface,-107.813,28.8188,5.3e-06
2017-12-12 00:00:00,2017-12-12 00:00:00,PRATE,surface,-106.875,28.8188,1.8e-06
2017-12-12 00:00:00,2017-12-12 00:00:00,PRATE,surface,-105.938,28.8188,1e-07
2017-12-12 00:00:00,2017-12-12 00:00:00,PRATE,surface,-105,28.8188,1e-07
2017-12-12 00:00:00,2017-12-12 00:00:00,PRATE,surface,-104.063,28.8188,8e-07
2017-12-12 00:00:00,2017-12-12 00:00:00,PRATE,surface,-103.125,28.8188,1.8e-06
2017-12-12 00:00:00,2017-12-12 00:00:00,PRATE,surface,-102.188,28.8188,1.6e-06
2017-12-12 00:00:00,2017-12-12 00:00:00,PRATE,surface,-101.25,28.8188,2e-06
2017-12-12 00:00:00,2017-12-12 00:00:00,PRATE,surface,-100.313,28.8188,4.1e-06
2017-12-12 00:00:00,2017-12-12 00:00:00,PRATE,surface,-99.3754,28.8188,6e-06
2017-12-12 00:00:00,2017-12-12 00:00:00,PRATE,surface,-98.4379,28.8188,5.9e-06
2017-12-12 00:00:00,2017-12-12 00:00:00,PRATE,surface,-97.5004,28.8188,5.1e-06
2017-12-12 00:00:00,2017-12-12 00:00:00,PRATE,surface,-96.5629,28.8188,1.06e-05
2017-12-12 00:00:00,2017-12-12 00:00:00,PRATE,surface,-95.6254,28.8188,2.64e-05
2017-12-12 00:00:00,2017-12-12 00:00:00,PRATE,surface,-94.6879,28.8188,3.71e-05
2017-12-12 00:00:00,2017-12-12 00:00:00,PRATE,surface,-93.7504,28.8188,2.68e-05
2017-12-12 00:00:00,2017-12-12 00:00:00,PRATE,surface,-92.8129,28.8188,1.86e-05
2017-12-12 00:00:00,2017-12-12 00:00:00,PRATE,surface,-107.813,29.7637,1.9e-06
2017-12-12 00:00:00,2017-12-12 00:00:00,PRATE,surface,-106.875,29.7637,4e-07
2017-12-12 00:00:00,2017-12-12 00:00:00,PRATE,surface,-105.938,29.7637,0
2017-12-12 00:00:00,2017-12-12 00:00:00,PRATE,surface,-105,29.7637,0
2017-12-12 00:00:00,2017-12-12 00:00:00,PRATE,surface,-104.063,29.7637,8e-07
2017-12-12 00:00:00,2017-12-12 00:00:00,PRATE,surface,-103.125,29.7637,2.9e-06
2017-12-12 00:00:00,2017-12-12 00:00:00,PRATE,surface,-102.188,29.7637,3.9e-06
2017-12-12 00:00:00,2017-12-12 00:00:00,PRATE,surface,-101.25,29.7637,5.1e-06
2017-12-12 00:00:00,2017-12-12 00:00:00,PRATE,surface,-100.313,29.7637,6.4e-06
2017-12-12 00:00:00,2017-12-12 00:00:00,PRATE,surface,-99.3754,29.7637,6.2e-06
2017-12-12 00:00:00,2017-12-12 00:00:00,PRATE,surface,-98.4379,29.7637,5.4e-06
2017-12-12 00:00:00,2017-12-12 00:00:00,PRATE,surface,-97.5004,29.7637,9e-06
2017-12-12 00:00:00,2017-12-12 00:00:00,PRATE,surface,-96.5629,29.7637,2.21e-05
2017-12-12 00:00:00,2017-12-12 00:00:00,PRATE,surface,-95.6254,29.7637,3.58e-05
2017-12-12 00:00:00,2017-12-12 00:00:00,PRATE,surface,-94.6879,29.7637,4.31e-05
2017-12-12 00:00:00,2017-12-12 00:00:00,PRATE,surface,-93.7504,29.7637,4.91e-05
2017-12-12 00:00:00,2017-12-12 00:00:00,PRATE,surface,-92.8129,29.7637,3.74e-05
2017-12-12 00:00:00,2017-12-12 00:00:00,PRATE,surface,-107.813,30.7085,2e-07
2017-12-12 00:00:00,2017-12-12 00:00:00,PRATE,surface,-106.875,30.7085,0
2017-12-12 00:00:00,2017-12-12 00:00:00,PRATE,surface,-105.938,30.7085,0
2017-12-12 00:00:00,2017-12-12 00:00:00,PRATE,surface,-105,30.7085,1e-07
2017-12-12 00:00:00,2017-12-12 00:00:00,PRATE,surface,-104.063,30.7085,1e-06
2017-12-12 00:00:00,2017-12-12 00:00:00,PRATE,surface,-103.125,30.7085,1.7e-06
2017-12-12 00:00:00,2017-12-12 00:00:00,PRATE,surface,-102.188,30.7085,3.2e-06
2017-12-12 00:00:00,2017-12-12 00:00:00,PRATE,surface,-101.25,30.7085,4.4e-06
2017-12-12 00:00:00,2017-12-12 00:00:00,PRATE,surface,-100.313,30.7085,5.4e-06
2017-12-12 00:00:00,2017-12-12 00:00:00,PRATE,surface,-99.3754,30.7085,6.2e-06
2017-12-12 00:00:00,2017-12-12 00:00:00,PRATE,surface,-98.4379,30.7085,7.2e-06
2017-12-12 00:00:00,2017-12-12 00:00:00,PRATE,surface,-97.5004,30.7085,1.13e-05
2017-12-12 00:00:00,2017-12-12 00:00:00,PRATE,surface,-96.5629,30.7085,2.5e-05
2017-12-12 00:00:00,2017-12-12 00:00:00,PRATE,surface,-95.6254,30.7085,3.56e-05
2017-12-12 00:00:00,2017-12-12 00:00:00,PRATE,surface,-94.6879,30.7085,3.87e-05
2017-12-12 00:00:00,2017-12-12 00:00:00,PRATE,surface,-93.7504,30.7085,5.21e-05
2017-12-12 00:00:00,2017-12-12 00:00:00,PRATE,surface,-92.8129,30.7085,4.91e-05
2017-12-12 00:00:00,2017-12-12 00:00:00,PRATE,surface,-107.813,31.6534,4e-07
2017-12-12 00:00:00,2017-12-12 00:00:00,PRATE,surface,-106.875,31.6534,1e-07
2017-12-12 00:00:00,2017-12-12 00:00:00,PRATE,surface,-105.938,31.6534,1e-07
2017-12-12 00:00:00,2017-12-12 00:00:00,PRATE,surface,-105,31.6534,2e-07
2017-12-12 00:00:00,2017-12-12 00:00:00,PRATE,surface,-104.063,31.6534,1e-06
2017-12-12 00:00:00,2017-12-12 00:00:00,PRATE,surface,-103.125,31.6534,1.6e-06
2017-12-12 00:00:00,2017-12-12 00:00:00,PRATE,surface,-102.188,31.6534,1.7e-06
2017-12-12 00:00:00,2017-12-12 00:00:00,PRATE,surface,-101.25,31.6534,2.2e-06
2017-12-12 00:00:00,2017-12-12 00:00:00,PRATE,surface,-100.313,31.6534,2.6e-06
2017-12-12 00:00:00,2017-12-12 00:00:00,PRATE,surface,-99.3754,31.6534,3.4e-06
2017-12-12 00:00:00,2017-12-12 00:00:00,PRATE,surface,-98.4379,31.6534,6.5e-06
2017-12-12 00:00:00,2017-12-12 00:00:00,PRATE,surface,-97.5004,31.6534,1.46e-05
2017-12-12 00:00:00,2017-12-12 00:00:00,PRATE,surface,-96.5629,31.6534,2.41e-05
2017-12-12 00:00:00,2017-12-12 00:00:00,PRATE,surface,-95.6254,31.6534,3.22e-05
2017-12-12 00:00:00,2017-12-12 00:00:00,PRATE,surface,-94.6879,31.6534,3.88e-05
2017-12-12 00:00:00,2017-12-12 00:00:00,PRATE,surface,-93.7504,31.6534,4.35e-05
2017-12-12 00:00:00,2017-12-12 00:00:00,PRATE,surface,-92.8129,31.6534,5.27e-05
2017-12-12 00:00:00,2017-12-12 00:00:00,PRATE,surface,-107.813,32.5983,1.9e-06
2017-12-12 00:00:00,2017-12-12 00:00:00,PRATE,surface,-106.875,32.5983,1.1e-06
2017-12-12 00:00:00,2017-12-12 00:00:00,PRATE,surface,-105.938,32.5983,7e-07
2017-12-12 00:00:00,2017-12-12 00:00:00,PRATE,surface,-105,32.5983,9e-07
2017-12-12 00:00:00,2017-12-12 00:00:00,PRATE,surface,-104.063,32.5983,1.3e-06
2017-12-12 00:00:00,2017-12-12 00:00:00,PRATE,surface,-103.125,32.5983,2.1e-06
2017-12-12 00:00:00,2017-12-12 00:00:00,PRATE,surface,-102.188,32.5983,1.5e-06
2017-12-12 00:00:00,2017-12-12 00:00:00,PRATE,surface,-101.25,32.5983,1.2e-06
2017-12-12 00:00:00,2017-12-12 00:00:00,PRATE,surface,-100.313,32.5983,1.3e-06
2017-12-12 00:00:00,2017-12-12 00:00:00,PRATE,surface,-99.3754,32.5983,1.7e-06
2017-12-12 00:00:00,2017-12-12 00:00:00,PRATE,surface,-98.4379,32.5983,3.8e-06
2017-12-12 00:00:00,2017-12-12 00:00:00,PRATE,surface,-97.5004,32.5983,8e-06
2017-12-12 00:00:00,2017-12-12 00:00:00,PRATE,surface,-96.5629,32.5983,1.71e-05
2017-12-12 00:00:00,2017-12-12 00:00:00,PRATE,surface,-95.6254,32.5983,3.32e-05
2017-12-12 00:00:00,2017-12-12 00:00:00,PRATE,surface,-94.6879,32.5983,4.74e-05
2017-12-12 00:00:00,2017-12-12 00:00:00,PRATE,surface,-93.7504,32.5983,5.22e-05
2017-12-12 00:00:00,2017-12-12 00:00:00,PRATE,surface,-92.8129,32.5983,6.22e-05
2017-12-12 00:00:00,2017-12-12 00:00:00,PRATE,surface,-107.813,33.5432,7.1e-06
2017-12-12 00:00:00,2017-12-12 00:00:00,PRATE,surface,-106.875,33.5432,3.3e-06
2017-12-12 00:00:00,2017-12-12 00:00:00,PRATE,surface,-105.938,33.5432,2.9e-06
2017-12-12 00:00:00,2017-12-12 00:00:00,PRATE,surface,-105,33.5432,2.6e-06
2017-12-12 00:00:00,2017-12-12 00:00:00,PRATE,surface,-104.063,33.5432,3.2e-06
2017-12-12 00:00:00,2017-12-12 00:00:00,PRATE,surface,-103.125,33.5432,2.9e-06
2017-12-12 00:00:00,2017-12-12 00:00:00,PRATE,surface,-102.188,33.5432,1.9e-06
2017-12-12 00:00:00,2017-12-12 00:00:00,PRATE,surface,-101.25,33.5432,1.9e-06
2017-12-12 00:00:00,2017-12-12 00:00:00,PRATE,surface,-100.313,33.5432,1.7e-06
2017-12-12 00:00:00,2017-12-12 00:00:00,PRATE,surface,-99.3754,33.5432,1.9e-06
2017-12-12 00:00:00,2017-12-12 00:00:00,PRATE,surface,-98.4379,33.5432,4e-06
2017-12-12 00:00:00,2017-12-12 00:00:00,PRATE,surface,-97.5004,33.5432,7.6e-06
2017-12-12 00:00:00,2017-12-12 00:00:00,PRATE,surface,-96.5629,33.5432,1.31e-05
2017-12-12 00:00:00,2017-12-12 00:00:00,PRATE,surface,-95.6254,33.5432,2.2e-05
2017-12-12 00:00:00,2017-12-12 00:00:00,PRATE,surface,-94.6879,33.5432,3.57e-05
2017-12-12 00:00:00,2017-12-12 00:00:00,PRATE,surface,-93.7504,33.5432,5.02e-05
2017-12-12 00:00:00,2017-12-12 00:00:00,PRATE,surface,-92.8129,33.5432,5.42e-05
2017-12-12 00:00:00,2017-12-12 00:00:00,PRATE,surface,-107.813,34.4881,8.2e-06
2017-12-12 00:00:00,2017-12-12 00:00:00,PRATE,surface,-106.875,34.4881,6.6e-06
2017-12-12 00:00:00,2017-12-12 00:00:00,PRATE,surface,-105.938,34.4881,6.6e-06
2017-12-12 00:00:00,2017-12-12 00:00:00,PRATE,surface,-105,34.4881,7.8e-06
2017-12-12 00:00:00,2017-12-12 00:00:00,PRATE,surface,-104.063,34.4881,6.4e-06
2017-12-12 00:00:00,2017-12-12 00:00:00,PRATE,surface,-103.125,34.4881,4.4e-06
2017-12-12 00:00:00,2017-12-12 00:00:00,PRATE,surface,-102.188,34.4881,3.9e-06
2017-12-12 00:00:00,2017-12-12 00:00:00,PRATE,surface,-101.25,34.4881,5e-06
2017-12-12 00:00:00,2017-12-12 00:00:00,PRATE,surface,-100.313,34.4881,5e-06
2017-12-12 00:00:00,2017-12-12 00:00:00,PRATE,surface,-99.3754,34.4881,4.6e-06
2017-12-12 00:00:00,2017-12-12 00:00:00,PRATE,surface,-98.4379,34.4881,5.7e-06
2017-12-12 00:00:00,2017-12-12 00:00:00,PRATE,surface,-97.5004,34.4881,8.5e-06
2017-12-12 00:00:00,2017-12-12 00:00:00,PRATE,surface,-96.5629,34.4881,1.16e-05
2017-12-12 00:00:00,2017-12-12 00:00:00,PRATE,surface,-95.6254,34.4881,1.58e-05
2017-12-12 00:00:00,2017-12-12 00:00:00,PRATE,surface,-94.6879,34.4881,2.52e-05
2017-12-12 00:00:00,2017-12-12 00:00:00,PRATE,surface,-93.7504,34.4881,3.79e-05
2017-12-12 00:00:00,2017-12-12 00:00:00,PRATE,surface,-92.8129,34.4881,4.29e-05
2017-12-12 00:00:00,2017-12-12 00:00:00,PRATE,surface,-107.813,35.4329,1.77e-05
2017-12-12 00:00:00,2017-12-12 00:00:00,PRATE,surface,-106.875,35.4329,1.73e-05
2017-12-12 00:00:00,2017-12-12 00:00:00,PRATE,surface,-105.938,35.4329,1.11e-05
2017-12-12 00:00:00,2017-12-12 00:00:00,PRATE,surface,-105,35.4329,8.2e-06
2017-12-12 00:00:00,2017-12-12 00:00:00,PRATE,surface,-104.063,35.4329,7.8e-06
2017-12-12 00:00:00,2017-12-12 00:00:00,PRATE,surface,-103.125,35.4329,6.3e-06
2017-12-12 00:00:00,2017-12-12 00:00:00,PRATE,surface,-102.188,35.4329,6.5e-06
2017-12-12 00:00:00,2017-12-12 00:00:00,PRATE,surface,-101.25,35.4329,7.9e-06
2017-12-12 00:00:00,2017-12-12 00:00:00,PRATE,surface,-100.313,35.4329,7.3e-06
2017-12-12 00:00:00,2017-12-12 00:00:00,PRATE,surface,-99.3754,35.4329,6.5e-06
2017-12-12 00:00:00,2017-12-12 00:00:00,PRATE,surface,-98.4379,35.4329,7.4e-06
2017-12-12 00:00:00,2017-12-12 00:00:00,PRATE,surface,-97.5004,35.4329,8.5e-06
2017-12-12 00:00:00,2017-12-12 00:00:00,PRATE,surface,-96.5629,35.4329,9.2e-06
2017-12-12 00:00:00,2017-12-12 00:00:00,PRATE,surface,-95.6254,35.4329,1.15e-05
2017-12-12 00:00:00,2017-12-12 00:00:00,PRATE,surface,-94.6879,35.4329,1.61e-05
2017-12-12 00:00:00,2017-12-12 00:00:00,PRATE,surface,-93.7504,35.4329,2.23e-05
2017-12-12 00:00:00,2017-12-12 00:00:00,PRATE,surface,-92.8129,35.4329,2.98e-05
2017-12-12 00:00:00,2017-12-12 00:00:00,PRATE,surface,-107.813,36.3778,3.97e-05
2017-12-12 00:00:00,2017-12-12 00:00:00,PRATE,surface,-106.875,36.3778,3.71e-05
2017-12-12 00:00:00,2017-12-12 00:00:00,PRATE,surface,-105.938,36.3778,1.83e-05
2017-12-12 00:00:00,2017-12-12 00:00:00,PRATE,surface,-105,36.3778,9e-06
2017-12-12 00:00:00,2017-12-12 00:00:00,PRATE,surface,-104.063,36.3778,1.06e-05
2017-12-12 00:00:00,2017-12-12 00:00:00,PRATE,surface,-103.125,36.3778,1.08e-05
2017-12-12 00:00:00,2017-12-12 00:00:00,PRATE,surface,-102.188,36.3778,1.3e-05
2017-12-12 00:00:00,2017-12-12 00:00:00,PRATE,surface,-101.25,36.3778,1.2e-05
2017-12-12 00:00:00,2017-12-12 00:00:00,PRATE,surface,-100.313,36.3778,1.06e-05
2017-12-12 00:00:00,2017-12-12 00:00:00,PRATE,surface,-99.3754,36.3778,1.08e-05
2017-12-12 00:00:00,2017-12-12 00:00:00,PRATE,surface,-98.4379,36.3778,1.13e-05
2017-12-12 00:00:00,2017-12-12 00:00:00,PRATE,surface,-97.5004,36.3778,1.17e-05
2017-12-12 00:00:00,2017-12-12 00:00:00,PRATE,surface,-96.5629,36.3778,1.23e-05
2017-12-12 00:00:00,2017-12-12 00:00:00,PRATE,surface,-95.6254,36.3778,1.26e-05
2017-12-12 00:00:00,2017-12-12 00:00:00,PRATE,surface,-94.6879,36.3778,1.37e-05
2017-12-12 00:00:00,2017-12-12 00:00:00,PRATE,surface,-93.7504,36.3778,1.58e-05
2017-12-12 00:00:00,2017-12-12 00:00:00,PRATE,surface,-92.8129,36.3778,1.72e-05
