2016-12-11 00:00:00,2016-12-11 00:00:00,TMP,surface,-107.813,25.0393,301.363
2016-12-11 00:00:00,2016-12-11 00:00:00,TMP,surface,-106.875,25.0393,294.109
2016-12-11 00:00:00,2016-12-11 00:00:00,TMP,surface,-105.938,25.0393,290.002
2016-12-11 00:00:00,2016-12-11 00:00:00,TMP,surface,-105,25.0393,288.669
2016-12-11 00:00:00,2016-12-11 00:00:00,TMP,surface,-104.063,25.0393,292.288
2016-12-11 00:00:00,2016-12-11 00:00:00,TMP,surface,-103.125,25.0393,295.782
2016-12-11 00:00:00,2016-12-11 00:00:00,TMP,surface,-102.188,25.0393,295.285
2016-12-11 00:00:00,2016-12-11 00:00:00,TMP,surface,-101.25,25.0393,292.666
2016-12-11 00:00:00,2016-12-11 00:00:00,TMP,surface,-100.313,25.0393,293.085
2016-12-11 00:00:00,2016-12-11 00:00:00,TMP,surface,-99.3754,25.0393,297.098
2016-12-11 00:00:00,2016-12-11 00:00:00,TMP,surface,-98.4379,25.0393,300.877
2016-12-11 00:00:00,2016-12-11 00:00:00,TMP,surface,-97.5004,25.0393,303.037
2016-12-11 00:00:00,2016-12-11 00:00:00,TMP,surface,-96.5629,25.0393,303.374
2016-12-11 00:00:00,2016-12-11 00:00:00,TMP,surface,-95.6254,25.0393,303.55
2016-12-11 00:00:00,2016-12-11 00:00:00,TMP,surface,-94.6879,25.0393,303.72
2016-12-11 00:00:00,2016-12-11 00:00:00,TMP,surface,-93.7504,25.0393,303.659
2016-12-11 00:00:00,2016-12-11 00:00:00,TMP,surface,-92.8129,25.0393,303.494
2016-12-11 00:00:00,2016-12-11 00:00:00,TMP,surface,-107.813,25.9842,296.166
2016-12-11 00:00:00,2016-12-11 00:00:00,TMP,surface,-106.875,25.9842,290.944
2016-12-11 00:00:00,2016-12-11 00:00:00,TMP,surface,-105.938,25.9842,288.842
2016-12-11 00:00:00,2016-12-11 00:00:00,TMP,surface,-105,25.9842,290.554
2016-12-11 00:00:00,2016-12-11 00:00:00,TMP,surface,-104.063,25.9842,295.563
2016-12-11 00:00:00,2016-12-11 00:00:00,TMP,surface,-103.125,25.9842,297.995
2016-12-11 00:00:00,2016-12-11 00:00:00,TMP,surface,-102.188,25.9842,296.848
2016-12-11 00:00:00,2016-12-11 00:00:00,TMP,surface,-101.25,25.9842,295.371
2016-12-11 00:00:00,2016-12-11 00:00:00,TMP,surface,-100.313,25.9842,295.891
2016-12-11 00:00:00,2016-12-11 00:00:00,TMP,surface,-99.3754,25.9842,299.461
2016-12-11 00:00:00,2016-12-11 00:00:00,TMP,surface,-98.4379,25.9842,301.766
2016-12-11 00:00:00,2016-12-11 00:00:00,TMP,surface,-97.5004,25.9842,301.768
2016-12-11 00:00:00,2016-12-11 00:00:00,TMP,surface,-96.5629,25.9842,302.755
2016-12-11 00:00:00,2016-12-11 00:00:00,TMP,surface,-95.6254,25.9842,303.317
2016-12-11 00:00:00,2016-12-11 00:00:00,TMP,surface,-94.6879,25.9842,303.458
2016-12-11 00:00:00,2016-12-11 00:00:00,TMP,surface,-93.7504,25.9842,303.47
2016-12-11 00:00:00,2016-12-11 00:00:00,TMP,surface,-92.8129,25.9842,303.482
2016-12-11 00:00:00,2016-12-11 00:00:00,TMP,surface,-107.813,26.929,292.058
2016-12-11 00:00:00,2016-12-11 00:00:00,TMP,surface,-106.875,26.929,289.197
2016-12-11 00:00:00,2016-12-11 00:00:00,TMP,surface,-105.938,26.929,290.142
2016-12-11 00:00:00,2016-12-11 00:00:00,TMP,surface,-105,26.929,293.502
2016-12-11 00:00:00,2016-12-11 00:00:00,TMP,surface,-104.063,26.929,296.488
2016-12-11 00:00:00,2016-12-11 00:00:00,TMP,surface,-103.125,26.929,296.16
2016-12-11 00:00:00,2016-12-11 00:00:00,TMP,surface,-102.188,26.929,295.638
2016-12-11 00:00:00,2016-12-11 00:00:00,TMP,surface,-101.25,26.929,296.362
2016-12-11 00:00:00,2016-12-11 00:00:00,TMP,surface,-100.313,26.929,298.227
2016-12-11 00:00:00,2016-12-11 00:00:00,TMP,surface,-99.3754,26.929,300.251
2016-12-11 00:00:00,2016-12-11 00:00:00,TMP,surface,-98.4379,26.929,300.422
2016-12-11 00:00:00,2016-12-11 00:00:00,TMP,surface,-97.5004,26.929,300.982
2016-12-11 00:00:00,2016-12-11 00:00:00,TMP,surface,-96.5629,26.929,301.814
2016-12-11 00:00:00,2016-12-11 00:00:00,TMP,surface,-95.6254,26.929,302.782
2016-12-11 00:00:00,2016-12-11 00:00:00,TMP,surface,-94.6879,26.929,303.134
2016-12-11 00:00:00,2016-12-11 00:00:00,TMP,surface,-93.7504,26.929,303.061
2016-12-11 00:00:00,2016-12-11 00:00:00,TMP,surface,-92.8129,26.929,303
2016-12-11 00:00:00,2016-12-11 00:00:00,TMP,surface,-107.813,27.8739,290.35
2016-12-11 00:00:00,2016-12-11 00:00:00,TMP,surface,-106.875,27.8739,288.958
2016-12-11 00:00:00,2016-12-11 00:00:00,TMP,surface,-105.938,27.8739,291.84
2016-12-11 00:00:00,2016-12-11 00:00:00,TMP,surface,-105,27.8739,295.469
2016-12-11 00:00:00,2016-12-11 00:00:00,TMP,surface,-104.063,27.8739,295.906
2016-12-11 00:00:00,2016-12-11 00:00:00,TMP,surface,-103.125,27.8739,294.464
2016-12-11 00:00:00,2016-12-11 00:00:00,TMP,surface,-102.188,27.8739,294.328
2016-12-11 00:00:00,2016-12-11 00:00:00,TMP,surface,-101.25,27.8739,296.365
2016-12-11 00:00:00,2016-12-11 00:00:00,TMP,surface,-100.313,27.8739,298.475
2016-12-11 00:00:00,2016-12-11 00:00:00,TMP,surface,-99.3754,27.8739,299.229
2016-12-11 00:00:00,2016-12-11 00:00:00,TMP,surface,-98.4379,27.8739,299.195
2016-12-11 00:00:00,2016-12-11 00:00:00,TMP,surface,-97.5004,27.8739,300.472
2016-12-11 00:00:00,2016-12-11 00:00:00,TMP,surface,-96.5629,27.8739,301.981
2016-12-11 00:00:00,2016-12-11 00:00:00,TMP,surface,-95.6254,27.8739,302.301
2016-12-11 00:00:00,2016-12-11 00:00:00,TMP,surface,-94.6879,27.8739,302.523
2016-12-11 00:00:00,2016-12-11 00:00:00,TMP,surface,-93.7504,27.8739,302.581
2016-12-11 00:00:00,2016-12-11 00:00:00,TMP,surface,-92.8129,27.8739,302.531
2016-12-11 00:00:00,2016-12-11 00:00:00,TMP,surface,-107.813,28.8188,289.427
2016-12-11 00:00:00,2016-12-11 00:00:00,TMP,surface,-106.875,28.8188,289.781
2016-12-11 00:00:00,2016-12-11 00:00:00,TMP,surface,-105.938,28.8188,293.365
2016-12-11 00:00:00,2016-12-11 00:00:00,TMP,surface,-105,28.8188,296.013
2016-12-11 00:00:00,2016-12-11 00:00:00,TMP,surface,-104.063,28.8188,294.915
2016-12-11 00:00:00,2016-12-11 00:00:00,TMP,surface,-103.125,28.8188,293.653
2016-12-11 00:00:00,2016-12-11 00:00:00,TMP,surface,-102.188,28.8188,294.259
2016-12-11 00:00:00,2016-12-11 00:00:00,TMP,surface,-101.25,28.8188,296.28
2016-12-11 00:00:00,2016-12-11 00:00:00,TMP,surface,-100.313,28.8188,297.542
2016-12-11 00:00:00,2016-12-11 00:00:00,TMP,surface,-99.3754,28.8188,297.662
2016-12-11 00:00:00,2016-12-11 00:00:00,TMP,surface,-98.4379,28.8188,297.85
2016-12-11 00:00:00,2016-12-11 00:00:00,TMP,surface,-97.5004,28.8188,298.643
2016-12-11 00:00:00,2016-12-11 00:00:00,TMP,surface,-96.5629,28.8188,299.387
2016-12-11 00:00:00,2016-12-11 00:00:00,TMP,surface,-95.6254,28.8188,300.336
2016-12-11 00:00:00,2016-12-11 00:00:00,TMP,surface,-94.6879,28.8188,301.621
2016-12-11 00:00:00,2016-12-11 00:00:00,TMP,surface,-93.7504,28.8188,301.813
2016-12-11 00:00:00,2016-12-11 00:00:00,TMP,surface,-92.8129,28.8188,301.842
2016-12-11 00:00:00,2016-12-11 00:00:00,TMP,surface,-107.813,29.7637,291.162
2016-12-11 00:00:00,2016-12-11 00:00:00,TMP,surface,-106.875,29.7637,292.106
2016-12-11 00:00:00,2016-12-11 00:00:00,TMP,surface,-105.938,29.7637,294.749
2016-12-11 00:00:00,2016-12-11 00:00:00,TMP,surface,-105,29.7637,295.091
2016-12-11 00:00:00,2016-12-11 00:00:00,TMP,surface,-104.063,29.7637,294.52
2016-12-11 00:00:00,2016-12-11 00:00:00,TMP,surface,-103.125,29.7637,294.475
2016-12-11 00:00:00,2016-12-11 00:00:00,TMP,surface,-102.188,29.7637,295.354
2016-12-11 00:00:00,2016-12-11 00:00:00,TMP,surface,-101.25,29.7637,296.216
2016-12-11 00:00:00,2016-12-11 00:00:00,TMP,surface,-100.313,29.7637,296.114
2016-12-11 00:00:00,2016-12-11 00:00:00,TMP,surface,-99.3754,29.7637,295.91
2016-12-11 00:00:00,2016-12-11 00:00:00,TMP,surface,-98.4379,29.7637,296.344
2016-12-11 00:00:00,2016-12-11 00:00:00,TMP,surface,-97.5004,29.7637,297.322
2016-12-11 00:00:00,2016-12-11 00:00:00,TMP,surface,-96.5629,29.7637,298.048
2016-12-11 00:00:00,2016-12-11 00:00:00,TMP,surface,-95.6254,29.7637,298.518
2016-12-11 00:00:00,2016-12-11 00:00:00,TMP,surface,-94.6879,29.7637,299.712
2016-12-11 00:00:00,2016-12-11 00:00:00,TMP,surface,-93.7504,29.7637,300.901
2016-12-11 00:00:00,2016-12-11 00:00:00,TMP,surface,-92.8129,29.7637,299.97
2016-12-11 00:00:00,2016-12-11 00:00:00,TMP,surface,-107.813,30.7085,295.197
2016-12-11 00:00:00,2016-12-11 00:00:00,TMP,surface,-106.875,30.7085,296.166
2016-12-11 00:00:00,2016-12-11 00:00:00,TMP,surface,-105.938,30.7085,295.68
2016-12-11 00:00:00,2016-12-11 00:00:00,TMP,surface,-105,30.7085,294.574
2016-12-11 00:00:00,2016-12-11 00:00:00,TMP,surface,-104.063,30.7085,294.194
2016-12-11 00:00:00,2016-12-11 00:00:00,TMP,surface,-103.125,30.7085,295.134
2016-12-11 00:00:00,2016-12-11 00:00:00,TMP,surface,-102.188,30.7085,295.813
2016-12-11 00:00:00,2016-12-11 00:00:00,TMP,surface,-101.25,30.7085,295.672
2016-12-11 00:00:00,2016-12-11 00:00:00,TMP,surface,-100.313,30.7085,295.312
2016-12-11 00:00:00,2016-12-11 00:00:00,TMP,surface,-99.3754,30.7085,295.365
2016-12-11 00:00:00,2016-12-11 00:00:00,TMP,surface,-98.4379,30.7085,296.072
2016-12-11 00:00:00,2016-12-11 00:00:00,TMP,surface,-97.5004,30.7085,296.992
2016-12-11 00:00:00,2016-12-11 00:00:00,TMP,surface,-96.5629,30.7085,297.653
2016-12-11 00:00:00,2016-12-11 00:00:00,TMP,surface,-95.6254,30.7085,298.083
2016-12-11 00:00:00,2016-12-11 00:00:00,TMP,surface,-94.6879,30.7085,298.469
2016-12-11 00:00:00,2016-12-11 00:00:00,TMP,surface,-93.7504,30.7085,298.71
2016-12-11 00:00:00,2016-12-11 00:00:00,TMP,surface,-92.8129,30.7085,298.582
2016-12-11 00:00:00,2016-12-11 00:00:00,TMP,surface,-107.813,31.6534,296.427
2016-12-11 00:00:00,2016-12-11 00:00:00,TMP,surface,-106.875,31.6534,296.762
2016-12-11 00:00:00,2016-12-11 00:00:00,TMP,surface,-105.938,31.6534,295.218
2016-12-11 00:00:00,2016-12-11 00:00:00,TMP,surface,-105,31.6534,294.365
2016-12-11 00:00:00,2016-12-11 00:00:00,TMP,surface,-104.063,31.6534,294.44
2016-12-11 00:00:00,2016-12-11 00:00:00,TMP,surface,-103.125,31.6534,295.368
2016-12-11 00:00:00,2016-12-11 00:00:00,TMP,surface,-102.188,31.6534,295.63
2016-12-11 00:00:00,2016-12-11 00:00:00,TMP,surface,-101.25,31.6534,295.28
2016-12-11 00:00:00,2016-12-11 00:00:00,TMP,surface,-100.313,31.6534,295.099
2016-12-11 00:00:00,2016-12-11 00:00:00,TMP,surface,-99.3754,31.6534,295.499
2016-12-11 00:00:00,2016-12-11 00:00:00,TMP,surface,-98.4379,31.6534,296.336
2016-12-11 00:00:00,2016-12-11 00:00:00,TMP,surface,-97.5004,31.6534,297.155
2016-12-11 00:00:00,2016-12-11 00:00:00,TMP,surface,-96.5629,31.6534,297.72
2016-12-11 00:00:00,2016-12-11 00:00:00,TMP,surface,-95.6254,31.6534,298.053
2016-12-11 00:00:00,2016-12-11 00:00:00,TMP,surface,-94.6879,31.6534,298.214
2016-12-11 00:00:00,2016-12-11 00:00:00,TMP,surface,-93.7504,31.6534,298.251
2016-12-11 00:00:00,2016-12-11 00:00:00,TMP,surface,-92.8129,31.6534,298.123
2016-12-11 00:00:00,2016-12-11 00:00:00,TMP,surface,-107.813,32.5983,293.258
2016-12-11 00:00:00,2016-12-11 00:00:00,TMP,surface,-106.875,32.5983,293.579
2016-12-11 00:00:00,2016-12-11 00:00:00,TMP,surface,-105.938,32.5983,293.571
2016-12-11 00:00:00,2016-12-11 00:00:00,TMP,surface,-105,32.5983,293.411
2016-12-11 00:00:00,2016-12-11 00:00:00,TMP,surface,-104.063,32.5983,294.493
2016-12-11 00:00:00,2016-12-11 00:00:00,TMP,surface,-103.125,32.5983,295.194
2016-12-11 00:00:00,2016-12-11 00:00:00,TMP,surface,-102.188,32.5983,294.917
2016-12-11 00:00:00,2016-12-11 00:00:00,TMP,surface,-101.25,32.5983,294.834
2016-12-11 00:00:00,2016-12-11 00:00:00,TMP,surface,-100.313,32.5983,295.418
2016-12-11 00:00:00,2016-12-11 00:00:00,TMP,surface,-99.3754,32.5983,296.251
2016-12-11 00:00:00,2016-12-11 00:00:00,TMP,surface,-98.4379,32.5983,296.792
2016-12-11 00:00:00,2016-12-11 00:00:00,TMP,surface,-97.5004,32.5983,297.098
2016-12-11 00:00:00,2016-12-11 00:00:00,TMP,surface,-96.5629,32.5983,297.464
2016-12-11 00:00:00,2016-12-11 00:00:00,TMP,surface,-95.6254,32.5983,297.864
2016-12-11 00:00:00,2016-12-11 00:00:00,TMP,surface,-94.6879,32.5983,297.986
2016-12-11 00:00:00,2016-12-11 00:00:00,TMP,surface,-93.7504,32.5983,297.84
2016-12-11 00:00:00,2016-12-11 00:00:00,TMP,surface,-92.8129,32.5983,298.034
2016-12-11 00:00:00,2016-12-11 00:00:00,TMP,surface,-107.813,33.5432,289.672
2016-12-11 00:00:00,2016-12-11 00:00:00,TMP,surface,-106.875,33.5432,290.826
2016-12-11 00:00:00,2016-12-11 00:00:00,TMP,surface,-105.938,33.5432,291.573
2016-12-11 00:00:00,2016-12-11 00:00:00,TMP,surface,-105,33.5432,292.382
2016-12-11 00:00:00,2016-12-11 00:00:00,TMP,surface,-104.063,33.5432,294.141
2016-12-11 00:00:00,2016-12-11 00:00:00,TMP,surface,-103.125,33.5432,294.27
2016-12-11 00:00:00,2016-12-11 00:00:00,TMP,surface,-102.188,33.5432,294.019
2016-12-11 00:00:00,2016-12-11 00:00:00,TMP,surface,-101.25,33.5432,294.336
2016-12-11 00:00:00,2016-12-11 00:00:00,TMP,surface,-100.313,33.5432,295.29
2016-12-11 00:00:00,2016-12-11 00:00:00,TMP,surface,-99.3754,33.5432,296.176
2016-12-11 00:00:00,2016-12-11 00:00:00,TMP,surface,-98.4379,33.5432,296.323
2016-12-11 00:00:00,2016-12-11 00:00:00,TMP,surface,-97.5004,33.5432,296.23
2016-12-11 00:00:00,2016-12-11 00:00:00,TMP,surface,-96.5629,33.5432,296.661
2016-12-11 00:00:00,2016-12-11 00:00:00,TMP,surface,-95.6254,33.5432,297.286
2016-12-11 00:00:00,2016-12-11 00:00:00,TMP,surface,-94.6879,33.5432,297.414
2016-12-11 00:00:00,2016-12-11 00:00:00,TMP,surface,-93.7504,33.5432,297.219
2016-12-11 00:00:00,2016-12-11 00:00:00,TMP,surface,-92.8129,33.5432,297.059
2016-12-11 00:00:00,2016-12-11 00:00:00,TMP,surface,-107.813,34.4881,289.054
2016-12-11 00:00:00,2016-12-11 00:00:00,TMP,surface,-106.875,34.4881,290.331
2016-12-11 00:00:00,2016-12-11 00:00:00,TMP,surface,-105.938,34.4881,291.072
2016-12-11 00:00:00,2016-12-11 00:00:00,TMP,surface,-105,34.4881,291.936
2016-12-11 00:00:00,2016-12-11 00:00:00,TMP,surface,-104.063,34.4881,292.931
2016-12-11 00:00:00,2016-12-11 00:00:00,TMP,surface,-103.125,34.4881,293.496
2016-12-11 00:00:00,2016-12-11 00:00:00,TMP,surface,-102.188,34.4881,293.662
2016-12-11 00:00:00,2016-12-11 00:00:00,TMP,surface,-101.25,34.4881,293.92
2016-12-11 00:00:00,2016-12-11 00:00:00,TMP,surface,-100.313,34.4881,294.682
2016-12-11 00:00:00,2016-12-11 00:00:00,TMP,surface,-99.3754,34.4881,295.235
2016-12-11 00:00:00,2016-12-11 00:00:00,TMP,surface,-98.4379,34.4881,295.346
2016-12-11 00:00:00,2016-12-11 00:00:00,TMP,surface,-97.5004,34.4881,295.405
2016-12-11 00:00:00,2016-12-11 00:00:00,TMP,surface,-96.5629,34.4881,295.89
2016-12-11 00:00:00,2016-12-11 00:00:00,TMP,surface,-95.6254,34.4881,296.474
2016-12-11 00:00:00,2016-12-11 00:00:00,TMP,surface,-94.6879,34.4881,296.33
2016-12-11 00:00:00,2016-12-11 00:00:00,TMP,surface,-93.7504,34.4881,295.682
2016-12-11 00:00:00,2016-12-11 00:00:00,TMP,surface,-92.8129,34.4881,295.461
2016-12-11 00:00:00,2016-12-11 00:00:00,TMP,surface,-107.813,35.4329,290.291
2016-12-11 00:00:00,2016-12-11 00:00:00,TMP,surface,-106.875,35.4329,290.214
2016-12-11 00:00:00,2016-12-11 00:00:00,TMP,surface,-105.938,35.4329,289.955
2016-12-11 00:00:00,2016-12-11 00:00:00,TMP,surface,-105,35.4329,290.08
2016-12-11 00:00:00,2016-12-11 00:00:00,TMP,surface,-104.063,35.4329,291.973
2016-12-11 00:00:00,2016-12-11 00:00:00,TMP,surface,-103.125,35.4329,293.118
2016-12-11 00:00:00,2016-12-11 00:00:00,TMP,surface,-102.188,35.4329,293.389
2016-12-11 00:00:00,2016-12-11 00:00:00,TMP,surface,-101.25,35.4329,293.642
2016-12-11 00:00:00,2016-12-11 00:00:00,TMP,surface,-100.313,35.4329,293.859
2016-12-11 00:00:00,2016-12-11 00:00:00,TMP,surface,-99.3754,35.4329,294.139
2016-12-11 00:00:00,2016-12-11 00:00:00,TMP,surface,-98.4379,35.4329,294.405
2016-12-11 00:00:00,2016-12-11 00:00:00,TMP,surface,-97.5004,35.4329,294.787
2016-12-11 00:00:00,2016-12-11 00:00:00,TMP,surface,-96.5629,35.4329,295.419
2016-12-11 00:00:00,2016-12-11 00:00:00,TMP,surface,-95.6254,35.4329,295.826
2016-12-11 00:00:00,2016-12-11 00:00:00,TMP,surface,-94.6879,35.4329,295.461
2016-12-11 00:00:00,2016-12-11 00:00:00,TMP,surface,-93.7504,35.4329,294.643
2016-12-11 00:00:00,2016-12-11 00:00:00,TMP,surface,-92.8129,35.4329,294.011
2016-12-11 00:00:00,2016-12-11 00:00:00,TMP,surface,-107.813,36.3778,289.534
2016-12-11 00:00:00,2016-12-11 00:00:00,TMP,surface,-106.875,36.3778,287.44
2016-12-11 00:00:00,2016-12-11 00:00:00,TMP,surface,-105.938,36.3778,287.43
2016-12-11 00:00:00,2016-12-11 00:00:00,TMP,surface,-105,36.3778,287.835
2016-12-11 00:00:00,2016-12-11 00:00:00,TMP,surface,-104.063,36.3778,289.986
2016-12-11 00:00:00,2016-12-11 00:00:00,TMP,surface,-103.125,36.3778,291.814
2016-12-11 00:00:00,2016-12-11 00:00:00,TMP,surface,-102.188,36.3778,292.827
2016-12-11 00:00:00,2016-12-11 00:00:00,TMP,surface,-101.25,36.3778,293.035
2016-12-11 00:00:00,2016-12-11 00:00:00,TMP,surface,-100.313,36.3778,293.165
2016-12-11 00:00:00,2016-12-11 00:00:00,TMP,surface,-99.3754,36.3778,293.363
2016-12-11 00:00:00,2016-12-11 00:00:00,TMP,surface,-98.4379,36.3778,293.614
2016-12-11 00:00:00,2016-12-11 00:00:00,TMP,surface,-97.5004,36.3778,294.086
2016-12-11 00:00:00,2016-12-11 00:00:00,TMP,surface,-96.5629,36.3778,294.701
2016-12-11 00:00:00,2016-12-11 00:00:00,TMP,surface,-95.6254,36.3778,294.859
2016-12-11 00:00:00,2016-12-11 00:00:00,TMP,surface,-94.6879,36.3778,294.242
2016-12-11 00:00:00,2016-12-11 00:00:00,TMP,surface,-93.7504,36.3778,293.466
2016-12-11 00:00:00,2016-12-11 00:00:00,TMP,surface,-92.8129,36.3778,293.08
2016-12-11 00:00:00,2016-12-11 00:00:00,PRATE,surface,-107.813,25.0393,6.85e-05
2016-12-11 00:00:00,2016-12-11 00:00:00,PRATE,surface,-106.875,25.0393,0.0002236
2016-12-11 00:00:00,2016-12-11 00:00:00,PRATE,surface,-105.938,25.0393,0.0002437
2016-12-11 00:00:00,2016-12-11 00:00:00,PRATE,surface,-105,25.0393,0.0001074
2016-12-11 00:00:00,2016-12-11 00:00:00,PRATE,surface,-104.063,25.0393,6.57e-05
2016-12-11 00:00:00,2016-12-11 00:00:00,PRATE,surface,-103.125,25.0393,2.46e-05
2016-12-11 00:00:00,2016-12-11 00:00:00,PRATE,surface,-102.188,25.0393,2.16e-05
2016-12-11 00:00:00,2016-12-11 00:00:00,PRATE,surface,-101.25,25.0393,2.98e-05
2016-12-11 00:00:00,2016-12-11 00:00:00,PRATE,surface,-100.313,25.0393,5.57e-05
2016-12-11 00:00:00,2016-12-11 00:00:00,PRATE,surface,-99.3754,25.0393,3.36e-05
2016-12-11 00:00:00,2016-12-11 00:00:00,PRATE,surface,-98.4379,25.0393,2.34e-05
2016-12-11 00:00:00,2016-12-11 00:00:00,PRATE,surface,-97.5004,25.0393,5.06e-05
2016-12-11 00:00:00,2016-12-11 00:00:00,PRATE,surface,-96.5629,25.0393,4.34e-05
2016-12-11 00:00:00,2016-12-11 00:00:00,PRATE,surface,-95.6254,25.0393,3.12e-05
2016-12-11 00:00:00,2016-12-11 00:00:00,PRATE,surface,-94.6879,25.0393,3.25e-05
2016-12-11 00:00:00,2016-12-11 00:00:00,PRATE,surface,-93.7504,25.0393,7.5e-05
2016-12-11 00:00:00,2016-12-11 00:00:00,PRATE,surface,-92.8129,25.0393,0.0001009
2016-12-11 00:00:00,2016-12-11 00:00:00,PRATE,surface,-107.813,25.9842,0.0001408
2016-12-11 00:00:00,2016-12-11 00:00:00,PRATE,surface,-106.875,25.9842,0.0002404
2016-12-11 00:00:00,2016-12-11 00:00:00,PRATE,surface,-105.938,25.9842,0.0001725
2016-12-11 00:00:00,2016-12-11 00:00:00,PRATE,surface,-105,25.9842,0.0001297
2016-12-11 00:00:00,2016-12-11 00:00:00,PRATE,surface,-104.063,25.9842,4.04e-05
2016-12-11 00:00:00,2016-12-11 00:00:00,PRATE,surface,-103.125,25.9842,1.36e-05
2016-12-11 00:00:00,2016-12-11 00:00:00,PRATE,surface,-102.188,25.9842,1.71e-05
2016-12-11 00:00:00,2016-12-11 00:00:00,PRATE,surface,-101.25,25.9842,4.02e-05
2016-12-11 00:00:00,2016-12-11 00:00:00,PRATE,surface,-100.313,25.9842,7.13e-05
2016-12-11 00:00:00,2016-12-11 00:00:00,PRATE,surface,-99.3754,25.9842,4.02e-05
2016-12-11 00:00:00,2016-12-11 00:00:00,PRATE,surface,-98.4379,25.9842,3.59e-05
2016-12-11 00:00:00,2016-12-11 00:00:00,PRATE,surface,-97.5004,25.9842,5.71e-05
2016-12-11 00:00:00,2016-12-11 00:00:00,PRATE,surface,-96.5629,25.9842,6.97e-05
2016-12-11 00:00:00,2016-12-11 00:00:00,PRATE,surface,-95.6254,25.9842,0.0001021
2016-12-11 00:00:00,2016-12-11 00:00:00,PRATE,surface,-94.6879,25.9842,8.11e-05
2016-12-11 00:00:00,2016-12-11 00:00:00,PRATE,surface,-93.7504,25.9842,9.65e-05
2016-12-11 00:00:00,2016-12-11 00:00:00,PRATE,surface,-92.8129,25.9842,9.03e-05
2016-12-11 00:00:00,2016-12-11 00:00:00,PRATE,surface,-107.813,26.929,0.000171
2016-12-11 00:00:00,2016-12-11 00:00:00,PRATE,surface,-106.875,26.929,0.0001517
2016-12-11 00:00:00,2016-12-11 00:00:00,PRATE,surface,-105.938,26.929,0.0001215
2016-12-11 00:00:00,2016-12-11 00:00:00,PRATE,surface,-105,26.929,0.0001141
2016-12-11 00:00:00,2016-12-11 00:00:00,PRATE,surface,-104.063,26.929,5.49e-05
2016-12-11 00:00:00,2016-12-11 00:00:00,PRATE,surface,-103.125,26.929,4.75e-05
2016-12-11 00:00:00,2016-12-11 00:00:00,PRATE,surface,-102.188,26.929,4.09e-05
2016-12-11 00:00:00,2016-12-11 00:00:00,PRATE,surface,-101.25,26.929,7.01e-05
2016-12-11 00:00:00,2016-12-11 00:00:00,PRATE,surface,-100.313,26.929,7.28e-05
2016-12-11 00:00:00,2016-12-11 00:00:00,PRATE,surface,-99.3754,26.929,4.15e-05
2016-12-11 00:00:00,2016-12-11 00:00:00,PRATE,surface,-98.4379,26.929,6.96e-05
2016-12-11 00:00:00,2016-12-11 00:00:00,PRATE,surface,-97.5004,26.929,9.66e-05
2016-12-11 00:00:00,2016-12-11 00:00:00,PRATE,surface,-96.5629,26.929,0.0001388
2016-12-11 00:00:00,2016-12-11 00:00:00,PRATE,surface,-95.6254,26.929,0.0001135
2016-12-11 00:00:00,2016-12-11 00:00:00,PRATE,surface,-94.6879,26.929,6.85e-05
2016-12-11 00:00:00,2016-12-11 00:00:00,PRATE,surface,-93.7504,26.929,8.42e-05
2016-12-11 00:00:00,2016-12-11 00:00:00,PRATE,surface,-92.8129,26.929,8.33e-05
2016-12-11 00:00:00,2016-12-11 00:00:00,PRATE,surface,-107.813,27.8739,0.0001318
2016-12-11 00:00:00,2016-12-11 00:00:00,PRATE,surface,-106.875,27.8739,0.0001083
2016-12-11 00:00:00,2016-12-11 00:00:00,PRATE,surface,-105.938,27.8739,8.5e-05
2016-12-11 00:00:00,2016-12-11 00:00:00,PRATE,surface,-105,27.8739,5.97e-05
2016-12-11 00:00:00,2016-12-11 00:00:00,PRATE,surface,-104.063,27.8739,7.46e-05
2016-12-11 00:00:00,2016-12-11 00:00:00,PRATE,surface,-103.125,27.8739,9.03e-05
2016-12-11 00:00:00,2016-12-11 00:00:00,PRATE,surface,-102.188,27.8739,0.0001069
2016-12-11 00:00:00,2016-12-11 00:00:00,PRATE,surface,-101.25,27.8739,8.39e-05
2016-12-11 00:00:00,2016-12-11 00:00:00,PRATE,surface,-100.313,27.8739,6.7e-05
2016-12-11 00:00:00,2016-12-11 00:00:00,PRATE,surface,-99.3754,27.8739,7.25e-05
2016-12-11 00:00:00,2016-12-11 00:00:00,PRATE,surface,-98.4379,27.8739,8.24e-05
2016-12-11 00:00:00,2016-12-11 00:00:00,PRATE,surface,-97.5004,27.8739,7.23e-05
2016-12-11 00:00:00,2016-12-11 00:00:00,PRATE,surface,-96.5629,27.8739,4.78e-05
2016-12-11 00:00:00,2016-12-11 00:00:00,PRATE,surface,-95.6254,27.8739,4.35e-05
2016-12-11 00:00:00,2016-12-11 00:00:00,PRATE,surface,-94.6879,27.8739,7.77e-05
2016-12-11 00:00:00,2016-12-11 00:00:00,PRATE,surface,-93.7504,27.8739,0.0001185
2016-12-11 00:00:00,2016-12-11 00:00:00,PRATE,surface,-92.8129,27.8739,0.0001171
2016-12-11 00:00:00,2016-12-11 00:00:00,PRATE,surface,-107.813,28.8188,0.000103
2016-12-11 00:00:00,2016-12-11 00:00:00,PRATE,surface,-106.875,28.8188,8.47e-05
2016-12-11 00:00:00,2016-12-11 00:00:00,PRATE,surface,-105.938,28.8188,5.82e-05
2016-12-11 00:00:00,2016-12-11 00:00:00,PRATE,surface,-105,28.8188,4.23e-05
2016-12-11 00:00:00,2016-12-11 00:00:00,PRATE,surface,-104.063,28.8188,6.91e-05
2016-12-11 00:00:00,2016-12-11 00:00:00,PRATE,surface,-103.125,28.8188,9.15e-05
2016-12-11 00:00:00,2016-12-11 00:00:00,PRATE,surface,-102.188,28.8188,7.99e-05
2016-12-11 00:00:00,2016-12-11 00:00:00,PRATE,surface,-101.25,28.8188,6.54e-05
2016-12-11 00:00:00,2016-12-11 00:00:00,PRATE,surface,-100.313,28.8188,6.9e-05
2016-12-11 00:00:00,2016-12-11 00:00:00,PRATE,surface,-99.3754,28.8188,9.41e-05
2016-12-11 00:00:00,2016-12-11 00:00:00,PRATE,surface,-98.4379,28.8188,8.74e-05
2016-12-11 00:00:00,2016-12-11 00:00:00,PRATE,surface,-97.5004,28.8188,6.03e-05
2016-12-11 00:00:00,2016-12-11 00:00:00,PRATE,surface,-96.5629,28.8188,5.63e-05
2016-12-11 00:00:00,2016-12-11 00:00:00,PRATE,surface,-95.6254,28.8188,7.15e-05
2016-12-11 00:00:00,2016-12-11 00:00:00,PRATE,surface,-94.6879,28.8188,8.03e-05
2016-12-11 00:00:00,2016-12-11 00:00:00,PRATE,surface,-93.7504,28.8188,7.46e-05
2016-12-11 00:00:00,2016-12-11 00:00:00,PRATE,surface,-92.8129,28.8188,5.16e-05
2016-12-11 00:00:00,2016-12-11 00:00:00,PRATE,surface,-107.813,29.7637,7.11e-05
2016-12-11 00:00:00,2016-12-11 00:00:00,PRATE,surface,-106.875,29.7637,6.4e-05
2016-12-11 00:00:00,2016-12-11 00:00:00,PRATE,surface,-105.938,29.7637,4.11e-05
2016-12-11 00:00:00,2016-12-11 00:00:00,PRATE,surface,-105,29.7637,5.18e-05
2016-12-11 00:00:00,2016-12-11 00:00:00,PRATE,surface,-104.063,29.7637,7.03e-05
2016-12-11 00:00:00,2016-12-11 00:00:00,PRATE,surface,-103.125,29.7637,6.82e-05
2016-12-11 00:00:00,2016-12-11 00:00:00,PRATE,surface,-102.188,29.7637,5.38e-05
2016-12-11 00:00:00,2016-12-11 00:00:00,PRATE,surface,-101.25,29.7637,5.43e-05
2016-12-11 00:00:00,2016-12-11 00:00:00,PRATE,surface,-100.313,29.7637,8.23e-05
2016-12-11 00:00:00,2016-12-11 00:00:00,PRATE,surface,-99.3754,29.7637,8.54e-05
2016-12-11 00:00:00,2016-12-11 00:00:00,PRATE,surface,-98.4379,29.7637,6.54e-05
2016-12-11 00:00:00,2016-12-11 00:00:00,PRATE,surface,-97.5004,29.7637,4.66e-05
2016-12-11 00:00:00,2016-12-11 00:00:00,PRATE,surface,-96.5629,29.7637,4.96e-05
2016-12-11 00:00:00,2016-12-11 00:00:00,PRATE,surface,-95.6254,29.7637,5.95e-05
2016-12-11 00:00:00,2016-12-11 00:00:00,PRATE,surface,-94.6879,29.7637,5.08e-05
2016-12-11 00:00:00,2016-12-11 00:00:00,PRATE,surface,-93.7504,29.7637,3.92e-05
2016-12-11 00:00:00,2016-12-11 00:00:00,PRATE,surface,-92.8129,29.7637,2.35e-05
2016-12-11 00:00:00,2016-12-11 00:00:00,PRATE,surface,-107.813,30.7085,1.42e-05
2016-12-11 00:00:00,2016-12-11 00:00:00,PRATE,surface,-106.875,30.7085,1.43e-05
2016-12-11 00:00:00,2016-12-11 00:00:00,PRATE,surface,-105.938,30.7085,2.79e-05
2016-12-11 00:00:00,2016-12-11 00:00:00,PRATE,surface,-105,30.7085,4.8e-05
2016-12-11 00:00:00,2016-12-11 00:00:00,PRATE,surface,-104.063,30.7085,5.43e-05
2016-12-11 00:00:00,2016-12-11 00:00:00,PRATE,surface,-103.125,30.7085,4.86e-05
2016-12-11 00:00:00,2016-12-11 00:00:00,PRATE,surface,-102.188,30.7085,4.39e-05
2016-12-11 00:00:00,2016-12-11 00:00:00,PRATE,surface,-101.25,30.7085,5.19e-05
2016-12-11 00:00:00,2016-12-11 00:00:00,PRATE,surface,-100.313,30.7085,6.2e-05
2016-12-11 00:00:00,2016-12-11 00:00:00,PRATE,surface,-99.3754,30.7085,5.59e-05
2016-12-11 00:00:00,2016-12-11 00:00:00,PRATE,surface,-98.4379,30.7085,4.05e-05
2016-12-11 00:00:00,2016-12-11 00:00:00,PRATE,surface,-97.5004,30.7085,3.42e-05
2016-12-11 00:00:00,2016-12-11 00:00:00,PRATE,surface,-96.5629,30.7085,3.22e-05
2016-12-11 00:00:00,2016-12-11 00:00:00,PRATE,surface,-95.6254,30.7085,2.81e-05
2016-12-11 00:00:00,2016-12-11 00:00:00,PRATE,surface,-94.6879,30.7085,2.44e-05
2016-12-11 00:00:00,2016-12-11 00:00:00,PRATE,surface,-93.7504,30.7085,1.52e-05
2016-12-11 00:00:00,2016-12-11 00:00:00,PRATE,surface,-92.8129,30.7085,1.25e-05
2016-12-11 00:00:00,2016-12-11 00:00:00,PRATE,surface,-107.813,31.6534,1.67e-05
2016-12-11 00:00:00,2016-12-11 00:00:00,PRATE,surface,-106.875,31.6534,1.67e-05
2016-12-11 00:00:00,2016-12-11 00:00:00,PRATE,surface,-105.938,31.6534,2.94e-05
2016-12-11 00:00:00,2016-12-11 00:00:00,PRATE,surface,-105,31.6534,3.3e-05
2016-12-11 00:00:00,2016-12-11 00:00:00,PRATE,surface,-104.063,31.6534,4.26e-05
2016-12-11 00:00:00,2016-12-11 00:00:00,PRATE,surface,-103.125,31.6534,4.25e-05
2016-12-11 00:00:00,2016-12-11 00:00:00,PRATE,surface,-102.188,31.6534,4.27e-05
2016-12-11 00:00:00,2016-12-11 00:00:00,PRATE,surface,-101.25,31.6534,5.35e-05
2016-12-11 00:00:00,2016-12-11 00:00:00,PRATE,surface,-100.313,31.6534,6.11e-05
2016-12-11 00:00:00,2016-12-11 00:00:00,PRATE,surface,-99.3754,31.6534,5.4e-05
2016-12-11 00:00:00,2016-12-11 00:00:00,PRATE,surface,-98.4379,31.6534,3.98e-05
2016-12-11 00:00:00,2016-12-11 00:00:00,PRATE,surface,-97.5004,31.6534,3.43e-05
2016-12-11 00:00:00,2016-12-11 00:00:00,PRATE,surface,-96.5629,31.6534,3.19e-05
2016-12-11 00:00:00,2016-12-11 00:00:00,PRATE,surface,-95.6254,31.6534,2.57e-05
2016-12-11 00:00:00,2016-12-11 00:00:00,PRATE,surface,-94.6879,31.6534,2.08e-05
2016-12-11 00:00:00,2016-12-11 00:00:00,PRATE,surface,-93.7504,31.6534,1.38e-05
2016-12-11 00:00:00,2016-12-11 00:00:00,PRATE,surface,-92.8129,31.6534,1.18e-05
2016-12-11 00:00:00,2016-12-11 00:00:00,PRATE,surface,-107.813,32.5983,3.18e-05
2016-12-11 00:00:00,2016-12-11 00:00:00,PRATE,surface,-106.875,32.5983,2.58e-05
2016-12-11 00:00:00,2016-12-11 00:00:00,PRATE,surface,-105.938,32.5983,3.22e-05
2016-12-11 00:00:00,2016-12-11 00:00:00,PRATE,surface,-105,32.5983,3.19e-05
2016-12-11 00:00:00,2016-12-11 00:00:00,PRATE,surface,-104.063,32.5983,3.98e-05
2016-12-11 00:00:00,2016-12-11 00:00:00,PRATE,surface,-103.125,32.5983,4.46e-05
2016-12-11 00:00:00,2016-12-11 00:00:00,PRATE,surface,-102.188,32.5983,5.23e-05
2016-12-11 00:00:00,2016-12-11 00:00:00,PRATE,surface,-101.25,32.5983,7.01e-05
2016-12-11 00:00:00,2016-12-11 00:00:00,PRATE,surface,-100.313,32.5983,7.12e-05
2016-12-11 00:00:00,2016-12-11 00:00:00,PRATE,surface,-99.3754,32.5983,5.47e-05
2016-12-11 00:00:00,2016-12-11 00:00:00,PRATE,surface,-98.4379,32.5983,3.95e-05
2016-12-11 00:00:00,2016-12-11 00:00:00,PRATE,surface,-97.5004,32.5983,3.27e-05
2016-12-11 00:00:00,2016-12-11 00:00:00,PRATE,surface,-96.5629,32.5983,3.17e-05
2016-12-11 00:00:00,2016-12-11 00:00:00,PRATE,surface,-95.6254,32.5983,3.03e-05
2016-12-11 00:00:00,2016-12-11 00:00:00,PRATE,surface,-94.6879,32.5983,2.58e-05
2016-12-11 00:00:00,2016-12-11 00:00:00,PRATE,surface,-93.7504,32.5983,2.21e-05
2016-12-11 00:00:00,2016-12-11 00:00:00,PRATE,surface,-92.8129,32.5983,1.57e-05
2016-12-11 00:00:00,2016-12-11 00:00:00,PRATE,surface,-107.813,33.5432,4.98e-05
2016-12-11 00:00:00,2016-12-11 00:00:00,PRATE,surface,-106.875,33.5432,3.82e-05
2016-12-11 00:00:00,2016-12-11 00:00:00,PRATE,surface,-105.938,33.5432,3.52e-05
2016-12-11 00:00:00,2016-12-11 00:00:00,PRATE,surface,-105,33.5432,3.7e-05
2016-12-11 00:00:00,2016-12-11 00:00:00,PRATE,surface,-104.063,33.5432,3.38e-05
2016-12-11 00:00:00,2016-12-11 00:00:00,PRATE,surface,-103.125,33.5432,4.89e-05
2016-12-11 00:00:00,2016-12-11 00:00:00,PRATE,surface,-102.188,33.5432,6.04e-05
2016-12-11 00:00:00,2016-12-11 00:00:00,PRATE,surface,-101.25,33.5432,7.8e-05
2016-12-11 00:00:00,2016-12-11 00:00:00,PRATE,surface,-100.313,33.5432,7.51e-05
2016-12-11 00:00:00,2016-12-11 00:00:00,PRATE,surface,-99.3754,33.5432,5.75e-05
2016-12-11 00:00:00,2016-12-11 00:00:00,PRATE,surface,-98.4379,33.5432,4.7e-05
2016-12-11 00:00:00,2016-12-11 00:00:00,PRATE,surface,-97.5004,33.5432,4.4e-05
2016-12-11 00:00:00,2016-12-11 00:00:00,PRATE,surface,-96.5629,33.5432,3.79e-05
2016-12-11 00:00:00,2016-12-11 00:00:00,PRATE,surface,-95.6254,33.5432,2.93e-05
2016-12-11 00:00:00,2016-12-11 00:00:00,PRATE,surface,-94.6879,33.5432,2.55e-05
2016-12-11 00:00:00,2016-12-11 00:00:00,PRATE,surface,-93.7504,33.5432,2.3e-05
2016-12-11 00:00:00,2016-12-11 00:00:00,PRATE,surface,-92.8129,33.5432,1.54e-05
2016-12-11 00:00:00,2016-12-11 00:00:00,PRATE,surface,-107.813,34.4881,4.03e-05
2016-12-11 00:00:00,2016-12-11 00:00:00,PRATE,surface,-106.875,34.4881,3.11e-05
2016-12-11 00:00:00,2016-12-11 00:00:00,PRATE,surface,-105.938,34.4881,2.82e-05
2016-12-11 00:00:00,2016-12-11 00:00:00,PRATE,surface,-105,34.4881,4.1e-05
2016-12-11 00:00:00,2016-12-11 00:00:00,PRATE,surface,-104.063,34.4881,4.4e-05
2016-12-11 00:00:00,2016-12-11 00:00:00,PRATE,surface,-103.125,34.4881,4.78e-05
2016-12-11 00:00:00,2016-12-11 00:00:00,PRATE,surface,-102.188,34.4881,6.11e-05
2016-12-11 00:00:00,2016-12-11 00:00:00,PRATE,surface,-101.25,34.4881,6.51e-05
2016-12-11 00:00:00,2016-12-11 00:00:00,PRATE,surface,-100.313,34.4881,6.1e-05
2016-12-11 00:00:00,2016-12-11 00:00:00,PRATE,surface,-99.3754,34.4881,5.27e-05
2016-12-11 00:00:00,2016-12-11 00:00:00,PRATE,surface,-98.4379,34.4881,5.05e-05
2016-12-11 00:00:00,2016-12-11 00:00:00,PRATE,surface,-97.5004,34.4881,5.41e-05
2016-12-11 00:00:00,2016-12-11 00:00:00,PRATE,surface,-96.5629,34.4881,5.04e-05
2016-12-11 00:00:00,2016-12-11 00:00:00,PRATE,surface,-95.6254,34.4881,3.7e-05
2016-12-11 00:00:00,2016-12-11 00:00:00,PRATE,surface,-94.6879,34.4881,2.67e-05
2016-12-11 00:00:00,2016-12-11 00:00:00,PRATE,surface,-93.7504,34.4881,2.43e-05
2016-12-11 00:00:00,2016-12-11 00:00:00,PRATE,surface,-92.8129,34.4881,2.1e-05
2016-12-11 00:00:00,2016-12-11 00:00:00,PRATE,surface,-107.813,35.4329,2.14e-05
2016-12-11 00:00:00,2016-12-11 00:00:00,PRATE,surface,-106.875,35.4329,1.83e-05
2016-12-11 00:00:00,2016-12-11 00:00:00,PRATE,surface,-105.938,35.4329,2.2e-05
2016-12-11 00:00:00,2016-12-11 00:00:00,PRATE,surface,-105,35.4329,4.16e-05
2016-12-11 00:00:00,2016-12-11 00:00:00,PRATE,surface,-104.063,35.4329,5.57e-05
2016-12-11 00:00:00,2016-12-11 00:00:00,PRATE,surface,-103.125,35.4329,6.49e-05
2016-12-11 00:00:00,2016-12-11 00:00:00,PRATE,surface,-102.188,35.4329,6.72e-05
2016-12-11 00:00:00,2016-12-11 00:00:00,PRATE,surface,-101.25,35.4329,5.87e-05
2016-12-11 00:00:00,2016-12-11 00:00:00,PRATE,surface,-100.313,35.4329,5.03e-05
2016-12-11 00:00:00,2016-12-11 00:00:00,PRATE,surface,-99.3754,35.4329,4.7e-05
2016-12-11 00:00:00,2016-12-11 00:00:00,PRATE,surface,-98.4379,35.4329,4.37e-05
2016-12-11 00:00:00,2016-12-11 00:00:00,PRATE,surface,-97.5004,35.4329,4.38e-05
2016-12-11 00:00:00,2016-12-11 00:00:00,PRATE,surface,-96.5629,35.4329,4.41e-05
2016-12-11 00:00:00,2016-12-11 00:00:00,PRATE,surface,-95.6254,35.4329,3.68e-05
2016-12-11 00:00:00,2016-12-11 00:00:00,PRATE,surface,-94.6879,35.4329,2.83e-05
2016-12-11 00:00:00,2016-12-11 00:00:00,PRATE,surface,-93.7504,35.4329,2.63e-05
2016-12-11 00:00:00,2016-12-11 00:00:00,PRATE,surface,-92.8129,35.4329,2.59e-05
2016-12-11 00:00:00,2016-12-11 00:00:00,PRATE,surface,-107.813,36.3778,3.38e-05
2016-12-11 00:00:00,2016-12-11 00:00:00,PRATE,surface,-106.875,36.3778,2.85e-05
2016-12-11 00:00:00,2016-12-11 00:00:00,PRATE,surface,-105.938,36.3778,3.19e-05
2016-12-11 00:00:00,2016-12-11 00:00:00,PRATE,surface,-105,36.3778,4.54e-05
2016-12-11 00:00:00,2016-12-11 00:00:00,PRATE,surface,-104.063,36.3778,4.34e-05
2016-12-11 00:00:00,2016-12-11 00:00:00,PRATE,surface,-103.125,36.3778,4.41e-05
2016-12-11 00:00:00,2016-12-11 00:00:00,PRATE,surface,-102.188,36.3778,4.2e-05
2016-12-11 00:00:00,2016-12-11 00:00:00,PRATE,surface,-101.25,36.3778,4.15e-05
2016-12-11 00:00:00,2016-12-11 00:00:00,PRATE,surface,-100.313,36.3778,3.53e-05
2016-12-11 00:00:00,2016-12-11 00:00:00,PRATE,surface,-99.3754,36.3778,3.47e-05
2016-12-11 00:00:00,2016-12-11 00:00:00,PRATE,surface,-98.4379,36.3778,3.58e-05
2016-12-11 00:00:00,2016-12-11 00:00:00,PRATE,surface,-97.5004,36.3778,3.48e-05
2016-12-11 00:00:00,2016-12-11 00:00:00,PRATE,surface,-96.5629,36.3778,3.48e-05
2016-12-11 00:00:00,2016-12-11 00:00:00,PRATE,surface,-95.6254,36.3778,3.21e-05
2016-12-11 00:00:00,2016-12-11 00:00:00,PRATE,surface,-94.6879,36.3778,2.54e-05
2016-12-11 00:00:00,2016-12-11 00:00:00,PRATE,surface,-93.7504,36.3778,2.59e-05
2016-12-11 00:00:00,2016-12-11 00:00:00,PRATE,surface,-92.8129,36.3778,2.99e-05
