xmlns:cpt=http://iri.columbia.edu/CPT/v10/
cpt:nfields=2
cpt:field=undefined, cpt:climit=lower (95.%), cpt:nrow=28, cpt:ncol=1, cpt:row=T, cpt:col=station, cpt:units=none, cpt:missing=-999.00000000000000               
	02.0
cpt:Y	30.751289900000000
cpt:X	-98.669759900000003
1983	3.5713773410623091
1984	2.9844539792190643
1985	4.8839593031096156
1986	3.4506991955564610
1987	4.6977979495210018
1988	3.9387424291915902
1989	3.3932623310856855
1990	3.5649919050932426
1991	3.9699761809198995
1992	5.0098161551825502
1993	4.2022417519255706
1994	3.6028001823930831
1995	4.0133092526220073
1996	3.2232482838210945
1997	3.4138899046259272
1998	4.1089027677024292
1999	3.5543345033730143
2000	3.1276301753788647
2001	4.3601199516617619
2002	3.9440590160009199
2003	3.8417908325809518
2004	3.6129595724543559
2005	4.1567449699372840
2006	3.3150282350337235
2007	3.4568360105075531
2008	3.1745325278561123
2009	2.9035365260926511
2010	4.7137988519036709
cpt:field=undefined, cpt:climit=upper (95.%), cpt:nrow=28, cpt:ncol=1, cpt:row=T, cpt:col=station, cpt:units=none, cpt:missing=-999.00000000000000               
	02.0
cpt:Y	30.751289900000000
cpt:X	-98.669759900000003
1983	7.5453481432898517
1984	6.7236952983036860
1985	9.1150766252376663
1986	7.0997296136500809
1987	8.4097345019715721
1988	7.7348390028949456
1989	7.2000781321189429
1990	7.5773626681200170
1991	7.5833017981212256
1992	8.8731970822216653
1993	7.8096043129312092
1994	7.2386761266355419
1995	7.5833019622064244
1996	6.9042049864439754
1997	7.0530095943758724
1998	7.7028926680103149
1999	7.2266673834377224
2000	6.9181905098067347
2001	8.0921008964645171
2002	7.5312120416906749
2003	7.5154640736878964
2004	7.2566935156367105
2005	7.8085006708544320
2006	7.0214003466438015
2007	7.0717939483081533
2008	7.0770697768103741
2009	6.7185327946027122
2010	8.5750614397109768
