xmlns:cpt=http://iri.columbia.edu/CPT/v10/
cpt:nfields=1
cpt:field=X_scores, cpt:nrow=28, cpt:ncol=4, cpt:row=T, cpt:col=index 
	1	2	3	4
1983	-11.048196384168874	-4.4139877100498701	-1.0443387632714991	-1.0217867478370550
1984	-2.7105109308437521	-5.8994475891484903	0.78735198565649533	-0.75652028438958863
1985	-3.2664353118120162	-4.1168028688192289	-0.48789016866872370	1.1705832009952768
1986	-3.2202343065838477	-0.50482266815298615	3.1783748224200217	1.1797563326027323
1987	-8.7075226839307263	-0.63871942229248768	-0.32748853196489641	-0.16200908992636956
1988	1.5809907197162401	-2.5006060380413024	0.83211176513881413	0.74006023753253891
1989	-0.42297927508306571	-8.3502128157619496E-002	4.3210461556841189	0.18958174795676083
1990	-2.6336046203152597	0.30771000298083018	-0.34737521073936090	1.4255768118734369
1991	4.0811110417425143	-2.7705026027176740	-0.86136517337273399	-0.89673259584239395
1992	-9.0260198307445947	5.5331065629793112	-8.7127455434075615E-002	-0.49175777354364797
1993	-3.9070884426937162	3.7496975544600422	-0.85644595969240289	-1.0843754125790881
1994	7.7389154593821088	-3.7593120385353691	0.38467993147858059	0.22912866872391116
1995	2.4338063430128511	-0.24793845481382934	1.1112533660579764	-2.3201348101537924
1996	4.1829956351604007	0.65144117971472804	0.88980932589896800	-1.4272095003582483
1997	1.3775930908217415	-2.7490169544153438	-0.37080852660481461	1.2487631970314088
1998	-0.48047714223034010	1.1062539974531715	-0.57910837042917152	-0.59098441646446809
1999	3.7188025633825830	0.69239183751805256	0.35371030962006922	-1.9294024154105536
2000	2.8622158714772694	2.4165611504058715	0.20815623110739989	0.83059551004931342
2001	1.5340910593110604	-0.66220894407770814	-1.5440868238380252	8.9129474577206200E-002
2002	1.4165723353192246	1.8992727970858903	-0.86003593544729395	0.54324493981666400
2003	2.6452236400490405	4.8356374261514005E-002	-2.1661091293860744	-0.25474682637092627
2004	0.54571992213033926	0.95236907415961347	-1.7070451706446079	0.33895209129217130
2005	1.7405298342715383	-1.0434006378857708	0.41834157959471363	0.55274806683281297
2006	4.2284323096112164	1.8377453499128060	-0.31652325664882802	0.11038081508097376
2007	3.7721469024474081	1.4540576301747064	-1.0045047177680400	0.22585684069686759
2008	2.2134123210726009	3.0232069671958839	0.83543593641604863	0.36610425949296926
2009	-0.88911435714047915	4.2431033448417894	2.4234960437046169	0.66998361823504049
2010	0.23962423663739005	1.4749942339627506	-3.1835142588675183	1.0252140600862105
