xmlns:cpt=http://iri.columbia.edu/CPT/v10/
cpt:nfields=1
cpt:field=undefined, cpt:nrow=1, cpt:ncol=31, cpt:row=Y station, cpt:col=X station, cpt:units=none, cpt:missing=-999.00000000000000               
	
Station	
Latitude	
Longitude	PRATE_1	PRATE_2	PRATE_3	PRATE_4	PRATE_5	PRATE_6	PRATE_7	PRATE_8	PRATE_9	PRATE_10	PRATE_11	PRATE_12	PRATE_13	PRATE_14	PRATE_15	TMP_1	TMP_2	TMP_3	TMP_4	TMP_5	TMP_6	TMP_7	TMP_8	TMP_9	TMP_10	TMP_11	TMP_12	TMP_13	TMP_14	TMP_15	08.0
cpt:Y	32.598300000000002	32.598300000000002	32.598300000000002	32.598300000000002	32.598300000000002	33.543170000000003	33.543170000000003	33.543170000000003	33.543170000000003	33.543170000000003	34.488050000000001	34.488050000000001	34.488050000000001	34.488050000000001	34.488050000000001	32.598300000000002	32.598300000000002	32.598300000000002	32.598300000000002	32.598300000000002	33.543170000000003	33.543170000000003	33.543170000000003	33.543170000000003	33.543170000000003	34.488050000000001	34.488050000000001	34.488050000000001	34.488050000000001	34.488050000000001	33.008157699999998
cpt:X	-100.31250000000000	-101.25000000000000	-102.18750000000000	-103.12500000000000	-99.375000000000000	-100.31250000000000	-101.25000000000000	-102.18750000000000	-103.12500000000000	-99.375000000000000	-100.31250000000000	-101.25000000000000	-102.18750000000000	-103.12500000000000	-99.375000000000000	-100.31250000000000	-101.25000000000000	-102.18750000000000	-103.12500000000000	-99.375000000000000	-100.31250000000000	-101.25000000000000	-102.18750000000000	-103.12500000000000	-99.375000000000000	-100.31250000000000	-101.25000000000000	-102.18750000000000	-103.12500000000000	-99.375000000000000	-100.18065890000000
09.0	33.008157699999998   	-100.18065890000000  	-0.45345425473962470 	-0.19489104440902952 	-0.20589213864395947 	-0.20234071200664466 	-0.56305500861961533 	0.15601936223000787  	0.19453567590179024  	0.13529106932335119  	8.5895530653686325E-002   	5.8914658015765120E-003   	0.38220271750150370  	0.40084315700974299  	0.18509026278683335  	-6.6771462193775527E-002  	0.22289446756034884  	7.6198202215978700E-002   	7.8486593307366959E-003   	-8.8636019026409371E-002  	-0.14558996844874247 	0.16477486887747284  	-6.5553913814064696E-002  	-0.15541851375690591 	-0.17408457310884223 	-0.12202117388943576 	4.5726803673062644E-002   	-0.10137025578464134 	-0.12359901040828410 	-8.5230326523688157E-002  	-4.0983038405217928E-002  	-2.6375283519516166E-002  	2.1617433490595421   
