xmlns:cpt=http://iri.columbia.edu/CPT/v10/
cpt:nfields=3
cpt:field=undefined_prob_B, cpt:nrow=28, cpt:ncol=1, cpt:row=T, cpt:col=station, cpt:units=%, cpt:missing=-999.00000000000000               
	13.0
cpt:Y	33.008157699999998
cpt:X	-100.18065890000000
1983	33.670899341633870
1984	14.176612243865648
1985	29.613270994734904
1986	14.114382641995618
1987	32.017973126799390
1988	42.939044406599372
1989	78.331440524060596
1990	45.560705977365480
1991	10.137516382173573
1992	29.191911709120788
1993	64.075423578314513
1994	69.368986149944931
1995	65.095481579584117
1996	33.484189652029201
1997	30.239197812619039
1998	97.554239500867439
1999	97.277013247268840
2000	30.292301026753393
2001	37.131722037870404
2002	20.947895457776127
2003	68.213417363019971
2004	14.949735659401838
2005	37.478596352879933
2006	21.150300496902659
2007	35.343122015889548
2008	26.057401685660125
2009	48.267554631086696
2010	40.829518225016805
cpt:field=undefined_prob_N, cpt:nrow=28, cpt:ncol=1, cpt:row=T, cpt:col=station, cpt:units=%, cpt:missing=-999.00000000000000               
	13.0
cpt:Y	33.008157699999998
cpt:X	-100.18065890000000
1983	26.775060641153424
1984	20.296406809734520
1985	24.676803254653770
1986	19.085464103968675
1987	26.604595826712796
1988	25.673602655257302
1989	13.893041369921161
1990	26.399526311828382
1991	17.025045138000095
1992	27.048966012504181
1993	21.279234618360675
1994	17.610348452576503
1995	19.901129982325052
1996	27.452623945519619
1997	24.230959327821338
1998	1.7996677077681165
1999	2.0176496742286587
2000	27.151395478948253
2001	27.638277118012617
2002	23.156554881522034
2003	18.117795378946639
2004	21.051502020273965
2005	26.505499661332337
2006	24.741202821931346
2007	25.837603462252233
2008	26.252090427046355
2009	24.328301421027231
2010	26.471740139117735
cpt:field=undefined_prob_A, cpt:nrow=28, cpt:ncol=1, cpt:row=T, cpt:col=station, cpt:units=%, cpt:missing=-999.00000000000000               
	13.0
cpt:Y	33.008157699999998
cpt:X	-100.18065890000000
1983	39.554040017212706
1984	65.526980946399831
1985	45.709925750611326
1986	66.800153254035706
1987	41.377431046487814
1988	31.387352938143326
1989	7.7755181060182474
1990	28.039767710806139
1991	72.837438479826332
1992	43.759122278375031
1993	14.645341803324813
1994	13.020665397478560
1995	15.003388438090829
1996	39.063186402451180
1997	45.529842859559622
1998	0.64609279136444775
1999	0.70533707850249672
2000	42.556303494298355
2001	35.230000844116979
2002	55.895549660701839
2003	13.668787258033399
2004	63.998762320324197
2005	36.015903985787730
2006	54.108496681165995
2007	38.819274521858219
2008	47.690507887293521
2009	27.404143947886073
2010	32.698741635865460
