xmlns:cpt=http://iri.columbia.edu/CPT/v10/
cpt:nfields=1
cpt:field=coefficients, cpt:nrow=1, cpt:ncol=4, cpt:row=station, cpt:col=mode 
Station	Latitude	Longitude	1	2	3	4
05.0	33.008157699999998	-100.18065890000000	-0.32270359177765229	-0.23976881829189756	0.25285585836574370	-0.27802112364039944
