xmlns:cpt=http://iri.columbia.edu/CPT/v10/
cpt:nfields=1
cpt:field=undefined, cpt:nrow=1, cpt:ncol=13, cpt:row=Y station, cpt:col=X station, cpt:units=none, cpt:missing=-999.00000000000000               
	
Station	
Latitude	
Longitude	PRATE_1	PRATE_2	PRATE_3	PRATE_4	PRATE_5	PRATE_6	TMP_1	TMP_2	TMP_3	TMP_4	TMP_5	TMP_6	03.0
cpt:Y	32.598300000000002	32.598300000000002	32.598300000000002	33.543170000000003	33.543170000000003	33.543170000000003	32.598300000000002	32.598300000000002	32.598300000000002	33.543170000000003	33.543170000000003	33.543170000000003	32.932977780000002
cpt:X	-100.31250000000000	-98.437500000000000	-99.375000000000000	-100.31250000000000	-98.437500000000000	-99.375000000000000	-100.31250000000000	-98.437500000000000	-99.375000000000000	-100.31250000000000	-98.437500000000000	-99.375000000000000	-99.215388899999994
04.0	32.932977780000002   	-99.215388899999994  	6.9484097539345202E-002   	-7.8089355001892402E-002  	-3.2627840684920563E-002  	0.11071769427950909  	-2.2299072337023124E-002  	-1.6761394862026373E-002  	1.4807083115977088E-002   	9.4500453390113093E-003   	1.8103709288271042E-004   	4.4475197064600243E-002   	1.9639370100433630E-002   	2.4587850445870765E-002   	0.75427365271148361  
