xmlns:cpt=http://iri.columbia.edu/CPT/v10/
cpt:nfields=3
cpt:field=undefined_relodds_B, cpt:nrow=28, cpt:ncol=1, cpt:row=T, cpt:col=station, cpt:missing=-999.00000000000000               
	11.0
cpt:Y	32.932977780000002
cpt:X	-99.215388899999994
1983	1.0418861362464085
1984	0.77574884281974965
1985	0.65725577104865496
1986	0.38418052537654895
1987	1.8021471078800240
1988	1.5642442857093384
1989	2.0524452007249598
1990	1.0817432943480030
1991	0.62915147701583107
1992	0.86312584463285658
1993	0.51122498451331122
1994	0.62129574905961338
1995	1.3383892058108930
1996	1.0121719410846861
1997	1.4248345603761490
1998	3.6766993040990519
1999	79.555835982729391
2000	0.89668312050026977
2001	0.99351758774036791
2002	1.0127517930597465
2003	4.5885531060244746
2004	1.2805512627224971
2005	1.4743049494543070
2006	6.6793418517399505
2007	0.92481686348248004
2008	1.6966025313973776
2009	1.2134492072478629
2010	0.97975177418854864
cpt:field=undefined_relodds_N, cpt:nrow=28, cpt:ncol=1, cpt:row=T, cpt:col=station, cpt:missing=-999.00000000000000               
	11.0
cpt:Y	32.932977780000002
cpt:X	-99.215388899999994
1983	0.56253972891717363
1984	0.53317725965492480
1985	0.52193781121580962
1986	0.34594349324766394
1987	0.51338233459306937
1988	0.55884903688266241
1989	0.54722617544211760
1990	0.54313839531729702
1991	0.51425721398584812
1992	0.53226771781896465
1993	0.45318439201278365
1994	0.50252656676600449
1995	0.57504862171269300
1996	0.54893944314596865
1997	0.47898895880124165
1998	0.43403972931678875
1999	3.1259000436385735E-002
2000	0.56717804880531897
2001	0.56660279561207927
2002	0.56335801703315502
2003	0.37583635505860136
2004	0.56818081183255376
2005	0.55204986926334987
2006	0.29470209493790572
2007	0.55228009628668506
2008	0.56392874836014184
2009	0.58034293531243497
2010	0.52917897462406016
cpt:field=undefined_relodds_A, cpt:nrow=28, cpt:ncol=1, cpt:row=T, cpt:col=station, cpt:missing=-999.00000000000000               
	11.0
cpt:Y	32.932977780000002
cpt:X	-99.215388899999994
1983	1.5584814840854588
1984	2.0820376034749595
1985	2.4023497155366136
1986	4.4808416291833089
1987	0.94880445549176173
1988	1.0428903181015343
1989	0.77275985849178463
1990	1.5424136273647560
1991	2.5061817685222594
1992	1.9088696872280411
1993	3.1505366251668487
1994	2.5680221621948123
1995	1.2039764413499379
1996	1.6272150218217099
1997	1.2827264564869287
1998	0.42129779046792604
1999	1.8436598220667726E-002
2000	1.7701023850088615
2001	1.6189302142344277
2002	1.5975848503216690
2003	0.34018196972677545
2004	1.2701913957571827
2005	1.1217731258624162
2006	0.22718401505914512
2007	1.7552800472217198
2008	0.94589951936343586
2009	1.3193641681041013
2010	1.7172461827607954
