xmlns:cpt=http://iri.columbia.edu/CPT/v10/
cpt:nfields=1
cpt:field=X_loadings, cpt:nrow=9, cpt:ncol=4, cpt:row=station, cpt:col=mode 
Station	Latitude	Longitude	1	2	3	4
prec_1	29.301359999999999	-101.25000000000000	-0.37289166712723354	-0.12862881094160949	-0.18793086838145057	0.39526893528501539
prec_2	29.301359999999999	-98.437500000000000	-0.28150036017507685	0.43572801462787553	-0.39134965124022592	-0.31005817814782222
prec_3	26.510770000000001	-101.25000000000000	-0.35381219008341108	-8.8610946444841937E-002	-0.34729205121275475	0.50633503924919054
prec_4	26.510770000000001	-98.437500000000000	-0.31038131761256516	0.31192856358543986	-0.40488369670303126	-0.29945048793147144
st_1	29.301359999999999	-101.25000000000000	0.38602307038200934	0.18073226428631090	-0.27213570048588231	-9.0986311545809107E-002
st_2	29.301359999999999	-98.437500000000000	0.36423625175181068	1.2301972687881454E-002	-0.34698774302606139	0.15046451218961118
st_3	26.510770000000001	-101.25000000000000	0.38635279891227986	0.17884536702298959	-0.16013081714641697	-5.4492539960429645E-002
st_4	26.510770000000001	-98.437500000000000	0.35888730247902850	3.7188193532917441E-002	-0.35255736072120059	0.43611558872078510
08.0	28.308889059999998	-98.557238400000003	-2.0959116595268654E-002	0.78883476135624997	0.42730312192181996	0.42130310503798174
