xmlns:cpt=http://iri.columbia.edu/CPT/v10/
cpt:nfields=1
cpt:field=coefficients, cpt:nrow=1, cpt:ncol=4, cpt:row=station, cpt:col=mode 
Station	Latitude	Longitude	1	2	3	4
04.0	28.308889059999998	-98.557238400000003	-0.81560681319868045	2.8100189362348966	3.0391009720607669	-0.14110356644957489
