xmlns:cpt=http://iri.columbia.edu/CPT/v10/
cpt:nfields=1
cpt:field=coefficients, cpt:nrow=1, cpt:ncol=4, cpt:row=station, cpt:col=mode 
Station	Latitude	Longitude	1	2	3	4
11.0	28.308889059999998	-98.557238400000003	-7.8568765603870036E-002	2.1212526514268952	0.53730234298486279	-1.7203891859769005
