xmlns:cpt=http://iri.columbia.edu/CPT/v10/
cpt:nfields=1
cpt:field=eigenvalues, cpt:nrow=9, cpt:ncol=3, cpt:row=mode, cpt:col=index 
Mode	Eigenvalue	% variance	Cum. % variance
1	6.1014377112001714	67.793752346668583	67.793752346668583
2	1.4450190954600439	16.055767727333823	83.849520074002399
3	0.96417181789460127	10.713020198828906	94.562540272831299
4	0.37002237617488704	4.1113597352765234	98.673900008107822
5	5.9859831496120314E-002	0.66510923884578144	99.339009246953623
6	3.3501262333566262E-002	0.37223624815073630	99.711245495104350
7	1.9409766619320857E-002	0.21566407354800957	99.926909568652363
8	5.3921330325417743E-003	5.9912589250464166E-002	99.986822157902822
9	1.1860057887452223E-003	1.3177842097169139E-002	100.00000000000000
